597
# CPU
0,121,1	1,120,5	6,75,5	11,76,5	16,74,5	21,73,5	26,72,5	31,77,5	36,71,5	41,78,5	46,70,5	51,79,5	56,69,5	61,68,5	66,67,5	71,80,5	76,66,5	81,81,5	86,65,5	91,82,5	96,64,5	101,63,5	106,62,5	111,83,5	116,61,5	121,84,5	126,60,5	131,85,5	136,59,5	141,58,5	146,57,5	151,86,5	156,56,5	161,87,5	166,55,5	171,88,5	176,54,5	181,53,5	186,52,5	191,89,5	196,51,5	201,90,5	206,50,5	211,91,5	216,49,5	221,48,5	226,47,5	231,92,5	236,46,5	241,93,5	246,45,5	251,94,5	256,44,5	261,43,5	266,42,5	271,95,5	276,41,5	281,104,5	286,103,5	291,105,5	296,102,5	301,101,5	306,100,5	311,106,5	316,99,5	321,98,5	326,107,5	331,97,5	336,96,5	341,40,5	346,108,5	351,39,5	356,38,5	361,37,5	366,109,5	371,35,5	376,34,5	381,33,5	386,110,5	391,32,5	396,31,5	401,30,5	406,111,5	411,29,5	416,28,5	421,27,5	426,112,5	431,26,5	436,17,5	441,16,5	446,18,5	451,15,5	456,19,5	461,14,5	466,20,5	471,13,5	476,21,5	481,12,5	486,22,5	491,11,5	496,23,5	501,10,5	506,24,5	511,9,5	516,1,5	521,2,5	526,3,5	531,4,5	536,5,5	541,6,5	546,7,5	551,8,5	556,25,5	561,113,5	566,114,5	571,115,5	576,116,5	581,117,5	586,118,5	591,119,5	596,0,1	

310,36,5	
# Incoming
315,(36, 0),3	

1,(121, 36),309	
# Outgoing
1,(121, 36),309	

315,(36, 0),3	
