9993
# CPU
25,5,1	49,10,1	73,15,1	97,20,1	121,25,1	145,30,1	169,35,1	193,40,1	217,45,1	241,50,1	265,55,1	289,60,1	313,65,1	337,70,1	361,75,1	385,80,1	409,85,1	433,90,1	457,95,1	481,100,1	505,105,1	529,110,1	553,115,1	577,120,1	601,125,1	625,130,1	649,135,1	673,140,1	697,145,1	721,150,1	745,155,1	769,160,1	
19,4,1	43,9,1	67,14,1	91,19,1	115,24,1	139,29,1	163,34,1	187,39,1	211,44,1	235,49,1	259,54,1	283,59,1	307,64,1	331,69,1	355,74,1	379,79,1	403,84,1	427,89,1	451,94,1	475,99,1	499,104,1	523,109,1	547,114,1	571,119,1	595,124,1	619,129,1	643,134,1	667,139,1	691,144,1	715,149,1	739,154,1	763,159,1	
13,3,1	37,8,1	61,13,1	85,18,1	109,23,1	133,28,1	157,33,1	181,38,1	205,43,1	229,48,1	253,53,1	277,58,1	301,63,1	325,68,1	349,73,1	373,78,1	397,83,1	421,88,1	445,93,1	469,98,1	493,103,1	517,108,1	541,113,1	565,118,1	589,123,1	613,128,1	637,133,1	661,138,1	685,143,1	709,148,1	733,153,1	757,158,1	
7,2,1	31,7,1	55,12,1	79,17,1	103,22,1	127,27,1	151,32,1	175,37,1	199,42,1	223,47,1	247,52,1	271,57,1	295,62,1	319,67,1	343,72,1	367,77,1	391,82,1	415,87,1	439,92,1	463,97,1	487,102,1	511,107,1	535,112,1	559,117,1	583,122,1	607,127,1	631,132,1	655,137,1	679,142,1	703,147,1	727,152,1	751,157,1	
0,0,1	1,1,1	2,11,1	3,31,1	4,71,1	5,151,1	6,146,1	7,156,1	8,141,1	9,136,1	10,131,1	11,126,1	12,121,1	13,116,1	14,111,1	15,106,1	16,101,1	17,96,1	18,91,1	19,86,1	20,81,1	21,66,1	22,76,1	23,61,1	24,56,1	25,51,1	26,46,1	27,41,1	28,26,1	29,36,1	30,21,1	31,6,1	32,16,1	9992,161,1	
# Incoming
19,(0, 5),6	43,(0, 10),6	67,(0, 15),6	91,(0, 20),6	115,(0, 25),6	139,(0, 30),6	163,(0, 35),6	187,(0, 40),6	211,(0, 45),6	235,(0, 50),6	259,(0, 55),6	283,(0, 60),6	307,(0, 65),6	331,(0, 70),6	355,(0, 75),6	379,(0, 80),6	403,(0, 85),6	427,(0, 90),6	451,(0, 95),6	475,(0, 100),6	499,(0, 105),6	523,(0, 110),6	547,(0, 115),6	571,(0, 120),6	595,(0, 125),6	619,(0, 130),6	643,(0, 135),6	667,(0, 140),6	691,(0, 145),6	715,(0, 150),6	739,(0, 155),6	763,(0, 160),6	
13,(0, 4),6	37,(0, 9),6	61,(0, 14),6	85,(0, 19),6	109,(0, 24),6	133,(0, 29),6	157,(0, 34),6	181,(0, 39),6	205,(0, 44),6	229,(0, 49),6	253,(0, 54),6	277,(0, 59),6	301,(0, 64),6	325,(0, 69),6	349,(0, 74),6	373,(0, 79),6	397,(0, 84),6	421,(0, 89),6	445,(0, 94),6	469,(0, 99),6	493,(0, 104),6	517,(0, 109),6	541,(0, 114),6	565,(0, 119),6	589,(0, 124),6	613,(0, 129),6	637,(0, 134),6	661,(0, 139),6	685,(0, 144),6	709,(0, 149),6	733,(0, 154),6	757,(0, 159),6	
7,(0, 3),6	31,(0, 8),6	55,(0, 13),6	79,(0, 18),6	103,(0, 23),6	127,(0, 28),6	151,(0, 33),6	175,(0, 38),6	199,(0, 43),6	223,(0, 48),6	247,(0, 53),6	271,(0, 58),6	295,(0, 63),6	319,(0, 68),6	343,(0, 73),6	367,(0, 78),6	391,(0, 83),6	415,(0, 88),6	439,(0, 93),6	463,(0, 98),6	487,(0, 103),6	511,(0, 108),6	535,(0, 113),6	559,(0, 118),6	583,(0, 123),6	607,(0, 128),6	631,(0, 133),6	655,(0, 138),6	679,(0, 143),6	703,(0, 148),6	727,(0, 153),6	751,(0, 158),6	
1,(0, 2),6	25,(0, 7),6	49,(0, 12),6	73,(0, 17),6	97,(0, 22),6	121,(0, 27),6	145,(0, 32),6	169,(0, 37),6	193,(0, 42),6	217,(0, 47),6	241,(0, 52),6	265,(0, 57),6	289,(0, 62),6	313,(0, 67),6	337,(0, 72),6	361,(0, 77),6	385,(0, 82),6	409,(0, 87),6	433,(0, 92),6	457,(0, 97),6	481,(0, 102),6	505,(0, 107),6	529,(0, 112),6	553,(0, 117),6	577,(0, 122),6	601,(0, 127),6	625,(0, 132),6	649,(0, 137),6	673,(0, 142),6	697,(0, 147),6	721,(0, 152),6	745,(0, 157),6	
8,(2, 161),78	86,(3, 161),78	164,(4, 161),78	242,(5, 161),78	320,(7, 161),78	398,(8, 161),78	476,(9, 161),78	554,(10, 161),78	632,(12, 161),78	710,(13, 161),78	788,(14, 161),78	866,(15, 161),78	944,(17, 161),78	1022,(18, 161),78	1100,(19, 161),78	1178,(20, 161),78	1256,(22, 161),78	1334,(23, 161),78	1412,(24, 161),78	1490,(25, 161),78	1568,(27, 161),78	1646,(28, 161),78	1724,(29, 161),78	1802,(30, 161),78	1880,(32, 161),78	1958,(33, 161),78	2036,(34, 161),78	2114,(35, 161),78	2192,(37, 161),78	2270,(38, 161),78	2348,(39, 161),78	2426,(40, 161),78	2504,(42, 161),78	2582,(43, 161),78	2660,(44, 161),78	2738,(45, 161),78	2816,(47, 161),78	2894,(48, 161),78	2972,(49, 161),78	3050,(50, 161),78	3128,(52, 161),78	3206,(53, 161),78	3284,(54, 161),78	3362,(55, 161),78	3440,(57, 161),78	3518,(58, 161),78	3596,(59, 161),78	3674,(60, 161),78	3752,(62, 161),78	3830,(63, 161),78	3908,(64, 161),78	3986,(65, 161),78	4064,(67, 161),78	4142,(68, 161),78	4220,(69, 161),78	4298,(70, 161),78	4376,(72, 161),78	4454,(73, 161),78	4532,(74, 161),78	4610,(75, 161),78	4688,(77, 161),78	4766,(78, 161),78	4844,(79, 161),78	4922,(80, 161),78	5000,(82, 161),78	5078,(83, 161),78	5156,(84, 161),78	5234,(85, 161),78	5312,(87, 161),78	5390,(88, 161),78	5468,(89, 161),78	5546,(90, 161),78	5624,(92, 161),78	5702,(93, 161),78	5780,(94, 161),78	5858,(95, 161),78	5936,(97, 161),78	6014,(98, 161),78	6092,(99, 161),78	6170,(100, 161),78	6248,(102, 161),78	6326,(103, 161),78	6404,(104, 161),78	6482,(105, 161),78	6560,(107, 161),78	6638,(108, 161),78	6716,(109, 161),78	6794,(110, 161),78	6872,(112, 161),78	6950,(113, 161),78	7028,(114, 161),78	7106,(115, 161),78	7184,(117, 161),78	7262,(118, 161),78	7340,(119, 161),78	7418,(120, 161),78	7496,(122, 161),78	7574,(123, 161),78	7652,(124, 161),78	7730,(125, 161),78	7808,(127, 161),78	7886,(128, 161),78	7964,(129, 161),78	8042,(130, 161),78	8120,(132, 161),78	8198,(133, 161),78	8276,(134, 161),78	8354,(135, 161),78	8432,(137, 161),78	8510,(138, 161),78	8588,(139, 161),78	8666,(140, 161),78	8744,(142, 161),78	8822,(143, 161),78	8900,(144, 161),78	8978,(145, 161),78	9056,(147, 161),78	9134,(148, 161),78	9212,(149, 161),78	9290,(150, 161),78	9368,(152, 161),78	9446,(153, 161),78	9524,(154, 161),78	9602,(155, 161),78	9680,(157, 161),78	9758,(158, 161),78	9836,(159, 161),78	9914,(160, 161),78	
# Outgoing
242,(5, 161),78	554,(10, 161),78	866,(15, 161),78	1178,(20, 161),78	1490,(25, 161),78	1802,(30, 161),78	2114,(35, 161),78	2426,(40, 161),78	2738,(45, 161),78	3050,(50, 161),78	3362,(55, 161),78	3674,(60, 161),78	3986,(65, 161),78	4298,(70, 161),78	4610,(75, 161),78	4922,(80, 161),78	5234,(85, 161),78	5546,(90, 161),78	5858,(95, 161),78	6170,(100, 161),78	6482,(105, 161),78	6794,(110, 161),78	7106,(115, 161),78	7418,(120, 161),78	7730,(125, 161),78	8042,(130, 161),78	8354,(135, 161),78	8666,(140, 161),78	8978,(145, 161),78	9290,(150, 161),78	9602,(155, 161),78	9914,(160, 161),78	
164,(4, 161),78	476,(9, 161),78	788,(14, 161),78	1100,(19, 161),78	1412,(24, 161),78	1724,(29, 161),78	2036,(34, 161),78	2348,(39, 161),78	2660,(44, 161),78	2972,(49, 161),78	3284,(54, 161),78	3596,(59, 161),78	3908,(64, 161),78	4220,(69, 161),78	4532,(74, 161),78	4844,(79, 161),78	5156,(84, 161),78	5468,(89, 161),78	5780,(94, 161),78	6092,(99, 161),78	6404,(104, 161),78	6716,(109, 161),78	7028,(114, 161),78	7340,(119, 161),78	7652,(124, 161),78	7964,(129, 161),78	8276,(134, 161),78	8588,(139, 161),78	8900,(144, 161),78	9212,(149, 161),78	9524,(154, 161),78	9836,(159, 161),78	
86,(3, 161),78	398,(8, 161),78	710,(13, 161),78	1022,(18, 161),78	1334,(23, 161),78	1646,(28, 161),78	1958,(33, 161),78	2270,(38, 161),78	2582,(43, 161),78	2894,(48, 161),78	3206,(53, 161),78	3518,(58, 161),78	3830,(63, 161),78	4142,(68, 161),78	4454,(73, 161),78	4766,(78, 161),78	5078,(83, 161),78	5390,(88, 161),78	5702,(93, 161),78	6014,(98, 161),78	6326,(103, 161),78	6638,(108, 161),78	6950,(113, 161),78	7262,(118, 161),78	7574,(123, 161),78	7886,(128, 161),78	8198,(133, 161),78	8510,(138, 161),78	8822,(143, 161),78	9134,(148, 161),78	9446,(153, 161),78	9758,(158, 161),78	
8,(2, 161),78	320,(7, 161),78	632,(12, 161),78	944,(17, 161),78	1256,(22, 161),78	1568,(27, 161),78	1880,(32, 161),78	2192,(37, 161),78	2504,(42, 161),78	2816,(47, 161),78	3128,(52, 161),78	3440,(57, 161),78	3752,(62, 161),78	4064,(67, 161),78	4376,(72, 161),78	4688,(77, 161),78	5000,(82, 161),78	5312,(87, 161),78	5624,(92, 161),78	5936,(97, 161),78	6248,(102, 161),78	6560,(107, 161),78	6872,(112, 161),78	7184,(117, 161),78	7496,(122, 161),78	7808,(127, 161),78	8120,(132, 161),78	8432,(137, 161),78	8744,(142, 161),78	9056,(147, 161),78	9368,(152, 161),78	9680,(157, 161),78	
1,(0, 2),6	7,(0, 3),6	13,(0, 4),6	19,(0, 5),6	25,(0, 7),6	31,(0, 8),6	37,(0, 9),6	43,(0, 10),6	49,(0, 12),6	55,(0, 13),6	61,(0, 14),6	67,(0, 15),6	73,(0, 17),6	79,(0, 18),6	85,(0, 19),6	91,(0, 20),6	97,(0, 22),6	103,(0, 23),6	109,(0, 24),6	115,(0, 25),6	121,(0, 27),6	127,(0, 28),6	133,(0, 29),6	139,(0, 30),6	145,(0, 32),6	151,(0, 33),6	157,(0, 34),6	163,(0, 35),6	169,(0, 37),6	175,(0, 38),6	181,(0, 39),6	187,(0, 40),6	193,(0, 42),6	199,(0, 43),6	205,(0, 44),6	211,(0, 45),6	217,(0, 47),6	223,(0, 48),6	229,(0, 49),6	235,(0, 50),6	241,(0, 52),6	247,(0, 53),6	253,(0, 54),6	259,(0, 55),6	265,(0, 57),6	271,(0, 58),6	277,(0, 59),6	283,(0, 60),6	289,(0, 62),6	295,(0, 63),6	301,(0, 64),6	307,(0, 65),6	313,(0, 67),6	319,(0, 68),6	325,(0, 69),6	331,(0, 70),6	337,(0, 72),6	343,(0, 73),6	349,(0, 74),6	355,(0, 75),6	361,(0, 77),6	367,(0, 78),6	373,(0, 79),6	379,(0, 80),6	385,(0, 82),6	391,(0, 83),6	397,(0, 84),6	403,(0, 85),6	409,(0, 87),6	415,(0, 88),6	421,(0, 89),6	427,(0, 90),6	433,(0, 92),6	439,(0, 93),6	445,(0, 94),6	451,(0, 95),6	457,(0, 97),6	463,(0, 98),6	469,(0, 99),6	475,(0, 100),6	481,(0, 102),6	487,(0, 103),6	493,(0, 104),6	499,(0, 105),6	505,(0, 107),6	511,(0, 108),6	517,(0, 109),6	523,(0, 110),6	529,(0, 112),6	535,(0, 113),6	541,(0, 114),6	547,(0, 115),6	553,(0, 117),6	559,(0, 118),6	565,(0, 119),6	571,(0, 120),6	577,(0, 122),6	583,(0, 123),6	589,(0, 124),6	595,(0, 125),6	601,(0, 127),6	607,(0, 128),6	613,(0, 129),6	619,(0, 130),6	625,(0, 132),6	631,(0, 133),6	637,(0, 134),6	643,(0, 135),6	649,(0, 137),6	655,(0, 138),6	661,(0, 139),6	667,(0, 140),6	673,(0, 142),6	679,(0, 143),6	685,(0, 144),6	691,(0, 145),6	697,(0, 147),6	703,(0, 148),6	709,(0, 149),6	715,(0, 150),6	721,(0, 152),6	727,(0, 153),6	733,(0, 154),6	739,(0, 155),6	745,(0, 157),6	751,(0, 158),6	757,(0, 159),6	763,(0, 160),6	
