331
# CPU
325,10,3	
289,9,3	
253,8,3	
217,7,3	
181,6,3	
145,5,3	
109,4,3	
73,3,3	
37,2,3	
0,0,1	1,1,3	330,11,1	
# Incoming
289,(0, 10),36	
253,(0, 9),36	
217,(0, 8),36	
181,(0, 7),36	
145,(0, 6),36	
109,(0, 5),36	
73,(0, 4),36	
37,(0, 3),36	
1,(0, 2),36	
40,(2, 11),2	76,(3, 11),2	112,(4, 11),2	148,(5, 11),2	184,(6, 11),2	220,(7, 11),2	256,(8, 11),2	292,(9, 11),2	328,(10, 11),2	
# Outgoing
328,(10, 11),2	
292,(9, 11),2	
256,(8, 11),2	
220,(7, 11),2	
184,(6, 11),2	
148,(5, 11),2	
112,(4, 11),2	
76,(3, 11),2	
40,(2, 11),2	
1,(0, 2),36	37,(0, 3),36	73,(0, 4),36	109,(0, 5),36	145,(0, 6),36	181,(0, 7),36	217,(0, 8),36	253,(0, 9),36	289,(0, 10),36	
