104
# CPU
0,11,1	1,1,34	35,2,34	69,10,34	103,0,1	
19,9,34	64,3,34	
46,6,34	

28,8,34	

10,7,34	55,4,34	
37,5,34	


# Incoming
44,(7, 0),3	53,(9, 0),3	62,(8, 0),3	71,(5, 0),3	80,(6, 0),3	89,(4, 0),3	98,(3, 0),3	
10,(11, 9),9	55,(11, 3),9	
37,(11, 6),9	

19,(11, 8),9	

1,(11, 7),9	46,(11, 4),9	
28,(11, 5),9	


# Outgoing
1,(11, 7),9	10,(11, 9),9	19,(11, 8),9	28,(11, 5),9	37,(11, 6),9	46,(11, 4),9	55,(11, 3),9	
53,(9, 0),3	98,(3, 0),3	
80,(6, 0),3	

62,(8, 0),3	

44,(7, 0),3	89,(4, 0),3	
71,(5, 0),3	


