77
# CPU
0,11,1	1,10,45	76,0,1	
7,8,45	
19,1,45	
22,2,45	
10,7,45	
16,3,45	
4,6,45	
13,5,45	
25,4,45	
28,9,45	
# Incoming
49,(6, 0),3	52,(8, 0),3	55,(7, 0),3	58,(5, 0),3	61,(3, 0),3	64,(1, 0),3	67,(2, 0),3	70,(4, 0),3	73,(9, 0),3	
4,(11, 8),3	
16,(11, 1),3	
19,(11, 2),3	
7,(11, 7),3	
13,(11, 3),3	
1,(11, 6),3	
10,(11, 5),3	
22,(11, 4),3	
25,(11, 9),3	
# Outgoing
1,(11, 6),3	4,(11, 8),3	7,(11, 7),3	10,(11, 5),3	13,(11, 3),3	16,(11, 1),3	19,(11, 2),3	22,(11, 4),3	25,(11, 9),3	
52,(8, 0),3	
64,(1, 0),3	
67,(2, 0),3	
55,(7, 0),3	
61,(3, 0),3	
49,(6, 0),3	
58,(5, 0),3	
70,(4, 0),3	
73,(9, 0),3	
