447
# CPU
0,161,1	1,160,22	23,112,22	45,115,22	67,117,22	89,81,22	111,76,22	133,71,22	155,65,22	177,60,22	199,55,22	221,50,22	243,45,22	265,145,22	287,147,22	309,149,22	331,151,22	353,15,22	375,11,22	397,1,22	419,157,22	446,0,1	
25,101,22	49,94,22	73,111,22	100,122,22	127,125,22	154,128,22	178,131,22	202,134,22	226,137,22	253,140,22	277,43,22	310,141,22	334,22,22	358,154,22	382,9,22	406,3,22	
10,107,22	34,102,22	64,90,22	94,121,22	118,124,22	142,127,22	169,130,22	196,133,22	220,136,22	244,139,22	268,42,22	292,32,22	319,142,22	349,153,22	379,156,22	403,2,22	
16,109,22	46,103,22	79,113,22	103,116,22	136,126,22	160,129,22	184,132,22	211,135,22	238,138,22	262,39,22	289,44,22	313,27,22	340,152,22	370,155,22	397,13,22	421,159,22	
28,99,22	55,110,22	82,86,22	109,123,22	133,78,22	166,69,22	193,62,22	229,53,22	256,41,22	286,33,22	316,26,22	343,150,22	367,18,22	394,12,22	418,158,22	
19,104,22	43,95,22	70,88,22	97,118,22	124,80,22	151,73,22	187,64,22	214,57,22	250,47,22	280,35,22	304,29,22	331,143,22	361,20,22	388,10,22	412,5,22	
4,106,22	40,96,22	67,89,22	91,119,22	121,82,22	145,75,22	172,68,22	208,58,22	235,51,22	271,37,22	298,46,22	328,23,22	355,144,22	385,8,22	409,4,22	
22,100,22	52,93,22	76,87,22	106,114,22	130,79,22	157,72,22	181,66,22	205,59,22	232,52,22	259,40,22	283,34,22	307,28,22	337,21,22	364,19,22	391,7,22	415,14,22	
13,108,22	37,97,22	61,91,22	88,120,22	112,84,22	148,74,22	175,67,22	199,61,22	223,54,22	247,48,22	274,36,22	301,30,22	325,24,22	352,146,22	376,16,22	
7,105,22	31,98,22	58,92,22	85,85,22	115,83,22	139,77,22	163,70,22	190,63,22	217,56,22	241,49,22	265,38,22	295,31,22	322,25,22	346,148,22	373,17,22	400,6,22	
# Incoming
26,(106, 0),3	29,(105, 0),3	32,(107, 0),3	35,(108, 0),3	38,(109, 0),3	41,(104, 0),3	44,(100, 0),3	47,(101, 0),3	50,(99, 0),3	53,(98, 0),3	56,(102, 0),3	59,(97, 0),3	62,(96, 0),3	65,(95, 0),3	68,(103, 0),3	71,(94, 0),3	74,(93, 0),3	77,(110, 0),3	80,(92, 0),3	83,(91, 0),3	86,(90, 0),3	89,(89, 0),3	92,(88, 0),3	95,(111, 0),3	98,(87, 0),3	101,(113, 0),3	104,(86, 0),3	107,(85, 0),3	110,(120, 0),3	113,(119, 0),3	116,(121, 0),3	119,(118, 0),3	122,(122, 0),3	125,(116, 0),3	128,(114, 0),3	131,(123, 0),3	134,(84, 0),3	137,(83, 0),3	140,(124, 0),3	143,(82, 0),3	146,(80, 0),3	149,(125, 0),3	152,(79, 0),3	155,(78, 0),3	158,(126, 0),3	161,(77, 0),3	164,(127, 0),3	167,(75, 0),3	170,(74, 0),3	173,(73, 0),3	176,(128, 0),3	179,(72, 0),3	182,(129, 0),3	185,(70, 0),3	188,(69, 0),3	191,(130, 0),3	194,(68, 0),3	197,(67, 0),3	200,(131, 0),3	203,(66, 0),3	206,(132, 0),3	209,(64, 0),3	212,(63, 0),3	215,(62, 0),3	218,(133, 0),3	221,(61, 0),3	224,(134, 0),3	227,(59, 0),3	230,(58, 0),3	233,(135, 0),3	236,(57, 0),3	239,(56, 0),3	242,(136, 0),3	245,(54, 0),3	248,(137, 0),3	251,(53, 0),3	254,(52, 0),3	257,(51, 0),3	260,(138, 0),3	263,(49, 0),3	266,(139, 0),3	269,(48, 0),3	272,(47, 0),3	275,(140, 0),3	278,(41, 0),3	281,(40, 0),3	284,(39, 0),3	287,(38, 0),3	290,(42, 0),3	293,(37, 0),3	296,(36, 0),3	299,(43, 0),3	302,(35, 0),3	305,(34, 0),3	308,(33, 0),3	311,(44, 0),3	314,(32, 0),3	317,(31, 0),3	320,(46, 0),3	323,(30, 0),3	326,(29, 0),3	329,(28, 0),3	332,(141, 0),3	335,(27, 0),3	338,(26, 0),3	341,(142, 0),3	344,(25, 0),3	347,(24, 0),3	350,(23, 0),3	353,(143, 0),3	356,(22, 0),3	359,(21, 0),3	362,(152, 0),3	365,(150, 0),3	368,(148, 0),3	371,(153, 0),3	374,(146, 0),3	377,(144, 0),3	380,(154, 0),3	383,(20, 0),3	386,(19, 0),3	389,(18, 0),3	392,(155, 0),3	395,(17, 0),3	398,(16, 0),3	401,(156, 0),3	404,(9, 0),3	407,(8, 0),3	410,(10, 0),3	413,(7, 0),3	416,(12, 0),3	419,(13, 0),3	422,(6, 0),3	425,(2, 0),3	428,(3, 0),3	431,(4, 0),3	434,(5, 0),3	437,(14, 0),3	440,(158, 0),3	443,(159, 0),3	
22,(161, 101),3	46,(161, 94),3	70,(161, 111),3	97,(161, 122),3	124,(161, 125),3	151,(161, 128),3	175,(161, 131),3	199,(161, 134),3	223,(161, 137),3	250,(161, 140),3	274,(161, 43),3	307,(161, 141),3	331,(161, 22),3	355,(161, 154),3	379,(161, 9),3	403,(161, 3),3	
7,(161, 107),3	31,(161, 102),3	61,(161, 90),3	91,(161, 121),3	115,(161, 124),3	139,(161, 127),3	166,(161, 130),3	193,(161, 133),3	217,(161, 136),3	241,(161, 139),3	265,(161, 42),3	289,(161, 32),3	316,(161, 142),3	346,(161, 153),3	376,(161, 156),3	400,(161, 2),3	
13,(161, 109),3	43,(161, 103),3	76,(161, 113),3	100,(161, 116),3	133,(161, 126),3	157,(161, 129),3	181,(161, 132),3	208,(161, 135),3	235,(161, 138),3	259,(161, 39),3	286,(161, 44),3	310,(161, 27),3	337,(161, 152),3	367,(161, 155),3	394,(161, 13),3	418,(161, 159),3	
25,(161, 99),3	52,(161, 110),3	79,(161, 86),3	106,(161, 123),3	130,(161, 78),3	163,(161, 69),3	190,(161, 62),3	226,(161, 53),3	253,(161, 41),3	283,(161, 33),3	313,(161, 26),3	340,(161, 150),3	364,(161, 18),3	391,(161, 12),3	415,(161, 158),3	
16,(161, 104),3	40,(161, 95),3	67,(161, 88),3	94,(161, 118),3	121,(161, 80),3	148,(161, 73),3	184,(161, 64),3	211,(161, 57),3	247,(161, 47),3	277,(161, 35),3	301,(161, 29),3	328,(161, 143),3	358,(161, 20),3	385,(161, 10),3	409,(161, 5),3	
1,(161, 106),3	37,(161, 96),3	64,(161, 89),3	88,(161, 119),3	118,(161, 82),3	142,(161, 75),3	169,(161, 68),3	205,(161, 58),3	232,(161, 51),3	268,(161, 37),3	295,(161, 46),3	325,(161, 23),3	352,(161, 144),3	382,(161, 8),3	406,(161, 4),3	
19,(161, 100),3	49,(161, 93),3	73,(161, 87),3	103,(161, 114),3	127,(161, 79),3	154,(161, 72),3	178,(161, 66),3	202,(161, 59),3	229,(161, 52),3	256,(161, 40),3	280,(161, 34),3	304,(161, 28),3	334,(161, 21),3	361,(161, 19),3	388,(161, 7),3	412,(161, 14),3	
10,(161, 108),3	34,(161, 97),3	58,(161, 91),3	85,(161, 120),3	109,(161, 84),3	145,(161, 74),3	172,(161, 67),3	196,(161, 61),3	220,(161, 54),3	244,(161, 48),3	271,(161, 36),3	298,(161, 30),3	322,(161, 24),3	349,(161, 146),3	373,(161, 16),3	
4,(161, 105),3	28,(161, 98),3	55,(161, 92),3	82,(161, 85),3	112,(161, 83),3	136,(161, 77),3	160,(161, 70),3	187,(161, 63),3	214,(161, 56),3	238,(161, 49),3	262,(161, 38),3	292,(161, 31),3	319,(161, 25),3	343,(161, 148),3	370,(161, 17),3	397,(161, 6),3	
# Outgoing
1,(161, 106),3	4,(161, 105),3	7,(161, 107),3	10,(161, 108),3	13,(161, 109),3	16,(161, 104),3	19,(161, 100),3	22,(161, 101),3	25,(161, 99),3	28,(161, 98),3	31,(161, 102),3	34,(161, 97),3	37,(161, 96),3	40,(161, 95),3	43,(161, 103),3	46,(161, 94),3	49,(161, 93),3	52,(161, 110),3	55,(161, 92),3	58,(161, 91),3	61,(161, 90),3	64,(161, 89),3	67,(161, 88),3	70,(161, 111),3	73,(161, 87),3	76,(161, 113),3	79,(161, 86),3	82,(161, 85),3	85,(161, 120),3	88,(161, 119),3	91,(161, 121),3	94,(161, 118),3	97,(161, 122),3	100,(161, 116),3	103,(161, 114),3	106,(161, 123),3	109,(161, 84),3	112,(161, 83),3	115,(161, 124),3	118,(161, 82),3	121,(161, 80),3	124,(161, 125),3	127,(161, 79),3	130,(161, 78),3	133,(161, 126),3	136,(161, 77),3	139,(161, 127),3	142,(161, 75),3	145,(161, 74),3	148,(161, 73),3	151,(161, 128),3	154,(161, 72),3	157,(161, 129),3	160,(161, 70),3	163,(161, 69),3	166,(161, 130),3	169,(161, 68),3	172,(161, 67),3	175,(161, 131),3	178,(161, 66),3	181,(161, 132),3	184,(161, 64),3	187,(161, 63),3	190,(161, 62),3	193,(161, 133),3	196,(161, 61),3	199,(161, 134),3	202,(161, 59),3	205,(161, 58),3	208,(161, 135),3	211,(161, 57),3	214,(161, 56),3	217,(161, 136),3	220,(161, 54),3	223,(161, 137),3	226,(161, 53),3	229,(161, 52),3	232,(161, 51),3	235,(161, 138),3	238,(161, 49),3	241,(161, 139),3	244,(161, 48),3	247,(161, 47),3	250,(161, 140),3	253,(161, 41),3	256,(161, 40),3	259,(161, 39),3	262,(161, 38),3	265,(161, 42),3	268,(161, 37),3	271,(161, 36),3	274,(161, 43),3	277,(161, 35),3	280,(161, 34),3	283,(161, 33),3	286,(161, 44),3	289,(161, 32),3	292,(161, 31),3	295,(161, 46),3	298,(161, 30),3	301,(161, 29),3	304,(161, 28),3	307,(161, 141),3	310,(161, 27),3	313,(161, 26),3	316,(161, 142),3	319,(161, 25),3	322,(161, 24),3	325,(161, 23),3	328,(161, 143),3	331,(161, 22),3	334,(161, 21),3	337,(161, 152),3	340,(161, 150),3	343,(161, 148),3	346,(161, 153),3	349,(161, 146),3	352,(161, 144),3	355,(161, 154),3	358,(161, 20),3	361,(161, 19),3	364,(161, 18),3	367,(161, 155),3	370,(161, 17),3	373,(161, 16),3	376,(161, 156),3	379,(161, 9),3	382,(161, 8),3	385,(161, 10),3	388,(161, 7),3	391,(161, 12),3	394,(161, 13),3	397,(161, 6),3	400,(161, 2),3	403,(161, 3),3	406,(161, 4),3	409,(161, 5),3	412,(161, 14),3	415,(161, 158),3	418,(161, 159),3	
47,(101, 0),3	71,(94, 0),3	95,(111, 0),3	122,(122, 0),3	149,(125, 0),3	176,(128, 0),3	200,(131, 0),3	224,(134, 0),3	248,(137, 0),3	275,(140, 0),3	299,(43, 0),3	332,(141, 0),3	356,(22, 0),3	380,(154, 0),3	404,(9, 0),3	428,(3, 0),3	
32,(107, 0),3	56,(102, 0),3	86,(90, 0),3	116,(121, 0),3	140,(124, 0),3	164,(127, 0),3	191,(130, 0),3	218,(133, 0),3	242,(136, 0),3	266,(139, 0),3	290,(42, 0),3	314,(32, 0),3	341,(142, 0),3	371,(153, 0),3	401,(156, 0),3	425,(2, 0),3	
38,(109, 0),3	68,(103, 0),3	101,(113, 0),3	125,(116, 0),3	158,(126, 0),3	182,(129, 0),3	206,(132, 0),3	233,(135, 0),3	260,(138, 0),3	284,(39, 0),3	311,(44, 0),3	335,(27, 0),3	362,(152, 0),3	392,(155, 0),3	419,(13, 0),3	443,(159, 0),3	
50,(99, 0),3	77,(110, 0),3	104,(86, 0),3	131,(123, 0),3	155,(78, 0),3	188,(69, 0),3	215,(62, 0),3	251,(53, 0),3	278,(41, 0),3	308,(33, 0),3	338,(26, 0),3	365,(150, 0),3	389,(18, 0),3	416,(12, 0),3	440,(158, 0),3	
41,(104, 0),3	65,(95, 0),3	92,(88, 0),3	119,(118, 0),3	146,(80, 0),3	173,(73, 0),3	209,(64, 0),3	236,(57, 0),3	272,(47, 0),3	302,(35, 0),3	326,(29, 0),3	353,(143, 0),3	383,(20, 0),3	410,(10, 0),3	434,(5, 0),3	
26,(106, 0),3	62,(96, 0),3	89,(89, 0),3	113,(119, 0),3	143,(82, 0),3	167,(75, 0),3	194,(68, 0),3	230,(58, 0),3	257,(51, 0),3	293,(37, 0),3	320,(46, 0),3	350,(23, 0),3	377,(144, 0),3	407,(8, 0),3	431,(4, 0),3	
44,(100, 0),3	74,(93, 0),3	98,(87, 0),3	128,(114, 0),3	152,(79, 0),3	179,(72, 0),3	203,(66, 0),3	227,(59, 0),3	254,(52, 0),3	281,(40, 0),3	305,(34, 0),3	329,(28, 0),3	359,(21, 0),3	386,(19, 0),3	413,(7, 0),3	437,(14, 0),3	
35,(108, 0),3	59,(97, 0),3	83,(91, 0),3	110,(120, 0),3	134,(84, 0),3	170,(74, 0),3	197,(67, 0),3	221,(61, 0),3	245,(54, 0),3	269,(48, 0),3	296,(36, 0),3	323,(30, 0),3	347,(24, 0),3	374,(146, 0),3	398,(16, 0),3	
29,(105, 0),3	53,(98, 0),3	80,(92, 0),3	107,(85, 0),3	137,(83, 0),3	161,(77, 0),3	185,(70, 0),3	212,(63, 0),3	239,(56, 0),3	263,(49, 0),3	287,(38, 0),3	317,(31, 0),3	344,(25, 0),3	368,(148, 0),3	395,(17, 0),3	422,(6, 0),3	
