2925
# CPU
28,10,4	55,20,4	82,30,4	109,40,4	136,50,4	163,60,4	190,70,4	217,80,4	244,90,4	271,100,4	298,110,4	325,120,4	
25,9,4	52,19,4	79,29,4	106,39,4	133,49,4	160,59,4	187,69,4	214,79,4	241,89,4	268,99,4	295,109,4	322,119,4	
22,8,4	49,18,4	76,28,4	103,38,4	130,48,4	157,58,4	184,68,4	211,78,4	238,88,4	265,98,4	292,108,4	319,118,4	
19,7,4	46,17,4	73,27,4	100,37,4	127,47,4	154,57,4	181,67,4	208,77,4	235,87,4	262,97,4	289,107,4	316,117,4	
16,6,4	43,16,4	70,26,4	97,36,4	124,46,4	151,56,4	178,66,4	205,76,4	232,86,4	259,96,4	286,106,4	313,116,4	
13,5,4	40,15,4	67,25,4	94,35,4	121,45,4	148,55,4	175,65,4	202,75,4	229,85,4	256,95,4	283,105,4	310,115,4	
10,4,4	37,14,4	64,24,4	91,34,4	118,44,4	145,54,4	172,64,4	199,74,4	226,84,4	253,94,4	280,104,4	307,114,4	
7,3,4	34,13,4	61,23,4	88,33,4	115,43,4	142,53,4	169,63,4	196,73,4	223,83,4	250,93,4	277,103,4	304,113,4	
4,2,4	31,12,4	58,22,4	85,32,4	112,42,4	139,52,4	166,62,4	193,72,4	220,82,4	247,92,4	274,102,4	301,112,4	
0,0,1	1,1,4	5,21,4	9,61,4	13,111,4	17,101,4	21,91,4	25,81,4	29,51,4	33,71,4	37,41,4	41,11,4	45,31,4	2924,121,1	
# Incoming
25,(0, 10),3	52,(0, 20),3	79,(0, 30),3	106,(0, 40),3	133,(0, 50),3	160,(0, 60),3	187,(0, 70),3	214,(0, 80),3	241,(0, 90),3	268,(0, 100),3	295,(0, 110),3	322,(0, 120),3	
22,(0, 9),3	49,(0, 19),3	76,(0, 29),3	103,(0, 39),3	130,(0, 49),3	157,(0, 59),3	184,(0, 69),3	211,(0, 79),3	238,(0, 89),3	265,(0, 99),3	292,(0, 109),3	319,(0, 119),3	
19,(0, 8),3	46,(0, 18),3	73,(0, 28),3	100,(0, 38),3	127,(0, 48),3	154,(0, 58),3	181,(0, 68),3	208,(0, 78),3	235,(0, 88),3	262,(0, 98),3	289,(0, 108),3	316,(0, 118),3	
16,(0, 7),3	43,(0, 17),3	70,(0, 27),3	97,(0, 37),3	124,(0, 47),3	151,(0, 57),3	178,(0, 67),3	205,(0, 77),3	232,(0, 87),3	259,(0, 97),3	286,(0, 107),3	313,(0, 117),3	
13,(0, 6),3	40,(0, 16),3	67,(0, 26),3	94,(0, 36),3	121,(0, 46),3	148,(0, 56),3	175,(0, 66),3	202,(0, 76),3	229,(0, 86),3	256,(0, 96),3	283,(0, 106),3	310,(0, 116),3	
10,(0, 5),3	37,(0, 15),3	64,(0, 25),3	91,(0, 35),3	118,(0, 45),3	145,(0, 55),3	172,(0, 65),3	199,(0, 75),3	226,(0, 85),3	253,(0, 95),3	280,(0, 105),3	307,(0, 115),3	
7,(0, 4),3	34,(0, 14),3	61,(0, 24),3	88,(0, 34),3	115,(0, 44),3	142,(0, 54),3	169,(0, 64),3	196,(0, 74),3	223,(0, 84),3	250,(0, 94),3	277,(0, 104),3	304,(0, 114),3	
4,(0, 3),3	31,(0, 13),3	58,(0, 23),3	85,(0, 33),3	112,(0, 43),3	139,(0, 53),3	166,(0, 63),3	193,(0, 73),3	220,(0, 83),3	247,(0, 93),3	274,(0, 103),3	301,(0, 113),3	
1,(0, 2),3	28,(0, 12),3	55,(0, 22),3	82,(0, 32),3	109,(0, 42),3	136,(0, 52),3	163,(0, 62),3	190,(0, 72),3	217,(0, 82),3	244,(0, 92),3	271,(0, 102),3	298,(0, 112),3	
8,(2, 121),27	35,(3, 121),27	62,(4, 121),27	89,(5, 121),27	116,(6, 121),27	143,(7, 121),27	170,(8, 121),27	197,(9, 121),27	224,(10, 121),27	251,(12, 121),27	278,(13, 121),27	305,(14, 121),27	332,(15, 121),27	359,(16, 121),27	386,(17, 121),27	413,(18, 121),27	440,(19, 121),27	467,(20, 121),27	494,(22, 121),27	521,(23, 121),27	548,(24, 121),27	575,(25, 121),27	602,(26, 121),27	629,(27, 121),27	656,(28, 121),27	683,(29, 121),27	710,(30, 121),27	737,(32, 121),27	764,(33, 121),27	791,(34, 121),27	818,(35, 121),27	845,(36, 121),27	872,(37, 121),27	899,(38, 121),27	926,(39, 121),27	953,(40, 121),27	980,(42, 121),27	1007,(43, 121),27	1034,(44, 121),27	1061,(45, 121),27	1088,(46, 121),27	1115,(47, 121),27	1142,(48, 121),27	1169,(49, 121),27	1196,(50, 121),27	1223,(52, 121),27	1250,(53, 121),27	1277,(54, 121),27	1304,(55, 121),27	1331,(56, 121),27	1358,(57, 121),27	1385,(58, 121),27	1412,(59, 121),27	1439,(60, 121),27	1466,(62, 121),27	1493,(63, 121),27	1520,(64, 121),27	1547,(65, 121),27	1574,(66, 121),27	1601,(67, 121),27	1628,(68, 121),27	1655,(69, 121),27	1682,(70, 121),27	1709,(72, 121),27	1736,(73, 121),27	1763,(74, 121),27	1790,(75, 121),27	1817,(76, 121),27	1844,(77, 121),27	1871,(78, 121),27	1898,(79, 121),27	1925,(80, 121),27	1952,(82, 121),27	1979,(83, 121),27	2006,(84, 121),27	2033,(85, 121),27	2060,(86, 121),27	2087,(87, 121),27	2114,(88, 121),27	2141,(89, 121),27	2168,(90, 121),27	2195,(92, 121),27	2222,(93, 121),27	2249,(94, 121),27	2276,(95, 121),27	2303,(96, 121),27	2330,(97, 121),27	2357,(98, 121),27	2384,(99, 121),27	2411,(100, 121),27	2438,(102, 121),27	2465,(103, 121),27	2492,(104, 121),27	2519,(105, 121),27	2546,(106, 121),27	2573,(107, 121),27	2600,(108, 121),27	2627,(109, 121),27	2654,(110, 121),27	2681,(112, 121),27	2708,(113, 121),27	2735,(114, 121),27	2762,(115, 121),27	2789,(116, 121),27	2816,(117, 121),27	2843,(118, 121),27	2870,(119, 121),27	2897,(120, 121),27	
# Outgoing
224,(10, 121),27	467,(20, 121),27	710,(30, 121),27	953,(40, 121),27	1196,(50, 121),27	1439,(60, 121),27	1682,(70, 121),27	1925,(80, 121),27	2168,(90, 121),27	2411,(100, 121),27	2654,(110, 121),27	2897,(120, 121),27	
197,(9, 121),27	440,(19, 121),27	683,(29, 121),27	926,(39, 121),27	1169,(49, 121),27	1412,(59, 121),27	1655,(69, 121),27	1898,(79, 121),27	2141,(89, 121),27	2384,(99, 121),27	2627,(109, 121),27	2870,(119, 121),27	
170,(8, 121),27	413,(18, 121),27	656,(28, 121),27	899,(38, 121),27	1142,(48, 121),27	1385,(58, 121),27	1628,(68, 121),27	1871,(78, 121),27	2114,(88, 121),27	2357,(98, 121),27	2600,(108, 121),27	2843,(118, 121),27	
143,(7, 121),27	386,(17, 121),27	629,(27, 121),27	872,(37, 121),27	1115,(47, 121),27	1358,(57, 121),27	1601,(67, 121),27	1844,(77, 121),27	2087,(87, 121),27	2330,(97, 121),27	2573,(107, 121),27	2816,(117, 121),27	
116,(6, 121),27	359,(16, 121),27	602,(26, 121),27	845,(36, 121),27	1088,(46, 121),27	1331,(56, 121),27	1574,(66, 121),27	1817,(76, 121),27	2060,(86, 121),27	2303,(96, 121),27	2546,(106, 121),27	2789,(116, 121),27	
89,(5, 121),27	332,(15, 121),27	575,(25, 121),27	818,(35, 121),27	1061,(45, 121),27	1304,(55, 121),27	1547,(65, 121),27	1790,(75, 121),27	2033,(85, 121),27	2276,(95, 121),27	2519,(105, 121),27	2762,(115, 121),27	
62,(4, 121),27	305,(14, 121),27	548,(24, 121),27	791,(34, 121),27	1034,(44, 121),27	1277,(54, 121),27	1520,(64, 121),27	1763,(74, 121),27	2006,(84, 121),27	2249,(94, 121),27	2492,(104, 121),27	2735,(114, 121),27	
35,(3, 121),27	278,(13, 121),27	521,(23, 121),27	764,(33, 121),27	1007,(43, 121),27	1250,(53, 121),27	1493,(63, 121),27	1736,(73, 121),27	1979,(83, 121),27	2222,(93, 121),27	2465,(103, 121),27	2708,(113, 121),27	
8,(2, 121),27	251,(12, 121),27	494,(22, 121),27	737,(32, 121),27	980,(42, 121),27	1223,(52, 121),27	1466,(62, 121),27	1709,(72, 121),27	1952,(82, 121),27	2195,(92, 121),27	2438,(102, 121),27	2681,(112, 121),27	
1,(0, 2),3	4,(0, 3),3	7,(0, 4),3	10,(0, 5),3	13,(0, 6),3	16,(0, 7),3	19,(0, 8),3	22,(0, 9),3	25,(0, 10),3	28,(0, 12),3	31,(0, 13),3	34,(0, 14),3	37,(0, 15),3	40,(0, 16),3	43,(0, 17),3	46,(0, 18),3	49,(0, 19),3	52,(0, 20),3	55,(0, 22),3	58,(0, 23),3	61,(0, 24),3	64,(0, 25),3	67,(0, 26),3	70,(0, 27),3	73,(0, 28),3	76,(0, 29),3	79,(0, 30),3	82,(0, 32),3	85,(0, 33),3	88,(0, 34),3	91,(0, 35),3	94,(0, 36),3	97,(0, 37),3	100,(0, 38),3	103,(0, 39),3	106,(0, 40),3	109,(0, 42),3	112,(0, 43),3	115,(0, 44),3	118,(0, 45),3	121,(0, 46),3	124,(0, 47),3	127,(0, 48),3	130,(0, 49),3	133,(0, 50),3	136,(0, 52),3	139,(0, 53),3	142,(0, 54),3	145,(0, 55),3	148,(0, 56),3	151,(0, 57),3	154,(0, 58),3	157,(0, 59),3	160,(0, 60),3	163,(0, 62),3	166,(0, 63),3	169,(0, 64),3	172,(0, 65),3	175,(0, 66),3	178,(0, 67),3	181,(0, 68),3	184,(0, 69),3	187,(0, 70),3	190,(0, 72),3	193,(0, 73),3	196,(0, 74),3	199,(0, 75),3	202,(0, 76),3	205,(0, 77),3	208,(0, 78),3	211,(0, 79),3	214,(0, 80),3	217,(0, 82),3	220,(0, 83),3	223,(0, 84),3	226,(0, 85),3	229,(0, 86),3	232,(0, 87),3	235,(0, 88),3	238,(0, 89),3	241,(0, 90),3	244,(0, 92),3	247,(0, 93),3	250,(0, 94),3	253,(0, 95),3	256,(0, 96),3	259,(0, 97),3	262,(0, 98),3	265,(0, 99),3	268,(0, 100),3	271,(0, 102),3	274,(0, 103),3	277,(0, 104),3	280,(0, 105),3	283,(0, 106),3	286,(0, 107),3	289,(0, 108),3	292,(0, 109),3	295,(0, 110),3	298,(0, 112),3	301,(0, 113),3	304,(0, 114),3	307,(0, 115),3	310,(0, 116),3	313,(0, 117),3	316,(0, 118),3	319,(0, 119),3	322,(0, 120),3	
