1212
# CPU
17,2,14	33,4,14	49,6,14	65,8,14	81,10,14	
0,0,1	1,1,14	15,5,14	29,9,14	43,3,14	57,7,14	1211,11,1	
# Incoming
1,(0, 2),16	17,(0, 4),16	33,(0, 6),16	49,(0, 8),16	65,(0, 10),16	
31,(2, 11),236	267,(4, 11),236	503,(6, 11),236	739,(8, 11),236	975,(10, 11),236	
# Outgoing
31,(2, 11),236	267,(4, 11),236	503,(6, 11),236	739,(8, 11),236	975,(10, 11),236	
1,(0, 2),16	17,(0, 4),16	33,(0, 6),16	49,(0, 8),16	65,(0, 10),16	
