1282
# CPU
0,0,1	1,1,8	9,3,8	17,7,8	25,15,8	33,31,8	41,63,8	49,127,8	57,160,8	65,159,8	73,158,8	81,157,8	89,156,8	97,155,8	105,154,8	113,153,8	121,152,8	129,151,8	137,150,8	145,149,8	153,148,8	161,147,8	169,146,8	177,145,8	185,144,8	193,143,8	201,142,8	209,141,8	217,140,8	225,139,8	233,138,8	241,137,8	249,136,8	257,135,8	265,134,8	273,133,8	281,132,8	289,131,8	297,130,8	305,129,8	313,126,8	321,128,8	329,125,8	337,124,8	345,123,8	353,122,8	361,121,8	369,120,8	377,119,8	385,118,8	393,117,8	401,116,8	409,115,8	417,114,8	425,113,8	433,112,8	441,111,8	449,110,8	457,109,8	465,108,8	473,107,8	481,106,8	489,105,8	497,104,8	505,103,8	513,102,8	521,101,8	529,100,8	537,99,8	545,98,8	553,97,8	561,96,8	569,95,8	577,94,8	585,93,8	593,92,8	601,91,8	609,90,8	617,89,8	625,88,8	633,87,8	641,86,8	649,85,8	657,84,8	665,83,8	673,82,8	681,81,8	689,80,8	697,79,8	705,78,8	713,77,8	721,76,8	729,75,8	737,74,8	745,73,8	753,72,8	761,71,8	769,70,8	777,69,8	785,68,8	793,67,8	801,66,8	809,65,8	817,62,8	825,64,8	833,61,8	841,60,8	849,59,8	857,58,8	865,57,8	873,56,8	881,55,8	889,54,8	897,53,8	905,52,8	913,51,8	921,50,8	929,49,8	937,48,8	945,47,8	953,46,8	961,45,8	969,44,8	977,43,8	985,42,8	993,41,8	1001,40,8	1009,39,8	1017,38,8	1025,37,8	1033,36,8	1041,35,8	1049,34,8	1057,33,8	1065,30,8	1073,32,8	1081,29,8	1089,28,8	1097,27,8	1105,26,8	1113,25,8	1121,24,8	1129,23,8	1137,22,8	1145,21,8	1153,20,8	1161,19,8	1169,18,8	1177,17,8	1185,14,8	1193,16,8	1201,13,8	1209,12,8	1217,11,8	1225,10,8	1233,9,8	1241,6,8	1249,8,8	1257,5,8	1265,2,8	1273,4,8	1281,161,1	


# Incoming



# Outgoing



