482
# CPU
0,0,1	1,1,4	5,3,4	9,7,4	13,15,4	17,31,4	21,63,4	25,120,4	29,119,4	33,118,4	37,117,4	41,116,4	45,115,4	49,114,4	53,113,4	57,112,4	61,111,4	65,110,4	69,109,4	73,108,4	77,107,4	81,106,4	85,105,4	89,104,4	93,103,4	97,102,4	101,101,4	105,100,4	109,99,4	113,98,4	117,97,4	121,96,4	125,95,4	129,94,4	133,93,4	137,92,4	141,91,4	145,90,4	149,89,4	153,88,4	157,87,4	161,86,4	165,85,4	169,84,4	173,83,4	177,82,4	181,81,4	185,80,4	189,79,4	193,78,4	197,77,4	201,76,4	205,75,4	209,74,4	213,73,4	217,72,4	221,71,4	225,70,4	229,69,4	233,68,4	237,67,4	241,66,4	245,65,4	249,62,4	253,64,4	257,61,4	261,60,4	265,59,4	269,58,4	273,57,4	277,56,4	281,55,4	285,54,4	289,53,4	293,52,4	297,51,4	301,50,4	305,49,4	309,48,4	313,47,4	317,46,4	321,45,4	325,44,4	329,43,4	333,42,4	337,41,4	341,40,4	345,39,4	349,38,4	353,37,4	357,36,4	361,35,4	365,34,4	369,33,4	373,30,4	377,32,4	381,29,4	385,28,4	389,27,4	393,26,4	397,25,4	401,24,4	405,23,4	409,22,4	413,21,4	417,20,4	421,19,4	425,18,4	429,17,4	433,14,4	437,16,4	441,13,4	445,12,4	449,11,4	453,10,4	457,9,4	461,6,4	465,8,4	469,5,4	473,2,4	477,4,4	481,121,1	









# Incoming










# Outgoing










