92
# CPU
0,11,1	1,1,15	16,2,15	31,4,15	46,3,15	61,6,15	76,5,15	91,0,1	
16,8,15	46,10,15	61,7,15	




31,9,15	



# Incoming
31,(8, 0),3	46,(9, 0),3	61,(10, 0),3	76,(7, 0),3	
1,(11, 8),15	31,(11, 10),15	46,(11, 7),15	




16,(11, 9),15	



# Outgoing
1,(11, 8),15	16,(11, 9),15	31,(11, 10),15	46,(11, 7),15	
31,(8, 0),3	61,(10, 0),3	76,(7, 0),3	




46,(9, 0),3	



