962
# CPU
0,0,1	1,1,8	9,3,8	17,7,8	25,15,8	33,31,8	41,63,8	49,120,8	57,119,8	65,118,8	73,117,8	81,116,8	89,115,8	97,114,8	105,113,8	113,112,8	121,111,8	129,110,8	137,109,8	145,108,8	153,107,8	161,106,8	169,105,8	177,104,8	185,103,8	193,102,8	201,101,8	209,100,8	217,99,8	225,98,8	233,97,8	241,96,8	249,95,8	257,94,8	265,93,8	273,92,8	281,91,8	289,90,8	297,89,8	305,88,8	313,87,8	321,86,8	329,85,8	337,84,8	345,83,8	353,82,8	361,81,8	369,80,8	377,79,8	385,78,8	393,77,8	401,76,8	409,75,8	417,74,8	425,73,8	433,72,8	441,71,8	449,70,8	457,69,8	465,68,8	473,67,8	481,66,8	489,65,8	497,62,8	505,64,8	513,61,8	521,60,8	529,59,8	537,58,8	545,57,8	553,56,8	561,55,8	569,54,8	577,53,8	585,52,8	593,51,8	601,50,8	609,49,8	617,48,8	625,47,8	633,46,8	641,45,8	649,44,8	657,43,8	665,42,8	673,41,8	681,40,8	689,39,8	697,38,8	705,37,8	713,36,8	721,35,8	729,34,8	737,33,8	745,30,8	753,32,8	761,29,8	769,28,8	777,27,8	785,26,8	793,25,8	801,24,8	809,23,8	817,22,8	825,21,8	833,20,8	841,19,8	849,18,8	857,17,8	865,14,8	873,16,8	881,13,8	889,12,8	897,11,8	905,10,8	913,9,8	921,6,8	929,8,8	937,5,8	945,2,8	953,4,8	961,121,1	
# Incoming

# Outgoing

