2301
# CPU
190,10,28	379,20,28	568,30,28	757,40,28	946,50,28	1135,60,28	1324,70,28	1513,80,28	1702,90,28	1891,100,28	2080,110,28	2269,120,28	
169,9,28	358,19,28	547,29,28	736,39,28	925,49,28	1114,59,28	1303,69,28	1492,79,28	1681,89,28	1870,99,28	2059,109,28	2248,119,28	
148,8,28	337,18,28	526,28,28	715,38,28	904,48,28	1093,58,28	1282,68,28	1471,78,28	1660,88,28	1849,98,28	2038,108,28	2227,118,28	
127,7,28	316,17,28	505,27,28	694,37,28	883,47,28	1072,57,28	1261,67,28	1450,77,28	1639,87,28	1828,97,28	2017,107,28	2206,117,28	
106,6,28	295,16,28	484,26,28	673,36,28	862,46,28	1051,56,28	1240,66,28	1429,76,28	1618,86,28	1807,96,28	1996,106,28	2185,116,28	
85,5,28	274,15,28	463,25,28	652,35,28	841,45,28	1030,55,28	1219,65,28	1408,75,28	1597,85,28	1786,95,28	1975,105,28	2164,115,28	
64,4,28	253,14,28	442,24,28	631,34,28	820,44,28	1009,54,28	1198,64,28	1387,74,28	1576,84,28	1765,94,28	1954,104,28	2143,114,28	
43,3,28	232,13,28	421,23,28	610,33,28	799,43,28	988,53,28	1177,63,28	1366,73,28	1555,83,28	1744,93,28	1933,103,28	2122,113,28	
22,2,28	211,12,28	400,22,28	589,32,28	778,42,28	967,52,28	1156,62,28	1345,72,28	1534,82,28	1723,92,28	1912,102,28	2101,112,28	
0,0,1	1,1,28	29,21,28	57,61,28	85,111,28	113,101,28	141,91,28	169,81,28	197,51,28	225,71,28	253,41,28	281,11,28	309,31,28	2300,121,1	
# Incoming
169,(0, 10),21	358,(0, 20),21	547,(0, 30),21	736,(0, 40),21	925,(0, 50),21	1114,(0, 60),21	1303,(0, 70),21	1492,(0, 80),21	1681,(0, 90),21	1870,(0, 100),21	2059,(0, 110),21	2248,(0, 120),21	
148,(0, 9),21	337,(0, 19),21	526,(0, 29),21	715,(0, 39),21	904,(0, 49),21	1093,(0, 59),21	1282,(0, 69),21	1471,(0, 79),21	1660,(0, 89),21	1849,(0, 99),21	2038,(0, 109),21	2227,(0, 119),21	
127,(0, 8),21	316,(0, 18),21	505,(0, 28),21	694,(0, 38),21	883,(0, 48),21	1072,(0, 58),21	1261,(0, 68),21	1450,(0, 78),21	1639,(0, 88),21	1828,(0, 98),21	2017,(0, 108),21	2206,(0, 118),21	
106,(0, 7),21	295,(0, 17),21	484,(0, 27),21	673,(0, 37),21	862,(0, 47),21	1051,(0, 57),21	1240,(0, 67),21	1429,(0, 77),21	1618,(0, 87),21	1807,(0, 97),21	1996,(0, 107),21	2185,(0, 117),21	
85,(0, 6),21	274,(0, 16),21	463,(0, 26),21	652,(0, 36),21	841,(0, 46),21	1030,(0, 56),21	1219,(0, 66),21	1408,(0, 76),21	1597,(0, 86),21	1786,(0, 96),21	1975,(0, 106),21	2164,(0, 116),21	
64,(0, 5),21	253,(0, 15),21	442,(0, 25),21	631,(0, 35),21	820,(0, 45),21	1009,(0, 55),21	1198,(0, 65),21	1387,(0, 75),21	1576,(0, 85),21	1765,(0, 95),21	1954,(0, 105),21	2143,(0, 115),21	
43,(0, 4),21	232,(0, 14),21	421,(0, 24),21	610,(0, 34),21	799,(0, 44),21	988,(0, 54),21	1177,(0, 64),21	1366,(0, 74),21	1555,(0, 84),21	1744,(0, 94),21	1933,(0, 104),21	2122,(0, 114),21	
22,(0, 3),21	211,(0, 13),21	400,(0, 23),21	589,(0, 33),21	778,(0, 43),21	967,(0, 53),21	1156,(0, 63),21	1345,(0, 73),21	1534,(0, 83),21	1723,(0, 93),21	1912,(0, 103),21	2101,(0, 113),21	
1,(0, 2),21	190,(0, 12),21	379,(0, 22),21	568,(0, 32),21	757,(0, 42),21	946,(0, 52),21	1135,(0, 62),21	1324,(0, 72),21	1513,(0, 82),21	1702,(0, 92),21	1891,(0, 102),21	2080,(0, 112),21	
50,(2, 121),3	71,(3, 121),3	92,(4, 121),3	113,(5, 121),3	134,(6, 121),3	155,(7, 121),3	176,(8, 121),3	197,(9, 121),3	218,(10, 121),3	239,(12, 121),3	260,(13, 121),3	281,(14, 121),3	302,(15, 121),3	323,(16, 121),3	344,(17, 121),3	365,(18, 121),3	386,(19, 121),3	407,(20, 121),3	428,(22, 121),3	449,(23, 121),3	470,(24, 121),3	491,(25, 121),3	512,(26, 121),3	533,(27, 121),3	554,(28, 121),3	575,(29, 121),3	596,(30, 121),3	617,(32, 121),3	638,(33, 121),3	659,(34, 121),3	680,(35, 121),3	701,(36, 121),3	722,(37, 121),3	743,(38, 121),3	764,(39, 121),3	785,(40, 121),3	806,(42, 121),3	827,(43, 121),3	848,(44, 121),3	869,(45, 121),3	890,(46, 121),3	911,(47, 121),3	932,(48, 121),3	953,(49, 121),3	974,(50, 121),3	995,(52, 121),3	1016,(53, 121),3	1037,(54, 121),3	1058,(55, 121),3	1079,(56, 121),3	1100,(57, 121),3	1121,(58, 121),3	1142,(59, 121),3	1163,(60, 121),3	1184,(62, 121),3	1205,(63, 121),3	1226,(64, 121),3	1247,(65, 121),3	1268,(66, 121),3	1289,(67, 121),3	1310,(68, 121),3	1331,(69, 121),3	1352,(70, 121),3	1373,(72, 121),3	1394,(73, 121),3	1415,(74, 121),3	1436,(75, 121),3	1457,(76, 121),3	1478,(77, 121),3	1499,(78, 121),3	1520,(79, 121),3	1541,(80, 121),3	1562,(82, 121),3	1583,(83, 121),3	1604,(84, 121),3	1625,(85, 121),3	1646,(86, 121),3	1667,(87, 121),3	1688,(88, 121),3	1709,(89, 121),3	1730,(90, 121),3	1751,(92, 121),3	1772,(93, 121),3	1793,(94, 121),3	1814,(95, 121),3	1835,(96, 121),3	1856,(97, 121),3	1877,(98, 121),3	1898,(99, 121),3	1919,(100, 121),3	1940,(102, 121),3	1961,(103, 121),3	1982,(104, 121),3	2003,(105, 121),3	2024,(106, 121),3	2045,(107, 121),3	2066,(108, 121),3	2087,(109, 121),3	2108,(110, 121),3	2129,(112, 121),3	2150,(113, 121),3	2171,(114, 121),3	2192,(115, 121),3	2213,(116, 121),3	2234,(117, 121),3	2255,(118, 121),3	2276,(119, 121),3	2297,(120, 121),3	
# Outgoing
218,(10, 121),3	407,(20, 121),3	596,(30, 121),3	785,(40, 121),3	974,(50, 121),3	1163,(60, 121),3	1352,(70, 121),3	1541,(80, 121),3	1730,(90, 121),3	1919,(100, 121),3	2108,(110, 121),3	2297,(120, 121),3	
197,(9, 121),3	386,(19, 121),3	575,(29, 121),3	764,(39, 121),3	953,(49, 121),3	1142,(59, 121),3	1331,(69, 121),3	1520,(79, 121),3	1709,(89, 121),3	1898,(99, 121),3	2087,(109, 121),3	2276,(119, 121),3	
176,(8, 121),3	365,(18, 121),3	554,(28, 121),3	743,(38, 121),3	932,(48, 121),3	1121,(58, 121),3	1310,(68, 121),3	1499,(78, 121),3	1688,(88, 121),3	1877,(98, 121),3	2066,(108, 121),3	2255,(118, 121),3	
155,(7, 121),3	344,(17, 121),3	533,(27, 121),3	722,(37, 121),3	911,(47, 121),3	1100,(57, 121),3	1289,(67, 121),3	1478,(77, 121),3	1667,(87, 121),3	1856,(97, 121),3	2045,(107, 121),3	2234,(117, 121),3	
134,(6, 121),3	323,(16, 121),3	512,(26, 121),3	701,(36, 121),3	890,(46, 121),3	1079,(56, 121),3	1268,(66, 121),3	1457,(76, 121),3	1646,(86, 121),3	1835,(96, 121),3	2024,(106, 121),3	2213,(116, 121),3	
113,(5, 121),3	302,(15, 121),3	491,(25, 121),3	680,(35, 121),3	869,(45, 121),3	1058,(55, 121),3	1247,(65, 121),3	1436,(75, 121),3	1625,(85, 121),3	1814,(95, 121),3	2003,(105, 121),3	2192,(115, 121),3	
92,(4, 121),3	281,(14, 121),3	470,(24, 121),3	659,(34, 121),3	848,(44, 121),3	1037,(54, 121),3	1226,(64, 121),3	1415,(74, 121),3	1604,(84, 121),3	1793,(94, 121),3	1982,(104, 121),3	2171,(114, 121),3	
71,(3, 121),3	260,(13, 121),3	449,(23, 121),3	638,(33, 121),3	827,(43, 121),3	1016,(53, 121),3	1205,(63, 121),3	1394,(73, 121),3	1583,(83, 121),3	1772,(93, 121),3	1961,(103, 121),3	2150,(113, 121),3	
50,(2, 121),3	239,(12, 121),3	428,(22, 121),3	617,(32, 121),3	806,(42, 121),3	995,(52, 121),3	1184,(62, 121),3	1373,(72, 121),3	1562,(82, 121),3	1751,(92, 121),3	1940,(102, 121),3	2129,(112, 121),3	
1,(0, 2),21	22,(0, 3),21	43,(0, 4),21	64,(0, 5),21	85,(0, 6),21	106,(0, 7),21	127,(0, 8),21	148,(0, 9),21	169,(0, 10),21	190,(0, 12),21	211,(0, 13),21	232,(0, 14),21	253,(0, 15),21	274,(0, 16),21	295,(0, 17),21	316,(0, 18),21	337,(0, 19),21	358,(0, 20),21	379,(0, 22),21	400,(0, 23),21	421,(0, 24),21	442,(0, 25),21	463,(0, 26),21	484,(0, 27),21	505,(0, 28),21	526,(0, 29),21	547,(0, 30),21	568,(0, 32),21	589,(0, 33),21	610,(0, 34),21	631,(0, 35),21	652,(0, 36),21	673,(0, 37),21	694,(0, 38),21	715,(0, 39),21	736,(0, 40),21	757,(0, 42),21	778,(0, 43),21	799,(0, 44),21	820,(0, 45),21	841,(0, 46),21	862,(0, 47),21	883,(0, 48),21	904,(0, 49),21	925,(0, 50),21	946,(0, 52),21	967,(0, 53),21	988,(0, 54),21	1009,(0, 55),21	1030,(0, 56),21	1051,(0, 57),21	1072,(0, 58),21	1093,(0, 59),21	1114,(0, 60),21	1135,(0, 62),21	1156,(0, 63),21	1177,(0, 64),21	1198,(0, 65),21	1219,(0, 66),21	1240,(0, 67),21	1261,(0, 68),21	1282,(0, 69),21	1303,(0, 70),21	1324,(0, 72),21	1345,(0, 73),21	1366,(0, 74),21	1387,(0, 75),21	1408,(0, 76),21	1429,(0, 77),21	1450,(0, 78),21	1471,(0, 79),21	1492,(0, 80),21	1513,(0, 82),21	1534,(0, 83),21	1555,(0, 84),21	1576,(0, 85),21	1597,(0, 86),21	1618,(0, 87),21	1639,(0, 88),21	1660,(0, 89),21	1681,(0, 90),21	1702,(0, 92),21	1723,(0, 93),21	1744,(0, 94),21	1765,(0, 95),21	1786,(0, 96),21	1807,(0, 97),21	1828,(0, 98),21	1849,(0, 99),21	1870,(0, 100),21	1891,(0, 102),21	1912,(0, 103),21	1933,(0, 104),21	1954,(0, 105),21	1975,(0, 106),21	1996,(0, 107),21	2017,(0, 108),21	2038,(0, 109),21	2059,(0, 110),21	2080,(0, 112),21	2101,(0, 113),21	2122,(0, 114),21	2143,(0, 115),21	2164,(0, 116),21	2185,(0, 117),21	2206,(0, 118),21	2227,(0, 119),21	2248,(0, 120),21	
