3522
# CPU
0,161,1	1,111,22	23,110,22	45,112,22	67,109,22	89,108,22	111,107,22	133,113,22	155,106,22	177,114,22	199,105,22	221,115,22	243,104,22	265,103,22	287,102,22	309,116,22	331,101,22	353,100,22	375,99,22	397,117,22	419,98,22	441,97,22	463,96,22	485,118,22	507,95,22	529,119,22	551,94,22	573,120,22	595,93,22	617,92,22	639,91,22	661,121,22	683,90,22	705,81,22	727,80,22	749,82,22	771,79,22	793,78,22	815,77,22	837,83,22	859,76,22	881,84,22	903,75,22	925,85,22	947,74,22	969,73,22	991,72,22	1013,86,22	1035,71,22	1057,87,22	1079,70,22	1101,88,22	1123,69,22	1145,68,22	1167,67,22	1189,89,22	1211,66,22	1233,122,22	1255,65,22	1277,123,22	1299,64,22	1321,63,22	1343,62,22	1365,124,22	1387,61,22	1409,125,22	1431,60,22	1453,126,22	1475,59,22	1497,58,22	1519,57,22	1541,127,22	1563,56,22	1585,128,22	1607,55,22	1629,129,22	1651,54,22	1673,53,22	1695,52,22	1717,130,22	1739,51,22	1761,131,22	1783,50,22	1805,132,22	1827,49,22	1849,48,22	1871,47,22	1893,133,22	1915,46,22	1937,134,22	1959,45,22	1981,135,22	2003,44,22	2025,43,22	2047,42,22	2069,136,22	2091,41,22	2113,145,22	2135,144,22	2157,146,22	2179,143,22	2201,142,22	2223,141,22	2245,147,22	2267,140,22	2289,139,22	2311,138,22	2333,148,22	2355,137,22	2377,40,22	2399,39,22	2421,149,22	2443,38,22	2465,37,22	2487,36,22	2509,150,22	2531,35,22	2553,34,22	2575,33,22	2597,151,22	2619,32,22	2641,31,22	2663,30,22	2685,152,22	2707,29,22	2729,28,22	2751,27,22	2773,153,22	2795,26,22	2817,17,22	2839,16,22	2861,18,22	2883,15,22	2905,19,22	2927,14,22	2949,20,22	2971,13,22	2993,21,22	3015,12,22	3037,22,22	3059,11,22	3081,23,22	3103,10,22	3125,24,22	3147,9,22	3169,1,22	3191,2,22	3213,3,22	3235,4,22	3257,5,22	3279,6,22	3301,7,22	3323,8,22	3345,25,22	3367,154,22	3389,155,22	3411,156,22	3433,157,22	3455,158,22	3477,159,22	3499,160,22	3521,0,1	
# Incoming

# Outgoing

