1282
# CPU
0,161,1	1,111,8	9,110,8	17,112,8	25,109,8	33,108,8	41,107,8	49,113,8	57,106,8	65,114,8	73,105,8	81,115,8	89,104,8	97,103,8	105,102,8	113,116,8	121,101,8	129,100,8	137,99,8	145,117,8	153,98,8	161,97,8	169,96,8	177,118,8	185,95,8	193,119,8	201,94,8	209,120,8	217,93,8	225,92,8	233,91,8	241,121,8	249,90,8	257,81,8	265,80,8	273,82,8	281,79,8	289,78,8	297,77,8	305,83,8	313,76,8	321,84,8	329,75,8	337,85,8	345,74,8	353,73,8	361,72,8	369,86,8	377,71,8	385,87,8	393,70,8	401,88,8	409,69,8	417,68,8	425,67,8	433,89,8	441,66,8	449,122,8	457,65,8	465,123,8	473,64,8	481,63,8	489,62,8	497,124,8	505,61,8	513,125,8	521,60,8	529,126,8	537,59,8	545,58,8	553,57,8	561,127,8	569,56,8	577,128,8	585,55,8	593,129,8	601,54,8	609,53,8	617,52,8	625,130,8	633,51,8	641,131,8	649,50,8	657,132,8	665,49,8	673,48,8	681,47,8	689,133,8	697,46,8	705,134,8	713,45,8	721,135,8	729,44,8	737,43,8	745,42,8	753,136,8	761,41,8	769,145,8	777,144,8	785,146,8	793,143,8	801,142,8	809,141,8	817,147,8	825,140,8	833,139,8	841,138,8	849,148,8	857,137,8	865,40,8	873,39,8	881,149,8	889,38,8	897,37,8	905,36,8	913,150,8	921,35,8	929,34,8	937,33,8	945,151,8	953,32,8	961,31,8	969,30,8	977,152,8	985,29,8	993,28,8	1001,27,8	1009,153,8	1017,26,8	1025,17,8	1033,16,8	1041,18,8	1049,15,8	1057,19,8	1065,14,8	1073,20,8	1081,13,8	1089,21,8	1097,12,8	1105,22,8	1113,11,8	1121,23,8	1129,10,8	1137,24,8	1145,9,8	1153,1,8	1161,2,8	1169,3,8	1177,4,8	1185,5,8	1193,6,8	1201,7,8	1209,8,8	1217,25,8	1225,154,8	1233,155,8	1241,156,8	1249,157,8	1257,158,8	1265,159,8	1273,160,8	1281,0,1	
# Incoming

# Outgoing

