369
# CPU
0,121,1	1,76,3	4,75,3	7,77,3	10,74,3	13,73,3	16,72,3	19,78,3	22,71,3	25,79,3	28,70,3	31,80,3	34,69,3	37,68,3	40,67,3	43,81,3	46,66,3	49,82,3	52,65,3	55,83,3	58,64,3	61,63,3	64,62,3	67,61,3	70,84,3	73,60,3	76,85,3	79,59,3	82,58,3	85,57,3	88,86,3	91,56,3	94,87,3	97,55,3	100,89,3	103,54,3	106,53,3	109,52,3	112,90,3	115,51,3	118,91,3	121,50,3	124,92,3	127,49,3	130,47,3	133,48,3	136,46,3	139,93,3	142,45,3	145,94,3	148,44,3	151,43,3	154,42,3	157,95,3	160,41,3	163,105,3	166,104,3	169,106,3	172,103,3	175,102,3	178,101,3	181,107,3	184,100,3	187,99,3	190,98,3	193,33,3	196,26,3	199,108,3	202,109,3	205,97,3	208,40,3	211,39,3	214,110,3	217,38,3	220,37,3	223,35,3	226,111,3	229,34,3	232,32,3	235,31,3	238,112,3	241,30,3	244,29,3	247,28,3	250,113,3	253,27,3	256,17,3	259,16,3	262,15,3	265,18,3	268,14,3	271,19,3	274,13,3	277,20,3	280,12,3	283,21,3	286,11,3	289,23,3	292,10,3	295,24,3	298,9,3	301,1,3	304,2,3	307,3,3	310,4,3	313,5,3	316,6,3	319,7,3	322,8,3	325,25,3	328,114,3	331,115,3	334,116,3	337,118,3	340,119,3	343,120,3	368,0,1	
129,96,3	


257,22,3	

321,117,3	

193,36,3	
65,88,3	
# Incoming
68,(88, 0),44	132,(96, 0),44	196,(36, 0),44	260,(22, 0),44	324,(117, 0),44	
65,(121, 96),64	


193,(121, 22),64	

257,(121, 117),64	

129,(121, 36),64	
1,(121, 88),64	
# Outgoing
1,(121, 88),64	65,(121, 96),64	129,(121, 36),64	193,(121, 22),64	257,(121, 117),64	
132,(96, 0),44	


260,(22, 0),44	

324,(117, 0),44	

196,(36, 0),44	
68,(88, 0),44	
