634
# CPU
0,121,1	1,120,8	9,75,8	17,76,8	25,73,8	33,72,8	41,71,8	49,74,8	57,70,8	65,68,8	73,67,8	81,66,8	89,69,8	97,65,8	105,64,8	113,62,8	121,63,8	129,61,8	137,60,8	145,59,8	153,58,8	161,57,8	169,56,8	177,55,8	185,54,8	193,53,8	201,52,8	209,51,8	217,50,8	225,77,8	233,48,8	241,47,8	249,46,8	257,49,8	265,45,8	273,44,8	281,42,8	289,43,8	297,104,8	305,105,8	313,103,8	321,102,8	329,106,8	337,101,8	345,100,8	353,107,8	361,91,8	369,108,8	377,41,8	385,39,8	393,109,8	401,37,8	409,35,8	417,110,8	425,33,8	433,111,8	441,31,8	449,30,8	457,112,8	465,17,8	473,16,8	481,15,8	489,14,8	497,18,8	505,13,8	513,12,8	521,11,8	529,19,8	537,10,8	545,1,8	553,2,8	561,3,8	569,4,8	577,5,8	585,6,8	593,7,8	601,8,8	609,20,8	617,113,8	625,119,8	633,0,1	
31,81,8	196,94,8	211,95,8	226,96,8	241,97,8	256,98,8	331,40,8	361,36,8	376,34,8	391,32,8	421,26,8	436,24,8	586,29,8	601,9,8	616,118,8	
61,82,8	106,85,8	121,86,8	181,90,8	301,92,8	316,78,8	346,38,8	406,27,8	451,22,8	466,21,8	481,23,8	496,25,8	526,115,8	571,117,8	
16,79,8	46,80,8	76,83,8	91,84,8	136,87,8	151,88,8	166,89,8	271,93,8	286,99,8	511,28,8	541,114,8	556,116,8	
# Incoming
24,(79, 0),3	39,(81, 0),3	54,(80, 0),3	69,(82, 0),3	84,(83, 0),3	99,(84, 0),3	114,(85, 0),3	129,(86, 0),3	144,(87, 0),3	159,(88, 0),3	174,(89, 0),3	189,(90, 0),3	204,(94, 0),3	219,(95, 0),3	234,(96, 0),3	249,(97, 0),3	264,(98, 0),3	279,(93, 0),3	294,(99, 0),3	309,(92, 0),3	324,(78, 0),3	339,(40, 0),3	354,(38, 0),3	369,(36, 0),3	384,(34, 0),3	399,(32, 0),3	414,(27, 0),3	429,(26, 0),3	444,(24, 0),3	459,(22, 0),3	474,(21, 0),3	489,(23, 0),3	504,(25, 0),3	519,(28, 0),3	534,(115, 0),3	549,(114, 0),3	564,(116, 0),3	579,(117, 0),3	594,(29, 0),3	609,(9, 0),3	624,(118, 0),3	
16,(121, 81),15	181,(121, 94),15	196,(121, 95),15	211,(121, 96),15	226,(121, 97),15	241,(121, 98),15	316,(121, 40),15	346,(121, 36),15	361,(121, 34),15	376,(121, 32),15	406,(121, 26),15	421,(121, 24),15	571,(121, 29),15	586,(121, 9),15	601,(121, 118),15	
46,(121, 82),15	91,(121, 85),15	106,(121, 86),15	166,(121, 90),15	286,(121, 92),15	301,(121, 78),15	331,(121, 38),15	391,(121, 27),15	436,(121, 22),15	451,(121, 21),15	466,(121, 23),15	481,(121, 25),15	511,(121, 115),15	556,(121, 117),15	
1,(121, 79),15	31,(121, 80),15	61,(121, 83),15	76,(121, 84),15	121,(121, 87),15	136,(121, 88),15	151,(121, 89),15	256,(121, 93),15	271,(121, 99),15	496,(121, 28),15	526,(121, 114),15	541,(121, 116),15	
# Outgoing
1,(121, 79),15	16,(121, 81),15	31,(121, 80),15	46,(121, 82),15	61,(121, 83),15	76,(121, 84),15	91,(121, 85),15	106,(121, 86),15	121,(121, 87),15	136,(121, 88),15	151,(121, 89),15	166,(121, 90),15	181,(121, 94),15	196,(121, 95),15	211,(121, 96),15	226,(121, 97),15	241,(121, 98),15	256,(121, 93),15	271,(121, 99),15	286,(121, 92),15	301,(121, 78),15	316,(121, 40),15	331,(121, 38),15	346,(121, 36),15	361,(121, 34),15	376,(121, 32),15	391,(121, 27),15	406,(121, 26),15	421,(121, 24),15	436,(121, 22),15	451,(121, 21),15	466,(121, 23),15	481,(121, 25),15	496,(121, 28),15	511,(121, 115),15	526,(121, 114),15	541,(121, 116),15	556,(121, 117),15	571,(121, 29),15	586,(121, 9),15	601,(121, 118),15	
39,(81, 0),3	204,(94, 0),3	219,(95, 0),3	234,(96, 0),3	249,(97, 0),3	264,(98, 0),3	339,(40, 0),3	369,(36, 0),3	384,(34, 0),3	399,(32, 0),3	429,(26, 0),3	444,(24, 0),3	594,(29, 0),3	609,(9, 0),3	624,(118, 0),3	
69,(82, 0),3	114,(85, 0),3	129,(86, 0),3	189,(90, 0),3	309,(92, 0),3	324,(78, 0),3	354,(38, 0),3	414,(27, 0),3	459,(22, 0),3	474,(21, 0),3	489,(23, 0),3	504,(25, 0),3	534,(115, 0),3	579,(117, 0),3	
24,(79, 0),3	54,(80, 0),3	84,(83, 0),3	99,(84, 0),3	144,(87, 0),3	159,(88, 0),3	174,(89, 0),3	279,(93, 0),3	294,(99, 0),3	519,(28, 0),3	549,(114, 0),3	564,(116, 0),3	
