160
# CPU
0,161,1	1,160,1	2,110,1	3,111,1	4,109,1	5,108,1	6,107,1	7,112,1	8,106,1	9,113,1	10,105,1	11,114,1	12,104,1	13,103,1	14,102,1	15,115,1	16,101,1	17,100,1	18,99,1	19,116,1	20,98,1	21,97,1	22,96,1	23,117,1	24,95,1	25,118,1	26,94,1	27,119,1	28,93,1	29,92,1	30,91,1	31,120,1	32,90,1	33,81,1	34,80,1	35,82,1	36,79,1	37,78,1	38,77,1	39,83,1	40,76,1	41,84,1	42,75,1	43,85,1	44,74,1	45,73,1	46,72,1	47,86,1	48,71,1	49,87,1	50,70,1	51,88,1	52,69,1	53,68,1	54,67,1	55,89,1	56,66,1	57,121,1	58,65,1	59,122,1	60,64,1	61,63,1	62,62,1	63,123,1	64,61,1	65,124,1	66,60,1	67,125,1	68,59,1	69,58,1	70,57,1	71,56,1	72,126,1	73,55,1	74,127,1	75,54,1	76,53,1	77,52,1	78,129,1	79,51,1	80,130,1	81,50,1	82,131,1	83,49,1	84,48,1	85,47,1	86,132,1	87,46,1	88,133,1	89,45,1	90,134,1	91,44,1	92,43,1	93,42,1	94,135,1	95,41,1	96,144,1	97,143,1	98,145,1	99,142,1	100,141,1	101,140,1	102,146,1	103,139,1	104,138,1	105,137,1	106,147,1	107,136,1	108,40,1	109,39,1	110,148,1	111,38,1	112,37,1	113,36,1	114,149,1	115,35,1	116,34,1	117,33,1	118,150,1	119,32,1	120,31,1	121,30,1	122,151,1	123,29,1	124,28,1	125,27,1	126,152,1	127,26,1	128,17,1	129,16,1	130,18,1	131,15,1	132,19,1	133,14,1	134,13,1	135,20,1	136,12,1	137,21,1	138,11,1	139,22,1	140,10,1	141,24,1	142,9,1	143,1,1	144,2,1	145,3,1	146,4,1	147,5,1	148,6,1	149,7,1	150,8,1	151,25,1	152,153,1	153,154,1	154,155,1	155,156,1	156,157,1	157,158,1	158,159,1	159,0,1	

129,23,1	
65,128,1	

# Incoming
66,(128, 0),4	130,(23, 0),4	

65,(161, 23),64	
1,(161, 128),64	

# Outgoing
1,(161, 128),64	65,(161, 23),64	

130,(23, 0),4	
66,(128, 0),4	

