395
# CPU
17,5,8	33,10,8	49,15,8	65,20,8	81,25,8	97,30,8	113,35,8	129,40,8	145,45,8	161,50,8	177,55,8	193,60,8	209,65,8	225,70,8	241,75,8	257,80,8	273,85,8	289,90,8	305,95,8	321,100,8	337,105,8	353,110,8	369,115,8	385,120,8	
13,4,8	29,9,8	45,14,8	61,19,8	77,24,8	93,29,8	109,34,8	125,39,8	141,44,8	157,49,8	173,54,8	189,59,8	205,64,8	221,69,8	237,74,8	253,79,8	269,84,8	285,89,8	301,94,8	317,99,8	333,104,8	349,109,8	365,114,8	381,119,8	
9,3,8	25,8,8	41,13,8	57,18,8	73,23,8	89,28,8	105,33,8	121,38,8	137,43,8	153,48,8	169,53,8	185,58,8	201,63,8	217,68,8	233,73,8	249,78,8	265,83,8	281,88,8	297,93,8	313,98,8	329,103,8	345,108,8	361,113,8	377,118,8	
5,2,8	21,7,8	37,12,8	53,17,8	69,22,8	85,27,8	101,32,8	117,37,8	133,42,8	149,47,8	165,52,8	181,57,8	197,62,8	213,67,8	229,72,8	245,77,8	261,82,8	277,87,8	293,92,8	309,97,8	325,102,8	341,107,8	357,112,8	373,117,8	
0,0,1	1,1,8	9,11,8	17,31,8	25,71,8	33,116,8	41,111,8	49,106,8	57,101,8	65,96,8	73,91,8	81,86,8	89,81,8	97,66,8	105,76,8	113,61,8	121,56,8	129,51,8	137,46,8	145,41,8	153,26,8	161,36,8	169,21,8	177,6,8	185,16,8	394,121,1	
# Incoming
13,(0, 5),4	29,(0, 10),4	45,(0, 15),4	61,(0, 20),4	77,(0, 25),4	93,(0, 30),4	109,(0, 35),4	125,(0, 40),4	141,(0, 45),4	157,(0, 50),4	173,(0, 55),4	189,(0, 60),4	205,(0, 65),4	221,(0, 70),4	237,(0, 75),4	253,(0, 80),4	269,(0, 85),4	285,(0, 90),4	301,(0, 95),4	317,(0, 100),4	333,(0, 105),4	349,(0, 110),4	365,(0, 115),4	381,(0, 120),4	
9,(0, 4),4	25,(0, 9),4	41,(0, 14),4	57,(0, 19),4	73,(0, 24),4	89,(0, 29),4	105,(0, 34),4	121,(0, 39),4	137,(0, 44),4	153,(0, 49),4	169,(0, 54),4	185,(0, 59),4	201,(0, 64),4	217,(0, 69),4	233,(0, 74),4	249,(0, 79),4	265,(0, 84),4	281,(0, 89),4	297,(0, 94),4	313,(0, 99),4	329,(0, 104),4	345,(0, 109),4	361,(0, 114),4	377,(0, 119),4	
5,(0, 3),4	21,(0, 8),4	37,(0, 13),4	53,(0, 18),4	69,(0, 23),4	85,(0, 28),4	101,(0, 33),4	117,(0, 38),4	133,(0, 43),4	149,(0, 48),4	165,(0, 53),4	181,(0, 58),4	197,(0, 63),4	213,(0, 68),4	229,(0, 73),4	245,(0, 78),4	261,(0, 83),4	277,(0, 88),4	293,(0, 93),4	309,(0, 98),4	325,(0, 103),4	341,(0, 108),4	357,(0, 113),4	373,(0, 118),4	
1,(0, 2),4	17,(0, 7),4	33,(0, 12),4	49,(0, 17),4	65,(0, 22),4	81,(0, 27),4	97,(0, 32),4	113,(0, 37),4	129,(0, 42),4	145,(0, 47),4	161,(0, 52),4	177,(0, 57),4	193,(0, 62),4	209,(0, 67),4	225,(0, 72),4	241,(0, 77),4	257,(0, 82),4	273,(0, 87),4	289,(0, 92),4	305,(0, 97),4	321,(0, 102),4	337,(0, 107),4	353,(0, 112),4	369,(0, 117),4	
13,(2, 121),1	17,(3, 121),1	21,(4, 121),1	25,(5, 121),1	29,(7, 121),1	33,(8, 121),1	37,(9, 121),1	41,(10, 121),1	45,(12, 121),1	49,(13, 121),1	53,(14, 121),1	57,(15, 121),1	61,(17, 121),1	65,(18, 121),1	69,(19, 121),1	73,(20, 121),1	77,(22, 121),1	81,(23, 121),1	85,(24, 121),1	89,(25, 121),1	93,(27, 121),1	97,(28, 121),1	101,(29, 121),1	105,(30, 121),1	109,(32, 121),1	113,(33, 121),1	117,(34, 121),1	121,(35, 121),1	125,(37, 121),1	129,(38, 121),1	133,(39, 121),1	137,(40, 121),1	141,(42, 121),1	145,(43, 121),1	149,(44, 121),1	153,(45, 121),1	157,(47, 121),1	161,(48, 121),1	165,(49, 121),1	169,(50, 121),1	173,(52, 121),1	177,(53, 121),1	181,(54, 121),1	185,(55, 121),1	189,(57, 121),1	193,(58, 121),1	197,(59, 121),1	201,(60, 121),1	205,(62, 121),1	209,(63, 121),1	213,(64, 121),1	217,(65, 121),1	221,(67, 121),1	225,(68, 121),1	229,(69, 121),1	233,(70, 121),1	237,(72, 121),1	241,(73, 121),1	245,(74, 121),1	249,(75, 121),1	253,(77, 121),1	257,(78, 121),1	261,(79, 121),1	265,(80, 121),1	269,(82, 121),1	273,(83, 121),1	277,(84, 121),1	281,(85, 121),1	285,(87, 121),1	289,(88, 121),1	293,(89, 121),1	297,(90, 121),1	301,(92, 121),1	305,(93, 121),1	309,(94, 121),1	313,(95, 121),1	317,(97, 121),1	321,(98, 121),1	325,(99, 121),1	329,(100, 121),1	333,(102, 121),1	337,(103, 121),1	341,(104, 121),1	345,(105, 121),1	349,(107, 121),1	353,(108, 121),1	357,(109, 121),1	361,(110, 121),1	365,(112, 121),1	369,(113, 121),1	373,(114, 121),1	377,(115, 121),1	381,(117, 121),1	385,(118, 121),1	389,(119, 121),1	393,(120, 121),1	
# Outgoing
25,(5, 121),1	41,(10, 121),1	57,(15, 121),1	73,(20, 121),1	89,(25, 121),1	105,(30, 121),1	121,(35, 121),1	137,(40, 121),1	153,(45, 121),1	169,(50, 121),1	185,(55, 121),1	201,(60, 121),1	217,(65, 121),1	233,(70, 121),1	249,(75, 121),1	265,(80, 121),1	281,(85, 121),1	297,(90, 121),1	313,(95, 121),1	329,(100, 121),1	345,(105, 121),1	361,(110, 121),1	377,(115, 121),1	393,(120, 121),1	
21,(4, 121),1	37,(9, 121),1	53,(14, 121),1	69,(19, 121),1	85,(24, 121),1	101,(29, 121),1	117,(34, 121),1	133,(39, 121),1	149,(44, 121),1	165,(49, 121),1	181,(54, 121),1	197,(59, 121),1	213,(64, 121),1	229,(69, 121),1	245,(74, 121),1	261,(79, 121),1	277,(84, 121),1	293,(89, 121),1	309,(94, 121),1	325,(99, 121),1	341,(104, 121),1	357,(109, 121),1	373,(114, 121),1	389,(119, 121),1	
17,(3, 121),1	33,(8, 121),1	49,(13, 121),1	65,(18, 121),1	81,(23, 121),1	97,(28, 121),1	113,(33, 121),1	129,(38, 121),1	145,(43, 121),1	161,(48, 121),1	177,(53, 121),1	193,(58, 121),1	209,(63, 121),1	225,(68, 121),1	241,(73, 121),1	257,(78, 121),1	273,(83, 121),1	289,(88, 121),1	305,(93, 121),1	321,(98, 121),1	337,(103, 121),1	353,(108, 121),1	369,(113, 121),1	385,(118, 121),1	
13,(2, 121),1	29,(7, 121),1	45,(12, 121),1	61,(17, 121),1	77,(22, 121),1	93,(27, 121),1	109,(32, 121),1	125,(37, 121),1	141,(42, 121),1	157,(47, 121),1	173,(52, 121),1	189,(57, 121),1	205,(62, 121),1	221,(67, 121),1	237,(72, 121),1	253,(77, 121),1	269,(82, 121),1	285,(87, 121),1	301,(92, 121),1	317,(97, 121),1	333,(102, 121),1	349,(107, 121),1	365,(112, 121),1	381,(117, 121),1	
1,(0, 2),4	5,(0, 3),4	9,(0, 4),4	13,(0, 5),4	17,(0, 7),4	21,(0, 8),4	25,(0, 9),4	29,(0, 10),4	33,(0, 12),4	37,(0, 13),4	41,(0, 14),4	45,(0, 15),4	49,(0, 17),4	53,(0, 18),4	57,(0, 19),4	61,(0, 20),4	65,(0, 22),4	69,(0, 23),4	73,(0, 24),4	77,(0, 25),4	81,(0, 27),4	85,(0, 28),4	89,(0, 29),4	93,(0, 30),4	97,(0, 32),4	101,(0, 33),4	105,(0, 34),4	109,(0, 35),4	113,(0, 37),4	117,(0, 38),4	121,(0, 39),4	125,(0, 40),4	129,(0, 42),4	133,(0, 43),4	137,(0, 44),4	141,(0, 45),4	145,(0, 47),4	149,(0, 48),4	153,(0, 49),4	157,(0, 50),4	161,(0, 52),4	165,(0, 53),4	169,(0, 54),4	173,(0, 55),4	177,(0, 57),4	181,(0, 58),4	185,(0, 59),4	189,(0, 60),4	193,(0, 62),4	197,(0, 63),4	201,(0, 64),4	205,(0, 65),4	209,(0, 67),4	213,(0, 68),4	217,(0, 69),4	221,(0, 70),4	225,(0, 72),4	229,(0, 73),4	233,(0, 74),4	237,(0, 75),4	241,(0, 77),4	245,(0, 78),4	249,(0, 79),4	253,(0, 80),4	257,(0, 82),4	261,(0, 83),4	265,(0, 84),4	269,(0, 85),4	273,(0, 87),4	277,(0, 88),4	281,(0, 89),4	285,(0, 90),4	289,(0, 92),4	293,(0, 93),4	297,(0, 94),4	301,(0, 95),4	305,(0, 97),4	309,(0, 98),4	313,(0, 99),4	317,(0, 100),4	321,(0, 102),4	325,(0, 103),4	329,(0, 104),4	333,(0, 105),4	337,(0, 107),4	341,(0, 108),4	345,(0, 109),4	349,(0, 110),4	353,(0, 112),4	357,(0, 113),4	361,(0, 114),4	365,(0, 115),4	369,(0, 117),4	373,(0, 118),4	377,(0, 119),4	381,(0, 120),4	
