6386
# CPU
325,10,12	649,20,12	973,30,12	1297,40,12	1621,50,12	1945,60,12	2269,70,12	2593,80,12	2917,90,12	3241,100,12	3565,110,12	3889,120,12	4213,130,12	4537,140,12	4861,150,12	5185,160,12	
289,9,12	613,19,12	937,29,12	1261,39,12	1585,49,12	1909,59,12	2233,69,12	2557,79,12	2881,89,12	3205,99,12	3529,109,12	3853,119,12	4177,129,12	4501,139,12	4825,149,12	5149,159,12	
253,8,12	577,18,12	901,28,12	1225,38,12	1549,48,12	1873,58,12	2197,68,12	2521,78,12	2845,88,12	3169,98,12	3493,108,12	3817,118,12	4141,128,12	4465,138,12	4789,148,12	5113,158,12	
217,7,12	541,17,12	865,27,12	1189,37,12	1513,47,12	1837,57,12	2161,67,12	2485,77,12	2809,87,12	3133,97,12	3457,107,12	3781,117,12	4105,127,12	4429,137,12	4753,147,12	5077,157,12	
181,6,12	505,16,12	829,26,12	1153,36,12	1477,46,12	1801,56,12	2125,66,12	2449,76,12	2773,86,12	3097,96,12	3421,106,12	3745,116,12	4069,126,12	4393,136,12	4717,146,12	5041,156,12	
145,5,12	469,15,12	793,25,12	1117,35,12	1441,45,12	1765,55,12	2089,65,12	2413,75,12	2737,85,12	3061,95,12	3385,105,12	3709,115,12	4033,125,12	4357,135,12	4681,145,12	5005,155,12	
109,4,12	433,14,12	757,24,12	1081,34,12	1405,44,12	1729,54,12	2053,64,12	2377,74,12	2701,84,12	3025,94,12	3349,104,12	3673,114,12	3997,124,12	4321,134,12	4645,144,12	4969,154,12	
73,3,12	397,13,12	721,23,12	1045,33,12	1369,43,12	1693,53,12	2017,63,12	2341,73,12	2665,83,12	2989,93,12	3313,103,12	3637,113,12	3961,123,12	4285,133,12	4609,143,12	4933,153,12	
37,2,12	361,12,12	685,22,12	1009,32,12	1333,42,12	1657,52,12	1981,62,12	2305,72,12	2629,82,12	2953,92,12	3277,102,12	3601,112,12	3925,122,12	4249,132,12	4573,142,12	4897,152,12	
0,0,1	1,1,12	13,21,12	25,61,12	37,141,12	49,131,12	61,151,12	73,121,12	85,111,12	97,101,12	109,91,12	121,81,12	133,51,12	145,71,12	157,41,12	169,11,12	181,31,12	6385,161,1	
# Incoming
289,(0, 10),36	613,(0, 20),36	937,(0, 30),36	1261,(0, 40),36	1585,(0, 50),36	1909,(0, 60),36	2233,(0, 70),36	2557,(0, 80),36	2881,(0, 90),36	3205,(0, 100),36	3529,(0, 110),36	3853,(0, 120),36	4177,(0, 130),36	4501,(0, 140),36	4825,(0, 150),36	5149,(0, 160),36	
253,(0, 9),36	577,(0, 19),36	901,(0, 29),36	1225,(0, 39),36	1549,(0, 49),36	1873,(0, 59),36	2197,(0, 69),36	2521,(0, 79),36	2845,(0, 89),36	3169,(0, 99),36	3493,(0, 109),36	3817,(0, 119),36	4141,(0, 129),36	4465,(0, 139),36	4789,(0, 149),36	5113,(0, 159),36	
217,(0, 8),36	541,(0, 18),36	865,(0, 28),36	1189,(0, 38),36	1513,(0, 48),36	1837,(0, 58),36	2161,(0, 68),36	2485,(0, 78),36	2809,(0, 88),36	3133,(0, 98),36	3457,(0, 108),36	3781,(0, 118),36	4105,(0, 128),36	4429,(0, 138),36	4753,(0, 148),36	5077,(0, 158),36	
181,(0, 7),36	505,(0, 17),36	829,(0, 27),36	1153,(0, 37),36	1477,(0, 47),36	1801,(0, 57),36	2125,(0, 67),36	2449,(0, 77),36	2773,(0, 87),36	3097,(0, 97),36	3421,(0, 107),36	3745,(0, 117),36	4069,(0, 127),36	4393,(0, 137),36	4717,(0, 147),36	5041,(0, 157),36	
145,(0, 6),36	469,(0, 16),36	793,(0, 26),36	1117,(0, 36),36	1441,(0, 46),36	1765,(0, 56),36	2089,(0, 66),36	2413,(0, 76),36	2737,(0, 86),36	3061,(0, 96),36	3385,(0, 106),36	3709,(0, 116),36	4033,(0, 126),36	4357,(0, 136),36	4681,(0, 146),36	5005,(0, 156),36	
109,(0, 5),36	433,(0, 15),36	757,(0, 25),36	1081,(0, 35),36	1405,(0, 45),36	1729,(0, 55),36	2053,(0, 65),36	2377,(0, 75),36	2701,(0, 85),36	3025,(0, 95),36	3349,(0, 105),36	3673,(0, 115),36	3997,(0, 125),36	4321,(0, 135),36	4645,(0, 145),36	4969,(0, 155),36	
73,(0, 4),36	397,(0, 14),36	721,(0, 24),36	1045,(0, 34),36	1369,(0, 44),36	1693,(0, 54),36	2017,(0, 64),36	2341,(0, 74),36	2665,(0, 84),36	2989,(0, 94),36	3313,(0, 104),36	3637,(0, 114),36	3961,(0, 124),36	4285,(0, 134),36	4609,(0, 144),36	4933,(0, 154),36	
37,(0, 3),36	361,(0, 13),36	685,(0, 23),36	1009,(0, 33),36	1333,(0, 43),36	1657,(0, 53),36	1981,(0, 63),36	2305,(0, 73),36	2629,(0, 83),36	2953,(0, 93),36	3277,(0, 103),36	3601,(0, 113),36	3925,(0, 123),36	4249,(0, 133),36	4573,(0, 143),36	4897,(0, 153),36	
1,(0, 2),36	325,(0, 12),36	649,(0, 22),36	973,(0, 32),36	1297,(0, 42),36	1621,(0, 52),36	1945,(0, 62),36	2269,(0, 72),36	2593,(0, 82),36	2917,(0, 92),36	3241,(0, 102),36	3565,(0, 112),36	3889,(0, 122),36	4213,(0, 132),36	4537,(0, 142),36	4861,(0, 152),36	
49,(2, 161),44	93,(3, 161),44	137,(4, 161),44	181,(5, 161),44	225,(6, 161),44	269,(7, 161),44	313,(8, 161),44	357,(9, 161),44	401,(10, 161),44	445,(12, 161),44	489,(13, 161),44	533,(14, 161),44	577,(15, 161),44	621,(16, 161),44	665,(17, 161),44	709,(18, 161),44	753,(19, 161),44	797,(20, 161),44	841,(22, 161),44	885,(23, 161),44	929,(24, 161),44	973,(25, 161),44	1017,(26, 161),44	1061,(27, 161),44	1105,(28, 161),44	1149,(29, 161),44	1193,(30, 161),44	1237,(32, 161),44	1281,(33, 161),44	1325,(34, 161),44	1369,(35, 161),44	1413,(36, 161),44	1457,(37, 161),44	1501,(38, 161),44	1545,(39, 161),44	1589,(40, 161),44	1633,(42, 161),44	1677,(43, 161),44	1721,(44, 161),44	1765,(45, 161),44	1809,(46, 161),44	1853,(47, 161),44	1897,(48, 161),44	1941,(49, 161),44	1985,(50, 161),44	2029,(52, 161),44	2073,(53, 161),44	2117,(54, 161),44	2161,(55, 161),44	2205,(56, 161),44	2249,(57, 161),44	2293,(58, 161),44	2337,(59, 161),44	2381,(60, 161),44	2425,(62, 161),44	2469,(63, 161),44	2513,(64, 161),44	2557,(65, 161),44	2601,(66, 161),44	2645,(67, 161),44	2689,(68, 161),44	2733,(69, 161),44	2777,(70, 161),44	2821,(72, 161),44	2865,(73, 161),44	2909,(74, 161),44	2953,(75, 161),44	2997,(76, 161),44	3041,(77, 161),44	3085,(78, 161),44	3129,(79, 161),44	3173,(80, 161),44	3217,(82, 161),44	3261,(83, 161),44	3305,(84, 161),44	3349,(85, 161),44	3393,(86, 161),44	3437,(87, 161),44	3481,(88, 161),44	3525,(89, 161),44	3569,(90, 161),44	3613,(92, 161),44	3657,(93, 161),44	3701,(94, 161),44	3745,(95, 161),44	3789,(96, 161),44	3833,(97, 161),44	3877,(98, 161),44	3921,(99, 161),44	3965,(100, 161),44	4009,(102, 161),44	4053,(103, 161),44	4097,(104, 161),44	4141,(105, 161),44	4185,(106, 161),44	4229,(107, 161),44	4273,(108, 161),44	4317,(109, 161),44	4361,(110, 161),44	4405,(112, 161),44	4449,(113, 161),44	4493,(114, 161),44	4537,(115, 161),44	4581,(116, 161),44	4625,(117, 161),44	4669,(118, 161),44	4713,(119, 161),44	4757,(120, 161),44	4801,(122, 161),44	4845,(123, 161),44	4889,(124, 161),44	4933,(125, 161),44	4977,(126, 161),44	5021,(127, 161),44	5065,(128, 161),44	5109,(129, 161),44	5153,(130, 161),44	5197,(132, 161),44	5241,(133, 161),44	5285,(134, 161),44	5329,(135, 161),44	5373,(136, 161),44	5417,(137, 161),44	5461,(138, 161),44	5505,(139, 161),44	5549,(140, 161),44	5593,(142, 161),44	5637,(143, 161),44	5681,(144, 161),44	5725,(145, 161),44	5769,(146, 161),44	5813,(147, 161),44	5857,(148, 161),44	5901,(149, 161),44	5945,(150, 161),44	5989,(152, 161),44	6033,(153, 161),44	6077,(154, 161),44	6121,(155, 161),44	6165,(156, 161),44	6209,(157, 161),44	6253,(158, 161),44	6297,(159, 161),44	6341,(160, 161),44	
# Outgoing
401,(10, 161),44	797,(20, 161),44	1193,(30, 161),44	1589,(40, 161),44	1985,(50, 161),44	2381,(60, 161),44	2777,(70, 161),44	3173,(80, 161),44	3569,(90, 161),44	3965,(100, 161),44	4361,(110, 161),44	4757,(120, 161),44	5153,(130, 161),44	5549,(140, 161),44	5945,(150, 161),44	6341,(160, 161),44	
357,(9, 161),44	753,(19, 161),44	1149,(29, 161),44	1545,(39, 161),44	1941,(49, 161),44	2337,(59, 161),44	2733,(69, 161),44	3129,(79, 161),44	3525,(89, 161),44	3921,(99, 161),44	4317,(109, 161),44	4713,(119, 161),44	5109,(129, 161),44	5505,(139, 161),44	5901,(149, 161),44	6297,(159, 161),44	
313,(8, 161),44	709,(18, 161),44	1105,(28, 161),44	1501,(38, 161),44	1897,(48, 161),44	2293,(58, 161),44	2689,(68, 161),44	3085,(78, 161),44	3481,(88, 161),44	3877,(98, 161),44	4273,(108, 161),44	4669,(118, 161),44	5065,(128, 161),44	5461,(138, 161),44	5857,(148, 161),44	6253,(158, 161),44	
269,(7, 161),44	665,(17, 161),44	1061,(27, 161),44	1457,(37, 161),44	1853,(47, 161),44	2249,(57, 161),44	2645,(67, 161),44	3041,(77, 161),44	3437,(87, 161),44	3833,(97, 161),44	4229,(107, 161),44	4625,(117, 161),44	5021,(127, 161),44	5417,(137, 161),44	5813,(147, 161),44	6209,(157, 161),44	
225,(6, 161),44	621,(16, 161),44	1017,(26, 161),44	1413,(36, 161),44	1809,(46, 161),44	2205,(56, 161),44	2601,(66, 161),44	2997,(76, 161),44	3393,(86, 161),44	3789,(96, 161),44	4185,(106, 161),44	4581,(116, 161),44	4977,(126, 161),44	5373,(136, 161),44	5769,(146, 161),44	6165,(156, 161),44	
181,(5, 161),44	577,(15, 161),44	973,(25, 161),44	1369,(35, 161),44	1765,(45, 161),44	2161,(55, 161),44	2557,(65, 161),44	2953,(75, 161),44	3349,(85, 161),44	3745,(95, 161),44	4141,(105, 161),44	4537,(115, 161),44	4933,(125, 161),44	5329,(135, 161),44	5725,(145, 161),44	6121,(155, 161),44	
137,(4, 161),44	533,(14, 161),44	929,(24, 161),44	1325,(34, 161),44	1721,(44, 161),44	2117,(54, 161),44	2513,(64, 161),44	2909,(74, 161),44	3305,(84, 161),44	3701,(94, 161),44	4097,(104, 161),44	4493,(114, 161),44	4889,(124, 161),44	5285,(134, 161),44	5681,(144, 161),44	6077,(154, 161),44	
93,(3, 161),44	489,(13, 161),44	885,(23, 161),44	1281,(33, 161),44	1677,(43, 161),44	2073,(53, 161),44	2469,(63, 161),44	2865,(73, 161),44	3261,(83, 161),44	3657,(93, 161),44	4053,(103, 161),44	4449,(113, 161),44	4845,(123, 161),44	5241,(133, 161),44	5637,(143, 161),44	6033,(153, 161),44	
49,(2, 161),44	445,(12, 161),44	841,(22, 161),44	1237,(32, 161),44	1633,(42, 161),44	2029,(52, 161),44	2425,(62, 161),44	2821,(72, 161),44	3217,(82, 161),44	3613,(92, 161),44	4009,(102, 161),44	4405,(112, 161),44	4801,(122, 161),44	5197,(132, 161),44	5593,(142, 161),44	5989,(152, 161),44	
1,(0, 2),36	37,(0, 3),36	73,(0, 4),36	109,(0, 5),36	145,(0, 6),36	181,(0, 7),36	217,(0, 8),36	253,(0, 9),36	289,(0, 10),36	325,(0, 12),36	361,(0, 13),36	397,(0, 14),36	433,(0, 15),36	469,(0, 16),36	505,(0, 17),36	541,(0, 18),36	577,(0, 19),36	613,(0, 20),36	649,(0, 22),36	685,(0, 23),36	721,(0, 24),36	757,(0, 25),36	793,(0, 26),36	829,(0, 27),36	865,(0, 28),36	901,(0, 29),36	937,(0, 30),36	973,(0, 32),36	1009,(0, 33),36	1045,(0, 34),36	1081,(0, 35),36	1117,(0, 36),36	1153,(0, 37),36	1189,(0, 38),36	1225,(0, 39),36	1261,(0, 40),36	1297,(0, 42),36	1333,(0, 43),36	1369,(0, 44),36	1405,(0, 45),36	1441,(0, 46),36	1477,(0, 47),36	1513,(0, 48),36	1549,(0, 49),36	1585,(0, 50),36	1621,(0, 52),36	1657,(0, 53),36	1693,(0, 54),36	1729,(0, 55),36	1765,(0, 56),36	1801,(0, 57),36	1837,(0, 58),36	1873,(0, 59),36	1909,(0, 60),36	1945,(0, 62),36	1981,(0, 63),36	2017,(0, 64),36	2053,(0, 65),36	2089,(0, 66),36	2125,(0, 67),36	2161,(0, 68),36	2197,(0, 69),36	2233,(0, 70),36	2269,(0, 72),36	2305,(0, 73),36	2341,(0, 74),36	2377,(0, 75),36	2413,(0, 76),36	2449,(0, 77),36	2485,(0, 78),36	2521,(0, 79),36	2557,(0, 80),36	2593,(0, 82),36	2629,(0, 83),36	2665,(0, 84),36	2701,(0, 85),36	2737,(0, 86),36	2773,(0, 87),36	2809,(0, 88),36	2845,(0, 89),36	2881,(0, 90),36	2917,(0, 92),36	2953,(0, 93),36	2989,(0, 94),36	3025,(0, 95),36	3061,(0, 96),36	3097,(0, 97),36	3133,(0, 98),36	3169,(0, 99),36	3205,(0, 100),36	3241,(0, 102),36	3277,(0, 103),36	3313,(0, 104),36	3349,(0, 105),36	3385,(0, 106),36	3421,(0, 107),36	3457,(0, 108),36	3493,(0, 109),36	3529,(0, 110),36	3565,(0, 112),36	3601,(0, 113),36	3637,(0, 114),36	3673,(0, 115),36	3709,(0, 116),36	3745,(0, 117),36	3781,(0, 118),36	3817,(0, 119),36	3853,(0, 120),36	3889,(0, 122),36	3925,(0, 123),36	3961,(0, 124),36	3997,(0, 125),36	4033,(0, 126),36	4069,(0, 127),36	4105,(0, 128),36	4141,(0, 129),36	4177,(0, 130),36	4213,(0, 132),36	4249,(0, 133),36	4285,(0, 134),36	4321,(0, 135),36	4357,(0, 136),36	4393,(0, 137),36	4429,(0, 138),36	4465,(0, 139),36	4501,(0, 140),36	4537,(0, 142),36	4573,(0, 143),36	4609,(0, 144),36	4645,(0, 145),36	4681,(0, 146),36	4717,(0, 147),36	4753,(0, 148),36	4789,(0, 149),36	4825,(0, 150),36	4861,(0, 152),36	4897,(0, 153),36	4933,(0, 154),36	4969,(0, 155),36	5005,(0, 156),36	5041,(0, 157),36	5077,(0, 158),36	5113,(0, 159),36	5149,(0, 160),36	
