99
# CPU
0,121,1	1,120,1	2,75,1	3,76,1	4,74,1	5,73,1	6,72,1	7,77,1	8,71,1	9,70,1	10,78,1	11,69,1	12,67,1	13,68,1	14,66,1	15,79,1	16,65,1	17,64,1	18,63,1	19,62,1	20,61,1	21,80,1	22,60,1	23,81,1	24,58,1	25,57,1	26,59,1	27,56,1	28,55,1	29,82,1	30,54,1	31,53,1	32,52,1	33,51,1	34,83,1	35,50,1	36,49,1	37,48,1	38,47,1	39,84,1	40,46,1	41,45,1	42,87,1	43,44,1	44,42,1	45,43,1	46,41,1	47,104,1	48,105,1	49,103,1	50,102,1	51,101,1	52,106,1	53,100,1	54,98,1	55,107,1	56,96,1	57,93,1	58,108,1	59,90,1	60,39,1	61,109,1	62,38,1	63,36,1	64,110,1	65,35,1	66,33,1	67,32,1	68,111,1	69,30,1	70,29,1	71,112,1	72,17,1	73,16,1	74,18,1	75,15,1	76,14,1	77,19,1	78,13,1	79,20,1	80,12,1	81,11,1	82,22,1	83,10,1	84,9,1	85,1,1	86,2,1	87,3,1	88,4,1	89,5,1	90,6,1	91,7,1	92,23,1	93,26,1	94,27,1	95,116,1	96,118,1	97,119,1	98,0,1	
5,85,1	13,88,1	21,91,1	41,99,1	49,37,1	53,34,1	57,31,1	61,28,1	73,113,1	89,8,1	93,117,1	
9,86,1	17,89,1	25,92,1	29,94,1	33,95,1	37,97,1	45,40,1	65,24,1	69,21,1	77,114,1	81,115,1	85,25,1	
# Incoming
6,(85, 0),2	10,(86, 0),2	14,(88, 0),2	18,(89, 0),2	22,(91, 0),2	26,(92, 0),2	30,(94, 0),2	34,(95, 0),2	38,(97, 0),2	42,(99, 0),2	46,(40, 0),2	50,(37, 0),2	54,(34, 0),2	58,(31, 0),2	62,(28, 0),2	66,(24, 0),2	70,(21, 0),2	74,(113, 0),2	78,(114, 0),2	82,(115, 0),2	86,(25, 0),2	90,(8, 0),2	94,(117, 0),2	
1,(121, 85),4	9,(121, 88),4	17,(121, 91),4	37,(121, 99),4	45,(121, 37),4	49,(121, 34),4	53,(121, 31),4	57,(121, 28),4	69,(121, 113),4	85,(121, 8),4	89,(121, 117),4	
5,(121, 86),4	13,(121, 89),4	21,(121, 92),4	25,(121, 94),4	29,(121, 95),4	33,(121, 97),4	41,(121, 40),4	61,(121, 24),4	65,(121, 21),4	73,(121, 114),4	77,(121, 115),4	81,(121, 25),4	
# Outgoing
1,(121, 85),4	5,(121, 86),4	9,(121, 88),4	13,(121, 89),4	17,(121, 91),4	21,(121, 92),4	25,(121, 94),4	29,(121, 95),4	33,(121, 97),4	37,(121, 99),4	41,(121, 40),4	45,(121, 37),4	49,(121, 34),4	53,(121, 31),4	57,(121, 28),4	61,(121, 24),4	65,(121, 21),4	69,(121, 113),4	73,(121, 114),4	77,(121, 115),4	81,(121, 25),4	85,(121, 8),4	89,(121, 117),4	
6,(85, 0),2	14,(88, 0),2	22,(91, 0),2	42,(99, 0),2	50,(37, 0),2	54,(34, 0),2	58,(31, 0),2	62,(28, 0),2	74,(113, 0),2	90,(8, 0),2	94,(117, 0),2	
10,(86, 0),2	18,(89, 0),2	26,(92, 0),2	30,(94, 0),2	34,(95, 0),2	38,(97, 0),2	46,(40, 0),2	66,(24, 0),2	70,(21, 0),2	78,(114, 0),2	82,(115, 0),2	86,(25, 0),2	
