184
# CPU
4,2,34	38,4,34	72,6,34	106,8,34	140,10,34	
0,0,1	1,1,34	35,5,34	69,9,34	103,3,34	137,7,34	183,11,1	
# Incoming
1,(0, 2),3	4,(0, 4),3	7,(0, 6),3	10,(0, 8),3	13,(0, 10),3	
38,(2, 11),9	72,(4, 11),9	106,(6, 11),9	140,(8, 11),9	174,(10, 11),9	
# Outgoing
38,(2, 11),9	72,(4, 11),9	106,(6, 11),9	140,(8, 11),9	174,(10, 11),9	
1,(0, 2),3	4,(0, 4),3	7,(0, 6),3	10,(0, 8),3	13,(0, 10),3	
