926
# CPU
0,121,1	1,76,12	13,75,12	25,74,12	37,73,12	49,72,12	61,71,12	73,70,12	85,94,12	97,42,12	109,68,12	121,67,12	133,66,12	145,69,12	157,64,12	169,78,12	181,33,12	193,62,12	205,63,12	217,60,12	229,59,12	241,58,12	253,28,12	265,35,12	277,57,12	289,56,12	301,55,12	313,61,12	325,54,12	337,110,12	349,105,12	361,50,12	373,51,12	385,49,12	397,48,12	409,46,12	421,31,12	433,26,12	445,104,12	457,103,12	469,102,12	481,106,12	493,101,12	505,113,12	517,29,12	529,100,12	541,107,12	553,98,12	565,52,12	577,108,12	589,37,12	601,21,12	613,109,12	625,45,12	637,111,12	649,41,12	661,112,12	673,7,12	685,30,12	697,16,12	709,17,12	721,15,12	733,14,12	745,13,12	757,8,12	769,1,12	781,18,12	793,12,12	805,2,12	817,3,12	829,4,12	841,10,12	853,6,12	865,5,12	877,9,12	889,11,12	901,19,12	913,120,12	925,0,1	
106,83,12	190,87,12	211,88,12	232,89,12	253,90,12	652,27,12	673,23,12	736,25,12	757,34,12	799,117,12	862,114,12	904,119,12	
43,81,12	127,84,12	148,85,12	169,86,12	442,99,12	463,97,12	484,47,12	505,44,12	610,39,12	631,32,12	
22,80,12	64,82,12	85,79,12	358,53,12	379,93,12	400,95,12	421,96,12	589,36,12	841,118,12	883,115,12	
274,77,12	295,91,12	316,92,12	337,65,12	526,43,12	547,40,12	568,38,12	694,20,12	715,22,12	778,24,12	820,116,12	
# Incoming
34,(80, 0),3	55,(81, 0),3	76,(82, 0),3	97,(79, 0),3	118,(83, 0),3	139,(84, 0),3	160,(85, 0),3	181,(86, 0),3	202,(87, 0),3	223,(88, 0),3	244,(89, 0),3	265,(90, 0),3	286,(77, 0),3	307,(91, 0),3	328,(92, 0),3	349,(65, 0),3	370,(53, 0),3	391,(93, 0),3	412,(95, 0),3	433,(96, 0),3	454,(99, 0),3	475,(97, 0),3	496,(47, 0),3	517,(44, 0),3	538,(43, 0),3	559,(40, 0),3	580,(38, 0),3	601,(36, 0),3	622,(39, 0),3	643,(32, 0),3	664,(27, 0),3	685,(23, 0),3	706,(20, 0),3	727,(22, 0),3	748,(25, 0),3	769,(34, 0),3	790,(24, 0),3	811,(117, 0),3	832,(116, 0),3	853,(118, 0),3	874,(114, 0),3	895,(115, 0),3	916,(119, 0),3	
85,(121, 83),21	169,(121, 87),21	190,(121, 88),21	211,(121, 89),21	232,(121, 90),21	631,(121, 27),21	652,(121, 23),21	715,(121, 25),21	736,(121, 34),21	778,(121, 117),21	841,(121, 114),21	883,(121, 119),21	
22,(121, 81),21	106,(121, 84),21	127,(121, 85),21	148,(121, 86),21	421,(121, 99),21	442,(121, 97),21	463,(121, 47),21	484,(121, 44),21	589,(121, 39),21	610,(121, 32),21	
1,(121, 80),21	43,(121, 82),21	64,(121, 79),21	337,(121, 53),21	358,(121, 93),21	379,(121, 95),21	400,(121, 96),21	568,(121, 36),21	820,(121, 118),21	862,(121, 115),21	
253,(121, 77),21	274,(121, 91),21	295,(121, 92),21	316,(121, 65),21	505,(121, 43),21	526,(121, 40),21	547,(121, 38),21	673,(121, 20),21	694,(121, 22),21	757,(121, 24),21	799,(121, 116),21	
# Outgoing
1,(121, 80),21	22,(121, 81),21	43,(121, 82),21	64,(121, 79),21	85,(121, 83),21	106,(121, 84),21	127,(121, 85),21	148,(121, 86),21	169,(121, 87),21	190,(121, 88),21	211,(121, 89),21	232,(121, 90),21	253,(121, 77),21	274,(121, 91),21	295,(121, 92),21	316,(121, 65),21	337,(121, 53),21	358,(121, 93),21	379,(121, 95),21	400,(121, 96),21	421,(121, 99),21	442,(121, 97),21	463,(121, 47),21	484,(121, 44),21	505,(121, 43),21	526,(121, 40),21	547,(121, 38),21	568,(121, 36),21	589,(121, 39),21	610,(121, 32),21	631,(121, 27),21	652,(121, 23),21	673,(121, 20),21	694,(121, 22),21	715,(121, 25),21	736,(121, 34),21	757,(121, 24),21	778,(121, 117),21	799,(121, 116),21	820,(121, 118),21	841,(121, 114),21	862,(121, 115),21	883,(121, 119),21	
118,(83, 0),3	202,(87, 0),3	223,(88, 0),3	244,(89, 0),3	265,(90, 0),3	664,(27, 0),3	685,(23, 0),3	748,(25, 0),3	769,(34, 0),3	811,(117, 0),3	874,(114, 0),3	916,(119, 0),3	
55,(81, 0),3	139,(84, 0),3	160,(85, 0),3	181,(86, 0),3	454,(99, 0),3	475,(97, 0),3	496,(47, 0),3	517,(44, 0),3	622,(39, 0),3	643,(32, 0),3	
34,(80, 0),3	76,(82, 0),3	97,(79, 0),3	370,(53, 0),3	391,(93, 0),3	412,(95, 0),3	433,(96, 0),3	601,(36, 0),3	853,(118, 0),3	895,(115, 0),3	
286,(77, 0),3	307,(91, 0),3	328,(92, 0),3	349,(65, 0),3	538,(43, 0),3	559,(40, 0),3	580,(38, 0),3	706,(20, 0),3	727,(22, 0),3	790,(24, 0),3	832,(116, 0),3	
