592
# CPU
0,121,1	1,76,5	6,75,5	11,77,5	16,74,5	21,73,5	26,72,5	31,78,5	36,71,5	41,79,5	46,70,5	51,80,5	56,69,5	61,68,5	66,67,5	71,81,5	76,66,5	81,82,5	86,65,5	91,83,5	96,64,5	101,63,5	106,62,5	111,84,5	116,61,5	121,85,5	126,60,5	131,86,5	136,59,5	141,58,5	146,57,5	151,87,5	156,56,5	161,88,5	166,55,5	171,89,5	176,54,5	181,53,5	186,52,5	191,90,5	196,51,5	201,91,5	206,50,5	211,49,5	216,48,5	221,47,5	226,92,5	231,46,5	236,93,5	241,45,5	246,94,5	251,44,5	256,43,5	261,42,5	266,95,5	271,41,5	276,105,5	281,104,5	286,106,5	291,103,5	296,102,5	301,101,5	306,107,5	311,100,5	316,99,5	321,98,5	326,108,5	331,97,5	336,40,5	341,39,5	346,109,5	351,38,5	356,37,5	361,36,5	366,110,5	371,35,5	376,34,5	381,33,5	386,111,5	391,32,5	396,31,5	401,30,5	406,112,5	411,29,5	416,28,5	421,113,5	426,27,5	431,17,5	436,16,5	441,18,5	446,15,5	451,19,5	456,14,5	461,20,5	466,13,5	471,21,5	476,12,5	481,22,5	486,11,5	491,24,5	496,10,5	501,25,5	506,9,5	511,1,5	516,2,5	521,3,5	526,4,5	531,5,5	536,6,5	541,7,5	546,8,5	551,26,5	556,114,5	561,115,5	566,116,5	571,117,5	576,118,5	581,119,5	586,120,5	591,0,1	

207,96,5	413,23,5	
# Incoming
212,(96, 0),2	418,(23, 0),2	

1,(121, 96),206	207,(121, 23),206	
# Outgoing
1,(121, 96),206	207,(121, 23),206	

212,(96, 0),2	418,(23, 0),2	
