1684
# CPU
49,4,14	97,8,14	
33,3,14	81,7,14	
17,2,14	65,6,14	113,10,14	
0,0,1	1,1,14	15,5,14	29,9,14	1683,11,1	
# Incoming
33,(0, 4),16	81,(0, 8),16	
17,(0, 3),16	65,(0, 7),16	
1,(0, 2),16	49,(0, 6),16	97,(0, 10),16	
31,(2, 11),236	267,(3, 11),236	503,(4, 11),236	739,(6, 11),236	975,(7, 11),236	1211,(8, 11),236	1447,(10, 11),236	
# Outgoing
503,(4, 11),236	1211,(8, 11),236	
267,(3, 11),236	975,(7, 11),236	
31,(2, 11),236	739,(6, 11),236	1447,(10, 11),236	
1,(0, 2),16	17,(0, 3),16	33,(0, 4),16	49,(0, 6),16	65,(0, 7),16	81,(0, 8),16	97,(0, 10),16	
