1492
# CPU
0,121,1	1,120,19	20,75,19	39,74,19	58,73,19	77,72,19	96,71,19	115,70,19	134,76,19	153,68,19	172,67,19	191,66,19	210,78,19	229,81,19	248,63,19	267,62,19	286,61,19	305,83,19	324,84,19	343,59,19	362,57,19	381,86,19	400,87,19	419,55,19	438,54,19	457,53,19	476,89,19	495,90,19	514,50,19	533,49,19	552,48,19	571,92,19	590,46,19	609,45,19	628,94,19	647,43,19	666,42,19	685,41,19	704,103,19	723,105,19	742,101,19	761,100,19	780,99,19	799,98,19	818,107,19	837,96,19	856,39,19	875,108,19	894,37,19	913,109,19	932,35,19	951,33,19	970,110,19	989,31,19	1008,30,19	1027,29,19	1046,28,19	1065,112,19	1084,26,19	1103,16,19	1122,18,19	1141,19,19	1160,20,19	1179,13,19	1198,12,19	1217,22,19	1236,23,19	1255,10,19	1274,9,19	1293,1,19	1312,3,19	1331,4,19	1350,6,19	1369,8,19	1388,25,19	1407,114,19	1426,115,19	1445,117,19	1464,118,19	1491,0,1	
4,85,19	23,64,19	42,56,19	61,91,19	80,95,19	99,97,19	118,34,19	137,17,19	156,11,19	175,7,19	
3,80,19	22,65,19	41,58,19	60,51,19	79,44,19	98,106,19	117,36,19	136,27,19	155,21,19	174,5,19	193,119,19	
2,79,19	21,77,19	40,60,19	59,52,19	78,93,19	97,102,19	116,38,19	135,111,19	154,14,19	173,2,19	192,116,19	
5,69,19	24,82,19	43,88,19	62,47,19	81,104,19	100,40,19	119,32,19	138,15,19	157,24,19	176,113,19	
# Incoming
21,(79, 0),35	56,(80, 0),35	91,(85, 0),35	126,(69, 0),35	161,(77, 0),35	196,(65, 0),35	231,(64, 0),35	266,(82, 0),35	301,(60, 0),35	336,(58, 0),35	371,(56, 0),35	406,(88, 0),35	441,(52, 0),35	476,(51, 0),35	511,(91, 0),35	546,(47, 0),35	581,(93, 0),35	616,(44, 0),35	651,(95, 0),35	686,(104, 0),35	721,(102, 0),35	756,(106, 0),35	791,(97, 0),35	826,(40, 0),35	861,(38, 0),35	896,(36, 0),35	931,(34, 0),35	966,(32, 0),35	1001,(111, 0),35	1036,(27, 0),35	1071,(17, 0),35	1106,(15, 0),35	1141,(14, 0),35	1176,(21, 0),35	1211,(11, 0),35	1246,(24, 0),35	1281,(2, 0),35	1316,(5, 0),35	1351,(7, 0),35	1386,(113, 0),35	1421,(116, 0),35	1456,(119, 0),35	
3,(121, 85),1	7,(121, 64),1	11,(121, 56),1	15,(121, 91),1	19,(121, 95),1	23,(121, 97),1	27,(121, 34),1	31,(121, 17),1	35,(121, 11),1	39,(121, 7),1	
2,(121, 80),1	6,(121, 65),1	10,(121, 58),1	14,(121, 51),1	18,(121, 44),1	22,(121, 106),1	26,(121, 36),1	30,(121, 27),1	34,(121, 21),1	38,(121, 5),1	42,(121, 119),1	
1,(121, 79),1	5,(121, 77),1	9,(121, 60),1	13,(121, 52),1	17,(121, 93),1	21,(121, 102),1	25,(121, 38),1	29,(121, 111),1	33,(121, 14),1	37,(121, 2),1	41,(121, 116),1	
4,(121, 69),1	8,(121, 82),1	12,(121, 88),1	16,(121, 47),1	20,(121, 104),1	24,(121, 40),1	28,(121, 32),1	32,(121, 15),1	36,(121, 24),1	40,(121, 113),1	
# Outgoing
1,(121, 79),1	2,(121, 80),1	3,(121, 85),1	4,(121, 69),1	5,(121, 77),1	6,(121, 65),1	7,(121, 64),1	8,(121, 82),1	9,(121, 60),1	10,(121, 58),1	11,(121, 56),1	12,(121, 88),1	13,(121, 52),1	14,(121, 51),1	15,(121, 91),1	16,(121, 47),1	17,(121, 93),1	18,(121, 44),1	19,(121, 95),1	20,(121, 104),1	21,(121, 102),1	22,(121, 106),1	23,(121, 97),1	24,(121, 40),1	25,(121, 38),1	26,(121, 36),1	27,(121, 34),1	28,(121, 32),1	29,(121, 111),1	30,(121, 27),1	31,(121, 17),1	32,(121, 15),1	33,(121, 14),1	34,(121, 21),1	35,(121, 11),1	36,(121, 24),1	37,(121, 2),1	38,(121, 5),1	39,(121, 7),1	40,(121, 113),1	41,(121, 116),1	42,(121, 119),1	
91,(85, 0),35	231,(64, 0),35	371,(56, 0),35	511,(91, 0),35	651,(95, 0),35	791,(97, 0),35	931,(34, 0),35	1071,(17, 0),35	1211,(11, 0),35	1351,(7, 0),35	
56,(80, 0),35	196,(65, 0),35	336,(58, 0),35	476,(51, 0),35	616,(44, 0),35	756,(106, 0),35	896,(36, 0),35	1036,(27, 0),35	1176,(21, 0),35	1316,(5, 0),35	1456,(119, 0),35	
21,(79, 0),35	161,(77, 0),35	301,(60, 0),35	441,(52, 0),35	581,(93, 0),35	721,(102, 0),35	861,(38, 0),35	1001,(111, 0),35	1141,(14, 0),35	1281,(2, 0),35	1421,(116, 0),35	
126,(69, 0),35	266,(82, 0),35	406,(88, 0),35	546,(47, 0),35	686,(104, 0),35	826,(40, 0),35	966,(32, 0),35	1106,(15, 0),35	1246,(24, 0),35	1386,(113, 0),35	
