101
# CPU
0,11,1	1,10,15	16,1,15	31,3,15	46,5,15	61,6,15	76,8,15	100,0,1	
21,2,15	41,4,15	61,7,15	81,9,15	
# Incoming
36,(2, 0),4	56,(4, 0),4	76,(7, 0),4	96,(9, 0),4	
1,(11, 2),20	21,(11, 4),20	41,(11, 7),20	61,(11, 9),20	
# Outgoing
1,(11, 2),20	21,(11, 4),20	41,(11, 7),20	61,(11, 9),20	
36,(2, 0),4	56,(4, 0),4	76,(7, 0),4	96,(9, 0),4	
