1152
# CPU
29,3,28	57,6,28	85,9,28	113,12,28	141,15,28	169,18,28	197,21,28	225,24,28	253,27,28	281,30,28	309,33,28	337,36,28	365,39,28	393,42,28	421,45,28	449,48,28	477,51,28	505,54,28	533,57,28	561,60,28	589,63,28	617,66,28	645,69,28	673,72,28	701,75,28	729,78,28	757,81,28	785,84,28	813,87,28	841,90,28	869,93,28	897,96,28	925,99,28	953,102,28	981,105,28	1009,108,28	1037,111,28	1065,114,28	1093,117,28	1121,120,28	
15,2,28	43,5,28	71,8,28	99,11,28	127,14,28	155,17,28	183,20,28	211,23,28	239,26,28	267,29,28	295,32,28	323,35,28	351,38,28	379,41,28	407,44,28	435,47,28	463,50,28	491,53,28	519,56,28	547,59,28	575,62,28	603,65,28	631,68,28	659,71,28	687,74,28	715,77,28	743,80,28	771,83,28	799,86,28	827,89,28	855,92,28	883,95,28	911,98,28	939,101,28	967,104,28	995,107,28	1023,110,28	1051,113,28	1079,116,28	1107,119,28	
0,0,1	1,1,28	29,7,28	57,19,28	85,43,28	113,91,28	141,118,28	169,115,28	197,112,28	225,109,28	253,106,28	281,103,28	309,100,28	337,97,28	365,88,28	393,94,28	421,85,28	449,82,28	477,79,28	505,76,28	533,73,28	561,70,28	589,67,28	617,64,28	645,61,28	673,58,28	701,55,28	729,52,28	757,49,28	785,40,28	813,46,28	841,37,28	869,34,28	897,31,28	925,28,28	953,25,28	981,16,28	1009,22,28	1037,13,28	1065,4,28	1093,10,28	1151,121,1	
# Incoming
15,(0, 3),14	43,(0, 6),14	71,(0, 9),14	99,(0, 12),14	127,(0, 15),14	155,(0, 18),14	183,(0, 21),14	211,(0, 24),14	239,(0, 27),14	267,(0, 30),14	295,(0, 33),14	323,(0, 36),14	351,(0, 39),14	379,(0, 42),14	407,(0, 45),14	435,(0, 48),14	463,(0, 51),14	491,(0, 54),14	519,(0, 57),14	547,(0, 60),14	575,(0, 63),14	603,(0, 66),14	631,(0, 69),14	659,(0, 72),14	687,(0, 75),14	715,(0, 78),14	743,(0, 81),14	771,(0, 84),14	799,(0, 87),14	827,(0, 90),14	855,(0, 93),14	883,(0, 96),14	911,(0, 99),14	939,(0, 102),14	967,(0, 105),14	995,(0, 108),14	1023,(0, 111),14	1051,(0, 114),14	1079,(0, 117),14	1107,(0, 120),14	
1,(0, 2),14	29,(0, 5),14	57,(0, 8),14	85,(0, 11),14	113,(0, 14),14	141,(0, 17),14	169,(0, 20),14	197,(0, 23),14	225,(0, 26),14	253,(0, 29),14	281,(0, 32),14	309,(0, 35),14	337,(0, 38),14	365,(0, 41),14	393,(0, 44),14	421,(0, 47),14	449,(0, 50),14	477,(0, 53),14	505,(0, 56),14	533,(0, 59),14	561,(0, 62),14	589,(0, 65),14	617,(0, 68),14	645,(0, 71),14	673,(0, 74),14	701,(0, 77),14	729,(0, 80),14	757,(0, 83),14	785,(0, 86),14	813,(0, 89),14	841,(0, 92),14	869,(0, 95),14	897,(0, 98),14	925,(0, 101),14	953,(0, 104),14	981,(0, 107),14	1009,(0, 110),14	1037,(0, 113),14	1065,(0, 116),14	1093,(0, 119),14	
43,(2, 121),2	57,(3, 121),2	71,(5, 121),2	85,(6, 121),2	99,(8, 121),2	113,(9, 121),2	127,(11, 121),2	141,(12, 121),2	155,(14, 121),2	169,(15, 121),2	183,(17, 121),2	197,(18, 121),2	211,(20, 121),2	225,(21, 121),2	239,(23, 121),2	253,(24, 121),2	267,(26, 121),2	281,(27, 121),2	295,(29, 121),2	309,(30, 121),2	323,(32, 121),2	337,(33, 121),2	351,(35, 121),2	365,(36, 121),2	379,(38, 121),2	393,(39, 121),2	407,(41, 121),2	421,(42, 121),2	435,(44, 121),2	449,(45, 121),2	463,(47, 121),2	477,(48, 121),2	491,(50, 121),2	505,(51, 121),2	519,(53, 121),2	533,(54, 121),2	547,(56, 121),2	561,(57, 121),2	575,(59, 121),2	589,(60, 121),2	603,(62, 121),2	617,(63, 121),2	631,(65, 121),2	645,(66, 121),2	659,(68, 121),2	673,(69, 121),2	687,(71, 121),2	701,(72, 121),2	715,(74, 121),2	729,(75, 121),2	743,(77, 121),2	757,(78, 121),2	771,(80, 121),2	785,(81, 121),2	799,(83, 121),2	813,(84, 121),2	827,(86, 121),2	841,(87, 121),2	855,(89, 121),2	869,(90, 121),2	883,(92, 121),2	897,(93, 121),2	911,(95, 121),2	925,(96, 121),2	939,(98, 121),2	953,(99, 121),2	967,(101, 121),2	981,(102, 121),2	995,(104, 121),2	1009,(105, 121),2	1023,(107, 121),2	1037,(108, 121),2	1051,(110, 121),2	1065,(111, 121),2	1079,(113, 121),2	1093,(114, 121),2	1107,(116, 121),2	1121,(117, 121),2	1135,(119, 121),2	1149,(120, 121),2	
# Outgoing
57,(3, 121),2	85,(6, 121),2	113,(9, 121),2	141,(12, 121),2	169,(15, 121),2	197,(18, 121),2	225,(21, 121),2	253,(24, 121),2	281,(27, 121),2	309,(30, 121),2	337,(33, 121),2	365,(36, 121),2	393,(39, 121),2	421,(42, 121),2	449,(45, 121),2	477,(48, 121),2	505,(51, 121),2	533,(54, 121),2	561,(57, 121),2	589,(60, 121),2	617,(63, 121),2	645,(66, 121),2	673,(69, 121),2	701,(72, 121),2	729,(75, 121),2	757,(78, 121),2	785,(81, 121),2	813,(84, 121),2	841,(87, 121),2	869,(90, 121),2	897,(93, 121),2	925,(96, 121),2	953,(99, 121),2	981,(102, 121),2	1009,(105, 121),2	1037,(108, 121),2	1065,(111, 121),2	1093,(114, 121),2	1121,(117, 121),2	1149,(120, 121),2	
43,(2, 121),2	71,(5, 121),2	99,(8, 121),2	127,(11, 121),2	155,(14, 121),2	183,(17, 121),2	211,(20, 121),2	239,(23, 121),2	267,(26, 121),2	295,(29, 121),2	323,(32, 121),2	351,(35, 121),2	379,(38, 121),2	407,(41, 121),2	435,(44, 121),2	463,(47, 121),2	491,(50, 121),2	519,(53, 121),2	547,(56, 121),2	575,(59, 121),2	603,(62, 121),2	631,(65, 121),2	659,(68, 121),2	687,(71, 121),2	715,(74, 121),2	743,(77, 121),2	771,(80, 121),2	799,(83, 121),2	827,(86, 121),2	855,(89, 121),2	883,(92, 121),2	911,(95, 121),2	939,(98, 121),2	967,(101, 121),2	995,(104, 121),2	1023,(107, 121),2	1051,(110, 121),2	1079,(113, 121),2	1107,(116, 121),2	1135,(119, 121),2	
1,(0, 2),14	15,(0, 3),14	29,(0, 5),14	43,(0, 6),14	57,(0, 8),14	71,(0, 9),14	85,(0, 11),14	99,(0, 12),14	113,(0, 14),14	127,(0, 15),14	141,(0, 17),14	155,(0, 18),14	169,(0, 20),14	183,(0, 21),14	197,(0, 23),14	211,(0, 24),14	225,(0, 26),14	239,(0, 27),14	253,(0, 29),14	267,(0, 30),14	281,(0, 32),14	295,(0, 33),14	309,(0, 35),14	323,(0, 36),14	337,(0, 38),14	351,(0, 39),14	365,(0, 41),14	379,(0, 42),14	393,(0, 44),14	407,(0, 45),14	421,(0, 47),14	435,(0, 48),14	449,(0, 50),14	463,(0, 51),14	477,(0, 53),14	491,(0, 54),14	505,(0, 56),14	519,(0, 57),14	533,(0, 59),14	547,(0, 60),14	561,(0, 62),14	575,(0, 63),14	589,(0, 65),14	603,(0, 66),14	617,(0, 68),14	631,(0, 69),14	645,(0, 71),14	659,(0, 72),14	673,(0, 74),14	687,(0, 75),14	701,(0, 77),14	715,(0, 78),14	729,(0, 80),14	743,(0, 81),14	757,(0, 83),14	771,(0, 84),14	785,(0, 86),14	799,(0, 87),14	813,(0, 89),14	827,(0, 90),14	841,(0, 92),14	855,(0, 93),14	869,(0, 95),14	883,(0, 96),14	897,(0, 98),14	911,(0, 99),14	925,(0, 101),14	939,(0, 102),14	953,(0, 104),14	967,(0, 105),14	981,(0, 107),14	995,(0, 108),14	1009,(0, 110),14	1023,(0, 111),14	1037,(0, 113),14	1051,(0, 114),14	1065,(0, 116),14	1079,(0, 117),14	1093,(0, 119),14	1107,(0, 120),14	
