362
# CPU
0,0,1	1,1,3	4,3,3	7,7,3	10,15,3	13,31,3	16,63,3	19,120,3	22,119,3	25,118,3	28,117,3	31,116,3	34,115,3	37,114,3	40,113,3	43,112,3	46,111,3	49,110,3	52,109,3	55,108,3	58,107,3	61,106,3	64,105,3	67,104,3	70,103,3	73,102,3	76,101,3	79,100,3	82,99,3	85,98,3	88,97,3	91,96,3	94,95,3	97,94,3	100,93,3	103,92,3	106,91,3	109,90,3	112,89,3	115,88,3	118,87,3	121,86,3	124,85,3	127,84,3	130,83,3	133,82,3	136,81,3	139,80,3	142,79,3	145,78,3	148,77,3	151,76,3	154,75,3	157,74,3	160,73,3	163,72,3	166,71,3	169,70,3	172,69,3	175,68,3	178,67,3	181,66,3	184,65,3	187,62,3	190,64,3	193,61,3	196,60,3	199,59,3	202,58,3	205,57,3	208,56,3	211,55,3	214,54,3	217,53,3	220,52,3	223,51,3	226,50,3	229,49,3	232,48,3	235,47,3	238,46,3	241,45,3	244,44,3	247,43,3	250,42,3	253,41,3	256,40,3	259,39,3	262,38,3	265,37,3	268,36,3	271,35,3	274,34,3	277,33,3	280,30,3	283,32,3	286,29,3	289,28,3	292,27,3	295,26,3	298,25,3	301,24,3	304,23,3	307,22,3	310,21,3	313,20,3	316,19,3	319,18,3	322,17,3	325,14,3	328,16,3	331,13,3	334,12,3	337,11,3	340,10,3	343,9,3	346,6,3	349,8,3	352,5,3	355,2,3	358,4,3	361,121,1	









# Incoming










# Outgoing










