614
# CPU
0,0,1	1,111,4	5,110,4	9,112,4	13,109,4	17,108,4	21,107,4	25,113,4	29,106,4	33,114,4	37,105,4	41,115,4	45,104,4	49,103,4	53,102,4	57,116,4	61,101,4	65,100,4	69,99,4	73,117,4	77,98,4	81,97,4	85,118,4	89,96,4	93,119,4	97,95,4	101,120,4	105,94,4	109,93,4	113,91,4	117,121,4	121,90,4	125,81,4	129,80,4	133,82,4	137,79,4	141,78,4	145,77,4	149,83,4	153,76,4	157,84,4	161,75,4	165,74,4	169,73,4	173,72,4	177,85,4	181,71,4	185,86,4	189,70,4	193,87,4	197,69,4	201,68,4	205,67,4	209,88,4	213,66,4	217,89,4	221,65,4	225,122,4	229,64,4	233,63,4	237,62,4	241,123,4	245,61,4	249,60,4	253,125,4	257,59,4	261,58,4	265,57,4	269,126,4	273,56,4	277,127,4	281,55,4	285,128,4	289,54,4	293,53,4	297,52,4	301,129,4	305,51,4	309,130,4	313,50,4	317,132,4	321,49,4	325,136,4	329,29,4	333,47,4	337,48,4	341,46,4	345,133,4	349,45,4	353,44,4	357,43,4	361,134,4	365,42,4	369,145,4	373,144,4	377,146,4	381,143,4	385,142,4	389,141,4	393,147,4	397,140,4	401,139,4	405,137,4	409,148,4	413,135,4	417,41,4	421,149,4	425,40,4	429,39,4	433,38,4	437,150,4	441,37,4	445,36,4	449,34,4	453,151,4	457,33,4	461,32,4	465,31,4	469,152,4	473,30,4	477,28,4	481,27,4	485,153,4	489,17,4	493,16,4	497,18,4	501,15,4	505,19,4	509,14,4	513,20,4	517,13,4	521,22,4	525,12,4	529,23,4	533,11,4	537,24,4	541,10,4	545,25,4	549,9,4	553,1,4	557,2,4	561,3,4	565,4,4	569,5,4	573,6,4	577,7,4	581,8,4	585,26,4	589,154,4	593,156,4	597,157,4	601,158,4	605,159,4	609,160,4	613,161,1	
163,124,4	244,131,4	325,138,4	568,155,4	
82,92,4	406,35,4	487,21,4	
# Incoming
86,(92, 161),12	167,(124, 161),12	248,(131, 161),12	329,(138, 161),12	410,(35, 161),12	491,(21, 161),12	572,(155, 161),12	
82,(0, 124),81	163,(0, 131),81	244,(0, 138),81	487,(0, 155),81	
1,(0, 92),81	325,(0, 35),81	406,(0, 21),81	
# Outgoing
1,(0, 92),81	82,(0, 124),81	163,(0, 131),81	244,(0, 138),81	325,(0, 35),81	406,(0, 21),81	487,(0, 155),81	
167,(124, 161),12	248,(131, 161),12	329,(138, 161),12	572,(155, 161),12	
86,(92, 161),12	410,(35, 161),12	491,(21, 161),12	
