338
# CPU
0,121,1	1,120,4	5,75,4	9,76,4	13,73,4	17,72,4	21,71,4	25,78,4	29,70,4	33,69,4	37,68,4	41,80,4	45,66,4	49,65,4	53,82,4	57,63,4	61,62,4	65,83,4	69,84,4	73,60,4	77,59,4	81,58,4	85,86,4	89,56,4	93,55,4	97,88,4	101,54,4	105,52,4	109,89,4	113,90,4	117,50,4	121,49,4	125,48,4	129,92,4	133,46,4	137,93,4	141,94,4	145,44,4	149,42,4	153,95,4	157,104,4	161,103,4	165,102,4	169,101,4	173,100,4	177,99,4	181,98,4	185,107,4	189,96,4	193,39,4	197,108,4	201,37,4	205,36,4	209,109,4	213,34,4	217,33,4	221,32,4	225,31,4	229,111,4	233,29,4	237,27,4	241,112,4	245,26,4	249,16,4	253,18,4	257,19,4	261,14,4	265,13,4	269,21,4	273,22,4	277,11,4	281,23,4	285,24,4	289,9,4	293,2,4	297,3,4	301,5,4	305,6,4	309,8,4	313,25,4	317,113,4	321,115,4	325,116,4	329,118,4	333,119,4	337,0,1	
10,74,4	19,77,4	28,79,4	37,67,4	46,81,4	55,64,4	64,61,4	73,85,4	82,57,4	91,87,4	100,53,4	109,51,4	118,91,4	127,47,4	136,45,4	145,43,4	154,41,4	163,105,4	172,106,4	181,97,4	190,40,4	199,38,4	208,35,4	217,110,4	226,30,4	235,28,4	244,17,4	253,15,4	262,20,4	271,12,4	280,10,4	289,1,4	298,4,4	307,7,4	316,114,4	325,117,4	
# Incoming
14,(74, 0),1	23,(77, 0),1	32,(79, 0),1	41,(67, 0),1	50,(81, 0),1	59,(64, 0),1	68,(61, 0),1	77,(85, 0),1	86,(57, 0),1	95,(87, 0),1	104,(53, 0),1	113,(51, 0),1	122,(91, 0),1	131,(47, 0),1	140,(45, 0),1	149,(43, 0),1	158,(41, 0),1	167,(105, 0),1	176,(106, 0),1	185,(97, 0),1	194,(40, 0),1	203,(38, 0),1	212,(35, 0),1	221,(110, 0),1	230,(30, 0),1	239,(28, 0),1	248,(17, 0),1	257,(15, 0),1	266,(20, 0),1	275,(12, 0),1	284,(10, 0),1	293,(1, 0),1	302,(4, 0),1	311,(7, 0),1	320,(114, 0),1	329,(117, 0),1	
1,(121, 74),9	10,(121, 77),9	19,(121, 79),9	28,(121, 67),9	37,(121, 81),9	46,(121, 64),9	55,(121, 61),9	64,(121, 85),9	73,(121, 57),9	82,(121, 87),9	91,(121, 53),9	100,(121, 51),9	109,(121, 91),9	118,(121, 47),9	127,(121, 45),9	136,(121, 43),9	145,(121, 41),9	154,(121, 105),9	163,(121, 106),9	172,(121, 97),9	181,(121, 40),9	190,(121, 38),9	199,(121, 35),9	208,(121, 110),9	217,(121, 30),9	226,(121, 28),9	235,(121, 17),9	244,(121, 15),9	253,(121, 20),9	262,(121, 12),9	271,(121, 10),9	280,(121, 1),9	289,(121, 4),9	298,(121, 7),9	307,(121, 114),9	316,(121, 117),9	
# Outgoing
1,(121, 74),9	10,(121, 77),9	19,(121, 79),9	28,(121, 67),9	37,(121, 81),9	46,(121, 64),9	55,(121, 61),9	64,(121, 85),9	73,(121, 57),9	82,(121, 87),9	91,(121, 53),9	100,(121, 51),9	109,(121, 91),9	118,(121, 47),9	127,(121, 45),9	136,(121, 43),9	145,(121, 41),9	154,(121, 105),9	163,(121, 106),9	172,(121, 97),9	181,(121, 40),9	190,(121, 38),9	199,(121, 35),9	208,(121, 110),9	217,(121, 30),9	226,(121, 28),9	235,(121, 17),9	244,(121, 15),9	253,(121, 20),9	262,(121, 12),9	271,(121, 10),9	280,(121, 1),9	289,(121, 4),9	298,(121, 7),9	307,(121, 114),9	316,(121, 117),9	
14,(74, 0),1	23,(77, 0),1	32,(79, 0),1	41,(67, 0),1	50,(81, 0),1	59,(64, 0),1	68,(61, 0),1	77,(85, 0),1	86,(57, 0),1	95,(87, 0),1	104,(53, 0),1	113,(51, 0),1	122,(91, 0),1	131,(47, 0),1	140,(45, 0),1	149,(43, 0),1	158,(41, 0),1	167,(105, 0),1	176,(106, 0),1	185,(97, 0),1	194,(40, 0),1	203,(38, 0),1	212,(35, 0),1	221,(110, 0),1	230,(30, 0),1	239,(28, 0),1	248,(17, 0),1	257,(15, 0),1	266,(20, 0),1	275,(12, 0),1	284,(10, 0),1	293,(1, 0),1	302,(4, 0),1	311,(7, 0),1	320,(114, 0),1	329,(117, 0),1	
