111
# CPU
0,121,1	1,76,1	2,75,1	3,77,1	4,74,1	5,73,1	6,72,1	7,78,1	8,71,1	9,35,1	10,44,1	11,79,1	12,70,1	13,69,1	14,80,1	15,68,1	16,81,1	17,86,1	18,41,1	19,66,1	20,65,1	21,67,1	22,64,1	23,83,1	24,63,1	25,98,1	26,37,1	27,61,1	28,62,1	29,60,1	30,84,1	31,59,1	32,87,1	33,16,1	34,34,1	35,58,1	36,57,1	37,89,1	38,56,1	39,90,1	40,55,1	41,106,1	42,30,1	43,53,1	44,54,1	45,52,1	46,92,1	47,51,1	48,50,1	49,94,1	50,27,1	51,104,1	52,103,1	53,105,1	54,102,1	55,101,1	56,100,1	57,15,1	58,32,1	59,107,1	60,108,1	61,99,1	62,97,1	63,95,1	64,109,1	65,45,1	66,1,1	67,110,1	68,48,1	69,47,1	70,46,1	71,111,1	72,42,1	73,18,1	74,23,1	75,112,1	76,40,1	77,39,1	78,113,1	79,38,1	80,21,1	81,14,1	82,2,1	83,22,1	84,20,1	85,24,1	86,19,1	87,25,1	88,17,1	89,9,1	90,3,1	91,28,1	92,29,1	93,13,1	94,4,1	95,5,1	96,6,1	97,115,1	98,8,1	99,7,1	100,10,1	101,11,1	102,12,1	103,31,1	104,114,1	105,116,1	106,119,1	107,120,1	110,0,1	
17,85,1	25,88,1	33,91,1	41,93,1	65,43,1	89,33,1	97,118,1	105,117,1	
49,96,1	57,49,1	

9,82,1	73,36,1	81,26,1	
# Incoming
10,(82, 0),4	18,(85, 0),4	26,(88, 0),4	34,(91, 0),4	42,(93, 0),4	50,(96, 0),4	58,(49, 0),4	66,(43, 0),4	74,(36, 0),4	82,(26, 0),4	90,(33, 0),4	98,(118, 0),4	106,(117, 0),4	
9,(121, 85),8	17,(121, 88),8	25,(121, 91),8	33,(121, 93),8	57,(121, 43),8	81,(121, 33),8	89,(121, 118),8	97,(121, 117),8	
41,(121, 96),8	49,(121, 49),8	

1,(121, 82),8	65,(121, 36),8	73,(121, 26),8	
# Outgoing
1,(121, 82),8	9,(121, 85),8	17,(121, 88),8	25,(121, 91),8	33,(121, 93),8	41,(121, 96),8	49,(121, 49),8	57,(121, 43),8	65,(121, 36),8	73,(121, 26),8	81,(121, 33),8	89,(121, 118),8	97,(121, 117),8	
18,(85, 0),4	26,(88, 0),4	34,(91, 0),4	42,(93, 0),4	66,(43, 0),4	90,(33, 0),4	98,(118, 0),4	106,(117, 0),4	
50,(96, 0),4	58,(49, 0),4	

10,(82, 0),4	74,(36, 0),4	82,(26, 0),4	
