1918
# CPU
0,161,1	1,111,12	13,110,12	25,112,12	37,109,12	49,108,12	61,107,12	73,113,12	85,106,12	97,114,12	109,105,12	121,115,12	133,104,12	145,103,12	157,102,12	169,116,12	181,101,12	193,100,12	205,117,12	217,99,12	229,97,12	241,96,12	253,118,12	265,95,12	277,119,12	289,94,12	301,120,12	313,93,12	325,92,12	337,91,12	349,121,12	361,81,12	373,80,12	385,82,12	397,79,12	409,78,12	421,77,12	433,83,12	445,76,12	457,84,12	469,75,12	481,85,12	493,74,12	505,73,12	517,72,12	529,142,12	541,44,12	553,71,12	565,86,12	577,70,12	589,69,12	601,68,12	613,88,12	625,67,12	637,89,12	649,66,12	661,122,12	673,65,12	685,64,12	697,63,12	709,62,12	721,123,12	733,61,12	745,124,12	757,60,12	769,59,12	781,58,12	793,125,12	805,57,12	817,127,12	829,56,12	841,128,12	853,55,12	865,54,12	877,53,12	889,52,12	901,129,12	913,51,12	925,130,12	937,50,12	949,49,12	961,48,12	973,132,12	985,47,12	997,133,12	1009,46,12	1021,134,12	1033,45,12	1045,43,12	1057,135,12	1069,26,12	1081,145,12	1093,144,12	1105,146,12	1117,143,12	1129,141,12	1141,140,12	1153,147,12	1165,139,12	1177,138,12	1189,136,12	1201,148,12	1213,42,12	1225,41,12	1237,149,12	1249,40,12	1261,39,12	1273,38,12	1285,150,12	1297,36,12	1309,35,12	1321,34,12	1333,151,12	1345,33,12	1357,32,12	1369,31,12	1381,152,12	1393,30,12	1405,29,12	1417,153,12	1429,28,12	1441,17,12	1453,16,12	1465,18,12	1477,15,12	1489,19,12	1501,14,12	1513,20,12	1525,13,12	1537,21,12	1549,12,12	1561,22,12	1573,11,12	1585,1,12	1597,8,12	1609,23,12	1621,2,12	1633,3,12	1645,4,12	1657,5,12	1669,6,12	1681,7,12	1693,9,12	1705,10,12	1717,24,12	1729,154,12	1741,155,12	1753,156,12	1765,158,12	1777,159,12	1789,160,12	1917,0,1	
529,90,12	1233,37,12	1409,25,12	1761,157,12	
705,126,12	1057,137,12	
177,98,12	
353,87,12	881,131,12	1585,27,12	
# Incoming
189,(98, 0),144	365,(87, 0),144	541,(90, 0),144	717,(126, 0),144	893,(131, 0),144	1069,(137, 0),144	1245,(37, 0),144	1421,(25, 0),144	1597,(27, 0),144	1773,(157, 0),144	
353,(161, 90),176	1057,(161, 37),176	1233,(161, 25),176	1585,(161, 157),176	
529,(161, 126),176	881,(161, 137),176	
1,(161, 98),176	
177,(161, 87),176	705,(161, 131),176	1409,(161, 27),176	
# Outgoing
1,(161, 98),176	177,(161, 87),176	353,(161, 90),176	529,(161, 126),176	705,(161, 131),176	881,(161, 137),176	1057,(161, 37),176	1233,(161, 25),176	1409,(161, 27),176	1585,(161, 157),176	
541,(90, 0),144	1245,(37, 0),144	1421,(25, 0),144	1773,(157, 0),144	
717,(126, 0),144	1069,(137, 0),144	
189,(98, 0),144	
365,(87, 0),144	893,(131, 0),144	1597,(27, 0),144	
