37091
# CPU
13,4,5	25,8,5	37,12,5	49,16,5	61,20,5	73,24,5	85,28,5	97,32,5	109,36,5	121,40,5	133,44,5	145,48,5	157,52,5	169,56,5	181,60,5	193,64,5	205,68,5	217,72,5	229,76,5	241,80,5	253,84,5	265,88,5	277,92,5	289,96,5	301,100,5	313,104,5	325,108,5	337,112,5	349,116,5	361,120,5	
9,3,5	21,7,5	33,11,5	45,15,5	57,19,5	69,23,5	81,27,5	93,31,5	105,35,5	117,39,5	129,43,5	141,47,5	153,51,5	165,55,5	177,59,5	189,63,5	201,67,5	213,71,5	225,75,5	237,79,5	249,83,5	261,87,5	273,91,5	285,95,5	297,99,5	309,103,5	321,107,5	333,111,5	345,115,5	357,119,5	
5,2,5	17,6,5	29,10,5	41,14,5	53,18,5	65,22,5	77,26,5	89,30,5	101,34,5	113,38,5	125,42,5	137,46,5	149,50,5	161,54,5	173,58,5	185,62,5	197,66,5	209,70,5	221,74,5	233,78,5	245,82,5	257,86,5	269,90,5	281,94,5	293,98,5	305,102,5	317,106,5	329,110,5	341,114,5	353,118,5	
0,0,1	1,1,5	6,9,5	11,25,5	16,57,5	21,117,5	26,113,5	31,109,5	36,105,5	41,101,5	46,97,5	51,93,5	56,89,5	61,85,5	66,81,5	71,77,5	76,73,5	81,69,5	86,65,5	91,53,5	96,61,5	101,49,5	106,45,5	111,41,5	116,37,5	121,33,5	126,21,5	131,29,5	136,17,5	141,5,5	146,13,5	37090,121,1	
# Incoming
9,(0, 4),4	21,(0, 8),4	33,(0, 12),4	45,(0, 16),4	57,(0, 20),4	69,(0, 24),4	81,(0, 28),4	93,(0, 32),4	105,(0, 36),4	117,(0, 40),4	129,(0, 44),4	141,(0, 48),4	153,(0, 52),4	165,(0, 56),4	177,(0, 60),4	189,(0, 64),4	201,(0, 68),4	213,(0, 72),4	225,(0, 76),4	237,(0, 80),4	249,(0, 84),4	261,(0, 88),4	273,(0, 92),4	285,(0, 96),4	297,(0, 100),4	309,(0, 104),4	321,(0, 108),4	333,(0, 112),4	345,(0, 116),4	357,(0, 120),4	
5,(0, 3),4	17,(0, 7),4	29,(0, 11),4	41,(0, 15),4	53,(0, 19),4	65,(0, 23),4	77,(0, 27),4	89,(0, 31),4	101,(0, 35),4	113,(0, 39),4	125,(0, 43),4	137,(0, 47),4	149,(0, 51),4	161,(0, 55),4	173,(0, 59),4	185,(0, 63),4	197,(0, 67),4	209,(0, 71),4	221,(0, 75),4	233,(0, 79),4	245,(0, 83),4	257,(0, 87),4	269,(0, 91),4	281,(0, 95),4	293,(0, 99),4	305,(0, 103),4	317,(0, 107),4	329,(0, 111),4	341,(0, 115),4	353,(0, 119),4	
1,(0, 2),4	13,(0, 6),4	25,(0, 10),4	37,(0, 14),4	49,(0, 18),4	61,(0, 22),4	73,(0, 26),4	85,(0, 30),4	97,(0, 34),4	109,(0, 38),4	121,(0, 42),4	133,(0, 46),4	145,(0, 50),4	157,(0, 54),4	169,(0, 58),4	181,(0, 62),4	193,(0, 66),4	205,(0, 70),4	217,(0, 74),4	229,(0, 78),4	241,(0, 82),4	253,(0, 86),4	265,(0, 90),4	277,(0, 94),4	289,(0, 98),4	301,(0, 102),4	313,(0, 106),4	325,(0, 110),4	337,(0, 114),4	349,(0, 118),4	
10,(2, 121),412	422,(3, 121),412	834,(4, 121),412	1246,(6, 121),412	1658,(7, 121),412	2070,(8, 121),412	2482,(10, 121),412	2894,(11, 121),412	3306,(12, 121),412	3718,(14, 121),412	4130,(15, 121),412	4542,(16, 121),412	4954,(18, 121),412	5366,(19, 121),412	5778,(20, 121),412	6190,(22, 121),412	6602,(23, 121),412	7014,(24, 121),412	7426,(26, 121),412	7838,(27, 121),412	8250,(28, 121),412	8662,(30, 121),412	9074,(31, 121),412	9486,(32, 121),412	9898,(34, 121),412	10310,(35, 121),412	10722,(36, 121),412	11134,(38, 121),412	11546,(39, 121),412	11958,(40, 121),412	12370,(42, 121),412	12782,(43, 121),412	13194,(44, 121),412	13606,(46, 121),412	14018,(47, 121),412	14430,(48, 121),412	14842,(50, 121),412	15254,(51, 121),412	15666,(52, 121),412	16078,(54, 121),412	16490,(55, 121),412	16902,(56, 121),412	17314,(58, 121),412	17726,(59, 121),412	18138,(60, 121),412	18550,(62, 121),412	18962,(63, 121),412	19374,(64, 121),412	19786,(66, 121),412	20198,(67, 121),412	20610,(68, 121),412	21022,(70, 121),412	21434,(71, 121),412	21846,(72, 121),412	22258,(74, 121),412	22670,(75, 121),412	23082,(76, 121),412	23494,(78, 121),412	23906,(79, 121),412	24318,(80, 121),412	24730,(82, 121),412	25142,(83, 121),412	25554,(84, 121),412	25966,(86, 121),412	26378,(87, 121),412	26790,(88, 121),412	27202,(90, 121),412	27614,(91, 121),412	28026,(92, 121),412	28438,(94, 121),412	28850,(95, 121),412	29262,(96, 121),412	29674,(98, 121),412	30086,(99, 121),412	30498,(100, 121),412	30910,(102, 121),412	31322,(103, 121),412	31734,(104, 121),412	32146,(106, 121),412	32558,(107, 121),412	32970,(108, 121),412	33382,(110, 121),412	33794,(111, 121),412	34206,(112, 121),412	34618,(114, 121),412	35030,(115, 121),412	35442,(116, 121),412	35854,(118, 121),412	36266,(119, 121),412	36678,(120, 121),412	
# Outgoing
834,(4, 121),412	2070,(8, 121),412	3306,(12, 121),412	4542,(16, 121),412	5778,(20, 121),412	7014,(24, 121),412	8250,(28, 121),412	9486,(32, 121),412	10722,(36, 121),412	11958,(40, 121),412	13194,(44, 121),412	14430,(48, 121),412	15666,(52, 121),412	16902,(56, 121),412	18138,(60, 121),412	19374,(64, 121),412	20610,(68, 121),412	21846,(72, 121),412	23082,(76, 121),412	24318,(80, 121),412	25554,(84, 121),412	26790,(88, 121),412	28026,(92, 121),412	29262,(96, 121),412	30498,(100, 121),412	31734,(104, 121),412	32970,(108, 121),412	34206,(112, 121),412	35442,(116, 121),412	36678,(120, 121),412	
422,(3, 121),412	1658,(7, 121),412	2894,(11, 121),412	4130,(15, 121),412	5366,(19, 121),412	6602,(23, 121),412	7838,(27, 121),412	9074,(31, 121),412	10310,(35, 121),412	11546,(39, 121),412	12782,(43, 121),412	14018,(47, 121),412	15254,(51, 121),412	16490,(55, 121),412	17726,(59, 121),412	18962,(63, 121),412	20198,(67, 121),412	21434,(71, 121),412	22670,(75, 121),412	23906,(79, 121),412	25142,(83, 121),412	26378,(87, 121),412	27614,(91, 121),412	28850,(95, 121),412	30086,(99, 121),412	31322,(103, 121),412	32558,(107, 121),412	33794,(111, 121),412	35030,(115, 121),412	36266,(119, 121),412	
10,(2, 121),412	1246,(6, 121),412	2482,(10, 121),412	3718,(14, 121),412	4954,(18, 121),412	6190,(22, 121),412	7426,(26, 121),412	8662,(30, 121),412	9898,(34, 121),412	11134,(38, 121),412	12370,(42, 121),412	13606,(46, 121),412	14842,(50, 121),412	16078,(54, 121),412	17314,(58, 121),412	18550,(62, 121),412	19786,(66, 121),412	21022,(70, 121),412	22258,(74, 121),412	23494,(78, 121),412	24730,(82, 121),412	25966,(86, 121),412	27202,(90, 121),412	28438,(94, 121),412	29674,(98, 121),412	30910,(102, 121),412	32146,(106, 121),412	33382,(110, 121),412	34618,(114, 121),412	35854,(118, 121),412	
1,(0, 2),4	5,(0, 3),4	9,(0, 4),4	13,(0, 6),4	17,(0, 7),4	21,(0, 8),4	25,(0, 10),4	29,(0, 11),4	33,(0, 12),4	37,(0, 14),4	41,(0, 15),4	45,(0, 16),4	49,(0, 18),4	53,(0, 19),4	57,(0, 20),4	61,(0, 22),4	65,(0, 23),4	69,(0, 24),4	73,(0, 26),4	77,(0, 27),4	81,(0, 28),4	85,(0, 30),4	89,(0, 31),4	93,(0, 32),4	97,(0, 34),4	101,(0, 35),4	105,(0, 36),4	109,(0, 38),4	113,(0, 39),4	117,(0, 40),4	121,(0, 42),4	125,(0, 43),4	129,(0, 44),4	133,(0, 46),4	137,(0, 47),4	141,(0, 48),4	145,(0, 50),4	149,(0, 51),4	153,(0, 52),4	157,(0, 54),4	161,(0, 55),4	165,(0, 56),4	169,(0, 58),4	173,(0, 59),4	177,(0, 60),4	181,(0, 62),4	185,(0, 63),4	189,(0, 64),4	193,(0, 66),4	197,(0, 67),4	201,(0, 68),4	205,(0, 70),4	209,(0, 71),4	213,(0, 72),4	217,(0, 74),4	221,(0, 75),4	225,(0, 76),4	229,(0, 78),4	233,(0, 79),4	237,(0, 80),4	241,(0, 82),4	245,(0, 83),4	249,(0, 84),4	253,(0, 86),4	257,(0, 87),4	261,(0, 88),4	265,(0, 90),4	269,(0, 91),4	273,(0, 92),4	277,(0, 94),4	281,(0, 95),4	285,(0, 96),4	289,(0, 98),4	293,(0, 99),4	297,(0, 100),4	301,(0, 102),4	305,(0, 103),4	309,(0, 104),4	313,(0, 106),4	317,(0, 107),4	321,(0, 108),4	325,(0, 110),4	329,(0, 111),4	333,(0, 112),4	337,(0, 114),4	341,(0, 115),4	345,(0, 116),4	349,(0, 118),4	353,(0, 119),4	357,(0, 120),4	
