150
# CPU
0,11,1	1,10,34	35,1,34	69,4,34	103,8,34	149,0,1	
37,2,34	73,6,34	109,9,34	
19,5,34	55,3,34	91,7,34	
# Incoming
53,(5, 0),6	71,(2, 0),6	89,(3, 0),6	107,(6, 0),6	125,(7, 0),6	143,(9, 0),6	
19,(11, 2),18	55,(11, 6),18	91,(11, 9),18	
1,(11, 5),18	37,(11, 3),18	73,(11, 7),18	
# Outgoing
1,(11, 5),18	19,(11, 2),18	37,(11, 3),18	55,(11, 6),18	73,(11, 7),18	91,(11, 9),18	
71,(2, 0),6	107,(6, 0),6	143,(9, 0),6	
53,(5, 0),6	89,(3, 0),6	125,(7, 0),6	
