218
# CPU
0,0,1	1,76,2	3,75,2	5,77,2	7,74,2	9,73,2	11,72,2	13,78,2	15,71,2	17,79,2	19,80,2	21,69,2	23,68,2	25,67,2	27,81,2	29,66,2	31,82,2	33,65,2	35,40,2	37,39,2	39,64,2	41,84,2	43,63,2	45,85,2	47,62,2	49,86,2	51,61,2	53,59,2	55,87,2	57,58,2	59,88,2	61,57,2	63,89,2	65,56,2	67,55,2	69,33,2	71,105,2	73,54,2	75,53,2	77,91,2	79,52,2	81,51,2	83,50,2	85,92,2	87,93,2	89,48,2	91,94,2	93,47,2	95,46,2	97,45,2	99,95,2	101,44,2	103,26,2	105,109,2	107,103,2	109,102,2	111,101,2	113,106,2	115,100,2	117,99,2	119,98,2	121,97,2	123,96,2	125,43,2	127,108,2	129,42,2	131,41,2	133,38,2	135,110,2	137,23,2	139,112,2	141,36,2	143,35,2	145,34,2	147,32,2	149,111,2	151,31,2	153,30,2	155,113,2	157,28,2	159,17,2	161,16,2	163,18,2	165,15,2	167,19,2	169,14,2	171,1,2	173,10,2	175,21,2	177,22,2	179,13,2	181,24,2	183,12,2	185,25,2	187,11,2	189,3,2	191,4,2	193,5,2	195,6,2	197,7,2	199,8,2	201,9,2	203,27,2	205,114,2	207,116,2	209,117,2	211,118,2	213,119,2	215,120,2	217,121,1	
18,70,2	35,83,2	52,60,2	69,90,2	86,49,2	103,104,2	120,107,2	137,37,2	154,29,2	171,20,2	188,2,2	205,115,2	
# Incoming
20,(70, 121),1	37,(83, 121),1	54,(60, 121),1	71,(90, 121),1	88,(49, 121),1	105,(104, 121),1	122,(107, 121),1	139,(37, 121),1	156,(29, 121),1	173,(20, 121),1	190,(2, 121),1	207,(115, 121),1	
1,(0, 70),17	18,(0, 83),17	35,(0, 60),17	52,(0, 90),17	69,(0, 49),17	86,(0, 104),17	103,(0, 107),17	120,(0, 37),17	137,(0, 29),17	154,(0, 20),17	171,(0, 2),17	188,(0, 115),17	
# Outgoing
1,(0, 70),17	18,(0, 83),17	35,(0, 60),17	52,(0, 90),17	69,(0, 49),17	86,(0, 104),17	103,(0, 107),17	120,(0, 37),17	137,(0, 29),17	154,(0, 20),17	171,(0, 2),17	188,(0, 115),17	
20,(70, 121),1	37,(83, 121),1	54,(60, 121),1	71,(90, 121),1	88,(49, 121),1	105,(104, 121),1	122,(107, 121),1	139,(37, 121),1	156,(29, 121),1	173,(20, 121),1	190,(2, 121),1	207,(115, 121),1	
