37
# CPU
0,11,1	1,10,5	6,1,5	11,2,5	16,3,5	21,4,5	26,7,5	31,9,5	36,0,1	
5,5,5	
3,6,5	
7,8,5	
# Incoming
8,(6, 0),9	17,(5, 0),9	26,(8, 0),9	
3,(11, 5),2	
1,(11, 6),2	
5,(11, 8),2	
# Outgoing
1,(11, 6),2	3,(11, 5),2	5,(11, 8),2	
17,(5, 0),9	
8,(6, 0),9	
26,(8, 0),9	
