232
# CPU
0,121,1	1,76,2	3,75,2	5,77,2	7,74,2	9,73,2	11,72,2	13,78,2	15,71,2	17,79,2	19,70,2	21,80,2	23,69,2	25,68,2	27,67,2	29,81,2	31,66,2	33,22,2	35,41,2	37,82,2	39,65,2	41,64,2	43,83,2	45,63,2	47,84,2	49,62,2	51,86,2	53,61,2	55,60,2	57,59,2	59,87,2	61,58,2	63,88,2	65,91,2	67,30,2	69,56,2	71,55,2	73,57,2	75,54,2	77,89,2	79,53,2	81,92,2	83,52,2	85,51,2	87,50,2	89,93,2	91,49,2	93,94,2	95,48,2	97,20,2	99,29,2	101,47,2	103,95,2	105,46,2	107,105,2	109,104,2	111,106,2	113,103,2	115,102,2	117,101,2	119,107,2	121,100,2	123,98,2	125,97,2	127,108,2	129,12,2	131,31,2	133,109,2	135,96,2	137,45,2	139,44,2	141,110,2	143,43,2	145,40,2	147,39,2	149,111,2	151,38,2	153,37,2	155,36,2	157,112,2	159,35,2	161,17,2	163,21,2	165,113,2	167,19,2	169,18,2	171,23,2	173,16,2	175,24,2	177,15,2	179,25,2	181,14,2	183,27,2	185,13,2	187,28,2	189,11,2	191,32,2	193,34,2	195,118,2	197,1,2	199,2,2	201,3,2	203,4,2	205,5,2	207,6,2	209,7,2	211,8,2	213,9,2	215,10,2	217,33,2	219,114,2	221,115,2	223,117,2	225,119,2	231,0,1	
225,120,2	
65,90,2	97,99,2	
33,85,2	129,42,2	161,26,2	193,116,2	
# Incoming
35,(85, 0),4	67,(90, 0),4	99,(99, 0),4	131,(42, 0),4	163,(26, 0),4	195,(116, 0),4	227,(120, 0),4	
193,(121, 120),32	
33,(121, 90),32	65,(121, 99),32	
1,(121, 85),32	97,(121, 42),32	129,(121, 26),32	161,(121, 116),32	
# Outgoing
1,(121, 85),32	33,(121, 90),32	65,(121, 99),32	97,(121, 42),32	129,(121, 26),32	161,(121, 116),32	193,(121, 120),32	
227,(120, 0),4	
67,(90, 0),4	99,(99, 0),4	
35,(85, 0),4	131,(42, 0),4	163,(26, 0),4	195,(116, 0),4	
