487
# CPU
7,2,4	13,4,4	19,6,4	25,8,4	31,10,4	37,12,4	43,14,4	49,16,4	55,18,4	61,20,4	67,22,4	73,24,4	79,26,4	85,28,4	91,30,4	97,32,4	103,34,4	109,36,4	115,38,4	121,40,4	127,42,4	133,44,4	139,46,4	145,48,4	151,50,4	157,52,4	163,54,4	169,56,4	175,58,4	181,60,4	187,62,4	193,64,4	199,66,4	205,68,4	211,70,4	217,72,4	223,74,4	229,76,4	235,78,4	241,80,4	247,82,4	253,84,4	259,86,4	265,88,4	271,90,4	277,92,4	283,94,4	289,96,4	295,98,4	301,100,4	307,102,4	313,104,4	319,106,4	325,108,4	331,110,4	337,112,4	343,114,4	349,116,4	355,118,4	361,120,4	367,122,4	373,124,4	379,126,4	385,128,4	391,130,4	397,132,4	403,134,4	409,136,4	415,138,4	421,140,4	427,142,4	433,144,4	439,146,4	445,148,4	451,150,4	457,152,4	463,154,4	469,156,4	475,158,4	481,160,4	
0,0,1	1,1,4	5,5,4	9,13,4	13,29,4	17,61,4	21,125,4	25,159,4	29,157,4	33,155,4	37,153,4	41,151,4	45,149,4	49,147,4	53,145,4	57,143,4	61,141,4	65,139,4	69,137,4	73,135,4	77,133,4	81,131,4	85,129,4	89,123,4	93,127,4	97,121,4	101,119,4	105,117,4	109,115,4	113,113,4	117,111,4	121,109,4	125,107,4	129,105,4	133,103,4	137,101,4	141,99,4	145,97,4	149,95,4	153,93,4	157,91,4	161,89,4	165,87,4	169,85,4	173,83,4	177,81,4	181,79,4	185,77,4	189,75,4	193,73,4	197,71,4	201,69,4	205,67,4	209,65,4	213,59,4	217,63,4	221,57,4	225,55,4	229,53,4	233,51,4	237,49,4	241,47,4	245,45,4	249,43,4	253,41,4	257,39,4	261,37,4	265,35,4	269,33,4	273,27,4	277,31,4	281,25,4	285,23,4	289,21,4	293,19,4	297,17,4	301,11,4	305,15,4	309,9,4	313,3,4	317,7,4	486,161,1	
# Incoming
1,(0, 2),6	7,(0, 4),6	13,(0, 6),6	19,(0, 8),6	25,(0, 10),6	31,(0, 12),6	37,(0, 14),6	43,(0, 16),6	49,(0, 18),6	55,(0, 20),6	61,(0, 22),6	67,(0, 24),6	73,(0, 26),6	79,(0, 28),6	85,(0, 30),6	91,(0, 32),6	97,(0, 34),6	103,(0, 36),6	109,(0, 38),6	115,(0, 40),6	121,(0, 42),6	127,(0, 44),6	133,(0, 46),6	139,(0, 48),6	145,(0, 50),6	151,(0, 52),6	157,(0, 54),6	163,(0, 56),6	169,(0, 58),6	175,(0, 60),6	181,(0, 62),6	187,(0, 64),6	193,(0, 66),6	199,(0, 68),6	205,(0, 70),6	211,(0, 72),6	217,(0, 74),6	223,(0, 76),6	229,(0, 78),6	235,(0, 80),6	241,(0, 82),6	247,(0, 84),6	253,(0, 86),6	259,(0, 88),6	265,(0, 90),6	271,(0, 92),6	277,(0, 94),6	283,(0, 96),6	289,(0, 98),6	295,(0, 100),6	301,(0, 102),6	307,(0, 104),6	313,(0, 106),6	319,(0, 108),6	325,(0, 110),6	331,(0, 112),6	337,(0, 114),6	343,(0, 116),6	349,(0, 118),6	355,(0, 120),6	361,(0, 122),6	367,(0, 124),6	373,(0, 126),6	379,(0, 128),6	385,(0, 130),6	391,(0, 132),6	397,(0, 134),6	403,(0, 136),6	409,(0, 138),6	415,(0, 140),6	421,(0, 142),6	427,(0, 144),6	433,(0, 146),6	439,(0, 148),6	445,(0, 150),6	451,(0, 152),6	457,(0, 154),6	463,(0, 156),6	469,(0, 158),6	475,(0, 160),6	
11,(2, 161),1	17,(4, 161),1	23,(6, 161),1	29,(8, 161),1	35,(10, 161),1	41,(12, 161),1	47,(14, 161),1	53,(16, 161),1	59,(18, 161),1	65,(20, 161),1	71,(22, 161),1	77,(24, 161),1	83,(26, 161),1	89,(28, 161),1	95,(30, 161),1	101,(32, 161),1	107,(34, 161),1	113,(36, 161),1	119,(38, 161),1	125,(40, 161),1	131,(42, 161),1	137,(44, 161),1	143,(46, 161),1	149,(48, 161),1	155,(50, 161),1	161,(52, 161),1	167,(54, 161),1	173,(56, 161),1	179,(58, 161),1	185,(60, 161),1	191,(62, 161),1	197,(64, 161),1	203,(66, 161),1	209,(68, 161),1	215,(70, 161),1	221,(72, 161),1	227,(74, 161),1	233,(76, 161),1	239,(78, 161),1	245,(80, 161),1	251,(82, 161),1	257,(84, 161),1	263,(86, 161),1	269,(88, 161),1	275,(90, 161),1	281,(92, 161),1	287,(94, 161),1	293,(96, 161),1	299,(98, 161),1	305,(100, 161),1	311,(102, 161),1	317,(104, 161),1	323,(106, 161),1	329,(108, 161),1	335,(110, 161),1	341,(112, 161),1	347,(114, 161),1	353,(116, 161),1	359,(118, 161),1	365,(120, 161),1	371,(122, 161),1	377,(124, 161),1	383,(126, 161),1	389,(128, 161),1	395,(130, 161),1	401,(132, 161),1	407,(134, 161),1	413,(136, 161),1	419,(138, 161),1	425,(140, 161),1	431,(142, 161),1	437,(144, 161),1	443,(146, 161),1	449,(148, 161),1	455,(150, 161),1	461,(152, 161),1	467,(154, 161),1	473,(156, 161),1	479,(158, 161),1	485,(160, 161),1	
# Outgoing
11,(2, 161),1	17,(4, 161),1	23,(6, 161),1	29,(8, 161),1	35,(10, 161),1	41,(12, 161),1	47,(14, 161),1	53,(16, 161),1	59,(18, 161),1	65,(20, 161),1	71,(22, 161),1	77,(24, 161),1	83,(26, 161),1	89,(28, 161),1	95,(30, 161),1	101,(32, 161),1	107,(34, 161),1	113,(36, 161),1	119,(38, 161),1	125,(40, 161),1	131,(42, 161),1	137,(44, 161),1	143,(46, 161),1	149,(48, 161),1	155,(50, 161),1	161,(52, 161),1	167,(54, 161),1	173,(56, 161),1	179,(58, 161),1	185,(60, 161),1	191,(62, 161),1	197,(64, 161),1	203,(66, 161),1	209,(68, 161),1	215,(70, 161),1	221,(72, 161),1	227,(74, 161),1	233,(76, 161),1	239,(78, 161),1	245,(80, 161),1	251,(82, 161),1	257,(84, 161),1	263,(86, 161),1	269,(88, 161),1	275,(90, 161),1	281,(92, 161),1	287,(94, 161),1	293,(96, 161),1	299,(98, 161),1	305,(100, 161),1	311,(102, 161),1	317,(104, 161),1	323,(106, 161),1	329,(108, 161),1	335,(110, 161),1	341,(112, 161),1	347,(114, 161),1	353,(116, 161),1	359,(118, 161),1	365,(120, 161),1	371,(122, 161),1	377,(124, 161),1	383,(126, 161),1	389,(128, 161),1	395,(130, 161),1	401,(132, 161),1	407,(134, 161),1	413,(136, 161),1	419,(138, 161),1	425,(140, 161),1	431,(142, 161),1	437,(144, 161),1	443,(146, 161),1	449,(148, 161),1	455,(150, 161),1	461,(152, 161),1	467,(154, 161),1	473,(156, 161),1	479,(158, 161),1	485,(160, 161),1	
1,(0, 2),6	7,(0, 4),6	13,(0, 6),6	19,(0, 8),6	25,(0, 10),6	31,(0, 12),6	37,(0, 14),6	43,(0, 16),6	49,(0, 18),6	55,(0, 20),6	61,(0, 22),6	67,(0, 24),6	73,(0, 26),6	79,(0, 28),6	85,(0, 30),6	91,(0, 32),6	97,(0, 34),6	103,(0, 36),6	109,(0, 38),6	115,(0, 40),6	121,(0, 42),6	127,(0, 44),6	133,(0, 46),6	139,(0, 48),6	145,(0, 50),6	151,(0, 52),6	157,(0, 54),6	163,(0, 56),6	169,(0, 58),6	175,(0, 60),6	181,(0, 62),6	187,(0, 64),6	193,(0, 66),6	199,(0, 68),6	205,(0, 70),6	211,(0, 72),6	217,(0, 74),6	223,(0, 76),6	229,(0, 78),6	235,(0, 80),6	241,(0, 82),6	247,(0, 84),6	253,(0, 86),6	259,(0, 88),6	265,(0, 90),6	271,(0, 92),6	277,(0, 94),6	283,(0, 96),6	289,(0, 98),6	295,(0, 100),6	301,(0, 102),6	307,(0, 104),6	313,(0, 106),6	319,(0, 108),6	325,(0, 110),6	331,(0, 112),6	337,(0, 114),6	343,(0, 116),6	349,(0, 118),6	355,(0, 120),6	361,(0, 122),6	367,(0, 124),6	373,(0, 126),6	379,(0, 128),6	385,(0, 130),6	391,(0, 132),6	397,(0, 134),6	403,(0, 136),6	409,(0, 138),6	415,(0, 140),6	421,(0, 142),6	427,(0, 144),6	433,(0, 146),6	439,(0, 148),6	445,(0, 150),6	451,(0, 152),6	457,(0, 154),6	463,(0, 156),6	469,(0, 158),6	475,(0, 160),6	
