18
# CPU
0,11,1	1,10,2	3,1,2	5,2,2	7,3,2	9,4,2	11,6,2	13,7,2	15,9,2	17,0,1	
5,5,2	9,8,2	
# Incoming
7,(5, 0),4	11,(8, 0),4	
1,(11, 5),4	5,(11, 8),4	
# Outgoing
1,(11, 5),4	5,(11, 8),4	
7,(5, 0),4	11,(8, 0),4	
