366
# CPU
0,121,1	1,120,4	5,75,4	9,76,4	13,74,4	17,72,4	21,73,4	25,71,4	29,70,4	33,78,4	37,69,4	41,67,4	45,79,4	49,66,4	53,65,4	57,81,4	61,64,4	65,62,4	69,82,4	73,61,4	77,60,4	81,85,4	85,59,4	89,57,4	93,86,4	97,56,4	101,55,4	105,88,4	109,54,4	113,52,4	117,89,4	121,51,4	125,50,4	129,91,4	133,49,4	137,47,4	141,92,4	145,46,4	149,45,4	153,94,4	157,44,4	161,42,4	165,95,4	169,41,4	173,103,4	177,105,4	181,102,4	185,100,4	189,106,4	193,99,4	197,97,4	201,107,4	205,96,4	209,39,4	213,108,4	217,38,4	221,36,4	225,109,4	229,35,4	233,33,4	237,110,4	241,32,4	245,30,4	249,111,4	253,29,4	257,27,4	261,112,4	265,26,4	269,16,4	273,18,4	277,15,4	281,14,4	285,20,4	289,13,4	293,12,4	297,22,4	301,11,4	305,10,4	309,24,4	313,9,4	317,2,4	321,3,4	325,4,4	329,6,4	333,7,4	337,8,4	341,113,4	345,114,4	349,115,4	353,117,4	357,118,4	361,119,4	365,0,1	
4,84,4	10,68,4	16,63,4	22,58,4	28,53,4	34,48,4	40,43,4	46,101,4	52,40,4	58,34,4	64,28,4	70,19,4	76,23,4	82,5,4	88,116,4	
7,77,4	13,80,4	19,83,4	25,87,4	31,90,4	37,93,4	43,104,4	49,98,4	55,37,4	61,31,4	67,17,4	73,21,4	79,1,4	85,25,4	
# Incoming
8,(84, 0),12	20,(77, 0),12	32,(68, 0),12	44,(80, 0),12	56,(63, 0),12	68,(83, 0),12	80,(58, 0),12	92,(87, 0),12	104,(53, 0),12	116,(90, 0),12	128,(48, 0),12	140,(93, 0),12	152,(43, 0),12	164,(104, 0),12	176,(101, 0),12	188,(98, 0),12	200,(40, 0),12	212,(37, 0),12	224,(34, 0),12	236,(31, 0),12	248,(28, 0),12	260,(17, 0),12	272,(19, 0),12	284,(21, 0),12	296,(23, 0),12	308,(1, 0),12	320,(5, 0),12	332,(25, 0),12	344,(116, 0),12	
1,(121, 84),3	7,(121, 68),3	13,(121, 63),3	19,(121, 58),3	25,(121, 53),3	31,(121, 48),3	37,(121, 43),3	43,(121, 101),3	49,(121, 40),3	55,(121, 34),3	61,(121, 28),3	67,(121, 19),3	73,(121, 23),3	79,(121, 5),3	85,(121, 116),3	
4,(121, 77),3	10,(121, 80),3	16,(121, 83),3	22,(121, 87),3	28,(121, 90),3	34,(121, 93),3	40,(121, 104),3	46,(121, 98),3	52,(121, 37),3	58,(121, 31),3	64,(121, 17),3	70,(121, 21),3	76,(121, 1),3	82,(121, 25),3	
# Outgoing
1,(121, 84),3	4,(121, 77),3	7,(121, 68),3	10,(121, 80),3	13,(121, 63),3	16,(121, 83),3	19,(121, 58),3	22,(121, 87),3	25,(121, 53),3	28,(121, 90),3	31,(121, 48),3	34,(121, 93),3	37,(121, 43),3	40,(121, 104),3	43,(121, 101),3	46,(121, 98),3	49,(121, 40),3	52,(121, 37),3	55,(121, 34),3	58,(121, 31),3	61,(121, 28),3	64,(121, 17),3	67,(121, 19),3	70,(121, 21),3	73,(121, 23),3	76,(121, 1),3	79,(121, 5),3	82,(121, 25),3	85,(121, 116),3	
8,(84, 0),12	32,(68, 0),12	56,(63, 0),12	80,(58, 0),12	104,(53, 0),12	128,(48, 0),12	152,(43, 0),12	176,(101, 0),12	200,(40, 0),12	224,(34, 0),12	248,(28, 0),12	272,(19, 0),12	296,(23, 0),12	320,(5, 0),12	344,(116, 0),12	
20,(77, 0),12	44,(80, 0),12	68,(83, 0),12	92,(87, 0),12	116,(90, 0),12	140,(93, 0),12	164,(104, 0),12	188,(98, 0),12	212,(37, 0),12	236,(31, 0),12	260,(17, 0),12	284,(21, 0),12	308,(1, 0),12	332,(25, 0),12	
