184
# CPU
0,0,1	1,76,2	3,75,2	5,77,2	7,28,2	9,40,2	11,74,2	13,20,2	15,47,2	17,78,2	19,53,2	21,45,2	23,73,2	25,95,2	27,37,2	29,72,2	31,54,2	33,43,2	35,71,2	37,56,2	39,42,2	41,79,2	43,34,2	45,66,2	47,70,2	49,16,2	51,104,2	53,69,2	55,108,2	57,38,2	59,67,2	61,80,2	63,30,2	65,65,2	67,24,2	69,105,2	71,63,2	73,17,2	75,106,2	77,62,2	79,112,2	81,57,2	83,60,2	85,103,2	87,32,2	89,100,2	91,61,2	93,29,2	95,101,2	97,111,2	99,48,2	101,99,2	103,12,2	105,36,2	107,102,2	109,109,2	111,1,2	113,98,2	115,110,2	117,107,2	119,96,2	121,49,2	123,2,2	125,97,2	127,50,2	129,3,2	131,113,2	133,22,2	135,52,2	137,25,2	139,13,2	141,15,2	143,26,2	145,46,2	147,117,2	149,21,2	151,10,2	153,9,2	155,23,2	157,7,2	159,14,2	161,4,2	163,31,2	165,6,2	167,5,2	169,119,2	171,8,2	173,11,2	175,19,2	177,64,2	179,114,2	181,120,2	183,121,1	
7,81,2	37,87,2	61,93,2	85,90,2	109,55,2	121,41,2	133,39,2	145,44,2	151,115,2	157,116,2	163,118,2	169,27,2	175,18,2	
13,82,2	25,84,2	31,85,2	43,88,2	67,94,2	91,68,2	115,51,2	127,35,2	139,33,2	
19,83,2	49,89,2	55,91,2	73,92,2	79,86,2	97,59,2	103,58,2	
# Incoming
9,(81, 121),3	15,(82, 121),3	21,(83, 121),3	27,(84, 121),3	33,(85, 121),3	39,(87, 121),3	45,(88, 121),3	51,(89, 121),3	57,(91, 121),3	63,(93, 121),3	69,(94, 121),3	75,(92, 121),3	81,(86, 121),3	87,(90, 121),3	93,(68, 121),3	99,(59, 121),3	105,(58, 121),3	111,(55, 121),3	117,(51, 121),3	123,(41, 121),3	129,(35, 121),3	135,(39, 121),3	141,(33, 121),3	147,(44, 121),3	153,(115, 121),3	159,(116, 121),3	165,(118, 121),3	171,(27, 121),3	177,(18, 121),3	
1,(0, 81),6	31,(0, 87),6	55,(0, 93),6	79,(0, 90),6	103,(0, 55),6	115,(0, 41),6	127,(0, 39),6	139,(0, 44),6	145,(0, 115),6	151,(0, 116),6	157,(0, 118),6	163,(0, 27),6	169,(0, 18),6	
7,(0, 82),6	19,(0, 84),6	25,(0, 85),6	37,(0, 88),6	61,(0, 94),6	85,(0, 68),6	109,(0, 51),6	121,(0, 35),6	133,(0, 33),6	
13,(0, 83),6	43,(0, 89),6	49,(0, 91),6	67,(0, 92),6	73,(0, 86),6	91,(0, 59),6	97,(0, 58),6	
# Outgoing
1,(0, 81),6	7,(0, 82),6	13,(0, 83),6	19,(0, 84),6	25,(0, 85),6	31,(0, 87),6	37,(0, 88),6	43,(0, 89),6	49,(0, 91),6	55,(0, 93),6	61,(0, 94),6	67,(0, 92),6	73,(0, 86),6	79,(0, 90),6	85,(0, 68),6	91,(0, 59),6	97,(0, 58),6	103,(0, 55),6	109,(0, 51),6	115,(0, 41),6	121,(0, 35),6	127,(0, 39),6	133,(0, 33),6	139,(0, 44),6	145,(0, 115),6	151,(0, 116),6	157,(0, 118),6	163,(0, 27),6	169,(0, 18),6	
9,(81, 121),3	39,(87, 121),3	63,(93, 121),3	87,(90, 121),3	111,(55, 121),3	123,(41, 121),3	135,(39, 121),3	147,(44, 121),3	153,(115, 121),3	159,(116, 121),3	165,(118, 121),3	171,(27, 121),3	177,(18, 121),3	
15,(82, 121),3	27,(84, 121),3	33,(85, 121),3	45,(88, 121),3	69,(94, 121),3	93,(68, 121),3	117,(51, 121),3	129,(35, 121),3	141,(33, 121),3	
21,(83, 121),3	51,(89, 121),3	57,(91, 121),3	75,(92, 121),3	81,(86, 121),3	99,(59, 121),3	105,(58, 121),3	
