531
# CPU
0,0,1	1,111,4	5,110,4	9,112,4	13,109,4	17,108,4	21,113,4	25,107,4	29,114,4	33,106,4	37,127,4	41,65,4	45,105,4	49,115,4	53,104,4	57,102,4	61,116,4	65,101,4	69,100,4	73,86,4	77,131,4	81,117,4	85,98,4	89,118,4	93,96,4	97,95,4	101,119,4	105,93,4	109,92,4	113,55,4	117,81,4	121,80,4	125,79,4	129,78,4	133,82,4	137,77,4	141,83,4	145,85,4	149,39,4	153,75,4	157,74,4	161,76,4	165,73,4	169,72,4	173,71,4	177,70,4	181,146,4	185,140,4	189,68,4	193,69,4	197,67,4	201,64,4	205,66,4	209,63,4	213,84,4	217,25,4	221,142,4	225,61,4	229,60,4	233,62,4	237,59,4	241,58,4	245,88,4	249,57,4	253,56,4	257,144,4	261,53,4	265,54,4	269,52,4	273,51,4	277,50,4	281,49,4	285,90,4	289,26,4	293,147,4	297,48,4	301,47,4	305,46,4	309,45,4	313,44,4	317,141,4	321,139,4	325,154,4	329,24,4	333,138,4	337,143,4	341,137,4	345,136,4	349,145,4	353,135,4	357,132,4	361,22,4	365,150,4	369,121,4	373,43,4	377,148,4	381,42,4	385,40,4	389,149,4	393,38,4	397,153,4	401,19,4	405,36,4	409,35,4	413,33,4	417,151,4	421,17,4	425,16,4	429,18,4	433,6,4	437,11,4	441,20,4	445,15,4	449,21,4	453,14,4	457,13,4	461,23,4	465,12,4	469,1,4	473,8,4	477,2,4	481,3,4	485,4,4	489,5,4	493,7,4	497,9,4	501,10,4	505,29,4	509,27,4	513,152,4	517,157,4	521,158,4	530,161,1	
127,89,4	145,120,4	307,134,4	325,128,4	523,160,4	

91,91,4	199,124,4	217,126,4	433,31,4	
109,87,4	415,28,4	
271,130,4	289,133,4	487,156,4	
55,97,4	163,122,4	181,123,4	379,34,4	397,30,4	505,159,4	
73,94,4	253,129,4	469,155,4	
235,125,4	343,41,4	361,37,4	451,32,4	
19,103,4	37,99,4	
# Incoming
23,(103, 161),3	41,(99, 161),3	59,(97, 161),3	77,(94, 161),3	95,(91, 161),3	113,(87, 161),3	131,(89, 161),3	149,(120, 161),3	167,(122, 161),3	185,(123, 161),3	203,(124, 161),3	221,(126, 161),3	239,(125, 161),3	257,(129, 161),3	275,(130, 161),3	293,(133, 161),3	311,(134, 161),3	329,(128, 161),3	347,(41, 161),3	365,(37, 161),3	383,(34, 161),3	401,(30, 161),3	419,(28, 161),3	437,(31, 161),3	455,(32, 161),3	473,(155, 161),3	491,(156, 161),3	509,(159, 161),3	527,(160, 161),3	
109,(0, 89),18	127,(0, 120),18	289,(0, 134),18	307,(0, 128),18	505,(0, 160),18	

73,(0, 91),18	181,(0, 124),18	199,(0, 126),18	415,(0, 31),18	
91,(0, 87),18	397,(0, 28),18	
253,(0, 130),18	271,(0, 133),18	469,(0, 156),18	
37,(0, 97),18	145,(0, 122),18	163,(0, 123),18	361,(0, 34),18	379,(0, 30),18	487,(0, 159),18	
55,(0, 94),18	235,(0, 129),18	451,(0, 155),18	
217,(0, 125),18	325,(0, 41),18	343,(0, 37),18	433,(0, 32),18	
1,(0, 103),18	19,(0, 99),18	
# Outgoing
1,(0, 103),18	19,(0, 99),18	37,(0, 97),18	55,(0, 94),18	73,(0, 91),18	91,(0, 87),18	109,(0, 89),18	127,(0, 120),18	145,(0, 122),18	163,(0, 123),18	181,(0, 124),18	199,(0, 126),18	217,(0, 125),18	235,(0, 129),18	253,(0, 130),18	271,(0, 133),18	289,(0, 134),18	307,(0, 128),18	325,(0, 41),18	343,(0, 37),18	361,(0, 34),18	379,(0, 30),18	397,(0, 28),18	415,(0, 31),18	433,(0, 32),18	451,(0, 155),18	469,(0, 156),18	487,(0, 159),18	505,(0, 160),18	
131,(89, 161),3	149,(120, 161),3	311,(134, 161),3	329,(128, 161),3	527,(160, 161),3	

95,(91, 161),3	203,(124, 161),3	221,(126, 161),3	437,(31, 161),3	
113,(87, 161),3	419,(28, 161),3	
275,(130, 161),3	293,(133, 161),3	491,(156, 161),3	
59,(97, 161),3	167,(122, 161),3	185,(123, 161),3	383,(34, 161),3	401,(30, 161),3	509,(159, 161),3	
77,(94, 161),3	257,(129, 161),3	473,(155, 161),3	
239,(125, 161),3	347,(41, 161),3	365,(37, 161),3	455,(32, 161),3	
23,(103, 161),3	41,(99, 161),3	
