102
# CPU
0,11,1	1,10,45	46,3,45	101,0,1	
5,5,45	50,6,45	
7,1,45	52,8,45	
9,2,45	54,9,45	
3,7,45	48,4,45	
# Incoming
48,(7, 0),2	50,(5, 0),2	52,(1, 0),2	54,(2, 0),2	93,(4, 0),2	95,(6, 0),2	97,(8, 0),2	99,(9, 0),2	
3,(11, 5),2	11,(11, 6),2	
5,(11, 1),2	13,(11, 8),2	
7,(11, 2),2	15,(11, 9),2	
1,(11, 7),2	9,(11, 4),2	
# Outgoing
1,(11, 7),2	3,(11, 5),2	5,(11, 1),2	7,(11, 2),2	9,(11, 4),2	11,(11, 6),2	13,(11, 8),2	15,(11, 9),2	
50,(5, 0),2	95,(6, 0),2	
52,(1, 0),2	97,(8, 0),2	
54,(2, 0),2	99,(9, 0),2	
48,(7, 0),2	93,(4, 0),2	
