808
# CPU
105,2,2	209,4,2	313,6,2	417,8,2	521,10,2	
0,0,1	1,1,2	3,5,2	5,9,2	7,3,2	9,7,2	807,11,1	
# Incoming
1,(0, 2),104	105,(0, 4),104	209,(0, 6),104	313,(0, 8),104	417,(0, 10),104	
107,(2, 11),140	247,(4, 11),140	387,(6, 11),140	527,(8, 11),140	667,(10, 11),140	
# Outgoing
107,(2, 11),140	247,(4, 11),140	387,(6, 11),140	527,(8, 11),140	667,(10, 11),140	
1,(0, 2),104	105,(0, 4),104	209,(0, 6),104	313,(0, 8),104	417,(0, 10),104	
