48
# CPU
10,4,1	19,8,1	
7,3,1	16,7,1	
4,2,1	13,6,1	22,10,1	
0,0,1	1,1,1	2,5,1	3,9,1	47,11,1	
# Incoming
7,(0, 4),3	16,(0, 8),3	
4,(0, 3),3	13,(0, 7),3	
1,(0, 2),3	10,(0, 6),3	19,(0, 10),3	
5,(2, 11),6	11,(3, 11),6	17,(4, 11),6	23,(6, 11),6	29,(7, 11),6	35,(8, 11),6	41,(10, 11),6	
# Outgoing
17,(4, 11),6	35,(8, 11),6	
11,(3, 11),6	29,(7, 11),6	
5,(2, 11),6	23,(6, 11),6	41,(10, 11),6	
1,(0, 2),3	4,(0, 3),3	7,(0, 4),3	10,(0, 6),3	13,(0, 7),3	16,(0, 8),3	19,(0, 10),3	
