150
# CPU
13,3,34	47,6,34	81,9,34	
7,2,34	41,5,34	75,8,34	
0,0,1	1,1,34	35,7,34	69,4,34	103,10,34	149,11,1	
# Incoming
7,(0, 3),6	19,(0, 6),6	31,(0, 9),6	
1,(0, 2),6	13,(0, 5),6	25,(0, 8),6	
41,(2, 11),18	59,(3, 11),18	77,(5, 11),18	95,(6, 11),18	113,(8, 11),18	131,(9, 11),18	
# Outgoing
59,(3, 11),18	95,(6, 11),18	131,(9, 11),18	
41,(2, 11),18	77,(5, 11),18	113,(8, 11),18	
1,(0, 2),6	7,(0, 3),6	13,(0, 5),6	19,(0, 6),6	25,(0, 8),6	31,(0, 9),6	
