159
# CPU
0,161,1	1,111,1	2,110,1	3,112,1	4,109,1	5,108,1	6,107,1	7,113,1	8,106,1	9,114,1	10,105,1	11,115,1	12,104,1	13,103,1	14,102,1	15,116,1	16,101,1	17,100,1	18,99,1	19,117,1	20,98,1	21,97,1	22,96,1	23,118,1	24,95,1	25,119,1	26,94,1	27,120,1	28,93,1	29,92,1	30,91,1	31,121,1	32,90,1	33,81,1	34,80,1	35,82,1	36,79,1	37,78,1	38,77,1	39,83,1	40,76,1	41,84,1	42,75,1	43,85,1	44,74,1	45,73,1	46,72,1	47,86,1	48,71,1	49,29,1	50,44,1	51,87,1	52,70,1	53,69,1	54,88,1	55,68,1	56,89,1	57,67,1	58,122,1	59,66,1	60,65,1	61,64,1	62,123,1	63,63,1	64,125,1	65,62,1	66,126,1	67,61,1	68,60,1	69,59,1	70,127,1	71,58,1	72,128,1	73,57,1	74,129,1	75,56,1	76,55,1	77,54,1	78,130,1	79,53,1	80,131,1	81,52,1	82,132,1	83,51,1	84,50,1	85,49,1	86,133,1	87,48,1	88,134,1	89,47,1	90,135,1	91,46,1	92,45,1	93,43,1	94,136,1	95,42,1	96,145,1	97,148,1	98,142,1	99,144,1	100,143,1	101,146,1	102,141,1	103,140,1	104,139,1	105,147,1	106,137,1	107,41,1	108,40,1	109,149,1	110,39,1	111,38,1	112,37,1	113,150,1	114,36,1	115,35,1	116,34,1	117,151,1	118,33,1	119,32,1	120,31,1	121,152,1	122,30,1	123,28,1	124,27,1	125,153,1	126,26,1	127,17,1	128,16,1	129,18,1	130,15,1	131,19,1	132,14,1	133,20,1	134,13,1	135,21,1	136,12,1	137,22,1	138,11,1	139,23,1	140,10,1	141,24,1	142,9,1	143,1,1	144,2,1	145,5,1	146,3,1	147,4,1	148,6,1	149,7,1	150,8,1	151,25,1	152,154,1	153,155,1	154,157,1	155,158,1	156,159,1	157,160,1	158,0,1	

145,156,1	



49,124,1	
97,138,1	


# Incoming
50,(124, 0),3	98,(138, 0),3	146,(156, 0),3	

97,(161, 156),48	



1,(161, 124),48	
49,(161, 138),48	


# Outgoing
1,(161, 124),48	49,(161, 138),48	97,(161, 156),48	

146,(156, 0),3	



50,(124, 0),3	
98,(138, 0),3	


