168
# CPU
163,10,3	
145,9,3	
127,8,3	
109,7,3	
91,6,3	
73,5,3	
55,4,3	
37,3,3	
19,2,3	
0,0,1	1,1,3	167,11,1	
# Incoming
145,(0, 10),18	
127,(0, 9),18	
109,(0, 8),18	
91,(0, 7),18	
73,(0, 6),18	
55,(0, 5),18	
37,(0, 4),18	
19,(0, 3),18	
1,(0, 2),18	
22,(2, 11),1	40,(3, 11),1	58,(4, 11),1	76,(5, 11),1	94,(6, 11),1	112,(7, 11),1	130,(8, 11),1	148,(9, 11),1	166,(10, 11),1	
# Outgoing
166,(10, 11),1	
148,(9, 11),1	
130,(8, 11),1	
112,(7, 11),1	
94,(6, 11),1	
76,(5, 11),1	
58,(4, 11),1	
40,(3, 11),1	
22,(2, 11),1	
1,(0, 2),18	19,(0, 3),18	37,(0, 4),18	55,(0, 5),18	73,(0, 6),18	91,(0, 7),18	109,(0, 8),18	127,(0, 9),18	145,(0, 10),18	
