4091
# CPU
13,5,6	25,10,6	
10,4,6	22,9,6	
7,3,6	19,8,6	
4,2,6	16,7,6	
0,0,1	1,1,6	7,6,6	4090,11,1	
# Incoming
10,(0, 5),3	22,(0, 10),3	
7,(0, 4),3	19,(0, 9),3	
4,(0, 3),3	16,(0, 8),3	
1,(0, 2),3	13,(0, 7),3	
10,(2, 11),510	520,(3, 11),510	1030,(4, 11),510	1540,(5, 11),510	2050,(7, 11),510	2560,(8, 11),510	3070,(9, 11),510	3580,(10, 11),510	
# Outgoing
1540,(5, 11),510	3580,(10, 11),510	
1030,(4, 11),510	3070,(9, 11),510	
520,(3, 11),510	2560,(8, 11),510	
10,(2, 11),510	2050,(7, 11),510	
1,(0, 2),3	4,(0, 3),3	7,(0, 4),3	10,(0, 5),3	13,(0, 7),3	16,(0, 8),3	19,(0, 9),3	22,(0, 10),3	
