419
# CPU
0,121,1	1,120,8	9,75,8	17,73,8	25,72,8	33,70,8	41,69,8	49,67,8	57,66,8	65,65,8	73,63,8	81,61,8	89,60,8	97,59,8	105,57,8	113,56,8	121,55,8	129,52,8	137,51,8	145,50,8	153,48,8	161,47,8	169,46,8	177,44,8	185,42,8	193,41,8	201,105,8	209,104,8	217,106,8	225,103,8	233,107,8	241,102,8	249,108,8	257,109,8	265,101,8	273,110,8	281,45,8	289,111,8	297,112,8	305,17,8	313,16,8	321,14,8	329,13,8	337,12,8	345,11,8	353,10,8	361,1,8	369,2,8	377,3,8	385,4,8	393,5,8	401,7,8	409,118,8	418,0,1	
7,79,8	25,81,8	37,82,8	67,85,8	85,87,8	109,89,8	139,95,8	151,96,8	163,97,8	193,100,8	205,49,8	217,40,8	259,32,8	277,26,8	313,28,8	331,31,8	373,117,8	385,15,8	397,6,8	409,119,8	
19,80,8	79,86,8	97,88,8	115,90,8	169,98,8	229,38,8	253,33,8	271,27,8	289,23,8	301,21,8	325,29,8	349,115,8	361,116,8	379,9,8	403,18,8	
31,77,8	49,83,8	61,84,8	121,93,8	133,94,8	175,58,8	187,99,8	199,53,8	241,35,8	307,25,8	319,20,8	343,114,8	391,8,8	
13,78,8	43,76,8	55,74,8	73,71,8	91,68,8	103,64,8	127,92,8	145,91,8	157,62,8	181,54,8	211,43,8	223,39,8	235,36,8	247,34,8	265,30,8	283,24,8	295,22,8	337,19,8	355,113,8	367,37,8	
# Incoming
15,(79, 0),1	21,(78, 0),1	27,(80, 0),1	33,(81, 0),1	39,(77, 0),1	45,(82, 0),1	51,(76, 0),1	57,(83, 0),1	63,(74, 0),1	69,(84, 0),1	75,(85, 0),1	81,(71, 0),1	87,(86, 0),1	93,(87, 0),1	99,(68, 0),1	105,(88, 0),1	111,(64, 0),1	117,(89, 0),1	123,(90, 0),1	129,(93, 0),1	135,(92, 0),1	141,(94, 0),1	147,(95, 0),1	153,(91, 0),1	159,(96, 0),1	165,(62, 0),1	171,(97, 0),1	177,(98, 0),1	183,(58, 0),1	189,(54, 0),1	195,(99, 0),1	201,(100, 0),1	207,(53, 0),1	213,(49, 0),1	219,(43, 0),1	225,(40, 0),1	231,(39, 0),1	237,(38, 0),1	243,(36, 0),1	249,(35, 0),1	255,(34, 0),1	261,(33, 0),1	267,(32, 0),1	273,(30, 0),1	279,(27, 0),1	285,(26, 0),1	291,(24, 0),1	297,(23, 0),1	303,(22, 0),1	309,(21, 0),1	315,(25, 0),1	321,(28, 0),1	327,(20, 0),1	333,(29, 0),1	339,(31, 0),1	345,(19, 0),1	351,(114, 0),1	357,(115, 0),1	363,(113, 0),1	369,(116, 0),1	375,(37, 0),1	381,(117, 0),1	387,(9, 0),1	393,(15, 0),1	399,(8, 0),1	405,(6, 0),1	411,(18, 0),1	417,(119, 0),1	
1,(121, 79),6	19,(121, 81),6	31,(121, 82),6	61,(121, 85),6	79,(121, 87),6	103,(121, 89),6	133,(121, 95),6	145,(121, 96),6	157,(121, 97),6	187,(121, 100),6	199,(121, 49),6	211,(121, 40),6	253,(121, 32),6	271,(121, 26),6	307,(121, 28),6	325,(121, 31),6	367,(121, 117),6	379,(121, 15),6	391,(121, 6),6	403,(121, 119),6	
13,(121, 80),6	73,(121, 86),6	91,(121, 88),6	109,(121, 90),6	163,(121, 98),6	223,(121, 38),6	247,(121, 33),6	265,(121, 27),6	283,(121, 23),6	295,(121, 21),6	319,(121, 29),6	343,(121, 115),6	355,(121, 116),6	373,(121, 9),6	397,(121, 18),6	
25,(121, 77),6	43,(121, 83),6	55,(121, 84),6	115,(121, 93),6	127,(121, 94),6	169,(121, 58),6	181,(121, 99),6	193,(121, 53),6	235,(121, 35),6	301,(121, 25),6	313,(121, 20),6	337,(121, 114),6	385,(121, 8),6	
7,(121, 78),6	37,(121, 76),6	49,(121, 74),6	67,(121, 71),6	85,(121, 68),6	97,(121, 64),6	121,(121, 92),6	139,(121, 91),6	151,(121, 62),6	175,(121, 54),6	205,(121, 43),6	217,(121, 39),6	229,(121, 36),6	241,(121, 34),6	259,(121, 30),6	277,(121, 24),6	289,(121, 22),6	331,(121, 19),6	349,(121, 113),6	361,(121, 37),6	
# Outgoing
1,(121, 79),6	7,(121, 78),6	13,(121, 80),6	19,(121, 81),6	25,(121, 77),6	31,(121, 82),6	37,(121, 76),6	43,(121, 83),6	49,(121, 74),6	55,(121, 84),6	61,(121, 85),6	67,(121, 71),6	73,(121, 86),6	79,(121, 87),6	85,(121, 68),6	91,(121, 88),6	97,(121, 64),6	103,(121, 89),6	109,(121, 90),6	115,(121, 93),6	121,(121, 92),6	127,(121, 94),6	133,(121, 95),6	139,(121, 91),6	145,(121, 96),6	151,(121, 62),6	157,(121, 97),6	163,(121, 98),6	169,(121, 58),6	175,(121, 54),6	181,(121, 99),6	187,(121, 100),6	193,(121, 53),6	199,(121, 49),6	205,(121, 43),6	211,(121, 40),6	217,(121, 39),6	223,(121, 38),6	229,(121, 36),6	235,(121, 35),6	241,(121, 34),6	247,(121, 33),6	253,(121, 32),6	259,(121, 30),6	265,(121, 27),6	271,(121, 26),6	277,(121, 24),6	283,(121, 23),6	289,(121, 22),6	295,(121, 21),6	301,(121, 25),6	307,(121, 28),6	313,(121, 20),6	319,(121, 29),6	325,(121, 31),6	331,(121, 19),6	337,(121, 114),6	343,(121, 115),6	349,(121, 113),6	355,(121, 116),6	361,(121, 37),6	367,(121, 117),6	373,(121, 9),6	379,(121, 15),6	385,(121, 8),6	391,(121, 6),6	397,(121, 18),6	403,(121, 119),6	
15,(79, 0),1	33,(81, 0),1	45,(82, 0),1	75,(85, 0),1	93,(87, 0),1	117,(89, 0),1	147,(95, 0),1	159,(96, 0),1	171,(97, 0),1	201,(100, 0),1	213,(49, 0),1	225,(40, 0),1	267,(32, 0),1	285,(26, 0),1	321,(28, 0),1	339,(31, 0),1	381,(117, 0),1	393,(15, 0),1	405,(6, 0),1	417,(119, 0),1	
27,(80, 0),1	87,(86, 0),1	105,(88, 0),1	123,(90, 0),1	177,(98, 0),1	237,(38, 0),1	261,(33, 0),1	279,(27, 0),1	297,(23, 0),1	309,(21, 0),1	333,(29, 0),1	357,(115, 0),1	369,(116, 0),1	387,(9, 0),1	411,(18, 0),1	
39,(77, 0),1	57,(83, 0),1	69,(84, 0),1	129,(93, 0),1	141,(94, 0),1	183,(58, 0),1	195,(99, 0),1	207,(53, 0),1	249,(35, 0),1	315,(25, 0),1	327,(20, 0),1	351,(114, 0),1	399,(8, 0),1	
21,(78, 0),1	51,(76, 0),1	63,(74, 0),1	81,(71, 0),1	99,(68, 0),1	111,(64, 0),1	135,(92, 0),1	153,(91, 0),1	165,(62, 0),1	189,(54, 0),1	219,(43, 0),1	231,(39, 0),1	243,(36, 0),1	255,(34, 0),1	273,(30, 0),1	291,(24, 0),1	303,(22, 0),1	345,(19, 0),1	363,(113, 0),1	375,(37, 0),1	
