470
# CPU
0,121,1	1,120,4	5,75,4	9,76,4	13,74,4	17,73,4	21,72,4	25,77,4	29,71,4	33,78,4	37,70,4	41,79,4	45,69,4	49,68,4	53,67,4	57,80,4	61,66,4	65,81,4	69,65,4	73,82,4	77,64,4	81,63,4	85,62,4	89,83,4	93,61,4	97,84,4	101,60,4	105,85,4	109,59,4	113,58,4	117,57,4	121,86,4	125,56,4	129,87,4	133,55,4	137,54,4	141,53,4	145,52,4	149,88,4	153,51,4	157,89,4	161,50,4	165,90,4	169,49,4	173,48,4	177,47,4	181,92,4	185,46,4	189,93,4	193,45,4	197,94,4	201,44,4	205,43,4	209,42,4	213,95,4	217,41,4	221,104,4	225,103,4	229,105,4	233,102,4	237,101,4	241,100,4	245,106,4	249,99,4	253,98,4	257,107,4	261,97,4	265,96,4	269,40,4	273,108,4	277,39,4	281,38,4	285,36,4	289,109,4	293,35,4	297,34,4	301,33,4	305,110,4	309,32,4	313,31,4	317,30,4	321,111,4	325,29,4	329,28,4	333,27,4	337,112,4	341,26,4	345,17,4	349,16,4	353,18,4	357,15,4	361,19,4	365,14,4	369,13,4	373,20,4	377,12,4	381,21,4	385,11,4	389,22,4	393,10,4	397,23,4	401,9,4	405,1,4	409,2,4	413,3,4	417,4,4	421,5,4	425,6,4	429,7,4	433,8,4	437,25,4	441,113,4	445,114,4	449,115,4	453,116,4	457,117,4	461,118,4	465,119,4	469,0,1	







233,37,4	
117,91,4	349,24,4	
# Incoming
121,(91, 0),16	237,(37, 0),16	353,(24, 0),16	







117,(121, 37),116	
1,(121, 91),116	233,(121, 24),116	
# Outgoing
1,(121, 91),116	117,(121, 37),116	233,(121, 24),116	







237,(37, 0),16	
121,(91, 0),16	353,(24, 0),16	
