1446
# CPU
7,4,2	13,8,2	19,12,2	25,16,2	31,20,2	37,24,2	43,28,2	49,32,2	55,36,2	61,40,2	67,44,2	73,48,2	79,52,2	85,56,2	91,60,2	97,64,2	103,68,2	109,72,2	115,76,2	121,80,2	127,84,2	133,88,2	139,92,2	145,96,2	151,100,2	157,104,2	163,108,2	169,112,2	175,116,2	181,120,2	
5,3,2	11,7,2	17,11,2	23,15,2	29,19,2	35,23,2	41,27,2	47,31,2	53,35,2	59,39,2	65,43,2	71,47,2	77,51,2	83,55,2	89,59,2	95,63,2	101,67,2	107,71,2	113,75,2	119,79,2	125,83,2	131,87,2	137,91,2	143,95,2	149,99,2	155,103,2	161,107,2	167,111,2	173,115,2	179,119,2	
3,2,2	9,6,2	15,10,2	21,14,2	27,18,2	33,22,2	39,26,2	45,30,2	51,34,2	57,38,2	63,42,2	69,46,2	75,50,2	81,54,2	87,58,2	93,62,2	99,66,2	105,70,2	111,74,2	117,78,2	123,82,2	129,86,2	135,90,2	141,94,2	147,98,2	153,102,2	159,106,2	165,110,2	171,114,2	177,118,2	
0,0,1	1,1,2	3,9,2	5,25,2	7,57,2	9,117,2	11,113,2	13,109,2	15,105,2	17,101,2	19,97,2	21,93,2	23,89,2	25,85,2	27,81,2	29,77,2	31,73,2	33,69,2	35,65,2	37,53,2	39,61,2	41,49,2	43,45,2	45,41,2	47,37,2	49,33,2	51,21,2	53,29,2	55,17,2	57,5,2	59,13,2	1445,121,1	
# Incoming
5,(0, 4),2	11,(0, 8),2	17,(0, 12),2	23,(0, 16),2	29,(0, 20),2	35,(0, 24),2	41,(0, 28),2	47,(0, 32),2	53,(0, 36),2	59,(0, 40),2	65,(0, 44),2	71,(0, 48),2	77,(0, 52),2	83,(0, 56),2	89,(0, 60),2	95,(0, 64),2	101,(0, 68),2	107,(0, 72),2	113,(0, 76),2	119,(0, 80),2	125,(0, 84),2	131,(0, 88),2	137,(0, 92),2	143,(0, 96),2	149,(0, 100),2	155,(0, 104),2	161,(0, 108),2	167,(0, 112),2	173,(0, 116),2	179,(0, 120),2	
3,(0, 3),2	9,(0, 7),2	15,(0, 11),2	21,(0, 15),2	27,(0, 19),2	33,(0, 23),2	39,(0, 27),2	45,(0, 31),2	51,(0, 35),2	57,(0, 39),2	63,(0, 43),2	69,(0, 47),2	75,(0, 51),2	81,(0, 55),2	87,(0, 59),2	93,(0, 63),2	99,(0, 67),2	105,(0, 71),2	111,(0, 75),2	117,(0, 79),2	123,(0, 83),2	129,(0, 87),2	135,(0, 91),2	141,(0, 95),2	147,(0, 99),2	153,(0, 103),2	159,(0, 107),2	165,(0, 111),2	171,(0, 115),2	177,(0, 119),2	
1,(0, 2),2	7,(0, 6),2	13,(0, 10),2	19,(0, 14),2	25,(0, 18),2	31,(0, 22),2	37,(0, 26),2	43,(0, 30),2	49,(0, 34),2	55,(0, 38),2	61,(0, 42),2	67,(0, 46),2	73,(0, 50),2	79,(0, 54),2	85,(0, 58),2	91,(0, 62),2	97,(0, 66),2	103,(0, 70),2	109,(0, 74),2	115,(0, 78),2	121,(0, 82),2	127,(0, 86),2	133,(0, 90),2	139,(0, 94),2	145,(0, 98),2	151,(0, 102),2	157,(0, 106),2	163,(0, 110),2	169,(0, 114),2	175,(0, 118),2	
5,(2, 121),16	21,(3, 121),16	37,(4, 121),16	53,(6, 121),16	69,(7, 121),16	85,(8, 121),16	101,(10, 121),16	117,(11, 121),16	133,(12, 121),16	149,(14, 121),16	165,(15, 121),16	181,(16, 121),16	197,(18, 121),16	213,(19, 121),16	229,(20, 121),16	245,(22, 121),16	261,(23, 121),16	277,(24, 121),16	293,(26, 121),16	309,(27, 121),16	325,(28, 121),16	341,(30, 121),16	357,(31, 121),16	373,(32, 121),16	389,(34, 121),16	405,(35, 121),16	421,(36, 121),16	437,(38, 121),16	453,(39, 121),16	469,(40, 121),16	485,(42, 121),16	501,(43, 121),16	517,(44, 121),16	533,(46, 121),16	549,(47, 121),16	565,(48, 121),16	581,(50, 121),16	597,(51, 121),16	613,(52, 121),16	629,(54, 121),16	645,(55, 121),16	661,(56, 121),16	677,(58, 121),16	693,(59, 121),16	709,(60, 121),16	725,(62, 121),16	741,(63, 121),16	757,(64, 121),16	773,(66, 121),16	789,(67, 121),16	805,(68, 121),16	821,(70, 121),16	837,(71, 121),16	853,(72, 121),16	869,(74, 121),16	885,(75, 121),16	901,(76, 121),16	917,(78, 121),16	933,(79, 121),16	949,(80, 121),16	965,(82, 121),16	981,(83, 121),16	997,(84, 121),16	1013,(86, 121),16	1029,(87, 121),16	1045,(88, 121),16	1061,(90, 121),16	1077,(91, 121),16	1093,(92, 121),16	1109,(94, 121),16	1125,(95, 121),16	1141,(96, 121),16	1157,(98, 121),16	1173,(99, 121),16	1189,(100, 121),16	1205,(102, 121),16	1221,(103, 121),16	1237,(104, 121),16	1253,(106, 121),16	1269,(107, 121),16	1285,(108, 121),16	1301,(110, 121),16	1317,(111, 121),16	1333,(112, 121),16	1349,(114, 121),16	1365,(115, 121),16	1381,(116, 121),16	1397,(118, 121),16	1413,(119, 121),16	1429,(120, 121),16	
# Outgoing
37,(4, 121),16	85,(8, 121),16	133,(12, 121),16	181,(16, 121),16	229,(20, 121),16	277,(24, 121),16	325,(28, 121),16	373,(32, 121),16	421,(36, 121),16	469,(40, 121),16	517,(44, 121),16	565,(48, 121),16	613,(52, 121),16	661,(56, 121),16	709,(60, 121),16	757,(64, 121),16	805,(68, 121),16	853,(72, 121),16	901,(76, 121),16	949,(80, 121),16	997,(84, 121),16	1045,(88, 121),16	1093,(92, 121),16	1141,(96, 121),16	1189,(100, 121),16	1237,(104, 121),16	1285,(108, 121),16	1333,(112, 121),16	1381,(116, 121),16	1429,(120, 121),16	
21,(3, 121),16	69,(7, 121),16	117,(11, 121),16	165,(15, 121),16	213,(19, 121),16	261,(23, 121),16	309,(27, 121),16	357,(31, 121),16	405,(35, 121),16	453,(39, 121),16	501,(43, 121),16	549,(47, 121),16	597,(51, 121),16	645,(55, 121),16	693,(59, 121),16	741,(63, 121),16	789,(67, 121),16	837,(71, 121),16	885,(75, 121),16	933,(79, 121),16	981,(83, 121),16	1029,(87, 121),16	1077,(91, 121),16	1125,(95, 121),16	1173,(99, 121),16	1221,(103, 121),16	1269,(107, 121),16	1317,(111, 121),16	1365,(115, 121),16	1413,(119, 121),16	
5,(2, 121),16	53,(6, 121),16	101,(10, 121),16	149,(14, 121),16	197,(18, 121),16	245,(22, 121),16	293,(26, 121),16	341,(30, 121),16	389,(34, 121),16	437,(38, 121),16	485,(42, 121),16	533,(46, 121),16	581,(50, 121),16	629,(54, 121),16	677,(58, 121),16	725,(62, 121),16	773,(66, 121),16	821,(70, 121),16	869,(74, 121),16	917,(78, 121),16	965,(82, 121),16	1013,(86, 121),16	1061,(90, 121),16	1109,(94, 121),16	1157,(98, 121),16	1205,(102, 121),16	1253,(106, 121),16	1301,(110, 121),16	1349,(114, 121),16	1397,(118, 121),16	
1,(0, 2),2	3,(0, 3),2	5,(0, 4),2	7,(0, 6),2	9,(0, 7),2	11,(0, 8),2	13,(0, 10),2	15,(0, 11),2	17,(0, 12),2	19,(0, 14),2	21,(0, 15),2	23,(0, 16),2	25,(0, 18),2	27,(0, 19),2	29,(0, 20),2	31,(0, 22),2	33,(0, 23),2	35,(0, 24),2	37,(0, 26),2	39,(0, 27),2	41,(0, 28),2	43,(0, 30),2	45,(0, 31),2	47,(0, 32),2	49,(0, 34),2	51,(0, 35),2	53,(0, 36),2	55,(0, 38),2	57,(0, 39),2	59,(0, 40),2	61,(0, 42),2	63,(0, 43),2	65,(0, 44),2	67,(0, 46),2	69,(0, 47),2	71,(0, 48),2	73,(0, 50),2	75,(0, 51),2	77,(0, 52),2	79,(0, 54),2	81,(0, 55),2	83,(0, 56),2	85,(0, 58),2	87,(0, 59),2	89,(0, 60),2	91,(0, 62),2	93,(0, 63),2	95,(0, 64),2	97,(0, 66),2	99,(0, 67),2	101,(0, 68),2	103,(0, 70),2	105,(0, 71),2	107,(0, 72),2	109,(0, 74),2	111,(0, 75),2	113,(0, 76),2	115,(0, 78),2	117,(0, 79),2	119,(0, 80),2	121,(0, 82),2	123,(0, 83),2	125,(0, 84),2	127,(0, 86),2	129,(0, 87),2	131,(0, 88),2	133,(0, 90),2	135,(0, 91),2	137,(0, 92),2	139,(0, 94),2	141,(0, 95),2	143,(0, 96),2	145,(0, 98),2	147,(0, 99),2	149,(0, 100),2	151,(0, 102),2	153,(0, 103),2	155,(0, 104),2	157,(0, 106),2	159,(0, 107),2	161,(0, 108),2	163,(0, 110),2	165,(0, 111),2	167,(0, 112),2	169,(0, 114),2	171,(0, 115),2	173,(0, 116),2	175,(0, 118),2	177,(0, 119),2	179,(0, 120),2	
