1305
# CPU
109,10,4	217,20,4	325,30,4	433,40,4	541,50,4	649,60,4	757,70,4	865,80,4	973,90,4	1081,100,4	1189,110,4	1297,120,4	
97,9,4	205,19,4	313,29,4	421,39,4	529,49,4	637,59,4	745,69,4	853,79,4	961,89,4	1069,99,4	1177,109,4	1285,119,4	
85,8,4	193,18,4	301,28,4	409,38,4	517,48,4	625,58,4	733,68,4	841,78,4	949,88,4	1057,98,4	1165,108,4	1273,118,4	
73,7,4	181,17,4	289,27,4	397,37,4	505,47,4	613,57,4	721,67,4	829,77,4	937,87,4	1045,97,4	1153,107,4	1261,117,4	
61,6,4	169,16,4	277,26,4	385,36,4	493,46,4	601,56,4	709,66,4	817,76,4	925,86,4	1033,96,4	1141,106,4	1249,116,4	
49,5,4	157,15,4	265,25,4	373,35,4	481,45,4	589,55,4	697,65,4	805,75,4	913,85,4	1021,95,4	1129,105,4	1237,115,4	
37,4,4	145,14,4	253,24,4	361,34,4	469,44,4	577,54,4	685,64,4	793,74,4	901,84,4	1009,94,4	1117,104,4	1225,114,4	
25,3,4	133,13,4	241,23,4	349,33,4	457,43,4	565,53,4	673,63,4	781,73,4	889,83,4	997,93,4	1105,103,4	1213,113,4	
13,2,4	121,12,4	229,22,4	337,32,4	445,42,4	553,52,4	661,62,4	769,72,4	877,82,4	985,92,4	1093,102,4	1201,112,4	
0,0,1	1,1,4	5,21,4	9,61,4	13,111,4	17,101,4	21,91,4	25,81,4	29,51,4	33,71,4	37,41,4	41,11,4	45,31,4	1304,121,1	
# Incoming
97,(0, 10),12	205,(0, 20),12	313,(0, 30),12	421,(0, 40),12	529,(0, 50),12	637,(0, 60),12	745,(0, 70),12	853,(0, 80),12	961,(0, 90),12	1069,(0, 100),12	1177,(0, 110),12	1285,(0, 120),12	
85,(0, 9),12	193,(0, 19),12	301,(0, 29),12	409,(0, 39),12	517,(0, 49),12	625,(0, 59),12	733,(0, 69),12	841,(0, 79),12	949,(0, 89),12	1057,(0, 99),12	1165,(0, 109),12	1273,(0, 119),12	
73,(0, 8),12	181,(0, 18),12	289,(0, 28),12	397,(0, 38),12	505,(0, 48),12	613,(0, 58),12	721,(0, 68),12	829,(0, 78),12	937,(0, 88),12	1045,(0, 98),12	1153,(0, 108),12	1261,(0, 118),12	
61,(0, 7),12	169,(0, 17),12	277,(0, 27),12	385,(0, 37),12	493,(0, 47),12	601,(0, 57),12	709,(0, 67),12	817,(0, 77),12	925,(0, 87),12	1033,(0, 97),12	1141,(0, 107),12	1249,(0, 117),12	
49,(0, 6),12	157,(0, 16),12	265,(0, 26),12	373,(0, 36),12	481,(0, 46),12	589,(0, 56),12	697,(0, 66),12	805,(0, 76),12	913,(0, 86),12	1021,(0, 96),12	1129,(0, 106),12	1237,(0, 116),12	
37,(0, 5),12	145,(0, 15),12	253,(0, 25),12	361,(0, 35),12	469,(0, 45),12	577,(0, 55),12	685,(0, 65),12	793,(0, 75),12	901,(0, 85),12	1009,(0, 95),12	1117,(0, 105),12	1225,(0, 115),12	
25,(0, 4),12	133,(0, 14),12	241,(0, 24),12	349,(0, 34),12	457,(0, 44),12	565,(0, 54),12	673,(0, 64),12	781,(0, 74),12	889,(0, 84),12	997,(0, 94),12	1105,(0, 104),12	1213,(0, 114),12	
13,(0, 3),12	121,(0, 13),12	229,(0, 23),12	337,(0, 33),12	445,(0, 43),12	553,(0, 53),12	661,(0, 63),12	769,(0, 73),12	877,(0, 83),12	985,(0, 93),12	1093,(0, 103),12	1201,(0, 113),12	
1,(0, 2),12	109,(0, 12),12	217,(0, 22),12	325,(0, 32),12	433,(0, 42),12	541,(0, 52),12	649,(0, 62),12	757,(0, 72),12	865,(0, 82),12	973,(0, 92),12	1081,(0, 102),12	1189,(0, 112),12	
17,(2, 121),3	29,(3, 121),3	41,(4, 121),3	53,(5, 121),3	65,(6, 121),3	77,(7, 121),3	89,(8, 121),3	101,(9, 121),3	113,(10, 121),3	125,(12, 121),3	137,(13, 121),3	149,(14, 121),3	161,(15, 121),3	173,(16, 121),3	185,(17, 121),3	197,(18, 121),3	209,(19, 121),3	221,(20, 121),3	233,(22, 121),3	245,(23, 121),3	257,(24, 121),3	269,(25, 121),3	281,(26, 121),3	293,(27, 121),3	305,(28, 121),3	317,(29, 121),3	329,(30, 121),3	341,(32, 121),3	353,(33, 121),3	365,(34, 121),3	377,(35, 121),3	389,(36, 121),3	401,(37, 121),3	413,(38, 121),3	425,(39, 121),3	437,(40, 121),3	449,(42, 121),3	461,(43, 121),3	473,(44, 121),3	485,(45, 121),3	497,(46, 121),3	509,(47, 121),3	521,(48, 121),3	533,(49, 121),3	545,(50, 121),3	557,(52, 121),3	569,(53, 121),3	581,(54, 121),3	593,(55, 121),3	605,(56, 121),3	617,(57, 121),3	629,(58, 121),3	641,(59, 121),3	653,(60, 121),3	665,(62, 121),3	677,(63, 121),3	689,(64, 121),3	701,(65, 121),3	713,(66, 121),3	725,(67, 121),3	737,(68, 121),3	749,(69, 121),3	761,(70, 121),3	773,(72, 121),3	785,(73, 121),3	797,(74, 121),3	809,(75, 121),3	821,(76, 121),3	833,(77, 121),3	845,(78, 121),3	857,(79, 121),3	869,(80, 121),3	881,(82, 121),3	893,(83, 121),3	905,(84, 121),3	917,(85, 121),3	929,(86, 121),3	941,(87, 121),3	953,(88, 121),3	965,(89, 121),3	977,(90, 121),3	989,(92, 121),3	1001,(93, 121),3	1013,(94, 121),3	1025,(95, 121),3	1037,(96, 121),3	1049,(97, 121),3	1061,(98, 121),3	1073,(99, 121),3	1085,(100, 121),3	1097,(102, 121),3	1109,(103, 121),3	1121,(104, 121),3	1133,(105, 121),3	1145,(106, 121),3	1157,(107, 121),3	1169,(108, 121),3	1181,(109, 121),3	1193,(110, 121),3	1205,(112, 121),3	1217,(113, 121),3	1229,(114, 121),3	1241,(115, 121),3	1253,(116, 121),3	1265,(117, 121),3	1277,(118, 121),3	1289,(119, 121),3	1301,(120, 121),3	
# Outgoing
113,(10, 121),3	221,(20, 121),3	329,(30, 121),3	437,(40, 121),3	545,(50, 121),3	653,(60, 121),3	761,(70, 121),3	869,(80, 121),3	977,(90, 121),3	1085,(100, 121),3	1193,(110, 121),3	1301,(120, 121),3	
101,(9, 121),3	209,(19, 121),3	317,(29, 121),3	425,(39, 121),3	533,(49, 121),3	641,(59, 121),3	749,(69, 121),3	857,(79, 121),3	965,(89, 121),3	1073,(99, 121),3	1181,(109, 121),3	1289,(119, 121),3	
89,(8, 121),3	197,(18, 121),3	305,(28, 121),3	413,(38, 121),3	521,(48, 121),3	629,(58, 121),3	737,(68, 121),3	845,(78, 121),3	953,(88, 121),3	1061,(98, 121),3	1169,(108, 121),3	1277,(118, 121),3	
77,(7, 121),3	185,(17, 121),3	293,(27, 121),3	401,(37, 121),3	509,(47, 121),3	617,(57, 121),3	725,(67, 121),3	833,(77, 121),3	941,(87, 121),3	1049,(97, 121),3	1157,(107, 121),3	1265,(117, 121),3	
65,(6, 121),3	173,(16, 121),3	281,(26, 121),3	389,(36, 121),3	497,(46, 121),3	605,(56, 121),3	713,(66, 121),3	821,(76, 121),3	929,(86, 121),3	1037,(96, 121),3	1145,(106, 121),3	1253,(116, 121),3	
53,(5, 121),3	161,(15, 121),3	269,(25, 121),3	377,(35, 121),3	485,(45, 121),3	593,(55, 121),3	701,(65, 121),3	809,(75, 121),3	917,(85, 121),3	1025,(95, 121),3	1133,(105, 121),3	1241,(115, 121),3	
41,(4, 121),3	149,(14, 121),3	257,(24, 121),3	365,(34, 121),3	473,(44, 121),3	581,(54, 121),3	689,(64, 121),3	797,(74, 121),3	905,(84, 121),3	1013,(94, 121),3	1121,(104, 121),3	1229,(114, 121),3	
29,(3, 121),3	137,(13, 121),3	245,(23, 121),3	353,(33, 121),3	461,(43, 121),3	569,(53, 121),3	677,(63, 121),3	785,(73, 121),3	893,(83, 121),3	1001,(93, 121),3	1109,(103, 121),3	1217,(113, 121),3	
17,(2, 121),3	125,(12, 121),3	233,(22, 121),3	341,(32, 121),3	449,(42, 121),3	557,(52, 121),3	665,(62, 121),3	773,(72, 121),3	881,(82, 121),3	989,(92, 121),3	1097,(102, 121),3	1205,(112, 121),3	
1,(0, 2),12	13,(0, 3),12	25,(0, 4),12	37,(0, 5),12	49,(0, 6),12	61,(0, 7),12	73,(0, 8),12	85,(0, 9),12	97,(0, 10),12	109,(0, 12),12	121,(0, 13),12	133,(0, 14),12	145,(0, 15),12	157,(0, 16),12	169,(0, 17),12	181,(0, 18),12	193,(0, 19),12	205,(0, 20),12	217,(0, 22),12	229,(0, 23),12	241,(0, 24),12	253,(0, 25),12	265,(0, 26),12	277,(0, 27),12	289,(0, 28),12	301,(0, 29),12	313,(0, 30),12	325,(0, 32),12	337,(0, 33),12	349,(0, 34),12	361,(0, 35),12	373,(0, 36),12	385,(0, 37),12	397,(0, 38),12	409,(0, 39),12	421,(0, 40),12	433,(0, 42),12	445,(0, 43),12	457,(0, 44),12	469,(0, 45),12	481,(0, 46),12	493,(0, 47),12	505,(0, 48),12	517,(0, 49),12	529,(0, 50),12	541,(0, 52),12	553,(0, 53),12	565,(0, 54),12	577,(0, 55),12	589,(0, 56),12	601,(0, 57),12	613,(0, 58),12	625,(0, 59),12	637,(0, 60),12	649,(0, 62),12	661,(0, 63),12	673,(0, 64),12	685,(0, 65),12	697,(0, 66),12	709,(0, 67),12	721,(0, 68),12	733,(0, 69),12	745,(0, 70),12	757,(0, 72),12	769,(0, 73),12	781,(0, 74),12	793,(0, 75),12	805,(0, 76),12	817,(0, 77),12	829,(0, 78),12	841,(0, 79),12	853,(0, 80),12	865,(0, 82),12	877,(0, 83),12	889,(0, 84),12	901,(0, 85),12	913,(0, 86),12	925,(0, 87),12	937,(0, 88),12	949,(0, 89),12	961,(0, 90),12	973,(0, 92),12	985,(0, 93),12	997,(0, 94),12	1009,(0, 95),12	1021,(0, 96),12	1033,(0, 97),12	1045,(0, 98),12	1057,(0, 99),12	1069,(0, 100),12	1081,(0, 102),12	1093,(0, 103),12	1105,(0, 104),12	1117,(0, 105),12	1129,(0, 106),12	1141,(0, 107),12	1153,(0, 108),12	1165,(0, 109),12	1177,(0, 110),12	1189,(0, 112),12	1201,(0, 113),12	1213,(0, 114),12	1225,(0, 115),12	1237,(0, 116),12	1249,(0, 117),12	1261,(0, 118),12	1273,(0, 119),12	1285,(0, 120),12	
