153
# CPU
0,161,1	1,111,1	2,110,1	3,112,1	4,109,1	5,108,1	6,107,1	7,113,1	8,106,1	9,114,1	10,105,1	11,115,1	12,104,1	13,103,1	14,102,1	15,116,1	16,101,1	17,93,1	18,130,1	19,100,1	20,99,1	21,98,1	22,117,1	23,97,1	24,118,1	25,95,1	26,119,1	27,94,1	28,92,1	29,91,1	30,120,1	31,90,1	32,81,1	33,29,1	34,56,1	35,80,1	36,79,1	37,82,1	38,78,1	39,83,1	40,77,1	41,84,1	42,76,1	43,75,1	44,74,1	45,85,1	46,73,1	47,87,1	48,72,1	49,46,1	50,43,1	51,71,1	52,88,1	53,70,1	54,89,1	55,69,1	56,121,1	57,68,1	58,67,1	59,66,1	60,122,1	61,65,1	62,123,1	63,64,1	64,125,1	65,39,1	66,59,1	67,63,1	68,62,1	69,126,1	70,61,1	71,127,1	72,60,1	73,58,1	74,57,1	75,128,1	76,55,1	77,131,1	78,54,1	79,132,1	80,53,1	81,148,1	82,30,1	83,51,1	84,52,1	85,50,1	86,133,1	87,49,1	88,48,1	89,47,1	90,134,1	91,45,1	92,144,1	93,143,1	94,145,1	95,142,1	96,141,1	97,151,1	98,23,1	99,140,1	100,139,1	101,146,1	102,138,1	103,137,1	104,136,1	105,147,1	106,42,1	107,41,1	108,40,1	109,149,1	110,38,1	111,37,1	112,36,1	113,9,1	114,150,1	115,35,1	116,152,1	117,34,1	118,33,1	119,32,1	120,153,1	121,28,1	122,18,1	123,17,1	124,19,1	125,16,1	126,20,1	127,15,1	128,21,1	129,159,1	130,156,1	131,13,1	132,12,1	133,14,1	134,11,1	135,22,1	136,10,1	137,1,1	138,2,1	139,3,1	140,4,1	141,5,1	142,6,1	143,7,1	144,8,1	145,24,1	146,25,1	147,27,1	148,154,1	149,155,1	150,157,1	151,160,1	152,0,1	
97,44,1	

145,158,1	
49,124,1	81,135,1	

129,26,1	
33,86,1	
65,129,1	
17,96,1	113,31,1	
# Incoming
18,(96, 0),1	34,(86, 0),1	50,(124, 0),1	66,(129, 0),1	82,(135, 0),1	98,(44, 0),1	114,(31, 0),1	130,(26, 0),1	146,(158, 0),1	
81,(161, 44),16	

129,(161, 158),16	
33,(161, 124),16	65,(161, 135),16	

113,(161, 26),16	
17,(161, 86),16	
49,(161, 129),16	
1,(161, 96),16	97,(161, 31),16	
# Outgoing
1,(161, 96),16	17,(161, 86),16	33,(161, 124),16	49,(161, 129),16	65,(161, 135),16	81,(161, 44),16	97,(161, 31),16	113,(161, 26),16	129,(161, 158),16	
98,(44, 0),1	

146,(158, 0),1	
50,(124, 0),1	82,(135, 0),1	

130,(26, 0),1	
34,(86, 0),1	
66,(129, 0),1	
18,(96, 0),1	114,(31, 0),1	
