381
# CPU
154,4,19	307,8,19	
103,3,19	256,7,19	
52,2,19	205,6,19	358,10,19	
0,0,1	1,1,19	20,5,19	39,9,19	380,11,1	
# Incoming
103,(0, 4),51	256,(0, 8),51	
52,(0, 3),51	205,(0, 7),51	
1,(0, 2),51	154,(0, 6),51	307,(0, 10),51	
71,(2, 11),3	122,(3, 11),3	173,(4, 11),3	224,(6, 11),3	275,(7, 11),3	326,(8, 11),3	377,(10, 11),3	
# Outgoing
173,(4, 11),3	326,(8, 11),3	
122,(3, 11),3	275,(7, 11),3	
71,(2, 11),3	224,(6, 11),3	377,(10, 11),3	
1,(0, 2),51	52,(0, 3),51	103,(0, 4),51	154,(0, 6),51	205,(0, 7),51	256,(0, 8),51	307,(0, 10),51	
