83
# CPU
0,121,1	1,120,1	2,75,1	3,76,1	4,74,1	5,73,1	6,72,1	7,71,1	8,70,1	9,77,1	10,68,1	11,67,1	12,66,1	13,69,1	14,65,1	15,64,1	16,62,1	17,63,1	18,61,1	19,60,1	20,59,1	21,58,1	22,57,1	23,56,1	24,55,1	25,78,1	26,53,1	27,52,1	28,51,1	29,54,1	30,50,1	31,49,1	32,47,1	33,48,1	34,46,1	35,45,1	36,44,1	37,43,1	38,42,1	39,41,1	40,104,1	41,105,1	42,103,1	43,102,1	44,106,1	45,101,1	46,107,1	47,92,1	48,90,1	49,108,1	50,40,1	51,38,1	52,109,1	53,37,1	54,110,1	55,35,1	56,33,1	57,111,1	58,31,1	59,29,1	60,112,1	61,17,1	62,16,1	63,15,1	64,14,1	65,18,1	66,13,1	67,12,1	68,11,1	69,19,1	70,10,1	71,9,1	72,1,1	73,2,1	74,3,1	75,4,1	76,5,1	77,6,1	78,7,1	79,8,1	80,117,1	81,118,1	82,0,1	
31,97,1	35,99,1	37,100,1	39,91,1	41,79,1	43,39,1	53,26,1	55,24,1	69,116,1	73,28,1	77,20,1	79,119,1	
3,80,1	5,81,1	7,82,1	13,85,1	15,86,1	23,93,1	27,95,1	29,96,1	33,98,1	57,22,1	59,21,1	61,23,1	63,25,1	67,115,1	75,113,1	
9,83,1	11,84,1	17,87,1	19,88,1	21,89,1	25,94,1	45,36,1	47,34,1	49,32,1	51,30,1	65,27,1	71,114,1	
# Incoming
4,(80, 0),2	6,(81, 0),2	8,(82, 0),2	10,(83, 0),2	12,(84, 0),2	14,(85, 0),2	16,(86, 0),2	18,(87, 0),2	20,(88, 0),2	22,(89, 0),2	24,(93, 0),2	26,(94, 0),2	28,(95, 0),2	30,(96, 0),2	32,(97, 0),2	34,(98, 0),2	36,(99, 0),2	38,(100, 0),2	40,(91, 0),2	42,(79, 0),2	44,(39, 0),2	46,(36, 0),2	48,(34, 0),2	50,(32, 0),2	52,(30, 0),2	54,(26, 0),2	56,(24, 0),2	58,(22, 0),2	60,(21, 0),2	62,(23, 0),2	64,(25, 0),2	66,(27, 0),2	68,(115, 0),2	70,(116, 0),2	72,(114, 0),2	74,(28, 0),2	76,(113, 0),2	78,(20, 0),2	80,(119, 0),2	
29,(121, 97),2	33,(121, 99),2	35,(121, 100),2	37,(121, 91),2	39,(121, 79),2	41,(121, 39),2	51,(121, 26),2	53,(121, 24),2	67,(121, 116),2	71,(121, 28),2	75,(121, 20),2	77,(121, 119),2	
1,(121, 80),2	3,(121, 81),2	5,(121, 82),2	11,(121, 85),2	13,(121, 86),2	21,(121, 93),2	25,(121, 95),2	27,(121, 96),2	31,(121, 98),2	55,(121, 22),2	57,(121, 21),2	59,(121, 23),2	61,(121, 25),2	65,(121, 115),2	73,(121, 113),2	
7,(121, 83),2	9,(121, 84),2	15,(121, 87),2	17,(121, 88),2	19,(121, 89),2	23,(121, 94),2	43,(121, 36),2	45,(121, 34),2	47,(121, 32),2	49,(121, 30),2	63,(121, 27),2	69,(121, 114),2	
# Outgoing
1,(121, 80),2	3,(121, 81),2	5,(121, 82),2	7,(121, 83),2	9,(121, 84),2	11,(121, 85),2	13,(121, 86),2	15,(121, 87),2	17,(121, 88),2	19,(121, 89),2	21,(121, 93),2	23,(121, 94),2	25,(121, 95),2	27,(121, 96),2	29,(121, 97),2	31,(121, 98),2	33,(121, 99),2	35,(121, 100),2	37,(121, 91),2	39,(121, 79),2	41,(121, 39),2	43,(121, 36),2	45,(121, 34),2	47,(121, 32),2	49,(121, 30),2	51,(121, 26),2	53,(121, 24),2	55,(121, 22),2	57,(121, 21),2	59,(121, 23),2	61,(121, 25),2	63,(121, 27),2	65,(121, 115),2	67,(121, 116),2	69,(121, 114),2	71,(121, 28),2	73,(121, 113),2	75,(121, 20),2	77,(121, 119),2	
32,(97, 0),2	36,(99, 0),2	38,(100, 0),2	40,(91, 0),2	42,(79, 0),2	44,(39, 0),2	54,(26, 0),2	56,(24, 0),2	70,(116, 0),2	74,(28, 0),2	78,(20, 0),2	80,(119, 0),2	
4,(80, 0),2	6,(81, 0),2	8,(82, 0),2	14,(85, 0),2	16,(86, 0),2	24,(93, 0),2	28,(95, 0),2	30,(96, 0),2	34,(98, 0),2	58,(22, 0),2	60,(21, 0),2	62,(23, 0),2	64,(25, 0),2	68,(115, 0),2	76,(113, 0),2	
10,(83, 0),2	12,(84, 0),2	18,(87, 0),2	20,(88, 0),2	22,(89, 0),2	26,(94, 0),2	46,(36, 0),2	48,(34, 0),2	50,(32, 0),2	52,(30, 0),2	66,(27, 0),2	72,(114, 0),2	
