1546
# CPU
0,161,1	1,111,12	13,110,12	25,112,12	37,109,12	49,108,12	61,113,12	73,107,12	85,114,12	97,115,12	109,106,12	121,105,12	133,87,12	145,134,12	157,103,12	169,102,12	181,116,12	193,100,12	205,99,12	217,117,12	229,118,12	241,97,12	253,119,12	265,130,12	277,131,12	289,94,12	301,92,12	313,80,12	325,81,12	337,79,12	349,78,12	361,77,12	373,76,12	385,82,12	397,146,12	409,133,12	421,73,12	433,72,12	445,71,12	457,74,12	469,70,12	481,75,12	493,68,12	505,67,12	517,69,12	529,50,12	541,35,12	553,83,12	565,66,12	577,64,12	589,65,12	601,63,12	613,84,12	625,62,12	637,61,12	649,60,12	661,57,12	673,37,12	685,91,12	697,59,12	709,58,12	721,56,12	733,55,12	745,95,12	757,54,12	769,53,12	781,122,12	793,6,12	805,145,12	817,51,12	829,49,12	841,48,12	853,52,12	865,47,12	877,46,12	889,45,12	901,44,12	913,143,12	925,148,12	937,140,12	949,142,12	961,141,12	973,144,12	985,139,12	997,138,12	1009,147,12	1021,136,12	1033,125,12	1045,149,12	1057,8,12	1069,1,12	1081,150,12	1093,42,12	1105,41,12	1117,151,12	1129,40,12	1141,39,12	1153,152,12	1165,36,12	1177,33,12	1189,158,12	1201,2,12	1213,21,12	1225,20,12	1237,19,12	1249,22,12	1261,18,12	1273,23,12	1285,17,12	1297,16,12	1309,24,12	1321,12,12	1333,10,12	1345,25,12	1357,15,12	1369,3,12	1381,4,12	1393,5,12	1405,7,12	1417,9,12	1429,11,12	1441,13,12	1453,28,12	1465,14,12	1477,30,12	1489,156,12	1501,157,12	1545,0,1	
221,93,12	309,86,12	793,135,12	881,137,12	969,43,12	1365,155,12	1497,160,12	

89,101,12	573,123,12	1277,31,12	
177,96,12	397,90,12	485,120,12	1189,26,12	
661,126,12	749,129,12	837,132,12	1057,34,12	
45,104,12	265,89,12	1145,29,12	1453,159,12	
353,88,12	441,85,12	925,128,12	1233,27,12	
1013,38,12	1101,32,12	1321,153,12	1409,154,12	
133,98,12	529,121,12	617,124,12	705,127,12	
# Incoming
57,(104, 0),36	101,(101, 0),36	145,(98, 0),36	189,(96, 0),36	233,(93, 0),36	277,(89, 0),36	321,(86, 0),36	365,(88, 0),36	409,(90, 0),36	453,(85, 0),36	497,(120, 0),36	541,(121, 0),36	585,(123, 0),36	629,(124, 0),36	673,(126, 0),36	717,(127, 0),36	761,(129, 0),36	805,(135, 0),36	849,(132, 0),36	893,(137, 0),36	937,(128, 0),36	981,(43, 0),36	1025,(38, 0),36	1069,(34, 0),36	1113,(32, 0),36	1157,(29, 0),36	1201,(26, 0),36	1245,(27, 0),36	1289,(31, 0),36	1333,(153, 0),36	1377,(155, 0),36	1421,(154, 0),36	1465,(159, 0),36	1509,(160, 0),36	
177,(161, 93),44	265,(161, 86),44	749,(161, 135),44	837,(161, 137),44	925,(161, 43),44	1321,(161, 155),44	1453,(161, 160),44	

45,(161, 101),44	529,(161, 123),44	1233,(161, 31),44	
133,(161, 96),44	353,(161, 90),44	441,(161, 120),44	1145,(161, 26),44	
617,(161, 126),44	705,(161, 129),44	793,(161, 132),44	1013,(161, 34),44	
1,(161, 104),44	221,(161, 89),44	1101,(161, 29),44	1409,(161, 159),44	
309,(161, 88),44	397,(161, 85),44	881,(161, 128),44	1189,(161, 27),44	
969,(161, 38),44	1057,(161, 32),44	1277,(161, 153),44	1365,(161, 154),44	
89,(161, 98),44	485,(161, 121),44	573,(161, 124),44	661,(161, 127),44	
# Outgoing
1,(161, 104),44	45,(161, 101),44	89,(161, 98),44	133,(161, 96),44	177,(161, 93),44	221,(161, 89),44	265,(161, 86),44	309,(161, 88),44	353,(161, 90),44	397,(161, 85),44	441,(161, 120),44	485,(161, 121),44	529,(161, 123),44	573,(161, 124),44	617,(161, 126),44	661,(161, 127),44	705,(161, 129),44	749,(161, 135),44	793,(161, 132),44	837,(161, 137),44	881,(161, 128),44	925,(161, 43),44	969,(161, 38),44	1013,(161, 34),44	1057,(161, 32),44	1101,(161, 29),44	1145,(161, 26),44	1189,(161, 27),44	1233,(161, 31),44	1277,(161, 153),44	1321,(161, 155),44	1365,(161, 154),44	1409,(161, 159),44	1453,(161, 160),44	
233,(93, 0),36	321,(86, 0),36	805,(135, 0),36	893,(137, 0),36	981,(43, 0),36	1377,(155, 0),36	1509,(160, 0),36	

101,(101, 0),36	585,(123, 0),36	1289,(31, 0),36	
189,(96, 0),36	409,(90, 0),36	497,(120, 0),36	1201,(26, 0),36	
673,(126, 0),36	761,(129, 0),36	849,(132, 0),36	1069,(34, 0),36	
57,(104, 0),36	277,(89, 0),36	1157,(29, 0),36	1465,(159, 0),36	
365,(88, 0),36	453,(85, 0),36	937,(128, 0),36	1245,(27, 0),36	
1025,(38, 0),36	1113,(32, 0),36	1333,(153, 0),36	1421,(154, 0),36	
145,(98, 0),36	541,(121, 0),36	629,(124, 0),36	717,(127, 0),36	
