390
# CPU
0,0,1	1,76,4	5,75,4	9,77,4	13,74,4	17,86,4	21,96,4	25,71,4	29,72,4	33,95,4	37,37,4	41,69,4	45,68,4	49,33,4	53,101,4	57,67,4	61,70,4	65,93,4	69,41,4	73,65,4	77,64,4	81,107,4	85,102,4	89,62,4	93,61,4	97,36,4	101,39,4	105,63,4	109,60,4	113,44,4	117,34,4	121,59,4	125,66,4	129,109,4	133,27,4	137,58,4	141,57,4	145,104,4	149,30,4	153,55,4	157,56,4	161,88,4	165,29,4	169,53,4	173,52,4	177,35,4	181,26,4	185,100,4	189,103,4	193,16,4	197,25,4	201,105,4	205,99,4	209,110,4	213,38,4	217,98,4	221,97,4	225,13,4	229,111,4	233,94,4	237,91,4	241,14,4	245,28,4	249,106,4	253,108,4	257,113,4	261,1,4	265,73,4	269,50,4	273,18,4	277,23,4	281,112,4	285,22,4	289,17,4	293,2,4	297,24,4	301,21,4	305,116,4	309,11,4	313,20,4	317,31,4	321,118,4	325,8,4	329,19,4	333,15,4	337,3,4	341,4,4	345,5,4	349,6,4	353,12,4	357,9,4	361,7,4	365,10,4	369,32,4	373,47,4	377,48,4	381,119,4	385,120,4	389,121,1	
97,83,4	145,87,4	161,89,4	241,49,4	273,45,4	
17,80,4	33,79,4	81,82,4	193,92,4	337,115,4	
65,78,4	129,85,4	177,90,4	225,51,4	257,46,4	305,42,4	321,43,4	353,117,4	369,114,4	
49,81,4	113,84,4	209,54,4	289,40,4	
# Incoming
21,(80, 121),4	37,(79, 121),4	53,(81, 121),4	69,(78, 121),4	85,(82, 121),4	101,(83, 121),4	117,(84, 121),4	133,(85, 121),4	149,(87, 121),4	165,(89, 121),4	181,(90, 121),4	197,(92, 121),4	213,(54, 121),4	229,(51, 121),4	245,(49, 121),4	261,(46, 121),4	277,(45, 121),4	293,(40, 121),4	309,(42, 121),4	325,(43, 121),4	341,(115, 121),4	357,(117, 121),4	373,(114, 121),4	
81,(0, 83),16	129,(0, 87),16	145,(0, 89),16	225,(0, 49),16	257,(0, 45),16	
1,(0, 80),16	17,(0, 79),16	65,(0, 82),16	177,(0, 92),16	321,(0, 115),16	
49,(0, 78),16	113,(0, 85),16	161,(0, 90),16	209,(0, 51),16	241,(0, 46),16	289,(0, 42),16	305,(0, 43),16	337,(0, 117),16	353,(0, 114),16	
33,(0, 81),16	97,(0, 84),16	193,(0, 54),16	273,(0, 40),16	
# Outgoing
1,(0, 80),16	17,(0, 79),16	33,(0, 81),16	49,(0, 78),16	65,(0, 82),16	81,(0, 83),16	97,(0, 84),16	113,(0, 85),16	129,(0, 87),16	145,(0, 89),16	161,(0, 90),16	177,(0, 92),16	193,(0, 54),16	209,(0, 51),16	225,(0, 49),16	241,(0, 46),16	257,(0, 45),16	273,(0, 40),16	289,(0, 42),16	305,(0, 43),16	321,(0, 115),16	337,(0, 117),16	353,(0, 114),16	
101,(83, 121),4	149,(87, 121),4	165,(89, 121),4	245,(49, 121),4	277,(45, 121),4	
21,(80, 121),4	37,(79, 121),4	85,(82, 121),4	197,(92, 121),4	341,(115, 121),4	
69,(78, 121),4	133,(85, 121),4	181,(90, 121),4	229,(51, 121),4	261,(46, 121),4	309,(42, 121),4	325,(43, 121),4	357,(117, 121),4	373,(114, 121),4	
53,(81, 121),4	117,(84, 121),4	213,(54, 121),4	293,(40, 121),4	
