962
# CPU
0,121,1	1,120,8	9,75,8	17,76,8	25,74,8	33,73,8	41,72,8	49,77,8	57,71,8	65,78,8	73,70,8	81,79,8	89,69,8	97,68,8	105,67,8	113,80,8	121,66,8	129,81,8	137,65,8	145,82,8	153,64,8	161,63,8	169,62,8	177,83,8	185,61,8	193,84,8	201,60,8	209,85,8	217,59,8	225,58,8	233,57,8	241,86,8	249,56,8	257,87,8	265,55,8	273,88,8	281,54,8	289,53,8	297,52,8	305,89,8	313,51,8	321,90,8	329,50,8	337,91,8	345,49,8	353,48,8	361,47,8	369,92,8	377,46,8	385,93,8	393,45,8	401,94,8	409,44,8	417,43,8	425,42,8	433,95,8	441,41,8	449,104,8	457,103,8	465,105,8	473,102,8	481,101,8	489,100,8	497,106,8	505,99,8	513,98,8	521,97,8	529,107,8	537,96,8	545,40,8	553,39,8	561,108,8	569,38,8	577,37,8	585,36,8	593,109,8	601,35,8	609,34,8	617,33,8	625,110,8	633,32,8	641,31,8	649,30,8	657,111,8	665,29,8	673,28,8	681,27,8	689,112,8	697,26,8	705,17,8	713,16,8	721,18,8	729,15,8	737,19,8	745,14,8	753,20,8	761,13,8	769,21,8	777,12,8	785,22,8	793,11,8	801,23,8	809,10,8	817,24,8	825,9,8	833,1,8	841,2,8	849,3,8	857,4,8	865,5,8	873,6,8	881,7,8	889,8,8	897,25,8	905,113,8	913,114,8	921,115,8	929,116,8	937,117,8	945,118,8	953,119,8	961,0,1	
# Incoming

# Outgoing

