40
# CPU
17,5,2	33,10,2	
13,4,2	29,9,2	
9,3,2	25,8,2	
5,2,2	21,7,2	
0,0,1	1,1,2	3,6,2	39,11,1	
# Incoming
13,(0, 5),4	29,(0, 10),4	
9,(0, 4),4	25,(0, 9),4	
5,(0, 3),4	21,(0, 8),4	
1,(0, 2),4	17,(0, 7),4	
7,(2, 11),4	11,(3, 11),4	15,(4, 11),4	19,(5, 11),4	23,(7, 11),4	27,(8, 11),4	31,(9, 11),4	35,(10, 11),4	
# Outgoing
19,(5, 11),4	35,(10, 11),4	
15,(4, 11),4	31,(9, 11),4	
11,(3, 11),4	27,(8, 11),4	
7,(2, 11),4	23,(7, 11),4	
1,(0, 2),4	5,(0, 3),4	9,(0, 4),4	13,(0, 5),4	17,(0, 7),4	21,(0, 8),4	25,(0, 9),4	29,(0, 10),4	
