694
# CPU
0,121,1	1,120,8	9,75,8	17,76,8	25,74,8	33,72,8	41,73,8	49,71,8	57,70,8	65,77,8	73,68,8	81,67,8	89,66,8	97,69,8	105,65,8	113,64,8	121,63,8	129,62,8	137,61,8	145,78,8	153,60,8	161,59,8	169,57,8	177,58,8	185,56,8	193,55,8	201,79,8	209,53,8	217,52,8	225,54,8	233,51,8	241,50,8	249,49,8	257,48,8	265,47,8	273,46,8	281,86,8	289,45,8	297,44,8	305,43,8	313,42,8	321,41,8	329,104,8	337,105,8	345,103,8	353,102,8	361,106,8	369,101,8	377,96,8	385,107,8	393,92,8	401,90,8	409,108,8	417,39,8	425,38,8	433,109,8	441,36,8	449,110,8	457,34,8	465,33,8	473,111,8	481,31,8	489,29,8	497,112,8	505,28,8	513,16,8	521,17,8	529,15,8	537,14,8	545,18,8	553,13,8	561,12,8	569,11,8	577,19,8	585,10,8	593,9,8	601,1,8	609,2,8	617,3,8	625,4,8	633,5,8	641,6,8	649,7,8	657,8,8	665,20,8	673,114,8	681,118,8	693,0,1	
21,80,8	41,81,8	101,85,8	261,97,8	281,98,8	301,99,8	321,100,8	361,40,8	501,21,8	521,22,8	641,113,8	661,27,8	681,119,8	
61,82,8	141,87,8	161,88,8	201,93,8	341,91,8	381,37,8	461,25,8	481,23,8	541,24,8	601,116,8	621,117,8	
81,83,8	121,84,8	181,89,8	221,94,8	241,95,8	401,35,8	421,32,8	441,30,8	561,26,8	581,115,8	
# Incoming
29,(80, 0),4	49,(81, 0),4	69,(82, 0),4	89,(83, 0),4	109,(85, 0),4	129,(84, 0),4	149,(87, 0),4	169,(88, 0),4	189,(89, 0),4	209,(93, 0),4	229,(94, 0),4	249,(95, 0),4	269,(97, 0),4	289,(98, 0),4	309,(99, 0),4	329,(100, 0),4	349,(91, 0),4	369,(40, 0),4	389,(37, 0),4	409,(35, 0),4	429,(32, 0),4	449,(30, 0),4	469,(25, 0),4	489,(23, 0),4	509,(21, 0),4	529,(22, 0),4	549,(24, 0),4	569,(26, 0),4	589,(115, 0),4	609,(116, 0),4	629,(117, 0),4	649,(113, 0),4	669,(27, 0),4	689,(119, 0),4	
1,(121, 80),20	21,(121, 81),20	81,(121, 85),20	241,(121, 97),20	261,(121, 98),20	281,(121, 99),20	301,(121, 100),20	341,(121, 40),20	481,(121, 21),20	501,(121, 22),20	621,(121, 113),20	641,(121, 27),20	661,(121, 119),20	
41,(121, 82),20	121,(121, 87),20	141,(121, 88),20	181,(121, 93),20	321,(121, 91),20	361,(121, 37),20	441,(121, 25),20	461,(121, 23),20	521,(121, 24),20	581,(121, 116),20	601,(121, 117),20	
61,(121, 83),20	101,(121, 84),20	161,(121, 89),20	201,(121, 94),20	221,(121, 95),20	381,(121, 35),20	401,(121, 32),20	421,(121, 30),20	541,(121, 26),20	561,(121, 115),20	
# Outgoing
1,(121, 80),20	21,(121, 81),20	41,(121, 82),20	61,(121, 83),20	81,(121, 85),20	101,(121, 84),20	121,(121, 87),20	141,(121, 88),20	161,(121, 89),20	181,(121, 93),20	201,(121, 94),20	221,(121, 95),20	241,(121, 97),20	261,(121, 98),20	281,(121, 99),20	301,(121, 100),20	321,(121, 91),20	341,(121, 40),20	361,(121, 37),20	381,(121, 35),20	401,(121, 32),20	421,(121, 30),20	441,(121, 25),20	461,(121, 23),20	481,(121, 21),20	501,(121, 22),20	521,(121, 24),20	541,(121, 26),20	561,(121, 115),20	581,(121, 116),20	601,(121, 117),20	621,(121, 113),20	641,(121, 27),20	661,(121, 119),20	
29,(80, 0),4	49,(81, 0),4	109,(85, 0),4	269,(97, 0),4	289,(98, 0),4	309,(99, 0),4	329,(100, 0),4	369,(40, 0),4	509,(21, 0),4	529,(22, 0),4	649,(113, 0),4	669,(27, 0),4	689,(119, 0),4	
69,(82, 0),4	149,(87, 0),4	169,(88, 0),4	209,(93, 0),4	349,(91, 0),4	389,(37, 0),4	469,(25, 0),4	489,(23, 0),4	549,(24, 0),4	609,(116, 0),4	629,(117, 0),4	
89,(83, 0),4	129,(84, 0),4	189,(89, 0),4	229,(94, 0),4	249,(95, 0),4	409,(35, 0),4	429,(32, 0),4	449,(30, 0),4	569,(26, 0),4	589,(115, 0),4	
