242
# CPU
0,11,1	1,1,40	41,3,40	81,5,40	121,7,40	161,9,40	
37,2,40	77,4,40	117,6,40	157,8,40	197,10,40	241,0,1	
# Incoming

1,(11, 2),36	37,(11, 4),36	73,(11, 6),36	109,(11, 8),36	145,(11, 10),36	181,(1, 0),12	193,(3, 0),12	205,(5, 0),12	217,(7, 0),12	229,(9, 0),12	
# Outgoing
1,(11, 2),36	37,(11, 4),36	73,(11, 6),36	109,(11, 8),36	145,(11, 10),36	181,(1, 0),12	193,(3, 0),12	205,(5, 0),12	217,(7, 0),12	229,(9, 0),12	

