338
# CPU
0,121,1	1,120,4	5,75,4	9,76,4	13,73,4	17,72,4	21,71,4	25,74,4	29,70,4	33,69,4	37,68,4	41,67,4	45,66,4	49,65,4	53,77,4	57,63,4	61,62,4	65,64,4	69,61,4	73,60,4	77,59,4	81,58,4	85,57,4	89,56,4	93,55,4	97,78,4	101,54,4	105,52,4	109,53,4	113,51,4	117,50,4	121,49,4	125,48,4	129,47,4	133,46,4	137,79,4	141,45,4	145,44,4	149,42,4	153,43,4	157,104,4	161,103,4	165,105,4	169,102,4	173,101,4	177,106,4	181,100,4	185,107,4	189,99,4	193,87,4	197,108,4	201,41,4	205,39,4	209,109,4	213,38,4	217,36,4	221,110,4	225,34,4	229,111,4	233,32,4	237,31,4	241,112,4	245,29,4	249,16,4	253,17,4	257,15,4	261,14,4	265,13,4	269,18,4	273,12,4	277,11,4	281,19,4	285,10,4	289,9,4	293,1,4	297,2,4	301,3,4	305,4,4	309,5,4	313,6,4	317,7,4	321,8,4	325,20,4	329,21,4	333,119,4	337,0,1	
28,84,4	172,40,4	181,37,4	244,22,4	253,23,4	280,114,4	289,115,4	
64,88,4	82,90,4	190,35,4	199,33,4	298,113,4	
73,89,4	91,91,4	307,116,4	
127,95,4	
100,92,4	109,93,4	118,94,4	325,117,4	
208,30,4	217,28,4	226,26,4	235,24,4	316,118,4	
10,80,4	19,81,4	136,96,4	145,97,4	154,98,4	163,82,4	
271,27,4	
37,83,4	46,85,4	55,86,4	262,25,4	
# Incoming
14,(80, 0),1	23,(81, 0),1	32,(84, 0),1	41,(83, 0),1	50,(85, 0),1	59,(86, 0),1	68,(88, 0),1	77,(89, 0),1	86,(90, 0),1	95,(91, 0),1	104,(92, 0),1	113,(93, 0),1	122,(94, 0),1	131,(95, 0),1	140,(96, 0),1	149,(97, 0),1	158,(98, 0),1	167,(82, 0),1	176,(40, 0),1	185,(37, 0),1	194,(35, 0),1	203,(33, 0),1	212,(30, 0),1	221,(28, 0),1	230,(26, 0),1	239,(24, 0),1	248,(22, 0),1	257,(23, 0),1	266,(25, 0),1	275,(27, 0),1	284,(114, 0),1	293,(115, 0),1	302,(113, 0),1	311,(116, 0),1	320,(118, 0),1	329,(117, 0),1	
19,(121, 84),9	163,(121, 40),9	172,(121, 37),9	235,(121, 22),9	244,(121, 23),9	271,(121, 114),9	280,(121, 115),9	
55,(121, 88),9	73,(121, 90),9	181,(121, 35),9	190,(121, 33),9	289,(121, 113),9	
64,(121, 89),9	82,(121, 91),9	298,(121, 116),9	
118,(121, 95),9	
91,(121, 92),9	100,(121, 93),9	109,(121, 94),9	316,(121, 117),9	
199,(121, 30),9	208,(121, 28),9	217,(121, 26),9	226,(121, 24),9	307,(121, 118),9	
1,(121, 80),9	10,(121, 81),9	127,(121, 96),9	136,(121, 97),9	145,(121, 98),9	154,(121, 82),9	
262,(121, 27),9	
28,(121, 83),9	37,(121, 85),9	46,(121, 86),9	253,(121, 25),9	
# Outgoing
1,(121, 80),9	10,(121, 81),9	19,(121, 84),9	28,(121, 83),9	37,(121, 85),9	46,(121, 86),9	55,(121, 88),9	64,(121, 89),9	73,(121, 90),9	82,(121, 91),9	91,(121, 92),9	100,(121, 93),9	109,(121, 94),9	118,(121, 95),9	127,(121, 96),9	136,(121, 97),9	145,(121, 98),9	154,(121, 82),9	163,(121, 40),9	172,(121, 37),9	181,(121, 35),9	190,(121, 33),9	199,(121, 30),9	208,(121, 28),9	217,(121, 26),9	226,(121, 24),9	235,(121, 22),9	244,(121, 23),9	253,(121, 25),9	262,(121, 27),9	271,(121, 114),9	280,(121, 115),9	289,(121, 113),9	298,(121, 116),9	307,(121, 118),9	316,(121, 117),9	
32,(84, 0),1	176,(40, 0),1	185,(37, 0),1	248,(22, 0),1	257,(23, 0),1	284,(114, 0),1	293,(115, 0),1	
68,(88, 0),1	86,(90, 0),1	194,(35, 0),1	203,(33, 0),1	302,(113, 0),1	
77,(89, 0),1	95,(91, 0),1	311,(116, 0),1	
131,(95, 0),1	
104,(92, 0),1	113,(93, 0),1	122,(94, 0),1	329,(117, 0),1	
212,(30, 0),1	221,(28, 0),1	230,(26, 0),1	239,(24, 0),1	320,(118, 0),1	
14,(80, 0),1	23,(81, 0),1	140,(96, 0),1	149,(97, 0),1	158,(98, 0),1	167,(82, 0),1	
275,(27, 0),1	
41,(83, 0),1	50,(85, 0),1	59,(86, 0),1	266,(25, 0),1	
