3412
# CPU
5,2,6	11,4,6	17,6,6	23,8,6	29,10,6	
0,0,1	1,1,6	7,5,6	13,9,6	19,3,6	25,7,6	3411,11,1	
# Incoming
1,(0, 2),4	5,(0, 4),4	9,(0, 6),4	13,(0, 8),4	17,(0, 10),4	
11,(2, 11),680	691,(4, 11),680	1371,(6, 11),680	2051,(8, 11),680	2731,(10, 11),680	
# Outgoing
11,(2, 11),680	691,(4, 11),680	1371,(6, 11),680	2051,(8, 11),680	2731,(10, 11),680	
1,(0, 2),4	5,(0, 4),4	9,(0, 6),4	13,(0, 8),4	17,(0, 10),4	
