320
# CPU
0,161,1	1,160,2	3,110,2	5,111,2	7,109,2	9,108,2	11,107,2	13,112,2	15,106,2	17,113,2	19,105,2	21,114,2	23,104,2	25,103,2	27,102,2	29,115,2	31,101,2	33,100,2	35,99,2	37,116,2	39,98,2	41,97,2	43,96,2	45,117,2	47,95,2	49,118,2	51,94,2	53,119,2	55,93,2	57,92,2	59,91,2	61,120,2	63,90,2	65,81,2	67,80,2	69,82,2	71,79,2	73,78,2	75,77,2	77,83,2	79,76,2	81,84,2	83,75,2	85,85,2	87,74,2	89,73,2	91,72,2	93,86,2	95,71,2	97,87,2	99,70,2	101,88,2	103,69,2	105,68,2	107,67,2	109,89,2	111,66,2	113,121,2	115,65,2	117,122,2	119,64,2	121,63,2	123,62,2	125,123,2	127,61,2	129,124,2	131,60,2	133,125,2	135,59,2	137,58,2	139,57,2	141,126,2	143,56,2	145,127,2	147,55,2	149,128,2	151,54,2	153,53,2	155,52,2	157,129,2	159,51,2	161,130,2	163,50,2	165,131,2	167,49,2	169,48,2	171,47,2	173,132,2	175,46,2	177,133,2	179,45,2	181,44,2	183,43,2	185,42,2	187,134,2	189,41,2	191,144,2	193,143,2	195,145,2	197,142,2	199,141,2	201,140,2	203,146,2	205,139,2	207,138,2	209,136,2	211,147,2	213,135,2	215,40,2	217,39,2	219,148,2	221,38,2	223,37,2	225,36,2	227,149,2	229,35,2	231,34,2	233,33,2	235,150,2	237,32,2	239,31,2	241,30,2	243,151,2	245,29,2	247,28,2	249,27,2	251,152,2	253,26,2	255,17,2	257,16,2	259,18,2	261,15,2	263,19,2	265,14,2	267,20,2	269,13,2	271,21,2	273,12,2	275,22,2	277,11,2	279,23,2	281,10,2	283,24,2	285,9,2	287,1,2	289,2,2	291,3,2	293,4,2	295,5,2	297,6,2	299,7,2	301,8,2	303,25,2	305,153,2	307,154,2	309,155,2	311,156,2	313,157,2	315,158,2	317,159,2	319,0,1	

3,137,2	







# Incoming
5,(137, 0),176	

1,(161, 137),2	







# Outgoing
1,(161, 137),2	

5,(137, 0),176	







