1764
# CPU
2,2,22	24,4,22	46,6,22	68,8,22	90,10,22	112,12,22	134,14,22	156,16,22	178,18,22	200,20,22	222,22,22	244,24,22	266,26,22	288,28,22	310,30,22	332,32,22	354,34,22	376,36,22	398,38,22	420,40,22	442,42,22	464,44,22	486,46,22	508,48,22	530,50,22	552,52,22	574,54,22	596,56,22	618,58,22	640,60,22	662,62,22	684,64,22	706,66,22	728,68,22	750,70,22	772,72,22	794,74,22	816,76,22	838,78,22	860,80,22	882,82,22	904,84,22	926,86,22	948,88,22	970,90,22	992,92,22	1014,94,22	1036,96,22	1058,98,22	1080,100,22	1102,102,22	1124,104,22	1146,106,22	1168,108,22	1190,110,22	1212,112,22	1234,114,22	1256,116,22	1278,118,22	1300,120,22	1322,122,22	1344,124,22	1366,126,22	1388,128,22	1410,130,22	1432,132,22	1454,134,22	1476,136,22	1498,138,22	1520,140,22	1542,142,22	1564,144,22	1586,146,22	1608,148,22	1630,150,22	1652,152,22	1674,154,22	1696,156,22	1718,158,22	1740,160,22	
0,0,1	1,1,22	23,5,22	45,13,22	67,29,22	89,61,22	111,125,22	133,159,22	155,157,22	177,155,22	199,153,22	221,151,22	243,149,22	265,147,22	287,145,22	309,143,22	331,141,22	353,139,22	375,137,22	397,135,22	419,133,22	441,131,22	463,129,22	485,123,22	507,127,22	529,121,22	551,119,22	573,117,22	595,115,22	617,113,22	639,111,22	661,109,22	683,107,22	705,105,22	727,103,22	749,101,22	771,99,22	793,97,22	815,95,22	837,93,22	859,91,22	881,89,22	903,87,22	925,85,22	947,83,22	969,81,22	991,79,22	1013,77,22	1035,75,22	1057,73,22	1079,71,22	1101,69,22	1123,67,22	1145,65,22	1167,59,22	1189,63,22	1211,57,22	1233,55,22	1255,53,22	1277,51,22	1299,49,22	1321,47,22	1343,45,22	1365,43,22	1387,41,22	1409,39,22	1431,37,22	1453,35,22	1475,33,22	1497,27,22	1519,31,22	1541,25,22	1563,23,22	1585,21,22	1607,19,22	1629,17,22	1651,11,22	1673,15,22	1695,9,22	1717,3,22	1739,7,22	1763,161,1	
# Incoming
1,(0, 2),1	2,(0, 4),1	3,(0, 6),1	4,(0, 8),1	5,(0, 10),1	6,(0, 12),1	7,(0, 14),1	8,(0, 16),1	9,(0, 18),1	10,(0, 20),1	11,(0, 22),1	12,(0, 24),1	13,(0, 26),1	14,(0, 28),1	15,(0, 30),1	16,(0, 32),1	17,(0, 34),1	18,(0, 36),1	19,(0, 38),1	20,(0, 40),1	21,(0, 42),1	22,(0, 44),1	23,(0, 46),1	24,(0, 48),1	25,(0, 50),1	26,(0, 52),1	27,(0, 54),1	28,(0, 56),1	29,(0, 58),1	30,(0, 60),1	31,(0, 62),1	32,(0, 64),1	33,(0, 66),1	34,(0, 68),1	35,(0, 70),1	36,(0, 72),1	37,(0, 74),1	38,(0, 76),1	39,(0, 78),1	40,(0, 80),1	41,(0, 82),1	42,(0, 84),1	43,(0, 86),1	44,(0, 88),1	45,(0, 90),1	46,(0, 92),1	47,(0, 94),1	48,(0, 96),1	49,(0, 98),1	50,(0, 100),1	51,(0, 102),1	52,(0, 104),1	53,(0, 106),1	54,(0, 108),1	55,(0, 110),1	56,(0, 112),1	57,(0, 114),1	58,(0, 116),1	59,(0, 118),1	60,(0, 120),1	61,(0, 122),1	62,(0, 124),1	63,(0, 126),1	64,(0, 128),1	65,(0, 130),1	66,(0, 132),1	67,(0, 134),1	68,(0, 136),1	69,(0, 138),1	70,(0, 140),1	71,(0, 142),1	72,(0, 144),1	73,(0, 146),1	74,(0, 148),1	75,(0, 150),1	76,(0, 152),1	77,(0, 154),1	78,(0, 156),1	79,(0, 158),1	80,(0, 160),1	
24,(2, 161),1	46,(4, 161),1	68,(6, 161),1	90,(8, 161),1	112,(10, 161),1	134,(12, 161),1	156,(14, 161),1	178,(16, 161),1	200,(18, 161),1	222,(20, 161),1	244,(22, 161),1	266,(24, 161),1	288,(26, 161),1	310,(28, 161),1	332,(30, 161),1	354,(32, 161),1	376,(34, 161),1	398,(36, 161),1	420,(38, 161),1	442,(40, 161),1	464,(42, 161),1	486,(44, 161),1	508,(46, 161),1	530,(48, 161),1	552,(50, 161),1	574,(52, 161),1	596,(54, 161),1	618,(56, 161),1	640,(58, 161),1	662,(60, 161),1	684,(62, 161),1	706,(64, 161),1	728,(66, 161),1	750,(68, 161),1	772,(70, 161),1	794,(72, 161),1	816,(74, 161),1	838,(76, 161),1	860,(78, 161),1	882,(80, 161),1	904,(82, 161),1	926,(84, 161),1	948,(86, 161),1	970,(88, 161),1	992,(90, 161),1	1014,(92, 161),1	1036,(94, 161),1	1058,(96, 161),1	1080,(98, 161),1	1102,(100, 161),1	1124,(102, 161),1	1146,(104, 161),1	1168,(106, 161),1	1190,(108, 161),1	1212,(110, 161),1	1234,(112, 161),1	1256,(114, 161),1	1278,(116, 161),1	1300,(118, 161),1	1322,(120, 161),1	1344,(122, 161),1	1366,(124, 161),1	1388,(126, 161),1	1410,(128, 161),1	1432,(130, 161),1	1454,(132, 161),1	1476,(134, 161),1	1498,(136, 161),1	1520,(138, 161),1	1542,(140, 161),1	1564,(142, 161),1	1586,(144, 161),1	1608,(146, 161),1	1630,(148, 161),1	1652,(150, 161),1	1674,(152, 161),1	1696,(154, 161),1	1718,(156, 161),1	1740,(158, 161),1	1762,(160, 161),1	
# Outgoing
24,(2, 161),1	46,(4, 161),1	68,(6, 161),1	90,(8, 161),1	112,(10, 161),1	134,(12, 161),1	156,(14, 161),1	178,(16, 161),1	200,(18, 161),1	222,(20, 161),1	244,(22, 161),1	266,(24, 161),1	288,(26, 161),1	310,(28, 161),1	332,(30, 161),1	354,(32, 161),1	376,(34, 161),1	398,(36, 161),1	420,(38, 161),1	442,(40, 161),1	464,(42, 161),1	486,(44, 161),1	508,(46, 161),1	530,(48, 161),1	552,(50, 161),1	574,(52, 161),1	596,(54, 161),1	618,(56, 161),1	640,(58, 161),1	662,(60, 161),1	684,(62, 161),1	706,(64, 161),1	728,(66, 161),1	750,(68, 161),1	772,(70, 161),1	794,(72, 161),1	816,(74, 161),1	838,(76, 161),1	860,(78, 161),1	882,(80, 161),1	904,(82, 161),1	926,(84, 161),1	948,(86, 161),1	970,(88, 161),1	992,(90, 161),1	1014,(92, 161),1	1036,(94, 161),1	1058,(96, 161),1	1080,(98, 161),1	1102,(100, 161),1	1124,(102, 161),1	1146,(104, 161),1	1168,(106, 161),1	1190,(108, 161),1	1212,(110, 161),1	1234,(112, 161),1	1256,(114, 161),1	1278,(116, 161),1	1300,(118, 161),1	1322,(120, 161),1	1344,(122, 161),1	1366,(124, 161),1	1388,(126, 161),1	1410,(128, 161),1	1432,(130, 161),1	1454,(132, 161),1	1476,(134, 161),1	1498,(136, 161),1	1520,(138, 161),1	1542,(140, 161),1	1564,(142, 161),1	1586,(144, 161),1	1608,(146, 161),1	1630,(148, 161),1	1652,(150, 161),1	1674,(152, 161),1	1696,(154, 161),1	1718,(156, 161),1	1740,(158, 161),1	1762,(160, 161),1	
1,(0, 2),1	2,(0, 4),1	3,(0, 6),1	4,(0, 8),1	5,(0, 10),1	6,(0, 12),1	7,(0, 14),1	8,(0, 16),1	9,(0, 18),1	10,(0, 20),1	11,(0, 22),1	12,(0, 24),1	13,(0, 26),1	14,(0, 28),1	15,(0, 30),1	16,(0, 32),1	17,(0, 34),1	18,(0, 36),1	19,(0, 38),1	20,(0, 40),1	21,(0, 42),1	22,(0, 44),1	23,(0, 46),1	24,(0, 48),1	25,(0, 50),1	26,(0, 52),1	27,(0, 54),1	28,(0, 56),1	29,(0, 58),1	30,(0, 60),1	31,(0, 62),1	32,(0, 64),1	33,(0, 66),1	34,(0, 68),1	35,(0, 70),1	36,(0, 72),1	37,(0, 74),1	38,(0, 76),1	39,(0, 78),1	40,(0, 80),1	41,(0, 82),1	42,(0, 84),1	43,(0, 86),1	44,(0, 88),1	45,(0, 90),1	46,(0, 92),1	47,(0, 94),1	48,(0, 96),1	49,(0, 98),1	50,(0, 100),1	51,(0, 102),1	52,(0, 104),1	53,(0, 106),1	54,(0, 108),1	55,(0, 110),1	56,(0, 112),1	57,(0, 114),1	58,(0, 116),1	59,(0, 118),1	60,(0, 120),1	61,(0, 122),1	62,(0, 124),1	63,(0, 126),1	64,(0, 128),1	65,(0, 130),1	66,(0, 132),1	67,(0, 134),1	68,(0, 136),1	69,(0, 138),1	70,(0, 140),1	71,(0, 142),1	72,(0, 144),1	73,(0, 146),1	74,(0, 148),1	75,(0, 150),1	76,(0, 152),1	77,(0, 154),1	78,(0, 156),1	79,(0, 158),1	80,(0, 160),1	
