1922
# CPU
9,3,8	17,6,8	25,9,8	33,12,8	41,15,8	49,18,8	57,21,8	65,24,8	73,27,8	81,30,8	89,33,8	97,36,8	105,39,8	113,42,8	121,45,8	129,48,8	137,51,8	145,54,8	153,57,8	161,60,8	169,63,8	177,66,8	185,69,8	193,72,8	201,75,8	209,78,8	217,81,8	225,84,8	233,87,8	241,90,8	249,93,8	257,96,8	265,99,8	273,102,8	281,105,8	289,108,8	297,111,8	305,114,8	313,117,8	321,120,8	329,123,8	337,126,8	345,129,8	353,132,8	361,135,8	369,138,8	377,141,8	385,144,8	393,147,8	401,150,8	409,153,8	417,156,8	425,159,8	
5,2,8	13,5,8	21,8,8	29,11,8	37,14,8	45,17,8	53,20,8	61,23,8	69,26,8	77,29,8	85,32,8	93,35,8	101,38,8	109,41,8	117,44,8	125,47,8	133,50,8	141,53,8	149,56,8	157,59,8	165,62,8	173,65,8	181,68,8	189,71,8	197,74,8	205,77,8	213,80,8	221,83,8	229,86,8	237,89,8	245,92,8	253,95,8	261,98,8	269,101,8	277,104,8	285,107,8	293,110,8	301,113,8	309,116,8	317,119,8	325,122,8	333,125,8	341,128,8	349,131,8	357,134,8	365,137,8	373,140,8	381,143,8	389,146,8	397,149,8	405,152,8	413,155,8	421,158,8	
0,0,1	1,1,8	9,7,8	17,19,8	25,43,8	33,91,8	41,160,8	49,157,8	57,154,8	65,151,8	73,148,8	81,145,8	89,142,8	97,139,8	105,136,8	113,133,8	121,130,8	129,127,8	137,124,8	145,121,8	153,118,8	161,115,8	169,112,8	177,109,8	185,106,8	193,103,8	201,100,8	209,97,8	217,88,8	225,94,8	233,85,8	241,82,8	249,79,8	257,76,8	265,73,8	273,70,8	281,67,8	289,64,8	297,61,8	305,58,8	313,55,8	321,52,8	329,49,8	337,40,8	345,46,8	353,37,8	361,34,8	369,31,8	377,28,8	385,25,8	393,16,8	401,22,8	409,13,8	417,4,8	425,10,8	1921,161,1	
# Incoming
5,(0, 3),4	13,(0, 6),4	21,(0, 9),4	29,(0, 12),4	37,(0, 15),4	45,(0, 18),4	53,(0, 21),4	61,(0, 24),4	69,(0, 27),4	77,(0, 30),4	85,(0, 33),4	93,(0, 36),4	101,(0, 39),4	109,(0, 42),4	117,(0, 45),4	125,(0, 48),4	133,(0, 51),4	141,(0, 54),4	149,(0, 57),4	157,(0, 60),4	165,(0, 63),4	173,(0, 66),4	181,(0, 69),4	189,(0, 72),4	197,(0, 75),4	205,(0, 78),4	213,(0, 81),4	221,(0, 84),4	229,(0, 87),4	237,(0, 90),4	245,(0, 93),4	253,(0, 96),4	261,(0, 99),4	269,(0, 102),4	277,(0, 105),4	285,(0, 108),4	293,(0, 111),4	301,(0, 114),4	309,(0, 117),4	317,(0, 120),4	325,(0, 123),4	333,(0, 126),4	341,(0, 129),4	349,(0, 132),4	357,(0, 135),4	365,(0, 138),4	373,(0, 141),4	381,(0, 144),4	389,(0, 147),4	397,(0, 150),4	405,(0, 153),4	413,(0, 156),4	421,(0, 159),4	
1,(0, 2),4	9,(0, 5),4	17,(0, 8),4	25,(0, 11),4	33,(0, 14),4	41,(0, 17),4	49,(0, 20),4	57,(0, 23),4	65,(0, 26),4	73,(0, 29),4	81,(0, 32),4	89,(0, 35),4	97,(0, 38),4	105,(0, 41),4	113,(0, 44),4	121,(0, 47),4	129,(0, 50),4	137,(0, 53),4	145,(0, 56),4	153,(0, 59),4	161,(0, 62),4	169,(0, 65),4	177,(0, 68),4	185,(0, 71),4	193,(0, 74),4	201,(0, 77),4	209,(0, 80),4	217,(0, 83),4	225,(0, 86),4	233,(0, 89),4	241,(0, 92),4	249,(0, 95),4	257,(0, 98),4	265,(0, 101),4	273,(0, 104),4	281,(0, 107),4	289,(0, 110),4	297,(0, 113),4	305,(0, 116),4	313,(0, 119),4	321,(0, 122),4	329,(0, 125),4	337,(0, 128),4	345,(0, 131),4	353,(0, 134),4	361,(0, 137),4	369,(0, 140),4	377,(0, 143),4	385,(0, 146),4	393,(0, 149),4	401,(0, 152),4	409,(0, 155),4	417,(0, 158),4	
13,(2, 161),18	31,(3, 161),18	49,(5, 161),18	67,(6, 161),18	85,(8, 161),18	103,(9, 161),18	121,(11, 161),18	139,(12, 161),18	157,(14, 161),18	175,(15, 161),18	193,(17, 161),18	211,(18, 161),18	229,(20, 161),18	247,(21, 161),18	265,(23, 161),18	283,(24, 161),18	301,(26, 161),18	319,(27, 161),18	337,(29, 161),18	355,(30, 161),18	373,(32, 161),18	391,(33, 161),18	409,(35, 161),18	427,(36, 161),18	445,(38, 161),18	463,(39, 161),18	481,(41, 161),18	499,(42, 161),18	517,(44, 161),18	535,(45, 161),18	553,(47, 161),18	571,(48, 161),18	589,(50, 161),18	607,(51, 161),18	625,(53, 161),18	643,(54, 161),18	661,(56, 161),18	679,(57, 161),18	697,(59, 161),18	715,(60, 161),18	733,(62, 161),18	751,(63, 161),18	769,(65, 161),18	787,(66, 161),18	805,(68, 161),18	823,(69, 161),18	841,(71, 161),18	859,(72, 161),18	877,(74, 161),18	895,(75, 161),18	913,(77, 161),18	931,(78, 161),18	949,(80, 161),18	967,(81, 161),18	985,(83, 161),18	1003,(84, 161),18	1021,(86, 161),18	1039,(87, 161),18	1057,(89, 161),18	1075,(90, 161),18	1093,(92, 161),18	1111,(93, 161),18	1129,(95, 161),18	1147,(96, 161),18	1165,(98, 161),18	1183,(99, 161),18	1201,(101, 161),18	1219,(102, 161),18	1237,(104, 161),18	1255,(105, 161),18	1273,(107, 161),18	1291,(108, 161),18	1309,(110, 161),18	1327,(111, 161),18	1345,(113, 161),18	1363,(114, 161),18	1381,(116, 161),18	1399,(117, 161),18	1417,(119, 161),18	1435,(120, 161),18	1453,(122, 161),18	1471,(123, 161),18	1489,(125, 161),18	1507,(126, 161),18	1525,(128, 161),18	1543,(129, 161),18	1561,(131, 161),18	1579,(132, 161),18	1597,(134, 161),18	1615,(135, 161),18	1633,(137, 161),18	1651,(138, 161),18	1669,(140, 161),18	1687,(141, 161),18	1705,(143, 161),18	1723,(144, 161),18	1741,(146, 161),18	1759,(147, 161),18	1777,(149, 161),18	1795,(150, 161),18	1813,(152, 161),18	1831,(153, 161),18	1849,(155, 161),18	1867,(156, 161),18	1885,(158, 161),18	1903,(159, 161),18	
# Outgoing
31,(3, 161),18	67,(6, 161),18	103,(9, 161),18	139,(12, 161),18	175,(15, 161),18	211,(18, 161),18	247,(21, 161),18	283,(24, 161),18	319,(27, 161),18	355,(30, 161),18	391,(33, 161),18	427,(36, 161),18	463,(39, 161),18	499,(42, 161),18	535,(45, 161),18	571,(48, 161),18	607,(51, 161),18	643,(54, 161),18	679,(57, 161),18	715,(60, 161),18	751,(63, 161),18	787,(66, 161),18	823,(69, 161),18	859,(72, 161),18	895,(75, 161),18	931,(78, 161),18	967,(81, 161),18	1003,(84, 161),18	1039,(87, 161),18	1075,(90, 161),18	1111,(93, 161),18	1147,(96, 161),18	1183,(99, 161),18	1219,(102, 161),18	1255,(105, 161),18	1291,(108, 161),18	1327,(111, 161),18	1363,(114, 161),18	1399,(117, 161),18	1435,(120, 161),18	1471,(123, 161),18	1507,(126, 161),18	1543,(129, 161),18	1579,(132, 161),18	1615,(135, 161),18	1651,(138, 161),18	1687,(141, 161),18	1723,(144, 161),18	1759,(147, 161),18	1795,(150, 161),18	1831,(153, 161),18	1867,(156, 161),18	1903,(159, 161),18	
13,(2, 161),18	49,(5, 161),18	85,(8, 161),18	121,(11, 161),18	157,(14, 161),18	193,(17, 161),18	229,(20, 161),18	265,(23, 161),18	301,(26, 161),18	337,(29, 161),18	373,(32, 161),18	409,(35, 161),18	445,(38, 161),18	481,(41, 161),18	517,(44, 161),18	553,(47, 161),18	589,(50, 161),18	625,(53, 161),18	661,(56, 161),18	697,(59, 161),18	733,(62, 161),18	769,(65, 161),18	805,(68, 161),18	841,(71, 161),18	877,(74, 161),18	913,(77, 161),18	949,(80, 161),18	985,(83, 161),18	1021,(86, 161),18	1057,(89, 161),18	1093,(92, 161),18	1129,(95, 161),18	1165,(98, 161),18	1201,(101, 161),18	1237,(104, 161),18	1273,(107, 161),18	1309,(110, 161),18	1345,(113, 161),18	1381,(116, 161),18	1417,(119, 161),18	1453,(122, 161),18	1489,(125, 161),18	1525,(128, 161),18	1561,(131, 161),18	1597,(134, 161),18	1633,(137, 161),18	1669,(140, 161),18	1705,(143, 161),18	1741,(146, 161),18	1777,(149, 161),18	1813,(152, 161),18	1849,(155, 161),18	1885,(158, 161),18	
1,(0, 2),4	5,(0, 3),4	9,(0, 5),4	13,(0, 6),4	17,(0, 8),4	21,(0, 9),4	25,(0, 11),4	29,(0, 12),4	33,(0, 14),4	37,(0, 15),4	41,(0, 17),4	45,(0, 18),4	49,(0, 20),4	53,(0, 21),4	57,(0, 23),4	61,(0, 24),4	65,(0, 26),4	69,(0, 27),4	73,(0, 29),4	77,(0, 30),4	81,(0, 32),4	85,(0, 33),4	89,(0, 35),4	93,(0, 36),4	97,(0, 38),4	101,(0, 39),4	105,(0, 41),4	109,(0, 42),4	113,(0, 44),4	117,(0, 45),4	121,(0, 47),4	125,(0, 48),4	129,(0, 50),4	133,(0, 51),4	137,(0, 53),4	141,(0, 54),4	145,(0, 56),4	149,(0, 57),4	153,(0, 59),4	157,(0, 60),4	161,(0, 62),4	165,(0, 63),4	169,(0, 65),4	173,(0, 66),4	177,(0, 68),4	181,(0, 69),4	185,(0, 71),4	189,(0, 72),4	193,(0, 74),4	197,(0, 75),4	201,(0, 77),4	205,(0, 78),4	209,(0, 80),4	213,(0, 81),4	217,(0, 83),4	221,(0, 84),4	225,(0, 86),4	229,(0, 87),4	233,(0, 89),4	237,(0, 90),4	241,(0, 92),4	245,(0, 93),4	249,(0, 95),4	253,(0, 96),4	257,(0, 98),4	261,(0, 99),4	265,(0, 101),4	269,(0, 102),4	273,(0, 104),4	277,(0, 105),4	281,(0, 107),4	285,(0, 108),4	289,(0, 110),4	293,(0, 111),4	297,(0, 113),4	301,(0, 114),4	305,(0, 116),4	309,(0, 117),4	313,(0, 119),4	317,(0, 120),4	321,(0, 122),4	325,(0, 123),4	329,(0, 125),4	333,(0, 126),4	337,(0, 128),4	341,(0, 129),4	345,(0, 131),4	349,(0, 132),4	353,(0, 134),4	357,(0, 135),4	361,(0, 137),4	365,(0, 138),4	369,(0, 140),4	373,(0, 141),4	377,(0, 143),4	381,(0, 144),4	385,(0, 146),4	389,(0, 147),4	393,(0, 149),4	397,(0, 150),4	401,(0, 152),4	405,(0, 153),4	409,(0, 155),4	413,(0, 156),4	417,(0, 158),4	421,(0, 159),4	
