1228
# CPU
417,5,2	833,10,2	
313,4,2	729,9,2	
209,3,2	625,8,2	
105,2,2	521,7,2	
0,0,1	1,1,2	3,6,2	1227,11,1	
# Incoming
313,(0, 5),104	729,(0, 10),104	
209,(0, 4),104	625,(0, 9),104	
105,(0, 3),104	521,(0, 8),104	
1,(0, 2),104	417,(0, 7),104	
107,(2, 11),140	247,(3, 11),140	387,(4, 11),140	527,(5, 11),140	667,(7, 11),140	807,(8, 11),140	947,(9, 11),140	1087,(10, 11),140	
# Outgoing
527,(5, 11),140	1087,(10, 11),140	
387,(4, 11),140	947,(9, 11),140	
247,(3, 11),140	807,(8, 11),140	
107,(2, 11),140	667,(7, 11),140	
1,(0, 2),104	105,(0, 3),104	209,(0, 4),104	313,(0, 5),104	417,(0, 7),104	521,(0, 8),104	625,(0, 9),104	729,(0, 10),104	
