116
# CPU
0,21,1	1,20,6	7,10,6	13,11,6	19,9,6	25,1,6	31,2,6	37,3,6	43,4,6	49,5,6	55,6,6	61,7,6	67,8,6	73,12,6	79,13,6	85,14,6	91,15,6	97,16,6	103,18,6	109,19,6	115,0,1	
61,17,6	


# Incoming
67,(17, 0),40	
1,(21, 17),60	


# Outgoing
1,(21, 17),60	
67,(17, 0),40	


