8609
# CPU
4285,10,27	8569,20,27	
3809,9,27	8093,19,27	
3333,8,27	7617,18,27	
2857,7,27	7141,17,27	
2381,6,27	6665,16,27	
1905,5,27	6189,15,27	
1429,4,27	5713,14,27	
953,3,27	5237,13,27	
477,2,27	4761,12,27	
0,0,1	1,1,27	28,11,27	8608,21,1	
# Incoming
3809,(0, 10),476	8093,(0, 20),476	
3333,(0, 9),476	7617,(0, 19),476	
2857,(0, 8),476	7141,(0, 18),476	
2381,(0, 7),476	6665,(0, 17),476	
1905,(0, 6),476	6189,(0, 16),476	
1429,(0, 5),476	5713,(0, 15),476	
953,(0, 4),476	5237,(0, 14),476	
477,(0, 3),476	4761,(0, 13),476	
1,(0, 2),476	4285,(0, 12),476	
504,(2, 21),12	980,(3, 21),12	1456,(4, 21),12	1932,(5, 21),12	2408,(6, 21),12	2884,(7, 21),12	3360,(8, 21),12	3836,(9, 21),12	4312,(10, 21),12	4788,(12, 21),12	5264,(13, 21),12	5740,(14, 21),12	6216,(15, 21),12	6692,(16, 21),12	7168,(17, 21),12	7644,(18, 21),12	8120,(19, 21),12	8596,(20, 21),12	
# Outgoing
4312,(10, 21),12	8596,(20, 21),12	
3836,(9, 21),12	8120,(19, 21),12	
3360,(8, 21),12	7644,(18, 21),12	
2884,(7, 21),12	7168,(17, 21),12	
2408,(6, 21),12	6692,(16, 21),12	
1932,(5, 21),12	6216,(15, 21),12	
1456,(4, 21),12	5740,(14, 21),12	
980,(3, 21),12	5264,(13, 21),12	
504,(2, 21),12	4788,(12, 21),12	
1,(0, 2),476	477,(0, 3),476	953,(0, 4),476	1429,(0, 5),476	1905,(0, 6),476	2381,(0, 7),476	2857,(0, 8),476	3333,(0, 9),476	3809,(0, 10),476	4285,(0, 12),476	4761,(0, 13),476	5237,(0, 14),476	5713,(0, 15),476	6189,(0, 16),476	6665,(0, 17),476	7141,(0, 18),476	7617,(0, 19),476	8093,(0, 20),476	
