27
# CPU
0,21,1	1,11,1	2,10,1	3,12,1	4,9,1	5,1,1	6,2,1	7,3,1	8,4,1	9,7,1	10,5,1	11,6,1	12,8,1	13,13,1	14,14,1	15,15,1	16,16,1	17,17,1	18,20,1	26,0,1	
17,19,1	
9,18,1	


# Incoming
10,(18, 0),8	18,(19, 0),8	
9,(21, 19),8	
1,(21, 18),8	


# Outgoing
1,(21, 18),8	9,(21, 19),8	
18,(19, 0),8	
10,(18, 0),8	


