3610
# CPU
9,3,16	25,6,16	41,9,16	57,12,16	73,15,16	89,18,16	
5,2,16	21,5,16	37,8,16	53,11,16	69,14,16	85,17,16	101,20,16	
0,0,1	1,1,16	17,7,16	33,16,16	49,19,16	65,13,16	81,4,16	97,10,16	3609,21,1	
# Incoming
5,(0, 3),4	13,(0, 6),4	21,(0, 9),4	29,(0, 12),4	37,(0, 15),4	45,(0, 18),4	
1,(0, 2),4	9,(0, 5),4	17,(0, 8),4	25,(0, 11),4	33,(0, 14),4	41,(0, 17),4	49,(0, 20),4	
21,(2, 21),276	297,(3, 21),276	573,(5, 21),276	849,(6, 21),276	1125,(8, 21),276	1401,(9, 21),276	1677,(11, 21),276	1953,(12, 21),276	2229,(14, 21),276	2505,(15, 21),276	2781,(17, 21),276	3057,(18, 21),276	3333,(20, 21),276	
# Outgoing
297,(3, 21),276	849,(6, 21),276	1401,(9, 21),276	1953,(12, 21),276	2505,(15, 21),276	3057,(18, 21),276	
21,(2, 21),276	573,(5, 21),276	1125,(8, 21),276	1677,(11, 21),276	2229,(14, 21),276	2781,(17, 21),276	3333,(20, 21),276	
1,(0, 2),4	5,(0, 3),4	9,(0, 5),4	13,(0, 6),4	17,(0, 8),4	21,(0, 9),4	25,(0, 11),4	29,(0, 12),4	33,(0, 14),4	37,(0, 15),4	41,(0, 17),4	45,(0, 18),4	49,(0, 20),4	
