308
# CPU
0,201,1	1,200,6	7,139,6	13,140,6	19,141,6	25,142,6	31,144,6	37,145,6	43,146,6	49,147,6	55,149,6	61,150,6	67,151,6	73,152,6	79,154,6	85,155,6	91,156,6	97,157,6	103,159,6	109,160,6	115,80,6	121,77,6	127,75,6	133,72,6	139,70,6	145,67,6	151,65,6	157,62,6	163,60,6	169,57,6	175,55,6	181,52,6	187,50,6	193,47,6	199,45,6	205,42,6	211,185,6	217,186,6	223,187,6	229,188,6	235,189,6	241,190,6	247,191,6	253,192,6	259,16,6	265,14,6	271,12,6	277,10,6	283,1,6	289,2,6	295,5,6	301,198,6	307,0,1	
9,130,6	17,125,6	27,123,6	35,117,6	43,115,6	49,111,6	57,135,6	65,104,6	75,102,6	83,96,6	91,94,6	97,90,6	105,138,6	113,161,6	123,163,6	131,165,6	137,166,6	147,168,6	155,170,6	161,171,6	171,173,6	179,175,6	185,176,6	195,178,6	203,180,6	209,39,6	217,37,6	225,44,6	233,29,6	241,27,6	249,48,6	257,193,6	263,194,6	269,195,6	275,196,6	283,13,6	289,3,6	295,17,6	
5,133,6	13,128,6	21,131,6	31,120,6	39,132,6	47,112,6	53,109,6	61,107,6	69,136,6	79,99,6	87,137,6	95,91,6	101,88,6	109,158,6	117,162,6	127,164,6	133,82,6	141,167,6	151,169,6	157,71,6	165,172,6	175,174,6	181,59,6	189,177,6	199,179,6	205,41,6	213,43,6	221,34,6	229,32,6	237,46,6	245,24,6	253,184,6	259,182,6	265,22,6	271,19,6	277,9,6	291,4,6	297,197,6	
7,129,6	15,126,6	23,122,6	29,119,6	37,116,6	45,113,6	55,108,6	63,105,6	71,101,6	77,98,6	85,95,6	93,92,6	103,87,6	111,153,6	119,143,6	125,84,6	139,79,6	145,76,6	153,73,6	163,68,6	169,64,6	177,61,6	187,56,6	193,53,6	201,49,6	211,38,6	219,35,6	227,31,6	235,28,6	243,25,6	251,21,6	281,11,6	287,15,6	293,6,6	299,199,6	
3,134,6	11,127,6	19,124,6	25,121,6	33,118,6	41,114,6	51,110,6	59,106,6	67,103,6	73,100,6	81,97,6	89,93,6	99,89,6	107,85,6	115,148,6	121,86,6	129,83,6	135,81,6	143,78,6	149,74,6	159,69,6	167,66,6	173,63,6	183,58,6	191,54,6	197,51,6	207,40,6	215,36,6	223,33,6	231,30,6	239,26,6	247,23,6	255,183,6	261,181,6	267,20,6	273,18,6	279,8,6	285,7,6	
# Incoming
9,(134, 0),2	11,(133, 0),2	13,(129, 0),2	15,(130, 0),2	17,(127, 0),2	19,(128, 0),2	21,(126, 0),2	23,(125, 0),2	25,(124, 0),2	27,(131, 0),2	29,(122, 0),2	31,(121, 0),2	33,(123, 0),2	35,(119, 0),2	37,(120, 0),2	39,(118, 0),2	41,(117, 0),2	43,(116, 0),2	45,(132, 0),2	47,(114, 0),2	49,(115, 0),2	51,(113, 0),2	53,(112, 0),2	55,(111, 0),2	57,(110, 0),2	59,(109, 0),2	61,(108, 0),2	63,(135, 0),2	65,(106, 0),2	67,(107, 0),2	69,(105, 0),2	71,(104, 0),2	73,(103, 0),2	75,(136, 0),2	77,(101, 0),2	79,(100, 0),2	81,(102, 0),2	83,(98, 0),2	85,(99, 0),2	87,(97, 0),2	89,(96, 0),2	91,(95, 0),2	93,(137, 0),2	95,(93, 0),2	97,(94, 0),2	99,(92, 0),2	101,(91, 0),2	103,(90, 0),2	105,(89, 0),2	107,(88, 0),2	109,(87, 0),2	111,(138, 0),2	113,(85, 0),2	115,(158, 0),2	117,(153, 0),2	119,(161, 0),2	121,(148, 0),2	123,(162, 0),2	125,(143, 0),2	127,(86, 0),2	129,(163, 0),2	131,(84, 0),2	133,(164, 0),2	135,(83, 0),2	137,(165, 0),2	139,(82, 0),2	141,(81, 0),2	143,(166, 0),2	145,(79, 0),2	147,(167, 0),2	149,(78, 0),2	151,(76, 0),2	153,(168, 0),2	155,(74, 0),2	157,(169, 0),2	159,(73, 0),2	161,(170, 0),2	163,(71, 0),2	165,(69, 0),2	167,(171, 0),2	169,(68, 0),2	171,(172, 0),2	173,(66, 0),2	175,(64, 0),2	177,(173, 0),2	179,(63, 0),2	181,(174, 0),2	183,(61, 0),2	185,(175, 0),2	187,(59, 0),2	189,(58, 0),2	191,(176, 0),2	193,(56, 0),2	195,(177, 0),2	197,(54, 0),2	199,(53, 0),2	201,(178, 0),2	203,(51, 0),2	205,(179, 0),2	207,(49, 0),2	209,(180, 0),2	211,(41, 0),2	213,(40, 0),2	215,(39, 0),2	217,(38, 0),2	219,(43, 0),2	221,(36, 0),2	223,(37, 0),2	225,(35, 0),2	227,(34, 0),2	229,(33, 0),2	231,(44, 0),2	233,(31, 0),2	235,(32, 0),2	237,(30, 0),2	239,(29, 0),2	241,(28, 0),2	243,(46, 0),2	245,(26, 0),2	247,(27, 0),2	249,(25, 0),2	251,(24, 0),2	253,(23, 0),2	255,(48, 0),2	257,(21, 0),2	259,(184, 0),2	261,(183, 0),2	263,(193, 0),2	265,(182, 0),2	267,(181, 0),2	269,(194, 0),2	271,(22, 0),2	273,(20, 0),2	275,(195, 0),2	277,(19, 0),2	279,(18, 0),2	281,(196, 0),2	283,(9, 0),2	285,(8, 0),2	287,(11, 0),2	289,(13, 0),2	291,(7, 0),2	293,(15, 0),2	295,(3, 0),2	297,(4, 0),2	299,(6, 0),2	301,(17, 0),2	303,(197, 0),2	305,(199, 0),2	
7,(201, 130),2	15,(201, 125),2	25,(201, 123),2	33,(201, 117),2	41,(201, 115),2	47,(201, 111),2	55,(201, 135),2	63,(201, 104),2	73,(201, 102),2	81,(201, 96),2	89,(201, 94),2	95,(201, 90),2	103,(201, 138),2	111,(201, 161),2	121,(201, 163),2	129,(201, 165),2	135,(201, 166),2	145,(201, 168),2	153,(201, 170),2	159,(201, 171),2	169,(201, 173),2	177,(201, 175),2	183,(201, 176),2	193,(201, 178),2	201,(201, 180),2	207,(201, 39),2	215,(201, 37),2	223,(201, 44),2	231,(201, 29),2	239,(201, 27),2	247,(201, 48),2	255,(201, 193),2	261,(201, 194),2	267,(201, 195),2	273,(201, 196),2	281,(201, 13),2	287,(201, 3),2	293,(201, 17),2	
3,(201, 133),2	11,(201, 128),2	19,(201, 131),2	29,(201, 120),2	37,(201, 132),2	45,(201, 112),2	51,(201, 109),2	59,(201, 107),2	67,(201, 136),2	77,(201, 99),2	85,(201, 137),2	93,(201, 91),2	99,(201, 88),2	107,(201, 158),2	115,(201, 162),2	125,(201, 164),2	131,(201, 82),2	139,(201, 167),2	149,(201, 169),2	155,(201, 71),2	163,(201, 172),2	173,(201, 174),2	179,(201, 59),2	187,(201, 177),2	197,(201, 179),2	203,(201, 41),2	211,(201, 43),2	219,(201, 34),2	227,(201, 32),2	235,(201, 46),2	243,(201, 24),2	251,(201, 184),2	257,(201, 182),2	263,(201, 22),2	269,(201, 19),2	275,(201, 9),2	289,(201, 4),2	295,(201, 197),2	
5,(201, 129),2	13,(201, 126),2	21,(201, 122),2	27,(201, 119),2	35,(201, 116),2	43,(201, 113),2	53,(201, 108),2	61,(201, 105),2	69,(201, 101),2	75,(201, 98),2	83,(201, 95),2	91,(201, 92),2	101,(201, 87),2	109,(201, 153),2	117,(201, 143),2	123,(201, 84),2	137,(201, 79),2	143,(201, 76),2	151,(201, 73),2	161,(201, 68),2	167,(201, 64),2	175,(201, 61),2	185,(201, 56),2	191,(201, 53),2	199,(201, 49),2	209,(201, 38),2	217,(201, 35),2	225,(201, 31),2	233,(201, 28),2	241,(201, 25),2	249,(201, 21),2	279,(201, 11),2	285,(201, 15),2	291,(201, 6),2	297,(201, 199),2	
1,(201, 134),2	9,(201, 127),2	17,(201, 124),2	23,(201, 121),2	31,(201, 118),2	39,(201, 114),2	49,(201, 110),2	57,(201, 106),2	65,(201, 103),2	71,(201, 100),2	79,(201, 97),2	87,(201, 93),2	97,(201, 89),2	105,(201, 85),2	113,(201, 148),2	119,(201, 86),2	127,(201, 83),2	133,(201, 81),2	141,(201, 78),2	147,(201, 74),2	157,(201, 69),2	165,(201, 66),2	171,(201, 63),2	181,(201, 58),2	189,(201, 54),2	195,(201, 51),2	205,(201, 40),2	213,(201, 36),2	221,(201, 33),2	229,(201, 30),2	237,(201, 26),2	245,(201, 23),2	253,(201, 183),2	259,(201, 181),2	265,(201, 20),2	271,(201, 18),2	277,(201, 8),2	283,(201, 7),2	
# Outgoing
1,(201, 134),2	3,(201, 133),2	5,(201, 129),2	7,(201, 130),2	9,(201, 127),2	11,(201, 128),2	13,(201, 126),2	15,(201, 125),2	17,(201, 124),2	19,(201, 131),2	21,(201, 122),2	23,(201, 121),2	25,(201, 123),2	27,(201, 119),2	29,(201, 120),2	31,(201, 118),2	33,(201, 117),2	35,(201, 116),2	37,(201, 132),2	39,(201, 114),2	41,(201, 115),2	43,(201, 113),2	45,(201, 112),2	47,(201, 111),2	49,(201, 110),2	51,(201, 109),2	53,(201, 108),2	55,(201, 135),2	57,(201, 106),2	59,(201, 107),2	61,(201, 105),2	63,(201, 104),2	65,(201, 103),2	67,(201, 136),2	69,(201, 101),2	71,(201, 100),2	73,(201, 102),2	75,(201, 98),2	77,(201, 99),2	79,(201, 97),2	81,(201, 96),2	83,(201, 95),2	85,(201, 137),2	87,(201, 93),2	89,(201, 94),2	91,(201, 92),2	93,(201, 91),2	95,(201, 90),2	97,(201, 89),2	99,(201, 88),2	101,(201, 87),2	103,(201, 138),2	105,(201, 85),2	107,(201, 158),2	109,(201, 153),2	111,(201, 161),2	113,(201, 148),2	115,(201, 162),2	117,(201, 143),2	119,(201, 86),2	121,(201, 163),2	123,(201, 84),2	125,(201, 164),2	127,(201, 83),2	129,(201, 165),2	131,(201, 82),2	133,(201, 81),2	135,(201, 166),2	137,(201, 79),2	139,(201, 167),2	141,(201, 78),2	143,(201, 76),2	145,(201, 168),2	147,(201, 74),2	149,(201, 169),2	151,(201, 73),2	153,(201, 170),2	155,(201, 71),2	157,(201, 69),2	159,(201, 171),2	161,(201, 68),2	163,(201, 172),2	165,(201, 66),2	167,(201, 64),2	169,(201, 173),2	171,(201, 63),2	173,(201, 174),2	175,(201, 61),2	177,(201, 175),2	179,(201, 59),2	181,(201, 58),2	183,(201, 176),2	185,(201, 56),2	187,(201, 177),2	189,(201, 54),2	191,(201, 53),2	193,(201, 178),2	195,(201, 51),2	197,(201, 179),2	199,(201, 49),2	201,(201, 180),2	203,(201, 41),2	205,(201, 40),2	207,(201, 39),2	209,(201, 38),2	211,(201, 43),2	213,(201, 36),2	215,(201, 37),2	217,(201, 35),2	219,(201, 34),2	221,(201, 33),2	223,(201, 44),2	225,(201, 31),2	227,(201, 32),2	229,(201, 30),2	231,(201, 29),2	233,(201, 28),2	235,(201, 46),2	237,(201, 26),2	239,(201, 27),2	241,(201, 25),2	243,(201, 24),2	245,(201, 23),2	247,(201, 48),2	249,(201, 21),2	251,(201, 184),2	253,(201, 183),2	255,(201, 193),2	257,(201, 182),2	259,(201, 181),2	261,(201, 194),2	263,(201, 22),2	265,(201, 20),2	267,(201, 195),2	269,(201, 19),2	271,(201, 18),2	273,(201, 196),2	275,(201, 9),2	277,(201, 8),2	279,(201, 11),2	281,(201, 13),2	283,(201, 7),2	285,(201, 15),2	287,(201, 3),2	289,(201, 4),2	291,(201, 6),2	293,(201, 17),2	295,(201, 197),2	297,(201, 199),2	
15,(130, 0),2	23,(125, 0),2	33,(123, 0),2	41,(117, 0),2	49,(115, 0),2	55,(111, 0),2	63,(135, 0),2	71,(104, 0),2	81,(102, 0),2	89,(96, 0),2	97,(94, 0),2	103,(90, 0),2	111,(138, 0),2	119,(161, 0),2	129,(163, 0),2	137,(165, 0),2	143,(166, 0),2	153,(168, 0),2	161,(170, 0),2	167,(171, 0),2	177,(173, 0),2	185,(175, 0),2	191,(176, 0),2	201,(178, 0),2	209,(180, 0),2	215,(39, 0),2	223,(37, 0),2	231,(44, 0),2	239,(29, 0),2	247,(27, 0),2	255,(48, 0),2	263,(193, 0),2	269,(194, 0),2	275,(195, 0),2	281,(196, 0),2	289,(13, 0),2	295,(3, 0),2	301,(17, 0),2	
11,(133, 0),2	19,(128, 0),2	27,(131, 0),2	37,(120, 0),2	45,(132, 0),2	53,(112, 0),2	59,(109, 0),2	67,(107, 0),2	75,(136, 0),2	85,(99, 0),2	93,(137, 0),2	101,(91, 0),2	107,(88, 0),2	115,(158, 0),2	123,(162, 0),2	133,(164, 0),2	139,(82, 0),2	147,(167, 0),2	157,(169, 0),2	163,(71, 0),2	171,(172, 0),2	181,(174, 0),2	187,(59, 0),2	195,(177, 0),2	205,(179, 0),2	211,(41, 0),2	219,(43, 0),2	227,(34, 0),2	235,(32, 0),2	243,(46, 0),2	251,(24, 0),2	259,(184, 0),2	265,(182, 0),2	271,(22, 0),2	277,(19, 0),2	283,(9, 0),2	297,(4, 0),2	303,(197, 0),2	
13,(129, 0),2	21,(126, 0),2	29,(122, 0),2	35,(119, 0),2	43,(116, 0),2	51,(113, 0),2	61,(108, 0),2	69,(105, 0),2	77,(101, 0),2	83,(98, 0),2	91,(95, 0),2	99,(92, 0),2	109,(87, 0),2	117,(153, 0),2	125,(143, 0),2	131,(84, 0),2	145,(79, 0),2	151,(76, 0),2	159,(73, 0),2	169,(68, 0),2	175,(64, 0),2	183,(61, 0),2	193,(56, 0),2	199,(53, 0),2	207,(49, 0),2	217,(38, 0),2	225,(35, 0),2	233,(31, 0),2	241,(28, 0),2	249,(25, 0),2	257,(21, 0),2	287,(11, 0),2	293,(15, 0),2	299,(6, 0),2	305,(199, 0),2	
9,(134, 0),2	17,(127, 0),2	25,(124, 0),2	31,(121, 0),2	39,(118, 0),2	47,(114, 0),2	57,(110, 0),2	65,(106, 0),2	73,(103, 0),2	79,(100, 0),2	87,(97, 0),2	95,(93, 0),2	105,(89, 0),2	113,(85, 0),2	121,(148, 0),2	127,(86, 0),2	135,(83, 0),2	141,(81, 0),2	149,(78, 0),2	155,(74, 0),2	165,(69, 0),2	173,(66, 0),2	179,(63, 0),2	189,(58, 0),2	197,(54, 0),2	203,(51, 0),2	213,(40, 0),2	221,(36, 0),2	229,(33, 0),2	237,(30, 0),2	245,(26, 0),2	253,(23, 0),2	261,(183, 0),2	267,(181, 0),2	273,(20, 0),2	279,(18, 0),2	285,(8, 0),2	291,(7, 0),2	
