19
# CPU
0,0,1	1,11,1	2,10,1	3,12,1	4,9,1	5,6,1	6,2,1	7,3,1	8,4,1	9,7,1	10,13,1	11,8,1	12,14,1	13,15,1	14,17,1	15,18,1	16,19,1	17,20,1	18,21,1	
5,1,1	9,5,1	13,16,1	
# Incoming
6,(1, 21),2	10,(5, 21),2	14,(16, 21),2	
1,(0, 1),4	5,(0, 5),4	9,(0, 16),4	
# Outgoing
1,(0, 1),4	5,(0, 5),4	9,(0, 16),4	
6,(1, 21),2	10,(5, 21),2	14,(16, 21),2	
