122
# CPU
0,0,1	1,1,6	7,3,6	13,7,6	19,15,6	25,20,6	31,19,6	37,18,6	43,17,6	49,14,6	55,16,6	61,13,6	67,12,6	73,11,6	79,10,6	85,9,6	91,6,6	97,8,6	103,5,6	109,2,6	115,4,6	121,21,1	



# Incoming




# Outgoing




