4015
# CPU
61,3,2	121,6,2	181,9,2	241,12,2	301,15,2	361,18,2	421,21,2	481,24,2	541,27,2	601,30,2	661,33,2	721,36,2	781,39,2	841,42,2	901,45,2	961,48,2	1021,51,2	1081,54,2	1141,57,2	1201,60,2	1261,63,2	1321,66,2	1381,69,2	1441,72,2	1501,75,2	1561,78,2	1621,81,2	1681,84,2	1741,87,2	1801,90,2	1861,93,2	1921,96,2	1981,99,2	2041,102,2	2101,105,2	2161,108,2	2221,111,2	2281,114,2	2341,117,2	2401,120,2	2461,123,2	2521,126,2	2581,129,2	2641,132,2	2701,135,2	2761,138,2	2821,141,2	2881,144,2	2941,147,2	3001,150,2	3061,153,2	3121,156,2	3181,159,2	3241,162,2	3301,165,2	3361,168,2	3421,171,2	3481,174,2	3541,177,2	3601,180,2	3661,183,2	3721,186,2	3781,189,2	3841,192,2	3901,195,2	3961,198,2	
31,2,2	91,5,2	151,8,2	211,11,2	271,14,2	331,17,2	391,20,2	451,23,2	511,26,2	571,29,2	631,32,2	691,35,2	751,38,2	811,41,2	871,44,2	931,47,2	991,50,2	1051,53,2	1111,56,2	1171,59,2	1231,62,2	1291,65,2	1351,68,2	1411,71,2	1471,74,2	1531,77,2	1591,80,2	1651,83,2	1711,86,2	1771,89,2	1831,92,2	1891,95,2	1951,98,2	2011,101,2	2071,104,2	2131,107,2	2191,110,2	2251,113,2	2311,116,2	2371,119,2	2431,122,2	2491,125,2	2551,128,2	2611,131,2	2671,134,2	2731,137,2	2791,140,2	2851,143,2	2911,146,2	2971,149,2	3031,152,2	3091,155,2	3151,158,2	3211,161,2	3271,164,2	3331,167,2	3391,170,2	3451,173,2	3511,176,2	3571,179,2	3631,182,2	3691,185,2	3751,188,2	3811,191,2	3871,194,2	3931,197,2	3991,200,2	
0,0,1	1,1,2	3,7,2	5,19,2	7,43,2	9,91,2	11,187,2	13,199,2	15,196,2	17,193,2	19,184,2	21,190,2	23,181,2	25,178,2	27,175,2	29,172,2	31,169,2	33,166,2	35,163,2	37,160,2	39,157,2	41,154,2	43,151,2	45,148,2	47,145,2	49,142,2	51,139,2	53,136,2	55,133,2	57,130,2	59,127,2	61,124,2	63,121,2	65,118,2	67,115,2	69,112,2	71,109,2	73,106,2	75,103,2	77,100,2	79,97,2	81,88,2	83,94,2	85,85,2	87,82,2	89,79,2	91,76,2	93,73,2	95,70,2	97,67,2	99,64,2	101,61,2	103,58,2	105,55,2	107,52,2	109,49,2	111,40,2	113,46,2	115,37,2	117,34,2	119,31,2	121,28,2	123,25,2	125,16,2	127,22,2	129,13,2	131,4,2	133,10,2	4014,201,1	
# Incoming
31,(0, 3),30	91,(0, 6),30	151,(0, 9),30	211,(0, 12),30	271,(0, 15),30	331,(0, 18),30	391,(0, 21),30	451,(0, 24),30	511,(0, 27),30	571,(0, 30),30	631,(0, 33),30	691,(0, 36),30	751,(0, 39),30	811,(0, 42),30	871,(0, 45),30	931,(0, 48),30	991,(0, 51),30	1051,(0, 54),30	1111,(0, 57),30	1171,(0, 60),30	1231,(0, 63),30	1291,(0, 66),30	1351,(0, 69),30	1411,(0, 72),30	1471,(0, 75),30	1531,(0, 78),30	1591,(0, 81),30	1651,(0, 84),30	1711,(0, 87),30	1771,(0, 90),30	1831,(0, 93),30	1891,(0, 96),30	1951,(0, 99),30	2011,(0, 102),30	2071,(0, 105),30	2131,(0, 108),30	2191,(0, 111),30	2251,(0, 114),30	2311,(0, 117),30	2371,(0, 120),30	2431,(0, 123),30	2491,(0, 126),30	2551,(0, 129),30	2611,(0, 132),30	2671,(0, 135),30	2731,(0, 138),30	2791,(0, 141),30	2851,(0, 144),30	2911,(0, 147),30	2971,(0, 150),30	3031,(0, 153),30	3091,(0, 156),30	3151,(0, 159),30	3211,(0, 162),30	3271,(0, 165),30	3331,(0, 168),30	3391,(0, 171),30	3451,(0, 174),30	3511,(0, 177),30	3571,(0, 180),30	3631,(0, 183),30	3691,(0, 186),30	3751,(0, 189),30	3811,(0, 192),30	3871,(0, 195),30	3931,(0, 198),30	
1,(0, 2),30	61,(0, 5),30	121,(0, 8),30	181,(0, 11),30	241,(0, 14),30	301,(0, 17),30	361,(0, 20),30	421,(0, 23),30	481,(0, 26),30	541,(0, 29),30	601,(0, 32),30	661,(0, 35),30	721,(0, 38),30	781,(0, 41),30	841,(0, 44),30	901,(0, 47),30	961,(0, 50),30	1021,(0, 53),30	1081,(0, 56),30	1141,(0, 59),30	1201,(0, 62),30	1261,(0, 65),30	1321,(0, 68),30	1381,(0, 71),30	1441,(0, 74),30	1501,(0, 77),30	1561,(0, 80),30	1621,(0, 83),30	1681,(0, 86),30	1741,(0, 89),30	1801,(0, 92),30	1861,(0, 95),30	1921,(0, 98),30	1981,(0, 101),30	2041,(0, 104),30	2101,(0, 107),30	2161,(0, 110),30	2221,(0, 113),30	2281,(0, 116),30	2341,(0, 119),30	2401,(0, 122),30	2461,(0, 125),30	2521,(0, 128),30	2581,(0, 131),30	2641,(0, 134),30	2701,(0, 137),30	2761,(0, 140),30	2821,(0, 143),30	2881,(0, 146),30	2941,(0, 149),30	3001,(0, 152),30	3061,(0, 155),30	3121,(0, 158),30	3181,(0, 161),30	3241,(0, 164),30	3301,(0, 167),30	3361,(0, 170),30	3421,(0, 173),30	3481,(0, 176),30	3541,(0, 179),30	3601,(0, 182),30	3661,(0, 185),30	3721,(0, 188),30	3781,(0, 191),30	3841,(0, 194),30	3901,(0, 197),30	3961,(0, 200),30	
33,(2, 201),21	63,(3, 201),21	93,(5, 201),21	123,(6, 201),21	153,(8, 201),21	183,(9, 201),21	213,(11, 201),21	243,(12, 201),21	273,(14, 201),21	303,(15, 201),21	333,(17, 201),21	363,(18, 201),21	393,(20, 201),21	423,(21, 201),21	453,(23, 201),21	483,(24, 201),21	513,(26, 201),21	543,(27, 201),21	573,(29, 201),21	603,(30, 201),21	633,(32, 201),21	663,(33, 201),21	693,(35, 201),21	723,(36, 201),21	753,(38, 201),21	783,(39, 201),21	813,(41, 201),21	843,(42, 201),21	873,(44, 201),21	903,(45, 201),21	933,(47, 201),21	963,(48, 201),21	993,(50, 201),21	1023,(51, 201),21	1053,(53, 201),21	1083,(54, 201),21	1113,(56, 201),21	1143,(57, 201),21	1173,(59, 201),21	1203,(60, 201),21	1233,(62, 201),21	1263,(63, 201),21	1293,(65, 201),21	1323,(66, 201),21	1353,(68, 201),21	1383,(69, 201),21	1413,(71, 201),21	1443,(72, 201),21	1473,(74, 201),21	1503,(75, 201),21	1533,(77, 201),21	1563,(78, 201),21	1593,(80, 201),21	1623,(81, 201),21	1653,(83, 201),21	1683,(84, 201),21	1713,(86, 201),21	1743,(87, 201),21	1773,(89, 201),21	1803,(90, 201),21	1833,(92, 201),21	1863,(93, 201),21	1893,(95, 201),21	1923,(96, 201),21	1953,(98, 201),21	1983,(99, 201),21	2013,(101, 201),21	2043,(102, 201),21	2073,(104, 201),21	2103,(105, 201),21	2133,(107, 201),21	2163,(108, 201),21	2193,(110, 201),21	2223,(111, 201),21	2253,(113, 201),21	2283,(114, 201),21	2313,(116, 201),21	2343,(117, 201),21	2373,(119, 201),21	2403,(120, 201),21	2433,(122, 201),21	2463,(123, 201),21	2493,(125, 201),21	2523,(126, 201),21	2553,(128, 201),21	2583,(129, 201),21	2613,(131, 201),21	2643,(132, 201),21	2673,(134, 201),21	2703,(135, 201),21	2733,(137, 201),21	2763,(138, 201),21	2793,(140, 201),21	2823,(141, 201),21	2853,(143, 201),21	2883,(144, 201),21	2913,(146, 201),21	2943,(147, 201),21	2973,(149, 201),21	3003,(150, 201),21	3033,(152, 201),21	3063,(153, 201),21	3093,(155, 201),21	3123,(156, 201),21	3153,(158, 201),21	3183,(159, 201),21	3213,(161, 201),21	3243,(162, 201),21	3273,(164, 201),21	3303,(165, 201),21	3333,(167, 201),21	3363,(168, 201),21	3393,(170, 201),21	3423,(171, 201),21	3453,(173, 201),21	3483,(174, 201),21	3513,(176, 201),21	3543,(177, 201),21	3573,(179, 201),21	3603,(180, 201),21	3633,(182, 201),21	3663,(183, 201),21	3693,(185, 201),21	3723,(186, 201),21	3753,(188, 201),21	3783,(189, 201),21	3813,(191, 201),21	3843,(192, 201),21	3873,(194, 201),21	3903,(195, 201),21	3933,(197, 201),21	3963,(198, 201),21	3993,(200, 201),21	
# Outgoing
63,(3, 201),21	123,(6, 201),21	183,(9, 201),21	243,(12, 201),21	303,(15, 201),21	363,(18, 201),21	423,(21, 201),21	483,(24, 201),21	543,(27, 201),21	603,(30, 201),21	663,(33, 201),21	723,(36, 201),21	783,(39, 201),21	843,(42, 201),21	903,(45, 201),21	963,(48, 201),21	1023,(51, 201),21	1083,(54, 201),21	1143,(57, 201),21	1203,(60, 201),21	1263,(63, 201),21	1323,(66, 201),21	1383,(69, 201),21	1443,(72, 201),21	1503,(75, 201),21	1563,(78, 201),21	1623,(81, 201),21	1683,(84, 201),21	1743,(87, 201),21	1803,(90, 201),21	1863,(93, 201),21	1923,(96, 201),21	1983,(99, 201),21	2043,(102, 201),21	2103,(105, 201),21	2163,(108, 201),21	2223,(111, 201),21	2283,(114, 201),21	2343,(117, 201),21	2403,(120, 201),21	2463,(123, 201),21	2523,(126, 201),21	2583,(129, 201),21	2643,(132, 201),21	2703,(135, 201),21	2763,(138, 201),21	2823,(141, 201),21	2883,(144, 201),21	2943,(147, 201),21	3003,(150, 201),21	3063,(153, 201),21	3123,(156, 201),21	3183,(159, 201),21	3243,(162, 201),21	3303,(165, 201),21	3363,(168, 201),21	3423,(171, 201),21	3483,(174, 201),21	3543,(177, 201),21	3603,(180, 201),21	3663,(183, 201),21	3723,(186, 201),21	3783,(189, 201),21	3843,(192, 201),21	3903,(195, 201),21	3963,(198, 201),21	
33,(2, 201),21	93,(5, 201),21	153,(8, 201),21	213,(11, 201),21	273,(14, 201),21	333,(17, 201),21	393,(20, 201),21	453,(23, 201),21	513,(26, 201),21	573,(29, 201),21	633,(32, 201),21	693,(35, 201),21	753,(38, 201),21	813,(41, 201),21	873,(44, 201),21	933,(47, 201),21	993,(50, 201),21	1053,(53, 201),21	1113,(56, 201),21	1173,(59, 201),21	1233,(62, 201),21	1293,(65, 201),21	1353,(68, 201),21	1413,(71, 201),21	1473,(74, 201),21	1533,(77, 201),21	1593,(80, 201),21	1653,(83, 201),21	1713,(86, 201),21	1773,(89, 201),21	1833,(92, 201),21	1893,(95, 201),21	1953,(98, 201),21	2013,(101, 201),21	2073,(104, 201),21	2133,(107, 201),21	2193,(110, 201),21	2253,(113, 201),21	2313,(116, 201),21	2373,(119, 201),21	2433,(122, 201),21	2493,(125, 201),21	2553,(128, 201),21	2613,(131, 201),21	2673,(134, 201),21	2733,(137, 201),21	2793,(140, 201),21	2853,(143, 201),21	2913,(146, 201),21	2973,(149, 201),21	3033,(152, 201),21	3093,(155, 201),21	3153,(158, 201),21	3213,(161, 201),21	3273,(164, 201),21	3333,(167, 201),21	3393,(170, 201),21	3453,(173, 201),21	3513,(176, 201),21	3573,(179, 201),21	3633,(182, 201),21	3693,(185, 201),21	3753,(188, 201),21	3813,(191, 201),21	3873,(194, 201),21	3933,(197, 201),21	3993,(200, 201),21	
1,(0, 2),30	31,(0, 3),30	61,(0, 5),30	91,(0, 6),30	121,(0, 8),30	151,(0, 9),30	181,(0, 11),30	211,(0, 12),30	241,(0, 14),30	271,(0, 15),30	301,(0, 17),30	331,(0, 18),30	361,(0, 20),30	391,(0, 21),30	421,(0, 23),30	451,(0, 24),30	481,(0, 26),30	511,(0, 27),30	541,(0, 29),30	571,(0, 30),30	601,(0, 32),30	631,(0, 33),30	661,(0, 35),30	691,(0, 36),30	721,(0, 38),30	751,(0, 39),30	781,(0, 41),30	811,(0, 42),30	841,(0, 44),30	871,(0, 45),30	901,(0, 47),30	931,(0, 48),30	961,(0, 50),30	991,(0, 51),30	1021,(0, 53),30	1051,(0, 54),30	1081,(0, 56),30	1111,(0, 57),30	1141,(0, 59),30	1171,(0, 60),30	1201,(0, 62),30	1231,(0, 63),30	1261,(0, 65),30	1291,(0, 66),30	1321,(0, 68),30	1351,(0, 69),30	1381,(0, 71),30	1411,(0, 72),30	1441,(0, 74),30	1471,(0, 75),30	1501,(0, 77),30	1531,(0, 78),30	1561,(0, 80),30	1591,(0, 81),30	1621,(0, 83),30	1651,(0, 84),30	1681,(0, 86),30	1711,(0, 87),30	1741,(0, 89),30	1771,(0, 90),30	1801,(0, 92),30	1831,(0, 93),30	1861,(0, 95),30	1891,(0, 96),30	1921,(0, 98),30	1951,(0, 99),30	1981,(0, 101),30	2011,(0, 102),30	2041,(0, 104),30	2071,(0, 105),30	2101,(0, 107),30	2131,(0, 108),30	2161,(0, 110),30	2191,(0, 111),30	2221,(0, 113),30	2251,(0, 114),30	2281,(0, 116),30	2311,(0, 117),30	2341,(0, 119),30	2371,(0, 120),30	2401,(0, 122),30	2431,(0, 123),30	2461,(0, 125),30	2491,(0, 126),30	2521,(0, 128),30	2551,(0, 129),30	2581,(0, 131),30	2611,(0, 132),30	2641,(0, 134),30	2671,(0, 135),30	2701,(0, 137),30	2731,(0, 138),30	2761,(0, 140),30	2791,(0, 141),30	2821,(0, 143),30	2851,(0, 144),30	2881,(0, 146),30	2911,(0, 147),30	2941,(0, 149),30	2971,(0, 150),30	3001,(0, 152),30	3031,(0, 153),30	3061,(0, 155),30	3091,(0, 156),30	3121,(0, 158),30	3151,(0, 159),30	3181,(0, 161),30	3211,(0, 162),30	3241,(0, 164),30	3271,(0, 165),30	3301,(0, 167),30	3331,(0, 168),30	3361,(0, 170),30	3391,(0, 171),30	3421,(0, 173),30	3451,(0, 174),30	3481,(0, 176),30	3511,(0, 177),30	3541,(0, 179),30	3571,(0, 180),30	3601,(0, 182),30	3631,(0, 183),30	3661,(0, 185),30	3691,(0, 186),30	3721,(0, 188),30	3751,(0, 189),30	3781,(0, 191),30	3811,(0, 192),30	3841,(0, 194),30	3871,(0, 195),30	3901,(0, 197),30	3931,(0, 198),30	3961,(0, 200),30	
