1394
# CPU
0,201,1	1,139,8	9,138,8	17,140,8	25,137,8	33,136,8	41,135,8	49,141,8	57,134,8	65,133,8	73,142,8	81,132,8	89,131,8	97,129,8	105,159,8	113,161,8	121,128,8	129,143,8	137,127,8	145,126,8	153,124,8	161,144,8	169,123,8	177,122,8	185,145,8	193,120,8	201,119,8	209,171,8	217,63,8	225,146,8	233,118,8	241,147,8	249,117,8	257,116,8	265,148,8	273,115,8	281,114,8	289,113,8	297,149,8	305,111,8	313,162,8	321,68,8	329,110,8	337,150,8	345,109,8	353,151,8	361,107,8	369,106,8	377,152,8	385,105,8	393,104,8	401,102,8	409,153,8	417,64,8	425,84,8	433,154,8	441,101,8	449,155,8	457,99,8	465,156,8	473,98,8	481,97,8	489,157,8	497,96,8	505,85,8	513,83,8	521,42,8	529,174,8	537,81,8	545,82,8	553,80,8	561,86,8	569,79,8	577,78,8	585,77,8	593,76,8	601,87,8	609,75,8	617,88,8	625,166,8	633,37,8	641,73,8	649,72,8	657,74,8	665,71,8	673,89,8	681,70,8	689,69,8	697,67,8	705,66,8	713,93,8	721,65,8	729,32,8	737,183,8	745,62,8	753,61,8	761,60,8	769,158,8	777,59,8	785,58,8	793,163,8	801,57,8	809,56,8	817,55,8	825,164,8	833,169,8	841,27,8	849,54,8	857,53,8	865,52,8	873,51,8	881,168,8	889,50,8	897,49,8	905,170,8	913,48,8	921,47,8	929,46,8	937,191,8	945,26,8	953,184,8	961,185,8	969,182,8	977,181,8	985,180,8	993,186,8	1001,179,8	1009,176,8	1017,187,8	1025,173,8	1033,45,8	1041,15,8	1049,190,8	1057,44,8	1065,43,8	1073,188,8	1081,41,8	1089,39,8	1097,189,8	1105,38,8	1113,36,8	1121,35,8	1129,192,8	1137,33,8	1145,17,8	1153,20,8	1161,193,8	1169,19,8	1177,18,8	1185,21,8	1193,16,8	1201,14,8	1209,22,8	1217,13,8	1225,23,8	1233,12,8	1241,25,8	1249,7,8	1257,6,8	1265,29,8	1273,11,8	1281,1,8	1289,2,8	1297,3,8	1305,4,8	1313,5,8	1321,8,8	1329,9,8	1337,10,8	1345,30,8	1353,31,8	1361,195,8	1369,198,8	1377,199,8	1385,200,8	1393,0,1	
105,125,8	157,121,8	365,100,8	469,92,8	521,90,8	625,94,8	833,175,8	885,177,8	989,172,8	1249,196,8	1353,194,8	
573,91,8	729,165,8	1197,28,8	
53,130,8	209,112,8	261,108,8	313,103,8	417,95,8	677,160,8	781,167,8	937,178,8	1041,40,8	1093,34,8	1145,24,8	1301,197,8	
# Incoming
61,(130, 0),4	113,(125, 0),4	165,(121, 0),4	217,(112, 0),4	269,(108, 0),4	321,(103, 0),4	373,(100, 0),4	425,(95, 0),4	477,(92, 0),4	529,(90, 0),4	581,(91, 0),4	633,(94, 0),4	685,(160, 0),4	737,(165, 0),4	789,(167, 0),4	841,(175, 0),4	893,(177, 0),4	945,(178, 0),4	997,(172, 0),4	1049,(40, 0),4	1101,(34, 0),4	1153,(24, 0),4	1205,(28, 0),4	1257,(196, 0),4	1309,(197, 0),4	1361,(194, 0),4	
53,(201, 125),52	105,(201, 121),52	313,(201, 100),52	417,(201, 92),52	469,(201, 90),52	573,(201, 94),52	781,(201, 175),52	833,(201, 177),52	937,(201, 172),52	1197,(201, 196),52	1301,(201, 194),52	
521,(201, 91),52	677,(201, 165),52	1145,(201, 28),52	
1,(201, 130),52	157,(201, 112),52	209,(201, 108),52	261,(201, 103),52	365,(201, 95),52	625,(201, 160),52	729,(201, 167),52	885,(201, 178),52	989,(201, 40),52	1041,(201, 34),52	1093,(201, 24),52	1249,(201, 197),52	
# Outgoing
1,(201, 130),52	53,(201, 125),52	105,(201, 121),52	157,(201, 112),52	209,(201, 108),52	261,(201, 103),52	313,(201, 100),52	365,(201, 95),52	417,(201, 92),52	469,(201, 90),52	521,(201, 91),52	573,(201, 94),52	625,(201, 160),52	677,(201, 165),52	729,(201, 167),52	781,(201, 175),52	833,(201, 177),52	885,(201, 178),52	937,(201, 172),52	989,(201, 40),52	1041,(201, 34),52	1093,(201, 24),52	1145,(201, 28),52	1197,(201, 196),52	1249,(201, 197),52	1301,(201, 194),52	
113,(125, 0),4	165,(121, 0),4	373,(100, 0),4	477,(92, 0),4	529,(90, 0),4	633,(94, 0),4	841,(175, 0),4	893,(177, 0),4	997,(172, 0),4	1257,(196, 0),4	1361,(194, 0),4	
581,(91, 0),4	737,(165, 0),4	1205,(28, 0),4	
61,(130, 0),4	217,(112, 0),4	269,(108, 0),4	321,(103, 0),4	425,(95, 0),4	685,(160, 0),4	789,(167, 0),4	945,(178, 0),4	1049,(40, 0),4	1101,(34, 0),4	1153,(24, 0),4	1309,(197, 0),4	
