93
# CPU
0,21,1	1,20,6	7,10,6	13,11,6	19,9,6	25,1,6	31,2,6	37,3,6	43,4,6	49,5,6	55,6,6	61,8,6	67,13,6	73,16,6	79,17,6	85,18,6	92,0,1	
31,14,6	46,7,6	61,15,6	76,19,6	
16,12,6	
# Incoming
22,(12, 0),10	37,(14, 0),10	52,(7, 0),10	67,(15, 0),10	82,(19, 0),10	
16,(21, 14),15	31,(21, 7),15	46,(21, 15),15	61,(21, 19),15	
1,(21, 12),15	
# Outgoing
1,(21, 12),15	16,(21, 14),15	31,(21, 7),15	46,(21, 15),15	61,(21, 19),15	
37,(14, 0),10	52,(7, 0),10	67,(15, 0),10	82,(19, 0),10	
22,(12, 0),10	
