602
# CPU
0,0,1	1,1,3	4,3,3	7,7,3	10,15,3	13,31,3	16,63,3	19,127,3	22,200,3	25,199,3	28,198,3	31,197,3	34,196,3	37,195,3	40,194,3	43,193,3	46,192,3	49,191,3	52,190,3	55,189,3	58,188,3	61,187,3	64,186,3	67,185,3	70,184,3	73,183,3	76,182,3	79,181,3	82,180,3	85,179,3	88,178,3	91,177,3	94,176,3	97,175,3	100,174,3	103,173,3	106,172,3	109,171,3	112,170,3	115,169,3	118,168,3	121,167,3	124,166,3	127,165,3	130,164,3	133,163,3	136,162,3	139,161,3	142,160,3	145,159,3	148,158,3	151,157,3	154,156,3	157,155,3	160,154,3	163,153,3	166,152,3	169,151,3	172,150,3	175,149,3	178,148,3	181,147,3	184,146,3	187,145,3	190,144,3	193,143,3	196,142,3	199,141,3	202,140,3	205,139,3	208,138,3	211,137,3	214,136,3	217,135,3	220,134,3	223,133,3	226,132,3	229,131,3	232,130,3	235,129,3	238,126,3	241,128,3	244,125,3	247,124,3	250,123,3	253,122,3	256,121,3	259,120,3	262,119,3	265,118,3	268,117,3	271,116,3	274,115,3	277,114,3	280,113,3	283,112,3	286,111,3	289,110,3	292,109,3	295,108,3	298,107,3	301,106,3	304,105,3	307,104,3	310,103,3	313,102,3	316,101,3	319,100,3	322,99,3	325,98,3	328,97,3	331,96,3	334,95,3	337,94,3	340,93,3	343,92,3	346,91,3	349,90,3	352,89,3	355,88,3	358,87,3	361,86,3	364,85,3	367,84,3	370,83,3	373,82,3	376,81,3	379,80,3	382,79,3	385,78,3	388,77,3	391,76,3	394,75,3	397,74,3	400,73,3	403,72,3	406,71,3	409,70,3	412,69,3	415,68,3	418,67,3	421,66,3	424,65,3	427,62,3	430,64,3	433,61,3	436,60,3	439,59,3	442,58,3	445,57,3	448,56,3	451,55,3	454,54,3	457,53,3	460,52,3	463,51,3	466,50,3	469,49,3	472,48,3	475,47,3	478,46,3	481,45,3	484,44,3	487,43,3	490,42,3	493,41,3	496,40,3	499,39,3	502,38,3	505,37,3	508,36,3	511,35,3	514,34,3	517,33,3	520,30,3	523,32,3	526,29,3	529,28,3	532,27,3	535,26,3	538,25,3	541,24,3	544,23,3	547,22,3	550,21,3	553,20,3	556,19,3	559,18,3	562,17,3	565,14,3	568,16,3	571,13,3	574,12,3	577,11,3	580,10,3	583,9,3	586,6,3	589,8,3	592,5,3	595,2,3	598,4,3	601,201,1	
# Incoming

# Outgoing

