1516
# CPU
7,4,30	37,8,30	67,12,30	97,16,30	127,20,30	157,24,30	187,28,30	217,32,30	247,36,30	277,40,30	307,44,30	337,48,30	367,52,30	397,56,30	427,60,30	457,64,30	487,68,30	517,72,30	547,76,30	577,80,30	607,84,30	637,88,30	667,92,30	697,96,30	727,100,30	757,104,30	787,108,30	817,112,30	847,116,30	877,120,30	907,124,30	937,128,30	967,132,30	997,136,30	1027,140,30	1057,144,30	1087,148,30	1117,152,30	1147,156,30	1177,160,30	1207,164,30	1237,168,30	1267,172,30	1297,176,30	1327,180,30	1357,184,30	1387,188,30	1417,192,30	1447,196,30	1477,200,30	
5,3,30	35,7,30	65,11,30	95,15,30	125,19,30	155,23,30	185,27,30	215,31,30	245,35,30	275,39,30	305,43,30	335,47,30	365,51,30	395,55,30	425,59,30	455,63,30	485,67,30	515,71,30	545,75,30	575,79,30	605,83,30	635,87,30	665,91,30	695,95,30	725,99,30	755,103,30	785,107,30	815,111,30	845,115,30	875,119,30	905,123,30	935,127,30	965,131,30	995,135,30	1025,139,30	1055,143,30	1085,147,30	1115,151,30	1145,155,30	1175,159,30	1205,163,30	1235,167,30	1265,171,30	1295,175,30	1325,179,30	1355,183,30	1385,187,30	1415,191,30	1445,195,30	1475,199,30	
3,2,30	33,6,30	63,10,30	93,14,30	123,18,30	153,22,30	183,26,30	213,30,30	243,34,30	273,38,30	303,42,30	333,46,30	363,50,30	393,54,30	423,58,30	453,62,30	483,66,30	513,70,30	543,74,30	573,78,30	603,82,30	633,86,30	663,90,30	693,94,30	723,98,30	753,102,30	783,106,30	813,110,30	843,114,30	873,118,30	903,122,30	933,126,30	963,130,30	993,134,30	1023,138,30	1053,142,30	1083,146,30	1113,150,30	1143,154,30	1173,158,30	1203,162,30	1233,166,30	1263,170,30	1293,174,30	1323,178,30	1353,182,30	1383,186,30	1413,190,30	1443,194,30	1473,198,30	
0,0,1	1,1,30	31,9,30	61,25,30	91,57,30	121,121,30	151,197,30	181,193,30	211,189,30	241,185,30	271,181,30	301,177,30	331,173,30	361,169,30	391,165,30	421,161,30	451,157,30	481,153,30	511,149,30	541,145,30	571,141,30	601,137,30	631,133,30	661,129,30	691,117,30	721,125,30	751,113,30	781,109,30	811,105,30	841,101,30	871,97,30	901,93,30	931,89,30	961,85,30	991,81,30	1021,77,30	1051,73,30	1081,69,30	1111,65,30	1141,53,30	1171,61,30	1201,49,30	1231,45,30	1261,41,30	1291,37,30	1321,33,30	1351,21,30	1381,29,30	1411,17,30	1441,5,30	1471,13,30	1515,201,1	
# Incoming
5,(0, 4),2	11,(0, 8),2	17,(0, 12),2	23,(0, 16),2	29,(0, 20),2	35,(0, 24),2	41,(0, 28),2	47,(0, 32),2	53,(0, 36),2	59,(0, 40),2	65,(0, 44),2	71,(0, 48),2	77,(0, 52),2	83,(0, 56),2	89,(0, 60),2	95,(0, 64),2	101,(0, 68),2	107,(0, 72),2	113,(0, 76),2	119,(0, 80),2	125,(0, 84),2	131,(0, 88),2	137,(0, 92),2	143,(0, 96),2	149,(0, 100),2	155,(0, 104),2	161,(0, 108),2	167,(0, 112),2	173,(0, 116),2	179,(0, 120),2	185,(0, 124),2	191,(0, 128),2	197,(0, 132),2	203,(0, 136),2	209,(0, 140),2	215,(0, 144),2	221,(0, 148),2	227,(0, 152),2	233,(0, 156),2	239,(0, 160),2	245,(0, 164),2	251,(0, 168),2	257,(0, 172),2	263,(0, 176),2	269,(0, 180),2	275,(0, 184),2	281,(0, 188),2	287,(0, 192),2	293,(0, 196),2	299,(0, 200),2	
3,(0, 3),2	9,(0, 7),2	15,(0, 11),2	21,(0, 15),2	27,(0, 19),2	33,(0, 23),2	39,(0, 27),2	45,(0, 31),2	51,(0, 35),2	57,(0, 39),2	63,(0, 43),2	69,(0, 47),2	75,(0, 51),2	81,(0, 55),2	87,(0, 59),2	93,(0, 63),2	99,(0, 67),2	105,(0, 71),2	111,(0, 75),2	117,(0, 79),2	123,(0, 83),2	129,(0, 87),2	135,(0, 91),2	141,(0, 95),2	147,(0, 99),2	153,(0, 103),2	159,(0, 107),2	165,(0, 111),2	171,(0, 115),2	177,(0, 119),2	183,(0, 123),2	189,(0, 127),2	195,(0, 131),2	201,(0, 135),2	207,(0, 139),2	213,(0, 143),2	219,(0, 147),2	225,(0, 151),2	231,(0, 155),2	237,(0, 159),2	243,(0, 163),2	249,(0, 167),2	255,(0, 171),2	261,(0, 175),2	267,(0, 179),2	273,(0, 183),2	279,(0, 187),2	285,(0, 191),2	291,(0, 195),2	297,(0, 199),2	
1,(0, 2),2	7,(0, 6),2	13,(0, 10),2	19,(0, 14),2	25,(0, 18),2	31,(0, 22),2	37,(0, 26),2	43,(0, 30),2	49,(0, 34),2	55,(0, 38),2	61,(0, 42),2	67,(0, 46),2	73,(0, 50),2	79,(0, 54),2	85,(0, 58),2	91,(0, 62),2	97,(0, 66),2	103,(0, 70),2	109,(0, 74),2	115,(0, 78),2	121,(0, 82),2	127,(0, 86),2	133,(0, 90),2	139,(0, 94),2	145,(0, 98),2	151,(0, 102),2	157,(0, 106),2	163,(0, 110),2	169,(0, 114),2	175,(0, 118),2	181,(0, 122),2	187,(0, 126),2	193,(0, 130),2	199,(0, 134),2	205,(0, 138),2	211,(0, 142),2	217,(0, 146),2	223,(0, 150),2	229,(0, 154),2	235,(0, 158),2	241,(0, 162),2	247,(0, 166),2	253,(0, 170),2	259,(0, 174),2	265,(0, 178),2	271,(0, 182),2	277,(0, 186),2	283,(0, 190),2	289,(0, 194),2	295,(0, 198),2	
33,(2, 201),4	37,(3, 201),4	41,(4, 201),4	63,(6, 201),4	67,(7, 201),4	71,(8, 201),4	93,(10, 201),4	97,(11, 201),4	101,(12, 201),4	123,(14, 201),4	127,(15, 201),4	131,(16, 201),4	153,(18, 201),4	157,(19, 201),4	161,(20, 201),4	183,(22, 201),4	187,(23, 201),4	191,(24, 201),4	213,(26, 201),4	217,(27, 201),4	221,(28, 201),4	243,(30, 201),4	247,(31, 201),4	251,(32, 201),4	273,(34, 201),4	277,(35, 201),4	281,(36, 201),4	303,(38, 201),4	307,(39, 201),4	311,(40, 201),4	333,(42, 201),4	337,(43, 201),4	341,(44, 201),4	363,(46, 201),4	367,(47, 201),4	371,(48, 201),4	393,(50, 201),4	397,(51, 201),4	401,(52, 201),4	423,(54, 201),4	427,(55, 201),4	431,(56, 201),4	453,(58, 201),4	457,(59, 201),4	461,(60, 201),4	483,(62, 201),4	487,(63, 201),4	491,(64, 201),4	513,(66, 201),4	517,(67, 201),4	521,(68, 201),4	543,(70, 201),4	547,(71, 201),4	551,(72, 201),4	573,(74, 201),4	577,(75, 201),4	581,(76, 201),4	603,(78, 201),4	607,(79, 201),4	611,(80, 201),4	633,(82, 201),4	637,(83, 201),4	641,(84, 201),4	663,(86, 201),4	667,(87, 201),4	671,(88, 201),4	693,(90, 201),4	697,(91, 201),4	701,(92, 201),4	723,(94, 201),4	727,(95, 201),4	731,(96, 201),4	753,(98, 201),4	757,(99, 201),4	761,(100, 201),4	783,(102, 201),4	787,(103, 201),4	791,(104, 201),4	813,(106, 201),4	817,(107, 201),4	821,(108, 201),4	843,(110, 201),4	847,(111, 201),4	851,(112, 201),4	873,(114, 201),4	877,(115, 201),4	881,(116, 201),4	903,(118, 201),4	907,(119, 201),4	911,(120, 201),4	933,(122, 201),4	937,(123, 201),4	941,(124, 201),4	963,(126, 201),4	967,(127, 201),4	971,(128, 201),4	993,(130, 201),4	997,(131, 201),4	1001,(132, 201),4	1023,(134, 201),4	1027,(135, 201),4	1031,(136, 201),4	1053,(138, 201),4	1057,(139, 201),4	1061,(140, 201),4	1083,(142, 201),4	1087,(143, 201),4	1091,(144, 201),4	1113,(146, 201),4	1117,(147, 201),4	1121,(148, 201),4	1143,(150, 201),4	1147,(151, 201),4	1151,(152, 201),4	1173,(154, 201),4	1177,(155, 201),4	1181,(156, 201),4	1203,(158, 201),4	1207,(159, 201),4	1211,(160, 201),4	1233,(162, 201),4	1237,(163, 201),4	1241,(164, 201),4	1263,(166, 201),4	1267,(167, 201),4	1271,(168, 201),4	1293,(170, 201),4	1297,(171, 201),4	1301,(172, 201),4	1323,(174, 201),4	1327,(175, 201),4	1331,(176, 201),4	1353,(178, 201),4	1357,(179, 201),4	1361,(180, 201),4	1383,(182, 201),4	1387,(183, 201),4	1391,(184, 201),4	1413,(186, 201),4	1417,(187, 201),4	1421,(188, 201),4	1443,(190, 201),4	1447,(191, 201),4	1451,(192, 201),4	1473,(194, 201),4	1477,(195, 201),4	1481,(196, 201),4	1503,(198, 201),4	1507,(199, 201),4	1511,(200, 201),4	
# Outgoing
41,(4, 201),4	71,(8, 201),4	101,(12, 201),4	131,(16, 201),4	161,(20, 201),4	191,(24, 201),4	221,(28, 201),4	251,(32, 201),4	281,(36, 201),4	311,(40, 201),4	341,(44, 201),4	371,(48, 201),4	401,(52, 201),4	431,(56, 201),4	461,(60, 201),4	491,(64, 201),4	521,(68, 201),4	551,(72, 201),4	581,(76, 201),4	611,(80, 201),4	641,(84, 201),4	671,(88, 201),4	701,(92, 201),4	731,(96, 201),4	761,(100, 201),4	791,(104, 201),4	821,(108, 201),4	851,(112, 201),4	881,(116, 201),4	911,(120, 201),4	941,(124, 201),4	971,(128, 201),4	1001,(132, 201),4	1031,(136, 201),4	1061,(140, 201),4	1091,(144, 201),4	1121,(148, 201),4	1151,(152, 201),4	1181,(156, 201),4	1211,(160, 201),4	1241,(164, 201),4	1271,(168, 201),4	1301,(172, 201),4	1331,(176, 201),4	1361,(180, 201),4	1391,(184, 201),4	1421,(188, 201),4	1451,(192, 201),4	1481,(196, 201),4	1511,(200, 201),4	
37,(3, 201),4	67,(7, 201),4	97,(11, 201),4	127,(15, 201),4	157,(19, 201),4	187,(23, 201),4	217,(27, 201),4	247,(31, 201),4	277,(35, 201),4	307,(39, 201),4	337,(43, 201),4	367,(47, 201),4	397,(51, 201),4	427,(55, 201),4	457,(59, 201),4	487,(63, 201),4	517,(67, 201),4	547,(71, 201),4	577,(75, 201),4	607,(79, 201),4	637,(83, 201),4	667,(87, 201),4	697,(91, 201),4	727,(95, 201),4	757,(99, 201),4	787,(103, 201),4	817,(107, 201),4	847,(111, 201),4	877,(115, 201),4	907,(119, 201),4	937,(123, 201),4	967,(127, 201),4	997,(131, 201),4	1027,(135, 201),4	1057,(139, 201),4	1087,(143, 201),4	1117,(147, 201),4	1147,(151, 201),4	1177,(155, 201),4	1207,(159, 201),4	1237,(163, 201),4	1267,(167, 201),4	1297,(171, 201),4	1327,(175, 201),4	1357,(179, 201),4	1387,(183, 201),4	1417,(187, 201),4	1447,(191, 201),4	1477,(195, 201),4	1507,(199, 201),4	
33,(2, 201),4	63,(6, 201),4	93,(10, 201),4	123,(14, 201),4	153,(18, 201),4	183,(22, 201),4	213,(26, 201),4	243,(30, 201),4	273,(34, 201),4	303,(38, 201),4	333,(42, 201),4	363,(46, 201),4	393,(50, 201),4	423,(54, 201),4	453,(58, 201),4	483,(62, 201),4	513,(66, 201),4	543,(70, 201),4	573,(74, 201),4	603,(78, 201),4	633,(82, 201),4	663,(86, 201),4	693,(90, 201),4	723,(94, 201),4	753,(98, 201),4	783,(102, 201),4	813,(106, 201),4	843,(110, 201),4	873,(114, 201),4	903,(118, 201),4	933,(122, 201),4	963,(126, 201),4	993,(130, 201),4	1023,(134, 201),4	1053,(138, 201),4	1083,(142, 201),4	1113,(146, 201),4	1143,(150, 201),4	1173,(154, 201),4	1203,(158, 201),4	1233,(162, 201),4	1263,(166, 201),4	1293,(170, 201),4	1323,(174, 201),4	1353,(178, 201),4	1383,(182, 201),4	1413,(186, 201),4	1443,(190, 201),4	1473,(194, 201),4	1503,(198, 201),4	
1,(0, 2),2	3,(0, 3),2	5,(0, 4),2	7,(0, 6),2	9,(0, 7),2	11,(0, 8),2	13,(0, 10),2	15,(0, 11),2	17,(0, 12),2	19,(0, 14),2	21,(0, 15),2	23,(0, 16),2	25,(0, 18),2	27,(0, 19),2	29,(0, 20),2	31,(0, 22),2	33,(0, 23),2	35,(0, 24),2	37,(0, 26),2	39,(0, 27),2	41,(0, 28),2	43,(0, 30),2	45,(0, 31),2	47,(0, 32),2	49,(0, 34),2	51,(0, 35),2	53,(0, 36),2	55,(0, 38),2	57,(0, 39),2	59,(0, 40),2	61,(0, 42),2	63,(0, 43),2	65,(0, 44),2	67,(0, 46),2	69,(0, 47),2	71,(0, 48),2	73,(0, 50),2	75,(0, 51),2	77,(0, 52),2	79,(0, 54),2	81,(0, 55),2	83,(0, 56),2	85,(0, 58),2	87,(0, 59),2	89,(0, 60),2	91,(0, 62),2	93,(0, 63),2	95,(0, 64),2	97,(0, 66),2	99,(0, 67),2	101,(0, 68),2	103,(0, 70),2	105,(0, 71),2	107,(0, 72),2	109,(0, 74),2	111,(0, 75),2	113,(0, 76),2	115,(0, 78),2	117,(0, 79),2	119,(0, 80),2	121,(0, 82),2	123,(0, 83),2	125,(0, 84),2	127,(0, 86),2	129,(0, 87),2	131,(0, 88),2	133,(0, 90),2	135,(0, 91),2	137,(0, 92),2	139,(0, 94),2	141,(0, 95),2	143,(0, 96),2	145,(0, 98),2	147,(0, 99),2	149,(0, 100),2	151,(0, 102),2	153,(0, 103),2	155,(0, 104),2	157,(0, 106),2	159,(0, 107),2	161,(0, 108),2	163,(0, 110),2	165,(0, 111),2	167,(0, 112),2	169,(0, 114),2	171,(0, 115),2	173,(0, 116),2	175,(0, 118),2	177,(0, 119),2	179,(0, 120),2	181,(0, 122),2	183,(0, 123),2	185,(0, 124),2	187,(0, 126),2	189,(0, 127),2	191,(0, 128),2	193,(0, 130),2	195,(0, 131),2	197,(0, 132),2	199,(0, 134),2	201,(0, 135),2	203,(0, 136),2	205,(0, 138),2	207,(0, 139),2	209,(0, 140),2	211,(0, 142),2	213,(0, 143),2	215,(0, 144),2	217,(0, 146),2	219,(0, 147),2	221,(0, 148),2	223,(0, 150),2	225,(0, 151),2	227,(0, 152),2	229,(0, 154),2	231,(0, 155),2	233,(0, 156),2	235,(0, 158),2	237,(0, 159),2	239,(0, 160),2	241,(0, 162),2	243,(0, 163),2	245,(0, 164),2	247,(0, 166),2	249,(0, 167),2	251,(0, 168),2	253,(0, 170),2	255,(0, 171),2	257,(0, 172),2	259,(0, 174),2	261,(0, 175),2	263,(0, 176),2	265,(0, 178),2	267,(0, 179),2	269,(0, 180),2	271,(0, 182),2	273,(0, 183),2	275,(0, 184),2	277,(0, 186),2	279,(0, 187),2	281,(0, 188),2	283,(0, 190),2	285,(0, 191),2	287,(0, 192),2	289,(0, 194),2	291,(0, 195),2	293,(0, 196),2	295,(0, 198),2	297,(0, 199),2	299,(0, 200),2	
