3010
# CPU
0,201,1	1,139,30	31,140,30	61,136,30	91,141,30	121,133,30	151,142,30	181,130,30	211,143,30	241,144,30	271,145,30	301,125,30	331,146,30	361,122,30	391,147,30	421,119,30	451,148,30	481,149,30	511,150,30	541,114,30	571,151,30	601,111,30	631,152,30	661,108,30	691,153,30	721,154,30	751,155,30	781,103,30	811,156,30	841,100,30	871,157,30	901,97,30	931,158,30	961,159,30	991,160,30	1021,92,30	1051,161,30	1081,81,30	1111,82,30	1141,78,30	1171,83,30	1201,84,30	1231,85,30	1261,73,30	1291,86,30	1321,87,30	1351,88,30	1381,68,30	1411,89,30	1441,162,30	1471,163,30	1501,63,30	1531,164,30	1561,165,30	1591,166,30	1621,58,30	1651,167,30	1681,168,30	1711,169,30	1741,53,30	1771,170,30	1801,171,30	1831,172,30	1861,48,30	1891,173,30	1921,174,30	1951,175,30	1981,43,30	2011,176,30	2041,185,30	2071,186,30	2101,182,30	2131,187,30	2161,179,30	2191,188,30	2221,40,30	2251,189,30	2281,37,30	2311,190,30	2341,34,30	2371,191,30	2401,31,30	2431,192,30	2461,28,30	2491,193,30	2521,17,30	2551,18,30	2581,19,30	2611,20,30	2641,21,30	2671,22,30	2701,23,30	2731,24,30	2761,1,30	2791,3,30	2821,5,30	2851,7,30	2881,25,30	2911,195,30	2941,197,30	2971,199,30	
9,138,30	39,137,30	69,135,30	99,134,30	129,132,30	159,131,30	189,129,30	219,128,30	249,127,30	279,126,30	309,124,30	339,123,30	369,121,30	399,120,30	429,118,30	459,117,30	489,116,30	519,115,30	549,113,30	579,112,30	609,110,30	639,109,30	669,107,30	699,106,30	729,105,30	759,104,30	789,102,30	819,101,30	849,99,30	879,98,30	909,96,30	939,95,30	969,94,30	999,93,30	1029,91,30	1059,90,30	1089,80,30	1119,79,30	1149,77,30	1179,76,30	1209,75,30	1239,74,30	1269,72,30	1299,71,30	1329,70,30	1359,69,30	1389,67,30	1419,66,30	1449,65,30	1479,64,30	1509,62,30	1539,61,30	1569,60,30	1599,59,30	1629,57,30	1659,56,30	1689,55,30	1719,54,30	1749,52,30	1779,51,30	1809,50,30	1839,49,30	1869,47,30	1899,46,30	1929,45,30	1959,44,30	1989,42,30	2019,41,30	2049,184,30	2079,183,30	2109,181,30	2139,180,30	2169,178,30	2199,177,30	2229,39,30	2259,38,30	2289,36,30	2319,35,30	2349,33,30	2379,32,30	2409,30,30	2439,29,30	2469,27,30	2499,26,30	2529,16,30	2559,15,30	2589,14,30	2619,13,30	2649,12,30	2679,11,30	2709,10,30	2739,9,30	2769,2,30	2799,4,30	2829,6,30	2859,8,30	2889,194,30	2919,196,30	2949,198,30	2979,200,30	3009,0,1	
# Incoming

1,(201, 138),8	9,(201, 137),8	17,(201, 135),8	25,(201, 134),8	33,(201, 132),8	41,(201, 131),8	49,(201, 129),8	57,(201, 128),8	65,(201, 127),8	73,(201, 126),8	81,(201, 124),8	89,(201, 123),8	97,(201, 121),8	105,(201, 120),8	113,(201, 118),8	121,(201, 117),8	129,(201, 116),8	137,(201, 115),8	145,(201, 113),8	153,(201, 112),8	161,(201, 110),8	169,(201, 109),8	177,(201, 107),8	185,(201, 106),8	193,(201, 105),8	201,(201, 104),8	209,(201, 102),8	217,(201, 101),8	225,(201, 99),8	233,(201, 98),8	241,(201, 96),8	249,(201, 95),8	257,(201, 94),8	265,(201, 93),8	273,(201, 91),8	281,(201, 90),8	289,(201, 80),8	297,(201, 79),8	305,(201, 77),8	313,(201, 76),8	321,(201, 75),8	329,(201, 74),8	337,(201, 72),8	345,(201, 71),8	353,(201, 70),8	361,(201, 69),8	369,(201, 67),8	377,(201, 66),8	385,(201, 65),8	393,(201, 64),8	401,(201, 62),8	409,(201, 61),8	417,(201, 60),8	425,(201, 59),8	433,(201, 57),8	441,(201, 56),8	449,(201, 55),8	457,(201, 54),8	465,(201, 52),8	473,(201, 51),8	481,(201, 50),8	489,(201, 49),8	497,(201, 47),8	505,(201, 46),8	513,(201, 45),8	521,(201, 44),8	529,(201, 42),8	537,(201, 41),8	545,(201, 184),8	553,(201, 183),8	561,(201, 181),8	569,(201, 180),8	577,(201, 178),8	585,(201, 177),8	593,(201, 39),8	601,(201, 38),8	609,(201, 36),8	617,(201, 35),8	625,(201, 33),8	633,(201, 32),8	641,(201, 30),8	649,(201, 29),8	657,(201, 27),8	665,(201, 26),8	673,(201, 16),8	681,(201, 15),8	689,(201, 14),8	697,(201, 13),8	705,(201, 12),8	713,(201, 11),8	721,(201, 10),8	729,(201, 9),8	737,(201, 2),8	745,(201, 4),8	753,(201, 6),8	761,(201, 8),8	769,(201, 194),8	777,(201, 196),8	785,(201, 198),8	793,(201, 200),8	801,(139, 0),4	805,(140, 0),4	809,(136, 0),4	813,(141, 0),4	817,(133, 0),4	821,(142, 0),4	825,(130, 0),4	829,(143, 0),4	833,(144, 0),4	837,(145, 0),4	841,(125, 0),4	845,(146, 0),4	849,(122, 0),4	853,(147, 0),4	857,(119, 0),4	861,(148, 0),4	865,(149, 0),4	869,(150, 0),4	873,(114, 0),4	877,(151, 0),4	881,(111, 0),4	885,(152, 0),4	889,(108, 0),4	893,(153, 0),4	897,(154, 0),4	901,(155, 0),4	905,(103, 0),4	909,(156, 0),4	913,(100, 0),4	917,(157, 0),4	931,(97, 0),4	961,(158, 0),4	991,(159, 0),4	1021,(160, 0),4	1051,(92, 0),4	1081,(161, 0),4	1111,(81, 0),4	1141,(82, 0),4	1171,(78, 0),4	1201,(83, 0),4	1231,(84, 0),4	1261,(85, 0),4	1291,(73, 0),4	1321,(86, 0),4	1351,(87, 0),4	1381,(88, 0),4	1411,(68, 0),4	1441,(89, 0),4	1471,(162, 0),4	1501,(163, 0),4	1531,(63, 0),4	1561,(164, 0),4	1591,(165, 0),4	1621,(166, 0),4	1651,(58, 0),4	1681,(167, 0),4	1711,(168, 0),4	1741,(169, 0),4	1771,(53, 0),4	1801,(170, 0),4	1831,(171, 0),4	1861,(172, 0),4	1891,(48, 0),4	1921,(173, 0),4	1951,(174, 0),4	1981,(175, 0),4	2011,(43, 0),4	2041,(176, 0),4	2071,(185, 0),4	2101,(186, 0),4	2131,(182, 0),4	2161,(187, 0),4	2191,(179, 0),4	2221,(188, 0),4	2251,(40, 0),4	2281,(189, 0),4	2311,(37, 0),4	2341,(190, 0),4	2371,(34, 0),4	2401,(191, 0),4	2431,(31, 0),4	2461,(192, 0),4	2491,(28, 0),4	2521,(193, 0),4	2551,(17, 0),4	2581,(18, 0),4	2611,(19, 0),4	2641,(20, 0),4	2671,(21, 0),4	2701,(22, 0),4	2731,(23, 0),4	2761,(24, 0),4	2791,(1, 0),4	2821,(3, 0),4	2851,(5, 0),4	2881,(7, 0),4	2911,(25, 0),4	2941,(195, 0),4	2971,(197, 0),4	3001,(199, 0),4	
# Outgoing
1,(201, 138),8	9,(201, 137),8	17,(201, 135),8	25,(201, 134),8	33,(201, 132),8	41,(201, 131),8	49,(201, 129),8	57,(201, 128),8	65,(201, 127),8	73,(201, 126),8	81,(201, 124),8	89,(201, 123),8	97,(201, 121),8	105,(201, 120),8	113,(201, 118),8	121,(201, 117),8	129,(201, 116),8	137,(201, 115),8	145,(201, 113),8	153,(201, 112),8	161,(201, 110),8	169,(201, 109),8	177,(201, 107),8	185,(201, 106),8	193,(201, 105),8	201,(201, 104),8	209,(201, 102),8	217,(201, 101),8	225,(201, 99),8	233,(201, 98),8	241,(201, 96),8	249,(201, 95),8	257,(201, 94),8	265,(201, 93),8	273,(201, 91),8	281,(201, 90),8	289,(201, 80),8	297,(201, 79),8	305,(201, 77),8	313,(201, 76),8	321,(201, 75),8	329,(201, 74),8	337,(201, 72),8	345,(201, 71),8	353,(201, 70),8	361,(201, 69),8	369,(201, 67),8	377,(201, 66),8	385,(201, 65),8	393,(201, 64),8	401,(201, 62),8	409,(201, 61),8	417,(201, 60),8	425,(201, 59),8	433,(201, 57),8	441,(201, 56),8	449,(201, 55),8	457,(201, 54),8	465,(201, 52),8	473,(201, 51),8	481,(201, 50),8	489,(201, 49),8	497,(201, 47),8	505,(201, 46),8	513,(201, 45),8	521,(201, 44),8	529,(201, 42),8	537,(201, 41),8	545,(201, 184),8	553,(201, 183),8	561,(201, 181),8	569,(201, 180),8	577,(201, 178),8	585,(201, 177),8	593,(201, 39),8	601,(201, 38),8	609,(201, 36),8	617,(201, 35),8	625,(201, 33),8	633,(201, 32),8	641,(201, 30),8	649,(201, 29),8	657,(201, 27),8	665,(201, 26),8	673,(201, 16),8	681,(201, 15),8	689,(201, 14),8	697,(201, 13),8	705,(201, 12),8	713,(201, 11),8	721,(201, 10),8	729,(201, 9),8	737,(201, 2),8	745,(201, 4),8	753,(201, 6),8	761,(201, 8),8	769,(201, 194),8	777,(201, 196),8	785,(201, 198),8	793,(201, 200),8	801,(139, 0),4	805,(140, 0),4	809,(136, 0),4	813,(141, 0),4	817,(133, 0),4	821,(142, 0),4	825,(130, 0),4	829,(143, 0),4	833,(144, 0),4	837,(145, 0),4	841,(125, 0),4	845,(146, 0),4	849,(122, 0),4	853,(147, 0),4	857,(119, 0),4	861,(148, 0),4	865,(149, 0),4	869,(150, 0),4	873,(114, 0),4	877,(151, 0),4	881,(111, 0),4	885,(152, 0),4	889,(108, 0),4	893,(153, 0),4	897,(154, 0),4	901,(155, 0),4	905,(103, 0),4	909,(156, 0),4	913,(100, 0),4	917,(157, 0),4	931,(97, 0),4	961,(158, 0),4	991,(159, 0),4	1021,(160, 0),4	1051,(92, 0),4	1081,(161, 0),4	1111,(81, 0),4	1141,(82, 0),4	1171,(78, 0),4	1201,(83, 0),4	1231,(84, 0),4	1261,(85, 0),4	1291,(73, 0),4	1321,(86, 0),4	1351,(87, 0),4	1381,(88, 0),4	1411,(68, 0),4	1441,(89, 0),4	1471,(162, 0),4	1501,(163, 0),4	1531,(63, 0),4	1561,(164, 0),4	1591,(165, 0),4	1621,(166, 0),4	1651,(58, 0),4	1681,(167, 0),4	1711,(168, 0),4	1741,(169, 0),4	1771,(53, 0),4	1801,(170, 0),4	1831,(171, 0),4	1861,(172, 0),4	1891,(48, 0),4	1921,(173, 0),4	1951,(174, 0),4	1981,(175, 0),4	2011,(43, 0),4	2041,(176, 0),4	2071,(185, 0),4	2101,(186, 0),4	2131,(182, 0),4	2161,(187, 0),4	2191,(179, 0),4	2221,(188, 0),4	2251,(40, 0),4	2281,(189, 0),4	2311,(37, 0),4	2341,(190, 0),4	2371,(34, 0),4	2401,(191, 0),4	2431,(31, 0),4	2461,(192, 0),4	2491,(28, 0),4	2521,(193, 0),4	2551,(17, 0),4	2581,(18, 0),4	2611,(19, 0),4	2641,(20, 0),4	2671,(21, 0),4	2701,(22, 0),4	2731,(23, 0),4	2761,(24, 0),4	2791,(1, 0),4	2821,(3, 0),4	2851,(5, 0),4	2881,(7, 0),4	2911,(25, 0),4	2941,(195, 0),4	2971,(197, 0),4	3001,(199, 0),4	

