1523
# CPU
10,4,30	40,8,30	70,12,30	100,16,30	130,20,30	160,24,30	190,28,30	220,32,30	250,36,30	280,40,30	310,44,30	340,48,30	370,52,30	400,56,30	430,60,30	460,64,30	490,68,30	520,72,30	550,76,30	580,80,30	610,84,30	640,88,30	670,92,30	700,96,30	730,100,30	760,104,30	790,108,30	820,112,30	850,116,30	880,120,30	910,124,30	940,128,30	970,132,30	1000,136,30	1030,140,30	1060,144,30	1090,148,30	1120,152,30	1150,156,30	1180,160,30	1210,164,30	1240,168,30	1270,172,30	1300,176,30	1330,180,30	1360,184,30	1390,188,30	1420,192,30	1450,196,30	1480,200,30	
7,3,30	37,7,30	67,11,30	97,15,30	127,19,30	157,23,30	187,27,30	217,31,30	247,35,30	277,39,30	307,43,30	337,47,30	367,51,30	397,55,30	427,59,30	457,63,30	487,67,30	517,71,30	547,75,30	577,79,30	607,83,30	637,87,30	667,91,30	697,95,30	727,99,30	757,103,30	787,107,30	817,111,30	847,115,30	877,119,30	907,123,30	937,127,30	967,131,30	997,135,30	1027,139,30	1057,143,30	1087,147,30	1117,151,30	1147,155,30	1177,159,30	1207,163,30	1237,167,30	1267,171,30	1297,175,30	1327,179,30	1357,183,30	1387,187,30	1417,191,30	1447,195,30	1477,199,30	
4,2,30	34,6,30	64,10,30	94,14,30	124,18,30	154,22,30	184,26,30	214,30,30	244,34,30	274,38,30	304,42,30	334,46,30	364,50,30	394,54,30	424,58,30	454,62,30	484,66,30	514,70,30	544,74,30	574,78,30	604,82,30	634,86,30	664,90,30	694,94,30	724,98,30	754,102,30	784,106,30	814,110,30	844,114,30	874,118,30	904,122,30	934,126,30	964,130,30	994,134,30	1024,138,30	1054,142,30	1084,146,30	1114,150,30	1144,154,30	1174,158,30	1204,162,30	1234,166,30	1264,170,30	1294,174,30	1324,178,30	1354,182,30	1384,186,30	1414,190,30	1444,194,30	1474,198,30	
0,0,1	1,1,30	31,9,30	61,25,30	91,57,30	121,121,30	151,197,30	181,193,30	211,189,30	241,185,30	271,181,30	301,177,30	331,173,30	361,169,30	391,165,30	421,161,30	451,157,30	481,153,30	511,149,30	541,145,30	571,141,30	601,137,30	631,133,30	661,129,30	691,117,30	721,125,30	751,113,30	781,109,30	811,105,30	841,101,30	871,97,30	901,93,30	931,89,30	961,85,30	991,81,30	1021,77,30	1051,73,30	1081,69,30	1111,65,30	1141,53,30	1171,61,30	1201,49,30	1231,45,30	1261,41,30	1291,37,30	1321,33,30	1351,21,30	1381,29,30	1411,17,30	1441,5,30	1471,13,30	1522,201,1	
# Incoming
7,(0, 4),3	16,(0, 8),3	25,(0, 12),3	34,(0, 16),3	43,(0, 20),3	52,(0, 24),3	61,(0, 28),3	70,(0, 32),3	79,(0, 36),3	88,(0, 40),3	97,(0, 44),3	106,(0, 48),3	115,(0, 52),3	124,(0, 56),3	133,(0, 60),3	142,(0, 64),3	151,(0, 68),3	160,(0, 72),3	169,(0, 76),3	178,(0, 80),3	187,(0, 84),3	196,(0, 88),3	205,(0, 92),3	214,(0, 96),3	223,(0, 100),3	232,(0, 104),3	241,(0, 108),3	250,(0, 112),3	259,(0, 116),3	268,(0, 120),3	277,(0, 124),3	286,(0, 128),3	295,(0, 132),3	304,(0, 136),3	313,(0, 140),3	322,(0, 144),3	331,(0, 148),3	340,(0, 152),3	349,(0, 156),3	358,(0, 160),3	367,(0, 164),3	376,(0, 168),3	385,(0, 172),3	394,(0, 176),3	403,(0, 180),3	412,(0, 184),3	421,(0, 188),3	430,(0, 192),3	439,(0, 196),3	448,(0, 200),3	
4,(0, 3),3	13,(0, 7),3	22,(0, 11),3	31,(0, 15),3	40,(0, 19),3	49,(0, 23),3	58,(0, 27),3	67,(0, 31),3	76,(0, 35),3	85,(0, 39),3	94,(0, 43),3	103,(0, 47),3	112,(0, 51),3	121,(0, 55),3	130,(0, 59),3	139,(0, 63),3	148,(0, 67),3	157,(0, 71),3	166,(0, 75),3	175,(0, 79),3	184,(0, 83),3	193,(0, 87),3	202,(0, 91),3	211,(0, 95),3	220,(0, 99),3	229,(0, 103),3	238,(0, 107),3	247,(0, 111),3	256,(0, 115),3	265,(0, 119),3	274,(0, 123),3	283,(0, 127),3	292,(0, 131),3	301,(0, 135),3	310,(0, 139),3	319,(0, 143),3	328,(0, 147),3	337,(0, 151),3	346,(0, 155),3	355,(0, 159),3	364,(0, 163),3	373,(0, 167),3	382,(0, 171),3	391,(0, 175),3	400,(0, 179),3	409,(0, 183),3	418,(0, 187),3	427,(0, 191),3	436,(0, 195),3	445,(0, 199),3	
1,(0, 2),3	10,(0, 6),3	19,(0, 10),3	28,(0, 14),3	37,(0, 18),3	46,(0, 22),3	55,(0, 26),3	64,(0, 30),3	73,(0, 34),3	82,(0, 38),3	91,(0, 42),3	100,(0, 46),3	109,(0, 50),3	118,(0, 54),3	127,(0, 58),3	136,(0, 62),3	145,(0, 66),3	154,(0, 70),3	163,(0, 74),3	172,(0, 78),3	181,(0, 82),3	190,(0, 86),3	199,(0, 90),3	208,(0, 94),3	217,(0, 98),3	226,(0, 102),3	235,(0, 106),3	244,(0, 110),3	253,(0, 114),3	262,(0, 118),3	271,(0, 122),3	280,(0, 126),3	289,(0, 130),3	298,(0, 134),3	307,(0, 138),3	316,(0, 142),3	325,(0, 146),3	334,(0, 150),3	343,(0, 154),3	352,(0, 158),3	361,(0, 162),3	370,(0, 166),3	379,(0, 170),3	388,(0, 174),3	397,(0, 178),3	406,(0, 182),3	415,(0, 186),3	424,(0, 190),3	433,(0, 194),3	442,(0, 198),3	
34,(2, 201),6	40,(3, 201),6	46,(4, 201),6	64,(6, 201),6	70,(7, 201),6	76,(8, 201),6	94,(10, 201),6	100,(11, 201),6	106,(12, 201),6	124,(14, 201),6	130,(15, 201),6	136,(16, 201),6	154,(18, 201),6	160,(19, 201),6	166,(20, 201),6	184,(22, 201),6	190,(23, 201),6	196,(24, 201),6	214,(26, 201),6	220,(27, 201),6	226,(28, 201),6	244,(30, 201),6	250,(31, 201),6	256,(32, 201),6	274,(34, 201),6	280,(35, 201),6	286,(36, 201),6	304,(38, 201),6	310,(39, 201),6	316,(40, 201),6	334,(42, 201),6	340,(43, 201),6	346,(44, 201),6	364,(46, 201),6	370,(47, 201),6	376,(48, 201),6	394,(50, 201),6	400,(51, 201),6	406,(52, 201),6	424,(54, 201),6	430,(55, 201),6	436,(56, 201),6	454,(58, 201),6	460,(59, 201),6	466,(60, 201),6	484,(62, 201),6	490,(63, 201),6	496,(64, 201),6	514,(66, 201),6	520,(67, 201),6	526,(68, 201),6	544,(70, 201),6	550,(71, 201),6	556,(72, 201),6	574,(74, 201),6	580,(75, 201),6	586,(76, 201),6	604,(78, 201),6	610,(79, 201),6	616,(80, 201),6	634,(82, 201),6	640,(83, 201),6	646,(84, 201),6	664,(86, 201),6	670,(87, 201),6	676,(88, 201),6	694,(90, 201),6	700,(91, 201),6	706,(92, 201),6	724,(94, 201),6	730,(95, 201),6	736,(96, 201),6	754,(98, 201),6	760,(99, 201),6	766,(100, 201),6	784,(102, 201),6	790,(103, 201),6	796,(104, 201),6	814,(106, 201),6	820,(107, 201),6	826,(108, 201),6	844,(110, 201),6	850,(111, 201),6	856,(112, 201),6	874,(114, 201),6	880,(115, 201),6	886,(116, 201),6	904,(118, 201),6	910,(119, 201),6	916,(120, 201),6	934,(122, 201),6	940,(123, 201),6	946,(124, 201),6	964,(126, 201),6	970,(127, 201),6	976,(128, 201),6	994,(130, 201),6	1000,(131, 201),6	1006,(132, 201),6	1024,(134, 201),6	1030,(135, 201),6	1036,(136, 201),6	1054,(138, 201),6	1060,(139, 201),6	1066,(140, 201),6	1084,(142, 201),6	1090,(143, 201),6	1096,(144, 201),6	1114,(146, 201),6	1120,(147, 201),6	1126,(148, 201),6	1144,(150, 201),6	1150,(151, 201),6	1156,(152, 201),6	1174,(154, 201),6	1180,(155, 201),6	1186,(156, 201),6	1204,(158, 201),6	1210,(159, 201),6	1216,(160, 201),6	1234,(162, 201),6	1240,(163, 201),6	1246,(164, 201),6	1264,(166, 201),6	1270,(167, 201),6	1276,(168, 201),6	1294,(170, 201),6	1300,(171, 201),6	1306,(172, 201),6	1324,(174, 201),6	1330,(175, 201),6	1336,(176, 201),6	1354,(178, 201),6	1360,(179, 201),6	1366,(180, 201),6	1384,(182, 201),6	1390,(183, 201),6	1396,(184, 201),6	1414,(186, 201),6	1420,(187, 201),6	1426,(188, 201),6	1444,(190, 201),6	1450,(191, 201),6	1456,(192, 201),6	1474,(194, 201),6	1480,(195, 201),6	1486,(196, 201),6	1504,(198, 201),6	1510,(199, 201),6	1516,(200, 201),6	
# Outgoing
46,(4, 201),6	76,(8, 201),6	106,(12, 201),6	136,(16, 201),6	166,(20, 201),6	196,(24, 201),6	226,(28, 201),6	256,(32, 201),6	286,(36, 201),6	316,(40, 201),6	346,(44, 201),6	376,(48, 201),6	406,(52, 201),6	436,(56, 201),6	466,(60, 201),6	496,(64, 201),6	526,(68, 201),6	556,(72, 201),6	586,(76, 201),6	616,(80, 201),6	646,(84, 201),6	676,(88, 201),6	706,(92, 201),6	736,(96, 201),6	766,(100, 201),6	796,(104, 201),6	826,(108, 201),6	856,(112, 201),6	886,(116, 201),6	916,(120, 201),6	946,(124, 201),6	976,(128, 201),6	1006,(132, 201),6	1036,(136, 201),6	1066,(140, 201),6	1096,(144, 201),6	1126,(148, 201),6	1156,(152, 201),6	1186,(156, 201),6	1216,(160, 201),6	1246,(164, 201),6	1276,(168, 201),6	1306,(172, 201),6	1336,(176, 201),6	1366,(180, 201),6	1396,(184, 201),6	1426,(188, 201),6	1456,(192, 201),6	1486,(196, 201),6	1516,(200, 201),6	
40,(3, 201),6	70,(7, 201),6	100,(11, 201),6	130,(15, 201),6	160,(19, 201),6	190,(23, 201),6	220,(27, 201),6	250,(31, 201),6	280,(35, 201),6	310,(39, 201),6	340,(43, 201),6	370,(47, 201),6	400,(51, 201),6	430,(55, 201),6	460,(59, 201),6	490,(63, 201),6	520,(67, 201),6	550,(71, 201),6	580,(75, 201),6	610,(79, 201),6	640,(83, 201),6	670,(87, 201),6	700,(91, 201),6	730,(95, 201),6	760,(99, 201),6	790,(103, 201),6	820,(107, 201),6	850,(111, 201),6	880,(115, 201),6	910,(119, 201),6	940,(123, 201),6	970,(127, 201),6	1000,(131, 201),6	1030,(135, 201),6	1060,(139, 201),6	1090,(143, 201),6	1120,(147, 201),6	1150,(151, 201),6	1180,(155, 201),6	1210,(159, 201),6	1240,(163, 201),6	1270,(167, 201),6	1300,(171, 201),6	1330,(175, 201),6	1360,(179, 201),6	1390,(183, 201),6	1420,(187, 201),6	1450,(191, 201),6	1480,(195, 201),6	1510,(199, 201),6	
34,(2, 201),6	64,(6, 201),6	94,(10, 201),6	124,(14, 201),6	154,(18, 201),6	184,(22, 201),6	214,(26, 201),6	244,(30, 201),6	274,(34, 201),6	304,(38, 201),6	334,(42, 201),6	364,(46, 201),6	394,(50, 201),6	424,(54, 201),6	454,(58, 201),6	484,(62, 201),6	514,(66, 201),6	544,(70, 201),6	574,(74, 201),6	604,(78, 201),6	634,(82, 201),6	664,(86, 201),6	694,(90, 201),6	724,(94, 201),6	754,(98, 201),6	784,(102, 201),6	814,(106, 201),6	844,(110, 201),6	874,(114, 201),6	904,(118, 201),6	934,(122, 201),6	964,(126, 201),6	994,(130, 201),6	1024,(134, 201),6	1054,(138, 201),6	1084,(142, 201),6	1114,(146, 201),6	1144,(150, 201),6	1174,(154, 201),6	1204,(158, 201),6	1234,(162, 201),6	1264,(166, 201),6	1294,(170, 201),6	1324,(174, 201),6	1354,(178, 201),6	1384,(182, 201),6	1414,(186, 201),6	1444,(190, 201),6	1474,(194, 201),6	1504,(198, 201),6	
1,(0, 2),3	4,(0, 3),3	7,(0, 4),3	10,(0, 6),3	13,(0, 7),3	16,(0, 8),3	19,(0, 10),3	22,(0, 11),3	25,(0, 12),3	28,(0, 14),3	31,(0, 15),3	34,(0, 16),3	37,(0, 18),3	40,(0, 19),3	43,(0, 20),3	46,(0, 22),3	49,(0, 23),3	52,(0, 24),3	55,(0, 26),3	58,(0, 27),3	61,(0, 28),3	64,(0, 30),3	67,(0, 31),3	70,(0, 32),3	73,(0, 34),3	76,(0, 35),3	79,(0, 36),3	82,(0, 38),3	85,(0, 39),3	88,(0, 40),3	91,(0, 42),3	94,(0, 43),3	97,(0, 44),3	100,(0, 46),3	103,(0, 47),3	106,(0, 48),3	109,(0, 50),3	112,(0, 51),3	115,(0, 52),3	118,(0, 54),3	121,(0, 55),3	124,(0, 56),3	127,(0, 58),3	130,(0, 59),3	133,(0, 60),3	136,(0, 62),3	139,(0, 63),3	142,(0, 64),3	145,(0, 66),3	148,(0, 67),3	151,(0, 68),3	154,(0, 70),3	157,(0, 71),3	160,(0, 72),3	163,(0, 74),3	166,(0, 75),3	169,(0, 76),3	172,(0, 78),3	175,(0, 79),3	178,(0, 80),3	181,(0, 82),3	184,(0, 83),3	187,(0, 84),3	190,(0, 86),3	193,(0, 87),3	196,(0, 88),3	199,(0, 90),3	202,(0, 91),3	205,(0, 92),3	208,(0, 94),3	211,(0, 95),3	214,(0, 96),3	217,(0, 98),3	220,(0, 99),3	223,(0, 100),3	226,(0, 102),3	229,(0, 103),3	232,(0, 104),3	235,(0, 106),3	238,(0, 107),3	241,(0, 108),3	244,(0, 110),3	247,(0, 111),3	250,(0, 112),3	253,(0, 114),3	256,(0, 115),3	259,(0, 116),3	262,(0, 118),3	265,(0, 119),3	268,(0, 120),3	271,(0, 122),3	274,(0, 123),3	277,(0, 124),3	280,(0, 126),3	283,(0, 127),3	286,(0, 128),3	289,(0, 130),3	292,(0, 131),3	295,(0, 132),3	298,(0, 134),3	301,(0, 135),3	304,(0, 136),3	307,(0, 138),3	310,(0, 139),3	313,(0, 140),3	316,(0, 142),3	319,(0, 143),3	322,(0, 144),3	325,(0, 146),3	328,(0, 147),3	331,(0, 148),3	334,(0, 150),3	337,(0, 151),3	340,(0, 152),3	343,(0, 154),3	346,(0, 155),3	349,(0, 156),3	352,(0, 158),3	355,(0, 159),3	358,(0, 160),3	361,(0, 162),3	364,(0, 163),3	367,(0, 164),3	370,(0, 166),3	373,(0, 167),3	376,(0, 168),3	379,(0, 170),3	382,(0, 171),3	385,(0, 172),3	388,(0, 174),3	391,(0, 175),3	394,(0, 176),3	397,(0, 178),3	400,(0, 179),3	403,(0, 180),3	406,(0, 182),3	409,(0, 183),3	412,(0, 184),3	415,(0, 186),3	418,(0, 187),3	421,(0, 188),3	424,(0, 190),3	427,(0, 191),3	430,(0, 192),3	433,(0, 194),3	436,(0, 195),3	439,(0, 196),3	442,(0, 198),3	445,(0, 199),3	448,(0, 200),3	
