306
# CPU
0,21,1	1,20,16	17,10,16	33,11,16	49,9,16	65,1,16	81,2,16	97,3,16	113,4,16	129,5,16	145,6,16	161,7,16	177,8,16	193,12,16	209,13,16	225,14,16	241,15,16	257,16,16	273,17,16	289,19,16	305,0,1	
277,18,16	
# Incoming
293,(18, 0),4	
1,(21, 18),276	
# Outgoing
1,(21, 18),276	
293,(18, 0),4	
