1776
# CPU
0,0,1	1,139,10	11,138,10	21,140,10	31,137,10	41,136,10	51,135,10	61,141,10	71,134,10	81,133,10	91,142,10	101,132,10	111,131,10	121,129,10	131,143,10	141,144,10	151,128,10	161,145,10	171,127,10	181,125,10	191,124,10	201,146,10	211,123,10	221,122,10	231,147,10	241,120,10	251,119,10	261,148,10	271,118,10	281,149,10	291,117,10	301,150,10	311,115,10	321,39,10	331,72,10	341,151,10	351,114,10	361,113,10	371,152,10	381,112,10	391,111,10	401,153,10	411,110,10	421,154,10	431,109,10	441,155,10	451,107,10	461,106,10	471,156,10	481,104,10	491,103,10	501,102,10	511,157,10	521,101,10	531,99,10	541,158,10	551,98,10	561,159,10	571,97,10	581,160,10	591,96,10	601,94,10	611,161,10	621,93,10	631,83,10	641,25,10	651,57,10	661,82,10	671,81,10	681,84,10	691,80,10	701,85,10	711,79,10	721,78,10	731,77,10	741,76,10	751,86,10	761,75,10	771,74,10	781,88,10	791,73,10	801,71,10	811,70,10	821,89,10	831,69,10	841,68,10	851,92,10	861,67,10	871,66,10	881,65,10	891,163,10	901,64,10	911,63,10	921,164,10	931,62,10	941,61,10	951,60,10	961,170,10	971,184,10	981,58,10	991,59,10	1001,56,10	1011,55,10	1021,54,10	1031,53,10	1041,166,10	1051,52,10	1061,168,10	1071,51,10	1081,50,10	1091,49,10	1101,48,10	1111,171,10	1121,47,10	1131,172,10	1141,46,10	1151,45,10	1161,44,10	1171,43,10	1181,185,10	1191,183,10	1201,186,10	1211,182,10	1221,181,10	1231,187,10	1241,180,10	1251,178,10	1261,177,10	1271,188,10	1281,12,10	1291,28,10	1301,189,10	1311,173,10	1321,42,10	1331,41,10	1341,190,10	1351,40,10	1361,37,10	1371,191,10	1381,36,10	1391,34,10	1401,33,10	1411,192,10	1421,32,10	1431,31,10	1441,193,10	1451,30,10	1461,18,10	1471,17,10	1481,16,10	1491,19,10	1501,15,10	1511,20,10	1521,14,10	1531,21,10	1541,13,10	1551,11,10	1561,23,10	1571,10,10	1581,24,10	1591,9,10	1601,1,10	1611,2,10	1621,3,10	1631,4,10	1641,5,10	1651,6,10	1661,7,10	1671,8,10	1681,29,10	1691,194,10	1701,195,10	1711,198,10	1721,199,10	1775,201,1	
129,126,10	193,121,10	257,116,10	577,91,10	705,90,10	961,169,10	1153,179,10	1345,35,10	1665,196,10	1729,200,10	
385,105,10	513,95,10	769,162,10	833,165,10	897,167,10	1217,175,10	1537,27,10	1601,197,10	
65,130,10	321,108,10	449,100,10	641,87,10	1025,174,10	1089,176,10	1281,38,10	1409,26,10	1473,22,10	
# Incoming
75,(130, 201),36	139,(126, 201),36	203,(121, 201),36	267,(116, 201),36	331,(108, 201),36	395,(105, 201),36	459,(100, 201),36	523,(95, 201),36	587,(91, 201),36	651,(87, 201),36	715,(90, 201),36	779,(162, 201),36	843,(165, 201),36	907,(167, 201),36	971,(169, 201),36	1035,(174, 201),36	1099,(176, 201),36	1163,(179, 201),36	1227,(175, 201),36	1291,(38, 201),36	1355,(35, 201),36	1419,(26, 201),36	1483,(22, 201),36	1547,(27, 201),36	1611,(197, 201),36	1675,(196, 201),36	1739,(200, 201),36	
65,(0, 126),64	129,(0, 121),64	193,(0, 116),64	513,(0, 91),64	641,(0, 90),64	897,(0, 169),64	1089,(0, 179),64	1281,(0, 35),64	1601,(0, 196),64	1665,(0, 200),64	
321,(0, 105),64	449,(0, 95),64	705,(0, 162),64	769,(0, 165),64	833,(0, 167),64	1153,(0, 175),64	1473,(0, 27),64	1537,(0, 197),64	
1,(0, 130),64	257,(0, 108),64	385,(0, 100),64	577,(0, 87),64	961,(0, 174),64	1025,(0, 176),64	1217,(0, 38),64	1345,(0, 26),64	1409,(0, 22),64	
# Outgoing
1,(0, 130),64	65,(0, 126),64	129,(0, 121),64	193,(0, 116),64	257,(0, 108),64	321,(0, 105),64	385,(0, 100),64	449,(0, 95),64	513,(0, 91),64	577,(0, 87),64	641,(0, 90),64	705,(0, 162),64	769,(0, 165),64	833,(0, 167),64	897,(0, 169),64	961,(0, 174),64	1025,(0, 176),64	1089,(0, 179),64	1153,(0, 175),64	1217,(0, 38),64	1281,(0, 35),64	1345,(0, 26),64	1409,(0, 22),64	1473,(0, 27),64	1537,(0, 197),64	1601,(0, 196),64	1665,(0, 200),64	
139,(126, 201),36	203,(121, 201),36	267,(116, 201),36	587,(91, 201),36	715,(90, 201),36	971,(169, 201),36	1163,(179, 201),36	1355,(35, 201),36	1675,(196, 201),36	1739,(200, 201),36	
395,(105, 201),36	523,(95, 201),36	779,(162, 201),36	843,(165, 201),36	907,(167, 201),36	1227,(175, 201),36	1547,(27, 201),36	1611,(197, 201),36	
75,(130, 201),36	331,(108, 201),36	459,(100, 201),36	651,(87, 201),36	1035,(174, 201),36	1099,(176, 201),36	1291,(38, 201),36	1419,(26, 201),36	1483,(22, 201),36	
