1886
# CPU
0,201,1	1,139,28	29,138,28	57,141,28	85,133,28	113,130,28	141,128,28	169,145,28	197,124,28	225,122,28	253,120,28	281,148,28	309,116,28	337,114,28	365,112,28	393,152,28	421,107,28	449,154,28	477,104,28	505,156,28	533,99,28	561,97,28	589,95,28	617,160,28	645,91,28	673,81,28	701,79,28	729,83,28	757,75,28	785,73,28	813,71,28	841,88,28	869,67,28	897,162,28	925,64,28	953,164,28	981,60,28	1009,58,28	1037,56,28	1065,169,28	1093,52,28	1121,171,28	1149,49,28	1177,173,28	1205,45,28	1233,43,28	1261,41,28	1289,186,28	1317,181,28	1345,179,28	1373,177,28	1401,189,28	1429,36,28	1457,34,28	1485,32,28	1513,192,28	1541,27,28	1569,17,28	1597,15,28	1625,20,28	1653,12,28	1681,23,28	1709,9,28	1737,3,28	1765,6,28	1793,25,28	1821,196,28	1849,199,28	
17,140,28	45,136,28	73,134,28	101,132,28	129,143,28	157,127,28	185,125,28	213,123,28	241,147,28	269,118,28	297,149,28	325,115,28	353,151,28	381,110,28	409,108,28	437,106,28	465,155,28	493,102,28	521,100,28	549,98,28	577,158,28	605,94,28	633,92,28	661,90,28	689,82,28	717,77,28	745,84,28	773,74,28	801,86,28	829,70,28	857,68,28	885,66,28	913,163,28	941,62,28	969,165,28	997,59,28	1025,167,28	1053,55,28	1081,53,28	1109,51,28	1137,172,28	1165,47,28	1193,174,28	1221,44,28	1249,176,28	1277,184,28	1305,182,28	1333,180,28	1361,188,28	1389,39,28	1417,37,28	1445,35,28	1473,191,28	1501,30,28	1529,28,28	1557,26,28	1585,18,28	1613,14,28	1641,21,28	1669,11,28	1697,24,28	1725,2,28	1753,5,28	1781,8,28	1809,195,28	1837,198,28	
9,131,28	37,137,28	65,135,28	93,142,28	121,129,28	149,144,28	177,126,28	205,146,28	233,121,28	261,119,28	289,117,28	317,150,28	345,113,28	373,111,28	401,109,28	429,153,28	457,105,28	485,103,28	513,101,28	541,157,28	569,96,28	597,159,28	625,93,28	653,161,28	681,80,28	709,78,28	737,76,28	765,85,28	793,72,28	821,87,28	849,69,28	877,89,28	905,65,28	933,63,28	961,61,28	989,166,28	1017,57,28	1045,168,28	1073,54,28	1101,170,28	1129,50,28	1157,48,28	1185,46,28	1213,175,28	1241,42,28	1269,185,28	1297,183,28	1325,187,28	1353,178,28	1381,40,28	1409,38,28	1437,190,28	1465,33,28	1493,31,28	1521,29,28	1549,193,28	1577,16,28	1605,19,28	1633,13,28	1661,22,28	1689,10,28	1717,1,28	1745,4,28	1773,7,28	1801,194,28	1829,197,28	1857,200,28	1885,0,1	
# Incoming

9,(201, 140),8	25,(201, 136),8	41,(201, 134),8	57,(201, 132),8	73,(201, 143),8	89,(201, 127),8	105,(201, 125),8	121,(201, 123),8	137,(201, 147),8	153,(201, 118),8	169,(201, 149),8	185,(201, 115),8	201,(201, 151),8	217,(201, 110),8	233,(201, 108),8	249,(201, 106),8	265,(201, 155),8	281,(201, 102),8	297,(201, 100),8	313,(201, 98),8	329,(201, 158),8	345,(201, 94),8	361,(201, 92),8	377,(201, 90),8	393,(201, 82),8	409,(201, 77),8	425,(201, 84),8	441,(201, 74),8	457,(201, 86),8	473,(201, 70),8	489,(201, 68),8	505,(201, 66),8	521,(201, 163),8	537,(201, 62),8	553,(201, 165),8	569,(201, 59),8	585,(201, 167),8	601,(201, 55),8	617,(201, 53),8	633,(201, 51),8	649,(201, 172),8	665,(201, 47),8	681,(201, 174),8	697,(201, 44),8	713,(201, 176),8	729,(201, 184),8	745,(201, 182),8	761,(201, 180),8	777,(201, 188),8	793,(201, 39),8	809,(201, 37),8	825,(201, 35),8	841,(201, 191),8	857,(201, 30),8	873,(201, 28),8	889,(201, 26),8	905,(201, 18),8	921,(201, 14),8	937,(201, 21),8	953,(201, 11),8	969,(201, 24),8	985,(201, 2),8	1001,(201, 5),8	1017,(201, 8),8	1033,(201, 195),8	1049,(201, 198),8	
1,(201, 131),8	17,(201, 137),8	33,(201, 135),8	45,(140, 0),4	49,(201, 142),8	65,(201, 129),8	73,(136, 0),4	81,(201, 144),8	97,(201, 126),8	105,(134, 0),4	113,(201, 146),8	129,(201, 121),8	137,(132, 0),4	145,(201, 119),8	157,(143, 0),4	161,(201, 117),8	177,(201, 150),8	185,(127, 0),4	193,(201, 113),8	209,(201, 111),8	217,(125, 0),4	225,(201, 109),8	241,(201, 153),8	249,(123, 0),4	257,(201, 105),8	269,(147, 0),4	273,(201, 103),8	289,(201, 101),8	297,(118, 0),4	305,(201, 157),8	321,(201, 96),8	329,(149, 0),4	337,(201, 159),8	353,(201, 93),8	361,(115, 0),4	369,(201, 161),8	381,(151, 0),4	385,(201, 80),8	401,(201, 78),8	409,(110, 0),4	417,(201, 76),8	433,(201, 85),8	441,(108, 0),4	449,(201, 72),8	465,(201, 87),8	473,(106, 0),4	481,(201, 69),8	493,(155, 0),4	497,(201, 89),8	513,(201, 65),8	521,(102, 0),4	529,(201, 63),8	545,(201, 61),8	553,(100, 0),4	561,(201, 166),8	577,(201, 57),8	585,(98, 0),4	593,(201, 168),8	605,(158, 0),4	609,(201, 54),8	625,(201, 170),8	633,(94, 0),4	641,(201, 50),8	657,(201, 48),8	665,(92, 0),4	673,(201, 46),8	689,(201, 175),8	697,(90, 0),4	705,(201, 42),8	717,(82, 0),4	721,(201, 185),8	737,(201, 183),8	745,(77, 0),4	753,(201, 187),8	769,(201, 178),8	777,(84, 0),4	785,(201, 40),8	801,(201, 38),8	809,(74, 0),4	817,(201, 190),8	829,(86, 0),4	833,(201, 33),8	849,(201, 31),8	857,(70, 0),4	865,(201, 29),8	881,(201, 193),8	889,(68, 0),4	897,(201, 16),8	913,(201, 19),8	921,(66, 0),4	929,(201, 13),8	941,(163, 0),4	945,(201, 22),8	961,(201, 10),8	969,(62, 0),4	977,(201, 1),8	993,(201, 4),8	1001,(165, 0),4	1009,(201, 7),8	1025,(201, 194),8	1033,(59, 0),4	1041,(201, 197),8	1053,(167, 0),4	1057,(201, 200),8	1065,(139, 0),4	1069,(138, 0),4	1073,(141, 0),4	1077,(133, 0),4	1081,(130, 0),4	1085,(128, 0),4	1089,(145, 0),4	1093,(124, 0),4	1097,(122, 0),4	1101,(120, 0),4	1105,(148, 0),4	1109,(116, 0),4	1113,(114, 0),4	1117,(112, 0),4	1121,(152, 0),4	1125,(107, 0),4	1129,(154, 0),4	1133,(104, 0),4	1137,(156, 0),4	1141,(99, 0),4	1145,(97, 0),4	1149,(95, 0),4	1153,(160, 0),4	1157,(91, 0),4	1161,(81, 0),4	1165,(79, 0),4	1169,(83, 0),4	1173,(75, 0),4	1177,(73, 0),4	1181,(71, 0),4	1185,(88, 0),4	1189,(67, 0),4	1193,(162, 0),4	1197,(64, 0),4	1201,(164, 0),4	1205,(60, 0),4	1209,(58, 0),4	1213,(56, 0),4	1217,(55, 0),4	1221,(169, 0),4	1225,(53, 0),4	1229,(52, 0),4	1233,(51, 0),4	1237,(171, 0),4	1241,(172, 0),4	1245,(49, 0),4	1249,(47, 0),4	1253,(173, 0),4	1257,(174, 0),4	1261,(45, 0),4	1265,(44, 0),4	1269,(43, 0),4	1277,(176, 0),4	1289,(41, 0),4	1305,(184, 0),4	1317,(186, 0),4	1333,(182, 0),4	1345,(181, 0),4	1361,(180, 0),4	1373,(179, 0),4	1389,(188, 0),4	1401,(177, 0),4	1417,(39, 0),4	1429,(189, 0),4	1445,(37, 0),4	1457,(36, 0),4	1473,(35, 0),4	1485,(34, 0),4	1501,(191, 0),4	1513,(32, 0),4	1529,(30, 0),4	1541,(192, 0),4	1557,(28, 0),4	1569,(27, 0),4	1585,(26, 0),4	1597,(17, 0),4	1613,(18, 0),4	1625,(15, 0),4	1641,(14, 0),4	1653,(20, 0),4	1669,(21, 0),4	1681,(12, 0),4	1697,(11, 0),4	1709,(23, 0),4	1725,(24, 0),4	1737,(9, 0),4	1753,(2, 0),4	1765,(3, 0),4	1781,(5, 0),4	1793,(6, 0),4	1809,(8, 0),4	1821,(25, 0),4	1837,(195, 0),4	1849,(196, 0),4	1865,(198, 0),4	1877,(199, 0),4	
# Outgoing
1,(201, 131),8	9,(201, 140),8	17,(201, 137),8	25,(201, 136),8	33,(201, 135),8	41,(201, 134),8	49,(201, 142),8	57,(201, 132),8	65,(201, 129),8	73,(201, 143),8	81,(201, 144),8	89,(201, 127),8	97,(201, 126),8	105,(201, 125),8	113,(201, 146),8	121,(201, 123),8	129,(201, 121),8	137,(201, 147),8	145,(201, 119),8	153,(201, 118),8	161,(201, 117),8	169,(201, 149),8	177,(201, 150),8	185,(201, 115),8	193,(201, 113),8	201,(201, 151),8	209,(201, 111),8	217,(201, 110),8	225,(201, 109),8	233,(201, 108),8	241,(201, 153),8	249,(201, 106),8	257,(201, 105),8	265,(201, 155),8	273,(201, 103),8	281,(201, 102),8	289,(201, 101),8	297,(201, 100),8	305,(201, 157),8	313,(201, 98),8	321,(201, 96),8	329,(201, 158),8	337,(201, 159),8	345,(201, 94),8	353,(201, 93),8	361,(201, 92),8	369,(201, 161),8	377,(201, 90),8	385,(201, 80),8	393,(201, 82),8	401,(201, 78),8	409,(201, 77),8	417,(201, 76),8	425,(201, 84),8	433,(201, 85),8	441,(201, 74),8	449,(201, 72),8	457,(201, 86),8	465,(201, 87),8	473,(201, 70),8	481,(201, 69),8	489,(201, 68),8	497,(201, 89),8	505,(201, 66),8	513,(201, 65),8	521,(201, 163),8	529,(201, 63),8	537,(201, 62),8	545,(201, 61),8	553,(201, 165),8	561,(201, 166),8	569,(201, 59),8	577,(201, 57),8	585,(201, 167),8	593,(201, 168),8	601,(201, 55),8	609,(201, 54),8	617,(201, 53),8	625,(201, 170),8	633,(201, 51),8	641,(201, 50),8	649,(201, 172),8	657,(201, 48),8	665,(201, 47),8	673,(201, 46),8	681,(201, 174),8	689,(201, 175),8	697,(201, 44),8	705,(201, 42),8	713,(201, 176),8	721,(201, 185),8	729,(201, 184),8	737,(201, 183),8	745,(201, 182),8	753,(201, 187),8	761,(201, 180),8	769,(201, 178),8	777,(201, 188),8	785,(201, 40),8	793,(201, 39),8	801,(201, 38),8	809,(201, 37),8	817,(201, 190),8	825,(201, 35),8	833,(201, 33),8	841,(201, 191),8	849,(201, 31),8	857,(201, 30),8	865,(201, 29),8	873,(201, 28),8	881,(201, 193),8	889,(201, 26),8	897,(201, 16),8	905,(201, 18),8	913,(201, 19),8	921,(201, 14),8	929,(201, 13),8	937,(201, 21),8	945,(201, 22),8	953,(201, 11),8	961,(201, 10),8	969,(201, 24),8	977,(201, 1),8	985,(201, 2),8	993,(201, 4),8	1001,(201, 5),8	1009,(201, 7),8	1017,(201, 8),8	1025,(201, 194),8	1033,(201, 195),8	1041,(201, 197),8	1049,(201, 198),8	1057,(201, 200),8	1065,(139, 0),4	1069,(138, 0),4	1073,(141, 0),4	1077,(133, 0),4	1081,(130, 0),4	1085,(128, 0),4	1089,(145, 0),4	1093,(124, 0),4	1097,(122, 0),4	1101,(120, 0),4	1105,(148, 0),4	1109,(116, 0),4	1113,(114, 0),4	1117,(112, 0),4	1121,(152, 0),4	1125,(107, 0),4	1129,(154, 0),4	1133,(104, 0),4	1137,(156, 0),4	1141,(99, 0),4	1145,(97, 0),4	1149,(95, 0),4	1153,(160, 0),4	1157,(91, 0),4	1161,(81, 0),4	1165,(79, 0),4	1169,(83, 0),4	1173,(75, 0),4	1177,(73, 0),4	1181,(71, 0),4	1185,(88, 0),4	1189,(67, 0),4	1193,(162, 0),4	1197,(64, 0),4	1201,(164, 0),4	1205,(60, 0),4	1209,(58, 0),4	1213,(56, 0),4	1221,(169, 0),4	1229,(52, 0),4	1237,(171, 0),4	1245,(49, 0),4	1253,(173, 0),4	1261,(45, 0),4	1269,(43, 0),4	1289,(41, 0),4	1317,(186, 0),4	1345,(181, 0),4	1373,(179, 0),4	1401,(177, 0),4	1429,(189, 0),4	1457,(36, 0),4	1485,(34, 0),4	1513,(32, 0),4	1541,(192, 0),4	1569,(27, 0),4	1597,(17, 0),4	1625,(15, 0),4	1653,(20, 0),4	1681,(12, 0),4	1709,(23, 0),4	1737,(9, 0),4	1765,(3, 0),4	1793,(6, 0),4	1821,(25, 0),4	1849,(196, 0),4	1877,(199, 0),4	
45,(140, 0),4	73,(136, 0),4	105,(134, 0),4	137,(132, 0),4	157,(143, 0),4	185,(127, 0),4	217,(125, 0),4	249,(123, 0),4	269,(147, 0),4	297,(118, 0),4	329,(149, 0),4	361,(115, 0),4	381,(151, 0),4	409,(110, 0),4	441,(108, 0),4	473,(106, 0),4	493,(155, 0),4	521,(102, 0),4	553,(100, 0),4	585,(98, 0),4	605,(158, 0),4	633,(94, 0),4	665,(92, 0),4	697,(90, 0),4	717,(82, 0),4	745,(77, 0),4	777,(84, 0),4	809,(74, 0),4	829,(86, 0),4	857,(70, 0),4	889,(68, 0),4	921,(66, 0),4	941,(163, 0),4	969,(62, 0),4	1001,(165, 0),4	1033,(59, 0),4	1053,(167, 0),4	1217,(55, 0),4	1225,(53, 0),4	1233,(51, 0),4	1241,(172, 0),4	1249,(47, 0),4	1257,(174, 0),4	1265,(44, 0),4	1277,(176, 0),4	1305,(184, 0),4	1333,(182, 0),4	1361,(180, 0),4	1389,(188, 0),4	1417,(39, 0),4	1445,(37, 0),4	1473,(35, 0),4	1501,(191, 0),4	1529,(30, 0),4	1557,(28, 0),4	1585,(26, 0),4	1613,(18, 0),4	1641,(14, 0),4	1669,(21, 0),4	1697,(11, 0),4	1725,(24, 0),4	1753,(2, 0),4	1781,(5, 0),4	1809,(8, 0),4	1837,(195, 0),4	1865,(198, 0),4	

