354
# CPU
81,5,28	161,10,28	241,15,28	321,20,28	
61,4,28	141,9,28	221,14,28	301,19,28	
41,3,28	121,8,28	201,13,28	281,18,28	
21,2,28	101,7,28	181,12,28	261,17,28	
0,0,1	1,1,28	29,11,28	57,6,28	85,16,28	353,21,1	
# Incoming
61,(0, 5),20	141,(0, 10),20	221,(0, 15),20	301,(0, 20),20	
41,(0, 4),20	121,(0, 9),20	201,(0, 14),20	281,(0, 19),20	
21,(0, 3),20	101,(0, 8),20	181,(0, 13),20	261,(0, 18),20	
1,(0, 2),20	81,(0, 7),20	161,(0, 12),20	241,(0, 17),20	
49,(2, 21),4	69,(3, 21),4	89,(4, 21),4	109,(5, 21),4	129,(7, 21),4	149,(8, 21),4	169,(9, 21),4	189,(10, 21),4	209,(12, 21),4	229,(13, 21),4	249,(14, 21),4	269,(15, 21),4	289,(17, 21),4	309,(18, 21),4	329,(19, 21),4	349,(20, 21),4	
# Outgoing
109,(5, 21),4	189,(10, 21),4	269,(15, 21),4	349,(20, 21),4	
89,(4, 21),4	169,(9, 21),4	249,(14, 21),4	329,(19, 21),4	
69,(3, 21),4	149,(8, 21),4	229,(13, 21),4	309,(18, 21),4	
49,(2, 21),4	129,(7, 21),4	209,(12, 21),4	289,(17, 21),4	
1,(0, 2),20	21,(0, 3),20	41,(0, 4),20	61,(0, 5),20	81,(0, 7),20	101,(0, 8),20	121,(0, 9),20	141,(0, 10),20	161,(0, 12),20	181,(0, 13),20	201,(0, 14),20	221,(0, 15),20	241,(0, 17),20	261,(0, 18),20	281,(0, 19),20	301,(0, 20),20	
