730
# CPU
19,10,6	37,20,6	55,30,6	73,40,6	91,50,6	109,60,6	127,70,6	145,80,6	163,90,6	181,100,6	199,110,6	217,120,6	235,130,6	253,140,6	271,150,6	289,160,6	307,170,6	325,180,6	343,190,6	361,200,6	
17,9,6	35,19,6	53,29,6	71,39,6	89,49,6	107,59,6	125,69,6	143,79,6	161,89,6	179,99,6	197,109,6	215,119,6	233,129,6	251,139,6	269,149,6	287,159,6	305,169,6	323,179,6	341,189,6	359,199,6	
15,8,6	33,18,6	51,28,6	69,38,6	87,48,6	105,58,6	123,68,6	141,78,6	159,88,6	177,98,6	195,108,6	213,118,6	231,128,6	249,138,6	267,148,6	285,158,6	303,168,6	321,178,6	339,188,6	357,198,6	
13,7,6	31,17,6	49,27,6	67,37,6	85,47,6	103,57,6	121,67,6	139,77,6	157,87,6	175,97,6	193,107,6	211,117,6	229,127,6	247,137,6	265,147,6	283,157,6	301,167,6	319,177,6	337,187,6	355,197,6	
11,6,6	29,16,6	47,26,6	65,36,6	83,46,6	101,56,6	119,66,6	137,76,6	155,86,6	173,96,6	191,106,6	209,116,6	227,126,6	245,136,6	263,146,6	281,156,6	299,166,6	317,176,6	335,186,6	353,196,6	
9,5,6	27,15,6	45,25,6	63,35,6	81,45,6	99,55,6	117,65,6	135,75,6	153,85,6	171,95,6	189,105,6	207,115,6	225,125,6	243,135,6	261,145,6	279,155,6	297,165,6	315,175,6	333,185,6	351,195,6	
7,4,6	25,14,6	43,24,6	61,34,6	79,44,6	97,54,6	115,64,6	133,74,6	151,84,6	169,94,6	187,104,6	205,114,6	223,124,6	241,134,6	259,144,6	277,154,6	295,164,6	313,174,6	331,184,6	349,194,6	
5,3,6	23,13,6	41,23,6	59,33,6	77,43,6	95,53,6	113,63,6	131,73,6	149,83,6	167,93,6	185,103,6	203,113,6	221,123,6	239,133,6	257,143,6	275,153,6	293,163,6	311,173,6	329,183,6	347,193,6	
3,2,6	21,12,6	39,22,6	57,32,6	75,42,6	93,52,6	111,62,6	129,72,6	147,82,6	165,92,6	183,102,6	201,112,6	219,122,6	237,132,6	255,142,6	273,152,6	291,162,6	309,172,6	327,182,6	345,192,6	
0,0,1	1,1,6	7,21,6	13,61,6	19,141,6	25,191,6	31,181,6	37,171,6	43,161,6	49,131,6	55,151,6	61,121,6	67,111,6	73,101,6	79,91,6	85,81,6	91,51,6	97,71,6	103,41,6	109,11,6	115,31,6	729,201,1	
# Incoming
17,(0, 10),2	35,(0, 20),2	53,(0, 30),2	71,(0, 40),2	89,(0, 50),2	107,(0, 60),2	125,(0, 70),2	143,(0, 80),2	161,(0, 90),2	179,(0, 100),2	197,(0, 110),2	215,(0, 120),2	233,(0, 130),2	251,(0, 140),2	269,(0, 150),2	287,(0, 160),2	305,(0, 170),2	323,(0, 180),2	341,(0, 190),2	359,(0, 200),2	
15,(0, 9),2	33,(0, 19),2	51,(0, 29),2	69,(0, 39),2	87,(0, 49),2	105,(0, 59),2	123,(0, 69),2	141,(0, 79),2	159,(0, 89),2	177,(0, 99),2	195,(0, 109),2	213,(0, 119),2	231,(0, 129),2	249,(0, 139),2	267,(0, 149),2	285,(0, 159),2	303,(0, 169),2	321,(0, 179),2	339,(0, 189),2	357,(0, 199),2	
13,(0, 8),2	31,(0, 18),2	49,(0, 28),2	67,(0, 38),2	85,(0, 48),2	103,(0, 58),2	121,(0, 68),2	139,(0, 78),2	157,(0, 88),2	175,(0, 98),2	193,(0, 108),2	211,(0, 118),2	229,(0, 128),2	247,(0, 138),2	265,(0, 148),2	283,(0, 158),2	301,(0, 168),2	319,(0, 178),2	337,(0, 188),2	355,(0, 198),2	
11,(0, 7),2	29,(0, 17),2	47,(0, 27),2	65,(0, 37),2	83,(0, 47),2	101,(0, 57),2	119,(0, 67),2	137,(0, 77),2	155,(0, 87),2	173,(0, 97),2	191,(0, 107),2	209,(0, 117),2	227,(0, 127),2	245,(0, 137),2	263,(0, 147),2	281,(0, 157),2	299,(0, 167),2	317,(0, 177),2	335,(0, 187),2	353,(0, 197),2	
9,(0, 6),2	27,(0, 16),2	45,(0, 26),2	63,(0, 36),2	81,(0, 46),2	99,(0, 56),2	117,(0, 66),2	135,(0, 76),2	153,(0, 86),2	171,(0, 96),2	189,(0, 106),2	207,(0, 116),2	225,(0, 126),2	243,(0, 136),2	261,(0, 146),2	279,(0, 156),2	297,(0, 166),2	315,(0, 176),2	333,(0, 186),2	351,(0, 196),2	
7,(0, 5),2	25,(0, 15),2	43,(0, 25),2	61,(0, 35),2	79,(0, 45),2	97,(0, 55),2	115,(0, 65),2	133,(0, 75),2	151,(0, 85),2	169,(0, 95),2	187,(0, 105),2	205,(0, 115),2	223,(0, 125),2	241,(0, 135),2	259,(0, 145),2	277,(0, 155),2	295,(0, 165),2	313,(0, 175),2	331,(0, 185),2	349,(0, 195),2	
5,(0, 4),2	23,(0, 14),2	41,(0, 24),2	59,(0, 34),2	77,(0, 44),2	95,(0, 54),2	113,(0, 64),2	131,(0, 74),2	149,(0, 84),2	167,(0, 94),2	185,(0, 104),2	203,(0, 114),2	221,(0, 124),2	239,(0, 134),2	257,(0, 144),2	275,(0, 154),2	293,(0, 164),2	311,(0, 174),2	329,(0, 184),2	347,(0, 194),2	
3,(0, 3),2	21,(0, 13),2	39,(0, 23),2	57,(0, 33),2	75,(0, 43),2	93,(0, 53),2	111,(0, 63),2	129,(0, 73),2	147,(0, 83),2	165,(0, 93),2	183,(0, 103),2	201,(0, 113),2	219,(0, 123),2	237,(0, 133),2	255,(0, 143),2	273,(0, 153),2	291,(0, 163),2	309,(0, 173),2	327,(0, 183),2	345,(0, 193),2	
1,(0, 2),2	19,(0, 12),2	37,(0, 22),2	55,(0, 32),2	73,(0, 42),2	91,(0, 52),2	109,(0, 62),2	127,(0, 72),2	145,(0, 82),2	163,(0, 92),2	181,(0, 102),2	199,(0, 112),2	217,(0, 122),2	235,(0, 132),2	253,(0, 142),2	271,(0, 152),2	289,(0, 162),2	307,(0, 172),2	325,(0, 182),2	343,(0, 192),2	
9,(2, 201),4	13,(3, 201),4	17,(4, 201),4	21,(5, 201),4	25,(6, 201),4	29,(7, 201),4	33,(8, 201),4	37,(9, 201),4	41,(10, 201),4	45,(12, 201),4	49,(13, 201),4	53,(14, 201),4	57,(15, 201),4	61,(16, 201),4	65,(17, 201),4	69,(18, 201),4	73,(19, 201),4	77,(20, 201),4	81,(22, 201),4	85,(23, 201),4	89,(24, 201),4	93,(25, 201),4	97,(26, 201),4	101,(27, 201),4	105,(28, 201),4	109,(29, 201),4	113,(30, 201),4	117,(32, 201),4	121,(33, 201),4	125,(34, 201),4	129,(35, 201),4	133,(36, 201),4	137,(37, 201),4	141,(38, 201),4	145,(39, 201),4	149,(40, 201),4	153,(42, 201),4	157,(43, 201),4	161,(44, 201),4	165,(45, 201),4	169,(46, 201),4	173,(47, 201),4	177,(48, 201),4	181,(49, 201),4	185,(50, 201),4	189,(52, 201),4	193,(53, 201),4	197,(54, 201),4	201,(55, 201),4	205,(56, 201),4	209,(57, 201),4	213,(58, 201),4	217,(59, 201),4	221,(60, 201),4	225,(62, 201),4	229,(63, 201),4	233,(64, 201),4	237,(65, 201),4	241,(66, 201),4	245,(67, 201),4	249,(68, 201),4	253,(69, 201),4	257,(70, 201),4	261,(72, 201),4	265,(73, 201),4	269,(74, 201),4	273,(75, 201),4	277,(76, 201),4	281,(77, 201),4	285,(78, 201),4	289,(79, 201),4	293,(80, 201),4	297,(82, 201),4	301,(83, 201),4	305,(84, 201),4	309,(85, 201),4	313,(86, 201),4	317,(87, 201),4	321,(88, 201),4	325,(89, 201),4	329,(90, 201),4	333,(92, 201),4	337,(93, 201),4	341,(94, 201),4	345,(95, 201),4	349,(96, 201),4	353,(97, 201),4	357,(98, 201),4	361,(99, 201),4	365,(100, 201),4	369,(102, 201),4	373,(103, 201),4	377,(104, 201),4	381,(105, 201),4	385,(106, 201),4	389,(107, 201),4	393,(108, 201),4	397,(109, 201),4	401,(110, 201),4	405,(112, 201),4	409,(113, 201),4	413,(114, 201),4	417,(115, 201),4	421,(116, 201),4	425,(117, 201),4	429,(118, 201),4	433,(119, 201),4	437,(120, 201),4	441,(122, 201),4	445,(123, 201),4	449,(124, 201),4	453,(125, 201),4	457,(126, 201),4	461,(127, 201),4	465,(128, 201),4	469,(129, 201),4	473,(130, 201),4	477,(132, 201),4	481,(133, 201),4	485,(134, 201),4	489,(135, 201),4	493,(136, 201),4	497,(137, 201),4	501,(138, 201),4	505,(139, 201),4	509,(140, 201),4	513,(142, 201),4	517,(143, 201),4	521,(144, 201),4	525,(145, 201),4	529,(146, 201),4	533,(147, 201),4	537,(148, 201),4	541,(149, 201),4	545,(150, 201),4	549,(152, 201),4	553,(153, 201),4	557,(154, 201),4	561,(155, 201),4	565,(156, 201),4	569,(157, 201),4	573,(158, 201),4	577,(159, 201),4	581,(160, 201),4	585,(162, 201),4	589,(163, 201),4	593,(164, 201),4	597,(165, 201),4	601,(166, 201),4	605,(167, 201),4	609,(168, 201),4	613,(169, 201),4	617,(170, 201),4	621,(172, 201),4	625,(173, 201),4	629,(174, 201),4	633,(175, 201),4	637,(176, 201),4	641,(177, 201),4	645,(178, 201),4	649,(179, 201),4	653,(180, 201),4	657,(182, 201),4	661,(183, 201),4	665,(184, 201),4	669,(185, 201),4	673,(186, 201),4	677,(187, 201),4	681,(188, 201),4	685,(189, 201),4	689,(190, 201),4	693,(192, 201),4	697,(193, 201),4	701,(194, 201),4	705,(195, 201),4	709,(196, 201),4	713,(197, 201),4	717,(198, 201),4	721,(199, 201),4	725,(200, 201),4	
# Outgoing
41,(10, 201),4	77,(20, 201),4	113,(30, 201),4	149,(40, 201),4	185,(50, 201),4	221,(60, 201),4	257,(70, 201),4	293,(80, 201),4	329,(90, 201),4	365,(100, 201),4	401,(110, 201),4	437,(120, 201),4	473,(130, 201),4	509,(140, 201),4	545,(150, 201),4	581,(160, 201),4	617,(170, 201),4	653,(180, 201),4	689,(190, 201),4	725,(200, 201),4	
37,(9, 201),4	73,(19, 201),4	109,(29, 201),4	145,(39, 201),4	181,(49, 201),4	217,(59, 201),4	253,(69, 201),4	289,(79, 201),4	325,(89, 201),4	361,(99, 201),4	397,(109, 201),4	433,(119, 201),4	469,(129, 201),4	505,(139, 201),4	541,(149, 201),4	577,(159, 201),4	613,(169, 201),4	649,(179, 201),4	685,(189, 201),4	721,(199, 201),4	
33,(8, 201),4	69,(18, 201),4	105,(28, 201),4	141,(38, 201),4	177,(48, 201),4	213,(58, 201),4	249,(68, 201),4	285,(78, 201),4	321,(88, 201),4	357,(98, 201),4	393,(108, 201),4	429,(118, 201),4	465,(128, 201),4	501,(138, 201),4	537,(148, 201),4	573,(158, 201),4	609,(168, 201),4	645,(178, 201),4	681,(188, 201),4	717,(198, 201),4	
29,(7, 201),4	65,(17, 201),4	101,(27, 201),4	137,(37, 201),4	173,(47, 201),4	209,(57, 201),4	245,(67, 201),4	281,(77, 201),4	317,(87, 201),4	353,(97, 201),4	389,(107, 201),4	425,(117, 201),4	461,(127, 201),4	497,(137, 201),4	533,(147, 201),4	569,(157, 201),4	605,(167, 201),4	641,(177, 201),4	677,(187, 201),4	713,(197, 201),4	
25,(6, 201),4	61,(16, 201),4	97,(26, 201),4	133,(36, 201),4	169,(46, 201),4	205,(56, 201),4	241,(66, 201),4	277,(76, 201),4	313,(86, 201),4	349,(96, 201),4	385,(106, 201),4	421,(116, 201),4	457,(126, 201),4	493,(136, 201),4	529,(146, 201),4	565,(156, 201),4	601,(166, 201),4	637,(176, 201),4	673,(186, 201),4	709,(196, 201),4	
21,(5, 201),4	57,(15, 201),4	93,(25, 201),4	129,(35, 201),4	165,(45, 201),4	201,(55, 201),4	237,(65, 201),4	273,(75, 201),4	309,(85, 201),4	345,(95, 201),4	381,(105, 201),4	417,(115, 201),4	453,(125, 201),4	489,(135, 201),4	525,(145, 201),4	561,(155, 201),4	597,(165, 201),4	633,(175, 201),4	669,(185, 201),4	705,(195, 201),4	
17,(4, 201),4	53,(14, 201),4	89,(24, 201),4	125,(34, 201),4	161,(44, 201),4	197,(54, 201),4	233,(64, 201),4	269,(74, 201),4	305,(84, 201),4	341,(94, 201),4	377,(104, 201),4	413,(114, 201),4	449,(124, 201),4	485,(134, 201),4	521,(144, 201),4	557,(154, 201),4	593,(164, 201),4	629,(174, 201),4	665,(184, 201),4	701,(194, 201),4	
13,(3, 201),4	49,(13, 201),4	85,(23, 201),4	121,(33, 201),4	157,(43, 201),4	193,(53, 201),4	229,(63, 201),4	265,(73, 201),4	301,(83, 201),4	337,(93, 201),4	373,(103, 201),4	409,(113, 201),4	445,(123, 201),4	481,(133, 201),4	517,(143, 201),4	553,(153, 201),4	589,(163, 201),4	625,(173, 201),4	661,(183, 201),4	697,(193, 201),4	
9,(2, 201),4	45,(12, 201),4	81,(22, 201),4	117,(32, 201),4	153,(42, 201),4	189,(52, 201),4	225,(62, 201),4	261,(72, 201),4	297,(82, 201),4	333,(92, 201),4	369,(102, 201),4	405,(112, 201),4	441,(122, 201),4	477,(132, 201),4	513,(142, 201),4	549,(152, 201),4	585,(162, 201),4	621,(172, 201),4	657,(182, 201),4	693,(192, 201),4	
1,(0, 2),2	3,(0, 3),2	5,(0, 4),2	7,(0, 5),2	9,(0, 6),2	11,(0, 7),2	13,(0, 8),2	15,(0, 9),2	17,(0, 10),2	19,(0, 12),2	21,(0, 13),2	23,(0, 14),2	25,(0, 15),2	27,(0, 16),2	29,(0, 17),2	31,(0, 18),2	33,(0, 19),2	35,(0, 20),2	37,(0, 22),2	39,(0, 23),2	41,(0, 24),2	43,(0, 25),2	45,(0, 26),2	47,(0, 27),2	49,(0, 28),2	51,(0, 29),2	53,(0, 30),2	55,(0, 32),2	57,(0, 33),2	59,(0, 34),2	61,(0, 35),2	63,(0, 36),2	65,(0, 37),2	67,(0, 38),2	69,(0, 39),2	71,(0, 40),2	73,(0, 42),2	75,(0, 43),2	77,(0, 44),2	79,(0, 45),2	81,(0, 46),2	83,(0, 47),2	85,(0, 48),2	87,(0, 49),2	89,(0, 50),2	91,(0, 52),2	93,(0, 53),2	95,(0, 54),2	97,(0, 55),2	99,(0, 56),2	101,(0, 57),2	103,(0, 58),2	105,(0, 59),2	107,(0, 60),2	109,(0, 62),2	111,(0, 63),2	113,(0, 64),2	115,(0, 65),2	117,(0, 66),2	119,(0, 67),2	121,(0, 68),2	123,(0, 69),2	125,(0, 70),2	127,(0, 72),2	129,(0, 73),2	131,(0, 74),2	133,(0, 75),2	135,(0, 76),2	137,(0, 77),2	139,(0, 78),2	141,(0, 79),2	143,(0, 80),2	145,(0, 82),2	147,(0, 83),2	149,(0, 84),2	151,(0, 85),2	153,(0, 86),2	155,(0, 87),2	157,(0, 88),2	159,(0, 89),2	161,(0, 90),2	163,(0, 92),2	165,(0, 93),2	167,(0, 94),2	169,(0, 95),2	171,(0, 96),2	173,(0, 97),2	175,(0, 98),2	177,(0, 99),2	179,(0, 100),2	181,(0, 102),2	183,(0, 103),2	185,(0, 104),2	187,(0, 105),2	189,(0, 106),2	191,(0, 107),2	193,(0, 108),2	195,(0, 109),2	197,(0, 110),2	199,(0, 112),2	201,(0, 113),2	203,(0, 114),2	205,(0, 115),2	207,(0, 116),2	209,(0, 117),2	211,(0, 118),2	213,(0, 119),2	215,(0, 120),2	217,(0, 122),2	219,(0, 123),2	221,(0, 124),2	223,(0, 125),2	225,(0, 126),2	227,(0, 127),2	229,(0, 128),2	231,(0, 129),2	233,(0, 130),2	235,(0, 132),2	237,(0, 133),2	239,(0, 134),2	241,(0, 135),2	243,(0, 136),2	245,(0, 137),2	247,(0, 138),2	249,(0, 139),2	251,(0, 140),2	253,(0, 142),2	255,(0, 143),2	257,(0, 144),2	259,(0, 145),2	261,(0, 146),2	263,(0, 147),2	265,(0, 148),2	267,(0, 149),2	269,(0, 150),2	271,(0, 152),2	273,(0, 153),2	275,(0, 154),2	277,(0, 155),2	279,(0, 156),2	281,(0, 157),2	283,(0, 158),2	285,(0, 159),2	287,(0, 160),2	289,(0, 162),2	291,(0, 163),2	293,(0, 164),2	295,(0, 165),2	297,(0, 166),2	299,(0, 167),2	301,(0, 168),2	303,(0, 169),2	305,(0, 170),2	307,(0, 172),2	309,(0, 173),2	311,(0, 174),2	313,(0, 175),2	315,(0, 176),2	317,(0, 177),2	319,(0, 178),2	321,(0, 179),2	323,(0, 180),2	325,(0, 182),2	327,(0, 183),2	329,(0, 184),2	331,(0, 185),2	333,(0, 186),2	335,(0, 187),2	337,(0, 188),2	339,(0, 189),2	341,(0, 190),2	343,(0, 192),2	345,(0, 193),2	347,(0, 194),2	349,(0, 195),2	351,(0, 196),2	353,(0, 197),2	355,(0, 198),2	357,(0, 199),2	359,(0, 200),2	
