817
# CPU
0,201,1	1,200,12	13,139,12	25,137,12	37,134,12	49,132,12	61,142,12	73,127,12	85,125,12	97,123,12	109,146,12	121,118,12	133,148,12	145,115,12	157,150,12	169,110,12	181,108,12	193,106,12	205,154,12	217,102,12	229,100,12	241,98,12	253,157,12	265,94,12	277,92,12	289,90,12	301,82,12	313,77,12	325,84,12	337,74,12	349,86,12	361,70,12	373,68,12	385,66,12	397,162,12	409,62,12	421,164,12	433,59,12	445,166,12	457,55,12	469,53,12	481,51,12	493,171,12	505,47,12	517,173,12	529,44,12	541,175,12	553,183,12	565,181,12	577,179,12	589,187,12	601,39,12	613,37,12	625,35,12	637,190,12	649,30,12	661,28,12	673,26,12	685,18,12	697,14,12	709,21,12	721,11,12	733,24,12	745,2,12	757,5,12	769,8,12	781,194,12	793,197,12	816,0,1	
6,135,12	21,140,12	36,141,12	51,128,12	66,126,12	81,122,12	96,119,12	111,116,12	126,113,12	141,151,12	156,152,12	171,104,12	186,101,12	201,97,12	216,158,12	231,91,12	246,80,12	261,83,12	276,85,12	291,71,12	306,69,12	321,161,12	336,63,12	351,60,12	366,57,12	381,168,12	396,169,12	411,49,12	426,46,12	441,43,12	456,184,12	471,180,12	486,177,12	501,188,12	516,189,12	531,32,12	546,29,12	561,17,12	576,19,12	591,12,12	606,10,12	621,3,12	636,7,12	651,195,12	666,199,12	
11,130,12	26,136,12	41,131,12	56,143,12	71,124,12	86,121,12	101,147,12	116,149,12	131,112,12	146,109,12	161,153,12	176,103,12	191,99,12	206,96,12	221,159,12	236,160,12	251,79,12	266,76,12	281,73,12	296,87,12	311,67,12	326,65,12	341,163,12	356,165,12	371,56,12	386,54,12	401,170,12	416,48,12	431,45,12	446,42,12	461,185,12	476,186,12	491,176,12	506,38,12	521,34,12	536,31,12	551,27,12	566,16,12	581,20,12	596,22,12	611,9,12	626,4,12	641,25,12	656,196,12	
16,138,12	31,133,12	46,129,12	61,144,12	76,145,12	91,120,12	106,117,12	121,114,12	136,111,12	151,107,12	166,105,12	181,155,12	196,156,12	211,95,12	226,93,12	241,81,12	256,78,12	271,75,12	286,72,12	301,88,12	316,89,12	331,64,12	346,61,12	361,58,12	376,167,12	391,52,12	406,50,12	421,172,12	436,174,12	451,41,12	466,182,12	481,178,12	496,40,12	511,36,12	526,33,12	541,191,12	556,192,12	571,15,12	586,13,12	601,23,12	616,1,12	631,6,12	646,193,12	661,198,12	
# Incoming
18,(135, 0),6	24,(130, 0),6	30,(138, 0),6	36,(140, 0),6	42,(136, 0),6	48,(133, 0),6	54,(141, 0),6	60,(131, 0),6	66,(129, 0),6	72,(128, 0),6	78,(143, 0),6	84,(144, 0),6	90,(126, 0),6	96,(124, 0),6	102,(145, 0),6	108,(122, 0),6	114,(121, 0),6	120,(120, 0),6	126,(119, 0),6	132,(147, 0),6	138,(117, 0),6	144,(116, 0),6	150,(149, 0),6	156,(114, 0),6	162,(113, 0),6	168,(112, 0),6	174,(111, 0),6	180,(151, 0),6	186,(109, 0),6	192,(107, 0),6	198,(152, 0),6	204,(153, 0),6	210,(105, 0),6	216,(104, 0),6	222,(103, 0),6	228,(155, 0),6	234,(101, 0),6	240,(99, 0),6	246,(156, 0),6	252,(97, 0),6	258,(96, 0),6	264,(95, 0),6	270,(158, 0),6	276,(159, 0),6	282,(93, 0),6	288,(91, 0),6	294,(160, 0),6	300,(81, 0),6	306,(80, 0),6	312,(79, 0),6	318,(78, 0),6	324,(83, 0),6	330,(76, 0),6	336,(75, 0),6	342,(85, 0),6	348,(73, 0),6	354,(72, 0),6	360,(71, 0),6	366,(87, 0),6	372,(88, 0),6	378,(69, 0),6	384,(67, 0),6	390,(89, 0),6	396,(161, 0),6	402,(65, 0),6	408,(64, 0),6	414,(63, 0),6	420,(163, 0),6	426,(61, 0),6	432,(60, 0),6	438,(165, 0),6	444,(58, 0),6	450,(57, 0),6	456,(56, 0),6	462,(167, 0),6	468,(168, 0),6	474,(54, 0),6	480,(52, 0),6	486,(169, 0),6	492,(170, 0),6	498,(50, 0),6	504,(49, 0),6	510,(48, 0),6	516,(172, 0),6	522,(46, 0),6	528,(45, 0),6	534,(174, 0),6	540,(43, 0),6	546,(42, 0),6	552,(41, 0),6	558,(184, 0),6	564,(185, 0),6	570,(182, 0),6	576,(180, 0),6	582,(186, 0),6	588,(178, 0),6	594,(177, 0),6	600,(176, 0),6	606,(40, 0),6	612,(188, 0),6	618,(38, 0),6	624,(36, 0),6	630,(189, 0),6	636,(34, 0),6	642,(33, 0),6	648,(32, 0),6	654,(31, 0),6	660,(191, 0),6	666,(29, 0),6	672,(27, 0),6	678,(192, 0),6	684,(17, 0),6	690,(16, 0),6	696,(15, 0),6	702,(19, 0),6	708,(20, 0),6	714,(13, 0),6	720,(12, 0),6	726,(22, 0),6	732,(23, 0),6	738,(10, 0),6	744,(9, 0),6	750,(1, 0),6	756,(3, 0),6	762,(4, 0),6	768,(6, 0),6	774,(7, 0),6	780,(25, 0),6	786,(193, 0),6	792,(195, 0),6	798,(196, 0),6	804,(198, 0),6	810,(199, 0),6	
1,(201, 135),5	16,(201, 140),5	31,(201, 141),5	46,(201, 128),5	61,(201, 126),5	76,(201, 122),5	91,(201, 119),5	106,(201, 116),5	121,(201, 113),5	136,(201, 151),5	151,(201, 152),5	166,(201, 104),5	181,(201, 101),5	196,(201, 97),5	211,(201, 158),5	226,(201, 91),5	241,(201, 80),5	256,(201, 83),5	271,(201, 85),5	286,(201, 71),5	301,(201, 69),5	316,(201, 161),5	331,(201, 63),5	346,(201, 60),5	361,(201, 57),5	376,(201, 168),5	391,(201, 169),5	406,(201, 49),5	421,(201, 46),5	436,(201, 43),5	451,(201, 184),5	466,(201, 180),5	481,(201, 177),5	496,(201, 188),5	511,(201, 189),5	526,(201, 32),5	541,(201, 29),5	556,(201, 17),5	571,(201, 19),5	586,(201, 12),5	601,(201, 10),5	616,(201, 3),5	631,(201, 7),5	646,(201, 195),5	661,(201, 199),5	
6,(201, 130),5	21,(201, 136),5	36,(201, 131),5	51,(201, 143),5	66,(201, 124),5	81,(201, 121),5	96,(201, 147),5	111,(201, 149),5	126,(201, 112),5	141,(201, 109),5	156,(201, 153),5	171,(201, 103),5	186,(201, 99),5	201,(201, 96),5	216,(201, 159),5	231,(201, 160),5	246,(201, 79),5	261,(201, 76),5	276,(201, 73),5	291,(201, 87),5	306,(201, 67),5	321,(201, 65),5	336,(201, 163),5	351,(201, 165),5	366,(201, 56),5	381,(201, 54),5	396,(201, 170),5	411,(201, 48),5	426,(201, 45),5	441,(201, 42),5	456,(201, 185),5	471,(201, 186),5	486,(201, 176),5	501,(201, 38),5	516,(201, 34),5	531,(201, 31),5	546,(201, 27),5	561,(201, 16),5	576,(201, 20),5	591,(201, 22),5	606,(201, 9),5	621,(201, 4),5	636,(201, 25),5	651,(201, 196),5	
11,(201, 138),5	26,(201, 133),5	41,(201, 129),5	56,(201, 144),5	71,(201, 145),5	86,(201, 120),5	101,(201, 117),5	116,(201, 114),5	131,(201, 111),5	146,(201, 107),5	161,(201, 105),5	176,(201, 155),5	191,(201, 156),5	206,(201, 95),5	221,(201, 93),5	236,(201, 81),5	251,(201, 78),5	266,(201, 75),5	281,(201, 72),5	296,(201, 88),5	311,(201, 89),5	326,(201, 64),5	341,(201, 61),5	356,(201, 58),5	371,(201, 167),5	386,(201, 52),5	401,(201, 50),5	416,(201, 172),5	431,(201, 174),5	446,(201, 41),5	461,(201, 182),5	476,(201, 178),5	491,(201, 40),5	506,(201, 36),5	521,(201, 33),5	536,(201, 191),5	551,(201, 192),5	566,(201, 15),5	581,(201, 13),5	596,(201, 23),5	611,(201, 1),5	626,(201, 6),5	641,(201, 193),5	656,(201, 198),5	
# Outgoing
1,(201, 135),5	6,(201, 130),5	11,(201, 138),5	16,(201, 140),5	21,(201, 136),5	26,(201, 133),5	31,(201, 141),5	36,(201, 131),5	41,(201, 129),5	46,(201, 128),5	51,(201, 143),5	56,(201, 144),5	61,(201, 126),5	66,(201, 124),5	71,(201, 145),5	76,(201, 122),5	81,(201, 121),5	86,(201, 120),5	91,(201, 119),5	96,(201, 147),5	101,(201, 117),5	106,(201, 116),5	111,(201, 149),5	116,(201, 114),5	121,(201, 113),5	126,(201, 112),5	131,(201, 111),5	136,(201, 151),5	141,(201, 109),5	146,(201, 107),5	151,(201, 152),5	156,(201, 153),5	161,(201, 105),5	166,(201, 104),5	171,(201, 103),5	176,(201, 155),5	181,(201, 101),5	186,(201, 99),5	191,(201, 156),5	196,(201, 97),5	201,(201, 96),5	206,(201, 95),5	211,(201, 158),5	216,(201, 159),5	221,(201, 93),5	226,(201, 91),5	231,(201, 160),5	236,(201, 81),5	241,(201, 80),5	246,(201, 79),5	251,(201, 78),5	256,(201, 83),5	261,(201, 76),5	266,(201, 75),5	271,(201, 85),5	276,(201, 73),5	281,(201, 72),5	286,(201, 71),5	291,(201, 87),5	296,(201, 88),5	301,(201, 69),5	306,(201, 67),5	311,(201, 89),5	316,(201, 161),5	321,(201, 65),5	326,(201, 64),5	331,(201, 63),5	336,(201, 163),5	341,(201, 61),5	346,(201, 60),5	351,(201, 165),5	356,(201, 58),5	361,(201, 57),5	366,(201, 56),5	371,(201, 167),5	376,(201, 168),5	381,(201, 54),5	386,(201, 52),5	391,(201, 169),5	396,(201, 170),5	401,(201, 50),5	406,(201, 49),5	411,(201, 48),5	416,(201, 172),5	421,(201, 46),5	426,(201, 45),5	431,(201, 174),5	436,(201, 43),5	441,(201, 42),5	446,(201, 41),5	451,(201, 184),5	456,(201, 185),5	461,(201, 182),5	466,(201, 180),5	471,(201, 186),5	476,(201, 178),5	481,(201, 177),5	486,(201, 176),5	491,(201, 40),5	496,(201, 188),5	501,(201, 38),5	506,(201, 36),5	511,(201, 189),5	516,(201, 34),5	521,(201, 33),5	526,(201, 32),5	531,(201, 31),5	536,(201, 191),5	541,(201, 29),5	546,(201, 27),5	551,(201, 192),5	556,(201, 17),5	561,(201, 16),5	566,(201, 15),5	571,(201, 19),5	576,(201, 20),5	581,(201, 13),5	586,(201, 12),5	591,(201, 22),5	596,(201, 23),5	601,(201, 10),5	606,(201, 9),5	611,(201, 1),5	616,(201, 3),5	621,(201, 4),5	626,(201, 6),5	631,(201, 7),5	636,(201, 25),5	641,(201, 193),5	646,(201, 195),5	651,(201, 196),5	656,(201, 198),5	661,(201, 199),5	
18,(135, 0),6	36,(140, 0),6	54,(141, 0),6	72,(128, 0),6	90,(126, 0),6	108,(122, 0),6	126,(119, 0),6	144,(116, 0),6	162,(113, 0),6	180,(151, 0),6	198,(152, 0),6	216,(104, 0),6	234,(101, 0),6	252,(97, 0),6	270,(158, 0),6	288,(91, 0),6	306,(80, 0),6	324,(83, 0),6	342,(85, 0),6	360,(71, 0),6	378,(69, 0),6	396,(161, 0),6	414,(63, 0),6	432,(60, 0),6	450,(57, 0),6	468,(168, 0),6	486,(169, 0),6	504,(49, 0),6	522,(46, 0),6	540,(43, 0),6	558,(184, 0),6	576,(180, 0),6	594,(177, 0),6	612,(188, 0),6	630,(189, 0),6	648,(32, 0),6	666,(29, 0),6	684,(17, 0),6	702,(19, 0),6	720,(12, 0),6	738,(10, 0),6	756,(3, 0),6	774,(7, 0),6	792,(195, 0),6	810,(199, 0),6	
24,(130, 0),6	42,(136, 0),6	60,(131, 0),6	78,(143, 0),6	96,(124, 0),6	114,(121, 0),6	132,(147, 0),6	150,(149, 0),6	168,(112, 0),6	186,(109, 0),6	204,(153, 0),6	222,(103, 0),6	240,(99, 0),6	258,(96, 0),6	276,(159, 0),6	294,(160, 0),6	312,(79, 0),6	330,(76, 0),6	348,(73, 0),6	366,(87, 0),6	384,(67, 0),6	402,(65, 0),6	420,(163, 0),6	438,(165, 0),6	456,(56, 0),6	474,(54, 0),6	492,(170, 0),6	510,(48, 0),6	528,(45, 0),6	546,(42, 0),6	564,(185, 0),6	582,(186, 0),6	600,(176, 0),6	618,(38, 0),6	636,(34, 0),6	654,(31, 0),6	672,(27, 0),6	690,(16, 0),6	708,(20, 0),6	726,(22, 0),6	744,(9, 0),6	762,(4, 0),6	780,(25, 0),6	798,(196, 0),6	
30,(138, 0),6	48,(133, 0),6	66,(129, 0),6	84,(144, 0),6	102,(145, 0),6	120,(120, 0),6	138,(117, 0),6	156,(114, 0),6	174,(111, 0),6	192,(107, 0),6	210,(105, 0),6	228,(155, 0),6	246,(156, 0),6	264,(95, 0),6	282,(93, 0),6	300,(81, 0),6	318,(78, 0),6	336,(75, 0),6	354,(72, 0),6	372,(88, 0),6	390,(89, 0),6	408,(64, 0),6	426,(61, 0),6	444,(58, 0),6	462,(167, 0),6	480,(52, 0),6	498,(50, 0),6	516,(172, 0),6	534,(174, 0),6	552,(41, 0),6	570,(182, 0),6	588,(178, 0),6	606,(40, 0),6	624,(36, 0),6	642,(33, 0),6	660,(191, 0),6	678,(192, 0),6	696,(15, 0),6	714,(13, 0),6	732,(23, 0),6	750,(1, 0),6	768,(6, 0),6	786,(193, 0),6	804,(198, 0),6	
