1351
# CPU
0,201,1	1,200,15	16,139,15	31,138,15	46,140,15	61,137,15	76,141,15	91,136,15	106,142,15	121,143,15	136,144,15	151,145,15	166,134,15	181,146,15	196,133,15	211,147,15	226,148,15	241,149,15	256,150,15	271,132,15	286,151,15	301,131,15	316,152,15	331,153,15	346,154,15	361,128,15	376,155,15	391,156,15	406,122,15	421,157,15	436,158,15	451,159,15	466,113,15	481,160,15	496,80,15	511,78,15	526,77,15	541,76,15	556,74,15	571,72,15	586,71,15	601,70,15	616,68,15	631,67,15	646,66,15	661,65,15	676,62,15	691,61,15	706,60,15	721,59,15	736,57,15	751,56,15	766,55,15	781,53,15	796,51,15	811,50,15	826,49,15	841,47,15	856,46,15	871,45,15	886,43,15	901,42,15	916,184,15	931,185,15	946,183,15	961,186,15	976,187,15	991,182,15	1006,188,15	1021,181,15	1036,189,15	1051,54,15	1066,190,15	1081,52,15	1096,191,15	1111,192,15	1126,17,15	1141,16,15	1156,14,15	1171,13,15	1186,12,15	1201,11,15	1216,10,15	1231,1,15	1246,2,15	1261,3,15	1276,4,15	1291,6,15	1306,8,15	1321,197,15	1350,0,1	
13,135,15	37,129,15	97,123,15	121,120,15	157,117,15	193,115,15	217,111,15	253,110,15	289,104,15	313,102,15	337,99,15	373,97,15	421,91,15	469,86,15	505,161,15	541,163,15	565,164,15	589,165,15	613,166,15	649,168,15	673,169,15	697,170,15	733,172,15	757,173,15	805,175,15	841,177,15	865,178,15	901,180,15	949,37,15	985,34,15	1057,27,15	1093,25,15	1141,193,15	1177,194,15	1201,195,15	1225,196,15	1273,19,15	1297,7,15	1321,198,15	
25,130,15	61,126,15	85,124,15	145,118,15	169,116,15	241,108,15	277,105,15	301,103,15	349,98,15	385,95,15	409,92,15	433,90,15	457,87,15	481,107,15	517,162,15	553,89,15	625,167,15	721,171,15	781,174,15	829,176,15	889,179,15	913,41,15	937,38,15	961,36,15	997,33,15	1021,30,15	1045,28,15	1069,26,15	1105,23,15	1129,48,15	1153,44,15	1249,15,15	1285,5,15	1309,20,15	1333,199,15	
49,127,15	73,125,15	109,121,15	133,119,15	181,114,15	205,112,15	229,109,15	265,106,15	325,100,15	361,96,15	397,93,15	445,88,15	493,101,15	529,94,15	577,85,15	601,84,15	637,83,15	661,82,15	685,81,15	709,79,15	745,75,15	769,73,15	793,69,15	817,64,15	853,63,15	877,58,15	925,39,15	973,35,15	1009,31,15	1033,29,15	1081,24,15	1117,21,15	1165,40,15	1189,32,15	1213,22,15	1237,9,15	1261,18,15	
# Incoming
28,(135, 0),2	40,(130, 0),2	52,(129, 0),2	64,(127, 0),2	76,(126, 0),2	88,(125, 0),2	100,(124, 0),2	112,(123, 0),2	124,(121, 0),2	136,(120, 0),2	148,(119, 0),2	160,(118, 0),2	172,(117, 0),2	184,(116, 0),2	196,(114, 0),2	208,(115, 0),2	220,(112, 0),2	232,(111, 0),2	244,(109, 0),2	256,(108, 0),2	268,(110, 0),2	280,(106, 0),2	292,(105, 0),2	304,(104, 0),2	316,(103, 0),2	328,(102, 0),2	340,(100, 0),2	352,(99, 0),2	364,(98, 0),2	376,(96, 0),2	388,(97, 0),2	400,(95, 0),2	412,(93, 0),2	424,(92, 0),2	436,(91, 0),2	448,(90, 0),2	460,(88, 0),2	472,(87, 0),2	484,(86, 0),2	496,(107, 0),2	508,(101, 0),2	520,(161, 0),2	532,(162, 0),2	544,(94, 0),2	556,(163, 0),2	568,(89, 0),2	580,(164, 0),2	592,(85, 0),2	604,(165, 0),2	616,(84, 0),2	628,(166, 0),2	640,(167, 0),2	652,(83, 0),2	664,(168, 0),2	676,(82, 0),2	688,(169, 0),2	700,(81, 0),2	712,(170, 0),2	724,(79, 0),2	736,(171, 0),2	748,(172, 0),2	760,(75, 0),2	772,(173, 0),2	784,(73, 0),2	796,(174, 0),2	808,(69, 0),2	820,(175, 0),2	832,(64, 0),2	844,(176, 0),2	856,(177, 0),2	868,(63, 0),2	880,(178, 0),2	892,(58, 0),2	904,(179, 0),2	916,(180, 0),2	928,(41, 0),2	940,(39, 0),2	952,(38, 0),2	964,(37, 0),2	976,(36, 0),2	988,(35, 0),2	1000,(34, 0),2	1012,(33, 0),2	1024,(31, 0),2	1036,(30, 0),2	1048,(29, 0),2	1060,(28, 0),2	1072,(27, 0),2	1084,(26, 0),2	1096,(24, 0),2	1108,(25, 0),2	1120,(23, 0),2	1132,(21, 0),2	1144,(48, 0),2	1156,(193, 0),2	1168,(44, 0),2	1180,(40, 0),2	1192,(194, 0),2	1204,(32, 0),2	1216,(195, 0),2	1228,(22, 0),2	1240,(196, 0),2	1252,(9, 0),2	1264,(15, 0),2	1276,(18, 0),2	1288,(19, 0),2	1300,(5, 0),2	1312,(7, 0),2	1324,(20, 0),2	1336,(198, 0),2	1348,(199, 0),2	
1,(201, 135),12	25,(201, 129),12	85,(201, 123),12	109,(201, 120),12	145,(201, 117),12	181,(201, 115),12	205,(201, 111),12	241,(201, 110),12	277,(201, 104),12	301,(201, 102),12	325,(201, 99),12	361,(201, 97),12	409,(201, 91),12	457,(201, 86),12	493,(201, 161),12	529,(201, 163),12	553,(201, 164),12	577,(201, 165),12	601,(201, 166),12	637,(201, 168),12	661,(201, 169),12	685,(201, 170),12	721,(201, 172),12	745,(201, 173),12	793,(201, 175),12	829,(201, 177),12	853,(201, 178),12	889,(201, 180),12	937,(201, 37),12	973,(201, 34),12	1045,(201, 27),12	1081,(201, 25),12	1129,(201, 193),12	1165,(201, 194),12	1189,(201, 195),12	1213,(201, 196),12	1261,(201, 19),12	1285,(201, 7),12	1309,(201, 198),12	
13,(201, 130),12	49,(201, 126),12	73,(201, 124),12	133,(201, 118),12	157,(201, 116),12	229,(201, 108),12	265,(201, 105),12	289,(201, 103),12	337,(201, 98),12	373,(201, 95),12	397,(201, 92),12	421,(201, 90),12	445,(201, 87),12	469,(201, 107),12	505,(201, 162),12	541,(201, 89),12	613,(201, 167),12	709,(201, 171),12	769,(201, 174),12	817,(201, 176),12	877,(201, 179),12	901,(201, 41),12	925,(201, 38),12	949,(201, 36),12	985,(201, 33),12	1009,(201, 30),12	1033,(201, 28),12	1057,(201, 26),12	1093,(201, 23),12	1117,(201, 48),12	1141,(201, 44),12	1237,(201, 15),12	1273,(201, 5),12	1297,(201, 20),12	1321,(201, 199),12	
37,(201, 127),12	61,(201, 125),12	97,(201, 121),12	121,(201, 119),12	169,(201, 114),12	193,(201, 112),12	217,(201, 109),12	253,(201, 106),12	313,(201, 100),12	349,(201, 96),12	385,(201, 93),12	433,(201, 88),12	481,(201, 101),12	517,(201, 94),12	565,(201, 85),12	589,(201, 84),12	625,(201, 83),12	649,(201, 82),12	673,(201, 81),12	697,(201, 79),12	733,(201, 75),12	757,(201, 73),12	781,(201, 69),12	805,(201, 64),12	841,(201, 63),12	865,(201, 58),12	913,(201, 39),12	961,(201, 35),12	997,(201, 31),12	1021,(201, 29),12	1069,(201, 24),12	1105,(201, 21),12	1153,(201, 40),12	1177,(201, 32),12	1201,(201, 22),12	1225,(201, 9),12	1249,(201, 18),12	
# Outgoing
1,(201, 135),12	13,(201, 130),12	25,(201, 129),12	37,(201, 127),12	49,(201, 126),12	61,(201, 125),12	73,(201, 124),12	85,(201, 123),12	97,(201, 121),12	109,(201, 120),12	121,(201, 119),12	133,(201, 118),12	145,(201, 117),12	157,(201, 116),12	169,(201, 114),12	181,(201, 115),12	193,(201, 112),12	205,(201, 111),12	217,(201, 109),12	229,(201, 108),12	241,(201, 110),12	253,(201, 106),12	265,(201, 105),12	277,(201, 104),12	289,(201, 103),12	301,(201, 102),12	313,(201, 100),12	325,(201, 99),12	337,(201, 98),12	349,(201, 96),12	361,(201, 97),12	373,(201, 95),12	385,(201, 93),12	397,(201, 92),12	409,(201, 91),12	421,(201, 90),12	433,(201, 88),12	445,(201, 87),12	457,(201, 86),12	469,(201, 107),12	481,(201, 101),12	493,(201, 161),12	505,(201, 162),12	517,(201, 94),12	529,(201, 163),12	541,(201, 89),12	553,(201, 164),12	565,(201, 85),12	577,(201, 165),12	589,(201, 84),12	601,(201, 166),12	613,(201, 167),12	625,(201, 83),12	637,(201, 168),12	649,(201, 82),12	661,(201, 169),12	673,(201, 81),12	685,(201, 170),12	697,(201, 79),12	709,(201, 171),12	721,(201, 172),12	733,(201, 75),12	745,(201, 173),12	757,(201, 73),12	769,(201, 174),12	781,(201, 69),12	793,(201, 175),12	805,(201, 64),12	817,(201, 176),12	829,(201, 177),12	841,(201, 63),12	853,(201, 178),12	865,(201, 58),12	877,(201, 179),12	889,(201, 180),12	901,(201, 41),12	913,(201, 39),12	925,(201, 38),12	937,(201, 37),12	949,(201, 36),12	961,(201, 35),12	973,(201, 34),12	985,(201, 33),12	997,(201, 31),12	1009,(201, 30),12	1021,(201, 29),12	1033,(201, 28),12	1045,(201, 27),12	1057,(201, 26),12	1069,(201, 24),12	1081,(201, 25),12	1093,(201, 23),12	1105,(201, 21),12	1117,(201, 48),12	1129,(201, 193),12	1141,(201, 44),12	1153,(201, 40),12	1165,(201, 194),12	1177,(201, 32),12	1189,(201, 195),12	1201,(201, 22),12	1213,(201, 196),12	1225,(201, 9),12	1237,(201, 15),12	1249,(201, 18),12	1261,(201, 19),12	1273,(201, 5),12	1285,(201, 7),12	1297,(201, 20),12	1309,(201, 198),12	1321,(201, 199),12	
28,(135, 0),2	52,(129, 0),2	112,(123, 0),2	136,(120, 0),2	172,(117, 0),2	208,(115, 0),2	232,(111, 0),2	268,(110, 0),2	304,(104, 0),2	328,(102, 0),2	352,(99, 0),2	388,(97, 0),2	436,(91, 0),2	484,(86, 0),2	520,(161, 0),2	556,(163, 0),2	580,(164, 0),2	604,(165, 0),2	628,(166, 0),2	664,(168, 0),2	688,(169, 0),2	712,(170, 0),2	748,(172, 0),2	772,(173, 0),2	820,(175, 0),2	856,(177, 0),2	880,(178, 0),2	916,(180, 0),2	964,(37, 0),2	1000,(34, 0),2	1072,(27, 0),2	1108,(25, 0),2	1156,(193, 0),2	1192,(194, 0),2	1216,(195, 0),2	1240,(196, 0),2	1288,(19, 0),2	1312,(7, 0),2	1336,(198, 0),2	
40,(130, 0),2	76,(126, 0),2	100,(124, 0),2	160,(118, 0),2	184,(116, 0),2	256,(108, 0),2	292,(105, 0),2	316,(103, 0),2	364,(98, 0),2	400,(95, 0),2	424,(92, 0),2	448,(90, 0),2	472,(87, 0),2	496,(107, 0),2	532,(162, 0),2	568,(89, 0),2	640,(167, 0),2	736,(171, 0),2	796,(174, 0),2	844,(176, 0),2	904,(179, 0),2	928,(41, 0),2	952,(38, 0),2	976,(36, 0),2	1012,(33, 0),2	1036,(30, 0),2	1060,(28, 0),2	1084,(26, 0),2	1120,(23, 0),2	1144,(48, 0),2	1168,(44, 0),2	1264,(15, 0),2	1300,(5, 0),2	1324,(20, 0),2	1348,(199, 0),2	
64,(127, 0),2	88,(125, 0),2	124,(121, 0),2	148,(119, 0),2	196,(114, 0),2	220,(112, 0),2	244,(109, 0),2	280,(106, 0),2	340,(100, 0),2	376,(96, 0),2	412,(93, 0),2	460,(88, 0),2	508,(101, 0),2	544,(94, 0),2	592,(85, 0),2	616,(84, 0),2	652,(83, 0),2	676,(82, 0),2	700,(81, 0),2	724,(79, 0),2	760,(75, 0),2	784,(73, 0),2	808,(69, 0),2	832,(64, 0),2	868,(63, 0),2	892,(58, 0),2	940,(39, 0),2	988,(35, 0),2	1024,(31, 0),2	1048,(29, 0),2	1096,(24, 0),2	1132,(21, 0),2	1180,(40, 0),2	1204,(32, 0),2	1228,(22, 0),2	1252,(9, 0),2	1276,(18, 0),2	
