2002
# CPU
0,0,1	1,1,10	11,3,10	21,7,10	31,15,10	41,31,10	51,63,10	61,127,10	71,200,10	81,199,10	91,198,10	101,197,10	111,196,10	121,195,10	131,194,10	141,193,10	151,192,10	161,191,10	171,190,10	181,189,10	191,188,10	201,187,10	211,186,10	221,185,10	231,184,10	241,183,10	251,182,10	261,181,10	271,180,10	281,179,10	291,178,10	301,177,10	311,176,10	321,175,10	331,174,10	341,173,10	351,172,10	361,171,10	371,170,10	381,169,10	391,168,10	401,167,10	411,166,10	421,165,10	431,164,10	441,163,10	451,162,10	461,161,10	471,160,10	481,159,10	491,158,10	501,157,10	511,156,10	521,155,10	531,154,10	541,153,10	551,152,10	561,151,10	571,150,10	581,149,10	591,148,10	601,147,10	611,146,10	621,145,10	631,144,10	641,143,10	651,142,10	661,141,10	671,140,10	681,139,10	691,138,10	701,137,10	711,136,10	721,135,10	731,134,10	741,133,10	751,132,10	761,131,10	771,130,10	781,129,10	791,126,10	801,128,10	811,125,10	821,124,10	831,123,10	841,122,10	851,121,10	861,120,10	871,119,10	881,118,10	891,117,10	901,116,10	911,115,10	921,114,10	931,113,10	941,112,10	951,111,10	961,110,10	971,109,10	981,108,10	991,107,10	1001,106,10	1011,105,10	1021,104,10	1031,103,10	1041,102,10	1051,101,10	1061,100,10	1071,99,10	1081,98,10	1091,97,10	1101,96,10	1111,95,10	1121,94,10	1131,93,10	1141,92,10	1151,91,10	1161,90,10	1171,89,10	1181,88,10	1191,87,10	1201,86,10	1211,85,10	1221,84,10	1231,83,10	1241,82,10	1251,81,10	1261,80,10	1271,79,10	1281,78,10	1291,77,10	1301,76,10	1311,75,10	1321,74,10	1331,73,10	1341,72,10	1351,71,10	1361,70,10	1371,69,10	1381,68,10	1391,67,10	1401,66,10	1411,65,10	1421,62,10	1431,64,10	1441,61,10	1451,60,10	1461,59,10	1471,58,10	1481,57,10	1491,56,10	1501,55,10	1511,54,10	1521,53,10	1531,52,10	1541,51,10	1551,50,10	1561,49,10	1571,48,10	1581,47,10	1591,46,10	1601,45,10	1611,44,10	1621,43,10	1631,42,10	1641,41,10	1651,40,10	1661,39,10	1671,38,10	1681,37,10	1691,36,10	1701,35,10	1711,34,10	1721,33,10	1731,30,10	1741,32,10	1751,29,10	1761,28,10	1771,27,10	1781,26,10	1791,25,10	1801,24,10	1811,23,10	1821,22,10	1831,21,10	1841,20,10	1851,19,10	1861,18,10	1871,17,10	1881,14,10	1891,16,10	1901,13,10	1911,12,10	1921,11,10	1931,10,10	1941,9,10	1951,6,10	1961,8,10	1971,5,10	1981,2,10	1991,4,10	2001,201,1	

# Incoming


# Outgoing


