810
# CPU
13,3,5	25,6,5	37,9,5	49,12,5	61,15,5	73,18,5	85,21,5	97,24,5	109,27,5	121,30,5	133,33,5	145,36,5	157,39,5	169,42,5	181,45,5	193,48,5	205,51,5	217,54,5	229,57,5	241,60,5	253,63,5	265,66,5	277,69,5	289,72,5	301,75,5	313,78,5	325,81,5	337,84,5	349,87,5	361,90,5	373,93,5	385,96,5	397,99,5	409,102,5	421,105,5	433,108,5	445,111,5	457,114,5	469,117,5	481,120,5	493,123,5	505,126,5	517,129,5	529,132,5	541,135,5	553,138,5	565,141,5	577,144,5	589,147,5	601,150,5	613,153,5	625,156,5	637,159,5	649,162,5	661,165,5	673,168,5	685,171,5	697,174,5	709,177,5	721,180,5	733,183,5	745,186,5	757,189,5	769,192,5	781,195,5	793,198,5	
7,2,5	19,5,5	31,8,5	43,11,5	55,14,5	67,17,5	79,20,5	91,23,5	103,26,5	115,29,5	127,32,5	139,35,5	151,38,5	163,41,5	175,44,5	187,47,5	199,50,5	211,53,5	223,56,5	235,59,5	247,62,5	259,65,5	271,68,5	283,71,5	295,74,5	307,77,5	319,80,5	331,83,5	343,86,5	355,89,5	367,92,5	379,95,5	391,98,5	403,101,5	415,104,5	427,107,5	439,110,5	451,113,5	463,116,5	475,119,5	487,122,5	499,125,5	511,128,5	523,131,5	535,134,5	547,137,5	559,140,5	571,143,5	583,146,5	595,149,5	607,152,5	619,155,5	631,158,5	643,161,5	655,164,5	667,167,5	679,170,5	691,173,5	703,176,5	715,179,5	727,182,5	739,185,5	751,188,5	763,191,5	775,194,5	787,197,5	799,200,5	
0,0,1	1,1,5	6,7,5	11,19,5	16,43,5	21,91,5	26,187,5	31,199,5	36,196,5	41,193,5	46,184,5	51,190,5	56,181,5	61,178,5	66,175,5	71,172,5	76,169,5	81,166,5	86,163,5	91,160,5	96,157,5	101,154,5	106,151,5	111,148,5	116,145,5	121,142,5	126,139,5	131,136,5	136,133,5	141,130,5	146,127,5	151,124,5	156,121,5	161,118,5	166,115,5	171,112,5	176,109,5	181,106,5	186,103,5	191,100,5	196,97,5	201,88,5	206,94,5	211,85,5	216,82,5	221,79,5	226,76,5	231,73,5	236,70,5	241,67,5	246,64,5	251,61,5	256,58,5	261,55,5	266,52,5	271,49,5	276,40,5	281,46,5	286,37,5	291,34,5	296,31,5	301,28,5	306,25,5	311,16,5	316,22,5	321,13,5	326,4,5	331,10,5	809,201,1	
# Incoming
7,(0, 3),6	19,(0, 6),6	31,(0, 9),6	43,(0, 12),6	55,(0, 15),6	67,(0, 18),6	79,(0, 21),6	91,(0, 24),6	103,(0, 27),6	115,(0, 30),6	127,(0, 33),6	139,(0, 36),6	151,(0, 39),6	163,(0, 42),6	175,(0, 45),6	187,(0, 48),6	199,(0, 51),6	211,(0, 54),6	223,(0, 57),6	235,(0, 60),6	247,(0, 63),6	259,(0, 66),6	271,(0, 69),6	283,(0, 72),6	295,(0, 75),6	307,(0, 78),6	319,(0, 81),6	331,(0, 84),6	343,(0, 87),6	355,(0, 90),6	367,(0, 93),6	379,(0, 96),6	391,(0, 99),6	403,(0, 102),6	415,(0, 105),6	427,(0, 108),6	439,(0, 111),6	451,(0, 114),6	463,(0, 117),6	475,(0, 120),6	487,(0, 123),6	499,(0, 126),6	511,(0, 129),6	523,(0, 132),6	535,(0, 135),6	547,(0, 138),6	559,(0, 141),6	571,(0, 144),6	583,(0, 147),6	595,(0, 150),6	607,(0, 153),6	619,(0, 156),6	631,(0, 159),6	643,(0, 162),6	655,(0, 165),6	667,(0, 168),6	679,(0, 171),6	691,(0, 174),6	703,(0, 177),6	715,(0, 180),6	727,(0, 183),6	739,(0, 186),6	751,(0, 189),6	763,(0, 192),6	775,(0, 195),6	787,(0, 198),6	
1,(0, 2),6	13,(0, 5),6	25,(0, 8),6	37,(0, 11),6	49,(0, 14),6	61,(0, 17),6	73,(0, 20),6	85,(0, 23),6	97,(0, 26),6	109,(0, 29),6	121,(0, 32),6	133,(0, 35),6	145,(0, 38),6	157,(0, 41),6	169,(0, 44),6	181,(0, 47),6	193,(0, 50),6	205,(0, 53),6	217,(0, 56),6	229,(0, 59),6	241,(0, 62),6	253,(0, 65),6	265,(0, 68),6	277,(0, 71),6	289,(0, 74),6	301,(0, 77),6	313,(0, 80),6	325,(0, 83),6	337,(0, 86),6	349,(0, 89),6	361,(0, 92),6	373,(0, 95),6	385,(0, 98),6	397,(0, 101),6	409,(0, 104),6	421,(0, 107),6	433,(0, 110),6	445,(0, 113),6	457,(0, 116),6	469,(0, 119),6	481,(0, 122),6	493,(0, 125),6	505,(0, 128),6	517,(0, 131),6	529,(0, 134),6	541,(0, 137),6	553,(0, 140),6	565,(0, 143),6	577,(0, 146),6	589,(0, 149),6	601,(0, 152),6	613,(0, 155),6	625,(0, 158),6	637,(0, 161),6	649,(0, 164),6	661,(0, 167),6	673,(0, 170),6	685,(0, 173),6	697,(0, 176),6	709,(0, 179),6	721,(0, 182),6	733,(0, 185),6	745,(0, 188),6	757,(0, 191),6	769,(0, 194),6	781,(0, 197),6	793,(0, 200),6	
12,(2, 201),5	18,(3, 201),5	24,(5, 201),5	30,(6, 201),5	36,(8, 201),5	42,(9, 201),5	48,(11, 201),5	54,(12, 201),5	60,(14, 201),5	66,(15, 201),5	72,(17, 201),5	78,(18, 201),5	84,(20, 201),5	90,(21, 201),5	96,(23, 201),5	102,(24, 201),5	108,(26, 201),5	114,(27, 201),5	120,(29, 201),5	126,(30, 201),5	132,(32, 201),5	138,(33, 201),5	144,(35, 201),5	150,(36, 201),5	156,(38, 201),5	162,(39, 201),5	168,(41, 201),5	174,(42, 201),5	180,(44, 201),5	186,(45, 201),5	192,(47, 201),5	198,(48, 201),5	204,(50, 201),5	210,(51, 201),5	216,(53, 201),5	222,(54, 201),5	228,(56, 201),5	234,(57, 201),5	240,(59, 201),5	246,(60, 201),5	252,(62, 201),5	258,(63, 201),5	264,(65, 201),5	270,(66, 201),5	276,(68, 201),5	282,(69, 201),5	288,(71, 201),5	294,(72, 201),5	300,(74, 201),5	306,(75, 201),5	312,(77, 201),5	318,(78, 201),5	324,(80, 201),5	330,(81, 201),5	336,(83, 201),5	342,(84, 201),5	348,(86, 201),5	354,(87, 201),5	360,(89, 201),5	366,(90, 201),5	372,(92, 201),5	378,(93, 201),5	384,(95, 201),5	390,(96, 201),5	396,(98, 201),5	402,(99, 201),5	408,(101, 201),5	414,(102, 201),5	420,(104, 201),5	426,(105, 201),5	432,(107, 201),5	438,(108, 201),5	444,(110, 201),5	450,(111, 201),5	456,(113, 201),5	462,(114, 201),5	468,(116, 201),5	474,(117, 201),5	480,(119, 201),5	486,(120, 201),5	492,(122, 201),5	498,(123, 201),5	504,(125, 201),5	510,(126, 201),5	516,(128, 201),5	522,(129, 201),5	528,(131, 201),5	534,(132, 201),5	540,(134, 201),5	546,(135, 201),5	552,(137, 201),5	558,(138, 201),5	564,(140, 201),5	570,(141, 201),5	576,(143, 201),5	582,(144, 201),5	588,(146, 201),5	594,(147, 201),5	600,(149, 201),5	606,(150, 201),5	612,(152, 201),5	618,(153, 201),5	624,(155, 201),5	630,(156, 201),5	636,(158, 201),5	642,(159, 201),5	648,(161, 201),5	654,(162, 201),5	660,(164, 201),5	666,(165, 201),5	672,(167, 201),5	678,(168, 201),5	684,(170, 201),5	690,(171, 201),5	696,(173, 201),5	702,(174, 201),5	708,(176, 201),5	714,(177, 201),5	720,(179, 201),5	726,(180, 201),5	732,(182, 201),5	738,(183, 201),5	744,(185, 201),5	750,(186, 201),5	756,(188, 201),5	762,(189, 201),5	768,(191, 201),5	774,(192, 201),5	780,(194, 201),5	786,(195, 201),5	792,(197, 201),5	798,(198, 201),5	804,(200, 201),5	
# Outgoing
18,(3, 201),5	30,(6, 201),5	42,(9, 201),5	54,(12, 201),5	66,(15, 201),5	78,(18, 201),5	90,(21, 201),5	102,(24, 201),5	114,(27, 201),5	126,(30, 201),5	138,(33, 201),5	150,(36, 201),5	162,(39, 201),5	174,(42, 201),5	186,(45, 201),5	198,(48, 201),5	210,(51, 201),5	222,(54, 201),5	234,(57, 201),5	246,(60, 201),5	258,(63, 201),5	270,(66, 201),5	282,(69, 201),5	294,(72, 201),5	306,(75, 201),5	318,(78, 201),5	330,(81, 201),5	342,(84, 201),5	354,(87, 201),5	366,(90, 201),5	378,(93, 201),5	390,(96, 201),5	402,(99, 201),5	414,(102, 201),5	426,(105, 201),5	438,(108, 201),5	450,(111, 201),5	462,(114, 201),5	474,(117, 201),5	486,(120, 201),5	498,(123, 201),5	510,(126, 201),5	522,(129, 201),5	534,(132, 201),5	546,(135, 201),5	558,(138, 201),5	570,(141, 201),5	582,(144, 201),5	594,(147, 201),5	606,(150, 201),5	618,(153, 201),5	630,(156, 201),5	642,(159, 201),5	654,(162, 201),5	666,(165, 201),5	678,(168, 201),5	690,(171, 201),5	702,(174, 201),5	714,(177, 201),5	726,(180, 201),5	738,(183, 201),5	750,(186, 201),5	762,(189, 201),5	774,(192, 201),5	786,(195, 201),5	798,(198, 201),5	
12,(2, 201),5	24,(5, 201),5	36,(8, 201),5	48,(11, 201),5	60,(14, 201),5	72,(17, 201),5	84,(20, 201),5	96,(23, 201),5	108,(26, 201),5	120,(29, 201),5	132,(32, 201),5	144,(35, 201),5	156,(38, 201),5	168,(41, 201),5	180,(44, 201),5	192,(47, 201),5	204,(50, 201),5	216,(53, 201),5	228,(56, 201),5	240,(59, 201),5	252,(62, 201),5	264,(65, 201),5	276,(68, 201),5	288,(71, 201),5	300,(74, 201),5	312,(77, 201),5	324,(80, 201),5	336,(83, 201),5	348,(86, 201),5	360,(89, 201),5	372,(92, 201),5	384,(95, 201),5	396,(98, 201),5	408,(101, 201),5	420,(104, 201),5	432,(107, 201),5	444,(110, 201),5	456,(113, 201),5	468,(116, 201),5	480,(119, 201),5	492,(122, 201),5	504,(125, 201),5	516,(128, 201),5	528,(131, 201),5	540,(134, 201),5	552,(137, 201),5	564,(140, 201),5	576,(143, 201),5	588,(146, 201),5	600,(149, 201),5	612,(152, 201),5	624,(155, 201),5	636,(158, 201),5	648,(161, 201),5	660,(164, 201),5	672,(167, 201),5	684,(170, 201),5	696,(173, 201),5	708,(176, 201),5	720,(179, 201),5	732,(182, 201),5	744,(185, 201),5	756,(188, 201),5	768,(191, 201),5	780,(194, 201),5	792,(197, 201),5	804,(200, 201),5	
1,(0, 2),6	7,(0, 3),6	13,(0, 5),6	19,(0, 6),6	25,(0, 8),6	31,(0, 9),6	37,(0, 11),6	43,(0, 12),6	49,(0, 14),6	55,(0, 15),6	61,(0, 17),6	67,(0, 18),6	73,(0, 20),6	79,(0, 21),6	85,(0, 23),6	91,(0, 24),6	97,(0, 26),6	103,(0, 27),6	109,(0, 29),6	115,(0, 30),6	121,(0, 32),6	127,(0, 33),6	133,(0, 35),6	139,(0, 36),6	145,(0, 38),6	151,(0, 39),6	157,(0, 41),6	163,(0, 42),6	169,(0, 44),6	175,(0, 45),6	181,(0, 47),6	187,(0, 48),6	193,(0, 50),6	199,(0, 51),6	205,(0, 53),6	211,(0, 54),6	217,(0, 56),6	223,(0, 57),6	229,(0, 59),6	235,(0, 60),6	241,(0, 62),6	247,(0, 63),6	253,(0, 65),6	259,(0, 66),6	265,(0, 68),6	271,(0, 69),6	277,(0, 71),6	283,(0, 72),6	289,(0, 74),6	295,(0, 75),6	301,(0, 77),6	307,(0, 78),6	313,(0, 80),6	319,(0, 81),6	325,(0, 83),6	331,(0, 84),6	337,(0, 86),6	343,(0, 87),6	349,(0, 89),6	355,(0, 90),6	361,(0, 92),6	367,(0, 93),6	373,(0, 95),6	379,(0, 96),6	385,(0, 98),6	391,(0, 99),6	397,(0, 101),6	403,(0, 102),6	409,(0, 104),6	415,(0, 105),6	421,(0, 107),6	427,(0, 108),6	433,(0, 110),6	439,(0, 111),6	445,(0, 113),6	451,(0, 114),6	457,(0, 116),6	463,(0, 117),6	469,(0, 119),6	475,(0, 120),6	481,(0, 122),6	487,(0, 123),6	493,(0, 125),6	499,(0, 126),6	505,(0, 128),6	511,(0, 129),6	517,(0, 131),6	523,(0, 132),6	529,(0, 134),6	535,(0, 135),6	541,(0, 137),6	547,(0, 138),6	553,(0, 140),6	559,(0, 141),6	565,(0, 143),6	571,(0, 144),6	577,(0, 146),6	583,(0, 147),6	589,(0, 149),6	595,(0, 150),6	601,(0, 152),6	607,(0, 153),6	613,(0, 155),6	619,(0, 156),6	625,(0, 158),6	631,(0, 159),6	637,(0, 161),6	643,(0, 162),6	649,(0, 164),6	655,(0, 165),6	661,(0, 167),6	667,(0, 168),6	673,(0, 170),6	679,(0, 171),6	685,(0, 173),6	691,(0, 174),6	697,(0, 176),6	703,(0, 177),6	709,(0, 179),6	715,(0, 180),6	721,(0, 182),6	727,(0, 183),6	733,(0, 185),6	739,(0, 186),6	745,(0, 188),6	751,(0, 189),6	757,(0, 191),6	763,(0, 192),6	769,(0, 194),6	775,(0, 195),6	781,(0, 197),6	787,(0, 198),6	793,(0, 200),6	
