174
# CPU
0,201,1	1,139,1	2,138,1	3,140,1	4,137,1	5,136,1	6,135,1	7,158,1	8,83,1	9,134,1	10,141,1	11,133,1	12,132,1	13,89,1	14,81,1	15,143,1	16,142,1	17,144,1	18,131,1	19,59,1	20,78,1	21,145,1	22,129,1	23,127,1	24,146,1	25,41,1	26,77,1	27,147,1	28,126,1	29,148,1	30,124,1	31,56,1	32,74,1	33,149,1	34,150,1	35,123,1	36,121,1	37,75,1	38,172,1	39,120,1	40,119,1	41,151,1	42,118,1	43,163,1	44,68,1	45,152,1	46,116,1	47,115,1	48,153,1	49,69,1	50,66,1	51,154,1	52,113,1	53,112,1	54,111,1	55,47,1	56,63,1	57,156,1	58,157,1	59,155,1	60,109,1	61,31,1	62,62,1	63,98,1	64,97,1	65,99,1	66,96,1	67,43,1	68,58,1	69,95,1	70,100,1	71,94,1	72,101,1	73,28,1	74,42,1	75,93,1	76,92,1	77,103,1	78,91,1	79,174,1	80,48,1	81,88,1	82,90,1	83,87,1	84,106,1	85,60,1	86,45,1	87,86,1	88,85,1	89,108,1	90,84,1	91,34,1	92,183,1	93,82,1	94,80,1	95,79,1	96,161,1	97,16,1	98,184,1	99,76,1	100,73,1	101,72,1	102,71,1	103,24,1	104,36,1	105,162,1	106,165,1	107,70,1	108,67,1	109,17,1	110,29,1	111,168,1	112,65,1	113,169,1	114,64,1	115,187,1	116,32,1	117,57,1	118,182,1	119,181,1	120,185,1	121,61,1	122,27,1	123,186,1	124,180,1	125,179,1	126,178,1	127,190,1	128,35,1	129,175,1	130,188,1	131,170,1	132,55,1	133,23,1	134,30,1	135,189,1	136,54,1	137,191,1	138,52,1	139,18,1	140,22,1	141,192,1	142,51,1	143,49,1	144,193,1	145,15,1	146,44,1	147,20,1	148,19,1	149,21,1	150,14,1	151,11,1	152,9,1	153,25,1	154,26,1	155,13,1	156,33,1	157,46,1	158,198,1	159,1,1	160,2,1	161,3,1	162,4,1	163,5,1	164,6,1	165,7,1	166,8,1	167,10,1	168,12,1	169,194,1	170,195,1	171,199,1	172,200,1	173,0,1	
13,128,1	31,117,1	43,110,1	73,159,1	85,164,1	109,176,1	115,177,1	145,37,1	169,40,1	
19,125,1	49,107,1	61,102,1	79,160,1	91,166,1	121,173,1	127,53,1	139,39,1	151,38,1	163,197,1	
7,130,1	25,122,1	37,114,1	55,104,1	67,105,1	97,167,1	103,171,1	133,50,1	157,196,1	
# Incoming
8,(130, 0),2	14,(128, 0),2	20,(125, 0),2	26,(122, 0),2	32,(117, 0),2	38,(114, 0),2	44,(110, 0),2	50,(107, 0),2	56,(104, 0),2	62,(102, 0),2	68,(105, 0),2	74,(159, 0),2	80,(160, 0),2	86,(164, 0),2	92,(166, 0),2	98,(167, 0),2	104,(171, 0),2	110,(176, 0),2	116,(177, 0),2	122,(173, 0),2	128,(53, 0),2	134,(50, 0),2	140,(39, 0),2	146,(37, 0),2	152,(38, 0),2	158,(196, 0),2	164,(197, 0),2	170,(40, 0),2	
7,(201, 128),6	25,(201, 117),6	37,(201, 110),6	67,(201, 159),6	79,(201, 164),6	103,(201, 176),6	109,(201, 177),6	139,(201, 37),6	163,(201, 40),6	
13,(201, 125),6	43,(201, 107),6	55,(201, 102),6	73,(201, 160),6	85,(201, 166),6	115,(201, 173),6	121,(201, 53),6	133,(201, 39),6	145,(201, 38),6	157,(201, 197),6	
1,(201, 130),6	19,(201, 122),6	31,(201, 114),6	49,(201, 104),6	61,(201, 105),6	91,(201, 167),6	97,(201, 171),6	127,(201, 50),6	151,(201, 196),6	
# Outgoing
1,(201, 130),6	7,(201, 128),6	13,(201, 125),6	19,(201, 122),6	25,(201, 117),6	31,(201, 114),6	37,(201, 110),6	43,(201, 107),6	49,(201, 104),6	55,(201, 102),6	61,(201, 105),6	67,(201, 159),6	73,(201, 160),6	79,(201, 164),6	85,(201, 166),6	91,(201, 167),6	97,(201, 171),6	103,(201, 176),6	109,(201, 177),6	115,(201, 173),6	121,(201, 53),6	127,(201, 50),6	133,(201, 39),6	139,(201, 37),6	145,(201, 38),6	151,(201, 196),6	157,(201, 197),6	163,(201, 40),6	
14,(128, 0),2	32,(117, 0),2	44,(110, 0),2	74,(159, 0),2	86,(164, 0),2	110,(176, 0),2	116,(177, 0),2	146,(37, 0),2	170,(40, 0),2	
20,(125, 0),2	50,(107, 0),2	62,(102, 0),2	80,(160, 0),2	92,(166, 0),2	122,(173, 0),2	128,(53, 0),2	140,(39, 0),2	152,(38, 0),2	164,(197, 0),2	
8,(130, 0),2	26,(122, 0),2	38,(114, 0),2	56,(104, 0),2	68,(105, 0),2	98,(167, 0),2	104,(171, 0),2	134,(50, 0),2	158,(196, 0),2	
