872
# CPU
0,201,1	1,200,15	16,139,15	31,140,15	46,141,15	61,138,15	76,143,15	91,144,15	106,145,15	121,146,15	136,147,15	151,149,15	166,150,15	181,148,15	196,151,15	211,153,15	226,154,15	241,155,15	256,156,15	271,157,15	286,159,15	301,158,15	316,80,15	331,78,15	346,76,15	361,74,15	376,71,15	391,70,15	406,67,15	421,65,15	436,62,15	451,61,15	466,58,15	481,56,15	496,54,15	511,52,15	526,50,15	541,47,15	556,45,15	571,43,15	586,184,15	601,185,15	616,186,15	631,187,15	646,188,15	661,183,15	676,189,15	691,190,15	706,191,15	721,192,15	736,15,15	751,14,15	766,12,15	781,10,15	796,1,15	811,2,15	826,3,15	841,4,15	856,199,15	871,0,1	
181,106,15	247,136,15	271,93,15	313,142,15	349,161,15	415,166,15	523,174,15	571,177,15	625,38,15	721,23,15	793,194,15	841,7,15	
7,133,15	31,129,15	73,134,15	109,117,15	211,101,15	235,137,15	337,160,15	391,164,15	433,167,15	469,170,15	565,176,15	613,178,15	637,36,15	661,31,15	703,179,15	751,182,15	805,195,15	853,5,15	
19,131,15	49,126,15	85,122,15	121,115,15	163,135,15	187,105,15	259,95,15	289,90,15	367,162,15	445,168,15	481,171,15	535,175,15	553,51,15	589,42,15	649,33,15	709,180,15	739,181,15	781,16,15	829,198,15	
97,120,15	151,110,15	175,108,15	199,103,15	343,84,15	379,163,15	457,169,15	499,172,15	601,40,15	727,22,15	769,193,15	817,196,15	
13,132,15	37,128,15	127,114,15	205,102,15	229,98,15	253,96,15	277,92,15	301,88,15	355,83,15	409,165,15	463,66,15	487,63,15	511,173,15	577,46,15	643,34,15	667,30,15	691,26,15	847,6,15	
61,124,15	103,118,15	139,112,15	265,94,15	331,152,15	385,79,15	655,32,15	679,28,15	715,24,15	745,20,15	787,13,15	835,8,15	
25,130,15	55,125,15	115,116,15	193,104,15	217,100,15	295,89,15	319,86,15	373,81,15	397,77,15	421,73,15	475,64,15	517,57,15	583,44,15	607,39,15	631,35,15	757,19,15	775,17,15	823,197,15	
43,127,15	67,123,15	91,119,15	145,111,15	169,107,15	241,97,15	283,91,15	307,87,15	439,69,15	505,59,15	529,55,15	547,49,15	595,41,15	619,37,15	685,27,15	733,21,15	799,11,15	
79,121,15	133,113,15	157,109,15	223,99,15	325,85,15	361,82,15	403,75,15	427,72,15	451,68,15	493,60,15	541,53,15	559,48,15	673,29,15	697,25,15	763,18,15	811,9,15	
# Incoming
22,(133, 0),1	28,(132, 0),1	34,(131, 0),1	40,(130, 0),1	46,(129, 0),1	52,(128, 0),1	58,(127, 0),1	64,(126, 0),1	70,(125, 0),1	76,(124, 0),1	82,(123, 0),1	88,(134, 0),1	94,(121, 0),1	100,(122, 0),1	106,(119, 0),1	112,(120, 0),1	118,(118, 0),1	124,(117, 0),1	130,(116, 0),1	136,(115, 0),1	142,(114, 0),1	148,(113, 0),1	154,(112, 0),1	160,(111, 0),1	166,(110, 0),1	172,(109, 0),1	178,(135, 0),1	184,(107, 0),1	190,(108, 0),1	196,(106, 0),1	202,(105, 0),1	208,(104, 0),1	214,(103, 0),1	220,(102, 0),1	226,(101, 0),1	232,(100, 0),1	238,(99, 0),1	244,(98, 0),1	250,(137, 0),1	256,(97, 0),1	262,(136, 0),1	268,(96, 0),1	274,(95, 0),1	280,(94, 0),1	286,(93, 0),1	292,(92, 0),1	298,(91, 0),1	304,(90, 0),1	310,(89, 0),1	316,(88, 0),1	322,(87, 0),1	328,(142, 0),1	334,(86, 0),1	340,(85, 0),1	346,(152, 0),1	352,(160, 0),1	358,(84, 0),1	364,(161, 0),1	370,(83, 0),1	376,(82, 0),1	382,(162, 0),1	388,(81, 0),1	394,(163, 0),1	400,(79, 0),1	406,(164, 0),1	412,(77, 0),1	418,(75, 0),1	424,(165, 0),1	430,(166, 0),1	436,(73, 0),1	442,(72, 0),1	448,(167, 0),1	454,(69, 0),1	460,(168, 0),1	466,(68, 0),1	472,(169, 0),1	478,(66, 0),1	484,(170, 0),1	490,(64, 0),1	496,(171, 0),1	502,(63, 0),1	508,(60, 0),1	514,(172, 0),1	520,(59, 0),1	526,(173, 0),1	532,(57, 0),1	538,(174, 0),1	544,(55, 0),1	550,(175, 0),1	556,(53, 0),1	562,(49, 0),1	568,(51, 0),1	574,(48, 0),1	580,(176, 0),1	586,(177, 0),1	592,(46, 0),1	598,(44, 0),1	604,(42, 0),1	610,(41, 0),1	616,(40, 0),1	622,(39, 0),1	628,(178, 0),1	634,(37, 0),1	640,(38, 0),1	646,(35, 0),1	652,(36, 0),1	658,(34, 0),1	664,(33, 0),1	670,(32, 0),1	676,(31, 0),1	682,(30, 0),1	688,(29, 0),1	694,(28, 0),1	700,(27, 0),1	706,(26, 0),1	712,(25, 0),1	718,(179, 0),1	724,(180, 0),1	730,(24, 0),1	736,(23, 0),1	742,(22, 0),1	748,(21, 0),1	754,(181, 0),1	760,(20, 0),1	766,(182, 0),1	772,(19, 0),1	778,(18, 0),1	784,(193, 0),1	790,(17, 0),1	796,(16, 0),1	802,(13, 0),1	808,(194, 0),1	814,(11, 0),1	820,(195, 0),1	826,(9, 0),1	832,(196, 0),1	838,(197, 0),1	844,(198, 0),1	850,(8, 0),1	856,(7, 0),1	862,(6, 0),1	868,(5, 0),1	
175,(201, 106),6	241,(201, 136),6	265,(201, 93),6	307,(201, 142),6	343,(201, 161),6	409,(201, 166),6	517,(201, 174),6	565,(201, 177),6	619,(201, 38),6	715,(201, 23),6	787,(201, 194),6	835,(201, 7),6	
1,(201, 133),6	25,(201, 129),6	67,(201, 134),6	103,(201, 117),6	205,(201, 101),6	229,(201, 137),6	331,(201, 160),6	385,(201, 164),6	427,(201, 167),6	463,(201, 170),6	559,(201, 176),6	607,(201, 178),6	631,(201, 36),6	655,(201, 31),6	697,(201, 179),6	745,(201, 182),6	799,(201, 195),6	847,(201, 5),6	
13,(201, 131),6	43,(201, 126),6	79,(201, 122),6	115,(201, 115),6	157,(201, 135),6	181,(201, 105),6	253,(201, 95),6	283,(201, 90),6	361,(201, 162),6	439,(201, 168),6	475,(201, 171),6	529,(201, 175),6	547,(201, 51),6	583,(201, 42),6	643,(201, 33),6	703,(201, 180),6	733,(201, 181),6	775,(201, 16),6	823,(201, 198),6	
91,(201, 120),6	145,(201, 110),6	169,(201, 108),6	193,(201, 103),6	337,(201, 84),6	373,(201, 163),6	451,(201, 169),6	493,(201, 172),6	595,(201, 40),6	721,(201, 22),6	763,(201, 193),6	811,(201, 196),6	
7,(201, 132),6	31,(201, 128),6	121,(201, 114),6	199,(201, 102),6	223,(201, 98),6	247,(201, 96),6	271,(201, 92),6	295,(201, 88),6	349,(201, 83),6	403,(201, 165),6	457,(201, 66),6	481,(201, 63),6	505,(201, 173),6	571,(201, 46),6	637,(201, 34),6	661,(201, 30),6	685,(201, 26),6	841,(201, 6),6	
55,(201, 124),6	97,(201, 118),6	133,(201, 112),6	259,(201, 94),6	325,(201, 152),6	379,(201, 79),6	649,(201, 32),6	673,(201, 28),6	709,(201, 24),6	739,(201, 20),6	781,(201, 13),6	829,(201, 8),6	
19,(201, 130),6	49,(201, 125),6	109,(201, 116),6	187,(201, 104),6	211,(201, 100),6	289,(201, 89),6	313,(201, 86),6	367,(201, 81),6	391,(201, 77),6	415,(201, 73),6	469,(201, 64),6	511,(201, 57),6	577,(201, 44),6	601,(201, 39),6	625,(201, 35),6	751,(201, 19),6	769,(201, 17),6	817,(201, 197),6	
37,(201, 127),6	61,(201, 123),6	85,(201, 119),6	139,(201, 111),6	163,(201, 107),6	235,(201, 97),6	277,(201, 91),6	301,(201, 87),6	433,(201, 69),6	499,(201, 59),6	523,(201, 55),6	541,(201, 49),6	589,(201, 41),6	613,(201, 37),6	679,(201, 27),6	727,(201, 21),6	793,(201, 11),6	
73,(201, 121),6	127,(201, 113),6	151,(201, 109),6	217,(201, 99),6	319,(201, 85),6	355,(201, 82),6	397,(201, 75),6	421,(201, 72),6	445,(201, 68),6	487,(201, 60),6	535,(201, 53),6	553,(201, 48),6	667,(201, 29),6	691,(201, 25),6	757,(201, 18),6	805,(201, 9),6	
# Outgoing
1,(201, 133),6	7,(201, 132),6	13,(201, 131),6	19,(201, 130),6	25,(201, 129),6	31,(201, 128),6	37,(201, 127),6	43,(201, 126),6	49,(201, 125),6	55,(201, 124),6	61,(201, 123),6	67,(201, 134),6	73,(201, 121),6	79,(201, 122),6	85,(201, 119),6	91,(201, 120),6	97,(201, 118),6	103,(201, 117),6	109,(201, 116),6	115,(201, 115),6	121,(201, 114),6	127,(201, 113),6	133,(201, 112),6	139,(201, 111),6	145,(201, 110),6	151,(201, 109),6	157,(201, 135),6	163,(201, 107),6	169,(201, 108),6	175,(201, 106),6	181,(201, 105),6	187,(201, 104),6	193,(201, 103),6	199,(201, 102),6	205,(201, 101),6	211,(201, 100),6	217,(201, 99),6	223,(201, 98),6	229,(201, 137),6	235,(201, 97),6	241,(201, 136),6	247,(201, 96),6	253,(201, 95),6	259,(201, 94),6	265,(201, 93),6	271,(201, 92),6	277,(201, 91),6	283,(201, 90),6	289,(201, 89),6	295,(201, 88),6	301,(201, 87),6	307,(201, 142),6	313,(201, 86),6	319,(201, 85),6	325,(201, 152),6	331,(201, 160),6	337,(201, 84),6	343,(201, 161),6	349,(201, 83),6	355,(201, 82),6	361,(201, 162),6	367,(201, 81),6	373,(201, 163),6	379,(201, 79),6	385,(201, 164),6	391,(201, 77),6	397,(201, 75),6	403,(201, 165),6	409,(201, 166),6	415,(201, 73),6	421,(201, 72),6	427,(201, 167),6	433,(201, 69),6	439,(201, 168),6	445,(201, 68),6	451,(201, 169),6	457,(201, 66),6	463,(201, 170),6	469,(201, 64),6	475,(201, 171),6	481,(201, 63),6	487,(201, 60),6	493,(201, 172),6	499,(201, 59),6	505,(201, 173),6	511,(201, 57),6	517,(201, 174),6	523,(201, 55),6	529,(201, 175),6	535,(201, 53),6	541,(201, 49),6	547,(201, 51),6	553,(201, 48),6	559,(201, 176),6	565,(201, 177),6	571,(201, 46),6	577,(201, 44),6	583,(201, 42),6	589,(201, 41),6	595,(201, 40),6	601,(201, 39),6	607,(201, 178),6	613,(201, 37),6	619,(201, 38),6	625,(201, 35),6	631,(201, 36),6	637,(201, 34),6	643,(201, 33),6	649,(201, 32),6	655,(201, 31),6	661,(201, 30),6	667,(201, 29),6	673,(201, 28),6	679,(201, 27),6	685,(201, 26),6	691,(201, 25),6	697,(201, 179),6	703,(201, 180),6	709,(201, 24),6	715,(201, 23),6	721,(201, 22),6	727,(201, 21),6	733,(201, 181),6	739,(201, 20),6	745,(201, 182),6	751,(201, 19),6	757,(201, 18),6	763,(201, 193),6	769,(201, 17),6	775,(201, 16),6	781,(201, 13),6	787,(201, 194),6	793,(201, 11),6	799,(201, 195),6	805,(201, 9),6	811,(201, 196),6	817,(201, 197),6	823,(201, 198),6	829,(201, 8),6	835,(201, 7),6	841,(201, 6),6	847,(201, 5),6	
196,(106, 0),1	262,(136, 0),1	286,(93, 0),1	328,(142, 0),1	364,(161, 0),1	430,(166, 0),1	538,(174, 0),1	586,(177, 0),1	640,(38, 0),1	736,(23, 0),1	808,(194, 0),1	856,(7, 0),1	
22,(133, 0),1	46,(129, 0),1	88,(134, 0),1	124,(117, 0),1	226,(101, 0),1	250,(137, 0),1	352,(160, 0),1	406,(164, 0),1	448,(167, 0),1	484,(170, 0),1	580,(176, 0),1	628,(178, 0),1	652,(36, 0),1	676,(31, 0),1	718,(179, 0),1	766,(182, 0),1	820,(195, 0),1	868,(5, 0),1	
34,(131, 0),1	64,(126, 0),1	100,(122, 0),1	136,(115, 0),1	178,(135, 0),1	202,(105, 0),1	274,(95, 0),1	304,(90, 0),1	382,(162, 0),1	460,(168, 0),1	496,(171, 0),1	550,(175, 0),1	568,(51, 0),1	604,(42, 0),1	664,(33, 0),1	724,(180, 0),1	754,(181, 0),1	796,(16, 0),1	844,(198, 0),1	
112,(120, 0),1	166,(110, 0),1	190,(108, 0),1	214,(103, 0),1	358,(84, 0),1	394,(163, 0),1	472,(169, 0),1	514,(172, 0),1	616,(40, 0),1	742,(22, 0),1	784,(193, 0),1	832,(196, 0),1	
28,(132, 0),1	52,(128, 0),1	142,(114, 0),1	220,(102, 0),1	244,(98, 0),1	268,(96, 0),1	292,(92, 0),1	316,(88, 0),1	370,(83, 0),1	424,(165, 0),1	478,(66, 0),1	502,(63, 0),1	526,(173, 0),1	592,(46, 0),1	658,(34, 0),1	682,(30, 0),1	706,(26, 0),1	862,(6, 0),1	
76,(124, 0),1	118,(118, 0),1	154,(112, 0),1	280,(94, 0),1	346,(152, 0),1	400,(79, 0),1	670,(32, 0),1	694,(28, 0),1	730,(24, 0),1	760,(20, 0),1	802,(13, 0),1	850,(8, 0),1	
40,(130, 0),1	70,(125, 0),1	130,(116, 0),1	208,(104, 0),1	232,(100, 0),1	310,(89, 0),1	334,(86, 0),1	388,(81, 0),1	412,(77, 0),1	436,(73, 0),1	490,(64, 0),1	532,(57, 0),1	598,(44, 0),1	622,(39, 0),1	646,(35, 0),1	772,(19, 0),1	790,(17, 0),1	838,(197, 0),1	
58,(127, 0),1	82,(123, 0),1	106,(119, 0),1	160,(111, 0),1	184,(107, 0),1	256,(97, 0),1	298,(91, 0),1	322,(87, 0),1	454,(69, 0),1	520,(59, 0),1	544,(55, 0),1	562,(49, 0),1	610,(41, 0),1	634,(37, 0),1	700,(27, 0),1	748,(21, 0),1	814,(11, 0),1	
94,(121, 0),1	148,(113, 0),1	172,(109, 0),1	238,(99, 0),1	340,(85, 0),1	376,(82, 0),1	418,(75, 0),1	442,(72, 0),1	466,(68, 0),1	508,(60, 0),1	556,(53, 0),1	574,(48, 0),1	688,(29, 0),1	712,(25, 0),1	778,(18, 0),1	826,(9, 0),1	
