189
# CPU
10,10,6	19,20,6	28,30,6	37,40,6	46,50,6	55,60,6	64,70,6	73,80,6	82,90,6	91,100,6	100,110,6	109,120,6	118,130,6	127,140,6	136,150,6	145,160,6	154,170,6	163,180,6	172,190,6	181,200,6	
9,9,6	18,19,6	27,29,6	36,39,6	45,49,6	54,59,6	63,69,6	72,79,6	81,89,6	90,99,6	99,109,6	108,119,6	117,129,6	126,139,6	135,149,6	144,159,6	153,169,6	162,179,6	171,189,6	180,199,6	
8,8,6	17,18,6	26,28,6	35,38,6	44,48,6	53,58,6	62,68,6	71,78,6	80,88,6	89,98,6	98,108,6	107,118,6	116,128,6	125,138,6	134,148,6	143,158,6	152,168,6	161,178,6	170,188,6	179,198,6	
7,7,6	16,17,6	25,27,6	34,37,6	43,47,6	52,57,6	61,67,6	70,77,6	79,87,6	88,97,6	97,107,6	106,117,6	115,127,6	124,137,6	133,147,6	142,157,6	151,167,6	160,177,6	169,187,6	178,197,6	
6,6,6	15,16,6	24,26,6	33,36,6	42,46,6	51,56,6	60,66,6	69,76,6	78,86,6	87,96,6	96,106,6	105,116,6	114,126,6	123,136,6	132,146,6	141,156,6	150,166,6	159,176,6	168,186,6	177,196,6	
5,5,6	14,15,6	23,25,6	32,35,6	41,45,6	50,55,6	59,65,6	68,75,6	77,85,6	86,95,6	95,105,6	104,115,6	113,125,6	122,135,6	131,145,6	140,155,6	149,165,6	158,175,6	167,185,6	176,195,6	
4,4,6	13,14,6	22,24,6	31,34,6	40,44,6	49,54,6	58,64,6	67,74,6	76,84,6	85,94,6	94,104,6	103,114,6	112,124,6	121,134,6	130,144,6	139,154,6	148,164,6	157,174,6	166,184,6	175,194,6	
3,3,6	12,13,6	21,23,6	30,33,6	39,43,6	48,53,6	57,63,6	66,73,6	75,83,6	84,93,6	93,103,6	102,113,6	111,123,6	120,133,6	129,143,6	138,153,6	147,163,6	156,173,6	165,183,6	174,193,6	
2,2,6	11,12,6	20,22,6	29,32,6	38,42,6	47,52,6	56,62,6	65,72,6	74,82,6	83,92,6	92,102,6	101,112,6	110,122,6	119,132,6	128,142,6	137,152,6	146,162,6	155,172,6	164,182,6	173,192,6	
0,0,1	1,1,6	7,21,6	13,61,6	19,141,6	25,191,6	31,181,6	37,171,6	43,161,6	49,131,6	55,151,6	61,121,6	67,111,6	73,101,6	79,91,6	85,81,6	91,51,6	97,71,6	103,41,6	109,11,6	115,31,6	188,201,1	
# Incoming
9,(0, 10),1	18,(0, 20),1	27,(0, 30),1	36,(0, 40),1	45,(0, 50),1	54,(0, 60),1	63,(0, 70),1	72,(0, 80),1	81,(0, 90),1	90,(0, 100),1	99,(0, 110),1	108,(0, 120),1	117,(0, 130),1	126,(0, 140),1	135,(0, 150),1	144,(0, 160),1	153,(0, 170),1	162,(0, 180),1	171,(0, 190),1	180,(0, 200),1	
8,(0, 9),1	17,(0, 19),1	26,(0, 29),1	35,(0, 39),1	44,(0, 49),1	53,(0, 59),1	62,(0, 69),1	71,(0, 79),1	80,(0, 89),1	89,(0, 99),1	98,(0, 109),1	107,(0, 119),1	116,(0, 129),1	125,(0, 139),1	134,(0, 149),1	143,(0, 159),1	152,(0, 169),1	161,(0, 179),1	170,(0, 189),1	179,(0, 199),1	
7,(0, 8),1	16,(0, 18),1	25,(0, 28),1	34,(0, 38),1	43,(0, 48),1	52,(0, 58),1	61,(0, 68),1	70,(0, 78),1	79,(0, 88),1	88,(0, 98),1	97,(0, 108),1	106,(0, 118),1	115,(0, 128),1	124,(0, 138),1	133,(0, 148),1	142,(0, 158),1	151,(0, 168),1	160,(0, 178),1	169,(0, 188),1	178,(0, 198),1	
6,(0, 7),1	15,(0, 17),1	24,(0, 27),1	33,(0, 37),1	42,(0, 47),1	51,(0, 57),1	60,(0, 67),1	69,(0, 77),1	78,(0, 87),1	87,(0, 97),1	96,(0, 107),1	105,(0, 117),1	114,(0, 127),1	123,(0, 137),1	132,(0, 147),1	141,(0, 157),1	150,(0, 167),1	159,(0, 177),1	168,(0, 187),1	177,(0, 197),1	
5,(0, 6),1	14,(0, 16),1	23,(0, 26),1	32,(0, 36),1	41,(0, 46),1	50,(0, 56),1	59,(0, 66),1	68,(0, 76),1	77,(0, 86),1	86,(0, 96),1	95,(0, 106),1	104,(0, 116),1	113,(0, 126),1	122,(0, 136),1	131,(0, 146),1	140,(0, 156),1	149,(0, 166),1	158,(0, 176),1	167,(0, 186),1	176,(0, 196),1	
4,(0, 5),1	13,(0, 15),1	22,(0, 25),1	31,(0, 35),1	40,(0, 45),1	49,(0, 55),1	58,(0, 65),1	67,(0, 75),1	76,(0, 85),1	85,(0, 95),1	94,(0, 105),1	103,(0, 115),1	112,(0, 125),1	121,(0, 135),1	130,(0, 145),1	139,(0, 155),1	148,(0, 165),1	157,(0, 175),1	166,(0, 185),1	175,(0, 195),1	
3,(0, 4),1	12,(0, 14),1	21,(0, 24),1	30,(0, 34),1	39,(0, 44),1	48,(0, 54),1	57,(0, 64),1	66,(0, 74),1	75,(0, 84),1	84,(0, 94),1	93,(0, 104),1	102,(0, 114),1	111,(0, 124),1	120,(0, 134),1	129,(0, 144),1	138,(0, 154),1	147,(0, 164),1	156,(0, 174),1	165,(0, 184),1	174,(0, 194),1	
2,(0, 3),1	11,(0, 13),1	20,(0, 23),1	29,(0, 33),1	38,(0, 43),1	47,(0, 53),1	56,(0, 63),1	65,(0, 73),1	74,(0, 83),1	83,(0, 93),1	92,(0, 103),1	101,(0, 113),1	110,(0, 123),1	119,(0, 133),1	128,(0, 143),1	137,(0, 153),1	146,(0, 163),1	155,(0, 173),1	164,(0, 183),1	173,(0, 193),1	
1,(0, 2),1	10,(0, 12),1	19,(0, 22),1	28,(0, 32),1	37,(0, 42),1	46,(0, 52),1	55,(0, 62),1	64,(0, 72),1	73,(0, 82),1	82,(0, 92),1	91,(0, 102),1	100,(0, 112),1	109,(0, 122),1	118,(0, 132),1	127,(0, 142),1	136,(0, 152),1	145,(0, 162),1	154,(0, 172),1	163,(0, 182),1	172,(0, 192),1	
8,(2, 201),1	9,(3, 201),1	10,(4, 201),1	11,(5, 201),1	12,(6, 201),1	13,(7, 201),1	14,(8, 201),1	15,(9, 201),1	16,(10, 201),1	17,(12, 201),1	18,(13, 201),1	19,(14, 201),1	20,(15, 201),1	21,(16, 201),1	22,(17, 201),1	23,(18, 201),1	24,(19, 201),1	25,(20, 201),1	26,(22, 201),1	27,(23, 201),1	28,(24, 201),1	29,(25, 201),1	30,(26, 201),1	31,(27, 201),1	32,(28, 201),1	33,(29, 201),1	34,(30, 201),1	35,(32, 201),1	36,(33, 201),1	37,(34, 201),1	38,(35, 201),1	39,(36, 201),1	40,(37, 201),1	41,(38, 201),1	42,(39, 201),1	43,(40, 201),1	44,(42, 201),1	45,(43, 201),1	46,(44, 201),1	47,(45, 201),1	48,(46, 201),1	49,(47, 201),1	50,(48, 201),1	51,(49, 201),1	52,(50, 201),1	53,(52, 201),1	54,(53, 201),1	55,(54, 201),1	56,(55, 201),1	57,(56, 201),1	58,(57, 201),1	59,(58, 201),1	60,(59, 201),1	61,(60, 201),1	62,(62, 201),1	63,(63, 201),1	64,(64, 201),1	65,(65, 201),1	66,(66, 201),1	67,(67, 201),1	68,(68, 201),1	69,(69, 201),1	70,(70, 201),1	71,(72, 201),1	72,(73, 201),1	73,(74, 201),1	74,(75, 201),1	75,(76, 201),1	76,(77, 201),1	77,(78, 201),1	78,(79, 201),1	79,(80, 201),1	80,(82, 201),1	81,(83, 201),1	82,(84, 201),1	83,(85, 201),1	84,(86, 201),1	85,(87, 201),1	86,(88, 201),1	87,(89, 201),1	88,(90, 201),1	89,(92, 201),1	90,(93, 201),1	91,(94, 201),1	92,(95, 201),1	93,(96, 201),1	94,(97, 201),1	95,(98, 201),1	96,(99, 201),1	97,(100, 201),1	98,(102, 201),1	99,(103, 201),1	100,(104, 201),1	101,(105, 201),1	102,(106, 201),1	103,(107, 201),1	104,(108, 201),1	105,(109, 201),1	106,(110, 201),1	107,(112, 201),1	108,(113, 201),1	109,(114, 201),1	110,(115, 201),1	111,(116, 201),1	112,(117, 201),1	113,(118, 201),1	114,(119, 201),1	115,(120, 201),1	116,(122, 201),1	117,(123, 201),1	118,(124, 201),1	119,(125, 201),1	120,(126, 201),1	121,(127, 201),1	122,(128, 201),1	123,(129, 201),1	124,(130, 201),1	125,(132, 201),1	126,(133, 201),1	127,(134, 201),1	128,(135, 201),1	129,(136, 201),1	130,(137, 201),1	131,(138, 201),1	132,(139, 201),1	133,(140, 201),1	134,(142, 201),1	135,(143, 201),1	136,(144, 201),1	137,(145, 201),1	138,(146, 201),1	139,(147, 201),1	140,(148, 201),1	141,(149, 201),1	142,(150, 201),1	143,(152, 201),1	144,(153, 201),1	145,(154, 201),1	146,(155, 201),1	147,(156, 201),1	148,(157, 201),1	149,(158, 201),1	150,(159, 201),1	151,(160, 201),1	152,(162, 201),1	153,(163, 201),1	154,(164, 201),1	155,(165, 201),1	156,(166, 201),1	157,(167, 201),1	158,(168, 201),1	159,(169, 201),1	160,(170, 201),1	161,(172, 201),1	162,(173, 201),1	163,(174, 201),1	164,(175, 201),1	165,(176, 201),1	166,(177, 201),1	167,(178, 201),1	168,(179, 201),1	169,(180, 201),1	170,(182, 201),1	171,(183, 201),1	172,(184, 201),1	173,(185, 201),1	174,(186, 201),1	175,(187, 201),1	176,(188, 201),1	177,(189, 201),1	178,(190, 201),1	179,(192, 201),1	180,(193, 201),1	181,(194, 201),1	182,(195, 201),1	183,(196, 201),1	184,(197, 201),1	185,(198, 201),1	186,(199, 201),1	187,(200, 201),1	
# Outgoing
16,(10, 201),1	25,(20, 201),1	34,(30, 201),1	43,(40, 201),1	52,(50, 201),1	61,(60, 201),1	70,(70, 201),1	79,(80, 201),1	88,(90, 201),1	97,(100, 201),1	106,(110, 201),1	115,(120, 201),1	124,(130, 201),1	133,(140, 201),1	142,(150, 201),1	151,(160, 201),1	160,(170, 201),1	169,(180, 201),1	178,(190, 201),1	187,(200, 201),1	
15,(9, 201),1	24,(19, 201),1	33,(29, 201),1	42,(39, 201),1	51,(49, 201),1	60,(59, 201),1	69,(69, 201),1	78,(79, 201),1	87,(89, 201),1	96,(99, 201),1	105,(109, 201),1	114,(119, 201),1	123,(129, 201),1	132,(139, 201),1	141,(149, 201),1	150,(159, 201),1	159,(169, 201),1	168,(179, 201),1	177,(189, 201),1	186,(199, 201),1	
14,(8, 201),1	23,(18, 201),1	32,(28, 201),1	41,(38, 201),1	50,(48, 201),1	59,(58, 201),1	68,(68, 201),1	77,(78, 201),1	86,(88, 201),1	95,(98, 201),1	104,(108, 201),1	113,(118, 201),1	122,(128, 201),1	131,(138, 201),1	140,(148, 201),1	149,(158, 201),1	158,(168, 201),1	167,(178, 201),1	176,(188, 201),1	185,(198, 201),1	
13,(7, 201),1	22,(17, 201),1	31,(27, 201),1	40,(37, 201),1	49,(47, 201),1	58,(57, 201),1	67,(67, 201),1	76,(77, 201),1	85,(87, 201),1	94,(97, 201),1	103,(107, 201),1	112,(117, 201),1	121,(127, 201),1	130,(137, 201),1	139,(147, 201),1	148,(157, 201),1	157,(167, 201),1	166,(177, 201),1	175,(187, 201),1	184,(197, 201),1	
12,(6, 201),1	21,(16, 201),1	30,(26, 201),1	39,(36, 201),1	48,(46, 201),1	57,(56, 201),1	66,(66, 201),1	75,(76, 201),1	84,(86, 201),1	93,(96, 201),1	102,(106, 201),1	111,(116, 201),1	120,(126, 201),1	129,(136, 201),1	138,(146, 201),1	147,(156, 201),1	156,(166, 201),1	165,(176, 201),1	174,(186, 201),1	183,(196, 201),1	
11,(5, 201),1	20,(15, 201),1	29,(25, 201),1	38,(35, 201),1	47,(45, 201),1	56,(55, 201),1	65,(65, 201),1	74,(75, 201),1	83,(85, 201),1	92,(95, 201),1	101,(105, 201),1	110,(115, 201),1	119,(125, 201),1	128,(135, 201),1	137,(145, 201),1	146,(155, 201),1	155,(165, 201),1	164,(175, 201),1	173,(185, 201),1	182,(195, 201),1	
10,(4, 201),1	19,(14, 201),1	28,(24, 201),1	37,(34, 201),1	46,(44, 201),1	55,(54, 201),1	64,(64, 201),1	73,(74, 201),1	82,(84, 201),1	91,(94, 201),1	100,(104, 201),1	109,(114, 201),1	118,(124, 201),1	127,(134, 201),1	136,(144, 201),1	145,(154, 201),1	154,(164, 201),1	163,(174, 201),1	172,(184, 201),1	181,(194, 201),1	
9,(3, 201),1	18,(13, 201),1	27,(23, 201),1	36,(33, 201),1	45,(43, 201),1	54,(53, 201),1	63,(63, 201),1	72,(73, 201),1	81,(83, 201),1	90,(93, 201),1	99,(103, 201),1	108,(113, 201),1	117,(123, 201),1	126,(133, 201),1	135,(143, 201),1	144,(153, 201),1	153,(163, 201),1	162,(173, 201),1	171,(183, 201),1	180,(193, 201),1	
8,(2, 201),1	17,(12, 201),1	26,(22, 201),1	35,(32, 201),1	44,(42, 201),1	53,(52, 201),1	62,(62, 201),1	71,(72, 201),1	80,(82, 201),1	89,(92, 201),1	98,(102, 201),1	107,(112, 201),1	116,(122, 201),1	125,(132, 201),1	134,(142, 201),1	143,(152, 201),1	152,(162, 201),1	161,(172, 201),1	170,(182, 201),1	179,(192, 201),1	
1,(0, 2),1	2,(0, 3),1	3,(0, 4),1	4,(0, 5),1	5,(0, 6),1	6,(0, 7),1	7,(0, 8),1	8,(0, 9),1	9,(0, 10),1	10,(0, 12),1	11,(0, 13),1	12,(0, 14),1	13,(0, 15),1	14,(0, 16),1	15,(0, 17),1	16,(0, 18),1	17,(0, 19),1	18,(0, 20),1	19,(0, 22),1	20,(0, 23),1	21,(0, 24),1	22,(0, 25),1	23,(0, 26),1	24,(0, 27),1	25,(0, 28),1	26,(0, 29),1	27,(0, 30),1	28,(0, 32),1	29,(0, 33),1	30,(0, 34),1	31,(0, 35),1	32,(0, 36),1	33,(0, 37),1	34,(0, 38),1	35,(0, 39),1	36,(0, 40),1	37,(0, 42),1	38,(0, 43),1	39,(0, 44),1	40,(0, 45),1	41,(0, 46),1	42,(0, 47),1	43,(0, 48),1	44,(0, 49),1	45,(0, 50),1	46,(0, 52),1	47,(0, 53),1	48,(0, 54),1	49,(0, 55),1	50,(0, 56),1	51,(0, 57),1	52,(0, 58),1	53,(0, 59),1	54,(0, 60),1	55,(0, 62),1	56,(0, 63),1	57,(0, 64),1	58,(0, 65),1	59,(0, 66),1	60,(0, 67),1	61,(0, 68),1	62,(0, 69),1	63,(0, 70),1	64,(0, 72),1	65,(0, 73),1	66,(0, 74),1	67,(0, 75),1	68,(0, 76),1	69,(0, 77),1	70,(0, 78),1	71,(0, 79),1	72,(0, 80),1	73,(0, 82),1	74,(0, 83),1	75,(0, 84),1	76,(0, 85),1	77,(0, 86),1	78,(0, 87),1	79,(0, 88),1	80,(0, 89),1	81,(0, 90),1	82,(0, 92),1	83,(0, 93),1	84,(0, 94),1	85,(0, 95),1	86,(0, 96),1	87,(0, 97),1	88,(0, 98),1	89,(0, 99),1	90,(0, 100),1	91,(0, 102),1	92,(0, 103),1	93,(0, 104),1	94,(0, 105),1	95,(0, 106),1	96,(0, 107),1	97,(0, 108),1	98,(0, 109),1	99,(0, 110),1	100,(0, 112),1	101,(0, 113),1	102,(0, 114),1	103,(0, 115),1	104,(0, 116),1	105,(0, 117),1	106,(0, 118),1	107,(0, 119),1	108,(0, 120),1	109,(0, 122),1	110,(0, 123),1	111,(0, 124),1	112,(0, 125),1	113,(0, 126),1	114,(0, 127),1	115,(0, 128),1	116,(0, 129),1	117,(0, 130),1	118,(0, 132),1	119,(0, 133),1	120,(0, 134),1	121,(0, 135),1	122,(0, 136),1	123,(0, 137),1	124,(0, 138),1	125,(0, 139),1	126,(0, 140),1	127,(0, 142),1	128,(0, 143),1	129,(0, 144),1	130,(0, 145),1	131,(0, 146),1	132,(0, 147),1	133,(0, 148),1	134,(0, 149),1	135,(0, 150),1	136,(0, 152),1	137,(0, 153),1	138,(0, 154),1	139,(0, 155),1	140,(0, 156),1	141,(0, 157),1	142,(0, 158),1	143,(0, 159),1	144,(0, 160),1	145,(0, 162),1	146,(0, 163),1	147,(0, 164),1	148,(0, 165),1	149,(0, 166),1	150,(0, 167),1	151,(0, 168),1	152,(0, 169),1	153,(0, 170),1	154,(0, 172),1	155,(0, 173),1	156,(0, 174),1	157,(0, 175),1	158,(0, 176),1	159,(0, 177),1	160,(0, 178),1	161,(0, 179),1	162,(0, 180),1	163,(0, 182),1	164,(0, 183),1	165,(0, 184),1	166,(0, 185),1	167,(0, 186),1	168,(0, 187),1	169,(0, 188),1	170,(0, 189),1	171,(0, 190),1	172,(0, 192),1	173,(0, 193),1	174,(0, 194),1	175,(0, 195),1	176,(0, 196),1	177,(0, 197),1	178,(0, 198),1	179,(0, 199),1	180,(0, 200),1	
