19
# CPU
0,0,1	1,11,1	2,10,1	3,12,1	4,9,1	5,1,1	6,2,1	7,3,1	8,4,1	9,7,1	10,6,1	11,5,1	12,8,1	13,13,1	14,14,1	15,15,1	16,18,1	17,20,1	18,21,1	


9,17,1	
5,16,1	



13,19,1	

# Incoming
6,(16, 21),2	10,(17, 21),2	14,(19, 21),2	


5,(0, 17),4	
1,(0, 16),4	



9,(0, 19),4	

# Outgoing
1,(0, 16),4	5,(0, 17),4	9,(0, 19),4	


10,(17, 21),2	
6,(16, 21),2	



14,(19, 21),2	

