254
# CPU
0,21,1	1,20,28	29,10,28	57,1,28	85,2,28	113,3,28	141,4,28	169,5,28	197,7,28	225,18,28	253,0,1	
5,14,28	37,6,28	
21,17,28	
17,15,28	45,19,28	
13,12,28	41,11,28	
29,9,28	
33,8,28	
25,16,28	
9,13,28	

# Incoming
33,(14, 0),20	53,(13, 0),20	73,(12, 0),20	93,(15, 0),20	113,(17, 0),20	133,(16, 0),20	153,(9, 0),20	173,(8, 0),20	193,(6, 0),20	213,(11, 0),20	233,(19, 0),20	
1,(21, 14),4	33,(21, 6),4	
17,(21, 17),4	
13,(21, 15),4	41,(21, 19),4	
9,(21, 12),4	37,(21, 11),4	
25,(21, 9),4	
29,(21, 8),4	
21,(21, 16),4	
5,(21, 13),4	

# Outgoing
1,(21, 14),4	5,(21, 13),4	9,(21, 12),4	13,(21, 15),4	17,(21, 17),4	21,(21, 16),4	25,(21, 9),4	29,(21, 8),4	33,(21, 6),4	37,(21, 11),4	41,(21, 19),4	
33,(14, 0),20	193,(6, 0),20	
113,(17, 0),20	
93,(15, 0),20	233,(19, 0),20	
73,(12, 0),20	213,(11, 0),20	
153,(9, 0),20	
173,(8, 0),20	
133,(16, 0),20	
53,(13, 0),20	

