13694
# CPU
73,10,4	145,20,4	217,30,4	289,40,4	361,50,4	433,60,4	505,70,4	577,80,4	649,90,4	721,100,4	793,110,4	865,120,4	937,130,4	1009,140,4	1081,150,4	1153,160,4	1225,170,4	1297,180,4	1369,190,4	1441,200,4	
65,9,4	137,19,4	209,29,4	281,39,4	353,49,4	425,59,4	497,69,4	569,79,4	641,89,4	713,99,4	785,109,4	857,119,4	929,129,4	1001,139,4	1073,149,4	1145,159,4	1217,169,4	1289,179,4	1361,189,4	1433,199,4	
57,8,4	129,18,4	201,28,4	273,38,4	345,48,4	417,58,4	489,68,4	561,78,4	633,88,4	705,98,4	777,108,4	849,118,4	921,128,4	993,138,4	1065,148,4	1137,158,4	1209,168,4	1281,178,4	1353,188,4	1425,198,4	
49,7,4	121,17,4	193,27,4	265,37,4	337,47,4	409,57,4	481,67,4	553,77,4	625,87,4	697,97,4	769,107,4	841,117,4	913,127,4	985,137,4	1057,147,4	1129,157,4	1201,167,4	1273,177,4	1345,187,4	1417,197,4	
41,6,4	113,16,4	185,26,4	257,36,4	329,46,4	401,56,4	473,66,4	545,76,4	617,86,4	689,96,4	761,106,4	833,116,4	905,126,4	977,136,4	1049,146,4	1121,156,4	1193,166,4	1265,176,4	1337,186,4	1409,196,4	
33,5,4	105,15,4	177,25,4	249,35,4	321,45,4	393,55,4	465,65,4	537,75,4	609,85,4	681,95,4	753,105,4	825,115,4	897,125,4	969,135,4	1041,145,4	1113,155,4	1185,165,4	1257,175,4	1329,185,4	1401,195,4	
25,4,4	97,14,4	169,24,4	241,34,4	313,44,4	385,54,4	457,64,4	529,74,4	601,84,4	673,94,4	745,104,4	817,114,4	889,124,4	961,134,4	1033,144,4	1105,154,4	1177,164,4	1249,174,4	1321,184,4	1393,194,4	
17,3,4	89,13,4	161,23,4	233,33,4	305,43,4	377,53,4	449,63,4	521,73,4	593,83,4	665,93,4	737,103,4	809,113,4	881,123,4	953,133,4	1025,143,4	1097,153,4	1169,163,4	1241,173,4	1313,183,4	1385,193,4	
9,2,4	81,12,4	153,22,4	225,32,4	297,42,4	369,52,4	441,62,4	513,72,4	585,82,4	657,92,4	729,102,4	801,112,4	873,122,4	945,132,4	1017,142,4	1089,152,4	1161,162,4	1233,172,4	1305,182,4	1377,192,4	
0,0,1	1,1,4	5,21,4	9,61,4	13,141,4	17,191,4	21,181,4	25,171,4	29,161,4	33,131,4	37,151,4	41,121,4	45,111,4	49,101,4	53,91,4	57,81,4	61,51,4	65,71,4	69,41,4	73,11,4	77,31,4	13693,201,1	
# Incoming
65,(0, 10),8	137,(0, 20),8	209,(0, 30),8	281,(0, 40),8	353,(0, 50),8	425,(0, 60),8	497,(0, 70),8	569,(0, 80),8	641,(0, 90),8	713,(0, 100),8	785,(0, 110),8	857,(0, 120),8	929,(0, 130),8	1001,(0, 140),8	1073,(0, 150),8	1145,(0, 160),8	1217,(0, 170),8	1289,(0, 180),8	1361,(0, 190),8	1433,(0, 200),8	
57,(0, 9),8	129,(0, 19),8	201,(0, 29),8	273,(0, 39),8	345,(0, 49),8	417,(0, 59),8	489,(0, 69),8	561,(0, 79),8	633,(0, 89),8	705,(0, 99),8	777,(0, 109),8	849,(0, 119),8	921,(0, 129),8	993,(0, 139),8	1065,(0, 149),8	1137,(0, 159),8	1209,(0, 169),8	1281,(0, 179),8	1353,(0, 189),8	1425,(0, 199),8	
49,(0, 8),8	121,(0, 18),8	193,(0, 28),8	265,(0, 38),8	337,(0, 48),8	409,(0, 58),8	481,(0, 68),8	553,(0, 78),8	625,(0, 88),8	697,(0, 98),8	769,(0, 108),8	841,(0, 118),8	913,(0, 128),8	985,(0, 138),8	1057,(0, 148),8	1129,(0, 158),8	1201,(0, 168),8	1273,(0, 178),8	1345,(0, 188),8	1417,(0, 198),8	
41,(0, 7),8	113,(0, 17),8	185,(0, 27),8	257,(0, 37),8	329,(0, 47),8	401,(0, 57),8	473,(0, 67),8	545,(0, 77),8	617,(0, 87),8	689,(0, 97),8	761,(0, 107),8	833,(0, 117),8	905,(0, 127),8	977,(0, 137),8	1049,(0, 147),8	1121,(0, 157),8	1193,(0, 167),8	1265,(0, 177),8	1337,(0, 187),8	1409,(0, 197),8	
33,(0, 6),8	105,(0, 16),8	177,(0, 26),8	249,(0, 36),8	321,(0, 46),8	393,(0, 56),8	465,(0, 66),8	537,(0, 76),8	609,(0, 86),8	681,(0, 96),8	753,(0, 106),8	825,(0, 116),8	897,(0, 126),8	969,(0, 136),8	1041,(0, 146),8	1113,(0, 156),8	1185,(0, 166),8	1257,(0, 176),8	1329,(0, 186),8	1401,(0, 196),8	
25,(0, 5),8	97,(0, 15),8	169,(0, 25),8	241,(0, 35),8	313,(0, 45),8	385,(0, 55),8	457,(0, 65),8	529,(0, 75),8	601,(0, 85),8	673,(0, 95),8	745,(0, 105),8	817,(0, 115),8	889,(0, 125),8	961,(0, 135),8	1033,(0, 145),8	1105,(0, 155),8	1177,(0, 165),8	1249,(0, 175),8	1321,(0, 185),8	1393,(0, 195),8	
17,(0, 4),8	89,(0, 14),8	161,(0, 24),8	233,(0, 34),8	305,(0, 44),8	377,(0, 54),8	449,(0, 64),8	521,(0, 74),8	593,(0, 84),8	665,(0, 94),8	737,(0, 104),8	809,(0, 114),8	881,(0, 124),8	953,(0, 134),8	1025,(0, 144),8	1097,(0, 154),8	1169,(0, 164),8	1241,(0, 174),8	1313,(0, 184),8	1385,(0, 194),8	
9,(0, 3),8	81,(0, 13),8	153,(0, 23),8	225,(0, 33),8	297,(0, 43),8	369,(0, 53),8	441,(0, 63),8	513,(0, 73),8	585,(0, 83),8	657,(0, 93),8	729,(0, 103),8	801,(0, 113),8	873,(0, 123),8	945,(0, 133),8	1017,(0, 143),8	1089,(0, 153),8	1161,(0, 163),8	1233,(0, 173),8	1305,(0, 183),8	1377,(0, 193),8	
1,(0, 2),8	73,(0, 12),8	145,(0, 22),8	217,(0, 32),8	289,(0, 42),8	361,(0, 52),8	433,(0, 62),8	505,(0, 72),8	577,(0, 82),8	649,(0, 92),8	721,(0, 102),8	793,(0, 112),8	865,(0, 122),8	937,(0, 132),8	1009,(0, 142),8	1081,(0, 152),8	1153,(0, 162),8	1225,(0, 172),8	1297,(0, 182),8	1369,(0, 192),8	
13,(2, 201),76	89,(3, 201),76	165,(4, 201),76	241,(5, 201),76	317,(6, 201),76	393,(7, 201),76	469,(8, 201),76	545,(9, 201),76	621,(10, 201),76	697,(12, 201),76	773,(13, 201),76	849,(14, 201),76	925,(15, 201),76	1001,(16, 201),76	1077,(17, 201),76	1153,(18, 201),76	1229,(19, 201),76	1305,(20, 201),76	1381,(22, 201),76	1457,(23, 201),76	1533,(24, 201),76	1609,(25, 201),76	1685,(26, 201),76	1761,(27, 201),76	1837,(28, 201),76	1913,(29, 201),76	1989,(30, 201),76	2065,(32, 201),76	2141,(33, 201),76	2217,(34, 201),76	2293,(35, 201),76	2369,(36, 201),76	2445,(37, 201),76	2521,(38, 201),76	2597,(39, 201),76	2673,(40, 201),76	2749,(42, 201),76	2825,(43, 201),76	2901,(44, 201),76	2977,(45, 201),76	3053,(46, 201),76	3129,(47, 201),76	3205,(48, 201),76	3281,(49, 201),76	3357,(50, 201),76	3433,(52, 201),76	3509,(53, 201),76	3585,(54, 201),76	3661,(55, 201),76	3737,(56, 201),76	3813,(57, 201),76	3889,(58, 201),76	3965,(59, 201),76	4041,(60, 201),76	4117,(62, 201),76	4193,(63, 201),76	4269,(64, 201),76	4345,(65, 201),76	4421,(66, 201),76	4497,(67, 201),76	4573,(68, 201),76	4649,(69, 201),76	4725,(70, 201),76	4801,(72, 201),76	4877,(73, 201),76	4953,(74, 201),76	5029,(75, 201),76	5105,(76, 201),76	5181,(77, 201),76	5257,(78, 201),76	5333,(79, 201),76	5409,(80, 201),76	5485,(82, 201),76	5561,(83, 201),76	5637,(84, 201),76	5713,(85, 201),76	5789,(86, 201),76	5865,(87, 201),76	5941,(88, 201),76	6017,(89, 201),76	6093,(90, 201),76	6169,(92, 201),76	6245,(93, 201),76	6321,(94, 201),76	6397,(95, 201),76	6473,(96, 201),76	6549,(97, 201),76	6625,(98, 201),76	6701,(99, 201),76	6777,(100, 201),76	6853,(102, 201),76	6929,(103, 201),76	7005,(104, 201),76	7081,(105, 201),76	7157,(106, 201),76	7233,(107, 201),76	7309,(108, 201),76	7385,(109, 201),76	7461,(110, 201),76	7537,(112, 201),76	7613,(113, 201),76	7689,(114, 201),76	7765,(115, 201),76	7841,(116, 201),76	7917,(117, 201),76	7993,(118, 201),76	8069,(119, 201),76	8145,(120, 201),76	8221,(122, 201),76	8297,(123, 201),76	8373,(124, 201),76	8449,(125, 201),76	8525,(126, 201),76	8601,(127, 201),76	8677,(128, 201),76	8753,(129, 201),76	8829,(130, 201),76	8905,(132, 201),76	8981,(133, 201),76	9057,(134, 201),76	9133,(135, 201),76	9209,(136, 201),76	9285,(137, 201),76	9361,(138, 201),76	9437,(139, 201),76	9513,(140, 201),76	9589,(142, 201),76	9665,(143, 201),76	9741,(144, 201),76	9817,(145, 201),76	9893,(146, 201),76	9969,(147, 201),76	10045,(148, 201),76	10121,(149, 201),76	10197,(150, 201),76	10273,(152, 201),76	10349,(153, 201),76	10425,(154, 201),76	10501,(155, 201),76	10577,(156, 201),76	10653,(157, 201),76	10729,(158, 201),76	10805,(159, 201),76	10881,(160, 201),76	10957,(162, 201),76	11033,(163, 201),76	11109,(164, 201),76	11185,(165, 201),76	11261,(166, 201),76	11337,(167, 201),76	11413,(168, 201),76	11489,(169, 201),76	11565,(170, 201),76	11641,(172, 201),76	11717,(173, 201),76	11793,(174, 201),76	11869,(175, 201),76	11945,(176, 201),76	12021,(177, 201),76	12097,(178, 201),76	12173,(179, 201),76	12249,(180, 201),76	12325,(182, 201),76	12401,(183, 201),76	12477,(184, 201),76	12553,(185, 201),76	12629,(186, 201),76	12705,(187, 201),76	12781,(188, 201),76	12857,(189, 201),76	12933,(190, 201),76	13009,(192, 201),76	13085,(193, 201),76	13161,(194, 201),76	13237,(195, 201),76	13313,(196, 201),76	13389,(197, 201),76	13465,(198, 201),76	13541,(199, 201),76	13617,(200, 201),76	
# Outgoing
621,(10, 201),76	1305,(20, 201),76	1989,(30, 201),76	2673,(40, 201),76	3357,(50, 201),76	4041,(60, 201),76	4725,(70, 201),76	5409,(80, 201),76	6093,(90, 201),76	6777,(100, 201),76	7461,(110, 201),76	8145,(120, 201),76	8829,(130, 201),76	9513,(140, 201),76	10197,(150, 201),76	10881,(160, 201),76	11565,(170, 201),76	12249,(180, 201),76	12933,(190, 201),76	13617,(200, 201),76	
545,(9, 201),76	1229,(19, 201),76	1913,(29, 201),76	2597,(39, 201),76	3281,(49, 201),76	3965,(59, 201),76	4649,(69, 201),76	5333,(79, 201),76	6017,(89, 201),76	6701,(99, 201),76	7385,(109, 201),76	8069,(119, 201),76	8753,(129, 201),76	9437,(139, 201),76	10121,(149, 201),76	10805,(159, 201),76	11489,(169, 201),76	12173,(179, 201),76	12857,(189, 201),76	13541,(199, 201),76	
469,(8, 201),76	1153,(18, 201),76	1837,(28, 201),76	2521,(38, 201),76	3205,(48, 201),76	3889,(58, 201),76	4573,(68, 201),76	5257,(78, 201),76	5941,(88, 201),76	6625,(98, 201),76	7309,(108, 201),76	7993,(118, 201),76	8677,(128, 201),76	9361,(138, 201),76	10045,(148, 201),76	10729,(158, 201),76	11413,(168, 201),76	12097,(178, 201),76	12781,(188, 201),76	13465,(198, 201),76	
393,(7, 201),76	1077,(17, 201),76	1761,(27, 201),76	2445,(37, 201),76	3129,(47, 201),76	3813,(57, 201),76	4497,(67, 201),76	5181,(77, 201),76	5865,(87, 201),76	6549,(97, 201),76	7233,(107, 201),76	7917,(117, 201),76	8601,(127, 201),76	9285,(137, 201),76	9969,(147, 201),76	10653,(157, 201),76	11337,(167, 201),76	12021,(177, 201),76	12705,(187, 201),76	13389,(197, 201),76	
317,(6, 201),76	1001,(16, 201),76	1685,(26, 201),76	2369,(36, 201),76	3053,(46, 201),76	3737,(56, 201),76	4421,(66, 201),76	5105,(76, 201),76	5789,(86, 201),76	6473,(96, 201),76	7157,(106, 201),76	7841,(116, 201),76	8525,(126, 201),76	9209,(136, 201),76	9893,(146, 201),76	10577,(156, 201),76	11261,(166, 201),76	11945,(176, 201),76	12629,(186, 201),76	13313,(196, 201),76	
241,(5, 201),76	925,(15, 201),76	1609,(25, 201),76	2293,(35, 201),76	2977,(45, 201),76	3661,(55, 201),76	4345,(65, 201),76	5029,(75, 201),76	5713,(85, 201),76	6397,(95, 201),76	7081,(105, 201),76	7765,(115, 201),76	8449,(125, 201),76	9133,(135, 201),76	9817,(145, 201),76	10501,(155, 201),76	11185,(165, 201),76	11869,(175, 201),76	12553,(185, 201),76	13237,(195, 201),76	
165,(4, 201),76	849,(14, 201),76	1533,(24, 201),76	2217,(34, 201),76	2901,(44, 201),76	3585,(54, 201),76	4269,(64, 201),76	4953,(74, 201),76	5637,(84, 201),76	6321,(94, 201),76	7005,(104, 201),76	7689,(114, 201),76	8373,(124, 201),76	9057,(134, 201),76	9741,(144, 201),76	10425,(154, 201),76	11109,(164, 201),76	11793,(174, 201),76	12477,(184, 201),76	13161,(194, 201),76	
89,(3, 201),76	773,(13, 201),76	1457,(23, 201),76	2141,(33, 201),76	2825,(43, 201),76	3509,(53, 201),76	4193,(63, 201),76	4877,(73, 201),76	5561,(83, 201),76	6245,(93, 201),76	6929,(103, 201),76	7613,(113, 201),76	8297,(123, 201),76	8981,(133, 201),76	9665,(143, 201),76	10349,(153, 201),76	11033,(163, 201),76	11717,(173, 201),76	12401,(183, 201),76	13085,(193, 201),76	
13,(2, 201),76	697,(12, 201),76	1381,(22, 201),76	2065,(32, 201),76	2749,(42, 201),76	3433,(52, 201),76	4117,(62, 201),76	4801,(72, 201),76	5485,(82, 201),76	6169,(92, 201),76	6853,(102, 201),76	7537,(112, 201),76	8221,(122, 201),76	8905,(132, 201),76	9589,(142, 201),76	10273,(152, 201),76	10957,(162, 201),76	11641,(172, 201),76	12325,(182, 201),76	13009,(192, 201),76	
1,(0, 2),8	9,(0, 3),8	17,(0, 4),8	25,(0, 5),8	33,(0, 6),8	41,(0, 7),8	49,(0, 8),8	57,(0, 9),8	65,(0, 10),8	73,(0, 12),8	81,(0, 13),8	89,(0, 14),8	97,(0, 15),8	105,(0, 16),8	113,(0, 17),8	121,(0, 18),8	129,(0, 19),8	137,(0, 20),8	145,(0, 22),8	153,(0, 23),8	161,(0, 24),8	169,(0, 25),8	177,(0, 26),8	185,(0, 27),8	193,(0, 28),8	201,(0, 29),8	209,(0, 30),8	217,(0, 32),8	225,(0, 33),8	233,(0, 34),8	241,(0, 35),8	249,(0, 36),8	257,(0, 37),8	265,(0, 38),8	273,(0, 39),8	281,(0, 40),8	289,(0, 42),8	297,(0, 43),8	305,(0, 44),8	313,(0, 45),8	321,(0, 46),8	329,(0, 47),8	337,(0, 48),8	345,(0, 49),8	353,(0, 50),8	361,(0, 52),8	369,(0, 53),8	377,(0, 54),8	385,(0, 55),8	393,(0, 56),8	401,(0, 57),8	409,(0, 58),8	417,(0, 59),8	425,(0, 60),8	433,(0, 62),8	441,(0, 63),8	449,(0, 64),8	457,(0, 65),8	465,(0, 66),8	473,(0, 67),8	481,(0, 68),8	489,(0, 69),8	497,(0, 70),8	505,(0, 72),8	513,(0, 73),8	521,(0, 74),8	529,(0, 75),8	537,(0, 76),8	545,(0, 77),8	553,(0, 78),8	561,(0, 79),8	569,(0, 80),8	577,(0, 82),8	585,(0, 83),8	593,(0, 84),8	601,(0, 85),8	609,(0, 86),8	617,(0, 87),8	625,(0, 88),8	633,(0, 89),8	641,(0, 90),8	649,(0, 92),8	657,(0, 93),8	665,(0, 94),8	673,(0, 95),8	681,(0, 96),8	689,(0, 97),8	697,(0, 98),8	705,(0, 99),8	713,(0, 100),8	721,(0, 102),8	729,(0, 103),8	737,(0, 104),8	745,(0, 105),8	753,(0, 106),8	761,(0, 107),8	769,(0, 108),8	777,(0, 109),8	785,(0, 110),8	793,(0, 112),8	801,(0, 113),8	809,(0, 114),8	817,(0, 115),8	825,(0, 116),8	833,(0, 117),8	841,(0, 118),8	849,(0, 119),8	857,(0, 120),8	865,(0, 122),8	873,(0, 123),8	881,(0, 124),8	889,(0, 125),8	897,(0, 126),8	905,(0, 127),8	913,(0, 128),8	921,(0, 129),8	929,(0, 130),8	937,(0, 132),8	945,(0, 133),8	953,(0, 134),8	961,(0, 135),8	969,(0, 136),8	977,(0, 137),8	985,(0, 138),8	993,(0, 139),8	1001,(0, 140),8	1009,(0, 142),8	1017,(0, 143),8	1025,(0, 144),8	1033,(0, 145),8	1041,(0, 146),8	1049,(0, 147),8	1057,(0, 148),8	1065,(0, 149),8	1073,(0, 150),8	1081,(0, 152),8	1089,(0, 153),8	1097,(0, 154),8	1105,(0, 155),8	1113,(0, 156),8	1121,(0, 157),8	1129,(0, 158),8	1137,(0, 159),8	1145,(0, 160),8	1153,(0, 162),8	1161,(0, 163),8	1169,(0, 164),8	1177,(0, 165),8	1185,(0, 166),8	1193,(0, 167),8	1201,(0, 168),8	1209,(0, 169),8	1217,(0, 170),8	1225,(0, 172),8	1233,(0, 173),8	1241,(0, 174),8	1249,(0, 175),8	1257,(0, 176),8	1265,(0, 177),8	1273,(0, 178),8	1281,(0, 179),8	1289,(0, 180),8	1297,(0, 182),8	1305,(0, 183),8	1313,(0, 184),8	1321,(0, 185),8	1329,(0, 186),8	1337,(0, 187),8	1345,(0, 188),8	1353,(0, 189),8	1361,(0, 190),8	1369,(0, 192),8	1377,(0, 193),8	1385,(0, 194),8	1393,(0, 195),8	1401,(0, 196),8	1409,(0, 197),8	1417,(0, 198),8	1425,(0, 199),8	1433,(0, 200),8	
