224
# CPU
37,10,2	73,20,2	
33,9,2	69,19,2	
29,8,2	65,18,2	
25,7,2	61,17,2	
21,6,2	57,16,2	
17,5,2	53,15,2	
13,4,2	49,14,2	
9,3,2	45,13,2	
5,2,2	41,12,2	
0,0,1	1,1,2	3,11,2	223,21,1	
# Incoming
33,(0, 10),4	69,(0, 20),4	
29,(0, 9),4	65,(0, 19),4	
25,(0, 8),4	61,(0, 18),4	
21,(0, 7),4	57,(0, 17),4	
17,(0, 6),4	53,(0, 16),4	
13,(0, 5),4	49,(0, 15),4	
9,(0, 4),4	45,(0, 14),4	
5,(0, 3),4	41,(0, 13),4	
1,(0, 2),4	37,(0, 12),4	
7,(2, 21),12	19,(3, 21),12	31,(4, 21),12	43,(5, 21),12	55,(6, 21),12	67,(7, 21),12	79,(8, 21),12	91,(9, 21),12	103,(10, 21),12	115,(12, 21),12	127,(13, 21),12	139,(14, 21),12	151,(15, 21),12	163,(16, 21),12	175,(17, 21),12	187,(18, 21),12	199,(19, 21),12	211,(20, 21),12	
# Outgoing
103,(10, 21),12	211,(20, 21),12	
91,(9, 21),12	199,(19, 21),12	
79,(8, 21),12	187,(18, 21),12	
67,(7, 21),12	175,(17, 21),12	
55,(6, 21),12	163,(16, 21),12	
43,(5, 21),12	151,(15, 21),12	
31,(4, 21),12	139,(14, 21),12	
19,(3, 21),12	127,(13, 21),12	
7,(2, 21),12	115,(12, 21),12	
1,(0, 2),4	5,(0, 3),4	9,(0, 4),4	13,(0, 5),4	17,(0, 6),4	21,(0, 7),4	25,(0, 8),4	29,(0, 9),4	33,(0, 10),4	37,(0, 12),4	41,(0, 13),4	45,(0, 14),4	49,(0, 15),4	53,(0, 16),4	57,(0, 17),4	61,(0, 18),4	65,(0, 19),4	69,(0, 20),4	
