1065
# CPU
25,5,1	49,10,1	73,15,1	97,20,1	
19,4,1	43,9,1	67,14,1	91,19,1	
13,3,1	37,8,1	61,13,1	85,18,1	
7,2,1	31,7,1	55,12,1	79,17,1	
0,0,1	1,1,1	2,11,1	3,6,1	4,16,1	1064,21,1	
# Incoming
19,(0, 5),6	43,(0, 10),6	67,(0, 15),6	91,(0, 20),6	
13,(0, 4),6	37,(0, 9),6	61,(0, 14),6	85,(0, 19),6	
7,(0, 3),6	31,(0, 8),6	55,(0, 13),6	79,(0, 18),6	
1,(0, 2),6	25,(0, 7),6	49,(0, 12),6	73,(0, 17),6	
8,(2, 21),66	74,(3, 21),66	140,(4, 21),66	206,(5, 21),66	272,(7, 21),66	338,(8, 21),66	404,(9, 21),66	470,(10, 21),66	536,(12, 21),66	602,(13, 21),66	668,(14, 21),66	734,(15, 21),66	800,(17, 21),66	866,(18, 21),66	932,(19, 21),66	998,(20, 21),66	
# Outgoing
206,(5, 21),66	470,(10, 21),66	734,(15, 21),66	998,(20, 21),66	
140,(4, 21),66	404,(9, 21),66	668,(14, 21),66	932,(19, 21),66	
74,(3, 21),66	338,(8, 21),66	602,(13, 21),66	866,(18, 21),66	
8,(2, 21),66	272,(7, 21),66	536,(12, 21),66	800,(17, 21),66	
1,(0, 2),6	7,(0, 3),6	13,(0, 4),6	19,(0, 5),6	25,(0, 7),6	31,(0, 8),6	37,(0, 9),6	43,(0, 10),6	49,(0, 12),6	55,(0, 13),6	61,(0, 14),6	67,(0, 15),6	73,(0, 17),6	79,(0, 18),6	85,(0, 19),6	91,(0, 20),6	
