3002
# CPU
0,0,1	1,1,15	16,3,15	31,7,15	46,15,15	61,31,15	76,63,15	91,127,15	106,200,15	121,199,15	136,198,15	151,197,15	166,196,15	181,195,15	196,194,15	211,193,15	226,192,15	241,191,15	256,190,15	271,189,15	286,188,15	301,187,15	316,186,15	331,185,15	346,184,15	361,183,15	376,182,15	391,181,15	406,180,15	421,179,15	436,178,15	451,177,15	466,176,15	481,175,15	496,174,15	511,173,15	526,172,15	541,171,15	556,170,15	571,169,15	586,168,15	601,167,15	616,166,15	631,165,15	646,164,15	661,163,15	676,162,15	691,161,15	706,160,15	721,159,15	736,158,15	751,157,15	766,156,15	781,155,15	796,154,15	811,153,15	826,152,15	841,151,15	856,150,15	871,149,15	886,148,15	901,147,15	916,146,15	931,145,15	946,144,15	961,143,15	976,142,15	991,141,15	1006,140,15	1021,139,15	1036,138,15	1051,137,15	1066,136,15	1081,135,15	1096,134,15	1111,133,15	1126,132,15	1141,131,15	1156,130,15	1171,129,15	1186,126,15	1201,128,15	1216,125,15	1231,124,15	1246,123,15	1261,122,15	1276,121,15	1291,120,15	1306,119,15	1321,118,15	1336,117,15	1351,116,15	1366,115,15	1381,114,15	1396,113,15	1411,112,15	1426,111,15	1441,110,15	1456,109,15	1471,108,15	1486,107,15	1501,106,15	1516,105,15	1531,104,15	1546,103,15	1561,102,15	1576,101,15	1591,100,15	1606,99,15	1621,98,15	1636,97,15	1651,96,15	1666,95,15	1681,94,15	1696,93,15	1711,92,15	1726,91,15	1741,90,15	1756,89,15	1771,88,15	1786,87,15	1801,86,15	1816,85,15	1831,84,15	1846,83,15	1861,82,15	1876,81,15	1891,80,15	1906,79,15	1921,78,15	1936,77,15	1951,76,15	1966,75,15	1981,74,15	1996,73,15	2011,72,15	2026,71,15	2041,70,15	2056,69,15	2071,68,15	2086,67,15	2101,66,15	2116,65,15	2131,62,15	2146,64,15	2161,61,15	2176,60,15	2191,59,15	2206,58,15	2221,57,15	2236,56,15	2251,55,15	2266,54,15	2281,53,15	2296,52,15	2311,51,15	2326,50,15	2341,49,15	2356,48,15	2371,47,15	2386,46,15	2401,45,15	2416,44,15	2431,43,15	2446,42,15	2461,41,15	2476,40,15	2491,39,15	2506,38,15	2521,37,15	2536,36,15	2551,35,15	2566,34,15	2581,33,15	2596,30,15	2611,32,15	2626,29,15	2641,28,15	2656,27,15	2671,26,15	2686,25,15	2701,24,15	2716,23,15	2731,22,15	2746,21,15	2761,20,15	2776,19,15	2791,18,15	2806,17,15	2821,14,15	2836,16,15	2851,13,15	2866,12,15	2881,11,15	2896,10,15	2911,9,15	2926,6,15	2941,8,15	2956,5,15	2971,2,15	2986,4,15	3001,201,1	

# Incoming


# Outgoing


