511
# CPU
0,0,1	1,11,27	28,10,27	55,12,27	82,9,27	109,1,27	136,2,27	163,3,27	190,4,27	217,5,27	244,7,27	271,8,27	298,13,27	325,14,27	352,15,27	379,16,27	406,17,27	433,18,27	460,19,27	510,21,1	
239,6,27	477,20,27	
# Incoming
266,(6, 21),6	504,(20, 21),6	
1,(0, 6),238	239,(0, 20),238	
# Outgoing
1,(0, 6),238	239,(0, 20),238	
266,(6, 21),6	504,(20, 21),6	
