172
# CPU
0,21,1	1,20,28	29,9,28	57,3,28	85,7,28	113,13,28	141,18,28	171,0,1	
7,10,28	35,5,28	63,14,28	
9,1,28	37,6,28	65,16,28	
5,15,28	33,4,28	61,11,28	89,19,28	
3,12,28	31,2,28	59,8,28	87,17,28	
# Incoming
31,(12, 0),10	41,(15, 0),10	51,(10, 0),10	61,(1, 0),10	71,(2, 0),10	81,(4, 0),10	91,(5, 0),10	101,(6, 0),10	111,(8, 0),10	121,(11, 0),10	131,(14, 0),10	141,(16, 0),10	151,(17, 0),10	161,(19, 0),10	
5,(21, 10),2	13,(21, 5),2	21,(21, 14),2	
7,(21, 1),2	15,(21, 6),2	23,(21, 16),2	
3,(21, 15),2	11,(21, 4),2	19,(21, 11),2	27,(21, 19),2	
1,(21, 12),2	9,(21, 2),2	17,(21, 8),2	25,(21, 17),2	
# Outgoing
1,(21, 12),2	3,(21, 15),2	5,(21, 10),2	7,(21, 1),2	9,(21, 2),2	11,(21, 4),2	13,(21, 5),2	15,(21, 6),2	17,(21, 8),2	19,(21, 11),2	21,(21, 14),2	23,(21, 16),2	25,(21, 17),2	27,(21, 19),2	
51,(10, 0),10	91,(5, 0),10	131,(14, 0),10	
61,(1, 0),10	101,(6, 0),10	141,(16, 0),10	
41,(15, 0),10	81,(4, 0),10	121,(11, 0),10	161,(19, 0),10	
31,(12, 0),10	71,(2, 0),10	111,(8, 0),10	151,(17, 0),10	
