40
# CPU
19,10,1	37,20,1	
17,9,1	35,19,1	
15,8,1	33,18,1	
13,7,1	31,17,1	
11,6,1	29,16,1	
9,5,1	27,15,1	
7,4,1	25,14,1	
5,3,1	23,13,1	
3,2,1	21,12,1	
0,0,1	1,1,1	2,11,1	39,21,1	
# Incoming
17,(0, 10),2	35,(0, 20),2	
15,(0, 9),2	33,(0, 19),2	
13,(0, 8),2	31,(0, 18),2	
11,(0, 7),2	29,(0, 17),2	
9,(0, 6),2	27,(0, 16),2	
7,(0, 5),2	25,(0, 15),2	
5,(0, 4),2	23,(0, 14),2	
3,(0, 3),2	21,(0, 13),2	
1,(0, 2),2	19,(0, 12),2	
4,(2, 21),1	6,(3, 21),1	8,(4, 21),1	10,(5, 21),1	12,(6, 21),1	14,(7, 21),1	16,(8, 21),1	18,(9, 21),1	20,(10, 21),1	22,(12, 21),1	24,(13, 21),1	26,(14, 21),1	28,(15, 21),1	30,(16, 21),1	32,(17, 21),1	34,(18, 21),1	36,(19, 21),1	38,(20, 21),1	
# Outgoing
20,(10, 21),1	38,(20, 21),1	
18,(9, 21),1	36,(19, 21),1	
16,(8, 21),1	34,(18, 21),1	
14,(7, 21),1	32,(17, 21),1	
12,(6, 21),1	30,(16, 21),1	
10,(5, 21),1	28,(15, 21),1	
8,(4, 21),1	26,(14, 21),1	
6,(3, 21),1	24,(13, 21),1	
4,(2, 21),1	22,(12, 21),1	
1,(0, 2),2	3,(0, 3),2	5,(0, 4),2	7,(0, 5),2	9,(0, 6),2	11,(0, 7),2	13,(0, 8),2	15,(0, 9),2	17,(0, 10),2	19,(0, 12),2	21,(0, 13),2	23,(0, 14),2	25,(0, 15),2	27,(0, 16),2	29,(0, 17),2	31,(0, 18),2	33,(0, 19),2	35,(0, 20),2	
