103
# CPU
0,201,1	1,139,1	2,55,1	3,153,1	4,54,1	5,73,1	6,53,1	7,46,1	8,74,1	9,167,1	10,71,1	11,51,1	12,168,1	13,156,1	14,169,1	15,155,1	16,48,1	17,49,1	18,69,1	19,47,1	20,158,1	21,90,1	22,172,1	23,159,1	24,43,1	25,66,1	26,87,1	27,42,1	28,161,1	29,41,1	30,64,1	31,146,1	32,39,1	33,63,1	34,176,1	35,61,1	36,177,1	37,36,1	38,164,1	39,35,1	40,165,1	41,34,1	42,179,1	43,59,1	44,29,1	45,166,1	46,183,1	47,185,1	48,56,1	49,182,1	50,52,1	51,98,1	52,25,1	53,37,1	54,77,1	55,175,1	56,23,1	57,75,1	58,31,1	59,187,1	60,30,1	61,188,1	62,186,1	63,27,1	64,19,1	65,28,1	66,18,1	67,67,1	68,26,1	69,17,1	70,32,1	71,191,1	72,170,1	73,22,1	74,21,1	75,24,1	76,174,1	77,16,1	78,45,1	79,57,1	80,40,1	81,50,1	82,13,1	83,38,1	84,189,1	85,20,1	86,10,1	87,7,1	88,184,1	89,60,1	90,9,1	91,198,1	92,5,1	93,8,1	94,4,1	95,11,1	96,196,1	97,58,1	98,3,1	99,6,1	100,197,1	101,200,1	102,0,1	
4,132,1	5,133,1	8,135,1	10,128,1	11,136,1	14,123,1	15,122,1	17,126,1	20,119,1	21,138,1	24,118,1	26,140,1	27,141,1	30,142,1	31,112,1	33,143,1	36,108,1	37,149,1	40,145,1	42,107,1	43,150,1	45,105,1	48,104,1	50,101,1	51,151,1	53,152,1	56,154,1	58,157,1	59,94,1	61,92,1	64,160,1	66,162,1	67,163,1	69,82,1	72,79,1	73,83,1	76,76,1	77,85,1	80,173,1	81,178,1	84,68,1	85,193,1	87,194,1	89,195,1	91,65,1	93,15,1	94,33,1	95,44,1	96,14,1	97,1,1	98,2,1	99,12,1	100,199,1	
2,131,1	3,130,1	6,129,1	7,134,1	9,127,1	12,125,1	13,124,1	16,121,1	18,120,1	19,137,1	22,117,1	23,116,1	25,115,1	28,113,1	29,114,1	32,111,1	34,109,1	35,110,1	38,147,1	39,148,1	41,144,1	44,106,1	46,103,1	47,102,1	49,100,1	52,99,1	54,97,1	55,96,1	57,95,1	60,93,1	62,89,1	63,91,1	65,88,1	68,86,1	70,81,1	71,80,1	74,78,1	75,84,1	78,72,1	79,171,1	82,70,1	83,180,1	86,192,1	88,190,1	90,181,1	92,62,1	
# Incoming
3,(131, 0),1	4,(130, 0),1	5,(132, 0),1	6,(133, 0),1	7,(129, 0),1	8,(134, 0),1	9,(135, 0),1	10,(127, 0),1	11,(128, 0),1	12,(136, 0),1	13,(125, 0),1	14,(124, 0),1	15,(123, 0),1	16,(122, 0),1	17,(121, 0),1	18,(126, 0),1	19,(120, 0),1	20,(137, 0),1	21,(119, 0),1	22,(138, 0),1	23,(117, 0),1	24,(116, 0),1	25,(118, 0),1	26,(115, 0),1	27,(140, 0),1	28,(141, 0),1	29,(113, 0),1	30,(114, 0),1	31,(142, 0),1	32,(112, 0),1	33,(111, 0),1	34,(143, 0),1	35,(109, 0),1	36,(110, 0),1	37,(108, 0),1	38,(149, 0),1	39,(147, 0),1	40,(148, 0),1	41,(145, 0),1	42,(144, 0),1	43,(107, 0),1	44,(150, 0),1	45,(106, 0),1	46,(105, 0),1	47,(103, 0),1	48,(102, 0),1	49,(104, 0),1	50,(100, 0),1	51,(101, 0),1	52,(151, 0),1	53,(99, 0),1	54,(152, 0),1	55,(97, 0),1	56,(96, 0),1	57,(154, 0),1	58,(95, 0),1	59,(157, 0),1	60,(94, 0),1	61,(93, 0),1	62,(92, 0),1	63,(89, 0),1	64,(91, 0),1	65,(160, 0),1	66,(88, 0),1	67,(162, 0),1	68,(163, 0),1	69,(86, 0),1	70,(82, 0),1	71,(81, 0),1	72,(80, 0),1	73,(79, 0),1	74,(83, 0),1	75,(78, 0),1	76,(84, 0),1	77,(76, 0),1	78,(85, 0),1	79,(72, 0),1	80,(171, 0),1	81,(173, 0),1	82,(178, 0),1	83,(70, 0),1	84,(180, 0),1	85,(68, 0),1	86,(193, 0),1	87,(192, 0),1	88,(194, 0),1	89,(190, 0),1	90,(195, 0),1	91,(181, 0),1	92,(65, 0),1	93,(62, 0),1	94,(15, 0),1	95,(33, 0),1	96,(44, 0),1	97,(14, 0),1	98,(1, 0),1	99,(2, 0),1	100,(12, 0),1	101,(199, 0),1	
3,(201, 132),1	4,(201, 133),1	7,(201, 135),1	9,(201, 128),1	10,(201, 136),1	13,(201, 123),1	14,(201, 122),1	16,(201, 126),1	19,(201, 119),1	20,(201, 138),1	23,(201, 118),1	25,(201, 140),1	26,(201, 141),1	29,(201, 142),1	30,(201, 112),1	32,(201, 143),1	35,(201, 108),1	36,(201, 149),1	39,(201, 145),1	41,(201, 107),1	42,(201, 150),1	44,(201, 105),1	47,(201, 104),1	49,(201, 101),1	50,(201, 151),1	52,(201, 152),1	55,(201, 154),1	57,(201, 157),1	58,(201, 94),1	60,(201, 92),1	63,(201, 160),1	65,(201, 162),1	66,(201, 163),1	68,(201, 82),1	71,(201, 79),1	72,(201, 83),1	75,(201, 76),1	76,(201, 85),1	79,(201, 173),1	80,(201, 178),1	83,(201, 68),1	84,(201, 193),1	86,(201, 194),1	88,(201, 195),1	90,(201, 65),1	92,(201, 15),1	93,(201, 33),1	94,(201, 44),1	95,(201, 14),1	96,(201, 1),1	97,(201, 2),1	98,(201, 12),1	99,(201, 199),1	
1,(201, 131),1	2,(201, 130),1	5,(201, 129),1	6,(201, 134),1	8,(201, 127),1	11,(201, 125),1	12,(201, 124),1	15,(201, 121),1	17,(201, 120),1	18,(201, 137),1	21,(201, 117),1	22,(201, 116),1	24,(201, 115),1	27,(201, 113),1	28,(201, 114),1	31,(201, 111),1	33,(201, 109),1	34,(201, 110),1	37,(201, 147),1	38,(201, 148),1	40,(201, 144),1	43,(201, 106),1	45,(201, 103),1	46,(201, 102),1	48,(201, 100),1	51,(201, 99),1	53,(201, 97),1	54,(201, 96),1	56,(201, 95),1	59,(201, 93),1	61,(201, 89),1	62,(201, 91),1	64,(201, 88),1	67,(201, 86),1	69,(201, 81),1	70,(201, 80),1	73,(201, 78),1	74,(201, 84),1	77,(201, 72),1	78,(201, 171),1	81,(201, 70),1	82,(201, 180),1	85,(201, 192),1	87,(201, 190),1	89,(201, 181),1	91,(201, 62),1	
# Outgoing
1,(201, 131),1	2,(201, 130),1	3,(201, 132),1	4,(201, 133),1	5,(201, 129),1	6,(201, 134),1	7,(201, 135),1	8,(201, 127),1	9,(201, 128),1	10,(201, 136),1	11,(201, 125),1	12,(201, 124),1	13,(201, 123),1	14,(201, 122),1	15,(201, 121),1	16,(201, 126),1	17,(201, 120),1	18,(201, 137),1	19,(201, 119),1	20,(201, 138),1	21,(201, 117),1	22,(201, 116),1	23,(201, 118),1	24,(201, 115),1	25,(201, 140),1	26,(201, 141),1	27,(201, 113),1	28,(201, 114),1	29,(201, 142),1	30,(201, 112),1	31,(201, 111),1	32,(201, 143),1	33,(201, 109),1	34,(201, 110),1	35,(201, 108),1	36,(201, 149),1	37,(201, 147),1	38,(201, 148),1	39,(201, 145),1	40,(201, 144),1	41,(201, 107),1	42,(201, 150),1	43,(201, 106),1	44,(201, 105),1	45,(201, 103),1	46,(201, 102),1	47,(201, 104),1	48,(201, 100),1	49,(201, 101),1	50,(201, 151),1	51,(201, 99),1	52,(201, 152),1	53,(201, 97),1	54,(201, 96),1	55,(201, 154),1	56,(201, 95),1	57,(201, 157),1	58,(201, 94),1	59,(201, 93),1	60,(201, 92),1	61,(201, 89),1	62,(201, 91),1	63,(201, 160),1	64,(201, 88),1	65,(201, 162),1	66,(201, 163),1	67,(201, 86),1	68,(201, 82),1	69,(201, 81),1	70,(201, 80),1	71,(201, 79),1	72,(201, 83),1	73,(201, 78),1	74,(201, 84),1	75,(201, 76),1	76,(201, 85),1	77,(201, 72),1	78,(201, 171),1	79,(201, 173),1	80,(201, 178),1	81,(201, 70),1	82,(201, 180),1	83,(201, 68),1	84,(201, 193),1	85,(201, 192),1	86,(201, 194),1	87,(201, 190),1	88,(201, 195),1	89,(201, 181),1	90,(201, 65),1	91,(201, 62),1	92,(201, 15),1	93,(201, 33),1	94,(201, 44),1	95,(201, 14),1	96,(201, 1),1	97,(201, 2),1	98,(201, 12),1	99,(201, 199),1	
5,(132, 0),1	6,(133, 0),1	9,(135, 0),1	11,(128, 0),1	12,(136, 0),1	15,(123, 0),1	16,(122, 0),1	18,(126, 0),1	21,(119, 0),1	22,(138, 0),1	25,(118, 0),1	27,(140, 0),1	28,(141, 0),1	31,(142, 0),1	32,(112, 0),1	34,(143, 0),1	37,(108, 0),1	38,(149, 0),1	41,(145, 0),1	43,(107, 0),1	44,(150, 0),1	46,(105, 0),1	49,(104, 0),1	51,(101, 0),1	52,(151, 0),1	54,(152, 0),1	57,(154, 0),1	59,(157, 0),1	60,(94, 0),1	62,(92, 0),1	65,(160, 0),1	67,(162, 0),1	68,(163, 0),1	70,(82, 0),1	73,(79, 0),1	74,(83, 0),1	77,(76, 0),1	78,(85, 0),1	81,(173, 0),1	82,(178, 0),1	85,(68, 0),1	86,(193, 0),1	88,(194, 0),1	90,(195, 0),1	92,(65, 0),1	94,(15, 0),1	95,(33, 0),1	96,(44, 0),1	97,(14, 0),1	98,(1, 0),1	99,(2, 0),1	100,(12, 0),1	101,(199, 0),1	
3,(131, 0),1	4,(130, 0),1	7,(129, 0),1	8,(134, 0),1	10,(127, 0),1	13,(125, 0),1	14,(124, 0),1	17,(121, 0),1	19,(120, 0),1	20,(137, 0),1	23,(117, 0),1	24,(116, 0),1	26,(115, 0),1	29,(113, 0),1	30,(114, 0),1	33,(111, 0),1	35,(109, 0),1	36,(110, 0),1	39,(147, 0),1	40,(148, 0),1	42,(144, 0),1	45,(106, 0),1	47,(103, 0),1	48,(102, 0),1	50,(100, 0),1	53,(99, 0),1	55,(97, 0),1	56,(96, 0),1	58,(95, 0),1	61,(93, 0),1	63,(89, 0),1	64,(91, 0),1	66,(88, 0),1	69,(86, 0),1	71,(81, 0),1	72,(80, 0),1	75,(78, 0),1	76,(84, 0),1	79,(72, 0),1	80,(171, 0),1	83,(70, 0),1	84,(180, 0),1	87,(192, 0),1	89,(190, 0),1	91,(181, 0),1	93,(62, 0),1	
