3014
# CPU
5,2,30	35,4,30	65,6,30	95,8,30	125,10,30	155,12,30	185,14,30	215,16,30	245,18,30	275,20,30	305,22,30	335,24,30	365,26,30	395,28,30	425,30,30	455,32,30	485,34,30	515,36,30	545,38,30	575,40,30	605,42,30	635,44,30	665,46,30	695,48,30	725,50,30	755,52,30	785,54,30	815,56,30	845,58,30	875,60,30	905,62,30	935,64,30	965,66,30	995,68,30	1025,70,30	1055,72,30	1085,74,30	1115,76,30	1145,78,30	1175,80,30	1205,82,30	1235,84,30	1265,86,30	1295,88,30	1325,90,30	1355,92,30	1385,94,30	1415,96,30	1445,98,30	1475,100,30	1505,102,30	1535,104,30	1565,106,30	1595,108,30	1625,110,30	1655,112,30	1685,114,30	1715,116,30	1745,118,30	1775,120,30	1805,122,30	1835,124,30	1865,126,30	1895,128,30	1925,130,30	1955,132,30	1985,134,30	2015,136,30	2045,138,30	2075,140,30	2105,142,30	2135,144,30	2165,146,30	2195,148,30	2225,150,30	2255,152,30	2285,154,30	2315,156,30	2345,158,30	2375,160,30	2405,162,30	2435,164,30	2465,166,30	2495,168,30	2525,170,30	2555,172,30	2585,174,30	2615,176,30	2645,178,30	2675,180,30	2705,182,30	2735,184,30	2765,186,30	2795,188,30	2825,190,30	2855,192,30	2885,194,30	2915,196,30	2945,198,30	2975,200,30	
0,0,1	1,1,30	31,5,30	61,13,30	91,29,30	121,61,30	151,125,30	181,199,30	211,197,30	241,195,30	271,193,30	301,191,30	331,189,30	361,187,30	391,185,30	421,183,30	451,181,30	481,179,30	511,177,30	541,175,30	571,173,30	601,171,30	631,169,30	661,167,30	691,165,30	721,163,30	751,161,30	781,159,30	811,157,30	841,155,30	871,153,30	901,151,30	931,149,30	961,147,30	991,145,30	1021,143,30	1051,141,30	1081,139,30	1111,137,30	1141,135,30	1171,133,30	1201,131,30	1231,129,30	1261,123,30	1291,127,30	1321,121,30	1351,119,30	1381,117,30	1411,115,30	1441,113,30	1471,111,30	1501,109,30	1531,107,30	1561,105,30	1591,103,30	1621,101,30	1651,99,30	1681,97,30	1711,95,30	1741,93,30	1771,91,30	1801,89,30	1831,87,30	1861,85,30	1891,83,30	1921,81,30	1951,79,30	1981,77,30	2011,75,30	2041,73,30	2071,71,30	2101,69,30	2131,67,30	2161,65,30	2191,59,30	2221,63,30	2251,57,30	2281,55,30	2311,53,30	2341,51,30	2371,49,30	2401,47,30	2431,45,30	2461,43,30	2491,41,30	2521,39,30	2551,37,30	2581,35,30	2611,33,30	2641,27,30	2671,31,30	2701,25,30	2731,23,30	2761,21,30	2791,19,30	2821,17,30	2851,11,30	2881,15,30	2911,9,30	2941,3,30	2971,7,30	3013,201,1	
# Incoming
1,(0, 2),4	5,(0, 4),4	9,(0, 6),4	13,(0, 8),4	17,(0, 10),4	21,(0, 12),4	25,(0, 14),4	29,(0, 16),4	33,(0, 18),4	37,(0, 20),4	41,(0, 22),4	45,(0, 24),4	49,(0, 26),4	53,(0, 28),4	57,(0, 30),4	61,(0, 32),4	65,(0, 34),4	69,(0, 36),4	73,(0, 38),4	77,(0, 40),4	81,(0, 42),4	85,(0, 44),4	89,(0, 46),4	93,(0, 48),4	97,(0, 50),4	101,(0, 52),4	105,(0, 54),4	109,(0, 56),4	113,(0, 58),4	117,(0, 60),4	121,(0, 62),4	125,(0, 64),4	129,(0, 66),4	133,(0, 68),4	137,(0, 70),4	141,(0, 72),4	145,(0, 74),4	149,(0, 76),4	153,(0, 78),4	157,(0, 80),4	161,(0, 82),4	165,(0, 84),4	169,(0, 86),4	173,(0, 88),4	177,(0, 90),4	181,(0, 92),4	185,(0, 94),4	189,(0, 96),4	193,(0, 98),4	197,(0, 100),4	201,(0, 102),4	205,(0, 104),4	209,(0, 106),4	213,(0, 108),4	217,(0, 110),4	221,(0, 112),4	225,(0, 114),4	229,(0, 116),4	233,(0, 118),4	237,(0, 120),4	241,(0, 122),4	245,(0, 124),4	249,(0, 126),4	253,(0, 128),4	257,(0, 130),4	261,(0, 132),4	265,(0, 134),4	269,(0, 136),4	273,(0, 138),4	277,(0, 140),4	281,(0, 142),4	285,(0, 144),4	289,(0, 146),4	293,(0, 148),4	297,(0, 150),4	301,(0, 152),4	305,(0, 154),4	309,(0, 156),4	313,(0, 158),4	317,(0, 160),4	321,(0, 162),4	325,(0, 164),4	329,(0, 166),4	333,(0, 168),4	337,(0, 170),4	341,(0, 172),4	345,(0, 174),4	349,(0, 176),4	353,(0, 178),4	357,(0, 180),4	361,(0, 182),4	365,(0, 184),4	369,(0, 186),4	373,(0, 188),4	377,(0, 190),4	381,(0, 192),4	385,(0, 194),4	389,(0, 196),4	393,(0, 198),4	397,(0, 200),4	
35,(2, 201),8	65,(4, 201),8	95,(6, 201),8	125,(8, 201),8	155,(10, 201),8	185,(12, 201),8	215,(14, 201),8	245,(16, 201),8	275,(18, 201),8	305,(20, 201),8	335,(22, 201),8	365,(24, 201),8	395,(26, 201),8	425,(28, 201),8	455,(30, 201),8	485,(32, 201),8	515,(34, 201),8	545,(36, 201),8	575,(38, 201),8	605,(40, 201),8	635,(42, 201),8	665,(44, 201),8	695,(46, 201),8	725,(48, 201),8	755,(50, 201),8	785,(52, 201),8	815,(54, 201),8	845,(56, 201),8	875,(58, 201),8	905,(60, 201),8	935,(62, 201),8	965,(64, 201),8	995,(66, 201),8	1025,(68, 201),8	1055,(70, 201),8	1085,(72, 201),8	1115,(74, 201),8	1145,(76, 201),8	1175,(78, 201),8	1205,(80, 201),8	1235,(82, 201),8	1265,(84, 201),8	1295,(86, 201),8	1325,(88, 201),8	1355,(90, 201),8	1385,(92, 201),8	1415,(94, 201),8	1445,(96, 201),8	1475,(98, 201),8	1505,(100, 201),8	1535,(102, 201),8	1565,(104, 201),8	1595,(106, 201),8	1625,(108, 201),8	1655,(110, 201),8	1685,(112, 201),8	1715,(114, 201),8	1745,(116, 201),8	1775,(118, 201),8	1805,(120, 201),8	1835,(122, 201),8	1865,(124, 201),8	1895,(126, 201),8	1925,(128, 201),8	1955,(130, 201),8	1985,(132, 201),8	2015,(134, 201),8	2045,(136, 201),8	2075,(138, 201),8	2105,(140, 201),8	2135,(142, 201),8	2165,(144, 201),8	2195,(146, 201),8	2225,(148, 201),8	2255,(150, 201),8	2285,(152, 201),8	2315,(154, 201),8	2345,(156, 201),8	2375,(158, 201),8	2405,(160, 201),8	2435,(162, 201),8	2465,(164, 201),8	2495,(166, 201),8	2525,(168, 201),8	2555,(170, 201),8	2585,(172, 201),8	2615,(174, 201),8	2645,(176, 201),8	2675,(178, 201),8	2705,(180, 201),8	2735,(182, 201),8	2765,(184, 201),8	2795,(186, 201),8	2825,(188, 201),8	2855,(190, 201),8	2885,(192, 201),8	2915,(194, 201),8	2945,(196, 201),8	2975,(198, 201),8	3005,(200, 201),8	
# Outgoing
35,(2, 201),8	65,(4, 201),8	95,(6, 201),8	125,(8, 201),8	155,(10, 201),8	185,(12, 201),8	215,(14, 201),8	245,(16, 201),8	275,(18, 201),8	305,(20, 201),8	335,(22, 201),8	365,(24, 201),8	395,(26, 201),8	425,(28, 201),8	455,(30, 201),8	485,(32, 201),8	515,(34, 201),8	545,(36, 201),8	575,(38, 201),8	605,(40, 201),8	635,(42, 201),8	665,(44, 201),8	695,(46, 201),8	725,(48, 201),8	755,(50, 201),8	785,(52, 201),8	815,(54, 201),8	845,(56, 201),8	875,(58, 201),8	905,(60, 201),8	935,(62, 201),8	965,(64, 201),8	995,(66, 201),8	1025,(68, 201),8	1055,(70, 201),8	1085,(72, 201),8	1115,(74, 201),8	1145,(76, 201),8	1175,(78, 201),8	1205,(80, 201),8	1235,(82, 201),8	1265,(84, 201),8	1295,(86, 201),8	1325,(88, 201),8	1355,(90, 201),8	1385,(92, 201),8	1415,(94, 201),8	1445,(96, 201),8	1475,(98, 201),8	1505,(100, 201),8	1535,(102, 201),8	1565,(104, 201),8	1595,(106, 201),8	1625,(108, 201),8	1655,(110, 201),8	1685,(112, 201),8	1715,(114, 201),8	1745,(116, 201),8	1775,(118, 201),8	1805,(120, 201),8	1835,(122, 201),8	1865,(124, 201),8	1895,(126, 201),8	1925,(128, 201),8	1955,(130, 201),8	1985,(132, 201),8	2015,(134, 201),8	2045,(136, 201),8	2075,(138, 201),8	2105,(140, 201),8	2135,(142, 201),8	2165,(144, 201),8	2195,(146, 201),8	2225,(148, 201),8	2255,(150, 201),8	2285,(152, 201),8	2315,(154, 201),8	2345,(156, 201),8	2375,(158, 201),8	2405,(160, 201),8	2435,(162, 201),8	2465,(164, 201),8	2495,(166, 201),8	2525,(168, 201),8	2555,(170, 201),8	2585,(172, 201),8	2615,(174, 201),8	2645,(176, 201),8	2675,(178, 201),8	2705,(180, 201),8	2735,(182, 201),8	2765,(184, 201),8	2795,(186, 201),8	2825,(188, 201),8	2855,(190, 201),8	2885,(192, 201),8	2915,(194, 201),8	2945,(196, 201),8	2975,(198, 201),8	3005,(200, 201),8	
1,(0, 2),4	5,(0, 4),4	9,(0, 6),4	13,(0, 8),4	17,(0, 10),4	21,(0, 12),4	25,(0, 14),4	29,(0, 16),4	33,(0, 18),4	37,(0, 20),4	41,(0, 22),4	45,(0, 24),4	49,(0, 26),4	53,(0, 28),4	57,(0, 30),4	61,(0, 32),4	65,(0, 34),4	69,(0, 36),4	73,(0, 38),4	77,(0, 40),4	81,(0, 42),4	85,(0, 44),4	89,(0, 46),4	93,(0, 48),4	97,(0, 50),4	101,(0, 52),4	105,(0, 54),4	109,(0, 56),4	113,(0, 58),4	117,(0, 60),4	121,(0, 62),4	125,(0, 64),4	129,(0, 66),4	133,(0, 68),4	137,(0, 70),4	141,(0, 72),4	145,(0, 74),4	149,(0, 76),4	153,(0, 78),4	157,(0, 80),4	161,(0, 82),4	165,(0, 84),4	169,(0, 86),4	173,(0, 88),4	177,(0, 90),4	181,(0, 92),4	185,(0, 94),4	189,(0, 96),4	193,(0, 98),4	197,(0, 100),4	201,(0, 102),4	205,(0, 104),4	209,(0, 106),4	213,(0, 108),4	217,(0, 110),4	221,(0, 112),4	225,(0, 114),4	229,(0, 116),4	233,(0, 118),4	237,(0, 120),4	241,(0, 122),4	245,(0, 124),4	249,(0, 126),4	253,(0, 128),4	257,(0, 130),4	261,(0, 132),4	265,(0, 134),4	269,(0, 136),4	273,(0, 138),4	277,(0, 140),4	281,(0, 142),4	285,(0, 144),4	289,(0, 146),4	293,(0, 148),4	297,(0, 150),4	301,(0, 152),4	305,(0, 154),4	309,(0, 156),4	313,(0, 158),4	317,(0, 160),4	321,(0, 162),4	325,(0, 164),4	329,(0, 166),4	333,(0, 168),4	337,(0, 170),4	341,(0, 172),4	345,(0, 174),4	349,(0, 176),4	353,(0, 178),4	357,(0, 180),4	361,(0, 182),4	365,(0, 184),4	369,(0, 186),4	373,(0, 188),4	377,(0, 190),4	381,(0, 192),4	385,(0, 194),4	389,(0, 196),4	393,(0, 198),4	397,(0, 200),4	
