562
# CPU
0,0,1	1,1,28	29,3,28	57,7,28	85,15,28	113,20,28	141,19,28	169,18,28	197,17,28	225,14,28	253,16,28	281,13,28	309,12,28	337,11,28	365,10,28	393,9,28	421,6,28	449,8,28	477,5,28	505,2,28	533,4,28	561,21,1	


# Incoming



# Outgoing



