368
# CPU
0,201,1	1,200,2	3,138,2	5,139,2	7,137,2	9,136,2	11,135,2	13,140,2	15,134,2	17,133,2	19,132,2	21,141,2	23,131,2	25,130,2	27,129,2	29,142,2	31,128,2	33,143,2	35,127,2	37,144,2	39,126,2	41,125,2	43,145,2	45,124,2	47,122,2	49,121,2	51,146,2	53,120,2	55,119,2	57,147,2	59,118,2	61,148,2	63,117,2	65,149,2	67,115,2	69,114,2	71,113,2	73,150,2	75,112,2	77,111,2	79,151,2	81,110,2	83,109,2	85,108,2	87,152,2	89,107,2	91,153,2	93,105,2	95,154,2	97,104,2	99,103,2	101,155,2	103,102,2	105,101,2	107,100,2	109,156,2	111,99,2	113,97,2	115,96,2	117,157,2	119,158,2	121,95,2	123,159,2	125,94,2	127,93,2	129,92,2	131,160,2	133,90,2	135,81,2	137,80,2	139,79,2	141,78,2	143,77,2	145,82,2	147,76,2	149,83,2	151,75,2	153,84,2	155,74,2	157,72,2	159,73,2	161,71,2	163,86,2	165,70,2	167,87,2	169,69,2	171,68,2	173,67,2	175,88,2	177,66,2	179,65,2	181,161,2	183,64,2	185,63,2	187,62,2	189,162,2	191,61,2	193,164,2	195,60,2	197,59,2	199,58,2	201,57,2	203,165,2	205,56,2	207,166,2	209,55,2	211,168,2	213,54,2	215,53,2	217,52,2	219,51,2	221,169,2	223,50,2	225,170,2	227,49,2	229,48,2	231,47,2	233,171,2	235,46,2	237,45,2	239,172,2	241,44,2	243,43,2	245,42,2	247,173,2	249,41,2	251,184,2	253,183,2	255,185,2	257,182,2	259,181,2	261,186,2	263,180,2	265,179,2	267,176,2	269,187,2	271,175,2	273,40,2	275,39,2	277,188,2	279,38,2	281,37,2	283,189,2	285,36,2	287,34,2	289,33,2	291,190,2	293,32,2	295,31,2	297,191,2	299,30,2	301,29,2	303,28,2	305,192,2	307,27,2	309,17,2	311,16,2	313,18,2	315,15,2	317,14,2	319,19,2	321,13,2	323,20,2	325,12,2	327,21,2	329,11,2	331,23,2	333,10,2	335,24,2	337,1,2	339,2,2	341,3,2	343,4,2	345,5,2	347,6,2	349,7,2	351,8,2	353,9,2	355,26,2	357,193,2	359,194,2	361,196,2	363,198,2	365,199,2	367,0,1	
29,116,2	43,106,2	99,89,2	141,174,2	169,178,2	239,197,2	
15,123,2	85,85,2	197,25,2	211,22,2	
57,98,2	71,91,2	113,163,2	127,167,2	155,177,2	183,35,2	225,195,2	
# Incoming
17,(123, 0),20	37,(116, 0),20	57,(106, 0),20	77,(98, 0),20	97,(91, 0),20	117,(85, 0),20	137,(89, 0),20	157,(163, 0),20	177,(167, 0),20	197,(174, 0),20	217,(177, 0),20	237,(178, 0),20	257,(35, 0),20	277,(25, 0),20	297,(22, 0),20	317,(195, 0),20	337,(197, 0),20	
15,(201, 116),14	29,(201, 106),14	85,(201, 89),14	127,(201, 174),14	155,(201, 178),14	225,(201, 197),14	
1,(201, 123),14	71,(201, 85),14	183,(201, 25),14	197,(201, 22),14	
43,(201, 98),14	57,(201, 91),14	99,(201, 163),14	113,(201, 167),14	141,(201, 177),14	169,(201, 35),14	211,(201, 195),14	
# Outgoing
1,(201, 123),14	15,(201, 116),14	29,(201, 106),14	43,(201, 98),14	57,(201, 91),14	71,(201, 85),14	85,(201, 89),14	99,(201, 163),14	113,(201, 167),14	127,(201, 174),14	141,(201, 177),14	155,(201, 178),14	169,(201, 35),14	183,(201, 25),14	197,(201, 22),14	211,(201, 195),14	225,(201, 197),14	
37,(116, 0),20	57,(106, 0),20	137,(89, 0),20	197,(174, 0),20	237,(178, 0),20	337,(197, 0),20	
17,(123, 0),20	117,(85, 0),20	277,(25, 0),20	297,(22, 0),20	
77,(98, 0),20	97,(91, 0),20	157,(163, 0),20	177,(167, 0),20	217,(177, 0),20	257,(35, 0),20	317,(195, 0),20	
