215
# CPU
53,5,1	105,10,1	157,15,1	209,20,1	
40,4,1	92,9,1	144,14,1	196,19,1	
27,3,1	79,8,1	131,13,1	183,18,1	
14,2,1	66,7,1	118,12,1	170,17,1	
0,0,1	1,1,1	2,11,1	3,6,1	4,16,1	214,21,1	
# Incoming
40,(0, 5),13	92,(0, 10),13	144,(0, 15),13	196,(0, 20),13	
27,(0, 4),13	79,(0, 9),13	131,(0, 14),13	183,(0, 19),13	
14,(0, 3),13	66,(0, 8),13	118,(0, 13),13	170,(0, 18),13	
1,(0, 2),13	53,(0, 7),13	105,(0, 12),13	157,(0, 17),13	
15,(2, 21),4	28,(3, 21),4	41,(4, 21),4	54,(5, 21),4	67,(7, 21),4	80,(8, 21),4	93,(9, 21),4	106,(10, 21),4	119,(12, 21),4	132,(13, 21),4	145,(14, 21),4	158,(15, 21),4	171,(17, 21),4	184,(18, 21),4	197,(19, 21),4	210,(20, 21),4	
# Outgoing
54,(5, 21),4	106,(10, 21),4	158,(15, 21),4	210,(20, 21),4	
41,(4, 21),4	93,(9, 21),4	145,(14, 21),4	197,(19, 21),4	
28,(3, 21),4	80,(8, 21),4	132,(13, 21),4	184,(18, 21),4	
15,(2, 21),4	67,(7, 21),4	119,(12, 21),4	171,(17, 21),4	
1,(0, 2),13	14,(0, 3),13	27,(0, 4),13	40,(0, 5),13	53,(0, 7),13	66,(0, 8),13	79,(0, 9),13	92,(0, 10),13	105,(0, 12),13	118,(0, 13),13	131,(0, 14),13	144,(0, 15),13	157,(0, 17),13	170,(0, 18),13	183,(0, 19),13	196,(0, 20),13	
