21
# CPU
0,21,1	1,20,1	2,10,1	3,11,1	4,9,1	5,1,1	6,2,1	7,3,1	8,4,1	9,5,1	10,6,1	11,7,1	12,8,1	13,12,1	14,14,1	15,15,1	16,16,1	17,17,1	18,18,1	19,19,1	20,0,1	
5,13,1	
# Incoming
6,(13, 0),8	
1,(21, 13),4	
# Outgoing
1,(21, 13),4	
6,(13, 0),8	
