5602
# CPU
0,0,1	1,1,28	29,3,28	57,7,28	85,15,28	113,31,28	141,63,28	169,127,28	197,200,28	225,199,28	253,198,28	281,197,28	309,196,28	337,195,28	365,194,28	393,193,28	421,192,28	449,191,28	477,190,28	505,189,28	533,188,28	561,187,28	589,186,28	617,185,28	645,184,28	673,183,28	701,182,28	729,181,28	757,180,28	785,179,28	813,178,28	841,177,28	869,176,28	897,175,28	925,174,28	953,173,28	981,172,28	1009,171,28	1037,170,28	1065,169,28	1093,168,28	1121,167,28	1149,166,28	1177,165,28	1205,164,28	1233,163,28	1261,162,28	1289,161,28	1317,160,28	1345,159,28	1373,158,28	1401,157,28	1429,156,28	1457,155,28	1485,154,28	1513,153,28	1541,152,28	1569,151,28	1597,150,28	1625,149,28	1653,148,28	1681,147,28	1709,146,28	1737,145,28	1765,144,28	1793,143,28	1821,142,28	1849,141,28	1877,140,28	1905,139,28	1933,138,28	1961,137,28	1989,136,28	2017,135,28	2045,134,28	2073,133,28	2101,132,28	2129,131,28	2157,130,28	2185,129,28	2213,126,28	2241,128,28	2269,125,28	2297,124,28	2325,123,28	2353,122,28	2381,121,28	2409,120,28	2437,119,28	2465,118,28	2493,117,28	2521,116,28	2549,115,28	2577,114,28	2605,113,28	2633,112,28	2661,111,28	2689,110,28	2717,109,28	2745,108,28	2773,107,28	2801,106,28	2829,105,28	2857,104,28	2885,103,28	2913,102,28	2941,101,28	2969,100,28	2997,99,28	3025,98,28	3053,97,28	3081,96,28	3109,95,28	3137,94,28	3165,93,28	3193,92,28	3221,91,28	3249,90,28	3277,89,28	3305,88,28	3333,87,28	3361,86,28	3389,85,28	3417,84,28	3445,83,28	3473,82,28	3501,81,28	3529,80,28	3557,79,28	3585,78,28	3613,77,28	3641,76,28	3669,75,28	3697,74,28	3725,73,28	3753,72,28	3781,71,28	3809,70,28	3837,69,28	3865,68,28	3893,67,28	3921,66,28	3949,65,28	3977,62,28	4005,64,28	4033,61,28	4061,60,28	4089,59,28	4117,58,28	4145,57,28	4173,56,28	4201,55,28	4229,54,28	4257,53,28	4285,52,28	4313,51,28	4341,50,28	4369,49,28	4397,48,28	4425,47,28	4453,46,28	4481,45,28	4509,44,28	4537,43,28	4565,42,28	4593,41,28	4621,40,28	4649,39,28	4677,38,28	4705,37,28	4733,36,28	4761,35,28	4789,34,28	4817,33,28	4845,30,28	4873,32,28	4901,29,28	4929,28,28	4957,27,28	4985,26,28	5013,25,28	5041,24,28	5069,23,28	5097,22,28	5125,21,28	5153,20,28	5181,19,28	5209,18,28	5237,17,28	5265,14,28	5293,16,28	5321,13,28	5349,12,28	5377,11,28	5405,10,28	5433,9,28	5461,6,28	5489,8,28	5517,5,28	5545,2,28	5573,4,28	5601,201,1	









# Incoming










# Outgoing










