1123
# CPU
5,5,16	21,10,16	37,15,16	53,20,16	
4,4,16	20,9,16	36,14,16	52,19,16	
3,3,16	19,8,16	35,13,16	51,18,16	
2,2,16	18,7,16	34,12,16	50,17,16	
0,0,1	1,1,16	17,11,16	33,6,16	49,16,16	1122,21,1	
# Incoming
4,(0, 5),1	8,(0, 10),1	12,(0, 15),1	16,(0, 20),1	
3,(0, 4),1	7,(0, 9),1	11,(0, 14),1	15,(0, 19),1	
2,(0, 3),1	6,(0, 8),1	10,(0, 13),1	14,(0, 18),1	
1,(0, 2),1	5,(0, 7),1	9,(0, 12),1	13,(0, 17),1	
18,(2, 21),69	87,(3, 21),69	156,(4, 21),69	225,(5, 21),69	294,(7, 21),69	363,(8, 21),69	432,(9, 21),69	501,(10, 21),69	570,(12, 21),69	639,(13, 21),69	708,(14, 21),69	777,(15, 21),69	846,(17, 21),69	915,(18, 21),69	984,(19, 21),69	1053,(20, 21),69	
# Outgoing
225,(5, 21),69	501,(10, 21),69	777,(15, 21),69	1053,(20, 21),69	
156,(4, 21),69	432,(9, 21),69	708,(14, 21),69	984,(19, 21),69	
87,(3, 21),69	363,(8, 21),69	639,(13, 21),69	915,(18, 21),69	
18,(2, 21),69	294,(7, 21),69	570,(12, 21),69	846,(17, 21),69	
1,(0, 2),1	2,(0, 3),1	3,(0, 4),1	4,(0, 5),1	5,(0, 7),1	6,(0, 8),1	7,(0, 9),1	8,(0, 10),1	9,(0, 12),1	10,(0, 13),1	11,(0, 14),1	12,(0, 15),1	13,(0, 17),1	14,(0, 18),1	15,(0, 19),1	16,(0, 20),1	
