447
# CPU
73,4,1	145,8,1	217,12,1	289,16,1	361,20,1	
49,3,1	121,7,1	193,11,1	265,15,1	337,19,1	
25,2,1	97,6,1	169,10,1	241,14,1	313,18,1	
0,0,1	1,1,1	2,9,1	3,17,1	4,5,1	5,13,1	446,21,1	
# Incoming
49,(0, 4),24	121,(0, 8),24	193,(0, 12),24	265,(0, 16),24	337,(0, 20),24	
25,(0, 3),24	97,(0, 7),24	169,(0, 11),24	241,(0, 15),24	313,(0, 19),24	
1,(0, 2),24	73,(0, 6),24	145,(0, 10),24	217,(0, 14),24	289,(0, 18),24	
26,(2, 21),28	54,(3, 21),28	82,(4, 21),28	110,(6, 21),28	138,(7, 21),28	166,(8, 21),28	194,(10, 21),28	222,(11, 21),28	250,(12, 21),28	278,(14, 21),28	306,(15, 21),28	334,(16, 21),28	362,(18, 21),28	390,(19, 21),28	418,(20, 21),28	
# Outgoing
82,(4, 21),28	166,(8, 21),28	250,(12, 21),28	334,(16, 21),28	418,(20, 21),28	
54,(3, 21),28	138,(7, 21),28	222,(11, 21),28	306,(15, 21),28	390,(19, 21),28	
26,(2, 21),28	110,(6, 21),28	194,(10, 21),28	278,(14, 21),28	362,(18, 21),28	
1,(0, 2),24	25,(0, 3),24	49,(0, 4),24	73,(0, 6),24	97,(0, 7),24	121,(0, 8),24	145,(0, 10),24	169,(0, 11),24	193,(0, 12),24	217,(0, 14),24	241,(0, 15),24	265,(0, 16),24	289,(0, 18),24	313,(0, 19),24	337,(0, 20),24	
