199
# CPU
0,0,1	1,139,1	2,138,1	3,140,1	4,137,1	5,136,1	6,135,1	7,141,1	8,134,1	9,133,1	10,132,1	11,142,1	12,131,1	13,130,1	14,129,1	15,143,1	16,128,1	17,144,1	18,127,1	19,145,1	20,126,1	21,125,1	22,124,1	23,146,1	24,123,1	25,122,1	26,121,1	27,147,1	28,120,1	29,119,1	30,118,1	31,148,1	32,117,1	33,149,1	34,116,1	35,150,1	36,115,1	37,114,1	38,113,1	39,151,1	40,112,1	41,111,1	42,110,1	43,152,1	44,109,1	45,108,1	46,107,1	47,153,1	48,106,1	49,154,1	50,105,1	51,155,1	52,104,1	53,103,1	54,102,1	55,156,1	56,101,1	57,63,1	58,170,1	59,99,1	60,98,1	61,97,1	62,157,1	63,96,1	64,158,1	65,95,1	66,159,1	67,94,1	68,93,1	69,92,1	70,160,1	71,91,1	72,82,1	73,81,1	74,83,1	75,80,1	76,79,1	77,78,1	78,84,1	79,77,1	80,85,1	81,76,1	82,86,1	83,75,1	84,74,1	85,73,1	86,87,1	87,72,1	88,88,1	89,71,1	90,89,1	91,70,1	92,69,1	93,68,1	94,90,1	95,67,1	96,161,1	97,66,1	98,162,1	99,65,1	100,64,1	101,62,1	102,163,1	103,61,1	104,164,1	105,60,1	106,165,1	107,59,1	108,58,1	109,57,1	110,166,1	111,56,1	112,167,1	113,184,1	114,29,1	115,54,1	116,53,1	117,168,1	118,52,1	119,169,1	120,51,1	121,171,1	122,50,1	123,49,1	124,48,1	125,172,1	126,47,1	127,173,1	128,46,1	129,174,1	130,45,1	131,44,1	132,43,1	133,175,1	134,42,1	135,185,1	136,183,1	137,186,1	138,182,1	139,181,1	140,180,1	141,187,1	142,179,1	143,178,1	144,177,1	145,188,1	146,176,1	147,41,1	148,40,1	149,189,1	150,39,1	151,38,1	152,37,1	153,190,1	154,36,1	155,35,1	156,34,1	157,191,1	158,33,1	159,32,1	160,31,1	161,192,1	162,30,1	163,28,1	164,27,1	165,193,1	166,26,1	167,17,1	168,16,1	169,18,1	170,10,1	171,19,1	172,20,1	173,14,1	174,21,1	175,13,1	176,22,1	177,12,1	178,23,1	179,11,1	180,24,1	181,9,1	182,1,1	183,2,1	184,3,1	185,4,1	186,5,1	187,6,1	188,7,1	189,8,1	190,25,1	191,194,1	192,195,1	193,196,1	194,197,1	195,198,1	196,199,1	197,200,1	198,201,1	
57,100,1	113,55,1	169,15,1	
# Incoming
58,(100, 201),4	114,(55, 201),4	170,(15, 201),4	
1,(0, 100),56	57,(0, 55),56	113,(0, 15),56	
# Outgoing
1,(0, 100),56	57,(0, 55),56	113,(0, 15),56	
58,(100, 201),4	114,(55, 201),4	170,(15, 201),4	
