692
# CPU
0,201,1	1,200,6	7,138,6	13,139,6	19,137,6	25,140,6	31,136,6	37,135,6	43,141,6	49,134,6	55,142,6	61,143,6	67,144,6	73,133,6	79,145,6	85,132,6	91,128,6	97,146,6	103,126,6	109,147,6	115,148,6	121,149,6	127,123,6	133,120,6	139,150,6	145,118,6	151,151,6	157,114,6	163,152,6	169,153,6	175,154,6	181,112,6	187,109,6	193,155,6	199,106,6	205,156,6	211,104,6	217,157,6	223,158,6	229,100,6	235,159,6	241,98,6	247,160,6	253,81,6	259,80,6	265,78,6	271,77,6	277,76,6	283,75,6	289,74,6	295,72,6	301,73,6	307,71,6	313,70,6	319,68,6	325,67,6	331,66,6	337,65,6	343,64,6	349,63,6	355,62,6	361,61,6	367,60,6	373,59,6	379,57,6	385,56,6	391,55,6	397,58,6	403,53,6	409,52,6	415,51,6	421,50,6	427,49,6	433,47,6	439,46,6	445,48,6	451,45,6	457,43,6	463,42,6	469,41,6	475,184,6	481,185,6	487,183,6	493,186,6	499,182,6	505,187,6	511,181,6	517,180,6	523,188,6	529,69,6	535,189,6	541,40,6	547,190,6	553,38,6	559,191,6	565,36,6	571,34,6	577,192,6	583,16,6	589,17,6	595,15,6	601,14,6	607,13,6	613,12,6	619,11,6	625,10,6	631,9,6	637,1,6	643,2,6	649,3,6	655,4,6	661,5,6	667,6,6	673,7,6	679,8,6	685,18,6	691,0,1	
217,92,6	225,90,6	257,89,6	289,161,6	425,175,6	457,178,6	465,179,6	497,37,6	577,22,6	585,25,6	657,197,6	673,199,6	681,196,6	
25,129,6	33,127,6	97,115,6	353,168,6	393,172,6	537,29,6	641,20,6	
65,121,6	105,113,6	137,107,6	169,101,6	177,99,6	209,93,6	321,165,6	385,171,6	529,31,6	601,30,6	609,193,6	
241,87,6	249,86,6	281,95,6	313,164,6	449,177,6	481,44,6	489,39,6	569,23,6	633,195,6	
17,130,6	49,124,6	57,122,6	345,167,6	377,170,6	409,173,6	417,174,6	521,32,6	625,194,6	
89,116,6	121,110,6	129,108,6	161,102,6	193,96,6	233,88,6	305,163,6	553,26,6	561,24,6	593,28,6	665,198,6	
201,94,6	265,85,6	273,91,6	337,166,6	401,82,6	441,176,6	473,54,6	
9,131,6	41,125,6	73,119,6	81,117,6	369,169,6	433,79,6	505,35,6	513,33,6	617,21,6	649,19,6	
113,111,6	145,105,6	153,103,6	185,97,6	297,162,6	329,84,6	361,83,6	545,27,6	
# Incoming
15,(131, 0),4	23,(130, 0),4	31,(129, 0),4	39,(127, 0),4	47,(125, 0),4	55,(124, 0),4	63,(122, 0),4	71,(121, 0),4	79,(119, 0),4	87,(117, 0),4	95,(116, 0),4	103,(115, 0),4	111,(113, 0),4	119,(111, 0),4	127,(110, 0),4	135,(108, 0),4	143,(107, 0),4	151,(105, 0),4	159,(103, 0),4	167,(102, 0),4	175,(101, 0),4	183,(99, 0),4	191,(97, 0),4	199,(96, 0),4	207,(94, 0),4	215,(93, 0),4	223,(92, 0),4	231,(90, 0),4	239,(88, 0),4	247,(87, 0),4	255,(86, 0),4	263,(89, 0),4	271,(85, 0),4	279,(91, 0),4	287,(95, 0),4	295,(161, 0),4	303,(162, 0),4	311,(163, 0),4	319,(164, 0),4	327,(165, 0),4	335,(84, 0),4	343,(166, 0),4	351,(167, 0),4	359,(168, 0),4	367,(83, 0),4	375,(169, 0),4	383,(170, 0),4	391,(171, 0),4	399,(172, 0),4	407,(82, 0),4	415,(173, 0),4	423,(174, 0),4	431,(175, 0),4	439,(79, 0),4	447,(176, 0),4	455,(177, 0),4	463,(178, 0),4	471,(179, 0),4	479,(54, 0),4	487,(44, 0),4	495,(39, 0),4	503,(37, 0),4	511,(35, 0),4	519,(33, 0),4	527,(32, 0),4	535,(31, 0),4	543,(29, 0),4	551,(27, 0),4	559,(26, 0),4	567,(24, 0),4	575,(23, 0),4	583,(22, 0),4	591,(25, 0),4	599,(28, 0),4	607,(30, 0),4	615,(193, 0),4	623,(21, 0),4	631,(194, 0),4	639,(195, 0),4	647,(20, 0),4	655,(19, 0),4	663,(197, 0),4	671,(198, 0),4	679,(199, 0),4	687,(196, 0),4	
209,(201, 92),8	217,(201, 90),8	249,(201, 89),8	281,(201, 161),8	417,(201, 175),8	449,(201, 178),8	457,(201, 179),8	489,(201, 37),8	569,(201, 22),8	577,(201, 25),8	649,(201, 197),8	665,(201, 199),8	673,(201, 196),8	
17,(201, 129),8	25,(201, 127),8	89,(201, 115),8	345,(201, 168),8	385,(201, 172),8	529,(201, 29),8	633,(201, 20),8	
57,(201, 121),8	97,(201, 113),8	129,(201, 107),8	161,(201, 101),8	169,(201, 99),8	201,(201, 93),8	313,(201, 165),8	377,(201, 171),8	521,(201, 31),8	593,(201, 30),8	601,(201, 193),8	
233,(201, 87),8	241,(201, 86),8	273,(201, 95),8	305,(201, 164),8	441,(201, 177),8	473,(201, 44),8	481,(201, 39),8	561,(201, 23),8	625,(201, 195),8	
9,(201, 130),8	41,(201, 124),8	49,(201, 122),8	337,(201, 167),8	369,(201, 170),8	401,(201, 173),8	409,(201, 174),8	513,(201, 32),8	617,(201, 194),8	
81,(201, 116),8	113,(201, 110),8	121,(201, 108),8	153,(201, 102),8	185,(201, 96),8	225,(201, 88),8	297,(201, 163),8	545,(201, 26),8	553,(201, 24),8	585,(201, 28),8	657,(201, 198),8	
193,(201, 94),8	257,(201, 85),8	265,(201, 91),8	329,(201, 166),8	393,(201, 82),8	433,(201, 176),8	465,(201, 54),8	
1,(201, 131),8	33,(201, 125),8	65,(201, 119),8	73,(201, 117),8	361,(201, 169),8	425,(201, 79),8	497,(201, 35),8	505,(201, 33),8	609,(201, 21),8	641,(201, 19),8	
105,(201, 111),8	137,(201, 105),8	145,(201, 103),8	177,(201, 97),8	289,(201, 162),8	321,(201, 84),8	353,(201, 83),8	537,(201, 27),8	
# Outgoing
1,(201, 131),8	9,(201, 130),8	17,(201, 129),8	25,(201, 127),8	33,(201, 125),8	41,(201, 124),8	49,(201, 122),8	57,(201, 121),8	65,(201, 119),8	73,(201, 117),8	81,(201, 116),8	89,(201, 115),8	97,(201, 113),8	105,(201, 111),8	113,(201, 110),8	121,(201, 108),8	129,(201, 107),8	137,(201, 105),8	145,(201, 103),8	153,(201, 102),8	161,(201, 101),8	169,(201, 99),8	177,(201, 97),8	185,(201, 96),8	193,(201, 94),8	201,(201, 93),8	209,(201, 92),8	217,(201, 90),8	225,(201, 88),8	233,(201, 87),8	241,(201, 86),8	249,(201, 89),8	257,(201, 85),8	265,(201, 91),8	273,(201, 95),8	281,(201, 161),8	289,(201, 162),8	297,(201, 163),8	305,(201, 164),8	313,(201, 165),8	321,(201, 84),8	329,(201, 166),8	337,(201, 167),8	345,(201, 168),8	353,(201, 83),8	361,(201, 169),8	369,(201, 170),8	377,(201, 171),8	385,(201, 172),8	393,(201, 82),8	401,(201, 173),8	409,(201, 174),8	417,(201, 175),8	425,(201, 79),8	433,(201, 176),8	441,(201, 177),8	449,(201, 178),8	457,(201, 179),8	465,(201, 54),8	473,(201, 44),8	481,(201, 39),8	489,(201, 37),8	497,(201, 35),8	505,(201, 33),8	513,(201, 32),8	521,(201, 31),8	529,(201, 29),8	537,(201, 27),8	545,(201, 26),8	553,(201, 24),8	561,(201, 23),8	569,(201, 22),8	577,(201, 25),8	585,(201, 28),8	593,(201, 30),8	601,(201, 193),8	609,(201, 21),8	617,(201, 194),8	625,(201, 195),8	633,(201, 20),8	641,(201, 19),8	649,(201, 197),8	657,(201, 198),8	665,(201, 199),8	673,(201, 196),8	
223,(92, 0),4	231,(90, 0),4	263,(89, 0),4	295,(161, 0),4	431,(175, 0),4	463,(178, 0),4	471,(179, 0),4	503,(37, 0),4	583,(22, 0),4	591,(25, 0),4	663,(197, 0),4	679,(199, 0),4	687,(196, 0),4	
31,(129, 0),4	39,(127, 0),4	103,(115, 0),4	359,(168, 0),4	399,(172, 0),4	543,(29, 0),4	647,(20, 0),4	
71,(121, 0),4	111,(113, 0),4	143,(107, 0),4	175,(101, 0),4	183,(99, 0),4	215,(93, 0),4	327,(165, 0),4	391,(171, 0),4	535,(31, 0),4	607,(30, 0),4	615,(193, 0),4	
247,(87, 0),4	255,(86, 0),4	287,(95, 0),4	319,(164, 0),4	455,(177, 0),4	487,(44, 0),4	495,(39, 0),4	575,(23, 0),4	639,(195, 0),4	
23,(130, 0),4	55,(124, 0),4	63,(122, 0),4	351,(167, 0),4	383,(170, 0),4	415,(173, 0),4	423,(174, 0),4	527,(32, 0),4	631,(194, 0),4	
95,(116, 0),4	127,(110, 0),4	135,(108, 0),4	167,(102, 0),4	199,(96, 0),4	239,(88, 0),4	311,(163, 0),4	559,(26, 0),4	567,(24, 0),4	599,(28, 0),4	671,(198, 0),4	
207,(94, 0),4	271,(85, 0),4	279,(91, 0),4	343,(166, 0),4	407,(82, 0),4	447,(176, 0),4	479,(54, 0),4	
15,(131, 0),4	47,(125, 0),4	79,(119, 0),4	87,(117, 0),4	375,(169, 0),4	439,(79, 0),4	511,(35, 0),4	519,(33, 0),4	623,(21, 0),4	655,(19, 0),4	
119,(111, 0),4	151,(105, 0),4	159,(103, 0),4	191,(97, 0),4	303,(162, 0),4	335,(84, 0),4	367,(83, 0),4	551,(27, 0),4	
