187
# CPU
0,201,1	1,139,1	2,138,1	3,140,1	4,137,1	5,136,1	6,135,1	7,141,1	8,134,1	9,133,1	10,132,1	11,142,1	12,131,1	13,43,1	14,82,1	15,143,1	16,144,1	17,130,1	18,145,1	19,129,1	20,128,1	21,127,1	22,146,1	23,125,1	24,124,1	25,66,1	26,163,1	27,123,1	28,122,1	29,147,1	30,121,1	31,148,1	32,120,1	33,149,1	34,118,1	35,117,1	36,116,1	37,37,1	38,166,1	39,115,1	40,150,1	41,114,1	42,113,1	43,112,1	44,151,1	45,110,1	46,152,1	47,109,1	48,153,1	49,169,1	50,68,1	51,108,1	52,107,1	53,106,1	54,105,1	55,154,1	56,104,1	57,102,1	58,101,1	59,155,1	60,100,1	61,182,1	62,171,1	63,99,1	64,98,1	65,97,1	66,156,1	67,96,1	68,86,1	69,85,1	70,87,1	71,84,1	72,83,1	73,160,1	74,42,1	75,81,1	76,80,1	77,88,1	78,79,1	79,78,1	80,77,1	81,89,1	82,76,1	83,90,1	84,75,1	85,48,1	86,45,1	87,74,1	88,91,1	89,73,1	90,93,1	91,72,1	92,94,1	93,71,1	94,70,1	95,69,1	96,157,1	97,178,1	98,39,1	99,67,1	100,65,1	101,64,1	102,63,1	103,158,1	104,62,1	105,161,1	106,61,1	107,162,1	108,60,1	109,59,1	110,185,1	111,57,1	112,58,1	113,56,1	114,165,1	115,55,1	116,54,1	117,53,1	118,167,1	119,52,1	120,168,1	121,184,1	122,28,1	123,50,1	124,49,1	125,51,1	126,47,1	127,183,1	128,181,1	129,186,1	130,180,1	131,179,1	132,177,1	133,189,1	134,29,1	135,176,1	136,187,1	137,175,1	138,173,1	139,172,1	140,188,1	141,46,1	142,41,1	143,40,1	144,190,1	145,196,1	146,191,1	147,36,1	148,35,1	149,34,1	150,33,1	151,38,1	152,32,1	153,30,1	154,27,1	155,192,1	156,26,1	157,5,1	158,17,1	159,16,1	160,18,1	161,15,1	162,19,1	163,14,1	164,20,1	165,13,1	166,21,1	167,12,1	168,23,1	169,194,1	170,198,1	171,1,1	172,2,1	173,3,1	174,4,1	175,6,1	176,7,1	177,8,1	178,9,1	179,10,1	180,11,1	181,24,1	182,25,1	183,195,1	184,197,1	185,200,1	186,0,1	
73,92,1	
13,126,1	121,174,1	
49,103,1	
85,159,1	133,44,1	157,22,1	
169,193,1	
25,119,1	61,95,1	97,164,1	
109,170,1	
37,111,1	145,31,1	181,199,1	

# Incoming
14,(126, 0),4	26,(119, 0),4	38,(111, 0),4	50,(103, 0),4	62,(95, 0),4	74,(92, 0),4	86,(159, 0),4	98,(164, 0),4	110,(170, 0),4	122,(174, 0),4	134,(44, 0),4	146,(31, 0),4	158,(22, 0),4	170,(193, 0),4	182,(199, 0),4	
61,(201, 92),12	
1,(201, 126),12	109,(201, 174),12	
37,(201, 103),12	
73,(201, 159),12	121,(201, 44),12	145,(201, 22),12	
157,(201, 193),12	
13,(201, 119),12	49,(201, 95),12	85,(201, 164),12	
97,(201, 170),12	
25,(201, 111),12	133,(201, 31),12	169,(201, 199),12	

# Outgoing
1,(201, 126),12	13,(201, 119),12	25,(201, 111),12	37,(201, 103),12	49,(201, 95),12	61,(201, 92),12	73,(201, 159),12	85,(201, 164),12	97,(201, 170),12	109,(201, 174),12	121,(201, 44),12	133,(201, 31),12	145,(201, 22),12	157,(201, 193),12	169,(201, 199),12	
74,(92, 0),4	
14,(126, 0),4	122,(174, 0),4	
50,(103, 0),4	
86,(159, 0),4	134,(44, 0),4	158,(22, 0),4	
170,(193, 0),4	
26,(119, 0),4	62,(95, 0),4	98,(164, 0),4	
110,(170, 0),4	
38,(111, 0),4	146,(31, 0),4	182,(199, 0),4	

