56
# CPU
0,21,1	1,20,3	4,10,3	7,11,3	10,9,3	13,1,3	16,2,3	19,3,3	22,5,3	25,6,3	28,7,3	31,8,3	34,12,3	37,13,3	40,15,3	43,16,3	46,17,3	49,18,3	52,19,3	55,0,1	
4,4,3	7,14,3	
# Incoming
7,(4, 0),17	24,(14, 0),17	
1,(21, 4),3	4,(21, 14),3	
# Outgoing
1,(21, 4),3	4,(21, 14),3	
7,(4, 0),17	24,(14, 0),17	
