1816
# CPU
19,2,13	37,4,13	55,6,13	73,8,13	91,10,13	109,12,13	127,14,13	145,16,13	163,18,13	181,20,13	199,22,13	217,24,13	235,26,13	253,28,13	271,30,13	289,32,13	307,34,13	325,36,13	343,38,13	361,40,13	379,42,13	397,44,13	415,46,13	433,48,13	451,50,13	469,52,13	487,54,13	505,56,13	523,58,13	541,60,13	559,62,13	577,64,13	595,66,13	613,68,13	631,70,13	649,72,13	667,74,13	685,76,13	703,78,13	721,80,13	739,82,13	757,84,13	775,86,13	793,88,13	811,90,13	829,92,13	847,94,13	865,96,13	883,98,13	901,100,13	919,102,13	937,104,13	955,106,13	973,108,13	991,110,13	1009,112,13	1027,114,13	1045,116,13	1063,118,13	1081,120,13	1099,122,13	1117,124,13	1135,126,13	1153,128,13	1171,130,13	1189,132,13	1207,134,13	1225,136,13	1243,138,13	1261,140,13	1279,142,13	1297,144,13	1315,146,13	1333,148,13	1351,150,13	1369,152,13	1387,154,13	1405,156,13	1423,158,13	1441,160,13	1459,162,13	1477,164,13	1495,166,13	1513,168,13	1531,170,13	1549,172,13	1567,174,13	1585,176,13	1603,178,13	1621,180,13	1639,182,13	1657,184,13	1675,186,13	1693,188,13	1711,190,13	1729,192,13	1747,194,13	1765,196,13	1783,198,13	1801,200,13	
0,0,1	1,1,13	14,5,13	27,13,13	40,29,13	53,61,13	66,125,13	79,199,13	92,197,13	105,195,13	118,193,13	131,191,13	144,189,13	157,187,13	170,185,13	183,183,13	196,181,13	209,179,13	222,177,13	235,175,13	248,173,13	261,171,13	274,169,13	287,167,13	300,165,13	313,163,13	326,161,13	339,159,13	352,157,13	365,155,13	378,153,13	391,151,13	404,149,13	417,147,13	430,145,13	443,143,13	456,141,13	469,139,13	482,137,13	495,135,13	508,133,13	521,131,13	534,129,13	547,123,13	560,127,13	573,121,13	586,119,13	599,117,13	612,115,13	625,113,13	638,111,13	651,109,13	664,107,13	677,105,13	690,103,13	703,101,13	716,99,13	729,97,13	742,95,13	755,93,13	768,91,13	781,89,13	794,87,13	807,85,13	820,83,13	833,81,13	846,79,13	859,77,13	872,75,13	885,73,13	898,71,13	911,69,13	924,67,13	937,65,13	950,59,13	963,63,13	976,57,13	989,55,13	1002,53,13	1015,51,13	1028,49,13	1041,47,13	1054,45,13	1067,43,13	1080,41,13	1093,39,13	1106,37,13	1119,35,13	1132,33,13	1145,27,13	1158,31,13	1171,25,13	1184,23,13	1197,21,13	1210,19,13	1223,17,13	1236,11,13	1249,15,13	1262,9,13	1275,3,13	1288,7,13	1815,201,1	
# Incoming
1,(0, 2),18	19,(0, 4),18	37,(0, 6),18	55,(0, 8),18	73,(0, 10),18	91,(0, 12),18	109,(0, 14),18	127,(0, 16),18	145,(0, 18),18	163,(0, 20),18	181,(0, 22),18	199,(0, 24),18	217,(0, 26),18	235,(0, 28),18	253,(0, 30),18	271,(0, 32),18	289,(0, 34),18	307,(0, 36),18	325,(0, 38),18	343,(0, 40),18	361,(0, 42),18	379,(0, 44),18	397,(0, 46),18	415,(0, 48),18	433,(0, 50),18	451,(0, 52),18	469,(0, 54),18	487,(0, 56),18	505,(0, 58),18	523,(0, 60),18	541,(0, 62),18	559,(0, 64),18	577,(0, 66),18	595,(0, 68),18	613,(0, 70),18	631,(0, 72),18	649,(0, 74),18	667,(0, 76),18	685,(0, 78),18	703,(0, 80),18	721,(0, 82),18	739,(0, 84),18	757,(0, 86),18	775,(0, 88),18	793,(0, 90),18	811,(0, 92),18	829,(0, 94),18	847,(0, 96),18	865,(0, 98),18	883,(0, 100),18	901,(0, 102),18	919,(0, 104),18	937,(0, 106),18	955,(0, 108),18	973,(0, 110),18	991,(0, 112),18	1009,(0, 114),18	1027,(0, 116),18	1045,(0, 118),18	1063,(0, 120),18	1081,(0, 122),18	1099,(0, 124),18	1117,(0, 126),18	1135,(0, 128),18	1153,(0, 130),18	1171,(0, 132),18	1189,(0, 134),18	1207,(0, 136),18	1225,(0, 138),18	1243,(0, 140),18	1261,(0, 142),18	1279,(0, 144),18	1297,(0, 146),18	1315,(0, 148),18	1333,(0, 150),18	1351,(0, 152),18	1369,(0, 154),18	1387,(0, 156),18	1405,(0, 158),18	1423,(0, 160),18	1441,(0, 162),18	1459,(0, 164),18	1477,(0, 166),18	1495,(0, 168),18	1513,(0, 170),18	1531,(0, 172),18	1549,(0, 174),18	1567,(0, 176),18	1585,(0, 178),18	1603,(0, 180),18	1621,(0, 182),18	1639,(0, 184),18	1657,(0, 186),18	1675,(0, 188),18	1693,(0, 190),18	1711,(0, 192),18	1729,(0, 194),18	1747,(0, 196),18	1765,(0, 198),18	1783,(0, 200),18	
32,(2, 201),1	50,(4, 201),1	68,(6, 201),1	86,(8, 201),1	104,(10, 201),1	122,(12, 201),1	140,(14, 201),1	158,(16, 201),1	176,(18, 201),1	194,(20, 201),1	212,(22, 201),1	230,(24, 201),1	248,(26, 201),1	266,(28, 201),1	284,(30, 201),1	302,(32, 201),1	320,(34, 201),1	338,(36, 201),1	356,(38, 201),1	374,(40, 201),1	392,(42, 201),1	410,(44, 201),1	428,(46, 201),1	446,(48, 201),1	464,(50, 201),1	482,(52, 201),1	500,(54, 201),1	518,(56, 201),1	536,(58, 201),1	554,(60, 201),1	572,(62, 201),1	590,(64, 201),1	608,(66, 201),1	626,(68, 201),1	644,(70, 201),1	662,(72, 201),1	680,(74, 201),1	698,(76, 201),1	716,(78, 201),1	734,(80, 201),1	752,(82, 201),1	770,(84, 201),1	788,(86, 201),1	806,(88, 201),1	824,(90, 201),1	842,(92, 201),1	860,(94, 201),1	878,(96, 201),1	896,(98, 201),1	914,(100, 201),1	932,(102, 201),1	950,(104, 201),1	968,(106, 201),1	986,(108, 201),1	1004,(110, 201),1	1022,(112, 201),1	1040,(114, 201),1	1058,(116, 201),1	1076,(118, 201),1	1094,(120, 201),1	1112,(122, 201),1	1130,(124, 201),1	1148,(126, 201),1	1166,(128, 201),1	1184,(130, 201),1	1202,(132, 201),1	1220,(134, 201),1	1238,(136, 201),1	1256,(138, 201),1	1274,(140, 201),1	1292,(142, 201),1	1310,(144, 201),1	1328,(146, 201),1	1346,(148, 201),1	1364,(150, 201),1	1382,(152, 201),1	1400,(154, 201),1	1418,(156, 201),1	1436,(158, 201),1	1454,(160, 201),1	1472,(162, 201),1	1490,(164, 201),1	1508,(166, 201),1	1526,(168, 201),1	1544,(170, 201),1	1562,(172, 201),1	1580,(174, 201),1	1598,(176, 201),1	1616,(178, 201),1	1634,(180, 201),1	1652,(182, 201),1	1670,(184, 201),1	1688,(186, 201),1	1706,(188, 201),1	1724,(190, 201),1	1742,(192, 201),1	1760,(194, 201),1	1778,(196, 201),1	1796,(198, 201),1	1814,(200, 201),1	
# Outgoing
32,(2, 201),1	50,(4, 201),1	68,(6, 201),1	86,(8, 201),1	104,(10, 201),1	122,(12, 201),1	140,(14, 201),1	158,(16, 201),1	176,(18, 201),1	194,(20, 201),1	212,(22, 201),1	230,(24, 201),1	248,(26, 201),1	266,(28, 201),1	284,(30, 201),1	302,(32, 201),1	320,(34, 201),1	338,(36, 201),1	356,(38, 201),1	374,(40, 201),1	392,(42, 201),1	410,(44, 201),1	428,(46, 201),1	446,(48, 201),1	464,(50, 201),1	482,(52, 201),1	500,(54, 201),1	518,(56, 201),1	536,(58, 201),1	554,(60, 201),1	572,(62, 201),1	590,(64, 201),1	608,(66, 201),1	626,(68, 201),1	644,(70, 201),1	662,(72, 201),1	680,(74, 201),1	698,(76, 201),1	716,(78, 201),1	734,(80, 201),1	752,(82, 201),1	770,(84, 201),1	788,(86, 201),1	806,(88, 201),1	824,(90, 201),1	842,(92, 201),1	860,(94, 201),1	878,(96, 201),1	896,(98, 201),1	914,(100, 201),1	932,(102, 201),1	950,(104, 201),1	968,(106, 201),1	986,(108, 201),1	1004,(110, 201),1	1022,(112, 201),1	1040,(114, 201),1	1058,(116, 201),1	1076,(118, 201),1	1094,(120, 201),1	1112,(122, 201),1	1130,(124, 201),1	1148,(126, 201),1	1166,(128, 201),1	1184,(130, 201),1	1202,(132, 201),1	1220,(134, 201),1	1238,(136, 201),1	1256,(138, 201),1	1274,(140, 201),1	1292,(142, 201),1	1310,(144, 201),1	1328,(146, 201),1	1346,(148, 201),1	1364,(150, 201),1	1382,(152, 201),1	1400,(154, 201),1	1418,(156, 201),1	1436,(158, 201),1	1454,(160, 201),1	1472,(162, 201),1	1490,(164, 201),1	1508,(166, 201),1	1526,(168, 201),1	1544,(170, 201),1	1562,(172, 201),1	1580,(174, 201),1	1598,(176, 201),1	1616,(178, 201),1	1634,(180, 201),1	1652,(182, 201),1	1670,(184, 201),1	1688,(186, 201),1	1706,(188, 201),1	1724,(190, 201),1	1742,(192, 201),1	1760,(194, 201),1	1778,(196, 201),1	1796,(198, 201),1	1814,(200, 201),1	
1,(0, 2),18	19,(0, 4),18	37,(0, 6),18	55,(0, 8),18	73,(0, 10),18	91,(0, 12),18	109,(0, 14),18	127,(0, 16),18	145,(0, 18),18	163,(0, 20),18	181,(0, 22),18	199,(0, 24),18	217,(0, 26),18	235,(0, 28),18	253,(0, 30),18	271,(0, 32),18	289,(0, 34),18	307,(0, 36),18	325,(0, 38),18	343,(0, 40),18	361,(0, 42),18	379,(0, 44),18	397,(0, 46),18	415,(0, 48),18	433,(0, 50),18	451,(0, 52),18	469,(0, 54),18	487,(0, 56),18	505,(0, 58),18	523,(0, 60),18	541,(0, 62),18	559,(0, 64),18	577,(0, 66),18	595,(0, 68),18	613,(0, 70),18	631,(0, 72),18	649,(0, 74),18	667,(0, 76),18	685,(0, 78),18	703,(0, 80),18	721,(0, 82),18	739,(0, 84),18	757,(0, 86),18	775,(0, 88),18	793,(0, 90),18	811,(0, 92),18	829,(0, 94),18	847,(0, 96),18	865,(0, 98),18	883,(0, 100),18	901,(0, 102),18	919,(0, 104),18	937,(0, 106),18	955,(0, 108),18	973,(0, 110),18	991,(0, 112),18	1009,(0, 114),18	1027,(0, 116),18	1045,(0, 118),18	1063,(0, 120),18	1081,(0, 122),18	1099,(0, 124),18	1117,(0, 126),18	1135,(0, 128),18	1153,(0, 130),18	1171,(0, 132),18	1189,(0, 134),18	1207,(0, 136),18	1225,(0, 138),18	1243,(0, 140),18	1261,(0, 142),18	1279,(0, 144),18	1297,(0, 146),18	1315,(0, 148),18	1333,(0, 150),18	1351,(0, 152),18	1369,(0, 154),18	1387,(0, 156),18	1405,(0, 158),18	1423,(0, 160),18	1441,(0, 162),18	1459,(0, 164),18	1477,(0, 166),18	1495,(0, 168),18	1513,(0, 170),18	1531,(0, 172),18	1549,(0, 174),18	1567,(0, 176),18	1585,(0, 178),18	1603,(0, 180),18	1621,(0, 182),18	1639,(0, 184),18	1657,(0, 186),18	1675,(0, 188),18	1693,(0, 190),18	1711,(0, 192),18	1729,(0, 194),18	1747,(0, 196),18	1765,(0, 198),18	1783,(0, 200),18	
