753
# CPU
0,201,1	1,139,4	5,138,4	9,140,4	13,137,4	17,136,4	21,135,4	25,141,4	29,134,4	33,133,4	37,132,4	41,142,4	45,131,4	49,130,4	53,129,4	57,143,4	61,144,4	65,128,4	69,145,4	73,127,4	77,126,4	81,124,4	85,146,4	89,123,4	93,122,4	97,121,4	101,147,4	105,120,4	109,119,4	113,118,4	117,148,4	121,149,4	125,117,4	129,150,4	133,116,4	137,115,4	141,114,4	145,151,4	149,113,4	153,111,4	157,110,4	161,152,4	165,109,4	169,108,4	173,153,4	177,107,4	181,154,4	185,106,4	189,155,4	193,105,4	197,104,4	201,103,4	205,156,4	209,101,4	213,100,4	217,99,4	221,157,4	225,98,4	229,47,4	233,171,4	237,97,4	241,158,4	245,96,4	249,159,4	253,95,4	257,94,4	261,92,4	265,160,4	269,91,4	273,82,4	277,81,4	281,83,4	285,80,4	289,78,4	293,79,4	297,77,4	301,84,4	305,76,4	309,85,4	313,75,4	317,74,4	321,73,4	325,86,4	329,72,4	333,88,4	337,71,4	341,89,4	345,69,4	349,68,4	353,70,4	357,67,4	361,90,4	365,66,4	369,161,4	373,65,4	377,64,4	381,63,4	385,163,4	389,62,4	393,164,4	397,61,4	401,60,4	405,59,4	409,58,4	413,165,4	417,57,4	421,166,4	425,56,4	429,168,4	433,55,4	437,54,4	441,53,4	445,169,4	449,52,4	453,170,4	457,185,4	461,31,4	465,50,4	469,49,4	473,51,4	477,48,4	481,172,4	485,46,4	489,173,4	493,45,4	497,44,4	501,43,4	505,174,4	509,42,4	513,184,4	517,186,4	521,183,4	525,182,4	529,181,4	533,187,4	537,180,4	541,178,4	545,177,4	549,188,4	553,176,4	557,41,4	561,40,4	565,189,4	569,39,4	573,38,4	577,190,4	581,37,4	585,36,4	589,34,4	593,191,4	597,33,4	601,32,4	605,30,4	609,192,4	613,29,4	617,28,4	621,27,4	625,193,4	629,17,4	633,16,4	637,18,4	641,15,4	645,19,4	649,14,4	653,20,4	657,13,4	661,22,4	665,12,4	669,23,4	673,11,4	677,24,4	681,10,4	685,6,4	689,7,4	693,1,4	697,2,4	701,3,4	705,4,4	709,5,4	713,8,4	717,9,4	721,25,4	725,26,4	729,194,4	733,195,4	737,197,4	741,198,4	745,200,4	752,0,1	
58,125,4	229,93,4	571,35,4	742,199,4	
286,87,4	343,162,4	514,179,4	628,21,4	
115,112,4	172,102,4	400,167,4	457,175,4	685,196,4	
# Incoming
62,(125, 0),6	119,(112, 0),6	176,(102, 0),6	233,(93, 0),6	290,(87, 0),6	347,(162, 0),6	404,(167, 0),6	461,(175, 0),6	518,(179, 0),6	575,(35, 0),6	632,(21, 0),6	689,(196, 0),6	746,(199, 0),6	
1,(201, 125),57	172,(201, 93),57	514,(201, 35),57	685,(201, 199),57	
229,(201, 87),57	286,(201, 162),57	457,(201, 179),57	571,(201, 21),57	
58,(201, 112),57	115,(201, 102),57	343,(201, 167),57	400,(201, 175),57	628,(201, 196),57	
# Outgoing
1,(201, 125),57	58,(201, 112),57	115,(201, 102),57	172,(201, 93),57	229,(201, 87),57	286,(201, 162),57	343,(201, 167),57	400,(201, 175),57	457,(201, 179),57	514,(201, 35),57	571,(201, 21),57	628,(201, 196),57	685,(201, 199),57	
62,(125, 0),6	233,(93, 0),6	575,(35, 0),6	746,(199, 0),6	
290,(87, 0),6	347,(162, 0),6	518,(179, 0),6	632,(21, 0),6	
119,(112, 0),6	176,(102, 0),6	404,(167, 0),6	461,(175, 0),6	689,(196, 0),6	
