475
# CPU
97,5,1	193,10,1	289,15,1	385,20,1	
73,4,1	169,9,1	265,14,1	361,19,1	
49,3,1	145,8,1	241,13,1	337,18,1	
25,2,1	121,7,1	217,12,1	313,17,1	
0,0,1	1,1,1	2,11,1	3,6,1	4,16,1	474,21,1	
# Incoming
73,(0, 5),24	169,(0, 10),24	265,(0, 15),24	361,(0, 20),24	
49,(0, 4),24	145,(0, 9),24	241,(0, 14),24	337,(0, 19),24	
25,(0, 3),24	121,(0, 8),24	217,(0, 13),24	313,(0, 18),24	
1,(0, 2),24	97,(0, 7),24	193,(0, 12),24	289,(0, 17),24	
26,(2, 21),28	54,(3, 21),28	82,(4, 21),28	110,(5, 21),28	138,(7, 21),28	166,(8, 21),28	194,(9, 21),28	222,(10, 21),28	250,(12, 21),28	278,(13, 21),28	306,(14, 21),28	334,(15, 21),28	362,(17, 21),28	390,(18, 21),28	418,(19, 21),28	446,(20, 21),28	
# Outgoing
110,(5, 21),28	222,(10, 21),28	334,(15, 21),28	446,(20, 21),28	
82,(4, 21),28	194,(9, 21),28	306,(14, 21),28	418,(19, 21),28	
54,(3, 21),28	166,(8, 21),28	278,(13, 21),28	390,(18, 21),28	
26,(2, 21),28	138,(7, 21),28	250,(12, 21),28	362,(17, 21),28	
1,(0, 2),24	25,(0, 3),24	49,(0, 4),24	73,(0, 5),24	97,(0, 7),24	121,(0, 8),24	145,(0, 9),24	169,(0, 10),24	193,(0, 12),24	217,(0, 13),24	241,(0, 14),24	265,(0, 15),24	289,(0, 17),24	313,(0, 18),24	337,(0, 19),24	361,(0, 20),24	
