190
# CPU
0,201,1	1,139,1	2,138,1	3,140,1	4,137,1	5,136,1	6,135,1	7,141,1	8,134,1	9,133,1	10,132,1	11,142,1	12,131,1	13,130,1	14,129,1	15,143,1	16,45,1	17,161,1	18,144,1	19,128,1	20,127,1	21,126,1	22,145,1	23,125,1	24,123,1	25,122,1	26,146,1	27,121,1	28,120,1	29,119,1	30,147,1	31,110,1	32,74,1	33,149,1	34,148,1	35,118,1	36,117,1	37,150,1	38,116,1	39,115,1	40,113,1	41,151,1	42,112,1	43,111,1	44,109,1	45,152,1	46,25,1	47,58,1	48,154,1	49,153,1	50,108,1	51,107,1	52,155,1	53,106,1	54,104,1	55,103,1	56,156,1	57,102,1	58,101,1	59,100,1	60,157,1	61,93,1	62,62,1	63,159,1	64,158,1	65,99,1	66,98,1	67,160,1	68,97,1	69,86,1	70,85,1	71,87,1	72,84,1	73,83,1	74,82,1	75,88,1	76,11,1	77,56,1	78,89,1	79,81,1	80,80,1	81,79,1	82,90,1	83,78,1	84,91,1	85,77,1	86,92,1	87,76,1	88,75,1	89,73,1	90,95,1	91,53,1	92,37,1	93,162,1	94,72,1	95,71,1	96,70,1	97,163,1	98,69,1	99,164,1	100,68,1	101,165,1	102,67,1	103,66,1	104,65,1	105,167,1	106,15,1	107,184,1	108,64,1	109,63,1	110,61,1	111,60,1	112,168,1	113,59,1	114,169,1	115,57,1	116,170,1	117,55,1	118,54,1	119,52,1	120,171,1	121,28,1	122,187,1	123,51,1	124,50,1	125,49,1	126,48,1	127,173,1	128,47,1	129,183,1	130,182,1	131,185,1	132,181,1	133,180,1	134,179,1	135,186,1	136,13,1	137,38,1	138,188,1	139,178,1	140,177,1	141,175,1	142,189,1	143,174,1	144,46,1	145,44,1	146,190,1	147,42,1	148,41,1	149,40,1	150,191,1	151,21,1	152,1,1	153,192,1	154,39,1	155,36,1	156,35,1	157,193,1	158,34,1	159,22,1	160,20,1	161,23,1	162,19,1	163,24,1	164,18,1	165,26,1	166,199,1	167,196,1	168,16,1	169,14,1	170,17,1	171,12,1	172,27,1	173,10,1	174,2,1	175,3,1	176,4,1	177,5,1	178,6,1	179,7,1	180,8,1	181,9,1	182,29,1	183,30,1	184,32,1	185,194,1	186,195,1	187,198,1	188,200,1	189,0,1	
46,105,1	181,197,1	

16,124,1	106,172,1	151,33,1	
61,96,1	
121,176,1	
31,114,1	166,31,1	
76,94,1	
136,43,1	
91,166,1	
# Incoming
17,(124, 0),3	32,(114, 0),3	47,(105, 0),3	62,(96, 0),3	77,(94, 0),3	92,(166, 0),3	107,(172, 0),3	122,(176, 0),3	137,(43, 0),3	152,(33, 0),3	167,(31, 0),3	182,(197, 0),3	
31,(201, 105),15	166,(201, 197),15	

1,(201, 124),15	91,(201, 172),15	136,(201, 33),15	
46,(201, 96),15	
106,(201, 176),15	
16,(201, 114),15	151,(201, 31),15	
61,(201, 94),15	
121,(201, 43),15	
76,(201, 166),15	
# Outgoing
1,(201, 124),15	16,(201, 114),15	31,(201, 105),15	46,(201, 96),15	61,(201, 94),15	76,(201, 166),15	91,(201, 172),15	106,(201, 176),15	121,(201, 43),15	136,(201, 33),15	151,(201, 31),15	166,(201, 197),15	
47,(105, 0),3	182,(197, 0),3	

17,(124, 0),3	107,(172, 0),3	152,(33, 0),3	
62,(96, 0),3	
122,(176, 0),3	
32,(114, 0),3	167,(31, 0),3	
77,(94, 0),3	
137,(43, 0),3	
92,(166, 0),3	
