2184
# CPU
109,10,12	217,20,12	325,30,12	433,40,12	541,50,12	649,60,12	757,70,12	865,80,12	973,90,12	1081,100,12	1189,110,12	1297,120,12	1405,130,12	1513,140,12	1621,150,12	1729,160,12	1837,170,12	1945,180,12	2053,190,12	2161,200,12	
97,9,12	205,19,12	313,29,12	421,39,12	529,49,12	637,59,12	745,69,12	853,79,12	961,89,12	1069,99,12	1177,109,12	1285,119,12	1393,129,12	1501,139,12	1609,149,12	1717,159,12	1825,169,12	1933,179,12	2041,189,12	2149,199,12	
85,8,12	193,18,12	301,28,12	409,38,12	517,48,12	625,58,12	733,68,12	841,78,12	949,88,12	1057,98,12	1165,108,12	1273,118,12	1381,128,12	1489,138,12	1597,148,12	1705,158,12	1813,168,12	1921,178,12	2029,188,12	2137,198,12	
73,7,12	181,17,12	289,27,12	397,37,12	505,47,12	613,57,12	721,67,12	829,77,12	937,87,12	1045,97,12	1153,107,12	1261,117,12	1369,127,12	1477,137,12	1585,147,12	1693,157,12	1801,167,12	1909,177,12	2017,187,12	2125,197,12	
61,6,12	169,16,12	277,26,12	385,36,12	493,46,12	601,56,12	709,66,12	817,76,12	925,86,12	1033,96,12	1141,106,12	1249,116,12	1357,126,12	1465,136,12	1573,146,12	1681,156,12	1789,166,12	1897,176,12	2005,186,12	2113,196,12	
49,5,12	157,15,12	265,25,12	373,35,12	481,45,12	589,55,12	697,65,12	805,75,12	913,85,12	1021,95,12	1129,105,12	1237,115,12	1345,125,12	1453,135,12	1561,145,12	1669,155,12	1777,165,12	1885,175,12	1993,185,12	2101,195,12	
37,4,12	145,14,12	253,24,12	361,34,12	469,44,12	577,54,12	685,64,12	793,74,12	901,84,12	1009,94,12	1117,104,12	1225,114,12	1333,124,12	1441,134,12	1549,144,12	1657,154,12	1765,164,12	1873,174,12	1981,184,12	2089,194,12	
25,3,12	133,13,12	241,23,12	349,33,12	457,43,12	565,53,12	673,63,12	781,73,12	889,83,12	997,93,12	1105,103,12	1213,113,12	1321,123,12	1429,133,12	1537,143,12	1645,153,12	1753,163,12	1861,173,12	1969,183,12	2077,193,12	
13,2,12	121,12,12	229,22,12	337,32,12	445,42,12	553,52,12	661,62,12	769,72,12	877,82,12	985,92,12	1093,102,12	1201,112,12	1309,122,12	1417,132,12	1525,142,12	1633,152,12	1741,162,12	1849,172,12	1957,182,12	2065,192,12	
0,0,1	1,1,12	13,21,12	25,61,12	37,141,12	49,191,12	61,181,12	73,171,12	85,161,12	97,131,12	109,151,12	121,121,12	133,111,12	145,101,12	157,91,12	169,81,12	181,51,12	193,71,12	205,41,12	217,11,12	229,31,12	2183,201,1	
# Incoming
97,(0, 10),12	205,(0, 20),12	313,(0, 30),12	421,(0, 40),12	529,(0, 50),12	637,(0, 60),12	745,(0, 70),12	853,(0, 80),12	961,(0, 90),12	1069,(0, 100),12	1177,(0, 110),12	1285,(0, 120),12	1393,(0, 130),12	1501,(0, 140),12	1609,(0, 150),12	1717,(0, 160),12	1825,(0, 170),12	1933,(0, 180),12	2041,(0, 190),12	2149,(0, 200),12	
85,(0, 9),12	193,(0, 19),12	301,(0, 29),12	409,(0, 39),12	517,(0, 49),12	625,(0, 59),12	733,(0, 69),12	841,(0, 79),12	949,(0, 89),12	1057,(0, 99),12	1165,(0, 109),12	1273,(0, 119),12	1381,(0, 129),12	1489,(0, 139),12	1597,(0, 149),12	1705,(0, 159),12	1813,(0, 169),12	1921,(0, 179),12	2029,(0, 189),12	2137,(0, 199),12	
73,(0, 8),12	181,(0, 18),12	289,(0, 28),12	397,(0, 38),12	505,(0, 48),12	613,(0, 58),12	721,(0, 68),12	829,(0, 78),12	937,(0, 88),12	1045,(0, 98),12	1153,(0, 108),12	1261,(0, 118),12	1369,(0, 128),12	1477,(0, 138),12	1585,(0, 148),12	1693,(0, 158),12	1801,(0, 168),12	1909,(0, 178),12	2017,(0, 188),12	2125,(0, 198),12	
61,(0, 7),12	169,(0, 17),12	277,(0, 27),12	385,(0, 37),12	493,(0, 47),12	601,(0, 57),12	709,(0, 67),12	817,(0, 77),12	925,(0, 87),12	1033,(0, 97),12	1141,(0, 107),12	1249,(0, 117),12	1357,(0, 127),12	1465,(0, 137),12	1573,(0, 147),12	1681,(0, 157),12	1789,(0, 167),12	1897,(0, 177),12	2005,(0, 187),12	2113,(0, 197),12	
49,(0, 6),12	157,(0, 16),12	265,(0, 26),12	373,(0, 36),12	481,(0, 46),12	589,(0, 56),12	697,(0, 66),12	805,(0, 76),12	913,(0, 86),12	1021,(0, 96),12	1129,(0, 106),12	1237,(0, 116),12	1345,(0, 126),12	1453,(0, 136),12	1561,(0, 146),12	1669,(0, 156),12	1777,(0, 166),12	1885,(0, 176),12	1993,(0, 186),12	2101,(0, 196),12	
37,(0, 5),12	145,(0, 15),12	253,(0, 25),12	361,(0, 35),12	469,(0, 45),12	577,(0, 55),12	685,(0, 65),12	793,(0, 75),12	901,(0, 85),12	1009,(0, 95),12	1117,(0, 105),12	1225,(0, 115),12	1333,(0, 125),12	1441,(0, 135),12	1549,(0, 145),12	1657,(0, 155),12	1765,(0, 165),12	1873,(0, 175),12	1981,(0, 185),12	2089,(0, 195),12	
25,(0, 4),12	133,(0, 14),12	241,(0, 24),12	349,(0, 34),12	457,(0, 44),12	565,(0, 54),12	673,(0, 64),12	781,(0, 74),12	889,(0, 84),12	997,(0, 94),12	1105,(0, 104),12	1213,(0, 114),12	1321,(0, 124),12	1429,(0, 134),12	1537,(0, 144),12	1645,(0, 154),12	1753,(0, 164),12	1861,(0, 174),12	1969,(0, 184),12	2077,(0, 194),12	
13,(0, 3),12	121,(0, 13),12	229,(0, 23),12	337,(0, 33),12	445,(0, 43),12	553,(0, 53),12	661,(0, 63),12	769,(0, 73),12	877,(0, 83),12	985,(0, 93),12	1093,(0, 103),12	1201,(0, 113),12	1309,(0, 123),12	1417,(0, 133),12	1525,(0, 143),12	1633,(0, 153),12	1741,(0, 163),12	1849,(0, 173),12	1957,(0, 183),12	2065,(0, 193),12	
1,(0, 2),12	109,(0, 12),12	217,(0, 22),12	325,(0, 32),12	433,(0, 42),12	541,(0, 52),12	649,(0, 62),12	757,(0, 72),12	865,(0, 82),12	973,(0, 92),12	1081,(0, 102),12	1189,(0, 112),12	1297,(0, 122),12	1405,(0, 132),12	1513,(0, 142),12	1621,(0, 152),12	1729,(0, 162),12	1837,(0, 172),12	1945,(0, 182),12	2053,(0, 192),12	
25,(2, 201),10	37,(3, 201),10	49,(4, 201),10	61,(5, 201),10	73,(6, 201),10	85,(7, 201),10	97,(8, 201),10	109,(9, 201),10	121,(10, 201),10	133,(12, 201),10	145,(13, 201),10	157,(14, 201),10	169,(15, 201),10	181,(16, 201),10	193,(17, 201),10	205,(18, 201),10	217,(19, 201),10	229,(20, 201),10	241,(22, 201),10	253,(23, 201),10	265,(24, 201),10	277,(25, 201),10	289,(26, 201),10	301,(27, 201),10	313,(28, 201),10	325,(29, 201),10	337,(30, 201),10	349,(32, 201),10	361,(33, 201),10	373,(34, 201),10	385,(35, 201),10	397,(36, 201),10	409,(37, 201),10	421,(38, 201),10	433,(39, 201),10	445,(40, 201),10	457,(42, 201),10	469,(43, 201),10	481,(44, 201),10	493,(45, 201),10	505,(46, 201),10	517,(47, 201),10	529,(48, 201),10	541,(49, 201),10	553,(50, 201),10	565,(52, 201),10	577,(53, 201),10	589,(54, 201),10	601,(55, 201),10	613,(56, 201),10	625,(57, 201),10	637,(58, 201),10	649,(59, 201),10	661,(60, 201),10	673,(62, 201),10	685,(63, 201),10	697,(64, 201),10	709,(65, 201),10	721,(66, 201),10	733,(67, 201),10	745,(68, 201),10	757,(69, 201),10	769,(70, 201),10	781,(72, 201),10	793,(73, 201),10	805,(74, 201),10	817,(75, 201),10	829,(76, 201),10	841,(77, 201),10	853,(78, 201),10	865,(79, 201),10	877,(80, 201),10	889,(82, 201),10	901,(83, 201),10	913,(84, 201),10	925,(85, 201),10	937,(86, 201),10	949,(87, 201),10	961,(88, 201),10	973,(89, 201),10	985,(90, 201),10	997,(92, 201),10	1009,(93, 201),10	1021,(94, 201),10	1033,(95, 201),10	1045,(96, 201),10	1057,(97, 201),10	1069,(98, 201),10	1081,(99, 201),10	1093,(100, 201),10	1105,(102, 201),10	1117,(103, 201),10	1129,(104, 201),10	1141,(105, 201),10	1153,(106, 201),10	1165,(107, 201),10	1177,(108, 201),10	1189,(109, 201),10	1201,(110, 201),10	1213,(112, 201),10	1225,(113, 201),10	1237,(114, 201),10	1249,(115, 201),10	1261,(116, 201),10	1273,(117, 201),10	1285,(118, 201),10	1297,(119, 201),10	1309,(120, 201),10	1321,(122, 201),10	1333,(123, 201),10	1345,(124, 201),10	1357,(125, 201),10	1369,(126, 201),10	1381,(127, 201),10	1393,(128, 201),10	1405,(129, 201),10	1417,(130, 201),10	1429,(132, 201),10	1441,(133, 201),10	1453,(134, 201),10	1465,(135, 201),10	1477,(136, 201),10	1489,(137, 201),10	1501,(138, 201),10	1513,(139, 201),10	1525,(140, 201),10	1537,(142, 201),10	1549,(143, 201),10	1561,(144, 201),10	1573,(145, 201),10	1585,(146, 201),10	1597,(147, 201),10	1609,(148, 201),10	1621,(149, 201),10	1633,(150, 201),10	1645,(152, 201),10	1657,(153, 201),10	1669,(154, 201),10	1681,(155, 201),10	1693,(156, 201),10	1705,(157, 201),10	1717,(158, 201),10	1729,(159, 201),10	1741,(160, 201),10	1753,(162, 201),10	1765,(163, 201),10	1777,(164, 201),10	1789,(165, 201),10	1801,(166, 201),10	1813,(167, 201),10	1825,(168, 201),10	1837,(169, 201),10	1849,(170, 201),10	1861,(172, 201),10	1873,(173, 201),10	1885,(174, 201),10	1897,(175, 201),10	1909,(176, 201),10	1921,(177, 201),10	1933,(178, 201),10	1945,(179, 201),10	1957,(180, 201),10	1969,(182, 201),10	1981,(183, 201),10	1993,(184, 201),10	2005,(185, 201),10	2017,(186, 201),10	2029,(187, 201),10	2041,(188, 201),10	2053,(189, 201),10	2065,(190, 201),10	2077,(192, 201),10	2089,(193, 201),10	2101,(194, 201),10	2113,(195, 201),10	2125,(196, 201),10	2137,(197, 201),10	2149,(198, 201),10	2161,(199, 201),10	2173,(200, 201),10	
# Outgoing
121,(10, 201),10	229,(20, 201),10	337,(30, 201),10	445,(40, 201),10	553,(50, 201),10	661,(60, 201),10	769,(70, 201),10	877,(80, 201),10	985,(90, 201),10	1093,(100, 201),10	1201,(110, 201),10	1309,(120, 201),10	1417,(130, 201),10	1525,(140, 201),10	1633,(150, 201),10	1741,(160, 201),10	1849,(170, 201),10	1957,(180, 201),10	2065,(190, 201),10	2173,(200, 201),10	
109,(9, 201),10	217,(19, 201),10	325,(29, 201),10	433,(39, 201),10	541,(49, 201),10	649,(59, 201),10	757,(69, 201),10	865,(79, 201),10	973,(89, 201),10	1081,(99, 201),10	1189,(109, 201),10	1297,(119, 201),10	1405,(129, 201),10	1513,(139, 201),10	1621,(149, 201),10	1729,(159, 201),10	1837,(169, 201),10	1945,(179, 201),10	2053,(189, 201),10	2161,(199, 201),10	
97,(8, 201),10	205,(18, 201),10	313,(28, 201),10	421,(38, 201),10	529,(48, 201),10	637,(58, 201),10	745,(68, 201),10	853,(78, 201),10	961,(88, 201),10	1069,(98, 201),10	1177,(108, 201),10	1285,(118, 201),10	1393,(128, 201),10	1501,(138, 201),10	1609,(148, 201),10	1717,(158, 201),10	1825,(168, 201),10	1933,(178, 201),10	2041,(188, 201),10	2149,(198, 201),10	
85,(7, 201),10	193,(17, 201),10	301,(27, 201),10	409,(37, 201),10	517,(47, 201),10	625,(57, 201),10	733,(67, 201),10	841,(77, 201),10	949,(87, 201),10	1057,(97, 201),10	1165,(107, 201),10	1273,(117, 201),10	1381,(127, 201),10	1489,(137, 201),10	1597,(147, 201),10	1705,(157, 201),10	1813,(167, 201),10	1921,(177, 201),10	2029,(187, 201),10	2137,(197, 201),10	
73,(6, 201),10	181,(16, 201),10	289,(26, 201),10	397,(36, 201),10	505,(46, 201),10	613,(56, 201),10	721,(66, 201),10	829,(76, 201),10	937,(86, 201),10	1045,(96, 201),10	1153,(106, 201),10	1261,(116, 201),10	1369,(126, 201),10	1477,(136, 201),10	1585,(146, 201),10	1693,(156, 201),10	1801,(166, 201),10	1909,(176, 201),10	2017,(186, 201),10	2125,(196, 201),10	
61,(5, 201),10	169,(15, 201),10	277,(25, 201),10	385,(35, 201),10	493,(45, 201),10	601,(55, 201),10	709,(65, 201),10	817,(75, 201),10	925,(85, 201),10	1033,(95, 201),10	1141,(105, 201),10	1249,(115, 201),10	1357,(125, 201),10	1465,(135, 201),10	1573,(145, 201),10	1681,(155, 201),10	1789,(165, 201),10	1897,(175, 201),10	2005,(185, 201),10	2113,(195, 201),10	
49,(4, 201),10	157,(14, 201),10	265,(24, 201),10	373,(34, 201),10	481,(44, 201),10	589,(54, 201),10	697,(64, 201),10	805,(74, 201),10	913,(84, 201),10	1021,(94, 201),10	1129,(104, 201),10	1237,(114, 201),10	1345,(124, 201),10	1453,(134, 201),10	1561,(144, 201),10	1669,(154, 201),10	1777,(164, 201),10	1885,(174, 201),10	1993,(184, 201),10	2101,(194, 201),10	
37,(3, 201),10	145,(13, 201),10	253,(23, 201),10	361,(33, 201),10	469,(43, 201),10	577,(53, 201),10	685,(63, 201),10	793,(73, 201),10	901,(83, 201),10	1009,(93, 201),10	1117,(103, 201),10	1225,(113, 201),10	1333,(123, 201),10	1441,(133, 201),10	1549,(143, 201),10	1657,(153, 201),10	1765,(163, 201),10	1873,(173, 201),10	1981,(183, 201),10	2089,(193, 201),10	
25,(2, 201),10	133,(12, 201),10	241,(22, 201),10	349,(32, 201),10	457,(42, 201),10	565,(52, 201),10	673,(62, 201),10	781,(72, 201),10	889,(82, 201),10	997,(92, 201),10	1105,(102, 201),10	1213,(112, 201),10	1321,(122, 201),10	1429,(132, 201),10	1537,(142, 201),10	1645,(152, 201),10	1753,(162, 201),10	1861,(172, 201),10	1969,(182, 201),10	2077,(192, 201),10	
1,(0, 2),12	13,(0, 3),12	25,(0, 4),12	37,(0, 5),12	49,(0, 6),12	61,(0, 7),12	73,(0, 8),12	85,(0, 9),12	97,(0, 10),12	109,(0, 12),12	121,(0, 13),12	133,(0, 14),12	145,(0, 15),12	157,(0, 16),12	169,(0, 17),12	181,(0, 18),12	193,(0, 19),12	205,(0, 20),12	217,(0, 22),12	229,(0, 23),12	241,(0, 24),12	253,(0, 25),12	265,(0, 26),12	277,(0, 27),12	289,(0, 28),12	301,(0, 29),12	313,(0, 30),12	325,(0, 32),12	337,(0, 33),12	349,(0, 34),12	361,(0, 35),12	373,(0, 36),12	385,(0, 37),12	397,(0, 38),12	409,(0, 39),12	421,(0, 40),12	433,(0, 42),12	445,(0, 43),12	457,(0, 44),12	469,(0, 45),12	481,(0, 46),12	493,(0, 47),12	505,(0, 48),12	517,(0, 49),12	529,(0, 50),12	541,(0, 52),12	553,(0, 53),12	565,(0, 54),12	577,(0, 55),12	589,(0, 56),12	601,(0, 57),12	613,(0, 58),12	625,(0, 59),12	637,(0, 60),12	649,(0, 62),12	661,(0, 63),12	673,(0, 64),12	685,(0, 65),12	697,(0, 66),12	709,(0, 67),12	721,(0, 68),12	733,(0, 69),12	745,(0, 70),12	757,(0, 72),12	769,(0, 73),12	781,(0, 74),12	793,(0, 75),12	805,(0, 76),12	817,(0, 77),12	829,(0, 78),12	841,(0, 79),12	853,(0, 80),12	865,(0, 82),12	877,(0, 83),12	889,(0, 84),12	901,(0, 85),12	913,(0, 86),12	925,(0, 87),12	937,(0, 88),12	949,(0, 89),12	961,(0, 90),12	973,(0, 92),12	985,(0, 93),12	997,(0, 94),12	1009,(0, 95),12	1021,(0, 96),12	1033,(0, 97),12	1045,(0, 98),12	1057,(0, 99),12	1069,(0, 100),12	1081,(0, 102),12	1093,(0, 103),12	1105,(0, 104),12	1117,(0, 105),12	1129,(0, 106),12	1141,(0, 107),12	1153,(0, 108),12	1165,(0, 109),12	1177,(0, 110),12	1189,(0, 112),12	1201,(0, 113),12	1213,(0, 114),12	1225,(0, 115),12	1237,(0, 116),12	1249,(0, 117),12	1261,(0, 118),12	1273,(0, 119),12	1285,(0, 120),12	1297,(0, 122),12	1309,(0, 123),12	1321,(0, 124),12	1333,(0, 125),12	1345,(0, 126),12	1357,(0, 127),12	1369,(0, 128),12	1381,(0, 129),12	1393,(0, 130),12	1405,(0, 132),12	1417,(0, 133),12	1429,(0, 134),12	1441,(0, 135),12	1453,(0, 136),12	1465,(0, 137),12	1477,(0, 138),12	1489,(0, 139),12	1501,(0, 140),12	1513,(0, 142),12	1525,(0, 143),12	1537,(0, 144),12	1549,(0, 145),12	1561,(0, 146),12	1573,(0, 147),12	1585,(0, 148),12	1597,(0, 149),12	1609,(0, 150),12	1621,(0, 152),12	1633,(0, 153),12	1645,(0, 154),12	1657,(0, 155),12	1669,(0, 156),12	1681,(0, 157),12	1693,(0, 158),12	1705,(0, 159),12	1717,(0, 160),12	1729,(0, 162),12	1741,(0, 163),12	1753,(0, 164),12	1765,(0, 165),12	1777,(0, 166),12	1789,(0, 167),12	1801,(0, 168),12	1813,(0, 169),12	1825,(0, 170),12	1837,(0, 172),12	1849,(0, 173),12	1861,(0, 174),12	1873,(0, 175),12	1885,(0, 176),12	1897,(0, 177),12	1909,(0, 178),12	1921,(0, 179),12	1933,(0, 180),12	1945,(0, 182),12	1957,(0, 183),12	1969,(0, 184),12	1981,(0, 185),12	1993,(0, 186),12	2005,(0, 187),12	2017,(0, 188),12	2029,(0, 189),12	2041,(0, 190),12	2053,(0, 192),12	2065,(0, 193),12	2077,(0, 194),12	2089,(0, 195),12	2101,(0, 196),12	2113,(0, 197),12	2125,(0, 198),12	2137,(0, 199),12	2149,(0, 200),12	
