153
# CPU
0,201,1	1,139,1	2,138,1	3,140,1	4,55,1	5,86,1	6,141,1	7,126,1	8,84,1	9,142,1	10,82,1	11,70,1	12,143,1	13,81,1	14,161,1	15,144,1	16,30,1	17,162,1	18,137,1	19,125,1	20,67,1	21,145,1	22,157,1	23,79,1	24,136,1	25,158,1	26,77,1	27,146,1	28,116,1	29,171,1	30,135,1	31,80,1	32,165,1	33,129,1	34,26,1	35,166,1	36,127,1	37,114,1	38,59,1	39,148,1	40,109,1	41,71,1	42,149,1	43,24,1	44,69,1	45,150,1	46,169,1	47,97,1	48,147,1	49,46,1	50,65,1	51,152,1	52,45,1	53,172,1	54,151,1	55,56,1	56,94,1	57,102,1	58,29,1	59,174,1	60,100,1	61,103,1	62,62,1	63,99,1	64,27,1	65,44,1	66,98,1	67,182,1	68,52,1	69,96,1	70,58,1	71,50,1	72,95,1	73,48,1	74,40,1	75,101,1	76,175,1	77,49,1	78,92,1	79,176,1	80,47,1	81,91,1	82,63,1	83,85,1	84,90,1	85,188,1	86,183,1	87,88,1	88,16,1	89,39,1	90,87,1	91,189,1	92,33,1	93,83,1	94,190,1	95,181,1	96,75,1	97,167,1	98,184,1	99,73,1	100,11,1	101,64,1	102,72,1	103,19,1	104,35,1	105,179,1	106,18,1	107,34,1	108,180,1	109,38,1	110,57,1	111,185,1	112,68,1	113,41,1	114,186,1	115,170,1	116,1,1	117,187,1	118,60,1	119,192,1	120,178,1	121,193,1	122,2,1	123,177,1	124,51,1	125,3,1	126,191,1	127,10,1	128,61,1	129,25,1	130,20,1	131,15,1	132,28,1	133,173,1	134,197,1	135,22,1	136,198,1	137,9,1	138,21,1	139,6,1	140,13,1	141,4,1	142,32,1	143,7,1	144,5,1	145,54,1	146,8,1	147,12,1	148,17,1	149,194,1	150,199,1	151,200,1	152,0,1	
7,134,1	16,130,1	25,123,1	46,112,1	55,106,1	64,119,1	79,155,1	88,159,1	103,168,1	115,74,1	127,37,1	133,42,1	139,195,1	142,196,1	145,23,1	148,14,1	
10,132,1	19,128,1	28,122,1	37,117,1	58,107,1	73,154,1	82,156,1	97,78,1	106,164,1	118,66,1	
22,124,1	31,120,1	40,115,1	49,111,1	67,108,1	76,153,1	91,93,1	100,76,1	109,163,1	121,53,1	130,36,1	136,31,1	
4,133,1	13,131,1	34,118,1	43,113,1	52,110,1	61,105,1	70,121,1	85,104,1	94,89,1	112,160,1	124,43,1	
# Incoming
5,(133, 0),1	8,(134, 0),1	11,(132, 0),1	14,(131, 0),1	17,(130, 0),1	20,(128, 0),1	23,(124, 0),1	26,(123, 0),1	29,(122, 0),1	32,(120, 0),1	35,(118, 0),1	38,(117, 0),1	41,(115, 0),1	44,(113, 0),1	47,(112, 0),1	50,(111, 0),1	53,(110, 0),1	56,(106, 0),1	59,(107, 0),1	62,(105, 0),1	65,(119, 0),1	68,(108, 0),1	71,(121, 0),1	74,(154, 0),1	77,(153, 0),1	80,(155, 0),1	83,(156, 0),1	86,(104, 0),1	89,(159, 0),1	92,(93, 0),1	95,(89, 0),1	98,(78, 0),1	101,(76, 0),1	104,(168, 0),1	107,(164, 0),1	110,(163, 0),1	113,(160, 0),1	116,(74, 0),1	119,(66, 0),1	122,(53, 0),1	125,(43, 0),1	128,(37, 0),1	131,(36, 0),1	134,(42, 0),1	137,(31, 0),1	140,(195, 0),1	143,(196, 0),1	146,(23, 0),1	149,(14, 0),1	
4,(201, 134),3	13,(201, 130),3	22,(201, 123),3	43,(201, 112),3	52,(201, 106),3	61,(201, 119),3	76,(201, 155),3	85,(201, 159),3	100,(201, 168),3	112,(201, 74),3	124,(201, 37),3	130,(201, 42),3	136,(201, 195),3	139,(201, 196),3	142,(201, 23),3	145,(201, 14),3	
7,(201, 132),3	16,(201, 128),3	25,(201, 122),3	34,(201, 117),3	55,(201, 107),3	70,(201, 154),3	79,(201, 156),3	94,(201, 78),3	103,(201, 164),3	115,(201, 66),3	
19,(201, 124),3	28,(201, 120),3	37,(201, 115),3	46,(201, 111),3	64,(201, 108),3	73,(201, 153),3	88,(201, 93),3	97,(201, 76),3	106,(201, 163),3	118,(201, 53),3	127,(201, 36),3	133,(201, 31),3	
1,(201, 133),3	10,(201, 131),3	31,(201, 118),3	40,(201, 113),3	49,(201, 110),3	58,(201, 105),3	67,(201, 121),3	82,(201, 104),3	91,(201, 89),3	109,(201, 160),3	121,(201, 43),3	
# Outgoing
1,(201, 133),3	4,(201, 134),3	7,(201, 132),3	10,(201, 131),3	13,(201, 130),3	16,(201, 128),3	19,(201, 124),3	22,(201, 123),3	25,(201, 122),3	28,(201, 120),3	31,(201, 118),3	34,(201, 117),3	37,(201, 115),3	40,(201, 113),3	43,(201, 112),3	46,(201, 111),3	49,(201, 110),3	52,(201, 106),3	55,(201, 107),3	58,(201, 105),3	61,(201, 119),3	64,(201, 108),3	67,(201, 121),3	70,(201, 154),3	73,(201, 153),3	76,(201, 155),3	79,(201, 156),3	82,(201, 104),3	85,(201, 159),3	88,(201, 93),3	91,(201, 89),3	94,(201, 78),3	97,(201, 76),3	100,(201, 168),3	103,(201, 164),3	106,(201, 163),3	109,(201, 160),3	112,(201, 74),3	115,(201, 66),3	118,(201, 53),3	121,(201, 43),3	124,(201, 37),3	127,(201, 36),3	130,(201, 42),3	133,(201, 31),3	136,(201, 195),3	139,(201, 196),3	142,(201, 23),3	145,(201, 14),3	
8,(134, 0),1	17,(130, 0),1	26,(123, 0),1	47,(112, 0),1	56,(106, 0),1	65,(119, 0),1	80,(155, 0),1	89,(159, 0),1	104,(168, 0),1	116,(74, 0),1	128,(37, 0),1	134,(42, 0),1	140,(195, 0),1	143,(196, 0),1	146,(23, 0),1	149,(14, 0),1	
11,(132, 0),1	20,(128, 0),1	29,(122, 0),1	38,(117, 0),1	59,(107, 0),1	74,(154, 0),1	83,(156, 0),1	98,(78, 0),1	107,(164, 0),1	119,(66, 0),1	
23,(124, 0),1	32,(120, 0),1	41,(115, 0),1	50,(111, 0),1	68,(108, 0),1	77,(153, 0),1	92,(93, 0),1	101,(76, 0),1	110,(163, 0),1	122,(53, 0),1	131,(36, 0),1	137,(31, 0),1	
5,(133, 0),1	14,(131, 0),1	35,(118, 0),1	44,(113, 0),1	53,(110, 0),1	62,(105, 0),1	71,(121, 0),1	86,(104, 0),1	95,(89, 0),1	113,(160, 0),1	125,(43, 0),1	
