174
# CPU
0,201,1	1,139,1	2,138,1	3,140,1	4,137,1	5,136,1	6,135,1	7,71,1	8,84,1	9,141,1	10,142,1	11,134,1	12,133,1	13,69,1	14,83,1	15,144,1	16,143,1	17,145,1	18,132,1	19,66,1	20,80,1	21,146,1	22,131,1	23,130,1	24,147,1	25,159,1	26,78,1	27,129,1	28,127,1	29,148,1	30,125,1	31,46,1	32,75,1	33,149,1	34,150,1	35,124,1	36,122,1	37,172,1	38,171,1	39,119,1	40,118,1	41,121,1	42,116,1	43,57,1	44,68,1	45,152,1	46,151,1	47,115,1	48,153,1	49,41,1	50,67,1	51,154,1	52,114,1	53,112,1	54,111,1	55,53,1	56,63,1	57,156,1	58,157,1	59,155,1	60,109,1	61,177,1	62,61,1	63,97,1	64,96,1	65,98,1	66,95,1	67,168,1	68,56,1	69,93,1	70,94,1	71,92,1	72,99,1	73,45,1	74,39,1	75,91,1	76,90,1	77,100,1	78,89,1	79,43,1	80,47,1	81,88,1	82,102,1	83,87,1	84,103,1	85,40,1	86,44,1	87,86,1	88,85,1	89,104,1	90,82,1	91,185,1	92,182,1	93,79,1	94,77,1	95,76,1	96,81,1	97,54,1	98,183,1	99,74,1	100,73,1	101,72,1	102,70,1	103,181,1	104,31,1	105,65,1	106,106,1	107,64,1	108,62,1	109,19,1	110,26,1	111,108,1	112,60,1	113,160,1	114,59,1	115,23,1	116,29,1	117,58,1	118,184,1	119,180,1	120,186,1	121,191,1	122,27,1	123,179,1	124,178,1	125,176,1	126,174,1	127,18,1	128,33,1	129,187,1	130,188,1	131,170,1	132,164,1	133,24,1	134,30,1	135,189,1	136,162,1	137,190,1	138,55,1	139,50,1	140,21,1	141,192,1	142,52,1	143,48,1	144,193,1	145,15,1	146,36,1	147,17,1	148,16,1	149,20,1	150,14,1	151,34,1	152,9,1	153,13,1	154,22,1	155,12,1	156,25,1	157,5,1	158,198,1	159,1,1	160,2,1	161,3,1	162,4,1	163,6,1	164,7,1	165,8,1	166,10,1	167,11,1	168,28,1	169,37,1	170,197,1	171,199,1	172,200,1	173,0,1	
13,126,1	25,120,1	31,117,1	43,110,1	55,105,1	61,101,1	67,158,1	73,161,1	79,163,1	85,165,1	103,169,1	109,173,1	127,49,1	145,42,1	151,195,1	169,194,1	
7,128,1	19,123,1	37,113,1	49,107,1	91,166,1	97,167,1	115,175,1	121,51,1	133,38,1	139,35,1	157,196,1	163,32,1	
# Incoming
8,(128, 0),2	14,(126, 0),2	20,(123, 0),2	26,(120, 0),2	32,(117, 0),2	38,(113, 0),2	44,(110, 0),2	50,(107, 0),2	56,(105, 0),2	62,(101, 0),2	68,(158, 0),2	74,(161, 0),2	80,(163, 0),2	86,(165, 0),2	92,(166, 0),2	98,(167, 0),2	104,(169, 0),2	110,(173, 0),2	116,(175, 0),2	122,(51, 0),2	128,(49, 0),2	134,(38, 0),2	140,(35, 0),2	146,(42, 0),2	152,(195, 0),2	158,(196, 0),2	164,(32, 0),2	170,(194, 0),2	
7,(201, 126),6	19,(201, 120),6	25,(201, 117),6	37,(201, 110),6	49,(201, 105),6	55,(201, 101),6	61,(201, 158),6	67,(201, 161),6	73,(201, 163),6	79,(201, 165),6	97,(201, 169),6	103,(201, 173),6	121,(201, 49),6	139,(201, 42),6	145,(201, 195),6	163,(201, 194),6	
1,(201, 128),6	13,(201, 123),6	31,(201, 113),6	43,(201, 107),6	85,(201, 166),6	91,(201, 167),6	109,(201, 175),6	115,(201, 51),6	127,(201, 38),6	133,(201, 35),6	151,(201, 196),6	157,(201, 32),6	
# Outgoing
1,(201, 128),6	7,(201, 126),6	13,(201, 123),6	19,(201, 120),6	25,(201, 117),6	31,(201, 113),6	37,(201, 110),6	43,(201, 107),6	49,(201, 105),6	55,(201, 101),6	61,(201, 158),6	67,(201, 161),6	73,(201, 163),6	79,(201, 165),6	85,(201, 166),6	91,(201, 167),6	97,(201, 169),6	103,(201, 173),6	109,(201, 175),6	115,(201, 51),6	121,(201, 49),6	127,(201, 38),6	133,(201, 35),6	139,(201, 42),6	145,(201, 195),6	151,(201, 196),6	157,(201, 32),6	163,(201, 194),6	
14,(126, 0),2	26,(120, 0),2	32,(117, 0),2	44,(110, 0),2	56,(105, 0),2	62,(101, 0),2	68,(158, 0),2	74,(161, 0),2	80,(163, 0),2	86,(165, 0),2	104,(169, 0),2	110,(173, 0),2	128,(49, 0),2	146,(42, 0),2	152,(195, 0),2	170,(194, 0),2	
8,(128, 0),2	20,(123, 0),2	38,(113, 0),2	50,(107, 0),2	92,(166, 0),2	98,(167, 0),2	116,(175, 0),2	122,(51, 0),2	134,(38, 0),2	140,(35, 0),2	158,(196, 0),2	164,(32, 0),2	
