655
# CPU
5,3,1	9,6,1	13,9,1	17,12,1	21,15,1	25,18,1	
3,2,1	7,5,1	11,8,1	15,11,1	19,14,1	23,17,1	27,20,1	
0,0,1	1,1,1	2,7,1	3,16,1	4,19,1	5,13,1	6,4,1	7,10,1	654,21,1	
# Incoming
3,(0, 3),2	7,(0, 6),2	11,(0, 9),2	15,(0, 12),2	19,(0, 15),2	23,(0, 18),2	
1,(0, 2),2	5,(0, 5),2	9,(0, 8),2	13,(0, 11),2	17,(0, 14),2	21,(0, 17),2	25,(0, 20),2	
4,(2, 21),50	54,(3, 21),50	104,(5, 21),50	154,(6, 21),50	204,(8, 21),50	254,(9, 21),50	304,(11, 21),50	354,(12, 21),50	404,(14, 21),50	454,(15, 21),50	504,(17, 21),50	554,(18, 21),50	604,(20, 21),50	
# Outgoing
54,(3, 21),50	154,(6, 21),50	254,(9, 21),50	354,(12, 21),50	454,(15, 21),50	554,(18, 21),50	
4,(2, 21),50	104,(5, 21),50	204,(8, 21),50	304,(11, 21),50	404,(14, 21),50	504,(17, 21),50	604,(20, 21),50	
1,(0, 2),2	3,(0, 3),2	5,(0, 5),2	7,(0, 6),2	9,(0, 8),2	11,(0, 9),2	13,(0, 11),2	15,(0, 12),2	17,(0, 14),2	19,(0, 15),2	21,(0, 17),2	23,(0, 18),2	25,(0, 20),2	
