190
# CPU
0,201,1	1,200,1	2,138,1	3,139,1	4,137,1	5,136,1	6,135,1	7,140,1	8,134,1	9,133,1	10,132,1	11,141,1	12,131,1	13,130,1	14,129,1	15,142,1	16,128,1	17,143,1	18,127,1	19,144,1	20,126,1	21,125,1	22,145,1	23,124,1	24,123,1	25,121,1	26,146,1	27,120,1	28,119,1	29,118,1	30,147,1	31,117,1	32,148,1	33,116,1	34,149,1	35,115,1	36,114,1	37,150,1	38,113,1	39,112,1	40,111,1	41,151,1	42,110,1	43,108,1	44,107,1	45,152,1	46,106,1	47,153,1	48,105,1	49,154,1	50,104,1	51,103,1	52,155,1	53,102,1	54,101,1	55,100,1	56,156,1	57,99,1	58,97,1	59,96,1	60,157,1	61,95,1	62,158,1	63,94,1	64,159,1	65,93,1	66,92,1	67,160,1	68,91,1	69,81,1	70,80,1	71,82,1	72,79,1	73,78,1	74,77,1	75,83,1	76,76,1	77,84,1	78,75,1	79,85,1	80,73,1	81,72,1	82,74,1	83,71,1	84,86,1	85,70,1	86,87,1	87,69,1	88,68,1	89,67,1	90,90,1	91,66,1	92,161,1	93,65,1	94,162,1	95,63,1	96,62,1	97,64,1	98,61,1	99,163,1	100,60,1	101,164,1	102,59,1	103,58,1	104,57,1	105,166,1	106,56,1	107,167,1	108,55,1	109,168,1	110,53,1	111,52,1	112,54,1	113,51,1	114,169,1	115,50,1	116,170,1	117,49,1	118,48,1	119,47,1	120,171,1	121,46,1	122,172,1	123,45,1	124,174,1	125,43,1	126,42,1	127,44,1	128,41,1	129,184,1	130,183,1	131,185,1	132,182,1	133,181,1	134,180,1	135,186,1	136,179,1	137,177,1	138,176,1	139,187,1	140,175,1	141,40,1	142,188,1	143,39,1	144,38,1	145,36,1	146,189,1	147,35,1	148,34,1	149,33,1	150,190,1	151,32,1	152,31,1	153,30,1	154,191,1	155,29,1	156,28,1	157,192,1	158,27,1	159,17,1	160,16,1	161,18,1	162,15,1	163,19,1	164,14,1	165,20,1	166,13,1	167,21,1	168,12,1	169,22,1	170,11,1	171,10,1	172,23,1	173,9,1	174,1,1	175,2,1	176,3,1	177,4,1	178,5,1	179,6,1	180,7,1	181,8,1	182,25,1	183,26,1	184,193,1	185,196,1	186,197,1	187,198,1	188,199,1	189,0,1	
31,109,1	61,88,1	91,165,1	151,24,1	181,195,1	
106,173,1	121,178,1	136,37,1	
16,122,1	46,98,1	76,89,1	166,194,1	
# Incoming
17,(122, 0),3	32,(109, 0),3	47,(98, 0),3	62,(88, 0),3	77,(89, 0),3	92,(165, 0),3	107,(173, 0),3	122,(178, 0),3	137,(37, 0),3	152,(24, 0),3	167,(194, 0),3	182,(195, 0),3	
16,(201, 109),15	46,(201, 88),15	76,(201, 165),15	136,(201, 24),15	166,(201, 195),15	
91,(201, 173),15	106,(201, 178),15	121,(201, 37),15	
1,(201, 122),15	31,(201, 98),15	61,(201, 89),15	151,(201, 194),15	
# Outgoing
1,(201, 122),15	16,(201, 109),15	31,(201, 98),15	46,(201, 88),15	61,(201, 89),15	76,(201, 165),15	91,(201, 173),15	106,(201, 178),15	121,(201, 37),15	136,(201, 24),15	151,(201, 194),15	166,(201, 195),15	
32,(109, 0),3	62,(88, 0),3	92,(165, 0),3	152,(24, 0),3	182,(195, 0),3	
107,(173, 0),3	122,(178, 0),3	137,(37, 0),3	
17,(122, 0),3	47,(98, 0),3	77,(89, 0),3	167,(194, 0),3	
