201
# CPU
0,0,1	1,139,1	2,138,1	3,140,1	4,137,1	5,136,1	6,135,1	7,141,1	8,134,1	9,133,1	10,132,1	11,142,1	12,131,1	13,130,1	14,129,1	15,143,1	16,128,1	17,144,1	18,127,1	19,145,1	20,126,1	21,125,1	22,124,1	23,146,1	24,123,1	25,122,1	26,121,1	27,147,1	28,120,1	29,119,1	30,118,1	31,148,1	32,117,1	33,149,1	34,116,1	35,150,1	36,115,1	37,114,1	38,113,1	39,151,1	40,112,1	41,111,1	42,110,1	43,152,1	44,109,1	45,108,1	46,107,1	47,153,1	48,106,1	49,154,1	50,105,1	51,155,1	52,104,1	53,103,1	54,102,1	55,156,1	56,101,1	57,100,1	58,99,1	59,157,1	60,98,1	61,97,1	62,96,1	63,158,1	64,95,1	65,159,1	66,94,1	67,160,1	68,93,1	69,92,1	70,91,1	71,161,1	72,90,1	73,81,1	74,80,1	75,82,1	76,79,1	77,78,1	78,77,1	79,83,1	80,76,1	81,84,1	82,75,1	83,85,1	84,74,1	85,73,1	86,72,1	87,86,1	88,71,1	89,87,1	90,70,1	91,88,1	92,69,1	93,68,1	94,67,1	95,89,1	96,66,1	97,162,1	98,65,1	99,163,1	100,64,1	101,63,1	102,62,1	103,164,1	104,61,1	105,165,1	106,60,1	107,166,1	108,59,1	109,58,1	110,57,1	111,167,1	112,56,1	113,168,1	114,55,1	115,169,1	116,54,1	117,53,1	118,52,1	119,170,1	120,51,1	121,171,1	122,50,1	123,172,1	124,49,1	125,48,1	126,47,1	127,173,1	128,46,1	129,174,1	130,45,1	131,23,1	132,28,1	133,44,1	134,175,1	135,43,1	136,185,1	137,184,1	138,186,1	139,183,1	140,182,1	141,181,1	142,187,1	143,180,1	144,178,1	145,177,1	146,188,1	147,176,1	148,42,1	149,41,1	150,189,1	151,40,1	152,39,1	153,38,1	154,190,1	155,37,1	156,36,1	157,35,1	158,191,1	159,34,1	160,33,1	161,32,1	162,192,1	163,31,1	164,30,1	165,29,1	166,193,1	167,27,1	168,17,1	169,16,1	170,18,1	171,15,1	172,19,1	173,14,1	174,20,1	175,13,1	176,21,1	177,12,1	178,22,1	179,11,1	180,24,1	181,10,1	182,25,1	183,9,1	184,1,1	185,2,1	186,3,1	187,4,1	188,5,1	189,6,1	190,7,1	191,8,1	192,26,1	193,194,1	194,195,1	195,196,1	196,197,1	197,198,1	198,199,1	199,200,1	200,201,1	

131,179,1	
# Incoming
132,(179, 201),20	

1,(0, 179),130	
# Outgoing
1,(0, 179),130	

132,(179, 201),20	
