802
# CPU
0,201,1	1,200,4	5,138,4	9,139,4	13,137,4	17,136,4	21,135,4	25,140,4	29,134,4	33,133,4	37,132,4	41,141,4	45,131,4	49,130,4	53,129,4	57,142,4	61,128,4	65,143,4	69,127,4	73,144,4	77,126,4	81,125,4	85,124,4	89,145,4	93,123,4	97,122,4	101,121,4	105,146,4	109,120,4	113,119,4	117,118,4	121,147,4	125,117,4	129,148,4	133,116,4	137,149,4	141,115,4	145,114,4	149,113,4	153,150,4	157,112,4	161,111,4	165,110,4	169,151,4	173,109,4	177,108,4	181,107,4	185,152,4	189,106,4	193,153,4	197,105,4	201,154,4	205,104,4	209,103,4	213,102,4	217,155,4	221,101,4	225,100,4	229,99,4	233,156,4	237,98,4	241,97,4	245,96,4	249,157,4	253,95,4	257,158,4	261,94,4	265,159,4	269,93,4	273,92,4	277,91,4	281,160,4	285,90,4	289,81,4	293,80,4	297,82,4	301,79,4	305,78,4	309,77,4	313,83,4	317,76,4	321,84,4	325,75,4	329,85,4	333,74,4	337,73,4	341,72,4	345,86,4	349,71,4	353,87,4	357,70,4	361,88,4	365,69,4	369,68,4	373,67,4	377,89,4	381,66,4	385,161,4	389,65,4	393,162,4	397,64,4	401,63,4	405,62,4	409,163,4	413,61,4	417,164,4	421,60,4	425,165,4	429,59,4	433,58,4	437,57,4	441,166,4	445,56,4	449,167,4	453,55,4	457,168,4	461,54,4	465,53,4	469,52,4	473,169,4	477,51,4	481,170,4	485,50,4	489,171,4	493,49,4	497,48,4	501,47,4	505,172,4	509,46,4	513,173,4	517,45,4	521,174,4	525,44,4	529,43,4	533,42,4	537,175,4	541,41,4	545,184,4	549,183,4	553,185,4	557,182,4	561,181,4	565,180,4	569,186,4	573,179,4	577,178,4	581,177,4	585,187,4	589,176,4	593,40,4	597,39,4	601,188,4	605,38,4	609,37,4	613,36,4	617,189,4	621,35,4	625,34,4	629,33,4	633,190,4	637,32,4	641,31,4	645,30,4	649,191,4	653,29,4	657,28,4	661,27,4	665,192,4	669,26,4	673,17,4	677,16,4	681,18,4	685,15,4	689,19,4	693,14,4	697,20,4	701,13,4	705,21,4	709,12,4	713,22,4	717,11,4	721,23,4	725,10,4	729,24,4	733,9,4	737,1,4	741,2,4	745,3,4	749,4,4	753,5,4	757,6,4	761,7,4	765,8,4	769,25,4	773,193,4	777,194,4	781,195,4	785,196,4	789,197,4	793,198,4	797,199,4	801,0,1	
# Incoming

# Outgoing

