3642
# CPU
37,4,28	73,8,28	109,12,28	145,16,28	181,20,28	217,24,28	253,28,28	289,32,28	325,36,28	361,40,28	397,44,28	433,48,28	469,52,28	505,56,28	541,60,28	577,64,28	613,68,28	649,72,28	685,76,28	721,80,28	757,84,28	793,88,28	829,92,28	865,96,28	901,100,28	937,104,28	973,108,28	1009,112,28	1045,116,28	1081,120,28	1117,124,28	1153,128,28	1189,132,28	1225,136,28	1261,140,28	1297,144,28	1333,148,28	1369,152,28	1405,156,28	1441,160,28	1477,164,28	1513,168,28	1549,172,28	1585,176,28	1621,180,28	1657,184,28	1693,188,28	1729,192,28	1765,196,28	1801,200,28	
25,3,28	61,7,28	97,11,28	133,15,28	169,19,28	205,23,28	241,27,28	277,31,28	313,35,28	349,39,28	385,43,28	421,47,28	457,51,28	493,55,28	529,59,28	565,63,28	601,67,28	637,71,28	673,75,28	709,79,28	745,83,28	781,87,28	817,91,28	853,95,28	889,99,28	925,103,28	961,107,28	997,111,28	1033,115,28	1069,119,28	1105,123,28	1141,127,28	1177,131,28	1213,135,28	1249,139,28	1285,143,28	1321,147,28	1357,151,28	1393,155,28	1429,159,28	1465,163,28	1501,167,28	1537,171,28	1573,175,28	1609,179,28	1645,183,28	1681,187,28	1717,191,28	1753,195,28	1789,199,28	
13,2,28	49,6,28	85,10,28	121,14,28	157,18,28	193,22,28	229,26,28	265,30,28	301,34,28	337,38,28	373,42,28	409,46,28	445,50,28	481,54,28	517,58,28	553,62,28	589,66,28	625,70,28	661,74,28	697,78,28	733,82,28	769,86,28	805,90,28	841,94,28	877,98,28	913,102,28	949,106,28	985,110,28	1021,114,28	1057,118,28	1093,122,28	1129,126,28	1165,130,28	1201,134,28	1237,138,28	1273,142,28	1309,146,28	1345,150,28	1381,154,28	1417,158,28	1453,162,28	1489,166,28	1525,170,28	1561,174,28	1597,178,28	1633,182,28	1669,186,28	1705,190,28	1741,194,28	1777,198,28	
0,0,1	1,1,28	29,9,28	57,25,28	85,57,28	113,121,28	141,197,28	169,193,28	197,189,28	225,185,28	253,181,28	281,177,28	309,173,28	337,169,28	365,165,28	393,161,28	421,157,28	449,153,28	477,149,28	505,145,28	533,141,28	561,137,28	589,133,28	617,129,28	645,117,28	673,125,28	701,113,28	729,109,28	757,105,28	785,101,28	813,97,28	841,93,28	869,89,28	897,85,28	925,81,28	953,77,28	981,73,28	1009,69,28	1037,65,28	1065,53,28	1093,61,28	1121,49,28	1149,45,28	1177,41,28	1205,37,28	1233,33,28	1261,21,28	1289,29,28	1317,17,28	1345,5,28	1373,13,28	3641,201,1	
# Incoming
25,(0, 4),12	61,(0, 8),12	97,(0, 12),12	133,(0, 16),12	169,(0, 20),12	205,(0, 24),12	241,(0, 28),12	277,(0, 32),12	313,(0, 36),12	349,(0, 40),12	385,(0, 44),12	421,(0, 48),12	457,(0, 52),12	493,(0, 56),12	529,(0, 60),12	565,(0, 64),12	601,(0, 68),12	637,(0, 72),12	673,(0, 76),12	709,(0, 80),12	745,(0, 84),12	781,(0, 88),12	817,(0, 92),12	853,(0, 96),12	889,(0, 100),12	925,(0, 104),12	961,(0, 108),12	997,(0, 112),12	1033,(0, 116),12	1069,(0, 120),12	1105,(0, 124),12	1141,(0, 128),12	1177,(0, 132),12	1213,(0, 136),12	1249,(0, 140),12	1285,(0, 144),12	1321,(0, 148),12	1357,(0, 152),12	1393,(0, 156),12	1429,(0, 160),12	1465,(0, 164),12	1501,(0, 168),12	1537,(0, 172),12	1573,(0, 176),12	1609,(0, 180),12	1645,(0, 184),12	1681,(0, 188),12	1717,(0, 192),12	1753,(0, 196),12	1789,(0, 200),12	
13,(0, 3),12	49,(0, 7),12	85,(0, 11),12	121,(0, 15),12	157,(0, 19),12	193,(0, 23),12	229,(0, 27),12	265,(0, 31),12	301,(0, 35),12	337,(0, 39),12	373,(0, 43),12	409,(0, 47),12	445,(0, 51),12	481,(0, 55),12	517,(0, 59),12	553,(0, 63),12	589,(0, 67),12	625,(0, 71),12	661,(0, 75),12	697,(0, 79),12	733,(0, 83),12	769,(0, 87),12	805,(0, 91),12	841,(0, 95),12	877,(0, 99),12	913,(0, 103),12	949,(0, 107),12	985,(0, 111),12	1021,(0, 115),12	1057,(0, 119),12	1093,(0, 123),12	1129,(0, 127),12	1165,(0, 131),12	1201,(0, 135),12	1237,(0, 139),12	1273,(0, 143),12	1309,(0, 147),12	1345,(0, 151),12	1381,(0, 155),12	1417,(0, 159),12	1453,(0, 163),12	1489,(0, 167),12	1525,(0, 171),12	1561,(0, 175),12	1597,(0, 179),12	1633,(0, 183),12	1669,(0, 187),12	1705,(0, 191),12	1741,(0, 195),12	1777,(0, 199),12	
1,(0, 2),12	37,(0, 6),12	73,(0, 10),12	109,(0, 14),12	145,(0, 18),12	181,(0, 22),12	217,(0, 26),12	253,(0, 30),12	289,(0, 34),12	325,(0, 38),12	361,(0, 42),12	397,(0, 46),12	433,(0, 50),12	469,(0, 54),12	505,(0, 58),12	541,(0, 62),12	577,(0, 66),12	613,(0, 70),12	649,(0, 74),12	685,(0, 78),12	721,(0, 82),12	757,(0, 86),12	793,(0, 90),12	829,(0, 94),12	865,(0, 98),12	901,(0, 102),12	937,(0, 106),12	973,(0, 110),12	1009,(0, 114),12	1045,(0, 118),12	1081,(0, 122),12	1117,(0, 126),12	1153,(0, 130),12	1189,(0, 134),12	1225,(0, 138),12	1261,(0, 142),12	1297,(0, 146),12	1333,(0, 150),12	1369,(0, 154),12	1405,(0, 158),12	1441,(0, 162),12	1477,(0, 166),12	1513,(0, 170),12	1549,(0, 174),12	1585,(0, 178),12	1621,(0, 182),12	1657,(0, 186),12	1693,(0, 190),12	1729,(0, 194),12	1765,(0, 198),12	
41,(2, 201),24	65,(3, 201),24	89,(4, 201),24	113,(6, 201),24	137,(7, 201),24	161,(8, 201),24	185,(10, 201),24	209,(11, 201),24	233,(12, 201),24	257,(14, 201),24	281,(15, 201),24	305,(16, 201),24	329,(18, 201),24	353,(19, 201),24	377,(20, 201),24	401,(22, 201),24	425,(23, 201),24	449,(24, 201),24	473,(26, 201),24	497,(27, 201),24	521,(28, 201),24	545,(30, 201),24	569,(31, 201),24	593,(32, 201),24	617,(34, 201),24	641,(35, 201),24	665,(36, 201),24	689,(38, 201),24	713,(39, 201),24	737,(40, 201),24	761,(42, 201),24	785,(43, 201),24	809,(44, 201),24	833,(46, 201),24	857,(47, 201),24	881,(48, 201),24	905,(50, 201),24	929,(51, 201),24	953,(52, 201),24	977,(54, 201),24	1001,(55, 201),24	1025,(56, 201),24	1049,(58, 201),24	1073,(59, 201),24	1097,(60, 201),24	1121,(62, 201),24	1145,(63, 201),24	1169,(64, 201),24	1193,(66, 201),24	1217,(67, 201),24	1241,(68, 201),24	1265,(70, 201),24	1289,(71, 201),24	1313,(72, 201),24	1337,(74, 201),24	1361,(75, 201),24	1385,(76, 201),24	1409,(78, 201),24	1433,(79, 201),24	1457,(80, 201),24	1481,(82, 201),24	1505,(83, 201),24	1529,(84, 201),24	1553,(86, 201),24	1577,(87, 201),24	1601,(88, 201),24	1625,(90, 201),24	1649,(91, 201),24	1673,(92, 201),24	1697,(94, 201),24	1721,(95, 201),24	1745,(96, 201),24	1769,(98, 201),24	1793,(99, 201),24	1817,(100, 201),24	1841,(102, 201),24	1865,(103, 201),24	1889,(104, 201),24	1913,(106, 201),24	1937,(107, 201),24	1961,(108, 201),24	1985,(110, 201),24	2009,(111, 201),24	2033,(112, 201),24	2057,(114, 201),24	2081,(115, 201),24	2105,(116, 201),24	2129,(118, 201),24	2153,(119, 201),24	2177,(120, 201),24	2201,(122, 201),24	2225,(123, 201),24	2249,(124, 201),24	2273,(126, 201),24	2297,(127, 201),24	2321,(128, 201),24	2345,(130, 201),24	2369,(131, 201),24	2393,(132, 201),24	2417,(134, 201),24	2441,(135, 201),24	2465,(136, 201),24	2489,(138, 201),24	2513,(139, 201),24	2537,(140, 201),24	2561,(142, 201),24	2585,(143, 201),24	2609,(144, 201),24	2633,(146, 201),24	2657,(147, 201),24	2681,(148, 201),24	2705,(150, 201),24	2729,(151, 201),24	2753,(152, 201),24	2777,(154, 201),24	2801,(155, 201),24	2825,(156, 201),24	2849,(158, 201),24	2873,(159, 201),24	2897,(160, 201),24	2921,(162, 201),24	2945,(163, 201),24	2969,(164, 201),24	2993,(166, 201),24	3017,(167, 201),24	3041,(168, 201),24	3065,(170, 201),24	3089,(171, 201),24	3113,(172, 201),24	3137,(174, 201),24	3161,(175, 201),24	3185,(176, 201),24	3209,(178, 201),24	3233,(179, 201),24	3257,(180, 201),24	3281,(182, 201),24	3305,(183, 201),24	3329,(184, 201),24	3353,(186, 201),24	3377,(187, 201),24	3401,(188, 201),24	3425,(190, 201),24	3449,(191, 201),24	3473,(192, 201),24	3497,(194, 201),24	3521,(195, 201),24	3545,(196, 201),24	3569,(198, 201),24	3593,(199, 201),24	3617,(200, 201),24	
# Outgoing
89,(4, 201),24	161,(8, 201),24	233,(12, 201),24	305,(16, 201),24	377,(20, 201),24	449,(24, 201),24	521,(28, 201),24	593,(32, 201),24	665,(36, 201),24	737,(40, 201),24	809,(44, 201),24	881,(48, 201),24	953,(52, 201),24	1025,(56, 201),24	1097,(60, 201),24	1169,(64, 201),24	1241,(68, 201),24	1313,(72, 201),24	1385,(76, 201),24	1457,(80, 201),24	1529,(84, 201),24	1601,(88, 201),24	1673,(92, 201),24	1745,(96, 201),24	1817,(100, 201),24	1889,(104, 201),24	1961,(108, 201),24	2033,(112, 201),24	2105,(116, 201),24	2177,(120, 201),24	2249,(124, 201),24	2321,(128, 201),24	2393,(132, 201),24	2465,(136, 201),24	2537,(140, 201),24	2609,(144, 201),24	2681,(148, 201),24	2753,(152, 201),24	2825,(156, 201),24	2897,(160, 201),24	2969,(164, 201),24	3041,(168, 201),24	3113,(172, 201),24	3185,(176, 201),24	3257,(180, 201),24	3329,(184, 201),24	3401,(188, 201),24	3473,(192, 201),24	3545,(196, 201),24	3617,(200, 201),24	
65,(3, 201),24	137,(7, 201),24	209,(11, 201),24	281,(15, 201),24	353,(19, 201),24	425,(23, 201),24	497,(27, 201),24	569,(31, 201),24	641,(35, 201),24	713,(39, 201),24	785,(43, 201),24	857,(47, 201),24	929,(51, 201),24	1001,(55, 201),24	1073,(59, 201),24	1145,(63, 201),24	1217,(67, 201),24	1289,(71, 201),24	1361,(75, 201),24	1433,(79, 201),24	1505,(83, 201),24	1577,(87, 201),24	1649,(91, 201),24	1721,(95, 201),24	1793,(99, 201),24	1865,(103, 201),24	1937,(107, 201),24	2009,(111, 201),24	2081,(115, 201),24	2153,(119, 201),24	2225,(123, 201),24	2297,(127, 201),24	2369,(131, 201),24	2441,(135, 201),24	2513,(139, 201),24	2585,(143, 201),24	2657,(147, 201),24	2729,(151, 201),24	2801,(155, 201),24	2873,(159, 201),24	2945,(163, 201),24	3017,(167, 201),24	3089,(171, 201),24	3161,(175, 201),24	3233,(179, 201),24	3305,(183, 201),24	3377,(187, 201),24	3449,(191, 201),24	3521,(195, 201),24	3593,(199, 201),24	
41,(2, 201),24	113,(6, 201),24	185,(10, 201),24	257,(14, 201),24	329,(18, 201),24	401,(22, 201),24	473,(26, 201),24	545,(30, 201),24	617,(34, 201),24	689,(38, 201),24	761,(42, 201),24	833,(46, 201),24	905,(50, 201),24	977,(54, 201),24	1049,(58, 201),24	1121,(62, 201),24	1193,(66, 201),24	1265,(70, 201),24	1337,(74, 201),24	1409,(78, 201),24	1481,(82, 201),24	1553,(86, 201),24	1625,(90, 201),24	1697,(94, 201),24	1769,(98, 201),24	1841,(102, 201),24	1913,(106, 201),24	1985,(110, 201),24	2057,(114, 201),24	2129,(118, 201),24	2201,(122, 201),24	2273,(126, 201),24	2345,(130, 201),24	2417,(134, 201),24	2489,(138, 201),24	2561,(142, 201),24	2633,(146, 201),24	2705,(150, 201),24	2777,(154, 201),24	2849,(158, 201),24	2921,(162, 201),24	2993,(166, 201),24	3065,(170, 201),24	3137,(174, 201),24	3209,(178, 201),24	3281,(182, 201),24	3353,(186, 201),24	3425,(190, 201),24	3497,(194, 201),24	3569,(198, 201),24	
1,(0, 2),12	13,(0, 3),12	25,(0, 4),12	37,(0, 6),12	49,(0, 7),12	61,(0, 8),12	73,(0, 10),12	85,(0, 11),12	97,(0, 12),12	109,(0, 14),12	121,(0, 15),12	133,(0, 16),12	145,(0, 18),12	157,(0, 19),12	169,(0, 20),12	181,(0, 22),12	193,(0, 23),12	205,(0, 24),12	217,(0, 26),12	229,(0, 27),12	241,(0, 28),12	253,(0, 30),12	265,(0, 31),12	277,(0, 32),12	289,(0, 34),12	301,(0, 35),12	313,(0, 36),12	325,(0, 38),12	337,(0, 39),12	349,(0, 40),12	361,(0, 42),12	373,(0, 43),12	385,(0, 44),12	397,(0, 46),12	409,(0, 47),12	421,(0, 48),12	433,(0, 50),12	445,(0, 51),12	457,(0, 52),12	469,(0, 54),12	481,(0, 55),12	493,(0, 56),12	505,(0, 58),12	517,(0, 59),12	529,(0, 60),12	541,(0, 62),12	553,(0, 63),12	565,(0, 64),12	577,(0, 66),12	589,(0, 67),12	601,(0, 68),12	613,(0, 70),12	625,(0, 71),12	637,(0, 72),12	649,(0, 74),12	661,(0, 75),12	673,(0, 76),12	685,(0, 78),12	697,(0, 79),12	709,(0, 80),12	721,(0, 82),12	733,(0, 83),12	745,(0, 84),12	757,(0, 86),12	769,(0, 87),12	781,(0, 88),12	793,(0, 90),12	805,(0, 91),12	817,(0, 92),12	829,(0, 94),12	841,(0, 95),12	853,(0, 96),12	865,(0, 98),12	877,(0, 99),12	889,(0, 100),12	901,(0, 102),12	913,(0, 103),12	925,(0, 104),12	937,(0, 106),12	949,(0, 107),12	961,(0, 108),12	973,(0, 110),12	985,(0, 111),12	997,(0, 112),12	1009,(0, 114),12	1021,(0, 115),12	1033,(0, 116),12	1045,(0, 118),12	1057,(0, 119),12	1069,(0, 120),12	1081,(0, 122),12	1093,(0, 123),12	1105,(0, 124),12	1117,(0, 126),12	1129,(0, 127),12	1141,(0, 128),12	1153,(0, 130),12	1165,(0, 131),12	1177,(0, 132),12	1189,(0, 134),12	1201,(0, 135),12	1213,(0, 136),12	1225,(0, 138),12	1237,(0, 139),12	1249,(0, 140),12	1261,(0, 142),12	1273,(0, 143),12	1285,(0, 144),12	1297,(0, 146),12	1309,(0, 147),12	1321,(0, 148),12	1333,(0, 150),12	1345,(0, 151),12	1357,(0, 152),12	1369,(0, 154),12	1381,(0, 155),12	1393,(0, 156),12	1405,(0, 158),12	1417,(0, 159),12	1429,(0, 160),12	1441,(0, 162),12	1453,(0, 163),12	1465,(0, 164),12	1477,(0, 166),12	1489,(0, 167),12	1501,(0, 168),12	1513,(0, 170),12	1525,(0, 171),12	1537,(0, 172),12	1549,(0, 174),12	1561,(0, 175),12	1573,(0, 176),12	1585,(0, 178),12	1597,(0, 179),12	1609,(0, 180),12	1621,(0, 182),12	1633,(0, 183),12	1645,(0, 184),12	1657,(0, 186),12	1669,(0, 187),12	1681,(0, 188),12	1693,(0, 190),12	1705,(0, 191),12	1717,(0, 192),12	1729,(0, 194),12	1741,(0, 195),12	1753,(0, 196),12	1765,(0, 198),12	1777,(0, 199),12	1789,(0, 200),12	
