34
# CPU
0,21,1	1,20,2	3,10,2	5,11,2	7,9,2	9,1,2	11,2,2	13,3,2	15,4,2	17,5,2	19,6,2	21,7,2	23,8,2	25,12,2	27,13,2	29,16,2	31,17,2	33,0,1	
29,19,2	


8,15,2	

22,18,2	

15,14,2	

# Incoming
10,(15, 0),1	17,(14, 0),1	24,(18, 0),1	31,(19, 0),1	
22,(21, 19),7	


1,(21, 15),7	

15,(21, 18),7	

8,(21, 14),7	

# Outgoing
1,(21, 15),7	8,(21, 14),7	15,(21, 18),7	22,(21, 19),7	
31,(19, 0),1	


10,(15, 0),1	

24,(18, 0),1	

17,(14, 0),1	

