3022
# CPU
0,201,1	1,200,28	29,138,28	57,139,28	85,137,28	113,140,28	141,136,28	169,141,28	197,135,28	225,142,28	253,143,28	281,144,28	309,134,28	337,133,28	365,145,28	393,132,28	421,146,28	449,131,28	477,147,28	505,148,28	533,149,28	561,128,28	589,150,28	617,123,28	645,151,28	673,120,28	701,152,28	729,153,28	757,154,28	785,118,28	813,113,28	841,155,28	869,110,28	897,156,28	925,107,28	953,157,28	981,158,28	1009,159,28	1037,102,28	1065,160,28	1093,81,28	1121,80,28	1149,78,28	1177,77,28	1205,76,28	1233,75,28	1261,74,28	1289,72,28	1317,71,28	1345,70,28	1373,69,28	1401,67,28	1429,66,28	1457,68,28	1485,65,28	1513,63,28	1541,62,28	1569,61,28	1597,60,28	1625,58,28	1653,57,28	1681,56,28	1709,55,28	1737,54,28	1765,52,28	1793,51,28	1821,50,28	1849,49,28	1877,47,28	1905,48,28	1933,46,28	1961,45,28	1989,43,28	2017,42,28	2045,184,28	2073,185,28	2101,183,28	2129,182,28	2157,186,28	2185,181,28	2213,187,28	2241,64,28	2269,188,28	2297,59,28	2325,189,28	2353,53,28	2381,190,28	2409,44,28	2437,191,28	2465,41,28	2493,192,28	2521,17,28	2549,16,28	2577,15,28	2605,14,28	2633,13,28	2661,12,28	2689,11,28	2717,10,28	2745,9,28	2773,1,28	2801,2,28	2829,3,28	2857,4,28	2885,5,28	2913,7,28	2941,196,28	2969,198,28	3021,0,1	
161,125,28	193,124,28	257,121,28	385,115,28	417,114,28	481,111,28	545,108,28	641,104,28	673,103,28	737,100,28	769,98,28	865,94,28	897,93,28	961,90,28	993,88,28	1025,87,28	1121,161,28	1153,162,28	1217,163,28	1249,164,28	1313,165,28	1409,167,28	1441,168,28	1537,170,28	1601,171,28	1633,172,28	1697,173,28	1729,174,28	1793,175,28	1921,178,28	2017,180,28	2081,39,28	2113,37,28	2145,36,28	2241,32,28	2273,31,28	2337,28,28	2433,24,28	2465,23,28	2561,193,28	2625,194,28	2689,195,28	2753,18,28	2881,6,28	2913,8,28	2945,197,28	2977,199,28	
33,130,28	65,129,28	97,127,28	129,126,28	225,122,28	289,119,28	321,117,28	353,116,28	449,112,28	513,109,28	577,106,28	609,105,28	705,101,28	801,96,28	833,95,28	929,91,28	1057,85,28	1089,99,28	1185,97,28	1281,92,28	1345,89,28	1377,166,28	1473,86,28	1505,169,28	1569,84,28	1665,83,28	1761,82,28	1825,79,28	1857,176,28	1889,177,28	1953,73,28	1985,179,28	2049,40,28	2177,34,28	2209,33,28	2305,29,28	2369,26,28	2401,25,28	2497,21,28	2529,38,28	2593,35,28	2657,30,28	2721,27,28	2785,19,28	2817,20,28	2849,22,28	
# Incoming
61,(130, 0),16	93,(129, 0),16	125,(127, 0),16	157,(126, 0),16	189,(125, 0),16	221,(124, 0),16	253,(122, 0),16	285,(121, 0),16	317,(119, 0),16	349,(117, 0),16	381,(116, 0),16	413,(115, 0),16	445,(114, 0),16	477,(112, 0),16	509,(111, 0),16	541,(109, 0),16	573,(108, 0),16	605,(106, 0),16	637,(105, 0),16	669,(104, 0),16	701,(103, 0),16	733,(101, 0),16	765,(100, 0),16	797,(98, 0),16	829,(96, 0),16	861,(95, 0),16	893,(94, 0),16	925,(93, 0),16	957,(91, 0),16	989,(90, 0),16	1021,(88, 0),16	1053,(87, 0),16	1085,(85, 0),16	1117,(99, 0),16	1149,(161, 0),16	1181,(162, 0),16	1213,(97, 0),16	1245,(163, 0),16	1277,(164, 0),16	1309,(92, 0),16	1341,(165, 0),16	1373,(89, 0),16	1405,(166, 0),16	1437,(167, 0),16	1469,(168, 0),16	1501,(86, 0),16	1533,(169, 0),16	1565,(170, 0),16	1597,(84, 0),16	1629,(171, 0),16	1661,(172, 0),16	1693,(83, 0),16	1725,(173, 0),16	1757,(174, 0),16	1789,(82, 0),16	1821,(175, 0),16	1853,(79, 0),16	1885,(176, 0),16	1917,(177, 0),16	1949,(178, 0),16	1981,(73, 0),16	2013,(179, 0),16	2045,(180, 0),16	2077,(40, 0),16	2109,(39, 0),16	2141,(37, 0),16	2173,(36, 0),16	2205,(34, 0),16	2237,(33, 0),16	2269,(32, 0),16	2301,(31, 0),16	2333,(29, 0),16	2365,(28, 0),16	2397,(26, 0),16	2429,(25, 0),16	2461,(24, 0),16	2493,(23, 0),16	2525,(21, 0),16	2557,(38, 0),16	2589,(193, 0),16	2621,(35, 0),16	2653,(194, 0),16	2685,(30, 0),16	2717,(195, 0),16	2749,(27, 0),16	2781,(18, 0),16	2813,(19, 0),16	2845,(20, 0),16	2877,(22, 0),16	2909,(6, 0),16	2941,(8, 0),16	2973,(197, 0),16	3005,(199, 0),16	
129,(201, 125),32	161,(201, 124),32	225,(201, 121),32	353,(201, 115),32	385,(201, 114),32	449,(201, 111),32	513,(201, 108),32	609,(201, 104),32	641,(201, 103),32	705,(201, 100),32	737,(201, 98),32	833,(201, 94),32	865,(201, 93),32	929,(201, 90),32	961,(201, 88),32	993,(201, 87),32	1089,(201, 161),32	1121,(201, 162),32	1185,(201, 163),32	1217,(201, 164),32	1281,(201, 165),32	1377,(201, 167),32	1409,(201, 168),32	1505,(201, 170),32	1569,(201, 171),32	1601,(201, 172),32	1665,(201, 173),32	1697,(201, 174),32	1761,(201, 175),32	1889,(201, 178),32	1985,(201, 180),32	2049,(201, 39),32	2081,(201, 37),32	2113,(201, 36),32	2209,(201, 32),32	2241,(201, 31),32	2305,(201, 28),32	2401,(201, 24),32	2433,(201, 23),32	2529,(201, 193),32	2593,(201, 194),32	2657,(201, 195),32	2721,(201, 18),32	2849,(201, 6),32	2881,(201, 8),32	2913,(201, 197),32	2945,(201, 199),32	
1,(201, 130),32	33,(201, 129),32	65,(201, 127),32	97,(201, 126),32	193,(201, 122),32	257,(201, 119),32	289,(201, 117),32	321,(201, 116),32	417,(201, 112),32	481,(201, 109),32	545,(201, 106),32	577,(201, 105),32	673,(201, 101),32	769,(201, 96),32	801,(201, 95),32	897,(201, 91),32	1025,(201, 85),32	1057,(201, 99),32	1153,(201, 97),32	1249,(201, 92),32	1313,(201, 89),32	1345,(201, 166),32	1441,(201, 86),32	1473,(201, 169),32	1537,(201, 84),32	1633,(201, 83),32	1729,(201, 82),32	1793,(201, 79),32	1825,(201, 176),32	1857,(201, 177),32	1921,(201, 73),32	1953,(201, 179),32	2017,(201, 40),32	2145,(201, 34),32	2177,(201, 33),32	2273,(201, 29),32	2337,(201, 26),32	2369,(201, 25),32	2465,(201, 21),32	2497,(201, 38),32	2561,(201, 35),32	2625,(201, 30),32	2689,(201, 27),32	2753,(201, 19),32	2785,(201, 20),32	2817,(201, 22),32	
# Outgoing
1,(201, 130),32	33,(201, 129),32	65,(201, 127),32	97,(201, 126),32	129,(201, 125),32	161,(201, 124),32	193,(201, 122),32	225,(201, 121),32	257,(201, 119),32	289,(201, 117),32	321,(201, 116),32	353,(201, 115),32	385,(201, 114),32	417,(201, 112),32	449,(201, 111),32	481,(201, 109),32	513,(201, 108),32	545,(201, 106),32	577,(201, 105),32	609,(201, 104),32	641,(201, 103),32	673,(201, 101),32	705,(201, 100),32	737,(201, 98),32	769,(201, 96),32	801,(201, 95),32	833,(201, 94),32	865,(201, 93),32	897,(201, 91),32	929,(201, 90),32	961,(201, 88),32	993,(201, 87),32	1025,(201, 85),32	1057,(201, 99),32	1089,(201, 161),32	1121,(201, 162),32	1153,(201, 97),32	1185,(201, 163),32	1217,(201, 164),32	1249,(201, 92),32	1281,(201, 165),32	1313,(201, 89),32	1345,(201, 166),32	1377,(201, 167),32	1409,(201, 168),32	1441,(201, 86),32	1473,(201, 169),32	1505,(201, 170),32	1537,(201, 84),32	1569,(201, 171),32	1601,(201, 172),32	1633,(201, 83),32	1665,(201, 173),32	1697,(201, 174),32	1729,(201, 82),32	1761,(201, 175),32	1793,(201, 79),32	1825,(201, 176),32	1857,(201, 177),32	1889,(201, 178),32	1921,(201, 73),32	1953,(201, 179),32	1985,(201, 180),32	2017,(201, 40),32	2049,(201, 39),32	2081,(201, 37),32	2113,(201, 36),32	2145,(201, 34),32	2177,(201, 33),32	2209,(201, 32),32	2241,(201, 31),32	2273,(201, 29),32	2305,(201, 28),32	2337,(201, 26),32	2369,(201, 25),32	2401,(201, 24),32	2433,(201, 23),32	2465,(201, 21),32	2497,(201, 38),32	2529,(201, 193),32	2561,(201, 35),32	2593,(201, 194),32	2625,(201, 30),32	2657,(201, 195),32	2689,(201, 27),32	2721,(201, 18),32	2753,(201, 19),32	2785,(201, 20),32	2817,(201, 22),32	2849,(201, 6),32	2881,(201, 8),32	2913,(201, 197),32	2945,(201, 199),32	
189,(125, 0),16	221,(124, 0),16	285,(121, 0),16	413,(115, 0),16	445,(114, 0),16	509,(111, 0),16	573,(108, 0),16	669,(104, 0),16	701,(103, 0),16	765,(100, 0),16	797,(98, 0),16	893,(94, 0),16	925,(93, 0),16	989,(90, 0),16	1021,(88, 0),16	1053,(87, 0),16	1149,(161, 0),16	1181,(162, 0),16	1245,(163, 0),16	1277,(164, 0),16	1341,(165, 0),16	1437,(167, 0),16	1469,(168, 0),16	1565,(170, 0),16	1629,(171, 0),16	1661,(172, 0),16	1725,(173, 0),16	1757,(174, 0),16	1821,(175, 0),16	1949,(178, 0),16	2045,(180, 0),16	2109,(39, 0),16	2141,(37, 0),16	2173,(36, 0),16	2269,(32, 0),16	2301,(31, 0),16	2365,(28, 0),16	2461,(24, 0),16	2493,(23, 0),16	2589,(193, 0),16	2653,(194, 0),16	2717,(195, 0),16	2781,(18, 0),16	2909,(6, 0),16	2941,(8, 0),16	2973,(197, 0),16	3005,(199, 0),16	
61,(130, 0),16	93,(129, 0),16	125,(127, 0),16	157,(126, 0),16	253,(122, 0),16	317,(119, 0),16	349,(117, 0),16	381,(116, 0),16	477,(112, 0),16	541,(109, 0),16	605,(106, 0),16	637,(105, 0),16	733,(101, 0),16	829,(96, 0),16	861,(95, 0),16	957,(91, 0),16	1085,(85, 0),16	1117,(99, 0),16	1213,(97, 0),16	1309,(92, 0),16	1373,(89, 0),16	1405,(166, 0),16	1501,(86, 0),16	1533,(169, 0),16	1597,(84, 0),16	1693,(83, 0),16	1789,(82, 0),16	1853,(79, 0),16	1885,(176, 0),16	1917,(177, 0),16	1981,(73, 0),16	2013,(179, 0),16	2077,(40, 0),16	2205,(34, 0),16	2237,(33, 0),16	2333,(29, 0),16	2397,(26, 0),16	2429,(25, 0),16	2525,(21, 0),16	2557,(38, 0),16	2621,(35, 0),16	2685,(30, 0),16	2749,(27, 0),16	2813,(19, 0),16	2845,(20, 0),16	2877,(22, 0),16	
