2574
# CPU
25,3,13	49,6,13	73,9,13	97,12,13	121,15,13	145,18,13	169,21,13	193,24,13	217,27,13	241,30,13	265,33,13	289,36,13	313,39,13	337,42,13	361,45,13	385,48,13	409,51,13	433,54,13	457,57,13	481,60,13	505,63,13	529,66,13	553,69,13	577,72,13	601,75,13	625,78,13	649,81,13	673,84,13	697,87,13	721,90,13	745,93,13	769,96,13	793,99,13	817,102,13	841,105,13	865,108,13	889,111,13	913,114,13	937,117,13	961,120,13	985,123,13	1009,126,13	1033,129,13	1057,132,13	1081,135,13	1105,138,13	1129,141,13	1153,144,13	1177,147,13	1201,150,13	1225,153,13	1249,156,13	1273,159,13	1297,162,13	1321,165,13	1345,168,13	1369,171,13	1393,174,13	1417,177,13	1441,180,13	1465,183,13	1489,186,13	1513,189,13	1537,192,13	1561,195,13	1585,198,13	1609,201,13	1633,204,13	1657,207,13	1681,210,13	1705,213,13	1729,216,13	1753,219,13	1777,222,13	1801,225,13	1825,228,13	1849,231,13	1873,234,13	1897,237,13	1921,240,13	1945,243,13	1969,246,13	1993,249,13	2017,252,13	2041,255,13	2065,258,13	2089,261,13	2113,264,13	2137,267,13	2161,270,13	2185,273,13	2209,276,13	2233,279,13	2257,282,13	2281,285,13	2305,288,13	2329,291,13	2353,294,13	2377,297,13	2401,300,13	2425,303,13	2449,306,13	2473,309,13	2497,312,13	2521,315,13	2545,318,13	
13,2,13	37,5,13	61,8,13	85,11,13	109,14,13	133,17,13	157,20,13	181,23,13	205,26,13	229,29,13	253,32,13	277,35,13	301,38,13	325,41,13	349,44,13	373,47,13	397,50,13	421,53,13	445,56,13	469,59,13	493,62,13	517,65,13	541,68,13	565,71,13	589,74,13	613,77,13	637,80,13	661,83,13	685,86,13	709,89,13	733,92,13	757,95,13	781,98,13	805,101,13	829,104,13	853,107,13	877,110,13	901,113,13	925,116,13	949,119,13	973,122,13	997,125,13	1021,128,13	1045,131,13	1069,134,13	1093,137,13	1117,140,13	1141,143,13	1165,146,13	1189,149,13	1213,152,13	1237,155,13	1261,158,13	1285,161,13	1309,164,13	1333,167,13	1357,170,13	1381,173,13	1405,176,13	1429,179,13	1453,182,13	1477,185,13	1501,188,13	1525,191,13	1549,194,13	1573,197,13	1597,200,13	1621,203,13	1645,206,13	1669,209,13	1693,212,13	1717,215,13	1741,218,13	1765,221,13	1789,224,13	1813,227,13	1837,230,13	1861,233,13	1885,236,13	1909,239,13	1933,242,13	1957,245,13	1981,248,13	2005,251,13	2029,254,13	2053,257,13	2077,260,13	2101,263,13	2125,266,13	2149,269,13	2173,272,13	2197,275,13	2221,278,13	2245,281,13	2269,284,13	2293,287,13	2317,290,13	2341,293,13	2365,296,13	2389,299,13	2413,302,13	2437,305,13	2461,308,13	2485,311,13	2509,314,13	2533,317,13	2557,320,13	
0,0,1	1,1,13	14,7,13	27,19,13	40,43,13	53,91,13	66,187,13	79,319,13	92,316,13	105,313,13	118,310,13	131,307,13	144,304,13	157,301,13	170,298,13	183,295,13	196,292,13	209,289,13	222,286,13	235,283,13	248,280,13	261,277,13	274,274,13	287,271,13	300,268,13	313,265,13	326,262,13	339,259,13	352,256,13	365,253,13	378,250,13	391,247,13	404,244,13	417,241,13	430,238,13	443,235,13	456,232,13	469,229,13	482,226,13	495,223,13	508,220,13	521,217,13	534,214,13	547,211,13	560,208,13	573,205,13	586,202,13	599,199,13	612,196,13	625,193,13	638,184,13	651,190,13	664,181,13	677,178,13	690,175,13	703,172,13	716,169,13	729,166,13	742,163,13	755,160,13	768,157,13	781,154,13	794,151,13	807,148,13	820,145,13	833,142,13	846,139,13	859,136,13	872,133,13	885,130,13	898,127,13	911,124,13	924,121,13	937,118,13	950,115,13	963,112,13	976,109,13	989,106,13	1002,103,13	1015,100,13	1028,97,13	1041,88,13	1054,94,13	1067,85,13	1080,82,13	1093,79,13	1106,76,13	1119,73,13	1132,70,13	1145,67,13	1158,64,13	1171,61,13	1184,58,13	1197,55,13	1210,52,13	1223,49,13	1236,40,13	1249,46,13	1262,37,13	1275,34,13	1288,31,13	1301,28,13	1314,25,13	1327,16,13	1340,22,13	1353,13,13	1366,4,13	1379,10,13	2573,321,1	
# Incoming
13,(0, 3),12	37,(0, 6),12	61,(0, 9),12	85,(0, 12),12	109,(0, 15),12	133,(0, 18),12	157,(0, 21),12	181,(0, 24),12	205,(0, 27),12	229,(0, 30),12	253,(0, 33),12	277,(0, 36),12	301,(0, 39),12	325,(0, 42),12	349,(0, 45),12	373,(0, 48),12	397,(0, 51),12	421,(0, 54),12	445,(0, 57),12	469,(0, 60),12	493,(0, 63),12	517,(0, 66),12	541,(0, 69),12	565,(0, 72),12	589,(0, 75),12	613,(0, 78),12	637,(0, 81),12	661,(0, 84),12	685,(0, 87),12	709,(0, 90),12	733,(0, 93),12	757,(0, 96),12	781,(0, 99),12	805,(0, 102),12	829,(0, 105),12	853,(0, 108),12	877,(0, 111),12	901,(0, 114),12	925,(0, 117),12	949,(0, 120),12	973,(0, 123),12	997,(0, 126),12	1021,(0, 129),12	1045,(0, 132),12	1069,(0, 135),12	1093,(0, 138),12	1117,(0, 141),12	1141,(0, 144),12	1165,(0, 147),12	1189,(0, 150),12	1213,(0, 153),12	1237,(0, 156),12	1261,(0, 159),12	1285,(0, 162),12	1309,(0, 165),12	1333,(0, 168),12	1357,(0, 171),12	1381,(0, 174),12	1405,(0, 177),12	1429,(0, 180),12	1453,(0, 183),12	1477,(0, 186),12	1501,(0, 189),12	1525,(0, 192),12	1549,(0, 195),12	1573,(0, 198),12	1597,(0, 201),12	1621,(0, 204),12	1645,(0, 207),12	1669,(0, 210),12	1693,(0, 213),12	1717,(0, 216),12	1741,(0, 219),12	1765,(0, 222),12	1789,(0, 225),12	1813,(0, 228),12	1837,(0, 231),12	1861,(0, 234),12	1885,(0, 237),12	1909,(0, 240),12	1933,(0, 243),12	1957,(0, 246),12	1981,(0, 249),12	2005,(0, 252),12	2029,(0, 255),12	2053,(0, 258),12	2077,(0, 261),12	2101,(0, 264),12	2125,(0, 267),12	2149,(0, 270),12	2173,(0, 273),12	2197,(0, 276),12	2221,(0, 279),12	2245,(0, 282),12	2269,(0, 285),12	2293,(0, 288),12	2317,(0, 291),12	2341,(0, 294),12	2365,(0, 297),12	2389,(0, 300),12	2413,(0, 303),12	2437,(0, 306),12	2461,(0, 309),12	2485,(0, 312),12	2509,(0, 315),12	2533,(0, 318),12	
1,(0, 2),12	25,(0, 5),12	49,(0, 8),12	73,(0, 11),12	97,(0, 14),12	121,(0, 17),12	145,(0, 20),12	169,(0, 23),12	193,(0, 26),12	217,(0, 29),12	241,(0, 32),12	265,(0, 35),12	289,(0, 38),12	313,(0, 41),12	337,(0, 44),12	361,(0, 47),12	385,(0, 50),12	409,(0, 53),12	433,(0, 56),12	457,(0, 59),12	481,(0, 62),12	505,(0, 65),12	529,(0, 68),12	553,(0, 71),12	577,(0, 74),12	601,(0, 77),12	625,(0, 80),12	649,(0, 83),12	673,(0, 86),12	697,(0, 89),12	721,(0, 92),12	745,(0, 95),12	769,(0, 98),12	793,(0, 101),12	817,(0, 104),12	841,(0, 107),12	865,(0, 110),12	889,(0, 113),12	913,(0, 116),12	937,(0, 119),12	961,(0, 122),12	985,(0, 125),12	1009,(0, 128),12	1033,(0, 131),12	1057,(0, 134),12	1081,(0, 137),12	1105,(0, 140),12	1129,(0, 143),12	1153,(0, 146),12	1177,(0, 149),12	1201,(0, 152),12	1225,(0, 155),12	1249,(0, 158),12	1273,(0, 161),12	1297,(0, 164),12	1321,(0, 167),12	1345,(0, 170),12	1369,(0, 173),12	1393,(0, 176),12	1417,(0, 179),12	1441,(0, 182),12	1465,(0, 185),12	1489,(0, 188),12	1513,(0, 191),12	1537,(0, 194),12	1561,(0, 197),12	1585,(0, 200),12	1609,(0, 203),12	1633,(0, 206),12	1657,(0, 209),12	1681,(0, 212),12	1705,(0, 215),12	1729,(0, 218),12	1753,(0, 221),12	1777,(0, 224),12	1801,(0, 227),12	1825,(0, 230),12	1849,(0, 233),12	1873,(0, 236),12	1897,(0, 239),12	1921,(0, 242),12	1945,(0, 245),12	1969,(0, 248),12	1993,(0, 251),12	2017,(0, 254),12	2041,(0, 257),12	2065,(0, 260),12	2089,(0, 263),12	2113,(0, 266),12	2137,(0, 269),12	2161,(0, 272),12	2185,(0, 275),12	2209,(0, 278),12	2233,(0, 281),12	2257,(0, 284),12	2281,(0, 287),12	2305,(0, 290),12	2329,(0, 293),12	2353,(0, 296),12	2377,(0, 299),12	2401,(0, 302),12	2425,(0, 305),12	2449,(0, 308),12	2473,(0, 311),12	2497,(0, 314),12	2521,(0, 317),12	2545,(0, 320),12	
26,(2, 321),3	38,(3, 321),3	50,(5, 321),3	62,(6, 321),3	74,(8, 321),3	86,(9, 321),3	98,(11, 321),3	110,(12, 321),3	122,(14, 321),3	134,(15, 321),3	146,(17, 321),3	158,(18, 321),3	170,(20, 321),3	182,(21, 321),3	194,(23, 321),3	206,(24, 321),3	218,(26, 321),3	230,(27, 321),3	242,(29, 321),3	254,(30, 321),3	266,(32, 321),3	278,(33, 321),3	290,(35, 321),3	302,(36, 321),3	314,(38, 321),3	326,(39, 321),3	338,(41, 321),3	350,(42, 321),3	362,(44, 321),3	374,(45, 321),3	386,(47, 321),3	398,(48, 321),3	410,(50, 321),3	422,(51, 321),3	434,(53, 321),3	446,(54, 321),3	458,(56, 321),3	470,(57, 321),3	482,(59, 321),3	494,(60, 321),3	506,(62, 321),3	518,(63, 321),3	530,(65, 321),3	542,(66, 321),3	554,(68, 321),3	566,(69, 321),3	578,(71, 321),3	590,(72, 321),3	602,(74, 321),3	614,(75, 321),3	626,(77, 321),3	638,(78, 321),3	650,(80, 321),3	662,(81, 321),3	674,(83, 321),3	686,(84, 321),3	698,(86, 321),3	710,(87, 321),3	722,(89, 321),3	734,(90, 321),3	746,(92, 321),3	758,(93, 321),3	770,(95, 321),3	782,(96, 321),3	794,(98, 321),3	806,(99, 321),3	818,(101, 321),3	830,(102, 321),3	842,(104, 321),3	854,(105, 321),3	866,(107, 321),3	878,(108, 321),3	890,(110, 321),3	902,(111, 321),3	914,(113, 321),3	926,(114, 321),3	938,(116, 321),3	950,(117, 321),3	962,(119, 321),3	974,(120, 321),3	986,(122, 321),3	998,(123, 321),3	1010,(125, 321),3	1022,(126, 321),3	1034,(128, 321),3	1046,(129, 321),3	1058,(131, 321),3	1070,(132, 321),3	1082,(134, 321),3	1094,(135, 321),3	1106,(137, 321),3	1118,(138, 321),3	1130,(140, 321),3	1142,(141, 321),3	1154,(143, 321),3	1166,(144, 321),3	1178,(146, 321),3	1190,(147, 321),3	1202,(149, 321),3	1214,(150, 321),3	1226,(152, 321),3	1238,(153, 321),3	1250,(155, 321),3	1262,(156, 321),3	1274,(158, 321),3	1286,(159, 321),3	1298,(161, 321),3	1310,(162, 321),3	1322,(164, 321),3	1334,(165, 321),3	1346,(167, 321),3	1358,(168, 321),3	1370,(170, 321),3	1382,(171, 321),3	1394,(173, 321),3	1406,(174, 321),3	1418,(176, 321),3	1430,(177, 321),3	1442,(179, 321),3	1454,(180, 321),3	1466,(182, 321),3	1478,(183, 321),3	1490,(185, 321),3	1502,(186, 321),3	1514,(188, 321),3	1526,(189, 321),3	1538,(191, 321),3	1550,(192, 321),3	1562,(194, 321),3	1574,(195, 321),3	1586,(197, 321),3	1598,(198, 321),3	1610,(200, 321),3	1622,(201, 321),3	1634,(203, 321),3	1646,(204, 321),3	1658,(206, 321),3	1670,(207, 321),3	1682,(209, 321),3	1694,(210, 321),3	1706,(212, 321),3	1718,(213, 321),3	1730,(215, 321),3	1742,(216, 321),3	1754,(218, 321),3	1766,(219, 321),3	1778,(221, 321),3	1790,(222, 321),3	1802,(224, 321),3	1814,(225, 321),3	1826,(227, 321),3	1838,(228, 321),3	1850,(230, 321),3	1862,(231, 321),3	1874,(233, 321),3	1886,(234, 321),3	1898,(236, 321),3	1910,(237, 321),3	1922,(239, 321),3	1934,(240, 321),3	1946,(242, 321),3	1958,(243, 321),3	1970,(245, 321),3	1982,(246, 321),3	1994,(248, 321),3	2006,(249, 321),3	2018,(251, 321),3	2030,(252, 321),3	2042,(254, 321),3	2054,(255, 321),3	2066,(257, 321),3	2078,(258, 321),3	2090,(260, 321),3	2102,(261, 321),3	2114,(263, 321),3	2126,(264, 321),3	2138,(266, 321),3	2150,(267, 321),3	2162,(269, 321),3	2174,(270, 321),3	2186,(272, 321),3	2198,(273, 321),3	2210,(275, 321),3	2222,(276, 321),3	2234,(278, 321),3	2246,(279, 321),3	2258,(281, 321),3	2270,(282, 321),3	2282,(284, 321),3	2294,(285, 321),3	2306,(287, 321),3	2318,(288, 321),3	2330,(290, 321),3	2342,(291, 321),3	2354,(293, 321),3	2366,(294, 321),3	2378,(296, 321),3	2390,(297, 321),3	2402,(299, 321),3	2414,(300, 321),3	2426,(302, 321),3	2438,(303, 321),3	2450,(305, 321),3	2462,(306, 321),3	2474,(308, 321),3	2486,(309, 321),3	2498,(311, 321),3	2510,(312, 321),3	2522,(314, 321),3	2534,(315, 321),3	2546,(317, 321),3	2558,(318, 321),3	2570,(320, 321),3	
# Outgoing
38,(3, 321),3	62,(6, 321),3	86,(9, 321),3	110,(12, 321),3	134,(15, 321),3	158,(18, 321),3	182,(21, 321),3	206,(24, 321),3	230,(27, 321),3	254,(30, 321),3	278,(33, 321),3	302,(36, 321),3	326,(39, 321),3	350,(42, 321),3	374,(45, 321),3	398,(48, 321),3	422,(51, 321),3	446,(54, 321),3	470,(57, 321),3	494,(60, 321),3	518,(63, 321),3	542,(66, 321),3	566,(69, 321),3	590,(72, 321),3	614,(75, 321),3	638,(78, 321),3	662,(81, 321),3	686,(84, 321),3	710,(87, 321),3	734,(90, 321),3	758,(93, 321),3	782,(96, 321),3	806,(99, 321),3	830,(102, 321),3	854,(105, 321),3	878,(108, 321),3	902,(111, 321),3	926,(114, 321),3	950,(117, 321),3	974,(120, 321),3	998,(123, 321),3	1022,(126, 321),3	1046,(129, 321),3	1070,(132, 321),3	1094,(135, 321),3	1118,(138, 321),3	1142,(141, 321),3	1166,(144, 321),3	1190,(147, 321),3	1214,(150, 321),3	1238,(153, 321),3	1262,(156, 321),3	1286,(159, 321),3	1310,(162, 321),3	1334,(165, 321),3	1358,(168, 321),3	1382,(171, 321),3	1406,(174, 321),3	1430,(177, 321),3	1454,(180, 321),3	1478,(183, 321),3	1502,(186, 321),3	1526,(189, 321),3	1550,(192, 321),3	1574,(195, 321),3	1598,(198, 321),3	1622,(201, 321),3	1646,(204, 321),3	1670,(207, 321),3	1694,(210, 321),3	1718,(213, 321),3	1742,(216, 321),3	1766,(219, 321),3	1790,(222, 321),3	1814,(225, 321),3	1838,(228, 321),3	1862,(231, 321),3	1886,(234, 321),3	1910,(237, 321),3	1934,(240, 321),3	1958,(243, 321),3	1982,(246, 321),3	2006,(249, 321),3	2030,(252, 321),3	2054,(255, 321),3	2078,(258, 321),3	2102,(261, 321),3	2126,(264, 321),3	2150,(267, 321),3	2174,(270, 321),3	2198,(273, 321),3	2222,(276, 321),3	2246,(279, 321),3	2270,(282, 321),3	2294,(285, 321),3	2318,(288, 321),3	2342,(291, 321),3	2366,(294, 321),3	2390,(297, 321),3	2414,(300, 321),3	2438,(303, 321),3	2462,(306, 321),3	2486,(309, 321),3	2510,(312, 321),3	2534,(315, 321),3	2558,(318, 321),3	
26,(2, 321),3	50,(5, 321),3	74,(8, 321),3	98,(11, 321),3	122,(14, 321),3	146,(17, 321),3	170,(20, 321),3	194,(23, 321),3	218,(26, 321),3	242,(29, 321),3	266,(32, 321),3	290,(35, 321),3	314,(38, 321),3	338,(41, 321),3	362,(44, 321),3	386,(47, 321),3	410,(50, 321),3	434,(53, 321),3	458,(56, 321),3	482,(59, 321),3	506,(62, 321),3	530,(65, 321),3	554,(68, 321),3	578,(71, 321),3	602,(74, 321),3	626,(77, 321),3	650,(80, 321),3	674,(83, 321),3	698,(86, 321),3	722,(89, 321),3	746,(92, 321),3	770,(95, 321),3	794,(98, 321),3	818,(101, 321),3	842,(104, 321),3	866,(107, 321),3	890,(110, 321),3	914,(113, 321),3	938,(116, 321),3	962,(119, 321),3	986,(122, 321),3	1010,(125, 321),3	1034,(128, 321),3	1058,(131, 321),3	1082,(134, 321),3	1106,(137, 321),3	1130,(140, 321),3	1154,(143, 321),3	1178,(146, 321),3	1202,(149, 321),3	1226,(152, 321),3	1250,(155, 321),3	1274,(158, 321),3	1298,(161, 321),3	1322,(164, 321),3	1346,(167, 321),3	1370,(170, 321),3	1394,(173, 321),3	1418,(176, 321),3	1442,(179, 321),3	1466,(182, 321),3	1490,(185, 321),3	1514,(188, 321),3	1538,(191, 321),3	1562,(194, 321),3	1586,(197, 321),3	1610,(200, 321),3	1634,(203, 321),3	1658,(206, 321),3	1682,(209, 321),3	1706,(212, 321),3	1730,(215, 321),3	1754,(218, 321),3	1778,(221, 321),3	1802,(224, 321),3	1826,(227, 321),3	1850,(230, 321),3	1874,(233, 321),3	1898,(236, 321),3	1922,(239, 321),3	1946,(242, 321),3	1970,(245, 321),3	1994,(248, 321),3	2018,(251, 321),3	2042,(254, 321),3	2066,(257, 321),3	2090,(260, 321),3	2114,(263, 321),3	2138,(266, 321),3	2162,(269, 321),3	2186,(272, 321),3	2210,(275, 321),3	2234,(278, 321),3	2258,(281, 321),3	2282,(284, 321),3	2306,(287, 321),3	2330,(290, 321),3	2354,(293, 321),3	2378,(296, 321),3	2402,(299, 321),3	2426,(302, 321),3	2450,(305, 321),3	2474,(308, 321),3	2498,(311, 321),3	2522,(314, 321),3	2546,(317, 321),3	2570,(320, 321),3	
1,(0, 2),12	13,(0, 3),12	25,(0, 5),12	37,(0, 6),12	49,(0, 8),12	61,(0, 9),12	73,(0, 11),12	85,(0, 12),12	97,(0, 14),12	109,(0, 15),12	121,(0, 17),12	133,(0, 18),12	145,(0, 20),12	157,(0, 21),12	169,(0, 23),12	181,(0, 24),12	193,(0, 26),12	205,(0, 27),12	217,(0, 29),12	229,(0, 30),12	241,(0, 32),12	253,(0, 33),12	265,(0, 35),12	277,(0, 36),12	289,(0, 38),12	301,(0, 39),12	313,(0, 41),12	325,(0, 42),12	337,(0, 44),12	349,(0, 45),12	361,(0, 47),12	373,(0, 48),12	385,(0, 50),12	397,(0, 51),12	409,(0, 53),12	421,(0, 54),12	433,(0, 56),12	445,(0, 57),12	457,(0, 59),12	469,(0, 60),12	481,(0, 62),12	493,(0, 63),12	505,(0, 65),12	517,(0, 66),12	529,(0, 68),12	541,(0, 69),12	553,(0, 71),12	565,(0, 72),12	577,(0, 74),12	589,(0, 75),12	601,(0, 77),12	613,(0, 78),12	625,(0, 80),12	637,(0, 81),12	649,(0, 83),12	661,(0, 84),12	673,(0, 86),12	685,(0, 87),12	697,(0, 89),12	709,(0, 90),12	721,(0, 92),12	733,(0, 93),12	745,(0, 95),12	757,(0, 96),12	769,(0, 98),12	781,(0, 99),12	793,(0, 101),12	805,(0, 102),12	817,(0, 104),12	829,(0, 105),12	841,(0, 107),12	853,(0, 108),12	865,(0, 110),12	877,(0, 111),12	889,(0, 113),12	901,(0, 114),12	913,(0, 116),12	925,(0, 117),12	937,(0, 119),12	949,(0, 120),12	961,(0, 122),12	973,(0, 123),12	985,(0, 125),12	997,(0, 126),12	1009,(0, 128),12	1021,(0, 129),12	1033,(0, 131),12	1045,(0, 132),12	1057,(0, 134),12	1069,(0, 135),12	1081,(0, 137),12	1093,(0, 138),12	1105,(0, 140),12	1117,(0, 141),12	1129,(0, 143),12	1141,(0, 144),12	1153,(0, 146),12	1165,(0, 147),12	1177,(0, 149),12	1189,(0, 150),12	1201,(0, 152),12	1213,(0, 153),12	1225,(0, 155),12	1237,(0, 156),12	1249,(0, 158),12	1261,(0, 159),12	1273,(0, 161),12	1285,(0, 162),12	1297,(0, 164),12	1309,(0, 165),12	1321,(0, 167),12	1333,(0, 168),12	1345,(0, 170),12	1357,(0, 171),12	1369,(0, 173),12	1381,(0, 174),12	1393,(0, 176),12	1405,(0, 177),12	1417,(0, 179),12	1429,(0, 180),12	1441,(0, 182),12	1453,(0, 183),12	1465,(0, 185),12	1477,(0, 186),12	1489,(0, 188),12	1501,(0, 189),12	1513,(0, 191),12	1525,(0, 192),12	1537,(0, 194),12	1549,(0, 195),12	1561,(0, 197),12	1573,(0, 198),12	1585,(0, 200),12	1597,(0, 201),12	1609,(0, 203),12	1621,(0, 204),12	1633,(0, 206),12	1645,(0, 207),12	1657,(0, 209),12	1669,(0, 210),12	1681,(0, 212),12	1693,(0, 213),12	1705,(0, 215),12	1717,(0, 216),12	1729,(0, 218),12	1741,(0, 219),12	1753,(0, 221),12	1765,(0, 222),12	1777,(0, 224),12	1789,(0, 225),12	1801,(0, 227),12	1813,(0, 228),12	1825,(0, 230),12	1837,(0, 231),12	1849,(0, 233),12	1861,(0, 234),12	1873,(0, 236),12	1885,(0, 237),12	1897,(0, 239),12	1909,(0, 240),12	1921,(0, 242),12	1933,(0, 243),12	1945,(0, 245),12	1957,(0, 246),12	1969,(0, 248),12	1981,(0, 249),12	1993,(0, 251),12	2005,(0, 252),12	2017,(0, 254),12	2029,(0, 255),12	2041,(0, 257),12	2053,(0, 258),12	2065,(0, 260),12	2077,(0, 261),12	2089,(0, 263),12	2101,(0, 264),12	2113,(0, 266),12	2125,(0, 267),12	2137,(0, 269),12	2149,(0, 270),12	2161,(0, 272),12	2173,(0, 273),12	2185,(0, 275),12	2197,(0, 276),12	2209,(0, 278),12	2221,(0, 279),12	2233,(0, 281),12	2245,(0, 282),12	2257,(0, 284),12	2269,(0, 285),12	2281,(0, 287),12	2293,(0, 288),12	2305,(0, 290),12	2317,(0, 291),12	2329,(0, 293),12	2341,(0, 294),12	2353,(0, 296),12	2365,(0, 297),12	2377,(0, 299),12	2389,(0, 300),12	2401,(0, 302),12	2413,(0, 303),12	2425,(0, 305),12	2437,(0, 306),12	2449,(0, 308),12	2461,(0, 309),12	2473,(0, 311),12	2485,(0, 312),12	2497,(0, 314),12	2509,(0, 315),12	2521,(0, 317),12	2533,(0, 318),12	2545,(0, 320),12	
