3098
# CPU
13,5,21	34,10,21	55,15,21	76,20,21	97,25,21	118,30,21	139,35,21	160,40,21	181,45,21	202,50,21	223,55,21	244,60,21	265,65,21	286,70,21	307,75,21	328,80,21	349,85,21	370,90,21	391,95,21	412,100,21	433,105,21	454,110,21	475,115,21	496,120,21	517,125,21	538,130,21	559,135,21	580,140,21	601,145,21	622,150,21	643,155,21	664,160,21	685,165,21	706,170,21	727,175,21	748,180,21	769,185,21	790,190,21	811,195,21	832,200,21	853,205,21	874,210,21	895,215,21	916,220,21	937,225,21	958,230,21	979,235,21	1000,240,21	1021,245,21	1042,250,21	1063,255,21	1084,260,21	1105,265,21	1126,270,21	1147,275,21	1168,280,21	1189,285,21	1210,290,21	1231,295,21	1252,300,21	1273,305,21	1294,310,21	1315,315,21	1336,320,21	
10,4,21	31,9,21	52,14,21	73,19,21	94,24,21	115,29,21	136,34,21	157,39,21	178,44,21	199,49,21	220,54,21	241,59,21	262,64,21	283,69,21	304,74,21	325,79,21	346,84,21	367,89,21	388,94,21	409,99,21	430,104,21	451,109,21	472,114,21	493,119,21	514,124,21	535,129,21	556,134,21	577,139,21	598,144,21	619,149,21	640,154,21	661,159,21	682,164,21	703,169,21	724,174,21	745,179,21	766,184,21	787,189,21	808,194,21	829,199,21	850,204,21	871,209,21	892,214,21	913,219,21	934,224,21	955,229,21	976,234,21	997,239,21	1018,244,21	1039,249,21	1060,254,21	1081,259,21	1102,264,21	1123,269,21	1144,274,21	1165,279,21	1186,284,21	1207,289,21	1228,294,21	1249,299,21	1270,304,21	1291,309,21	1312,314,21	1333,319,21	
7,3,21	28,8,21	49,13,21	70,18,21	91,23,21	112,28,21	133,33,21	154,38,21	175,43,21	196,48,21	217,53,21	238,58,21	259,63,21	280,68,21	301,73,21	322,78,21	343,83,21	364,88,21	385,93,21	406,98,21	427,103,21	448,108,21	469,113,21	490,118,21	511,123,21	532,128,21	553,133,21	574,138,21	595,143,21	616,148,21	637,153,21	658,158,21	679,163,21	700,168,21	721,173,21	742,178,21	763,183,21	784,188,21	805,193,21	826,198,21	847,203,21	868,208,21	889,213,21	910,218,21	931,223,21	952,228,21	973,233,21	994,238,21	1015,243,21	1036,248,21	1057,253,21	1078,258,21	1099,263,21	1120,268,21	1141,273,21	1162,278,21	1183,283,21	1204,288,21	1225,293,21	1246,298,21	1267,303,21	1288,308,21	1309,313,21	1330,318,21	
4,2,21	25,7,21	46,12,21	67,17,21	88,22,21	109,27,21	130,32,21	151,37,21	172,42,21	193,47,21	214,52,21	235,57,21	256,62,21	277,67,21	298,72,21	319,77,21	340,82,21	361,87,21	382,92,21	403,97,21	424,102,21	445,107,21	466,112,21	487,117,21	508,122,21	529,127,21	550,132,21	571,137,21	592,142,21	613,147,21	634,152,21	655,157,21	676,162,21	697,167,21	718,172,21	739,177,21	760,182,21	781,187,21	802,192,21	823,197,21	844,202,21	865,207,21	886,212,21	907,217,21	928,222,21	949,227,21	970,232,21	991,237,21	1012,242,21	1033,247,21	1054,252,21	1075,257,21	1096,262,21	1117,267,21	1138,272,21	1159,277,21	1180,282,21	1201,287,21	1222,292,21	1243,297,21	1264,302,21	1285,307,21	1306,312,21	1327,317,21	
0,0,1	1,1,21	22,11,21	43,31,21	64,71,21	85,151,21	106,311,21	127,306,21	148,316,21	169,301,21	190,296,21	211,291,21	232,286,21	253,281,21	274,276,21	295,271,21	316,266,21	337,261,21	358,256,21	379,251,21	400,246,21	421,241,21	442,236,21	463,231,21	484,226,21	505,221,21	526,216,21	547,211,21	568,206,21	589,201,21	610,196,21	631,191,21	652,186,21	673,181,21	694,176,21	715,171,21	736,166,21	757,161,21	778,146,21	799,156,21	820,141,21	841,136,21	862,131,21	883,126,21	904,121,21	925,116,21	946,111,21	967,106,21	988,101,21	1009,96,21	1030,91,21	1051,86,21	1072,81,21	1093,66,21	1114,76,21	1135,61,21	1156,56,21	1177,51,21	1198,46,21	1219,41,21	1240,26,21	1261,36,21	1282,21,21	1303,6,21	1324,16,21	3097,321,1	
# Incoming
10,(0, 5),3	22,(0, 10),3	34,(0, 15),3	46,(0, 20),3	58,(0, 25),3	70,(0, 30),3	82,(0, 35),3	94,(0, 40),3	106,(0, 45),3	118,(0, 50),3	130,(0, 55),3	142,(0, 60),3	154,(0, 65),3	166,(0, 70),3	178,(0, 75),3	190,(0, 80),3	202,(0, 85),3	214,(0, 90),3	226,(0, 95),3	238,(0, 100),3	250,(0, 105),3	262,(0, 110),3	274,(0, 115),3	286,(0, 120),3	298,(0, 125),3	310,(0, 130),3	322,(0, 135),3	334,(0, 140),3	346,(0, 145),3	358,(0, 150),3	370,(0, 155),3	382,(0, 160),3	394,(0, 165),3	406,(0, 170),3	418,(0, 175),3	430,(0, 180),3	442,(0, 185),3	454,(0, 190),3	466,(0, 195),3	478,(0, 200),3	490,(0, 205),3	502,(0, 210),3	514,(0, 215),3	526,(0, 220),3	538,(0, 225),3	550,(0, 230),3	562,(0, 235),3	574,(0, 240),3	586,(0, 245),3	598,(0, 250),3	610,(0, 255),3	622,(0, 260),3	634,(0, 265),3	646,(0, 270),3	658,(0, 275),3	670,(0, 280),3	682,(0, 285),3	694,(0, 290),3	706,(0, 295),3	718,(0, 300),3	730,(0, 305),3	742,(0, 310),3	754,(0, 315),3	766,(0, 320),3	
7,(0, 4),3	19,(0, 9),3	31,(0, 14),3	43,(0, 19),3	55,(0, 24),3	67,(0, 29),3	79,(0, 34),3	91,(0, 39),3	103,(0, 44),3	115,(0, 49),3	127,(0, 54),3	139,(0, 59),3	151,(0, 64),3	163,(0, 69),3	175,(0, 74),3	187,(0, 79),3	199,(0, 84),3	211,(0, 89),3	223,(0, 94),3	235,(0, 99),3	247,(0, 104),3	259,(0, 109),3	271,(0, 114),3	283,(0, 119),3	295,(0, 124),3	307,(0, 129),3	319,(0, 134),3	331,(0, 139),3	343,(0, 144),3	355,(0, 149),3	367,(0, 154),3	379,(0, 159),3	391,(0, 164),3	403,(0, 169),3	415,(0, 174),3	427,(0, 179),3	439,(0, 184),3	451,(0, 189),3	463,(0, 194),3	475,(0, 199),3	487,(0, 204),3	499,(0, 209),3	511,(0, 214),3	523,(0, 219),3	535,(0, 224),3	547,(0, 229),3	559,(0, 234),3	571,(0, 239),3	583,(0, 244),3	595,(0, 249),3	607,(0, 254),3	619,(0, 259),3	631,(0, 264),3	643,(0, 269),3	655,(0, 274),3	667,(0, 279),3	679,(0, 284),3	691,(0, 289),3	703,(0, 294),3	715,(0, 299),3	727,(0, 304),3	739,(0, 309),3	751,(0, 314),3	763,(0, 319),3	
4,(0, 3),3	16,(0, 8),3	28,(0, 13),3	40,(0, 18),3	52,(0, 23),3	64,(0, 28),3	76,(0, 33),3	88,(0, 38),3	100,(0, 43),3	112,(0, 48),3	124,(0, 53),3	136,(0, 58),3	148,(0, 63),3	160,(0, 68),3	172,(0, 73),3	184,(0, 78),3	196,(0, 83),3	208,(0, 88),3	220,(0, 93),3	232,(0, 98),3	244,(0, 103),3	256,(0, 108),3	268,(0, 113),3	280,(0, 118),3	292,(0, 123),3	304,(0, 128),3	316,(0, 133),3	328,(0, 138),3	340,(0, 143),3	352,(0, 148),3	364,(0, 153),3	376,(0, 158),3	388,(0, 163),3	400,(0, 168),3	412,(0, 173),3	424,(0, 178),3	436,(0, 183),3	448,(0, 188),3	460,(0, 193),3	472,(0, 198),3	484,(0, 203),3	496,(0, 208),3	508,(0, 213),3	520,(0, 218),3	532,(0, 223),3	544,(0, 228),3	556,(0, 233),3	568,(0, 238),3	580,(0, 243),3	592,(0, 248),3	604,(0, 253),3	616,(0, 258),3	628,(0, 263),3	640,(0, 268),3	652,(0, 273),3	664,(0, 278),3	676,(0, 283),3	688,(0, 288),3	700,(0, 293),3	712,(0, 298),3	724,(0, 303),3	736,(0, 308),3	748,(0, 313),3	760,(0, 318),3	
1,(0, 2),3	13,(0, 7),3	25,(0, 12),3	37,(0, 17),3	49,(0, 22),3	61,(0, 27),3	73,(0, 32),3	85,(0, 37),3	97,(0, 42),3	109,(0, 47),3	121,(0, 52),3	133,(0, 57),3	145,(0, 62),3	157,(0, 67),3	169,(0, 72),3	181,(0, 77),3	193,(0, 82),3	205,(0, 87),3	217,(0, 92),3	229,(0, 97),3	241,(0, 102),3	253,(0, 107),3	265,(0, 112),3	277,(0, 117),3	289,(0, 122),3	301,(0, 127),3	313,(0, 132),3	325,(0, 137),3	337,(0, 142),3	349,(0, 147),3	361,(0, 152),3	373,(0, 157),3	385,(0, 162),3	397,(0, 167),3	409,(0, 172),3	421,(0, 177),3	433,(0, 182),3	445,(0, 187),3	457,(0, 192),3	469,(0, 197),3	481,(0, 202),3	493,(0, 207),3	505,(0, 212),3	517,(0, 217),3	529,(0, 222),3	541,(0, 227),3	553,(0, 232),3	565,(0, 237),3	577,(0, 242),3	589,(0, 247),3	601,(0, 252),3	613,(0, 257),3	625,(0, 262),3	637,(0, 267),3	649,(0, 272),3	661,(0, 277),3	673,(0, 282),3	685,(0, 287),3	697,(0, 292),3	709,(0, 297),3	721,(0, 302),3	733,(0, 307),3	745,(0, 312),3	757,(0, 317),3	
25,(2, 321),12	37,(3, 321),12	49,(4, 321),12	61,(5, 321),12	73,(7, 321),12	85,(8, 321),12	97,(9, 321),12	109,(10, 321),12	121,(12, 321),12	133,(13, 321),12	145,(14, 321),12	157,(15, 321),12	169,(17, 321),12	181,(18, 321),12	193,(19, 321),12	205,(20, 321),12	217,(22, 321),12	229,(23, 321),12	241,(24, 321),12	253,(25, 321),12	265,(27, 321),12	277,(28, 321),12	289,(29, 321),12	301,(30, 321),12	313,(32, 321),12	325,(33, 321),12	337,(34, 321),12	349,(35, 321),12	361,(37, 321),12	373,(38, 321),12	385,(39, 321),12	397,(40, 321),12	409,(42, 321),12	421,(43, 321),12	433,(44, 321),12	445,(45, 321),12	457,(47, 321),12	469,(48, 321),12	481,(49, 321),12	493,(50, 321),12	505,(52, 321),12	517,(53, 321),12	529,(54, 321),12	541,(55, 321),12	553,(57, 321),12	565,(58, 321),12	577,(59, 321),12	589,(60, 321),12	601,(62, 321),12	613,(63, 321),12	625,(64, 321),12	637,(65, 321),12	649,(67, 321),12	661,(68, 321),12	673,(69, 321),12	685,(70, 321),12	697,(72, 321),12	709,(73, 321),12	721,(74, 321),12	733,(75, 321),12	745,(77, 321),12	757,(78, 321),12	769,(79, 321),12	781,(80, 321),12	793,(82, 321),12	805,(83, 321),12	817,(84, 321),12	829,(85, 321),12	841,(87, 321),12	853,(88, 321),12	865,(89, 321),12	877,(90, 321),12	889,(92, 321),12	901,(93, 321),12	913,(94, 321),12	925,(95, 321),12	937,(97, 321),12	949,(98, 321),12	961,(99, 321),12	973,(100, 321),12	985,(102, 321),12	997,(103, 321),12	1009,(104, 321),12	1021,(105, 321),12	1033,(107, 321),12	1045,(108, 321),12	1057,(109, 321),12	1069,(110, 321),12	1081,(112, 321),12	1093,(113, 321),12	1105,(114, 321),12	1117,(115, 321),12	1129,(117, 321),12	1141,(118, 321),12	1153,(119, 321),12	1165,(120, 321),12	1177,(122, 321),12	1189,(123, 321),12	1201,(124, 321),12	1213,(125, 321),12	1225,(127, 321),12	1237,(128, 321),12	1249,(129, 321),12	1261,(130, 321),12	1273,(132, 321),12	1285,(133, 321),12	1297,(134, 321),12	1309,(135, 321),12	1321,(137, 321),12	1333,(138, 321),12	1345,(139, 321),12	1357,(140, 321),12	1369,(142, 321),12	1381,(143, 321),12	1393,(144, 321),12	1405,(145, 321),12	1417,(147, 321),12	1429,(148, 321),12	1441,(149, 321),12	1453,(150, 321),12	1465,(152, 321),12	1477,(153, 321),12	1489,(154, 321),12	1501,(155, 321),12	1513,(157, 321),12	1525,(158, 321),12	1537,(159, 321),12	1549,(160, 321),12	1561,(162, 321),12	1573,(163, 321),12	1585,(164, 321),12	1597,(165, 321),12	1609,(167, 321),12	1621,(168, 321),12	1633,(169, 321),12	1645,(170, 321),12	1657,(172, 321),12	1669,(173, 321),12	1681,(174, 321),12	1693,(175, 321),12	1705,(177, 321),12	1717,(178, 321),12	1729,(179, 321),12	1741,(180, 321),12	1753,(182, 321),12	1765,(183, 321),12	1777,(184, 321),12	1789,(185, 321),12	1801,(187, 321),12	1813,(188, 321),12	1825,(189, 321),12	1837,(190, 321),12	1849,(192, 321),12	1861,(193, 321),12	1873,(194, 321),12	1885,(195, 321),12	1897,(197, 321),12	1909,(198, 321),12	1921,(199, 321),12	1933,(200, 321),12	1945,(202, 321),12	1957,(203, 321),12	1969,(204, 321),12	1981,(205, 321),12	1993,(207, 321),12	2005,(208, 321),12	2017,(209, 321),12	2029,(210, 321),12	2041,(212, 321),12	2053,(213, 321),12	2065,(214, 321),12	2077,(215, 321),12	2089,(217, 321),12	2101,(218, 321),12	2113,(219, 321),12	2125,(220, 321),12	2137,(222, 321),12	2149,(223, 321),12	2161,(224, 321),12	2173,(225, 321),12	2185,(227, 321),12	2197,(228, 321),12	2209,(229, 321),12	2221,(230, 321),12	2233,(232, 321),12	2245,(233, 321),12	2257,(234, 321),12	2269,(235, 321),12	2281,(237, 321),12	2293,(238, 321),12	2305,(239, 321),12	2317,(240, 321),12	2329,(242, 321),12	2341,(243, 321),12	2353,(244, 321),12	2365,(245, 321),12	2377,(247, 321),12	2389,(248, 321),12	2401,(249, 321),12	2413,(250, 321),12	2425,(252, 321),12	2437,(253, 321),12	2449,(254, 321),12	2461,(255, 321),12	2473,(257, 321),12	2485,(258, 321),12	2497,(259, 321),12	2509,(260, 321),12	2521,(262, 321),12	2533,(263, 321),12	2545,(264, 321),12	2557,(265, 321),12	2569,(267, 321),12	2581,(268, 321),12	2593,(269, 321),12	2605,(270, 321),12	2617,(272, 321),12	2629,(273, 321),12	2641,(274, 321),12	2653,(275, 321),12	2665,(277, 321),12	2677,(278, 321),12	2689,(279, 321),12	2701,(280, 321),12	2713,(282, 321),12	2725,(283, 321),12	2737,(284, 321),12	2749,(285, 321),12	2761,(287, 321),12	2773,(288, 321),12	2785,(289, 321),12	2797,(290, 321),12	2809,(292, 321),12	2821,(293, 321),12	2833,(294, 321),12	2845,(295, 321),12	2857,(297, 321),12	2869,(298, 321),12	2881,(299, 321),12	2893,(300, 321),12	2905,(302, 321),12	2917,(303, 321),12	2929,(304, 321),12	2941,(305, 321),12	2953,(307, 321),12	2965,(308, 321),12	2977,(309, 321),12	2989,(310, 321),12	3001,(312, 321),12	3013,(313, 321),12	3025,(314, 321),12	3037,(315, 321),12	3049,(317, 321),12	3061,(318, 321),12	3073,(319, 321),12	3085,(320, 321),12	
# Outgoing
61,(5, 321),12	109,(10, 321),12	157,(15, 321),12	205,(20, 321),12	253,(25, 321),12	301,(30, 321),12	349,(35, 321),12	397,(40, 321),12	445,(45, 321),12	493,(50, 321),12	541,(55, 321),12	589,(60, 321),12	637,(65, 321),12	685,(70, 321),12	733,(75, 321),12	781,(80, 321),12	829,(85, 321),12	877,(90, 321),12	925,(95, 321),12	973,(100, 321),12	1021,(105, 321),12	1069,(110, 321),12	1117,(115, 321),12	1165,(120, 321),12	1213,(125, 321),12	1261,(130, 321),12	1309,(135, 321),12	1357,(140, 321),12	1405,(145, 321),12	1453,(150, 321),12	1501,(155, 321),12	1549,(160, 321),12	1597,(165, 321),12	1645,(170, 321),12	1693,(175, 321),12	1741,(180, 321),12	1789,(185, 321),12	1837,(190, 321),12	1885,(195, 321),12	1933,(200, 321),12	1981,(205, 321),12	2029,(210, 321),12	2077,(215, 321),12	2125,(220, 321),12	2173,(225, 321),12	2221,(230, 321),12	2269,(235, 321),12	2317,(240, 321),12	2365,(245, 321),12	2413,(250, 321),12	2461,(255, 321),12	2509,(260, 321),12	2557,(265, 321),12	2605,(270, 321),12	2653,(275, 321),12	2701,(280, 321),12	2749,(285, 321),12	2797,(290, 321),12	2845,(295, 321),12	2893,(300, 321),12	2941,(305, 321),12	2989,(310, 321),12	3037,(315, 321),12	3085,(320, 321),12	
49,(4, 321),12	97,(9, 321),12	145,(14, 321),12	193,(19, 321),12	241,(24, 321),12	289,(29, 321),12	337,(34, 321),12	385,(39, 321),12	433,(44, 321),12	481,(49, 321),12	529,(54, 321),12	577,(59, 321),12	625,(64, 321),12	673,(69, 321),12	721,(74, 321),12	769,(79, 321),12	817,(84, 321),12	865,(89, 321),12	913,(94, 321),12	961,(99, 321),12	1009,(104, 321),12	1057,(109, 321),12	1105,(114, 321),12	1153,(119, 321),12	1201,(124, 321),12	1249,(129, 321),12	1297,(134, 321),12	1345,(139, 321),12	1393,(144, 321),12	1441,(149, 321),12	1489,(154, 321),12	1537,(159, 321),12	1585,(164, 321),12	1633,(169, 321),12	1681,(174, 321),12	1729,(179, 321),12	1777,(184, 321),12	1825,(189, 321),12	1873,(194, 321),12	1921,(199, 321),12	1969,(204, 321),12	2017,(209, 321),12	2065,(214, 321),12	2113,(219, 321),12	2161,(224, 321),12	2209,(229, 321),12	2257,(234, 321),12	2305,(239, 321),12	2353,(244, 321),12	2401,(249, 321),12	2449,(254, 321),12	2497,(259, 321),12	2545,(264, 321),12	2593,(269, 321),12	2641,(274, 321),12	2689,(279, 321),12	2737,(284, 321),12	2785,(289, 321),12	2833,(294, 321),12	2881,(299, 321),12	2929,(304, 321),12	2977,(309, 321),12	3025,(314, 321),12	3073,(319, 321),12	
37,(3, 321),12	85,(8, 321),12	133,(13, 321),12	181,(18, 321),12	229,(23, 321),12	277,(28, 321),12	325,(33, 321),12	373,(38, 321),12	421,(43, 321),12	469,(48, 321),12	517,(53, 321),12	565,(58, 321),12	613,(63, 321),12	661,(68, 321),12	709,(73, 321),12	757,(78, 321),12	805,(83, 321),12	853,(88, 321),12	901,(93, 321),12	949,(98, 321),12	997,(103, 321),12	1045,(108, 321),12	1093,(113, 321),12	1141,(118, 321),12	1189,(123, 321),12	1237,(128, 321),12	1285,(133, 321),12	1333,(138, 321),12	1381,(143, 321),12	1429,(148, 321),12	1477,(153, 321),12	1525,(158, 321),12	1573,(163, 321),12	1621,(168, 321),12	1669,(173, 321),12	1717,(178, 321),12	1765,(183, 321),12	1813,(188, 321),12	1861,(193, 321),12	1909,(198, 321),12	1957,(203, 321),12	2005,(208, 321),12	2053,(213, 321),12	2101,(218, 321),12	2149,(223, 321),12	2197,(228, 321),12	2245,(233, 321),12	2293,(238, 321),12	2341,(243, 321),12	2389,(248, 321),12	2437,(253, 321),12	2485,(258, 321),12	2533,(263, 321),12	2581,(268, 321),12	2629,(273, 321),12	2677,(278, 321),12	2725,(283, 321),12	2773,(288, 321),12	2821,(293, 321),12	2869,(298, 321),12	2917,(303, 321),12	2965,(308, 321),12	3013,(313, 321),12	3061,(318, 321),12	
25,(2, 321),12	73,(7, 321),12	121,(12, 321),12	169,(17, 321),12	217,(22, 321),12	265,(27, 321),12	313,(32, 321),12	361,(37, 321),12	409,(42, 321),12	457,(47, 321),12	505,(52, 321),12	553,(57, 321),12	601,(62, 321),12	649,(67, 321),12	697,(72, 321),12	745,(77, 321),12	793,(82, 321),12	841,(87, 321),12	889,(92, 321),12	937,(97, 321),12	985,(102, 321),12	1033,(107, 321),12	1081,(112, 321),12	1129,(117, 321),12	1177,(122, 321),12	1225,(127, 321),12	1273,(132, 321),12	1321,(137, 321),12	1369,(142, 321),12	1417,(147, 321),12	1465,(152, 321),12	1513,(157, 321),12	1561,(162, 321),12	1609,(167, 321),12	1657,(172, 321),12	1705,(177, 321),12	1753,(182, 321),12	1801,(187, 321),12	1849,(192, 321),12	1897,(197, 321),12	1945,(202, 321),12	1993,(207, 321),12	2041,(212, 321),12	2089,(217, 321),12	2137,(222, 321),12	2185,(227, 321),12	2233,(232, 321),12	2281,(237, 321),12	2329,(242, 321),12	2377,(247, 321),12	2425,(252, 321),12	2473,(257, 321),12	2521,(262, 321),12	2569,(267, 321),12	2617,(272, 321),12	2665,(277, 321),12	2713,(282, 321),12	2761,(287, 321),12	2809,(292, 321),12	2857,(297, 321),12	2905,(302, 321),12	2953,(307, 321),12	3001,(312, 321),12	3049,(317, 321),12	
1,(0, 2),3	4,(0, 3),3	7,(0, 4),3	10,(0, 5),3	13,(0, 7),3	16,(0, 8),3	19,(0, 9),3	22,(0, 10),3	25,(0, 12),3	28,(0, 13),3	31,(0, 14),3	34,(0, 15),3	37,(0, 17),3	40,(0, 18),3	43,(0, 19),3	46,(0, 20),3	49,(0, 22),3	52,(0, 23),3	55,(0, 24),3	58,(0, 25),3	61,(0, 27),3	64,(0, 28),3	67,(0, 29),3	70,(0, 30),3	73,(0, 32),3	76,(0, 33),3	79,(0, 34),3	82,(0, 35),3	85,(0, 37),3	88,(0, 38),3	91,(0, 39),3	94,(0, 40),3	97,(0, 42),3	100,(0, 43),3	103,(0, 44),3	106,(0, 45),3	109,(0, 47),3	112,(0, 48),3	115,(0, 49),3	118,(0, 50),3	121,(0, 52),3	124,(0, 53),3	127,(0, 54),3	130,(0, 55),3	133,(0, 57),3	136,(0, 58),3	139,(0, 59),3	142,(0, 60),3	145,(0, 62),3	148,(0, 63),3	151,(0, 64),3	154,(0, 65),3	157,(0, 67),3	160,(0, 68),3	163,(0, 69),3	166,(0, 70),3	169,(0, 72),3	172,(0, 73),3	175,(0, 74),3	178,(0, 75),3	181,(0, 77),3	184,(0, 78),3	187,(0, 79),3	190,(0, 80),3	193,(0, 82),3	196,(0, 83),3	199,(0, 84),3	202,(0, 85),3	205,(0, 87),3	208,(0, 88),3	211,(0, 89),3	214,(0, 90),3	217,(0, 92),3	220,(0, 93),3	223,(0, 94),3	226,(0, 95),3	229,(0, 97),3	232,(0, 98),3	235,(0, 99),3	238,(0, 100),3	241,(0, 102),3	244,(0, 103),3	247,(0, 104),3	250,(0, 105),3	253,(0, 107),3	256,(0, 108),3	259,(0, 109),3	262,(0, 110),3	265,(0, 112),3	268,(0, 113),3	271,(0, 114),3	274,(0, 115),3	277,(0, 117),3	280,(0, 118),3	283,(0, 119),3	286,(0, 120),3	289,(0, 122),3	292,(0, 123),3	295,(0, 124),3	298,(0, 125),3	301,(0, 127),3	304,(0, 128),3	307,(0, 129),3	310,(0, 130),3	313,(0, 132),3	316,(0, 133),3	319,(0, 134),3	322,(0, 135),3	325,(0, 137),3	328,(0, 138),3	331,(0, 139),3	334,(0, 140),3	337,(0, 142),3	340,(0, 143),3	343,(0, 144),3	346,(0, 145),3	349,(0, 147),3	352,(0, 148),3	355,(0, 149),3	358,(0, 150),3	361,(0, 152),3	364,(0, 153),3	367,(0, 154),3	370,(0, 155),3	373,(0, 157),3	376,(0, 158),3	379,(0, 159),3	382,(0, 160),3	385,(0, 162),3	388,(0, 163),3	391,(0, 164),3	394,(0, 165),3	397,(0, 167),3	400,(0, 168),3	403,(0, 169),3	406,(0, 170),3	409,(0, 172),3	412,(0, 173),3	415,(0, 174),3	418,(0, 175),3	421,(0, 177),3	424,(0, 178),3	427,(0, 179),3	430,(0, 180),3	433,(0, 182),3	436,(0, 183),3	439,(0, 184),3	442,(0, 185),3	445,(0, 187),3	448,(0, 188),3	451,(0, 189),3	454,(0, 190),3	457,(0, 192),3	460,(0, 193),3	463,(0, 194),3	466,(0, 195),3	469,(0, 197),3	472,(0, 198),3	475,(0, 199),3	478,(0, 200),3	481,(0, 202),3	484,(0, 203),3	487,(0, 204),3	490,(0, 205),3	493,(0, 207),3	496,(0, 208),3	499,(0, 209),3	502,(0, 210),3	505,(0, 212),3	508,(0, 213),3	511,(0, 214),3	514,(0, 215),3	517,(0, 217),3	520,(0, 218),3	523,(0, 219),3	526,(0, 220),3	529,(0, 222),3	532,(0, 223),3	535,(0, 224),3	538,(0, 225),3	541,(0, 227),3	544,(0, 228),3	547,(0, 229),3	550,(0, 230),3	553,(0, 232),3	556,(0, 233),3	559,(0, 234),3	562,(0, 235),3	565,(0, 237),3	568,(0, 238),3	571,(0, 239),3	574,(0, 240),3	577,(0, 242),3	580,(0, 243),3	583,(0, 244),3	586,(0, 245),3	589,(0, 247),3	592,(0, 248),3	595,(0, 249),3	598,(0, 250),3	601,(0, 252),3	604,(0, 253),3	607,(0, 254),3	610,(0, 255),3	613,(0, 257),3	616,(0, 258),3	619,(0, 259),3	622,(0, 260),3	625,(0, 262),3	628,(0, 263),3	631,(0, 264),3	634,(0, 265),3	637,(0, 267),3	640,(0, 268),3	643,(0, 269),3	646,(0, 270),3	649,(0, 272),3	652,(0, 273),3	655,(0, 274),3	658,(0, 275),3	661,(0, 277),3	664,(0, 278),3	667,(0, 279),3	670,(0, 280),3	673,(0, 282),3	676,(0, 283),3	679,(0, 284),3	682,(0, 285),3	685,(0, 287),3	688,(0, 288),3	691,(0, 289),3	694,(0, 290),3	697,(0, 292),3	700,(0, 293),3	703,(0, 294),3	706,(0, 295),3	709,(0, 297),3	712,(0, 298),3	715,(0, 299),3	718,(0, 300),3	721,(0, 302),3	724,(0, 303),3	727,(0, 304),3	730,(0, 305),3	733,(0, 307),3	736,(0, 308),3	739,(0, 309),3	742,(0, 310),3	745,(0, 312),3	748,(0, 313),3	751,(0, 314),3	754,(0, 315),3	757,(0, 317),3	760,(0, 318),3	763,(0, 319),3	766,(0, 320),3	
