46102
# CPU
5,2,16	21,4,16	37,6,16	53,8,16	69,10,16	85,12,16	101,14,16	117,16,16	133,18,16	149,20,16	165,22,16	181,24,16	197,26,16	213,28,16	229,30,16	245,32,16	261,34,16	277,36,16	293,38,16	309,40,16	325,42,16	341,44,16	357,46,16	373,48,16	389,50,16	405,52,16	421,54,16	437,56,16	453,58,16	469,60,16	485,62,16	501,64,16	517,66,16	533,68,16	549,70,16	565,72,16	581,74,16	597,76,16	613,78,16	629,80,16	645,82,16	661,84,16	677,86,16	693,88,16	709,90,16	725,92,16	741,94,16	757,96,16	773,98,16	789,100,16	805,102,16	821,104,16	837,106,16	853,108,16	869,110,16	885,112,16	901,114,16	917,116,16	933,118,16	949,120,16	965,122,16	981,124,16	997,126,16	1013,128,16	1029,130,16	1045,132,16	1061,134,16	1077,136,16	1093,138,16	1109,140,16	1125,142,16	1141,144,16	1157,146,16	1173,148,16	1189,150,16	1205,152,16	1221,154,16	1237,156,16	1253,158,16	1269,160,16	1285,162,16	1301,164,16	1317,166,16	1333,168,16	1349,170,16	1365,172,16	1381,174,16	1397,176,16	1413,178,16	1429,180,16	1445,182,16	1461,184,16	1477,186,16	1493,188,16	1509,190,16	1525,192,16	1541,194,16	1557,196,16	1573,198,16	1589,200,16	1605,202,16	1621,204,16	1637,206,16	1653,208,16	1669,210,16	1685,212,16	1701,214,16	1717,216,16	1733,218,16	1749,220,16	1765,222,16	1781,224,16	1797,226,16	1813,228,16	1829,230,16	1845,232,16	1861,234,16	1877,236,16	1893,238,16	1909,240,16	1925,242,16	1941,244,16	1957,246,16	1973,248,16	1989,250,16	2005,252,16	2021,254,16	2037,256,16	2053,258,16	2069,260,16	2085,262,16	2101,264,16	2117,266,16	2133,268,16	2149,270,16	2165,272,16	2181,274,16	2197,276,16	2213,278,16	2229,280,16	2245,282,16	2261,284,16	2277,286,16	2293,288,16	2309,290,16	2325,292,16	2341,294,16	2357,296,16	2373,298,16	2389,300,16	2405,302,16	2421,304,16	2437,306,16	2453,308,16	2469,310,16	2485,312,16	2501,314,16	2517,316,16	2533,318,16	2549,320,16	
0,0,1	1,1,16	17,5,16	33,13,16	49,29,16	65,61,16	81,125,16	97,253,16	113,319,16	129,317,16	145,315,16	161,313,16	177,311,16	193,309,16	209,307,16	225,305,16	241,303,16	257,301,16	273,299,16	289,297,16	305,295,16	321,293,16	337,291,16	353,289,16	369,287,16	385,285,16	401,283,16	417,281,16	433,279,16	449,277,16	465,275,16	481,273,16	497,271,16	513,269,16	529,267,16	545,265,16	561,263,16	577,261,16	593,259,16	609,257,16	625,251,16	641,255,16	657,249,16	673,247,16	689,245,16	705,243,16	721,241,16	737,239,16	753,237,16	769,235,16	785,233,16	801,231,16	817,229,16	833,227,16	849,225,16	865,223,16	881,221,16	897,219,16	913,217,16	929,215,16	945,213,16	961,211,16	977,209,16	993,207,16	1009,205,16	1025,203,16	1041,201,16	1057,199,16	1073,197,16	1089,195,16	1105,193,16	1121,191,16	1137,189,16	1153,187,16	1169,185,16	1185,183,16	1201,181,16	1217,179,16	1233,177,16	1249,175,16	1265,173,16	1281,171,16	1297,169,16	1313,167,16	1329,165,16	1345,163,16	1361,161,16	1377,159,16	1393,157,16	1409,155,16	1425,153,16	1441,151,16	1457,149,16	1473,147,16	1489,145,16	1505,143,16	1521,141,16	1537,139,16	1553,137,16	1569,135,16	1585,133,16	1601,131,16	1617,129,16	1633,123,16	1649,127,16	1665,121,16	1681,119,16	1697,117,16	1713,115,16	1729,113,16	1745,111,16	1761,109,16	1777,107,16	1793,105,16	1809,103,16	1825,101,16	1841,99,16	1857,97,16	1873,95,16	1889,93,16	1905,91,16	1921,89,16	1937,87,16	1953,85,16	1969,83,16	1985,81,16	2001,79,16	2017,77,16	2033,75,16	2049,73,16	2065,71,16	2081,69,16	2097,67,16	2113,65,16	2129,59,16	2145,63,16	2161,57,16	2177,55,16	2193,53,16	2209,51,16	2225,49,16	2241,47,16	2257,45,16	2273,43,16	2289,41,16	2305,39,16	2321,37,16	2337,35,16	2353,33,16	2369,27,16	2385,31,16	2401,25,16	2417,23,16	2433,21,16	2449,19,16	2465,17,16	2481,11,16	2497,15,16	2513,9,16	2529,3,16	2545,7,16	46101,321,1	
# Incoming
1,(0, 2),4	5,(0, 4),4	9,(0, 6),4	13,(0, 8),4	17,(0, 10),4	21,(0, 12),4	25,(0, 14),4	29,(0, 16),4	33,(0, 18),4	37,(0, 20),4	41,(0, 22),4	45,(0, 24),4	49,(0, 26),4	53,(0, 28),4	57,(0, 30),4	61,(0, 32),4	65,(0, 34),4	69,(0, 36),4	73,(0, 38),4	77,(0, 40),4	81,(0, 42),4	85,(0, 44),4	89,(0, 46),4	93,(0, 48),4	97,(0, 50),4	101,(0, 52),4	105,(0, 54),4	109,(0, 56),4	113,(0, 58),4	117,(0, 60),4	121,(0, 62),4	125,(0, 64),4	129,(0, 66),4	133,(0, 68),4	137,(0, 70),4	141,(0, 72),4	145,(0, 74),4	149,(0, 76),4	153,(0, 78),4	157,(0, 80),4	161,(0, 82),4	165,(0, 84),4	169,(0, 86),4	173,(0, 88),4	177,(0, 90),4	181,(0, 92),4	185,(0, 94),4	189,(0, 96),4	193,(0, 98),4	197,(0, 100),4	201,(0, 102),4	205,(0, 104),4	209,(0, 106),4	213,(0, 108),4	217,(0, 110),4	221,(0, 112),4	225,(0, 114),4	229,(0, 116),4	233,(0, 118),4	237,(0, 120),4	241,(0, 122),4	245,(0, 124),4	249,(0, 126),4	253,(0, 128),4	257,(0, 130),4	261,(0, 132),4	265,(0, 134),4	269,(0, 136),4	273,(0, 138),4	277,(0, 140),4	281,(0, 142),4	285,(0, 144),4	289,(0, 146),4	293,(0, 148),4	297,(0, 150),4	301,(0, 152),4	305,(0, 154),4	309,(0, 156),4	313,(0, 158),4	317,(0, 160),4	321,(0, 162),4	325,(0, 164),4	329,(0, 166),4	333,(0, 168),4	337,(0, 170),4	341,(0, 172),4	345,(0, 174),4	349,(0, 176),4	353,(0, 178),4	357,(0, 180),4	361,(0, 182),4	365,(0, 184),4	369,(0, 186),4	373,(0, 188),4	377,(0, 190),4	381,(0, 192),4	385,(0, 194),4	389,(0, 196),4	393,(0, 198),4	397,(0, 200),4	401,(0, 202),4	405,(0, 204),4	409,(0, 206),4	413,(0, 208),4	417,(0, 210),4	421,(0, 212),4	425,(0, 214),4	429,(0, 216),4	433,(0, 218),4	437,(0, 220),4	441,(0, 222),4	445,(0, 224),4	449,(0, 226),4	453,(0, 228),4	457,(0, 230),4	461,(0, 232),4	465,(0, 234),4	469,(0, 236),4	473,(0, 238),4	477,(0, 240),4	481,(0, 242),4	485,(0, 244),4	489,(0, 246),4	493,(0, 248),4	497,(0, 250),4	501,(0, 252),4	505,(0, 254),4	509,(0, 256),4	513,(0, 258),4	517,(0, 260),4	521,(0, 262),4	525,(0, 264),4	529,(0, 266),4	533,(0, 268),4	537,(0, 270),4	541,(0, 272),4	545,(0, 274),4	549,(0, 276),4	553,(0, 278),4	557,(0, 280),4	561,(0, 282),4	565,(0, 284),4	569,(0, 286),4	573,(0, 288),4	577,(0, 290),4	581,(0, 292),4	585,(0, 294),4	589,(0, 296),4	593,(0, 298),4	597,(0, 300),4	601,(0, 302),4	605,(0, 304),4	609,(0, 306),4	613,(0, 308),4	617,(0, 310),4	621,(0, 312),4	625,(0, 314),4	629,(0, 316),4	633,(0, 318),4	637,(0, 320),4	
21,(2, 321),288	309,(4, 321),288	597,(6, 321),288	885,(8, 321),288	1173,(10, 321),288	1461,(12, 321),288	1749,(14, 321),288	2037,(16, 321),288	2325,(18, 321),288	2613,(20, 321),288	2901,(22, 321),288	3189,(24, 321),288	3477,(26, 321),288	3765,(28, 321),288	4053,(30, 321),288	4341,(32, 321),288	4629,(34, 321),288	4917,(36, 321),288	5205,(38, 321),288	5493,(40, 321),288	5781,(42, 321),288	6069,(44, 321),288	6357,(46, 321),288	6645,(48, 321),288	6933,(50, 321),288	7221,(52, 321),288	7509,(54, 321),288	7797,(56, 321),288	8085,(58, 321),288	8373,(60, 321),288	8661,(62, 321),288	8949,(64, 321),288	9237,(66, 321),288	9525,(68, 321),288	9813,(70, 321),288	10101,(72, 321),288	10389,(74, 321),288	10677,(76, 321),288	10965,(78, 321),288	11253,(80, 321),288	11541,(82, 321),288	11829,(84, 321),288	12117,(86, 321),288	12405,(88, 321),288	12693,(90, 321),288	12981,(92, 321),288	13269,(94, 321),288	13557,(96, 321),288	13845,(98, 321),288	14133,(100, 321),288	14421,(102, 321),288	14709,(104, 321),288	14997,(106, 321),288	15285,(108, 321),288	15573,(110, 321),288	15861,(112, 321),288	16149,(114, 321),288	16437,(116, 321),288	16725,(118, 321),288	17013,(120, 321),288	17301,(122, 321),288	17589,(124, 321),288	17877,(126, 321),288	18165,(128, 321),288	18453,(130, 321),288	18741,(132, 321),288	19029,(134, 321),288	19317,(136, 321),288	19605,(138, 321),288	19893,(140, 321),288	20181,(142, 321),288	20469,(144, 321),288	20757,(146, 321),288	21045,(148, 321),288	21333,(150, 321),288	21621,(152, 321),288	21909,(154, 321),288	22197,(156, 321),288	22485,(158, 321),288	22773,(160, 321),288	23061,(162, 321),288	23349,(164, 321),288	23637,(166, 321),288	23925,(168, 321),288	24213,(170, 321),288	24501,(172, 321),288	24789,(174, 321),288	25077,(176, 321),288	25365,(178, 321),288	25653,(180, 321),288	25941,(182, 321),288	26229,(184, 321),288	26517,(186, 321),288	26805,(188, 321),288	27093,(190, 321),288	27381,(192, 321),288	27669,(194, 321),288	27957,(196, 321),288	28245,(198, 321),288	28533,(200, 321),288	28821,(202, 321),288	29109,(204, 321),288	29397,(206, 321),288	29685,(208, 321),288	29973,(210, 321),288	30261,(212, 321),288	30549,(214, 321),288	30837,(216, 321),288	31125,(218, 321),288	31413,(220, 321),288	31701,(222, 321),288	31989,(224, 321),288	32277,(226, 321),288	32565,(228, 321),288	32853,(230, 321),288	33141,(232, 321),288	33429,(234, 321),288	33717,(236, 321),288	34005,(238, 321),288	34293,(240, 321),288	34581,(242, 321),288	34869,(244, 321),288	35157,(246, 321),288	35445,(248, 321),288	35733,(250, 321),288	36021,(252, 321),288	36309,(254, 321),288	36597,(256, 321),288	36885,(258, 321),288	37173,(260, 321),288	37461,(262, 321),288	37749,(264, 321),288	38037,(266, 321),288	38325,(268, 321),288	38613,(270, 321),288	38901,(272, 321),288	39189,(274, 321),288	39477,(276, 321),288	39765,(278, 321),288	40053,(280, 321),288	40341,(282, 321),288	40629,(284, 321),288	40917,(286, 321),288	41205,(288, 321),288	41493,(290, 321),288	41781,(292, 321),288	42069,(294, 321),288	42357,(296, 321),288	42645,(298, 321),288	42933,(300, 321),288	43221,(302, 321),288	43509,(304, 321),288	43797,(306, 321),288	44085,(308, 321),288	44373,(310, 321),288	44661,(312, 321),288	44949,(314, 321),288	45237,(316, 321),288	45525,(318, 321),288	45813,(320, 321),288	
# Outgoing
21,(2, 321),288	309,(4, 321),288	597,(6, 321),288	885,(8, 321),288	1173,(10, 321),288	1461,(12, 321),288	1749,(14, 321),288	2037,(16, 321),288	2325,(18, 321),288	2613,(20, 321),288	2901,(22, 321),288	3189,(24, 321),288	3477,(26, 321),288	3765,(28, 321),288	4053,(30, 321),288	4341,(32, 321),288	4629,(34, 321),288	4917,(36, 321),288	5205,(38, 321),288	5493,(40, 321),288	5781,(42, 321),288	6069,(44, 321),288	6357,(46, 321),288	6645,(48, 321),288	6933,(50, 321),288	7221,(52, 321),288	7509,(54, 321),288	7797,(56, 321),288	8085,(58, 321),288	8373,(60, 321),288	8661,(62, 321),288	8949,(64, 321),288	9237,(66, 321),288	9525,(68, 321),288	9813,(70, 321),288	10101,(72, 321),288	10389,(74, 321),288	10677,(76, 321),288	10965,(78, 321),288	11253,(80, 321),288	11541,(82, 321),288	11829,(84, 321),288	12117,(86, 321),288	12405,(88, 321),288	12693,(90, 321),288	12981,(92, 321),288	13269,(94, 321),288	13557,(96, 321),288	13845,(98, 321),288	14133,(100, 321),288	14421,(102, 321),288	14709,(104, 321),288	14997,(106, 321),288	15285,(108, 321),288	15573,(110, 321),288	15861,(112, 321),288	16149,(114, 321),288	16437,(116, 321),288	16725,(118, 321),288	17013,(120, 321),288	17301,(122, 321),288	17589,(124, 321),288	17877,(126, 321),288	18165,(128, 321),288	18453,(130, 321),288	18741,(132, 321),288	19029,(134, 321),288	19317,(136, 321),288	19605,(138, 321),288	19893,(140, 321),288	20181,(142, 321),288	20469,(144, 321),288	20757,(146, 321),288	21045,(148, 321),288	21333,(150, 321),288	21621,(152, 321),288	21909,(154, 321),288	22197,(156, 321),288	22485,(158, 321),288	22773,(160, 321),288	23061,(162, 321),288	23349,(164, 321),288	23637,(166, 321),288	23925,(168, 321),288	24213,(170, 321),288	24501,(172, 321),288	24789,(174, 321),288	25077,(176, 321),288	25365,(178, 321),288	25653,(180, 321),288	25941,(182, 321),288	26229,(184, 321),288	26517,(186, 321),288	26805,(188, 321),288	27093,(190, 321),288	27381,(192, 321),288	27669,(194, 321),288	27957,(196, 321),288	28245,(198, 321),288	28533,(200, 321),288	28821,(202, 321),288	29109,(204, 321),288	29397,(206, 321),288	29685,(208, 321),288	29973,(210, 321),288	30261,(212, 321),288	30549,(214, 321),288	30837,(216, 321),288	31125,(218, 321),288	31413,(220, 321),288	31701,(222, 321),288	31989,(224, 321),288	32277,(226, 321),288	32565,(228, 321),288	32853,(230, 321),288	33141,(232, 321),288	33429,(234, 321),288	33717,(236, 321),288	34005,(238, 321),288	34293,(240, 321),288	34581,(242, 321),288	34869,(244, 321),288	35157,(246, 321),288	35445,(248, 321),288	35733,(250, 321),288	36021,(252, 321),288	36309,(254, 321),288	36597,(256, 321),288	36885,(258, 321),288	37173,(260, 321),288	37461,(262, 321),288	37749,(264, 321),288	38037,(266, 321),288	38325,(268, 321),288	38613,(270, 321),288	38901,(272, 321),288	39189,(274, 321),288	39477,(276, 321),288	39765,(278, 321),288	40053,(280, 321),288	40341,(282, 321),288	40629,(284, 321),288	40917,(286, 321),288	41205,(288, 321),288	41493,(290, 321),288	41781,(292, 321),288	42069,(294, 321),288	42357,(296, 321),288	42645,(298, 321),288	42933,(300, 321),288	43221,(302, 321),288	43509,(304, 321),288	43797,(306, 321),288	44085,(308, 321),288	44373,(310, 321),288	44661,(312, 321),288	44949,(314, 321),288	45237,(316, 321),288	45525,(318, 321),288	45813,(320, 321),288	
1,(0, 2),4	5,(0, 4),4	9,(0, 6),4	13,(0, 8),4	17,(0, 10),4	21,(0, 12),4	25,(0, 14),4	29,(0, 16),4	33,(0, 18),4	37,(0, 20),4	41,(0, 22),4	45,(0, 24),4	49,(0, 26),4	53,(0, 28),4	57,(0, 30),4	61,(0, 32),4	65,(0, 34),4	69,(0, 36),4	73,(0, 38),4	77,(0, 40),4	81,(0, 42),4	85,(0, 44),4	89,(0, 46),4	93,(0, 48),4	97,(0, 50),4	101,(0, 52),4	105,(0, 54),4	109,(0, 56),4	113,(0, 58),4	117,(0, 60),4	121,(0, 62),4	125,(0, 64),4	129,(0, 66),4	133,(0, 68),4	137,(0, 70),4	141,(0, 72),4	145,(0, 74),4	149,(0, 76),4	153,(0, 78),4	157,(0, 80),4	161,(0, 82),4	165,(0, 84),4	169,(0, 86),4	173,(0, 88),4	177,(0, 90),4	181,(0, 92),4	185,(0, 94),4	189,(0, 96),4	193,(0, 98),4	197,(0, 100),4	201,(0, 102),4	205,(0, 104),4	209,(0, 106),4	213,(0, 108),4	217,(0, 110),4	221,(0, 112),4	225,(0, 114),4	229,(0, 116),4	233,(0, 118),4	237,(0, 120),4	241,(0, 122),4	245,(0, 124),4	249,(0, 126),4	253,(0, 128),4	257,(0, 130),4	261,(0, 132),4	265,(0, 134),4	269,(0, 136),4	273,(0, 138),4	277,(0, 140),4	281,(0, 142),4	285,(0, 144),4	289,(0, 146),4	293,(0, 148),4	297,(0, 150),4	301,(0, 152),4	305,(0, 154),4	309,(0, 156),4	313,(0, 158),4	317,(0, 160),4	321,(0, 162),4	325,(0, 164),4	329,(0, 166),4	333,(0, 168),4	337,(0, 170),4	341,(0, 172),4	345,(0, 174),4	349,(0, 176),4	353,(0, 178),4	357,(0, 180),4	361,(0, 182),4	365,(0, 184),4	369,(0, 186),4	373,(0, 188),4	377,(0, 190),4	381,(0, 192),4	385,(0, 194),4	389,(0, 196),4	393,(0, 198),4	397,(0, 200),4	401,(0, 202),4	405,(0, 204),4	409,(0, 206),4	413,(0, 208),4	417,(0, 210),4	421,(0, 212),4	425,(0, 214),4	429,(0, 216),4	433,(0, 218),4	437,(0, 220),4	441,(0, 222),4	445,(0, 224),4	449,(0, 226),4	453,(0, 228),4	457,(0, 230),4	461,(0, 232),4	465,(0, 234),4	469,(0, 236),4	473,(0, 238),4	477,(0, 240),4	481,(0, 242),4	485,(0, 244),4	489,(0, 246),4	493,(0, 248),4	497,(0, 250),4	501,(0, 252),4	505,(0, 254),4	509,(0, 256),4	513,(0, 258),4	517,(0, 260),4	521,(0, 262),4	525,(0, 264),4	529,(0, 266),4	533,(0, 268),4	537,(0, 270),4	541,(0, 272),4	545,(0, 274),4	549,(0, 276),4	553,(0, 278),4	557,(0, 280),4	561,(0, 282),4	565,(0, 284),4	569,(0, 286),4	573,(0, 288),4	577,(0, 290),4	581,(0, 292),4	585,(0, 294),4	589,(0, 296),4	593,(0, 298),4	597,(0, 300),4	601,(0, 302),4	605,(0, 304),4	609,(0, 306),4	613,(0, 308),4	617,(0, 310),4	621,(0, 312),4	625,(0, 314),4	629,(0, 316),4	633,(0, 318),4	637,(0, 320),4	
