1106
# CPU
0,0,1	1,211,6	7,210,6	13,209,6	19,207,6	25,61,6	31,128,6	37,208,6	43,205,6	49,60,6	55,127,6	61,203,6	67,202,6	73,201,6	79,124,6	85,200,6	91,199,6	97,276,6	103,121,6	109,196,6	115,195,6	121,257,6	127,118,6	133,193,6	139,192,6	145,278,6	151,99,6	157,189,6	163,188,6	169,259,6	175,264,6	181,184,6	187,183,6	193,52,6	199,112,6	205,182,6	211,180,6	217,281,6	223,266,6	229,235,6	235,234,6	241,98,6	247,267,6	253,236,6	259,237,6	265,166,6	271,104,6	277,238,6	283,239,6	289,93,6	295,275,6	301,233,6	307,240,6	313,45,6	319,100,6	325,242,6	331,241,6	337,66,6	343,269,6	349,232,6	355,243,6	361,64,6	367,103,6	373,245,6	379,246,6	385,271,6	391,272,6	397,231,6	403,175,6	409,273,6	415,94,6	421,247,6	427,244,6	433,149,6	439,131,6	445,248,6	451,249,6	457,290,6	463,87,6	469,250,6	475,251,6	481,30,6	487,280,6	493,161,6	499,159,6	505,138,6	511,82,6	517,253,6	523,254,6	529,28,6	535,284,6	541,252,6	547,255,6	553,53,6	559,78,6	565,256,6	571,258,6	577,125,6	583,63,6	589,261,6	595,260,6	601,48,6	607,74,6	613,263,6	619,262,6	625,32,6	631,291,6	637,265,6	643,268,6	649,299,6	655,69,6	661,105,6	667,102,6	673,27,6	679,293,6	685,96,6	691,95,6	697,120,6	703,59,6	709,91,6	715,90,6	721,295,6	727,41,6	733,86,6	739,85,6	745,309,6	751,46,6	757,83,6	763,81,6	769,294,6	775,43,6	781,79,6	787,76,6	793,297,6	799,303,6	805,73,6	811,71,6	817,21,6	823,304,6	829,68,6	835,67,6	841,305,6	847,34,6	853,62,6	859,58,6	865,11,6	871,54,6	877,56,6	883,301,6	889,13,6	895,29,6	901,306,6	907,302,6	913,313,6	919,36,6	925,300,6	931,307,6	937,311,6	943,26,6	949,298,6	955,308,6	961,312,6	967,1,6	973,296,6	979,57,6	985,38,6	991,310,6	997,19,6	1003,18,6	1009,15,6	1015,23,6	1021,16,6	1027,14,6	1033,2,6	1039,9,6	1045,3,6	1051,4,6	1057,20,6	1063,6,6	1069,5,6	1075,7,6	1081,8,6	1087,10,6	1093,319,6	1105,321,1	
81,221,6	161,226,6	185,191,6	201,228,6	233,229,6	241,181,6	273,179,6	305,171,6	313,170,6	401,156,6	409,154,6	441,155,6	473,145,6	481,144,6	545,134,6	569,130,6	585,143,6	609,126,6	649,113,6	681,108,6	713,150,6	769,277,6	801,80,6	841,72,6	881,292,6	889,289,6	945,49,6	1001,25,6	1017,35,6	1057,318,6	1073,17,6	1089,12,6	1097,320,6	
9,214,6	41,217,6	49,218,6	73,220,6	113,223,6	121,198,6	153,225,6	193,227,6	225,230,6	265,176,6	297,172,6	329,168,6	337,167,6	369,165,6	465,147,6	497,141,6	505,140,6	537,135,6	577,129,6	641,115,6	665,109,6	673,110,6	705,114,6	721,101,6	753,274,6	785,279,6	793,84,6	833,283,6	873,287,6	905,65,6	913,55,6	937,47,6	969,40,6	993,24,6	1009,31,6	1049,317,6	
33,216,6	65,219,6	105,222,6	137,224,6	177,187,6	209,186,6	217,185,6	257,177,6	281,174,6	289,173,6	321,169,6	353,163,6	361,162,6	393,157,6	425,152,6	433,151,6	457,146,6	521,137,6	561,133,6	593,123,6	601,122,6	633,116,6	737,270,6	745,92,6	825,75,6	857,285,6	865,286,6	897,288,6	929,50,6	953,42,6	961,39,6	1041,314,6	1065,316,6	1081,315,6	
17,213,6	25,215,6	57,212,6	89,206,6	97,204,6	129,197,6	145,194,6	169,190,6	249,178,6	345,164,6	377,160,6	385,158,6	417,153,6	449,148,6	489,142,6	513,139,6	529,136,6	553,132,6	617,119,6	625,117,6	657,111,6	689,107,6	697,106,6	729,97,6	761,89,6	777,88,6	809,77,6	817,282,6	849,70,6	921,51,6	977,37,6	985,33,6	1025,22,6	1033,44,6	
# Incoming
15,(214, 321),2	23,(213, 321),2	31,(215, 321),2	39,(216, 321),2	47,(217, 321),2	55,(218, 321),2	63,(212, 321),2	71,(219, 321),2	79,(220, 321),2	87,(221, 321),2	95,(206, 321),2	103,(204, 321),2	111,(222, 321),2	119,(223, 321),2	127,(198, 321),2	135,(197, 321),2	143,(224, 321),2	151,(194, 321),2	159,(225, 321),2	167,(226, 321),2	175,(190, 321),2	183,(187, 321),2	191,(191, 321),2	199,(227, 321),2	207,(228, 321),2	215,(186, 321),2	223,(185, 321),2	231,(230, 321),2	239,(229, 321),2	247,(181, 321),2	255,(178, 321),2	263,(177, 321),2	271,(176, 321),2	279,(179, 321),2	287,(174, 321),2	295,(173, 321),2	303,(172, 321),2	311,(171, 321),2	319,(170, 321),2	327,(169, 321),2	335,(168, 321),2	343,(167, 321),2	351,(164, 321),2	359,(163, 321),2	367,(162, 321),2	375,(165, 321),2	383,(160, 321),2	391,(158, 321),2	399,(157, 321),2	407,(156, 321),2	415,(154, 321),2	423,(153, 321),2	431,(152, 321),2	439,(151, 321),2	447,(155, 321),2	455,(148, 321),2	463,(146, 321),2	471,(147, 321),2	479,(145, 321),2	487,(144, 321),2	495,(142, 321),2	503,(141, 321),2	511,(140, 321),2	519,(139, 321),2	527,(137, 321),2	535,(136, 321),2	543,(135, 321),2	551,(134, 321),2	559,(132, 321),2	567,(133, 321),2	575,(130, 321),2	583,(129, 321),2	591,(143, 321),2	599,(123, 321),2	607,(122, 321),2	615,(126, 321),2	623,(119, 321),2	631,(117, 321),2	639,(116, 321),2	647,(115, 321),2	655,(113, 321),2	663,(111, 321),2	671,(109, 321),2	679,(110, 321),2	687,(108, 321),2	695,(107, 321),2	703,(106, 321),2	711,(114, 321),2	719,(150, 321),2	727,(101, 321),2	735,(97, 321),2	743,(270, 321),2	751,(92, 321),2	759,(274, 321),2	767,(89, 321),2	775,(277, 321),2	783,(88, 321),2	791,(279, 321),2	799,(84, 321),2	807,(80, 321),2	815,(77, 321),2	823,(282, 321),2	831,(75, 321),2	839,(283, 321),2	847,(72, 321),2	855,(70, 321),2	863,(285, 321),2	871,(286, 321),2	879,(287, 321),2	887,(292, 321),2	895,(289, 321),2	903,(288, 321),2	911,(65, 321),2	919,(55, 321),2	927,(51, 321),2	935,(50, 321),2	943,(47, 321),2	951,(49, 321),2	959,(42, 321),2	967,(39, 321),2	975,(40, 321),2	983,(37, 321),2	991,(33, 321),2	999,(24, 321),2	1007,(25, 321),2	1015,(31, 321),2	1023,(35, 321),2	1031,(22, 321),2	1039,(44, 321),2	1047,(314, 321),2	1055,(317, 321),2	1063,(318, 321),2	1071,(316, 321),2	1079,(17, 321),2	1087,(315, 321),2	1095,(12, 321),2	1103,(320, 321),2	
73,(0, 221),8	153,(0, 226),8	177,(0, 191),8	193,(0, 228),8	225,(0, 229),8	233,(0, 181),8	265,(0, 179),8	297,(0, 171),8	305,(0, 170),8	393,(0, 156),8	401,(0, 154),8	433,(0, 155),8	465,(0, 145),8	473,(0, 144),8	537,(0, 134),8	561,(0, 130),8	577,(0, 143),8	601,(0, 126),8	641,(0, 113),8	673,(0, 108),8	705,(0, 150),8	761,(0, 277),8	793,(0, 80),8	833,(0, 72),8	873,(0, 292),8	881,(0, 289),8	937,(0, 49),8	993,(0, 25),8	1009,(0, 35),8	1049,(0, 318),8	1065,(0, 17),8	1081,(0, 12),8	1089,(0, 320),8	
1,(0, 214),8	33,(0, 217),8	41,(0, 218),8	65,(0, 220),8	105,(0, 223),8	113,(0, 198),8	145,(0, 225),8	185,(0, 227),8	217,(0, 230),8	257,(0, 176),8	289,(0, 172),8	321,(0, 168),8	329,(0, 167),8	361,(0, 165),8	457,(0, 147),8	489,(0, 141),8	497,(0, 140),8	529,(0, 135),8	569,(0, 129),8	633,(0, 115),8	657,(0, 109),8	665,(0, 110),8	697,(0, 114),8	713,(0, 101),8	745,(0, 274),8	777,(0, 279),8	785,(0, 84),8	825,(0, 283),8	865,(0, 287),8	897,(0, 65),8	905,(0, 55),8	929,(0, 47),8	961,(0, 40),8	985,(0, 24),8	1001,(0, 31),8	1041,(0, 317),8	
25,(0, 216),8	57,(0, 219),8	97,(0, 222),8	129,(0, 224),8	169,(0, 187),8	201,(0, 186),8	209,(0, 185),8	249,(0, 177),8	273,(0, 174),8	281,(0, 173),8	313,(0, 169),8	345,(0, 163),8	353,(0, 162),8	385,(0, 157),8	417,(0, 152),8	425,(0, 151),8	449,(0, 146),8	513,(0, 137),8	553,(0, 133),8	585,(0, 123),8	593,(0, 122),8	625,(0, 116),8	729,(0, 270),8	737,(0, 92),8	817,(0, 75),8	849,(0, 285),8	857,(0, 286),8	889,(0, 288),8	921,(0, 50),8	945,(0, 42),8	953,(0, 39),8	1033,(0, 314),8	1057,(0, 316),8	1073,(0, 315),8	
9,(0, 213),8	17,(0, 215),8	49,(0, 212),8	81,(0, 206),8	89,(0, 204),8	121,(0, 197),8	137,(0, 194),8	161,(0, 190),8	241,(0, 178),8	337,(0, 164),8	369,(0, 160),8	377,(0, 158),8	409,(0, 153),8	441,(0, 148),8	481,(0, 142),8	505,(0, 139),8	521,(0, 136),8	545,(0, 132),8	609,(0, 119),8	617,(0, 117),8	649,(0, 111),8	681,(0, 107),8	689,(0, 106),8	721,(0, 97),8	753,(0, 89),8	769,(0, 88),8	801,(0, 77),8	809,(0, 282),8	841,(0, 70),8	913,(0, 51),8	969,(0, 37),8	977,(0, 33),8	1017,(0, 22),8	1025,(0, 44),8	
# Outgoing
1,(0, 214),8	9,(0, 213),8	17,(0, 215),8	25,(0, 216),8	33,(0, 217),8	41,(0, 218),8	49,(0, 212),8	57,(0, 219),8	65,(0, 220),8	73,(0, 221),8	81,(0, 206),8	89,(0, 204),8	97,(0, 222),8	105,(0, 223),8	113,(0, 198),8	121,(0, 197),8	129,(0, 224),8	137,(0, 194),8	145,(0, 225),8	153,(0, 226),8	161,(0, 190),8	169,(0, 187),8	177,(0, 191),8	185,(0, 227),8	193,(0, 228),8	201,(0, 186),8	209,(0, 185),8	217,(0, 230),8	225,(0, 229),8	233,(0, 181),8	241,(0, 178),8	249,(0, 177),8	257,(0, 176),8	265,(0, 179),8	273,(0, 174),8	281,(0, 173),8	289,(0, 172),8	297,(0, 171),8	305,(0, 170),8	313,(0, 169),8	321,(0, 168),8	329,(0, 167),8	337,(0, 164),8	345,(0, 163),8	353,(0, 162),8	361,(0, 165),8	369,(0, 160),8	377,(0, 158),8	385,(0, 157),8	393,(0, 156),8	401,(0, 154),8	409,(0, 153),8	417,(0, 152),8	425,(0, 151),8	433,(0, 155),8	441,(0, 148),8	449,(0, 146),8	457,(0, 147),8	465,(0, 145),8	473,(0, 144),8	481,(0, 142),8	489,(0, 141),8	497,(0, 140),8	505,(0, 139),8	513,(0, 137),8	521,(0, 136),8	529,(0, 135),8	537,(0, 134),8	545,(0, 132),8	553,(0, 133),8	561,(0, 130),8	569,(0, 129),8	577,(0, 143),8	585,(0, 123),8	593,(0, 122),8	601,(0, 126),8	609,(0, 119),8	617,(0, 117),8	625,(0, 116),8	633,(0, 115),8	641,(0, 113),8	649,(0, 111),8	657,(0, 109),8	665,(0, 110),8	673,(0, 108),8	681,(0, 107),8	689,(0, 106),8	697,(0, 114),8	705,(0, 150),8	713,(0, 101),8	721,(0, 97),8	729,(0, 270),8	737,(0, 92),8	745,(0, 274),8	753,(0, 89),8	761,(0, 277),8	769,(0, 88),8	777,(0, 279),8	785,(0, 84),8	793,(0, 80),8	801,(0, 77),8	809,(0, 282),8	817,(0, 75),8	825,(0, 283),8	833,(0, 72),8	841,(0, 70),8	849,(0, 285),8	857,(0, 286),8	865,(0, 287),8	873,(0, 292),8	881,(0, 289),8	889,(0, 288),8	897,(0, 65),8	905,(0, 55),8	913,(0, 51),8	921,(0, 50),8	929,(0, 47),8	937,(0, 49),8	945,(0, 42),8	953,(0, 39),8	961,(0, 40),8	969,(0, 37),8	977,(0, 33),8	985,(0, 24),8	993,(0, 25),8	1001,(0, 31),8	1009,(0, 35),8	1017,(0, 22),8	1025,(0, 44),8	1033,(0, 314),8	1041,(0, 317),8	1049,(0, 318),8	1057,(0, 316),8	1065,(0, 17),8	1073,(0, 315),8	1081,(0, 12),8	1089,(0, 320),8	
87,(221, 321),2	167,(226, 321),2	191,(191, 321),2	207,(228, 321),2	239,(229, 321),2	247,(181, 321),2	279,(179, 321),2	311,(171, 321),2	319,(170, 321),2	407,(156, 321),2	415,(154, 321),2	447,(155, 321),2	479,(145, 321),2	487,(144, 321),2	551,(134, 321),2	575,(130, 321),2	591,(143, 321),2	615,(126, 321),2	655,(113, 321),2	687,(108, 321),2	719,(150, 321),2	775,(277, 321),2	807,(80, 321),2	847,(72, 321),2	887,(292, 321),2	895,(289, 321),2	951,(49, 321),2	1007,(25, 321),2	1023,(35, 321),2	1063,(318, 321),2	1079,(17, 321),2	1095,(12, 321),2	1103,(320, 321),2	
15,(214, 321),2	47,(217, 321),2	55,(218, 321),2	79,(220, 321),2	119,(223, 321),2	127,(198, 321),2	159,(225, 321),2	199,(227, 321),2	231,(230, 321),2	271,(176, 321),2	303,(172, 321),2	335,(168, 321),2	343,(167, 321),2	375,(165, 321),2	471,(147, 321),2	503,(141, 321),2	511,(140, 321),2	543,(135, 321),2	583,(129, 321),2	647,(115, 321),2	671,(109, 321),2	679,(110, 321),2	711,(114, 321),2	727,(101, 321),2	759,(274, 321),2	791,(279, 321),2	799,(84, 321),2	839,(283, 321),2	879,(287, 321),2	911,(65, 321),2	919,(55, 321),2	943,(47, 321),2	975,(40, 321),2	999,(24, 321),2	1015,(31, 321),2	1055,(317, 321),2	
39,(216, 321),2	71,(219, 321),2	111,(222, 321),2	143,(224, 321),2	183,(187, 321),2	215,(186, 321),2	223,(185, 321),2	263,(177, 321),2	287,(174, 321),2	295,(173, 321),2	327,(169, 321),2	359,(163, 321),2	367,(162, 321),2	399,(157, 321),2	431,(152, 321),2	439,(151, 321),2	463,(146, 321),2	527,(137, 321),2	567,(133, 321),2	599,(123, 321),2	607,(122, 321),2	639,(116, 321),2	743,(270, 321),2	751,(92, 321),2	831,(75, 321),2	863,(285, 321),2	871,(286, 321),2	903,(288, 321),2	935,(50, 321),2	959,(42, 321),2	967,(39, 321),2	1047,(314, 321),2	1071,(316, 321),2	1087,(315, 321),2	
23,(213, 321),2	31,(215, 321),2	63,(212, 321),2	95,(206, 321),2	103,(204, 321),2	135,(197, 321),2	151,(194, 321),2	175,(190, 321),2	255,(178, 321),2	351,(164, 321),2	383,(160, 321),2	391,(158, 321),2	423,(153, 321),2	455,(148, 321),2	495,(142, 321),2	519,(139, 321),2	535,(136, 321),2	559,(132, 321),2	623,(119, 321),2	631,(117, 321),2	663,(111, 321),2	695,(107, 321),2	703,(106, 321),2	735,(97, 321),2	767,(89, 321),2	783,(88, 321),2	815,(77, 321),2	823,(282, 321),2	855,(70, 321),2	927,(51, 321),2	983,(37, 321),2	991,(33, 321),2	1031,(22, 321),2	1039,(44, 321),2	
