1709
# CPU
0,321,1	1,211,7	8,210,7	15,212,7	22,209,7	29,207,7	36,208,7	43,206,7	50,205,7	57,213,7	64,204,7	71,202,7	78,203,7	85,201,7	92,199,7	99,200,7	106,198,7	113,196,7	120,197,7	127,195,7	134,194,7	141,214,7	148,193,7	155,99,7	162,119,7	169,192,7	176,215,7	183,191,7	190,190,7	197,189,7	204,188,7	211,187,7	218,216,7	225,186,7	232,185,7	239,184,7	246,183,7	253,182,7	260,181,7	267,180,7	274,179,7	281,178,7	288,177,7	295,176,7	302,219,7	309,262,7	316,268,7	323,173,7	330,172,7	337,171,7	344,239,7	351,238,7	358,240,7	365,237,7	372,236,7	379,241,7	386,242,7	393,235,7	400,243,7	407,225,7	414,222,7	421,244,7	428,175,7	435,174,7	442,245,7	449,170,7	456,168,7	463,79,7	470,96,7	477,247,7	484,248,7	491,246,7	498,166,7	505,249,7	512,165,7	519,163,7	526,250,7	533,162,7	540,160,7	547,251,7	554,252,7	561,158,7	568,253,7	575,156,7	582,154,7	589,254,7	596,153,7	603,151,7	610,255,7	617,57,7	624,91,7	631,256,7	638,149,7	645,257,7	652,258,7	659,148,7	666,146,7	673,259,7	680,145,7	687,143,7	694,260,7	701,141,7	708,139,7	715,261,7	722,137,7	729,263,7	736,264,7	743,136,7	750,134,7	757,265,7	764,132,7	771,49,7	778,283,7	785,131,7	792,129,7	799,266,7	806,128,7	813,267,7	820,269,7	827,126,7	834,124,7	841,270,7	848,122,7	855,121,7	862,271,7	869,118,7	876,117,7	883,272,7	890,115,7	897,273,7	904,274,7	911,113,7	918,112,7	925,285,7	932,294,7	939,108,7	946,107,7	953,110,7	960,105,7	967,104,7	974,275,7	981,276,7	988,103,7	995,277,7	1002,101,7	1009,98,7	1016,278,7	1023,84,7	1030,83,7	1037,82,7	1044,81,7	1051,80,7	1058,78,7	1065,85,7	1072,77,7	1079,44,7	1086,53,7	1093,76,7	1100,86,7	1107,75,7	1114,74,7	1121,87,7	1128,72,7	1135,71,7	1142,73,7	1149,70,7	1156,69,7	1163,88,7	1170,67,7	1177,66,7	1184,68,7	1191,65,7	1198,64,7	1205,90,7	1212,62,7	1219,61,7	1226,63,7	1233,46,7	1240,304,7	1247,60,7	1254,59,7	1261,56,7	1268,58,7	1275,55,7	1282,54,7	1289,93,7	1296,52,7	1303,50,7	1310,51,7	1317,48,7	1324,47,7	1331,94,7	1338,45,7	1345,42,7	1352,43,7	1359,41,7	1366,305,7	1373,306,7	1380,303,7	1387,20,7	1394,24,7	1401,307,7	1408,302,7	1415,308,7	1422,301,7	1429,300,7	1436,309,7	1443,298,7	1450,289,7	1457,310,7	1464,282,7	1471,40,7	1478,311,7	1485,38,7	1492,36,7	1499,312,7	1506,34,7	1513,33,7	1520,313,7	1527,31,7	1534,17,7	1541,10,7	1548,1,7	1555,18,7	1562,16,7	1569,15,7	1576,19,7	1583,14,7	1590,13,7	1597,21,7	1604,12,7	1611,11,7	1618,2,7	1625,3,7	1632,4,7	1639,5,7	1646,6,7	1653,7,7	1660,8,7	1667,9,7	1674,26,7	1681,317,7	1688,318,7	1695,319,7	1708,0,1	
67,220,7	111,223,7	133,224,7	155,226,7	177,227,7	243,231,7	287,234,7	309,233,7	375,167,7	397,164,7	441,159,7	463,157,7	485,155,7	529,150,7	595,142,7	617,140,7	639,138,7	683,133,7	749,125,7	771,123,7	837,114,7	881,109,7	903,106,7	947,100,7	1013,89,7	1057,280,7	1101,284,7	1123,286,7	1189,290,7	1211,291,7	1255,293,7	1277,295,7	1343,299,7	1365,279,7	1387,39,7	1431,35,7	1475,30,7	1519,25,7	1629,23,7	1651,28,7	1673,22,7	1695,320,7	
23,217,7	45,218,7	89,221,7	199,228,7	221,229,7	265,232,7	331,230,7	353,169,7	419,161,7	507,152,7	551,147,7	573,144,7	661,135,7	705,130,7	727,127,7	793,120,7	815,116,7	859,111,7	925,102,7	969,95,7	991,92,7	1035,97,7	1079,281,7	1145,287,7	1167,288,7	1233,292,7	1299,296,7	1321,297,7	1409,37,7	1453,32,7	1497,27,7	1541,29,7	1563,314,7	1585,315,7	1607,316,7	
# Incoming
30,(217, 0),6	52,(218, 0),6	74,(220, 0),6	96,(221, 0),6	118,(223, 0),6	140,(224, 0),6	162,(226, 0),6	184,(227, 0),6	206,(228, 0),6	228,(229, 0),6	250,(231, 0),6	272,(232, 0),6	294,(234, 0),6	316,(233, 0),6	338,(230, 0),6	360,(169, 0),6	382,(167, 0),6	404,(164, 0),6	426,(161, 0),6	448,(159, 0),6	470,(157, 0),6	492,(155, 0),6	514,(152, 0),6	536,(150, 0),6	558,(147, 0),6	580,(144, 0),6	602,(142, 0),6	624,(140, 0),6	646,(138, 0),6	668,(135, 0),6	690,(133, 0),6	712,(130, 0),6	734,(127, 0),6	756,(125, 0),6	778,(123, 0),6	800,(120, 0),6	822,(116, 0),6	844,(114, 0),6	866,(111, 0),6	888,(109, 0),6	910,(106, 0),6	932,(102, 0),6	954,(100, 0),6	976,(95, 0),6	998,(92, 0),6	1020,(89, 0),6	1042,(97, 0),6	1064,(280, 0),6	1086,(281, 0),6	1108,(284, 0),6	1130,(286, 0),6	1152,(287, 0),6	1174,(288, 0),6	1196,(290, 0),6	1218,(291, 0),6	1240,(292, 0),6	1262,(293, 0),6	1284,(295, 0),6	1306,(296, 0),6	1328,(297, 0),6	1350,(299, 0),6	1372,(279, 0),6	1394,(39, 0),6	1416,(37, 0),6	1438,(35, 0),6	1460,(32, 0),6	1482,(30, 0),6	1504,(27, 0),6	1526,(25, 0),6	1548,(29, 0),6	1570,(314, 0),6	1592,(315, 0),6	1614,(316, 0),6	1636,(23, 0),6	1658,(28, 0),6	1680,(22, 0),6	1702,(320, 0),6	
45,(321, 220),22	89,(321, 223),22	111,(321, 224),22	133,(321, 226),22	155,(321, 227),22	221,(321, 231),22	265,(321, 234),22	287,(321, 233),22	353,(321, 167),22	375,(321, 164),22	419,(321, 159),22	441,(321, 157),22	463,(321, 155),22	507,(321, 150),22	573,(321, 142),22	595,(321, 140),22	617,(321, 138),22	661,(321, 133),22	727,(321, 125),22	749,(321, 123),22	815,(321, 114),22	859,(321, 109),22	881,(321, 106),22	925,(321, 100),22	991,(321, 89),22	1035,(321, 280),22	1079,(321, 284),22	1101,(321, 286),22	1167,(321, 290),22	1189,(321, 291),22	1233,(321, 293),22	1255,(321, 295),22	1321,(321, 299),22	1343,(321, 279),22	1365,(321, 39),22	1409,(321, 35),22	1453,(321, 30),22	1497,(321, 25),22	1607,(321, 23),22	1629,(321, 28),22	1651,(321, 22),22	1673,(321, 320),22	
1,(321, 217),22	23,(321, 218),22	67,(321, 221),22	177,(321, 228),22	199,(321, 229),22	243,(321, 232),22	309,(321, 230),22	331,(321, 169),22	397,(321, 161),22	485,(321, 152),22	529,(321, 147),22	551,(321, 144),22	639,(321, 135),22	683,(321, 130),22	705,(321, 127),22	771,(321, 120),22	793,(321, 116),22	837,(321, 111),22	903,(321, 102),22	947,(321, 95),22	969,(321, 92),22	1013,(321, 97),22	1057,(321, 281),22	1123,(321, 287),22	1145,(321, 288),22	1211,(321, 292),22	1277,(321, 296),22	1299,(321, 297),22	1387,(321, 37),22	1431,(321, 32),22	1475,(321, 27),22	1519,(321, 29),22	1541,(321, 314),22	1563,(321, 315),22	1585,(321, 316),22	
# Outgoing
1,(321, 217),22	23,(321, 218),22	45,(321, 220),22	67,(321, 221),22	89,(321, 223),22	111,(321, 224),22	133,(321, 226),22	155,(321, 227),22	177,(321, 228),22	199,(321, 229),22	221,(321, 231),22	243,(321, 232),22	265,(321, 234),22	287,(321, 233),22	309,(321, 230),22	331,(321, 169),22	353,(321, 167),22	375,(321, 164),22	397,(321, 161),22	419,(321, 159),22	441,(321, 157),22	463,(321, 155),22	485,(321, 152),22	507,(321, 150),22	529,(321, 147),22	551,(321, 144),22	573,(321, 142),22	595,(321, 140),22	617,(321, 138),22	639,(321, 135),22	661,(321, 133),22	683,(321, 130),22	705,(321, 127),22	727,(321, 125),22	749,(321, 123),22	771,(321, 120),22	793,(321, 116),22	815,(321, 114),22	837,(321, 111),22	859,(321, 109),22	881,(321, 106),22	903,(321, 102),22	925,(321, 100),22	947,(321, 95),22	969,(321, 92),22	991,(321, 89),22	1013,(321, 97),22	1035,(321, 280),22	1057,(321, 281),22	1079,(321, 284),22	1101,(321, 286),22	1123,(321, 287),22	1145,(321, 288),22	1167,(321, 290),22	1189,(321, 291),22	1211,(321, 292),22	1233,(321, 293),22	1255,(321, 295),22	1277,(321, 296),22	1299,(321, 297),22	1321,(321, 299),22	1343,(321, 279),22	1365,(321, 39),22	1387,(321, 37),22	1409,(321, 35),22	1431,(321, 32),22	1453,(321, 30),22	1475,(321, 27),22	1497,(321, 25),22	1519,(321, 29),22	1541,(321, 314),22	1563,(321, 315),22	1585,(321, 316),22	1607,(321, 23),22	1629,(321, 28),22	1651,(321, 22),22	1673,(321, 320),22	
74,(220, 0),6	118,(223, 0),6	140,(224, 0),6	162,(226, 0),6	184,(227, 0),6	250,(231, 0),6	294,(234, 0),6	316,(233, 0),6	382,(167, 0),6	404,(164, 0),6	448,(159, 0),6	470,(157, 0),6	492,(155, 0),6	536,(150, 0),6	602,(142, 0),6	624,(140, 0),6	646,(138, 0),6	690,(133, 0),6	756,(125, 0),6	778,(123, 0),6	844,(114, 0),6	888,(109, 0),6	910,(106, 0),6	954,(100, 0),6	1020,(89, 0),6	1064,(280, 0),6	1108,(284, 0),6	1130,(286, 0),6	1196,(290, 0),6	1218,(291, 0),6	1262,(293, 0),6	1284,(295, 0),6	1350,(299, 0),6	1372,(279, 0),6	1394,(39, 0),6	1438,(35, 0),6	1482,(30, 0),6	1526,(25, 0),6	1636,(23, 0),6	1658,(28, 0),6	1680,(22, 0),6	1702,(320, 0),6	
30,(217, 0),6	52,(218, 0),6	96,(221, 0),6	206,(228, 0),6	228,(229, 0),6	272,(232, 0),6	338,(230, 0),6	360,(169, 0),6	426,(161, 0),6	514,(152, 0),6	558,(147, 0),6	580,(144, 0),6	668,(135, 0),6	712,(130, 0),6	734,(127, 0),6	800,(120, 0),6	822,(116, 0),6	866,(111, 0),6	932,(102, 0),6	976,(95, 0),6	998,(92, 0),6	1042,(97, 0),6	1086,(281, 0),6	1152,(287, 0),6	1174,(288, 0),6	1240,(292, 0),6	1306,(296, 0),6	1328,(297, 0),6	1416,(37, 0),6	1460,(32, 0),6	1504,(27, 0),6	1548,(29, 0),6	1570,(314, 0),6	1592,(315, 0),6	1614,(316, 0),6	
