4265
# CPU
0,321,1	1,211,21	22,210,21	43,209,21	64,208,21	85,213,21	106,206,21	127,205,21	148,204,21	169,203,21	190,216,21	211,201,21	232,199,21	253,123,21	274,124,21	295,218,21	316,197,21	337,196,21	358,220,21	379,194,21	400,221,21	421,192,21	442,191,21	463,223,21	484,189,21	505,272,21	526,115,21	547,187,21	568,225,21	589,185,21	610,184,21	631,183,21	652,181,21	673,227,21	694,179,21	715,178,21	736,177,21	757,108,21	778,267,21	799,175,21	820,174,21	841,173,21	862,239,21	883,240,21	904,236,21	925,235,21	946,234,21	967,242,21	988,243,21	1009,101,21	1030,270,21	1051,172,21	1072,171,21	1093,244,21	1114,169,21	1135,167,21	1156,166,21	1177,246,21	1198,247,21	1219,164,21	1240,162,21	1261,275,21	1282,97,21	1303,248,21	1324,159,21	1345,157,21	1366,249,21	1387,250,21	1408,251,21	1429,154,21	1450,152,21	1471,252,21	1492,150,21	1513,276,21	1534,125,21	1555,147,21	1576,253,21	1597,254,21	1618,145,21	1639,144,21	1660,142,21	1681,256,21	1702,140,21	1723,139,21	1744,138,21	1765,82,21	1786,81,21	1807,259,21	1828,136,21	1849,135,21	1870,134,21	1891,261,21	1912,131,21	1933,130,21	1954,129,21	1975,128,21	1996,263,21	2017,63,21	2038,74,21	2059,126,21	2080,122,21	2101,266,21	2122,120,21	2143,118,21	2164,117,21	2185,116,21	2206,269,21	2227,113,21	2248,112,21	2269,66,21	2290,67,21	2311,274,21	2332,110,21	2353,107,21	2374,277,21	2395,105,21	2416,278,21	2437,103,21	2458,102,21	2479,280,21	2500,99,21	2521,292,21	2542,57,21	2563,87,21	2584,89,21	2605,85,21	2626,84,21	2647,83,21	2668,80,21	2689,92,21	2710,78,21	2731,77,21	2752,76,21	2773,44,21	2794,43,21	2815,75,21	2836,73,21	2857,72,21	2878,281,21	2899,282,21	2920,69,21	2941,68,21	2962,65,21	2983,284,21	3004,285,21	3025,303,21	3046,56,21	3067,60,21	3088,286,21	3109,287,21	3130,58,21	3151,54,21	3172,53,21	3193,289,21	3214,290,21	3235,51,21	3256,49,21	3277,29,21	3298,307,21	3319,293,21	3340,47,21	3361,45,21	3382,294,21	3403,304,21	3424,305,21	3445,301,21	3466,299,21	3487,306,21	3508,297,21	3529,33,21	3550,27,21	3571,295,21	3592,309,21	3613,40,21	3634,39,21	3655,38,21	3676,36,21	3697,311,21	3718,34,21	3739,32,21	3760,31,21	3781,30,21	3802,18,21	3823,17,21	3844,16,21	3865,15,21	3886,20,21	3907,21,21	3928,22,21	3949,12,21	3970,11,21	3991,24,21	4012,25,21	4033,318,21	4054,7,21	4075,3,21	4096,4,21	4117,6,21	4138,8,21	4159,26,21	4180,315,21	4201,316,21	4222,319,21	4243,320,21	4264,0,1	
37,212,21	73,207,21	109,214,21	145,215,21	181,202,21	217,200,21	253,217,21	289,198,21	325,219,21	361,195,21	397,193,21	433,222,21	469,190,21	505,188,21	541,224,21	577,186,21	613,226,21	649,182,21	685,180,21	721,228,21	757,229,21	793,176,21	829,230,21	865,238,21	901,237,21	937,241,21	973,233,21	1009,232,21	1045,231,21	1081,170,21	1117,168,21	1153,245,21	1189,165,21	1225,163,21	1261,161,21	1297,160,21	1333,158,21	1369,156,21	1405,155,21	1441,153,21	1477,151,21	1513,149,21	1549,148,21	1585,146,21	1621,255,21	1657,143,21	1693,141,21	1729,257,21	1765,137,21	1801,258,21	1837,260,21	1873,133,21	1909,132,21	1945,262,21	1981,127,21	2017,264,21	2053,265,21	2089,121,21	2125,119,21	2161,268,21	2197,114,21	2233,271,21	2269,273,21	2305,111,21	2341,109,21	2377,106,21	2413,104,21	2449,279,21	2485,100,21	2521,98,21	2557,88,21	2593,86,21	2629,90,21	2665,91,21	2701,79,21	2737,93,21	2773,94,21	2809,95,21	2845,96,21	2881,71,21	2917,70,21	2953,283,21	2989,64,21	3025,61,21	3061,62,21	3097,59,21	3133,55,21	3169,288,21	3205,52,21	3241,50,21	3277,291,21	3313,48,21	3349,46,21	3385,42,21	3421,302,21	3457,300,21	3493,298,21	3529,308,21	3565,296,21	3601,41,21	3637,310,21	3673,37,21	3709,35,21	3745,312,21	3781,28,21	3817,313,21	3853,19,21	3889,14,21	3925,13,21	3961,23,21	3997,10,21	4033,1,21	4069,2,21	4105,5,21	4141,9,21	4177,314,21	4213,317,21	
# Incoming
58,(212, 0),9	94,(207, 0),9	130,(214, 0),9	166,(215, 0),9	202,(202, 0),9	238,(200, 0),9	274,(217, 0),9	310,(198, 0),9	346,(219, 0),9	382,(195, 0),9	418,(193, 0),9	454,(222, 0),9	490,(190, 0),9	526,(188, 0),9	562,(224, 0),9	598,(186, 0),9	634,(226, 0),9	670,(182, 0),9	706,(180, 0),9	742,(228, 0),9	778,(229, 0),9	814,(176, 0),9	850,(230, 0),9	886,(238, 0),9	922,(237, 0),9	958,(241, 0),9	994,(233, 0),9	1030,(232, 0),9	1066,(231, 0),9	1102,(170, 0),9	1138,(168, 0),9	1174,(245, 0),9	1210,(165, 0),9	1246,(163, 0),9	1282,(161, 0),9	1318,(160, 0),9	1354,(158, 0),9	1390,(156, 0),9	1426,(155, 0),9	1462,(153, 0),9	1498,(151, 0),9	1534,(149, 0),9	1570,(148, 0),9	1606,(146, 0),9	1642,(255, 0),9	1678,(143, 0),9	1714,(141, 0),9	1750,(257, 0),9	1786,(137, 0),9	1822,(258, 0),9	1858,(260, 0),9	1894,(133, 0),9	1930,(132, 0),9	1966,(262, 0),9	2002,(127, 0),9	2038,(264, 0),9	2074,(265, 0),9	2110,(121, 0),9	2146,(119, 0),9	2182,(268, 0),9	2218,(114, 0),9	2254,(271, 0),9	2290,(273, 0),9	2326,(111, 0),9	2362,(109, 0),9	2398,(106, 0),9	2434,(104, 0),9	2470,(279, 0),9	2506,(100, 0),9	2542,(98, 0),9	2578,(88, 0),9	2614,(86, 0),9	2650,(90, 0),9	2686,(91, 0),9	2722,(79, 0),9	2758,(93, 0),9	2794,(94, 0),9	2830,(95, 0),9	2866,(96, 0),9	2902,(71, 0),9	2938,(70, 0),9	2974,(283, 0),9	3010,(64, 0),9	3046,(61, 0),9	3082,(62, 0),9	3118,(59, 0),9	3154,(55, 0),9	3190,(288, 0),9	3226,(52, 0),9	3262,(50, 0),9	3298,(291, 0),9	3334,(48, 0),9	3370,(46, 0),9	3406,(42, 0),9	3442,(302, 0),9	3478,(300, 0),9	3514,(298, 0),9	3550,(308, 0),9	3586,(296, 0),9	3622,(41, 0),9	3658,(310, 0),9	3694,(37, 0),9	3730,(35, 0),9	3766,(312, 0),9	3802,(28, 0),9	3838,(313, 0),9	3874,(19, 0),9	3910,(14, 0),9	3946,(13, 0),9	3982,(23, 0),9	4018,(10, 0),9	4054,(1, 0),9	4090,(2, 0),9	4126,(5, 0),9	4162,(9, 0),9	4198,(314, 0),9	4234,(317, 0),9	
1,(321, 212),36	37,(321, 207),36	73,(321, 214),36	109,(321, 215),36	145,(321, 202),36	181,(321, 200),36	217,(321, 217),36	253,(321, 198),36	289,(321, 219),36	325,(321, 195),36	361,(321, 193),36	397,(321, 222),36	433,(321, 190),36	469,(321, 188),36	505,(321, 224),36	541,(321, 186),36	577,(321, 226),36	613,(321, 182),36	649,(321, 180),36	685,(321, 228),36	721,(321, 229),36	757,(321, 176),36	793,(321, 230),36	829,(321, 238),36	865,(321, 237),36	901,(321, 241),36	937,(321, 233),36	973,(321, 232),36	1009,(321, 231),36	1045,(321, 170),36	1081,(321, 168),36	1117,(321, 245),36	1153,(321, 165),36	1189,(321, 163),36	1225,(321, 161),36	1261,(321, 160),36	1297,(321, 158),36	1333,(321, 156),36	1369,(321, 155),36	1405,(321, 153),36	1441,(321, 151),36	1477,(321, 149),36	1513,(321, 148),36	1549,(321, 146),36	1585,(321, 255),36	1621,(321, 143),36	1657,(321, 141),36	1693,(321, 257),36	1729,(321, 137),36	1765,(321, 258),36	1801,(321, 260),36	1837,(321, 133),36	1873,(321, 132),36	1909,(321, 262),36	1945,(321, 127),36	1981,(321, 264),36	2017,(321, 265),36	2053,(321, 121),36	2089,(321, 119),36	2125,(321, 268),36	2161,(321, 114),36	2197,(321, 271),36	2233,(321, 273),36	2269,(321, 111),36	2305,(321, 109),36	2341,(321, 106),36	2377,(321, 104),36	2413,(321, 279),36	2449,(321, 100),36	2485,(321, 98),36	2521,(321, 88),36	2557,(321, 86),36	2593,(321, 90),36	2629,(321, 91),36	2665,(321, 79),36	2701,(321, 93),36	2737,(321, 94),36	2773,(321, 95),36	2809,(321, 96),36	2845,(321, 71),36	2881,(321, 70),36	2917,(321, 283),36	2953,(321, 64),36	2989,(321, 61),36	3025,(321, 62),36	3061,(321, 59),36	3097,(321, 55),36	3133,(321, 288),36	3169,(321, 52),36	3205,(321, 50),36	3241,(321, 291),36	3277,(321, 48),36	3313,(321, 46),36	3349,(321, 42),36	3385,(321, 302),36	3421,(321, 300),36	3457,(321, 298),36	3493,(321, 308),36	3529,(321, 296),36	3565,(321, 41),36	3601,(321, 310),36	3637,(321, 37),36	3673,(321, 35),36	3709,(321, 312),36	3745,(321, 28),36	3781,(321, 313),36	3817,(321, 19),36	3853,(321, 14),36	3889,(321, 13),36	3925,(321, 23),36	3961,(321, 10),36	3997,(321, 1),36	4033,(321, 2),36	4069,(321, 5),36	4105,(321, 9),36	4141,(321, 314),36	4177,(321, 317),36	
# Outgoing
1,(321, 212),36	37,(321, 207),36	73,(321, 214),36	109,(321, 215),36	145,(321, 202),36	181,(321, 200),36	217,(321, 217),36	253,(321, 198),36	289,(321, 219),36	325,(321, 195),36	361,(321, 193),36	397,(321, 222),36	433,(321, 190),36	469,(321, 188),36	505,(321, 224),36	541,(321, 186),36	577,(321, 226),36	613,(321, 182),36	649,(321, 180),36	685,(321, 228),36	721,(321, 229),36	757,(321, 176),36	793,(321, 230),36	829,(321, 238),36	865,(321, 237),36	901,(321, 241),36	937,(321, 233),36	973,(321, 232),36	1009,(321, 231),36	1045,(321, 170),36	1081,(321, 168),36	1117,(321, 245),36	1153,(321, 165),36	1189,(321, 163),36	1225,(321, 161),36	1261,(321, 160),36	1297,(321, 158),36	1333,(321, 156),36	1369,(321, 155),36	1405,(321, 153),36	1441,(321, 151),36	1477,(321, 149),36	1513,(321, 148),36	1549,(321, 146),36	1585,(321, 255),36	1621,(321, 143),36	1657,(321, 141),36	1693,(321, 257),36	1729,(321, 137),36	1765,(321, 258),36	1801,(321, 260),36	1837,(321, 133),36	1873,(321, 132),36	1909,(321, 262),36	1945,(321, 127),36	1981,(321, 264),36	2017,(321, 265),36	2053,(321, 121),36	2089,(321, 119),36	2125,(321, 268),36	2161,(321, 114),36	2197,(321, 271),36	2233,(321, 273),36	2269,(321, 111),36	2305,(321, 109),36	2341,(321, 106),36	2377,(321, 104),36	2413,(321, 279),36	2449,(321, 100),36	2485,(321, 98),36	2521,(321, 88),36	2557,(321, 86),36	2593,(321, 90),36	2629,(321, 91),36	2665,(321, 79),36	2701,(321, 93),36	2737,(321, 94),36	2773,(321, 95),36	2809,(321, 96),36	2845,(321, 71),36	2881,(321, 70),36	2917,(321, 283),36	2953,(321, 64),36	2989,(321, 61),36	3025,(321, 62),36	3061,(321, 59),36	3097,(321, 55),36	3133,(321, 288),36	3169,(321, 52),36	3205,(321, 50),36	3241,(321, 291),36	3277,(321, 48),36	3313,(321, 46),36	3349,(321, 42),36	3385,(321, 302),36	3421,(321, 300),36	3457,(321, 298),36	3493,(321, 308),36	3529,(321, 296),36	3565,(321, 41),36	3601,(321, 310),36	3637,(321, 37),36	3673,(321, 35),36	3709,(321, 312),36	3745,(321, 28),36	3781,(321, 313),36	3817,(321, 19),36	3853,(321, 14),36	3889,(321, 13),36	3925,(321, 23),36	3961,(321, 10),36	3997,(321, 1),36	4033,(321, 2),36	4069,(321, 5),36	4105,(321, 9),36	4141,(321, 314),36	4177,(321, 317),36	
58,(212, 0),9	94,(207, 0),9	130,(214, 0),9	166,(215, 0),9	202,(202, 0),9	238,(200, 0),9	274,(217, 0),9	310,(198, 0),9	346,(219, 0),9	382,(195, 0),9	418,(193, 0),9	454,(222, 0),9	490,(190, 0),9	526,(188, 0),9	562,(224, 0),9	598,(186, 0),9	634,(226, 0),9	670,(182, 0),9	706,(180, 0),9	742,(228, 0),9	778,(229, 0),9	814,(176, 0),9	850,(230, 0),9	886,(238, 0),9	922,(237, 0),9	958,(241, 0),9	994,(233, 0),9	1030,(232, 0),9	1066,(231, 0),9	1102,(170, 0),9	1138,(168, 0),9	1174,(245, 0),9	1210,(165, 0),9	1246,(163, 0),9	1282,(161, 0),9	1318,(160, 0),9	1354,(158, 0),9	1390,(156, 0),9	1426,(155, 0),9	1462,(153, 0),9	1498,(151, 0),9	1534,(149, 0),9	1570,(148, 0),9	1606,(146, 0),9	1642,(255, 0),9	1678,(143, 0),9	1714,(141, 0),9	1750,(257, 0),9	1786,(137, 0),9	1822,(258, 0),9	1858,(260, 0),9	1894,(133, 0),9	1930,(132, 0),9	1966,(262, 0),9	2002,(127, 0),9	2038,(264, 0),9	2074,(265, 0),9	2110,(121, 0),9	2146,(119, 0),9	2182,(268, 0),9	2218,(114, 0),9	2254,(271, 0),9	2290,(273, 0),9	2326,(111, 0),9	2362,(109, 0),9	2398,(106, 0),9	2434,(104, 0),9	2470,(279, 0),9	2506,(100, 0),9	2542,(98, 0),9	2578,(88, 0),9	2614,(86, 0),9	2650,(90, 0),9	2686,(91, 0),9	2722,(79, 0),9	2758,(93, 0),9	2794,(94, 0),9	2830,(95, 0),9	2866,(96, 0),9	2902,(71, 0),9	2938,(70, 0),9	2974,(283, 0),9	3010,(64, 0),9	3046,(61, 0),9	3082,(62, 0),9	3118,(59, 0),9	3154,(55, 0),9	3190,(288, 0),9	3226,(52, 0),9	3262,(50, 0),9	3298,(291, 0),9	3334,(48, 0),9	3370,(46, 0),9	3406,(42, 0),9	3442,(302, 0),9	3478,(300, 0),9	3514,(298, 0),9	3550,(308, 0),9	3586,(296, 0),9	3622,(41, 0),9	3658,(310, 0),9	3694,(37, 0),9	3730,(35, 0),9	3766,(312, 0),9	3802,(28, 0),9	3838,(313, 0),9	3874,(19, 0),9	3910,(14, 0),9	3946,(13, 0),9	3982,(23, 0),9	4018,(10, 0),9	4054,(1, 0),9	4090,(2, 0),9	4126,(5, 0),9	4162,(9, 0),9	4198,(314, 0),9	4234,(317, 0),9	
