270
# CPU
0,321,1	1,320,1	2,210,1	3,211,1	4,209,1	5,208,1	6,207,1	7,212,1	8,206,1	9,213,1	10,205,1	11,204,1	12,203,1	13,202,1	14,214,1	15,200,1	16,199,1	17,201,1	18,198,1	19,197,1	20,196,1	21,195,1	22,215,1	23,194,1	24,216,1	25,192,1	26,191,1	27,193,1	28,190,1	29,217,1	30,189,1	31,188,1	32,187,1	33,186,1	34,219,1	35,185,1	36,184,1	37,221,1	38,183,1	39,182,1	40,181,1	41,180,1	42,179,1	43,178,1	44,223,1	45,176,1	46,175,1	47,177,1	48,174,1	49,225,1	50,173,1	51,172,1	52,171,1	53,170,1	54,227,1	55,240,1	56,239,1	57,241,1	58,238,1	59,237,1	60,242,1	61,235,1	62,243,1	63,233,1	64,244,1	65,231,1	66,229,1	67,245,1	68,169,1	69,168,1	70,246,1	71,167,1	72,165,1	73,164,1	74,247,1	75,248,1	76,163,1	77,249,1	78,162,1	79,160,1	80,250,1	81,159,1	82,157,1	83,156,1	84,251,1	85,155,1	86,153,1	87,252,1	88,152,1	89,253,1	90,254,1	91,151,1	92,149,1	93,148,1	94,255,1	95,147,1	96,145,1	97,256,1	98,144,1	99,143,1	100,257,1	101,141,1	102,258,1	103,140,1	104,259,1	105,139,1	106,137,1	107,260,1	108,136,1	109,135,1	110,261,1	111,133,1	112,132,1	113,131,1	114,262,1	115,263,1	116,129,1	117,264,1	118,128,1	119,127,1	120,265,1	121,125,1	122,124,1	123,123,1	124,266,1	125,121,1	126,120,1	127,267,1	128,119,1	129,268,1	130,269,1	131,117,1	132,116,1	133,115,1	134,270,1	135,113,1	136,112,1	137,271,1	138,111,1	139,109,1	140,272,1	141,108,1	142,273,1	143,107,1	144,274,1	145,105,1	146,104,1	147,275,1	148,102,1	149,101,1	150,276,1	151,100,1	152,99,1	153,97,1	154,277,1	155,278,1	156,96,1	157,279,1	158,94,1	159,93,1	160,280,1	161,92,1	162,81,1	163,80,1	164,82,1	165,78,1	166,77,1	167,79,1	168,76,1	169,83,1	170,75,1	171,74,1	172,73,1	173,72,1	174,84,1	175,71,1	176,70,1	177,85,1	178,69,1	179,68,1	180,67,1	181,66,1	182,86,1	183,65,1	184,88,1	185,63,1	186,62,1	187,64,1	188,61,1	189,89,1	190,60,1	191,59,1	192,58,1	193,57,1	194,90,1	195,56,1	196,55,1	197,282,1	198,54,1	199,53,1	200,52,1	201,51,1	202,284,1	203,50,1	204,286,1	205,48,1	206,47,1	207,49,1	208,46,1	209,289,1	210,45,1	211,44,1	212,43,1	213,42,1	214,291,1	215,304,1	216,303,1	217,305,1	218,302,1	219,301,1	220,306,1	221,299,1	222,297,1	223,295,1	224,307,1	225,293,1	226,41,1	227,308,1	228,40,1	229,39,1	230,309,1	231,37,1	232,36,1	233,35,1	234,310,1	235,33,1	236,32,1	237,311,1	238,31,1	239,29,1	240,312,1	241,28,1	242,17,1	243,16,1	244,18,1	245,15,1	246,14,1	247,19,1	248,13,1	249,20,1	250,12,1	251,11,1	252,21,1	253,10,1	254,22,1	255,1,1	256,2,1	257,3,1	258,4,1	259,5,1	260,6,1	261,7,1	262,8,1	263,9,1	264,24,1	265,315,1	266,317,1	267,318,1	268,319,1	269,0,1	
6,218,1	11,220,1	21,224,1	26,226,1	31,228,1	36,230,1	41,232,1	46,234,1	51,236,1	56,166,1	66,158,1	71,154,1	76,150,1	81,146,1	86,142,1	91,138,1	101,130,1	136,103,1	146,95,1	151,91,1	156,87,1	161,281,1	166,283,1	171,285,1	176,287,1	201,296,1	206,298,1	211,300,1	216,38,1	221,34,1	236,23,1	241,313,1	251,316,1	261,27,1	
16,222,1	61,161,1	96,134,1	106,126,1	111,122,1	116,118,1	121,114,1	126,110,1	131,106,1	141,98,1	181,288,1	186,290,1	191,292,1	196,294,1	226,30,1	231,26,1	246,314,1	256,25,1	
# Incoming
7,(218, 0),3	12,(220, 0),3	17,(222, 0),3	22,(224, 0),3	27,(226, 0),3	32,(228, 0),3	37,(230, 0),3	42,(232, 0),3	47,(234, 0),3	52,(236, 0),3	57,(166, 0),3	62,(161, 0),3	67,(158, 0),3	72,(154, 0),3	77,(150, 0),3	82,(146, 0),3	87,(142, 0),3	92,(138, 0),3	97,(134, 0),3	102,(130, 0),3	107,(126, 0),3	112,(122, 0),3	117,(118, 0),3	122,(114, 0),3	127,(110, 0),3	132,(106, 0),3	137,(103, 0),3	142,(98, 0),3	147,(95, 0),3	152,(91, 0),3	157,(87, 0),3	162,(281, 0),3	167,(283, 0),3	172,(285, 0),3	177,(287, 0),3	182,(288, 0),3	187,(290, 0),3	192,(292, 0),3	197,(294, 0),3	202,(296, 0),3	207,(298, 0),3	212,(300, 0),3	217,(38, 0),3	222,(34, 0),3	227,(30, 0),3	232,(26, 0),3	237,(23, 0),3	242,(313, 0),3	247,(314, 0),3	252,(316, 0),3	257,(25, 0),3	262,(27, 0),3	
1,(321, 218),5	6,(321, 220),5	16,(321, 224),5	21,(321, 226),5	26,(321, 228),5	31,(321, 230),5	36,(321, 232),5	41,(321, 234),5	46,(321, 236),5	51,(321, 166),5	61,(321, 158),5	66,(321, 154),5	71,(321, 150),5	76,(321, 146),5	81,(321, 142),5	86,(321, 138),5	96,(321, 130),5	131,(321, 103),5	141,(321, 95),5	146,(321, 91),5	151,(321, 87),5	156,(321, 281),5	161,(321, 283),5	166,(321, 285),5	171,(321, 287),5	196,(321, 296),5	201,(321, 298),5	206,(321, 300),5	211,(321, 38),5	216,(321, 34),5	231,(321, 23),5	236,(321, 313),5	246,(321, 316),5	256,(321, 27),5	
11,(321, 222),5	56,(321, 161),5	91,(321, 134),5	101,(321, 126),5	106,(321, 122),5	111,(321, 118),5	116,(321, 114),5	121,(321, 110),5	126,(321, 106),5	136,(321, 98),5	176,(321, 288),5	181,(321, 290),5	186,(321, 292),5	191,(321, 294),5	221,(321, 30),5	226,(321, 26),5	241,(321, 314),5	251,(321, 25),5	
# Outgoing
1,(321, 218),5	6,(321, 220),5	11,(321, 222),5	16,(321, 224),5	21,(321, 226),5	26,(321, 228),5	31,(321, 230),5	36,(321, 232),5	41,(321, 234),5	46,(321, 236),5	51,(321, 166),5	56,(321, 161),5	61,(321, 158),5	66,(321, 154),5	71,(321, 150),5	76,(321, 146),5	81,(321, 142),5	86,(321, 138),5	91,(321, 134),5	96,(321, 130),5	101,(321, 126),5	106,(321, 122),5	111,(321, 118),5	116,(321, 114),5	121,(321, 110),5	126,(321, 106),5	131,(321, 103),5	136,(321, 98),5	141,(321, 95),5	146,(321, 91),5	151,(321, 87),5	156,(321, 281),5	161,(321, 283),5	166,(321, 285),5	171,(321, 287),5	176,(321, 288),5	181,(321, 290),5	186,(321, 292),5	191,(321, 294),5	196,(321, 296),5	201,(321, 298),5	206,(321, 300),5	211,(321, 38),5	216,(321, 34),5	221,(321, 30),5	226,(321, 26),5	231,(321, 23),5	236,(321, 313),5	241,(321, 314),5	246,(321, 316),5	251,(321, 25),5	256,(321, 27),5	
7,(218, 0),3	12,(220, 0),3	22,(224, 0),3	27,(226, 0),3	32,(228, 0),3	37,(230, 0),3	42,(232, 0),3	47,(234, 0),3	52,(236, 0),3	57,(166, 0),3	67,(158, 0),3	72,(154, 0),3	77,(150, 0),3	82,(146, 0),3	87,(142, 0),3	92,(138, 0),3	102,(130, 0),3	137,(103, 0),3	147,(95, 0),3	152,(91, 0),3	157,(87, 0),3	162,(281, 0),3	167,(283, 0),3	172,(285, 0),3	177,(287, 0),3	202,(296, 0),3	207,(298, 0),3	212,(300, 0),3	217,(38, 0),3	222,(34, 0),3	237,(23, 0),3	242,(313, 0),3	252,(316, 0),3	262,(27, 0),3	
17,(222, 0),3	62,(161, 0),3	97,(134, 0),3	107,(126, 0),3	112,(122, 0),3	117,(118, 0),3	122,(114, 0),3	127,(110, 0),3	132,(106, 0),3	142,(98, 0),3	182,(288, 0),3	187,(290, 0),3	192,(292, 0),3	197,(294, 0),3	227,(30, 0),3	232,(26, 0),3	247,(314, 0),3	257,(25, 0),3	
