243
# CPU
0,321,1	1,320,1	2,210,1	3,211,1	4,209,1	5,208,1	6,207,1	7,206,1	8,212,1	9,205,1	10,204,1	11,203,1	12,202,1	13,201,1	14,200,1	15,199,1	16,198,1	17,197,1	18,196,1	19,195,1	20,213,1	21,194,1	22,193,1	23,192,1	24,191,1	25,190,1	26,214,1	27,189,1	28,188,1	29,187,1	30,186,1	31,185,1	32,217,1	33,184,1	34,183,1	35,182,1	36,181,1	37,180,1	38,179,1	39,178,1	40,177,1	41,176,1	42,175,1	43,174,1	44,221,1	45,173,1	46,172,1	47,171,1	48,170,1	49,169,1	50,240,1	51,241,1	52,239,1	53,238,1	54,242,1	55,237,1	56,243,1	57,244,1	58,236,1	59,235,1	60,245,1	61,229,1	62,225,1	63,246,1	64,167,1	65,166,1	66,247,1	67,164,1	68,248,1	69,249,1	70,162,1	71,161,1	72,250,1	73,159,1	74,157,1	75,251,1	76,156,1	77,154,1	78,252,1	79,153,1	80,253,1	81,254,1	82,152,1	83,150,1	84,255,1	85,148,1	86,147,1	87,256,1	88,145,1	89,144,1	90,257,1	91,142,1	92,258,1	93,259,1	94,140,1	95,139,1	96,260,1	97,137,1	98,136,1	99,261,1	100,134,1	101,132,1	102,262,1	103,131,1	104,263,1	105,264,1	106,129,1	107,128,1	108,265,1	109,126,1	110,124,1	111,266,1	112,123,1	113,121,1	114,267,1	115,120,1	116,268,1	117,269,1	118,118,1	119,116,1	120,270,1	121,115,1	122,113,1	123,271,1	124,112,1	125,110,1	126,272,1	127,108,1	128,273,1	129,274,1	130,107,1	131,105,1	132,275,1	133,104,1	134,102,1	135,276,1	136,100,1	137,99,1	138,277,1	139,97,1	140,278,1	141,279,1	142,96,1	143,94,1	144,280,1	145,92,1	146,81,1	147,80,1	148,79,1	149,78,1	150,77,1	151,76,1	152,82,1	153,75,1	154,74,1	155,73,1	156,72,1	157,71,1	158,83,1	159,70,1	160,69,1	161,68,1	162,67,1	163,66,1	164,84,1	165,65,1	166,64,1	167,63,1	168,62,1	169,61,1	170,85,1	171,60,1	172,59,1	173,58,1	174,57,1	175,56,1	176,91,1	177,55,1	178,54,1	179,53,1	180,52,1	181,51,1	182,282,1	183,50,1	184,49,1	185,48,1	186,47,1	187,46,1	188,285,1	189,45,1	190,44,1	191,43,1	192,42,1	193,41,1	194,304,1	195,305,1	196,303,1	197,302,1	198,306,1	199,301,1	200,300,1	201,307,1	202,299,1	203,293,1	204,308,1	205,289,1	206,39,1	207,309,1	208,38,1	209,36,1	210,310,1	211,35,1	212,33,1	213,311,1	214,32,1	215,30,1	216,312,1	217,28,1	218,17,1	219,16,1	220,15,1	221,18,1	222,14,1	223,13,1	224,19,1	225,12,1	226,11,1	227,20,1	228,10,1	229,9,1	230,1,1	231,2,1	232,3,1	233,4,1	234,5,1	235,6,1	236,7,1	237,8,1	238,21,1	239,24,1	240,316,1	241,319,1	242,0,1	
4,218,1	10,226,1	13,230,1	16,234,1	22,158,1	28,141,1	64,298,1	67,37,1	76,314,1	
7,222,1	25,149,1	31,133,1	34,125,1	37,117,1	40,109,1	58,290,1	61,294,1	70,29,1	
20,163,1	43,101,1	46,93,1	52,281,1	55,286,1	79,318,1	
5,219,1	8,223,1	11,227,1	14,231,1	17,233,1	23,155,1	26,146,1	49,86,1	62,295,1	65,297,1	68,34,1	73,22,1	77,315,1	
2,215,1	29,138,1	32,130,1	35,122,1	38,114,1	44,98,1	56,287,1	59,291,1	80,317,1	
12,228,1	41,106,1	47,90,1	53,283,1	71,26,1	74,25,1	
3,216,1	6,220,1	15,232,1	18,168,1	21,160,1	24,151,1	27,143,1	30,135,1	50,88,1	60,292,1	63,296,1	66,40,1	
9,224,1	33,127,1	36,119,1	69,31,1	75,27,1	78,313,1	
19,165,1	39,111,1	42,103,1	45,95,1	48,87,1	51,89,1	54,284,1	57,288,1	72,23,1	
# Incoming
3,(215, 0),3	6,(216, 0),3	9,(218, 0),3	12,(219, 0),3	15,(220, 0),3	18,(222, 0),3	21,(223, 0),3	24,(224, 0),3	27,(226, 0),3	30,(227, 0),3	33,(228, 0),3	36,(230, 0),3	39,(231, 0),3	42,(232, 0),3	45,(234, 0),3	48,(233, 0),3	51,(168, 0),3	54,(165, 0),3	57,(163, 0),3	60,(160, 0),3	63,(158, 0),3	66,(155, 0),3	69,(151, 0),3	72,(149, 0),3	75,(146, 0),3	78,(143, 0),3	81,(141, 0),3	84,(138, 0),3	87,(135, 0),3	90,(133, 0),3	93,(130, 0),3	96,(127, 0),3	99,(125, 0),3	102,(122, 0),3	105,(119, 0),3	108,(117, 0),3	111,(114, 0),3	114,(111, 0),3	117,(109, 0),3	120,(106, 0),3	123,(103, 0),3	126,(101, 0),3	129,(98, 0),3	132,(95, 0),3	135,(93, 0),3	138,(90, 0),3	141,(87, 0),3	144,(86, 0),3	147,(88, 0),3	150,(89, 0),3	153,(281, 0),3	156,(283, 0),3	159,(284, 0),3	162,(286, 0),3	165,(287, 0),3	168,(288, 0),3	171,(290, 0),3	174,(291, 0),3	177,(292, 0),3	180,(294, 0),3	183,(295, 0),3	186,(296, 0),3	189,(298, 0),3	192,(297, 0),3	195,(40, 0),3	198,(37, 0),3	201,(34, 0),3	204,(31, 0),3	207,(29, 0),3	210,(26, 0),3	213,(23, 0),3	216,(22, 0),3	219,(25, 0),3	222,(27, 0),3	225,(314, 0),3	228,(315, 0),3	231,(313, 0),3	234,(318, 0),3	237,(317, 0),3	
3,(321, 218),1	9,(321, 226),1	12,(321, 230),1	15,(321, 234),1	21,(321, 158),1	27,(321, 141),1	63,(321, 298),1	66,(321, 37),1	75,(321, 314),1	
6,(321, 222),1	24,(321, 149),1	30,(321, 133),1	33,(321, 125),1	36,(321, 117),1	39,(321, 109),1	57,(321, 290),1	60,(321, 294),1	69,(321, 29),1	
19,(321, 163),1	42,(321, 101),1	45,(321, 93),1	51,(321, 281),1	54,(321, 286),1	78,(321, 318),1	
4,(321, 219),1	7,(321, 223),1	10,(321, 227),1	13,(321, 231),1	16,(321, 233),1	22,(321, 155),1	25,(321, 146),1	48,(321, 86),1	61,(321, 295),1	64,(321, 297),1	67,(321, 34),1	72,(321, 22),1	76,(321, 315),1	
1,(321, 215),1	28,(321, 138),1	31,(321, 130),1	34,(321, 122),1	37,(321, 114),1	43,(321, 98),1	55,(321, 287),1	58,(321, 291),1	79,(321, 317),1	
11,(321, 228),1	40,(321, 106),1	46,(321, 90),1	52,(321, 283),1	70,(321, 26),1	73,(321, 25),1	
2,(321, 216),1	5,(321, 220),1	14,(321, 232),1	17,(321, 168),1	20,(321, 160),1	23,(321, 151),1	26,(321, 143),1	29,(321, 135),1	49,(321, 88),1	59,(321, 292),1	62,(321, 296),1	65,(321, 40),1	
8,(321, 224),1	32,(321, 127),1	35,(321, 119),1	68,(321, 31),1	74,(321, 27),1	77,(321, 313),1	
18,(321, 165),1	38,(321, 111),1	41,(321, 103),1	44,(321, 95),1	47,(321, 87),1	50,(321, 89),1	53,(321, 284),1	56,(321, 288),1	71,(321, 23),1	
# Outgoing
1,(321, 215),1	2,(321, 216),1	3,(321, 218),1	4,(321, 219),1	5,(321, 220),1	6,(321, 222),1	7,(321, 223),1	8,(321, 224),1	9,(321, 226),1	10,(321, 227),1	11,(321, 228),1	12,(321, 230),1	13,(321, 231),1	14,(321, 232),1	15,(321, 234),1	16,(321, 233),1	17,(321, 168),1	18,(321, 165),1	19,(321, 163),1	20,(321, 160),1	21,(321, 158),1	22,(321, 155),1	23,(321, 151),1	24,(321, 149),1	25,(321, 146),1	26,(321, 143),1	27,(321, 141),1	28,(321, 138),1	29,(321, 135),1	30,(321, 133),1	31,(321, 130),1	32,(321, 127),1	33,(321, 125),1	34,(321, 122),1	35,(321, 119),1	36,(321, 117),1	37,(321, 114),1	38,(321, 111),1	39,(321, 109),1	40,(321, 106),1	41,(321, 103),1	42,(321, 101),1	43,(321, 98),1	44,(321, 95),1	45,(321, 93),1	46,(321, 90),1	47,(321, 87),1	48,(321, 86),1	49,(321, 88),1	50,(321, 89),1	51,(321, 281),1	52,(321, 283),1	53,(321, 284),1	54,(321, 286),1	55,(321, 287),1	56,(321, 288),1	57,(321, 290),1	58,(321, 291),1	59,(321, 292),1	60,(321, 294),1	61,(321, 295),1	62,(321, 296),1	63,(321, 298),1	64,(321, 297),1	65,(321, 40),1	66,(321, 37),1	67,(321, 34),1	68,(321, 31),1	69,(321, 29),1	70,(321, 26),1	71,(321, 23),1	72,(321, 22),1	73,(321, 25),1	74,(321, 27),1	75,(321, 314),1	76,(321, 315),1	77,(321, 313),1	78,(321, 318),1	79,(321, 317),1	
9,(218, 0),3	27,(226, 0),3	36,(230, 0),3	45,(234, 0),3	63,(158, 0),3	81,(141, 0),3	189,(298, 0),3	198,(37, 0),3	225,(314, 0),3	
18,(222, 0),3	72,(149, 0),3	90,(133, 0),3	99,(125, 0),3	108,(117, 0),3	117,(109, 0),3	171,(290, 0),3	180,(294, 0),3	207,(29, 0),3	
57,(163, 0),3	126,(101, 0),3	135,(93, 0),3	153,(281, 0),3	162,(286, 0),3	234,(318, 0),3	
12,(219, 0),3	21,(223, 0),3	30,(227, 0),3	39,(231, 0),3	48,(233, 0),3	66,(155, 0),3	75,(146, 0),3	144,(86, 0),3	183,(295, 0),3	192,(297, 0),3	201,(34, 0),3	216,(22, 0),3	228,(315, 0),3	
3,(215, 0),3	84,(138, 0),3	93,(130, 0),3	102,(122, 0),3	111,(114, 0),3	129,(98, 0),3	165,(287, 0),3	174,(291, 0),3	237,(317, 0),3	
33,(228, 0),3	120,(106, 0),3	138,(90, 0),3	156,(283, 0),3	210,(26, 0),3	219,(25, 0),3	
6,(216, 0),3	15,(220, 0),3	42,(232, 0),3	51,(168, 0),3	60,(160, 0),3	69,(151, 0),3	78,(143, 0),3	87,(135, 0),3	147,(88, 0),3	177,(292, 0),3	186,(296, 0),3	195,(40, 0),3	
24,(224, 0),3	96,(127, 0),3	105,(119, 0),3	204,(31, 0),3	222,(27, 0),3	231,(313, 0),3	
54,(165, 0),3	114,(111, 0),3	123,(103, 0),3	132,(95, 0),3	141,(87, 0),3	150,(89, 0),3	159,(284, 0),3	168,(288, 0),3	213,(23, 0),3	
