3978
# CPU
0,321,1	1,211,14	15,210,14	29,212,14	43,209,14	57,208,14	71,207,14	85,213,14	99,206,14	113,205,14	127,215,14	141,204,14	155,203,14	169,202,14	183,216,14	197,201,14	211,200,14	225,217,14	239,198,14	253,197,14	267,196,14	281,218,14	295,195,14	309,219,14	323,194,14	337,193,14	351,192,14	365,191,14	379,221,14	393,190,14	407,222,14	421,189,14	435,223,14	449,187,14	463,186,14	477,224,14	491,185,14	505,225,14	519,184,14	533,226,14	547,182,14	561,181,14	575,227,14	589,180,14	603,179,14	617,178,14	631,228,14	645,177,14	659,175,14	673,229,14	687,174,14	701,230,14	715,173,14	729,231,14	743,172,14	757,171,14	771,232,14	785,169,14	799,241,14	813,240,14	827,242,14	841,239,14	855,238,14	869,237,14	883,236,14	897,244,14	911,235,14	925,245,14	939,234,14	953,233,14	967,168,14	981,246,14	995,166,14	1009,165,14	1023,247,14	1037,164,14	1051,163,14	1065,162,14	1079,248,14	1093,249,14	1107,160,14	1121,250,14	1135,159,14	1149,158,14	1163,157,14	1177,251,14	1191,156,14	1205,154,14	1219,252,14	1233,153,14	1247,152,14	1261,151,14	1275,253,14	1289,150,14	1303,254,14	1317,255,14	1331,148,14	1345,147,14	1359,146,14	1373,256,14	1387,145,14	1401,144,14	1415,143,14	1429,142,14	1443,141,14	1457,140,14	1471,258,14	1485,139,14	1499,259,14	1513,138,14	1527,278,14	1541,85,14	1555,136,14	1569,260,14	1583,135,14	1597,134,14	1611,133,14	1625,261,14	1639,131,14	1653,130,14	1667,262,14	1681,129,14	1695,263,14	1709,128,14	1723,264,14	1737,127,14	1751,125,14	1765,265,14	1779,124,14	1793,123,14	1807,122,14	1821,266,14	1835,121,14	1849,120,14	1863,267,14	1877,118,14	1891,268,14	1905,117,14	1919,269,14	1933,116,14	1947,115,14	1961,114,14	1975,113,14	1989,112,14	2003,111,14	2017,271,14	2031,110,14	2045,109,14	2059,108,14	2073,107,14	2087,273,14	2101,106,14	2115,274,14	2129,105,14	2143,104,14	2157,103,14	2171,275,14	2185,101,14	2199,100,14	2213,276,14	2227,99,14	2241,98,14	2255,97,14	2269,277,14	2283,96,14	2297,95,14	2311,280,14	2325,94,14	2339,93,14	2353,92,14	2367,281,14	2381,91,14	2395,81,14	2409,82,14	2423,79,14	2437,78,14	2451,77,14	2465,83,14	2479,76,14	2493,84,14	2507,75,14	2521,74,14	2535,73,14	2549,72,14	2563,87,14	2577,71,14	2591,88,14	2605,70,14	2619,69,14	2633,68,14	2647,67,14	2661,90,14	2675,66,14	2689,282,14	2703,65,14	2717,283,14	2731,63,14	2745,62,14	2759,284,14	2773,61,14	2787,285,14	2801,60,14	2815,286,14	2829,59,14	2843,57,14	2857,287,14	2871,56,14	2885,288,14	2899,55,14	2913,289,14	2927,54,14	2941,53,14	2955,290,14	2969,51,14	2983,291,14	2997,50,14	3011,292,14	3025,49,14	3039,48,14	3053,306,14	3067,25,14	3081,293,14	3095,46,14	3109,294,14	3123,45,14	3137,44,14	3151,43,14	3165,42,14	3179,304,14	3193,303,14	3207,305,14	3221,302,14	3235,301,14	3249,300,14	3263,307,14	3277,298,14	3291,297,14	3305,308,14	3319,296,14	3333,41,14	3347,40,14	3361,309,14	3375,39,14	3389,37,14	3403,310,14	3417,36,14	3431,35,14	3445,34,14	3459,311,14	3473,33,14	3487,32,14	3501,312,14	3515,30,14	3529,29,14	3543,28,14	3557,313,14	3571,27,14	3585,17,14	3599,18,14	3613,15,14	3627,19,14	3641,14,14	3655,20,14	3669,13,14	3683,21,14	3697,12,14	3711,11,14	3725,23,14	3739,10,14	3753,24,14	3767,9,14	3781,1,14	3795,2,14	3809,3,14	3823,5,14	3837,6,14	3851,7,14	3865,8,14	3879,26,14	3893,314,14	3907,315,14	3921,316,14	3935,318,14	3949,319,14	3963,320,14	3977,0,1	
110,214,14	219,199,14	328,220,14	437,188,14	546,183,14	655,176,14	764,170,14	873,243,14	982,167,14	1091,161,14	1200,155,14	1309,149,14	1418,257,14	1527,137,14	1636,132,14	1745,126,14	1854,119,14	1963,270,14	2072,272,14	2181,102,14	2290,279,14	2399,80,14	2508,86,14	2617,89,14	2726,64,14	2835,58,14	2944,52,14	3053,47,14	3162,295,14	3271,299,14	3380,38,14	3489,31,14	3598,16,14	3707,22,14	3816,4,14	3925,317,14	
# Incoming
124,(214, 0),4	233,(199, 0),4	342,(220, 0),4	451,(188, 0),4	560,(183, 0),4	669,(176, 0),4	778,(170, 0),4	887,(243, 0),4	996,(167, 0),4	1105,(161, 0),4	1214,(155, 0),4	1323,(149, 0),4	1432,(257, 0),4	1541,(137, 0),4	1650,(132, 0),4	1759,(126, 0),4	1868,(119, 0),4	1977,(270, 0),4	2086,(272, 0),4	2195,(102, 0),4	2304,(279, 0),4	2413,(80, 0),4	2522,(86, 0),4	2631,(89, 0),4	2740,(64, 0),4	2849,(58, 0),4	2958,(52, 0),4	3067,(47, 0),4	3176,(295, 0),4	3285,(299, 0),4	3394,(38, 0),4	3503,(31, 0),4	3612,(16, 0),4	3721,(22, 0),4	3830,(4, 0),4	3939,(317, 0),4	
1,(321, 214),109	110,(321, 199),109	219,(321, 220),109	328,(321, 188),109	437,(321, 183),109	546,(321, 176),109	655,(321, 170),109	764,(321, 243),109	873,(321, 167),109	982,(321, 161),109	1091,(321, 155),109	1200,(321, 149),109	1309,(321, 257),109	1418,(321, 137),109	1527,(321, 132),109	1636,(321, 126),109	1745,(321, 119),109	1854,(321, 270),109	1963,(321, 272),109	2072,(321, 102),109	2181,(321, 279),109	2290,(321, 80),109	2399,(321, 86),109	2508,(321, 89),109	2617,(321, 64),109	2726,(321, 58),109	2835,(321, 52),109	2944,(321, 47),109	3053,(321, 295),109	3162,(321, 299),109	3271,(321, 38),109	3380,(321, 31),109	3489,(321, 16),109	3598,(321, 22),109	3707,(321, 4),109	3816,(321, 317),109	
# Outgoing
1,(321, 214),109	110,(321, 199),109	219,(321, 220),109	328,(321, 188),109	437,(321, 183),109	546,(321, 176),109	655,(321, 170),109	764,(321, 243),109	873,(321, 167),109	982,(321, 161),109	1091,(321, 155),109	1200,(321, 149),109	1309,(321, 257),109	1418,(321, 137),109	1527,(321, 132),109	1636,(321, 126),109	1745,(321, 119),109	1854,(321, 270),109	1963,(321, 272),109	2072,(321, 102),109	2181,(321, 279),109	2290,(321, 80),109	2399,(321, 86),109	2508,(321, 89),109	2617,(321, 64),109	2726,(321, 58),109	2835,(321, 52),109	2944,(321, 47),109	3053,(321, 295),109	3162,(321, 299),109	3271,(321, 38),109	3380,(321, 31),109	3489,(321, 16),109	3598,(321, 22),109	3707,(321, 4),109	3816,(321, 317),109	
124,(214, 0),4	233,(199, 0),4	342,(220, 0),4	451,(188, 0),4	560,(183, 0),4	669,(176, 0),4	778,(170, 0),4	887,(243, 0),4	996,(167, 0),4	1105,(161, 0),4	1214,(155, 0),4	1323,(149, 0),4	1432,(257, 0),4	1541,(137, 0),4	1650,(132, 0),4	1759,(126, 0),4	1868,(119, 0),4	1977,(270, 0),4	2086,(272, 0),4	2195,(102, 0),4	2304,(279, 0),4	2413,(80, 0),4	2522,(86, 0),4	2631,(89, 0),4	2740,(64, 0),4	2849,(58, 0),4	2958,(52, 0),4	3067,(47, 0),4	3176,(295, 0),4	3285,(299, 0),4	3394,(38, 0),4	3503,(31, 0),4	3612,(16, 0),4	3721,(22, 0),4	3830,(4, 0),4	3939,(317, 0),4	
