322
# CPU
0,321,1	1,211,1	2,210,1	3,212,1	4,209,1	5,208,1	6,207,1	7,213,1	8,206,1	9,214,1	10,205,1	11,215,1	12,204,1	13,203,1	14,202,1	15,216,1	16,201,1	17,200,1	18,199,1	19,217,1	20,198,1	21,197,1	22,196,1	23,218,1	24,195,1	25,219,1	26,194,1	27,220,1	28,193,1	29,192,1	30,191,1	31,221,1	32,190,1	33,222,1	34,189,1	35,223,1	36,188,1	37,187,1	38,186,1	39,224,1	40,185,1	41,225,1	42,184,1	43,226,1	44,183,1	45,182,1	46,181,1	47,227,1	48,180,1	49,179,1	50,178,1	51,228,1	52,177,1	53,176,1	54,175,1	55,229,1	56,174,1	57,230,1	58,173,1	59,231,1	60,172,1	61,171,1	62,170,1	63,232,1	64,169,1	65,241,1	66,240,1	67,242,1	68,239,1	69,238,1	70,237,1	71,243,1	72,236,1	73,244,1	74,235,1	75,245,1	76,234,1	77,233,1	78,168,1	79,246,1	80,167,1	81,166,1	82,165,1	83,247,1	84,164,1	85,163,1	86,162,1	87,248,1	88,161,1	89,249,1	90,160,1	91,250,1	92,159,1	93,158,1	94,157,1	95,251,1	96,156,1	97,155,1	98,154,1	99,252,1	100,153,1	101,152,1	102,151,1	103,253,1	104,150,1	105,254,1	106,149,1	107,255,1	108,148,1	109,147,1	110,146,1	111,256,1	112,145,1	113,144,1	114,143,1	115,257,1	116,142,1	117,141,1	118,140,1	119,258,1	120,139,1	121,259,1	122,138,1	123,260,1	124,137,1	125,136,1	126,135,1	127,261,1	128,134,1	129,133,1	130,132,1	131,262,1	132,131,1	133,130,1	134,129,1	135,263,1	136,128,1	137,264,1	138,127,1	139,265,1	140,126,1	141,125,1	142,124,1	143,266,1	144,123,1	145,122,1	146,121,1	147,267,1	148,120,1	149,119,1	150,118,1	151,268,1	152,117,1	153,269,1	154,116,1	155,270,1	156,115,1	157,114,1	158,113,1	159,271,1	160,112,1	161,111,1	162,110,1	163,272,1	164,109,1	165,108,1	166,107,1	167,273,1	168,106,1	169,274,1	170,105,1	171,275,1	172,104,1	173,103,1	174,102,1	175,276,1	176,101,1	177,100,1	178,99,1	179,277,1	180,98,1	181,97,1	182,96,1	183,278,1	184,95,1	185,279,1	186,94,1	187,280,1	188,93,1	189,92,1	190,91,1	191,281,1	192,90,1	193,81,1	194,80,1	195,82,1	196,79,1	197,78,1	198,77,1	199,83,1	200,76,1	201,84,1	202,75,1	203,85,1	204,74,1	205,73,1	206,72,1	207,86,1	208,71,1	209,87,1	210,70,1	211,88,1	212,69,1	213,68,1	214,67,1	215,89,1	216,66,1	217,282,1	218,65,1	219,283,1	220,64,1	221,63,1	222,62,1	223,284,1	224,61,1	225,285,1	226,60,1	227,286,1	228,59,1	229,58,1	230,57,1	231,287,1	232,56,1	233,288,1	234,55,1	235,289,1	236,54,1	237,53,1	238,52,1	239,290,1	240,51,1	241,291,1	242,50,1	243,292,1	244,49,1	245,48,1	246,47,1	247,293,1	248,46,1	249,294,1	250,45,1	251,295,1	252,44,1	253,43,1	254,42,1	255,296,1	256,41,1	257,305,1	258,304,1	259,306,1	260,303,1	261,302,1	262,301,1	263,307,1	264,300,1	265,299,1	266,298,1	267,308,1	268,297,1	269,40,1	270,39,1	271,309,1	272,38,1	273,37,1	274,36,1	275,310,1	276,35,1	277,34,1	278,33,1	279,311,1	280,32,1	281,31,1	282,30,1	283,312,1	284,29,1	285,28,1	286,27,1	287,313,1	288,26,1	289,17,1	290,16,1	291,18,1	292,15,1	293,19,1	294,14,1	295,20,1	296,13,1	297,21,1	298,12,1	299,22,1	300,11,1	301,23,1	302,10,1	303,24,1	304,9,1	305,1,1	306,2,1	307,3,1	308,4,1	309,5,1	310,6,1	311,7,1	312,8,1	313,25,1	314,314,1	315,315,1	316,316,1	317,317,1	318,318,1	319,319,1	320,320,1	321,0,1	
# Incoming

# Outgoing

