1404
# CPU
0,321,1	1,320,6	7,210,6	13,211,6	19,209,6	25,207,6	31,208,6	37,206,6	43,205,6	49,212,6	55,203,6	61,202,6	67,204,6	73,200,6	79,199,6	85,201,6	91,197,6	97,196,6	103,195,6	109,198,6	115,194,6	121,193,6	127,192,6	133,191,6	139,190,6	145,213,6	151,189,6	157,188,6	163,187,6	169,186,6	175,185,6	181,214,6	187,184,6	193,183,6	199,181,6	205,182,6	211,180,6	217,178,6	223,179,6	229,177,6	235,175,6	241,176,6	247,174,6	253,173,6	259,219,6	265,171,6	271,170,6	277,172,6	283,240,6	289,239,6	295,241,6	301,238,6	307,237,6	313,242,6	319,243,6	325,236,6	331,244,6	337,235,6	343,245,6	349,230,6	355,225,6	361,246,6	367,168,6	373,166,6	379,247,6	385,165,6	391,248,6	397,249,6	403,163,6	409,161,6	415,250,6	421,160,6	427,158,6	433,251,6	439,156,6	445,154,6	451,252,6	457,253,6	463,153,6	469,254,6	475,151,6	481,150,6	487,255,6	493,148,6	499,146,6	505,256,6	511,144,6	517,143,6	523,257,6	529,258,6	535,259,6	541,141,6	547,139,6	553,260,6	559,138,6	565,136,6	571,261,6	577,134,6	583,132,6	589,262,6	595,131,6	601,263,6	607,264,6	613,129,6	619,128,6	625,265,6	631,126,6	637,124,6	643,266,6	649,122,6	655,121,6	661,267,6	667,268,6	673,119,6	679,269,6	685,117,6	691,116,6	697,270,6	703,114,6	709,112,6	715,271,6	721,110,6	727,272,6	733,109,6	739,273,6	745,274,6	751,107,6	757,106,6	763,275,6	769,103,6	775,102,6	781,276,6	787,100,6	793,99,6	799,277,6	805,97,6	811,278,6	817,279,6	823,95,6	829,93,6	835,280,6	841,81,6	847,80,6	853,82,6	859,78,6	865,77,6	871,76,6	877,79,6	883,75,6	889,74,6	895,73,6	901,72,6	907,71,6	913,83,6	919,70,6	925,69,6	931,68,6	937,67,6	943,66,6	949,84,6	955,65,6	961,64,6	967,62,6	973,63,6	979,61,6	985,60,6	991,85,6	997,59,6	1003,57,6	1009,58,6	1015,56,6	1021,55,6	1027,87,6	1033,53,6	1039,52,6	1045,54,6	1051,51,6	1057,50,6	1063,49,6	1069,48,6	1075,47,6	1081,46,6	1087,88,6	1093,45,6	1099,44,6	1105,43,6	1111,42,6	1117,41,6	1123,304,6	1129,305,6	1135,303,6	1141,302,6	1147,306,6	1153,301,6	1159,300,6	1165,307,6	1171,299,6	1177,296,6	1183,308,6	1189,284,6	1195,40,6	1201,309,6	1207,38,6	1213,36,6	1219,310,6	1225,34,6	1231,33,6	1237,311,6	1243,31,6	1249,29,6	1255,312,6	1261,17,6	1267,16,6	1273,15,6	1279,18,6	1285,14,6	1291,13,6	1297,19,6	1303,12,6	1309,11,6	1315,20,6	1321,10,6	1327,9,6	1333,1,6	1339,2,6	1345,3,6	1351,4,6	1357,5,6	1363,6,6	1369,7,6	1375,8,6	1381,21,6	1387,22,6	1393,316,6	1403,0,1	
77,167,6	97,155,6	181,104,6	197,94,6	213,90,6	233,285,6	273,297,6	341,318,6	349,319,6	
5,215,6	21,220,6	41,226,6	57,231,6	93,157,6	113,145,6	129,135,6	149,123,6	169,111,6	217,92,6	257,292,6	293,35,6	329,314,6	345,317,6	
25,221,6	61,232,6	133,133,6	165,113,6	205,89,6	241,287,6	277,298,6	309,25,6	
13,217,6	49,228,6	81,164,6	121,140,6	185,101,6	201,91,6	221,281,6	237,286,6	265,294,6	313,23,6	
9,216,6	29,222,6	45,227,6	65,233,6	85,162,6	101,152,6	117,142,6	157,118,6	281,291,6	301,30,6	333,313,6	
73,169,6	137,130,6	153,120,6	173,108,6	193,96,6	229,283,6	245,288,6	261,293,6	297,32,6	337,315,6	
37,224,6	109,147,6	189,98,6	209,86,6	225,282,6	289,37,6	317,24,6	
17,218,6	33,223,6	53,229,6	69,234,6	89,159,6	105,149,6	125,137,6	145,125,6	253,290,6	269,295,6	285,39,6	325,28,6	
141,127,6	161,115,6	177,105,6	249,289,6	305,27,6	321,26,6	
# Incoming
11,(215, 0),16	27,(216, 0),16	43,(217, 0),16	59,(218, 0),16	75,(220, 0),16	91,(221, 0),16	107,(222, 0),16	123,(223, 0),16	139,(224, 0),16	155,(226, 0),16	171,(227, 0),16	187,(228, 0),16	203,(229, 0),16	219,(231, 0),16	235,(232, 0),16	251,(233, 0),16	267,(234, 0),16	283,(169, 0),16	299,(167, 0),16	315,(164, 0),16	331,(162, 0),16	347,(159, 0),16	363,(157, 0),16	379,(155, 0),16	395,(152, 0),16	411,(149, 0),16	427,(147, 0),16	443,(145, 0),16	459,(142, 0),16	475,(140, 0),16	491,(137, 0),16	507,(135, 0),16	523,(133, 0),16	539,(130, 0),16	555,(127, 0),16	571,(125, 0),16	587,(123, 0),16	603,(120, 0),16	619,(118, 0),16	635,(115, 0),16	651,(113, 0),16	667,(111, 0),16	683,(108, 0),16	699,(105, 0),16	715,(104, 0),16	731,(101, 0),16	747,(98, 0),16	763,(96, 0),16	779,(94, 0),16	795,(91, 0),16	811,(89, 0),16	827,(86, 0),16	843,(90, 0),16	859,(92, 0),16	875,(281, 0),16	891,(282, 0),16	907,(283, 0),16	923,(285, 0),16	939,(286, 0),16	955,(287, 0),16	971,(288, 0),16	987,(289, 0),16	1003,(290, 0),16	1019,(292, 0),16	1035,(293, 0),16	1051,(294, 0),16	1067,(295, 0),16	1083,(297, 0),16	1099,(298, 0),16	1115,(291, 0),16	1131,(39, 0),16	1147,(37, 0),16	1163,(35, 0),16	1179,(32, 0),16	1195,(30, 0),16	1211,(27, 0),16	1227,(25, 0),16	1243,(23, 0),16	1259,(24, 0),16	1275,(26, 0),16	1291,(28, 0),16	1307,(314, 0),16	1323,(313, 0),16	1339,(315, 0),16	1355,(318, 0),16	1371,(317, 0),16	1387,(319, 0),16	
73,(321, 167),4	93,(321, 155),4	177,(321, 104),4	193,(321, 94),4	209,(321, 90),4	229,(321, 285),4	269,(321, 297),4	337,(321, 318),4	345,(321, 319),4	
1,(321, 215),4	17,(321, 220),4	37,(321, 226),4	53,(321, 231),4	89,(321, 157),4	109,(321, 145),4	125,(321, 135),4	145,(321, 123),4	165,(321, 111),4	213,(321, 92),4	253,(321, 292),4	289,(321, 35),4	325,(321, 314),4	341,(321, 317),4	
21,(321, 221),4	57,(321, 232),4	129,(321, 133),4	161,(321, 113),4	201,(321, 89),4	237,(321, 287),4	273,(321, 298),4	305,(321, 25),4	
9,(321, 217),4	45,(321, 228),4	77,(321, 164),4	117,(321, 140),4	181,(321, 101),4	197,(321, 91),4	217,(321, 281),4	233,(321, 286),4	261,(321, 294),4	309,(321, 23),4	
5,(321, 216),4	25,(321, 222),4	41,(321, 227),4	61,(321, 233),4	81,(321, 162),4	97,(321, 152),4	113,(321, 142),4	153,(321, 118),4	277,(321, 291),4	297,(321, 30),4	329,(321, 313),4	
69,(321, 169),4	133,(321, 130),4	149,(321, 120),4	169,(321, 108),4	189,(321, 96),4	225,(321, 283),4	241,(321, 288),4	257,(321, 293),4	293,(321, 32),4	333,(321, 315),4	
33,(321, 224),4	105,(321, 147),4	185,(321, 98),4	205,(321, 86),4	221,(321, 282),4	285,(321, 37),4	313,(321, 24),4	
13,(321, 218),4	29,(321, 223),4	49,(321, 229),4	65,(321, 234),4	85,(321, 159),4	101,(321, 149),4	121,(321, 137),4	141,(321, 125),4	249,(321, 290),4	265,(321, 295),4	281,(321, 39),4	321,(321, 28),4	
137,(321, 127),4	157,(321, 115),4	173,(321, 105),4	245,(321, 289),4	301,(321, 27),4	317,(321, 26),4	
# Outgoing
1,(321, 215),4	5,(321, 216),4	9,(321, 217),4	13,(321, 218),4	17,(321, 220),4	21,(321, 221),4	25,(321, 222),4	29,(321, 223),4	33,(321, 224),4	37,(321, 226),4	41,(321, 227),4	45,(321, 228),4	49,(321, 229),4	53,(321, 231),4	57,(321, 232),4	61,(321, 233),4	65,(321, 234),4	69,(321, 169),4	73,(321, 167),4	77,(321, 164),4	81,(321, 162),4	85,(321, 159),4	89,(321, 157),4	93,(321, 155),4	97,(321, 152),4	101,(321, 149),4	105,(321, 147),4	109,(321, 145),4	113,(321, 142),4	117,(321, 140),4	121,(321, 137),4	125,(321, 135),4	129,(321, 133),4	133,(321, 130),4	137,(321, 127),4	141,(321, 125),4	145,(321, 123),4	149,(321, 120),4	153,(321, 118),4	157,(321, 115),4	161,(321, 113),4	165,(321, 111),4	169,(321, 108),4	173,(321, 105),4	177,(321, 104),4	181,(321, 101),4	185,(321, 98),4	189,(321, 96),4	193,(321, 94),4	197,(321, 91),4	201,(321, 89),4	205,(321, 86),4	209,(321, 90),4	213,(321, 92),4	217,(321, 281),4	221,(321, 282),4	225,(321, 283),4	229,(321, 285),4	233,(321, 286),4	237,(321, 287),4	241,(321, 288),4	245,(321, 289),4	249,(321, 290),4	253,(321, 292),4	257,(321, 293),4	261,(321, 294),4	265,(321, 295),4	269,(321, 297),4	273,(321, 298),4	277,(321, 291),4	281,(321, 39),4	285,(321, 37),4	289,(321, 35),4	293,(321, 32),4	297,(321, 30),4	301,(321, 27),4	305,(321, 25),4	309,(321, 23),4	313,(321, 24),4	317,(321, 26),4	321,(321, 28),4	325,(321, 314),4	329,(321, 313),4	333,(321, 315),4	337,(321, 318),4	341,(321, 317),4	345,(321, 319),4	
299,(167, 0),16	379,(155, 0),16	715,(104, 0),16	779,(94, 0),16	843,(90, 0),16	923,(285, 0),16	1083,(297, 0),16	1355,(318, 0),16	1387,(319, 0),16	
11,(215, 0),16	75,(220, 0),16	155,(226, 0),16	219,(231, 0),16	363,(157, 0),16	443,(145, 0),16	507,(135, 0),16	587,(123, 0),16	667,(111, 0),16	859,(92, 0),16	1019,(292, 0),16	1163,(35, 0),16	1307,(314, 0),16	1371,(317, 0),16	
91,(221, 0),16	235,(232, 0),16	523,(133, 0),16	651,(113, 0),16	811,(89, 0),16	955,(287, 0),16	1099,(298, 0),16	1227,(25, 0),16	
43,(217, 0),16	187,(228, 0),16	315,(164, 0),16	475,(140, 0),16	731,(101, 0),16	795,(91, 0),16	875,(281, 0),16	939,(286, 0),16	1051,(294, 0),16	1243,(23, 0),16	
27,(216, 0),16	107,(222, 0),16	171,(227, 0),16	251,(233, 0),16	331,(162, 0),16	395,(152, 0),16	459,(142, 0),16	619,(118, 0),16	1115,(291, 0),16	1195,(30, 0),16	1323,(313, 0),16	
283,(169, 0),16	539,(130, 0),16	603,(120, 0),16	683,(108, 0),16	763,(96, 0),16	907,(283, 0),16	971,(288, 0),16	1035,(293, 0),16	1179,(32, 0),16	1339,(315, 0),16	
139,(224, 0),16	427,(147, 0),16	747,(98, 0),16	827,(86, 0),16	891,(282, 0),16	1147,(37, 0),16	1259,(24, 0),16	
59,(218, 0),16	123,(223, 0),16	203,(229, 0),16	267,(234, 0),16	347,(159, 0),16	411,(149, 0),16	491,(137, 0),16	571,(125, 0),16	1003,(290, 0),16	1067,(295, 0),16	1131,(39, 0),16	1291,(28, 0),16	
555,(127, 0),16	635,(115, 0),16	699,(105, 0),16	987,(289, 0),16	1211,(27, 0),16	1275,(26, 0),16	
