2010
# CPU
0,321,1	1,320,13	14,210,13	27,209,13	40,207,13	53,208,13	66,211,13	79,203,13	92,212,13	105,200,13	118,214,13	131,197,13	144,215,13	157,218,13	170,219,13	183,192,13	196,220,13	209,189,13	222,188,13	235,186,13	248,185,13	261,184,13	274,183,13	287,181,13	300,180,13	313,178,13	326,177,13	339,175,13	352,174,13	365,230,13	378,171,13	391,231,13	404,240,13	417,241,13	430,237,13	443,242,13	456,243,13	469,244,13	482,232,13	495,245,13	508,166,13	521,164,13	534,162,13	547,161,13	560,160,13	573,159,13	586,157,13	599,156,13	612,154,13	625,153,13	638,151,13	651,150,13	664,149,13	677,147,13	690,255,13	703,144,13	716,256,13	729,141,13	742,257,13	755,258,13	768,259,13	781,136,13	794,260,13	807,133,13	820,261,13	833,129,13	846,128,13	859,127,13	872,126,13	885,124,13	898,123,13	911,121,13	924,120,13	937,118,13	950,117,13	963,116,13	976,115,13	989,270,13	1002,111,13	1015,271,13	1028,108,13	1041,272,13	1054,273,13	1067,274,13	1080,103,13	1093,275,13	1106,100,13	1119,276,13	1132,97,13	1145,95,13	1158,94,13	1171,93,13	1184,91,13	1197,90,13	1210,80,13	1223,79,13	1236,77,13	1249,76,13	1262,75,13	1275,74,13	1288,72,13	1301,87,13	1314,88,13	1327,68,13	1340,89,13	1353,281,13	1366,282,13	1379,63,13	1392,283,13	1405,284,13	1418,285,13	1431,58,13	1444,286,13	1457,55,13	1470,54,13	1483,52,13	1496,51,13	1509,50,13	1522,49,13	1535,47,13	1548,46,13	1561,45,13	1574,44,13	1587,42,13	1600,41,13	1613,305,13	1626,301,13	1639,306,13	1652,298,13	1665,307,13	1678,40,13	1691,308,13	1704,37,13	1717,309,13	1730,34,13	1743,310,13	1756,31,13	1769,29,13	1782,27,13	1795,26,13	1808,16,13	1821,15,13	1834,14,13	1847,13,13	1860,12,13	1873,11,13	1886,10,13	1899,9,13	1912,2,13	1925,5,13	1938,7,13	1951,25,13	1964,314,13	1977,316,13	1990,318,13	2009,0,1	
10,217,13	23,202,13	36,196,13	49,191,13	62,187,13	75,182,13	88,176,13	101,172,13	114,238,13	127,233,13	140,246,13	153,249,13	166,251,13	179,254,13	192,143,13	205,138,13	218,132,13	231,263,13	244,122,13	257,268,13	270,112,13	283,106,13	296,101,13	309,277,13	322,280,13	335,83,13	348,86,13	361,67,13	374,62,13	387,57,13	400,53,13	413,48,13	426,43,13	439,302,13	452,296,13	465,35,13	478,311,13	491,18,13	504,22,13	517,3,13	530,313,13	
4,213,13	17,205,13	30,199,13	43,194,13	56,221,13	69,224,13	82,179,13	95,229,13	108,169,13	121,235,13	134,167,13	147,247,13	160,250,13	173,252,13	186,146,13	199,140,13	212,135,13	225,130,13	238,125,13	251,119,13	264,114,13	277,109,13	290,104,13	303,98,13	316,279,13	329,82,13	342,85,13	355,70,13	368,65,13	381,60,13	394,287,13	407,290,13	420,293,13	433,304,13	446,299,13	459,38,13	472,32,13	485,312,13	498,20,13	511,24,13	524,6,13	537,317,13	
7,216,13	20,204,13	33,198,13	46,193,13	59,222,13	72,225,13	85,227,13	98,173,13	111,239,13	124,234,13	137,165,13	150,248,13	163,155,13	176,253,13	189,145,13	202,139,13	215,134,13	228,262,13	241,265,13	254,267,13	267,113,13	280,107,13	293,102,13	306,96,13	319,92,13	332,78,13	345,73,13	358,69,13	371,64,13	384,59,13	397,288,13	410,291,13	423,294,13	436,303,13	449,297,13	462,36,13	475,30,13	488,17,13	501,21,13	514,1,13	527,8,13	540,319,13	
13,206,13	26,201,13	39,195,13	52,190,13	65,223,13	78,226,13	91,228,13	104,170,13	117,236,13	130,168,13	143,163,13	156,158,13	169,152,13	182,148,13	195,142,13	208,137,13	221,131,13	234,264,13	247,266,13	260,269,13	273,110,13	286,105,13	299,99,13	312,278,13	325,81,13	338,84,13	351,71,13	364,66,13	377,61,13	390,56,13	403,289,13	416,292,13	429,295,13	442,300,13	455,39,13	468,33,13	481,28,13	494,19,13	507,23,13	520,4,13	533,315,13	
# Incoming
17,(213, 0),12	29,(216, 0),12	41,(217, 0),12	53,(206, 0),12	65,(205, 0),12	77,(204, 0),12	89,(202, 0),12	101,(201, 0),12	113,(199, 0),12	125,(198, 0),12	137,(196, 0),12	149,(195, 0),12	161,(194, 0),12	173,(193, 0),12	185,(191, 0),12	197,(190, 0),12	209,(221, 0),12	221,(222, 0),12	233,(187, 0),12	245,(223, 0),12	257,(224, 0),12	269,(225, 0),12	281,(182, 0),12	293,(226, 0),12	305,(179, 0),12	317,(227, 0),12	329,(176, 0),12	341,(228, 0),12	353,(229, 0),12	365,(173, 0),12	377,(172, 0),12	389,(170, 0),12	401,(169, 0),12	413,(239, 0),12	425,(238, 0),12	437,(236, 0),12	449,(235, 0),12	461,(234, 0),12	473,(233, 0),12	485,(168, 0),12	497,(167, 0),12	509,(165, 0),12	521,(246, 0),12	533,(163, 0),12	545,(247, 0),12	557,(248, 0),12	569,(249, 0),12	581,(158, 0),12	593,(250, 0),12	605,(155, 0),12	617,(251, 0),12	629,(152, 0),12	641,(252, 0),12	653,(253, 0),12	665,(254, 0),12	677,(148, 0),12	689,(146, 0),12	701,(145, 0),12	713,(143, 0),12	725,(142, 0),12	737,(140, 0),12	749,(139, 0),12	761,(138, 0),12	773,(137, 0),12	785,(135, 0),12	797,(134, 0),12	809,(132, 0),12	821,(131, 0),12	833,(130, 0),12	845,(262, 0),12	857,(263, 0),12	869,(264, 0),12	881,(125, 0),12	893,(265, 0),12	905,(122, 0),12	917,(266, 0),12	929,(119, 0),12	941,(267, 0),12	953,(268, 0),12	965,(269, 0),12	977,(114, 0),12	989,(113, 0),12	1001,(112, 0),12	1013,(110, 0),12	1025,(109, 0),12	1037,(107, 0),12	1049,(106, 0),12	1061,(105, 0),12	1073,(104, 0),12	1085,(102, 0),12	1097,(101, 0),12	1109,(99, 0),12	1121,(98, 0),12	1133,(96, 0),12	1145,(277, 0),12	1157,(278, 0),12	1169,(279, 0),12	1181,(92, 0),12	1193,(280, 0),12	1205,(81, 0),12	1217,(82, 0),12	1229,(78, 0),12	1241,(83, 0),12	1253,(84, 0),12	1265,(85, 0),12	1277,(73, 0),12	1289,(86, 0),12	1301,(71, 0),12	1313,(70, 0),12	1325,(69, 0),12	1337,(67, 0),12	1349,(66, 0),12	1361,(65, 0),12	1373,(64, 0),12	1385,(62, 0),12	1397,(61, 0),12	1409,(60, 0),12	1421,(59, 0),12	1433,(57, 0),12	1445,(56, 0),12	1457,(287, 0),12	1469,(288, 0),12	1481,(53, 0),12	1493,(289, 0),12	1505,(290, 0),12	1517,(291, 0),12	1529,(48, 0),12	1541,(292, 0),12	1553,(293, 0),12	1565,(294, 0),12	1577,(43, 0),12	1589,(295, 0),12	1601,(304, 0),12	1613,(303, 0),12	1625,(302, 0),12	1637,(300, 0),12	1649,(299, 0),12	1661,(297, 0),12	1673,(296, 0),12	1685,(39, 0),12	1697,(38, 0),12	1709,(36, 0),12	1721,(35, 0),12	1733,(33, 0),12	1745,(32, 0),12	1757,(30, 0),12	1769,(311, 0),12	1781,(28, 0),12	1793,(312, 0),12	1805,(17, 0),12	1817,(18, 0),12	1829,(19, 0),12	1841,(20, 0),12	1853,(21, 0),12	1865,(22, 0),12	1877,(23, 0),12	1889,(24, 0),12	1901,(1, 0),12	1913,(3, 0),12	1925,(4, 0),12	1937,(6, 0),12	1949,(8, 0),12	1961,(313, 0),12	1973,(315, 0),12	1985,(317, 0),12	1997,(319, 0),12	
7,(321, 217),3	19,(321, 202),3	31,(321, 196),3	43,(321, 191),3	55,(321, 187),3	67,(321, 182),3	79,(321, 176),3	91,(321, 172),3	103,(321, 238),3	115,(321, 233),3	127,(321, 246),3	139,(321, 249),3	151,(321, 251),3	163,(321, 254),3	175,(321, 143),3	187,(321, 138),3	199,(321, 132),3	211,(321, 263),3	223,(321, 122),3	235,(321, 268),3	247,(321, 112),3	259,(321, 106),3	271,(321, 101),3	283,(321, 277),3	295,(321, 280),3	307,(321, 83),3	319,(321, 86),3	331,(321, 67),3	343,(321, 62),3	355,(321, 57),3	367,(321, 53),3	379,(321, 48),3	391,(321, 43),3	403,(321, 302),3	415,(321, 296),3	427,(321, 35),3	439,(321, 311),3	451,(321, 18),3	463,(321, 22),3	475,(321, 3),3	487,(321, 313),3	
1,(321, 213),3	13,(321, 205),3	25,(321, 199),3	37,(321, 194),3	49,(321, 221),3	61,(321, 224),3	73,(321, 179),3	85,(321, 229),3	97,(321, 169),3	109,(321, 235),3	121,(321, 167),3	133,(321, 247),3	145,(321, 250),3	157,(321, 252),3	169,(321, 146),3	181,(321, 140),3	193,(321, 135),3	205,(321, 130),3	217,(321, 125),3	229,(321, 119),3	241,(321, 114),3	253,(321, 109),3	265,(321, 104),3	277,(321, 98),3	289,(321, 279),3	301,(321, 82),3	313,(321, 85),3	325,(321, 70),3	337,(321, 65),3	349,(321, 60),3	361,(321, 287),3	373,(321, 290),3	385,(321, 293),3	397,(321, 304),3	409,(321, 299),3	421,(321, 38),3	433,(321, 32),3	445,(321, 312),3	457,(321, 20),3	469,(321, 24),3	481,(321, 6),3	493,(321, 317),3	
4,(321, 216),3	16,(321, 204),3	28,(321, 198),3	40,(321, 193),3	52,(321, 222),3	64,(321, 225),3	76,(321, 227),3	88,(321, 173),3	100,(321, 239),3	112,(321, 234),3	124,(321, 165),3	136,(321, 248),3	148,(321, 155),3	160,(321, 253),3	172,(321, 145),3	184,(321, 139),3	196,(321, 134),3	208,(321, 262),3	220,(321, 265),3	232,(321, 267),3	244,(321, 113),3	256,(321, 107),3	268,(321, 102),3	280,(321, 96),3	292,(321, 92),3	304,(321, 78),3	316,(321, 73),3	328,(321, 69),3	340,(321, 64),3	352,(321, 59),3	364,(321, 288),3	376,(321, 291),3	388,(321, 294),3	400,(321, 303),3	412,(321, 297),3	424,(321, 36),3	436,(321, 30),3	448,(321, 17),3	460,(321, 21),3	472,(321, 1),3	484,(321, 8),3	496,(321, 319),3	
10,(321, 206),3	22,(321, 201),3	34,(321, 195),3	46,(321, 190),3	58,(321, 223),3	70,(321, 226),3	82,(321, 228),3	94,(321, 170),3	106,(321, 236),3	118,(321, 168),3	130,(321, 163),3	142,(321, 158),3	154,(321, 152),3	166,(321, 148),3	178,(321, 142),3	190,(321, 137),3	202,(321, 131),3	214,(321, 264),3	226,(321, 266),3	238,(321, 269),3	250,(321, 110),3	262,(321, 105),3	274,(321, 99),3	286,(321, 278),3	298,(321, 81),3	310,(321, 84),3	322,(321, 71),3	334,(321, 66),3	346,(321, 61),3	358,(321, 56),3	370,(321, 289),3	382,(321, 292),3	394,(321, 295),3	406,(321, 300),3	418,(321, 39),3	430,(321, 33),3	442,(321, 28),3	454,(321, 19),3	466,(321, 23),3	478,(321, 4),3	490,(321, 315),3	
# Outgoing
1,(321, 213),3	4,(321, 216),3	7,(321, 217),3	10,(321, 206),3	13,(321, 205),3	16,(321, 204),3	19,(321, 202),3	22,(321, 201),3	25,(321, 199),3	28,(321, 198),3	31,(321, 196),3	34,(321, 195),3	37,(321, 194),3	40,(321, 193),3	43,(321, 191),3	46,(321, 190),3	49,(321, 221),3	52,(321, 222),3	55,(321, 187),3	58,(321, 223),3	61,(321, 224),3	64,(321, 225),3	67,(321, 182),3	70,(321, 226),3	73,(321, 179),3	76,(321, 227),3	79,(321, 176),3	82,(321, 228),3	85,(321, 229),3	88,(321, 173),3	91,(321, 172),3	94,(321, 170),3	97,(321, 169),3	100,(321, 239),3	103,(321, 238),3	106,(321, 236),3	109,(321, 235),3	112,(321, 234),3	115,(321, 233),3	118,(321, 168),3	121,(321, 167),3	124,(321, 165),3	127,(321, 246),3	130,(321, 163),3	133,(321, 247),3	136,(321, 248),3	139,(321, 249),3	142,(321, 158),3	145,(321, 250),3	148,(321, 155),3	151,(321, 251),3	154,(321, 152),3	157,(321, 252),3	160,(321, 253),3	163,(321, 254),3	166,(321, 148),3	169,(321, 146),3	172,(321, 145),3	175,(321, 143),3	178,(321, 142),3	181,(321, 140),3	184,(321, 139),3	187,(321, 138),3	190,(321, 137),3	193,(321, 135),3	196,(321, 134),3	199,(321, 132),3	202,(321, 131),3	205,(321, 130),3	208,(321, 262),3	211,(321, 263),3	214,(321, 264),3	217,(321, 125),3	220,(321, 265),3	223,(321, 122),3	226,(321, 266),3	229,(321, 119),3	232,(321, 267),3	235,(321, 268),3	238,(321, 269),3	241,(321, 114),3	244,(321, 113),3	247,(321, 112),3	250,(321, 110),3	253,(321, 109),3	256,(321, 107),3	259,(321, 106),3	262,(321, 105),3	265,(321, 104),3	268,(321, 102),3	271,(321, 101),3	274,(321, 99),3	277,(321, 98),3	280,(321, 96),3	283,(321, 277),3	286,(321, 278),3	289,(321, 279),3	292,(321, 92),3	295,(321, 280),3	298,(321, 81),3	301,(321, 82),3	304,(321, 78),3	307,(321, 83),3	310,(321, 84),3	313,(321, 85),3	316,(321, 73),3	319,(321, 86),3	322,(321, 71),3	325,(321, 70),3	328,(321, 69),3	331,(321, 67),3	334,(321, 66),3	337,(321, 65),3	340,(321, 64),3	343,(321, 62),3	346,(321, 61),3	349,(321, 60),3	352,(321, 59),3	355,(321, 57),3	358,(321, 56),3	361,(321, 287),3	364,(321, 288),3	367,(321, 53),3	370,(321, 289),3	373,(321, 290),3	376,(321, 291),3	379,(321, 48),3	382,(321, 292),3	385,(321, 293),3	388,(321, 294),3	391,(321, 43),3	394,(321, 295),3	397,(321, 304),3	400,(321, 303),3	403,(321, 302),3	406,(321, 300),3	409,(321, 299),3	412,(321, 297),3	415,(321, 296),3	418,(321, 39),3	421,(321, 38),3	424,(321, 36),3	427,(321, 35),3	430,(321, 33),3	433,(321, 32),3	436,(321, 30),3	439,(321, 311),3	442,(321, 28),3	445,(321, 312),3	448,(321, 17),3	451,(321, 18),3	454,(321, 19),3	457,(321, 20),3	460,(321, 21),3	463,(321, 22),3	466,(321, 23),3	469,(321, 24),3	472,(321, 1),3	475,(321, 3),3	478,(321, 4),3	481,(321, 6),3	484,(321, 8),3	487,(321, 313),3	490,(321, 315),3	493,(321, 317),3	496,(321, 319),3	
41,(217, 0),12	89,(202, 0),12	137,(196, 0),12	185,(191, 0),12	233,(187, 0),12	281,(182, 0),12	329,(176, 0),12	377,(172, 0),12	425,(238, 0),12	473,(233, 0),12	521,(246, 0),12	569,(249, 0),12	617,(251, 0),12	665,(254, 0),12	713,(143, 0),12	761,(138, 0),12	809,(132, 0),12	857,(263, 0),12	905,(122, 0),12	953,(268, 0),12	1001,(112, 0),12	1049,(106, 0),12	1097,(101, 0),12	1145,(277, 0),12	1193,(280, 0),12	1241,(83, 0),12	1289,(86, 0),12	1337,(67, 0),12	1385,(62, 0),12	1433,(57, 0),12	1481,(53, 0),12	1529,(48, 0),12	1577,(43, 0),12	1625,(302, 0),12	1673,(296, 0),12	1721,(35, 0),12	1769,(311, 0),12	1817,(18, 0),12	1865,(22, 0),12	1913,(3, 0),12	1961,(313, 0),12	
17,(213, 0),12	65,(205, 0),12	113,(199, 0),12	161,(194, 0),12	209,(221, 0),12	257,(224, 0),12	305,(179, 0),12	353,(229, 0),12	401,(169, 0),12	449,(235, 0),12	497,(167, 0),12	545,(247, 0),12	593,(250, 0),12	641,(252, 0),12	689,(146, 0),12	737,(140, 0),12	785,(135, 0),12	833,(130, 0),12	881,(125, 0),12	929,(119, 0),12	977,(114, 0),12	1025,(109, 0),12	1073,(104, 0),12	1121,(98, 0),12	1169,(279, 0),12	1217,(82, 0),12	1265,(85, 0),12	1313,(70, 0),12	1361,(65, 0),12	1409,(60, 0),12	1457,(287, 0),12	1505,(290, 0),12	1553,(293, 0),12	1601,(304, 0),12	1649,(299, 0),12	1697,(38, 0),12	1745,(32, 0),12	1793,(312, 0),12	1841,(20, 0),12	1889,(24, 0),12	1937,(6, 0),12	1985,(317, 0),12	
29,(216, 0),12	77,(204, 0),12	125,(198, 0),12	173,(193, 0),12	221,(222, 0),12	269,(225, 0),12	317,(227, 0),12	365,(173, 0),12	413,(239, 0),12	461,(234, 0),12	509,(165, 0),12	557,(248, 0),12	605,(155, 0),12	653,(253, 0),12	701,(145, 0),12	749,(139, 0),12	797,(134, 0),12	845,(262, 0),12	893,(265, 0),12	941,(267, 0),12	989,(113, 0),12	1037,(107, 0),12	1085,(102, 0),12	1133,(96, 0),12	1181,(92, 0),12	1229,(78, 0),12	1277,(73, 0),12	1325,(69, 0),12	1373,(64, 0),12	1421,(59, 0),12	1469,(288, 0),12	1517,(291, 0),12	1565,(294, 0),12	1613,(303, 0),12	1661,(297, 0),12	1709,(36, 0),12	1757,(30, 0),12	1805,(17, 0),12	1853,(21, 0),12	1901,(1, 0),12	1949,(8, 0),12	1997,(319, 0),12	
53,(206, 0),12	101,(201, 0),12	149,(195, 0),12	197,(190, 0),12	245,(223, 0),12	293,(226, 0),12	341,(228, 0),12	389,(170, 0),12	437,(236, 0),12	485,(168, 0),12	533,(163, 0),12	581,(158, 0),12	629,(152, 0),12	677,(148, 0),12	725,(142, 0),12	773,(137, 0),12	821,(131, 0),12	869,(264, 0),12	917,(266, 0),12	965,(269, 0),12	1013,(110, 0),12	1061,(105, 0),12	1109,(99, 0),12	1157,(278, 0),12	1205,(81, 0),12	1253,(84, 0),12	1301,(71, 0),12	1349,(66, 0),12	1397,(61, 0),12	1445,(56, 0),12	1493,(289, 0),12	1541,(292, 0),12	1589,(295, 0),12	1637,(300, 0),12	1685,(39, 0),12	1733,(33, 0),12	1781,(28, 0),12	1829,(19, 0),12	1877,(23, 0),12	1925,(4, 0),12	1973,(315, 0),12	
