962
# CPU
0,0,1	1,1,3	4,3,3	7,7,3	10,15,3	13,31,3	16,63,3	19,127,3	22,255,3	25,320,3	28,319,3	31,318,3	34,317,3	37,316,3	40,315,3	43,314,3	46,313,3	49,312,3	52,311,3	55,310,3	58,309,3	61,308,3	64,307,3	67,306,3	70,305,3	73,304,3	76,303,3	79,302,3	82,301,3	85,300,3	88,299,3	91,298,3	94,297,3	97,296,3	100,295,3	103,294,3	106,293,3	109,292,3	112,291,3	115,290,3	118,289,3	121,288,3	124,287,3	127,286,3	130,285,3	133,284,3	136,283,3	139,282,3	142,281,3	145,280,3	148,279,3	151,278,3	154,277,3	157,276,3	160,275,3	163,274,3	166,273,3	169,272,3	172,271,3	175,270,3	178,269,3	181,268,3	184,267,3	187,266,3	190,265,3	193,264,3	196,263,3	199,262,3	202,261,3	205,260,3	208,259,3	211,258,3	214,257,3	217,254,3	220,256,3	223,253,3	226,252,3	229,251,3	232,250,3	235,249,3	238,248,3	241,247,3	244,246,3	247,245,3	250,244,3	253,243,3	256,242,3	259,241,3	262,240,3	265,239,3	268,238,3	271,237,3	274,236,3	277,235,3	280,234,3	283,233,3	286,232,3	289,231,3	292,230,3	295,229,3	298,228,3	301,227,3	304,226,3	307,225,3	310,224,3	313,223,3	316,222,3	319,221,3	322,220,3	325,219,3	328,218,3	331,217,3	334,216,3	337,215,3	340,214,3	343,213,3	346,212,3	349,211,3	352,210,3	355,209,3	358,208,3	361,207,3	364,206,3	367,205,3	370,204,3	373,203,3	376,202,3	379,201,3	382,200,3	385,199,3	388,198,3	391,197,3	394,196,3	397,195,3	400,194,3	403,193,3	406,192,3	409,191,3	412,190,3	415,189,3	418,188,3	421,187,3	424,186,3	427,185,3	430,184,3	433,183,3	436,182,3	439,181,3	442,180,3	445,179,3	448,178,3	451,177,3	454,176,3	457,175,3	460,174,3	463,173,3	466,172,3	469,171,3	472,170,3	475,169,3	478,168,3	481,167,3	484,166,3	487,165,3	490,164,3	493,163,3	496,162,3	499,161,3	502,160,3	505,159,3	508,158,3	511,157,3	514,156,3	517,155,3	520,154,3	523,153,3	526,152,3	529,151,3	532,150,3	535,149,3	538,148,3	541,147,3	544,146,3	547,145,3	550,144,3	553,143,3	556,142,3	559,141,3	562,140,3	565,139,3	568,138,3	571,137,3	574,136,3	577,135,3	580,134,3	583,133,3	586,132,3	589,131,3	592,130,3	595,129,3	598,126,3	601,128,3	604,125,3	607,124,3	610,123,3	613,122,3	616,121,3	619,120,3	622,119,3	625,118,3	628,117,3	631,116,3	634,115,3	637,114,3	640,113,3	643,112,3	646,111,3	649,110,3	652,109,3	655,108,3	658,107,3	661,106,3	664,105,3	667,104,3	670,103,3	673,102,3	676,101,3	679,100,3	682,99,3	685,98,3	688,97,3	691,96,3	694,95,3	697,94,3	700,93,3	703,92,3	706,91,3	709,90,3	712,89,3	715,88,3	718,87,3	721,86,3	724,85,3	727,84,3	730,83,3	733,82,3	736,81,3	739,80,3	742,79,3	745,78,3	748,77,3	751,76,3	754,75,3	757,74,3	760,73,3	763,72,3	766,71,3	769,70,3	772,69,3	775,68,3	778,67,3	781,66,3	784,65,3	787,62,3	790,64,3	793,61,3	796,60,3	799,59,3	802,58,3	805,57,3	808,56,3	811,55,3	814,54,3	817,53,3	820,52,3	823,51,3	826,50,3	829,49,3	832,48,3	835,47,3	838,46,3	841,45,3	844,44,3	847,43,3	850,42,3	853,41,3	856,40,3	859,39,3	862,38,3	865,37,3	868,36,3	871,35,3	874,34,3	877,33,3	880,30,3	883,32,3	886,29,3	889,28,3	892,27,3	895,26,3	898,25,3	901,24,3	904,23,3	907,22,3	910,21,3	913,20,3	916,19,3	919,18,3	922,17,3	925,14,3	928,16,3	931,13,3	934,12,3	937,11,3	940,10,3	943,9,3	946,6,3	949,8,3	952,5,3	955,2,3	958,4,3	961,321,1	
# Incoming

# Outgoing

