277
# CPU
0,0,1	1,211,1	2,210,1	3,212,1	4,209,1	5,208,1	6,207,1	7,32,1	8,128,1	9,213,1	10,214,1	11,206,1	12,205,1	13,129,1	14,126,1	15,204,1	16,203,1	17,215,1	18,202,1	19,105,1	20,124,1	21,201,1	22,216,1	23,200,1	24,218,1	25,301,1	26,121,1	27,198,1	28,197,1	29,199,1	30,196,1	31,29,1	32,119,1	33,195,1	34,220,1	35,194,1	36,222,1	37,177,1	38,99,1	39,193,1	40,192,1	41,224,1	42,191,1	43,285,1	44,264,1	45,188,1	46,187,1	47,186,1	48,189,1	49,127,1	50,112,1	51,190,1	52,185,1	53,184,1	54,183,1	55,287,1	56,266,1	57,236,1	58,237,1	59,235,1	60,234,1	61,118,1	62,267,1	63,238,1	64,233,1	65,239,1	66,232,1	67,289,1	68,102,1	69,228,1	70,226,1	71,181,1	72,240,1	73,290,1	74,273,1	75,179,1	76,178,1	77,180,1	78,175,1	79,54,1	80,96,1	81,241,1	82,242,1	83,174,1	84,173,1	85,245,1	86,265,1	87,170,1	88,168,1	89,171,1	90,167,1	91,271,1	92,97,1	93,243,1	94,166,1	95,165,1	96,244,1	97,49,1	98,269,1	99,163,1	100,162,1	101,161,1	102,160,1	103,88,1	104,92,1	105,247,1	106,248,1	107,246,1	108,158,1	109,156,1	110,132,1	111,249,1	112,155,1	113,250,1	114,154,1	115,45,1	116,86,1	117,251,1	118,252,1	119,152,1	120,253,1	121,125,1	122,277,1	123,151,1	124,150,1	125,148,1	126,146,1	127,298,1	128,80,1	129,145,1	130,254,1	131,143,1	132,255,1	133,64,1	134,279,1	135,142,1	136,141,1	137,256,1	138,140,1	139,71,1	140,76,1	141,257,1	142,138,1	143,136,1	144,258,1	145,25,1	146,62,1	147,260,1	148,259,1	149,135,1	150,134,1	151,307,1	152,72,1	153,131,1	154,261,1	155,123,1	156,122,1	157,104,1	158,284,1	159,262,1	160,120,1	161,263,1	162,116,1	163,22,1	164,66,1	165,268,1	166,101,1	167,100,1	168,103,1	169,65,1	170,291,1	171,95,1	172,94,1	173,98,1	174,93,1	175,288,1	176,58,1	177,90,1	178,91,1	179,89,1	180,106,1	181,17,1	182,42,1	183,87,1	184,85,1	185,107,1	186,84,1	187,311,1	188,47,1	189,83,1	190,82,1	191,81,1	192,108,1	193,295,1	194,44,1	195,79,1	196,78,1	197,77,1	198,75,1	199,9,1	200,302,1	201,74,1	202,113,1	203,73,1	204,70,1	205,43,1	206,303,1	207,69,1	208,68,1	209,115,1	210,67,1	211,306,1	212,35,1	213,61,1	214,63,1	215,60,1	216,270,1	217,11,1	218,55,1	219,59,1	220,57,1	221,299,1	222,297,1	223,314,1	224,30,1	225,296,1	226,300,1	227,294,1	228,293,1	229,50,1	230,36,1	231,304,1	232,292,1	233,305,1	234,286,1	235,7,1	236,31,1	237,308,1	238,276,1	239,56,1	240,309,1	241,23,1	242,1,1	243,310,1	244,53,1	245,51,1	246,48,1	247,19,1	248,312,1	249,24,1	250,26,1	251,21,1	252,27,1	253,6,1	254,34,1	255,20,1	256,18,1	257,28,1	258,16,1	259,15,1	260,12,1	261,33,1	262,2,1	263,3,1	264,4,1	265,10,1	266,8,1	267,5,1	268,13,1	269,14,1	270,38,1	271,41,1	272,313,1	273,317,1	274,318,1	275,320,1	276,321,1	
43,229,1	61,182,1	79,169,1	145,130,1	181,272,1	223,282,1	259,315,1	
7,217,1	25,223,1	97,157,1	115,147,1	205,281,1	
67,176,1	151,117,1	187,274,1	241,40,1	
133,137,1	169,111,1	211,280,1	
13,219,1	31,225,1	49,230,1	85,164,1	103,153,1	229,52,1	265,316,1	
121,144,1	139,133,1	193,275,1	247,37,1	
19,221,1	55,231,1	73,172,1	91,159,1	157,114,1	175,110,1	217,283,1	
37,227,1	199,278,1	235,46,1	271,319,1	
109,149,1	127,139,1	163,109,1	253,39,1	
# Incoming
8,(217, 321),2	14,(219, 321),2	20,(221, 321),2	26,(223, 321),2	32,(225, 321),2	38,(227, 321),2	44,(229, 321),2	50,(230, 321),2	56,(231, 321),2	62,(182, 321),2	68,(176, 321),2	74,(172, 321),2	80,(169, 321),2	86,(164, 321),2	92,(159, 321),2	98,(157, 321),2	104,(153, 321),2	110,(149, 321),2	116,(147, 321),2	122,(144, 321),2	128,(139, 321),2	134,(137, 321),2	140,(133, 321),2	146,(130, 321),2	152,(117, 321),2	158,(114, 321),2	164,(109, 321),2	170,(111, 321),2	176,(110, 321),2	182,(272, 321),2	188,(274, 321),2	194,(275, 321),2	200,(278, 321),2	206,(281, 321),2	212,(280, 321),2	218,(283, 321),2	224,(282, 321),2	230,(52, 321),2	236,(46, 321),2	242,(40, 321),2	248,(37, 321),2	254,(39, 321),2	260,(315, 321),2	266,(316, 321),2	272,(319, 321),2	
37,(0, 229),6	55,(0, 182),6	73,(0, 169),6	139,(0, 130),6	175,(0, 272),6	217,(0, 282),6	253,(0, 315),6	
1,(0, 217),6	19,(0, 223),6	91,(0, 157),6	109,(0, 147),6	199,(0, 281),6	
61,(0, 176),6	145,(0, 117),6	181,(0, 274),6	235,(0, 40),6	
127,(0, 137),6	163,(0, 111),6	205,(0, 280),6	
7,(0, 219),6	25,(0, 225),6	43,(0, 230),6	79,(0, 164),6	97,(0, 153),6	223,(0, 52),6	259,(0, 316),6	
115,(0, 144),6	133,(0, 133),6	187,(0, 275),6	241,(0, 37),6	
13,(0, 221),6	49,(0, 231),6	67,(0, 172),6	85,(0, 159),6	151,(0, 114),6	169,(0, 110),6	211,(0, 283),6	
31,(0, 227),6	193,(0, 278),6	229,(0, 46),6	265,(0, 319),6	
103,(0, 149),6	121,(0, 139),6	157,(0, 109),6	247,(0, 39),6	
# Outgoing
1,(0, 217),6	7,(0, 219),6	13,(0, 221),6	19,(0, 223),6	25,(0, 225),6	31,(0, 227),6	37,(0, 229),6	43,(0, 230),6	49,(0, 231),6	55,(0, 182),6	61,(0, 176),6	67,(0, 172),6	73,(0, 169),6	79,(0, 164),6	85,(0, 159),6	91,(0, 157),6	97,(0, 153),6	103,(0, 149),6	109,(0, 147),6	115,(0, 144),6	121,(0, 139),6	127,(0, 137),6	133,(0, 133),6	139,(0, 130),6	145,(0, 117),6	151,(0, 114),6	157,(0, 109),6	163,(0, 111),6	169,(0, 110),6	175,(0, 272),6	181,(0, 274),6	187,(0, 275),6	193,(0, 278),6	199,(0, 281),6	205,(0, 280),6	211,(0, 283),6	217,(0, 282),6	223,(0, 52),6	229,(0, 46),6	235,(0, 40),6	241,(0, 37),6	247,(0, 39),6	253,(0, 315),6	259,(0, 316),6	265,(0, 319),6	
44,(229, 321),2	62,(182, 321),2	80,(169, 321),2	146,(130, 321),2	182,(272, 321),2	224,(282, 321),2	260,(315, 321),2	
8,(217, 321),2	26,(223, 321),2	98,(157, 321),2	116,(147, 321),2	206,(281, 321),2	
68,(176, 321),2	152,(117, 321),2	188,(274, 321),2	242,(40, 321),2	
134,(137, 321),2	170,(111, 321),2	212,(280, 321),2	
14,(219, 321),2	32,(225, 321),2	50,(230, 321),2	86,(164, 321),2	104,(153, 321),2	230,(52, 321),2	266,(316, 321),2	
122,(144, 321),2	140,(133, 321),2	194,(275, 321),2	248,(37, 321),2	
20,(221, 321),2	56,(231, 321),2	74,(172, 321),2	92,(159, 321),2	158,(114, 321),2	176,(110, 321),2	218,(283, 321),2	
38,(227, 321),2	200,(278, 321),2	236,(46, 321),2	272,(319, 321),2	
110,(149, 321),2	128,(139, 321),2	164,(109, 321),2	254,(39, 321),2	
