1922
# CPU
0,0,1	1,1,6	7,3,6	13,7,6	19,15,6	25,31,6	31,63,6	37,127,6	43,255,6	49,320,6	55,319,6	61,318,6	67,317,6	73,316,6	79,315,6	85,314,6	91,313,6	97,312,6	103,311,6	109,310,6	115,309,6	121,308,6	127,307,6	133,306,6	139,305,6	145,304,6	151,303,6	157,302,6	163,301,6	169,300,6	175,299,6	181,298,6	187,297,6	193,296,6	199,295,6	205,294,6	211,293,6	217,292,6	223,291,6	229,290,6	235,289,6	241,288,6	247,287,6	253,286,6	259,285,6	265,284,6	271,283,6	277,282,6	283,281,6	289,280,6	295,279,6	301,278,6	307,277,6	313,276,6	319,275,6	325,274,6	331,273,6	337,272,6	343,271,6	349,270,6	355,269,6	361,268,6	367,267,6	373,266,6	379,265,6	385,264,6	391,263,6	397,262,6	403,261,6	409,260,6	415,259,6	421,258,6	427,257,6	433,254,6	439,256,6	445,253,6	451,252,6	457,251,6	463,250,6	469,249,6	475,248,6	481,247,6	487,246,6	493,245,6	499,244,6	505,243,6	511,242,6	517,241,6	523,240,6	529,239,6	535,238,6	541,237,6	547,236,6	553,235,6	559,234,6	565,233,6	571,232,6	577,231,6	583,230,6	589,229,6	595,228,6	601,227,6	607,226,6	613,225,6	619,224,6	625,223,6	631,222,6	637,221,6	643,220,6	649,219,6	655,218,6	661,217,6	667,216,6	673,215,6	679,214,6	685,213,6	691,212,6	697,211,6	703,210,6	709,209,6	715,208,6	721,207,6	727,206,6	733,205,6	739,204,6	745,203,6	751,202,6	757,201,6	763,200,6	769,199,6	775,198,6	781,197,6	787,196,6	793,195,6	799,194,6	805,193,6	811,192,6	817,191,6	823,190,6	829,189,6	835,188,6	841,187,6	847,186,6	853,185,6	859,184,6	865,183,6	871,182,6	877,181,6	883,180,6	889,179,6	895,178,6	901,177,6	907,176,6	913,175,6	919,174,6	925,173,6	931,172,6	937,171,6	943,170,6	949,169,6	955,168,6	961,167,6	967,166,6	973,165,6	979,164,6	985,163,6	991,162,6	997,161,6	1003,160,6	1009,159,6	1015,158,6	1021,157,6	1027,156,6	1033,155,6	1039,154,6	1045,153,6	1051,152,6	1057,151,6	1063,150,6	1069,149,6	1075,148,6	1081,147,6	1087,146,6	1093,145,6	1099,144,6	1105,143,6	1111,142,6	1117,141,6	1123,140,6	1129,139,6	1135,138,6	1141,137,6	1147,136,6	1153,135,6	1159,134,6	1165,133,6	1171,132,6	1177,131,6	1183,130,6	1189,129,6	1195,126,6	1201,128,6	1207,125,6	1213,124,6	1219,123,6	1225,122,6	1231,121,6	1237,120,6	1243,119,6	1249,118,6	1255,117,6	1261,116,6	1267,115,6	1273,114,6	1279,113,6	1285,112,6	1291,111,6	1297,110,6	1303,109,6	1309,108,6	1315,107,6	1321,106,6	1327,105,6	1333,104,6	1339,103,6	1345,102,6	1351,101,6	1357,100,6	1363,99,6	1369,98,6	1375,97,6	1381,96,6	1387,95,6	1393,94,6	1399,93,6	1405,92,6	1411,91,6	1417,90,6	1423,89,6	1429,88,6	1435,87,6	1441,86,6	1447,85,6	1453,84,6	1459,83,6	1465,82,6	1471,81,6	1477,80,6	1483,79,6	1489,78,6	1495,77,6	1501,76,6	1507,75,6	1513,74,6	1519,73,6	1525,72,6	1531,71,6	1537,70,6	1543,69,6	1549,68,6	1555,67,6	1561,66,6	1567,65,6	1573,62,6	1579,64,6	1585,61,6	1591,60,6	1597,59,6	1603,58,6	1609,57,6	1615,56,6	1621,55,6	1627,54,6	1633,53,6	1639,52,6	1645,51,6	1651,50,6	1657,49,6	1663,48,6	1669,47,6	1675,46,6	1681,45,6	1687,44,6	1693,43,6	1699,42,6	1705,41,6	1711,40,6	1717,39,6	1723,38,6	1729,37,6	1735,36,6	1741,35,6	1747,34,6	1753,33,6	1759,30,6	1765,32,6	1771,29,6	1777,28,6	1783,27,6	1789,26,6	1795,25,6	1801,24,6	1807,23,6	1813,22,6	1819,21,6	1825,20,6	1831,19,6	1837,18,6	1843,17,6	1849,14,6	1855,16,6	1861,13,6	1867,12,6	1873,11,6	1879,10,6	1885,9,6	1891,6,6	1897,8,6	1903,5,6	1909,2,6	1915,4,6	1921,321,1	
# Incoming

# Outgoing

