3377
# CPU
0,321,1	1,320,21	22,211,21	43,208,21	64,212,21	85,213,21	106,214,21	127,203,21	148,215,21	169,200,21	190,216,21	211,197,21	232,217,21	253,218,21	274,219,21	295,192,21	316,220,21	337,221,21	358,222,21	379,187,21	400,223,21	421,224,21	442,225,21	463,182,21	484,226,21	505,179,21	526,227,21	547,176,21	568,228,21	589,229,21	610,230,21	631,171,21	652,231,21	673,240,21	694,241,21	715,237,21	736,242,21	757,243,21	778,244,21	799,232,21	820,245,21	841,166,21	862,246,21	883,163,21	904,247,21	925,248,21	946,249,21	967,158,21	988,250,21	1009,155,21	1030,251,21	1051,152,21	1072,252,21	1093,253,21	1114,254,21	1135,147,21	1156,255,21	1177,144,21	1198,256,21	1219,141,21	1240,257,21	1261,258,21	1282,259,21	1303,136,21	1324,260,21	1345,133,21	1366,261,21	1387,130,21	1408,262,21	1429,263,21	1450,264,21	1471,125,21	1492,265,21	1513,122,21	1534,266,21	1555,119,21	1576,267,21	1597,268,21	1618,269,21	1639,114,21	1660,270,21	1681,111,21	1702,271,21	1723,108,21	1744,272,21	1765,273,21	1786,274,21	1807,103,21	1828,275,21	1849,100,21	1870,276,21	1891,97,21	1912,277,21	1933,278,21	1954,279,21	1975,92,21	1996,280,21	2017,81,21	2038,82,21	2059,78,21	2080,83,21	2101,84,21	2122,85,21	2143,73,21	2164,86,21	2185,87,21	2206,88,21	2227,68,21	2248,89,21	2269,281,21	2290,282,21	2311,63,21	2332,283,21	2353,284,21	2374,285,21	2395,58,21	2416,286,21	2437,287,21	2458,288,21	2479,53,21	2500,289,21	2521,290,21	2542,291,21	2563,48,21	2584,292,21	2605,293,21	2626,294,21	2647,43,21	2668,295,21	2689,304,21	2710,305,21	2731,301,21	2752,306,21	2773,298,21	2794,307,21	2815,40,21	2836,308,21	2857,37,21	2878,309,21	2899,34,21	2920,310,21	2941,31,21	2962,311,21	2983,28,21	3004,312,21	3025,17,21	3046,18,21	3067,19,21	3088,20,21	3109,21,21	3130,22,21	3151,23,21	3172,24,21	3193,1,21	3214,3,21	3235,5,21	3256,7,21	3277,25,21	3298,314,21	3319,316,21	3340,318,21	3376,0,1	
13,210,21	34,209,21	55,207,21	76,206,21	97,205,21	118,204,21	139,202,21	160,201,21	181,199,21	202,198,21	223,196,21	244,195,21	265,194,21	286,193,21	307,191,21	328,190,21	349,189,21	370,188,21	391,186,21	412,185,21	433,184,21	454,183,21	475,181,21	496,180,21	517,178,21	538,177,21	559,175,21	580,174,21	601,173,21	622,172,21	643,170,21	664,169,21	685,239,21	706,238,21	727,236,21	748,235,21	769,234,21	790,233,21	811,168,21	832,167,21	853,165,21	874,164,21	895,162,21	916,161,21	937,160,21	958,159,21	979,157,21	1000,156,21	1021,154,21	1042,153,21	1063,151,21	1084,150,21	1105,149,21	1126,148,21	1147,146,21	1168,145,21	1189,143,21	1210,142,21	1231,140,21	1252,139,21	1273,138,21	1294,137,21	1315,135,21	1336,134,21	1357,132,21	1378,131,21	1399,129,21	1420,128,21	1441,127,21	1462,126,21	1483,124,21	1504,123,21	1525,121,21	1546,120,21	1567,118,21	1588,117,21	1609,116,21	1630,115,21	1651,113,21	1672,112,21	1693,110,21	1714,109,21	1735,107,21	1756,106,21	1777,105,21	1798,104,21	1819,102,21	1840,101,21	1861,99,21	1882,98,21	1903,96,21	1924,95,21	1945,94,21	1966,93,21	1987,91,21	2008,90,21	2029,80,21	2050,79,21	2071,77,21	2092,76,21	2113,75,21	2134,74,21	2155,72,21	2176,71,21	2197,70,21	2218,69,21	2239,67,21	2260,66,21	2281,65,21	2302,64,21	2323,62,21	2344,61,21	2365,60,21	2386,59,21	2407,57,21	2428,56,21	2449,55,21	2470,54,21	2491,52,21	2512,51,21	2533,50,21	2554,49,21	2575,47,21	2596,46,21	2617,45,21	2638,44,21	2659,42,21	2680,41,21	2701,303,21	2722,302,21	2743,300,21	2764,299,21	2785,297,21	2806,296,21	2827,39,21	2848,38,21	2869,36,21	2890,35,21	2911,33,21	2932,32,21	2953,30,21	2974,29,21	2995,27,21	3016,26,21	3037,16,21	3058,15,21	3079,14,21	3100,13,21	3121,12,21	3142,11,21	3163,10,21	3184,9,21	3205,2,21	3226,4,21	3247,6,21	3268,8,21	3289,313,21	3310,315,21	3331,317,21	3352,319,21	
# Incoming
34,(210, 0),3	55,(209, 0),3	76,(207, 0),3	97,(206, 0),3	118,(205, 0),3	139,(204, 0),3	160,(202, 0),3	181,(201, 0),3	202,(199, 0),3	223,(198, 0),3	244,(196, 0),3	265,(195, 0),3	286,(194, 0),3	307,(193, 0),3	328,(191, 0),3	349,(190, 0),3	370,(189, 0),3	391,(188, 0),3	412,(186, 0),3	433,(185, 0),3	454,(184, 0),3	475,(183, 0),3	496,(181, 0),3	517,(180, 0),3	538,(178, 0),3	559,(177, 0),3	580,(175, 0),3	601,(174, 0),3	622,(173, 0),3	643,(172, 0),3	664,(170, 0),3	685,(169, 0),3	706,(239, 0),3	727,(238, 0),3	748,(236, 0),3	769,(235, 0),3	790,(234, 0),3	811,(233, 0),3	832,(168, 0),3	853,(167, 0),3	874,(165, 0),3	895,(164, 0),3	916,(162, 0),3	937,(161, 0),3	958,(160, 0),3	979,(159, 0),3	1000,(157, 0),3	1021,(156, 0),3	1042,(154, 0),3	1063,(153, 0),3	1084,(151, 0),3	1105,(150, 0),3	1126,(149, 0),3	1147,(148, 0),3	1168,(146, 0),3	1189,(145, 0),3	1210,(143, 0),3	1231,(142, 0),3	1252,(140, 0),3	1273,(139, 0),3	1294,(138, 0),3	1315,(137, 0),3	1336,(135, 0),3	1357,(134, 0),3	1378,(132, 0),3	1399,(131, 0),3	1420,(129, 0),3	1441,(128, 0),3	1462,(127, 0),3	1483,(126, 0),3	1504,(124, 0),3	1525,(123, 0),3	1546,(121, 0),3	1567,(120, 0),3	1588,(118, 0),3	1609,(117, 0),3	1630,(116, 0),3	1651,(115, 0),3	1672,(113, 0),3	1693,(112, 0),3	1714,(110, 0),3	1735,(109, 0),3	1756,(107, 0),3	1777,(106, 0),3	1798,(105, 0),3	1819,(104, 0),3	1840,(102, 0),3	1861,(101, 0),3	1882,(99, 0),3	1903,(98, 0),3	1924,(96, 0),3	1945,(95, 0),3	1966,(94, 0),3	1987,(93, 0),3	2008,(91, 0),3	2029,(90, 0),3	2050,(80, 0),3	2071,(79, 0),3	2092,(77, 0),3	2113,(76, 0),3	2134,(75, 0),3	2155,(74, 0),3	2176,(72, 0),3	2197,(71, 0),3	2218,(70, 0),3	2239,(69, 0),3	2260,(67, 0),3	2281,(66, 0),3	2302,(65, 0),3	2323,(64, 0),3	2344,(62, 0),3	2365,(61, 0),3	2386,(60, 0),3	2407,(59, 0),3	2428,(57, 0),3	2449,(56, 0),3	2470,(55, 0),3	2491,(54, 0),3	2512,(52, 0),3	2533,(51, 0),3	2554,(50, 0),3	2575,(49, 0),3	2596,(47, 0),3	2617,(46, 0),3	2638,(45, 0),3	2659,(44, 0),3	2680,(42, 0),3	2701,(41, 0),3	2722,(303, 0),3	2743,(302, 0),3	2764,(300, 0),3	2785,(299, 0),3	2806,(297, 0),3	2827,(296, 0),3	2848,(39, 0),3	2869,(38, 0),3	2890,(36, 0),3	2911,(35, 0),3	2932,(33, 0),3	2953,(32, 0),3	2974,(30, 0),3	2995,(29, 0),3	3016,(27, 0),3	3037,(26, 0),3	3058,(16, 0),3	3079,(15, 0),3	3100,(14, 0),3	3121,(13, 0),3	3142,(12, 0),3	3163,(11, 0),3	3184,(10, 0),3	3205,(9, 0),3	3226,(2, 0),3	3247,(4, 0),3	3268,(6, 0),3	3289,(8, 0),3	3310,(313, 0),3	3331,(315, 0),3	3352,(317, 0),3	3373,(319, 0),3	
1,(321, 210),12	13,(321, 209),12	25,(321, 207),12	37,(321, 206),12	49,(321, 205),12	61,(321, 204),12	73,(321, 202),12	85,(321, 201),12	97,(321, 199),12	109,(321, 198),12	121,(321, 196),12	133,(321, 195),12	145,(321, 194),12	157,(321, 193),12	169,(321, 191),12	181,(321, 190),12	193,(321, 189),12	205,(321, 188),12	217,(321, 186),12	229,(321, 185),12	241,(321, 184),12	253,(321, 183),12	265,(321, 181),12	277,(321, 180),12	289,(321, 178),12	301,(321, 177),12	313,(321, 175),12	325,(321, 174),12	337,(321, 173),12	349,(321, 172),12	361,(321, 170),12	373,(321, 169),12	385,(321, 239),12	397,(321, 238),12	409,(321, 236),12	421,(321, 235),12	433,(321, 234),12	445,(321, 233),12	457,(321, 168),12	469,(321, 167),12	481,(321, 165),12	493,(321, 164),12	505,(321, 162),12	517,(321, 161),12	529,(321, 160),12	541,(321, 159),12	553,(321, 157),12	565,(321, 156),12	577,(321, 154),12	589,(321, 153),12	601,(321, 151),12	613,(321, 150),12	625,(321, 149),12	637,(321, 148),12	649,(321, 146),12	661,(321, 145),12	673,(321, 143),12	685,(321, 142),12	697,(321, 140),12	709,(321, 139),12	721,(321, 138),12	733,(321, 137),12	745,(321, 135),12	757,(321, 134),12	769,(321, 132),12	781,(321, 131),12	793,(321, 129),12	805,(321, 128),12	817,(321, 127),12	829,(321, 126),12	841,(321, 124),12	853,(321, 123),12	865,(321, 121),12	877,(321, 120),12	889,(321, 118),12	901,(321, 117),12	913,(321, 116),12	925,(321, 115),12	937,(321, 113),12	949,(321, 112),12	961,(321, 110),12	973,(321, 109),12	985,(321, 107),12	997,(321, 106),12	1009,(321, 105),12	1021,(321, 104),12	1033,(321, 102),12	1045,(321, 101),12	1057,(321, 99),12	1069,(321, 98),12	1081,(321, 96),12	1093,(321, 95),12	1105,(321, 94),12	1117,(321, 93),12	1129,(321, 91),12	1141,(321, 90),12	1153,(321, 80),12	1165,(321, 79),12	1177,(321, 77),12	1189,(321, 76),12	1201,(321, 75),12	1213,(321, 74),12	1225,(321, 72),12	1237,(321, 71),12	1249,(321, 70),12	1261,(321, 69),12	1273,(321, 67),12	1285,(321, 66),12	1297,(321, 65),12	1309,(321, 64),12	1321,(321, 62),12	1333,(321, 61),12	1345,(321, 60),12	1357,(321, 59),12	1369,(321, 57),12	1381,(321, 56),12	1393,(321, 55),12	1405,(321, 54),12	1417,(321, 52),12	1429,(321, 51),12	1441,(321, 50),12	1453,(321, 49),12	1465,(321, 47),12	1477,(321, 46),12	1489,(321, 45),12	1501,(321, 44),12	1513,(321, 42),12	1525,(321, 41),12	1537,(321, 303),12	1549,(321, 302),12	1561,(321, 300),12	1573,(321, 299),12	1585,(321, 297),12	1597,(321, 296),12	1609,(321, 39),12	1621,(321, 38),12	1633,(321, 36),12	1645,(321, 35),12	1657,(321, 33),12	1669,(321, 32),12	1681,(321, 30),12	1693,(321, 29),12	1705,(321, 27),12	1717,(321, 26),12	1729,(321, 16),12	1741,(321, 15),12	1753,(321, 14),12	1765,(321, 13),12	1777,(321, 12),12	1789,(321, 11),12	1801,(321, 10),12	1813,(321, 9),12	1825,(321, 2),12	1837,(321, 4),12	1849,(321, 6),12	1861,(321, 8),12	1873,(321, 313),12	1885,(321, 315),12	1897,(321, 317),12	1909,(321, 319),12	
# Outgoing
1,(321, 210),12	13,(321, 209),12	25,(321, 207),12	37,(321, 206),12	49,(321, 205),12	61,(321, 204),12	73,(321, 202),12	85,(321, 201),12	97,(321, 199),12	109,(321, 198),12	121,(321, 196),12	133,(321, 195),12	145,(321, 194),12	157,(321, 193),12	169,(321, 191),12	181,(321, 190),12	193,(321, 189),12	205,(321, 188),12	217,(321, 186),12	229,(321, 185),12	241,(321, 184),12	253,(321, 183),12	265,(321, 181),12	277,(321, 180),12	289,(321, 178),12	301,(321, 177),12	313,(321, 175),12	325,(321, 174),12	337,(321, 173),12	349,(321, 172),12	361,(321, 170),12	373,(321, 169),12	385,(321, 239),12	397,(321, 238),12	409,(321, 236),12	421,(321, 235),12	433,(321, 234),12	445,(321, 233),12	457,(321, 168),12	469,(321, 167),12	481,(321, 165),12	493,(321, 164),12	505,(321, 162),12	517,(321, 161),12	529,(321, 160),12	541,(321, 159),12	553,(321, 157),12	565,(321, 156),12	577,(321, 154),12	589,(321, 153),12	601,(321, 151),12	613,(321, 150),12	625,(321, 149),12	637,(321, 148),12	649,(321, 146),12	661,(321, 145),12	673,(321, 143),12	685,(321, 142),12	697,(321, 140),12	709,(321, 139),12	721,(321, 138),12	733,(321, 137),12	745,(321, 135),12	757,(321, 134),12	769,(321, 132),12	781,(321, 131),12	793,(321, 129),12	805,(321, 128),12	817,(321, 127),12	829,(321, 126),12	841,(321, 124),12	853,(321, 123),12	865,(321, 121),12	877,(321, 120),12	889,(321, 118),12	901,(321, 117),12	913,(321, 116),12	925,(321, 115),12	937,(321, 113),12	949,(321, 112),12	961,(321, 110),12	973,(321, 109),12	985,(321, 107),12	997,(321, 106),12	1009,(321, 105),12	1021,(321, 104),12	1033,(321, 102),12	1045,(321, 101),12	1057,(321, 99),12	1069,(321, 98),12	1081,(321, 96),12	1093,(321, 95),12	1105,(321, 94),12	1117,(321, 93),12	1129,(321, 91),12	1141,(321, 90),12	1153,(321, 80),12	1165,(321, 79),12	1177,(321, 77),12	1189,(321, 76),12	1201,(321, 75),12	1213,(321, 74),12	1225,(321, 72),12	1237,(321, 71),12	1249,(321, 70),12	1261,(321, 69),12	1273,(321, 67),12	1285,(321, 66),12	1297,(321, 65),12	1309,(321, 64),12	1321,(321, 62),12	1333,(321, 61),12	1345,(321, 60),12	1357,(321, 59),12	1369,(321, 57),12	1381,(321, 56),12	1393,(321, 55),12	1405,(321, 54),12	1417,(321, 52),12	1429,(321, 51),12	1441,(321, 50),12	1453,(321, 49),12	1465,(321, 47),12	1477,(321, 46),12	1489,(321, 45),12	1501,(321, 44),12	1513,(321, 42),12	1525,(321, 41),12	1537,(321, 303),12	1549,(321, 302),12	1561,(321, 300),12	1573,(321, 299),12	1585,(321, 297),12	1597,(321, 296),12	1609,(321, 39),12	1621,(321, 38),12	1633,(321, 36),12	1645,(321, 35),12	1657,(321, 33),12	1669,(321, 32),12	1681,(321, 30),12	1693,(321, 29),12	1705,(321, 27),12	1717,(321, 26),12	1729,(321, 16),12	1741,(321, 15),12	1753,(321, 14),12	1765,(321, 13),12	1777,(321, 12),12	1789,(321, 11),12	1801,(321, 10),12	1813,(321, 9),12	1825,(321, 2),12	1837,(321, 4),12	1849,(321, 6),12	1861,(321, 8),12	1873,(321, 313),12	1885,(321, 315),12	1897,(321, 317),12	1909,(321, 319),12	
34,(210, 0),3	55,(209, 0),3	76,(207, 0),3	97,(206, 0),3	118,(205, 0),3	139,(204, 0),3	160,(202, 0),3	181,(201, 0),3	202,(199, 0),3	223,(198, 0),3	244,(196, 0),3	265,(195, 0),3	286,(194, 0),3	307,(193, 0),3	328,(191, 0),3	349,(190, 0),3	370,(189, 0),3	391,(188, 0),3	412,(186, 0),3	433,(185, 0),3	454,(184, 0),3	475,(183, 0),3	496,(181, 0),3	517,(180, 0),3	538,(178, 0),3	559,(177, 0),3	580,(175, 0),3	601,(174, 0),3	622,(173, 0),3	643,(172, 0),3	664,(170, 0),3	685,(169, 0),3	706,(239, 0),3	727,(238, 0),3	748,(236, 0),3	769,(235, 0),3	790,(234, 0),3	811,(233, 0),3	832,(168, 0),3	853,(167, 0),3	874,(165, 0),3	895,(164, 0),3	916,(162, 0),3	937,(161, 0),3	958,(160, 0),3	979,(159, 0),3	1000,(157, 0),3	1021,(156, 0),3	1042,(154, 0),3	1063,(153, 0),3	1084,(151, 0),3	1105,(150, 0),3	1126,(149, 0),3	1147,(148, 0),3	1168,(146, 0),3	1189,(145, 0),3	1210,(143, 0),3	1231,(142, 0),3	1252,(140, 0),3	1273,(139, 0),3	1294,(138, 0),3	1315,(137, 0),3	1336,(135, 0),3	1357,(134, 0),3	1378,(132, 0),3	1399,(131, 0),3	1420,(129, 0),3	1441,(128, 0),3	1462,(127, 0),3	1483,(126, 0),3	1504,(124, 0),3	1525,(123, 0),3	1546,(121, 0),3	1567,(120, 0),3	1588,(118, 0),3	1609,(117, 0),3	1630,(116, 0),3	1651,(115, 0),3	1672,(113, 0),3	1693,(112, 0),3	1714,(110, 0),3	1735,(109, 0),3	1756,(107, 0),3	1777,(106, 0),3	1798,(105, 0),3	1819,(104, 0),3	1840,(102, 0),3	1861,(101, 0),3	1882,(99, 0),3	1903,(98, 0),3	1924,(96, 0),3	1945,(95, 0),3	1966,(94, 0),3	1987,(93, 0),3	2008,(91, 0),3	2029,(90, 0),3	2050,(80, 0),3	2071,(79, 0),3	2092,(77, 0),3	2113,(76, 0),3	2134,(75, 0),3	2155,(74, 0),3	2176,(72, 0),3	2197,(71, 0),3	2218,(70, 0),3	2239,(69, 0),3	2260,(67, 0),3	2281,(66, 0),3	2302,(65, 0),3	2323,(64, 0),3	2344,(62, 0),3	2365,(61, 0),3	2386,(60, 0),3	2407,(59, 0),3	2428,(57, 0),3	2449,(56, 0),3	2470,(55, 0),3	2491,(54, 0),3	2512,(52, 0),3	2533,(51, 0),3	2554,(50, 0),3	2575,(49, 0),3	2596,(47, 0),3	2617,(46, 0),3	2638,(45, 0),3	2659,(44, 0),3	2680,(42, 0),3	2701,(41, 0),3	2722,(303, 0),3	2743,(302, 0),3	2764,(300, 0),3	2785,(299, 0),3	2806,(297, 0),3	2827,(296, 0),3	2848,(39, 0),3	2869,(38, 0),3	2890,(36, 0),3	2911,(35, 0),3	2932,(33, 0),3	2953,(32, 0),3	2974,(30, 0),3	2995,(29, 0),3	3016,(27, 0),3	3037,(26, 0),3	3058,(16, 0),3	3079,(15, 0),3	3100,(14, 0),3	3121,(13, 0),3	3142,(12, 0),3	3163,(11, 0),3	3184,(10, 0),3	3205,(9, 0),3	3226,(2, 0),3	3247,(4, 0),3	3268,(6, 0),3	3289,(8, 0),3	3310,(313, 0),3	3331,(315, 0),3	3352,(317, 0),3	3373,(319, 0),3	
