2242
# CPU
0,0,1	1,1,7	8,3,7	15,7,7	22,15,7	29,31,7	36,63,7	43,127,7	50,255,7	57,320,7	64,319,7	71,318,7	78,317,7	85,316,7	92,315,7	99,314,7	106,313,7	113,312,7	120,311,7	127,310,7	134,309,7	141,308,7	148,307,7	155,306,7	162,305,7	169,304,7	176,303,7	183,302,7	190,301,7	197,300,7	204,299,7	211,298,7	218,297,7	225,296,7	232,295,7	239,294,7	246,293,7	253,292,7	260,291,7	267,290,7	274,289,7	281,288,7	288,287,7	295,286,7	302,285,7	309,284,7	316,283,7	323,282,7	330,281,7	337,280,7	344,279,7	351,278,7	358,277,7	365,276,7	372,275,7	379,274,7	386,273,7	393,272,7	400,271,7	407,270,7	414,269,7	421,268,7	428,267,7	435,266,7	442,265,7	449,264,7	456,263,7	463,262,7	470,261,7	477,260,7	484,259,7	491,258,7	498,257,7	505,254,7	512,256,7	519,253,7	526,252,7	533,251,7	540,250,7	547,249,7	554,248,7	561,247,7	568,246,7	575,245,7	582,244,7	589,243,7	596,242,7	603,241,7	610,240,7	617,239,7	624,238,7	631,237,7	638,236,7	645,235,7	652,234,7	659,233,7	666,232,7	673,231,7	680,230,7	687,229,7	694,228,7	701,227,7	708,226,7	715,225,7	722,224,7	729,223,7	736,222,7	743,221,7	750,220,7	757,219,7	764,218,7	771,217,7	778,216,7	785,215,7	792,214,7	799,213,7	806,212,7	813,211,7	820,210,7	827,209,7	834,208,7	841,207,7	848,206,7	855,205,7	862,204,7	869,203,7	876,202,7	883,201,7	890,200,7	897,199,7	904,198,7	911,197,7	918,196,7	925,195,7	932,194,7	939,193,7	946,192,7	953,191,7	960,190,7	967,189,7	974,188,7	981,187,7	988,186,7	995,185,7	1002,184,7	1009,183,7	1016,182,7	1023,181,7	1030,180,7	1037,179,7	1044,178,7	1051,177,7	1058,176,7	1065,175,7	1072,174,7	1079,173,7	1086,172,7	1093,171,7	1100,170,7	1107,169,7	1114,168,7	1121,167,7	1128,166,7	1135,165,7	1142,164,7	1149,163,7	1156,162,7	1163,161,7	1170,160,7	1177,159,7	1184,158,7	1191,157,7	1198,156,7	1205,155,7	1212,154,7	1219,153,7	1226,152,7	1233,151,7	1240,150,7	1247,149,7	1254,148,7	1261,147,7	1268,146,7	1275,145,7	1282,144,7	1289,143,7	1296,142,7	1303,141,7	1310,140,7	1317,139,7	1324,138,7	1331,137,7	1338,136,7	1345,135,7	1352,134,7	1359,133,7	1366,132,7	1373,131,7	1380,130,7	1387,129,7	1394,126,7	1401,128,7	1408,125,7	1415,124,7	1422,123,7	1429,122,7	1436,121,7	1443,120,7	1450,119,7	1457,118,7	1464,117,7	1471,116,7	1478,115,7	1485,114,7	1492,113,7	1499,112,7	1506,111,7	1513,110,7	1520,109,7	1527,108,7	1534,107,7	1541,106,7	1548,105,7	1555,104,7	1562,103,7	1569,102,7	1576,101,7	1583,100,7	1590,99,7	1597,98,7	1604,97,7	1611,96,7	1618,95,7	1625,94,7	1632,93,7	1639,92,7	1646,91,7	1653,90,7	1660,89,7	1667,88,7	1674,87,7	1681,86,7	1688,85,7	1695,84,7	1702,83,7	1709,82,7	1716,81,7	1723,80,7	1730,79,7	1737,78,7	1744,77,7	1751,76,7	1758,75,7	1765,74,7	1772,73,7	1779,72,7	1786,71,7	1793,70,7	1800,69,7	1807,68,7	1814,67,7	1821,66,7	1828,65,7	1835,62,7	1842,64,7	1849,61,7	1856,60,7	1863,59,7	1870,58,7	1877,57,7	1884,56,7	1891,55,7	1898,54,7	1905,53,7	1912,52,7	1919,51,7	1926,50,7	1933,49,7	1940,48,7	1947,47,7	1954,46,7	1961,45,7	1968,44,7	1975,43,7	1982,42,7	1989,41,7	1996,40,7	2003,39,7	2010,38,7	2017,37,7	2024,36,7	2031,35,7	2038,34,7	2045,33,7	2052,30,7	2059,32,7	2066,29,7	2073,28,7	2080,27,7	2087,26,7	2094,25,7	2101,24,7	2108,23,7	2115,22,7	2122,21,7	2129,20,7	2136,19,7	2143,18,7	2150,17,7	2157,14,7	2164,16,7	2171,13,7	2178,12,7	2185,11,7	2192,10,7	2199,9,7	2206,6,7	2213,8,7	2220,5,7	2227,2,7	2234,4,7	2241,321,1	
# Incoming

# Outgoing

