4216
# CPU
0,321,1	1,211,14	15,210,14	29,212,14	43,209,14	57,208,14	71,207,14	85,213,14	99,206,14	113,214,14	127,205,14	141,215,14	155,204,14	169,203,14	183,202,14	197,216,14	211,201,14	225,199,14	239,200,14	253,198,14	267,197,14	281,196,14	295,217,14	309,195,14	323,218,14	337,194,14	351,219,14	365,193,14	379,192,14	393,191,14	407,221,14	421,190,14	435,222,14	449,189,14	463,188,14	477,187,14	491,186,14	505,223,14	519,185,14	533,224,14	547,184,14	561,226,14	575,183,14	589,182,14	603,181,14	617,227,14	631,180,14	645,179,14	659,178,14	673,177,14	687,176,14	701,175,14	715,228,14	729,174,14	743,229,14	757,173,14	771,230,14	785,172,14	799,171,14	813,170,14	827,232,14	841,169,14	855,241,14	869,240,14	883,242,14	897,239,14	911,238,14	925,243,14	939,237,14	953,244,14	967,236,14	981,245,14	995,235,14	1009,233,14	1023,168,14	1037,246,14	1051,167,14	1065,166,14	1079,165,14	1093,247,14	1107,164,14	1121,163,14	1135,248,14	1149,162,14	1163,249,14	1177,161,14	1191,250,14	1205,159,14	1219,158,14	1233,157,14	1247,251,14	1261,156,14	1275,155,14	1289,154,14	1303,252,14	1317,153,14	1331,152,14	1345,253,14	1359,151,14	1373,254,14	1387,150,14	1401,255,14	1415,149,14	1429,148,14	1443,146,14	1457,256,14	1471,145,14	1485,144,14	1499,143,14	1513,257,14	1527,21,14	1541,90,14	1555,258,14	1569,142,14	1583,259,14	1597,141,14	1611,260,14	1625,140,14	1639,139,14	1653,138,14	1667,261,14	1681,136,14	1695,135,14	1709,134,14	1723,262,14	1737,133,14	1751,132,14	1765,263,14	1779,131,14	1793,264,14	1807,130,14	1821,265,14	1835,129,14	1849,128,14	1863,126,14	1877,266,14	1891,125,14	1905,124,14	1919,123,14	1933,267,14	1947,122,14	1961,121,14	1975,268,14	1989,120,14	2003,269,14	2017,119,14	2031,270,14	2045,118,14	2059,117,14	2073,115,14	2087,271,14	2101,114,14	2115,113,14	2129,112,14	2143,272,14	2157,111,14	2171,110,14	2185,273,14	2199,109,14	2213,274,14	2227,108,14	2241,275,14	2255,107,14	2269,106,14	2283,104,14	2297,276,14	2311,103,14	2325,102,14	2339,101,14	2353,277,14	2367,100,14	2381,99,14	2395,98,14	2409,278,14	2423,279,14	2437,97,14	2451,280,14	2465,96,14	2479,95,14	2493,93,14	2507,281,14	2521,92,14	2535,82,14	2549,81,14	2563,83,14	2577,80,14	2591,79,14	2605,78,14	2619,77,14	2633,84,14	2647,76,14	2661,85,14	2675,75,14	2689,74,14	2703,73,14	2717,86,14	2731,72,14	2745,87,14	2759,71,14	2773,88,14	2787,70,14	2801,69,14	2815,68,14	2829,91,14	2843,67,14	2857,66,14	2871,282,14	2885,65,14	2899,64,14	2913,63,14	2927,283,14	2941,62,14	2955,284,14	2969,61,14	2983,285,14	2997,60,14	3011,59,14	3025,58,14	3039,287,14	3053,14,14	3067,304,14	3081,57,14	3095,56,14	3109,55,14	3123,54,14	3137,288,14	3151,53,14	3165,289,14	3179,52,14	3193,290,14	3207,51,14	3221,50,14	3235,49,14	3249,291,14	3263,48,14	3277,47,14	3291,293,14	3305,46,14	3319,45,14	3333,44,14	3347,294,14	3361,43,14	3375,305,14	3389,303,14	3403,306,14	3417,302,14	3431,301,14	3445,300,14	3459,307,14	3473,299,14	3487,298,14	3501,308,14	3515,297,14	3529,295,14	3543,42,14	3557,309,14	3571,41,14	3585,40,14	3599,38,14	3613,310,14	3627,37,14	3641,36,14	3655,35,14	3669,311,14	3683,34,14	3697,33,14	3711,312,14	3725,32,14	3739,31,14	3753,30,14	3767,313,14	3781,29,14	3795,18,14	3809,17,14	3823,19,14	3837,16,14	3851,20,14	3865,15,14	3879,22,14	3893,13,14	3907,23,14	3921,12,14	3935,11,14	3949,24,14	3963,10,14	3977,25,14	3991,9,14	4005,1,14	4019,2,14	4033,3,14	4047,4,14	4061,5,14	4075,6,14	4089,7,14	4103,8,14	4117,26,14	4131,27,14	4145,315,14	4159,316,14	4173,317,14	4187,318,14	4201,320,14	4215,0,1	
219,220,14	655,231,14	2617,89,14	3489,39,14	
1091,160,14	
3053,292,14	3925,314,14	
1527,137,14	
1963,116,14	3271,296,14	
2835,286,14	3707,28,14	4143,319,14	
873,234,14	2399,94,14	
437,225,14	1309,147,14	1745,127,14	
2181,105,14	
# Incoming
233,(220, 0),8	451,(225, 0),8	669,(231, 0),8	887,(234, 0),8	1105,(160, 0),8	1323,(147, 0),8	1541,(137, 0),8	1759,(127, 0),8	1977,(116, 0),8	2195,(105, 0),8	2413,(94, 0),8	2631,(89, 0),8	2849,(286, 0),8	3067,(292, 0),8	3285,(296, 0),8	3503,(39, 0),8	3721,(28, 0),8	3939,(314, 0),8	4157,(319, 0),8	
1,(321, 220),218	437,(321, 231),218	2399,(321, 89),218	3271,(321, 39),218	
873,(321, 160),218	
2835,(321, 292),218	3707,(321, 314),218	
1309,(321, 137),218	
1745,(321, 116),218	3053,(321, 296),218	
2617,(321, 286),218	3489,(321, 28),218	3925,(321, 319),218	
655,(321, 234),218	2181,(321, 94),218	
219,(321, 225),218	1091,(321, 147),218	1527,(321, 127),218	
1963,(321, 105),218	
# Outgoing
1,(321, 220),218	219,(321, 225),218	437,(321, 231),218	655,(321, 234),218	873,(321, 160),218	1091,(321, 147),218	1309,(321, 137),218	1527,(321, 127),218	1745,(321, 116),218	1963,(321, 105),218	2181,(321, 94),218	2399,(321, 89),218	2617,(321, 286),218	2835,(321, 292),218	3053,(321, 296),218	3271,(321, 39),218	3489,(321, 28),218	3707,(321, 314),218	3925,(321, 319),218	
233,(220, 0),8	669,(231, 0),8	2631,(89, 0),8	3503,(39, 0),8	
1105,(160, 0),8	
3067,(292, 0),8	3939,(314, 0),8	
1541,(137, 0),8	
1977,(116, 0),8	3285,(296, 0),8	
2849,(286, 0),8	3721,(28, 0),8	4157,(319, 0),8	
887,(234, 0),8	2413,(94, 0),8	
451,(225, 0),8	1323,(147, 0),8	1759,(127, 0),8	
2195,(105, 0),8	
