1446
# CPU
10,2,1	19,4,1	28,6,1	37,8,1	46,10,1	55,12,1	64,14,1	73,16,1	82,18,1	91,20,1	100,22,1	109,24,1	118,26,1	127,28,1	136,30,1	145,32,1	154,34,1	163,36,1	172,38,1	181,40,1	190,42,1	199,44,1	208,46,1	217,48,1	226,50,1	235,52,1	244,54,1	253,56,1	262,58,1	271,60,1	280,62,1	289,64,1	298,66,1	307,68,1	316,70,1	325,72,1	334,74,1	343,76,1	352,78,1	361,80,1	370,82,1	379,84,1	388,86,1	397,88,1	406,90,1	415,92,1	424,94,1	433,96,1	442,98,1	451,100,1	460,102,1	469,104,1	478,106,1	487,108,1	496,110,1	505,112,1	514,114,1	523,116,1	532,118,1	541,120,1	550,122,1	559,124,1	568,126,1	577,128,1	586,130,1	595,132,1	604,134,1	613,136,1	622,138,1	631,140,1	640,142,1	649,144,1	658,146,1	667,148,1	676,150,1	685,152,1	694,154,1	703,156,1	712,158,1	721,160,1	730,162,1	739,164,1	748,166,1	757,168,1	766,170,1	775,172,1	784,174,1	793,176,1	802,178,1	811,180,1	820,182,1	829,184,1	838,186,1	847,188,1	856,190,1	865,192,1	874,194,1	883,196,1	892,198,1	901,200,1	910,202,1	919,204,1	928,206,1	937,208,1	946,210,1	955,212,1	964,214,1	973,216,1	982,218,1	991,220,1	1000,222,1	1009,224,1	1018,226,1	1027,228,1	1036,230,1	1045,232,1	1054,234,1	1063,236,1	1072,238,1	1081,240,1	1090,242,1	1099,244,1	1108,246,1	1117,248,1	1126,250,1	1135,252,1	1144,254,1	1153,256,1	1162,258,1	1171,260,1	1180,262,1	1189,264,1	1198,266,1	1207,268,1	1216,270,1	1225,272,1	1234,274,1	1243,276,1	1252,278,1	1261,280,1	1270,282,1	1279,284,1	1288,286,1	1297,288,1	1306,290,1	1315,292,1	1324,294,1	1333,296,1	1342,298,1	1351,300,1	1360,302,1	1369,304,1	1378,306,1	1387,308,1	1396,310,1	1405,312,1	1414,314,1	1423,316,1	1432,318,1	1441,320,1	
0,0,1	1,1,1	2,5,1	3,13,1	4,29,1	5,61,1	6,125,1	7,253,1	8,319,1	9,317,1	10,315,1	11,313,1	12,311,1	13,309,1	14,307,1	15,305,1	16,303,1	17,301,1	18,299,1	19,297,1	20,295,1	21,293,1	22,291,1	23,289,1	24,287,1	25,285,1	26,283,1	27,281,1	28,279,1	29,277,1	30,275,1	31,273,1	32,271,1	33,269,1	34,267,1	35,265,1	36,263,1	37,261,1	38,259,1	39,257,1	40,251,1	41,255,1	42,249,1	43,247,1	44,245,1	45,243,1	46,241,1	47,239,1	48,237,1	49,235,1	50,233,1	51,231,1	52,229,1	53,227,1	54,225,1	55,223,1	56,221,1	57,219,1	58,217,1	59,215,1	60,213,1	61,211,1	62,209,1	63,207,1	64,205,1	65,203,1	66,201,1	67,199,1	68,197,1	69,195,1	70,193,1	71,191,1	72,189,1	73,187,1	74,185,1	75,183,1	76,181,1	77,179,1	78,177,1	79,175,1	80,173,1	81,171,1	82,169,1	83,167,1	84,165,1	85,163,1	86,161,1	87,159,1	88,157,1	89,155,1	90,153,1	91,151,1	92,149,1	93,147,1	94,145,1	95,143,1	96,141,1	97,139,1	98,137,1	99,135,1	100,133,1	101,131,1	102,129,1	103,123,1	104,127,1	105,121,1	106,119,1	107,117,1	108,115,1	109,113,1	110,111,1	111,109,1	112,107,1	113,105,1	114,103,1	115,101,1	116,99,1	117,97,1	118,95,1	119,93,1	120,91,1	121,89,1	122,87,1	123,85,1	124,83,1	125,81,1	126,79,1	127,77,1	128,75,1	129,73,1	130,71,1	131,69,1	132,67,1	133,65,1	134,59,1	135,63,1	136,57,1	137,55,1	138,53,1	139,51,1	140,49,1	141,47,1	142,45,1	143,43,1	144,41,1	145,39,1	146,37,1	147,35,1	148,33,1	149,27,1	150,31,1	151,25,1	152,23,1	153,21,1	154,19,1	155,17,1	156,11,1	157,15,1	158,9,1	159,3,1	160,7,1	1445,321,1	
# Incoming
1,(0, 2),9	10,(0, 4),9	19,(0, 6),9	28,(0, 8),9	37,(0, 10),9	46,(0, 12),9	55,(0, 14),9	64,(0, 16),9	73,(0, 18),9	82,(0, 20),9	91,(0, 22),9	100,(0, 24),9	109,(0, 26),9	118,(0, 28),9	127,(0, 30),9	136,(0, 32),9	145,(0, 34),9	154,(0, 36),9	163,(0, 38),9	172,(0, 40),9	181,(0, 42),9	190,(0, 44),9	199,(0, 46),9	208,(0, 48),9	217,(0, 50),9	226,(0, 52),9	235,(0, 54),9	244,(0, 56),9	253,(0, 58),9	262,(0, 60),9	271,(0, 62),9	280,(0, 64),9	289,(0, 66),9	298,(0, 68),9	307,(0, 70),9	316,(0, 72),9	325,(0, 74),9	334,(0, 76),9	343,(0, 78),9	352,(0, 80),9	361,(0, 82),9	370,(0, 84),9	379,(0, 86),9	388,(0, 88),9	397,(0, 90),9	406,(0, 92),9	415,(0, 94),9	424,(0, 96),9	433,(0, 98),9	442,(0, 100),9	451,(0, 102),9	460,(0, 104),9	469,(0, 106),9	478,(0, 108),9	487,(0, 110),9	496,(0, 112),9	505,(0, 114),9	514,(0, 116),9	523,(0, 118),9	532,(0, 120),9	541,(0, 122),9	550,(0, 124),9	559,(0, 126),9	568,(0, 128),9	577,(0, 130),9	586,(0, 132),9	595,(0, 134),9	604,(0, 136),9	613,(0, 138),9	622,(0, 140),9	631,(0, 142),9	640,(0, 144),9	649,(0, 146),9	658,(0, 148),9	667,(0, 150),9	676,(0, 152),9	685,(0, 154),9	694,(0, 156),9	703,(0, 158),9	712,(0, 160),9	721,(0, 162),9	730,(0, 164),9	739,(0, 166),9	748,(0, 168),9	757,(0, 170),9	766,(0, 172),9	775,(0, 174),9	784,(0, 176),9	793,(0, 178),9	802,(0, 180),9	811,(0, 182),9	820,(0, 184),9	829,(0, 186),9	838,(0, 188),9	847,(0, 190),9	856,(0, 192),9	865,(0, 194),9	874,(0, 196),9	883,(0, 198),9	892,(0, 200),9	901,(0, 202),9	910,(0, 204),9	919,(0, 206),9	928,(0, 208),9	937,(0, 210),9	946,(0, 212),9	955,(0, 214),9	964,(0, 216),9	973,(0, 218),9	982,(0, 220),9	991,(0, 222),9	1000,(0, 224),9	1009,(0, 226),9	1018,(0, 228),9	1027,(0, 230),9	1036,(0, 232),9	1045,(0, 234),9	1054,(0, 236),9	1063,(0, 238),9	1072,(0, 240),9	1081,(0, 242),9	1090,(0, 244),9	1099,(0, 246),9	1108,(0, 248),9	1117,(0, 250),9	1126,(0, 252),9	1135,(0, 254),9	1144,(0, 256),9	1153,(0, 258),9	1162,(0, 260),9	1171,(0, 262),9	1180,(0, 264),9	1189,(0, 266),9	1198,(0, 268),9	1207,(0, 270),9	1216,(0, 272),9	1225,(0, 274),9	1234,(0, 276),9	1243,(0, 278),9	1252,(0, 280),9	1261,(0, 282),9	1270,(0, 284),9	1279,(0, 286),9	1288,(0, 288),9	1297,(0, 290),9	1306,(0, 292),9	1315,(0, 294),9	1324,(0, 296),9	1333,(0, 298),9	1342,(0, 300),9	1351,(0, 302),9	1360,(0, 304),9	1369,(0, 306),9	1378,(0, 308),9	1387,(0, 310),9	1396,(0, 312),9	1405,(0, 314),9	1414,(0, 316),9	1423,(0, 318),9	1432,(0, 320),9	
11,(2, 321),3	20,(4, 321),3	29,(6, 321),3	38,(8, 321),3	47,(10, 321),3	56,(12, 321),3	65,(14, 321),3	74,(16, 321),3	83,(18, 321),3	92,(20, 321),3	101,(22, 321),3	110,(24, 321),3	119,(26, 321),3	128,(28, 321),3	137,(30, 321),3	146,(32, 321),3	155,(34, 321),3	164,(36, 321),3	173,(38, 321),3	182,(40, 321),3	191,(42, 321),3	200,(44, 321),3	209,(46, 321),3	218,(48, 321),3	227,(50, 321),3	236,(52, 321),3	245,(54, 321),3	254,(56, 321),3	263,(58, 321),3	272,(60, 321),3	281,(62, 321),3	290,(64, 321),3	299,(66, 321),3	308,(68, 321),3	317,(70, 321),3	326,(72, 321),3	335,(74, 321),3	344,(76, 321),3	353,(78, 321),3	362,(80, 321),3	371,(82, 321),3	380,(84, 321),3	389,(86, 321),3	398,(88, 321),3	407,(90, 321),3	416,(92, 321),3	425,(94, 321),3	434,(96, 321),3	443,(98, 321),3	452,(100, 321),3	461,(102, 321),3	470,(104, 321),3	479,(106, 321),3	488,(108, 321),3	497,(110, 321),3	506,(112, 321),3	515,(114, 321),3	524,(116, 321),3	533,(118, 321),3	542,(120, 321),3	551,(122, 321),3	560,(124, 321),3	569,(126, 321),3	578,(128, 321),3	587,(130, 321),3	596,(132, 321),3	605,(134, 321),3	614,(136, 321),3	623,(138, 321),3	632,(140, 321),3	641,(142, 321),3	650,(144, 321),3	659,(146, 321),3	668,(148, 321),3	677,(150, 321),3	686,(152, 321),3	695,(154, 321),3	704,(156, 321),3	713,(158, 321),3	722,(160, 321),3	731,(162, 321),3	740,(164, 321),3	749,(166, 321),3	758,(168, 321),3	767,(170, 321),3	776,(172, 321),3	785,(174, 321),3	794,(176, 321),3	803,(178, 321),3	812,(180, 321),3	821,(182, 321),3	830,(184, 321),3	839,(186, 321),3	848,(188, 321),3	857,(190, 321),3	866,(192, 321),3	875,(194, 321),3	884,(196, 321),3	893,(198, 321),3	902,(200, 321),3	911,(202, 321),3	920,(204, 321),3	929,(206, 321),3	938,(208, 321),3	947,(210, 321),3	956,(212, 321),3	965,(214, 321),3	974,(216, 321),3	983,(218, 321),3	992,(220, 321),3	1001,(222, 321),3	1010,(224, 321),3	1019,(226, 321),3	1028,(228, 321),3	1037,(230, 321),3	1046,(232, 321),3	1055,(234, 321),3	1064,(236, 321),3	1073,(238, 321),3	1082,(240, 321),3	1091,(242, 321),3	1100,(244, 321),3	1109,(246, 321),3	1118,(248, 321),3	1127,(250, 321),3	1136,(252, 321),3	1145,(254, 321),3	1154,(256, 321),3	1163,(258, 321),3	1172,(260, 321),3	1181,(262, 321),3	1190,(264, 321),3	1199,(266, 321),3	1208,(268, 321),3	1217,(270, 321),3	1226,(272, 321),3	1235,(274, 321),3	1244,(276, 321),3	1253,(278, 321),3	1262,(280, 321),3	1271,(282, 321),3	1280,(284, 321),3	1289,(286, 321),3	1298,(288, 321),3	1307,(290, 321),3	1316,(292, 321),3	1325,(294, 321),3	1334,(296, 321),3	1343,(298, 321),3	1352,(300, 321),3	1361,(302, 321),3	1370,(304, 321),3	1379,(306, 321),3	1388,(308, 321),3	1397,(310, 321),3	1406,(312, 321),3	1415,(314, 321),3	1424,(316, 321),3	1433,(318, 321),3	1442,(320, 321),3	
# Outgoing
11,(2, 321),3	20,(4, 321),3	29,(6, 321),3	38,(8, 321),3	47,(10, 321),3	56,(12, 321),3	65,(14, 321),3	74,(16, 321),3	83,(18, 321),3	92,(20, 321),3	101,(22, 321),3	110,(24, 321),3	119,(26, 321),3	128,(28, 321),3	137,(30, 321),3	146,(32, 321),3	155,(34, 321),3	164,(36, 321),3	173,(38, 321),3	182,(40, 321),3	191,(42, 321),3	200,(44, 321),3	209,(46, 321),3	218,(48, 321),3	227,(50, 321),3	236,(52, 321),3	245,(54, 321),3	254,(56, 321),3	263,(58, 321),3	272,(60, 321),3	281,(62, 321),3	290,(64, 321),3	299,(66, 321),3	308,(68, 321),3	317,(70, 321),3	326,(72, 321),3	335,(74, 321),3	344,(76, 321),3	353,(78, 321),3	362,(80, 321),3	371,(82, 321),3	380,(84, 321),3	389,(86, 321),3	398,(88, 321),3	407,(90, 321),3	416,(92, 321),3	425,(94, 321),3	434,(96, 321),3	443,(98, 321),3	452,(100, 321),3	461,(102, 321),3	470,(104, 321),3	479,(106, 321),3	488,(108, 321),3	497,(110, 321),3	506,(112, 321),3	515,(114, 321),3	524,(116, 321),3	533,(118, 321),3	542,(120, 321),3	551,(122, 321),3	560,(124, 321),3	569,(126, 321),3	578,(128, 321),3	587,(130, 321),3	596,(132, 321),3	605,(134, 321),3	614,(136, 321),3	623,(138, 321),3	632,(140, 321),3	641,(142, 321),3	650,(144, 321),3	659,(146, 321),3	668,(148, 321),3	677,(150, 321),3	686,(152, 321),3	695,(154, 321),3	704,(156, 321),3	713,(158, 321),3	722,(160, 321),3	731,(162, 321),3	740,(164, 321),3	749,(166, 321),3	758,(168, 321),3	767,(170, 321),3	776,(172, 321),3	785,(174, 321),3	794,(176, 321),3	803,(178, 321),3	812,(180, 321),3	821,(182, 321),3	830,(184, 321),3	839,(186, 321),3	848,(188, 321),3	857,(190, 321),3	866,(192, 321),3	875,(194, 321),3	884,(196, 321),3	893,(198, 321),3	902,(200, 321),3	911,(202, 321),3	920,(204, 321),3	929,(206, 321),3	938,(208, 321),3	947,(210, 321),3	956,(212, 321),3	965,(214, 321),3	974,(216, 321),3	983,(218, 321),3	992,(220, 321),3	1001,(222, 321),3	1010,(224, 321),3	1019,(226, 321),3	1028,(228, 321),3	1037,(230, 321),3	1046,(232, 321),3	1055,(234, 321),3	1064,(236, 321),3	1073,(238, 321),3	1082,(240, 321),3	1091,(242, 321),3	1100,(244, 321),3	1109,(246, 321),3	1118,(248, 321),3	1127,(250, 321),3	1136,(252, 321),3	1145,(254, 321),3	1154,(256, 321),3	1163,(258, 321),3	1172,(260, 321),3	1181,(262, 321),3	1190,(264, 321),3	1199,(266, 321),3	1208,(268, 321),3	1217,(270, 321),3	1226,(272, 321),3	1235,(274, 321),3	1244,(276, 321),3	1253,(278, 321),3	1262,(280, 321),3	1271,(282, 321),3	1280,(284, 321),3	1289,(286, 321),3	1298,(288, 321),3	1307,(290, 321),3	1316,(292, 321),3	1325,(294, 321),3	1334,(296, 321),3	1343,(298, 321),3	1352,(300, 321),3	1361,(302, 321),3	1370,(304, 321),3	1379,(306, 321),3	1388,(308, 321),3	1397,(310, 321),3	1406,(312, 321),3	1415,(314, 321),3	1424,(316, 321),3	1433,(318, 321),3	1442,(320, 321),3	
1,(0, 2),9	10,(0, 4),9	19,(0, 6),9	28,(0, 8),9	37,(0, 10),9	46,(0, 12),9	55,(0, 14),9	64,(0, 16),9	73,(0, 18),9	82,(0, 20),9	91,(0, 22),9	100,(0, 24),9	109,(0, 26),9	118,(0, 28),9	127,(0, 30),9	136,(0, 32),9	145,(0, 34),9	154,(0, 36),9	163,(0, 38),9	172,(0, 40),9	181,(0, 42),9	190,(0, 44),9	199,(0, 46),9	208,(0, 48),9	217,(0, 50),9	226,(0, 52),9	235,(0, 54),9	244,(0, 56),9	253,(0, 58),9	262,(0, 60),9	271,(0, 62),9	280,(0, 64),9	289,(0, 66),9	298,(0, 68),9	307,(0, 70),9	316,(0, 72),9	325,(0, 74),9	334,(0, 76),9	343,(0, 78),9	352,(0, 80),9	361,(0, 82),9	370,(0, 84),9	379,(0, 86),9	388,(0, 88),9	397,(0, 90),9	406,(0, 92),9	415,(0, 94),9	424,(0, 96),9	433,(0, 98),9	442,(0, 100),9	451,(0, 102),9	460,(0, 104),9	469,(0, 106),9	478,(0, 108),9	487,(0, 110),9	496,(0, 112),9	505,(0, 114),9	514,(0, 116),9	523,(0, 118),9	532,(0, 120),9	541,(0, 122),9	550,(0, 124),9	559,(0, 126),9	568,(0, 128),9	577,(0, 130),9	586,(0, 132),9	595,(0, 134),9	604,(0, 136),9	613,(0, 138),9	622,(0, 140),9	631,(0, 142),9	640,(0, 144),9	649,(0, 146),9	658,(0, 148),9	667,(0, 150),9	676,(0, 152),9	685,(0, 154),9	694,(0, 156),9	703,(0, 158),9	712,(0, 160),9	721,(0, 162),9	730,(0, 164),9	739,(0, 166),9	748,(0, 168),9	757,(0, 170),9	766,(0, 172),9	775,(0, 174),9	784,(0, 176),9	793,(0, 178),9	802,(0, 180),9	811,(0, 182),9	820,(0, 184),9	829,(0, 186),9	838,(0, 188),9	847,(0, 190),9	856,(0, 192),9	865,(0, 194),9	874,(0, 196),9	883,(0, 198),9	892,(0, 200),9	901,(0, 202),9	910,(0, 204),9	919,(0, 206),9	928,(0, 208),9	937,(0, 210),9	946,(0, 212),9	955,(0, 214),9	964,(0, 216),9	973,(0, 218),9	982,(0, 220),9	991,(0, 222),9	1000,(0, 224),9	1009,(0, 226),9	1018,(0, 228),9	1027,(0, 230),9	1036,(0, 232),9	1045,(0, 234),9	1054,(0, 236),9	1063,(0, 238),9	1072,(0, 240),9	1081,(0, 242),9	1090,(0, 244),9	1099,(0, 246),9	1108,(0, 248),9	1117,(0, 250),9	1126,(0, 252),9	1135,(0, 254),9	1144,(0, 256),9	1153,(0, 258),9	1162,(0, 260),9	1171,(0, 262),9	1180,(0, 264),9	1189,(0, 266),9	1198,(0, 268),9	1207,(0, 270),9	1216,(0, 272),9	1225,(0, 274),9	1234,(0, 276),9	1243,(0, 278),9	1252,(0, 280),9	1261,(0, 282),9	1270,(0, 284),9	1279,(0, 286),9	1288,(0, 288),9	1297,(0, 290),9	1306,(0, 292),9	1315,(0, 294),9	1324,(0, 296),9	1333,(0, 298),9	1342,(0, 300),9	1351,(0, 302),9	1360,(0, 304),9	1369,(0, 306),9	1378,(0, 308),9	1387,(0, 310),9	1396,(0, 312),9	1405,(0, 314),9	1414,(0, 316),9	1423,(0, 318),9	1432,(0, 320),9	
