4265
# CPU
0,321,1	1,320,21	22,210,21	43,211,21	64,208,21	85,207,21	106,206,21	127,205,21	148,209,21	169,203,21	190,202,21	211,201,21	232,199,21	253,200,21	274,197,21	295,196,21	316,195,21	337,194,21	358,198,21	379,192,21	400,191,21	421,190,21	442,193,21	463,189,21	484,187,21	505,186,21	526,185,21	547,188,21	568,184,21	589,182,21	610,181,21	631,180,21	652,179,21	673,178,21	694,177,21	715,175,21	736,174,21	757,176,21	778,173,21	799,172,21	820,170,21	841,169,21	862,240,21	883,241,21	904,239,21	925,238,21	946,242,21	967,243,21	988,244,21	1009,237,21	1030,236,21	1051,245,21	1072,235,21	1093,246,21	1114,183,21	1135,168,21	1156,247,21	1177,248,21	1198,166,21	1219,249,21	1240,163,21	1261,250,21	1282,161,21	1303,159,21	1324,251,21	1345,157,21	1366,252,21	1387,253,21	1408,155,21	1429,254,21	1450,152,21	1471,255,21	1492,151,21	1513,149,21	1534,256,21	1555,146,21	1576,257,21	1597,258,21	1618,144,21	1639,259,21	1660,142,21	1681,260,21	1702,140,21	1723,138,21	1744,261,21	1765,136,21	1786,262,21	1807,133,21	1828,263,21	1849,264,21	1870,131,21	1891,265,21	1912,129,21	1933,126,21	1954,266,21	1975,124,21	1996,267,21	2017,122,21	2038,268,21	2059,269,21	2080,120,21	2101,270,21	2122,118,21	2143,116,21	2164,271,21	2185,113,21	2206,111,21	2227,272,21	2248,273,21	2269,274,21	2290,108,21	2311,106,21	2332,275,21	2353,104,21	2374,276,21	2395,101,21	2416,100,21	2437,277,21	2458,278,21	2479,279,21	2500,98,21	2521,95,21	2542,280,21	2563,81,21	2584,80,21	2605,78,21	2626,77,21	2647,76,21	2668,79,21	2689,75,21	2710,74,21	2731,72,21	2752,71,21	2773,73,21	2794,70,21	2815,69,21	2836,67,21	2857,66,21	2878,68,21	2899,65,21	2920,64,21	2941,62,21	2962,63,21	2983,61,21	3004,60,21	3025,59,21	3046,57,21	3067,58,21	3088,56,21	3109,55,21	3130,54,21	3151,52,21	3172,53,21	3193,51,21	3214,50,21	3235,49,21	3256,47,21	3277,48,21	3298,46,21	3319,45,21	3340,44,21	3361,42,21	3382,43,21	3403,304,21	3424,303,21	3445,305,21	3466,302,21	3487,306,21	3508,301,21	3529,300,21	3550,307,21	3571,299,21	3592,308,21	3613,83,21	3634,41,21	3655,309,21	3676,38,21	3697,310,21	3718,37,21	3739,35,21	3760,311,21	3781,32,21	3802,312,21	3823,30,21	3844,16,21	3865,15,21	3886,17,21	3907,14,21	3928,13,21	3949,12,21	3970,18,21	3991,11,21	4012,10,21	4033,9,21	4054,1,21	4075,2,21	4096,3,21	4117,4,21	4138,5,21	4159,6,21	4180,7,21	4201,8,21	4222,19,21	4243,316,21	4264,0,1	
217,219,21	577,228,21	613,229,21	649,230,21	685,231,21	1009,164,21	1045,162,21	1333,147,21	1369,145,21	1441,141,21	2233,102,21	2593,88,21	2629,91,21	2701,281,21	3241,295,21	3745,26,21	3817,22,21	3997,314,21	4033,315,21	4141,317,21	4213,319,21	
253,220,21	289,221,21	1405,143,21	1729,127,21	1765,125,21	2089,109,21	2953,288,21	3277,296,21	3313,297,21	3601,33,21	3673,29,21	4069,24,21	
1801,123,21	2125,107,21	2161,105,21	2197,103,21	2485,89,21	2845,285,21	2881,286,21	2917,287,21	3637,31,21	3709,27,21	
505,226,21	541,227,21	865,204,21	901,171,21	937,167,21	1225,153,21	1261,150,21	2521,87,21	2557,86,21	3493,39,21	3565,34,21	
73,215,21	109,216,21	145,217,21	181,218,21	469,225,21	829,234,21	1297,148,21	1585,134,21	1657,130,21	1693,128,21	1981,114,21	3097,291,21	3133,292,21	3169,293,21	3205,294,21	3529,36,21	3961,313,21	
1621,132,21	2017,112,21	2053,110,21	2341,96,21	2449,90,21	2773,283,21	2809,284,21	3889,25,21	3925,28,21	
757,232,21	793,233,21	1081,160,21	1117,158,21	1153,156,21	1549,135,21	2377,94,21	2413,92,21	2737,93,21	3349,84,21	3385,298,21	3421,82,21	3457,40,21	3853,21,21	
37,214,21	325,213,21	361,222,21	397,223,21	433,224,21	721,212,21	1189,154,21	1477,139,21	1513,137,21	1873,119,21	1909,117,21	3025,289,21	3061,290,21	4105,20,21	4177,318,21	
973,165,21	1837,121,21	1945,115,21	2269,99,21	2305,97,21	2665,85,21	2989,282,21	3781,23,21	
# Incoming
58,(214, 0),9	94,(215, 0),9	130,(216, 0),9	166,(217, 0),9	202,(218, 0),9	238,(219, 0),9	274,(220, 0),9	310,(221, 0),9	346,(213, 0),9	382,(222, 0),9	418,(223, 0),9	454,(224, 0),9	490,(225, 0),9	526,(226, 0),9	562,(227, 0),9	598,(228, 0),9	634,(229, 0),9	670,(230, 0),9	706,(231, 0),9	742,(212, 0),9	778,(232, 0),9	814,(233, 0),9	850,(234, 0),9	886,(204, 0),9	922,(171, 0),9	958,(167, 0),9	994,(165, 0),9	1030,(164, 0),9	1066,(162, 0),9	1102,(160, 0),9	1138,(158, 0),9	1174,(156, 0),9	1210,(154, 0),9	1246,(153, 0),9	1282,(150, 0),9	1318,(148, 0),9	1354,(147, 0),9	1390,(145, 0),9	1426,(143, 0),9	1462,(141, 0),9	1498,(139, 0),9	1534,(137, 0),9	1570,(135, 0),9	1606,(134, 0),9	1642,(132, 0),9	1678,(130, 0),9	1714,(128, 0),9	1750,(127, 0),9	1786,(125, 0),9	1822,(123, 0),9	1858,(121, 0),9	1894,(119, 0),9	1930,(117, 0),9	1966,(115, 0),9	2002,(114, 0),9	2038,(112, 0),9	2074,(110, 0),9	2110,(109, 0),9	2146,(107, 0),9	2182,(105, 0),9	2218,(103, 0),9	2254,(102, 0),9	2290,(99, 0),9	2326,(97, 0),9	2362,(96, 0),9	2398,(94, 0),9	2434,(92, 0),9	2470,(90, 0),9	2506,(89, 0),9	2542,(87, 0),9	2578,(86, 0),9	2614,(88, 0),9	2650,(91, 0),9	2686,(85, 0),9	2722,(281, 0),9	2758,(93, 0),9	2794,(283, 0),9	2830,(284, 0),9	2866,(285, 0),9	2902,(286, 0),9	2938,(287, 0),9	2974,(288, 0),9	3010,(282, 0),9	3046,(289, 0),9	3082,(290, 0),9	3118,(291, 0),9	3154,(292, 0),9	3190,(293, 0),9	3226,(294, 0),9	3262,(295, 0),9	3298,(296, 0),9	3334,(297, 0),9	3370,(84, 0),9	3406,(298, 0),9	3442,(82, 0),9	3478,(40, 0),9	3514,(39, 0),9	3550,(36, 0),9	3586,(34, 0),9	3622,(33, 0),9	3658,(31, 0),9	3694,(29, 0),9	3730,(27, 0),9	3766,(26, 0),9	3802,(23, 0),9	3838,(22, 0),9	3874,(21, 0),9	3910,(25, 0),9	3946,(28, 0),9	3982,(313, 0),9	4018,(314, 0),9	4054,(315, 0),9	4090,(24, 0),9	4126,(20, 0),9	4162,(317, 0),9	4198,(318, 0),9	4234,(319, 0),9	
181,(321, 219),36	541,(321, 228),36	577,(321, 229),36	613,(321, 230),36	649,(321, 231),36	973,(321, 164),36	1009,(321, 162),36	1297,(321, 147),36	1333,(321, 145),36	1405,(321, 141),36	2197,(321, 102),36	2557,(321, 88),36	2593,(321, 91),36	2665,(321, 281),36	3205,(321, 295),36	3709,(321, 26),36	3781,(321, 22),36	3961,(321, 314),36	3997,(321, 315),36	4105,(321, 317),36	4177,(321, 319),36	
217,(321, 220),36	253,(321, 221),36	1369,(321, 143),36	1693,(321, 127),36	1729,(321, 125),36	2053,(321, 109),36	2917,(321, 288),36	3241,(321, 296),36	3277,(321, 297),36	3565,(321, 33),36	3637,(321, 29),36	4033,(321, 24),36	
1765,(321, 123),36	2089,(321, 107),36	2125,(321, 105),36	2161,(321, 103),36	2449,(321, 89),36	2809,(321, 285),36	2845,(321, 286),36	2881,(321, 287),36	3601,(321, 31),36	3673,(321, 27),36	
469,(321, 226),36	505,(321, 227),36	829,(321, 204),36	865,(321, 171),36	901,(321, 167),36	1189,(321, 153),36	1225,(321, 150),36	2485,(321, 87),36	2521,(321, 86),36	3457,(321, 39),36	3529,(321, 34),36	
37,(321, 215),36	73,(321, 216),36	109,(321, 217),36	145,(321, 218),36	433,(321, 225),36	793,(321, 234),36	1261,(321, 148),36	1549,(321, 134),36	1621,(321, 130),36	1657,(321, 128),36	1945,(321, 114),36	3061,(321, 291),36	3097,(321, 292),36	3133,(321, 293),36	3169,(321, 294),36	3493,(321, 36),36	3925,(321, 313),36	
1585,(321, 132),36	1981,(321, 112),36	2017,(321, 110),36	2305,(321, 96),36	2413,(321, 90),36	2737,(321, 283),36	2773,(321, 284),36	3853,(321, 25),36	3889,(321, 28),36	
721,(321, 232),36	757,(321, 233),36	1045,(321, 160),36	1081,(321, 158),36	1117,(321, 156),36	1513,(321, 135),36	2341,(321, 94),36	2377,(321, 92),36	2701,(321, 93),36	3313,(321, 84),36	3349,(321, 298),36	3385,(321, 82),36	3421,(321, 40),36	3817,(321, 21),36	
1,(321, 214),36	289,(321, 213),36	325,(321, 222),36	361,(321, 223),36	397,(321, 224),36	685,(321, 212),36	1153,(321, 154),36	1441,(321, 139),36	1477,(321, 137),36	1837,(321, 119),36	1873,(321, 117),36	2989,(321, 289),36	3025,(321, 290),36	4069,(321, 20),36	4141,(321, 318),36	
937,(321, 165),36	1801,(321, 121),36	1909,(321, 115),36	2233,(321, 99),36	2269,(321, 97),36	2629,(321, 85),36	2953,(321, 282),36	3745,(321, 23),36	
# Outgoing
1,(321, 214),36	37,(321, 215),36	73,(321, 216),36	109,(321, 217),36	145,(321, 218),36	181,(321, 219),36	217,(321, 220),36	253,(321, 221),36	289,(321, 213),36	325,(321, 222),36	361,(321, 223),36	397,(321, 224),36	433,(321, 225),36	469,(321, 226),36	505,(321, 227),36	541,(321, 228),36	577,(321, 229),36	613,(321, 230),36	649,(321, 231),36	685,(321, 212),36	721,(321, 232),36	757,(321, 233),36	793,(321, 234),36	829,(321, 204),36	865,(321, 171),36	901,(321, 167),36	937,(321, 165),36	973,(321, 164),36	1009,(321, 162),36	1045,(321, 160),36	1081,(321, 158),36	1117,(321, 156),36	1153,(321, 154),36	1189,(321, 153),36	1225,(321, 150),36	1261,(321, 148),36	1297,(321, 147),36	1333,(321, 145),36	1369,(321, 143),36	1405,(321, 141),36	1441,(321, 139),36	1477,(321, 137),36	1513,(321, 135),36	1549,(321, 134),36	1585,(321, 132),36	1621,(321, 130),36	1657,(321, 128),36	1693,(321, 127),36	1729,(321, 125),36	1765,(321, 123),36	1801,(321, 121),36	1837,(321, 119),36	1873,(321, 117),36	1909,(321, 115),36	1945,(321, 114),36	1981,(321, 112),36	2017,(321, 110),36	2053,(321, 109),36	2089,(321, 107),36	2125,(321, 105),36	2161,(321, 103),36	2197,(321, 102),36	2233,(321, 99),36	2269,(321, 97),36	2305,(321, 96),36	2341,(321, 94),36	2377,(321, 92),36	2413,(321, 90),36	2449,(321, 89),36	2485,(321, 87),36	2521,(321, 86),36	2557,(321, 88),36	2593,(321, 91),36	2629,(321, 85),36	2665,(321, 281),36	2701,(321, 93),36	2737,(321, 283),36	2773,(321, 284),36	2809,(321, 285),36	2845,(321, 286),36	2881,(321, 287),36	2917,(321, 288),36	2953,(321, 282),36	2989,(321, 289),36	3025,(321, 290),36	3061,(321, 291),36	3097,(321, 292),36	3133,(321, 293),36	3169,(321, 294),36	3205,(321, 295),36	3241,(321, 296),36	3277,(321, 297),36	3313,(321, 84),36	3349,(321, 298),36	3385,(321, 82),36	3421,(321, 40),36	3457,(321, 39),36	3493,(321, 36),36	3529,(321, 34),36	3565,(321, 33),36	3601,(321, 31),36	3637,(321, 29),36	3673,(321, 27),36	3709,(321, 26),36	3745,(321, 23),36	3781,(321, 22),36	3817,(321, 21),36	3853,(321, 25),36	3889,(321, 28),36	3925,(321, 313),36	3961,(321, 314),36	3997,(321, 315),36	4033,(321, 24),36	4069,(321, 20),36	4105,(321, 317),36	4141,(321, 318),36	4177,(321, 319),36	
238,(219, 0),9	598,(228, 0),9	634,(229, 0),9	670,(230, 0),9	706,(231, 0),9	1030,(164, 0),9	1066,(162, 0),9	1354,(147, 0),9	1390,(145, 0),9	1462,(141, 0),9	2254,(102, 0),9	2614,(88, 0),9	2650,(91, 0),9	2722,(281, 0),9	3262,(295, 0),9	3766,(26, 0),9	3838,(22, 0),9	4018,(314, 0),9	4054,(315, 0),9	4162,(317, 0),9	4234,(319, 0),9	
274,(220, 0),9	310,(221, 0),9	1426,(143, 0),9	1750,(127, 0),9	1786,(125, 0),9	2110,(109, 0),9	2974,(288, 0),9	3298,(296, 0),9	3334,(297, 0),9	3622,(33, 0),9	3694,(29, 0),9	4090,(24, 0),9	
1822,(123, 0),9	2146,(107, 0),9	2182,(105, 0),9	2218,(103, 0),9	2506,(89, 0),9	2866,(285, 0),9	2902,(286, 0),9	2938,(287, 0),9	3658,(31, 0),9	3730,(27, 0),9	
526,(226, 0),9	562,(227, 0),9	886,(204, 0),9	922,(171, 0),9	958,(167, 0),9	1246,(153, 0),9	1282,(150, 0),9	2542,(87, 0),9	2578,(86, 0),9	3514,(39, 0),9	3586,(34, 0),9	
94,(215, 0),9	130,(216, 0),9	166,(217, 0),9	202,(218, 0),9	490,(225, 0),9	850,(234, 0),9	1318,(148, 0),9	1606,(134, 0),9	1678,(130, 0),9	1714,(128, 0),9	2002,(114, 0),9	3118,(291, 0),9	3154,(292, 0),9	3190,(293, 0),9	3226,(294, 0),9	3550,(36, 0),9	3982,(313, 0),9	
1642,(132, 0),9	2038,(112, 0),9	2074,(110, 0),9	2362,(96, 0),9	2470,(90, 0),9	2794,(283, 0),9	2830,(284, 0),9	3910,(25, 0),9	3946,(28, 0),9	
778,(232, 0),9	814,(233, 0),9	1102,(160, 0),9	1138,(158, 0),9	1174,(156, 0),9	1570,(135, 0),9	2398,(94, 0),9	2434,(92, 0),9	2758,(93, 0),9	3370,(84, 0),9	3406,(298, 0),9	3442,(82, 0),9	3478,(40, 0),9	3874,(21, 0),9	
58,(214, 0),9	346,(213, 0),9	382,(222, 0),9	418,(223, 0),9	454,(224, 0),9	742,(212, 0),9	1210,(154, 0),9	1498,(139, 0),9	1534,(137, 0),9	1894,(119, 0),9	1930,(117, 0),9	3046,(289, 0),9	3082,(290, 0),9	4126,(20, 0),9	4198,(318, 0),9	
994,(165, 0),9	1858,(121, 0),9	1966,(115, 0),9	2290,(99, 0),9	2326,(97, 0),9	2686,(85, 0),9	3010,(282, 0),9	3802,(23, 0),9	
