1941
# CPU
0,321,1	1,320,7	8,210,7	15,211,7	22,209,7	29,208,7	36,207,7	43,212,7	50,206,7	57,213,7	64,205,7	71,204,7	78,203,7	85,202,7	92,214,7	99,201,7	106,199,7	113,200,7	120,198,7	127,197,7	134,196,7	141,215,7	148,195,7	155,194,7	162,217,7	169,193,7	176,192,7	183,191,7	190,190,7	197,218,7	204,189,7	211,220,7	218,188,7	225,187,7	232,186,7	239,185,7	246,222,7	253,184,7	260,224,7	267,183,7	274,182,7	281,181,7	288,180,7	295,179,7	302,178,7	309,225,7	316,177,7	323,175,7	330,176,7	337,174,7	344,227,7	351,173,7	358,229,7	365,172,7	372,170,7	379,171,7	386,169,7	393,240,7	400,239,7	407,241,7	414,238,7	421,237,7	428,242,7	435,236,7	442,243,7	449,235,7	456,244,7	463,234,7	470,230,7	477,245,7	484,168,7	491,167,7	498,246,7	505,166,7	512,164,7	519,163,7	526,247,7	533,162,7	540,248,7	547,249,7	554,161,7	561,159,7	568,158,7	575,250,7	582,157,7	589,156,7	596,251,7	603,154,7	610,153,7	617,152,7	624,252,7	631,253,7	638,151,7	645,254,7	652,150,7	659,148,7	666,147,7	673,255,7	680,146,7	687,144,7	694,256,7	701,143,7	708,142,7	715,141,7	722,257,7	729,258,7	736,140,7	743,259,7	750,138,7	757,137,7	764,260,7	771,136,7	778,134,7	785,133,7	792,261,7	799,132,7	806,131,7	813,262,7	820,129,7	827,263,7	834,128,7	841,264,7	848,127,7	855,126,7	862,265,7	869,124,7	876,123,7	883,122,7	890,266,7	897,121,7	904,119,7	911,267,7	918,118,7	925,268,7	932,117,7	939,269,7	946,116,7	953,114,7	960,270,7	967,113,7	974,112,7	981,110,7	988,271,7	995,109,7	1002,108,7	1009,272,7	1016,107,7	1023,273,7	1030,274,7	1037,106,7	1044,104,7	1051,103,7	1058,275,7	1065,102,7	1072,100,7	1079,276,7	1086,99,7	1093,98,7	1100,97,7	1107,277,7	1114,278,7	1121,95,7	1128,279,7	1135,94,7	1142,93,7	1149,91,7	1156,280,7	1163,81,7	1170,80,7	1177,82,7	1184,79,7	1191,78,7	1198,77,7	1205,76,7	1212,83,7	1219,75,7	1226,84,7	1233,74,7	1240,73,7	1247,72,7	1254,71,7	1261,85,7	1268,70,7	1275,87,7	1282,69,7	1289,68,7	1296,67,7	1303,66,7	1310,88,7	1317,65,7	1324,90,7	1331,64,7	1338,62,7	1345,63,7	1352,61,7	1359,282,7	1366,60,7	1373,283,7	1380,58,7	1387,57,7	1394,59,7	1401,56,7	1408,285,7	1415,55,7	1422,54,7	1429,53,7	1436,52,7	1443,286,7	1450,51,7	1457,288,7	1464,50,7	1471,49,7	1478,48,7	1485,47,7	1492,290,7	1499,46,7	1506,292,7	1513,45,7	1520,44,7	1527,43,7	1534,42,7	1541,293,7	1548,41,7	1555,304,7	1562,305,7	1569,303,7	1576,302,7	1583,301,7	1590,306,7	1597,300,7	1604,298,7	1611,307,7	1618,297,7	1625,295,7	1632,40,7	1639,308,7	1646,39,7	1653,38,7	1660,309,7	1667,36,7	1674,35,7	1681,34,7	1688,310,7	1695,32,7	1702,31,7	1709,311,7	1716,30,7	1723,29,7	1730,312,7	1737,27,7	1744,17,7	1751,16,7	1758,18,7	1765,15,7	1772,19,7	1779,14,7	1786,13,7	1793,20,7	1800,12,7	1807,21,7	1814,11,7	1821,10,7	1828,22,7	1835,9,7	1842,1,7	1849,2,7	1856,3,7	1863,4,7	1870,5,7	1877,6,7	1884,7,7	1891,8,7	1898,24,7	1905,26,7	1912,314,7	1919,316,7	1926,317,7	1933,319,7	1940,0,1	
89,219,7	309,231,7	397,232,7	617,145,7	1101,92,7	1189,89,7	1541,299,7	
705,135,7	1629,33,7	1849,315,7	
1013,101,7	1233,281,7	1321,287,7	
221,226,7	441,165,7	529,155,7	925,111,7	
133,221,7	749,130,7	1453,294,7	
265,228,7	837,120,7	1057,96,7	1145,86,7	1365,289,7	1673,28,7	1761,25,7	
45,216,7	353,233,7	485,160,7	1497,296,7	
177,223,7	573,149,7	661,139,7	793,125,7	1585,37,7	1805,313,7	1893,318,7	
881,115,7	969,105,7	1277,284,7	1409,291,7	1717,23,7	
# Incoming
52,(216, 0),12	96,(219, 0),12	140,(221, 0),12	184,(223, 0),12	228,(226, 0),12	272,(228, 0),12	316,(231, 0),12	360,(233, 0),12	404,(232, 0),12	448,(165, 0),12	492,(160, 0),12	536,(155, 0),12	580,(149, 0),12	624,(145, 0),12	668,(139, 0),12	712,(135, 0),12	756,(130, 0),12	800,(125, 0),12	844,(120, 0),12	888,(115, 0),12	932,(111, 0),12	976,(105, 0),12	1020,(101, 0),12	1064,(96, 0),12	1108,(92, 0),12	1152,(86, 0),12	1196,(89, 0),12	1240,(281, 0),12	1284,(284, 0),12	1328,(287, 0),12	1372,(289, 0),12	1416,(291, 0),12	1460,(294, 0),12	1504,(296, 0),12	1548,(299, 0),12	1592,(37, 0),12	1636,(33, 0),12	1680,(28, 0),12	1724,(23, 0),12	1768,(25, 0),12	1812,(313, 0),12	1856,(315, 0),12	1900,(318, 0),12	
45,(321, 219),44	265,(321, 231),44	353,(321, 232),44	573,(321, 145),44	1057,(321, 92),44	1145,(321, 89),44	1497,(321, 299),44	
661,(321, 135),44	1585,(321, 33),44	1805,(321, 315),44	
969,(321, 101),44	1189,(321, 281),44	1277,(321, 287),44	
177,(321, 226),44	397,(321, 165),44	485,(321, 155),44	881,(321, 111),44	
89,(321, 221),44	705,(321, 130),44	1409,(321, 294),44	
221,(321, 228),44	793,(321, 120),44	1013,(321, 96),44	1101,(321, 86),44	1321,(321, 289),44	1629,(321, 28),44	1717,(321, 25),44	
1,(321, 216),44	309,(321, 233),44	441,(321, 160),44	1453,(321, 296),44	
133,(321, 223),44	529,(321, 149),44	617,(321, 139),44	749,(321, 125),44	1541,(321, 37),44	1761,(321, 313),44	1849,(321, 318),44	
837,(321, 115),44	925,(321, 105),44	1233,(321, 284),44	1365,(321, 291),44	1673,(321, 23),44	
# Outgoing
1,(321, 216),44	45,(321, 219),44	89,(321, 221),44	133,(321, 223),44	177,(321, 226),44	221,(321, 228),44	265,(321, 231),44	309,(321, 233),44	353,(321, 232),44	397,(321, 165),44	441,(321, 160),44	485,(321, 155),44	529,(321, 149),44	573,(321, 145),44	617,(321, 139),44	661,(321, 135),44	705,(321, 130),44	749,(321, 125),44	793,(321, 120),44	837,(321, 115),44	881,(321, 111),44	925,(321, 105),44	969,(321, 101),44	1013,(321, 96),44	1057,(321, 92),44	1101,(321, 86),44	1145,(321, 89),44	1189,(321, 281),44	1233,(321, 284),44	1277,(321, 287),44	1321,(321, 289),44	1365,(321, 291),44	1409,(321, 294),44	1453,(321, 296),44	1497,(321, 299),44	1541,(321, 37),44	1585,(321, 33),44	1629,(321, 28),44	1673,(321, 23),44	1717,(321, 25),44	1761,(321, 313),44	1805,(321, 315),44	1849,(321, 318),44	
96,(219, 0),12	316,(231, 0),12	404,(232, 0),12	624,(145, 0),12	1108,(92, 0),12	1196,(89, 0),12	1548,(299, 0),12	
712,(135, 0),12	1636,(33, 0),12	1856,(315, 0),12	
1020,(101, 0),12	1240,(281, 0),12	1328,(287, 0),12	
228,(226, 0),12	448,(165, 0),12	536,(155, 0),12	932,(111, 0),12	
140,(221, 0),12	756,(130, 0),12	1460,(294, 0),12	
272,(228, 0),12	844,(120, 0),12	1064,(96, 0),12	1152,(86, 0),12	1372,(289, 0),12	1680,(28, 0),12	1768,(25, 0),12	
52,(216, 0),12	360,(233, 0),12	492,(160, 0),12	1504,(296, 0),12	
184,(223, 0),12	580,(149, 0),12	668,(139, 0),12	800,(125, 0),12	1592,(37, 0),12	1812,(313, 0),12	1900,(318, 0),12	
888,(115, 0),12	976,(105, 0),12	1284,(284, 0),12	1416,(291, 0),12	1724,(23, 0),12	
