117
# CPU
0,41,1	1,40,24	25,17,24	49,23,24	73,7,24	116,0,1	
6,29,24	30,13,24	54,2,24	78,35,24	
4,27,24	28,14,24	52,9,24	76,33,24	
9,32,24	33,22,24	57,5,24	81,38,24	
8,21,24	32,12,24	56,4,24	80,37,24	
7,24,24	31,20,24	55,3,24	79,36,24	
2,26,24	26,15,24	50,10,24	74,8,24	
10,16,24	34,11,24	58,6,24	82,39,24	
5,28,24	29,19,24	53,1,24	77,34,24	
3,25,24	27,18,24	51,30,24	75,31,24	
# Incoming
26,(26, 0),2	28,(25, 0),2	30,(27, 0),2	32,(28, 0),2	34,(29, 0),2	36,(24, 0),2	38,(21, 0),2	40,(32, 0),2	42,(16, 0),2	50,(15, 0),2	52,(18, 0),2	54,(14, 0),2	56,(19, 0),2	58,(13, 0),2	60,(20, 0),2	62,(12, 0),2	64,(22, 0),2	66,(11, 0),2	74,(10, 0),2	76,(30, 0),2	78,(9, 0),2	80,(1, 0),2	82,(2, 0),2	84,(3, 0),2	86,(4, 0),2	88,(5, 0),2	90,(6, 0),2	98,(8, 0),2	100,(31, 0),2	102,(33, 0),2	104,(34, 0),2	106,(35, 0),2	108,(36, 0),2	110,(37, 0),2	112,(38, 0),2	114,(39, 0),2	
5,(41, 29),1	14,(41, 13),1	23,(41, 2),1	32,(41, 35),1	
3,(41, 27),1	12,(41, 14),1	21,(41, 9),1	30,(41, 33),1	
8,(41, 32),1	17,(41, 22),1	26,(41, 5),1	35,(41, 38),1	
7,(41, 21),1	16,(41, 12),1	25,(41, 4),1	34,(41, 37),1	
6,(41, 24),1	15,(41, 20),1	24,(41, 3),1	33,(41, 36),1	
1,(41, 26),1	10,(41, 15),1	19,(41, 10),1	28,(41, 8),1	
9,(41, 16),1	18,(41, 11),1	27,(41, 6),1	36,(41, 39),1	
4,(41, 28),1	13,(41, 19),1	22,(41, 1),1	31,(41, 34),1	
2,(41, 25),1	11,(41, 18),1	20,(41, 30),1	29,(41, 31),1	
# Outgoing
1,(41, 26),1	2,(41, 25),1	3,(41, 27),1	4,(41, 28),1	5,(41, 29),1	6,(41, 24),1	7,(41, 21),1	8,(41, 32),1	9,(41, 16),1	10,(41, 15),1	11,(41, 18),1	12,(41, 14),1	13,(41, 19),1	14,(41, 13),1	15,(41, 20),1	16,(41, 12),1	17,(41, 22),1	18,(41, 11),1	19,(41, 10),1	20,(41, 30),1	21,(41, 9),1	22,(41, 1),1	23,(41, 2),1	24,(41, 3),1	25,(41, 4),1	26,(41, 5),1	27,(41, 6),1	28,(41, 8),1	29,(41, 31),1	30,(41, 33),1	31,(41, 34),1	32,(41, 35),1	33,(41, 36),1	34,(41, 37),1	35,(41, 38),1	36,(41, 39),1	
34,(29, 0),2	58,(13, 0),2	82,(2, 0),2	106,(35, 0),2	
30,(27, 0),2	54,(14, 0),2	78,(9, 0),2	102,(33, 0),2	
40,(32, 0),2	64,(22, 0),2	88,(5, 0),2	112,(38, 0),2	
38,(21, 0),2	62,(12, 0),2	86,(4, 0),2	110,(37, 0),2	
36,(24, 0),2	60,(20, 0),2	84,(3, 0),2	108,(36, 0),2	
26,(26, 0),2	50,(15, 0),2	74,(10, 0),2	98,(8, 0),2	
42,(16, 0),2	66,(11, 0),2	90,(6, 0),2	114,(39, 0),2	
32,(28, 0),2	56,(19, 0),2	80,(1, 0),2	104,(34, 0),2	
28,(25, 0),2	52,(18, 0),2	76,(30, 0),2	100,(31, 0),2	
