2562
# CPU
128,2,19	255,4,19	382,6,19	509,8,19	636,10,19	763,12,19	890,14,19	1017,16,19	1144,18,19	1271,20,19	1398,22,19	1525,24,19	1652,26,19	1779,28,19	1906,30,19	2033,32,19	2160,34,19	2287,36,19	2414,38,19	2541,40,19	
0,0,1	1,1,19	20,5,19	39,13,19	58,29,19	77,39,19	96,37,19	115,35,19	134,33,19	153,27,19	172,31,19	191,25,19	210,23,19	229,21,19	248,19,19	267,17,19	286,11,19	305,15,19	324,9,19	343,3,19	362,7,19	2561,41,1	
# Incoming
1,(0, 2),127	128,(0, 4),127	255,(0, 6),127	382,(0, 8),127	509,(0, 10),127	636,(0, 12),127	763,(0, 14),127	890,(0, 16),127	1017,(0, 18),127	1144,(0, 20),127	1271,(0, 22),127	1398,(0, 24),127	1525,(0, 26),127	1652,(0, 28),127	1779,(0, 30),127	1906,(0, 32),127	2033,(0, 34),127	2160,(0, 36),127	2287,(0, 38),127	2414,(0, 40),127	
147,(2, 41),1	274,(4, 41),1	401,(6, 41),1	528,(8, 41),1	655,(10, 41),1	782,(12, 41),1	909,(14, 41),1	1036,(16, 41),1	1163,(18, 41),1	1290,(20, 41),1	1417,(22, 41),1	1544,(24, 41),1	1671,(26, 41),1	1798,(28, 41),1	1925,(30, 41),1	2052,(32, 41),1	2179,(34, 41),1	2306,(36, 41),1	2433,(38, 41),1	2560,(40, 41),1	
# Outgoing
147,(2, 41),1	274,(4, 41),1	401,(6, 41),1	528,(8, 41),1	655,(10, 41),1	782,(12, 41),1	909,(14, 41),1	1036,(16, 41),1	1163,(18, 41),1	1290,(20, 41),1	1417,(22, 41),1	1544,(24, 41),1	1671,(26, 41),1	1798,(28, 41),1	1925,(30, 41),1	2052,(32, 41),1	2179,(34, 41),1	2306,(36, 41),1	2433,(38, 41),1	2560,(40, 41),1	
1,(0, 2),127	128,(0, 4),127	255,(0, 6),127	382,(0, 8),127	509,(0, 10),127	636,(0, 12),127	763,(0, 14),127	890,(0, 16),127	1017,(0, 18),127	1144,(0, 20),127	1271,(0, 22),127	1398,(0, 24),127	1525,(0, 26),127	1652,(0, 28),127	1779,(0, 30),127	1906,(0, 32),127	2033,(0, 34),127	2160,(0, 36),127	2287,(0, 38),127	2414,(0, 40),127	
