292
# CPU
0,41,1	1,31,10	11,30,10	21,19,10	31,29,10	41,1,10	51,2,10	61,28,10	71,20,10	81,3,10	91,13,10	101,4,10	111,14,10	121,37,10	131,12,10	141,5,10	151,15,10	161,38,10	171,16,10	181,7,10	191,9,10	201,11,10	211,25,10	221,17,10	231,27,10	241,34,10	251,36,10	261,39,10	291,0,1	
21,32,10	41,33,10	61,18,10	81,21,10	101,22,10	121,23,10	141,24,10	161,6,10	181,8,10	201,10,10	221,26,10	241,35,10	261,40,10	
# Incoming
31,(32, 0),20	51,(33, 0),20	71,(18, 0),20	91,(21, 0),20	111,(22, 0),20	131,(23, 0),20	151,(24, 0),20	171,(6, 0),20	191,(8, 0),20	211,(10, 0),20	231,(26, 0),20	251,(35, 0),20	271,(40, 0),20	
1,(41, 32),20	21,(41, 33),20	41,(41, 18),20	61,(41, 21),20	81,(41, 22),20	101,(41, 23),20	121,(41, 24),20	141,(41, 6),20	161,(41, 8),20	181,(41, 10),20	201,(41, 26),20	221,(41, 35),20	241,(41, 40),20	
# Outgoing
1,(41, 32),20	21,(41, 33),20	41,(41, 18),20	61,(41, 21),20	81,(41, 22),20	101,(41, 23),20	121,(41, 24),20	141,(41, 6),20	161,(41, 8),20	181,(41, 10),20	201,(41, 26),20	221,(41, 35),20	241,(41, 40),20	
31,(32, 0),20	51,(33, 0),20	71,(18, 0),20	91,(21, 0),20	111,(22, 0),20	131,(23, 0),20	151,(24, 0),20	171,(6, 0),20	191,(8, 0),20	211,(10, 0),20	231,(26, 0),20	251,(35, 0),20	271,(40, 0),20	
