1799
# CPU
17,5,1	33,10,1	49,15,1	65,20,1	81,25,1	97,30,1	113,35,1	129,40,1	
13,4,1	29,9,1	45,14,1	61,19,1	77,24,1	93,29,1	109,34,1	125,39,1	
9,3,1	25,8,1	41,13,1	57,18,1	73,23,1	89,28,1	105,33,1	121,38,1	
5,2,1	21,7,1	37,12,1	53,17,1	69,22,1	85,27,1	101,32,1	117,37,1	
0,0,1	1,1,1	2,11,1	3,31,1	4,26,1	5,36,1	6,21,1	7,6,1	8,16,1	1798,41,1	
# Incoming
13,(0, 5),4	29,(0, 10),4	45,(0, 15),4	61,(0, 20),4	77,(0, 25),4	93,(0, 30),4	109,(0, 35),4	125,(0, 40),4	
9,(0, 4),4	25,(0, 9),4	41,(0, 14),4	57,(0, 19),4	73,(0, 24),4	89,(0, 29),4	105,(0, 34),4	121,(0, 39),4	
5,(0, 3),4	21,(0, 8),4	37,(0, 13),4	53,(0, 18),4	69,(0, 23),4	85,(0, 28),4	101,(0, 33),4	117,(0, 38),4	
1,(0, 2),4	17,(0, 7),4	33,(0, 12),4	49,(0, 17),4	65,(0, 22),4	81,(0, 27),4	97,(0, 32),4	113,(0, 37),4	
6,(2, 41),56	62,(3, 41),56	118,(4, 41),56	174,(5, 41),56	230,(7, 41),56	286,(8, 41),56	342,(9, 41),56	398,(10, 41),56	454,(12, 41),56	510,(13, 41),56	566,(14, 41),56	622,(15, 41),56	678,(17, 41),56	734,(18, 41),56	790,(19, 41),56	846,(20, 41),56	902,(22, 41),56	958,(23, 41),56	1014,(24, 41),56	1070,(25, 41),56	1126,(27, 41),56	1182,(28, 41),56	1238,(29, 41),56	1294,(30, 41),56	1350,(32, 41),56	1406,(33, 41),56	1462,(34, 41),56	1518,(35, 41),56	1574,(37, 41),56	1630,(38, 41),56	1686,(39, 41),56	1742,(40, 41),56	
# Outgoing
174,(5, 41),56	398,(10, 41),56	622,(15, 41),56	846,(20, 41),56	1070,(25, 41),56	1294,(30, 41),56	1518,(35, 41),56	1742,(40, 41),56	
118,(4, 41),56	342,(9, 41),56	566,(14, 41),56	790,(19, 41),56	1014,(24, 41),56	1238,(29, 41),56	1462,(34, 41),56	1686,(39, 41),56	
62,(3, 41),56	286,(8, 41),56	510,(13, 41),56	734,(18, 41),56	958,(23, 41),56	1182,(28, 41),56	1406,(33, 41),56	1630,(38, 41),56	
6,(2, 41),56	230,(7, 41),56	454,(12, 41),56	678,(17, 41),56	902,(22, 41),56	1126,(27, 41),56	1350,(32, 41),56	1574,(37, 41),56	
1,(0, 2),4	5,(0, 3),4	9,(0, 4),4	13,(0, 5),4	17,(0, 7),4	21,(0, 8),4	25,(0, 9),4	29,(0, 10),4	33,(0, 12),4	37,(0, 13),4	41,(0, 14),4	45,(0, 15),4	49,(0, 17),4	53,(0, 18),4	57,(0, 19),4	61,(0, 20),4	65,(0, 22),4	69,(0, 23),4	73,(0, 24),4	77,(0, 25),4	81,(0, 27),4	85,(0, 28),4	89,(0, 29),4	93,(0, 30),4	97,(0, 32),4	101,(0, 33),4	105,(0, 34),4	109,(0, 35),4	113,(0, 37),4	117,(0, 38),4	121,(0, 39),4	125,(0, 40),4	
