212
# CPU
0,41,1	1,31,15	16,30,15	31,33,15	46,16,15	61,19,15	76,13,15	91,22,15	106,10,15	121,1,15	136,4,15	151,7,15	166,34,15	181,37,15	196,40,15	211,0,1	
5,32,15	20,28,15	35,17,15	50,15,15	65,20,15	80,12,15	95,23,15	110,9,15	125,3,15	140,6,15	155,26,15	170,36,15	185,39,15	
3,25,15	18,29,15	33,27,15	48,18,15	63,14,15	78,21,15	93,11,15	108,24,15	123,2,15	138,5,15	153,8,15	168,35,15	183,38,15	
# Incoming
18,(25, 0),6	24,(32, 0),6	33,(29, 0),6	39,(28, 0),6	48,(27, 0),6	54,(17, 0),6	63,(18, 0),6	69,(15, 0),6	78,(14, 0),6	84,(20, 0),6	93,(21, 0),6	99,(12, 0),6	108,(11, 0),6	114,(23, 0),6	123,(24, 0),6	129,(9, 0),6	138,(2, 0),6	144,(3, 0),6	153,(5, 0),6	159,(6, 0),6	168,(8, 0),6	174,(26, 0),6	183,(35, 0),6	189,(36, 0),6	198,(38, 0),6	204,(39, 0),6	
3,(41, 32),2	7,(41, 28),2	11,(41, 17),2	15,(41, 15),2	19,(41, 20),2	23,(41, 12),2	27,(41, 23),2	31,(41, 9),2	35,(41, 3),2	39,(41, 6),2	43,(41, 26),2	47,(41, 36),2	51,(41, 39),2	
1,(41, 25),2	5,(41, 29),2	9,(41, 27),2	13,(41, 18),2	17,(41, 14),2	21,(41, 21),2	25,(41, 11),2	29,(41, 24),2	33,(41, 2),2	37,(41, 5),2	41,(41, 8),2	45,(41, 35),2	49,(41, 38),2	
# Outgoing
1,(41, 25),2	3,(41, 32),2	5,(41, 29),2	7,(41, 28),2	9,(41, 27),2	11,(41, 17),2	13,(41, 18),2	15,(41, 15),2	17,(41, 14),2	19,(41, 20),2	21,(41, 21),2	23,(41, 12),2	25,(41, 11),2	27,(41, 23),2	29,(41, 24),2	31,(41, 9),2	33,(41, 2),2	35,(41, 3),2	37,(41, 5),2	39,(41, 6),2	41,(41, 8),2	43,(41, 26),2	45,(41, 35),2	47,(41, 36),2	49,(41, 38),2	51,(41, 39),2	
24,(32, 0),6	39,(28, 0),6	54,(17, 0),6	69,(15, 0),6	84,(20, 0),6	99,(12, 0),6	114,(23, 0),6	129,(9, 0),6	144,(3, 0),6	159,(6, 0),6	174,(26, 0),6	189,(36, 0),6	204,(39, 0),6	
18,(25, 0),6	33,(29, 0),6	48,(27, 0),6	63,(18, 0),6	78,(14, 0),6	93,(21, 0),6	108,(11, 0),6	123,(24, 0),6	138,(2, 0),6	153,(5, 0),6	168,(8, 0),6	183,(35, 0),6	198,(38, 0),6	
