282
# CPU
0,41,1	1,40,10	11,30,10	21,31,10	31,29,10	41,28,10	51,32,10	61,27,10	71,16,10	81,17,10	91,15,10	101,14,10	111,13,10	121,18,10	131,12,10	141,11,10	151,10,10	161,19,10	171,1,10	181,2,10	191,3,10	201,4,10	211,5,10	221,6,10	231,7,10	241,8,10	251,9,10	261,20,10	271,36,10	281,0,1	
41,22,10	61,24,10	201,37,10	241,39,10	





141,34,10	
101,26,10	121,33,10	161,21,10	181,35,10	221,38,10	
21,23,10	81,25,10	
# Incoming
31,(23, 0),20	51,(22, 0),20	71,(24, 0),20	91,(25, 0),20	111,(26, 0),20	131,(33, 0),20	151,(34, 0),20	171,(21, 0),20	191,(35, 0),20	211,(37, 0),20	231,(38, 0),20	251,(39, 0),20	
21,(41, 22),20	41,(41, 24),20	181,(41, 37),20	221,(41, 39),20	





121,(41, 34),20	
81,(41, 26),20	101,(41, 33),20	141,(41, 21),20	161,(41, 35),20	201,(41, 38),20	
1,(41, 23),20	61,(41, 25),20	
# Outgoing
1,(41, 23),20	21,(41, 22),20	41,(41, 24),20	61,(41, 25),20	81,(41, 26),20	101,(41, 33),20	121,(41, 34),20	141,(41, 21),20	161,(41, 35),20	181,(41, 37),20	201,(41, 38),20	221,(41, 39),20	
51,(22, 0),20	71,(24, 0),20	211,(37, 0),20	251,(39, 0),20	





151,(34, 0),20	
111,(26, 0),20	131,(33, 0),20	171,(21, 0),20	191,(35, 0),20	231,(38, 0),20	
31,(23, 0),20	91,(25, 0),20	
