39
# CPU
0,0,1	1,31,1	2,30,1	3,32,1	4,29,1	5,28,1	6,27,1	7,33,1	8,26,1	9,17,1	10,16,1	11,18,1	12,10,1	13,19,1	14,20,1	15,14,1	16,21,1	17,13,1	18,22,1	19,12,1	20,23,1	21,6,1	22,38,1	23,1,1	24,2,1	25,3,1	26,4,1	27,5,1	28,7,1	29,8,1	30,9,1	31,11,1	32,34,1	33,35,1	34,36,1	35,37,1	36,39,1	37,40,1	38,41,1	
11,15,1	21,24,1	31,25,1	
# Incoming
12,(15, 41),2	22,(24, 41),2	32,(25, 41),2	
1,(0, 15),10	11,(0, 24),10	21,(0, 25),10	
# Outgoing
1,(0, 15),10	11,(0, 24),10	21,(0, 25),10	
12,(15, 41),2	22,(24, 41),2	32,(25, 41),2	
