306
# CPU
4,2,15	19,4,15	34,6,15	49,8,15	64,10,15	79,12,15	94,14,15	109,16,15	124,18,15	139,20,15	154,22,15	169,24,15	184,26,15	199,28,15	214,30,15	229,32,15	244,34,15	259,36,15	274,38,15	289,40,15	
0,0,1	1,1,15	16,5,15	31,13,15	46,29,15	61,39,15	76,37,15	91,35,15	106,33,15	121,27,15	136,31,15	151,25,15	166,23,15	181,21,15	196,19,15	211,17,15	226,11,15	241,15,15	256,9,15	271,3,15	286,7,15	305,41,1	
# Incoming
1,(0, 2),3	4,(0, 4),3	7,(0, 6),3	10,(0, 8),3	13,(0, 10),3	16,(0, 12),3	19,(0, 14),3	22,(0, 16),3	25,(0, 18),3	28,(0, 20),3	31,(0, 22),3	34,(0, 24),3	37,(0, 26),3	40,(0, 28),3	43,(0, 30),3	46,(0, 32),3	49,(0, 34),3	52,(0, 36),3	55,(0, 38),3	58,(0, 40),3	
19,(2, 41),1	34,(4, 41),1	49,(6, 41),1	64,(8, 41),1	79,(10, 41),1	94,(12, 41),1	109,(14, 41),1	124,(16, 41),1	139,(18, 41),1	154,(20, 41),1	169,(22, 41),1	184,(24, 41),1	199,(26, 41),1	214,(28, 41),1	229,(30, 41),1	244,(32, 41),1	259,(34, 41),1	274,(36, 41),1	289,(38, 41),1	304,(40, 41),1	
# Outgoing
19,(2, 41),1	34,(4, 41),1	49,(6, 41),1	64,(8, 41),1	79,(10, 41),1	94,(12, 41),1	109,(14, 41),1	124,(16, 41),1	139,(18, 41),1	154,(20, 41),1	169,(22, 41),1	184,(24, 41),1	199,(26, 41),1	214,(28, 41),1	229,(30, 41),1	244,(32, 41),1	259,(34, 41),1	274,(36, 41),1	289,(38, 41),1	304,(40, 41),1	
1,(0, 2),3	4,(0, 4),3	7,(0, 6),3	10,(0, 8),3	13,(0, 10),3	16,(0, 12),3	19,(0, 14),3	22,(0, 16),3	25,(0, 18),3	28,(0, 20),3	31,(0, 22),3	34,(0, 24),3	37,(0, 26),3	40,(0, 28),3	43,(0, 30),3	46,(0, 32),3	49,(0, 34),3	52,(0, 36),3	55,(0, 38),3	58,(0, 40),3	
