172
# CPU
0,41,1	1,40,5	6,30,5	11,31,5	16,29,5	21,28,5	26,27,5	31,26,5	36,17,5	41,16,5	46,18,5	51,15,5	56,14,5	61,20,5	66,13,5	71,21,5	76,12,5	81,11,5	86,23,5	91,10,5	96,24,5	101,9,5	106,2,5	111,3,5	116,4,5	121,5,5	126,7,5	131,8,5	136,25,5	141,33,5	146,34,5	151,36,5	156,37,5	161,38,5	166,39,5	171,0,1	
5,32,5	10,19,5	15,22,5	20,1,5	25,6,5	30,35,5	
# Incoming
10,(32, 0),24	34,(19, 0),24	58,(22, 0),24	82,(1, 0),24	106,(6, 0),24	130,(35, 0),24	
1,(41, 32),4	5,(41, 19),4	9,(41, 22),4	13,(41, 1),4	17,(41, 6),4	21,(41, 35),4	
# Outgoing
1,(41, 32),4	5,(41, 19),4	9,(41, 22),4	13,(41, 1),4	17,(41, 6),4	21,(41, 35),4	
10,(32, 0),24	34,(19, 0),24	58,(22, 0),24	82,(1, 0),24	106,(6, 0),24	130,(35, 0),24	
