186
# CPU
19,4,1	37,8,1	55,12,1	73,16,1	91,20,1	109,24,1	127,28,1	145,32,1	163,36,1	181,40,1	
13,3,1	31,7,1	49,11,1	67,15,1	85,19,1	103,23,1	121,27,1	139,31,1	157,35,1	175,39,1	
7,2,1	25,6,1	43,10,1	61,14,1	79,18,1	97,22,1	115,26,1	133,30,1	151,34,1	169,38,1	
0,0,1	1,1,1	2,9,1	3,25,1	4,37,1	5,33,1	6,21,1	7,29,1	8,17,1	9,5,1	10,13,1	185,41,1	
# Incoming
13,(0, 4),6	31,(0, 8),6	49,(0, 12),6	67,(0, 16),6	85,(0, 20),6	103,(0, 24),6	121,(0, 28),6	139,(0, 32),6	157,(0, 36),6	175,(0, 40),6	
7,(0, 3),6	25,(0, 7),6	43,(0, 11),6	61,(0, 15),6	79,(0, 19),6	97,(0, 23),6	115,(0, 27),6	133,(0, 31),6	151,(0, 35),6	169,(0, 39),6	
1,(0, 2),6	19,(0, 6),6	37,(0, 10),6	55,(0, 14),6	73,(0, 18),6	91,(0, 22),6	109,(0, 26),6	127,(0, 30),6	145,(0, 34),6	163,(0, 38),6	
8,(2, 41),3	14,(3, 41),3	20,(4, 41),3	26,(6, 41),3	32,(7, 41),3	38,(8, 41),3	44,(10, 41),3	50,(11, 41),3	56,(12, 41),3	62,(14, 41),3	68,(15, 41),3	74,(16, 41),3	80,(18, 41),3	86,(19, 41),3	92,(20, 41),3	98,(22, 41),3	104,(23, 41),3	110,(24, 41),3	116,(26, 41),3	122,(27, 41),3	128,(28, 41),3	134,(30, 41),3	140,(31, 41),3	146,(32, 41),3	152,(34, 41),3	158,(35, 41),3	164,(36, 41),3	170,(38, 41),3	176,(39, 41),3	182,(40, 41),3	
# Outgoing
20,(4, 41),3	38,(8, 41),3	56,(12, 41),3	74,(16, 41),3	92,(20, 41),3	110,(24, 41),3	128,(28, 41),3	146,(32, 41),3	164,(36, 41),3	182,(40, 41),3	
14,(3, 41),3	32,(7, 41),3	50,(11, 41),3	68,(15, 41),3	86,(19, 41),3	104,(23, 41),3	122,(27, 41),3	140,(31, 41),3	158,(35, 41),3	176,(39, 41),3	
8,(2, 41),3	26,(6, 41),3	44,(10, 41),3	62,(14, 41),3	80,(18, 41),3	98,(22, 41),3	116,(26, 41),3	134,(30, 41),3	152,(34, 41),3	170,(38, 41),3	
1,(0, 2),6	7,(0, 3),6	13,(0, 4),6	19,(0, 6),6	25,(0, 7),6	31,(0, 8),6	37,(0, 10),6	43,(0, 11),6	49,(0, 12),6	55,(0, 14),6	61,(0, 15),6	67,(0, 16),6	73,(0, 18),6	79,(0, 19),6	85,(0, 20),6	91,(0, 22),6	97,(0, 23),6	103,(0, 24),6	109,(0, 26),6	115,(0, 27),6	121,(0, 28),6	127,(0, 30),6	133,(0, 31),6	139,(0, 32),6	145,(0, 34),6	151,(0, 35),6	157,(0, 36),6	163,(0, 38),6	169,(0, 39),6	175,(0, 40),6	
