1562
# CPU
0,41,1	1,40,39	40,30,39	79,31,39	118,29,39	157,28,39	196,27,39	235,32,39	274,26,39	313,17,39	352,16,39	391,18,39	430,15,39	469,19,39	508,14,39	547,20,39	586,13,39	625,21,39	664,12,39	703,22,39	742,11,39	781,23,39	820,10,39	859,24,39	898,9,39	937,1,39	976,2,39	1015,3,39	1054,4,39	1093,5,39	1132,6,39	1171,7,39	1210,8,39	1249,25,39	1288,33,39	1327,34,39	1366,35,39	1405,36,39	1444,37,39	1483,38,39	1522,39,39	1561,0,1	
# Incoming

# Outgoing

