724
# CPU
0,41,1	1,40,19	20,30,19	39,31,19	58,29,19	77,28,19	96,27,19	115,32,19	134,26,19	153,17,19	172,16,19	191,18,19	210,15,19	229,19,19	248,14,19	267,13,19	286,21,19	305,12,19	324,22,19	343,11,19	362,23,19	381,10,19	400,24,19	419,9,19	438,1,19	457,2,19	476,3,19	495,4,19	514,6,19	533,7,19	552,8,19	571,25,19	590,33,19	609,34,19	628,35,19	647,36,19	666,37,19	685,38,19	704,39,19	723,0,1	
3,20,19	22,5,19	
# Incoming
22,(20, 0),254	276,(5, 0),254	
1,(41, 20),2	3,(41, 5),2	
# Outgoing
1,(41, 20),2	3,(41, 5),2	
22,(20, 0),254	276,(5, 0),254	
