809
# CPU
0,41,1	1,40,39	40,31,39	79,28,39	118,32,39	157,17,39	196,18,39	235,19,39	274,20,39	313,21,39	352,22,39	391,23,39	430,24,39	469,1,39	508,3,39	547,5,39	586,7,39	625,25,39	664,34,39	703,36,39	742,38,39	808,0,1	
22,30,39	61,29,39	100,27,39	139,26,39	178,16,39	217,15,39	256,14,39	295,13,39	334,12,39	373,11,39	412,10,39	451,9,39	490,2,39	529,4,39	568,6,39	607,8,39	646,33,39	685,35,39	724,37,39	763,39,39	
# Incoming
61,(30, 0),6	100,(29, 0),6	139,(27, 0),6	178,(26, 0),6	217,(16, 0),6	256,(15, 0),6	295,(14, 0),6	334,(13, 0),6	373,(12, 0),6	412,(11, 0),6	451,(10, 0),6	490,(9, 0),6	529,(2, 0),6	568,(4, 0),6	607,(6, 0),6	646,(8, 0),6	685,(33, 0),6	724,(35, 0),6	763,(37, 0),6	802,(39, 0),6	
1,(41, 30),21	22,(41, 29),21	43,(41, 27),21	64,(41, 26),21	85,(41, 16),21	106,(41, 15),21	127,(41, 14),21	148,(41, 13),21	169,(41, 12),21	190,(41, 11),21	211,(41, 10),21	232,(41, 9),21	253,(41, 2),21	274,(41, 4),21	295,(41, 6),21	316,(41, 8),21	337,(41, 33),21	358,(41, 35),21	379,(41, 37),21	400,(41, 39),21	
# Outgoing
1,(41, 30),21	22,(41, 29),21	43,(41, 27),21	64,(41, 26),21	85,(41, 16),21	106,(41, 15),21	127,(41, 14),21	148,(41, 13),21	169,(41, 12),21	190,(41, 11),21	211,(41, 10),21	232,(41, 9),21	253,(41, 2),21	274,(41, 4),21	295,(41, 6),21	316,(41, 8),21	337,(41, 33),21	358,(41, 35),21	379,(41, 37),21	400,(41, 39),21	
61,(30, 0),6	100,(29, 0),6	139,(27, 0),6	178,(26, 0),6	217,(16, 0),6	256,(15, 0),6	295,(14, 0),6	334,(13, 0),6	373,(12, 0),6	412,(11, 0),6	451,(10, 0),6	490,(9, 0),6	529,(2, 0),6	568,(4, 0),6	607,(6, 0),6	646,(8, 0),6	685,(33, 0),6	724,(35, 0),6	763,(37, 0),6	802,(39, 0),6	
