338
# CPU
0,41,1	1,40,24	25,30,24	49,32,24	73,16,24	97,19,24	121,13,24	145,22,24	169,10,24	193,1,24	217,4,24	241,7,24	265,33,24	289,36,24	313,39,24	337,0,1	
9,31,24	33,28,24	57,17,24	81,15,24	105,20,24	129,12,24	153,23,24	177,9,24	201,3,24	225,6,24	249,26,24	273,35,24	297,38,24	
5,25,24	29,29,24	53,27,24	77,18,24	101,14,24	125,21,24	149,11,24	173,24,24	197,2,24	221,5,24	245,8,24	269,34,24	293,37,24	
# Incoming
29,(25, 0),8	37,(31, 0),8	53,(29, 0),8	61,(28, 0),8	77,(27, 0),8	85,(17, 0),8	101,(18, 0),8	109,(15, 0),8	125,(14, 0),8	133,(20, 0),8	149,(21, 0),8	157,(12, 0),8	173,(11, 0),8	181,(23, 0),8	197,(24, 0),8	205,(9, 0),8	221,(2, 0),8	229,(3, 0),8	245,(5, 0),8	253,(6, 0),8	269,(8, 0),8	277,(26, 0),8	293,(34, 0),8	301,(35, 0),8	317,(37, 0),8	325,(38, 0),8	
5,(41, 31),4	13,(41, 28),4	21,(41, 17),4	29,(41, 15),4	37,(41, 20),4	45,(41, 12),4	53,(41, 23),4	61,(41, 9),4	69,(41, 3),4	77,(41, 6),4	85,(41, 26),4	93,(41, 35),4	101,(41, 38),4	
1,(41, 25),4	9,(41, 29),4	17,(41, 27),4	25,(41, 18),4	33,(41, 14),4	41,(41, 21),4	49,(41, 11),4	57,(41, 24),4	65,(41, 2),4	73,(41, 5),4	81,(41, 8),4	89,(41, 34),4	97,(41, 37),4	
# Outgoing
1,(41, 25),4	5,(41, 31),4	9,(41, 29),4	13,(41, 28),4	17,(41, 27),4	21,(41, 17),4	25,(41, 18),4	29,(41, 15),4	33,(41, 14),4	37,(41, 20),4	41,(41, 21),4	45,(41, 12),4	49,(41, 11),4	53,(41, 23),4	57,(41, 24),4	61,(41, 9),4	65,(41, 2),4	69,(41, 3),4	73,(41, 5),4	77,(41, 6),4	81,(41, 8),4	85,(41, 26),4	89,(41, 34),4	93,(41, 35),4	97,(41, 37),4	101,(41, 38),4	
37,(31, 0),8	61,(28, 0),8	85,(17, 0),8	109,(15, 0),8	133,(20, 0),8	157,(12, 0),8	181,(23, 0),8	205,(9, 0),8	229,(3, 0),8	253,(6, 0),8	277,(26, 0),8	301,(35, 0),8	325,(38, 0),8	
29,(25, 0),8	53,(29, 0),8	77,(27, 0),8	101,(18, 0),8	125,(14, 0),8	149,(21, 0),8	173,(11, 0),8	197,(24, 0),8	221,(2, 0),8	245,(5, 0),8	269,(8, 0),8	293,(34, 0),8	317,(37, 0),8	
