292
# CPU
0,41,1	1,31,10	11,30,10	21,17,10	31,32,10	41,27,10	51,1,10	61,29,10	71,18,10	81,8,10	91,12,10	101,24,10	111,11,10	121,10,10	131,13,10	141,9,10	151,14,10	161,7,10	171,15,10	181,6,10	191,2,10	201,37,10	211,4,10	221,3,10	231,16,10	241,19,10	251,38,10	261,39,10	291,0,1	
21,25,10	41,23,10	81,34,10	101,35,10	161,20,10	201,22,10	221,5,10	241,26,10	261,40,10	
61,33,10	121,28,10	141,36,10	181,21,10	
# Incoming
31,(25, 0),20	51,(23, 0),20	71,(33, 0),20	91,(34, 0),20	111,(35, 0),20	131,(28, 0),20	151,(36, 0),20	171,(20, 0),20	191,(21, 0),20	211,(22, 0),20	231,(5, 0),20	251,(26, 0),20	271,(40, 0),20	
1,(41, 25),20	21,(41, 23),20	61,(41, 34),20	81,(41, 35),20	141,(41, 20),20	181,(41, 22),20	201,(41, 5),20	221,(41, 26),20	241,(41, 40),20	
41,(41, 33),20	101,(41, 28),20	121,(41, 36),20	161,(41, 21),20	
# Outgoing
1,(41, 25),20	21,(41, 23),20	41,(41, 33),20	61,(41, 34),20	81,(41, 35),20	101,(41, 28),20	121,(41, 36),20	141,(41, 20),20	161,(41, 21),20	181,(41, 22),20	201,(41, 5),20	221,(41, 26),20	241,(41, 40),20	
31,(25, 0),20	51,(23, 0),20	91,(34, 0),20	111,(35, 0),20	171,(20, 0),20	211,(22, 0),20	231,(5, 0),20	251,(26, 0),20	271,(40, 0),20	
71,(33, 0),20	131,(28, 0),20	151,(36, 0),20	191,(21, 0),20	
