131
# CPU
13,4,5	25,8,5	37,12,5	49,16,5	61,20,5	73,24,5	85,28,5	97,32,5	109,36,5	121,40,5	
9,3,5	21,7,5	33,11,5	45,15,5	57,19,5	69,23,5	81,27,5	93,31,5	105,35,5	117,39,5	
5,2,5	17,6,5	29,10,5	41,14,5	53,18,5	65,22,5	77,26,5	89,30,5	101,34,5	113,38,5	
0,0,1	1,1,5	6,9,5	11,25,5	16,37,5	21,33,5	26,21,5	31,29,5	36,17,5	41,5,5	46,13,5	130,41,1	
# Incoming
9,(0, 4),4	21,(0, 8),4	33,(0, 12),4	45,(0, 16),4	57,(0, 20),4	69,(0, 24),4	81,(0, 28),4	93,(0, 32),4	105,(0, 36),4	117,(0, 40),4	
5,(0, 3),4	17,(0, 7),4	29,(0, 11),4	41,(0, 15),4	53,(0, 19),4	65,(0, 23),4	77,(0, 27),4	89,(0, 31),4	101,(0, 35),4	113,(0, 39),4	
1,(0, 2),4	13,(0, 6),4	25,(0, 10),4	37,(0, 14),4	49,(0, 18),4	61,(0, 22),4	73,(0, 26),4	85,(0, 30),4	97,(0, 34),4	109,(0, 38),4	
10,(2, 41),4	14,(3, 41),4	18,(4, 41),4	22,(6, 41),4	26,(7, 41),4	30,(8, 41),4	34,(10, 41),4	38,(11, 41),4	42,(12, 41),4	46,(14, 41),4	50,(15, 41),4	54,(16, 41),4	58,(18, 41),4	62,(19, 41),4	66,(20, 41),4	70,(22, 41),4	74,(23, 41),4	78,(24, 41),4	82,(26, 41),4	86,(27, 41),4	90,(28, 41),4	94,(30, 41),4	98,(31, 41),4	102,(32, 41),4	106,(34, 41),4	110,(35, 41),4	114,(36, 41),4	118,(38, 41),4	122,(39, 41),4	126,(40, 41),4	
# Outgoing
18,(4, 41),4	30,(8, 41),4	42,(12, 41),4	54,(16, 41),4	66,(20, 41),4	78,(24, 41),4	90,(28, 41),4	102,(32, 41),4	114,(36, 41),4	126,(40, 41),4	
14,(3, 41),4	26,(7, 41),4	38,(11, 41),4	50,(15, 41),4	62,(19, 41),4	74,(23, 41),4	86,(27, 41),4	98,(31, 41),4	110,(35, 41),4	122,(39, 41),4	
10,(2, 41),4	22,(6, 41),4	34,(10, 41),4	46,(14, 41),4	58,(18, 41),4	70,(22, 41),4	82,(26, 41),4	94,(30, 41),4	106,(34, 41),4	118,(38, 41),4	
1,(0, 2),4	5,(0, 3),4	9,(0, 4),4	13,(0, 6),4	17,(0, 7),4	21,(0, 8),4	25,(0, 10),4	29,(0, 11),4	33,(0, 12),4	37,(0, 14),4	41,(0, 15),4	45,(0, 16),4	49,(0, 18),4	53,(0, 19),4	57,(0, 20),4	61,(0, 22),4	65,(0, 23),4	69,(0, 24),4	73,(0, 26),4	77,(0, 27),4	81,(0, 28),4	85,(0, 30),4	89,(0, 31),4	93,(0, 32),4	97,(0, 34),4	101,(0, 35),4	105,(0, 36),4	109,(0, 38),4	113,(0, 39),4	117,(0, 40),4	
