4808
# CPU
397,5,3	793,10,3	1189,15,3	1585,20,3	1981,25,3	2377,30,3	2773,35,3	3169,40,3	
298,4,3	694,9,3	1090,14,3	1486,19,3	1882,24,3	2278,29,3	2674,34,3	3070,39,3	
199,3,3	595,8,3	991,13,3	1387,18,3	1783,23,3	2179,28,3	2575,33,3	2971,38,3	
100,2,3	496,7,3	892,12,3	1288,17,3	1684,22,3	2080,27,3	2476,32,3	2872,37,3	
0,0,1	1,1,3	4,11,3	7,31,3	10,26,3	13,36,3	16,21,3	19,6,3	22,16,3	4807,41,1	
# Incoming
298,(0, 5),99	694,(0, 10),99	1090,(0, 15),99	1486,(0, 20),99	1882,(0, 25),99	2278,(0, 30),99	2674,(0, 35),99	3070,(0, 40),99	
199,(0, 4),99	595,(0, 9),99	991,(0, 14),99	1387,(0, 19),99	1783,(0, 24),99	2179,(0, 29),99	2575,(0, 34),99	2971,(0, 39),99	
100,(0, 3),99	496,(0, 8),99	892,(0, 13),99	1288,(0, 18),99	1684,(0, 23),99	2080,(0, 28),99	2476,(0, 33),99	2872,(0, 38),99	
1,(0, 2),99	397,(0, 7),99	793,(0, 12),99	1189,(0, 17),99	1585,(0, 22),99	1981,(0, 27),99	2377,(0, 32),99	2773,(0, 37),99	
103,(2, 41),147	250,(3, 41),147	397,(4, 41),147	544,(5, 41),147	691,(7, 41),147	838,(8, 41),147	985,(9, 41),147	1132,(10, 41),147	1279,(12, 41),147	1426,(13, 41),147	1573,(14, 41),147	1720,(15, 41),147	1867,(17, 41),147	2014,(18, 41),147	2161,(19, 41),147	2308,(20, 41),147	2455,(22, 41),147	2602,(23, 41),147	2749,(24, 41),147	2896,(25, 41),147	3043,(27, 41),147	3190,(28, 41),147	3337,(29, 41),147	3484,(30, 41),147	3631,(32, 41),147	3778,(33, 41),147	3925,(34, 41),147	4072,(35, 41),147	4219,(37, 41),147	4366,(38, 41),147	4513,(39, 41),147	4660,(40, 41),147	
# Outgoing
544,(5, 41),147	1132,(10, 41),147	1720,(15, 41),147	2308,(20, 41),147	2896,(25, 41),147	3484,(30, 41),147	4072,(35, 41),147	4660,(40, 41),147	
397,(4, 41),147	985,(9, 41),147	1573,(14, 41),147	2161,(19, 41),147	2749,(24, 41),147	3337,(29, 41),147	3925,(34, 41),147	4513,(39, 41),147	
250,(3, 41),147	838,(8, 41),147	1426,(13, 41),147	2014,(18, 41),147	2602,(23, 41),147	3190,(28, 41),147	3778,(33, 41),147	4366,(38, 41),147	
103,(2, 41),147	691,(7, 41),147	1279,(12, 41),147	1867,(17, 41),147	2455,(22, 41),147	3043,(27, 41),147	3631,(32, 41),147	4219,(37, 41),147	
1,(0, 2),99	100,(0, 3),99	199,(0, 4),99	298,(0, 5),99	397,(0, 7),99	496,(0, 8),99	595,(0, 9),99	694,(0, 10),99	793,(0, 12),99	892,(0, 13),99	991,(0, 14),99	1090,(0, 15),99	1189,(0, 17),99	1288,(0, 18),99	1387,(0, 19),99	1486,(0, 20),99	1585,(0, 22),99	1684,(0, 23),99	1783,(0, 24),99	1882,(0, 25),99	1981,(0, 27),99	2080,(0, 28),99	2179,(0, 29),99	2278,(0, 30),99	2377,(0, 32),99	2476,(0, 33),99	2575,(0, 34),99	2674,(0, 35),99	2773,(0, 37),99	2872,(0, 38),99	2971,(0, 39),99	3070,(0, 40),99	
