353
# CPU
0,41,1	1,40,9	10,30,9	19,31,9	28,29,9	37,28,9	46,27,9	55,32,9	64,26,9	73,17,9	82,16,9	91,18,9	100,15,9	109,19,9	118,14,9	127,20,9	136,13,9	145,21,9	154,12,9	163,22,9	172,11,9	181,23,9	190,10,9	199,24,9	208,9,9	217,1,9	226,2,9	235,4,9	244,5,9	253,6,9	262,7,9	271,8,9	280,25,9	289,33,9	298,34,9	307,35,9	316,36,9	325,37,9	334,38,9	343,39,9	352,0,1	
25,3,9	
# Incoming
34,(3, 0),204	
1,(41, 3),24	
# Outgoing
1,(41, 3),24	
34,(3, 0),204	
