317
# CPU
0,0,1	1,31,9	10,30,9	19,32,9	28,29,9	37,28,9	46,27,9	55,33,9	64,17,9	73,16,9	82,18,9	91,15,9	100,19,9	109,14,9	118,13,9	127,20,9	136,12,9	145,21,9	154,7,9	163,6,9	172,24,9	181,11,9	190,1,9	199,2,9	208,3,9	217,4,9	226,5,9	235,8,9	244,9,9	253,10,9	262,25,9	271,26,9	280,34,9	289,38,9	298,39,9	307,40,9	316,41,1	
154,36,9	
52,22,9	256,35,9	
103,23,9	205,37,9	
# Incoming
61,(22, 41),6	112,(23, 41),6	163,(36, 41),6	214,(37, 41),6	265,(35, 41),6	
103,(0, 36),51	
1,(0, 22),51	205,(0, 35),51	
52,(0, 23),51	154,(0, 37),51	
# Outgoing
1,(0, 22),51	52,(0, 23),51	103,(0, 36),51	154,(0, 37),51	205,(0, 35),51	
163,(36, 41),6	
61,(22, 41),6	265,(35, 41),6	
112,(23, 41),6	214,(37, 41),6	
