520
# CPU
15,3,37	52,6,37	89,9,37	126,12,37	163,15,37	200,18,37	237,21,37	274,24,37	311,27,37	348,30,37	385,33,37	422,36,37	459,39,37	
8,2,37	45,5,37	82,8,37	119,11,37	156,14,37	193,17,37	230,20,37	267,23,37	304,26,37	341,29,37	378,32,37	415,35,37	452,38,37	
0,0,1	1,1,37	38,7,37	75,19,37	112,40,37	149,37,37	186,34,37	223,31,37	260,28,37	297,25,37	334,16,37	371,22,37	408,13,37	445,4,37	482,10,37	519,41,1	
# Incoming
8,(0, 3),7	22,(0, 6),7	36,(0, 9),7	50,(0, 12),7	64,(0, 15),7	78,(0, 18),7	92,(0, 21),7	106,(0, 24),7	120,(0, 27),7	134,(0, 30),7	148,(0, 33),7	162,(0, 36),7	176,(0, 39),7	
1,(0, 2),7	15,(0, 5),7	29,(0, 8),7	43,(0, 11),7	57,(0, 14),7	71,(0, 17),7	85,(0, 20),7	99,(0, 23),7	113,(0, 26),7	127,(0, 29),7	141,(0, 32),7	155,(0, 35),7	169,(0, 38),7	
45,(2, 41),2	52,(3, 41),2	82,(5, 41),2	89,(6, 41),2	119,(8, 41),2	126,(9, 41),2	156,(11, 41),2	163,(12, 41),2	193,(14, 41),2	200,(15, 41),2	230,(17, 41),2	237,(18, 41),2	267,(20, 41),2	274,(21, 41),2	304,(23, 41),2	311,(24, 41),2	341,(26, 41),2	348,(27, 41),2	378,(29, 41),2	385,(30, 41),2	415,(32, 41),2	422,(33, 41),2	452,(35, 41),2	459,(36, 41),2	489,(38, 41),2	496,(39, 41),2	
# Outgoing
52,(3, 41),2	89,(6, 41),2	126,(9, 41),2	163,(12, 41),2	200,(15, 41),2	237,(18, 41),2	274,(21, 41),2	311,(24, 41),2	348,(27, 41),2	385,(30, 41),2	422,(33, 41),2	459,(36, 41),2	496,(39, 41),2	
45,(2, 41),2	82,(5, 41),2	119,(8, 41),2	156,(11, 41),2	193,(14, 41),2	230,(17, 41),2	267,(20, 41),2	304,(23, 41),2	341,(26, 41),2	378,(29, 41),2	415,(32, 41),2	452,(35, 41),2	489,(38, 41),2	
1,(0, 2),7	8,(0, 3),7	15,(0, 5),7	22,(0, 6),7	29,(0, 8),7	36,(0, 9),7	43,(0, 11),7	50,(0, 12),7	57,(0, 14),7	64,(0, 15),7	71,(0, 17),7	78,(0, 18),7	85,(0, 20),7	92,(0, 21),7	99,(0, 23),7	106,(0, 24),7	113,(0, 26),7	120,(0, 27),7	127,(0, 29),7	134,(0, 30),7	141,(0, 32),7	148,(0, 33),7	155,(0, 35),7	162,(0, 36),7	169,(0, 38),7	176,(0, 39),7	
