249
# CPU
13,2,5	25,4,5	37,6,5	49,8,5	61,10,5	73,12,5	85,14,5	97,16,5	109,18,5	121,20,5	133,22,5	145,24,5	157,26,5	169,28,5	181,30,5	193,32,5	205,34,5	217,36,5	229,38,5	241,40,5	
0,0,1	1,1,5	6,5,5	11,13,5	16,29,5	21,39,5	26,37,5	31,35,5	36,33,5	41,27,5	46,31,5	51,25,5	56,23,5	61,21,5	66,19,5	71,17,5	76,11,5	81,15,5	86,9,5	91,3,5	96,7,5	248,41,1	
# Incoming
1,(0, 2),12	13,(0, 4),12	25,(0, 6),12	37,(0, 8),12	49,(0, 10),12	61,(0, 12),12	73,(0, 14),12	85,(0, 16),12	97,(0, 18),12	109,(0, 20),12	121,(0, 22),12	133,(0, 24),12	145,(0, 26),12	157,(0, 28),12	169,(0, 30),12	181,(0, 32),12	193,(0, 34),12	205,(0, 36),12	217,(0, 38),12	229,(0, 40),12	
18,(2, 41),2	30,(4, 41),2	42,(6, 41),2	54,(8, 41),2	66,(10, 41),2	78,(12, 41),2	90,(14, 41),2	102,(16, 41),2	114,(18, 41),2	126,(20, 41),2	138,(22, 41),2	150,(24, 41),2	162,(26, 41),2	174,(28, 41),2	186,(30, 41),2	198,(32, 41),2	210,(34, 41),2	222,(36, 41),2	234,(38, 41),2	246,(40, 41),2	
# Outgoing
18,(2, 41),2	30,(4, 41),2	42,(6, 41),2	54,(8, 41),2	66,(10, 41),2	78,(12, 41),2	90,(14, 41),2	102,(16, 41),2	114,(18, 41),2	126,(20, 41),2	138,(22, 41),2	150,(24, 41),2	162,(26, 41),2	174,(28, 41),2	186,(30, 41),2	198,(32, 41),2	210,(34, 41),2	222,(36, 41),2	234,(38, 41),2	246,(40, 41),2	
1,(0, 2),12	13,(0, 4),12	25,(0, 6),12	37,(0, 8),12	49,(0, 10),12	61,(0, 12),12	73,(0, 14),12	85,(0, 16),12	97,(0, 18),12	109,(0, 20),12	121,(0, 22),12	133,(0, 24),12	145,(0, 26),12	157,(0, 28),12	169,(0, 30),12	181,(0, 32),12	193,(0, 34),12	205,(0, 36),12	217,(0, 38),12	229,(0, 40),12	
