810
# CPU
0,41,1	1,31,39	40,32,39	79,28,39	118,33,39	157,17,39	196,18,39	235,19,39	274,20,39	313,21,39	352,22,39	391,23,39	430,24,39	469,1,39	508,3,39	547,5,39	586,7,39	625,25,39	664,35,39	703,37,39	742,39,39	
29,30,39	68,29,39	107,27,39	146,26,39	185,16,39	224,15,39	263,14,39	302,13,39	341,12,39	380,11,39	419,10,39	458,9,39	497,2,39	536,4,39	575,6,39	614,8,39	653,34,39	692,36,39	731,38,39	770,40,39	809,0,1	
# Incoming

1,(41, 30),28	29,(41, 29),28	57,(41, 27),28	85,(41, 26),28	113,(41, 16),28	141,(41, 15),28	169,(41, 14),28	197,(41, 13),28	225,(41, 12),28	253,(41, 11),28	281,(41, 10),28	309,(41, 9),28	337,(41, 2),28	365,(41, 4),28	393,(41, 6),28	421,(41, 8),28	449,(41, 34),28	477,(41, 36),28	505,(41, 38),28	533,(41, 40),28	561,(31, 0),8	569,(32, 0),8	577,(28, 0),8	585,(33, 0),8	593,(17, 0),8	601,(18, 0),8	609,(19, 0),8	617,(20, 0),8	625,(21, 0),8	633,(22, 0),8	641,(23, 0),8	649,(24, 0),8	657,(1, 0),8	665,(3, 0),8	673,(5, 0),8	681,(7, 0),8	689,(25, 0),8	703,(35, 0),8	742,(37, 0),8	781,(39, 0),8	
# Outgoing
1,(41, 30),28	29,(41, 29),28	57,(41, 27),28	85,(41, 26),28	113,(41, 16),28	141,(41, 15),28	169,(41, 14),28	197,(41, 13),28	225,(41, 12),28	253,(41, 11),28	281,(41, 10),28	309,(41, 9),28	337,(41, 2),28	365,(41, 4),28	393,(41, 6),28	421,(41, 8),28	449,(41, 34),28	477,(41, 36),28	505,(41, 38),28	533,(41, 40),28	561,(31, 0),8	569,(32, 0),8	577,(28, 0),8	585,(33, 0),8	593,(17, 0),8	601,(18, 0),8	609,(19, 0),8	617,(20, 0),8	625,(21, 0),8	633,(22, 0),8	641,(23, 0),8	649,(24, 0),8	657,(1, 0),8	665,(3, 0),8	673,(5, 0),8	681,(7, 0),8	689,(25, 0),8	703,(35, 0),8	742,(37, 0),8	781,(39, 0),8	

