3044
# CPU
100,2,3	199,4,3	298,6,3	397,8,3	496,10,3	595,12,3	694,14,3	793,16,3	892,18,3	991,20,3	1090,22,3	1189,24,3	1288,26,3	1387,28,3	1486,30,3	1585,32,3	1684,34,3	1783,36,3	1882,38,3	1981,40,3	
0,0,1	1,1,3	4,5,3	7,13,3	10,29,3	13,39,3	16,37,3	19,35,3	22,33,3	25,27,3	28,31,3	31,25,3	34,23,3	37,21,3	40,19,3	43,17,3	46,11,3	49,15,3	52,9,3	55,3,3	58,7,3	3043,41,1	
# Incoming
1,(0, 2),99	100,(0, 4),99	199,(0, 6),99	298,(0, 8),99	397,(0, 10),99	496,(0, 12),99	595,(0, 14),99	694,(0, 16),99	793,(0, 18),99	892,(0, 20),99	991,(0, 22),99	1090,(0, 24),99	1189,(0, 26),99	1288,(0, 28),99	1387,(0, 30),99	1486,(0, 32),99	1585,(0, 34),99	1684,(0, 36),99	1783,(0, 38),99	1882,(0, 40),99	
103,(2, 41),147	250,(4, 41),147	397,(6, 41),147	544,(8, 41),147	691,(10, 41),147	838,(12, 41),147	985,(14, 41),147	1132,(16, 41),147	1279,(18, 41),147	1426,(20, 41),147	1573,(22, 41),147	1720,(24, 41),147	1867,(26, 41),147	2014,(28, 41),147	2161,(30, 41),147	2308,(32, 41),147	2455,(34, 41),147	2602,(36, 41),147	2749,(38, 41),147	2896,(40, 41),147	
# Outgoing
103,(2, 41),147	250,(4, 41),147	397,(6, 41),147	544,(8, 41),147	691,(10, 41),147	838,(12, 41),147	985,(14, 41),147	1132,(16, 41),147	1279,(18, 41),147	1426,(20, 41),147	1573,(22, 41),147	1720,(24, 41),147	1867,(26, 41),147	2014,(28, 41),147	2161,(30, 41),147	2308,(32, 41),147	2455,(34, 41),147	2602,(36, 41),147	2749,(38, 41),147	2896,(40, 41),147	
1,(0, 2),99	100,(0, 4),99	199,(0, 6),99	298,(0, 8),99	397,(0, 10),99	496,(0, 12),99	595,(0, 14),99	694,(0, 16),99	793,(0, 18),99	892,(0, 20),99	991,(0, 22),99	1090,(0, 24),99	1189,(0, 26),99	1288,(0, 28),99	1387,(0, 30),99	1486,(0, 32),99	1585,(0, 34),99	1684,(0, 36),99	1783,(0, 38),99	1882,(0, 40),99	
