847
# CPU
85,4,1	169,8,1	253,12,1	337,16,1	421,20,1	505,24,1	589,28,1	673,32,1	757,36,1	841,40,1	
57,3,1	141,7,1	225,11,1	309,15,1	393,19,1	477,23,1	561,27,1	645,31,1	729,35,1	813,39,1	
29,2,1	113,6,1	197,10,1	281,14,1	365,18,1	449,22,1	533,26,1	617,30,1	701,34,1	785,38,1	
0,0,1	1,1,1	2,9,1	3,25,1	4,37,1	5,33,1	6,21,1	7,29,1	8,17,1	9,5,1	10,13,1	846,41,1	
# Incoming
57,(0, 4),28	141,(0, 8),28	225,(0, 12),28	309,(0, 16),28	393,(0, 20),28	477,(0, 24),28	561,(0, 28),28	645,(0, 32),28	729,(0, 36),28	813,(0, 40),28	
29,(0, 3),28	113,(0, 7),28	197,(0, 11),28	281,(0, 15),28	365,(0, 19),28	449,(0, 23),28	533,(0, 27),28	617,(0, 31),28	701,(0, 35),28	785,(0, 39),28	
1,(0, 2),28	85,(0, 6),28	169,(0, 10),28	253,(0, 14),28	337,(0, 18),28	421,(0, 22),28	505,(0, 26),28	589,(0, 30),28	673,(0, 34),28	757,(0, 38),28	
30,(2, 41),4	58,(3, 41),4	86,(4, 41),4	114,(6, 41),4	142,(7, 41),4	170,(8, 41),4	198,(10, 41),4	226,(11, 41),4	254,(12, 41),4	282,(14, 41),4	310,(15, 41),4	338,(16, 41),4	366,(18, 41),4	394,(19, 41),4	422,(20, 41),4	450,(22, 41),4	478,(23, 41),4	506,(24, 41),4	534,(26, 41),4	562,(27, 41),4	590,(28, 41),4	618,(30, 41),4	646,(31, 41),4	674,(32, 41),4	702,(34, 41),4	730,(35, 41),4	758,(36, 41),4	786,(38, 41),4	814,(39, 41),4	842,(40, 41),4	
# Outgoing
86,(4, 41),4	170,(8, 41),4	254,(12, 41),4	338,(16, 41),4	422,(20, 41),4	506,(24, 41),4	590,(28, 41),4	674,(32, 41),4	758,(36, 41),4	842,(40, 41),4	
58,(3, 41),4	142,(7, 41),4	226,(11, 41),4	310,(15, 41),4	394,(19, 41),4	478,(23, 41),4	562,(27, 41),4	646,(31, 41),4	730,(35, 41),4	814,(39, 41),4	
30,(2, 41),4	114,(6, 41),4	198,(10, 41),4	282,(14, 41),4	366,(18, 41),4	450,(22, 41),4	534,(26, 41),4	618,(30, 41),4	702,(34, 41),4	786,(38, 41),4	
1,(0, 2),28	29,(0, 3),28	57,(0, 4),28	85,(0, 6),28	113,(0, 7),28	141,(0, 8),28	169,(0, 10),28	197,(0, 11),28	225,(0, 12),28	253,(0, 14),28	281,(0, 15),28	309,(0, 16),28	337,(0, 18),28	365,(0, 19),28	393,(0, 20),28	421,(0, 22),28	449,(0, 23),28	477,(0, 24),28	505,(0, 26),28	533,(0, 27),28	561,(0, 28),28	589,(0, 30),28	617,(0, 31),28	645,(0, 32),28	673,(0, 34),28	701,(0, 35),28	729,(0, 36),28	757,(0, 38),28	785,(0, 39),28	813,(0, 40),28	
