724
# CPU
0,0,1	1,31,19	20,30,19	39,32,19	58,29,19	77,28,19	96,27,19	115,33,19	134,26,19	153,17,19	172,16,19	191,18,19	210,15,19	229,19,19	248,14,19	267,13,19	286,20,19	305,12,19	324,21,19	343,11,19	362,22,19	381,10,19	400,23,19	419,9,19	438,1,19	457,2,19	476,3,19	495,4,19	514,5,19	533,6,19	552,7,19	571,8,19	590,25,19	609,34,19	628,35,19	647,37,19	666,38,19	685,39,19	704,40,19	723,41,1	




509,36,19	



255,24,19	
# Incoming
274,(24, 41),2	528,(36, 41),2	




255,(0, 36),254	



1,(0, 24),254	
# Outgoing
1,(0, 24),254	255,(0, 36),254	




528,(36, 41),2	



274,(24, 41),2	
