162
# CPU
0,41,1	1,40,5	6,30,5	11,31,5	16,29,5	21,28,5	26,32,5	31,27,5	36,17,5	41,16,5	46,15,5	51,18,5	56,14,5	61,13,5	66,19,5	71,12,5	76,20,5	81,11,5	86,10,5	91,21,5	96,1,5	101,2,5	106,3,5	111,4,5	116,5,5	121,6,5	126,7,5	131,8,5	136,9,5	141,22,5	146,26,5	151,36,5	156,39,5	161,0,1	
22,38,5	


7,24,5	
13,33,5	19,35,5	
25,37,5	

16,34,5	
4,23,5	10,25,5	
# Incoming
9,(23, 0),18	27,(24, 0),18	45,(25, 0),18	63,(33, 0),18	81,(34, 0),18	99,(35, 0),18	117,(38, 0),18	135,(37, 0),18	
19,(41, 38),3	


4,(41, 24),3	
10,(41, 33),3	16,(41, 35),3	
22,(41, 37),3	

13,(41, 34),3	
1,(41, 23),3	7,(41, 25),3	
# Outgoing
1,(41, 23),3	4,(41, 24),3	7,(41, 25),3	10,(41, 33),3	13,(41, 34),3	16,(41, 35),3	19,(41, 38),3	22,(41, 37),3	
117,(38, 0),18	


27,(24, 0),18	
63,(33, 0),18	99,(35, 0),18	
135,(37, 0),18	

81,(34, 0),18	
9,(23, 0),18	45,(25, 0),18	
