44
# CPU
0,41,1	1,31,3	4,30,3	7,33,3	10,16,3	13,19,3	16,13,3	19,22,3	22,10,3	25,1,3	28,4,3	31,7,3	34,34,3	37,37,3	40,40,3	43,0,1	
3,32,3	6,28,3	9,17,3	12,15,3	15,20,3	18,12,3	21,23,3	24,9,3	27,3,3	30,6,3	33,26,3	36,36,3	39,39,3	
2,25,3	5,29,3	8,27,3	11,18,3	14,14,3	17,21,3	20,11,3	23,24,3	26,2,3	29,5,3	32,8,3	35,35,3	38,38,3	
# Incoming
5,(25, 0),1	6,(32, 0),1	8,(29, 0),1	9,(28, 0),1	11,(27, 0),1	12,(17, 0),1	14,(18, 0),1	15,(15, 0),1	17,(14, 0),1	18,(20, 0),1	20,(21, 0),1	21,(12, 0),1	23,(11, 0),1	24,(23, 0),1	26,(24, 0),1	27,(9, 0),1	29,(2, 0),1	30,(3, 0),1	32,(5, 0),1	33,(6, 0),1	35,(8, 0),1	36,(26, 0),1	38,(35, 0),1	39,(36, 0),1	41,(38, 0),1	42,(39, 0),1	
2,(41, 32),1	4,(41, 28),1	6,(41, 17),1	8,(41, 15),1	10,(41, 20),1	12,(41, 12),1	14,(41, 23),1	16,(41, 9),1	18,(41, 3),1	20,(41, 6),1	22,(41, 26),1	24,(41, 36),1	26,(41, 39),1	
1,(41, 25),1	3,(41, 29),1	5,(41, 27),1	7,(41, 18),1	9,(41, 14),1	11,(41, 21),1	13,(41, 11),1	15,(41, 24),1	17,(41, 2),1	19,(41, 5),1	21,(41, 8),1	23,(41, 35),1	25,(41, 38),1	
# Outgoing
1,(41, 25),1	2,(41, 32),1	3,(41, 29),1	4,(41, 28),1	5,(41, 27),1	6,(41, 17),1	7,(41, 18),1	8,(41, 15),1	9,(41, 14),1	10,(41, 20),1	11,(41, 21),1	12,(41, 12),1	13,(41, 11),1	14,(41, 23),1	15,(41, 24),1	16,(41, 9),1	17,(41, 2),1	18,(41, 3),1	19,(41, 5),1	20,(41, 6),1	21,(41, 8),1	22,(41, 26),1	23,(41, 35),1	24,(41, 36),1	25,(41, 38),1	26,(41, 39),1	
6,(32, 0),1	9,(28, 0),1	12,(17, 0),1	15,(15, 0),1	18,(20, 0),1	21,(12, 0),1	24,(23, 0),1	27,(9, 0),1	30,(3, 0),1	33,(6, 0),1	36,(26, 0),1	39,(36, 0),1	42,(39, 0),1	
5,(25, 0),1	8,(29, 0),1	11,(27, 0),1	14,(18, 0),1	17,(14, 0),1	20,(21, 0),1	23,(11, 0),1	26,(24, 0),1	29,(2, 0),1	32,(5, 0),1	35,(8, 0),1	38,(35, 0),1	41,(38, 0),1	
