82
# CPU
0,0,1	1,1,2	3,3,2	5,7,2	7,15,2	9,31,2	11,40,2	13,39,2	15,38,2	17,37,2	19,36,2	21,35,2	23,34,2	25,33,2	27,30,2	29,32,2	31,29,2	33,28,2	35,27,2	37,26,2	39,25,2	41,24,2	43,23,2	45,22,2	47,21,2	49,20,2	51,19,2	53,18,2	55,17,2	57,14,2	59,16,2	61,13,2	63,12,2	65,11,2	67,10,2	69,9,2	71,6,2	73,8,2	75,5,2	77,2,2	79,4,2	81,41,1	



# Incoming




# Outgoing




