39
# CPU
0,41,1	1,40,1	2,30,1	3,31,1	4,29,1	5,28,1	6,27,1	7,32,1	8,26,1	9,17,1	10,16,1	11,18,1	12,15,1	13,19,1	14,14,1	15,13,1	16,20,1	17,12,1	18,21,1	19,11,1	20,22,1	21,10,1	22,23,1	23,1,1	24,2,1	25,3,1	26,4,1	27,5,1	28,6,1	29,7,1	30,8,1	31,9,1	32,25,1	33,33,1	34,35,1	35,36,1	36,37,1	37,39,1	38,0,1	


10,38,1	


4,24,1	
7,34,1	


# Incoming
5,(24, 0),9	14,(34, 0),9	23,(38, 0),9	


7,(41, 38),3	


1,(41, 24),3	
4,(41, 34),3	


# Outgoing
1,(41, 24),3	4,(41, 34),3	7,(41, 38),3	


23,(38, 0),9	


5,(24, 0),9	
14,(34, 0),9	


