150
# CPU
0,0,1	1,31,4	5,30,4	9,32,4	13,29,4	17,28,4	21,27,4	25,33,4	29,26,4	33,17,4	37,16,4	41,18,4	45,7,4	49,11,4	53,19,4	57,15,4	61,20,4	65,14,4	69,21,4	73,13,4	77,22,4	81,12,4	85,23,4	89,6,4	93,8,4	97,1,4	101,2,4	105,3,4	109,4,4	113,5,4	117,9,4	121,10,4	125,25,4	129,35,4	133,36,4	137,38,4	141,39,4	145,40,4	149,41,1	
45,34,4	89,24,4	133,37,4	

# Incoming
49,(34, 41),4	93,(24, 41),4	137,(37, 41),4	
1,(0, 34),44	45,(0, 24),44	89,(0, 37),44	

# Outgoing
1,(0, 34),44	45,(0, 24),44	89,(0, 37),44	
49,(34, 41),4	93,(24, 41),4	137,(37, 41),4	

