276
# CPU
28,4,1	55,8,1	82,12,1	109,16,1	136,20,1	163,24,1	190,28,1	217,32,1	244,36,1	271,40,1	
19,3,1	46,7,1	73,11,1	100,15,1	127,19,1	154,23,1	181,27,1	208,31,1	235,35,1	262,39,1	
10,2,1	37,6,1	64,10,1	91,14,1	118,18,1	145,22,1	172,26,1	199,30,1	226,34,1	253,38,1	
0,0,1	1,1,1	2,9,1	3,25,1	4,37,1	5,33,1	6,21,1	7,29,1	8,17,1	9,5,1	10,13,1	275,41,1	
# Incoming
19,(0, 4),9	46,(0, 8),9	73,(0, 12),9	100,(0, 16),9	127,(0, 20),9	154,(0, 24),9	181,(0, 28),9	208,(0, 32),9	235,(0, 36),9	262,(0, 40),9	
10,(0, 3),9	37,(0, 7),9	64,(0, 11),9	91,(0, 15),9	118,(0, 19),9	145,(0, 23),9	172,(0, 27),9	199,(0, 31),9	226,(0, 35),9	253,(0, 39),9	
1,(0, 2),9	28,(0, 6),9	55,(0, 10),9	82,(0, 14),9	109,(0, 18),9	136,(0, 22),9	163,(0, 26),9	190,(0, 30),9	217,(0, 34),9	244,(0, 38),9	
11,(2, 41),3	20,(3, 41),3	29,(4, 41),3	38,(6, 41),3	47,(7, 41),3	56,(8, 41),3	65,(10, 41),3	74,(11, 41),3	83,(12, 41),3	92,(14, 41),3	101,(15, 41),3	110,(16, 41),3	119,(18, 41),3	128,(19, 41),3	137,(20, 41),3	146,(22, 41),3	155,(23, 41),3	164,(24, 41),3	173,(26, 41),3	182,(27, 41),3	191,(28, 41),3	200,(30, 41),3	209,(31, 41),3	218,(32, 41),3	227,(34, 41),3	236,(35, 41),3	245,(36, 41),3	254,(38, 41),3	263,(39, 41),3	272,(40, 41),3	
# Outgoing
29,(4, 41),3	56,(8, 41),3	83,(12, 41),3	110,(16, 41),3	137,(20, 41),3	164,(24, 41),3	191,(28, 41),3	218,(32, 41),3	245,(36, 41),3	272,(40, 41),3	
20,(3, 41),3	47,(7, 41),3	74,(11, 41),3	101,(15, 41),3	128,(19, 41),3	155,(23, 41),3	182,(27, 41),3	209,(31, 41),3	236,(35, 41),3	263,(39, 41),3	
11,(2, 41),3	38,(6, 41),3	65,(10, 41),3	92,(14, 41),3	119,(18, 41),3	146,(22, 41),3	173,(26, 41),3	200,(30, 41),3	227,(34, 41),3	254,(38, 41),3	
1,(0, 2),9	10,(0, 3),9	19,(0, 4),9	28,(0, 6),9	37,(0, 7),9	46,(0, 8),9	55,(0, 10),9	64,(0, 11),9	73,(0, 12),9	82,(0, 14),9	91,(0, 15),9	100,(0, 16),9	109,(0, 18),9	118,(0, 19),9	127,(0, 20),9	136,(0, 22),9	145,(0, 23),9	154,(0, 24),9	163,(0, 26),9	172,(0, 27),9	181,(0, 28),9	190,(0, 30),9	199,(0, 31),9	208,(0, 32),9	217,(0, 34),9	226,(0, 35),9	235,(0, 36),9	244,(0, 38),9	253,(0, 39),9	262,(0, 40),9	
