202
# CPU
0,0,1	1,1,5	6,3,5	11,7,5	16,15,5	21,31,5	26,40,5	31,39,5	36,38,5	41,37,5	46,36,5	51,35,5	56,34,5	61,33,5	66,30,5	71,32,5	76,29,5	81,28,5	86,27,5	91,26,5	96,25,5	101,24,5	106,23,5	111,22,5	116,21,5	121,20,5	126,19,5	131,18,5	136,17,5	141,14,5	146,16,5	151,13,5	156,12,5	161,11,5	166,10,5	171,9,5	176,6,5	181,8,5	186,5,5	191,2,5	196,4,5	201,41,1	

# Incoming


# Outgoing


