491
# CPU
0,41,1	1,40,24	25,31,24	49,28,24	73,32,24	97,17,24	121,18,24	145,19,24	169,20,24	193,21,24	217,22,24	241,23,24	265,24,24	289,1,24	313,3,24	337,5,24	361,7,24	385,25,24	409,34,24	433,36,24	457,38,24	490,0,1	
4,30,24	28,29,24	52,27,24	76,26,24	100,16,24	124,15,24	148,14,24	172,13,24	196,12,24	220,11,24	244,10,24	268,9,24	292,2,24	316,4,24	340,6,24	364,8,24	388,33,24	412,35,24	436,37,24	460,39,24	
# Incoming
28,(30, 0),6	52,(29, 0),6	76,(27, 0),6	100,(26, 0),6	124,(16, 0),6	148,(15, 0),6	172,(14, 0),6	196,(13, 0),6	220,(12, 0),6	244,(11, 0),6	268,(10, 0),6	292,(9, 0),6	316,(2, 0),6	340,(4, 0),6	364,(6, 0),6	388,(8, 0),6	412,(33, 0),6	436,(35, 0),6	460,(37, 0),6	484,(39, 0),6	
1,(41, 30),3	4,(41, 29),3	7,(41, 27),3	10,(41, 26),3	13,(41, 16),3	16,(41, 15),3	19,(41, 14),3	22,(41, 13),3	25,(41, 12),3	28,(41, 11),3	31,(41, 10),3	34,(41, 9),3	37,(41, 2),3	40,(41, 4),3	43,(41, 6),3	46,(41, 8),3	49,(41, 33),3	52,(41, 35),3	55,(41, 37),3	58,(41, 39),3	
# Outgoing
1,(41, 30),3	4,(41, 29),3	7,(41, 27),3	10,(41, 26),3	13,(41, 16),3	16,(41, 15),3	19,(41, 14),3	22,(41, 13),3	25,(41, 12),3	28,(41, 11),3	31,(41, 10),3	34,(41, 9),3	37,(41, 2),3	40,(41, 4),3	43,(41, 6),3	46,(41, 8),3	49,(41, 33),3	52,(41, 35),3	55,(41, 37),3	58,(41, 39),3	
28,(30, 0),6	52,(29, 0),6	76,(27, 0),6	100,(26, 0),6	124,(16, 0),6	148,(15, 0),6	172,(14, 0),6	196,(13, 0),6	220,(12, 0),6	244,(11, 0),6	268,(10, 0),6	292,(9, 0),6	316,(2, 0),6	340,(4, 0),6	364,(6, 0),6	388,(8, 0),6	412,(33, 0),6	436,(35, 0),6	460,(37, 0),6	484,(39, 0),6	
