658
# CPU
163,10,5	325,20,5	487,30,5	649,40,5	
145,9,5	307,19,5	469,29,5	631,39,5	
127,8,5	289,18,5	451,28,5	613,38,5	
109,7,5	271,17,5	433,27,5	595,37,5	
91,6,5	253,16,5	415,26,5	577,36,5	
73,5,5	235,15,5	397,25,5	559,35,5	
55,4,5	217,14,5	379,24,5	541,34,5	
37,3,5	199,13,5	361,23,5	523,33,5	
19,2,5	181,12,5	343,22,5	505,32,5	
0,0,1	1,1,5	6,21,5	11,11,5	16,31,5	657,41,1	
# Incoming
145,(0, 10),18	307,(0, 20),18	469,(0, 30),18	631,(0, 40),18	
127,(0, 9),18	289,(0, 19),18	451,(0, 29),18	613,(0, 39),18	
109,(0, 8),18	271,(0, 18),18	433,(0, 28),18	595,(0, 38),18	
91,(0, 7),18	253,(0, 17),18	415,(0, 27),18	577,(0, 37),18	
73,(0, 6),18	235,(0, 16),18	397,(0, 26),18	559,(0, 36),18	
55,(0, 5),18	217,(0, 15),18	379,(0, 25),18	541,(0, 35),18	
37,(0, 4),18	199,(0, 14),18	361,(0, 24),18	523,(0, 34),18	
19,(0, 3),18	181,(0, 13),18	343,(0, 23),18	505,(0, 33),18	
1,(0, 2),18	163,(0, 12),18	325,(0, 22),18	487,(0, 32),18	
24,(2, 41),3	42,(3, 41),3	60,(4, 41),3	78,(5, 41),3	96,(6, 41),3	114,(7, 41),3	132,(8, 41),3	150,(9, 41),3	168,(10, 41),3	186,(12, 41),3	204,(13, 41),3	222,(14, 41),3	240,(15, 41),3	258,(16, 41),3	276,(17, 41),3	294,(18, 41),3	312,(19, 41),3	330,(20, 41),3	348,(22, 41),3	366,(23, 41),3	384,(24, 41),3	402,(25, 41),3	420,(26, 41),3	438,(27, 41),3	456,(28, 41),3	474,(29, 41),3	492,(30, 41),3	510,(32, 41),3	528,(33, 41),3	546,(34, 41),3	564,(35, 41),3	582,(36, 41),3	600,(37, 41),3	618,(38, 41),3	636,(39, 41),3	654,(40, 41),3	
# Outgoing
168,(10, 41),3	330,(20, 41),3	492,(30, 41),3	654,(40, 41),3	
150,(9, 41),3	312,(19, 41),3	474,(29, 41),3	636,(39, 41),3	
132,(8, 41),3	294,(18, 41),3	456,(28, 41),3	618,(38, 41),3	
114,(7, 41),3	276,(17, 41),3	438,(27, 41),3	600,(37, 41),3	
96,(6, 41),3	258,(16, 41),3	420,(26, 41),3	582,(36, 41),3	
78,(5, 41),3	240,(15, 41),3	402,(25, 41),3	564,(35, 41),3	
60,(4, 41),3	222,(14, 41),3	384,(24, 41),3	546,(34, 41),3	
42,(3, 41),3	204,(13, 41),3	366,(23, 41),3	528,(33, 41),3	
24,(2, 41),3	186,(12, 41),3	348,(22, 41),3	510,(32, 41),3	
1,(0, 2),18	19,(0, 3),18	37,(0, 4),18	55,(0, 5),18	73,(0, 6),18	91,(0, 7),18	109,(0, 8),18	127,(0, 9),18	145,(0, 10),18	163,(0, 12),18	181,(0, 13),18	199,(0, 14),18	217,(0, 15),18	235,(0, 16),18	253,(0, 17),18	271,(0, 18),18	289,(0, 19),18	307,(0, 20),18	325,(0, 22),18	343,(0, 23),18	361,(0, 24),18	379,(0, 25),18	397,(0, 26),18	415,(0, 27),18	433,(0, 28),18	451,(0, 29),18	469,(0, 30),18	487,(0, 32),18	505,(0, 33),18	523,(0, 34),18	541,(0, 35),18	559,(0, 36),18	577,(0, 37),18	595,(0, 38),18	613,(0, 39),18	631,(0, 40),18	
