99
# CPU
0,41,1	1,31,5	6,32,5	11,30,5	16,33,5	21,28,5	26,1,5	31,15,5	36,14,5	41,37,5	46,2,5	51,12,5	56,3,5	61,5,5	66,6,5	71,4,5	76,7,5	81,8,5	86,9,5	98,0,1	
13,24,5	73,39,5	81,11,5	89,40,5	
41,19,5	49,34,5	61,35,5	
9,25,5	29,27,5	69,36,5	
21,23,5	57,16,5	
37,29,5	
5,26,5	45,18,5	65,13,5	77,38,5	85,10,5	
17,22,5	25,21,5	
53,17,5	
33,20,5	
# Incoming
10,(26, 0),4	14,(25, 0),4	18,(24, 0),4	22,(22, 0),4	26,(23, 0),4	30,(21, 0),4	34,(27, 0),4	38,(20, 0),4	42,(29, 0),4	46,(19, 0),4	50,(18, 0),4	54,(34, 0),4	58,(17, 0),4	62,(16, 0),4	66,(35, 0),4	70,(13, 0),4	74,(36, 0),4	78,(39, 0),4	82,(38, 0),4	86,(11, 0),4	90,(10, 0),4	94,(40, 0),4	
9,(41, 24),4	69,(41, 39),4	77,(41, 11),4	85,(41, 40),4	
37,(41, 19),4	45,(41, 34),4	57,(41, 35),4	
5,(41, 25),4	25,(41, 27),4	65,(41, 36),4	
17,(41, 23),4	53,(41, 16),4	
33,(41, 29),4	
1,(41, 26),4	41,(41, 18),4	61,(41, 13),4	73,(41, 38),4	81,(41, 10),4	
13,(41, 22),4	21,(41, 21),4	
49,(41, 17),4	
29,(41, 20),4	
# Outgoing
1,(41, 26),4	5,(41, 25),4	9,(41, 24),4	13,(41, 22),4	17,(41, 23),4	21,(41, 21),4	25,(41, 27),4	29,(41, 20),4	33,(41, 29),4	37,(41, 19),4	41,(41, 18),4	45,(41, 34),4	49,(41, 17),4	53,(41, 16),4	57,(41, 35),4	61,(41, 13),4	65,(41, 36),4	69,(41, 39),4	73,(41, 38),4	77,(41, 11),4	81,(41, 10),4	85,(41, 40),4	
18,(24, 0),4	78,(39, 0),4	86,(11, 0),4	94,(40, 0),4	
46,(19, 0),4	54,(34, 0),4	66,(35, 0),4	
14,(25, 0),4	34,(27, 0),4	74,(36, 0),4	
26,(23, 0),4	62,(16, 0),4	
42,(29, 0),4	
10,(26, 0),4	50,(18, 0),4	70,(13, 0),4	82,(38, 0),4	90,(10, 0),4	
22,(22, 0),4	30,(21, 0),4	
58,(17, 0),4	
38,(20, 0),4	
