162
# CPU
0,0,1	1,31,5	6,30,5	11,32,5	16,29,5	21,28,5	26,33,5	31,27,5	36,17,5	41,16,5	46,15,5	51,18,5	56,14,5	61,13,5	66,19,5	71,12,5	76,11,5	81,20,5	86,10,5	91,6,5	96,7,5	101,1,5	106,2,5	111,3,5	116,4,5	121,5,5	126,8,5	131,9,5	136,23,5	141,26,5	146,38,5	151,39,5	156,40,5	161,41,1	
127,36,5	145,35,5	
37,21,5	
91,34,5	
19,25,5	55,22,5	73,24,5	109,37,5	
# Incoming
24,(25, 41),3	42,(21, 41),3	60,(22, 41),3	78,(24, 41),3	96,(34, 41),3	114,(37, 41),3	132,(36, 41),3	150,(35, 41),3	
109,(0, 36),18	127,(0, 35),18	
19,(0, 21),18	
73,(0, 34),18	
1,(0, 25),18	37,(0, 22),18	55,(0, 24),18	91,(0, 37),18	
# Outgoing
1,(0, 25),18	19,(0, 21),18	37,(0, 22),18	55,(0, 24),18	73,(0, 34),18	91,(0, 37),18	109,(0, 36),18	127,(0, 35),18	
132,(36, 41),3	150,(35, 41),3	
42,(21, 41),3	
96,(34, 41),3	
24,(25, 41),3	60,(22, 41),3	78,(24, 41),3	114,(37, 41),3	
