37
# CPU
0,0,1	1,31,1	2,30,1	3,32,1	4,29,1	5,28,1	6,27,1	7,14,1	8,33,1	9,17,1	10,18,1	11,16,1	12,19,1	13,5,1	14,22,1	15,15,1	16,13,1	17,20,1	18,12,1	19,11,1	20,8,1	21,21,1	22,1,1	23,2,1	24,3,1	25,7,1	26,6,1	27,4,1	28,9,1	29,10,1	30,24,1	31,26,1	32,34,1	33,37,1	34,38,1	35,40,1	36,41,1	
19,35,1	



25,36,1	
7,23,1	

31,39,1	
13,25,1	
# Incoming
8,(23, 41),2	14,(25, 41),2	20,(35, 41),2	26,(36, 41),2	32,(39, 41),2	
13,(0, 35),6	



19,(0, 36),6	
1,(0, 23),6	

25,(0, 39),6	
7,(0, 25),6	
# Outgoing
1,(0, 23),6	7,(0, 25),6	13,(0, 35),6	19,(0, 36),6	25,(0, 39),6	
20,(35, 41),2	



26,(36, 41),2	
8,(23, 41),2	

32,(39, 41),2	
14,(25, 41),2	
