3832
# CPU
382,4,19	763,8,19	1144,12,19	1525,16,19	1906,20,19	2287,24,19	2668,28,19	3049,32,19	3430,36,19	3811,40,19	
255,3,19	636,7,19	1017,11,19	1398,15,19	1779,19,19	2160,23,19	2541,27,19	2922,31,19	3303,35,19	3684,39,19	
128,2,19	509,6,19	890,10,19	1271,14,19	1652,18,19	2033,22,19	2414,26,19	2795,30,19	3176,34,19	3557,38,19	
0,0,1	1,1,19	20,9,19	39,25,19	58,37,19	77,33,19	96,21,19	115,29,19	134,17,19	153,5,19	172,13,19	3831,41,1	
# Incoming
255,(0, 4),127	636,(0, 8),127	1017,(0, 12),127	1398,(0, 16),127	1779,(0, 20),127	2160,(0, 24),127	2541,(0, 28),127	2922,(0, 32),127	3303,(0, 36),127	3684,(0, 40),127	
128,(0, 3),127	509,(0, 7),127	890,(0, 11),127	1271,(0, 15),127	1652,(0, 19),127	2033,(0, 23),127	2414,(0, 27),127	2795,(0, 31),127	3176,(0, 35),127	3557,(0, 39),127	
1,(0, 2),127	382,(0, 6),127	763,(0, 10),127	1144,(0, 14),127	1525,(0, 18),127	1906,(0, 22),127	2287,(0, 26),127	2668,(0, 30),127	3049,(0, 34),127	3430,(0, 38),127	
147,(2, 41),1	274,(3, 41),1	401,(4, 41),1	528,(6, 41),1	655,(7, 41),1	782,(8, 41),1	909,(10, 41),1	1036,(11, 41),1	1163,(12, 41),1	1290,(14, 41),1	1417,(15, 41),1	1544,(16, 41),1	1671,(18, 41),1	1798,(19, 41),1	1925,(20, 41),1	2052,(22, 41),1	2179,(23, 41),1	2306,(24, 41),1	2433,(26, 41),1	2560,(27, 41),1	2687,(28, 41),1	2814,(30, 41),1	2941,(31, 41),1	3068,(32, 41),1	3195,(34, 41),1	3322,(35, 41),1	3449,(36, 41),1	3576,(38, 41),1	3703,(39, 41),1	3830,(40, 41),1	
# Outgoing
401,(4, 41),1	782,(8, 41),1	1163,(12, 41),1	1544,(16, 41),1	1925,(20, 41),1	2306,(24, 41),1	2687,(28, 41),1	3068,(32, 41),1	3449,(36, 41),1	3830,(40, 41),1	
274,(3, 41),1	655,(7, 41),1	1036,(11, 41),1	1417,(15, 41),1	1798,(19, 41),1	2179,(23, 41),1	2560,(27, 41),1	2941,(31, 41),1	3322,(35, 41),1	3703,(39, 41),1	
147,(2, 41),1	528,(6, 41),1	909,(10, 41),1	1290,(14, 41),1	1671,(18, 41),1	2052,(22, 41),1	2433,(26, 41),1	2814,(30, 41),1	3195,(34, 41),1	3576,(38, 41),1	
1,(0, 2),127	128,(0, 3),127	255,(0, 4),127	382,(0, 6),127	509,(0, 7),127	636,(0, 8),127	763,(0, 10),127	890,(0, 11),127	1017,(0, 12),127	1144,(0, 14),127	1271,(0, 15),127	1398,(0, 16),127	1525,(0, 18),127	1652,(0, 19),127	1779,(0, 20),127	1906,(0, 22),127	2033,(0, 23),127	2160,(0, 24),127	2287,(0, 26),127	2414,(0, 27),127	2541,(0, 28),127	2668,(0, 30),127	2795,(0, 31),127	2922,(0, 32),127	3049,(0, 34),127	3176,(0, 35),127	3303,(0, 36),127	3430,(0, 38),127	3557,(0, 39),127	3684,(0, 40),127	
