567
# CPU
29,2,1	57,4,1	85,6,1	113,8,1	141,10,1	169,12,1	197,14,1	225,16,1	253,18,1	281,20,1	309,22,1	337,24,1	365,26,1	393,28,1	421,30,1	449,32,1	477,34,1	505,36,1	533,38,1	561,40,1	
0,0,1	1,1,1	2,5,1	3,13,1	4,29,1	5,39,1	6,37,1	7,35,1	8,33,1	9,27,1	10,31,1	11,25,1	12,23,1	13,21,1	14,19,1	15,17,1	16,11,1	17,15,1	18,9,1	19,3,1	20,7,1	566,41,1	
# Incoming
1,(0, 2),28	29,(0, 4),28	57,(0, 6),28	85,(0, 8),28	113,(0, 10),28	141,(0, 12),28	169,(0, 14),28	197,(0, 16),28	225,(0, 18),28	253,(0, 20),28	281,(0, 22),28	309,(0, 24),28	337,(0, 26),28	365,(0, 28),28	393,(0, 30),28	421,(0, 32),28	449,(0, 34),28	477,(0, 36),28	505,(0, 38),28	533,(0, 40),28	
30,(2, 41),4	58,(4, 41),4	86,(6, 41),4	114,(8, 41),4	142,(10, 41),4	170,(12, 41),4	198,(14, 41),4	226,(16, 41),4	254,(18, 41),4	282,(20, 41),4	310,(22, 41),4	338,(24, 41),4	366,(26, 41),4	394,(28, 41),4	422,(30, 41),4	450,(32, 41),4	478,(34, 41),4	506,(36, 41),4	534,(38, 41),4	562,(40, 41),4	
# Outgoing
30,(2, 41),4	58,(4, 41),4	86,(6, 41),4	114,(8, 41),4	142,(10, 41),4	170,(12, 41),4	198,(14, 41),4	226,(16, 41),4	254,(18, 41),4	282,(20, 41),4	310,(22, 41),4	338,(24, 41),4	366,(26, 41),4	394,(28, 41),4	422,(30, 41),4	450,(32, 41),4	478,(34, 41),4	506,(36, 41),4	534,(38, 41),4	562,(40, 41),4	
1,(0, 2),28	29,(0, 4),28	57,(0, 6),28	85,(0, 8),28	113,(0, 10),28	141,(0, 12),28	169,(0, 14),28	197,(0, 16),28	225,(0, 18),28	253,(0, 20),28	281,(0, 22),28	309,(0, 24),28	337,(0, 26),28	365,(0, 28),28	393,(0, 30),28	421,(0, 32),28	449,(0, 34),28	477,(0, 36),28	505,(0, 38),28	533,(0, 40),28	
