1312
# CPU
67,3,3	133,6,3	199,9,3	265,12,3	331,15,3	397,18,3	463,21,3	529,24,3	595,27,3	661,30,3	727,33,3	793,36,3	859,39,3	
34,2,3	100,5,3	166,8,3	232,11,3	298,14,3	364,17,3	430,20,3	496,23,3	562,26,3	628,29,3	694,32,3	760,35,3	826,38,3	
0,0,1	1,1,3	4,7,3	7,19,3	10,40,3	13,37,3	16,34,3	19,31,3	22,28,3	25,25,3	28,16,3	31,22,3	34,13,3	37,4,3	40,10,3	1311,41,1	
# Incoming
34,(0, 3),33	100,(0, 6),33	166,(0, 9),33	232,(0, 12),33	298,(0, 15),33	364,(0, 18),33	430,(0, 21),33	496,(0, 24),33	562,(0, 27),33	628,(0, 30),33	694,(0, 33),33	760,(0, 36),33	826,(0, 39),33	
1,(0, 2),33	67,(0, 5),33	133,(0, 8),33	199,(0, 11),33	265,(0, 14),33	331,(0, 17),33	397,(0, 20),33	463,(0, 23),33	529,(0, 26),33	595,(0, 29),33	661,(0, 32),33	727,(0, 35),33	793,(0, 38),33	
37,(2, 41),49	86,(3, 41),49	135,(5, 41),49	184,(6, 41),49	233,(8, 41),49	282,(9, 41),49	331,(11, 41),49	380,(12, 41),49	429,(14, 41),49	478,(15, 41),49	527,(17, 41),49	576,(18, 41),49	625,(20, 41),49	674,(21, 41),49	723,(23, 41),49	772,(24, 41),49	821,(26, 41),49	870,(27, 41),49	919,(29, 41),49	968,(30, 41),49	1017,(32, 41),49	1066,(33, 41),49	1115,(35, 41),49	1164,(36, 41),49	1213,(38, 41),49	1262,(39, 41),49	
# Outgoing
86,(3, 41),49	184,(6, 41),49	282,(9, 41),49	380,(12, 41),49	478,(15, 41),49	576,(18, 41),49	674,(21, 41),49	772,(24, 41),49	870,(27, 41),49	968,(30, 41),49	1066,(33, 41),49	1164,(36, 41),49	1262,(39, 41),49	
37,(2, 41),49	135,(5, 41),49	233,(8, 41),49	331,(11, 41),49	429,(14, 41),49	527,(17, 41),49	625,(20, 41),49	723,(23, 41),49	821,(26, 41),49	919,(29, 41),49	1017,(32, 41),49	1115,(35, 41),49	1213,(38, 41),49	
1,(0, 2),33	34,(0, 3),33	67,(0, 5),33	100,(0, 6),33	133,(0, 8),33	166,(0, 9),33	199,(0, 11),33	232,(0, 12),33	265,(0, 14),33	298,(0, 15),33	331,(0, 17),33	364,(0, 18),33	397,(0, 20),33	430,(0, 21),33	463,(0, 23),33	496,(0, 24),33	529,(0, 26),33	562,(0, 27),33	595,(0, 29),33	628,(0, 30),33	661,(0, 32),33	694,(0, 33),33	727,(0, 35),33	760,(0, 36),33	793,(0, 38),33	826,(0, 39),33	
