1002
# CPU
0,0,1	1,1,2	3,3,2	5,7,2	7,15,2	9,31,2	11,63,2	13,127,2	15,255,2	17,500,2	19,499,2	21,498,2	23,497,2	25,496,2	27,495,2	29,494,2	31,493,2	33,492,2	35,491,2	37,490,2	39,489,2	41,488,2	43,487,2	45,486,2	47,485,2	49,484,2	51,483,2	53,482,2	55,481,2	57,480,2	59,479,2	61,478,2	63,477,2	65,476,2	67,475,2	69,474,2	71,473,2	73,472,2	75,471,2	77,470,2	79,469,2	81,468,2	83,467,2	85,466,2	87,465,2	89,464,2	91,463,2	93,462,2	95,461,2	97,460,2	99,459,2	101,458,2	103,457,2	105,456,2	107,455,2	109,454,2	111,453,2	113,452,2	115,451,2	117,450,2	119,449,2	121,448,2	123,447,2	125,446,2	127,445,2	129,444,2	131,443,2	133,442,2	135,441,2	137,440,2	139,439,2	141,438,2	143,437,2	145,436,2	147,435,2	149,434,2	151,433,2	153,432,2	155,431,2	157,430,2	159,429,2	161,428,2	163,427,2	165,426,2	167,425,2	169,424,2	171,423,2	173,422,2	175,421,2	177,420,2	179,419,2	181,418,2	183,417,2	185,416,2	187,415,2	189,414,2	191,413,2	193,412,2	195,411,2	197,410,2	199,409,2	201,408,2	203,407,2	205,406,2	207,405,2	209,404,2	211,403,2	213,402,2	215,401,2	217,400,2	219,399,2	221,398,2	223,397,2	225,396,2	227,395,2	229,394,2	231,393,2	233,392,2	235,391,2	237,390,2	239,389,2	241,388,2	243,387,2	245,386,2	247,385,2	249,384,2	251,383,2	253,382,2	255,381,2	257,380,2	259,379,2	261,378,2	263,377,2	265,376,2	267,375,2	269,374,2	271,373,2	273,372,2	275,371,2	277,370,2	279,369,2	281,368,2	283,367,2	285,366,2	287,365,2	289,364,2	291,363,2	293,362,2	295,361,2	297,360,2	299,359,2	301,358,2	303,357,2	305,356,2	307,355,2	309,354,2	311,353,2	313,352,2	315,351,2	317,350,2	319,349,2	321,348,2	323,347,2	325,346,2	327,345,2	329,344,2	331,343,2	333,342,2	335,341,2	337,340,2	339,339,2	341,338,2	343,337,2	345,336,2	347,335,2	349,334,2	351,333,2	353,332,2	355,331,2	357,330,2	359,329,2	361,328,2	363,327,2	365,326,2	367,325,2	369,324,2	371,323,2	373,322,2	375,321,2	377,320,2	379,319,2	381,318,2	383,317,2	385,316,2	387,315,2	389,314,2	391,313,2	393,312,2	395,311,2	397,310,2	399,309,2	401,308,2	403,307,2	405,306,2	407,305,2	409,304,2	411,303,2	413,302,2	415,301,2	417,300,2	419,299,2	421,298,2	423,297,2	425,296,2	427,295,2	429,294,2	431,293,2	433,292,2	435,291,2	437,290,2	439,289,2	441,288,2	443,287,2	445,286,2	447,285,2	449,284,2	451,283,2	453,282,2	455,281,2	457,280,2	459,279,2	461,278,2	463,277,2	465,276,2	467,275,2	469,274,2	471,273,2	473,272,2	475,271,2	477,270,2	479,269,2	481,268,2	483,267,2	485,266,2	487,265,2	489,264,2	491,263,2	493,262,2	495,261,2	497,260,2	499,259,2	501,258,2	503,257,2	505,254,2	507,256,2	509,253,2	511,252,2	513,251,2	515,250,2	517,249,2	519,248,2	521,247,2	523,246,2	525,245,2	527,244,2	529,243,2	531,242,2	533,241,2	535,240,2	537,239,2	539,238,2	541,237,2	543,236,2	545,235,2	547,234,2	549,233,2	551,232,2	553,231,2	555,230,2	557,229,2	559,228,2	561,227,2	563,226,2	565,225,2	567,224,2	569,223,2	571,222,2	573,221,2	575,220,2	577,219,2	579,218,2	581,217,2	583,216,2	585,215,2	587,214,2	589,213,2	591,212,2	593,211,2	595,210,2	597,209,2	599,208,2	601,207,2	603,206,2	605,205,2	607,204,2	609,203,2	611,202,2	613,201,2	615,200,2	617,199,2	619,198,2	621,197,2	623,196,2	625,195,2	627,194,2	629,193,2	631,192,2	633,191,2	635,190,2	637,189,2	639,188,2	641,187,2	643,186,2	645,185,2	647,184,2	649,183,2	651,182,2	653,181,2	655,180,2	657,179,2	659,178,2	661,177,2	663,176,2	665,175,2	667,174,2	669,173,2	671,172,2	673,171,2	675,170,2	677,169,2	679,168,2	681,167,2	683,166,2	685,165,2	687,164,2	689,163,2	691,162,2	693,161,2	695,160,2	697,159,2	699,158,2	701,157,2	703,156,2	705,155,2	707,154,2	709,153,2	711,152,2	713,151,2	715,150,2	717,149,2	719,148,2	721,147,2	723,146,2	725,145,2	727,144,2	729,143,2	731,142,2	733,141,2	735,140,2	737,139,2	739,138,2	741,137,2	743,136,2	745,135,2	747,134,2	749,133,2	751,132,2	753,131,2	755,130,2	757,129,2	759,126,2	761,128,2	763,125,2	765,124,2	767,123,2	769,122,2	771,121,2	773,120,2	775,119,2	777,118,2	779,117,2	781,116,2	783,115,2	785,114,2	787,113,2	789,112,2	791,111,2	793,110,2	795,109,2	797,108,2	799,107,2	801,106,2	803,105,2	805,104,2	807,103,2	809,102,2	811,101,2	813,100,2	815,99,2	817,98,2	819,97,2	821,96,2	823,95,2	825,94,2	827,93,2	829,92,2	831,91,2	833,90,2	835,89,2	837,88,2	839,87,2	841,86,2	843,85,2	845,84,2	847,83,2	849,82,2	851,81,2	853,80,2	855,79,2	857,78,2	859,77,2	861,76,2	863,75,2	865,74,2	867,73,2	869,72,2	871,71,2	873,70,2	875,69,2	877,68,2	879,67,2	881,66,2	883,65,2	885,62,2	887,64,2	889,61,2	891,60,2	893,59,2	895,58,2	897,57,2	899,56,2	901,55,2	903,54,2	905,53,2	907,52,2	909,51,2	911,50,2	913,49,2	915,48,2	917,47,2	919,46,2	921,45,2	923,44,2	925,43,2	927,42,2	929,41,2	931,40,2	933,39,2	935,38,2	937,37,2	939,36,2	941,35,2	943,34,2	945,33,2	947,30,2	949,32,2	951,29,2	953,28,2	955,27,2	957,26,2	959,25,2	961,24,2	963,23,2	965,22,2	967,21,2	969,20,2	971,19,2	973,18,2	975,17,2	977,14,2	979,16,2	981,13,2	983,12,2	985,11,2	987,10,2	989,9,2	991,6,2	993,8,2	995,5,2	997,2,2	999,4,2	1001,501,1	


# Incoming



# Outgoing



