1412
# CPU
0,501,1	1,329,3	4,328,3	7,330,3	10,327,3	13,326,3	16,325,3	19,331,3	22,324,3	25,323,3	28,322,3	31,332,3	34,321,3	37,333,3	40,320,3	43,334,3	46,319,3	49,317,3	52,318,3	55,316,3	58,335,3	61,315,3	64,336,3	67,314,3	70,313,3	73,312,3	76,337,3	79,311,3	82,339,3	85,310,3	88,340,3	91,309,3	94,307,3	97,308,3	100,306,3	103,305,3	106,304,3	109,341,3	112,303,3	115,302,3	118,301,3	121,342,3	124,300,3	127,344,3	130,299,3	133,345,3	136,298,3	139,142,3	142,190,3	145,297,3	148,346,3	151,296,3	154,347,3	157,295,3	160,294,3	163,293,3	166,348,3	169,292,3	172,350,3	175,291,3	178,351,3	181,290,3	184,289,3	187,288,3	190,287,3	193,286,3	196,285,3	199,352,3	202,284,3	205,283,3	208,282,3	211,353,3	214,281,3	217,355,3	220,280,3	223,356,3	226,279,3	229,278,3	232,277,3	235,276,3	238,357,3	241,275,3	244,358,3	247,274,3	250,273,3	253,272,3	256,359,3	259,271,3	262,361,3	265,270,3	268,362,3	271,269,3	274,268,3	277,126,3	280,165,3	283,267,3	286,266,3	289,363,3	292,265,3	295,264,3	298,263,3	301,364,3	304,262,3	307,365,3	310,261,3	313,367,3	316,260,3	319,259,3	322,258,3	325,257,3	328,368,3	331,256,3	334,369,3	337,255,3	340,254,3	343,253,3	346,370,3	349,252,3	352,372,3	355,251,3	358,373,3	361,250,3	364,249,3	367,248,3	370,247,3	373,246,3	376,245,3	379,374,3	382,244,3	385,243,3	388,242,3	391,375,3	394,241,3	397,376,3	400,240,3	403,378,3	406,239,3	409,238,3	412,237,3	415,422,3	418,146,3	421,236,3	424,379,3	427,235,3	430,234,3	433,233,3	436,380,3	439,232,3	442,382,3	445,231,3	448,383,3	451,230,3	454,229,3	457,228,3	460,384,3	463,226,3	466,225,3	469,227,3	472,224,3	475,223,3	478,222,3	481,385,3	484,221,3	487,386,3	490,220,3	493,387,3	496,219,3	499,218,3	502,217,3	505,388,3	508,216,3	511,215,3	514,390,3	517,214,3	520,213,3	523,212,3	526,391,3	529,211,3	532,392,3	535,210,3	538,393,3	541,209,3	544,208,3	547,207,3	550,395,3	553,67,3	556,125,3	559,206,3	562,205,3	565,204,3	568,203,3	571,396,3	574,202,3	577,397,3	580,201,3	583,398,3	586,200,3	589,199,3	592,198,3	595,399,3	598,197,3	601,196,3	604,401,3	607,195,3	610,194,3	613,193,3	616,402,3	619,192,3	622,403,3	625,191,3	628,404,3	631,189,3	634,188,3	637,187,3	640,406,3	643,186,3	646,184,3	649,185,3	652,183,3	655,182,3	658,181,3	661,407,3	664,180,3	667,408,3	670,179,3	673,409,3	676,178,3	679,177,3	682,176,3	685,411,3	688,175,3	691,78,3	694,105,3	697,421,3	700,420,3	703,419,3	706,423,3	709,418,3	712,424,3	715,417,3	718,425,3	721,415,3	724,414,3	727,413,3	730,426,3	733,412,3	736,174,3	739,427,3	742,173,3	745,172,3	748,171,3	751,428,3	754,170,3	757,429,3	760,168,3	763,430,3	766,167,3	769,166,3	772,164,3	775,431,3	778,163,3	781,162,3	784,432,3	787,161,3	790,160,3	793,159,3	796,433,3	799,157,3	802,434,3	805,156,3	808,435,3	811,155,3	814,154,3	817,153,3	820,436,3	823,152,3	826,151,3	829,49,3	832,123,3	835,437,3	838,150,3	841,438,3	844,149,3	847,439,3	850,148,3	853,440,3	856,145,3	859,144,3	862,143,3	865,441,3	868,141,3	871,140,3	874,139,3	877,442,3	880,138,3	883,137,3	886,443,3	889,136,3	892,444,3	895,134,3	898,445,3	901,133,3	904,132,3	907,131,3	910,446,3	913,130,3	916,129,3	919,128,3	922,447,3	925,127,3	928,124,3	931,448,3	934,121,3	937,449,3	940,120,3	943,450,3	946,119,3	949,118,3	952,117,3	955,451,3	958,116,3	961,115,3	964,114,3	967,53,3	970,467,3	973,113,3	976,452,3	979,112,3	982,453,3	985,111,3	988,454,3	991,110,3	994,108,3	997,107,3	1000,455,3	1003,106,3	1006,104,3	1009,103,3	1012,456,3	1015,102,3	1018,101,3	1021,457,3	1024,100,3	1027,458,3	1030,99,3	1033,459,3	1036,98,3	1039,96,3	1042,95,3	1045,460,3	1048,94,3	1051,85,3	1054,84,3	1057,86,3	1060,82,3	1063,81,3	1066,83,3	1069,80,3	1072,87,3	1075,79,3	1078,88,3	1081,77,3	1084,76,3	1087,75,3	1090,89,3	1093,74,3	1096,91,3	1099,73,3	1102,92,3	1105,50,3	1108,42,3	1111,72,3	1114,71,3	1117,93,3	1120,70,3	1123,461,3	1126,69,3	1129,68,3	1132,66,3	1135,463,3	1138,65,3	1141,464,3	1144,64,3	1147,465,3	1150,63,3	1153,61,3	1156,62,3	1159,60,3	1162,466,3	1165,59,3	1168,468,3	1171,58,3	1174,57,3	1177,56,3	1180,470,3	1183,55,3	1186,471,3	1189,54,3	1192,472,3	1195,52,3	1198,48,3	1201,51,3	1204,47,3	1207,473,3	1210,46,3	1213,474,3	1216,45,3	1219,44,3	1222,43,3	1225,475,3	1228,41,3	1231,485,3	1234,484,3	1237,486,3	1240,483,3	1243,489,3	1246,23,3	1249,482,3	1252,481,3	1255,480,3	1258,487,3	1261,479,3	1264,478,3	1267,40,3	1270,488,3	1273,39,3	1276,38,3	1279,37,3	1282,490,3	1285,36,3	1288,35,3	1291,491,3	1294,34,3	1297,33,3	1300,32,3	1303,492,3	1306,30,3	1309,29,3	1312,28,3	1315,493,3	1318,27,3	1321,17,3	1324,16,3	1327,18,3	1330,15,3	1333,19,3	1336,14,3	1339,13,3	1342,20,3	1345,12,3	1348,21,3	1351,11,3	1354,24,3	1357,10,3	1360,25,3	1363,9,3	1366,1,3	1369,2,3	1372,3,3	1375,4,3	1378,5,3	1381,8,3	1384,7,3	1387,6,3	1390,26,3	1393,494,3	1396,495,3	1399,497,3	1402,498,3	1405,499,3	1408,500,3	1411,0,1	
47,338,3	231,360,3	277,366,3	369,377,3	415,381,3	783,158,3	921,122,3	967,109,3	1059,90,3	1381,496,3	
139,349,3	323,371,3	461,389,3	553,400,3	691,416,3	829,147,3	1013,97,3	1151,469,3	1197,477,3	
93,343,3	185,354,3	507,394,3	599,405,3	645,410,3	737,169,3	875,135,3	1105,462,3	1243,476,3	1289,31,3	1335,22,3	
# Incoming
50,(338, 0),2	96,(343, 0),2	142,(349, 0),2	188,(354, 0),2	234,(360, 0),2	280,(366, 0),2	326,(371, 0),2	372,(377, 0),2	418,(381, 0),2	464,(389, 0),2	510,(394, 0),2	556,(400, 0),2	602,(405, 0),2	648,(410, 0),2	694,(416, 0),2	740,(169, 0),2	786,(158, 0),2	832,(147, 0),2	878,(135, 0),2	924,(122, 0),2	970,(109, 0),2	1016,(97, 0),2	1062,(90, 0),2	1108,(462, 0),2	1154,(469, 0),2	1200,(477, 0),2	1246,(476, 0),2	1292,(31, 0),2	1338,(22, 0),2	1384,(496, 0),2	
1,(501, 338),46	185,(501, 360),46	231,(501, 366),46	323,(501, 377),46	369,(501, 381),46	737,(501, 158),46	875,(501, 122),46	921,(501, 109),46	1013,(501, 90),46	1335,(501, 496),46	
93,(501, 349),46	277,(501, 371),46	415,(501, 389),46	507,(501, 400),46	645,(501, 416),46	783,(501, 147),46	967,(501, 97),46	1105,(501, 469),46	1151,(501, 477),46	
47,(501, 343),46	139,(501, 354),46	461,(501, 394),46	553,(501, 405),46	599,(501, 410),46	691,(501, 169),46	829,(501, 135),46	1059,(501, 462),46	1197,(501, 476),46	1243,(501, 31),46	1289,(501, 22),46	
# Outgoing
1,(501, 338),46	47,(501, 343),46	93,(501, 349),46	139,(501, 354),46	185,(501, 360),46	231,(501, 366),46	277,(501, 371),46	323,(501, 377),46	369,(501, 381),46	415,(501, 389),46	461,(501, 394),46	507,(501, 400),46	553,(501, 405),46	599,(501, 410),46	645,(501, 416),46	691,(501, 169),46	737,(501, 158),46	783,(501, 147),46	829,(501, 135),46	875,(501, 122),46	921,(501, 109),46	967,(501, 97),46	1013,(501, 90),46	1059,(501, 462),46	1105,(501, 469),46	1151,(501, 477),46	1197,(501, 476),46	1243,(501, 31),46	1289,(501, 22),46	1335,(501, 496),46	
50,(338, 0),2	234,(360, 0),2	280,(366, 0),2	372,(377, 0),2	418,(381, 0),2	786,(158, 0),2	924,(122, 0),2	970,(109, 0),2	1062,(90, 0),2	1384,(496, 0),2	
142,(349, 0),2	326,(371, 0),2	464,(389, 0),2	556,(400, 0),2	694,(416, 0),2	832,(147, 0),2	1016,(97, 0),2	1154,(469, 0),2	1200,(477, 0),2	
96,(343, 0),2	188,(354, 0),2	510,(394, 0),2	602,(405, 0),2	648,(410, 0),2	740,(169, 0),2	878,(135, 0),2	1108,(462, 0),2	1246,(476, 0),2	1292,(31, 0),2	1338,(22, 0),2	
