1012
# CPU
0,501,1	1,329,2	3,328,2	5,330,2	7,327,2	9,326,2	11,325,2	13,331,2	15,324,2	17,323,2	19,322,2	21,332,2	23,321,2	25,333,2	27,320,2	29,334,2	31,319,2	33,318,2	35,317,2	37,335,2	39,316,2	41,336,2	43,315,2	45,337,2	47,314,2	49,313,2	51,312,2	53,338,2	55,311,2	57,339,2	59,310,2	61,340,2	63,309,2	65,308,2	67,307,2	69,341,2	71,306,2	73,305,2	75,304,2	77,342,2	79,303,2	81,302,2	83,301,2	85,343,2	87,300,2	89,344,2	91,299,2	93,345,2	95,298,2	97,297,2	99,296,2	101,346,2	103,295,2	105,347,2	107,294,2	109,348,2	111,293,2	113,292,2	115,291,2	117,349,2	119,290,2	121,350,2	123,289,2	125,351,2	127,288,2	129,287,2	131,286,2	133,352,2	135,285,2	137,284,2	139,283,2	141,353,2	143,282,2	145,281,2	147,280,2	149,354,2	151,279,2	153,355,2	155,278,2	157,356,2	159,277,2	161,276,2	163,275,2	165,357,2	167,274,2	169,358,2	171,273,2	173,359,2	175,272,2	177,271,2	179,270,2	181,360,2	183,269,2	185,361,2	187,268,2	189,362,2	191,267,2	193,266,2	195,265,2	197,363,2	199,264,2	201,263,2	203,262,2	205,364,2	207,261,2	209,260,2	211,259,2	213,365,2	215,258,2	217,366,2	219,257,2	221,367,2	223,256,2	225,255,2	227,254,2	229,368,2	231,253,2	233,369,2	235,252,2	237,370,2	239,251,2	241,250,2	243,249,2	245,371,2	247,248,2	249,372,2	251,247,2	253,373,2	255,246,2	257,245,2	259,244,2	261,374,2	263,243,2	265,242,2	267,241,2	269,375,2	271,240,2	273,239,2	275,238,2	277,376,2	279,237,2	281,377,2	283,236,2	285,378,2	287,235,2	289,234,2	291,233,2	293,379,2	295,232,2	297,380,2	299,231,2	301,381,2	303,230,2	305,229,2	307,228,2	309,382,2	311,227,2	313,383,2	315,226,2	317,384,2	319,225,2	321,224,2	323,223,2	325,114,2	327,138,2	329,222,2	331,385,2	333,221,2	335,220,2	337,219,2	339,386,2	341,218,2	343,387,2	345,217,2	347,388,2	349,216,2	351,215,2	353,214,2	355,389,2	357,213,2	359,391,2	361,212,2	363,392,2	365,211,2	367,210,2	369,209,2	371,393,2	373,208,2	375,394,2	377,207,2	379,395,2	381,206,2	383,205,2	385,204,2	387,396,2	389,203,2	391,202,2	393,201,2	395,397,2	397,200,2	399,199,2	401,198,2	403,398,2	405,197,2	407,399,2	409,196,2	411,400,2	413,195,2	415,194,2	417,193,2	419,401,2	421,192,2	423,402,2	425,191,2	427,403,2	429,190,2	431,189,2	433,188,2	435,404,2	437,187,2	439,405,2	441,186,2	443,406,2	445,185,2	447,184,2	449,183,2	451,407,2	453,182,2	455,181,2	457,180,2	459,408,2	461,179,2	463,178,2	465,177,2	467,409,2	469,176,2	471,410,2	473,175,2	475,411,2	477,174,2	479,173,2	481,172,2	483,412,2	485,171,2	487,421,2	489,420,2	491,422,2	493,419,2	495,418,2	497,417,2	499,423,2	501,416,2	503,424,2	505,415,2	507,425,2	509,414,2	511,413,2	513,170,2	515,426,2	517,169,2	519,168,2	521,167,2	523,427,2	525,166,2	527,165,2	529,164,2	531,428,2	533,163,2	535,429,2	537,162,2	539,430,2	541,161,2	543,160,2	545,159,2	547,431,2	549,158,2	551,157,2	553,156,2	555,432,2	557,155,2	559,154,2	561,153,2	563,433,2	565,152,2	567,434,2	569,151,2	571,435,2	573,150,2	575,149,2	577,148,2	579,436,2	581,147,2	583,146,2	585,145,2	587,437,2	589,144,2	591,143,2	593,142,2	595,438,2	597,141,2	599,439,2	601,140,2	603,440,2	605,139,2	607,137,2	609,136,2	611,441,2	613,135,2	615,134,2	617,133,2	619,442,2	621,132,2	623,131,2	625,130,2	627,443,2	629,129,2	631,444,2	633,128,2	635,445,2	637,127,2	639,126,2	641,125,2	643,446,2	645,124,2	647,123,2	649,469,2	651,462,2	653,121,2	655,120,2	657,122,2	659,119,2	661,447,2	663,118,2	665,448,2	667,117,2	669,115,2	671,113,2	673,449,2	675,112,2	677,111,2	679,110,2	681,450,2	683,109,2	685,108,2	687,107,2	689,451,2	691,106,2	693,452,2	695,105,2	697,453,2	699,104,2	701,103,2	703,102,2	705,454,2	707,101,2	709,100,2	711,99,2	713,455,2	715,98,2	717,97,2	719,96,2	721,456,2	723,95,2	725,457,2	727,94,2	729,458,2	731,93,2	733,92,2	735,91,2	737,459,2	739,90,2	741,81,2	743,80,2	745,82,2	747,79,2	749,78,2	751,77,2	753,83,2	755,76,2	757,84,2	759,75,2	761,85,2	763,74,2	765,73,2	767,72,2	769,86,2	771,71,2	773,87,2	775,70,2	777,88,2	779,69,2	781,68,2	783,67,2	785,89,2	787,66,2	789,460,2	791,65,2	793,461,2	795,64,2	797,63,2	799,62,2	801,463,2	803,61,2	805,464,2	807,60,2	809,465,2	811,59,2	813,58,2	815,57,2	817,466,2	819,56,2	821,467,2	823,55,2	825,468,2	827,54,2	829,53,2	831,52,2	833,470,2	835,51,2	837,471,2	839,50,2	841,472,2	843,49,2	845,48,2	847,47,2	849,473,2	851,46,2	853,474,2	855,45,2	857,475,2	859,44,2	861,43,2	863,42,2	865,476,2	867,41,2	869,485,2	871,484,2	873,486,2	875,483,2	877,482,2	879,481,2	881,487,2	883,480,2	885,479,2	887,478,2	889,488,2	891,477,2	893,40,2	895,39,2	897,489,2	899,38,2	901,37,2	903,36,2	905,490,2	907,35,2	909,34,2	911,33,2	913,491,2	915,32,2	917,31,2	919,30,2	921,492,2	923,29,2	925,28,2	927,27,2	929,493,2	931,26,2	933,17,2	935,16,2	937,18,2	939,15,2	941,19,2	943,14,2	945,20,2	947,13,2	949,21,2	951,12,2	953,22,2	955,11,2	957,23,2	959,10,2	961,24,2	963,9,2	965,1,2	967,2,2	969,3,2	971,4,2	973,5,2	975,6,2	977,7,2	979,8,2	981,25,2	983,494,2	985,496,2	987,497,2	989,498,2	991,499,2	993,500,2	1011,0,1	
649,116,2	
325,390,2	973,495,2	
# Incoming
327,(390, 0),36	651,(116, 0),36	975,(495, 0),36	
325,(501, 116),324	
1,(501, 390),324	649,(501, 495),324	
# Outgoing
1,(501, 390),324	325,(501, 116),324	649,(501, 495),324	
651,(116, 0),36	
327,(390, 0),36	975,(495, 0),36	
