483
# CPU
0,501,1	1,500,1	2,328,1	3,329,1	4,327,1	5,326,1	6,325,1	7,330,1	8,324,1	9,323,1	10,322,1	11,331,1	12,321,1	13,332,1	14,320,1	15,333,1	16,319,1	17,318,1	18,317,1	19,334,1	20,316,1	21,335,1	22,315,1	23,336,1	24,314,1	25,313,1	26,312,1	27,337,1	28,338,1	29,310,1	30,339,1	31,309,1	32,308,1	33,307,1	34,340,1	35,306,1	36,305,1	37,304,1	38,341,1	39,303,1	40,302,1	41,301,1	42,342,1	43,300,1	44,343,1	45,299,1	46,344,1	47,298,1	48,297,1	49,296,1	50,345,1	51,295,1	52,294,1	53,347,1	54,293,1	55,292,1	56,291,1	57,348,1	58,290,1	59,349,1	60,289,1	61,350,1	62,288,1	63,287,1	64,286,1	65,351,1	66,285,1	67,284,1	68,283,1	69,352,1	70,282,1	71,281,1	72,280,1	73,353,1	74,279,1	75,354,1	76,355,1	77,277,1	78,276,1	79,275,1	80,356,1	81,274,1	82,357,1	83,273,1	84,358,1	85,272,1	86,271,1	87,270,1	88,359,1	89,269,1	90,360,1	91,268,1	92,361,1	93,267,1	94,266,1	95,265,1	96,362,1	97,264,1	98,263,1	99,262,1	100,261,1	101,260,1	102,259,1	103,364,1	104,258,1	105,365,1	106,257,1	107,366,1	108,256,1	109,255,1	110,254,1	111,367,1	112,253,1	113,368,1	114,252,1	115,369,1	116,251,1	117,250,1	118,249,1	119,370,1	120,248,1	121,371,1	122,247,1	123,372,1	124,245,1	125,244,1	126,373,1	127,243,1	128,242,1	129,241,1	130,374,1	131,240,1	132,239,1	133,238,1	134,375,1	135,237,1	136,376,1	137,236,1	138,377,1	139,235,1	140,234,1	141,233,1	142,378,1	143,232,1	144,379,1	145,231,1	146,380,1	147,230,1	148,228,1	149,381,1	150,227,1	151,382,1	152,226,1	153,383,1	154,225,1	155,224,1	156,223,1	157,384,1	158,222,1	159,221,1	160,220,1	161,385,1	162,219,1	163,218,1	164,217,1	165,386,1	166,216,1	167,387,1	168,215,1	169,388,1	170,214,1	171,213,1	172,389,1	173,211,1	174,390,1	175,210,1	176,391,1	177,209,1	178,208,1	179,207,1	180,392,1	181,206,1	182,393,1	183,205,1	184,394,1	185,204,1	186,203,1	187,202,1	188,395,1	189,201,1	190,200,1	191,199,1	192,396,1	193,198,1	194,197,1	195,196,1	196,195,1	197,398,1	198,194,1	199,399,1	200,193,1	201,192,1	202,191,1	203,400,1	204,190,1	205,401,1	206,189,1	207,402,1	208,188,1	209,187,1	210,186,1	211,403,1	212,185,1	213,404,1	214,184,1	215,405,1	216,183,1	217,182,1	218,181,1	219,406,1	220,179,1	221,178,1	222,407,1	223,177,1	224,176,1	225,175,1	226,408,1	227,174,1	228,409,1	229,173,1	230,410,1	231,172,1	232,171,1	233,170,1	234,411,1	235,169,1	236,420,1	237,419,1	238,421,1	239,418,1	240,417,1	241,416,1	242,422,1	243,415,1	244,414,1	245,424,1	246,413,1	247,412,1	248,168,1	249,425,1	250,167,1	251,166,1	252,165,1	253,426,1	254,164,1	255,163,1	256,162,1	257,427,1	258,161,1	259,428,1	260,160,1	261,429,1	262,159,1	263,158,1	264,157,1	265,430,1	266,156,1	267,155,1	268,431,1	269,153,1	270,152,1	271,151,1	272,432,1	273,150,1	274,433,1	275,149,1	276,434,1	277,148,1	278,147,1	279,146,1	280,435,1	281,145,1	282,144,1	283,143,1	284,436,1	285,142,1	286,141,1	287,140,1	288,437,1	289,139,1	290,438,1	291,138,1	292,137,1	293,136,1	294,135,1	295,440,1	296,134,1	297,133,1	298,132,1	299,441,1	300,131,1	301,130,1	302,129,1	303,442,1	304,128,1	305,443,1	306,127,1	307,444,1	308,126,1	309,125,1	310,124,1	311,445,1	312,123,1	313,122,1	314,121,1	315,446,1	316,119,1	317,118,1	318,447,1	319,117,1	320,448,1	321,116,1	322,449,1	323,115,1	324,114,1	325,113,1	326,450,1	327,112,1	328,111,1	329,110,1	330,451,1	331,109,1	332,108,1	333,107,1	334,452,1	335,106,1	336,453,1	337,105,1	338,454,1	339,104,1	340,102,1	341,455,1	342,101,1	343,100,1	344,99,1	345,456,1	346,98,1	347,97,1	348,96,1	349,457,1	350,95,1	351,458,1	352,94,1	353,459,1	354,93,1	355,92,1	356,91,1	357,460,1	358,90,1	359,81,1	360,80,1	361,82,1	362,79,1	363,78,1	364,83,1	365,76,1	366,84,1	367,75,1	368,85,1	369,74,1	370,73,1	371,72,1	372,86,1	373,71,1	374,87,1	375,70,1	376,88,1	377,69,1	378,68,1	379,67,1	380,89,1	381,66,1	382,461,1	383,65,1	384,462,1	385,64,1	386,63,1	387,62,1	388,61,1	389,464,1	390,60,1	391,465,1	392,59,1	393,58,1	394,57,1	395,466,1	396,56,1	397,467,1	398,55,1	399,468,1	400,54,1	401,53,1	402,52,1	403,469,1	404,51,1	405,470,1	406,50,1	407,471,1	408,49,1	409,48,1	410,47,1	411,472,1	412,473,1	413,45,1	414,474,1	415,44,1	416,43,1	417,42,1	418,475,1	419,41,1	420,484,1	421,483,1	422,485,1	423,482,1	424,481,1	425,480,1	426,486,1	427,479,1	428,478,1	429,477,1	430,487,1	431,476,1	432,40,1	433,39,1	434,488,1	435,38,1	436,36,1	437,489,1	438,35,1	439,34,1	440,33,1	441,490,1	442,32,1	443,31,1	444,30,1	445,491,1	446,29,1	447,28,1	448,27,1	449,492,1	450,26,1	451,17,1	452,16,1	453,18,1	454,15,1	455,19,1	456,14,1	457,20,1	458,13,1	459,21,1	460,22,1	461,11,1	462,23,1	463,10,1	464,24,1	465,9,1	466,1,1	467,2,1	468,3,1	469,4,1	470,5,1	471,6,1	472,7,1	473,8,1	474,25,1	475,493,1	476,494,1	477,495,1	478,496,1	479,497,1	480,498,1	481,499,1	482,0,1	
3,311,1	5,346,1	7,278,1	9,363,1	11,246,1	13,229,1	15,212,1	17,397,1	19,180,1	21,423,1	23,154,1	25,439,1	27,120,1	29,103,1	31,77,1	33,463,1	35,46,1	37,37,1	39,12,1	
# Incoming
4,(311, 0),24	28,(346, 0),24	52,(278, 0),24	76,(363, 0),24	100,(246, 0),24	124,(229, 0),24	148,(212, 0),24	172,(397, 0),24	196,(180, 0),24	220,(423, 0),24	244,(154, 0),24	268,(439, 0),24	292,(120, 0),24	316,(103, 0),24	340,(77, 0),24	364,(463, 0),24	388,(46, 0),24	412,(37, 0),24	436,(12, 0),24	
1,(501, 311),2	3,(501, 346),2	5,(501, 278),2	7,(501, 363),2	9,(501, 246),2	11,(501, 229),2	13,(501, 212),2	15,(501, 397),2	17,(501, 180),2	19,(501, 423),2	21,(501, 154),2	23,(501, 439),2	25,(501, 120),2	27,(501, 103),2	29,(501, 77),2	31,(501, 463),2	33,(501, 46),2	35,(501, 37),2	37,(501, 12),2	
# Outgoing
1,(501, 311),2	3,(501, 346),2	5,(501, 278),2	7,(501, 363),2	9,(501, 246),2	11,(501, 229),2	13,(501, 212),2	15,(501, 397),2	17,(501, 180),2	19,(501, 423),2	21,(501, 154),2	23,(501, 439),2	25,(501, 120),2	27,(501, 103),2	29,(501, 77),2	31,(501, 463),2	33,(501, 46),2	35,(501, 37),2	37,(501, 12),2	
4,(311, 0),24	28,(346, 0),24	52,(278, 0),24	76,(363, 0),24	100,(246, 0),24	124,(229, 0),24	148,(212, 0),24	172,(397, 0),24	196,(180, 0),24	220,(423, 0),24	244,(154, 0),24	268,(439, 0),24	292,(120, 0),24	316,(103, 0),24	340,(77, 0),24	364,(463, 0),24	388,(46, 0),24	412,(37, 0),24	436,(12, 0),24	
