926
# CPU
0,0,1	1,329,2	3,328,2	5,330,2	7,327,2	9,326,2	11,325,2	13,331,2	15,324,2	17,323,2	19,322,2	21,332,2	23,321,2	25,414,2	27,203,2	29,320,2	31,319,2	33,318,2	35,333,2	37,317,2	39,334,2	41,316,2	43,335,2	45,315,2	47,314,2	49,399,2	51,199,2	53,313,2	55,312,2	57,336,2	59,311,2	61,310,2	63,309,2	65,338,2	67,308,2	69,307,2	71,306,2	73,439,2	75,193,2	77,304,2	79,305,2	81,303,2	83,339,2	85,302,2	87,341,2	89,301,2	91,300,2	93,299,2	95,342,2	97,47,2	99,408,2	101,298,2	103,297,2	105,296,2	107,295,2	109,343,2	111,294,2	113,345,2	115,293,2	117,346,2	119,292,2	121,461,2	123,410,2	125,289,2	127,288,2	129,287,2	131,290,2	133,286,2	135,285,2	137,284,2	139,291,2	141,283,2	143,347,2	145,472,2	147,147,2	149,281,2	151,280,2	153,282,2	155,279,2	157,348,2	159,278,2	161,350,2	163,277,2	165,276,2	167,275,2	169,43,2	171,415,2	173,274,2	175,352,2	177,273,2	179,272,2	181,271,2	183,353,2	185,270,2	187,269,2	189,268,2	191,355,2	193,165,2	195,164,2	197,267,2	199,266,2	201,356,2	203,265,2	205,357,2	207,264,2	209,263,2	211,262,2	213,359,2	215,261,2	217,94,2	219,160,2	221,360,2	223,260,2	225,259,2	227,362,2	229,258,2	231,363,2	233,257,2	235,364,2	237,256,2	239,255,2	241,140,2	243,156,2	245,254,2	247,253,2	249,366,2	251,252,2	253,251,2	255,250,2	257,367,2	259,249,2	261,368,2	263,248,2	265,151,2	267,150,2	269,247,2	271,369,2	273,246,2	275,371,2	277,245,2	279,372,2	281,244,2	283,243,2	285,242,2	287,373,2	289,36,2	291,215,2	293,375,2	295,241,2	297,240,2	299,239,2	301,376,2	303,238,2	305,237,2	307,236,2	309,377,2	311,235,2	313,51,2	315,141,2	317,234,2	319,379,2	321,233,2	323,380,2	325,232,2	327,231,2	329,230,2	331,381,2	333,229,2	335,382,2	337,209,2	339,134,2	341,228,2	343,227,2	345,384,2	347,226,2	349,385,2	351,225,2	353,386,2	355,224,2	357,223,2	359,222,2	361,433,2	363,129,2	365,220,2	367,221,2	369,219,2	371,218,2	373,217,2	375,388,2	377,216,2	379,389,2	381,214,2	383,391,2	385,481,2	387,124,2	389,212,2	391,211,2	393,213,2	395,210,2	397,392,2	399,208,2	401,207,2	403,206,2	405,393,2	407,205,2	409,195,2	411,119,2	413,395,2	415,204,2	417,202,2	419,396,2	421,201,2	423,200,2	425,198,2	427,397,2	429,197,2	431,196,2	433,465,2	435,451,2	437,192,2	439,191,2	441,194,2	443,190,2	445,189,2	447,188,2	449,400,2	451,187,2	453,412,2	455,411,2	457,126,2	459,108,2	461,413,2	463,416,2	465,409,2	467,417,2	469,407,2	471,418,2	473,406,2	475,405,2	477,403,2	479,419,2	481,35,2	483,447,2	485,401,2	487,186,2	489,185,2	491,184,2	493,420,2	495,183,2	497,421,2	499,181,2	501,422,2	503,180,2	505,57,2	507,450,2	509,179,2	511,178,2	513,177,2	515,423,2	517,176,2	519,175,2	521,174,2	523,424,2	525,172,2	527,425,2	529,58,2	531,101,2	533,426,2	535,171,2	537,427,2	539,170,2	541,169,2	543,168,2	545,428,2	547,167,2	549,163,2	551,162,2	553,91,2	555,96,2	557,430,2	559,431,2	561,429,2	563,161,2	565,159,2	567,432,2	569,158,2	571,157,2	573,154,2	575,434,2	577,21,2	579,77,2	581,435,2	583,153,2	585,436,2	587,152,2	589,437,2	591,149,2	593,148,2	595,146,2	597,438,2	599,144,2	601,130,2	603,459,2	605,143,2	607,142,2	609,139,2	611,440,2	613,138,2	615,441,2	617,136,2	619,442,2	621,135,2	623,133,2	625,463,2	627,80,2	629,132,2	631,131,2	633,443,2	635,128,2	637,127,2	639,125,2	641,444,2	643,122,2	645,445,2	647,121,2	649,464,2	651,73,2	653,120,2	655,446,2	657,118,2	659,117,2	661,116,2	663,448,2	665,115,2	667,113,2	669,112,2	671,449,2	673,104,2	675,67,2	677,453,2	679,452,2	681,111,2	683,110,2	685,454,2	687,109,2	689,95,2	691,93,2	693,97,2	695,92,2	697,483,2	699,61,2	701,89,2	703,90,2	705,88,2	707,98,2	709,87,2	711,86,2	713,85,2	715,99,2	717,84,2	719,100,2	721,17,2	723,41,2	725,83,2	727,82,2	729,103,2	731,81,2	733,105,2	735,79,2	737,106,2	739,78,2	741,76,2	743,75,2	745,10,2	747,45,2	749,455,2	751,456,2	753,74,2	755,72,2	757,71,2	759,458,2	761,70,2	763,460,2	765,69,2	767,462,2	769,473,2	771,38,2	773,66,2	775,65,2	777,68,2	779,64,2	781,467,2	783,63,2	785,62,2	787,60,2	789,468,2	791,59,2	793,11,2	795,32,2	797,470,2	799,56,2	801,55,2	803,471,2	805,54,2	807,485,2	809,484,2	811,486,2	813,482,2	815,480,2	817,491,2	819,27,2	821,479,2	823,478,2	825,487,2	827,477,2	829,476,2	831,474,2	833,488,2	835,52,2	837,50,2	839,49,2	841,496,2	843,26,2	845,48,2	847,489,2	849,46,2	851,44,2	853,42,2	855,490,2	857,40,2	859,37,2	861,34,2	863,492,2	865,493,2	867,30,2	869,19,2	871,18,2	873,20,2	875,16,2	877,22,2	879,15,2	881,23,2	883,14,2	885,24,2	887,13,2	889,12,2	891,7,2	893,25,2	895,1,2	897,2,2	899,3,2	901,4,2	903,5,2	905,6,2	907,8,2	909,9,2	911,29,2	913,33,2	915,31,2	917,495,2	919,497,2	921,498,2	923,500,2	925,501,1	
73,344,2	145,354,2	313,383,2	457,404,2	721,457,2	817,53,2	865,28,2	889,494,2	
385,394,2	529,166,2	601,137,2	745,466,2	
97,349,2	169,358,2	241,370,2	
25,337,2	409,398,2	481,182,2	673,107,2	
193,361,2	265,374,2	337,387,2	553,155,2	769,469,2	
49,340,2	121,351,2	625,123,2	841,39,2	913,499,2	
361,390,2	505,173,2	697,102,2	793,475,2	
433,402,2	577,145,2	
217,365,2	289,378,2	649,114,2	
# Incoming
27,(337, 501),4	51,(340, 501),4	75,(344, 501),4	99,(349, 501),4	123,(351, 501),4	147,(354, 501),4	171,(358, 501),4	195,(361, 501),4	219,(365, 501),4	243,(370, 501),4	267,(374, 501),4	291,(378, 501),4	315,(383, 501),4	339,(387, 501),4	363,(390, 501),4	387,(394, 501),4	411,(398, 501),4	435,(402, 501),4	459,(404, 501),4	483,(182, 501),4	507,(173, 501),4	531,(166, 501),4	555,(155, 501),4	579,(145, 501),4	603,(137, 501),4	627,(123, 501),4	651,(114, 501),4	675,(107, 501),4	699,(102, 501),4	723,(457, 501),4	747,(466, 501),4	771,(469, 501),4	795,(475, 501),4	819,(53, 501),4	843,(39, 501),4	867,(28, 501),4	891,(494, 501),4	915,(499, 501),4	
49,(0, 344),24	121,(0, 354),24	289,(0, 383),24	433,(0, 404),24	697,(0, 457),24	793,(0, 53),24	841,(0, 28),24	865,(0, 494),24	
361,(0, 394),24	505,(0, 166),24	577,(0, 137),24	721,(0, 466),24	
73,(0, 349),24	145,(0, 358),24	217,(0, 370),24	
1,(0, 337),24	385,(0, 398),24	457,(0, 182),24	649,(0, 107),24	
169,(0, 361),24	241,(0, 374),24	313,(0, 387),24	529,(0, 155),24	745,(0, 469),24	
25,(0, 340),24	97,(0, 351),24	601,(0, 123),24	817,(0, 39),24	889,(0, 499),24	
337,(0, 390),24	481,(0, 173),24	673,(0, 102),24	769,(0, 475),24	
409,(0, 402),24	553,(0, 145),24	
193,(0, 365),24	265,(0, 378),24	625,(0, 114),24	
# Outgoing
1,(0, 337),24	25,(0, 340),24	49,(0, 344),24	73,(0, 349),24	97,(0, 351),24	121,(0, 354),24	145,(0, 358),24	169,(0, 361),24	193,(0, 365),24	217,(0, 370),24	241,(0, 374),24	265,(0, 378),24	289,(0, 383),24	313,(0, 387),24	337,(0, 390),24	361,(0, 394),24	385,(0, 398),24	409,(0, 402),24	433,(0, 404),24	457,(0, 182),24	481,(0, 173),24	505,(0, 166),24	529,(0, 155),24	553,(0, 145),24	577,(0, 137),24	601,(0, 123),24	625,(0, 114),24	649,(0, 107),24	673,(0, 102),24	697,(0, 457),24	721,(0, 466),24	745,(0, 469),24	769,(0, 475),24	793,(0, 53),24	817,(0, 39),24	841,(0, 28),24	865,(0, 494),24	889,(0, 499),24	
75,(344, 501),4	147,(354, 501),4	315,(383, 501),4	459,(404, 501),4	723,(457, 501),4	819,(53, 501),4	867,(28, 501),4	891,(494, 501),4	
387,(394, 501),4	531,(166, 501),4	603,(137, 501),4	747,(466, 501),4	
99,(349, 501),4	171,(358, 501),4	243,(370, 501),4	
27,(337, 501),4	411,(398, 501),4	483,(182, 501),4	675,(107, 501),4	
195,(361, 501),4	267,(374, 501),4	339,(387, 501),4	555,(155, 501),4	771,(469, 501),4	
51,(340, 501),4	123,(351, 501),4	627,(123, 501),4	843,(39, 501),4	915,(499, 501),4	
363,(390, 501),4	507,(173, 501),4	699,(102, 501),4	795,(475, 501),4	
435,(402, 501),4	579,(145, 501),4	
219,(365, 501),4	291,(378, 501),4	651,(114, 501),4	
