2424
# CPU
25,5,19	49,10,19	73,15,19	97,20,19	121,25,19	145,30,19	169,35,19	193,40,19	217,45,19	241,50,19	265,55,19	289,60,19	313,65,19	337,70,19	361,75,19	385,80,19	409,85,19	433,90,19	457,95,19	481,100,19	505,105,19	529,110,19	553,115,19	577,120,19	601,125,19	625,130,19	649,135,19	673,140,19	697,145,19	721,150,19	745,155,19	769,160,19	793,165,19	817,170,19	841,175,19	865,180,19	889,185,19	913,190,19	937,195,19	961,200,19	985,205,19	1009,210,19	1033,215,19	1057,220,19	1081,225,19	1105,230,19	1129,235,19	1153,240,19	1177,245,19	1201,250,19	1225,255,19	1249,260,19	1273,265,19	1297,270,19	1321,275,19	1345,280,19	1369,285,19	1393,290,19	1417,295,19	1441,300,19	1465,305,19	1489,310,19	1513,315,19	1537,320,19	1561,325,19	1585,330,19	1609,335,19	1633,340,19	1657,345,19	1681,350,19	1705,355,19	1729,360,19	1753,365,19	1777,370,19	1801,375,19	1825,380,19	1849,385,19	1873,390,19	1897,395,19	1921,400,19	1945,405,19	1969,410,19	1993,415,19	2017,420,19	2041,425,19	2065,430,19	2089,435,19	2113,440,19	2137,445,19	2161,450,19	2185,455,19	2209,460,19	2233,465,19	2257,470,19	2281,475,19	2305,480,19	2329,485,19	2353,490,19	2377,495,19	2401,500,19	
19,4,19	43,9,19	67,14,19	91,19,19	115,24,19	139,29,19	163,34,19	187,39,19	211,44,19	235,49,19	259,54,19	283,59,19	307,64,19	331,69,19	355,74,19	379,79,19	403,84,19	427,89,19	451,94,19	475,99,19	499,104,19	523,109,19	547,114,19	571,119,19	595,124,19	619,129,19	643,134,19	667,139,19	691,144,19	715,149,19	739,154,19	763,159,19	787,164,19	811,169,19	835,174,19	859,179,19	883,184,19	907,189,19	931,194,19	955,199,19	979,204,19	1003,209,19	1027,214,19	1051,219,19	1075,224,19	1099,229,19	1123,234,19	1147,239,19	1171,244,19	1195,249,19	1219,254,19	1243,259,19	1267,264,19	1291,269,19	1315,274,19	1339,279,19	1363,284,19	1387,289,19	1411,294,19	1435,299,19	1459,304,19	1483,309,19	1507,314,19	1531,319,19	1555,324,19	1579,329,19	1603,334,19	1627,339,19	1651,344,19	1675,349,19	1699,354,19	1723,359,19	1747,364,19	1771,369,19	1795,374,19	1819,379,19	1843,384,19	1867,389,19	1891,394,19	1915,399,19	1939,404,19	1963,409,19	1987,414,19	2011,419,19	2035,424,19	2059,429,19	2083,434,19	2107,439,19	2131,444,19	2155,449,19	2179,454,19	2203,459,19	2227,464,19	2251,469,19	2275,474,19	2299,479,19	2323,484,19	2347,489,19	2371,494,19	2395,499,19	
13,3,19	37,8,19	61,13,19	85,18,19	109,23,19	133,28,19	157,33,19	181,38,19	205,43,19	229,48,19	253,53,19	277,58,19	301,63,19	325,68,19	349,73,19	373,78,19	397,83,19	421,88,19	445,93,19	469,98,19	493,103,19	517,108,19	541,113,19	565,118,19	589,123,19	613,128,19	637,133,19	661,138,19	685,143,19	709,148,19	733,153,19	757,158,19	781,163,19	805,168,19	829,173,19	853,178,19	877,183,19	901,188,19	925,193,19	949,198,19	973,203,19	997,208,19	1021,213,19	1045,218,19	1069,223,19	1093,228,19	1117,233,19	1141,238,19	1165,243,19	1189,248,19	1213,253,19	1237,258,19	1261,263,19	1285,268,19	1309,273,19	1333,278,19	1357,283,19	1381,288,19	1405,293,19	1429,298,19	1453,303,19	1477,308,19	1501,313,19	1525,318,19	1549,323,19	1573,328,19	1597,333,19	1621,338,19	1645,343,19	1669,348,19	1693,353,19	1717,358,19	1741,363,19	1765,368,19	1789,373,19	1813,378,19	1837,383,19	1861,388,19	1885,393,19	1909,398,19	1933,403,19	1957,408,19	1981,413,19	2005,418,19	2029,423,19	2053,428,19	2077,433,19	2101,438,19	2125,443,19	2149,448,19	2173,453,19	2197,458,19	2221,463,19	2245,468,19	2269,473,19	2293,478,19	2317,483,19	2341,488,19	2365,493,19	2389,498,19	
7,2,19	31,7,19	55,12,19	79,17,19	103,22,19	127,27,19	151,32,19	175,37,19	199,42,19	223,47,19	247,52,19	271,57,19	295,62,19	319,67,19	343,72,19	367,77,19	391,82,19	415,87,19	439,92,19	463,97,19	487,102,19	511,107,19	535,112,19	559,117,19	583,122,19	607,127,19	631,132,19	655,137,19	679,142,19	703,147,19	727,152,19	751,157,19	775,162,19	799,167,19	823,172,19	847,177,19	871,182,19	895,187,19	919,192,19	943,197,19	967,202,19	991,207,19	1015,212,19	1039,217,19	1063,222,19	1087,227,19	1111,232,19	1135,237,19	1159,242,19	1183,247,19	1207,252,19	1231,257,19	1255,262,19	1279,267,19	1303,272,19	1327,277,19	1351,282,19	1375,287,19	1399,292,19	1423,297,19	1447,302,19	1471,307,19	1495,312,19	1519,317,19	1543,322,19	1567,327,19	1591,332,19	1615,337,19	1639,342,19	1663,347,19	1687,352,19	1711,357,19	1735,362,19	1759,367,19	1783,372,19	1807,377,19	1831,382,19	1855,387,19	1879,392,19	1903,397,19	1927,402,19	1951,407,19	1975,412,19	1999,417,19	2023,422,19	2047,427,19	2071,432,19	2095,437,19	2119,442,19	2143,447,19	2167,452,19	2191,457,19	2215,462,19	2239,467,19	2263,472,19	2287,477,19	2311,482,19	2335,487,19	2359,492,19	2383,497,19	
0,0,1	1,1,19	20,11,19	39,31,19	58,71,19	77,151,19	96,311,19	115,496,19	134,491,19	153,486,19	172,481,19	191,476,19	210,471,19	229,466,19	248,461,19	267,456,19	286,451,19	305,446,19	324,441,19	343,436,19	362,431,19	381,426,19	400,421,19	419,416,19	438,411,19	457,406,19	476,401,19	495,396,19	514,391,19	533,386,19	552,381,19	571,376,19	590,371,19	609,366,19	628,361,19	647,356,19	666,351,19	685,346,19	704,341,19	723,336,19	742,331,19	761,326,19	780,321,19	799,306,19	818,316,19	837,301,19	856,296,19	875,291,19	894,286,19	913,281,19	932,276,19	951,271,19	970,266,19	989,261,19	1008,256,19	1027,251,19	1046,246,19	1065,241,19	1084,236,19	1103,231,19	1122,226,19	1141,221,19	1160,216,19	1179,211,19	1198,206,19	1217,201,19	1236,196,19	1255,191,19	1274,186,19	1293,181,19	1312,176,19	1331,171,19	1350,166,19	1369,161,19	1388,146,19	1407,156,19	1426,141,19	1445,136,19	1464,131,19	1483,126,19	1502,121,19	1521,116,19	1540,111,19	1559,106,19	1578,101,19	1597,96,19	1616,91,19	1635,86,19	1654,81,19	1673,66,19	1692,76,19	1711,61,19	1730,56,19	1749,51,19	1768,46,19	1787,41,19	1806,26,19	1825,36,19	1844,21,19	1863,6,19	1882,16,19	2423,501,1	
# Incoming
19,(0, 5),6	43,(0, 10),6	67,(0, 15),6	91,(0, 20),6	115,(0, 25),6	139,(0, 30),6	163,(0, 35),6	187,(0, 40),6	211,(0, 45),6	235,(0, 50),6	259,(0, 55),6	283,(0, 60),6	307,(0, 65),6	331,(0, 70),6	355,(0, 75),6	379,(0, 80),6	403,(0, 85),6	427,(0, 90),6	451,(0, 95),6	475,(0, 100),6	499,(0, 105),6	523,(0, 110),6	547,(0, 115),6	571,(0, 120),6	595,(0, 125),6	619,(0, 130),6	643,(0, 135),6	667,(0, 140),6	691,(0, 145),6	715,(0, 150),6	739,(0, 155),6	763,(0, 160),6	787,(0, 165),6	811,(0, 170),6	835,(0, 175),6	859,(0, 180),6	883,(0, 185),6	907,(0, 190),6	931,(0, 195),6	955,(0, 200),6	979,(0, 205),6	1003,(0, 210),6	1027,(0, 215),6	1051,(0, 220),6	1075,(0, 225),6	1099,(0, 230),6	1123,(0, 235),6	1147,(0, 240),6	1171,(0, 245),6	1195,(0, 250),6	1219,(0, 255),6	1243,(0, 260),6	1267,(0, 265),6	1291,(0, 270),6	1315,(0, 275),6	1339,(0, 280),6	1363,(0, 285),6	1387,(0, 290),6	1411,(0, 295),6	1435,(0, 300),6	1459,(0, 305),6	1483,(0, 310),6	1507,(0, 315),6	1531,(0, 320),6	1555,(0, 325),6	1579,(0, 330),6	1603,(0, 335),6	1627,(0, 340),6	1651,(0, 345),6	1675,(0, 350),6	1699,(0, 355),6	1723,(0, 360),6	1747,(0, 365),6	1771,(0, 370),6	1795,(0, 375),6	1819,(0, 380),6	1843,(0, 385),6	1867,(0, 390),6	1891,(0, 395),6	1915,(0, 400),6	1939,(0, 405),6	1963,(0, 410),6	1987,(0, 415),6	2011,(0, 420),6	2035,(0, 425),6	2059,(0, 430),6	2083,(0, 435),6	2107,(0, 440),6	2131,(0, 445),6	2155,(0, 450),6	2179,(0, 455),6	2203,(0, 460),6	2227,(0, 465),6	2251,(0, 470),6	2275,(0, 475),6	2299,(0, 480),6	2323,(0, 485),6	2347,(0, 490),6	2371,(0, 495),6	2395,(0, 500),6	
13,(0, 4),6	37,(0, 9),6	61,(0, 14),6	85,(0, 19),6	109,(0, 24),6	133,(0, 29),6	157,(0, 34),6	181,(0, 39),6	205,(0, 44),6	229,(0, 49),6	253,(0, 54),6	277,(0, 59),6	301,(0, 64),6	325,(0, 69),6	349,(0, 74),6	373,(0, 79),6	397,(0, 84),6	421,(0, 89),6	445,(0, 94),6	469,(0, 99),6	493,(0, 104),6	517,(0, 109),6	541,(0, 114),6	565,(0, 119),6	589,(0, 124),6	613,(0, 129),6	637,(0, 134),6	661,(0, 139),6	685,(0, 144),6	709,(0, 149),6	733,(0, 154),6	757,(0, 159),6	781,(0, 164),6	805,(0, 169),6	829,(0, 174),6	853,(0, 179),6	877,(0, 184),6	901,(0, 189),6	925,(0, 194),6	949,(0, 199),6	973,(0, 204),6	997,(0, 209),6	1021,(0, 214),6	1045,(0, 219),6	1069,(0, 224),6	1093,(0, 229),6	1117,(0, 234),6	1141,(0, 239),6	1165,(0, 244),6	1189,(0, 249),6	1213,(0, 254),6	1237,(0, 259),6	1261,(0, 264),6	1285,(0, 269),6	1309,(0, 274),6	1333,(0, 279),6	1357,(0, 284),6	1381,(0, 289),6	1405,(0, 294),6	1429,(0, 299),6	1453,(0, 304),6	1477,(0, 309),6	1501,(0, 314),6	1525,(0, 319),6	1549,(0, 324),6	1573,(0, 329),6	1597,(0, 334),6	1621,(0, 339),6	1645,(0, 344),6	1669,(0, 349),6	1693,(0, 354),6	1717,(0, 359),6	1741,(0, 364),6	1765,(0, 369),6	1789,(0, 374),6	1813,(0, 379),6	1837,(0, 384),6	1861,(0, 389),6	1885,(0, 394),6	1909,(0, 399),6	1933,(0, 404),6	1957,(0, 409),6	1981,(0, 414),6	2005,(0, 419),6	2029,(0, 424),6	2053,(0, 429),6	2077,(0, 434),6	2101,(0, 439),6	2125,(0, 444),6	2149,(0, 449),6	2173,(0, 454),6	2197,(0, 459),6	2221,(0, 464),6	2245,(0, 469),6	2269,(0, 474),6	2293,(0, 479),6	2317,(0, 484),6	2341,(0, 489),6	2365,(0, 494),6	2389,(0, 499),6	
7,(0, 3),6	31,(0, 8),6	55,(0, 13),6	79,(0, 18),6	103,(0, 23),6	127,(0, 28),6	151,(0, 33),6	175,(0, 38),6	199,(0, 43),6	223,(0, 48),6	247,(0, 53),6	271,(0, 58),6	295,(0, 63),6	319,(0, 68),6	343,(0, 73),6	367,(0, 78),6	391,(0, 83),6	415,(0, 88),6	439,(0, 93),6	463,(0, 98),6	487,(0, 103),6	511,(0, 108),6	535,(0, 113),6	559,(0, 118),6	583,(0, 123),6	607,(0, 128),6	631,(0, 133),6	655,(0, 138),6	679,(0, 143),6	703,(0, 148),6	727,(0, 153),6	751,(0, 158),6	775,(0, 163),6	799,(0, 168),6	823,(0, 173),6	847,(0, 178),6	871,(0, 183),6	895,(0, 188),6	919,(0, 193),6	943,(0, 198),6	967,(0, 203),6	991,(0, 208),6	1015,(0, 213),6	1039,(0, 218),6	1063,(0, 223),6	1087,(0, 228),6	1111,(0, 233),6	1135,(0, 238),6	1159,(0, 243),6	1183,(0, 248),6	1207,(0, 253),6	1231,(0, 258),6	1255,(0, 263),6	1279,(0, 268),6	1303,(0, 273),6	1327,(0, 278),6	1351,(0, 283),6	1375,(0, 288),6	1399,(0, 293),6	1423,(0, 298),6	1447,(0, 303),6	1471,(0, 308),6	1495,(0, 313),6	1519,(0, 318),6	1543,(0, 323),6	1567,(0, 328),6	1591,(0, 333),6	1615,(0, 338),6	1639,(0, 343),6	1663,(0, 348),6	1687,(0, 353),6	1711,(0, 358),6	1735,(0, 363),6	1759,(0, 368),6	1783,(0, 373),6	1807,(0, 378),6	1831,(0, 383),6	1855,(0, 388),6	1879,(0, 393),6	1903,(0, 398),6	1927,(0, 403),6	1951,(0, 408),6	1975,(0, 413),6	1999,(0, 418),6	2023,(0, 423),6	2047,(0, 428),6	2071,(0, 433),6	2095,(0, 438),6	2119,(0, 443),6	2143,(0, 448),6	2167,(0, 453),6	2191,(0, 458),6	2215,(0, 463),6	2239,(0, 468),6	2263,(0, 473),6	2287,(0, 478),6	2311,(0, 483),6	2335,(0, 488),6	2359,(0, 493),6	2383,(0, 498),6	
1,(0, 2),6	25,(0, 7),6	49,(0, 12),6	73,(0, 17),6	97,(0, 22),6	121,(0, 27),6	145,(0, 32),6	169,(0, 37),6	193,(0, 42),6	217,(0, 47),6	241,(0, 52),6	265,(0, 57),6	289,(0, 62),6	313,(0, 67),6	337,(0, 72),6	361,(0, 77),6	385,(0, 82),6	409,(0, 87),6	433,(0, 92),6	457,(0, 97),6	481,(0, 102),6	505,(0, 107),6	529,(0, 112),6	553,(0, 117),6	577,(0, 122),6	601,(0, 127),6	625,(0, 132),6	649,(0, 137),6	673,(0, 142),6	697,(0, 147),6	721,(0, 152),6	745,(0, 157),6	769,(0, 162),6	793,(0, 167),6	817,(0, 172),6	841,(0, 177),6	865,(0, 182),6	889,(0, 187),6	913,(0, 192),6	937,(0, 197),6	961,(0, 202),6	985,(0, 207),6	1009,(0, 212),6	1033,(0, 217),6	1057,(0, 222),6	1081,(0, 227),6	1105,(0, 232),6	1129,(0, 237),6	1153,(0, 242),6	1177,(0, 247),6	1201,(0, 252),6	1225,(0, 257),6	1249,(0, 262),6	1273,(0, 267),6	1297,(0, 272),6	1321,(0, 277),6	1345,(0, 282),6	1369,(0, 287),6	1393,(0, 292),6	1417,(0, 297),6	1441,(0, 302),6	1465,(0, 307),6	1489,(0, 312),6	1513,(0, 317),6	1537,(0, 322),6	1561,(0, 327),6	1585,(0, 332),6	1609,(0, 337),6	1633,(0, 342),6	1657,(0, 347),6	1681,(0, 352),6	1705,(0, 357),6	1729,(0, 362),6	1753,(0, 367),6	1777,(0, 372),6	1801,(0, 377),6	1825,(0, 382),6	1849,(0, 387),6	1873,(0, 392),6	1897,(0, 397),6	1921,(0, 402),6	1945,(0, 407),6	1969,(0, 412),6	1993,(0, 417),6	2017,(0, 422),6	2041,(0, 427),6	2065,(0, 432),6	2089,(0, 437),6	2113,(0, 442),6	2137,(0, 447),6	2161,(0, 452),6	2185,(0, 457),6	2209,(0, 462),6	2233,(0, 467),6	2257,(0, 472),6	2281,(0, 477),6	2305,(0, 482),6	2329,(0, 487),6	2353,(0, 492),6	2377,(0, 497),6	
26,(2, 501),3	32,(3, 501),3	38,(4, 501),3	44,(5, 501),3	50,(7, 501),3	56,(8, 501),3	62,(9, 501),3	68,(10, 501),3	74,(12, 501),3	80,(13, 501),3	86,(14, 501),3	92,(15, 501),3	98,(17, 501),3	104,(18, 501),3	110,(19, 501),3	116,(20, 501),3	122,(22, 501),3	128,(23, 501),3	134,(24, 501),3	140,(25, 501),3	146,(27, 501),3	152,(28, 501),3	158,(29, 501),3	164,(30, 501),3	170,(32, 501),3	176,(33, 501),3	182,(34, 501),3	188,(35, 501),3	194,(37, 501),3	200,(38, 501),3	206,(39, 501),3	212,(40, 501),3	218,(42, 501),3	224,(43, 501),3	230,(44, 501),3	236,(45, 501),3	242,(47, 501),3	248,(48, 501),3	254,(49, 501),3	260,(50, 501),3	266,(52, 501),3	272,(53, 501),3	278,(54, 501),3	284,(55, 501),3	290,(57, 501),3	296,(58, 501),3	302,(59, 501),3	308,(60, 501),3	314,(62, 501),3	320,(63, 501),3	326,(64, 501),3	332,(65, 501),3	338,(67, 501),3	344,(68, 501),3	350,(69, 501),3	356,(70, 501),3	362,(72, 501),3	368,(73, 501),3	374,(74, 501),3	380,(75, 501),3	386,(77, 501),3	392,(78, 501),3	398,(79, 501),3	404,(80, 501),3	410,(82, 501),3	416,(83, 501),3	422,(84, 501),3	428,(85, 501),3	434,(87, 501),3	440,(88, 501),3	446,(89, 501),3	452,(90, 501),3	458,(92, 501),3	464,(93, 501),3	470,(94, 501),3	476,(95, 501),3	482,(97, 501),3	488,(98, 501),3	494,(99, 501),3	500,(100, 501),3	506,(102, 501),3	512,(103, 501),3	518,(104, 501),3	524,(105, 501),3	530,(107, 501),3	536,(108, 501),3	542,(109, 501),3	548,(110, 501),3	554,(112, 501),3	560,(113, 501),3	566,(114, 501),3	572,(115, 501),3	578,(117, 501),3	584,(118, 501),3	590,(119, 501),3	596,(120, 501),3	602,(122, 501),3	608,(123, 501),3	614,(124, 501),3	620,(125, 501),3	626,(127, 501),3	632,(128, 501),3	638,(129, 501),3	644,(130, 501),3	650,(132, 501),3	656,(133, 501),3	662,(134, 501),3	668,(135, 501),3	674,(137, 501),3	680,(138, 501),3	686,(139, 501),3	692,(140, 501),3	698,(142, 501),3	704,(143, 501),3	710,(144, 501),3	716,(145, 501),3	722,(147, 501),3	728,(148, 501),3	734,(149, 501),3	740,(150, 501),3	746,(152, 501),3	752,(153, 501),3	758,(154, 501),3	764,(155, 501),3	770,(157, 501),3	776,(158, 501),3	782,(159, 501),3	788,(160, 501),3	794,(162, 501),3	800,(163, 501),3	806,(164, 501),3	812,(165, 501),3	818,(167, 501),3	824,(168, 501),3	830,(169, 501),3	836,(170, 501),3	842,(172, 501),3	848,(173, 501),3	854,(174, 501),3	860,(175, 501),3	866,(177, 501),3	872,(178, 501),3	878,(179, 501),3	884,(180, 501),3	890,(182, 501),3	896,(183, 501),3	902,(184, 501),3	908,(185, 501),3	914,(187, 501),3	920,(188, 501),3	926,(189, 501),3	932,(190, 501),3	938,(192, 501),3	944,(193, 501),3	950,(194, 501),3	956,(195, 501),3	962,(197, 501),3	968,(198, 501),3	974,(199, 501),3	980,(200, 501),3	986,(202, 501),3	992,(203, 501),3	998,(204, 501),3	1004,(205, 501),3	1010,(207, 501),3	1016,(208, 501),3	1022,(209, 501),3	1028,(210, 501),3	1034,(212, 501),3	1040,(213, 501),3	1046,(214, 501),3	1052,(215, 501),3	1058,(217, 501),3	1064,(218, 501),3	1070,(219, 501),3	1076,(220, 501),3	1082,(222, 501),3	1088,(223, 501),3	1094,(224, 501),3	1100,(225, 501),3	1106,(227, 501),3	1112,(228, 501),3	1118,(229, 501),3	1124,(230, 501),3	1130,(232, 501),3	1136,(233, 501),3	1142,(234, 501),3	1148,(235, 501),3	1154,(237, 501),3	1160,(238, 501),3	1166,(239, 501),3	1172,(240, 501),3	1178,(242, 501),3	1184,(243, 501),3	1190,(244, 501),3	1196,(245, 501),3	1202,(247, 501),3	1208,(248, 501),3	1214,(249, 501),3	1220,(250, 501),3	1226,(252, 501),3	1232,(253, 501),3	1238,(254, 501),3	1244,(255, 501),3	1250,(257, 501),3	1256,(258, 501),3	1262,(259, 501),3	1268,(260, 501),3	1274,(262, 501),3	1280,(263, 501),3	1286,(264, 501),3	1292,(265, 501),3	1298,(267, 501),3	1304,(268, 501),3	1310,(269, 501),3	1316,(270, 501),3	1322,(272, 501),3	1328,(273, 501),3	1334,(274, 501),3	1340,(275, 501),3	1346,(277, 501),3	1352,(278, 501),3	1358,(279, 501),3	1364,(280, 501),3	1370,(282, 501),3	1376,(283, 501),3	1382,(284, 501),3	1388,(285, 501),3	1394,(287, 501),3	1400,(288, 501),3	1406,(289, 501),3	1412,(290, 501),3	1418,(292, 501),3	1424,(293, 501),3	1430,(294, 501),3	1436,(295, 501),3	1442,(297, 501),3	1448,(298, 501),3	1454,(299, 501),3	1460,(300, 501),3	1466,(302, 501),3	1472,(303, 501),3	1478,(304, 501),3	1484,(305, 501),3	1490,(307, 501),3	1496,(308, 501),3	1502,(309, 501),3	1508,(310, 501),3	1514,(312, 501),3	1520,(313, 501),3	1526,(314, 501),3	1532,(315, 501),3	1538,(317, 501),3	1544,(318, 501),3	1550,(319, 501),3	1556,(320, 501),3	1562,(322, 501),3	1568,(323, 501),3	1574,(324, 501),3	1580,(325, 501),3	1586,(327, 501),3	1592,(328, 501),3	1598,(329, 501),3	1604,(330, 501),3	1610,(332, 501),3	1616,(333, 501),3	1622,(334, 501),3	1628,(335, 501),3	1634,(337, 501),3	1640,(338, 501),3	1646,(339, 501),3	1652,(340, 501),3	1658,(342, 501),3	1664,(343, 501),3	1670,(344, 501),3	1676,(345, 501),3	1682,(347, 501),3	1688,(348, 501),3	1694,(349, 501),3	1700,(350, 501),3	1706,(352, 501),3	1712,(353, 501),3	1718,(354, 501),3	1724,(355, 501),3	1730,(357, 501),3	1736,(358, 501),3	1742,(359, 501),3	1748,(360, 501),3	1754,(362, 501),3	1760,(363, 501),3	1766,(364, 501),3	1772,(365, 501),3	1778,(367, 501),3	1784,(368, 501),3	1790,(369, 501),3	1796,(370, 501),3	1802,(372, 501),3	1808,(373, 501),3	1814,(374, 501),3	1820,(375, 501),3	1826,(377, 501),3	1832,(378, 501),3	1838,(379, 501),3	1844,(380, 501),3	1850,(382, 501),3	1856,(383, 501),3	1862,(384, 501),3	1868,(385, 501),3	1874,(387, 501),3	1880,(388, 501),3	1886,(389, 501),3	1892,(390, 501),3	1898,(392, 501),3	1904,(393, 501),3	1910,(394, 501),3	1916,(395, 501),3	1922,(397, 501),3	1928,(398, 501),3	1934,(399, 501),3	1940,(400, 501),3	1946,(402, 501),3	1952,(403, 501),3	1958,(404, 501),3	1964,(405, 501),3	1970,(407, 501),3	1976,(408, 501),3	1982,(409, 501),3	1988,(410, 501),3	1994,(412, 501),3	2000,(413, 501),3	2006,(414, 501),3	2012,(415, 501),3	2018,(417, 501),3	2024,(418, 501),3	2030,(419, 501),3	2036,(420, 501),3	2042,(422, 501),3	2048,(423, 501),3	2054,(424, 501),3	2060,(425, 501),3	2066,(427, 501),3	2072,(428, 501),3	2078,(429, 501),3	2084,(430, 501),3	2090,(432, 501),3	2096,(433, 501),3	2102,(434, 501),3	2108,(435, 501),3	2114,(437, 501),3	2120,(438, 501),3	2126,(439, 501),3	2132,(440, 501),3	2138,(442, 501),3	2144,(443, 501),3	2150,(444, 501),3	2156,(445, 501),3	2162,(447, 501),3	2168,(448, 501),3	2174,(449, 501),3	2180,(450, 501),3	2186,(452, 501),3	2192,(453, 501),3	2198,(454, 501),3	2204,(455, 501),3	2210,(457, 501),3	2216,(458, 501),3	2222,(459, 501),3	2228,(460, 501),3	2234,(462, 501),3	2240,(463, 501),3	2246,(464, 501),3	2252,(465, 501),3	2258,(467, 501),3	2264,(468, 501),3	2270,(469, 501),3	2276,(470, 501),3	2282,(472, 501),3	2288,(473, 501),3	2294,(474, 501),3	2300,(475, 501),3	2306,(477, 501),3	2312,(478, 501),3	2318,(479, 501),3	2324,(480, 501),3	2330,(482, 501),3	2336,(483, 501),3	2342,(484, 501),3	2348,(485, 501),3	2354,(487, 501),3	2360,(488, 501),3	2366,(489, 501),3	2372,(490, 501),3	2378,(492, 501),3	2384,(493, 501),3	2390,(494, 501),3	2396,(495, 501),3	2402,(497, 501),3	2408,(498, 501),3	2414,(499, 501),3	2420,(500, 501),3	
# Outgoing
44,(5, 501),3	68,(10, 501),3	92,(15, 501),3	116,(20, 501),3	140,(25, 501),3	164,(30, 501),3	188,(35, 501),3	212,(40, 501),3	236,(45, 501),3	260,(50, 501),3	284,(55, 501),3	308,(60, 501),3	332,(65, 501),3	356,(70, 501),3	380,(75, 501),3	404,(80, 501),3	428,(85, 501),3	452,(90, 501),3	476,(95, 501),3	500,(100, 501),3	524,(105, 501),3	548,(110, 501),3	572,(115, 501),3	596,(120, 501),3	620,(125, 501),3	644,(130, 501),3	668,(135, 501),3	692,(140, 501),3	716,(145, 501),3	740,(150, 501),3	764,(155, 501),3	788,(160, 501),3	812,(165, 501),3	836,(170, 501),3	860,(175, 501),3	884,(180, 501),3	908,(185, 501),3	932,(190, 501),3	956,(195, 501),3	980,(200, 501),3	1004,(205, 501),3	1028,(210, 501),3	1052,(215, 501),3	1076,(220, 501),3	1100,(225, 501),3	1124,(230, 501),3	1148,(235, 501),3	1172,(240, 501),3	1196,(245, 501),3	1220,(250, 501),3	1244,(255, 501),3	1268,(260, 501),3	1292,(265, 501),3	1316,(270, 501),3	1340,(275, 501),3	1364,(280, 501),3	1388,(285, 501),3	1412,(290, 501),3	1436,(295, 501),3	1460,(300, 501),3	1484,(305, 501),3	1508,(310, 501),3	1532,(315, 501),3	1556,(320, 501),3	1580,(325, 501),3	1604,(330, 501),3	1628,(335, 501),3	1652,(340, 501),3	1676,(345, 501),3	1700,(350, 501),3	1724,(355, 501),3	1748,(360, 501),3	1772,(365, 501),3	1796,(370, 501),3	1820,(375, 501),3	1844,(380, 501),3	1868,(385, 501),3	1892,(390, 501),3	1916,(395, 501),3	1940,(400, 501),3	1964,(405, 501),3	1988,(410, 501),3	2012,(415, 501),3	2036,(420, 501),3	2060,(425, 501),3	2084,(430, 501),3	2108,(435, 501),3	2132,(440, 501),3	2156,(445, 501),3	2180,(450, 501),3	2204,(455, 501),3	2228,(460, 501),3	2252,(465, 501),3	2276,(470, 501),3	2300,(475, 501),3	2324,(480, 501),3	2348,(485, 501),3	2372,(490, 501),3	2396,(495, 501),3	2420,(500, 501),3	
38,(4, 501),3	62,(9, 501),3	86,(14, 501),3	110,(19, 501),3	134,(24, 501),3	158,(29, 501),3	182,(34, 501),3	206,(39, 501),3	230,(44, 501),3	254,(49, 501),3	278,(54, 501),3	302,(59, 501),3	326,(64, 501),3	350,(69, 501),3	374,(74, 501),3	398,(79, 501),3	422,(84, 501),3	446,(89, 501),3	470,(94, 501),3	494,(99, 501),3	518,(104, 501),3	542,(109, 501),3	566,(114, 501),3	590,(119, 501),3	614,(124, 501),3	638,(129, 501),3	662,(134, 501),3	686,(139, 501),3	710,(144, 501),3	734,(149, 501),3	758,(154, 501),3	782,(159, 501),3	806,(164, 501),3	830,(169, 501),3	854,(174, 501),3	878,(179, 501),3	902,(184, 501),3	926,(189, 501),3	950,(194, 501),3	974,(199, 501),3	998,(204, 501),3	1022,(209, 501),3	1046,(214, 501),3	1070,(219, 501),3	1094,(224, 501),3	1118,(229, 501),3	1142,(234, 501),3	1166,(239, 501),3	1190,(244, 501),3	1214,(249, 501),3	1238,(254, 501),3	1262,(259, 501),3	1286,(264, 501),3	1310,(269, 501),3	1334,(274, 501),3	1358,(279, 501),3	1382,(284, 501),3	1406,(289, 501),3	1430,(294, 501),3	1454,(299, 501),3	1478,(304, 501),3	1502,(309, 501),3	1526,(314, 501),3	1550,(319, 501),3	1574,(324, 501),3	1598,(329, 501),3	1622,(334, 501),3	1646,(339, 501),3	1670,(344, 501),3	1694,(349, 501),3	1718,(354, 501),3	1742,(359, 501),3	1766,(364, 501),3	1790,(369, 501),3	1814,(374, 501),3	1838,(379, 501),3	1862,(384, 501),3	1886,(389, 501),3	1910,(394, 501),3	1934,(399, 501),3	1958,(404, 501),3	1982,(409, 501),3	2006,(414, 501),3	2030,(419, 501),3	2054,(424, 501),3	2078,(429, 501),3	2102,(434, 501),3	2126,(439, 501),3	2150,(444, 501),3	2174,(449, 501),3	2198,(454, 501),3	2222,(459, 501),3	2246,(464, 501),3	2270,(469, 501),3	2294,(474, 501),3	2318,(479, 501),3	2342,(484, 501),3	2366,(489, 501),3	2390,(494, 501),3	2414,(499, 501),3	
32,(3, 501),3	56,(8, 501),3	80,(13, 501),3	104,(18, 501),3	128,(23, 501),3	152,(28, 501),3	176,(33, 501),3	200,(38, 501),3	224,(43, 501),3	248,(48, 501),3	272,(53, 501),3	296,(58, 501),3	320,(63, 501),3	344,(68, 501),3	368,(73, 501),3	392,(78, 501),3	416,(83, 501),3	440,(88, 501),3	464,(93, 501),3	488,(98, 501),3	512,(103, 501),3	536,(108, 501),3	560,(113, 501),3	584,(118, 501),3	608,(123, 501),3	632,(128, 501),3	656,(133, 501),3	680,(138, 501),3	704,(143, 501),3	728,(148, 501),3	752,(153, 501),3	776,(158, 501),3	800,(163, 501),3	824,(168, 501),3	848,(173, 501),3	872,(178, 501),3	896,(183, 501),3	920,(188, 501),3	944,(193, 501),3	968,(198, 501),3	992,(203, 501),3	1016,(208, 501),3	1040,(213, 501),3	1064,(218, 501),3	1088,(223, 501),3	1112,(228, 501),3	1136,(233, 501),3	1160,(238, 501),3	1184,(243, 501),3	1208,(248, 501),3	1232,(253, 501),3	1256,(258, 501),3	1280,(263, 501),3	1304,(268, 501),3	1328,(273, 501),3	1352,(278, 501),3	1376,(283, 501),3	1400,(288, 501),3	1424,(293, 501),3	1448,(298, 501),3	1472,(303, 501),3	1496,(308, 501),3	1520,(313, 501),3	1544,(318, 501),3	1568,(323, 501),3	1592,(328, 501),3	1616,(333, 501),3	1640,(338, 501),3	1664,(343, 501),3	1688,(348, 501),3	1712,(353, 501),3	1736,(358, 501),3	1760,(363, 501),3	1784,(368, 501),3	1808,(373, 501),3	1832,(378, 501),3	1856,(383, 501),3	1880,(388, 501),3	1904,(393, 501),3	1928,(398, 501),3	1952,(403, 501),3	1976,(408, 501),3	2000,(413, 501),3	2024,(418, 501),3	2048,(423, 501),3	2072,(428, 501),3	2096,(433, 501),3	2120,(438, 501),3	2144,(443, 501),3	2168,(448, 501),3	2192,(453, 501),3	2216,(458, 501),3	2240,(463, 501),3	2264,(468, 501),3	2288,(473, 501),3	2312,(478, 501),3	2336,(483, 501),3	2360,(488, 501),3	2384,(493, 501),3	2408,(498, 501),3	
26,(2, 501),3	50,(7, 501),3	74,(12, 501),3	98,(17, 501),3	122,(22, 501),3	146,(27, 501),3	170,(32, 501),3	194,(37, 501),3	218,(42, 501),3	242,(47, 501),3	266,(52, 501),3	290,(57, 501),3	314,(62, 501),3	338,(67, 501),3	362,(72, 501),3	386,(77, 501),3	410,(82, 501),3	434,(87, 501),3	458,(92, 501),3	482,(97, 501),3	506,(102, 501),3	530,(107, 501),3	554,(112, 501),3	578,(117, 501),3	602,(122, 501),3	626,(127, 501),3	650,(132, 501),3	674,(137, 501),3	698,(142, 501),3	722,(147, 501),3	746,(152, 501),3	770,(157, 501),3	794,(162, 501),3	818,(167, 501),3	842,(172, 501),3	866,(177, 501),3	890,(182, 501),3	914,(187, 501),3	938,(192, 501),3	962,(197, 501),3	986,(202, 501),3	1010,(207, 501),3	1034,(212, 501),3	1058,(217, 501),3	1082,(222, 501),3	1106,(227, 501),3	1130,(232, 501),3	1154,(237, 501),3	1178,(242, 501),3	1202,(247, 501),3	1226,(252, 501),3	1250,(257, 501),3	1274,(262, 501),3	1298,(267, 501),3	1322,(272, 501),3	1346,(277, 501),3	1370,(282, 501),3	1394,(287, 501),3	1418,(292, 501),3	1442,(297, 501),3	1466,(302, 501),3	1490,(307, 501),3	1514,(312, 501),3	1538,(317, 501),3	1562,(322, 501),3	1586,(327, 501),3	1610,(332, 501),3	1634,(337, 501),3	1658,(342, 501),3	1682,(347, 501),3	1706,(352, 501),3	1730,(357, 501),3	1754,(362, 501),3	1778,(367, 501),3	1802,(372, 501),3	1826,(377, 501),3	1850,(382, 501),3	1874,(387, 501),3	1898,(392, 501),3	1922,(397, 501),3	1946,(402, 501),3	1970,(407, 501),3	1994,(412, 501),3	2018,(417, 501),3	2042,(422, 501),3	2066,(427, 501),3	2090,(432, 501),3	2114,(437, 501),3	2138,(442, 501),3	2162,(447, 501),3	2186,(452, 501),3	2210,(457, 501),3	2234,(462, 501),3	2258,(467, 501),3	2282,(472, 501),3	2306,(477, 501),3	2330,(482, 501),3	2354,(487, 501),3	2378,(492, 501),3	2402,(497, 501),3	
1,(0, 2),6	7,(0, 3),6	13,(0, 4),6	19,(0, 5),6	25,(0, 7),6	31,(0, 8),6	37,(0, 9),6	43,(0, 10),6	49,(0, 12),6	55,(0, 13),6	61,(0, 14),6	67,(0, 15),6	73,(0, 17),6	79,(0, 18),6	85,(0, 19),6	91,(0, 20),6	97,(0, 22),6	103,(0, 23),6	109,(0, 24),6	115,(0, 25),6	121,(0, 27),6	127,(0, 28),6	133,(0, 29),6	139,(0, 30),6	145,(0, 32),6	151,(0, 33),6	157,(0, 34),6	163,(0, 35),6	169,(0, 37),6	175,(0, 38),6	181,(0, 39),6	187,(0, 40),6	193,(0, 42),6	199,(0, 43),6	205,(0, 44),6	211,(0, 45),6	217,(0, 47),6	223,(0, 48),6	229,(0, 49),6	235,(0, 50),6	241,(0, 52),6	247,(0, 53),6	253,(0, 54),6	259,(0, 55),6	265,(0, 57),6	271,(0, 58),6	277,(0, 59),6	283,(0, 60),6	289,(0, 62),6	295,(0, 63),6	301,(0, 64),6	307,(0, 65),6	313,(0, 67),6	319,(0, 68),6	325,(0, 69),6	331,(0, 70),6	337,(0, 72),6	343,(0, 73),6	349,(0, 74),6	355,(0, 75),6	361,(0, 77),6	367,(0, 78),6	373,(0, 79),6	379,(0, 80),6	385,(0, 82),6	391,(0, 83),6	397,(0, 84),6	403,(0, 85),6	409,(0, 87),6	415,(0, 88),6	421,(0, 89),6	427,(0, 90),6	433,(0, 92),6	439,(0, 93),6	445,(0, 94),6	451,(0, 95),6	457,(0, 97),6	463,(0, 98),6	469,(0, 99),6	475,(0, 100),6	481,(0, 102),6	487,(0, 103),6	493,(0, 104),6	499,(0, 105),6	505,(0, 107),6	511,(0, 108),6	517,(0, 109),6	523,(0, 110),6	529,(0, 112),6	535,(0, 113),6	541,(0, 114),6	547,(0, 115),6	553,(0, 117),6	559,(0, 118),6	565,(0, 119),6	571,(0, 120),6	577,(0, 122),6	583,(0, 123),6	589,(0, 124),6	595,(0, 125),6	601,(0, 127),6	607,(0, 128),6	613,(0, 129),6	619,(0, 130),6	625,(0, 132),6	631,(0, 133),6	637,(0, 134),6	643,(0, 135),6	649,(0, 137),6	655,(0, 138),6	661,(0, 139),6	667,(0, 140),6	673,(0, 142),6	679,(0, 143),6	685,(0, 144),6	691,(0, 145),6	697,(0, 147),6	703,(0, 148),6	709,(0, 149),6	715,(0, 150),6	721,(0, 152),6	727,(0, 153),6	733,(0, 154),6	739,(0, 155),6	745,(0, 157),6	751,(0, 158),6	757,(0, 159),6	763,(0, 160),6	769,(0, 162),6	775,(0, 163),6	781,(0, 164),6	787,(0, 165),6	793,(0, 167),6	799,(0, 168),6	805,(0, 169),6	811,(0, 170),6	817,(0, 172),6	823,(0, 173),6	829,(0, 174),6	835,(0, 175),6	841,(0, 177),6	847,(0, 178),6	853,(0, 179),6	859,(0, 180),6	865,(0, 182),6	871,(0, 183),6	877,(0, 184),6	883,(0, 185),6	889,(0, 187),6	895,(0, 188),6	901,(0, 189),6	907,(0, 190),6	913,(0, 192),6	919,(0, 193),6	925,(0, 194),6	931,(0, 195),6	937,(0, 197),6	943,(0, 198),6	949,(0, 199),6	955,(0, 200),6	961,(0, 202),6	967,(0, 203),6	973,(0, 204),6	979,(0, 205),6	985,(0, 207),6	991,(0, 208),6	997,(0, 209),6	1003,(0, 210),6	1009,(0, 212),6	1015,(0, 213),6	1021,(0, 214),6	1027,(0, 215),6	1033,(0, 217),6	1039,(0, 218),6	1045,(0, 219),6	1051,(0, 220),6	1057,(0, 222),6	1063,(0, 223),6	1069,(0, 224),6	1075,(0, 225),6	1081,(0, 227),6	1087,(0, 228),6	1093,(0, 229),6	1099,(0, 230),6	1105,(0, 232),6	1111,(0, 233),6	1117,(0, 234),6	1123,(0, 235),6	1129,(0, 237),6	1135,(0, 238),6	1141,(0, 239),6	1147,(0, 240),6	1153,(0, 242),6	1159,(0, 243),6	1165,(0, 244),6	1171,(0, 245),6	1177,(0, 247),6	1183,(0, 248),6	1189,(0, 249),6	1195,(0, 250),6	1201,(0, 252),6	1207,(0, 253),6	1213,(0, 254),6	1219,(0, 255),6	1225,(0, 257),6	1231,(0, 258),6	1237,(0, 259),6	1243,(0, 260),6	1249,(0, 262),6	1255,(0, 263),6	1261,(0, 264),6	1267,(0, 265),6	1273,(0, 267),6	1279,(0, 268),6	1285,(0, 269),6	1291,(0, 270),6	1297,(0, 272),6	1303,(0, 273),6	1309,(0, 274),6	1315,(0, 275),6	1321,(0, 277),6	1327,(0, 278),6	1333,(0, 279),6	1339,(0, 280),6	1345,(0, 282),6	1351,(0, 283),6	1357,(0, 284),6	1363,(0, 285),6	1369,(0, 287),6	1375,(0, 288),6	1381,(0, 289),6	1387,(0, 290),6	1393,(0, 292),6	1399,(0, 293),6	1405,(0, 294),6	1411,(0, 295),6	1417,(0, 297),6	1423,(0, 298),6	1429,(0, 299),6	1435,(0, 300),6	1441,(0, 302),6	1447,(0, 303),6	1453,(0, 304),6	1459,(0, 305),6	1465,(0, 307),6	1471,(0, 308),6	1477,(0, 309),6	1483,(0, 310),6	1489,(0, 312),6	1495,(0, 313),6	1501,(0, 314),6	1507,(0, 315),6	1513,(0, 317),6	1519,(0, 318),6	1525,(0, 319),6	1531,(0, 320),6	1537,(0, 322),6	1543,(0, 323),6	1549,(0, 324),6	1555,(0, 325),6	1561,(0, 327),6	1567,(0, 328),6	1573,(0, 329),6	1579,(0, 330),6	1585,(0, 332),6	1591,(0, 333),6	1597,(0, 334),6	1603,(0, 335),6	1609,(0, 337),6	1615,(0, 338),6	1621,(0, 339),6	1627,(0, 340),6	1633,(0, 342),6	1639,(0, 343),6	1645,(0, 344),6	1651,(0, 345),6	1657,(0, 347),6	1663,(0, 348),6	1669,(0, 349),6	1675,(0, 350),6	1681,(0, 352),6	1687,(0, 353),6	1693,(0, 354),6	1699,(0, 355),6	1705,(0, 357),6	1711,(0, 358),6	1717,(0, 359),6	1723,(0, 360),6	1729,(0, 362),6	1735,(0, 363),6	1741,(0, 364),6	1747,(0, 365),6	1753,(0, 367),6	1759,(0, 368),6	1765,(0, 369),6	1771,(0, 370),6	1777,(0, 372),6	1783,(0, 373),6	1789,(0, 374),6	1795,(0, 375),6	1801,(0, 377),6	1807,(0, 378),6	1813,(0, 379),6	1819,(0, 380),6	1825,(0, 382),6	1831,(0, 383),6	1837,(0, 384),6	1843,(0, 385),6	1849,(0, 387),6	1855,(0, 388),6	1861,(0, 389),6	1867,(0, 390),6	1873,(0, 392),6	1879,(0, 393),6	1885,(0, 394),6	1891,(0, 395),6	1897,(0, 397),6	1903,(0, 398),6	1909,(0, 399),6	1915,(0, 400),6	1921,(0, 402),6	1927,(0, 403),6	1933,(0, 404),6	1939,(0, 405),6	1945,(0, 407),6	1951,(0, 408),6	1957,(0, 409),6	1963,(0, 410),6	1969,(0, 412),6	1975,(0, 413),6	1981,(0, 414),6	1987,(0, 415),6	1993,(0, 417),6	1999,(0, 418),6	2005,(0, 419),6	2011,(0, 420),6	2017,(0, 422),6	2023,(0, 423),6	2029,(0, 424),6	2035,(0, 425),6	2041,(0, 427),6	2047,(0, 428),6	2053,(0, 429),6	2059,(0, 430),6	2065,(0, 432),6	2071,(0, 433),6	2077,(0, 434),6	2083,(0, 435),6	2089,(0, 437),6	2095,(0, 438),6	2101,(0, 439),6	2107,(0, 440),6	2113,(0, 442),6	2119,(0, 443),6	2125,(0, 444),6	2131,(0, 445),6	2137,(0, 447),6	2143,(0, 448),6	2149,(0, 449),6	2155,(0, 450),6	2161,(0, 452),6	2167,(0, 453),6	2173,(0, 454),6	2179,(0, 455),6	2185,(0, 457),6	2191,(0, 458),6	2197,(0, 459),6	2203,(0, 460),6	2209,(0, 462),6	2215,(0, 463),6	2221,(0, 464),6	2227,(0, 465),6	2233,(0, 467),6	2239,(0, 468),6	2245,(0, 469),6	2251,(0, 470),6	2257,(0, 472),6	2263,(0, 473),6	2269,(0, 474),6	2275,(0, 475),6	2281,(0, 477),6	2287,(0, 478),6	2293,(0, 479),6	2299,(0, 480),6	2305,(0, 482),6	2311,(0, 483),6	2317,(0, 484),6	2323,(0, 485),6	2329,(0, 487),6	2335,(0, 488),6	2341,(0, 489),6	2347,(0, 490),6	2353,(0, 492),6	2359,(0, 493),6	2365,(0, 494),6	2371,(0, 495),6	2377,(0, 497),6	2383,(0, 498),6	2389,(0, 499),6	2395,(0, 500),6	
