1442
# CPU
0,501,1	1,329,3	4,328,3	7,330,3	10,327,3	13,326,3	16,325,3	19,331,3	22,324,3	25,323,3	28,322,3	31,332,3	34,321,3	37,333,3	40,320,3	43,334,3	46,319,3	49,318,3	52,317,3	55,335,3	58,316,3	61,336,3	64,315,3	67,337,3	70,182,3	73,419,3	76,313,3	79,312,3	82,314,3	85,311,3	88,338,3	91,310,3	94,309,3	97,308,3	100,339,3	103,307,3	106,306,3	109,305,3	112,340,3	115,304,3	118,303,3	121,302,3	124,342,3	127,301,3	130,343,3	133,300,3	136,344,3	139,69,3	142,423,3	145,298,3	148,297,3	151,299,3	154,296,3	157,345,3	160,295,3	163,294,3	166,293,3	169,346,3	172,292,3	175,347,3	178,291,3	181,349,3	184,290,3	187,289,3	190,288,3	193,350,3	196,287,3	199,286,3	202,285,3	205,351,3	208,455,3	211,149,3	214,283,3	217,282,3	220,284,3	223,281,3	226,352,3	229,280,3	232,279,3	235,278,3	238,353,3	241,277,3	244,355,3	247,276,3	250,356,3	253,275,3	256,274,3	259,273,3	262,357,3	265,272,3	268,358,3	271,271,3	274,359,3	277,178,3	280,141,3	283,270,3	286,269,3	289,268,3	292,267,3	295,360,3	298,266,3	301,265,3	304,264,3	307,361,3	310,263,3	313,363,3	316,262,3	319,364,3	322,261,3	325,260,3	328,259,3	331,365,3	334,258,3	337,366,3	340,257,3	343,367,3	346,454,3	349,226,3	352,255,3	355,254,3	358,256,3	361,253,3	364,368,3	367,252,3	370,251,3	373,250,3	376,370,3	379,249,3	382,248,3	385,247,3	388,371,3	391,246,3	394,245,3	397,244,3	400,372,3	403,243,3	406,373,3	409,242,3	412,374,3	415,458,3	418,212,3	421,240,3	424,239,3	427,241,3	430,238,3	433,375,3	436,237,3	439,236,3	442,235,3	445,377,3	448,234,3	451,378,3	454,233,3	457,379,3	460,232,3	463,231,3	466,230,3	469,380,3	472,229,3	475,228,3	478,227,3	481,381,3	484,65,3	487,199,3	490,225,3	493,224,3	496,382,3	499,223,3	502,383,3	505,222,3	508,221,3	511,220,3	514,385,3	517,219,3	520,386,3	523,218,3	526,387,3	529,217,3	532,216,3	535,215,3	538,388,3	541,214,3	544,389,3	547,213,3	550,390,3	553,146,3	556,109,3	559,211,3	562,210,3	565,209,3	568,208,3	571,391,3	574,207,3	577,206,3	580,205,3	583,393,3	586,204,3	589,394,3	592,203,3	595,395,3	598,202,3	601,201,3	604,200,3	607,396,3	610,198,3	613,397,3	616,197,3	619,398,3	622,84,3	625,449,3	628,195,3	631,194,3	634,196,3	637,193,3	640,399,3	643,192,3	646,191,3	649,190,3	652,401,3	655,189,3	658,188,3	661,187,3	664,402,3	667,186,3	670,185,3	673,184,3	676,403,3	679,183,3	682,404,3	685,181,3	688,405,3	691,51,3	694,94,3	697,180,3	700,179,3	703,415,3	706,414,3	709,416,3	712,413,3	715,412,3	718,411,3	721,417,3	724,410,3	727,418,3	730,409,3	733,420,3	736,408,3	739,406,3	742,177,3	745,421,3	748,176,3	751,175,3	754,174,3	757,422,3	760,95,3	763,457,3	766,173,3	769,172,3	772,424,3	775,171,3	778,425,3	781,170,3	784,168,3	787,167,3	790,426,3	793,166,3	796,165,3	799,164,3	802,427,3	805,163,3	808,162,3	811,161,3	814,428,3	817,160,3	820,429,3	823,159,3	826,430,3	829,99,3	832,81,3	835,431,3	838,158,3	841,157,3	844,156,3	847,432,3	850,155,3	853,153,3	856,152,3	859,433,3	862,151,3	865,434,3	868,150,3	871,435,3	874,148,3	877,147,3	880,145,3	883,436,3	886,144,3	889,143,3	892,142,3	895,437,3	898,86,3	901,72,3	904,438,3	907,140,3	910,439,3	913,139,3	916,440,3	919,138,3	922,136,3	925,135,3	928,441,3	931,134,3	934,133,3	937,132,3	940,442,3	943,131,3	946,130,3	949,129,3	952,443,3	955,128,3	958,444,3	961,127,3	964,445,3	967,117,3	970,471,3	973,126,3	976,125,3	979,124,3	982,122,3	985,446,3	988,121,3	991,120,3	994,119,3	997,447,3	1000,118,3	1003,448,3	1006,116,3	1009,450,3	1012,115,3	1015,114,3	1018,113,3	1021,451,3	1024,112,3	1027,111,3	1030,110,3	1033,452,3	1036,469,3	1039,88,3	1042,108,3	1045,107,3	1048,453,3	1051,106,3	1054,456,3	1057,104,3	1060,103,3	1063,102,3	1066,459,3	1069,101,3	1072,89,3	1075,87,3	1078,90,3	1081,85,3	1084,83,3	1087,82,3	1090,91,3	1093,80,3	1096,92,3	1099,79,3	1102,93,3	1105,25,3	1108,40,3	1111,78,3	1114,77,3	1117,96,3	1120,76,3	1123,97,3	1126,75,3	1129,74,3	1132,73,3	1135,98,3	1138,71,3	1141,460,3	1144,70,3	1147,461,3	1150,68,3	1153,67,3	1156,66,3	1159,462,3	1162,64,3	1165,463,3	1168,63,3	1171,464,3	1174,46,3	1177,58,3	1180,62,3	1183,61,3	1186,465,3	1189,60,3	1192,466,3	1195,59,3	1198,57,3	1201,56,3	1204,468,3	1207,55,3	1210,470,3	1213,54,3	1216,472,3	1219,53,3	1222,52,3	1225,50,3	1228,473,3	1231,49,3	1234,474,3	1237,48,3	1240,475,3	1243,11,3	1246,43,3	1249,47,3	1252,45,3	1255,485,3	1258,484,3	1261,486,3	1264,483,3	1267,482,3	1270,481,3	1273,487,3	1276,480,3	1279,479,3	1282,478,3	1285,488,3	1288,476,3	1291,44,3	1294,42,3	1297,489,3	1300,41,3	1303,39,3	1306,38,3	1309,490,3	1312,32,3	1315,492,3	1318,37,3	1321,36,3	1324,35,3	1327,33,3	1330,491,3	1333,31,3	1336,30,3	1339,29,3	1342,493,3	1345,28,3	1348,18,3	1351,17,3	1354,19,3	1357,16,3	1360,20,3	1363,15,3	1366,21,3	1369,14,3	1372,22,3	1375,13,3	1378,23,3	1381,498,3	1384,6,3	1387,12,3	1390,10,3	1393,1,3	1396,2,3	1399,3,3	1402,4,3	1405,5,3	1408,7,3	1411,8,3	1414,9,3	1417,24,3	1420,27,3	1423,494,3	1426,495,3	1429,496,3	1432,497,3	1435,499,3	1438,500,3	1441,0,1	
70,341,3	139,348,3	208,354,3	1036,105,3	1105,100,3	
277,362,3	346,369,3	415,376,3	484,384,3	898,137,3	967,123,3	1174,467,3	1312,34,3	
553,392,3	622,400,3	691,407,3	760,169,3	829,154,3	1243,477,3	1381,26,3	

# Incoming
73,(341, 0),3	142,(348, 0),3	211,(354, 0),3	280,(362, 0),3	349,(369, 0),3	418,(376, 0),3	487,(384, 0),3	556,(392, 0),3	625,(400, 0),3	694,(407, 0),3	763,(169, 0),3	832,(154, 0),3	901,(137, 0),3	970,(123, 0),3	1039,(105, 0),3	1108,(100, 0),3	1177,(467, 0),3	1246,(477, 0),3	1315,(34, 0),3	1384,(26, 0),3	
1,(501, 341),69	70,(501, 348),69	139,(501, 354),69	967,(501, 105),69	1036,(501, 100),69	
208,(501, 362),69	277,(501, 369),69	346,(501, 376),69	415,(501, 384),69	829,(501, 137),69	898,(501, 123),69	1105,(501, 467),69	1243,(501, 34),69	
484,(501, 392),69	553,(501, 400),69	622,(501, 407),69	691,(501, 169),69	760,(501, 154),69	1174,(501, 477),69	1312,(501, 26),69	

# Outgoing
1,(501, 341),69	70,(501, 348),69	139,(501, 354),69	208,(501, 362),69	277,(501, 369),69	346,(501, 376),69	415,(501, 384),69	484,(501, 392),69	553,(501, 400),69	622,(501, 407),69	691,(501, 169),69	760,(501, 154),69	829,(501, 137),69	898,(501, 123),69	967,(501, 105),69	1036,(501, 100),69	1105,(501, 467),69	1174,(501, 477),69	1243,(501, 34),69	1312,(501, 26),69	
73,(341, 0),3	142,(348, 0),3	211,(354, 0),3	1039,(105, 0),3	1108,(100, 0),3	
280,(362, 0),3	349,(369, 0),3	418,(376, 0),3	487,(384, 0),3	901,(137, 0),3	970,(123, 0),3	1177,(467, 0),3	1315,(34, 0),3	
556,(392, 0),3	625,(400, 0),3	694,(407, 0),3	763,(169, 0),3	832,(154, 0),3	1246,(477, 0),3	1384,(26, 0),3	

