10805
# CPU
217,10,1	433,20,1	649,30,1	865,40,1	1081,50,1	1297,60,1	1513,70,1	1729,80,1	1945,90,1	2161,100,1	2377,110,1	2593,120,1	2809,130,1	3025,140,1	3241,150,1	3457,160,1	3673,170,1	3889,180,1	4105,190,1	4321,200,1	4537,210,1	4753,220,1	4969,230,1	5185,240,1	5401,250,1	5617,260,1	5833,270,1	6049,280,1	6265,290,1	6481,300,1	6697,310,1	6913,320,1	7129,330,1	7345,340,1	7561,350,1	7777,360,1	7993,370,1	8209,380,1	8425,390,1	8641,400,1	8857,410,1	9073,420,1	9289,430,1	9505,440,1	9721,450,1	9937,460,1	10153,470,1	10369,480,1	10585,490,1	10801,500,1	
193,9,1	409,19,1	625,29,1	841,39,1	1057,49,1	1273,59,1	1489,69,1	1705,79,1	1921,89,1	2137,99,1	2353,109,1	2569,119,1	2785,129,1	3001,139,1	3217,149,1	3433,159,1	3649,169,1	3865,179,1	4081,189,1	4297,199,1	4513,209,1	4729,219,1	4945,229,1	5161,239,1	5377,249,1	5593,259,1	5809,269,1	6025,279,1	6241,289,1	6457,299,1	6673,309,1	6889,319,1	7105,329,1	7321,339,1	7537,349,1	7753,359,1	7969,369,1	8185,379,1	8401,389,1	8617,399,1	8833,409,1	9049,419,1	9265,429,1	9481,439,1	9697,449,1	9913,459,1	10129,469,1	10345,479,1	10561,489,1	10777,499,1	
169,8,1	385,18,1	601,28,1	817,38,1	1033,48,1	1249,58,1	1465,68,1	1681,78,1	1897,88,1	2113,98,1	2329,108,1	2545,118,1	2761,128,1	2977,138,1	3193,148,1	3409,158,1	3625,168,1	3841,178,1	4057,188,1	4273,198,1	4489,208,1	4705,218,1	4921,228,1	5137,238,1	5353,248,1	5569,258,1	5785,268,1	6001,278,1	6217,288,1	6433,298,1	6649,308,1	6865,318,1	7081,328,1	7297,338,1	7513,348,1	7729,358,1	7945,368,1	8161,378,1	8377,388,1	8593,398,1	8809,408,1	9025,418,1	9241,428,1	9457,438,1	9673,448,1	9889,458,1	10105,468,1	10321,478,1	10537,488,1	10753,498,1	
145,7,1	361,17,1	577,27,1	793,37,1	1009,47,1	1225,57,1	1441,67,1	1657,77,1	1873,87,1	2089,97,1	2305,107,1	2521,117,1	2737,127,1	2953,137,1	3169,147,1	3385,157,1	3601,167,1	3817,177,1	4033,187,1	4249,197,1	4465,207,1	4681,217,1	4897,227,1	5113,237,1	5329,247,1	5545,257,1	5761,267,1	5977,277,1	6193,287,1	6409,297,1	6625,307,1	6841,317,1	7057,327,1	7273,337,1	7489,347,1	7705,357,1	7921,367,1	8137,377,1	8353,387,1	8569,397,1	8785,407,1	9001,417,1	9217,427,1	9433,437,1	9649,447,1	9865,457,1	10081,467,1	10297,477,1	10513,487,1	10729,497,1	
121,6,1	337,16,1	553,26,1	769,36,1	985,46,1	1201,56,1	1417,66,1	1633,76,1	1849,86,1	2065,96,1	2281,106,1	2497,116,1	2713,126,1	2929,136,1	3145,146,1	3361,156,1	3577,166,1	3793,176,1	4009,186,1	4225,196,1	4441,206,1	4657,216,1	4873,226,1	5089,236,1	5305,246,1	5521,256,1	5737,266,1	5953,276,1	6169,286,1	6385,296,1	6601,306,1	6817,316,1	7033,326,1	7249,336,1	7465,346,1	7681,356,1	7897,366,1	8113,376,1	8329,386,1	8545,396,1	8761,406,1	8977,416,1	9193,426,1	9409,436,1	9625,446,1	9841,456,1	10057,466,1	10273,476,1	10489,486,1	10705,496,1	
97,5,1	313,15,1	529,25,1	745,35,1	961,45,1	1177,55,1	1393,65,1	1609,75,1	1825,85,1	2041,95,1	2257,105,1	2473,115,1	2689,125,1	2905,135,1	3121,145,1	3337,155,1	3553,165,1	3769,175,1	3985,185,1	4201,195,1	4417,205,1	4633,215,1	4849,225,1	5065,235,1	5281,245,1	5497,255,1	5713,265,1	5929,275,1	6145,285,1	6361,295,1	6577,305,1	6793,315,1	7009,325,1	7225,335,1	7441,345,1	7657,355,1	7873,365,1	8089,375,1	8305,385,1	8521,395,1	8737,405,1	8953,415,1	9169,425,1	9385,435,1	9601,445,1	9817,455,1	10033,465,1	10249,475,1	10465,485,1	10681,495,1	
73,4,1	289,14,1	505,24,1	721,34,1	937,44,1	1153,54,1	1369,64,1	1585,74,1	1801,84,1	2017,94,1	2233,104,1	2449,114,1	2665,124,1	2881,134,1	3097,144,1	3313,154,1	3529,164,1	3745,174,1	3961,184,1	4177,194,1	4393,204,1	4609,214,1	4825,224,1	5041,234,1	5257,244,1	5473,254,1	5689,264,1	5905,274,1	6121,284,1	6337,294,1	6553,304,1	6769,314,1	6985,324,1	7201,334,1	7417,344,1	7633,354,1	7849,364,1	8065,374,1	8281,384,1	8497,394,1	8713,404,1	8929,414,1	9145,424,1	9361,434,1	9577,444,1	9793,454,1	10009,464,1	10225,474,1	10441,484,1	10657,494,1	
49,3,1	265,13,1	481,23,1	697,33,1	913,43,1	1129,53,1	1345,63,1	1561,73,1	1777,83,1	1993,93,1	2209,103,1	2425,113,1	2641,123,1	2857,133,1	3073,143,1	3289,153,1	3505,163,1	3721,173,1	3937,183,1	4153,193,1	4369,203,1	4585,213,1	4801,223,1	5017,233,1	5233,243,1	5449,253,1	5665,263,1	5881,273,1	6097,283,1	6313,293,1	6529,303,1	6745,313,1	6961,323,1	7177,333,1	7393,343,1	7609,353,1	7825,363,1	8041,373,1	8257,383,1	8473,393,1	8689,403,1	8905,413,1	9121,423,1	9337,433,1	9553,443,1	9769,453,1	9985,463,1	10201,473,1	10417,483,1	10633,493,1	
25,2,1	241,12,1	457,22,1	673,32,1	889,42,1	1105,52,1	1321,62,1	1537,72,1	1753,82,1	1969,92,1	2185,102,1	2401,112,1	2617,122,1	2833,132,1	3049,142,1	3265,152,1	3481,162,1	3697,172,1	3913,182,1	4129,192,1	4345,202,1	4561,212,1	4777,222,1	4993,232,1	5209,242,1	5425,252,1	5641,262,1	5857,272,1	6073,282,1	6289,292,1	6505,302,1	6721,312,1	6937,322,1	7153,332,1	7369,342,1	7585,352,1	7801,362,1	8017,372,1	8233,382,1	8449,392,1	8665,402,1	8881,412,1	9097,422,1	9313,432,1	9529,442,1	9745,452,1	9961,462,1	10177,472,1	10393,482,1	10609,492,1	
0,0,1	1,1,1	2,21,1	3,61,1	4,141,1	5,301,1	6,491,1	7,481,1	8,471,1	9,461,1	10,451,1	11,441,1	12,431,1	13,421,1	14,411,1	15,401,1	16,391,1	17,381,1	18,371,1	19,361,1	20,351,1	21,341,1	22,331,1	23,321,1	24,291,1	25,311,1	26,281,1	27,271,1	28,261,1	29,251,1	30,241,1	31,231,1	32,221,1	33,211,1	34,201,1	35,191,1	36,181,1	37,171,1	38,161,1	39,131,1	40,151,1	41,121,1	42,111,1	43,101,1	44,91,1	45,81,1	46,51,1	47,71,1	48,41,1	49,11,1	50,31,1	10804,501,1	
# Incoming
193,(0, 10),24	409,(0, 20),24	625,(0, 30),24	841,(0, 40),24	1057,(0, 50),24	1273,(0, 60),24	1489,(0, 70),24	1705,(0, 80),24	1921,(0, 90),24	2137,(0, 100),24	2353,(0, 110),24	2569,(0, 120),24	2785,(0, 130),24	3001,(0, 140),24	3217,(0, 150),24	3433,(0, 160),24	3649,(0, 170),24	3865,(0, 180),24	4081,(0, 190),24	4297,(0, 200),24	4513,(0, 210),24	4729,(0, 220),24	4945,(0, 230),24	5161,(0, 240),24	5377,(0, 250),24	5593,(0, 260),24	5809,(0, 270),24	6025,(0, 280),24	6241,(0, 290),24	6457,(0, 300),24	6673,(0, 310),24	6889,(0, 320),24	7105,(0, 330),24	7321,(0, 340),24	7537,(0, 350),24	7753,(0, 360),24	7969,(0, 370),24	8185,(0, 380),24	8401,(0, 390),24	8617,(0, 400),24	8833,(0, 410),24	9049,(0, 420),24	9265,(0, 430),24	9481,(0, 440),24	9697,(0, 450),24	9913,(0, 460),24	10129,(0, 470),24	10345,(0, 480),24	10561,(0, 490),24	10777,(0, 500),24	
169,(0, 9),24	385,(0, 19),24	601,(0, 29),24	817,(0, 39),24	1033,(0, 49),24	1249,(0, 59),24	1465,(0, 69),24	1681,(0, 79),24	1897,(0, 89),24	2113,(0, 99),24	2329,(0, 109),24	2545,(0, 119),24	2761,(0, 129),24	2977,(0, 139),24	3193,(0, 149),24	3409,(0, 159),24	3625,(0, 169),24	3841,(0, 179),24	4057,(0, 189),24	4273,(0, 199),24	4489,(0, 209),24	4705,(0, 219),24	4921,(0, 229),24	5137,(0, 239),24	5353,(0, 249),24	5569,(0, 259),24	5785,(0, 269),24	6001,(0, 279),24	6217,(0, 289),24	6433,(0, 299),24	6649,(0, 309),24	6865,(0, 319),24	7081,(0, 329),24	7297,(0, 339),24	7513,(0, 349),24	7729,(0, 359),24	7945,(0, 369),24	8161,(0, 379),24	8377,(0, 389),24	8593,(0, 399),24	8809,(0, 409),24	9025,(0, 419),24	9241,(0, 429),24	9457,(0, 439),24	9673,(0, 449),24	9889,(0, 459),24	10105,(0, 469),24	10321,(0, 479),24	10537,(0, 489),24	10753,(0, 499),24	
145,(0, 8),24	361,(0, 18),24	577,(0, 28),24	793,(0, 38),24	1009,(0, 48),24	1225,(0, 58),24	1441,(0, 68),24	1657,(0, 78),24	1873,(0, 88),24	2089,(0, 98),24	2305,(0, 108),24	2521,(0, 118),24	2737,(0, 128),24	2953,(0, 138),24	3169,(0, 148),24	3385,(0, 158),24	3601,(0, 168),24	3817,(0, 178),24	4033,(0, 188),24	4249,(0, 198),24	4465,(0, 208),24	4681,(0, 218),24	4897,(0, 228),24	5113,(0, 238),24	5329,(0, 248),24	5545,(0, 258),24	5761,(0, 268),24	5977,(0, 278),24	6193,(0, 288),24	6409,(0, 298),24	6625,(0, 308),24	6841,(0, 318),24	7057,(0, 328),24	7273,(0, 338),24	7489,(0, 348),24	7705,(0, 358),24	7921,(0, 368),24	8137,(0, 378),24	8353,(0, 388),24	8569,(0, 398),24	8785,(0, 408),24	9001,(0, 418),24	9217,(0, 428),24	9433,(0, 438),24	9649,(0, 448),24	9865,(0, 458),24	10081,(0, 468),24	10297,(0, 478),24	10513,(0, 488),24	10729,(0, 498),24	
121,(0, 7),24	337,(0, 17),24	553,(0, 27),24	769,(0, 37),24	985,(0, 47),24	1201,(0, 57),24	1417,(0, 67),24	1633,(0, 77),24	1849,(0, 87),24	2065,(0, 97),24	2281,(0, 107),24	2497,(0, 117),24	2713,(0, 127),24	2929,(0, 137),24	3145,(0, 147),24	3361,(0, 157),24	3577,(0, 167),24	3793,(0, 177),24	4009,(0, 187),24	4225,(0, 197),24	4441,(0, 207),24	4657,(0, 217),24	4873,(0, 227),24	5089,(0, 237),24	5305,(0, 247),24	5521,(0, 257),24	5737,(0, 267),24	5953,(0, 277),24	6169,(0, 287),24	6385,(0, 297),24	6601,(0, 307),24	6817,(0, 317),24	7033,(0, 327),24	7249,(0, 337),24	7465,(0, 347),24	7681,(0, 357),24	7897,(0, 367),24	8113,(0, 377),24	8329,(0, 387),24	8545,(0, 397),24	8761,(0, 407),24	8977,(0, 417),24	9193,(0, 427),24	9409,(0, 437),24	9625,(0, 447),24	9841,(0, 457),24	10057,(0, 467),24	10273,(0, 477),24	10489,(0, 487),24	10705,(0, 497),24	
97,(0, 6),24	313,(0, 16),24	529,(0, 26),24	745,(0, 36),24	961,(0, 46),24	1177,(0, 56),24	1393,(0, 66),24	1609,(0, 76),24	1825,(0, 86),24	2041,(0, 96),24	2257,(0, 106),24	2473,(0, 116),24	2689,(0, 126),24	2905,(0, 136),24	3121,(0, 146),24	3337,(0, 156),24	3553,(0, 166),24	3769,(0, 176),24	3985,(0, 186),24	4201,(0, 196),24	4417,(0, 206),24	4633,(0, 216),24	4849,(0, 226),24	5065,(0, 236),24	5281,(0, 246),24	5497,(0, 256),24	5713,(0, 266),24	5929,(0, 276),24	6145,(0, 286),24	6361,(0, 296),24	6577,(0, 306),24	6793,(0, 316),24	7009,(0, 326),24	7225,(0, 336),24	7441,(0, 346),24	7657,(0, 356),24	7873,(0, 366),24	8089,(0, 376),24	8305,(0, 386),24	8521,(0, 396),24	8737,(0, 406),24	8953,(0, 416),24	9169,(0, 426),24	9385,(0, 436),24	9601,(0, 446),24	9817,(0, 456),24	10033,(0, 466),24	10249,(0, 476),24	10465,(0, 486),24	10681,(0, 496),24	
73,(0, 5),24	289,(0, 15),24	505,(0, 25),24	721,(0, 35),24	937,(0, 45),24	1153,(0, 55),24	1369,(0, 65),24	1585,(0, 75),24	1801,(0, 85),24	2017,(0, 95),24	2233,(0, 105),24	2449,(0, 115),24	2665,(0, 125),24	2881,(0, 135),24	3097,(0, 145),24	3313,(0, 155),24	3529,(0, 165),24	3745,(0, 175),24	3961,(0, 185),24	4177,(0, 195),24	4393,(0, 205),24	4609,(0, 215),24	4825,(0, 225),24	5041,(0, 235),24	5257,(0, 245),24	5473,(0, 255),24	5689,(0, 265),24	5905,(0, 275),24	6121,(0, 285),24	6337,(0, 295),24	6553,(0, 305),24	6769,(0, 315),24	6985,(0, 325),24	7201,(0, 335),24	7417,(0, 345),24	7633,(0, 355),24	7849,(0, 365),24	8065,(0, 375),24	8281,(0, 385),24	8497,(0, 395),24	8713,(0, 405),24	8929,(0, 415),24	9145,(0, 425),24	9361,(0, 435),24	9577,(0, 445),24	9793,(0, 455),24	10009,(0, 465),24	10225,(0, 475),24	10441,(0, 485),24	10657,(0, 495),24	
49,(0, 4),24	265,(0, 14),24	481,(0, 24),24	697,(0, 34),24	913,(0, 44),24	1129,(0, 54),24	1345,(0, 64),24	1561,(0, 74),24	1777,(0, 84),24	1993,(0, 94),24	2209,(0, 104),24	2425,(0, 114),24	2641,(0, 124),24	2857,(0, 134),24	3073,(0, 144),24	3289,(0, 154),24	3505,(0, 164),24	3721,(0, 174),24	3937,(0, 184),24	4153,(0, 194),24	4369,(0, 204),24	4585,(0, 214),24	4801,(0, 224),24	5017,(0, 234),24	5233,(0, 244),24	5449,(0, 254),24	5665,(0, 264),24	5881,(0, 274),24	6097,(0, 284),24	6313,(0, 294),24	6529,(0, 304),24	6745,(0, 314),24	6961,(0, 324),24	7177,(0, 334),24	7393,(0, 344),24	7609,(0, 354),24	7825,(0, 364),24	8041,(0, 374),24	8257,(0, 384),24	8473,(0, 394),24	8689,(0, 404),24	8905,(0, 414),24	9121,(0, 424),24	9337,(0, 434),24	9553,(0, 444),24	9769,(0, 454),24	9985,(0, 464),24	10201,(0, 474),24	10417,(0, 484),24	10633,(0, 494),24	
25,(0, 3),24	241,(0, 13),24	457,(0, 23),24	673,(0, 33),24	889,(0, 43),24	1105,(0, 53),24	1321,(0, 63),24	1537,(0, 73),24	1753,(0, 83),24	1969,(0, 93),24	2185,(0, 103),24	2401,(0, 113),24	2617,(0, 123),24	2833,(0, 133),24	3049,(0, 143),24	3265,(0, 153),24	3481,(0, 163),24	3697,(0, 173),24	3913,(0, 183),24	4129,(0, 193),24	4345,(0, 203),24	4561,(0, 213),24	4777,(0, 223),24	4993,(0, 233),24	5209,(0, 243),24	5425,(0, 253),24	5641,(0, 263),24	5857,(0, 273),24	6073,(0, 283),24	6289,(0, 293),24	6505,(0, 303),24	6721,(0, 313),24	6937,(0, 323),24	7153,(0, 333),24	7369,(0, 343),24	7585,(0, 353),24	7801,(0, 363),24	8017,(0, 373),24	8233,(0, 383),24	8449,(0, 393),24	8665,(0, 403),24	8881,(0, 413),24	9097,(0, 423),24	9313,(0, 433),24	9529,(0, 443),24	9745,(0, 453),24	9961,(0, 463),24	10177,(0, 473),24	10393,(0, 483),24	10609,(0, 493),24	
1,(0, 2),24	217,(0, 12),24	433,(0, 22),24	649,(0, 32),24	865,(0, 42),24	1081,(0, 52),24	1297,(0, 62),24	1513,(0, 72),24	1729,(0, 82),24	1945,(0, 92),24	2161,(0, 102),24	2377,(0, 112),24	2593,(0, 122),24	2809,(0, 132),24	3025,(0, 142),24	3241,(0, 152),24	3457,(0, 162),24	3673,(0, 172),24	3889,(0, 182),24	4105,(0, 192),24	4321,(0, 202),24	4537,(0, 212),24	4753,(0, 222),24	4969,(0, 232),24	5185,(0, 242),24	5401,(0, 252),24	5617,(0, 262),24	5833,(0, 272),24	6049,(0, 282),24	6265,(0, 292),24	6481,(0, 302),24	6697,(0, 312),24	6913,(0, 322),24	7129,(0, 332),24	7345,(0, 342),24	7561,(0, 352),24	7777,(0, 362),24	7993,(0, 372),24	8209,(0, 382),24	8425,(0, 392),24	8641,(0, 402),24	8857,(0, 412),24	9073,(0, 422),24	9289,(0, 432),24	9505,(0, 442),24	9721,(0, 452),24	9937,(0, 462),24	10153,(0, 472),24	10369,(0, 482),24	10585,(0, 492),24	
26,(2, 501),2	50,(3, 501),2	74,(4, 501),2	98,(5, 501),2	122,(6, 501),2	146,(7, 501),2	170,(8, 501),2	194,(9, 501),2	218,(10, 501),2	242,(12, 501),2	266,(13, 501),2	290,(14, 501),2	314,(15, 501),2	338,(16, 501),2	362,(17, 501),2	386,(18, 501),2	410,(19, 501),2	434,(20, 501),2	458,(22, 501),2	482,(23, 501),2	506,(24, 501),2	530,(25, 501),2	554,(26, 501),2	578,(27, 501),2	602,(28, 501),2	626,(29, 501),2	650,(30, 501),2	674,(32, 501),2	698,(33, 501),2	722,(34, 501),2	746,(35, 501),2	770,(36, 501),2	794,(37, 501),2	818,(38, 501),2	842,(39, 501),2	866,(40, 501),2	890,(42, 501),2	914,(43, 501),2	938,(44, 501),2	962,(45, 501),2	986,(46, 501),2	1010,(47, 501),2	1034,(48, 501),2	1058,(49, 501),2	1082,(50, 501),2	1106,(52, 501),2	1130,(53, 501),2	1154,(54, 501),2	1178,(55, 501),2	1202,(56, 501),2	1226,(57, 501),2	1250,(58, 501),2	1274,(59, 501),2	1298,(60, 501),2	1322,(62, 501),2	1346,(63, 501),2	1370,(64, 501),2	1394,(65, 501),2	1418,(66, 501),2	1442,(67, 501),2	1466,(68, 501),2	1490,(69, 501),2	1514,(70, 501),2	1538,(72, 501),2	1562,(73, 501),2	1586,(74, 501),2	1610,(75, 501),2	1634,(76, 501),2	1658,(77, 501),2	1682,(78, 501),2	1706,(79, 501),2	1730,(80, 501),2	1754,(82, 501),2	1778,(83, 501),2	1802,(84, 501),2	1826,(85, 501),2	1850,(86, 501),2	1874,(87, 501),2	1898,(88, 501),2	1922,(89, 501),2	1946,(90, 501),2	1970,(92, 501),2	1994,(93, 501),2	2018,(94, 501),2	2042,(95, 501),2	2066,(96, 501),2	2090,(97, 501),2	2114,(98, 501),2	2138,(99, 501),2	2162,(100, 501),2	2186,(102, 501),2	2210,(103, 501),2	2234,(104, 501),2	2258,(105, 501),2	2282,(106, 501),2	2306,(107, 501),2	2330,(108, 501),2	2354,(109, 501),2	2378,(110, 501),2	2402,(112, 501),2	2426,(113, 501),2	2450,(114, 501),2	2474,(115, 501),2	2498,(116, 501),2	2522,(117, 501),2	2546,(118, 501),2	2570,(119, 501),2	2594,(120, 501),2	2618,(122, 501),2	2642,(123, 501),2	2666,(124, 501),2	2690,(125, 501),2	2714,(126, 501),2	2738,(127, 501),2	2762,(128, 501),2	2786,(129, 501),2	2810,(130, 501),2	2834,(132, 501),2	2858,(133, 501),2	2882,(134, 501),2	2906,(135, 501),2	2930,(136, 501),2	2954,(137, 501),2	2978,(138, 501),2	3002,(139, 501),2	3026,(140, 501),2	3050,(142, 501),2	3074,(143, 501),2	3098,(144, 501),2	3122,(145, 501),2	3146,(146, 501),2	3170,(147, 501),2	3194,(148, 501),2	3218,(149, 501),2	3242,(150, 501),2	3266,(152, 501),2	3290,(153, 501),2	3314,(154, 501),2	3338,(155, 501),2	3362,(156, 501),2	3386,(157, 501),2	3410,(158, 501),2	3434,(159, 501),2	3458,(160, 501),2	3482,(162, 501),2	3506,(163, 501),2	3530,(164, 501),2	3554,(165, 501),2	3578,(166, 501),2	3602,(167, 501),2	3626,(168, 501),2	3650,(169, 501),2	3674,(170, 501),2	3698,(172, 501),2	3722,(173, 501),2	3746,(174, 501),2	3770,(175, 501),2	3794,(176, 501),2	3818,(177, 501),2	3842,(178, 501),2	3866,(179, 501),2	3890,(180, 501),2	3914,(182, 501),2	3938,(183, 501),2	3962,(184, 501),2	3986,(185, 501),2	4010,(186, 501),2	4034,(187, 501),2	4058,(188, 501),2	4082,(189, 501),2	4106,(190, 501),2	4130,(192, 501),2	4154,(193, 501),2	4178,(194, 501),2	4202,(195, 501),2	4226,(196, 501),2	4250,(197, 501),2	4274,(198, 501),2	4298,(199, 501),2	4322,(200, 501),2	4346,(202, 501),2	4370,(203, 501),2	4394,(204, 501),2	4418,(205, 501),2	4442,(206, 501),2	4466,(207, 501),2	4490,(208, 501),2	4514,(209, 501),2	4538,(210, 501),2	4562,(212, 501),2	4586,(213, 501),2	4610,(214, 501),2	4634,(215, 501),2	4658,(216, 501),2	4682,(217, 501),2	4706,(218, 501),2	4730,(219, 501),2	4754,(220, 501),2	4778,(222, 501),2	4802,(223, 501),2	4826,(224, 501),2	4850,(225, 501),2	4874,(226, 501),2	4898,(227, 501),2	4922,(228, 501),2	4946,(229, 501),2	4970,(230, 501),2	4994,(232, 501),2	5018,(233, 501),2	5042,(234, 501),2	5066,(235, 501),2	5090,(236, 501),2	5114,(237, 501),2	5138,(238, 501),2	5162,(239, 501),2	5186,(240, 501),2	5210,(242, 501),2	5234,(243, 501),2	5258,(244, 501),2	5282,(245, 501),2	5306,(246, 501),2	5330,(247, 501),2	5354,(248, 501),2	5378,(249, 501),2	5402,(250, 501),2	5426,(252, 501),2	5450,(253, 501),2	5474,(254, 501),2	5498,(255, 501),2	5522,(256, 501),2	5546,(257, 501),2	5570,(258, 501),2	5594,(259, 501),2	5618,(260, 501),2	5642,(262, 501),2	5666,(263, 501),2	5690,(264, 501),2	5714,(265, 501),2	5738,(266, 501),2	5762,(267, 501),2	5786,(268, 501),2	5810,(269, 501),2	5834,(270, 501),2	5858,(272, 501),2	5882,(273, 501),2	5906,(274, 501),2	5930,(275, 501),2	5954,(276, 501),2	5978,(277, 501),2	6002,(278, 501),2	6026,(279, 501),2	6050,(280, 501),2	6074,(282, 501),2	6098,(283, 501),2	6122,(284, 501),2	6146,(285, 501),2	6170,(286, 501),2	6194,(287, 501),2	6218,(288, 501),2	6242,(289, 501),2	6266,(290, 501),2	6290,(292, 501),2	6314,(293, 501),2	6338,(294, 501),2	6362,(295, 501),2	6386,(296, 501),2	6410,(297, 501),2	6434,(298, 501),2	6458,(299, 501),2	6482,(300, 501),2	6506,(302, 501),2	6530,(303, 501),2	6554,(304, 501),2	6578,(305, 501),2	6602,(306, 501),2	6626,(307, 501),2	6650,(308, 501),2	6674,(309, 501),2	6698,(310, 501),2	6722,(312, 501),2	6746,(313, 501),2	6770,(314, 501),2	6794,(315, 501),2	6818,(316, 501),2	6842,(317, 501),2	6866,(318, 501),2	6890,(319, 501),2	6914,(320, 501),2	6938,(322, 501),2	6962,(323, 501),2	6986,(324, 501),2	7010,(325, 501),2	7034,(326, 501),2	7058,(327, 501),2	7082,(328, 501),2	7106,(329, 501),2	7130,(330, 501),2	7154,(332, 501),2	7178,(333, 501),2	7202,(334, 501),2	7226,(335, 501),2	7250,(336, 501),2	7274,(337, 501),2	7298,(338, 501),2	7322,(339, 501),2	7346,(340, 501),2	7370,(342, 501),2	7394,(343, 501),2	7418,(344, 501),2	7442,(345, 501),2	7466,(346, 501),2	7490,(347, 501),2	7514,(348, 501),2	7538,(349, 501),2	7562,(350, 501),2	7586,(352, 501),2	7610,(353, 501),2	7634,(354, 501),2	7658,(355, 501),2	7682,(356, 501),2	7706,(357, 501),2	7730,(358, 501),2	7754,(359, 501),2	7778,(360, 501),2	7802,(362, 501),2	7826,(363, 501),2	7850,(364, 501),2	7874,(365, 501),2	7898,(366, 501),2	7922,(367, 501),2	7946,(368, 501),2	7970,(369, 501),2	7994,(370, 501),2	8018,(372, 501),2	8042,(373, 501),2	8066,(374, 501),2	8090,(375, 501),2	8114,(376, 501),2	8138,(377, 501),2	8162,(378, 501),2	8186,(379, 501),2	8210,(380, 501),2	8234,(382, 501),2	8258,(383, 501),2	8282,(384, 501),2	8306,(385, 501),2	8330,(386, 501),2	8354,(387, 501),2	8378,(388, 501),2	8402,(389, 501),2	8426,(390, 501),2	8450,(392, 501),2	8474,(393, 501),2	8498,(394, 501),2	8522,(395, 501),2	8546,(396, 501),2	8570,(397, 501),2	8594,(398, 501),2	8618,(399, 501),2	8642,(400, 501),2	8666,(402, 501),2	8690,(403, 501),2	8714,(404, 501),2	8738,(405, 501),2	8762,(406, 501),2	8786,(407, 501),2	8810,(408, 501),2	8834,(409, 501),2	8858,(410, 501),2	8882,(412, 501),2	8906,(413, 501),2	8930,(414, 501),2	8954,(415, 501),2	8978,(416, 501),2	9002,(417, 501),2	9026,(418, 501),2	9050,(419, 501),2	9074,(420, 501),2	9098,(422, 501),2	9122,(423, 501),2	9146,(424, 501),2	9170,(425, 501),2	9194,(426, 501),2	9218,(427, 501),2	9242,(428, 501),2	9266,(429, 501),2	9290,(430, 501),2	9314,(432, 501),2	9338,(433, 501),2	9362,(434, 501),2	9386,(435, 501),2	9410,(436, 501),2	9434,(437, 501),2	9458,(438, 501),2	9482,(439, 501),2	9506,(440, 501),2	9530,(442, 501),2	9554,(443, 501),2	9578,(444, 501),2	9602,(445, 501),2	9626,(446, 501),2	9650,(447, 501),2	9674,(448, 501),2	9698,(449, 501),2	9722,(450, 501),2	9746,(452, 501),2	9770,(453, 501),2	9794,(454, 501),2	9818,(455, 501),2	9842,(456, 501),2	9866,(457, 501),2	9890,(458, 501),2	9914,(459, 501),2	9938,(460, 501),2	9962,(462, 501),2	9986,(463, 501),2	10010,(464, 501),2	10034,(465, 501),2	10058,(466, 501),2	10082,(467, 501),2	10106,(468, 501),2	10130,(469, 501),2	10154,(470, 501),2	10178,(472, 501),2	10202,(473, 501),2	10226,(474, 501),2	10250,(475, 501),2	10274,(476, 501),2	10298,(477, 501),2	10322,(478, 501),2	10346,(479, 501),2	10370,(480, 501),2	10394,(482, 501),2	10418,(483, 501),2	10442,(484, 501),2	10466,(485, 501),2	10490,(486, 501),2	10514,(487, 501),2	10538,(488, 501),2	10562,(489, 501),2	10586,(490, 501),2	10610,(492, 501),2	10634,(493, 501),2	10658,(494, 501),2	10682,(495, 501),2	10706,(496, 501),2	10730,(497, 501),2	10754,(498, 501),2	10778,(499, 501),2	10802,(500, 501),2	
# Outgoing
218,(10, 501),2	434,(20, 501),2	650,(30, 501),2	866,(40, 501),2	1082,(50, 501),2	1298,(60, 501),2	1514,(70, 501),2	1730,(80, 501),2	1946,(90, 501),2	2162,(100, 501),2	2378,(110, 501),2	2594,(120, 501),2	2810,(130, 501),2	3026,(140, 501),2	3242,(150, 501),2	3458,(160, 501),2	3674,(170, 501),2	3890,(180, 501),2	4106,(190, 501),2	4322,(200, 501),2	4538,(210, 501),2	4754,(220, 501),2	4970,(230, 501),2	5186,(240, 501),2	5402,(250, 501),2	5618,(260, 501),2	5834,(270, 501),2	6050,(280, 501),2	6266,(290, 501),2	6482,(300, 501),2	6698,(310, 501),2	6914,(320, 501),2	7130,(330, 501),2	7346,(340, 501),2	7562,(350, 501),2	7778,(360, 501),2	7994,(370, 501),2	8210,(380, 501),2	8426,(390, 501),2	8642,(400, 501),2	8858,(410, 501),2	9074,(420, 501),2	9290,(430, 501),2	9506,(440, 501),2	9722,(450, 501),2	9938,(460, 501),2	10154,(470, 501),2	10370,(480, 501),2	10586,(490, 501),2	10802,(500, 501),2	
194,(9, 501),2	410,(19, 501),2	626,(29, 501),2	842,(39, 501),2	1058,(49, 501),2	1274,(59, 501),2	1490,(69, 501),2	1706,(79, 501),2	1922,(89, 501),2	2138,(99, 501),2	2354,(109, 501),2	2570,(119, 501),2	2786,(129, 501),2	3002,(139, 501),2	3218,(149, 501),2	3434,(159, 501),2	3650,(169, 501),2	3866,(179, 501),2	4082,(189, 501),2	4298,(199, 501),2	4514,(209, 501),2	4730,(219, 501),2	4946,(229, 501),2	5162,(239, 501),2	5378,(249, 501),2	5594,(259, 501),2	5810,(269, 501),2	6026,(279, 501),2	6242,(289, 501),2	6458,(299, 501),2	6674,(309, 501),2	6890,(319, 501),2	7106,(329, 501),2	7322,(339, 501),2	7538,(349, 501),2	7754,(359, 501),2	7970,(369, 501),2	8186,(379, 501),2	8402,(389, 501),2	8618,(399, 501),2	8834,(409, 501),2	9050,(419, 501),2	9266,(429, 501),2	9482,(439, 501),2	9698,(449, 501),2	9914,(459, 501),2	10130,(469, 501),2	10346,(479, 501),2	10562,(489, 501),2	10778,(499, 501),2	
170,(8, 501),2	386,(18, 501),2	602,(28, 501),2	818,(38, 501),2	1034,(48, 501),2	1250,(58, 501),2	1466,(68, 501),2	1682,(78, 501),2	1898,(88, 501),2	2114,(98, 501),2	2330,(108, 501),2	2546,(118, 501),2	2762,(128, 501),2	2978,(138, 501),2	3194,(148, 501),2	3410,(158, 501),2	3626,(168, 501),2	3842,(178, 501),2	4058,(188, 501),2	4274,(198, 501),2	4490,(208, 501),2	4706,(218, 501),2	4922,(228, 501),2	5138,(238, 501),2	5354,(248, 501),2	5570,(258, 501),2	5786,(268, 501),2	6002,(278, 501),2	6218,(288, 501),2	6434,(298, 501),2	6650,(308, 501),2	6866,(318, 501),2	7082,(328, 501),2	7298,(338, 501),2	7514,(348, 501),2	7730,(358, 501),2	7946,(368, 501),2	8162,(378, 501),2	8378,(388, 501),2	8594,(398, 501),2	8810,(408, 501),2	9026,(418, 501),2	9242,(428, 501),2	9458,(438, 501),2	9674,(448, 501),2	9890,(458, 501),2	10106,(468, 501),2	10322,(478, 501),2	10538,(488, 501),2	10754,(498, 501),2	
146,(7, 501),2	362,(17, 501),2	578,(27, 501),2	794,(37, 501),2	1010,(47, 501),2	1226,(57, 501),2	1442,(67, 501),2	1658,(77, 501),2	1874,(87, 501),2	2090,(97, 501),2	2306,(107, 501),2	2522,(117, 501),2	2738,(127, 501),2	2954,(137, 501),2	3170,(147, 501),2	3386,(157, 501),2	3602,(167, 501),2	3818,(177, 501),2	4034,(187, 501),2	4250,(197, 501),2	4466,(207, 501),2	4682,(217, 501),2	4898,(227, 501),2	5114,(237, 501),2	5330,(247, 501),2	5546,(257, 501),2	5762,(267, 501),2	5978,(277, 501),2	6194,(287, 501),2	6410,(297, 501),2	6626,(307, 501),2	6842,(317, 501),2	7058,(327, 501),2	7274,(337, 501),2	7490,(347, 501),2	7706,(357, 501),2	7922,(367, 501),2	8138,(377, 501),2	8354,(387, 501),2	8570,(397, 501),2	8786,(407, 501),2	9002,(417, 501),2	9218,(427, 501),2	9434,(437, 501),2	9650,(447, 501),2	9866,(457, 501),2	10082,(467, 501),2	10298,(477, 501),2	10514,(487, 501),2	10730,(497, 501),2	
122,(6, 501),2	338,(16, 501),2	554,(26, 501),2	770,(36, 501),2	986,(46, 501),2	1202,(56, 501),2	1418,(66, 501),2	1634,(76, 501),2	1850,(86, 501),2	2066,(96, 501),2	2282,(106, 501),2	2498,(116, 501),2	2714,(126, 501),2	2930,(136, 501),2	3146,(146, 501),2	3362,(156, 501),2	3578,(166, 501),2	3794,(176, 501),2	4010,(186, 501),2	4226,(196, 501),2	4442,(206, 501),2	4658,(216, 501),2	4874,(226, 501),2	5090,(236, 501),2	5306,(246, 501),2	5522,(256, 501),2	5738,(266, 501),2	5954,(276, 501),2	6170,(286, 501),2	6386,(296, 501),2	6602,(306, 501),2	6818,(316, 501),2	7034,(326, 501),2	7250,(336, 501),2	7466,(346, 501),2	7682,(356, 501),2	7898,(366, 501),2	8114,(376, 501),2	8330,(386, 501),2	8546,(396, 501),2	8762,(406, 501),2	8978,(416, 501),2	9194,(426, 501),2	9410,(436, 501),2	9626,(446, 501),2	9842,(456, 501),2	10058,(466, 501),2	10274,(476, 501),2	10490,(486, 501),2	10706,(496, 501),2	
98,(5, 501),2	314,(15, 501),2	530,(25, 501),2	746,(35, 501),2	962,(45, 501),2	1178,(55, 501),2	1394,(65, 501),2	1610,(75, 501),2	1826,(85, 501),2	2042,(95, 501),2	2258,(105, 501),2	2474,(115, 501),2	2690,(125, 501),2	2906,(135, 501),2	3122,(145, 501),2	3338,(155, 501),2	3554,(165, 501),2	3770,(175, 501),2	3986,(185, 501),2	4202,(195, 501),2	4418,(205, 501),2	4634,(215, 501),2	4850,(225, 501),2	5066,(235, 501),2	5282,(245, 501),2	5498,(255, 501),2	5714,(265, 501),2	5930,(275, 501),2	6146,(285, 501),2	6362,(295, 501),2	6578,(305, 501),2	6794,(315, 501),2	7010,(325, 501),2	7226,(335, 501),2	7442,(345, 501),2	7658,(355, 501),2	7874,(365, 501),2	8090,(375, 501),2	8306,(385, 501),2	8522,(395, 501),2	8738,(405, 501),2	8954,(415, 501),2	9170,(425, 501),2	9386,(435, 501),2	9602,(445, 501),2	9818,(455, 501),2	10034,(465, 501),2	10250,(475, 501),2	10466,(485, 501),2	10682,(495, 501),2	
74,(4, 501),2	290,(14, 501),2	506,(24, 501),2	722,(34, 501),2	938,(44, 501),2	1154,(54, 501),2	1370,(64, 501),2	1586,(74, 501),2	1802,(84, 501),2	2018,(94, 501),2	2234,(104, 501),2	2450,(114, 501),2	2666,(124, 501),2	2882,(134, 501),2	3098,(144, 501),2	3314,(154, 501),2	3530,(164, 501),2	3746,(174, 501),2	3962,(184, 501),2	4178,(194, 501),2	4394,(204, 501),2	4610,(214, 501),2	4826,(224, 501),2	5042,(234, 501),2	5258,(244, 501),2	5474,(254, 501),2	5690,(264, 501),2	5906,(274, 501),2	6122,(284, 501),2	6338,(294, 501),2	6554,(304, 501),2	6770,(314, 501),2	6986,(324, 501),2	7202,(334, 501),2	7418,(344, 501),2	7634,(354, 501),2	7850,(364, 501),2	8066,(374, 501),2	8282,(384, 501),2	8498,(394, 501),2	8714,(404, 501),2	8930,(414, 501),2	9146,(424, 501),2	9362,(434, 501),2	9578,(444, 501),2	9794,(454, 501),2	10010,(464, 501),2	10226,(474, 501),2	10442,(484, 501),2	10658,(494, 501),2	
50,(3, 501),2	266,(13, 501),2	482,(23, 501),2	698,(33, 501),2	914,(43, 501),2	1130,(53, 501),2	1346,(63, 501),2	1562,(73, 501),2	1778,(83, 501),2	1994,(93, 501),2	2210,(103, 501),2	2426,(113, 501),2	2642,(123, 501),2	2858,(133, 501),2	3074,(143, 501),2	3290,(153, 501),2	3506,(163, 501),2	3722,(173, 501),2	3938,(183, 501),2	4154,(193, 501),2	4370,(203, 501),2	4586,(213, 501),2	4802,(223, 501),2	5018,(233, 501),2	5234,(243, 501),2	5450,(253, 501),2	5666,(263, 501),2	5882,(273, 501),2	6098,(283, 501),2	6314,(293, 501),2	6530,(303, 501),2	6746,(313, 501),2	6962,(323, 501),2	7178,(333, 501),2	7394,(343, 501),2	7610,(353, 501),2	7826,(363, 501),2	8042,(373, 501),2	8258,(383, 501),2	8474,(393, 501),2	8690,(403, 501),2	8906,(413, 501),2	9122,(423, 501),2	9338,(433, 501),2	9554,(443, 501),2	9770,(453, 501),2	9986,(463, 501),2	10202,(473, 501),2	10418,(483, 501),2	10634,(493, 501),2	
26,(2, 501),2	242,(12, 501),2	458,(22, 501),2	674,(32, 501),2	890,(42, 501),2	1106,(52, 501),2	1322,(62, 501),2	1538,(72, 501),2	1754,(82, 501),2	1970,(92, 501),2	2186,(102, 501),2	2402,(112, 501),2	2618,(122, 501),2	2834,(132, 501),2	3050,(142, 501),2	3266,(152, 501),2	3482,(162, 501),2	3698,(172, 501),2	3914,(182, 501),2	4130,(192, 501),2	4346,(202, 501),2	4562,(212, 501),2	4778,(222, 501),2	4994,(232, 501),2	5210,(242, 501),2	5426,(252, 501),2	5642,(262, 501),2	5858,(272, 501),2	6074,(282, 501),2	6290,(292, 501),2	6506,(302, 501),2	6722,(312, 501),2	6938,(322, 501),2	7154,(332, 501),2	7370,(342, 501),2	7586,(352, 501),2	7802,(362, 501),2	8018,(372, 501),2	8234,(382, 501),2	8450,(392, 501),2	8666,(402, 501),2	8882,(412, 501),2	9098,(422, 501),2	9314,(432, 501),2	9530,(442, 501),2	9746,(452, 501),2	9962,(462, 501),2	10178,(472, 501),2	10394,(482, 501),2	10610,(492, 501),2	
1,(0, 2),24	25,(0, 3),24	49,(0, 4),24	73,(0, 5),24	97,(0, 6),24	121,(0, 7),24	145,(0, 8),24	169,(0, 9),24	193,(0, 10),24	217,(0, 12),24	241,(0, 13),24	265,(0, 14),24	289,(0, 15),24	313,(0, 16),24	337,(0, 17),24	361,(0, 18),24	385,(0, 19),24	409,(0, 20),24	433,(0, 22),24	457,(0, 23),24	481,(0, 24),24	505,(0, 25),24	529,(0, 26),24	553,(0, 27),24	577,(0, 28),24	601,(0, 29),24	625,(0, 30),24	649,(0, 32),24	673,(0, 33),24	697,(0, 34),24	721,(0, 35),24	745,(0, 36),24	769,(0, 37),24	793,(0, 38),24	817,(0, 39),24	841,(0, 40),24	865,(0, 42),24	889,(0, 43),24	913,(0, 44),24	937,(0, 45),24	961,(0, 46),24	985,(0, 47),24	1009,(0, 48),24	1033,(0, 49),24	1057,(0, 50),24	1081,(0, 52),24	1105,(0, 53),24	1129,(0, 54),24	1153,(0, 55),24	1177,(0, 56),24	1201,(0, 57),24	1225,(0, 58),24	1249,(0, 59),24	1273,(0, 60),24	1297,(0, 62),24	1321,(0, 63),24	1345,(0, 64),24	1369,(0, 65),24	1393,(0, 66),24	1417,(0, 67),24	1441,(0, 68),24	1465,(0, 69),24	1489,(0, 70),24	1513,(0, 72),24	1537,(0, 73),24	1561,(0, 74),24	1585,(0, 75),24	1609,(0, 76),24	1633,(0, 77),24	1657,(0, 78),24	1681,(0, 79),24	1705,(0, 80),24	1729,(0, 82),24	1753,(0, 83),24	1777,(0, 84),24	1801,(0, 85),24	1825,(0, 86),24	1849,(0, 87),24	1873,(0, 88),24	1897,(0, 89),24	1921,(0, 90),24	1945,(0, 92),24	1969,(0, 93),24	1993,(0, 94),24	2017,(0, 95),24	2041,(0, 96),24	2065,(0, 97),24	2089,(0, 98),24	2113,(0, 99),24	2137,(0, 100),24	2161,(0, 102),24	2185,(0, 103),24	2209,(0, 104),24	2233,(0, 105),24	2257,(0, 106),24	2281,(0, 107),24	2305,(0, 108),24	2329,(0, 109),24	2353,(0, 110),24	2377,(0, 112),24	2401,(0, 113),24	2425,(0, 114),24	2449,(0, 115),24	2473,(0, 116),24	2497,(0, 117),24	2521,(0, 118),24	2545,(0, 119),24	2569,(0, 120),24	2593,(0, 122),24	2617,(0, 123),24	2641,(0, 124),24	2665,(0, 125),24	2689,(0, 126),24	2713,(0, 127),24	2737,(0, 128),24	2761,(0, 129),24	2785,(0, 130),24	2809,(0, 132),24	2833,(0, 133),24	2857,(0, 134),24	2881,(0, 135),24	2905,(0, 136),24	2929,(0, 137),24	2953,(0, 138),24	2977,(0, 139),24	3001,(0, 140),24	3025,(0, 142),24	3049,(0, 143),24	3073,(0, 144),24	3097,(0, 145),24	3121,(0, 146),24	3145,(0, 147),24	3169,(0, 148),24	3193,(0, 149),24	3217,(0, 150),24	3241,(0, 152),24	3265,(0, 153),24	3289,(0, 154),24	3313,(0, 155),24	3337,(0, 156),24	3361,(0, 157),24	3385,(0, 158),24	3409,(0, 159),24	3433,(0, 160),24	3457,(0, 162),24	3481,(0, 163),24	3505,(0, 164),24	3529,(0, 165),24	3553,(0, 166),24	3577,(0, 167),24	3601,(0, 168),24	3625,(0, 169),24	3649,(0, 170),24	3673,(0, 172),24	3697,(0, 173),24	3721,(0, 174),24	3745,(0, 175),24	3769,(0, 176),24	3793,(0, 177),24	3817,(0, 178),24	3841,(0, 179),24	3865,(0, 180),24	3889,(0, 182),24	3913,(0, 183),24	3937,(0, 184),24	3961,(0, 185),24	3985,(0, 186),24	4009,(0, 187),24	4033,(0, 188),24	4057,(0, 189),24	4081,(0, 190),24	4105,(0, 192),24	4129,(0, 193),24	4153,(0, 194),24	4177,(0, 195),24	4201,(0, 196),24	4225,(0, 197),24	4249,(0, 198),24	4273,(0, 199),24	4297,(0, 200),24	4321,(0, 202),24	4345,(0, 203),24	4369,(0, 204),24	4393,(0, 205),24	4417,(0, 206),24	4441,(0, 207),24	4465,(0, 208),24	4489,(0, 209),24	4513,(0, 210),24	4537,(0, 212),24	4561,(0, 213),24	4585,(0, 214),24	4609,(0, 215),24	4633,(0, 216),24	4657,(0, 217),24	4681,(0, 218),24	4705,(0, 219),24	4729,(0, 220),24	4753,(0, 222),24	4777,(0, 223),24	4801,(0, 224),24	4825,(0, 225),24	4849,(0, 226),24	4873,(0, 227),24	4897,(0, 228),24	4921,(0, 229),24	4945,(0, 230),24	4969,(0, 232),24	4993,(0, 233),24	5017,(0, 234),24	5041,(0, 235),24	5065,(0, 236),24	5089,(0, 237),24	5113,(0, 238),24	5137,(0, 239),24	5161,(0, 240),24	5185,(0, 242),24	5209,(0, 243),24	5233,(0, 244),24	5257,(0, 245),24	5281,(0, 246),24	5305,(0, 247),24	5329,(0, 248),24	5353,(0, 249),24	5377,(0, 250),24	5401,(0, 252),24	5425,(0, 253),24	5449,(0, 254),24	5473,(0, 255),24	5497,(0, 256),24	5521,(0, 257),24	5545,(0, 258),24	5569,(0, 259),24	5593,(0, 260),24	5617,(0, 262),24	5641,(0, 263),24	5665,(0, 264),24	5689,(0, 265),24	5713,(0, 266),24	5737,(0, 267),24	5761,(0, 268),24	5785,(0, 269),24	5809,(0, 270),24	5833,(0, 272),24	5857,(0, 273),24	5881,(0, 274),24	5905,(0, 275),24	5929,(0, 276),24	5953,(0, 277),24	5977,(0, 278),24	6001,(0, 279),24	6025,(0, 280),24	6049,(0, 282),24	6073,(0, 283),24	6097,(0, 284),24	6121,(0, 285),24	6145,(0, 286),24	6169,(0, 287),24	6193,(0, 288),24	6217,(0, 289),24	6241,(0, 290),24	6265,(0, 292),24	6289,(0, 293),24	6313,(0, 294),24	6337,(0, 295),24	6361,(0, 296),24	6385,(0, 297),24	6409,(0, 298),24	6433,(0, 299),24	6457,(0, 300),24	6481,(0, 302),24	6505,(0, 303),24	6529,(0, 304),24	6553,(0, 305),24	6577,(0, 306),24	6601,(0, 307),24	6625,(0, 308),24	6649,(0, 309),24	6673,(0, 310),24	6697,(0, 312),24	6721,(0, 313),24	6745,(0, 314),24	6769,(0, 315),24	6793,(0, 316),24	6817,(0, 317),24	6841,(0, 318),24	6865,(0, 319),24	6889,(0, 320),24	6913,(0, 322),24	6937,(0, 323),24	6961,(0, 324),24	6985,(0, 325),24	7009,(0, 326),24	7033,(0, 327),24	7057,(0, 328),24	7081,(0, 329),24	7105,(0, 330),24	7129,(0, 332),24	7153,(0, 333),24	7177,(0, 334),24	7201,(0, 335),24	7225,(0, 336),24	7249,(0, 337),24	7273,(0, 338),24	7297,(0, 339),24	7321,(0, 340),24	7345,(0, 342),24	7369,(0, 343),24	7393,(0, 344),24	7417,(0, 345),24	7441,(0, 346),24	7465,(0, 347),24	7489,(0, 348),24	7513,(0, 349),24	7537,(0, 350),24	7561,(0, 352),24	7585,(0, 353),24	7609,(0, 354),24	7633,(0, 355),24	7657,(0, 356),24	7681,(0, 357),24	7705,(0, 358),24	7729,(0, 359),24	7753,(0, 360),24	7777,(0, 362),24	7801,(0, 363),24	7825,(0, 364),24	7849,(0, 365),24	7873,(0, 366),24	7897,(0, 367),24	7921,(0, 368),24	7945,(0, 369),24	7969,(0, 370),24	7993,(0, 372),24	8017,(0, 373),24	8041,(0, 374),24	8065,(0, 375),24	8089,(0, 376),24	8113,(0, 377),24	8137,(0, 378),24	8161,(0, 379),24	8185,(0, 380),24	8209,(0, 382),24	8233,(0, 383),24	8257,(0, 384),24	8281,(0, 385),24	8305,(0, 386),24	8329,(0, 387),24	8353,(0, 388),24	8377,(0, 389),24	8401,(0, 390),24	8425,(0, 392),24	8449,(0, 393),24	8473,(0, 394),24	8497,(0, 395),24	8521,(0, 396),24	8545,(0, 397),24	8569,(0, 398),24	8593,(0, 399),24	8617,(0, 400),24	8641,(0, 402),24	8665,(0, 403),24	8689,(0, 404),24	8713,(0, 405),24	8737,(0, 406),24	8761,(0, 407),24	8785,(0, 408),24	8809,(0, 409),24	8833,(0, 410),24	8857,(0, 412),24	8881,(0, 413),24	8905,(0, 414),24	8929,(0, 415),24	8953,(0, 416),24	8977,(0, 417),24	9001,(0, 418),24	9025,(0, 419),24	9049,(0, 420),24	9073,(0, 422),24	9097,(0, 423),24	9121,(0, 424),24	9145,(0, 425),24	9169,(0, 426),24	9193,(0, 427),24	9217,(0, 428),24	9241,(0, 429),24	9265,(0, 430),24	9289,(0, 432),24	9313,(0, 433),24	9337,(0, 434),24	9361,(0, 435),24	9385,(0, 436),24	9409,(0, 437),24	9433,(0, 438),24	9457,(0, 439),24	9481,(0, 440),24	9505,(0, 442),24	9529,(0, 443),24	9553,(0, 444),24	9577,(0, 445),24	9601,(0, 446),24	9625,(0, 447),24	9649,(0, 448),24	9673,(0, 449),24	9697,(0, 450),24	9721,(0, 452),24	9745,(0, 453),24	9769,(0, 454),24	9793,(0, 455),24	9817,(0, 456),24	9841,(0, 457),24	9865,(0, 458),24	9889,(0, 459),24	9913,(0, 460),24	9937,(0, 462),24	9961,(0, 463),24	9985,(0, 464),24	10009,(0, 465),24	10033,(0, 466),24	10057,(0, 467),24	10081,(0, 468),24	10105,(0, 469),24	10129,(0, 470),24	10153,(0, 472),24	10177,(0, 473),24	10201,(0, 474),24	10225,(0, 475),24	10249,(0, 476),24	10273,(0, 477),24	10297,(0, 478),24	10321,(0, 479),24	10345,(0, 480),24	10369,(0, 482),24	10393,(0, 483),24	10417,(0, 484),24	10441,(0, 485),24	10465,(0, 486),24	10489,(0, 487),24	10513,(0, 488),24	10537,(0, 489),24	10561,(0, 490),24	10585,(0, 492),24	10609,(0, 493),24	10633,(0, 494),24	10657,(0, 495),24	10681,(0, 496),24	10705,(0, 497),24	10729,(0, 498),24	10753,(0, 499),24	10777,(0, 500),24	
