2840
# CPU
0,501,1	1,500,6	7,328,6	13,329,6	19,327,6	25,326,6	31,325,6	37,330,6	43,324,6	49,323,6	55,322,6	61,331,6	67,321,6	73,332,6	79,320,6	85,333,6	91,319,6	97,318,6	103,317,6	109,334,6	115,316,6	121,335,6	127,315,6	133,336,6	139,313,6	145,312,6	151,314,6	157,311,6	163,337,6	169,310,6	175,338,6	181,309,6	187,308,6	193,307,6	199,339,6	205,306,6	211,305,6	217,304,6	223,340,6	229,303,6	235,302,6	241,301,6	247,300,6	253,341,6	259,299,6	265,342,6	271,298,6	277,297,6	283,296,6	289,344,6	295,295,6	301,345,6	307,294,6	313,346,6	319,293,6	325,292,6	331,291,6	337,347,6	343,290,6	349,289,6	355,348,6	361,288,6	367,287,6	373,286,6	379,349,6	385,285,6	391,284,6	397,283,6	403,351,6	409,282,6	415,281,6	421,280,6	427,352,6	433,279,6	439,278,6	445,353,6	451,277,6	457,276,6	463,275,6	469,354,6	475,274,6	481,356,6	487,273,6	493,357,6	499,272,6	505,271,6	511,270,6	517,358,6	523,269,6	529,359,6	535,268,6	541,267,6	547,266,6	553,265,6	559,360,6	565,264,6	571,263,6	577,262,6	583,362,6	589,261,6	595,260,6	601,259,6	607,363,6	613,258,6	619,364,6	625,257,6	631,365,6	637,256,6	643,254,6	649,255,6	655,253,6	661,367,6	667,252,6	673,368,6	679,251,6	685,250,6	691,249,6	697,369,6	703,248,6	709,370,6	715,247,6	721,371,6	727,246,6	733,245,6	739,244,6	745,243,6	751,242,6	757,241,6	763,372,6	769,240,6	775,239,6	781,238,6	787,374,6	793,237,6	799,375,6	805,236,6	811,376,6	817,235,6	823,234,6	829,233,6	835,377,6	841,232,6	847,231,6	853,379,6	859,230,6	865,229,6	871,228,6	877,380,6	883,227,6	889,381,6	895,226,6	901,382,6	907,225,6	913,224,6	919,223,6	925,383,6	931,222,6	937,221,6	943,220,6	949,219,6	955,218,6	961,217,6	967,385,6	973,216,6	979,386,6	985,215,6	991,387,6	997,214,6	1003,213,6	1009,212,6	1015,388,6	1021,211,6	1027,389,6	1033,210,6	1039,209,6	1045,208,6	1051,207,6	1057,391,6	1063,206,6	1069,392,6	1075,205,6	1081,393,6	1087,204,6	1093,203,6	1099,202,6	1105,394,6	1111,201,6	1117,200,6	1123,199,6	1129,396,6	1135,198,6	1141,196,6	1147,197,6	1153,195,6	1159,397,6	1165,194,6	1171,398,6	1177,193,6	1183,192,6	1189,191,6	1195,399,6	1201,190,6	1207,400,6	1213,189,6	1219,401,6	1225,188,6	1231,187,6	1237,186,6	1243,185,6	1249,403,6	1255,184,6	1261,404,6	1267,183,6	1273,182,6	1279,181,6	1285,405,6	1291,180,6	1297,179,6	1303,178,6	1309,406,6	1315,177,6	1321,176,6	1327,175,6	1333,408,6	1339,174,6	1345,173,6	1351,409,6	1357,172,6	1363,171,6	1369,170,6	1375,410,6	1381,169,6	1387,420,6	1393,419,6	1399,421,6	1405,418,6	1411,417,6	1417,416,6	1423,422,6	1429,415,6	1435,423,6	1441,424,6	1447,414,6	1453,412,6	1459,411,6	1465,425,6	1471,168,6	1477,167,6	1483,166,6	1489,426,6	1495,165,6	1501,164,6	1507,162,6	1513,427,6	1519,161,6	1525,428,6	1531,160,6	1537,429,6	1543,159,6	1549,158,6	1555,430,6	1561,157,6	1567,156,6	1573,155,6	1579,431,6	1585,154,6	1591,153,6	1597,152,6	1603,432,6	1609,150,6	1615,433,6	1621,149,6	1627,434,6	1633,148,6	1639,147,6	1645,435,6	1651,146,6	1657,145,6	1663,144,6	1669,436,6	1675,143,6	1681,142,6	1687,141,6	1693,437,6	1699,139,6	1705,438,6	1711,138,6	1717,439,6	1723,137,6	1729,136,6	1735,135,6	1741,440,6	1747,134,6	1753,133,6	1759,441,6	1765,132,6	1771,131,6	1777,130,6	1783,442,6	1789,129,6	1795,443,6	1801,127,6	1807,444,6	1813,126,6	1819,125,6	1825,124,6	1831,445,6	1837,123,6	1843,122,6	1849,446,6	1855,121,6	1861,120,6	1867,119,6	1873,447,6	1879,118,6	1885,448,6	1891,117,6	1897,449,6	1903,115,6	1909,114,6	1915,113,6	1921,450,6	1927,112,6	1933,111,6	1939,451,6	1945,110,6	1951,109,6	1957,108,6	1963,452,6	1969,107,6	1975,453,6	1981,106,6	1987,454,6	1993,104,6	1999,103,6	2005,102,6	2011,455,6	2017,101,6	2023,100,6	2029,99,6	2035,456,6	2041,98,6	2047,97,6	2053,457,6	2059,96,6	2065,458,6	2071,95,6	2077,459,6	2083,94,6	2089,92,6	2095,91,6	2101,460,6	2107,90,6	2113,81,6	2119,80,6	2125,82,6	2131,79,6	2137,78,6	2143,77,6	2149,76,6	2155,83,6	2161,75,6	2167,84,6	2173,74,6	2179,73,6	2185,72,6	2191,85,6	2197,71,6	2203,86,6	2209,70,6	2215,87,6	2221,69,6	2227,68,6	2233,67,6	2239,66,6	2245,88,6	2251,65,6	2257,89,6	2263,64,6	2269,63,6	2275,62,6	2281,461,6	2287,61,6	2293,463,6	2299,60,6	2305,464,6	2311,59,6	2317,58,6	2323,57,6	2329,465,6	2335,56,6	2341,55,6	2347,466,6	2353,54,6	2359,53,6	2365,52,6	2371,468,6	2377,51,6	2383,469,6	2389,50,6	2395,470,6	2401,49,6	2407,48,6	2413,47,6	2419,471,6	2425,46,6	2431,473,6	2437,45,6	2443,44,6	2449,43,6	2455,42,6	2461,474,6	2467,41,6	2473,484,6	2479,483,6	2485,485,6	2491,482,6	2497,481,6	2503,480,6	2509,486,6	2515,479,6	2521,477,6	2527,476,6	2533,487,6	2539,475,6	2545,40,6	2551,488,6	2557,39,6	2563,38,6	2569,37,6	2575,489,6	2581,36,6	2587,35,6	2593,33,6	2599,490,6	2605,32,6	2611,31,6	2617,30,6	2623,491,6	2629,29,6	2635,28,6	2641,492,6	2647,27,6	2653,17,6	2659,16,6	2665,18,6	2671,15,6	2677,19,6	2683,14,6	2689,20,6	2695,13,6	2701,21,6	2707,12,6	2713,22,6	2719,11,6	2725,24,6	2731,10,6	2737,25,6	2743,1,6	2749,2,6	2755,3,6	2761,4,6	2767,5,6	2773,6,6	2779,7,6	2785,8,6	2791,9,6	2797,26,6	2803,493,6	2809,494,6	2815,495,6	2821,497,6	2827,498,6	2833,499,6	2839,0,1	
201,350,6	401,361,6	601,373,6	1101,402,6	1401,163,6	1501,151,6	1601,140,6	1701,128,6	2101,462,6	2201,467,6	2401,478,6	2501,34,6	2601,23,6	2701,496,6	
101,343,6	301,355,6	501,366,6	701,378,6	801,384,6	901,390,6	1001,395,6	1201,407,6	1301,413,6	1801,116,6	1901,105,6	2001,93,6	2301,472,6	
# Incoming
107,(343, 0),36	207,(350, 0),36	307,(355, 0),36	407,(361, 0),36	507,(366, 0),36	607,(373, 0),36	707,(378, 0),36	807,(384, 0),36	907,(390, 0),36	1007,(395, 0),36	1107,(402, 0),36	1207,(407, 0),36	1307,(413, 0),36	1407,(163, 0),36	1507,(151, 0),36	1607,(140, 0),36	1707,(128, 0),36	1807,(116, 0),36	1907,(105, 0),36	2007,(93, 0),36	2107,(462, 0),36	2207,(467, 0),36	2307,(472, 0),36	2407,(478, 0),36	2507,(34, 0),36	2607,(23, 0),36	2707,(496, 0),36	
101,(501, 350),100	301,(501, 361),100	501,(501, 373),100	1001,(501, 402),100	1301,(501, 163),100	1401,(501, 151),100	1501,(501, 140),100	1601,(501, 128),100	2001,(501, 462),100	2101,(501, 467),100	2301,(501, 478),100	2401,(501, 34),100	2501,(501, 23),100	2601,(501, 496),100	
1,(501, 343),100	201,(501, 355),100	401,(501, 366),100	601,(501, 378),100	701,(501, 384),100	801,(501, 390),100	901,(501, 395),100	1101,(501, 407),100	1201,(501, 413),100	1701,(501, 116),100	1801,(501, 105),100	1901,(501, 93),100	2201,(501, 472),100	
# Outgoing
1,(501, 343),100	101,(501, 350),100	201,(501, 355),100	301,(501, 361),100	401,(501, 366),100	501,(501, 373),100	601,(501, 378),100	701,(501, 384),100	801,(501, 390),100	901,(501, 395),100	1001,(501, 402),100	1101,(501, 407),100	1201,(501, 413),100	1301,(501, 163),100	1401,(501, 151),100	1501,(501, 140),100	1601,(501, 128),100	1701,(501, 116),100	1801,(501, 105),100	1901,(501, 93),100	2001,(501, 462),100	2101,(501, 467),100	2201,(501, 472),100	2301,(501, 478),100	2401,(501, 34),100	2501,(501, 23),100	2601,(501, 496),100	
207,(350, 0),36	407,(361, 0),36	607,(373, 0),36	1107,(402, 0),36	1407,(163, 0),36	1507,(151, 0),36	1607,(140, 0),36	1707,(128, 0),36	2107,(462, 0),36	2207,(467, 0),36	2407,(478, 0),36	2507,(34, 0),36	2607,(23, 0),36	2707,(496, 0),36	
107,(343, 0),36	307,(355, 0),36	507,(366, 0),36	707,(378, 0),36	807,(384, 0),36	907,(390, 0),36	1007,(395, 0),36	1207,(407, 0),36	1307,(413, 0),36	1807,(116, 0),36	1907,(105, 0),36	2007,(93, 0),36	2307,(472, 0),36	
