4758
# CPU
5,2,19	24,4,19	43,6,19	62,8,19	81,10,19	100,12,19	119,14,19	138,16,19	157,18,19	176,20,19	195,22,19	214,24,19	233,26,19	252,28,19	271,30,19	290,32,19	309,34,19	328,36,19	347,38,19	366,40,19	385,42,19	404,44,19	423,46,19	442,48,19	461,50,19	480,52,19	499,54,19	518,56,19	537,58,19	556,60,19	575,62,19	594,64,19	613,66,19	632,68,19	651,70,19	670,72,19	689,74,19	708,76,19	727,78,19	746,80,19	765,82,19	784,84,19	803,86,19	822,88,19	841,90,19	860,92,19	879,94,19	898,96,19	917,98,19	936,100,19	955,102,19	974,104,19	993,106,19	1012,108,19	1031,110,19	1050,112,19	1069,114,19	1088,116,19	1107,118,19	1126,120,19	1145,122,19	1164,124,19	1183,126,19	1202,128,19	1221,130,19	1240,132,19	1259,134,19	1278,136,19	1297,138,19	1316,140,19	1335,142,19	1354,144,19	1373,146,19	1392,148,19	1411,150,19	1430,152,19	1449,154,19	1468,156,19	1487,158,19	1506,160,19	1525,162,19	1544,164,19	1563,166,19	1582,168,19	1601,170,19	1620,172,19	1639,174,19	1658,176,19	1677,178,19	1696,180,19	1715,182,19	1734,184,19	1753,186,19	1772,188,19	1791,190,19	1810,192,19	1829,194,19	1848,196,19	1867,198,19	1886,200,19	1905,202,19	1924,204,19	1943,206,19	1962,208,19	1981,210,19	2000,212,19	2019,214,19	2038,216,19	2057,218,19	2076,220,19	2095,222,19	2114,224,19	2133,226,19	2152,228,19	2171,230,19	2190,232,19	2209,234,19	2228,236,19	2247,238,19	2266,240,19	2285,242,19	2304,244,19	2323,246,19	2342,248,19	2361,250,19	2380,252,19	2399,254,19	2418,256,19	2437,258,19	2456,260,19	2475,262,19	2494,264,19	2513,266,19	2532,268,19	2551,270,19	2570,272,19	2589,274,19	2608,276,19	2627,278,19	2646,280,19	2665,282,19	2684,284,19	2703,286,19	2722,288,19	2741,290,19	2760,292,19	2779,294,19	2798,296,19	2817,298,19	2836,300,19	2855,302,19	2874,304,19	2893,306,19	2912,308,19	2931,310,19	2950,312,19	2969,314,19	2988,316,19	3007,318,19	3026,320,19	3045,322,19	3064,324,19	3083,326,19	3102,328,19	3121,330,19	3140,332,19	3159,334,19	3178,336,19	3197,338,19	3216,340,19	3235,342,19	3254,344,19	3273,346,19	3292,348,19	3311,350,19	3330,352,19	3349,354,19	3368,356,19	3387,358,19	3406,360,19	3425,362,19	3444,364,19	3463,366,19	3482,368,19	3501,370,19	3520,372,19	3539,374,19	3558,376,19	3577,378,19	3596,380,19	3615,382,19	3634,384,19	3653,386,19	3672,388,19	3691,390,19	3710,392,19	3729,394,19	3748,396,19	3767,398,19	3786,400,19	3805,402,19	3824,404,19	3843,406,19	3862,408,19	3881,410,19	3900,412,19	3919,414,19	3938,416,19	3957,418,19	3976,420,19	3995,422,19	4014,424,19	4033,426,19	4052,428,19	4071,430,19	4090,432,19	4109,434,19	4128,436,19	4147,438,19	4166,440,19	4185,442,19	4204,444,19	4223,446,19	4242,448,19	4261,450,19	4280,452,19	4299,454,19	4318,456,19	4337,458,19	4356,460,19	4375,462,19	4394,464,19	4413,466,19	4432,468,19	4451,470,19	4470,472,19	4489,474,19	4508,476,19	4527,478,19	4546,480,19	4565,482,19	4584,484,19	4603,486,19	4622,488,19	4641,490,19	4660,492,19	4679,494,19	4698,496,19	4717,498,19	4736,500,19	
0,0,1	1,1,19	20,5,19	39,13,19	58,29,19	77,61,19	96,125,19	115,253,19	134,499,19	153,497,19	172,495,19	191,493,19	210,491,19	229,489,19	248,487,19	267,485,19	286,483,19	305,481,19	324,479,19	343,477,19	362,475,19	381,473,19	400,471,19	419,469,19	438,467,19	457,465,19	476,463,19	495,461,19	514,459,19	533,457,19	552,455,19	571,453,19	590,451,19	609,449,19	628,447,19	647,445,19	666,443,19	685,441,19	704,439,19	723,437,19	742,435,19	761,433,19	780,431,19	799,429,19	818,427,19	837,425,19	856,423,19	875,421,19	894,419,19	913,417,19	932,415,19	951,413,19	970,411,19	989,409,19	1008,407,19	1027,405,19	1046,403,19	1065,401,19	1084,399,19	1103,397,19	1122,395,19	1141,393,19	1160,391,19	1179,389,19	1198,387,19	1217,385,19	1236,383,19	1255,381,19	1274,379,19	1293,377,19	1312,375,19	1331,373,19	1350,371,19	1369,369,19	1388,367,19	1407,365,19	1426,363,19	1445,361,19	1464,359,19	1483,357,19	1502,355,19	1521,353,19	1540,351,19	1559,349,19	1578,347,19	1597,345,19	1616,343,19	1635,341,19	1654,339,19	1673,337,19	1692,335,19	1711,333,19	1730,331,19	1749,329,19	1768,327,19	1787,325,19	1806,323,19	1825,321,19	1844,319,19	1863,317,19	1882,315,19	1901,313,19	1920,311,19	1939,309,19	1958,307,19	1977,305,19	1996,303,19	2015,301,19	2034,299,19	2053,297,19	2072,295,19	2091,293,19	2110,291,19	2129,289,19	2148,287,19	2167,285,19	2186,283,19	2205,281,19	2224,279,19	2243,277,19	2262,275,19	2281,273,19	2300,271,19	2319,269,19	2338,267,19	2357,265,19	2376,263,19	2395,261,19	2414,259,19	2433,257,19	2452,251,19	2471,255,19	2490,249,19	2509,247,19	2528,245,19	2547,243,19	2566,241,19	2585,239,19	2604,237,19	2623,235,19	2642,233,19	2661,231,19	2680,229,19	2699,227,19	2718,225,19	2737,223,19	2756,221,19	2775,219,19	2794,217,19	2813,215,19	2832,213,19	2851,211,19	2870,209,19	2889,207,19	2908,205,19	2927,203,19	2946,201,19	2965,199,19	2984,197,19	3003,195,19	3022,193,19	3041,191,19	3060,189,19	3079,187,19	3098,185,19	3117,183,19	3136,181,19	3155,179,19	3174,177,19	3193,175,19	3212,173,19	3231,171,19	3250,169,19	3269,167,19	3288,165,19	3307,163,19	3326,161,19	3345,159,19	3364,157,19	3383,155,19	3402,153,19	3421,151,19	3440,149,19	3459,147,19	3478,145,19	3497,143,19	3516,141,19	3535,139,19	3554,137,19	3573,135,19	3592,133,19	3611,131,19	3630,129,19	3649,123,19	3668,127,19	3687,121,19	3706,119,19	3725,117,19	3744,115,19	3763,113,19	3782,111,19	3801,109,19	3820,107,19	3839,105,19	3858,103,19	3877,101,19	3896,99,19	3915,97,19	3934,95,19	3953,93,19	3972,91,19	3991,89,19	4010,87,19	4029,85,19	4048,83,19	4067,81,19	4086,79,19	4105,77,19	4124,75,19	4143,73,19	4162,71,19	4181,69,19	4200,67,19	4219,65,19	4238,59,19	4257,63,19	4276,57,19	4295,55,19	4314,53,19	4333,51,19	4352,49,19	4371,47,19	4390,45,19	4409,43,19	4428,41,19	4447,39,19	4466,37,19	4485,35,19	4504,33,19	4523,27,19	4542,31,19	4561,25,19	4580,23,19	4599,21,19	4618,19,19	4637,17,19	4656,11,19	4675,15,19	4694,9,19	4713,3,19	4732,7,19	4757,501,1	
# Incoming
1,(0, 2),4	5,(0, 4),4	9,(0, 6),4	13,(0, 8),4	17,(0, 10),4	21,(0, 12),4	25,(0, 14),4	29,(0, 16),4	33,(0, 18),4	37,(0, 20),4	41,(0, 22),4	45,(0, 24),4	49,(0, 26),4	53,(0, 28),4	57,(0, 30),4	61,(0, 32),4	65,(0, 34),4	69,(0, 36),4	73,(0, 38),4	77,(0, 40),4	81,(0, 42),4	85,(0, 44),4	89,(0, 46),4	93,(0, 48),4	97,(0, 50),4	101,(0, 52),4	105,(0, 54),4	109,(0, 56),4	113,(0, 58),4	117,(0, 60),4	121,(0, 62),4	125,(0, 64),4	129,(0, 66),4	133,(0, 68),4	137,(0, 70),4	141,(0, 72),4	145,(0, 74),4	149,(0, 76),4	153,(0, 78),4	157,(0, 80),4	161,(0, 82),4	165,(0, 84),4	169,(0, 86),4	173,(0, 88),4	177,(0, 90),4	181,(0, 92),4	185,(0, 94),4	189,(0, 96),4	193,(0, 98),4	197,(0, 100),4	201,(0, 102),4	205,(0, 104),4	209,(0, 106),4	213,(0, 108),4	217,(0, 110),4	221,(0, 112),4	225,(0, 114),4	229,(0, 116),4	233,(0, 118),4	237,(0, 120),4	241,(0, 122),4	245,(0, 124),4	249,(0, 126),4	253,(0, 128),4	257,(0, 130),4	261,(0, 132),4	265,(0, 134),4	269,(0, 136),4	273,(0, 138),4	277,(0, 140),4	281,(0, 142),4	285,(0, 144),4	289,(0, 146),4	293,(0, 148),4	297,(0, 150),4	301,(0, 152),4	305,(0, 154),4	309,(0, 156),4	313,(0, 158),4	317,(0, 160),4	321,(0, 162),4	325,(0, 164),4	329,(0, 166),4	333,(0, 168),4	337,(0, 170),4	341,(0, 172),4	345,(0, 174),4	349,(0, 176),4	353,(0, 178),4	357,(0, 180),4	361,(0, 182),4	365,(0, 184),4	369,(0, 186),4	373,(0, 188),4	377,(0, 190),4	381,(0, 192),4	385,(0, 194),4	389,(0, 196),4	393,(0, 198),4	397,(0, 200),4	401,(0, 202),4	405,(0, 204),4	409,(0, 206),4	413,(0, 208),4	417,(0, 210),4	421,(0, 212),4	425,(0, 214),4	429,(0, 216),4	433,(0, 218),4	437,(0, 220),4	441,(0, 222),4	445,(0, 224),4	449,(0, 226),4	453,(0, 228),4	457,(0, 230),4	461,(0, 232),4	465,(0, 234),4	469,(0, 236),4	473,(0, 238),4	477,(0, 240),4	481,(0, 242),4	485,(0, 244),4	489,(0, 246),4	493,(0, 248),4	497,(0, 250),4	501,(0, 252),4	505,(0, 254),4	509,(0, 256),4	513,(0, 258),4	517,(0, 260),4	521,(0, 262),4	525,(0, 264),4	529,(0, 266),4	533,(0, 268),4	537,(0, 270),4	541,(0, 272),4	545,(0, 274),4	549,(0, 276),4	553,(0, 278),4	557,(0, 280),4	561,(0, 282),4	565,(0, 284),4	569,(0, 286),4	573,(0, 288),4	577,(0, 290),4	581,(0, 292),4	585,(0, 294),4	589,(0, 296),4	593,(0, 298),4	597,(0, 300),4	601,(0, 302),4	605,(0, 304),4	609,(0, 306),4	613,(0, 308),4	617,(0, 310),4	621,(0, 312),4	625,(0, 314),4	629,(0, 316),4	633,(0, 318),4	637,(0, 320),4	641,(0, 322),4	645,(0, 324),4	649,(0, 326),4	653,(0, 328),4	657,(0, 330),4	661,(0, 332),4	665,(0, 334),4	669,(0, 336),4	673,(0, 338),4	677,(0, 340),4	681,(0, 342),4	685,(0, 344),4	689,(0, 346),4	693,(0, 348),4	697,(0, 350),4	701,(0, 352),4	705,(0, 354),4	709,(0, 356),4	713,(0, 358),4	717,(0, 360),4	721,(0, 362),4	725,(0, 364),4	729,(0, 366),4	733,(0, 368),4	737,(0, 370),4	741,(0, 372),4	745,(0, 374),4	749,(0, 376),4	753,(0, 378),4	757,(0, 380),4	761,(0, 382),4	765,(0, 384),4	769,(0, 386),4	773,(0, 388),4	777,(0, 390),4	781,(0, 392),4	785,(0, 394),4	789,(0, 396),4	793,(0, 398),4	797,(0, 400),4	801,(0, 402),4	805,(0, 404),4	809,(0, 406),4	813,(0, 408),4	817,(0, 410),4	821,(0, 412),4	825,(0, 414),4	829,(0, 416),4	833,(0, 418),4	837,(0, 420),4	841,(0, 422),4	845,(0, 424),4	849,(0, 426),4	853,(0, 428),4	857,(0, 430),4	861,(0, 432),4	865,(0, 434),4	869,(0, 436),4	873,(0, 438),4	877,(0, 440),4	881,(0, 442),4	885,(0, 444),4	889,(0, 446),4	893,(0, 448),4	897,(0, 450),4	901,(0, 452),4	905,(0, 454),4	909,(0, 456),4	913,(0, 458),4	917,(0, 460),4	921,(0, 462),4	925,(0, 464),4	929,(0, 466),4	933,(0, 468),4	937,(0, 470),4	941,(0, 472),4	945,(0, 474),4	949,(0, 476),4	953,(0, 478),4	957,(0, 480),4	961,(0, 482),4	965,(0, 484),4	969,(0, 486),4	973,(0, 488),4	977,(0, 490),4	981,(0, 492),4	985,(0, 494),4	989,(0, 496),4	993,(0, 498),4	997,(0, 500),4	
24,(2, 501),2	43,(4, 501),2	62,(6, 501),2	81,(8, 501),2	100,(10, 501),2	119,(12, 501),2	138,(14, 501),2	157,(16, 501),2	176,(18, 501),2	195,(20, 501),2	214,(22, 501),2	233,(24, 501),2	252,(26, 501),2	271,(28, 501),2	290,(30, 501),2	309,(32, 501),2	328,(34, 501),2	347,(36, 501),2	366,(38, 501),2	385,(40, 501),2	404,(42, 501),2	423,(44, 501),2	442,(46, 501),2	461,(48, 501),2	480,(50, 501),2	499,(52, 501),2	518,(54, 501),2	537,(56, 501),2	556,(58, 501),2	575,(60, 501),2	594,(62, 501),2	613,(64, 501),2	632,(66, 501),2	651,(68, 501),2	670,(70, 501),2	689,(72, 501),2	708,(74, 501),2	727,(76, 501),2	746,(78, 501),2	765,(80, 501),2	784,(82, 501),2	803,(84, 501),2	822,(86, 501),2	841,(88, 501),2	860,(90, 501),2	879,(92, 501),2	898,(94, 501),2	917,(96, 501),2	936,(98, 501),2	955,(100, 501),2	974,(102, 501),2	993,(104, 501),2	1012,(106, 501),2	1031,(108, 501),2	1050,(110, 501),2	1069,(112, 501),2	1088,(114, 501),2	1107,(116, 501),2	1126,(118, 501),2	1145,(120, 501),2	1164,(122, 501),2	1183,(124, 501),2	1202,(126, 501),2	1221,(128, 501),2	1240,(130, 501),2	1259,(132, 501),2	1278,(134, 501),2	1297,(136, 501),2	1316,(138, 501),2	1335,(140, 501),2	1354,(142, 501),2	1373,(144, 501),2	1392,(146, 501),2	1411,(148, 501),2	1430,(150, 501),2	1449,(152, 501),2	1468,(154, 501),2	1487,(156, 501),2	1506,(158, 501),2	1525,(160, 501),2	1544,(162, 501),2	1563,(164, 501),2	1582,(166, 501),2	1601,(168, 501),2	1620,(170, 501),2	1639,(172, 501),2	1658,(174, 501),2	1677,(176, 501),2	1696,(178, 501),2	1715,(180, 501),2	1734,(182, 501),2	1753,(184, 501),2	1772,(186, 501),2	1791,(188, 501),2	1810,(190, 501),2	1829,(192, 501),2	1848,(194, 501),2	1867,(196, 501),2	1886,(198, 501),2	1905,(200, 501),2	1924,(202, 501),2	1943,(204, 501),2	1962,(206, 501),2	1981,(208, 501),2	2000,(210, 501),2	2019,(212, 501),2	2038,(214, 501),2	2057,(216, 501),2	2076,(218, 501),2	2095,(220, 501),2	2114,(222, 501),2	2133,(224, 501),2	2152,(226, 501),2	2171,(228, 501),2	2190,(230, 501),2	2209,(232, 501),2	2228,(234, 501),2	2247,(236, 501),2	2266,(238, 501),2	2285,(240, 501),2	2304,(242, 501),2	2323,(244, 501),2	2342,(246, 501),2	2361,(248, 501),2	2380,(250, 501),2	2399,(252, 501),2	2418,(254, 501),2	2437,(256, 501),2	2456,(258, 501),2	2475,(260, 501),2	2494,(262, 501),2	2513,(264, 501),2	2532,(266, 501),2	2551,(268, 501),2	2570,(270, 501),2	2589,(272, 501),2	2608,(274, 501),2	2627,(276, 501),2	2646,(278, 501),2	2665,(280, 501),2	2684,(282, 501),2	2703,(284, 501),2	2722,(286, 501),2	2741,(288, 501),2	2760,(290, 501),2	2779,(292, 501),2	2798,(294, 501),2	2817,(296, 501),2	2836,(298, 501),2	2855,(300, 501),2	2874,(302, 501),2	2893,(304, 501),2	2912,(306, 501),2	2931,(308, 501),2	2950,(310, 501),2	2969,(312, 501),2	2988,(314, 501),2	3007,(316, 501),2	3026,(318, 501),2	3045,(320, 501),2	3064,(322, 501),2	3083,(324, 501),2	3102,(326, 501),2	3121,(328, 501),2	3140,(330, 501),2	3159,(332, 501),2	3178,(334, 501),2	3197,(336, 501),2	3216,(338, 501),2	3235,(340, 501),2	3254,(342, 501),2	3273,(344, 501),2	3292,(346, 501),2	3311,(348, 501),2	3330,(350, 501),2	3349,(352, 501),2	3368,(354, 501),2	3387,(356, 501),2	3406,(358, 501),2	3425,(360, 501),2	3444,(362, 501),2	3463,(364, 501),2	3482,(366, 501),2	3501,(368, 501),2	3520,(370, 501),2	3539,(372, 501),2	3558,(374, 501),2	3577,(376, 501),2	3596,(378, 501),2	3615,(380, 501),2	3634,(382, 501),2	3653,(384, 501),2	3672,(386, 501),2	3691,(388, 501),2	3710,(390, 501),2	3729,(392, 501),2	3748,(394, 501),2	3767,(396, 501),2	3786,(398, 501),2	3805,(400, 501),2	3824,(402, 501),2	3843,(404, 501),2	3862,(406, 501),2	3881,(408, 501),2	3900,(410, 501),2	3919,(412, 501),2	3938,(414, 501),2	3957,(416, 501),2	3976,(418, 501),2	3995,(420, 501),2	4014,(422, 501),2	4033,(424, 501),2	4052,(426, 501),2	4071,(428, 501),2	4090,(430, 501),2	4109,(432, 501),2	4128,(434, 501),2	4147,(436, 501),2	4166,(438, 501),2	4185,(440, 501),2	4204,(442, 501),2	4223,(444, 501),2	4242,(446, 501),2	4261,(448, 501),2	4280,(450, 501),2	4299,(452, 501),2	4318,(454, 501),2	4337,(456, 501),2	4356,(458, 501),2	4375,(460, 501),2	4394,(462, 501),2	4413,(464, 501),2	4432,(466, 501),2	4451,(468, 501),2	4470,(470, 501),2	4489,(472, 501),2	4508,(474, 501),2	4527,(476, 501),2	4546,(478, 501),2	4565,(480, 501),2	4584,(482, 501),2	4603,(484, 501),2	4622,(486, 501),2	4641,(488, 501),2	4660,(490, 501),2	4679,(492, 501),2	4698,(494, 501),2	4717,(496, 501),2	4736,(498, 501),2	4755,(500, 501),2	
# Outgoing
24,(2, 501),2	43,(4, 501),2	62,(6, 501),2	81,(8, 501),2	100,(10, 501),2	119,(12, 501),2	138,(14, 501),2	157,(16, 501),2	176,(18, 501),2	195,(20, 501),2	214,(22, 501),2	233,(24, 501),2	252,(26, 501),2	271,(28, 501),2	290,(30, 501),2	309,(32, 501),2	328,(34, 501),2	347,(36, 501),2	366,(38, 501),2	385,(40, 501),2	404,(42, 501),2	423,(44, 501),2	442,(46, 501),2	461,(48, 501),2	480,(50, 501),2	499,(52, 501),2	518,(54, 501),2	537,(56, 501),2	556,(58, 501),2	575,(60, 501),2	594,(62, 501),2	613,(64, 501),2	632,(66, 501),2	651,(68, 501),2	670,(70, 501),2	689,(72, 501),2	708,(74, 501),2	727,(76, 501),2	746,(78, 501),2	765,(80, 501),2	784,(82, 501),2	803,(84, 501),2	822,(86, 501),2	841,(88, 501),2	860,(90, 501),2	879,(92, 501),2	898,(94, 501),2	917,(96, 501),2	936,(98, 501),2	955,(100, 501),2	974,(102, 501),2	993,(104, 501),2	1012,(106, 501),2	1031,(108, 501),2	1050,(110, 501),2	1069,(112, 501),2	1088,(114, 501),2	1107,(116, 501),2	1126,(118, 501),2	1145,(120, 501),2	1164,(122, 501),2	1183,(124, 501),2	1202,(126, 501),2	1221,(128, 501),2	1240,(130, 501),2	1259,(132, 501),2	1278,(134, 501),2	1297,(136, 501),2	1316,(138, 501),2	1335,(140, 501),2	1354,(142, 501),2	1373,(144, 501),2	1392,(146, 501),2	1411,(148, 501),2	1430,(150, 501),2	1449,(152, 501),2	1468,(154, 501),2	1487,(156, 501),2	1506,(158, 501),2	1525,(160, 501),2	1544,(162, 501),2	1563,(164, 501),2	1582,(166, 501),2	1601,(168, 501),2	1620,(170, 501),2	1639,(172, 501),2	1658,(174, 501),2	1677,(176, 501),2	1696,(178, 501),2	1715,(180, 501),2	1734,(182, 501),2	1753,(184, 501),2	1772,(186, 501),2	1791,(188, 501),2	1810,(190, 501),2	1829,(192, 501),2	1848,(194, 501),2	1867,(196, 501),2	1886,(198, 501),2	1905,(200, 501),2	1924,(202, 501),2	1943,(204, 501),2	1962,(206, 501),2	1981,(208, 501),2	2000,(210, 501),2	2019,(212, 501),2	2038,(214, 501),2	2057,(216, 501),2	2076,(218, 501),2	2095,(220, 501),2	2114,(222, 501),2	2133,(224, 501),2	2152,(226, 501),2	2171,(228, 501),2	2190,(230, 501),2	2209,(232, 501),2	2228,(234, 501),2	2247,(236, 501),2	2266,(238, 501),2	2285,(240, 501),2	2304,(242, 501),2	2323,(244, 501),2	2342,(246, 501),2	2361,(248, 501),2	2380,(250, 501),2	2399,(252, 501),2	2418,(254, 501),2	2437,(256, 501),2	2456,(258, 501),2	2475,(260, 501),2	2494,(262, 501),2	2513,(264, 501),2	2532,(266, 501),2	2551,(268, 501),2	2570,(270, 501),2	2589,(272, 501),2	2608,(274, 501),2	2627,(276, 501),2	2646,(278, 501),2	2665,(280, 501),2	2684,(282, 501),2	2703,(284, 501),2	2722,(286, 501),2	2741,(288, 501),2	2760,(290, 501),2	2779,(292, 501),2	2798,(294, 501),2	2817,(296, 501),2	2836,(298, 501),2	2855,(300, 501),2	2874,(302, 501),2	2893,(304, 501),2	2912,(306, 501),2	2931,(308, 501),2	2950,(310, 501),2	2969,(312, 501),2	2988,(314, 501),2	3007,(316, 501),2	3026,(318, 501),2	3045,(320, 501),2	3064,(322, 501),2	3083,(324, 501),2	3102,(326, 501),2	3121,(328, 501),2	3140,(330, 501),2	3159,(332, 501),2	3178,(334, 501),2	3197,(336, 501),2	3216,(338, 501),2	3235,(340, 501),2	3254,(342, 501),2	3273,(344, 501),2	3292,(346, 501),2	3311,(348, 501),2	3330,(350, 501),2	3349,(352, 501),2	3368,(354, 501),2	3387,(356, 501),2	3406,(358, 501),2	3425,(360, 501),2	3444,(362, 501),2	3463,(364, 501),2	3482,(366, 501),2	3501,(368, 501),2	3520,(370, 501),2	3539,(372, 501),2	3558,(374, 501),2	3577,(376, 501),2	3596,(378, 501),2	3615,(380, 501),2	3634,(382, 501),2	3653,(384, 501),2	3672,(386, 501),2	3691,(388, 501),2	3710,(390, 501),2	3729,(392, 501),2	3748,(394, 501),2	3767,(396, 501),2	3786,(398, 501),2	3805,(400, 501),2	3824,(402, 501),2	3843,(404, 501),2	3862,(406, 501),2	3881,(408, 501),2	3900,(410, 501),2	3919,(412, 501),2	3938,(414, 501),2	3957,(416, 501),2	3976,(418, 501),2	3995,(420, 501),2	4014,(422, 501),2	4033,(424, 501),2	4052,(426, 501),2	4071,(428, 501),2	4090,(430, 501),2	4109,(432, 501),2	4128,(434, 501),2	4147,(436, 501),2	4166,(438, 501),2	4185,(440, 501),2	4204,(442, 501),2	4223,(444, 501),2	4242,(446, 501),2	4261,(448, 501),2	4280,(450, 501),2	4299,(452, 501),2	4318,(454, 501),2	4337,(456, 501),2	4356,(458, 501),2	4375,(460, 501),2	4394,(462, 501),2	4413,(464, 501),2	4432,(466, 501),2	4451,(468, 501),2	4470,(470, 501),2	4489,(472, 501),2	4508,(474, 501),2	4527,(476, 501),2	4546,(478, 501),2	4565,(480, 501),2	4584,(482, 501),2	4603,(484, 501),2	4622,(486, 501),2	4641,(488, 501),2	4660,(490, 501),2	4679,(492, 501),2	4698,(494, 501),2	4717,(496, 501),2	4736,(498, 501),2	4755,(500, 501),2	
1,(0, 2),4	5,(0, 4),4	9,(0, 6),4	13,(0, 8),4	17,(0, 10),4	21,(0, 12),4	25,(0, 14),4	29,(0, 16),4	33,(0, 18),4	37,(0, 20),4	41,(0, 22),4	45,(0, 24),4	49,(0, 26),4	53,(0, 28),4	57,(0, 30),4	61,(0, 32),4	65,(0, 34),4	69,(0, 36),4	73,(0, 38),4	77,(0, 40),4	81,(0, 42),4	85,(0, 44),4	89,(0, 46),4	93,(0, 48),4	97,(0, 50),4	101,(0, 52),4	105,(0, 54),4	109,(0, 56),4	113,(0, 58),4	117,(0, 60),4	121,(0, 62),4	125,(0, 64),4	129,(0, 66),4	133,(0, 68),4	137,(0, 70),4	141,(0, 72),4	145,(0, 74),4	149,(0, 76),4	153,(0, 78),4	157,(0, 80),4	161,(0, 82),4	165,(0, 84),4	169,(0, 86),4	173,(0, 88),4	177,(0, 90),4	181,(0, 92),4	185,(0, 94),4	189,(0, 96),4	193,(0, 98),4	197,(0, 100),4	201,(0, 102),4	205,(0, 104),4	209,(0, 106),4	213,(0, 108),4	217,(0, 110),4	221,(0, 112),4	225,(0, 114),4	229,(0, 116),4	233,(0, 118),4	237,(0, 120),4	241,(0, 122),4	245,(0, 124),4	249,(0, 126),4	253,(0, 128),4	257,(0, 130),4	261,(0, 132),4	265,(0, 134),4	269,(0, 136),4	273,(0, 138),4	277,(0, 140),4	281,(0, 142),4	285,(0, 144),4	289,(0, 146),4	293,(0, 148),4	297,(0, 150),4	301,(0, 152),4	305,(0, 154),4	309,(0, 156),4	313,(0, 158),4	317,(0, 160),4	321,(0, 162),4	325,(0, 164),4	329,(0, 166),4	333,(0, 168),4	337,(0, 170),4	341,(0, 172),4	345,(0, 174),4	349,(0, 176),4	353,(0, 178),4	357,(0, 180),4	361,(0, 182),4	365,(0, 184),4	369,(0, 186),4	373,(0, 188),4	377,(0, 190),4	381,(0, 192),4	385,(0, 194),4	389,(0, 196),4	393,(0, 198),4	397,(0, 200),4	401,(0, 202),4	405,(0, 204),4	409,(0, 206),4	413,(0, 208),4	417,(0, 210),4	421,(0, 212),4	425,(0, 214),4	429,(0, 216),4	433,(0, 218),4	437,(0, 220),4	441,(0, 222),4	445,(0, 224),4	449,(0, 226),4	453,(0, 228),4	457,(0, 230),4	461,(0, 232),4	465,(0, 234),4	469,(0, 236),4	473,(0, 238),4	477,(0, 240),4	481,(0, 242),4	485,(0, 244),4	489,(0, 246),4	493,(0, 248),4	497,(0, 250),4	501,(0, 252),4	505,(0, 254),4	509,(0, 256),4	513,(0, 258),4	517,(0, 260),4	521,(0, 262),4	525,(0, 264),4	529,(0, 266),4	533,(0, 268),4	537,(0, 270),4	541,(0, 272),4	545,(0, 274),4	549,(0, 276),4	553,(0, 278),4	557,(0, 280),4	561,(0, 282),4	565,(0, 284),4	569,(0, 286),4	573,(0, 288),4	577,(0, 290),4	581,(0, 292),4	585,(0, 294),4	589,(0, 296),4	593,(0, 298),4	597,(0, 300),4	601,(0, 302),4	605,(0, 304),4	609,(0, 306),4	613,(0, 308),4	617,(0, 310),4	621,(0, 312),4	625,(0, 314),4	629,(0, 316),4	633,(0, 318),4	637,(0, 320),4	641,(0, 322),4	645,(0, 324),4	649,(0, 326),4	653,(0, 328),4	657,(0, 330),4	661,(0, 332),4	665,(0, 334),4	669,(0, 336),4	673,(0, 338),4	677,(0, 340),4	681,(0, 342),4	685,(0, 344),4	689,(0, 346),4	693,(0, 348),4	697,(0, 350),4	701,(0, 352),4	705,(0, 354),4	709,(0, 356),4	713,(0, 358),4	717,(0, 360),4	721,(0, 362),4	725,(0, 364),4	729,(0, 366),4	733,(0, 368),4	737,(0, 370),4	741,(0, 372),4	745,(0, 374),4	749,(0, 376),4	753,(0, 378),4	757,(0, 380),4	761,(0, 382),4	765,(0, 384),4	769,(0, 386),4	773,(0, 388),4	777,(0, 390),4	781,(0, 392),4	785,(0, 394),4	789,(0, 396),4	793,(0, 398),4	797,(0, 400),4	801,(0, 402),4	805,(0, 404),4	809,(0, 406),4	813,(0, 408),4	817,(0, 410),4	821,(0, 412),4	825,(0, 414),4	829,(0, 416),4	833,(0, 418),4	837,(0, 420),4	841,(0, 422),4	845,(0, 424),4	849,(0, 426),4	853,(0, 428),4	857,(0, 430),4	861,(0, 432),4	865,(0, 434),4	869,(0, 436),4	873,(0, 438),4	877,(0, 440),4	881,(0, 442),4	885,(0, 444),4	889,(0, 446),4	893,(0, 448),4	897,(0, 450),4	901,(0, 452),4	905,(0, 454),4	909,(0, 456),4	913,(0, 458),4	917,(0, 460),4	921,(0, 462),4	925,(0, 464),4	929,(0, 466),4	933,(0, 468),4	937,(0, 470),4	941,(0, 472),4	945,(0, 474),4	949,(0, 476),4	953,(0, 478),4	957,(0, 480),4	961,(0, 482),4	965,(0, 484),4	969,(0, 486),4	973,(0, 488),4	977,(0, 490),4	981,(0, 492),4	985,(0, 494),4	989,(0, 496),4	993,(0, 498),4	997,(0, 500),4	
