1910
# CPU
0,501,1	1,329,19	20,325,19	39,328,19	58,319,19	77,335,19	96,312,19	115,340,19	134,306,19	153,302,19	172,299,19	191,346,19	210,293,19	229,350,19	248,286,19	267,353,19	286,279,19	305,276,19	324,273,19	343,360,19	362,267,19	381,263,19	400,259,19	419,367,19	438,253,19	457,250,19	476,247,19	495,374,19	514,240,19	533,377,19	552,233,19	571,381,19	590,227,19	609,224,19	628,220,19	647,387,19	666,214,19	685,391,19	704,207,19	723,395,19	742,201,19	761,197,19	780,194,19	799,401,19	818,188,19	837,405,19	856,181,19	875,408,19	894,174,19	913,171,19	932,420,19	951,423,19	970,414,19	989,166,19	1008,162,19	1027,430,19	1046,156,19	1065,152,19	1084,149,19	1103,436,19	1122,142,19	1141,439,19	1160,135,19	1179,442,19	1198,128,19	1217,125,19	1236,121,19	1255,448,19	1274,115,19	1293,111,19	1312,107,19	1331,455,19	1350,101,19	1369,97,19	1388,94,19	1407,461,19	1426,79,19	1445,84,19	1464,72,19	1483,88,19	1502,66,19	1521,63,19	1540,60,19	1559,467,19	1578,54,19	1597,471,19	1616,47,19	1635,475,19	1654,41,19	1673,482,19	1692,478,19	1711,489,19	1730,35,19	1749,31,19	1768,27,19	1787,18,19	1806,13,19	1825,23,19	1844,2,19	1863,7,19	1882,496,19	
3,334,19	22,324,19	41,330,19	60,317,19	79,336,19	98,311,19	117,308,19	136,304,19	155,343,19	174,298,19	193,347,19	212,291,19	231,351,19	250,285,19	269,281,19	288,278,19	307,357,19	326,272,19	345,361,19	364,265,19	383,364,19	402,258,19	421,255,19	440,252,19	459,371,19	478,246,19	497,242,19	516,238,19	535,378,19	554,232,19	573,229,19	592,226,19	611,385,19	630,219,19	649,388,19	668,212,19	687,392,19	706,206,19	725,203,19	744,199,19	763,398,19	782,193,19	801,402,19	820,186,19	839,406,19	858,180,19	877,176,19	896,173,19	915,412,19	934,419,19	953,424,19	972,168,19	991,427,19	1010,161,19	1029,158,19	1048,154,19	1067,433,19	1086,148,19	1105,144,19	1124,140,19	1143,440,19	1162,134,19	1181,130,19	1200,127,19	1219,446,19	1238,120,19	1257,449,19	1276,113,19	1295,452,19	1314,106,19	1333,103,19	1352,99,19	1371,458,19	1390,93,19	1409,81,19	1428,77,19	1447,85,19	1466,71,19	1485,68,19	1504,65,19	1523,464,19	1542,59,19	1561,468,19	1580,52,19	1599,472,19	1618,46,19	1637,43,19	1656,484,19	1675,487,19	1694,477,19	1713,37,19	1732,33,19	1751,492,19	1770,26,19	1789,19,19	1808,12,19	1827,24,19	1846,4,19	1865,25,19	1884,498,19	1909,0,1	
2,333,19	21,327,19	40,321,19	59,318,19	78,315,19	97,337,19	116,309,19	135,305,19	154,301,19	173,345,19	192,295,19	211,292,19	230,289,19	249,352,19	268,282,19	287,355,19	306,275,19	325,359,19	344,269,19	363,266,19	382,262,19	401,365,19	420,256,19	439,369,19	458,249,19	477,373,19	496,243,19	515,239,19	534,236,19	553,379,19	572,230,19	591,383,19	610,223,19	629,386,19	648,216,19	667,213,19	686,210,19	705,393,19	724,204,19	743,200,19	762,196,19	781,400,19	800,190,19	819,187,19	838,184,19	857,407,19	876,177,19	895,410,19	914,170,19	933,422,19	952,416,19	971,413,19	990,165,19	1009,428,19	1028,159,19	1047,155,19	1066,151,19	1085,435,19	1104,145,19	1123,141,19	1142,138,19	1161,441,19	1180,131,19	1199,444,19	1218,124,19	1237,447,19	1256,117,19	1275,114,19	1294,110,19	1313,453,19	1332,104,19	1351,100,19	1370,96,19	1389,460,19	1408,90,19	1427,78,19	1446,75,19	1465,86,19	1484,69,19	1503,462,19	1522,62,19	1541,466,19	1560,56,19	1579,53,19	1598,50,19	1617,473,19	1636,44,19	1655,485,19	1674,481,19	1693,488,19	1712,38,19	1731,34,19	1750,30,19	1769,493,19	1788,15,19	1807,21,19	1826,10,19	1845,3,19	1864,8,19	1883,497,19	
4,338,19	23,323,19	42,320,19	61,332,19	80,314,19	99,339,19	118,307,19	137,342,19	156,300,19	175,297,19	194,294,19	213,349,19	232,288,19	251,284,19	270,280,19	289,356,19	308,274,19	327,271,19	346,268,19	365,363,19	384,261,19	403,366,19	422,254,19	441,370,19	460,248,19	479,245,19	498,241,19	517,376,19	536,235,19	555,380,19	574,228,19	593,384,19	612,222,19	631,218,19	650,215,19	669,390,19	688,209,19	707,394,19	726,202,19	745,397,19	764,195,19	783,192,19	802,189,19	821,404,19	840,183,19	859,179,19	878,175,19	897,411,19	916,169,19	935,418,19	954,415,19	973,426,19	992,164,19	1011,429,19	1030,157,19	1049,432,19	1068,150,19	1087,147,19	1106,143,19	1125,438,19	1144,137,19	1163,133,19	1182,129,19	1201,445,19	1220,123,19	1239,119,19	1258,116,19	1277,451,19	1296,109,19	1315,454,19	1334,102,19	1353,457,19	1372,95,19	1391,92,19	1410,80,19	1429,83,19	1448,74,19	1467,87,19	1486,67,19	1505,463,19	1524,61,19	1543,58,19	1562,55,19	1581,470,19	1600,49,19	1619,474,19	1638,42,19	1657,486,19	1676,480,19	1695,40,19	1714,36,19	1733,491,19	1752,29,19	1771,17,19	1790,14,19	1809,22,19	1828,9,19	1847,5,19	1866,494,19	1885,499,19	
5,326,19	24,322,19	43,331,19	62,316,19	81,313,19	100,310,19	119,341,19	138,303,19	157,344,19	176,296,19	195,348,19	214,290,19	233,287,19	252,283,19	271,354,19	290,277,19	309,358,19	328,270,19	347,362,19	366,264,19	385,260,19	404,257,19	423,368,19	442,251,19	461,372,19	480,244,19	499,375,19	518,237,19	537,234,19	556,231,19	575,382,19	594,225,19	613,221,19	632,217,19	651,389,19	670,211,19	689,208,19	708,205,19	727,396,19	746,198,19	765,399,19	784,191,19	803,403,19	822,185,19	841,182,19	860,178,19	879,409,19	898,172,19	917,421,19	936,417,19	955,425,19	974,167,19	993,163,19	1012,160,19	1031,431,19	1050,153,19	1069,434,19	1088,146,19	1107,437,19	1126,139,19	1145,136,19	1164,132,19	1183,443,19	1202,126,19	1221,122,19	1240,118,19	1259,450,19	1278,112,19	1297,108,19	1316,105,19	1335,456,19	1354,98,19	1373,459,19	1392,91,19	1411,82,19	1430,76,19	1449,73,19	1468,70,19	1487,89,19	1506,64,19	1525,465,19	1544,57,19	1563,469,19	1582,51,19	1601,48,19	1620,45,19	1639,476,19	1658,483,19	1677,479,19	1696,39,19	1715,490,19	1734,32,19	1753,28,19	1772,16,19	1791,20,19	1810,11,19	1829,1,19	1848,6,19	1867,495,19	1886,500,19	
# Incoming

2,(501, 334),1	6,(501, 324),1	10,(501, 330),1	14,(501, 317),1	18,(501, 336),1	22,(501, 311),1	23,(333, 0),2	26,(501, 308),1	27,(338, 0),2	30,(501, 304),1	31,(326, 0),2	34,(501, 343),1	38,(501, 298),1	40,(327, 0),2	42,(501, 347),1	43,(323, 0),2	46,(501, 291),1	47,(322, 0),2	50,(501, 351),1	54,(501, 285),1	58,(501, 281),1	59,(321, 0),2	62,(501, 278),1	63,(320, 0),2	66,(501, 357),1	67,(331, 0),2	70,(501, 272),1	74,(501, 361),1	78,(501, 265),1	79,(318, 0),2	82,(501, 364),1	83,(332, 0),2	86,(501, 258),1	87,(316, 0),2	90,(501, 255),1	94,(501, 252),1	98,(501, 371),1	99,(315, 0),2	102,(501, 246),1	103,(314, 0),2	106,(501, 242),1	107,(313, 0),2	110,(501, 238),1	114,(501, 378),1	116,(337, 0),2	118,(501, 232),1	119,(339, 0),2	122,(501, 229),1	123,(310, 0),2	126,(501, 226),1	130,(501, 385),1	134,(501, 219),1	135,(309, 0),2	138,(501, 388),1	139,(307, 0),2	142,(501, 212),1	143,(341, 0),2	146,(501, 392),1	150,(501, 206),1	154,(501, 203),1	155,(305, 0),2	158,(501, 199),1	159,(342, 0),2	162,(501, 398),1	163,(303, 0),2	166,(501, 193),1	170,(501, 402),1	174,(501, 186),1	175,(301, 0),2	178,(501, 406),1	179,(300, 0),2	182,(501, 180),1	183,(344, 0),2	186,(501, 176),1	190,(501, 173),1	192,(345, 0),2	194,(501, 412),1	195,(297, 0),2	198,(501, 419),1	199,(296, 0),2	202,(501, 424),1	206,(501, 168),1	210,(501, 427),1	211,(295, 0),2	214,(501, 161),1	215,(294, 0),2	218,(501, 158),1	219,(348, 0),2	222,(501, 154),1	226,(501, 433),1	230,(501, 148),1	231,(292, 0),2	234,(501, 144),1	235,(349, 0),2	238,(501, 140),1	239,(290, 0),2	242,(501, 440),1	246,(501, 134),1	250,(501, 130),1	251,(289, 0),2	254,(501, 127),1	255,(288, 0),2	258,(501, 446),1	259,(287, 0),2	262,(501, 120),1	266,(501, 449),1	268,(352, 0),2	270,(501, 113),1	271,(284, 0),2	274,(501, 452),1	275,(283, 0),2	278,(501, 106),1	282,(501, 103),1	286,(501, 99),1	287,(282, 0),2	290,(501, 458),1	291,(280, 0),2	294,(501, 93),1	295,(354, 0),2	298,(501, 81),1	302,(501, 77),1	306,(501, 85),1	307,(355, 0),2	310,(501, 71),1	311,(356, 0),2	314,(501, 68),1	315,(277, 0),2	318,(501, 65),1	322,(501, 464),1	326,(501, 59),1	327,(275, 0),2	330,(501, 468),1	331,(274, 0),2	334,(501, 52),1	335,(358, 0),2	338,(501, 472),1	342,(501, 46),1	344,(359, 0),2	346,(501, 43),1	347,(271, 0),2	350,(501, 484),1	351,(270, 0),2	354,(501, 487),1	358,(501, 477),1	362,(501, 37),1	363,(269, 0),2	366,(501, 33),1	367,(268, 0),2	370,(501, 492),1	371,(362, 0),2	374,(501, 26),1	378,(501, 19),1	382,(501, 12),1	383,(266, 0),2	386,(501, 24),1	387,(363, 0),2	390,(501, 4),1	391,(264, 0),2	394,(501, 25),1	398,(501, 498),1	401,(329, 0),2	403,(325, 0),2	405,(328, 0),2	407,(319, 0),2	409,(335, 0),2	411,(312, 0),2	413,(340, 0),2	415,(306, 0),2	417,(302, 0),2	419,(299, 0),2	421,(346, 0),2	423,(293, 0),2	425,(350, 0),2	427,(286, 0),2	429,(353, 0),2	431,(279, 0),2	433,(276, 0),2	435,(273, 0),2	437,(360, 0),2	439,(267, 0),2	441,(263, 0),2	443,(262, 0),2	445,(261, 0),2	447,(260, 0),2	449,(259, 0),2	451,(365, 0),2	453,(366, 0),2	455,(257, 0),2	457,(367, 0),2	459,(256, 0),2	461,(254, 0),2	463,(368, 0),2	465,(253, 0),2	467,(369, 0),2	469,(370, 0),2	471,(251, 0),2	476,(250, 0),2	478,(249, 0),2	480,(248, 0),2	482,(372, 0),2	495,(247, 0),2	497,(373, 0),2	499,(245, 0),2	501,(244, 0),2	514,(374, 0),2	516,(243, 0),2	518,(241, 0),2	520,(375, 0),2	533,(240, 0),2	535,(239, 0),2	537,(376, 0),2	539,(237, 0),2	552,(377, 0),2	554,(236, 0),2	556,(235, 0),2	558,(234, 0),2	571,(233, 0),2	573,(379, 0),2	575,(380, 0),2	577,(231, 0),2	590,(381, 0),2	592,(230, 0),2	594,(228, 0),2	596,(382, 0),2	609,(227, 0),2	611,(383, 0),2	613,(384, 0),2	615,(225, 0),2	628,(224, 0),2	630,(223, 0),2	632,(222, 0),2	634,(221, 0),2	647,(220, 0),2	649,(386, 0),2	651,(218, 0),2	653,(217, 0),2	666,(387, 0),2	668,(216, 0),2	670,(215, 0),2	672,(389, 0),2	685,(214, 0),2	687,(213, 0),2	689,(390, 0),2	691,(211, 0),2	704,(391, 0),2	706,(210, 0),2	708,(209, 0),2	710,(208, 0),2	723,(207, 0),2	725,(393, 0),2	727,(394, 0),2	729,(205, 0),2	742,(395, 0),2	744,(204, 0),2	746,(202, 0),2	748,(396, 0),2	761,(201, 0),2	763,(200, 0),2	765,(397, 0),2	767,(198, 0),2	780,(197, 0),2	782,(196, 0),2	784,(195, 0),2	786,(399, 0),2	799,(194, 0),2	801,(400, 0),2	803,(192, 0),2	805,(191, 0),2	818,(401, 0),2	820,(190, 0),2	822,(189, 0),2	824,(403, 0),2	837,(188, 0),2	839,(187, 0),2	841,(404, 0),2	843,(185, 0),2	856,(405, 0),2	858,(184, 0),2	860,(183, 0),2	862,(182, 0),2	875,(181, 0),2	877,(407, 0),2	879,(179, 0),2	881,(178, 0),2	894,(408, 0),2	896,(177, 0),2	898,(175, 0),2	900,(409, 0),2	913,(174, 0),2	915,(410, 0),2	917,(411, 0),2	919,(172, 0),2	932,(171, 0),2	934,(170, 0),2	936,(169, 0),2	938,(421, 0),2	951,(420, 0),2	953,(422, 0),2	955,(418, 0),2	957,(417, 0),2	970,(423, 0),2	972,(416, 0),2	974,(415, 0),2	976,(425, 0),2	989,(414, 0),2	991,(413, 0),2	993,(426, 0),2	995,(167, 0),2	1008,(166, 0),2	1010,(165, 0),2	1012,(164, 0),2	1014,(163, 0),2	1027,(162, 0),2	1029,(428, 0),2	1031,(429, 0),2	1033,(160, 0),2	1046,(430, 0),2	1048,(159, 0),2	1050,(157, 0),2	1052,(431, 0),2	1065,(156, 0),2	1067,(155, 0),2	1069,(432, 0),2	1071,(153, 0),2	1084,(152, 0),2	1086,(151, 0),2	1088,(150, 0),2	1090,(434, 0),2	1103,(149, 0),2	1105,(435, 0),2	1107,(147, 0),2	1109,(146, 0),2	1122,(436, 0),2	1124,(145, 0),2	1126,(143, 0),2	1128,(437, 0),2	1141,(142, 0),2	1143,(141, 0),2	1145,(438, 0),2	1147,(139, 0),2	1160,(439, 0),2	1162,(138, 0),2	1164,(137, 0),2	1166,(136, 0),2	1179,(135, 0),2	1181,(441, 0),2	1183,(133, 0),2	1185,(132, 0),2	1198,(442, 0),2	1200,(131, 0),2	1202,(129, 0),2	1204,(443, 0),2	1217,(128, 0),2	1219,(444, 0),2	1221,(445, 0),2	1223,(126, 0),2	1236,(125, 0),2	1238,(124, 0),2	1240,(123, 0),2	1242,(122, 0),2	1255,(121, 0),2	1257,(447, 0),2	1259,(119, 0),2	1261,(118, 0),2	1274,(448, 0),2	1276,(117, 0),2	1278,(116, 0),2	1280,(450, 0),2	1293,(115, 0),2	1295,(114, 0),2	1297,(451, 0),2	1299,(112, 0),2	1312,(111, 0),2	1314,(110, 0),2	1316,(109, 0),2	1318,(108, 0),2	1331,(107, 0),2	1333,(453, 0),2	1335,(454, 0),2	1337,(105, 0),2	1350,(455, 0),2	1352,(104, 0),2	1354,(102, 0),2	1356,(456, 0),2	1369,(101, 0),2	1371,(100, 0),2	1373,(457, 0),2	1375,(98, 0),2	1388,(97, 0),2	1390,(96, 0),2	1392,(95, 0),2	1394,(459, 0),2	1407,(94, 0),2	1409,(460, 0),2	1411,(92, 0),2	1413,(91, 0),2	1426,(461, 0),2	1428,(90, 0),2	1430,(80, 0),2	1432,(82, 0),2	1445,(79, 0),2	1447,(78, 0),2	1449,(83, 0),2	1451,(76, 0),2	1464,(84, 0),2	1466,(75, 0),2	1468,(74, 0),2	1470,(73, 0),2	1483,(72, 0),2	1485,(86, 0),2	1487,(87, 0),2	1489,(70, 0),2	1502,(88, 0),2	1504,(69, 0),2	1506,(67, 0),2	1508,(89, 0),2	1521,(66, 0),2	1523,(462, 0),2	1525,(463, 0),2	1527,(64, 0),2	1540,(63, 0),2	1542,(62, 0),2	1544,(61, 0),2	1546,(465, 0),2	1559,(60, 0),2	1561,(466, 0),2	1563,(58, 0),2	1565,(57, 0),2	1578,(467, 0),2	1580,(56, 0),2	1582,(55, 0),2	1584,(469, 0),2	1597,(54, 0),2	1599,(53, 0),2	1601,(470, 0),2	1603,(51, 0),2	1616,(471, 0),2	1618,(50, 0),2	1620,(49, 0),2	1622,(48, 0),2	1635,(47, 0),2	1637,(473, 0),2	1639,(474, 0),2	1641,(45, 0),2	1654,(475, 0),2	1656,(44, 0),2	1658,(42, 0),2	1660,(476, 0),2	1673,(41, 0),2	1675,(485, 0),2	1677,(486, 0),2	1679,(483, 0),2	1692,(482, 0),2	1694,(481, 0),2	1696,(480, 0),2	1698,(479, 0),2	1711,(478, 0),2	1713,(488, 0),2	1715,(40, 0),2	1717,(39, 0),2	1730,(489, 0),2	1732,(38, 0),2	1734,(36, 0),2	1736,(490, 0),2	1749,(35, 0),2	1751,(34, 0),2	1753,(491, 0),2	1755,(32, 0),2	1768,(31, 0),2	1770,(30, 0),2	1772,(29, 0),2	1774,(28, 0),2	1787,(27, 0),2	1789,(493, 0),2	1791,(17, 0),2	1793,(16, 0),2	1806,(18, 0),2	1808,(15, 0),2	1810,(14, 0),2	1812,(20, 0),2	1825,(13, 0),2	1827,(21, 0),2	1829,(22, 0),2	1831,(11, 0),2	1844,(23, 0),2	1846,(10, 0),2	1848,(9, 0),2	1850,(1, 0),2	1863,(2, 0),2	1865,(3, 0),2	1867,(5, 0),2	1869,(6, 0),2	1882,(7, 0),2	1884,(8, 0),2	1886,(494, 0),2	1888,(495, 0),2	1901,(496, 0),2	1903,(497, 0),2	1905,(499, 0),2	1907,(500, 0),2	
1,(501, 333),1	5,(501, 327),1	9,(501, 321),1	13,(501, 318),1	17,(501, 315),1	21,(501, 337),1	25,(501, 309),1	29,(501, 305),1	33,(501, 301),1	37,(501, 345),1	41,(501, 295),1	45,(501, 292),1	49,(501, 289),1	53,(501, 352),1	57,(501, 282),1	61,(501, 355),1	65,(501, 275),1	69,(501, 359),1	73,(501, 269),1	77,(501, 266),1	81,(501, 262),1	85,(501, 365),1	89,(501, 256),1	93,(501, 369),1	97,(501, 249),1	101,(501, 373),1	105,(501, 243),1	109,(501, 239),1	113,(501, 236),1	117,(501, 379),1	121,(501, 230),1	125,(501, 383),1	129,(501, 223),1	133,(501, 386),1	137,(501, 216),1	141,(501, 213),1	145,(501, 210),1	149,(501, 393),1	153,(501, 204),1	157,(501, 200),1	161,(501, 196),1	165,(501, 400),1	169,(501, 190),1	173,(501, 187),1	177,(501, 184),1	181,(501, 407),1	185,(501, 177),1	189,(501, 410),1	193,(501, 170),1	197,(501, 422),1	201,(501, 416),1	205,(501, 413),1	209,(501, 165),1	213,(501, 428),1	217,(501, 159),1	221,(501, 155),1	225,(501, 151),1	229,(501, 435),1	233,(501, 145),1	237,(501, 141),1	241,(501, 138),1	245,(501, 441),1	249,(501, 131),1	253,(501, 444),1	257,(501, 124),1	261,(501, 447),1	265,(501, 117),1	269,(501, 114),1	273,(501, 110),1	277,(501, 453),1	281,(501, 104),1	285,(501, 100),1	289,(501, 96),1	293,(501, 460),1	297,(501, 90),1	301,(501, 78),1	305,(501, 75),1	309,(501, 86),1	313,(501, 69),1	317,(501, 462),1	321,(501, 62),1	325,(501, 466),1	329,(501, 56),1	333,(501, 53),1	337,(501, 50),1	341,(501, 473),1	345,(501, 44),1	349,(501, 485),1	353,(501, 481),1	357,(501, 488),1	361,(501, 38),1	365,(501, 34),1	369,(501, 30),1	373,(501, 493),1	377,(501, 15),1	381,(501, 21),1	385,(501, 10),1	389,(501, 3),1	393,(501, 8),1	397,(501, 497),1	
3,(501, 338),1	7,(501, 323),1	11,(501, 320),1	15,(501, 332),1	19,(501, 314),1	23,(501, 339),1	27,(501, 307),1	31,(501, 342),1	35,(501, 300),1	39,(501, 297),1	43,(501, 294),1	47,(501, 349),1	51,(501, 288),1	55,(501, 284),1	59,(501, 280),1	63,(501, 356),1	67,(501, 274),1	71,(501, 271),1	75,(501, 268),1	79,(501, 363),1	83,(501, 261),1	87,(501, 366),1	91,(501, 254),1	95,(501, 370),1	99,(501, 248),1	103,(501, 245),1	107,(501, 241),1	111,(501, 376),1	115,(501, 235),1	119,(501, 380),1	123,(501, 228),1	127,(501, 384),1	131,(501, 222),1	135,(501, 218),1	139,(501, 215),1	143,(501, 390),1	147,(501, 209),1	151,(501, 394),1	155,(501, 202),1	159,(501, 397),1	163,(501, 195),1	167,(501, 192),1	171,(501, 189),1	175,(501, 404),1	179,(501, 183),1	183,(501, 179),1	187,(501, 175),1	191,(501, 411),1	195,(501, 169),1	199,(501, 418),1	203,(501, 415),1	207,(501, 426),1	211,(501, 164),1	215,(501, 429),1	219,(501, 157),1	223,(501, 432),1	227,(501, 150),1	231,(501, 147),1	235,(501, 143),1	239,(501, 438),1	243,(501, 137),1	247,(501, 133),1	251,(501, 129),1	255,(501, 445),1	259,(501, 123),1	263,(501, 119),1	267,(501, 116),1	271,(501, 451),1	275,(501, 109),1	279,(501, 454),1	283,(501, 102),1	287,(501, 457),1	291,(501, 95),1	295,(501, 92),1	299,(501, 80),1	303,(501, 83),1	307,(501, 74),1	311,(501, 87),1	315,(501, 67),1	319,(501, 463),1	323,(501, 61),1	327,(501, 58),1	331,(501, 55),1	335,(501, 470),1	339,(501, 49),1	343,(501, 474),1	347,(501, 42),1	351,(501, 486),1	355,(501, 480),1	359,(501, 40),1	363,(501, 36),1	367,(501, 491),1	371,(501, 29),1	375,(501, 17),1	379,(501, 14),1	383,(501, 22),1	387,(501, 9),1	391,(501, 5),1	395,(501, 494),1	399,(501, 499),1	
4,(501, 326),1	8,(501, 322),1	12,(501, 331),1	16,(501, 316),1	20,(501, 313),1	24,(501, 310),1	28,(501, 341),1	32,(501, 303),1	36,(501, 344),1	40,(501, 296),1	44,(501, 348),1	48,(501, 290),1	52,(501, 287),1	56,(501, 283),1	60,(501, 354),1	64,(501, 277),1	68,(501, 358),1	72,(501, 270),1	76,(501, 362),1	80,(501, 264),1	84,(501, 260),1	88,(501, 257),1	92,(501, 368),1	96,(501, 251),1	100,(501, 372),1	104,(501, 244),1	108,(501, 375),1	112,(501, 237),1	116,(501, 234),1	120,(501, 231),1	124,(501, 382),1	128,(501, 225),1	132,(501, 221),1	136,(501, 217),1	140,(501, 389),1	144,(501, 211),1	148,(501, 208),1	152,(501, 205),1	156,(501, 396),1	160,(501, 198),1	164,(501, 399),1	168,(501, 191),1	172,(501, 403),1	176,(501, 185),1	180,(501, 182),1	184,(501, 178),1	188,(501, 409),1	192,(501, 172),1	196,(501, 421),1	200,(501, 417),1	204,(501, 425),1	208,(501, 167),1	212,(501, 163),1	216,(501, 160),1	220,(501, 431),1	224,(501, 153),1	228,(501, 434),1	232,(501, 146),1	236,(501, 437),1	240,(501, 139),1	244,(501, 136),1	248,(501, 132),1	252,(501, 443),1	256,(501, 126),1	260,(501, 122),1	264,(501, 118),1	268,(501, 450),1	272,(501, 112),1	276,(501, 108),1	280,(501, 105),1	284,(501, 456),1	288,(501, 98),1	292,(501, 459),1	296,(501, 91),1	300,(501, 82),1	304,(501, 76),1	308,(501, 73),1	312,(501, 70),1	316,(501, 89),1	320,(501, 64),1	324,(501, 465),1	328,(501, 57),1	332,(501, 469),1	336,(501, 51),1	340,(501, 48),1	344,(501, 45),1	348,(501, 476),1	352,(501, 483),1	356,(501, 479),1	360,(501, 39),1	364,(501, 490),1	368,(501, 32),1	372,(501, 28),1	376,(501, 16),1	380,(501, 20),1	384,(501, 11),1	388,(501, 1),1	392,(501, 6),1	396,(501, 495),1	400,(501, 500),1	
# Outgoing
1,(501, 333),1	2,(501, 334),1	3,(501, 338),1	4,(501, 326),1	5,(501, 327),1	6,(501, 324),1	7,(501, 323),1	8,(501, 322),1	9,(501, 321),1	10,(501, 330),1	11,(501, 320),1	12,(501, 331),1	13,(501, 318),1	14,(501, 317),1	15,(501, 332),1	16,(501, 316),1	17,(501, 315),1	18,(501, 336),1	19,(501, 314),1	20,(501, 313),1	21,(501, 337),1	22,(501, 311),1	23,(501, 339),1	24,(501, 310),1	25,(501, 309),1	26,(501, 308),1	27,(501, 307),1	28,(501, 341),1	29,(501, 305),1	30,(501, 304),1	31,(501, 342),1	32,(501, 303),1	33,(501, 301),1	34,(501, 343),1	35,(501, 300),1	36,(501, 344),1	37,(501, 345),1	38,(501, 298),1	39,(501, 297),1	40,(501, 296),1	41,(501, 295),1	42,(501, 347),1	43,(501, 294),1	44,(501, 348),1	45,(501, 292),1	46,(501, 291),1	47,(501, 349),1	48,(501, 290),1	49,(501, 289),1	50,(501, 351),1	51,(501, 288),1	52,(501, 287),1	53,(501, 352),1	54,(501, 285),1	55,(501, 284),1	56,(501, 283),1	57,(501, 282),1	58,(501, 281),1	59,(501, 280),1	60,(501, 354),1	61,(501, 355),1	62,(501, 278),1	63,(501, 356),1	64,(501, 277),1	65,(501, 275),1	66,(501, 357),1	67,(501, 274),1	68,(501, 358),1	69,(501, 359),1	70,(501, 272),1	71,(501, 271),1	72,(501, 270),1	73,(501, 269),1	74,(501, 361),1	75,(501, 268),1	76,(501, 362),1	77,(501, 266),1	78,(501, 265),1	79,(501, 363),1	80,(501, 264),1	81,(501, 262),1	82,(501, 364),1	83,(501, 261),1	84,(501, 260),1	85,(501, 365),1	86,(501, 258),1	87,(501, 366),1	88,(501, 257),1	89,(501, 256),1	90,(501, 255),1	91,(501, 254),1	92,(501, 368),1	93,(501, 369),1	94,(501, 252),1	95,(501, 370),1	96,(501, 251),1	97,(501, 249),1	98,(501, 371),1	99,(501, 248),1	100,(501, 372),1	101,(501, 373),1	102,(501, 246),1	103,(501, 245),1	104,(501, 244),1	105,(501, 243),1	106,(501, 242),1	107,(501, 241),1	108,(501, 375),1	109,(501, 239),1	110,(501, 238),1	111,(501, 376),1	112,(501, 237),1	113,(501, 236),1	114,(501, 378),1	115,(501, 235),1	116,(501, 234),1	117,(501, 379),1	118,(501, 232),1	119,(501, 380),1	120,(501, 231),1	121,(501, 230),1	122,(501, 229),1	123,(501, 228),1	124,(501, 382),1	125,(501, 383),1	126,(501, 226),1	127,(501, 384),1	128,(501, 225),1	129,(501, 223),1	130,(501, 385),1	131,(501, 222),1	132,(501, 221),1	133,(501, 386),1	134,(501, 219),1	135,(501, 218),1	136,(501, 217),1	137,(501, 216),1	138,(501, 388),1	139,(501, 215),1	140,(501, 389),1	141,(501, 213),1	142,(501, 212),1	143,(501, 390),1	144,(501, 211),1	145,(501, 210),1	146,(501, 392),1	147,(501, 209),1	148,(501, 208),1	149,(501, 393),1	150,(501, 206),1	151,(501, 394),1	152,(501, 205),1	153,(501, 204),1	154,(501, 203),1	155,(501, 202),1	156,(501, 396),1	157,(501, 200),1	158,(501, 199),1	159,(501, 397),1	160,(501, 198),1	161,(501, 196),1	162,(501, 398),1	163,(501, 195),1	164,(501, 399),1	165,(501, 400),1	166,(501, 193),1	167,(501, 192),1	168,(501, 191),1	169,(501, 190),1	170,(501, 402),1	171,(501, 189),1	172,(501, 403),1	173,(501, 187),1	174,(501, 186),1	175,(501, 404),1	176,(501, 185),1	177,(501, 184),1	178,(501, 406),1	179,(501, 183),1	180,(501, 182),1	181,(501, 407),1	182,(501, 180),1	183,(501, 179),1	184,(501, 178),1	185,(501, 177),1	186,(501, 176),1	187,(501, 175),1	188,(501, 409),1	189,(501, 410),1	190,(501, 173),1	191,(501, 411),1	192,(501, 172),1	193,(501, 170),1	194,(501, 412),1	195,(501, 169),1	196,(501, 421),1	197,(501, 422),1	198,(501, 419),1	199,(501, 418),1	200,(501, 417),1	201,(501, 416),1	202,(501, 424),1	203,(501, 415),1	204,(501, 425),1	205,(501, 413),1	206,(501, 168),1	207,(501, 426),1	208,(501, 167),1	209,(501, 165),1	210,(501, 427),1	211,(501, 164),1	212,(501, 163),1	213,(501, 428),1	214,(501, 161),1	215,(501, 429),1	216,(501, 160),1	217,(501, 159),1	218,(501, 158),1	219,(501, 157),1	220,(501, 431),1	221,(501, 155),1	222,(501, 154),1	223,(501, 432),1	224,(501, 153),1	225,(501, 151),1	226,(501, 433),1	227,(501, 150),1	228,(501, 434),1	229,(501, 435),1	230,(501, 148),1	231,(501, 147),1	232,(501, 146),1	233,(501, 145),1	234,(501, 144),1	235,(501, 143),1	236,(501, 437),1	237,(501, 141),1	238,(501, 140),1	239,(501, 438),1	240,(501, 139),1	241,(501, 138),1	242,(501, 440),1	243,(501, 137),1	244,(501, 136),1	245,(501, 441),1	246,(501, 134),1	247,(501, 133),1	248,(501, 132),1	249,(501, 131),1	250,(501, 130),1	251,(501, 129),1	252,(501, 443),1	253,(501, 444),1	254,(501, 127),1	255,(501, 445),1	256,(501, 126),1	257,(501, 124),1	258,(501, 446),1	259,(501, 123),1	260,(501, 122),1	261,(501, 447),1	262,(501, 120),1	263,(501, 119),1	264,(501, 118),1	265,(501, 117),1	266,(501, 449),1	267,(501, 116),1	268,(501, 450),1	269,(501, 114),1	270,(501, 113),1	271,(501, 451),1	272,(501, 112),1	273,(501, 110),1	274,(501, 452),1	275,(501, 109),1	276,(501, 108),1	277,(501, 453),1	278,(501, 106),1	279,(501, 454),1	280,(501, 105),1	281,(501, 104),1	282,(501, 103),1	283,(501, 102),1	284,(501, 456),1	285,(501, 100),1	286,(501, 99),1	287,(501, 457),1	288,(501, 98),1	289,(501, 96),1	290,(501, 458),1	291,(501, 95),1	292,(501, 459),1	293,(501, 460),1	294,(501, 93),1	295,(501, 92),1	296,(501, 91),1	297,(501, 90),1	298,(501, 81),1	299,(501, 80),1	300,(501, 82),1	301,(501, 78),1	302,(501, 77),1	303,(501, 83),1	304,(501, 76),1	305,(501, 75),1	306,(501, 85),1	307,(501, 74),1	308,(501, 73),1	309,(501, 86),1	310,(501, 71),1	311,(501, 87),1	312,(501, 70),1	313,(501, 69),1	314,(501, 68),1	315,(501, 67),1	316,(501, 89),1	317,(501, 462),1	318,(501, 65),1	319,(501, 463),1	320,(501, 64),1	321,(501, 62),1	322,(501, 464),1	323,(501, 61),1	324,(501, 465),1	325,(501, 466),1	326,(501, 59),1	327,(501, 58),1	328,(501, 57),1	329,(501, 56),1	330,(501, 468),1	331,(501, 55),1	332,(501, 469),1	333,(501, 53),1	334,(501, 52),1	335,(501, 470),1	336,(501, 51),1	337,(501, 50),1	338,(501, 472),1	339,(501, 49),1	340,(501, 48),1	341,(501, 473),1	342,(501, 46),1	343,(501, 474),1	344,(501, 45),1	345,(501, 44),1	346,(501, 43),1	347,(501, 42),1	348,(501, 476),1	349,(501, 485),1	350,(501, 484),1	351,(501, 486),1	352,(501, 483),1	353,(501, 481),1	354,(501, 487),1	355,(501, 480),1	356,(501, 479),1	357,(501, 488),1	358,(501, 477),1	359,(501, 40),1	360,(501, 39),1	361,(501, 38),1	362,(501, 37),1	363,(501, 36),1	364,(501, 490),1	365,(501, 34),1	366,(501, 33),1	367,(501, 491),1	368,(501, 32),1	369,(501, 30),1	370,(501, 492),1	371,(501, 29),1	372,(501, 28),1	373,(501, 493),1	374,(501, 26),1	375,(501, 17),1	376,(501, 16),1	377,(501, 15),1	378,(501, 19),1	379,(501, 14),1	380,(501, 20),1	381,(501, 21),1	382,(501, 12),1	383,(501, 22),1	384,(501, 11),1	385,(501, 10),1	386,(501, 24),1	387,(501, 9),1	388,(501, 1),1	389,(501, 3),1	390,(501, 4),1	391,(501, 5),1	392,(501, 6),1	393,(501, 8),1	394,(501, 25),1	395,(501, 494),1	396,(501, 495),1	397,(501, 497),1	398,(501, 498),1	399,(501, 499),1	400,(501, 500),1	401,(329, 0),2	403,(325, 0),2	405,(328, 0),2	407,(319, 0),2	409,(335, 0),2	411,(312, 0),2	413,(340, 0),2	415,(306, 0),2	417,(302, 0),2	419,(299, 0),2	421,(346, 0),2	423,(293, 0),2	425,(350, 0),2	427,(286, 0),2	429,(353, 0),2	431,(279, 0),2	433,(276, 0),2	435,(273, 0),2	437,(360, 0),2	439,(267, 0),2	441,(263, 0),2	449,(259, 0),2	457,(367, 0),2	465,(253, 0),2	476,(250, 0),2	495,(247, 0),2	514,(374, 0),2	533,(240, 0),2	552,(377, 0),2	571,(233, 0),2	590,(381, 0),2	609,(227, 0),2	628,(224, 0),2	647,(220, 0),2	666,(387, 0),2	685,(214, 0),2	704,(391, 0),2	723,(207, 0),2	742,(395, 0),2	761,(201, 0),2	780,(197, 0),2	799,(194, 0),2	818,(401, 0),2	837,(188, 0),2	856,(405, 0),2	875,(181, 0),2	894,(408, 0),2	913,(174, 0),2	932,(171, 0),2	951,(420, 0),2	970,(423, 0),2	989,(414, 0),2	1008,(166, 0),2	1027,(162, 0),2	1046,(430, 0),2	1065,(156, 0),2	1084,(152, 0),2	1103,(149, 0),2	1122,(436, 0),2	1141,(142, 0),2	1160,(439, 0),2	1179,(135, 0),2	1198,(442, 0),2	1217,(128, 0),2	1236,(125, 0),2	1255,(121, 0),2	1274,(448, 0),2	1293,(115, 0),2	1312,(111, 0),2	1331,(107, 0),2	1350,(455, 0),2	1369,(101, 0),2	1388,(97, 0),2	1407,(94, 0),2	1426,(461, 0),2	1445,(79, 0),2	1464,(84, 0),2	1483,(72, 0),2	1502,(88, 0),2	1521,(66, 0),2	1540,(63, 0),2	1559,(60, 0),2	1578,(467, 0),2	1597,(54, 0),2	1616,(471, 0),2	1635,(47, 0),2	1654,(475, 0),2	1673,(41, 0),2	1692,(482, 0),2	1711,(478, 0),2	1730,(489, 0),2	1749,(35, 0),2	1768,(31, 0),2	1787,(27, 0),2	1806,(18, 0),2	1825,(13, 0),2	1844,(23, 0),2	1863,(2, 0),2	1882,(7, 0),2	1901,(496, 0),2	

23,(333, 0),2	40,(327, 0),2	59,(321, 0),2	79,(318, 0),2	99,(315, 0),2	116,(337, 0),2	135,(309, 0),2	155,(305, 0),2	175,(301, 0),2	192,(345, 0),2	211,(295, 0),2	231,(292, 0),2	251,(289, 0),2	268,(352, 0),2	287,(282, 0),2	307,(355, 0),2	327,(275, 0),2	344,(359, 0),2	363,(269, 0),2	383,(266, 0),2	443,(262, 0),2	451,(365, 0),2	459,(256, 0),2	467,(369, 0),2	478,(249, 0),2	497,(373, 0),2	516,(243, 0),2	535,(239, 0),2	554,(236, 0),2	573,(379, 0),2	592,(230, 0),2	611,(383, 0),2	630,(223, 0),2	649,(386, 0),2	668,(216, 0),2	687,(213, 0),2	706,(210, 0),2	725,(393, 0),2	744,(204, 0),2	763,(200, 0),2	782,(196, 0),2	801,(400, 0),2	820,(190, 0),2	839,(187, 0),2	858,(184, 0),2	877,(407, 0),2	896,(177, 0),2	915,(410, 0),2	934,(170, 0),2	953,(422, 0),2	972,(416, 0),2	991,(413, 0),2	1010,(165, 0),2	1029,(428, 0),2	1048,(159, 0),2	1067,(155, 0),2	1086,(151, 0),2	1105,(435, 0),2	1124,(145, 0),2	1143,(141, 0),2	1162,(138, 0),2	1181,(441, 0),2	1200,(131, 0),2	1219,(444, 0),2	1238,(124, 0),2	1257,(447, 0),2	1276,(117, 0),2	1295,(114, 0),2	1314,(110, 0),2	1333,(453, 0),2	1352,(104, 0),2	1371,(100, 0),2	1390,(96, 0),2	1409,(460, 0),2	1428,(90, 0),2	1447,(78, 0),2	1466,(75, 0),2	1485,(86, 0),2	1504,(69, 0),2	1523,(462, 0),2	1542,(62, 0),2	1561,(466, 0),2	1580,(56, 0),2	1599,(53, 0),2	1618,(50, 0),2	1637,(473, 0),2	1656,(44, 0),2	1675,(485, 0),2	1694,(481, 0),2	1713,(488, 0),2	1732,(38, 0),2	1751,(34, 0),2	1770,(30, 0),2	1789,(493, 0),2	1808,(15, 0),2	1827,(21, 0),2	1846,(10, 0),2	1865,(3, 0),2	1884,(8, 0),2	1903,(497, 0),2	
27,(338, 0),2	43,(323, 0),2	63,(320, 0),2	83,(332, 0),2	103,(314, 0),2	119,(339, 0),2	139,(307, 0),2	159,(342, 0),2	179,(300, 0),2	195,(297, 0),2	215,(294, 0),2	235,(349, 0),2	255,(288, 0),2	271,(284, 0),2	291,(280, 0),2	311,(356, 0),2	331,(274, 0),2	347,(271, 0),2	367,(268, 0),2	387,(363, 0),2	445,(261, 0),2	453,(366, 0),2	461,(254, 0),2	469,(370, 0),2	480,(248, 0),2	499,(245, 0),2	518,(241, 0),2	537,(376, 0),2	556,(235, 0),2	575,(380, 0),2	594,(228, 0),2	613,(384, 0),2	632,(222, 0),2	651,(218, 0),2	670,(215, 0),2	689,(390, 0),2	708,(209, 0),2	727,(394, 0),2	746,(202, 0),2	765,(397, 0),2	784,(195, 0),2	803,(192, 0),2	822,(189, 0),2	841,(404, 0),2	860,(183, 0),2	879,(179, 0),2	898,(175, 0),2	917,(411, 0),2	936,(169, 0),2	955,(418, 0),2	974,(415, 0),2	993,(426, 0),2	1012,(164, 0),2	1031,(429, 0),2	1050,(157, 0),2	1069,(432, 0),2	1088,(150, 0),2	1107,(147, 0),2	1126,(143, 0),2	1145,(438, 0),2	1164,(137, 0),2	1183,(133, 0),2	1202,(129, 0),2	1221,(445, 0),2	1240,(123, 0),2	1259,(119, 0),2	1278,(116, 0),2	1297,(451, 0),2	1316,(109, 0),2	1335,(454, 0),2	1354,(102, 0),2	1373,(457, 0),2	1392,(95, 0),2	1411,(92, 0),2	1430,(80, 0),2	1449,(83, 0),2	1468,(74, 0),2	1487,(87, 0),2	1506,(67, 0),2	1525,(463, 0),2	1544,(61, 0),2	1563,(58, 0),2	1582,(55, 0),2	1601,(470, 0),2	1620,(49, 0),2	1639,(474, 0),2	1658,(42, 0),2	1677,(486, 0),2	1696,(480, 0),2	1715,(40, 0),2	1734,(36, 0),2	1753,(491, 0),2	1772,(29, 0),2	1791,(17, 0),2	1810,(14, 0),2	1829,(22, 0),2	1848,(9, 0),2	1867,(5, 0),2	1886,(494, 0),2	1905,(499, 0),2	
31,(326, 0),2	47,(322, 0),2	67,(331, 0),2	87,(316, 0),2	107,(313, 0),2	123,(310, 0),2	143,(341, 0),2	163,(303, 0),2	183,(344, 0),2	199,(296, 0),2	219,(348, 0),2	239,(290, 0),2	259,(287, 0),2	275,(283, 0),2	295,(354, 0),2	315,(277, 0),2	335,(358, 0),2	351,(270, 0),2	371,(362, 0),2	391,(264, 0),2	447,(260, 0),2	455,(257, 0),2	463,(368, 0),2	471,(251, 0),2	482,(372, 0),2	501,(244, 0),2	520,(375, 0),2	539,(237, 0),2	558,(234, 0),2	577,(231, 0),2	596,(382, 0),2	615,(225, 0),2	634,(221, 0),2	653,(217, 0),2	672,(389, 0),2	691,(211, 0),2	710,(208, 0),2	729,(205, 0),2	748,(396, 0),2	767,(198, 0),2	786,(399, 0),2	805,(191, 0),2	824,(403, 0),2	843,(185, 0),2	862,(182, 0),2	881,(178, 0),2	900,(409, 0),2	919,(172, 0),2	938,(421, 0),2	957,(417, 0),2	976,(425, 0),2	995,(167, 0),2	1014,(163, 0),2	1033,(160, 0),2	1052,(431, 0),2	1071,(153, 0),2	1090,(434, 0),2	1109,(146, 0),2	1128,(437, 0),2	1147,(139, 0),2	1166,(136, 0),2	1185,(132, 0),2	1204,(443, 0),2	1223,(126, 0),2	1242,(122, 0),2	1261,(118, 0),2	1280,(450, 0),2	1299,(112, 0),2	1318,(108, 0),2	1337,(105, 0),2	1356,(456, 0),2	1375,(98, 0),2	1394,(459, 0),2	1413,(91, 0),2	1432,(82, 0),2	1451,(76, 0),2	1470,(73, 0),2	1489,(70, 0),2	1508,(89, 0),2	1527,(64, 0),2	1546,(465, 0),2	1565,(57, 0),2	1584,(469, 0),2	1603,(51, 0),2	1622,(48, 0),2	1641,(45, 0),2	1660,(476, 0),2	1679,(483, 0),2	1698,(479, 0),2	1717,(39, 0),2	1736,(490, 0),2	1755,(32, 0),2	1774,(28, 0),2	1793,(16, 0),2	1812,(20, 0),2	1831,(11, 0),2	1850,(1, 0),2	1869,(6, 0),2	1888,(495, 0),2	1907,(500, 0),2	
