270
# CPU
0,0,1	1,51,7	8,50,7	15,48,7	22,52,7	29,53,7	36,54,7	43,27,7	50,26,7	57,64,7	64,63,7	71,61,7	78,60,7	85,34,7	92,28,7	99,69,7	106,41,7	113,70,7	120,38,7	127,21,7	134,1,7	141,35,7	148,32,7	155,31,7	162,17,7	169,2,7	176,3,7	183,23,7	190,24,7	197,25,7	204,29,7	211,9,7	218,77,7	225,7,7	232,10,7	239,30,7	246,75,7	253,78,7	269,81,1	
13,49,7	25,46,7	37,44,7	49,55,7	61,66,7	73,67,7	85,68,7	97,57,7	109,40,7	121,37,7	133,36,7	145,33,7	157,18,7	169,20,7	181,22,7	193,14,7	205,12,7	217,5,7	229,8,7	241,74,7	253,79,7	
7,56,7	19,47,7	31,45,7	43,43,7	55,65,7	67,62,7	79,59,7	91,58,7	103,42,7	115,39,7	127,71,7	139,72,7	151,73,7	163,19,7	175,16,7	187,15,7	199,13,7	211,4,7	223,6,7	235,11,7	247,76,7	259,80,7	
# Incoming
14,(56, 81),3	20,(49, 81),3	26,(47, 81),3	32,(46, 81),3	38,(45, 81),3	44,(44, 81),3	50,(43, 81),3	56,(55, 81),3	62,(65, 81),3	68,(66, 81),3	74,(62, 81),3	80,(67, 81),3	86,(59, 81),3	92,(68, 81),3	98,(58, 81),3	104,(57, 81),3	110,(42, 81),3	116,(40, 81),3	122,(39, 81),3	128,(37, 81),3	134,(71, 81),3	140,(36, 81),3	146,(72, 81),3	152,(33, 81),3	158,(73, 81),3	164,(18, 81),3	170,(19, 81),3	176,(20, 81),3	182,(16, 81),3	188,(22, 81),3	194,(15, 81),3	200,(14, 81),3	206,(13, 81),3	212,(12, 81),3	218,(4, 81),3	224,(5, 81),3	230,(6, 81),3	236,(8, 81),3	242,(11, 81),3	248,(74, 81),3	254,(76, 81),3	260,(79, 81),3	266,(80, 81),3	
7,(0, 49),6	19,(0, 46),6	31,(0, 44),6	43,(0, 55),6	55,(0, 66),6	67,(0, 67),6	79,(0, 68),6	91,(0, 57),6	103,(0, 40),6	115,(0, 37),6	127,(0, 36),6	139,(0, 33),6	151,(0, 18),6	163,(0, 20),6	175,(0, 22),6	187,(0, 14),6	199,(0, 12),6	211,(0, 5),6	223,(0, 8),6	235,(0, 74),6	247,(0, 79),6	
1,(0, 56),6	13,(0, 47),6	25,(0, 45),6	37,(0, 43),6	49,(0, 65),6	61,(0, 62),6	73,(0, 59),6	85,(0, 58),6	97,(0, 42),6	109,(0, 39),6	121,(0, 71),6	133,(0, 72),6	145,(0, 73),6	157,(0, 19),6	169,(0, 16),6	181,(0, 15),6	193,(0, 13),6	205,(0, 4),6	217,(0, 6),6	229,(0, 11),6	241,(0, 76),6	253,(0, 80),6	
# Outgoing
1,(0, 56),6	7,(0, 49),6	13,(0, 47),6	19,(0, 46),6	25,(0, 45),6	31,(0, 44),6	37,(0, 43),6	43,(0, 55),6	49,(0, 65),6	55,(0, 66),6	61,(0, 62),6	67,(0, 67),6	73,(0, 59),6	79,(0, 68),6	85,(0, 58),6	91,(0, 57),6	97,(0, 42),6	103,(0, 40),6	109,(0, 39),6	115,(0, 37),6	121,(0, 71),6	127,(0, 36),6	133,(0, 72),6	139,(0, 33),6	145,(0, 73),6	151,(0, 18),6	157,(0, 19),6	163,(0, 20),6	169,(0, 16),6	175,(0, 22),6	181,(0, 15),6	187,(0, 14),6	193,(0, 13),6	199,(0, 12),6	205,(0, 4),6	211,(0, 5),6	217,(0, 6),6	223,(0, 8),6	229,(0, 11),6	235,(0, 74),6	241,(0, 76),6	247,(0, 79),6	253,(0, 80),6	
20,(49, 81),3	32,(46, 81),3	44,(44, 81),3	56,(55, 81),3	68,(66, 81),3	80,(67, 81),3	92,(68, 81),3	104,(57, 81),3	116,(40, 81),3	128,(37, 81),3	140,(36, 81),3	152,(33, 81),3	164,(18, 81),3	176,(20, 81),3	188,(22, 81),3	200,(14, 81),3	212,(12, 81),3	224,(5, 81),3	236,(8, 81),3	248,(74, 81),3	260,(79, 81),3	
14,(56, 81),3	26,(47, 81),3	38,(45, 81),3	50,(43, 81),3	62,(65, 81),3	74,(62, 81),3	86,(59, 81),3	98,(58, 81),3	110,(42, 81),3	122,(39, 81),3	134,(71, 81),3	146,(72, 81),3	158,(73, 81),3	170,(19, 81),3	182,(16, 81),3	194,(15, 81),3	206,(13, 81),3	218,(4, 81),3	230,(6, 81),3	242,(11, 81),3	254,(76, 81),3	266,(80, 81),3	
