808
# CPU
0,81,1	1,51,40	41,48,40	81,52,40	121,43,40	161,65,40	201,62,40	241,59,40	281,40,40	321,37,40	361,34,40	401,31,40	441,28,40	481,17,40	521,19,40	561,21,40	601,23,40	641,1,40	681,5,40	721,25,40	761,77,40	
4,49,40	44,46,40	84,44,40	124,41,40	164,63,40	204,60,40	244,57,40	284,38,40	324,35,40	364,32,40	404,29,40	444,26,40	484,15,40	524,13,40	564,11,40	604,9,40	644,4,40	684,8,40	724,76,40	764,80,40	807,0,1	
2,56,40	42,47,40	82,45,40	122,42,40	162,64,40	202,61,40	242,58,40	282,39,40	322,36,40	362,33,40	402,30,40	442,27,40	482,16,40	522,14,40	562,12,40	602,10,40	642,2,40	682,6,40	722,74,40	762,78,40	
3,55,40	43,50,40	83,53,40	123,54,40	163,66,40	203,67,40	243,68,40	283,69,40	323,70,40	363,71,40	403,72,40	443,73,40	483,18,40	523,20,40	563,22,40	603,24,40	643,3,40	683,7,40	723,75,40	763,79,40	
# Incoming

3,(81, 49),1	6,(81, 46),1	9,(81, 44),1	12,(81, 41),1	15,(81, 63),1	18,(81, 60),1	21,(81, 57),1	24,(81, 38),1	27,(81, 35),1	30,(81, 32),1	33,(81, 29),1	36,(81, 26),1	39,(81, 15),1	42,(81, 13),1	43,(56, 0),2	45,(81, 11),1	46,(55, 0),2	48,(81, 9),1	51,(81, 4),1	54,(81, 8),1	57,(81, 76),1	60,(81, 80),1	61,(51, 0),2	81,(48, 0),2	83,(47, 0),2	85,(50, 0),2	121,(52, 0),2	123,(45, 0),2	125,(53, 0),2	161,(43, 0),2	163,(42, 0),2	165,(54, 0),2	201,(65, 0),2	203,(64, 0),2	205,(66, 0),2	241,(62, 0),2	243,(61, 0),2	245,(67, 0),2	281,(59, 0),2	283,(58, 0),2	285,(68, 0),2	321,(40, 0),2	323,(39, 0),2	325,(69, 0),2	361,(37, 0),2	363,(36, 0),2	365,(70, 0),2	401,(34, 0),2	403,(33, 0),2	405,(71, 0),2	441,(31, 0),2	443,(30, 0),2	445,(72, 0),2	481,(28, 0),2	483,(27, 0),2	485,(73, 0),2	521,(17, 0),2	523,(16, 0),2	525,(18, 0),2	561,(19, 0),2	563,(14, 0),2	565,(20, 0),2	601,(21, 0),2	603,(12, 0),2	605,(22, 0),2	641,(23, 0),2	643,(10, 0),2	645,(24, 0),2	681,(1, 0),2	683,(2, 0),2	685,(3, 0),2	721,(5, 0),2	723,(6, 0),2	725,(7, 0),2	761,(25, 0),2	763,(74, 0),2	765,(75, 0),2	801,(77, 0),2	803,(78, 0),2	805,(79, 0),2	
1,(81, 56),1	4,(81, 47),1	7,(81, 45),1	10,(81, 42),1	13,(81, 64),1	16,(81, 61),1	19,(81, 58),1	22,(81, 39),1	25,(81, 36),1	28,(81, 33),1	31,(81, 30),1	34,(81, 27),1	37,(81, 16),1	40,(81, 14),1	43,(81, 12),1	46,(81, 10),1	49,(81, 2),1	52,(81, 6),1	55,(81, 74),1	58,(81, 78),1	
2,(81, 55),1	5,(81, 50),1	8,(81, 53),1	11,(81, 54),1	14,(81, 66),1	17,(81, 67),1	20,(81, 68),1	23,(81, 69),1	26,(81, 70),1	29,(81, 71),1	32,(81, 72),1	35,(81, 73),1	38,(81, 18),1	41,(81, 20),1	44,(81, 22),1	47,(81, 24),1	50,(81, 3),1	53,(81, 7),1	56,(81, 75),1	59,(81, 79),1	
# Outgoing
1,(81, 56),1	2,(81, 55),1	3,(81, 49),1	4,(81, 47),1	5,(81, 50),1	6,(81, 46),1	7,(81, 45),1	8,(81, 53),1	9,(81, 44),1	10,(81, 42),1	11,(81, 54),1	12,(81, 41),1	13,(81, 64),1	14,(81, 66),1	15,(81, 63),1	16,(81, 61),1	17,(81, 67),1	18,(81, 60),1	19,(81, 58),1	20,(81, 68),1	21,(81, 57),1	22,(81, 39),1	23,(81, 69),1	24,(81, 38),1	25,(81, 36),1	26,(81, 70),1	27,(81, 35),1	28,(81, 33),1	29,(81, 71),1	30,(81, 32),1	31,(81, 30),1	32,(81, 72),1	33,(81, 29),1	34,(81, 27),1	35,(81, 73),1	36,(81, 26),1	37,(81, 16),1	38,(81, 18),1	39,(81, 15),1	40,(81, 14),1	41,(81, 20),1	42,(81, 13),1	43,(81, 12),1	44,(81, 22),1	45,(81, 11),1	46,(81, 10),1	47,(81, 24),1	48,(81, 9),1	49,(81, 2),1	50,(81, 3),1	51,(81, 4),1	52,(81, 6),1	53,(81, 7),1	54,(81, 8),1	55,(81, 74),1	56,(81, 75),1	57,(81, 76),1	58,(81, 78),1	59,(81, 79),1	60,(81, 80),1	61,(51, 0),2	81,(48, 0),2	121,(52, 0),2	161,(43, 0),2	201,(65, 0),2	241,(62, 0),2	281,(59, 0),2	321,(40, 0),2	361,(37, 0),2	401,(34, 0),2	441,(31, 0),2	481,(28, 0),2	521,(17, 0),2	561,(19, 0),2	601,(21, 0),2	641,(23, 0),2	681,(1, 0),2	721,(5, 0),2	761,(25, 0),2	801,(77, 0),2	

43,(56, 0),2	83,(47, 0),2	123,(45, 0),2	163,(42, 0),2	203,(64, 0),2	243,(61, 0),2	283,(58, 0),2	323,(39, 0),2	363,(36, 0),2	403,(33, 0),2	443,(30, 0),2	483,(27, 0),2	523,(16, 0),2	563,(14, 0),2	603,(12, 0),2	643,(10, 0),2	683,(2, 0),2	723,(6, 0),2	763,(74, 0),2	803,(78, 0),2	
46,(55, 0),2	85,(50, 0),2	125,(53, 0),2	165,(54, 0),2	205,(66, 0),2	245,(67, 0),2	285,(68, 0),2	325,(69, 0),2	365,(70, 0),2	405,(71, 0),2	445,(72, 0),2	485,(73, 0),2	525,(18, 0),2	565,(20, 0),2	605,(22, 0),2	645,(24, 0),2	685,(3, 0),2	725,(7, 0),2	765,(75, 0),2	805,(79, 0),2	
