1046
# CPU
0,81,1	1,80,18	19,50,18	37,51,18	55,49,18	73,47,18	91,48,18	109,46,18	127,45,18	145,52,18	163,43,18	181,42,18	199,41,18	217,64,18	235,63,18	253,65,18	271,62,18	289,66,18	307,61,18	325,60,18	343,67,18	361,55,18	379,53,18	397,68,18	415,40,18	433,38,18	451,69,18	469,37,18	487,35,18	505,70,18	523,33,18	541,31,18	559,71,18	577,30,18	595,72,18	613,29,18	631,17,18	649,16,18	667,15,18	685,14,18	703,18,18	721,13,18	739,12,18	757,19,18	775,11,18	793,10,18	811,20,18	829,1,18	847,2,18	865,3,18	883,4,18	901,5,18	919,6,18	937,7,18	955,8,18	973,9,18	991,77,18	1009,78,18	1027,79,18	1045,0,1	
309,39,18	397,34,18	441,32,18	705,27,18	881,28,18	969,25,18	
45,56,18	133,58,18	485,26,18	617,21,18	661,23,18	925,73,18	
89,57,18	177,59,18	221,54,18	265,44,18	353,36,18	529,24,18	573,22,18	749,74,18	793,75,18	837,76,18	
# Incoming
63,(56, 0),20	107,(57, 0),20	151,(58, 0),20	195,(59, 0),20	239,(54, 0),20	283,(44, 0),20	327,(39, 0),20	371,(36, 0),20	415,(34, 0),20	459,(32, 0),20	503,(26, 0),20	547,(24, 0),20	591,(22, 0),20	635,(21, 0),20	679,(23, 0),20	723,(27, 0),20	767,(74, 0),20	811,(75, 0),20	855,(76, 0),20	899,(28, 0),20	943,(73, 0),20	987,(25, 0),20	
265,(81, 39),44	353,(81, 34),44	397,(81, 32),44	661,(81, 27),44	837,(81, 28),44	925,(81, 25),44	
1,(81, 56),44	89,(81, 58),44	441,(81, 26),44	573,(81, 21),44	617,(81, 23),44	881,(81, 73),44	
45,(81, 57),44	133,(81, 59),44	177,(81, 54),44	221,(81, 44),44	309,(81, 36),44	485,(81, 24),44	529,(81, 22),44	705,(81, 74),44	749,(81, 75),44	793,(81, 76),44	
# Outgoing
1,(81, 56),44	45,(81, 57),44	89,(81, 58),44	133,(81, 59),44	177,(81, 54),44	221,(81, 44),44	265,(81, 39),44	309,(81, 36),44	353,(81, 34),44	397,(81, 32),44	441,(81, 26),44	485,(81, 24),44	529,(81, 22),44	573,(81, 21),44	617,(81, 23),44	661,(81, 27),44	705,(81, 74),44	749,(81, 75),44	793,(81, 76),44	837,(81, 28),44	881,(81, 73),44	925,(81, 25),44	
327,(39, 0),20	415,(34, 0),20	459,(32, 0),20	723,(27, 0),20	899,(28, 0),20	987,(25, 0),20	
63,(56, 0),20	151,(58, 0),20	503,(26, 0),20	635,(21, 0),20	679,(23, 0),20	943,(73, 0),20	
107,(57, 0),20	195,(59, 0),20	239,(54, 0),20	283,(44, 0),20	371,(36, 0),20	547,(24, 0),20	591,(22, 0),20	767,(74, 0),20	811,(75, 0),20	855,(76, 0),20	
