455
# CPU
5,5,28	33,10,28	61,15,28	89,20,28	117,25,28	145,30,28	173,35,28	201,40,28	229,45,28	257,50,28	285,55,28	313,60,28	341,65,28	369,70,28	397,75,28	425,80,28	
4,4,28	32,9,28	60,14,28	88,19,28	116,24,28	144,29,28	172,34,28	200,39,28	228,44,28	256,49,28	284,54,28	312,59,28	340,64,28	368,69,28	396,74,28	424,79,28	
3,3,28	31,8,28	59,13,28	87,18,28	115,23,28	143,28,28	171,33,28	199,38,28	227,43,28	255,48,28	283,53,28	311,58,28	339,63,28	367,68,28	395,73,28	423,78,28	
2,2,28	30,7,28	58,12,28	86,17,28	114,22,28	142,27,28	170,32,28	198,37,28	226,42,28	254,47,28	282,52,28	310,57,28	338,62,28	366,67,28	394,72,28	422,77,28	
0,0,1	1,1,28	29,11,28	57,31,28	85,71,28	113,66,28	141,76,28	169,61,28	197,56,28	225,51,28	253,46,28	281,41,28	309,26,28	337,36,28	365,21,28	393,6,28	421,16,28	454,81,1	
# Incoming
4,(0, 5),1	8,(0, 10),1	12,(0, 15),1	16,(0, 20),1	20,(0, 25),1	24,(0, 30),1	28,(0, 35),1	32,(0, 40),1	36,(0, 45),1	40,(0, 50),1	44,(0, 55),1	48,(0, 60),1	52,(0, 65),1	56,(0, 70),1	60,(0, 75),1	64,(0, 80),1	
3,(0, 4),1	7,(0, 9),1	11,(0, 14),1	15,(0, 19),1	19,(0, 24),1	23,(0, 29),1	27,(0, 34),1	31,(0, 39),1	35,(0, 44),1	39,(0, 49),1	43,(0, 54),1	47,(0, 59),1	51,(0, 64),1	55,(0, 69),1	59,(0, 74),1	63,(0, 79),1	
2,(0, 3),1	6,(0, 8),1	10,(0, 13),1	14,(0, 18),1	18,(0, 23),1	22,(0, 28),1	26,(0, 33),1	30,(0, 38),1	34,(0, 43),1	38,(0, 48),1	42,(0, 53),1	46,(0, 58),1	50,(0, 63),1	54,(0, 68),1	58,(0, 73),1	62,(0, 78),1	
1,(0, 2),1	5,(0, 7),1	9,(0, 12),1	13,(0, 17),1	17,(0, 22),1	21,(0, 27),1	25,(0, 32),1	29,(0, 37),1	33,(0, 42),1	37,(0, 47),1	41,(0, 52),1	45,(0, 57),1	49,(0, 62),1	53,(0, 67),1	57,(0, 72),1	61,(0, 77),1	
30,(2, 81),1	31,(3, 81),1	32,(4, 81),1	33,(5, 81),1	58,(7, 81),1	59,(8, 81),1	60,(9, 81),1	61,(10, 81),1	86,(12, 81),1	87,(13, 81),1	88,(14, 81),1	89,(15, 81),1	114,(17, 81),1	115,(18, 81),1	116,(19, 81),1	117,(20, 81),1	142,(22, 81),1	143,(23, 81),1	144,(24, 81),1	145,(25, 81),1	170,(27, 81),1	171,(28, 81),1	172,(29, 81),1	173,(30, 81),1	198,(32, 81),1	199,(33, 81),1	200,(34, 81),1	201,(35, 81),1	226,(37, 81),1	227,(38, 81),1	228,(39, 81),1	229,(40, 81),1	254,(42, 81),1	255,(43, 81),1	256,(44, 81),1	257,(45, 81),1	282,(47, 81),1	283,(48, 81),1	284,(49, 81),1	285,(50, 81),1	310,(52, 81),1	311,(53, 81),1	312,(54, 81),1	313,(55, 81),1	338,(57, 81),1	339,(58, 81),1	340,(59, 81),1	341,(60, 81),1	366,(62, 81),1	367,(63, 81),1	368,(64, 81),1	369,(65, 81),1	394,(67, 81),1	395,(68, 81),1	396,(69, 81),1	397,(70, 81),1	422,(72, 81),1	423,(73, 81),1	424,(74, 81),1	425,(75, 81),1	450,(77, 81),1	451,(78, 81),1	452,(79, 81),1	453,(80, 81),1	
# Outgoing
33,(5, 81),1	61,(10, 81),1	89,(15, 81),1	117,(20, 81),1	145,(25, 81),1	173,(30, 81),1	201,(35, 81),1	229,(40, 81),1	257,(45, 81),1	285,(50, 81),1	313,(55, 81),1	341,(60, 81),1	369,(65, 81),1	397,(70, 81),1	425,(75, 81),1	453,(80, 81),1	
32,(4, 81),1	60,(9, 81),1	88,(14, 81),1	116,(19, 81),1	144,(24, 81),1	172,(29, 81),1	200,(34, 81),1	228,(39, 81),1	256,(44, 81),1	284,(49, 81),1	312,(54, 81),1	340,(59, 81),1	368,(64, 81),1	396,(69, 81),1	424,(74, 81),1	452,(79, 81),1	
31,(3, 81),1	59,(8, 81),1	87,(13, 81),1	115,(18, 81),1	143,(23, 81),1	171,(28, 81),1	199,(33, 81),1	227,(38, 81),1	255,(43, 81),1	283,(48, 81),1	311,(53, 81),1	339,(58, 81),1	367,(63, 81),1	395,(68, 81),1	423,(73, 81),1	451,(78, 81),1	
30,(2, 81),1	58,(7, 81),1	86,(12, 81),1	114,(17, 81),1	142,(22, 81),1	170,(27, 81),1	198,(32, 81),1	226,(37, 81),1	254,(42, 81),1	282,(47, 81),1	310,(52, 81),1	338,(57, 81),1	366,(62, 81),1	394,(67, 81),1	422,(72, 81),1	450,(77, 81),1	
1,(0, 2),1	2,(0, 3),1	3,(0, 4),1	4,(0, 5),1	5,(0, 7),1	6,(0, 8),1	7,(0, 9),1	8,(0, 10),1	9,(0, 12),1	10,(0, 13),1	11,(0, 14),1	12,(0, 15),1	13,(0, 17),1	14,(0, 18),1	15,(0, 19),1	16,(0, 20),1	17,(0, 22),1	18,(0, 23),1	19,(0, 24),1	20,(0, 25),1	21,(0, 27),1	22,(0, 28),1	23,(0, 29),1	24,(0, 30),1	25,(0, 32),1	26,(0, 33),1	27,(0, 34),1	28,(0, 35),1	29,(0, 37),1	30,(0, 38),1	31,(0, 39),1	32,(0, 40),1	33,(0, 42),1	34,(0, 43),1	35,(0, 44),1	36,(0, 45),1	37,(0, 47),1	38,(0, 48),1	39,(0, 49),1	40,(0, 50),1	41,(0, 52),1	42,(0, 53),1	43,(0, 54),1	44,(0, 55),1	45,(0, 57),1	46,(0, 58),1	47,(0, 59),1	48,(0, 60),1	49,(0, 62),1	50,(0, 63),1	51,(0, 64),1	52,(0, 65),1	53,(0, 67),1	54,(0, 68),1	55,(0, 69),1	56,(0, 70),1	57,(0, 72),1	58,(0, 73),1	59,(0, 74),1	60,(0, 75),1	61,(0, 77),1	62,(0, 78),1	63,(0, 79),1	64,(0, 80),1	
