82
# CPU
0,81,1	1,80,1	2,50,1	3,51,1	4,49,1	5,48,1	6,47,1	7,52,1	8,46,1	9,53,1	10,45,1	11,54,1	12,44,1	13,43,1	14,42,1	15,55,1	16,41,1	17,64,1	18,63,1	19,65,1	20,62,1	21,61,1	22,60,1	23,66,1	24,59,1	25,58,1	26,57,1	27,67,1	28,56,1	29,40,1	30,39,1	31,68,1	32,38,1	33,37,1	34,36,1	35,69,1	36,35,1	37,34,1	38,33,1	39,70,1	40,32,1	41,31,1	42,30,1	43,71,1	44,29,1	45,28,1	46,27,1	47,72,1	48,26,1	49,17,1	50,16,1	51,18,1	52,15,1	53,19,1	54,14,1	55,20,1	56,13,1	57,21,1	58,12,1	59,22,1	60,11,1	61,23,1	62,10,1	63,24,1	64,9,1	65,1,1	66,2,1	67,3,1	68,4,1	69,5,1	70,6,1	71,7,1	72,8,1	73,25,1	74,73,1	75,74,1	76,75,1	77,76,1	78,77,1	79,78,1	80,79,1	81,0,1	
# Incoming

# Outgoing

