2333
# CPU
85,5,6	169,10,6	253,15,6	337,20,6	421,25,6	505,30,6	589,35,6	673,40,6	757,45,6	841,50,6	925,55,6	1009,60,6	1093,65,6	1177,70,6	1261,75,6	1345,80,6	
64,4,6	148,9,6	232,14,6	316,19,6	400,24,6	484,29,6	568,34,6	652,39,6	736,44,6	820,49,6	904,54,6	988,59,6	1072,64,6	1156,69,6	1240,74,6	1324,79,6	
43,3,6	127,8,6	211,13,6	295,18,6	379,23,6	463,28,6	547,33,6	631,38,6	715,43,6	799,48,6	883,53,6	967,58,6	1051,63,6	1135,68,6	1219,73,6	1303,78,6	
22,2,6	106,7,6	190,12,6	274,17,6	358,22,6	442,27,6	526,32,6	610,37,6	694,42,6	778,47,6	862,52,6	946,57,6	1030,62,6	1114,67,6	1198,72,6	1282,77,6	
0,0,1	1,1,6	7,11,6	13,31,6	19,71,6	25,66,6	31,76,6	37,61,6	43,56,6	49,51,6	55,46,6	61,41,6	67,26,6	73,36,6	79,21,6	85,6,6	91,16,6	2332,81,1	
# Incoming
64,(0, 5),21	148,(0, 10),21	232,(0, 15),21	316,(0, 20),21	400,(0, 25),21	484,(0, 30),21	568,(0, 35),21	652,(0, 40),21	736,(0, 45),21	820,(0, 50),21	904,(0, 55),21	988,(0, 60),21	1072,(0, 65),21	1156,(0, 70),21	1240,(0, 75),21	1324,(0, 80),21	
43,(0, 4),21	127,(0, 9),21	211,(0, 14),21	295,(0, 19),21	379,(0, 24),21	463,(0, 29),21	547,(0, 34),21	631,(0, 39),21	715,(0, 44),21	799,(0, 49),21	883,(0, 54),21	967,(0, 59),21	1051,(0, 64),21	1135,(0, 69),21	1219,(0, 74),21	1303,(0, 79),21	
22,(0, 3),21	106,(0, 8),21	190,(0, 13),21	274,(0, 18),21	358,(0, 23),21	442,(0, 28),21	526,(0, 33),21	610,(0, 38),21	694,(0, 43),21	778,(0, 48),21	862,(0, 53),21	946,(0, 58),21	1030,(0, 63),21	1114,(0, 68),21	1198,(0, 73),21	1282,(0, 78),21	
1,(0, 2),21	85,(0, 7),21	169,(0, 12),21	253,(0, 17),21	337,(0, 22),21	421,(0, 27),21	505,(0, 32),21	589,(0, 37),21	673,(0, 42),21	757,(0, 47),21	841,(0, 52),21	925,(0, 57),21	1009,(0, 62),21	1093,(0, 67),21	1177,(0, 72),21	1261,(0, 77),21	
28,(2, 81),36	64,(3, 81),36	100,(4, 81),36	136,(5, 81),36	172,(7, 81),36	208,(8, 81),36	244,(9, 81),36	280,(10, 81),36	316,(12, 81),36	352,(13, 81),36	388,(14, 81),36	424,(15, 81),36	460,(17, 81),36	496,(18, 81),36	532,(19, 81),36	568,(20, 81),36	604,(22, 81),36	640,(23, 81),36	676,(24, 81),36	712,(25, 81),36	748,(27, 81),36	784,(28, 81),36	820,(29, 81),36	856,(30, 81),36	892,(32, 81),36	928,(33, 81),36	964,(34, 81),36	1000,(35, 81),36	1036,(37, 81),36	1072,(38, 81),36	1108,(39, 81),36	1144,(40, 81),36	1180,(42, 81),36	1216,(43, 81),36	1252,(44, 81),36	1288,(45, 81),36	1324,(47, 81),36	1360,(48, 81),36	1396,(49, 81),36	1432,(50, 81),36	1468,(52, 81),36	1504,(53, 81),36	1540,(54, 81),36	1576,(55, 81),36	1612,(57, 81),36	1648,(58, 81),36	1684,(59, 81),36	1720,(60, 81),36	1756,(62, 81),36	1792,(63, 81),36	1828,(64, 81),36	1864,(65, 81),36	1900,(67, 81),36	1936,(68, 81),36	1972,(69, 81),36	2008,(70, 81),36	2044,(72, 81),36	2080,(73, 81),36	2116,(74, 81),36	2152,(75, 81),36	2188,(77, 81),36	2224,(78, 81),36	2260,(79, 81),36	2296,(80, 81),36	
# Outgoing
136,(5, 81),36	280,(10, 81),36	424,(15, 81),36	568,(20, 81),36	712,(25, 81),36	856,(30, 81),36	1000,(35, 81),36	1144,(40, 81),36	1288,(45, 81),36	1432,(50, 81),36	1576,(55, 81),36	1720,(60, 81),36	1864,(65, 81),36	2008,(70, 81),36	2152,(75, 81),36	2296,(80, 81),36	
100,(4, 81),36	244,(9, 81),36	388,(14, 81),36	532,(19, 81),36	676,(24, 81),36	820,(29, 81),36	964,(34, 81),36	1108,(39, 81),36	1252,(44, 81),36	1396,(49, 81),36	1540,(54, 81),36	1684,(59, 81),36	1828,(64, 81),36	1972,(69, 81),36	2116,(74, 81),36	2260,(79, 81),36	
64,(3, 81),36	208,(8, 81),36	352,(13, 81),36	496,(18, 81),36	640,(23, 81),36	784,(28, 81),36	928,(33, 81),36	1072,(38, 81),36	1216,(43, 81),36	1360,(48, 81),36	1504,(53, 81),36	1648,(58, 81),36	1792,(63, 81),36	1936,(68, 81),36	2080,(73, 81),36	2224,(78, 81),36	
28,(2, 81),36	172,(7, 81),36	316,(12, 81),36	460,(17, 81),36	604,(22, 81),36	748,(27, 81),36	892,(32, 81),36	1036,(37, 81),36	1180,(42, 81),36	1324,(47, 81),36	1468,(52, 81),36	1612,(57, 81),36	1756,(62, 81),36	1900,(67, 81),36	2044,(72, 81),36	2188,(77, 81),36	
1,(0, 2),21	22,(0, 3),21	43,(0, 4),21	64,(0, 5),21	85,(0, 7),21	106,(0, 8),21	127,(0, 9),21	148,(0, 10),21	169,(0, 12),21	190,(0, 13),21	211,(0, 14),21	232,(0, 15),21	253,(0, 17),21	274,(0, 18),21	295,(0, 19),21	316,(0, 20),21	337,(0, 22),21	358,(0, 23),21	379,(0, 24),21	400,(0, 25),21	421,(0, 27),21	442,(0, 28),21	463,(0, 29),21	484,(0, 30),21	505,(0, 32),21	526,(0, 33),21	547,(0, 34),21	568,(0, 35),21	589,(0, 37),21	610,(0, 38),21	631,(0, 39),21	652,(0, 40),21	673,(0, 42),21	694,(0, 43),21	715,(0, 44),21	736,(0, 45),21	757,(0, 47),21	778,(0, 48),21	799,(0, 49),21	820,(0, 50),21	841,(0, 52),21	862,(0, 53),21	883,(0, 54),21	904,(0, 55),21	925,(0, 57),21	946,(0, 58),21	967,(0, 59),21	988,(0, 60),21	1009,(0, 62),21	1030,(0, 63),21	1051,(0, 64),21	1072,(0, 65),21	1093,(0, 67),21	1114,(0, 68),21	1135,(0, 69),21	1156,(0, 70),21	1177,(0, 72),21	1198,(0, 73),21	1219,(0, 74),21	1240,(0, 75),21	1261,(0, 77),21	1282,(0, 78),21	1303,(0, 79),21	1324,(0, 80),21	
