70
# CPU
0,81,1	1,80,1	2,50,1	3,51,1	4,49,1	5,48,1	6,47,1	7,52,1	8,46,1	9,45,1	10,53,1	11,44,1	12,43,1	13,42,1	14,41,1	15,64,1	16,63,1	17,65,1	18,62,1	19,61,1	20,66,1	21,60,1	22,59,1	23,57,1	24,67,1	25,55,1	26,40,1	27,68,1	28,39,1	29,38,1	30,69,1	31,37,1	32,35,1	33,34,1	34,70,1	35,33,1	36,31,1	37,71,1	38,30,1	39,29,1	40,72,1	41,27,1	42,17,1	43,16,1	44,15,1	45,18,1	46,14,1	47,19,1	48,13,1	49,12,1	50,20,1	51,11,1	52,21,1	53,10,1	54,9,1	55,1,1	56,2,1	57,3,1	58,4,1	59,5,1	60,6,1	61,7,1	62,8,1	63,23,1	64,25,1	65,73,1	66,76,1	67,77,1	68,79,1	69,0,1	



7,54,1	
3,56,1	5,58,1	9,36,1	11,32,1	21,74,1	23,75,1	
13,28,1	15,24,1	19,26,1	25,78,1	
17,22,1	


# Incoming
4,(56, 0),5	9,(58, 0),5	14,(54, 0),5	19,(36, 0),5	24,(32, 0),5	29,(28, 0),5	34,(24, 0),5	39,(22, 0),5	44,(26, 0),5	49,(74, 0),5	54,(75, 0),5	59,(78, 0),5	



5,(81, 54),2	
1,(81, 56),2	3,(81, 58),2	7,(81, 36),2	9,(81, 32),2	19,(81, 74),2	21,(81, 75),2	
11,(81, 28),2	13,(81, 24),2	17,(81, 26),2	23,(81, 78),2	
15,(81, 22),2	


# Outgoing
1,(81, 56),2	3,(81, 58),2	5,(81, 54),2	7,(81, 36),2	9,(81, 32),2	11,(81, 28),2	13,(81, 24),2	15,(81, 22),2	17,(81, 26),2	19,(81, 74),2	21,(81, 75),2	23,(81, 78),2	



14,(54, 0),5	
4,(56, 0),5	9,(58, 0),5	19,(36, 0),5	24,(32, 0),5	49,(74, 0),5	54,(75, 0),5	
29,(28, 0),5	34,(24, 0),5	44,(26, 0),5	59,(78, 0),5	
39,(22, 0),5	


