1832
# CPU
0,81,1	1,51,30	31,50,30	61,52,30	91,49,30	121,47,30	151,53,30	181,46,30	211,45,30	241,55,30	271,44,30	301,42,30	331,56,30	361,41,30	391,64,30	421,66,30	451,63,30	481,61,30	511,67,30	541,60,30	571,58,30	601,68,30	631,57,30	661,39,30	691,69,30	721,38,30	751,37,30	781,70,30	811,35,30	841,34,30	871,71,30	901,32,30	931,31,30	961,72,30	991,29,30	1021,28,30	1051,73,30	1081,26,30	1111,17,30	1141,18,30	1171,15,30	1201,19,30	1231,20,30	1261,13,30	1291,21,30	1321,22,30	1351,11,30	1381,23,30	1411,6,30	1441,78,30	1471,1,30	1501,2,30	1531,4,30	1561,5,30	1591,7,30	1621,9,30	1651,10,30	1681,25,30	1711,75,30	1741,76,30	1771,77,30	1801,80,30	1831,0,1	
95,48,30	189,54,30	283,43,30	377,65,30	471,62,30	565,59,30	659,40,30	753,36,30	847,33,30	941,30,30	1035,27,30	1129,16,30	1223,14,30	1317,12,30	1411,24,30	1505,3,30	1599,8,30	1693,74,30	1787,79,30	
# Incoming
125,(48, 0),2	219,(54, 0),2	313,(43, 0),2	407,(65, 0),2	501,(62, 0),2	595,(59, 0),2	689,(40, 0),2	783,(36, 0),2	877,(33, 0),2	971,(30, 0),2	1065,(27, 0),2	1159,(16, 0),2	1253,(14, 0),2	1347,(12, 0),2	1441,(24, 0),2	1535,(3, 0),2	1629,(8, 0),2	1723,(74, 0),2	1817,(79, 0),2	
1,(81, 48),94	95,(81, 54),94	189,(81, 43),94	283,(81, 65),94	377,(81, 62),94	471,(81, 59),94	565,(81, 40),94	659,(81, 36),94	753,(81, 33),94	847,(81, 30),94	941,(81, 27),94	1035,(81, 16),94	1129,(81, 14),94	1223,(81, 12),94	1317,(81, 24),94	1411,(81, 3),94	1505,(81, 8),94	1599,(81, 74),94	1693,(81, 79),94	
# Outgoing
1,(81, 48),94	95,(81, 54),94	189,(81, 43),94	283,(81, 65),94	377,(81, 62),94	471,(81, 59),94	565,(81, 40),94	659,(81, 36),94	753,(81, 33),94	847,(81, 30),94	941,(81, 27),94	1035,(81, 16),94	1129,(81, 14),94	1223,(81, 12),94	1317,(81, 24),94	1411,(81, 3),94	1505,(81, 8),94	1599,(81, 74),94	1693,(81, 79),94	
125,(48, 0),2	219,(54, 0),2	313,(43, 0),2	407,(65, 0),2	501,(62, 0),2	595,(59, 0),2	689,(40, 0),2	783,(36, 0),2	877,(33, 0),2	971,(30, 0),2	1065,(27, 0),2	1159,(16, 0),2	1253,(14, 0),2	1347,(12, 0),2	1441,(24, 0),2	1535,(3, 0),2	1629,(8, 0),2	1723,(74, 0),2	1817,(79, 0),2	
