168
# CPU
0,81,1	1,51,4	5,52,4	9,48,4	13,53,4	17,54,4	21,55,4	25,43,4	29,56,4	33,65,4	37,66,4	41,62,4	45,67,4	49,59,4	53,68,4	57,40,4	61,69,4	65,37,4	69,70,4	73,34,4	77,71,4	81,31,4	85,72,4	89,28,4	93,73,4	97,17,4	101,18,4	105,19,4	109,20,4	113,21,4	117,22,4	121,23,4	125,24,4	129,1,4	133,3,4	137,5,4	141,7,4	145,25,4	149,75,4	153,77,4	157,79,4	167,0,1	
4,50,4	8,49,4	12,47,4	16,46,4	20,45,4	24,44,4	28,42,4	32,41,4	36,64,4	40,63,4	44,61,4	48,60,4	52,58,4	56,57,4	60,39,4	64,38,4	68,36,4	72,35,4	76,33,4	80,32,4	84,30,4	88,29,4	92,27,4	96,26,4	100,16,4	104,15,4	108,14,4	112,13,4	116,12,4	120,11,4	124,10,4	128,9,4	132,2,4	136,4,4	140,6,4	144,8,4	148,74,4	152,76,4	156,78,4	160,80,4	
# Incoming
8,(50, 0),3	12,(49, 0),3	16,(47, 0),3	20,(46, 0),3	24,(45, 0),3	28,(44, 0),3	32,(42, 0),3	36,(41, 0),3	40,(64, 0),3	44,(63, 0),3	48,(61, 0),3	52,(60, 0),3	56,(58, 0),3	60,(57, 0),3	64,(39, 0),3	68,(38, 0),3	72,(36, 0),3	76,(35, 0),3	80,(33, 0),3	84,(32, 0),3	88,(30, 0),3	92,(29, 0),3	96,(27, 0),3	100,(26, 0),3	104,(16, 0),3	108,(15, 0),3	112,(14, 0),3	116,(13, 0),3	120,(12, 0),3	124,(11, 0),3	128,(10, 0),3	132,(9, 0),3	136,(2, 0),3	140,(4, 0),3	144,(6, 0),3	148,(8, 0),3	152,(74, 0),3	156,(76, 0),3	160,(78, 0),3	164,(80, 0),3	
1,(81, 50),3	4,(81, 49),3	7,(81, 47),3	10,(81, 46),3	13,(81, 45),3	16,(81, 44),3	19,(81, 42),3	22,(81, 41),3	25,(81, 64),3	28,(81, 63),3	31,(81, 61),3	34,(81, 60),3	37,(81, 58),3	40,(81, 57),3	43,(81, 39),3	46,(81, 38),3	49,(81, 36),3	52,(81, 35),3	55,(81, 33),3	58,(81, 32),3	61,(81, 30),3	64,(81, 29),3	67,(81, 27),3	70,(81, 26),3	73,(81, 16),3	76,(81, 15),3	79,(81, 14),3	82,(81, 13),3	85,(81, 12),3	88,(81, 11),3	91,(81, 10),3	94,(81, 9),3	97,(81, 2),3	100,(81, 4),3	103,(81, 6),3	106,(81, 8),3	109,(81, 74),3	112,(81, 76),3	115,(81, 78),3	118,(81, 80),3	
# Outgoing
1,(81, 50),3	4,(81, 49),3	7,(81, 47),3	10,(81, 46),3	13,(81, 45),3	16,(81, 44),3	19,(81, 42),3	22,(81, 41),3	25,(81, 64),3	28,(81, 63),3	31,(81, 61),3	34,(81, 60),3	37,(81, 58),3	40,(81, 57),3	43,(81, 39),3	46,(81, 38),3	49,(81, 36),3	52,(81, 35),3	55,(81, 33),3	58,(81, 32),3	61,(81, 30),3	64,(81, 29),3	67,(81, 27),3	70,(81, 26),3	73,(81, 16),3	76,(81, 15),3	79,(81, 14),3	82,(81, 13),3	85,(81, 12),3	88,(81, 11),3	91,(81, 10),3	94,(81, 9),3	97,(81, 2),3	100,(81, 4),3	103,(81, 6),3	106,(81, 8),3	109,(81, 74),3	112,(81, 76),3	115,(81, 78),3	118,(81, 80),3	
8,(50, 0),3	12,(49, 0),3	16,(47, 0),3	20,(46, 0),3	24,(45, 0),3	28,(44, 0),3	32,(42, 0),3	36,(41, 0),3	40,(64, 0),3	44,(63, 0),3	48,(61, 0),3	52,(60, 0),3	56,(58, 0),3	60,(57, 0),3	64,(39, 0),3	68,(38, 0),3	72,(36, 0),3	76,(35, 0),3	80,(33, 0),3	84,(32, 0),3	88,(30, 0),3	92,(29, 0),3	96,(27, 0),3	100,(26, 0),3	104,(16, 0),3	108,(15, 0),3	112,(14, 0),3	116,(13, 0),3	120,(12, 0),3	124,(11, 0),3	128,(10, 0),3	132,(9, 0),3	136,(2, 0),3	140,(4, 0),3	144,(6, 0),3	148,(8, 0),3	152,(74, 0),3	156,(76, 0),3	160,(78, 0),3	164,(80, 0),3	
