9128
# CPU
457,4,2	913,8,2	1369,12,2	1825,16,2	2281,20,2	2737,24,2	3193,28,2	3649,32,2	4105,36,2	4561,40,2	5017,44,2	5473,48,2	5929,52,2	6385,56,2	6841,60,2	7297,64,2	7753,68,2	8209,72,2	8665,76,2	9121,80,2	
305,3,2	761,7,2	1217,11,2	1673,15,2	2129,19,2	2585,23,2	3041,27,2	3497,31,2	3953,35,2	4409,39,2	4865,43,2	5321,47,2	5777,51,2	6233,55,2	6689,59,2	7145,63,2	7601,67,2	8057,71,2	8513,75,2	8969,79,2	
153,2,2	609,6,2	1065,10,2	1521,14,2	1977,18,2	2433,22,2	2889,26,2	3345,30,2	3801,34,2	4257,38,2	4713,42,2	5169,46,2	5625,50,2	6081,54,2	6537,58,2	6993,62,2	7449,66,2	7905,70,2	8361,74,2	8817,78,2	
0,0,1	1,1,2	3,9,2	5,25,2	7,57,2	9,77,2	11,73,2	13,69,2	15,65,2	17,53,2	19,61,2	21,49,2	23,45,2	25,41,2	27,37,2	29,33,2	31,21,2	33,29,2	35,17,2	37,5,2	39,13,2	9127,81,1	
# Incoming
305,(0, 4),152	761,(0, 8),152	1217,(0, 12),152	1673,(0, 16),152	2129,(0, 20),152	2585,(0, 24),152	3041,(0, 28),152	3497,(0, 32),152	3953,(0, 36),152	4409,(0, 40),152	4865,(0, 44),152	5321,(0, 48),152	5777,(0, 52),152	6233,(0, 56),152	6689,(0, 60),152	7145,(0, 64),152	7601,(0, 68),152	8057,(0, 72),152	8513,(0, 76),152	8969,(0, 80),152	
153,(0, 3),152	609,(0, 7),152	1065,(0, 11),152	1521,(0, 15),152	1977,(0, 19),152	2433,(0, 23),152	2889,(0, 27),152	3345,(0, 31),152	3801,(0, 35),152	4257,(0, 39),152	4713,(0, 43),152	5169,(0, 47),152	5625,(0, 51),152	6081,(0, 55),152	6537,(0, 59),152	6993,(0, 63),152	7449,(0, 67),152	7905,(0, 71),152	8361,(0, 75),152	8817,(0, 79),152	
1,(0, 2),152	457,(0, 6),152	913,(0, 10),152	1369,(0, 14),152	1825,(0, 18),152	2281,(0, 22),152	2737,(0, 26),152	3193,(0, 30),152	3649,(0, 34),152	4105,(0, 38),152	4561,(0, 42),152	5017,(0, 46),152	5473,(0, 50),152	5929,(0, 54),152	6385,(0, 58),152	6841,(0, 62),152	7297,(0, 66),152	7753,(0, 70),152	8209,(0, 74),152	8665,(0, 78),152	
155,(2, 81),4	307,(3, 81),4	459,(4, 81),4	611,(6, 81),4	763,(7, 81),4	915,(8, 81),4	1067,(10, 81),4	1219,(11, 81),4	1371,(12, 81),4	1523,(14, 81),4	1675,(15, 81),4	1827,(16, 81),4	1979,(18, 81),4	2131,(19, 81),4	2283,(20, 81),4	2435,(22, 81),4	2587,(23, 81),4	2739,(24, 81),4	2891,(26, 81),4	3043,(27, 81),4	3195,(28, 81),4	3347,(30, 81),4	3499,(31, 81),4	3651,(32, 81),4	3803,(34, 81),4	3955,(35, 81),4	4107,(36, 81),4	4259,(38, 81),4	4411,(39, 81),4	4563,(40, 81),4	4715,(42, 81),4	4867,(43, 81),4	5019,(44, 81),4	5171,(46, 81),4	5323,(47, 81),4	5475,(48, 81),4	5627,(50, 81),4	5779,(51, 81),4	5931,(52, 81),4	6083,(54, 81),4	6235,(55, 81),4	6387,(56, 81),4	6539,(58, 81),4	6691,(59, 81),4	6843,(60, 81),4	6995,(62, 81),4	7147,(63, 81),4	7299,(64, 81),4	7451,(66, 81),4	7603,(67, 81),4	7755,(68, 81),4	7907,(70, 81),4	8059,(71, 81),4	8211,(72, 81),4	8363,(74, 81),4	8515,(75, 81),4	8667,(76, 81),4	8819,(78, 81),4	8971,(79, 81),4	9123,(80, 81),4	
# Outgoing
459,(4, 81),4	915,(8, 81),4	1371,(12, 81),4	1827,(16, 81),4	2283,(20, 81),4	2739,(24, 81),4	3195,(28, 81),4	3651,(32, 81),4	4107,(36, 81),4	4563,(40, 81),4	5019,(44, 81),4	5475,(48, 81),4	5931,(52, 81),4	6387,(56, 81),4	6843,(60, 81),4	7299,(64, 81),4	7755,(68, 81),4	8211,(72, 81),4	8667,(76, 81),4	9123,(80, 81),4	
307,(3, 81),4	763,(7, 81),4	1219,(11, 81),4	1675,(15, 81),4	2131,(19, 81),4	2587,(23, 81),4	3043,(27, 81),4	3499,(31, 81),4	3955,(35, 81),4	4411,(39, 81),4	4867,(43, 81),4	5323,(47, 81),4	5779,(51, 81),4	6235,(55, 81),4	6691,(59, 81),4	7147,(63, 81),4	7603,(67, 81),4	8059,(71, 81),4	8515,(75, 81),4	8971,(79, 81),4	
155,(2, 81),4	611,(6, 81),4	1067,(10, 81),4	1523,(14, 81),4	1979,(18, 81),4	2435,(22, 81),4	2891,(26, 81),4	3347,(30, 81),4	3803,(34, 81),4	4259,(38, 81),4	4715,(42, 81),4	5171,(46, 81),4	5627,(50, 81),4	6083,(54, 81),4	6539,(58, 81),4	6995,(62, 81),4	7451,(66, 81),4	7907,(70, 81),4	8363,(74, 81),4	8819,(78, 81),4	
1,(0, 2),152	153,(0, 3),152	305,(0, 4),152	457,(0, 6),152	609,(0, 7),152	761,(0, 8),152	913,(0, 10),152	1065,(0, 11),152	1217,(0, 12),152	1369,(0, 14),152	1521,(0, 15),152	1673,(0, 16),152	1825,(0, 18),152	1977,(0, 19),152	2129,(0, 20),152	2281,(0, 22),152	2433,(0, 23),152	2585,(0, 24),152	2737,(0, 26),152	2889,(0, 27),152	3041,(0, 28),152	3193,(0, 30),152	3345,(0, 31),152	3497,(0, 32),152	3649,(0, 34),152	3801,(0, 35),152	3953,(0, 36),152	4105,(0, 38),152	4257,(0, 39),152	4409,(0, 40),152	4561,(0, 42),152	4713,(0, 43),152	4865,(0, 44),152	5017,(0, 46),152	5169,(0, 47),152	5321,(0, 48),152	5473,(0, 50),152	5625,(0, 51),152	5777,(0, 52),152	5929,(0, 54),152	6081,(0, 55),152	6233,(0, 56),152	6385,(0, 58),152	6537,(0, 59),152	6689,(0, 60),152	6841,(0, 62),152	6993,(0, 63),152	7145,(0, 64),152	7297,(0, 66),152	7449,(0, 67),152	7601,(0, 68),152	7753,(0, 70),152	7905,(0, 71),152	8057,(0, 72),152	8209,(0, 74),152	8361,(0, 75),152	8513,(0, 76),152	8665,(0, 78),152	8817,(0, 79),152	8969,(0, 80),152	
