435
# CPU
5,3,7	12,6,7	19,9,7	26,12,7	33,15,7	40,18,7	47,21,7	54,24,7	61,27,7	68,30,7	75,33,7	82,36,7	89,39,7	96,42,7	103,45,7	110,48,7	117,51,7	124,54,7	131,57,7	138,60,7	145,63,7	152,66,7	159,69,7	166,72,7	173,75,7	180,78,7	
3,2,7	10,5,7	17,8,7	24,11,7	31,14,7	38,17,7	45,20,7	52,23,7	59,26,7	66,29,7	73,32,7	80,35,7	87,38,7	94,41,7	101,44,7	108,47,7	115,50,7	122,53,7	129,56,7	136,59,7	143,62,7	150,65,7	157,68,7	164,71,7	171,74,7	178,77,7	185,80,7	
0,0,1	1,1,7	8,7,7	15,19,7	22,43,7	29,79,7	36,76,7	43,73,7	50,70,7	57,67,7	64,64,7	71,61,7	78,58,7	85,55,7	92,52,7	99,49,7	106,40,7	113,46,7	120,37,7	127,34,7	134,31,7	141,28,7	148,25,7	155,16,7	162,22,7	169,13,7	176,4,7	183,10,7	434,81,1	
# Incoming
3,(0, 3),2	7,(0, 6),2	11,(0, 9),2	15,(0, 12),2	19,(0, 15),2	23,(0, 18),2	27,(0, 21),2	31,(0, 24),2	35,(0, 27),2	39,(0, 30),2	43,(0, 33),2	47,(0, 36),2	51,(0, 39),2	55,(0, 42),2	59,(0, 45),2	63,(0, 48),2	67,(0, 51),2	71,(0, 54),2	75,(0, 57),2	79,(0, 60),2	83,(0, 63),2	87,(0, 66),2	91,(0, 69),2	95,(0, 72),2	99,(0, 75),2	103,(0, 78),2	
1,(0, 2),2	5,(0, 5),2	9,(0, 8),2	13,(0, 11),2	17,(0, 14),2	21,(0, 17),2	25,(0, 20),2	29,(0, 23),2	33,(0, 26),2	37,(0, 29),2	41,(0, 32),2	45,(0, 35),2	49,(0, 38),2	53,(0, 41),2	57,(0, 44),2	61,(0, 47),2	65,(0, 50),2	69,(0, 53),2	73,(0, 56),2	77,(0, 59),2	81,(0, 62),2	85,(0, 65),2	89,(0, 68),2	93,(0, 71),2	97,(0, 74),2	101,(0, 77),2	105,(0, 80),2	
10,(2, 81),8	18,(3, 81),8	26,(5, 81),8	34,(6, 81),8	42,(8, 81),8	50,(9, 81),8	58,(11, 81),8	66,(12, 81),8	74,(14, 81),8	82,(15, 81),8	90,(17, 81),8	98,(18, 81),8	106,(20, 81),8	114,(21, 81),8	122,(23, 81),8	130,(24, 81),8	138,(26, 81),8	146,(27, 81),8	154,(29, 81),8	162,(30, 81),8	170,(32, 81),8	178,(33, 81),8	186,(35, 81),8	194,(36, 81),8	202,(38, 81),8	210,(39, 81),8	218,(41, 81),8	226,(42, 81),8	234,(44, 81),8	242,(45, 81),8	250,(47, 81),8	258,(48, 81),8	266,(50, 81),8	274,(51, 81),8	282,(53, 81),8	290,(54, 81),8	298,(56, 81),8	306,(57, 81),8	314,(59, 81),8	322,(60, 81),8	330,(62, 81),8	338,(63, 81),8	346,(65, 81),8	354,(66, 81),8	362,(68, 81),8	370,(69, 81),8	378,(71, 81),8	386,(72, 81),8	394,(74, 81),8	402,(75, 81),8	410,(77, 81),8	418,(78, 81),8	426,(80, 81),8	
# Outgoing
18,(3, 81),8	34,(6, 81),8	50,(9, 81),8	66,(12, 81),8	82,(15, 81),8	98,(18, 81),8	114,(21, 81),8	130,(24, 81),8	146,(27, 81),8	162,(30, 81),8	178,(33, 81),8	194,(36, 81),8	210,(39, 81),8	226,(42, 81),8	242,(45, 81),8	258,(48, 81),8	274,(51, 81),8	290,(54, 81),8	306,(57, 81),8	322,(60, 81),8	338,(63, 81),8	354,(66, 81),8	370,(69, 81),8	386,(72, 81),8	402,(75, 81),8	418,(78, 81),8	
10,(2, 81),8	26,(5, 81),8	42,(8, 81),8	58,(11, 81),8	74,(14, 81),8	90,(17, 81),8	106,(20, 81),8	122,(23, 81),8	138,(26, 81),8	154,(29, 81),8	170,(32, 81),8	186,(35, 81),8	202,(38, 81),8	218,(41, 81),8	234,(44, 81),8	250,(47, 81),8	266,(50, 81),8	282,(53, 81),8	298,(56, 81),8	314,(59, 81),8	330,(62, 81),8	346,(65, 81),8	362,(68, 81),8	378,(71, 81),8	394,(74, 81),8	410,(77, 81),8	426,(80, 81),8	
1,(0, 2),2	3,(0, 3),2	5,(0, 5),2	7,(0, 6),2	9,(0, 8),2	11,(0, 9),2	13,(0, 11),2	15,(0, 12),2	17,(0, 14),2	19,(0, 15),2	21,(0, 17),2	23,(0, 18),2	25,(0, 20),2	27,(0, 21),2	29,(0, 23),2	31,(0, 24),2	33,(0, 26),2	35,(0, 27),2	37,(0, 29),2	39,(0, 30),2	41,(0, 32),2	43,(0, 33),2	45,(0, 35),2	47,(0, 36),2	49,(0, 38),2	51,(0, 39),2	53,(0, 41),2	55,(0, 42),2	57,(0, 44),2	59,(0, 45),2	61,(0, 47),2	63,(0, 48),2	65,(0, 50),2	67,(0, 51),2	69,(0, 53),2	71,(0, 54),2	73,(0, 56),2	75,(0, 57),2	77,(0, 59),2	79,(0, 60),2	81,(0, 62),2	83,(0, 63),2	85,(0, 65),2	87,(0, 66),2	89,(0, 68),2	91,(0, 69),2	93,(0, 71),2	95,(0, 72),2	97,(0, 74),2	99,(0, 75),2	101,(0, 77),2	103,(0, 78),2	105,(0, 80),2	
