80
# CPU
0,0,1	1,51,1	2,50,1	3,52,1	4,49,1	5,48,1	6,47,1	7,53,1	8,46,1	9,54,1	10,45,1	11,55,1	12,44,1	13,43,1	14,42,1	15,56,1	16,41,1	17,65,1	18,64,1	19,66,1	20,63,1	21,62,1	22,61,1	23,67,1	24,60,1	25,59,1	26,58,1	27,68,1	28,57,1	29,17,1	30,26,1	31,69,1	32,40,1	33,39,1	34,70,1	35,38,1	36,37,1	37,36,1	38,71,1	39,35,1	40,33,1	41,32,1	42,72,1	43,31,1	44,30,1	45,29,1	46,73,1	47,28,1	48,18,1	49,16,1	50,19,1	51,15,1	52,20,1	53,14,1	54,21,1	55,13,1	56,22,1	57,8,1	58,9,1	59,23,1	60,12,1	61,24,1	62,11,1	63,1,1	64,2,1	65,3,1	66,4,1	67,5,1	68,6,1	69,7,1	70,10,1	71,25,1	72,27,1	73,74,1	74,76,1	75,77,1	76,78,1	77,79,1	78,80,1	79,81,1	
29,34,1	
57,75,1	
# Incoming
30,(34, 81),4	58,(75, 81),4	
1,(0, 34),28	
29,(0, 75),28	
# Outgoing
1,(0, 34),28	29,(0, 75),28	
30,(34, 81),4	
58,(75, 81),4	
