934
# CPU
11,2,23	34,4,23	57,6,23	80,8,23	103,10,23	126,12,23	149,14,23	172,16,23	195,18,23	218,20,23	241,22,23	264,24,23	287,26,23	310,28,23	333,30,23	356,32,23	379,34,23	402,36,23	425,38,23	448,40,23	471,42,23	494,44,23	517,46,23	540,48,23	563,50,23	586,52,23	609,54,23	632,56,23	655,58,23	678,60,23	701,62,23	724,64,23	747,66,23	770,68,23	793,70,23	816,72,23	839,74,23	862,76,23	885,78,23	908,80,23	
0,0,1	1,1,23	24,5,23	47,13,23	70,29,23	93,61,23	116,79,23	139,77,23	162,75,23	185,73,23	208,71,23	231,69,23	254,67,23	277,65,23	300,59,23	323,63,23	346,57,23	369,55,23	392,53,23	415,51,23	438,49,23	461,47,23	484,45,23	507,43,23	530,41,23	553,39,23	576,37,23	599,35,23	622,33,23	645,27,23	668,31,23	691,25,23	714,23,23	737,21,23	760,19,23	783,17,23	806,11,23	829,15,23	852,9,23	875,3,23	898,7,23	933,81,1	
# Incoming
1,(0, 2),10	11,(0, 4),10	21,(0, 6),10	31,(0, 8),10	41,(0, 10),10	51,(0, 12),10	61,(0, 14),10	71,(0, 16),10	81,(0, 18),10	91,(0, 20),10	101,(0, 22),10	111,(0, 24),10	121,(0, 26),10	131,(0, 28),10	141,(0, 30),10	151,(0, 32),10	161,(0, 34),10	171,(0, 36),10	181,(0, 38),10	191,(0, 40),10	201,(0, 42),10	211,(0, 44),10	221,(0, 46),10	231,(0, 48),10	241,(0, 50),10	251,(0, 52),10	261,(0, 54),10	271,(0, 56),10	281,(0, 58),10	291,(0, 60),10	301,(0, 62),10	311,(0, 64),10	321,(0, 66),10	331,(0, 68),10	341,(0, 70),10	351,(0, 72),10	361,(0, 74),10	371,(0, 76),10	381,(0, 78),10	391,(0, 80),10	
34,(2, 81),2	57,(4, 81),2	80,(6, 81),2	103,(8, 81),2	126,(10, 81),2	149,(12, 81),2	172,(14, 81),2	195,(16, 81),2	218,(18, 81),2	241,(20, 81),2	264,(22, 81),2	287,(24, 81),2	310,(26, 81),2	333,(28, 81),2	356,(30, 81),2	379,(32, 81),2	402,(34, 81),2	425,(36, 81),2	448,(38, 81),2	471,(40, 81),2	494,(42, 81),2	517,(44, 81),2	540,(46, 81),2	563,(48, 81),2	586,(50, 81),2	609,(52, 81),2	632,(54, 81),2	655,(56, 81),2	678,(58, 81),2	701,(60, 81),2	724,(62, 81),2	747,(64, 81),2	770,(66, 81),2	793,(68, 81),2	816,(70, 81),2	839,(72, 81),2	862,(74, 81),2	885,(76, 81),2	908,(78, 81),2	931,(80, 81),2	
# Outgoing
34,(2, 81),2	57,(4, 81),2	80,(6, 81),2	103,(8, 81),2	126,(10, 81),2	149,(12, 81),2	172,(14, 81),2	195,(16, 81),2	218,(18, 81),2	241,(20, 81),2	264,(22, 81),2	287,(24, 81),2	310,(26, 81),2	333,(28, 81),2	356,(30, 81),2	379,(32, 81),2	402,(34, 81),2	425,(36, 81),2	448,(38, 81),2	471,(40, 81),2	494,(42, 81),2	517,(44, 81),2	540,(46, 81),2	563,(48, 81),2	586,(50, 81),2	609,(52, 81),2	632,(54, 81),2	655,(56, 81),2	678,(58, 81),2	701,(60, 81),2	724,(62, 81),2	747,(64, 81),2	770,(66, 81),2	793,(68, 81),2	816,(70, 81),2	839,(72, 81),2	862,(74, 81),2	885,(76, 81),2	908,(78, 81),2	931,(80, 81),2	
1,(0, 2),10	11,(0, 4),10	21,(0, 6),10	31,(0, 8),10	41,(0, 10),10	51,(0, 12),10	61,(0, 14),10	71,(0, 16),10	81,(0, 18),10	91,(0, 20),10	101,(0, 22),10	111,(0, 24),10	121,(0, 26),10	131,(0, 28),10	141,(0, 30),10	151,(0, 32),10	161,(0, 34),10	171,(0, 36),10	181,(0, 38),10	191,(0, 40),10	201,(0, 42),10	211,(0, 44),10	221,(0, 46),10	231,(0, 48),10	241,(0, 50),10	251,(0, 52),10	261,(0, 54),10	271,(0, 56),10	281,(0, 58),10	291,(0, 60),10	301,(0, 62),10	311,(0, 64),10	321,(0, 66),10	331,(0, 68),10	341,(0, 70),10	351,(0, 72),10	361,(0, 74),10	371,(0, 76),10	381,(0, 78),10	391,(0, 80),10	
