80
# CPU
0,81,1	1,80,1	2,50,1	3,51,1	4,49,1	5,48,1	6,47,1	7,52,1	8,46,1	9,53,1	10,45,1	11,54,1	12,44,1	13,43,1	14,42,1	15,55,1	16,41,1	17,64,1	18,63,1	19,65,1	20,62,1	21,61,1	22,60,1	23,66,1	24,59,1	25,58,1	26,57,1	27,67,1	28,56,1	29,40,1	30,39,1	31,68,1	32,38,1	33,37,1	34,69,1	35,36,1	36,35,1	37,34,1	38,70,1	39,33,1	40,32,1	41,30,1	42,71,1	43,29,1	44,28,1	45,27,1	46,72,1	47,26,1	48,17,1	49,16,1	50,18,1	51,15,1	52,19,1	53,14,1	54,20,1	55,13,1	56,21,1	57,12,1	58,22,1	59,11,1	60,23,1	61,10,1	62,9,1	63,1,1	64,2,1	65,3,1	66,4,1	67,5,1	68,6,1	69,7,1	70,8,1	71,24,1	72,25,1	73,73,1	74,75,1	75,76,1	76,77,1	77,78,1	78,79,1	79,0,1	




9,74,1	


5,31,1	

# Incoming
6,(31, 0),28	34,(74, 0),28	




5,(81, 74),4	


1,(81, 31),4	

# Outgoing
1,(81, 31),4	5,(81, 74),4	




34,(74, 0),28	


6,(31, 0),28	

