189
# CPU
10,4,4	19,8,4	28,12,4	37,16,4	46,20,4	55,24,4	64,28,4	73,32,4	82,36,4	91,40,4	100,44,4	109,48,4	118,52,4	127,56,4	136,60,4	145,64,4	154,68,4	163,72,4	172,76,4	181,80,4	
7,3,4	16,7,4	25,11,4	34,15,4	43,19,4	52,23,4	61,27,4	70,31,4	79,35,4	88,39,4	97,43,4	106,47,4	115,51,4	124,55,4	133,59,4	142,63,4	151,67,4	160,71,4	169,75,4	178,79,4	
4,2,4	13,6,4	22,10,4	31,14,4	40,18,4	49,22,4	58,26,4	67,30,4	76,34,4	85,38,4	94,42,4	103,46,4	112,50,4	121,54,4	130,58,4	139,62,4	148,66,4	157,70,4	166,74,4	175,78,4	
0,0,1	1,1,4	5,9,4	9,25,4	13,57,4	17,77,4	21,73,4	25,69,4	29,65,4	33,53,4	37,61,4	41,49,4	45,45,4	49,41,4	53,37,4	57,33,4	61,21,4	65,29,4	69,17,4	73,5,4	77,13,4	188,81,1	
# Incoming
7,(0, 4),3	16,(0, 8),3	25,(0, 12),3	34,(0, 16),3	43,(0, 20),3	52,(0, 24),3	61,(0, 28),3	70,(0, 32),3	79,(0, 36),3	88,(0, 40),3	97,(0, 44),3	106,(0, 48),3	115,(0, 52),3	124,(0, 56),3	133,(0, 60),3	142,(0, 64),3	151,(0, 68),3	160,(0, 72),3	169,(0, 76),3	178,(0, 80),3	
4,(0, 3),3	13,(0, 7),3	22,(0, 11),3	31,(0, 15),3	40,(0, 19),3	49,(0, 23),3	58,(0, 27),3	67,(0, 31),3	76,(0, 35),3	85,(0, 39),3	94,(0, 43),3	103,(0, 47),3	112,(0, 51),3	121,(0, 55),3	130,(0, 59),3	139,(0, 63),3	148,(0, 67),3	157,(0, 71),3	166,(0, 75),3	175,(0, 79),3	
1,(0, 2),3	10,(0, 6),3	19,(0, 10),3	28,(0, 14),3	37,(0, 18),3	46,(0, 22),3	55,(0, 26),3	64,(0, 30),3	73,(0, 34),3	82,(0, 38),3	91,(0, 42),3	100,(0, 46),3	109,(0, 50),3	118,(0, 54),3	127,(0, 58),3	136,(0, 62),3	145,(0, 66),3	154,(0, 70),3	163,(0, 74),3	172,(0, 78),3	
8,(2, 81),3	11,(3, 81),3	14,(4, 81),3	17,(6, 81),3	20,(7, 81),3	23,(8, 81),3	26,(10, 81),3	29,(11, 81),3	32,(12, 81),3	35,(14, 81),3	38,(15, 81),3	41,(16, 81),3	44,(18, 81),3	47,(19, 81),3	50,(20, 81),3	53,(22, 81),3	56,(23, 81),3	59,(24, 81),3	62,(26, 81),3	65,(27, 81),3	68,(28, 81),3	71,(30, 81),3	74,(31, 81),3	77,(32, 81),3	80,(34, 81),3	83,(35, 81),3	86,(36, 81),3	89,(38, 81),3	92,(39, 81),3	95,(40, 81),3	98,(42, 81),3	101,(43, 81),3	104,(44, 81),3	107,(46, 81),3	110,(47, 81),3	113,(48, 81),3	116,(50, 81),3	119,(51, 81),3	122,(52, 81),3	125,(54, 81),3	128,(55, 81),3	131,(56, 81),3	134,(58, 81),3	137,(59, 81),3	140,(60, 81),3	143,(62, 81),3	146,(63, 81),3	149,(64, 81),3	152,(66, 81),3	155,(67, 81),3	158,(68, 81),3	161,(70, 81),3	164,(71, 81),3	167,(72, 81),3	170,(74, 81),3	173,(75, 81),3	176,(76, 81),3	179,(78, 81),3	182,(79, 81),3	185,(80, 81),3	
# Outgoing
14,(4, 81),3	23,(8, 81),3	32,(12, 81),3	41,(16, 81),3	50,(20, 81),3	59,(24, 81),3	68,(28, 81),3	77,(32, 81),3	86,(36, 81),3	95,(40, 81),3	104,(44, 81),3	113,(48, 81),3	122,(52, 81),3	131,(56, 81),3	140,(60, 81),3	149,(64, 81),3	158,(68, 81),3	167,(72, 81),3	176,(76, 81),3	185,(80, 81),3	
11,(3, 81),3	20,(7, 81),3	29,(11, 81),3	38,(15, 81),3	47,(19, 81),3	56,(23, 81),3	65,(27, 81),3	74,(31, 81),3	83,(35, 81),3	92,(39, 81),3	101,(43, 81),3	110,(47, 81),3	119,(51, 81),3	128,(55, 81),3	137,(59, 81),3	146,(63, 81),3	155,(67, 81),3	164,(71, 81),3	173,(75, 81),3	182,(79, 81),3	
8,(2, 81),3	17,(6, 81),3	26,(10, 81),3	35,(14, 81),3	44,(18, 81),3	53,(22, 81),3	62,(26, 81),3	71,(30, 81),3	80,(34, 81),3	89,(38, 81),3	98,(42, 81),3	107,(46, 81),3	116,(50, 81),3	125,(54, 81),3	134,(58, 81),3	143,(62, 81),3	152,(66, 81),3	161,(70, 81),3	170,(74, 81),3	179,(78, 81),3	
1,(0, 2),3	4,(0, 3),3	7,(0, 4),3	10,(0, 6),3	13,(0, 7),3	16,(0, 8),3	19,(0, 10),3	22,(0, 11),3	25,(0, 12),3	28,(0, 14),3	31,(0, 15),3	34,(0, 16),3	37,(0, 18),3	40,(0, 19),3	43,(0, 20),3	46,(0, 22),3	49,(0, 23),3	52,(0, 24),3	55,(0, 26),3	58,(0, 27),3	61,(0, 28),3	64,(0, 30),3	67,(0, 31),3	70,(0, 32),3	73,(0, 34),3	76,(0, 35),3	79,(0, 36),3	82,(0, 38),3	85,(0, 39),3	88,(0, 40),3	91,(0, 42),3	94,(0, 43),3	97,(0, 44),3	100,(0, 46),3	103,(0, 47),3	106,(0, 48),3	109,(0, 50),3	112,(0, 51),3	115,(0, 52),3	118,(0, 54),3	121,(0, 55),3	124,(0, 56),3	127,(0, 58),3	130,(0, 59),3	133,(0, 60),3	136,(0, 62),3	139,(0, 63),3	142,(0, 64),3	145,(0, 66),3	148,(0, 67),3	151,(0, 68),3	154,(0, 70),3	157,(0, 71),3	160,(0, 72),3	163,(0, 74),3	166,(0, 75),3	169,(0, 76),3	172,(0, 78),3	175,(0, 79),3	178,(0, 80),3	
