314
# CPU
0,0,1	1,51,4	5,50,4	9,52,4	13,49,4	17,48,4	21,47,4	25,53,4	29,46,4	33,54,4	37,45,4	41,55,4	45,44,4	49,43,4	53,42,4	57,56,4	61,41,4	65,65,4	69,64,4	73,66,4	77,63,4	81,62,4	85,61,4	89,67,4	93,60,4	97,59,4	101,58,4	105,33,4	109,26,4	113,68,4	117,69,4	121,57,4	125,40,4	129,39,4	133,70,4	137,38,4	141,37,4	145,35,4	149,71,4	153,34,4	157,32,4	161,31,4	165,72,4	169,30,4	173,29,4	177,28,4	181,73,4	185,27,4	189,17,4	193,16,4	197,18,4	201,15,4	205,19,4	209,5,4	213,22,4	217,14,4	221,13,4	225,20,4	229,12,4	233,21,4	237,11,4	241,23,4	245,10,4	249,1,4	253,2,4	257,3,4	261,4,4	265,6,4	269,7,4	273,8,4	277,9,4	281,25,4	285,74,4	289,75,4	293,76,4	297,77,4	301,78,4	305,79,4	309,80,4	313,81,1	







105,36,4	
209,24,4	
# Incoming
109,(36, 81),24	213,(24, 81),24	







1,(0, 36),104	
105,(0, 24),104	
# Outgoing
1,(0, 36),104	105,(0, 24),104	







109,(36, 81),24	
213,(24, 81),24	
