1486
# CPU
93,5,11	185,10,11	277,15,11	369,20,11	461,25,11	553,30,11	645,35,11	737,40,11	829,45,11	921,50,11	1013,55,11	1105,60,11	1197,65,11	1289,70,11	1381,75,11	1473,80,11	
70,4,11	162,9,11	254,14,11	346,19,11	438,24,11	530,29,11	622,34,11	714,39,11	806,44,11	898,49,11	990,54,11	1082,59,11	1174,64,11	1266,69,11	1358,74,11	1450,79,11	
47,3,11	139,8,11	231,13,11	323,18,11	415,23,11	507,28,11	599,33,11	691,38,11	783,43,11	875,48,11	967,53,11	1059,58,11	1151,63,11	1243,68,11	1335,73,11	1427,78,11	
24,2,11	116,7,11	208,12,11	300,17,11	392,22,11	484,27,11	576,32,11	668,37,11	760,42,11	852,47,11	944,52,11	1036,57,11	1128,62,11	1220,67,11	1312,72,11	1404,77,11	
0,0,1	1,1,11	12,11,11	23,31,11	34,71,11	45,66,11	56,76,11	67,61,11	78,56,11	89,51,11	100,46,11	111,41,11	122,26,11	133,36,11	144,21,11	155,6,11	166,16,11	1485,81,1	
# Incoming
70,(0, 5),23	162,(0, 10),23	254,(0, 15),23	346,(0, 20),23	438,(0, 25),23	530,(0, 30),23	622,(0, 35),23	714,(0, 40),23	806,(0, 45),23	898,(0, 50),23	990,(0, 55),23	1082,(0, 60),23	1174,(0, 65),23	1266,(0, 70),23	1358,(0, 75),23	1450,(0, 80),23	
47,(0, 4),23	139,(0, 9),23	231,(0, 14),23	323,(0, 19),23	415,(0, 24),23	507,(0, 29),23	599,(0, 34),23	691,(0, 39),23	783,(0, 44),23	875,(0, 49),23	967,(0, 54),23	1059,(0, 59),23	1151,(0, 64),23	1243,(0, 69),23	1335,(0, 74),23	1427,(0, 79),23	
24,(0, 3),23	116,(0, 8),23	208,(0, 13),23	300,(0, 18),23	392,(0, 23),23	484,(0, 28),23	576,(0, 33),23	668,(0, 38),23	760,(0, 43),23	852,(0, 48),23	944,(0, 53),23	1036,(0, 58),23	1128,(0, 63),23	1220,(0, 68),23	1312,(0, 73),23	1404,(0, 78),23	
1,(0, 2),23	93,(0, 7),23	185,(0, 12),23	277,(0, 17),23	369,(0, 22),23	461,(0, 27),23	553,(0, 32),23	645,(0, 37),23	737,(0, 42),23	829,(0, 47),23	921,(0, 52),23	1013,(0, 57),23	1105,(0, 62),23	1197,(0, 67),23	1289,(0, 72),23	1381,(0, 77),23	
35,(2, 81),1	58,(3, 81),1	81,(4, 81),1	104,(5, 81),1	127,(7, 81),1	150,(8, 81),1	173,(9, 81),1	196,(10, 81),1	219,(12, 81),1	242,(13, 81),1	265,(14, 81),1	288,(15, 81),1	311,(17, 81),1	334,(18, 81),1	357,(19, 81),1	380,(20, 81),1	403,(22, 81),1	426,(23, 81),1	449,(24, 81),1	472,(25, 81),1	495,(27, 81),1	518,(28, 81),1	541,(29, 81),1	564,(30, 81),1	587,(32, 81),1	610,(33, 81),1	633,(34, 81),1	656,(35, 81),1	679,(37, 81),1	702,(38, 81),1	725,(39, 81),1	748,(40, 81),1	771,(42, 81),1	794,(43, 81),1	817,(44, 81),1	840,(45, 81),1	863,(47, 81),1	886,(48, 81),1	909,(49, 81),1	932,(50, 81),1	955,(52, 81),1	978,(53, 81),1	1001,(54, 81),1	1024,(55, 81),1	1047,(57, 81),1	1070,(58, 81),1	1093,(59, 81),1	1116,(60, 81),1	1139,(62, 81),1	1162,(63, 81),1	1185,(64, 81),1	1208,(65, 81),1	1231,(67, 81),1	1254,(68, 81),1	1277,(69, 81),1	1300,(70, 81),1	1323,(72, 81),1	1346,(73, 81),1	1369,(74, 81),1	1392,(75, 81),1	1415,(77, 81),1	1438,(78, 81),1	1461,(79, 81),1	1484,(80, 81),1	
# Outgoing
104,(5, 81),1	196,(10, 81),1	288,(15, 81),1	380,(20, 81),1	472,(25, 81),1	564,(30, 81),1	656,(35, 81),1	748,(40, 81),1	840,(45, 81),1	932,(50, 81),1	1024,(55, 81),1	1116,(60, 81),1	1208,(65, 81),1	1300,(70, 81),1	1392,(75, 81),1	1484,(80, 81),1	
81,(4, 81),1	173,(9, 81),1	265,(14, 81),1	357,(19, 81),1	449,(24, 81),1	541,(29, 81),1	633,(34, 81),1	725,(39, 81),1	817,(44, 81),1	909,(49, 81),1	1001,(54, 81),1	1093,(59, 81),1	1185,(64, 81),1	1277,(69, 81),1	1369,(74, 81),1	1461,(79, 81),1	
58,(3, 81),1	150,(8, 81),1	242,(13, 81),1	334,(18, 81),1	426,(23, 81),1	518,(28, 81),1	610,(33, 81),1	702,(38, 81),1	794,(43, 81),1	886,(48, 81),1	978,(53, 81),1	1070,(58, 81),1	1162,(63, 81),1	1254,(68, 81),1	1346,(73, 81),1	1438,(78, 81),1	
35,(2, 81),1	127,(7, 81),1	219,(12, 81),1	311,(17, 81),1	403,(22, 81),1	495,(27, 81),1	587,(32, 81),1	679,(37, 81),1	771,(42, 81),1	863,(47, 81),1	955,(52, 81),1	1047,(57, 81),1	1139,(62, 81),1	1231,(67, 81),1	1323,(72, 81),1	1415,(77, 81),1	
1,(0, 2),23	24,(0, 3),23	47,(0, 4),23	70,(0, 5),23	93,(0, 7),23	116,(0, 8),23	139,(0, 9),23	162,(0, 10),23	185,(0, 12),23	208,(0, 13),23	231,(0, 14),23	254,(0, 15),23	277,(0, 17),23	300,(0, 18),23	323,(0, 19),23	346,(0, 20),23	369,(0, 22),23	392,(0, 23),23	415,(0, 24),23	438,(0, 25),23	461,(0, 27),23	484,(0, 28),23	507,(0, 29),23	530,(0, 30),23	553,(0, 32),23	576,(0, 33),23	599,(0, 34),23	622,(0, 35),23	645,(0, 37),23	668,(0, 38),23	691,(0, 39),23	714,(0, 40),23	737,(0, 42),23	760,(0, 43),23	783,(0, 44),23	806,(0, 45),23	829,(0, 47),23	852,(0, 48),23	875,(0, 49),23	898,(0, 50),23	921,(0, 52),23	944,(0, 53),23	967,(0, 54),23	990,(0, 55),23	1013,(0, 57),23	1036,(0, 58),23	1059,(0, 59),23	1082,(0, 60),23	1105,(0, 62),23	1128,(0, 63),23	1151,(0, 64),23	1174,(0, 65),23	1197,(0, 67),23	1220,(0, 68),23	1243,(0, 69),23	1266,(0, 70),23	1289,(0, 72),23	1312,(0, 73),23	1335,(0, 74),23	1358,(0, 75),23	1381,(0, 77),23	1404,(0, 78),23	1427,(0, 79),23	1450,(0, 80),23	
