3327
# CPU
415,10,11	829,20,11	1243,30,11	1657,40,11	2071,50,11	2485,60,11	2899,70,11	3313,80,11	
369,9,11	783,19,11	1197,29,11	1611,39,11	2025,49,11	2439,59,11	2853,69,11	3267,79,11	
323,8,11	737,18,11	1151,28,11	1565,38,11	1979,48,11	2393,58,11	2807,68,11	3221,78,11	
277,7,11	691,17,11	1105,27,11	1519,37,11	1933,47,11	2347,57,11	2761,67,11	3175,77,11	
231,6,11	645,16,11	1059,26,11	1473,36,11	1887,46,11	2301,56,11	2715,66,11	3129,76,11	
185,5,11	599,15,11	1013,25,11	1427,35,11	1841,45,11	2255,55,11	2669,65,11	3083,75,11	
139,4,11	553,14,11	967,24,11	1381,34,11	1795,44,11	2209,54,11	2623,64,11	3037,74,11	
93,3,11	507,13,11	921,23,11	1335,33,11	1749,43,11	2163,53,11	2577,63,11	2991,73,11	
47,2,11	461,12,11	875,22,11	1289,32,11	1703,42,11	2117,52,11	2531,62,11	2945,72,11	
0,0,1	1,1,11	12,21,11	23,61,11	34,51,11	45,71,11	56,41,11	67,11,11	78,31,11	3326,81,1	
# Incoming
369,(0, 10),46	783,(0, 20),46	1197,(0, 30),46	1611,(0, 40),46	2025,(0, 50),46	2439,(0, 60),46	2853,(0, 70),46	3267,(0, 80),46	
323,(0, 9),46	737,(0, 19),46	1151,(0, 29),46	1565,(0, 39),46	1979,(0, 49),46	2393,(0, 59),46	2807,(0, 69),46	3221,(0, 79),46	
277,(0, 8),46	691,(0, 18),46	1105,(0, 28),46	1519,(0, 38),46	1933,(0, 48),46	2347,(0, 58),46	2761,(0, 68),46	3175,(0, 78),46	
231,(0, 7),46	645,(0, 17),46	1059,(0, 27),46	1473,(0, 37),46	1887,(0, 47),46	2301,(0, 57),46	2715,(0, 67),46	3129,(0, 77),46	
185,(0, 6),46	599,(0, 16),46	1013,(0, 26),46	1427,(0, 36),46	1841,(0, 46),46	2255,(0, 56),46	2669,(0, 66),46	3083,(0, 76),46	
139,(0, 5),46	553,(0, 15),46	967,(0, 25),46	1381,(0, 35),46	1795,(0, 45),46	2209,(0, 55),46	2623,(0, 65),46	3037,(0, 75),46	
93,(0, 4),46	507,(0, 14),46	921,(0, 24),46	1335,(0, 34),46	1749,(0, 44),46	2163,(0, 54),46	2577,(0, 64),46	2991,(0, 74),46	
47,(0, 3),46	461,(0, 13),46	875,(0, 23),46	1289,(0, 33),46	1703,(0, 43),46	2117,(0, 53),46	2531,(0, 63),46	2945,(0, 73),46	
1,(0, 2),46	415,(0, 12),46	829,(0, 22),46	1243,(0, 32),46	1657,(0, 42),46	2071,(0, 52),46	2485,(0, 62),46	2899,(0, 72),46	
58,(2, 81),2	104,(3, 81),2	150,(4, 81),2	196,(5, 81),2	242,(6, 81),2	288,(7, 81),2	334,(8, 81),2	380,(9, 81),2	426,(10, 81),2	472,(12, 81),2	518,(13, 81),2	564,(14, 81),2	610,(15, 81),2	656,(16, 81),2	702,(17, 81),2	748,(18, 81),2	794,(19, 81),2	840,(20, 81),2	886,(22, 81),2	932,(23, 81),2	978,(24, 81),2	1024,(25, 81),2	1070,(26, 81),2	1116,(27, 81),2	1162,(28, 81),2	1208,(29, 81),2	1254,(30, 81),2	1300,(32, 81),2	1346,(33, 81),2	1392,(34, 81),2	1438,(35, 81),2	1484,(36, 81),2	1530,(37, 81),2	1576,(38, 81),2	1622,(39, 81),2	1668,(40, 81),2	1714,(42, 81),2	1760,(43, 81),2	1806,(44, 81),2	1852,(45, 81),2	1898,(46, 81),2	1944,(47, 81),2	1990,(48, 81),2	2036,(49, 81),2	2082,(50, 81),2	2128,(52, 81),2	2174,(53, 81),2	2220,(54, 81),2	2266,(55, 81),2	2312,(56, 81),2	2358,(57, 81),2	2404,(58, 81),2	2450,(59, 81),2	2496,(60, 81),2	2542,(62, 81),2	2588,(63, 81),2	2634,(64, 81),2	2680,(65, 81),2	2726,(66, 81),2	2772,(67, 81),2	2818,(68, 81),2	2864,(69, 81),2	2910,(70, 81),2	2956,(72, 81),2	3002,(73, 81),2	3048,(74, 81),2	3094,(75, 81),2	3140,(76, 81),2	3186,(77, 81),2	3232,(78, 81),2	3278,(79, 81),2	3324,(80, 81),2	
# Outgoing
426,(10, 81),2	840,(20, 81),2	1254,(30, 81),2	1668,(40, 81),2	2082,(50, 81),2	2496,(60, 81),2	2910,(70, 81),2	3324,(80, 81),2	
380,(9, 81),2	794,(19, 81),2	1208,(29, 81),2	1622,(39, 81),2	2036,(49, 81),2	2450,(59, 81),2	2864,(69, 81),2	3278,(79, 81),2	
334,(8, 81),2	748,(18, 81),2	1162,(28, 81),2	1576,(38, 81),2	1990,(48, 81),2	2404,(58, 81),2	2818,(68, 81),2	3232,(78, 81),2	
288,(7, 81),2	702,(17, 81),2	1116,(27, 81),2	1530,(37, 81),2	1944,(47, 81),2	2358,(57, 81),2	2772,(67, 81),2	3186,(77, 81),2	
242,(6, 81),2	656,(16, 81),2	1070,(26, 81),2	1484,(36, 81),2	1898,(46, 81),2	2312,(56, 81),2	2726,(66, 81),2	3140,(76, 81),2	
196,(5, 81),2	610,(15, 81),2	1024,(25, 81),2	1438,(35, 81),2	1852,(45, 81),2	2266,(55, 81),2	2680,(65, 81),2	3094,(75, 81),2	
150,(4, 81),2	564,(14, 81),2	978,(24, 81),2	1392,(34, 81),2	1806,(44, 81),2	2220,(54, 81),2	2634,(64, 81),2	3048,(74, 81),2	
104,(3, 81),2	518,(13, 81),2	932,(23, 81),2	1346,(33, 81),2	1760,(43, 81),2	2174,(53, 81),2	2588,(63, 81),2	3002,(73, 81),2	
58,(2, 81),2	472,(12, 81),2	886,(22, 81),2	1300,(32, 81),2	1714,(42, 81),2	2128,(52, 81),2	2542,(62, 81),2	2956,(72, 81),2	
1,(0, 2),46	47,(0, 3),46	93,(0, 4),46	139,(0, 5),46	185,(0, 6),46	231,(0, 7),46	277,(0, 8),46	323,(0, 9),46	369,(0, 10),46	415,(0, 12),46	461,(0, 13),46	507,(0, 14),46	553,(0, 15),46	599,(0, 16),46	645,(0, 17),46	691,(0, 18),46	737,(0, 19),46	783,(0, 20),46	829,(0, 22),46	875,(0, 23),46	921,(0, 24),46	967,(0, 25),46	1013,(0, 26),46	1059,(0, 27),46	1105,(0, 28),46	1151,(0, 29),46	1197,(0, 30),46	1243,(0, 32),46	1289,(0, 33),46	1335,(0, 34),46	1381,(0, 35),46	1427,(0, 36),46	1473,(0, 37),46	1519,(0, 38),46	1565,(0, 39),46	1611,(0, 40),46	1657,(0, 42),46	1703,(0, 43),46	1749,(0, 44),46	1795,(0, 45),46	1841,(0, 46),46	1887,(0, 47),46	1933,(0, 48),46	1979,(0, 49),46	2025,(0, 50),46	2071,(0, 52),46	2117,(0, 53),46	2163,(0, 54),46	2209,(0, 55),46	2255,(0, 56),46	2301,(0, 57),46	2347,(0, 58),46	2393,(0, 59),46	2439,(0, 60),46	2485,(0, 62),46	2531,(0, 63),46	2577,(0, 64),46	2623,(0, 65),46	2669,(0, 66),46	2715,(0, 67),46	2761,(0, 68),46	2807,(0, 69),46	2853,(0, 70),46	2899,(0, 72),46	2945,(0, 73),46	2991,(0, 74),46	3037,(0, 75),46	3083,(0, 76),46	3129,(0, 77),46	3175,(0, 78),46	3221,(0, 79),46	3267,(0, 80),46	
