2192
# CPU
0,81,1	1,51,30	31,50,30	61,52,30	91,49,30	121,48,30	151,47,30	181,53,30	211,46,30	241,54,30	271,45,30	301,44,30	331,43,30	361,42,30	391,55,30	421,41,30	451,65,30	481,64,30	511,66,30	541,63,30	571,62,30	601,67,30	631,61,30	661,60,30	691,59,30	721,68,30	751,57,30	781,40,30	811,39,30	841,69,30	871,38,30	901,37,30	931,70,30	961,36,30	991,35,30	1021,34,30	1051,71,30	1081,32,30	1111,31,30	1141,72,30	1171,30,30	1201,29,30	1231,28,30	1261,73,30	1291,27,30	1321,17,30	1351,16,30	1381,18,30	1411,6,30	1441,11,30	1471,19,30	1501,15,30	1531,20,30	1561,14,30	1591,21,30	1621,13,30	1651,22,30	1681,12,30	1711,10,30	1741,1,30	1771,2,30	1801,3,30	1831,4,30	1861,5,30	1891,7,30	1921,8,30	1951,9,30	1981,23,30	2011,25,30	2041,74,30	2071,76,30	2101,77,30	2131,79,30	2161,80,30	2191,0,1	
1975,78,30	
283,58,30	847,33,30	
1411,24,30	
565,56,30	
1693,75,30	
1129,26,30	



# Incoming
313,(58, 0),6	595,(56, 0),6	877,(33, 0),6	1159,(26, 0),6	1441,(24, 0),6	1723,(75, 0),6	2005,(78, 0),6	
1693,(81, 78),282	
1,(81, 58),282	565,(81, 33),282	
1129,(81, 24),282	
283,(81, 56),282	
1411,(81, 75),282	
847,(81, 26),282	



# Outgoing
1,(81, 58),282	283,(81, 56),282	565,(81, 33),282	847,(81, 26),282	1129,(81, 24),282	1411,(81, 75),282	1693,(81, 78),282	
2005,(78, 0),6	
313,(58, 0),6	877,(33, 0),6	
1441,(24, 0),6	
595,(56, 0),6	
1723,(75, 0),6	
1159,(26, 0),6	



