607
# CPU
0,0,1	1,51,11	12,50,11	23,52,11	34,48,11	45,47,11	56,46,11	67,54,11	78,55,11	89,44,11	100,42,11	111,56,11	122,65,11	133,64,11	144,63,11	155,62,11	166,67,11	177,60,11	188,58,11	199,68,11	210,40,11	221,39,11	232,38,11	243,37,11	254,1,11	265,24,11	276,36,11	287,71,11	298,34,11	309,32,11	320,72,11	331,30,11	342,29,11	353,28,11	364,18,11	375,19,11	386,16,11	397,15,11	408,21,11	419,22,11	430,13,11	441,12,11	452,25,11	463,26,11	474,10,11	485,3,11	496,4,11	507,77,11	518,7,11	529,6,11	540,9,11	551,27,11	562,75,11	573,76,11	584,79,11	595,80,11	606,81,1	
24,49,11	47,53,11	70,45,11	93,43,11	116,41,11	139,66,11	162,61,11	185,59,11	208,57,11	231,69,11	254,70,11	277,35,11	300,33,11	323,31,11	346,73,11	369,17,11	392,20,11	415,14,11	438,23,11	461,11,11	484,2,11	507,5,11	530,8,11	553,74,11	576,78,11	
# Incoming
35,(49, 81),1	58,(53, 81),1	81,(45, 81),1	104,(43, 81),1	127,(41, 81),1	150,(66, 81),1	173,(61, 81),1	196,(59, 81),1	219,(57, 81),1	242,(69, 81),1	265,(70, 81),1	288,(35, 81),1	311,(33, 81),1	334,(31, 81),1	357,(73, 81),1	380,(17, 81),1	403,(20, 81),1	426,(14, 81),1	449,(23, 81),1	472,(11, 81),1	495,(2, 81),1	518,(5, 81),1	541,(8, 81),1	564,(74, 81),1	587,(78, 81),1	
1,(0, 49),23	24,(0, 53),23	47,(0, 45),23	70,(0, 43),23	93,(0, 41),23	116,(0, 66),23	139,(0, 61),23	162,(0, 59),23	185,(0, 57),23	208,(0, 69),23	231,(0, 70),23	254,(0, 35),23	277,(0, 33),23	300,(0, 31),23	323,(0, 73),23	346,(0, 17),23	369,(0, 20),23	392,(0, 14),23	415,(0, 23),23	438,(0, 11),23	461,(0, 2),23	484,(0, 5),23	507,(0, 8),23	530,(0, 74),23	553,(0, 78),23	
# Outgoing
1,(0, 49),23	24,(0, 53),23	47,(0, 45),23	70,(0, 43),23	93,(0, 41),23	116,(0, 66),23	139,(0, 61),23	162,(0, 59),23	185,(0, 57),23	208,(0, 69),23	231,(0, 70),23	254,(0, 35),23	277,(0, 33),23	300,(0, 31),23	323,(0, 73),23	346,(0, 17),23	369,(0, 20),23	392,(0, 14),23	415,(0, 23),23	438,(0, 11),23	461,(0, 2),23	484,(0, 5),23	507,(0, 8),23	530,(0, 74),23	553,(0, 78),23	
35,(49, 81),1	58,(53, 81),1	81,(45, 81),1	104,(43, 81),1	127,(41, 81),1	150,(66, 81),1	173,(61, 81),1	196,(59, 81),1	219,(57, 81),1	242,(69, 81),1	265,(70, 81),1	288,(35, 81),1	311,(33, 81),1	334,(31, 81),1	357,(73, 81),1	380,(17, 81),1	403,(20, 81),1	426,(14, 81),1	449,(23, 81),1	472,(11, 81),1	495,(2, 81),1	518,(5, 81),1	541,(8, 81),1	564,(74, 81),1	587,(78, 81),1	
