905
# CPU
23,2,13	45,4,13	67,6,13	89,8,13	111,10,13	133,12,13	155,14,13	177,16,13	199,18,13	221,20,13	243,22,13	265,24,13	287,26,13	309,28,13	331,30,13	353,32,13	375,34,13	397,36,13	419,38,13	441,40,13	463,42,13	485,44,13	507,46,13	529,48,13	551,50,13	573,52,13	595,54,13	617,56,13	639,58,13	661,60,13	683,62,13	705,64,13	727,66,13	749,68,13	771,70,13	793,72,13	815,74,13	837,76,13	859,78,13	881,80,13	
0,0,1	1,1,13	14,5,13	27,13,13	40,29,13	53,61,13	66,79,13	79,77,13	92,75,13	105,73,13	118,71,13	131,69,13	144,67,13	157,65,13	170,59,13	183,63,13	196,57,13	209,55,13	222,53,13	235,51,13	248,49,13	261,47,13	274,45,13	287,43,13	300,41,13	313,39,13	326,37,13	339,35,13	352,33,13	365,27,13	378,31,13	391,25,13	404,23,13	417,21,13	430,19,13	443,17,13	456,11,13	469,15,13	482,9,13	495,3,13	508,7,13	904,81,1	
# Incoming
1,(0, 2),22	23,(0, 4),22	45,(0, 6),22	67,(0, 8),22	89,(0, 10),22	111,(0, 12),22	133,(0, 14),22	155,(0, 16),22	177,(0, 18),22	199,(0, 20),22	221,(0, 22),22	243,(0, 24),22	265,(0, 26),22	287,(0, 28),22	309,(0, 30),22	331,(0, 32),22	353,(0, 34),22	375,(0, 36),22	397,(0, 38),22	419,(0, 40),22	441,(0, 42),22	463,(0, 44),22	485,(0, 46),22	507,(0, 48),22	529,(0, 50),22	551,(0, 52),22	573,(0, 54),22	595,(0, 56),22	617,(0, 58),22	639,(0, 60),22	661,(0, 62),22	683,(0, 64),22	705,(0, 66),22	727,(0, 68),22	749,(0, 70),22	771,(0, 72),22	793,(0, 74),22	815,(0, 76),22	837,(0, 78),22	859,(0, 80),22	
36,(2, 81),10	58,(4, 81),10	80,(6, 81),10	102,(8, 81),10	124,(10, 81),10	146,(12, 81),10	168,(14, 81),10	190,(16, 81),10	212,(18, 81),10	234,(20, 81),10	256,(22, 81),10	278,(24, 81),10	300,(26, 81),10	322,(28, 81),10	344,(30, 81),10	366,(32, 81),10	388,(34, 81),10	410,(36, 81),10	432,(38, 81),10	454,(40, 81),10	476,(42, 81),10	498,(44, 81),10	520,(46, 81),10	542,(48, 81),10	564,(50, 81),10	586,(52, 81),10	608,(54, 81),10	630,(56, 81),10	652,(58, 81),10	674,(60, 81),10	696,(62, 81),10	718,(64, 81),10	740,(66, 81),10	762,(68, 81),10	784,(70, 81),10	806,(72, 81),10	828,(74, 81),10	850,(76, 81),10	872,(78, 81),10	894,(80, 81),10	
# Outgoing
36,(2, 81),10	58,(4, 81),10	80,(6, 81),10	102,(8, 81),10	124,(10, 81),10	146,(12, 81),10	168,(14, 81),10	190,(16, 81),10	212,(18, 81),10	234,(20, 81),10	256,(22, 81),10	278,(24, 81),10	300,(26, 81),10	322,(28, 81),10	344,(30, 81),10	366,(32, 81),10	388,(34, 81),10	410,(36, 81),10	432,(38, 81),10	454,(40, 81),10	476,(42, 81),10	498,(44, 81),10	520,(46, 81),10	542,(48, 81),10	564,(50, 81),10	586,(52, 81),10	608,(54, 81),10	630,(56, 81),10	652,(58, 81),10	674,(60, 81),10	696,(62, 81),10	718,(64, 81),10	740,(66, 81),10	762,(68, 81),10	784,(70, 81),10	806,(72, 81),10	828,(74, 81),10	850,(76, 81),10	872,(78, 81),10	894,(80, 81),10	
1,(0, 2),22	23,(0, 4),22	45,(0, 6),22	67,(0, 8),22	89,(0, 10),22	111,(0, 12),22	133,(0, 14),22	155,(0, 16),22	177,(0, 18),22	199,(0, 20),22	221,(0, 22),22	243,(0, 24),22	265,(0, 26),22	287,(0, 28),22	309,(0, 30),22	331,(0, 32),22	353,(0, 34),22	375,(0, 36),22	397,(0, 38),22	419,(0, 40),22	441,(0, 42),22	463,(0, 44),22	485,(0, 46),22	507,(0, 48),22	529,(0, 50),22	551,(0, 52),22	573,(0, 54),22	595,(0, 56),22	617,(0, 58),22	639,(0, 60),22	661,(0, 62),22	683,(0, 64),22	705,(0, 66),22	727,(0, 68),22	749,(0, 70),22	771,(0, 72),22	793,(0, 74),22	815,(0, 76),22	837,(0, 78),22	859,(0, 80),22	
