156
# CPU
0,0,1	1,51,2	3,50,2	5,52,2	7,49,2	9,48,2	11,47,2	13,53,2	15,46,2	17,54,2	19,45,2	21,55,2	23,44,2	25,43,2	27,42,2	29,56,2	31,41,2	33,65,2	35,64,2	37,66,2	39,71,2	41,24,2	43,63,2	45,62,2	47,61,2	49,60,2	51,67,2	53,59,2	55,58,2	57,57,2	59,68,2	61,40,2	63,39,2	65,37,2	67,69,2	69,36,2	71,35,2	73,34,2	75,70,2	77,20,2	79,1,2	81,72,2	83,33,2	85,32,2	87,31,2	89,73,2	91,30,2	93,18,2	95,17,2	97,19,2	99,16,2	101,21,2	103,15,2	105,22,2	107,14,2	109,23,2	111,13,2	113,25,2	115,78,2	117,7,2	119,12,2	121,11,2	123,2,2	125,3,2	127,4,2	129,5,2	131,6,2	133,8,2	135,9,2	137,10,2	139,26,2	141,27,2	143,29,2	145,74,2	147,76,2	149,77,2	151,79,2	153,80,2	155,81,1	
77,28,2	115,75,2	
39,38,2	
# Incoming
41,(38, 81),1	79,(28, 81),1	117,(75, 81),1	
39,(0, 28),38	77,(0, 75),38	
1,(0, 38),38	
# Outgoing
1,(0, 38),38	39,(0, 28),38	77,(0, 75),38	
79,(28, 81),1	117,(75, 81),1	
41,(38, 81),1	
