184
# CPU
4,4,1	7,8,1	10,12,1	13,16,1	16,20,1	19,24,1	22,28,1	25,32,1	28,36,1	31,40,1	34,44,1	37,48,1	40,52,1	43,56,1	46,60,1	49,64,1	52,68,1	55,72,1	58,76,1	61,80,1	
3,3,1	6,7,1	9,11,1	12,15,1	15,19,1	18,23,1	21,27,1	24,31,1	27,35,1	30,39,1	33,43,1	36,47,1	39,51,1	42,55,1	45,59,1	48,63,1	51,67,1	54,71,1	57,75,1	60,79,1	
2,2,1	5,6,1	8,10,1	11,14,1	14,18,1	17,22,1	20,26,1	23,30,1	26,34,1	29,38,1	32,42,1	35,46,1	38,50,1	41,54,1	44,58,1	47,62,1	50,66,1	53,70,1	56,74,1	59,78,1	
0,0,1	1,1,1	2,9,1	3,25,1	4,57,1	5,77,1	6,73,1	7,69,1	8,65,1	9,53,1	10,61,1	11,49,1	12,45,1	13,41,1	14,37,1	15,33,1	16,21,1	17,29,1	18,17,1	19,5,1	20,13,1	183,81,1	
# Incoming
3,(0, 4),1	6,(0, 8),1	9,(0, 12),1	12,(0, 16),1	15,(0, 20),1	18,(0, 24),1	21,(0, 28),1	24,(0, 32),1	27,(0, 36),1	30,(0, 40),1	33,(0, 44),1	36,(0, 48),1	39,(0, 52),1	42,(0, 56),1	45,(0, 60),1	48,(0, 64),1	51,(0, 68),1	54,(0, 72),1	57,(0, 76),1	60,(0, 80),1	
2,(0, 3),1	5,(0, 7),1	8,(0, 11),1	11,(0, 15),1	14,(0, 19),1	17,(0, 23),1	20,(0, 27),1	23,(0, 31),1	26,(0, 35),1	29,(0, 39),1	32,(0, 43),1	35,(0, 47),1	38,(0, 51),1	41,(0, 55),1	44,(0, 59),1	47,(0, 63),1	50,(0, 67),1	53,(0, 71),1	56,(0, 75),1	59,(0, 79),1	
1,(0, 2),1	4,(0, 6),1	7,(0, 10),1	10,(0, 14),1	13,(0, 18),1	16,(0, 22),1	19,(0, 26),1	22,(0, 30),1	25,(0, 34),1	28,(0, 38),1	31,(0, 42),1	34,(0, 46),1	37,(0, 50),1	40,(0, 54),1	43,(0, 58),1	46,(0, 62),1	49,(0, 66),1	52,(0, 70),1	55,(0, 74),1	58,(0, 78),1	
3,(2, 81),3	6,(3, 81),3	9,(4, 81),3	12,(6, 81),3	15,(7, 81),3	18,(8, 81),3	21,(10, 81),3	24,(11, 81),3	27,(12, 81),3	30,(14, 81),3	33,(15, 81),3	36,(16, 81),3	39,(18, 81),3	42,(19, 81),3	45,(20, 81),3	48,(22, 81),3	51,(23, 81),3	54,(24, 81),3	57,(26, 81),3	60,(27, 81),3	63,(28, 81),3	66,(30, 81),3	69,(31, 81),3	72,(32, 81),3	75,(34, 81),3	78,(35, 81),3	81,(36, 81),3	84,(38, 81),3	87,(39, 81),3	90,(40, 81),3	93,(42, 81),3	96,(43, 81),3	99,(44, 81),3	102,(46, 81),3	105,(47, 81),3	108,(48, 81),3	111,(50, 81),3	114,(51, 81),3	117,(52, 81),3	120,(54, 81),3	123,(55, 81),3	126,(56, 81),3	129,(58, 81),3	132,(59, 81),3	135,(60, 81),3	138,(62, 81),3	141,(63, 81),3	144,(64, 81),3	147,(66, 81),3	150,(67, 81),3	153,(68, 81),3	156,(70, 81),3	159,(71, 81),3	162,(72, 81),3	165,(74, 81),3	168,(75, 81),3	171,(76, 81),3	174,(78, 81),3	177,(79, 81),3	180,(80, 81),3	
# Outgoing
9,(4, 81),3	18,(8, 81),3	27,(12, 81),3	36,(16, 81),3	45,(20, 81),3	54,(24, 81),3	63,(28, 81),3	72,(32, 81),3	81,(36, 81),3	90,(40, 81),3	99,(44, 81),3	108,(48, 81),3	117,(52, 81),3	126,(56, 81),3	135,(60, 81),3	144,(64, 81),3	153,(68, 81),3	162,(72, 81),3	171,(76, 81),3	180,(80, 81),3	
6,(3, 81),3	15,(7, 81),3	24,(11, 81),3	33,(15, 81),3	42,(19, 81),3	51,(23, 81),3	60,(27, 81),3	69,(31, 81),3	78,(35, 81),3	87,(39, 81),3	96,(43, 81),3	105,(47, 81),3	114,(51, 81),3	123,(55, 81),3	132,(59, 81),3	141,(63, 81),3	150,(67, 81),3	159,(71, 81),3	168,(75, 81),3	177,(79, 81),3	
3,(2, 81),3	12,(6, 81),3	21,(10, 81),3	30,(14, 81),3	39,(18, 81),3	48,(22, 81),3	57,(26, 81),3	66,(30, 81),3	75,(34, 81),3	84,(38, 81),3	93,(42, 81),3	102,(46, 81),3	111,(50, 81),3	120,(54, 81),3	129,(58, 81),3	138,(62, 81),3	147,(66, 81),3	156,(70, 81),3	165,(74, 81),3	174,(78, 81),3	
1,(0, 2),1	2,(0, 3),1	3,(0, 4),1	4,(0, 6),1	5,(0, 7),1	6,(0, 8),1	7,(0, 10),1	8,(0, 11),1	9,(0, 12),1	10,(0, 14),1	11,(0, 15),1	12,(0, 16),1	13,(0, 18),1	14,(0, 19),1	15,(0, 20),1	16,(0, 22),1	17,(0, 23),1	18,(0, 24),1	19,(0, 26),1	20,(0, 27),1	21,(0, 28),1	22,(0, 30),1	23,(0, 31),1	24,(0, 32),1	25,(0, 34),1	26,(0, 35),1	27,(0, 36),1	28,(0, 38),1	29,(0, 39),1	30,(0, 40),1	31,(0, 42),1	32,(0, 43),1	33,(0, 44),1	34,(0, 46),1	35,(0, 47),1	36,(0, 48),1	37,(0, 50),1	38,(0, 51),1	39,(0, 52),1	40,(0, 54),1	41,(0, 55),1	42,(0, 56),1	43,(0, 58),1	44,(0, 59),1	45,(0, 60),1	46,(0, 62),1	47,(0, 63),1	48,(0, 64),1	49,(0, 66),1	50,(0, 67),1	51,(0, 68),1	52,(0, 70),1	53,(0, 71),1	54,(0, 72),1	55,(0, 74),1	56,(0, 75),1	57,(0, 76),1	58,(0, 78),1	59,(0, 79),1	60,(0, 80),1	
