914
# CPU
0,81,1	1,51,12	13,50,12	25,52,12	37,49,12	49,48,12	61,47,12	73,53,12	85,46,12	97,54,12	109,45,12	121,55,12	133,44,12	145,43,12	157,42,12	169,56,12	181,41,12	193,65,12	205,64,12	217,74,12	229,24,12	241,63,12	253,66,12	265,62,12	277,61,12	289,60,12	301,67,12	313,59,12	325,57,12	337,40,12	349,68,12	361,39,12	373,38,12	385,37,12	397,69,12	409,36,12	421,35,12	433,71,12	445,21,12	457,34,12	469,33,12	481,70,12	493,32,12	505,31,12	517,30,12	529,72,12	541,28,12	553,17,12	565,16,12	577,18,12	589,15,12	601,19,12	613,14,12	625,20,12	637,13,12	649,10,12	661,8,12	673,22,12	685,23,12	697,12,12	709,25,12	721,11,12	733,1,12	745,2,12	757,3,12	769,4,12	781,5,12	793,6,12	805,7,12	817,9,12	829,26,12	841,73,12	853,75,12	865,76,12	877,77,12	889,78,12	901,79,12	913,0,1	
217,58,12	865,80,12	




433,29,12	

649,27,12	

# Incoming
229,(58, 0),3	445,(29, 0),3	661,(27, 0),3	877,(80, 0),3	
1,(81, 58),216	649,(81, 80),216	




217,(81, 29),216	

433,(81, 27),216	

# Outgoing
1,(81, 58),216	217,(81, 29),216	433,(81, 27),216	649,(81, 80),216	
229,(58, 0),3	877,(80, 0),3	




445,(29, 0),3	

661,(27, 0),3	

