3208
# CPU
181,10,18	361,20,18	541,30,18	721,40,18	901,50,18	1081,60,18	1261,70,18	1441,80,18	
161,9,18	341,19,18	521,29,18	701,39,18	881,49,18	1061,59,18	1241,69,18	1421,79,18	
141,8,18	321,18,18	501,28,18	681,38,18	861,48,18	1041,58,18	1221,68,18	1401,78,18	
121,7,18	301,17,18	481,27,18	661,37,18	841,47,18	1021,57,18	1201,67,18	1381,77,18	
101,6,18	281,16,18	461,26,18	641,36,18	821,46,18	1001,56,18	1181,66,18	1361,76,18	
81,5,18	261,15,18	441,25,18	621,35,18	801,45,18	981,55,18	1161,65,18	1341,75,18	
61,4,18	241,14,18	421,24,18	601,34,18	781,44,18	961,54,18	1141,64,18	1321,74,18	
41,3,18	221,13,18	401,23,18	581,33,18	761,43,18	941,53,18	1121,63,18	1301,73,18	
21,2,18	201,12,18	381,22,18	561,32,18	741,42,18	921,52,18	1101,62,18	1281,72,18	
0,0,1	1,1,18	19,21,18	37,61,18	55,51,18	73,71,18	91,41,18	109,11,18	127,31,18	3207,81,1	
# Incoming
161,(0, 10),20	341,(0, 20),20	521,(0, 30),20	701,(0, 40),20	881,(0, 50),20	1061,(0, 60),20	1241,(0, 70),20	1421,(0, 80),20	
141,(0, 9),20	321,(0, 19),20	501,(0, 29),20	681,(0, 39),20	861,(0, 49),20	1041,(0, 59),20	1221,(0, 69),20	1401,(0, 79),20	
121,(0, 8),20	301,(0, 18),20	481,(0, 28),20	661,(0, 38),20	841,(0, 48),20	1021,(0, 58),20	1201,(0, 68),20	1381,(0, 78),20	
101,(0, 7),20	281,(0, 17),20	461,(0, 27),20	641,(0, 37),20	821,(0, 47),20	1001,(0, 57),20	1181,(0, 67),20	1361,(0, 77),20	
81,(0, 6),20	261,(0, 16),20	441,(0, 26),20	621,(0, 36),20	801,(0, 46),20	981,(0, 56),20	1161,(0, 66),20	1341,(0, 76),20	
61,(0, 5),20	241,(0, 15),20	421,(0, 25),20	601,(0, 35),20	781,(0, 45),20	961,(0, 55),20	1141,(0, 65),20	1321,(0, 75),20	
41,(0, 4),20	221,(0, 14),20	401,(0, 24),20	581,(0, 34),20	761,(0, 44),20	941,(0, 54),20	1121,(0, 64),20	1301,(0, 74),20	
21,(0, 3),20	201,(0, 13),20	381,(0, 23),20	561,(0, 33),20	741,(0, 43),20	921,(0, 53),20	1101,(0, 63),20	1281,(0, 73),20	
1,(0, 2),20	181,(0, 12),20	361,(0, 22),20	541,(0, 32),20	721,(0, 42),20	901,(0, 52),20	1081,(0, 62),20	1261,(0, 72),20	
39,(2, 81),44	83,(3, 81),44	127,(4, 81),44	171,(5, 81),44	215,(6, 81),44	259,(7, 81),44	303,(8, 81),44	347,(9, 81),44	391,(10, 81),44	435,(12, 81),44	479,(13, 81),44	523,(14, 81),44	567,(15, 81),44	611,(16, 81),44	655,(17, 81),44	699,(18, 81),44	743,(19, 81),44	787,(20, 81),44	831,(22, 81),44	875,(23, 81),44	919,(24, 81),44	963,(25, 81),44	1007,(26, 81),44	1051,(27, 81),44	1095,(28, 81),44	1139,(29, 81),44	1183,(30, 81),44	1227,(32, 81),44	1271,(33, 81),44	1315,(34, 81),44	1359,(35, 81),44	1403,(36, 81),44	1447,(37, 81),44	1491,(38, 81),44	1535,(39, 81),44	1579,(40, 81),44	1623,(42, 81),44	1667,(43, 81),44	1711,(44, 81),44	1755,(45, 81),44	1799,(46, 81),44	1843,(47, 81),44	1887,(48, 81),44	1931,(49, 81),44	1975,(50, 81),44	2019,(52, 81),44	2063,(53, 81),44	2107,(54, 81),44	2151,(55, 81),44	2195,(56, 81),44	2239,(57, 81),44	2283,(58, 81),44	2327,(59, 81),44	2371,(60, 81),44	2415,(62, 81),44	2459,(63, 81),44	2503,(64, 81),44	2547,(65, 81),44	2591,(66, 81),44	2635,(67, 81),44	2679,(68, 81),44	2723,(69, 81),44	2767,(70, 81),44	2811,(72, 81),44	2855,(73, 81),44	2899,(74, 81),44	2943,(75, 81),44	2987,(76, 81),44	3031,(77, 81),44	3075,(78, 81),44	3119,(79, 81),44	3163,(80, 81),44	
# Outgoing
391,(10, 81),44	787,(20, 81),44	1183,(30, 81),44	1579,(40, 81),44	1975,(50, 81),44	2371,(60, 81),44	2767,(70, 81),44	3163,(80, 81),44	
347,(9, 81),44	743,(19, 81),44	1139,(29, 81),44	1535,(39, 81),44	1931,(49, 81),44	2327,(59, 81),44	2723,(69, 81),44	3119,(79, 81),44	
303,(8, 81),44	699,(18, 81),44	1095,(28, 81),44	1491,(38, 81),44	1887,(48, 81),44	2283,(58, 81),44	2679,(68, 81),44	3075,(78, 81),44	
259,(7, 81),44	655,(17, 81),44	1051,(27, 81),44	1447,(37, 81),44	1843,(47, 81),44	2239,(57, 81),44	2635,(67, 81),44	3031,(77, 81),44	
215,(6, 81),44	611,(16, 81),44	1007,(26, 81),44	1403,(36, 81),44	1799,(46, 81),44	2195,(56, 81),44	2591,(66, 81),44	2987,(76, 81),44	
171,(5, 81),44	567,(15, 81),44	963,(25, 81),44	1359,(35, 81),44	1755,(45, 81),44	2151,(55, 81),44	2547,(65, 81),44	2943,(75, 81),44	
127,(4, 81),44	523,(14, 81),44	919,(24, 81),44	1315,(34, 81),44	1711,(44, 81),44	2107,(54, 81),44	2503,(64, 81),44	2899,(74, 81),44	
83,(3, 81),44	479,(13, 81),44	875,(23, 81),44	1271,(33, 81),44	1667,(43, 81),44	2063,(53, 81),44	2459,(63, 81),44	2855,(73, 81),44	
39,(2, 81),44	435,(12, 81),44	831,(22, 81),44	1227,(32, 81),44	1623,(42, 81),44	2019,(52, 81),44	2415,(62, 81),44	2811,(72, 81),44	
1,(0, 2),20	21,(0, 3),20	41,(0, 4),20	61,(0, 5),20	81,(0, 6),20	101,(0, 7),20	121,(0, 8),20	141,(0, 9),20	161,(0, 10),20	181,(0, 12),20	201,(0, 13),20	221,(0, 14),20	241,(0, 15),20	261,(0, 16),20	281,(0, 17),20	301,(0, 18),20	321,(0, 19),20	341,(0, 20),20	361,(0, 22),20	381,(0, 23),20	401,(0, 24),20	421,(0, 25),20	441,(0, 26),20	461,(0, 27),20	481,(0, 28),20	501,(0, 29),20	521,(0, 30),20	541,(0, 32),20	561,(0, 33),20	581,(0, 34),20	601,(0, 35),20	621,(0, 36),20	641,(0, 37),20	661,(0, 38),20	681,(0, 39),20	701,(0, 40),20	721,(0, 42),20	741,(0, 43),20	761,(0, 44),20	781,(0, 45),20	801,(0, 46),20	821,(0, 47),20	841,(0, 48),20	861,(0, 49),20	881,(0, 50),20	901,(0, 52),20	921,(0, 53),20	941,(0, 54),20	961,(0, 55),20	981,(0, 56),20	1001,(0, 57),20	1021,(0, 58),20	1041,(0, 59),20	1061,(0, 60),20	1081,(0, 62),20	1101,(0, 63),20	1121,(0, 64),20	1141,(0, 65),20	1161,(0, 66),20	1181,(0, 67),20	1201,(0, 68),20	1221,(0, 69),20	1241,(0, 70),20	1261,(0, 72),20	1281,(0, 73),20	1301,(0, 74),20	1321,(0, 75),20	1341,(0, 76),20	1361,(0, 77),20	1381,(0, 78),20	1401,(0, 79),20	1421,(0, 80),20	
