79
# CPU
0,0,1	1,51,1	2,50,1	3,52,1	4,49,1	5,48,1	6,47,1	7,53,1	8,46,1	9,54,1	10,45,1	11,55,1	12,44,1	13,43,1	14,42,1	15,56,1	16,41,1	17,65,1	18,64,1	19,66,1	20,63,1	21,24,1	22,23,1	23,67,1	24,61,1	25,60,1	26,68,1	27,59,1	28,58,1	29,57,1	30,69,1	31,40,1	32,39,1	33,38,1	34,70,1	35,37,1	36,36,1	37,35,1	38,71,1	39,34,1	40,33,1	41,1,1	42,73,1	43,31,1	44,30,1	45,32,1	46,29,1	47,18,1	48,17,1	49,19,1	50,16,1	51,20,1	52,15,1	53,21,1	54,14,1	55,22,1	56,13,1	57,25,1	58,12,1	59,26,1	60,11,1	61,8,1	62,7,1	63,2,1	64,3,1	65,4,1	66,5,1	67,6,1	68,9,1	69,10,1	70,28,1	71,74,1	72,75,1	73,76,1	74,77,1	75,78,1	76,79,1	77,80,1	78,81,1	
21,62,1	41,72,1	61,27,1	
# Incoming
22,(62, 81),8	42,(72, 81),8	62,(27, 81),8	
1,(0, 62),20	21,(0, 72),20	41,(0, 27),20	
# Outgoing
1,(0, 62),20	21,(0, 72),20	41,(0, 27),20	
22,(62, 81),8	42,(72, 81),8	62,(27, 81),8	
