6050
# CPU
9,5,30	39,10,30	69,15,30	99,20,30	129,25,30	159,30,30	189,35,30	219,40,30	249,45,30	279,50,30	309,55,30	339,60,30	369,65,30	399,70,30	429,75,30	459,80,30	
7,4,30	37,9,30	67,14,30	97,19,30	127,24,30	157,29,30	187,34,30	217,39,30	247,44,30	277,49,30	307,54,30	337,59,30	367,64,30	397,69,30	427,74,30	457,79,30	
5,3,30	35,8,30	65,13,30	95,18,30	125,23,30	155,28,30	185,33,30	215,38,30	245,43,30	275,48,30	305,53,30	335,58,30	365,63,30	395,68,30	425,73,30	455,78,30	
3,2,30	33,7,30	63,12,30	93,17,30	123,22,30	153,27,30	183,32,30	213,37,30	243,42,30	273,47,30	303,52,30	333,57,30	363,62,30	393,67,30	423,72,30	453,77,30	
0,0,1	1,1,30	31,11,30	61,31,30	91,71,30	121,66,30	151,76,30	181,61,30	211,56,30	241,51,30	271,46,30	301,41,30	331,26,30	361,36,30	391,21,30	421,6,30	451,16,30	6049,81,1	
# Incoming
7,(0, 5),2	15,(0, 10),2	23,(0, 15),2	31,(0, 20),2	39,(0, 25),2	47,(0, 30),2	55,(0, 35),2	63,(0, 40),2	71,(0, 45),2	79,(0, 50),2	87,(0, 55),2	95,(0, 60),2	103,(0, 65),2	111,(0, 70),2	119,(0, 75),2	127,(0, 80),2	
5,(0, 4),2	13,(0, 9),2	21,(0, 14),2	29,(0, 19),2	37,(0, 24),2	45,(0, 29),2	53,(0, 34),2	61,(0, 39),2	69,(0, 44),2	77,(0, 49),2	85,(0, 54),2	93,(0, 59),2	101,(0, 64),2	109,(0, 69),2	117,(0, 74),2	125,(0, 79),2	
3,(0, 3),2	11,(0, 8),2	19,(0, 13),2	27,(0, 18),2	35,(0, 23),2	43,(0, 28),2	51,(0, 33),2	59,(0, 38),2	67,(0, 43),2	75,(0, 48),2	83,(0, 53),2	91,(0, 58),2	99,(0, 63),2	107,(0, 68),2	115,(0, 73),2	123,(0, 78),2	
1,(0, 2),2	9,(0, 7),2	17,(0, 12),2	25,(0, 17),2	33,(0, 22),2	41,(0, 27),2	49,(0, 32),2	57,(0, 37),2	65,(0, 42),2	73,(0, 47),2	81,(0, 52),2	89,(0, 57),2	97,(0, 62),2	105,(0, 67),2	113,(0, 72),2	121,(0, 77),2	
33,(2, 81),94	127,(3, 81),94	221,(4, 81),94	315,(5, 81),94	409,(7, 81),94	503,(8, 81),94	597,(9, 81),94	691,(10, 81),94	785,(12, 81),94	879,(13, 81),94	973,(14, 81),94	1067,(15, 81),94	1161,(17, 81),94	1255,(18, 81),94	1349,(19, 81),94	1443,(20, 81),94	1537,(22, 81),94	1631,(23, 81),94	1725,(24, 81),94	1819,(25, 81),94	1913,(27, 81),94	2007,(28, 81),94	2101,(29, 81),94	2195,(30, 81),94	2289,(32, 81),94	2383,(33, 81),94	2477,(34, 81),94	2571,(35, 81),94	2665,(37, 81),94	2759,(38, 81),94	2853,(39, 81),94	2947,(40, 81),94	3041,(42, 81),94	3135,(43, 81),94	3229,(44, 81),94	3323,(45, 81),94	3417,(47, 81),94	3511,(48, 81),94	3605,(49, 81),94	3699,(50, 81),94	3793,(52, 81),94	3887,(53, 81),94	3981,(54, 81),94	4075,(55, 81),94	4169,(57, 81),94	4263,(58, 81),94	4357,(59, 81),94	4451,(60, 81),94	4545,(62, 81),94	4639,(63, 81),94	4733,(64, 81),94	4827,(65, 81),94	4921,(67, 81),94	5015,(68, 81),94	5109,(69, 81),94	5203,(70, 81),94	5297,(72, 81),94	5391,(73, 81),94	5485,(74, 81),94	5579,(75, 81),94	5673,(77, 81),94	5767,(78, 81),94	5861,(79, 81),94	5955,(80, 81),94	
# Outgoing
315,(5, 81),94	691,(10, 81),94	1067,(15, 81),94	1443,(20, 81),94	1819,(25, 81),94	2195,(30, 81),94	2571,(35, 81),94	2947,(40, 81),94	3323,(45, 81),94	3699,(50, 81),94	4075,(55, 81),94	4451,(60, 81),94	4827,(65, 81),94	5203,(70, 81),94	5579,(75, 81),94	5955,(80, 81),94	
221,(4, 81),94	597,(9, 81),94	973,(14, 81),94	1349,(19, 81),94	1725,(24, 81),94	2101,(29, 81),94	2477,(34, 81),94	2853,(39, 81),94	3229,(44, 81),94	3605,(49, 81),94	3981,(54, 81),94	4357,(59, 81),94	4733,(64, 81),94	5109,(69, 81),94	5485,(74, 81),94	5861,(79, 81),94	
127,(3, 81),94	503,(8, 81),94	879,(13, 81),94	1255,(18, 81),94	1631,(23, 81),94	2007,(28, 81),94	2383,(33, 81),94	2759,(38, 81),94	3135,(43, 81),94	3511,(48, 81),94	3887,(53, 81),94	4263,(58, 81),94	4639,(63, 81),94	5015,(68, 81),94	5391,(73, 81),94	5767,(78, 81),94	
33,(2, 81),94	409,(7, 81),94	785,(12, 81),94	1161,(17, 81),94	1537,(22, 81),94	1913,(27, 81),94	2289,(32, 81),94	2665,(37, 81),94	3041,(42, 81),94	3417,(47, 81),94	3793,(52, 81),94	4169,(57, 81),94	4545,(62, 81),94	4921,(67, 81),94	5297,(72, 81),94	5673,(77, 81),94	
1,(0, 2),2	3,(0, 3),2	5,(0, 4),2	7,(0, 5),2	9,(0, 7),2	11,(0, 8),2	13,(0, 9),2	15,(0, 10),2	17,(0, 12),2	19,(0, 13),2	21,(0, 14),2	23,(0, 15),2	25,(0, 17),2	27,(0, 18),2	29,(0, 19),2	31,(0, 20),2	33,(0, 22),2	35,(0, 23),2	37,(0, 24),2	39,(0, 25),2	41,(0, 27),2	43,(0, 28),2	45,(0, 29),2	47,(0, 30),2	49,(0, 32),2	51,(0, 33),2	53,(0, 34),2	55,(0, 35),2	57,(0, 37),2	59,(0, 38),2	61,(0, 39),2	63,(0, 40),2	65,(0, 42),2	67,(0, 43),2	69,(0, 44),2	71,(0, 45),2	73,(0, 47),2	75,(0, 48),2	77,(0, 49),2	79,(0, 50),2	81,(0, 52),2	83,(0, 53),2	85,(0, 54),2	87,(0, 55),2	89,(0, 57),2	91,(0, 58),2	93,(0, 59),2	95,(0, 60),2	97,(0, 62),2	99,(0, 63),2	101,(0, 64),2	103,(0, 65),2	105,(0, 67),2	107,(0, 68),2	109,(0, 69),2	111,(0, 70),2	113,(0, 72),2	115,(0, 73),2	117,(0, 74),2	119,(0, 75),2	121,(0, 77),2	123,(0, 78),2	125,(0, 79),2	127,(0, 80),2	
