827
# CPU
0,0,1	1,51,13	14,50,13	27,52,13	40,49,13	53,47,13	66,48,13	79,46,13	92,45,13	105,53,13	118,44,13	131,43,13	144,42,13	157,41,13	170,65,13	183,66,13	196,64,13	209,63,13	222,67,13	235,62,13	248,61,13	261,60,13	274,68,13	287,55,13	300,54,13	313,69,13	326,39,13	339,38,13	352,70,13	365,37,13	378,35,13	391,71,13	404,34,13	417,32,13	430,72,13	443,31,13	456,29,13	469,73,13	482,28,13	495,16,13	508,17,13	521,15,13	534,14,13	547,18,13	560,13,13	573,10,13	586,8,13	599,19,13	612,20,13	625,12,13	638,11,13	651,1,13	664,2,13	677,3,13	690,4,13	703,5,13	716,6,13	729,7,13	742,9,13	755,21,13	768,23,13	781,74,13	794,78,13	826,81,1	
45,56,13	133,59,13	485,22,13	617,75,13	793,80,13	

441,25,13	529,24,13	705,77,13	
177,58,13	661,76,13	
89,57,13	265,36,13	
353,30,13	749,79,13	
221,40,13	
309,33,13	573,26,13	
397,27,13	
# Incoming
58,(56, 81),20	102,(57, 81),20	146,(59, 81),20	190,(58, 81),20	234,(40, 81),20	278,(36, 81),20	322,(33, 81),20	366,(30, 81),20	410,(27, 81),20	454,(25, 81),20	498,(22, 81),20	542,(24, 81),20	586,(26, 81),20	630,(75, 81),20	674,(76, 81),20	718,(77, 81),20	762,(79, 81),20	806,(80, 81),20	
1,(0, 56),44	89,(0, 59),44	441,(0, 22),44	573,(0, 75),44	749,(0, 80),44	

397,(0, 25),44	485,(0, 24),44	661,(0, 77),44	
133,(0, 58),44	617,(0, 76),44	
45,(0, 57),44	221,(0, 36),44	
309,(0, 30),44	705,(0, 79),44	
177,(0, 40),44	
265,(0, 33),44	529,(0, 26),44	
353,(0, 27),44	
# Outgoing
1,(0, 56),44	45,(0, 57),44	89,(0, 59),44	133,(0, 58),44	177,(0, 40),44	221,(0, 36),44	265,(0, 33),44	309,(0, 30),44	353,(0, 27),44	397,(0, 25),44	441,(0, 22),44	485,(0, 24),44	529,(0, 26),44	573,(0, 75),44	617,(0, 76),44	661,(0, 77),44	705,(0, 79),44	749,(0, 80),44	
58,(56, 81),20	146,(59, 81),20	498,(22, 81),20	630,(75, 81),20	806,(80, 81),20	

454,(25, 81),20	542,(24, 81),20	718,(77, 81),20	
190,(58, 81),20	674,(76, 81),20	
102,(57, 81),20	278,(36, 81),20	
366,(30, 81),20	762,(79, 81),20	
234,(40, 81),20	
322,(33, 81),20	586,(26, 81),20	
410,(27, 81),20	
