1442
# CPU
0,0,1	1,1,18	19,3,18	37,7,18	55,15,18	73,31,18	91,63,18	109,80,18	127,79,18	145,78,18	163,77,18	181,76,18	199,75,18	217,74,18	235,73,18	253,72,18	271,71,18	289,70,18	307,69,18	325,68,18	343,67,18	361,66,18	379,65,18	397,62,18	415,64,18	433,61,18	451,60,18	469,59,18	487,58,18	505,57,18	523,56,18	541,55,18	559,54,18	577,53,18	595,52,18	613,51,18	631,50,18	649,49,18	667,48,18	685,47,18	703,46,18	721,45,18	739,44,18	757,43,18	775,42,18	793,41,18	811,40,18	829,39,18	847,38,18	865,37,18	883,36,18	901,35,18	919,34,18	937,33,18	955,30,18	973,32,18	991,29,18	1009,28,18	1027,27,18	1045,26,18	1063,25,18	1081,24,18	1099,23,18	1117,22,18	1135,21,18	1153,20,18	1171,19,18	1189,18,18	1207,17,18	1225,14,18	1243,16,18	1261,13,18	1279,12,18	1297,11,18	1315,10,18	1333,9,18	1351,6,18	1369,8,18	1387,5,18	1405,2,18	1423,4,18	1441,81,1	



# Incoming




# Outgoing




