669
# CPU
25,5,40	65,10,40	105,15,40	145,20,40	185,25,40	225,30,40	265,35,40	305,40,40	345,45,40	385,50,40	425,55,40	465,60,40	505,65,40	545,70,40	585,75,40	625,80,40	
19,4,40	59,9,40	99,14,40	139,19,40	179,24,40	219,29,40	259,34,40	299,39,40	339,44,40	379,49,40	419,54,40	459,59,40	499,64,40	539,69,40	579,74,40	619,79,40	
13,3,40	53,8,40	93,13,40	133,18,40	173,23,40	213,28,40	253,33,40	293,38,40	333,43,40	373,48,40	413,53,40	453,58,40	493,63,40	533,68,40	573,73,40	613,78,40	
7,2,40	47,7,40	87,12,40	127,17,40	167,22,40	207,27,40	247,32,40	287,37,40	327,42,40	367,47,40	407,52,40	447,57,40	487,62,40	527,67,40	567,72,40	607,77,40	
0,0,1	1,1,40	41,11,40	81,31,40	121,71,40	161,66,40	201,76,40	241,61,40	281,56,40	321,51,40	361,46,40	401,41,40	441,26,40	481,36,40	521,21,40	561,6,40	601,16,40	668,81,1	
# Incoming
19,(0, 5),6	43,(0, 10),6	67,(0, 15),6	91,(0, 20),6	115,(0, 25),6	139,(0, 30),6	163,(0, 35),6	187,(0, 40),6	211,(0, 45),6	235,(0, 50),6	259,(0, 55),6	283,(0, 60),6	307,(0, 65),6	331,(0, 70),6	355,(0, 75),6	379,(0, 80),6	
13,(0, 4),6	37,(0, 9),6	61,(0, 14),6	85,(0, 19),6	109,(0, 24),6	133,(0, 29),6	157,(0, 34),6	181,(0, 39),6	205,(0, 44),6	229,(0, 49),6	253,(0, 54),6	277,(0, 59),6	301,(0, 64),6	325,(0, 69),6	349,(0, 74),6	373,(0, 79),6	
7,(0, 3),6	31,(0, 8),6	55,(0, 13),6	79,(0, 18),6	103,(0, 23),6	127,(0, 28),6	151,(0, 33),6	175,(0, 38),6	199,(0, 43),6	223,(0, 48),6	247,(0, 53),6	271,(0, 58),6	295,(0, 63),6	319,(0, 68),6	343,(0, 73),6	367,(0, 78),6	
1,(0, 2),6	25,(0, 7),6	49,(0, 12),6	73,(0, 17),6	97,(0, 22),6	121,(0, 27),6	145,(0, 32),6	169,(0, 37),6	193,(0, 42),6	217,(0, 47),6	241,(0, 52),6	265,(0, 57),6	289,(0, 62),6	313,(0, 67),6	337,(0, 72),6	361,(0, 77),6	
47,(2, 81),3	53,(3, 81),3	59,(4, 81),3	65,(5, 81),3	87,(7, 81),3	93,(8, 81),3	99,(9, 81),3	105,(10, 81),3	127,(12, 81),3	133,(13, 81),3	139,(14, 81),3	145,(15, 81),3	167,(17, 81),3	173,(18, 81),3	179,(19, 81),3	185,(20, 81),3	207,(22, 81),3	213,(23, 81),3	219,(24, 81),3	225,(25, 81),3	247,(27, 81),3	253,(28, 81),3	259,(29, 81),3	265,(30, 81),3	287,(32, 81),3	293,(33, 81),3	299,(34, 81),3	305,(35, 81),3	327,(37, 81),3	333,(38, 81),3	339,(39, 81),3	345,(40, 81),3	367,(42, 81),3	373,(43, 81),3	379,(44, 81),3	385,(45, 81),3	407,(47, 81),3	413,(48, 81),3	419,(49, 81),3	425,(50, 81),3	447,(52, 81),3	453,(53, 81),3	459,(54, 81),3	465,(55, 81),3	487,(57, 81),3	493,(58, 81),3	499,(59, 81),3	505,(60, 81),3	527,(62, 81),3	533,(63, 81),3	539,(64, 81),3	545,(65, 81),3	567,(67, 81),3	573,(68, 81),3	579,(69, 81),3	585,(70, 81),3	607,(72, 81),3	613,(73, 81),3	619,(74, 81),3	625,(75, 81),3	647,(77, 81),3	653,(78, 81),3	659,(79, 81),3	665,(80, 81),3	
# Outgoing
65,(5, 81),3	105,(10, 81),3	145,(15, 81),3	185,(20, 81),3	225,(25, 81),3	265,(30, 81),3	305,(35, 81),3	345,(40, 81),3	385,(45, 81),3	425,(50, 81),3	465,(55, 81),3	505,(60, 81),3	545,(65, 81),3	585,(70, 81),3	625,(75, 81),3	665,(80, 81),3	
59,(4, 81),3	99,(9, 81),3	139,(14, 81),3	179,(19, 81),3	219,(24, 81),3	259,(29, 81),3	299,(34, 81),3	339,(39, 81),3	379,(44, 81),3	419,(49, 81),3	459,(54, 81),3	499,(59, 81),3	539,(64, 81),3	579,(69, 81),3	619,(74, 81),3	659,(79, 81),3	
53,(3, 81),3	93,(8, 81),3	133,(13, 81),3	173,(18, 81),3	213,(23, 81),3	253,(28, 81),3	293,(33, 81),3	333,(38, 81),3	373,(43, 81),3	413,(48, 81),3	453,(53, 81),3	493,(58, 81),3	533,(63, 81),3	573,(68, 81),3	613,(73, 81),3	653,(78, 81),3	
47,(2, 81),3	87,(7, 81),3	127,(12, 81),3	167,(17, 81),3	207,(22, 81),3	247,(27, 81),3	287,(32, 81),3	327,(37, 81),3	367,(42, 81),3	407,(47, 81),3	447,(52, 81),3	487,(57, 81),3	527,(62, 81),3	567,(67, 81),3	607,(72, 81),3	647,(77, 81),3	
1,(0, 2),6	7,(0, 3),6	13,(0, 4),6	19,(0, 5),6	25,(0, 7),6	31,(0, 8),6	37,(0, 9),6	43,(0, 10),6	49,(0, 12),6	55,(0, 13),6	61,(0, 14),6	67,(0, 15),6	73,(0, 17),6	79,(0, 18),6	85,(0, 19),6	91,(0, 20),6	97,(0, 22),6	103,(0, 23),6	109,(0, 24),6	115,(0, 25),6	121,(0, 27),6	127,(0, 28),6	133,(0, 29),6	139,(0, 30),6	145,(0, 32),6	151,(0, 33),6	157,(0, 34),6	163,(0, 35),6	169,(0, 37),6	175,(0, 38),6	181,(0, 39),6	187,(0, 40),6	193,(0, 42),6	199,(0, 43),6	205,(0, 44),6	211,(0, 45),6	217,(0, 47),6	223,(0, 48),6	229,(0, 49),6	235,(0, 50),6	241,(0, 52),6	247,(0, 53),6	253,(0, 54),6	259,(0, 55),6	265,(0, 57),6	271,(0, 58),6	277,(0, 59),6	283,(0, 60),6	289,(0, 62),6	295,(0, 63),6	301,(0, 64),6	307,(0, 65),6	313,(0, 67),6	319,(0, 68),6	325,(0, 69),6	331,(0, 70),6	337,(0, 72),6	343,(0, 73),6	349,(0, 74),6	355,(0, 75),6	361,(0, 77),6	367,(0, 78),6	373,(0, 79),6	379,(0, 80),6	
