160
# CPU
0,81,1	1,80,2	3,50,2	5,51,2	7,49,2	9,48,2	11,47,2	13,52,2	15,46,2	17,53,2	19,45,2	21,54,2	23,44,2	25,43,2	27,42,2	29,55,2	31,41,2	33,64,2	35,63,2	37,65,2	39,62,2	41,61,2	43,60,2	45,66,2	47,59,2	49,58,2	51,57,2	53,67,2	55,56,2	57,40,2	59,39,2	61,68,2	63,38,2	65,37,2	67,36,2	69,69,2	71,35,2	73,34,2	75,33,2	77,70,2	79,32,2	81,31,2	83,30,2	85,71,2	87,29,2	89,28,2	91,27,2	93,72,2	95,26,2	97,17,2	99,16,2	101,18,2	103,15,2	105,19,2	107,14,2	109,20,2	111,13,2	113,21,2	115,12,2	117,22,2	119,11,2	121,23,2	123,10,2	125,24,2	127,9,2	129,1,2	131,2,2	133,3,2	135,4,2	137,5,2	139,6,2	141,7,2	143,8,2	145,25,2	147,73,2	149,74,2	151,75,2	153,76,2	155,77,2	157,78,2	159,0,1	
5,79,2	
# Incoming
7,(79, 0),152	
1,(81, 79),4	
# Outgoing
1,(81, 79),4	
7,(79, 0),152	
