212
# CPU
0,81,1	1,80,7	8,50,7	15,48,7	22,46,7	29,53,7	36,42,7	43,41,7	50,65,7	57,60,7	64,58,7	71,67,7	78,39,7	85,37,7	92,35,7	99,33,7	106,31,7	113,29,7	120,72,7	127,17,7	134,15,7	141,20,7	148,12,7	155,11,7	162,24,7	169,2,7	176,5,7	183,7,7	190,73,7	197,76,7	204,79,7	211,0,1	
5,49,7	12,51,7	19,45,7	26,43,7	33,64,7	40,62,7	47,66,7	54,57,7	61,40,7	68,38,7	75,69,7	82,70,7	89,30,7	96,28,7	103,26,7	110,18,7	117,14,7	124,21,7	131,23,7	138,9,7	145,3,7	152,6,7	159,25,7	166,75,7	173,78,7	
3,55,7	10,47,7	17,52,7	24,44,7	31,54,7	38,63,7	45,61,7	52,59,7	59,56,7	66,68,7	73,36,7	80,34,7	87,32,7	94,71,7	101,27,7	108,16,7	115,19,7	122,13,7	129,22,7	136,10,7	143,1,7	150,4,7	157,8,7	164,74,7	171,77,7	
# Incoming
10,(55, 0),4	14,(49, 0),4	18,(47, 0),4	22,(51, 0),4	26,(52, 0),4	30,(45, 0),4	34,(44, 0),4	38,(43, 0),4	42,(54, 0),4	46,(64, 0),4	50,(63, 0),4	54,(62, 0),4	58,(61, 0),4	62,(66, 0),4	66,(59, 0),4	70,(57, 0),4	74,(56, 0),4	78,(40, 0),4	82,(68, 0),4	86,(38, 0),4	90,(36, 0),4	94,(69, 0),4	98,(34, 0),4	102,(70, 0),4	106,(32, 0),4	110,(30, 0),4	114,(71, 0),4	118,(28, 0),4	122,(27, 0),4	126,(26, 0),4	130,(16, 0),4	134,(18, 0),4	138,(19, 0),4	142,(14, 0),4	146,(13, 0),4	150,(21, 0),4	154,(22, 0),4	158,(23, 0),4	162,(10, 0),4	166,(9, 0),4	170,(1, 0),4	174,(3, 0),4	178,(4, 0),4	182,(6, 0),4	186,(8, 0),4	190,(25, 0),4	194,(74, 0),4	198,(75, 0),4	202,(77, 0),4	206,(78, 0),4	
3,(81, 49),2	7,(81, 51),2	11,(81, 45),2	15,(81, 43),2	19,(81, 64),2	23,(81, 62),2	27,(81, 66),2	31,(81, 57),2	35,(81, 40),2	39,(81, 38),2	43,(81, 69),2	47,(81, 70),2	51,(81, 30),2	55,(81, 28),2	59,(81, 26),2	63,(81, 18),2	67,(81, 14),2	71,(81, 21),2	75,(81, 23),2	79,(81, 9),2	83,(81, 3),2	87,(81, 6),2	91,(81, 25),2	95,(81, 75),2	99,(81, 78),2	
1,(81, 55),2	5,(81, 47),2	9,(81, 52),2	13,(81, 44),2	17,(81, 54),2	21,(81, 63),2	25,(81, 61),2	29,(81, 59),2	33,(81, 56),2	37,(81, 68),2	41,(81, 36),2	45,(81, 34),2	49,(81, 32),2	53,(81, 71),2	57,(81, 27),2	61,(81, 16),2	65,(81, 19),2	69,(81, 13),2	73,(81, 22),2	77,(81, 10),2	81,(81, 1),2	85,(81, 4),2	89,(81, 8),2	93,(81, 74),2	97,(81, 77),2	
# Outgoing
1,(81, 55),2	3,(81, 49),2	5,(81, 47),2	7,(81, 51),2	9,(81, 52),2	11,(81, 45),2	13,(81, 44),2	15,(81, 43),2	17,(81, 54),2	19,(81, 64),2	21,(81, 63),2	23,(81, 62),2	25,(81, 61),2	27,(81, 66),2	29,(81, 59),2	31,(81, 57),2	33,(81, 56),2	35,(81, 40),2	37,(81, 68),2	39,(81, 38),2	41,(81, 36),2	43,(81, 69),2	45,(81, 34),2	47,(81, 70),2	49,(81, 32),2	51,(81, 30),2	53,(81, 71),2	55,(81, 28),2	57,(81, 27),2	59,(81, 26),2	61,(81, 16),2	63,(81, 18),2	65,(81, 19),2	67,(81, 14),2	69,(81, 13),2	71,(81, 21),2	73,(81, 22),2	75,(81, 23),2	77,(81, 10),2	79,(81, 9),2	81,(81, 1),2	83,(81, 3),2	85,(81, 4),2	87,(81, 6),2	89,(81, 8),2	91,(81, 25),2	93,(81, 74),2	95,(81, 75),2	97,(81, 77),2	99,(81, 78),2	
14,(49, 0),4	22,(51, 0),4	30,(45, 0),4	38,(43, 0),4	46,(64, 0),4	54,(62, 0),4	62,(66, 0),4	70,(57, 0),4	78,(40, 0),4	86,(38, 0),4	94,(69, 0),4	102,(70, 0),4	110,(30, 0),4	118,(28, 0),4	126,(26, 0),4	134,(18, 0),4	142,(14, 0),4	150,(21, 0),4	158,(23, 0),4	166,(9, 0),4	174,(3, 0),4	182,(6, 0),4	190,(25, 0),4	198,(75, 0),4	206,(78, 0),4	
10,(55, 0),4	18,(47, 0),4	26,(52, 0),4	34,(44, 0),4	42,(54, 0),4	50,(63, 0),4	58,(61, 0),4	66,(59, 0),4	74,(56, 0),4	82,(68, 0),4	90,(36, 0),4	98,(34, 0),4	106,(32, 0),4	114,(71, 0),4	122,(27, 0),4	130,(16, 0),4	138,(19, 0),4	146,(13, 0),4	154,(22, 0),4	162,(10, 0),4	170,(1, 0),4	178,(4, 0),4	186,(8, 0),4	194,(74, 0),4	202,(77, 0),4	
