2546
# CPU
61,3,1	62,51,1	63,78,1	64,81,1	65,85,1	66,89,1	67,20,1	68,32,1	85,39,1	88,41,1	91,95,1	121,6,1	122,18,1	123,84,1	124,102,1	125,115,1	126,110,1	127,111,1	128,45,1	129,46,1	130,68,1	131,79,1	132,80,1	148,63,1	151,119,1	181,9,1	182,28,1	183,101,1	184,107,1	185,37,1	186,60,1	187,64,1	188,74,1	199,86,1	211,108,1	241,12,1	242,23,1	243,26,1	244,33,1	245,70,1	246,77,1	247,97,1	248,76,1	249,35,1	250,40,1	251,56,1	252,105,1	253,21,1	274,29,1	685,50,1	697,53,1	712,54,1	733,55,1	736,47,1	745,49,1	778,52,1	784,58,1	799,65,1	802,82,1	823,99,1	907,103,1	910,69,1	946,94,1	955,113,1	958,72,1	964,62,1	1027,93,1	1411,100,1	1414,114,1	1465,31,1	1468,36,1	1483,61,1	1516,67,1	1567,71,1	1696,91,1	1726,92,1	1747,106,1	1750,116,1	1753,118,1	1756,73,1	1786,96,1	1789,112,1	1792,42,1	1813,48,1	1873,43,1	1948,120,1	2044,88,1	2056,24,1	2083,25,1	2101,57,1	2146,59,1	2149,66,1	2311,75,1	2314,83,1	2329,87,1	2335,90,1	2353,98,1	2374,104,1	2386,109,1	2515,117,1	2545,121,1	
31,2,1	91,5,1	151,8,1	211,11,1	212,34,1	733,44,1	784,27,1	958,30,1	1222,38,1	1759,15,1	1792,17,1	
0,0,1	1,1,1	2,10,1	3,4,1	4,7,1	5,19,1	6,13,1	682,22,1	706,14,1	766,16,1	
# Incoming
31,(0, 3),30	61,(2, 20),3	64,(2, 32),3	67,(2, 39),18	85,(2, 41),3	88,(2, 95),3	91,(0, 6),30	121,(2, 63),27	148,(2, 119),3	151,(0, 9),30	181,(2, 74),6	187,(2, 86),12	199,(2, 108),12	211,(0, 12),30	241,(1, 21),6	247,(1, 29),27	682,(5, 50),3	685,(5, 53),12	697,(5, 54),15	712,(5, 55),21	733,(1, 47),3	736,(1, 49),9	745,(1, 52),33	778,(1, 58),6	784,(1, 65),15	799,(1, 82),3	802,(1, 99),21	823,(1, 103),84	907,(5, 69),3	910,(5, 94),36	946,(5, 113),9	955,(8, 72),3	958,(10, 62),6	964,(10, 93),63	1027,(10, 100),384	1411,(10, 114),3	1414,(4, 31),51	1465,(4, 36),3	1468,(4, 61),15	1483,(4, 67),33	1516,(4, 71),51	1567,(4, 91),129	1696,(4, 92),30	1726,(4, 106),21	1747,(4, 116),3	1750,(4, 118),3	1753,(8, 73),3	1756,(8, 96),30	1786,(8, 112),3	1789,(11, 42),3	1792,(7, 48),21	1813,(19, 121),3	1816,(13, 121),3	1819,(5, 43),54	1873,(5, 120),75	1948,(8, 88),96	2044,(11, 24),12	2056,(11, 25),27	2083,(11, 57),18	2101,(11, 59),45	2146,(11, 66),3	2149,(11, 75),162	2311,(11, 83),3	2314,(11, 87),15	2329,(11, 90),6	2335,(11, 98),18	2353,(11, 104),21	2374,(11, 109),12	2386,(11, 117),129	2515,(34, 121),3	2518,(22, 121),3	2521,(14, 121),3	2524,(44, 121),3	2527,(16, 121),3	2530,(27, 121),3	2533,(30, 121),3	2536,(38, 121),3	2539,(15, 121),3	2542,(17, 121),3	
1,(0, 2),30	61,(0, 5),30	121,(0, 8),30	181,(0, 11),30	274,(1, 44),459	733,(9, 27),51	907,(10, 30),51	958,(9, 38),264	1753,(7, 15),6	1759,(7, 17),33	
211,(5, 22),471	682,(6, 14),24	733,(8, 16),33	
# Outgoing
682,(6, 14),24	733,(9, 27),51	958,(9, 38),264	
61,(2, 20),3	64,(2, 32),3	67,(2, 39),18	85,(2, 41),3	88,(2, 95),3	121,(2, 63),27	148,(2, 119),3	181,(2, 74),6	187,(2, 86),12	199,(2, 108),12	211,(5, 22),471	682,(5, 50),3	685,(5, 53),12	697,(5, 54),15	712,(5, 55),21	733,(8, 16),33	907,(5, 69),3	910,(5, 94),36	946,(5, 113),9	955,(8, 72),3	1753,(8, 73),3	1756,(8, 96),30	1786,(8, 112),3	1789,(11, 42),3	1819,(5, 43),54	1873,(5, 120),75	1948,(8, 88),96	2044,(11, 24),12	2056,(11, 25),27	2083,(11, 57),18	2101,(11, 59),45	2146,(11, 66),3	2149,(11, 75),162	2311,(11, 83),3	2314,(11, 87),15	2329,(11, 90),6	2335,(11, 98),18	2353,(11, 104),21	2374,(11, 109),12	2386,(11, 117),129	2515,(34, 121),3	2524,(44, 121),3	2530,(27, 121),3	2533,(30, 121),3	2536,(38, 121),3	2539,(15, 121),3	2542,(17, 121),3	
1,(0, 2),30	31,(0, 3),30	61,(0, 5),30	91,(0, 6),30	121,(0, 8),30	151,(0, 9),30	181,(0, 11),30	211,(0, 12),30	241,(1, 21),6	247,(1, 29),27	274,(1, 44),459	733,(1, 47),3	736,(1, 49),9	745,(1, 52),33	778,(1, 58),6	784,(1, 65),15	799,(1, 82),3	802,(1, 99),21	823,(1, 103),84	907,(10, 30),51	958,(10, 62),6	964,(10, 93),63	1027,(10, 100),384	1411,(10, 114),3	1414,(4, 31),51	1465,(4, 36),3	1468,(4, 61),15	1483,(4, 67),33	1516,(4, 71),51	1567,(4, 91),129	1696,(4, 92),30	1726,(4, 106),21	1747,(4, 116),3	1750,(4, 118),3	1753,(7, 15),6	1759,(7, 17),33	1792,(7, 48),21	1813,(19, 121),3	1816,(13, 121),3	2518,(22, 121),3	2521,(14, 121),3	2527,(16, 121),3	
