808
# CPU
76,3,17	93,7,17	110,26,17	151,4,17	168,12,17	185,17,17	202,18,17	219,33,17	236,31,17	253,16,17	270,22,17	287,20,17	304,21,17	321,19,17	338,23,17	355,32,17	372,37,17	389,5,17	406,28,17	423,39,17	
0,0,1	1,1,17	18,2,17	35,24,17	52,38,17	69,11,17	86,30,17	103,40,17	120,27,17	137,25,17	154,9,17	348,34,17	390,36,17	429,6,17	456,8,17	473,10,17	490,13,17	507,14,17	524,15,17	541,29,17	558,35,17	807,41,1	
# Incoming
1,(0, 3),75	76,(0, 4),75	151,(1, 18),9	160,(1, 19),21	181,(1, 23),3	184,(1, 28),6	190,(1, 32),36	226,(1, 37),3	229,(2, 5),3	232,(2, 28),3	235,(2, 39),3	
93,(3, 9),15	108,(3, 10),24	132,(3, 15),183	315,(3, 34),33	348,(3, 36),42	390,(7, 41),18	408,(26, 41),18	426,(4, 6),3	429,(4, 8),27	456,(4, 10),15	471,(4, 13),3	474,(4, 14),3	477,(4, 15),15	492,(4, 29),9	501,(4, 35),18	519,(12, 41),18	537,(17, 41),18	555,(18, 41),18	573,(33, 41),18	591,(31, 41),18	609,(16, 41),18	627,(22, 41),18	645,(20, 41),18	663,(21, 41),18	681,(19, 41),18	699,(23, 41),18	717,(32, 41),18	735,(37, 41),18	753,(5, 41),18	771,(28, 41),18	789,(39, 41),18	
# Outgoing
93,(3, 9),15	108,(3, 10),24	132,(3, 15),183	315,(3, 34),33	348,(3, 36),42	390,(7, 41),18	408,(26, 41),18	426,(4, 6),3	429,(4, 8),27	456,(4, 10),15	471,(4, 13),3	474,(4, 14),3	477,(4, 15),15	492,(4, 29),9	501,(4, 35),18	519,(12, 41),18	537,(17, 41),18	555,(18, 41),18	573,(33, 41),18	591,(31, 41),18	609,(16, 41),18	627,(22, 41),18	645,(20, 41),18	663,(21, 41),18	681,(19, 41),18	699,(23, 41),18	717,(32, 41),18	735,(37, 41),18	753,(5, 41),18	771,(28, 41),18	789,(39, 41),18	
1,(0, 3),75	76,(0, 4),75	151,(1, 18),9	160,(1, 19),21	181,(1, 23),3	184,(1, 28),6	190,(1, 32),36	226,(1, 37),3	229,(2, 5),3	232,(2, 28),3	235,(2, 39),3	
