56
# CPU
0,0,1	1,2,3	4,3,3	7,7,3	10,10,3	13,12,3	16,5,3	19,1,3	22,19,3	25,8,3	28,13,3	31,4,3	34,14,3	37,15,3	40,9,3	43,6,3	46,17,3	49,18,3	52,20,3	55,21,1	
6,11,3	26,16,3	








# Incoming
9,(11, 21),2	29,(16, 21),2	
4,(2, 11),2	22,(1, 16),4	








# Outgoing
4,(2, 11),2	22,(1, 16),4	
9,(11, 21),2	29,(16, 21),2	








