42
# CPU
0,41,1	1,8,1	2,23,1	3,36,1	4,27,1	5,11,1	6,19,1	7,5,1	8,12,1	9,38,1	10,18,1	11,39,1	12,22,1	13,10,1	14,13,1	15,16,1	16,7,1	17,34,1	18,32,1	19,20,1	20,26,1	21,33,1	22,40,1	23,31,1	24,25,1	25,17,1	26,30,1	27,29,1	28,24,1	29,37,1	30,2,1	31,14,1	32,28,1	33,15,1	34,9,1	35,21,1	36,6,1	37,3,1	38,35,1	39,1,1	40,4,1	41,0,1	

# Incoming


# Outgoing


