769
# CPU
0,81,1	1,64,1	2,71,1	3,80,1	4,79,1	5,42,1	6,76,1	7,68,1	8,29,1	9,62,1	10,28,1	11,61,1	12,31,1	13,13,1	14,38,1	15,35,1	16,32,1	17,75,1	18,41,1	19,12,1	20,66,1	21,49,1	22,25,1	23,46,1	24,74,1	25,27,1	26,69,1	27,40,1	28,52,1	29,51,1	30,15,1	31,45,1	32,59,1	33,17,1	34,57,1	35,26,1	36,44,1	37,11,1	38,60,1	39,23,1	40,14,1	41,9,1	42,18,1	43,16,1	44,77,1	45,63,1	46,37,1	47,67,1	48,39,1	49,53,1	50,72,1	51,36,1	52,19,1	53,48,1	54,30,1	55,55,1	56,6,1	57,24,1	58,2,1	59,43,1	60,70,1	61,20,1	62,58,1	63,47,1	64,65,1	65,54,1	66,7,1	67,56,1	68,1,1	69,73,1	70,22,1	71,34,1	72,8,1	73,33,1	74,78,1	75,10,1	76,5,1	77,50,1	78,4,1	767,3,1	768,0,1	








73,21,1	
# Incoming
74,(21, 3),693	








1,(81, 21),72	
# Outgoing
1,(81, 21),72	








74,(21, 3),693	
