81
# CPU
0,0,1	1,3,1	2,57,1	3,46,1	4,62,1	5,71,1	6,4,1	7,36,1	8,59,1	9,21,1	10,29,1	11,11,1	12,7,1	13,20,1	14,45,1	15,63,1	16,40,1	17,10,1	18,39,1	19,68,1	20,23,1	21,17,1	22,1,1	23,15,1	24,25,1	25,37,1	26,51,1	27,69,1	28,34,1	29,80,1	30,28,1	31,38,1	32,77,1	33,78,1	34,26,1	35,5,1	36,9,1	37,56,1	38,31,1	39,13,1	40,33,1	41,47,1	42,19,1	43,65,1	44,50,1	45,53,1	46,67,1	47,2,1	48,16,1	49,43,1	50,52,1	51,79,1	52,70,1	53,24,1	54,35,1	55,44,1	56,14,1	57,76,1	58,55,1	59,6,1	60,18,1	61,30,1	62,49,1	63,72,1	64,12,1	65,75,1	66,66,1	67,32,1	68,22,1	69,27,1	70,58,1	79,60,1	80,81,1	
37,8,1	38,41,1	39,54,1	40,64,1	41,61,1	42,48,1	43,42,1	44,74,1	45,73,1	


# Incoming
39,(41, 81),4	43,(54, 81),4	47,(64, 81),4	51,(61, 81),4	55,(48, 81),4	59,(42, 81),4	63,(74, 81),4	67,(73, 81),4	71,(8, 60),8	
1,(0, 8),36	


# Outgoing
1,(0, 8),36	
39,(41, 81),4	43,(54, 81),4	47,(64, 81),4	51,(61, 81),4	55,(48, 81),4	59,(42, 81),4	63,(74, 81),4	67,(73, 81),4	71,(8, 60),8	


