1300
# CPU
0,0,1	1,8,1	2,126,1	3,20,1	4,61,1	5,3,1	6,166,1	7,26,1	8,155,1	9,18,1	10,117,1	11,13,1	12,149,1	13,47,1	14,1,1	15,27,1	16,90,1	17,85,1	18,4,1	19,173,1	20,178,1	21,183,1	22,15,1	23,151,1	24,14,1	25,116,1	26,2,1	27,32,1	28,49,1	29,94,1	30,162,1	31,110,1	32,45,1	33,141,1	34,7,1	35,21,1	36,40,1	37,50,1	38,189,1	39,66,1	40,57,1	41,97,1	42,188,1	43,16,1	44,33,1	45,98,1	46,65,1	47,30,1	48,10,1	49,74,1	50,59,1	51,161,1	52,133,1	53,86,1	54,79,1	55,87,1	56,12,1	57,37,1	58,160,1	59,43,1	60,96,1	61,42,1	62,105,1	63,29,1	64,25,1	65,5,1	66,121,1	67,31,1	68,156,1	69,41,1	70,113,1	71,144,1	72,107,1	73,104,1	74,106,1	75,175,1	76,187,1	77,88,1	78,9,1	79,125,1	80,84,1	81,123,1	82,142,1	83,83,1	84,135,1	85,154,1	86,36,1	87,139,1	88,159,1	89,39,1	90,93,1	91,191,1	92,92,1	93,51,1	94,108,1	95,28,1	96,148,1	97,129,1	98,71,1	99,132,1	100,100,1	101,17,1	102,122,1	103,192,1	104,200,1	105,109,1	106,76,1	107,137,1	108,99,1	109,152,1	110,119,1	111,186,1	112,194,1	113,172,1	114,174,1	115,46,1	116,185,1	117,103,1	118,89,1	119,130,1	120,198,1	121,120,1	122,62,1	123,70,1	124,150,1	125,69,1	126,6,1	127,80,1	128,134,1	129,165,1	130,101,1	131,163,1	132,140,1	133,102,1	134,199,1	135,38,1	136,91,1	137,197,1	138,58,1	139,182,1	140,77,1	141,196,1	142,95,1	143,168,1	144,114,1	145,147,1	146,72,1	147,179,1	148,24,1	149,112,1	150,81,1	151,78,1	152,146,1	153,153,1	154,143,1	155,68,1	156,63,1	157,53,1	160,138,1	164,54,1	170,124,1	176,34,1	182,23,1	188,195,1	196,56,1	204,190,1	214,111,1	226,158,1	240,73,1	256,35,1	274,22,1	294,171,1	314,177,1	334,75,1	356,44,1	378,170,1	400,48,1	436,181,1	472,55,1	530,176,1	590,157,1	658,193,1	728,180,1	816,127,1	920,64,1	1028,60,1	1146,115,1	1298,136,1	1299,201,1	




47,11,1	48,118,1	49,82,1	85,169,1	105,128,1	119,131,1	



23,19,1	24,67,1	25,167,1	61,145,1	71,52,1	79,184,1	141,164,1	
# Incoming
25,(67, 201),10	35,(167, 201),10	45,(19, 112),2	47,(19, 78),2	49,(118, 201),10	59,(82, 201),10	69,(145, 201),10	79,(52, 201),10	89,(184, 201),10	99,(169, 201),10	109,(128, 201),10	120,(131, 201),10	130,(11, 81),2	132,(19, 146),2	134,(19, 153),2	136,(19, 143),2	138,(19, 68),2	140,(11, 63),2	142,(164, 201),10	152,(19, 53),4	156,(11, 138),4	160,(11, 54),4	164,(19, 124),6	170,(19, 34),6	176,(11, 23),6	182,(11, 195),6	188,(19, 56),8	196,(11, 190),8	204,(19, 111),10	214,(19, 158),12	226,(11, 73),14	240,(19, 35),16	256,(19, 22),2	258,(11, 22),16	274,(11, 171),20	294,(11, 177),20	314,(11, 75),20	334,(11, 44),22	356,(11, 170),22	378,(11, 48),22	400,(19, 181),18	418,(11, 181),18	436,(11, 55),36	472,(19, 176),58	530,(19, 157),2	532,(11, 157),58	590,(11, 193),68	658,(11, 180),70	728,(11, 127),88	816,(19, 64),104	920,(19, 60),42	962,(11, 60),66	1028,(19, 115),118	1146,(19, 136),86	1232,(11, 136),66	




25,(0, 11),22	67,(3, 169),2	69,(15, 128),2	79,(9, 169),6	85,(20, 128),16	101,(9, 128),4	105,(10, 131),2	107,(17, 131),12	



1,(0, 19),22	23,(15, 167),2	47,(14, 145),14	61,(15, 184),4	65,(10, 184),2	69,(11, 52),2	71,(14, 184),8	119,(5, 164),20	139,(17, 164),2	
# Outgoing
1,(0, 19),22	23,(15, 167),2	25,(0, 11),22	47,(14, 145),14	61,(15, 184),4	65,(10, 184),2	67,(3, 169),2	69,(15, 128),2	71,(14, 184),8	79,(9, 169),6	85,(20, 128),16	101,(9, 128),4	105,(10, 131),2	107,(17, 131),12	119,(5, 164),20	139,(17, 164),2	




49,(118, 201),10	59,(82, 201),10	69,(11, 52),2	99,(169, 201),10	109,(128, 201),10	120,(131, 201),10	130,(11, 81),2	140,(11, 63),2	156,(11, 138),4	160,(11, 54),4	176,(11, 23),6	182,(11, 195),6	196,(11, 190),8	226,(11, 73),14	258,(11, 22),16	274,(11, 171),20	294,(11, 177),20	314,(11, 75),20	334,(11, 44),22	356,(11, 170),22	378,(11, 48),22	418,(11, 181),18	436,(11, 55),36	532,(11, 157),58	590,(11, 193),68	658,(11, 180),70	728,(11, 127),88	962,(11, 60),66	1232,(11, 136),66	



25,(67, 201),10	35,(167, 201),10	45,(19, 112),2	47,(19, 78),2	69,(145, 201),10	79,(52, 201),10	89,(184, 201),10	132,(19, 146),2	134,(19, 153),2	136,(19, 143),2	138,(19, 68),2	142,(164, 201),10	152,(19, 53),4	164,(19, 124),6	170,(19, 34),6	188,(19, 56),8	204,(19, 111),10	214,(19, 158),12	240,(19, 35),16	256,(19, 22),2	400,(19, 181),18	472,(19, 176),58	530,(19, 157),2	816,(19, 64),104	920,(19, 60),42	1028,(19, 115),118	1146,(19, 136),86	
