5078
# CPU
33,3,16	49,18,16	65,24,16	81,26,16	97,22,16	113,6,16	129,14,16	145,19,16	185,20,16	201,21,16	217,34,16	233,36,16	249,28,16	425,9,16	441,11,16	485,23,16	533,40,16	605,30,16	717,32,16	777,38,16	
17,2,16	33,13,16	49,5,16	65,10,16	201,25,16	221,27,16	437,16,16	585,17,16	657,31,16	733,35,16	781,39,16	1341,8,16	1513,29,16	1537,33,16	1553,37,16	
0,0,1	1,1,16	17,4,16	33,7,16	49,15,16	1401,12,16	5077,41,1	
# Incoming
17,(0, 3),16	37,(1, 9),8	53,(1, 22),36	89,(2, 6),12	105,(2, 14),4	109,(2, 19),12	121,(2, 20),64	185,(2, 21),12	197,(2, 34),16	213,(2, 36),4	221,(1, 28),4	225,(1, 32),180	409,(4, 9),16	425,(4, 11),8	433,(2, 23),52	485,(2, 40),48	585,(4, 30),20	657,(4, 32),60	733,(4, 38),44	
1,(0, 2),16	33,(1, 5),4	45,(1, 10),8	89,(1, 25),112	201,(1, 27),20	405,(4, 8),4	433,(4, 16),4	437,(4, 17),148	605,(4, 31),52	717,(4, 33),4	721,(4, 35),12	777,(4, 39),4	781,(3, 8),560	1401,(3, 29),112	1513,(3, 33),24	1537,(3, 37),4	
101,(2, 12),4	217,(13, 41),136	533,(5, 41),136	669,(10, 41),136	805,(25, 41),136	941,(27, 41),136	1077,(16, 41),136	1341,(3, 12),60	1401,(17, 41),136	1541,(18, 41),136	1677,(24, 41),136	1813,(26, 41),136	1949,(22, 41),136	2085,(6, 41),136	2221,(14, 41),136	2357,(19, 41),136	2493,(20, 41),136	2629,(21, 41),136	2765,(34, 41),136	2901,(36, 41),136	3037,(28, 41),136	3173,(9, 41),136	3309,(11, 41),136	3445,(23, 41),136	3581,(40, 41),136	3717,(30, 41),136	3853,(31, 41),136	3989,(32, 41),136	4125,(35, 41),136	4261,(38, 41),136	4397,(39, 41),136	4533,(8, 41),136	4669,(29, 41),136	4805,(33, 41),136	4941,(37, 41),136	
# Outgoing
781,(3, 8),560	1341,(3, 12),60	1401,(3, 29),112	1513,(3, 33),24	1537,(3, 37),4	1541,(18, 41),136	1677,(24, 41),136	1813,(26, 41),136	1949,(22, 41),136	2085,(6, 41),136	2221,(14, 41),136	2357,(19, 41),136	2493,(20, 41),136	2629,(21, 41),136	2765,(34, 41),136	2901,(36, 41),136	3037,(28, 41),136	3173,(9, 41),136	3309,(11, 41),136	3445,(23, 41),136	3581,(40, 41),136	3717,(30, 41),136	3989,(32, 41),136	4261,(38, 41),136	
89,(2, 6),12	101,(2, 12),4	105,(2, 14),4	109,(2, 19),12	121,(2, 20),64	185,(2, 21),12	197,(2, 34),16	213,(2, 36),4	217,(13, 41),136	433,(2, 23),52	485,(2, 40),48	533,(5, 41),136	669,(10, 41),136	805,(25, 41),136	941,(27, 41),136	1077,(16, 41),136	1401,(17, 41),136	3853,(31, 41),136	4125,(35, 41),136	4397,(39, 41),136	4533,(8, 41),136	4669,(29, 41),136	4805,(33, 41),136	4941,(37, 41),136	
1,(0, 2),16	17,(0, 3),16	33,(1, 5),4	37,(1, 9),8	45,(1, 10),8	53,(1, 22),36	89,(1, 25),112	201,(1, 27),20	221,(1, 28),4	225,(1, 32),180	405,(4, 8),4	409,(4, 9),16	425,(4, 11),8	433,(4, 16),4	437,(4, 17),148	585,(4, 30),20	605,(4, 31),52	657,(4, 32),60	717,(4, 33),4	721,(4, 35),12	733,(4, 38),44	777,(4, 39),4	
