1176
# CPU
7,3,1	8,41,1	9,54,1	10,60,1	11,66,1	13,6,1	14,19,1	15,21,1	16,36,1	17,45,1	18,46,1	19,47,1	61,28,1	148,31,1	151,33,1	174,43,1	195,73,1	247,24,1	262,32,1	265,37,1	340,48,1	350,23,1	359,38,1	363,40,1	364,44,1	393,57,1	396,63,1	404,12,1	408,15,1	431,69,1	433,18,1	436,20,1	440,25,1	441,26,1	454,29,1	471,30,1	472,35,1	517,50,1	543,27,1	546,77,1	547,17,1	548,52,1	569,13,1	577,14,1	596,39,1	602,42,1	607,75,1	608,79,1	
4,2,1	5,65,1	10,5,1	11,62,1	12,74,1	16,8,1	17,68,1	187,51,1	236,78,1	254,10,1	278,11,1	367,22,1	369,34,1	371,53,1	432,16,1	504,49,1	520,71,1	548,76,1	596,56,1	635,59,1	658,80,1	1175,81,1	
0,0,1	1,1,1	2,4,1	3,7,1	4,70,1	5,72,1	6,67,1	274,55,1	276,61,1	298,64,1	427,58,1	479,9,1	
# Incoming
4,(0, 3),3	10,(0, 6),3	17,(1, 14),13	30,(1, 23),25	55,(1, 28),6	61,(1, 29),81	142,(1, 31),6	148,(1, 33),3	153,(1, 42),4	157,(1, 43),17	174,(1, 44),1	175,(1, 50),5	192,(1, 57),1	193,(1, 73),2	200,(1, 77),26	226,(2, 24),21	247,(2, 27),2	249,(2, 32),13	262,(2, 37),3	265,(2, 38),5	278,(4, 17),21	299,(2, 48),41	340,(2, 69),1	341,(2, 75),1	342,(5, 13),1	343,(5, 15),3	346,(5, 20),1	347,(5, 23),3	350,(5, 29),8	358,(5, 38),1	359,(5, 40),4	363,(5, 44),1	367,(4, 30),1	369,(4, 39),15	384,(4, 57),9	393,(4, 63),3	396,(7, 12),8	404,(7, 15),4	427,(5, 69),4	432,(7, 18),1	433,(7, 20),3	436,(7, 25),4	440,(7, 26),1	441,(7, 29),13	454,(7, 30),17	471,(7, 35),1	472,(7, 50),45	517,(5, 27),26	543,(5, 77),3	546,(8, 17),1	547,(8, 52),1	548,(7, 79),1	549,(5, 79),16	565,(8, 13),4	569,(8, 14),8	577,(8, 39),19	596,(8, 42),6	602,(8, 75),5	607,(8, 79),1	
1,(0, 2),3	7,(0, 5),3	13,(0, 8),3	16,(1, 10),1	151,(1, 34),2	180,(1, 51),7	187,(1, 53),4	191,(1, 56),1	195,(1, 76),5	226,(1, 78),10	236,(4, 10),18	254,(4, 11),24	299,(4, 22),68	368,(4, 34),1	369,(3, 53),2	371,(41, 81),11	382,(54, 81),11	393,(60, 81),11	408,(7, 16),24	432,(3, 80),47	479,(66, 81),11	490,(6, 49),14	504,(6, 71),10	517,(7, 71),3	520,(7, 76),28	549,(70, 81),11	560,(72, 81),11	571,(67, 81),11	582,(6, 56),14	596,(6, 59),39	635,(6, 80),23	658,(19, 81),11	669,(21, 81),11	680,(36, 81),11	691,(45, 81),11	702,(46, 81),11	713,(47, 81),11	724,(28, 81),11	735,(31, 81),11	746,(33, 81),11	757,(43, 81),11	768,(73, 81),11	779,(24, 81),11	790,(32, 81),11	801,(37, 81),11	812,(55, 81),11	823,(61, 81),11	834,(64, 81),11	845,(48, 81),11	856,(23, 81),11	867,(38, 81),11	878,(40, 81),11	889,(44, 81),11	900,(57, 81),11	911,(63, 81),11	922,(12, 81),11	933,(15, 81),11	944,(58, 81),11	955,(69, 81),11	966,(18, 81),11	977,(20, 81),11	988,(25, 81),11	999,(26, 81),11	1010,(29, 81),11	1021,(30, 81),11	1032,(35, 81),11	1043,(9, 81),11	1054,(50, 81),11	1065,(27, 81),11	1076,(77, 81),11	1087,(17, 81),11	1098,(52, 81),11	1109,(13, 81),11	1120,(14, 81),11	1131,(39, 81),11	1142,(42, 81),11	1153,(75, 81),11	1164,(79, 81),11	
270,(2, 55),4	274,(2, 61),2	276,(2, 64),22	298,(3, 9),12	310,(3, 58),8	318,(6, 9),27	345,(6, 58),6	364,(5, 58),63	431,(8, 9),48	
# Outgoing
298,(3, 9),12	310,(3, 58),8	318,(6, 9),27	345,(6, 58),6	369,(3, 53),2	371,(41, 81),11	382,(54, 81),11	393,(60, 81),11	432,(3, 80),47	479,(66, 81),11	490,(6, 49),14	504,(6, 71),10	582,(6, 56),14	596,(6, 59),39	635,(6, 80),23	658,(19, 81),11	669,(21, 81),11	680,(36, 81),11	691,(45, 81),11	702,(46, 81),11	713,(47, 81),11	724,(28, 81),11	735,(31, 81),11	746,(33, 81),11	757,(43, 81),11	768,(73, 81),11	779,(24, 81),11	790,(32, 81),11	801,(37, 81),11	845,(48, 81),11	856,(23, 81),11	867,(38, 81),11	878,(40, 81),11	889,(44, 81),11	900,(57, 81),11	911,(63, 81),11	922,(12, 81),11	933,(15, 81),11	955,(69, 81),11	966,(18, 81),11	977,(20, 81),11	988,(25, 81),11	999,(26, 81),11	1010,(29, 81),11	1021,(30, 81),11	1032,(35, 81),11	1054,(50, 81),11	1065,(27, 81),11	1076,(77, 81),11	1087,(17, 81),11	1098,(52, 81),11	1109,(13, 81),11	1120,(14, 81),11	1131,(39, 81),11	1142,(42, 81),11	1153,(75, 81),11	1164,(79, 81),11	
226,(2, 24),21	247,(2, 27),2	249,(2, 32),13	262,(2, 37),3	265,(2, 38),5	270,(2, 55),4	274,(2, 61),2	276,(2, 64),22	299,(2, 48),41	340,(2, 69),1	341,(2, 75),1	342,(5, 13),1	343,(5, 15),3	346,(5, 20),1	347,(5, 23),3	350,(5, 29),8	358,(5, 38),1	359,(5, 40),4	363,(5, 44),1	364,(5, 58),63	427,(5, 69),4	431,(8, 9),48	517,(5, 27),26	543,(5, 77),3	546,(8, 17),1	547,(8, 52),1	549,(5, 79),16	565,(8, 13),4	569,(8, 14),8	577,(8, 39),19	596,(8, 42),6	602,(8, 75),5	607,(8, 79),1	
1,(0, 2),3	4,(0, 3),3	7,(0, 5),3	10,(0, 6),3	13,(0, 8),3	16,(1, 10),1	17,(1, 14),13	30,(1, 23),25	55,(1, 28),6	61,(1, 29),81	142,(1, 31),6	148,(1, 33),3	151,(1, 34),2	153,(1, 42),4	157,(1, 43),17	174,(1, 44),1	175,(1, 50),5	180,(1, 51),7	187,(1, 53),4	191,(1, 56),1	192,(1, 57),1	193,(1, 73),2	195,(1, 76),5	200,(1, 77),26	226,(1, 78),10	236,(4, 10),18	254,(4, 11),24	278,(4, 17),21	299,(4, 22),68	367,(4, 30),1	368,(4, 34),1	369,(4, 39),15	384,(4, 57),9	393,(4, 63),3	396,(7, 12),8	404,(7, 15),4	408,(7, 16),24	432,(7, 18),1	433,(7, 20),3	436,(7, 25),4	440,(7, 26),1	441,(7, 29),13	454,(7, 30),17	471,(7, 35),1	472,(7, 50),45	517,(7, 71),3	520,(7, 76),28	548,(7, 79),1	549,(70, 81),11	560,(72, 81),11	571,(67, 81),11	812,(55, 81),11	823,(61, 81),11	834,(64, 81),11	944,(58, 81),11	1043,(9, 81),11	
