6288
# CPU
11,3,1	21,6,1	31,9,1	41,12,1	4561,42,1	4865,60,1	5015,111,1	5392,78,1	5396,84,1	5478,54,1	5500,66,1	5597,114,1	5608,15,1	5635,18,1	5659,21,1	5664,24,1	5665,27,1	5679,30,1	5695,33,1	5708,36,1	5748,39,1	5782,45,1	5859,48,1	5874,51,1	5912,57,1	5915,63,1	5928,69,1	5981,72,1	5996,81,1	6012,87,1	6029,90,1	6087,93,1	6093,96,1	6100,99,1	6125,102,1	6225,75,1	6258,105,1	6261,108,1	6284,117,1	6285,120,1	
6,2,1	16,5,1	26,8,1	36,11,1	2517,119,1	3771,26,1	3780,29,1	3791,32,1	4516,62,1	4731,14,1	4737,23,1	5184,44,1	5345,59,1	5390,71,1	5391,74,1	5419,98,1	5428,101,1	5598,116,1	5634,17,1	5658,20,1	5707,35,1	5709,38,1	5749,41,1	5854,47,1	5864,50,1	5890,53,1	5895,56,1	5918,65,1	5927,68,1	5992,77,1	5993,80,1	6003,83,1	6004,86,1	6027,89,1	6073,92,1	6088,95,1	6255,104,1	6259,107,1	6268,110,1	6276,113,1	
0,0,1	1,1,1	2,4,1	3,7,1	4,10,1	921,25,1	955,16,1	958,34,1	980,73,1	1229,97,1	1322,79,1	1720,52,1	1739,37,1	1768,58,1	1791,76,1	1831,94,1	1832,100,1	1981,118,1	1999,82,1	2015,115,1	2059,13,1	2061,19,1	2062,22,1	2066,28,1	2070,31,1	2083,40,1	2098,43,1	2106,46,1	2110,49,1	2117,55,1	2126,61,1	2134,64,1	2136,67,1	2158,70,1	2219,85,1	2221,88,1	2241,91,1	2259,103,1	2262,106,1	2274,109,1	2275,112,1	6287,121,1	
# Incoming
6,(0, 3),5	16,(0, 6),5	22,(2, 24),1	26,(0, 9),5	33,(2, 33),3	36,(0, 12),5	41,(2, 36),2	50,(1, 15),91	141,(2, 21),12	153,(2, 39),5	158,(2, 54),3	161,(1, 27),3	165,(1, 30),7	172,(2, 51),4	176,(2, 75),3	186,(1, 36),227	413,(1, 39),17	430,(1, 42),1	431,(1, 45),1	432,(2, 99),1	433,(2, 105),1	434,(2, 114),1	435,(2, 120),1	436,(1, 48),2	438,(5, 81),1	439,(1, 51),1	440,(8, 39),1	441,(1, 54),1	442,(2, 117),3	445,(1, 63),3049	3494,(5, 18),6	3500,(5, 99),2	3502,(1, 69),16	3518,(5, 21),8	3526,(8, 21),2	3528,(1, 78),2	3530,(5, 63),7	3537,(1, 87),1	3538,(5, 75),4	3542,(1, 90),8	3550,(2, 18),39	3589,(2, 69),21	3610,(5, 24),8	3618,(5, 93),5	3623,(8, 51),1	3624,(1, 96),9	3633,(8, 63),1	3634,(1, 99),41	3675,(5, 78),7	3682,(8, 72),1	3683,(1, 102),3	3686,(8, 87),1	3687,(1, 108),16	3703,(1, 111),11	3714,(5, 96),4	3718,(8, 15),7	3725,(8, 96),1	3726,(1, 114),3	3729,(1, 120),4	3733,(4, 18),10	3743,(2, 78),20	3763,(5, 45),13	3776,(8, 27),2	3778,(8, 54),2	3780,(4, 30),1	3781,(2, 81),20	3801,(5, 102),14	3815,(8, 30),4	3819,(4, 39),57	3876,(8, 99),2	3878,(4, 51),604	4482,(8, 33),3	4485,(8, 69),3	4488,(8, 105),1	4489,(11, 15),2	4491,(4, 60),10	4501,(8, 24),11	4512,(8, 90),4	4516,(4, 63),2	4518,(11, 21),1	4519,(11, 27),3	4522,(11, 48),1	4523,(4, 69),1	4524,(11, 33),3	4527,(4, 75),17	4544,(11, 102),1	4545,(4, 78),1	4546,(8, 117),7	4553,(11, 42),8	4562,(4, 81),1	4563,(4, 84),1	4564,(5, 120),17	4581,(11, 18),15	4596,(4, 93),16	4612,(4, 96),6	4618,(11, 45),8	4627,(4, 102),3	4630,(11, 84),2	4632,(4, 111),42	4674,(11, 51),4	4678,(11, 90),3	4681,(11, 96),11	4692,(11, 99),3	4695,(11, 114),2	4698,(4, 114),4	4708,(4, 117),9	4717,(4, 120),4	4737,(7, 27),14	4751,(7, 30),9	4761,(7, 36),17	4779,(7, 39),1	4780,(2, 60),85	4865,(5, 69),37	4902,(5, 90),41	4943,(5, 111),72	5015,(5, 114),42	5057,(8, 45),56	5113,(8, 93),58	5171,(8, 114),79	5250,(11, 39),31	5301,(7, 48),1	5302,(7, 51),6	5308,(11, 63),26	5337,(7, 54),1	5339,(7, 57),3	5345,(7, 63),1	5350,(7, 66),39	5391,(7, 78),1	5394,(7, 81),1	5395,(7, 84),1	5396,(7, 87),6	5402,(7, 93),3	5405,(7, 96),1	5419,(7, 99),3	5428,(7, 102),3	5442,(7, 105),1	5443,(11, 54),35	5478,(11, 66),22	5500,(11, 120),22	5593,(7, 114),4	5598,(10, 15),10	5634,(10, 18),1	5658,(10, 21),1	5659,(10, 24),5	5664,(10, 27),1	5665,(10, 30),14	5679,(10, 33),16	5707,(10, 36),1	5709,(10, 39),39	5749,(10, 45),33	5854,(10, 48),5	5864,(10, 51),10	5895,(10, 57),17	5912,(10, 63),3	5927,(10, 69),1	5928,(10, 72),53	5993,(10, 81),3	6004,(10, 87),8	6027,(10, 90),2	6073,(10, 93),14	6088,(10, 96),5	6093,(10, 99),7	6100,(10, 102),25	6125,(11, 75),100	6255,(10, 105),3	6259,(10, 108),2	6276,(10, 117),8	6284,(10, 120),1	
1,(0, 2),5	11,(0, 5),5	16,(3, 14),4	20,(3, 23),1	21,(0, 8),5	26,(3, 17),5	31,(0, 11),5	36,(3, 41),1	37,(3, 65),2	39,(3, 68),1	40,(3, 83),1	41,(1, 14),9	50,(3, 29),15	65,(3, 62),7	72,(3, 71),18	90,(3, 86),1	91,(3, 95),4	95,(3, 101),4	99,(3, 104),4	103,(3, 110),1	104,(3, 113),1	105,(6, 20),21	126,(6, 23),1	127,(6, 29),8	135,(6, 53),1	136,(6, 56),2	138,(6, 74),1	139,(6, 113),2	141,(1, 17),11	152,(1, 20),1	153,(1, 23),6	159,(1, 26),2	161,(9, 20),2	163,(9, 50),1	164,(1, 29),1	165,(6, 68),6	171,(9, 65),1	172,(1, 32),6	178,(1, 35),8	186,(6, 14),43	229,(6, 26),17	246,(6, 47),16	262,(6, 86),14	276,(6, 98),5	281,(9, 71),1	432,(1, 47),4	438,(1, 50),1	440,(1, 53),1	442,(1, 59),1	443,(1, 62),2	597,(3, 119),117	714,(6, 62),35	749,(6, 77),26	775,(9, 86),1	892,(6, 59),66	987,(6, 83),24	1015,(6, 89),26	1318,(6, 107),5	1408,(6, 116),9	1417,(9, 32),39	1456,(9, 35),81	1537,(9, 38),8	1545,(9, 44),36	1581,(9, 59),22	1603,(9, 62),9	1612,(9, 68),43	1655,(9, 74),3	1658,(9, 83),2	1660,(9, 98),1	1661,(9, 101),5	1666,(9, 113),2	1668,(12, 17),1	1669,(12, 20),2	1671,(12, 23),1	1672,(12, 26),19	1691,(12, 32),1	1692,(12, 35),6	1698,(12, 47),2	1700,(12, 53),1	1701,(12, 80),1	1728,(9, 77),79	1981,(9, 119),77	2070,(12, 38),8	2083,(12, 41),13	2098,(12, 44),7	2117,(12, 56),3	2120,(12, 59),5	2158,(12, 77),60	2219,(12, 86),1	2221,(12, 89),1	2241,(12, 92),10	2251,(12, 98),7	2259,(12, 104),1	2262,(12, 107),8	2275,(12, 116),238	2513,(12, 119),4	3494,(1, 65),8	3518,(1, 71),9	3527,(1, 77),1	3530,(1, 83),7	3538,(1, 89),4	3550,(1, 92),12	3562,(1, 95),62	3633,(1, 98),1	3675,(1, 101),8	3686,(1, 107),1	3714,(1, 113),12	3743,(4, 23),12	3755,(4, 26),16	3771,(4, 29),9	3781,(4, 32),10	3791,(4, 38),28	3876,(4, 44),2	4482,(4, 53),1	4483,(4, 56),8	4501,(4, 62),15	4518,(4, 65),5	4524,(4, 74),3	4544,(4, 77),1	4546,(4, 80),16	4564,(4, 89),19	4583,(4, 92),13	4618,(4, 98),8	4626,(4, 101),1	4630,(4, 104),2	4674,(4, 113),24	4702,(4, 116),6	4721,(7, 14),10	4731,(7, 17),4	4735,(7, 20),1	4736,(7, 23),1	4760,(7, 35),1	4778,(7, 38),1	4780,(7, 44),404	5184,(7, 47),117	5308,(7, 53),29	5338,(7, 56),1	5342,(7, 59),3	5346,(7, 65),4	5389,(7, 71),1	5390,(7, 74),1	5392,(7, 80),2	5406,(7, 98),13	5422,(7, 101),6	5431,(7, 104),11	5443,(7, 107),53	5496,(7, 110),57	5553,(7, 113),40	5597,(7, 116),1	5608,(10, 17),26	5635,(10, 20),23	5695,(10, 35),12	5708,(10, 38),1	5748,(10, 41),1	5782,(10, 47),72	5859,(10, 50),5	5874,(10, 53),16	5890,(10, 56),5	5915,(10, 65),3	5918,(10, 68),9	5981,(10, 77),11	5992,(10, 80),1	5996,(10, 83),7	6003,(10, 86),1	6012,(10, 89),15	6029,(10, 92),44	6087,(10, 95),1	6125,(10, 104),130	6258,(10, 107),1	6261,(10, 110),7	6268,(10, 113),8	
7,(2, 13),4	11,(2, 19),5	16,(2, 22),6	22,(3, 37),1	23,(2, 25),1	24,(2, 28),1	25,(2, 31),8	33,(3, 31),2	35,(3, 61),1	36,(2, 61),3	39,(2, 64),2	41,(3, 40),2	43,(2, 37),10	53,(2, 40),40	93,(2, 43),36	129,(2, 73),12	141,(3, 16),7	148,(3, 46),10	158,(3, 73),1	159,(3, 76),1	160,(3, 82),1	161,(2, 76),8	169,(2, 112),3	172,(3, 79),3	175,(3, 88),2	177,(3, 91),1	178,(3, 115),1	179,(2, 79),52	231,(2, 82),13	244,(2, 97),32	276,(2, 115),6	282,(3, 22),14	296,(3, 25),46	342,(3, 43),24	366,(3, 49),19	385,(3, 55),22	407,(3, 58),44	451,(3, 70),49	500,(3, 103),3	503,(3, 106),89	592,(3, 109),5	597,(5, 13),7	604,(5, 16),1	605,(5, 19),8	613,(5, 22),1	614,(5, 34),17	631,(5, 49),70	701,(5, 52),5	706,(5, 58),5	711,(5, 61),27	738,(5, 70),1	739,(5, 73),5	744,(5, 82),6	750,(5, 88),14	764,(5, 100),1	765,(5, 103),11	776,(6, 16),5	781,(6, 22),3	784,(6, 25),6	790,(6, 34),13	803,(6, 43),67	870,(6, 46),21	891,(6, 49),1	892,(8, 16),5	897,(8, 22),1	898,(8, 25),23	921,(8, 40),1	922,(8, 43),5	927,(8, 49),4	931,(8, 55),15	946,(8, 70),3	949,(8, 85),1	950,(8, 106),2	952,(8, 115),2	954,(11, 16),1	955,(11, 22),2	957,(11, 34),1	958,(6, 64),11	969,(6, 67),10	979,(6, 73),1	980,(6, 76),2	982,(6, 82),5	987,(8, 112),19	1006,(11, 43),1	1007,(11, 49),4	1011,(6, 88),4	1015,(11, 28),9	1024,(11, 31),15	1039,(11, 52),2	1041,(6, 91),179	1220,(6, 97),9	1229,(6, 106),89	1318,(11, 64),1	1319,(11, 79),3	1322,(11, 85),1	1323,(6, 112),50	1373,(6, 115),35	1408,(8, 52),212	1620,(8, 82),30	1650,(8, 103),52	1702,(9, 13),1	1703,(9, 37),3	1706,(9, 40),12	1718,(9, 52),2	1720,(9, 55),5	1725,(9, 58),1	1726,(9, 76),2	1728,(11, 37),11	1739,(11, 40),9	1748,(11, 46),9	1757,(11, 58),11	1768,(11, 61),13	1781,(11, 76),10	1791,(11, 94),1	1792,(11, 100),2	1794,(11, 106),1	1795,(11, 112),4	1807,(9, 88),4	1811,(9, 91),6	1817,(9, 94),14	1831,(9, 100),1	1832,(9, 103),3	1835,(9, 109),1	1836,(9, 112),134	1970,(9, 118),11	1981,(11, 82),18	1999,(11, 115),16	2058,(12, 13),1	2059,(12, 19),2	2061,(12, 22),1	2062,(12, 28),4	2066,(12, 31),4	2078,(12, 40),5	2096,(12, 43),2	2105,(12, 46),1	2106,(12, 49),4	2110,(12, 55),7	2125,(12, 61),1	2126,(12, 64),8	2134,(12, 67),2	2136,(12, 70),22	2218,(12, 85),1	2220,(12, 88),1	2222,(12, 91),19	2258,(12, 103),1	2260,(12, 106),2	2270,(12, 109),4	2274,(12, 112),1	2518,(119, 121),1	3780,(26, 121),1	3819,(29, 121),1	3820,(32, 121),1	4517,(62, 121),1	4562,(42, 121),1	4732,(14, 121),1	4738,(23, 121),1	4866,(60, 121),1	5016,(111, 121),1	5281,(44, 121),1	5346,(59, 121),1	5391,(71, 121),1	5392,(74, 121),1	5393,(78, 121),1	5397,(84, 121),1	5420,(98, 121),1	5429,(101, 121),1	5479,(54, 121),1	5501,(66, 121),1	5598,(114, 121),1	5599,(116, 121),1	5609,(15, 121),1	5635,(17, 121),1	5636,(18, 121),1	5659,(20, 121),1	5660,(21, 121),1	5665,(24, 121),1	5666,(27, 121),1	5680,(30, 121),1	5696,(33, 121),1	5708,(35, 121),1	5709,(36, 121),1	5710,(38, 121),1	5749,(39, 121),1	5750,(41, 121),1	5783,(45, 121),1	5855,(47, 121),1	5860,(48, 121),1	5865,(50, 121),1	5875,(51, 121),1	5891,(53, 121),1	5896,(56, 121),1	5913,(57, 121),1	5916,(63, 121),1	5919,(65, 121),1	5928,(68, 121),1	5929,(69, 121),1	5982,(72, 121),1	5993,(77, 121),1	5994,(80, 121),1	5997,(81, 121),1	6004,(83, 121),1	6005,(86, 121),1	6013,(87, 121),1	6028,(89, 121),1	6030,(90, 121),1	6074,(92, 121),1	6088,(93, 121),1	6089,(95, 121),1	6094,(96, 121),1	6101,(99, 121),1	6126,(102, 121),1	6226,(75, 121),1	6256,(104, 121),1	6259,(105, 121),1	6260,(107, 121),1	6262,(108, 121),1	6269,(110, 121),1	6277,(113, 121),1	6285,(117, 121),1	6286,(120, 121),1	
# Outgoing
16,(3, 14),4	20,(3, 23),1	22,(3, 37),1	26,(3, 17),5	33,(3, 31),2	35,(3, 61),1	36,(3, 41),1	37,(3, 65),2	39,(3, 68),1	40,(3, 83),1	41,(3, 40),2	50,(3, 29),15	65,(3, 62),7	72,(3, 71),18	90,(3, 86),1	91,(3, 95),4	95,(3, 101),4	99,(3, 104),4	103,(3, 110),1	104,(3, 113),1	105,(6, 20),21	126,(6, 23),1	127,(6, 29),8	135,(6, 53),1	136,(6, 56),2	138,(6, 74),1	139,(6, 113),2	141,(3, 16),7	148,(3, 46),10	158,(3, 73),1	159,(3, 76),1	160,(3, 82),1	161,(9, 20),2	163,(9, 50),1	165,(6, 68),6	171,(9, 65),1	172,(3, 79),3	175,(3, 88),2	177,(3, 91),1	178,(3, 115),1	186,(6, 14),43	229,(6, 26),17	246,(6, 47),16	262,(6, 86),14	276,(6, 98),5	281,(9, 71),1	282,(3, 22),14	296,(3, 25),46	342,(3, 43),24	366,(3, 49),19	385,(3, 55),22	407,(3, 58),44	451,(3, 70),49	500,(3, 103),3	503,(3, 106),89	592,(3, 109),5	597,(3, 119),117	714,(6, 62),35	749,(6, 77),26	775,(9, 86),1	776,(6, 16),5	781,(6, 22),3	784,(6, 25),6	790,(6, 34),13	803,(6, 43),67	870,(6, 46),21	891,(6, 49),1	892,(6, 59),66	958,(6, 64),11	969,(6, 67),10	979,(6, 73),1	980,(6, 76),2	982,(6, 82),5	987,(6, 83),24	1011,(6, 88),4	1015,(6, 89),26	1041,(6, 91),179	1220,(6, 97),9	1229,(6, 106),89	1318,(6, 107),5	1323,(6, 112),50	1373,(6, 115),35	1408,(6, 116),9	1417,(9, 32),39	1456,(9, 35),81	1537,(9, 38),8	1545,(9, 44),36	1581,(9, 59),22	1603,(9, 62),9	1612,(9, 68),43	1655,(9, 74),3	1658,(9, 83),2	1660,(9, 98),1	1661,(9, 101),5	1666,(9, 113),2	1668,(12, 17),1	1669,(12, 20),2	1671,(12, 23),1	1672,(12, 26),19	1691,(12, 32),1	1692,(12, 35),6	1698,(12, 47),2	1700,(12, 53),1	1701,(12, 80),1	1702,(9, 13),1	1703,(9, 37),3	1706,(9, 40),12	1718,(9, 52),2	1720,(9, 55),5	1725,(9, 58),1	1726,(9, 76),2	1728,(9, 77),79	1807,(9, 88),4	1811,(9, 91),6	1817,(9, 94),14	1831,(9, 100),1	1832,(9, 103),3	1835,(9, 109),1	1836,(9, 112),134	1970,(9, 118),11	1981,(9, 119),77	2058,(12, 13),1	2059,(12, 19),2	2061,(12, 22),1	2062,(12, 28),4	2066,(12, 31),4	2070,(12, 38),8	2078,(12, 40),5	2083,(12, 41),13	2096,(12, 43),2	2098,(12, 44),7	2105,(12, 46),1	2106,(12, 49),4	2110,(12, 55),7	2117,(12, 56),3	2120,(12, 59),5	2125,(12, 61),1	2126,(12, 64),8	2134,(12, 67),2	2136,(12, 70),22	2158,(12, 77),60	2218,(12, 85),1	2219,(12, 86),1	2220,(12, 88),1	2221,(12, 89),1	2222,(12, 91),19	2241,(12, 92),10	2251,(12, 98),7	2258,(12, 103),1	2259,(12, 104),1	2260,(12, 106),2	2262,(12, 107),8	2270,(12, 109),4	2274,(12, 112),1	2275,(12, 116),238	2513,(12, 119),4	4562,(42, 121),1	4866,(60, 121),1	5016,(111, 121),1	5393,(78, 121),1	5397,(84, 121),1	5479,(54, 121),1	5501,(66, 121),1	5598,(114, 121),1	5609,(15, 121),1	5636,(18, 121),1	5660,(21, 121),1	5665,(24, 121),1	5666,(27, 121),1	5680,(30, 121),1	5696,(33, 121),1	5709,(36, 121),1	5749,(39, 121),1	5783,(45, 121),1	5860,(48, 121),1	5875,(51, 121),1	5913,(57, 121),1	5916,(63, 121),1	5929,(69, 121),1	5982,(72, 121),1	5997,(81, 121),1	6013,(87, 121),1	6030,(90, 121),1	6088,(93, 121),1	6094,(96, 121),1	6101,(99, 121),1	6126,(102, 121),1	6226,(75, 121),1	6259,(105, 121),1	6262,(108, 121),1	6285,(117, 121),1	6286,(120, 121),1	
7,(2, 13),4	11,(2, 19),5	16,(2, 22),6	22,(2, 24),1	23,(2, 25),1	24,(2, 28),1	25,(2, 31),8	33,(2, 33),3	36,(2, 61),3	39,(2, 64),2	41,(2, 36),2	43,(2, 37),10	53,(2, 40),40	93,(2, 43),36	129,(2, 73),12	141,(2, 21),12	153,(2, 39),5	158,(2, 54),3	161,(2, 76),8	169,(2, 112),3	172,(2, 51),4	176,(2, 75),3	179,(2, 79),52	231,(2, 82),13	244,(2, 97),32	276,(2, 115),6	432,(2, 99),1	433,(2, 105),1	434,(2, 114),1	435,(2, 120),1	438,(5, 81),1	440,(8, 39),1	442,(2, 117),3	597,(5, 13),7	604,(5, 16),1	605,(5, 19),8	613,(5, 22),1	614,(5, 34),17	631,(5, 49),70	701,(5, 52),5	706,(5, 58),5	711,(5, 61),27	738,(5, 70),1	739,(5, 73),5	744,(5, 82),6	750,(5, 88),14	764,(5, 100),1	765,(5, 103),11	892,(8, 16),5	897,(8, 22),1	898,(8, 25),23	921,(8, 40),1	922,(8, 43),5	927,(8, 49),4	931,(8, 55),15	946,(8, 70),3	949,(8, 85),1	950,(8, 106),2	952,(8, 115),2	954,(11, 16),1	955,(11, 22),2	957,(11, 34),1	987,(8, 112),19	1006,(11, 43),1	1007,(11, 49),4	1015,(11, 28),9	1024,(11, 31),15	1039,(11, 52),2	1318,(11, 64),1	1319,(11, 79),3	1322,(11, 85),1	1408,(8, 52),212	1620,(8, 82),30	1650,(8, 103),52	1728,(11, 37),11	1739,(11, 40),9	1748,(11, 46),9	1757,(11, 58),11	1768,(11, 61),13	1781,(11, 76),10	1791,(11, 94),1	1792,(11, 100),2	1794,(11, 106),1	1795,(11, 112),4	1981,(11, 82),18	1999,(11, 115),16	2518,(119, 121),1	3494,(5, 18),6	3500,(5, 99),2	3518,(5, 21),8	3526,(8, 21),2	3530,(5, 63),7	3538,(5, 75),4	3550,(2, 18),39	3589,(2, 69),21	3610,(5, 24),8	3618,(5, 93),5	3623,(8, 51),1	3633,(8, 63),1	3675,(5, 78),7	3682,(8, 72),1	3686,(8, 87),1	3714,(5, 96),4	3718,(8, 15),7	3725,(8, 96),1	3743,(2, 78),20	3763,(5, 45),13	3776,(8, 27),2	3778,(8, 54),2	3780,(26, 121),1	3781,(2, 81),20	3801,(5, 102),14	3815,(8, 30),4	3819,(29, 121),1	3820,(32, 121),1	3876,(8, 99),2	4482,(8, 33),3	4485,(8, 69),3	4488,(8, 105),1	4489,(11, 15),2	4501,(8, 24),11	4512,(8, 90),4	4517,(62, 121),1	4518,(11, 21),1	4519,(11, 27),3	4522,(11, 48),1	4524,(11, 33),3	4544,(11, 102),1	4546,(8, 117),7	4553,(11, 42),8	4564,(5, 120),17	4581,(11, 18),15	4618,(11, 45),8	4630,(11, 84),2	4674,(11, 51),4	4678,(11, 90),3	4681,(11, 96),11	4692,(11, 99),3	4695,(11, 114),2	4732,(14, 121),1	4738,(23, 121),1	4780,(2, 60),85	4865,(5, 69),37	4902,(5, 90),41	4943,(5, 111),72	5015,(5, 114),42	5057,(8, 45),56	5113,(8, 93),58	5171,(8, 114),79	5250,(11, 39),31	5281,(44, 121),1	5308,(11, 63),26	5346,(59, 121),1	5391,(71, 121),1	5392,(74, 121),1	5420,(98, 121),1	5429,(101, 121),1	5443,(11, 54),35	5478,(11, 66),22	5500,(11, 120),22	5599,(116, 121),1	5635,(17, 121),1	5659,(20, 121),1	5708,(35, 121),1	5710,(38, 121),1	5750,(41, 121),1	5855,(47, 121),1	5865,(50, 121),1	5891,(53, 121),1	5896,(56, 121),1	5919,(65, 121),1	5928,(68, 121),1	5993,(77, 121),1	5994,(80, 121),1	6004,(83, 121),1	6005,(86, 121),1	6028,(89, 121),1	6074,(92, 121),1	6089,(95, 121),1	6125,(11, 75),100	6256,(104, 121),1	6260,(107, 121),1	6269,(110, 121),1	6277,(113, 121),1	
1,(0, 2),5	6,(0, 3),5	11,(0, 5),5	16,(0, 6),5	21,(0, 8),5	26,(0, 9),5	31,(0, 11),5	36,(0, 12),5	41,(1, 14),9	50,(1, 15),91	141,(1, 17),11	152,(1, 20),1	153,(1, 23),6	159,(1, 26),2	161,(1, 27),3	164,(1, 29),1	165,(1, 30),7	172,(1, 32),6	178,(1, 35),8	186,(1, 36),227	413,(1, 39),17	430,(1, 42),1	431,(1, 45),1	432,(1, 47),4	436,(1, 48),2	438,(1, 50),1	439,(1, 51),1	440,(1, 53),1	441,(1, 54),1	442,(1, 59),1	443,(1, 62),2	445,(1, 63),3049	3494,(1, 65),8	3502,(1, 69),16	3518,(1, 71),9	3527,(1, 77),1	3528,(1, 78),2	3530,(1, 83),7	3537,(1, 87),1	3538,(1, 89),4	3542,(1, 90),8	3550,(1, 92),12	3562,(1, 95),62	3624,(1, 96),9	3633,(1, 98),1	3634,(1, 99),41	3675,(1, 101),8	3683,(1, 102),3	3686,(1, 107),1	3687,(1, 108),16	3703,(1, 111),11	3714,(1, 113),12	3726,(1, 114),3	3729,(1, 120),4	3733,(4, 18),10	3743,(4, 23),12	3755,(4, 26),16	3771,(4, 29),9	3780,(4, 30),1	3781,(4, 32),10	3791,(4, 38),28	3819,(4, 39),57	3876,(4, 44),2	3878,(4, 51),604	4482,(4, 53),1	4483,(4, 56),8	4491,(4, 60),10	4501,(4, 62),15	4516,(4, 63),2	4518,(4, 65),5	4523,(4, 69),1	4524,(4, 74),3	4527,(4, 75),17	4544,(4, 77),1	4545,(4, 78),1	4546,(4, 80),16	4562,(4, 81),1	4563,(4, 84),1	4564,(4, 89),19	4583,(4, 92),13	4596,(4, 93),16	4612,(4, 96),6	4618,(4, 98),8	4626,(4, 101),1	4627,(4, 102),3	4630,(4, 104),2	4632,(4, 111),42	4674,(4, 113),24	4698,(4, 114),4	4702,(4, 116),6	4708,(4, 117),9	4717,(4, 120),4	4721,(7, 14),10	4731,(7, 17),4	4735,(7, 20),1	4736,(7, 23),1	4737,(7, 27),14	4751,(7, 30),9	4760,(7, 35),1	4761,(7, 36),17	4778,(7, 38),1	4779,(7, 39),1	4780,(7, 44),404	5184,(7, 47),117	5301,(7, 48),1	5302,(7, 51),6	5308,(7, 53),29	5337,(7, 54),1	5338,(7, 56),1	5339,(7, 57),3	5342,(7, 59),3	5345,(7, 63),1	5346,(7, 65),4	5350,(7, 66),39	5389,(7, 71),1	5390,(7, 74),1	5391,(7, 78),1	5392,(7, 80),2	5394,(7, 81),1	5395,(7, 84),1	5396,(7, 87),6	5402,(7, 93),3	5405,(7, 96),1	5406,(7, 98),13	5419,(7, 99),3	5422,(7, 101),6	5428,(7, 102),3	5431,(7, 104),11	5442,(7, 105),1	5443,(7, 107),53	5496,(7, 110),57	5553,(7, 113),40	5593,(7, 114),4	5597,(7, 116),1	5598,(10, 15),10	5608,(10, 17),26	5634,(10, 18),1	5635,(10, 20),23	5658,(10, 21),1	5659,(10, 24),5	5664,(10, 27),1	5665,(10, 30),14	5679,(10, 33),16	5695,(10, 35),12	5707,(10, 36),1	5708,(10, 38),1	5709,(10, 39),39	5748,(10, 41),1	5749,(10, 45),33	5782,(10, 47),72	5854,(10, 48),5	5859,(10, 50),5	5864,(10, 51),10	5874,(10, 53),16	5890,(10, 56),5	5895,(10, 57),17	5912,(10, 63),3	5915,(10, 65),3	5918,(10, 68),9	5927,(10, 69),1	5928,(10, 72),53	5981,(10, 77),11	5992,(10, 80),1	5993,(10, 81),3	5996,(10, 83),7	6003,(10, 86),1	6004,(10, 87),8	6012,(10, 89),15	6027,(10, 90),2	6029,(10, 92),44	6073,(10, 93),14	6087,(10, 95),1	6088,(10, 96),5	6093,(10, 99),7	6100,(10, 102),25	6125,(10, 104),130	6255,(10, 105),3	6258,(10, 107),1	6259,(10, 108),2	6261,(10, 110),7	6268,(10, 113),8	6276,(10, 117),8	6284,(10, 120),1	
