2340
# CPU
0,0,1	1,16,1	2,13,1	3,15,1	4,20,1	5,14,1	6,3,1	7,106,1	8,95,1	9,195,1	10,132,1	11,120,1	12,69,1	13,46,1	14,77,1	15,70,1	16,59,1	17,58,1	18,54,1	19,149,1	20,114,1	21,109,1	22,127,1	23,162,1	24,96,1	25,87,1	26,145,1	27,82,1	28,64,1	29,62,1	30,160,1	31,94,1	32,138,1	33,36,1	34,51,1	35,68,1	36,169,1	37,130,1	38,150,1	88,144,1	125,24,1	181,153,1	189,26,1	501,141,1	563,79,1	581,102,1	697,110,1	749,34,1	1313,84,1	1357,99,1	1725,78,1	1735,142,1	1737,156,1	1747,158,1	1849,187,1	1857,63,1	1893,73,1	1945,175,1	1995,66,1	2043,100,1	2055,165,1	2073,37,1	2213,43,1	2215,121,1	2231,182,1	2247,176,1	2249,181,1	2339,201,1	
9,1,1	10,21,1	11,52,1	12,134,1	13,168,1	14,67,1	15,28,1	16,41,1	17,193,1	18,2,1	19,115,1	20,157,1	25,4,1	26,33,1	27,133,1	28,199,1	29,140,1	30,74,1	31,92,1	32,131,1	41,6,1	42,25,1	43,75,1	44,172,1	45,174,1	46,93,1	47,27,1	48,56,1	49,183,1	73,10,1	74,22,1	75,191,1	76,105,1	77,136,1	105,18,1	106,104,1	107,107,1	108,122,1	109,184,1	110,194,1	111,135,1	112,179,1	113,19,1	114,50,1	115,166,1	116,57,1	117,119,1	118,128,1	119,146,1	120,72,1	121,39,1	127,98,1	139,113,1	141,126,1	161,163,1	183,151,1	565,190,1	575,170,1	583,81,1	585,171,1	587,80,1	591,186,1	597,29,1	599,65,1	601,129,1	603,173,1	609,197,1	
33,5,1	34,147,1	35,164,1	36,189,1	49,7,1	50,44,1	51,60,1	52,85,1	53,103,1	54,71,1	55,125,1	56,192,1	57,196,1	58,178,1	59,185,1	60,8,1	61,42,1	62,49,1	63,88,1	64,101,1	65,200,1	66,124,1	67,177,1	68,9,1	69,38,1	70,47,1	72,53,1	81,11,1	82,112,1	83,118,1	84,155,1	89,12,1	90,30,1	91,35,1	92,45,1	93,48,1	94,180,1	95,123,1	96,152,1	97,17,1	98,32,1	99,111,1	100,188,1	101,198,1	102,137,1	103,116,1	115,23,1	119,61,1	155,139,1	163,167,1	169,83,1	177,97,1	181,148,1	185,159,1	193,91,1	201,76,1	207,154,1	417,89,1	419,90,1	423,117,1	425,161,1	427,31,1	433,55,1	443,86,1	447,108,1	449,143,1	455,40,1	
# Incoming
10,(1, 34),58	72,(1, 78),4	76,(1, 144),12	88,(21, 201),2	90,(52, 201),2	92,(134, 201),2	94,(168, 201),2	99,(67, 201),2	101,(28, 201),2	103,(41, 201),2	105,(193, 201),2	107,(2, 24),18	125,(2, 99),30	155,(2, 102),24	179,(2, 153),2	181,(115, 201),2	183,(157, 201),2	185,(4, 26),4	189,(4, 187),4	193,(33, 201),2	195,(133, 201),2	197,(199, 201),2	207,(4, 165),44	251,(4, 182),156	407,(140, 201),2	409,(74, 201),2	411,(92, 201),2	413,(131, 201),2	415,(5, 100),22	437,(5, 141),64	501,(5, 175),24	525,(5, 187),36	561,(6, 79),2	563,(25, 201),2	565,(147, 201),2	567,(164, 201),2	569,(189, 201),2	571,(6, 102),10	581,(6, 142),52	633,(6, 181),4	637,(75, 201),2	639,(172, 201),2	641,(174, 201),2	643,(93, 201),2	645,(27, 201),2	647,(56, 201),2	649,(7, 43),6	655,(7, 110),42	697,(7, 165),4	701,(7, 175),6	707,(183, 201),2	709,(44, 201),2	711,(60, 201),2	713,(85, 201),2	715,(103, 201),2	717,(71, 201),2	719,(125, 201),2	721,(192, 201),2	723,(196, 201),2	725,(178, 201),2	727,(185, 201),2	729,(8, 34),20	749,(8, 66),42	791,(8, 73),376	1167,(8, 78),144	1311,(8, 84),2	1313,(8, 99),44	1357,(8, 158),24	1381,(42, 201),2	1383,(49, 201),2	1385,(88, 201),2	1387,(101, 201),2	1389,(200, 201),2	1391,(124, 201),2	1393,(177, 201),2	1395,(38, 201),2	1397,(47, 201),2	1399,(53, 201),2	1401,(22, 201),2	1403,(191, 201),2	1405,(105, 201),2	1407,(136, 201),2	1409,(11, 78),316	1725,(11, 142),10	1735,(11, 156),2	1737,(11, 158),10	1747,(11, 187),102	1849,(112, 201),2	1851,(118, 201),2	1853,(155, 201),2	1855,(12, 63),2	1857,(12, 73),36	1893,(12, 175),52	1945,(12, 176),12	1957,(30, 201),2	1959,(35, 201),2	1961,(45, 201),2	1963,(48, 201),2	1965,(180, 201),2	1967,(123, 201),2	1969,(152, 201),2	1971,(17, 66),24	1995,(17, 100),48	2043,(17, 165),12	2055,(32, 201),2	2057,(111, 201),2	2059,(188, 201),2	2061,(198, 201),2	2063,(137, 201),2	2065,(116, 201),2	2067,(18, 37),6	2073,(18, 43),140	2213,(18, 121),2	2215,(18, 182),16	2231,(104, 201),2	2233,(107, 201),2	2235,(122, 201),2	2237,(184, 201),2	2239,(194, 201),2	2241,(135, 201),2	2243,(179, 201),2	2245,(19, 176),2	2247,(19, 181),2	2249,(50, 201),2	2251,(166, 201),2	2253,(23, 201),2	2255,(57, 201),2	2257,(119, 201),2	2259,(128, 201),2	2261,(146, 201),2	2263,(61, 201),2	2265,(72, 201),2	2267,(39, 201),2	2269,(98, 201),2	2271,(113, 201),2	2273,(126, 201),2	2275,(139, 201),2	2277,(163, 201),2	2279,(167, 201),2	2281,(83, 201),2	2283,(97, 201),2	2285,(148, 201),2	2287,(151, 201),2	2289,(159, 201),2	2291,(91, 201),2	2293,(76, 201),2	2295,(154, 201),2	2297,(89, 201),2	2299,(90, 201),2	2301,(117, 201),2	2303,(161, 201),2	2305,(31, 201),2	2307,(55, 201),2	2309,(86, 201),2	2311,(108, 201),2	2313,(143, 201),2	2315,(40, 201),2	2317,(190, 201),2	2319,(170, 201),2	2321,(81, 201),2	2323,(171, 201),2	2325,(80, 201),2	2327,(186, 201),2	2329,(29, 201),2	2331,(65, 201),2	2333,(129, 201),2	2335,(173, 201),2	2337,(197, 201),2	
1,(0, 1),8	9,(0, 2),8	17,(0, 4),8	33,(0, 6),8	65,(0, 10),8	97,(0, 18),8	105,(0, 19),8	115,(16, 39),2	119,(16, 98),8	129,(16, 113),10	139,(16, 126),2	155,(16, 163),6	181,(13, 151),2	199,(14, 197),2	201,(3, 190),2	561,(5, 190),4	571,(7, 170),4	575,(8, 81),8	583,(9, 171),2	585,(11, 80),2	587,(11, 186),4	591,(12, 29),6	597,(12, 65),2	599,(12, 129),2	601,(12, 173),2	603,(12, 197),6	
25,(0, 5),8	41,(0, 7),8	49,(0, 8),8	57,(0, 9),8	68,(1, 53),4	73,(0, 11),8	81,(0, 12),8	89,(0, 17),8	97,(1, 116),2	113,(16, 23),2	117,(16, 61),2	127,(16, 108),2	141,(16, 139),14	161,(16, 167),2	163,(13, 83),6	169,(13, 97),8	177,(13, 148),4	183,(13, 159),2	185,(15, 91),8	193,(20, 55),6	199,(4, 76),2	201,(4, 154),6	415,(6, 89),2	417,(6, 90),2	419,(6, 117),4	423,(10, 161),2	425,(18, 31),2	427,(18, 55),6	433,(18, 86),10	443,(18, 108),4	447,(18, 143),2	449,(19, 40),6	
# Outgoing
1,(0, 1),8	9,(0, 2),8	17,(0, 4),8	25,(0, 5),8	33,(0, 6),8	41,(0, 7),8	49,(0, 8),8	57,(0, 9),8	65,(0, 10),8	73,(0, 11),8	81,(0, 12),8	89,(0, 17),8	97,(0, 18),8	105,(0, 19),8	113,(16, 23),2	115,(16, 39),2	117,(16, 61),2	119,(16, 98),8	127,(16, 108),2	129,(16, 113),10	139,(16, 126),2	141,(16, 139),14	155,(16, 163),6	161,(16, 167),2	163,(13, 83),6	169,(13, 97),8	177,(13, 148),4	181,(13, 151),2	183,(13, 159),2	185,(15, 91),8	193,(20, 55),6	199,(14, 197),2	201,(3, 190),2	
10,(1, 34),58	68,(1, 53),4	72,(1, 78),4	76,(1, 144),12	88,(21, 201),2	90,(52, 201),2	92,(134, 201),2	94,(168, 201),2	97,(1, 116),2	99,(67, 201),2	101,(28, 201),2	103,(41, 201),2	105,(193, 201),2	107,(2, 24),18	125,(2, 99),30	155,(2, 102),24	179,(2, 153),2	181,(115, 201),2	183,(157, 201),2	185,(4, 26),4	189,(4, 187),4	193,(33, 201),2	195,(133, 201),2	197,(199, 201),2	199,(4, 76),2	201,(4, 154),6	207,(4, 165),44	251,(4, 182),156	407,(140, 201),2	409,(74, 201),2	411,(92, 201),2	413,(131, 201),2	415,(6, 89),2	417,(6, 90),2	419,(6, 117),4	423,(10, 161),2	425,(18, 31),2	427,(18, 55),6	433,(18, 86),10	443,(18, 108),4	447,(18, 143),2	449,(19, 40),6	561,(6, 79),2	563,(25, 201),2	571,(6, 102),10	581,(6, 142),52	633,(6, 181),4	637,(75, 201),2	639,(172, 201),2	641,(174, 201),2	643,(93, 201),2	645,(27, 201),2	647,(56, 201),2	707,(183, 201),2	1401,(22, 201),2	1403,(191, 201),2	1405,(105, 201),2	1407,(136, 201),2	2067,(18, 37),6	2073,(18, 43),140	2213,(18, 121),2	2215,(18, 182),16	2231,(104, 201),2	2233,(107, 201),2	2235,(122, 201),2	2237,(184, 201),2	2239,(194, 201),2	2241,(135, 201),2	2243,(179, 201),2	2245,(19, 176),2	2247,(19, 181),2	2249,(50, 201),2	2251,(166, 201),2	2255,(57, 201),2	2257,(119, 201),2	2259,(128, 201),2	2261,(146, 201),2	2265,(72, 201),2	2267,(39, 201),2	2269,(98, 201),2	2271,(113, 201),2	2273,(126, 201),2	2277,(163, 201),2	2287,(151, 201),2	2317,(190, 201),2	2319,(170, 201),2	2321,(81, 201),2	2323,(171, 201),2	2325,(80, 201),2	2327,(186, 201),2	2329,(29, 201),2	2331,(65, 201),2	2333,(129, 201),2	2335,(173, 201),2	2337,(197, 201),2	
415,(5, 100),22	437,(5, 141),64	501,(5, 175),24	525,(5, 187),36	561,(5, 190),4	565,(147, 201),2	567,(164, 201),2	569,(189, 201),2	571,(7, 170),4	575,(8, 81),8	583,(9, 171),2	585,(11, 80),2	587,(11, 186),4	591,(12, 29),6	597,(12, 65),2	599,(12, 129),2	601,(12, 173),2	603,(12, 197),6	649,(7, 43),6	655,(7, 110),42	697,(7, 165),4	701,(7, 175),6	709,(44, 201),2	711,(60, 201),2	713,(85, 201),2	715,(103, 201),2	717,(71, 201),2	719,(125, 201),2	721,(192, 201),2	723,(196, 201),2	725,(178, 201),2	727,(185, 201),2	729,(8, 34),20	749,(8, 66),42	791,(8, 73),376	1167,(8, 78),144	1311,(8, 84),2	1313,(8, 99),44	1357,(8, 158),24	1381,(42, 201),2	1383,(49, 201),2	1385,(88, 201),2	1387,(101, 201),2	1389,(200, 201),2	1391,(124, 201),2	1393,(177, 201),2	1395,(38, 201),2	1397,(47, 201),2	1399,(53, 201),2	1409,(11, 78),316	1725,(11, 142),10	1735,(11, 156),2	1737,(11, 158),10	1747,(11, 187),102	1849,(112, 201),2	1851,(118, 201),2	1853,(155, 201),2	1855,(12, 63),2	1857,(12, 73),36	1893,(12, 175),52	1945,(12, 176),12	1957,(30, 201),2	1959,(35, 201),2	1961,(45, 201),2	1963,(48, 201),2	1965,(180, 201),2	1967,(123, 201),2	1969,(152, 201),2	1971,(17, 66),24	1995,(17, 100),48	2043,(17, 165),12	2055,(32, 201),2	2057,(111, 201),2	2059,(188, 201),2	2061,(198, 201),2	2063,(137, 201),2	2065,(116, 201),2	2253,(23, 201),2	2263,(61, 201),2	2275,(139, 201),2	2279,(167, 201),2	2281,(83, 201),2	2283,(97, 201),2	2285,(148, 201),2	2289,(159, 201),2	2291,(91, 201),2	2293,(76, 201),2	2295,(154, 201),2	2297,(89, 201),2	2299,(90, 201),2	2301,(117, 201),2	2303,(161, 201),2	2305,(31, 201),2	2307,(55, 201),2	2309,(86, 201),2	2311,(108, 201),2	2313,(143, 201),2	2315,(40, 201),2	
