631
# CPU
0,121,1	1,87,2	3,120,2	5,99,2	7,108,2	9,110,2	11,109,2	13,36,2	15,47,2	17,15,2	19,77,2	21,81,2	23,86,2	25,25,2	27,69,2	29,113,2	31,57,2	33,23,2	35,51,2	37,67,2	39,90,2	41,38,2	43,49,2	45,97,2	47,68,2	49,89,2	51,60,2	53,79,2	55,26,2	57,88,2	59,82,2	61,115,2	63,34,2	65,116,2	67,28,2	69,29,2	71,75,2	73,118,2	75,16,2	77,106,2	79,84,2	81,107,2	83,43,2	85,53,2	87,19,2	89,104,2	91,39,2	93,80,2	95,56,2	97,63,2	99,54,2	101,73,2	103,22,2	105,40,2	107,72,2	109,27,2	111,24,2	113,32,2	115,14,2	117,55,2	119,62,2	121,92,2	123,31,2	125,17,2	127,117,2	129,114,2	131,18,2	133,44,2	135,102,2	137,111,2	139,103,2	141,65,2	143,58,2	145,91,2	147,96,2	149,64,2	151,70,2	153,20,2	155,119,2	157,37,2	159,71,2	161,21,2	163,83,2	165,8,2	167,1,2	169,2,2	171,11,2	178,12,2	202,5,2	255,9,2	329,7,2	408,4,2	516,6,2	628,3,2	630,0,1	
13,105,2	25,93,2	31,52,2	43,66,2	55,76,2	67,78,2	79,33,2	85,74,2	97,50,2	109,35,2	133,85,2	145,42,2	151,45,2	157,30,2	429,10,2	
7,94,2	73,46,2	103,13,2	
19,48,2	37,61,2	49,101,2	61,41,2	91,100,2	115,112,2	121,95,2	127,59,2	139,98,2	
# Incoming
9,(94, 1),1	10,(94, 9),1	75,(46, 9),5	87,(74, 2),10	97,(52, 11),1	98,(76, 11),4	102,(50, 11),12	114,(93, 12),1	115,(52, 12),1	116,(13, 12),4	120,(50, 9),1	121,(13, 9),2	123,(95, 1),6	129,(61, 2),3	132,(112, 2),3	135,(95, 2),3	138,(85, 11),5	143,(101, 12),5	148,(100, 12),1	149,(105, 7),1	150,(93, 7),1	151,(76, 7),2	153,(45, 12),1	154,(66, 5),5	159,(30, 11),4	163,(98, 12),15	178,(112, 5),18	196,(45, 5),6	202,(78, 9),6	208,(33, 9),9	217,(100, 9),10	227,(35, 9),16	243,(85, 9),12	255,(33, 7),2	257,(100, 7),1	258,(59, 7),26	284,(98, 7),40	324,(30, 7),5	329,(48, 4),1	330,(93, 4),2	332,(66, 4),1	333,(76, 4),1	334,(50, 4),1	335,(35, 4),5	340,(95, 4),21	361,(59, 4),7	368,(85, 4),32	400,(30, 4),8	408,(52, 6),3	411,(100, 6),11	422,(13, 6),4	426,(35, 6),11	437,(112, 6),3	440,(59, 6),9	449,(42, 6),61	510,(30, 6),6	516,(10, 0),1	517,(105, 3),1	518,(76, 3),6	524,(41, 3),6	530,(78, 3),1	531,(100, 3),5	536,(13, 3),14	550,(35, 3),1	551,(112, 3),6	557,(45, 3),71	
7,(121, 105),6	19,(121, 93),6	25,(121, 52),6	37,(121, 66),6	49,(121, 76),6	61,(121, 78),6	73,(121, 33),6	79,(121, 74),6	91,(121, 50),6	103,(121, 35),6	127,(121, 85),6	138,(41, 10),1	139,(121, 42),6	145,(121, 45),6	151,(121, 30),6	157,(47, 10),1	158,(57, 10),3	161,(67, 10),3	164,(49, 10),4	168,(68, 10),5	173,(46, 10),8	181,(80, 10),3	184,(63, 10),12	196,(54, 10),12	208,(112, 10),1	209,(55, 10),19	228,(31, 10),3	231,(44, 10),31	262,(102, 10),33	295,(65, 10),41	336,(21, 10),1	337,(83, 10),24	368,(98, 10),27	395,(58, 10),34	
1,(121, 94),6	67,(121, 46),6	97,(121, 13),6	
13,(121, 48),6	31,(121, 61),6	43,(121, 101),6	55,(121, 41),6	85,(121, 100),6	109,(121, 112),6	115,(121, 95),6	121,(121, 59),6	133,(121, 98),6	
# Outgoing
1,(121, 94),6	7,(121, 105),6	13,(121, 48),6	19,(121, 93),6	25,(121, 52),6	31,(121, 61),6	37,(121, 66),6	43,(121, 101),6	49,(121, 76),6	55,(121, 41),6	61,(121, 78),6	67,(121, 46),6	73,(121, 33),6	79,(121, 74),6	85,(121, 100),6	91,(121, 50),6	97,(121, 13),6	103,(121, 35),6	109,(121, 112),6	115,(121, 95),6	121,(121, 59),6	127,(121, 85),6	133,(121, 98),6	139,(121, 42),6	145,(121, 45),6	151,(121, 30),6	157,(47, 10),1	158,(57, 10),3	161,(67, 10),3	164,(49, 10),4	168,(68, 10),5	181,(80, 10),3	184,(63, 10),12	196,(54, 10),12	209,(55, 10),19	228,(31, 10),3	231,(44, 10),31	262,(102, 10),33	295,(65, 10),41	336,(21, 10),1	337,(83, 10),24	395,(58, 10),34	
87,(74, 2),10	97,(52, 11),1	98,(76, 11),4	102,(50, 11),12	114,(93, 12),1	115,(52, 12),1	120,(50, 9),1	138,(85, 11),5	149,(105, 7),1	150,(93, 7),1	151,(76, 7),2	153,(45, 12),1	154,(66, 5),5	159,(30, 11),4	196,(45, 5),6	202,(78, 9),6	208,(33, 9),9	227,(35, 9),16	243,(85, 9),12	255,(33, 7),2	324,(30, 7),5	330,(93, 4),2	332,(66, 4),1	333,(76, 4),1	334,(50, 4),1	335,(35, 4),5	368,(85, 4),32	400,(30, 4),8	408,(52, 6),3	426,(35, 6),11	449,(42, 6),61	510,(30, 6),6	516,(10, 0),1	517,(105, 3),1	518,(76, 3),6	530,(78, 3),1	550,(35, 3),1	557,(45, 3),71	
9,(94, 1),1	10,(94, 9),1	75,(46, 9),5	116,(13, 12),4	121,(13, 9),2	173,(46, 10),8	422,(13, 6),4	536,(13, 3),14	
123,(95, 1),6	129,(61, 2),3	132,(112, 2),3	135,(95, 2),3	138,(41, 10),1	143,(101, 12),5	148,(100, 12),1	163,(98, 12),15	178,(112, 5),18	208,(112, 10),1	217,(100, 9),10	257,(100, 7),1	258,(59, 7),26	284,(98, 7),40	329,(48, 4),1	340,(95, 4),21	361,(59, 4),7	368,(98, 10),27	411,(100, 6),11	437,(112, 6),3	440,(59, 6),9	524,(41, 3),6	531,(100, 3),5	551,(112, 3),6	
