12899
# CPU
4204,14,1	4321,19,1	4363,50,1	4606,20,1	4717,60,1	4741,47,1	4924,86,1	4972,107,1	6688,88,1	7270,67,1	7333,93,1	7885,36,1	8812,39,1	9082,43,1	9178,85,1	9208,95,1	10414,114,1	10438,15,1	10522,32,1	10834,74,1	10933,76,1	10975,89,1	11362,99,1	11551,23,1	11593,33,1	11611,45,1	11842,77,1	11863,96,1	11914,119,1	11944,42,1	11974,46,1	12004,53,1	12055,59,1	12109,62,1	12139,69,1	12232,75,1	12268,87,1	12304,91,1	12340,98,1	12535,108,1	12544,115,1	12898,121,1	
19,5,1	25,6,1	31,7,1	32,112,1	43,11,1	44,24,1	45,38,1	46,58,1	47,110,1	79,117,1	136,22,1	154,17,1	193,104,1	241,27,1	850,49,1	2731,102,1	2749,113,1	2857,44,1	3682,111,1	3904,120,1	3970,26,1	4063,37,1	4621,21,1	4708,52,1	4720,63,1	4723,70,1	4927,105,1	
0,0,1	1,8,1	2,3,1	3,4,1	4,10,1	5,80,1	50,13,1	94,79,1	100,30,1	184,106,1	235,25,1	271,64,1	289,68,1	295,40,1	298,56,1	301,97,1	304,103,1	325,118,1	337,34,1	352,54,1	355,28,1	358,31,1	364,35,1	370,55,1	382,73,1	391,72,1	394,109,1	
7,1,1	8,18,1	13,2,1	37,9,1	38,66,1	49,12,1	50,48,1	103,116,1	127,81,1	211,94,1	295,90,1	298,92,1	352,41,1	385,57,1	1000,51,1	2656,84,1	2962,65,1	3019,82,1	3913,16,1	3979,29,1	4198,61,1	4324,78,1	4360,100,1	4372,101,1	4741,71,1	4768,83,1	
# Incoming
49,(8, 14),54	103,(8, 15),48	151,(1, 50),3	154,(8, 19),54	208,(1, 53),3	211,(1, 85),6	217,(1, 93),3	220,(1, 115),6	226,(18, 121),6	232,(2, 14),3	235,(2, 19),3	238,(2, 74),3	241,(8, 33),165	406,(2, 23),9	415,(5, 14),3	418,(5, 107),3	421,(8, 39),24	445,(8, 42),45	490,(8, 43),6	496,(8, 47),348	844,(5, 43),6	850,(8, 50),147	997,(2, 39),12	1009,(6, 74),3	1012,(6, 91),3	1015,(8, 59),3	1018,(8, 60),186	1204,(7, 93),3	1207,(8, 67),1404	2611,(8, 69),18	2629,(8, 75),6	2635,(2, 115),15	2650,(7, 88),6	2656,(8, 86),36	2692,(8, 96),3	2695,(5, 20),30	2725,(5, 45),12	2737,(5, 96),12	2749,(8, 114),36	2785,(8, 119),3	2788,(3, 14),33	2821,(3, 20),12	2833,(9, 20),3	2836,(3, 32),3	2839,(3, 43),15	2854,(9, 59),3	2857,(3, 45),24	2881,(3, 46),33	2914,(9, 87),3	2917,(3, 59),42	2959,(9, 91),3	2962,(3, 67),12	2974,(3, 75),36	3010,(7, 77),9	3019,(3, 85),75	3094,(3, 88),3	3097,(3, 89),414	3511,(3, 91),27	3538,(3, 93),48	3586,(3, 96),30	3616,(5, 99),15	3631,(3, 107),39	3670,(7, 60),12	3682,(3, 115),174	3856,(3, 119),24	3880,(5, 46),21	3901,(7, 75),21	3922,(4, 23),45	3967,(7, 87),9	3976,(9, 107),3	3979,(4, 36),81	4060,(11, 32),3	4063,(4, 42),42	4105,(4, 43),42	4147,(7, 115),6	4153,(11, 53),3	4156,(4, 59),27	4183,(4, 60),12	4195,(112, 121),6	4201,(12, 14),3	4204,(4, 74),9	4213,(4, 76),69	4282,(4, 77),33	4315,(9, 19),6	4321,(12, 15),3	4324,(4, 85),3	4327,(4, 88),9	4336,(4, 89),3	4339,(4, 93),12	4351,(4, 95),3	4354,(9, 50),9	4363,(66, 121),6	4369,(12, 36),3	4372,(4, 107),9	4381,(4, 108),9	4390,(4, 119),147	4537,(10, 20),69	4606,(11, 36),12	4621,(10, 32),9	4630,(10, 33),3	4633,(10, 36),12	4645,(10, 45),45	4690,(10, 47),12	4702,(24, 121),6	4708,(10, 60),9	4717,(5, 47),24	4741,(10, 74),21	4762,(38, 121),6	4768,(10, 85),9	4777,(10, 88),75	4852,(10, 91),3	4855,(10, 93),42	4897,(10, 96),18	4915,(11, 86),9	4927,(10, 107),45	4972,(10, 108),33	5005,(10, 114),3	5008,(10, 115),12	5020,(10, 119),3	5023,(80, 121),6	5029,(1, 62),231	5260,(1, 89),207	5467,(1, 114),72	5539,(2, 36),57	5596,(2, 46),60	5656,(2, 53),165	5821,(2, 85),558	6379,(5, 32),159	6538,(5, 87),51	6589,(5, 88),99	6688,(5, 91),39	6727,(5, 108),30	6757,(5, 114),108	6865,(6, 33),255	7120,(6, 39),33	7153,(6, 45),33	7186,(6, 67),84	7270,(6, 93),63	7333,(6, 95),216	7549,(6, 99),63	7612,(6, 119),54	7666,(7, 15),180	7846,(7, 36),39	7885,(7, 39),927	8812,(7, 43),270	9082,(7, 74),57	9139,(7, 85),39	9178,(7, 95),30	9208,(7, 96),84	9292,(7, 98),1017	10309,(7, 114),105	10414,(9, 15),24	10438,(9, 32),84	10522,(9, 62),18	10540,(9, 74),294	10834,(9, 75),51	10885,(9, 76),48	10933,(9, 89),42	10975,(9, 98),348	11323,(9, 99),39	11362,(9, 115),135	11497,(11, 23),54	11551,(11, 33),42	11593,(11, 45),18	11611,(11, 62),21	11632,(11, 69),153	11785,(11, 77),57	11842,(11, 87),12	11854,(11, 96),9	11863,(11, 119),51	11914,(58, 121),6	11920,(110, 121),6	11926,(12, 42),18	11944,(12, 46),30	11974,(12, 53),30	12004,(12, 59),51	12055,(12, 62),54	12109,(12, 69),30	12139,(12, 75),93	12232,(12, 87),36	12268,(12, 91),36	12304,(12, 98),36	12340,(12, 108),195	12535,(12, 115),9	12544,(13, 121),6	12550,(48, 121),6	12556,(117, 121),6	12562,(79, 121),6	12568,(30, 121),6	12574,(116, 121),6	12580,(81, 121),6	12586,(22, 121),6	12592,(17, 121),6	12598,(106, 121),6	12604,(104, 121),6	12610,(94, 121),6	12616,(25, 121),6	12622,(27, 121),6	12628,(64, 121),6	12634,(68, 121),6	12640,(90, 121),6	12646,(40, 121),6	12652,(56, 121),6	12658,(92, 121),6	12664,(97, 121),6	12670,(103, 121),6	12676,(118, 121),6	12682,(34, 121),6	12688,(54, 121),6	12694,(41, 121),6	12700,(28, 121),6	12706,(31, 121),6	12712,(35, 121),6	12718,(55, 121),6	12724,(73, 121),6	12730,(57, 121),6	12736,(72, 121),6	12742,(109, 121),6	12748,(49, 121),6	12754,(51, 121),6	12760,(84, 121),6	12766,(102, 121),6	12772,(113, 121),6	12778,(44, 121),6	12784,(65, 121),6	12790,(82, 121),6	12796,(111, 121),6	12802,(120, 121),6	12808,(16, 121),6	12814,(26, 121),6	12820,(29, 121),6	12826,(37, 121),6	12832,(61, 121),6	12838,(78, 121),6	12844,(100, 121),6	12850,(101, 121),6	12856,(21, 121),6	12862,(52, 121),6	12868,(63, 121),6	12874,(70, 121),6	12880,(71, 121),6	12886,(83, 121),6	12892,(105, 121),6	
13,(0, 5),6	19,(0, 6),6	25,(0, 7),6	37,(0, 11),6	43,(1, 44),15	73,(1, 111),3	76,(1, 117),3	91,(2, 27),3	127,(2, 120),6	133,(9, 22),3	136,(9, 26),3	139,(9, 113),9	148,(12, 49),3	151,(8, 17),3	154,(9, 44),15	169,(9, 104),24	193,(12, 63),3	208,(8, 21),18	226,(8, 27),15	262,(9, 120),6	268,(12, 44),6	274,(12, 111),6	298,(12, 120),21	406,(8, 37),15	844,(8, 49),6	1000,(8, 52),15	1204,(8, 63),3	2716,(8, 102),15	2731,(8, 113),18	2833,(3, 26),3	2854,(3, 44),3	2914,(3, 52),3	3622,(3, 105),9	3670,(3, 111),12	3880,(3, 120),24	3913,(4, 21),9	3967,(4, 26),3	4060,(4, 37),3	4147,(4, 52),9	4198,(4, 70),6	4606,(10, 21),15	4702,(10, 52),6	4717,(10, 63),3	4720,(10, 70),3	4915,(10, 105),12	
8,(1, 35),12	20,(1, 56),21	41,(5, 13),9	50,(5, 25),3	58,(1, 64),6	64,(1, 103),9	79,(1, 118),3	82,(2, 25),9	91,(5, 79),3	94,(2, 30),6	100,(2, 35),3	103,(2, 72),24	127,(5, 54),6	133,(5, 56),6	139,(5, 72),12	151,(5, 103),6	157,(5, 106),27	184,(6, 25),9	193,(6, 55),3	196,(9, 25),6	202,(9, 56),3	205,(9, 73),3	211,(6, 118),18	229,(7, 25),6	235,(7, 28),6	241,(9, 28),21	268,(7, 64),3	271,(7, 68),18	289,(12, 35),3	292,(12, 40),3	295,(12, 56),3	298,(7, 97),3	301,(7, 103),3	304,(7, 118),21	325,(9, 34),12	337,(9, 54),15	352,(11, 28),3	355,(11, 31),3	358,(11, 35),6	364,(11, 55),6	370,(12, 73),12	385,(11, 72),6	391,(11, 109),3	
1,(0, 1),6	7,(0, 2),6	31,(0, 9),6	43,(0, 12),6	53,(5, 51),24	77,(5, 81),3	80,(5, 101),3	83,(6, 16),3	86,(6, 29),3	94,(5, 116),9	103,(6, 51),18	121,(6, 57),3	124,(6, 81),3	196,(6, 83),3	199,(6, 90),9	208,(6, 94),3	241,(7, 29),24	265,(7, 57),3	289,(7, 83),3	292,(7, 90),3	295,(7, 92),3	325,(11, 29),21	346,(11, 41),6	370,(11, 57),15	997,(8, 51),3	2635,(8, 78),9	2644,(8, 84),12	2695,(8, 100),21	2959,(3, 65),3	3010,(3, 82),9	3616,(3, 100),6	3904,(4, 16),9	3970,(4, 29),9	4195,(4, 61),3	4315,(4, 78),9	4354,(4, 100),6	4360,(4, 101),12	4723,(10, 71),18	4762,(10, 83),6	
# Outgoing

41,(5, 13),9	50,(5, 25),3	53,(5, 51),24	77,(5, 81),3	80,(5, 101),3	83,(6, 16),3	86,(6, 29),3	91,(5, 79),3	94,(5, 116),9	103,(6, 51),18	121,(6, 57),3	124,(6, 81),3	127,(5, 54),6	133,(5, 56),6	139,(5, 72),12	151,(5, 103),6	157,(5, 106),27	184,(6, 25),9	193,(6, 55),3	196,(6, 83),3	199,(6, 90),9	208,(6, 94),3	211,(6, 118),18	229,(7, 25),6	235,(7, 28),6	241,(7, 29),24	265,(7, 57),3	268,(7, 64),3	271,(7, 68),18	289,(7, 83),3	292,(7, 90),3	295,(7, 92),3	298,(7, 97),3	301,(7, 103),3	304,(7, 118),21	325,(11, 29),21	346,(11, 41),6	352,(11, 28),3	355,(11, 31),3	358,(11, 35),6	364,(11, 55),6	370,(11, 57),15	385,(11, 72),6	391,(11, 109),3	415,(5, 14),3	418,(5, 107),3	844,(5, 43),6	1009,(6, 74),3	1012,(6, 91),3	1204,(7, 93),3	2650,(7, 88),6	2695,(5, 20),30	2725,(5, 45),12	2737,(5, 96),12	3010,(7, 77),9	3616,(5, 99),15	3670,(7, 60),12	3880,(5, 46),21	3901,(7, 75),21	3967,(7, 87),9	4060,(11, 32),3	4147,(7, 115),6	4153,(11, 53),3	4195,(112, 121),6	4606,(11, 36),12	4702,(24, 121),6	4717,(5, 47),24	4762,(38, 121),6	4915,(11, 86),9	6379,(5, 32),159	6538,(5, 87),51	6589,(5, 88),99	6688,(5, 91),39	6727,(5, 108),30	6757,(5, 114),108	6865,(6, 33),255	7120,(6, 39),33	7153,(6, 45),33	7186,(6, 67),84	7270,(6, 93),63	7333,(6, 95),216	7549,(6, 99),63	7612,(6, 119),54	7666,(7, 15),180	7846,(7, 36),39	7885,(7, 39),927	8812,(7, 43),270	9082,(7, 74),57	9139,(7, 85),39	9178,(7, 95),30	9208,(7, 96),84	9292,(7, 98),1017	10309,(7, 114),105	11497,(11, 23),54	11551,(11, 33),42	11593,(11, 45),18	11611,(11, 62),21	11632,(11, 69),153	11785,(11, 77),57	11842,(11, 87),12	11854,(11, 96),9	11863,(11, 119),51	11914,(58, 121),6	11920,(110, 121),6	12556,(117, 121),6	12586,(22, 121),6	12592,(17, 121),6	12604,(104, 121),6	12622,(27, 121),6	12748,(49, 121),6	12766,(102, 121),6	12772,(113, 121),6	12778,(44, 121),6	12796,(111, 121),6	12802,(120, 121),6	12814,(26, 121),6	12826,(37, 121),6	12856,(21, 121),6	12862,(52, 121),6	12868,(63, 121),6	12874,(70, 121),6	12892,(105, 121),6	
1,(0, 1),6	7,(0, 2),6	13,(0, 5),6	19,(0, 6),6	25,(0, 7),6	31,(0, 9),6	37,(0, 11),6	43,(0, 12),6	49,(8, 14),54	103,(8, 15),48	151,(8, 17),3	154,(8, 19),54	208,(8, 21),18	226,(8, 27),15	241,(8, 33),165	406,(8, 37),15	421,(8, 39),24	445,(8, 42),45	490,(8, 43),6	496,(8, 47),348	844,(8, 49),6	850,(8, 50),147	997,(8, 51),3	1000,(8, 52),15	1015,(8, 59),3	1018,(8, 60),186	1204,(8, 63),3	1207,(8, 67),1404	2611,(8, 69),18	2629,(8, 75),6	2635,(8, 78),9	2644,(8, 84),12	2656,(8, 86),36	2692,(8, 96),3	2695,(8, 100),21	2716,(8, 102),15	2731,(8, 113),18	2749,(8, 114),36	2785,(8, 119),3	2788,(3, 14),33	2821,(3, 20),12	2833,(3, 26),3	2836,(3, 32),3	2839,(3, 43),15	2854,(3, 44),3	2857,(3, 45),24	2881,(3, 46),33	2914,(3, 52),3	2917,(3, 59),42	2959,(3, 65),3	2962,(3, 67),12	2974,(3, 75),36	3010,(3, 82),9	3019,(3, 85),75	3094,(3, 88),3	3097,(3, 89),414	3511,(3, 91),27	3538,(3, 93),48	3586,(3, 96),30	3616,(3, 100),6	3622,(3, 105),9	3631,(3, 107),39	3670,(3, 111),12	3682,(3, 115),174	3856,(3, 119),24	3880,(3, 120),24	3904,(4, 16),9	3913,(4, 21),9	3922,(4, 23),45	3967,(4, 26),3	3970,(4, 29),9	3979,(4, 36),81	4060,(4, 37),3	4063,(4, 42),42	4105,(4, 43),42	4147,(4, 52),9	4156,(4, 59),27	4183,(4, 60),12	4195,(4, 61),3	4198,(4, 70),6	4204,(4, 74),9	4213,(4, 76),69	4282,(4, 77),33	4315,(4, 78),9	4324,(4, 85),3	4327,(4, 88),9	4336,(4, 89),3	4339,(4, 93),12	4351,(4, 95),3	4354,(4, 100),6	4360,(4, 101),12	4372,(4, 107),9	4381,(4, 108),9	4390,(4, 119),147	4537,(10, 20),69	4606,(10, 21),15	4621,(10, 32),9	4630,(10, 33),3	4633,(10, 36),12	4645,(10, 45),45	4690,(10, 47),12	4702,(10, 52),6	4708,(10, 60),9	4717,(10, 63),3	4720,(10, 70),3	4723,(10, 71),18	4741,(10, 74),21	4762,(10, 83),6	4768,(10, 85),9	4777,(10, 88),75	4852,(10, 91),3	4855,(10, 93),42	4897,(10, 96),18	4915,(10, 105),12	4927,(10, 107),45	4972,(10, 108),33	5005,(10, 114),3	5008,(10, 115),12	5020,(10, 119),3	5023,(80, 121),6	12544,(13, 121),6	12562,(79, 121),6	12568,(30, 121),6	12598,(106, 121),6	12616,(25, 121),6	12628,(64, 121),6	12634,(68, 121),6	12646,(40, 121),6	12652,(56, 121),6	12664,(97, 121),6	12670,(103, 121),6	12676,(118, 121),6	12682,(34, 121),6	12688,(54, 121),6	12700,(28, 121),6	12706,(31, 121),6	12712,(35, 121),6	12718,(55, 121),6	12724,(73, 121),6	12736,(72, 121),6	12742,(109, 121),6	
8,(1, 35),12	20,(1, 56),21	43,(1, 44),15	58,(1, 64),6	64,(1, 103),9	73,(1, 111),3	76,(1, 117),3	79,(1, 118),3	82,(2, 25),9	91,(2, 27),3	94,(2, 30),6	100,(2, 35),3	103,(2, 72),24	127,(2, 120),6	133,(9, 22),3	136,(9, 26),3	139,(9, 113),9	148,(12, 49),3	151,(1, 50),3	154,(9, 44),15	169,(9, 104),24	193,(12, 63),3	196,(9, 25),6	202,(9, 56),3	205,(9, 73),3	208,(1, 53),3	211,(1, 85),6	217,(1, 93),3	220,(1, 115),6	226,(18, 121),6	232,(2, 14),3	235,(2, 19),3	238,(2, 74),3	241,(9, 28),21	262,(9, 120),6	268,(12, 44),6	274,(12, 111),6	289,(12, 35),3	292,(12, 40),3	295,(12, 56),3	298,(12, 120),21	325,(9, 34),12	337,(9, 54),15	370,(12, 73),12	406,(2, 23),9	997,(2, 39),12	2635,(2, 115),15	2833,(9, 20),3	2854,(9, 59),3	2914,(9, 87),3	2959,(9, 91),3	3976,(9, 107),3	4201,(12, 14),3	4315,(9, 19),6	4321,(12, 15),3	4354,(9, 50),9	4363,(66, 121),6	4369,(12, 36),3	5029,(1, 62),231	5260,(1, 89),207	5467,(1, 114),72	5539,(2, 36),57	5596,(2, 46),60	5656,(2, 53),165	5821,(2, 85),558	10414,(9, 15),24	10438,(9, 32),84	10522,(9, 62),18	10540,(9, 74),294	10834,(9, 75),51	10885,(9, 76),48	10933,(9, 89),42	10975,(9, 98),348	11323,(9, 99),39	11362,(9, 115),135	11926,(12, 42),18	11944,(12, 46),30	11974,(12, 53),30	12004,(12, 59),51	12055,(12, 62),54	12109,(12, 69),30	12139,(12, 75),93	12232,(12, 87),36	12268,(12, 91),36	12304,(12, 98),36	12340,(12, 108),195	12535,(12, 115),9	12550,(48, 121),6	12574,(116, 121),6	12580,(81, 121),6	12610,(94, 121),6	12640,(90, 121),6	12658,(92, 121),6	12694,(41, 121),6	12730,(57, 121),6	12754,(51, 121),6	12760,(84, 121),6	12784,(65, 121),6	12790,(82, 121),6	12808,(16, 121),6	12820,(29, 121),6	12832,(61, 121),6	12838,(78, 121),6	12844,(100, 121),6	12850,(101, 121),6	12880,(71, 121),6	12886,(83, 121),6	
