535
# CPU
251,34,10	291,39,10	301,24,10	311,9,10	321,14,10	331,19,10	341,29,10	
4,4,10	14,38,10	43,23,10	53,33,10	211,8,10	221,28,10	231,13,10	241,18,10	
3,3,10	20,12,10	44,7,10	60,17,10	70,22,10	80,37,10	230,27,10	240,32,10	
2,2,10	12,16,10	22,36,10	32,21,10	42,11,10	52,26,10	62,6,10	72,31,10	
0,0,1	1,1,10	11,5,10	223,15,10	233,20,10	243,40,10	253,35,10	263,30,10	273,25,10	283,10,10	534,41,1	
# Incoming
234,(2, 34),17	251,(2, 39),40	291,(3, 24),1	292,(4, 9),1	293,(4, 14),19	312,(4, 19),2	314,(4, 29),8	
3,(0, 4),1	18,(3, 18),2	20,(1, 13),5	25,(1, 23),18	43,(1, 33),1	44,(2, 8),167	211,(3, 28),1	222,(2, 13),5	227,(2, 18),2	
2,(0, 3),1	11,(1, 7),7	18,(1, 12),2	41,(4, 7),3	44,(4, 17),16	60,(4, 22),1	62,(4, 37),16	229,(2, 27),1	233,(2, 32),1	
1,(0, 2),1	13,(3, 11),5	20,(3, 26),15	35,(4, 6),6	61,(4, 31),1	
211,(2, 10),11	222,(3, 15),1	223,(3, 20),2	225,(3, 40),1	226,(4, 35),1	230,(2, 30),3	233,(3, 25),18	251,(4, 10),30	281,(38, 41),9	291,(16, 41),9	300,(12, 41),9	309,(36, 41),9	318,(21, 41),9	327,(11, 41),9	336,(23, 41),9	345,(7, 41),9	354,(26, 41),9	363,(33, 41),9	372,(17, 41),9	381,(6, 41),9	390,(22, 41),9	399,(31, 41),9	408,(37, 41),9	417,(8, 41),9	426,(28, 41),9	435,(27, 41),9	444,(13, 41),9	453,(32, 41),9	462,(18, 41),9	471,(34, 41),9	480,(39, 41),9	489,(24, 41),9	498,(9, 41),9	507,(14, 41),9	516,(19, 41),9	525,(29, 41),9	
# Outgoing
471,(34, 41),9	480,(39, 41),9	489,(24, 41),9	498,(9, 41),9	507,(14, 41),9	516,(19, 41),9	525,(29, 41),9	
35,(4, 6),6	41,(4, 7),3	44,(4, 17),16	60,(4, 22),1	61,(4, 31),1	62,(4, 37),16	226,(4, 35),1	251,(4, 10),30	281,(38, 41),9	292,(4, 9),1	293,(4, 14),19	312,(4, 19),2	314,(4, 29),8	336,(23, 41),9	363,(33, 41),9	417,(8, 41),9	426,(28, 41),9	444,(13, 41),9	462,(18, 41),9	
13,(3, 11),5	18,(3, 18),2	20,(3, 26),15	211,(3, 28),1	222,(3, 15),1	223,(3, 20),2	225,(3, 40),1	233,(3, 25),18	291,(3, 24),1	300,(12, 41),9	345,(7, 41),9	372,(17, 41),9	390,(22, 41),9	408,(37, 41),9	435,(27, 41),9	453,(32, 41),9	
44,(2, 8),167	211,(2, 10),11	222,(2, 13),5	227,(2, 18),2	229,(2, 27),1	230,(2, 30),3	233,(2, 32),1	234,(2, 34),17	251,(2, 39),40	291,(16, 41),9	309,(36, 41),9	318,(21, 41),9	327,(11, 41),9	354,(26, 41),9	381,(6, 41),9	399,(31, 41),9	
1,(0, 2),1	2,(0, 3),1	3,(0, 4),1	11,(1, 7),7	18,(1, 12),2	20,(1, 13),5	25,(1, 23),18	43,(1, 33),1	
