258
# CPU
0,81,1	1,67,1	2,52,1	3,62,1	4,44,1	5,36,1	6,35,1	7,65,1	8,54,1	9,68,1	10,26,1	11,61,1	12,73,1	13,18,1	14,63,1	15,37,1	16,33,1	17,66,1	18,74,1	19,19,1	20,69,1	21,40,1	22,53,1	23,41,1	24,70,1	25,55,1	26,15,1	27,20,1	28,60,1	29,38,1	30,42,1	31,21,1	32,31,1	33,28,1	34,51,1	35,12,1	36,75,1	37,78,1	38,71,1	39,45,1	40,14,1	41,32,1	42,49,1	43,56,1	44,79,1	45,57,1	46,30,1	47,10,1	48,39,1	49,17,1	50,24,1	51,64,1	52,11,1	53,16,1	54,23,1	55,27,1	56,77,1	57,76,1	58,46,1	59,47,1	60,59,1	61,48,1	62,2,1	63,50,1	64,34,1	65,80,1	66,9,1	67,25,1	68,22,1	69,29,1	70,7,1	71,72,1	72,4,1	73,8,1	80,6,1	96,3,1	130,1,1	256,5,1	257,0,1	
23,13,1	45,43,1	67,58,1	
# Incoming
24,(13, 8),8	32,(13, 5),2	68,(58, 6),12	80,(58, 3),16	96,(43, 1),34	130,(58, 5),126	
1,(81, 13),22	23,(81, 43),22	45,(81, 58),22	
# Outgoing
1,(81, 13),22	23,(81, 43),22	45,(81, 58),22	
24,(13, 8),8	32,(13, 5),2	68,(58, 6),12	80,(58, 3),16	96,(43, 1),34	130,(58, 5),126	
