245
# CPU
0,0,1	1,7,3	4,42,3	7,47,3	10,13,3	13,14,3	16,33,3	19,65,3	22,3,3	25,36,3	28,9,3	31,68,3	34,69,3	37,53,3	40,24,3	43,41,3	46,76,3	49,40,3	52,80,3	55,43,3	58,20,3	61,44,3	64,60,3	244,81,1	
17,4,3	20,17,3	23,27,3	26,18,3	29,51,3	32,49,3	36,22,3	68,75,3	
9,1,3	12,28,3	15,12,3	18,55,3	25,8,3	28,79,3	31,77,3	34,10,3	37,58,3	40,72,3	43,15,3	46,38,3	49,45,3	52,64,3	55,56,3	58,62,3	61,19,3	64,78,3	67,26,3	
28,30,3	32,34,3	
29,21,3	


21,5,3	24,61,3	27,63,3	30,67,3	33,32,3	36,31,3	40,66,3	
13,6,3	16,59,3	19,70,3	22,73,3	25,25,3	28,74,3	31,39,3	34,23,3	37,11,3	45,71,3	176,16,3	
5,2,3	8,37,3	11,46,3	14,48,3	17,54,3	20,29,3	23,35,3	26,50,3	33,52,3	57,57,3	
# Incoming
25,(2, 44),4	29,(17, 81),4	33,(37, 81),4	40,(1, 60),4	44,(46, 81),4	48,(28, 81),4	52,(48, 81),4	56,(12, 81),4	60,(59, 81),4	64,(54, 81),4	68,(55, 81),4	72,(70, 81),4	76,(29, 81),4	80,(73, 81),4	84,(27, 81),4	88,(35, 81),4	92,(25, 81),4	96,(18, 81),4	100,(50, 81),4	104,(79, 81),4	108,(74, 81),4	112,(30, 81),4	116,(51, 81),4	120,(21, 81),4	124,(77, 81),4	128,(39, 81),4	132,(49, 81),4	136,(34, 81),4	140,(52, 81),4	144,(10, 81),4	148,(23, 81),4	152,(22, 81),4	156,(58, 81),4	160,(11, 81),4	164,(72, 81),4	168,(15, 81),4	172,(71, 81),4	176,(61, 81),4	180,(63, 81),4	184,(67, 81),4	188,(32, 81),4	192,(31, 81),4	196,(66, 81),4	200,(38, 81),4	204,(45, 81),4	208,(64, 81),4	212,(56, 81),4	216,(57, 81),4	220,(62, 81),4	224,(19, 81),4	228,(78, 81),4	232,(26, 81),4	236,(75, 81),4	240,(16, 81),4	
13,(0, 4),4	32,(1, 22),4	36,(5, 75),32	
5,(0, 1),4	21,(0, 8),4	25,(6, 26),16	
16,(6, 30),8	24,(4, 30),4	28,(8, 34),4	
25,(3, 21),4	


17,(0, 5),4	21,(2, 66),4	36,(8, 66),4	
9,(0, 6),4	29,(2, 16),4	33,(7, 11),4	37,(3, 71),8	68,(5, 16),108	
1,(0, 2),4	29,(3, 52),4	45,(7, 57),12	
# Outgoing
1,(0, 2),4	5,(0, 1),4	9,(0, 6),4	13,(0, 4),4	17,(0, 5),4	21,(0, 8),4	25,(3, 21),4	29,(3, 52),4	33,(7, 11),4	37,(3, 71),8	45,(7, 57),12	
24,(4, 30),4	29,(17, 81),4	84,(27, 81),4	96,(18, 81),4	116,(51, 81),4	132,(49, 81),4	152,(22, 81),4	236,(75, 81),4	
28,(8, 34),4	32,(1, 22),4	36,(8, 66),4	40,(1, 60),4	48,(28, 81),4	56,(12, 81),4	68,(55, 81),4	104,(79, 81),4	124,(77, 81),4	144,(10, 81),4	156,(58, 81),4	164,(72, 81),4	168,(15, 81),4	200,(38, 81),4	204,(45, 81),4	208,(64, 81),4	212,(56, 81),4	220,(62, 81),4	224,(19, 81),4	228,(78, 81),4	232,(26, 81),4	
112,(30, 81),4	136,(34, 81),4	
120,(21, 81),4	


36,(5, 75),32	68,(5, 16),108	176,(61, 81),4	180,(63, 81),4	184,(67, 81),4	188,(32, 81),4	192,(31, 81),4	196,(66, 81),4	
16,(6, 30),8	25,(6, 26),16	60,(59, 81),4	72,(70, 81),4	80,(73, 81),4	92,(25, 81),4	108,(74, 81),4	128,(39, 81),4	148,(23, 81),4	160,(11, 81),4	172,(71, 81),4	240,(16, 81),4	
21,(2, 66),4	25,(2, 44),4	29,(2, 16),4	33,(37, 81),4	44,(46, 81),4	52,(48, 81),4	64,(54, 81),4	76,(29, 81),4	88,(35, 81),4	100,(50, 81),4	140,(52, 81),4	216,(57, 81),4	
