604
# CPU
0,0,1	1,20,8	9,137,8	17,14,8	25,188,8	33,9,8	41,40,8	49,116,8	57,19,8	65,21,8	73,17,8	81,53,8	89,10,8	97,194,8	105,42,8	113,32,8	121,46,8	129,111,8	137,130,8	145,72,8	153,127,8	161,91,8	169,187,8	177,177,8	185,78,8	193,115,8	201,167,8	209,73,8	217,47,8	225,112,8	233,50,8	241,131,8	249,65,8	257,31,8	265,118,8	273,152,8	281,172,8	289,146,8	297,24,8	305,61,8	313,48,8	321,166,8	329,76,8	337,45,8	345,128,8	353,29,8	361,87,8	369,141,8	377,44,8	385,104,8	393,70,8	406,193,8	437,186,8	480,97,8	
3,2,8	11,74,8	19,185,8	27,6,8	35,41,8	43,184,8	51,77,8	59,4,8	67,134,8	75,168,8	83,195,8	91,8,8	99,182,8	107,178,8	115,129,8	123,92,8	131,12,8	139,197,8	147,136,8	155,83,8	163,117,8	171,30,8	179,126,8	187,71,8	195,84,8	203,180,8	211,119,8	219,157,8	227,176,8	235,95,8	243,80,8	251,122,8	259,51,8	267,199,8	275,183,8	283,148,8	291,60,8	299,69,8	307,75,8	315,90,8	323,190,8	331,114,8	339,164,8	347,169,8	355,153,8	363,62,8	371,181,8	379,99,8	387,198,8	395,165,8	409,103,8	445,55,8	588,88,8	
4,18,8	12,120,8	20,36,8	28,3,8	36,89,8	44,5,8	52,175,8	60,28,8	68,15,8	76,132,8	84,135,8	92,101,8	100,34,8	108,11,8	116,150,8	124,43,8	132,38,8	140,173,8	148,179,8	156,147,8	164,133,8	172,49,8	180,67,8	188,154,8	196,196,8	204,23,8	212,26,8	220,96,8	228,109,8	236,22,8	244,86,8	252,125,8	260,52,8	268,110,8	276,161,8	284,171,8	292,56,8	300,107,8	308,82,8	316,85,8	324,108,8	332,156,8	340,191,8	348,155,8	356,163,8	364,100,8	603,201,1	
2,13,8	10,124,8	18,123,8	26,66,8	34,37,8	42,16,8	50,192,8	58,25,8	66,162,8	74,1,8	82,149,8	90,58,8	98,68,8	106,57,8	114,144,8	122,59,8	130,7,8	138,160,8	146,93,8	154,143,8	162,113,8	170,189,8	178,64,8	186,159,8	194,39,8	202,27,8	210,81,8	218,35,8	226,139,8	234,79,8	242,94,8	250,174,8	258,102,8	266,200,8	274,54,8	282,145,8	290,121,8	298,140,8	306,33,8	314,105,8	322,98,8	330,170,8	338,63,8	346,142,8	354,106,8	362,151,8	370,158,8	594,138,8	
# Incoming
36,(2, 72),1	39,(3, 177),1	40,(2, 78),1	41,(18, 115),1	42,(18, 47),1	43,(18, 172),1	45,(2, 118),5	50,(2, 172),1	51,(6, 24),1	55,(5, 73),1	57,(5, 50),3	60,(5, 131),4	64,(6, 45),1	67,(4, 73),2	69,(2, 166),5	82,(5, 44),1	84,(13, 91),1	85,(16, 187),1	87,(1, 78),1	88,(2, 141),6	94,(13, 47),1	95,(1, 47),1	96,(18, 146),5	101,(8, 167),1	102,(8, 65),4	106,(8, 146),3	109,(15, 24),7	117,(11, 167),1	118,(11, 112),3	121,(13, 31),4	125,(16, 128),1	127,(13, 193),1	128,(11, 152),6	139,(12, 127),1	140,(7, 115),1	144,(3, 45),3	147,(11, 45),2	149,(11, 128),1	150,(12, 172),5	155,(18, 61),9	164,(7, 48),9	173,(7, 166),2	175,(16, 76),4	179,(1, 128),3	185,(12, 166),3	188,(12, 76),6	194,(12, 45),4	198,(13, 29),3	211,(11, 44),1	212,(15, 193),2	214,(6, 128),7	221,(4, 29),10	231,(11, 141),14	245,(18, 44),6	251,(1, 44),14	267,(8, 87),10	277,(12, 87),5	282,(13, 104),29	311,(5, 193),4	315,(11, 186),2	317,(5, 97),1	331,(8, 44),4	335,(12, 70),1	336,(2, 186),9	346,(3, 70),32	378,(6, 193),28	406,(4, 186),31	437,(15, 97),12	449,(7, 97),25	474,(12, 97),6	
2,(0, 2),1	4,(0, 6),1	8,(0, 4),1	9,(20, 77),1	12,(18, 185),1	13,(0, 8),1	14,(18, 92),1	15,(18, 122),1	16,(0, 12),1	17,(18, 90),7	24,(18, 153),6	30,(18, 165),1	36,(3, 184),1	37,(3, 178),1	44,(3, 114),1	48,(14, 183),6	56,(5, 119),1	64,(5, 190),1	65,(5, 169),1	70,(3, 199),5	82,(17, 129),1	83,(5, 198),1	86,(16, 30),1	87,(17, 169),1	88,(13, 71),1	89,(17, 180),2	92,(13, 84),2	94,(17, 153),2	96,(16, 157),3	99,(1, 95),2	101,(10, 80),1	104,(1, 80),3	107,(17, 122),3	110,(10, 148),6	119,(20, 60),6	125,(11, 51),3	128,(1, 69),7	135,(1, 164),3	138,(7, 126),1	139,(7, 71),1	141,(7, 119),1	142,(7, 176),3	145,(7, 95),2	149,(7, 51),2	151,(19, 190),6	157,(16, 114),7	164,(3, 75),7	171,(9, 153),5	176,(10, 62),3	182,(13, 169),6	188,(16, 169),2	190,(1, 62),5	198,(11, 164),6	204,(18, 62),7	211,(13, 181),13	224,(7, 181),6	230,(7, 99),4	234,(13, 103),6	251,(11, 165),1	252,(15, 103),16	268,(11, 103),3	321,(17, 99),16	337,(9, 198),23	360,(20, 165),18	378,(10, 165),4	382,(17, 103),20	402,(10, 103),7	409,(20, 55),7	416,(17, 55),29	445,(9, 88),20	474,(16, 88),114	
3,(0, 18),1	5,(0, 3),1	7,(0, 5),1	11,(0, 15),1	14,(0, 11),1	20,(20, 22),2	22,(137, 201),1	27,(14, 132),1	28,(14, 196),3	33,(188, 201),1	35,(6, 89),1	37,(6, 147),1	38,(2, 67),2	41,(9, 133),1	42,(9, 23),1	43,(9, 26),3	47,(9, 52),1	52,(2, 82),1	53,(6, 156),11	64,(9, 163),1	65,(2, 163),1	66,(19, 23),1	67,(40, 201),1	68,(116, 201),1	74,(14, 161),5	79,(4, 156),1	80,(74, 201),1	81,(17, 34),1	82,(1, 135),1	83,(1, 101),1	84,(17, 179),1	85,(17, 67),1	86,(185, 201),1	87,(41, 201),1	88,(21, 201),1	89,(1, 154),3	92,(53, 201),1	94,(184, 201),1	95,(77, 201),1	96,(134, 201),1	97,(168, 201),1	98,(10, 96),3	101,(1, 109),3	104,(10, 100),1	105,(194, 201),1	107,(16, 86),3	110,(13, 125),4	114,(13, 52),4	118,(8, 110),2	120,(1, 56),1	121,(8, 56),5	126,(1, 107),1	127,(4, 85),10	137,(195, 201),1	138,(182, 201),1	139,(42, 201),1	140,(12, 133),1	141,(12, 49),3	144,(32, 201),1	145,(46, 201),1	146,(12, 23),1	147,(7, 22),1	148,(7, 125),1	149,(12, 161),1	150,(111, 201),1	151,(7, 110),3	154,(124, 201),1	155,(12, 171),6	161,(12, 107),6	167,(130, 201),1	168,(72, 201),1	169,(127, 201),1	170,(91, 201),1	176,(12, 82),9	185,(17, 108),12	197,(123, 201),1	198,(6, 191),16	231,(10, 155),20	251,(187, 201),1	252,(177, 201),1	253,(4, 163),14	267,(66, 201),1	268,(37, 201),1	269,(192, 201),1	270,(25, 201),1	271,(162, 201),1	272,(149, 201),1	273,(58, 201),1	274,(68, 201),1	275,(10, 163),8	283,(6, 100),8	291,(4, 100),40	331,(57, 201),1	332,(144, 201),1	333,(59, 201),1	334,(160, 201),1	335,(93, 201),1	336,(143, 201),1	337,(113, 201),1	338,(189, 201),1	339,(64, 201),1	340,(159, 201),1	341,(39, 201),1	342,(27, 201),1	343,(81, 201),1	344,(35, 201),1	345,(178, 201),1	346,(139, 201),1	347,(79, 201),1	348,(94, 201),1	349,(174, 201),1	350,(102, 201),1	351,(200, 201),1	352,(54, 201),1	353,(145, 201),1	354,(121, 201),1	355,(140, 201),1	356,(33, 201),1	357,(105, 201),1	358,(98, 201),1	359,(170, 201),1	360,(129, 201),1	361,(92, 201),1	362,(197, 201),1	363,(136, 201),1	364,(83, 201),1	365,(117, 201),1	366,(30, 201),1	367,(126, 201),1	368,(71, 201),1	369,(84, 201),1	370,(180, 201),1	371,(119, 201),1	372,(157, 201),1	373,(176, 201),1	374,(95, 201),1	375,(80, 201),1	376,(122, 201),1	377,(51, 201),1	378,(63, 201),1	379,(142, 201),1	380,(106, 201),1	381,(151, 201),1	382,(158, 201),1	437,(199, 201),1	438,(183, 201),1	439,(148, 201),1	440,(60, 201),1	441,(69, 201),1	442,(75, 201),1	443,(90, 201),1	444,(190, 201),1	445,(114, 201),1	446,(164, 201),1	447,(169, 201),1	448,(153, 201),1	449,(62, 201),1	450,(181, 201),1	451,(99, 201),1	452,(198, 201),1	453,(165, 201),1	454,(103, 201),1	455,(55, 201),1	465,(78, 201),1	466,(115, 201),1	467,(167, 201),1	468,(73, 201),1	469,(47, 201),1	470,(112, 201),1	471,(50, 201),1	472,(131, 201),1	473,(65, 201),1	474,(31, 201),1	475,(118, 201),1	476,(152, 201),1	477,(172, 201),1	478,(146, 201),1	479,(24, 201),1	480,(61, 201),1	481,(48, 201),1	482,(166, 201),1	483,(76, 201),1	484,(45, 201),1	485,(128, 201),1	486,(29, 201),1	487,(87, 201),1	488,(141, 201),1	489,(44, 201),1	490,(104, 201),1	491,(70, 201),1	492,(193, 201),1	493,(186, 201),1	494,(97, 201),1	596,(88, 201),1	602,(138, 201),1	
1,(0, 13),1	6,(0, 16),1	10,(20, 25),1	12,(0, 1),1	13,(18, 63),1	15,(0, 7),1	16,(18, 106),1	17,(20, 139),3	25,(14, 66),1	26,(14, 37),1	31,(14, 81),1	32,(14, 33),1	38,(3, 113),1	40,(3, 81),1	41,(6, 27),2	43,(2, 79),2	45,(3, 79),1	46,(9, 35),1	47,(3, 102),2	52,(5, 143),1	53,(5, 159),1	54,(5, 39),1	55,(9, 200),7	65,(19, 162),1	66,(5, 94),4	70,(19, 54),4	75,(5, 151),1	76,(15, 189),2	78,(15, 39),1	79,(15, 35),1	80,(15, 33),1	81,(15, 98),1	83,(17, 35),1	84,(15, 174),6	90,(5, 54),4	97,(10, 144),1	99,(8, 93),1	100,(8, 159),1	101,(15, 121),8	109,(8, 170),4	113,(8, 142),1	116,(11, 59),1	117,(10, 121),2	121,(11, 102),4	125,(20, 145),8	134,(15, 140),8	142,(11, 140),2	144,(12, 64),2	147,(12, 79),1	148,(17, 158),2	157,(9, 138),7	167,(6, 33),9	176,(11, 105),11	187,(3, 98),11	198,(19, 170),13	211,(19, 63),20	231,(4, 142),22	253,(9, 106),22	283,(19, 151),38	321,(3, 158),25	346,(12, 158),14	449,(5, 138),141	590,(19, 138),4	
# Outgoing
1,(0, 13),1	2,(0, 2),1	3,(0, 18),1	4,(0, 6),1	5,(0, 3),1	6,(0, 16),1	7,(0, 5),1	8,(0, 4),1	9,(20, 77),1	10,(20, 25),1	11,(0, 15),1	12,(0, 1),1	13,(0, 8),1	14,(0, 11),1	15,(0, 7),1	16,(0, 12),1	17,(20, 139),3	20,(20, 22),2	22,(137, 201),1	25,(14, 66),1	26,(14, 37),1	27,(14, 132),1	28,(14, 196),3	31,(14, 81),1	32,(14, 33),1	33,(188, 201),1	41,(9, 133),1	42,(9, 23),1	43,(9, 26),3	46,(9, 35),1	47,(9, 52),1	48,(14, 183),6	55,(9, 200),7	64,(9, 163),1	65,(19, 162),1	66,(19, 23),1	67,(40, 201),1	68,(116, 201),1	70,(19, 54),4	74,(14, 161),5	81,(17, 34),1	82,(17, 129),1	83,(17, 35),1	84,(17, 179),1	85,(17, 67),1	87,(17, 169),1	88,(21, 201),1	89,(17, 180),2	92,(53, 201),1	94,(17, 153),2	97,(10, 144),1	98,(10, 96),3	101,(10, 80),1	104,(10, 100),1	105,(194, 201),1	107,(17, 122),3	110,(10, 148),6	117,(10, 121),2	119,(20, 60),6	125,(20, 145),8	139,(42, 201),1	144,(32, 201),1	145,(46, 201),1	148,(17, 158),2	150,(111, 201),1	151,(19, 190),6	157,(9, 138),7	167,(130, 201),1	168,(72, 201),1	169,(127, 201),1	170,(91, 201),1	171,(9, 153),5	176,(10, 62),3	185,(17, 108),12	198,(19, 170),13	211,(19, 63),20	231,(10, 155),20	251,(187, 201),1	252,(177, 201),1	253,(9, 106),22	275,(10, 163),8	283,(19, 151),38	321,(17, 99),16	337,(9, 198),23	360,(20, 165),18	378,(10, 165),4	382,(17, 103),20	402,(10, 103),7	409,(20, 55),7	416,(17, 55),29	445,(9, 88),20	465,(78, 201),1	466,(115, 201),1	467,(167, 201),1	468,(73, 201),1	469,(47, 201),1	470,(112, 201),1	471,(50, 201),1	472,(131, 201),1	473,(65, 201),1	474,(31, 201),1	475,(118, 201),1	476,(152, 201),1	477,(172, 201),1	478,(146, 201),1	479,(24, 201),1	480,(61, 201),1	481,(48, 201),1	482,(166, 201),1	483,(76, 201),1	484,(45, 201),1	485,(128, 201),1	486,(29, 201),1	487,(87, 201),1	488,(141, 201),1	489,(44, 201),1	490,(104, 201),1	491,(70, 201),1	492,(193, 201),1	493,(186, 201),1	494,(97, 201),1	590,(19, 138),4	
35,(6, 89),1	36,(2, 72),1	37,(6, 147),1	38,(2, 67),2	40,(2, 78),1	41,(6, 27),2	43,(2, 79),2	45,(2, 118),5	50,(2, 172),1	51,(6, 24),1	52,(2, 82),1	53,(6, 156),11	64,(6, 45),1	65,(2, 163),1	67,(4, 73),2	69,(2, 166),5	79,(4, 156),1	80,(74, 201),1	86,(185, 201),1	87,(41, 201),1	88,(2, 141),6	94,(184, 201),1	95,(77, 201),1	96,(134, 201),1	97,(168, 201),1	99,(8, 93),1	100,(8, 159),1	101,(8, 167),1	102,(8, 65),4	106,(8, 146),3	109,(8, 170),4	113,(8, 142),1	118,(8, 110),2	121,(8, 56),5	127,(4, 85),10	137,(195, 201),1	138,(182, 201),1	139,(12, 127),1	140,(12, 133),1	141,(12, 49),3	144,(12, 64),2	146,(12, 23),1	147,(12, 79),1	149,(12, 161),1	150,(12, 172),5	155,(12, 171),6	161,(12, 107),6	167,(6, 33),9	176,(12, 82),9	185,(12, 166),3	188,(12, 76),6	194,(12, 45),4	198,(6, 191),16	214,(6, 128),7	221,(4, 29),10	231,(4, 142),22	253,(4, 163),14	267,(8, 87),10	277,(12, 87),5	283,(6, 100),8	291,(4, 100),40	331,(8, 44),4	335,(12, 70),1	336,(2, 186),9	345,(178, 201),1	346,(12, 158),14	360,(129, 201),1	361,(92, 201),1	362,(197, 201),1	363,(136, 201),1	364,(83, 201),1	365,(117, 201),1	366,(30, 201),1	367,(126, 201),1	368,(71, 201),1	369,(84, 201),1	370,(180, 201),1	371,(119, 201),1	372,(157, 201),1	373,(176, 201),1	374,(95, 201),1	375,(80, 201),1	376,(122, 201),1	377,(51, 201),1	378,(6, 193),28	406,(4, 186),31	437,(199, 201),1	438,(183, 201),1	439,(148, 201),1	440,(60, 201),1	441,(69, 201),1	442,(75, 201),1	443,(90, 201),1	444,(190, 201),1	445,(114, 201),1	446,(164, 201),1	447,(169, 201),1	448,(153, 201),1	449,(62, 201),1	450,(181, 201),1	451,(99, 201),1	452,(198, 201),1	453,(165, 201),1	454,(103, 201),1	455,(55, 201),1	474,(12, 97),6	596,(88, 201),1	
12,(18, 185),1	13,(18, 63),1	14,(18, 92),1	15,(18, 122),1	16,(18, 106),1	17,(18, 90),7	24,(18, 153),6	30,(18, 165),1	36,(3, 184),1	37,(3, 178),1	38,(3, 113),1	39,(3, 177),1	40,(3, 81),1	41,(18, 115),1	42,(18, 47),1	43,(18, 172),1	44,(3, 114),1	45,(3, 79),1	47,(3, 102),2	52,(5, 143),1	53,(5, 159),1	54,(5, 39),1	55,(5, 73),1	56,(5, 119),1	57,(5, 50),3	60,(5, 131),4	64,(5, 190),1	65,(5, 169),1	66,(5, 94),4	70,(3, 199),5	75,(5, 151),1	76,(15, 189),2	78,(15, 39),1	79,(15, 35),1	80,(15, 33),1	81,(15, 98),1	82,(5, 44),1	83,(5, 198),1	84,(15, 174),6	90,(5, 54),4	96,(18, 146),5	101,(15, 121),8	109,(15, 24),7	116,(11, 59),1	117,(11, 167),1	118,(11, 112),3	121,(11, 102),4	125,(11, 51),3	128,(11, 152),6	134,(15, 140),8	142,(11, 140),2	144,(3, 45),3	147,(11, 45),2	149,(11, 128),1	155,(18, 61),9	164,(3, 75),7	176,(11, 105),11	187,(3, 98),11	198,(11, 164),6	204,(18, 62),7	211,(11, 44),1	212,(15, 193),2	231,(11, 141),14	245,(18, 44),6	251,(11, 165),1	252,(15, 103),16	268,(11, 103),3	311,(5, 193),4	315,(11, 186),2	317,(5, 97),1	321,(3, 158),25	346,(3, 70),32	437,(15, 97),12	449,(5, 138),141	
82,(1, 135),1	83,(1, 101),1	84,(13, 91),1	85,(16, 187),1	86,(16, 30),1	87,(1, 78),1	88,(13, 71),1	89,(1, 154),3	92,(13, 84),2	94,(13, 47),1	95,(1, 47),1	96,(16, 157),3	99,(1, 95),2	101,(1, 109),3	104,(1, 80),3	107,(16, 86),3	110,(13, 125),4	114,(13, 52),4	120,(1, 56),1	121,(13, 31),4	125,(16, 128),1	126,(1, 107),1	127,(13, 193),1	128,(1, 69),7	135,(1, 164),3	138,(7, 126),1	139,(7, 71),1	140,(7, 115),1	141,(7, 119),1	142,(7, 176),3	145,(7, 95),2	147,(7, 22),1	148,(7, 125),1	149,(7, 51),2	151,(7, 110),3	154,(124, 201),1	157,(16, 114),7	164,(7, 48),9	173,(7, 166),2	175,(16, 76),4	179,(1, 128),3	182,(13, 169),6	188,(16, 169),2	190,(1, 62),5	197,(123, 201),1	198,(13, 29),3	211,(13, 181),13	224,(7, 181),6	230,(7, 99),4	234,(13, 103),6	251,(1, 44),14	267,(66, 201),1	268,(37, 201),1	269,(192, 201),1	270,(25, 201),1	271,(162, 201),1	272,(149, 201),1	273,(58, 201),1	274,(68, 201),1	282,(13, 104),29	331,(57, 201),1	332,(144, 201),1	333,(59, 201),1	334,(160, 201),1	335,(93, 201),1	336,(143, 201),1	337,(113, 201),1	338,(189, 201),1	339,(64, 201),1	340,(159, 201),1	341,(39, 201),1	342,(27, 201),1	343,(81, 201),1	344,(35, 201),1	346,(139, 201),1	347,(79, 201),1	348,(94, 201),1	349,(174, 201),1	350,(102, 201),1	351,(200, 201),1	352,(54, 201),1	353,(145, 201),1	354,(121, 201),1	355,(140, 201),1	356,(33, 201),1	357,(105, 201),1	358,(98, 201),1	359,(170, 201),1	378,(63, 201),1	379,(142, 201),1	380,(106, 201),1	381,(151, 201),1	382,(158, 201),1	449,(7, 97),25	474,(16, 88),114	602,(138, 201),1	
