2298
# CPU
149,38,1	231,48,1	323,78,1	447,28,1	511,18,1	715,58,1	987,68,1	
245,37,1	351,77,1	445,27,1	517,67,1	573,57,1	643,47,1	921,17,1	
43,8,1	459,36,1	573,46,1	575,26,1	605,66,1	653,16,1	699,56,1	789,76,1	
37,7,1	38,35,1	119,15,1	253,55,1	299,65,1	445,25,1	495,45,1	997,75,1	
31,6,1	113,24,1	161,74,1	199,44,1	297,64,1	537,34,1	541,54,1	919,14,1	
25,5,1	121,23,1	151,33,1	197,43,1	241,73,1	539,53,1	703,63,1	903,13,1	
19,4,1	141,62,1	237,72,1	317,22,1	457,32,1	509,12,1	971,42,1	973,52,1	
13,3,1	14,41,1	129,11,1	145,31,1	223,51,1	473,21,1	515,61,1	819,71,1	
7,2,1	113,10,1	129,40,1	147,70,1	541,20,1	599,60,1	733,30,1	865,80,1	955,50,1	
0,0,1	1,1,1	339,69,1	461,19,1	601,29,1	671,49,1	895,9,1	959,39,1	985,59,1	999,79,1	2297,81,1	
# Incoming
121,(1, 28),12	133,(5, 38),2	139,(2, 38),10	149,(2, 48),82	303,(1, 78),20	325,(3, 18),4	445,(3, 28),2	495,(6, 58),12	509,(7, 18),2	573,(3, 58),16	589,(5, 58),126	985,(8, 68),2	
233,(1, 57),2	235,(2, 27),4	239,(2, 37),6	251,(1, 77),52	303,(4, 17),42	345,(5, 77),6	375,(4, 57),18	393,(5, 27),52	515,(7, 67),2	541,(3, 57),32	573,(6, 47),70	919,(8, 17),2	
37,(0, 8),6	231,(1, 56),2	241,(1, 76),10	453,(6, 36),2	457,(3, 36),2	459,(3, 46),48	507,(6, 46),66	573,(7, 26),2	599,(3, 66),6	605,(7, 16),48	671,(6, 56),28	733,(7, 76),56	
31,(0, 7),6	113,(5, 15),6	245,(2, 55),8	297,(2, 65),2	301,(2, 75),2	331,(3, 25),114	473,(6, 45),22	703,(6, 75),18	987,(8, 75),10	
25,(0, 6),6	45,(1, 14),26	71,(2, 24),42	129,(5, 44),2	131,(4, 34),2	151,(1, 34),4	155,(5, 74),6	197,(1, 44),2	253,(2, 64),44	445,(5, 34),92	539,(3, 54),2	903,(8, 14),16	
19,(0, 5),6	71,(1, 23),50	133,(4, 63),6	145,(1, 33),6	163,(1, 43),34	223,(1, 53),8	237,(1, 73),4	535,(3, 53),4	699,(6, 63),4	895,(8, 13),8	
13,(0, 4),6	113,(2, 32),26	139,(5, 62),2	155,(1, 42),8	235,(1, 72),2	237,(5, 22),80	455,(3, 32),2	493,(7, 12),16	959,(8, 42),12	971,(8, 52),2	
7,(0, 3),6	81,(4, 11),48	133,(1, 31),12	145,(5, 71),4	209,(1, 51),14	231,(2, 61),4	461,(6, 21),12	511,(7, 61),4	517,(7, 71),6	799,(6, 71),20	
1,(0, 2),6	43,(1, 10),2	45,(4, 10),36	81,(5, 10),32	119,(5, 20),2	121,(5, 40),8	129,(4, 30),2	139,(4, 70),8	199,(1, 50),10	445,(6, 20),8	507,(3, 50),28	535,(7, 20),6	589,(3, 60),10	605,(3, 80),94	699,(7, 30),34	819,(6, 80),46	865,(7, 50),90	
299,(2, 69),2	301,(3, 9),24	329,(3, 19),2	331,(5, 69),8	345,(4, 39),30	375,(5, 29),16	391,(6, 9),54	447,(3, 29),8	455,(6, 19),6	461,(7, 9),32	493,(10, 81),22	523,(7, 79),2	537,(5, 79),32	575,(7, 29),26	601,(40, 81),22	643,(6, 49),28	671,(35, 81),22	699,(41, 81),22	721,(6, 59),78	799,(8, 9),96	895,(24, 81),22	921,(8, 39),38	973,(8, 59),12	997,(8, 79),2	999,(15, 81),22	1021,(23, 81),22	1043,(11, 81),22	1065,(62, 81),22	1087,(31, 81),22	1109,(70, 81),22	1131,(38, 81),22	1153,(33, 81),22	1175,(74, 81),22	1197,(43, 81),22	1219,(44, 81),22	1241,(51, 81),22	1263,(48, 81),22	1285,(72, 81),22	1307,(73, 81),22	1329,(37, 81),22	1351,(55, 81),22	1373,(64, 81),22	1395,(65, 81),22	1417,(22, 81),22	1439,(78, 81),22	1461,(77, 81),22	1483,(25, 81),22	1505,(27, 81),22	1527,(28, 81),22	1549,(32, 81),22	1571,(36, 81),22	1593,(21, 81),22	1615,(45, 81),22	1637,(12, 81),22	1659,(18, 81),22	1681,(61, 81),22	1703,(67, 81),22	1725,(34, 81),22	1747,(53, 81),22	1769,(20, 81),22	1791,(54, 81),22	1813,(46, 81),22	1835,(57, 81),22	1857,(26, 81),22	1879,(60, 81),22	1901,(66, 81),22	1923,(47, 81),22	1945,(16, 81),22	1967,(56, 81),22	1989,(63, 81),22	2011,(58, 81),22	2033,(30, 81),22	2055,(76, 81),22	2077,(71, 81),22	2099,(80, 81),22	2121,(13, 81),22	2143,(14, 81),22	2165,(17, 81),22	2187,(50, 81),22	2209,(42, 81),22	2231,(52, 81),22	2253,(68, 81),22	2275,(75, 81),22	
# Outgoing
1131,(38, 81),22	1263,(48, 81),22	1439,(78, 81),22	1527,(28, 81),22	1659,(18, 81),22	2011,(58, 81),22	2253,(68, 81),22	
1329,(37, 81),22	1461,(77, 81),22	1505,(27, 81),22	1703,(67, 81),22	1835,(57, 81),22	1923,(47, 81),22	2165,(17, 81),22	
799,(8, 9),96	895,(8, 13),8	903,(8, 14),16	919,(8, 17),2	921,(8, 39),38	959,(8, 42),12	971,(8, 52),2	973,(8, 59),12	985,(8, 68),2	987,(8, 75),10	997,(8, 79),2	1571,(36, 81),22	1813,(46, 81),22	1857,(26, 81),22	1901,(66, 81),22	1945,(16, 81),22	1967,(56, 81),22	2055,(76, 81),22	
461,(7, 9),32	493,(7, 12),16	509,(7, 18),2	511,(7, 61),4	515,(7, 67),2	517,(7, 71),6	523,(7, 79),2	535,(7, 20),6	573,(7, 26),2	575,(7, 29),26	605,(7, 16),48	671,(35, 81),22	699,(7, 30),34	733,(7, 76),56	865,(7, 50),90	999,(15, 81),22	1351,(55, 81),22	1395,(65, 81),22	1483,(25, 81),22	1615,(45, 81),22	2275,(75, 81),22	
391,(6, 9),54	445,(6, 20),8	453,(6, 36),2	455,(6, 19),6	461,(6, 21),12	473,(6, 45),22	495,(6, 58),12	507,(6, 46),66	573,(6, 47),70	643,(6, 49),28	671,(6, 56),28	699,(6, 63),4	703,(6, 75),18	721,(6, 59),78	799,(6, 71),20	819,(6, 80),46	895,(24, 81),22	1175,(74, 81),22	1219,(44, 81),22	1373,(64, 81),22	1725,(34, 81),22	1791,(54, 81),22	2143,(14, 81),22	
81,(5, 10),32	113,(5, 15),6	119,(5, 20),2	121,(5, 40),8	129,(5, 44),2	133,(5, 38),2	139,(5, 62),2	145,(5, 71),4	155,(5, 74),6	237,(5, 22),80	331,(5, 69),8	345,(5, 77),6	375,(5, 29),16	393,(5, 27),52	445,(5, 34),92	537,(5, 79),32	589,(5, 58),126	1021,(23, 81),22	1153,(33, 81),22	1197,(43, 81),22	1307,(73, 81),22	1747,(53, 81),22	1989,(63, 81),22	2121,(13, 81),22	
45,(4, 10),36	81,(4, 11),48	129,(4, 30),2	131,(4, 34),2	133,(4, 63),6	139,(4, 70),8	303,(4, 17),42	345,(4, 39),30	375,(4, 57),18	1065,(62, 81),22	1285,(72, 81),22	1417,(22, 81),22	1549,(32, 81),22	1637,(12, 81),22	2209,(42, 81),22	2231,(52, 81),22	
301,(3, 9),24	325,(3, 18),4	329,(3, 19),2	331,(3, 25),114	445,(3, 28),2	447,(3, 29),8	455,(3, 32),2	457,(3, 36),2	459,(3, 46),48	507,(3, 50),28	535,(3, 53),4	539,(3, 54),2	541,(3, 57),32	573,(3, 58),16	589,(3, 60),10	599,(3, 66),6	605,(3, 80),94	699,(41, 81),22	1043,(11, 81),22	1087,(31, 81),22	1241,(51, 81),22	1593,(21, 81),22	1681,(61, 81),22	2077,(71, 81),22	
71,(2, 24),42	113,(2, 32),26	139,(2, 38),10	149,(2, 48),82	231,(2, 61),4	235,(2, 27),4	239,(2, 37),6	245,(2, 55),8	253,(2, 64),44	297,(2, 65),2	299,(2, 69),2	301,(2, 75),2	493,(10, 81),22	601,(40, 81),22	1109,(70, 81),22	1769,(20, 81),22	1879,(60, 81),22	2033,(30, 81),22	2099,(80, 81),22	2187,(50, 81),22	
1,(0, 2),6	7,(0, 3),6	13,(0, 4),6	19,(0, 5),6	25,(0, 6),6	31,(0, 7),6	37,(0, 8),6	43,(1, 10),2	45,(1, 14),26	71,(1, 23),50	121,(1, 28),12	133,(1, 31),12	145,(1, 33),6	151,(1, 34),4	155,(1, 42),8	163,(1, 43),34	197,(1, 44),2	199,(1, 50),10	209,(1, 51),14	223,(1, 53),8	231,(1, 56),2	233,(1, 57),2	235,(1, 72),2	237,(1, 73),4	241,(1, 76),10	251,(1, 77),52	303,(1, 78),20	
