377
# CPU



364,20,1	
83,18,1	
180,17,1	
136,11,1	178,15,1	376,21,1	
47,10,1	79,16,1	148,12,1	174,14,1	
31,2,1	32,5,1	33,13,1	34,4,1	45,7,1	
0,0,1	1,1,1	2,3,1	46,6,1	86,8,1	134,9,1	362,19,1	
# Incoming



362,(2, 20),2	
81,(1, 18),2	
79,(1, 17),2	178,(2, 17),2	
83,(3, 21),2	85,(6, 21),2	87,(10, 21),2	89,(16, 21),2	91,(18, 21),2	93,(8, 21),2	134,(2, 11),2	136,(9, 21),2	149,(12, 21),2	174,(2, 15),4	178,(14, 21),2	181,(17, 21),2	364,(5, 21),2	366,(13, 21),2	368,(4, 21),2	370,(7, 21),2	372,(19, 21),2	374,(20, 21),2	
45,(1, 10),2	47,(1, 12),4	51,(1, 16),28	136,(2, 12),12	148,(2, 14),26	
1,(0, 2),30	31,(1, 4),2	33,(1, 7),12	
32,(2, 6),14	46,(2, 8),40	86,(2, 9),48	180,(2, 19),182	
# Outgoing



374,(20, 21),2	
91,(18, 21),2	
181,(17, 21),2	

87,(10, 21),2	89,(16, 21),2	149,(12, 21),2	178,(14, 21),2	
32,(2, 6),14	46,(2, 8),40	86,(2, 9),48	134,(2, 11),2	136,(2, 12),12	148,(2, 14),26	174,(2, 15),4	178,(2, 17),2	180,(2, 19),182	362,(2, 20),2	364,(5, 21),2	366,(13, 21),2	368,(4, 21),2	370,(7, 21),2	
1,(0, 2),30	31,(1, 4),2	33,(1, 7),12	45,(1, 10),2	47,(1, 12),4	51,(1, 16),28	79,(1, 17),2	81,(1, 18),2	83,(3, 21),2	85,(6, 21),2	93,(8, 21),2	136,(9, 21),2	372,(19, 21),2	
