958
# CPU
0,0,1	1,4,14	15,80,14	29,49,14	43,39,14	57,8,14	71,40,14	85,79,14	99,15,14	113,20,14	127,64,14	141,5,14	155,17,14	169,42,14	183,36,14	197,60,14	211,3,14	225,67,14	239,58,14	253,21,14	267,37,14	281,41,14	295,50,14	309,53,14	323,62,14	337,59,14	351,72,14	379,28,14	393,46,14	437,73,14	943,51,14	957,81,1	
17,65,14	31,66,14	45,26,14	73,45,14	91,77,14	121,6,14	135,16,14	149,32,14	163,56,14	177,69,14	191,18,14	205,19,14	219,2,14	233,54,14	247,24,14	261,11,14	275,10,14	289,68,14	303,29,14	317,55,14	331,70,14	345,25,14	359,78,14	401,22,14	
19,71,14	33,76,14	77,75,14	137,35,14	151,44,14	165,34,14	179,23,14	193,63,14	207,7,14	221,30,14	235,31,14	249,33,14	263,38,14	277,47,14	291,52,14	305,12,14	319,9,14	333,57,14	347,61,14	361,1,14	375,27,14	389,13,14	403,74,14	417,14,14	431,48,14	445,43,14	
# Incoming
31,(65, 81),2	33,(71, 81),2	45,(66, 81),2	47,(76, 81),2	59,(26, 81),2	87,(45, 81),2	91,(75, 81),2	105,(77, 81),2	149,(16, 81),2	151,(35, 81),2	163,(32, 81),2	165,(44, 81),2	177,(56, 81),2	179,(34, 81),2	191,(69, 81),2	193,(23, 81),2	205,(18, 81),2	207,(63, 81),2	219,(19, 81),2	235,(30, 81),2	247,(54, 81),2	249,(31, 81),2	261,(24, 81),2	263,(33, 81),2	275,(11, 81),2	277,(38, 81),2	289,(10, 81),2	291,(47, 81),2	303,(68, 81),2	305,(52, 81),2	317,(29, 81),2	319,(12, 81),2	331,(55, 81),2	333,(9, 81),2	345,(70, 81),2	347,(57, 81),2	359,(25, 81),2	361,(61, 81),2	373,(78, 81),2	375,(1, 28),4	379,(1, 46),8	389,(27, 81),2	403,(13, 81),2	415,(22, 81),2	417,(74, 81),2	419,(1, 73),18	437,(14, 81),2	445,(48, 81),2	459,(43, 81),2	461,(1, 51),482	
15,(4, 65),2	19,(4, 66),4	29,(4, 26),16	71,(8, 45),2	77,(8, 77),14	91,(0, 6),30	121,(0, 2),30	391,(1, 22),10	
17,(4, 71),2	23,(4, 76),6	73,(8, 75),4	135,(6, 35),2	137,(6, 44),8	155,(5, 34),2	157,(5, 23),8	165,(5, 63),12	177,(0, 7),30	207,(0, 1),30	
# Outgoing
15,(4, 65),2	17,(4, 71),2	19,(4, 66),4	23,(4, 76),6	29,(4, 26),16	71,(8, 45),2	73,(8, 75),4	77,(8, 77),14	91,(0, 6),30	121,(0, 2),30	155,(5, 34),2	157,(5, 23),8	165,(5, 63),12	177,(0, 7),30	207,(0, 1),30	
31,(65, 81),2	45,(66, 81),2	59,(26, 81),2	87,(45, 81),2	105,(77, 81),2	135,(6, 35),2	137,(6, 44),8	149,(16, 81),2	163,(32, 81),2	177,(56, 81),2	191,(69, 81),2	205,(18, 81),2	219,(19, 81),2	247,(54, 81),2	261,(24, 81),2	275,(11, 81),2	289,(10, 81),2	303,(68, 81),2	317,(29, 81),2	331,(55, 81),2	345,(70, 81),2	359,(25, 81),2	373,(78, 81),2	415,(22, 81),2	
33,(71, 81),2	47,(76, 81),2	91,(75, 81),2	151,(35, 81),2	165,(44, 81),2	179,(34, 81),2	193,(23, 81),2	207,(63, 81),2	235,(30, 81),2	249,(31, 81),2	263,(33, 81),2	277,(38, 81),2	291,(47, 81),2	305,(52, 81),2	319,(12, 81),2	333,(9, 81),2	347,(57, 81),2	361,(61, 81),2	375,(1, 28),4	379,(1, 46),8	389,(27, 81),2	391,(1, 22),10	403,(13, 81),2	417,(74, 81),2	419,(1, 73),18	437,(14, 81),2	445,(48, 81),2	459,(43, 81),2	461,(1, 51),482	
