14105
# CPU
25,5,183	208,10,183	391,15,183	574,20,183	757,25,183	968,130,183	1594,80,183	1812,70,183	1995,95,183	2276,45,183	2459,165,183	2642,60,183	2825,145,183	3008,150,183	3191,30,183	3374,75,183	3557,85,183	3740,105,183	3923,100,183	4106,115,183	4289,135,183	4472,155,183	4655,190,183	4838,35,183	5021,40,183	5204,55,183	5387,90,183	5570,140,183	5753,160,183	5936,170,183	6119,120,183	6302,125,183	6485,175,183	6668,185,183	6851,200,183	7034,50,183	7217,65,183	7400,110,183	7583,180,183	7766,195,183	
19,4,183	202,9,183	385,14,183	568,19,183	2316,44,183	2499,174,183	2682,29,183	2865,144,183	3048,99,183	3678,169,183	3861,59,183	4044,84,183	4227,74,183	4410,79,183	4593,24,183	4776,159,183	4959,109,183	5142,129,183	5325,149,183	5508,199,183	5691,54,183	5874,154,183	6057,164,183	6240,184,183	6423,194,183	6606,134,183	6789,189,183	6972,34,183	7155,39,183	7338,104,183	7521,179,183	7704,49,183	7887,69,183	8070,89,183	8253,94,183	8436,124,183	8619,139,183	8816,64,183	9232,114,183	9415,119,183	
13,3,183	196,8,183	379,13,183	562,18,183	745,128,183	1746,38,183	1929,43,183	2112,53,183	2295,103,183	2478,168,183	2661,173,183	3048,148,183	3231,123,183	3414,28,183	3597,68,183	3780,138,183	3963,48,183	4146,83,183	4329,88,183	4512,98,183	4695,108,183	4878,113,183	5061,163,183	5244,33,183	5427,58,183	5610,73,183	5793,93,183	5976,133,183	6159,158,183	6342,23,183	6525,78,183	6708,178,183	6891,153,183	7074,188,183	7257,143,183	7440,118,183	7623,193,183	7806,63,183	7989,183,183	8172,198,183	
7,2,183	190,7,183	373,12,183	556,17,183	1510,47,183	2400,177,183	2583,107,183	2766,152,183	2949,172,183	3230,37,183	3413,117,183	3596,122,183	3834,27,183	4017,112,183	4200,157,183	4383,187,183	7148,42,183	7331,57,183	7514,72,183	7697,87,183	7880,97,183	8063,127,183	8246,197,183	8429,32,183	8612,67,183	8795,77,183	8978,82,183	9161,102,183	9344,142,183	9527,147,183	9710,162,183	9893,167,183	10076,182,183	10259,192,183	10442,22,183	10625,92,183	10808,52,183	10991,62,183	11174,132,183	11357,137,183	
0,0,1	1,11,183	184,6,183	367,16,183	550,1,183	3812,71,183	3995,86,183	4178,161,183	4361,181,183	4544,196,183	4950,31,183	5133,66,183	5316,116,183	7054,121,183	8520,106,183	8816,176,183	8999,81,183	9276,36,183	9459,91,183	9642,141,183	9825,56,183	10008,61,183	10191,76,183	10374,131,183	10557,151,183	10740,26,183	10923,41,183	11106,46,183	11289,51,183	11472,96,183	11655,111,183	11838,146,183	12021,166,183	12204,171,183	12387,186,183	12570,191,183	12753,21,183	12936,101,183	13119,126,183	13302,136,183	13485,156,183	14104,201,1	
# Incoming
19,(0, 5),6	43,(0, 10),6	67,(0, 15),6	91,(0, 20),6	184,(11, 25),2	186,(11, 30),2	214,(11, 45),2	240,(11, 60),104	344,(2, 25),2	346,(2, 30),2	348,(2, 50),100	448,(2, 60),2	450,(4, 45),4	454,(4, 55),4	458,(4, 60),12	498,(4, 90),2	526,(4, 95),2	640,(4, 115),4	644,(4, 125),2	654,(4, 145),6	686,(11, 70),10	744,(4, 180),4	748,(4, 185),4	752,(9, 25),4	756,(9, 55),6	770,(4, 190),26	802,(9, 60),2	806,(9, 100),2	850,(2, 110),8	858,(2, 115),14	874,(11, 100),20	894,(2, 90),72	966,(2, 130),2	968,(2, 140),14	984,(11, 115),2	986,(2, 145),8	998,(9, 80),8	1036,(9, 135),22	1064,(2, 195),64	1130,(7, 40),2	1132,(7, 45),22	1154,(7, 85),4	1220,(14, 45),4	1224,(14, 65),4	1262,(9, 175),64	1326,(9, 195),22	1348,(14, 35),20	1410,(3, 35),18	1430,(3, 50),2	1432,(3, 70),2	1438,(11, 150),2	1440,(3, 45),22	1490,(14, 125),16	1506,(7, 90),2	1508,(12, 55),2	1510,(14, 160),4	1514,(14, 165),8	1522,(19, 75),6	1528,(7, 95),8	1536,(7, 105),6	1542,(12, 65),4	1546,(19, 95),4	1550,(19, 100),2	1554,(11, 175),2	1556,(7, 115),6	1562,(7, 120),10	1572,(12, 110),4	1576,(12, 120),4	1580,(12, 150),2	1582,(12, 155),8	1590,(17, 55),2	1592,(17, 80),2	1594,(17, 100),8	1602,(17, 110),2	1606,(11, 180),4	1610,(14, 60),24	1634,(19, 55),30	1672,(7, 135),38	1710,(17, 120),2	1712,(19, 70),10	1728,(11, 200),2	1730,(7, 70),82	1812,(12, 185),40	1852,(19, 110),14	1882,(6, 65),2	1884,(12, 190),46	1944,(6, 95),2	1956,(6, 110),2	1960,(6, 120),2	1962,(19, 145),18	1980,(6, 125),2	1982,(6, 135),4	2000,(6, 165),14	2014,(19, 170),22	2048,(3, 100),12	2060,(3, 105),6	2086,(3, 120),2	2088,(19, 180),28	2116,(16, 35),2	2118,(16, 55),6	2124,(14, 105),40	2174,(16, 30),16	2190,(16, 45),20	2210,(16, 65),14	2224,(16, 100),30	2254,(16, 105),2	2256,(16, 115),10	2266,(16, 140),2	2268,(16, 145),6	2274,(1, 45),2	2286,(16, 170),14	2300,(1, 110),2	2302,(1, 155),2	2304,(1, 165),2	2306,(14, 150),66	2400,(17, 190),36	2436,(19, 60),40	2502,(3, 145),2	2534,(3, 150),4	2604,(3, 160),6	2618,(3, 175),10	2628,(1, 115),6	2634,(1, 180),8	2642,(3, 185),20	2736,(3, 195),2	2742,(8, 30),2	2744,(8, 75),4	2748,(8, 85),6	2754,(8, 90),34	2788,(8, 105),22	2810,(8, 140),18	2828,(13, 65),6	2834,(13, 100),2	2836,(13, 115),4	2840,(13, 135),4	2844,(13, 140),2	2846,(13, 155),6	2852,(13, 170),2	2854,(13, 190),2	2856,(13, 195),4	2860,(18, 35),4	2864,(18, 40),4	2868,(18, 55),2	2870,(18, 90),2	2914,(7, 140),192	3106,(7, 160),92	3198,(7, 175),90	3288,(9, 170),244	3532,(16, 120),62	3594,(16, 125),46	3640,(16, 180),178	3970,(1, 175),24	3994,(1, 185),4	3998,(1, 200),4	4298,(8, 200),116	4656,(18, 50),18	4674,(18, 65),4	4678,(18, 110),6	4684,(18, 180),4	4688,(18, 195),2	
13,(0, 4),6	37,(0, 9),6	61,(0, 14),6	85,(0, 19),6	232,(11, 59),8	258,(2, 29),28	306,(2, 49),2	324,(2, 79),2	328,(2, 114),2	330,(2, 124),2	334,(2, 139),4	344,(11, 69),342	686,(5, 44),2	688,(5, 59),18	706,(5, 69),26	732,(5, 134),8	740,(5, 199),4	762,(11, 89),78	840,(5, 129),32	872,(11, 99),2	874,(10, 69),12	886,(10, 174),2	888,(15, 164),2	890,(2, 144),4	894,(10, 44),24	918,(15, 34),4	922,(11, 104),42	968,(11, 114),16	984,(2, 159),2	988,(11, 119),170	1158,(2, 59),116	1274,(3, 24),136	1410,(10, 94),10	1420,(10, 99),6	1426,(15, 169),2	1428,(3, 44),2	1430,(15, 54),4	1434,(11, 139),4	1438,(10, 104),14	1452,(10, 139),10	1462,(3, 49),40	1502,(3, 84),2	1504,(3, 99),2	1506,(5, 54),98	1604,(7, 34),2	1606,(7, 39),4	1610,(11, 184),76	1686,(5, 94),40	1726,(11, 199),2	1728,(5, 49),170	1898,(6, 34),36	1934,(6, 44),8	1942,(6, 69),2	1944,(7, 44),2	1946,(7, 59),10	1956,(7, 144),2	1958,(6, 114),2	1960,(7, 159),2	1962,(6, 124),18	1980,(7, 74),4	1984,(12, 159),2	1986,(12, 194),2	1988,(6, 154),10	1998,(7, 54),16	2014,(7, 69),36	2050,(7, 94),8	2058,(7, 194),6	2064,(7, 199),12	2076,(5, 149),48	2124,(6, 159),50	2174,(7, 64),70	2244,(7, 84),32	2276,(3, 124),2	2278,(3, 129),8	2286,(7, 99),26	2312,(16, 34),2	2314,(16, 44),2	2316,(16, 69),42	2358,(16, 84),2	2360,(16, 114),10	2370,(16, 124),2	2372,(16, 139),8	2380,(16, 194),2	2382,(1, 54),4	2386,(1, 89),2	2388,(5, 174),50	2438,(7, 134),24	2462,(7, 174),20	2482,(12, 79),18	2500,(12, 89),10	2510,(17, 29),2	2512,(17, 79),4	2516,(16, 154),12	2528,(1, 79),6	2534,(17, 24),10	2544,(10, 184),42	2586,(16, 199),10	2596,(1, 29),8	2604,(17, 89),2	2606,(17, 94),2	2610,(17, 144),2	2612,(3, 164),2	2614,(1, 99),2	2616,(17, 149),2	2624,(12, 94),14	2640,(3, 179),2	2642,(6, 199),230	2872,(8, 34),46	2976,(1, 49),20	2996,(1, 109),26	3028,(10, 49),66	3094,(10, 64),78	3200,(15, 49),8	3208,(15, 94),16	3224,(15, 109),6	3230,(8, 39),14	3254,(8, 49),42	3296,(10, 129),90	3386,(10, 134),240	3626,(12, 119),36	3662,(12, 169),16	3678,(17, 59),6	3684,(10, 159),62	3746,(15, 84),34	3780,(8, 74),38	3818,(8, 79),4	3822,(16, 159),80	3902,(1, 124),10	3912,(8, 94),2	3914,(1, 24),56	3992,(17, 119),4	3998,(8, 114),2	4000,(8, 119),2	4002,(17, 39),38	4040,(17, 154),8	4048,(17, 194),4	4052,(8, 159),2	4054,(17, 109),36	4090,(17, 129),26	4240,(8, 189),22	4262,(15, 199),22	4284,(20, 149),8	4292,(8, 199),6	4298,(15, 124),54	4352,(15, 139),38	4414,(13, 39),8	4422,(13, 54),14	4436,(13, 104),44	4480,(13, 124),2	4482,(13, 134),6	4488,(13, 154),14	4502,(13, 164),8	4510,(13, 179),6	4516,(13, 184),134	4650,(13, 194),6	4656,(15, 134),208	4864,(15, 189),74	4938,(20, 34),12	4950,(20, 39),36	4986,(20, 104),12	4998,(20, 179),14	5020,(18, 49),96	5116,(18, 64),28	5144,(18, 69),2	5146,(18, 89),2	5148,(18, 94),58	5206,(18, 124),2	5208,(18, 139),20	8780,(20, 64),36	9202,(20, 114),30	9232,(20, 119),24	
7,(0, 3),6	31,(0, 8),6	55,(0, 13),6	79,(0, 18),6	212,(11, 43),2	216,(11, 48),6	222,(2, 23),36	296,(2, 48),10	308,(2, 58),2	310,(2, 63),10	320,(2, 68),4	326,(2, 98),2	332,(2, 128),2	334,(4, 28),14	382,(4, 48),24	410,(5, 98),6	418,(5, 123),2	420,(5, 143),8	428,(5, 153),6	470,(4, 83),28	500,(4, 93),26	528,(4, 98),48	576,(4, 103),42	618,(4, 108),2	620,(5, 183),2	622,(5, 193),4	626,(10, 33),6	632,(10, 48),2	634,(10, 63),2	636,(10, 73),10	646,(4, 128),4	650,(10, 98),10	660,(4, 148),2	662,(10, 103),10	672,(10, 158),2	674,(10, 163),2	676,(10, 178),2	678,(10, 183),2	680,(15, 103),4	686,(4, 173),48	734,(4, 178),10	744,(5, 73),44	796,(9, 48),6	804,(20, 78),2	808,(2, 88),42	868,(9, 53),14	888,(9, 143),2	890,(15, 113),4	894,(11, 103),28	922,(5, 138),32	964,(11, 113),4	980,(9, 168),2	982,(14, 28),2	984,(15, 153),4	994,(2, 153),10	1004,(2, 163),2	1006,(5, 78),54	1060,(9, 23),38	1098,(9, 133),8	1106,(14, 38),8	1114,(14, 58),2	1128,(10, 193),56	1184,(15, 168),10	1194,(20, 43),8	1204,(9, 138),16	1228,(5, 118),124	1352,(20, 58),12	1368,(14, 43),36	1404,(14, 88),14	1418,(14, 93),8	1426,(14, 123),4	1430,(14, 138),8	1438,(19, 148),2	1440,(11, 153),106	1546,(7, 83),8	1554,(7, 123),2	1556,(19, 153),2	1558,(11, 178),48	1606,(19, 183),2	1608,(19, 188),2	1610,(7, 53),54	1664,(7, 103),8	1672,(19, 88),12	1686,(11, 188),20	1706,(11, 193),2	1708,(11, 198),18	1726,(7, 143),2	1728,(7, 173),2	1730,(6, 38),16	1746,(19, 43),16	1762,(19, 98),6	1768,(6, 53),84	1852,(7, 158),4	1856,(7, 183),4	1860,(12, 78),2	1862,(12, 93),2	1864,(12, 188),2	1866,(6, 63),16	1882,(17, 103),2	1884,(6, 78),6	1890,(6, 88),8	1898,(5, 148),132	2030,(6, 103),2	2032,(6, 123),20	2052,(6, 138),18	2070,(6, 143),2	2072,(6, 168),26	2098,(6, 173),2	2100,(6, 188),2	2102,(6, 198),6	2108,(16, 23),8	2116,(19, 108),6	2124,(7, 188),22	2146,(12, 48),8	2154,(12, 173),4	2158,(17, 193),2	2160,(5, 173),228	2388,(12, 148),12	2400,(6, 183),32	2436,(17, 198),2	2438,(20, 98),6	2454,(16, 28),52	2506,(16, 118),2	2508,(16, 138),8	2516,(12, 83),18	2536,(16, 108),50	2586,(9, 148),158	2744,(14, 63),40	2784,(14, 68),88	2872,(16, 93),88	2960,(16, 183),16	2976,(14, 113),46	3022,(14, 148),26	3048,(14, 193),28	3076,(19, 68),32	3108,(19, 123),8	3116,(19, 133),8	3130,(1, 28),12	3142,(1, 48),4	3148,(1, 58),2	3150,(1, 63),2	3152,(1, 68),2	3154,(19, 138),12	3172,(15, 48),28	3200,(1, 73),16	3216,(1, 83),2	3218,(1, 88),2	3220,(1, 98),14	3234,(1, 108),40	3274,(1, 113),2	3276,(19, 193),10	3288,(12, 23),32	3320,(12, 163),10	3330,(17, 33),32	3362,(17, 58),18	3380,(17, 73),26	3406,(17, 93),10	3416,(17, 118),12	3428,(17, 133),22	3450,(17, 158),18	3468,(17, 188),10	3532,(19, 23),66	3598,(19, 63),66	3664,(19, 78),26	3798,(19, 178),20	3818,(1, 153),2	3820,(1, 188),2	3822,(19, 118),40	3896,(10, 143),134	4030,(1, 118),36	4066,(1, 193),2	4152,(15, 63),80	4390,(15, 183),64	4454,(15, 198),104	
1,(0, 2),6	25,(0, 7),6	49,(0, 12),6	73,(0, 17),6	188,(11, 37),12	200,(11, 42),12	222,(11, 57),10	310,(4, 37),2	316,(4, 52),2	330,(4, 77),2	406,(5, 62),2	408,(5, 72),2	416,(5, 117),2	434,(4, 87),16	450,(5, 32),42	492,(5, 137),54	546,(5, 142),42	588,(5, 147),12	600,(5, 162),8	608,(10, 57),8	616,(10, 77),2	618,(10, 122),2	620,(4, 112),20	646,(10, 162),2	648,(10, 177),2	650,(4, 142),4	660,(10, 182),2	662,(4, 152),20	682,(4, 162),2	684,(4, 172),2	696,(11, 82),66	762,(4, 177),8	788,(5, 172),16	804,(9, 67),2	806,(10, 27),22	828,(10, 187),10	838,(15, 77),2	840,(11, 97),32	872,(15, 97),2	882,(9, 107),4	886,(9, 127),2	954,(10, 142),18	972,(15, 92),8	982,(20, 22),2	986,(11, 117),2	988,(15, 147),8	996,(20, 192),2	1006,(9, 87),12	1018,(9, 132),18	1058,(14, 62),2	1116,(15, 192),6	1124,(14, 72),2	1126,(14, 102),2	1128,(14, 142),2	1158,(11, 137),276	1434,(3, 27),2	1436,(3, 67),4	1440,(9, 172),22	1462,(14, 37),22	1484,(14, 112),6	1490,(20, 32),8	1506,(19, 27),2	1508,(19, 47),2	1510,(3, 62),20	1530,(19, 32),8	1538,(19, 122),6	1544,(19, 157),2	1546,(11, 162),8	1554,(19, 192),2	1556,(11, 177),2	1558,(19, 72),10	1568,(19, 82),18	1586,(19, 137),4	1590,(19, 187),6	1604,(10, 107),50	1654,(15, 72),20	1746,(6, 42),22	1852,(6, 62),14	1946,(6, 102),10	1986,(6, 142),2	1998,(6, 157),2	2014,(6, 167),16	2030,(20, 102),14	2066,(3, 112),20	2088,(3, 122),188	2276,(16, 32),6	2282,(16, 37),2	2284,(16, 92),2	2286,(3, 132),102	2388,(6, 177),12	2432,(6, 197),22	2454,(15, 122),22	2476,(15, 162),22	2504,(3, 147),30	2534,(16, 107),2	2538,(3, 152),66	2604,(16, 117),8	2612,(16, 172),2	2614,(3, 167),4	2618,(10, 22),90	2718,(3, 192),18	2736,(5, 92),292	3028,(16, 22),76	3104,(16, 142),4	3108,(16, 182),2	3110,(1, 27),20	3146,(1, 52),2	3154,(1, 72),40	3194,(1, 82),2	3196,(1, 127),2	3224,(8, 37),6	3244,(8, 42),10	3276,(1, 117),12	3288,(1, 142),10	3298,(8, 52),20	3318,(16, 122),186	3504,(1, 122),24	3528,(1, 147),4	3626,(10, 137),58	3690,(19, 87),108	3812,(20, 27),22	3850,(8, 92),62	3928,(8, 112),70	4002,(8, 127),42	4044,(8, 147),2	4050,(8, 157),2	4052,(10, 197),100	4152,(1, 187),10	4208,(8, 182),32	4240,(9, 32),788	5028,(10, 42),2120	7148,(13, 52),2	7150,(13, 57),10	7160,(13, 72),80	7240,(13, 87),2	7242,(13, 92),14	7256,(13, 97),6	7262,(13, 102),4	7266,(13, 127),12	7278,(13, 147),2	7280,(13, 197),10	7290,(18, 22),2	7292,(18, 32),90	7382,(18, 52),6	7388,(18, 67),16	7404,(18, 77),2	7406,(18, 82),2	7408,(18, 102),4	7412,(18, 142),2	7414,(18, 147),22	7436,(18, 162),2	7438,(18, 167),2	7440,(18, 182),12	7452,(18, 192),8	7460,(19, 22),290	7750,(19, 92),114	8352,(15, 52),198	8550,(15, 62),178	8728,(15, 132),52	9256,(20, 137),26	
286,(2, 36),8	294,(2, 46),2	296,(4, 26),14	312,(4, 51),4	318,(4, 56),12	332,(4, 111),2	338,(2, 141),6	348,(4, 31),34	382,(5, 31),16	398,(5, 41),8	406,(4, 66),28	434,(5, 81),2	436,(5, 101),8	444,(5, 136),4	448,(5, 146),2	450,(2, 76),358	808,(4, 126),56	864,(4, 166),2	866,(4, 196),2	872,(2, 126),18	890,(4, 46),90	980,(5, 196),2	982,(2, 161),2	984,(4, 146),12	996,(9, 66),2	998,(10, 21),8	1006,(2, 166),58	1064,(5, 36),26	1090,(5, 46),26	1116,(9, 106),2	1118,(9, 156),2	1120,(9, 181),4	1124,(10, 31),2	1126,(10, 61),2	1128,(2, 196),2	1130,(4, 121),74	1204,(5, 86),24	1228,(9, 46),34	1274,(2, 136),232	1506,(3, 51),4	1510,(7, 61),6	1516,(7, 71),6	1522,(7, 91),6	1528,(14, 51),2	1530,(3, 71),34	1564,(3, 76),392	1956,(3, 81),70	2026,(3, 86),22	2048,(5, 131),28	2076,(7, 76),34	2110,(7, 86),14	2124,(5, 161),20	2144,(5, 166),16	2160,(7, 171),4	2164,(7, 176),2	2166,(7, 181),2	2168,(9, 56),60	2228,(9, 96),36	2264,(9, 116),22	2286,(9, 141),20	2312,(7, 106),22	2334,(7, 126),50	2384,(12, 21),4	2388,(3, 141),114	2502,(5, 186),42	2544,(9, 131),28	2572,(9, 146),14	2586,(10, 41),4	2590,(10, 76),2	2592,(10, 86),8	2600,(10, 96),4	2604,(10, 126),2	2606,(10, 136),2	2608,(12, 81),2	2610,(3, 161),2	2612,(10, 146),6	2618,(12, 31),4	2622,(12, 91),2	2628,(3, 176),12	2640,(12, 46),10	2650,(12, 76),10	2660,(17, 71),2	2662,(3, 191),56	2718,(10, 161),4	2722,(10, 181),12	2734,(15, 76),2	2738,(3, 196),4	2742,(7, 136),172	2914,(14, 161),2	2916,(14, 166),2	2918,(8, 36),306	3224,(9, 186),14	3238,(10, 51),56	3294,(15, 171),2	3296,(8, 51),2	3318,(8, 56),462	3780,(10, 71),32	3812,(12, 136),8	3820,(14, 181),2	3822,(8, 86),28	3850,(10, 81),24	3874,(10, 91),22	3896,(14, 31),8	3904,(14, 36),8	3912,(14, 191),2	3914,(8, 106),14	3928,(12, 51),44	3972,(12, 186),20	3992,(14, 56),14	4006,(14, 111),14	4020,(19, 56),2	4022,(19, 76),4	4026,(19, 131),2	4030,(10, 171),16	4046,(8, 151),4	4050,(19, 141),4	4054,(8, 161),4	4058,(8, 171),42	4100,(8, 181),108	4208,(14, 131),24	4232,(15, 66),16	4248,(15, 181),6	4254,(15, 196),4	4258,(20, 121),2	4260,(20, 146),2	4262,(8, 196),30	4292,(12, 116),186	4478,(12, 121),114	4592,(12, 126),332	4924,(13, 26),4	4928,(13, 31),22	4950,(13, 41),32	4982,(13, 46),4	4986,(13, 66),2	4988,(13, 96),2	4990,(13, 101),6	4996,(13, 111),2	4998,(13, 116),10	5008,(13, 126),8	5016,(13, 131),2	5018,(13, 141),2	5020,(17, 41),6	5028,(9, 191),1992	7020,(13, 121),34	7054,(13, 136),24	7078,(13, 191),36	7114,(14, 141),14	7128,(17, 61),20	7148,(10, 106),1204	8352,(13, 106),168	8520,(13, 166),96	8616,(14, 96),78	8694,(14, 151),22	8716,(14, 176),100	8816,(15, 81),46	8862,(15, 91),86	8948,(15, 96),22	8970,(15, 111),184	9154,(15, 186),48	9202,(17, 36),74	9276,(17, 56),56	9332,(17, 91),6	9338,(17, 141),12	9350,(17, 146),38	9388,(17, 186),14	9402,(18, 26),4	9406,(18, 46),6	9412,(18, 56),8	9420,(18, 61),6	9426,(18, 76),2	9428,(18, 101),66	9494,(18, 126),8	9502,(18, 131),128	9630,(18, 151),8	9638,(18, 166),120	9758,(18, 191),24	9782,(19, 21),22	9804,(19, 26),18	9822,(19, 41),60	9882,(19, 46),52	9934,(19, 51),14	9948,(19, 96),12	9960,(19, 101),8	9968,(19, 111),8	9976,(19, 146),4	9980,(19, 166),12	9992,(19, 171),12	10004,(19, 186),4	10008,(19, 191),4	10012,(20, 21),8	10020,(20, 101),20	10040,(20, 126),6	10046,(20, 136),22	10068,(20, 156),4	10072,(128, 201),28	10100,(25, 201),28	10128,(130, 201),28	10156,(47, 201),28	10184,(80, 201),28	10212,(38, 201),28	10240,(70, 201),28	10268,(43, 201),28	10296,(95, 201),28	10324,(53, 201),28	10352,(45, 201),28	10380,(103, 201),28	10408,(44, 201),28	10436,(177, 201),28	10464,(165, 201),28	10492,(168, 201),28	10520,(174, 201),28	10548,(107, 201),28	10576,(60, 201),28	10604,(173, 201),28	10632,(29, 201),28	10660,(152, 201),28	10688,(145, 201),28	10716,(144, 201),28	10744,(172, 201),28	10772,(150, 201),28	10800,(148, 201),28	10828,(99, 201),28	10856,(30, 201),28	10884,(37, 201),28	10912,(123, 201),28	10940,(75, 201),28	10968,(117, 201),28	10996,(28, 201),28	11024,(85, 201),28	11052,(122, 201),28	11080,(68, 201),28	11108,(169, 201),28	11136,(105, 201),28	11164,(138, 201),28	11192,(27, 201),28	11220,(59, 201),28	11248,(100, 201),28	11276,(48, 201),28	11304,(112, 201),28	11332,(84, 201),28	11360,(115, 201),28	11388,(83, 201),28	11416,(157, 201),28	11444,(74, 201),28	11472,(135, 201),28	11500,(88, 201),28	11528,(187, 201),28	11556,(79, 201),28	11584,(155, 201),28	11612,(98, 201),28	11640,(24, 201),28	11668,(190, 201),28	11696,(108, 201),28	11724,(159, 201),28	11752,(35, 201),28	11780,(113, 201),28	11808,(109, 201),28	11836,(40, 201),28	11864,(163, 201),28	11892,(129, 201),28	11920,(55, 201),28	11948,(33, 201),28	11976,(149, 201),28	12004,(90, 201),28	12032,(58, 201),28	12060,(199, 201),28	12088,(140, 201),28	12116,(73, 201),28	12144,(54, 201),28	12172,(160, 201),28	12200,(93, 201),28	12228,(154, 201),28	12256,(170, 201),28	12284,(133, 201),28	12312,(164, 201),28	12340,(120, 201),28	12368,(158, 201),28	12396,(184, 201),28	12424,(125, 201),28	12452,(23, 201),28	12480,(194, 201),28	12508,(175, 201),28	12536,(78, 201),28	12564,(134, 201),28	12592,(185, 201),28	12620,(178, 201),28	12648,(189, 201),28	12676,(200, 201),28	12704,(153, 201),28	12732,(34, 201),28	12760,(50, 201),28	12788,(188, 201),28	12816,(42, 201),28	12844,(39, 201),28	12872,(65, 201),28	12900,(143, 201),28	12928,(57, 201),28	12956,(104, 201),28	12984,(110, 201),28	13012,(118, 201),28	13040,(72, 201),28	13068,(179, 201),28	13096,(180, 201),28	13124,(193, 201),28	13152,(87, 201),28	13180,(49, 201),28	13208,(195, 201),28	13236,(63, 201),28	13264,(97, 201),28	13292,(69, 201),28	13320,(183, 201),28	13348,(127, 201),28	13376,(89, 201),28	13404,(198, 201),28	13432,(197, 201),28	13460,(94, 201),28	13488,(32, 201),28	13516,(124, 201),28	13544,(67, 201),28	13572,(139, 201),28	13600,(77, 201),28	13628,(64, 201),28	13656,(82, 201),28	13684,(102, 201),28	13712,(114, 201),28	13740,(142, 201),28	13768,(119, 201),28	13796,(147, 201),28	13824,(162, 201),28	13852,(167, 201),28	13880,(182, 201),28	13908,(192, 201),28	13936,(22, 201),28	13964,(92, 201),28	13992,(52, 201),28	14020,(62, 201),28	14048,(132, 201),28	14076,(137, 201),28	
# Outgoing
382,(5, 31),16	398,(5, 41),8	406,(5, 62),2	408,(5, 72),2	410,(5, 98),6	416,(5, 117),2	418,(5, 123),2	420,(5, 143),8	428,(5, 153),6	434,(5, 81),2	436,(5, 101),8	444,(5, 136),4	448,(5, 146),2	450,(5, 32),42	492,(5, 137),54	546,(5, 142),42	588,(5, 147),12	600,(5, 162),8	608,(10, 57),8	616,(10, 77),2	618,(10, 122),2	620,(5, 183),2	622,(5, 193),4	626,(10, 33),6	632,(10, 48),2	634,(10, 63),2	636,(10, 73),10	646,(10, 162),2	648,(10, 177),2	650,(10, 98),10	660,(10, 182),2	662,(10, 103),10	672,(10, 158),2	674,(10, 163),2	676,(10, 178),2	678,(10, 183),2	680,(15, 103),4	686,(5, 44),2	688,(5, 59),18	706,(5, 69),26	732,(5, 134),8	740,(5, 199),4	744,(5, 73),44	788,(5, 172),16	804,(20, 78),2	806,(10, 27),22	828,(10, 187),10	838,(15, 77),2	840,(5, 129),32	872,(15, 97),2	874,(10, 69),12	886,(10, 174),2	888,(15, 164),2	890,(15, 113),4	894,(10, 44),24	918,(15, 34),4	922,(5, 138),32	954,(10, 142),18	972,(15, 92),8	980,(5, 196),2	982,(20, 22),2	984,(15, 153),4	988,(15, 147),8	996,(20, 192),2	998,(10, 21),8	1006,(5, 78),54	1064,(5, 36),26	1090,(5, 46),26	1116,(15, 192),6	1124,(10, 31),2	1126,(10, 61),2	1128,(10, 193),56	1184,(15, 168),10	1194,(20, 43),8	1204,(5, 86),24	1228,(5, 118),124	1352,(20, 58),12	1410,(10, 94),10	1420,(10, 99),6	1426,(15, 169),2	1430,(15, 54),4	1438,(10, 104),14	1452,(10, 139),10	1490,(20, 32),8	1506,(5, 54),98	1604,(10, 107),50	1654,(15, 72),20	1686,(5, 94),40	1728,(5, 49),170	1898,(5, 148),132	2030,(20, 102),14	2048,(5, 131),28	2076,(5, 149),48	2124,(5, 161),20	2144,(5, 166),16	2160,(5, 173),228	2388,(5, 174),50	2438,(20, 98),6	2454,(15, 122),22	2476,(15, 162),22	2502,(5, 186),42	2544,(10, 184),42	2586,(10, 41),4	2590,(10, 76),2	2592,(10, 86),8	2600,(10, 96),4	2604,(10, 126),2	2606,(10, 136),2	2612,(10, 146),6	2618,(10, 22),90	2718,(10, 161),4	2722,(10, 181),12	2734,(15, 76),2	2736,(5, 92),292	3028,(10, 49),66	3094,(10, 64),78	3172,(15, 48),28	3200,(15, 49),8	3208,(15, 94),16	3224,(15, 109),6	3238,(10, 51),56	3294,(15, 171),2	3296,(10, 129),90	3386,(10, 134),240	3626,(10, 137),58	3684,(10, 159),62	3746,(15, 84),34	3780,(10, 71),32	3812,(20, 27),22	3850,(10, 81),24	3874,(10, 91),22	3896,(10, 143),134	4030,(10, 171),16	4052,(10, 197),100	4152,(15, 63),80	4232,(15, 66),16	4248,(15, 181),6	4254,(15, 196),4	4258,(20, 121),2	4260,(20, 146),2	4262,(15, 199),22	4284,(20, 149),8	4298,(15, 124),54	4352,(15, 139),38	4390,(15, 183),64	4454,(15, 198),104	4656,(15, 134),208	4864,(15, 189),74	4938,(20, 34),12	4950,(20, 39),36	4986,(20, 104),12	4998,(20, 179),14	5028,(10, 42),2120	7148,(10, 106),1204	8352,(15, 52),198	8550,(15, 62),178	8728,(15, 132),52	8780,(20, 64),36	8816,(15, 81),46	8862,(15, 91),86	8948,(15, 96),22	8970,(15, 111),184	9154,(15, 186),48	9202,(20, 114),30	9232,(20, 119),24	9256,(20, 137),26	10012,(20, 21),8	10020,(20, 101),20	10040,(20, 126),6	10046,(20, 136),22	10068,(20, 156),4	10100,(25, 201),28	10128,(130, 201),28	10184,(80, 201),28	10240,(70, 201),28	10296,(95, 201),28	10352,(45, 201),28	10464,(165, 201),28	10576,(60, 201),28	10688,(145, 201),28	10772,(150, 201),28	10856,(30, 201),28	10940,(75, 201),28	11024,(85, 201),28	11136,(105, 201),28	11248,(100, 201),28	11360,(115, 201),28	11472,(135, 201),28	11584,(155, 201),28	11668,(190, 201),28	11752,(35, 201),28	11836,(40, 201),28	11920,(55, 201),28	12004,(90, 201),28	12088,(140, 201),28	12172,(160, 201),28	12256,(170, 201),28	12340,(120, 201),28	12424,(125, 201),28	12508,(175, 201),28	12592,(185, 201),28	12676,(200, 201),28	12760,(50, 201),28	12872,(65, 201),28	12984,(110, 201),28	13096,(180, 201),28	13208,(195, 201),28	
296,(4, 26),14	310,(4, 37),2	312,(4, 51),4	316,(4, 52),2	318,(4, 56),12	330,(4, 77),2	332,(4, 111),2	334,(4, 28),14	348,(4, 31),34	382,(4, 48),24	406,(4, 66),28	434,(4, 87),16	450,(4, 45),4	454,(4, 55),4	458,(4, 60),12	470,(4, 83),28	498,(4, 90),2	500,(4, 93),26	526,(4, 95),2	528,(4, 98),48	576,(4, 103),42	618,(4, 108),2	620,(4, 112),20	640,(4, 115),4	644,(4, 125),2	646,(4, 128),4	650,(4, 142),4	654,(4, 145),6	660,(4, 148),2	662,(4, 152),20	682,(4, 162),2	684,(4, 172),2	686,(4, 173),48	734,(4, 178),10	744,(4, 180),4	748,(4, 185),4	752,(9, 25),4	756,(9, 55),6	762,(4, 177),8	770,(4, 190),26	796,(9, 48),6	802,(9, 60),2	804,(9, 67),2	806,(9, 100),2	808,(4, 126),56	864,(4, 166),2	866,(4, 196),2	868,(9, 53),14	882,(9, 107),4	886,(9, 127),2	888,(9, 143),2	890,(4, 46),90	980,(9, 168),2	982,(14, 28),2	984,(4, 146),12	996,(9, 66),2	998,(9, 80),8	1006,(9, 87),12	1018,(9, 132),18	1036,(9, 135),22	1058,(14, 62),2	1060,(9, 23),38	1098,(9, 133),8	1106,(14, 38),8	1114,(14, 58),2	1116,(9, 106),2	1118,(9, 156),2	1120,(9, 181),4	1124,(14, 72),2	1126,(14, 102),2	1128,(14, 142),2	1130,(4, 121),74	1204,(9, 138),16	1220,(14, 45),4	1224,(14, 65),4	1228,(9, 46),34	1262,(9, 175),64	1326,(9, 195),22	1348,(14, 35),20	1368,(14, 43),36	1404,(14, 88),14	1418,(14, 93),8	1426,(14, 123),4	1430,(14, 138),8	1438,(19, 148),2	1440,(9, 172),22	1462,(14, 37),22	1484,(14, 112),6	1490,(14, 125),16	1506,(19, 27),2	1508,(19, 47),2	1510,(14, 160),4	1514,(14, 165),8	1522,(19, 75),6	1528,(14, 51),2	1530,(19, 32),8	1538,(19, 122),6	1544,(19, 157),2	1546,(19, 95),4	1550,(19, 100),2	1554,(19, 192),2	1556,(19, 153),2	1558,(19, 72),10	1568,(19, 82),18	1586,(19, 137),4	1590,(19, 187),6	1606,(19, 183),2	1608,(19, 188),2	1610,(14, 60),24	1634,(19, 55),30	1672,(19, 88),12	1712,(19, 70),10	1746,(19, 43),16	1762,(19, 98),6	1852,(19, 110),14	1962,(19, 145),18	2014,(19, 170),22	2088,(19, 180),28	2116,(19, 108),6	2124,(14, 105),40	2168,(9, 56),60	2228,(9, 96),36	2264,(9, 116),22	2286,(9, 141),20	2306,(14, 150),66	2436,(19, 60),40	2544,(9, 131),28	2572,(9, 146),14	2586,(9, 148),158	2744,(14, 63),40	2784,(14, 68),88	2914,(14, 161),2	2916,(14, 166),2	2976,(14, 113),46	3022,(14, 148),26	3048,(14, 193),28	3076,(19, 68),32	3108,(19, 123),8	3116,(19, 133),8	3154,(19, 138),12	3224,(9, 186),14	3276,(19, 193),10	3288,(9, 170),244	3532,(19, 23),66	3598,(19, 63),66	3664,(19, 78),26	3690,(19, 87),108	3798,(19, 178),20	3820,(14, 181),2	3822,(19, 118),40	3896,(14, 31),8	3904,(14, 36),8	3912,(14, 191),2	3992,(14, 56),14	4006,(14, 111),14	4020,(19, 56),2	4022,(19, 76),4	4026,(19, 131),2	4050,(19, 141),4	4208,(14, 131),24	4240,(9, 32),788	5028,(9, 191),1992	7114,(14, 141),14	7460,(19, 22),290	7750,(19, 92),114	8616,(14, 96),78	8694,(14, 151),22	8716,(14, 176),100	9782,(19, 21),22	9804,(19, 26),18	9822,(19, 41),60	9882,(19, 46),52	9934,(19, 51),14	9948,(19, 96),12	9960,(19, 101),8	9968,(19, 111),8	9976,(19, 146),4	9980,(19, 166),12	9992,(19, 171),12	10004,(19, 186),4	10008,(19, 191),4	10408,(44, 201),28	10520,(174, 201),28	10632,(29, 201),28	10716,(144, 201),28	10828,(99, 201),28	11108,(169, 201),28	11220,(59, 201),28	11332,(84, 201),28	11444,(74, 201),28	11556,(79, 201),28	11640,(24, 201),28	11724,(159, 201),28	11808,(109, 201),28	11892,(129, 201),28	11976,(149, 201),28	12060,(199, 201),28	12144,(54, 201),28	12228,(154, 201),28	12312,(164, 201),28	12396,(184, 201),28	12480,(194, 201),28	12564,(134, 201),28	12648,(189, 201),28	12732,(34, 201),28	12844,(39, 201),28	12956,(104, 201),28	13068,(179, 201),28	13180,(49, 201),28	13292,(69, 201),28	13376,(89, 201),28	13460,(94, 201),28	13516,(124, 201),28	13572,(139, 201),28	13628,(64, 201),28	13712,(114, 201),28	13768,(119, 201),28	
1274,(3, 24),136	1410,(3, 35),18	1428,(3, 44),2	1430,(3, 50),2	1432,(3, 70),2	1434,(3, 27),2	1436,(3, 67),4	1440,(3, 45),22	1462,(3, 49),40	1502,(3, 84),2	1504,(3, 99),2	1506,(3, 51),4	1510,(3, 62),20	1530,(3, 71),34	1564,(3, 76),392	1956,(3, 81),70	2026,(3, 86),22	2048,(3, 100),12	2060,(3, 105),6	2066,(3, 112),20	2086,(3, 120),2	2088,(3, 122),188	2276,(3, 124),2	2278,(3, 129),8	2286,(3, 132),102	2388,(3, 141),114	2502,(3, 145),2	2504,(3, 147),30	2534,(3, 150),4	2538,(3, 152),66	2604,(3, 160),6	2610,(3, 161),2	2612,(3, 164),2	2614,(3, 167),4	2618,(3, 175),10	2628,(3, 176),12	2640,(3, 179),2	2642,(3, 185),20	2662,(3, 191),56	2718,(3, 192),18	2736,(3, 195),2	2738,(3, 196),4	2742,(8, 30),2	2744,(8, 75),4	2748,(8, 85),6	2754,(8, 90),34	2788,(8, 105),22	2810,(8, 140),18	2828,(13, 65),6	2834,(13, 100),2	2836,(13, 115),4	2840,(13, 135),4	2844,(13, 140),2	2846,(13, 155),6	2852,(13, 170),2	2854,(13, 190),2	2856,(13, 195),4	2860,(18, 35),4	2864,(18, 40),4	2868,(18, 55),2	2870,(18, 90),2	2872,(8, 34),46	2918,(8, 36),306	3224,(8, 37),6	3230,(8, 39),14	3244,(8, 42),10	3254,(8, 49),42	3296,(8, 51),2	3298,(8, 52),20	3318,(8, 56),462	3780,(8, 74),38	3818,(8, 79),4	3822,(8, 86),28	3850,(8, 92),62	3912,(8, 94),2	3914,(8, 106),14	3928,(8, 112),70	3998,(8, 114),2	4000,(8, 119),2	4002,(8, 127),42	4044,(8, 147),2	4046,(8, 151),4	4050,(8, 157),2	4052,(8, 159),2	4054,(8, 161),4	4058,(8, 171),42	4100,(8, 181),108	4208,(8, 182),32	4240,(8, 189),22	4262,(8, 196),30	4292,(8, 199),6	4298,(8, 200),116	4414,(13, 39),8	4422,(13, 54),14	4436,(13, 104),44	4480,(13, 124),2	4482,(13, 134),6	4488,(13, 154),14	4502,(13, 164),8	4510,(13, 179),6	4516,(13, 184),134	4650,(13, 194),6	4656,(18, 50),18	4674,(18, 65),4	4678,(18, 110),6	4684,(18, 180),4	4688,(18, 195),2	4924,(13, 26),4	4928,(13, 31),22	4950,(13, 41),32	4982,(13, 46),4	4986,(13, 66),2	4988,(13, 96),2	4990,(13, 101),6	4996,(13, 111),2	4998,(13, 116),10	5008,(13, 126),8	5016,(13, 131),2	5018,(13, 141),2	5020,(18, 49),96	5116,(18, 64),28	5144,(18, 69),2	5146,(18, 89),2	5148,(18, 94),58	5206,(18, 124),2	5208,(18, 139),20	7020,(13, 121),34	7054,(13, 136),24	7078,(13, 191),36	7148,(13, 52),2	7150,(13, 57),10	7160,(13, 72),80	7240,(13, 87),2	7242,(13, 92),14	7256,(13, 97),6	7262,(13, 102),4	7266,(13, 127),12	7278,(13, 147),2	7280,(13, 197),10	7290,(18, 22),2	7292,(18, 32),90	7382,(18, 52),6	7388,(18, 67),16	7404,(18, 77),2	7406,(18, 82),2	7408,(18, 102),4	7412,(18, 142),2	7414,(18, 147),22	7436,(18, 162),2	7438,(18, 167),2	7440,(18, 182),12	7452,(18, 192),8	8352,(13, 106),168	8520,(13, 166),96	9402,(18, 26),4	9406,(18, 46),6	9412,(18, 56),8	9420,(18, 61),6	9426,(18, 76),2	9428,(18, 101),66	9494,(18, 126),8	9502,(18, 131),128	9630,(18, 151),8	9638,(18, 166),120	9758,(18, 191),24	10072,(128, 201),28	10212,(38, 201),28	10268,(43, 201),28	10324,(53, 201),28	10380,(103, 201),28	10492,(168, 201),28	10604,(173, 201),28	10800,(148, 201),28	10912,(123, 201),28	10996,(28, 201),28	11080,(68, 201),28	11164,(138, 201),28	11276,(48, 201),28	11388,(83, 201),28	11500,(88, 201),28	11612,(98, 201),28	11696,(108, 201),28	11780,(113, 201),28	11864,(163, 201),28	11948,(33, 201),28	12032,(58, 201),28	12116,(73, 201),28	12200,(93, 201),28	12284,(133, 201),28	12368,(158, 201),28	12452,(23, 201),28	12536,(78, 201),28	12620,(178, 201),28	12704,(153, 201),28	12788,(188, 201),28	12900,(143, 201),28	13012,(118, 201),28	13124,(193, 201),28	13236,(63, 201),28	13320,(183, 201),28	13404,(198, 201),28	
222,(2, 23),36	258,(2, 29),28	286,(2, 36),8	294,(2, 46),2	296,(2, 48),10	306,(2, 49),2	308,(2, 58),2	310,(2, 63),10	320,(2, 68),4	324,(2, 79),2	326,(2, 98),2	328,(2, 114),2	330,(2, 124),2	332,(2, 128),2	334,(2, 139),4	338,(2, 141),6	344,(2, 25),2	346,(2, 30),2	348,(2, 50),100	448,(2, 60),2	450,(2, 76),358	808,(2, 88),42	850,(2, 110),8	858,(2, 115),14	872,(2, 126),18	890,(2, 144),4	894,(2, 90),72	966,(2, 130),2	968,(2, 140),14	982,(2, 161),2	984,(2, 159),2	986,(2, 145),8	994,(2, 153),10	1004,(2, 163),2	1006,(2, 166),58	1064,(2, 195),64	1128,(2, 196),2	1130,(7, 40),2	1132,(7, 45),22	1154,(7, 85),4	1158,(2, 59),116	1274,(2, 136),232	1506,(7, 90),2	1508,(12, 55),2	1510,(7, 61),6	1516,(7, 71),6	1522,(7, 91),6	1528,(7, 95),8	1536,(7, 105),6	1542,(12, 65),4	1546,(7, 83),8	1554,(7, 123),2	1556,(7, 115),6	1562,(7, 120),10	1572,(12, 110),4	1576,(12, 120),4	1580,(12, 150),2	1582,(12, 155),8	1590,(17, 55),2	1592,(17, 80),2	1594,(17, 100),8	1602,(17, 110),2	1604,(7, 34),2	1606,(7, 39),4	1610,(7, 53),54	1664,(7, 103),8	1672,(7, 135),38	1710,(17, 120),2	1726,(7, 143),2	1728,(7, 173),2	1730,(7, 70),82	1812,(12, 185),40	1852,(7, 158),4	1856,(7, 183),4	1860,(12, 78),2	1862,(12, 93),2	1864,(12, 188),2	1882,(17, 103),2	1884,(12, 190),46	1944,(7, 44),2	1946,(7, 59),10	1956,(7, 144),2	1960,(7, 159),2	1980,(7, 74),4	1984,(12, 159),2	1986,(12, 194),2	1998,(7, 54),16	2014,(7, 69),36	2050,(7, 94),8	2058,(7, 194),6	2064,(7, 199),12	2076,(7, 76),34	2110,(7, 86),14	2124,(7, 188),22	2146,(12, 48),8	2154,(12, 173),4	2158,(17, 193),2	2160,(7, 171),4	2164,(7, 176),2	2166,(7, 181),2	2174,(7, 64),70	2244,(7, 84),32	2286,(7, 99),26	2312,(7, 106),22	2334,(7, 126),50	2384,(12, 21),4	2388,(12, 148),12	2400,(17, 190),36	2436,(17, 198),2	2438,(7, 134),24	2462,(7, 174),20	2482,(12, 79),18	2500,(12, 89),10	2510,(17, 29),2	2512,(17, 79),4	2516,(12, 83),18	2534,(17, 24),10	2604,(17, 89),2	2606,(17, 94),2	2608,(12, 81),2	2610,(17, 144),2	2616,(17, 149),2	2618,(12, 31),4	2622,(12, 91),2	2624,(12, 94),14	2640,(12, 46),10	2650,(12, 76),10	2660,(17, 71),2	2742,(7, 136),172	2914,(7, 140),192	3106,(7, 160),92	3198,(7, 175),90	3288,(12, 23),32	3320,(12, 163),10	3330,(17, 33),32	3362,(17, 58),18	3380,(17, 73),26	3406,(17, 93),10	3416,(17, 118),12	3428,(17, 133),22	3450,(17, 158),18	3468,(17, 188),10	3626,(12, 119),36	3662,(12, 169),16	3678,(17, 59),6	3812,(12, 136),8	3928,(12, 51),44	3972,(12, 186),20	3992,(17, 119),4	4002,(17, 39),38	4040,(17, 154),8	4048,(17, 194),4	4054,(17, 109),36	4090,(17, 129),26	4292,(12, 116),186	4478,(12, 121),114	4592,(12, 126),332	5020,(17, 41),6	7128,(17, 61),20	9202,(17, 36),74	9276,(17, 56),56	9332,(17, 91),6	9338,(17, 141),12	9350,(17, 146),38	9388,(17, 186),14	10156,(47, 201),28	10436,(177, 201),28	10548,(107, 201),28	10660,(152, 201),28	10744,(172, 201),28	10884,(37, 201),28	10968,(117, 201),28	11052,(122, 201),28	11192,(27, 201),28	11304,(112, 201),28	11416,(157, 201),28	11528,(187, 201),28	12816,(42, 201),28	12928,(57, 201),28	13040,(72, 201),28	13152,(87, 201),28	13264,(97, 201),28	13348,(127, 201),28	13432,(197, 201),28	13488,(32, 201),28	13544,(67, 201),28	13600,(77, 201),28	13656,(82, 201),28	13684,(102, 201),28	13740,(142, 201),28	13796,(147, 201),28	13824,(162, 201),28	13852,(167, 201),28	13880,(182, 201),28	13908,(192, 201),28	13936,(22, 201),28	13964,(92, 201),28	13992,(52, 201),28	14020,(62, 201),28	14048,(132, 201),28	14076,(137, 201),28	
1,(0, 2),6	7,(0, 3),6	13,(0, 4),6	19,(0, 5),6	25,(0, 7),6	31,(0, 8),6	37,(0, 9),6	43,(0, 10),6	49,(0, 12),6	55,(0, 13),6	61,(0, 14),6	67,(0, 15),6	73,(0, 17),6	79,(0, 18),6	85,(0, 19),6	91,(0, 20),6	184,(11, 25),2	186,(11, 30),2	188,(11, 37),12	200,(11, 42),12	212,(11, 43),2	214,(11, 45),2	216,(11, 48),6	222,(11, 57),10	232,(11, 59),8	240,(11, 60),104	344,(11, 69),342	686,(11, 70),10	696,(11, 82),66	762,(11, 89),78	840,(11, 97),32	872,(11, 99),2	874,(11, 100),20	894,(11, 103),28	922,(11, 104),42	964,(11, 113),4	968,(11, 114),16	984,(11, 115),2	986,(11, 117),2	988,(11, 119),170	1158,(11, 137),276	1434,(11, 139),4	1438,(11, 150),2	1440,(11, 153),106	1546,(11, 162),8	1554,(11, 175),2	1556,(11, 177),2	1558,(11, 178),48	1606,(11, 180),4	1610,(11, 184),76	1686,(11, 188),20	1706,(11, 193),2	1708,(11, 198),18	1726,(11, 199),2	1728,(11, 200),2	1730,(6, 38),16	1746,(6, 42),22	1768,(6, 53),84	1852,(6, 62),14	1866,(6, 63),16	1882,(6, 65),2	1884,(6, 78),6	1890,(6, 88),8	1898,(6, 34),36	1934,(6, 44),8	1942,(6, 69),2	1944,(6, 95),2	1946,(6, 102),10	1956,(6, 110),2	1958,(6, 114),2	1960,(6, 120),2	1962,(6, 124),18	1980,(6, 125),2	1982,(6, 135),4	1986,(6, 142),2	1988,(6, 154),10	1998,(6, 157),2	2000,(6, 165),14	2014,(6, 167),16	2030,(6, 103),2	2032,(6, 123),20	2052,(6, 138),18	2070,(6, 143),2	2072,(6, 168),26	2098,(6, 173),2	2100,(6, 188),2	2102,(6, 198),6	2108,(16, 23),8	2116,(16, 35),2	2118,(16, 55),6	2124,(6, 159),50	2174,(16, 30),16	2190,(16, 45),20	2210,(16, 65),14	2224,(16, 100),30	2254,(16, 105),2	2256,(16, 115),10	2266,(16, 140),2	2268,(16, 145),6	2274,(1, 45),2	2276,(16, 32),6	2282,(16, 37),2	2284,(16, 92),2	2286,(16, 170),14	2300,(1, 110),2	2302,(1, 155),2	2304,(1, 165),2	2312,(16, 34),2	2314,(16, 44),2	2316,(16, 69),42	2358,(16, 84),2	2360,(16, 114),10	2370,(16, 124),2	2372,(16, 139),8	2380,(16, 194),2	2382,(1, 54),4	2386,(1, 89),2	2388,(6, 177),12	2400,(6, 183),32	2432,(6, 197),22	2454,(16, 28),52	2506,(16, 118),2	2508,(16, 138),8	2516,(16, 154),12	2528,(1, 79),6	2534,(16, 107),2	2536,(16, 108),50	2586,(16, 199),10	2596,(1, 29),8	2604,(16, 117),8	2612,(16, 172),2	2614,(1, 99),2	2628,(1, 115),6	2634,(1, 180),8	2642,(6, 199),230	2872,(16, 93),88	2960,(16, 183),16	2976,(1, 49),20	2996,(1, 109),26	3028,(16, 22),76	3104,(16, 142),4	3108,(16, 182),2	3110,(1, 27),20	3130,(1, 28),12	3142,(1, 48),4	3146,(1, 52),2	3148,(1, 58),2	3150,(1, 63),2	3152,(1, 68),2	3154,(1, 72),40	3194,(1, 82),2	3196,(1, 127),2	3200,(1, 73),16	3216,(1, 83),2	3218,(1, 88),2	3220,(1, 98),14	3234,(1, 108),40	3274,(1, 113),2	3276,(1, 117),12	3288,(1, 142),10	3318,(16, 122),186	3504,(1, 122),24	3528,(1, 147),4	3532,(16, 120),62	3594,(16, 125),46	3640,(16, 180),178	3818,(1, 153),2	3820,(1, 188),2	3822,(16, 159),80	3902,(1, 124),10	3914,(1, 24),56	3970,(1, 175),24	3994,(1, 185),4	3998,(1, 200),4	4030,(1, 118),36	4066,(1, 193),2	4152,(1, 187),10	
