16214
# CPU
49,4,1	50,12,1	51,36,1	52,14,1	53,23,1	54,25,1	55,26,1	56,16,1	113,8,1	117,18,1	129,33,1	137,22,1	153,24,1	169,27,1	189,34,1	209,13,1	225,15,1	325,20,1	445,29,1	505,32,1	1313,28,1	1393,17,1	1437,19,1	1481,21,1	1521,31,1	1561,35,1	1621,37,1	1637,39,1	
33,3,1	61,7,1	313,40,1	533,38,1	1957,9,1	2069,11,1	
17,2,1	18,6,1	189,10,1	357,30,1	
0,0,1	1,1,1	1949,5,1	16213,41,1	
# Incoming
33,(0, 4),16	49,(2, 8),60	109,(3, 8),4	113,(3, 18),4	117,(3, 24),4	121,(3, 33),8	129,(2, 21),4	133,(2, 22),4	137,(2, 24),16	153,(2, 27),16	169,(3, 34),20	189,(1, 13),20	209,(1, 15),16	225,(1, 17),4	229,(1, 20),96	325,(1, 29),120	445,(1, 32),60	505,(2, 17),476	981,(2, 28),332	1313,(3, 17),80	1393,(3, 19),44	1437,(3, 21),44	1481,(3, 31),40	1521,(3, 35),40	1561,(3, 37),60	1621,(3, 39),16	
17,(0, 3),16	33,(2, 7),4	49,(1, 7),12	109,(2, 11),20	169,(2, 40),144	505,(1, 38),28	1949,(4, 9),8	1957,(4, 11),112	
1,(0, 2),16	61,(1, 10),128	189,(3, 30),168	
1313,(6, 41),416	1729,(4, 5),220	2069,(12, 41),416	2485,(36, 41),416	2901,(14, 41),416	3317,(23, 41),416	3733,(25, 41),416	4149,(26, 41),416	4565,(16, 41),416	4981,(7, 41),416	5397,(8, 41),416	5813,(18, 41),416	6229,(33, 41),416	6645,(22, 41),416	7061,(24, 41),416	7477,(27, 41),416	7893,(10, 41),416	8309,(34, 41),416	8725,(13, 41),416	9141,(15, 41),416	9557,(40, 41),416	9973,(20, 41),416	10389,(30, 41),416	10805,(29, 41),416	11221,(32, 41),416	11637,(38, 41),416	12053,(28, 41),416	12469,(17, 41),416	12885,(19, 41),416	13301,(21, 41),416	13717,(31, 41),416	14133,(35, 41),416	14549,(37, 41),416	14965,(39, 41),416	15381,(9, 41),416	15797,(11, 41),416	
# Outgoing
1729,(4, 5),220	1949,(4, 9),8	1957,(4, 11),112	2069,(12, 41),416	2485,(36, 41),416	2901,(14, 41),416	3317,(23, 41),416	3733,(25, 41),416	4149,(26, 41),416	4565,(16, 41),416	5397,(8, 41),416	5813,(18, 41),416	6229,(33, 41),416	6645,(22, 41),416	7061,(24, 41),416	7477,(27, 41),416	8309,(34, 41),416	8725,(13, 41),416	9141,(15, 41),416	9973,(20, 41),416	10805,(29, 41),416	11221,(32, 41),416	12053,(28, 41),416	12469,(17, 41),416	12885,(19, 41),416	13301,(21, 41),416	13717,(31, 41),416	14133,(35, 41),416	14549,(37, 41),416	14965,(39, 41),416	
109,(3, 8),4	113,(3, 18),4	117,(3, 24),4	121,(3, 33),8	169,(3, 34),20	189,(3, 30),168	1313,(3, 17),80	1393,(3, 19),44	1437,(3, 21),44	1481,(3, 31),40	1521,(3, 35),40	1561,(3, 37),60	1621,(3, 39),16	4981,(7, 41),416	9557,(40, 41),416	11637,(38, 41),416	15381,(9, 41),416	15797,(11, 41),416	
33,(2, 7),4	49,(2, 8),60	109,(2, 11),20	129,(2, 21),4	133,(2, 22),4	137,(2, 24),16	153,(2, 27),16	169,(2, 40),144	505,(2, 17),476	981,(2, 28),332	1313,(6, 41),416	7893,(10, 41),416	10389,(30, 41),416	
1,(0, 2),16	17,(0, 3),16	33,(0, 4),16	49,(1, 7),12	61,(1, 10),128	189,(1, 13),20	209,(1, 15),16	225,(1, 17),4	229,(1, 20),96	325,(1, 29),120	445,(1, 32),60	505,(1, 38),28	
