23396
# CPU
8389,65,1	8425,71,1	9649,54,1	10624,45,1	11062,181,1	11215,84,1	11218,99,1	11533,196,1	11626,68,1	11638,75,1	11695,103,1	11701,106,1	11983,150,1	12247,63,1	12271,76,1	12625,136,1	12769,183,1	13153,53,1	13174,59,1	13303,109,1	13321,110,1	13867,132,1	14083,34,1	14101,42,1	14119,86,1	14194,116,1	14266,145,1	14380,180,1	14398,182,1	14524,197,1	14608,72,1	14635,83,1	14665,138,1	14680,141,1	14995,162,1	15109,174,1	16255,41,1	16687,111,1	17008,147,1	17011,158,1	17125,168,1	17494,52,1	17644,80,1	17716,82,1	17749,104,1	17779,107,1	18112,22,1	18259,29,1	18322,30,1	18337,70,1	18370,97,1	18397,124,1	18568,172,1	18571,173,1	18580,178,1	18739,188,1	18973,189,1	19498,24,1	19522,33,1	19663,79,1	19672,90,1	19729,108,1	19750,114,1	19789,120,1	20452,131,1	20473,144,1	20485,148,1	20560,154,1	20563,161,1	20566,165,1	20620,171,1	20653,177,1	20668,192,1	20758,32,1	20779,51,1	20893,61,1	20896,69,1	20908,92,1	20920,95,1	20962,112,1	20980,119,1	21001,126,1	21010,137,1	21148,170,1	21205,187,1	21304,199,1	21367,26,1	21454,27,1	21514,28,1	21523,37,1	21565,38,1	21568,43,1	21688,62,1	21718,117,1	21769,118,1	21772,121,1	21787,128,1	21802,156,1	21805,159,1	21949,160,1	21952,164,1	21964,166,1	22033,175,1	22036,176,1	22153,200,1	22159,39,1	22162,40,1	22165,44,1	22168,47,1	22180,48,1	22345,49,1	22381,55,1	22384,56,1	22387,57,1	22474,64,1	22522,66,1	22534,74,1	22537,87,1	22567,91,1	22573,98,1	22747,101,1	22750,123,1	22762,127,1	22795,130,1	22801,142,1	22804,143,1	22897,151,1	22921,152,1	22966,163,1	22972,179,1	22975,184,1	22990,191,1	23020,193,1	23095,194,1	23395,201,1	
0,0,1	1,20,1	2,13,1	3,19,1	4,11,1	5,5,1	6,17,1	7,4,1	8,8,1	9,15,1	10,18,1	11,149,1	12,81,1	13,125,1	14,157,1	15,25,1	16,21,1	17,167,1	18,60,1	19,190,1	20,135,1	21,50,1	22,100,1	23,169,1	24,58,1	13270,102,1	13276,105,1	14146,89,1	18373,113,1	19525,35,1	19591,46,1	20686,23,1	20923,96,1	21790,129,1	
115,1,1	229,2,1	230,93,1	343,3,1	344,73,1	345,94,1	346,198,1	347,155,1	457,6,1	458,133,1	571,7,1	572,31,1	685,9,1	686,195,1	799,10,1	800,78,1	913,12,1	914,88,1	915,139,1	916,115,1	1027,14,1	1141,16,1	1142,153,1	1459,77,1	3454,185,1	5467,122,1	5536,146,1	6904,67,1	8272,186,1	8461,85,1	11137,36,1	12589,134,1	12628,140,1	
# Incoming
1141,(20, 27),18	1159,(20, 33),3	1162,(20, 40),15	1177,(20, 44),3	1180,(20, 59),45	1225,(20, 63),12	1237,(20, 66),207	1459,(20, 80),3	1462,(20, 82),3	1465,(20, 103),3	1468,(20, 108),12	1480,(20, 144),126	1606,(20, 152),3	1609,(20, 154),27	1636,(20, 158),126	1762,(20, 160),18	1780,(20, 161),1665	3445,(20, 168),3	3454,(20, 188),30	3484,(20, 194),9	3493,(20, 196),3	3496,(13, 24),3	3499,(13, 28),3	3502,(13, 30),3	3505,(13, 52),495	4000,(13, 56),45	4045,(13, 63),375	4420,(13, 70),18	4438,(13, 84),3	4441,(13, 91),111	4552,(13, 106),9	4561,(13, 109),3	4564,(13, 127),3	4567,(13, 131),6	4573,(13, 136),27	4600,(13, 162),24	4624,(13, 165),66	4690,(13, 180),93	4783,(13, 183),3	4786,(19, 29),456	5242,(19, 39),15	5257,(19, 40),9	5266,(19, 41),30	5296,(19, 62),24	5320,(19, 66),33	5353,(19, 71),51	5404,(19, 75),21	5425,(19, 84),3	5428,(19, 87),3	5431,(19, 104),12	5443,(19, 117),3	5446,(19, 119),18	5467,(19, 142),63	5530,(19, 144),3	5536,(19, 156),402	5938,(19, 176),87	6025,(19, 177),9	6034,(19, 183),114	6148,(19, 187),12	6160,(19, 193),3	6163,(11, 22),12	6175,(11, 29),24	6199,(11, 34),126	6325,(11, 38),144	6469,(11, 40),24	6493,(11, 45),3	6496,(11, 47),3	6499,(11, 49),3	6502,(11, 54),63	6565,(11, 55),6	6571,(11, 59),6	6577,(11, 61),6	6583,(11, 64),192	6775,(11, 65),126	6904,(11, 71),3	6907,(11, 72),6	6913,(11, 82),24	6940,(11, 86),45	6985,(11, 109),357	7342,(11, 110),69	7411,(11, 124),12	7423,(11, 132),111	7534,(11, 138),57	7591,(11, 145),3	7594,(11, 148),27	7621,(11, 151),30	7651,(11, 159),3	7654,(11, 160),90	7744,(11, 174),54	7798,(11, 180),237	8035,(11, 181),84	8119,(11, 182),150	8272,(11, 197),12	8284,(5, 42),21	8305,(5, 49),27	8332,(5, 52),15	8347,(5, 59),12	8359,(5, 63),6	8365,(5, 65),24	8389,(5, 71),36	8425,(5, 74),12	8437,(5, 76),9	8446,(5, 79),9	8455,(5, 83),3	8461,(5, 101),27	8488,(5, 103),108	8596,(5, 107),6	8602,(5, 110),18	8620,(5, 112),81	8701,(5, 126),36	8737,(5, 131),15	8752,(5, 132),177	8929,(5, 145),81	9010,(5, 166),177	9187,(5, 181),30	9217,(5, 182),294	9511,(5, 184),6	9517,(5, 188),78	9595,(5, 194),3	9598,(5, 200),3	9601,(17, 34),12	9613,(17, 42),3	9616,(17, 54),33	9649,(17, 68),90	9739,(17, 70),3	9742,(17, 75),9	9751,(17, 80),9	9760,(17, 84),9	9769,(17, 91),42	9811,(17, 95),6	9817,(17, 97),15	9832,(17, 99),6	9838,(17, 101),12	9850,(17, 108),3	9853,(17, 114),147	10000,(17, 118),36	10036,(17, 119),21	10057,(17, 120),12	10069,(17, 136),3	10072,(17, 141),33	10105,(17, 152),15	10120,(17, 159),12	10132,(17, 165),210	10342,(4, 28),132	10474,(4, 32),24	10498,(4, 34),99	10597,(4, 39),9	10606,(4, 40),15	10621,(4, 45),3	10624,(4, 55),39	10663,(4, 59),12	10675,(4, 61),3	10678,(4, 72),27	10705,(4, 79),54	10759,(4, 84),6	10765,(4, 98),3	10768,(4, 99),27	10795,(4, 136),99	10894,(4, 142),42	10936,(4, 147),3	10939,(4, 148),15	10954,(4, 164),12	10966,(4, 165),45	11011,(4, 171),45	11056,(4, 174),3	11059,(4, 181),3	11062,(4, 189),21	11083,(4, 193),3	11086,(4, 196),3	11089,(8, 33),45	11137,(8, 37),9	11146,(8, 39),3	11149,(8, 40),51	11200,(8, 53),3	11203,(8, 55),3	11206,(8, 84),9	11215,(8, 99),3	11218,(8, 103),75	11293,(8, 108),6	11299,(8, 150),6	11305,(8, 151),42	11347,(8, 163),12	11359,(8, 171),3	11362,(8, 172),6	11368,(8, 173),129	11497,(8, 175),3	11500,(8, 176),18	11518,(8, 184),9	11527,(8, 191),3	11530,(8, 196),3	11533,(15, 22),9	11542,(15, 29),3	11545,(15, 40),3	11548,(15, 43),18	11566,(15, 48),9	11575,(15, 51),3	11578,(15, 57),3	11581,(15, 62),18	11599,(15, 68),27	11626,(15, 74),9	11635,(15, 75),3	11638,(15, 79),36	11674,(15, 103),21	11695,(15, 106),6	11701,(15, 108),3	11704,(15, 111),66	11770,(15, 114),3	11773,(15, 116),48	11821,(15, 132),63	11884,(15, 141),15	11899,(15, 143),51	11950,(15, 150),33	11983,(15, 160),3	11986,(15, 170),3	11989,(15, 192),99	12088,(15, 197),27	12115,(18, 24),66	12181,(18, 28),36	12217,(18, 63),30	12247,(18, 69),3	12250,(18, 76),21	12271,(18, 80),63	12334,(18, 82),36	12370,(18, 83),84	12454,(18, 86),3	12457,(18, 90),15	12472,(18, 107),3	12475,(18, 109),12	12487,(18, 111),39	12526,(18, 114),18	12544,(18, 116),42	12589,(18, 136),36	12628,(18, 162),75	12703,(18, 173),3	12706,(18, 176),9	12715,(18, 182),30	12745,(18, 183),24	12769,(18, 191),3	12772,(18, 192),9	12781,(18, 199),15	12796,(18, 200),12	12808,(149, 201),15	12823,(81, 201),15	12838,(125, 201),15	12853,(157, 201),15	12868,(25, 201),15	12883,(21, 201),15	12898,(167, 201),15	12913,(60, 201),15	12928,(190, 201),15	12943,(135, 201),15	12958,(50, 201),15	12973,(100, 201),15	12988,(169, 201),15	13003,(58, 201),15	13018,(1, 39),48	13066,(1, 43),48	13114,(1, 49),3	13117,(1, 52),9	13126,(1, 53),27	13153,(1, 59),21	13174,(1, 72),6	13180,(1, 74),54	13234,(1, 87),30	13264,(1, 101),3	13270,(1, 104),3	13276,(1, 107),21	13297,(1, 109),6	13303,(1, 110),18	13321,(1, 112),48	13369,(1, 123),387	13756,(1, 128),27	13783,(1, 132),84	13867,(1, 142),9	13876,(1, 152),24	13900,(1, 156),3	13903,(1, 161),3	13906,(1, 163),45	13951,(1, 164),12	13963,(1, 171),3	13966,(1, 178),24	13990,(1, 184),15	14005,(1, 194),6	14011,(1, 200),66	14077,(2, 34),6	14083,(2, 38),15	14098,(2, 42),3	14101,(2, 74),3	14104,(2, 86),15	14119,(2, 87),24	14146,(2, 91),21	14167,(2, 95),15	14182,(2, 101),3	14185,(2, 116),9	14194,(2, 119),18	14212,(2, 137),15	14227,(2, 141),15	14242,(2, 145),24	14266,(2, 152),66	14332,(2, 161),12	14344,(2, 168),30	14374,(2, 178),3	14377,(2, 180),3	14380,(2, 182),18	14398,(2, 189),108	14506,(2, 193),9	14515,(2, 197),9	14524,(2, 200),15	14539,(93, 201),15	14557,(3, 40),6	14563,(3, 44),18	14581,(3, 47),3	14584,(3, 51),12	14596,(3, 69),9	14605,(3, 72),3	14608,(3, 74),15	14623,(3, 83),12	14635,(3, 90),3	14638,(3, 104),3	14641,(3, 138),24	14665,(3, 141),15	14680,(3, 142),117	14797,(3, 143),24	14821,(3, 147),84	14905,(3, 148),3	14908,(3, 162),87	14995,(3, 166),15	15010,(3, 174),99	15109,(3, 176),18	15127,(3, 189),9	15136,(73, 201),15	15151,(94, 201),15	15166,(198, 201),15	15181,(155, 201),15	15196,(6, 28),3	15199,(6, 32),1029	16228,(6, 38),3	16231,(6, 41),24	16255,(6, 47),15	16270,(6, 101),9	16279,(6, 111),408	16687,(6, 118),3	16690,(6, 137),57	16747,(6, 142),12	16759,(6, 143),192	16951,(6, 147),57	17008,(6, 158),3	17011,(6, 164),96	17107,(6, 168),18	17125,(133, 201),15	17146,(7, 39),12	17158,(7, 52),336	17494,(7, 69),42	17536,(7, 80),108	17644,(7, 82),72	17716,(7, 92),24	17740,(7, 104),9	17749,(7, 107),30	17779,(7, 117),12	17791,(7, 121),30	17821,(7, 123),15	17836,(7, 143),9	17845,(7, 164),18	17863,(7, 173),12	17875,(7, 187),12	17887,(7, 200),3	17890,(31, 201),15	17905,(9, 22),207	18112,(9, 26),18	18130,(9, 29),129	18259,(9, 30),63	18322,(9, 70),15	18337,(9, 74),9	18346,(9, 91),12	18358,(9, 97),12	18373,(9, 124),24	18397,(9, 128),153	18550,(9, 154),9	18559,(9, 171),6	18565,(9, 172),3	18568,(9, 173),3	18571,(9, 178),9	18580,(9, 188),159	18739,(9, 189),234	18973,(9, 191),462	19435,(9, 200),27	19462,(195, 201),15	19477,(10, 24),21	19498,(10, 26),18	19516,(10, 33),6	19525,(10, 44),63	19591,(10, 49),3	19594,(10, 56),15	19609,(10, 61),27	19636,(10, 79),27	19663,(10, 90),9	19672,(10, 108),57	19729,(10, 114),21	19750,(10, 117),12	19762,(10, 120),27	19789,(10, 126),69	19858,(10, 127),36	19894,(10, 130),552	20446,(10, 131),6	20452,(10, 144),21	20473,(10, 148),12	20485,(10, 154),75	20560,(10, 161),3	20563,(10, 165),3	20566,(10, 171),54	20620,(10, 176),18	20638,(10, 177),15	20653,(10, 187),3	20656,(10, 192),12	20668,(78, 201),15	20686,(12, 27),9	20695,(12, 32),63	20758,(12, 51),21	20779,(12, 56),108	20887,(12, 61),6	20893,(12, 69),3	20896,(12, 92),12	20908,(12, 95),12	20923,(12, 112),39	20962,(12, 119),18	20980,(12, 121),18	20998,(12, 126),3	21001,(12, 137),9	21010,(12, 170),138	21148,(12, 176),18	21166,(12, 179),3	21169,(12, 187),36	21205,(12, 199),99	21304,(88, 201),15	21319,(139, 201),15	21334,(115, 201),15	21349,(14, 26),18	21367,(14, 27),87	21454,(14, 28),60	21514,(14, 37),9	21523,(14, 38),42	21565,(14, 43),3	21568,(14, 48),105	21673,(14, 62),15	21688,(14, 117),30	21718,(14, 118),51	21769,(14, 121),3	21772,(14, 128),15	21790,(14, 156),12	21802,(14, 159),3	21805,(14, 160),144	21949,(14, 164),3	21952,(14, 166),12	21964,(14, 175),69	22033,(14, 176),3	22036,(14, 200),117	22153,(16, 39),6	22159,(16, 40),3	22162,(16, 44),3	22165,(16, 47),3	22168,(16, 48),12	22180,(16, 49),165	22345,(16, 55),36	22381,(16, 56),3	22384,(16, 57),3	22387,(16, 64),87	22474,(16, 66),48	22522,(16, 74),12	22534,(16, 87),3	22537,(16, 91),30	22567,(16, 98),6	22573,(16, 101),174	22747,(16, 123),3	22750,(16, 127),12	22762,(16, 130),33	22795,(16, 142),6	22801,(16, 143),3	22804,(16, 151),93	22897,(16, 152),24	22921,(16, 163),45	22966,(16, 179),6	22972,(16, 184),3	22975,(16, 191),15	22990,(16, 193),30	23020,(16, 194),75	23095,(153, 201),15	23110,(77, 201),15	23125,(185, 201),15	23140,(122, 201),15	23155,(146, 201),15	23170,(67, 201),15	23185,(186, 201),15	23200,(85, 201),15	23215,(36, 201),15	23230,(134, 201),15	23245,(140, 201),15	23260,(102, 201),15	23275,(105, 201),15	23290,(89, 201),15	23305,(113, 201),15	23320,(35, 201),15	23335,(46, 201),15	23350,(23, 201),15	23365,(96, 201),15	23380,(129, 201),15	
13267,(1, 102),3	13273,(1, 105),3	14143,(2, 89),3	14554,(3, 35),3	17140,(7, 23),3	17143,(7, 35),3	18370,(9, 113),3	19522,(10, 35),3	19588,(10, 46),3	20683,(12, 23),3	20920,(12, 96),3	21787,(14, 129),3	
1,(0, 1),114	115,(0, 2),114	229,(0, 3),114	343,(0, 6),114	457,(0, 7),114	571,(0, 9),114	685,(0, 10),114	799,(0, 12),114	913,(0, 14),114	1027,(0, 16),114	1444,(20, 67),12	1456,(20, 77),3	3448,(20, 185),6	5464,(19, 122),3	5533,(19, 146),3	6901,(11, 67),3	6937,(11, 85),3	8269,(11, 186),3	8458,(5, 85),3	11134,(8, 36),3	12586,(18, 134),3	12625,(18, 140),3	
# Outgoing

1,(0, 1),114	115,(0, 2),114	229,(0, 3),114	343,(0, 6),114	457,(0, 7),114	571,(0, 9),114	685,(0, 10),114	799,(0, 12),114	913,(0, 14),114	1027,(0, 16),114	1141,(20, 27),18	1159,(20, 33),3	1162,(20, 40),15	1177,(20, 44),3	1180,(20, 59),45	1225,(20, 63),12	1237,(20, 66),207	1444,(20, 67),12	1456,(20, 77),3	1459,(20, 80),3	1462,(20, 82),3	1465,(20, 103),3	1468,(20, 108),12	1480,(20, 144),126	1606,(20, 152),3	1609,(20, 154),27	1636,(20, 158),126	1762,(20, 160),18	1780,(20, 161),1665	3445,(20, 168),3	3448,(20, 185),6	3454,(20, 188),30	3484,(20, 194),9	3493,(20, 196),3	3496,(13, 24),3	3499,(13, 28),3	3502,(13, 30),3	3505,(13, 52),495	4000,(13, 56),45	4045,(13, 63),375	4420,(13, 70),18	4438,(13, 84),3	4441,(13, 91),111	4552,(13, 106),9	4561,(13, 109),3	4564,(13, 127),3	4567,(13, 131),6	4573,(13, 136),27	4600,(13, 162),24	4624,(13, 165),66	4690,(13, 180),93	4783,(13, 183),3	4786,(19, 29),456	5242,(19, 39),15	5257,(19, 40),9	5266,(19, 41),30	5296,(19, 62),24	5320,(19, 66),33	5353,(19, 71),51	5404,(19, 75),21	5425,(19, 84),3	5428,(19, 87),3	5431,(19, 104),12	5443,(19, 117),3	5446,(19, 119),18	5464,(19, 122),3	5467,(19, 142),63	5530,(19, 144),3	5533,(19, 146),3	5536,(19, 156),402	5938,(19, 176),87	6025,(19, 177),9	6034,(19, 183),114	6148,(19, 187),12	6160,(19, 193),3	6163,(11, 22),12	6175,(11, 29),24	6199,(11, 34),126	6325,(11, 38),144	6469,(11, 40),24	6493,(11, 45),3	6496,(11, 47),3	6499,(11, 49),3	6502,(11, 54),63	6565,(11, 55),6	6571,(11, 59),6	6577,(11, 61),6	6583,(11, 64),192	6775,(11, 65),126	6901,(11, 67),3	6904,(11, 71),3	6907,(11, 72),6	6913,(11, 82),24	6937,(11, 85),3	6940,(11, 86),45	6985,(11, 109),357	7342,(11, 110),69	7411,(11, 124),12	7423,(11, 132),111	7534,(11, 138),57	7591,(11, 145),3	7594,(11, 148),27	7621,(11, 151),30	7651,(11, 159),3	7654,(11, 160),90	7744,(11, 174),54	7798,(11, 180),237	8035,(11, 181),84	8119,(11, 182),150	8269,(11, 186),3	8272,(11, 197),12	8284,(5, 42),21	8305,(5, 49),27	8332,(5, 52),15	8347,(5, 59),12	8359,(5, 63),6	8365,(5, 65),24	8389,(5, 71),36	8425,(5, 74),12	8437,(5, 76),9	8446,(5, 79),9	8455,(5, 83),3	8458,(5, 85),3	8461,(5, 101),27	8488,(5, 103),108	8596,(5, 107),6	8602,(5, 110),18	8620,(5, 112),81	8701,(5, 126),36	8737,(5, 131),15	8752,(5, 132),177	8929,(5, 145),81	9010,(5, 166),177	9187,(5, 181),30	9217,(5, 182),294	9511,(5, 184),6	9517,(5, 188),78	9595,(5, 194),3	9598,(5, 200),3	9601,(17, 34),12	9613,(17, 42),3	9616,(17, 54),33	9649,(17, 68),90	9739,(17, 70),3	9742,(17, 75),9	9751,(17, 80),9	9760,(17, 84),9	9769,(17, 91),42	9811,(17, 95),6	9817,(17, 97),15	9832,(17, 99),6	9838,(17, 101),12	9850,(17, 108),3	9853,(17, 114),147	10000,(17, 118),36	10036,(17, 119),21	10057,(17, 120),12	10069,(17, 136),3	10072,(17, 141),33	10105,(17, 152),15	10120,(17, 159),12	10132,(17, 165),210	10342,(4, 28),132	10474,(4, 32),24	10498,(4, 34),99	10597,(4, 39),9	10606,(4, 40),15	10621,(4, 45),3	10624,(4, 55),39	10663,(4, 59),12	10675,(4, 61),3	10678,(4, 72),27	10705,(4, 79),54	10759,(4, 84),6	10765,(4, 98),3	10768,(4, 99),27	10795,(4, 136),99	10894,(4, 142),42	10936,(4, 147),3	10939,(4, 148),15	10954,(4, 164),12	10966,(4, 165),45	11011,(4, 171),45	11056,(4, 174),3	11059,(4, 181),3	11062,(4, 189),21	11083,(4, 193),3	11086,(4, 196),3	11089,(8, 33),45	11134,(8, 36),3	11137,(8, 37),9	11146,(8, 39),3	11149,(8, 40),51	11200,(8, 53),3	11203,(8, 55),3	11206,(8, 84),9	11215,(8, 99),3	11218,(8, 103),75	11293,(8, 108),6	11299,(8, 150),6	11305,(8, 151),42	11347,(8, 163),12	11359,(8, 171),3	11362,(8, 172),6	11368,(8, 173),129	11497,(8, 175),3	11500,(8, 176),18	11518,(8, 184),9	11527,(8, 191),3	11530,(8, 196),3	11533,(15, 22),9	11542,(15, 29),3	11545,(15, 40),3	11548,(15, 43),18	11566,(15, 48),9	11575,(15, 51),3	11578,(15, 57),3	11581,(15, 62),18	11599,(15, 68),27	11626,(15, 74),9	11635,(15, 75),3	11638,(15, 79),36	11674,(15, 103),21	11695,(15, 106),6	11701,(15, 108),3	11704,(15, 111),66	11770,(15, 114),3	11773,(15, 116),48	11821,(15, 132),63	11884,(15, 141),15	11899,(15, 143),51	11950,(15, 150),33	11983,(15, 160),3	11986,(15, 170),3	11989,(15, 192),99	12088,(15, 197),27	12115,(18, 24),66	12181,(18, 28),36	12217,(18, 63),30	12247,(18, 69),3	12250,(18, 76),21	12271,(18, 80),63	12334,(18, 82),36	12370,(18, 83),84	12454,(18, 86),3	12457,(18, 90),15	12472,(18, 107),3	12475,(18, 109),12	12487,(18, 111),39	12526,(18, 114),18	12544,(18, 116),42	12586,(18, 134),3	12589,(18, 136),36	12625,(18, 140),3	12628,(18, 162),75	12703,(18, 173),3	12706,(18, 176),9	12715,(18, 182),30	12745,(18, 183),24	12769,(18, 191),3	12772,(18, 192),9	12781,(18, 199),15	12796,(18, 200),12	12808,(149, 201),15	12823,(81, 201),15	12838,(125, 201),15	12853,(157, 201),15	12868,(25, 201),15	12883,(21, 201),15	12898,(167, 201),15	12913,(60, 201),15	12928,(190, 201),15	12943,(135, 201),15	12958,(50, 201),15	12973,(100, 201),15	12988,(169, 201),15	13003,(58, 201),15	23260,(102, 201),15	23275,(105, 201),15	23290,(89, 201),15	23305,(113, 201),15	23320,(35, 201),15	23335,(46, 201),15	23350,(23, 201),15	23365,(96, 201),15	23380,(129, 201),15	
13018,(1, 39),48	13066,(1, 43),48	13114,(1, 49),3	13117,(1, 52),9	13126,(1, 53),27	13153,(1, 59),21	13174,(1, 72),6	13180,(1, 74),54	13234,(1, 87),30	13264,(1, 101),3	13267,(1, 102),3	13270,(1, 104),3	13273,(1, 105),3	13276,(1, 107),21	13297,(1, 109),6	13303,(1, 110),18	13321,(1, 112),48	13369,(1, 123),387	13756,(1, 128),27	13783,(1, 132),84	13867,(1, 142),9	13876,(1, 152),24	13900,(1, 156),3	13903,(1, 161),3	13906,(1, 163),45	13951,(1, 164),12	13963,(1, 171),3	13966,(1, 178),24	13990,(1, 184),15	14005,(1, 194),6	14011,(1, 200),66	14077,(2, 34),6	14083,(2, 38),15	14098,(2, 42),3	14101,(2, 74),3	14104,(2, 86),15	14119,(2, 87),24	14143,(2, 89),3	14146,(2, 91),21	14167,(2, 95),15	14182,(2, 101),3	14185,(2, 116),9	14194,(2, 119),18	14212,(2, 137),15	14227,(2, 141),15	14242,(2, 145),24	14266,(2, 152),66	14332,(2, 161),12	14344,(2, 168),30	14374,(2, 178),3	14377,(2, 180),3	14380,(2, 182),18	14398,(2, 189),108	14506,(2, 193),9	14515,(2, 197),9	14524,(2, 200),15	14539,(93, 201),15	14554,(3, 35),3	14557,(3, 40),6	14563,(3, 44),18	14581,(3, 47),3	14584,(3, 51),12	14596,(3, 69),9	14605,(3, 72),3	14608,(3, 74),15	14623,(3, 83),12	14635,(3, 90),3	14638,(3, 104),3	14641,(3, 138),24	14665,(3, 141),15	14680,(3, 142),117	14797,(3, 143),24	14821,(3, 147),84	14905,(3, 148),3	14908,(3, 162),87	14995,(3, 166),15	15010,(3, 174),99	15109,(3, 176),18	15127,(3, 189),9	15136,(73, 201),15	15151,(94, 201),15	15166,(198, 201),15	15181,(155, 201),15	15196,(6, 28),3	15199,(6, 32),1029	16228,(6, 38),3	16231,(6, 41),24	16255,(6, 47),15	16270,(6, 101),9	16279,(6, 111),408	16687,(6, 118),3	16690,(6, 137),57	16747,(6, 142),12	16759,(6, 143),192	16951,(6, 147),57	17008,(6, 158),3	17011,(6, 164),96	17107,(6, 168),18	17125,(133, 201),15	17140,(7, 23),3	17143,(7, 35),3	17146,(7, 39),12	17158,(7, 52),336	17494,(7, 69),42	17536,(7, 80),108	17644,(7, 82),72	17716,(7, 92),24	17740,(7, 104),9	17749,(7, 107),30	17779,(7, 117),12	17791,(7, 121),30	17821,(7, 123),15	17836,(7, 143),9	17845,(7, 164),18	17863,(7, 173),12	17875,(7, 187),12	17887,(7, 200),3	17890,(31, 201),15	17905,(9, 22),207	18112,(9, 26),18	18130,(9, 29),129	18259,(9, 30),63	18322,(9, 70),15	18337,(9, 74),9	18346,(9, 91),12	18358,(9, 97),12	18370,(9, 113),3	18373,(9, 124),24	18397,(9, 128),153	18550,(9, 154),9	18559,(9, 171),6	18565,(9, 172),3	18568,(9, 173),3	18571,(9, 178),9	18580,(9, 188),159	18739,(9, 189),234	18973,(9, 191),462	19435,(9, 200),27	19462,(195, 201),15	19477,(10, 24),21	19498,(10, 26),18	19516,(10, 33),6	19522,(10, 35),3	19525,(10, 44),63	19588,(10, 46),3	19591,(10, 49),3	19594,(10, 56),15	19609,(10, 61),27	19636,(10, 79),27	19663,(10, 90),9	19672,(10, 108),57	19729,(10, 114),21	19750,(10, 117),12	19762,(10, 120),27	19789,(10, 126),69	19858,(10, 127),36	19894,(10, 130),552	20446,(10, 131),6	20452,(10, 144),21	20473,(10, 148),12	20485,(10, 154),75	20560,(10, 161),3	20563,(10, 165),3	20566,(10, 171),54	20620,(10, 176),18	20638,(10, 177),15	20653,(10, 187),3	20656,(10, 192),12	20668,(78, 201),15	20683,(12, 23),3	20686,(12, 27),9	20695,(12, 32),63	20758,(12, 51),21	20779,(12, 56),108	20887,(12, 61),6	20893,(12, 69),3	20896,(12, 92),12	20908,(12, 95),12	20920,(12, 96),3	20923,(12, 112),39	20962,(12, 119),18	20980,(12, 121),18	20998,(12, 126),3	21001,(12, 137),9	21010,(12, 170),138	21148,(12, 176),18	21166,(12, 179),3	21169,(12, 187),36	21205,(12, 199),99	21304,(88, 201),15	21319,(139, 201),15	21334,(115, 201),15	21349,(14, 26),18	21367,(14, 27),87	21454,(14, 28),60	21514,(14, 37),9	21523,(14, 38),42	21565,(14, 43),3	21568,(14, 48),105	21673,(14, 62),15	21688,(14, 117),30	21718,(14, 118),51	21769,(14, 121),3	21772,(14, 128),15	21787,(14, 129),3	21790,(14, 156),12	21802,(14, 159),3	21805,(14, 160),144	21949,(14, 164),3	21952,(14, 166),12	21964,(14, 175),69	22033,(14, 176),3	22036,(14, 200),117	22153,(16, 39),6	22159,(16, 40),3	22162,(16, 44),3	22165,(16, 47),3	22168,(16, 48),12	22180,(16, 49),165	22345,(16, 55),36	22381,(16, 56),3	22384,(16, 57),3	22387,(16, 64),87	22474,(16, 66),48	22522,(16, 74),12	22534,(16, 87),3	22537,(16, 91),30	22567,(16, 98),6	22573,(16, 101),174	22747,(16, 123),3	22750,(16, 127),12	22762,(16, 130),33	22795,(16, 142),6	22801,(16, 143),3	22804,(16, 151),93	22897,(16, 152),24	22921,(16, 163),45	22966,(16, 179),6	22972,(16, 184),3	22975,(16, 191),15	22990,(16, 193),30	23020,(16, 194),75	23095,(153, 201),15	23110,(77, 201),15	23125,(185, 201),15	23140,(122, 201),15	23155,(146, 201),15	23170,(67, 201),15	23185,(186, 201),15	23200,(85, 201),15	23215,(36, 201),15	23230,(134, 201),15	23245,(140, 201),15	
