21780
# CPU
9,3,7	16,16,7	23,27,7	30,38,7	37,8,7	44,11,7	76,12,7	83,14,7	90,18,7	97,21,7	104,22,7	116,23,7	288,28,7	295,31,7	302,32,7	364,36,7	405,17,7	413,19,7	497,26,7	504,30,7	541,35,7	661,29,7	1589,39,7	1621,10,7	1669,20,7	1717,24,7	1749,25,7	1756,33,7	1763,34,7	1801,40,7	21779,41,1	
5,2,7	12,15,7	19,7,7	401,13,7	1521,37,7	1597,9,7	
0,0,1	1,4,7	8,1,7	60,5,7	21604,6,7	
# Incoming
5,(0, 3),4	12,(2, 8),16	28,(2, 11),4	32,(2, 12),44	76,(2, 14),4	80,(2, 18),4	84,(2, 21),4	88,(2, 22),4	92,(2, 23),24	116,(2, 24),156	272,(2, 28),16	288,(2, 31),4	292,(2, 32),4	296,(2, 36),68	401,(4, 17),4	405,(4, 19),8	413,(4, 20),4	417,(4, 26),80	497,(4, 30),4	501,(4, 35),40	541,(2, 29),120	661,(15, 41),168	829,(7, 41),168	997,(13, 41),168	1521,(4, 39),68	1589,(4, 40),4	1597,(1, 10),24	1621,(1, 20),48	1669,(1, 24),48	1717,(1, 25),32	1749,(1, 33),4	1753,(1, 34),4	1757,(1, 40),44	1801,(5, 41),168	1969,(37, 41),168	2137,(9, 41),168	21611,(6, 41),168	
1,(0, 2),4	9,(4, 7),8	17,(4, 9),132	149,(4, 13),252	541,(4, 37),980	1593,(1, 9),4	
16,(3, 5),44	60,(3, 6),21544	
# Outgoing
16,(3, 5),44	60,(3, 6),21544	
12,(2, 8),16	28,(2, 11),4	32,(2, 12),44	76,(2, 14),4	80,(2, 18),4	84,(2, 21),4	88,(2, 22),4	92,(2, 23),24	116,(2, 24),156	272,(2, 28),16	288,(2, 31),4	292,(2, 32),4	296,(2, 36),68	541,(2, 29),120	661,(15, 41),168	829,(7, 41),168	997,(13, 41),168	1969,(37, 41),168	2137,(9, 41),168	
1,(0, 2),4	5,(0, 3),4	9,(4, 7),8	17,(4, 9),132	149,(4, 13),252	401,(4, 17),4	405,(4, 19),8	413,(4, 20),4	417,(4, 26),80	497,(4, 30),4	501,(4, 35),40	541,(4, 37),980	1521,(4, 39),68	1589,(4, 40),4	1593,(1, 9),4	1597,(1, 10),24	1621,(1, 20),48	1669,(1, 24),48	1717,(1, 25),32	1749,(1, 33),4	1753,(1, 34),4	1757,(1, 40),44	1801,(5, 41),168	21611,(6, 41),168	
