164
# CPU
0,81,1	1,24,1	2,57,1	3,10,1	4,78,1	5,36,1	6,22,1	7,9,1	8,12,1	9,71,1	10,79,1	11,67,1	12,32,1	13,76,1	14,37,1	15,47,1	16,72,1	17,28,1	18,17,1	19,18,1	20,64,1	21,25,1	22,75,1	23,68,1	24,65,1	25,16,1	26,59,1	27,34,1	28,51,1	29,49,1	30,23,1	31,38,1	32,63,1	33,53,1	34,73,1	35,52,1	36,62,1	37,66,1	38,33,1	39,70,1	40,50,1	41,35,1	42,46,1	43,58,1	44,39,1	45,15,1	46,20,1	47,77,1	48,14,1	49,19,1	50,74,1	51,60,1	52,1,1	53,26,1	54,44,1	55,21,1	56,5,1	57,40,1	58,30,1	59,80,1	60,29,1	61,41,1	62,43,1	63,48,1	64,13,1	65,56,1	66,55,1	67,7,1	68,45,1	69,31,1	70,4,1	71,54,1	72,11,1	73,61,1	74,3,1	75,69,1	76,8,1	77,6,1	162,2,1	163,0,1	








33,27,1	65,42,1	
# Incoming
34,(27, 6),16	66,(42, 2),96	








1,(81, 27),32	33,(81, 42),32	
# Outgoing
1,(81, 27),32	33,(81, 42),32	








34,(27, 6),16	66,(42, 2),96	
