1947
# CPU
61,2,1	62,30,1	63,44,1	64,66,1	65,76,1	121,4,1	122,12,1	123,16,1	181,6,1	182,18,1	183,62,1	184,72,1	185,78,1	241,8,1	242,14,1	243,34,1	244,38,1	245,58,1	298,48,1	1090,54,1	1135,68,1	1144,80,1	1153,10,1	1162,20,1	1204,22,1	1216,24,1	1219,40,1	1264,52,1	1378,56,1	1567,74,1	1609,26,1	1618,28,1	1666,36,1	1675,50,1	1786,60,1	1810,32,1	1828,42,1	1855,46,1	1873,64,1	1927,70,1	
0,0,1	1,5,1	2,1,1	3,7,1	4,3,1	5,61,1	6,35,1	7,25,1	8,69,1	9,21,1	10,79,1	11,73,1	12,51,1	13,47,1	14,39,1	15,15,1	16,13,1	17,9,1	18,11,1	19,71,1	20,43,1	21,63,1	22,17,1	23,53,1	24,45,1	25,49,1	68,41,1	77,59,1	83,65,1	305,67,1	380,19,1	386,31,1	389,33,1	428,29,1	431,55,1	464,77,1	542,23,1	584,27,1	587,37,1	596,57,1	644,75,1	1946,81,1	
# Incoming
1,(0, 2),60	61,(0, 4),60	121,(0, 6),60	181,(0, 8),60	241,(5, 48),57	298,(5, 54),792	1090,(5, 68),45	1135,(5, 80),9	1144,(1, 10),9	1153,(1, 20),9	1162,(1, 22),42	1204,(1, 24),12	1216,(1, 40),3	1219,(1, 52),45	1264,(1, 56),114	1378,(1, 74),189	1567,(7, 26),42	1609,(7, 28),9	1618,(7, 36),48	1666,(7, 50),9	1675,(7, 60),111	1786,(3, 32),24	1810,(3, 42),18	1828,(3, 46),27	1855,(3, 64),18	1873,(3, 70),54	
62,(2, 41),6	68,(2, 59),9	77,(2, 65),6	83,(2, 67),222	305,(30, 81),18	323,(44, 81),18	341,(66, 81),18	359,(76, 81),18	377,(4, 19),3	380,(4, 31),6	386,(4, 33),3	389,(12, 81),18	407,(16, 81),18	425,(6, 29),3	428,(6, 55),3	431,(6, 77),33	464,(18, 81),18	482,(62, 81),18	500,(72, 81),18	518,(78, 81),18	536,(8, 23),6	542,(8, 27),42	584,(8, 37),3	587,(8, 57),9	596,(8, 75),48	644,(14, 81),18	662,(34, 81),18	680,(38, 81),18	698,(58, 81),18	716,(48, 81),18	1091,(54, 81),18	1136,(68, 81),18	1154,(80, 81),18	1172,(10, 81),18	1190,(20, 81),18	1208,(22, 81),18	1226,(24, 81),18	1244,(40, 81),18	1265,(52, 81),18	1379,(56, 81),18	1568,(74, 81),18	1610,(26, 81),18	1628,(28, 81),18	1667,(36, 81),18	1685,(50, 81),18	1787,(60, 81),18	1811,(32, 81),18	1829,(42, 81),18	1856,(46, 81),18	1874,(64, 81),18	1928,(70, 81),18	
# Outgoing
62,(2, 41),6	68,(2, 59),9	77,(2, 65),6	83,(2, 67),222	305,(30, 81),18	323,(44, 81),18	341,(66, 81),18	359,(76, 81),18	377,(4, 19),3	380,(4, 31),6	386,(4, 33),3	389,(12, 81),18	407,(16, 81),18	425,(6, 29),3	428,(6, 55),3	431,(6, 77),33	464,(18, 81),18	482,(62, 81),18	500,(72, 81),18	518,(78, 81),18	536,(8, 23),6	542,(8, 27),42	584,(8, 37),3	587,(8, 57),9	596,(8, 75),48	644,(14, 81),18	662,(34, 81),18	680,(38, 81),18	698,(58, 81),18	716,(48, 81),18	1091,(54, 81),18	1136,(68, 81),18	1154,(80, 81),18	1172,(10, 81),18	1190,(20, 81),18	1208,(22, 81),18	1226,(24, 81),18	1244,(40, 81),18	1265,(52, 81),18	1379,(56, 81),18	1568,(74, 81),18	1610,(26, 81),18	1628,(28, 81),18	1667,(36, 81),18	1685,(50, 81),18	1787,(60, 81),18	1811,(32, 81),18	1829,(42, 81),18	1856,(46, 81),18	1874,(64, 81),18	1928,(70, 81),18	
1,(0, 2),60	61,(0, 4),60	121,(0, 6),60	181,(0, 8),60	241,(5, 48),57	298,(5, 54),792	1090,(5, 68),45	1135,(5, 80),9	1144,(1, 10),9	1153,(1, 20),9	1162,(1, 22),42	1204,(1, 24),12	1216,(1, 40),3	1219,(1, 52),45	1264,(1, 56),114	1378,(1, 74),189	1567,(7, 26),42	1609,(7, 28),9	1618,(7, 36),48	1666,(7, 50),9	1675,(7, 60),111	1786,(3, 32),24	1810,(3, 42),18	1828,(3, 46),27	1855,(3, 64),18	1873,(3, 70),54	
