496
# CPU
0,0,1	1,17,4	5,163,4	9,52,4	13,104,4	17,3,4	21,31,4	25,139,4	29,149,4	33,72,4	37,40,4	41,177,4	45,24,4	49,180,4	53,43,4	57,20,4	61,190,4	65,142,4	69,132,4	73,181,4	77,35,4	81,44,4	85,53,4	89,87,4	93,6,4	97,62,4	101,193,4	105,157,4	109,117,4	113,23,4	117,68,4	121,58,4	125,198,4	129,45,4	133,29,4	137,83,4	141,89,4	145,4,4	149,95,4	153,159,4	157,161,4	161,54,4	165,108,4	169,36,4	177,155,4	186,73,4	198,128,4	212,63,4	225,134,4	238,70,4	256,107,4	274,138,4	297,196,4	331,176,4	378,112,4	491,92,4	495,201,1	
7,191,4	13,93,4	22,91,4	26,141,4	30,175,4	34,179,4	53,158,4	57,186,4	61,60,4	65,135,4	69,42,4	73,195,4	77,113,4	81,30,4	85,129,4	89,65,4	96,162,4	100,153,4	104,170,4	108,110,4	117,48,4	125,79,4	129,106,4	133,189,4	137,136,4	141,55,4	145,61,4	149,33,4	154,133,4	
23,116,4	27,84,4	31,199,4	41,19,4	45,81,4	49,168,4	53,56,4	57,34,4	61,115,4	65,75,4	69,140,4	73,77,4	77,96,4	81,38,4	85,137,4	89,98,4	93,76,4	97,90,4	101,121,4	105,103,4	111,2,4	115,41,4	119,114,4	123,146,4	127,130,4	131,169,4	135,167,4	139,165,4	143,80,4	147,22,4	
20,13,4	24,188,4	28,126,4	32,32,4	36,154,4	40,78,4	44,21,4	48,11,4	52,152,4	56,7,4	60,183,4	64,5,4	68,64,4	72,10,4	76,187,4	80,16,4	84,14,4	88,184,4	92,12,4	96,122,4	100,18,4	104,71,4	108,148,4	112,94,4	116,47,4	120,8,4	124,74,4	128,15,4	132,1,4	136,88,4	140,9,4	144,120,4	148,97,4	152,49,4	156,118,4	160,69,4	164,125,4	168,166,4	172,127,4	176,185,4	180,51,4	184,111,4	188,50,4	192,172,4	196,156,4	200,109,4	204,197,4	208,164,4	212,119,4	216,160,4	220,27,4	224,59,4	228,182,4	232,194,4	236,143,4	240,123,4	244,86,4	248,85,4	252,66,4	256,82,4	260,200,4	264,178,4	268,46,4	272,124,4	276,150,4	280,101,4	284,37,4	288,100,4	292,67,4	296,99,4	300,144,4	304,173,4	308,39,4	312,131,4	316,174,4	320,25,4	324,105,4	328,192,4	332,171,4	336,145,4	340,147,4	344,28,4	348,57,4	352,102,4	356,151,4	360,26,4	
# Incoming
11,(191, 201),1	17,(93, 201),1	26,(91, 201),1	27,(116, 201),1	28,(188, 201),1	30,(141, 201),1	31,(84, 201),1	32,(126, 201),1	34,(175, 201),1	35,(199, 201),1	36,(32, 201),1	38,(179, 201),1	40,(154, 201),1	44,(78, 201),1	48,(21, 201),1	49,(81, 201),1	53,(168, 201),1	56,(152, 201),1	57,(56, 201),1	58,(158, 201),1	61,(34, 201),1	62,(186, 201),1	64,(183, 201),1	65,(115, 201),1	66,(60, 201),1	69,(75, 201),1	70,(135, 201),1	72,(64, 201),1	73,(140, 201),1	74,(42, 201),1	77,(195, 201),1	78,(77, 201),1	80,(187, 201),1	81,(96, 201),1	82,(113, 201),1	85,(38, 201),1	86,(30, 201),1	89,(137, 201),1	90,(129, 201),1	92,(184, 201),1	93,(65, 201),1	94,(98, 201),1	97,(76, 201),1	100,(122, 201),1	101,(162, 201),1	102,(90, 201),1	104,(153, 201),1	105,(121, 201),1	108,(71, 201),1	109,(170, 201),1	110,(103, 201),1	112,(148, 201),1	113,(110, 201),1	116,(94, 201),1	119,(41, 201),1	120,(47, 201),1	121,(48, 201),1	123,(114, 201),1	127,(146, 201),1	128,(74, 201),1	129,(79, 201),1	131,(130, 201),1	133,(106, 201),1	135,(169, 201),1	137,(189, 201),1	139,(167, 201),1	140,(88, 201),1	141,(136, 201),1	143,(165, 201),1	145,(55, 201),1	147,(80, 201),1	148,(120, 201),1	149,(61, 201),1	151,(22, 201),1	152,(97, 201),1	153,(33, 201),1	156,(49, 201),1	158,(133, 201),1	160,(118, 201),1	164,(69, 201),1	168,(125, 201),1	172,(166, 201),1	173,(8, 155),4	177,(127, 201),1	180,(185, 201),1	181,(11, 73),5	186,(51, 201),1	188,(111, 201),1	192,(50, 201),1	193,(15, 128),5	198,(172, 201),1	200,(156, 201),1	204,(109, 201),1	205,(18, 63),7	212,(197, 201),1	213,(164, 201),1	216,(119, 201),1	217,(7, 134),8	225,(160, 201),1	226,(27, 201),1	228,(59, 201),1	229,(15, 70),9	238,(182, 201),1	239,(194, 201),1	240,(143, 201),1	244,(123, 201),1	245,(14, 107),11	256,(86, 201),1	257,(85, 201),1	258,(66, 201),1	260,(82, 201),1	261,(14, 138),13	274,(200, 201),1	275,(178, 201),1	276,(46, 201),1	277,(124, 201),1	280,(150, 201),1	281,(8, 196),16	297,(101, 201),1	298,(37, 201),1	299,(100, 201),1	300,(67, 201),1	301,(99, 201),1	302,(7, 176),29	331,(144, 201),1	332,(173, 201),1	333,(39, 201),1	334,(131, 201),1	335,(174, 201),1	336,(25, 201),1	337,(105, 201),1	338,(15, 112),40	378,(192, 201),1	379,(171, 201),1	380,(145, 201),1	381,(147, 201),1	382,(28, 201),1	383,(57, 201),1	384,(102, 201),1	385,(15, 92),106	491,(151, 201),1	492,(26, 201),1	
5,(17, 191),2	7,(17, 93),6	21,(3, 91),1	23,(3, 141),1	26,(3, 175),3	29,(3, 179),5	52,(11, 158),1	53,(11, 186),1	60,(7, 60),1	61,(7, 42),1	62,(20, 135),1	65,(7, 195),2	67,(7, 113),3	73,(7, 30),3	81,(10, 129),3	85,(16, 65),1	93,(16, 162),3	98,(6, 153),1	101,(12, 170),3	104,(14, 110),3	115,(2, 48),2	121,(7, 79),4	125,(8, 106),2	132,(15, 189),1	133,(15, 136),2	135,(15, 55),2	137,(15, 33),3	144,(9, 61),1	149,(4, 133),5	
22,(3, 116),1	24,(3, 84),2	29,(13, 199),2	34,(0, 19),7	62,(7, 77),2	76,(10, 96),1	77,(10, 38),1	84,(16, 137),1	86,(16, 98),2	88,(14, 76),2	96,(12, 90),1	97,(12, 121),2	99,(6, 103),5	104,(0, 2),7	129,(8, 80),3	145,(9, 22),2	
13,(0, 13),7	41,(0, 11),7	48,(0, 7),7	55,(0, 5),7	63,(0, 10),7	70,(0, 16),7	77,(0, 14),7	84,(0, 12),7	91,(0, 18),7	111,(0, 8),7	118,(0, 15),7	125,(0, 1),7	132,(0, 9),7	
# Outgoing
5,(17, 191),2	7,(17, 93),6	13,(0, 13),7	21,(3, 91),1	22,(3, 116),1	23,(3, 141),1	24,(3, 84),2	26,(3, 175),3	29,(3, 179),5	34,(0, 19),7	41,(0, 11),7	48,(0, 7),7	55,(0, 5),7	62,(20, 135),1	63,(0, 10),7	70,(0, 16),7	77,(0, 14),7	84,(0, 12),7	91,(0, 18),7	98,(6, 153),1	99,(6, 103),5	104,(0, 2),7	111,(0, 8),7	118,(0, 15),7	125,(0, 1),7	132,(0, 9),7	149,(4, 133),5	
11,(191, 201),1	17,(93, 201),1	26,(91, 201),1	30,(141, 201),1	34,(175, 201),1	38,(179, 201),1	58,(158, 201),1	62,(186, 201),1	66,(60, 201),1	70,(135, 201),1	74,(42, 201),1	77,(195, 201),1	82,(113, 201),1	86,(30, 201),1	90,(129, 201),1	93,(65, 201),1	101,(162, 201),1	104,(153, 201),1	109,(170, 201),1	113,(110, 201),1	121,(48, 201),1	129,(79, 201),1	133,(106, 201),1	137,(189, 201),1	141,(136, 201),1	145,(55, 201),1	149,(61, 201),1	153,(33, 201),1	158,(133, 201),1	
27,(116, 201),1	31,(84, 201),1	35,(199, 201),1	49,(81, 201),1	53,(168, 201),1	57,(56, 201),1	61,(34, 201),1	65,(115, 201),1	69,(75, 201),1	73,(140, 201),1	78,(77, 201),1	81,(96, 201),1	85,(38, 201),1	89,(137, 201),1	94,(98, 201),1	97,(76, 201),1	102,(90, 201),1	105,(121, 201),1	110,(103, 201),1	115,(2, 48),2	119,(41, 201),1	123,(114, 201),1	127,(146, 201),1	131,(130, 201),1	135,(169, 201),1	139,(167, 201),1	143,(165, 201),1	147,(80, 201),1	151,(22, 201),1	
28,(188, 201),1	29,(13, 199),2	32,(126, 201),1	36,(32, 201),1	40,(154, 201),1	44,(78, 201),1	48,(21, 201),1	52,(11, 158),1	53,(11, 186),1	56,(152, 201),1	60,(7, 60),1	61,(7, 42),1	62,(7, 77),2	64,(183, 201),1	65,(7, 195),2	67,(7, 113),3	72,(64, 201),1	73,(7, 30),3	76,(10, 96),1	77,(10, 38),1	80,(187, 201),1	81,(10, 129),3	84,(16, 137),1	85,(16, 65),1	86,(16, 98),2	88,(14, 76),2	92,(184, 201),1	93,(16, 162),3	96,(12, 90),1	97,(12, 121),2	100,(122, 201),1	101,(12, 170),3	104,(14, 110),3	108,(71, 201),1	112,(148, 201),1	116,(94, 201),1	120,(47, 201),1	121,(7, 79),4	125,(8, 106),2	128,(74, 201),1	129,(8, 80),3	132,(15, 189),1	133,(15, 136),2	135,(15, 55),2	137,(15, 33),3	140,(88, 201),1	144,(9, 61),1	145,(9, 22),2	148,(120, 201),1	152,(97, 201),1	156,(49, 201),1	160,(118, 201),1	164,(69, 201),1	168,(125, 201),1	172,(166, 201),1	173,(8, 155),4	177,(127, 201),1	180,(185, 201),1	181,(11, 73),5	186,(51, 201),1	188,(111, 201),1	192,(50, 201),1	193,(15, 128),5	198,(172, 201),1	200,(156, 201),1	204,(109, 201),1	205,(18, 63),7	212,(197, 201),1	213,(164, 201),1	216,(119, 201),1	217,(7, 134),8	225,(160, 201),1	226,(27, 201),1	228,(59, 201),1	229,(15, 70),9	238,(182, 201),1	239,(194, 201),1	240,(143, 201),1	244,(123, 201),1	245,(14, 107),11	256,(86, 201),1	257,(85, 201),1	258,(66, 201),1	260,(82, 201),1	261,(14, 138),13	274,(200, 201),1	275,(178, 201),1	276,(46, 201),1	277,(124, 201),1	280,(150, 201),1	281,(8, 196),16	297,(101, 201),1	298,(37, 201),1	299,(100, 201),1	300,(67, 201),1	301,(99, 201),1	302,(7, 176),29	331,(144, 201),1	332,(173, 201),1	333,(39, 201),1	334,(131, 201),1	335,(174, 201),1	336,(25, 201),1	337,(105, 201),1	338,(15, 112),40	378,(192, 201),1	379,(171, 201),1	380,(145, 201),1	381,(147, 201),1	382,(28, 201),1	383,(57, 201),1	384,(102, 201),1	385,(15, 92),106	491,(151, 201),1	492,(26, 201),1	
