8954
# CPU
37,10,8	73,20,8	81,137,8	133,93,8	261,120,8	417,53,8	521,71,8	529,124,8	609,150,8	781,185,8	1049,87,8	1089,133,8	1313,66,8	1961,37,8	2021,145,8	2081,163,8	2105,159,8	2129,169,8	2425,190,8	2433,179,8	2537,115,8	2609,59,8	2629,196,8	3905,81,8	3997,101,8	4081,128,8	4105,154,8	4325,76,8	4369,174,8	4789,141,8	5761,108,8	
33,9,8	69,19,8	217,36,8	505,105,8	725,126,8	745,73,8	761,131,8	769,143,8	813,147,8	833,83,8	997,166,8	1065,112,8	1245,122,8	1261,187,8	1373,117,8	1397,157,8	1473,152,8	1513,54,8	1573,64,8	1969,90,8	2377,176,8	2405,181,8	2721,198,8	2765,68,8	2797,78,8	2837,161,8	3397,139,8	3937,193,8	3993,95,8	4085,135,8	4289,171,8	
29,8,8	65,18,8	185,92,8	449,178,8	517,184,8	689,51,8	1065,86,8	1301,168,8	2169,75,8	2185,136,8	2201,189,8	2229,114,8	2425,173,8	2477,35,8	2537,123,8	2605,58,8	2629,62,8	2713,195,8	2797,118,8	2809,80,8	2817,127,8	2901,132,8	3049,70,8	3113,99,8	3421,140,8	3441,162,8	4001,107,8	4089,144,8	4097,149,8	4273,158,8	4429,200,8	6021,153,8	
25,7,8	61,17,8	173,116,8	289,67,8	449,34,8	465,72,8	557,134,8	601,197,8	669,89,8	825,129,8	1009,175,8	1085,77,8	1205,180,8	1937,52,8	2113,111,8	2193,155,8	2229,82,8	2277,125,8	2317,138,8	2381,103,8	2401,146,8	3497,60,8	3577,142,8	3985,94,8	4069,121,8	4153,186,8	4325,160,8	4365,170,8	4809,151,8	4873,191,8	8929,165,8	
21,6,8	57,16,8	77,74,8	833,113,8	1021,119,8	1245,106,8	1253,194,8	1261,49,8	1297,79,8	1589,84,8	1597,91,8	1861,33,8	1869,98,8	2101,172,8	2501,47,8	2613,199,8	2621,188,8	2733,55,8	2793,69,8	2877,177,8	2901,183,8	4337,164,8	8953,201,1	
17,5,8	53,15,8	513,110,8	601,65,8	753,30,8	865,46,8	877,61,8	1697,100,8	1833,102,8	2433,42,8	2821,167,8	4013,109,8	
13,4,8	49,14,8	889,96,8	917,40,8	1341,50,8	1461,25,8	2481,97,8	2745,63,8	4033,192,8	
9,3,8	45,13,8	189,43,8	2081,148,8	2233,85,8	2265,39,8	2321,23,8	2477,45,8	2601,57,8	3177,88,8	
5,2,8	41,12,8	2265,38,8	2385,41,8	2429,156,8	2437,32,8	4181,182,8	5801,130,8	6577,48,8	7601,104,8	8177,44,8	8185,22,8	
0,0,1	1,11,8	9,1,8	637,28,8	669,21,8	689,56,8	1265,26,8	1401,27,8	1701,29,8	2405,31,8	2773,24,8	
# Incoming
33,(0, 10),4	49,(7, 71),4	53,(7, 93),4	69,(0, 20),4	73,(8, 71),16	89,(8, 87),40	129,(8, 93),4	173,(9, 128),20	193,(9, 133),4	197,(9, 163),4	201,(8, 159),4	209,(2, 163),4	249,(18, 115),4	253,(11, 59),4	257,(18, 120),4	265,(18, 185),4	273,(7, 115),4	277,(8, 169),104	413,(17, 53),4	421,(17, 169),4	425,(2, 141),24	449,(3, 81),4	453,(4, 71),12	465,(19, 190),24	513,(12, 133),4	517,(13, 71),4	521,(13, 124),4	529,(11, 128),4	541,(11, 141),56	597,(17, 179),4	605,(11, 150),4	609,(17, 87),56	669,(5, 101),8	681,(5, 159),4	685,(5, 169),4	689,(5, 190),4	693,(15, 133),4	697,(15, 179),4	725,(2, 185),56	781,(16, 128),4	789,(5, 154),48	837,(6, 128),28	865,(7, 174),72	945,(5, 163),60	1005,(12, 76),24	1029,(12, 87),20	1065,(3, 133),24	1105,(15, 174),24	1161,(17, 108),48	1233,(16, 76),16	1249,(16, 169),8	1305,(14, 37),4	1309,(14, 66),4	1313,(3, 196),52	1365,(8, 190),576	1941,(13, 37),20	1961,(13, 145),60	2025,(4, 163),56	2081,(13, 159),24	2105,(13, 169),24	2405,(4, 190),20	2425,(11, 179),8	2433,(14, 81),4	2477,(17, 115),60	2605,(1, 59),4	2617,(14, 196),12	2809,(1, 81),1096	3905,(14, 128),40	3993,(1, 101),4	4069,(1, 128),12	4093,(1, 154),12	4105,(14, 76),220	4365,(1, 174),4	4369,(9, 141),420	4789,(15, 108),972	
29,(0, 9),4	45,(2, 78),4	57,(7, 95),8	65,(0, 19),4	89,(7, 105),44	133,(8, 90),44	185,(2, 117),24	209,(18, 36),8	233,(2, 122),52	285,(7, 126),4	381,(7, 143),12	393,(7, 166),8	401,(7, 176),12	417,(17, 73),4	421,(18, 122),4	441,(4, 73),8	461,(11, 105),44	505,(11, 112),12	517,(2, 166),20	537,(2, 181),4	541,(2, 198),16	557,(4, 83),20	577,(12, 64),8	585,(12, 122),12	597,(11, 147),8	609,(11, 152),24	633,(2, 126),92	725,(5, 54),16	741,(5, 73),4	745,(5, 131),16	761,(5, 143),4	765,(5, 147),20	785,(6, 117),24	809,(6, 147),4	813,(12, 83),20	833,(7, 181),24	857,(12, 161),4	865,(6, 193),112	977,(10, 78),8	985,(12, 166),12	997,(16, 157),12	1009,(5, 193),16	1025,(5, 198),4	1029,(10, 112),36	1065,(20, 139),12	1077,(20, 193),4	1085,(6, 181),148	1233,(17, 122),12	1257,(16, 187),4	1265,(3, 161),48	1313,(4, 95),16	1329,(12, 117),44	1373,(12, 157),24	1401,(16, 54),40	1441,(17, 152),32	1509,(13, 54),4	1553,(13, 64),20	1573,(13, 68),8	1593,(13, 181),52	1645,(13, 193),4	1865,(15, 161),16	1881,(15, 193),8	1941,(18, 90),28	2081,(4, 176),296	2377,(4, 181),28	2429,(6, 198),292	2745,(1, 68),20	2793,(1, 78),4	2797,(14, 193),8	2817,(14, 161),20	3177,(16, 139),220	3497,(12, 171),24	3521,(17, 193),416	3985,(1, 95),8	4081,(1, 135),4	4181,(18, 171),108	
25,(0, 8),4	29,(2, 62),4	49,(9, 35),4	53,(2, 114),4	61,(0, 18),4	65,(7, 51),8	73,(7, 99),16	109,(2, 92),76	201,(11, 51),12	213,(2, 118),20	281,(17, 35),4	401,(3, 75),28	433,(19, 162),4	437,(3, 114),4	445,(3, 178),4	461,(2, 184),12	473,(4, 80),32	509,(12, 70),4	513,(3, 184),4	525,(13, 149),4	533,(11, 140),8	541,(3, 70),128	669,(6, 51),20	689,(9, 153),20	709,(15, 35),4	713,(15, 189),8	721,(6, 136),4	725,(6, 168),24	753,(16, 86),12	765,(3, 86),300	1065,(7, 140),96	1161,(10, 80),4	1165,(3, 158),100	1265,(10, 62),12	1277,(10, 144),4	1281,(17, 153),8	1289,(4, 153),4	1293,(4, 168),8	1301,(12, 107),24	1325,(12, 127),4	1329,(4, 99),208	1537,(6, 62),132	1669,(9, 200),28	1697,(4, 114),240	1937,(9, 70),196	2133,(12, 75),36	2169,(12, 136),16	2185,(13, 189),16	2201,(16, 114),28	2229,(12, 158),56	2285,(20, 127),4	2293,(11, 173),132	2425,(13, 35),52	2477,(13, 123),60	2537,(15, 140),32	2569,(17, 158),8	2601,(1, 58),4	2609,(1, 62),20	2629,(4, 195),84	2713,(20, 70),32	2773,(14, 118),24	2797,(1, 80),12	2809,(14, 127),4	2813,(14, 132),4	2817,(15, 132),84	2901,(17, 70),148	3049,(17, 99),64	3397,(16, 140),24	3421,(16, 162),20	3997,(1, 107),4	4085,(1, 144),4	4089,(1, 149),4	4105,(1, 158),168	4369,(1, 200),60	4429,(12, 153),1592	
21,(0, 7),4	33,(2, 67),8	41,(2, 72),4	49,(2, 82),4	57,(0, 17),4	77,(9, 52),4	141,(9, 116),32	185,(8, 142),4	189,(8, 146),12	213,(11, 52),40	253,(18, 89),4	257,(11, 67),32	289,(2, 103),136	425,(8, 170),16	441,(18, 34),8	449,(11, 103),12	461,(19, 72),4	469,(4, 197),4	473,(2, 186),36	517,(11, 125),12	529,(3, 125),12	545,(4, 134),12	597,(12, 197),4	601,(9, 138),28	629,(19, 138),16	649,(5, 94),16	665,(6, 89),4	669,(3, 82),96	765,(6, 129),8	773,(18, 165),4	785,(5, 151),4	789,(8, 129),36	837,(5, 155),108	945,(9, 146),24	969,(10, 121),8	985,(10, 165),16	1001,(20, 77),4	1005,(5, 175),4	1009,(6, 77),76	1089,(3, 155),76	1165,(8, 180),40	1205,(10, 103),28	1233,(15, 121),32	1265,(15, 125),12	1293,(5, 138),564	1857,(6, 191),64	1921,(13, 52),16	1937,(4, 142),88	2025,(10, 111),88	2113,(10, 155),80	2193,(12, 82),36	2229,(13, 94),8	2237,(13, 103),24	2261,(13, 125),16	2285,(11, 165),4	2289,(13, 138),28	2317,(15, 103),64	2381,(18, 146),20	2401,(20, 60),24	2433,(11, 186),8	2441,(4, 186),124	2565,(12, 60),932	3497,(16, 94),24	3521,(16, 142),56	3577,(19, 151),152	3729,(19, 170),52	3781,(20, 165),72	3905,(1, 94),80	4013,(1, 121),56	4069,(20, 186),84	4273,(1, 160),52	4337,(1, 170),28	4365,(16, 151),444	4809,(18, 191),64	6021,(12, 165),2908	
17,(0, 6),4	37,(7, 33),12	53,(0, 16),4	57,(2, 74),20	77,(2, 79),8	85,(2, 84),24	217,(18, 47),4	221,(18, 49),20	241,(18, 106),4	245,(7, 106),16	261,(18, 172),4	269,(92, 201),4	277,(7, 119),4	285,(2, 172),4	289,(7, 98),92	393,(3, 49),4	425,(116, 201),4	429,(3, 79),4	433,(3, 113),4	437,(36, 201),4	441,(3, 177),4	449,(4, 84),4	453,(3, 98),44	497,(8, 55),172	669,(67, 201),4	673,(34, 201),4	677,(5, 119),4	681,(7, 113),152	833,(8, 119),188	1021,(8, 183),48	1069,(8, 199),88	1157,(9, 106),88	1245,(10, 194),4	1249,(12, 49),12	1261,(12, 69),32	1293,(12, 79),4	1297,(12, 183),4	1301,(14, 33),4	1305,(17, 172),28	1333,(72, 201),4	1337,(134, 201),4	1341,(20, 91),24	1365,(3, 199),20	1385,(19, 47),12	1397,(105, 201),4	1401,(20, 55),28	1429,(20, 188),4	1433,(137, 201),4	1437,(93, 201),4	1441,(120, 201),4	1445,(53, 201),4	1449,(71, 201),4	1453,(124, 201),4	1457,(150, 201),4	1461,(126, 201),4	1465,(73, 201),4	1469,(131, 201),4	1473,(197, 201),4	1477,(89, 201),4	1481,(143, 201),4	1485,(185, 201),4	1489,(13, 33),16	1505,(13, 47),4	1509,(147, 201),4	1513,(83, 201),4	1517,(166, 201),4	1521,(87, 201),4	1525,(112, 201),4	1529,(133, 201),4	1533,(122, 201),4	1537,(187, 201),4	1541,(66, 201),4	1545,(117, 201),4	1549,(157, 201),4	1553,(152, 201),4	1557,(54, 201),4	1581,(13, 84),8	1589,(13, 91),4	1593,(64, 201),4	1649,(43, 201),4	1857,(15, 33),4	1861,(15, 98),4	1889,(110, 201),4	1893,(65, 201),4	1897,(30, 201),4	1901,(46, 201),4	1905,(61, 201),4	1909,(100, 201),4	1913,(102, 201),4	1969,(37, 201),4	2081,(12, 172),20	2121,(178, 201),4	2125,(184, 201),4	2129,(51, 201),4	2133,(86, 201),4	2137,(168, 201),4	2141,(148, 201),4	2177,(75, 201),4	2193,(145, 201),4	2197,(163, 201),4	2201,(159, 201),4	2205,(169, 201),4	2209,(136, 201),4	2213,(189, 201),4	2237,(114, 201),4	2261,(11, 164),24	2285,(12, 164),188	2473,(38, 201),4	2477,(41, 201),4	2481,(190, 201),4	2485,(173, 201),4	2489,(156, 201),4	2493,(42, 201),4	2497,(1, 47),4	2501,(179, 201),4	2505,(32, 201),4	2537,(129, 201),4	2541,(175, 201),4	2545,(77, 201),4	2549,(180, 201),4	2553,(52, 201),4	2557,(111, 201),4	2561,(155, 201),4	2565,(4, 199),48	2613,(14, 188),4	2617,(17, 55),116	2733,(82, 201),4	2737,(85, 201),4	2741,(39, 201),4	2745,(125, 201),4	2749,(138, 201),4	2753,(23, 201),4	2757,(103, 201),4	2761,(146, 201),4	2765,(1, 69),28	2793,(45, 201),4	2797,(115, 201),4	2801,(57, 201),4	2805,(96, 201),4	2809,(59, 201),4	2813,(196, 201),4	2821,(90, 201),4	2825,(176, 201),4	2829,(181, 201),4	2833,(198, 201),4	2837,(14, 177),40	2877,(14, 183),24	2901,(40, 201),4	2905,(50, 201),4	2909,(25, 201),4	2913,(97, 201),4	2917,(63, 201),4	2921,(68, 201),4	2925,(78, 201),4	2929,(167, 201),4	2933,(161, 201),4	3185,(88, 201),4	3405,(139, 201),4	3505,(60, 201),4	3913,(81, 201),4	3937,(142, 201),4	3945,(193, 201),4	3993,(94, 201),4	4001,(95, 201),4	4005,(101, 201),4	4021,(109, 201),4	4041,(192, 201),4	4077,(121, 201),4	4093,(135, 201),4	4153,(128, 201),4	4157,(154, 201),4	4161,(186, 201),4	4189,(182, 201),4	4289,(35, 201),4	4293,(123, 201),4	4297,(58, 201),4	4301,(62, 201),4	4305,(195, 201),4	4309,(118, 201),4	4313,(80, 201),4	4317,(127, 201),4	4321,(132, 201),4	4325,(1, 164),12	4337,(70, 201),4	4341,(99, 201),4	4345,(140, 201),4	4349,(162, 201),4	4353,(107, 201),4	4357,(144, 201),4	4361,(149, 201),4	4365,(158, 201),4	4369,(160, 201),4	4373,(170, 201),4	4429,(28, 201),4	4433,(21, 201),4	4437,(56, 201),4	4441,(26, 201),4	4445,(27, 201),4	4449,(29, 201),4	4453,(31, 201),4	4457,(24, 201),4	4461,(200, 201),4	4789,(171, 201),4	4817,(151, 201),4	4881,(191, 201),4	5801,(76, 201),4	5805,(174, 201),4	5809,(141, 201),4	5813,(108, 201),4	6029,(153, 201),4	8929,(130, 201),4	8933,(48, 201),4	8937,(104, 201),4	8941,(44, 201),4	8945,(22, 201),4	8949,(165, 201),4	
13,(0, 5),4	49,(0, 15),4	57,(8, 65),16	81,(9, 61),52	177,(8, 110),8	205,(8, 167),4	261,(7, 110),12	429,(11, 100),4	433,(11, 102),16	449,(18, 61),36	497,(3, 102),8	505,(3, 110),8	513,(9, 65),88	601,(12, 30),20	689,(6, 100),32	749,(16, 30),4	829,(10, 42),4	833,(10, 46),32	865,(10, 61),12	889,(10, 100),4	1265,(18, 100),100	1537,(4, 100),160	1697,(13, 102),136	1969,(18, 109),152	2289,(11, 167),4	2425,(14, 42),8	2481,(19, 167),340	4001,(1, 109),12	
9,(0, 4),4	45,(0, 14),4	53,(9, 40),24	133,(9, 97),8	169,(7, 63),76	245,(18, 63),4	289,(11, 96),140	429,(7, 97),100	637,(5, 50),12	649,(16, 25),16	665,(5, 97),4	781,(12, 97),24	877,(10, 96),12	893,(20, 25),4	897,(20, 40),20	969,(19, 63),80	1057,(15, 97),48	1281,(20, 50),60	1385,(13, 25),76	1513,(13, 63),40	2133,(19, 97),348	2629,(1, 63),116	3577,(16, 192),456	
5,(0, 3),4	41,(0, 13),4	45,(9, 23),4	133,(11, 43),56	193,(11, 45),8	201,(9, 45),228	429,(19, 23),4	449,(2, 148),12	505,(4, 85),40	557,(12, 23),4	561,(12, 45),16	577,(4, 88),712	1289,(5, 39),4	1293,(6, 45),4	1297,(9, 88),80	1377,(10, 148),24	1401,(12, 148),680	2081,(15, 39),4	2085,(15, 85),148	2233,(16, 39),32	2265,(18, 23),56	2405,(17, 45),72	2501,(1, 57),100	2721,(16, 88),456	
1,(0, 2),4	33,(7, 22),4	37,(0, 12),4	41,(8, 44),16	73,(11, 38),60	133,(7, 48),36	189,(11, 44),4	193,(3, 22),200	393,(18, 44),24	465,(4, 156),4	529,(17, 32),24	633,(11, 156),1628	2261,(5, 38),4	2265,(5, 44),4	2269,(6, 41),116	2385,(6, 156),44	2429,(10, 32),8	2441,(1, 44),56	2497,(8, 182),1684	4181,(10, 44),120	4301,(10, 130),1500	5801,(13, 104),116	5917,(14, 44),20	5937,(17, 48),640	6577,(17, 104),1024	7601,(19, 44),576	8177,(20, 22),8	
397,(3, 56),4	401,(4, 29),40	441,(5, 28),196	637,(6, 24),4	641,(6, 27),8	649,(9, 26),12	661,(9, 31),4	665,(19, 21),4	669,(8, 56),20	689,(10, 31),140	829,(19, 24),12	1029,(15, 24),28	1205,(18, 26),60	1297,(16, 27),104	1461,(13, 29),12	1473,(13, 31),16	1489,(17, 29),212	1701,(17, 31),704	2713,(14, 24),60	
# Outgoing
689,(10, 31),140	829,(10, 42),4	833,(10, 46),32	865,(10, 61),12	877,(10, 96),12	889,(10, 100),4	893,(20, 25),4	897,(20, 40),20	969,(10, 121),8	977,(10, 78),8	985,(10, 165),16	1001,(20, 77),4	1029,(10, 112),36	1065,(20, 139),12	1077,(20, 193),4	1161,(10, 80),4	1205,(10, 103),28	1245,(10, 194),4	1265,(10, 62),12	1277,(10, 144),4	1281,(20, 50),60	1341,(20, 91),24	1377,(10, 148),24	1401,(20, 55),28	1429,(20, 188),4	1433,(137, 201),4	1437,(93, 201),4	1441,(120, 201),4	1445,(53, 201),4	1449,(71, 201),4	1453,(124, 201),4	1457,(150, 201),4	1485,(185, 201),4	1521,(87, 201),4	1529,(133, 201),4	1541,(66, 201),4	1969,(37, 201),4	2025,(10, 111),88	2113,(10, 155),80	2193,(145, 201),4	2197,(163, 201),4	2201,(159, 201),4	2205,(169, 201),4	2285,(20, 127),4	2401,(20, 60),24	2429,(10, 32),8	2481,(190, 201),4	2501,(179, 201),4	2713,(20, 70),32	2797,(115, 201),4	2809,(59, 201),4	2813,(196, 201),4	3781,(20, 165),72	3913,(81, 201),4	4005,(101, 201),4	4069,(20, 186),84	4153,(128, 201),4	4157,(154, 201),4	4181,(10, 44),120	4301,(10, 130),1500	5801,(76, 201),4	5805,(174, 201),4	5809,(141, 201),4	5813,(108, 201),4	8177,(20, 22),8	
45,(9, 23),4	49,(9, 35),4	53,(9, 40),24	77,(9, 52),4	81,(9, 61),52	133,(9, 97),8	141,(9, 116),32	173,(9, 128),20	193,(9, 133),4	197,(9, 163),4	201,(9, 45),228	429,(19, 23),4	433,(19, 162),4	437,(36, 201),4	461,(19, 72),4	465,(19, 190),24	513,(9, 65),88	601,(9, 138),28	629,(19, 138),16	649,(9, 26),12	661,(9, 31),4	665,(19, 21),4	689,(9, 153),20	829,(19, 24),12	945,(9, 146),24	969,(19, 63),80	1157,(9, 106),88	1297,(9, 88),80	1385,(19, 47),12	1397,(105, 201),4	1461,(126, 201),4	1465,(73, 201),4	1469,(131, 201),4	1481,(143, 201),4	1509,(147, 201),4	1513,(83, 201),4	1517,(166, 201),4	1525,(112, 201),4	1533,(122, 201),4	1537,(187, 201),4	1545,(117, 201),4	1549,(157, 201),4	1553,(152, 201),4	1557,(54, 201),4	1593,(64, 201),4	1669,(9, 200),28	1937,(9, 70),196	2133,(19, 97),348	2481,(19, 167),340	2821,(90, 201),4	2825,(176, 201),4	2829,(181, 201),4	2833,(198, 201),4	2921,(68, 201),4	2925,(78, 201),4	2933,(161, 201),4	3405,(139, 201),4	3577,(19, 151),152	3729,(19, 170),52	3945,(193, 201),4	4001,(95, 201),4	4093,(135, 201),4	4369,(9, 141),420	4789,(171, 201),4	7601,(19, 44),576	
41,(8, 44),16	57,(8, 65),16	73,(8, 71),16	89,(8, 87),40	129,(8, 93),4	133,(8, 90),44	177,(8, 110),8	185,(8, 142),4	189,(8, 146),12	201,(8, 159),4	205,(8, 167),4	209,(18, 36),8	217,(18, 47),4	221,(18, 49),20	241,(18, 106),4	245,(18, 63),4	249,(18, 115),4	253,(18, 89),4	257,(18, 120),4	261,(18, 172),4	265,(18, 185),4	269,(92, 201),4	277,(8, 169),104	393,(18, 44),24	421,(18, 122),4	425,(8, 170),16	441,(18, 34),8	449,(18, 61),36	497,(8, 55),172	669,(8, 56),20	773,(18, 165),4	789,(8, 129),36	833,(8, 119),188	1021,(8, 183),48	1069,(8, 199),88	1165,(8, 180),40	1205,(18, 26),60	1265,(18, 100),100	1365,(8, 190),576	1941,(18, 90),28	1969,(18, 109),152	2121,(178, 201),4	2125,(184, 201),4	2129,(51, 201),4	2133,(86, 201),4	2137,(168, 201),4	2177,(75, 201),4	2209,(136, 201),4	2213,(189, 201),4	2237,(114, 201),4	2265,(18, 23),56	2381,(18, 146),20	2485,(173, 201),4	2497,(8, 182),1684	4181,(18, 171),108	4289,(35, 201),4	4293,(123, 201),4	4297,(58, 201),4	4301,(62, 201),4	4305,(195, 201),4	4309,(118, 201),4	4313,(80, 201),4	4317,(127, 201),4	4321,(132, 201),4	4337,(70, 201),4	4341,(99, 201),4	4345,(140, 201),4	4349,(162, 201),4	4353,(107, 201),4	4357,(144, 201),4	4361,(149, 201),4	4365,(158, 201),4	4461,(200, 201),4	4809,(18, 191),64	6029,(153, 201),4	
33,(7, 22),4	37,(7, 33),12	49,(7, 71),4	53,(7, 93),4	57,(7, 95),8	65,(7, 51),8	73,(7, 99),16	89,(7, 105),44	133,(7, 48),36	169,(7, 63),76	245,(7, 106),16	261,(7, 110),12	273,(7, 115),4	277,(7, 119),4	281,(17, 35),4	285,(7, 126),4	289,(7, 98),92	381,(7, 143),12	393,(7, 166),8	401,(7, 176),12	413,(17, 53),4	417,(17, 73),4	421,(17, 169),4	425,(116, 201),4	429,(7, 97),100	529,(17, 32),24	597,(17, 179),4	609,(17, 87),56	669,(67, 201),4	673,(34, 201),4	681,(7, 113),152	833,(7, 181),24	865,(7, 174),72	1065,(7, 140),96	1161,(17, 108),48	1233,(17, 122),12	1281,(17, 153),8	1305,(17, 172),28	1333,(72, 201),4	1337,(134, 201),4	1441,(17, 152),32	1473,(197, 201),4	1477,(89, 201),4	1489,(17, 29),212	1701,(17, 31),704	2405,(17, 45),72	2477,(17, 115),60	2537,(129, 201),4	2541,(175, 201),4	2545,(77, 201),4	2549,(180, 201),4	2553,(52, 201),4	2557,(111, 201),4	2561,(155, 201),4	2569,(17, 158),8	2617,(17, 55),116	2733,(82, 201),4	2745,(125, 201),4	2749,(138, 201),4	2757,(103, 201),4	2761,(146, 201),4	2901,(17, 70),148	3049,(17, 99),64	3505,(60, 201),4	3521,(17, 193),416	3937,(142, 201),4	3993,(94, 201),4	4077,(121, 201),4	4161,(186, 201),4	4369,(160, 201),4	4373,(170, 201),4	4817,(151, 201),4	4881,(191, 201),4	5937,(17, 48),640	6577,(17, 104),1024	8949,(165, 201),4	
637,(6, 24),4	641,(6, 27),8	649,(16, 25),16	665,(6, 89),4	669,(6, 51),20	689,(6, 100),32	721,(6, 136),4	725,(6, 168),24	749,(16, 30),4	753,(16, 86),12	765,(6, 129),8	781,(16, 128),4	785,(6, 117),24	809,(6, 147),4	837,(6, 128),28	865,(6, 193),112	997,(16, 157),12	1009,(6, 77),76	1085,(6, 181),148	1233,(16, 76),16	1249,(16, 169),8	1257,(16, 187),4	1293,(6, 45),4	1297,(16, 27),104	1401,(16, 54),40	1537,(6, 62),132	1857,(6, 191),64	2201,(16, 114),28	2233,(16, 39),32	2269,(6, 41),116	2385,(6, 156),44	2429,(6, 198),292	2721,(16, 88),456	3177,(16, 139),220	3397,(16, 140),24	3421,(16, 162),20	3497,(16, 94),24	3521,(16, 142),56	3577,(16, 192),456	4365,(16, 151),444	
441,(5, 28),196	637,(5, 50),12	649,(5, 94),16	665,(5, 97),4	669,(5, 101),8	677,(5, 119),4	681,(5, 159),4	685,(5, 169),4	689,(5, 190),4	693,(15, 133),4	697,(15, 179),4	709,(15, 35),4	713,(15, 189),8	725,(5, 54),16	741,(5, 73),4	745,(5, 131),16	761,(5, 143),4	765,(5, 147),20	785,(5, 151),4	789,(5, 154),48	837,(5, 155),108	945,(5, 163),60	1005,(5, 175),4	1009,(5, 193),16	1025,(5, 198),4	1029,(15, 24),28	1057,(15, 97),48	1105,(15, 174),24	1233,(15, 121),32	1265,(15, 125),12	1289,(5, 39),4	1293,(5, 138),564	1857,(15, 33),4	1861,(15, 98),4	1865,(15, 161),16	1881,(15, 193),8	1889,(110, 201),4	1893,(65, 201),4	1897,(30, 201),4	1901,(46, 201),4	1905,(61, 201),4	1909,(100, 201),4	1913,(102, 201),4	2081,(15, 39),4	2085,(15, 85),148	2261,(5, 38),4	2265,(5, 44),4	2317,(15, 103),64	2493,(42, 201),4	2537,(15, 140),32	2817,(15, 132),84	2929,(167, 201),4	4021,(109, 201),4	4789,(15, 108),972	
401,(4, 29),40	441,(4, 73),8	449,(4, 84),4	453,(4, 71),12	465,(4, 156),4	469,(4, 197),4	473,(4, 80),32	505,(4, 85),40	545,(4, 134),12	557,(4, 83),20	577,(4, 88),712	1289,(4, 153),4	1293,(4, 168),8	1301,(14, 33),4	1305,(14, 37),4	1309,(14, 66),4	1313,(4, 95),16	1329,(4, 99),208	1537,(4, 100),160	1697,(4, 114),240	1937,(4, 142),88	2025,(4, 163),56	2081,(4, 176),296	2377,(4, 181),28	2405,(4, 190),20	2425,(14, 42),8	2433,(14, 81),4	2441,(4, 186),124	2565,(4, 199),48	2613,(14, 188),4	2617,(14, 196),12	2629,(4, 195),84	2713,(14, 24),60	2773,(14, 118),24	2797,(14, 193),8	2805,(96, 201),4	2809,(14, 127),4	2813,(14, 132),4	2817,(14, 161),20	2837,(14, 177),40	2877,(14, 183),24	2901,(40, 201),4	2905,(50, 201),4	2909,(25, 201),4	2913,(97, 201),4	2917,(63, 201),4	3905,(14, 128),40	4041,(192, 201),4	4105,(14, 76),220	5917,(14, 44),20	
193,(3, 22),200	393,(3, 49),4	397,(3, 56),4	401,(3, 75),28	429,(3, 79),4	433,(3, 113),4	437,(3, 114),4	441,(3, 177),4	445,(3, 178),4	449,(3, 81),4	453,(3, 98),44	497,(3, 102),8	505,(3, 110),8	513,(3, 184),4	517,(13, 71),4	521,(13, 124),4	525,(13, 149),4	529,(3, 125),12	541,(3, 70),128	669,(3, 82),96	765,(3, 86),300	1065,(3, 133),24	1089,(3, 155),76	1165,(3, 158),100	1265,(3, 161),48	1313,(3, 196),52	1365,(3, 199),20	1385,(13, 25),76	1461,(13, 29),12	1473,(13, 31),16	1489,(13, 33),16	1505,(13, 47),4	1509,(13, 54),4	1513,(13, 63),40	1553,(13, 64),20	1573,(13, 68),8	1581,(13, 84),8	1589,(13, 91),4	1593,(13, 181),52	1645,(13, 193),4	1649,(43, 201),4	1697,(13, 102),136	1921,(13, 52),16	1941,(13, 37),20	1961,(13, 145),60	2081,(13, 159),24	2105,(13, 169),24	2141,(148, 201),4	2185,(13, 189),16	2229,(13, 94),8	2237,(13, 103),24	2261,(13, 125),16	2289,(13, 138),28	2425,(13, 35),52	2477,(13, 123),60	2737,(85, 201),4	2741,(39, 201),4	2753,(23, 201),4	2793,(45, 201),4	2801,(57, 201),4	3185,(88, 201),4	5801,(13, 104),116	
29,(2, 62),4	33,(2, 67),8	41,(2, 72),4	45,(2, 78),4	49,(2, 82),4	53,(2, 114),4	57,(2, 74),20	77,(2, 79),8	85,(2, 84),24	109,(2, 92),76	185,(2, 117),24	209,(2, 163),4	213,(2, 118),20	233,(2, 122),52	285,(2, 172),4	289,(2, 103),136	425,(2, 141),24	449,(2, 148),12	461,(2, 184),12	473,(2, 186),36	509,(12, 70),4	513,(12, 133),4	517,(2, 166),20	537,(2, 181),4	541,(2, 198),16	557,(12, 23),4	561,(12, 45),16	577,(12, 64),8	585,(12, 122),12	597,(12, 197),4	601,(12, 30),20	633,(2, 126),92	725,(2, 185),56	781,(12, 97),24	813,(12, 83),20	857,(12, 161),4	985,(12, 166),12	1005,(12, 76),24	1029,(12, 87),20	1249,(12, 49),12	1261,(12, 69),32	1293,(12, 79),4	1297,(12, 183),4	1301,(12, 107),24	1325,(12, 127),4	1329,(12, 117),44	1373,(12, 157),24	1401,(12, 148),680	2081,(12, 172),20	2133,(12, 75),36	2169,(12, 136),16	2193,(12, 82),36	2229,(12, 158),56	2285,(12, 164),188	2473,(38, 201),4	2477,(41, 201),4	2489,(156, 201),4	2505,(32, 201),4	2565,(12, 60),932	3497,(12, 171),24	4189,(182, 201),4	4429,(12, 153),1592	6021,(12, 165),2908	8929,(130, 201),4	8933,(48, 201),4	8937,(104, 201),4	8941,(44, 201),4	8945,(22, 201),4	
1,(0, 2),4	5,(0, 3),4	9,(0, 4),4	13,(0, 5),4	17,(0, 6),4	21,(0, 7),4	25,(0, 8),4	29,(0, 9),4	33,(0, 10),4	37,(0, 12),4	41,(0, 13),4	45,(0, 14),4	49,(0, 15),4	53,(0, 16),4	57,(0, 17),4	61,(0, 18),4	65,(0, 19),4	69,(0, 20),4	73,(11, 38),60	133,(11, 43),56	189,(11, 44),4	193,(11, 45),8	201,(11, 51),12	213,(11, 52),40	253,(11, 59),4	257,(11, 67),32	289,(11, 96),140	429,(11, 100),4	433,(11, 102),16	449,(11, 103),12	461,(11, 105),44	505,(11, 112),12	517,(11, 125),12	529,(11, 128),4	533,(11, 140),8	541,(11, 141),56	597,(11, 147),8	605,(11, 150),4	609,(11, 152),24	633,(11, 156),1628	2261,(11, 164),24	2285,(11, 165),4	2289,(11, 167),4	2293,(11, 173),132	2425,(11, 179),8	2433,(11, 186),8	2441,(1, 44),56	2497,(1, 47),4	2501,(1, 57),100	2601,(1, 58),4	2605,(1, 59),4	2609,(1, 62),20	2629,(1, 63),116	2745,(1, 68),20	2765,(1, 69),28	2793,(1, 78),4	2797,(1, 80),12	2809,(1, 81),1096	3905,(1, 94),80	3985,(1, 95),8	3993,(1, 101),4	3997,(1, 107),4	4001,(1, 109),12	4013,(1, 121),56	4069,(1, 128),12	4081,(1, 135),4	4085,(1, 144),4	4089,(1, 149),4	4093,(1, 154),12	4105,(1, 158),168	4273,(1, 160),52	4325,(1, 164),12	4337,(1, 170),28	4365,(1, 174),4	4369,(1, 200),60	4429,(28, 201),4	4433,(21, 201),4	4437,(56, 201),4	4441,(26, 201),4	4445,(27, 201),4	4449,(29, 201),4	4453,(31, 201),4	4457,(24, 201),4	
