1183
# CPU
5,5,13	18,10,13	31,55,13	44,20,13	57,39,13	70,43,13	83,15,13	96,34,13	109,89,13	122,85,13	135,51,13	148,117,13	161,63,13	174,67,13	206,81,13	230,109,13	267,29,13	285,24,13	320,97,13	385,77,13	435,47,13	475,73,13	570,59,13	583,93,13	596,101,13	609,105,13	622,113,13	
4,4,13	17,9,13	30,27,13	43,14,13	56,80,13	69,76,13	82,32,13	95,38,13	108,19,13	121,23,13	134,100,13	148,62,13	241,66,13	342,120,13	381,42,13	394,46,13	407,58,13	420,71,13	434,116,13	550,92,13	608,112,13	621,50,13	647,54,13	660,84,13	673,88,13	686,96,13	699,104,13	712,108,13	
3,3,13	16,8,13	29,13,13	42,25,13	55,35,13	68,21,13	81,68,13	341,114,13	354,90,13	389,56,13	402,30,13	435,98,13	448,52,13	461,48,13	476,86,13	489,60,13	502,40,13	515,106,13	587,74,13	638,82,13	651,102,13	664,110,13	677,64,13	690,44,13	703,78,13	716,94,13	729,118,13	
2,2,13	15,7,13	28,12,13	41,17,13	54,31,13	67,87,13	80,45,13	93,99,13	106,103,13	119,41,13	132,57,13	145,65,13	158,70,13	171,22,13	184,36,13	386,61,13	399,91,13	433,83,13	446,107,13	483,53,13	504,26,13	529,49,13	542,75,13	555,79,13	568,95,13	581,111,13	594,115,13	607,119,13	1182,121,1	
0,0,1	1,6,13	14,11,13	27,1,13	56,18,13	83,16,13	378,33,13	593,69,13	752,37,13	765,28,13	1168,72,13	
# Incoming
4,(0, 5),1	8,(0, 10),1	17,(4, 20),3	22,(6, 39),2	38,(9, 15),1	46,(9, 34),7	59,(9, 63),1	65,(6, 89),1	66,(9, 67),2	70,(9, 81),7	77,(9, 85),1	82,(2, 63),15	97,(2, 73),7	104,(9, 77),14	118,(9, 117),2	124,(8, 51),1	125,(2, 109),9	134,(2, 117),10	144,(8, 63),3	147,(8, 67),1	148,(7, 73),52	200,(8, 77),4	204,(8, 81),2	206,(8, 105),5	216,(7, 101),13	229,(7, 109),1	230,(7, 113),8	238,(9, 29),29	267,(12, 24),18	285,(12, 47),1	286,(12, 77),15	301,(12, 93),1	302,(12, 97),18	320,(12, 113),18	382,(11, 77),3	387,(11, 105),1	434,(1, 47),1	445,(11, 73),30	550,(11, 113),17	567,(1, 59),3	570,(1, 93),5	575,(1, 101),1	576,(1, 105),2	578,(1, 113),3	
3,(0, 4),1	7,(0, 9),1	15,(6, 27),1	16,(3, 14),1	17,(3, 50),4	21,(3, 116),1	27,(6, 58),1	28,(3, 42),10	38,(3, 92),15	53,(3, 100),6	59,(8, 19),7	66,(8, 23),16	104,(2, 100),21	125,(8, 104),4	144,(7, 62),4	148,(8, 66),19	200,(7, 88),14	214,(7, 96),2	238,(12, 66),3	241,(12, 88),1	242,(12, 104),3	245,(12, 120),8	341,(6, 120),1	342,(11, 42),39	381,(11, 46),1	385,(5, 108),1	388,(11, 112),1	389,(5, 58),11	400,(5, 71),6	433,(11, 116),1	436,(11, 54),9	483,(10, 88),1	484,(10, 92),1	485,(10, 96),2	541,(11, 92),9	554,(10, 112),54	608,(1, 50),3	611,(1, 54),36	647,(1, 84),2	649,(1, 88),1	650,(1, 96),1	658,(1, 104),1	659,(1, 108),1	
2,(0, 3),1	6,(0, 8),1	15,(2, 13),1	20,(4, 82),3	24,(6, 48),3	28,(6, 68),2	30,(4, 94),8	39,(9, 21),2	41,(9, 30),5	53,(9, 52),6	60,(9, 64),5	66,(6, 90),1	68,(9, 68),2	78,(6, 114),263	341,(2, 90),1	342,(4, 86),44	386,(5, 56),3	389,(11, 30),4	393,(11, 44),39	432,(11, 48),1	433,(5, 98),2	435,(11, 52),1	436,(9, 48),19	455,(9, 86),3	458,(9, 102),4	475,(11, 86),1	476,(1, 60),1	477,(1, 78),1	478,(10, 40),3	481,(10, 74),2	487,(10, 106),4	503,(11, 78),38	541,(9, 74),46	593,(7, 82),45	638,(7, 94),1	639,(7, 102),4	643,(7, 110),8	651,(1, 64),7	658,(12, 44),3	661,(12, 78),5	666,(12, 94),1	667,(12, 118),1	
1,(0, 2),1	5,(0, 7),1	9,(0, 12),1	14,(6, 17),1	16,(6, 36),6	22,(3, 31),3	25,(3, 45),1	26,(4, 26),1	27,(4, 87),1	28,(4, 115),2	30,(6, 79),35	65,(9, 107),1	67,(6, 95),7	74,(6, 111),4	78,(4, 79),4	82,(27, 121),1	83,(3, 57),6	89,(3, 61),35	124,(4, 65),7	131,(4, 70),8	139,(8, 26),1	140,(9, 22),8	148,(9, 36),10	158,(14, 121),1	159,(80, 121),1	160,(76, 121),1	161,(32, 121),1	162,(38, 121),1	163,(19, 121),1	164,(23, 121),1	165,(100, 121),1	166,(62, 121),1	167,(8, 83),5	172,(8, 91),5	177,(9, 115),14	191,(13, 121),1	192,(25, 121),1	193,(35, 121),1	194,(21, 121),1	195,(68, 121),1	267,(66, 121),1	354,(114, 121),1	367,(90, 121),1	378,(5, 53),5	383,(5, 75),2	385,(11, 61),1	386,(11, 91),1	387,(120, 121),1	394,(42, 121),1	402,(56, 121),1	406,(5, 83),27	433,(46, 121),1	434,(30, 121),1	435,(5, 107),7	442,(5, 115),3	445,(5, 119),33	478,(11, 53),5	483,(11, 75),20	503,(10, 26),1	504,(10, 49),25	529,(10, 75),1	530,(10, 79),5	535,(10, 95),10	545,(10, 111),9	554,(98, 121),1	555,(52, 121),1	556,(48, 121),1	557,(86, 121),1	558,(60, 121),1	559,(40, 121),1	560,(106, 121),1	581,(1, 115),2	583,(1, 119),9	592,(18, 121),1	593,(16, 121),1	594,(33, 121),1	595,(58, 121),1	596,(71, 121),1	597,(116, 121),1	598,(92, 121),1	606,(69, 121),1	608,(55, 121),1	609,(20, 121),1	610,(39, 121),1	611,(43, 121),1	612,(15, 121),1	613,(34, 121),1	614,(89, 121),1	615,(85, 121),1	616,(51, 121),1	617,(117, 121),1	618,(63, 121),1	619,(67, 121),1	620,(81, 121),1	621,(109, 121),1	622,(29, 121),1	623,(24, 121),1	624,(97, 121),1	625,(77, 121),1	626,(47, 121),1	627,(73, 121),1	628,(59, 121),1	629,(93, 121),1	630,(101, 121),1	631,(112, 121),1	632,(105, 121),1	634,(50, 121),1	635,(113, 121),1	660,(54, 121),1	673,(84, 121),1	686,(88, 121),1	699,(96, 121),1	712,(104, 121),1	725,(108, 121),1	752,(74, 121),1	753,(82, 121),1	754,(102, 121),1	755,(110, 121),1	756,(64, 121),1	757,(44, 121),1	758,(78, 121),1	759,(94, 121),1	760,(118, 121),1	765,(37, 121),1	778,(28, 121),1	1181,(72, 121),1	
16,(2, 18),40	56,(2, 28),26	82,(3, 16),1	83,(4, 69),8	91,(5, 28),1	92,(5, 33),286	378,(7, 69),215	593,(8, 37),159	752,(10, 28),3	755,(10, 72),413	
# Outgoing
91,(5, 28),1	92,(5, 33),286	378,(5, 53),5	383,(5, 75),2	385,(5, 108),1	386,(5, 56),3	389,(5, 58),11	400,(5, 71),6	406,(5, 83),27	433,(5, 98),2	435,(5, 107),7	442,(5, 115),3	445,(5, 119),33	478,(10, 40),3	481,(10, 74),2	483,(10, 88),1	484,(10, 92),1	485,(10, 96),2	487,(10, 106),4	503,(10, 26),1	504,(10, 49),25	529,(10, 75),1	530,(10, 79),5	535,(10, 95),10	545,(10, 111),9	554,(10, 112),54	608,(55, 121),1	609,(20, 121),1	610,(39, 121),1	611,(43, 121),1	612,(15, 121),1	613,(34, 121),1	614,(89, 121),1	615,(85, 121),1	616,(51, 121),1	617,(117, 121),1	618,(63, 121),1	619,(67, 121),1	620,(81, 121),1	621,(109, 121),1	622,(29, 121),1	623,(24, 121),1	624,(97, 121),1	625,(77, 121),1	626,(47, 121),1	627,(73, 121),1	628,(59, 121),1	629,(93, 121),1	630,(101, 121),1	632,(105, 121),1	635,(113, 121),1	752,(10, 28),3	755,(10, 72),413	
17,(4, 20),3	20,(4, 82),3	26,(4, 26),1	27,(4, 87),1	28,(4, 115),2	30,(4, 94),8	38,(9, 15),1	39,(9, 21),2	41,(9, 30),5	46,(9, 34),7	53,(9, 52),6	59,(9, 63),1	60,(9, 64),5	65,(9, 107),1	66,(9, 67),2	68,(9, 68),2	70,(9, 81),7	77,(9, 85),1	78,(4, 79),4	82,(27, 121),1	83,(4, 69),8	104,(9, 77),14	118,(9, 117),2	124,(4, 65),7	131,(4, 70),8	140,(9, 22),8	148,(9, 36),10	158,(14, 121),1	159,(80, 121),1	160,(76, 121),1	161,(32, 121),1	162,(38, 121),1	163,(19, 121),1	164,(23, 121),1	165,(100, 121),1	166,(62, 121),1	177,(9, 115),14	238,(9, 29),29	267,(66, 121),1	342,(4, 86),44	387,(120, 121),1	394,(42, 121),1	433,(46, 121),1	436,(9, 48),19	455,(9, 86),3	458,(9, 102),4	541,(9, 74),46	595,(58, 121),1	596,(71, 121),1	597,(116, 121),1	598,(92, 121),1	631,(112, 121),1	634,(50, 121),1	660,(54, 121),1	673,(84, 121),1	686,(88, 121),1	699,(96, 121),1	712,(104, 121),1	725,(108, 121),1	
16,(3, 14),1	17,(3, 50),4	21,(3, 116),1	22,(3, 31),3	25,(3, 45),1	28,(3, 42),10	38,(3, 92),15	53,(3, 100),6	59,(8, 19),7	66,(8, 23),16	82,(3, 16),1	83,(3, 57),6	89,(3, 61),35	124,(8, 51),1	125,(8, 104),4	139,(8, 26),1	144,(8, 63),3	147,(8, 67),1	148,(8, 66),19	167,(8, 83),5	172,(8, 91),5	191,(13, 121),1	192,(25, 121),1	193,(35, 121),1	194,(21, 121),1	195,(68, 121),1	200,(8, 77),4	204,(8, 81),2	206,(8, 105),5	354,(114, 121),1	367,(90, 121),1	402,(56, 121),1	434,(30, 121),1	554,(98, 121),1	555,(52, 121),1	556,(48, 121),1	557,(86, 121),1	558,(60, 121),1	559,(40, 121),1	560,(106, 121),1	593,(8, 37),159	752,(74, 121),1	753,(82, 121),1	754,(102, 121),1	755,(110, 121),1	756,(64, 121),1	757,(44, 121),1	758,(78, 121),1	759,(94, 121),1	760,(118, 121),1	
15,(2, 13),1	16,(2, 18),40	56,(2, 28),26	82,(2, 63),15	97,(2, 73),7	104,(2, 100),21	125,(2, 109),9	134,(2, 117),10	144,(7, 62),4	148,(7, 73),52	200,(7, 88),14	214,(7, 96),2	216,(7, 101),13	229,(7, 109),1	230,(7, 113),8	238,(12, 66),3	241,(12, 88),1	242,(12, 104),3	245,(12, 120),8	267,(12, 24),18	285,(12, 47),1	286,(12, 77),15	301,(12, 93),1	302,(12, 97),18	320,(12, 113),18	341,(2, 90),1	378,(7, 69),215	593,(7, 82),45	638,(7, 94),1	639,(7, 102),4	643,(7, 110),8	658,(12, 44),3	661,(12, 78),5	666,(12, 94),1	667,(12, 118),1	
1,(0, 2),1	2,(0, 3),1	3,(0, 4),1	4,(0, 5),1	5,(0, 7),1	6,(0, 8),1	7,(0, 9),1	8,(0, 10),1	9,(0, 12),1	14,(6, 17),1	15,(6, 27),1	16,(6, 36),6	22,(6, 39),2	24,(6, 48),3	27,(6, 58),1	28,(6, 68),2	30,(6, 79),35	65,(6, 89),1	66,(6, 90),1	67,(6, 95),7	74,(6, 111),4	78,(6, 114),263	341,(6, 120),1	342,(11, 42),39	381,(11, 46),1	382,(11, 77),3	385,(11, 61),1	386,(11, 91),1	387,(11, 105),1	388,(11, 112),1	389,(11, 30),4	393,(11, 44),39	432,(11, 48),1	433,(11, 116),1	434,(1, 47),1	435,(11, 52),1	436,(11, 54),9	445,(11, 73),30	475,(11, 86),1	476,(1, 60),1	477,(1, 78),1	478,(11, 53),5	483,(11, 75),20	503,(11, 78),38	541,(11, 92),9	550,(11, 113),17	567,(1, 59),3	570,(1, 93),5	575,(1, 101),1	576,(1, 105),2	578,(1, 113),3	581,(1, 115),2	583,(1, 119),9	592,(18, 121),1	593,(16, 121),1	594,(33, 121),1	606,(69, 121),1	608,(1, 50),3	611,(1, 54),36	647,(1, 84),2	649,(1, 88),1	650,(1, 96),1	651,(1, 64),7	658,(1, 104),1	659,(1, 108),1	765,(37, 121),1	778,(28, 121),1	1181,(72, 121),1	
