1724
# CPU
0,0,1	1,8,41	42,105,41	83,119,41	124,80,41	165,5,41	206,120,41	247,52,41	288,7,41	329,44,41	370,114,41	411,4,41	452,49,41	493,21,41	534,116,41	575,6,41	616,17,41	657,18,41	698,62,41	739,72,41	780,34,41	821,11,41	862,90,41	903,47,41	944,94,41	985,79,41	1026,100,41	1067,69,41	1108,99,41	1149,38,41	1190,1,41	1231,63,41	1272,106,41	1313,45,41	1354,20,41	1395,111,41	1436,43,41	1477,93,41	1518,36,41	1559,84,41	1682,58,41	1723,121,1	
44,82,41	85,117,41	126,65,41	208,30,41	249,22,41	331,87,41	407,40,41	466,96,41	619,92,41	660,25,41	701,66,41	742,31,41	801,2,41	842,50,41	883,15,41	924,86,41	965,26,41	1006,108,41	1047,35,41	1088,88,41	1129,57,41	1222,3,41	1263,103,41	1304,60,41	1345,101,41	1386,32,41	1427,37,41	1468,48,41	1509,13,41	1550,102,41	1591,24,41	
46,107,41	87,74,41	128,73,41	210,39,41	335,85,41	620,118,41	661,51,41	702,81,41	848,89,41	889,16,41	930,109,41	971,70,41	1112,9,41	1153,59,41	1194,33,41	1235,104,41	1276,54,41	1317,67,41	1358,91,41	1399,14,41	1456,12,41	1497,71,41	1538,29,41	1579,98,41	1620,77,41	
48,112,41	89,28,41	212,75,41	345,41,41	576,10,41	617,110,41	658,64,41	699,83,41	740,113,41	781,46,41	822,95,41	863,55,41	904,19,41	945,42,41	1002,61,41	1159,23,41	1233,78,41	1274,56,41	1315,27,41	1356,68,41	1397,76,41	1499,97,41	1540,115,41	1581,53,41	
# Incoming
85,(82, 121),2	87,(107, 121),2	89,(112, 121),2	126,(117, 121),2	128,(74, 121),2	130,(28, 121),2	167,(65, 121),2	169,(73, 121),2	249,(30, 121),2	251,(39, 121),2	253,(75, 121),2	290,(22, 121),2	372,(87, 121),2	376,(85, 121),2	386,(41, 121),2	448,(40, 121),2	507,(96, 121),2	658,(110, 121),2	660,(92, 121),2	662,(118, 121),2	699,(64, 121),2	701,(25, 121),2	703,(51, 121),2	740,(83, 121),2	742,(66, 121),2	744,(81, 121),2	781,(113, 121),2	783,(31, 121),2	822,(46, 121),2	863,(95, 121),2	883,(50, 121),2	889,(89, 121),2	904,(55, 121),2	924,(15, 121),2	930,(16, 121),2	945,(19, 121),2	965,(86, 121),2	971,(109, 121),2	986,(42, 121),2	1006,(26, 121),2	1012,(70, 121),2	1043,(61, 121),2	1047,(108, 121),2	1088,(35, 121),2	1129,(88, 121),2	1170,(57, 121),2	1194,(59, 121),2	1200,(23, 121),2	1235,(33, 121),2	1274,(78, 121),2	1276,(104, 121),2	1304,(103, 121),2	1315,(56, 121),2	1317,(54, 121),2	1345,(60, 121),2	1356,(27, 121),2	1358,(67, 121),2	1386,(101, 121),2	1397,(68, 121),2	1399,(91, 121),2	1427,(32, 121),2	1438,(76, 121),2	1440,(14, 121),2	1468,(37, 121),2	1499,(12, 36),4	1509,(48, 121),2	1511,(12, 84),22	1538,(71, 121),2	1540,(97, 121),2	1550,(13, 121),2	1579,(29, 121),2	1581,(115, 121),2	1591,(102, 121),2	1620,(98, 121),2	1622,(53, 121),2	1632,(24, 121),2	1634,(12, 58),48	1682,(77, 121),2	
42,(8, 82),2	48,(8, 117),2	66,(8, 65),16	108,(8, 40),16	206,(5, 30),2	212,(5, 22),10	222,(5, 102),2	329,(7, 87),2	345,(7, 40),62	452,(4, 96),14	617,(10, 92),2	619,(10, 25),8	627,(6, 66),12	639,(6, 31),52	691,(0, 2),110	1112,(0, 3),110	1222,(9, 24),4	
44,(8, 107),2	50,(8, 74),6	82,(8, 73),26	124,(8, 77),48	208,(5, 39),2	331,(7, 85),4	616,(6, 118),4	627,(10, 51),8	660,(10, 81),34	842,(2, 89),6	862,(11, 16),2	866,(11, 109),4	870,(11, 70),26	1002,(0, 9),110	1233,(1, 104),2	1265,(3, 54),6	1279,(3, 67),12	1306,(3, 91),14	1320,(1, 14),26	1346,(0, 12),110	
46,(8, 112),2	56,(8, 28),10	210,(5, 75),2	335,(7, 41),10	407,(7, 95),2	466,(0, 10),110	576,(4, 23),18	594,(4, 115),6	801,(6, 97),12	848,(2, 55),8	864,(11, 19),2	866,(2, 42),14	896,(6, 61),104	1000,(11, 61),2	1153,(9, 23),6	1222,(11, 53),2	1231,(1, 78),2	1235,(1, 68),12	1263,(3, 56),2	1271,(3, 27),8	1279,(1, 76),24	1497,(12, 97),2	1503,(12, 115),6	1540,(12, 53),24	
# Outgoing
42,(8, 82),2	44,(8, 107),2	46,(8, 112),2	48,(8, 117),2	50,(8, 74),6	56,(8, 28),10	66,(8, 65),16	82,(8, 73),26	108,(8, 40),16	124,(8, 77),48	206,(5, 30),2	208,(5, 39),2	210,(5, 75),2	212,(5, 22),10	222,(5, 102),2	329,(7, 87),2	331,(7, 85),4	335,(7, 41),10	345,(7, 40),62	407,(7, 95),2	452,(4, 96),14	466,(0, 10),110	576,(4, 23),18	594,(4, 115),6	616,(6, 118),4	627,(6, 66),12	639,(6, 31),52	691,(0, 2),110	801,(6, 97),12	862,(11, 16),2	864,(11, 19),2	866,(11, 109),4	870,(11, 70),26	896,(6, 61),104	1000,(11, 61),2	1002,(0, 9),110	1112,(0, 3),110	1222,(11, 53),2	1231,(1, 78),2	1233,(1, 104),2	1235,(1, 68),12	1279,(1, 76),24	1320,(1, 14),26	1346,(0, 12),110	
85,(82, 121),2	126,(117, 121),2	167,(65, 121),2	249,(30, 121),2	290,(22, 121),2	372,(87, 121),2	448,(40, 121),2	507,(96, 121),2	660,(92, 121),2	701,(25, 121),2	742,(66, 121),2	783,(31, 121),2	842,(2, 89),6	848,(2, 55),8	866,(2, 42),14	883,(50, 121),2	924,(15, 121),2	965,(86, 121),2	1006,(26, 121),2	1047,(108, 121),2	1088,(35, 121),2	1129,(88, 121),2	1170,(57, 121),2	1263,(3, 56),2	1265,(3, 54),6	1271,(3, 27),8	1279,(3, 67),12	1304,(103, 121),2	1306,(3, 91),14	1345,(60, 121),2	1386,(101, 121),2	1427,(32, 121),2	1468,(37, 121),2	1509,(48, 121),2	1550,(13, 121),2	1591,(102, 121),2	1632,(24, 121),2	
87,(107, 121),2	128,(74, 121),2	169,(73, 121),2	251,(39, 121),2	376,(85, 121),2	662,(118, 121),2	703,(51, 121),2	744,(81, 121),2	889,(89, 121),2	930,(16, 121),2	971,(109, 121),2	1012,(70, 121),2	1153,(9, 23),6	1194,(59, 121),2	1222,(9, 24),4	1235,(33, 121),2	1276,(104, 121),2	1317,(54, 121),2	1358,(67, 121),2	1399,(91, 121),2	1440,(14, 121),2	1497,(12, 97),2	1499,(12, 36),4	1503,(12, 115),6	1511,(12, 84),22	1538,(71, 121),2	1540,(12, 53),24	1579,(29, 121),2	1620,(98, 121),2	1634,(12, 58),48	1682,(77, 121),2	
89,(112, 121),2	130,(28, 121),2	253,(75, 121),2	386,(41, 121),2	617,(10, 92),2	619,(10, 25),8	627,(10, 51),8	658,(110, 121),2	660,(10, 81),34	699,(64, 121),2	740,(83, 121),2	781,(113, 121),2	822,(46, 121),2	863,(95, 121),2	904,(55, 121),2	945,(19, 121),2	986,(42, 121),2	1043,(61, 121),2	1200,(23, 121),2	1274,(78, 121),2	1315,(56, 121),2	1356,(27, 121),2	1397,(68, 121),2	1438,(76, 121),2	1540,(97, 121),2	1581,(115, 121),2	1622,(53, 121),2	
