88
# CPU
3,3,2	5,9,2	7,12,2	9,34,2	11,18,2	13,37,2	15,36,2	17,35,2	19,11,2	21,16,2	23,17,2	25,39,2	
2,2,2	4,5,2	6,24,2	8,33,2	10,31,2	12,26,2	14,30,2	16,23,2	31,32,2	34,40,2	
4,4,2	6,6,2	8,7,2	10,21,2	12,38,2	14,10,2	16,27,2	18,29,2	20,14,2	22,25,2	
0,0,1	1,1,2	3,20,2	7,15,2	14,8,2	17,19,2	19,22,2	27,28,2	29,13,2	87,41,1	
# Incoming
2,(0, 3),1	4,(2, 9),1	9,(1, 39),1	
1,(0, 2),1	4,(1, 23),1	10,(1, 40),2	29,(4, 32),2	31,(4, 40),3	
3,(0, 4),1	5,(1, 29),4	9,(2, 14),4	19,(3, 25),1	
5,(2, 15),2	7,(3, 8),7	14,(3, 19),3	17,(3, 22),2	20,(3, 28),7	27,(4, 13),2	29,(5, 41),2	31,(9, 41),2	33,(24, 41),2	35,(6, 41),2	37,(12, 41),2	39,(33, 41),2	41,(7, 41),2	43,(34, 41),2	45,(31, 41),2	47,(21, 41),2	49,(18, 41),2	51,(26, 41),2	53,(38, 41),2	55,(37, 41),2	57,(30, 41),2	59,(10, 41),2	61,(36, 41),2	63,(23, 41),2	65,(27, 41),2	67,(35, 41),2	69,(29, 41),2	71,(11, 41),2	73,(14, 41),2	75,(16, 41),2	77,(25, 41),2	79,(17, 41),2	81,(39, 41),2	83,(32, 41),2	85,(40, 41),2	
# Outgoing
7,(3, 8),7	14,(3, 19),3	17,(3, 22),2	19,(3, 25),1	20,(3, 28),7	31,(9, 41),2	37,(12, 41),2	43,(34, 41),2	49,(18, 41),2	55,(37, 41),2	61,(36, 41),2	67,(35, 41),2	71,(11, 41),2	75,(16, 41),2	79,(17, 41),2	81,(39, 41),2	
4,(2, 9),1	5,(2, 15),2	9,(2, 14),4	29,(5, 41),2	33,(24, 41),2	39,(33, 41),2	45,(31, 41),2	51,(26, 41),2	57,(30, 41),2	63,(23, 41),2	83,(32, 41),2	85,(40, 41),2	
27,(4, 13),2	29,(4, 32),2	31,(4, 40),3	35,(6, 41),2	41,(7, 41),2	47,(21, 41),2	53,(38, 41),2	59,(10, 41),2	65,(27, 41),2	69,(29, 41),2	73,(14, 41),2	77,(25, 41),2	
1,(0, 2),1	2,(0, 3),1	3,(0, 4),1	4,(1, 23),1	5,(1, 29),4	9,(1, 39),1	10,(1, 40),2	
