23243
# CPU
5515,126,1	10411,51,1	10786,45,1	11203,151,1	12190,92,1	12370,144,1	12730,114,1	12928,98,1	13249,188,1	13891,72,1	13936,86,1	13978,129,1	14176,191,1	14302,44,1	14335,48,1	14500,63,1	14701,54,1	14929,170,1	14959,171,1	16174,73,1	16231,105,1	16420,148,1	16597,177,1	16861,196,1	17353,93,1	17398,46,1	17410,190,1	17491,29,1	17548,75,1	17716,23,1	18976,69,1	18988,70,1	19738,150,1	19783,157,1	19990,185,1	20005,186,1	20065,194,1	20293,22,1	20308,55,1	20347,85,1	20356,95,1	20386,100,1	20509,125,1	20536,174,1	20557,180,1	20581,189,1	20596,193,1	20653,56,1	20872,64,1	21049,115,1	21178,136,1	21421,164,1	21508,176,1	21535,181,1	21580,25,1	21622,34,1	21634,60,1	21655,79,1	21745,88,1	21805,107,1	21838,108,1	21853,127,1	21859,132,1	21937,143,1	21994,153,1	21997,156,1	22000,159,1	22003,168,1	22066,172,1	22081,182,1	22087,195,1	23242,201,1	
298,11,1	299,82,1	300,118,1	463,17,1	464,130,1	465,137,1	466,122,1	467,192,1	5677,198,1	7324,120,1	7390,131,1	12973,112,1	13000,146,1	17470,99,1	
232,7,1	233,50,1	234,97,1	331,12,1	589,40,1	592,43,1	1537,37,1	5581,175,1	7399,121,1	7420,66,1	8197,21,1	12970,111,1	13018,158,1	15316,103,1	
199,6,1	220,147,1	529,19,1	530,67,1	531,68,1	7417,24,1	7423,80,1	8110,165,1	14338,52,1	15301,101,1	17407,184,1	17449,35,1	17467,91,1	17509,197,1	
67,2,1	79,32,1	430,16,1	431,96,1	432,33,1	433,30,1	434,65,1	454,187,1	958,94,1	7411,162,1	12733,134,1	12856,179,1	15286,62,1	17473,113,1	17491,139,1	
397,14,1	562,20,1	563,61,1	1546,49,1	1585,141,1	1597,42,1	5692,39,1	8005,135,1	12997,145,1	14701,128,1	14806,138,1	15292,76,1	15340,152,1	15343,200,1	
265,10,1	266,74,1	267,87,1	280,161,1	364,13,1	365,47,1	366,149,1	376,41,1	496,18,1	497,117,1	5689,28,1	8947,133,1	12931,199,1	14554,81,1	15295,77,1	15325,109,1	
0,0,1	1,8,1	2,9,1	3,15,1	4,84,1	5,154,1	85,71,1	278,123,1	1558,83,1	7369,36,1	12955,78,1	13021,167,1	14896,169,1	17362,116,1	17506,160,1	
34,1,1	35,90,1	133,4,1	134,178,1	135,183,1	254,57,1	586,27,1	1567,110,1	7384,59,1	7414,173,1	12691,58,1	12727,102,1	12982,124,1	15298,89,1	
100,3,1	166,5,1	574,26,1	5539,166,1	7351,31,1	7387,104,1	8740,106,1	12688,38,1	12772,163,1	12952,53,1	15337,119,1	17494,140,1	17497,142,1	17500,155,1	
# Incoming
562,(8, 23),3	565,(1, 132),27	592,(1, 177),3	595,(8, 54),177	772,(8, 56),81	853,(1, 150),6	859,(1, 181),3	862,(3, 63),3	865,(8, 85),54	919,(8, 88),3	922,(1, 136),21	943,(90, 201),15	958,(8, 95),75	1033,(8, 98),93	1126,(8, 100),369	1495,(4, 44),3	1498,(8, 115),24	1522,(2, 29),12	1534,(4, 98),3	1537,(5, 100),3	1540,(2, 44),3	1543,(4, 107),6	1549,(8, 125),3900	5449,(8, 126),66	5515,(2, 105),3	5518,(2, 136),9	5527,(2, 174),3	5530,(2, 180),3	5533,(4, 153),6	5539,(8, 170),39	5578,(5, 129),3	5581,(8, 186),6	5587,(8, 188),75	5662,(8, 194),6	5668,(2, 189),18	5686,(7, 92),3	5689,(7, 108),3	5692,(9, 48),15	5707,(9, 51),9	5716,(3, 46),9	5725,(12, 63),3	5728,(9, 63),108	5836,(9, 70),531	6367,(9, 92),33	6400,(9, 93),9	6409,(9, 100),699	7108,(9, 108),153	7261,(9, 115),54	7315,(3, 151),9	7324,(9, 125),3	7327,(10, 29),6	7333,(9, 129),276	7609,(9, 132),393	8002,(10, 114),3	8005,(9, 136),39	8044,(12, 92),3	8047,(12, 171),3	8050,(9, 148),12	8062,(9, 153),3	8065,(9, 159),42	8107,(13, 23),3	8110,(9, 182),3	8113,(9, 191),75	8188,(9, 193),3	8191,(12, 95),6	8197,(15, 25),12	8209,(15, 51),84	8293,(15, 63),189	8482,(15, 64),147	8629,(15, 88),81	8710,(15, 95),3	8713,(15, 100),15	8728,(15, 105),3	8731,(3, 176),9	8740,(15, 114),180	8920,(15, 115),6	8926,(15, 125),3	8929,(32, 201),15	8944,(13, 45),3	8947,(15, 144),81	9028,(15, 151),258	9286,(178, 201),15	9301,(13, 34),6	9307,(15, 174),84	9391,(13, 93),6	9397,(15, 185),153	9550,(15, 186),48	9598,(84, 201),15	9613,(154, 201),15	9628,(1, 85),117	9745,(1, 105),60	9805,(1, 174),42	9847,(1, 182),36	9883,(2, 45),276	10159,(2, 46),39	10198,(2, 144),39	10237,(71, 201),15	10252,(3, 48),45	10297,(3, 51),114	10411,(3, 108),57	10468,(3, 114),36	10504,(3, 115),45	10549,(3, 127),42	10591,(3, 150),51	10642,(3, 194),57	10699,(4, 34),45	10744,(4, 45),42	10786,(4, 56),84	10870,(4, 60),24	10894,(4, 64),78	10972,(4, 73),141	11113,(4, 86),36	11149,(4, 114),24	11173,(4, 151),30	11203,(4, 168),105	11308,(4, 176),150	11458,(4, 186),54	11512,(183, 201),15	11527,(5, 88),561	12088,(5, 92),102	12190,(5, 93),66	12256,(5, 107),93	12349,(5, 144),21	12370,(5, 153),66	12436,(5, 156),63	12499,(5, 159),33	12532,(5, 164),30	12562,(5, 174),54	12616,(5, 177),12	12628,(5, 181),33	12661,(6, 23),21	12682,(7, 93),9	12691,(6, 72),3	12694,(13, 176),3	12697,(6, 95),21	12718,(12, 127),9	12727,(6, 114),3	12730,(13, 172),6	12736,(6, 143),30	12766,(16, 23),3	12769,(16, 86),3	12772,(6, 168),54	12826,(6, 171),24	12850,(16, 98),3	12853,(18, 79),3	12856,(6, 182),48	12904,(6, 196),21	12925,(18, 98),3	12928,(18, 196),3	12931,(147, 201),15	12946,(7, 72),219	13165,(7, 125),24	13189,(7, 170),39	13228,(7, 188),21	13249,(7, 189),24	13273,(7, 190),348	13621,(50, 201),15	13636,(97, 201),15	13651,(57, 201),15	13666,(10, 44),33	13699,(10, 64),72	13771,(10, 72),120	13891,(10, 79),21	13912,(10, 86),24	13936,(10, 129),42	13978,(10, 148),39	14017,(10, 156),21	14038,(10, 172),57	14095,(10, 185),36	14131,(10, 191),45	14176,(74, 201),15	14191,(87, 201),15	14206,(123, 201),15	14221,(161, 201),15	14236,(11, 22),24	14260,(11, 23),9	14269,(11, 44),33	14302,(11, 48),33	14335,(19, 22),3	14338,(11, 54),6	14344,(11, 55),54	14398,(11, 60),99	14497,(11, 63),3	14500,(11, 73),21	14521,(11, 75),30	14551,(19, 143),3	14554,(11, 127),132	14686,(12, 54),15	14701,(11, 136),99	14800,(19, 153),3	14803,(19, 157),3	14806,(11, 157),87	14896,(11, 170),33	14929,(11, 171),30	14959,(11, 177),30	14989,(11, 180),105	15094,(11, 181),27	15121,(11, 190),12	15133,(11, 193),102	15235,(11, 195),9	15244,(82, 201),15	15259,(118, 201),15	15274,(12, 22),27	15301,(12, 23),45	15346,(12, 25),72	15418,(12, 29),18	15436,(12, 46),144	15580,(12, 55),558	16138,(12, 73),36	16174,(12, 105),57	16231,(12, 148),189	16420,(12, 157),153	16573,(12, 177),24	16597,(12, 190),36	16633,(13, 22),42	16675,(13, 25),12	16687,(13, 95),12	16699,(13, 168),24	16723,(13, 180),27	16750,(13, 185),60	16810,(13, 196),51	16861,(47, 201),15	16876,(149, 201),15	16891,(41, 201),15	16906,(14, 29),69	16975,(14, 56),33	17008,(14, 60),15	17023,(14, 69),264	17287,(14, 70),30	17317,(14, 93),36	17353,(16, 100),12	17365,(14, 150),30	17395,(17, 46),3	17398,(17, 64),6	17404,(17, 164),3	17407,(14, 190),3	17410,(14, 193),21	17431,(16, 25),36	17467,(16, 29),24	17491,(16, 75),57	17548,(16, 79),51	17599,(16, 174),21	17620,(96, 201),15	17635,(33, 201),15	17650,(30, 201),15	17665,(65, 201),15	17680,(187, 201),15	17695,(17, 23),21	17716,(17, 60),15	17731,(17, 69),1245	18976,(17, 70),12	18988,(17, 150),750	19738,(17, 157),45	19783,(17, 168),6	19789,(17, 172),81	19870,(17, 174),93	19963,(17, 182),24	19987,(17, 185),3	19990,(17, 186),15	20005,(17, 193),9	20014,(17, 194),51	20065,(17, 195),117	20182,(130, 201),15	20197,(137, 201),15	20212,(122, 201),15	20227,(192, 201),15	20242,(18, 22),51	20293,(18, 55),15	20308,(18, 85),39	20347,(18, 95),9	20356,(18, 100),30	20386,(18, 125),123	20509,(18, 174),27	20536,(18, 180),21	20557,(18, 189),24	20581,(18, 193),15	20596,(18, 195),21	20617,(117, 201),15	20632,(19, 34),9	20641,(19, 56),12	20653,(19, 60),63	20716,(19, 64),156	20872,(19, 115),177	21049,(19, 136),129	21178,(19, 164),243	21421,(19, 176),87	21508,(19, 181),27	21535,(67, 201),15	21550,(68, 201),15	21565,(20, 25),15	21580,(20, 34),42	21622,(20, 60),12	21634,(20, 79),21	21655,(20, 88),90	21745,(20, 107),60	21805,(20, 108),33	21838,(20, 127),15	21853,(20, 132),6	21859,(20, 143),78	21937,(20, 153),57	21994,(20, 156),3	21997,(20, 159),3	22000,(20, 168),3	22003,(20, 172),63	22066,(20, 182),15	22081,(20, 195),6	22087,(61, 201),15	22102,(26, 201),15	22117,(27, 201),15	22132,(40, 201),15	22147,(43, 201),15	22162,(94, 201),15	22177,(37, 201),15	22192,(49, 201),15	22207,(83, 201),15	22222,(110, 201),15	22237,(141, 201),15	22252,(42, 201),15	22267,(166, 201),15	22282,(175, 201),15	22297,(198, 201),15	22312,(28, 201),15	22327,(39, 201),15	22342,(120, 201),15	22357,(31, 201),15	22372,(36, 201),15	22387,(59, 201),15	22402,(104, 201),15	22417,(131, 201),15	22432,(121, 201),15	22447,(162, 201),15	22462,(173, 201),15	22477,(24, 201),15	22492,(66, 201),15	22507,(80, 201),15	22522,(135, 201),15	22537,(165, 201),15	22552,(21, 201),15	22567,(106, 201),15	22582,(133, 201),15	22597,(38, 201),15	22612,(58, 201),15	22627,(102, 201),15	22642,(134, 201),15	22657,(163, 201),15	22672,(179, 201),15	22687,(199, 201),15	22702,(53, 201),15	22717,(78, 201),15	22732,(111, 201),15	22747,(112, 201),15	22762,(124, 201),15	22777,(145, 201),15	22792,(146, 201),15	22807,(158, 201),15	22822,(167, 201),15	22837,(52, 201),15	22852,(81, 201),15	22867,(128, 201),15	22882,(138, 201),15	22897,(169, 201),15	22912,(62, 201),15	22927,(76, 201),15	22942,(77, 201),15	22957,(89, 201),15	22972,(101, 201),15	22987,(103, 201),15	23002,(109, 201),15	23017,(119, 201),15	23032,(152, 201),15	23047,(200, 201),15	23062,(116, 201),15	23077,(184, 201),15	23092,(35, 201),15	23107,(91, 201),15	23122,(99, 201),15	23137,(113, 201),15	23152,(139, 201),15	23167,(140, 201),15	23182,(142, 201),15	23197,(155, 201),15	23212,(160, 201),15	23227,(197, 201),15	
265,(0, 11),33	298,(1, 130),6	304,(3, 112),12	316,(3, 137),3	319,(7, 99),3	355,(5, 112),3	376,(5, 99),18	430,(0, 17),33	1522,(8, 120),27	1567,(2, 120),6	5668,(8, 198),9	7315,(9, 120),9	7387,(10, 131),3	7423,(18, 99),6	12970,(19, 112),3	12997,(19, 146),3	17467,(20, 99),3	
199,(0, 7),33	232,(4, 121),3	235,(4, 158),6	298,(0, 12),33	331,(3, 121),18	358,(5, 121),3	403,(5, 158),6	409,(5, 175),6	586,(8, 40),3	589,(8, 43),3	1534,(2, 37),3	5527,(8, 158),3	5578,(8, 175),3	7396,(13, 121),3	7417,(18, 66),3	8194,(15, 21),3	9286,(15, 158),21	12955,(19, 111),15	13000,(19, 158),18	15301,(17, 103),15	
166,(0, 6),33	199,(1, 35),15	214,(1, 147),6	220,(1, 165),3	223,(4, 197),3	272,(7, 91),3	278,(7, 197),3	349,(5, 35),3	496,(0, 19),33	5677,(9, 24),3	7393,(10, 184),3	7414,(18, 24),3	7420,(18, 80),3	8107,(9, 165),3	8191,(9, 197),3	9391,(15, 184),6	14335,(11, 52),3	15298,(17, 101),3	17395,(14, 184),12	17431,(20, 35),18	17449,(20, 91),18	17506,(20, 197),3	
34,(0, 2),33	67,(1, 30),3	70,(1, 32),9	292,(3, 33),6	322,(3, 187),9	332,(12, 96),9	352,(5, 62),3	397,(0, 16),33	430,(5, 113),12	442,(5, 187),12	922,(8, 94),36	5716,(9, 62),12	7402,(13, 162),9	8044,(9, 139),3	12730,(6, 134),3	12850,(6, 179),6	15274,(17, 62),12	17362,(14, 139),3	17470,(20, 113),3	17473,(20, 139),18	
364,(0, 14),33	397,(1, 200),3	400,(4, 42),15	415,(12, 39),12	427,(12, 42),9	529,(0, 20),33	592,(8, 49),3	1537,(2, 42),3	1543,(2, 49),3	1573,(2, 135),6	1579,(2, 141),6	1588,(16, 42),9	1621,(16, 135),6	5515,(8, 152),12	5689,(9, 39),3	7327,(9, 128),6	7399,(13, 138),3	8002,(9, 135),3	8929,(15, 128),3	12982,(19, 145),15	14686,(11, 128),15	14800,(11, 138),6	15286,(17, 76),6	15337,(17, 152),3	15340,(17, 200),3	
232,(0, 10),33	265,(1, 161),15	280,(3, 28),12	292,(4, 28),3	295,(7, 133),3	298,(3, 81),6	304,(4, 41),9	313,(4, 199),6	331,(0, 13),33	364,(5, 41),12	463,(0, 18),33	856,(8, 81),9	1585,(2, 199),3	1618,(16, 133),3	5680,(9, 28),9	8932,(15, 133),15	12694,(6, 77),3	12925,(6, 199),6	14551,(11, 81),3	15292,(17, 77),3	15316,(17, 109),9	
79,(1, 71),6	260,(7, 78),12	275,(7, 123),3	319,(3, 169),3	341,(12, 160),3	1546,(2, 83),12	7351,(10, 36),18	7390,(10, 160),3	12952,(19, 78),3	13018,(19, 167),3	14893,(11, 169),3	17353,(14, 116),9	17500,(20, 160),6	
1,(0, 1),33	100,(0, 4),33	236,(7, 57),18	254,(7, 58),6	394,(5, 124),9	574,(8, 27),12	853,(8, 58),3	1558,(2, 110),9	7381,(10, 59),3	7411,(13, 173),3	12688,(6, 58),3	12718,(6, 102),9	12973,(19, 124),9	15295,(17, 89),3	
67,(0, 3),33	100,(1, 53),18	118,(1, 106),9	133,(0, 5),33	166,(1, 119),15	233,(7, 53),3	565,(8, 26),9	1495,(8, 104),3	1597,(16, 53),15	1612,(16, 119),6	5530,(8, 166),9	7333,(10, 31),18	7369,(10, 38),6	7375,(10, 53),6	7384,(10, 104),3	7429,(18, 163),3	8047,(9, 142),3	8731,(15, 106),9	12682,(6, 38),6	12733,(6, 140),3	12766,(6, 163),6	12946,(19, 53),6	15325,(17, 119),12	17491,(20, 140),3	17494,(20, 142),3	17497,(20, 155),3	
# Outgoing

14236,(11, 22),24	14260,(11, 23),9	14269,(11, 44),33	14302,(11, 48),33	14335,(11, 52),3	14338,(11, 54),6	14344,(11, 55),54	14398,(11, 60),99	14497,(11, 63),3	14500,(11, 73),21	14521,(11, 75),30	14551,(11, 81),3	14554,(11, 127),132	14686,(11, 128),15	14701,(11, 136),99	14800,(11, 138),6	14806,(11, 157),87	14893,(11, 169),3	14896,(11, 170),33	14929,(11, 171),30	14959,(11, 177),30	14989,(11, 180),105	15094,(11, 181),27	15121,(11, 190),12	15133,(11, 193),102	15235,(11, 195),9	15244,(82, 201),15	15259,(118, 201),15	15274,(17, 62),12	15286,(17, 76),6	15292,(17, 77),3	15295,(17, 89),3	15298,(17, 101),3	15301,(17, 103),15	15316,(17, 109),9	15325,(17, 119),12	15337,(17, 152),3	15340,(17, 200),3	17395,(17, 46),3	17398,(17, 64),6	17404,(17, 164),3	17695,(17, 23),21	17716,(17, 60),15	17731,(17, 69),1245	18976,(17, 70),12	18988,(17, 150),750	19738,(17, 157),45	19783,(17, 168),6	19789,(17, 172),81	19870,(17, 174),93	19963,(17, 182),24	19987,(17, 185),3	19990,(17, 186),15	20005,(17, 193),9	20014,(17, 194),51	20065,(17, 195),117	20182,(130, 201),15	20197,(137, 201),15	20212,(122, 201),15	20227,(192, 201),15	22297,(198, 201),15	22342,(120, 201),15	22417,(131, 201),15	22747,(112, 201),15	22792,(146, 201),15	23122,(99, 201),15	
233,(7, 53),3	236,(7, 57),18	254,(7, 58),6	260,(7, 78),12	272,(7, 91),3	275,(7, 123),3	278,(7, 197),3	295,(7, 133),3	319,(7, 99),3	332,(12, 96),9	341,(12, 160),3	415,(12, 39),12	427,(12, 42),9	5686,(7, 92),3	5689,(7, 108),3	5725,(12, 63),3	8044,(12, 92),3	8047,(12, 171),3	8191,(12, 95),6	12682,(7, 93),9	12718,(12, 127),9	12946,(7, 72),219	13165,(7, 125),24	13189,(7, 170),39	13228,(7, 188),21	13249,(7, 189),24	13273,(7, 190),348	13621,(50, 201),15	13636,(97, 201),15	14686,(12, 54),15	15274,(12, 22),27	15301,(12, 23),45	15346,(12, 25),72	15418,(12, 29),18	15436,(12, 46),144	15580,(12, 55),558	16138,(12, 73),36	16174,(12, 105),57	16231,(12, 148),189	16420,(12, 157),153	16573,(12, 177),24	16597,(12, 190),36	22132,(40, 201),15	22147,(43, 201),15	22177,(37, 201),15	22282,(175, 201),15	22432,(121, 201),15	22492,(66, 201),15	22552,(21, 201),15	22732,(111, 201),15	22807,(158, 201),15	22987,(103, 201),15	
12661,(6, 23),21	12682,(6, 38),6	12688,(6, 58),3	12691,(6, 72),3	12694,(6, 77),3	12697,(6, 95),21	12718,(6, 102),9	12727,(6, 114),3	12730,(6, 134),3	12733,(6, 140),3	12736,(6, 143),30	12766,(6, 163),6	12772,(6, 168),54	12826,(6, 171),24	12850,(6, 179),6	12856,(6, 182),48	12904,(6, 196),21	12925,(6, 199),6	12931,(147, 201),15	12946,(19, 53),6	12952,(19, 78),3	12955,(19, 111),15	12970,(19, 112),3	12973,(19, 124),9	12982,(19, 145),15	12997,(19, 146),3	13000,(19, 158),18	13018,(19, 167),3	14335,(19, 22),3	14551,(19, 143),3	14800,(19, 153),3	14803,(19, 157),3	20632,(19, 34),9	20641,(19, 56),12	20653,(19, 60),63	20716,(19, 64),156	20872,(19, 115),177	21049,(19, 136),129	21178,(19, 164),243	21421,(19, 176),87	21508,(19, 181),27	21535,(67, 201),15	21550,(68, 201),15	22477,(24, 201),15	22507,(80, 201),15	22537,(165, 201),15	22837,(52, 201),15	22972,(101, 201),15	23077,(184, 201),15	23092,(35, 201),15	23107,(91, 201),15	23227,(197, 201),15	
1522,(2, 29),12	1534,(2, 37),3	1537,(2, 42),3	1540,(2, 44),3	1543,(2, 49),3	1546,(2, 83),12	1558,(2, 110),9	1567,(2, 120),6	1573,(2, 135),6	1579,(2, 141),6	1585,(2, 199),3	1588,(16, 42),9	1597,(16, 53),15	1612,(16, 119),6	1618,(16, 133),3	1621,(16, 135),6	5515,(2, 105),3	5518,(2, 136),9	5527,(2, 174),3	5530,(2, 180),3	5668,(2, 189),18	8929,(32, 201),15	9883,(2, 45),276	10159,(2, 46),39	10198,(2, 144),39	12766,(16, 23),3	12769,(16, 86),3	12850,(16, 98),3	17353,(16, 100),12	17431,(16, 25),36	17467,(16, 29),24	17491,(16, 75),57	17548,(16, 79),51	17599,(16, 174),21	17620,(96, 201),15	17635,(33, 201),15	17650,(30, 201),15	17665,(65, 201),15	17680,(187, 201),15	22162,(94, 201),15	22447,(162, 201),15	22642,(134, 201),15	22672,(179, 201),15	22912,(62, 201),15	23137,(113, 201),15	23152,(139, 201),15	
16906,(14, 29),69	16975,(14, 56),33	17008,(14, 60),15	17023,(14, 69),264	17287,(14, 70),30	17317,(14, 93),36	17353,(14, 116),9	17362,(14, 139),3	17365,(14, 150),30	17395,(14, 184),12	17407,(14, 190),3	17410,(14, 193),21	17431,(20, 35),18	17449,(20, 91),18	17467,(20, 99),3	17470,(20, 113),3	17473,(20, 139),18	17491,(20, 140),3	17494,(20, 142),3	17497,(20, 155),3	17500,(20, 160),6	17506,(20, 197),3	21565,(20, 25),15	21580,(20, 34),42	21622,(20, 60),12	21634,(20, 79),21	21655,(20, 88),90	21745,(20, 107),60	21805,(20, 108),33	21838,(20, 127),15	21853,(20, 132),6	21859,(20, 143),78	21937,(20, 153),57	21994,(20, 156),3	21997,(20, 159),3	22000,(20, 168),3	22003,(20, 172),63	22066,(20, 182),15	22081,(20, 195),6	22087,(61, 201),15	22192,(49, 201),15	22237,(141, 201),15	22252,(42, 201),15	22327,(39, 201),15	22522,(135, 201),15	22777,(145, 201),15	22867,(128, 201),15	22882,(138, 201),15	22927,(76, 201),15	23032,(152, 201),15	23047,(200, 201),15	
7327,(10, 29),6	7333,(10, 31),18	7351,(10, 36),18	7369,(10, 38),6	7375,(10, 53),6	7381,(10, 59),3	7384,(10, 104),3	7387,(10, 131),3	7390,(10, 160),3	7393,(10, 184),3	7396,(13, 121),3	7399,(13, 138),3	7402,(13, 162),9	7411,(13, 173),3	7414,(18, 24),3	7417,(18, 66),3	7420,(18, 80),3	7423,(18, 99),6	7429,(18, 163),3	8002,(10, 114),3	8107,(13, 23),3	8944,(13, 45),3	9301,(13, 34),6	9391,(13, 93),6	12694,(13, 176),3	12730,(13, 172),6	12853,(18, 79),3	12925,(18, 98),3	12928,(18, 196),3	13666,(10, 44),33	13699,(10, 64),72	13771,(10, 72),120	13891,(10, 79),21	13912,(10, 86),24	13936,(10, 129),42	13978,(10, 148),39	14017,(10, 156),21	14038,(10, 172),57	14095,(10, 185),36	14131,(10, 191),45	14176,(74, 201),15	14191,(87, 201),15	14221,(161, 201),15	16633,(13, 22),42	16675,(13, 25),12	16687,(13, 95),12	16699,(13, 168),24	16723,(13, 180),27	16750,(13, 185),60	16810,(13, 196),51	16861,(47, 201),15	16876,(149, 201),15	16891,(41, 201),15	20242,(18, 22),51	20293,(18, 55),15	20308,(18, 85),39	20347,(18, 95),9	20356,(18, 100),30	20386,(18, 125),123	20509,(18, 174),27	20536,(18, 180),21	20557,(18, 189),24	20581,(18, 193),15	20596,(18, 195),21	20617,(117, 201),15	22312,(28, 201),15	22582,(133, 201),15	22687,(199, 201),15	22852,(81, 201),15	22942,(77, 201),15	23002,(109, 201),15	
1,(0, 1),33	34,(0, 2),33	67,(0, 3),33	100,(0, 4),33	133,(0, 5),33	166,(0, 6),33	199,(0, 7),33	232,(0, 10),33	265,(0, 11),33	298,(0, 12),33	331,(0, 13),33	364,(0, 14),33	397,(0, 16),33	430,(0, 17),33	463,(0, 18),33	496,(0, 19),33	529,(0, 20),33	562,(8, 23),3	565,(8, 26),9	574,(8, 27),12	586,(8, 40),3	589,(8, 43),3	592,(8, 49),3	595,(8, 54),177	772,(8, 56),81	853,(8, 58),3	856,(8, 81),9	865,(8, 85),54	919,(8, 88),3	922,(8, 94),36	958,(8, 95),75	1033,(8, 98),93	1126,(8, 100),369	1495,(8, 104),3	1498,(8, 115),24	1522,(8, 120),27	1549,(8, 125),3900	5449,(8, 126),66	5515,(8, 152),12	5527,(8, 158),3	5530,(8, 166),9	5539,(8, 170),39	5578,(8, 175),3	5581,(8, 186),6	5587,(8, 188),75	5662,(8, 194),6	5668,(8, 198),9	5677,(9, 24),3	5680,(9, 28),9	5689,(9, 39),3	5692,(9, 48),15	5707,(9, 51),9	5716,(9, 62),12	5728,(9, 63),108	5836,(9, 70),531	6367,(9, 92),33	6400,(9, 93),9	6409,(9, 100),699	7108,(9, 108),153	7261,(9, 115),54	7315,(9, 120),9	7324,(9, 125),3	7327,(9, 128),6	7333,(9, 129),276	7609,(9, 132),393	8002,(9, 135),3	8005,(9, 136),39	8044,(9, 139),3	8047,(9, 142),3	8050,(9, 148),12	8062,(9, 153),3	8065,(9, 159),42	8107,(9, 165),3	8110,(9, 182),3	8113,(9, 191),75	8188,(9, 193),3	8191,(9, 197),3	8194,(15, 21),3	8197,(15, 25),12	8209,(15, 51),84	8293,(15, 63),189	8482,(15, 64),147	8629,(15, 88),81	8710,(15, 95),3	8713,(15, 100),15	8728,(15, 105),3	8731,(15, 106),9	8740,(15, 114),180	8920,(15, 115),6	8926,(15, 125),3	8929,(15, 128),3	8932,(15, 133),15	8947,(15, 144),81	9028,(15, 151),258	9286,(15, 158),21	9307,(15, 174),84	9391,(15, 184),6	9397,(15, 185),153	9550,(15, 186),48	9598,(84, 201),15	9613,(154, 201),15	10237,(71, 201),15	14206,(123, 201),15	22207,(83, 201),15	22372,(36, 201),15	22717,(78, 201),15	22822,(167, 201),15	22897,(169, 201),15	23062,(116, 201),15	23212,(160, 201),15	
67,(1, 30),3	70,(1, 32),9	79,(1, 71),6	100,(1, 53),18	118,(1, 106),9	166,(1, 119),15	199,(1, 35),15	214,(1, 147),6	220,(1, 165),3	223,(4, 197),3	232,(4, 121),3	235,(4, 158),6	265,(1, 161),15	292,(4, 28),3	298,(1, 130),6	304,(4, 41),9	313,(4, 199),6	397,(1, 200),3	400,(4, 42),15	565,(1, 132),27	592,(1, 177),3	853,(1, 150),6	859,(1, 181),3	922,(1, 136),21	943,(90, 201),15	1495,(4, 44),3	1534,(4, 98),3	1543,(4, 107),6	5533,(4, 153),6	9286,(178, 201),15	9628,(1, 85),117	9745,(1, 105),60	9805,(1, 174),42	9847,(1, 182),36	10699,(4, 34),45	10744,(4, 45),42	10786,(4, 56),84	10870,(4, 60),24	10894,(4, 64),78	10972,(4, 73),141	11113,(4, 86),36	11149,(4, 114),24	11173,(4, 151),30	11203,(4, 168),105	11308,(4, 176),150	11458,(4, 186),54	11512,(183, 201),15	13651,(57, 201),15	22117,(27, 201),15	22222,(110, 201),15	22387,(59, 201),15	22462,(173, 201),15	22612,(58, 201),15	22627,(102, 201),15	22762,(124, 201),15	22957,(89, 201),15	
280,(3, 28),12	292,(3, 33),6	298,(3, 81),6	304,(3, 112),12	316,(3, 137),3	319,(3, 169),3	322,(3, 187),9	331,(3, 121),18	349,(5, 35),3	352,(5, 62),3	355,(5, 112),3	358,(5, 121),3	364,(5, 41),12	376,(5, 99),18	394,(5, 124),9	403,(5, 158),6	409,(5, 175),6	430,(5, 113),12	442,(5, 187),12	862,(3, 63),3	1537,(5, 100),3	5578,(5, 129),3	5716,(3, 46),9	7315,(3, 151),9	8731,(3, 176),9	10252,(3, 48),45	10297,(3, 51),114	10411,(3, 108),57	10468,(3, 114),36	10504,(3, 115),45	10549,(3, 127),42	10591,(3, 150),51	10642,(3, 194),57	11527,(5, 88),561	12088,(5, 92),102	12190,(5, 93),66	12256,(5, 107),93	12349,(5, 144),21	12370,(5, 153),66	12436,(5, 156),63	12499,(5, 159),33	12532,(5, 164),30	12562,(5, 174),54	12616,(5, 177),12	12628,(5, 181),33	22102,(26, 201),15	22267,(166, 201),15	22357,(31, 201),15	22402,(104, 201),15	22567,(106, 201),15	22597,(38, 201),15	22657,(163, 201),15	22702,(53, 201),15	23017,(119, 201),15	23167,(140, 201),15	23182,(142, 201),15	23197,(155, 201),15	
