7375
# CPU
397,10,5	705,164,5	741,175,5	793,20,5	1205,99,5	1261,45,5	1393,77,5	1441,47,5	1461,67,5	1577,149,5	1753,154,5	1777,95,5	1809,144,5	1837,97,5	1849,72,5	3213,78,5	3237,81,5	3297,190,5	3353,42,5	3417,88,5	3581,123,5	3593,129,5	3598,133,5	3785,76,5	3997,102,5	4041,185,5	6193,169,5	6241,119,5	6417,180,5	6501,59,5	6785,195,5	6965,51,5	7013,84,5	7101,92,5	7177,106,5	7269,159,5	7321,113,5	7349,138,5	
353,9,5	358,54,5	417,122,5	649,61,5	749,19,5	754,98,5	1385,132,5	1481,112,5	1497,157,5	1513,83,5	1545,96,5	1797,147,5	2357,152,5	2541,40,5	3145,137,5	3233,101,5	3369,69,5	3381,94,5	3457,141,5	3477,173,5	3509,87,5	3525,79,5	3553,193,5	3713,183,5	3757,75,5	3789,118,5	3809,162,5	4749,91,5	5313,50,5	5569,46,5	5701,105,5	5733,198,5	5833,188,5	6005,127,5	6081,167,5	6185,178,5	
309,8,5	645,103,5	650,114,5	705,18,5	825,145,5	1177,171,5	1253,150,5	1353,73,5	1569,165,5	1574,39,5	1581,48,5	1586,68,5	1593,181,5	1605,124,5	1821,74,5	2789,135,5	2965,139,5	3097,89,5	3197,100,5	3237,120,5	3242,186,5	3261,130,5	3273,155,5	3281,109,5	3397,53,5	3517,60,5	3553,93,5	3661,85,5	4045,191,5	4129,160,5	4373,196,5	6517,176,5	
265,7,5	285,55,5	313,44,5	661,17,5	666,82,5	671,111,5	729,187,5	829,161,5	1373,192,5	1461,90,5	1517,38,5	1701,166,5	1729,125,5	1734,136,5	1801,117,5	1997,156,5	2237,146,5	2285,131,5	2433,104,5	2509,121,5	2825,172,5	3053,71,5	3145,65,5	3150,86,5	3317,140,5	3325,182,5	3333,197,5	3789,151,5	4037,177,5	
221,6,5	529,163,5	573,200,5	617,16,5	629,153,5	657,179,5	1133,158,5	1141,110,5	1269,70,5	1925,116,5	2113,35,5	2141,58,5	2429,64,5	2641,189,5	2733,66,5	2989,142,5	3033,168,5	3237,184,5	3397,43,5	3589,115,5	3605,148,5	4369,194,5	5741,174,5	
177,5,5	261,31,5	573,15,5	1549,34,5	1581,57,5	1645,62,5	2489,199,5	2677,128,5	2989,143,5	3105,63,5	
133,4,5	529,14,5	665,56,5	733,36,5	1369,33,5	1817,80,5	2413,126,5	3305,108,5	3310,25,5	3449,52,5	
89,3,5	485,13,5	1189,24,5	1225,26,5	1349,30,5	1589,41,5	2365,49,5	3585,107,5	7374,201,1	
45,2,5	441,12,5	446,23,5	957,29,5	2661,32,5	3349,37,5	3813,170,5	
0,0,1	1,11,5	6,1,5	106,21,5	482,28,5	806,22,5	1309,27,5	2809,134,5	
# Incoming
353,(0, 10),44	397,(2, 47),60	457,(3, 47),8	465,(3, 51),16	481,(4, 76),44	525,(5, 45),4	529,(5, 113),8	537,(5, 133),4	541,(5, 138),4	545,(2, 77),8	553,(2, 78),16	569,(2, 95),12	581,(4, 97),8	589,(5, 149),4	593,(5, 159),20	613,(5, 164),4	617,(4, 113),4	621,(2, 99),8	629,(2, 106),24	653,(6, 67),4	657,(2, 133),12	669,(4, 129),16	685,(6, 149),4	689,(7, 77),4	693,(8, 78),4	697,(2, 164),8	705,(4, 138),24	729,(7, 175),12	741,(8, 76),8	749,(0, 20),44	793,(4, 185),24	817,(8, 81),32	849,(8, 92),8	857,(8, 123),4	861,(6, 195),16	877,(7, 84),48	925,(8, 97),12	937,(8, 99),176	1113,(8, 149),4	1117,(8, 159),44	1161,(9, 77),20	1181,(9, 88),4	1185,(9, 99),20	1205,(9, 106),32	1237,(9, 113),8	1245,(9, 123),4	1249,(9, 138),8	1257,(13, 45),4	1261,(13, 76),4	1265,(13, 78),4	1269,(11, 77),104	1373,(11, 84),8	1381,(12, 47),4	1385,(13, 77),8	1393,(13, 149),16	1409,(13, 154),24	1433,(15, 47),8	1441,(15, 67),20	1461,(9, 102),68	1529,(12, 72),4	1533,(12, 190),8	1541,(11, 102),4	1545,(17, 84),8	1553,(17, 88),16	1569,(17, 123),4	1573,(17, 149),4	1577,(11, 113),12	1589,(11, 119),4	1593,(4, 88),132	1725,(14, 113),4	1729,(14, 129),16	1745,(14, 144),4	1749,(14, 154),4	1753,(11, 138),8	1761,(16, 95),16	1777,(16, 123),4	1781,(16, 169),4	1785,(16, 190),4	1789,(9, 144),20	1809,(9, 169),16	1825,(9, 190),8	1833,(15, 97),4	1837,(15, 102),8	1845,(19, 72),4	1849,(19, 88),4	1853,(11, 180),1320	3173,(12, 78),40	3213,(17, 195),12	3225,(18, 81),12	3237,(18, 119),4	3241,(11, 190),56	3297,(12, 92),48	3345,(19, 180),4	3349,(1, 42),4	3353,(12, 88),64	3417,(16, 133),16	3441,(1, 51),4	3445,(12, 129),80	3525,(1, 84),24	3549,(15, 123),32	3589,(1, 129),4	3593,(1, 133),4	3597,(9, 76),188	3785,(13, 51),124	3909,(13, 102),88	3997,(18, 59),20	4037,(1, 185),4	4041,(2, 59),1848	5889,(7, 169),304	6193,(14, 119),48	6241,(14, 180),176	6417,(15, 59),84	6501,(15, 195),284	6785,(16, 51),180	6965,(16, 84),48	7013,(16, 92),52	7065,(17, 92),36	7101,(17, 106),76	7177,(17, 159),92	7269,(18, 113),52	7321,(18, 138),28	
309,(0, 9),44	353,(2, 40),16	369,(2, 75),4	373,(2, 83),20	393,(2, 118),4	397,(4, 46),12	409,(4, 75),4	413,(4, 122),4	417,(5, 193),8	445,(3, 141),4	457,(4, 141),4	461,(4, 162),4	465,(4, 173),12	481,(3, 152),20	501,(8, 75),4	505,(8, 87),4	513,(6, 162),4	517,(6, 173),4	525,(4, 91),56	581,(2, 98),40	621,(7, 61),28	649,(10, 91),4	653,(2, 132),4	657,(10, 40),12	669,(2, 137),28	697,(8, 105),8	705,(0, 19),44	749,(5, 127),40	789,(10, 127),4	793,(10, 137),4	797,(13, 75),4	801,(11, 40),8	809,(5, 40),88	897,(6, 69),52	949,(6, 75),140	1089,(6, 141),120	1209,(7, 87),16	1225,(7, 132),160	1385,(7, 157),24	1409,(8, 162),44	1453,(13, 50),20	1473,(13, 94),4	1477,(13, 112),4	1481,(15, 162),4	1485,(16, 157),12	1497,(17, 46),4	1501,(12, 83),12	1513,(11, 94),20	1533,(11, 96),8	1541,(12, 96),4	1545,(15, 69),100	1645,(12, 87),32	1677,(12, 101),36	1713,(12, 137),8	1721,(12, 173),28	1761,(11, 147),36	1797,(4, 178),48	1845,(6, 193),260	2105,(16, 178),16	2121,(10, 152),52	2173,(14, 105),36	2209,(16, 118),20	2229,(20, 40),4	2237,(12, 152),120	2357,(13, 40),184	2541,(14, 87),572	3113,(15, 137),32	3145,(15, 173),40	3185,(16, 101),48	3233,(17, 69),8	3241,(17, 75),8	3249,(17, 127),116	3365,(18, 69),4	3369,(20, 50),8	3377,(20, 94),4	3381,(20, 105),4	3397,(1, 50),44	3441,(17, 141),16	3457,(17, 173),20	3477,(18, 87),32	3517,(1, 79),8	3525,(20, 193),28	3553,(1, 105),20	3573,(17, 183),140	3713,(18, 75),44	3757,(18, 118),32	3797,(1, 162),12	3809,(7, 91),940	4749,(15, 50),564	5313,(16, 46),256	5569,(18, 105),132	5701,(20, 198),32	5741,(17, 188),92	5833,(18, 167),108	5941,(20, 127),64	6005,(20, 167),76	6081,(20, 178),104	
265,(0, 8),44	309,(2, 53),28	337,(2, 145),4	341,(2, 160),12	353,(3, 100),4	357,(3, 114),28	385,(3, 120),60	445,(4, 85),12	457,(2, 48),88	545,(5, 74),4	549,(3, 196),40	589,(4, 93),28	617,(5, 85),4	621,(4, 145),4	625,(4, 150),4	629,(4, 160),8	637,(5, 103),8	645,(5, 114),4	649,(7, 68),4	653,(7, 109),4	657,(7, 124),4	661,(0, 18),44	705,(6, 89),12	717,(6, 135),24	741,(6, 150),56	797,(7, 135),24	821,(7, 145),4	825,(7, 155),4	829,(7, 165),8	837,(7, 181),16	853,(2, 181),36	889,(10, 89),4	893,(10, 150),4	897,(5, 196),144	1041,(7, 160),52	1093,(9, 60),52	1145,(9, 89),8	1153,(9, 109),4	1157,(9, 160),4	1161,(10, 130),8	1169,(12, 39),4	1173,(12, 171),4	1177,(11, 68),4	1181,(13, 53),4	1185,(13, 74),52	1237,(13, 89),4	1241,(13, 191),4	1245,(15, 60),4	1249,(15, 150),4	1257,(9, 176),32	1289,(15, 68),20	1309,(15, 85),20	1329,(19, 39),8	1337,(19, 53),4	1349,(20, 73),4	1353,(20, 85),12	1365,(20, 100),4	1369,(20, 135),4	1381,(11, 89),132	1513,(13, 165),56	1569,(16, 39),4	1573,(16, 60),4	1577,(17, 48),4	1581,(17, 68),4	1585,(17, 155),4	1589,(14, 181),4	1593,(11, 124),12	1605,(7, 74),216	1821,(7, 85),668	2489,(9, 135),300	2789,(12, 100),36	2825,(12, 120),24	2849,(13, 139),116	2965,(13, 160),120	3085,(16, 89),12	3097,(16, 100),12	3113,(14, 93),76	3189,(14, 100),8	3197,(14, 120),40	3237,(11, 186),4	3241,(14, 130),20	3261,(14, 155),12	3273,(16, 109),8	3297,(11, 191),4	3301,(11, 196),4	3305,(14, 191),64	3369,(17, 53),28	3397,(20, 191),28	3449,(1, 60),68	3549,(1, 93),4	3553,(16, 85),108	3789,(1, 160),8	3817,(1, 176),24	3841,(16, 160),140	4041,(1, 191),4	4045,(19, 160),84	4369,(1, 196),4	6193,(7, 176),324	
221,(0, 7),44	265,(2, 55),4	269,(3, 55),16	285,(4, 44),28	313,(4, 82),4	317,(4, 86),4	321,(4, 104),8	329,(4, 111),4	333,(4, 117),4	337,(5, 65),4	341,(5, 82),8	349,(5, 117),20	369,(5, 177),4	373,(8, 146),4	417,(4, 136),28	445,(5, 146),32	477,(6, 117),4	501,(3, 172),28	529,(6, 65),68	617,(0, 17),44	661,(9, 38),32	693,(14, 65),12	705,(8, 121),20	725,(10, 187),4	729,(4, 172),44	773,(8, 172),40	813,(10, 156),8	821,(14, 161),8	829,(20, 38),4	833,(11, 65),344	1177,(2, 192),40	1217,(6, 156),144	1361,(8, 192),12	1373,(9, 90),88	1461,(10, 38),56	1517,(12, 65),4	1521,(15, 104),8	1529,(16, 65),8	1537,(16, 71),32	1569,(18, 166),4	1577,(16, 131),4	1581,(12, 86),64	1645,(13, 166),56	1701,(16, 104),16	1717,(16, 125),12	1729,(16, 136),4	1737,(11, 131),16	1753,(12, 117),48	1805,(11, 156),48	1853,(4, 156),144	1997,(9, 131),96	2093,(10, 151),28	2121,(12, 121),28	2173,(10, 172),24	2197,(12, 146),40	2245,(15, 131),40	2357,(12, 197),32	2429,(20, 104),4	2433,(20, 121),76	2585,(20, 177),24	2677,(13, 172),148	2825,(16, 86),180	3005,(18, 71),48	3053,(18, 86),20	3073,(18, 140),32	3105,(18, 182),36	3141,(19, 65),4	3145,(19, 86),4	3149,(20, 197),24	3305,(19, 140),12	3317,(19, 182),8	3325,(19, 197),8	3605,(1, 151),184	3841,(1, 177),196	
177,(0, 6),44	221,(3, 43),12	249,(2, 194),4	269,(2, 70),24	293,(3, 58),48	341,(4, 43),20	361,(4, 116),28	389,(5, 116),4	398,(7, 35),52	450,(7, 66),4	454,(7, 184),4	458,(7, 189),24	482,(8, 64),16	509,(8, 116),4	513,(8, 163),12	525,(9, 163),4	529,(3, 174),20	549,(9, 43),8	557,(9, 66),8	565,(9, 200),8	573,(0, 16),44	617,(9, 153),12	629,(10, 64),4	633,(10, 189),4	637,(4, 179),20	665,(8, 115),24	689,(14, 194),4	705,(2, 174),148	853,(9, 58),52	905,(10, 116),212	1117,(10, 158),16	1133,(12, 110),8	1141,(12, 174),20	1161,(13, 43),20	1181,(11, 70),88	1269,(13, 115),112	1381,(13, 174),4	1385,(12, 58),116	1501,(18, 35),12	1513,(18, 115),8	1529,(9, 115),260	1797,(11, 148),8	1805,(12, 116),120	1925,(12, 194),16	1941,(13, 35),172	2113,(14, 58),28	2141,(15, 64),104	2285,(15, 148),76	2365,(20, 64),64	2509,(20, 148),76	2609,(20, 189),32	2661,(18, 66),72	2733,(18, 142),36	2981,(19, 142),8	2989,(17, 168),44	3105,(19, 115),24	3173,(11, 184),64	3353,(1, 43),44	3585,(1, 115),4	3597,(1, 148),8	3813,(1, 174),4	4045,(1, 194),324	4749,(7, 174),992	
133,(0, 5),44	177,(2, 31),28	205,(2, 63),44	249,(3, 31),12	326,(8, 57),28	406,(9, 128),8	450,(6, 63),4	454,(6, 128),20	529,(0, 15),44	657,(14, 34),4	729,(10, 199),32	829,(11, 63),4	833,(4, 34),716	1549,(12, 57),32	1581,(16, 62),64	1681,(11, 128),56	1737,(8, 199),184	2093,(9, 199),396	2489,(16, 63),44	2541,(13, 128),136	2809,(7, 143),180	2989,(19, 63),116	
89,(0, 4),44	218,(5, 52),56	274,(6, 25),56	330,(7, 25),20	354,(8, 108),8	382,(7, 33),16	402,(6, 56),48	450,(9, 36),28	485,(0, 14),44	529,(8, 56),136	689,(13, 36),44	793,(11, 25),4	1217,(12, 33),152	1545,(11, 108),32	1605,(11, 126),76	1681,(15, 80),136	2229,(16, 126),184	3149,(19, 108),156	3305,(1, 25),4	3445,(1, 52),4	
45,(0, 3),44	142,(4, 26),16	178,(4, 49),4	182,(5, 30),20	274,(31, 201),20	314,(8, 26),12	330,(6, 26),16	346,(6, 30),28	374,(6, 41),28	402,(9, 26),4	414,(54, 201),20	441,(0, 13),44	485,(6, 107),28	513,(55, 201),20	533,(44, 201),20	553,(10, 24),72	625,(16, 49),4	629,(122, 201),20	661,(14, 49),4	669,(10, 41),44	713,(15, 49),32	749,(103, 201),20	773,(14, 30),20	809,(11, 49),20	829,(61, 201),20	849,(19, 24),4	853,(17, 30),12	877,(16, 30),8	889,(12, 24),44	933,(12, 26),188	1121,(15, 24),68	1189,(114, 201),20	1209,(18, 26),16	1225,(164, 201),20	1245,(175, 201),20	1265,(99, 201),20	1289,(98, 201),20	1309,(20, 30),40	1361,(163, 201),20	1381,(200, 201),20	1401,(16, 41),48	1449,(153, 201),20	1469,(82, 201),20	1497,(179, 201),20	1517,(111, 201),20	1549,(14, 41),40	1589,(145, 201),20	1609,(171, 201),20	1645,(158, 201),20	1665,(110, 201),20	1685,(150, 201),20	1705,(73, 201),20	1733,(70, 201),20	1753,(56, 201),20	1773,(36, 201),20	1853,(132, 201),20	1873,(112, 201),20	1893,(157, 201),20	1913,(83, 201),20	1941,(23, 201),20	1961,(29, 201),20	1997,(33, 201),20	2017,(165, 201),20	2045,(45, 201),20	2065,(77, 201),20	2097,(34, 201),20	2117,(57, 201),20	2141,(80, 201),20	2161,(116, 201),20	2197,(47, 201),20	2233,(20, 49),132	2365,(62, 201),20	2413,(35, 201),20	2433,(58, 201),20	2453,(126, 201),20	2494,(199, 201),20	2533,(64, 201),20	2641,(67, 201),20	2661,(189, 201),20	2681,(32, 201),20	2701,(128, 201),20	2738,(66, 201),20	2769,(39, 201),20	2789,(19, 107),192	2981,(149, 201),20	3001,(154, 201),20	3033,(187, 201),20	3053,(161, 201),20	3073,(192, 201),20	3093,(90, 201),20	3113,(38, 201),20	3141,(48, 201),20	3161,(68, 201),20	3181,(181, 201),20	3201,(124, 201),20	3221,(95, 201),20	3241,(144, 201),20	3261,(74, 201),20	3281,(97, 201),20	3301,(72, 201),20	3321,(135, 201),20	3349,(96, 201),20	3369,(147, 201),20	3397,(166, 201),20	3417,(125, 201),20	3437,(152, 201),20	3457,(40, 201),20	3477,(136, 201),20	3497,(117, 201),20	3517,(156, 201),20	3537,(146, 201),20	3573,(1, 107),12	3585,(139, 201),20	3605,(143, 201),20	3625,(89, 201),20	3661,(142, 201),20	3681,(168, 201),20	3713,(131, 201),20	3733,(104, 201),20	3753,(121, 201),20	3773,(172, 201),20	3793,(63, 201),20	3813,(137, 201),20	3833,(100, 201),20	3853,(78, 201),20	3873,(101, 201),20	3893,(120, 201),20	3913,(81, 201),20	3933,(186, 201),20	3953,(130, 201),20	3981,(184, 201),20	4017,(155, 201),20	4037,(109, 201),20	4057,(190, 201),20	4077,(108, 201),20	4097,(25, 201),20	4117,(42, 201),20	4137,(69, 201),20	4157,(94, 201),20	4177,(53, 201),20	4197,(43, 201),20	4217,(88, 201),20	4237,(52, 201),20	4257,(141, 201),20	4277,(173, 201),20	4297,(87, 201),20	4317,(60, 201),20	4337,(79, 201),20	4373,(21, 201),20	4393,(28, 201),20	4413,(22, 201),20	4433,(27, 201),20	4453,(134, 201),20	4473,(193, 201),20	4493,(93, 201),20	4513,(123, 201),20	4533,(115, 201),20	4553,(129, 201),20	4573,(133, 201),20	4593,(148, 201),20	4613,(85, 201),20	4633,(183, 201),20	4653,(75, 201),20	4673,(76, 201),20	4693,(118, 201),20	4713,(162, 201),20	4733,(102, 201),20	4753,(185, 201),20	4773,(191, 201),20	4793,(160, 201),20	4813,(194, 201),20	4833,(196, 201),20	4853,(91, 201),20	5318,(50, 201),20	5574,(46, 201),20	5706,(105, 201),20	5738,(198, 201),20	5758,(174, 201),20	5833,(71, 201),20	5853,(65, 201),20	5889,(37, 201),20	5909,(170, 201),20	5929,(188, 201),20	6010,(127, 201),20	6086,(167, 201),20	6190,(178, 201),20	6210,(169, 201),20	6246,(119, 201),20	6422,(180, 201),20	6517,(86, 201),20	6537,(140, 201),20	6557,(182, 201),20	6577,(197, 201),20	6597,(151, 201),20	6617,(177, 201),20	6637,(59, 201),20	6657,(176, 201),20	6790,(195, 201),20	6970,(51, 201),20	7018,(84, 201),20	7106,(92, 201),20	7182,(106, 201),20	7274,(159, 201),20	7326,(113, 201),20	7354,(138, 201),20	
1,(0, 2),44	202,(5, 32),16	397,(0, 12),44	490,(9, 37),16	621,(15, 32),16	661,(13, 32),28	725,(8, 170),12	737,(13, 170),40	797,(11, 29),4	801,(6, 170),60	861,(18, 37),36	905,(19, 29),52	957,(19, 32),112	1845,(15, 170),252	2097,(18, 32),564	2661,(20, 37),200	3309,(1, 37),40	3809,(1, 170),4	
50,(2, 22),12	94,(3, 21),12	106,(3, 22),12	118,(3, 27),16	138,(4, 22),4	158,(4, 27),20	350,(7, 28),32	382,(8, 27),72	454,(8, 28),28	482,(9, 27),8	589,(13, 22),72	661,(16, 27),4	693,(17, 27),36	754,(19, 22),52	1225,(18, 27),84	1517,(10, 134),528	2489,(7, 134),320	
# Outgoing
553,(10, 24),72	629,(10, 64),4	633,(10, 189),4	649,(10, 91),4	657,(10, 40),12	669,(10, 41),44	725,(10, 187),4	729,(10, 199),32	789,(10, 127),4	793,(10, 137),4	813,(10, 156),8	829,(20, 38),4	889,(10, 89),4	893,(10, 150),4	905,(10, 116),212	1117,(10, 158),16	1161,(10, 130),8	1225,(164, 201),20	1245,(175, 201),20	1265,(99, 201),20	1309,(20, 30),40	1349,(20, 73),4	1353,(20, 85),12	1365,(20, 100),4	1369,(20, 135),4	1461,(10, 38),56	1517,(10, 134),528	2045,(45, 201),20	2065,(77, 201),20	2093,(10, 151),28	2121,(10, 152),52	2173,(10, 172),24	2197,(47, 201),20	2229,(20, 40),4	2233,(20, 49),132	2365,(20, 64),64	2429,(20, 104),4	2433,(20, 121),76	2509,(20, 148),76	2585,(20, 177),24	2609,(20, 189),32	2641,(67, 201),20	2661,(20, 37),200	2981,(149, 201),20	3001,(154, 201),20	3149,(20, 197),24	3221,(95, 201),20	3241,(144, 201),20	3281,(97, 201),20	3301,(72, 201),20	3369,(20, 50),8	3377,(20, 94),4	3381,(20, 105),4	3397,(20, 191),28	3525,(20, 193),28	3853,(78, 201),20	3913,(81, 201),20	4057,(190, 201),20	4117,(42, 201),20	4217,(88, 201),20	4513,(123, 201),20	4553,(129, 201),20	4573,(133, 201),20	4673,(76, 201),20	4733,(102, 201),20	4753,(185, 201),20	5701,(20, 198),32	5941,(20, 127),64	6005,(20, 167),76	6081,(20, 178),104	6210,(169, 201),20	6246,(119, 201),20	6422,(180, 201),20	6637,(59, 201),20	6790,(195, 201),20	6970,(51, 201),20	7018,(84, 201),20	7106,(92, 201),20	7182,(106, 201),20	7274,(159, 201),20	7326,(113, 201),20	7354,(138, 201),20	
402,(9, 26),4	406,(9, 128),8	414,(54, 201),20	450,(9, 36),28	482,(9, 27),8	490,(9, 37),16	525,(9, 163),4	549,(9, 43),8	557,(9, 66),8	565,(9, 200),8	617,(9, 153),12	629,(122, 201),20	661,(9, 38),32	754,(19, 22),52	829,(61, 201),20	849,(19, 24),4	853,(9, 58),52	905,(19, 29),52	957,(19, 32),112	1093,(9, 60),52	1145,(9, 89),8	1153,(9, 109),4	1157,(9, 160),4	1161,(9, 77),20	1181,(9, 88),4	1185,(9, 99),20	1205,(9, 106),32	1237,(9, 113),8	1245,(9, 123),4	1249,(9, 138),8	1257,(9, 176),32	1289,(98, 201),20	1329,(19, 39),8	1337,(19, 53),4	1373,(9, 90),88	1461,(9, 102),68	1529,(9, 115),260	1789,(9, 144),20	1809,(9, 169),16	1825,(9, 190),8	1845,(19, 72),4	1849,(19, 88),4	1853,(132, 201),20	1873,(112, 201),20	1893,(157, 201),20	1913,(83, 201),20	1997,(9, 131),96	2093,(9, 199),396	2489,(9, 135),300	2789,(19, 107),192	2981,(19, 142),8	2989,(19, 63),116	3105,(19, 115),24	3141,(19, 65),4	3145,(19, 86),4	3149,(19, 108),156	3305,(19, 140),12	3317,(19, 182),8	3325,(19, 197),8	3345,(19, 180),4	3349,(96, 201),20	3369,(147, 201),20	3437,(152, 201),20	3457,(40, 201),20	3597,(9, 76),188	3813,(137, 201),20	3873,(101, 201),20	4045,(19, 160),84	4137,(69, 201),20	4157,(94, 201),20	4257,(141, 201),20	4277,(173, 201),20	4297,(87, 201),20	4337,(79, 201),20	4473,(193, 201),20	4633,(183, 201),20	4653,(75, 201),20	4693,(118, 201),20	4713,(162, 201),20	4853,(91, 201),20	5318,(50, 201),20	5574,(46, 201),20	5706,(105, 201),20	5738,(198, 201),20	5929,(188, 201),20	6010,(127, 201),20	6086,(167, 201),20	6190,(178, 201),20	
314,(8, 26),12	326,(8, 57),28	354,(8, 108),8	373,(8, 146),4	382,(8, 27),72	454,(8, 28),28	482,(8, 64),16	501,(8, 75),4	505,(8, 87),4	509,(8, 116),4	513,(8, 163),12	529,(8, 56),136	665,(8, 115),24	693,(8, 78),4	697,(8, 105),8	705,(8, 121),20	725,(8, 170),12	741,(8, 76),8	749,(103, 201),20	773,(8, 172),40	817,(8, 81),32	849,(8, 92),8	857,(8, 123),4	861,(18, 37),36	925,(8, 97),12	937,(8, 99),176	1113,(8, 149),4	1117,(8, 159),44	1189,(114, 201),20	1209,(18, 26),16	1225,(18, 27),84	1361,(8, 192),12	1409,(8, 162),44	1501,(18, 35),12	1513,(18, 115),8	1569,(18, 166),4	1589,(145, 201),20	1609,(171, 201),20	1685,(150, 201),20	1705,(73, 201),20	1737,(8, 199),184	2017,(165, 201),20	2097,(18, 32),564	2661,(18, 66),72	2733,(18, 142),36	2769,(39, 201),20	3005,(18, 71),48	3053,(18, 86),20	3073,(18, 140),32	3105,(18, 182),36	3141,(48, 201),20	3161,(68, 201),20	3181,(181, 201),20	3201,(124, 201),20	3225,(18, 81),12	3237,(18, 119),4	3261,(74, 201),20	3321,(135, 201),20	3365,(18, 69),4	3477,(18, 87),32	3585,(139, 201),20	3625,(89, 201),20	3713,(18, 75),44	3757,(18, 118),32	3833,(100, 201),20	3893,(120, 201),20	3933,(186, 201),20	3953,(130, 201),20	3997,(18, 59),20	4017,(155, 201),20	4037,(109, 201),20	4177,(53, 201),20	4317,(60, 201),20	4493,(93, 201),20	4613,(85, 201),20	4773,(191, 201),20	4793,(160, 201),20	4833,(196, 201),20	5569,(18, 105),132	5833,(18, 167),108	6657,(176, 201),20	7269,(18, 113),52	7321,(18, 138),28	
330,(7, 25),20	350,(7, 28),32	382,(7, 33),16	398,(7, 35),52	450,(7, 66),4	454,(7, 184),4	458,(7, 189),24	513,(55, 201),20	533,(44, 201),20	621,(7, 61),28	649,(7, 68),4	653,(7, 109),4	657,(7, 124),4	689,(7, 77),4	693,(17, 27),36	729,(7, 175),12	797,(7, 135),24	821,(7, 145),4	825,(7, 155),4	829,(7, 165),8	837,(7, 181),16	853,(17, 30),12	877,(7, 84),48	1041,(7, 160),52	1209,(7, 87),16	1225,(7, 132),160	1385,(7, 157),24	1469,(82, 201),20	1497,(17, 46),4	1517,(111, 201),20	1545,(17, 84),8	1553,(17, 88),16	1569,(17, 123),4	1573,(17, 149),4	1577,(17, 48),4	1581,(17, 68),4	1585,(17, 155),4	1605,(7, 74),216	1821,(7, 85),668	2489,(7, 134),320	2809,(7, 143),180	2989,(17, 168),44	3033,(187, 201),20	3053,(161, 201),20	3073,(192, 201),20	3093,(90, 201),20	3113,(38, 201),20	3213,(17, 195),12	3233,(17, 69),8	3241,(17, 75),8	3249,(17, 127),116	3369,(17, 53),28	3397,(166, 201),20	3417,(125, 201),20	3441,(17, 141),16	3457,(17, 173),20	3477,(136, 201),20	3497,(117, 201),20	3517,(156, 201),20	3537,(146, 201),20	3573,(17, 183),140	3713,(131, 201),20	3733,(104, 201),20	3753,(121, 201),20	3773,(172, 201),20	3809,(7, 91),940	4749,(7, 174),992	5741,(17, 188),92	5833,(71, 201),20	5853,(65, 201),20	5889,(7, 169),304	6193,(7, 176),324	6517,(86, 201),20	6537,(140, 201),20	6557,(182, 201),20	6577,(197, 201),20	6597,(151, 201),20	6617,(177, 201),20	7065,(17, 92),36	7101,(17, 106),76	7177,(17, 159),92	
274,(6, 25),56	330,(6, 26),16	346,(6, 30),28	374,(6, 41),28	402,(6, 56),48	450,(6, 63),4	454,(6, 128),20	477,(6, 117),4	485,(6, 107),28	513,(6, 162),4	517,(6, 173),4	529,(6, 65),68	625,(16, 49),4	653,(6, 67),4	661,(16, 27),4	685,(6, 149),4	705,(6, 89),12	717,(6, 135),24	741,(6, 150),56	801,(6, 170),60	861,(6, 195),16	877,(16, 30),8	897,(6, 69),52	949,(6, 75),140	1089,(6, 141),120	1217,(6, 156),144	1361,(163, 201),20	1381,(200, 201),20	1401,(16, 41),48	1449,(153, 201),20	1485,(16, 157),12	1497,(179, 201),20	1529,(16, 65),8	1537,(16, 71),32	1569,(16, 39),4	1573,(16, 60),4	1577,(16, 131),4	1581,(16, 62),64	1645,(158, 201),20	1665,(110, 201),20	1701,(16, 104),16	1717,(16, 125),12	1729,(16, 136),4	1733,(70, 201),20	1761,(16, 95),16	1777,(16, 123),4	1781,(16, 169),4	1785,(16, 190),4	1845,(6, 193),260	2105,(16, 178),16	2161,(116, 201),20	2209,(16, 118),20	2229,(16, 126),184	2413,(35, 201),20	2433,(58, 201),20	2489,(16, 63),44	2533,(64, 201),20	2661,(189, 201),20	2738,(66, 201),20	2825,(16, 86),180	3085,(16, 89),12	3097,(16, 100),12	3185,(16, 101),48	3273,(16, 109),8	3417,(16, 133),16	3553,(16, 85),108	3661,(142, 201),20	3681,(168, 201),20	3841,(16, 160),140	3981,(184, 201),20	4197,(43, 201),20	4533,(115, 201),20	4593,(148, 201),20	4813,(194, 201),20	5313,(16, 46),256	5758,(174, 201),20	6785,(16, 51),180	6965,(16, 84),48	7013,(16, 92),52	
182,(5, 30),20	202,(5, 32),16	218,(5, 52),56	274,(31, 201),20	337,(5, 65),4	341,(5, 82),8	349,(5, 117),20	369,(5, 177),4	389,(5, 116),4	417,(5, 193),8	445,(5, 146),32	525,(5, 45),4	529,(5, 113),8	537,(5, 133),4	541,(5, 138),4	545,(5, 74),4	589,(5, 149),4	593,(5, 159),20	613,(5, 164),4	617,(5, 85),4	621,(15, 32),16	637,(5, 103),8	645,(5, 114),4	713,(15, 49),32	749,(5, 127),40	809,(5, 40),88	897,(5, 196),144	1121,(15, 24),68	1245,(15, 60),4	1249,(15, 150),4	1289,(15, 68),20	1309,(15, 85),20	1433,(15, 47),8	1441,(15, 67),20	1481,(15, 162),4	1521,(15, 104),8	1545,(15, 69),100	1681,(15, 80),136	1833,(15, 97),4	1837,(15, 102),8	1845,(15, 170),252	2097,(34, 201),20	2117,(57, 201),20	2141,(15, 64),104	2245,(15, 131),40	2285,(15, 148),76	2365,(62, 201),20	2494,(199, 201),20	2701,(128, 201),20	3113,(15, 137),32	3145,(15, 173),40	3549,(15, 123),32	3605,(143, 201),20	3793,(63, 201),20	4749,(15, 50),564	6417,(15, 59),84	6501,(15, 195),284	
138,(4, 22),4	142,(4, 26),16	158,(4, 27),20	178,(4, 49),4	285,(4, 44),28	313,(4, 82),4	317,(4, 86),4	321,(4, 104),8	329,(4, 111),4	333,(4, 117),4	341,(4, 43),20	361,(4, 116),28	397,(4, 46),12	409,(4, 75),4	413,(4, 122),4	417,(4, 136),28	445,(4, 85),12	457,(4, 141),4	461,(4, 162),4	465,(4, 173),12	481,(4, 76),44	525,(4, 91),56	581,(4, 97),8	589,(4, 93),28	617,(4, 113),4	621,(4, 145),4	625,(4, 150),4	629,(4, 160),8	637,(4, 179),20	657,(14, 34),4	661,(14, 49),4	669,(4, 129),16	689,(14, 194),4	693,(14, 65),12	705,(4, 138),24	729,(4, 172),44	773,(14, 30),20	793,(4, 185),24	821,(14, 161),8	833,(4, 34),716	1549,(14, 41),40	1589,(14, 181),4	1593,(4, 88),132	1725,(14, 113),4	1729,(14, 129),16	1745,(14, 144),4	1749,(14, 154),4	1753,(56, 201),20	1773,(36, 201),20	1797,(4, 178),48	1853,(4, 156),144	1997,(33, 201),20	2113,(14, 58),28	2141,(80, 201),20	2173,(14, 105),36	2453,(126, 201),20	2541,(14, 87),572	3113,(14, 93),76	3189,(14, 100),8	3197,(14, 120),40	3241,(14, 130),20	3261,(14, 155),12	3305,(14, 191),64	4077,(108, 201),20	4097,(25, 201),20	4237,(52, 201),20	6193,(14, 119),48	6241,(14, 180),176	
94,(3, 21),12	106,(3, 22),12	118,(3, 27),16	221,(3, 43),12	249,(3, 31),12	269,(3, 55),16	293,(3, 58),48	353,(3, 100),4	357,(3, 114),28	385,(3, 120),60	445,(3, 141),4	457,(3, 47),8	465,(3, 51),16	481,(3, 152),20	501,(3, 172),28	529,(3, 174),20	549,(3, 196),40	589,(13, 22),72	661,(13, 32),28	689,(13, 36),44	737,(13, 170),40	797,(13, 75),4	1161,(13, 43),20	1181,(13, 53),4	1185,(13, 74),52	1237,(13, 89),4	1241,(13, 191),4	1257,(13, 45),4	1261,(13, 76),4	1265,(13, 78),4	1269,(13, 115),112	1381,(13, 174),4	1385,(13, 77),8	1393,(13, 149),16	1409,(13, 154),24	1453,(13, 50),20	1473,(13, 94),4	1477,(13, 112),4	1513,(13, 165),56	1645,(13, 166),56	1941,(13, 35),172	2357,(13, 40),184	2541,(13, 128),136	2677,(13, 172),148	2849,(13, 139),116	2965,(13, 160),120	3785,(13, 51),124	3909,(13, 102),88	
50,(2, 22),12	177,(2, 31),28	205,(2, 63),44	249,(2, 194),4	265,(2, 55),4	269,(2, 70),24	309,(2, 53),28	337,(2, 145),4	341,(2, 160),12	353,(2, 40),16	369,(2, 75),4	373,(2, 83),20	393,(2, 118),4	397,(2, 47),60	457,(2, 48),88	545,(2, 77),8	553,(2, 78),16	569,(2, 95),12	581,(2, 98),40	621,(2, 99),8	629,(2, 106),24	653,(2, 132),4	657,(2, 133),12	669,(2, 137),28	697,(2, 164),8	705,(2, 174),148	853,(2, 181),36	889,(12, 24),44	933,(12, 26),188	1133,(12, 110),8	1141,(12, 174),20	1169,(12, 39),4	1173,(12, 171),4	1177,(2, 192),40	1217,(12, 33),152	1381,(12, 47),4	1385,(12, 58),116	1501,(12, 83),12	1517,(12, 65),4	1529,(12, 72),4	1533,(12, 190),8	1541,(12, 96),4	1549,(12, 57),32	1581,(12, 86),64	1645,(12, 87),32	1677,(12, 101),36	1713,(12, 137),8	1721,(12, 173),28	1753,(12, 117),48	1805,(12, 116),120	1925,(12, 194),16	1941,(23, 201),20	1961,(29, 201),20	2121,(12, 121),28	2197,(12, 146),40	2237,(12, 152),120	2357,(12, 197),32	2681,(32, 201),20	2789,(12, 100),36	2825,(12, 120),24	3173,(12, 78),40	3297,(12, 92),48	3353,(12, 88),64	3445,(12, 129),80	4041,(2, 59),1848	5889,(37, 201),20	5909,(170, 201),20	
1,(0, 2),44	45,(0, 3),44	89,(0, 4),44	133,(0, 5),44	177,(0, 6),44	221,(0, 7),44	265,(0, 8),44	309,(0, 9),44	353,(0, 10),44	397,(0, 12),44	441,(0, 13),44	485,(0, 14),44	529,(0, 15),44	573,(0, 16),44	617,(0, 17),44	661,(0, 18),44	705,(0, 19),44	749,(0, 20),44	793,(11, 25),4	797,(11, 29),4	801,(11, 40),8	809,(11, 49),20	829,(11, 63),4	833,(11, 65),344	1177,(11, 68),4	1181,(11, 70),88	1269,(11, 77),104	1373,(11, 84),8	1381,(11, 89),132	1513,(11, 94),20	1533,(11, 96),8	1541,(11, 102),4	1545,(11, 108),32	1577,(11, 113),12	1589,(11, 119),4	1593,(11, 124),12	1605,(11, 126),76	1681,(11, 128),56	1737,(11, 131),16	1753,(11, 138),8	1761,(11, 147),36	1797,(11, 148),8	1805,(11, 156),48	1853,(11, 180),1320	3173,(11, 184),64	3237,(11, 186),4	3241,(11, 190),56	3297,(11, 191),4	3301,(11, 196),4	3305,(1, 25),4	3309,(1, 37),40	3349,(1, 42),4	3353,(1, 43),44	3397,(1, 50),44	3441,(1, 51),4	3445,(1, 52),4	3449,(1, 60),68	3517,(1, 79),8	3525,(1, 84),24	3549,(1, 93),4	3553,(1, 105),20	3573,(1, 107),12	3585,(1, 115),4	3589,(1, 129),4	3593,(1, 133),4	3597,(1, 148),8	3605,(1, 151),184	3789,(1, 160),8	3797,(1, 162),12	3809,(1, 170),4	3813,(1, 174),4	3817,(1, 176),24	3841,(1, 177),196	4037,(1, 185),4	4041,(1, 191),4	4045,(1, 194),324	4369,(1, 196),4	4373,(21, 201),20	4393,(28, 201),20	4413,(22, 201),20	4433,(27, 201),20	4453,(134, 201),20	
