618
# CPU
365,12,8	
393,11,8	
597,20,8	605,10,8	
493,19,8	505,9,8	
297,8,8	373,18,8	
293,7,8	473,17,8	
329,6,8	369,16,8	
277,5,8	405,15,8	
213,2,8	221,4,8	397,14,8	
0,0,1	1,1,8	9,13,8	285,3,8	617,21,1	
# Incoming
329,(2, 12),36	
297,(1, 11),96	
493,(1, 20),104	597,(2, 10),4	
473,(1, 19),20	493,(2, 9),12	
293,(1, 8),4	369,(2, 18),4	
277,(1, 7),16	405,(1, 17),68	
285,(2, 6),44	365,(2, 16),4	
213,(1, 5),64	397,(1, 15),8	
1,(0, 2),212	393,(1, 14),4	
221,(2, 3),64	285,(5, 21),4	301,(7, 21),4	305,(8, 21),4	337,(6, 21),4	373,(4, 21),4	377,(12, 21),4	381,(16, 21),4	385,(18, 21),4	401,(11, 21),4	405,(14, 21),4	413,(15, 21),4	481,(17, 21),4	501,(19, 21),4	513,(9, 21),4	605,(20, 21),4	613,(10, 21),4	
# Outgoing
377,(12, 21),4	
401,(11, 21),4	
605,(20, 21),4	613,(10, 21),4	
501,(19, 21),4	513,(9, 21),4	
305,(8, 21),4	385,(18, 21),4	
301,(7, 21),4	481,(17, 21),4	
337,(6, 21),4	381,(16, 21),4	
285,(5, 21),4	413,(15, 21),4	
221,(2, 3),64	285,(2, 6),44	329,(2, 12),36	365,(2, 16),4	369,(2, 18),4	373,(4, 21),4	405,(14, 21),4	493,(2, 9),12	597,(2, 10),4	
1,(0, 2),212	213,(1, 5),64	277,(1, 7),16	293,(1, 8),4	297,(1, 11),96	393,(1, 14),4	397,(1, 15),8	405,(1, 17),68	473,(1, 19),20	493,(1, 20),104	
