579
# CPU
3,1,15	18,13,15	33,17,15	48,19,15	63,14,15	78,18,15	336,6,15	394,8,15	412,11,15	440,16,15	
156,3,15	404,5,15	430,7,15	506,20,15	578,21,1	
0,0,1	1,2,15	16,10,15	31,15,15	
168,4,15	404,9,15	438,12,15	
# Incoming
1,(0, 1),2	334,(2, 6),2	388,(2, 8),6	404,(2, 11),8	438,(2, 16),2	
16,(2, 3),136	152,(1, 3),4	156,(1, 20),2	158,(13, 21),6	168,(2, 5),166	336,(2, 7),52	388,(1, 5),16	404,(1, 7),26	430,(17, 21),6	440,(2, 20),66	506,(10, 21),6	512,(15, 21),6	518,(19, 21),6	524,(14, 21),6	530,(18, 21),6	536,(4, 21),6	542,(6, 21),6	548,(8, 21),6	554,(9, 21),6	560,(11, 21),6	566,(12, 21),6	572,(16, 21),6	

152,(2, 4),16	168,(1, 12),2	394,(2, 9),10	412,(2, 12),26	
# Outgoing
152,(1, 3),4	156,(1, 20),2	158,(13, 21),6	168,(1, 12),2	388,(1, 5),16	404,(1, 7),26	430,(17, 21),6	518,(19, 21),6	524,(14, 21),6	530,(18, 21),6	542,(6, 21),6	548,(8, 21),6	560,(11, 21),6	572,(16, 21),6	

1,(0, 1),2	16,(2, 3),136	152,(2, 4),16	168,(2, 5),166	334,(2, 6),2	336,(2, 7),52	388,(2, 8),6	394,(2, 9),10	404,(2, 11),8	412,(2, 12),26	438,(2, 16),2	440,(2, 20),66	506,(10, 21),6	512,(15, 21),6	
536,(4, 21),6	554,(9, 21),6	566,(12, 21),6	
