385
# CPU
0,0,1	1,2,76	77,12,76	153,14,76	229,6,76	305,8,76	384,21,1	
39,1,76	115,10,76	191,18,76	267,9,76	
78,4,76	154,15,76	230,3,76	306,5,76	
79,16,76	155,11,76	231,13,76	307,19,76	
80,20,76	156,17,76	232,7,76	
# Incoming
154,(4, 21),1	155,(16, 21),1	156,(20, 21),1	191,(10, 21),1	230,(15, 21),1	231,(11, 21),1	232,(17, 21),1	267,(18, 21),1	306,(3, 21),1	307,(13, 21),1	308,(7, 21),1	343,(9, 21),1	382,(5, 21),1	383,(19, 21),1	
1,(0, 1),38	
77,(2, 4),1	80,(2, 15),2	192,(1, 3),4	207,(1, 5),16	
78,(2, 16),1	82,(2, 11),3	94,(2, 19),17	196,(1, 13),4	223,(1, 19),5	
79,(2, 20),1	85,(2, 17),9	200,(1, 7),7	
# Outgoing
1,(0, 1),38	77,(2, 4),1	78,(2, 16),1	79,(2, 20),1	80,(2, 15),2	82,(2, 11),3	85,(2, 17),9	94,(2, 19),17	
191,(10, 21),1	192,(1, 3),4	196,(1, 13),4	200,(1, 7),7	207,(1, 5),16	223,(1, 19),5	267,(18, 21),1	343,(9, 21),1	
154,(4, 21),1	230,(15, 21),1	306,(3, 21),1	382,(5, 21),1	
155,(16, 21),1	231,(11, 21),1	307,(13, 21),1	383,(19, 21),1	
156,(20, 21),1	232,(17, 21),1	308,(7, 21),1	
