686
# CPU
0,121,1	1,120,2	3,99,2	5,36,2	7,110,2	9,94,2	11,15,2	13,105,2	15,47,2	17,77,2	19,48,2	21,93,2	23,113,2	25,81,2	27,69,2	29,51,2	31,57,2	33,52,2	35,67,2	37,61,2	39,49,2	41,38,2	43,97,2	45,101,2	47,60,2	49,79,2	51,68,2	53,78,2	55,76,2	57,116,2	59,88,2	61,26,2	63,41,2	65,29,2	67,82,2	69,118,2	71,75,2	73,106,2	75,16,2	77,84,2	79,33,2	81,107,2	83,53,2	85,74,2	87,104,2	89,100,2	91,39,2	93,50,2	95,80,2	97,54,2	99,73,2	101,13,2	103,40,2	105,72,2	107,24,2	109,35,2	111,32,2	113,14,2	115,112,2	117,62,2	119,92,2	121,95,2	123,17,2	125,117,2	127,59,2	129,18,2	131,44,2	133,85,2	135,111,2	137,103,2	139,98,2	141,58,2	143,91,2	145,42,2	147,64,2	149,70,2	151,45,2	153,119,2	155,37,2	157,30,2	159,21,2	161,83,2	163,87,2	165,1,2	167,11,2	169,5,2	184,8,2	210,4,2	243,12,2	277,7,2	315,3,2	407,6,2	523,10,2	685,0,1	
13,109,2	31,23,2	49,66,2	55,28,2	61,34,2	97,56,2	115,55,2	127,114,2	139,65,2	157,71,2	369,2,2	682,9,2	
7,108,2	37,90,2	151,20,2	
19,86,2	25,25,2	43,89,2	67,115,2	73,46,2	79,19,2	85,43,2	91,63,2	103,22,2	109,27,2	121,31,2	133,102,2	145,96,2	
# Incoming
135,(102, 1),1	136,(28, 11),6	142,(56, 11),1	143,(65, 11),1	144,(66, 5),5	149,(22, 5),2	151,(43, 8),1	152,(31, 8),1	153,(20, 1),5	158,(19, 5),10	168,(34, 8),6	174,(20, 8),10	184,(86, 4),2	186,(89, 4),5	191,(66, 4),1	192,(34, 4),1	193,(27, 4),1	194,(31, 4),16	210,(28, 12),3	213,(63, 12),12	225,(27, 12),16	241,(114, 12),1	242,(71, 12),1	243,(108, 7),1	244,(34, 7),3	247,(115, 7),1	248,(22, 7),1	249,(20, 7),23	272,(71, 7),5	277,(25, 3),2	279,(19, 3),10	289,(56, 3),12	301,(22, 3),14	315,(23, 6),3	318,(90, 6),3	321,(55, 6),4	325,(20, 6),82	407,(46, 10),8	415,(63, 10),12	427,(55, 10),19	446,(31, 10),3	449,(102, 10),33	482,(65, 10),41	523,(2, 0),1	684,(9, 0),1	
7,(121, 109),6	25,(121, 23),6	43,(121, 66),6	49,(121, 28),6	55,(121, 34),6	91,(121, 56),6	109,(121, 55),6	121,(121, 114),6	133,(121, 65),6	139,(19, 2),1	140,(102, 2),1	141,(115, 9),6	151,(121, 71),6	157,(110, 2),1	158,(61, 2),3	161,(49, 2),2	163,(97, 2),5	168,(26, 2),1	169,(107, 2),2	171,(74, 2),10	181,(54, 2),7	188,(32, 2),7	195,(112, 2),3	198,(95, 2),3	201,(117, 2),13	214,(111, 2),34	248,(120, 9),1	249,(31, 2),21	270,(58, 2),42	312,(91, 2),57	369,(94, 9),1	370,(67, 9),1	371,(78, 9),6	377,(116, 9),6	383,(46, 9),5	388,(16, 9),1	389,(33, 9),9	398,(39, 9),1	399,(50, 9),1	400,(73, 9),1	401,(13, 9),2	403,(22, 9),4	407,(90, 9),4	411,(53, 9),10	421,(72, 9),1	422,(14, 9),4	426,(70, 9),1	427,(43, 9),10	437,(100, 9),10	447,(80, 9),12	459,(35, 9),16	475,(92, 9),20	495,(17, 9),2	497,(18, 9),31	528,(85, 9),12	540,(111, 9),16	556,(103, 9),38	594,(96, 9),63	657,(21, 9),25	
1,(121, 108),6	31,(121, 90),6	145,(121, 20),6	
13,(121, 86),6	19,(121, 25),6	37,(121, 89),6	61,(121, 115),6	67,(121, 46),6	73,(121, 19),6	79,(121, 43),6	85,(121, 63),6	97,(121, 22),6	103,(121, 27),6	115,(121, 31),6	127,(121, 102),6	139,(121, 96),6	
# Outgoing
1,(121, 108),6	7,(121, 109),6	13,(121, 86),6	19,(121, 25),6	25,(121, 23),6	31,(121, 90),6	37,(121, 89),6	43,(121, 66),6	49,(121, 28),6	55,(121, 34),6	61,(121, 115),6	67,(121, 46),6	73,(121, 19),6	79,(121, 43),6	85,(121, 63),6	91,(121, 56),6	97,(121, 22),6	103,(121, 27),6	109,(121, 55),6	115,(121, 31),6	121,(121, 114),6	127,(121, 102),6	133,(121, 65),6	139,(121, 96),6	145,(121, 20),6	151,(121, 71),6	157,(110, 2),1	158,(61, 2),3	161,(49, 2),2	163,(97, 2),5	168,(26, 2),1	169,(107, 2),2	171,(74, 2),10	181,(54, 2),7	188,(32, 2),7	195,(112, 2),3	198,(95, 2),3	201,(117, 2),13	214,(111, 2),34	248,(120, 9),1	270,(58, 2),42	312,(91, 2),57	369,(94, 9),1	370,(67, 9),1	371,(78, 9),6	377,(116, 9),6	388,(16, 9),1	389,(33, 9),9	398,(39, 9),1	399,(50, 9),1	400,(73, 9),1	401,(13, 9),2	411,(53, 9),10	421,(72, 9),1	422,(14, 9),4	426,(70, 9),1	437,(100, 9),10	447,(80, 9),12	459,(35, 9),16	475,(92, 9),20	495,(17, 9),2	497,(18, 9),31	528,(85, 9),12	540,(111, 9),16	556,(103, 9),38	657,(21, 9),25	
136,(28, 11),6	142,(56, 11),1	143,(65, 11),1	144,(66, 5),5	168,(34, 8),6	191,(66, 4),1	192,(34, 4),1	210,(28, 12),3	241,(114, 12),1	242,(71, 12),1	244,(34, 7),3	272,(71, 7),5	289,(56, 3),12	315,(23, 6),3	321,(55, 6),4	427,(55, 10),19	482,(65, 10),41	523,(2, 0),1	684,(9, 0),1	
153,(20, 1),5	174,(20, 8),10	243,(108, 7),1	249,(20, 7),23	318,(90, 6),3	325,(20, 6),82	407,(90, 9),4	
135,(102, 1),1	139,(19, 2),1	140,(102, 2),1	141,(115, 9),6	149,(22, 5),2	151,(43, 8),1	152,(31, 8),1	158,(19, 5),10	184,(86, 4),2	186,(89, 4),5	193,(27, 4),1	194,(31, 4),16	213,(63, 12),12	225,(27, 12),16	247,(115, 7),1	248,(22, 7),1	249,(31, 2),21	277,(25, 3),2	279,(19, 3),10	301,(22, 3),14	383,(46, 9),5	403,(22, 9),4	407,(46, 10),8	415,(63, 10),12	427,(43, 9),10	446,(31, 10),3	449,(102, 10),33	594,(96, 9),63	
