642
# CPU
0,41,1	1,40,16	17,39,16	33,7,16	49,9,16	65,37,16	81,23,16	97,34,16	113,33,16	129,31,16	145,29,16	161,19,16	177,15,16	193,6,16	209,8,16	225,32,16	241,14,16	257,28,16	273,27,16	289,20,16	305,24,16	321,13,16	337,25,16	353,30,16	369,18,16	385,38,16	401,5,16	417,10,16	433,26,16	449,12,16	465,3,16	481,36,16	497,22,16	513,16,16	529,11,16	545,17,16	561,2,16	577,21,16	593,4,16	609,35,16	625,1,16	641,0,1	
# Incoming

# Outgoing

