13646
# CPU
325,10,20	345,190,20	365,170,20	422,90,20	442,130,20	469,70,20	554,180,20	574,40,20	607,140,20	649,20,20	669,80,20	689,110,20	709,30,20	729,160,20	749,60,20	769,50,20	789,200,20	809,100,20	829,120,20	849,150,20	
289,9,20	309,29,20	329,69,20	349,39,20	369,99,20	389,89,20	409,59,20	429,129,20	524,179,20	551,189,20	613,19,20	633,159,20	653,109,20	673,169,20	693,49,20	713,199,20	733,79,20	818,149,20	838,119,20	858,139,20	
253,8,20	273,38,20	293,148,20	401,28,20	428,158,20	469,198,20	491,78,20	511,98,20	531,108,20	551,138,20	571,168,20	591,18,20	611,48,20	689,118,20	709,58,20	729,188,20	749,128,20	769,178,20	789,68,20	902,88,20	
217,7,20	271,127,20	314,107,20	378,97,20	428,137,20	541,17,20	561,157,20	617,57,20	637,177,20	664,37,20	684,27,20	704,47,20	724,167,20	744,77,20	764,197,20	784,187,20	804,87,20	13455,147,20	13551,117,20	13624,67,20	
181,6,20	282,116,20	420,146,20	440,126,20	505,16,20	525,156,20	545,106,20	565,56,20	597,186,20	617,46,20	642,166,20	670,26,20	690,136,20	710,96,20	730,196,20	750,76,20	770,36,20	790,66,20	810,86,20	833,176,20	
145,5,20	268,145,20	288,135,20	469,15,20	489,65,20	509,155,20	529,85,20	549,95,20	594,125,20	614,35,20	634,195,20	654,55,20	702,105,20	752,175,20	775,75,20	817,25,20	837,165,20	1192,185,20	1452,45,20	1553,115,20	
109,4,20	129,174,20	261,94,20	433,14,20	455,104,20	482,74,20	502,54,20	522,134,20	594,184,20	620,84,20	640,24,20	695,34,20	715,124,20	735,64,20	755,144,20	775,44,20	822,114,20	842,194,20	1229,164,20	1376,154,20	
73,3,20	93,183,20	266,113,20	286,123,20	306,143,20	397,13,20	417,163,20	437,173,20	457,103,20	477,73,20	500,153,20	543,83,20	563,93,20	611,193,20	681,43,20	701,33,20	721,53,20	741,63,20	761,23,20	845,133,20	
37,2,20	273,142,20	361,12,20	458,82,20	496,182,20	521,152,20	557,32,20	601,22,20	621,62,20	641,122,20	661,132,20	681,172,20	701,192,20	721,92,20	741,162,20	761,42,20	781,72,20	801,102,20	821,52,20	841,112,20	
0,0,1	1,1,20	21,11,20	41,121,20	291,51,20	311,61,20	380,91,20	481,101,20	501,171,20	521,31,20	541,21,20	561,131,20	581,151,20	647,71,20	667,191,20	687,141,20	707,161,20	741,81,20	761,181,20	857,41,20	1091,111,20	13645,201,1	
# Incoming
289,(0, 10),36	325,(2, 30),7	332,(3, 70),14	346,(6, 100),2	348,(6, 170),7	401,(12, 50),8	417,(13, 90),5	422,(13, 130),5	461,(14, 70),8	476,(14, 200),1	490,(15, 50),7	524,(8, 180),30	557,(9, 40),1	605,(17, 140),2	613,(0, 20),36	649,(16, 80),14	663,(18, 110),1	671,(18, 160),12	683,(1, 60),1	695,(19, 50),1	770,(19, 200),1	791,(11, 100),1	823,(11, 120),3	826,(11, 150),1	
253,(0, 9),36	289,(2, 29),1	290,(3, 69),1	291,(4, 39),3	300,(2, 99),1	302,(4, 89),9	314,(2, 119),7	334,(5, 59),27	383,(5, 79),24	416,(12, 129),2	418,(12, 159),1	448,(10, 149),4	472,(14, 149),4	509,(8, 49),5	523,(8, 179),1	531,(12, 189),20	577,(0, 19),36	613,(17, 159),3	622,(16, 109),5	627,(16, 169),1	685,(1, 79),1	686,(15, 149),132	822,(11, 119),1	823,(20, 139),17	
217,(0, 8),36	253,(3, 38),3	256,(4, 28),1	257,(6, 38),1	268,(3, 148),9	380,(2, 138),6	399,(12, 28),2	409,(12, 88),7	423,(5, 158),5	444,(7, 78),12	459,(7, 188),8	467,(7, 198),2	469,(10, 78),22	491,(12, 98),10	501,(13, 168),5	506,(14, 108),9	515,(14, 118),1	516,(14, 138),11	527,(14, 168),2	541,(0, 18),36	617,(9, 118),72	689,(20, 68),2	696,(19, 58),1	697,(19, 188),1	704,(1, 128),6	710,(1, 178),1	711,(17, 68),77	857,(19, 88),45	
181,(0, 7),36	270,(6, 127),1	273,(6, 177),11	301,(2, 107),13	330,(5, 37),4	374,(5, 97),4	386,(2, 177),8	420,(5, 147),3	427,(13, 137),1	452,(10, 187),1	453,(12, 177),28	481,(14, 37),12	505,(0, 17),36	541,(6, 87),67	608,(9, 57),9	617,(14, 177),8	625,(15, 37),39	664,(16, 47),6	670,(18, 27),1	674,(20, 197),4	680,(1, 47),3	689,(9, 167),1	690,(16, 77),19	717,(1, 197),7	752,(20, 187),24	777,(11, 87),14	791,(6, 117),12589	13380,(9, 147),75	13455,(15, 117),96	13551,(18, 67),73	
145,(0, 6),36	266,(4, 116),16	407,(5, 126),6	419,(5, 146),1	422,(12, 176),3	425,(12, 186),8	433,(13, 126),1	434,(13, 156),7	442,(12, 196),1	444,(10, 86),4	469,(0, 16),36	505,(15, 186),4	521,(8, 156),2	558,(9, 56),7	594,(9, 136),1	595,(9, 186),2	607,(17, 176),3	612,(18, 46),1	639,(18, 166),3	649,(1, 26),4	669,(20, 26),1	673,(20, 136),1	684,(1, 76),1	686,(1, 96),1	711,(1, 196),6	717,(20, 76),28	746,(11, 36),4	750,(19, 66),20	775,(11, 86),2	777,(20, 86),26	803,(20, 176),14	832,(11, 176),1	
109,(0, 5),36	258,(3, 145),10	271,(6, 135),1	277,(3, 165),4	281,(3, 185),1	291,(2, 55),5	428,(13, 155),2	433,(0, 15),36	469,(7, 65),8	493,(14, 155),5	514,(8, 85),2	525,(16, 95),2	527,(16, 105),7	575,(9, 125),19	601,(17, 35),1	608,(16, 45),14	623,(17, 195),2	625,(18, 55),8	633,(18, 165),6	642,(18, 185),5	687,(1, 105),15	745,(20, 175),7	755,(11, 75),20	775,(19, 25),42	827,(11, 165),5	832,(7, 185),360	1192,(13, 45),260	1452,(13, 115),101	
73,(0, 4),36	256,(3, 114),2	258,(6, 64),1	259,(6, 94),2	378,(5, 134),2	397,(0, 14),36	433,(2, 194),9	442,(5, 154),11	454,(13, 104),1	458,(7, 124),1	459,(13, 74),23	489,(15, 24),1	497,(15, 54),1	506,(13, 184),9	517,(8, 134),2	554,(8, 184),40	594,(15, 84),26	620,(17, 24),1	621,(17, 164),2	694,(19, 34),1	702,(1, 124),2	721,(19, 64),4	745,(19, 144),3	750,(11, 44),3	801,(11, 114),21	833,(11, 194),5	838,(12, 164),391	1229,(15, 154),147	
37,(0, 3),36	257,(4, 63),8	265,(4, 113),1	268,(6, 123),2	282,(4, 143),2	284,(6, 153),12	361,(0, 13),36	413,(5, 133),6	419,(12, 103),3	443,(7, 73),1	456,(14, 63),5	499,(15, 153),1	513,(15, 83),30	543,(15, 93),16	610,(17, 193),1	653,(1, 43),27	680,(20, 43),1	692,(19, 33),2	699,(19, 53),14	713,(19, 63),8	724,(11, 23),22	746,(18, 133),99	
1,(0, 2),36	261,(6, 102),7	272,(6, 142),1	325,(0, 12),36	361,(5, 92),13	374,(7, 32),69	443,(10, 52),1	444,(13, 52),10	456,(7, 82),2	469,(14, 72),3	482,(13, 182),14	498,(15, 72),1	516,(8, 112),1	519,(8, 152),2	524,(9, 32),33	561,(17, 22),40	602,(17, 62),3	611,(18, 42),1	613,(18, 122),1	614,(18, 132),11	628,(16, 172),6	652,(18, 192),3	670,(20, 92),3	683,(18, 162),15	698,(19, 52),1	699,(20, 42),18	725,(19, 72),15	740,(19, 102),1	753,(11, 52),2	792,(11, 112),9	
290,(2, 51),1	291,(3, 111),4	295,(183, 201),1	296,(2, 61),4	300,(4, 71),2	302,(6, 61),2	304,(6, 111),6	310,(113, 201),1	311,(4, 181),1	312,(174, 201),1	313,(5, 21),17	330,(94, 201),1	331,(116, 201),1	332,(2, 91),48	380,(5, 41),3	383,(123, 201),1	384,(143, 201),1	394,(2, 181),5	399,(4, 161),57	456,(6, 71),22	478,(7, 101),3	481,(7, 171),4	485,(7, 181),1	486,(8, 31),23	509,(145, 201),1	510,(127, 201),1	511,(142, 201),1	512,(135, 201),1	513,(9, 21),11	524,(107, 201),1	525,(10, 131),1	526,(190, 201),1	527,(12, 151),4	531,(170, 201),1	532,(97, 201),1	533,(163, 201),1	534,(146, 201),1	535,(90, 201),1	536,(137, 201),1	537,(173, 201),1	538,(126, 201),1	539,(130, 201),1	540,(104, 201),1	541,(103, 201),1	542,(70, 201),1	543,(73, 201),1	544,(74, 201),1	545,(153, 201),1	546,(54, 201),1	547,(134, 201),1	551,(82, 201),1	552,(182, 201),1	553,(152, 201),1	559,(15, 191),1	560,(65, 201),1	561,(155, 201),1	562,(85, 201),1	563,(83, 201),1	565,(9, 81),1	566,(9, 111),9	575,(95, 201),1	576,(180, 201),1	577,(32, 201),1	583,(93, 201),1	594,(38, 201),1	595,(148, 201),1	596,(28, 201),1	597,(29, 201),1	598,(69, 201),1	599,(39, 201),1	600,(12, 71),47	647,(158, 201),1	648,(198, 201),1	649,(78, 201),1	650,(98, 201),1	651,(108, 201),1	652,(17, 111),1	653,(17, 191),9	662,(138, 201),1	663,(156, 201),1	664,(157, 201),1	665,(168, 201),1	666,(40, 201),1	667,(184, 201),1	668,(125, 201),1	669,(22, 201),1	670,(16, 141),4	674,(16, 161),4	678,(106, 201),1	679,(56, 201),1	680,(186, 201),1	681,(140, 201),1	682,(193, 201),1	683,(35, 201),1	684,(57, 201),1	685,(46, 201),1	686,(84, 201),1	687,(62, 201),1	688,(177, 201),1	689,(24, 201),1	690,(99, 201),1	691,(89, 201),1	692,(13, 81),49	741,(59, 201),1	742,(129, 201),1	743,(179, 201),1	744,(189, 201),1	745,(48, 201),1	746,(122, 201),1	747,(166, 201),1	748,(19, 181),2	750,(132, 201),1	751,(26, 201),1	752,(172, 201),1	753,(43, 201),1	754,(136, 201),1	755,(34, 201),1	756,(192, 201),1	757,(33, 201),1	758,(96, 201),1	759,(124, 201),1	760,(53, 201),1	761,(92, 201),1	762,(196, 201),1	763,(64, 201),1	764,(162, 201),1	765,(63, 201),1	770,(76, 201),1	771,(159, 201),1	772,(109, 201),1	773,(169, 201),1	774,(49, 201),1	775,(144, 201),1	776,(80, 201),1	781,(42, 201),1	782,(23, 201),1	788,(37, 201),1	789,(27, 201),1	790,(47, 201),1	791,(167, 201),1	792,(77, 201),1	793,(197, 201),1	795,(44, 201),1	801,(72, 201),1	804,(187, 201),1	817,(19, 41),40	857,(195, 201),1	858,(20, 111),233	1091,(55, 201),1	1092,(118, 201),1	1093,(110, 201),1	1094,(105, 201),1	1095,(30, 201),1	1096,(58, 201),1	1097,(199, 201),1	1098,(160, 201),1	1099,(188, 201),1	1100,(79, 201),1	1101,(128, 201),1	1102,(60, 201),1	1103,(175, 201),1	1104,(50, 201),1	1105,(178, 201),1	1106,(75, 201),1	1107,(68, 201),1	1108,(200, 201),1	1109,(100, 201),1	1110,(25, 201),1	1111,(149, 201),1	1112,(114, 201),1	1113,(120, 201),1	1114,(165, 201),1	1115,(119, 201),1	1116,(194, 201),1	1117,(133, 201),1	1118,(150, 201),1	1119,(139, 201),1	1120,(88, 201),1	1192,(87, 201),1	1212,(185, 201),1	1229,(102, 201),1	1230,(52, 201),1	1231,(112, 201),1	1249,(164, 201),1	1396,(154, 201),1	1472,(45, 201),1	1573,(115, 201),1	13380,(36, 201),1	13381,(66, 201),1	13382,(86, 201),1	13383,(176, 201),1	13475,(147, 201),1	13571,(117, 201),1	13644,(67, 201),1	
# Outgoing
443,(10, 52),1	444,(10, 86),4	448,(10, 149),4	452,(10, 187),1	469,(10, 78),22	525,(10, 131),1	526,(190, 201),1	531,(170, 201),1	535,(90, 201),1	539,(130, 201),1	542,(70, 201),1	576,(180, 201),1	666,(40, 201),1	669,(20, 26),1	670,(20, 92),3	673,(20, 136),1	674,(20, 197),4	680,(20, 43),1	681,(140, 201),1	689,(20, 68),2	699,(20, 42),18	717,(20, 76),28	745,(20, 175),7	752,(20, 187),24	776,(80, 201),1	777,(20, 86),26	803,(20, 176),14	823,(20, 139),17	858,(20, 111),233	1093,(110, 201),1	1095,(30, 201),1	1098,(160, 201),1	1102,(60, 201),1	1104,(50, 201),1	1108,(200, 201),1	1109,(100, 201),1	1113,(120, 201),1	1118,(150, 201),1	
513,(9, 21),11	524,(9, 32),33	557,(9, 40),1	558,(9, 56),7	565,(9, 81),1	566,(9, 111),9	575,(9, 125),19	594,(9, 136),1	595,(9, 186),2	597,(29, 201),1	598,(69, 201),1	599,(39, 201),1	608,(9, 57),9	617,(9, 118),72	689,(9, 167),1	690,(99, 201),1	691,(89, 201),1	692,(19, 33),2	694,(19, 34),1	695,(19, 50),1	696,(19, 58),1	697,(19, 188),1	698,(19, 52),1	699,(19, 53),14	713,(19, 63),8	721,(19, 64),4	725,(19, 72),15	740,(19, 102),1	741,(59, 201),1	742,(129, 201),1	743,(179, 201),1	744,(189, 201),1	745,(19, 144),3	748,(19, 181),2	750,(19, 66),20	770,(19, 200),1	771,(159, 201),1	772,(109, 201),1	773,(169, 201),1	774,(49, 201),1	775,(19, 25),42	817,(19, 41),40	857,(19, 88),45	1097,(199, 201),1	1100,(79, 201),1	1111,(149, 201),1	1115,(119, 201),1	1119,(139, 201),1	13380,(9, 147),75	
486,(8, 31),23	509,(8, 49),5	514,(8, 85),2	516,(8, 112),1	517,(8, 134),2	519,(8, 152),2	521,(8, 156),2	523,(8, 179),1	524,(8, 180),30	554,(8, 184),40	594,(38, 201),1	595,(148, 201),1	596,(28, 201),1	611,(18, 42),1	612,(18, 46),1	613,(18, 122),1	614,(18, 132),11	625,(18, 55),8	633,(18, 165),6	639,(18, 166),3	642,(18, 185),5	647,(158, 201),1	648,(198, 201),1	649,(78, 201),1	650,(98, 201),1	651,(108, 201),1	652,(18, 192),3	662,(138, 201),1	663,(18, 110),1	665,(168, 201),1	670,(18, 27),1	671,(18, 160),12	683,(18, 162),15	745,(48, 201),1	746,(18, 133),99	1092,(118, 201),1	1096,(58, 201),1	1099,(188, 201),1	1101,(128, 201),1	1105,(178, 201),1	1107,(68, 201),1	1120,(88, 201),1	13551,(18, 67),73	
374,(7, 32),69	443,(7, 73),1	444,(7, 78),12	456,(7, 82),2	458,(7, 124),1	459,(7, 188),8	467,(7, 198),2	469,(7, 65),8	478,(7, 101),3	481,(7, 171),4	485,(7, 181),1	510,(127, 201),1	524,(107, 201),1	532,(97, 201),1	536,(137, 201),1	561,(17, 22),40	601,(17, 35),1	602,(17, 62),3	605,(17, 140),2	607,(17, 176),3	610,(17, 193),1	613,(17, 159),3	620,(17, 24),1	621,(17, 164),2	623,(17, 195),2	652,(17, 111),1	653,(17, 191),9	664,(157, 201),1	684,(57, 201),1	688,(177, 201),1	711,(17, 68),77	788,(37, 201),1	789,(27, 201),1	790,(47, 201),1	791,(167, 201),1	792,(77, 201),1	793,(197, 201),1	804,(187, 201),1	832,(7, 185),360	1192,(87, 201),1	13475,(147, 201),1	13571,(117, 201),1	13644,(67, 201),1	
257,(6, 38),1	258,(6, 64),1	259,(6, 94),2	261,(6, 102),7	268,(6, 123),2	270,(6, 127),1	271,(6, 135),1	272,(6, 142),1	273,(6, 177),11	284,(6, 153),12	302,(6, 61),2	304,(6, 111),6	331,(116, 201),1	346,(6, 100),2	348,(6, 170),7	456,(6, 71),22	525,(16, 95),2	527,(16, 105),7	534,(146, 201),1	538,(126, 201),1	541,(6, 87),67	608,(16, 45),14	622,(16, 109),5	627,(16, 169),1	628,(16, 172),6	649,(16, 80),14	663,(156, 201),1	664,(16, 47),6	670,(16, 141),4	674,(16, 161),4	678,(106, 201),1	679,(56, 201),1	680,(186, 201),1	685,(46, 201),1	690,(16, 77),19	747,(166, 201),1	751,(26, 201),1	754,(136, 201),1	758,(96, 201),1	762,(196, 201),1	770,(76, 201),1	791,(6, 117),12589	13380,(36, 201),1	13381,(66, 201),1	13382,(86, 201),1	13383,(176, 201),1	
313,(5, 21),17	330,(5, 37),4	334,(5, 59),27	361,(5, 92),13	374,(5, 97),4	378,(5, 134),2	380,(5, 41),3	383,(5, 79),24	407,(5, 126),6	413,(5, 133),6	419,(5, 146),1	420,(5, 147),3	423,(5, 158),5	442,(5, 154),11	489,(15, 24),1	490,(15, 50),7	497,(15, 54),1	498,(15, 72),1	499,(15, 153),1	505,(15, 186),4	509,(145, 201),1	512,(135, 201),1	513,(15, 83),30	543,(15, 93),16	559,(15, 191),1	560,(65, 201),1	561,(155, 201),1	562,(85, 201),1	575,(95, 201),1	594,(15, 84),26	625,(15, 37),39	668,(125, 201),1	683,(35, 201),1	686,(15, 149),132	857,(195, 201),1	1091,(55, 201),1	1094,(105, 201),1	1103,(175, 201),1	1106,(75, 201),1	1110,(25, 201),1	1114,(165, 201),1	1212,(185, 201),1	1229,(15, 154),147	1472,(45, 201),1	1573,(115, 201),1	13455,(15, 117),96	
256,(4, 28),1	257,(4, 63),8	265,(4, 113),1	266,(4, 116),16	282,(4, 143),2	291,(4, 39),3	300,(4, 71),2	302,(4, 89),9	311,(4, 181),1	312,(174, 201),1	330,(94, 201),1	399,(4, 161),57	456,(14, 63),5	461,(14, 70),8	469,(14, 72),3	472,(14, 149),4	476,(14, 200),1	481,(14, 37),12	493,(14, 155),5	506,(14, 108),9	515,(14, 118),1	516,(14, 138),11	527,(14, 168),2	540,(104, 201),1	544,(74, 201),1	546,(54, 201),1	547,(134, 201),1	617,(14, 177),8	667,(184, 201),1	686,(84, 201),1	689,(24, 201),1	755,(34, 201),1	759,(124, 201),1	763,(64, 201),1	775,(144, 201),1	795,(44, 201),1	1112,(114, 201),1	1116,(194, 201),1	1249,(164, 201),1	1396,(154, 201),1	
253,(3, 38),3	256,(3, 114),2	258,(3, 145),10	268,(3, 148),9	277,(3, 165),4	281,(3, 185),1	290,(3, 69),1	291,(3, 111),4	295,(183, 201),1	310,(113, 201),1	332,(3, 70),14	383,(123, 201),1	384,(143, 201),1	417,(13, 90),5	422,(13, 130),5	427,(13, 137),1	428,(13, 155),2	433,(13, 126),1	434,(13, 156),7	444,(13, 52),10	454,(13, 104),1	459,(13, 74),23	482,(13, 182),14	501,(13, 168),5	506,(13, 184),9	533,(163, 201),1	537,(173, 201),1	541,(103, 201),1	543,(73, 201),1	545,(153, 201),1	563,(83, 201),1	583,(93, 201),1	682,(193, 201),1	692,(13, 81),49	753,(43, 201),1	757,(33, 201),1	760,(53, 201),1	765,(63, 201),1	782,(23, 201),1	1117,(133, 201),1	1192,(13, 45),260	1452,(13, 115),101	
289,(2, 29),1	290,(2, 51),1	291,(2, 55),5	296,(2, 61),4	300,(2, 99),1	301,(2, 107),13	314,(2, 119),7	325,(2, 30),7	332,(2, 91),48	380,(2, 138),6	386,(2, 177),8	394,(2, 181),5	399,(12, 28),2	401,(12, 50),8	409,(12, 88),7	416,(12, 129),2	418,(12, 159),1	419,(12, 103),3	422,(12, 176),3	425,(12, 186),8	433,(2, 194),9	442,(12, 196),1	453,(12, 177),28	491,(12, 98),10	511,(142, 201),1	527,(12, 151),4	531,(12, 189),20	551,(82, 201),1	552,(182, 201),1	553,(152, 201),1	577,(32, 201),1	600,(12, 71),47	669,(22, 201),1	687,(62, 201),1	746,(122, 201),1	750,(132, 201),1	752,(172, 201),1	756,(192, 201),1	761,(92, 201),1	764,(162, 201),1	781,(42, 201),1	801,(72, 201),1	838,(12, 164),391	1229,(102, 201),1	1230,(52, 201),1	1231,(112, 201),1	
1,(0, 2),36	37,(0, 3),36	73,(0, 4),36	109,(0, 5),36	145,(0, 6),36	181,(0, 7),36	217,(0, 8),36	253,(0, 9),36	289,(0, 10),36	325,(0, 12),36	361,(0, 13),36	397,(0, 14),36	433,(0, 15),36	469,(0, 16),36	505,(0, 17),36	541,(0, 18),36	577,(0, 19),36	613,(0, 20),36	649,(1, 26),4	653,(1, 43),27	680,(1, 47),3	683,(1, 60),1	684,(1, 76),1	685,(1, 79),1	686,(1, 96),1	687,(1, 105),15	702,(1, 124),2	704,(1, 128),6	710,(1, 178),1	711,(1, 196),6	717,(1, 197),7	724,(11, 23),22	746,(11, 36),4	750,(11, 44),3	753,(11, 52),2	755,(11, 75),20	775,(11, 86),2	777,(11, 87),14	791,(11, 100),1	792,(11, 112),9	801,(11, 114),21	822,(11, 119),1	823,(11, 120),3	826,(11, 150),1	827,(11, 165),5	832,(11, 176),1	833,(11, 194),5	
