13542
# CPU
7633,10,3	8985,58,3	9065,16,3	9245,36,3	10309,19,3	10333,9,3	10337,11,3	10589,33,3	10601,39,3	10609,44,3	10617,30,3	10633,45,3	10637,51,3	10905,53,3	10913,60,3	10969,61,3	11021,64,3	11073,66,3	11109,69,3	11153,71,3	11777,37,3	11817,49,3	12205,52,3	12269,54,3	12321,67,3	12457,72,3	12469,73,3	12769,75,3	12837,76,3	12933,80,3	13541,81,1	
49,2,3	6085,17,3	6137,34,3	10349,26,3	10377,29,3	10381,32,3	10485,42,3	10629,48,3	10633,50,3	
97,4,3	6077,14,3	6677,77,3	10313,21,3	10373,28,3	10393,13,3	10529,74,3	10605,41,3	10621,46,3	
121,6,3	10345,25,3	10373,12,3	10465,31,3	10593,35,3	10917,59,3	11077,68,3	11113,70,3	
73,3,3	76,65,3	4701,18,3	5417,55,3	9081,27,3	10321,23,3	10533,79,3	
145,7,3	4853,38,3	9353,40,3	9381,43,3	10425,22,3	10493,57,3	10517,63,3	
25,1,3	6309,78,3	10305,15,3	10341,24,3	10489,47,3	10509,62,3	
169,8,3	581,20,3	10909,56,3	
0,0,1	1,5,3	

# Incoming
169,(5, 10),64	233,(5, 11),72	305,(2, 9),64	373,(2, 19),4	377,(5, 16),36	413,(2, 16),28	441,(2, 44),8	449,(5, 19),120	569,(2, 36),72	641,(2, 54),4	645,(3, 9),40	685,(5, 33),60	745,(2, 60),16	761,(2, 69),4	765,(5, 36),472	1237,(5, 37),96	1333,(2, 66),12	1345,(2, 72),4	1349,(2, 75),8	1357,(3, 30),4	1361,(5, 39),164	1525,(2, 73),48	1573,(5, 44),84	1657,(5, 45),116	1773,(3, 44),4	1777,(3, 51),16	1793,(3, 69),12	1805,(5, 49),244	2049,(3, 76),4	2061,(5, 51),312	2373,(5, 52),24	2405,(5, 58),44	2457,(5, 60),4	2461,(5, 64),8	2469,(5, 69),1004	3473,(3, 61),16	3489,(5, 76),40	3529,(1, 9),372	3901,(1, 10),220	4121,(1, 16),556	4677,(2, 61),52	4733,(1, 30),52	4785,(3, 75),16	4805,(1, 33),8	4813,(2, 52),64	4881,(1, 44),480	5361,(3, 80),16	5385,(1, 51),16	5401,(1, 54),12	5425,(1, 60),372	5805,(1, 64),136	5941,(1, 67),88	6029,(65, 81),16	6045,(6, 9),16	6061,(6, 11),4	6069,(1, 69),4	6073,(1, 71),316	6389,(1, 72),108	6497,(1, 73),140	6637,(6, 19),4	6641,(6, 30),4	6645,(6, 37),8	6653,(6, 45),16	6669,(1, 76),4	6673,(2, 11),604	7277,(2, 37),148	7425,(2, 58),64	7489,(2, 71),56	7545,(3, 10),88	7633,(3, 33),388	8021,(3, 53),160	8181,(3, 58),124	8305,(3, 66),60	8365,(3, 71),392	8757,(4, 9),164	8921,(4, 11),36	8957,(6, 49),16	8973,(6, 51),4	8977,(6, 58),8	8985,(4, 19),8	8993,(6, 16),72	9065,(6, 52),12	9077,(6, 71),8	9085,(4, 30),124	9209,(4, 33),4	9213,(6, 75),4	9217,(4, 36),28	9245,(4, 37),104	9349,(6, 66),28	9381,(4, 44),40	9421,(6, 76),8	9433,(4, 52),64	9497,(4, 53),100	9597,(6, 73),24	9621,(4, 64),4	9625,(4, 67),12	9637,(4, 69),4	9641,(4, 71),16	9657,(4, 72),24	9681,(4, 75),136	9817,(4, 76),56	9877,(4, 80),4	9881,(6, 54),100	9981,(6, 60),48	10029,(6, 69),88	10117,(6, 80),148	10265,(7, 9),16	10281,(7, 11),4	10285,(18, 81),16	10305,(7, 19),4	10309,(8, 9),24	10333,(8, 11),4	10337,(55, 81),16	10353,(14, 81),16	10381,(7, 33),208	10589,(8, 44),4	10593,(7, 37),4	10597,(7, 39),4	10601,(8, 61),4	10605,(7, 44),4	10609,(8, 30),8	10617,(8, 45),16	10633,(7, 51),4	10637,(7, 52),252	10889,(7, 53),4	10893,(8, 53),12	10905,(8, 60),8	10913,(8, 69),4	10917,(7, 61),52	10969,(7, 64),52	11021,(7, 66),52	11077,(7, 69),32	11113,(7, 71),40	11153,(7, 72),64	11217,(7, 73),168	11385,(7, 75),4	11389,(7, 80),12	11401,(8, 37),376	11777,(8, 49),40	11817,(8, 52),388	12205,(8, 54),64	12269,(8, 67),52	12321,(8, 72),136	12457,(8, 73),12	12469,(8, 75),300	12769,(8, 76),68	12837,(8, 80),96	12933,(20, 81),16	12949,(38, 81),16	12965,(17, 81),16	12981,(34, 81),16	12997,(78, 81),16	13013,(77, 81),16	13029,(27, 81),16	13045,(40, 81),16	13061,(43, 81),16	13077,(15, 81),16	13093,(21, 81),16	13109,(23, 81),16	13125,(24, 81),16	13141,(25, 81),16	13157,(26, 81),16	13173,(12, 81),16	13189,(28, 81),16	13205,(29, 81),16	13221,(32, 81),16	13237,(13, 81),16	13253,(22, 81),16	13269,(31, 81),16	13285,(42, 81),16	13301,(47, 81),16	13317,(57, 81),16	13333,(62, 81),16	13349,(63, 81),16	13365,(74, 81),16	13381,(79, 81),16	13397,(35, 81),16	13413,(41, 81),16	13429,(46, 81),16	13445,(48, 81),16	13461,(50, 81),16	13477,(56, 81),16	13493,(59, 81),16	13509,(68, 81),16	13525,(70, 81),16	
25,(0, 2),24	665,(5, 26),12	737,(3, 17),4	745,(3, 26),4	753,(3, 48),4	789,(3, 50),28	1553,(5, 42),20	1797,(5, 48),8	2049,(5, 50),12	4677,(1, 17),20	4725,(1, 29),8	4789,(1, 32),16	4813,(1, 34),36	4869,(1, 42),12	5361,(1, 48),8	5369,(1, 50),16	6081,(6, 17),4	6109,(6, 26),8	6133,(6, 34),4	6137,(6, 42),40	6193,(6, 48),4	6197,(6, 50),20	9029,(4, 26),36	9081,(4, 29),4	10341,(8, 29),4	10345,(7, 26),4	10373,(7, 29),4	10377,(7, 32),4	10473,(8, 42),12	10621,(7, 48),8	10629,(7, 50),4	
73,(0, 4),24	357,(5, 13),4	361,(5, 14),16	377,(2, 13),24	465,(2, 21),40	549,(2, 77),4	581,(5, 21),44	677,(5, 28),8	717,(3, 13),16	749,(3, 28),4	877,(3, 74),20	897,(3, 77),20	3481,(5, 74),8	3529,(5, 77),32	4701,(1, 21),12	4865,(1, 41),4	6065,(6, 14),12	6085,(6, 21),4	6189,(6, 46),4	6273,(6, 77),4	6637,(1, 74),32	6673,(1, 77),4	10309,(7, 21),4	10349,(7, 28),24	10373,(8, 13),20	10469,(8, 41),4	10525,(8, 74),4	10601,(7, 41),4	10609,(7, 46),12	
97,(0, 6),24	305,(5, 12),52	369,(2, 12),4	405,(2, 25),8	685,(3, 12),32	745,(5, 35),20	765,(3, 31),4	769,(3, 35),20	817,(3, 59),40	2449,(5, 59),8	3473,(5, 70),8	4785,(1, 31),4	5417,(1, 59),8	6029,(1, 68),40	8957,(4, 12),28	9213,(4, 35),4	10285,(7, 12),16	10337,(8, 25),4	10341,(7, 25),4	10345,(8, 12),28	10425,(8, 31),40	10465,(8, 35),4	10517,(8, 68),8	10589,(7, 35),4	10909,(7, 59),8	11073,(7, 68),4	11109,(7, 70),4	
49,(0, 3),24	413,(5, 18),36	449,(2, 18),16	505,(2, 27),44	645,(5, 23),4	4697,(1, 18),4	4717,(1, 27),8	5413,(1, 55),4	6089,(6, 23),20	6117,(6, 27),16	6309,(6, 79),4	9001,(4, 23),24	9065,(4, 27),16	9873,(4, 79),4	10313,(7, 23),8	10529,(8, 79),4	
121,(0, 7),24	625,(5, 22),20	645,(2, 57),40	741,(3, 22),4	857,(3, 63),20	1333,(5, 38),28	1525,(5, 40),28	2401,(5, 57),4	4713,(1, 22),4	4849,(1, 38),4	4853,(1, 40),12	5797,(1, 63),8	6177,(6, 43),12	6221,(6, 57),28	6269,(6, 63),4	8993,(4, 22),8	9349,(4, 40),4	9353,(4, 43),28	9601,(4, 63),20	10393,(8, 22),32	10489,(8, 57),4	10509,(8, 63),8	
1,(0, 1),24	649,(5, 24),16	733,(3, 15),4	757,(3, 78),4	1773,(5, 47),24	6077,(6, 15),4	6249,(6, 62),20	6277,(6, 78),32	9025,(4, 24),4	9421,(4, 47),12	9597,(4, 62),4	10301,(7, 15),4	10321,(7, 24),20	10485,(8, 47),4	10493,(8, 62),16	
145,(0, 8),24	401,(2, 20),4	569,(5, 20),12	2397,(5, 56),4	6217,(6, 56),4	10893,(7, 56),16	


# Outgoing

305,(2, 9),64	369,(2, 12),4	373,(2, 19),4	377,(2, 13),24	401,(2, 20),4	405,(2, 25),8	413,(2, 16),28	441,(2, 44),8	449,(2, 18),16	465,(2, 21),40	505,(2, 27),44	549,(2, 77),4	569,(2, 36),72	641,(2, 54),4	645,(2, 57),40	745,(2, 60),16	761,(2, 69),4	1333,(2, 66),12	1345,(2, 72),4	1349,(2, 75),8	1525,(2, 73),48	4677,(2, 61),52	4813,(2, 52),64	6673,(2, 11),604	7277,(2, 37),148	7425,(2, 58),64	7489,(2, 71),56	12965,(17, 81),16	12981,(34, 81),16	13157,(26, 81),16	13205,(29, 81),16	13221,(32, 81),16	13285,(42, 81),16	13445,(48, 81),16	13461,(50, 81),16	
8757,(4, 9),164	8921,(4, 11),36	8957,(4, 12),28	8985,(4, 19),8	8993,(4, 22),8	9001,(4, 23),24	9025,(4, 24),4	9029,(4, 26),36	9065,(4, 27),16	9081,(4, 29),4	9085,(4, 30),124	9209,(4, 33),4	9213,(4, 35),4	9217,(4, 36),28	9245,(4, 37),104	9349,(4, 40),4	9353,(4, 43),28	9381,(4, 44),40	9421,(4, 47),12	9433,(4, 52),64	9497,(4, 53),100	9597,(4, 62),4	9601,(4, 63),20	9621,(4, 64),4	9625,(4, 67),12	9637,(4, 69),4	9641,(4, 71),16	9657,(4, 72),24	9681,(4, 75),136	9817,(4, 76),56	9873,(4, 79),4	9877,(4, 80),4	10353,(14, 81),16	13013,(77, 81),16	13093,(21, 81),16	13189,(28, 81),16	13237,(13, 81),16	13365,(74, 81),16	13413,(41, 81),16	13429,(46, 81),16	
6045,(6, 9),16	6061,(6, 11),4	6065,(6, 14),12	6077,(6, 15),4	6081,(6, 17),4	6085,(6, 21),4	6089,(6, 23),20	6109,(6, 26),8	6117,(6, 27),16	6133,(6, 34),4	6137,(6, 42),40	6177,(6, 43),12	6189,(6, 46),4	6193,(6, 48),4	6197,(6, 50),20	6217,(6, 56),4	6221,(6, 57),28	6249,(6, 62),20	6269,(6, 63),4	6273,(6, 77),4	6277,(6, 78),32	6309,(6, 79),4	6637,(6, 19),4	6641,(6, 30),4	6645,(6, 37),8	6653,(6, 45),16	8957,(6, 49),16	8973,(6, 51),4	8977,(6, 58),8	8993,(6, 16),72	9065,(6, 52),12	9077,(6, 71),8	9213,(6, 75),4	9349,(6, 66),28	9421,(6, 76),8	9597,(6, 73),24	9881,(6, 54),100	9981,(6, 60),48	10029,(6, 69),88	10117,(6, 80),148	13141,(25, 81),16	13173,(12, 81),16	13269,(31, 81),16	13397,(35, 81),16	13493,(59, 81),16	13509,(68, 81),16	13525,(70, 81),16	
645,(3, 9),40	685,(3, 12),32	717,(3, 13),16	733,(3, 15),4	737,(3, 17),4	741,(3, 22),4	745,(3, 26),4	749,(3, 28),4	753,(3, 48),4	757,(3, 78),4	765,(3, 31),4	769,(3, 35),20	789,(3, 50),28	817,(3, 59),40	857,(3, 63),20	877,(3, 74),20	897,(3, 77),20	1357,(3, 30),4	1773,(3, 44),4	1777,(3, 51),16	1793,(3, 69),12	2049,(3, 76),4	3473,(3, 61),16	4785,(3, 75),16	5361,(3, 80),16	6029,(65, 81),16	7545,(3, 10),88	7633,(3, 33),388	8021,(3, 53),160	8181,(3, 58),124	8305,(3, 66),60	8365,(3, 71),392	10285,(18, 81),16	10337,(55, 81),16	13029,(27, 81),16	13109,(23, 81),16	13381,(79, 81),16	
10265,(7, 9),16	10281,(7, 11),4	10285,(7, 12),16	10301,(7, 15),4	10305,(7, 19),4	10309,(7, 21),4	10313,(7, 23),8	10321,(7, 24),20	10341,(7, 25),4	10345,(7, 26),4	10349,(7, 28),24	10373,(7, 29),4	10377,(7, 32),4	10381,(7, 33),208	10589,(7, 35),4	10593,(7, 37),4	10597,(7, 39),4	10601,(7, 41),4	10605,(7, 44),4	10609,(7, 46),12	10621,(7, 48),8	10629,(7, 50),4	10633,(7, 51),4	10637,(7, 52),252	10889,(7, 53),4	10893,(7, 56),16	10909,(7, 59),8	10917,(7, 61),52	10969,(7, 64),52	11021,(7, 66),52	11073,(7, 68),4	11077,(7, 69),32	11109,(7, 70),4	11113,(7, 71),40	11153,(7, 72),64	11217,(7, 73),168	11385,(7, 75),4	11389,(7, 80),12	12949,(38, 81),16	13045,(40, 81),16	13061,(43, 81),16	13253,(22, 81),16	13317,(57, 81),16	13349,(63, 81),16	
3529,(1, 9),372	3901,(1, 10),220	4121,(1, 16),556	4677,(1, 17),20	4697,(1, 18),4	4701,(1, 21),12	4713,(1, 22),4	4717,(1, 27),8	4725,(1, 29),8	4733,(1, 30),52	4785,(1, 31),4	4789,(1, 32),16	4805,(1, 33),8	4813,(1, 34),36	4849,(1, 38),4	4853,(1, 40),12	4865,(1, 41),4	4869,(1, 42),12	4881,(1, 44),480	5361,(1, 48),8	5369,(1, 50),16	5385,(1, 51),16	5401,(1, 54),12	5413,(1, 55),4	5417,(1, 59),8	5425,(1, 60),372	5797,(1, 63),8	5805,(1, 64),136	5941,(1, 67),88	6029,(1, 68),40	6069,(1, 69),4	6073,(1, 71),316	6389,(1, 72),108	6497,(1, 73),140	6637,(1, 74),32	6669,(1, 76),4	6673,(1, 77),4	12997,(78, 81),16	13077,(15, 81),16	13125,(24, 81),16	13301,(47, 81),16	13333,(62, 81),16	
10309,(8, 9),24	10333,(8, 11),4	10337,(8, 25),4	10341,(8, 29),4	10345,(8, 12),28	10373,(8, 13),20	10393,(8, 22),32	10425,(8, 31),40	10465,(8, 35),4	10469,(8, 41),4	10473,(8, 42),12	10485,(8, 47),4	10489,(8, 57),4	10493,(8, 62),16	10509,(8, 63),8	10517,(8, 68),8	10525,(8, 74),4	10529,(8, 79),4	10589,(8, 44),4	10601,(8, 61),4	10609,(8, 30),8	10617,(8, 45),16	10893,(8, 53),12	10905,(8, 60),8	10913,(8, 69),4	11401,(8, 37),376	11777,(8, 49),40	11817,(8, 52),388	12205,(8, 54),64	12269,(8, 67),52	12321,(8, 72),136	12457,(8, 73),12	12469,(8, 75),300	12769,(8, 76),68	12837,(8, 80),96	12933,(20, 81),16	13477,(56, 81),16	
1,(0, 1),24	25,(0, 2),24	49,(0, 3),24	73,(0, 4),24	97,(0, 6),24	121,(0, 7),24	145,(0, 8),24	169,(5, 10),64	233,(5, 11),72	305,(5, 12),52	357,(5, 13),4	361,(5, 14),16	377,(5, 16),36	413,(5, 18),36	449,(5, 19),120	569,(5, 20),12	581,(5, 21),44	625,(5, 22),20	645,(5, 23),4	649,(5, 24),16	665,(5, 26),12	677,(5, 28),8	685,(5, 33),60	745,(5, 35),20	765,(5, 36),472	1237,(5, 37),96	1333,(5, 38),28	1361,(5, 39),164	1525,(5, 40),28	1553,(5, 42),20	1573,(5, 44),84	1657,(5, 45),116	1773,(5, 47),24	1797,(5, 48),8	1805,(5, 49),244	2049,(5, 50),12	2061,(5, 51),312	2373,(5, 52),24	2397,(5, 56),4	2401,(5, 57),4	2405,(5, 58),44	2449,(5, 59),8	2457,(5, 60),4	2461,(5, 64),8	2469,(5, 69),1004	3473,(5, 70),8	3481,(5, 74),8	3489,(5, 76),40	3529,(5, 77),32	

