1727
# CPU
0,0,1	1,3,18	19,99,18	37,137,18	55,159,18	73,136,18	91,5,18	109,47,18	127,23,18	145,115,18	163,179,18	181,50,18	199,2,18	217,38,18	235,95,18	253,85,18	271,109,18	289,48,18	307,112,18	325,200,18	343,141,18	361,149,18	379,157,18	397,119,18	415,158,18	433,176,18	451,116,18	469,161,18	487,55,18	505,171,18	523,37,18	541,65,18	559,163,18	577,93,18	595,42,18	613,190,18	631,144,18	649,72,18	667,114,18	685,41,18	703,79,18	
5,14,18	23,130,18	41,128,18	59,97,18	77,12,18	95,197,18	113,178,18	131,101,18	149,58,18	167,165,18	185,145,18	203,10,18	221,51,18	239,63,18	257,147,18	275,155,18	293,4,18	311,31,18	329,153,18	347,73,18	365,125,18	383,108,18	401,88,18	419,154,18	437,83,18	455,186,18	473,77,18	491,135,18	509,103,18	527,32,18	545,44,18	563,169,18	581,146,18	599,187,18	617,152,18	635,70,18	653,182,18	671,21,18	689,107,18	1726,201,1	
2,1,18	20,164,18	38,100,18	56,89,18	74,9,18	92,122,18	110,34,18	128,45,18	146,188,18	164,94,18	182,6,18	200,25,18	218,82,18	236,132,18	254,170,18	272,16,18	290,121,18	308,78,18	326,162,18	344,75,18	362,74,18	380,174,18	398,61,18	416,56,18	434,118,18	452,71,18	470,54,18	488,193,18	506,148,18	524,105,18	542,198,18	560,138,18	578,140,18	596,49,18	614,134,18	632,127,18	650,90,18	668,102,18	686,180,18	704,192,18	
4,20,18	22,106,18	40,43,18	58,183,18	76,96,18	94,30,18	112,13,18	130,104,18	148,26,18	166,68,18	184,15,18	202,62,18	220,57,18	238,117,18	256,168,18	274,124,18	292,53,18	310,17,18	328,24,18	346,172,18	364,139,18	382,92,18	400,181,18	418,33,18	436,191,18	454,64,18	472,52,18	490,27,18	508,84,18	526,194,18	544,22,18	562,143,18	580,133,18	598,113,18	616,123,18	634,195,18	652,177,18	670,80,18	688,129,18	706,81,18	
3,8,18	21,67,18	39,160,18	57,11,18	75,167,18	93,76,18	111,150,18	129,7,18	147,39,18	165,110,18	183,87,18	201,185,18	219,86,18	237,199,18	255,18,18	273,59,18	291,111,18	309,35,18	327,19,18	345,28,18	363,69,18	381,189,18	399,175,18	417,196,18	435,126,18	453,156,18	471,29,18	489,91,18	507,151,18	525,60,18	543,184,18	561,66,18	579,46,18	597,36,18	615,142,18	633,131,18	651,98,18	669,120,18	687,173,18	705,166,18	723,40,18	
# Incoming
133,(13, 141),1	134,(9, 65),1	135,(13, 158),1	136,(1, 116),3	140,(20, 55),1	141,(9, 93),2	151,(7, 157),1	152,(11, 119),1	153,(8, 158),1	157,(7, 37),5	165,(7, 65),4	176,(11, 163),7	183,(20, 72),12	201,(6, 161),1	202,(8, 190),11	217,(1, 114),9	227,(14, 176),1	228,(13, 42),19	249,(12, 163),3	259,(14, 190),9	279,(18, 93),9	291,(16, 161),2	293,(15, 114),16	313,(4, 176),1	318,(4, 55),2	320,(4, 171),4	328,(4, 114),1	333,(17, 41),1	345,(19, 149),1	347,(19, 176),1	354,(10, 144),22	376,(10, 72),19	395,(9, 114),13	408,(13, 41),29	437,(7, 41),29	466,(10, 41),9	475,(12, 79),4	479,(19, 79),1	496,(17, 79),72	
4,(0, 14),1	7,(0, 12),1	12,(0, 10),1	15,(0, 4),1	20,(1, 97),1	21,(1, 83),1	22,(1, 135),2	24,(1, 146),1	27,(3, 32),1	39,(20, 146),4	43,(99, 201),10	53,(106, 201),10	64,(164, 201),10	74,(137, 201),10	84,(43, 201),10	94,(9, 44),3	105,(9, 21),1	110,(5, 186),1	111,(100, 201),10	130,(13, 145),1	132,(13, 147),1	134,(13, 88),1	139,(13, 83),1	147,(7, 165),1	148,(7, 155),1	154,(11, 186),1	155,(159, 201),10	165,(89, 201),10	175,(136, 201),10	190,(7, 169),1	191,(11, 146),1	192,(8, 187),1	193,(7, 187),5	203,(15, 77),1	205,(6, 70),2	207,(6, 21),2	209,(15, 44),2	211,(15, 169),4	215,(8, 152),8	223,(2, 103),2	225,(7, 70),6	236,(67, 201),10	247,(13, 21),10	257,(15, 21),2	259,(122, 201),10	278,(18, 32),1	279,(183, 201),10	293,(16, 77),1	298,(16, 182),10	309,(96, 201),10	328,(160, 201),10	346,(19, 154),1	347,(30, 201),10	357,(47, 201),10	367,(23, 201),10	381,(167, 201),10	391,(115, 201),10	407,(76, 201),10	417,(150, 201),10	427,(39, 201),10	437,(13, 107),59	496,(179, 201),10	506,(34, 201),10	516,(45, 201),10	526,(188, 201),10	536,(94, 201),10	546,(110, 201),10	556,(50, 201),10	566,(87, 201),10	576,(25, 201),10	586,(185, 201),10	596,(104, 201),10	606,(26, 201),10	616,(68, 201),10	626,(62, 201),10	636,(38, 201),10	646,(82, 201),10	656,(86, 201),10	666,(57, 201),10	676,(95, 201),10	686,(132, 201),10	696,(199, 201),10	706,(117, 201),10	716,(85, 201),10	726,(170, 201),10	736,(168, 201),10	746,(109, 201),10	756,(59, 201),10	766,(124, 201),10	776,(48, 201),10	786,(121, 201),10	796,(111, 201),10	806,(53, 201),10	816,(112, 201),10	826,(78, 201),10	836,(35, 201),10	846,(200, 201),10	856,(162, 201),10	866,(24, 201),10	876,(141, 201),10	886,(75, 201),10	896,(28, 201),10	906,(172, 201),10	916,(149, 201),10	926,(74, 201),10	936,(69, 201),10	946,(139, 201),10	956,(157, 201),10	966,(174, 201),10	976,(189, 201),10	986,(92, 201),10	996,(119, 201),10	1006,(61, 201),10	1016,(175, 201),10	1026,(181, 201),10	1036,(158, 201),10	1046,(56, 201),10	1056,(196, 201),10	1066,(33, 201),10	1076,(176, 201),10	1086,(118, 201),10	1096,(126, 201),10	1106,(191, 201),10	1116,(116, 201),10	1126,(71, 201),10	1136,(156, 201),10	1146,(64, 201),10	1156,(161, 201),10	1166,(54, 201),10	1176,(29, 201),10	1186,(52, 201),10	1196,(55, 201),10	1206,(193, 201),10	1216,(91, 201),10	1226,(27, 201),10	1236,(171, 201),10	1246,(148, 201),10	1256,(151, 201),10	1266,(84, 201),10	1276,(37, 201),10	1286,(105, 201),10	1296,(60, 201),10	1306,(194, 201),10	1316,(65, 201),10	1326,(198, 201),10	1336,(184, 201),10	1346,(22, 201),10	1356,(163, 201),10	1366,(138, 201),10	1376,(66, 201),10	1386,(143, 201),10	1396,(93, 201),10	1406,(140, 201),10	1416,(46, 201),10	1426,(133, 201),10	1436,(42, 201),10	1446,(49, 201),10	1456,(36, 201),10	1466,(113, 201),10	1476,(190, 201),10	1486,(134, 201),10	1496,(142, 201),10	1506,(123, 201),10	1516,(144, 201),10	1526,(127, 201),10	1536,(131, 201),10	1546,(195, 201),10	1556,(72, 201),10	1566,(90, 201),10	1576,(98, 201),10	1586,(177, 201),10	1596,(114, 201),10	1606,(102, 201),10	1616,(120, 201),10	1626,(80, 201),10	1636,(41, 201),10	1646,(180, 201),10	1656,(173, 201),10	1666,(129, 201),10	1676,(79, 201),10	1686,(192, 201),10	1696,(166, 201),10	1706,(81, 201),10	1716,(40, 201),10	
1,(0, 1),1	6,(0, 9),1	10,(0, 6),1	14,(0, 16),1	23,(20, 94),1	24,(20, 56),2	26,(20, 71),3	31,(20, 193),5	36,(20, 198),3	43,(20, 49),5	111,(5, 138),1	131,(13, 170),1	136,(13, 118),3	141,(13, 140),7	149,(7, 75),1	150,(7, 74),1	162,(11, 105),3	169,(8, 198),3	183,(7, 138),7	213,(8, 192),1	220,(2, 54),1	222,(10, 174),2	232,(10, 54),2	234,(12, 148),1	235,(10, 148),3	238,(2, 90),16	269,(10, 180),1	274,(18, 162),1	276,(18, 105),2	288,(18, 49),5	311,(4, 61),2	317,(4, 54),1	327,(4, 140),1	330,(17, 148),1	331,(17, 105),1	332,(4, 134),10	342,(17, 134),1	348,(18, 127),13	361,(18, 102),20	381,(13, 180),18	399,(18, 192),8	407,(4, 180),13	568,(13, 192),28	
3,(0, 20),1	8,(0, 13),1	11,(0, 15),1	16,(0, 17),1	19,(3, 52),1	97,(9, 133),8	112,(5, 143),4	116,(5, 81),26	155,(7, 27),2	172,(8, 22),4	198,(11, 129),4	202,(6, 22),2	204,(6, 143),1	218,(2, 168),1	221,(10, 117),1	222,(2, 52),1	225,(10, 33),2	229,(14, 191),2	231,(8, 177),5	238,(10, 84),1	239,(6, 177),4	246,(14, 194),3	249,(8, 123),9	258,(11, 80),8	268,(10, 123),1	273,(18, 124),1	275,(18, 84),1	290,(16, 53),1	294,(16, 143),3	297,(18, 113),10	315,(4, 64),2	317,(18, 195),11	328,(16, 177),11	395,(10, 80),12	408,(6, 129),22	
2,(0, 8),1	5,(0, 11),1	9,(0, 7),1	13,(0, 18),1	17,(0, 19),1	20,(3, 66),2	22,(20, 160),1	23,(3, 151),4	29,(20, 156),2	31,(3, 98),11	48,(20, 36),3	51,(1, 40),13	92,(9, 150),1	93,(9, 86),1	109,(5, 35),1	148,(13, 98),12	160,(13, 120),22	200,(6, 196),1	202,(15, 29),1	204,(15, 184),5	209,(6, 36),8	217,(2, 199),1	219,(2, 196),1	224,(14, 175),1	228,(10, 126),1	231,(12, 156),1	232,(2, 91),4	239,(14, 60),7	252,(14, 66),7	259,(15, 46),11	270,(14, 131),11	281,(2, 131),11	292,(14, 173),3	297,(16, 36),1	298,(2, 40),5	308,(16, 120),2	314,(4, 126),1	324,(4, 184),3	328,(17, 29),2	332,(17, 66),1	334,(17, 40),6	342,(4, 142),12	354,(9, 173),30	430,(9, 166),43	473,(16, 40),33	
# Outgoing
1,(0, 1),1	2,(0, 8),1	3,(0, 20),1	4,(0, 14),1	5,(0, 11),1	6,(0, 9),1	7,(0, 12),1	8,(0, 13),1	9,(0, 7),1	10,(0, 6),1	11,(0, 15),1	12,(0, 10),1	13,(0, 18),1	14,(0, 16),1	15,(0, 4),1	16,(0, 17),1	17,(0, 19),1	19,(3, 52),1	20,(3, 66),2	23,(3, 151),4	27,(3, 32),1	31,(3, 98),11	43,(99, 201),10	74,(137, 201),10	109,(5, 35),1	110,(5, 186),1	111,(5, 138),1	112,(5, 143),4	116,(5, 81),26	155,(159, 201),10	175,(136, 201),10	217,(2, 199),1	218,(2, 168),1	219,(2, 196),1	220,(2, 54),1	222,(2, 52),1	223,(2, 103),2	232,(2, 91),4	238,(2, 90),16	281,(2, 131),11	298,(2, 40),5	357,(47, 201),10	367,(23, 201),10	391,(115, 201),10	496,(179, 201),10	556,(50, 201),10	636,(38, 201),10	676,(95, 201),10	716,(85, 201),10	746,(109, 201),10	776,(48, 201),10	816,(112, 201),10	846,(200, 201),10	876,(141, 201),10	916,(149, 201),10	956,(157, 201),10	996,(119, 201),10	1036,(158, 201),10	1076,(176, 201),10	1116,(116, 201),10	1156,(161, 201),10	1196,(55, 201),10	1236,(171, 201),10	1276,(37, 201),10	1316,(65, 201),10	1356,(163, 201),10	1396,(93, 201),10	1436,(42, 201),10	1476,(190, 201),10	1516,(144, 201),10	1556,(72, 201),10	1596,(114, 201),10	1636,(41, 201),10	1676,(79, 201),10	
221,(10, 117),1	222,(10, 174),2	224,(14, 175),1	225,(10, 33),2	227,(14, 176),1	228,(10, 126),1	229,(14, 191),2	231,(12, 156),1	232,(10, 54),2	234,(12, 148),1	235,(10, 148),3	238,(10, 84),1	239,(14, 60),7	246,(14, 194),3	249,(12, 163),3	252,(14, 66),7	259,(14, 190),9	268,(10, 123),1	269,(10, 180),1	270,(14, 131),11	292,(14, 173),3	311,(4, 61),2	313,(4, 176),1	314,(4, 126),1	315,(4, 64),2	317,(4, 54),1	318,(4, 55),2	320,(4, 171),4	324,(4, 184),3	327,(4, 140),1	328,(4, 114),1	332,(4, 134),10	342,(4, 142),12	354,(10, 144),22	376,(10, 72),19	395,(10, 80),12	407,(4, 180),13	466,(10, 41),9	475,(12, 79),4	
20,(1, 97),1	21,(1, 83),1	22,(1, 135),2	24,(1, 146),1	51,(1, 40),13	64,(164, 201),10	92,(9, 150),1	93,(9, 86),1	94,(9, 44),3	97,(9, 133),8	105,(9, 21),1	111,(100, 201),10	134,(9, 65),1	136,(1, 116),3	141,(9, 93),2	165,(89, 201),10	200,(6, 196),1	201,(6, 161),1	202,(6, 22),2	204,(6, 143),1	205,(6, 70),2	207,(6, 21),2	209,(6, 36),8	217,(1, 114),9	239,(6, 177),4	259,(122, 201),10	290,(16, 53),1	291,(16, 161),2	293,(16, 77),1	294,(16, 143),3	297,(16, 36),1	298,(16, 182),10	308,(16, 120),2	328,(16, 177),11	354,(9, 173),30	395,(9, 114),13	408,(6, 129),22	430,(9, 166),43	473,(16, 40),33	506,(34, 201),10	516,(45, 201),10	526,(188, 201),10	536,(94, 201),10	576,(25, 201),10	646,(82, 201),10	686,(132, 201),10	726,(170, 201),10	786,(121, 201),10	826,(78, 201),10	856,(162, 201),10	886,(75, 201),10	926,(74, 201),10	966,(174, 201),10	1006,(61, 201),10	1046,(56, 201),10	1086,(118, 201),10	1126,(71, 201),10	1166,(54, 201),10	1206,(193, 201),10	1246,(148, 201),10	1286,(105, 201),10	1326,(198, 201),10	1366,(138, 201),10	1406,(140, 201),10	1446,(49, 201),10	1486,(134, 201),10	1526,(127, 201),10	1566,(90, 201),10	1606,(102, 201),10	1646,(180, 201),10	1686,(192, 201),10	
22,(20, 160),1	23,(20, 94),1	24,(20, 56),2	26,(20, 71),3	29,(20, 156),2	31,(20, 193),5	36,(20, 198),3	39,(20, 146),4	43,(20, 49),5	48,(20, 36),3	53,(106, 201),10	84,(43, 201),10	130,(13, 145),1	131,(13, 170),1	132,(13, 147),1	133,(13, 141),1	134,(13, 88),1	135,(13, 158),1	136,(13, 118),3	139,(13, 83),1	140,(20, 55),1	141,(13, 140),7	148,(13, 98),12	160,(13, 120),22	183,(20, 72),12	202,(15, 29),1	203,(15, 77),1	204,(15, 184),5	209,(15, 44),2	211,(15, 169),4	228,(13, 42),19	247,(13, 21),10	257,(15, 21),2	259,(15, 46),11	279,(183, 201),10	293,(15, 114),16	309,(96, 201),10	328,(17, 29),2	330,(17, 148),1	331,(17, 105),1	332,(17, 66),1	333,(17, 41),1	334,(17, 40),6	342,(17, 134),1	347,(30, 201),10	381,(13, 180),18	408,(13, 41),29	437,(13, 107),59	496,(17, 79),72	568,(13, 192),28	596,(104, 201),10	606,(26, 201),10	616,(68, 201),10	626,(62, 201),10	666,(57, 201),10	706,(117, 201),10	736,(168, 201),10	766,(124, 201),10	806,(53, 201),10	866,(24, 201),10	906,(172, 201),10	946,(139, 201),10	986,(92, 201),10	1026,(181, 201),10	1066,(33, 201),10	1106,(191, 201),10	1146,(64, 201),10	1186,(52, 201),10	1226,(27, 201),10	1266,(84, 201),10	1306,(194, 201),10	1346,(22, 201),10	1386,(143, 201),10	1426,(133, 201),10	1466,(113, 201),10	1506,(123, 201),10	1546,(195, 201),10	1586,(177, 201),10	1626,(80, 201),10	1666,(129, 201),10	1706,(81, 201),10	
147,(7, 165),1	148,(7, 155),1	149,(7, 75),1	150,(7, 74),1	151,(7, 157),1	152,(11, 119),1	153,(8, 158),1	154,(11, 186),1	155,(7, 27),2	157,(7, 37),5	162,(11, 105),3	165,(7, 65),4	169,(8, 198),3	172,(8, 22),4	176,(11, 163),7	183,(7, 138),7	190,(7, 169),1	191,(11, 146),1	192,(8, 187),1	193,(7, 187),5	198,(11, 129),4	202,(8, 190),11	213,(8, 192),1	215,(8, 152),8	225,(7, 70),6	231,(8, 177),5	236,(67, 201),10	249,(8, 123),9	258,(11, 80),8	273,(18, 124),1	274,(18, 162),1	275,(18, 84),1	276,(18, 105),2	278,(18, 32),1	279,(18, 93),9	288,(18, 49),5	297,(18, 113),10	317,(18, 195),11	328,(160, 201),10	345,(19, 149),1	346,(19, 154),1	347,(19, 176),1	348,(18, 127),13	361,(18, 102),20	381,(167, 201),10	399,(18, 192),8	407,(76, 201),10	417,(150, 201),10	427,(39, 201),10	437,(7, 41),29	479,(19, 79),1	546,(110, 201),10	566,(87, 201),10	586,(185, 201),10	656,(86, 201),10	696,(199, 201),10	756,(59, 201),10	796,(111, 201),10	836,(35, 201),10	896,(28, 201),10	936,(69, 201),10	976,(189, 201),10	1016,(175, 201),10	1056,(196, 201),10	1096,(126, 201),10	1136,(156, 201),10	1176,(29, 201),10	1216,(91, 201),10	1256,(151, 201),10	1296,(60, 201),10	1336,(184, 201),10	1376,(66, 201),10	1416,(46, 201),10	1456,(36, 201),10	1496,(142, 201),10	1536,(131, 201),10	1576,(98, 201),10	1616,(120, 201),10	1656,(173, 201),10	1696,(166, 201),10	1716,(40, 201),10	
