27378
# CPU
0,0,1	1,10,10	11,9,10	21,12,10	31,1,10	41,7,10	51,92,10	61,18,10	71,104,10	81,117,10	91,83,10	101,63,10	111,52,10	121,72,10	131,50,10	141,39,10	151,38,10	161,74,10	171,76,10	181,59,10	191,109,10	201,17,10	211,120,10	221,65,10	231,26,10	241,16,10	251,32,10	261,20,10	271,54,10	281,36,10	291,88,10	301,56,10	311,103,10	321,70,10	331,80,10	341,79,10	425,99,10	457,111,10	481,115,10	513,31,10	573,58,10	
5,2,10	15,4,10	25,89,10	35,5,10	45,14,10	55,37,10	65,86,10	75,67,10	85,11,10	95,49,10	105,61,10	115,85,10	125,19,10	135,110,10	145,43,10	155,84,10	165,51,10	175,55,10	191,62,10	201,93,10	211,64,10	225,77,10	301,108,10	311,98,10	609,101,10	22077,53,10	22087,105,10	22097,106,10	22107,113,10	22117,118,10	22127,15,10	22137,30,10	22161,28,10	25605,25,10	25649,47,10	25661,13,10	25677,21,10	25687,27,10	25697,94,10	25709,97,10	
9,3,10	19,40,10	29,68,10	39,75,10	49,6,10	59,8,10	69,81,10	79,29,10	89,91,10	99,100,10	109,41,10	861,66,10	21993,96,10	22053,114,10	22165,35,10	25561,73,10	25571,95,10	25581,119,10	26101,22,10	26125,46,10	26135,82,10	26153,112,10	26217,24,10	26461,116,10	26525,33,10	26609,42,10	26629,48,10	26639,57,10	26649,78,10	26685,23,10	26697,60,10	26753,69,10	26857,102,10	26877,44,10	26957,71,10	26967,107,10	27005,34,10	27113,45,10	27123,87,10	27133,90,10	27377,121,1	
# Incoming
15,(2, 18),4	19,(2, 52),16	35,(2, 72),4	39,(2, 109),8	47,(3, 17),4	51,(4, 32),12	63,(5, 32),4	67,(3, 20),24	91,(3, 31),64	155,(3, 54),16	171,(5, 36),4	175,(5, 88),4	179,(11, 56),4	183,(11, 115),4	195,(3, 103),4	203,(6, 70),4	225,(3, 80),40	265,(5, 99),44	309,(6, 79),4	313,(11, 58),24	365,(6, 99),60	425,(6, 111),32	477,(6, 115),4	481,(8, 31),32	513,(8, 58),60	
1,(0, 2),4	9,(0, 4),4	13,(0, 5),4	25,(0, 11),4	51,(3, 19),16	77,(10, 47),16	93,(10, 51),28	121,(10, 55),8	171,(3, 62),20	191,(3, 93),4	199,(3, 108),4	205,(10, 64),4	209,(3, 77),16	265,(6, 28),4	269,(6, 94),28	297,(6, 108),4	301,(8, 30),4	305,(8, 98),4	313,(6, 97),52	457,(6, 113),20	573,(8, 101),36	609,(8, 118),16	21937,(10, 94),32	22053,(9, 25),12	22065,(9, 53),12	22077,(9, 105),4	22081,(9, 106),4	22085,(9, 113),12	22097,(9, 118),20	22117,(12, 15),4	22121,(12, 30),4	22125,(12, 47),24	22149,(1, 28),12	25569,(1, 25),36	25605,(1, 47),44	25649,(7, 13),12	25661,(7, 21),16	25677,(7, 27),4	25681,(7, 94),4	25685,(7, 97),24	
5,(0, 3),4	17,(0, 6),4	21,(0, 8),4	29,(10, 23),24	53,(10, 24),4	57,(10, 44),20	77,(2, 23),12	89,(2, 24),8	97,(2, 69),32	129,(10, 57),4	133,(10, 60),72	205,(4, 33),4	209,(10, 66),652	861,(10, 71),40	901,(10, 73),21036	21937,(2, 78),24	21961,(2, 119),8	21969,(10, 95),4	21973,(10, 96),20	21993,(10, 102),4	21997,(10, 114),56	22053,(2, 42),84	22137,(2, 107),24	22161,(9, 35),4	22165,(9, 42),4	22169,(9, 44),4	22173,(9, 45),3212	25385,(9, 69),120	25505,(9, 73),56	25561,(9, 95),4	25565,(9, 119),4	25569,(4, 22),532	26101,(4, 44),16	26117,(4, 45),4	26121,(4, 46),4	26125,(4, 82),4	26129,(4, 87),16	26145,(4, 112),8	26153,(12, 23),32	26185,(12, 24),32	26217,(12, 34),4	26221,(12, 69),20	26241,(12, 87),204	26445,(12, 116),16	26461,(89, 121),4	26465,(1, 33),60	26525,(1, 42),84	26609,(1, 48),20	26629,(1, 57),4	26633,(1, 60),4	26637,(1, 78),8	26645,(1, 102),16	26661,(5, 23),24	26685,(5, 45),4	26689,(5, 60),8	26697,(5, 69),56	26753,(5, 71),24	26777,(5, 102),80	26857,(7, 44),20	26877,(7, 71),80	26957,(7, 107),8	26965,(14, 121),4	26969,(92, 121),4	26973,(37, 121),4	26977,(18, 121),4	26981,(86, 121),4	26985,(104, 121),4	26989,(67, 121),4	26993,(117, 121),4	26997,(11, 34),8	27005,(11, 45),108	27113,(11, 87),4	27117,(11, 90),12	27129,(83, 121),4	27133,(49, 121),4	27137,(63, 121),4	27141,(61, 121),4	27145,(52, 121),4	27149,(85, 121),4	27153,(72, 121),4	27157,(19, 121),4	27161,(50, 121),4	27165,(110, 121),4	27169,(39, 121),4	27173,(43, 121),4	27177,(38, 121),4	27181,(84, 121),4	27185,(74, 121),4	27189,(51, 121),4	27193,(76, 121),4	27197,(55, 121),4	27201,(59, 121),4	27205,(62, 121),4	27209,(109, 121),4	27213,(17, 121),4	27217,(93, 121),4	27221,(64, 121),4	27225,(120, 121),4	27229,(65, 121),4	27233,(77, 121),4	27237,(26, 121),4	27241,(16, 121),4	27245,(32, 121),4	27249,(20, 121),4	27253,(54, 121),4	27257,(36, 121),4	27261,(88, 121),4	27265,(56, 121),4	27269,(108, 121),4	27273,(103, 121),4	27277,(98, 121),4	27281,(70, 121),4	27285,(80, 121),4	27289,(79, 121),4	27293,(99, 121),4	27297,(111, 121),4	27301,(115, 121),4	27305,(31, 121),4	27309,(58, 121),4	27313,(101, 121),4	27317,(53, 121),4	27321,(105, 121),4	27325,(106, 121),4	27329,(113, 121),4	27333,(118, 121),4	27337,(15, 121),4	27341,(30, 121),4	27345,(28, 121),4	27349,(25, 121),4	27353,(47, 121),4	27357,(13, 121),4	27361,(21, 121),4	27365,(27, 121),4	27369,(94, 121),4	27373,(97, 121),4	
# Outgoing
1,(0, 2),4	5,(0, 3),4	9,(0, 4),4	13,(0, 5),4	17,(0, 6),4	21,(0, 8),4	25,(0, 11),4	29,(10, 23),24	53,(10, 24),4	57,(10, 44),20	77,(10, 47),16	93,(10, 51),28	121,(10, 55),8	129,(10, 57),4	133,(10, 60),72	205,(10, 64),4	209,(10, 66),652	861,(10, 71),40	901,(10, 73),21036	21937,(10, 94),32	21969,(10, 95),4	21973,(10, 96),20	21993,(10, 102),4	21997,(10, 114),56	22053,(9, 25),12	22065,(9, 53),12	22077,(9, 105),4	22081,(9, 106),4	22085,(9, 113),12	22097,(9, 118),20	22117,(12, 15),4	22121,(12, 30),4	22125,(12, 47),24	22149,(1, 28),12	22161,(9, 35),4	22165,(9, 42),4	22169,(9, 44),4	22173,(9, 45),3212	25385,(9, 69),120	25505,(9, 73),56	25561,(9, 95),4	25565,(9, 119),4	25569,(1, 25),36	25605,(1, 47),44	25649,(7, 13),12	25661,(7, 21),16	25677,(7, 27),4	25681,(7, 94),4	25685,(7, 97),24	26153,(12, 23),32	26185,(12, 24),32	26217,(12, 34),4	26221,(12, 69),20	26241,(12, 87),204	26445,(12, 116),16	26465,(1, 33),60	26525,(1, 42),84	26609,(1, 48),20	26629,(1, 57),4	26633,(1, 60),4	26637,(1, 78),8	26645,(1, 102),16	26857,(7, 44),20	26877,(7, 71),80	26957,(7, 107),8	26969,(92, 121),4	26977,(18, 121),4	26985,(104, 121),4	26993,(117, 121),4	27129,(83, 121),4	27137,(63, 121),4	27145,(52, 121),4	27153,(72, 121),4	27161,(50, 121),4	27169,(39, 121),4	27177,(38, 121),4	27185,(74, 121),4	27193,(76, 121),4	27201,(59, 121),4	27209,(109, 121),4	27213,(17, 121),4	27225,(120, 121),4	27229,(65, 121),4	27237,(26, 121),4	27241,(16, 121),4	27245,(32, 121),4	27249,(20, 121),4	27253,(54, 121),4	27257,(36, 121),4	27261,(88, 121),4	27265,(56, 121),4	27273,(103, 121),4	27281,(70, 121),4	27285,(80, 121),4	27289,(79, 121),4	27293,(99, 121),4	27297,(111, 121),4	27301,(115, 121),4	27305,(31, 121),4	27309,(58, 121),4	
15,(2, 18),4	19,(2, 52),16	35,(2, 72),4	39,(2, 109),8	51,(4, 32),12	63,(5, 32),4	77,(2, 23),12	89,(2, 24),8	97,(2, 69),32	171,(5, 36),4	175,(5, 88),4	179,(11, 56),4	183,(11, 115),4	205,(4, 33),4	265,(5, 99),44	313,(11, 58),24	21937,(2, 78),24	21961,(2, 119),8	22053,(2, 42),84	22137,(2, 107),24	25569,(4, 22),532	26101,(4, 44),16	26117,(4, 45),4	26121,(4, 46),4	26125,(4, 82),4	26129,(4, 87),16	26145,(4, 112),8	26461,(89, 121),4	26661,(5, 23),24	26685,(5, 45),4	26689,(5, 60),8	26697,(5, 69),56	26753,(5, 71),24	26777,(5, 102),80	26965,(14, 121),4	26973,(37, 121),4	26981,(86, 121),4	26989,(67, 121),4	26997,(11, 34),8	27005,(11, 45),108	27113,(11, 87),4	27117,(11, 90),12	27133,(49, 121),4	27141,(61, 121),4	27149,(85, 121),4	27157,(19, 121),4	27165,(110, 121),4	27173,(43, 121),4	27181,(84, 121),4	27189,(51, 121),4	27197,(55, 121),4	27205,(62, 121),4	27217,(93, 121),4	27221,(64, 121),4	27233,(77, 121),4	27269,(108, 121),4	27277,(98, 121),4	27313,(101, 121),4	27317,(53, 121),4	27321,(105, 121),4	27325,(106, 121),4	27329,(113, 121),4	27333,(118, 121),4	27337,(15, 121),4	27341,(30, 121),4	27345,(28, 121),4	27349,(25, 121),4	27353,(47, 121),4	27357,(13, 121),4	27361,(21, 121),4	27365,(27, 121),4	27369,(94, 121),4	27373,(97, 121),4	
47,(3, 17),4	51,(3, 19),16	67,(3, 20),24	91,(3, 31),64	155,(3, 54),16	171,(3, 62),20	191,(3, 93),4	195,(3, 103),4	199,(3, 108),4	203,(6, 70),4	209,(3, 77),16	225,(3, 80),40	265,(6, 28),4	269,(6, 94),28	297,(6, 108),4	301,(8, 30),4	305,(8, 98),4	309,(6, 79),4	313,(6, 97),52	365,(6, 99),60	425,(6, 111),32	457,(6, 113),20	477,(6, 115),4	481,(8, 31),32	513,(8, 58),60	573,(8, 101),36	609,(8, 118),16	
