2819
# CPU
73,6,1	673,27,1	1153,40,1	1165,7,1	1293,10,1	1329,15,1	1429,20,1	1609,32,1	1637,38,1	1641,8,1	1721,17,1	1725,18,1	1769,19,1	1813,21,1	1817,24,1	1985,30,1	2025,31,1	2033,33,1	2053,34,1	2093,35,1	2153,37,1	2389,5,1	2397,9,1	2509,11,1	2553,12,1	2585,13,1	2641,14,1	2657,16,1	2661,22,1	2693,23,1	2705,25,1	2761,26,1	2769,28,1	2777,29,1	2809,36,1	2817,39,1	2818,41,1	
0,0,1	1,2,1	
17,1,1	49,4,1	
33,3,1	
# Incoming
49,(2, 6),24	73,(2, 7),4	77,(2, 8),60	137,(2, 11),20	157,(2, 17),476	633,(2, 21),4	637,(2, 22),4	641,(2, 24),16	657,(2, 27),16	673,(2, 28),332	1005,(2, 30),4	1009,(2, 40),144	1153,(1, 7),12	1165,(1, 10),128	1293,(1, 13),20	1313,(1, 15),16	1329,(1, 17),4	1333,(1, 20),96	1429,(1, 29),120	1549,(1, 32),60	1609,(1, 38),28	1637,(3, 8),4	1641,(3, 17),80	1721,(3, 18),4	1725,(3, 19),44	1769,(3, 21),44	1813,(3, 24),4	1817,(3, 30),168	1985,(3, 31),40	2025,(3, 33),8	2033,(3, 34),20	2053,(3, 35),40	2093,(3, 37),60	2153,(3, 39),16	2169,(4, 5),220	2389,(4, 9),8	2397,(4, 11),112	2509,(4, 12),44	2553,(4, 13),32	2585,(4, 14),56	2641,(4, 16),16	2657,(4, 22),4	2661,(4, 23),32	2693,(4, 25),12	2705,(4, 26),56	2761,(4, 28),8	2769,(4, 29),8	2777,(4, 36),32	2809,(4, 39),8	

1,(0, 1),16	33,(0, 4),16	
17,(0, 3),16	
# Outgoing

1,(0, 1),16	17,(0, 3),16	33,(0, 4),16	49,(2, 6),24	73,(2, 7),4	77,(2, 8),60	137,(2, 11),20	157,(2, 17),476	633,(2, 21),4	637,(2, 22),4	641,(2, 24),16	657,(2, 27),16	673,(2, 28),332	1005,(2, 30),4	1009,(2, 40),144	
1153,(1, 7),12	1165,(1, 10),128	1293,(1, 13),20	1313,(1, 15),16	1329,(1, 17),4	1333,(1, 20),96	1429,(1, 29),120	1549,(1, 32),60	1609,(1, 38),28	2169,(4, 5),220	2389,(4, 9),8	2397,(4, 11),112	2509,(4, 12),44	2553,(4, 13),32	2585,(4, 14),56	2641,(4, 16),16	2657,(4, 22),4	2661,(4, 23),32	2693,(4, 25),12	2705,(4, 26),56	2761,(4, 28),8	2769,(4, 29),8	2777,(4, 36),32	2809,(4, 39),8	
1637,(3, 8),4	1641,(3, 17),80	1721,(3, 18),4	1725,(3, 19),44	1769,(3, 21),44	1813,(3, 24),4	1817,(3, 30),168	1985,(3, 31),40	2025,(3, 33),8	2033,(3, 34),20	2053,(3, 35),40	2093,(3, 37),60	2153,(3, 39),16	
