362
# CPU
0,121,1	1,77,3	4,56,3	7,46,3	10,88,3	13,34,3	16,64,3	19,68,3	22,58,3	25,103,3	28,95,3	31,109,3	34,55,3	37,48,3	40,44,3	43,105,3	46,60,3	49,37,3	52,111,3	55,61,3	58,47,3	61,79,3	64,84,3	67,18,3	70,42,3	73,92,3	76,75,3	79,32,3	82,118,3	85,108,3	88,67,3	91,119,3	94,106,3	97,13,3	100,115,3	103,107,3	106,72,3	109,114,3	112,87,3	115,89,3	118,93,3	121,40,3	124,57,3	127,65,3	130,102,3	133,15,3	136,74,3	139,50,3	142,21,3	145,25,3	148,112,3	151,110,3	154,36,3	157,104,3	160,27,3	163,52,3	166,99,3	169,100,3	172,66,3	175,59,3	178,28,3	181,98,3	184,117,3	187,26,3	190,113,3	193,54,3	196,53,3	199,30,3	202,62,3	205,20,3	208,22,3	211,35,3	214,90,3	217,29,3	220,78,3	223,85,3	226,14,3	229,71,3	232,91,3	235,76,3	238,97,3	241,82,3	244,73,3	247,33,3	250,83,3	253,43,3	256,120,3	259,31,3	262,69,3	265,19,3	268,17,3	271,49,3	274,80,3	277,39,3	280,41,3	283,38,3	286,81,3	289,116,3	292,96,3	295,51,3	298,23,3	301,70,3	304,16,3	307,1,3	310,101,3	313,63,3	316,24,3	319,86,3	322,3,3	325,45,3	328,7,3	331,2,3	334,9,3	337,8,3	340,94,3	343,4,3	346,5,3	349,12,3	352,10,3	355,11,3	358,6,3	361,0,1	
# Incoming

# Outgoing

