831
# CPU
5,2,16	21,4,16	37,14,16	53,6,16	69,36,16	85,40,16	101,20,16	117,34,16	133,16,16	159,8,16	175,12,16	191,18,16	207,24,16	223,26,16	239,30,16	255,38,16	271,10,16	287,22,16	303,28,16	319,32,16	
0,0,1	1,3,16	17,1,16	33,37,16	49,29,16	65,13,16	81,19,16	97,21,16	113,5,16	129,27,16	145,25,16	161,7,16	177,23,16	193,9,16	209,11,16	225,15,16	241,17,16	257,31,16	273,33,16	289,35,16	305,39,16	830,41,1	
# Incoming
1,(0, 2),4	5,(0, 4),4	17,(3, 6),2	19,(3, 8),140	159,(3, 12),15	174,(3, 18),3	177,(3, 24),1	178,(3, 26),6	184,(3, 30),18	202,(3, 38),6	208,(1, 10),2	210,(1, 22),9	219,(1, 28),1	220,(1, 32),45	
21,(2, 13),5	26,(2, 19),3	29,(2, 21),3	32,(2, 23),13	45,(2, 33),4	49,(2, 35),3	52,(4, 9),4	56,(4, 11),2	58,(4, 15),105	163,(4, 17),37	200,(4, 31),13	213,(4, 33),1	214,(4, 35),3	217,(4, 39),1	218,(14, 41),34	252,(6, 41),34	286,(36, 41),34	320,(40, 41),34	354,(20, 41),34	388,(34, 41),34	422,(16, 41),34	456,(8, 41),34	490,(12, 41),34	524,(18, 41),34	558,(24, 41),34	592,(26, 41),34	626,(30, 41),34	660,(38, 41),34	694,(10, 41),34	728,(22, 41),34	762,(28, 41),34	796,(32, 41),34	
# Outgoing
21,(2, 13),5	26,(2, 19),3	29,(2, 21),3	32,(2, 23),13	45,(2, 33),4	49,(2, 35),3	52,(4, 9),4	56,(4, 11),2	58,(4, 15),105	163,(4, 17),37	200,(4, 31),13	213,(4, 33),1	214,(4, 35),3	217,(4, 39),1	218,(14, 41),34	252,(6, 41),34	286,(36, 41),34	320,(40, 41),34	354,(20, 41),34	388,(34, 41),34	422,(16, 41),34	456,(8, 41),34	490,(12, 41),34	524,(18, 41),34	558,(24, 41),34	592,(26, 41),34	626,(30, 41),34	660,(38, 41),34	694,(10, 41),34	728,(22, 41),34	762,(28, 41),34	796,(32, 41),34	
1,(0, 2),4	5,(0, 4),4	17,(3, 6),2	19,(3, 8),140	159,(3, 12),15	174,(3, 18),3	177,(3, 24),1	178,(3, 26),6	184,(3, 30),18	202,(3, 38),6	208,(1, 10),2	210,(1, 22),9	219,(1, 28),1	220,(1, 32),45	
