494
# CPU
0,0,1	1,2,46	47,6,46	93,11,46	139,19,46	185,13,46	231,20,46	277,3,46	323,9,46	369,15,46	415,12,46	
5,1,46	51,4,46	97,7,46	143,8,46	189,18,46	235,10,46	281,17,46	327,16,46	373,14,46	419,5,46	493,21,1	
# Incoming
51,(1, 9),4	55,(1, 15),52	107,(1, 12),224	
1,(0, 1),4	93,(6, 21),32	139,(11, 21),32	185,(19, 21),32	231,(13, 21),32	277,(20, 21),32	323,(3, 21),32	369,(9, 21),32	415,(15, 21),32	461,(12, 21),32	
# Outgoing
1,(0, 1),4	93,(6, 21),32	139,(11, 21),32	185,(19, 21),32	231,(13, 21),32	277,(20, 21),32	323,(3, 21),32	369,(9, 21),32	415,(15, 21),32	461,(12, 21),32	
51,(1, 9),4	55,(1, 15),52	107,(1, 12),224	
