155
# CPU
0,41,1	1,18,1	2,27,1	3,23,1	4,17,1	5,31,1	6,39,1	7,9,1	8,5,1	9,33,1	10,22,1	11,20,1	12,16,1	13,13,1	14,21,1	15,30,1	16,6,1	17,25,1	18,15,1	19,12,1	20,28,1	21,40,1	22,29,1	23,10,1	24,34,1	25,4,1	26,2,1	53,3,1	153,1,1	154,0,1	
3,36,1	9,19,1	13,14,1	15,37,1	21,24,1	23,35,1	25,32,1	
7,7,1	17,8,1	19,11,1	
5,26,1	11,38,1	
# Incoming
6,(26, 2),1	12,(38, 2),6	18,(14, 2),6	24,(36, 3),1	25,(19, 3),3	28,(37, 3),8	36,(11, 3),16	52,(32, 3),1	53,(7, 1),3	56,(8, 1),13	69,(24, 1),19	88,(35, 1),24	112,(32, 1),41	
1,(41, 36),2	7,(41, 19),2	11,(41, 14),2	13,(41, 37),2	19,(41, 24),2	21,(41, 35),2	23,(41, 32),2	
5,(41, 7),2	15,(41, 8),2	17,(41, 11),2	
3,(41, 26),2	9,(41, 38),2	
# Outgoing
1,(41, 36),2	3,(41, 26),2	5,(41, 7),2	7,(41, 19),2	9,(41, 38),2	11,(41, 14),2	13,(41, 37),2	15,(41, 8),2	17,(41, 11),2	19,(41, 24),2	21,(41, 35),2	23,(41, 32),2	
18,(14, 2),6	24,(36, 3),1	25,(19, 3),3	28,(37, 3),8	52,(32, 3),1	69,(24, 1),19	88,(35, 1),24	112,(32, 1),41	
36,(11, 3),16	53,(7, 1),3	56,(8, 1),13	
6,(26, 2),1	12,(38, 2),6	
