28982
# CPU
2065,5,143	3533,48,143	3676,53,143	4129,10,143	4272,25,143	4415,108,143	4909,33,143	5052,38,143	5195,118,143	5429,58,143	5661,63,143	5804,68,143	6553,17,143	6841,29,143	6984,43,143	7133,73,143	7353,83,143	7749,88,143	7969,113,143	8112,21,143	8301,78,143	8444,93,143	8587,98,143	8730,103,143	
1549,4,143	1692,31,143	3613,9,143	4881,27,143	5024,71,143	5253,51,143	6001,81,143	6277,101,143	6420,106,143	6563,16,143	6845,96,143	6988,36,143	7131,56,143	7713,86,143	7856,91,143	7999,111,143	8142,23,143	8285,41,143	8428,46,143	8571,61,143	8714,66,143	8857,76,143	9000,116,143	10097,19,143	
1033,3,143	3097,8,143	3240,50,143	3829,110,143	3972,13,143	4292,30,143	4435,80,143	4669,22,143	4872,70,143	5015,120,143	5158,40,143	5721,75,143	6669,26,143	6877,35,143	7373,85,143	7757,95,143	7900,100,143	8043,105,143	8186,18,143	8329,45,143	8472,55,143	8615,60,143	8758,65,143	8901,90,143	9044,115,143	
517,2,143	1808,28,143	2581,7,143	4645,12,143	5833,82,143	5976,92,143	6601,117,143	6901,37,143	7044,47,143	7187,52,143	7330,67,143	7473,77,143	7737,87,143	7880,102,143	8023,112,143	8166,15,143	8309,24,143	8452,32,143	8595,57,143	8738,62,143	8881,72,143	9024,97,143	11101,42,143	12045,107,143	
0,0,1	1,6,143	144,1,143	287,11,143	1416,34,143	3053,64,143	3196,109,143	3613,89,143	4485,104,143	4628,74,143	4771,84,143	4933,54,143	5076,14,143	5219,39,143	5362,44,143	5877,20,143	7129,59,143	7272,69,143	9461,79,143	9973,94,143	10116,119,143	10965,49,143	11108,99,143	11251,114,143	28981,121,1	
# Incoming
1549,(0, 5),516	2065,(2, 17),4	2069,(2, 25),20	2089,(2, 29),16	2105,(2, 48),8	2113,(2, 63),24	2137,(3, 21),80	2217,(3, 25),60	2277,(3, 33),4	2281,(3, 53),4	2285,(3, 73),16	2301,(3, 78),4	2305,(3, 93),20	2325,(3, 113),40	2365,(4, 38),32	2397,(4, 43),24	2421,(4, 58),104	2525,(4, 68),84	2609,(4, 73),132	2741,(4, 78),4	2745,(4, 88),4	2749,(4, 103),8	2757,(4, 113),32	2809,(2, 78),64	2873,(2, 88),4	2877,(2, 98),16	2893,(2, 103),4	2897,(3, 118),300	3197,(7, 17),44	3241,(7, 33),20	3261,(7, 53),56	3317,(7, 63),8	3325,(7, 88),4	3329,(8, 25),12	3341,(8, 43),4	3345,(8, 48),188	3533,(8, 53),4	3565,(8, 98),12	3577,(8, 108),16	3613,(0, 10),516	4129,(4, 98),112	4241,(9, 25),16	4257,(9, 33),8	4265,(9, 38),4	4269,(9, 43),56	4325,(9, 63),52	4377,(9, 88),4	4381,(9, 108),4	4781,(6, 33),128	4909,(12, 29),4	4913,(12, 43),4	4917,(6, 38),68	4985,(8, 118),112	5097,(12, 21),40	5137,(12, 68),12	5149,(12, 93),4	5153,(12, 103),24	5301,(12, 73),120	5425,(6, 58),4	5429,(6, 63),232	5661,(6, 68),20	5833,(6, 83),40	5873,(6, 88),260	6317,(6, 113),12	6549,(1, 17),4	6669,(1, 29),172	6901,(1, 43),4	7129,(1, 73),4	7225,(1, 83),128	7737,(1, 88),12	7765,(1, 98),4	7933,(1, 113),36	8005,(11, 21),4	8297,(11, 78),4	8305,(11, 93),80	8389,(11, 98),8	8397,(11, 103),4	
1033,(0, 4),516	1549,(2, 46),16	1565,(3, 16),4	1569,(3, 31),8	1577,(3, 36),12	1589,(3, 41),12	1601,(3, 71),4	1605,(3, 81),56	1661,(3, 101),68	1897,(3, 111),28	1933,(2, 101),24	1957,(3, 116),68	2137,(2, 76),672	2901,(7, 36),12	2913,(7, 56),92	3053,(7, 71),16	3069,(7, 91),8	3097,(0, 9),516	3613,(3, 106),928	4541,(5, 76),64	4605,(5, 81),4	4609,(5, 116),20	4629,(8, 27),4	4633,(8, 56),4	4637,(8, 81),4	4641,(8, 86),4	4669,(6, 23),16	4685,(6, 27),96	4788,(12, 19),20	4808,(12, 23),12	4844,(12, 36),12	4861,(10, 16),12	4873,(10, 27),8	4881,(10, 46),12	4893,(10, 71),8	4901,(10, 106),4	4909,(6, 36),8	4917,(10, 19),164	5081,(10, 36),72	5153,(10, 66),32	5185,(10, 96),12	5197,(12, 41),40	5237,(12, 46),8	5245,(12, 51),8	5433,(10, 61),340	5773,(12, 81),228	6001,(12, 86),20	6021,(12, 91),64	6085,(12, 101),12	6137,(6, 91),32	6273,(6, 101),4	6277,(6, 106),40	6329,(6, 116),8	6489,(1, 16),60	6629,(1, 19),4	6633,(12, 96),212	6877,(1, 36),16	6965,(1, 56),8	6973,(1, 66),4	6977,(12, 111),172	7373,(1, 86),340	7749,(1, 91),4	7925,(1, 111),4	8009,(11, 23),28	8053,(11, 41),4	8065,(11, 46),4	8149,(11, 61),44	8201,(11, 66),88	8293,(11, 76),4	8405,(11, 116),40	8445,(2, 19),1652	
517,(0, 3),516	1368,(2, 22),12	1416,(2, 55),60	1476,(2, 60),24	1500,(2, 65),4	1504,(2, 80),4	1508,(2, 90),4	1540,(2, 110),4	1733,(2, 70),132	1865,(2, 85),68	1933,(4, 22),40	1973,(4, 55),4	1977,(4, 90),32	2009,(4, 105),280	2289,(4, 110),4	2293,(4, 115),8	2581,(0, 8),516	3097,(7, 13),4	3101,(7, 22),8	3109,(7, 30),24	3133,(7, 45),4	3137,(7, 75),20	3157,(7, 110),4	3161,(7, 115),20	3261,(5, 30),64	3329,(5, 40),4	3425,(5, 70),64	3489,(5, 75),8	3497,(5, 85),60	3557,(5, 100),12	3817,(5, 110),12	3829,(5, 115),4	3845,(9, 13),4	3849,(9, 18),4	3997,(9, 70),12	4009,(9, 75),4	4089,(9, 90),20	4272,(10, 30),20	4292,(10, 70),4	4296,(10, 80),8	4653,(6, 22),16	4820,(12, 35),24	4856,(12, 45),12	4868,(12, 70),4	4872,(12, 120),4	4985,(6, 40),12	4997,(9, 100),200	5253,(12, 65),48	5421,(12, 85),56	5681,(6, 75),40	6133,(6, 90),4	6169,(6, 100),104	6553,(1, 18),76	6633,(1, 26),36	6841,(1, 35),36	7353,(1, 85),20	7753,(1, 95),4	7769,(1, 100),4	7801,(1, 105),124	8001,(11, 18),4	8057,(11, 45),8	8069,(11, 55),72	8145,(11, 60),4	8197,(11, 65),4	8301,(11, 90),4	8401,(11, 115),4	
1,(0, 2),516	1176,(3, 15),16	1192,(3, 28),4	1196,(3, 42),4	1200,(3, 57),36	1236,(3, 112),92	1692,(4, 15),4	1696,(4, 28),112	1808,(4, 47),32	1840,(4, 52),4	1844,(4, 57),8	1852,(4, 62),4	1856,(4, 67),4	2065,(0, 7),516	2581,(3, 102),312	2893,(4, 32),212	3105,(5, 24),156	3261,(8, 24),40	3301,(8, 52),4	3305,(8, 72),4	3309,(8, 82),8	3325,(5, 37),4	3333,(5, 42),4	3337,(5, 62),88	3537,(8, 67),28	3569,(4, 117),44	3613,(5, 77),204	3833,(5, 117),8	3853,(9, 24),24	3877,(9, 32),4	3881,(9, 37),4	3885,(9, 62),36	3921,(9, 67),76	4013,(9, 77),76	4109,(9, 102),12	4129,(0, 12),516	4645,(6, 15),8	4653,(8, 77),220	4873,(8, 87),48	4933,(9, 92),24	4957,(9, 97),40	4997,(6, 42),424	5421,(6, 52),4	5425,(10, 42),4	5429,(10, 57),4	5721,(6, 77),92	5813,(6, 82),20	5833,(10, 87),20	5853,(10, 92),4	5857,(10, 102),296	6337,(6, 117),16	6353,(1, 15),136	6489,(9, 107),16	6505,(9, 112),84	6589,(9, 117),12	6893,(1, 37),8	6905,(1, 47),56	6961,(1, 52),4	6977,(1, 67),152	7133,(1, 77),92	7713,(1, 87),24	7757,(1, 97),8	7773,(1, 102),28	7929,(1, 112),4	7969,(11, 15),32	8037,(11, 24),4	8041,(11, 32),12	8141,(11, 57),4	8193,(11, 62),4	8289,(11, 72),4	8385,(11, 97),4	8389,(4, 42),2712	11101,(4, 107),944	
660,(2, 14),708	1368,(3, 109),4	1380,(2, 34),36	1416,(3, 20),48	1464,(3, 49),16	1480,(3, 84),16	1512,(2, 94),12	1524,(2, 109),16	1565,(2, 69),168	1733,(3, 99),164	1897,(4, 74),4	1901,(4, 94),8	2025,(3, 119),104	2897,(7, 20),4	3005,(7, 59),32	3037,(7, 64),16	3077,(7, 109),16	3105,(4, 59),464	3569,(5, 44),4	3573,(5, 79),28	3601,(5, 84),4	3605,(5, 89),8	3613,(31, 121),232	3845,(28, 121),232	4077,(5, 94),8	4085,(5, 99),4	4089,(7, 94),220	4309,(7, 104),176	4485,(9, 59),16	4501,(9, 79),20	4521,(10, 14),8	4529,(10, 44),12	4541,(8, 20),4	4545,(8, 39),4	4549,(8, 54),4	4553,(8, 74),4	4557,(8, 84),28	4629,(48, 121),232	4861,(9, 54),72	4933,(12, 14),4	4937,(12, 39),132	5069,(12, 44),16	5097,(50, 121),232	5329,(9, 20),548	5877,(9, 49),472	6349,(9, 119),64	6413,(53, 121),232	6645,(110, 121),232	6877,(13, 121),232	7109,(10, 59),20	7129,(10, 69),4	7133,(10, 79),2328	9461,(10, 94),512	9973,(10, 114),28	10001,(10, 119),8	10009,(25, 121),232	10241,(30, 121),232	10473,(108, 121),232	10705,(80, 121),232	10937,(12, 49),28	10965,(12, 99),24	10989,(12, 114),24	11013,(22, 121),232	11245,(70, 121),232	11477,(33, 121),232	11709,(120, 121),232	12045,(27, 121),232	12277,(71, 121),232	12509,(38, 121),232	12741,(40, 121),232	12973,(118, 121),232	13205,(51, 121),232	13437,(58, 121),232	13669,(63, 121),232	13901,(75, 121),232	14133,(68, 121),232	14365,(82, 121),232	14597,(92, 121),232	14829,(81, 121),232	15061,(101, 121),232	15293,(106, 121),232	15525,(17, 121),232	15757,(16, 121),232	15989,(117, 121),232	16221,(26, 121),232	16453,(29, 121),232	16685,(96, 121),232	16917,(35, 121),232	17149,(37, 121),232	17381,(43, 121),232	17613,(36, 121),232	17845,(47, 121),232	18077,(56, 121),232	18309,(73, 121),232	18541,(52, 121),232	18773,(67, 121),232	19005,(83, 121),232	19237,(85, 121),232	19469,(77, 121),232	19701,(86, 121),232	19933,(87, 121),232	20165,(88, 121),232	20397,(95, 121),232	20629,(91, 121),232	20861,(102, 121),232	21093,(100, 121),232	21325,(113, 121),232	21557,(111, 121),232	21789,(112, 121),232	22021,(105, 121),232	22253,(21, 121),232	22485,(23, 121),232	22717,(15, 121),232	22949,(18, 121),232	23181,(41, 121),232	23413,(78, 121),232	23645,(24, 121),232	23877,(45, 121),232	24109,(46, 121),232	24341,(93, 121),232	24573,(32, 121),232	24805,(55, 121),232	25037,(61, 121),232	25269,(98, 121),232	25501,(57, 121),232	25733,(60, 121),232	25965,(66, 121),232	26197,(103, 121),232	26429,(62, 121),232	26661,(65, 121),232	26893,(76, 121),232	27125,(72, 121),232	27357,(90, 121),232	27589,(116, 121),232	27821,(97, 121),232	28053,(115, 121),232	28285,(19, 121),232	28517,(42, 121),232	28749,(107, 121),232	
# Outgoing
3105,(5, 24),156	3261,(5, 30),64	3325,(5, 37),4	3329,(5, 40),4	3333,(5, 42),4	3337,(5, 62),88	3425,(5, 70),64	3489,(5, 75),8	3497,(5, 85),60	3557,(5, 100),12	3569,(5, 44),4	3573,(5, 79),28	3601,(5, 84),4	3605,(5, 89),8	3613,(5, 77),204	3817,(5, 110),12	3829,(5, 115),4	3833,(5, 117),8	4077,(5, 94),8	4085,(5, 99),4	4272,(10, 30),20	4292,(10, 70),4	4296,(10, 80),8	4521,(10, 14),8	4529,(10, 44),12	4541,(5, 76),64	4605,(5, 81),4	4609,(5, 116),20	4629,(48, 121),232	4861,(10, 16),12	4873,(10, 27),8	4881,(10, 46),12	4893,(10, 71),8	4901,(10, 106),4	4917,(10, 19),164	5081,(10, 36),72	5153,(10, 66),32	5185,(10, 96),12	5425,(10, 42),4	5429,(10, 57),4	5433,(10, 61),340	5833,(10, 87),20	5853,(10, 92),4	5857,(10, 102),296	6413,(53, 121),232	7109,(10, 59),20	7129,(10, 69),4	7133,(10, 79),2328	9461,(10, 94),512	9973,(10, 114),28	10001,(10, 119),8	10009,(25, 121),232	10473,(108, 121),232	11477,(33, 121),232	12509,(38, 121),232	12973,(118, 121),232	13437,(58, 121),232	13669,(63, 121),232	14133,(68, 121),232	15525,(17, 121),232	16453,(29, 121),232	17381,(43, 121),232	18309,(73, 121),232	19005,(83, 121),232	20165,(88, 121),232	21325,(113, 121),232	22253,(21, 121),232	23413,(78, 121),232	24341,(93, 121),232	25269,(98, 121),232	26197,(103, 121),232	
1692,(4, 15),4	1696,(4, 28),112	1808,(4, 47),32	1840,(4, 52),4	1844,(4, 57),8	1852,(4, 62),4	1856,(4, 67),4	1897,(4, 74),4	1901,(4, 94),8	1933,(4, 22),40	1973,(4, 55),4	1977,(4, 90),32	2009,(4, 105),280	2289,(4, 110),4	2293,(4, 115),8	2365,(4, 38),32	2397,(4, 43),24	2421,(4, 58),104	2525,(4, 68),84	2609,(4, 73),132	2741,(4, 78),4	2745,(4, 88),4	2749,(4, 103),8	2757,(4, 113),32	2893,(4, 32),212	3105,(4, 59),464	3569,(4, 117),44	3613,(31, 121),232	3845,(9, 13),4	3849,(9, 18),4	3853,(9, 24),24	3877,(9, 32),4	3881,(9, 37),4	3885,(9, 62),36	3921,(9, 67),76	3997,(9, 70),12	4009,(9, 75),4	4013,(9, 77),76	4089,(9, 90),20	4109,(9, 102),12	4129,(4, 98),112	4241,(9, 25),16	4257,(9, 33),8	4265,(9, 38),4	4269,(9, 43),56	4325,(9, 63),52	4377,(9, 88),4	4381,(9, 108),4	4485,(9, 59),16	4501,(9, 79),20	4861,(9, 54),72	4933,(9, 92),24	4957,(9, 97),40	4997,(9, 100),200	5329,(9, 20),548	5877,(9, 49),472	6349,(9, 119),64	6489,(9, 107),16	6505,(9, 112),84	6589,(9, 117),12	8389,(4, 42),2712	11101,(4, 107),944	12045,(27, 121),232	12277,(71, 121),232	13205,(51, 121),232	14829,(81, 121),232	15061,(101, 121),232	15293,(106, 121),232	15757,(16, 121),232	16685,(96, 121),232	17613,(36, 121),232	18077,(56, 121),232	19701,(86, 121),232	20629,(91, 121),232	21557,(111, 121),232	22485,(23, 121),232	23181,(41, 121),232	24109,(46, 121),232	25037,(61, 121),232	25965,(66, 121),232	26893,(76, 121),232	27589,(116, 121),232	28285,(19, 121),232	
1176,(3, 15),16	1192,(3, 28),4	1196,(3, 42),4	1200,(3, 57),36	1236,(3, 112),92	1368,(3, 109),4	1416,(3, 20),48	1464,(3, 49),16	1480,(3, 84),16	1565,(3, 16),4	1569,(3, 31),8	1577,(3, 36),12	1589,(3, 41),12	1601,(3, 71),4	1605,(3, 81),56	1661,(3, 101),68	1733,(3, 99),164	1897,(3, 111),28	1957,(3, 116),68	2025,(3, 119),104	2137,(3, 21),80	2217,(3, 25),60	2277,(3, 33),4	2281,(3, 53),4	2285,(3, 73),16	2301,(3, 78),4	2305,(3, 93),20	2325,(3, 113),40	2581,(3, 102),312	2897,(3, 118),300	3261,(8, 24),40	3301,(8, 52),4	3305,(8, 72),4	3309,(8, 82),8	3329,(8, 25),12	3341,(8, 43),4	3345,(8, 48),188	3533,(8, 53),4	3537,(8, 67),28	3565,(8, 98),12	3577,(8, 108),16	3613,(3, 106),928	4541,(8, 20),4	4545,(8, 39),4	4549,(8, 54),4	4553,(8, 74),4	4557,(8, 84),28	4629,(8, 27),4	4633,(8, 56),4	4637,(8, 81),4	4641,(8, 86),4	4653,(8, 77),220	4873,(8, 87),48	4985,(8, 118),112	5097,(50, 121),232	6645,(110, 121),232	6877,(13, 121),232	10241,(30, 121),232	10705,(80, 121),232	11013,(22, 121),232	11245,(70, 121),232	11709,(120, 121),232	12741,(40, 121),232	13901,(75, 121),232	16221,(26, 121),232	16917,(35, 121),232	19237,(85, 121),232	20397,(95, 121),232	21093,(100, 121),232	22021,(105, 121),232	22949,(18, 121),232	23877,(45, 121),232	24805,(55, 121),232	25733,(60, 121),232	26661,(65, 121),232	27357,(90, 121),232	28053,(115, 121),232	
660,(2, 14),708	1368,(2, 22),12	1380,(2, 34),36	1416,(2, 55),60	1476,(2, 60),24	1500,(2, 65),4	1504,(2, 80),4	1508,(2, 90),4	1512,(2, 94),12	1524,(2, 109),16	1540,(2, 110),4	1549,(2, 46),16	1565,(2, 69),168	1733,(2, 70),132	1865,(2, 85),68	1933,(2, 101),24	2065,(2, 17),4	2069,(2, 25),20	2089,(2, 29),16	2105,(2, 48),8	2113,(2, 63),24	2137,(2, 76),672	2809,(2, 78),64	2873,(2, 88),4	2877,(2, 98),16	2893,(2, 103),4	2897,(7, 20),4	2901,(7, 36),12	2913,(7, 56),92	3005,(7, 59),32	3037,(7, 64),16	3053,(7, 71),16	3069,(7, 91),8	3077,(7, 109),16	3097,(7, 13),4	3101,(7, 22),8	3109,(7, 30),24	3133,(7, 45),4	3137,(7, 75),20	3157,(7, 110),4	3161,(7, 115),20	3197,(7, 17),44	3241,(7, 33),20	3261,(7, 53),56	3317,(7, 63),8	3325,(7, 88),4	3845,(28, 121),232	4089,(7, 94),220	4309,(7, 104),176	4788,(12, 19),20	4808,(12, 23),12	4820,(12, 35),24	4844,(12, 36),12	4856,(12, 45),12	4868,(12, 70),4	4872,(12, 120),4	4909,(12, 29),4	4913,(12, 43),4	4933,(12, 14),4	4937,(12, 39),132	5069,(12, 44),16	5097,(12, 21),40	5137,(12, 68),12	5149,(12, 93),4	5153,(12, 103),24	5197,(12, 41),40	5237,(12, 46),8	5245,(12, 51),8	5253,(12, 65),48	5301,(12, 73),120	5421,(12, 85),56	5773,(12, 81),228	6001,(12, 86),20	6021,(12, 91),64	6085,(12, 101),12	6633,(12, 96),212	6977,(12, 111),172	8445,(2, 19),1652	10937,(12, 49),28	10965,(12, 99),24	10989,(12, 114),24	14365,(82, 121),232	14597,(92, 121),232	15989,(117, 121),232	17149,(37, 121),232	17845,(47, 121),232	18541,(52, 121),232	18773,(67, 121),232	19469,(77, 121),232	19933,(87, 121),232	20861,(102, 121),232	21789,(112, 121),232	22717,(15, 121),232	23645,(24, 121),232	24573,(32, 121),232	25501,(57, 121),232	26429,(62, 121),232	27125,(72, 121),232	27821,(97, 121),232	28517,(42, 121),232	28749,(107, 121),232	
1,(0, 2),516	517,(0, 3),516	1033,(0, 4),516	1549,(0, 5),516	2065,(0, 7),516	2581,(0, 8),516	3097,(0, 9),516	3613,(0, 10),516	4129,(0, 12),516	4645,(6, 15),8	4653,(6, 22),16	4669,(6, 23),16	4685,(6, 27),96	4781,(6, 33),128	4909,(6, 36),8	4917,(6, 38),68	4985,(6, 40),12	4997,(6, 42),424	5421,(6, 52),4	5425,(6, 58),4	5429,(6, 63),232	5661,(6, 68),20	5681,(6, 75),40	5721,(6, 77),92	5813,(6, 82),20	5833,(6, 83),40	5873,(6, 88),260	6133,(6, 90),4	6137,(6, 91),32	6169,(6, 100),104	6273,(6, 101),4	6277,(6, 106),40	6317,(6, 113),12	6329,(6, 116),8	6337,(6, 117),16	6353,(1, 15),136	6489,(1, 16),60	6549,(1, 17),4	6553,(1, 18),76	6629,(1, 19),4	6633,(1, 26),36	6669,(1, 29),172	6841,(1, 35),36	6877,(1, 36),16	6893,(1, 37),8	6901,(1, 43),4	6905,(1, 47),56	6961,(1, 52),4	6965,(1, 56),8	6973,(1, 66),4	6977,(1, 67),152	7129,(1, 73),4	7133,(1, 77),92	7225,(1, 83),128	7353,(1, 85),20	7373,(1, 86),340	7713,(1, 87),24	7737,(1, 88),12	7749,(1, 91),4	7753,(1, 95),4	7757,(1, 97),8	7765,(1, 98),4	7769,(1, 100),4	7773,(1, 102),28	7801,(1, 105),124	7925,(1, 111),4	7929,(1, 112),4	7933,(1, 113),36	7969,(11, 15),32	8001,(11, 18),4	8005,(11, 21),4	8009,(11, 23),28	8037,(11, 24),4	8041,(11, 32),12	8053,(11, 41),4	8057,(11, 45),8	8065,(11, 46),4	8069,(11, 55),72	8141,(11, 57),4	8145,(11, 60),4	8149,(11, 61),44	8193,(11, 62),4	8197,(11, 65),4	8201,(11, 66),88	8289,(11, 72),4	8293,(11, 76),4	8297,(11, 78),4	8301,(11, 90),4	8305,(11, 93),80	8385,(11, 97),4	8389,(11, 98),8	8397,(11, 103),4	8401,(11, 115),4	8405,(11, 116),40	
