3647
# CPU
952,28,3	1114,18,3	1159,38,3	1498,58,3	1525,48,3	2350,68,3	2869,78,3	
988,27,3	1519,47,3	2122,17,3	2644,57,3	2683,67,3	2803,77,3	3085,37,3	
127,8,3	229,56,3	982,26,3	1117,46,3	1171,16,3	1543,66,3	1897,36,3	2800,76,3	
109,7,3	271,65,3	397,15,3	541,45,3	583,25,3	1447,75,3	1561,55,3	1762,35,3	
91,6,3	859,24,3	952,34,3	1336,44,3	1558,54,3	1798,14,3	2254,64,3	2797,74,3	
73,5,3	544,13,3	562,23,3	754,43,3	829,53,3	1405,33,3	2152,63,3	2773,73,3	
55,4,3	526,12,3	844,22,3	919,32,3	1219,42,3	1714,52,3	2146,62,3	2668,72,3	
37,3,3	829,11,3	841,21,3	937,31,3	967,41,3	1354,61,3	2587,71,3	2821,51,3	
19,2,3	358,10,3	508,20,3	592,70,3	904,30,3	964,40,3	1246,80,3	1537,50,3	1840,60,3	
0,0,1	1,1,3	403,9,3	535,79,3	601,29,3	784,19,3	1048,39,3	1270,59,3	1468,49,3	3574,69,3	3646,81,1	
# Incoming
829,(1, 18),3	832,(3, 28),3	835,(2, 18),12	847,(3, 48),3	850,(3, 78),3	853,(4, 28),18	871,(5, 18),27	898,(5, 28),6	904,(5, 38),21	925,(6, 48),3	928,(6, 58),6	934,(7, 28),18	952,(1, 38),3	955,(3, 18),159	1114,(5, 48),6	1120,(5, 58),33	1153,(7, 38),6	1159,(7, 48),6	1165,(7, 68),3	1168,(8, 68),6	1219,(2, 48),18	1267,(2, 58),48	1315,(6, 68),63	1378,(6, 78),24	1405,(3, 58),93	1519,(1, 48),6	2320,(1, 68),30	2803,(1, 78),66	
814,(1, 17),15	829,(3, 17),3	832,(4, 27),12	844,(4, 47),9	853,(5, 57),3	856,(6, 17),3	859,(1, 27),6	865,(3, 27),45	910,(3, 77),15	925,(4, 67),9	934,(6, 27),12	946,(6, 37),6	952,(6, 77),3	955,(2, 27),33	988,(4, 77),36	1024,(8, 47),3	1027,(8, 57),3	1042,(2, 37),111	1153,(4, 37),78	1231,(7, 37),3	1237,(2, 57),30	1267,(5, 47),18	1285,(6, 57),21	1336,(1, 47),183	1519,(2, 17),603	2122,(2, 77),3	2125,(5, 37),72	2197,(5, 77),24	2254,(1, 67),66	2320,(7, 57),324	2644,(8, 67),39	2800,(1, 77),3	2803,(8, 37),282	
109,(0, 8),18	127,(6, 26),6	133,(6, 46),3	136,(5, 56),3	151,(7, 26),3	163,(3, 26),3	166,(7, 46),9	181,(5, 16),27	208,(6, 56),3	211,(6, 76),6	217,(7, 56),12	235,(5, 26),9	310,(6, 66),21	352,(5, 76),30	397,(1, 16),417	814,(2, 16),21	835,(3, 76),3	847,(2, 26),108	955,(4, 26),27	988,(2, 36),54	1042,(4, 36),21	1063,(4, 46),54	1117,(6, 16),54	1171,(7, 66),39	1354,(2, 66),9	1363,(4, 76),42	1498,(3, 66),45	1543,(5, 36),354	2797,(1, 76),3	
91,(0, 7),18	112,(6, 15),3	118,(6, 25),9	136,(3, 15),3	139,(6, 45),12	166,(3, 35),15	184,(3, 55),18	202,(6, 75),3	247,(3, 65),24	271,(8, 25),3	274,(8, 35),3	280,(3, 75),12	292,(1, 15),105	397,(5, 35),15	415,(4, 35),3	442,(5, 45),87	529,(8, 45),12	577,(2, 25),6	592,(8, 75),225	1231,(4, 75),102	1441,(2, 75),6	1558,(1, 55),3	1561,(6, 35),201	
73,(0, 6),18	124,(5, 14),12	136,(7, 24),15	154,(7, 44),3	181,(3, 44),3	223,(5, 24),12	253,(8, 44),3	259,(5, 44),63	322,(8, 74),3	340,(5, 64),6	346,(5, 74),6	352,(8, 54),48	409,(4, 24),3	421,(4, 44),30	451,(4, 64),3	457,(4, 74),30	502,(3, 74),15	547,(7, 64),39	685,(2, 34),66	751,(2, 44),6	805,(2, 54),3	844,(1, 24),15	925,(1, 34),27	976,(1, 44),360	1549,(1, 54),9	1558,(4, 14),240	2152,(1, 64),102	2773,(1, 74),24	
55,(0, 5),18	124,(3, 13),12	136,(6, 63),3	142,(3, 23),21	163,(6, 23),15	178,(6, 43),9	187,(7, 23),6	193,(7, 53),3	232,(3, 63),15	247,(7, 43),45	292,(7, 63),36	328,(8, 13),15	343,(8, 53),9	382,(3, 53),120	502,(4, 13),24	526,(2, 13),18	544,(4, 23),18	562,(4, 33),3	577,(8, 63),6	583,(8, 73),9	667,(6, 73),18	733,(4, 43),21	754,(4, 53),75	871,(4, 63),15	919,(1, 33),6	952,(7, 33),156	1114,(3, 33),291	1405,(2, 73),36	1441,(7, 73),126	2146,(1, 63),6	2668,(1, 73),105	
37,(0, 4),18	100,(3, 12),24	139,(3, 22),3	142,(5, 12),39	181,(7, 32),3	187,(6, 52),9	196,(7, 12),12	208,(5, 22),15	223,(6, 62),15	244,(5, 42),15	259,(6, 12),51	310,(8, 42),9	322,(5, 52),18	340,(6, 42),30	370,(7, 22),45	415,(8, 12),21	436,(8, 22),24	460,(8, 62),12	523,(2, 12),3	601,(2, 32),84	685,(7, 72),48	757,(2, 52),48	811,(2, 72),3	841,(1, 22),3	907,(1, 32),12	967,(1, 42),9	1030,(8, 72),102	1153,(2, 42),66	1234,(7, 52),189	1423,(8, 52),291	1840,(1, 62),306	2587,(1, 72),81	
19,(0, 3),18	70,(2, 11),453	523,(6, 11),3	526,(4, 41),12	538,(6, 21),3	541,(6, 51),3	544,(7, 11),3	547,(2, 21),30	577,(4, 11),27	604,(4, 21),36	640,(5, 11),54	694,(6, 31),84	778,(6, 71),6	784,(5, 21),33	817,(7, 21),3	820,(7, 41),3	823,(7, 51),3	826,(8, 11),3	829,(8, 41),3	832,(1, 21),9	841,(7, 61),39	880,(8, 61),3	886,(4, 71),12	904,(1, 31),3	907,(8, 31),30	964,(1, 41),3	1108,(7, 71),30	1315,(2, 61),39	1363,(2, 71),42	1537,(1, 51),12	2350,(1, 71),237	2587,(5, 51),234	
1,(0, 2),18	76,(5, 10),48	127,(1, 10),165	292,(3, 10),66	358,(3, 30),3	361,(3, 50),21	382,(5, 20),9	391,(5, 60),3	394,(6, 30),3	397,(6, 50),15	415,(7, 50),3	418,(4, 40),3	421,(5, 40),21	442,(6, 60),36	478,(7, 70),3	481,(7, 80),9	490,(4, 80),3	493,(8, 20),15	508,(8, 30),6	514,(8, 60),6	529,(5, 70),6	535,(3, 80),12	547,(5, 50),9	556,(6, 70),36	640,(4, 30),93	733,(7, 40),84	865,(1, 30),39	955,(1, 40),9	964,(6, 80),111	1174,(8, 80),72	1525,(1, 50),12	1561,(1, 60),279	
22,(2, 9),48	70,(3, 9),30	100,(6, 9),12	115,(6, 19),3	118,(7, 9),12	130,(7, 19),3	133,(7, 29),3	151,(6, 49),12	163,(7, 39),3	175,(7, 59),6	196,(6, 79),3	202,(3, 59),30	232,(8, 9),18	250,(8, 29),3	256,(8, 69),3	259,(8, 79),3	271,(3, 69),9	280,(4, 9),123	403,(4, 19),6	412,(4, 29),3	415,(5, 59),6	421,(7, 69),24	454,(4, 69),3	457,(65, 81),12	472,(56, 81),12	487,(4, 79),3	490,(15, 81),12	517,(3, 79),18	544,(2, 19),3	547,(8, 49),30	583,(2, 29),18	601,(6, 69),66	667,(45, 81),12	694,(5, 19),90	808,(2, 69),3	817,(13, 81),12	829,(23, 81),12	841,(43, 81),12	853,(11, 81),12	865,(24, 81),12	880,(25, 81),12	898,(12, 81),12	910,(22, 81),12	925,(5, 39),123	1048,(53, 81),12	1060,(28, 81),12	1075,(34, 81),12	1087,(27, 81),12	1117,(32, 81),12	1132,(26, 81),12	1144,(18, 81),12	1156,(46, 81),12	1171,(6, 59),99	1270,(38, 81),12	1285,(5, 49),183	1468,(10, 81),12	1480,(20, 81),12	1492,(70, 81),12	1504,(30, 81),12	1516,(42, 81),12	1528,(44, 81),12	1543,(21, 81),12	1555,(31, 81),12	1567,(41, 81),12	1579,(61, 81),12	1591,(75, 81),12	1603,(58, 81),12	1615,(47, 81),12	1627,(48, 81),12	1639,(55, 81),12	1714,(16, 81),12	1726,(66, 81),12	1762,(54, 81),12	1774,(35, 81),12	1798,(52, 81),12	1810,(14, 81),12	1897,(33, 81),12	1909,(36, 81),12	2125,(40, 81),12	2137,(80, 81),12	2149,(50, 81),12	2161,(60, 81),12	2173,(17, 81),12	2185,(62, 81),12	2221,(63, 81),12	2257,(64, 81),12	2353,(68, 81),12	2590,(71, 81),12	2647,(57, 81),12	2671,(72, 81),12	2686,(67, 81),12	2800,(74, 81),12	2821,(5, 69),753	3574,(73, 81),12	3586,(76, 81),12	3598,(77, 81),12	3610,(51, 81),12	3622,(78, 81),12	3634,(37, 81),12	
# Outgoing
1060,(28, 81),12	1144,(18, 81),12	1270,(38, 81),12	1603,(58, 81),12	1627,(48, 81),12	2353,(68, 81),12	3622,(78, 81),12	
1087,(27, 81),12	1615,(47, 81),12	2173,(17, 81),12	2647,(57, 81),12	2686,(67, 81),12	3598,(77, 81),12	3634,(37, 81),12	
232,(8, 9),18	250,(8, 29),3	253,(8, 44),3	256,(8, 69),3	259,(8, 79),3	271,(8, 25),3	274,(8, 35),3	310,(8, 42),9	322,(8, 74),3	328,(8, 13),15	343,(8, 53),9	352,(8, 54),48	415,(8, 12),21	436,(8, 22),24	460,(8, 62),12	472,(56, 81),12	493,(8, 20),15	508,(8, 30),6	514,(8, 60),6	529,(8, 45),12	547,(8, 49),30	577,(8, 63),6	583,(8, 73),9	592,(8, 75),225	826,(8, 11),3	829,(8, 41),3	880,(8, 61),3	907,(8, 31),30	1024,(8, 47),3	1027,(8, 57),3	1030,(8, 72),102	1132,(26, 81),12	1156,(46, 81),12	1168,(8, 68),6	1174,(8, 80),72	1423,(8, 52),291	1714,(16, 81),12	1726,(66, 81),12	1909,(36, 81),12	2644,(8, 67),39	2803,(8, 37),282	3586,(76, 81),12	
118,(7, 9),12	130,(7, 19),3	133,(7, 29),3	136,(7, 24),15	151,(7, 26),3	154,(7, 44),3	163,(7, 39),3	166,(7, 46),9	175,(7, 59),6	181,(7, 32),3	187,(7, 23),6	193,(7, 53),3	196,(7, 12),12	217,(7, 56),12	247,(7, 43),45	292,(7, 63),36	370,(7, 22),45	415,(7, 50),3	421,(7, 69),24	457,(65, 81),12	478,(7, 70),3	481,(7, 80),9	490,(15, 81),12	544,(7, 11),3	547,(7, 64),39	667,(45, 81),12	685,(7, 72),48	733,(7, 40),84	817,(7, 21),3	820,(7, 41),3	823,(7, 51),3	841,(7, 61),39	880,(25, 81),12	934,(7, 28),18	952,(7, 33),156	1108,(7, 71),30	1153,(7, 38),6	1159,(7, 48),6	1165,(7, 68),3	1171,(7, 66),39	1231,(7, 37),3	1234,(7, 52),189	1441,(7, 73),126	1591,(75, 81),12	1639,(55, 81),12	1774,(35, 81),12	2320,(7, 57),324	
100,(6, 9),12	112,(6, 15),3	115,(6, 19),3	118,(6, 25),9	127,(6, 26),6	133,(6, 46),3	136,(6, 63),3	139,(6, 45),12	151,(6, 49),12	163,(6, 23),15	178,(6, 43),9	187,(6, 52),9	196,(6, 79),3	202,(6, 75),3	208,(6, 56),3	211,(6, 76),6	223,(6, 62),15	259,(6, 12),51	310,(6, 66),21	340,(6, 42),30	394,(6, 30),3	397,(6, 50),15	442,(6, 60),36	523,(6, 11),3	538,(6, 21),3	541,(6, 51),3	556,(6, 70),36	601,(6, 69),66	667,(6, 73),18	694,(6, 31),84	778,(6, 71),6	856,(6, 17),3	865,(24, 81),12	925,(6, 48),3	928,(6, 58),6	934,(6, 27),12	946,(6, 37),6	952,(6, 77),3	964,(6, 80),111	1075,(34, 81),12	1117,(6, 16),54	1171,(6, 59),99	1285,(6, 57),21	1315,(6, 68),63	1378,(6, 78),24	1528,(44, 81),12	1561,(6, 35),201	1762,(54, 81),12	1810,(14, 81),12	2257,(64, 81),12	2800,(74, 81),12	
76,(5, 10),48	124,(5, 14),12	136,(5, 56),3	142,(5, 12),39	181,(5, 16),27	208,(5, 22),15	223,(5, 24),12	235,(5, 26),9	244,(5, 42),15	259,(5, 44),63	322,(5, 52),18	340,(5, 64),6	346,(5, 74),6	352,(5, 76),30	382,(5, 20),9	391,(5, 60),3	397,(5, 35),15	415,(5, 59),6	421,(5, 40),21	442,(5, 45),87	529,(5, 70),6	547,(5, 50),9	640,(5, 11),54	694,(5, 19),90	784,(5, 21),33	817,(13, 81),12	829,(23, 81),12	841,(43, 81),12	853,(5, 57),3	871,(5, 18),27	898,(5, 28),6	904,(5, 38),21	925,(5, 39),123	1048,(53, 81),12	1114,(5, 48),6	1120,(5, 58),33	1267,(5, 47),18	1285,(5, 49),183	1543,(5, 36),354	1897,(33, 81),12	2125,(5, 37),72	2197,(5, 77),24	2221,(63, 81),12	2587,(5, 51),234	2821,(5, 69),753	3574,(73, 81),12	
280,(4, 9),123	403,(4, 19),6	409,(4, 24),3	412,(4, 29),3	415,(4, 35),3	418,(4, 40),3	421,(4, 44),30	451,(4, 64),3	454,(4, 69),3	457,(4, 74),30	487,(4, 79),3	490,(4, 80),3	502,(4, 13),24	526,(4, 41),12	544,(4, 23),18	562,(4, 33),3	577,(4, 11),27	604,(4, 21),36	640,(4, 30),93	733,(4, 43),21	754,(4, 53),75	832,(4, 27),12	844,(4, 47),9	853,(4, 28),18	871,(4, 63),15	886,(4, 71),12	898,(12, 81),12	910,(22, 81),12	925,(4, 67),9	955,(4, 26),27	988,(4, 77),36	1042,(4, 36),21	1063,(4, 46),54	1117,(32, 81),12	1153,(4, 37),78	1231,(4, 75),102	1363,(4, 76),42	1516,(42, 81),12	1558,(4, 14),240	1798,(52, 81),12	2185,(62, 81),12	2671,(72, 81),12	
70,(3, 9),30	100,(3, 12),24	124,(3, 13),12	136,(3, 15),3	139,(3, 22),3	142,(3, 23),21	163,(3, 26),3	166,(3, 35),15	181,(3, 44),3	184,(3, 55),18	202,(3, 59),30	232,(3, 63),15	247,(3, 65),24	271,(3, 69),9	280,(3, 75),12	292,(3, 10),66	358,(3, 30),3	361,(3, 50),21	382,(3, 53),120	502,(3, 74),15	517,(3, 79),18	535,(3, 80),12	829,(3, 17),3	832,(3, 28),3	835,(3, 76),3	847,(3, 48),3	850,(3, 78),3	853,(11, 81),12	865,(3, 27),45	910,(3, 77),15	955,(3, 18),159	1114,(3, 33),291	1405,(3, 58),93	1498,(3, 66),45	1543,(21, 81),12	1555,(31, 81),12	1567,(41, 81),12	1579,(61, 81),12	2590,(71, 81),12	3610,(51, 81),12	
22,(2, 9),48	70,(2, 11),453	523,(2, 12),3	526,(2, 13),18	544,(2, 19),3	547,(2, 21),30	577,(2, 25),6	583,(2, 29),18	601,(2, 32),84	685,(2, 34),66	751,(2, 44),6	757,(2, 52),48	805,(2, 54),3	808,(2, 69),3	811,(2, 72),3	814,(2, 16),21	835,(2, 18),12	847,(2, 26),108	955,(2, 27),33	988,(2, 36),54	1042,(2, 37),111	1153,(2, 42),66	1219,(2, 48),18	1237,(2, 57),30	1267,(2, 58),48	1315,(2, 61),39	1354,(2, 66),9	1363,(2, 71),42	1405,(2, 73),36	1441,(2, 75),6	1468,(10, 81),12	1480,(20, 81),12	1492,(70, 81),12	1504,(30, 81),12	1519,(2, 17),603	2122,(2, 77),3	2125,(40, 81),12	2137,(80, 81),12	2149,(50, 81),12	2161,(60, 81),12	
1,(0, 2),18	19,(0, 3),18	37,(0, 4),18	55,(0, 5),18	73,(0, 6),18	91,(0, 7),18	109,(0, 8),18	127,(1, 10),165	292,(1, 15),105	397,(1, 16),417	814,(1, 17),15	829,(1, 18),3	832,(1, 21),9	841,(1, 22),3	844,(1, 24),15	859,(1, 27),6	865,(1, 30),39	904,(1, 31),3	907,(1, 32),12	919,(1, 33),6	925,(1, 34),27	952,(1, 38),3	955,(1, 40),9	964,(1, 41),3	967,(1, 42),9	976,(1, 44),360	1336,(1, 47),183	1519,(1, 48),6	1525,(1, 50),12	1537,(1, 51),12	1549,(1, 54),9	1558,(1, 55),3	1561,(1, 60),279	1840,(1, 62),306	2146,(1, 63),6	2152,(1, 64),102	2254,(1, 67),66	2320,(1, 68),30	2350,(1, 71),237	2587,(1, 72),81	2668,(1, 73),105	2773,(1, 74),24	2797,(1, 76),3	2800,(1, 77),3	2803,(1, 78),66	
