376
# CPU
4,4,9	13,8,9	22,64,9	31,68,9	40,20,9	49,28,9	58,76,9	143,72,9	203,52,9	212,12,9	221,16,9	253,48,9	262,60,9	289,80,9	298,44,9	307,24,9	316,32,9	325,36,9	334,40,9	343,56,9	
3,3,9	12,7,9	21,11,9	30,19,9	39,39,9	48,59,9	57,27,9	66,63,9	75,67,9	100,15,9	142,31,9	151,51,9	188,75,9	197,47,9	206,55,9	215,23,9	225,71,9	247,35,9	311,43,9	349,79,9	
2,2,9	11,6,9	20,30,9	29,50,9	38,18,9	47,58,9	144,66,9	159,38,9	169,62,9	199,34,9	208,42,9	217,74,9	230,26,9	256,22,9	265,78,9	279,10,9	288,14,9	297,46,9	327,54,9	336,70,9	
0,0,1	1,5,9	10,1,9	19,73,9	28,9,9	37,69,9	46,25,9	225,33,9	248,77,9	257,13,9	266,45,9	275,41,9	284,61,9	293,49,9	302,53,9	311,57,9	320,17,9	329,37,9	338,29,9	347,21,9	356,65,9	375,81,1	
# Incoming
3,(0, 4),1	6,(0, 8),1	25,(5, 40),1	42,(5, 72),101	143,(2, 16),58	202,(2, 52),1	203,(1, 12),6	209,(1, 16),5	247,(1, 48),6	253,(1, 60),2	256,(2, 80),33	289,(3, 44),2	291,(6, 24),4	295,(6, 32),3	298,(6, 40),2	305,(7, 36),3	308,(7, 40),3	311,(6, 56),23	
2,(0, 3),1	5,(0, 7),1	10,(5, 11),1	12,(5, 27),13	32,(5, 63),4	36,(5, 67),6	42,(4, 15),58	100,(4, 31),42	142,(4, 51),1	143,(5, 75),45	188,(8, 47),1	189,(8, 55),5	201,(2, 23),1	224,(2, 71),1	230,(1, 35),17	248,(2, 79),8	300,(6, 43),11	338,(6, 79),11	
1,(0, 2),1	4,(0, 6),1	11,(5, 18),1	26,(5, 58),6	143,(4, 66),1	144,(8, 14),11	155,(8, 38),4	159,(8, 62),10	188,(5, 78),10	198,(1, 34),1	199,(1, 42),1	200,(1, 74),1	214,(1, 26),16	255,(3, 22),1	258,(3, 78),7	265,(1, 70),12	277,(7, 10),2	279,(7, 14),2	281,(7, 46),6	311,(7, 54),16	327,(7, 70),6	
203,(2, 57),21	224,(4, 33),1	225,(2, 77),23	248,(3, 13),7	255,(8, 45),1	256,(3, 41),1	257,(3, 61),1	258,(4, 49),5	263,(4, 53),3	266,(4, 57),3	269,(7, 17),5	274,(8, 37),15	289,(6, 29),1	290,(30, 81),1	291,(7, 21),14	305,(64, 81),1	306,(68, 81),1	307,(20, 81),1	308,(28, 81),1	309,(76, 81),1	310,(72, 81),1	311,(52, 81),1	312,(12, 81),1	313,(16, 81),1	314,(48, 81),1	315,(60, 81),1	316,(80, 81),1	317,(44, 81),1	318,(24, 81),1	325,(32, 81),1	333,(11, 81),1	334,(6, 65),4	338,(19, 81),1	339,(39, 81),1	340,(59, 81),1	341,(27, 81),1	342,(63, 81),1	343,(67, 81),1	344,(15, 81),1	345,(31, 81),1	346,(51, 81),1	347,(75, 81),1	348,(47, 81),1	349,(50, 81),1	350,(18, 81),1	351,(58, 81),1	352,(66, 81),1	353,(38, 81),1	354,(62, 81),1	355,(34, 81),1	356,(55, 81),1	357,(42, 81),1	358,(23, 81),1	359,(74, 81),1	360,(71, 81),1	361,(26, 81),1	362,(35, 81),1	363,(22, 81),1	364,(78, 81),1	365,(10, 81),1	366,(14, 81),1	367,(46, 81),1	368,(43, 81),1	369,(36, 81),1	370,(54, 81),1	371,(40, 81),1	372,(70, 81),1	373,(56, 81),1	374,(79, 81),1	
# Outgoing
42,(4, 15),58	100,(4, 31),42	142,(4, 51),1	143,(4, 66),1	144,(8, 14),11	155,(8, 38),4	159,(8, 62),10	188,(8, 47),1	189,(8, 55),5	224,(4, 33),1	255,(8, 45),1	258,(4, 49),5	263,(4, 53),3	266,(4, 57),3	274,(8, 37),15	305,(64, 81),1	306,(68, 81),1	307,(20, 81),1	308,(28, 81),1	309,(76, 81),1	310,(72, 81),1	311,(52, 81),1	312,(12, 81),1	313,(16, 81),1	314,(48, 81),1	315,(60, 81),1	316,(80, 81),1	317,(44, 81),1	318,(24, 81),1	325,(32, 81),1	369,(36, 81),1	371,(40, 81),1	373,(56, 81),1	
248,(3, 13),7	255,(3, 22),1	256,(3, 41),1	257,(3, 61),1	258,(3, 78),7	269,(7, 17),5	277,(7, 10),2	279,(7, 14),2	281,(7, 46),6	289,(3, 44),2	291,(7, 21),14	305,(7, 36),3	308,(7, 40),3	311,(7, 54),16	327,(7, 70),6	333,(11, 81),1	338,(19, 81),1	339,(39, 81),1	340,(59, 81),1	341,(27, 81),1	342,(63, 81),1	343,(67, 81),1	344,(15, 81),1	345,(31, 81),1	346,(51, 81),1	347,(75, 81),1	348,(47, 81),1	356,(55, 81),1	358,(23, 81),1	360,(71, 81),1	362,(35, 81),1	368,(43, 81),1	374,(79, 81),1	
143,(2, 16),58	201,(2, 23),1	202,(2, 52),1	203,(2, 57),21	224,(2, 71),1	225,(2, 77),23	248,(2, 79),8	256,(2, 80),33	289,(6, 29),1	290,(30, 81),1	291,(6, 24),4	295,(6, 32),3	298,(6, 40),2	300,(6, 43),11	311,(6, 56),23	334,(6, 65),4	338,(6, 79),11	349,(50, 81),1	350,(18, 81),1	351,(58, 81),1	352,(66, 81),1	353,(38, 81),1	354,(62, 81),1	355,(34, 81),1	357,(42, 81),1	359,(74, 81),1	361,(26, 81),1	363,(22, 81),1	364,(78, 81),1	365,(10, 81),1	366,(14, 81),1	367,(46, 81),1	370,(54, 81),1	372,(70, 81),1	
1,(0, 2),1	2,(0, 3),1	3,(0, 4),1	4,(0, 6),1	5,(0, 7),1	6,(0, 8),1	10,(5, 11),1	11,(5, 18),1	12,(5, 27),13	25,(5, 40),1	26,(5, 58),6	32,(5, 63),4	36,(5, 67),6	42,(5, 72),101	143,(5, 75),45	188,(5, 78),10	198,(1, 34),1	199,(1, 42),1	200,(1, 74),1	203,(1, 12),6	209,(1, 16),5	214,(1, 26),16	230,(1, 35),17	247,(1, 48),6	253,(1, 60),2	265,(1, 70),12	
