1213
# CPU
145,10,6	151,27,6	157,51,6	169,74,6	175,98,6	181,115,6	192,43,6	201,58,6	236,66,6	262,38,6	279,83,6	301,107,6	439,90,6	
129,9,6	135,54,6	141,94,6	147,31,6	171,70,6	177,24,6	190,41,6	196,111,6	202,47,6	208,86,6	214,103,6	227,78,6	241,119,6	263,62,6	
113,8,6	119,113,6	125,88,6	131,57,6	144,81,6	178,36,6	198,72,6	206,65,6	252,50,6	261,23,6	290,96,6	296,105,6	436,42,6	
97,7,6	103,77,6	109,22,6	115,39,6	121,46,6	127,53,6	133,61,6	169,118,6	178,110,6	305,69,6	311,85,6	317,93,6	323,101,6	329,29,6	
81,6,6	87,82,6	93,18,6	99,56,6	179,33,6	188,34,6	199,49,6	214,73,6	220,106,6	279,114,6	289,89,6	295,97,6	358,64,6	
65,5,6	71,17,6	77,32,6	83,92,6	89,60,6	169,68,6	175,28,6	199,76,6	237,84,6	260,52,6	266,109,6	273,45,6	292,100,6	326,117,6	
49,4,6	55,15,6	61,87,6	67,25,6	166,26,6	203,71,6	219,80,6	225,95,6	267,120,6	273,48,6	279,55,6	285,63,6	294,104,6	332,112,6	
33,3,6	39,108,6	45,116,6	95,67,6	143,79,6	149,59,6	176,13,6	195,44,6	260,21,6	275,75,6	297,91,6	421,30,6	512,99,6	1212,121,1	
17,2,6	161,12,6	167,16,6	173,20,6	260,37,6	278,102,6	
0,0,1	1,11,6	7,1,6	88,19,6	247,35,6	258,14,6	422,40,6	
# Incoming
129,(0, 10),16	145,(2, 27),3	148,(2, 51),3	151,(2, 74),18	169,(2, 98),4	173,(2, 115),4	177,(3, 43),15	192,(3, 107),3	199,(11, 58),2	201,(3, 66),35	246,(12, 83),5	261,(9, 38),1	275,(1, 83),4	295,(1, 107),6	422,(12, 90),17	
113,(0, 9),16	129,(3, 54),2	131,(3, 94),1	137,(6, 31),5	169,(10, 70),2	176,(7, 24),1	188,(7, 41),2	190,(10, 111),2	195,(11, 47),3	201,(7, 86),6	213,(7, 103),1	214,(10, 78),13	227,(10, 119),14	252,(6, 62),11	
97,(0, 8),16	113,(2, 36),1	114,(2, 65),4	118,(3, 113),1	119,(5, 57),2	121,(5, 105),12	133,(6, 23),4	143,(4, 81),1	177,(12, 36),1	197,(7, 72),1	201,(11, 65),5	247,(6, 42),4	251,(6, 50),1	258,(9, 23),3	262,(9, 42),2	289,(1, 96),1	294,(1, 105),1	295,(5, 42),141	
81,(0, 7),16	97,(2, 77),1	98,(3, 22),1	99,(3, 39),2	101,(3, 46),1	102,(3, 53),2	104,(5, 29),3	120,(8, 53),7	127,(8, 61),2	132,(3, 118),37	169,(4, 110),9	178,(12, 85),1	242,(11, 101),8	260,(1, 29),9	269,(6, 69),36	305,(6, 85),3	308,(6, 93),1	309,(6, 101),14	323,(9, 29),1	
65,(0, 6),16	81,(2, 82),1	172,(11, 34),5	177,(7, 33),2	179,(12, 34),9	198,(11, 49),1	203,(12, 73),11	214,(12, 106),4	237,(11, 97),5	278,(9, 114),1	279,(1, 89),10	290,(1, 97),1	324,(9, 64),34	
49,(0, 5),16	65,(2, 17),1	66,(3, 45),1	67,(4, 60),7	82,(2, 117),15	129,(8, 100),13	166,(10, 68),3	171,(11, 28),1	190,(7, 45),7	198,(7, 76),1	199,(7, 84),2	207,(7, 100),6	219,(11, 84),18	237,(7, 52),23	263,(6, 109),1	264,(9, 45),3	269,(1, 45),4	291,(1, 100),1	292,(10, 117),34	
33,(0, 4),16	51,(3, 25),9	66,(2, 95),5	71,(2, 120),1	151,(10, 26),15	171,(10, 71),16	187,(10, 120),1	188,(12, 71),15	206,(11, 80),13	219,(7, 95),2	221,(12, 112),1	264,(6, 120),3	267,(9, 48),1	268,(9, 55),5	273,(1, 63),1	292,(1, 104),2	323,(6, 112),9	
17,(0, 3),16	74,(4, 67),21	95,(4, 79),48	143,(8, 59),1	144,(15, 121),10	154,(87, 121),10	164,(17, 121),10	174,(7, 13),2	177,(11, 44),18	195,(25, 121),10	205,(32, 121),10	215,(92, 121),10	225,(60, 121),10	235,(12, 30),11	250,(1, 21),10	260,(77, 121),10	270,(8, 75),4	274,(1, 75),1	275,(7, 91),22	301,(19, 121),10	311,(22, 121),10	321,(39, 121),10	332,(82, 121),10	342,(18, 121),10	352,(56, 121),10	362,(113, 121),10	372,(46, 121),10	382,(88, 121),10	392,(53, 121),10	402,(9, 30),19	421,(57, 121),10	431,(61, 121),10	441,(54, 121),10	451,(94, 121),10	461,(81, 121),10	471,(31, 121),10	481,(27, 121),10	491,(51, 121),10	501,(12, 99),11	512,(26, 121),10	522,(16, 121),10	532,(118, 121),10	542,(74, 121),10	552,(68, 121),10	562,(70, 121),10	572,(20, 121),10	582,(98, 121),10	592,(28, 121),10	602,(24, 121),10	612,(110, 121),10	622,(36, 121),10	632,(33, 121),10	642,(115, 121),10	652,(34, 121),10	662,(41, 121),10	672,(43, 121),10	682,(111, 121),10	692,(72, 121),10	702,(76, 121),10	712,(49, 121),10	722,(58, 121),10	732,(47, 121),10	742,(71, 121),10	752,(65, 121),10	762,(86, 121),10	772,(73, 121),10	782,(103, 121),10	792,(80, 121),10	802,(106, 121),10	812,(95, 121),10	822,(78, 121),10	832,(66, 121),10	842,(84, 121),10	852,(119, 121),10	862,(35, 121),10	872,(50, 121),10	882,(14, 121),10	892,(37, 121),10	902,(52, 121),10	912,(23, 121),10	922,(38, 121),10	932,(62, 121),10	942,(109, 121),10	952,(120, 121),10	962,(45, 121),10	972,(48, 121),10	982,(102, 121),10	992,(83, 121),10	1002,(55, 121),10	1012,(114, 121),10	1022,(63, 121),10	1032,(89, 121),10	1042,(96, 121),10	1052,(100, 121),10	1062,(104, 121),10	1072,(97, 121),10	1082,(105, 121),10	1092,(107, 121),10	1102,(69, 121),10	1112,(85, 121),10	1122,(93, 121),10	1132,(101, 121),10	1142,(117, 121),10	1152,(29, 121),10	1162,(112, 121),10	1172,(64, 121),10	1182,(40, 121),10	1192,(42, 121),10	1202,(90, 121),10	
1,(0, 2),16	88,(5, 37),1	119,(8, 20),1	145,(0, 12),16	161,(11, 16),1	162,(11, 20),9	179,(7, 37),9	188,(8, 37),72	273,(9, 102),5	
39,(3, 19),12	55,(4, 19),1	71,(5, 19),17	142,(6, 35),105	247,(9, 14),11	258,(12, 40),164	
# Outgoing
151,(10, 26),15	166,(10, 68),3	169,(10, 70),2	171,(10, 71),16	187,(10, 120),1	190,(10, 111),2	214,(10, 78),13	227,(10, 119),14	292,(10, 117),34	481,(27, 121),10	491,(51, 121),10	542,(74, 121),10	582,(98, 121),10	642,(115, 121),10	672,(43, 121),10	722,(58, 121),10	832,(66, 121),10	922,(38, 121),10	992,(83, 121),10	1092,(107, 121),10	1202,(90, 121),10	
247,(9, 14),11	258,(9, 23),3	261,(9, 38),1	262,(9, 42),2	264,(9, 45),3	267,(9, 48),1	268,(9, 55),5	273,(9, 102),5	278,(9, 114),1	323,(9, 29),1	324,(9, 64),34	402,(9, 30),19	441,(54, 121),10	451,(94, 121),10	471,(31, 121),10	562,(70, 121),10	602,(24, 121),10	662,(41, 121),10	682,(111, 121),10	732,(47, 121),10	762,(86, 121),10	782,(103, 121),10	822,(78, 121),10	852,(119, 121),10	932,(62, 121),10	
119,(8, 20),1	120,(8, 53),7	127,(8, 61),2	129,(8, 100),13	143,(8, 59),1	188,(8, 37),72	270,(8, 75),4	362,(113, 121),10	382,(88, 121),10	421,(57, 121),10	461,(81, 121),10	622,(36, 121),10	692,(72, 121),10	752,(65, 121),10	872,(50, 121),10	912,(23, 121),10	1042,(96, 121),10	1082,(105, 121),10	1192,(42, 121),10	
174,(7, 13),2	176,(7, 24),1	177,(7, 33),2	179,(7, 37),9	188,(7, 41),2	190,(7, 45),7	197,(7, 72),1	198,(7, 76),1	199,(7, 84),2	201,(7, 86),6	207,(7, 100),6	213,(7, 103),1	219,(7, 95),2	237,(7, 52),23	260,(77, 121),10	275,(7, 91),22	311,(22, 121),10	321,(39, 121),10	372,(46, 121),10	392,(53, 121),10	431,(61, 121),10	532,(118, 121),10	612,(110, 121),10	1102,(69, 121),10	1112,(85, 121),10	1122,(93, 121),10	1132,(101, 121),10	1152,(29, 121),10	
133,(6, 23),4	137,(6, 31),5	142,(6, 35),105	247,(6, 42),4	251,(6, 50),1	252,(6, 62),11	263,(6, 109),1	264,(6, 120),3	269,(6, 69),36	305,(6, 85),3	308,(6, 93),1	309,(6, 101),14	323,(6, 112),9	332,(82, 121),10	342,(18, 121),10	352,(56, 121),10	632,(33, 121),10	652,(34, 121),10	712,(49, 121),10	772,(73, 121),10	802,(106, 121),10	1012,(114, 121),10	1032,(89, 121),10	1072,(97, 121),10	1172,(64, 121),10	
71,(5, 19),17	88,(5, 37),1	104,(5, 29),3	119,(5, 57),2	121,(5, 105),12	164,(17, 121),10	205,(32, 121),10	215,(92, 121),10	225,(60, 121),10	295,(5, 42),141	552,(68, 121),10	592,(28, 121),10	702,(76, 121),10	842,(84, 121),10	902,(52, 121),10	942,(109, 121),10	962,(45, 121),10	1052,(100, 121),10	1142,(117, 121),10	
55,(4, 19),1	67,(4, 60),7	74,(4, 67),21	95,(4, 79),48	143,(4, 81),1	144,(15, 121),10	154,(87, 121),10	169,(4, 110),9	195,(25, 121),10	512,(26, 121),10	742,(71, 121),10	792,(80, 121),10	812,(95, 121),10	952,(120, 121),10	972,(48, 121),10	1002,(55, 121),10	1022,(63, 121),10	1062,(104, 121),10	1162,(112, 121),10	
39,(3, 19),12	51,(3, 25),9	66,(3, 45),1	98,(3, 22),1	99,(3, 39),2	101,(3, 46),1	102,(3, 53),2	118,(3, 113),1	129,(3, 54),2	131,(3, 94),1	132,(3, 118),37	177,(3, 43),15	192,(3, 107),3	201,(3, 66),35	
65,(2, 17),1	66,(2, 95),5	71,(2, 120),1	81,(2, 82),1	82,(2, 117),15	97,(2, 77),1	113,(2, 36),1	114,(2, 65),4	145,(2, 27),3	148,(2, 51),3	151,(2, 74),18	169,(2, 98),4	173,(2, 115),4	177,(12, 36),1	178,(12, 85),1	179,(12, 34),9	188,(12, 71),15	203,(12, 73),11	214,(12, 106),4	221,(12, 112),1	235,(12, 30),11	246,(12, 83),5	258,(12, 40),164	422,(12, 90),17	501,(12, 99),11	522,(16, 121),10	572,(20, 121),10	892,(37, 121),10	982,(102, 121),10	
1,(0, 2),16	17,(0, 3),16	33,(0, 4),16	49,(0, 5),16	65,(0, 6),16	81,(0, 7),16	97,(0, 8),16	113,(0, 9),16	129,(0, 10),16	145,(0, 12),16	161,(11, 16),1	162,(11, 20),9	171,(11, 28),1	172,(11, 34),5	177,(11, 44),18	195,(11, 47),3	198,(11, 49),1	199,(11, 58),2	201,(11, 65),5	206,(11, 80),13	219,(11, 84),18	237,(11, 97),5	242,(11, 101),8	250,(1, 21),10	260,(1, 29),9	269,(1, 45),4	273,(1, 63),1	274,(1, 75),1	275,(1, 83),4	279,(1, 89),10	289,(1, 96),1	290,(1, 97),1	291,(1, 100),1	292,(1, 104),2	294,(1, 105),1	295,(1, 107),6	301,(19, 121),10	862,(35, 121),10	882,(14, 121),10	1182,(40, 121),10	
