250
# CPU
3,1,8	11,12,8	19,16,8	27,20,8	35,4,8	43,8,8	51,9,8	59,13,8	67,14,8	75,17,8	
0,0,1	1,2,8	9,11,8	17,19,8	25,15,8	173,3,8	181,5,8	209,6,8	217,7,8	229,10,8	237,18,8	249,21,1	
# Incoming
1,(0, 1),2	9,(2, 4),16	25,(2, 8),2	27,(2, 9),2	29,(2, 13),2	31,(2, 14),4	35,(2, 17),6	
11,(1, 3),162	173,(1, 5),6	179,(1, 6),30	209,(1, 7),6	215,(1, 10),14	229,(1, 18),2	231,(12, 21),2	233,(16, 21),2	235,(20, 21),2	237,(4, 21),2	239,(8, 21),2	241,(9, 21),2	243,(13, 21),2	245,(14, 21),2	247,(17, 21),2	
# Outgoing
11,(1, 3),162	173,(1, 5),6	179,(1, 6),30	209,(1, 7),6	215,(1, 10),14	229,(1, 18),2	231,(12, 21),2	233,(16, 21),2	235,(20, 21),2	237,(4, 21),2	239,(8, 21),2	241,(9, 21),2	243,(13, 21),2	245,(14, 21),2	247,(17, 21),2	
1,(0, 1),2	9,(2, 4),16	25,(2, 8),2	27,(2, 9),2	29,(2, 13),2	31,(2, 14),4	35,(2, 17),6	
