202
# CPU
0,0,1	1,12,1	2,14,1	3,15,1	4,17,1	5,10,1	6,7,1	7,13,1	8,3,1	9,4,1	10,19,1	11,16,1	12,11,1	13,6,1	14,108,1	15,18,1	16,58,1	17,9,1	18,150,1	19,68,1	20,85,1	21,8,1	22,129,1	23,154,1	24,139,1	25,190,1	26,52,1	27,2,1	28,179,1	29,73,1	30,116,1	31,77,1	32,81,1	33,136,1	34,20,1	35,163,1	36,147,1	37,23,1	38,115,1	39,169,1	40,110,1	41,100,1	42,182,1	43,109,1	44,75,1	45,51,1	46,197,1	47,71,1	48,72,1	49,66,1	50,196,1	51,41,1	52,176,1	53,33,1	54,112,1	55,49,1	56,130,1	57,35,1	58,1,1	59,95,1	60,114,1	61,59,1	62,165,1	63,67,1	64,21,1	65,167,1	66,177,1	67,160,1	68,79,1	69,185,1	70,60,1	71,120,1	72,31,1	73,94,1	74,162,1	75,195,1	76,54,1	77,156,1	78,97,1	79,175,1	80,117,1	81,157,1	82,132,1	83,125,1	84,183,1	85,128,1	86,131,1	87,191,1	88,45,1	89,26,1	90,124,1	91,122,1	92,161,1	93,181,1	94,98,1	95,105,1	96,111,1	97,164,1	98,198,1	99,186,1	100,135,1	101,113,1	102,127,1	103,192,1	104,82,1	105,152,1	106,57,1	107,87,1	108,189,1	109,50,1	110,159,1	111,146,1	112,29,1	113,143,1	114,27,1	115,140,1	116,151,1	117,180,1	118,5,1	119,193,1	120,90,1	121,199,1	122,30,1	123,134,1	124,80,1	125,188,1	126,200,1	127,126,1	128,25,1	129,42,1	130,137,1	131,84,1	132,99,1	133,74,1	134,141,1	135,103,1	136,28,1	137,69,1	138,48,1	139,32,1	140,173,1	141,96,1	142,158,1	143,55,1	144,61,1	145,178,1	146,37,1	147,101,1	148,40,1	149,168,1	150,123,1	151,104,1	152,144,1	153,78,1	154,184,1	155,47,1	156,119,1	157,76,1	158,56,1	159,107,1	160,166,1	161,86,1	162,89,1	163,44,1	164,46,1	165,187,1	166,24,1	167,118,1	168,91,1	169,70,1	170,22,1	171,174,1	172,145,1	173,92,1	174,65,1	175,171,1	176,170,1	177,62,1	178,83,1	179,38,1	180,121,1	181,106,1	182,138,1	183,36,1	184,43,1	185,63,1	186,53,1	187,149,1	188,93,1	189,133,1	190,142,1	191,172,1	192,34,1	193,88,1	194,64,1	195,102,1	196,153,1	197,39,1	198,148,1	199,155,1	200,194,1	201,201,1	


# Incoming



# Outgoing



