101
# CPU
0,0,1	1,1,8	9,19,8	17,9,8	25,17,8	33,6,8	41,14,8	49,7,8	57,13,8	
4,2,8	12,4,8	20,10,8	28,16,8	36,5,8	44,12,8	52,18,8	60,8,8	68,3,8	76,15,8	84,20,8	92,11,8	100,21,1	
# Incoming

1,(0, 2),3	17,(19, 21),6	25,(9, 21),6	33,(17, 21),6	41,(6, 21),6	49,(14, 21),6	57,(7, 21),6	65,(13, 21),6	
# Outgoing
1,(0, 2),3	17,(19, 21),6	25,(9, 21),6	33,(17, 21),6	41,(6, 21),6	49,(14, 21),6	57,(7, 21),6	65,(13, 21),6	

