1246
# CPU
145,10,41	191,100,41	271,70,41	312,80,41	353,90,41	394,50,41	435,120,41	476,24,41	517,30,41	558,60,41	632,110,41	957,40,41	
129,9,41	177,99,41	218,22,41	259,29,41	300,59,41	341,89,41	382,79,41	423,49,41	935,39,41	976,119,41	1017,69,41	1058,109,41	
113,8,41	173,28,41	214,38,41	277,78,41	318,108,41	364,48,41	636,98,41	677,88,41	718,118,41	969,68,41	1065,20,41	1197,58,41	
97,7,41	138,67,41	179,19,41	220,37,41	261,97,41	302,27,41	343,47,41	384,57,41	425,117,41	466,87,41	564,107,41	947,77,41	
81,6,41	122,96,41	163,26,41	224,56,41	318,66,41	568,86,41	609,36,41	650,116,41	691,46,41	732,106,41	934,17,41	975,76,41	
65,5,41	157,16,41	198,105,41	239,45,41	280,65,41	321,115,41	362,35,41	403,95,41	626,75,41	950,85,41	991,55,41	1119,25,41	
49,4,41	93,114,41	134,15,41	175,54,41	477,84,41	518,44,41	559,104,41	600,94,41	641,23,41	682,64,41	923,34,41	964,74,41	
33,3,41	77,53,41	118,13,41	212,21,41	274,63,41	315,83,41	358,103,41	399,113,41	477,33,41	591,73,41	952,93,41	993,43,41	
17,2,41	58,82,41	161,12,41	202,32,41	243,72,41	284,18,41	325,112,41	424,52,41	562,62,41	603,102,41	977,92,41	1168,42,41	
0,0,1	1,11,41	42,1,41	83,31,41	124,14,41	176,71,41	217,111,41	258,61,41	299,41,41	340,81,41	951,91,41	992,101,41	1033,51,41	1245,121,1	
# Incoming
129,(0, 10),16	145,(2, 40),1	146,(2, 100),45	191,(3, 70),73	264,(4, 60),1	265,(5, 24),2	267,(5, 70),4	271,(5, 80),5	276,(6, 80),4	291,(3, 90),4	310,(11, 50),3	313,(5, 120),3	316,(6, 24),16	475,(1, 30),1	486,(1, 60),1	627,(1, 110),5	923,(7, 40),34	
113,(0, 9),16	129,(2, 39),1	130,(2, 79),1	131,(3, 22),40	171,(4, 59),3	174,(4, 79),2	176,(4, 99),1	177,(4, 119),6	183,(5, 22),16	199,(6, 22),1	200,(6, 29),24	224,(8, 59),9	233,(8, 69),4	237,(8, 89),1	238,(8, 109),5	243,(8, 119),11	264,(3, 79),27	291,(12, 79),1	319,(11, 79),4	323,(5, 49),49	715,(1, 119),8	934,(10, 39),1	953,(10, 119),3	969,(7, 69),7	977,(7, 109),24	
97,(0, 8),16	113,(2, 28),9	122,(2, 78),1	123,(2, 98),1	133,(6, 28),1	152,(4, 68),6	162,(4, 78),1	171,(3, 28),2	184,(3, 48),2	195,(6, 38),1	209,(5, 48),33	242,(5, 58),1	243,(6, 48),7	276,(9, 78),1	296,(5, 98),10	306,(5, 108),3	309,(12, 48),55	364,(12, 118),16	568,(3, 98),68	636,(1, 68),14	650,(1, 88),14	664,(1, 118),51	968,(7, 68),1	969,(10, 20),96	1168,(10, 58),29	
81,(0, 7),16	97,(2, 57),8	137,(4, 37),5	157,(8, 19),5	162,(8, 47),1	177,(3, 37),1	196,(6, 97),1	199,(5, 27),1	200,(8, 117),5	205,(12, 77),1	209,(9, 47),1	224,(9, 57),2	226,(12, 107),12	250,(6, 117),9	291,(5, 87),5	563,(1, 107),1	946,(10, 77),1	
65,(0, 6),16	95,(4, 26),42	158,(4, 76),4	168,(8, 86),1	176,(8, 116),6	208,(9, 46),1	210,(9, 56),14	225,(4, 106),24	255,(12, 66),10	274,(9, 76),2	277,(9, 86),2	281,(12, 86),4	295,(3, 116),5	314,(11, 66),4	318,(11, 76),1	325,(11, 86),18	358,(11, 106),117	475,(3, 86),93	568,(1, 17),2	570,(1, 36),3	573,(9, 116),31	604,(12, 46),22	626,(1, 106),1	627,(7, 17),274	901,(10, 17),33	934,(12, 76),18	
49,(0, 5),16	65,(2, 16),3	127,(6, 16),1	128,(6, 25),5	148,(4, 55),4	154,(8, 16),3	163,(4, 105),2	173,(3, 35),4	178,(3, 45),6	184,(8, 65),2	186,(8, 115),6	194,(6, 35),1	227,(6, 95),11	238,(9, 25),29	267,(12, 75),14	323,(11, 85),2	343,(11, 95),1	591,(1, 75),35	947,(10, 85),3	962,(7, 55),6	1065,(10, 25),54	
33,(0, 4),16	58,(2, 15),4	77,(2, 94),14	91,(2, 114),2	122,(6, 15),5	163,(8, 54),3	166,(8, 64),2	187,(3, 104),2	195,(11, 44),115	310,(3, 74),157	467,(5, 23),2	469,(5, 64),2	471,(9, 84),6	477,(1, 44),9	486,(5, 34),22	508,(6, 104),20	528,(9, 94),10	538,(12, 23),17	555,(12, 34),26	581,(12, 64),2	583,(12, 74),1	901,(7, 34),22	943,(10, 74),3	
17,(0, 3),16	68,(2, 53),9	90,(4, 13),1	134,(6, 33),60	194,(11, 33),1	200,(5, 33),9	209,(12, 21),3	212,(12, 43),2	251,(5, 73),11	267,(9, 63),7	276,(5, 83),15	291,(8, 113),45	336,(9, 103),6	344,(11, 103),14	358,(9, 113),7	476,(1, 33),1	573,(1, 73),18	935,(10, 43),8	951,(10, 93),1	957,(7, 43),2	
1,(0, 2),16	145,(0, 12),16	161,(11, 18),33	194,(8, 32),1	195,(9, 18),12	207,(9, 42),1	249,(4, 112),6	287,(9, 92),24	313,(11, 62),1	372,(5, 52),52	487,(1, 62),75	562,(1, 102),1	976,(7, 92),1	1119,(10, 42),49	
62,(2, 31),3	91,(4, 14),4	105,(82, 121),4	142,(4, 51),6	165,(114, 121),4	169,(8, 41),5	174,(8, 71),2	186,(3, 51),1	189,(3, 111),1	190,(4, 91),22	212,(4, 101),13	225,(6, 51),2	227,(9, 41),11	238,(96, 121),4	243,(5, 61),8	251,(12, 41),4	255,(15, 121),4	262,(5, 81),1	263,(26, 121),4	267,(28, 121),4	271,(54, 121),4	275,(38, 121),4	279,(9, 91),8	287,(32, 121),4	291,(56, 121),4	295,(72, 121),4	300,(53, 121),4	304,(13, 121),4	309,(16, 121),4	313,(99, 121),4	317,(105, 121),4	321,(22, 121),4	325,(29, 121),4	336,(78, 121),4	342,(59, 121),4	359,(66, 121),4	363,(108, 121),4	380,(18, 121),4	384,(112, 121),4	388,(89, 121),4	405,(48, 121),4	424,(45, 121),4	428,(65, 121),4	432,(115, 121),4	436,(35, 121),4	440,(79, 121),4	444,(95, 121),4	467,(21, 121),4	471,(63, 121),4	477,(49, 121),4	481,(52, 121),4	518,(84, 121),4	559,(44, 121),4	600,(104, 121),4	609,(86, 121),4	626,(62, 121),4	636,(83, 121),4	640,(103, 121),4	644,(113, 121),4	648,(33, 121),4	652,(73, 121),4	656,(94, 121),4	660,(102, 121),4	664,(36, 121),4	668,(75, 121),4	677,(98, 121),4	682,(23, 121),4	691,(116, 121),4	718,(88, 121),4	723,(64, 121),4	732,(46, 121),4	759,(118, 121),4	773,(106, 121),4	950,(10, 91),1	952,(10, 101),1	959,(7, 51),3	962,(100, 121),4	966,(34, 121),4	975,(17, 121),4	979,(39, 121),4	991,(85, 121),4	995,(93, 121),4	1001,(67, 121),4	1005,(19, 121),4	1009,(37, 121),4	1013,(97, 121),4	1017,(27, 121),4	1021,(47, 121),4	1025,(57, 121),4	1029,(117, 121),4	1033,(87, 121),4	1037,(107, 121),4	1041,(77, 121),4	1045,(74, 121),4	1049,(68, 121),4	1053,(76, 121),4	1057,(119, 121),4	1061,(92, 121),4	1065,(55, 121),4	1069,(43, 121),4	1073,(69, 121),4	1099,(109, 121),4	1106,(20, 121),4	1160,(25, 121),4	1197,(70, 121),4	1201,(80, 121),4	1205,(90, 121),4	1209,(50, 121),4	1213,(120, 121),4	1217,(24, 121),4	1221,(30, 121),4	1225,(60, 121),4	1229,(110, 121),4	1233,(40, 121),4	1237,(42, 121),4	1241,(58, 121),4	
# Outgoing
901,(10, 17),33	934,(10, 39),1	935,(10, 43),8	943,(10, 74),3	946,(10, 77),1	947,(10, 85),3	950,(10, 91),1	951,(10, 93),1	952,(10, 101),1	953,(10, 119),3	962,(100, 121),4	969,(10, 20),96	1065,(10, 25),54	1119,(10, 42),49	1168,(10, 58),29	1197,(70, 121),4	1201,(80, 121),4	1205,(90, 121),4	1209,(50, 121),4	1213,(120, 121),4	1217,(24, 121),4	1221,(30, 121),4	1225,(60, 121),4	1229,(110, 121),4	1233,(40, 121),4	
195,(9, 18),12	207,(9, 42),1	208,(9, 46),1	209,(9, 47),1	210,(9, 56),14	224,(9, 57),2	227,(9, 41),11	238,(9, 25),29	267,(9, 63),7	274,(9, 76),2	276,(9, 78),1	277,(9, 86),2	279,(9, 91),8	287,(9, 92),24	313,(99, 121),4	321,(22, 121),4	325,(29, 121),4	336,(9, 103),6	342,(59, 121),4	358,(9, 113),7	388,(89, 121),4	440,(79, 121),4	471,(9, 84),6	477,(49, 121),4	528,(9, 94),10	573,(9, 116),31	979,(39, 121),4	1057,(119, 121),4	1073,(69, 121),4	1099,(109, 121),4	
154,(8, 16),3	157,(8, 19),5	162,(8, 47),1	163,(8, 54),3	166,(8, 64),2	168,(8, 86),1	169,(8, 41),5	174,(8, 71),2	176,(8, 116),6	184,(8, 65),2	186,(8, 115),6	194,(8, 32),1	200,(8, 117),5	224,(8, 59),9	233,(8, 69),4	237,(8, 89),1	238,(8, 109),5	243,(8, 119),11	267,(28, 121),4	275,(38, 121),4	291,(8, 113),45	336,(78, 121),4	363,(108, 121),4	405,(48, 121),4	677,(98, 121),4	718,(88, 121),4	759,(118, 121),4	1049,(68, 121),4	1106,(20, 121),4	1241,(58, 121),4	
627,(7, 17),274	901,(7, 34),22	923,(7, 40),34	957,(7, 43),2	959,(7, 51),3	962,(7, 55),6	968,(7, 68),1	969,(7, 69),7	976,(7, 92),1	977,(7, 109),24	1001,(67, 121),4	1005,(19, 121),4	1009,(37, 121),4	1013,(97, 121),4	1017,(27, 121),4	1021,(47, 121),4	1025,(57, 121),4	1029,(117, 121),4	1033,(87, 121),4	1037,(107, 121),4	1041,(77, 121),4	
122,(6, 15),5	127,(6, 16),1	128,(6, 25),5	133,(6, 28),1	134,(6, 33),60	194,(6, 35),1	195,(6, 38),1	196,(6, 97),1	199,(6, 22),1	200,(6, 29),24	225,(6, 51),2	227,(6, 95),11	238,(96, 121),4	243,(6, 48),7	250,(6, 117),9	263,(26, 121),4	276,(6, 80),4	291,(56, 121),4	316,(6, 24),16	359,(66, 121),4	508,(6, 104),20	609,(86, 121),4	664,(36, 121),4	691,(116, 121),4	732,(46, 121),4	773,(106, 121),4	975,(17, 121),4	1053,(76, 121),4	
183,(5, 22),16	199,(5, 27),1	200,(5, 33),9	209,(5, 48),33	242,(5, 58),1	243,(5, 61),8	251,(5, 73),11	262,(5, 81),1	265,(5, 24),2	267,(5, 70),4	271,(5, 80),5	276,(5, 83),15	291,(5, 87),5	296,(5, 98),10	306,(5, 108),3	309,(16, 121),4	313,(5, 120),3	317,(105, 121),4	323,(5, 49),49	372,(5, 52),52	424,(45, 121),4	428,(65, 121),4	432,(115, 121),4	436,(35, 121),4	444,(95, 121),4	467,(5, 23),2	469,(5, 64),2	486,(5, 34),22	668,(75, 121),4	991,(85, 121),4	1065,(55, 121),4	1160,(25, 121),4	
90,(4, 13),1	91,(4, 14),4	95,(4, 26),42	137,(4, 37),5	142,(4, 51),6	148,(4, 55),4	152,(4, 68),6	158,(4, 76),4	162,(4, 78),1	163,(4, 105),2	165,(114, 121),4	171,(4, 59),3	174,(4, 79),2	176,(4, 99),1	177,(4, 119),6	190,(4, 91),22	212,(4, 101),13	225,(4, 106),24	249,(4, 112),6	255,(15, 121),4	264,(4, 60),1	271,(54, 121),4	518,(84, 121),4	559,(44, 121),4	600,(104, 121),4	656,(94, 121),4	682,(23, 121),4	723,(64, 121),4	966,(34, 121),4	1045,(74, 121),4	
131,(3, 22),40	171,(3, 28),2	173,(3, 35),4	177,(3, 37),1	178,(3, 45),6	184,(3, 48),2	186,(3, 51),1	187,(3, 104),2	189,(3, 111),1	191,(3, 70),73	264,(3, 79),27	291,(3, 90),4	295,(3, 116),5	300,(53, 121),4	304,(13, 121),4	310,(3, 74),157	467,(21, 121),4	471,(63, 121),4	475,(3, 86),93	568,(3, 98),68	636,(83, 121),4	640,(103, 121),4	644,(113, 121),4	648,(33, 121),4	652,(73, 121),4	995,(93, 121),4	1069,(43, 121),4	
58,(2, 15),4	62,(2, 31),3	65,(2, 16),3	68,(2, 53),9	77,(2, 94),14	91,(2, 114),2	97,(2, 57),8	105,(82, 121),4	113,(2, 28),9	122,(2, 78),1	123,(2, 98),1	129,(2, 39),1	130,(2, 79),1	145,(2, 40),1	146,(2, 100),45	205,(12, 77),1	209,(12, 21),3	212,(12, 43),2	226,(12, 107),12	251,(12, 41),4	255,(12, 66),10	267,(12, 75),14	281,(12, 86),4	287,(32, 121),4	291,(12, 79),1	295,(72, 121),4	309,(12, 48),55	364,(12, 118),16	380,(18, 121),4	384,(112, 121),4	481,(52, 121),4	538,(12, 23),17	555,(12, 34),26	581,(12, 64),2	583,(12, 74),1	604,(12, 46),22	626,(62, 121),4	660,(102, 121),4	934,(12, 76),18	1061,(92, 121),4	1237,(42, 121),4	
1,(0, 2),16	17,(0, 3),16	33,(0, 4),16	49,(0, 5),16	65,(0, 6),16	81,(0, 7),16	97,(0, 8),16	113,(0, 9),16	129,(0, 10),16	145,(0, 12),16	161,(11, 18),33	194,(11, 33),1	195,(11, 44),115	310,(11, 50),3	313,(11, 62),1	314,(11, 66),4	318,(11, 76),1	319,(11, 79),4	323,(11, 85),2	325,(11, 86),18	343,(11, 95),1	344,(11, 103),14	358,(11, 106),117	475,(1, 30),1	476,(1, 33),1	477,(1, 44),9	486,(1, 60),1	487,(1, 62),75	562,(1, 102),1	563,(1, 107),1	568,(1, 17),2	570,(1, 36),3	573,(1, 73),18	591,(1, 75),35	626,(1, 106),1	627,(1, 110),5	636,(1, 68),14	650,(1, 88),14	664,(1, 118),51	715,(1, 119),8	
