2214
# CPU
0,0,1	1,7,28	29,37,28	57,6,28	85,36,28	113,9,28	141,104,28	169,10,28	197,4,28	225,42,28	253,57,28	281,8,28	309,11,28	337,88,28	365,112,28	393,82,28	421,77,28	449,12,28	477,107,28	505,58,28	533,95,28	561,22,28	589,25,28	617,61,28	645,51,28	673,73,28	701,52,28	729,70,28	757,115,28	785,41,28	813,23,28	841,27,28	869,2,28	897,117,28	925,72,28	953,119,28	981,30,28	1009,50,28	1037,100,28	1065,89,28	1093,60,28	1121,75,28	1149,85,28	1177,69,28	1205,18,28	1233,44,28	1261,71,28	1289,110,28	1317,39,28	1345,92,28	1373,120,28	1401,81,28	1429,56,28	1457,79,28	1485,105,28	1513,63,28	1541,109,28	1569,65,28	1597,54,28	1625,45,28	1653,24,28	1681,40,28	1709,101,28	1737,35,28	1765,74,28	1793,34,28	1821,64,28	1849,103,28	1877,80,28	1905,96,28	2049,78,28	2185,91,28	2213,121,1	
41,5,28	69,94,28	97,55,28	125,3,28	153,16,28	181,26,28	209,53,28	237,86,28	265,31,28	293,21,28	321,90,28	349,106,28	377,87,28	405,48,28	433,1,28	461,108,28	489,67,28	517,114,28	545,102,28	573,76,28	601,47,28	629,28,28	657,38,28	685,99,28	713,15,28	741,17,28	769,62,28	813,83,28	873,118,28	901,111,28	929,43,28	957,14,28	985,32,28	1013,46,28	1041,98,28	1069,116,28	1097,84,28	1125,29,28	1153,20,28	1181,68,28	1209,66,28	1261,93,28	1325,113,28	1401,59,28	1485,19,28	1573,13,28	1673,97,28	1773,33,28	1877,49,28	
# Incoming
97,(94, 121),12	109,(5, 85),4	113,(5, 69),4	117,(5, 110),4	121,(5, 92),4	125,(55, 121),12	137,(5, 56),4	141,(5, 105),8	149,(5, 109),4	153,(3, 44),4	157,(3, 71),4	161,(3, 39),4	165,(3, 120),4	169,(3, 79),4	173,(5, 65),4	177,(3, 65),4	181,(16, 121),12	193,(5, 54),12	205,(5, 45),4	209,(26, 121),12	221,(5, 24),16	237,(53, 121),12	249,(3, 35),16	265,(86, 121),12	277,(5, 64),4	293,(31, 121),12	321,(21, 121),12	349,(90, 121),12	377,(106, 121),12	405,(87, 121),12	433,(48, 121),12	461,(1, 18),4	465,(1, 81),4	469,(1, 56),4	473,(1, 79),4	477,(1, 63),8	485,(1, 109),4	489,(108, 121),12	501,(1, 45),12	513,(1, 34),4	517,(67, 121),12	529,(1, 35),12	545,(114, 121),12	573,(102, 121),12	601,(76, 121),12	629,(47, 121),12	657,(28, 121),12	685,(38, 121),12	713,(99, 121),12	741,(15, 121),12	769,(17, 121),12	797,(62, 121),12	809,(1, 40),20	841,(83, 121),12	853,(1, 101),24	901,(118, 121),12	929,(111, 121),12	957,(43, 121),12	985,(14, 121),12	1013,(32, 121),12	1041,(46, 121),12	1069,(98, 121),12	1097,(116, 121),12	1125,(84, 121),12	1153,(29, 121),12	1181,(20, 121),12	1209,(68, 121),12	1237,(66, 121),12	1249,(5, 74),28	1289,(93, 121),12	1301,(3, 34),28	1353,(113, 121),12	1365,(1, 64),32	1429,(59, 121),12	1441,(3, 103),48	1513,(19, 121),12	1525,(1, 80),52	1601,(13, 121),12	1613,(1, 96),60	1701,(97, 121),12	1801,(33, 121),12	1905,(49, 121),12	1917,(1, 78),132	2049,(1, 91),136	
1,(0, 5),40	41,(7, 94),4	45,(7, 55),28	73,(0, 3),40	113,(7, 26),4	117,(7, 53),4	121,(6, 53),8	129,(7, 31),8	137,(7, 87),4	141,(9, 16),4	145,(9, 53),16	161,(7, 86),28	189,(6, 48),4	193,(9, 48),4	197,(10, 31),28	225,(7, 21),12	237,(4, 21),24	261,(9, 90),12	273,(7, 67),4	277,(6, 102),4	281,(6, 76),4	285,(10, 47),24	309,(8, 90),4	313,(8, 87),4	317,(8, 114),12	329,(8, 47),4	333,(10, 46),4	337,(11, 106),4	341,(11, 87),4	345,(11, 48),32	377,(0, 1),40	417,(8, 102),12	429,(11, 76),16	445,(7, 28),32	477,(12, 47),12	489,(6, 28),12	501,(8, 38),28	529,(11, 38),20	549,(7, 99),36	585,(12, 99),12	597,(6, 15),8	605,(4, 15),16	621,(8, 15),24	645,(12, 15),4	649,(4, 17),24	673,(8, 17),28	701,(7, 62),16	717,(10, 62),36	753,(10, 83),8	761,(4, 83),52	813,(10, 118),24	837,(4, 118),12	849,(12, 118),24	873,(12, 111),4	877,(11, 43),4	881,(8, 32),8	889,(11, 32),4	893,(11, 98),4	897,(2, 111),4	901,(2, 43),4	905,(2, 14),16	921,(2, 32),8	929,(8, 46),8	937,(2, 46),8	945,(2, 98),16	961,(4, 116),4	965,(11, 116),4	969,(2, 116),12	981,(9, 84),8	989,(2, 84),16	1005,(7, 29),8	1013,(10, 29),8	1021,(12, 29),4	1025,(2, 29),20	1045,(10, 20),4	1049,(2, 20),40	1089,(9, 68),4	1093,(8, 68),24	1117,(11, 68),16	1133,(12, 68),8	1141,(2, 68),4	1145,(7, 66),44	1189,(2, 66),12	1201,(10, 93),16	1217,(2, 93),44	1261,(6, 113),4	1265,(4, 113),60	1325,(10, 59),24	1349,(2, 59),52	1401,(7, 19),8	1409,(9, 19),4	1413,(8, 19),32	1445,(11, 19),12	1457,(12, 19),28	1485,(7, 13),4	1489,(8, 13),4	1493,(11, 13),60	1553,(12, 13),12	1565,(2, 13),8	1573,(6, 97),36	1609,(9, 97),4	1613,(10, 97),16	1629,(8, 97),4	1633,(11, 97),4	1637,(12, 97),36	1673,(7, 33),32	1705,(10, 33),4	1709,(2, 33),64	1773,(9, 49),24	1797,(10, 49),80	
# Outgoing
1,(0, 5),40	41,(7, 94),4	45,(7, 55),28	73,(0, 3),40	113,(7, 26),4	117,(7, 53),4	121,(6, 53),8	129,(7, 31),8	137,(7, 87),4	141,(9, 16),4	145,(9, 53),16	161,(7, 86),28	189,(6, 48),4	193,(9, 48),4	197,(10, 31),28	225,(7, 21),12	237,(4, 21),24	261,(9, 90),12	273,(7, 67),4	277,(6, 102),4	281,(6, 76),4	285,(10, 47),24	309,(8, 90),4	313,(8, 87),4	317,(8, 114),12	329,(8, 47),4	333,(10, 46),4	337,(11, 106),4	341,(11, 87),4	345,(11, 48),32	377,(0, 1),40	417,(8, 102),12	429,(11, 76),16	445,(7, 28),32	477,(12, 47),12	489,(6, 28),12	501,(8, 38),28	529,(11, 38),20	549,(7, 99),36	585,(12, 99),12	597,(6, 15),8	605,(4, 15),16	621,(8, 15),24	645,(12, 15),4	649,(4, 17),24	673,(8, 17),28	701,(7, 62),16	717,(10, 62),36	753,(10, 83),8	761,(4, 83),52	813,(10, 118),24	837,(4, 118),12	849,(12, 118),24	873,(12, 111),4	877,(11, 43),4	881,(8, 32),8	889,(11, 32),4	893,(11, 98),4	897,(2, 111),4	901,(2, 43),4	905,(2, 14),16	921,(2, 32),8	929,(8, 46),8	937,(2, 46),8	945,(2, 98),16	961,(4, 116),4	965,(11, 116),4	969,(2, 116),12	981,(9, 84),8	989,(2, 84),16	1005,(7, 29),8	1013,(10, 29),8	1021,(12, 29),4	1025,(2, 29),20	1045,(10, 20),4	1049,(2, 20),40	1089,(9, 68),4	1093,(8, 68),24	1117,(11, 68),16	1133,(12, 68),8	1141,(2, 68),4	1145,(7, 66),44	1189,(2, 66),12	1201,(10, 93),16	1217,(2, 93),44	1261,(6, 113),4	1265,(4, 113),60	1325,(10, 59),24	1349,(2, 59),52	1401,(7, 19),8	1409,(9, 19),4	1413,(8, 19),32	1445,(11, 19),12	1457,(12, 19),28	1485,(7, 13),4	1489,(8, 13),4	1493,(11, 13),60	1553,(12, 13),12	1565,(2, 13),8	1573,(6, 97),36	1609,(9, 97),4	1613,(10, 97),16	1629,(8, 97),4	1633,(11, 97),4	1637,(12, 97),36	1673,(7, 33),32	1705,(10, 33),4	1709,(2, 33),64	1773,(9, 49),24	1797,(10, 49),80	
97,(94, 121),12	109,(5, 85),4	113,(5, 69),4	117,(5, 110),4	121,(5, 92),4	125,(55, 121),12	137,(5, 56),4	141,(5, 105),8	149,(5, 109),4	153,(3, 44),4	157,(3, 71),4	161,(3, 39),4	165,(3, 120),4	169,(3, 79),4	173,(5, 65),4	177,(3, 65),4	181,(16, 121),12	193,(5, 54),12	205,(5, 45),4	209,(26, 121),12	221,(5, 24),16	237,(53, 121),12	249,(3, 35),16	265,(86, 121),12	277,(5, 64),4	293,(31, 121),12	321,(21, 121),12	349,(90, 121),12	377,(106, 121),12	405,(87, 121),12	433,(48, 121),12	461,(1, 18),4	465,(1, 81),4	469,(1, 56),4	473,(1, 79),4	477,(1, 63),8	485,(1, 109),4	489,(108, 121),12	501,(1, 45),12	513,(1, 34),4	517,(67, 121),12	529,(1, 35),12	545,(114, 121),12	573,(102, 121),12	601,(76, 121),12	629,(47, 121),12	657,(28, 121),12	685,(38, 121),12	713,(99, 121),12	741,(15, 121),12	769,(17, 121),12	797,(62, 121),12	809,(1, 40),20	841,(83, 121),12	853,(1, 101),24	901,(118, 121),12	929,(111, 121),12	957,(43, 121),12	985,(14, 121),12	1013,(32, 121),12	1041,(46, 121),12	1069,(98, 121),12	1097,(116, 121),12	1125,(84, 121),12	1153,(29, 121),12	1181,(20, 121),12	1209,(68, 121),12	1237,(66, 121),12	1249,(5, 74),28	1289,(93, 121),12	1301,(3, 34),28	1353,(113, 121),12	1365,(1, 64),32	1429,(59, 121),12	1441,(3, 103),48	1513,(19, 121),12	1525,(1, 80),52	1601,(13, 121),12	1613,(1, 96),60	1701,(97, 121),12	1801,(33, 121),12	1905,(49, 121),12	1917,(1, 78),132	2049,(1, 91),136	
