2228
# CPU
0,0,1	1,10,22	23,114,22	45,109,22	67,23,22	89,35,22	111,73,22	133,111,22	155,59,22	177,83,22	199,58,22	221,36,22	243,77,22	265,69,22	287,32,22	309,29,22	337,118,22	379,86,22	423,105,22	467,46,22	511,106,22	557,95,22	605,40,22	653,19,22	701,55,22	749,103,22	799,16,22	849,117,22	899,17,22	949,84,22	999,90,22	1049,31,22	1101,21,22	1155,47,22	1219,44,22	1287,75,22	1361,93,22	1437,78,22	1513,107,22	1607,99,22	1709,71,22	1813,27,22	2015,39,22	2205,64,22	2227,121,1	
5,5,22	27,2,22	49,9,22	71,11,22	93,22,22	115,100,22	137,79,22	159,92,22	181,20,22	203,25,22	225,62,22	247,74,22	269,88,22	291,115,22	313,34,22	335,26,22	357,60,22	379,89,22	401,91,22	423,102,22	445,85,22	467,120,22	489,70,22	511,113,22	533,65,22	555,43,22	2137,49,22	
7,1,22	29,3,22	51,7,22	73,110,22	95,98,22	117,61,22	139,81,22	161,57,22	183,37,22	205,67,22	227,48,22	249,68,22	271,50,22	293,28,22	315,80,22	337,72,22	359,24,22	381,30,22	403,15,22	425,42,22	447,97,22	469,41,22	491,112,22	513,54,22	535,45,22	
3,6,22	25,8,22	47,4,22	69,12,22	91,119,22	113,63,22	135,52,22	157,96,22	179,33,22	201,94,22	223,82,22	245,38,22	267,87,22	289,116,22	311,56,22	333,14,22	355,76,22	377,53,22	399,13,22	421,101,22	443,51,22	465,18,22	487,66,22	509,108,22	531,104,22	
# Incoming
49,(2, 35),2	51,(6, 73),2	53,(2, 111),2	55,(5, 77),2	57,(5, 32),2	59,(5, 29),8	67,(2, 46),2	69,(4, 58),2	71,(9, 59),2	73,(9, 83),2	75,(9, 36),2	77,(4, 77),2	79,(9, 69),4	83,(4, 32),4	87,(9, 106),2	89,(9, 103),2	91,(12, 36),2	93,(12, 86),2	95,(110, 121),20	115,(119, 121),20	135,(22, 121),20	155,(98, 121),20	175,(63, 121),20	195,(100, 121),20	215,(61, 121),20	235,(52, 121),20	255,(79, 121),20	275,(81, 121),20	295,(96, 121),20	315,(92, 121),20	335,(3, 118),2	337,(57, 121),20	357,(33, 121),20	377,(7, 86),2	379,(20, 121),20	399,(37, 121),20	419,(11, 105),4	423,(94, 121),20	443,(25, 121),20	463,(1, 46),4	467,(67, 121),20	487,(82, 121),20	507,(12, 106),4	511,(62, 121),20	531,(48, 121),20	551,(3, 95),2	553,(11, 95),4	557,(38, 121),20	577,(74, 121),20	597,(7, 40),8	605,(68, 121),20	625,(87, 121),20	645,(4, 19),8	653,(88, 121),20	673,(50, 121),20	693,(1, 55),8	701,(116, 121),20	721,(115, 121),20	741,(8, 103),8	749,(28, 121),20	769,(56, 121),20	789,(9, 16),4	793,(12, 16),6	799,(34, 121),20	819,(80, 121),20	839,(1, 117),4	843,(11, 117),6	849,(14, 121),20	869,(26, 121),20	889,(7, 17),2	891,(11, 17),8	899,(72, 121),20	919,(76, 121),20	939,(8, 84),2	941,(9, 84),8	949,(60, 121),20	969,(24, 121),20	989,(9, 90),10	999,(53, 121),20	1019,(89, 121),20	1039,(6, 31),8	1047,(11, 31),2	1049,(30, 121),20	1069,(13, 121),20	1089,(2, 21),6	1095,(4, 21),6	1101,(91, 121),20	1121,(15, 121),20	1141,(2, 47),4	1145,(3, 47),10	1155,(101, 121),20	1175,(102, 121),20	1195,(2, 44),16	1211,(3, 44),8	1219,(42, 121),20	1239,(51, 121),20	1259,(2, 75),22	1281,(3, 75),2	1283,(12, 75),4	1287,(85, 121),20	1307,(97, 121),20	1327,(12, 93),34	1361,(18, 121),20	1381,(120, 121),20	1401,(3, 78),18	1419,(4, 78),2	1421,(11, 78),16	1437,(41, 121),20	1457,(66, 121),20	1477,(3, 107),12	1489,(7, 107),2	1491,(11, 107),22	1513,(70, 121),20	1533,(112, 121),20	1553,(1, 99),16	1569,(8, 99),8	1577,(4, 99),30	1607,(108, 121),20	1627,(113, 121),20	1647,(6, 71),62	1709,(54, 121),20	1729,(104, 121),20	1749,(5, 27),42	1791,(8, 27),20	1811,(7, 27),2	1813,(65, 121),20	1833,(45, 121),20	1853,(5, 39),76	1929,(1, 39),80	2009,(4, 39),6	2015,(43, 121),20	2035,(5, 64),30	2065,(2, 64),28	2093,(3, 64),70	2163,(11, 64),42	2205,(49, 121),20	
3,(0, 5),2	9,(0, 2),2	15,(0, 9),2	21,(0, 11),2	41,(10, 120),2	45,(10, 70),12	57,(10, 113),4	71,(4, 102),2	97,(12, 43),2	105,(12, 113),8	115,(7, 89),2	117,(7, 91),2	121,(1, 85),2	135,(1, 65),12	147,(10, 43),118	265,(3, 43),2	315,(4, 43),30	1811,(12, 49),122	
5,(0, 1),2	11,(0, 3),2	17,(0, 7),2	23,(10, 15),14	53,(8, 72),2	55,(6, 30),6	61,(6, 97),6	67,(10, 112),10	83,(5, 72),4	93,(11, 24),2	95,(12, 50),2	97,(11, 28),4	101,(12, 80),4	105,(2, 24),8	113,(2, 30),6	119,(5, 42),14	133,(11, 42),2	135,(4, 41),18	153,(12, 41),2	155,(11, 97),10	165,(2, 112),16	181,(5, 54),6	195,(4, 54),32	255,(6, 45),26	335,(11, 45),42	
1,(0, 6),2	7,(0, 8),2	13,(0, 4),2	19,(0, 12),2	37,(10, 51),4	43,(10, 66),2	51,(5, 53),2	69,(5, 13),2	101,(9, 18),4	119,(1, 101),2	123,(7, 66),12	175,(3, 104),32	215,(5, 108),16	
# Outgoing
1,(0, 6),2	3,(0, 5),2	5,(0, 1),2	7,(0, 8),2	9,(0, 2),2	11,(0, 3),2	13,(0, 4),2	15,(0, 9),2	17,(0, 7),2	19,(0, 12),2	21,(0, 11),2	23,(10, 15),14	37,(10, 51),4	41,(10, 120),2	43,(10, 66),2	45,(10, 70),12	57,(10, 113),4	67,(10, 112),10	147,(10, 43),118	
49,(2, 35),2	51,(5, 53),2	53,(2, 111),2	55,(5, 77),2	57,(5, 32),2	59,(5, 29),8	67,(2, 46),2	69,(5, 13),2	71,(9, 59),2	73,(9, 83),2	75,(9, 36),2	79,(9, 69),4	83,(5, 72),4	87,(9, 106),2	89,(9, 103),2	93,(11, 24),2	97,(11, 28),4	101,(9, 18),4	105,(2, 24),8	113,(2, 30),6	119,(5, 42),14	133,(11, 42),2	135,(22, 121),20	155,(11, 97),10	165,(2, 112),16	181,(5, 54),6	195,(100, 121),20	215,(5, 108),16	255,(79, 121),20	315,(92, 121),20	335,(11, 45),42	379,(20, 121),20	419,(11, 105),4	443,(25, 121),20	511,(62, 121),20	553,(11, 95),4	577,(74, 121),20	653,(88, 121),20	721,(115, 121),20	789,(9, 16),4	799,(34, 121),20	843,(11, 117),6	869,(26, 121),20	891,(11, 17),8	941,(9, 84),8	949,(60, 121),20	989,(9, 90),10	1019,(89, 121),20	1047,(11, 31),2	1089,(2, 21),6	1101,(91, 121),20	1141,(2, 47),4	1175,(102, 121),20	1195,(2, 44),16	1259,(2, 75),22	1287,(85, 121),20	1381,(120, 121),20	1421,(11, 78),16	1491,(11, 107),22	1513,(70, 121),20	1627,(113, 121),20	1749,(5, 27),42	1813,(65, 121),20	1853,(5, 39),76	2015,(43, 121),20	2035,(5, 64),30	2065,(2, 64),28	2163,(11, 64),42	2205,(49, 121),20	
95,(110, 121),20	115,(7, 89),2	117,(7, 91),2	119,(1, 101),2	121,(1, 85),2	123,(7, 66),12	135,(1, 65),12	155,(98, 121),20	175,(3, 104),32	215,(61, 121),20	265,(3, 43),2	275,(81, 121),20	335,(3, 118),2	337,(57, 121),20	377,(7, 86),2	399,(37, 121),20	463,(1, 46),4	467,(67, 121),20	531,(48, 121),20	551,(3, 95),2	597,(7, 40),8	605,(68, 121),20	673,(50, 121),20	693,(1, 55),8	749,(28, 121),20	819,(80, 121),20	839,(1, 117),4	889,(7, 17),2	899,(72, 121),20	969,(24, 121),20	1049,(30, 121),20	1121,(15, 121),20	1145,(3, 47),10	1211,(3, 44),8	1219,(42, 121),20	1281,(3, 75),2	1307,(97, 121),20	1401,(3, 78),18	1437,(41, 121),20	1477,(3, 107),12	1489,(7, 107),2	1533,(112, 121),20	1553,(1, 99),16	1709,(54, 121),20	1811,(7, 27),2	1833,(45, 121),20	1929,(1, 39),80	2093,(3, 64),70	
51,(6, 73),2	53,(8, 72),2	55,(6, 30),6	61,(6, 97),6	69,(4, 58),2	71,(4, 102),2	77,(4, 77),2	83,(4, 32),4	91,(12, 36),2	93,(12, 86),2	95,(12, 50),2	97,(12, 43),2	101,(12, 80),4	105,(12, 113),8	115,(119, 121),20	135,(4, 41),18	153,(12, 41),2	175,(63, 121),20	195,(4, 54),32	235,(52, 121),20	255,(6, 45),26	295,(96, 121),20	315,(4, 43),30	357,(33, 121),20	423,(94, 121),20	487,(82, 121),20	507,(12, 106),4	557,(38, 121),20	625,(87, 121),20	645,(4, 19),8	701,(116, 121),20	741,(8, 103),8	769,(56, 121),20	793,(12, 16),6	849,(14, 121),20	919,(76, 121),20	939,(8, 84),2	999,(53, 121),20	1039,(6, 31),8	1069,(13, 121),20	1095,(4, 21),6	1155,(101, 121),20	1239,(51, 121),20	1283,(12, 75),4	1327,(12, 93),34	1361,(18, 121),20	1419,(4, 78),2	1457,(66, 121),20	1569,(8, 99),8	1577,(4, 99),30	1607,(108, 121),20	1647,(6, 71),62	1729,(104, 121),20	1791,(8, 27),20	1811,(12, 49),122	2009,(4, 39),6	
