603
# CPU
0,201,1	1,150,3	4,90,3	7,99,3	10,89,3	13,88,3	16,160,3	19,51,3	22,131,3	25,83,3	28,128,3	31,34,3	34,173,3	37,145,3	40,147,3	43,141,3	46,36,3	49,61,3	52,154,3	55,162,3	58,135,3	61,65,3	64,50,3	67,163,3	70,200,3	73,134,3	76,167,3	79,186,3	82,164,3	85,178,3	88,80,3	91,42,3	94,27,3	97,179,3	100,184,3	103,117,3	106,76,3	109,190,3	112,63,3	115,81,3	118,25,3	121,38,3	124,115,3	127,29,3	130,30,3	133,31,3	136,70,3	139,129,3	142,199,3	145,82,3	148,86,3	151,187,3	154,191,3	157,64,3	160,28,3	163,120,3	166,37,3	169,53,3	172,22,3	175,77,3	178,44,3	181,97,3	184,142,3	187,113,3	190,121,3	193,92,3	196,153,3	199,137,3	202,26,3	205,98,3	208,155,3	211,40,3	214,168,3	217,180,3	220,107,3	223,116,3	226,91,3	229,69,3	232,193,3	235,93,3	238,138,3	241,49,3	244,84,3	247,194,3	250,172,3	253,197,3	256,109,3	259,140,3	262,125,3	265,71,3	268,67,3	271,148,3	274,78,3	277,122,3	280,183,3	283,146,3	286,87,3	289,126,3	292,102,3	295,188,3	298,127,3	301,48,3	304,119,3	307,130,3	310,169,3	313,24,3	316,132,3	319,23,3	322,124,3	325,175,3	328,54,3	331,161,3	334,171,3	337,133,3	340,39,3	343,32,3	346,85,3	349,43,3	352,108,3	355,144,3	358,52,3	361,159,3	364,1,3	367,94,3	370,196,3	373,74,3	376,66,3	379,152,3	382,195,3	385,165,3	388,149,3	391,101,3	394,46,3	397,57,3	400,104,3	403,151,3	406,136,3	409,170,3	412,41,3	415,189,3	418,56,3	421,68,3	424,18,3	427,73,3	430,72,3	433,139,3	436,62,3	439,103,3	442,96,3	445,174,3	448,118,3	451,176,3	454,9,3	457,7,3	460,45,3	463,10,3	466,12,3	469,2,3	472,11,3	475,8,3	478,13,3	481,19,3	484,17,3	487,6,3	490,20,3	493,16,3	496,5,3	532,15,3	599,3,3	602,0,1	
31,123,3	61,166,3	151,95,3	196,35,3	211,157,3	286,106,3	331,55,3	361,47,3	406,75,3	451,114,3	482,4,3	548,14,3	
16,112,3	76,185,3	91,111,3	136,105,3	166,143,3	226,21,3	436,33,3	
121,110,3	181,58,3	256,182,3	
46,60,3	106,100,3	241,198,3	271,192,3	301,59,3	316,158,3	346,181,3	376,156,3	391,79,3	421,177,3	
# Incoming
34,(123, 10),1	64,(166, 17),1	154,(95, 10),1	155,(95, 17),2	184,(58, 12),3	187,(110, 8),1	188,(58, 19),1	199,(35, 2),3	214,(157, 16),4	229,(21, 8),4	233,(21, 13),6	239,(105, 6),2	241,(185, 20),1	242,(111, 5),1	244,(198, 11),1	245,(60, 13),1	246,(198, 20),7	253,(60, 5),1	254,(100, 15),1	259,(182, 19),8	274,(192, 15),8	289,(106, 16),9	304,(59, 11),3	307,(59, 15),10	319,(158, 17),11	334,(55, 17),3	337,(55, 15),12	349,(181, 16),13	362,(181, 3),1	379,(156, 20),17	396,(156, 5),6	409,(75, 6),22	431,(177, 5),51	485,(4, 0),1	486,(79, 15),19	505,(177, 15),27	532,(33, 3),67	599,(14, 0),1	
16,(201, 123),15	46,(201, 166),15	136,(201, 95),15	181,(201, 35),15	196,(201, 157),15	243,(112, 14),1	244,(143, 14),3	271,(201, 106),15	316,(201, 55),15	346,(201, 47),15	363,(181, 14),1	391,(201, 75),15	436,(201, 114),15	451,(51, 4),1	452,(145, 4),1	453,(135, 4),1	454,(38, 4),1	455,(146, 4),5	460,(108, 4),1	461,(104, 4),21	482,(88, 14),1	483,(97, 14),3	486,(142, 14),3	489,(197, 14),4	493,(171, 14),12	505,(94, 14),15	520,(170, 14),27	547,(73, 14),1	
1,(201, 112),15	61,(201, 185),15	76,(201, 111),15	121,(201, 105),15	151,(201, 143),15	211,(201, 21),15	421,(201, 33),15	
106,(201, 110),15	166,(201, 58),15	241,(201, 182),15	
31,(201, 60),15	91,(201, 100),15	226,(201, 198),15	256,(201, 192),15	286,(201, 59),15	301,(201, 158),15	331,(201, 181),15	361,(201, 156),15	376,(201, 79),15	406,(201, 177),15	
# Outgoing
1,(201, 112),15	16,(201, 123),15	31,(201, 60),15	46,(201, 166),15	61,(201, 185),15	76,(201, 111),15	91,(201, 100),15	106,(201, 110),15	121,(201, 105),15	136,(201, 95),15	151,(201, 143),15	166,(201, 58),15	181,(201, 35),15	196,(201, 157),15	211,(201, 21),15	226,(201, 198),15	241,(201, 182),15	256,(201, 192),15	271,(201, 106),15	286,(201, 59),15	301,(201, 158),15	316,(201, 55),15	331,(201, 181),15	346,(201, 47),15	361,(201, 156),15	376,(201, 79),15	391,(201, 75),15	406,(201, 177),15	421,(201, 33),15	436,(201, 114),15	451,(51, 4),1	452,(145, 4),1	453,(135, 4),1	454,(38, 4),1	455,(146, 4),5	460,(108, 4),1	461,(104, 4),21	482,(88, 14),1	483,(97, 14),3	486,(142, 14),3	489,(197, 14),4	493,(171, 14),12	505,(94, 14),15	520,(170, 14),27	547,(73, 14),1	
34,(123, 10),1	64,(166, 17),1	154,(95, 10),1	155,(95, 17),2	199,(35, 2),3	214,(157, 16),4	289,(106, 16),9	334,(55, 17),3	337,(55, 15),12	409,(75, 6),22	485,(4, 0),1	599,(14, 0),1	
229,(21, 8),4	233,(21, 13),6	239,(105, 6),2	241,(185, 20),1	242,(111, 5),1	243,(112, 14),1	244,(143, 14),3	532,(33, 3),67	
184,(58, 12),3	187,(110, 8),1	188,(58, 19),1	259,(182, 19),8	
244,(198, 11),1	245,(60, 13),1	246,(198, 20),7	253,(60, 5),1	254,(100, 15),1	274,(192, 15),8	304,(59, 11),3	307,(59, 15),10	319,(158, 17),11	349,(181, 16),13	362,(181, 3),1	363,(181, 14),1	379,(156, 20),17	396,(156, 5),6	431,(177, 5),51	486,(79, 15),19	505,(177, 15),27	
