4236
# CPU
45,5,1	89,10,1	90,74,1	133,15,1	146,144,1	164,59,1	177,20,1	178,61,1	179,156,1	303,155,1	473,88,1	522,126,1	525,84,1	550,97,1	596,36,1	601,83,1	607,123,1	636,142,1	643,154,1	646,45,1	648,38,1	697,121,1	705,91,1	718,37,1	720,134,1	721,140,1	808,188,1	817,43,1	878,44,1	924,159,1	950,73,1	1027,175,1	1119,129,1	1131,47,1	1134,118,1	1178,127,1	1181,149,1	1182,173,1	1251,169,1	1262,116,1	1272,171,1	1378,46,1	1565,190,1	1581,77,1	1595,66,1	1615,75,1	1632,79,1	1633,86,1	1663,49,1	1674,80,1	1677,133,1	1681,139,1	1819,76,1	1831,93,1	1836,135,1	1841,163,1	1862,57,1	1877,81,1	1976,89,1	2010,138,1	2015,101,1	2016,122,1	2019,106,1	2020,152,1	2037,196,1	2046,132,1	2055,147,1	2057,53,1	2062,161,1	2063,165,1	2072,99,1	2077,103,1	2078,177,1	2079,68,1	2092,200,1	3569,70,1	3809,109,1	3825,119,1	3831,131,1	3838,137,1	3879,182,1	3884,186,1	3888,192,1	3905,194,1	3983,198,1	3988,55,1	4001,85,1	4004,95,1	4018,117,1	4059,125,1	4066,180,1	4073,67,1	4074,78,1	4075,112,1	4078,124,1	4121,136,1	4122,143,1	4127,145,1	4128,146,1	4129,153,1	4130,157,1	4136,158,1	4137,167,1	4229,184,1	
34,4,1	35,178,1	36,183,1	78,9,1	107,166,1	122,14,1	153,40,1	154,50,1	166,19,1	242,56,1	254,94,1	450,187,1	547,162,1	548,176,1	608,111,1	648,92,1	712,191,1	718,102,1	850,164,1	889,48,1	890,168,1	892,54,1	894,115,1	910,197,1	1106,72,1	1169,148,1	1262,170,1	1301,189,1	1312,199,1	1316,160,1	1330,60,1	1364,193,1	1435,108,1	1444,42,1	1561,62,1	1596,65,1	1604,128,1	1625,172,1	1643,96,1	1644,98,1	1648,100,1	1774,151,1	1825,185,1	1836,32,1	1841,35,1	1877,58,1	1996,90,1	2016,105,1	2077,174,1	2079,181,1	2155,130,1	2194,195,1	4235,201,1	
23,3,1	67,8,1	68,26,1	111,13,1	133,41,1	143,31,1	155,18,1	247,104,1	307,51,1	402,39,1	470,107,1	508,34,1	719,114,1	890,52,1	1106,120,1	1370,141,1	1441,33,1	1674,113,1	1829,179,1	1832,27,1	2020,110,1	
12,2,1	56,7,1	100,12,1	144,17,1	803,24,1	1131,82,1	1314,87,1	1379,25,1	1387,29,1	1494,64,1	1833,30,1	1879,71,1	2057,150,1	
0,0,1	1,6,1	2,11,1	3,16,1	4,1,1	147,21,1	374,28,1	391,22,1	607,63,1	672,23,1	1980,69,1	
# Incoming
34,(0, 5),11	45,(2, 37),1	46,(2, 44),1	47,(2, 46),13	60,(2, 49),1	61,(2, 83),4	65,(2, 134),1	66,(2, 135),2	68,(2, 136),3	71,(3, 81),2	73,(2, 180),1	74,(3, 46),3	77,(3, 106),1	78,(0, 10),11	89,(3, 53),9	98,(3, 112),4	102,(2, 139),10	112,(3, 119),10	122,(0, 15),11	133,(2, 144),13	146,(4, 44),1	147,(4, 121),1	148,(4, 173),1	149,(3, 121),6	155,(3, 137),1	156,(3, 163),4	160,(3, 169),1	161,(4, 59),3	164,(7, 53),1	165,(7, 91),1	166,(0, 20),11	177,(2, 45),92	269,(3, 127),14	283,(3, 155),20	303,(3, 194),19	322,(4, 45),14	336,(4, 73),47	383,(4, 86),12	395,(4, 153),2	397,(4, 158),2	399,(4, 186),18	417,(7, 57),6	423,(7, 66),9	432,(7, 78),4	436,(7, 93),3	439,(7, 99),1	440,(7, 121),7	447,(7, 123),1	448,(7, 133),1	449,(8, 43),1	450,(8, 49),1	451,(8, 81),3	454,(8, 85),18	472,(8, 88),1	473,(8, 95),25	498,(8, 116),2	500,(8, 126),22	522,(8, 158),1	523,(8, 175),1	524,(9, 84),1	525,(7, 97),25	550,(8, 152),4	554,(8, 186),2	556,(8, 188),25	581,(8, 194),2	583,(8, 198),3	586,(9, 36),10	596,(9, 83),5	601,(9, 93),3	604,(9, 123),3	607,(9, 125),1	608,(7, 125),8	616,(7, 158),17	633,(9, 135),1	634,(9, 139),1	635,(9, 142),1	636,(9, 153),1	637,(9, 154),6	643,(9, 165),1	644,(9, 182),1	645,(13, 45),1	646,(6, 38),2	648,(12, 171),1	649,(6, 68),47	696,(13, 121),1	697,(6, 77),1	698,(6, 80),1	699,(6, 91),6	705,(6, 95),7	712,(6, 101),3	715,(12, 37),3	718,(17, 46),1	719,(6, 134),1	720,(6, 140),1	721,(6, 143),10	731,(6, 147),65	796,(6, 163),2	798,(6, 165),3	801,(7, 188),7	808,(9, 169),3	811,(12, 43),6	817,(12, 95),2	819,(6, 171),8	827,(13, 93),2	829,(6, 182),16	845,(6, 196),7	852,(9, 78),15	867,(11, 44),11	878,(9, 136),13	891,(13, 138),1	892,(11, 55),18	910,(9, 159),14	924,(12, 73),12	936,(12, 127),3	939,(13, 95),4	943,(11, 73),7	950,(11, 75),10	960,(11, 81),1	961,(7, 175),66	1027,(9, 129),92	1119,(13, 47),12	1131,(11, 118),3	1134,(11, 127),44	1178,(13, 149),3	1181,(13, 173),1	1182,(14, 139),1	1183,(11, 131),3	1186,(11, 136),33	1219,(11, 138),2	1221,(11, 157),29	1250,(11, 169),1	1251,(12, 177),8	1259,(14, 116),3	1262,(11, 171),10	1272,(11, 177),10	1282,(11, 180),35	1317,(13, 109),7	1324,(17, 76),2	1326,(11, 190),4	1330,(12, 46),48	1378,(12, 103),51	1429,(12, 190),12	1441,(14, 190),1	1442,(17, 77),1	1443,(17, 89),1	1444,(16, 53),5	1449,(7, 190),116	1565,(13, 77),16	1581,(13, 81),13	1594,(18, 66),1	1595,(18, 79),1	1596,(16, 75),19	1615,(16, 79),17	1632,(16, 86),1	1633,(13, 180),9	1642,(13, 196),17	1659,(14, 49),4	1663,(14, 70),10	1673,(18, 80),1	1674,(16, 119),2	1676,(16, 133),1	1677,(16, 135),2	1679,(16, 139),2	1681,(9, 132),131	1812,(14, 76),7	1819,(14, 93),12	1831,(14, 135),5	1836,(14, 184),4	1840,(18, 163),1	1841,(1, 53),6	1847,(1, 57),15	1862,(14, 145),7	1869,(14, 200),6	1875,(18, 81),2	1877,(18, 99),2	1879,(1, 85),39	1918,(1, 89),58	1976,(14, 138),34	2010,(17, 70),4	2014,(17, 101),1	2015,(17, 122),1	2016,(1, 106),3	2019,(17, 152),1	2020,(1, 119),5	2025,(1, 124),10	2035,(17, 200),1	2036,(18, 196),1	2037,(1, 132),9	2046,(1, 136),7	2053,(1, 147),2	2055,(19, 53),2	2057,(1, 161),5	2062,(1, 165),1	2063,(17, 99),9	2072,(17, 103),5	2077,(1, 177),1	2078,(19, 68),1	2079,(1, 182),12	2091,(1, 200),1	2092,(8, 125),1300	3392,(9, 70),177	3569,(12, 55),186	3755,(12, 157),51	3806,(17, 109),3	3809,(17, 112),12	3821,(17, 119),4	3825,(17, 131),6	3831,(17, 137),7	3838,(17, 146),18	3856,(17, 157),15	3871,(17, 182),8	3879,(17, 186),5	3884,(17, 192),4	3888,(17, 194),17	3905,(17, 198),78	3983,(18, 55),5	3988,(18, 85),13	4001,(18, 95),3	4004,(18, 117),14	4018,(18, 125),41	4059,(18, 180),7	4066,(19, 67),7	4073,(19, 78),1	4074,(19, 112),1	4075,(19, 124),3	4078,(19, 136),43	4121,(19, 143),1	4122,(19, 145),5	4127,(19, 146),1	4128,(19, 153),1	4129,(19, 157),1	4130,(19, 158),6	4136,(19, 167),1	4137,(19, 184),92	
23,(0, 4),11	34,(2, 32),4	38,(2, 42),1	39,(2, 105),1	40,(3, 48),15	55,(3, 151),3	58,(3, 166),2	60,(3, 176),3	63,(3, 187),3	67,(0, 9),11	78,(2, 94),24	102,(8, 40),1	103,(8, 58),1	104,(8, 166),3	111,(0, 14),11	122,(2, 174),1	123,(2, 189),6	129,(2, 199),1	130,(3, 108),19	149,(5, 35),1	150,(5, 62),1	151,(5, 100),1	152,(7, 40),1	153,(7, 50),1	154,(7, 92),1	155,(0, 19),11	166,(3, 115),15	181,(5, 92),34	215,(8, 56),27	242,(8, 94),12	254,(8, 115),8	262,(26, 201),5	267,(13, 172),2	269,(2, 162),24	293,(2, 187),114	407,(5, 164),10	417,(5, 174),18	435,(5, 181),11	446,(5, 187),4	450,(7, 58),2	452,(7, 72),73	525,(8, 170),13	538,(10, 160),1	539,(74, 201),5	544,(13, 162),3	547,(13, 176),1	548,(13, 199),1	549,(18, 98),1	550,(7, 108),1	551,(7, 111),57	608,(10, 148),13	621,(10, 185),12	633,(7, 170),13	646,(7, 197),1	647,(12, 92),1	648,(6, 58),1	649,(7, 189),8	657,(15, 100),5	662,(15, 105),1	663,(8, 98),31	694,(12, 160),1	695,(15, 128),1	696,(6, 72),1	697,(10, 191),15	712,(12, 42),3	715,(6, 102),3	718,(8, 54),59	777,(10, 172),19	796,(12, 54),5	801,(6, 168),18	819,(12, 96),3	822,(12, 105),19	841,(13, 168),8	849,(17, 164),1	850,(17, 168),2	852,(6, 197),13	865,(6, 199),2	867,(41, 201),5	872,(31, 201),5	877,(17, 185),1	878,(11, 48),11	889,(20, 168),1	890,(11, 54),2	892,(15, 115),2	894,(15, 160),6	900,(17, 60),5	905,(17, 62),4	909,(20, 197),1	910,(11, 60),33	943,(8, 100),123	1066,(10, 72),40	1106,(12, 148),63	1169,(17, 193),3	1172,(18, 193),5	1178,(11, 128),5	1183,(13, 185),20	1203,(17, 172),27	1230,(18, 100),10	1240,(18, 174),9	1251,(11, 170),11	1262,(17, 174),31	1293,(18, 189),8	1301,(18, 195),7	1308,(18, 199),4	1314,(20, 160),2	1317,(11, 181),9	1326,(20, 60),4	1330,(11, 193),34	1364,(11, 195),3	1367,(15, 174),28	1395,(144, 201),5	1400,(59, 201),5	1405,(20, 35),6	1411,(20, 42),13	1424,(20, 108),11	1435,(20, 195),2	1441,(16, 42),3	1444,(61, 201),5	1449,(16, 62),112	1561,(16, 65),35	1596,(20, 128),8	1604,(20, 172),21	1625,(156, 201),5	1633,(16, 96),10	1643,(16, 98),1	1644,(16, 100),4	1648,(155, 201),5	1653,(88, 201),5	1659,(104, 201),5	1664,(51, 201),5	1669,(126, 201),5	1674,(39, 201),5	1681,(16, 174),7	1688,(15, 151),86	1774,(15, 185),51	1825,(107, 201),5	1833,(1, 32),3	1836,(1, 35),5	1841,(34, 201),5	1846,(84, 201),5	1851,(97, 201),5	1856,(36, 201),5	1862,(1, 58),15	1877,(83, 201),5	1882,(123, 201),5	1887,(142, 201),5	1892,(154, 201),5	1897,(45, 201),5	1902,(38, 201),5	1907,(121, 201),5	1912,(91, 201),5	1917,(37, 201),5	1922,(114, 201),5	1927,(134, 201),5	1932,(140, 201),5	1937,(188, 201),5	1942,(43, 201),5	1947,(44, 201),5	1952,(52, 201),5	1957,(159, 201),5	1962,(73, 201),5	1967,(175, 201),5	1976,(1, 90),20	1996,(1, 105),20	2020,(24, 201),5	2025,(120, 201),5	2030,(129, 201),5	2035,(1, 130),2	2037,(82, 201),5	2042,(47, 201),5	2047,(118, 201),5	2052,(127, 201),5	2057,(149, 201),5	2063,(1, 174),14	2078,(1, 181),1	2079,(17, 130),76	2155,(17, 195),39	2194,(21, 201),5	2199,(28, 201),5	2204,(22, 201),5	2209,(63, 201),5	2214,(23, 201),5	2219,(173, 201),5	2224,(169, 201),5	2229,(116, 201),5	2234,(171, 201),5	2239,(87, 201),5	2244,(46, 201),5	2249,(25, 201),5	2254,(29, 201),5	2259,(64, 201),5	2264,(190, 201),5	2269,(77, 201),5	2274,(66, 201),5	2279,(75, 201),5	2284,(79, 201),5	2289,(86, 201),5	2294,(49, 201),5	2299,(80, 201),5	2304,(133, 201),5	2309,(139, 201),5	2314,(76, 201),5	2319,(93, 201),5	2324,(30, 201),5	2329,(135, 201),5	2334,(163, 201),5	2339,(57, 201),5	2344,(81, 201),5	2349,(71, 201),5	2354,(89, 201),5	2359,(69, 201),5	2364,(138, 201),5	2369,(101, 201),5	2374,(122, 201),5	2379,(106, 201),5	2384,(152, 201),5	2389,(196, 201),5	2394,(132, 201),5	2399,(147, 201),5	2404,(150, 201),5	2409,(53, 201),5	2414,(161, 201),5	2419,(165, 201),5	2424,(99, 201),5	2429,(103, 201),5	2434,(177, 201),5	2439,(68, 201),5	2444,(200, 201),5	3392,(141, 201),5	3397,(33, 201),5	3402,(113, 201),5	3407,(179, 201),5	3412,(27, 201),5	3417,(110, 201),5	3570,(70, 201),5	3810,(109, 201),5	3826,(119, 201),5	3832,(131, 201),5	3839,(137, 201),5	3880,(182, 201),5	3885,(186, 201),5	3890,(192, 201),5	3906,(194, 201),5	3984,(198, 201),5	3989,(55, 201),5	4002,(85, 201),5	4007,(95, 201),5	4019,(117, 201),5	4060,(125, 201),5	4067,(180, 201),5	4074,(67, 201),5	4079,(78, 201),5	4084,(112, 201),5	4089,(124, 201),5	4122,(136, 201),5	4127,(143, 201),5	4132,(145, 201),5	4137,(146, 201),5	4142,(153, 201),5	4147,(157, 201),5	4152,(158, 201),5	4157,(167, 201),5	4230,(184, 201),5	
12,(0, 3),11	36,(4, 41),3	40,(2, 110),3	43,(2, 120),2	45,(4, 107),2	47,(4, 114),8	56,(0, 8),11	71,(2, 141),2	73,(4, 34),15	92,(9, 39),1	93,(9, 51),3	96,(9, 120),3	100,(0, 13),11	111,(5, 31),18	129,(5, 41),4	133,(5, 113),4	137,(10, 31),6	143,(10, 104),1	144,(0, 18),11	155,(12, 39),4	164,(4, 110),45	215,(5, 104),32	247,(5, 107),31	278,(10, 114),1	279,(15, 51),28	307,(15, 114),60	367,(20, 34),14	381,(20, 39),21	402,(20, 113),1	450,(20, 107),20	505,(19, 34),3	525,(19, 52),45	718,(6, 114),1	827,(6, 179),2	889,(11, 52),1	1027,(17, 120),79	1262,(14, 141),108	1433,(16, 33),8	1648,(16, 113),26	1688,(16, 179),141	1829,(1, 27),3	2019,(1, 110),1	
1,(0, 2),11	45,(0, 7),11	88,(9, 24),1	89,(0, 12),11	100,(4, 64),26	126,(13, 25),4	133,(0, 17),11	144,(10, 29),2	152,(10, 64),24	177,(6, 24),469	646,(3, 150),17	663,(9, 71),125	788,(14, 150),10	798,(15, 25),4	802,(18, 24),1	803,(20, 25),5	811,(14, 29),23	834,(15, 64),49	961,(11, 82),170	1131,(10, 87),183	1367,(16, 25),12	1379,(16, 29),8	1387,(16, 30),46	1442,(19, 64),52	1832,(1, 30),1	1877,(1, 71),2	2055,(1, 150),2	
24,(3, 28),4	28,(3, 63),1	35,(4, 28),1	68,(8, 23),1	74,(7, 21),1	89,(9, 28),3	112,(12, 22),9	121,(12, 63),1	122,(13, 23),1	146,(15, 21),1	166,(17, 23),7	181,(13, 22),14	209,(9, 63),36	245,(19, 22),1	322,(13, 28),52	374,(18, 22),17	417,(14, 69),88	544,(15, 63),63	657,(12, 23),15	1565,(17, 69),415	
# Outgoing
111,(5, 31),18	129,(5, 41),4	133,(5, 113),4	137,(10, 31),6	143,(10, 104),1	144,(10, 29),2	146,(15, 21),1	149,(5, 35),1	150,(5, 62),1	151,(5, 100),1	152,(10, 64),24	181,(5, 92),34	215,(5, 104),32	247,(5, 107),31	278,(10, 114),1	279,(15, 51),28	307,(15, 114),60	367,(20, 34),14	381,(20, 39),21	402,(20, 113),1	407,(5, 164),10	417,(5, 174),18	435,(5, 181),11	446,(5, 187),4	450,(20, 107),20	538,(10, 160),1	539,(74, 201),5	544,(15, 63),63	608,(10, 148),13	621,(10, 185),12	657,(15, 100),5	662,(15, 105),1	695,(15, 128),1	697,(10, 191),15	777,(10, 172),19	798,(15, 25),4	803,(20, 25),5	834,(15, 64),49	889,(20, 168),1	892,(15, 115),2	894,(15, 160),6	909,(20, 197),1	1066,(10, 72),40	1131,(10, 87),183	1314,(20, 160),2	1326,(20, 60),4	1367,(15, 174),28	1395,(144, 201),5	1400,(59, 201),5	1405,(20, 35),6	1411,(20, 42),13	1424,(20, 108),11	1435,(20, 195),2	1444,(61, 201),5	1596,(20, 128),8	1604,(20, 172),21	1625,(156, 201),5	1648,(155, 201),5	1653,(88, 201),5	1669,(126, 201),5	1688,(15, 151),86	1774,(15, 185),51	1846,(84, 201),5	1851,(97, 201),5	1856,(36, 201),5	1877,(83, 201),5	1882,(123, 201),5	1887,(142, 201),5	1892,(154, 201),5	1897,(45, 201),5	1902,(38, 201),5	1907,(121, 201),5	1912,(91, 201),5	1917,(37, 201),5	1927,(134, 201),5	1932,(140, 201),5	1937,(188, 201),5	1942,(43, 201),5	1947,(44, 201),5	1957,(159, 201),5	1962,(73, 201),5	1967,(175, 201),5	2030,(129, 201),5	2042,(47, 201),5	2047,(118, 201),5	2052,(127, 201),5	2057,(149, 201),5	2219,(173, 201),5	2224,(169, 201),5	2229,(116, 201),5	2234,(171, 201),5	2244,(46, 201),5	2264,(190, 201),5	2269,(77, 201),5	2274,(66, 201),5	2279,(75, 201),5	2284,(79, 201),5	2289,(86, 201),5	2294,(49, 201),5	2299,(80, 201),5	2304,(133, 201),5	2309,(139, 201),5	2314,(76, 201),5	2319,(93, 201),5	2329,(135, 201),5	2334,(163, 201),5	2339,(57, 201),5	2344,(81, 201),5	2354,(89, 201),5	2364,(138, 201),5	2369,(101, 201),5	2374,(122, 201),5	2379,(106, 201),5	2384,(152, 201),5	2389,(196, 201),5	2394,(132, 201),5	2399,(147, 201),5	2409,(53, 201),5	2414,(161, 201),5	2419,(165, 201),5	2424,(99, 201),5	2429,(103, 201),5	2434,(177, 201),5	2439,(68, 201),5	2444,(200, 201),5	3570,(70, 201),5	3810,(109, 201),5	3826,(119, 201),5	3832,(131, 201),5	3839,(137, 201),5	3880,(182, 201),5	3885,(186, 201),5	3890,(192, 201),5	3906,(194, 201),5	3984,(198, 201),5	3989,(55, 201),5	4002,(85, 201),5	4007,(95, 201),5	4019,(117, 201),5	4060,(125, 201),5	4067,(180, 201),5	4074,(67, 201),5	4079,(78, 201),5	4084,(112, 201),5	4089,(124, 201),5	4122,(136, 201),5	4127,(143, 201),5	4132,(145, 201),5	4137,(146, 201),5	4142,(153, 201),5	4147,(157, 201),5	4152,(158, 201),5	4157,(167, 201),5	4230,(184, 201),5	
35,(4, 28),1	36,(4, 41),3	45,(4, 107),2	47,(4, 114),8	73,(4, 34),15	88,(9, 24),1	89,(9, 28),3	92,(9, 39),1	93,(9, 51),3	96,(9, 120),3	100,(4, 64),26	146,(4, 44),1	147,(4, 121),1	148,(4, 173),1	161,(4, 59),3	164,(4, 110),45	209,(9, 63),36	245,(19, 22),1	322,(4, 45),14	336,(4, 73),47	383,(4, 86),12	395,(4, 153),2	397,(4, 158),2	399,(4, 186),18	417,(14, 69),88	505,(19, 34),3	524,(9, 84),1	525,(19, 52),45	586,(9, 36),10	596,(9, 83),5	601,(9, 93),3	604,(9, 123),3	607,(9, 125),1	633,(9, 135),1	634,(9, 139),1	635,(9, 142),1	636,(9, 153),1	637,(9, 154),6	643,(9, 165),1	644,(9, 182),1	663,(9, 71),125	788,(14, 150),10	808,(9, 169),3	811,(14, 29),23	852,(9, 78),15	878,(9, 136),13	910,(9, 159),14	1027,(9, 129),92	1182,(14, 139),1	1259,(14, 116),3	1262,(14, 141),108	1441,(14, 190),1	1442,(19, 64),52	1659,(14, 49),4	1663,(14, 70),10	1681,(9, 132),131	1812,(14, 76),7	1819,(14, 93),12	1831,(14, 135),5	1836,(14, 184),4	1862,(14, 145),7	1869,(14, 200),6	1976,(14, 138),34	2055,(19, 53),2	2078,(19, 68),1	3392,(9, 70),177	4066,(19, 67),7	4073,(19, 78),1	4074,(19, 112),1	4075,(19, 124),3	4078,(19, 136),43	4121,(19, 143),1	4122,(19, 145),5	4127,(19, 146),1	4128,(19, 153),1	4129,(19, 157),1	4130,(19, 158),6	4136,(19, 167),1	4137,(19, 184),92	
24,(3, 28),4	28,(3, 63),1	40,(3, 48),15	55,(3, 151),3	58,(3, 166),2	60,(3, 176),3	63,(3, 187),3	68,(8, 23),1	71,(3, 81),2	74,(3, 46),3	77,(3, 106),1	89,(3, 53),9	98,(3, 112),4	102,(8, 40),1	103,(8, 58),1	104,(8, 166),3	112,(3, 119),10	122,(13, 23),1	126,(13, 25),4	130,(3, 108),19	149,(3, 121),6	155,(3, 137),1	156,(3, 163),4	160,(3, 169),1	166,(3, 115),15	181,(13, 22),14	215,(8, 56),27	242,(8, 94),12	254,(8, 115),8	262,(26, 201),5	267,(13, 172),2	269,(3, 127),14	283,(3, 155),20	303,(3, 194),19	322,(13, 28),52	374,(18, 22),17	449,(8, 43),1	450,(8, 49),1	451,(8, 81),3	454,(8, 85),18	472,(8, 88),1	473,(8, 95),25	498,(8, 116),2	500,(8, 126),22	522,(8, 158),1	523,(8, 175),1	525,(8, 170),13	544,(13, 162),3	547,(13, 176),1	548,(13, 199),1	549,(18, 98),1	550,(8, 152),4	554,(8, 186),2	556,(8, 188),25	581,(8, 194),2	583,(8, 198),3	645,(13, 45),1	646,(3, 150),17	663,(8, 98),31	696,(13, 121),1	718,(8, 54),59	802,(18, 24),1	827,(13, 93),2	841,(13, 168),8	867,(41, 201),5	872,(31, 201),5	891,(13, 138),1	939,(13, 95),4	943,(8, 100),123	1119,(13, 47),12	1172,(18, 193),5	1178,(13, 149),3	1181,(13, 173),1	1183,(13, 185),20	1230,(18, 100),10	1240,(18, 174),9	1293,(18, 189),8	1301,(18, 195),7	1308,(18, 199),4	1317,(13, 109),7	1565,(13, 77),16	1581,(13, 81),13	1594,(18, 66),1	1595,(18, 79),1	1633,(13, 180),9	1642,(13, 196),17	1659,(104, 201),5	1664,(51, 201),5	1673,(18, 80),1	1674,(39, 201),5	1825,(107, 201),5	1840,(18, 163),1	1841,(34, 201),5	1875,(18, 81),2	1877,(18, 99),2	1922,(114, 201),5	1952,(52, 201),5	2025,(120, 201),5	2036,(18, 196),1	2092,(8, 125),1300	3392,(141, 201),5	3397,(33, 201),5	3402,(113, 201),5	3407,(179, 201),5	3412,(27, 201),5	3417,(110, 201),5	3983,(18, 55),5	3988,(18, 85),13	4001,(18, 95),3	4004,(18, 117),14	4018,(18, 125),41	4059,(18, 180),7	
34,(2, 32),4	38,(2, 42),1	39,(2, 105),1	40,(2, 110),3	43,(2, 120),2	45,(2, 37),1	46,(2, 44),1	47,(2, 46),13	60,(2, 49),1	61,(2, 83),4	65,(2, 134),1	66,(2, 135),2	68,(2, 136),3	71,(2, 141),2	73,(2, 180),1	74,(7, 21),1	78,(2, 94),24	102,(2, 139),10	112,(12, 22),9	121,(12, 63),1	122,(2, 174),1	123,(2, 189),6	129,(2, 199),1	133,(2, 144),13	152,(7, 40),1	153,(7, 50),1	154,(7, 92),1	155,(12, 39),4	164,(7, 53),1	165,(7, 91),1	166,(17, 23),7	177,(2, 45),92	269,(2, 162),24	293,(2, 187),114	417,(7, 57),6	423,(7, 66),9	432,(7, 78),4	436,(7, 93),3	439,(7, 99),1	440,(7, 121),7	447,(7, 123),1	448,(7, 133),1	450,(7, 58),2	452,(7, 72),73	525,(7, 97),25	550,(7, 108),1	551,(7, 111),57	608,(7, 125),8	616,(7, 158),17	633,(7, 170),13	646,(7, 197),1	647,(12, 92),1	648,(12, 171),1	649,(7, 189),8	657,(12, 23),15	694,(12, 160),1	712,(12, 42),3	715,(12, 37),3	718,(17, 46),1	796,(12, 54),5	801,(7, 188),7	811,(12, 43),6	817,(12, 95),2	819,(12, 96),3	822,(12, 105),19	849,(17, 164),1	850,(17, 168),2	877,(17, 185),1	900,(17, 60),5	905,(17, 62),4	924,(12, 73),12	936,(12, 127),3	961,(7, 175),66	1027,(17, 120),79	1106,(12, 148),63	1169,(17, 193),3	1203,(17, 172),27	1251,(12, 177),8	1262,(17, 174),31	1324,(17, 76),2	1330,(12, 46),48	1378,(12, 103),51	1429,(12, 190),12	1442,(17, 77),1	1443,(17, 89),1	1449,(7, 190),116	1565,(17, 69),415	2010,(17, 70),4	2014,(17, 101),1	2015,(17, 122),1	2019,(17, 152),1	2020,(24, 201),5	2035,(17, 200),1	2037,(82, 201),5	2063,(17, 99),9	2072,(17, 103),5	2079,(17, 130),76	2155,(17, 195),39	2239,(87, 201),5	2249,(25, 201),5	2254,(29, 201),5	2259,(64, 201),5	2324,(30, 201),5	2349,(71, 201),5	2404,(150, 201),5	3569,(12, 55),186	3755,(12, 157),51	3806,(17, 109),3	3809,(17, 112),12	3821,(17, 119),4	3825,(17, 131),6	3831,(17, 137),7	3838,(17, 146),18	3856,(17, 157),15	3871,(17, 182),8	3879,(17, 186),5	3884,(17, 192),4	3888,(17, 194),17	3905,(17, 198),78	
1,(0, 2),11	12,(0, 3),11	23,(0, 4),11	34,(0, 5),11	45,(0, 7),11	56,(0, 8),11	67,(0, 9),11	78,(0, 10),11	89,(0, 12),11	100,(0, 13),11	111,(0, 14),11	122,(0, 15),11	133,(0, 17),11	144,(0, 18),11	155,(0, 19),11	166,(0, 20),11	177,(6, 24),469	646,(6, 38),2	648,(6, 58),1	649,(6, 68),47	696,(6, 72),1	697,(6, 77),1	698,(6, 80),1	699,(6, 91),6	705,(6, 95),7	712,(6, 101),3	715,(6, 102),3	718,(6, 114),1	719,(6, 134),1	720,(6, 140),1	721,(6, 143),10	731,(6, 147),65	796,(6, 163),2	798,(6, 165),3	801,(6, 168),18	819,(6, 171),8	827,(6, 179),2	829,(6, 182),16	845,(6, 196),7	852,(6, 197),13	865,(6, 199),2	867,(11, 44),11	878,(11, 48),11	889,(11, 52),1	890,(11, 54),2	892,(11, 55),18	910,(11, 60),33	943,(11, 73),7	950,(11, 75),10	960,(11, 81),1	961,(11, 82),170	1131,(11, 118),3	1134,(11, 127),44	1178,(11, 128),5	1183,(11, 131),3	1186,(11, 136),33	1219,(11, 138),2	1221,(11, 157),29	1250,(11, 169),1	1251,(11, 170),11	1262,(11, 171),10	1272,(11, 177),10	1282,(11, 180),35	1317,(11, 181),9	1326,(11, 190),4	1330,(11, 193),34	1364,(11, 195),3	1367,(16, 25),12	1379,(16, 29),8	1387,(16, 30),46	1433,(16, 33),8	1441,(16, 42),3	1444,(16, 53),5	1449,(16, 62),112	1561,(16, 65),35	1596,(16, 75),19	1615,(16, 79),17	1632,(16, 86),1	1633,(16, 96),10	1643,(16, 98),1	1644,(16, 100),4	1648,(16, 113),26	1674,(16, 119),2	1676,(16, 133),1	1677,(16, 135),2	1679,(16, 139),2	1681,(16, 174),7	1688,(16, 179),141	1829,(1, 27),3	1832,(1, 30),1	1833,(1, 32),3	1836,(1, 35),5	1841,(1, 53),6	1847,(1, 57),15	1862,(1, 58),15	1877,(1, 71),2	1879,(1, 85),39	1918,(1, 89),58	1976,(1, 90),20	1996,(1, 105),20	2016,(1, 106),3	2019,(1, 110),1	2020,(1, 119),5	2025,(1, 124),10	2035,(1, 130),2	2037,(1, 132),9	2046,(1, 136),7	2053,(1, 147),2	2055,(1, 150),2	2057,(1, 161),5	2062,(1, 165),1	2063,(1, 174),14	2077,(1, 177),1	2078,(1, 181),1	2079,(1, 182),12	2091,(1, 200),1	2194,(21, 201),5	2199,(28, 201),5	2204,(22, 201),5	2209,(63, 201),5	2214,(23, 201),5	2359,(69, 201),5	
