114
# CPU
0,0,1	1,2,8	9,10,8	17,4,8	25,12,8	33,6,8	41,3,8	49,1,8	57,8,8	65,15,8	73,19,8	81,5,8	89,17,8	97,11,8	105,20,8	113,21,1	
11,16,8	19,9,8	59,13,8	69,7,8	
13,18,8	61,14,8	


# Incoming
19,(16, 21),2	21,(18, 21),2	27,(9, 21),2	67,(13, 21),2	69,(14, 21),2	77,(7, 21),2	
9,(2, 16),2	13,(2, 9),6	57,(1, 13),2	61,(1, 7),8	
11,(2, 18),2	59,(1, 14),2	


# Outgoing
9,(2, 16),2	11,(2, 18),2	13,(2, 9),6	57,(1, 13),2	59,(1, 14),2	61,(1, 7),8	
19,(16, 21),2	27,(9, 21),2	67,(13, 21),2	77,(7, 21),2	
21,(18, 21),2	69,(14, 21),2	


