1120
# CPU
31,8,13	44,25,13	57,15,13	70,14,13	83,71,13	96,80,13	109,69,13	122,35,13	135,36,13	148,9,13	161,28,13	174,34,13	187,20,13	200,21,13	213,52,13	226,59,13	239,68,13	441,73,13	454,33,13	547,75,13	1119,81,1	
7,2,13	20,13,13	33,29,13	46,60,13	59,76,13	72,38,13	85,42,13	98,63,13	111,62,13	124,7,13	137,31,13	150,43,13	163,51,13	176,53,13	189,57,13	202,45,13	215,79,13	228,40,13	549,58,13	562,67,13	
13,3,13	26,6,13	39,30,13	52,32,13	65,10,13	78,22,13	91,39,13	104,61,13	117,44,13	130,19,13	143,18,13	156,17,13	169,27,13	182,47,13	195,65,13	208,78,13	442,56,13	455,74,13	548,50,13	561,72,13	
0,0,1	1,5,13	14,1,13	27,4,13	40,64,13	53,70,13	66,37,13	79,77,13	92,26,13	105,12,13	118,11,13	131,55,13	144,48,13	157,49,13	170,46,13	183,66,13	196,41,13	209,24,13	222,16,13	235,23,13	248,54,13	
# Incoming
25,(0, 8),6	31,(5, 25),11	42,(3, 15),1	43,(13, 81),11	54,(5, 52),12	66,(5, 59),1	69,(5, 68),4	73,(5, 73),368	441,(7, 33),1	443,(1, 75),104	547,(29, 81),11	558,(30, 81),11	569,(64, 81),11	580,(60, 81),11	591,(32, 81),11	602,(70, 81),11	613,(76, 81),11	624,(10, 81),11	635,(37, 81),11	646,(38, 81),11	657,(22, 81),11	668,(77, 81),11	679,(42, 81),11	690,(39, 81),11	701,(26, 81),11	712,(63, 81),11	723,(61, 81),11	734,(12, 81),11	745,(62, 81),11	756,(44, 81),11	767,(11, 81),11	778,(19, 81),11	789,(55, 81),11	800,(31, 81),11	811,(18, 81),11	822,(48, 81),11	833,(43, 81),11	844,(17, 81),11	855,(49, 81),11	866,(51, 81),11	877,(27, 81),11	888,(46, 81),11	899,(53, 81),11	910,(47, 81),11	921,(66, 81),11	932,(57, 81),11	943,(65, 81),11	954,(41, 81),11	965,(45, 81),11	976,(78, 81),11	987,(24, 81),11	998,(79, 81),11	1009,(16, 81),11	1020,(40, 81),11	1031,(23, 81),11	1042,(54, 81),11	1053,(56, 81),11	1064,(74, 81),11	1075,(50, 81),11	1086,(58, 81),11	1097,(72, 81),11	1108,(67, 81),11	
1,(0, 2),6	19,(0, 7),6	43,(6, 31),1	46,(5, 43),1	548,(4, 58),1	549,(4, 67),1	
7,(0, 3),6	13,(0, 6),6	42,(5, 27),4	47,(5, 47),7	67,(5, 65),2	137,(7, 78),1	441,(1, 56),1	442,(1, 74),1	547,(4, 50),1	550,(4, 72),4	

# Outgoing

43,(13, 81),11	137,(7, 78),1	441,(7, 33),1	547,(29, 81),11	580,(60, 81),11	613,(76, 81),11	646,(38, 81),11	679,(42, 81),11	712,(63, 81),11	745,(62, 81),11	800,(31, 81),11	833,(43, 81),11	866,(51, 81),11	899,(53, 81),11	932,(57, 81),11	965,(45, 81),11	998,(79, 81),11	1020,(40, 81),11	1086,(58, 81),11	1108,(67, 81),11	
42,(3, 15),1	43,(6, 31),1	558,(30, 81),11	591,(32, 81),11	624,(10, 81),11	657,(22, 81),11	690,(39, 81),11	723,(61, 81),11	756,(44, 81),11	778,(19, 81),11	811,(18, 81),11	844,(17, 81),11	877,(27, 81),11	910,(47, 81),11	943,(65, 81),11	976,(78, 81),11	1053,(56, 81),11	1064,(74, 81),11	1075,(50, 81),11	1097,(72, 81),11	
1,(0, 2),6	7,(0, 3),6	13,(0, 6),6	19,(0, 7),6	25,(0, 8),6	31,(5, 25),11	42,(5, 27),4	46,(5, 43),1	47,(5, 47),7	54,(5, 52),12	66,(5, 59),1	67,(5, 65),2	69,(5, 68),4	73,(5, 73),368	441,(1, 56),1	442,(1, 74),1	443,(1, 75),104	547,(4, 50),1	548,(4, 58),1	549,(4, 67),1	550,(4, 72),4	569,(64, 81),11	602,(70, 81),11	635,(37, 81),11	668,(77, 81),11	701,(26, 81),11	734,(12, 81),11	767,(11, 81),11	789,(55, 81),11	822,(48, 81),11	855,(49, 81),11	888,(46, 81),11	921,(66, 81),11	954,(41, 81),11	987,(24, 81),11	1009,(16, 81),11	1031,(23, 81),11	1042,(54, 81),11	
