231
# CPU
7,2,1	8,10,1	9,18,1	10,19,1	11,13,1	12,15,1	13,4,1	14,6,1	31,7,1	34,9,1	49,11,1	55,12,1	58,14,1	73,17,1	
0,0,1	1,1,1	2,5,1	3,16,1	17,3,1	65,8,1	191,20,1	230,21,1	
# Incoming
1,(0, 2),6	7,(1, 4),3	10,(1, 6),3	13,(1, 7),18	31,(1, 9),3	34,(1, 11),15	49,(1, 12),6	55,(1, 14),3	58,(1, 17),15	
8,(2, 3),9	17,(2, 8),48	65,(2, 20),126	191,(10, 21),3	194,(18, 21),3	197,(19, 21),3	200,(13, 21),3	203,(15, 21),3	206,(4, 21),3	209,(6, 21),3	212,(7, 21),3	215,(9, 21),3	218,(11, 21),3	221,(12, 21),3	224,(14, 21),3	227,(17, 21),3	
# Outgoing
8,(2, 3),9	17,(2, 8),48	65,(2, 20),126	191,(10, 21),3	194,(18, 21),3	197,(19, 21),3	200,(13, 21),3	203,(15, 21),3	206,(4, 21),3	209,(6, 21),3	212,(7, 21),3	215,(9, 21),3	218,(11, 21),3	221,(12, 21),3	224,(14, 21),3	227,(17, 21),3	
1,(0, 2),6	7,(1, 4),3	10,(1, 6),3	13,(1, 7),18	31,(1, 9),3	34,(1, 11),15	49,(1, 12),6	55,(1, 14),3	58,(1, 17),15	
