8821
# CPU
65,5,31	96,14,31	127,23,31	158,42,31	189,28,31	220,19,31	251,25,31	282,62,31	545,10,31	673,46,31	704,50,31	905,70,31	1389,21,31	1577,54,31	1633,66,31	1737,78,31	1869,33,31	1900,37,31	2033,58,31	2193,74,31	
49,4,31	237,26,31	268,35,31	349,60,31	380,40,31	533,9,31	564,24,31	877,68,31	981,17,31	1037,20,31	1068,30,31	1099,44,31	1130,48,31	1161,80,31	1565,52,31	1601,56,31	1653,72,31	1684,76,31	1781,22,31	2137,64,31	
33,3,31	64,13,31	95,29,31	126,8,31	157,55,31	189,47,31	245,34,31	1085,51,31	1116,63,31	1325,18,31	1449,38,31	1557,59,31	1633,67,31	1664,71,31	1695,75,31	1965,43,31	8781,79,31	
17,2,31	48,12,31	79,77,31	110,7,31	141,36,31	213,27,31	244,31,31	301,49,31	332,61,31	425,41,31	456,65,31	517,73,31	1569,53,31	1865,16,31	1985,45,31	2016,57,31	2141,69,31	8820,81,1	
0,0,1	1,1,31	32,6,31	625,11,31	656,15,31	1969,39,31	2449,32,31	
# Incoming
49,(0, 5),16	65,(3, 10),4	69,(3, 21),20	89,(3, 28),8	97,(4, 19),28	125,(4, 25),8	141,(3, 46),24	165,(3, 50),28	233,(3, 62),16	349,(3, 74),4	485,(8, 70),28	533,(2, 10),12	557,(2, 33),56	613,(2, 46),60	697,(2, 50),4	877,(2, 70),28	1093,(2, 74),212	1305,(7, 21),84	1569,(1, 54),8	1577,(1, 58),4	1581,(1, 66),52	1673,(1, 78),64	1865,(6, 33),4	1869,(6, 37),4	1989,(6, 58),44	2033,(7, 74),160	
33,(0, 4),16	97,(1, 20),96	193,(1, 24),4	197,(3, 35),20	217,(3, 52),4	221,(5, 9),12	233,(5, 26),4	245,(1, 35),4	249,(3, 68),88	337,(5, 60),12	353,(1, 40),4	357,(2, 9),176	545,(2, 24),8	629,(8, 72),32	673,(2, 48),24	701,(2, 52),164	865,(2, 68),12	877,(3, 76),92	969,(7, 17),12	981,(7, 20),56	1037,(7, 30),4	1041,(7, 44),28	1069,(7, 48),8	1077,(7, 80),4	1085,(1, 52),480	1565,(7, 56),36	1633,(1, 72),20	1657,(1, 76),16	1673,(7, 64),48	1721,(8, 22),60	2033,(6, 64),104	
17,(0, 3),16	81,(0, 8),16	145,(4, 47),44	189,(4, 71),20	217,(1, 34),28	245,(5, 71),4	249,(1, 38),104	357,(1, 51),728	1085,(2, 38),4	1089,(2, 63),4	1093,(4, 75),52	1145,(5, 18),180	1389,(7, 38),60	1449,(7, 59),108	1601,(7, 67),32	1633,(7, 71),16	1653,(1, 75),4	1873,(6, 43),92	2141,(6, 79),196	2337,(4, 79),6444	
1,(0, 2),16	65,(0, 7),16	97,(3, 36),44	141,(4, 31),4	193,(3, 53),4	197,(1, 27),16	213,(1, 31),4	221,(3, 61),12	233,(4, 49),68	301,(5, 61),4	305,(14, 81),8	313,(23, 81),8	321,(42, 81),8	329,(28, 81),8	337,(3, 69),12	353,(13, 81),8	361,(29, 81),8	369,(8, 41),56	425,(8, 65),24	449,(8, 69),36	485,(19, 81),8	493,(26, 81),8	501,(25, 81),8	513,(8, 73),4	517,(55, 81),8	525,(47, 81),8	533,(34, 81),8	541,(35, 81),8	549,(62, 81),8	557,(60, 81),8	565,(40, 81),8	573,(9, 81),8	581,(10, 81),8	595,(24, 81),8	704,(46, 81),8	735,(50, 81),8	908,(68, 81),8	936,(70, 81),8	1012,(17, 81),8	1068,(20, 81),8	1116,(51, 81),8	1145,(30, 81),8	1153,(44, 81),8	1161,(63, 81),8	1169,(48, 81),8	1192,(80, 81),8	1356,(18, 81),8	1480,(38, 81),8	1565,(1, 53),4	1588,(59, 81),8	1596,(52, 81),8	1632,(56, 81),8	1664,(67, 81),8	1684,(72, 81),8	1695,(71, 81),8	1715,(76, 81),8	1737,(6, 16),128	1865,(75, 81),8	1873,(22, 81),8	1965,(6, 45),20	1985,(6, 57),4	1989,(21, 81),8	1997,(54, 81),8	2005,(66, 81),8	2013,(78, 81),8	2021,(33, 81),8	2029,(37, 81),8	2064,(58, 81),8	2137,(6, 69),4	2168,(64, 81),8	2224,(74, 81),8	2337,(11, 81),8	2345,(15, 81),8	2353,(39, 81),8	2449,(43, 81),8	2480,(32, 81),8	8812,(79, 81),8	
553,(2, 32),4	557,(3, 11),68	625,(3, 15),4	1325,(5, 39),644	1969,(8, 32),480	
# Outgoing
221,(5, 9),12	233,(5, 26),4	245,(5, 71),4	301,(5, 61),4	305,(14, 81),8	313,(23, 81),8	321,(42, 81),8	329,(28, 81),8	337,(5, 60),12	485,(19, 81),8	501,(25, 81),8	549,(62, 81),8	581,(10, 81),8	704,(46, 81),8	735,(50, 81),8	936,(70, 81),8	1145,(5, 18),180	1325,(5, 39),644	1989,(21, 81),8	1997,(54, 81),8	2005,(66, 81),8	2013,(78, 81),8	2021,(33, 81),8	2029,(37, 81),8	2064,(58, 81),8	2224,(74, 81),8	
97,(4, 19),28	125,(4, 25),8	141,(4, 31),4	145,(4, 47),44	189,(4, 71),20	233,(4, 49),68	493,(26, 81),8	541,(35, 81),8	557,(60, 81),8	565,(40, 81),8	573,(9, 81),8	595,(24, 81),8	908,(68, 81),8	1012,(17, 81),8	1068,(20, 81),8	1093,(4, 75),52	1145,(30, 81),8	1153,(44, 81),8	1169,(48, 81),8	1192,(80, 81),8	1596,(52, 81),8	1632,(56, 81),8	1684,(72, 81),8	1715,(76, 81),8	1873,(22, 81),8	2168,(64, 81),8	2337,(4, 79),6444	
65,(3, 10),4	69,(3, 21),20	89,(3, 28),8	97,(3, 36),44	141,(3, 46),24	165,(3, 50),28	193,(3, 53),4	197,(3, 35),20	217,(3, 52),4	221,(3, 61),12	233,(3, 62),16	249,(3, 68),88	337,(3, 69),12	349,(3, 74),4	353,(13, 81),8	361,(29, 81),8	369,(8, 41),56	425,(8, 65),24	449,(8, 69),36	485,(8, 70),28	513,(8, 73),4	517,(55, 81),8	525,(47, 81),8	533,(34, 81),8	557,(3, 11),68	625,(3, 15),4	629,(8, 72),32	877,(3, 76),92	1116,(51, 81),8	1161,(63, 81),8	1356,(18, 81),8	1480,(38, 81),8	1588,(59, 81),8	1664,(67, 81),8	1695,(71, 81),8	1721,(8, 22),60	1865,(75, 81),8	1969,(8, 32),480	2449,(43, 81),8	8812,(79, 81),8	
357,(2, 9),176	533,(2, 10),12	545,(2, 24),8	553,(2, 32),4	557,(2, 33),56	613,(2, 46),60	673,(2, 48),24	697,(2, 50),4	701,(2, 52),164	865,(2, 68),12	877,(2, 70),28	969,(7, 17),12	981,(7, 20),56	1037,(7, 30),4	1041,(7, 44),28	1069,(7, 48),8	1077,(7, 80),4	1085,(2, 38),4	1089,(2, 63),4	1093,(2, 74),212	1305,(7, 21),84	1389,(7, 38),60	1449,(7, 59),108	1565,(7, 56),36	1601,(7, 67),32	1633,(7, 71),16	1673,(7, 64),48	2033,(7, 74),160	
1,(0, 2),16	17,(0, 3),16	33,(0, 4),16	49,(0, 5),16	65,(0, 7),16	81,(0, 8),16	97,(1, 20),96	193,(1, 24),4	197,(1, 27),16	213,(1, 31),4	217,(1, 34),28	245,(1, 35),4	249,(1, 38),104	353,(1, 40),4	357,(1, 51),728	1085,(1, 52),480	1565,(1, 53),4	1569,(1, 54),8	1577,(1, 58),4	1581,(1, 66),52	1633,(1, 72),20	1653,(1, 75),4	1657,(1, 76),16	1673,(1, 78),64	1737,(6, 16),128	1865,(6, 33),4	1869,(6, 37),4	1873,(6, 43),92	1965,(6, 45),20	1985,(6, 57),4	1989,(6, 58),44	2033,(6, 64),104	2137,(6, 69),4	2141,(6, 79),196	2337,(11, 81),8	2345,(15, 81),8	2353,(39, 81),8	2480,(32, 81),8	
