118
# CPU
0,121,1	1,25,1	2,63,1	3,111,1	4,45,1	5,41,1	6,70,1	7,73,1	8,13,1	9,94,1	10,71,1	11,112,1	12,113,1	13,109,1	14,50,1	15,16,1	16,98,1	17,119,1	18,66,1	19,77,1	20,84,1	21,49,1	22,85,1	23,74,1	24,99,1	25,22,1	26,20,1	27,108,1	28,48,1	29,61,1	30,115,1	31,82,1	32,56,1	33,23,1	34,89,1	35,95,1	36,44,1	37,46,1	38,86,1	39,105,1	40,91,1	41,35,1	42,104,1	43,52,1	44,43,1	45,53,1	46,110,1	47,102,1	48,75,1	49,90,1	50,33,1	51,30,1	52,21,1	53,26,1	54,31,1	55,37,1	56,97,1	57,67,1	58,62,1	59,107,1	60,42,1	61,14,1	62,7,1	63,83,1	64,18,1	65,93,1	66,55,1	67,54,1	68,29,1	69,9,1	70,39,1	71,78,1	72,57,1	73,27,1	74,96,1	75,101,1	76,65,1	77,100,1	78,40,1	79,81,1	80,59,1	81,103,1	82,34,1	83,87,1	84,64,1	85,80,1	86,79,1	87,12,1	88,32,1	89,38,1	90,2,1	91,76,1	92,47,1	93,51,1	94,36,1	95,60,1	96,69,1	97,120,1	98,68,1	99,10,1	100,15,1	101,17,1	102,4,1	103,72,1	104,106,1	105,58,1	106,24,1	107,8,1	108,92,1	109,116,1	110,6,1	111,88,1	112,114,1	113,5,1	114,1,1	115,3,1	116,11,1	117,0,1	
24,19,1	93,28,1	
47,118,1	70,117,1	
# Incoming
25,(19, 1),1	48,(118, 3),4	71,(117, 11),8	94,(28, 11),18	
1,(121, 19),23	70,(121, 28),23	
24,(121, 118),23	47,(121, 117),23	
# Outgoing
1,(121, 19),23	24,(121, 118),23	47,(121, 117),23	70,(121, 28),23	
25,(19, 1),1	94,(28, 11),18	
48,(118, 3),4	71,(117, 11),8	
