362
# CPU
0,0,1	1,8,10	11,31,10	21,80,10	31,23,10	41,5,10	51,59,10	61,19,10	71,29,10	81,50,10	91,7,10	101,11,10	111,48,10	121,21,10	131,1,10	141,38,10	151,44,10	161,49,10	171,60,10	181,6,10	191,18,10	201,16,10	211,28,10	221,55,10	231,79,10	241,75,10	251,77,10	261,2,10	271,61,10	281,32,10	291,14,10	301,57,10	311,12,10	321,30,10	331,63,10	341,9,10	351,42,10	361,81,1	
13,35,10	75,72,10	105,64,10	143,41,10	181,4,10	191,74,10	201,51,10	211,33,10	221,39,10	231,26,10	241,76,10	251,73,10	261,45,10	271,22,10	281,53,10	291,34,10	301,37,10	311,56,10	
15,65,10	145,13,10	193,40,10	203,15,10	213,66,10	231,46,10	267,3,10	277,58,10	287,25,10	297,43,10	307,52,10	317,10,10	327,69,10	337,68,10	347,70,10	
17,67,10	193,24,10	203,47,10	215,54,10	277,36,10	287,71,10	333,20,10	
53,62,10	111,17,10	195,78,10	205,27,10	
# Incoming
23,(35, 81),2	25,(65, 81),2	27,(67, 81),2	63,(62, 81),2	85,(72, 81),2	115,(64, 81),2	121,(17, 81),2	153,(41, 81),2	155,(13, 81),2	201,(74, 81),2	203,(24, 81),2	205,(40, 81),2	207,(78, 81),2	211,(51, 81),2	213,(47, 81),2	215,(15, 81),2	217,(27, 81),2	221,(33, 81),2	223,(66, 81),2	225,(54, 81),2	231,(39, 81),2	241,(26, 81),2	243,(46, 81),2	251,(76, 81),2	261,(73, 81),2	271,(45, 81),2	277,(3, 32),2	281,(22, 81),2	287,(58, 81),2	289,(36, 81),2	291,(53, 81),2	297,(25, 81),2	299,(71, 81),2	301,(34, 81),2	307,(43, 81),2	311,(37, 81),2	317,(52, 81),2	321,(56, 81),2	327,(10, 81),2	329,(3, 42),6	337,(69, 81),2	343,(20, 81),2	347,(68, 81),2	357,(70, 81),2	
11,(8, 35),2	29,(8, 34),6	53,(5, 72),22	99,(5, 45),2	101,(7, 64),4	111,(7, 41),2	119,(7, 37),18	141,(1, 41),2	145,(0, 4),36	181,(1, 22),6	279,(3, 53),2	281,(8, 56),20	
13,(8, 65),2	17,(8, 13),12	35,(8, 69),4	97,(5, 15),2	143,(1, 13),2	191,(6, 40),2	195,(4, 15),2	197,(4, 46),2	199,(6, 66),8	215,(1, 46),16	231,(0, 3),36	267,(6, 52),2	269,(6, 68),2	279,(2, 10),2	323,(4, 68),14	337,(6, 70),6	
15,(8, 67),2	113,(7, 54),4	117,(5, 71),2	191,(4, 24),2	193,(4, 47),2	199,(4, 71),2	207,(6, 54),8	271,(2, 36),6	277,(2, 71),2	281,(3, 71),4	289,(3, 20),8	301,(7, 20),32	
51,(5, 62),2	75,(5, 17),22	105,(7, 17),6	193,(6, 78),2	195,(6, 27),4	
# Outgoing
11,(8, 35),2	13,(8, 65),2	15,(8, 67),2	17,(8, 13),12	29,(8, 34),6	35,(8, 69),4	51,(5, 62),2	53,(5, 72),22	75,(5, 17),22	97,(5, 15),2	99,(5, 45),2	101,(7, 64),4	105,(7, 17),6	111,(7, 41),2	113,(7, 54),4	117,(5, 71),2	119,(7, 37),18	141,(1, 41),2	143,(1, 13),2	145,(0, 4),36	181,(1, 22),6	191,(6, 40),2	193,(6, 78),2	195,(6, 27),4	199,(6, 66),8	207,(6, 54),8	215,(1, 46),16	231,(0, 3),36	267,(6, 52),2	269,(6, 68),2	271,(2, 36),6	277,(2, 71),2	279,(2, 10),2	281,(8, 56),20	301,(7, 20),32	337,(6, 70),6	
23,(35, 81),2	85,(72, 81),2	115,(64, 81),2	153,(41, 81),2	191,(4, 24),2	193,(4, 47),2	195,(4, 15),2	197,(4, 46),2	199,(4, 71),2	201,(74, 81),2	211,(51, 81),2	221,(33, 81),2	231,(39, 81),2	241,(26, 81),2	251,(76, 81),2	261,(73, 81),2	271,(45, 81),2	281,(22, 81),2	291,(53, 81),2	301,(34, 81),2	311,(37, 81),2	321,(56, 81),2	323,(4, 68),14	
25,(65, 81),2	155,(13, 81),2	205,(40, 81),2	215,(15, 81),2	223,(66, 81),2	243,(46, 81),2	277,(3, 32),2	279,(3, 53),2	281,(3, 71),4	287,(58, 81),2	289,(3, 20),8	297,(25, 81),2	307,(43, 81),2	317,(52, 81),2	327,(10, 81),2	329,(3, 42),6	337,(69, 81),2	347,(68, 81),2	357,(70, 81),2	
27,(67, 81),2	203,(24, 81),2	213,(47, 81),2	225,(54, 81),2	289,(36, 81),2	299,(71, 81),2	343,(20, 81),2	
63,(62, 81),2	121,(17, 81),2	207,(78, 81),2	217,(27, 81),2	
