7910
# CPU
17,5,1	18,130,1	19,140,1	20,145,1	25,25,1	29,190,1	33,10,1	34,95,1	45,55,1	49,15,1	50,45,1	51,150,1	53,135,1	65,20,1	66,165,1	67,200,1	193,80,1	213,160,1	429,110,1	441,35,1	617,170,1	629,155,1	633,30,1	637,40,1	661,115,1	681,185,1	701,65,1	757,175,1	773,50,1	813,100,1	1177,70,1	1369,105,1	1457,125,1	1585,90,1	1881,195,1	2089,85,1	2105,120,1	2201,180,1	3161,60,1	3297,75,1	
13,4,1	14,79,1	15,154,1	17,44,1	21,174,1	29,9,1	30,104,1	31,134,1	32,144,1	33,109,1	45,14,1	46,74,1	47,129,1	49,24,1	61,19,1	62,124,1	65,39,1	109,29,1	169,84,1	305,159,1	317,54,1	333,69,1	445,114,1	541,64,1	601,59,1	637,94,1	641,189,1	721,164,1	761,179,1	765,119,1	769,34,1	781,89,1	833,169,1	985,199,1	1197,194,1	1325,99,1	1505,184,1	1529,139,1	1553,149,1	2025,49,1	
9,3,1	10,193,1	25,8,1	26,43,1	27,48,1	28,98,1	29,153,1	30,73,1	41,13,1	42,78,1	49,173,1	57,18,1	58,28,1	59,163,1	60,128,1	93,23,1	249,33,1	349,183,1	401,38,1	497,53,1	521,83,1	613,88,1	617,123,1	633,148,1	641,158,1	649,198,1	669,63,1	753,138,1	769,178,1	805,168,1	817,133,1	945,68,1	993,108,1	1065,113,1	1165,143,1	1209,103,1	1249,188,1	3001,58,1	3417,93,1	3477,118,1	
5,2,1	6,42,1	7,77,1	8,107,1	9,112,1	10,192,1	21,7,1	22,92,1	23,142,1	29,182,1	37,12,1	38,87,1	45,162,1	53,17,1	54,117,1	55,137,1	137,32,1	185,102,1	257,37,1	425,177,1	517,52,1	545,157,1	617,132,1	625,67,1	637,152,1	641,97,1	657,167,1	665,122,1	709,127,1	757,172,1	761,62,1	765,27,1	777,72,1	789,187,1	813,57,1	929,82,1	941,22,1	1009,197,1	1805,147,1	2169,47,1	
0,0,1	1,16,1	2,1,1	3,11,1	4,6,1	5,116,1	6,51,1	7,136,1	8,151,1	9,76,1	10,46,1	11,36,1	12,66,1	345,71,1	365,81,1	373,166,1	405,196,1	577,91,1	581,96,1	597,111,1	609,146,1	613,41,1	617,126,1	621,131,1	673,21,1	677,121,1	681,156,1	1165,26,1	1169,176,1	1309,171,1	1365,141,1	1601,186,1	1621,191,1	1769,106,1	2189,56,1	2201,31,1	2249,181,1	2697,101,1	3281,61,1	3353,86,1	3493,161,1	7909,201,1	
# Incoming
13,(0, 5),4	17,(3, 25),8	25,(7, 190),4	29,(0, 10),4	33,(7, 55),12	45,(0, 15),4	49,(12, 135),4	61,(0, 20),4	65,(2, 80),128	193,(3, 160),20	257,(16, 110),172	429,(13, 35),12	545,(1, 170),72	617,(4, 155),12	629,(9, 30),4	633,(9, 40),4	641,(11, 115),20	661,(4, 185),20	681,(17, 65),20	721,(11, 175),36	769,(6, 50),4	781,(6, 100),32	813,(2, 70),364	1177,(3, 105),192	1369,(4, 125),88	1561,(18, 90),24	1805,(9, 195),76	2073,(14, 85),16	2089,(14, 120),16	2105,(14, 180),96	3001,(19, 60),160	3281,(19, 75),16	
9,(0, 4),4	13,(2, 44),4	17,(2, 174),4	25,(0, 9),4	29,(8, 109),4	41,(0, 14),4	45,(13, 24),4	57,(0, 19),4	61,(17, 39),4	93,(16, 29),16	137,(3, 84),32	213,(8, 159),92	305,(18, 54),12	317,(18, 69),16	429,(16, 114),16	501,(13, 64),40	549,(12, 59),52	625,(11, 94),12	637,(5, 189),4	665,(11, 164),56	757,(11, 179),4	761,(15, 119),4	765,(6, 34),4	777,(6, 89),4	817,(6, 169),16	833,(13, 199),152	1169,(15, 194),28	1225,(17, 99),100	1357,(10, 184),148	1505,(20, 139),24	1529,(20, 149),24	1865,(15, 49),160	
5,(0, 3),4	21,(0, 8),4	37,(0, 13),4	45,(12, 173),4	53,(0, 18),4	65,(16, 23),28	109,(16, 33),140	337,(7, 183),12	349,(12, 38),52	453,(12, 53),44	517,(1, 83),4	609,(9, 88),4	613,(5, 123),4	621,(5, 148),12	637,(9, 158),4	641,(5, 198),8	649,(10, 63),20	709,(10, 138),44	765,(15, 178),4	769,(17, 168),36	813,(6, 133),4	941,(19, 68),4	969,(15, 108),24	1017,(9, 113),48	1065,(10, 143),100	1165,(14, 103),44	1209,(15, 188),40	2393,(19, 58),608	3353,(19, 93),64	3417,(19, 118),60	
1,(0, 2),4	17,(0, 7),4	25,(3, 182),4	33,(0, 12),4	37,(8, 162),8	49,(0, 17),4	53,(3, 32),84	169,(13, 102),16	249,(16, 37),8	405,(18, 177),20	445,(1, 52),72	521,(1, 157),24	613,(9, 132),4	617,(11, 67),8	633,(5, 152),4	637,(11, 97),4	641,(4, 167),16	661,(11, 122),4	669,(10, 127),40	753,(10, 172),4	757,(15, 62),4	761,(6, 27),4	773,(6, 72),4	777,(10, 187),12	789,(15, 57),24	825,(9, 82),104	929,(19, 22),12	993,(15, 197),16	1457,(9, 147),348	2025,(20, 47),144	
193,(42, 201),48	241,(77, 201),48	289,(107, 201),48	337,(3, 71),8	345,(3, 81),20	365,(3, 166),8	373,(3, 196),32	405,(112, 201),48	453,(193, 201),48	501,(192, 201),48	549,(4, 91),28	577,(4, 96),4	581,(4, 111),16	597,(4, 146),12	609,(5, 41),4	613,(8, 126),4	617,(5, 131),4	621,(92, 201),48	669,(13, 21),4	673,(13, 121),4	677,(17, 156),4	681,(79, 201),48	729,(154, 201),48	777,(44, 201),48	825,(130, 201),48	873,(140, 201),48	921,(145, 201),48	969,(174, 201),48	1017,(25, 201),48	1065,(43, 201),48	1113,(48, 201),48	1161,(9, 26),4	1165,(10, 176),4	1177,(142, 201),48	1225,(9, 171),84	1309,(190, 201),48	1357,(14, 141),8	1369,(98, 201),48	1417,(182, 201),48	1465,(153, 201),48	1513,(73, 201),48	1561,(10, 186),40	1601,(10, 191),20	1621,(95, 201),48	1669,(87, 201),48	1717,(13, 106),52	1769,(78, 201),48	1817,(55, 201),48	1881,(104, 201),48	1929,(134, 201),48	1977,(144, 201),48	2025,(109, 201),48	2073,(162, 201),48	2121,(173, 201),48	2169,(17, 56),20	2189,(20, 31),12	2201,(14, 181),48	2249,(74, 201),48	2297,(129, 201),48	2345,(24, 201),48	2393,(45, 201),48	2441,(150, 201),48	2489,(135, 201),48	2537,(117, 201),48	2585,(137, 201),48	2633,(18, 101),64	2697,(28, 201),48	2745,(163, 201),48	2793,(128, 201),48	2841,(165, 201),48	2889,(200, 201),48	2937,(23, 201),48	2985,(32, 201),48	3033,(102, 201),48	3081,(80, 201),48	3161,(19, 61),120	3297,(19, 86),56	3353,(160, 201),48	3401,(33, 201),48	3477,(19, 161),16	3493,(124, 201),48	3541,(39, 201),48	3589,(29, 201),48	3637,(84, 201),48	3685,(37, 201),48	3733,(159, 201),48	3781,(54, 201),48	3829,(69, 201),48	3877,(183, 201),48	3925,(38, 201),48	3973,(177, 201),48	4021,(110, 201),48	4069,(35, 201),48	4117,(114, 201),48	4165,(53, 201),48	4213,(52, 201),48	4261,(83, 201),48	4309,(64, 201),48	4357,(157, 201),48	4405,(59, 201),48	4453,(88, 201),48	4501,(170, 201),48	4549,(123, 201),48	4597,(132, 201),48	4645,(67, 201),48	4693,(155, 201),48	4741,(148, 201),48	4789,(30, 201),48	4837,(94, 201),48	4885,(40, 201),48	4933,(152, 201),48	4981,(189, 201),48	5029,(158, 201),48	5077,(97, 201),48	5125,(198, 201),48	5173,(167, 201),48	5221,(115, 201),48	5269,(122, 201),48	5317,(63, 201),48	5365,(185, 201),48	5413,(65, 201),48	5461,(127, 201),48	5509,(164, 201),48	5557,(138, 201),48	5605,(175, 201),48	5653,(172, 201),48	5701,(62, 201),48	5749,(179, 201),48	5797,(119, 201),48	5845,(27, 201),48	5893,(178, 201),48	5941,(34, 201),48	5989,(50, 201),48	6037,(72, 201),48	6085,(89, 201),48	6133,(187, 201),48	6181,(168, 201),48	6229,(100, 201),48	6277,(57, 201),48	6325,(133, 201),48	6373,(169, 201),48	6421,(82, 201),48	6469,(22, 201),48	6517,(68, 201),48	6565,(199, 201),48	6613,(108, 201),48	6661,(197, 201),48	6709,(113, 201),48	6757,(143, 201),48	6805,(70, 201),48	6853,(194, 201),48	6901,(103, 201),48	6949,(188, 201),48	6997,(99, 201),48	7045,(105, 201),48	7093,(125, 201),48	7141,(184, 201),48	7189,(139, 201),48	7237,(149, 201),48	7285,(90, 201),48	7333,(147, 201),48	7381,(195, 201),48	7429,(49, 201),48	7477,(85, 201),48	7525,(120, 201),48	7573,(47, 201),48	7621,(180, 201),48	7669,(58, 201),48	7717,(60, 201),48	7765,(75, 201),48	7813,(93, 201),48	7861,(118, 201),48	
# Outgoing
609,(5, 41),4	613,(5, 123),4	617,(5, 131),4	621,(5, 148),12	633,(5, 152),4	637,(5, 189),4	641,(5, 198),8	649,(10, 63),20	669,(10, 127),40	709,(10, 138),44	753,(10, 172),4	757,(15, 62),4	761,(15, 119),4	765,(15, 178),4	777,(10, 187),12	789,(15, 57),24	825,(130, 201),48	873,(140, 201),48	921,(145, 201),48	969,(15, 108),24	993,(15, 197),16	1017,(25, 201),48	1065,(10, 143),100	1165,(10, 176),4	1169,(15, 194),28	1209,(15, 188),40	1309,(190, 201),48	1357,(10, 184),148	1505,(20, 139),24	1529,(20, 149),24	1561,(10, 186),40	1601,(10, 191),20	1621,(95, 201),48	1817,(55, 201),48	1865,(15, 49),160	2025,(20, 47),144	2189,(20, 31),12	2393,(45, 201),48	2441,(150, 201),48	2489,(135, 201),48	2841,(165, 201),48	2889,(200, 201),48	3081,(80, 201),48	3353,(160, 201),48	4021,(110, 201),48	4069,(35, 201),48	4501,(170, 201),48	4693,(155, 201),48	4789,(30, 201),48	4885,(40, 201),48	5221,(115, 201),48	5365,(185, 201),48	5413,(65, 201),48	5605,(175, 201),48	5989,(50, 201),48	6229,(100, 201),48	6805,(70, 201),48	7045,(105, 201),48	7093,(125, 201),48	7285,(90, 201),48	7381,(195, 201),48	7477,(85, 201),48	7525,(120, 201),48	7621,(180, 201),48	7717,(60, 201),48	7765,(75, 201),48	
549,(4, 91),28	577,(4, 96),4	581,(4, 111),16	597,(4, 146),12	609,(9, 88),4	613,(9, 132),4	617,(4, 155),12	629,(9, 30),4	633,(9, 40),4	637,(9, 158),4	641,(4, 167),16	661,(4, 185),20	681,(79, 201),48	729,(154, 201),48	777,(44, 201),48	825,(9, 82),104	929,(19, 22),12	941,(19, 68),4	969,(174, 201),48	1017,(9, 113),48	1161,(9, 26),4	1165,(14, 103),44	1225,(9, 171),84	1357,(14, 141),8	1369,(4, 125),88	1457,(9, 147),348	1805,(9, 195),76	1881,(104, 201),48	1929,(134, 201),48	1977,(144, 201),48	2025,(109, 201),48	2073,(14, 85),16	2089,(14, 120),16	2105,(14, 180),96	2201,(14, 181),48	2249,(74, 201),48	2297,(129, 201),48	2345,(24, 201),48	2393,(19, 58),608	3001,(19, 60),160	3161,(19, 61),120	3281,(19, 75),16	3297,(19, 86),56	3353,(19, 93),64	3417,(19, 118),60	3477,(19, 161),16	3493,(124, 201),48	3541,(39, 201),48	3589,(29, 201),48	3637,(84, 201),48	3733,(159, 201),48	3781,(54, 201),48	3829,(69, 201),48	4117,(114, 201),48	4309,(64, 201),48	4405,(59, 201),48	4837,(94, 201),48	4981,(189, 201),48	5509,(164, 201),48	5749,(179, 201),48	5797,(119, 201),48	5941,(34, 201),48	6085,(89, 201),48	6373,(169, 201),48	6565,(199, 201),48	6853,(194, 201),48	6997,(99, 201),48	7141,(184, 201),48	7189,(139, 201),48	7237,(149, 201),48	7429,(49, 201),48	
17,(3, 25),8	25,(3, 182),4	29,(8, 109),4	37,(8, 162),8	45,(13, 24),4	53,(3, 32),84	137,(3, 84),32	169,(13, 102),16	193,(3, 160),20	213,(8, 159),92	305,(18, 54),12	317,(18, 69),16	337,(3, 71),8	345,(3, 81),20	365,(3, 166),8	373,(3, 196),32	405,(18, 177),20	429,(13, 35),12	453,(193, 201),48	501,(13, 64),40	613,(8, 126),4	669,(13, 21),4	673,(13, 121),4	833,(13, 199),152	1065,(43, 201),48	1113,(48, 201),48	1177,(3, 105),192	1369,(98, 201),48	1465,(153, 201),48	1513,(73, 201),48	1561,(18, 90),24	1717,(13, 106),52	1769,(78, 201),48	2121,(173, 201),48	2633,(18, 101),64	2697,(28, 201),48	2745,(163, 201),48	2793,(128, 201),48	2937,(23, 201),48	3401,(33, 201),48	3877,(183, 201),48	3925,(38, 201),48	4165,(53, 201),48	4261,(83, 201),48	4453,(88, 201),48	4549,(123, 201),48	4741,(148, 201),48	5029,(158, 201),48	5125,(198, 201),48	5317,(63, 201),48	5557,(138, 201),48	5893,(178, 201),48	6181,(168, 201),48	6325,(133, 201),48	6517,(68, 201),48	6613,(108, 201),48	6709,(113, 201),48	6757,(143, 201),48	6901,(103, 201),48	6949,(188, 201),48	7669,(58, 201),48	7813,(93, 201),48	7861,(118, 201),48	
13,(2, 44),4	17,(2, 174),4	25,(7, 190),4	33,(7, 55),12	45,(12, 173),4	49,(12, 135),4	61,(17, 39),4	65,(2, 80),128	193,(42, 201),48	241,(77, 201),48	289,(107, 201),48	337,(7, 183),12	349,(12, 38),52	405,(112, 201),48	453,(12, 53),44	501,(192, 201),48	549,(12, 59),52	621,(92, 201),48	677,(17, 156),4	681,(17, 65),20	769,(17, 168),36	813,(2, 70),364	1177,(142, 201),48	1225,(17, 99),100	1417,(182, 201),48	1669,(87, 201),48	2073,(162, 201),48	2169,(17, 56),20	2537,(117, 201),48	2585,(137, 201),48	2985,(32, 201),48	3033,(102, 201),48	3685,(37, 201),48	3973,(177, 201),48	4213,(52, 201),48	4357,(157, 201),48	4597,(132, 201),48	4645,(67, 201),48	4933,(152, 201),48	5077,(97, 201),48	5173,(167, 201),48	5269,(122, 201),48	5461,(127, 201),48	5653,(172, 201),48	5701,(62, 201),48	5845,(27, 201),48	6037,(72, 201),48	6133,(187, 201),48	6277,(57, 201),48	6421,(82, 201),48	6469,(22, 201),48	6661,(197, 201),48	7333,(147, 201),48	7573,(47, 201),48	
1,(0, 2),4	5,(0, 3),4	9,(0, 4),4	13,(0, 5),4	17,(0, 7),4	21,(0, 8),4	25,(0, 9),4	29,(0, 10),4	33,(0, 12),4	37,(0, 13),4	41,(0, 14),4	45,(0, 15),4	49,(0, 17),4	53,(0, 18),4	57,(0, 19),4	61,(0, 20),4	65,(16, 23),28	93,(16, 29),16	109,(16, 33),140	249,(16, 37),8	257,(16, 110),172	429,(16, 114),16	445,(1, 52),72	517,(1, 83),4	521,(1, 157),24	545,(1, 170),72	617,(11, 67),8	625,(11, 94),12	637,(11, 97),4	641,(11, 115),20	661,(11, 122),4	665,(11, 164),56	721,(11, 175),36	757,(11, 179),4	761,(6, 27),4	765,(6, 34),4	769,(6, 50),4	773,(6, 72),4	777,(6, 89),4	781,(6, 100),32	813,(6, 133),4	817,(6, 169),16	
