5086
# CPU
37,4,2	39,62,2	41,78,2	53,25,2	61,23,2	73,8,2	75,30,2	77,33,2	79,76,2	81,51,2	83,59,2	85,22,2	265,35,2	1329,74,2	1353,36,2	1357,28,2	1365,37,2	1369,39,2	1377,13,2	1381,42,2	1501,18,2	1533,19,2	1625,50,2	1645,63,2	1693,44,2	1697,46,2	1717,24,2	1749,26,2	1777,70,2	1953,57,2	1957,61,2	1989,68,2	2001,72,2	2169,34,2	2489,65,2	2581,55,2	2673,58,2	2805,80,2	2849,29,2	2881,31,2	3053,60,2	3065,20,2	3097,40,2	3145,49,2	3157,53,2	3177,54,2	3221,64,2	
25,3,2	27,73,2	29,75,2	37,17,2	61,7,2	63,15,2	241,52,2	473,71,2	613,11,2	637,41,2	857,43,2	869,45,2	1017,47,2	1113,48,2	1369,79,2	1777,56,2	1925,69,2	1965,66,2	2025,77,2	5085,81,1	
13,2,2	49,6,2	51,10,2	261,32,2	1385,16,2	1645,27,2	1977,67,2	
0,0,1	1,5,2	3,1,2	183,14,2	207,9,2	243,12,2	1073,21,2	1553,38,2	
# Incoming
25,(0, 4),12	37,(2, 13),4	41,(2, 25),12	53,(2, 61),4	57,(3, 23),4	61,(0, 8),12	73,(3, 22),12	85,(3, 28),32	117,(3, 57),4	121,(3, 65),4	125,(7, 46),4	129,(2, 20),48	177,(2, 26),32	209,(2, 46),12	221,(3, 29),16	237,(3, 34),16	253,(7, 50),4	261,(5, 35),4	265,(5, 39),8	273,(5, 40),704	977,(2, 39),72	1049,(2, 60),40	1089,(2, 70),20	1109,(6, 18),4	1113,(5, 49),148	1261,(5, 55),56	1317,(5, 57),4	1321,(5, 74),8	1329,(3, 36),24	1353,(6, 28),4	1357,(6, 37),8	1365,(6, 39),4	1369,(1, 13),8	1377,(6, 42),4	1385,(1, 18),116	1501,(1, 19),32	1533,(2, 44),68	1601,(3, 50),24	1625,(3, 63),20	1645,(1, 34),44	1689,(1, 44),4	1693,(1, 46),4	1697,(6, 24),20	1717,(6, 26),32	1749,(6, 53),20	1769,(7, 70),8	1777,(1, 57),176	1953,(1, 61),4	1957,(6, 58),20	1977,(1, 68),12	1989,(1, 72),12	2001,(2, 34),168	2169,(2, 64),208	2377,(2, 65),112	2489,(3, 55),92	2581,(3, 58),92	2673,(3, 80),132	2805,(6, 29),44	2849,(6, 31),32	2881,(6, 60),172	3053,(7, 20),12	3065,(7, 40),32	3097,(7, 49),48	3145,(7, 53),12	3157,(7, 54),20	3177,(7, 64),44	
13,(0, 3),12	25,(2, 17),12	49,(0, 7),12	61,(2, 11),68	183,(4, 47),20	203,(4, 66),4	221,(2, 52),20	241,(2, 56),184	425,(2, 66),8	433,(2, 77),24	457,(4, 71),16	473,(62, 81),68	541,(78, 81),68	609,(6, 11),4	613,(6, 41),24	637,(10, 81),68	705,(25, 81),68	773,(23, 81),68	841,(8, 43),16	857,(8, 45),12	869,(30, 81),68	977,(5, 47),40	1017,(5, 48),96	1113,(32, 81),68	1329,(5, 79),40	1387,(16, 81),68	1553,(33, 81),68	1621,(76, 81),68	1697,(1, 56),80	1777,(8, 69),148	1957,(1, 66),8	2001,(1, 77),24	2025,(51, 81),68	2093,(59, 81),68	2161,(22, 81),68	2229,(14, 81),68	2297,(9, 81),68	2365,(12, 81),68	2433,(35, 81),68	2501,(21, 81),68	2569,(74, 81),68	2637,(36, 81),68	2705,(28, 81),68	2773,(37, 81),68	2841,(39, 81),68	2909,(13, 81),68	2977,(42, 81),68	3045,(18, 81),68	3113,(19, 81),68	3181,(38, 81),68	3249,(50, 81),68	3317,(27, 81),68	3385,(63, 81),68	3453,(44, 81),68	3521,(46, 81),68	3589,(24, 81),68	3657,(26, 81),68	3725,(70, 81),68	3793,(57, 81),68	3861,(61, 81),68	3929,(67, 81),68	3997,(68, 81),68	4065,(72, 81),68	4133,(34, 81),68	4201,(65, 81),68	4269,(55, 81),68	4337,(58, 81),68	4405,(80, 81),68	4473,(29, 81),68	4541,(31, 81),68	4609,(60, 81),68	4677,(20, 81),68	4745,(40, 81),68	4813,(49, 81),68	4881,(53, 81),68	4949,(54, 81),68	5017,(64, 81),68	
1,(0, 2),12	37,(0, 6),12	73,(5, 32),188	261,(3, 67),392	653,(7, 16),76	1377,(1, 16),8	1533,(1, 27),112	1965,(1, 67),12	
15,(2, 9),8	27,(3, 21),12	39,(4, 14),144	183,(7, 9),24	207,(8, 12),36	729,(7, 21),344	1073,(8, 38),480	
# Outgoing
39,(4, 14),144	183,(4, 47),20	203,(4, 66),4	207,(8, 12),36	457,(4, 71),16	473,(62, 81),68	541,(78, 81),68	705,(25, 81),68	773,(23, 81),68	841,(8, 43),16	857,(8, 45),12	869,(30, 81),68	1073,(8, 38),480	1553,(33, 81),68	1621,(76, 81),68	1777,(8, 69),148	2025,(51, 81),68	2093,(59, 81),68	2161,(22, 81),68	2433,(35, 81),68	2569,(74, 81),68	2637,(36, 81),68	2705,(28, 81),68	2773,(37, 81),68	2841,(39, 81),68	2909,(13, 81),68	2977,(42, 81),68	3045,(18, 81),68	3113,(19, 81),68	3249,(50, 81),68	3385,(63, 81),68	3453,(44, 81),68	3521,(46, 81),68	3589,(24, 81),68	3657,(26, 81),68	3725,(70, 81),68	3793,(57, 81),68	3861,(61, 81),68	3997,(68, 81),68	4065,(72, 81),68	4133,(34, 81),68	4201,(65, 81),68	4269,(55, 81),68	4337,(58, 81),68	4405,(80, 81),68	4473,(29, 81),68	4541,(31, 81),68	4609,(60, 81),68	4677,(20, 81),68	4745,(40, 81),68	4813,(49, 81),68	4881,(53, 81),68	4949,(54, 81),68	5017,(64, 81),68	
27,(3, 21),12	57,(3, 23),4	73,(3, 22),12	85,(3, 28),32	117,(3, 57),4	121,(3, 65),4	125,(7, 46),4	183,(7, 9),24	221,(3, 29),16	237,(3, 34),16	253,(7, 50),4	261,(3, 67),392	653,(7, 16),76	729,(7, 21),344	1329,(3, 36),24	1601,(3, 50),24	1625,(3, 63),20	1769,(7, 70),8	2489,(3, 55),92	2581,(3, 58),92	2673,(3, 80),132	3053,(7, 20),12	3065,(7, 40),32	3097,(7, 49),48	3145,(7, 53),12	3157,(7, 54),20	3177,(7, 64),44	
15,(2, 9),8	25,(2, 17),12	37,(2, 13),4	41,(2, 25),12	53,(2, 61),4	61,(2, 11),68	129,(2, 20),48	177,(2, 26),32	209,(2, 46),12	221,(2, 52),20	241,(2, 56),184	425,(2, 66),8	433,(2, 77),24	609,(6, 11),4	613,(6, 41),24	637,(10, 81),68	977,(2, 39),72	1049,(2, 60),40	1089,(2, 70),20	1109,(6, 18),4	1113,(32, 81),68	1353,(6, 28),4	1357,(6, 37),8	1365,(6, 39),4	1377,(6, 42),4	1387,(16, 81),68	1533,(2, 44),68	1697,(6, 24),20	1717,(6, 26),32	1749,(6, 53),20	1957,(6, 58),20	2001,(2, 34),168	2169,(2, 64),208	2377,(2, 65),112	2805,(6, 29),44	2849,(6, 31),32	2881,(6, 60),172	3317,(27, 81),68	3929,(67, 81),68	
1,(0, 2),12	13,(0, 3),12	25,(0, 4),12	37,(0, 6),12	49,(0, 7),12	61,(0, 8),12	73,(5, 32),188	261,(5, 35),4	265,(5, 39),8	273,(5, 40),704	977,(5, 47),40	1017,(5, 48),96	1113,(5, 49),148	1261,(5, 55),56	1317,(5, 57),4	1321,(5, 74),8	1329,(5, 79),40	1369,(1, 13),8	1377,(1, 16),8	1385,(1, 18),116	1501,(1, 19),32	1533,(1, 27),112	1645,(1, 34),44	1689,(1, 44),4	1693,(1, 46),4	1697,(1, 56),80	1777,(1, 57),176	1953,(1, 61),4	1957,(1, 66),8	1965,(1, 67),12	1977,(1, 68),12	1989,(1, 72),12	2001,(1, 77),24	2229,(14, 81),68	2297,(9, 81),68	2365,(12, 81),68	2501,(21, 81),68	3181,(38, 81),68	
