44501
# CPU
19777,32,2	27322,45,2	31018,195,2	31048,199,2	32935,141,2	32944,149,2	33535,24,2	33547,29,2	33568,48,2	34162,54,2	34543,135,2	34558,142,2	34591,171,2	34615,181,2	34900,30,2	36868,42,2	36985,68,2	37198,102,2	37879,139,2	37906,143,2	38521,165,2	38626,193,2	38641,34,2	38674,38,2	38692,44,2	38704,62,2	38797,81,2	38815,93,2	38824,117,2	38833,123,2	38842,125,2	38848,160,2	38860,168,2	38863,182,2	39328,194,2	39514,26,2	39529,28,2	39664,41,2	39676,52,2	39679,56,2	43651,63,2	43729,65,2	43804,79,2	43807,105,2	43810,145,2	44107,157,2	44122,174,2	44125,190,2	44500,201,1	
31,2,2	46,3,2	61,4,2	76,5,2	91,6,2	736,118,2	1825,153,2	18082,83,2	18157,100,2	18316,96,2	18730,57,2	18856,196,2	18859,107,2	18871,116,2	18919,59,2	19099,71,2	19189,148,2	19225,112,2	19231,140,2	19246,147,2	19258,91,2	19273,198,2	19279,39,2	19360,36,2	19372,53,2	19384,73,2	19456,126,2	19489,128,2	19492,129,2	19522,131,2	19552,144,2	19609,177,2	19678,61,2	19702,84,2	19708,85,2	19711,86,2	19804,120,2	19831,159,2	19849,179,2	
151,13,2	181,17,2	196,18,2	211,19,2	226,20,2	310,164,2	445,162,2	1045,97,2	1051,27,2	1075,55,2	1147,50,2	1267,64,2	1432,72,2	1699,146,2	1756,88,2	1930,188,2	6328,113,2	6649,121,2	11650,114,2	11668,132,2	11671,134,2	11938,184,2	13186,67,2	13231,70,2	15934,130,2	16222,166,2	17191,173,2	18028,40,2	18205,101,2	18328,158,2	18331,161,2	18397,189,2	18490,200,2	18853,98,2	18862,111,2	19258,150,2	19369,169,2	
0,0,1	1,9,2	3,14,2	5,16,2	7,7,2	9,11,2	99,74,2	493,133,2	580,108,2	670,183,2	769,197,2	1051,186,2	1114,51,2	1447,92,2	1555,106,2	1609,163,2	1621,33,2	1816,124,2	1924,175,2	18310,80,2	18313,82,2	18382,103,2	18484,22,2	18580,170,2	18589,46,2	18628,89,2	18754,152,2	18757,58,2	19189,122,2	19531,137,2	19615,180,2	19666,21,2	19696,77,2	19795,115,2	19813,138,2	19816,151,2	19879,187,2	19900,192,2	
16,1,2	106,8,2	121,10,2	136,12,2	166,15,2	217,69,2	1468,90,2	11509,76,2	13165,66,2	18538,25,2	18598,47,2	18601,49,2	18613,37,2	18856,104,2	18916,136,2	19030,154,2	19156,31,2	19174,35,2	19186,95,2	19264,156,2	19285,167,2	19393,172,2	19411,109,2	19423,110,2	19432,119,2	19459,127,2	19540,185,2	19561,155,2	19651,191,2	19669,23,2	19672,43,2	19675,60,2	19690,75,2	19699,78,2	19732,87,2	19741,94,2	19744,99,2	19834,176,2	19846,178,2	
# Incoming
226,(9, 29),99	325,(9, 30),3	328,(9, 32),201	529,(9, 34),207	736,(1, 26),3	739,(1, 28),27	766,(1, 32),3	769,(9, 44),3	772,(9, 52),273	1045,(1, 81),3	1048,(9, 54),3	1051,(1, 29),18	1069,(1, 171),3	1072,(2, 24),3	1075,(9, 56),123	1198,(2, 28),3	1201,(2, 42),3	1204,(9, 62),4917	6121,(9, 68),3	6124,(1, 30),24	6148,(1, 79),18	6166,(1, 143),15	6181,(2, 79),3	6184,(2, 81),15	6199,(2, 145),3	6202,(3, 34),3	6205,(9, 102),45	6250,(1, 145),39	6289,(2, 117),9	6298,(3, 38),3	6301,(3, 48),3	6304,(3, 63),6	6310,(3, 123),3	6313,(3, 125),3	6316,(3, 143),3	6319,(3, 168),3	6322,(3, 182),3	6325,(3, 195),3	6328,(9, 117),318	6646,(3, 174),15	6661,(4, 30),3	6664,(4, 44),9	6673,(9, 135),57	6730,(9, 139),6	6736,(9, 145),9	6745,(4, 105),15	6760,(5, 56),6	6766,(9, 160),192	6958,(5, 26),12	6970,(9, 171),216	7186,(9, 181),15	7201,(9, 195),939	8140,(14, 28),168	8308,(14, 38),138	8446,(4, 45),30	8476,(14, 48),2967	11443,(14, 56),3	11446,(14, 62),39	11485,(1, 135),84	11569,(2, 135),45	11614,(4, 81),30	11644,(5, 125),3	11647,(6, 41),3	11650,(14, 125),3	11653,(5, 41),12	11665,(5, 149),6	11671,(14, 139),21	11692,(6, 48),3	11695,(6, 145),6	11701,(6, 157),3	11704,(6, 182),3	11707,(14, 142),6	11713,(14, 143),150	11863,(6, 193),6	11869,(14, 157),3	11872,(4, 182),27	11899,(14, 181),3	11902,(14, 182),3	11905,(4, 42),39	11944,(6, 195),3	11947,(8, 24),3	11950,(8, 32),6	11956,(8, 42),3	11959,(14, 190),84	12043,(14, 194),9	12052,(14, 195),168	12220,(14, 199),6	12226,(16, 24),66	12292,(16, 26),162	12454,(16, 29),189	12643,(16, 32),3	12646,(16, 34),12	12658,(8, 65),3	12661,(8, 105),6	12667,(8, 123),3	12670,(8, 168),3	12673,(16, 48),9	12682,(16, 52),240	12922,(16, 56),9	12931,(10, 56),3	12934,(10, 102),3	12937,(16, 65),210	13147,(1, 141),87	13234,(16, 81),3	13237,(4, 141),36	13273,(5, 45),21	13294,(16, 117),9	13303,(5, 62),27	13330,(10, 32),18	13348,(16, 125),2580	15928,(10, 135),3	15931,(10, 171),3	15934,(16, 141),6	15940,(16, 142),108	16048,(16, 143),45	16093,(16, 145),3	16096,(2, 199),87	16183,(16, 165),36	16219,(12, 32),3	16222,(16, 168),927	17149,(16, 171),3	17152,(5, 143),21	17173,(10, 44),15	17188,(12, 44),3	17191,(16, 174),12	17203,(16, 181),171	17374,(16, 190),3	17377,(7, 26),225	17602,(7, 28),18	17620,(7, 29),24	17644,(7, 30),240	17884,(7, 34),105	17989,(6, 42),24	18013,(10, 160),6	18019,(12, 48),3	18022,(12, 117),3	18025,(12, 171),3	18028,(7, 41),12	18040,(7, 48),18	18058,(7, 65),3	18061,(7, 68),12	18073,(12, 81),9	18082,(7, 93),3	18085,(2, 44),93	18178,(6, 44),21	18199,(12, 145),6	18205,(7, 102),3	18208,(6, 26),45	18253,(13, 26),3	18256,(13, 42),3	18259,(7, 117),3	18262,(7, 123),6	18268,(7, 125),27	18295,(6, 79),30	18325,(15, 29),3	18328,(15, 135),3	18331,(7, 165),6	18337,(7, 168),9	18346,(7, 171),9	18355,(6, 52),39	18394,(13, 105),6	18400,(7, 193),78	18478,(5, 181),54	18532,(15, 195),3	18535,(69, 201),3	18538,(11, 26),3	18541,(11, 30),66	18607,(11, 32),3	18610,(12, 52),12	18622,(11, 52),24	18646,(4, 102),72	18718,(12, 68),12	18730,(13, 30),9	18739,(11, 65),9	18748,(10, 68),24	18772,(13, 182),3	18775,(17, 26),3	18778,(18, 34),3	18781,(11, 79),3	18784,(4, 135),75	18859,(118, 201),3	18862,(90, 201),3	18865,(11, 123),21	18886,(12, 193),12	18898,(153, 201),3	18901,(76, 201),3	18904,(11, 135),9	18913,(18, 44),3	18916,(11, 141),3	18919,(17, 195),6	18925,(11, 145),186	19111,(1, 149),123	19234,(10, 79),24	19258,(18, 24),6	19264,(11, 157),15	19279,(18, 54),3	19282,(18, 56),3	19285,(11, 168),78	19363,(10, 157),30	19393,(11, 174),99	19492,(13, 34),21	19513,(18, 149),3	19516,(19, 28),3	19519,(11, 182),12	19531,(19, 48),3	19534,(19, 56),3	19537,(11, 190),3	19540,(19, 139),3	19543,(66, 201),3	19546,(11, 193),3	19549,(11, 199),3	19552,(2, 32),225	19777,(2, 48),114	19891,(3, 41),291	20182,(3, 68),177	20359,(3, 81),99	20458,(3, 102),1467	21925,(4, 123),1884	23809,(4, 139),126	23935,(4, 149),1032	24967,(4, 174),123	25090,(5, 24),84	25174,(5, 44),249	25423,(5, 54),96	25519,(5, 63),105	25624,(5, 68),189	25813,(5, 123),309	26122,(6, 38),222	26344,(6, 45),75	26419,(6, 105),357	26776,(6, 117),51	26827,(6, 135),45	26872,(6, 181),132	27004,(74, 201),3	27007,(8, 28),69	27076,(8, 45),246	27322,(8, 63),36	27358,(8, 79),906	28264,(8, 81),51	28315,(8, 93),192	28507,(8, 182),144	28651,(8, 194),1248	29899,(10, 24),168	30067,(10, 41),84	30151,(10, 165),78	30229,(10, 181),78	30307,(10, 195),51	30358,(10, 199),147	30505,(12, 38),36	30541,(12, 42),99	30640,(12, 62),138	30778,(12, 93),33	30811,(12, 143),87	30898,(12, 160),30	30928,(12, 165),54	30982,(12, 195),36	31018,(12, 199),30	31048,(13, 29),513	31561,(13, 38),24	31585,(13, 65),57	31642,(13, 125),153	31795,(13, 135),15	31810,(13, 142),231	32041,(13, 157),81	32122,(15, 42),30	32152,(15, 44),678	32830,(15, 56),18	32848,(15, 139),9	32857,(15, 141),78	32935,(15, 149),9	32944,(15, 157),12	32956,(15, 165),15	32971,(15, 171),15	32986,(15, 182),108	33094,(15, 193),9	33103,(15, 194),12	33115,(17, 24),420	33535,(17, 29),12	33547,(17, 48),21	33568,(17, 54),594	34162,(17, 81),9	34171,(17, 102),147	34318,(17, 105),24	34342,(17, 123),42	34384,(17, 125),93	34477,(17, 135),66	34543,(17, 142),15	34558,(17, 165),12	34570,(17, 171),21	34591,(17, 181),24	34615,(18, 28),102	34717,(18, 30),183	34900,(18, 42),1968	36868,(18, 63),60	36928,(18, 68),57	36985,(18, 93),135	37120,(18, 102),78	37198,(18, 105),561	37759,(18, 117),12	37771,(18, 139),108	37879,(18, 143),27	37906,(18, 145),102	38008,(18, 165),513	38521,(18, 190),12	38533,(18, 193),93	38626,(19, 34),15	38641,(19, 38),33	38674,(19, 44),18	38692,(19, 62),12	38704,(19, 63),15	38719,(19, 81),78	38797,(19, 93),18	38815,(19, 117),9	38824,(19, 123),9	38833,(19, 125),9	38842,(19, 160),6	38848,(19, 168),12	38860,(19, 182),3	38863,(19, 190),252	39115,(19, 194),213	39328,(20, 26),186	39514,(20, 28),15	39529,(20, 41),135	39664,(20, 52),12	39676,(20, 56),3	39679,(20, 63),3972	43651,(20, 65),78	43729,(20, 79),75	43804,(20, 105),3	43807,(20, 145),3	43810,(20, 157),297	44107,(20, 174),15	44122,(20, 190),3	44125,(164, 201),3	44128,(162, 201),3	44131,(133, 201),3	44134,(108, 201),3	44137,(183, 201),3	44140,(197, 201),3	44143,(97, 201),3	44146,(27, 201),3	44149,(186, 201),3	44152,(55, 201),3	44155,(51, 201),3	44158,(50, 201),3	44161,(64, 201),3	44164,(72, 201),3	44167,(92, 201),3	44170,(106, 201),3	44173,(163, 201),3	44176,(33, 201),3	44179,(146, 201),3	44182,(88, 201),3	44185,(124, 201),3	44188,(175, 201),3	44191,(188, 201),3	44194,(113, 201),3	44197,(121, 201),3	44200,(114, 201),3	44203,(132, 201),3	44206,(134, 201),3	44209,(184, 201),3	44212,(67, 201),3	44215,(70, 201),3	44218,(130, 201),3	44221,(166, 201),3	44224,(173, 201),3	44227,(40, 201),3	44230,(83, 201),3	44233,(100, 201),3	44236,(101, 201),3	44239,(80, 201),3	44242,(82, 201),3	44245,(96, 201),3	44248,(158, 201),3	44251,(161, 201),3	44254,(103, 201),3	44257,(189, 201),3	44260,(22, 201),3	44263,(200, 201),3	44266,(25, 201),3	44269,(170, 201),3	44272,(46, 201),3	44275,(47, 201),3	44278,(49, 201),3	44281,(37, 201),3	44284,(89, 201),3	44287,(57, 201),3	44290,(152, 201),3	44293,(58, 201),3	44296,(98, 201),3	44299,(104, 201),3	44302,(196, 201),3	44305,(107, 201),3	44308,(111, 201),3	44311,(116, 201),3	44314,(136, 201),3	44317,(59, 201),3	44320,(154, 201),3	44323,(71, 201),3	44326,(31, 201),3	44329,(35, 201),3	44332,(95, 201),3	44335,(148, 201),3	44338,(122, 201),3	44341,(112, 201),3	44344,(140, 201),3	44347,(147, 201),3	44350,(150, 201),3	44353,(91, 201),3	44356,(156, 201),3	44359,(198, 201),3	44362,(39, 201),3	44365,(167, 201),3	44368,(36, 201),3	44371,(169, 201),3	44374,(53, 201),3	44377,(73, 201),3	44380,(172, 201),3	44383,(109, 201),3	44386,(110, 201),3	44389,(119, 201),3	44392,(126, 201),3	44395,(127, 201),3	44398,(128, 201),3	44401,(129, 201),3	44404,(131, 201),3	44407,(137, 201),3	44410,(185, 201),3	44413,(144, 201),3	44416,(155, 201),3	44419,(177, 201),3	44422,(180, 201),3	44425,(191, 201),3	44428,(21, 201),3	44431,(23, 201),3	44434,(43, 201),3	44437,(60, 201),3	44440,(61, 201),3	44443,(75, 201),3	44446,(77, 201),3	44449,(78, 201),3	44452,(84, 201),3	44455,(85, 201),3	44458,(86, 201),3	44461,(87, 201),3	44464,(94, 201),3	44467,(99, 201),3	44470,(115, 201),3	44473,(120, 201),3	44476,(138, 201),3	44479,(151, 201),3	44482,(159, 201),3	44485,(176, 201),3	44488,(178, 201),3	44491,(179, 201),3	44494,(187, 201),3	44497,(192, 201),3	
16,(0, 2),15	31,(0, 3),15	46,(0, 4),15	61,(0, 5),15	76,(0, 6),15	91,(1, 53),6	97,(1, 57),72	169,(1, 59),3	172,(1, 71),21	193,(1, 91),6	322,(8, 36),36	358,(8, 39),3	370,(8, 71),24	394,(8, 84),39	436,(8, 91),3	469,(8, 96),3	478,(8, 126),3	481,(8, 129),9	568,(8, 198),3	691,(8, 140),27	721,(10, 73),12	733,(10, 118),3	769,(8, 147),24	838,(10, 84),6	856,(10, 148),3	859,(10, 179),9	925,(8, 153),57	1045,(9, 53),3	1093,(10, 140),15	1123,(10, 147),18	1165,(12, 59),12	1177,(12, 61),21	1198,(9, 57),3	1201,(9, 59),3	1204,(12, 53),45	1249,(12, 86),6	1255,(12, 107),3	1267,(12, 71),21	1288,(12, 73),42	1330,(12, 83),36	1366,(12, 112),6	1372,(12, 116),9	1504,(12, 129),15	1519,(12, 148),27	1552,(15, 73),3	1609,(12, 198),6	1621,(15, 36),12	1633,(15, 86),6	1639,(15, 96),9	1666,(15, 59),18	1696,(15, 107),3	1756,(15, 112),36	1816,(15, 126),6	1822,(15, 153),3	1825,(15, 198),3	6124,(9, 83),30	6154,(9, 84),3	6289,(9, 107),6	6670,(9, 129),3	6745,(9, 147),12	8446,(14, 39),21	11497,(14, 71),3	11548,(14, 100),69	11692,(14, 140),15	11863,(14, 144),6	11887,(14, 177),12	12658,(16, 36),15	12931,(16, 59),6	13237,(16, 83),21	13258,(16, 85),3	16147,(16, 159),36	17989,(7, 39),18	18073,(7, 71),3	18076,(7, 83),6	18139,(7, 96),3	18154,(7, 100),3	18232,(7, 107),12	18268,(13, 71),30	18298,(13, 73),3	18313,(13, 96),3	18316,(13, 129),3	18355,(7, 177),33	18388,(13, 140),3	18391,(13, 179),3	18400,(13, 112),54	18454,(13, 126),24	18478,(7, 196),6	18484,(13, 131),63	18613,(11, 39),6	18622,(17, 61),3	18646,(11, 53),30	18676,(11, 57),54	18739,(17, 107),6	18748,(11, 71),33	18781,(17, 36),72	18853,(17, 196),3	18856,(11, 107),3	18859,(17, 116),12	18871,(17, 179),9	18886,(11, 128),6	18892,(11, 129),12	18910,(18, 144),3	18916,(19, 59),3	18919,(11, 144),6	18925,(17, 73),30	18955,(17, 120),21	19084,(18, 71),15	19099,(18, 85),9	19111,(11, 147),75	19186,(11, 148),3	19189,(18, 91),30	19219,(18, 112),6	19225,(18, 140),6	19231,(18, 147),15	19246,(18, 159),9	19255,(19, 91),3	19264,(18, 198),9	19273,(19, 39),6	19285,(19, 36),75	19360,(19, 53),12	19372,(19, 73),12	19384,(19, 85),12	19432,(19, 126),24	19459,(19, 128),30	19489,(19, 129),3	19516,(11, 179),3	19519,(19, 131),3	19543,(19, 144),9	19561,(19, 177),48	19675,(20, 61),3	19699,(20, 84),3	19702,(20, 85),6	19708,(20, 86),3	19795,(20, 120),9	19816,(20, 159),15	19846,(20, 179),3	
136,(0, 13),15	151,(2, 72),9	160,(3, 55),3	163,(3, 72),3	166,(0, 17),15	181,(0, 18),15	196,(0, 19),15	211,(0, 20),15	226,(1, 111),12	238,(2, 50),42	280,(2, 132),9	289,(1, 146),3	292,(1, 161),6	298,(1, 164),12	310,(1, 188),9	319,(2, 114),15	334,(2, 150),63	397,(2, 161),12	409,(2, 162),36	445,(2, 166),39	484,(2, 169),9	493,(8, 40),69	562,(8, 158),3	565,(3, 98),6	571,(8, 111),18	589,(10, 27),6	595,(3, 121),3	646,(3, 166),3	649,(3, 188),3	652,(3, 189),18	670,(8, 132),21	694,(4, 40),54	763,(4, 166),3	772,(4, 98),45	817,(8, 146),21	847,(4, 114),21	868,(8, 134),57	982,(8, 166),18	1000,(8, 169),12	1012,(8, 189),21	1033,(10, 97),12	1048,(5, 27),3	1051,(9, 55),24	1075,(5, 40),42	1117,(10, 132),3	1120,(10, 146),3	1141,(12, 50),6	1147,(5, 72),24	1171,(5, 88),3	1174,(5, 132),3	1177,(5, 150),12	1204,(5, 134),54	1258,(12, 64),9	1297,(5, 173),27	1381,(15, 72),3	1393,(6, 67),9	1402,(6, 72),30	1459,(6, 88),6	1468,(6, 98),66	1534,(6, 101),6	1546,(12, 150),6	1555,(6, 130),48	1603,(6, 132),45	1648,(12, 146),18	1678,(6, 146),21	1699,(12, 189),21	1747,(15, 88),9	1768,(6, 158),12	1780,(6, 161),9	1792,(15, 114),3	1813,(6, 184),3	1828,(6, 200),12	1840,(15, 169),33	1924,(15, 188),6	1930,(15, 200),75	6190,(9, 98),15	6298,(9, 113),30	6646,(9, 121),3	6757,(9, 158),9	11521,(14, 98),27	11623,(14, 114),27	11653,(14, 132),15	11668,(14, 134),3	11872,(14, 161),3	11875,(14, 169),9	11884,(14, 173),3	11905,(14, 184),33	11938,(14, 189),21	13165,(16, 67),21	13186,(16, 70),45	13291,(16, 98),3	15931,(16, 130),3	16096,(16, 150),51	16219,(16, 166),3	17161,(16, 173),30	18007,(7, 40),21	18157,(7, 101),48	18244,(7, 111),15	18319,(7, 158),9	18328,(7, 161),3	18388,(7, 189),9	18484,(7, 200),6	18850,(11, 98),3	18859,(11, 111),3	19189,(11, 150),69	19363,(11, 169),6	
18,(1, 22),6	24,(1, 33),42	66,(1, 46),3	69,(1, 58),6	75,(1, 74),3	78,(1, 115),3	81,(1, 152),3	84,(1, 186),6	90,(2, 21),3	93,(2, 33),3	96,(2, 74),3	99,(2, 92),9	108,(2, 115),6	114,(2, 133),3	117,(2, 170),12	129,(3, 163),6	199,(1, 122),24	223,(1, 187),3	226,(2, 187),12	238,(1, 124),51	289,(2, 124),30	319,(1, 197),3	361,(8, 46),9	433,(8, 89),3	439,(8, 92),30	472,(8, 103),3	475,(8, 108),3	490,(8, 133),3	493,(3, 21),45	565,(8, 180),3	571,(3, 108),9	580,(3, 115),15	595,(8, 124),60	655,(8, 183),15	670,(3, 192),6	718,(10, 58),3	748,(4, 77),3	751,(4, 106),12	766,(4, 197),3	793,(8, 152),24	844,(10, 89),12	868,(4, 115),54	937,(4, 170),39	1033,(5, 22),15	1048,(10, 186),3	1072,(10, 103),21	1108,(12, 33),3	1111,(12, 51),3	1114,(12, 82),3	1117,(5, 58),30	1147,(10, 151),18	1189,(5, 151),3	1195,(6, 77),3	1198,(12, 137),3	1201,(12, 192),3	1258,(5, 137),39	1324,(5, 180),27	1363,(6, 46),21	1384,(10, 92),63	1447,(12, 103),21	1468,(12, 124),36	1543,(6, 106),12	1555,(12, 163),54	1615,(15, 21),3	1618,(15, 33),3	1648,(6, 137),30	1684,(15, 103),12	1699,(6, 151),6	1705,(6, 152),6	1720,(15, 58),27	1795,(15, 124),21	1816,(6, 187),12	1828,(15, 187),6	1873,(15, 175),51	18301,(13, 80),9	18310,(13, 82),3	18376,(13, 103),6	18385,(13, 192),3	18478,(17, 21),3	18481,(17, 22),3	18547,(13, 152),18	18565,(13, 170),15	18586,(17, 46),3	18601,(17, 58),21	18625,(17, 89),3	18670,(17, 137),54	18727,(17, 180),3	18745,(17, 152),9	18754,(18, 58),3	18760,(18, 138),3	18856,(18, 192),3	19108,(18, 187),12	19186,(19, 122),3	19522,(19, 137),9	19609,(19, 180),6	19651,(20, 21),15	19690,(20, 77),6	19744,(20, 115),51	19804,(20, 138),9	19813,(20, 151),3	19849,(20, 187),30	19879,(20, 192),21	
1,(0, 1),15	91,(0, 8),15	106,(0, 10),15	121,(0, 12),15	136,(2, 99),6	142,(2, 178),3	145,(3, 31),6	151,(0, 15),15	166,(2, 35),21	187,(2, 43),24	211,(3, 69),6	217,(3, 176),3	220,(3, 178),3	223,(3, 191),3	538,(3, 94),27	598,(3, 154),48	676,(4, 23),3	679,(4, 25),15	736,(9, 35),33	769,(4, 43),3	817,(4, 104),30	922,(4, 119),3	925,(4, 155),12	976,(4, 172),48	1024,(4, 176),9	1051,(5, 75),12	1063,(5, 76),6	1069,(5, 94),3	1192,(6, 35),3	1351,(6, 23),12	1384,(6, 66),9	1432,(6, 75),18	1450,(6, 76),9	1465,(6, 90),3	1540,(6, 104),3	1711,(6, 154),54	1765,(6, 156),3	1789,(6, 178),24	6157,(9, 94),33	6250,(9, 104),39	6295,(9, 109),3	6649,(9, 127),21	6958,(9, 167),12	8467,(14, 47),9	11485,(14, 66),12	11500,(14, 76),9	11509,(14, 78),9	11518,(14, 95),3	11617,(14, 109),6	13147,(16, 66),18	13231,(16, 75),3	13261,(16, 94),30	13303,(16, 119),45	15928,(16, 127),3	17152,(16, 172),9	18085,(7, 94),9	18094,(7, 95),45	18142,(7, 99),12	18208,(7, 104),24	18259,(13, 60),9	18295,(7, 136),9	18304,(7, 154),15	18319,(13, 75),3	18322,(13, 78),3	18325,(13, 87),51	18382,(13, 191),3	18397,(7, 191),3	18490,(11, 25),48	18580,(17, 35),3	18583,(17, 43),3	18589,(17, 47),9	18598,(17, 49),3	18610,(11, 37),3	18619,(11, 43),3	18628,(17, 95),3	18631,(17, 99),21	18652,(17, 110),15	18667,(17, 119),3	18724,(17, 178),3	18730,(11, 60),9	18757,(18, 75),3	18763,(18, 156),3	18766,(18, 178),3	18769,(18, 191),3	18784,(11, 94),27	18811,(11, 95),39	18853,(11, 104),3	18862,(11, 119),3	18880,(17, 191),30	18913,(11, 136),3	18976,(17, 154),54	19030,(18, 35),54	19120,(19, 31),36	19156,(19, 35),18	19174,(19, 75),9	19183,(19, 95),3	19258,(11, 156),6	19279,(11, 167),6	19369,(11, 172),24	19396,(19, 109),15	19411,(19, 110),12	19423,(19, 119),9	19456,(19, 127),3	19492,(11, 176),24	19531,(11, 185),6	19537,(19, 185),3	19540,(11, 191),6	19552,(19, 155),9	19615,(19, 191),36	19666,(20, 23),3	19669,(20, 43),3	19672,(20, 60),3	19678,(20, 75),12	19696,(20, 78),3	19711,(20, 87),21	19732,(20, 94),9	19741,(20, 99),3	19831,(20, 176),3	19834,(20, 178),12	
# Outgoing

90,(2, 21),3	93,(2, 33),3	96,(2, 74),3	99,(2, 92),9	108,(2, 115),6	114,(2, 133),3	117,(2, 170),12	129,(3, 163),6	136,(2, 99),6	142,(2, 178),3	145,(3, 31),6	151,(2, 72),9	160,(3, 55),3	163,(3, 72),3	166,(2, 35),21	187,(2, 43),24	211,(3, 69),6	217,(3, 176),3	220,(3, 178),3	223,(3, 191),3	226,(2, 187),12	238,(2, 50),42	280,(2, 132),9	289,(2, 124),30	319,(2, 114),15	334,(2, 150),63	397,(2, 161),12	409,(2, 162),36	445,(2, 166),39	484,(2, 169),9	493,(3, 21),45	538,(3, 94),27	565,(3, 98),6	571,(3, 108),9	580,(3, 115),15	595,(3, 121),3	598,(3, 154),48	646,(3, 166),3	649,(3, 188),3	652,(3, 189),18	670,(3, 192),6	676,(4, 23),3	679,(4, 25),15	694,(4, 40),54	748,(4, 77),3	751,(4, 106),12	763,(4, 166),3	766,(4, 197),3	769,(4, 43),3	772,(4, 98),45	817,(4, 104),30	847,(4, 114),21	868,(4, 115),54	922,(4, 119),3	925,(4, 155),12	937,(4, 170),39	976,(4, 172),48	1024,(4, 176),9	1033,(5, 22),15	1048,(5, 27),3	1051,(5, 75),12	1063,(5, 76),6	1069,(5, 94),3	1072,(2, 24),3	1075,(5, 40),42	1117,(5, 58),30	1147,(5, 72),24	1171,(5, 88),3	1174,(5, 132),3	1177,(5, 150),12	1189,(5, 151),3	1192,(6, 35),3	1195,(6, 77),3	1198,(2, 28),3	1201,(2, 42),3	1204,(5, 134),54	1258,(5, 137),39	1297,(5, 173),27	1324,(5, 180),27	1351,(6, 23),12	1363,(6, 46),21	1384,(6, 66),9	1393,(6, 67),9	1402,(6, 72),30	1432,(6, 75),18	1450,(6, 76),9	1459,(6, 88),6	1465,(6, 90),3	1468,(6, 98),66	1534,(6, 101),6	1540,(6, 104),3	1543,(6, 106),12	1555,(6, 130),48	1603,(6, 132),45	1648,(6, 137),30	1678,(6, 146),21	1699,(6, 151),6	1705,(6, 152),6	1711,(6, 154),54	1765,(6, 156),3	1768,(6, 158),12	1780,(6, 161),9	1789,(6, 178),24	1813,(6, 184),3	1816,(6, 187),12	1828,(6, 200),12	6181,(2, 79),3	6184,(2, 81),15	6199,(2, 145),3	6202,(3, 34),3	6289,(2, 117),9	6298,(3, 38),3	6301,(3, 48),3	6304,(3, 63),6	6310,(3, 123),3	6313,(3, 125),3	6316,(3, 143),3	6319,(3, 168),3	6322,(3, 182),3	6325,(3, 195),3	6646,(3, 174),15	6661,(4, 30),3	6664,(4, 44),9	6745,(4, 105),15	6760,(5, 56),6	6958,(5, 26),12	8446,(4, 45),30	11569,(2, 135),45	11614,(4, 81),30	11644,(5, 125),3	11647,(6, 41),3	11653,(5, 41),12	11665,(5, 149),6	11692,(6, 48),3	11695,(6, 145),6	11701,(6, 157),3	11704,(6, 182),3	11863,(6, 193),6	11872,(4, 182),27	11905,(4, 42),39	11944,(6, 195),3	13237,(4, 141),36	13273,(5, 45),21	13303,(5, 62),27	16096,(2, 199),87	17152,(5, 143),21	17989,(6, 42),24	18085,(2, 44),93	18178,(6, 44),21	18208,(6, 26),45	18295,(6, 79),30	18355,(6, 52),39	18478,(5, 181),54	18646,(4, 102),72	18784,(4, 135),75	18859,(118, 201),3	18898,(153, 201),3	19552,(2, 32),225	19777,(2, 48),114	19891,(3, 41),291	20182,(3, 68),177	20359,(3, 81),99	20458,(3, 102),1467	21925,(4, 123),1884	23809,(4, 139),126	23935,(4, 149),1032	24967,(4, 174),123	25090,(5, 24),84	25174,(5, 44),249	25423,(5, 54),96	25519,(5, 63),105	25624,(5, 68),189	25813,(5, 123),309	26122,(6, 38),222	26344,(6, 45),75	26419,(6, 105),357	26776,(6, 117),51	26827,(6, 135),45	26872,(6, 181),132	44230,(83, 201),3	44233,(100, 201),3	44245,(96, 201),3	44287,(57, 201),3	44302,(196, 201),3	44305,(107, 201),3	44311,(116, 201),3	44317,(59, 201),3	44323,(71, 201),3	44335,(148, 201),3	44341,(112, 201),3	44344,(140, 201),3	44347,(147, 201),3	44353,(91, 201),3	44359,(198, 201),3	44362,(39, 201),3	44368,(36, 201),3	44374,(53, 201),3	44377,(73, 201),3	44392,(126, 201),3	44398,(128, 201),3	44401,(129, 201),3	44404,(131, 201),3	44413,(144, 201),3	44419,(177, 201),3	44440,(61, 201),3	44452,(84, 201),3	44455,(85, 201),3	44458,(86, 201),3	44473,(120, 201),3	44482,(159, 201),3	44491,(179, 201),3	
18253,(13, 26),3	18256,(13, 42),3	18259,(13, 60),9	18268,(13, 71),30	18298,(13, 73),3	18301,(13, 80),9	18310,(13, 82),3	18313,(13, 96),3	18316,(13, 129),3	18319,(13, 75),3	18322,(13, 78),3	18325,(13, 87),51	18376,(13, 103),6	18382,(13, 191),3	18385,(13, 192),3	18388,(13, 140),3	18391,(13, 179),3	18394,(13, 105),6	18400,(13, 112),54	18454,(13, 126),24	18478,(17, 21),3	18481,(17, 22),3	18484,(13, 131),63	18547,(13, 152),18	18565,(13, 170),15	18580,(17, 35),3	18583,(17, 43),3	18586,(17, 46),3	18589,(17, 47),9	18598,(17, 49),3	18601,(17, 58),21	18622,(17, 61),3	18625,(17, 89),3	18628,(17, 95),3	18631,(17, 99),21	18652,(17, 110),15	18667,(17, 119),3	18670,(17, 137),54	18724,(17, 178),3	18727,(17, 180),3	18730,(13, 30),9	18739,(17, 107),6	18745,(17, 152),9	18754,(18, 58),3	18757,(18, 75),3	18760,(18, 138),3	18763,(18, 156),3	18766,(18, 178),3	18769,(18, 191),3	18772,(13, 182),3	18775,(17, 26),3	18778,(18, 34),3	18781,(17, 36),72	18853,(17, 196),3	18856,(18, 192),3	18859,(17, 116),12	18871,(17, 179),9	18880,(17, 191),30	18910,(18, 144),3	18913,(18, 44),3	18916,(19, 59),3	18919,(17, 195),6	18925,(17, 73),30	18955,(17, 120),21	18976,(17, 154),54	19030,(18, 35),54	19084,(18, 71),15	19099,(18, 85),9	19108,(18, 187),12	19120,(19, 31),36	19156,(19, 35),18	19174,(19, 75),9	19183,(19, 95),3	19186,(19, 122),3	19189,(18, 91),30	19219,(18, 112),6	19225,(18, 140),6	19231,(18, 147),15	19246,(18, 159),9	19255,(19, 91),3	19258,(18, 24),6	19264,(18, 198),9	19273,(19, 39),6	19279,(18, 54),3	19282,(18, 56),3	19285,(19, 36),75	19360,(19, 53),12	19372,(19, 73),12	19384,(19, 85),12	19396,(19, 109),15	19411,(19, 110),12	19423,(19, 119),9	19432,(19, 126),24	19456,(19, 127),3	19459,(19, 128),30	19489,(19, 129),3	19492,(13, 34),21	19513,(18, 149),3	19516,(19, 28),3	19519,(19, 131),3	19522,(19, 137),9	19531,(19, 48),3	19534,(19, 56),3	19537,(19, 185),3	19540,(19, 139),3	19543,(19, 144),9	19552,(19, 155),9	19561,(19, 177),48	19609,(19, 180),6	19615,(19, 191),36	19651,(20, 21),15	19666,(20, 23),3	19669,(20, 43),3	19672,(20, 60),3	19675,(20, 61),3	19678,(20, 75),12	19690,(20, 77),6	19696,(20, 78),3	19699,(20, 84),3	19702,(20, 85),6	19708,(20, 86),3	19711,(20, 87),21	19732,(20, 94),9	19741,(20, 99),3	19744,(20, 115),51	19795,(20, 120),9	19804,(20, 138),9	19813,(20, 151),3	19816,(20, 159),15	19831,(20, 176),3	19834,(20, 178),12	19846,(20, 179),3	19849,(20, 187),30	19879,(20, 192),21	31048,(13, 29),513	31561,(13, 38),24	31585,(13, 65),57	31642,(13, 125),153	31795,(13, 135),15	31810,(13, 142),231	32041,(13, 157),81	33115,(17, 24),420	33535,(17, 29),12	33547,(17, 48),21	33568,(17, 54),594	34162,(17, 81),9	34171,(17, 102),147	34318,(17, 105),24	34342,(17, 123),42	34384,(17, 125),93	34477,(17, 135),66	34543,(17, 142),15	34558,(17, 165),12	34570,(17, 171),21	34591,(17, 181),24	34615,(18, 28),102	34717,(18, 30),183	34900,(18, 42),1968	36868,(18, 63),60	36928,(18, 68),57	36985,(18, 93),135	37120,(18, 102),78	37198,(18, 105),561	37759,(18, 117),12	37771,(18, 139),108	37879,(18, 143),27	37906,(18, 145),102	38008,(18, 165),513	38521,(18, 190),12	38533,(18, 193),93	38626,(19, 34),15	38641,(19, 38),33	38674,(19, 44),18	38692,(19, 62),12	38704,(19, 63),15	38719,(19, 81),78	38797,(19, 93),18	38815,(19, 117),9	38824,(19, 123),9	38833,(19, 125),9	38842,(19, 160),6	38848,(19, 168),12	38860,(19, 182),3	38863,(19, 190),252	39115,(19, 194),213	39328,(20, 26),186	39514,(20, 28),15	39529,(20, 41),135	39664,(20, 52),12	39676,(20, 56),3	39679,(20, 63),3972	43651,(20, 65),78	43729,(20, 79),75	43804,(20, 105),3	43807,(20, 145),3	43810,(20, 157),297	44107,(20, 174),15	44122,(20, 190),3	44125,(164, 201),3	44128,(162, 201),3	44143,(97, 201),3	44146,(27, 201),3	44152,(55, 201),3	44158,(50, 201),3	44161,(64, 201),3	44164,(72, 201),3	44179,(146, 201),3	44182,(88, 201),3	44191,(188, 201),3	44194,(113, 201),3	44197,(121, 201),3	44200,(114, 201),3	44203,(132, 201),3	44206,(134, 201),3	44209,(184, 201),3	44212,(67, 201),3	44215,(70, 201),3	44218,(130, 201),3	44221,(166, 201),3	44224,(173, 201),3	44227,(40, 201),3	44236,(101, 201),3	44248,(158, 201),3	44251,(161, 201),3	44257,(189, 201),3	44263,(200, 201),3	44296,(98, 201),3	44308,(111, 201),3	44350,(150, 201),3	44371,(169, 201),3	
1,(0, 1),15	16,(0, 2),15	31,(0, 3),15	46,(0, 4),15	61,(0, 5),15	76,(0, 6),15	91,(0, 8),15	106,(0, 10),15	121,(0, 12),15	136,(0, 13),15	151,(0, 15),15	166,(0, 17),15	181,(0, 18),15	196,(0, 19),15	211,(0, 20),15	226,(9, 29),99	325,(9, 30),3	328,(9, 32),201	529,(9, 34),207	736,(9, 35),33	769,(9, 44),3	772,(9, 52),273	1045,(9, 53),3	1048,(9, 54),3	1051,(9, 55),24	1075,(9, 56),123	1198,(9, 57),3	1201,(9, 59),3	1204,(9, 62),4917	6121,(9, 68),3	6124,(9, 83),30	6154,(9, 84),3	6157,(9, 94),33	6190,(9, 98),15	6205,(9, 102),45	6250,(9, 104),39	6289,(9, 107),6	6295,(9, 109),3	6298,(9, 113),30	6328,(9, 117),318	6646,(9, 121),3	6649,(9, 127),21	6670,(9, 129),3	6673,(9, 135),57	6730,(9, 139),6	6736,(9, 145),9	6745,(9, 147),12	6757,(9, 158),9	6766,(9, 160),192	6958,(9, 167),12	6970,(9, 171),216	7186,(9, 181),15	7201,(9, 195),939	8140,(14, 28),168	8308,(14, 38),138	8446,(14, 39),21	8467,(14, 47),9	8476,(14, 48),2967	11443,(14, 56),3	11446,(14, 62),39	11485,(14, 66),12	11497,(14, 71),3	11500,(14, 76),9	11509,(14, 78),9	11518,(14, 95),3	11521,(14, 98),27	11548,(14, 100),69	11617,(14, 109),6	11623,(14, 114),27	11650,(14, 125),3	11653,(14, 132),15	11668,(14, 134),3	11671,(14, 139),21	11692,(14, 140),15	11707,(14, 142),6	11713,(14, 143),150	11863,(14, 144),6	11869,(14, 157),3	11872,(14, 161),3	11875,(14, 169),9	11884,(14, 173),3	11887,(14, 177),12	11899,(14, 181),3	11902,(14, 182),3	11905,(14, 184),33	11938,(14, 189),21	11959,(14, 190),84	12043,(14, 194),9	12052,(14, 195),168	12220,(14, 199),6	12226,(16, 24),66	12292,(16, 26),162	12454,(16, 29),189	12643,(16, 32),3	12646,(16, 34),12	12658,(16, 36),15	12673,(16, 48),9	12682,(16, 52),240	12922,(16, 56),9	12931,(16, 59),6	12937,(16, 65),210	13147,(16, 66),18	13165,(16, 67),21	13186,(16, 70),45	13231,(16, 75),3	13234,(16, 81),3	13237,(16, 83),21	13258,(16, 85),3	13261,(16, 94),30	13291,(16, 98),3	13294,(16, 117),9	13303,(16, 119),45	13348,(16, 125),2580	15928,(16, 127),3	15931,(16, 130),3	15934,(16, 141),6	15940,(16, 142),108	16048,(16, 143),45	16093,(16, 145),3	16096,(16, 150),51	16147,(16, 159),36	16183,(16, 165),36	16219,(16, 166),3	16222,(16, 168),927	17149,(16, 171),3	17152,(16, 172),9	17161,(16, 173),30	17191,(16, 174),12	17203,(16, 181),171	17374,(16, 190),3	17377,(7, 26),225	17602,(7, 28),18	17620,(7, 29),24	17644,(7, 30),240	17884,(7, 34),105	17989,(7, 39),18	18007,(7, 40),21	18028,(7, 41),12	18040,(7, 48),18	18058,(7, 65),3	18061,(7, 68),12	18073,(7, 71),3	18076,(7, 83),6	18082,(7, 93),3	18085,(7, 94),9	18094,(7, 95),45	18139,(7, 96),3	18142,(7, 99),12	18154,(7, 100),3	18157,(7, 101),48	18205,(7, 102),3	18208,(7, 104),24	18232,(7, 107),12	18244,(7, 111),15	18259,(7, 117),3	18262,(7, 123),6	18268,(7, 125),27	18295,(7, 136),9	18304,(7, 154),15	18319,(7, 158),9	18328,(7, 161),3	18331,(7, 165),6	18337,(7, 168),9	18346,(7, 171),9	18355,(7, 177),33	18388,(7, 189),9	18397,(7, 191),3	18400,(7, 193),78	18478,(7, 196),6	18484,(7, 200),6	18490,(11, 25),48	18538,(11, 26),3	18541,(11, 30),66	18607,(11, 32),3	18610,(11, 37),3	18613,(11, 39),6	18619,(11, 43),3	18622,(11, 52),24	18646,(11, 53),30	18676,(11, 57),54	18730,(11, 60),9	18739,(11, 65),9	18748,(11, 71),33	18781,(11, 79),3	18784,(11, 94),27	18811,(11, 95),39	18850,(11, 98),3	18853,(11, 104),3	18856,(11, 107),3	18859,(11, 111),3	18862,(11, 119),3	18865,(11, 123),21	18886,(11, 128),6	18892,(11, 129),12	18904,(11, 135),9	18913,(11, 136),3	18916,(11, 141),3	18919,(11, 144),6	18925,(11, 145),186	19111,(11, 147),75	19186,(11, 148),3	19189,(11, 150),69	19258,(11, 156),6	19264,(11, 157),15	19279,(11, 167),6	19285,(11, 168),78	19363,(11, 169),6	19369,(11, 172),24	19393,(11, 174),99	19492,(11, 176),24	19516,(11, 179),3	19519,(11, 182),12	19531,(11, 185),6	19537,(11, 190),3	19540,(11, 191),6	19546,(11, 193),3	19549,(11, 199),3	27004,(74, 201),3	44131,(133, 201),3	44134,(108, 201),3	44137,(183, 201),3	44140,(197, 201),3	44149,(186, 201),3	44155,(51, 201),3	44167,(92, 201),3	44170,(106, 201),3	44173,(163, 201),3	44176,(33, 201),3	44185,(124, 201),3	44188,(175, 201),3	44239,(80, 201),3	44242,(82, 201),3	44254,(103, 201),3	44260,(22, 201),3	44269,(170, 201),3	44272,(46, 201),3	44284,(89, 201),3	44290,(152, 201),3	44293,(58, 201),3	44338,(122, 201),3	44407,(137, 201),3	44422,(180, 201),3	44428,(21, 201),3	44446,(77, 201),3	44470,(115, 201),3	44476,(138, 201),3	44479,(151, 201),3	44494,(187, 201),3	44497,(192, 201),3	
18,(1, 22),6	24,(1, 33),42	66,(1, 46),3	69,(1, 58),6	75,(1, 74),3	78,(1, 115),3	81,(1, 152),3	84,(1, 186),6	91,(1, 53),6	97,(1, 57),72	169,(1, 59),3	172,(1, 71),21	193,(1, 91),6	199,(1, 122),24	223,(1, 187),3	226,(1, 111),12	238,(1, 124),51	289,(1, 146),3	292,(1, 161),6	298,(1, 164),12	310,(1, 188),9	319,(1, 197),3	322,(8, 36),36	358,(8, 39),3	361,(8, 46),9	370,(8, 71),24	394,(8, 84),39	433,(8, 89),3	436,(8, 91),3	439,(8, 92),30	469,(8, 96),3	472,(8, 103),3	475,(8, 108),3	478,(8, 126),3	481,(8, 129),9	490,(8, 133),3	493,(8, 40),69	562,(8, 158),3	565,(8, 180),3	568,(8, 198),3	571,(8, 111),18	589,(10, 27),6	595,(8, 124),60	655,(8, 183),15	670,(8, 132),21	691,(8, 140),27	718,(10, 58),3	721,(10, 73),12	733,(10, 118),3	736,(1, 26),3	739,(1, 28),27	766,(1, 32),3	769,(8, 147),24	793,(8, 152),24	817,(8, 146),21	838,(10, 84),6	844,(10, 89),12	856,(10, 148),3	859,(10, 179),9	868,(8, 134),57	925,(8, 153),57	982,(8, 166),18	1000,(8, 169),12	1012,(8, 189),21	1033,(10, 97),12	1045,(1, 81),3	1048,(10, 186),3	1051,(1, 29),18	1069,(1, 171),3	1072,(10, 103),21	1093,(10, 140),15	1108,(12, 33),3	1111,(12, 51),3	1114,(12, 82),3	1117,(10, 132),3	1120,(10, 146),3	1123,(10, 147),18	1141,(12, 50),6	1147,(10, 151),18	1165,(12, 59),12	1177,(12, 61),21	1198,(12, 137),3	1201,(12, 192),3	1204,(12, 53),45	1249,(12, 86),6	1255,(12, 107),3	1258,(12, 64),9	1267,(12, 71),21	1288,(12, 73),42	1330,(12, 83),36	1366,(12, 112),6	1372,(12, 116),9	1381,(15, 72),3	1384,(10, 92),63	1447,(12, 103),21	1468,(12, 124),36	1504,(12, 129),15	1519,(12, 148),27	1546,(12, 150),6	1552,(15, 73),3	1555,(12, 163),54	1609,(12, 198),6	1615,(15, 21),3	1618,(15, 33),3	1621,(15, 36),12	1633,(15, 86),6	1639,(15, 96),9	1648,(12, 146),18	1666,(15, 59),18	1684,(15, 103),12	1696,(15, 107),3	1699,(12, 189),21	1720,(15, 58),27	1747,(15, 88),9	1756,(15, 112),36	1792,(15, 114),3	1795,(15, 124),21	1816,(15, 126),6	1822,(15, 153),3	1825,(15, 198),3	1828,(15, 187),6	1840,(15, 169),33	1873,(15, 175),51	1924,(15, 188),6	1930,(15, 200),75	6124,(1, 30),24	6148,(1, 79),18	6166,(1, 143),15	6250,(1, 145),39	11485,(1, 135),84	11947,(8, 24),3	11950,(8, 32),6	11956,(8, 42),3	12658,(8, 65),3	12661,(8, 105),6	12667,(8, 123),3	12670,(8, 168),3	12931,(10, 56),3	12934,(10, 102),3	13147,(1, 141),87	13330,(10, 32),18	15928,(10, 135),3	15931,(10, 171),3	16219,(12, 32),3	17173,(10, 44),15	17188,(12, 44),3	18013,(10, 160),6	18019,(12, 48),3	18022,(12, 117),3	18025,(12, 171),3	18073,(12, 81),9	18199,(12, 145),6	18325,(15, 29),3	18328,(15, 135),3	18532,(15, 195),3	18535,(69, 201),3	18610,(12, 52),12	18718,(12, 68),12	18748,(10, 68),24	18862,(90, 201),3	18886,(12, 193),12	18901,(76, 201),3	19111,(1, 149),123	19234,(10, 79),24	19363,(10, 157),30	19543,(66, 201),3	27007,(8, 28),69	27076,(8, 45),246	27322,(8, 63),36	27358,(8, 79),906	28264,(8, 81),51	28315,(8, 93),192	28507,(8, 182),144	28651,(8, 194),1248	29899,(10, 24),168	30067,(10, 41),84	30151,(10, 165),78	30229,(10, 181),78	30307,(10, 195),51	30358,(10, 199),147	30505,(12, 38),36	30541,(12, 42),99	30640,(12, 62),138	30778,(12, 93),33	30811,(12, 143),87	30898,(12, 160),30	30928,(12, 165),54	30982,(12, 195),36	31018,(12, 199),30	32122,(15, 42),30	32152,(15, 44),678	32830,(15, 56),18	32848,(15, 139),9	32857,(15, 141),78	32935,(15, 149),9	32944,(15, 157),12	32956,(15, 165),15	32971,(15, 171),15	32986,(15, 182),108	33094,(15, 193),9	33103,(15, 194),12	44266,(25, 201),3	44275,(47, 201),3	44278,(49, 201),3	44281,(37, 201),3	44299,(104, 201),3	44314,(136, 201),3	44320,(154, 201),3	44326,(31, 201),3	44329,(35, 201),3	44332,(95, 201),3	44356,(156, 201),3	44365,(167, 201),3	44380,(172, 201),3	44383,(109, 201),3	44386,(110, 201),3	44389,(119, 201),3	44395,(127, 201),3	44410,(185, 201),3	44416,(155, 201),3	44425,(191, 201),3	44431,(23, 201),3	44434,(43, 201),3	44437,(60, 201),3	44443,(75, 201),3	44449,(78, 201),3	44461,(87, 201),3	44464,(94, 201),3	44467,(99, 201),3	44485,(176, 201),3	44488,(178, 201),3	
