932
# CPU
0,121,1	1,96,6	7,63,6	13,82,6	19,103,6	25,50,6	31,46,6	37,49,6	43,113,6	49,94,6	55,59,6	61,24,6	67,77,6	73,109,6	79,48,6	85,114,6	91,93,6	97,87,6	103,72,6	109,16,6	115,17,6	121,38,6	127,36,6	133,22,6	139,13,6	145,39,6	151,70,6	157,41,6	163,18,6	169,111,6	175,104,6	181,92,6	187,61,6	193,58,6	199,57,6	205,33,6	211,15,6	217,47,6	223,120,6	229,51,6	235,85,6	241,27,6	247,75,6	253,98,6	259,106,6	265,23,6	271,115,6	277,55,6	283,95,6	289,65,6	295,31,6	301,97,6	307,86,6	313,107,6	319,53,6	325,45,6	331,20,6	337,25,6	343,29,6	349,116,6	355,112,6	361,34,6	367,21,6	373,99,6	379,73,6	385,14,6	391,62,6	397,56,6	403,32,6	409,100,6	415,80,6	421,78,6	427,119,6	433,101,6	439,26,6	445,71,6	451,108,6	457,90,6	463,19,6	469,44,6	475,74,6	481,84,6	487,67,6	493,91,6	499,52,6	505,64,6	511,117,6	517,2,6	523,69,6	529,89,6	535,118,6	541,79,6	547,37,6	553,102,6	559,35,6	565,40,6	571,11,6	577,7,6	583,8,6	589,10,6	595,6,6	601,1,6	607,12,6	613,4,6	667,9,6	867,3,6	931,0,1	
41,81,6	81,76,6	121,28,6	161,88,6	281,83,6	321,60,6	441,43,6	561,42,6	775,5,6	
201,54,6	241,68,6	361,110,6	401,105,6	481,30,6	521,66,6	
# Incoming
127,(28, 11),4	131,(76, 7),4	135,(81, 4),4	167,(88, 8),8	247,(68, 10),12	259,(54, 3),8	287,(83, 1),16	303,(83, 12),20	327,(60, 4),28	367,(110, 4),36	407,(105, 1),4	487,(30, 12),44	567,(42, 6),16	583,(30, 9),76	659,(42, 9),8	667,(43, 3),60	727,(66, 3),140	867,(5, 0),64	
1,(121, 81),40	41,(121, 76),40	81,(121, 28),40	121,(121, 88),40	241,(121, 83),40	281,(121, 60),40	401,(121, 43),40	521,(121, 42),40	561,(92, 5),8	569,(57, 5),8	577,(29, 5),12	589,(32, 5),52	641,(37, 5),4	659,(105, 5),48	707,(19, 5),68	
161,(121, 54),40	201,(121, 68),40	321,(121, 110),40	361,(121, 105),40	441,(121, 30),40	481,(121, 66),40	
# Outgoing
1,(121, 81),40	41,(121, 76),40	81,(121, 28),40	121,(121, 88),40	161,(121, 54),40	201,(121, 68),40	241,(121, 83),40	281,(121, 60),40	321,(121, 110),40	361,(121, 105),40	401,(121, 43),40	441,(121, 30),40	481,(121, 66),40	521,(121, 42),40	561,(92, 5),8	569,(57, 5),8	577,(29, 5),12	589,(32, 5),52	641,(37, 5),4	707,(19, 5),68	
127,(28, 11),4	131,(76, 7),4	135,(81, 4),4	167,(88, 8),8	287,(83, 1),16	303,(83, 12),20	327,(60, 4),28	567,(42, 6),16	659,(42, 9),8	667,(43, 3),60	867,(5, 0),64	
247,(68, 10),12	259,(54, 3),8	367,(110, 4),36	407,(105, 1),4	487,(30, 12),44	583,(30, 9),76	659,(105, 5),48	727,(66, 3),140	
