2638
# CPU
0,201,1	1,136,5	6,137,5	11,79,5	16,169,5	21,122,5	26,124,5	31,115,5	36,165,5	41,164,5	46,145,5	51,98,5	56,34,5	61,32,5	66,129,5	71,195,5	76,40,5	81,125,5	86,109,5	91,182,5	96,108,5	101,176,5	106,84,5	111,45,5	116,91,5	121,57,5	126,139,5	131,102,5	136,156,5	141,62,5	146,63,5	151,61,5	156,80,5	161,132,5	166,128,5	171,23,5	176,83,5	181,28,5	186,178,5	191,166,5	196,180,5	201,106,5	206,81,5	211,82,5	216,35,5	221,90,5	226,198,5	231,200,5	236,117,5	241,140,5	246,94,5	251,177,5	256,188,5	261,39,5	266,26,5	271,153,5	276,148,5	281,22,5	286,107,5	291,134,5	296,187,5	301,179,5	306,97,5	311,99,5	316,100,5	321,49,5	326,67,5	331,74,5	336,114,5	341,183,5	346,105,5	351,59,5	356,130,5	361,197,5	366,147,5	371,36,5	376,43,5	381,71,5	386,170,5	391,174,5	396,76,5	401,31,5	406,53,5	411,133,5	416,146,5	421,175,5	426,185,5	431,41,5	436,113,5	441,127,5	446,159,5	451,120,5	456,121,5	461,48,5	466,161,5	471,55,5	476,160,5	481,72,5	486,37,5	491,116,5	496,38,5	501,95,5	506,33,5	511,46,5	516,66,5	521,21,5	526,141,5	531,199,5	536,173,5	541,88,5	546,190,5	551,189,5	556,70,5	561,60,5	566,168,5	571,126,5	576,171,5	581,143,5	586,47,5	591,87,5	596,73,5	601,101,5	606,89,5	611,150,5	616,96,5	621,172,5	626,69,5	631,24,5	636,186,5	641,118,5	646,142,5	651,112,5	656,64,5	661,149,5	666,194,5	671,184,5	676,78,5	681,56,5	686,65,5	691,123,5	696,152,5	701,93,5	706,192,5	711,25,5	716,103,5	721,77,5	726,30,5	731,92,5	736,104,5	741,52,5	746,51,5	751,50,5	756,162,5	761,86,5	766,193,5	771,138,5	776,8,5	781,58,5	786,85,5	791,75,5	796,157,5	801,11,5	806,44,5	811,17,5	816,9,5	821,2,5	826,10,5	831,1,5	836,16,5	841,12,5	846,20,5	858,6,5	908,14,5	970,4,5	1070,3,5	1198,7,5	1368,13,5	1538,15,5	1768,18,5	2102,19,5	2632,5,5	2637,0,1	
229,42,5	267,155,5	305,154,5	343,111,5	381,119,5	419,135,5	495,181,5	571,167,5	647,68,5	723,151,5	
77,29,5	191,144,5	685,27,5	
39,54,5	115,110,5	457,163,5	
153,196,5	533,191,5	609,158,5	761,131,5	
# Incoming
82,(29, 8),2	84,(29, 15),6	196,(144, 17),2	198,(144, 12),12	210,(144, 20),6	216,(144, 15),2	462,(163, 2),2	464,(163, 14),42	506,(54, 4),2	508,(110, 13),8	576,(167, 9),2	578,(181, 2),8	586,(155, 10),4	590,(155, 16),18	608,(111, 16),2	610,(119, 16),4	614,(42, 12),2	616,(42, 20),14	630,(119, 6),2	632,(42, 4),14	646,(154, 3),2	648,(135, 5),4	652,(68, 16),8	660,(68, 12),4	664,(68, 6),20	690,(27, 16),6	696,(181, 20),36	732,(151, 4),24	756,(27, 7),2	758,(27, 18),4	766,(131, 8),4	770,(196, 10),6	776,(196, 1),10	786,(191, 1),2	788,(196, 12),2	790,(191, 12),30	820,(191, 6),38	858,(181, 14),50	908,(191, 4),62	970,(135, 3),34	1004,(158, 3),2	1006,(131, 3),64	1070,(119, 7),30	1100,(167, 7),72	1172,(158, 7),8	1180,(68, 7),12	1192,(131, 7),6	1198,(154, 13),16	1214,(167, 13),32	1246,(27, 13),122	1368,(68, 15),16	1384,(151, 15),154	1538,(155, 18),10	1548,(154, 18),24	1572,(135, 18),18	1590,(158, 18),74	1664,(68, 18),104	1768,(155, 19),18	1786,(27, 19),8	1794,(131, 19),308	2102,(111, 5),26	2128,(158, 5),80	2208,(131, 5),424	
191,(201, 42),38	229,(201, 155),38	267,(201, 154),38	305,(201, 111),38	343,(201, 119),38	381,(201, 135),38	457,(201, 181),38	533,(201, 167),38	609,(201, 68),38	685,(201, 151),38	
39,(201, 29),38	153,(201, 144),38	647,(201, 27),38	
1,(201, 54),38	77,(201, 110),38	419,(201, 163),38	
115,(201, 196),38	495,(201, 191),38	571,(201, 158),38	723,(201, 131),38	
# Outgoing
1,(201, 54),38	39,(201, 29),38	77,(201, 110),38	115,(201, 196),38	153,(201, 144),38	191,(201, 42),38	229,(201, 155),38	267,(201, 154),38	305,(201, 111),38	343,(201, 119),38	381,(201, 135),38	419,(201, 163),38	457,(201, 181),38	495,(201, 191),38	533,(201, 167),38	571,(201, 158),38	609,(201, 68),38	647,(201, 27),38	685,(201, 151),38	723,(201, 131),38	
576,(167, 9),2	578,(181, 2),8	586,(155, 10),4	590,(155, 16),18	608,(111, 16),2	610,(119, 16),4	614,(42, 12),2	616,(42, 20),14	630,(119, 6),2	632,(42, 4),14	646,(154, 3),2	648,(135, 5),4	652,(68, 16),8	660,(68, 12),4	664,(68, 6),20	696,(181, 20),36	732,(151, 4),24	858,(181, 14),50	970,(135, 3),34	1070,(119, 7),30	1100,(167, 7),72	1180,(68, 7),12	1198,(154, 13),16	1214,(167, 13),32	1368,(68, 15),16	1384,(151, 15),154	1538,(155, 18),10	1548,(154, 18),24	1572,(135, 18),18	1664,(68, 18),104	1768,(155, 19),18	2102,(111, 5),26	
82,(29, 8),2	84,(29, 15),6	196,(144, 17),2	198,(144, 12),12	210,(144, 20),6	216,(144, 15),2	690,(27, 16),6	756,(27, 7),2	758,(27, 18),4	1246,(27, 13),122	1786,(27, 19),8	
462,(163, 2),2	464,(163, 14),42	506,(54, 4),2	508,(110, 13),8	
766,(131, 8),4	770,(196, 10),6	776,(196, 1),10	786,(191, 1),2	788,(196, 12),2	790,(191, 12),30	820,(191, 6),38	908,(191, 4),62	1004,(158, 3),2	1006,(131, 3),64	1172,(158, 7),8	1192,(131, 7),6	1590,(158, 18),74	1794,(131, 19),308	2128,(158, 5),80	2208,(131, 5),424	
