1712
# CPU
31,4,13	44,28,13	57,36,13	73,8,13	86,12,13	99,16,13	112,20,13	125,24,13	138,32,13	151,40,13	
21,3,13	34,7,13	47,31,13	103,11,13	116,19,13	129,23,13	142,27,13	155,15,13	168,39,13	181,35,13	
11,2,13	24,26,13	37,34,13	50,6,13	68,30,13	125,22,13	165,14,13	178,10,13	199,18,13	353,38,13	
0,0,1	1,1,13	14,37,13	48,9,13	82,17,13	104,25,13	118,5,13	131,29,13	193,21,13	323,33,13	411,13,13	1711,41,1	
# Incoming
21,(0, 4),10	31,(1, 8),42	73,(3, 12),2	75,(3, 16),2	77,(3, 20),10	87,(3, 24),16	103,(3, 32),14	145,(1, 40),2	
11,(0, 3),10	73,(1, 11),30	103,(1, 19),2	105,(2, 23),2	107,(2, 27),12	119,(4, 15),2	125,(1, 39),20	145,(2, 35),28	
1,(0, 2),10	34,(3, 6),4	38,(3, 30),30	105,(1, 22),20	125,(3, 14),40	165,(4, 10),12	177,(4, 18),22	323,(3, 38),30	
24,(2, 9),24	48,(2, 17),34	82,(2, 25),22	104,(4, 5),14	119,(2, 29),12	165,(3, 21),28	193,(3, 33),130	323,(26, 41),50	373,(4, 13),38	411,(7, 41),50	461,(34, 41),50	511,(28, 41),50	561,(31, 41),50	611,(6, 41),50	661,(36, 41),50	711,(30, 41),50	761,(8, 41),50	811,(12, 41),50	861,(16, 41),50	911,(11, 41),50	961,(20, 41),50	1011,(19, 41),50	1061,(24, 41),50	1111,(22, 41),50	1161,(23, 41),50	1211,(32, 41),50	1261,(27, 41),50	1311,(40, 41),50	1361,(15, 41),50	1411,(14, 41),50	1461,(39, 41),50	1511,(10, 41),50	1561,(35, 41),50	1611,(18, 41),50	1661,(38, 41),50	
# Outgoing
104,(4, 5),14	119,(4, 15),2	165,(4, 10),12	177,(4, 18),22	373,(4, 13),38	511,(28, 41),50	661,(36, 41),50	761,(8, 41),50	811,(12, 41),50	861,(16, 41),50	961,(20, 41),50	1061,(24, 41),50	1211,(32, 41),50	1311,(40, 41),50	
34,(3, 6),4	38,(3, 30),30	73,(3, 12),2	75,(3, 16),2	77,(3, 20),10	87,(3, 24),16	103,(3, 32),14	125,(3, 14),40	165,(3, 21),28	193,(3, 33),130	323,(3, 38),30	411,(7, 41),50	561,(31, 41),50	911,(11, 41),50	1011,(19, 41),50	1161,(23, 41),50	1261,(27, 41),50	1361,(15, 41),50	1461,(39, 41),50	1561,(35, 41),50	
24,(2, 9),24	48,(2, 17),34	82,(2, 25),22	105,(2, 23),2	107,(2, 27),12	119,(2, 29),12	145,(2, 35),28	323,(26, 41),50	461,(34, 41),50	611,(6, 41),50	711,(30, 41),50	1111,(22, 41),50	1411,(14, 41),50	1511,(10, 41),50	1611,(18, 41),50	1661,(38, 41),50	
1,(0, 2),10	11,(0, 3),10	21,(0, 4),10	31,(1, 8),42	73,(1, 11),30	103,(1, 19),2	105,(1, 22),20	125,(1, 39),20	145,(1, 40),2	
