4462
# CPU
217,5,1	218,70,1	219,90,1	220,110,1	221,20,1	225,35,1	289,100,1	371,15,1	433,10,1	434,55,1	435,80,1	436,95,1	437,115,1	438,50,1	483,60,1	489,105,1	491,45,1	511,65,1	519,30,1	547,85,1	725,120,1	955,40,1	963,75,1	2013,25,1	
163,4,1	164,44,1	165,54,1	267,94,1	269,99,1	283,39,1	309,64,1	379,9,1	380,29,1	399,104,1	413,14,1	444,49,1	486,119,1	489,19,1	545,69,1	575,79,1	577,84,1	747,109,1	933,34,1	963,74,1	993,89,1	1033,59,1	1249,114,1	1385,24,1	
109,3,1	110,18,1	111,93,1	112,118,1	166,13,1	257,38,1	265,73,1	325,8,1	326,23,1	327,43,1	328,78,1	384,108,1	415,63,1	442,33,1	458,83,1	460,98,1	484,103,1	493,48,1	745,88,1	783,28,1	877,58,1	885,53,1	1035,113,1	1419,68,1	
55,2,1	56,62,1	57,102,1	198,32,1	271,7,1	272,77,1	353,17,1	381,37,1	393,67,1	395,22,1	417,97,1	487,12,1	488,57,1	495,52,1	509,42,1	671,92,1	705,47,1	709,82,1	731,107,1	961,72,1	989,87,1	995,112,1	1011,117,1	1111,27,1	
0,0,1	1,1,1	2,11,1	3,6,1	4,86,1	5,36,1	6,106,1	7,81,1	8,116,1	263,46,1	267,61,1	269,16,1	307,101,1	405,91,1	545,71,1	579,76,1	719,66,1	721,41,1	725,56,1	1149,26,1	1423,51,1	1441,96,1	1681,21,1	1959,111,1	2023,31,1	4461,121,1	
# Incoming
163,(0, 5),54	217,(2, 20),2	219,(2, 35),6	269,(2, 100),20	289,(3, 15),82	379,(0, 10),54	433,(3, 50),2	435,(3, 60),48	483,(7, 105),6	489,(1, 45),2	491,(3, 65),20	511,(9, 30),8	545,(1, 85),2	671,(3, 120),54	933,(8, 40),22	955,(8, 75),8	1681,(9, 25),332	
109,(0, 4),54	265,(2, 94),2	267,(2, 99),2	269,(5, 39),14	283,(5, 64),26	325,(0, 9),54	393,(8, 104),6	399,(7, 14),14	442,(10, 49),2	484,(10, 119),2	487,(1, 19),2	491,(1, 69),54	545,(12, 79),30	575,(12, 84),2	745,(1, 109),2	909,(8, 34),24	961,(11, 74),2	989,(11, 89),4	1011,(6, 59),22	1033,(5, 114),216	1249,(8, 24),136	
55,(0, 3),54	164,(4, 13),2	225,(2, 38),32	263,(2, 73),2	271,(0, 8),54	380,(9, 108),4	413,(7, 63),2	434,(10, 33),8	444,(10, 83),14	458,(10, 98),2	460,(10, 103),24	489,(12, 48),4	547,(1, 88),198	747,(11, 28),36	783,(11, 58),94	877,(12, 53),8	1033,(6, 113),2	1341,(10, 68),78	
1,(0, 2),54	166,(4, 32),32	217,(0, 7),54	271,(4, 17),82	371,(3, 37),10	381,(3, 67),12	393,(9, 22),2	405,(3, 97),12	433,(0, 12),54	487,(10, 52),8	497,(9, 42),12	511,(3, 92),160	671,(5, 47),34	705,(10, 82),4	719,(9, 107),12	877,(11, 72),84	963,(11, 87),26	993,(11, 112),2	995,(11, 117),16	1093,(8, 27),18	
257,(2, 46),6	263,(4, 61),4	267,(5, 16),2	289,(2, 101),18	307,(62, 121),46	353,(102, 121),46	399,(3, 91),6	405,(44, 121),46	451,(54, 121),46	497,(32, 121),46	543,(5, 71),2	545,(5, 76),34	579,(70, 121),46	625,(90, 121),46	671,(94, 121),46	717,(9, 66),2	719,(10, 41),2	721,(10, 56),4	725,(18, 121),46	771,(93, 121),46	817,(118, 121),46	863,(13, 121),46	909,(110, 121),46	955,(20, 121),46	1001,(38, 121),46	1047,(73, 121),46	1093,(99, 121),46	1139,(7, 26),10	1149,(77, 121),46	1195,(39, 121),46	1249,(35, 121),46	1295,(100, 121),46	1341,(64, 121),46	1387,(8, 51),36	1423,(8, 96),18	1441,(23, 121),46	1487,(43, 121),46	1533,(78, 121),46	1579,(17, 121),46	1625,(15, 121),46	1671,(9, 21),10	1681,(37, 121),46	1727,(108, 121),46	1773,(67, 121),46	1819,(22, 121),46	1865,(63, 121),46	1911,(97, 121),46	1957,(10, 111),2	1959,(55, 121),46	2013,(9, 31),10	2023,(29, 121),46	2069,(104, 121),46	2115,(14, 121),46	2161,(80, 121),46	2207,(95, 121),46	2253,(115, 121),46	2299,(50, 121),46	2345,(33, 121),46	2391,(49, 121),46	2437,(83, 121),46	2483,(98, 121),46	2529,(60, 121),46	2575,(103, 121),46	2621,(119, 121),46	2667,(57, 121),46	2713,(105, 121),46	2759,(19, 121),46	2805,(45, 121),46	2851,(48, 121),46	2897,(52, 121),46	2943,(42, 121),46	2989,(65, 121),46	3035,(30, 121),46	3081,(69, 121),46	3127,(85, 121),46	3173,(79, 121),46	3219,(84, 121),46	3265,(92, 121),46	3311,(47, 121),46	3357,(82, 121),46	3403,(120, 121),46	3449,(107, 121),46	3495,(88, 121),46	3541,(109, 121),46	3587,(28, 121),46	3633,(58, 121),46	3679,(53, 121),46	3725,(34, 121),46	3771,(40, 121),46	3817,(72, 121),46	3863,(75, 121),46	3909,(74, 121),46	3955,(87, 121),46	4001,(89, 121),46	4047,(112, 121),46	4093,(117, 121),46	4139,(59, 121),46	4185,(113, 121),46	4231,(27, 121),46	4277,(114, 121),46	4323,(24, 121),46	4369,(68, 121),46	4415,(25, 121),46	
# Outgoing
267,(5, 16),2	269,(5, 39),14	283,(5, 64),26	434,(10, 33),8	442,(10, 49),2	444,(10, 83),14	458,(10, 98),2	460,(10, 103),24	484,(10, 119),2	487,(10, 52),8	543,(5, 71),2	545,(5, 76),34	579,(70, 121),46	625,(90, 121),46	671,(5, 47),34	705,(10, 82),4	719,(10, 41),2	721,(10, 56),4	909,(110, 121),46	955,(20, 121),46	1033,(5, 114),216	1249,(35, 121),46	1295,(100, 121),46	1341,(10, 68),78	1625,(15, 121),46	1957,(10, 111),2	1959,(55, 121),46	2161,(80, 121),46	2207,(95, 121),46	2253,(115, 121),46	2299,(50, 121),46	2529,(60, 121),46	2713,(105, 121),46	2805,(45, 121),46	2989,(65, 121),46	3035,(30, 121),46	3127,(85, 121),46	3403,(120, 121),46	3771,(40, 121),46	3863,(75, 121),46	4415,(25, 121),46	
164,(4, 13),2	166,(4, 32),32	263,(4, 61),4	271,(4, 17),82	380,(9, 108),4	393,(9, 22),2	405,(44, 121),46	451,(54, 121),46	497,(9, 42),12	511,(9, 30),8	671,(94, 121),46	717,(9, 66),2	719,(9, 107),12	1093,(99, 121),46	1195,(39, 121),46	1341,(64, 121),46	1671,(9, 21),10	1681,(9, 25),332	2013,(9, 31),10	2023,(29, 121),46	2069,(104, 121),46	2115,(14, 121),46	2391,(49, 121),46	2621,(119, 121),46	2759,(19, 121),46	3081,(69, 121),46	3173,(79, 121),46	3219,(84, 121),46	3541,(109, 121),46	3725,(34, 121),46	3909,(74, 121),46	4001,(89, 121),46	4139,(59, 121),46	4277,(114, 121),46	4323,(24, 121),46	
289,(3, 15),82	371,(3, 37),10	381,(3, 67),12	393,(8, 104),6	399,(3, 91),6	405,(3, 97),12	433,(3, 50),2	435,(3, 60),48	491,(3, 65),20	511,(3, 92),160	671,(3, 120),54	725,(18, 121),46	771,(93, 121),46	817,(118, 121),46	863,(13, 121),46	909,(8, 34),24	933,(8, 40),22	955,(8, 75),8	1001,(38, 121),46	1047,(73, 121),46	1093,(8, 27),18	1249,(8, 24),136	1387,(8, 51),36	1423,(8, 96),18	1441,(23, 121),46	1487,(43, 121),46	1533,(78, 121),46	1727,(108, 121),46	1865,(63, 121),46	2345,(33, 121),46	2437,(83, 121),46	2483,(98, 121),46	2575,(103, 121),46	2851,(48, 121),46	3495,(88, 121),46	3587,(28, 121),46	3633,(58, 121),46	3679,(53, 121),46	4185,(113, 121),46	4369,(68, 121),46	
217,(2, 20),2	219,(2, 35),6	225,(2, 38),32	257,(2, 46),6	263,(2, 73),2	265,(2, 94),2	267,(2, 99),2	269,(2, 100),20	289,(2, 101),18	307,(62, 121),46	353,(102, 121),46	399,(7, 14),14	413,(7, 63),2	483,(7, 105),6	489,(12, 48),4	497,(32, 121),46	545,(12, 79),30	575,(12, 84),2	877,(12, 53),8	1139,(7, 26),10	1149,(77, 121),46	1579,(17, 121),46	1681,(37, 121),46	1773,(67, 121),46	1819,(22, 121),46	1911,(97, 121),46	2667,(57, 121),46	2897,(52, 121),46	2943,(42, 121),46	3265,(92, 121),46	3311,(47, 121),46	3357,(82, 121),46	3449,(107, 121),46	3817,(72, 121),46	3955,(87, 121),46	4047,(112, 121),46	4093,(117, 121),46	4231,(27, 121),46	
1,(0, 2),54	55,(0, 3),54	109,(0, 4),54	163,(0, 5),54	217,(0, 7),54	271,(0, 8),54	325,(0, 9),54	379,(0, 10),54	433,(0, 12),54	487,(1, 19),2	489,(1, 45),2	491,(1, 69),54	545,(1, 85),2	547,(1, 88),198	745,(1, 109),2	747,(11, 28),36	783,(11, 58),94	877,(11, 72),84	961,(11, 74),2	963,(11, 87),26	989,(11, 89),4	993,(11, 112),2	995,(11, 117),16	1011,(6, 59),22	1033,(6, 113),2	
