659
# CPU
0,0,1	1,7,8	9,52,8	17,117,8	25,4,8	33,37,8	41,47,8	49,101,8	57,27,8	65,55,8	73,9,8	81,74,8	89,8,8	97,93,8	105,25,8	113,41,8	121,75,8	129,49,8	137,63,8	145,66,8	153,48,8	161,69,8	169,89,8	177,33,8	185,24,8	193,90,8	201,104,8	209,103,8	217,99,8	225,71,8	233,35,8	241,51,8	274,94,8	
4,3,8	12,114,8	20,19,8	28,28,8	36,92,8	44,61,8	52,88,8	60,16,8	68,11,8	76,58,8	84,29,8	92,86,8	100,56,8	108,80,8	116,57,8	124,73,8	132,42,8	140,112,8	148,96,8	156,34,8	164,36,8	172,67,8	180,60,8	188,22,8	196,109,8	204,102,8	212,97,8	220,53,8	228,107,8	658,121,1	
3,12,8	11,95,8	19,38,8	27,21,8	35,2,8	43,115,8	51,14,8	59,1,8	67,54,8	75,81,8	83,111,8	91,116,8	99,31,8	107,105,8	115,110,8	123,82,8	131,106,8	139,91,8	147,23,8	155,84,8	163,108,8	171,59,8	179,17,8	187,26,8	195,119,8	203,70,8	211,79,8	219,76,8	227,87,8	
2,6,8	10,20,8	18,120,8	26,13,8	34,10,8	42,30,8	50,40,8	58,62,8	66,5,8	74,46,8	82,45,8	90,18,8	98,68,8	106,100,8	114,72,8	122,32,8	130,118,8	138,65,8	146,77,8	154,98,8	162,83,8	170,15,8	178,43,8	186,44,8	194,78,8	202,64,8	210,39,8	218,85,8	226,113,8	234,50,8	
# Incoming
74,(5, 41),1	75,(5, 75),1	76,(2, 63),1	77,(5, 49),1	78,(2, 69),1	79,(6, 48),1	80,(1, 69),1	81,(11, 66),1	82,(10, 89),2	84,(1, 24),3	87,(3, 33),3	90,(1, 90),3	93,(6, 104),1	94,(10, 104),1	95,(5, 104),1	96,(11, 104),1	97,(12, 103),1	98,(2, 103),4	102,(5, 99),8	110,(12, 71),9	119,(5, 71),4	128,(3, 35),5	133,(11, 35),8	142,(1, 35),1	143,(3, 51),7	150,(2, 51),8	158,(2, 94),1	179,(5, 94),61	240,(11, 94),34	
3,(0, 3),1	8,(0, 11),1	12,(12, 16),1	13,(6, 112),1	14,(6, 96),1	15,(6, 97),1	21,(20, 121),6	28,(95, 121),6	35,(4, 56),1	36,(120, 121),6	43,(2, 61),1	44,(2, 88),1	45,(10, 36),2	47,(4, 60),1	48,(2, 34),1	49,(2, 67),2	51,(10, 22),3	54,(2, 60),2	56,(38, 121),6	63,(4, 109),4	68,(1, 80),1	69,(52, 121),6	78,(5, 42),1	81,(9, 86),1	85,(9, 57),1	86,(13, 121),6	100,(8, 73),1	106,(8, 109),3	109,(4, 102),10	119,(1, 53),20	144,(8, 97),19	163,(21, 121),6	169,(115, 121),6	175,(14, 121),6	202,(9, 107),24	226,(117, 121),6	232,(37, 121),6	238,(47, 121),6	244,(30, 121),6	250,(101, 121),6	256,(40, 121),6	262,(27, 121),6	268,(62, 121),6	274,(55, 121),6	280,(54, 121),6	286,(46, 121),6	292,(81, 121),6	298,(74, 121),6	304,(45, 121),6	310,(111, 121),6	316,(18, 121),6	322,(116, 121),6	328,(93, 121),6	334,(68, 121),6	340,(31, 121),6	346,(25, 121),6	352,(100, 121),6	358,(105, 121),6	364,(41, 121),6	370,(72, 121),6	376,(110, 121),6	382,(75, 121),6	388,(32, 121),6	394,(82, 121),6	400,(49, 121),6	406,(118, 121),6	412,(106, 121),6	418,(63, 121),6	424,(65, 121),6	430,(91, 121),6	436,(66, 121),6	442,(77, 121),6	448,(23, 121),6	454,(48, 121),6	460,(98, 121),6	466,(84, 121),6	472,(69, 121),6	478,(83, 121),6	484,(108, 121),6	490,(89, 121),6	496,(15, 121),6	502,(59, 121),6	508,(33, 121),6	514,(43, 121),6	520,(17, 121),6	526,(24, 121),6	532,(44, 121),6	538,(26, 121),6	544,(90, 121),6	550,(78, 121),6	556,(119, 121),6	562,(104, 121),6	568,(64, 121),6	574,(70, 121),6	580,(103, 121),6	586,(39, 121),6	592,(79, 121),6	598,(99, 121),6	604,(85, 121),6	610,(76, 121),6	616,(71, 121),6	622,(113, 121),6	628,(87, 121),6	634,(35, 121),6	640,(50, 121),6	646,(51, 121),6	652,(94, 121),6	
2,(0, 12),1	5,(0, 2),1	6,(0, 1),1	10,(6, 31),1	11,(6, 110),1	12,(6, 91),1	13,(3, 21),1	14,(3, 110),1	15,(3, 106),1	16,(3, 91),1	17,(6, 84),4	21,(7, 108),5	26,(7, 17),1	27,(7, 26),4	31,(6, 119),1	32,(6, 76),1	33,(4, 111),1	34,(4, 116),1	37,(7, 59),8	45,(3, 17),7	52,(3, 26),5	57,(10, 119),2	59,(3, 79),17	76,(5, 82),1	77,(11, 106),2	80,(10, 87),1	82,(11, 17),1	83,(9, 31),1	86,(9, 82),1	87,(9, 91),1	90,(11, 26),2	97,(8, 105),2	101,(8, 23),3	105,(8, 17),1	115,(11, 119),13	128,(8, 70),16	144,(10, 76),6	150,(5, 76),15	165,(6, 87),14	186,(8, 87),16	
1,(0, 6),1	4,(0, 10),1	7,(0, 5),1	9,(7, 15),1	11,(12, 13),1	12,(3, 120),1	13,(7, 43),3	16,(12, 85),1	17,(3, 78),1	18,(12, 64),10	28,(3, 39),7	36,(4, 15),1	45,(2, 62),1	46,(2, 118),2	51,(2, 43),3	54,(4, 44),9	63,(2, 113),1	67,(1, 100),1	69,(1, 39),6	79,(11, 65),2	82,(9, 68),1	84,(9, 72),1	85,(11, 77),2	88,(9, 98),2	90,(9, 83),2	92,(11, 15),2	94,(9, 64),1	99,(8, 32),1	104,(8, 83),1	105,(11, 78),10	139,(1, 113),3	163,(8, 85),13	176,(9, 113),10	186,(12, 50),22	
# Outgoing
1,(0, 6),1	2,(0, 12),1	3,(0, 3),1	4,(0, 10),1	5,(0, 2),1	6,(0, 1),1	7,(0, 5),1	8,(0, 11),1	9,(7, 15),1	13,(7, 43),3	21,(7, 108),5	26,(7, 17),1	27,(7, 26),4	33,(4, 111),1	34,(4, 116),1	35,(4, 56),1	36,(4, 15),1	37,(7, 59),8	47,(4, 60),1	54,(4, 44),9	63,(4, 109),4	69,(52, 121),6	81,(9, 86),1	82,(9, 68),1	83,(9, 31),1	84,(9, 72),1	85,(9, 57),1	86,(9, 82),1	87,(9, 91),1	88,(9, 98),2	90,(9, 83),2	94,(9, 64),1	97,(8, 105),2	99,(8, 32),1	100,(8, 73),1	101,(8, 23),3	104,(8, 83),1	105,(8, 17),1	106,(8, 109),3	109,(4, 102),10	128,(8, 70),16	144,(8, 97),19	163,(8, 85),13	176,(9, 113),10	186,(8, 87),16	202,(9, 107),24	226,(117, 121),6	232,(37, 121),6	238,(47, 121),6	250,(101, 121),6	262,(27, 121),6	274,(55, 121),6	298,(74, 121),6	328,(93, 121),6	346,(25, 121),6	364,(41, 121),6	382,(75, 121),6	400,(49, 121),6	418,(63, 121),6	436,(66, 121),6	454,(48, 121),6	472,(69, 121),6	490,(89, 121),6	508,(33, 121),6	526,(24, 121),6	544,(90, 121),6	562,(104, 121),6	580,(103, 121),6	598,(99, 121),6	616,(71, 121),6	634,(35, 121),6	646,(51, 121),6	652,(94, 121),6	
12,(3, 120),1	13,(3, 21),1	14,(3, 110),1	15,(3, 106),1	16,(3, 91),1	17,(3, 78),1	28,(3, 39),7	45,(3, 17),7	52,(3, 26),5	59,(3, 79),17	77,(11, 106),2	79,(11, 65),2	81,(11, 66),1	82,(11, 17),1	85,(11, 77),2	87,(3, 33),3	90,(11, 26),2	92,(11, 15),2	96,(11, 104),1	105,(11, 78),10	115,(11, 119),13	128,(3, 35),5	133,(11, 35),8	143,(3, 51),7	240,(11, 94),34	
11,(12, 13),1	12,(12, 16),1	16,(12, 85),1	18,(12, 64),10	28,(95, 121),6	43,(2, 61),1	44,(2, 88),1	45,(2, 62),1	46,(2, 118),2	48,(2, 34),1	49,(2, 67),2	51,(2, 43),3	54,(2, 60),2	56,(38, 121),6	63,(2, 113),1	67,(1, 100),1	68,(1, 80),1	69,(1, 39),6	76,(2, 63),1	78,(2, 69),1	80,(1, 69),1	84,(1, 24),3	90,(1, 90),3	97,(12, 103),1	98,(2, 103),4	110,(12, 71),9	119,(1, 53),20	139,(1, 113),3	142,(1, 35),1	150,(2, 51),8	158,(2, 94),1	163,(21, 121),6	169,(115, 121),6	175,(14, 121),6	186,(12, 50),22	280,(54, 121),6	292,(81, 121),6	310,(111, 121),6	322,(116, 121),6	340,(31, 121),6	358,(105, 121),6	376,(110, 121),6	394,(82, 121),6	412,(106, 121),6	430,(91, 121),6	448,(23, 121),6	466,(84, 121),6	484,(108, 121),6	502,(59, 121),6	520,(17, 121),6	538,(26, 121),6	556,(119, 121),6	574,(70, 121),6	592,(79, 121),6	610,(76, 121),6	628,(87, 121),6	
10,(6, 31),1	11,(6, 110),1	12,(6, 91),1	13,(6, 112),1	14,(6, 96),1	15,(6, 97),1	17,(6, 84),4	21,(20, 121),6	31,(6, 119),1	32,(6, 76),1	36,(120, 121),6	45,(10, 36),2	51,(10, 22),3	57,(10, 119),2	74,(5, 41),1	75,(5, 75),1	76,(5, 82),1	77,(5, 49),1	78,(5, 42),1	79,(6, 48),1	80,(10, 87),1	82,(10, 89),2	86,(13, 121),6	93,(6, 104),1	94,(10, 104),1	95,(5, 104),1	102,(5, 99),8	119,(5, 71),4	144,(10, 76),6	150,(5, 76),15	165,(6, 87),14	179,(5, 94),61	244,(30, 121),6	256,(40, 121),6	268,(62, 121),6	286,(46, 121),6	304,(45, 121),6	316,(18, 121),6	334,(68, 121),6	352,(100, 121),6	370,(72, 121),6	388,(32, 121),6	406,(118, 121),6	424,(65, 121),6	442,(77, 121),6	460,(98, 121),6	478,(83, 121),6	496,(15, 121),6	514,(43, 121),6	532,(44, 121),6	550,(78, 121),6	568,(64, 121),6	586,(39, 121),6	604,(85, 121),6	622,(113, 121),6	640,(50, 121),6	
