228
# CPU
0,0,1	1,1,10	11,9,10	21,35,10	31,3,10	41,14,10	51,24,10	61,25,10	71,23,10	81,2,10	91,38,10	101,10,10	111,28,10	121,36,10	131,26,10	141,8,10	151,12,10	161,33,10	171,18,10	181,5,10	191,11,10	201,37,10	211,34,10	
7,4,10	17,21,10	27,16,10	37,22,10	47,17,10	57,20,10	67,39,10	77,6,10	87,30,10	97,7,10	107,13,10	117,19,10	127,40,10	137,29,10	147,32,10	157,15,10	167,31,10	177,27,10	227,41,1	
# Incoming
17,(4, 5),2	19,(4, 11),32	51,(4, 37),44	95,(4, 34),80	
1,(0, 4),6	11,(1, 39),2	13,(1, 6),2	15,(1, 30),2	17,(1, 32),18	35,(9, 41),4	41,(3, 30),2	43,(3, 40),10	53,(1, 27),28	81,(3, 27),2	83,(35, 41),4	87,(14, 41),4	91,(2, 7),2	93,(2, 13),2	95,(2, 19),2	97,(2, 40),2	99,(2, 29),16	115,(2, 15),20	135,(2, 31),28	163,(24, 41),4	167,(25, 41),4	171,(23, 41),4	175,(38, 41),4	179,(10, 41),4	183,(28, 41),4	187,(36, 41),4	191,(26, 41),4	195,(8, 41),4	199,(12, 41),4	203,(33, 41),4	207,(18, 41),4	211,(5, 41),4	215,(11, 41),4	219,(37, 41),4	223,(34, 41),4	
# Outgoing
1,(0, 4),6	11,(1, 39),2	13,(1, 6),2	15,(1, 30),2	17,(1, 32),18	35,(9, 41),4	41,(3, 30),2	43,(3, 40),10	53,(1, 27),28	81,(3, 27),2	83,(35, 41),4	87,(14, 41),4	91,(2, 7),2	93,(2, 13),2	95,(2, 19),2	97,(2, 40),2	99,(2, 29),16	115,(2, 15),20	135,(2, 31),28	163,(24, 41),4	167,(25, 41),4	171,(23, 41),4	175,(38, 41),4	179,(10, 41),4	183,(28, 41),4	187,(36, 41),4	191,(26, 41),4	195,(8, 41),4	199,(12, 41),4	203,(33, 41),4	207,(18, 41),4	211,(5, 41),4	215,(11, 41),4	219,(37, 41),4	223,(34, 41),4	
17,(4, 5),2	19,(4, 11),32	51,(4, 37),44	95,(4, 34),80	
