8326
# CPU
17,5,1	18,147,1	19,164,1	20,189,1	33,6,1	34,25,1	35,56,1	36,93,1	37,172,1	38,174,1	49,8,1	50,42,1	51,49,1	52,177,1	53,200,1	54,88,1	55,101,1	56,124,1	65,10,1	66,22,1	67,105,1	68,191,1	81,12,1	82,45,1	83,173,1	84,180,1	85,48,1	86,73,1	87,152,1	88,161,1	97,17,1	98,90,1	99,111,1	100,137,1	101,198,1	102,188,1	103,100,1	113,19,1	114,50,1	115,65,1	116,72,1	117,128,1	118,166,1	119,81,1	120,119,1	129,20,1	130,63,1	131,87,1	132,96,1	133,127,1	134,176,1	135,162,1	136,23,1	2041,39,1	2177,95,1	2313,106,1	2393,126,1	2421,139,1	2481,141,1	2493,163,1	4041,62,1	5225,66,1	5241,91,1	5917,142,1	5937,158,1	6217,29,1	6221,76,1	6233,146,1	6653,187,1	6657,31,1	6949,55,1	6969,86,1	6973,104,1	7013,182,1	7293,197,1	7409,34,1	7417,53,1	7425,57,1	7433,78,1	7457,144,1	7461,35,1	7473,43,1	7557,110,1	7605,154,1	7613,165,1	7621,170,1	7633,175,1	7669,24,1	7673,75,1	7733,99,1	7781,102,1	7829,36,1	7897,26,1	7909,83,1	7925,97,1	7937,138,1	7945,148,1	7949,159,1	7965,108,1	7973,117,1	8325,201,1	
0,0,1	1,16,1	2,14,1	3,15,1	4,11,1	5,4,1	6,18,1	7,1,1	8,7,1	9,2,1	10,3,1	11,13,1	12,9,1	13,98,1	14,61,1	15,195,1	16,82,1	17,64,1	18,145,1	19,149,1	20,109,1	21,77,1	22,70,1	23,59,1	24,58,1	25,54,1	26,167,1	27,156,1	28,155,1	29,118,1	30,112,1	31,133,1	32,131,1	33,92,1	34,80,1	35,74,1	36,33,1	37,199,1	38,140,1	39,184,1	40,179,1	41,194,1	42,107,1	43,37,1	44,186,1	45,168,1	46,134,1	47,67,1	48,52,1	49,41,1	50,193,1	51,28,1	52,21,1	53,192,1	54,185,1	55,178,1	56,143,1	57,196,1	58,103,1	59,71,1	60,60,1	61,44,1	62,125,1	63,85,1	64,153,1	65,135,1	66,115,1	67,113,1	68,157,1	69,130,1	70,94,1	71,169,1	72,121,1	73,51,1	74,68,1	75,150,1	76,160,1	77,120,1	78,151,1	79,132,1	80,114,1	81,69,1	82,46,1	83,171,1	84,47,1	85,38,1	86,116,1	87,190,1	88,27,1	89,79,1	90,89,1	91,183,1	92,84,1	93,122,1	94,136,1	95,30,1	96,123,1	97,129,1	102,32,1	126,40,1	130,181,1	
# Incoming
1,(0, 5),16	17,(0, 6),16	33,(0, 8),16	49,(0, 10),16	65,(0, 12),16	81,(0, 17),16	97,(0, 19),16	113,(0, 20),16	129,(16, 23),4	133,(16, 24),1904	2037,(16, 39),4	2041,(16, 43),124	2165,(16, 95),12	2177,(16, 106),136	2313,(16, 108),4	2317,(16, 110),72	2389,(16, 126),4	2393,(16, 139),28	2421,(16, 141),60	2481,(16, 163),12	2493,(14, 36),172	2665,(14, 62),1284	3949,(14, 144),40	3989,(14, 197),4	3993,(15, 26),20	4013,(15, 62),28	4041,(15, 66),1184	5225,(15, 91),16	5241,(15, 187),12	5253,(11, 78),632	5885,(11, 108),12	5897,(11, 142),20	5917,(11, 158),20	5937,(11, 159),4	5941,(11, 187),204	6145,(4, 26),8	6153,(4, 29),64	6217,(4, 76),4	6221,(4, 146),12	6233,(4, 154),12	6245,(4, 165),88	6333,(4, 182),312	6645,(4, 187),8	6653,(18, 31),4	6657,(18, 43),280	6937,(18, 55),12	6949,(18, 86),20	6969,(18, 104),4	6973,(18, 108),8	6981,(18, 182),32	7013,(18, 197),280	7293,(1, 34),116	7409,(1, 53),8	7417,(1, 57),8	7425,(1, 78),8	7433,(1, 144),24	7457,(7, 35),4	7461,(7, 43),12	7473,(7, 110),84	7557,(7, 154),48	7605,(7, 165),8	7613,(7, 170),8	7621,(7, 175),12	7633,(2, 24),36	7669,(2, 75),4	7673,(2, 99),60	7733,(2, 102),48	7781,(3, 36),48	7829,(3, 138),28	7857,(13, 26),40	7897,(13, 83),12	7909,(13, 97),16	7925,(13, 138),12	7937,(13, 148),8	7945,(13, 159),4	7949,(9, 108),16	7965,(9, 117),8	7973,(98, 201),4	7977,(61, 201),4	7981,(195, 201),4	7985,(82, 201),4	7989,(64, 201),4	7993,(145, 201),4	7997,(149, 201),4	8001,(109, 201),4	8005,(77, 201),4	8009,(70, 201),4	8013,(59, 201),4	8017,(58, 201),4	8021,(54, 201),4	8025,(167, 201),4	8029,(156, 201),4	8033,(155, 201),4	8037,(118, 201),4	8041,(112, 201),4	8045,(133, 201),4	8049,(131, 201),4	8053,(92, 201),4	8057,(80, 201),4	8061,(74, 201),4	8065,(33, 201),4	8069,(199, 201),4	8073,(140, 201),4	8077,(184, 201),4	8081,(179, 201),4	8085,(194, 201),4	8089,(107, 201),4	8093,(37, 201),4	8097,(186, 201),4	8101,(168, 201),4	8105,(134, 201),4	8109,(67, 201),4	8113,(52, 201),4	8117,(41, 201),4	8121,(193, 201),4	8125,(28, 201),4	8129,(21, 201),4	8133,(192, 201),4	8137,(185, 201),4	8141,(178, 201),4	8145,(143, 201),4	8149,(196, 201),4	8153,(103, 201),4	8157,(71, 201),4	8161,(60, 201),4	8165,(44, 201),4	8169,(125, 201),4	8173,(85, 201),4	8177,(153, 201),4	8181,(135, 201),4	8185,(115, 201),4	8189,(113, 201),4	8193,(157, 201),4	8197,(130, 201),4	8201,(94, 201),4	8205,(169, 201),4	8209,(121, 201),4	8213,(51, 201),4	8217,(68, 201),4	8221,(150, 201),4	8225,(160, 201),4	8229,(120, 201),4	8233,(151, 201),4	8237,(132, 201),4	8241,(114, 201),4	8245,(69, 201),4	8249,(46, 201),4	8253,(171, 201),4	8257,(47, 201),4	8261,(38, 201),4	8265,(116, 201),4	8269,(190, 201),4	8273,(27, 201),4	8277,(79, 201),4	8281,(89, 201),4	8285,(183, 201),4	8289,(84, 201),4	8293,(122, 201),4	8297,(136, 201),4	8301,(30, 201),4	8305,(123, 201),4	8309,(129, 201),4	8313,(32, 201),4	8317,(40, 201),4	8321,(181, 201),4	
18,(5, 190),8	34,(6, 27),4	38,(6, 79),4	42,(6, 89),4	46,(6, 181),8	54,(6, 183),8	62,(8, 84),4	66,(10, 122),12	78,(10, 136),4	82,(12, 30),4	86,(12, 123),4	90,(12, 129),4	98,(17, 32),4	114,(19, 40),12	126,(19, 181),4	
# Outgoing
18,(5, 190),8	34,(6, 27),4	38,(6, 79),4	42,(6, 89),4	46,(6, 181),8	54,(6, 183),8	62,(8, 84),4	66,(10, 122),12	78,(10, 136),4	82,(12, 30),4	86,(12, 123),4	90,(12, 129),4	98,(17, 32),4	114,(19, 40),12	126,(19, 181),4	
1,(0, 5),16	17,(0, 6),16	33,(0, 8),16	49,(0, 10),16	65,(0, 12),16	81,(0, 17),16	97,(0, 19),16	113,(0, 20),16	129,(16, 23),4	133,(16, 24),1904	2037,(16, 39),4	2041,(16, 43),124	2165,(16, 95),12	2177,(16, 106),136	2313,(16, 108),4	2317,(16, 110),72	2389,(16, 126),4	2393,(16, 139),28	2421,(16, 141),60	2481,(16, 163),12	2493,(14, 36),172	2665,(14, 62),1284	3949,(14, 144),40	3989,(14, 197),4	3993,(15, 26),20	4013,(15, 62),28	4041,(15, 66),1184	5225,(15, 91),16	5241,(15, 187),12	5253,(11, 78),632	5885,(11, 108),12	5897,(11, 142),20	5917,(11, 158),20	5937,(11, 159),4	5941,(11, 187),204	6145,(4, 26),8	6153,(4, 29),64	6217,(4, 76),4	6221,(4, 146),12	6233,(4, 154),12	6245,(4, 165),88	6333,(4, 182),312	6645,(4, 187),8	6653,(18, 31),4	6657,(18, 43),280	6937,(18, 55),12	6949,(18, 86),20	6969,(18, 104),4	6973,(18, 108),8	6981,(18, 182),32	7013,(18, 197),280	7293,(1, 34),116	7409,(1, 53),8	7417,(1, 57),8	7425,(1, 78),8	7433,(1, 144),24	7457,(7, 35),4	7461,(7, 43),12	7473,(7, 110),84	7557,(7, 154),48	7605,(7, 165),8	7613,(7, 170),8	7621,(7, 175),12	7633,(2, 24),36	7669,(2, 75),4	7673,(2, 99),60	7733,(2, 102),48	7781,(3, 36),48	7829,(3, 138),28	7857,(13, 26),40	7897,(13, 83),12	7909,(13, 97),16	7925,(13, 138),12	7937,(13, 148),8	7945,(13, 159),4	7949,(9, 108),16	7965,(9, 117),8	7973,(98, 201),4	7977,(61, 201),4	7981,(195, 201),4	7985,(82, 201),4	7989,(64, 201),4	7993,(145, 201),4	7997,(149, 201),4	8001,(109, 201),4	8005,(77, 201),4	8009,(70, 201),4	8013,(59, 201),4	8017,(58, 201),4	8021,(54, 201),4	8025,(167, 201),4	8029,(156, 201),4	8033,(155, 201),4	8037,(118, 201),4	8041,(112, 201),4	8045,(133, 201),4	8049,(131, 201),4	8053,(92, 201),4	8057,(80, 201),4	8061,(74, 201),4	8065,(33, 201),4	8069,(199, 201),4	8073,(140, 201),4	8077,(184, 201),4	8081,(179, 201),4	8085,(194, 201),4	8089,(107, 201),4	8093,(37, 201),4	8097,(186, 201),4	8101,(168, 201),4	8105,(134, 201),4	8109,(67, 201),4	8113,(52, 201),4	8117,(41, 201),4	8121,(193, 201),4	8125,(28, 201),4	8129,(21, 201),4	8133,(192, 201),4	8137,(185, 201),4	8141,(178, 201),4	8145,(143, 201),4	8149,(196, 201),4	8153,(103, 201),4	8157,(71, 201),4	8161,(60, 201),4	8165,(44, 201),4	8169,(125, 201),4	8173,(85, 201),4	8177,(153, 201),4	8181,(135, 201),4	8185,(115, 201),4	8189,(113, 201),4	8193,(157, 201),4	8197,(130, 201),4	8201,(94, 201),4	8205,(169, 201),4	8209,(121, 201),4	8213,(51, 201),4	8217,(68, 201),4	8221,(150, 201),4	8225,(160, 201),4	8229,(120, 201),4	8233,(151, 201),4	8237,(132, 201),4	8241,(114, 201),4	8245,(69, 201),4	8249,(46, 201),4	8253,(171, 201),4	8257,(47, 201),4	8261,(38, 201),4	8265,(116, 201),4	8269,(190, 201),4	8273,(27, 201),4	8277,(79, 201),4	8281,(89, 201),4	8285,(183, 201),4	8289,(84, 201),4	8293,(122, 201),4	8297,(136, 201),4	8301,(30, 201),4	8305,(123, 201),4	8309,(129, 201),4	8313,(32, 201),4	8317,(40, 201),4	8321,(181, 201),4	
