629
# CPU
0,0,1	1,4,41	42,13,41	83,26,41	124,1,41	165,30,41	206,88,41	247,3,41	288,111,41	329,45,41	370,68,41	411,70,41	452,74,41	493,98,41	534,86,41	
17,8,41	58,89,41	99,19,41	140,96,41	181,110,41	222,72,41	263,2,41	304,32,41	345,31,41	386,53,41	427,100,41	468,113,41	509,42,41	
33,5,41	74,81,41	115,83,41	156,52,41	197,77,41	238,66,41	279,73,41	320,87,41	361,49,41	402,28,41	443,91,41	484,34,41	
43,99,41	84,27,41	125,97,41	166,102,41	207,64,41	248,101,41	289,37,41	330,82,41	371,16,41	412,51,41	453,116,41	494,118,41	
45,105,41	86,108,41	127,80,41	168,60,41	209,14,41	250,7,41	291,67,41	332,40,41	373,55,41	414,109,41	455,17,41	496,48,41	
51,112,41	92,120,41	133,117,41	174,36,41	215,85,41	256,9,41	297,84,41	338,63,41	379,56,41	420,92,41	461,69,41	502,79,41	628,121,1	
60,65,41	101,115,41	142,10,41	183,93,41	224,20,41	265,58,41	306,39,41	347,90,41	388,43,41	429,94,41	470,25,41	
62,71,41	103,61,41	144,12,41	185,21,41	226,107,41	267,23,41	308,47,41	349,46,41	390,114,41	431,76,41	472,75,41	572,62,41	
65,54,41	106,59,41	147,11,41	188,50,41	229,44,41	270,106,41	311,78,41	352,35,41	393,103,41	434,18,41	475,41,41	
67,6,41	108,38,41	149,29,41	190,95,41	231,24,41	272,33,41	313,104,41	354,15,41	395,57,41	436,119,41	477,22,41	
# Incoming
292,(7, 68),1	293,(5, 70),4	297,(10, 74),3	300,(12, 74),1	301,(5, 98),10	311,(12, 86),4	315,(11, 86),18	350,(2, 98),1	352,(8, 86),1	423,(9, 86),2	
1,(0, 8),16	122,(6, 96),16	170,(1, 110),5	188,(12, 72),8	210,(0, 2),16	226,(10, 42),49	375,(9, 113),7	422,(9, 42),1	
17,(0, 5),16	141,(6, 28),1	183,(10, 77),1	185,(12, 77),1	187,(10, 91),1	196,(12, 66),10	206,(11, 66),4	210,(11, 91),1	212,(12, 34),26	250,(1, 73),18	291,(7, 87),1	295,(3, 28),2	300,(9, 49),4	304,(4, 91),22	327,(2, 28),9	336,(9, 91),8	344,(7, 34),22	
42,(4, 99),1	74,(5, 27),1	86,(8, 64),2	88,(8, 16),3	94,(5, 64),2	99,(8, 116),6	108,(6, 97),1	125,(4, 101),13	140,(6, 16),1	142,(6, 51),2	158,(4, 37),5	165,(1, 102),1	186,(12, 64),2	188,(10, 101),1	192,(1, 51),1	238,(12, 118),16	272,(4, 51),6	288,(3, 37),1	297,(3, 51),1	298,(7, 51),3	306,(2, 82),3	314,(2, 16),3	335,(3, 116),5	344,(9, 116),31	417,(1, 118),51	
43,(4, 105),2	70,(4, 60),1	75,(5, 108),3	89,(5, 80),5	94,(8, 109),5	109,(6, 80),4	113,(8, 48),2	121,(4, 14),4	138,(0, 7),16	154,(6, 48),7	166,(1, 60),1	189,(11, 14),3	192,(10, 17),33	225,(5, 48),33	268,(4, 55),4	309,(2, 40),1	340,(1, 17),2	342,(12, 48),55	468,(3, 48),2	
45,(4, 112),6	78,(5, 120),3	81,(8, 117),5	86,(99, 121),4	96,(5, 85),3	105,(8, 69),4	109,(89, 121),4	113,(6, 117),9	122,(81, 121),4	126,(27, 121),4	140,(19, 121),4	149,(38, 121),4	156,(83, 121),4	163,(4, 79),2	167,(1, 36),3	170,(97, 121),4	184,(10, 85),3	187,(96, 121),4	192,(11, 85),2	194,(0, 9),16	211,(11, 79),4	215,(54, 121),4	219,(59, 121),4	223,(29, 121),4	227,(102, 121),4	231,(110, 121),4	235,(50, 121),4	239,(95, 121),4	248,(64, 121),4	254,(12, 79),1	255,(71, 121),4	259,(61, 121),4	263,(52, 121),4	267,(21, 121),4	271,(77, 121),4	275,(65, 121),4	279,(115, 121),4	283,(93, 121),4	287,(72, 121),4	293,(7, 92),1	294,(107, 121),4	301,(7, 69),7	308,(105, 121),4	312,(108, 121),4	316,(80, 121),4	320,(60, 121),4	324,(14, 121),4	328,(20, 121),4	333,(44, 121),4	337,(24, 121),4	341,(66, 121),4	345,(101, 121),4	351,(2, 79),1	352,(58, 121),4	356,(106, 121),4	360,(33, 121),4	364,(73, 121),4	368,(37, 121),4	372,(67, 121),4	378,(32, 121),4	382,(39, 121),4	386,(78, 121),4	390,(104, 121),4	397,(23, 121),4	401,(47, 121),4	405,(87, 121),4	409,(82, 121),4	413,(40, 121),4	417,(31, 121),4	421,(90, 121),4	425,(46, 121),4	429,(35, 121),4	433,(15, 121),4	437,(49, 121),4	441,(16, 121),4	445,(55, 121),4	449,(53, 121),4	453,(43, 121),4	457,(114, 121),4	461,(103, 121),4	465,(57, 121),4	470,(3, 79),27	497,(28, 121),4	501,(51, 121),4	505,(109, 121),4	509,(100, 121),4	513,(94, 121),4	517,(76, 121),4	521,(18, 121),4	525,(119, 121),4	529,(91, 121),4	533,(116, 121),4	537,(17, 121),4	541,(113, 121),4	545,(25, 121),4	549,(75, 121),4	553,(41, 121),4	557,(22, 121),4	561,(34, 121),4	565,(118, 121),4	572,(13, 121),4	576,(26, 121),4	580,(30, 121),4	584,(88, 121),4	588,(111, 121),4	592,(45, 121),4	596,(68, 121),4	600,(70, 121),4	604,(74, 121),4	608,(98, 121),4	612,(48, 121),4	616,(42, 121),4	620,(86, 121),4	624,(62, 121),4	
58,(8, 65),2	65,(8, 115),6	71,(0, 10),16	101,(5, 58),1	144,(6, 25),5	206,(12, 43),2	291,(3, 90),4	295,(7, 43),2	304,(2, 39),1	312,(9, 94),10	336,(2, 94),14	382,(9, 25),29	
60,(8, 71),2	80,(8, 47),1	81,(5, 61),8	89,(0, 12),16	105,(5, 23),2	116,(5, 75),4	138,(6, 46),1	154,(4, 23),4	175,(1, 107),1	187,(4, 114),5	195,(11, 76),1	196,(11, 62),1	278,(4, 76),4	297,(9, 47),1	299,(9, 46),1	317,(2, 114),2	322,(9, 76),2	342,(1, 75),35	377,(2, 62),1	497,(1, 62),75	
62,(8, 54),3	67,(4, 59),3	71,(8, 59),9	87,(4, 78),1	105,(0, 11),16	127,(8, 41),5	139,(6, 35),1	176,(1, 44),9	185,(1, 106),1	208,(12, 41),4	226,(4, 106),24	298,(9, 78),1	299,(3, 35),4	305,(2, 78),1	306,(9, 103),6	324,(9, 18),12	411,(9, 41),11	
51,(0, 6),16	99,(5, 24),2	107,(5, 33),9	116,(8, 119),11	127,(5, 22),16	186,(1, 33),1	188,(11, 95),1	189,(10, 119),3	194,(11, 33),1	282,(4, 119),6	289,(3, 104),2	304,(9, 57),2	310,(2, 15),4	319,(2, 57),8	327,(1, 119),8	377,(3, 22),40	
# Outgoing
1,(0, 8),16	17,(0, 5),16	42,(4, 99),1	43,(4, 105),2	45,(4, 112),6	51,(0, 6),16	67,(4, 59),3	70,(4, 60),1	71,(0, 10),16	87,(4, 78),1	89,(0, 12),16	105,(0, 11),16	121,(4, 14),4	125,(4, 101),13	138,(0, 7),16	154,(4, 23),4	158,(4, 37),5	163,(4, 79),2	165,(1, 102),1	166,(1, 60),1	167,(1, 36),3	170,(1, 110),5	175,(1, 107),1	176,(1, 44),9	185,(1, 106),1	186,(1, 33),1	187,(4, 114),5	192,(1, 51),1	194,(0, 9),16	210,(0, 2),16	226,(4, 106),24	250,(1, 73),18	268,(4, 55),4	272,(4, 51),6	278,(4, 76),4	282,(4, 119),6	288,(3, 37),1	289,(3, 104),2	291,(3, 90),4	295,(3, 28),2	297,(3, 51),1	299,(3, 35),4	304,(4, 91),22	327,(1, 119),8	335,(3, 116),5	340,(1, 17),2	342,(1, 75),35	377,(3, 22),40	417,(1, 118),51	468,(3, 48),2	470,(3, 79),27	497,(1, 62),75	572,(13, 121),4	576,(26, 121),4	580,(30, 121),4	584,(88, 121),4	588,(111, 121),4	592,(45, 121),4	596,(68, 121),4	600,(70, 121),4	604,(74, 121),4	608,(98, 121),4	620,(86, 121),4	
58,(8, 65),2	60,(8, 71),2	62,(8, 54),3	65,(8, 115),6	71,(8, 59),9	80,(8, 47),1	81,(8, 117),5	86,(8, 64),2	88,(8, 16),3	94,(8, 109),5	99,(8, 116),6	105,(8, 69),4	109,(89, 121),4	113,(8, 48),2	116,(8, 119),11	127,(8, 41),5	140,(19, 121),4	187,(96, 121),4	231,(110, 121),4	287,(72, 121),4	304,(2, 39),1	305,(2, 78),1	306,(2, 82),3	309,(2, 40),1	310,(2, 15),4	314,(2, 16),3	317,(2, 114),2	319,(2, 57),8	327,(2, 28),9	336,(2, 94),14	350,(2, 98),1	351,(2, 79),1	352,(8, 86),1	377,(2, 62),1	378,(32, 121),4	417,(31, 121),4	449,(53, 121),4	509,(100, 121),4	541,(113, 121),4	616,(42, 121),4	
74,(5, 27),1	75,(5, 108),3	78,(5, 120),3	81,(5, 61),8	89,(5, 80),5	94,(5, 64),2	96,(5, 85),3	99,(5, 24),2	101,(5, 58),1	105,(5, 23),2	107,(5, 33),9	116,(5, 75),4	122,(81, 121),4	127,(5, 22),16	156,(83, 121),4	225,(5, 48),33	263,(52, 121),4	271,(77, 121),4	293,(5, 70),4	301,(5, 98),10	341,(66, 121),4	364,(73, 121),4	405,(87, 121),4	437,(49, 121),4	497,(28, 121),4	529,(91, 121),4	561,(34, 121),4	
86,(99, 121),4	126,(27, 121),4	170,(97, 121),4	227,(102, 121),4	248,(64, 121),4	345,(101, 121),4	368,(37, 121),4	409,(82, 121),4	441,(16, 121),4	501,(51, 121),4	533,(116, 121),4	565,(118, 121),4	
291,(7, 87),1	292,(7, 68),1	293,(7, 92),1	295,(7, 43),2	298,(7, 51),3	301,(7, 69),7	308,(105, 121),4	312,(108, 121),4	316,(80, 121),4	320,(60, 121),4	324,(14, 121),4	344,(7, 34),22	372,(67, 121),4	413,(40, 121),4	445,(55, 121),4	505,(109, 121),4	537,(17, 121),4	612,(48, 121),4	
297,(9, 47),1	298,(9, 78),1	299,(9, 46),1	300,(9, 49),4	304,(9, 57),2	306,(9, 103),6	312,(9, 94),10	322,(9, 76),2	324,(9, 18),12	336,(9, 91),8	344,(9, 116),31	375,(9, 113),7	382,(9, 25),29	411,(9, 41),11	422,(9, 42),1	423,(9, 86),2	
183,(10, 77),1	184,(10, 85),3	187,(10, 91),1	188,(10, 101),1	189,(10, 119),3	192,(10, 17),33	226,(10, 42),49	275,(65, 121),4	279,(115, 121),4	283,(93, 121),4	297,(10, 74),3	328,(20, 121),4	352,(58, 121),4	382,(39, 121),4	421,(90, 121),4	453,(43, 121),4	513,(94, 121),4	545,(25, 121),4	
185,(12, 77),1	186,(12, 64),2	188,(12, 72),8	196,(12, 66),10	206,(12, 43),2	208,(12, 41),4	212,(12, 34),26	238,(12, 118),16	254,(12, 79),1	255,(71, 121),4	259,(61, 121),4	267,(21, 121),4	294,(107, 121),4	300,(12, 74),1	311,(12, 86),4	342,(12, 48),55	397,(23, 121),4	401,(47, 121),4	425,(46, 121),4	457,(114, 121),4	517,(76, 121),4	549,(75, 121),4	624,(62, 121),4	
188,(11, 95),1	189,(11, 14),3	192,(11, 85),2	194,(11, 33),1	195,(11, 76),1	196,(11, 62),1	206,(11, 66),4	210,(11, 91),1	211,(11, 79),4	215,(54, 121),4	219,(59, 121),4	235,(50, 121),4	315,(11, 86),18	333,(44, 121),4	356,(106, 121),4	386,(78, 121),4	429,(35, 121),4	461,(103, 121),4	521,(18, 121),4	553,(41, 121),4	
108,(6, 97),1	109,(6, 80),4	113,(6, 117),9	122,(6, 96),16	138,(6, 46),1	139,(6, 35),1	140,(6, 16),1	141,(6, 28),1	142,(6, 51),2	144,(6, 25),5	149,(38, 121),4	154,(6, 48),7	223,(29, 121),4	239,(95, 121),4	337,(24, 121),4	360,(33, 121),4	390,(104, 121),4	433,(15, 121),4	465,(57, 121),4	525,(119, 121),4	557,(22, 121),4	
