868
# CPU
0,121,1	1,120,2	3,99,2	5,36,2	7,94,2	9,108,2	11,105,2	13,110,2	15,109,2	17,15,2	19,77,2	21,48,2	23,81,2	25,113,2	27,25,2	29,86,2	31,69,2	33,51,2	35,23,2	37,57,2	39,52,2	41,61,2	43,49,2	45,90,2	47,38,2	49,97,2	51,101,2	53,60,2	55,68,2	57,79,2	59,66,2	61,29,2	63,88,2	65,82,2	67,116,2	69,76,2	71,115,2	73,41,2	75,78,2	77,26,2	79,75,2	81,118,2	83,106,2	85,16,2	87,33,2	89,84,2	91,43,2	93,107,2	95,53,2	97,19,2	99,104,2	101,100,2	103,39,2	105,63,2	107,56,2	109,80,2	111,50,2	113,73,2	115,13,2	117,22,2	119,40,2	121,27,2	123,35,2	125,24,2	127,32,2	129,14,2	131,112,2	133,62,2	135,92,2	137,31,2	139,95,2	141,17,2	143,117,2	145,59,2	147,18,2	149,44,2	151,85,2	153,102,2	155,111,2	157,103,2	159,65,2	161,58,2	163,91,2	165,42,2	167,96,2	169,64,2	171,45,2	173,20,2	175,119,2	177,37,2	179,30,2	181,71,2	183,83,2	185,87,2	187,5,2	189,1,2	195,8,2	211,4,2	255,11,2	301,12,2	391,7,2	481,2,2	583,9,2	723,3,2	865,10,2	867,0,1	
25,93,2	73,34,2	85,46,2	97,74,2	121,72,2	145,114,2	181,21,2	625,6,2	
13,47,2	37,67,2	61,28,2	
49,89,2	109,54,2	133,55,2	157,98,2	169,70,2	
# Incoming
171,(70, 5),2	173,(54, 1),6	179,(72, 1),4	183,(34, 8),12	195,(93, 4),4	199,(89, 4),10	209,(34, 4),2	211,(28, 11),12	223,(72, 11),32	255,(93, 12),2	257,(28, 12),6	263,(114, 12),2	265,(98, 12),30	295,(70, 12),6	301,(93, 7),2	303,(34, 7),6	309,(98, 7),80	389,(70, 7),2	391,(74, 2),20	411,(54, 2),14	425,(55, 2),2	427,(114, 2),54	481,(67, 9),2	483,(46, 9),10	493,(72, 9),2	495,(55, 9),36	531,(70, 9),2	533,(21, 9),50	583,(70, 3),136	719,(21, 3),4	723,(47, 10),2	725,(67, 10),6	731,(46, 10),16	747,(54, 10),24	771,(55, 10),38	809,(98, 10),54	863,(21, 10),2	865,(6, 0),2	
13,(121, 93),12	61,(121, 34),12	73,(121, 46),12	85,(121, 74),12	109,(121, 72),12	133,(121, 114),12	169,(121, 21),12	181,(77, 6),2	183,(23, 6),6	189,(52, 6),6	195,(90, 6),6	201,(107, 6),2	203,(53, 6),16	219,(100, 6),22	241,(39, 6),22	263,(13, 6),8	271,(35, 6),22	293,(112, 6),6	299,(117, 6),2	301,(55, 6),8	309,(59, 6),18	327,(42, 6),122	449,(20, 6),164	613,(30, 6),12	
1,(121, 47),12	25,(121, 67),12	49,(121, 28),12	
37,(121, 89),12	97,(121, 54),12	121,(121, 55),12	145,(121, 98),12	157,(121, 70),12	
# Outgoing
1,(121, 47),12	13,(121, 93),12	25,(121, 67),12	37,(121, 89),12	49,(121, 28),12	61,(121, 34),12	73,(121, 46),12	85,(121, 74),12	97,(121, 54),12	109,(121, 72),12	121,(121, 55),12	133,(121, 114),12	145,(121, 98),12	157,(121, 70),12	169,(121, 21),12	181,(77, 6),2	183,(23, 6),6	189,(52, 6),6	195,(90, 6),6	201,(107, 6),2	203,(53, 6),16	219,(100, 6),22	241,(39, 6),22	263,(13, 6),8	271,(35, 6),22	293,(112, 6),6	299,(117, 6),2	309,(59, 6),18	327,(42, 6),122	449,(20, 6),164	613,(30, 6),12	
179,(72, 1),4	183,(34, 8),12	195,(93, 4),4	209,(34, 4),2	223,(72, 11),32	255,(93, 12),2	263,(114, 12),2	301,(93, 7),2	303,(34, 7),6	391,(74, 2),20	427,(114, 2),54	483,(46, 9),10	493,(72, 9),2	533,(21, 9),50	719,(21, 3),4	731,(46, 10),16	863,(21, 10),2	865,(6, 0),2	
211,(28, 11),12	257,(28, 12),6	481,(67, 9),2	723,(47, 10),2	725,(67, 10),6	
171,(70, 5),2	173,(54, 1),6	199,(89, 4),10	265,(98, 12),30	295,(70, 12),6	301,(55, 6),8	309,(98, 7),80	389,(70, 7),2	411,(54, 2),14	425,(55, 2),2	495,(55, 9),36	531,(70, 9),2	583,(70, 3),136	747,(54, 10),24	771,(55, 10),38	809,(98, 10),54	
