82
# CPU
0,81,1	1,56,1	2,59,1	3,53,1	4,65,1	5,19,1	6,18,1	7,36,1	8,71,1	9,33,1	10,35,1	11,29,1	12,80,1	13,41,1	14,46,1	15,12,1	16,78,1	17,74,1	18,27,1	19,77,1	20,26,1	21,21,1	22,9,1	23,31,1	24,52,1	25,47,1	26,10,1	27,67,1	28,75,1	29,48,1	30,66,1	31,64,1	32,68,1	33,44,1	34,16,1	35,37,1	36,34,1	37,28,1	38,11,1	39,42,1	40,55,1	41,22,1	42,50,1	43,23,1	44,70,1	45,39,1	46,14,1	47,76,1	48,73,1	49,40,1	50,57,1	51,63,1	52,58,1	53,20,1	54,51,1	55,61,1	56,72,1	57,24,1	58,49,1	59,2,1	60,60,1	61,45,1	62,54,1	63,32,1	64,79,1	65,4,1	66,62,1	67,30,1	68,1,1	69,43,1	70,3,1	71,17,1	72,13,1	73,15,1	74,6,1	75,8,1	76,5,1	80,7,1	81,0,1	
20,38,1	58,25,1	
39,69,1	
# Incoming
21,(38, 8),1	40,(69, 5),6	59,(25, 7),21	
1,(81, 38),19	39,(81, 25),19	
20,(81, 69),19	
# Outgoing
1,(81, 38),19	20,(81, 69),19	39,(81, 25),19	
21,(38, 8),1	59,(25, 7),21	
40,(69, 5),6	
