6635
# CPU
3,2,5	8,4,5	13,6,5	18,8,5	23,10,5	28,12,5	33,14,5	38,16,5	43,190,5	48,18,5	53,20,5	58,48,5	63,54,5	68,110,5	73,148,5	78,34,5	83,22,5	88,28,5	93,52,5	98,118,5	103,144,5	108,92,5	1659,178,5	1703,38,5	3199,64,5	3265,176,5	3347,78,5	3352,114,5	3363,126,5	3407,170,5	3971,174,5	3991,192,5	4011,26,5	4041,30,5	4077,96,5	4099,134,5	4119,162,5	4777,108,5	4797,142,5	4813,150,5	4943,160,5	4961,24,5	5031,50,5	5063,66,5	5279,116,5	5307,120,5	5325,154,5	5331,168,5	5339,182,5	5349,70,5	5487,76,5	5549,80,5	5554,84,5	5581,98,5	5619,102,5	5645,104,5	5653,122,5	5671,132,5	5789,172,5	5794,180,5	5803,196,5	5808,32,5	5819,36,5	5825,42,5	5839,46,5	5887,58,5	5909,86,5	5914,90,5	5945,106,5	5951,136,5	5975,156,5	5985,158,5	5990,186,5	6005,40,5	6010,56,5	6015,68,5	6031,72,5	6036,82,5	6047,88,5	6055,100,5	6093,130,5	6101,138,5	6106,140,5	6111,146,5	6116,166,5	6121,184,5	6126,188,5	6131,198,5	6173,200,5	6178,44,5	6187,60,5	6192,62,5	6209,74,5	6214,94,5	6219,112,5	6224,124,5	6229,128,5	6234,152,5	6239,164,5	6244,194,5	
0,0,1	1,5,5	6,7,5	11,17,5	16,13,5	21,15,5	26,19,5	31,9,5	36,3,5	41,11,5	46,1,5	51,129,5	56,121,5	61,177,5	66,137,5	71,73,5	76,195,5	81,123,5	86,179,5	91,89,5	96,83,5	101,87,5	106,91,5	111,175,5	116,115,5	121,153,5	126,49,5	131,163,5	136,157,5	141,69,5	146,109,5	300,45,5	1068,173,5	1118,59,5	1123,61,5	1232,99,5	1342,189,5	1348,33,5	1494,135,5	1499,185,5	1614,127,5	1626,155,5	1662,199,5	1667,23,5	1700,37,5	1936,55,5	1941,65,5	1946,71,5	1951,85,5	2094,139,5	2124,147,5	2136,171,5	2214,41,5	2219,67,5	2224,93,5	2250,131,5	2272,151,5	2298,43,5	2494,187,5	2508,197,5	2513,47,5	2530,57,5	2535,77,5	2564,117,5	2569,133,5	2574,159,5	2580,167,5	2594,181,5	2632,29,5	2640,39,5	2645,75,5	2650,79,5	2655,81,5	2666,95,5	2678,97,5	2756,101,5	2764,105,5	2800,107,5	2805,119,5	2814,125,5	2828,145,5	2833,161,5	2838,169,5	2928,21,5	2950,25,5	2955,27,5	2960,31,5	2965,35,5	2970,51,5	2980,53,5	3004,63,5	3010,103,5	3015,111,5	3020,113,5	3044,141,5	3050,143,5	3055,149,5	3060,165,5	3065,183,5	3070,191,5	3075,193,5	6634,201,1	
# Incoming
1,(0, 2),2	3,(0, 4),2	5,(0, 6),2	7,(0, 8),2	9,(0, 10),2	11,(0, 12),2	13,(0, 14),2	15,(0, 16),2	17,(0, 18),2	19,(0, 20),2	21,(5, 22),2	23,(5, 64),4	27,(5, 66),2	29,(5, 86),2	31,(5, 94),1518	1549,(5, 96),24	1573,(5, 104),6	1579,(5, 130),2	1581,(5, 142),20	1601,(5, 152),30	1631,(5, 156),2	1633,(5, 166),24	1657,(5, 178),2	1659,(5, 180),20	1679,(5, 188),4	1683,(7, 24),8	1691,(7, 32),2	1693,(7, 38),10	1703,(7, 58),1484	3187,(7, 64),12	3199,(7, 86),2	3201,(7, 142),6	3207,(7, 156),30	3237,(7, 166),14	3251,(7, 174),10	3261,(7, 176),4	3265,(7, 180),26	3291,(7, 186),34	3325,(17, 46),8	3333,(17, 78),14	3347,(17, 114),2	3349,(17, 126),14	3363,(17, 134),26	3389,(17, 136),2	3391,(17, 150),2	3393,(17, 170),14	3407,(17, 174),564	3971,(17, 184),14	3985,(17, 192),6	3991,(13, 26),20	4011,(13, 30),30	4041,(13, 68),16	4057,(13, 94),4	4061,(13, 96),16	4077,(13, 100),2	4079,(13, 112),12	4091,(13, 130),2	4093,(13, 134),6	4099,(13, 154),10	4109,(13, 162),10	4119,(13, 164),2	4121,(13, 184),2	4123,(13, 194),32	4155,(13, 196),314	4469,(15, 36),14	4483,(15, 40),2	4485,(15, 56),32	4517,(15, 62),8	4525,(15, 84),38	4563,(15, 86),2	4565,(15, 94),6	4571,(15, 100),146	4717,(15, 104),30	4747,(15, 106),28	4775,(15, 108),2	4777,(15, 122),18	4795,(15, 142),2	4797,(15, 146),4	4801,(15, 150),12	4813,(15, 158),84	4897,(15, 160),46	4943,(15, 188),2	4945,(19, 24),16	4961,(19, 46),12	4973,(19, 50),58	5031,(19, 66),32	5063,(19, 82),2	5065,(19, 112),128	5193,(19, 116),86	5279,(19, 120),28	5307,(19, 154),18	5325,(19, 168),6	5331,(19, 182),8	5339,(19, 186),2	5341,(19, 188),6	5347,(9, 70),2	5349,(9, 72),22	5371,(9, 76),116	5487,(9, 80),62	5549,(9, 84),2	5551,(9, 94),24	5575,(9, 98),6	5581,(9, 100),22	5603,(9, 102),16	5619,(9, 104),26	5645,(9, 122),8	5653,(9, 132),18	5671,(9, 138),6	5677,(9, 164),4	5681,(9, 172),108	5789,(9, 180),2	5791,(9, 188),8	5799,(9, 196),4	5803,(3, 32),2	5805,(3, 36),14	5819,(3, 42),6	5825,(3, 44),4	5829,(3, 46),10	5839,(3, 58),48	5887,(3, 60),6	5893,(3, 86),16	5909,(3, 90),2	5911,(3, 106),34	5945,(3, 136),6	5951,(3, 152),22	5973,(3, 156),2	5975,(3, 158),10	5985,(3, 164),2	5987,(3, 186),2	5989,(3, 198),12	6001,(3, 200),2	6003,(11, 40),2	6005,(11, 56),2	6007,(11, 68),4	6011,(11, 72),20	6031,(11, 82),2	6033,(11, 88),14	6047,(11, 100),8	6055,(11, 112),26	6081,(11, 124),10	6091,(11, 130),2	6093,(11, 138),8	6101,(11, 140),4	6105,(11, 146),2	6107,(11, 166),6	6113,(11, 184),6	6119,(11, 188),2	6121,(11, 198),8	6129,(11, 200),44	6173,(1, 44),2	6175,(1, 60),12	6187,(1, 62),4	6191,(1, 74),18	6209,(1, 94),4	6213,(1, 112),2	6215,(1, 124),2	6217,(1, 128),2	6219,(1, 152),4	6223,(1, 164),12	6235,(1, 194),2	
8,(2, 23),184	192,(2, 41),8	200,(2, 43),82	282,(2, 45),18	300,(2, 51),444	744,(2, 63),66	810,(2, 67),220	1030,(2, 103),12	1042,(2, 131),2	1044,(2, 151),4	1048,(2, 173),20	1068,(2, 181),12	1080,(4, 21),12	1092,(4, 23),8	1100,(4, 57),16	1116,(4, 59),2	1118,(4, 61),2	1120,(4, 63),110	1230,(4, 99),2	1232,(4, 111),36	1268,(4, 141),20	1288,(4, 155),2	1290,(4, 161),12	1302,(4, 167),22	1324,(4, 189),18	1342,(6, 33),6	1348,(6, 93),16	1364,(6, 101),48	1412,(6, 125),30	1442,(6, 131),44	1486,(6, 135),8	1494,(6, 149),2	1496,(6, 185),2	1498,(8, 31),4	1502,(8, 43),8	1510,(8, 47),10	1520,(8, 93),8	1528,(8, 119),72	1600,(8, 127),14	1614,(8, 141),4	1618,(8, 143),2	1620,(8, 145),4	1624,(8, 155),2	1626,(8, 165),4	1630,(8, 191),10	1640,(8, 193),16	1656,(8, 199),6	1662,(10, 23),2	1664,(10, 27),20	1684,(10, 37),16	1700,(10, 51),2	1702,(10, 53),200	1902,(10, 55),34	1936,(10, 65),2	1938,(10, 71),6	1944,(10, 85),2	1946,(10, 95),2	1948,(10, 113),66	2014,(10, 139),80	2094,(10, 147),30	2124,(10, 161),10	2134,(10, 171),2	2136,(10, 187),72	2208,(12, 41),6	2214,(12, 67),2	2216,(12, 93),2	2218,(12, 131),32	2250,(12, 151),22	2272,(14, 43),26	2298,(14, 47),122	2420,(14, 51),2	2422,(14, 63),22	2444,(14, 75),2	2446,(14, 81),14	2460,(14, 143),2	2462,(14, 145),2	2464,(14, 149),28	2492,(14, 187),2	2494,(14, 197),14	2508,(16, 47),2	2510,(16, 57),20	2530,(16, 77),2	2532,(16, 97),30	2562,(16, 117),2	2564,(16, 133),2	2566,(16, 159),2	2568,(16, 167),12	2580,(16, 181),14	2594,(16, 191),16	2610,(190, 201),20	2630,(18, 29),2	2632,(18, 35),4	2636,(18, 39),4	2640,(18, 75),2	2642,(18, 79),8	2650,(18, 81),4	2654,(18, 95),12	2666,(18, 97),12	2678,(18, 101),78	2756,(18, 105),8	2764,(18, 107),36	2800,(18, 119),2	2802,(18, 125),12	2814,(18, 145),14	2828,(18, 161),4	2832,(18, 165),4	2836,(18, 169),2	2838,(20, 21),90	2928,(20, 25),22	2950,(20, 27),2	2952,(20, 31),4	2956,(20, 35),2	2958,(20, 51),4	2962,(20, 53),18	2980,(20, 63),24	3004,(20, 103),6	3010,(20, 111),2	3012,(20, 113),2	3014,(20, 141),30	3044,(20, 143),6	3050,(20, 149),2	3052,(20, 165),2	3054,(20, 183),4	3058,(20, 191),2	3060,(20, 193),2	3062,(48, 201),20	3082,(54, 201),20	3102,(110, 201),20	3122,(148, 201),20	3142,(34, 201),20	3162,(22, 201),20	3182,(28, 201),20	3202,(52, 201),20	3222,(118, 201),20	3242,(144, 201),20	3262,(92, 201),20	3282,(178, 201),20	3302,(38, 201),20	3322,(64, 201),20	3342,(176, 201),20	3362,(78, 201),20	3382,(114, 201),20	3402,(126, 201),20	3422,(170, 201),20	3976,(174, 201),20	3996,(192, 201),20	4016,(26, 201),20	4046,(30, 201),20	4082,(96, 201),20	4104,(134, 201),20	4124,(162, 201),20	4782,(108, 201),20	4802,(142, 201),20	4822,(150, 201),20	4948,(160, 201),20	4968,(24, 201),20	5036,(50, 201),20	5068,(66, 201),20	5284,(116, 201),20	5312,(120, 201),20	5332,(154, 201),20	5352,(168, 201),20	5372,(182, 201),20	5392,(70, 201),20	5492,(76, 201),20	5554,(80, 201),20	5574,(84, 201),20	5594,(98, 201),20	5624,(102, 201),20	5650,(104, 201),20	5670,(122, 201),20	5690,(132, 201),20	5794,(172, 201),20	5814,(180, 201),20	5834,(196, 201),20	5854,(32, 201),20	5874,(36, 201),20	5894,(42, 201),20	5914,(46, 201),20	5934,(58, 201),20	5954,(86, 201),20	5974,(90, 201),20	5994,(106, 201),20	6014,(136, 201),20	6034,(156, 201),20	6054,(158, 201),20	6074,(186, 201),20	6094,(40, 201),20	6114,(56, 201),20	6134,(68, 201),20	6154,(72, 201),20	6174,(82, 201),20	6194,(88, 201),20	6214,(100, 201),20	6234,(130, 201),20	6254,(138, 201),20	6274,(140, 201),20	6294,(146, 201),20	6314,(166, 201),20	6334,(184, 201),20	6354,(188, 201),20	6374,(198, 201),20	6394,(200, 201),20	6414,(44, 201),20	6434,(60, 201),20	6454,(62, 201),20	6474,(74, 201),20	6494,(94, 201),20	6514,(112, 201),20	6534,(124, 201),20	6554,(128, 201),20	6574,(152, 201),20	6594,(164, 201),20	6614,(194, 201),20	
# Outgoing
8,(2, 23),184	192,(2, 41),8	200,(2, 43),82	282,(2, 45),18	300,(2, 51),444	744,(2, 63),66	810,(2, 67),220	1030,(2, 103),12	1042,(2, 131),2	1044,(2, 151),4	1048,(2, 173),20	1068,(2, 181),12	1080,(4, 21),12	1092,(4, 23),8	1100,(4, 57),16	1116,(4, 59),2	1118,(4, 61),2	1120,(4, 63),110	1230,(4, 99),2	1232,(4, 111),36	1268,(4, 141),20	1288,(4, 155),2	1290,(4, 161),12	1302,(4, 167),22	1324,(4, 189),18	1342,(6, 33),6	1348,(6, 93),16	1364,(6, 101),48	1412,(6, 125),30	1442,(6, 131),44	1486,(6, 135),8	1494,(6, 149),2	1496,(6, 185),2	1498,(8, 31),4	1502,(8, 43),8	1510,(8, 47),10	1520,(8, 93),8	1528,(8, 119),72	1600,(8, 127),14	1614,(8, 141),4	1618,(8, 143),2	1620,(8, 145),4	1624,(8, 155),2	1626,(8, 165),4	1630,(8, 191),10	1640,(8, 193),16	1656,(8, 199),6	1662,(10, 23),2	1664,(10, 27),20	1684,(10, 37),16	1700,(10, 51),2	1702,(10, 53),200	1902,(10, 55),34	1936,(10, 65),2	1938,(10, 71),6	1944,(10, 85),2	1946,(10, 95),2	1948,(10, 113),66	2014,(10, 139),80	2094,(10, 147),30	2124,(10, 161),10	2134,(10, 171),2	2136,(10, 187),72	2208,(12, 41),6	2214,(12, 67),2	2216,(12, 93),2	2218,(12, 131),32	2250,(12, 151),22	2272,(14, 43),26	2298,(14, 47),122	2420,(14, 51),2	2422,(14, 63),22	2444,(14, 75),2	2446,(14, 81),14	2460,(14, 143),2	2462,(14, 145),2	2464,(14, 149),28	2492,(14, 187),2	2494,(14, 197),14	2508,(16, 47),2	2510,(16, 57),20	2530,(16, 77),2	2532,(16, 97),30	2562,(16, 117),2	2564,(16, 133),2	2566,(16, 159),2	2568,(16, 167),12	2580,(16, 181),14	2594,(16, 191),16	2610,(190, 201),20	2630,(18, 29),2	2632,(18, 35),4	2636,(18, 39),4	2640,(18, 75),2	2642,(18, 79),8	2650,(18, 81),4	2654,(18, 95),12	2666,(18, 97),12	2678,(18, 101),78	2756,(18, 105),8	2764,(18, 107),36	2800,(18, 119),2	2802,(18, 125),12	2814,(18, 145),14	2828,(18, 161),4	2832,(18, 165),4	2836,(18, 169),2	2838,(20, 21),90	2928,(20, 25),22	2950,(20, 27),2	2952,(20, 31),4	2956,(20, 35),2	2958,(20, 51),4	2962,(20, 53),18	2980,(20, 63),24	3004,(20, 103),6	3010,(20, 111),2	3012,(20, 113),2	3014,(20, 141),30	3044,(20, 143),6	3050,(20, 149),2	3052,(20, 165),2	3054,(20, 183),4	3058,(20, 191),2	3060,(20, 193),2	3062,(48, 201),20	3082,(54, 201),20	3102,(110, 201),20	3122,(148, 201),20	3142,(34, 201),20	3162,(22, 201),20	3182,(28, 201),20	3202,(52, 201),20	3222,(118, 201),20	3242,(144, 201),20	3262,(92, 201),20	3282,(178, 201),20	3302,(38, 201),20	3322,(64, 201),20	3342,(176, 201),20	3362,(78, 201),20	3382,(114, 201),20	3402,(126, 201),20	3422,(170, 201),20	3976,(174, 201),20	3996,(192, 201),20	4016,(26, 201),20	4046,(30, 201),20	4082,(96, 201),20	4104,(134, 201),20	4124,(162, 201),20	4782,(108, 201),20	4802,(142, 201),20	4822,(150, 201),20	4948,(160, 201),20	4968,(24, 201),20	5036,(50, 201),20	5068,(66, 201),20	5284,(116, 201),20	5312,(120, 201),20	5332,(154, 201),20	5352,(168, 201),20	5372,(182, 201),20	5392,(70, 201),20	5492,(76, 201),20	5554,(80, 201),20	5574,(84, 201),20	5594,(98, 201),20	5624,(102, 201),20	5650,(104, 201),20	5670,(122, 201),20	5690,(132, 201),20	5794,(172, 201),20	5814,(180, 201),20	5834,(196, 201),20	5854,(32, 201),20	5874,(36, 201),20	5894,(42, 201),20	5914,(46, 201),20	5934,(58, 201),20	5954,(86, 201),20	5974,(90, 201),20	5994,(106, 201),20	6014,(136, 201),20	6034,(156, 201),20	6054,(158, 201),20	6074,(186, 201),20	6094,(40, 201),20	6114,(56, 201),20	6134,(68, 201),20	6154,(72, 201),20	6174,(82, 201),20	6194,(88, 201),20	6214,(100, 201),20	6234,(130, 201),20	6254,(138, 201),20	6274,(140, 201),20	6294,(146, 201),20	6314,(166, 201),20	6334,(184, 201),20	6354,(188, 201),20	6374,(198, 201),20	6394,(200, 201),20	6414,(44, 201),20	6434,(60, 201),20	6454,(62, 201),20	6474,(74, 201),20	6494,(94, 201),20	6514,(112, 201),20	6534,(124, 201),20	6554,(128, 201),20	6574,(152, 201),20	6594,(164, 201),20	6614,(194, 201),20	
1,(0, 2),2	3,(0, 4),2	5,(0, 6),2	7,(0, 8),2	9,(0, 10),2	11,(0, 12),2	13,(0, 14),2	15,(0, 16),2	17,(0, 18),2	19,(0, 20),2	21,(5, 22),2	23,(5, 64),4	27,(5, 66),2	29,(5, 86),2	31,(5, 94),1518	1549,(5, 96),24	1573,(5, 104),6	1579,(5, 130),2	1581,(5, 142),20	1601,(5, 152),30	1631,(5, 156),2	1633,(5, 166),24	1657,(5, 178),2	1659,(5, 180),20	1679,(5, 188),4	1683,(7, 24),8	1691,(7, 32),2	1693,(7, 38),10	1703,(7, 58),1484	3187,(7, 64),12	3199,(7, 86),2	3201,(7, 142),6	3207,(7, 156),30	3237,(7, 166),14	3251,(7, 174),10	3261,(7, 176),4	3265,(7, 180),26	3291,(7, 186),34	3325,(17, 46),8	3333,(17, 78),14	3347,(17, 114),2	3349,(17, 126),14	3363,(17, 134),26	3389,(17, 136),2	3391,(17, 150),2	3393,(17, 170),14	3407,(17, 174),564	3971,(17, 184),14	3985,(17, 192),6	3991,(13, 26),20	4011,(13, 30),30	4041,(13, 68),16	4057,(13, 94),4	4061,(13, 96),16	4077,(13, 100),2	4079,(13, 112),12	4091,(13, 130),2	4093,(13, 134),6	4099,(13, 154),10	4109,(13, 162),10	4119,(13, 164),2	4121,(13, 184),2	4123,(13, 194),32	4155,(13, 196),314	4469,(15, 36),14	4483,(15, 40),2	4485,(15, 56),32	4517,(15, 62),8	4525,(15, 84),38	4563,(15, 86),2	4565,(15, 94),6	4571,(15, 100),146	4717,(15, 104),30	4747,(15, 106),28	4775,(15, 108),2	4777,(15, 122),18	4795,(15, 142),2	4797,(15, 146),4	4801,(15, 150),12	4813,(15, 158),84	4897,(15, 160),46	4943,(15, 188),2	4945,(19, 24),16	4961,(19, 46),12	4973,(19, 50),58	5031,(19, 66),32	5063,(19, 82),2	5065,(19, 112),128	5193,(19, 116),86	5279,(19, 120),28	5307,(19, 154),18	5325,(19, 168),6	5331,(19, 182),8	5339,(19, 186),2	5341,(19, 188),6	5347,(9, 70),2	5349,(9, 72),22	5371,(9, 76),116	5487,(9, 80),62	5549,(9, 84),2	5551,(9, 94),24	5575,(9, 98),6	5581,(9, 100),22	5603,(9, 102),16	5619,(9, 104),26	5645,(9, 122),8	5653,(9, 132),18	5671,(9, 138),6	5677,(9, 164),4	5681,(9, 172),108	5789,(9, 180),2	5791,(9, 188),8	5799,(9, 196),4	5803,(3, 32),2	5805,(3, 36),14	5819,(3, 42),6	5825,(3, 44),4	5829,(3, 46),10	5839,(3, 58),48	5887,(3, 60),6	5893,(3, 86),16	5909,(3, 90),2	5911,(3, 106),34	5945,(3, 136),6	5951,(3, 152),22	5973,(3, 156),2	5975,(3, 158),10	5985,(3, 164),2	5987,(3, 186),2	5989,(3, 198),12	6001,(3, 200),2	6003,(11, 40),2	6005,(11, 56),2	6007,(11, 68),4	6011,(11, 72),20	6031,(11, 82),2	6033,(11, 88),14	6047,(11, 100),8	6055,(11, 112),26	6081,(11, 124),10	6091,(11, 130),2	6093,(11, 138),8	6101,(11, 140),4	6105,(11, 146),2	6107,(11, 166),6	6113,(11, 184),6	6119,(11, 188),2	6121,(11, 198),8	6129,(11, 200),44	6173,(1, 44),2	6175,(1, 60),12	6187,(1, 62),4	6191,(1, 74),18	6209,(1, 94),4	6213,(1, 112),2	6215,(1, 124),2	6217,(1, 128),2	6219,(1, 152),4	6223,(1, 164),12	6235,(1, 194),2	
