672
# CPU
159,18,1	
52,15,1	
51,14,1	
144,13,1	
56,16,1	143,12,1	
63,19,1	142,11,1	
49,9,1	138,10,1	170,20,1	
120,6,1	129,7,1	158,17,1	
6,2,1	7,5,1	45,8,1	671,21,1	
0,0,1	1,1,1	2,3,1	113,4,1	
# Incoming
158,(2, 18),1	
51,(1, 15),1	
50,(1, 14),1	
143,(2, 13),1	
52,(1, 16),4	142,(2, 12),1	
56,(1, 19),7	138,(2, 11),4	
45,(1, 9),4	49,(1, 10),1	129,(2, 10),9	159,(2, 20),11	
113,(2, 6),7	120,(2, 7),9	144,(2, 17),14	
1,(0, 2),5	6,(1, 8),39	63,(3, 21),38	101,(9, 21),38	139,(14, 21),38	177,(15, 21),38	215,(16, 21),38	253,(19, 21),38	291,(4, 21),38	329,(6, 21),38	367,(7, 21),38	405,(10, 21),38	443,(11, 21),38	481,(12, 21),38	519,(13, 21),38	557,(17, 21),38	595,(18, 21),38	633,(20, 21),38	
7,(2, 4),106	
# Outgoing
595,(18, 21),38	
177,(15, 21),38	
139,(14, 21),38	
519,(13, 21),38	
215,(16, 21),38	481,(12, 21),38	
253,(19, 21),38	443,(11, 21),38	
101,(9, 21),38	405,(10, 21),38	633,(20, 21),38	
329,(6, 21),38	367,(7, 21),38	557,(17, 21),38	
7,(2, 4),106	113,(2, 6),7	120,(2, 7),9	129,(2, 10),9	138,(2, 11),4	142,(2, 12),1	143,(2, 13),1	144,(2, 17),14	158,(2, 18),1	159,(2, 20),11	
1,(0, 2),5	6,(1, 8),39	45,(1, 9),4	49,(1, 10),1	50,(1, 14),1	51,(1, 15),1	52,(1, 16),4	56,(1, 19),7	63,(3, 21),38	291,(4, 21),38	
