2856
# CPU
29,2,2	31,112,2	33,118,2	57,4,2	59,64,2	61,110,2	85,6,2	87,50,2	89,106,2	113,8,2	115,28,2	117,52,2	141,10,2	143,54,2	169,12,2	171,20,2	173,34,2	175,74,2	177,38,2	189,26,2	193,40,2	489,46,2	497,58,2	517,80,2	717,16,2	729,24,2	949,98,2	997,14,2	1081,30,2	1105,42,2	1197,56,2	1213,68,2	1309,82,2	1341,92,2	1457,104,2	1461,108,2	1617,116,2	1621,120,2	1657,70,2	1677,90,2	1749,96,2	1773,100,2	1805,22,2	1821,48,2	1845,72,2	1877,78,2	1889,84,2	1905,86,2	1913,88,2	1965,102,2	2009,114,2	2017,18,2	2021,32,2	2049,36,2	2093,44,2	2121,60,2	2129,62,2	2137,66,2	2141,76,2	2161,94,2	
0,0,1	1,5,2	3,9,2	5,7,2	7,11,2	9,1,2	11,3,2	13,65,2	15,75,2	17,81,2	19,23,2	21,99,2	23,87,2	25,91,2	27,59,2	29,33,2	31,93,2	33,37,2	35,105,2	37,71,2	39,31,2	41,115,2	43,69,2	45,117,2	47,113,2	49,19,2	87,51,2	131,95,2	135,107,2	379,45,2	483,21,2	503,25,2	635,55,2	759,89,2	895,109,2	923,27,2	991,35,2	995,41,2	1015,43,2	1031,47,2	1047,49,2	1083,57,2	1163,63,2	1243,73,2	1251,85,2	1263,97,2	1307,103,2	1335,13,2	1371,17,2	1375,39,2	1479,79,2	2051,119,2	2099,15,2	2167,29,2	2179,53,2	2219,61,2	2223,67,2	2227,77,2	2263,83,2	2279,101,2	2315,111,2	2855,121,1	
# Incoming
1,(0, 2),28	29,(0, 4),28	57,(0, 6),28	85,(0, 8),28	113,(0, 10),28	141,(0, 12),28	169,(5, 24),16	185,(5, 26),4	189,(5, 40),4	193,(5, 46),296	489,(5, 58),8	497,(5, 80),20	517,(5, 86),16	533,(5, 94),20	553,(9, 16),164	717,(9, 22),4	721,(9, 24),8	729,(9, 30),36	765,(9, 36),16	781,(9, 60),8	789,(9, 66),16	805,(9, 98),144	949,(9, 100),32	981,(9, 108),12	993,(7, 14),4	997,(7, 30),84	1081,(7, 42),24	1105,(7, 56),92	1197,(7, 68),16	1213,(7, 76),80	1293,(7, 82),16	1309,(7, 88),8	1317,(7, 92),24	1341,(7, 94),4	1345,(7, 100),4	1349,(7, 102),44	1393,(7, 104),64	1457,(7, 108),4	1461,(7, 116),156	1617,(7, 120),4	1621,(11, 22),24	1645,(11, 44),8	1653,(11, 70),4	1657,(11, 90),20	1677,(11, 96),72	1749,(11, 100),24	1773,(1, 22),32	1805,(1, 44),12	1817,(1, 48),4	1821,(1, 72),24	1845,(1, 78),32	1877,(1, 84),12	1889,(1, 86),16	1905,(1, 88),8	1913,(1, 94),4	1917,(1, 102),48	1965,(1, 114),44	2009,(3, 18),8	2017,(3, 32),4	2021,(3, 36),28	2049,(3, 44),44	2093,(3, 60),28	2121,(3, 62),8	2129,(3, 66),8	2137,(3, 76),4	2141,(3, 94),20	
31,(2, 19),12	43,(2, 51),44	87,(2, 77),24	111,(2, 79),16	127,(2, 95),4	131,(2, 107),4	135,(112, 121),12	147,(118, 121),12	159,(4, 15),76	235,(4, 21),4	239,(4, 41),100	339,(4, 45),40	379,(4, 49),20	399,(4, 73),28	427,(4, 79),4	431,(4, 85),4	435,(4, 89),4	439,(64, 121),12	451,(110, 121),12	463,(6, 15),4	467,(6, 17),12	479,(6, 21),4	483,(6, 25),20	503,(6, 29),108	611,(6, 55),24	635,(6, 61),20	655,(6, 85),80	735,(6, 89),24	759,(6, 97),112	871,(6, 103),12	883,(6, 109),12	895,(50, 121),12	907,(106, 121),12	919,(8, 27),4	923,(8, 29),48	971,(8, 35),20	991,(8, 41),4	995,(8, 43),20	1015,(8, 47),16	1031,(8, 49),16	1047,(8, 57),36	1083,(8, 63),80	1163,(8, 73),80	1243,(8, 85),8	1251,(8, 97),12	1263,(8, 101),20	1283,(8, 103),24	1307,(28, 121),12	1319,(52, 121),12	1331,(10, 13),4	1335,(10, 17),36	1371,(10, 39),4	1375,(10, 77),20	1395,(10, 79),84	1479,(10, 119),572	2051,(54, 121),12	2063,(12, 15),36	2099,(12, 29),68	2167,(12, 53),12	2179,(12, 61),40	2219,(12, 67),4	2223,(12, 77),4	2227,(12, 83),36	2263,(12, 101),16	2279,(12, 111),36	2315,(20, 121),12	2327,(34, 121),12	2339,(74, 121),12	2351,(38, 121),12	2363,(26, 121),12	2375,(40, 121),12	2387,(46, 121),12	2399,(58, 121),12	2411,(80, 121),12	2423,(16, 121),12	2435,(24, 121),12	2447,(98, 121),12	2459,(14, 121),12	2471,(30, 121),12	2483,(42, 121),12	2495,(56, 121),12	2507,(68, 121),12	2519,(82, 121),12	2531,(92, 121),12	2543,(104, 121),12	2555,(108, 121),12	2567,(116, 121),12	2579,(120, 121),12	2591,(70, 121),12	2603,(90, 121),12	2615,(96, 121),12	2627,(100, 121),12	2639,(22, 121),12	2651,(48, 121),12	2663,(72, 121),12	2675,(78, 121),12	2687,(84, 121),12	2699,(86, 121),12	2711,(88, 121),12	2723,(102, 121),12	2735,(114, 121),12	2747,(18, 121),12	2759,(32, 121),12	2771,(36, 121),12	2783,(44, 121),12	2795,(60, 121),12	2807,(62, 121),12	2819,(66, 121),12	2831,(76, 121),12	2843,(94, 121),12	
# Outgoing
31,(2, 19),12	43,(2, 51),44	87,(2, 77),24	111,(2, 79),16	127,(2, 95),4	131,(2, 107),4	135,(112, 121),12	147,(118, 121),12	159,(4, 15),76	235,(4, 21),4	239,(4, 41),100	339,(4, 45),40	379,(4, 49),20	399,(4, 73),28	427,(4, 79),4	431,(4, 85),4	435,(4, 89),4	439,(64, 121),12	451,(110, 121),12	463,(6, 15),4	467,(6, 17),12	479,(6, 21),4	483,(6, 25),20	503,(6, 29),108	611,(6, 55),24	635,(6, 61),20	655,(6, 85),80	735,(6, 89),24	759,(6, 97),112	871,(6, 103),12	883,(6, 109),12	895,(50, 121),12	907,(106, 121),12	919,(8, 27),4	923,(8, 29),48	971,(8, 35),20	991,(8, 41),4	995,(8, 43),20	1015,(8, 47),16	1031,(8, 49),16	1047,(8, 57),36	1083,(8, 63),80	1163,(8, 73),80	1243,(8, 85),8	1251,(8, 97),12	1263,(8, 101),20	1283,(8, 103),24	1307,(28, 121),12	1319,(52, 121),12	1331,(10, 13),4	1335,(10, 17),36	1371,(10, 39),4	1375,(10, 77),20	1395,(10, 79),84	1479,(10, 119),572	2051,(54, 121),12	2063,(12, 15),36	2099,(12, 29),68	2167,(12, 53),12	2179,(12, 61),40	2219,(12, 67),4	2223,(12, 77),4	2227,(12, 83),36	2263,(12, 101),16	2279,(12, 111),36	2315,(20, 121),12	2327,(34, 121),12	2339,(74, 121),12	2351,(38, 121),12	2363,(26, 121),12	2375,(40, 121),12	2387,(46, 121),12	2399,(58, 121),12	2411,(80, 121),12	2423,(16, 121),12	2435,(24, 121),12	2447,(98, 121),12	2459,(14, 121),12	2471,(30, 121),12	2483,(42, 121),12	2495,(56, 121),12	2507,(68, 121),12	2519,(82, 121),12	2531,(92, 121),12	2543,(104, 121),12	2555,(108, 121),12	2567,(116, 121),12	2579,(120, 121),12	2591,(70, 121),12	2603,(90, 121),12	2615,(96, 121),12	2627,(100, 121),12	2639,(22, 121),12	2651,(48, 121),12	2663,(72, 121),12	2675,(78, 121),12	2687,(84, 121),12	2699,(86, 121),12	2711,(88, 121),12	2723,(102, 121),12	2735,(114, 121),12	2747,(18, 121),12	2759,(32, 121),12	2771,(36, 121),12	2783,(44, 121),12	2795,(60, 121),12	2807,(62, 121),12	2819,(66, 121),12	2831,(76, 121),12	2843,(94, 121),12	
1,(0, 2),28	29,(0, 4),28	57,(0, 6),28	85,(0, 8),28	113,(0, 10),28	141,(0, 12),28	169,(5, 24),16	185,(5, 26),4	189,(5, 40),4	193,(5, 46),296	489,(5, 58),8	497,(5, 80),20	517,(5, 86),16	533,(5, 94),20	553,(9, 16),164	717,(9, 22),4	721,(9, 24),8	729,(9, 30),36	765,(9, 36),16	781,(9, 60),8	789,(9, 66),16	805,(9, 98),144	949,(9, 100),32	981,(9, 108),12	993,(7, 14),4	997,(7, 30),84	1081,(7, 42),24	1105,(7, 56),92	1197,(7, 68),16	1213,(7, 76),80	1293,(7, 82),16	1309,(7, 88),8	1317,(7, 92),24	1341,(7, 94),4	1345,(7, 100),4	1349,(7, 102),44	1393,(7, 104),64	1457,(7, 108),4	1461,(7, 116),156	1617,(7, 120),4	1621,(11, 22),24	1645,(11, 44),8	1653,(11, 70),4	1657,(11, 90),20	1677,(11, 96),72	1749,(11, 100),24	1773,(1, 22),32	1805,(1, 44),12	1817,(1, 48),4	1821,(1, 72),24	1845,(1, 78),32	1877,(1, 84),12	1889,(1, 86),16	1905,(1, 88),8	1913,(1, 94),4	1917,(1, 102),48	1965,(1, 114),44	2009,(3, 18),8	2017,(3, 32),4	2021,(3, 36),28	2049,(3, 44),44	2093,(3, 60),28	2121,(3, 62),8	2129,(3, 66),8	2137,(3, 76),4	2141,(3, 94),20	
