2859
# CPU
0,201,1	1,94,5	6,148,5	11,130,5	16,121,5	21,117,5	26,40,5	31,190,5	36,32,5	41,85,5	46,157,5	51,175,5	56,77,5	61,159,5	66,65,5	71,171,5	76,44,5	81,28,5	86,31,5	91,140,5	96,143,5	101,165,5	106,89,5	111,183,5	116,33,5	121,192,5	126,182,5	131,75,5	136,87,5	141,90,5	146,179,5	151,79,5	156,124,5	161,108,5	166,185,5	171,82,5	176,161,5	181,95,5	186,54,5	191,29,5	196,64,5	201,46,5	206,88,5	211,115,5	216,129,5	221,136,5	226,145,5	231,83,5	236,61,5	241,48,5	246,170,5	251,184,5	256,164,5	261,98,5	266,93,5	271,193,5	276,41,5	281,102,5	286,24,5	291,37,5	296,68,5	301,74,5	306,132,5	311,154,5	316,142,5	321,27,5	326,133,5	331,151,5	336,25,5	341,155,5	346,188,5	351,134,5	356,125,5	361,141,5	366,104,5	371,191,5	376,30,5	381,152,5	386,56,5	391,147,5	396,66,5	401,91,5	406,186,5	411,55,5	416,137,5	421,111,5	426,81,5	431,107,5	436,71,5	441,60,5	446,173,5	451,84,5	456,123,5	461,52,5	466,195,5	471,42,5	476,122,5	481,150,5	486,131,5	491,127,5	496,160,5	501,45,5	506,73,5	511,118,5	516,38,5	521,168,5	526,149,5	531,162,5	536,198,5	541,50,5	546,110,5	551,106,5	556,80,5	561,70,5	566,99,5	571,113,5	576,119,5	581,103,5	586,187,5	591,26,5	596,101,5	601,139,5	606,96,5	611,43,5	616,158,5	621,21,5	626,35,5	631,97,5	636,39,5	641,172,5	646,166,5	651,180,5	656,181,5	661,163,5	666,167,5	671,63,5	676,47,5	681,69,5	686,189,5	691,112,5	696,100,5	701,169,5	706,23,5	711,53,5	716,144,5	721,67,5	726,92,5	731,116,5	736,176,5	741,109,5	746,196,5	751,120,5	756,128,5	761,51,5	766,5,5	771,174,5	776,58,5	781,6,5	786,20,5	791,1,5	796,14,5	801,15,5	806,4,5	811,3,5	816,18,5	821,16,5	849,19,5	972,11,5	1125,10,5	1266,17,5	1434,2,5	1641,9,5	1884,7,5	2268,8,5	2853,13,5	2858,0,1	
31,114,5	61,59,5	91,199,5	121,62,5	151,138,5	181,105,5	211,197,5	241,78,5	271,178,5	301,34,5	331,57,5	361,156,5	391,153,5	421,146,5	451,22,5	481,200,5	511,36,5	541,177,5	571,194,5	601,86,5	631,72,5	661,76,5	691,49,5	721,126,5	751,135,5	1579,12,5	
# Incoming
216,(197, 5),3	219,(62, 20),6	225,(62, 1),6	231,(114, 14),3	234,(62, 15),12	246,(78, 20),3	249,(197, 14),21	270,(59, 4),3	273,(199, 3),3	276,(178, 5),3	279,(178, 4),24	303,(138, 18),3	306,(105, 18),12	318,(105, 19),18	336,(57, 4),24	360,(197, 11),6	366,(156, 5),3	369,(156, 3),3	372,(34, 16),27	399,(138, 11),12	411,(114, 17),3	414,(138, 9),9	426,(146, 15),6	432,(146, 18),6	438,(146, 11),3	441,(199, 8),9	456,(22, 5),3	459,(153, 11),21	486,(200, 20),3	489,(200, 3),3	492,(200, 16),6	516,(36, 15),21	537,(36, 3),21	558,(36, 2),12	570,(177, 13),3	576,(194, 1),3	579,(78, 17),21	606,(86, 5),3	609,(86, 14),3	612,(86, 15),3	615,(86, 3),24	639,(72, 10),6	645,(86, 7),3	648,(86, 8),3	666,(76, 14),9	675,(22, 18),36	711,(57, 16),30	756,(135, 6),12	768,(135, 1),9	777,(153, 19),48	825,(49, 19),24	849,(200, 11),66	915,(72, 11),30	945,(49, 11),24	969,(135, 11),3	972,(146, 10),54	1026,(194, 10),99	1125,(57, 17),33	1158,(177, 17),87	1245,(126, 17),21	1266,(72, 2),141	1407,(76, 2),27	1434,(72, 9),33	1467,(76, 9),174	1641,(12, 0),3	1644,(156, 7),45	1689,(49, 7),195	1884,(22, 8),33	1917,(194, 8),21	1938,(126, 8),330	2268,(57, 13),33	2301,(194, 13),48	2349,(135, 13),504	
1,(201, 114),30	31,(201, 59),30	61,(201, 199),30	91,(201, 62),30	121,(201, 138),30	151,(201, 105),30	181,(201, 197),30	211,(201, 78),30	241,(201, 178),30	271,(201, 34),30	301,(201, 57),30	331,(201, 156),30	361,(201, 153),30	391,(201, 146),30	421,(201, 22),30	451,(201, 200),30	481,(201, 36),30	511,(201, 177),30	541,(201, 194),30	571,(201, 86),30	601,(201, 72),30	631,(201, 76),30	661,(201, 49),30	691,(201, 126),30	721,(201, 135),30	751,(90, 12),3	754,(93, 12),3	757,(41, 12),9	766,(151, 12),33	799,(60, 12),3	802,(52, 12),15	817,(150, 12),63	880,(131, 12),48	928,(38, 12),6	934,(168, 12),3	937,(162, 12),84	1021,(110, 12),27	1048,(180, 12),165	1213,(144, 12),9	1222,(67, 12),3	1225,(92, 12),342	1567,(128, 12),12	
# Outgoing
1,(201, 114),30	31,(201, 59),30	61,(201, 199),30	91,(201, 62),30	121,(201, 138),30	151,(201, 105),30	181,(201, 197),30	211,(201, 78),30	241,(201, 178),30	271,(201, 34),30	301,(201, 57),30	331,(201, 156),30	361,(201, 153),30	391,(201, 146),30	421,(201, 22),30	451,(201, 200),30	481,(201, 36),30	511,(201, 177),30	541,(201, 194),30	571,(201, 86),30	601,(201, 72),30	631,(201, 76),30	661,(201, 49),30	691,(201, 126),30	721,(201, 135),30	751,(90, 12),3	754,(93, 12),3	757,(41, 12),9	766,(151, 12),33	799,(60, 12),3	802,(52, 12),15	817,(150, 12),63	880,(131, 12),48	928,(38, 12),6	934,(168, 12),3	937,(162, 12),84	1021,(110, 12),27	1048,(180, 12),165	1213,(144, 12),9	1222,(67, 12),3	1225,(92, 12),342	1567,(128, 12),12	
216,(197, 5),3	219,(62, 20),6	225,(62, 1),6	231,(114, 14),3	234,(62, 15),12	246,(78, 20),3	249,(197, 14),21	270,(59, 4),3	273,(199, 3),3	276,(178, 5),3	279,(178, 4),24	303,(138, 18),3	306,(105, 18),12	318,(105, 19),18	336,(57, 4),24	360,(197, 11),6	366,(156, 5),3	369,(156, 3),3	372,(34, 16),27	399,(138, 11),12	411,(114, 17),3	414,(138, 9),9	426,(146, 15),6	432,(146, 18),6	438,(146, 11),3	441,(199, 8),9	456,(22, 5),3	459,(153, 11),21	486,(200, 20),3	489,(200, 3),3	492,(200, 16),6	516,(36, 15),21	537,(36, 3),21	558,(36, 2),12	570,(177, 13),3	576,(194, 1),3	579,(78, 17),21	606,(86, 5),3	609,(86, 14),3	612,(86, 15),3	615,(86, 3),24	639,(72, 10),6	645,(86, 7),3	648,(86, 8),3	666,(76, 14),9	675,(22, 18),36	711,(57, 16),30	756,(135, 6),12	768,(135, 1),9	777,(153, 19),48	825,(49, 19),24	849,(200, 11),66	915,(72, 11),30	945,(49, 11),24	969,(135, 11),3	972,(146, 10),54	1026,(194, 10),99	1125,(57, 17),33	1158,(177, 17),87	1245,(126, 17),21	1266,(72, 2),141	1407,(76, 2),27	1434,(72, 9),33	1467,(76, 9),174	1641,(12, 0),3	1644,(156, 7),45	1689,(49, 7),195	1884,(22, 8),33	1917,(194, 8),21	1938,(126, 8),330	2268,(57, 13),33	2301,(194, 13),48	2349,(135, 13),504	
