22
# CPU
0,21,1	1,9,1	2,4,1	3,3,1	4,6,1	5,7,1	6,11,1	7,13,1	8,8,1	9,10,1	10,19,1	11,16,1	12,20,1	13,18,1	14,2,1	15,14,1	16,5,1	17,12,1	18,15,1	19,17,1	20,1,1	21,0,1	









# Incoming










# Outgoing










