54806
# CPU
241,5,4	481,10,4	33310,69,4	33655,79,4	33952,114,4	34681,119,4	34705,19,4	35008,54,4	35389,89,4	35536,104,4	36235,109,4	36271,24,4	36331,29,4	36364,34,4	36490,39,4	36544,44,4	36637,49,4	36667,59,4	36790,64,4	37021,74,4	37096,84,4	37195,94,4	39145,99,4	
181,4,4	421,9,4	4981,15,4	32434,23,4	32464,28,4	33562,93,4	33769,108,4	34702,18,4	34912,43,4	34927,48,4	35323,83,4	35605,113,4	36139,118,4	36337,33,4	36481,38,4	36649,53,4	36655,58,4	36787,63,4	36925,68,4	36985,73,4	37027,78,4	37099,88,4	37240,98,4	37244,103,4	
121,3,4	361,8,4	3214,42,4	5749,87,4	5998,97,4	32416,22,4	33766,107,4	34696,17,4	34921,47,4	34945,52,4	35116,62,4	35533,102,4	36217,14,4	36328,27,4	36334,32,4	36397,37,4	36652,57,4	36823,67,4	36979,72,4	37024,77,4	37087,82,4	37180,92,4	37255,112,4	37264,117,4	
61,2,4	301,7,4	541,12,4	6142,26,4	6283,86,4	33199,56,4	33307,71,4	33361,81,4	33607,101,4	34708,21,4	34720,31,4	35278,76,4	35608,116,4	36256,16,4	36394,36,4	36499,41,4	36577,46,4	36640,51,4	36757,61,4	36802,66,4	37177,91,4	37204,96,4	37246,106,4	37250,111,4	
0,0,1	1,1,4	5,11,4	9,6,4	1306,45,4	3082,25,4	3133,85,4	3238,50,4	3673,30,4	3745,70,4	4399,105,4	4528,120,4	4753,95,4	4972,13,4	5002,20,4	5107,35,4	5113,40,4	5146,55,4	5164,60,4	5278,65,4	5710,75,4	5725,80,4	5782,90,4	6115,110,4	6601,100,4	6868,115,4	54805,121,1	
# Incoming
181,(0, 5),60	241,(2, 19),6	247,(2, 29),24	271,(2, 34),12	283,(2, 39),15	298,(2, 44),3	301,(3, 64),3	304,(3, 94),3	307,(2, 54),9	316,(2, 59),24	340,(2, 69),9	349,(3, 24),42	391,(3, 39),9	400,(3, 49),12	412,(3, 89),6	418,(3, 109),3	421,(0, 10),60	481,(3, 29),54	535,(4, 19),3	538,(2, 84),24	562,(4, 29),9	571,(4, 34),3	574,(4, 54),21	595,(4, 64),9	616,(3, 44),57	673,(3, 79),12	688,(2, 89),12	700,(2, 99),9	709,(4, 74),54	763,(4, 84),3	766,(4, 99),9	775,(4, 104),12	787,(4, 114),6	793,(4, 119),3	811,(2, 109),18	829,(3, 69),39	874,(2, 119),75	949,(9, 19),12	961,(9, 44),18	979,(9, 54),6	985,(9, 84),12	997,(9, 89),6	1003,(9, 94),3	1006,(8, 54),3	1009,(7, 34),6	1018,(1, 19),31392	32410,(7, 44),12	32422,(7, 99),9	32431,(7, 104),3	32434,(1, 24),9	32443,(3, 104),66	32509,(8, 64),3	32512,(8, 69),3	32515,(8, 74),3	32518,(1, 34),6	32524,(7, 69),81	32605,(7, 74),15	32620,(7, 79),15	32635,(7, 114),18	32653,(8, 19),36	32689,(8, 109),3	32692,(9, 119),3	32695,(1, 44),312	33007,(8, 59),39	33046,(8, 89),24	33070,(9, 34),63	33133,(9, 104),9	33142,(12, 19),27	33169,(12, 29),3	33172,(12, 94),3	33175,(1, 54),3	33178,(12, 34),21	33199,(1, 59),63	33262,(12, 49),18	33280,(12, 54),9	33289,(1, 69),3	33292,(12, 69),18	33319,(1, 74),3	33322,(7, 19),180	33502,(12, 44),75	33577,(12, 99),12	33589,(1, 99),12	33601,(12, 59),39	33640,(12, 79),15	33655,(12, 109),12	33769,(1, 109),3	33946,(1, 114),6	33964,(1, 119),717	34702,(11, 19),3	34708,(11, 24),6	34714,(11, 29),3	34720,(11, 34),84	34816,(11, 39),75	34912,(11, 44),3	34927,(11, 49),6	34966,(11, 54),42	35059,(11, 59),3	35155,(11, 64),93	35323,(11, 84),60	35386,(11, 89),3	35392,(11, 94),21	35470,(11, 99),21	35533,(11, 104),3	35539,(11, 109),18	35557,(3, 84),351	35908,(7, 109),327	36256,(6, 24),15	36328,(6, 29),3	36337,(6, 34),27	36481,(6, 39),9	36499,(6, 44),45	36577,(6, 49),60	36655,(6, 59),12	36787,(6, 64),3	36985,(6, 74),36	37087,(6, 84),9	37180,(6, 94),15	37195,(8, 99),1950	
121,(0, 4),60	181,(2, 18),3	184,(2, 23),6	190,(2, 33),15	205,(3, 28),3	223,(2, 38),6	229,(3, 53),3	232,(2, 43),6	238,(2, 78),3	241,(3, 15),27	268,(3, 33),30	298,(3, 73),3	319,(3, 83),6	349,(2, 88),3	361,(0, 9),60	421,(3, 88),21	451,(3, 103),27	508,(2, 83),30	538,(3, 38),78	685,(3, 98),48	733,(8, 53),3	736,(2, 103),12	781,(2, 108),30	826,(8, 68),3	835,(2, 113),6	841,(2, 118),33	964,(3, 113),12	976,(7, 15),9	997,(7, 23),9	1012,(1, 18),6	1018,(7, 28),51	1069,(7, 33),60	1129,(7, 38),99	1240,(7, 58),3	1243,(7, 98),3	1306,(7, 48),21	1327,(7, 53),42	1381,(7, 63),21	1540,(3, 68),183	1723,(7, 103),18	1741,(7, 113),6	1747,(12, 18),48	1795,(12, 23),48	1843,(12, 28),72	1915,(12, 43),6	1921,(12, 48),12	1969,(12, 78),3	1972,(12, 83),30	2056,(12, 103),9	2098,(12, 113),48	2206,(3, 108),75	2332,(3, 118),54	2386,(8, 15),93	2479,(8, 43),15	2494,(8, 48),57	2551,(8, 98),30	2581,(8, 113),18	3031,(5, 33),72	3124,(8, 103),33	3283,(5, 53),24	3316,(5, 58),12	3397,(5, 63),324	3721,(12, 98),387	4609,(5, 83),24	4729,(5, 93),21	4753,(5, 98),6	4759,(5, 103),3	4957,(5, 118),12	4978,(10, 15),3	4984,(10, 18),15	5002,(10, 23),18	5047,(10, 33),3	5113,(10, 43),6	5167,(10, 63),39	5671,(10, 68),36	5710,(10, 78),9	5749,(10, 88),30	5782,(10, 93),60	6115,(10, 118),3	32416,(1, 23),18	32443,(1, 28),21	32551,(1, 43),144	33118,(1, 53),57	33265,(1, 63),12	33277,(1, 68),12	33310,(1, 73),9	33361,(1, 83),57	33418,(1, 88),90	33508,(1, 93),54	33562,(1, 98),27	33652,(1, 103),3	33766,(1, 108),3	33784,(1, 113),162	33955,(1, 118),9	34696,(11, 18),6	34897,(11, 43),15	34921,(11, 48),6	34945,(11, 53),21	35011,(11, 58),48	35116,(11, 63),39	35278,(11, 78),3	35290,(11, 83),33	35383,(11, 88),3	35602,(11, 113),3	36136,(11, 118),3	36334,(6, 33),3	36397,(6, 38),84	36640,(6, 53),9	36652,(6, 58),3	36757,(6, 63),30	36823,(6, 68),102	36979,(6, 73),6	37024,(6, 78),3	37096,(6, 88),3	37204,(6, 98),36	37240,(6, 103),3	
61,(0, 3),60	121,(2, 14),3	130,(2, 22),6	205,(2, 37),18	253,(4, 22),18	274,(4, 27),3	286,(4, 37),3	289,(4, 42),12	301,(0, 8),60	361,(2, 47),27	388,(2, 67),27	439,(2, 77),27	466,(2, 82),42	508,(4, 47),9	517,(4, 82),15	532,(4, 112),3	538,(9, 14),3	541,(1, 14),27	604,(4, 67),57	661,(4, 77),36	697,(4, 87),6	703,(4, 97),6	748,(2, 107),33	796,(9, 17),6	802,(9, 37),12	814,(9, 42),3	817,(9, 47),3	820,(9, 72),3	823,(9, 102),3	829,(2, 112),6	835,(9, 27),69	904,(9, 57),15	949,(7, 14),27	985,(7, 17),3	988,(7, 22),9	1006,(7, 32),3	1015,(7, 37),3	1228,(7, 47),3	1231,(7, 57),9	1246,(9, 32),60	1372,(7, 62),9	1402,(7, 67),6	1408,(7, 72),9	1417,(7, 77),51	1468,(7, 82),9	1486,(7, 87),21	1507,(7, 92),81	1594,(7, 107),30	1624,(7, 112),3	1627,(7, 117),3	1633,(12, 17),6	1639,(12, 22),3	1642,(12, 27),42	1687,(12, 42),6	1693,(12, 52),12	1705,(12, 62),6	1714,(12, 67),3	1720,(12, 82),3	1933,(12, 57),21	1954,(12, 77),15	2002,(12, 87),39	2041,(12, 102),15	2065,(12, 107),33	2146,(12, 117),3	2302,(9, 62),153	2608,(5, 17),3	2611,(5, 22),60	2671,(5, 27),162	2833,(5, 32),198	3124,(5, 37),21	3151,(5, 42),63	3220,(5, 47),9	3268,(5, 52),15	3379,(5, 62),18	3733,(5, 67),9	3757,(5, 72),21	3871,(5, 77),9	3910,(5, 82),699	4672,(5, 92),57	4846,(5, 107),12	4972,(10, 14),6	4981,(10, 17),3	5020,(10, 27),27	5119,(10, 52),18	5146,(10, 57),3	5164,(10, 62),3	5278,(10, 67),393	5725,(10, 87),24	5842,(10, 97),156	5998,(10, 102),78	6076,(10, 107),3	32410,(1, 22),6	32491,(1, 32),27	32527,(1, 37),12	33028,(1, 47),27	33070,(1, 52),48	33262,(1, 62),3	33307,(1, 72),3	33607,(1, 102),45	33715,(1, 107),51	33781,(1, 112),3	33952,(1, 117),3	34693,(11, 17),3	34804,(11, 37),12	34918,(11, 47),3	34933,(11, 52),12	35008,(11, 57),3	35092,(11, 62),24	35248,(11, 72),27	35281,(11, 82),9	35389,(11, 92),3	35491,(11, 102),42	35575,(11, 112),27	35608,(11, 117),528	36139,(6, 14),78	36271,(6, 27),57	36331,(6, 32),3	36394,(6, 37),3	36649,(6, 57),3	36802,(6, 67),21	36925,(6, 72),54	37021,(6, 77),3	37027,(6, 82),60	37177,(6, 92),3	37249,(6, 112),6	37255,(6, 117),9	
1,(0, 2),60	199,(3, 31),6	238,(3, 101),3	241,(0, 7),60	301,(4, 16),3	304,(4, 21),6	310,(4, 31),3	313,(3, 71),6	319,(4, 36),6	325,(3, 86),6	331,(3, 91),12	343,(3, 106),6	349,(4, 41),87	436,(4, 51),24	460,(4, 61),3	463,(4, 96),9	472,(4, 101),3	475,(4, 106),3	478,(9, 96),3	481,(0, 12),60	541,(9, 36),12	553,(9, 101),3	556,(9, 116),3	568,(1, 16),444	1012,(3, 36),276	1288,(3, 56),252	1540,(4, 56),99	1639,(9, 21),39	1678,(9, 26),45	1723,(9, 56),99	1822,(9, 61),21	1843,(9, 71),45	1900,(3, 76),306	2281,(3, 111),51	2332,(5, 16),276	2608,(8, 16),87	2695,(8, 21),105	2800,(8, 26),12	2812,(8, 36),30	2842,(8, 51),42	2884,(8, 61),12	2896,(8, 76),18	2914,(8, 86),45	2959,(8, 91),3	2962,(8, 111),6	2968,(9, 76),15	2983,(9, 86),21	3004,(9, 111),21	3103,(5, 36),21	3148,(5, 41),3	3166,(8, 116),9	3214,(5, 46),6	3238,(5, 51),30	3268,(8, 66),108	3376,(8, 71),234	3721,(5, 66),12	3745,(5, 71),12	3778,(5, 76),93	3871,(9, 81),447	4633,(5, 86),3	4636,(5, 91),36	4762,(5, 106),84	4909,(5, 111),30	4939,(8, 31),1188	6127,(10, 16),6	6133,(10, 26),9	6142,(10, 31),96	6238,(10, 46),3	6241,(10, 71),15	6256,(10, 76),18	6274,(10, 86),9	6283,(10, 91),12	6295,(10, 96),15	6601,(10, 101),6	6607,(10, 106),156	6763,(10, 111),21	32464,(1, 31),27	32524,(1, 36),3	32539,(1, 41),12	33007,(1, 46),21	33055,(1, 51),15	33178,(1, 56),21	33292,(1, 71),15	33322,(1, 76),3	33325,(1, 81),36	33601,(1, 101),6	33655,(1, 106),60	33772,(1, 111),9	34681,(11, 16),12	34705,(11, 21),3	34717,(11, 31),3	34891,(11, 41),6	34915,(11, 46),3	35062,(11, 61),30	35275,(11, 76),3	35413,(11, 96),57	35536,(11, 106),3	35557,(11, 111),18	35605,(11, 116),3	36217,(6, 16),39	36364,(6, 36),30	36490,(6, 41),9	36544,(6, 46),33	36637,(6, 51),3	36667,(6, 61),90	36790,(6, 66),12	37099,(6, 91),78	37195,(6, 96),9	37243,(6, 106),3	37246,(6, 111),3	
124,(2, 20),6	136,(2, 25),42	178,(2, 35),3	181,(3, 13),12	193,(3, 20),3	196,(3, 25),3	208,(3, 30),15	223,(3, 35),3	226,(3, 85),3	229,(2, 40),3	232,(3, 45),6	238,(4, 13),12	250,(4, 20),3	271,(4, 25),3	277,(4, 30),9	301,(2, 45),6	307,(3, 65),6	313,(4, 50),3	316,(4, 95),3	325,(4, 100),3	328,(4, 105),9	337,(4, 110),3	340,(4, 115),3	352,(2, 95),3	355,(2, 105),3	358,(7, 30),3	415,(2, 75),24	442,(3, 100),9	478,(8, 13),3	481,(9, 35),12	493,(9, 80),3	496,(9, 85),3	499,(9, 100),3	535,(8, 60),3	562,(2, 85),126	709,(2, 100),27	736,(3, 50),63	799,(3, 110),27	826,(9, 110),9	868,(3, 105),96	976,(3, 115),15	991,(3, 120),15	1006,(4, 55),141	1147,(4, 90),99	1246,(7, 20),15	1261,(7, 25),12	1273,(7, 40),6	1279,(7, 45),27	1306,(9, 40),39	1369,(7, 55),3	1372,(9, 50),105	1477,(7, 85),9	1486,(9, 60),36	1588,(7, 105),6	1630,(12, 13),3	1684,(12, 40),3	1711,(12, 65),3	1717,(12, 70),3	1723,(3, 75),177	1900,(4, 80),402	2302,(7, 70),396	2698,(7, 110),114	2812,(7, 120),162	2974,(8, 20),96	3070,(8, 25),12	3082,(8, 30),6	3088,(8, 35),6	3094,(8, 40),24	3118,(8, 75),6	3124,(12, 85),9	3133,(12, 95),3	3145,(5, 40),3	3157,(8, 105),3	3160,(8, 115),6	3175,(8, 120),3	3178,(12, 50),33	3229,(5, 50),9	3238,(12, 75),33	3307,(5, 55),9	3328,(5, 60),51	3379,(9, 30),294	3673,(12, 80),48	3742,(5, 70),3	3745,(9, 95),90	3880,(5, 80),30	3910,(8, 65),396	4318,(9, 105),81	4399,(12, 90),66	4465,(12, 120),63	4750,(5, 95),3	4858,(5, 110),51	4939,(5, 115),18	4969,(10, 13),3	4999,(10, 20),3	5050,(10, 35),57	5107,(10, 40),6	5137,(10, 55),9	5149,(10, 60),15	5206,(10, 65),72	5278,(15, 121),270	5707,(10, 75),3	5719,(10, 80),6	5779,(10, 90),3	6079,(10, 110),36	6310,(10, 100),291	6784,(10, 115),84	6868,(42, 121),270	7138,(87, 121),270	7408,(97, 121),270	7678,(26, 121),270	7948,(86, 121),270	32692,(22, 121),270	33142,(23, 121),270	33412,(28, 121),270	33682,(56, 121),270	33952,(71, 121),270	34222,(69, 121),270	34492,(81, 121),270	34762,(93, 121),270	35032,(101, 121),270	35302,(79, 121),270	35572,(108, 121),270	35908,(107, 121),270	36178,(114, 121),270	36448,(119, 121),270	36718,(17, 121),270	36988,(18, 121),270	37258,(19, 121),270	37528,(21, 121),270	37798,(31, 121),270	38068,(43, 121),270	38338,(48, 121),270	38608,(54, 121),270	39145,(47, 121),270	39415,(52, 121),270	39685,(62, 121),270	39955,(76, 121),270	40225,(83, 121),270	40495,(89, 121),270	40765,(102, 121),270	41035,(104, 121),270	41305,(113, 121),270	41575,(116, 121),270	41845,(118, 121),270	42115,(14, 121),270	42385,(109, 121),270	42655,(16, 121),270	42925,(24, 121),270	43195,(27, 121),270	43465,(29, 121),270	43735,(32, 121),270	44005,(33, 121),270	44275,(34, 121),270	44545,(36, 121),270	44815,(37, 121),270	45085,(38, 121),270	45355,(39, 121),270	45625,(41, 121),270	45895,(44, 121),270	46165,(46, 121),270	46435,(49, 121),270	46705,(51, 121),270	46975,(53, 121),270	47245,(57, 121),270	47515,(58, 121),270	47785,(59, 121),270	48055,(61, 121),270	48325,(63, 121),270	48595,(64, 121),270	48865,(66, 121),270	49135,(67, 121),270	49405,(68, 121),270	49675,(72, 121),270	49945,(73, 121),270	50215,(74, 121),270	50485,(77, 121),270	50755,(78, 121),270	51025,(82, 121),270	51295,(84, 121),270	51565,(88, 121),270	51835,(91, 121),270	52105,(92, 121),270	52375,(94, 121),270	52645,(96, 121),270	52915,(98, 121),270	53185,(103, 121),270	53455,(106, 121),270	53725,(111, 121),270	53995,(112, 121),270	54265,(117, 121),270	54535,(99, 121),270	
# Outgoing
2332,(5, 16),276	2608,(5, 17),3	2611,(5, 22),60	2671,(5, 27),162	2833,(5, 32),198	3031,(5, 33),72	3103,(5, 36),21	3124,(5, 37),21	3145,(5, 40),3	3148,(5, 41),3	3151,(5, 42),63	3214,(5, 46),6	3220,(5, 47),9	3229,(5, 50),9	3238,(5, 51),30	3268,(5, 52),15	3283,(5, 53),24	3307,(5, 55),9	3316,(5, 58),12	3328,(5, 60),51	3379,(5, 62),18	3397,(5, 63),324	3721,(5, 66),12	3733,(5, 67),9	3742,(5, 70),3	3745,(5, 71),12	3757,(5, 72),21	3778,(5, 76),93	3871,(5, 77),9	3880,(5, 80),30	3910,(5, 82),699	4609,(5, 83),24	4633,(5, 86),3	4636,(5, 91),36	4672,(5, 92),57	4729,(5, 93),21	4750,(5, 95),3	4753,(5, 98),6	4759,(5, 103),3	4762,(5, 106),84	4846,(5, 107),12	4858,(5, 110),51	4909,(5, 111),30	4939,(5, 115),18	4957,(5, 118),12	4969,(10, 13),3	4972,(10, 14),6	4978,(10, 15),3	4981,(10, 17),3	4984,(10, 18),15	4999,(10, 20),3	5002,(10, 23),18	5020,(10, 27),27	5047,(10, 33),3	5050,(10, 35),57	5107,(10, 40),6	5113,(10, 43),6	5119,(10, 52),18	5137,(10, 55),9	5146,(10, 57),3	5149,(10, 60),15	5164,(10, 62),3	5167,(10, 63),39	5206,(10, 65),72	5278,(10, 67),393	5671,(10, 68),36	5707,(10, 75),3	5710,(10, 78),9	5719,(10, 80),6	5725,(10, 87),24	5749,(10, 88),30	5779,(10, 90),3	5782,(10, 93),60	5842,(10, 97),156	5998,(10, 102),78	6076,(10, 107),3	6079,(10, 110),36	6115,(10, 118),3	6127,(10, 16),6	6133,(10, 26),9	6142,(10, 31),96	6238,(10, 46),3	6241,(10, 71),15	6256,(10, 76),18	6274,(10, 86),9	6283,(10, 91),12	6295,(10, 96),15	6310,(10, 100),291	6601,(10, 101),6	6607,(10, 106),156	6763,(10, 111),21	6784,(10, 115),84	34222,(69, 121),270	35302,(79, 121),270	36178,(114, 121),270	36448,(119, 121),270	37258,(19, 121),270	38608,(54, 121),270	40495,(89, 121),270	41035,(104, 121),270	42385,(109, 121),270	42925,(24, 121),270	43465,(29, 121),270	44275,(34, 121),270	45355,(39, 121),270	45895,(44, 121),270	46435,(49, 121),270	47785,(59, 121),270	48595,(64, 121),270	50215,(74, 121),270	51295,(84, 121),270	52375,(94, 121),270	54535,(99, 121),270	
238,(4, 13),12	250,(4, 20),3	253,(4, 22),18	271,(4, 25),3	274,(4, 27),3	277,(4, 30),9	286,(4, 37),3	289,(4, 42),12	301,(4, 16),3	304,(4, 21),6	310,(4, 31),3	313,(4, 50),3	316,(4, 95),3	319,(4, 36),6	325,(4, 100),3	328,(4, 105),9	337,(4, 110),3	340,(4, 115),3	349,(4, 41),87	436,(4, 51),24	460,(4, 61),3	463,(4, 96),9	472,(4, 101),3	475,(4, 106),3	478,(9, 96),3	481,(9, 35),12	493,(9, 80),3	496,(9, 85),3	499,(9, 100),3	508,(4, 47),9	517,(4, 82),15	532,(4, 112),3	535,(4, 19),3	538,(9, 14),3	541,(9, 36),12	553,(9, 101),3	556,(9, 116),3	562,(4, 29),9	571,(4, 34),3	574,(4, 54),21	595,(4, 64),9	604,(4, 67),57	661,(4, 77),36	697,(4, 87),6	703,(4, 97),6	709,(4, 74),54	763,(4, 84),3	766,(4, 99),9	775,(4, 104),12	787,(4, 114),6	793,(4, 119),3	796,(9, 17),6	802,(9, 37),12	814,(9, 42),3	817,(9, 47),3	820,(9, 72),3	823,(9, 102),3	826,(9, 110),9	835,(9, 27),69	904,(9, 57),15	949,(9, 19),12	961,(9, 44),18	979,(9, 54),6	985,(9, 84),12	997,(9, 89),6	1003,(9, 94),3	1006,(4, 55),141	1147,(4, 90),99	1246,(9, 32),60	1306,(9, 40),39	1372,(9, 50),105	1486,(9, 60),36	1540,(4, 56),99	1639,(9, 21),39	1678,(9, 26),45	1723,(9, 56),99	1822,(9, 61),21	1843,(9, 71),45	1900,(4, 80),402	2302,(9, 62),153	2968,(9, 76),15	2983,(9, 86),21	3004,(9, 111),21	3379,(9, 30),294	3745,(9, 95),90	3871,(9, 81),447	4318,(9, 105),81	5278,(15, 121),270	32692,(9, 119),3	33070,(9, 34),63	33133,(9, 104),9	33142,(23, 121),270	33412,(28, 121),270	34762,(93, 121),270	35572,(108, 121),270	36988,(18, 121),270	38068,(43, 121),270	38338,(48, 121),270	40225,(83, 121),270	41305,(113, 121),270	41845,(118, 121),270	44005,(33, 121),270	45085,(38, 121),270	46975,(53, 121),270	47515,(58, 121),270	48325,(63, 121),270	49405,(68, 121),270	49945,(73, 121),270	50755,(78, 121),270	51565,(88, 121),270	52915,(98, 121),270	53185,(103, 121),270	
181,(3, 13),12	193,(3, 20),3	196,(3, 25),3	199,(3, 31),6	205,(3, 28),3	208,(3, 30),15	223,(3, 35),3	226,(3, 85),3	229,(3, 53),3	232,(3, 45),6	238,(3, 101),3	241,(3, 15),27	268,(3, 33),30	298,(3, 73),3	301,(3, 64),3	304,(3, 94),3	307,(3, 65),6	313,(3, 71),6	319,(3, 83),6	325,(3, 86),6	331,(3, 91),12	343,(3, 106),6	349,(3, 24),42	391,(3, 39),9	400,(3, 49),12	412,(3, 89),6	418,(3, 109),3	421,(3, 88),21	442,(3, 100),9	451,(3, 103),27	478,(8, 13),3	481,(3, 29),54	535,(8, 60),3	538,(3, 38),78	616,(3, 44),57	673,(3, 79),12	685,(3, 98),48	733,(8, 53),3	736,(3, 50),63	799,(3, 110),27	826,(8, 68),3	829,(3, 69),39	868,(3, 105),96	964,(3, 113),12	976,(3, 115),15	991,(3, 120),15	1006,(8, 54),3	1012,(3, 36),276	1288,(3, 56),252	1540,(3, 68),183	1723,(3, 75),177	1900,(3, 76),306	2206,(3, 108),75	2281,(3, 111),51	2332,(3, 118),54	2386,(8, 15),93	2479,(8, 43),15	2494,(8, 48),57	2551,(8, 98),30	2581,(8, 113),18	2608,(8, 16),87	2695,(8, 21),105	2800,(8, 26),12	2812,(8, 36),30	2842,(8, 51),42	2884,(8, 61),12	2896,(8, 76),18	2914,(8, 86),45	2959,(8, 91),3	2962,(8, 111),6	2974,(8, 20),96	3070,(8, 25),12	3082,(8, 30),6	3088,(8, 35),6	3094,(8, 40),24	3118,(8, 75),6	3124,(8, 103),33	3157,(8, 105),3	3160,(8, 115),6	3166,(8, 116),9	3175,(8, 120),3	3268,(8, 66),108	3376,(8, 71),234	3910,(8, 65),396	4939,(8, 31),1188	6868,(42, 121),270	7138,(87, 121),270	7408,(97, 121),270	32443,(3, 104),66	32509,(8, 64),3	32512,(8, 69),3	32515,(8, 74),3	32653,(8, 19),36	32689,(8, 109),3	32692,(22, 121),270	33007,(8, 59),39	33046,(8, 89),24	35557,(3, 84),351	35908,(107, 121),270	36718,(17, 121),270	37195,(8, 99),1950	39145,(47, 121),270	39415,(52, 121),270	39685,(62, 121),270	40765,(102, 121),270	42115,(14, 121),270	43195,(27, 121),270	43735,(32, 121),270	44815,(37, 121),270	47245,(57, 121),270	49135,(67, 121),270	49675,(72, 121),270	50485,(77, 121),270	51025,(82, 121),270	52105,(92, 121),270	53995,(112, 121),270	54265,(117, 121),270	
121,(2, 14),3	124,(2, 20),6	130,(2, 22),6	136,(2, 25),42	178,(2, 35),3	181,(2, 18),3	184,(2, 23),6	190,(2, 33),15	205,(2, 37),18	223,(2, 38),6	229,(2, 40),3	232,(2, 43),6	238,(2, 78),3	241,(2, 19),6	247,(2, 29),24	271,(2, 34),12	283,(2, 39),15	298,(2, 44),3	301,(2, 45),6	307,(2, 54),9	316,(2, 59),24	340,(2, 69),9	349,(2, 88),3	352,(2, 95),3	355,(2, 105),3	358,(7, 30),3	361,(2, 47),27	388,(2, 67),27	415,(2, 75),24	439,(2, 77),27	466,(2, 82),42	508,(2, 83),30	538,(2, 84),24	562,(2, 85),126	688,(2, 89),12	700,(2, 99),9	709,(2, 100),27	736,(2, 103),12	748,(2, 107),33	781,(2, 108),30	811,(2, 109),18	829,(2, 112),6	835,(2, 113),6	841,(2, 118),33	874,(2, 119),75	949,(7, 14),27	976,(7, 15),9	985,(7, 17),3	988,(7, 22),9	997,(7, 23),9	1006,(7, 32),3	1009,(7, 34),6	1015,(7, 37),3	1018,(7, 28),51	1069,(7, 33),60	1129,(7, 38),99	1228,(7, 47),3	1231,(7, 57),9	1240,(7, 58),3	1243,(7, 98),3	1246,(7, 20),15	1261,(7, 25),12	1273,(7, 40),6	1279,(7, 45),27	1306,(7, 48),21	1327,(7, 53),42	1369,(7, 55),3	1372,(7, 62),9	1381,(7, 63),21	1402,(7, 67),6	1408,(7, 72),9	1417,(7, 77),51	1468,(7, 82),9	1477,(7, 85),9	1486,(7, 87),21	1507,(7, 92),81	1588,(7, 105),6	1594,(7, 107),30	1624,(7, 112),3	1627,(7, 117),3	1630,(12, 13),3	1633,(12, 17),6	1639,(12, 22),3	1642,(12, 27),42	1684,(12, 40),3	1687,(12, 42),6	1693,(12, 52),12	1705,(12, 62),6	1711,(12, 65),3	1714,(12, 67),3	1717,(12, 70),3	1720,(12, 82),3	1723,(7, 103),18	1741,(7, 113),6	1747,(12, 18),48	1795,(12, 23),48	1843,(12, 28),72	1915,(12, 43),6	1921,(12, 48),12	1933,(12, 57),21	1954,(12, 77),15	1969,(12, 78),3	1972,(12, 83),30	2002,(12, 87),39	2041,(12, 102),15	2056,(12, 103),9	2065,(12, 107),33	2098,(12, 113),48	2146,(12, 117),3	2302,(7, 70),396	2698,(7, 110),114	2812,(7, 120),162	3124,(12, 85),9	3133,(12, 95),3	3178,(12, 50),33	3238,(12, 75),33	3673,(12, 80),48	3721,(12, 98),387	4399,(12, 90),66	4465,(12, 120),63	7678,(26, 121),270	7948,(86, 121),270	32410,(7, 44),12	32422,(7, 99),9	32431,(7, 104),3	32524,(7, 69),81	32605,(7, 74),15	32620,(7, 79),15	32635,(7, 114),18	33142,(12, 19),27	33169,(12, 29),3	33172,(12, 94),3	33178,(12, 34),21	33262,(12, 49),18	33280,(12, 54),9	33292,(12, 69),18	33322,(7, 19),180	33502,(12, 44),75	33577,(12, 99),12	33601,(12, 59),39	33640,(12, 79),15	33655,(12, 109),12	33682,(56, 121),270	33952,(71, 121),270	34492,(81, 121),270	35032,(101, 121),270	35908,(7, 109),327	37528,(21, 121),270	37798,(31, 121),270	39955,(76, 121),270	41575,(116, 121),270	42655,(16, 121),270	44545,(36, 121),270	45625,(41, 121),270	46165,(46, 121),270	46705,(51, 121),270	48055,(61, 121),270	48865,(66, 121),270	51835,(91, 121),270	52645,(96, 121),270	53455,(106, 121),270	53725,(111, 121),270	
1,(0, 2),60	61,(0, 3),60	121,(0, 4),60	181,(0, 5),60	241,(0, 7),60	301,(0, 8),60	361,(0, 9),60	421,(0, 10),60	481,(0, 12),60	541,(1, 14),27	568,(1, 16),444	1012,(1, 18),6	1018,(1, 19),31392	32410,(1, 22),6	32416,(1, 23),18	32434,(1, 24),9	32443,(1, 28),21	32464,(1, 31),27	32491,(1, 32),27	32518,(1, 34),6	32524,(1, 36),3	32527,(1, 37),12	32539,(1, 41),12	32551,(1, 43),144	32695,(1, 44),312	33007,(1, 46),21	33028,(1, 47),27	33055,(1, 51),15	33070,(1, 52),48	33118,(1, 53),57	33175,(1, 54),3	33178,(1, 56),21	33199,(1, 59),63	33262,(1, 62),3	33265,(1, 63),12	33277,(1, 68),12	33289,(1, 69),3	33292,(1, 71),15	33307,(1, 72),3	33310,(1, 73),9	33319,(1, 74),3	33322,(1, 76),3	33325,(1, 81),36	33361,(1, 83),57	33418,(1, 88),90	33508,(1, 93),54	33562,(1, 98),27	33589,(1, 99),12	33601,(1, 101),6	33607,(1, 102),45	33652,(1, 103),3	33655,(1, 106),60	33715,(1, 107),51	33766,(1, 108),3	33769,(1, 109),3	33772,(1, 111),9	33781,(1, 112),3	33784,(1, 113),162	33946,(1, 114),6	33952,(1, 117),3	33955,(1, 118),9	33964,(1, 119),717	34681,(11, 16),12	34693,(11, 17),3	34696,(11, 18),6	34702,(11, 19),3	34705,(11, 21),3	34708,(11, 24),6	34714,(11, 29),3	34717,(11, 31),3	34720,(11, 34),84	34804,(11, 37),12	34816,(11, 39),75	34891,(11, 41),6	34897,(11, 43),15	34912,(11, 44),3	34915,(11, 46),3	34918,(11, 47),3	34921,(11, 48),6	34927,(11, 49),6	34933,(11, 52),12	34945,(11, 53),21	34966,(11, 54),42	35008,(11, 57),3	35011,(11, 58),48	35059,(11, 59),3	35062,(11, 61),30	35092,(11, 62),24	35116,(11, 63),39	35155,(11, 64),93	35248,(11, 72),27	35275,(11, 76),3	35278,(11, 78),3	35281,(11, 82),9	35290,(11, 83),33	35323,(11, 84),60	35383,(11, 88),3	35386,(11, 89),3	35389,(11, 92),3	35392,(11, 94),21	35413,(11, 96),57	35470,(11, 99),21	35491,(11, 102),42	35533,(11, 104),3	35536,(11, 106),3	35539,(11, 109),18	35557,(11, 111),18	35575,(11, 112),27	35602,(11, 113),3	35605,(11, 116),3	35608,(11, 117),528	36136,(11, 118),3	36139,(6, 14),78	36217,(6, 16),39	36256,(6, 24),15	36271,(6, 27),57	36328,(6, 29),3	36331,(6, 32),3	36334,(6, 33),3	36337,(6, 34),27	36364,(6, 36),30	36394,(6, 37),3	36397,(6, 38),84	36481,(6, 39),9	36490,(6, 41),9	36499,(6, 44),45	36544,(6, 46),33	36577,(6, 49),60	36637,(6, 51),3	36640,(6, 53),9	36649,(6, 57),3	36652,(6, 58),3	36655,(6, 59),12	36667,(6, 61),90	36757,(6, 63),30	36787,(6, 64),3	36790,(6, 66),12	36802,(6, 67),21	36823,(6, 68),102	36925,(6, 72),54	36979,(6, 73),6	36985,(6, 74),36	37021,(6, 77),3	37024,(6, 78),3	37027,(6, 82),60	37087,(6, 84),9	37096,(6, 88),3	37099,(6, 91),78	37177,(6, 92),3	37180,(6, 94),15	37195,(6, 96),9	37204,(6, 98),36	37240,(6, 103),3	37243,(6, 106),3	37246,(6, 111),3	37249,(6, 112),6	37255,(6, 117),9	
