62
# CPU
25,11,4	34,8,4	46,18,4	50,14,4	
24,7,4	43,15,4	47,19,4	51,12,4	
22,6,4	33,13,4	37,9,4	45,17,4	
21,2,4	25,4,4	29,5,4	44,16,4	
0,0,1	1,1,4	33,3,4	47,10,4	51,20,4	61,21,1	
# Incoming
24,(1, 11),1	33,(2, 8),1	45,(1, 18),1	48,(2, 14),1	
22,(1, 7),2	25,(1, 12),7	33,(1, 15),10	46,(1, 19),1	47,(2, 12),1	
21,(1, 6),1	32,(1, 13),1	34,(2, 9),1	44,(1, 17),1	
1,(0, 2),20	43,(1, 16),1	
25,(2, 3),8	33,(6, 21),1	34,(7, 21),1	35,(2, 10),12	47,(11, 21),1	48,(13, 21),1	49,(2, 20),1	50,(4, 21),1	51,(5, 21),1	52,(8, 21),1	53,(9, 21),1	54,(15, 21),1	55,(16, 21),1	56,(17, 21),1	57,(18, 21),1	58,(19, 21),1	59,(14, 21),1	60,(12, 21),1	
# Outgoing
47,(11, 21),1	52,(8, 21),1	57,(18, 21),1	59,(14, 21),1	
34,(7, 21),1	54,(15, 21),1	58,(19, 21),1	60,(12, 21),1	
33,(6, 21),1	48,(13, 21),1	53,(9, 21),1	56,(17, 21),1	
25,(2, 3),8	33,(2, 8),1	34,(2, 9),1	35,(2, 10),12	47,(2, 12),1	48,(2, 14),1	49,(2, 20),1	50,(4, 21),1	51,(5, 21),1	55,(16, 21),1	
1,(0, 2),20	21,(1, 6),1	22,(1, 7),2	24,(1, 11),1	25,(1, 12),7	32,(1, 13),1	33,(1, 15),10	43,(1, 16),1	44,(1, 17),1	45,(1, 18),1	46,(1, 19),1	
