2730
# CPU
0,201,1	1,71,1	2,142,1	3,103,1	4,53,1	5,56,1	6,153,1	7,85,1	8,46,1	9,63,1	10,140,1	11,47,1	12,186,1	13,40,1	14,165,1	15,73,1	16,189,1	17,161,1	18,199,1	19,22,1	20,197,1	21,173,1	22,190,1	23,183,1	24,54,1	25,101,1	26,70,1	27,65,1	28,44,1	29,130,1	30,198,1	31,193,1	32,119,1	33,114,1	34,27,1	35,38,1	36,169,1	37,184,1	38,132,1	39,141,1	40,82,1	41,176,1	42,166,1	43,79,1	44,150,1	45,137,1	46,151,1	47,67,1	48,104,1	49,89,1	50,66,1	51,122,1	52,117,1	53,50,1	54,128,1	55,134,1	56,83,1	57,75,1	58,91,1	59,194,1	60,111,1	61,29,1	62,35,1	63,86,1	64,62,1	65,100,1	66,182,1	67,55,1	68,45,1	69,109,1	70,126,1	71,61,1	72,59,1	73,195,1	74,135,1	75,156,1	76,58,1	77,97,1	78,177,1	79,60,1	80,116,1	81,172,1	82,121,1	83,37,1	84,93,1	85,168,1	86,191,1	87,68,1	88,131,1	89,174,1	90,94,1	91,48,1	92,129,1	93,43,1	94,105,1	95,162,1	96,51,1	97,180,1	98,145,1	99,178,1	100,113,1	101,74,1	102,155,1	103,124,1	104,175,1	105,181,1	106,88,1	107,158,1	108,118,1	109,106,1	110,95,1	111,136,1	112,41,1	113,127,1	114,98,1	115,49,1	116,17,1	117,188,1	118,39,1	119,81,1	120,102,1	121,76,1	122,160,1	123,7,1	124,16,1	125,20,1	126,6,1	127,3,1	140,13,1	170,12,1	204,1,1	244,9,1	316,2,1	390,8,1	470,5,1	554,19,1	680,15,1	880,10,1	1096,14,1	1352,18,1	1670,4,1	2728,11,1	2729,0,1	
3,72,1	5,84,1	7,147,1	9,148,1	11,157,1	13,21,1	15,64,1	17,110,1	19,133,1	21,107,1	23,36,1	25,24,1	27,78,1	29,33,1	31,170,1	33,139,1	35,42,1	37,146,1	39,87,1	41,92,1	43,80,1	45,123,1	47,196,1	49,90,1	51,30,1	53,96,1	55,138,1	57,163,1	59,164,1	61,32,1	63,25,1	65,77,1	67,179,1	69,120,1	71,28,1	73,171,1	75,108,1	77,144,1	79,152,1	81,34,1	83,99,1	85,192,1	87,26,1	89,115,1	91,31,1	93,159,1	95,187,1	97,52,1	99,23,1	101,112,1	103,200,1	105,69,1	107,125,1	109,167,1	111,154,1	113,185,1	115,149,1	117,143,1	119,57,1	
# Incoming
14,(21, 7),2	16,(157, 6),2	18,(147, 13),2	20,(133, 12),2	22,(107, 2),2	24,(110, 15),2	26,(24, 19),2	28,(78, 19),2	30,(33, 20),2	32,(72, 10),2	34,(139, 7),2	36,(42, 9),2	38,(146, 20),4	42,(87, 6),4	46,(64, 10),2	48,(196, 20),6	54,(123, 6),4	58,(87, 1),4	62,(32, 16),10	72,(138, 6),8	80,(164, 3),10	90,(96, 13),8	98,(96, 8),2	100,(23, 3),12	112,(115, 8),2	114,(108, 5),2	116,(149, 3),2	118,(143, 20),2	120,(144, 13),20	140,(120, 12),14	154,(171, 12),16	170,(77, 1),12	182,(34, 1),22	204,(108, 9),18	222,(115, 9),22	244,(90, 2),6	250,(30, 2),6	256,(192, 2),28	284,(26, 2),32	316,(52, 8),42	358,(125, 8),32	390,(152, 5),20	410,(69, 5),60	470,(30, 19),2	472,(192, 19),2	474,(154, 19),80	554,(92, 15),4	558,(179, 15),12	570,(115, 15),34	604,(200, 15),8	612,(125, 15),68	680,(25, 10),12	692,(187, 10),42	734,(149, 10),146	880,(25, 14),2	882,(31, 14),38	920,(159, 14),38	958,(200, 14),56	1014,(167, 14),82	1096,(148, 18),2	1098,(170, 18),2	1100,(80, 18),4	1104,(28, 18),16	1120,(99, 18),26	1146,(143, 18),206	1352,(36, 4),2	1354,(163, 4),10	1364,(23, 4),48	1412,(112, 4),52	1464,(154, 4),98	1562,(185, 4),108	1670,(84, 11),2	1672,(57, 11),1056	
1,(201, 72),2	3,(201, 84),2	5,(201, 147),2	7,(201, 148),2	9,(201, 157),2	11,(201, 21),2	13,(201, 64),2	15,(201, 110),2	17,(201, 133),2	19,(201, 107),2	21,(201, 36),2	23,(201, 24),2	25,(201, 78),2	27,(201, 33),2	29,(201, 170),2	31,(201, 139),2	33,(201, 42),2	35,(201, 146),2	37,(201, 87),2	39,(201, 92),2	41,(201, 80),2	43,(201, 123),2	45,(201, 196),2	47,(201, 90),2	49,(201, 30),2	51,(201, 96),2	53,(201, 138),2	55,(201, 163),2	57,(201, 164),2	59,(201, 32),2	61,(201, 25),2	63,(201, 77),2	65,(201, 179),2	67,(201, 120),2	69,(201, 28),2	71,(201, 171),2	73,(201, 108),2	75,(201, 144),2	77,(201, 152),2	79,(201, 34),2	81,(201, 99),2	83,(201, 192),2	85,(201, 26),2	87,(201, 115),2	89,(201, 31),2	91,(201, 159),2	93,(201, 187),2	95,(201, 52),2	97,(201, 23),2	99,(201, 112),2	101,(201, 200),2	103,(201, 69),2	105,(201, 125),2	107,(201, 167),2	109,(201, 154),2	111,(201, 185),2	113,(201, 149),2	115,(201, 143),2	117,(201, 57),2	
# Outgoing
1,(201, 72),2	3,(201, 84),2	5,(201, 147),2	7,(201, 148),2	9,(201, 157),2	11,(201, 21),2	13,(201, 64),2	15,(201, 110),2	17,(201, 133),2	19,(201, 107),2	21,(201, 36),2	23,(201, 24),2	25,(201, 78),2	27,(201, 33),2	29,(201, 170),2	31,(201, 139),2	33,(201, 42),2	35,(201, 146),2	37,(201, 87),2	39,(201, 92),2	41,(201, 80),2	43,(201, 123),2	45,(201, 196),2	47,(201, 90),2	49,(201, 30),2	51,(201, 96),2	53,(201, 138),2	55,(201, 163),2	57,(201, 164),2	59,(201, 32),2	61,(201, 25),2	63,(201, 77),2	65,(201, 179),2	67,(201, 120),2	69,(201, 28),2	71,(201, 171),2	73,(201, 108),2	75,(201, 144),2	77,(201, 152),2	79,(201, 34),2	81,(201, 99),2	83,(201, 192),2	85,(201, 26),2	87,(201, 115),2	89,(201, 31),2	91,(201, 159),2	93,(201, 187),2	95,(201, 52),2	97,(201, 23),2	99,(201, 112),2	101,(201, 200),2	103,(201, 69),2	105,(201, 125),2	107,(201, 167),2	109,(201, 154),2	111,(201, 185),2	113,(201, 149),2	115,(201, 143),2	117,(201, 57),2	
14,(21, 7),2	16,(157, 6),2	18,(147, 13),2	20,(133, 12),2	22,(107, 2),2	24,(110, 15),2	26,(24, 19),2	28,(78, 19),2	30,(33, 20),2	32,(72, 10),2	34,(139, 7),2	36,(42, 9),2	38,(146, 20),4	42,(87, 6),4	46,(64, 10),2	48,(196, 20),6	54,(123, 6),4	58,(87, 1),4	62,(32, 16),10	72,(138, 6),8	80,(164, 3),10	90,(96, 13),8	98,(96, 8),2	100,(23, 3),12	112,(115, 8),2	114,(108, 5),2	116,(149, 3),2	118,(143, 20),2	120,(144, 13),20	140,(120, 12),14	154,(171, 12),16	170,(77, 1),12	182,(34, 1),22	204,(108, 9),18	222,(115, 9),22	244,(90, 2),6	250,(30, 2),6	256,(192, 2),28	284,(26, 2),32	316,(52, 8),42	358,(125, 8),32	390,(152, 5),20	410,(69, 5),60	470,(30, 19),2	472,(192, 19),2	474,(154, 19),80	554,(92, 15),4	558,(179, 15),12	570,(115, 15),34	604,(200, 15),8	612,(125, 15),68	680,(25, 10),12	692,(187, 10),42	734,(149, 10),146	880,(25, 14),2	882,(31, 14),38	920,(159, 14),38	958,(200, 14),56	1014,(167, 14),82	1096,(148, 18),2	1098,(170, 18),2	1100,(80, 18),4	1104,(28, 18),16	1120,(99, 18),26	1146,(143, 18),206	1352,(36, 4),2	1354,(163, 4),10	1364,(23, 4),48	1412,(112, 4),52	1464,(154, 4),98	1562,(185, 4),108	1670,(84, 11),2	1672,(57, 11),1056	
