17221
# CPU
10,4,7	17,26,7	24,30,7	31,35,7	38,10,7	67,20,7	127,25,7	134,22,7	166,40,7	262,28,7	352,29,7	359,31,7	16214,12,7	16221,16,7	16238,18,7	16256,27,7	16277,32,7	16349,33,7	16356,38,7	
7,3,7	23,8,7	30,11,7	37,14,7	44,21,7	51,23,7	133,34,7	250,24,7	314,17,7	321,19,7	409,36,7	1106,39,7	17220,41,1	
4,2,7	11,15,7	23,7,7	122,9,7	311,13,7	1055,37,7	
0,0,1	1,1,7	47,5,7	16205,6,7	
# Incoming
7,(0, 4),3	13,(1, 10),18	31,(1, 20),36	67,(2, 12),33	100,(2, 18),3	103,(1, 25),24	127,(1, 33),3	130,(2, 22),3	133,(1, 40),33	250,(2, 28),12	262,(2, 29),90	352,(2, 31),3	355,(2, 32),3	16205,(3, 12),9	16214,(3, 16),6	16220,(3, 18),18	16238,(3, 27),18	16256,(3, 32),21	16277,(3, 33),72	16349,(3, 38),3	
4,(0, 3),3	11,(2, 8),12	23,(2, 11),3	26,(2, 14),3	29,(2, 21),3	32,(2, 23),18	67,(1, 24),36	130,(1, 34),3	133,(2, 24),117	311,(4, 17),3	314,(4, 19),6	358,(2, 36),51	409,(15, 41),126	535,(7, 41),126	661,(5, 41),126	787,(9, 41),126	913,(13, 41),126	1055,(4, 39),51	1106,(26, 41),126	1232,(30, 41),126	1358,(35, 41),126	1484,(10, 41),126	1610,(20, 41),126	1736,(25, 41),126	1862,(22, 41),126	1988,(40, 41),126	2114,(28, 41),126	2240,(29, 41),126	2366,(31, 41),126	2492,(37, 41),126	16212,(6, 41),126	16338,(12, 41),126	16464,(16, 41),126	16590,(18, 41),126	16716,(27, 41),126	16842,(32, 41),126	16968,(33, 41),126	17094,(38, 41),126	
1,(0, 2),3	10,(1, 9),3	17,(4, 7),6	23,(4, 9),99	122,(4, 13),189	320,(4, 37),735	
14,(3, 5),33	47,(3, 6),16158	
# Outgoing
17,(4, 7),6	23,(4, 9),99	122,(4, 13),189	311,(4, 17),3	314,(4, 19),6	320,(4, 37),735	1055,(4, 39),51	1106,(26, 41),126	1232,(30, 41),126	1358,(35, 41),126	1484,(10, 41),126	1610,(20, 41),126	1736,(25, 41),126	1862,(22, 41),126	1988,(40, 41),126	2114,(28, 41),126	2240,(29, 41),126	2366,(31, 41),126	16338,(12, 41),126	16464,(16, 41),126	16590,(18, 41),126	16716,(27, 41),126	16842,(32, 41),126	16968,(33, 41),126	17094,(38, 41),126	
14,(3, 5),33	47,(3, 6),16158	16205,(3, 12),9	16214,(3, 16),6	16220,(3, 18),18	16238,(3, 27),18	16256,(3, 32),21	16277,(3, 33),72	16349,(3, 38),3	
11,(2, 8),12	23,(2, 11),3	26,(2, 14),3	29,(2, 21),3	32,(2, 23),18	67,(2, 12),33	100,(2, 18),3	130,(2, 22),3	133,(2, 24),117	250,(2, 28),12	262,(2, 29),90	352,(2, 31),3	355,(2, 32),3	358,(2, 36),51	409,(15, 41),126	535,(7, 41),126	787,(9, 41),126	913,(13, 41),126	2492,(37, 41),126	
1,(0, 2),3	4,(0, 3),3	7,(0, 4),3	10,(1, 9),3	13,(1, 10),18	31,(1, 20),36	67,(1, 24),36	103,(1, 25),24	127,(1, 33),3	130,(1, 34),3	133,(1, 40),33	661,(5, 41),126	16212,(6, 41),126	
