461
# CPU
130,5,18	148,8,18	166,11,18	340,14,18	370,17,18	418,20,18	
73,2,18	91,4,18	109,19,18	127,7,18	145,10,18	163,13,18	259,16,18	
0,0,1	1,1,18	19,6,18	37,18,18	94,3,18	130,9,18	307,12,18	358,15,18	460,21,1	
# Incoming
73,(1, 5),57	130,(1, 8),3	133,(1, 11),3	307,(2, 14),33	358,(2, 17),12	370,(2, 20),48	
1,(0, 2),72	136,(1, 13),6	142,(1, 16),117	
91,(2, 3),3	94,(2, 9),36	130,(2, 12),177	307,(5, 21),6	313,(8, 21),6	319,(11, 21),6	340,(2, 15),18	358,(14, 21),6	388,(17, 21),6	418,(4, 21),6	424,(19, 21),6	430,(7, 21),6	436,(10, 21),6	442,(13, 21),6	448,(16, 21),6	454,(20, 21),6	
# Outgoing
307,(5, 21),6	313,(8, 21),6	319,(11, 21),6	358,(14, 21),6	388,(17, 21),6	454,(20, 21),6	
91,(2, 3),3	94,(2, 9),36	130,(2, 12),177	307,(2, 14),33	340,(2, 15),18	358,(2, 17),12	370,(2, 20),48	418,(4, 21),6	424,(19, 21),6	430,(7, 21),6	436,(10, 21),6	442,(13, 21),6	448,(16, 21),6	
1,(0, 2),72	73,(1, 5),57	130,(1, 8),3	133,(1, 11),3	136,(1, 13),6	142,(1, 16),117	
