819
# CPU
10,3,10	20,4,10	30,14,10	40,20,10	50,22,10	60,21,10	70,16,10	80,17,10	90,15,10	100,19,10	110,26,10	120,29,10	130,33,10	140,36,10	150,40,10	160,6,10	170,23,10	180,30,10	190,32,10	200,39,10	
0,0,1	1,2,10	11,1,10	21,10,10	31,38,10	41,7,10	51,28,10	61,13,10	71,9,10	81,8,10	91,35,10	101,18,10	111,12,10	121,24,10	131,25,10	461,5,10	509,11,10	519,27,10	529,31,10	644,34,10	710,37,10	818,41,1	
# Incoming
1,(0, 3),9	10,(0, 4),9	19,(2, 15),30	49,(2, 19),3	52,(2, 26),3	55,(2, 29),24	79,(2, 33),21	100,(2, 36),15	115,(2, 40),3	118,(1, 6),3	121,(1, 23),9	130,(1, 30),3	133,(1, 32),27	160,(1, 39),3	
20,(3, 5),3	23,(3, 12),78	101,(3, 24),3	104,(3, 25),3	107,(3, 27),3	110,(3, 37),348	458,(4, 5),3	461,(4, 11),48	509,(4, 27),3	512,(4, 31),12	524,(4, 34),120	644,(4, 37),66	710,(14, 41),6	716,(20, 41),6	722,(22, 41),6	728,(21, 41),6	734,(16, 41),6	740,(17, 41),6	746,(15, 41),6	752,(19, 41),6	758,(26, 41),6	764,(29, 41),6	770,(33, 41),6	776,(36, 41),6	782,(40, 41),6	788,(6, 41),6	794,(23, 41),6	800,(30, 41),6	806,(32, 41),6	812,(39, 41),6	
# Outgoing
20,(3, 5),3	23,(3, 12),78	101,(3, 24),3	104,(3, 25),3	107,(3, 27),3	110,(3, 37),348	458,(4, 5),3	461,(4, 11),48	509,(4, 27),3	512,(4, 31),12	524,(4, 34),120	644,(4, 37),66	710,(14, 41),6	716,(20, 41),6	722,(22, 41),6	728,(21, 41),6	734,(16, 41),6	740,(17, 41),6	746,(15, 41),6	752,(19, 41),6	758,(26, 41),6	764,(29, 41),6	770,(33, 41),6	776,(36, 41),6	782,(40, 41),6	788,(6, 41),6	794,(23, 41),6	800,(30, 41),6	806,(32, 41),6	812,(39, 41),6	
1,(0, 3),9	10,(0, 4),9	19,(2, 15),30	49,(2, 19),3	52,(2, 26),3	55,(2, 29),24	79,(2, 33),21	100,(2, 36),15	115,(2, 40),3	118,(1, 6),3	121,(1, 23),9	130,(1, 30),3	133,(1, 32),27	160,(1, 39),3	
