559
# CPU
4,4,48	52,8,48	100,20,48	148,28,48	196,32,48	244,12,48	292,16,48	340,36,48	388,40,48	436,24,48	
3,3,48	51,7,48	99,11,48	147,19,48	195,27,48	243,31,48	291,35,48	339,15,48	387,23,48	435,39,48	
2,2,48	100,10,48	148,6,48	196,14,48	244,18,48	292,22,48	340,38,48	388,26,48	436,30,48	484,34,48	
0,0,1	1,1,48	49,37,48	97,5,48	145,13,48	193,21,48	318,9,48	366,33,48	414,17,48	462,25,48	510,29,48	558,41,1	
# Incoming
3,(0, 4),1	101,(3, 12),1	104,(3, 16),2	136,(3, 36),1	137,(3, 40),5	191,(2, 24),2	
2,(0, 3),1	52,(4, 11),6	58,(4, 19),3	61,(4, 27),4	65,(4, 31),1	66,(4, 35),1	100,(1, 15),114	214,(1, 23),1	215,(2, 39),2	
1,(0, 2),1	49,(1, 10),51	100,(3, 6),1	102,(3, 14),2	106,(3, 18),13	119,(3, 22),17	136,(4, 38),17	215,(1, 26),1	216,(1, 30),2	218,(1, 34),31	
50,(2, 5),8	58,(2, 13),67	125,(2, 17),13	138,(2, 21),53	191,(3, 9),127	318,(3, 33),1	319,(4, 17),4	323,(4, 25),35	358,(4, 29),12	370,(7, 41),4	374,(8, 41),4	378,(11, 41),4	382,(10, 41),4	386,(20, 41),4	390,(19, 41),4	394,(6, 41),4	398,(28, 41),4	402,(27, 41),4	406,(14, 41),4	410,(32, 41),4	414,(31, 41),4	418,(18, 41),4	422,(12, 41),4	426,(35, 41),4	430,(22, 41),4	434,(16, 41),4	438,(15, 41),4	442,(38, 41),4	446,(36, 41),4	450,(23, 41),4	454,(40, 41),4	458,(26, 41),4	483,(39, 41),4	487,(24, 41),4	491,(30, 41),4	532,(34, 41),4	
# Outgoing
52,(4, 11),6	58,(4, 19),3	61,(4, 27),4	65,(4, 31),1	66,(4, 35),1	136,(4, 38),17	319,(4, 17),4	323,(4, 25),35	358,(4, 29),12	374,(8, 41),4	386,(20, 41),4	398,(28, 41),4	410,(32, 41),4	422,(12, 41),4	434,(16, 41),4	446,(36, 41),4	454,(40, 41),4	487,(24, 41),4	
100,(3, 6),1	101,(3, 12),1	102,(3, 14),2	104,(3, 16),2	106,(3, 18),13	119,(3, 22),17	136,(3, 36),1	137,(3, 40),5	191,(3, 9),127	318,(3, 33),1	370,(7, 41),4	378,(11, 41),4	390,(19, 41),4	402,(27, 41),4	414,(31, 41),4	426,(35, 41),4	438,(15, 41),4	450,(23, 41),4	483,(39, 41),4	
50,(2, 5),8	58,(2, 13),67	125,(2, 17),13	138,(2, 21),53	191,(2, 24),2	215,(2, 39),2	382,(10, 41),4	394,(6, 41),4	406,(14, 41),4	418,(18, 41),4	430,(22, 41),4	442,(38, 41),4	458,(26, 41),4	491,(30, 41),4	532,(34, 41),4	
1,(0, 2),1	2,(0, 3),1	3,(0, 4),1	49,(1, 10),51	100,(1, 15),114	214,(1, 23),1	215,(1, 26),1	216,(1, 30),2	218,(1, 34),31	
