947
# CPU
109,5,1	250,8,1	289,9,1	355,12,1	427,13,1	445,17,1	454,19,1	721,3,1	730,7,1	805,10,1	829,14,1	925,15,1	940,18,1	943,20,1	946,21,1	
0,0,1	1,1,1	2,4,1	
10,2,1	
115,6,1	
292,11,1	
430,16,1	




# Incoming
10,(1, 5),99	115,(1, 8),135	250,(1, 9),39	289,(6, 21),3	292,(1, 12),63	355,(1, 13),72	427,(11, 21),3	430,(1, 17),15	445,(1, 19),9	454,(1, 20),237	691,(4, 21),3	694,(2, 3),27	721,(2, 7),9	730,(2, 10),75	805,(2, 14),24	829,(2, 15),96	925,(2, 18),15	940,(2, 20),3	943,(16, 21),3	

1,(0, 2),9	
109,(1, 6),6	
289,(1, 11),3	
427,(1, 16),3	




# Outgoing

1,(0, 2),9	10,(1, 5),99	109,(1, 6),6	115,(1, 8),135	250,(1, 9),39	289,(1, 11),3	292,(1, 12),63	355,(1, 13),72	427,(1, 16),3	430,(1, 17),15	445,(1, 19),9	454,(1, 20),237	691,(4, 21),3	
694,(2, 3),27	721,(2, 7),9	730,(2, 10),75	805,(2, 14),24	829,(2, 15),96	925,(2, 18),15	940,(2, 20),3	
289,(6, 21),3	
427,(11, 21),3	
943,(16, 21),3	




