1679
# CPU
61,3,1	62,51,1	63,78,1	64,81,1	79,39,1	91,108,1	121,6,1	122,18,1	123,45,1	124,84,1	125,102,1	126,111,1	148,63,1	151,69,1	181,9,1	182,27,1	183,60,1	184,72,1	241,12,1	242,33,1	243,105,1	247,21,1	724,54,1	772,99,1	823,30,1	826,42,1	829,66,1	892,93,1	895,114,1	898,36,1	973,120,1	988,15,1	1042,48,1	1132,96,1	1144,24,1	1297,57,1	1459,75,1	1474,87,1	1480,90,1	1609,117,1	
31,2,1	32,20,1	33,32,1	34,41,1	35,119,1	36,74,1	37,86,1	38,95,1	91,5,1	92,50,1	93,53,1	94,113,1	151,8,1	172,89,1	211,11,1	212,59,1	213,83,1	214,104,1	215,98,1	235,14,1	238,80,1	241,110,1	245,35,1	274,29,1	733,44,1	736,47,1	751,65,1	817,68,1	829,62,1	949,71,1	979,92,1	982,116,1	988,23,1	1021,17,1	1285,38,1	1294,101,1	1306,107,1	1336,26,1	1339,56,1	1375,77,1	
0,0,1	1,1,1	2,10,1	3,4,1	4,7,1	5,82,1	6,58,1	7,52,1	8,103,1	9,49,1	10,100,1	11,19,1	12,106,1	13,31,1	14,91,1	15,67,1	16,118,1	17,61,1	18,13,1	169,85,1	655,22,1	709,43,1	715,46,1	718,79,1	745,55,1	781,94,1	790,73,1	793,112,1	808,109,1	865,115,1	898,28,1	901,37,1	904,64,1	955,40,1	973,70,1	1006,16,1	1102,88,1	1171,25,1	1279,34,1	1363,76,1	1486,97,1	1678,121,1	
# Incoming
31,(0, 3),30	61,(2, 39),18	79,(2, 108),12	91,(0, 6),30	121,(2, 63),27	148,(5, 69),3	151,(0, 9),30	181,(8, 72),3	211,(0, 12),30	241,(1, 21),6	709,(5, 54),15	751,(1, 99),21	772,(10, 30),51	823,(11, 42),3	826,(11, 66),3	829,(10, 93),63	892,(10, 114),3	895,(4, 36),3	898,(5, 120),75	982,(7, 15),6	1021,(7, 48),21	1102,(8, 96),30	1132,(11, 24),12	1279,(11, 57),18	1297,(11, 75),162	1459,(11, 87),15	1474,(11, 90),6	1480,(11, 117),129	
1,(0, 2),30	61,(0, 5),30	121,(0, 8),30	169,(3, 89),3	181,(0, 11),30	211,(6, 14),24	235,(6, 80),3	238,(6, 110),3	242,(12, 35),3	247,(1, 29),27	274,(1, 44),459	733,(1, 47),3	736,(1, 65),15	751,(6, 68),66	823,(10, 62),6	898,(4, 71),51	949,(4, 92),30	979,(4, 116),3	982,(12, 23),6	988,(7, 17),33	1021,(9, 38),264	1285,(9, 101),9	1294,(9, 107),12	1306,(12, 26),30	1336,(12, 56),3	1363,(12, 77),12	
91,(20, 121),3	94,(32, 121),3	97,(41, 121),3	100,(119, 121),3	103,(74, 121),3	106,(86, 121),3	109,(95, 121),3	112,(3, 85),57	169,(50, 121),3	172,(51, 121),3	175,(78, 121),3	178,(81, 121),3	181,(39, 121),3	184,(5, 22),471	655,(5, 43),54	709,(108, 121),3	712,(6, 46),3	715,(6, 79),3	718,(18, 121),3	721,(45, 121),3	724,(5, 55),21	745,(5, 94),36	781,(53, 121),3	784,(113, 121),3	787,(8, 73),3	790,(8, 112),3	793,(89, 121),3	796,(11, 109),12	808,(59, 121),3	811,(83, 121),3	814,(104, 121),3	817,(6, 115),48	865,(84, 121),3	868,(102, 121),3	871,(111, 121),3	874,(63, 121),3	877,(69, 121),3	880,(9, 28),18	898,(9, 37),3	901,(9, 64),3	904,(27, 121),3	907,(60, 121),3	910,(72, 121),3	913,(12, 40),42	955,(12, 70),18	973,(8, 16),33	1006,(8, 88),96	1144,(11, 25),27	1171,(11, 34),108	1339,(12, 76),24	1375,(12, 97),111	1486,(33, 121),3	1489,(105, 121),3	1492,(21, 121),3	1495,(54, 121),3	1498,(99, 121),3	1501,(30, 121),3	1504,(42, 121),3	1507,(66, 121),3	1510,(93, 121),3	1513,(114, 121),3	1516,(36, 121),3	1519,(120, 121),3	1522,(15, 121),3	1525,(48, 121),3	1528,(96, 121),3	1531,(24, 121),3	1534,(57, 121),3	1537,(75, 121),3	1540,(87, 121),3	1543,(90, 121),3	1609,(98, 121),3	1612,(14, 121),3	1615,(80, 121),3	1618,(110, 121),3	1621,(35, 121),3	1624,(29, 121),3	1627,(44, 121),3	1630,(47, 121),3	1633,(65, 121),3	1636,(68, 121),3	1639,(62, 121),3	1642,(71, 121),3	1645,(92, 121),3	1648,(116, 121),3	1651,(23, 121),3	1654,(17, 121),3	1657,(38, 121),3	1660,(101, 121),3	1663,(107, 121),3	1666,(26, 121),3	1669,(56, 121),3	1672,(77, 121),3	1675,(117, 121),3	
# Outgoing
112,(3, 85),57	169,(3, 89),3	172,(51, 121),3	175,(78, 121),3	178,(81, 121),3	181,(39, 121),3	211,(6, 14),24	235,(6, 80),3	238,(6, 110),3	242,(12, 35),3	709,(108, 121),3	712,(6, 46),3	715,(6, 79),3	718,(18, 121),3	721,(45, 121),3	751,(6, 68),66	817,(6, 115),48	865,(84, 121),3	868,(102, 121),3	871,(111, 121),3	874,(63, 121),3	877,(69, 121),3	880,(9, 28),18	898,(9, 37),3	901,(9, 64),3	904,(27, 121),3	907,(60, 121),3	910,(72, 121),3	913,(12, 40),42	955,(12, 70),18	982,(12, 23),6	1021,(9, 38),264	1285,(9, 101),9	1294,(9, 107),12	1306,(12, 26),30	1336,(12, 56),3	1339,(12, 76),24	1363,(12, 77),12	1375,(12, 97),111	1486,(33, 121),3	1489,(105, 121),3	1492,(21, 121),3	1495,(54, 121),3	1498,(99, 121),3	1501,(30, 121),3	1504,(42, 121),3	1507,(66, 121),3	1510,(93, 121),3	1513,(114, 121),3	1516,(36, 121),3	1519,(120, 121),3	1522,(15, 121),3	1525,(48, 121),3	1528,(96, 121),3	1531,(24, 121),3	1534,(57, 121),3	1537,(75, 121),3	1540,(87, 121),3	1543,(90, 121),3	1675,(117, 121),3	
61,(2, 39),18	79,(2, 108),12	91,(20, 121),3	94,(32, 121),3	97,(41, 121),3	100,(119, 121),3	103,(74, 121),3	106,(86, 121),3	109,(95, 121),3	121,(2, 63),27	148,(5, 69),3	169,(50, 121),3	181,(8, 72),3	184,(5, 22),471	655,(5, 43),54	709,(5, 54),15	724,(5, 55),21	745,(5, 94),36	781,(53, 121),3	784,(113, 121),3	787,(8, 73),3	790,(8, 112),3	793,(89, 121),3	796,(11, 109),12	808,(59, 121),3	811,(83, 121),3	814,(104, 121),3	823,(11, 42),3	826,(11, 66),3	898,(5, 120),75	973,(8, 16),33	1006,(8, 88),96	1102,(8, 96),30	1132,(11, 24),12	1144,(11, 25),27	1171,(11, 34),108	1279,(11, 57),18	1297,(11, 75),162	1459,(11, 87),15	1474,(11, 90),6	1480,(11, 117),129	1609,(98, 121),3	1612,(14, 121),3	1615,(80, 121),3	1618,(110, 121),3	1621,(35, 121),3	1624,(29, 121),3	1627,(44, 121),3	1630,(47, 121),3	1633,(65, 121),3	1636,(68, 121),3	1639,(62, 121),3	1642,(71, 121),3	1645,(92, 121),3	1648,(116, 121),3	1651,(23, 121),3	1654,(17, 121),3	1657,(38, 121),3	1660,(101, 121),3	1663,(107, 121),3	1666,(26, 121),3	1669,(56, 121),3	1672,(77, 121),3	
1,(0, 2),30	31,(0, 3),30	61,(0, 5),30	91,(0, 6),30	121,(0, 8),30	151,(0, 9),30	181,(0, 11),30	211,(0, 12),30	241,(1, 21),6	247,(1, 29),27	274,(1, 44),459	733,(1, 47),3	736,(1, 65),15	751,(1, 99),21	772,(10, 30),51	823,(10, 62),6	829,(10, 93),63	892,(10, 114),3	895,(4, 36),3	898,(4, 71),51	949,(4, 92),30	979,(4, 116),3	982,(7, 15),6	988,(7, 17),33	1021,(7, 48),21	
