36209
# CPU
19013,73,1	21145,15,1	22215,17,1	22361,36,1	22411,49,1	22515,55,1	22829,95,1	23107,13,1	25131,31,1	25237,37,1	25273,47,1	25463,56,1	25573,77,1	25813,79,1	25973,94,1	26217,118,1	26237,119,1	26499,24,1	26543,29,1	27327,52,1	27473,62,1	28945,68,1	29041,75,1	31065,101,1	31733,120,1	31801,21,1	31813,27,1	31851,32,1	31865,33,1	33275,35,1	33347,39,1	33381,40,1	33549,44,1	33571,46,1	33807,57,1	33829,58,1	33985,65,1	33987,66,1	34067,74,1	34069,78,1	34071,80,1	34075,82,1	34197,84,1	34211,88,1	34217,89,1	34305,93,1	34307,96,1	34731,104,1	34867,107,1	34929,112,1	34945,113,1	34969,14,1	34973,16,1	35037,18,1	35039,19,1	35167,20,1	35185,22,1	35187,23,1	35283,25,1	35303,26,1	35305,28,1	35377,30,1	35383,34,1	35385,38,1	35405,41,1	35407,42,1	35437,43,1	35479,45,1	35515,48,1	35561,50,1	35563,51,1	35569,53,1	35573,54,1	35595,59,1	35601,60,1	35607,61,1	35663,63,1	35667,64,1	35673,67,1	35675,69,1	35681,70,1	35683,71,1	35685,72,1	35725,76,1	35747,81,1	35751,83,1	35781,85,1	35783,86,1	35785,87,1	35795,90,1	35825,91,1	35865,92,1	35871,97,1	35915,98,1	35923,99,1	35945,100,1	35951,102,1	35953,103,1	36017,105,1	36025,106,1	36027,108,1	36031,109,1	36033,110,1	36035,111,1	36041,114,1	36191,115,1	36197,116,1	36207,117,1	36208,121,1	
0,0,1	1,2,1	2,12,1	3,8,1	
393,1,1	1569,5,1	2745,9,1	
785,3,1	1961,6,1	3137,10,1	
1177,4,1	2353,7,1	3529,11,1	
# Incoming
3529,(2, 13),10	3539,(2, 15),8	3547,(2, 17),2	3549,(2, 18),4	3553,(2, 19),2	3555,(2, 20),4	3559,(2, 22),2	3561,(2, 24),2	3563,(2, 27),2	3565,(2, 29),8	3573,(2, 32),2	3575,(2, 33),6	3581,(2, 34),2	3583,(2, 36),40	3623,(2, 37),2	3625,(2, 38),14	3639,(2, 40),10	3649,(2, 41),14	3663,(2, 43),34	3697,(2, 44),4	3701,(2, 45),44	3745,(2, 48),4	3749,(2, 51),2	3751,(2, 54),3020	6771,(2, 56),6	6777,(2, 58),26	6803,(2, 59),8	6811,(2, 60),20	6831,(2, 61),40	6871,(2, 62),8	6879,(2, 64),2	6881,(2, 65),30	6911,(2, 66),2	6913,(2, 68),70	6983,(2, 69),4	6987,(2, 72),52	7039,(2, 73),4	7043,(2, 74),2	7045,(2, 76),16	7061,(2, 77),2	7063,(2, 80),44	7107,(2, 81),20	7127,(2, 85),8	7135,(2, 86),2	7137,(2, 87),6	7143,(2, 88),18	7161,(2, 90),8	7169,(2, 91),2	7171,(2, 93),4	7175,(2, 95),12	7187,(2, 97),2	7189,(2, 102),2	7191,(2, 103),10	7201,(2, 105),10	7211,(2, 106),92	7303,(2, 107),4	7307,(2, 109),2	7309,(2, 110),8	7317,(2, 111),14	7331,(2, 114),2	7333,(2, 115),6	7339,(2, 117),422	7761,(2, 119),10	7771,(12, 13),2	7773,(12, 14),64	7837,(12, 15),6	7843,(12, 16),16	7859,(12, 18),12	7871,(12, 19),8	7879,(12, 21),12	7891,(12, 23),10	7901,(12, 25),2	7903,(12, 26),10	7913,(12, 28),10	7923,(12, 29),24	7947,(12, 31),2	7949,(12, 32),10	7959,(12, 34),18	7977,(12, 35),2	7979,(12, 36),110	8089,(12, 37),514	8603,(12, 38),92	8695,(12, 40),6	8701,(12, 42),16	8717,(12, 44),18	8735,(12, 45),4	8739,(12, 48),2	8741,(12, 50),344	9085,(12, 51),4	9089,(12, 52),82	9171,(12, 54),170	9341,(12, 55),2	9343,(12, 56),442	9785,(12, 59),8	9793,(12, 61),20	9813,(12, 62),1436	11249,(12, 64),30	11279,(12, 66),22	11301,(12, 69),208	11509,(12, 71),4	11513,(12, 72),46	11559,(12, 75),34	11593,(12, 76),10	11603,(12, 77),2	11605,(12, 78),56	11661,(12, 79),6	11667,(12, 81),82	11749,(12, 84),8	11757,(12, 86),2	11759,(12, 88),2	11761,(12, 90),2	11763,(12, 94),6	11769,(12, 95),98	11867,(12, 96),20	11887,(12, 97),20	11907,(12, 98),2	11909,(12, 99),246	12155,(12, 101),18	12173,(12, 105),16	12189,(12, 108),108	12297,(12, 109),10	12307,(12, 111),6	12313,(12, 112),28	12341,(12, 113),42	12383,(12, 114),10	12393,(12, 116),2	12395,(12, 118),16	12411,(8, 13),26	12437,(8, 14),14	12451,(8, 15),292	12743,(8, 16),34	12777,(8, 17),48	12825,(8, 18),2	12827,(8, 19),2	12829,(8, 22),12	12841,(8, 24),40	12881,(8, 25),28	12909,(8, 29),150	13059,(8, 31),96	13155,(8, 32),2	13157,(8, 33),16	13173,(8, 37),274	13447,(8, 41),4	13451,(8, 42),2	13453,(8, 44),2	13455,(8, 47),2	13457,(8, 48),8	13465,(8, 49),2	13467,(8, 50),6	13473,(8, 52),736	14209,(8, 53),184	14393,(8, 55),8	14401,(8, 58),4	14405,(8, 60),2	14407,(8, 63),2	14409,(8, 64),2	14411,(8, 65),82	14493,(8, 66),2	14495,(8, 70),6	14501,(8, 71),4	14505,(8, 72),2	14507,(8, 73),8	14515,(8, 77),16	14531,(8, 78),2	14533,(8, 79),2	14535,(8, 80),2	14537,(8, 82),102	14639,(8, 83),2	14641,(8, 86),2	14643,(8, 87),2	14645,(8, 88),2	14647,(8, 93),2	14649,(8, 94),4	14653,(8, 98),26	14679,(8, 99),316	14995,(8, 100),2	14997,(8, 101),30	15027,(8, 103),2	15029,(8, 104),16	15045,(8, 105),58	15103,(8, 108),2	15105,(8, 110),14	15119,(8, 111),36	15155,(8, 112),14	15169,(8, 113),14	15183,(8, 114),8	15191,(8, 115),2	15193,(8, 118),8	15201,(8, 120),10	15211,(1, 13),26	15237,(1, 15),2	15239,(1, 16),2	15241,(1, 17),16	15257,(1, 18),6	15263,(1, 20),94	15357,(1, 21),10	15367,(1, 22),8	15375,(1, 23),2	15377,(1, 25),2	15379,(1, 26),32	15411,(1, 27),12	15423,(1, 30),2	15425,(1, 35),4	15429,(1, 37),14	15443,(1, 40),8	15451,(1, 45),4	15455,(1, 48),6	15461,(1, 49),28	15489,(1, 52),30	15519,(1, 53),52	15571,(1, 57),180	15751,(1, 58),534	16285,(1, 59),2	16287,(1, 60),2	16289,(1, 61),20	16309,(1, 65),52	16361,(1, 71),2	16363,(1, 72),18	16381,(1, 73),14	16395,(1, 74),370	16765,(1, 75),8	16773,(1, 76),50	16823,(1, 78),22	16845,(1, 79),68	16913,(1, 80),38	16951,(1, 81),2	16953,(1, 82),2	16955,(1, 85),70	17025,(1, 86),40	17065,(1, 89),2	17067,(1, 90),16	17083,(1, 91),84	17167,(1, 95),2	17169,(1, 99),2	17171,(1, 103),10	17181,(1, 104),24	17205,(1, 105),2	17207,(1, 108),14	17221,(1, 115),2	17223,(1, 116),8	17231,(1, 117),16	17247,(1, 118),6	17253,(1, 120),12	17265,(3, 14),16	17281,(3, 16),14	17295,(3, 18),16	17311,(3, 19),18	17329,(3, 20),2	17331,(3, 21),16	17347,(3, 24),8	17355,(3, 27),30	17385,(3, 29),2	17387,(3, 32),2	17389,(3, 33),16	17405,(3, 34),30	17435,(3, 35),2	17437,(3, 36),4	17441,(3, 37),260	17701,(3, 39),2	17703,(3, 40),6	17709,(3, 41),10	17719,(3, 43),24	17743,(3, 49),22	17765,(3, 50),20	17785,(3, 53),4	17789,(3, 55),60	17849,(3, 56),2	17851,(3, 61),12	17863,(3, 63),10	17873,(3, 64),6	17879,(3, 65),6	17885,(3, 66),2	17887,(3, 67),2	17889,(3, 72),48	17937,(3, 77),2	17939,(3, 78),24	17963,(3, 79),40	18003,(3, 80),2	18005,(3, 82),38	18043,(3, 83),2	18045,(3, 85),18	18063,(3, 86),170	18233,(3, 88),12	18245,(3, 90),2	18247,(3, 92),64	18311,(3, 94),2	18313,(3, 96),2	18315,(3, 97),18	18333,(3, 98),16	18349,(3, 99),10	18359,(3, 102),10	18369,(3, 104),2	18371,(3, 107),6	18377,(3, 108),10	18387,(3, 109),12	18399,(3, 111),56	18455,(3, 112),52	18507,(3, 113),2	18509,(3, 114),14	18523,(3, 115),32	18555,(3, 118),2	18557,(3, 119),34	18591,(3, 120),14	18605,(4, 14),8	18613,(4, 16),6	18619,(4, 17),2	18621,(4, 18),6	18627,(4, 19),2	18629,(4, 21),2	18631,(4, 27),16	18647,(4, 28),2	18649,(4, 29),8	18657,(4, 30),14	18671,(4, 31),28	18699,(4, 32),2	18701,(4, 34),2	18703,(4, 35),72	18775,(4, 37),14	18789,(4, 38),14	18803,(4, 40),2	18805,(4, 41),4	18809,(4, 45),24	18833,(4, 46),6	18839,(4, 47),6	18845,(4, 53),2	18847,(4, 55),2	18849,(4, 56),24	18873,(4, 57),28	18901,(4, 59),78	18979,(4, 68),6	18985,(4, 69),12	18997,(4, 70),8	19005,(4, 71),4	19009,(4, 72),2	19011,(4, 73),2	19013,(4, 77),2	19015,(4, 79),8	19023,(4, 82),20	19043,(4, 87),4	19047,(4, 88),18	19065,(4, 89),2	19067,(4, 90),2	19069,(4, 91),4	19073,(4, 92),12	19085,(4, 93),4	19089,(4, 94),2	19091,(4, 96),12	19103,(4, 100),12	19115,(4, 101),1392	20507,(4, 104),10	20517,(4, 105),2	20519,(4, 106),2	20521,(4, 107),2	20523,(4, 108),16	20539,(4, 109),40	20579,(4, 113),12	20591,(4, 115),2	20593,(4, 116),2	20595,(4, 120),2	20597,(5, 13),546	21143,(5, 15),2	21145,(5, 19),2	21147,(5, 20),12	21159,(5, 21),2	21161,(5, 23),10	21171,(5, 25),4	21175,(5, 26),10	21185,(5, 28),2	21187,(5, 29),6	21193,(5, 30),164	21357,(5, 31),34	21391,(5, 32),2	21393,(5, 33),32	21425,(5, 34),2	21427,(5, 37),2	21429,(5, 38),2	21431,(5, 40),10	21441,(5, 43),6	21447,(5, 44),124	21571,(5, 45),50	21621,(5, 47),10	21631,(5, 50),50	21681,(5, 52),12	21693,(5, 53),36	21729,(5, 54),4	21733,(5, 55),4	21737,(5, 62),8	21745,(5, 63),28	21773,(5, 66),6	21779,(5, 68),48	21827,(5, 71),42	21869,(5, 74),2	21871,(5, 77),28	21899,(5, 80),18	21917,(5, 82),2	21919,(5, 84),2	21921,(5, 87),22	21943,(5, 89),28	21971,(5, 91),2	21973,(5, 92),8	21981,(5, 93),10	21991,(5, 94),28	22019,(5, 96),2	22021,(5, 97),6	22027,(5, 98),54	22081,(5, 99),2	22083,(5, 101),14	22097,(5, 102),2	22099,(5, 104),2	22101,(5, 105),4	22105,(5, 107),40	22145,(5, 109),8	22153,(5, 110),2	22155,(5, 111),2	22157,(5, 114),34	22191,(5, 120),6	22197,(6, 14),6	22203,(6, 16),4	22207,(6, 17),8	22215,(6, 18),2	22217,(6, 19),2	22219,(6, 21),12	22231,(6, 22),2	22233,(6, 24),32	22265,(6, 25),8	22273,(6, 28),10	22283,(6, 30),66	22349,(6, 32),4	22353,(6, 35),4	22357,(6, 36),4	22361,(6, 38),6	22367,(6, 39),2	22369,(6, 40),8	22377,(6, 43),2	22379,(6, 45),8	22387,(6, 47),16	22403,(6, 49),8	22411,(6, 50),22	22433,(6, 51),40	22473,(6, 52),18	22491,(6, 54),10	22501,(6, 55),14	22515,(6, 60),20	22535,(6, 62),4	22539,(6, 64),2	22541,(6, 67),48	22589,(6, 68),24	22613,(6, 79),24	22637,(6, 80),6	22643,(6, 81),4	22647,(6, 83),54	22701,(6, 84),4	22705,(6, 90),106	22811,(6, 91),2	22813,(6, 92),2	22815,(6, 93),4	22819,(6, 95),10	22829,(6, 97),2	22831,(6, 98),6	22837,(6, 100),4	22841,(6, 101),208	23049,(6, 103),2	23051,(6, 109),2	23053,(6, 112),2	23055,(6, 113),2	23057,(6, 115),36	23093,(6, 117),6	23099,(6, 120),6	23105,(7, 13),2	23107,(7, 16),12	23119,(7, 18),18	23137,(7, 23),6	23143,(7, 24),1382	24525,(7, 25),110	24635,(7, 26),50	24685,(7, 27),4	24689,(7, 28),406	25095,(7, 29),2	25097,(7, 30),2	25099,(7, 31),32	25131,(7, 32),2	25133,(7, 35),100	25233,(7, 37),4	25237,(7, 39),4	25241,(7, 41),8	25249,(7, 43),2	25251,(7, 44),18	25269,(7, 46),2	25271,(7, 47),2	25273,(7, 48),6	25279,(7, 50),4	25283,(7, 52),20	25303,(7, 53),148	25451,(7, 56),12	25463,(7, 57),6	25469,(7, 59),4	25473,(7, 60),4	25477,(7, 62),8	25485,(7, 64),20	25505,(7, 66),22	25527,(7, 67),2	25529,(7, 68),2	25531,(7, 69),8	25539,(7, 71),2	25541,(7, 75),10	25551,(7, 76),14	25565,(7, 77),8	25573,(7, 78),44	25617,(7, 79),196	25813,(7, 80),20	25833,(7, 81),52	25885,(7, 82),4	25889,(7, 84),30	25919,(7, 90),16	25935,(7, 93),4	25939,(7, 94),34	25973,(7, 98),28	26001,(7, 100),24	26025,(7, 101),4	26029,(7, 102),2	26031,(7, 103),18	26049,(7, 104),34	26083,(7, 105),6	26089,(7, 106),4	26093,(7, 108),6	26099,(7, 110),8	26107,(7, 111),12	26119,(7, 112),16	26135,(7, 113),14	26149,(7, 114),20	26169,(7, 117),40	26209,(7, 118),8	26217,(7, 119),20	26237,(7, 120),20	26257,(9, 16),16	26273,(9, 18),2	26275,(9, 19),2	26277,(9, 20),14	26291,(9, 21),186	26477,(9, 24),22	26499,(9, 25),32	26531,(9, 27),2	26533,(9, 29),10	26543,(9, 32),314	26857,(9, 33),36	26893,(9, 38),112	27005,(9, 39),48	27053,(9, 40),2	27055,(9, 41),10	27065,(9, 42),6	27071,(9, 43),52	27123,(9, 46),92	27215,(9, 48),20	27235,(9, 50),4	27239,(9, 51),6	27245,(9, 52),82	27327,(9, 53),2	27329,(9, 61),142	27471,(9, 62),2	27473,(9, 66),8	27481,(9, 67),6	27487,(9, 68),1458	28945,(9, 69),4	28949,(9, 70),2	28951,(9, 74),86	29037,(9, 75),4	29041,(9, 76),1814	30855,(9, 78),60	30915,(9, 81),4	30919,(9, 83),32	30951,(9, 87),24	30975,(9, 88),38	31013,(9, 89),2	31015,(9, 91),12	31027,(9, 93),2	31029,(9, 97),26	31055,(9, 98),2	31057,(9, 100),2	31059,(9, 101),6	31065,(9, 103),2	31067,(9, 105),6	31073,(9, 108),62	31135,(9, 109),382	31517,(9, 110),2	31519,(9, 111),6	31525,(9, 112),40	31565,(9, 115),136	31701,(9, 116),6	31707,(9, 117),6	31713,(9, 120),20	31733,(10, 16),8	31741,(10, 20),46	31787,(10, 21),14	31801,(10, 23),2	31803,(10, 27),10	31813,(10, 28),2	31815,(10, 32),36	31851,(10, 33),14	31865,(10, 34),1404	33269,(10, 35),6	33275,(10, 39),72	33347,(10, 40),34	33381,(10, 41),38	33419,(10, 42),18	33437,(10, 43),12	33449,(10, 44),100	33549,(10, 46),22	33571,(10, 48),24	33595,(10, 50),84	33679,(10, 51),40	33719,(10, 53),2	33721,(10, 57),86	33807,(10, 58),22	33829,(10, 61),6	33835,(10, 63),130	33965,(10, 65),20	33985,(10, 66),2	33987,(10, 67),2	33989,(10, 70),42	34031,(10, 72),34	34065,(10, 74),2	34067,(10, 78),2	34069,(10, 80),2	34071,(10, 81),2	34073,(10, 82),2	34075,(10, 83),114	34189,(10, 84),8	34197,(10, 86),6	34203,(10, 88),8	34211,(10, 89),6	34217,(10, 90),58	34275,(10, 92),16	34291,(10, 93),14	34305,(10, 96),2	34307,(10, 99),10	34317,(10, 102),402	34719,(10, 104),12	34731,(10, 105),130	34861,(10, 107),6	34867,(10, 108),8	34875,(10, 110),42	34917,(10, 112),12	34929,(10, 113),16	34945,(10, 114),12	34957,(10, 115),2	34959,(11, 14),10	34969,(11, 16),4	34973,(11, 18),64	35037,(11, 19),2	35039,(11, 20),128	35167,(11, 22),18	35185,(11, 23),2	35187,(11, 25),96	35283,(11, 26),20	35303,(11, 28),2	35305,(11, 30),72	35377,(11, 34),6	35383,(11, 38),2	35385,(11, 41),20	35405,(11, 42),2	35407,(11, 43),30	35437,(11, 45),42	35479,(11, 48),36	35515,(11, 50),46	35561,(11, 51),2	35563,(11, 53),6	35569,(11, 54),4	35573,(11, 59),22	35595,(11, 60),6	35601,(11, 61),6	35607,(11, 63),56	35663,(11, 64),4	35667,(11, 67),6	35673,(11, 69),2	35675,(11, 70),6	35681,(11, 71),2	35683,(11, 72),2	35685,(11, 76),40	35725,(11, 81),22	35747,(11, 83),4	35751,(11, 85),30	35781,(11, 86),2	35783,(11, 87),2	35785,(11, 90),10	35795,(11, 91),30	35825,(11, 92),40	35865,(11, 97),6	35871,(11, 98),44	35915,(11, 99),8	35923,(11, 100),22	35945,(11, 102),6	35951,(11, 103),2	35953,(11, 105),64	36017,(11, 106),8	36025,(11, 108),2	36027,(11, 109),4	36031,(11, 110),2	36033,(11, 111),2	36035,(11, 114),6	36041,(11, 115),150	36191,(11, 116),6	36197,(11, 117),10	

1,(0, 1),392	1177,(0, 5),392	2353,(0, 9),392	
393,(0, 3),392	1569,(0, 6),392	2745,(0, 10),392	
785,(0, 4),392	1961,(0, 7),392	3137,(0, 11),392	
# Outgoing

1,(0, 1),392	393,(0, 3),392	785,(0, 4),392	1177,(0, 5),392	1569,(0, 6),392	1961,(0, 7),392	2353,(0, 9),392	2745,(0, 10),392	3137,(0, 11),392	3529,(2, 13),10	3539,(2, 15),8	3547,(2, 17),2	3549,(2, 18),4	3553,(2, 19),2	3555,(2, 20),4	3559,(2, 22),2	3561,(2, 24),2	3563,(2, 27),2	3565,(2, 29),8	3573,(2, 32),2	3575,(2, 33),6	3581,(2, 34),2	3583,(2, 36),40	3623,(2, 37),2	3625,(2, 38),14	3639,(2, 40),10	3649,(2, 41),14	3663,(2, 43),34	3697,(2, 44),4	3701,(2, 45),44	3745,(2, 48),4	3749,(2, 51),2	3751,(2, 54),3020	6771,(2, 56),6	6777,(2, 58),26	6803,(2, 59),8	6811,(2, 60),20	6831,(2, 61),40	6871,(2, 62),8	6879,(2, 64),2	6881,(2, 65),30	6911,(2, 66),2	6913,(2, 68),70	6983,(2, 69),4	6987,(2, 72),52	7039,(2, 73),4	7043,(2, 74),2	7045,(2, 76),16	7061,(2, 77),2	7063,(2, 80),44	7107,(2, 81),20	7127,(2, 85),8	7135,(2, 86),2	7137,(2, 87),6	7143,(2, 88),18	7161,(2, 90),8	7169,(2, 91),2	7171,(2, 93),4	7175,(2, 95),12	7187,(2, 97),2	7189,(2, 102),2	7191,(2, 103),10	7201,(2, 105),10	7211,(2, 106),92	7303,(2, 107),4	7307,(2, 109),2	7309,(2, 110),8	7317,(2, 111),14	7331,(2, 114),2	7333,(2, 115),6	7339,(2, 117),422	7761,(2, 119),10	7771,(12, 13),2	7773,(12, 14),64	7837,(12, 15),6	7843,(12, 16),16	7859,(12, 18),12	7871,(12, 19),8	7879,(12, 21),12	7891,(12, 23),10	7901,(12, 25),2	7903,(12, 26),10	7913,(12, 28),10	7923,(12, 29),24	7947,(12, 31),2	7949,(12, 32),10	7959,(12, 34),18	7977,(12, 35),2	7979,(12, 36),110	8089,(12, 37),514	8603,(12, 38),92	8695,(12, 40),6	8701,(12, 42),16	8717,(12, 44),18	8735,(12, 45),4	8739,(12, 48),2	8741,(12, 50),344	9085,(12, 51),4	9089,(12, 52),82	9171,(12, 54),170	9341,(12, 55),2	9343,(12, 56),442	9785,(12, 59),8	9793,(12, 61),20	9813,(12, 62),1436	11249,(12, 64),30	11279,(12, 66),22	11301,(12, 69),208	11509,(12, 71),4	11513,(12, 72),46	11559,(12, 75),34	11593,(12, 76),10	11603,(12, 77),2	11605,(12, 78),56	11661,(12, 79),6	11667,(12, 81),82	11749,(12, 84),8	11757,(12, 86),2	11759,(12, 88),2	11761,(12, 90),2	11763,(12, 94),6	11769,(12, 95),98	11867,(12, 96),20	11887,(12, 97),20	11907,(12, 98),2	11909,(12, 99),246	12155,(12, 101),18	12173,(12, 105),16	12189,(12, 108),108	12297,(12, 109),10	12307,(12, 111),6	12313,(12, 112),28	12341,(12, 113),42	12383,(12, 114),10	12393,(12, 116),2	12395,(12, 118),16	12411,(8, 13),26	12437,(8, 14),14	12451,(8, 15),292	12743,(8, 16),34	12777,(8, 17),48	12825,(8, 18),2	12827,(8, 19),2	12829,(8, 22),12	12841,(8, 24),40	12881,(8, 25),28	12909,(8, 29),150	13059,(8, 31),96	13155,(8, 32),2	13157,(8, 33),16	13173,(8, 37),274	13447,(8, 41),4	13451,(8, 42),2	13453,(8, 44),2	13455,(8, 47),2	13457,(8, 48),8	13465,(8, 49),2	13467,(8, 50),6	13473,(8, 52),736	14209,(8, 53),184	14393,(8, 55),8	14401,(8, 58),4	14405,(8, 60),2	14407,(8, 63),2	14409,(8, 64),2	14411,(8, 65),82	14493,(8, 66),2	14495,(8, 70),6	14501,(8, 71),4	14505,(8, 72),2	14507,(8, 73),8	14515,(8, 77),16	14531,(8, 78),2	14533,(8, 79),2	14535,(8, 80),2	14537,(8, 82),102	14639,(8, 83),2	14641,(8, 86),2	14643,(8, 87),2	14645,(8, 88),2	14647,(8, 93),2	14649,(8, 94),4	14653,(8, 98),26	14679,(8, 99),316	14995,(8, 100),2	14997,(8, 101),30	15027,(8, 103),2	15029,(8, 104),16	15045,(8, 105),58	15103,(8, 108),2	15105,(8, 110),14	15119,(8, 111),36	15155,(8, 112),14	15169,(8, 113),14	15183,(8, 114),8	15191,(8, 115),2	15193,(8, 118),8	15201,(8, 120),10	
15211,(1, 13),26	15237,(1, 15),2	15239,(1, 16),2	15241,(1, 17),16	15257,(1, 18),6	15263,(1, 20),94	15357,(1, 21),10	15367,(1, 22),8	15375,(1, 23),2	15377,(1, 25),2	15379,(1, 26),32	15411,(1, 27),12	15423,(1, 30),2	15425,(1, 35),4	15429,(1, 37),14	15443,(1, 40),8	15451,(1, 45),4	15455,(1, 48),6	15461,(1, 49),28	15489,(1, 52),30	15519,(1, 53),52	15571,(1, 57),180	15751,(1, 58),534	16285,(1, 59),2	16287,(1, 60),2	16289,(1, 61),20	16309,(1, 65),52	16361,(1, 71),2	16363,(1, 72),18	16381,(1, 73),14	16395,(1, 74),370	16765,(1, 75),8	16773,(1, 76),50	16823,(1, 78),22	16845,(1, 79),68	16913,(1, 80),38	16951,(1, 81),2	16953,(1, 82),2	16955,(1, 85),70	17025,(1, 86),40	17065,(1, 89),2	17067,(1, 90),16	17083,(1, 91),84	17167,(1, 95),2	17169,(1, 99),2	17171,(1, 103),10	17181,(1, 104),24	17205,(1, 105),2	17207,(1, 108),14	17221,(1, 115),2	17223,(1, 116),8	17231,(1, 117),16	17247,(1, 118),6	17253,(1, 120),12	20597,(5, 13),546	21143,(5, 15),2	21145,(5, 19),2	21147,(5, 20),12	21159,(5, 21),2	21161,(5, 23),10	21171,(5, 25),4	21175,(5, 26),10	21185,(5, 28),2	21187,(5, 29),6	21193,(5, 30),164	21357,(5, 31),34	21391,(5, 32),2	21393,(5, 33),32	21425,(5, 34),2	21427,(5, 37),2	21429,(5, 38),2	21431,(5, 40),10	21441,(5, 43),6	21447,(5, 44),124	21571,(5, 45),50	21621,(5, 47),10	21631,(5, 50),50	21681,(5, 52),12	21693,(5, 53),36	21729,(5, 54),4	21733,(5, 55),4	21737,(5, 62),8	21745,(5, 63),28	21773,(5, 66),6	21779,(5, 68),48	21827,(5, 71),42	21869,(5, 74),2	21871,(5, 77),28	21899,(5, 80),18	21917,(5, 82),2	21919,(5, 84),2	21921,(5, 87),22	21943,(5, 89),28	21971,(5, 91),2	21973,(5, 92),8	21981,(5, 93),10	21991,(5, 94),28	22019,(5, 96),2	22021,(5, 97),6	22027,(5, 98),54	22081,(5, 99),2	22083,(5, 101),14	22097,(5, 102),2	22099,(5, 104),2	22101,(5, 105),4	22105,(5, 107),40	22145,(5, 109),8	22153,(5, 110),2	22155,(5, 111),2	22157,(5, 114),34	22191,(5, 120),6	26257,(9, 16),16	26273,(9, 18),2	26275,(9, 19),2	26277,(9, 20),14	26291,(9, 21),186	26477,(9, 24),22	26499,(9, 25),32	26531,(9, 27),2	26533,(9, 29),10	26543,(9, 32),314	26857,(9, 33),36	26893,(9, 38),112	27005,(9, 39),48	27053,(9, 40),2	27055,(9, 41),10	27065,(9, 42),6	27071,(9, 43),52	27123,(9, 46),92	27215,(9, 48),20	27235,(9, 50),4	27239,(9, 51),6	27245,(9, 52),82	27327,(9, 53),2	27329,(9, 61),142	27471,(9, 62),2	27473,(9, 66),8	27481,(9, 67),6	27487,(9, 68),1458	28945,(9, 69),4	28949,(9, 70),2	28951,(9, 74),86	29037,(9, 75),4	29041,(9, 76),1814	30855,(9, 78),60	30915,(9, 81),4	30919,(9, 83),32	30951,(9, 87),24	30975,(9, 88),38	31013,(9, 89),2	31015,(9, 91),12	31027,(9, 93),2	31029,(9, 97),26	31055,(9, 98),2	31057,(9, 100),2	31059,(9, 101),6	31065,(9, 103),2	31067,(9, 105),6	31073,(9, 108),62	31135,(9, 109),382	31517,(9, 110),2	31519,(9, 111),6	31525,(9, 112),40	31565,(9, 115),136	31701,(9, 116),6	31707,(9, 117),6	31713,(9, 120),20	
17265,(3, 14),16	17281,(3, 16),14	17295,(3, 18),16	17311,(3, 19),18	17329,(3, 20),2	17331,(3, 21),16	17347,(3, 24),8	17355,(3, 27),30	17385,(3, 29),2	17387,(3, 32),2	17389,(3, 33),16	17405,(3, 34),30	17435,(3, 35),2	17437,(3, 36),4	17441,(3, 37),260	17701,(3, 39),2	17703,(3, 40),6	17709,(3, 41),10	17719,(3, 43),24	17743,(3, 49),22	17765,(3, 50),20	17785,(3, 53),4	17789,(3, 55),60	17849,(3, 56),2	17851,(3, 61),12	17863,(3, 63),10	17873,(3, 64),6	17879,(3, 65),6	17885,(3, 66),2	17887,(3, 67),2	17889,(3, 72),48	17937,(3, 77),2	17939,(3, 78),24	17963,(3, 79),40	18003,(3, 80),2	18005,(3, 82),38	18043,(3, 83),2	18045,(3, 85),18	18063,(3, 86),170	18233,(3, 88),12	18245,(3, 90),2	18247,(3, 92),64	18311,(3, 94),2	18313,(3, 96),2	18315,(3, 97),18	18333,(3, 98),16	18349,(3, 99),10	18359,(3, 102),10	18369,(3, 104),2	18371,(3, 107),6	18377,(3, 108),10	18387,(3, 109),12	18399,(3, 111),56	18455,(3, 112),52	18507,(3, 113),2	18509,(3, 114),14	18523,(3, 115),32	18555,(3, 118),2	18557,(3, 119),34	18591,(3, 120),14	22197,(6, 14),6	22203,(6, 16),4	22207,(6, 17),8	22215,(6, 18),2	22217,(6, 19),2	22219,(6, 21),12	22231,(6, 22),2	22233,(6, 24),32	22265,(6, 25),8	22273,(6, 28),10	22283,(6, 30),66	22349,(6, 32),4	22353,(6, 35),4	22357,(6, 36),4	22361,(6, 38),6	22367,(6, 39),2	22369,(6, 40),8	22377,(6, 43),2	22379,(6, 45),8	22387,(6, 47),16	22403,(6, 49),8	22411,(6, 50),22	22433,(6, 51),40	22473,(6, 52),18	22491,(6, 54),10	22501,(6, 55),14	22515,(6, 60),20	22535,(6, 62),4	22539,(6, 64),2	22541,(6, 67),48	22589,(6, 68),24	22613,(6, 79),24	22637,(6, 80),6	22643,(6, 81),4	22647,(6, 83),54	22701,(6, 84),4	22705,(6, 90),106	22811,(6, 91),2	22813,(6, 92),2	22815,(6, 93),4	22819,(6, 95),10	22829,(6, 97),2	22831,(6, 98),6	22837,(6, 100),4	22841,(6, 101),208	23049,(6, 103),2	23051,(6, 109),2	23053,(6, 112),2	23055,(6, 113),2	23057,(6, 115),36	23093,(6, 117),6	23099,(6, 120),6	31733,(10, 16),8	31741,(10, 20),46	31787,(10, 21),14	31801,(10, 23),2	31803,(10, 27),10	31813,(10, 28),2	31815,(10, 32),36	31851,(10, 33),14	31865,(10, 34),1404	33269,(10, 35),6	33275,(10, 39),72	33347,(10, 40),34	33381,(10, 41),38	33419,(10, 42),18	33437,(10, 43),12	33449,(10, 44),100	33549,(10, 46),22	33571,(10, 48),24	33595,(10, 50),84	33679,(10, 51),40	33719,(10, 53),2	33721,(10, 57),86	33807,(10, 58),22	33829,(10, 61),6	33835,(10, 63),130	33965,(10, 65),20	33985,(10, 66),2	33987,(10, 67),2	33989,(10, 70),42	34031,(10, 72),34	34065,(10, 74),2	34067,(10, 78),2	34069,(10, 80),2	34071,(10, 81),2	34073,(10, 82),2	34075,(10, 83),114	34189,(10, 84),8	34197,(10, 86),6	34203,(10, 88),8	34211,(10, 89),6	34217,(10, 90),58	34275,(10, 92),16	34291,(10, 93),14	34305,(10, 96),2	34307,(10, 99),10	34317,(10, 102),402	34719,(10, 104),12	34731,(10, 105),130	34861,(10, 107),6	34867,(10, 108),8	34875,(10, 110),42	34917,(10, 112),12	34929,(10, 113),16	34945,(10, 114),12	34957,(10, 115),2	
18605,(4, 14),8	18613,(4, 16),6	18619,(4, 17),2	18621,(4, 18),6	18627,(4, 19),2	18629,(4, 21),2	18631,(4, 27),16	18647,(4, 28),2	18649,(4, 29),8	18657,(4, 30),14	18671,(4, 31),28	18699,(4, 32),2	18701,(4, 34),2	18703,(4, 35),72	18775,(4, 37),14	18789,(4, 38),14	18803,(4, 40),2	18805,(4, 41),4	18809,(4, 45),24	18833,(4, 46),6	18839,(4, 47),6	18845,(4, 53),2	18847,(4, 55),2	18849,(4, 56),24	18873,(4, 57),28	18901,(4, 59),78	18979,(4, 68),6	18985,(4, 69),12	18997,(4, 70),8	19005,(4, 71),4	19009,(4, 72),2	19011,(4, 73),2	19013,(4, 77),2	19015,(4, 79),8	19023,(4, 82),20	19043,(4, 87),4	19047,(4, 88),18	19065,(4, 89),2	19067,(4, 90),2	19069,(4, 91),4	19073,(4, 92),12	19085,(4, 93),4	19089,(4, 94),2	19091,(4, 96),12	19103,(4, 100),12	19115,(4, 101),1392	20507,(4, 104),10	20517,(4, 105),2	20519,(4, 106),2	20521,(4, 107),2	20523,(4, 108),16	20539,(4, 109),40	20579,(4, 113),12	20591,(4, 115),2	20593,(4, 116),2	20595,(4, 120),2	23105,(7, 13),2	23107,(7, 16),12	23119,(7, 18),18	23137,(7, 23),6	23143,(7, 24),1382	24525,(7, 25),110	24635,(7, 26),50	24685,(7, 27),4	24689,(7, 28),406	25095,(7, 29),2	25097,(7, 30),2	25099,(7, 31),32	25131,(7, 32),2	25133,(7, 35),100	25233,(7, 37),4	25237,(7, 39),4	25241,(7, 41),8	25249,(7, 43),2	25251,(7, 44),18	25269,(7, 46),2	25271,(7, 47),2	25273,(7, 48),6	25279,(7, 50),4	25283,(7, 52),20	25303,(7, 53),148	25451,(7, 56),12	25463,(7, 57),6	25469,(7, 59),4	25473,(7, 60),4	25477,(7, 62),8	25485,(7, 64),20	25505,(7, 66),22	25527,(7, 67),2	25529,(7, 68),2	25531,(7, 69),8	25539,(7, 71),2	25541,(7, 75),10	25551,(7, 76),14	25565,(7, 77),8	25573,(7, 78),44	25617,(7, 79),196	25813,(7, 80),20	25833,(7, 81),52	25885,(7, 82),4	25889,(7, 84),30	25919,(7, 90),16	25935,(7, 93),4	25939,(7, 94),34	25973,(7, 98),28	26001,(7, 100),24	26025,(7, 101),4	26029,(7, 102),2	26031,(7, 103),18	26049,(7, 104),34	26083,(7, 105),6	26089,(7, 106),4	26093,(7, 108),6	26099,(7, 110),8	26107,(7, 111),12	26119,(7, 112),16	26135,(7, 113),14	26149,(7, 114),20	26169,(7, 117),40	26209,(7, 118),8	26217,(7, 119),20	26237,(7, 120),20	34959,(11, 14),10	34969,(11, 16),4	34973,(11, 18),64	35037,(11, 19),2	35039,(11, 20),128	35167,(11, 22),18	35185,(11, 23),2	35187,(11, 25),96	35283,(11, 26),20	35303,(11, 28),2	35305,(11, 30),72	35377,(11, 34),6	35383,(11, 38),2	35385,(11, 41),20	35405,(11, 42),2	35407,(11, 43),30	35437,(11, 45),42	35479,(11, 48),36	35515,(11, 50),46	35561,(11, 51),2	35563,(11, 53),6	35569,(11, 54),4	35573,(11, 59),22	35595,(11, 60),6	35601,(11, 61),6	35607,(11, 63),56	35663,(11, 64),4	35667,(11, 67),6	35673,(11, 69),2	35675,(11, 70),6	35681,(11, 71),2	35683,(11, 72),2	35685,(11, 76),40	35725,(11, 81),22	35747,(11, 83),4	35751,(11, 85),30	35781,(11, 86),2	35783,(11, 87),2	35785,(11, 90),10	35795,(11, 91),30	35825,(11, 92),40	35865,(11, 97),6	35871,(11, 98),44	35915,(11, 99),8	35923,(11, 100),22	35945,(11, 102),6	35951,(11, 103),2	35953,(11, 105),64	36017,(11, 106),8	36025,(11, 108),2	36027,(11, 109),4	36031,(11, 110),2	36033,(11, 111),2	36035,(11, 114),6	36041,(11, 115),150	36191,(11, 116),6	36197,(11, 117),10	
