49430
# CPU
61,4,2	121,8,2	181,12,2	241,16,2	301,20,2	8397,50,2	14033,113,2	15337,55,2	19129,49,2	20517,116,2	21265,164,2	22585,61,2	25217,120,2	30197,130,2	31513,83,2	31661,101,2	31889,133,2	32217,158,2	33409,196,2	34485,84,2	34541,87,2	34557,89,2	34933,118,2	35029,151,2	35741,32,2	35789,52,2	35901,57,2	35913,60,2	35925,65,2	36009,79,2	36025,82,2	36713,104,2	36721,111,2	37489,148,2	37581,150,2	37729,163,2	37737,167,2	37909,172,2	38041,174,2	38077,179,2	38129,186,2	38165,197,2	38413,46,2	42405,51,2	42477,66,2	42493,74,2	42677,77,2	42693,80,2	42717,92,2	42813,100,2	43017,115,2	43153,142,2	43365,161,2	43533,170,2	43537,173,2	43561,181,2	43569,183,2	44061,199,2	44065,25,2	44069,29,2	44073,33,2	44089,37,2	44097,43,2	45005,47,2	45093,69,2	45133,76,2	45141,78,2	45149,86,2	45161,88,2	45169,90,2	45201,99,2	45217,103,2	45221,107,2	45273,124,2	45401,135,2	45417,136,2	45533,141,2	45549,153,2	45657,171,2	45725,175,2	46065,176,2	46225,188,2	46277,195,2	46465,54,2	46473,58,2	46485,67,2	46561,68,2	46581,70,2	46601,71,2	46861,97,2	46965,102,2	47005,121,2	47081,134,2	47085,138,2	47237,140,2	47273,143,2	47413,145,2	47421,146,2	47441,147,2	47445,149,2	47457,159,2	47469,166,2	47473,178,2	47489,187,2	47525,189,2	47549,192,2	47673,193,2	47685,198,2	47709,34,2	47733,35,2	47777,38,2	47785,39,2	47809,44,2	47813,48,2	47829,53,2	47833,56,2	47837,59,2	47853,62,2	47857,64,2	47913,72,2	47929,73,2	47941,75,2	48045,81,2	48061,85,2	48065,91,2	48089,93,2	48093,95,2	48113,109,2	48129,110,2	48141,117,2	48153,119,2	48157,122,2	48169,123,2	48181,125,2	48213,126,2	48217,127,2	48257,128,2	48261,129,2	48265,131,2	48277,132,2	48289,137,2	48293,139,2	48305,144,2	48317,155,2	48325,160,2	48349,162,2	48365,168,2	48449,169,2	48513,177,2	48521,180,2	48525,182,2	48529,184,2	48533,185,2	48869,190,2	48917,191,2	49201,194,2	49317,200,2	49429,201,1	
41,3,2	101,7,2	161,11,2	221,15,2	281,19,2	2101,156,2	2385,31,2	8405,98,2	8521,106,2	13853,96,2	13945,112,2	15337,157,2	15709,23,2	15745,28,2	19077,36,2	20445,105,2	20501,114,2	21049,152,2	21121,154,2	21621,41,2	23021,94,2	
21,2,2	81,6,2	141,10,2	201,14,2	261,18,2	457,108,2	15801,30,2	21281,165,2	21445,22,2	21557,24,2	21561,27,2	21981,45,2	
0,0,1	1,9,2	3,13,2	5,1,2	7,17,2	9,5,2	1113,21,2	1877,40,2	5553,42,2	5801,26,2	11097,63,2	
# Incoming
41,(0, 4),20	61,(2, 33),4	65,(2, 35),28	93,(2, 74),4	97,(2, 79),4	101,(0, 8),20	121,(2, 43),32	153,(2, 99),8	161,(0, 12),20	181,(2, 59),24	205,(2, 72),12	217,(2, 126),4	221,(0, 16),20	241,(2, 81),20	261,(2, 92),12	273,(2, 115),8	281,(0, 20),20	301,(3, 34),4	305,(3, 38),4	309,(9, 29),132	441,(3, 39),4	445,(9, 32),268	713,(9, 33),40	753,(9, 34),276	1029,(9, 35),44	1073,(9, 44),4	1077,(9, 51),8	1085,(9, 52),364	1449,(9, 53),4	1453,(9, 54),4	1457,(9, 55),32	1489,(9, 56),164	1653,(9, 57),4	1657,(9, 59),4	1661,(9, 62),6556	8217,(9, 68),4	8221,(9, 74),4	8225,(9, 80),72	8297,(9, 83),40	8337,(9, 84),4	8341,(2, 50),56	8397,(2, 133),4	8401,(2, 140),4	8405,(9, 102),60	8465,(9, 104),52	8517,(2, 145),4	8521,(9, 107),8	8529,(9, 109),4	8533,(9, 113),40	8573,(9, 115),32	8605,(9, 117),424	9029,(9, 121),4	9033,(9, 127),28	9061,(9, 129),4	9065,(9, 135),76	9141,(9, 139),8	9149,(9, 145),12	9161,(9, 147),16	9177,(9, 158),12	9189,(9, 160),256	9445,(9, 163),48	9493,(9, 167),16	9509,(9, 171),288	9797,(9, 181),20	9817,(9, 186),16	9833,(9, 195),1252	11085,(13, 29),684	11769,(2, 117),12	11781,(13, 34),28	11809,(13, 38),32	11841,(13, 55),44	11885,(13, 60),12	11897,(13, 65),76	11973,(13, 67),16	11989,(13, 70),1724	13713,(13, 71),40	13753,(13, 73),4	13757,(13, 75),4	13761,(13, 78),4	13765,(13, 80),12	13777,(13, 82),4	13781,(13, 87),68	13849,(2, 178),4	13853,(13, 101),4	13857,(13, 103),8	13865,(2, 71),80	13945,(13, 113),88	14033,(2, 91),48	14081,(2, 196),8	14089,(13, 125),204	14293,(13, 126),32	14325,(13, 129),4	14329,(13, 130),112	14441,(13, 131),84	14525,(13, 132),240	14765,(13, 135),20	14785,(13, 140),4	14789,(13, 142),308	15097,(13, 146),108	15205,(2, 44),124	15329,(3, 48),4	15333,(3, 55),4	15337,(13, 161),80	15417,(13, 164),4	15421,(13, 170),20	15441,(13, 173),108	15549,(13, 179),4	15553,(13, 182),4	15557,(13, 184),124	15681,(13, 191),4	15685,(13, 192),4	15689,(2, 107),16	15705,(2, 116),16	15721,(2, 132),12	15733,(2, 144),12	15745,(1, 29),24	15769,(2, 161),16	15785,(2, 169),12	15797,(3, 72),4	15801,(1, 32),4	15805,(1, 33),56	15861,(1, 35),4	15865,(1, 43),68	15933,(1, 46),4	15937,(1, 53),8	15945,(1, 57),96	16041,(1, 58),8	16049,(1, 59),4	16053,(1, 66),1356	17409,(1, 69),36	17445,(1, 71),28	17473,(1, 74),4	17477,(1, 76),32	17509,(1, 79),24	17533,(1, 81),4	17537,(1, 87),4	17541,(1, 91),8	17549,(2, 170),16	17565,(2, 187),16	17581,(1, 95),32	17613,(1, 109),96	17709,(1, 111),16	17725,(1, 115),4	17729,(1, 122),32	17761,(1, 124),68	17829,(1, 135),112	17941,(1, 141),116	18057,(1, 143),20	18077,(1, 145),52	18129,(1, 146),4	18133,(1, 149),164	18297,(3, 121),4	18301,(1, 161),8	18309,(1, 164),16	18325,(1, 167),28	18353,(1, 171),4	18357,(1, 185),8	18365,(1, 186),8	18373,(1, 187),4	18377,(1, 188),12	18389,(1, 197),4	18393,(2, 32),300	18693,(2, 48),152	18845,(2, 86),112	18957,(3, 123),4	18961,(17, 29),16	18977,(17, 35),4	18981,(2, 124),40	19021,(2, 162),48	19069,(3, 69),8	19077,(17, 43),4	19081,(17, 46),4	19085,(17, 47),12	19097,(17, 48),28	19125,(17, 49),4	19129,(17, 54),792	19921,(17, 58),28	19949,(17, 61),4	19953,(17, 64),16	19969,(17, 73),40	20009,(17, 81),12	20021,(17, 88),156	20177,(17, 89),4	20181,(17, 95),4	20185,(17, 97),4	20189,(17, 99),28	20217,(17, 102),196	20413,(3, 100),20	20433,(3, 125),4	20437,(3, 143),4	20441,(3, 166),4	20445,(17, 107),8	20453,(17, 110),20	20473,(3, 115),20	20493,(3, 163),8	20501,(17, 116),16	20517,(17, 119),4	20521,(17, 120),28	20549,(17, 121),4	20553,(17, 123),56	20609,(17, 125),124	20733,(17, 130),12	20745,(17, 135),88	20833,(17, 137),72	20905,(17, 142),20	20925,(17, 150),112	21037,(2, 135),60	21097,(3, 144),16	21113,(3, 168),4	21117,(3, 176),4	21121,(17, 158),4	21125,(17, 164),140	21265,(3, 178),4	21269,(3, 179),8	21277,(3, 182),4	21281,(17, 171),28	21309,(17, 178),4	21313,(17, 179),12	21325,(17, 180),4	21329,(17, 181),32	21361,(17, 184),8	21369,(17, 188),4	21373,(17, 191),40	21413,(17, 195),8	21421,(17, 196),4	21425,(2, 150),84	21509,(2, 166),52	21561,(5, 39),44	21605,(3, 188),4	21609,(3, 191),4	21613,(3, 192),8	21621,(5, 44),332	21953,(3, 174),20	21973,(3, 195),4	21977,(6, 35),4	21981,(5, 54),128	22109,(5, 56),8	22117,(5, 57),340	22457,(5, 58),40	22497,(5, 59),16	22513,(5, 61),72	22585,(5, 62),36	22621,(5, 68),252	22873,(5, 72),32	22905,(5, 73),48	22953,(5, 75),16	22969,(5, 76),8	22977,(5, 84),4	22981,(5, 85),28	23009,(5, 86),4	23013,(5, 88),4	23017,(6, 48),4	23021,(5, 118),4	23025,(5, 123),412	23437,(5, 125),4	23441,(5, 128),84	23525,(5, 132),4	23529,(5, 134),72	23601,(5, 137),52	23653,(5, 140),4	23657,(5, 143),28	23685,(5, 147),116	23801,(5, 149),8	23809,(5, 150),16	23825,(5, 151),4	23829,(5, 173),36	23865,(5, 179),92	23957,(5, 180),36	23993,(5, 181),72	24065,(5, 196),64	24129,(5, 198),36	24165,(2, 73),248	24413,(2, 83),508	24921,(2, 120),296	25217,(2, 129),252	25469,(2, 153),168	25637,(2, 177),308	25945,(2, 179),48	25993,(2, 199),116	26109,(3, 57),60	26169,(3, 68),236	26405,(3, 71),264	26669,(3, 81),132	26801,(3, 102),1956	28757,(3, 140),56	28813,(3, 189),24	28837,(6, 38),296	29133,(6, 44),28	29161,(6, 46),28	29189,(6, 52),52	29241,(6, 66),12	29253,(6, 67),12	29265,(6, 72),40	29305,(6, 75),24	29329,(6, 76),12	29341,(6, 77),4	29345,(6, 79),40	29385,(6, 84),316	29701,(6, 88),8	29709,(6, 90),4	29713,(6, 101),8	29721,(6, 104),4	29725,(6, 107),48	29773,(6, 117),68	29841,(6, 118),80	29921,(6, 126),208	30129,(6, 128),4	30133,(6, 130),64	30197,(6, 132),60	30257,(6, 135),60	30317,(6, 137),40	30357,(6, 145),8	30365,(6, 146),28	30393,(6, 148),32	30425,(6, 151),8	30433,(6, 158),16	30449,(6, 161),12	30461,(6, 178),32	30493,(6, 181),176	30669,(6, 182),4	30673,(6, 184),4	30677,(6, 187),16	30693,(6, 193),8	30701,(6, 195),4	30705,(6, 196),80	30785,(6, 200),16	30801,(7, 29),32	30833,(7, 33),216	31049,(7, 34),140	31189,(7, 39),24	31213,(7, 48),24	31237,(7, 51),12	31249,(7, 58),44	31293,(7, 65),4	31297,(7, 68),16	31313,(7, 71),4	31317,(7, 74),184	31501,(7, 80),4	31505,(7, 83),8	31513,(7, 93),4	31517,(7, 95),60	31577,(7, 99),16	31593,(7, 100),4	31597,(7, 101),64	31661,(7, 102),4	31665,(7, 103),8	31673,(7, 104),32	31705,(7, 107),16	31721,(7, 111),20	31741,(7, 115),20	31761,(7, 117),4	31765,(7, 123),8	31773,(7, 125),36	31809,(7, 133),80	31889,(7, 136),12	31901,(7, 137),196	32097,(7, 138),52	32149,(7, 151),56	32205,(7, 158),12	32217,(7, 161),4	32221,(7, 168),12	32233,(7, 171),12	32245,(7, 175),392	32637,(7, 177),44	32681,(7, 180),484	33165,(7, 183),20	33185,(7, 186),92	33277,(7, 187),4	33281,(7, 189),12	33293,(7, 191),4	33297,(7, 193),104	33401,(7, 196),8	33409,(7, 200),8	33417,(10, 25),64	33481,(10, 32),24	33505,(10, 35),668	34173,(10, 37),152	34325,(10, 44),20	34345,(10, 56),4	34349,(10, 58),4	34353,(10, 66),44	34397,(10, 68),32	34429,(10, 73),16	34445,(10, 79),32	34477,(10, 84),8	34485,(10, 87),56	34541,(10, 89),16	34557,(10, 92),84	34641,(10, 97),16	34657,(10, 102),4	34661,(10, 103),28	34689,(10, 104),240	34929,(10, 118),4	34933,(10, 132),4	34937,(10, 135),4	34941,(10, 136),12	34953,(10, 140),20	34973,(10, 146),4	34977,(10, 147),24	35001,(10, 148),4	35005,(10, 151),24	35029,(10, 160),8	35037,(10, 167),60	35097,(10, 171),4	35101,(10, 178),144	35245,(10, 179),12	35257,(10, 181),104	35361,(10, 186),4	35365,(10, 191),44	35409,(10, 195),68	35477,(10, 199),196	35673,(11, 25),64	35737,(11, 32),4	35741,(11, 37),4	35745,(11, 39),8	35753,(11, 43),4	35757,(11, 52),32	35789,(11, 53),40	35829,(11, 57),72	35901,(11, 60),12	35913,(11, 65),12	35925,(11, 71),44	35969,(11, 74),36	36005,(11, 79),4	36009,(11, 82),16	36025,(11, 92),88	36113,(11, 95),52	36165,(11, 103),544	36709,(11, 104),4	36713,(11, 107),4	36717,(11, 111),4	36721,(11, 119),4	36725,(11, 122),300	37025,(11, 123),28	37053,(11, 124),32	37085,(11, 128),8	37093,(11, 129),16	37109,(11, 135),12	37121,(11, 136),4	37125,(11, 141),4	37129,(11, 144),8	37137,(11, 145),248	37385,(11, 147),100	37485,(11, 148),4	37489,(11, 150),92	37581,(11, 163),148	37729,(11, 167),8	37737,(11, 168),104	37841,(11, 169),8	37849,(11, 170),28	37877,(11, 172),32	37909,(11, 174),132	38041,(11, 176),32	38073,(11, 179),4	38077,(11, 180),12	38089,(11, 182),16	38105,(11, 185),8	38113,(11, 186),16	38129,(11, 190),4	38133,(11, 191),8	38141,(11, 193),4	38145,(11, 197),20	38165,(11, 199),4	38169,(14, 38),184	38353,(14, 39),28	38381,(14, 46),32	38413,(14, 47),12	38425,(14, 48),3956	42381,(14, 51),24	42405,(14, 56),4	42409,(14, 62),52	42461,(14, 66),16	42477,(14, 71),4	42481,(14, 74),12	42493,(14, 76),12	42505,(14, 77),172	42677,(14, 78),12	42689,(14, 80),4	42693,(14, 92),24	42717,(14, 95),4	42721,(14, 100),92	42813,(14, 109),8	42821,(14, 115),196	43017,(14, 125),4	43021,(14, 132),20	43041,(14, 134),4	43045,(14, 137),52	43097,(14, 139),28	43125,(14, 140),20	43145,(14, 142),8	43153,(14, 143),200	43353,(14, 144),8	43361,(14, 161),4	43365,(14, 169),12	43377,(14, 170),156	43533,(14, 173),4	43537,(14, 175),4	43541,(14, 177),16	43557,(14, 181),4	43561,(14, 182),4	43565,(14, 183),4	43569,(14, 184),44	43613,(14, 189),28	43641,(14, 190),112	43753,(14, 192),64	43817,(14, 194),12	43829,(14, 195),224	44053,(14, 199),8	44061,(15, 25),4	44065,(15, 29),4	44069,(15, 33),4	44073,(15, 35),12	44085,(15, 37),4	44089,(15, 43),8	44097,(15, 44),904	45001,(15, 47),4	45005,(15, 56),24	45029,(15, 58),36	45065,(15, 59),24	45089,(15, 69),4	45093,(15, 72),4	45097,(15, 73),4	45101,(15, 75),24	45125,(15, 76),8	45133,(15, 78),8	45141,(15, 86),8	45149,(15, 88),12	45161,(15, 90),8	45169,(15, 95),12	45181,(15, 99),20	45201,(15, 103),16	45217,(15, 107),4	45221,(15, 109),24	45245,(15, 124),28	45273,(15, 126),8	45281,(15, 127),116	45397,(15, 135),4	45401,(15, 136),16	45417,(15, 139),12	45429,(15, 141),104	45533,(15, 149),12	45545,(15, 153),4	45549,(15, 155),44	45593,(15, 169),44	45637,(15, 171),20	45657,(15, 175),68	45725,(15, 176),340	46065,(15, 182),144	46209,(15, 187),8	46217,(15, 188),8	46225,(15, 191),20	46245,(15, 193),12	46257,(15, 194),16	46273,(15, 195),4	46277,(15, 198),4	46281,(15, 200),100	46381,(18, 34),4	46385,(18, 35),72	46457,(18, 44),4	46461,(18, 54),4	46465,(18, 56),4	46469,(18, 58),4	46473,(18, 64),4	46477,(18, 67),8	46485,(18, 68),76	46561,(18, 70),20	46581,(18, 71),20	46601,(18, 75),4	46605,(18, 85),12	46617,(18, 91),40	46657,(18, 93),180	46837,(18, 97),24	46861,(18, 102),104	46965,(18, 117),16	46981,(18, 121),24	47005,(18, 134),76	47081,(18, 138),4	47085,(18, 139),144	47229,(18, 140),8	47237,(18, 143),36	47273,(18, 144),4	47277,(18, 145),136	47413,(18, 146),8	47421,(18, 147),20	47441,(18, 149),4	47445,(18, 159),12	47457,(18, 166),12	47469,(18, 178),4	47473,(18, 187),16	47489,(18, 189),36	47525,(18, 190),16	47541,(18, 191),4	47545,(18, 192),4	47549,(18, 193),124	47673,(18, 198),12	47685,(18, 200),4	47689,(19, 34),20	47709,(19, 35),24	47733,(19, 38),44	47777,(19, 39),8	47785,(19, 44),24	47809,(19, 48),4	47813,(19, 53),16	47829,(19, 56),4	47833,(19, 59),4	47837,(19, 62),16	47853,(19, 64),4	47857,(19, 72),56	47913,(19, 73),16	47929,(19, 75),12	47941,(19, 81),104	48045,(19, 85),16	48061,(19, 91),4	48065,(19, 93),24	48089,(19, 95),4	48093,(19, 109),20	48113,(19, 110),16	48129,(19, 117),12	48141,(19, 119),12	48153,(19, 122),4	48157,(19, 123),12	48169,(19, 125),12	48181,(19, 126),32	48213,(19, 127),4	48217,(19, 128),40	48257,(19, 129),4	48261,(19, 131),4	48265,(19, 132),12	48277,(19, 137),12	48289,(19, 139),4	48293,(19, 144),12	48305,(19, 155),12	48317,(19, 160),8	48325,(19, 162),24	48349,(19, 168),16	48365,(19, 169),84	48449,(19, 177),64	48513,(19, 180),8	48521,(19, 182),4	48525,(19, 184),4	48529,(19, 185),4	48533,(19, 190),336	48869,(19, 191),48	48917,(19, 194),284	49201,(19, 200),116	49317,(108, 201),4	49321,(21, 201),4	49325,(40, 201),4	49329,(156, 201),4	49333,(31, 201),4	49337,(42, 201),4	49341,(26, 201),4	49345,(98, 201),4	49349,(106, 201),4	49353,(63, 201),4	49357,(96, 201),4	49361,(112, 201),4	49365,(157, 201),4	49369,(23, 201),4	49373,(28, 201),4	49377,(30, 201),4	49381,(36, 201),4	49385,(105, 201),4	49389,(114, 201),4	49393,(152, 201),4	49397,(154, 201),4	49401,(165, 201),4	49405,(22, 201),4	49409,(24, 201),4	49413,(27, 201),4	49417,(41, 201),4	49421,(45, 201),4	49425,(94, 201),4	
21,(0, 3),20	41,(2, 28),4	63,(4, 23),4	81,(0, 7),20	101,(2, 114),20	141,(0, 11),20	161,(6, 23),16	177,(6, 41),4	201,(0, 15),20	221,(6, 152),8	229,(6, 156),4	235,(4, 105),20	255,(8, 31),4	261,(0, 19),20	281,(2, 36),192	473,(2, 96),44	517,(2, 112),72	589,(4, 36),64	653,(4, 98),60	713,(4, 106),16	729,(4, 114),28	757,(6, 98),88	845,(6, 105),476	1321,(6, 106),16	1337,(6, 154),72	1409,(6, 157),4	1413,(8, 28),92	1505,(8, 36),48	1553,(10, 23),160	1713,(10, 41),112	1825,(10, 94),40	1865,(14, 157),4	1869,(18, 112),8	1877,(18, 156),4	1881,(8, 96),4	1885,(8, 105),8	1893,(8, 152),32	1925,(8, 156),176	2101,(10, 154),164	2265,(10, 157),40	2305,(12, 31),80	2385,(12, 94),36	2421,(12, 112),8	2429,(14, 28),224	2653,(14, 98),36	2689,(14, 114),36	2725,(16, 36),20	2745,(16, 94),40	2785,(16, 98),4	2789,(16, 152),4	2793,(18, 28),136	2929,(20, 23),4	2933,(20, 28),20	2953,(20, 41),180	3133,(20, 94),12	3145,(20, 98),196	3341,(20, 105),4	3345,(20, 157),396	5553,(18, 105),748	8341,(9, 94),44	8385,(9, 98),20	8517,(9, 106),4	13849,(13, 96),4	13865,(13, 105),8	13873,(13, 112),72	14033,(13, 114),56	15205,(13, 152),24	15229,(13, 157),108	15697,(1, 23),12	15709,(1, 28),36	17549,(1, 94),32	18297,(1, 152),4	18981,(17, 36),96	20413,(17, 105),32	20473,(17, 114),28	21037,(17, 152),12	21049,(17, 154),72	21605,(5, 41),16	23017,(5, 94),4	
1,(0, 2),20	61,(0, 6),20	81,(4, 30),4	111,(7, 165),8	121,(0, 10),20	141,(3, 108),12	181,(0, 14),20	201,(11, 22),32	241,(0, 18),20	261,(4, 45),40	301,(9, 22),8	309,(8, 24),4	313,(11, 30),88	401,(15, 165),20	441,(9, 30),4	453,(8, 108),4	457,(19, 27),52	757,(12, 165),72	829,(16, 22),20	849,(16, 24),88	981,(7, 30),320	1301,(16, 165),48	1553,(8, 45),328	11769,(13, 30),12	15689,(1, 22),8	15769,(1, 30),32	18393,(17, 22),4	18397,(17, 24),560	18957,(17, 27),4	21265,(17, 165),16	21425,(5, 22),20	21445,(5, 24),112	21557,(5, 27),4	21953,(5, 45),28	
23,(2, 21),4	27,(2, 42),4	43,(3, 21),60	103,(3, 63),8	111,(4, 40),72	183,(4, 42),52	235,(7, 40),28	263,(11, 26),4	267,(15, 21),4	301,(8, 42),4	313,(8, 40),92	405,(8, 63),48	457,(12, 42),132	589,(6, 26),60	649,(6, 42),32	681,(7, 26),300	981,(16, 21),112	1093,(20, 21),20	1301,(15, 42),40	1341,(19, 63),20	1413,(18, 40),8	1421,(18, 63),80	1501,(19, 40),376	2429,(16, 26),216	2929,(18, 42),2624	5553,(20, 26),248	5801,(20, 63),5296	
# Outgoing
63,(4, 23),4	81,(4, 30),4	111,(4, 40),72	183,(4, 42),52	235,(4, 105),20	255,(8, 31),4	261,(4, 45),40	301,(8, 42),4	309,(8, 24),4	313,(8, 40),92	405,(8, 63),48	453,(8, 108),4	457,(12, 42),132	589,(4, 36),64	653,(4, 98),60	713,(4, 106),16	729,(4, 114),28	757,(12, 165),72	829,(16, 22),20	849,(16, 24),88	981,(16, 21),112	1093,(20, 21),20	1301,(16, 165),48	1413,(8, 28),92	1505,(8, 36),48	1553,(8, 45),328	1881,(8, 96),4	1885,(8, 105),8	1893,(8, 152),32	1925,(8, 156),176	2305,(12, 31),80	2385,(12, 94),36	2421,(12, 112),8	2429,(16, 26),216	2725,(16, 36),20	2745,(16, 94),40	2785,(16, 98),4	2789,(16, 152),4	2929,(20, 23),4	2933,(20, 28),20	2953,(20, 41),180	3133,(20, 94),12	3145,(20, 98),196	3341,(20, 105),4	3345,(20, 157),396	5553,(20, 26),248	5801,(20, 63),5296	
43,(3, 21),60	103,(3, 63),8	111,(7, 165),8	141,(3, 108),12	201,(11, 22),32	235,(7, 40),28	263,(11, 26),4	267,(15, 21),4	301,(3, 34),4	305,(3, 38),4	313,(11, 30),88	401,(15, 165),20	441,(3, 39),4	457,(19, 27),52	681,(7, 26),300	981,(7, 30),320	1301,(15, 42),40	1341,(19, 63),20	1501,(19, 40),376	15329,(3, 48),4	15333,(3, 55),4	15797,(3, 72),4	18297,(3, 121),4	18957,(3, 123),4	19069,(3, 69),8	20413,(3, 100),20	20433,(3, 125),4	20437,(3, 143),4	20441,(3, 166),4	20473,(3, 115),20	20493,(3, 163),8	21097,(3, 144),16	21113,(3, 168),4	21117,(3, 176),4	21265,(3, 178),4	21269,(3, 179),8	21277,(3, 182),4	21605,(3, 188),4	21609,(3, 191),4	21613,(3, 192),8	21953,(3, 174),20	21973,(3, 195),4	26109,(3, 57),60	26169,(3, 68),236	26405,(3, 71),264	26669,(3, 81),132	26801,(3, 102),1956	28757,(3, 140),56	28813,(3, 189),24	30801,(7, 29),32	30833,(7, 33),216	31049,(7, 34),140	31189,(7, 39),24	31213,(7, 48),24	31237,(7, 51),12	31249,(7, 58),44	31293,(7, 65),4	31297,(7, 68),16	31313,(7, 71),4	31317,(7, 74),184	31501,(7, 80),4	31505,(7, 83),8	31513,(7, 93),4	31517,(7, 95),60	31577,(7, 99),16	31593,(7, 100),4	31597,(7, 101),64	31661,(7, 102),4	31665,(7, 103),8	31673,(7, 104),32	31705,(7, 107),16	31721,(7, 111),20	31741,(7, 115),20	31761,(7, 117),4	31765,(7, 123),8	31773,(7, 125),36	31809,(7, 133),80	31889,(7, 136),12	31901,(7, 137),196	32097,(7, 138),52	32149,(7, 151),56	32205,(7, 158),12	32217,(7, 161),4	32221,(7, 168),12	32233,(7, 171),12	32245,(7, 175),392	32637,(7, 177),44	32681,(7, 180),484	33165,(7, 183),20	33185,(7, 186),92	33277,(7, 187),4	33281,(7, 189),12	33293,(7, 191),4	33297,(7, 193),104	33401,(7, 196),8	33409,(7, 200),8	35673,(11, 25),64	35737,(11, 32),4	35741,(11, 37),4	35745,(11, 39),8	35753,(11, 43),4	35757,(11, 52),32	35789,(11, 53),40	35829,(11, 57),72	35901,(11, 60),12	35913,(11, 65),12	35925,(11, 71),44	35969,(11, 74),36	36005,(11, 79),4	36009,(11, 82),16	36025,(11, 92),88	36113,(11, 95),52	36165,(11, 103),544	36709,(11, 104),4	36713,(11, 107),4	36717,(11, 111),4	36721,(11, 119),4	36725,(11, 122),300	37025,(11, 123),28	37053,(11, 124),32	37085,(11, 128),8	37093,(11, 129),16	37109,(11, 135),12	37121,(11, 136),4	37125,(11, 141),4	37129,(11, 144),8	37137,(11, 145),248	37385,(11, 147),100	37485,(11, 148),4	37489,(11, 150),92	37581,(11, 163),148	37729,(11, 167),8	37737,(11, 168),104	37841,(11, 169),8	37849,(11, 170),28	37877,(11, 172),32	37909,(11, 174),132	38041,(11, 176),32	38073,(11, 179),4	38077,(11, 180),12	38089,(11, 182),16	38105,(11, 185),8	38113,(11, 186),16	38129,(11, 190),4	38133,(11, 191),8	38141,(11, 193),4	38145,(11, 197),20	38165,(11, 199),4	44061,(15, 25),4	44065,(15, 29),4	44069,(15, 33),4	44073,(15, 35),12	44085,(15, 37),4	44089,(15, 43),8	44097,(15, 44),904	45001,(15, 47),4	45005,(15, 56),24	45029,(15, 58),36	45065,(15, 59),24	45089,(15, 69),4	45093,(15, 72),4	45097,(15, 73),4	45101,(15, 75),24	45125,(15, 76),8	45133,(15, 78),8	45141,(15, 86),8	45149,(15, 88),12	45161,(15, 90),8	45169,(15, 95),12	45181,(15, 99),20	45201,(15, 103),16	45217,(15, 107),4	45221,(15, 109),24	45245,(15, 124),28	45273,(15, 126),8	45281,(15, 127),116	45397,(15, 135),4	45401,(15, 136),16	45417,(15, 139),12	45429,(15, 141),104	45533,(15, 149),12	45545,(15, 153),4	45549,(15, 155),44	45593,(15, 169),44	45637,(15, 171),20	45657,(15, 175),68	45725,(15, 176),340	46065,(15, 182),144	46209,(15, 187),8	46217,(15, 188),8	46225,(15, 191),20	46245,(15, 193),12	46257,(15, 194),16	46273,(15, 195),4	46277,(15, 198),4	46281,(15, 200),100	47689,(19, 34),20	47709,(19, 35),24	47733,(19, 38),44	47777,(19, 39),8	47785,(19, 44),24	47809,(19, 48),4	47813,(19, 53),16	47829,(19, 56),4	47833,(19, 59),4	47837,(19, 62),16	47853,(19, 64),4	47857,(19, 72),56	47913,(19, 73),16	47929,(19, 75),12	47941,(19, 81),104	48045,(19, 85),16	48061,(19, 91),4	48065,(19, 93),24	48089,(19, 95),4	48093,(19, 109),20	48113,(19, 110),16	48129,(19, 117),12	48141,(19, 119),12	48153,(19, 122),4	48157,(19, 123),12	48169,(19, 125),12	48181,(19, 126),32	48213,(19, 127),4	48217,(19, 128),40	48257,(19, 129),4	48261,(19, 131),4	48265,(19, 132),12	48277,(19, 137),12	48289,(19, 139),4	48293,(19, 144),12	48305,(19, 155),12	48317,(19, 160),8	48325,(19, 162),24	48349,(19, 168),16	48365,(19, 169),84	48449,(19, 177),64	48513,(19, 180),8	48521,(19, 182),4	48525,(19, 184),4	48529,(19, 185),4	48533,(19, 190),336	48869,(19, 191),48	48917,(19, 194),284	49201,(19, 200),116	49329,(156, 201),4	49333,(31, 201),4	49345,(98, 201),4	49349,(106, 201),4	49357,(96, 201),4	49361,(112, 201),4	49365,(157, 201),4	49369,(23, 201),4	49373,(28, 201),4	49381,(36, 201),4	49385,(105, 201),4	49389,(114, 201),4	49393,(152, 201),4	49397,(154, 201),4	49417,(41, 201),4	49425,(94, 201),4	
23,(2, 21),4	27,(2, 42),4	41,(2, 28),4	61,(2, 33),4	65,(2, 35),28	93,(2, 74),4	97,(2, 79),4	101,(2, 114),20	121,(2, 43),32	153,(2, 99),8	161,(6, 23),16	177,(6, 41),4	181,(2, 59),24	205,(2, 72),12	217,(2, 126),4	221,(6, 152),8	229,(6, 156),4	241,(2, 81),20	261,(2, 92),12	273,(2, 115),8	281,(2, 36),192	473,(2, 96),44	517,(2, 112),72	589,(6, 26),60	649,(6, 42),32	757,(6, 98),88	845,(6, 105),476	1321,(6, 106),16	1337,(6, 154),72	1409,(6, 157),4	1413,(18, 40),8	1421,(18, 63),80	1553,(10, 23),160	1713,(10, 41),112	1825,(10, 94),40	1865,(14, 157),4	1869,(18, 112),8	1877,(18, 156),4	2101,(10, 154),164	2265,(10, 157),40	2429,(14, 28),224	2653,(14, 98),36	2689,(14, 114),36	2793,(18, 28),136	2929,(18, 42),2624	5553,(18, 105),748	8341,(2, 50),56	8397,(2, 133),4	8401,(2, 140),4	8517,(2, 145),4	11769,(2, 117),12	13849,(2, 178),4	13865,(2, 71),80	14033,(2, 91),48	14081,(2, 196),8	15205,(2, 44),124	15689,(2, 107),16	15705,(2, 116),16	15721,(2, 132),12	15733,(2, 144),12	15769,(2, 161),16	15785,(2, 169),12	17549,(2, 170),16	17565,(2, 187),16	18393,(2, 32),300	18693,(2, 48),152	18845,(2, 86),112	18981,(2, 124),40	19021,(2, 162),48	21037,(2, 135),60	21425,(2, 150),84	21509,(2, 166),52	21977,(6, 35),4	23017,(6, 48),4	24165,(2, 73),248	24413,(2, 83),508	24921,(2, 120),296	25217,(2, 129),252	25469,(2, 153),168	25637,(2, 177),308	25945,(2, 179),48	25993,(2, 199),116	28837,(6, 38),296	29133,(6, 44),28	29161,(6, 46),28	29189,(6, 52),52	29241,(6, 66),12	29253,(6, 67),12	29265,(6, 72),40	29305,(6, 75),24	29329,(6, 76),12	29341,(6, 77),4	29345,(6, 79),40	29385,(6, 84),316	29701,(6, 88),8	29709,(6, 90),4	29713,(6, 101),8	29721,(6, 104),4	29725,(6, 107),48	29773,(6, 117),68	29841,(6, 118),80	29921,(6, 126),208	30129,(6, 128),4	30133,(6, 130),64	30197,(6, 132),60	30257,(6, 135),60	30317,(6, 137),40	30357,(6, 145),8	30365,(6, 146),28	30393,(6, 148),32	30425,(6, 151),8	30433,(6, 158),16	30449,(6, 161),12	30461,(6, 178),32	30493,(6, 181),176	30669,(6, 182),4	30673,(6, 184),4	30677,(6, 187),16	30693,(6, 193),8	30701,(6, 195),4	30705,(6, 196),80	30785,(6, 200),16	33417,(10, 25),64	33481,(10, 32),24	33505,(10, 35),668	34173,(10, 37),152	34325,(10, 44),20	34345,(10, 56),4	34349,(10, 58),4	34353,(10, 66),44	34397,(10, 68),32	34429,(10, 73),16	34445,(10, 79),32	34477,(10, 84),8	34485,(10, 87),56	34541,(10, 89),16	34557,(10, 92),84	34641,(10, 97),16	34657,(10, 102),4	34661,(10, 103),28	34689,(10, 104),240	34929,(10, 118),4	34933,(10, 132),4	34937,(10, 135),4	34941,(10, 136),12	34953,(10, 140),20	34973,(10, 146),4	34977,(10, 147),24	35001,(10, 148),4	35005,(10, 151),24	35029,(10, 160),8	35037,(10, 167),60	35097,(10, 171),4	35101,(10, 178),144	35245,(10, 179),12	35257,(10, 181),104	35361,(10, 186),4	35365,(10, 191),44	35409,(10, 195),68	35477,(10, 199),196	38169,(14, 38),184	38353,(14, 39),28	38381,(14, 46),32	38413,(14, 47),12	38425,(14, 48),3956	42381,(14, 51),24	42405,(14, 56),4	42409,(14, 62),52	42461,(14, 66),16	42477,(14, 71),4	42481,(14, 74),12	42493,(14, 76),12	42505,(14, 77),172	42677,(14, 78),12	42689,(14, 80),4	42693,(14, 92),24	42717,(14, 95),4	42721,(14, 100),92	42813,(14, 109),8	42821,(14, 115),196	43017,(14, 125),4	43021,(14, 132),20	43041,(14, 134),4	43045,(14, 137),52	43097,(14, 139),28	43125,(14, 140),20	43145,(14, 142),8	43153,(14, 143),200	43353,(14, 144),8	43361,(14, 161),4	43365,(14, 169),12	43377,(14, 170),156	43533,(14, 173),4	43537,(14, 175),4	43541,(14, 177),16	43557,(14, 181),4	43561,(14, 182),4	43565,(14, 183),4	43569,(14, 184),44	43613,(14, 189),28	43641,(14, 190),112	43753,(14, 192),64	43817,(14, 194),12	43829,(14, 195),224	44053,(14, 199),8	46381,(18, 34),4	46385,(18, 35),72	46457,(18, 44),4	46461,(18, 54),4	46465,(18, 56),4	46469,(18, 58),4	46473,(18, 64),4	46477,(18, 67),8	46485,(18, 68),76	46561,(18, 70),20	46581,(18, 71),20	46601,(18, 75),4	46605,(18, 85),12	46617,(18, 91),40	46657,(18, 93),180	46837,(18, 97),24	46861,(18, 102),104	46965,(18, 117),16	46981,(18, 121),24	47005,(18, 134),76	47081,(18, 138),4	47085,(18, 139),144	47229,(18, 140),8	47237,(18, 143),36	47273,(18, 144),4	47277,(18, 145),136	47413,(18, 146),8	47421,(18, 147),20	47441,(18, 149),4	47445,(18, 159),12	47457,(18, 166),12	47469,(18, 178),4	47473,(18, 187),16	47489,(18, 189),36	47525,(18, 190),16	47541,(18, 191),4	47545,(18, 192),4	47549,(18, 193),124	47673,(18, 198),12	47685,(18, 200),4	49317,(108, 201),4	49377,(30, 201),4	49401,(165, 201),4	49405,(22, 201),4	49409,(24, 201),4	49413,(27, 201),4	49421,(45, 201),4	
1,(0, 2),20	21,(0, 3),20	41,(0, 4),20	61,(0, 6),20	81,(0, 7),20	101,(0, 8),20	121,(0, 10),20	141,(0, 11),20	161,(0, 12),20	181,(0, 14),20	201,(0, 15),20	221,(0, 16),20	241,(0, 18),20	261,(0, 19),20	281,(0, 20),20	301,(9, 22),8	309,(9, 29),132	441,(9, 30),4	445,(9, 32),268	713,(9, 33),40	753,(9, 34),276	1029,(9, 35),44	1073,(9, 44),4	1077,(9, 51),8	1085,(9, 52),364	1449,(9, 53),4	1453,(9, 54),4	1457,(9, 55),32	1489,(9, 56),164	1653,(9, 57),4	1657,(9, 59),4	1661,(9, 62),6556	8217,(9, 68),4	8221,(9, 74),4	8225,(9, 80),72	8297,(9, 83),40	8337,(9, 84),4	8341,(9, 94),44	8385,(9, 98),20	8405,(9, 102),60	8465,(9, 104),52	8517,(9, 106),4	8521,(9, 107),8	8529,(9, 109),4	8533,(9, 113),40	8573,(9, 115),32	8605,(9, 117),424	9029,(9, 121),4	9033,(9, 127),28	9061,(9, 129),4	9065,(9, 135),76	9141,(9, 139),8	9149,(9, 145),12	9161,(9, 147),16	9177,(9, 158),12	9189,(9, 160),256	9445,(9, 163),48	9493,(9, 167),16	9509,(9, 171),288	9797,(9, 181),20	9817,(9, 186),16	9833,(9, 195),1252	11085,(13, 29),684	11769,(13, 30),12	11781,(13, 34),28	11809,(13, 38),32	11841,(13, 55),44	11885,(13, 60),12	11897,(13, 65),76	11973,(13, 67),16	11989,(13, 70),1724	13713,(13, 71),40	13753,(13, 73),4	13757,(13, 75),4	13761,(13, 78),4	13765,(13, 80),12	13777,(13, 82),4	13781,(13, 87),68	13849,(13, 96),4	13853,(13, 101),4	13857,(13, 103),8	13865,(13, 105),8	13873,(13, 112),72	13945,(13, 113),88	14033,(13, 114),56	14089,(13, 125),204	14293,(13, 126),32	14325,(13, 129),4	14329,(13, 130),112	14441,(13, 131),84	14525,(13, 132),240	14765,(13, 135),20	14785,(13, 140),4	14789,(13, 142),308	15097,(13, 146),108	15205,(13, 152),24	15229,(13, 157),108	15337,(13, 161),80	15417,(13, 164),4	15421,(13, 170),20	15441,(13, 173),108	15549,(13, 179),4	15553,(13, 182),4	15557,(13, 184),124	15681,(13, 191),4	15685,(13, 192),4	15689,(1, 22),8	15697,(1, 23),12	15709,(1, 28),36	15745,(1, 29),24	15769,(1, 30),32	15801,(1, 32),4	15805,(1, 33),56	15861,(1, 35),4	15865,(1, 43),68	15933,(1, 46),4	15937,(1, 53),8	15945,(1, 57),96	16041,(1, 58),8	16049,(1, 59),4	16053,(1, 66),1356	17409,(1, 69),36	17445,(1, 71),28	17473,(1, 74),4	17477,(1, 76),32	17509,(1, 79),24	17533,(1, 81),4	17537,(1, 87),4	17541,(1, 91),8	17549,(1, 94),32	17581,(1, 95),32	17613,(1, 109),96	17709,(1, 111),16	17725,(1, 115),4	17729,(1, 122),32	17761,(1, 124),68	17829,(1, 135),112	17941,(1, 141),116	18057,(1, 143),20	18077,(1, 145),52	18129,(1, 146),4	18133,(1, 149),164	18297,(1, 152),4	18301,(1, 161),8	18309,(1, 164),16	18325,(1, 167),28	18353,(1, 171),4	18357,(1, 185),8	18365,(1, 186),8	18373,(1, 187),4	18377,(1, 188),12	18389,(1, 197),4	18393,(17, 22),4	18397,(17, 24),560	18957,(17, 27),4	18961,(17, 29),16	18977,(17, 35),4	18981,(17, 36),96	19077,(17, 43),4	19081,(17, 46),4	19085,(17, 47),12	19097,(17, 48),28	19125,(17, 49),4	19129,(17, 54),792	19921,(17, 58),28	19949,(17, 61),4	19953,(17, 64),16	19969,(17, 73),40	20009,(17, 81),12	20021,(17, 88),156	20177,(17, 89),4	20181,(17, 95),4	20185,(17, 97),4	20189,(17, 99),28	20217,(17, 102),196	20413,(17, 105),32	20445,(17, 107),8	20453,(17, 110),20	20473,(17, 114),28	20501,(17, 116),16	20517,(17, 119),4	20521,(17, 120),28	20549,(17, 121),4	20553,(17, 123),56	20609,(17, 125),124	20733,(17, 130),12	20745,(17, 135),88	20833,(17, 137),72	20905,(17, 142),20	20925,(17, 150),112	21037,(17, 152),12	21049,(17, 154),72	21121,(17, 158),4	21125,(17, 164),140	21265,(17, 165),16	21281,(17, 171),28	21309,(17, 178),4	21313,(17, 179),12	21325,(17, 180),4	21329,(17, 181),32	21361,(17, 184),8	21369,(17, 188),4	21373,(17, 191),40	21413,(17, 195),8	21421,(17, 196),4	21425,(5, 22),20	21445,(5, 24),112	21557,(5, 27),4	21561,(5, 39),44	21605,(5, 41),16	21621,(5, 44),332	21953,(5, 45),28	21981,(5, 54),128	22109,(5, 56),8	22117,(5, 57),340	22457,(5, 58),40	22497,(5, 59),16	22513,(5, 61),72	22585,(5, 62),36	22621,(5, 68),252	22873,(5, 72),32	22905,(5, 73),48	22953,(5, 75),16	22969,(5, 76),8	22977,(5, 84),4	22981,(5, 85),28	23009,(5, 86),4	23013,(5, 88),4	23017,(5, 94),4	23021,(5, 118),4	23025,(5, 123),412	23437,(5, 125),4	23441,(5, 128),84	23525,(5, 132),4	23529,(5, 134),72	23601,(5, 137),52	23653,(5, 140),4	23657,(5, 143),28	23685,(5, 147),116	23801,(5, 149),8	23809,(5, 150),16	23825,(5, 151),4	23829,(5, 173),36	23865,(5, 179),92	23957,(5, 180),36	23993,(5, 181),72	24065,(5, 196),64	24129,(5, 198),36	49321,(21, 201),4	49325,(40, 201),4	49337,(42, 201),4	49341,(26, 201),4	49353,(63, 201),4	
