1341
# CPU
0,0,1	1,3,25	40,65,25	65,15,25	90,74,25	115,60,25	161,50,25	
3,7,25	30,18,25	55,55,25	80,33,25	105,64,25	130,70,25	155,56,25	182,69,25	207,52,25	244,30,25	
4,4,25	29,42,25	54,10,25	79,28,25	104,63,25	129,12,25	154,13,25	179,79,25	204,34,25	229,80,25	255,71,25	300,76,25	388,57,25	
6,8,25	31,25,25	60,75,25	85,19,25	121,44,25	155,21,25	215,45,25	
7,5,25	32,58,25	57,27,25	82,48,25	107,16,25	132,38,25	157,9,25	182,11,25	207,14,25	252,22,25	285,51,25	1340,81,1	
8,1,25	35,61,25	60,54,25	85,47,25	110,40,25	140,59,25	172,26,25	197,23,25	238,29,25	289,73,25	408,53,25	
43,62,25	68,32,25	93,24,25	195,67,25	
49,72,25	74,36,25	101,39,25	230,68,25	
5,6,25	30,17,25	55,31,25	80,49,25	105,41,25	130,20,25	176,66,25	
2,2,25	36,35,25	61,37,25	86,43,25	114,46,25	139,77,25	203,78,25	
# Incoming
30,(2, 65),2	32,(7, 65),3	35,(6, 65),4	39,(1, 65),1	41,(8, 15),1	42,(4, 15),1	43,(2, 15),1	44,(1, 15),1	45,(8, 74),2	48,(7, 15),11	59,(8, 60),15	74,(5, 74),9	83,(1, 74),6	90,(7, 60),2	97,(6, 60),4	101,(1, 60),3	113,(2, 50),17	132,(1, 50),5	144,(4, 50),17	
2,(0, 7),1	27,(3, 18),1	29,(4, 18),1	34,(6, 56),1	36,(8, 55),1	37,(3, 55),1	39,(8, 69),1	41,(1, 64),1	43,(1, 52),1	44,(3, 52),1	47,(6, 70),2	49,(1, 55),5	54,(6, 33),9	63,(5, 33),5	68,(2, 64),6	74,(8, 64),10	84,(8, 56),4	92,(5, 64),2	94,(3, 70),11	105,(2, 70),5	110,(2, 56),3	113,(3, 69),6	121,(5, 70),8	135,(5, 56),11	146,(5, 69),16	165,(4, 69),5	185,(8, 52),18	203,(8, 30),8	217,(4, 30),27	
3,(0, 4),1	26,(3, 42),1	30,(7, 63),1	34,(8, 10),1	35,(7, 13),1	36,(2, 63),1	38,(2, 10),2	40,(7, 10),4	45,(1, 63),1	47,(3, 34),3	50,(2, 28),12	62,(5, 34),1	64,(2, 79),1	71,(6, 63),3	74,(6, 71),1	76,(3, 80),1	77,(6, 76),2	83,(5, 63),7	90,(8, 13),6	96,(8, 79),2	99,(7, 12),3	102,(8, 12),17	119,(3, 13),6	125,(1, 13),7	132,(6, 79),11	146,(3, 57),5	155,(1, 79),6	163,(2, 34),1	164,(1, 34),7	172,(8, 34),9	181,(7, 80),6	187,(1, 80),14	201,(7, 71),1	203,(2, 80),1	204,(5, 71),20	224,(7, 76),2	226,(8, 76),4	231,(2, 57),13	252,(1, 71),3	255,(1, 76),7	271,(2, 76),29	300,(7, 57),12	312,(1, 57),76	
5,(0, 8),1	30,(6, 25),1	37,(4, 75),2	39,(3, 44),1	40,(2, 75),3	46,(4, 19),2	51,(6, 45),1	53,(5, 45),1	54,(1, 75),6	63,(2, 21),1	67,(1, 19),9	77,(7, 19),6	92,(7, 44),7	101,(6, 44),9	110,(5, 44),11	121,(7, 21),3	124,(1, 45),1	125,(3, 21),14	140,(4, 21),4	144,(1, 21),11	155,(3, 45),6	164,(2, 45),39	203,(7, 45),12	
6,(0, 5),1	28,(3, 58),1	29,(7, 58),1	30,(4, 16),1	31,(6, 58),1	32,(4, 27),5	39,(6, 27),1	40,(1, 27),1	41,(6, 16),1	42,(3, 48),1	43,(4, 48),3	46,(3, 16),1	48,(2, 48),1	49,(6, 48),2	51,(8, 16),2	53,(6, 9),1	58,(8, 22),1	62,(2, 16),1	66,(2, 11),1	68,(3, 11),8	76,(6, 11),1	77,(1, 16),2	79,(6, 14),1	80,(1, 38),1	81,(1, 11),1	92,(2, 38),11	104,(1, 9),9	113,(7, 9),3	124,(7, 14),7	131,(2, 14),7	139,(3, 22),7	161,(4, 11),4	181,(8, 14),4	187,(7, 51),4	202,(17, 81),17	230,(1, 22),22	252,(4, 51),33	285,(42, 81),17	312,(18, 81),17	329,(25, 81),17	346,(35, 81),17	363,(65, 81),17	388,(61, 81),17	405,(62, 81),17	422,(72, 81),17	439,(10, 81),17	456,(31, 81),17	473,(55, 81),17	490,(54, 81),17	507,(75, 81),17	524,(37, 81),17	541,(15, 81),17	558,(32, 81),17	575,(36, 81),17	592,(28, 81),17	609,(49, 81),17	626,(33, 81),17	643,(47, 81),17	660,(19, 81),17	677,(43, 81),17	694,(74, 81),17	711,(24, 81),17	728,(39, 81),17	745,(63, 81),17	762,(64, 81),17	779,(41, 81),17	796,(40, 81),17	813,(46, 81),17	830,(60, 81),17	847,(44, 81),17	864,(12, 81),17	881,(70, 81),17	898,(20, 81),17	915,(77, 81),17	932,(59, 81),17	949,(13, 81),17	966,(56, 81),17	983,(21, 81),17	1000,(50, 81),17	1017,(26, 81),17	1034,(66, 81),17	1051,(79, 81),17	1068,(69, 81),17	1085,(67, 81),17	1102,(23, 81),17	1119,(78, 81),17	1136,(34, 81),17	1153,(52, 81),17	1170,(45, 81),17	1187,(80, 81),17	1204,(68, 81),17	1221,(29, 81),17	1238,(30, 81),17	1255,(71, 81),17	1272,(73, 81),17	1289,(76, 81),17	1306,(57, 81),17	1323,(53, 81),17	
7,(0, 1),1	31,(7, 40),1	32,(6, 61),2	34,(5, 61),1	37,(8, 54),1	38,(3, 54),1	40,(6, 40),1	43,(3, 59),1	47,(5, 54),6	53,(8, 40),2	55,(8, 23),3	59,(5, 59),2	61,(5, 53),1	62,(4, 47),3	65,(2, 59),1	68,(5, 47),6	74,(2, 40),18	94,(5, 40),15	110,(6, 26),1	111,(6, 23),2	116,(7, 26),4	120,(6, 29),6	126,(4, 59),14	140,(2, 26),23	163,(8, 26),9	176,(4, 23),15	191,(3, 29),7	198,(6, 73),4	204,(2, 29),27	231,(7, 29),7	238,(3, 73),12	250,(2, 73),21	271,(8, 73),18	300,(2, 53),46	346,(4, 53),19	365,(8, 53),43	
32,(2, 62),4	36,(7, 62),2	38,(8, 62),1	39,(5, 62),3	42,(1, 62),1	44,(2, 32),4	48,(4, 32),5	53,(3, 24),3	59,(7, 32),1	60,(1, 32),7	67,(2, 24),1	68,(4, 24),9	83,(7, 24),7	90,(5, 24),2	119,(8, 67),5	143,(6, 67),23	170,(4, 67),3	173,(5, 67),22	
29,(3, 72),8	37,(2, 72),1	38,(7, 72),1	39,(4, 72),1	40,(8, 72),1	41,(3, 36),1	42,(5, 72),5	47,(1, 72),2	49,(2, 36),1	50,(8, 36),1	51,(3, 39),1	52,(6, 68),1	53,(4, 36),2	55,(5, 36),3	58,(5, 39),1	60,(7, 36),14	77,(4, 39),5	82,(6, 39),5	89,(1, 39),12	103,(2, 68),2	124,(8, 68),7	162,(5, 68),8	174,(7, 68),6	191,(4, 68),26	217,(1, 68),13	
4,(0, 6),1	27,(2, 17),3	35,(8, 31),1	37,(5, 41),1	38,(5, 20),1	40,(3, 20),1	42,(8, 41),2	44,(7, 31),4	55,(4, 49),7	62,(3, 41),6	74,(7, 49),3	79,(1, 20),1	82,(4, 41),15	102,(7, 20),11	113,(4, 20),12	130,(2, 66),1	131,(7, 66),43	174,(4, 66),2	
1,(0, 2),1	31,(8, 35),3	35,(5, 35),1	36,(5, 43),1	39,(7, 46),1	40,(4, 37),2	42,(6, 37),5	47,(8, 46),1	48,(8, 77),1	63,(6, 43),8	76,(1, 43),1	77,(3, 46),15	92,(6, 46),5	97,(4, 46),16	113,(1, 46),1	114,(1, 77),4	125,(4, 77),1	129,(5, 77),6	135,(8, 78),27	166,(6, 78),22	195,(5, 78),8	
# Outgoing
1,(0, 2),1	2,(0, 7),1	3,(0, 4),1	4,(0, 6),1	5,(0, 8),1	6,(0, 5),1	7,(0, 1),1	26,(3, 42),1	27,(3, 18),1	28,(3, 58),1	29,(3, 72),8	37,(3, 55),1	38,(3, 54),1	39,(3, 44),1	40,(3, 20),1	41,(3, 36),1	42,(3, 48),1	43,(3, 59),1	44,(3, 52),1	46,(3, 16),1	47,(3, 34),3	51,(3, 39),1	53,(3, 24),3	62,(3, 41),6	68,(3, 11),8	76,(3, 80),1	77,(3, 46),15	94,(3, 70),11	113,(3, 69),6	119,(3, 13),6	125,(3, 21),14	139,(3, 22),7	146,(3, 57),5	155,(3, 45),6	191,(3, 29),7	238,(3, 73),12	363,(65, 81),17	541,(15, 81),17	694,(74, 81),17	830,(60, 81),17	1000,(50, 81),17	
29,(7, 58),1	30,(7, 63),1	31,(7, 40),1	32,(7, 65),3	35,(7, 13),1	36,(7, 62),2	38,(7, 72),1	39,(7, 46),1	40,(7, 10),4	44,(7, 31),4	48,(7, 15),11	59,(7, 32),1	60,(7, 36),14	74,(7, 49),3	77,(7, 19),6	83,(7, 24),7	90,(7, 60),2	92,(7, 44),7	99,(7, 12),3	102,(7, 20),11	113,(7, 9),3	116,(7, 26),4	121,(7, 21),3	124,(7, 14),7	131,(7, 66),43	174,(7, 68),6	181,(7, 80),6	187,(7, 51),4	201,(7, 71),1	203,(7, 45),12	224,(7, 76),2	231,(7, 29),7	300,(7, 57),12	312,(18, 81),17	473,(55, 81),17	626,(33, 81),17	762,(64, 81),17	881,(70, 81),17	966,(56, 81),17	1068,(69, 81),17	1153,(52, 81),17	1238,(30, 81),17	
29,(4, 18),1	30,(4, 16),1	32,(4, 27),5	37,(4, 75),2	39,(4, 72),1	40,(4, 37),2	42,(4, 15),1	43,(4, 48),3	46,(4, 19),2	48,(4, 32),5	53,(4, 36),2	55,(4, 49),7	62,(4, 47),3	68,(4, 24),9	77,(4, 39),5	82,(4, 41),15	97,(4, 46),16	113,(4, 20),12	125,(4, 77),1	126,(4, 59),14	140,(4, 21),4	144,(4, 50),17	161,(4, 11),4	165,(4, 69),5	170,(4, 67),3	174,(4, 66),2	176,(4, 23),15	191,(4, 68),26	217,(4, 30),27	252,(4, 51),33	285,(42, 81),17	346,(4, 53),19	439,(10, 81),17	592,(28, 81),17	745,(63, 81),17	864,(12, 81),17	949,(13, 81),17	1051,(79, 81),17	1136,(34, 81),17	1187,(80, 81),17	1255,(71, 81),17	1289,(76, 81),17	1306,(57, 81),17	
31,(8, 35),3	34,(8, 10),1	35,(8, 31),1	36,(8, 55),1	37,(8, 54),1	38,(8, 62),1	39,(8, 69),1	40,(8, 72),1	41,(8, 15),1	42,(8, 41),2	45,(8, 74),2	47,(8, 46),1	48,(8, 77),1	50,(8, 36),1	51,(8, 16),2	53,(8, 40),2	55,(8, 23),3	58,(8, 22),1	59,(8, 60),15	74,(8, 64),10	84,(8, 56),4	90,(8, 13),6	96,(8, 79),2	102,(8, 12),17	119,(8, 67),5	124,(8, 68),7	135,(8, 78),27	163,(8, 26),9	172,(8, 34),9	181,(8, 14),4	185,(8, 52),18	203,(8, 30),8	226,(8, 76),4	271,(8, 73),18	329,(25, 81),17	365,(8, 53),43	507,(75, 81),17	660,(19, 81),17	847,(44, 81),17	983,(21, 81),17	1170,(45, 81),17	
34,(5, 61),1	35,(5, 35),1	36,(5, 43),1	37,(5, 41),1	38,(5, 20),1	39,(5, 62),3	42,(5, 72),5	47,(5, 54),6	53,(5, 45),1	55,(5, 36),3	58,(5, 39),1	59,(5, 59),2	61,(5, 53),1	62,(5, 34),1	63,(5, 33),5	68,(5, 47),6	74,(5, 74),9	83,(5, 63),7	90,(5, 24),2	92,(5, 64),2	94,(5, 40),15	110,(5, 44),11	121,(5, 70),8	129,(5, 77),6	135,(5, 56),11	146,(5, 69),16	162,(5, 68),8	173,(5, 67),22	195,(5, 78),8	204,(5, 71),20	
39,(1, 65),1	40,(1, 27),1	41,(1, 64),1	42,(1, 62),1	43,(1, 52),1	44,(1, 15),1	45,(1, 63),1	47,(1, 72),2	49,(1, 55),5	54,(1, 75),6	60,(1, 32),7	67,(1, 19),9	76,(1, 43),1	77,(1, 16),2	79,(1, 20),1	80,(1, 38),1	81,(1, 11),1	83,(1, 74),6	89,(1, 39),12	101,(1, 60),3	104,(1, 9),9	113,(1, 46),1	114,(1, 77),4	124,(1, 45),1	125,(1, 13),7	132,(1, 50),5	144,(1, 21),11	155,(1, 79),6	164,(1, 34),7	187,(1, 80),14	217,(1, 68),13	230,(1, 22),22	252,(1, 71),3	255,(1, 76),7	312,(1, 57),76	388,(61, 81),17	490,(54, 81),17	643,(47, 81),17	796,(40, 81),17	932,(59, 81),17	1017,(26, 81),17	1102,(23, 81),17	1221,(29, 81),17	1272,(73, 81),17	1323,(53, 81),17	
405,(62, 81),17	558,(32, 81),17	711,(24, 81),17	1085,(67, 81),17	
422,(72, 81),17	575,(36, 81),17	728,(39, 81),17	1204,(68, 81),17	
30,(6, 25),1	31,(6, 58),1	32,(6, 61),2	34,(6, 56),1	35,(6, 65),4	39,(6, 27),1	40,(6, 40),1	41,(6, 16),1	42,(6, 37),5	47,(6, 70),2	49,(6, 48),2	51,(6, 45),1	52,(6, 68),1	53,(6, 9),1	54,(6, 33),9	63,(6, 43),8	71,(6, 63),3	74,(6, 71),1	76,(6, 11),1	77,(6, 76),2	79,(6, 14),1	82,(6, 39),5	92,(6, 46),5	97,(6, 60),4	101,(6, 44),9	110,(6, 26),1	111,(6, 23),2	120,(6, 29),6	132,(6, 79),11	143,(6, 67),23	166,(6, 78),22	198,(6, 73),4	202,(17, 81),17	456,(31, 81),17	609,(49, 81),17	779,(41, 81),17	898,(20, 81),17	1034,(66, 81),17	
27,(2, 17),3	30,(2, 65),2	32,(2, 62),4	36,(2, 63),1	37,(2, 72),1	38,(2, 10),2	40,(2, 75),3	43,(2, 15),1	44,(2, 32),4	48,(2, 48),1	49,(2, 36),1	50,(2, 28),12	62,(2, 16),1	63,(2, 21),1	64,(2, 79),1	65,(2, 59),1	66,(2, 11),1	67,(2, 24),1	68,(2, 64),6	74,(2, 40),18	92,(2, 38),11	103,(2, 68),2	105,(2, 70),5	110,(2, 56),3	113,(2, 50),17	130,(2, 66),1	131,(2, 14),7	140,(2, 26),23	163,(2, 34),1	164,(2, 45),39	203,(2, 80),1	204,(2, 29),27	231,(2, 57),13	250,(2, 73),21	271,(2, 76),29	300,(2, 53),46	346,(35, 81),17	524,(37, 81),17	677,(43, 81),17	813,(46, 81),17	915,(77, 81),17	1119,(78, 81),17	
