874
# CPU
0,0,1	1,8,9	10,7,9	19,17,9	28,76,9	37,73,9	46,79,9	55,1,9	64,54,9	73,24,9	82,4,9	91,13,9	100,19,9	109,6,9	118,30,9	127,56,9	136,61,9	145,45,9	154,36,9	163,55,9	172,2,9	181,26,9	190,50,9	199,52,9	208,64,9	217,14,9	226,39,9	235,28,9	244,5,9	253,32,9	262,80,9	271,25,9	280,40,9	289,37,9	298,43,9	307,23,9	316,57,9	325,21,9	334,12,9	343,18,9	352,67,9	361,46,9	370,22,9	379,48,9	388,3,9	397,78,9	406,29,9	415,69,9	424,35,9	433,10,9	442,9,9	451,41,9	460,16,9	469,74,9	478,66,9	487,58,9	496,33,9	505,77,9	514,72,9	523,27,9	532,59,9	541,44,9	550,71,9	559,49,9	568,65,9	577,34,9	586,62,9	595,75,9	604,47,9	613,53,9	622,38,9	873,81,1	
35,70,9	144,20,9	192,15,9	333,63,9	401,11,9	493,68,9	
405,42,9	
409,51,9	





257,31,9	421,60,9	
# Incoming
44,(70, 81),80	153,(20, 81),80	233,(15, 81),80	313,(31, 81),80	393,(63, 81),80	473,(11, 81),80	553,(42, 81),80	633,(51, 81),80	713,(60, 81),80	793,(68, 81),80	
10,(8, 70),8	19,(7, 70),16	35,(8, 20),28	64,(1, 20),60	124,(6, 20),20	144,(4, 15),40	184,(6, 15),4	188,(2, 15),4	212,(8, 63),40	257,(7, 63),4	261,(4, 63),68	329,(5, 63),4	333,(1, 11),8	397,(3, 11),4	421,(3, 68),72	
341,(4, 42),8	401,(3, 42),4	
349,(1, 51),12	361,(6, 51),4	365,(2, 51),16	405,(3, 51),4	





192,(4, 31),12	204,(2, 31),8	253,(5, 31),4	381,(2, 60),4	409,(3, 60),12	
# Outgoing
10,(8, 70),8	19,(7, 70),16	35,(8, 20),28	64,(1, 20),60	124,(6, 20),20	144,(4, 15),40	184,(6, 15),4	188,(2, 15),4	192,(4, 31),12	204,(2, 31),8	212,(8, 63),40	253,(5, 31),4	257,(7, 63),4	261,(4, 63),68	329,(5, 63),4	333,(1, 11),8	341,(4, 42),8	349,(1, 51),12	361,(6, 51),4	365,(2, 51),16	381,(2, 60),4	397,(3, 11),4	401,(3, 42),4	405,(3, 51),4	409,(3, 60),12	421,(3, 68),72	
44,(70, 81),80	153,(20, 81),80	233,(15, 81),80	393,(63, 81),80	473,(11, 81),80	793,(68, 81),80	
553,(42, 81),80	
633,(51, 81),80	





313,(31, 81),80	713,(60, 81),80	
