21500
# CPU
43,1,33	85,5,33	127,7,33	295,12,33	10783,13,33	10816,15,33	10849,19,33	10882,22,33	10915,27,33	10948,29,33	10981,30,33	11014,33,33	11047,39,33	11080,41,33	11113,43,33	11146,47,33	11179,52,33	11212,54,33	11245,56,33	11278,59,33	11311,65,33	11344,66,33	11377,67,33	11410,70,33	11443,75,33	11476,77,33	11509,79,33	11542,80,33	11575,83,33	11608,89,33	11641,91,33	11674,92,33	11707,94,33	11740,95,33	11773,99,33	11806,101,33	11839,102,33	11872,111,33	11905,117,33	11938,119,33	
0,0,1	1,4,33	34,3,33	67,9,33	100,6,33	133,2,33	4462,14,33	4495,31,33	4528,35,33	4561,37,33	4594,53,33	4627,16,33	4660,24,33	4693,25,33	4726,26,33	4759,42,33	4792,60,33	4825,46,33	4858,48,33	4891,49,33	4924,61,33	4957,73,33	4990,78,33	5023,55,33	5056,71,33	5089,81,33	5122,86,33	5155,87,33	5188,88,33	5221,90,33	5254,96,33	5287,103,33	5320,107,33	5353,108,33	5386,69,33	5419,97,33	5452,110,33	5485,112,33	5518,113,33	5551,115,33	5728,120,33	
169,8,33	211,10,33	253,11,33	17869,18,33	17908,20,33	17941,23,33	18130,34,33	18169,38,33	18247,40,33	18280,44,33	18331,50,33	18364,57,33	18829,17,33	18862,21,33	18928,28,33	18961,32,33	19003,36,33	19036,45,33	19360,51,33	19546,58,33	19579,62,33	19612,63,33	19645,64,33	20239,68,33	20824,72,33	20857,74,33	20890,76,33	20959,82,33	20992,84,33	21025,85,33	21058,93,33	21091,98,33	21124,100,33	21157,104,33	21190,105,33	21223,106,33	21256,109,33	21289,114,33	21322,116,33	21355,118,33	21499,121,1	
# Incoming
1,(0, 1),42	43,(0, 5),42	85,(0, 7),42	202,(8, 13),15	217,(8, 15),6	223,(8, 19),3	226,(8, 22),12	238,(8, 27),3	241,(8, 29),3	244,(8, 33),6	250,(8, 41),3	253,(0, 12),42	295,(4, 13),3	298,(4, 15),27	325,(8, 47),3	328,(8, 52),3	331,(4, 19),3	334,(8, 66),3	337,(8, 70),3	340,(4, 22),3	343,(8, 30),72	415,(8, 39),33	448,(8, 43),12	460,(8, 54),18	478,(8, 56),9	487,(8, 59),33	520,(8, 65),42	562,(8, 75),3	565,(8, 79),3	568,(8, 80),3	571,(8, 89),9	580,(8, 92),3	583,(8, 101),3	586,(4, 27),15	601,(8, 67),27	628,(8, 91),9	637,(8, 99),6	643,(10, 52),3	646,(4, 29),6	652,(4, 30),9	661,(10, 56),3	664,(4, 33),48	712,(8, 77),84	796,(8, 83),42	838,(8, 94),30	868,(8, 95),21	889,(8, 102),12	901,(8, 111),12	913,(8, 117),36	949,(8, 119),96	1045,(10, 13),9	1054,(10, 15),6	1060,(10, 19),6	1066,(10, 22),27	1093,(10, 27),12	1105,(10, 29),78	1183,(10, 30),69	1252,(10, 33),105	1357,(10, 39),9	1366,(10, 43),12	1378,(10, 47),6	1384,(10, 54),18	1402,(10, 66),3	1405,(10, 67),12	1417,(10, 70),3	1420,(10, 75),3	1423,(10, 79),12	1435,(10, 83),3	1438,(4, 39),3	1441,(10, 94),3	1444,(10, 99),3	1447,(4, 41),24	1471,(4, 43),78	1549,(10, 111),9	1558,(4, 47),18	1576,(10, 41),102	1678,(10, 89),12	1690,(4, 52),84	1774,(4, 54),36	1810,(4, 56),33	1843,(10, 59),120	1963,(10, 65),231	2194,(10, 77),48	2242,(10, 80),15	2257,(10, 91),15	2272,(10, 92),117	2389,(10, 95),57	2446,(10, 101),15	2461,(10, 102),21	2482,(10, 117),54	2536,(10, 119),3	2539,(11, 13),9	2548,(11, 15),21	2569,(11, 19),57	2626,(11, 22),3	2629,(11, 27),12	2641,(11, 29),117	2758,(11, 30),48	2806,(11, 33),9	2815,(11, 39),12	2827,(11, 41),30	2857,(11, 43),6	2863,(11, 47),21	2884,(11, 52),3	2887,(11, 54),18	2905,(11, 56),3	2908,(11, 59),6	2914,(11, 65),3	2917,(11, 66),3	2920,(11, 67),15	2935,(11, 70),3	2938,(11, 77),3	2941,(11, 80),3	3733,(4, 59),3	3751,(4, 65),135	3886,(4, 66),3	3889,(4, 67),9	4126,(4, 70),24	4174,(4, 75),3	4213,(4, 77),15	4228,(4, 79),33	4261,(4, 80),12	4288,(4, 83),6	4336,(4, 89),3	4339,(4, 91),57	4396,(4, 92),3	4399,(11, 83),6	4405,(11, 89),3	4408,(11, 91),42	4450,(11, 92),3	4453,(11, 94),3	4456,(11, 95),6	4462,(11, 99),3	4465,(11, 101),9	4477,(4, 94),3	4480,(4, 95),15	4495,(11, 75),114	4609,(11, 79),96	4765,(11, 102),48	4822,(4, 99),12	4921,(11, 111),6	4948,(11, 117),102	5050,(11, 119),42	5545,(4, 101),3	5548,(4, 102),3	5584,(4, 111),15	5614,(4, 117),3	5647,(4, 119),6	5653,(3, 13),3	5656,(3, 15),18	5770,(3, 19),3	5785,(3, 22),33	5821,(3, 27),18	5950,(3, 29),9	5959,(3, 30),6	5980,(3, 33),3	6001,(3, 39),27	6115,(3, 41),12	6127,(3, 43),3	6529,(3, 47),6	6550,(3, 52),36	6586,(3, 54),24	6610,(3, 56),36	6691,(3, 59),6	6787,(3, 65),15	6802,(3, 66),6	6808,(3, 67),3	8002,(3, 70),15	8044,(3, 75),33	8080,(3, 77),3	8083,(3, 79),3	8086,(3, 80),3	8092,(3, 83),84	8440,(3, 89),3	8443,(3, 91),3	8446,(3, 92),57	8557,(3, 94),3	8560,(3, 95),9	8575,(3, 99),3	8587,(3, 101),12	8599,(3, 102),15	8653,(3, 111),3	8917,(3, 117),27	8971,(3, 119),39	9010,(9, 13),3	9013,(9, 15),3	9016,(9, 19),105	9121,(9, 22),3	9124,(9, 27),3	9127,(9, 29),12	9139,(9, 30),12	9151,(9, 33),222	9373,(9, 39),237	9610,(9, 41),24	9634,(9, 43),24	9658,(9, 47),12	9670,(9, 52),9	9679,(9, 54),3	9682,(9, 56),3	9685,(9, 59),3	9688,(9, 65),3	9691,(9, 66),9	9700,(9, 67),3	9703,(9, 70),24	9727,(9, 75),24	9751,(9, 77),12	9763,(9, 79),3	9766,(9, 80),12	9778,(9, 83),3	9781,(9, 89),9	9790,(9, 91),3	9793,(9, 92),18	9811,(9, 94),12	9823,(9, 95),3	9826,(9, 99),3	9829,(9, 101),3	9832,(9, 102),36	9868,(9, 111),45	9913,(9, 117),24	9937,(9, 119),15	9952,(6, 13),3	9955,(6, 15),15	9970,(6, 19),30	10000,(6, 22),36	10036,(6, 27),9	10045,(6, 29),3	10048,(6, 30),6	10054,(6, 33),90	10144,(6, 39),9	10153,(6, 41),33	10186,(6, 43),6	10192,(6, 47),3	10195,(6, 52),12	10207,(6, 54),9	10216,(6, 56),39	10255,(6, 59),12	10267,(6, 65),12	10279,(6, 66),120	10399,(6, 67),3	10402,(6, 70),3	10405,(6, 75),3	10408,(6, 77),6	10414,(6, 79),6	10420,(6, 80),180	10600,(6, 83),6	10606,(6, 89),3	10609,(6, 91),6	10615,(6, 92),57	10672,(6, 94),27	10699,(6, 95),3	10702,(6, 99),18	10720,(6, 101),6	10726,(6, 102),12	10738,(6, 111),21	10759,(6, 117),3	10762,(6, 119),3	10765,(2, 13),18	10783,(2, 15),3	10786,(2, 19),21	10807,(2, 22),3	10810,(2, 27),51	10861,(2, 29),3	10864,(2, 30),12	10876,(2, 33),6	10882,(2, 39),3	10885,(2, 41),45	10930,(2, 43),3	10933,(2, 47),15	10948,(2, 52),3	10951,(2, 54),18	10969,(2, 56),6	10975,(2, 59),27	11002,(2, 65),6	11008,(2, 66),3	11011,(2, 67),9	11020,(2, 70),21	11041,(2, 75),60	11101,(2, 77),3	11104,(2, 79),111	11215,(2, 80),24	11239,(2, 83),33	11272,(2, 89),15	11287,(2, 91),30	11317,(2, 92),6	11323,(2, 94),3	11326,(2, 95),51	11377,(2, 99),3	11380,(2, 101),6	11386,(2, 102),18	11404,(2, 111),33	11437,(2, 117),114	11551,(2, 119),18	
76,(1, 14),3	79,(1, 16),18	97,(1, 24),3	100,(1, 25),6	106,(1, 26),69	175,(1, 31),12	187,(1, 35),12	199,(1, 37),12	211,(1, 42),33	244,(1, 46),3	247,(1, 49),3	250,(1, 60),3	253,(8, 14),18	271,(8, 16),48	319,(8, 25),3	322,(8, 26),3	325,(1, 48),39	364,(1, 53),6	370,(1, 55),42	412,(1, 61),27	439,(1, 69),12	451,(1, 71),9	460,(1, 73),33	493,(1, 78),42	535,(1, 81),9	544,(1, 88),3	547,(1, 90),3	550,(1, 96),3	553,(1, 97),18	571,(1, 103),12	583,(1, 110),3	586,(8, 24),15	601,(1, 107),15	616,(1, 112),21	637,(1, 113),6	643,(1, 120),3	646,(8, 31),6	652,(8, 42),3	655,(8, 53),3	658,(8, 55),3	661,(5, 24),3	664,(8, 35),15	679,(8, 37),30	709,(1, 86),48	757,(1, 87),81	838,(1, 108),165	1003,(1, 115),9	1012,(5, 14),18	1030,(5, 16),60	1090,(5, 25),3	1093,(5, 26),21	1114,(5, 31),21	1135,(5, 35),132	1267,(5, 37),9	1276,(5, 42),27	1303,(5, 46),9	1312,(5, 48),3	1315,(5, 49),30	1345,(5, 53),3	1348,(5, 55),9	1357,(5, 60),27	1384,(5, 61),33	1417,(5, 69),6	1423,(5, 81),15	1438,(8, 61),3	1441,(5, 86),3	1444,(5, 96),3	1447,(8, 46),9	1456,(8, 48),15	1471,(8, 49),21	1492,(8, 60),6	1498,(8, 69),21	1519,(8, 71),21	1540,(8, 78),9	1549,(5, 88),6	1555,(5, 97),3	1558,(8, 73),12	1570,(8, 87),3	1573,(8, 90),3	1576,(5, 71),57	1633,(5, 73),33	1666,(5, 78),24	1690,(8, 81),9	1699,(8, 86),9	1708,(8, 88),9	1717,(8, 96),3	1720,(8, 97),57	1777,(8, 103),3	1780,(8, 107),6	1786,(8, 110),12	1798,(8, 112),3	1801,(8, 120),6	1807,(10, 24),3	1810,(10, 26),15	1825,(10, 31),12	1837,(10, 46),3	1840,(10, 53),3	1843,(5, 87),12	1855,(5, 90),21	1876,(5, 103),3	1879,(5, 107),63	1942,(5, 108),36	1978,(5, 110),21	1999,(5, 112),33	2032,(5, 113),15	2047,(5, 115),27	2074,(5, 120),3	2077,(7, 14),3	2080,(7, 16),120	2200,(7, 24),3	2203,(7, 25),24	2227,(7, 26),45	2272,(7, 31),3	2275,(7, 35),111	2386,(7, 37),69	2455,(7, 42),72	2527,(7, 46),9	2536,(7, 48),12	2548,(7, 49),39	2587,(7, 53),3	2590,(7, 55),33	2623,(7, 60),3	2626,(7, 61),3	2629,(7, 69),15	2644,(7, 71),3	2647,(7, 73),39	2686,(7, 78),3	2689,(7, 81),12	2701,(7, 86),27	2728,(7, 87),6	2734,(7, 88),3	2737,(7, 90),18	2755,(7, 96),3	2758,(7, 97),3	2761,(7, 103),3	2764,(7, 107),18	2782,(7, 108),6	2788,(7, 110),21	2809,(7, 112),18	2827,(7, 113),84	2911,(7, 115),18	2929,(7, 120),15	2944,(8, 108),66	3010,(8, 113),90	3100,(8, 115),84	3184,(10, 14),75	3259,(10, 16),42	3301,(10, 25),78	3379,(10, 35),33	3412,(10, 37),90	3502,(10, 42),21	3523,(10, 48),9	3532,(10, 49),9	3541,(10, 55),3	3544,(10, 60),27	3571,(10, 61),24	3595,(10, 69),6	3601,(10, 71),3	3604,(10, 73),24	3628,(10, 78),12	3640,(10, 81),9	3649,(10, 86),45	3694,(10, 87),3	3697,(10, 88),9	3706,(10, 90),6	3712,(10, 96),63	3775,(10, 97),24	3799,(10, 103),18	3817,(10, 107),12	3829,(10, 108),42	3871,(10, 110),36	3907,(10, 112),3	3910,(10, 113),54	3964,(10, 115),3	3967,(10, 120),15	3982,(11, 14),9	3991,(11, 16),6	3997,(11, 24),117	4114,(11, 25),3	4117,(11, 26),21	4138,(11, 31),6	4144,(11, 35),3	4147,(11, 37),51	4198,(11, 42),3	4201,(11, 46),6	4207,(11, 48),3	4210,(11, 49),3	4213,(11, 53),6	4219,(11, 55),9	4228,(11, 60),36	4264,(11, 61),6	4270,(11, 69),6	4276,(11, 71),3	4279,(11, 73),3	4282,(11, 78),18	4300,(11, 81),36	4336,(11, 86),6	4342,(11, 87),6	4348,(11, 88),6	4354,(11, 90),21	4375,(11, 97),12	4387,(11, 107),9	4396,(11, 112),3	4399,(12, 14),63	4462,(12, 31),3	4465,(12, 35),3	4468,(12, 37),3	4471,(12, 53),3	4474,(11, 108),21	4495,(12, 16),39	4534,(12, 24),18	4552,(12, 25),15	4567,(12, 26),108	4675,(12, 42),27	4702,(12, 60),3	4705,(11, 96),60	4765,(12, 46),6	4771,(12, 48),6	4777,(12, 49),27	4804,(12, 61),9	4813,(11, 103),72	4885,(11, 110),36	4921,(12, 73),3	4924,(12, 78),3	4927,(11, 113),18	4945,(11, 115),3	4948,(12, 55),21	4969,(12, 71),12	4981,(12, 81),9	4990,(12, 86),3	4993,(12, 87),6	4999,(12, 88),21	5020,(12, 90),6	5026,(12, 96),51	5077,(12, 103),6	5083,(12, 107),6	5089,(12, 108),3	5092,(11, 120),45	5137,(12, 69),222	5359,(12, 97),57	5416,(12, 110),30	5446,(12, 112),3	5449,(12, 113),51	5500,(12, 115),36	5674,(12, 120),54	
127,(0, 8),42	169,(0, 10),42	211,(0, 11),42	253,(1, 17),6	259,(1, 18),6	265,(1, 20),30	295,(1, 21),3	298,(1, 23),24	322,(1, 36),3	325,(4, 17),3	328,(4, 18),3	334,(4, 20),3	337,(4, 21),3	343,(4, 23),243	586,(1, 28),9	595,(1, 40),6	601,(4, 28),45	646,(1, 50),3	649,(1, 58),3	652,(1, 68),3	655,(1, 72),3	658,(1, 74),3	661,(4, 32),3	664,(1, 38),24	688,(1, 57),21	712,(4, 34),27	739,(4, 36),177	916,(4, 38),522	1438,(1, 93),3	1441,(4, 40),6	1447,(1, 32),57	1504,(1, 44),33	1537,(1, 100),3	1540,(1, 105),3	1543,(1, 114),6	1549,(4, 44),3	1552,(4, 45),6	1558,(1, 104),15	1573,(5, 23),3	1576,(4, 50),3	1579,(4, 51),111	1690,(1, 34),84	1774,(1, 63),27	1801,(1, 76),39	1840,(5, 36),3	1843,(4, 57),6	1849,(4, 58),1884	3733,(5, 40),3	3736,(4, 62),9	3745,(4, 63),3	3748,(4, 64),3	3751,(1, 51),108	3859,(1, 84),30	3889,(5, 34),9	3898,(4, 68),228	4126,(1, 106),18	4144,(5, 45),3	4147,(5, 58),3	4150,(4, 72),3	4153,(4, 74),21	4174,(5, 68),3	4177,(4, 76),36	4213,(1, 85),30	4243,(1, 98),27	4270,(5, 76),3	4273,(4, 82),15	4288,(5, 57),6	4294,(4, 84),33	4327,(4, 85),9	4336,(1, 109),24	4360,(1, 118),18	4378,(5, 18),12	4390,(5, 50),9	4399,(4, 93),78	4477,(5, 63),18	4495,(4, 98),327	4822,(5, 72),12	4834,(4, 100),711	5545,(5, 82),3	5548,(5, 84),3	5551,(4, 104),18	5569,(4, 105),9	5578,(4, 106),3	5581,(4, 109),3	5584,(5, 98),3	5587,(5, 105),12	5599,(4, 114),12	5611,(4, 116),3	5614,(5, 114),3	5617,(4, 118),30	5647,(5, 17),24	5671,(5, 116),3	5674,(3, 17),3	5677,(3, 18),93	5770,(7, 17),3	5773,(3, 20),9	5782,(3, 21),3	5785,(5, 20),21	5806,(5, 106),12	5818,(3, 23),3	5821,(5, 118),15	5836,(7, 20),3	5839,(3, 28),111	5950,(7, 21),3	5953,(7, 28),3	5956,(7, 40),3	5959,(7, 45),3	5962,(7, 82),3	5965,(3, 32),15	5980,(7, 85),3	5983,(3, 34),3	5986,(3, 36),12	5998,(3, 38),3	6001,(5, 64),27	6028,(3, 40),87	6115,(7, 38),12	6127,(7, 100),3	6130,(3, 44),9	6139,(3, 45),390	6529,(7, 58),6	6535,(3, 50),12	6547,(3, 51),3	6550,(1, 62),90	6640,(7, 105),3	6643,(7, 109),3	6646,(3, 57),42	6688,(3, 58),3	6691,(7, 116),6	6697,(3, 62),12	6709,(3, 63),63	6772,(3, 64),15	6787,(5, 100),21	6808,(12, 18),3	6811,(3, 68),1191	8002,(7, 50),15	8017,(3, 72),12	8029,(3, 74),15	8044,(5, 21),30	8074,(12, 23),3	8077,(3, 76),3	8080,(12, 20),6	8086,(12, 34),3	8089,(3, 82),3	8092,(1, 82),84	8176,(3, 84),3	8179,(3, 85),261	8440,(5, 44),48	8488,(7, 62),15	8503,(3, 93),54	8557,(7, 63),12	8569,(3, 98),6	8575,(12, 38),3	8578,(3, 100),9	8587,(5, 109),24	8611,(12, 40),3	8614,(3, 104),18	8632,(3, 105),15	8647,(3, 106),3	8650,(3, 109),3	8653,(12, 50),3	8656,(3, 114),90	8746,(3, 116),171	8917,(7, 18),18	8935,(12, 44),6	8941,(12, 57),3	8944,(3, 118),27	8971,(1, 45),381	9352,(1, 64),594	9946,(1, 116),1728	11674,(9, 17),3	11677,(9, 18),48	11725,(9, 20),9	11734,(9, 21),3	11737,(9, 23),42	11779,(9, 28),102	11881,(9, 32),12	11893,(9, 34),9	11902,(9, 36),9	11911,(9, 38),30	11941,(9, 40),3	11944,(9, 44),6	11950,(9, 45),639	12589,(9, 50),39	12628,(9, 51),372	13000,(9, 57),45	13045,(9, 58),3	13048,(9, 62),21	13069,(9, 63),3	13072,(9, 64),12	13084,(9, 68),3	13087,(9, 72),339	13426,(9, 74),63	13489,(9, 76),3	13492,(9, 82),15	13507,(9, 84),21	13528,(9, 85),3	13531,(9, 93),15	13546,(9, 98),3	13549,(9, 100),48	13597,(9, 104),9	13606,(9, 105),15	13621,(9, 106),6	13627,(9, 109),6	13633,(9, 114),36	13669,(9, 116),210	13879,(9, 118),75	13954,(5, 28),66	14020,(5, 32),132	14152,(5, 38),78	14230,(5, 51),39	14269,(5, 62),48	14317,(5, 74),51	14368,(5, 85),579	14947,(5, 93),93	15040,(5, 104),72	15112,(6, 17),3	15115,(6, 18),57	15172,(6, 20),3	15175,(6, 21),6	15181,(6, 23),30	15211,(6, 28),141	15352,(6, 32),6	15358,(6, 34),12	15370,(6, 36),33	15403,(6, 38),24	15427,(6, 40),9	15436,(6, 44),12	15448,(6, 45),57	15505,(6, 50),9	15514,(6, 51),33	15547,(6, 57),150	15697,(6, 58),90	15787,(6, 62),51	15838,(6, 63),6	15844,(6, 64),45	15889,(6, 68),3	15892,(6, 72),9	15901,(6, 74),27	15928,(6, 76),12	15940,(6, 82),3	15943,(6, 84),57	16000,(6, 85),564	16564,(6, 93),6	16570,(6, 98),6	16576,(6, 100),3	16579,(6, 104),3	16582,(6, 105),18	16600,(6, 106),6	16606,(6, 109),3	16609,(6, 114),102	16711,(6, 116),81	16792,(6, 118),42	16834,(7, 23),24	16858,(7, 32),78	16936,(7, 34),174	17110,(7, 36),45	17155,(7, 44),27	17182,(7, 51),81	17263,(7, 57),48	17311,(7, 64),144	17455,(7, 68),15	17470,(7, 72),21	17491,(7, 74),18	17509,(7, 76),27	17536,(7, 84),18	17554,(7, 93),15	17569,(7, 98),30	17599,(7, 104),36	17635,(7, 106),51	17686,(7, 114),27	17713,(7, 118),39	17752,(2, 17),3	17755,(2, 18),114	17869,(2, 20),39	17908,(2, 21),3	17911,(2, 23),9	17920,(2, 28),30	17950,(2, 32),3	17953,(2, 34),177	18130,(2, 36),3	18133,(2, 38),36	18169,(2, 40),78	18247,(2, 44),3	18250,(2, 45),12	18262,(2, 50),69	18331,(2, 51),15	18346,(2, 57),3	18349,(2, 58),18	18367,(2, 62),30	18397,(2, 63),6	18403,(2, 64),6	18409,(2, 68),90	18499,(2, 72),18	18517,(2, 74),3	18520,(2, 76),18	18538,(2, 82),27	18565,(2, 84),3	18568,(2, 85),3	18571,(2, 93),42	18613,(2, 98),66	18679,(2, 100),18	18697,(2, 104),12	18709,(2, 105),33	18742,(2, 106),3	18745,(2, 109),3	18748,(2, 114),60	18808,(2, 116),3	18811,(2, 118),6	18817,(12, 17),12	18829,(12, 21),27	18856,(12, 28),72	18928,(12, 32),30	18958,(12, 36),45	19003,(12, 45),21	19024,(12, 51),336	19360,(12, 58),186	19546,(12, 62),18	19564,(12, 63),3	19567,(12, 64),3	19570,(12, 68),669	20239,(12, 72),585	20824,(12, 74),21	20845,(12, 76),3	20848,(12, 82),111	20959,(12, 84),12	20971,(12, 85),6	20977,(12, 93),45	21022,(12, 98),6	21028,(12, 100),3	21031,(12, 104),3	21034,(12, 105),6	21040,(12, 106),18	21058,(12, 109),3	21061,(12, 114),6	21067,(12, 116),3	21070,(12, 118),3	21073,(14, 121),6	21079,(31, 121),6	21085,(35, 121),6	21091,(37, 121),6	21097,(53, 121),6	21103,(16, 121),6	21109,(24, 121),6	21115,(25, 121),6	21121,(26, 121),6	21127,(42, 121),6	21133,(60, 121),6	21139,(46, 121),6	21145,(48, 121),6	21151,(49, 121),6	21157,(61, 121),6	21163,(73, 121),6	21169,(78, 121),6	21175,(55, 121),6	21181,(71, 121),6	21187,(81, 121),6	21193,(86, 121),6	21199,(87, 121),6	21205,(88, 121),6	21211,(90, 121),6	21217,(96, 121),6	21223,(103, 121),6	21229,(107, 121),6	21235,(108, 121),6	21241,(69, 121),6	21247,(97, 121),6	21253,(110, 121),6	21259,(112, 121),6	21265,(113, 121),6	21271,(115, 121),6	21277,(120, 121),6	21283,(13, 121),6	21289,(15, 121),6	21295,(19, 121),6	21301,(22, 121),6	21307,(27, 121),6	21313,(29, 121),6	21319,(30, 121),6	21325,(33, 121),6	21331,(39, 121),6	21337,(41, 121),6	21343,(43, 121),6	21349,(47, 121),6	21355,(52, 121),6	21361,(54, 121),6	21367,(56, 121),6	21373,(59, 121),6	21379,(65, 121),6	21385,(66, 121),6	21391,(67, 121),6	21397,(70, 121),6	21403,(75, 121),6	21409,(77, 121),6	21415,(79, 121),6	21421,(80, 121),6	21427,(83, 121),6	21433,(89, 121),6	21439,(91, 121),6	21445,(92, 121),6	21451,(94, 121),6	21457,(95, 121),6	21463,(99, 121),6	21469,(101, 121),6	21475,(102, 121),6	21481,(111, 121),6	21487,(117, 121),6	21493,(119, 121),6	
# Outgoing
76,(1, 14),3	79,(1, 16),18	97,(1, 24),3	100,(1, 25),6	106,(1, 26),69	175,(1, 31),12	187,(1, 35),12	199,(1, 37),12	211,(1, 42),33	244,(1, 46),3	247,(1, 49),3	250,(1, 60),3	253,(1, 17),6	259,(1, 18),6	265,(1, 20),30	295,(1, 21),3	298,(1, 23),24	322,(1, 36),3	325,(1, 48),39	364,(1, 53),6	370,(1, 55),42	412,(1, 61),27	439,(1, 69),12	451,(1, 71),9	460,(1, 73),33	493,(1, 78),42	535,(1, 81),9	544,(1, 88),3	547,(1, 90),3	550,(1, 96),3	553,(1, 97),18	571,(1, 103),12	583,(1, 110),3	586,(1, 28),9	595,(1, 40),6	601,(1, 107),15	616,(1, 112),21	637,(1, 113),6	643,(1, 120),3	646,(1, 50),3	649,(1, 58),3	652,(1, 68),3	655,(1, 72),3	658,(1, 74),3	661,(5, 24),3	664,(1, 38),24	688,(1, 57),21	709,(1, 86),48	757,(1, 87),81	838,(1, 108),165	1003,(1, 115),9	1012,(5, 14),18	1030,(5, 16),60	1090,(5, 25),3	1093,(5, 26),21	1114,(5, 31),21	1135,(5, 35),132	1267,(5, 37),9	1276,(5, 42),27	1303,(5, 46),9	1312,(5, 48),3	1315,(5, 49),30	1345,(5, 53),3	1348,(5, 55),9	1357,(5, 60),27	1384,(5, 61),33	1417,(5, 69),6	1423,(5, 81),15	1438,(1, 93),3	1441,(5, 86),3	1444,(5, 96),3	1447,(1, 32),57	1504,(1, 44),33	1537,(1, 100),3	1540,(1, 105),3	1543,(1, 114),6	1549,(5, 88),6	1555,(5, 97),3	1558,(1, 104),15	1573,(5, 23),3	1576,(5, 71),57	1633,(5, 73),33	1666,(5, 78),24	1690,(1, 34),84	1774,(1, 63),27	1801,(1, 76),39	1840,(5, 36),3	1843,(5, 87),12	1855,(5, 90),21	1876,(5, 103),3	1879,(5, 107),63	1942,(5, 108),36	1978,(5, 110),21	1999,(5, 112),33	2032,(5, 113),15	2047,(5, 115),27	2074,(5, 120),3	2077,(7, 14),3	2080,(7, 16),120	2200,(7, 24),3	2203,(7, 25),24	2227,(7, 26),45	2272,(7, 31),3	2275,(7, 35),111	2386,(7, 37),69	2455,(7, 42),72	2527,(7, 46),9	2536,(7, 48),12	2548,(7, 49),39	2587,(7, 53),3	2590,(7, 55),33	2623,(7, 60),3	2626,(7, 61),3	2629,(7, 69),15	2644,(7, 71),3	2647,(7, 73),39	2686,(7, 78),3	2689,(7, 81),12	2701,(7, 86),27	2728,(7, 87),6	2734,(7, 88),3	2737,(7, 90),18	2755,(7, 96),3	2758,(7, 97),3	2761,(7, 103),3	2764,(7, 107),18	2782,(7, 108),6	2788,(7, 110),21	2809,(7, 112),18	2827,(7, 113),84	2911,(7, 115),18	2929,(7, 120),15	3733,(5, 40),3	3751,(1, 51),108	3859,(1, 84),30	3889,(5, 34),9	4126,(1, 106),18	4144,(5, 45),3	4147,(5, 58),3	4174,(5, 68),3	4213,(1, 85),30	4243,(1, 98),27	4270,(5, 76),3	4288,(5, 57),6	4336,(1, 109),24	4360,(1, 118),18	4378,(5, 18),12	4390,(5, 50),9	4399,(12, 14),63	4462,(12, 31),3	4465,(12, 35),3	4468,(12, 37),3	4471,(12, 53),3	4477,(5, 63),18	4495,(12, 16),39	4534,(12, 24),18	4552,(12, 25),15	4567,(12, 26),108	4675,(12, 42),27	4702,(12, 60),3	4765,(12, 46),6	4771,(12, 48),6	4777,(12, 49),27	4804,(12, 61),9	4822,(5, 72),12	4921,(12, 73),3	4924,(12, 78),3	4948,(12, 55),21	4969,(12, 71),12	4981,(12, 81),9	4990,(12, 86),3	4993,(12, 87),6	4999,(12, 88),21	5020,(12, 90),6	5026,(12, 96),51	5077,(12, 103),6	5083,(12, 107),6	5089,(12, 108),3	5137,(12, 69),222	5359,(12, 97),57	5416,(12, 110),30	5446,(12, 112),3	5449,(12, 113),51	5500,(12, 115),36	5545,(5, 82),3	5548,(5, 84),3	5584,(5, 98),3	5587,(5, 105),12	5614,(5, 114),3	5647,(5, 17),24	5671,(5, 116),3	5674,(12, 120),54	5770,(7, 17),3	5785,(5, 20),21	5806,(5, 106),12	5821,(5, 118),15	5836,(7, 20),3	5950,(7, 21),3	5953,(7, 28),3	5956,(7, 40),3	5959,(7, 45),3	5962,(7, 82),3	5980,(7, 85),3	6001,(5, 64),27	6115,(7, 38),12	6127,(7, 100),3	6529,(7, 58),6	6550,(1, 62),90	6640,(7, 105),3	6643,(7, 109),3	6691,(7, 116),6	6787,(5, 100),21	6808,(12, 18),3	8002,(7, 50),15	8044,(5, 21),30	8074,(12, 23),3	8080,(12, 20),6	8086,(12, 34),3	8092,(1, 82),84	8440,(5, 44),48	8488,(7, 62),15	8557,(7, 63),12	8575,(12, 38),3	8587,(5, 109),24	8611,(12, 40),3	8653,(12, 50),3	8917,(7, 18),18	8935,(12, 44),6	8941,(12, 57),3	8971,(1, 45),381	9352,(1, 64),594	9946,(1, 116),1728	13954,(5, 28),66	14020,(5, 32),132	14152,(5, 38),78	14230,(5, 51),39	14269,(5, 62),48	14317,(5, 74),51	14368,(5, 85),579	14947,(5, 93),93	15040,(5, 104),72	16834,(7, 23),24	16858,(7, 32),78	16936,(7, 34),174	17110,(7, 36),45	17155,(7, 44),27	17182,(7, 51),81	17263,(7, 57),48	17311,(7, 64),144	17455,(7, 68),15	17470,(7, 72),21	17491,(7, 74),18	17509,(7, 76),27	17536,(7, 84),18	17554,(7, 93),15	17569,(7, 98),30	17599,(7, 104),36	17635,(7, 106),51	17686,(7, 114),27	17713,(7, 118),39	18817,(12, 17),12	18829,(12, 21),27	18856,(12, 28),72	18928,(12, 32),30	18958,(12, 36),45	19003,(12, 45),21	19024,(12, 51),336	19360,(12, 58),186	19546,(12, 62),18	19564,(12, 63),3	19567,(12, 64),3	19570,(12, 68),669	20239,(12, 72),585	20824,(12, 74),21	20845,(12, 76),3	20848,(12, 82),111	20959,(12, 84),12	20971,(12, 85),6	20977,(12, 93),45	21022,(12, 98),6	21028,(12, 100),3	21031,(12, 104),3	21034,(12, 105),6	21040,(12, 106),18	21058,(12, 109),3	21061,(12, 114),6	21067,(12, 116),3	21070,(12, 118),3	21283,(13, 121),6	21289,(15, 121),6	21295,(19, 121),6	21301,(22, 121),6	21307,(27, 121),6	21313,(29, 121),6	21319,(30, 121),6	21325,(33, 121),6	21331,(39, 121),6	21337,(41, 121),6	21343,(43, 121),6	21349,(47, 121),6	21355,(52, 121),6	21361,(54, 121),6	21367,(56, 121),6	21373,(59, 121),6	21379,(65, 121),6	21385,(66, 121),6	21391,(67, 121),6	21397,(70, 121),6	21403,(75, 121),6	21409,(77, 121),6	21415,(79, 121),6	21421,(80, 121),6	21427,(83, 121),6	21433,(89, 121),6	21439,(91, 121),6	21445,(92, 121),6	21451,(94, 121),6	21457,(95, 121),6	21463,(99, 121),6	21469,(101, 121),6	21475,(102, 121),6	21481,(111, 121),6	21487,(117, 121),6	21493,(119, 121),6	
1,(0, 1),42	43,(0, 5),42	85,(0, 7),42	127,(0, 8),42	169,(0, 10),42	211,(0, 11),42	253,(0, 12),42	295,(4, 13),3	298,(4, 15),27	325,(4, 17),3	328,(4, 18),3	331,(4, 19),3	334,(4, 20),3	337,(4, 21),3	340,(4, 22),3	343,(4, 23),243	586,(4, 27),15	601,(4, 28),45	646,(4, 29),6	652,(4, 30),9	661,(4, 32),3	664,(4, 33),48	712,(4, 34),27	739,(4, 36),177	916,(4, 38),522	1438,(4, 39),3	1441,(4, 40),6	1447,(4, 41),24	1471,(4, 43),78	1549,(4, 44),3	1552,(4, 45),6	1558,(4, 47),18	1576,(4, 50),3	1579,(4, 51),111	1690,(4, 52),84	1774,(4, 54),36	1810,(4, 56),33	1843,(4, 57),6	1849,(4, 58),1884	3733,(4, 59),3	3736,(4, 62),9	3745,(4, 63),3	3748,(4, 64),3	3751,(4, 65),135	3886,(4, 66),3	3889,(4, 67),9	3898,(4, 68),228	4126,(4, 70),24	4150,(4, 72),3	4153,(4, 74),21	4174,(4, 75),3	4177,(4, 76),36	4213,(4, 77),15	4228,(4, 79),33	4261,(4, 80),12	4273,(4, 82),15	4288,(4, 83),6	4294,(4, 84),33	4327,(4, 85),9	4336,(4, 89),3	4339,(4, 91),57	4396,(4, 92),3	4399,(4, 93),78	4477,(4, 94),3	4480,(4, 95),15	4495,(4, 98),327	4822,(4, 99),12	4834,(4, 100),711	5545,(4, 101),3	5548,(4, 102),3	5551,(4, 104),18	5569,(4, 105),9	5578,(4, 106),3	5581,(4, 109),3	5584,(4, 111),15	5599,(4, 114),12	5611,(4, 116),3	5614,(4, 117),3	5617,(4, 118),30	5647,(4, 119),6	5653,(3, 13),3	5656,(3, 15),18	5674,(3, 17),3	5677,(3, 18),93	5770,(3, 19),3	5773,(3, 20),9	5782,(3, 21),3	5785,(3, 22),33	5818,(3, 23),3	5821,(3, 27),18	5839,(3, 28),111	5950,(3, 29),9	5959,(3, 30),6	5965,(3, 32),15	5980,(3, 33),3	5983,(3, 34),3	5986,(3, 36),12	5998,(3, 38),3	6001,(3, 39),27	6028,(3, 40),87	6115,(3, 41),12	6127,(3, 43),3	6130,(3, 44),9	6139,(3, 45),390	6529,(3, 47),6	6535,(3, 50),12	6547,(3, 51),3	6550,(3, 52),36	6586,(3, 54),24	6610,(3, 56),36	6646,(3, 57),42	6688,(3, 58),3	6691,(3, 59),6	6697,(3, 62),12	6709,(3, 63),63	6772,(3, 64),15	6787,(3, 65),15	6802,(3, 66),6	6808,(3, 67),3	6811,(3, 68),1191	8002,(3, 70),15	8017,(3, 72),12	8029,(3, 74),15	8044,(3, 75),33	8077,(3, 76),3	8080,(3, 77),3	8083,(3, 79),3	8086,(3, 80),3	8089,(3, 82),3	8092,(3, 83),84	8176,(3, 84),3	8179,(3, 85),261	8440,(3, 89),3	8443,(3, 91),3	8446,(3, 92),57	8503,(3, 93),54	8557,(3, 94),3	8560,(3, 95),9	8569,(3, 98),6	8575,(3, 99),3	8578,(3, 100),9	8587,(3, 101),12	8599,(3, 102),15	8614,(3, 104),18	8632,(3, 105),15	8647,(3, 106),3	8650,(3, 109),3	8653,(3, 111),3	8656,(3, 114),90	8746,(3, 116),171	8917,(3, 117),27	8944,(3, 118),27	8971,(3, 119),39	9010,(9, 13),3	9013,(9, 15),3	9016,(9, 19),105	9121,(9, 22),3	9124,(9, 27),3	9127,(9, 29),12	9139,(9, 30),12	9151,(9, 33),222	9373,(9, 39),237	9610,(9, 41),24	9634,(9, 43),24	9658,(9, 47),12	9670,(9, 52),9	9679,(9, 54),3	9682,(9, 56),3	9685,(9, 59),3	9688,(9, 65),3	9691,(9, 66),9	9700,(9, 67),3	9703,(9, 70),24	9727,(9, 75),24	9751,(9, 77),12	9763,(9, 79),3	9766,(9, 80),12	9778,(9, 83),3	9781,(9, 89),9	9790,(9, 91),3	9793,(9, 92),18	9811,(9, 94),12	9823,(9, 95),3	9826,(9, 99),3	9829,(9, 101),3	9832,(9, 102),36	9868,(9, 111),45	9913,(9, 117),24	9937,(9, 119),15	9952,(6, 13),3	9955,(6, 15),15	9970,(6, 19),30	10000,(6, 22),36	10036,(6, 27),9	10045,(6, 29),3	10048,(6, 30),6	10054,(6, 33),90	10144,(6, 39),9	10153,(6, 41),33	10186,(6, 43),6	10192,(6, 47),3	10195,(6, 52),12	10207,(6, 54),9	10216,(6, 56),39	10255,(6, 59),12	10267,(6, 65),12	10279,(6, 66),120	10399,(6, 67),3	10402,(6, 70),3	10405,(6, 75),3	10408,(6, 77),6	10414,(6, 79),6	10420,(6, 80),180	10600,(6, 83),6	10606,(6, 89),3	10609,(6, 91),6	10615,(6, 92),57	10672,(6, 94),27	10699,(6, 95),3	10702,(6, 99),18	10720,(6, 101),6	10726,(6, 102),12	10738,(6, 111),21	10759,(6, 117),3	10762,(6, 119),3	10765,(2, 13),18	10783,(2, 15),3	10786,(2, 19),21	10807,(2, 22),3	10810,(2, 27),51	10861,(2, 29),3	10864,(2, 30),12	10876,(2, 33),6	10882,(2, 39),3	10885,(2, 41),45	10930,(2, 43),3	10933,(2, 47),15	10948,(2, 52),3	10951,(2, 54),18	10969,(2, 56),6	10975,(2, 59),27	11002,(2, 65),6	11008,(2, 66),3	11011,(2, 67),9	11020,(2, 70),21	11041,(2, 75),60	11101,(2, 77),3	11104,(2, 79),111	11215,(2, 80),24	11239,(2, 83),33	11272,(2, 89),15	11287,(2, 91),30	11317,(2, 92),6	11323,(2, 94),3	11326,(2, 95),51	11377,(2, 99),3	11380,(2, 101),6	11386,(2, 102),18	11404,(2, 111),33	11437,(2, 117),114	11551,(2, 119),18	11674,(9, 17),3	11677,(9, 18),48	11725,(9, 20),9	11734,(9, 21),3	11737,(9, 23),42	11779,(9, 28),102	11881,(9, 32),12	11893,(9, 34),9	11902,(9, 36),9	11911,(9, 38),30	11941,(9, 40),3	11944,(9, 44),6	11950,(9, 45),639	12589,(9, 50),39	12628,(9, 51),372	13000,(9, 57),45	13045,(9, 58),3	13048,(9, 62),21	13069,(9, 63),3	13072,(9, 64),12	13084,(9, 68),3	13087,(9, 72),339	13426,(9, 74),63	13489,(9, 76),3	13492,(9, 82),15	13507,(9, 84),21	13528,(9, 85),3	13531,(9, 93),15	13546,(9, 98),3	13549,(9, 100),48	13597,(9, 104),9	13606,(9, 105),15	13621,(9, 106),6	13627,(9, 109),6	13633,(9, 114),36	13669,(9, 116),210	13879,(9, 118),75	15112,(6, 17),3	15115,(6, 18),57	15172,(6, 20),3	15175,(6, 21),6	15181,(6, 23),30	15211,(6, 28),141	15352,(6, 32),6	15358,(6, 34),12	15370,(6, 36),33	15403,(6, 38),24	15427,(6, 40),9	15436,(6, 44),12	15448,(6, 45),57	15505,(6, 50),9	15514,(6, 51),33	15547,(6, 57),150	15697,(6, 58),90	15787,(6, 62),51	15838,(6, 63),6	15844,(6, 64),45	15889,(6, 68),3	15892,(6, 72),9	15901,(6, 74),27	15928,(6, 76),12	15940,(6, 82),3	15943,(6, 84),57	16000,(6, 85),564	16564,(6, 93),6	16570,(6, 98),6	16576,(6, 100),3	16579,(6, 104),3	16582,(6, 105),18	16600,(6, 106),6	16606,(6, 109),3	16609,(6, 114),102	16711,(6, 116),81	16792,(6, 118),42	17752,(2, 17),3	17755,(2, 18),114	17869,(2, 20),39	17908,(2, 21),3	17911,(2, 23),9	17920,(2, 28),30	17950,(2, 32),3	17953,(2, 34),177	18130,(2, 36),3	18133,(2, 38),36	18169,(2, 40),78	18247,(2, 44),3	18250,(2, 45),12	18262,(2, 50),69	18331,(2, 51),15	18346,(2, 57),3	18349,(2, 58),18	18367,(2, 62),30	18397,(2, 63),6	18403,(2, 64),6	18409,(2, 68),90	18499,(2, 72),18	18517,(2, 74),3	18520,(2, 76),18	18538,(2, 82),27	18565,(2, 84),3	18568,(2, 85),3	18571,(2, 93),42	18613,(2, 98),66	18679,(2, 100),18	18697,(2, 104),12	18709,(2, 105),33	18742,(2, 106),3	18745,(2, 109),3	18748,(2, 114),60	18808,(2, 116),3	18811,(2, 118),6	21073,(14, 121),6	21079,(31, 121),6	21085,(35, 121),6	21091,(37, 121),6	21097,(53, 121),6	21103,(16, 121),6	21109,(24, 121),6	21115,(25, 121),6	21121,(26, 121),6	21127,(42, 121),6	21133,(60, 121),6	21139,(46, 121),6	21145,(48, 121),6	21151,(49, 121),6	21157,(61, 121),6	21163,(73, 121),6	21169,(78, 121),6	21175,(55, 121),6	21181,(71, 121),6	21187,(81, 121),6	21193,(86, 121),6	21199,(87, 121),6	21205,(88, 121),6	21211,(90, 121),6	21217,(96, 121),6	21223,(103, 121),6	21229,(107, 121),6	21235,(108, 121),6	21241,(69, 121),6	21247,(97, 121),6	21253,(110, 121),6	21259,(112, 121),6	21265,(113, 121),6	21271,(115, 121),6	21277,(120, 121),6	
202,(8, 13),15	217,(8, 15),6	223,(8, 19),3	226,(8, 22),12	238,(8, 27),3	241,(8, 29),3	244,(8, 33),6	250,(8, 41),3	253,(8, 14),18	271,(8, 16),48	319,(8, 25),3	322,(8, 26),3	325,(8, 47),3	328,(8, 52),3	334,(8, 66),3	337,(8, 70),3	343,(8, 30),72	415,(8, 39),33	448,(8, 43),12	460,(8, 54),18	478,(8, 56),9	487,(8, 59),33	520,(8, 65),42	562,(8, 75),3	565,(8, 79),3	568,(8, 80),3	571,(8, 89),9	580,(8, 92),3	583,(8, 101),3	586,(8, 24),15	601,(8, 67),27	628,(8, 91),9	637,(8, 99),6	643,(10, 52),3	646,(8, 31),6	652,(8, 42),3	655,(8, 53),3	658,(8, 55),3	661,(10, 56),3	664,(8, 35),15	679,(8, 37),30	712,(8, 77),84	796,(8, 83),42	838,(8, 94),30	868,(8, 95),21	889,(8, 102),12	901,(8, 111),12	913,(8, 117),36	949,(8, 119),96	1045,(10, 13),9	1054,(10, 15),6	1060,(10, 19),6	1066,(10, 22),27	1093,(10, 27),12	1105,(10, 29),78	1183,(10, 30),69	1252,(10, 33),105	1357,(10, 39),9	1366,(10, 43),12	1378,(10, 47),6	1384,(10, 54),18	1402,(10, 66),3	1405,(10, 67),12	1417,(10, 70),3	1420,(10, 75),3	1423,(10, 79),12	1435,(10, 83),3	1438,(8, 61),3	1441,(10, 94),3	1444,(10, 99),3	1447,(8, 46),9	1456,(8, 48),15	1471,(8, 49),21	1492,(8, 60),6	1498,(8, 69),21	1519,(8, 71),21	1540,(8, 78),9	1549,(10, 111),9	1558,(8, 73),12	1570,(8, 87),3	1573,(8, 90),3	1576,(10, 41),102	1678,(10, 89),12	1690,(8, 81),9	1699,(8, 86),9	1708,(8, 88),9	1717,(8, 96),3	1720,(8, 97),57	1777,(8, 103),3	1780,(8, 107),6	1786,(8, 110),12	1798,(8, 112),3	1801,(8, 120),6	1807,(10, 24),3	1810,(10, 26),15	1825,(10, 31),12	1837,(10, 46),3	1840,(10, 53),3	1843,(10, 59),120	1963,(10, 65),231	2194,(10, 77),48	2242,(10, 80),15	2257,(10, 91),15	2272,(10, 92),117	2389,(10, 95),57	2446,(10, 101),15	2461,(10, 102),21	2482,(10, 117),54	2536,(10, 119),3	2539,(11, 13),9	2548,(11, 15),21	2569,(11, 19),57	2626,(11, 22),3	2629,(11, 27),12	2641,(11, 29),117	2758,(11, 30),48	2806,(11, 33),9	2815,(11, 39),12	2827,(11, 41),30	2857,(11, 43),6	2863,(11, 47),21	2884,(11, 52),3	2887,(11, 54),18	2905,(11, 56),3	2908,(11, 59),6	2914,(11, 65),3	2917,(11, 66),3	2920,(11, 67),15	2935,(11, 70),3	2938,(11, 77),3	2941,(11, 80),3	2944,(8, 108),66	3010,(8, 113),90	3100,(8, 115),84	3184,(10, 14),75	3259,(10, 16),42	3301,(10, 25),78	3379,(10, 35),33	3412,(10, 37),90	3502,(10, 42),21	3523,(10, 48),9	3532,(10, 49),9	3541,(10, 55),3	3544,(10, 60),27	3571,(10, 61),24	3595,(10, 69),6	3601,(10, 71),3	3604,(10, 73),24	3628,(10, 78),12	3640,(10, 81),9	3649,(10, 86),45	3694,(10, 87),3	3697,(10, 88),9	3706,(10, 90),6	3712,(10, 96),63	3775,(10, 97),24	3799,(10, 103),18	3817,(10, 107),12	3829,(10, 108),42	3871,(10, 110),36	3907,(10, 112),3	3910,(10, 113),54	3964,(10, 115),3	3967,(10, 120),15	3982,(11, 14),9	3991,(11, 16),6	3997,(11, 24),117	4114,(11, 25),3	4117,(11, 26),21	4138,(11, 31),6	4144,(11, 35),3	4147,(11, 37),51	4198,(11, 42),3	4201,(11, 46),6	4207,(11, 48),3	4210,(11, 49),3	4213,(11, 53),6	4219,(11, 55),9	4228,(11, 60),36	4264,(11, 61),6	4270,(11, 69),6	4276,(11, 71),3	4279,(11, 73),3	4282,(11, 78),18	4300,(11, 81),36	4336,(11, 86),6	4342,(11, 87),6	4348,(11, 88),6	4354,(11, 90),21	4375,(11, 97),12	4387,(11, 107),9	4396,(11, 112),3	4399,(11, 83),6	4405,(11, 89),3	4408,(11, 91),42	4450,(11, 92),3	4453,(11, 94),3	4456,(11, 95),6	4462,(11, 99),3	4465,(11, 101),9	4474,(11, 108),21	4495,(11, 75),114	4609,(11, 79),96	4705,(11, 96),60	4765,(11, 102),48	4813,(11, 103),72	4885,(11, 110),36	4921,(11, 111),6	4927,(11, 113),18	4945,(11, 115),3	4948,(11, 117),102	5050,(11, 119),42	5092,(11, 120),45	
