62
# CPU
0,0,1	1,1,3	4,2,3	7,5,3	10,16,3	13,20,3	16,14,3	19,4,3	22,11,3	25,19,3	28,6,3	31,18,3	34,17,3	37,10,3	40,15,3	43,9,3	46,8,3	49,7,3	52,12,3	55,3,3	58,13,3	61,21,1	



# Incoming




# Outgoing




