484
# CPU
60,16,1	410,15,1	
18,14,1	434,20,1	
79,19,1	80,7,1	395,10,1	400,11,1	407,12,1	418,18,1	
2,2,1	3,6,1	4,13,1	5,17,1	14,8,1	483,21,1	
0,0,1	1,1,1	2,3,1	3,5,1	4,4,1	391,9,1	
# Incoming
18,(1, 15),41	59,(1, 16),1	407,(2, 15),3	
14,(1, 14),4	418,(2, 20),16	
60,(1, 19),19	79,(2, 7),1	391,(2, 10),4	395,(2, 11),5	400,(2, 12),7	410,(2, 18),8	
1,(0, 2),1	2,(1, 6),1	3,(1, 8),11	19,(14, 21),13	61,(16, 21),13	79,(3, 21),13	92,(5, 21),13	105,(4, 21),13	118,(19, 21),13	131,(7, 21),13	392,(9, 21),13	405,(10, 21),13	418,(11, 21),13	431,(12, 21),13	444,(15, 21),13	457,(18, 21),13	470,(20, 21),13	
80,(2, 9),311	
# Outgoing
61,(16, 21),13	444,(15, 21),13	
19,(14, 21),13	470,(20, 21),13	
118,(19, 21),13	131,(7, 21),13	405,(10, 21),13	418,(11, 21),13	431,(12, 21),13	457,(18, 21),13	
79,(2, 7),1	80,(2, 9),311	391,(2, 10),4	395,(2, 11),5	400,(2, 12),7	407,(2, 15),3	410,(2, 18),8	418,(2, 20),16	
1,(0, 2),1	2,(1, 6),1	3,(1, 8),11	14,(1, 14),4	18,(1, 15),41	59,(1, 16),1	60,(1, 19),19	79,(3, 21),13	92,(5, 21),13	105,(4, 21),13	392,(9, 21),13	
