211
# CPU
0,0,1	1,3,5	6,69,5	11,48,5	16,33,5	21,98,5	26,12,5	31,113,5	36,76,5	41,21,5	46,96,5	51,54,5	56,42,5	61,102,5	66,19,5	71,117,5	76,107,5	84,41,5	98,53,5	
7,5,5	12,36,5	17,60,5	22,77,5	27,32,5	32,89,5	38,84,5	53,7,5	58,35,5	63,16,5	68,118,5	73,78,5	78,43,5	83,17,5	88,108,5	93,83,5	98,87,5	
13,9,5	18,104,5	23,58,5	28,52,5	33,116,5	38,88,5	43,51,5	54,93,5	60,71,5	66,34,5	74,30,5	88,56,5	
16,50,5	22,99,5	28,72,5	33,27,5	41,47,5	47,2,5	52,31,5	57,97,5	62,24,5	67,13,5	72,75,5	77,82,5	
20,85,5	26,67,5	32,55,5	59,6,5	64,18,5	69,114,5	74,80,5	79,38,5	84,45,5	89,62,5	94,92,5	
19,1,5	24,101,5	29,66,5	34,86,5	39,112,5	44,73,5	49,22,5	54,109,5	59,57,5	65,11,5	70,28,5	75,40,5	80,110,5	85,14,5	90,65,5	95,23,5	100,94,5	105,119,5	110,29,5	115,49,5	210,121,1	
25,4,5	30,74,5	35,91,5	40,61,5	45,79,5	50,106,5	68,103,5	78,39,5	
34,64,5	70,15,5	78,44,5	
35,70,5	64,26,5	71,10,5	76,105,5	81,25,5	86,63,5	91,81,5	96,120,5	101,59,5	106,100,5	111,46,5	116,68,5	
31,8,5	36,115,5	41,95,5	46,20,5	51,90,5	56,37,5	80,111,5	
# Incoming
78,(10, 41),6	84,(10, 53),14	
1,(0, 5),6	36,(8, 84),2	47,(0, 7),6	
7,(0, 9),6	52,(2, 93),2	58,(7, 71),2	64,(6, 34),2	70,(11, 30),4	78,(11, 56),10	
12,(5, 50),4	20,(9, 99),2	26,(1, 72),2	31,(12, 27),2	35,(12, 47),6	41,(0, 2),6	
18,(9, 85),2	24,(1, 67),2	30,(4, 55),2	53,(0, 6),6	
13,(0, 1),6	19,(36, 121),2	22,(60, 121),2	24,(104, 121),2	27,(77, 121),2	29,(58, 121),2	32,(32, 121),2	34,(52, 121),2	36,(74, 121),2	38,(89, 121),2	40,(116, 121),2	42,(64, 121),2	44,(91, 121),2	46,(115, 121),2	48,(88, 121),2	50,(84, 121),2	52,(61, 121),2	54,(50, 121),2	56,(99, 121),2	59,(0, 11),6	65,(72, 121),2	67,(27, 121),2	69,(95, 121),2	71,(69, 121),2	73,(48, 121),2	75,(33, 121),2	77,(98, 121),2	80,(85, 121),2	82,(67, 121),2	84,(113, 121),2	86,(55, 121),2	88,(76, 121),2	90,(21, 121),2	92,(47, 121),2	94,(51, 121),2	96,(79, 121),2	98,(70, 121),2	100,(96, 121),2	102,(20, 121),2	104,(106, 121),2	106,(54, 121),2	108,(90, 121),2	110,(31, 121),2	112,(93, 121),2	114,(42, 121),2	116,(37, 121),2	118,(97, 121),2	120,(35, 121),2	122,(71, 121),2	124,(102, 121),2	126,(24, 121),2	128,(16, 121),2	130,(18, 121),2	132,(26, 121),2	134,(19, 121),2	136,(34, 121),2	138,(13, 121),2	140,(118, 121),2	142,(103, 121),2	144,(114, 121),2	146,(15, 121),2	148,(117, 121),2	150,(75, 121),2	152,(78, 121),2	154,(80, 121),2	156,(30, 121),2	158,(105, 121),2	160,(107, 121),2	162,(82, 121),2	164,(43, 121),2	166,(39, 121),2	168,(44, 121),2	170,(38, 121),2	172,(111, 121),2	174,(25, 121),2	176,(17, 121),2	178,(45, 121),2	180,(41, 121),2	182,(63, 121),2	184,(108, 121),2	186,(56, 121),2	188,(62, 121),2	190,(81, 121),2	192,(83, 121),2	194,(92, 121),2	196,(120, 121),2	198,(87, 121),2	200,(53, 121),2	202,(59, 121),2	204,(100, 121),2	206,(46, 121),2	208,(68, 121),2	
19,(0, 4),6	66,(6, 103),2	76,(10, 39),2	
32,(4, 64),2	64,(7, 15),6	74,(11, 44),4	
33,(12, 70),2	60,(7, 26),4	65,(0, 10),6	
25,(0, 8),6	68,(6, 111),12	
# Outgoing
1,(0, 5),6	7,(0, 9),6	13,(0, 1),6	19,(0, 4),6	25,(0, 8),6	31,(12, 27),2	33,(12, 70),2	35,(12, 47),6	41,(0, 2),6	47,(0, 7),6	53,(0, 6),6	59,(0, 11),6	65,(0, 10),6	71,(69, 121),2	73,(48, 121),2	75,(33, 121),2	77,(98, 121),2	84,(113, 121),2	88,(76, 121),2	90,(21, 121),2	100,(96, 121),2	106,(54, 121),2	114,(42, 121),2	124,(102, 121),2	134,(19, 121),2	148,(117, 121),2	160,(107, 121),2	180,(41, 121),2	200,(53, 121),2	
12,(5, 50),4	19,(36, 121),2	22,(60, 121),2	27,(77, 121),2	32,(32, 121),2	38,(89, 121),2	50,(84, 121),2	58,(7, 71),2	60,(7, 26),4	64,(7, 15),6	120,(35, 121),2	128,(16, 121),2	140,(118, 121),2	152,(78, 121),2	164,(43, 121),2	176,(17, 121),2	184,(108, 121),2	192,(83, 121),2	198,(87, 121),2	
18,(9, 85),2	20,(9, 99),2	24,(104, 121),2	29,(58, 121),2	34,(52, 121),2	40,(116, 121),2	48,(88, 121),2	94,(51, 121),2	112,(93, 121),2	122,(71, 121),2	136,(34, 121),2	156,(30, 121),2	186,(56, 121),2	
52,(2, 93),2	54,(50, 121),2	56,(99, 121),2	65,(72, 121),2	67,(27, 121),2	92,(47, 121),2	110,(31, 121),2	118,(97, 121),2	126,(24, 121),2	138,(13, 121),2	150,(75, 121),2	162,(82, 121),2	
64,(6, 34),2	66,(6, 103),2	68,(6, 111),12	80,(85, 121),2	82,(67, 121),2	86,(55, 121),2	130,(18, 121),2	144,(114, 121),2	154,(80, 121),2	170,(38, 121),2	178,(45, 121),2	188,(62, 121),2	194,(92, 121),2	
24,(1, 67),2	26,(1, 72),2	70,(11, 30),4	74,(11, 44),4	78,(11, 56),10	
30,(4, 55),2	32,(4, 64),2	36,(74, 121),2	44,(91, 121),2	52,(61, 121),2	96,(79, 121),2	104,(106, 121),2	142,(103, 121),2	166,(39, 121),2	
42,(64, 121),2	146,(15, 121),2	168,(44, 121),2	
76,(10, 39),2	78,(10, 41),6	84,(10, 53),14	98,(70, 121),2	132,(26, 121),2	158,(105, 121),2	174,(25, 121),2	182,(63, 121),2	190,(81, 121),2	196,(120, 121),2	202,(59, 121),2	204,(100, 121),2	206,(46, 121),2	208,(68, 121),2	
36,(8, 84),2	46,(115, 121),2	69,(95, 121),2	102,(20, 121),2	108,(90, 121),2	116,(37, 121),2	172,(111, 121),2	
