202
# CPU
0,201,1	1,126,1	2,76,1	3,142,1	4,144,1	5,133,1	6,72,1	7,122,1	8,123,1	9,68,1	10,121,1	11,131,1	12,132,1	13,178,1	14,173,1	15,119,1	16,62,1	17,136,1	18,117,1	19,137,1	20,140,1	21,152,1	22,165,1	23,97,1	24,156,1	25,189,1	26,44,1	27,112,1	28,21,1	29,190,1	30,40,1	31,83,1	32,96,1	33,158,1	34,34,1	35,176,1	36,88,1	37,89,1	38,41,1	39,98,1	40,174,1	41,36,1	42,48,1	43,24,1	44,26,1	45,27,1	46,172,1	47,179,1	48,182,1	49,39,1	50,78,1	51,67,1	52,25,1	53,71,1	54,141,1	55,153,1	56,77,1	57,198,1	58,37,1	59,162,1	60,166,1	61,148,1	62,183,1	63,22,1	64,28,1	65,200,1	66,146,1	67,31,1	68,35,1	69,187,1	70,124,1	71,94,1	72,55,1	73,54,1	74,154,1	75,29,1	76,197,1	77,102,1	78,85,1	79,75,1	80,167,1	81,69,1	82,161,1	83,120,1	84,116,1	85,169,1	86,114,1	87,56,1	88,95,1	89,185,1	90,104,1	91,65,1	92,160,1	93,177,1	94,81,1	95,73,1	96,63,1	97,191,1	98,90,1	99,128,1	100,139,1	101,149,1	102,108,1	103,74,1	104,57,1	105,157,1	106,23,1	107,192,1	108,151,1	109,194,1	110,51,1	111,91,1	112,107,1	113,100,1	114,84,1	115,196,1	116,66,1	117,193,1	118,175,1	119,168,1	120,127,1	121,64,1	122,186,1	123,138,1	124,103,1	125,53,1	126,113,1	127,181,1	128,38,1	129,59,1	130,106,1	131,43,1	132,164,1	133,86,1	134,118,1	135,101,1	136,93,1	137,170,1	138,52,1	139,1,1	140,195,1	141,32,1	142,42,1	143,171,1	144,125,1	145,159,1	146,143,1	147,99,1	148,17,1	149,82,1	150,92,1	151,7,1	152,61,1	153,80,1	154,129,1	155,33,1	156,163,1	157,18,1	158,184,1	159,10,1	160,199,1	161,13,1	162,49,1	163,60,1	164,110,1	165,16,1	166,105,1	167,3,1	168,46,1	169,79,1	170,147,1	171,70,1	172,2,1	173,134,1	174,87,1	175,58,1	176,19,1	177,8,1	178,6,1	179,9,1	180,12,1	181,11,1	182,4,1	183,14,1	184,15,1	201,0,1	
13,135,1	25,50,1	37,109,1	49,30,1	61,45,1	73,155,1	85,111,1	97,115,1	109,130,1	121,188,1	133,150,1	145,180,1	157,47,1	169,145,1	180,5,1	199,20,1	
# Incoming
38,(109, 8),1	39,(50, 6),1	40,(135, 12),1	50,(30, 9),1	62,(45, 15),3	74,(155, 4),3	86,(111, 4),4	98,(115, 11),5	122,(188, 15),10	146,(180, 14),24	170,(150, 15),14	184,(5, 0),1	200,(20, 0),1	
1,(201, 135),12	13,(201, 50),12	25,(201, 109),12	37,(201, 30),12	49,(201, 45),12	61,(201, 155),12	73,(201, 111),12	85,(201, 115),12	97,(201, 130),12	109,(201, 188),12	121,(201, 150),12	133,(201, 180),12	145,(201, 47),12	157,(201, 145),12	169,(123, 5),1	170,(131, 5),1	171,(140, 5),1	172,(152, 5),1	173,(189, 5),1	174,(41, 5),1	175,(198, 5),2	177,(148, 5),3	180,(165, 20),1	181,(200, 20),3	184,(31, 20),3	187,(139, 20),6	193,(149, 20),6	
# Outgoing
1,(201, 135),12	13,(201, 50),12	25,(201, 109),12	37,(201, 30),12	49,(201, 45),12	61,(201, 155),12	73,(201, 111),12	85,(201, 115),12	97,(201, 130),12	109,(201, 188),12	121,(201, 150),12	133,(201, 180),12	145,(201, 47),12	157,(201, 145),12	169,(123, 5),1	170,(131, 5),1	171,(140, 5),1	172,(152, 5),1	173,(189, 5),1	174,(41, 5),1	175,(198, 5),2	177,(148, 5),3	180,(165, 20),1	181,(200, 20),3	184,(31, 20),3	187,(139, 20),6	193,(149, 20),6	
38,(109, 8),1	39,(50, 6),1	40,(135, 12),1	50,(30, 9),1	62,(45, 15),3	74,(155, 4),3	86,(111, 4),4	98,(115, 11),5	122,(188, 15),10	146,(180, 14),24	170,(150, 15),14	184,(5, 0),1	200,(20, 0),1	
