773
# CPU
5,3,1	6,22,1	41,14,1	83,16,1	91,8,1	92,23,1	115,30,1	118,12,1	121,18,1	126,32,1	138,34,1	142,39,1	148,10,1	150,11,1	157,13,1	158,15,1	159,19,1	169,20,1	191,17,1	204,26,1	240,28,1	265,24,1	285,25,1	310,37,1	
3,2,1	4,36,1	5,38,1	92,27,1	147,7,1	209,21,1	264,29,1	282,31,1	283,33,1	298,40,1	373,9,1	772,41,1	
0,0,1	1,1,1	2,4,1	3,5,1	4,35,1	63,6,1	
# Incoming
3,(0, 3),2	5,(1, 10),6	11,(1, 14),30	41,(1, 15),35	76,(1, 16),7	83,(1, 20),3	86,(1, 25),3	89,(1, 26),1	90,(2, 8),1	91,(2, 23),1	92,(1, 30),23	115,(2, 12),3	118,(2, 18),3	121,(2, 32),5	129,(1, 34),9	138,(2, 39),4	147,(4, 10),1	148,(4, 11),2	150,(4, 13),7	157,(4, 15),1	158,(4, 19),1	159,(4, 20),10	169,(2, 17),22	191,(2, 26),13	209,(4, 24),1	210,(4, 28),30	240,(2, 24),25	265,(2, 25),20	285,(2, 37),25	
1,(0, 2),2	63,(3, 21),4	67,(3, 29),14	90,(1, 27),2	92,(22, 41),19	115,(1, 33),14	138,(4, 7),9	147,(14, 41),19	169,(4, 21),40	209,(16, 41),19	240,(4, 29),24	264,(4, 31),18	282,(4, 33),1	283,(4, 40),15	298,(5, 41),19	317,(35, 41),19	336,(3, 9),37	373,(6, 41),19	392,(8, 41),19	411,(23, 41),19	430,(30, 41),19	449,(12, 41),19	468,(18, 41),19	487,(32, 41),19	506,(34, 41),19	525,(39, 41),19	544,(10, 41),19	563,(11, 41),19	582,(13, 41),19	601,(15, 41),19	620,(19, 41),19	639,(20, 41),19	658,(17, 41),19	677,(26, 41),19	696,(28, 41),19	715,(24, 41),19	734,(25, 41),19	753,(37, 41),19	
6,(3, 6),57	
# Outgoing
6,(3, 6),57	63,(3, 21),4	67,(3, 29),14	92,(22, 41),19	147,(14, 41),19	209,(16, 41),19	336,(3, 9),37	392,(8, 41),19	411,(23, 41),19	430,(30, 41),19	449,(12, 41),19	468,(18, 41),19	487,(32, 41),19	506,(34, 41),19	525,(39, 41),19	544,(10, 41),19	563,(11, 41),19	582,(13, 41),19	601,(15, 41),19	620,(19, 41),19	639,(20, 41),19	658,(17, 41),19	677,(26, 41),19	696,(28, 41),19	715,(24, 41),19	734,(25, 41),19	753,(37, 41),19	
90,(2, 8),1	91,(2, 23),1	115,(2, 12),3	118,(2, 18),3	121,(2, 32),5	138,(2, 39),4	169,(2, 17),22	191,(2, 26),13	240,(2, 24),25	265,(2, 25),20	285,(2, 37),25	
1,(0, 2),2	3,(0, 3),2	5,(1, 10),6	11,(1, 14),30	41,(1, 15),35	76,(1, 16),7	83,(1, 20),3	86,(1, 25),3	89,(1, 26),1	90,(1, 27),2	92,(1, 30),23	115,(1, 33),14	129,(1, 34),9	138,(4, 7),9	147,(4, 10),1	148,(4, 11),2	150,(4, 13),7	157,(4, 15),1	158,(4, 19),1	159,(4, 20),10	169,(4, 21),40	209,(4, 24),1	210,(4, 28),30	240,(4, 29),24	264,(4, 31),18	282,(4, 33),1	283,(4, 40),15	298,(5, 41),19	317,(35, 41),19	373,(6, 41),19	
