679
# CPU
471,12,7	
44,11,7	
35,10,7	59,20,7	
43,9,7	579,19,7	
48,18,7	55,8,7	
24,7,7	573,17,7	
35,6,7	45,16,7	
23,5,7	539,15,7	
3,2,7	10,4,7	17,14,7	
0,0,1	1,1,7	8,3,7	533,13,7	678,21,1	
# Incoming
49,(2, 12),422	
43,(2, 11),1	
24,(1, 10),11	48,(1, 20),11	
35,(2, 9),8	573,(2, 19),6	
35,(1, 18),13	48,(2, 8),1	
23,(1, 7),1	539,(2, 17),34	
10,(2, 6),25	44,(2, 16),1	
10,(1, 5),13	533,(2, 15),6	
1,(0, 2),2	8,(1, 4),2	
471,(2, 13),62	533,(5, 21),9	542,(7, 21),9	551,(6, 21),9	560,(10, 21),9	569,(9, 21),9	579,(4, 21),9	588,(14, 21),9	597,(11, 21),9	606,(16, 21),9	615,(18, 21),9	624,(8, 21),9	633,(20, 21),9	642,(12, 21),9	651,(15, 21),9	660,(17, 21),9	669,(19, 21),9	
# Outgoing
642,(12, 21),9	
597,(11, 21),9	
560,(10, 21),9	633,(20, 21),9	
569,(9, 21),9	669,(19, 21),9	
615,(18, 21),9	624,(8, 21),9	
542,(7, 21),9	660,(17, 21),9	
551,(6, 21),9	606,(16, 21),9	
533,(5, 21),9	651,(15, 21),9	
10,(2, 6),25	35,(2, 9),8	43,(2, 11),1	44,(2, 16),1	48,(2, 8),1	49,(2, 12),422	471,(2, 13),62	533,(2, 15),6	539,(2, 17),34	573,(2, 19),6	579,(4, 21),9	588,(14, 21),9	
1,(0, 2),2	8,(1, 4),2	10,(1, 5),13	23,(1, 7),1	24,(1, 10),11	35,(1, 18),13	48,(1, 20),11	
