1676
# CPU
154,25,12	166,27,12	238,33,12	337,24,12	379,40,12	
103,21,12	115,29,12	127,35,12	
91,20,12	340,28,12	358,34,12	
157,26,12	331,17,12	355,30,12	367,36,12	
16,16,12	70,19,12	139,23,12	
181,39,12	199,14,12	241,22,12	
10,4,12	22,12,12	55,18,12	76,13,12	178,38,12	
7,3,12	19,37,12	55,11,12	67,7,12	1675,41,1	
4,2,12	16,32,12	28,6,12	202,10,12	319,15,12	
0,0,1	1,1,12	13,8,12	25,5,12	172,9,12	604,31,12	
# Incoming
139,(1, 25),15	154,(2, 27),3	163,(2, 40),3	199,(2, 33),39	331,(4, 24),6	361,(4, 40),18	
76,(2, 35),6	82,(3, 21),21	103,(3, 29),6	109,(3, 35),6	
70,(1, 20),21	337,(4, 28),3	355,(4, 34),3	
154,(1, 26),3	157,(2, 30),6	319,(4, 17),12	340,(4, 30),15	358,(4, 36),3	
13,(1, 16),3	55,(1, 19),15	91,(1, 23),48	
178,(1, 39),3	181,(2, 14),18	199,(3, 22),42	
7,(0, 4),3	16,(1, 18),39	55,(2, 13),21	157,(1, 38),21	
4,(0, 3),3	16,(2, 11),39	55,(4, 7),3	58,(16, 41),48	106,(32, 41),48	181,(8, 41),48	229,(5, 41),48	277,(6, 41),48	325,(19, 41),48	379,(12, 41),48	427,(18, 41),48	475,(13, 41),48	523,(20, 41),48	571,(21, 41),48	619,(29, 41),48	667,(35, 41),48	715,(23, 41),48	763,(25, 41),48	811,(26, 41),48	859,(27, 41),48	907,(9, 41),48	955,(38, 41),48	1003,(39, 41),48	1051,(14, 41),48	1099,(10, 41),48	1147,(33, 41),48	1195,(22, 41),48	1243,(15, 41),48	1291,(17, 41),48	1339,(24, 41),48	1387,(28, 41),48	1435,(30, 41),48	1483,(34, 41),48	1531,(36, 41),48	1579,(40, 41),48	1627,(31, 41),48	
1,(0, 2),3	22,(3, 6),3	172,(4, 10),30	202,(4, 15),117	
19,(3, 5),3	58,(4, 9),114	241,(3, 31),363	
# Outgoing
763,(25, 41),48	859,(27, 41),48	1147,(33, 41),48	1339,(24, 41),48	1579,(40, 41),48	
571,(21, 41),48	619,(29, 41),48	667,(35, 41),48	
523,(20, 41),48	1387,(28, 41),48	1483,(34, 41),48	
811,(26, 41),48	1291,(17, 41),48	1435,(30, 41),48	1531,(36, 41),48	
58,(16, 41),48	325,(19, 41),48	715,(23, 41),48	
1003,(39, 41),48	1051,(14, 41),48	1195,(22, 41),48	
55,(4, 7),3	58,(4, 9),114	172,(4, 10),30	202,(4, 15),117	319,(4, 17),12	331,(4, 24),6	337,(4, 28),3	340,(4, 30),15	355,(4, 34),3	358,(4, 36),3	361,(4, 40),18	379,(12, 41),48	427,(18, 41),48	475,(13, 41),48	955,(38, 41),48	
19,(3, 5),3	22,(3, 6),3	82,(3, 21),21	103,(3, 29),6	109,(3, 35),6	199,(3, 22),42	241,(3, 31),363	
16,(2, 11),39	55,(2, 13),21	76,(2, 35),6	106,(32, 41),48	154,(2, 27),3	157,(2, 30),6	163,(2, 40),3	181,(2, 14),18	199,(2, 33),39	277,(6, 41),48	1099,(10, 41),48	1243,(15, 41),48	
1,(0, 2),3	4,(0, 3),3	7,(0, 4),3	13,(1, 16),3	16,(1, 18),39	55,(1, 19),15	70,(1, 20),21	91,(1, 23),48	139,(1, 25),15	154,(1, 26),3	157,(1, 38),21	178,(1, 39),3	181,(8, 41),48	229,(5, 41),48	907,(9, 41),48	1627,(31, 41),48	
