2189
# CPU
4,4,2	6,69,2	8,5,2	10,8,2	12,80,2	14,40,2	16,65,2	18,10,2	20,11,2	22,13,2	24,85,2	26,102,2	28,14,2	30,168,2	32,147,2	34,52,2	36,184,2	38,111,2	40,17,2	42,20,2	44,177,2	46,138,2	48,58,2	50,185,2	52,90,2	54,28,2	56,76,2	58,83,2	60,186,2	62,86,2	64,127,2	66,105,2	68,109,2	70,118,2	869,132,2	886,135,2	929,42,2	1110,94,2	1119,117,2	1121,122,2	1123,194,2	1129,43,2	1390,193,2	1420,37,2	1531,64,2	1537,91,2	1551,97,2	1622,199,2	1633,22,2	1635,26,2	1715,36,2	1735,73,2	1737,74,2	1741,99,2	1770,154,2	1780,169,2	1782,174,2	1784,176,2	1786,200,2	1788,33,2	1801,66,2	1835,113,2	1852,114,2	1854,141,2	1858,156,2	1860,165,2	1875,54,2	1908,104,2	1923,108,2	1928,153,2	1939,55,2	1941,71,2	1943,95,2	1945,129,2	1955,163,2	1957,164,2	1969,180,2	2009,195,2	2016,27,2	2018,30,2	2020,41,2	2029,49,2	2041,162,2	2051,182,2	2053,187,2	2056,47,2	2067,61,2	2071,93,2	2073,128,2	2075,137,2	2077,151,2	2079,75,2	2081,89,2	2083,96,2	2085,121,2	2089,130,2	2091,131,2	2097,143,2	2099,150,2	2101,157,2	2188,201,1	
0,0,1	1,19,2	3,12,2	5,18,2	7,7,2	9,15,2	11,16,2	13,1,2	15,6,2	17,9,2	19,2,2	21,3,2	23,159,2	25,92,2	27,196,2	29,167,2	31,123,2	33,38,2	35,62,2	37,126,2	39,39,2	41,72,2	43,160,2	45,166,2	47,31,2	49,178,2	51,181,2	53,116,2	55,70,2	57,88,2	59,170,2	61,161,2	63,146,2	65,98,2	67,45,2	69,87,2	71,136,2	73,158,2	75,100,2	77,115,2	79,53,2	81,78,2	83,107,2	85,112,2	87,120,2	89,175,2	91,189,2	93,57,2	99,152,2	101,183,2	103,192,2	112,24,2	114,34,2	116,59,2	185,171,2	208,173,2	225,29,2	234,32,2	246,68,2	253,35,2	270,46,2	272,48,2	277,77,2	279,81,2	301,103,2	337,125,2	352,140,2	355,25,2	357,44,2	360,63,2	368,134,2	371,142,2	375,148,2	386,172,2	390,21,2	398,67,2	403,79,2	430,101,2	432,124,2	434,145,2	436,188,2	438,190,2	449,84,2	451,106,2	459,110,2	461,119,2	463,133,2	466,139,2	468,144,2	470,149,2	472,191,2	486,197,2	506,23,2	515,50,2	517,51,2	520,56,2	522,60,2	526,82,2	528,155,2	531,179,2	533,198,2	
# Incoming
1,(0, 4),3	4,(0, 5),3	7,(0, 8),3	10,(0, 10),3	13,(0, 11),3	16,(0, 13),3	19,(0, 14),3	22,(0, 17),3	25,(0, 20),3	28,(19, 26),5	33,(19, 28),11	44,(19, 33),652	696,(19, 43),15	711,(19, 47),5	716,(19, 73),109	825,(19, 91),32	857,(19, 104),1	858,(19, 113),2	860,(19, 114),1	861,(19, 117),1	862,(19, 131),1	863,(19, 132),6	869,(19, 135),17	886,(19, 151),37	923,(19, 164),1	924,(19, 180),1	925,(12, 41),2	927,(12, 42),2	929,(12, 47),175	1104,(12, 61),4	1108,(12, 91),1	1109,(12, 94),1	1110,(12, 108),6	1116,(12, 117),3	1119,(12, 122),2	1121,(12, 194),2	1123,(18, 30),2	1125,(18, 37),1	1126,(18, 43),3	1129,(18, 47),112	1241,(18, 49),5	1246,(18, 75),15	1261,(18, 89),9	1270,(18, 104),38	1308,(18, 108),67	1375,(18, 128),4	1379,(18, 130),1	1380,(18, 137),9	1389,(18, 193),1	1390,(7, 36),26	1416,(7, 37),4	1420,(7, 49),109	1529,(7, 55),1	1530,(7, 64),1	1531,(7, 91),6	1537,(7, 95),7	1544,(7, 97),7	1551,(7, 113),49	1600,(7, 129),1	1601,(7, 130),2	1603,(7, 151),15	1618,(7, 156),3	1621,(7, 199),1	1622,(15, 22),11	1633,(15, 26),1	1634,(15, 36),81	1715,(15, 47),1	1716,(15, 61),4	1720,(15, 73),15	1735,(15, 74),2	1737,(15, 99),4	1741,(15, 104),6	1747,(15, 108),16	1763,(15, 130),6	1769,(15, 154),1	1770,(15, 169),10	1780,(15, 174),1	1781,(15, 176),2	1783,(15, 200),1	1784,(16, 33),4	1788,(16, 47),7	1795,(16, 49),1	1796,(16, 66),5	1801,(16, 104),2	1803,(16, 113),32	1835,(16, 114),17	1852,(16, 141),1	1853,(16, 153),4	1857,(16, 156),1	1858,(16, 165),1	1859,(16, 180),5	1864,(16, 187),5	1869,(1, 54),6	1875,(1, 61),2	1877,(1, 104),31	1908,(1, 108),15	1923,(1, 121),1	1924,(1, 131),2	1926,(1, 137),1	1927,(1, 153),1	1928,(1, 182),2	1930,(6, 55),9	1939,(6, 71),1	1940,(6, 95),3	1943,(6, 129),1	1944,(6, 137),10	1954,(6, 163),1	1955,(6, 164),1	1956,(6, 180),13	1969,(6, 182),30	1999,(6, 187),7	2006,(6, 195),3	2009,(9, 27),7	2016,(9, 30),1	2017,(9, 41),1	2018,(9, 49),11	2029,(9, 89),1	2030,(9, 150),7	2037,(9, 162),4	2041,(9, 182),10	2051,(9, 187),2	2053,(2, 47),3	2056,(2, 61),11	2067,(2, 93),4	2071,(2, 128),2	2073,(2, 137),1	2074,(2, 151),2	2076,(3, 75),1	2077,(3, 89),1	2078,(3, 96),1	2079,(3, 121),6	2085,(3, 130),4	2089,(3, 131),1	2090,(3, 143),7	2097,(3, 150),1	2098,(3, 157),1	2099,(159, 201),1	2100,(92, 201),1	2101,(196, 201),1	2102,(167, 201),1	2103,(123, 201),1	2104,(38, 201),1	2105,(62, 201),1	2106,(126, 201),1	2107,(39, 201),1	2108,(72, 201),1	2109,(160, 201),1	2110,(166, 201),1	2111,(31, 201),1	2112,(178, 201),1	2113,(181, 201),1	2114,(116, 201),1	2115,(70, 201),1	2116,(88, 201),1	2117,(170, 201),1	2118,(161, 201),1	2119,(146, 201),1	2120,(98, 201),1	2121,(45, 201),1	2122,(87, 201),1	2123,(136, 201),1	2124,(158, 201),1	2125,(100, 201),1	2126,(115, 201),1	2127,(53, 201),1	2128,(78, 201),1	2129,(107, 201),1	2130,(112, 201),1	2131,(120, 201),1	2132,(175, 201),1	2133,(189, 201),1	2134,(57, 201),1	2135,(152, 201),1	2136,(183, 201),1	2137,(192, 201),1	2138,(24, 201),1	2139,(34, 201),1	2140,(59, 201),1	2141,(171, 201),1	2142,(173, 201),1	2143,(29, 201),1	2144,(32, 201),1	2145,(68, 201),1	2146,(35, 201),1	2147,(46, 201),1	2148,(48, 201),1	2149,(77, 201),1	2150,(81, 201),1	2151,(103, 201),1	2152,(125, 201),1	2153,(140, 201),1	2154,(25, 201),1	2155,(44, 201),1	2156,(63, 201),1	2157,(134, 201),1	2158,(142, 201),1	2159,(148, 201),1	2160,(172, 201),1	2161,(21, 201),1	2162,(67, 201),1	2163,(79, 201),1	2164,(101, 201),1	2165,(124, 201),1	2166,(145, 201),1	2167,(188, 201),1	2168,(190, 201),1	2169,(84, 201),1	2170,(106, 201),1	2171,(110, 201),1	2172,(119, 201),1	2173,(133, 201),1	2174,(139, 201),1	2175,(144, 201),1	2176,(149, 201),1	2177,(191, 201),1	2178,(197, 201),1	2179,(23, 201),1	2180,(50, 201),1	2181,(51, 201),1	2182,(56, 201),1	2183,(60, 201),1	2184,(82, 201),1	2185,(155, 201),1	2186,(179, 201),1	2187,(198, 201),1	
6,(4, 34),2	8,(4, 46),1	9,(4, 67),11	20,(4, 88),1	21,(4, 106),1	22,(4, 107),9	31,(4, 112),11	42,(4, 120),3	45,(4, 133),12	57,(4, 134),1	58,(4, 175),11	69,(4, 189),1	70,(5, 57),3	73,(5, 60),5	78,(5, 67),8	86,(5, 119),6	92,(5, 152),7	99,(5, 183),1	100,(5, 192),2	102,(8, 21),2	104,(8, 24),8	112,(8, 34),1	113,(8, 35),1	114,(8, 59),1	115,(8, 67),6	121,(8, 68),7	128,(8, 110),10	138,(8, 134),13	151,(8, 139),3	154,(8, 140),1	155,(8, 142),5	160,(8, 149),1	161,(8, 171),24	185,(8, 173),23	208,(8, 190),9	217,(10, 21),4	221,(10, 29),4	225,(10, 32),9	234,(10, 56),9	243,(10, 60),1	244,(10, 68),2	246,(10, 134),1	247,(10, 188),1	248,(10, 191),1	249,(10, 197),1	250,(11, 35),3	253,(11, 44),16	269,(11, 46),1	270,(11, 48),1	271,(11, 67),5	276,(11, 77),1	277,(11, 81),1	278,(11, 103),23	301,(11, 110),14	315,(11, 119),21	336,(11, 125),1	337,(11, 140),15	352,(11, 179),2	354,(13, 25),1	355,(13, 44),1	356,(13, 63),4	360,(13, 101),1	361,(13, 134),7	368,(13, 139),1	369,(13, 142),2	371,(13, 148),4	375,(13, 172),11	386,(13, 179),1	387,(13, 188),1	388,(14, 21),2	390,(14, 60),7	397,(14, 67),1	398,(14, 79),5	403,(14, 82),11	414,(14, 101),16	430,(14, 124),1	431,(14, 145),1	432,(14, 188),2	434,(14, 190),1	435,(17, 23),12	447,(17, 56),1	448,(17, 84),1	449,(17, 106),1	450,(17, 110),9	459,(17, 119),1	460,(17, 133),2	462,(17, 139),4	466,(17, 144),1	467,(17, 149),2	469,(17, 191),2	471,(17, 197),15	486,(20, 23),20	506,(20, 50),9	515,(20, 51),1	516,(20, 56),4	520,(20, 60),1	521,(20, 82),5	526,(20, 155),1	527,(20, 179),4	531,(20, 198),1	
# Outgoing
6,(4, 34),2	8,(4, 46),1	9,(4, 67),11	20,(4, 88),1	21,(4, 106),1	22,(4, 107),9	31,(4, 112),11	42,(4, 120),3	45,(4, 133),12	57,(4, 134),1	58,(4, 175),11	69,(4, 189),1	70,(5, 57),3	73,(5, 60),5	78,(5, 67),8	86,(5, 119),6	92,(5, 152),7	99,(5, 183),1	100,(5, 192),2	102,(8, 21),2	104,(8, 24),8	112,(8, 34),1	113,(8, 35),1	114,(8, 59),1	115,(8, 67),6	121,(8, 68),7	128,(8, 110),10	138,(8, 134),13	151,(8, 139),3	154,(8, 140),1	155,(8, 142),5	160,(8, 149),1	161,(8, 171),24	185,(8, 173),23	208,(8, 190),9	217,(10, 21),4	221,(10, 29),4	225,(10, 32),9	234,(10, 56),9	243,(10, 60),1	244,(10, 68),2	246,(10, 134),1	247,(10, 188),1	248,(10, 191),1	249,(10, 197),1	250,(11, 35),3	253,(11, 44),16	269,(11, 46),1	270,(11, 48),1	271,(11, 67),5	276,(11, 77),1	277,(11, 81),1	278,(11, 103),23	301,(11, 110),14	315,(11, 119),21	336,(11, 125),1	337,(11, 140),15	352,(11, 179),2	354,(13, 25),1	355,(13, 44),1	356,(13, 63),4	360,(13, 101),1	361,(13, 134),7	368,(13, 139),1	369,(13, 142),2	371,(13, 148),4	375,(13, 172),11	386,(13, 179),1	387,(13, 188),1	388,(14, 21),2	390,(14, 60),7	397,(14, 67),1	398,(14, 79),5	403,(14, 82),11	414,(14, 101),16	430,(14, 124),1	431,(14, 145),1	432,(14, 188),2	434,(14, 190),1	435,(17, 23),12	447,(17, 56),1	448,(17, 84),1	449,(17, 106),1	450,(17, 110),9	459,(17, 119),1	460,(17, 133),2	462,(17, 139),4	466,(17, 144),1	467,(17, 149),2	469,(17, 191),2	471,(17, 197),15	486,(20, 23),20	506,(20, 50),9	515,(20, 51),1	516,(20, 56),4	520,(20, 60),1	521,(20, 82),5	526,(20, 155),1	527,(20, 179),4	531,(20, 198),1	
1,(0, 4),3	4,(0, 5),3	7,(0, 8),3	10,(0, 10),3	13,(0, 11),3	16,(0, 13),3	19,(0, 14),3	22,(0, 17),3	25,(0, 20),3	28,(19, 26),5	33,(19, 28),11	44,(19, 33),652	696,(19, 43),15	711,(19, 47),5	716,(19, 73),109	825,(19, 91),32	857,(19, 104),1	858,(19, 113),2	860,(19, 114),1	861,(19, 117),1	862,(19, 131),1	863,(19, 132),6	869,(19, 135),17	886,(19, 151),37	923,(19, 164),1	924,(19, 180),1	925,(12, 41),2	927,(12, 42),2	929,(12, 47),175	1104,(12, 61),4	1108,(12, 91),1	1109,(12, 94),1	1110,(12, 108),6	1116,(12, 117),3	1119,(12, 122),2	1121,(12, 194),2	1123,(18, 30),2	1125,(18, 37),1	1126,(18, 43),3	1129,(18, 47),112	1241,(18, 49),5	1246,(18, 75),15	1261,(18, 89),9	1270,(18, 104),38	1308,(18, 108),67	1375,(18, 128),4	1379,(18, 130),1	1380,(18, 137),9	1389,(18, 193),1	1390,(7, 36),26	1416,(7, 37),4	1420,(7, 49),109	1529,(7, 55),1	1530,(7, 64),1	1531,(7, 91),6	1537,(7, 95),7	1544,(7, 97),7	1551,(7, 113),49	1600,(7, 129),1	1601,(7, 130),2	1603,(7, 151),15	1618,(7, 156),3	1621,(7, 199),1	1622,(15, 22),11	1633,(15, 26),1	1634,(15, 36),81	1715,(15, 47),1	1716,(15, 61),4	1720,(15, 73),15	1735,(15, 74),2	1737,(15, 99),4	1741,(15, 104),6	1747,(15, 108),16	1763,(15, 130),6	1769,(15, 154),1	1770,(15, 169),10	1780,(15, 174),1	1781,(15, 176),2	1783,(15, 200),1	1784,(16, 33),4	1788,(16, 47),7	1795,(16, 49),1	1796,(16, 66),5	1801,(16, 104),2	1803,(16, 113),32	1835,(16, 114),17	1852,(16, 141),1	1853,(16, 153),4	1857,(16, 156),1	1858,(16, 165),1	1859,(16, 180),5	1864,(16, 187),5	1869,(1, 54),6	1875,(1, 61),2	1877,(1, 104),31	1908,(1, 108),15	1923,(1, 121),1	1924,(1, 131),2	1926,(1, 137),1	1927,(1, 153),1	1928,(1, 182),2	1930,(6, 55),9	1939,(6, 71),1	1940,(6, 95),3	1943,(6, 129),1	1944,(6, 137),10	1954,(6, 163),1	1955,(6, 164),1	1956,(6, 180),13	1969,(6, 182),30	1999,(6, 187),7	2006,(6, 195),3	2009,(9, 27),7	2016,(9, 30),1	2017,(9, 41),1	2018,(9, 49),11	2029,(9, 89),1	2030,(9, 150),7	2037,(9, 162),4	2041,(9, 182),10	2051,(9, 187),2	2053,(2, 47),3	2056,(2, 61),11	2067,(2, 93),4	2071,(2, 128),2	2073,(2, 137),1	2074,(2, 151),2	2076,(3, 75),1	2077,(3, 89),1	2078,(3, 96),1	2079,(3, 121),6	2085,(3, 130),4	2089,(3, 131),1	2090,(3, 143),7	2097,(3, 150),1	2098,(3, 157),1	2099,(159, 201),1	2100,(92, 201),1	2101,(196, 201),1	2102,(167, 201),1	2103,(123, 201),1	2104,(38, 201),1	2105,(62, 201),1	2106,(126, 201),1	2107,(39, 201),1	2108,(72, 201),1	2109,(160, 201),1	2110,(166, 201),1	2111,(31, 201),1	2112,(178, 201),1	2113,(181, 201),1	2114,(116, 201),1	2115,(70, 201),1	2116,(88, 201),1	2117,(170, 201),1	2118,(161, 201),1	2119,(146, 201),1	2120,(98, 201),1	2121,(45, 201),1	2122,(87, 201),1	2123,(136, 201),1	2124,(158, 201),1	2125,(100, 201),1	2126,(115, 201),1	2127,(53, 201),1	2128,(78, 201),1	2129,(107, 201),1	2130,(112, 201),1	2131,(120, 201),1	2132,(175, 201),1	2133,(189, 201),1	2134,(57, 201),1	2135,(152, 201),1	2136,(183, 201),1	2137,(192, 201),1	2138,(24, 201),1	2139,(34, 201),1	2140,(59, 201),1	2141,(171, 201),1	2142,(173, 201),1	2143,(29, 201),1	2144,(32, 201),1	2145,(68, 201),1	2146,(35, 201),1	2147,(46, 201),1	2148,(48, 201),1	2149,(77, 201),1	2150,(81, 201),1	2151,(103, 201),1	2152,(125, 201),1	2153,(140, 201),1	2154,(25, 201),1	2155,(44, 201),1	2156,(63, 201),1	2157,(134, 201),1	2158,(142, 201),1	2159,(148, 201),1	2160,(172, 201),1	2161,(21, 201),1	2162,(67, 201),1	2163,(79, 201),1	2164,(101, 201),1	2165,(124, 201),1	2166,(145, 201),1	2167,(188, 201),1	2168,(190, 201),1	2169,(84, 201),1	2170,(106, 201),1	2171,(110, 201),1	2172,(119, 201),1	2173,(133, 201),1	2174,(139, 201),1	2175,(144, 201),1	2176,(149, 201),1	2177,(191, 201),1	2178,(197, 201),1	2179,(23, 201),1	2180,(50, 201),1	2181,(51, 201),1	2182,(56, 201),1	2183,(60, 201),1	2184,(82, 201),1	2185,(155, 201),1	2186,(179, 201),1	2187,(198, 201),1	
