226
# CPU
0,81,1	1,72,1	2,67,1	3,52,1	4,62,1	5,44,1	6,36,1	7,35,1	8,65,1	9,54,1	10,68,1	11,26,1	12,61,1	13,73,1	14,18,1	15,63,1	16,37,1	17,33,1	18,66,1	19,74,1	20,19,1	21,69,1	22,40,1	23,20,1	24,53,1	25,13,1	26,41,1	27,15,1	28,70,1	29,60,1	30,38,1	31,42,1	32,21,1	33,31,1	34,28,1	35,51,1	36,12,1	37,75,1	38,78,1	39,71,1	40,45,1	41,14,1	42,32,1	43,56,1	44,49,1	45,79,1	46,57,1	47,30,1	48,10,1	49,39,1	50,17,1	51,24,1	52,64,1	53,11,1	54,16,1	55,23,1	56,27,1	57,77,1	58,76,1	59,46,1	60,47,1	61,59,1	62,48,1	63,50,1	64,34,1	65,80,1	66,9,1	67,8,1	68,58,1	69,6,1	70,22,1	71,4,1	72,29,1	73,5,1	74,2,1	76,7,1	110,1,1	224,3,1	225,0,1	
45,43,1	67,25,1	

23,55,1	
# Incoming
24,(55, 2),8	68,(25, 7),8	76,(43, 1),34	110,(25, 3),114	
23,(81, 43),22	45,(81, 25),22	

1,(81, 55),22	
# Outgoing
1,(81, 55),22	23,(81, 43),22	45,(81, 25),22	
68,(25, 7),8	76,(43, 1),34	110,(25, 3),114	

24,(55, 2),8	
