2021
# CPU
3,3,10	13,6,10	23,9,10	33,12,10	43,40,10	53,106,10	63,17,10	73,52,10	83,24,10	93,70,10	103,116,10	113,117,10	123,55,10	133,64,10	155,113,10	165,119,10	197,108,10	213,92,10	227,96,10	237,104,10	247,114,10	257,37,10	267,49,10	277,67,10	287,100,10	297,84,10	419,22,10	429,34,10	439,61,10	449,91,10	459,90,10	469,82,10	479,86,10	489,23,10	499,118,10	509,25,10	550,31,10	560,74,10	660,76,10	670,78,10	682,80,10	692,102,10	702,115,10	726,29,10	748,46,10	763,58,10	773,20,10	783,27,10	793,88,10	803,94,10	813,120,10	823,15,10	837,43,10	848,98,10	858,110,10	2020,121,1	
2,2,10	12,5,10	22,8,10	32,11,10	42,89,10	52,51,10	62,101,10	212,66,10	222,75,10	286,14,10	444,77,10	454,85,10	478,93,10	488,112,10	834,81,10	886,28,10	901,33,10	932,48,10	960,54,10	970,57,10	980,60,10	990,72,10	1000,111,10	1010,18,10	1020,39,10	1030,42,10	1822,45,10	1853,95,10	1863,105,10	1873,109,10	1883,21,10	1893,26,10	1903,36,10	1913,79,10	1923,97,10	1933,107,10	1943,30,10	1953,63,10	1963,69,10	1973,83,10	1989,87,10	1999,99,10	2009,103,10	
0,0,1	1,10,10	11,4,10	21,1,10	31,7,10	41,50,10	51,59,10	61,65,10	71,16,10	205,68,10	215,13,10	250,41,10	283,71,10	461,35,10	471,44,10	481,53,10	491,73,10	563,19,10	645,62,10	900,32,10	913,38,10	923,47,10	936,56,10	
# Incoming
2,(0, 3),1	4,(0, 6),1	6,(0, 9),1	8,(0, 12),1	11,(10, 23),6	17,(10, 24),1	18,(2, 23),3	21,(2, 24),2	23,(2, 106),3	26,(10, 55),2	28,(2, 27),9	37,(2, 52),4	41,(2, 55),7	48,(10, 64),1	49,(2, 25),47	96,(2, 49),14	110,(2, 78),6	116,(2, 94),26	142,(2, 113),13	155,(2, 119),2	157,(5, 23),6	163,(5, 43),5	168,(5, 49),1	169,(5, 61),2	171,(5, 88),1	172,(5, 98),19	191,(5, 108),6	197,(8, 31),8	212,(10, 92),1	213,(10, 94),8	222,(10, 96),5	227,(10, 102),1	228,(10, 104),5	233,(10, 114),14	247,(4, 37),10	257,(4, 46),1	258,(4, 49),1	259,(4, 67),4	263,(5, 102),20	283,(8, 98),1	284,(8, 100),1	285,(11, 84),1	286,(4, 22),133	419,(11, 34),2	421,(4, 61),11	432,(8, 91),4	436,(8, 118),4	440,(11, 90),3	443,(11, 115),1	444,(4, 82),1	445,(89, 121),1	446,(51, 121),1	447,(4, 86),2	449,(8, 23),24	473,(11, 58),6	480,(4, 118),9	489,(1, 25),9	498,(1, 31),52	550,(1, 74),1	551,(1, 76),109	660,(1, 78),2	662,(1, 80),20	682,(1, 88),6	688,(1, 102),4	692,(1, 115),9	701,(8, 29),25	726,(8, 46),22	748,(8, 58),15	763,(7, 20),10	773,(7, 27),1	774,(7, 88),3	777,(7, 94),1	778,(7, 120),14	792,(11, 15),20	812,(11, 43),25	837,(11, 98),11	848,(11, 110),7	855,(50, 121),1	856,(59, 121),1	857,(65, 121),1	858,(101, 121),1	859,(16, 121),1	860,(68, 121),1	861,(66, 121),1	862,(13, 121),1	863,(75, 121),1	864,(41, 121),1	865,(71, 121),1	866,(14, 121),1	867,(77, 121),1	868,(85, 121),1	869,(35, 121),1	870,(44, 121),1	871,(93, 121),1	872,(53, 121),1	873,(112, 121),1	874,(73, 121),1	875,(19, 121),1	876,(62, 121),1	877,(81, 121),1	896,(28, 121),1	911,(33, 121),1	942,(48, 121),1	970,(54, 121),1	980,(57, 121),1	990,(60, 121),1	997,(32, 121),1	998,(38, 121),1	999,(47, 121),1	1000,(56, 121),1	1001,(72, 121),1	1010,(111, 121),1	1020,(18, 121),1	1030,(39, 121),1	1040,(42, 121),1	1832,(45, 121),1	1863,(95, 121),1	1873,(105, 121),1	1883,(109, 121),1	1893,(21, 121),1	1903,(26, 121),1	1913,(36, 121),1	1923,(79, 121),1	1933,(97, 121),1	1943,(107, 121),1	1953,(30, 121),1	1963,(63, 121),1	1973,(69, 121),1	1983,(83, 121),1	1999,(87, 121),1	2009,(99, 121),1	2019,(103, 121),1	
1,(0, 2),1	3,(0, 5),1	5,(0, 8),1	7,(0, 11),1	18,(10, 39),1	19,(10, 51),7	28,(10, 57),1	29,(10, 60),18	47,(10, 63),1	49,(10, 66),163	212,(3, 54),4	216,(3, 60),1	217,(3, 75),2	219,(3, 93),1	220,(3, 103),1	221,(10, 95),1	222,(3, 33),22	244,(3, 48),11	255,(3, 69),8	263,(4, 14),23	306,(3, 77),4	310,(3, 87),39	349,(3, 107),31	380,(3, 112),6	386,(6, 28),1	402,(6, 57),8	419,(4, 33),1	420,(4, 45),1	432,(4, 77),12	445,(4, 85),2	449,(4, 87),4	453,(4, 93),25	478,(4, 112),2	480,(6, 69),272	752,(6, 79),1	753,(6, 81),81	834,(6, 87),5	839,(6, 95),8	847,(6, 97),13	860,(6, 99),15	875,(6, 111),8	883,(1, 28),3	886,(1, 33),15	901,(1, 39),5	906,(1, 42),21	927,(1, 48),5	932,(1, 54),28	960,(1, 57),1	961,(1, 60),1	962,(1, 72),6	968,(1, 111),29	997,(9, 18),9	1006,(9, 26),1	1007,(9, 39),11	1018,(9, 42),1	1019,(9, 45),803	1822,(9, 69),30	1852,(9, 95),1	1853,(9, 105),1	1854,(9, 109),3	1857,(7, 21),4	1861,(7, 26),1	1862,(7, 36),14	1876,(7, 79),11	1887,(7, 97),6	1893,(7, 99),19	1912,(7, 107),2	1914,(12, 30),1	1915,(12, 63),14	1929,(12, 69),5	1934,(12, 83),4	1938,(12, 87),51	1989,(12, 99),1	1990,(12, 103),5	
13,(3, 19),4	17,(3, 44),137	154,(3, 62),5	159,(3, 68),46	205,(5, 13),3	208,(5, 32),1	209,(5, 47),16	225,(5, 53),1	226,(5, 62),2	228,(5, 71),6	234,(8, 41),16	250,(11, 56),1	263,(3, 71),20	283,(3, 73),23	306,(11, 53),23	387,(6, 35),15	410,(6, 73),50	460,(9, 35),1	461,(9, 44),1	462,(9, 53),3	465,(9, 73),14	479,(11, 19),84	563,(11, 62),82	883,(12, 32),17	900,(12, 38),13	913,(12, 47),6	919,(12, 56),17	
# Outgoing
13,(3, 19),4	17,(3, 44),137	154,(3, 62),5	159,(3, 68),46	212,(3, 54),4	216,(3, 60),1	217,(3, 75),2	219,(3, 93),1	220,(3, 103),1	222,(3, 33),22	244,(3, 48),11	255,(3, 69),8	263,(3, 71),20	283,(3, 73),23	306,(3, 77),4	310,(3, 87),39	349,(3, 107),31	380,(3, 112),6	386,(6, 28),1	387,(6, 35),15	402,(6, 57),8	410,(6, 73),50	460,(9, 35),1	461,(9, 44),1	462,(9, 53),3	465,(9, 73),14	480,(6, 69),272	752,(6, 79),1	753,(6, 81),81	834,(6, 87),5	839,(6, 95),8	847,(6, 97),13	860,(6, 99),15	875,(6, 111),8	883,(12, 32),17	900,(12, 38),13	913,(12, 47),6	919,(12, 56),17	997,(9, 18),9	1006,(9, 26),1	1007,(9, 39),11	1018,(9, 42),1	1019,(9, 45),803	1822,(9, 69),30	1852,(9, 95),1	1853,(9, 105),1	1854,(9, 109),3	1914,(12, 30),1	1915,(12, 63),14	1929,(12, 69),5	1934,(12, 83),4	1938,(12, 87),51	1989,(12, 99),1	1990,(12, 103),5	
18,(2, 23),3	21,(2, 24),2	23,(2, 106),3	28,(2, 27),9	37,(2, 52),4	41,(2, 55),7	49,(2, 25),47	96,(2, 49),14	110,(2, 78),6	116,(2, 94),26	142,(2, 113),13	155,(2, 119),2	157,(5, 23),6	163,(5, 43),5	168,(5, 49),1	169,(5, 61),2	171,(5, 88),1	172,(5, 98),19	191,(5, 108),6	197,(8, 31),8	205,(5, 13),3	208,(5, 32),1	209,(5, 47),16	225,(5, 53),1	226,(5, 62),2	228,(5, 71),6	234,(8, 41),16	250,(11, 56),1	263,(5, 102),20	283,(8, 98),1	284,(8, 100),1	285,(11, 84),1	306,(11, 53),23	419,(11, 34),2	432,(8, 91),4	436,(8, 118),4	440,(11, 90),3	443,(11, 115),1	445,(89, 121),1	446,(51, 121),1	449,(8, 23),24	473,(11, 58),6	479,(11, 19),84	563,(11, 62),82	701,(8, 29),25	726,(8, 46),22	748,(8, 58),15	792,(11, 15),20	812,(11, 43),25	837,(11, 98),11	848,(11, 110),7	858,(101, 121),1	861,(66, 121),1	863,(75, 121),1	866,(14, 121),1	867,(77, 121),1	868,(85, 121),1	871,(93, 121),1	873,(112, 121),1	877,(81, 121),1	896,(28, 121),1	911,(33, 121),1	942,(48, 121),1	970,(54, 121),1	980,(57, 121),1	990,(60, 121),1	1001,(72, 121),1	1010,(111, 121),1	1020,(18, 121),1	1030,(39, 121),1	1040,(42, 121),1	1832,(45, 121),1	1863,(95, 121),1	1873,(105, 121),1	1883,(109, 121),1	1893,(21, 121),1	1903,(26, 121),1	1913,(36, 121),1	1923,(79, 121),1	1933,(97, 121),1	1943,(107, 121),1	1953,(30, 121),1	1963,(63, 121),1	1973,(69, 121),1	1983,(83, 121),1	1999,(87, 121),1	2009,(99, 121),1	2019,(103, 121),1	
1,(0, 2),1	2,(0, 3),1	3,(0, 5),1	4,(0, 6),1	5,(0, 8),1	6,(0, 9),1	7,(0, 11),1	8,(0, 12),1	11,(10, 23),6	17,(10, 24),1	18,(10, 39),1	19,(10, 51),7	26,(10, 55),2	28,(10, 57),1	29,(10, 60),18	47,(10, 63),1	48,(10, 64),1	49,(10, 66),163	212,(10, 92),1	213,(10, 94),8	221,(10, 95),1	222,(10, 96),5	227,(10, 102),1	228,(10, 104),5	233,(10, 114),14	247,(4, 37),10	257,(4, 46),1	258,(4, 49),1	259,(4, 67),4	263,(4, 14),23	286,(4, 22),133	419,(4, 33),1	420,(4, 45),1	421,(4, 61),11	432,(4, 77),12	444,(4, 82),1	445,(4, 85),2	447,(4, 86),2	449,(4, 87),4	453,(4, 93),25	478,(4, 112),2	480,(4, 118),9	489,(1, 25),9	498,(1, 31),52	550,(1, 74),1	551,(1, 76),109	660,(1, 78),2	662,(1, 80),20	682,(1, 88),6	688,(1, 102),4	692,(1, 115),9	763,(7, 20),10	773,(7, 27),1	774,(7, 88),3	777,(7, 94),1	778,(7, 120),14	855,(50, 121),1	856,(59, 121),1	857,(65, 121),1	859,(16, 121),1	860,(68, 121),1	862,(13, 121),1	864,(41, 121),1	865,(71, 121),1	869,(35, 121),1	870,(44, 121),1	872,(53, 121),1	874,(73, 121),1	875,(19, 121),1	876,(62, 121),1	883,(1, 28),3	886,(1, 33),15	901,(1, 39),5	906,(1, 42),21	927,(1, 48),5	932,(1, 54),28	960,(1, 57),1	961,(1, 60),1	962,(1, 72),6	968,(1, 111),29	997,(32, 121),1	998,(38, 121),1	999,(47, 121),1	1000,(56, 121),1	1857,(7, 21),4	1861,(7, 26),1	1862,(7, 36),14	1876,(7, 79),11	1887,(7, 97),6	1893,(7, 99),19	1912,(7, 107),2	
