4822
# CPU
105,14,16	121,19,16	137,24,16	233,29,16	249,34,16	265,9,16	333,39,16	
49,4,16	69,13,16	97,18,16	161,28,16	233,23,16	793,8,16	889,33,16	913,38,16	
33,3,16	49,12,16	65,37,16	93,7,16	137,22,16	157,27,16	489,17,16	569,32,16	
17,2,16	33,21,16	49,36,16	65,6,16	81,26,16	273,11,16	289,16,16	329,31,16	
0,0,1	1,1,16	17,5,16	33,25,16	49,10,16	181,20,16	309,40,16	581,35,16	865,30,16	1285,15,16	4821,41,1	
# Incoming
93,(1, 9),8	101,(2, 14),4	105,(2, 19),12	117,(3, 24),4	121,(3, 29),112	233,(2, 34),16	249,(4, 9),16	329,(4, 39),4	
33,(0, 4),16	49,(2, 13),20	69,(2, 33),16	85,(3, 18),12	157,(1, 28),4	181,(2, 23),52	233,(3, 8),560	865,(3, 33),24	889,(3, 38),24	
17,(0, 3),16	33,(2, 12),4	49,(1, 7),44	101,(1, 22),36	137,(1, 27),20	161,(1, 32),180	341,(4, 17),148	509,(4, 32),60	
1,(0, 2),16	49,(3, 6),8	57,(3, 26),24	265,(4, 11),8	273,(4, 16),4	277,(4, 31),52	
117,(2, 20),64	249,(2, 35),12	261,(2, 40),48	309,(21, 41),136	489,(4, 30),20	569,(4, 35),12	581,(36, 41),136	793,(3, 30),72	865,(4, 15),420	1285,(12, 41),136	1421,(6, 41),136	1557,(37, 41),136	1693,(13, 41),136	1829,(26, 41),136	1965,(7, 41),136	2101,(18, 41),136	2237,(14, 41),136	2373,(19, 41),136	2509,(22, 41),136	2645,(24, 41),136	2781,(27, 41),136	2917,(28, 41),136	3053,(29, 41),136	3189,(23, 41),136	3325,(34, 41),136	3461,(9, 41),136	3597,(11, 41),136	3733,(16, 41),136	3869,(31, 41),136	4005,(39, 41),136	4141,(17, 41),136	4277,(32, 41),136	4413,(8, 41),136	4549,(33, 41),136	4685,(38, 41),136	
# Outgoing
2237,(14, 41),136	2373,(19, 41),136	2645,(24, 41),136	3053,(29, 41),136	3325,(34, 41),136	3461,(9, 41),136	4005,(39, 41),136	
249,(4, 9),16	265,(4, 11),8	273,(4, 16),4	277,(4, 31),52	329,(4, 39),4	341,(4, 17),148	489,(4, 30),20	509,(4, 32),60	569,(4, 35),12	865,(4, 15),420	1693,(13, 41),136	2101,(18, 41),136	2917,(28, 41),136	3189,(23, 41),136	4413,(8, 41),136	4549,(33, 41),136	4685,(38, 41),136	
49,(3, 6),8	57,(3, 26),24	85,(3, 18),12	117,(3, 24),4	121,(3, 29),112	233,(3, 8),560	793,(3, 30),72	865,(3, 33),24	889,(3, 38),24	1285,(12, 41),136	1557,(37, 41),136	1965,(7, 41),136	2509,(22, 41),136	2781,(27, 41),136	4141,(17, 41),136	4277,(32, 41),136	
33,(2, 12),4	49,(2, 13),20	69,(2, 33),16	101,(2, 14),4	105,(2, 19),12	117,(2, 20),64	181,(2, 23),52	233,(2, 34),16	249,(2, 35),12	261,(2, 40),48	309,(21, 41),136	581,(36, 41),136	1421,(6, 41),136	1829,(26, 41),136	3597,(11, 41),136	3733,(16, 41),136	3869,(31, 41),136	
1,(0, 2),16	17,(0, 3),16	33,(0, 4),16	49,(1, 7),44	93,(1, 9),8	101,(1, 22),36	137,(1, 27),20	157,(1, 28),4	161,(1, 32),180	
