7911
# CPU
5,4,25	30,8,25	186,12,25	211,13,25	236,19,25	5120,10,25	5145,21,25	5170,24,25	5195,28,25	5220,34,25	5245,35,25	5270,75,25	5295,80,25	5320,39,25	5345,46,25	5370,63,25	5395,68,25	5420,71,25	5445,76,25	5470,79,25	
3,3,25	28,5,25	60,42,25	188,22,25	334,51,25	1126,47,25	5050,74,25	5138,15,25	5194,38,25	5219,72,25	5286,9,25	5311,11,25	5336,14,25	5361,16,25	5386,27,25	5411,44,25	5436,48,25	5461,58,25	5486,60,25	5511,65,25	
9,7,25	62,18,25	2012,55,25	5538,32,25	5563,36,25	5664,57,25	5752,54,25	5778,59,25	5870,30,25	5906,52,25	5992,53,25	6020,64,25	6045,69,25	6070,23,25	6095,26,25	6120,29,25	6145,33,25	6170,56,25	6195,70,25	6220,73,25	7910,81,1	
0,0,1	1,1,25	26,2,25	51,6,25	76,17,25	148,37,25	234,49,25	268,50,25	378,66,25	403,20,25	428,43,25	453,61,25	498,25,25	523,31,25	548,40,25	573,41,25	598,45,25	623,62,25	648,67,25	673,77,25	698,78,25	
# Incoming
3,(0, 4),2	9,(0, 8),2	28,(3, 13),12	46,(1, 13),14	60,(3, 24),6	66,(1, 19),18	84,(1, 21),22	106,(3, 21),28	134,(3, 34),6	140,(3, 39),2	142,(3, 46),30	172,(7, 10),8	180,(7, 12),6	186,(7, 13),2	190,(3, 80),2	192,(5, 24),4	196,(5, 34),2	198,(5, 35),2	200,(5, 39),2	210,(7, 19),12	222,(7, 21),6	228,(7, 24),14	242,(5, 63),14	256,(7, 46),2	258,(7, 63),2	266,(7, 71),2	268,(5, 68),16	284,(5, 71),40	378,(7, 68),12	390,(7, 76),4	394,(7, 80),12	1064,(1, 34),14	1080,(1, 39),24	1104,(1, 46),2	2010,(1, 63),2	2016,(1, 68),26	2042,(1, 71),6	5050,(1, 75),12	5062,(1, 76),14	5076,(1, 79),12	5088,(1, 80),28	5116,(2, 10),4	5140,(2, 21),2	5142,(2, 24),2	5144,(2, 28),24	5168,(2, 34),2	5170,(2, 35),2	5194,(2, 46),8	5204,(2, 63),2	5210,(2, 68),4	5216,(2, 75),6	5222,(2, 76),58	5280,(2, 79),2	5282,(2, 80),2	5294,(6, 39),10	5322,(6, 46),10	5346,(6, 63),6	5360,(6, 68),2	5362,(6, 71),2	5364,(6, 76),4	5368,(6, 79),22	
1,(0, 3),2	5,(0, 5),2	26,(1, 9),18	44,(1, 11),2	46,(4, 11),8	54,(4, 15),2	56,(4, 16),2	58,(4, 42),2	60,(1, 15),2	62,(1, 16),4	66,(4, 27),10	76,(7, 9),6	82,(7, 58),2	84,(7, 72),2	86,(4, 72),2	88,(7, 14),14	102,(7, 60),4	106,(1, 22),44	150,(4, 47),6	156,(4, 48),6	162,(7, 51),8	172,(8, 14),8	180,(8, 15),2	182,(8, 16),4	186,(8, 22),2	188,(7, 15),22	242,(7, 44),14	260,(7, 65),6	268,(4, 51),66	334,(8, 44),16	350,(8, 72),2	352,(8, 74),4	364,(1, 27),2	366,(8, 60),30	1078,(1, 38),2	1106,(1, 47),20	2004,(1, 60),6	2014,(1, 65),2	2048,(1, 72),4	5038,(1, 74),12	5120,(2, 11),2	5122,(2, 14),14	5136,(2, 15),2	5138,(2, 16),2	5172,(2, 38),22	5202,(2, 48),2	5206,(2, 65),4	5214,(2, 72),2	5284,(6, 9),2	5286,(6, 11),2	5288,(6, 14),2	5290,(6, 16),2	5292,(6, 27),2	5304,(6, 44),18	5332,(6, 48),4	5336,(6, 58),2	5338,(6, 60),8	5352,(6, 65),8	
7,(0, 7),2	40,(3, 18),2	44,(3, 29),14	58,(3, 36),2	60,(4, 18),2	62,(4, 36),4	76,(4, 32),10	88,(8, 36),2	90,(3, 52),2	92,(3, 54),2	94,(3, 55),2	96,(3, 57),10	114,(4, 23),30	150,(1, 23),110	260,(1, 26),104	364,(3, 59),2	366,(1, 29),684	1050,(1, 32),14	1064,(3, 69),12	1076,(3, 70),22	1098,(3, 73),24	1122,(5, 53),2	1124,(8, 54),2	1126,(1, 52),2	1128,(1, 53),210	1338,(1, 54),464	1802,(1, 55),10	1812,(1, 57),152	1964,(1, 59),40	2004,(5, 36),6	2010,(8, 55),2	2012,(1, 64),2	2014,(4, 53),38	2052,(1, 73),2986	5038,(4, 30),54	5092,(4, 57),300	5392,(4, 59),28	5420,(4, 69),10	5430,(2, 26),46	5476,(2, 29),54	5530,(2, 32),8	5538,(2, 36),2	5540,(2, 53),92	5632,(2, 56),6	5638,(2, 57),26	5664,(2, 59),2	5666,(2, 64),12	5678,(2, 70),10	5688,(2, 73),42	5730,(5, 33),10	5740,(5, 54),12	5752,(5, 56),22	5774,(5, 59),4	5778,(5, 64),4	5782,(5, 69),32	5814,(5, 70),16	5830,(8, 23),6	5836,(8, 26),18	5854,(8, 30),16	5870,(8, 52),36	5906,(8, 53),86	5992,(8, 56),8	6000,(8, 64),20	6020,(8, 69),2	6022,(8, 73),36	6058,(6, 23),4	6062,(6, 26),2	6064,(6, 29),12	6076,(6, 33),18	6094,(6, 56),2	6096,(6, 70),4	6100,(6, 73),8	6108,(42, 81),34	6142,(17, 81),34	6176,(37, 81),34	6210,(12, 81),34	6244,(22, 81),34	6278,(13, 81),34	6312,(49, 81),34	6346,(19, 81),34	6380,(50, 81),34	6414,(51, 81),34	6448,(66, 81),34	6482,(20, 81),34	6516,(43, 81),34	6550,(61, 81),34	6584,(25, 81),34	6618,(31, 81),34	6652,(40, 81),34	6686,(41, 81),34	6720,(45, 81),34	6754,(62, 81),34	6788,(67, 81),34	6822,(77, 81),34	6856,(78, 81),34	6890,(47, 81),34	6924,(74, 81),34	6958,(10, 81),34	6992,(15, 81),34	7026,(21, 81),34	7060,(24, 81),34	7094,(38, 81),34	7128,(28, 81),34	7162,(72, 81),34	7196,(34, 81),34	7230,(35, 81),34	7264,(75, 81),34	7298,(9, 81),34	7332,(80, 81),34	7366,(11, 81),34	7400,(39, 81),34	7434,(14, 81),34	7468,(46, 81),34	7502,(16, 81),34	7536,(63, 81),34	7570,(27, 81),34	7604,(68, 81),34	7638,(44, 81),34	7672,(71, 81),34	7706,(48, 81),34	7740,(76, 81),34	7774,(58, 81),34	7808,(79, 81),34	7842,(60, 81),34	7876,(65, 81),34	
42,(3, 20),2	66,(3, 41),12	78,(3, 45),12	90,(4, 20),24	114,(7, 20),22	136,(7, 31),8	144,(4, 37),4	148,(4, 77),2	150,(7, 40),2	152,(7, 49),6	158,(7, 62),4	162,(4, 66),4	166,(4, 67),6	172,(3, 50),18	190,(4, 41),30	220,(4, 49),14	234,(4, 50),34	268,(7, 45),24	292,(7, 66),86	378,(5, 20),2	380,(5, 40),30	410,(5, 41),2	412,(5, 43),2	414,(5, 45),2	416,(5, 61),2	418,(5, 62),6	424,(5, 67),44	468,(5, 77),12	480,(5, 78),16	496,(8, 25),2	498,(8, 31),2	500,(8, 40),4	504,(8, 41),4	508,(8, 45),64	572,(8, 62),2	574,(8, 67),10	584,(8, 77),2	586,(8, 78),54	
# Outgoing
46,(4, 11),8	54,(4, 15),2	56,(4, 16),2	58,(4, 42),2	60,(4, 18),2	62,(4, 36),4	66,(4, 27),10	76,(4, 32),10	86,(4, 72),2	88,(8, 36),2	90,(4, 20),24	114,(4, 23),30	144,(4, 37),4	148,(4, 77),2	150,(4, 47),6	156,(4, 48),6	162,(4, 66),4	166,(4, 67),6	172,(8, 14),8	180,(8, 15),2	182,(8, 16),4	186,(8, 22),2	190,(4, 41),30	220,(4, 49),14	234,(4, 50),34	268,(4, 51),66	334,(8, 44),16	350,(8, 72),2	352,(8, 74),4	366,(8, 60),30	496,(8, 25),2	498,(8, 31),2	500,(8, 40),4	504,(8, 41),4	508,(8, 45),64	572,(8, 62),2	574,(8, 67),10	584,(8, 77),2	586,(8, 78),54	1124,(8, 54),2	2010,(8, 55),2	2014,(4, 53),38	5038,(4, 30),54	5092,(4, 57),300	5392,(4, 59),28	5420,(4, 69),10	5830,(8, 23),6	5836,(8, 26),18	5854,(8, 30),16	5870,(8, 52),36	5906,(8, 53),86	5992,(8, 56),8	6000,(8, 64),20	6020,(8, 69),2	6022,(8, 73),36	6210,(12, 81),34	6278,(13, 81),34	6346,(19, 81),34	6958,(10, 81),34	7026,(21, 81),34	7060,(24, 81),34	7128,(28, 81),34	7196,(34, 81),34	7230,(35, 81),34	7264,(75, 81),34	7332,(80, 81),34	7400,(39, 81),34	7468,(46, 81),34	7536,(63, 81),34	7604,(68, 81),34	7672,(71, 81),34	7740,(76, 81),34	7808,(79, 81),34	
28,(3, 13),12	40,(3, 18),2	42,(3, 20),2	44,(3, 29),14	58,(3, 36),2	60,(3, 24),6	66,(3, 41),12	78,(3, 45),12	90,(3, 52),2	92,(3, 54),2	94,(3, 55),2	96,(3, 57),10	106,(3, 21),28	134,(3, 34),6	140,(3, 39),2	142,(3, 46),30	172,(3, 50),18	190,(3, 80),2	192,(5, 24),4	196,(5, 34),2	198,(5, 35),2	200,(5, 39),2	242,(5, 63),14	268,(5, 68),16	284,(5, 71),40	364,(3, 59),2	378,(5, 20),2	380,(5, 40),30	410,(5, 41),2	412,(5, 43),2	414,(5, 45),2	416,(5, 61),2	418,(5, 62),6	424,(5, 67),44	468,(5, 77),12	480,(5, 78),16	1064,(3, 69),12	1076,(3, 70),22	1098,(3, 73),24	1122,(5, 53),2	2004,(5, 36),6	5730,(5, 33),10	5740,(5, 54),12	5752,(5, 56),22	5774,(5, 59),4	5778,(5, 64),4	5782,(5, 69),32	5814,(5, 70),16	6108,(42, 81),34	6244,(22, 81),34	6414,(51, 81),34	6890,(47, 81),34	6924,(74, 81),34	6992,(15, 81),34	7094,(38, 81),34	7162,(72, 81),34	7298,(9, 81),34	7366,(11, 81),34	7434,(14, 81),34	7502,(16, 81),34	7570,(27, 81),34	7638,(44, 81),34	7706,(48, 81),34	7774,(58, 81),34	7842,(60, 81),34	7876,(65, 81),34	
76,(7, 9),6	82,(7, 58),2	84,(7, 72),2	88,(7, 14),14	102,(7, 60),4	114,(7, 20),22	136,(7, 31),8	150,(7, 40),2	152,(7, 49),6	158,(7, 62),4	162,(7, 51),8	172,(7, 10),8	180,(7, 12),6	186,(7, 13),2	188,(7, 15),22	210,(7, 19),12	222,(7, 21),6	228,(7, 24),14	242,(7, 44),14	256,(7, 46),2	258,(7, 63),2	260,(7, 65),6	266,(7, 71),2	268,(7, 45),24	292,(7, 66),86	378,(7, 68),12	390,(7, 76),4	394,(7, 80),12	
1,(0, 3),2	3,(0, 4),2	5,(0, 5),2	7,(0, 7),2	9,(0, 8),2	26,(1, 9),18	44,(1, 11),2	46,(1, 13),14	60,(1, 15),2	62,(1, 16),4	66,(1, 19),18	84,(1, 21),22	106,(1, 22),44	150,(1, 23),110	260,(1, 26),104	364,(1, 27),2	366,(1, 29),684	1050,(1, 32),14	1064,(1, 34),14	1078,(1, 38),2	1080,(1, 39),24	1104,(1, 46),2	1106,(1, 47),20	1126,(1, 52),2	1128,(1, 53),210	1338,(1, 54),464	1802,(1, 55),10	1812,(1, 57),152	1964,(1, 59),40	2004,(1, 60),6	2010,(1, 63),2	2012,(1, 64),2	2014,(1, 65),2	2016,(1, 68),26	2042,(1, 71),6	2048,(1, 72),4	2052,(1, 73),2986	5038,(1, 74),12	5050,(1, 75),12	5062,(1, 76),14	5076,(1, 79),12	5088,(1, 80),28	5116,(2, 10),4	5120,(2, 11),2	5122,(2, 14),14	5136,(2, 15),2	5138,(2, 16),2	5140,(2, 21),2	5142,(2, 24),2	5144,(2, 28),24	5168,(2, 34),2	5170,(2, 35),2	5172,(2, 38),22	5194,(2, 46),8	5202,(2, 48),2	5204,(2, 63),2	5206,(2, 65),4	5210,(2, 68),4	5214,(2, 72),2	5216,(2, 75),6	5222,(2, 76),58	5280,(2, 79),2	5282,(2, 80),2	5284,(6, 9),2	5286,(6, 11),2	5288,(6, 14),2	5290,(6, 16),2	5292,(6, 27),2	5294,(6, 39),10	5304,(6, 44),18	5322,(6, 46),10	5332,(6, 48),4	5336,(6, 58),2	5338,(6, 60),8	5346,(6, 63),6	5352,(6, 65),8	5360,(6, 68),2	5362,(6, 71),2	5364,(6, 76),4	5368,(6, 79),22	5430,(2, 26),46	5476,(2, 29),54	5530,(2, 32),8	5538,(2, 36),2	5540,(2, 53),92	5632,(2, 56),6	5638,(2, 57),26	5664,(2, 59),2	5666,(2, 64),12	5678,(2, 70),10	5688,(2, 73),42	6058,(6, 23),4	6062,(6, 26),2	6064,(6, 29),12	6076,(6, 33),18	6094,(6, 56),2	6096,(6, 70),4	6100,(6, 73),8	6142,(17, 81),34	6176,(37, 81),34	6312,(49, 81),34	6380,(50, 81),34	6448,(66, 81),34	6482,(20, 81),34	6516,(43, 81),34	6550,(61, 81),34	6584,(25, 81),34	6618,(31, 81),34	6652,(40, 81),34	6686,(41, 81),34	6720,(45, 81),34	6754,(62, 81),34	6788,(67, 81),34	6822,(77, 81),34	6856,(78, 81),34	
