307
# CPU




106,18,1	
77,14,1	118,19,1	
45,9,1	73,12,1	97,17,1	
17,6,1	65,11,1	102,10,1	
9,2,1	10,13,1	11,15,1	13,4,1	41,7,1	
0,0,1	1,1,1	2,5,1	3,16,1	22,3,1	86,8,1	286,20,1	306,21,1	
# Incoming




102,(2, 18),4	
73,(1, 14),4	106,(2, 19),12	
41,(1, 9),4	65,(1, 12),8	77,(1, 17),20	
13,(1, 6),4	45,(1, 11),20	86,(2, 10),16	
1,(0, 2),8	9,(1, 4),4	17,(1, 7),24	
10,(2, 3),12	22,(2, 8),64	86,(6, 21),4	90,(9, 21),4	94,(11, 21),4	98,(12, 21),4	102,(14, 21),4	106,(17, 21),4	110,(10, 21),4	114,(18, 21),4	118,(2, 20),168	286,(13, 21),4	290,(15, 21),4	294,(4, 21),4	298,(7, 21),4	302,(19, 21),4	
# Outgoing




114,(18, 21),4	
102,(14, 21),4	302,(19, 21),4	
90,(9, 21),4	98,(12, 21),4	106,(17, 21),4	
86,(6, 21),4	94,(11, 21),4	110,(10, 21),4	
10,(2, 3),12	22,(2, 8),64	86,(2, 10),16	102,(2, 18),4	106,(2, 19),12	118,(2, 20),168	286,(13, 21),4	290,(15, 21),4	294,(4, 21),4	298,(7, 21),4	
1,(0, 2),8	9,(1, 4),4	13,(1, 6),4	17,(1, 7),24	41,(1, 9),4	45,(1, 11),20	65,(1, 12),8	73,(1, 14),4	77,(1, 17),20	
