11628
# CPU
113,5,33	225,10,33	6915,17,33	6961,22,33	6994,27,33	7027,32,33	7101,37,33	7247,42,33	7295,47,33	7328,52,33	7545,57,33	7667,62,33	7707,67,33	7777,77,33	7810,82,33	7871,87,33	8829,92,33	9041,97,33	9074,102,33	9129,107,33	9229,112,33	9361,117,33	9781,72,33	
85,4,33	197,9,33	7921,16,33	7954,26,33	7987,31,33	8020,36,33	8053,41,33	8086,46,33	8119,56,33	8152,61,33	8209,66,33	8242,71,33	8275,76,33	8359,81,33	8651,21,33	8787,86,33	8820,91,33	8853,96,33	9055,51,33	9088,101,33	9121,106,33	9219,111,33	9359,116,33	
57,3,33	169,8,33	6937,20,33	6981,25,33	7014,30,33	7047,35,33	7113,40,33	7303,50,33	7445,55,33	7633,60,33	7747,70,33	7780,75,33	7875,90,33	7908,95,33	8339,80,33	8735,85,33	9055,100,33	9088,105,33	9205,110,33	9305,115,33	9409,120,33	9835,45,33	10661,15,33	11025,65,33	
29,2,33	141,7,33	253,12,33	6903,14,33	6936,19,33	6989,29,33	7022,34,33	7107,39,33	7255,44,33	7297,49,33	7330,54,33	7553,59,33	7697,64,33	7745,69,33	7778,74,33	7811,79,33	7844,84,33	7877,89,33	7910,94,33	8213,24,33	9053,99,33	9086,104,33	9131,109,33	9297,114,33	9363,119,33	
0,0,1	1,1,33	34,11,33	67,6,33	7853,13,33	7886,18,33	7919,23,33	7952,33,33	7985,38,33	8018,43,33	8051,48,33	8084,53,33	8117,63,33	8150,73,33	8183,78,33	8216,88,33	8249,98,33	8282,108,33	9267,28,33	9391,58,33	9827,83,33	9860,103,33	9893,118,33	11471,68,33	11504,93,33	11537,113,33	11627,121,1	
# Incoming
85,(0, 5),28	113,(2, 17),2	115,(3, 17),2	117,(3, 22),22	193,(4, 17),2	197,(0, 10),28	225,(2, 22),2	227,(2, 27),34	261,(4, 22),2	263,(4, 32),2	265,(4, 57),4	269,(1, 17),4	273,(3, 47),4	281,(2, 32),2	283,(3, 27),12	295,(3, 67),2	297,(1, 22),12	309,(2, 37),22	331,(2, 42),22	353,(4, 37),6	359,(4, 72),2	361,(1, 27),2	363,(4, 27),10	373,(4, 42),20	393,(4, 47),12	405,(4, 62),6	411,(4, 67),6	433,(4, 77),10	443,(3, 32),10	453,(4, 82),10	463,(4, 92),2	465,(4, 97),2	467,(4, 102),2	469,(2, 47),10	485,(3, 77),2	487,(3, 82),2	489,(2, 52),2	491,(3, 42),12	503,(4, 87),8	511,(4, 112),8	519,(4, 117),2	521,(9, 17),2	523,(9, 22),2	525,(9, 27),2	527,(9, 67),2	529,(2, 57),2	531,(9, 32),8	539,(9, 52),6	545,(2, 62),20	569,(3, 87),2	571,(2, 67),6	637,(2, 72),12	653,(2, 77),2	665,(1, 32),38	703,(3, 52),24	727,(3, 57),28	755,(3, 62),8	763,(2, 92),4	769,(1, 37),8	777,(9, 47),8	787,(1, 42),22	809,(3, 37),120	929,(2, 82),18	947,(9, 62),14	961,(9, 77),8	969,(2, 87),104	1083,(2, 107),2	1087,(1, 47),88	1175,(3, 72),8	1183,(3, 92),38	1221,(3, 102),10	1251,(1, 52),50	1301,(9, 82),10	1311,(9, 107),6	1317,(3, 117),18	1335,(8, 17),2	1337,(9, 97),10	1347,(2, 97),8	1355,(8, 27),2	1361,(1, 57),14	1375,(2, 102),12	1389,(7, 17),2	1391,(9, 87),18	1409,(1, 62),60	1469,(4, 52),56	1527,(3, 97),118	1645,(9, 92),12	1667,(3, 107),34	1701,(3, 112),36	1737,(4, 107),30	1767,(9, 42),28	1795,(9, 57),30	1851,(8, 22),8	1859,(8, 32),6	1865,(9, 117),16	1891,(1, 67),24	1915,(8, 42),2	1923,(8, 47),2	1925,(8, 52),2	1927,(8, 62),2	1931,(1, 72),2	1933,(8, 37),20	1953,(8, 72),2	1955,(8, 82),6	1961,(8, 87),2	1963,(1, 77),8	1985,(2, 112),12	1997,(2, 117),76	2075,(7, 22),4	2079,(9, 102),24	2123,(1, 82),56	2197,(9, 112),40	2251,(1, 87),54	2331,(7, 47),16	2347,(1, 92),2	2349,(7, 27),46	2395,(7, 37),46	2443,(1, 97),12	2455,(7, 32),52	2529,(7, 82),2	2533,(1, 102),6	2539,(7, 62),10	2549,(7, 67),14	2563,(1, 107),10	2573,(7, 52),30	2603,(1, 112),14	2617,(7, 42),48	2665,(7, 57),32	2697,(7, 72),14	2711,(7, 77),6	2717,(7, 87),4	2721,(7, 92),12	2733,(7, 97),2	2735,(7, 102),28	2763,(7, 107),12	2775,(7, 112),12	2787,(7, 117),2	2789,(9, 37),140	2929,(12, 17),8	2937,(12, 22),20	2957,(12, 27),2	2959,(12, 37),2	2961,(12, 47),10	2971,(8, 67),18	2989,(8, 77),56	3045,(8, 92),2	3047,(8, 97),38	3085,(8, 107),4	3089,(12, 32),20	3109,(12, 42),18	3127,(12, 52),16	3143,(12, 57),2	3145,(12, 62),12	3157,(12, 67),2	3159,(12, 77),2	3161,(12, 82),74	3235,(12, 87),4	3239,(12, 92),36	3275,(12, 112),2	3277,(8, 57),192	3469,(12, 107),4	3475,(8, 102),8	3483,(8, 112),2	3485,(8, 117),24	3679,(12, 97),38	3717,(12, 102),62	3779,(1, 117),100	3907,(11, 17),26	3975,(11, 22),2	4009,(12, 117),6	4071,(11, 27),8	4193,(11, 32),750	4957,(11, 37),34	5025,(11, 42),2	5055,(11, 47),14	5097,(11, 52),2	5119,(11, 57),2	5153,(11, 62),126	5639,(11, 67),10	5657,(11, 72),12	5993,(11, 77),2	6085,(11, 82),94	6189,(11, 87),4	6237,(11, 92),2	6285,(11, 97),8	6305,(11, 102),32	6567,(11, 107),6	6603,(11, 112),2	6775,(11, 117),68	6913,(6, 17),2	6937,(6, 22),24	6981,(6, 27),6	6993,(6, 32),4	7025,(6, 37),76	7113,(6, 42),134	7293,(6, 47),2	7303,(6, 52),8	7445,(6, 57),100	7633,(6, 62),34	7705,(6, 67),2	7747,(6, 72),6	7773,(6, 77),4	7781,(6, 82),2	7821,(6, 87),50	8213,(9, 72),226	8791,(6, 92),38	8831,(6, 97),210	9059,(6, 102),8	9085,(6, 107),44	9219,(6, 112),10	9359,(6, 117),2	9391,(12, 72),390	
57,(0, 4),28	85,(2, 16),10	95,(2, 21),2	97,(3, 16),12	109,(2, 31),2	111,(2, 36),2	113,(3, 21),2	139,(3, 51),2	169,(0, 9),28	219,(3, 76),2	221,(2, 46),2	223,(3, 26),10	233,(3, 31),4	237,(3, 36),8	245,(3, 41),8	253,(5, 36),2	255,(5, 41),2	257,(1, 16),12	269,(5, 46),6	275,(5, 76),2	277,(3, 66),4	281,(5, 26),14	295,(1, 21),2	297,(3, 61),6	303,(5, 86),2	305,(3, 86),2	307,(5, 91),2	309,(5, 96),2	311,(5, 116),2	313,(10, 36),2	315,(1, 26),46	361,(2, 26),78	439,(2, 41),30	469,(5, 81),10	479,(2, 51),10	489,(5, 21),20	509,(5, 31),14	523,(10, 46),2	525,(2, 56),4	529,(5, 101),6	535,(5, 106),8	543,(2, 61),2	561,(3, 71),8	569,(2, 66),2	571,(3, 46),56	627,(3, 56),24	651,(3, 91),2	653,(10, 51),2	655,(2, 86),2	657,(1, 31),8	665,(5, 51),26	695,(10, 56),2	697,(3, 106),2	699,(5, 16),40	739,(10, 26),10	749,(10, 31),8	757,(10, 66),2	759,(2, 81),4	763,(10, 71),2	765,(10, 76),2	767,(1, 36),2	777,(10, 106),4	781,(2, 101),4	785,(1, 41),2	797,(10, 81),6	803,(10, 116),2	807,(3, 111),2	817,(2, 71),90	907,(2, 76),12	927,(5, 56),40	967,(5, 61),22	989,(5, 71),38	1027,(10, 16),28	1055,(10, 61),16	1073,(2, 96),8	1081,(2, 106),2	1085,(1, 46),2	1087,(10, 86),30	1117,(10, 91),10	1127,(10, 111),6	1135,(3, 96),20	1155,(3, 101),8	1163,(10, 101),10	1179,(1, 51),72	1251,(10, 96),42	1293,(8, 26),2	1297,(8, 41),2	1299,(2, 91),20	1337,(8, 21),14	1351,(8, 31),4	1357,(1, 56),4	1387,(2, 116),2	1391,(1, 61),18	1443,(5, 66),96	1539,(5, 111),54	1621,(10, 41),68	1737,(3, 116),114	1883,(1, 66),8	1913,(8, 61),2	1917,(8, 46),6	1925,(1, 71),6	1931,(8, 66),2	1937,(1, 76),26	1963,(2, 111),22	2073,(7, 21),2	2079,(7, 26),30	2109,(7, 31),2	2111,(7, 46),6	2117,(1, 81),6	2189,(7, 36),30	2219,(1, 86),32	2251,(7, 16),80	2341,(1, 91),6	2347,(7, 61),2	2441,(1, 96),2	2453,(7, 71),2	2483,(1, 101),50	2533,(7, 66),4	2551,(1, 106),12	2571,(7, 96),2	2591,(1, 111),12	2603,(7, 81),8	2611,(7, 91),4	2627,(1, 116),1152	3779,(7, 41),60	3839,(7, 51),54	3893,(7, 101),6	3899,(7, 111),2	3901,(8, 96),2	3903,(11, 16),4	3907,(7, 56),26	3933,(7, 76),18	3951,(7, 86),18	3969,(7, 116),4	3973,(11, 21),2	3975,(7, 106),34	4009,(8, 16),32	4041,(8, 56),6	4047,(8, 76),10	4057,(11, 26),14	4071,(8, 36),42	4113,(8, 51),18	4131,(8, 71),14	4145,(8, 81),6	4151,(8, 86),6	4157,(12, 16),26	4183,(12, 31),2	4185,(12, 46),4	4189,(11, 31),4	4193,(12, 21),18	4211,(12, 26),72	4283,(12, 36),30	4313,(12, 56),2	4315,(12, 61),6	4321,(12, 66),2	4323,(12, 71),8	4331,(8, 91),6	4337,(8, 101),2	4339,(8, 106),100	4439,(12, 41),130	4569,(8, 111),8	4577,(8, 116),196	4773,(12, 76),2	4775,(12, 81),6	4781,(12, 86),2	4783,(12, 91),40	4823,(12, 96),34	4857,(12, 101),52	4909,(12, 106),12	4921,(12, 111),18	4939,(12, 116),2	4955,(11, 36),2	5005,(11, 41),20	5051,(11, 46),4	5083,(11, 51),14	5117,(11, 56),2	5149,(11, 61),4	5637,(11, 66),2	5655,(11, 71),2	5881,(11, 76),112	6061,(11, 81),24	6185,(11, 86),4	6209,(11, 91),28	6245,(11, 96),40	6299,(11, 101),6	6353,(11, 106),214	6599,(11, 111),4	6773,(11, 116),2	6775,(3, 81),1120	7895,(6, 16),26	7921,(6, 21),4	7925,(6, 26),6	7931,(6, 31),2	7933,(6, 36),22	7955,(6, 41),22	7977,(6, 46),2	7979,(6, 51),22	8001,(6, 56),26	8027,(6, 61),102	8129,(6, 66),80	8209,(6, 71),2	8211,(6, 76),8	8339,(6, 81),20	8359,(10, 21),292	8735,(6, 86),52	8787,(6, 91),4	8829,(6, 96),2	8831,(12, 51),224	9055,(6, 101),4	9081,(6, 106),4	9205,(6, 111),14	9305,(6, 116),54	
29,(0, 3),28	74,(2, 15),2	97,(2, 25),4	101,(2, 30),8	141,(0, 8),28	191,(2, 20),26	217,(4, 15),18	235,(4, 20),2	237,(4, 25),2	239,(4, 30),6	245,(4, 35),2	247,(4, 40),4	251,(4, 45),4	255,(1, 15),2	257,(4, 50),2	259,(4, 55),2	261,(5, 15),4	265,(5, 25),2	267,(5, 40),2	269,(4, 60),4	273,(4, 75),2	275,(1, 20),20	295,(5, 45),2	297,(5, 50),6	303,(4, 110),2	305,(5, 120),2	307,(2, 60),2	309,(4, 120),2	311,(1, 25),4	315,(5, 20),14	329,(5, 30),16	345,(5, 55),6	351,(10, 45),2	353,(2, 45),8	361,(5, 60),18	379,(5, 65),14	393,(5, 70),20	413,(10, 15),4	417,(4, 70),16	433,(5, 105),8	441,(10, 55),2	443,(9, 15),2	445,(9, 40),2	447,(1, 30),210	657,(2, 40),52	709,(2, 50),46	755,(2, 65),4	759,(1, 35),8	767,(2, 70),14	781,(1, 40),4	785,(2, 55),32	817,(4, 80),8	825,(4, 85),6	831,(1, 45),254	1085,(2, 75),40	1125,(2, 80),16	1141,(2, 85),2	1143,(4, 90),28	1171,(4, 105),6	1177,(1, 50),2	1179,(4, 65),90	1269,(4, 95),10	1279,(4, 115),18	1297,(5, 80),12	1309,(5, 90),14	1323,(9, 20),6	1329,(1, 55),28	1357,(2, 100),12	1369,(2, 110),4	1373,(2, 115),2	1375,(5, 100),14	1389,(1, 60),2	1391,(2, 35),154	1545,(2, 90),142	1687,(2, 95),34	1721,(5, 35),88	1809,(5, 110),14	1823,(10, 70),2	1825,(2, 105),22	1847,(5, 115),18	1865,(1, 65),18	1883,(9, 25),16	1899,(9, 30),8	1907,(9, 35),6	1913,(9, 60),2	1915,(9, 65),2	1917,(9, 85),2	1919,(9, 90),2	1921,(9, 95),2	1923,(1, 70),2	1925,(9, 80),8	1933,(10, 75),2	1935,(1, 75),2	1937,(9, 50),26	1963,(9, 105),10	1973,(1, 80),144	2117,(2, 120),62	2179,(7, 15),6	2185,(7, 20),2	2187,(7, 30),2	2189,(9, 110),8	2197,(10, 100),2	2199,(1, 85),20	2219,(7, 25),16	2235,(7, 40),2	2237,(7, 45),2	2239,(7, 50),10	2249,(7, 60),2	2251,(9, 55),62	2313,(9, 70),16	2329,(9, 120),6	2335,(10, 40),4	2339,(1, 90),2	2341,(5, 95),62	2403,(9, 75),16	2419,(10, 60),18	2437,(10, 115),2	2439,(1, 95),2	2441,(7, 65),12	2453,(10, 35),22	2475,(10, 90),4	2481,(1, 100),2	2483,(10, 50),22	2507,(7, 55),22	2531,(7, 85),2	2537,(7, 95),2	2539,(10, 80),10	2549,(1, 105),2	2551,(10, 120),10	2563,(7, 80),8	2589,(1, 110),2	2615,(7, 100),2	2621,(1, 115),6	2627,(5, 75),346	2973,(7, 35),74	3047,(7, 75),40	3087,(7, 105),2	3089,(5, 85),386	3475,(7, 70),92	3567,(7, 90),12	3579,(7, 110),14	3593,(7, 115),12	3605,(7, 120),10	3615,(12, 20),4	3619,(12, 25),10	3629,(12, 35),2	3631,(12, 40),2	3633,(12, 45),14	3647,(12, 50),2	3649,(12, 55),14	3663,(12, 60),2	3665,(12, 70),6	3671,(12, 85),4	3675,(12, 90),4	3685,(10, 20),44	3729,(10, 25),52	3781,(10, 30),46	3881,(1, 120),2	3889,(11, 15),14	3903,(12, 100),2	3921,(10, 95),38	3971,(11, 20),2	3973,(10, 105),44	4017,(10, 110),24	4041,(12, 105),4	4055,(11, 25),2	4057,(12, 30),58	4115,(12, 80),24	4157,(11, 30),32	4331,(12, 75),94	4569,(12, 95),22	4591,(12, 110),20	4611,(12, 115),24	4649,(10, 65),154	4953,(11, 35),2	4955,(12, 120),36	4999,(11, 40),6	5029,(11, 45),22	5071,(11, 50),12	5111,(11, 55),6	5125,(11, 60),24	5149,(4, 100),474	5635,(11, 65),2	5653,(11, 70),2	5655,(9, 100),32	5805,(11, 75),76	6059,(11, 80),2	6183,(11, 85),2	6195,(11, 90),14	6241,(11, 95),4	6295,(11, 100),4	6339,(11, 105),14	6353,(10, 85),222	6575,(11, 110),24	6771,(11, 115),2	6871,(11, 120),30	6903,(6, 15),10	6935,(6, 20),2	6963,(6, 25),18	6989,(6, 30),4	7005,(6, 35),20	7107,(6, 40),6	7255,(6, 45),38	7297,(6, 50),6	7317,(6, 55),128	7553,(6, 60),80	7697,(6, 65),8	7745,(6, 70),2	7771,(6, 75),2	7873,(6, 90),2	7893,(6, 95),2	8219,(6, 80),120	8359,(6, 85),376	8735,(9, 115),200	9053,(6, 100),2	9069,(6, 105),12	9131,(6, 110),74	9297,(6, 115),8	9363,(6, 120),46	9409,(9, 45),426	9835,(12, 15),826	10661,(12, 65),364	
1,(0, 2),28	92,(3, 19),2	111,(3, 34),2	113,(0, 7),28	141,(3, 14),30	171,(3, 24),48	225,(0, 12),28	253,(1, 14),2	255,(3, 29),6	261,(3, 44),6	267,(3, 59),4	271,(3, 79),2	273,(1, 19),2	275,(4, 19),2	277,(4, 29),4	281,(4, 34),18	299,(4, 39),2	301,(4, 44),2	303,(3, 84),2	305,(4, 59),2	307,(4, 64),2	309,(1, 24),2	311,(4, 49),16	327,(4, 54),24	351,(4, 89),2	353,(5, 24),2	355,(5, 29),6	361,(4, 94),2	363,(1, 29),84	447,(4, 69),6	453,(3, 39),18	471,(4, 74),14	485,(4, 109),2	487,(5, 84),2	489,(3, 89),2	491,(4, 99),8	499,(4, 119),4	503,(3, 49),32	535,(3, 54),16	551,(3, 64),10	561,(4, 14),62	623,(4, 79),22	645,(4, 84),22	667,(4, 104),12	679,(3, 74),10	689,(3, 94),2	691,(5, 69),4	695,(3, 99),2	697,(5, 89),2	699,(9, 44),4	703,(1, 34),56	759,(4, 114),8	767,(5, 34),6	773,(5, 94),2	775,(5, 114),2	777,(1, 39),4	781,(5, 14),12	793,(5, 119),4	797,(9, 29),8	805,(3, 109),2	807,(9, 54),2	809,(1, 44),22	831,(4, 24),64	895,(5, 44),32	927,(9, 59),2	929,(3, 69),206	1135,(5, 49),20	1155,(10, 19),4	1159,(10, 24),2	1161,(10, 44),2	1163,(3, 104),12	1175,(1, 49),2	1177,(5, 54),52	1229,(10, 94),2	1231,(3, 114),60	1291,(8, 19),2	1293,(10, 99),2	1295,(8, 29),2	1297,(9, 79),2	1299,(9, 99),2	1301,(1, 54),28	1329,(5, 64),18	1347,(5, 109),16	1363,(9, 34),6	1369,(9, 89),6	1375,(1, 59),14	1389,(5, 59),54	1443,(9, 14),22	1465,(9, 109),4	1469,(1, 64),396	1865,(3, 119),26	1891,(8, 14),12	1903,(8, 24),10	1913,(10, 119),2	1915,(1, 69),8	1923,(10, 34),6	1929,(8, 64),2	1933,(1, 74),2	1935,(5, 74),34	1971,(1, 79),2	1973,(5, 19),132	2105,(5, 104),48	2153,(9, 64),8	2161,(9, 69),16	2179,(1, 84),20	2199,(5, 39),100	2299,(10, 39),6	2305,(1, 89),34	2339,(9, 94),8	2349,(1, 94),90	2439,(9, 84),14	2455,(1, 99),26	2481,(9, 74),42	2523,(9, 104),6	2529,(9, 119),10	2539,(1, 104),10	2549,(9, 114),24	2573,(1, 109),16	2589,(10, 49),6	2595,(10, 54),12	2607,(10, 69),4	2611,(10, 74),6	2617,(1, 114),4	2621,(9, 19),70	2957,(8, 49),14	2973,(5, 79),116	3089,(8, 34),120	3209,(8, 39),22	3231,(8, 44),34	3265,(8, 54),12	3469,(8, 74),6	3475,(5, 99),210	3685,(8, 59),22	3707,(8, 69),14	3721,(8, 79),2	3723,(8, 89),6	3729,(8, 94),20	3749,(8, 99),4	3753,(8, 104),20	3773,(8, 114),2	3775,(8, 119),64	3839,(10, 64),14	3853,(10, 79),8	3861,(10, 89),8	3879,(1, 119),2	3883,(11, 14),6	3889,(10, 84),32	3933,(11, 19),38	3977,(11, 24),78	4055,(10, 114),20	4079,(11, 29),78	4157,(8, 84),174	4331,(10, 14),50	4381,(10, 29),52	4439,(8, 109),130	4569,(10, 59),80	4803,(10, 104),70	4873,(10, 109),26	4943,(11, 34),10	4991,(11, 39),8	5027,(11, 44),2	5069,(11, 49),2	5099,(11, 54),12	5121,(11, 59),4	5279,(11, 64),356	5649,(11, 69),4	5669,(11, 74),136	5805,(9, 39),158	5995,(11, 79),64	6179,(11, 84),4	6193,(11, 89),2	6239,(11, 94),2	6293,(11, 99),2	6337,(11, 104),2	6339,(9, 49),156	6573,(11, 109),2	6605,(11, 114),166	6843,(11, 119),28	6901,(6, 14),2	6915,(6, 19),20	6961,(6, 24),2	6987,(6, 29),2	6997,(6, 34),8	7101,(6, 39),6	7247,(6, 44),8	7295,(6, 49),2	7311,(6, 54),6	7545,(6, 59),8	7667,(6, 64),30	7707,(6, 69),38	7753,(6, 74),18	7777,(6, 79),4	7783,(6, 84),38	7871,(6, 89),2	7875,(6, 94),18	7893,(9, 24),320	9041,(6, 99),12	9067,(6, 104),2	9129,(6, 109),2	9229,(6, 114),68	9361,(6, 119),2	
62,(2, 13),12	76,(2, 23),6	82,(2, 43),2	90,(3, 13),2	94,(3, 23),2	109,(3, 33),2	115,(2, 18),76	191,(4, 13),2	195,(4, 18),2	197,(4, 48),2	199,(4, 53),8	207,(4, 63),2	209,(4, 83),4	213,(4, 108),2	215,(4, 113),2	217,(2, 33),4	221,(3, 38),2	223,(2, 48),2	225,(5, 13),16	241,(5, 18),8	249,(5, 23),2	251,(5, 43),2	253,(3, 43),2	255,(9, 13),2	257,(5, 48),2	259,(5, 53),2	261,(2, 28),20	281,(3, 58),2	283,(2, 38),24	307,(3, 18),62	369,(3, 28),74	443,(5, 58),2	445,(5, 63),12	457,(5, 68),2	459,(5, 83),10	469,(9, 58),2	471,(3, 53),14	485,(5, 98),2	487,(9, 63),2	489,(9, 68),2	491,(2, 53),34	525,(5, 88),4	529,(9, 83),2	531,(2, 58),12	543,(5, 73),22	565,(2, 63),4	569,(5, 103),2	571,(10, 13),6	577,(2, 68),60	637,(5, 113),10	647,(10, 53),2	649,(2, 73),4	653,(3, 48),26	679,(9, 53),6	685,(9, 88),2	687,(9, 98),2	689,(9, 103),2	691,(3, 98),4	695,(9, 113),2	699,(3, 108),4	703,(4, 28),30	733,(4, 88),26	759,(10, 63),2	761,(10, 83),2	763,(3, 63),42	805,(5, 28),44	849,(5, 78),16	865,(5, 108),24	889,(10, 48),6	895,(4, 118),20	919,(2, 78),10	929,(9, 43),16	947,(2, 83),22	969,(4, 23),162	1131,(9, 93),10	1143,(2, 88),156	1299,(3, 78),18	1319,(2, 93),28	1347,(9, 108),6	1355,(2, 113),2	1357,(3, 73),60	1417,(3, 83),56	1473,(3, 88),18	1491,(3, 93),36	1527,(4, 33),32	1559,(4, 43),52	1611,(5, 118),10	1621,(9, 38),20	1645,(3, 103),22	1667,(4, 73),44	1711,(10, 18),10	1721,(2, 98),44	1765,(2, 103),60	1825,(9, 73),18	1843,(10, 93),2	1845,(10, 98),2	1847,(2, 108),112	1959,(2, 118),4	1963,(3, 68),794	2757,(3, 113),182	2939,(3, 118),18	2957,(4, 38),348	3305,(4, 58),1256	4561,(4, 68),152	4713,(4, 78),62	4775,(4, 93),52	4827,(4, 98),218	5045,(4, 103),44	5089,(5, 33),164	5253,(5, 38),52	5305,(5, 93),62	5367,(7, 13),20	5387,(7, 18),12	5399,(7, 23),16	5415,(7, 28),2	5417,(7, 33),6	5423,(7, 38),8	5431,(7, 43),126	5557,(7, 48),8	5565,(7, 53),2	5567,(7, 58),4	5571,(7, 63),8	5579,(7, 68),10	5589,(7, 73),26	5615,(7, 78),2	5617,(7, 83),140	5757,(7, 88),2	5759,(7, 93),10	5769,(7, 98),20	5789,(7, 103),2	5791,(7, 108),4	5795,(7, 113),56	5851,(7, 118),26	5877,(8, 13),10	5887,(8, 18),40	5927,(8, 23),16	5943,(8, 28),618	6561,(8, 33),4	6565,(8, 38),2	6567,(8, 43),8	6575,(8, 48),10	6585,(8, 53),2	6587,(8, 58),6	6593,(8, 63),2	6595,(8, 68),28	6623,(8, 73),8	6631,(8, 78),6	6637,(8, 83),28	6665,(8, 88),6	6671,(8, 98),10	6681,(8, 103),2	6683,(8, 108),44	6727,(9, 18),32	6759,(9, 23),28	6787,(9, 28),68	6855,(9, 33),148	7003,(9, 48),48	7051,(9, 78),56	7107,(9, 118),50	7157,(10, 23),324	7481,(10, 28),12	7493,(10, 33),70	7563,(10, 38),28	7591,(10, 43),8	7599,(10, 58),76	7675,(10, 68),54	7729,(10, 73),16	7745,(10, 78),8	7753,(10, 88),6	7759,(10, 103),12	7771,(10, 108),28	7799,(10, 113),36	7835,(10, 118),10	7845,(12, 13),8	7853,(12, 18),2	7855,(12, 23),2	7857,(12, 33),2	7859,(12, 38),2	7861,(12, 43),2	7863,(12, 48),4	7867,(12, 53),2	7869,(12, 63),2	7871,(12, 73),2	7873,(12, 78),2	7875,(12, 88),14	7889,(12, 98),4	7893,(12, 108),2	7895,(8, 93),756	8651,(8, 113),60	8711,(8, 118),508	9219,(12, 28),48	9267,(12, 58),124	9391,(17, 121),4	9395,(20, 121),4	9399,(22, 121),4	9403,(25, 121),4	9407,(27, 121),4	9411,(30, 121),4	9415,(32, 121),4	9419,(35, 121),4	9423,(37, 121),4	9427,(40, 121),4	9431,(42, 121),4	9435,(47, 121),4	9439,(50, 121),4	9443,(52, 121),4	9447,(55, 121),4	9451,(57, 121),4	9455,(60, 121),4	9459,(62, 121),4	9463,(67, 121),4	9467,(70, 121),4	9471,(77, 121),4	9475,(75, 121),4	9479,(82, 121),4	9483,(87, 121),4	9487,(90, 121),4	9491,(95, 121),4	9495,(80, 121),4	9499,(85, 121),4	9503,(92, 121),4	9507,(97, 121),4	9511,(100, 121),4	9515,(102, 121),4	9519,(105, 121),4	9523,(107, 121),4	9527,(110, 121),4	9531,(112, 121),4	9535,(115, 121),4	9539,(117, 121),4	9543,(120, 121),4	9781,(12, 83),46	9827,(12, 103),4	9831,(12, 118),2	9835,(16, 121),4	9839,(26, 121),4	9843,(31, 121),4	9847,(36, 121),4	9851,(41, 121),4	9855,(46, 121),4	9859,(56, 121),4	9863,(61, 121),4	9867,(66, 121),4	9871,(71, 121),4	9875,(76, 121),4	9879,(81, 121),4	9883,(21, 121),4	9887,(86, 121),4	9891,(91, 121),4	9895,(96, 121),4	9899,(51, 121),4	9903,(101, 121),4	9907,(106, 121),4	9911,(111, 121),4	9915,(116, 121),4	9919,(72, 121),4	9923,(45, 121),4	10694,(15, 121),4	11025,(12, 68),446	11471,(12, 93),30	11501,(12, 113),34	11535,(14, 121),4	11539,(19, 121),4	11543,(29, 121),4	11547,(34, 121),4	11551,(39, 121),4	11555,(44, 121),4	11559,(49, 121),4	11563,(54, 121),4	11567,(59, 121),4	11571,(64, 121),4	11575,(69, 121),4	11579,(74, 121),4	11583,(79, 121),4	11587,(84, 121),4	11591,(89, 121),4	11595,(94, 121),4	11599,(24, 121),4	11603,(99, 121),4	11607,(104, 121),4	11611,(109, 121),4	11615,(114, 121),4	11619,(119, 121),4	11623,(65, 121),4	
# Outgoing
225,(5, 13),16	241,(5, 18),8	249,(5, 23),2	251,(5, 43),2	253,(5, 36),2	255,(5, 41),2	257,(5, 48),2	259,(5, 53),2	261,(5, 15),4	265,(5, 25),2	267,(5, 40),2	269,(5, 46),6	275,(5, 76),2	281,(5, 26),14	295,(5, 45),2	297,(5, 50),6	303,(5, 86),2	305,(5, 120),2	307,(5, 91),2	309,(5, 96),2	311,(5, 116),2	313,(10, 36),2	315,(5, 20),14	329,(5, 30),16	345,(5, 55),6	351,(10, 45),2	353,(5, 24),2	355,(5, 29),6	361,(5, 60),18	379,(5, 65),14	393,(5, 70),20	413,(10, 15),4	433,(5, 105),8	441,(10, 55),2	443,(5, 58),2	445,(5, 63),12	457,(5, 68),2	459,(5, 83),10	469,(5, 81),10	485,(5, 98),2	487,(5, 84),2	489,(5, 21),20	509,(5, 31),14	523,(10, 46),2	525,(5, 88),4	529,(5, 101),6	535,(5, 106),8	543,(5, 73),22	569,(5, 103),2	571,(10, 13),6	637,(5, 113),10	647,(10, 53),2	653,(10, 51),2	665,(5, 51),26	691,(5, 69),4	695,(10, 56),2	697,(5, 89),2	699,(5, 16),40	739,(10, 26),10	749,(10, 31),8	757,(10, 66),2	759,(10, 63),2	761,(10, 83),2	763,(10, 71),2	765,(10, 76),2	767,(5, 34),6	773,(5, 94),2	775,(5, 114),2	777,(10, 106),4	781,(5, 14),12	793,(5, 119),4	797,(10, 81),6	803,(10, 116),2	805,(5, 28),44	849,(5, 78),16	865,(5, 108),24	889,(10, 48),6	895,(5, 44),32	927,(5, 56),40	967,(5, 61),22	989,(5, 71),38	1027,(10, 16),28	1055,(10, 61),16	1087,(10, 86),30	1117,(10, 91),10	1127,(10, 111),6	1135,(5, 49),20	1155,(10, 19),4	1159,(10, 24),2	1161,(10, 44),2	1163,(10, 101),10	1177,(5, 54),52	1229,(10, 94),2	1251,(10, 96),42	1293,(10, 99),2	1297,(5, 80),12	1309,(5, 90),14	1329,(5, 64),18	1347,(5, 109),16	1375,(5, 100),14	1389,(5, 59),54	1443,(5, 66),96	1539,(5, 111),54	1611,(5, 118),10	1621,(10, 41),68	1711,(10, 18),10	1721,(5, 35),88	1809,(5, 110),14	1823,(10, 70),2	1843,(10, 93),2	1845,(10, 98),2	1847,(5, 115),18	1913,(10, 119),2	1923,(10, 34),6	1933,(10, 75),2	1935,(5, 74),34	1973,(5, 19),132	2105,(5, 104),48	2197,(10, 100),2	2199,(5, 39),100	2299,(10, 39),6	2335,(10, 40),4	2341,(5, 95),62	2419,(10, 60),18	2437,(10, 115),2	2453,(10, 35),22	2475,(10, 90),4	2483,(10, 50),22	2539,(10, 80),10	2551,(10, 120),10	2589,(10, 49),6	2595,(10, 54),12	2607,(10, 69),4	2611,(10, 74),6	2627,(5, 75),346	2973,(5, 79),116	3089,(5, 85),386	3475,(5, 99),210	3685,(10, 20),44	3729,(10, 25),52	3781,(10, 30),46	3839,(10, 64),14	3853,(10, 79),8	3861,(10, 89),8	3889,(10, 84),32	3921,(10, 95),38	3973,(10, 105),44	4017,(10, 110),24	4055,(10, 114),20	4331,(10, 14),50	4381,(10, 29),52	4569,(10, 59),80	4649,(10, 65),154	4803,(10, 104),70	4873,(10, 109),26	5089,(5, 33),164	5253,(5, 38),52	5305,(5, 93),62	6353,(10, 85),222	7157,(10, 23),324	7481,(10, 28),12	7493,(10, 33),70	7563,(10, 38),28	7591,(10, 43),8	7599,(10, 58),76	7675,(10, 68),54	7729,(10, 73),16	7745,(10, 78),8	7753,(10, 88),6	7759,(10, 103),12	7771,(10, 108),28	7799,(10, 113),36	7835,(10, 118),10	8359,(10, 21),292	9391,(17, 121),4	9399,(22, 121),4	9407,(27, 121),4	9415,(32, 121),4	9423,(37, 121),4	9431,(42, 121),4	9435,(47, 121),4	9443,(52, 121),4	9451,(57, 121),4	9459,(62, 121),4	9463,(67, 121),4	9471,(77, 121),4	9479,(82, 121),4	9483,(87, 121),4	9503,(92, 121),4	9507,(97, 121),4	9515,(102, 121),4	9523,(107, 121),4	9531,(112, 121),4	9539,(117, 121),4	9919,(72, 121),4	
191,(4, 13),2	193,(4, 17),2	195,(4, 18),2	197,(4, 48),2	199,(4, 53),8	207,(4, 63),2	209,(4, 83),4	213,(4, 108),2	215,(4, 113),2	217,(4, 15),18	235,(4, 20),2	237,(4, 25),2	239,(4, 30),6	245,(4, 35),2	247,(4, 40),4	251,(4, 45),4	255,(9, 13),2	257,(4, 50),2	259,(4, 55),2	261,(4, 22),2	263,(4, 32),2	265,(4, 57),4	269,(4, 60),4	273,(4, 75),2	275,(4, 19),2	277,(4, 29),4	281,(4, 34),18	299,(4, 39),2	301,(4, 44),2	303,(4, 110),2	305,(4, 59),2	307,(4, 64),2	309,(4, 120),2	311,(4, 49),16	327,(4, 54),24	351,(4, 89),2	353,(4, 37),6	359,(4, 72),2	361,(4, 94),2	363,(4, 27),10	373,(4, 42),20	393,(4, 47),12	405,(4, 62),6	411,(4, 67),6	417,(4, 70),16	433,(4, 77),10	443,(9, 15),2	445,(9, 40),2	447,(4, 69),6	453,(4, 82),10	463,(4, 92),2	465,(4, 97),2	467,(4, 102),2	469,(9, 58),2	471,(4, 74),14	485,(4, 109),2	487,(9, 63),2	489,(9, 68),2	491,(4, 99),8	499,(4, 119),4	503,(4, 87),8	511,(4, 112),8	519,(4, 117),2	521,(9, 17),2	523,(9, 22),2	525,(9, 27),2	527,(9, 67),2	529,(9, 83),2	531,(9, 32),8	539,(9, 52),6	561,(4, 14),62	623,(4, 79),22	645,(4, 84),22	667,(4, 104),12	679,(9, 53),6	685,(9, 88),2	687,(9, 98),2	689,(9, 103),2	695,(9, 113),2	699,(9, 44),4	703,(4, 28),30	733,(4, 88),26	759,(4, 114),8	777,(9, 47),8	797,(9, 29),8	807,(9, 54),2	817,(4, 80),8	825,(4, 85),6	831,(4, 24),64	895,(4, 118),20	927,(9, 59),2	929,(9, 43),16	947,(9, 62),14	961,(9, 77),8	969,(4, 23),162	1131,(9, 93),10	1143,(4, 90),28	1171,(4, 105),6	1179,(4, 65),90	1269,(4, 95),10	1279,(4, 115),18	1297,(9, 79),2	1299,(9, 99),2	1301,(9, 82),10	1311,(9, 107),6	1323,(9, 20),6	1337,(9, 97),10	1347,(9, 108),6	1363,(9, 34),6	1369,(9, 89),6	1391,(9, 87),18	1443,(9, 14),22	1465,(9, 109),4	1469,(4, 52),56	1527,(4, 33),32	1559,(4, 43),52	1621,(9, 38),20	1645,(9, 92),12	1667,(4, 73),44	1737,(4, 107),30	1767,(9, 42),28	1795,(9, 57),30	1825,(9, 73),18	1865,(9, 117),16	1883,(9, 25),16	1899,(9, 30),8	1907,(9, 35),6	1913,(9, 60),2	1915,(9, 65),2	1917,(9, 85),2	1919,(9, 90),2	1921,(9, 95),2	1925,(9, 80),8	1937,(9, 50),26	1963,(9, 105),10	2079,(9, 102),24	2153,(9, 64),8	2161,(9, 69),16	2189,(9, 110),8	2197,(9, 112),40	2251,(9, 55),62	2313,(9, 70),16	2329,(9, 120),6	2339,(9, 94),8	2403,(9, 75),16	2439,(9, 84),14	2481,(9, 74),42	2523,(9, 104),6	2529,(9, 119),10	2549,(9, 114),24	2621,(9, 19),70	2789,(9, 37),140	2957,(4, 38),348	3305,(4, 58),1256	4561,(4, 68),152	4713,(4, 78),62	4775,(4, 93),52	4827,(4, 98),218	5045,(4, 103),44	5149,(4, 100),474	5655,(9, 100),32	5805,(9, 39),158	6339,(9, 49),156	6727,(9, 18),32	6759,(9, 23),28	6787,(9, 28),68	6855,(9, 33),148	7003,(9, 48),48	7051,(9, 78),56	7107,(9, 118),50	7893,(9, 24),320	8213,(9, 72),226	8735,(9, 115),200	9409,(9, 45),426	9835,(16, 121),4	9839,(26, 121),4	9843,(31, 121),4	9847,(36, 121),4	9851,(41, 121),4	9855,(46, 121),4	9859,(56, 121),4	9863,(61, 121),4	9867,(66, 121),4	9871,(71, 121),4	9875,(76, 121),4	9879,(81, 121),4	9883,(21, 121),4	9887,(86, 121),4	9891,(91, 121),4	9895,(96, 121),4	9899,(51, 121),4	9903,(101, 121),4	9907,(106, 121),4	9911,(111, 121),4	9915,(116, 121),4	
90,(3, 13),2	92,(3, 19),2	94,(3, 23),2	97,(3, 16),12	109,(3, 33),2	111,(3, 34),2	113,(3, 21),2	115,(3, 17),2	117,(3, 22),22	139,(3, 51),2	141,(3, 14),30	171,(3, 24),48	219,(3, 76),2	221,(3, 38),2	223,(3, 26),10	233,(3, 31),4	237,(3, 36),8	245,(3, 41),8	253,(3, 43),2	255,(3, 29),6	261,(3, 44),6	267,(3, 59),4	271,(3, 79),2	273,(3, 47),4	277,(3, 66),4	281,(3, 58),2	283,(3, 27),12	295,(3, 67),2	297,(3, 61),6	303,(3, 84),2	305,(3, 86),2	307,(3, 18),62	369,(3, 28),74	443,(3, 32),10	453,(3, 39),18	471,(3, 53),14	485,(3, 77),2	487,(3, 82),2	489,(3, 89),2	491,(3, 42),12	503,(3, 49),32	535,(3, 54),16	551,(3, 64),10	561,(3, 71),8	569,(3, 87),2	571,(3, 46),56	627,(3, 56),24	651,(3, 91),2	653,(3, 48),26	679,(3, 74),10	689,(3, 94),2	691,(3, 98),4	695,(3, 99),2	697,(3, 106),2	699,(3, 108),4	703,(3, 52),24	727,(3, 57),28	755,(3, 62),8	763,(3, 63),42	805,(3, 109),2	807,(3, 111),2	809,(3, 37),120	929,(3, 69),206	1135,(3, 96),20	1155,(3, 101),8	1163,(3, 104),12	1175,(3, 72),8	1183,(3, 92),38	1221,(3, 102),10	1231,(3, 114),60	1291,(8, 19),2	1293,(8, 26),2	1295,(8, 29),2	1297,(8, 41),2	1299,(3, 78),18	1317,(3, 117),18	1335,(8, 17),2	1337,(8, 21),14	1351,(8, 31),4	1355,(8, 27),2	1357,(3, 73),60	1417,(3, 83),56	1473,(3, 88),18	1491,(3, 93),36	1527,(3, 97),118	1645,(3, 103),22	1667,(3, 107),34	1701,(3, 112),36	1737,(3, 116),114	1851,(8, 22),8	1859,(8, 32),6	1865,(3, 119),26	1891,(8, 14),12	1903,(8, 24),10	1913,(8, 61),2	1915,(8, 42),2	1917,(8, 46),6	1923,(8, 47),2	1925,(8, 52),2	1927,(8, 62),2	1929,(8, 64),2	1931,(8, 66),2	1933,(8, 37),20	1953,(8, 72),2	1955,(8, 82),6	1961,(8, 87),2	1963,(3, 68),794	2757,(3, 113),182	2939,(3, 118),18	2957,(8, 49),14	2971,(8, 67),18	2989,(8, 77),56	3045,(8, 92),2	3047,(8, 97),38	3085,(8, 107),4	3089,(8, 34),120	3209,(8, 39),22	3231,(8, 44),34	3265,(8, 54),12	3277,(8, 57),192	3469,(8, 74),6	3475,(8, 102),8	3483,(8, 112),2	3485,(8, 117),24	3685,(8, 59),22	3707,(8, 69),14	3721,(8, 79),2	3723,(8, 89),6	3729,(8, 94),20	3749,(8, 99),4	3753,(8, 104),20	3773,(8, 114),2	3775,(8, 119),64	3901,(8, 96),2	4009,(8, 16),32	4041,(8, 56),6	4047,(8, 76),10	4071,(8, 36),42	4113,(8, 51),18	4131,(8, 71),14	4145,(8, 81),6	4151,(8, 86),6	4157,(8, 84),174	4331,(8, 91),6	4337,(8, 101),2	4339,(8, 106),100	4439,(8, 109),130	4569,(8, 111),8	4577,(8, 116),196	5877,(8, 13),10	5887,(8, 18),40	5927,(8, 23),16	5943,(8, 28),618	6561,(8, 33),4	6565,(8, 38),2	6567,(8, 43),8	6575,(8, 48),10	6585,(8, 53),2	6587,(8, 58),6	6593,(8, 63),2	6595,(8, 68),28	6623,(8, 73),8	6631,(8, 78),6	6637,(8, 83),28	6665,(8, 88),6	6671,(8, 98),10	6681,(8, 103),2	6683,(8, 108),44	6775,(3, 81),1120	7895,(8, 93),756	8651,(8, 113),60	8711,(8, 118),508	9395,(20, 121),4	9403,(25, 121),4	9411,(30, 121),4	9419,(35, 121),4	9427,(40, 121),4	9439,(50, 121),4	9447,(55, 121),4	9455,(60, 121),4	9467,(70, 121),4	9475,(75, 121),4	9487,(90, 121),4	9491,(95, 121),4	9495,(80, 121),4	9499,(85, 121),4	9511,(100, 121),4	9519,(105, 121),4	9527,(110, 121),4	9535,(115, 121),4	9543,(120, 121),4	9923,(45, 121),4	10694,(15, 121),4	11623,(65, 121),4	
62,(2, 13),12	74,(2, 15),2	76,(2, 23),6	82,(2, 43),2	85,(2, 16),10	95,(2, 21),2	97,(2, 25),4	101,(2, 30),8	109,(2, 31),2	111,(2, 36),2	113,(2, 17),2	115,(2, 18),76	191,(2, 20),26	217,(2, 33),4	221,(2, 46),2	223,(2, 48),2	225,(2, 22),2	227,(2, 27),34	261,(2, 28),20	281,(2, 32),2	283,(2, 38),24	307,(2, 60),2	309,(2, 37),22	331,(2, 42),22	353,(2, 45),8	361,(2, 26),78	439,(2, 41),30	469,(2, 47),10	479,(2, 51),10	489,(2, 52),2	491,(2, 53),34	525,(2, 56),4	529,(2, 57),2	531,(2, 58),12	543,(2, 61),2	545,(2, 62),20	565,(2, 63),4	569,(2, 66),2	571,(2, 67),6	577,(2, 68),60	637,(2, 72),12	649,(2, 73),4	653,(2, 77),2	655,(2, 86),2	657,(2, 40),52	709,(2, 50),46	755,(2, 65),4	759,(2, 81),4	763,(2, 92),4	767,(2, 70),14	781,(2, 101),4	785,(2, 55),32	817,(2, 71),90	907,(2, 76),12	919,(2, 78),10	929,(2, 82),18	947,(2, 83),22	969,(2, 87),104	1073,(2, 96),8	1081,(2, 106),2	1083,(2, 107),2	1085,(2, 75),40	1125,(2, 80),16	1141,(2, 85),2	1143,(2, 88),156	1299,(2, 91),20	1319,(2, 93),28	1347,(2, 97),8	1355,(2, 113),2	1357,(2, 100),12	1369,(2, 110),4	1373,(2, 115),2	1375,(2, 102),12	1387,(2, 116),2	1389,(7, 17),2	1391,(2, 35),154	1545,(2, 90),142	1687,(2, 95),34	1721,(2, 98),44	1765,(2, 103),60	1825,(2, 105),22	1847,(2, 108),112	1959,(2, 118),4	1963,(2, 111),22	1985,(2, 112),12	1997,(2, 117),76	2073,(7, 21),2	2075,(7, 22),4	2079,(7, 26),30	2109,(7, 31),2	2111,(7, 46),6	2117,(2, 120),62	2179,(7, 15),6	2185,(7, 20),2	2187,(7, 30),2	2189,(7, 36),30	2219,(7, 25),16	2235,(7, 40),2	2237,(7, 45),2	2239,(7, 50),10	2249,(7, 60),2	2251,(7, 16),80	2331,(7, 47),16	2347,(7, 61),2	2349,(7, 27),46	2395,(7, 37),46	2441,(7, 65),12	2453,(7, 71),2	2455,(7, 32),52	2507,(7, 55),22	2529,(7, 82),2	2531,(7, 85),2	2533,(7, 66),4	2537,(7, 95),2	2539,(7, 62),10	2549,(7, 67),14	2563,(7, 80),8	2571,(7, 96),2	2573,(7, 52),30	2603,(7, 81),8	2611,(7, 91),4	2615,(7, 100),2	2617,(7, 42),48	2665,(7, 57),32	2697,(7, 72),14	2711,(7, 77),6	2717,(7, 87),4	2721,(7, 92),12	2733,(7, 97),2	2735,(7, 102),28	2763,(7, 107),12	2775,(7, 112),12	2787,(7, 117),2	2929,(12, 17),8	2937,(12, 22),20	2957,(12, 27),2	2959,(12, 37),2	2961,(12, 47),10	2973,(7, 35),74	3047,(7, 75),40	3087,(7, 105),2	3089,(12, 32),20	3109,(12, 42),18	3127,(12, 52),16	3143,(12, 57),2	3145,(12, 62),12	3157,(12, 67),2	3159,(12, 77),2	3161,(12, 82),74	3235,(12, 87),4	3239,(12, 92),36	3275,(12, 112),2	3469,(12, 107),4	3475,(7, 70),92	3567,(7, 90),12	3579,(7, 110),14	3593,(7, 115),12	3605,(7, 120),10	3615,(12, 20),4	3619,(12, 25),10	3629,(12, 35),2	3631,(12, 40),2	3633,(12, 45),14	3647,(12, 50),2	3649,(12, 55),14	3663,(12, 60),2	3665,(12, 70),6	3671,(12, 85),4	3675,(12, 90),4	3679,(12, 97),38	3717,(12, 102),62	3779,(7, 41),60	3839,(7, 51),54	3893,(7, 101),6	3899,(7, 111),2	3903,(12, 100),2	3907,(7, 56),26	3933,(7, 76),18	3951,(7, 86),18	3969,(7, 116),4	3975,(7, 106),34	4009,(12, 117),6	4041,(12, 105),4	4057,(12, 30),58	4115,(12, 80),24	4157,(12, 16),26	4183,(12, 31),2	4185,(12, 46),4	4193,(12, 21),18	4211,(12, 26),72	4283,(12, 36),30	4313,(12, 56),2	4315,(12, 61),6	4321,(12, 66),2	4323,(12, 71),8	4331,(12, 75),94	4439,(12, 41),130	4569,(12, 95),22	4591,(12, 110),20	4611,(12, 115),24	4773,(12, 76),2	4775,(12, 81),6	4781,(12, 86),2	4783,(12, 91),40	4823,(12, 96),34	4857,(12, 101),52	4909,(12, 106),12	4921,(12, 111),18	4939,(12, 116),2	4955,(12, 120),36	5367,(7, 13),20	5387,(7, 18),12	5399,(7, 23),16	5415,(7, 28),2	5417,(7, 33),6	5423,(7, 38),8	5431,(7, 43),126	5557,(7, 48),8	5565,(7, 53),2	5567,(7, 58),4	5571,(7, 63),8	5579,(7, 68),10	5589,(7, 73),26	5615,(7, 78),2	5617,(7, 83),140	5757,(7, 88),2	5759,(7, 93),10	5769,(7, 98),20	5789,(7, 103),2	5791,(7, 108),4	5795,(7, 113),56	5851,(7, 118),26	7845,(12, 13),8	7853,(12, 18),2	7855,(12, 23),2	7857,(12, 33),2	7859,(12, 38),2	7861,(12, 43),2	7863,(12, 48),4	7867,(12, 53),2	7869,(12, 63),2	7871,(12, 73),2	7873,(12, 78),2	7875,(12, 88),14	7889,(12, 98),4	7893,(12, 108),2	8831,(12, 51),224	9219,(12, 28),48	9267,(12, 58),124	9391,(12, 72),390	9781,(12, 83),46	9827,(12, 103),4	9831,(12, 118),2	9835,(12, 15),826	10661,(12, 65),364	11025,(12, 68),446	11471,(12, 93),30	11501,(12, 113),34	11535,(14, 121),4	11539,(19, 121),4	11543,(29, 121),4	11547,(34, 121),4	11551,(39, 121),4	11555,(44, 121),4	11559,(49, 121),4	11563,(54, 121),4	11567,(59, 121),4	11571,(64, 121),4	11575,(69, 121),4	11579,(74, 121),4	11583,(79, 121),4	11587,(84, 121),4	11591,(89, 121),4	11595,(94, 121),4	11599,(24, 121),4	11603,(99, 121),4	11607,(104, 121),4	11611,(109, 121),4	11615,(114, 121),4	11619,(119, 121),4	
1,(0, 2),28	29,(0, 3),28	57,(0, 4),28	85,(0, 5),28	113,(0, 7),28	141,(0, 8),28	169,(0, 9),28	197,(0, 10),28	225,(0, 12),28	253,(1, 14),2	255,(1, 15),2	257,(1, 16),12	269,(1, 17),4	273,(1, 19),2	275,(1, 20),20	295,(1, 21),2	297,(1, 22),12	309,(1, 24),2	311,(1, 25),4	315,(1, 26),46	361,(1, 27),2	363,(1, 29),84	447,(1, 30),210	657,(1, 31),8	665,(1, 32),38	703,(1, 34),56	759,(1, 35),8	767,(1, 36),2	769,(1, 37),8	777,(1, 39),4	781,(1, 40),4	785,(1, 41),2	787,(1, 42),22	809,(1, 44),22	831,(1, 45),254	1085,(1, 46),2	1087,(1, 47),88	1175,(1, 49),2	1177,(1, 50),2	1179,(1, 51),72	1251,(1, 52),50	1301,(1, 54),28	1329,(1, 55),28	1357,(1, 56),4	1361,(1, 57),14	1375,(1, 59),14	1389,(1, 60),2	1391,(1, 61),18	1409,(1, 62),60	1469,(1, 64),396	1865,(1, 65),18	1883,(1, 66),8	1891,(1, 67),24	1915,(1, 69),8	1923,(1, 70),2	1925,(1, 71),6	1931,(1, 72),2	1933,(1, 74),2	1935,(1, 75),2	1937,(1, 76),26	1963,(1, 77),8	1971,(1, 79),2	1973,(1, 80),144	2117,(1, 81),6	2123,(1, 82),56	2179,(1, 84),20	2199,(1, 85),20	2219,(1, 86),32	2251,(1, 87),54	2305,(1, 89),34	2339,(1, 90),2	2341,(1, 91),6	2347,(1, 92),2	2349,(1, 94),90	2439,(1, 95),2	2441,(1, 96),2	2443,(1, 97),12	2455,(1, 99),26	2481,(1, 100),2	2483,(1, 101),50	2533,(1, 102),6	2539,(1, 104),10	2549,(1, 105),2	2551,(1, 106),12	2563,(1, 107),10	2573,(1, 109),16	2589,(1, 110),2	2591,(1, 111),12	2603,(1, 112),14	2617,(1, 114),4	2621,(1, 115),6	2627,(1, 116),1152	3779,(1, 117),100	3879,(1, 119),2	3881,(1, 120),2	3883,(11, 14),6	3889,(11, 15),14	3903,(11, 16),4	3907,(11, 17),26	3933,(11, 19),38	3971,(11, 20),2	3973,(11, 21),2	3975,(11, 22),2	3977,(11, 24),78	4055,(11, 25),2	4057,(11, 26),14	4071,(11, 27),8	4079,(11, 29),78	4157,(11, 30),32	4189,(11, 31),4	4193,(11, 32),750	4943,(11, 34),10	4953,(11, 35),2	4955,(11, 36),2	4957,(11, 37),34	4991,(11, 39),8	4999,(11, 40),6	5005,(11, 41),20	5025,(11, 42),2	5027,(11, 44),2	5029,(11, 45),22	5051,(11, 46),4	5055,(11, 47),14	5069,(11, 49),2	5071,(11, 50),12	5083,(11, 51),14	5097,(11, 52),2	5099,(11, 54),12	5111,(11, 55),6	5117,(11, 56),2	5119,(11, 57),2	5121,(11, 59),4	5125,(11, 60),24	5149,(11, 61),4	5153,(11, 62),126	5279,(11, 64),356	5635,(11, 65),2	5637,(11, 66),2	5639,(11, 67),10	5649,(11, 69),4	5653,(11, 70),2	5655,(11, 71),2	5657,(11, 72),12	5669,(11, 74),136	5805,(11, 75),76	5881,(11, 76),112	5993,(11, 77),2	5995,(11, 79),64	6059,(11, 80),2	6061,(11, 81),24	6085,(11, 82),94	6179,(11, 84),4	6183,(11, 85),2	6185,(11, 86),4	6189,(11, 87),4	6193,(11, 89),2	6195,(11, 90),14	6209,(11, 91),28	6237,(11, 92),2	6239,(11, 94),2	6241,(11, 95),4	6245,(11, 96),40	6285,(11, 97),8	6293,(11, 99),2	6295,(11, 100),4	6299,(11, 101),6	6305,(11, 102),32	6337,(11, 104),2	6339,(11, 105),14	6353,(11, 106),214	6567,(11, 107),6	6573,(11, 109),2	6575,(11, 110),24	6599,(11, 111),4	6603,(11, 112),2	6605,(11, 114),166	6771,(11, 115),2	6773,(11, 116),2	6775,(11, 117),68	6843,(11, 119),28	6871,(11, 120),30	6901,(6, 14),2	6903,(6, 15),10	6913,(6, 17),2	6915,(6, 19),20	6935,(6, 20),2	6937,(6, 22),24	6961,(6, 24),2	6963,(6, 25),18	6981,(6, 27),6	6987,(6, 29),2	6989,(6, 30),4	6993,(6, 32),4	6997,(6, 34),8	7005,(6, 35),20	7025,(6, 37),76	7101,(6, 39),6	7107,(6, 40),6	7113,(6, 42),134	7247,(6, 44),8	7255,(6, 45),38	7293,(6, 47),2	7295,(6, 49),2	7297,(6, 50),6	7303,(6, 52),8	7311,(6, 54),6	7317,(6, 55),128	7445,(6, 57),100	7545,(6, 59),8	7553,(6, 60),80	7633,(6, 62),34	7667,(6, 64),30	7697,(6, 65),8	7705,(6, 67),2	7707,(6, 69),38	7745,(6, 70),2	7747,(6, 72),6	7753,(6, 74),18	7771,(6, 75),2	7773,(6, 77),4	7777,(6, 79),4	7781,(6, 82),2	7783,(6, 84),38	7821,(6, 87),50	7871,(6, 89),2	7873,(6, 90),2	7875,(6, 94),18	7893,(6, 95),2	7895,(6, 16),26	7921,(6, 21),4	7925,(6, 26),6	7931,(6, 31),2	7933,(6, 36),22	7955,(6, 41),22	7977,(6, 46),2	7979,(6, 51),22	8001,(6, 56),26	8027,(6, 61),102	8129,(6, 66),80	8209,(6, 71),2	8211,(6, 76),8	8219,(6, 80),120	8339,(6, 81),20	8359,(6, 85),376	8735,(6, 86),52	8787,(6, 91),4	8791,(6, 92),38	8829,(6, 96),2	8831,(6, 97),210	9041,(6, 99),12	9053,(6, 100),2	9055,(6, 101),4	9059,(6, 102),8	9067,(6, 104),2	9069,(6, 105),12	9081,(6, 106),4	9085,(6, 107),44	9129,(6, 109),2	9131,(6, 110),74	9205,(6, 111),14	9219,(6, 112),10	9229,(6, 114),68	9297,(6, 115),8	9305,(6, 116),54	9359,(6, 117),2	9361,(6, 119),2	9363,(6, 120),46	
