3072
# CPU
0,0,1	1,16,1	2,61,1	3,39,1	4,23,1	5,195,1	6,95,1	7,98,1	8,9,1	9,47,1	10,38,1	11,139,1	12,10,1	13,105,1	14,22,1	15,191,1	16,163,1	17,20,1	18,127,1	19,87,1	20,96,1	21,2,1	22,24,1	23,115,1	24,157,1	25,113,1	26,162,1	27,6,1	28,172,1	29,75,1	30,102,1	31,56,1	32,93,1	33,174,1	34,25,1	35,19,1	36,166,1	37,50,1	38,128,1	39,119,1	40,72,1	41,126,1	42,1,1	43,168,1	44,21,1	45,134,1	46,52,1	47,28,1	48,116,1	49,171,1	50,67,1	51,57,1	52,193,1	53,41,1	54,106,1	55,3,1	56,169,1	57,130,1	58,94,1	59,51,1	60,68,1	61,79,1	62,150,1	63,5,1	64,147,1	65,53,1	66,190,1	67,189,1	68,141,1	69,164,1	70,160,1	71,18,1	72,135,1	73,184,1	74,121,1	75,179,1	76,86,1	77,122,1	78,194,1	79,104,1	80,107,1	81,13,1	82,69,1	83,83,1	84,120,1	85,138,1	86,132,1	87,46,1	88,181,1	89,4,1	90,131,1	91,92,1	92,74,1	93,33,1	94,199,1	95,140,1	96,136,1	97,151,1	98,133,1	99,146,1	100,27,1	101,182,1	102,183,1	103,12,1	104,180,1	105,48,1	106,31,1	107,173,1	108,65,1	109,176,1	110,117,1	111,63,1	112,161,1	113,29,1	114,152,1	115,129,1	116,45,1	117,8,1	118,124,1	119,88,1	120,148,1	121,49,1	122,200,1	123,81,1	124,99,1	125,97,1	126,34,1	127,76,1	128,42,1	129,101,1	130,177,1	131,73,1	132,14,1	133,145,1	134,37,1	135,84,1	136,144,1	137,64,1	138,82,1	139,36,1	140,197,1	141,111,1	146,156,1	150,159,1	154,35,1	158,80,1	166,153,1	174,186,1	182,170,1	194,108,1	206,175,1	218,43,1	238,123,1	258,26,1	278,158,1	298,142,1	322,55,1	350,62,1	382,40,1	414,165,1	458,114,1	506,154,1	590,91,1	674,110,1	762,70,1	858,100,1	990,30,1	1206,187,1	1838,78,1	3070,66,1	3071,201,1	
48,7,1	49,71,1	50,103,1	51,60,1	52,185,1	53,178,1	54,192,1	55,196,1	56,44,1	57,125,1	58,85,1	64,11,1	65,112,1	66,118,1	67,155,1	68,89,1	72,167,1	76,143,1	80,32,1	
17,17,1	18,137,1	19,198,1	20,188,1	32,90,1	92,15,1	93,109,1	94,149,1	95,59,1	96,58,1	97,77,1	98,54,1	
# Incoming
19,(137, 201),4	23,(198, 201),4	27,(188, 201),4	33,(90, 201),4	37,(17, 111),4	50,(71, 201),4	54,(103, 201),4	58,(60, 201),4	62,(185, 201),4	66,(178, 201),4	70,(192, 201),4	74,(196, 201),4	78,(44, 201),4	82,(125, 201),4	86,(85, 201),4	90,(112, 201),4	94,(118, 201),4	98,(155, 201),4	102,(89, 201),4	106,(167, 201),4	110,(143, 201),4	114,(32, 201),4	118,(109, 201),4	122,(149, 201),4	126,(59, 201),4	130,(58, 201),4	134,(77, 201),4	138,(54, 201),4	142,(11, 156),4	146,(11, 159),4	150,(7, 35),4	154,(11, 80),4	158,(15, 153),8	166,(11, 186),8	174,(7, 170),8	182,(11, 108),12	194,(7, 175),12	206,(7, 43),12	218,(11, 123),20	238,(15, 26),20	258,(11, 158),20	278,(11, 142),20	298,(17, 55),24	322,(15, 62),28	350,(11, 40),32	382,(17, 165),24	406,(7, 165),8	414,(15, 114),44	458,(7, 154),48	506,(17, 91),68	574,(15, 91),16	590,(7, 110),84	674,(15, 70),88	762,(17, 100),96	858,(7, 30),132	990,(11, 187),204	1194,(15, 187),12	1206,(11, 78),632	1838,(17, 66),48	1886,(15, 66),1184	
32,(0, 7),16	48,(0, 11),16	64,(6, 89),4	68,(16, 167),4	72,(18, 143),4	76,(17, 32),4	
1,(0, 17),16	28,(6, 90),4	76,(0, 15),16	
# Outgoing
1,(0, 17),16	28,(6, 90),4	32,(0, 7),16	48,(0, 11),16	64,(6, 89),4	68,(16, 167),4	72,(18, 143),4	76,(0, 15),16	
50,(71, 201),4	54,(103, 201),4	58,(60, 201),4	62,(185, 201),4	66,(178, 201),4	70,(192, 201),4	74,(196, 201),4	78,(44, 201),4	82,(125, 201),4	86,(85, 201),4	90,(112, 201),4	94,(118, 201),4	98,(155, 201),4	102,(89, 201),4	106,(167, 201),4	110,(143, 201),4	114,(32, 201),4	142,(11, 156),4	146,(11, 159),4	150,(7, 35),4	154,(11, 80),4	166,(11, 186),8	174,(7, 170),8	182,(11, 108),12	194,(7, 175),12	206,(7, 43),12	218,(11, 123),20	258,(11, 158),20	278,(11, 142),20	350,(11, 40),32	406,(7, 165),8	458,(7, 154),48	590,(7, 110),84	858,(7, 30),132	990,(11, 187),204	1206,(11, 78),632	
19,(137, 201),4	23,(198, 201),4	27,(188, 201),4	33,(90, 201),4	37,(17, 111),4	76,(17, 32),4	118,(109, 201),4	122,(149, 201),4	126,(59, 201),4	130,(58, 201),4	134,(77, 201),4	138,(54, 201),4	158,(15, 153),8	238,(15, 26),20	298,(17, 55),24	322,(15, 62),28	382,(17, 165),24	414,(15, 114),44	506,(17, 91),68	574,(15, 91),16	674,(15, 70),88	762,(17, 100),96	1194,(15, 187),12	1838,(17, 66),48	1886,(15, 66),1184	
