577
# CPU
0,41,1	1,23,13	14,40,13	27,7,13	40,36,13	53,34,13	66,12,13	79,15,13	92,16,13	105,6,13	118,20,13	131,10,13	144,29,13	157,32,13	170,5,13	183,24,13	196,39,13	209,22,13	222,25,13	235,9,13	248,21,13	261,35,13	274,11,13	287,30,13	300,38,13	313,13,13	326,14,13	339,8,13	352,31,13	365,26,13	378,33,13	391,3,13	404,28,13	417,4,13	430,2,13	563,1,13	576,0,1	
151,27,13	226,18,13	301,17,13	376,37,13	

76,19,13	
# Incoming
239,(18, 4),33	272,(27, 2),18	290,(19, 1),3	314,(17, 2),51	389,(37, 1),174	
76,(41, 27),75	151,(41, 18),75	226,(41, 17),75	301,(41, 37),75	

1,(41, 19),75	
# Outgoing
1,(41, 19),75	76,(41, 27),75	151,(41, 18),75	226,(41, 17),75	301,(41, 37),75	
239,(18, 4),33	272,(27, 2),18	314,(17, 2),51	389,(37, 1),174	

290,(19, 1),3	
