4167
# CPU
46,4,1	65,24,1	91,8,1	92,16,1	93,28,1	94,60,1	122,36,1	143,64,1	161,76,1	203,20,1	209,80,1	221,52,1	469,48,1	541,56,1	784,72,1	3268,32,1	3352,40,1	3355,44,1	3559,68,1	3562,12,1	
31,3,1	76,7,1	77,51,1	78,55,1	241,11,1	262,15,1	1210,31,1	1264,67,1	1606,63,1	1627,79,1	1675,19,1	1678,23,1	1867,35,1	1957,71,1	3304,39,1	3574,27,1	3589,43,1	4141,47,1	4147,59,1	4162,75,1	
16,2,1	17,14,1	41,30,1	61,6,1	140,62,1	206,22,1	209,74,1	655,26,1	676,34,1	916,78,1	1630,10,1	1639,46,1	1675,54,1	1702,58,1	1720,70,1	3271,38,1	3556,66,1	3565,18,1	3586,42,1	4144,50,1	
0,0,1	1,1,1	2,5,1	3,17,1	4,65,1	50,21,1	490,41,1	595,69,1	634,9,1	673,33,1	679,37,1	895,45,1	901,53,1	904,77,1	940,49,1	976,57,1	994,13,1	1021,25,1	1024,29,1	1186,61,1	1411,73,1	4166,81,1	
# Incoming
31,(0, 4),15	46,(3, 16),3	50,(2, 28),3	53,(3, 24),12	76,(0, 8),15	113,(2, 36),9	140,(3, 64),3	158,(2, 76),3	176,(7, 20),27	206,(2, 80),3	209,(7, 32),3	212,(6, 52),9	241,(1, 12),3	245,(7, 72),6	409,(6, 48),60	469,(6, 56),72	643,(6, 72),141	1210,(1, 32),2058	3304,(1, 40),48	3352,(1, 44),3	3556,(1, 68),3	3559,(5, 12),3	
16,(0, 3),15	61,(0, 7),15	91,(1, 11),150	241,(2, 35),3	244,(1, 15),18	262,(1, 23),15	277,(1, 31),933	1210,(2, 19),51	1261,(2, 67),3	1264,(4, 23),138	1402,(4, 43),117	1519,(4, 63),87	1606,(4, 79),21	1627,(6, 19),48	1675,(6, 23),3	1678,(6, 35),189	1867,(6, 75),3	1870,(8, 27),72	1942,(8, 71),15	3271,(1, 39),33	3355,(1, 47),3	3409,(1, 59),3	3565,(5, 27),9	3586,(5, 43),3	3589,(5, 47),552	4144,(5, 59),3	4147,(5, 75),15	
1,(0, 2),15	32,(3, 10),3	35,(3, 26),3	38,(3, 30),3	41,(3, 66),3	46,(0, 6),15	65,(3, 42),36	101,(3, 58),33	134,(3, 62),6	143,(3, 74),33	203,(7, 22),3	206,(7, 74),3	233,(7, 26),12	640,(4, 26),15	673,(4, 34),3	904,(4, 78),12	916,(7, 42),423	1627,(8, 10),3	1630,(8, 46),9	1639,(8, 54),36	1675,(8, 58),27	1702,(8, 70),18	3268,(1, 38),3	3358,(1, 50),51	3412,(1, 66),144	3562,(5, 18),3	3574,(5, 42),12	4141,(5, 50),3	
17,(2, 13),30	47,(2, 21),3	50,(3, 33),3	53,(2, 29),27	80,(2, 33),33	122,(2, 57),36	161,(2, 77),45	209,(14, 81),3	212,(3, 53),21	233,(30, 81),3	236,(6, 13),3	244,(2, 45),165	409,(3, 41),81	490,(3, 61),12	502,(3, 69),93	595,(4, 9),39	634,(4, 25),6	640,(6, 53),3	643,(7, 61),9	652,(51, 81),3	655,(4, 33),18	673,(55, 81),3	676,(4, 37),3	679,(4, 45),216	895,(4, 53),6	901,(4, 77),3	904,(6, 49),36	940,(6, 57),36	976,(6, 73),6	982,(24, 81),3	985,(8, 13),9	994,(8, 25),27	1021,(8, 29),3	1024,(8, 61),162	1186,(16, 81),3	1189,(28, 81),3	1192,(60, 81),3	1195,(36, 81),3	1198,(62, 81),3	1201,(64, 81),3	1204,(76, 81),3	1207,(20, 81),3	1210,(80, 81),3	1213,(52, 81),3	1216,(48, 81),3	1219,(56, 81),3	1222,(72, 81),3	1264,(22, 81),3	1267,(74, 81),3	1270,(26, 81),3	1273,(34, 81),3	1276,(78, 81),3	1339,(7, 73),72	1411,(11, 81),3	1414,(15, 81),3	1417,(31, 81),3	1420,(67, 81),3	1607,(63, 81),3	1628,(79, 81),3	1676,(19, 81),3	1679,(23, 81),3	1870,(10, 81),3	1873,(46, 81),3	1876,(54, 81),3	1879,(58, 81),3	1882,(70, 81),3	1885,(35, 81),3	1958,(71, 81),3	3269,(32, 81),3	3272,(38, 81),3	3305,(39, 81),3	3353,(40, 81),3	3356,(44, 81),3	3557,(66, 81),3	3560,(68, 81),3	3563,(12, 81),3	3566,(18, 81),3	3575,(27, 81),3	3587,(42, 81),3	3590,(43, 81),3	4142,(47, 81),3	4145,(50, 81),3	4148,(59, 81),3	4163,(75, 81),3	
# Outgoing
595,(4, 9),39	634,(4, 25),6	640,(4, 26),15	655,(4, 33),18	673,(4, 34),3	676,(4, 37),3	679,(4, 45),216	895,(4, 53),6	901,(4, 77),3	904,(4, 78),12	982,(24, 81),3	985,(8, 13),9	994,(8, 25),27	1021,(8, 29),3	1024,(8, 61),162	1186,(16, 81),3	1189,(28, 81),3	1192,(60, 81),3	1195,(36, 81),3	1201,(64, 81),3	1204,(76, 81),3	1207,(20, 81),3	1210,(80, 81),3	1213,(52, 81),3	1216,(48, 81),3	1219,(56, 81),3	1222,(72, 81),3	1264,(4, 23),138	1402,(4, 43),117	1519,(4, 63),87	1606,(4, 79),21	1627,(8, 10),3	1630,(8, 46),9	1639,(8, 54),36	1675,(8, 58),27	1702,(8, 70),18	1870,(8, 27),72	1942,(8, 71),15	3269,(32, 81),3	3353,(40, 81),3	3356,(44, 81),3	3560,(68, 81),3	3563,(12, 81),3	
32,(3, 10),3	35,(3, 26),3	38,(3, 30),3	41,(3, 66),3	46,(3, 16),3	50,(3, 33),3	53,(3, 24),12	65,(3, 42),36	101,(3, 58),33	134,(3, 62),6	140,(3, 64),3	143,(3, 74),33	176,(7, 20),27	203,(7, 22),3	206,(7, 74),3	209,(7, 32),3	212,(3, 53),21	233,(7, 26),12	245,(7, 72),6	409,(3, 41),81	490,(3, 61),12	502,(3, 69),93	643,(7, 61),9	652,(51, 81),3	673,(55, 81),3	916,(7, 42),423	1339,(7, 73),72	1411,(11, 81),3	1414,(15, 81),3	1417,(31, 81),3	1420,(67, 81),3	1607,(63, 81),3	1628,(79, 81),3	1676,(19, 81),3	1679,(23, 81),3	1885,(35, 81),3	1958,(71, 81),3	3305,(39, 81),3	3575,(27, 81),3	3590,(43, 81),3	4142,(47, 81),3	4148,(59, 81),3	4163,(75, 81),3	
17,(2, 13),30	47,(2, 21),3	50,(2, 28),3	53,(2, 29),27	80,(2, 33),33	113,(2, 36),9	122,(2, 57),36	158,(2, 76),3	161,(2, 77),45	206,(2, 80),3	209,(14, 81),3	212,(6, 52),9	233,(30, 81),3	236,(6, 13),3	241,(2, 35),3	244,(2, 45),165	409,(6, 48),60	469,(6, 56),72	640,(6, 53),3	643,(6, 72),141	904,(6, 49),36	940,(6, 57),36	976,(6, 73),6	1198,(62, 81),3	1210,(2, 19),51	1261,(2, 67),3	1264,(22, 81),3	1267,(74, 81),3	1270,(26, 81),3	1273,(34, 81),3	1276,(78, 81),3	1627,(6, 19),48	1675,(6, 23),3	1678,(6, 35),189	1867,(6, 75),3	1870,(10, 81),3	1873,(46, 81),3	1876,(54, 81),3	1879,(58, 81),3	1882,(70, 81),3	3272,(38, 81),3	3557,(66, 81),3	3566,(18, 81),3	3587,(42, 81),3	4145,(50, 81),3	
1,(0, 2),15	16,(0, 3),15	31,(0, 4),15	46,(0, 6),15	61,(0, 7),15	76,(0, 8),15	91,(1, 11),150	241,(1, 12),3	244,(1, 15),18	262,(1, 23),15	277,(1, 31),933	1210,(1, 32),2058	3268,(1, 38),3	3271,(1, 39),33	3304,(1, 40),48	3352,(1, 44),3	3355,(1, 47),3	3358,(1, 50),51	3409,(1, 59),3	3412,(1, 66),144	3556,(1, 68),3	3559,(5, 12),3	3562,(5, 18),3	3565,(5, 27),9	3574,(5, 42),12	3586,(5, 43),3	3589,(5, 47),552	4141,(5, 50),3	4144,(5, 59),3	4147,(5, 75),15	
