980
# CPU
4,2,9	13,4,9	22,6,9	31,8,9	40,71,9	49,77,9	58,23,9	67,57,9	76,51,9	85,53,9	94,33,9	103,49,9	112,31,9	121,12,9	130,29,9	139,65,9	148,79,9	157,43,9	166,47,9	175,55,9	184,45,9	193,37,9	202,16,9	292,25,9	343,35,9	367,69,9	376,11,9	409,27,9	421,63,9	439,67,9	541,73,9	676,75,9	697,13,9	826,19,9	835,41,9	844,61,9	853,10,9	862,14,9	871,17,9	901,21,9	922,39,9	931,59,9	
0,0,1	1,1,9	10,5,9	19,3,9	28,7,9	37,48,9	46,42,9	55,34,9	64,26,9	73,74,9	82,60,9	91,72,9	100,18,9	109,9,9	118,44,9	127,78,9	136,54,9	145,36,9	154,22,9	163,30,9	172,46,9	181,50,9	190,52,9	232,80,9	406,15,9	508,64,9	517,66,9	526,68,9	535,24,9	544,32,9	553,40,9	793,58,9	802,70,9	811,20,9	820,28,9	829,38,9	838,56,9	862,62,9	871,76,9	979,81,1	
# Incoming
1,(0, 2),3	4,(0, 4),3	7,(0, 6),3	10,(0, 8),3	13,(1, 12),18	31,(1, 16),15	46,(1, 17),48	94,(1, 25),198	292,(1, 35),51	343,(1, 69),24	367,(5, 11),3	370,(5, 27),39	409,(5, 63),12	421,(5, 67),18	439,(5, 73),102	541,(5, 75),135	676,(3, 13),21	697,(3, 19),129	826,(3, 41),3	829,(3, 61),3	832,(7, 10),6	838,(7, 14),6	844,(7, 17),15	859,(7, 21),42	901,(7, 39),21	922,(7, 59),9	
13,(2, 22),36	49,(2, 30),27	76,(2, 46),3	79,(2, 50),51	130,(2, 52),3	133,(2, 80),99	232,(4, 15),174	406,(4, 64),102	508,(4, 66),3	511,(4, 68),3	514,(6, 24),12	526,(6, 32),9	535,(6, 40),6	541,(6, 56),69	610,(6, 58),183	793,(6, 70),3	796,(8, 20),12	808,(8, 28),3	811,(8, 38),12	823,(8, 56),9	832,(8, 62),30	862,(8, 76),3	865,(71, 81),3	868,(77, 81),3	871,(23, 81),3	874,(57, 81),3	877,(51, 81),3	880,(53, 81),3	883,(33, 81),3	886,(49, 81),3	889,(31, 81),3	892,(12, 81),3	895,(29, 81),3	898,(65, 81),3	901,(79, 81),3	904,(43, 81),3	907,(47, 81),3	910,(55, 81),3	913,(45, 81),3	916,(37, 81),3	919,(16, 81),3	922,(25, 81),3	925,(35, 81),3	928,(69, 81),3	931,(11, 81),3	934,(27, 81),3	937,(63, 81),3	940,(67, 81),3	943,(73, 81),3	946,(75, 81),3	949,(13, 81),3	952,(19, 81),3	955,(41, 81),3	958,(61, 81),3	961,(10, 81),3	964,(14, 81),3	967,(17, 81),3	970,(21, 81),3	973,(39, 81),3	976,(59, 81),3	
# Outgoing
13,(2, 22),36	49,(2, 30),27	76,(2, 46),3	79,(2, 50),51	130,(2, 52),3	133,(2, 80),99	232,(4, 15),174	406,(4, 64),102	508,(4, 66),3	511,(4, 68),3	514,(6, 24),12	526,(6, 32),9	535,(6, 40),6	541,(6, 56),69	610,(6, 58),183	793,(6, 70),3	796,(8, 20),12	808,(8, 28),3	811,(8, 38),12	823,(8, 56),9	832,(8, 62),30	862,(8, 76),3	865,(71, 81),3	868,(77, 81),3	871,(23, 81),3	874,(57, 81),3	877,(51, 81),3	880,(53, 81),3	883,(33, 81),3	886,(49, 81),3	889,(31, 81),3	892,(12, 81),3	895,(29, 81),3	898,(65, 81),3	901,(79, 81),3	904,(43, 81),3	907,(47, 81),3	910,(55, 81),3	913,(45, 81),3	916,(37, 81),3	919,(16, 81),3	922,(25, 81),3	925,(35, 81),3	928,(69, 81),3	931,(11, 81),3	934,(27, 81),3	937,(63, 81),3	940,(67, 81),3	943,(73, 81),3	946,(75, 81),3	949,(13, 81),3	952,(19, 81),3	955,(41, 81),3	958,(61, 81),3	961,(10, 81),3	964,(14, 81),3	967,(17, 81),3	970,(21, 81),3	973,(39, 81),3	976,(59, 81),3	
1,(0, 2),3	4,(0, 4),3	7,(0, 6),3	10,(0, 8),3	13,(1, 12),18	31,(1, 16),15	46,(1, 17),48	94,(1, 25),198	292,(1, 35),51	343,(1, 69),24	367,(5, 11),3	370,(5, 27),39	409,(5, 63),12	421,(5, 67),18	439,(5, 73),102	541,(5, 75),135	676,(3, 13),21	697,(3, 19),129	826,(3, 41),3	829,(3, 61),3	832,(7, 10),6	838,(7, 14),6	844,(7, 17),15	859,(7, 21),42	901,(7, 39),21	922,(7, 59),9	
