1395
# CPU
49,4,6	55,17,6	61,22,6	67,94,6	73,113,6	79,79,6	85,67,6	91,82,6	97,8,6	103,61,6	109,88,6	115,43,6	121,76,6	127,109,6	145,12,6	151,85,6	157,73,6	174,26,6	180,70,6	206,41,6	236,52,6	261,91,6	271,20,6	277,34,6	283,47,6	289,49,6	295,58,6	313,101,6	356,30,6	362,38,6	368,55,6	402,64,6	431,45,6	449,97,6	455,105,6	560,117,6	
33,3,6	39,39,6	45,118,6	51,46,6	59,77,6	81,7,6	87,95,6	93,24,6	99,86,6	105,74,6	111,98,6	117,110,6	129,11,6	135,65,6	141,28,6	147,44,6	153,16,6	159,80,6	165,53,6	171,59,6	177,50,6	183,19,6	189,36,6	195,32,6	324,92,6	335,56,6	346,62,6	355,106,6	361,42,6	367,68,6	373,48,6	408,114,6	437,83,6	447,89,6	526,71,6	914,102,6	
17,2,6	23,51,6	29,115,6	65,6,6	71,18,6	77,69,6	83,93,6	89,25,6	95,54,6	101,15,6	107,60,6	113,81,6	119,87,6	125,33,6	131,10,6	137,78,6	143,111,6	149,119,6	155,66,6	176,99,6	221,90,6	237,72,6	262,103,6	300,84,6	322,57,6	418,21,6	427,29,6	433,63,6	439,75,6	448,96,6	456,107,6	528,37,6	
0,0,1	1,5,6	7,9,6	13,1,6	19,14,6	25,104,6	53,27,6	63,116,6	137,23,6	143,31,6	165,108,6	300,35,6	312,120,6	344,13,6	350,112,6	541,100,6	815,40,6	1394,121,1	
# Incoming
33,(0, 4),16	49,(2, 17),1	50,(3, 22),1	51,(3, 45),1	52,(3, 94),1	53,(3, 113),1	59,(2, 82),1	65,(2, 117),15	81,(0, 8),16	97,(3, 43),15	112,(7, 76),1	123,(6, 85),3	126,(6, 109),1	129,(0, 12),16	145,(6, 101),14	159,(10, 26),15	174,(10, 70),2	204,(7, 41),2	206,(7, 45),7	213,(7, 52),23	239,(7, 91),22	262,(11, 20),9	271,(11, 34),5	276,(11, 47),3	279,(11, 49),1	280,(11, 58),2	300,(11, 97),5	305,(11, 101),8	324,(5, 105),12	337,(9, 30),19	356,(9, 38),1	359,(9, 45),3	363,(9, 55),5	368,(9, 64),34	427,(1, 45),4	448,(1, 97),1	449,(1, 105),1	526,(10, 117),34	
17,(0, 3),16	53,(2, 36),1	54,(2, 65),4	58,(2, 77),1	60,(2, 95),5	65,(0, 7),16	81,(2, 74),18	99,(2, 98),4	103,(4, 19),1	104,(4, 110),9	113,(0, 11),16	129,(6, 42),4	133,(8, 53),7	140,(8, 59),1	142,(6, 50),1	145,(5, 19),17	162,(12, 36),1	165,(5, 32),13	179,(5, 42),141	322,(5, 92),2	324,(6, 56),11	335,(6, 62),11	346,(12, 83),5	351,(12, 106),4	357,(9, 42),2	359,(10, 68),3	362,(9, 48),1	363,(6, 89),37	402,(9, 102),5	407,(9, 114),1	408,(12, 71),15	433,(1, 83),4	437,(1, 89),10	510,(10, 71),16	815,(12, 102),99	
1,(0, 2),16	49,(0, 6),16	65,(3, 25),9	74,(3, 54),2	76,(3, 107),3	79,(4, 15),3	82,(4, 60),7	89,(4, 81),1	90,(4, 87),1	91,(7, 29),4	95,(7, 33),2	97,(0, 10),16	113,(3, 66),35	148,(8, 75),4	162,(5, 29),3	165,(12, 99),11	178,(5, 37),1	195,(7, 37),9	204,(12, 90),17	236,(7, 72),1	237,(7, 84),2	261,(7, 103),1	282,(11, 84),18	320,(5, 57),2	336,(9, 29),1	408,(1, 21),10	418,(1, 29),9	431,(1, 63),1	432,(1, 75),1	447,(1, 96),1	450,(1, 107),6	456,(8, 37),72	
50,(2, 27),3	54,(3, 116),9	80,(2, 120),1	81,(39, 121),10	91,(17, 121),10	103,(51, 121),10	113,(115, 121),10	123,(22, 121),10	133,(6, 23),4	137,(6, 31),5	143,(10, 120),1	148,(3, 108),17	165,(118, 121),10	175,(46, 121),10	185,(77, 121),10	195,(6, 35),105	300,(6, 112),9	309,(6, 120),3	312,(94, 121),10	322,(113, 121),10	332,(79, 121),10	342,(7, 13),2	344,(12, 112),1	346,(18, 121),10	356,(7, 100),6	362,(67, 121),10	372,(95, 121),10	382,(82, 121),10	400,(69, 121),10	410,(93, 121),10	420,(25, 121),10	430,(24, 121),10	440,(54, 121),10	450,(86, 121),10	460,(15, 121),10	470,(74, 121),10	480,(60, 121),10	490,(98, 121),10	500,(81, 121),10	510,(110, 121),10	528,(8, 100),13	541,(61, 121),10	551,(88, 121),10	561,(43, 121),10	571,(87, 121),10	581,(76, 121),10	591,(33, 121),10	601,(109, 121),10	611,(65, 121),10	621,(78, 121),10	631,(28, 121),10	641,(111, 121),10	651,(12, 40),164	815,(44, 121),10	825,(119, 121),10	835,(16, 121),10	845,(66, 121),10	855,(80, 121),10	865,(53, 121),10	875,(59, 121),10	885,(99, 121),10	895,(50, 121),10	914,(85, 121),10	924,(73, 121),10	934,(26, 121),10	944,(70, 121),10	954,(19, 121),10	964,(36, 121),10	974,(32, 121),10	984,(41, 121),10	994,(90, 121),10	1004,(52, 121),10	1014,(72, 121),10	1024,(91, 121),10	1034,(103, 121),10	1044,(20, 121),10	1054,(34, 121),10	1064,(47, 121),10	1074,(49, 121),10	1084,(58, 121),10	1094,(84, 121),10	1104,(101, 121),10	1114,(57, 121),10	1124,(92, 121),10	1134,(56, 121),10	1144,(62, 121),10	1154,(106, 121),10	1164,(30, 121),10	1174,(42, 121),10	1184,(38, 121),10	1194,(68, 121),10	1204,(55, 121),10	1214,(48, 121),10	1224,(64, 121),10	1234,(114, 121),10	1244,(21, 121),10	1254,(29, 121),10	1264,(45, 121),10	1274,(63, 121),10	1284,(83, 121),10	1294,(75, 121),10	1304,(89, 121),10	1314,(96, 121),10	1324,(97, 121),10	1334,(105, 121),10	1344,(107, 121),10	1354,(71, 121),10	1364,(37, 121),10	1374,(117, 121),10	1384,(102, 121),10	
# Outgoing
79,(4, 15),3	82,(4, 60),7	89,(4, 81),1	90,(4, 87),1	91,(17, 121),10	103,(4, 19),1	104,(4, 110),9	123,(22, 121),10	133,(8, 53),7	140,(8, 59),1	148,(8, 75),4	162,(12, 36),1	165,(12, 99),11	204,(12, 90),17	312,(94, 121),10	322,(113, 121),10	332,(79, 121),10	344,(12, 112),1	346,(12, 83),5	351,(12, 106),4	362,(67, 121),10	382,(82, 121),10	408,(12, 71),15	456,(8, 37),72	528,(8, 100),13	541,(61, 121),10	551,(88, 121),10	561,(43, 121),10	581,(76, 121),10	601,(109, 121),10	651,(12, 40),164	815,(12, 102),99	914,(85, 121),10	924,(73, 121),10	934,(26, 121),10	944,(70, 121),10	984,(41, 121),10	1004,(52, 121),10	1024,(91, 121),10	1044,(20, 121),10	1054,(34, 121),10	1064,(47, 121),10	1074,(49, 121),10	1084,(58, 121),10	1104,(101, 121),10	1164,(30, 121),10	1184,(38, 121),10	1204,(55, 121),10	1224,(64, 121),10	1264,(45, 121),10	1324,(97, 121),10	1334,(105, 121),10	1374,(117, 121),10	
50,(3, 22),1	51,(3, 45),1	52,(3, 94),1	53,(3, 113),1	54,(3, 116),9	65,(3, 25),9	74,(3, 54),2	76,(3, 107),3	81,(39, 121),10	91,(7, 29),4	95,(7, 33),2	97,(3, 43),15	112,(7, 76),1	113,(3, 66),35	148,(3, 108),17	165,(118, 121),10	175,(46, 121),10	185,(77, 121),10	195,(7, 37),9	204,(7, 41),2	206,(7, 45),7	213,(7, 52),23	236,(7, 72),1	237,(7, 84),2	239,(7, 91),22	261,(7, 103),1	262,(11, 20),9	271,(11, 34),5	276,(11, 47),3	279,(11, 49),1	280,(11, 58),2	282,(11, 84),18	300,(11, 97),5	305,(11, 101),8	342,(7, 13),2	356,(7, 100),6	372,(95, 121),10	430,(24, 121),10	450,(86, 121),10	470,(74, 121),10	490,(98, 121),10	510,(110, 121),10	611,(65, 121),10	631,(28, 121),10	815,(44, 121),10	835,(16, 121),10	855,(80, 121),10	865,(53, 121),10	875,(59, 121),10	895,(50, 121),10	954,(19, 121),10	964,(36, 121),10	974,(32, 121),10	1124,(92, 121),10	1134,(56, 121),10	1144,(62, 121),10	1154,(106, 121),10	1174,(42, 121),10	1194,(68, 121),10	1214,(48, 121),10	1234,(114, 121),10	1284,(83, 121),10	1304,(89, 121),10	1354,(71, 121),10	1384,(102, 121),10	
49,(2, 17),1	50,(2, 27),3	53,(2, 36),1	54,(2, 65),4	58,(2, 77),1	59,(2, 82),1	60,(2, 95),5	65,(2, 117),15	80,(2, 120),1	81,(2, 74),18	99,(2, 98),4	103,(51, 121),10	113,(115, 121),10	123,(6, 85),3	126,(6, 109),1	129,(6, 42),4	133,(6, 23),4	137,(6, 31),5	142,(6, 50),1	143,(10, 120),1	145,(6, 101),14	159,(10, 26),15	174,(10, 70),2	195,(6, 35),105	300,(6, 112),9	309,(6, 120),3	324,(6, 56),11	335,(6, 62),11	346,(18, 121),10	359,(10, 68),3	363,(6, 89),37	400,(69, 121),10	410,(93, 121),10	420,(25, 121),10	440,(54, 121),10	460,(15, 121),10	480,(60, 121),10	500,(81, 121),10	510,(10, 71),16	526,(10, 117),34	571,(87, 121),10	591,(33, 121),10	621,(78, 121),10	641,(111, 121),10	825,(119, 121),10	845,(66, 121),10	885,(99, 121),10	994,(90, 121),10	1014,(72, 121),10	1034,(103, 121),10	1094,(84, 121),10	1114,(57, 121),10	1244,(21, 121),10	1254,(29, 121),10	1274,(63, 121),10	1294,(75, 121),10	1314,(96, 121),10	1344,(107, 121),10	1364,(37, 121),10	
1,(0, 2),16	17,(0, 3),16	33,(0, 4),16	49,(0, 6),16	65,(0, 7),16	81,(0, 8),16	97,(0, 10),16	113,(0, 11),16	129,(0, 12),16	145,(5, 19),17	162,(5, 29),3	165,(5, 32),13	178,(5, 37),1	179,(5, 42),141	320,(5, 57),2	322,(5, 92),2	324,(5, 105),12	336,(9, 29),1	337,(9, 30),19	356,(9, 38),1	357,(9, 42),2	359,(9, 45),3	362,(9, 48),1	363,(9, 55),5	368,(9, 64),34	402,(9, 102),5	407,(9, 114),1	408,(1, 21),10	418,(1, 29),9	427,(1, 45),4	431,(1, 63),1	432,(1, 75),1	433,(1, 83),4	437,(1, 89),10	447,(1, 96),1	448,(1, 97),1	449,(1, 105),1	450,(1, 107),6	
