648
# CPU
0,0,1	1,2,4	5,178,4	9,194,4	13,132,4	17,16,4	21,200,4	25,151,4	29,127,4	33,4,4	37,139,4	41,136,4	45,50,4	49,73,4	53,5,4	57,138,4	61,148,4	65,96,4	69,169,4	73,155,4	77,149,4	81,119,4	85,1,4	89,52,4	93,47,4	97,76,4	101,83,4	105,111,4	109,112,4	113,129,4	117,63,4	121,145,4	125,196,4	129,85,4	133,142,4	137,189,4	141,170,4	145,172,4	149,65,4	155,42,4	173,31,4	194,162,4	231,186,4	291,103,4	395,176,4	533,80,4	
4,8,4	8,147,4	12,91,4	16,192,4	20,95,4	24,116,4	28,20,4	32,105,4	36,71,4	40,102,4	44,154,4	48,46,4	52,9,4	56,184,4	60,175,4	64,21,4	68,90,4	72,118,4	76,62,4	80,168,4	84,165,4	88,114,4	92,159,4	96,150,4	100,18,4	104,29,4	108,188,4	112,130,4	116,179,4	120,28,4	124,137,4	128,174,4	132,93,4	136,77,4	140,167,4	144,173,4	153,79,4	165,41,4	180,199,4	195,198,4	207,55,4	255,26,4	356,43,4	
7,17,4	11,197,4	15,161,4	19,51,4	23,94,4	27,82,4	31,37,4	35,24,4	39,60,4	43,66,4	47,99,4	51,69,4	55,11,4	59,109,4	63,182,4	67,123,4	71,131,4	75,81,4	79,53,4	83,12,4	87,156,4	91,152,4	95,87,4	99,117,4	103,185,4	107,98,4	111,68,4	115,23,4	119,134,4	123,108,4	131,33,4	161,57,4	210,104,4	339,44,4	
13,13,4	17,164,4	21,61,4	25,40,4	29,10,4	33,45,4	37,97,4	41,70,4	45,171,4	49,124,4	53,58,4	57,6,4	61,135,4	65,75,4	69,39,4	73,113,4	77,84,4	81,3,4	85,22,4	89,144,4	93,125,4	97,180,4	101,100,4	105,107,4	109,25,4	113,193,4	117,122,4	121,72,4	125,128,4	129,106,4	134,48,4	143,133,4	152,30,4	170,34,4	221,126,4	242,160,4	647,201,1	
10,14,4	14,181,4	18,74,4	22,38,4	26,27,4	30,195,4	34,146,4	38,36,4	42,7,4	46,163,4	50,64,4	54,157,4	58,32,4	62,78,4	66,183,4	70,59,4	74,166,4	78,19,4	82,49,4	86,101,4	90,141,4	94,187,4	98,86,4	102,121,4	106,143,4	110,15,4	114,92,4	118,120,4	122,177,4	126,56,4	130,35,4	134,191,4	138,190,4	143,54,4	170,110,4	188,153,4	221,140,4	257,115,4	293,89,4	332,67,4	404,158,4	458,88,4	
# Incoming
36,(17, 145),3	42,(10, 85),3	45,(13, 170),6	51,(10, 172),3	65,(11, 189),6	72,(14, 172),3	82,(19, 196),3	88,(3, 142),3	91,(14, 65),21	112,(20, 176),3	143,(17, 42),12	155,(17, 31),18	173,(8, 162),21	210,(14, 186),21	255,(7, 103),36	332,(17, 176),30	362,(6, 176),33	395,(19, 80),138	
1,(0, 8),3	13,(0, 20),3	17,(13, 95),3	21,(16, 116),3	24,(17, 46),3	30,(0, 9),3	52,(0, 18),3	60,(5, 150),3	63,(7, 137),6	69,(14, 174),3	76,(4, 174),3	79,(4, 93),6	85,(16, 41),3	89,(1, 159),3	102,(11, 77),12	117,(15, 167),12	129,(7, 173),12	141,(15, 79),12	153,(19, 41),12	165,(19, 199),15	180,(10, 198),15	195,(1, 55),12	207,(10, 26),12	231,(7, 26),24	293,(16, 43),63	
4,(0, 17),3	20,(13, 33),3	33,(0, 11),3	37,(4, 69),3	49,(0, 12),3	52,(7, 23),6	58,(7, 108),3	64,(6, 53),3	67,(6, 68),6	73,(20, 108),9	82,(6, 108),3	85,(20, 33),3	95,(1, 23),6	101,(3, 134),9	114,(15, 134),3	119,(1, 33),12	134,(18, 57),12	152,(4, 57),6	180,(15, 104),30	221,(9, 44),27	291,(15, 44),48	
10,(0, 13),3	16,(0, 10),3	27,(17, 107),3	40,(0, 6),3	43,(197, 201),3	46,(0, 3),3	49,(161, 201),3	52,(51, 201),3	55,(94, 201),3	59,(11, 84),3	62,(11, 180),3	67,(20, 122),3	70,(2, 72),6	76,(181, 201),3	79,(74, 201),3	82,(147, 201),3	87,(12, 122),3	92,(1, 100),3	95,(9, 128),6	101,(178, 201),3	104,(18, 25),3	107,(18, 193),3	110,(1, 106),9	119,(9, 48),15	134,(2, 133),9	143,(16, 30),9	152,(9, 34),18	170,(91, 201),3	173,(82, 201),3	176,(37, 201),3	179,(24, 201),3	182,(60, 201),3	185,(66, 201),3	188,(194, 201),3	191,(132, 201),3	194,(9, 126),27	221,(2, 160),21	242,(200, 201),3	245,(151, 201),3	248,(192, 201),3	251,(95, 201),3	254,(116, 201),3	257,(127, 201),3	260,(105, 201),3	263,(71, 201),3	266,(139, 201),3	269,(102, 201),3	272,(136, 201),3	275,(154, 201),3	278,(50, 201),3	281,(46, 201),3	284,(99, 201),3	287,(69, 201),3	290,(184, 201),3	293,(109, 201),3	296,(175, 201),3	299,(182, 201),3	302,(21, 201),3	305,(123, 201),3	308,(90, 201),3	311,(131, 201),3	314,(118, 201),3	317,(62, 201),3	320,(168, 201),3	323,(165, 201),3	326,(114, 201),3	329,(159, 201),3	339,(38, 201),3	342,(27, 201),3	345,(195, 201),3	348,(146, 201),3	351,(36, 201),3	354,(163, 201),3	357,(73, 201),3	360,(64, 201),3	363,(157, 201),3	366,(138, 201),3	369,(32, 201),3	372,(148, 201),3	375,(78, 201),3	378,(96, 201),3	381,(183, 201),3	384,(169, 201),3	387,(59, 201),3	390,(155, 201),3	393,(81, 201),3	396,(149, 201),3	399,(53, 201),3	402,(156, 201),3	405,(152, 201),3	408,(87, 201),3	411,(150, 201),3	414,(117, 201),3	417,(185, 201),3	420,(29, 201),3	423,(98, 201),3	426,(188, 201),3	429,(68, 201),3	432,(130, 201),3	435,(23, 201),3	438,(179, 201),3	441,(134, 201),3	444,(28, 201),3	447,(108, 201),3	450,(137, 201),3	453,(174, 201),3	458,(119, 201),3	461,(52, 201),3	464,(47, 201),3	467,(76, 201),3	470,(83, 201),3	473,(111, 201),3	476,(112, 201),3	479,(129, 201),3	482,(63, 201),3	485,(145, 201),3	488,(196, 201),3	491,(85, 201),3	494,(33, 201),3	497,(93, 201),3	500,(142, 201),3	503,(77, 201),3	506,(189, 201),3	509,(167, 201),3	512,(170, 201),3	515,(173, 201),3	518,(172, 201),3	521,(65, 201),3	524,(79, 201),3	527,(42, 201),3	530,(57, 201),3	533,(166, 201),3	536,(49, 201),3	539,(101, 201),3	542,(141, 201),3	545,(187, 201),3	548,(86, 201),3	551,(121, 201),3	554,(143, 201),3	557,(92, 201),3	560,(120, 201),3	563,(177, 201),3	566,(56, 201),3	569,(35, 201),3	572,(191, 201),3	575,(190, 201),3	578,(54, 201),3	581,(41, 201),3	584,(110, 201),3	587,(31, 201),3	590,(199, 201),3	593,(153, 201),3	596,(162, 201),3	599,(198, 201),3	602,(55, 201),3	605,(104, 201),3	608,(140, 201),3	611,(186, 201),3	614,(26, 201),3	617,(115, 201),3	620,(103, 201),3	623,(89, 201),3	626,(67, 201),3	629,(44, 201),3	632,(43, 201),3	635,(176, 201),3	638,(158, 201),3	641,(88, 201),3	644,(80, 201),3	
7,(0, 14),3	24,(2, 36),3	27,(0, 7),3	30,(17, 183),3	33,(17, 143),3	36,(13, 56),6	43,(0, 19),3	57,(5, 78),3	61,(6, 59),3	64,(9, 166),3	67,(0, 15),3	70,(8, 191),3	73,(6, 191),9	85,(3, 121),3	90,(12, 35),12	110,(13, 190),12	122,(11, 54),21	143,(3, 88),3	158,(2, 110),12	170,(5, 153),18	188,(12, 140),33	221,(6, 115),36	257,(17, 89),27	284,(4, 89),9	293,(3, 67),24	317,(12, 67),15	332,(9, 158),72	404,(1, 88),54	
# Outgoing
1,(0, 8),3	4,(0, 17),3	7,(0, 14),3	10,(0, 13),3	13,(0, 20),3	16,(0, 10),3	21,(16, 116),3	24,(2, 36),3	27,(0, 7),3	30,(0, 9),3	33,(0, 11),3	37,(4, 69),3	40,(0, 6),3	43,(0, 19),3	46,(0, 3),3	49,(0, 12),3	52,(0, 18),3	57,(5, 78),3	60,(5, 150),3	67,(0, 15),3	70,(2, 72),6	76,(4, 174),3	79,(4, 93),6	85,(16, 41),3	89,(1, 159),3	92,(1, 100),3	95,(1, 23),6	101,(178, 201),3	110,(1, 106),9	119,(1, 33),12	134,(2, 133),9	143,(16, 30),9	152,(4, 57),6	158,(2, 110),12	170,(5, 153),18	188,(194, 201),3	191,(132, 201),3	195,(1, 55),12	221,(2, 160),21	242,(200, 201),3	245,(151, 201),3	257,(127, 201),3	266,(139, 201),3	272,(136, 201),3	278,(50, 201),3	284,(4, 89),9	293,(16, 43),63	357,(73, 201),3	366,(138, 201),3	372,(148, 201),3	378,(96, 201),3	384,(169, 201),3	390,(155, 201),3	396,(149, 201),3	404,(1, 88),54	458,(119, 201),3	461,(52, 201),3	464,(47, 201),3	467,(76, 201),3	470,(83, 201),3	473,(111, 201),3	476,(112, 201),3	479,(129, 201),3	482,(63, 201),3	485,(145, 201),3	488,(196, 201),3	491,(85, 201),3	500,(142, 201),3	506,(189, 201),3	512,(170, 201),3	518,(172, 201),3	521,(65, 201),3	527,(42, 201),3	587,(31, 201),3	596,(162, 201),3	611,(186, 201),3	620,(103, 201),3	635,(176, 201),3	644,(80, 201),3	
64,(9, 166),3	67,(20, 122),3	70,(8, 191),3	73,(20, 108),9	82,(147, 201),3	85,(20, 33),3	95,(9, 128),6	104,(18, 25),3	107,(18, 193),3	112,(20, 176),3	119,(9, 48),15	134,(18, 57),12	152,(9, 34),18	170,(91, 201),3	173,(8, 162),21	194,(9, 126),27	221,(9, 44),27	248,(192, 201),3	251,(95, 201),3	254,(116, 201),3	260,(105, 201),3	263,(71, 201),3	269,(102, 201),3	275,(154, 201),3	281,(46, 201),3	290,(184, 201),3	296,(175, 201),3	302,(21, 201),3	308,(90, 201),3	314,(118, 201),3	317,(62, 201),3	320,(168, 201),3	323,(165, 201),3	326,(114, 201),3	329,(159, 201),3	332,(9, 158),72	411,(150, 201),3	420,(29, 201),3	426,(188, 201),3	432,(130, 201),3	438,(179, 201),3	444,(28, 201),3	450,(137, 201),3	453,(174, 201),3	497,(93, 201),3	503,(77, 201),3	509,(167, 201),3	515,(173, 201),3	524,(79, 201),3	581,(41, 201),3	590,(199, 201),3	599,(198, 201),3	602,(55, 201),3	614,(26, 201),3	632,(43, 201),3	
24,(17, 46),3	27,(17, 107),3	30,(17, 183),3	33,(17, 143),3	36,(17, 145),3	43,(197, 201),3	49,(161, 201),3	52,(51, 201),3	55,(94, 201),3	59,(11, 84),3	62,(11, 180),3	65,(11, 189),6	87,(12, 122),3	90,(12, 35),12	102,(11, 77),12	122,(11, 54),21	143,(17, 42),12	155,(17, 31),18	173,(82, 201),3	176,(37, 201),3	179,(24, 201),3	182,(60, 201),3	185,(66, 201),3	188,(12, 140),33	257,(17, 89),27	284,(99, 201),3	287,(69, 201),3	293,(109, 201),3	299,(182, 201),3	305,(123, 201),3	311,(131, 201),3	317,(12, 67),15	332,(17, 176),30	393,(81, 201),3	399,(53, 201),3	402,(156, 201),3	405,(152, 201),3	408,(87, 201),3	414,(117, 201),3	417,(185, 201),3	423,(98, 201),3	429,(68, 201),3	435,(23, 201),3	441,(134, 201),3	447,(108, 201),3	494,(33, 201),3	530,(57, 201),3	605,(104, 201),3	629,(44, 201),3	
17,(13, 95),3	20,(13, 33),3	36,(13, 56),6	42,(10, 85),3	45,(13, 170),6	51,(10, 172),3	61,(6, 59),3	64,(6, 53),3	67,(6, 68),6	73,(6, 191),9	82,(6, 108),3	85,(3, 121),3	88,(3, 142),3	101,(3, 134),9	110,(13, 190),12	143,(3, 88),3	180,(10, 198),15	207,(10, 26),12	221,(6, 115),36	293,(3, 67),24	362,(6, 176),33	
52,(7, 23),6	58,(7, 108),3	63,(7, 137),6	69,(14, 174),3	72,(14, 172),3	76,(181, 201),3	79,(74, 201),3	82,(19, 196),3	91,(14, 65),21	114,(15, 134),3	117,(15, 167),12	129,(7, 173),12	141,(15, 79),12	153,(19, 41),12	165,(19, 199),15	180,(15, 104),30	210,(14, 186),21	231,(7, 26),24	255,(7, 103),36	291,(15, 44),48	339,(38, 201),3	342,(27, 201),3	345,(195, 201),3	348,(146, 201),3	351,(36, 201),3	354,(163, 201),3	360,(64, 201),3	363,(157, 201),3	369,(32, 201),3	375,(78, 201),3	381,(183, 201),3	387,(59, 201),3	395,(19, 80),138	533,(166, 201),3	536,(49, 201),3	539,(101, 201),3	542,(141, 201),3	545,(187, 201),3	548,(86, 201),3	551,(121, 201),3	554,(143, 201),3	557,(92, 201),3	560,(120, 201),3	563,(177, 201),3	566,(56, 201),3	569,(35, 201),3	572,(191, 201),3	575,(190, 201),3	578,(54, 201),3	584,(110, 201),3	593,(153, 201),3	608,(140, 201),3	617,(115, 201),3	623,(89, 201),3	626,(67, 201),3	638,(158, 201),3	641,(88, 201),3	
