894
# CPU
123,48,13	136,38,13	149,78,13	162,68,13	175,28,13	188,18,13	264,58,13	
113,37,13	131,47,13	149,17,13	162,57,13	175,27,13	244,77,13	272,67,13	
43,8,13	56,36,13	69,16,13	82,76,13	95,26,13	132,56,13	210,46,13	271,66,13	
37,7,13	50,25,13	63,45,13	76,65,13	119,15,13	132,55,13	256,35,13	269,75,13	
31,6,13	44,44,13	57,64,13	115,14,13	133,74,13	204,24,13	263,54,13	563,34,13	
25,5,13	38,13,13	51,43,13	64,63,13	202,23,13	215,53,13	228,33,13	241,73,13	
19,4,13	35,62,13	85,12,13	99,32,13	112,72,13	125,52,13	211,42,13	258,22,13	
13,3,13	45,11,13	75,51,13	122,21,13	135,71,13	167,31,13	180,61,13	206,41,13	
7,2,13	20,60,13	33,10,13	57,30,13	70,70,13	83,40,13	120,20,13	133,80,13	256,50,13	
0,0,1	1,1,13	32,29,13	50,59,13	63,79,13	76,39,13	100,9,13	153,19,13	182,69,13	255,49,13	893,81,1	
# Incoming
113,(1, 48),10	123,(2, 38),1	124,(3, 78),6	130,(7, 78),1	131,(5, 68),4	135,(7, 58),4	139,(8, 28),1	149,(6, 18),1	263,(4, 58),1	
86,(1, 37),27	113,(2, 67),7	120,(5, 27),4	124,(5, 47),7	131,(6, 17),18	149,(7, 57),1	153,(6, 27),13	237,(1, 77),7	271,(4, 67),1	
37,(0, 8),6	43,(4, 16),14	59,(2, 76),3	75,(3, 56),3	85,(1, 26),1	131,(1, 56),1	206,(4, 46),4	264,(4, 66),7	
31,(0, 7),6	37,(3, 15),1	38,(5, 25),11	54,(5, 65),2	115,(8, 15),4	124,(1, 55),7	133,(1, 75),104	237,(8, 35),19	256,(8, 75),7	
25,(0, 6),6	50,(5, 64),4	100,(8, 14),15	123,(1, 54),1	132,(1, 74),1	202,(4, 24),2	256,(4, 54),7	263,(8, 34),300	
19,(0, 5),6	25,(2, 13),1	32,(2, 43),2	35,(2, 63),6	50,(7, 33),1	57,(4, 23),145	202,(7, 53),11	213,(8, 33),5	218,(8, 73),2	
13,(0, 4),6	34,(2, 62),1	45,(1, 12),40	85,(3, 32),14	99,(3, 72),4	103,(5, 52),12	124,(2, 42),87	211,(3, 22),47	
7,(0, 3),6	43,(1, 11),2	45,(2, 31),14	72,(7, 51),3	120,(8, 21),2	122,(8, 71),1	166,(6, 31),1	167,(6, 61),10	204,(4, 41),2	
1,(0, 2),6	26,(3, 10),7	33,(3, 50),1	38,(3, 30),19	57,(5, 70),1	58,(7, 40),14	119,(8, 20),1	123,(8, 80),10	255,(4, 50),1	
26,(2, 29),6	49,(5, 59),1	51,(7, 79),3	57,(3, 39),18	75,(60, 81),11	86,(10, 81),11	97,(8, 9),3	103,(11, 81),11	114,(25, 81),11	135,(13, 81),11	150,(6, 19),3	153,(8, 69),29	182,(44, 81),11	193,(43, 81),11	210,(4, 49),45	255,(30, 81),11	272,(62, 81),11	283,(64, 81),11	294,(45, 81),11	305,(63, 81),11	316,(70, 81),11	327,(51, 81),11	338,(65, 81),11	349,(40, 81),11	360,(12, 81),11	371,(32, 81),11	382,(72, 81),11	393,(37, 81),11	404,(14, 81),11	415,(15, 81),11	426,(20, 81),11	437,(21, 81),11	448,(48, 81),11	459,(52, 81),11	470,(47, 81),11	481,(55, 81),11	492,(80, 81),11	503,(74, 81),11	514,(71, 81),11	525,(38, 81),11	536,(17, 81),11	547,(78, 81),11	563,(36, 81),11	574,(16, 81),11	585,(76, 81),11	596,(26, 81),11	607,(56, 81),11	618,(68, 81),11	629,(57, 81),11	640,(31, 81),11	651,(27, 81),11	662,(28, 81),11	673,(61, 81),11	684,(18, 81),11	695,(23, 81),11	706,(24, 81),11	717,(41, 81),11	728,(46, 81),11	739,(42, 81),11	750,(53, 81),11	761,(33, 81),11	772,(73, 81),11	783,(77, 81),11	794,(35, 81),11	805,(50, 81),11	816,(22, 81),11	827,(54, 81),11	838,(58, 81),11	849,(75, 81),11	860,(66, 81),11	871,(67, 81),11	882,(34, 81),11	
# Outgoing
448,(48, 81),11	525,(38, 81),11	547,(78, 81),11	618,(68, 81),11	662,(28, 81),11	684,(18, 81),11	838,(58, 81),11	
393,(37, 81),11	470,(47, 81),11	536,(17, 81),11	629,(57, 81),11	651,(27, 81),11	783,(77, 81),11	871,(67, 81),11	
97,(8, 9),3	100,(8, 14),15	115,(8, 15),4	119,(8, 20),1	120,(8, 21),2	122,(8, 71),1	123,(8, 80),10	139,(8, 28),1	153,(8, 69),29	213,(8, 33),5	218,(8, 73),2	237,(8, 35),19	256,(8, 75),7	263,(8, 34),300	563,(36, 81),11	574,(16, 81),11	585,(76, 81),11	596,(26, 81),11	607,(56, 81),11	728,(46, 81),11	860,(66, 81),11	
50,(7, 33),1	51,(7, 79),3	58,(7, 40),14	72,(7, 51),3	114,(25, 81),11	130,(7, 78),1	135,(7, 58),4	149,(7, 57),1	202,(7, 53),11	294,(45, 81),11	338,(65, 81),11	415,(15, 81),11	481,(55, 81),11	794,(35, 81),11	849,(75, 81),11	
131,(6, 17),18	149,(6, 18),1	150,(6, 19),3	153,(6, 27),13	166,(6, 31),1	167,(6, 61),10	182,(44, 81),11	283,(64, 81),11	404,(14, 81),11	503,(74, 81),11	706,(24, 81),11	827,(54, 81),11	882,(34, 81),11	
38,(5, 25),11	49,(5, 59),1	50,(5, 64),4	54,(5, 65),2	57,(5, 70),1	103,(5, 52),12	120,(5, 27),4	124,(5, 47),7	131,(5, 68),4	135,(13, 81),11	193,(43, 81),11	305,(63, 81),11	695,(23, 81),11	750,(53, 81),11	761,(33, 81),11	772,(73, 81),11	
43,(4, 16),14	57,(4, 23),145	202,(4, 24),2	204,(4, 41),2	206,(4, 46),4	210,(4, 49),45	255,(4, 50),1	256,(4, 54),7	263,(4, 58),1	264,(4, 66),7	271,(4, 67),1	272,(62, 81),11	360,(12, 81),11	371,(32, 81),11	382,(72, 81),11	459,(52, 81),11	739,(42, 81),11	816,(22, 81),11	
26,(3, 10),7	33,(3, 50),1	37,(3, 15),1	38,(3, 30),19	57,(3, 39),18	75,(3, 56),3	85,(3, 32),14	99,(3, 72),4	103,(11, 81),11	124,(3, 78),6	211,(3, 22),47	327,(51, 81),11	437,(21, 81),11	514,(71, 81),11	640,(31, 81),11	673,(61, 81),11	717,(41, 81),11	
25,(2, 13),1	26,(2, 29),6	32,(2, 43),2	34,(2, 62),1	35,(2, 63),6	45,(2, 31),14	59,(2, 76),3	75,(60, 81),11	86,(10, 81),11	113,(2, 67),7	123,(2, 38),1	124,(2, 42),87	255,(30, 81),11	316,(70, 81),11	349,(40, 81),11	426,(20, 81),11	492,(80, 81),11	805,(50, 81),11	
1,(0, 2),6	7,(0, 3),6	13,(0, 4),6	19,(0, 5),6	25,(0, 6),6	31,(0, 7),6	37,(0, 8),6	43,(1, 11),2	45,(1, 12),40	85,(1, 26),1	86,(1, 37),27	113,(1, 48),10	123,(1, 54),1	124,(1, 55),7	131,(1, 56),1	132,(1, 74),1	133,(1, 75),104	237,(1, 77),7	
