4508
# CPU
913,20,8	921,7,8	1229,32,8	1377,18,8	1483,19,8	1529,29,8	1545,5,8	2023,13,8	2109,8,8	2127,10,8	2155,15,8	2237,17,8	2351,23,8	2369,28,8	2399,30,8	2419,39,8	2455,40,8	4507,41,1	
5,3,8	13,6,8	21,25,8	99,11,8	1143,22,8	1229,9,8	1485,21,8	1531,31,8	1539,34,8	1547,35,8	
3,2,8	11,36,8	105,16,8	955,26,8	1127,14,8	1157,37,8	1167,38,8	
0,0,1	1,4,8	9,1,8	17,33,8	1251,12,8	1259,24,8	1493,27,8	
# Incoming
9,(4, 5),2	13,(4, 7),48	61,(4, 8),36	97,(3, 5),2	99,(4, 13),50	149,(4, 15),14	163,(4, 18),36	199,(4, 19),694	893,(4, 20),20	913,(3, 7),2	915,(3, 29),10	925,(3, 40),2	935,(4, 23),18	955,(4, 28),12	967,(4, 29),22	989,(4, 32),42	1043,(4, 39),62	1105,(4, 40),2	1107,(2, 5),96	1203,(2, 8),18	1221,(1, 18),2	1223,(1, 32),6	1229,(2, 10),20	1251,(2, 15),74	1325,(2, 17),30	1355,(2, 18),22	1377,(2, 19),106	1485,(2, 23),6	1493,(2, 28),32	1525,(2, 29),4	1529,(1, 5),16	1545,(2, 40),4	1549,(3, 8),438	1987,(3, 13),36	2023,(3, 30),42	2065,(1, 8),44	2109,(1, 10),18	2127,(1, 15),28	2155,(1, 17),82	2237,(1, 23),114	2351,(1, 28),18	2369,(1, 30),30	2399,(1, 39),20	2419,(1, 40),36	2455,(36, 41),108	2563,(6, 41),108	2671,(33, 41),108	2779,(25, 41),108	2887,(11, 41),108	2995,(16, 41),108	3103,(26, 41),108	3211,(14, 41),108	3319,(22, 41),108	3427,(37, 41),108	3535,(38, 41),108	3643,(9, 41),108	3751,(12, 41),108	3859,(24, 41),108	3967,(21, 41),108	4075,(27, 41),108	4183,(31, 41),108	4291,(34, 41),108	4399,(35, 41),108	
3,(0, 3),2	11,(4, 6),2	97,(4, 11),2	913,(4, 21),12	925,(4, 22),10	1107,(1, 9),10	1127,(1, 22),16	1143,(1, 31),6	1149,(1, 34),2	1151,(1, 35),4	1221,(2, 9),8	1483,(2, 21),2	1529,(2, 31),2	1531,(2, 34),4	1535,(2, 35),10	
1,(0, 2),2	99,(3, 14),2	101,(3, 16),4	105,(3, 37),14	953,(4, 26),2	1031,(4, 37),12	1117,(1, 14),10	1155,(1, 37),2	1157,(1, 38),10	
1249,(2, 12),2	1251,(3, 24),2	1253,(3, 27),4	1491,(2, 27),2	
# Outgoing

97,(3, 5),2	99,(3, 14),2	101,(3, 16),4	105,(3, 37),14	913,(3, 7),2	915,(3, 29),10	925,(3, 40),2	1251,(3, 24),2	1253,(3, 27),4	1549,(3, 8),438	1987,(3, 13),36	2023,(3, 30),42	2563,(6, 41),108	2779,(25, 41),108	2887,(11, 41),108	3319,(22, 41),108	3643,(9, 41),108	3967,(21, 41),108	4183,(31, 41),108	4291,(34, 41),108	4399,(35, 41),108	
1107,(2, 5),96	1203,(2, 8),18	1221,(2, 9),8	1229,(2, 10),20	1249,(2, 12),2	1251,(2, 15),74	1325,(2, 17),30	1355,(2, 18),22	1377,(2, 19),106	1483,(2, 21),2	1485,(2, 23),6	1491,(2, 27),2	1493,(2, 28),32	1525,(2, 29),4	1529,(2, 31),2	1531,(2, 34),4	1535,(2, 35),10	1545,(2, 40),4	2455,(36, 41),108	2995,(16, 41),108	3103,(26, 41),108	3211,(14, 41),108	3427,(37, 41),108	3535,(38, 41),108	
1,(0, 2),2	3,(0, 3),2	9,(4, 5),2	11,(4, 6),2	13,(4, 7),48	61,(4, 8),36	97,(4, 11),2	99,(4, 13),50	149,(4, 15),14	163,(4, 18),36	199,(4, 19),694	893,(4, 20),20	913,(4, 21),12	925,(4, 22),10	935,(4, 23),18	953,(4, 26),2	955,(4, 28),12	967,(4, 29),22	989,(4, 32),42	1031,(4, 37),12	1043,(4, 39),62	1105,(4, 40),2	1107,(1, 9),10	1117,(1, 14),10	1127,(1, 22),16	1143,(1, 31),6	1149,(1, 34),2	1151,(1, 35),4	1155,(1, 37),2	1157,(1, 38),10	1221,(1, 18),2	1223,(1, 32),6	1529,(1, 5),16	2065,(1, 8),44	2109,(1, 10),18	2127,(1, 15),28	2155,(1, 17),82	2237,(1, 23),114	2351,(1, 28),18	2369,(1, 30),30	2399,(1, 39),20	2419,(1, 40),36	2671,(33, 41),108	3751,(12, 41),108	3859,(24, 41),108	4075,(27, 41),108	
