209
# CPU
121,13,3	124,11,3	163,16,3	202,19,3	
136,14,3	157,15,3	163,10,3	175,12,3	
88,8,3	112,9,3	115,7,3	199,17,3	
46,2,3	82,6,3	
0,0,1	1,1,3	4,4,3	7,18,3	10,20,3	52,3,3	97,5,3	208,21,1	
# Incoming
112,(1, 13),9	121,(2, 11),3	157,(1, 16),6	199,(1, 19),3	
121,(1, 14),15	136,(1, 15),21	157,(2, 10),6	163,(2, 12),12	
82,(1, 8),6	88,(1, 9),24	112,(2, 7),3	163,(1, 17),36	
1,(0, 2),45	46,(1, 6),36	
49,(2, 3),3	52,(2, 5),45	97,(6, 21),3	100,(8, 21),3	115,(9, 21),3	118,(7, 21),3	124,(13, 21),3	127,(11, 21),3	139,(14, 21),3	160,(15, 21),3	166,(10, 21),3	169,(16, 21),3	178,(12, 21),3	202,(17, 21),3	205,(19, 21),3	
# Outgoing
124,(13, 21),3	127,(11, 21),3	169,(16, 21),3	205,(19, 21),3	
139,(14, 21),3	160,(15, 21),3	166,(10, 21),3	178,(12, 21),3	
100,(8, 21),3	115,(9, 21),3	118,(7, 21),3	202,(17, 21),3	
49,(2, 3),3	52,(2, 5),45	97,(6, 21),3	112,(2, 7),3	121,(2, 11),3	157,(2, 10),6	163,(2, 12),12	
1,(0, 2),45	46,(1, 6),36	82,(1, 8),6	88,(1, 9),24	112,(1, 13),9	121,(1, 14),15	136,(1, 15),21	157,(1, 16),6	163,(1, 17),36	199,(1, 19),3	
