2256
# CPU
5,3,10	15,6,10	25,9,10	35,12,10	45,22,10	55,15,10	65,87,10	75,110,10	85,25,10	95,31,10	105,53,10	115,77,10	125,118,10	135,69,10	145,81,10	155,28,10	165,37,10	175,57,10	185,55,10	195,71,10	205,83,10	215,16,10	225,46,10	235,112,10	245,49,10	255,75,10	265,89,10	275,106,10	285,79,10	295,85,10	305,98,10	315,108,10	325,116,10	335,104,10	345,120,10	355,59,10	365,63,10	375,73,10	385,96,10	395,100,10	405,102,10	415,114,10	425,35,10	435,40,10	445,43,10	455,51,10	465,65,10	475,19,10	485,61,10	495,67,10	505,91,10	515,94,10	
3,2,10	13,5,10	23,8,10	33,117,10	43,38,10	53,58,10	63,11,10	73,18,10	83,21,10	93,62,10	103,115,10	113,119,10	123,76,10	133,101,10	143,113,10	153,86,10	163,41,10	173,44,10	183,24,10	193,52,10	203,56,10	213,95,10	223,105,10	233,50,10	243,64,10	253,84,10	263,93,10	603,66,10	619,107,10	629,54,10	646,60,10	656,68,10	666,74,10	677,14,10	687,90,10	697,103,10	707,30,10	717,36,10	727,47,10	737,99,10	754,27,10	790,33,10	800,70,10	810,72,10	820,78,10	830,80,10	840,97,10	896,109,10	906,111,10	916,82,10	926,88,10	
0,0,1	1,7,10	11,1,10	21,10,10	31,4,10	41,92,10	51,39,10	61,20,10	71,29,10	110,45,10	120,26,10	154,17,10	170,13,10	180,42,10	628,23,10	653,32,10	979,34,10	1325,48,10	2255,121,1	
# Incoming
3,(0, 3),2	7,(0, 6),2	11,(0, 9),2	15,(0, 12),2	22,(7, 22),2	24,(7, 25),1	74,(7, 37),5	84,(7, 57),3	110,(2, 55),1	111,(2, 71),1	112,(2, 83),2	114,(5, 16),1	116,(7, 104),2	118,(2, 46),10	128,(2, 112),19	147,(1, 49),13	160,(1, 75),13	173,(1, 89),1	174,(1, 106),2	176,(5, 79),13	189,(5, 85),11	200,(5, 98),3	203,(5, 100),22	225,(5, 104),1	226,(5, 108),5	231,(5, 116),1	232,(10, 104),2	234,(10, 120),1	235,(8, 19),1	236,(8, 40),17	253,(8, 59),3	256,(8, 63),1	257,(8, 73),4	261,(8, 96),5	266,(8, 100),3	269,(8, 102),1	270,(8, 114),74	344,(4, 35),2	346,(4, 40),2	348,(4, 43),6	354,(4, 51),2	356,(4, 65),5	374,(11, 19),1	375,(11, 61),5	380,(11, 67),1	381,(11, 91),2	383,(11, 94),3	
1,(0, 2),2	5,(0, 5),2	9,(0, 8),2	13,(0, 11),2	17,(7, 18),3	20,(7, 21),2	25,(7, 27),49	74,(3, 24),4	78,(3, 52),1	79,(7, 56),5	84,(3, 95),1	85,(3, 105),1	86,(6, 50),1	87,(7, 64),5	92,(7, 84),7	99,(7, 93),17	118,(7, 107),16	134,(3, 30),451	585,(3, 66),18	603,(3, 80),13	616,(3, 107),3	619,(1, 54),4	623,(1, 60),23	646,(1, 68),1	647,(1, 74),3	650,(1, 90),4	654,(6, 14),23	677,(6, 90),1	678,(6, 103),18	696,(10, 30),11	707,(10, 33),1	708,(10, 36),2	710,(10, 47),1	711,(10, 72),10	721,(10, 99),16	737,(9, 27),17	754,(9, 33),36	790,(9, 70),1	791,(9, 72),5	796,(9, 78),13	809,(9, 80),20	829,(9, 97),1	830,(9, 109),66	896,(9, 111),6	902,(4, 82),8	910,(4, 88),4	
13,(2, 23),52	65,(2, 45),45	110,(6, 34),3	115,(5, 26),1	116,(6, 17),11	147,(8, 17),7	154,(117, 121),15	169,(11, 13),1	170,(11, 42),4	344,(38, 121),15	359,(58, 121),15	386,(18, 121),15	401,(21, 121),15	416,(62, 121),15	431,(115, 121),15	446,(119, 121),15	461,(76, 121),15	476,(101, 121),15	491,(113, 121),15	506,(86, 121),15	521,(41, 121),15	536,(44, 121),15	551,(24, 121),15	566,(52, 121),15	581,(56, 121),15	596,(95, 121),15	619,(6, 23),9	628,(12, 32),25	653,(105, 121),15	668,(50, 121),15	696,(22, 121),15	711,(15, 121),15	726,(64, 121),15	741,(84, 121),15	756,(93, 121),15	771,(66, 121),15	786,(107, 121),15	801,(54, 121),15	816,(60, 121),15	831,(68, 121),15	846,(74, 121),15	861,(14, 121),15	876,(90, 121),15	902,(12, 34),77	979,(11, 48),346	1325,(87, 121),15	1340,(110, 121),15	1355,(25, 121),15	1370,(31, 121),15	1385,(53, 121),15	1400,(77, 121),15	1415,(118, 121),15	1430,(69, 121),15	1445,(81, 121),15	1460,(28, 121),15	1475,(37, 121),15	1490,(57, 121),15	1505,(55, 121),15	1520,(71, 121),15	1535,(83, 121),15	1550,(16, 121),15	1565,(46, 121),15	1580,(112, 121),15	1595,(49, 121),15	1610,(75, 121),15	1625,(89, 121),15	1640,(106, 121),15	1655,(79, 121),15	1670,(85, 121),15	1685,(98, 121),15	1700,(108, 121),15	1715,(116, 121),15	1730,(104, 121),15	1745,(120, 121),15	1760,(59, 121),15	1775,(63, 121),15	1790,(73, 121),15	1805,(96, 121),15	1820,(100, 121),15	1835,(102, 121),15	1850,(114, 121),15	1865,(35, 121),15	1880,(40, 121),15	1895,(43, 121),15	1910,(51, 121),15	1925,(65, 121),15	1940,(19, 121),15	1955,(61, 121),15	1970,(67, 121),15	1985,(91, 121),15	2000,(94, 121),15	2015,(103, 121),15	2030,(30, 121),15	2045,(36, 121),15	2060,(47, 121),15	2075,(99, 121),15	2090,(27, 121),15	2105,(33, 121),15	2120,(70, 121),15	2135,(72, 121),15	2150,(78, 121),15	2165,(80, 121),15	2180,(97, 121),15	2195,(109, 121),15	2210,(111, 121),15	2225,(82, 121),15	2240,(88, 121),15	
# Outgoing
74,(3, 24),4	78,(3, 52),1	84,(3, 95),1	85,(3, 105),1	86,(6, 50),1	110,(6, 34),3	116,(6, 17),11	134,(3, 30),451	585,(3, 66),18	603,(3, 80),13	616,(3, 107),3	619,(6, 23),9	628,(12, 32),25	654,(6, 14),23	677,(6, 90),1	678,(6, 103),18	696,(22, 121),15	711,(15, 121),15	737,(9, 27),17	754,(9, 33),36	790,(9, 70),1	791,(9, 72),5	796,(9, 78),13	809,(9, 80),20	829,(9, 97),1	830,(9, 109),66	896,(9, 111),6	902,(12, 34),77	1325,(87, 121),15	1340,(110, 121),15	1355,(25, 121),15	1370,(31, 121),15	1385,(53, 121),15	1400,(77, 121),15	1415,(118, 121),15	1430,(69, 121),15	1445,(81, 121),15	1460,(28, 121),15	1475,(37, 121),15	1490,(57, 121),15	1505,(55, 121),15	1520,(71, 121),15	1535,(83, 121),15	1550,(16, 121),15	1565,(46, 121),15	1580,(112, 121),15	1595,(49, 121),15	1610,(75, 121),15	1625,(89, 121),15	1640,(106, 121),15	1655,(79, 121),15	1670,(85, 121),15	1685,(98, 121),15	1700,(108, 121),15	1715,(116, 121),15	1730,(104, 121),15	1745,(120, 121),15	1760,(59, 121),15	1775,(63, 121),15	1790,(73, 121),15	1805,(96, 121),15	1820,(100, 121),15	1835,(102, 121),15	1850,(114, 121),15	1865,(35, 121),15	1880,(40, 121),15	1895,(43, 121),15	1910,(51, 121),15	1925,(65, 121),15	1940,(19, 121),15	1955,(61, 121),15	1970,(67, 121),15	1985,(91, 121),15	2000,(94, 121),15	
13,(2, 23),52	65,(2, 45),45	110,(2, 55),1	111,(2, 71),1	112,(2, 83),2	114,(5, 16),1	115,(5, 26),1	118,(2, 46),10	128,(2, 112),19	147,(8, 17),7	154,(117, 121),15	169,(11, 13),1	170,(11, 42),4	176,(5, 79),13	189,(5, 85),11	200,(5, 98),3	203,(5, 100),22	225,(5, 104),1	226,(5, 108),5	231,(5, 116),1	235,(8, 19),1	236,(8, 40),17	253,(8, 59),3	256,(8, 63),1	257,(8, 73),4	261,(8, 96),5	266,(8, 100),3	269,(8, 102),1	270,(8, 114),74	344,(38, 121),15	359,(58, 121),15	374,(11, 19),1	375,(11, 61),5	380,(11, 67),1	381,(11, 91),2	383,(11, 94),3	386,(18, 121),15	401,(21, 121),15	416,(62, 121),15	431,(115, 121),15	446,(119, 121),15	461,(76, 121),15	476,(101, 121),15	491,(113, 121),15	506,(86, 121),15	521,(41, 121),15	536,(44, 121),15	551,(24, 121),15	566,(52, 121),15	581,(56, 121),15	596,(95, 121),15	653,(105, 121),15	668,(50, 121),15	726,(64, 121),15	741,(84, 121),15	756,(93, 121),15	771,(66, 121),15	786,(107, 121),15	801,(54, 121),15	816,(60, 121),15	831,(68, 121),15	846,(74, 121),15	861,(14, 121),15	876,(90, 121),15	979,(11, 48),346	2015,(103, 121),15	2030,(30, 121),15	2045,(36, 121),15	2060,(47, 121),15	2075,(99, 121),15	2090,(27, 121),15	2105,(33, 121),15	2120,(70, 121),15	2135,(72, 121),15	2150,(78, 121),15	2165,(80, 121),15	2180,(97, 121),15	2195,(109, 121),15	2210,(111, 121),15	2225,(82, 121),15	2240,(88, 121),15	
1,(0, 2),2	3,(0, 3),2	5,(0, 5),2	7,(0, 6),2	9,(0, 8),2	11,(0, 9),2	13,(0, 11),2	15,(0, 12),2	17,(7, 18),3	20,(7, 21),2	22,(7, 22),2	24,(7, 25),1	25,(7, 27),49	74,(7, 37),5	79,(7, 56),5	84,(7, 57),3	87,(7, 64),5	92,(7, 84),7	99,(7, 93),17	116,(7, 104),2	118,(7, 107),16	147,(1, 49),13	160,(1, 75),13	173,(1, 89),1	174,(1, 106),2	232,(10, 104),2	234,(10, 120),1	344,(4, 35),2	346,(4, 40),2	348,(4, 43),6	354,(4, 51),2	356,(4, 65),5	619,(1, 54),4	623,(1, 60),23	646,(1, 68),1	647,(1, 74),3	650,(1, 90),4	696,(10, 30),11	707,(10, 33),1	708,(10, 36),2	710,(10, 47),1	711,(10, 72),10	721,(10, 99),16	902,(4, 82),8	910,(4, 88),4	
