898
# CPU
0,0,1	1,8,1	2,126,1	3,20,1	4,61,1	5,3,1	6,166,1	7,26,1	8,155,1	9,18,1	10,117,1	11,13,1	12,149,1	13,47,1	14,4,1	15,173,1	16,178,1	17,183,1	18,15,1	19,151,1	20,19,1	21,167,1	22,67,1	23,34,1	24,176,1	25,14,1	26,145,1	27,116,1	28,56,1	29,7,1	30,21,1	31,40,1	32,50,1	33,66,1	34,188,1	35,97,1	36,111,1	37,16,1	38,33,1	39,98,1	40,65,1	41,11,1	42,118,1	43,170,1	44,81,1	45,75,1	46,138,1	47,52,1	48,82,1	49,10,1	50,74,1	51,59,1	52,133,1	53,86,1	54,79,1	55,184,1	56,87,1	57,5,1	58,121,1	59,158,1	60,31,1	61,156,1	62,41,1	63,113,1	64,107,1	65,104,1	66,175,1	67,88,1	68,9,1	69,125,1	70,84,1	71,169,1	72,123,1	73,142,1	74,128,1	75,154,1	76,36,1	77,159,1	78,78,1	79,48,1	80,153,1	81,93,1	82,191,1	83,51,1	84,108,1	85,28,1	86,115,1	87,129,1	88,100,1	89,17,1	90,122,1	91,192,1	92,131,1	93,76,1	94,109,1	95,137,1	96,99,1	97,152,1	98,112,1	99,186,1	100,146,1	101,194,1	102,172,1	103,60,1	104,193,1	105,195,1	106,185,1	107,64,1	108,198,1	109,164,1	110,62,1	111,70,1	112,69,1	113,6,1	114,80,1	115,101,1	116,163,1	117,140,1	118,102,1	119,38,1	120,91,1	121,197,1	122,77,1	123,196,1	124,143,1	125,168,1	126,68,1	127,114,1	128,72,1	129,179,1	130,24,1	131,199,1	132,171,1	133,181,1	134,44,1	135,92,1	136,180,1	137,30,1	138,63,1	139,95,1	140,147,1	141,130,1	142,120,1	143,141,1	144,71,1	146,150,1	149,96,1	152,127,1	155,106,1	158,42,1	161,110,1	165,39,1	170,35,1	175,119,1	180,54,1	186,189,1	192,53,1	200,177,1	209,22,1	218,132,1	228,29,1	238,136,1	250,182,1	262,73,1	274,190,1	287,144,1	302,23,1	316,174,1	340,94,1	364,25,1	403,85,1	443,105,1	494,157,1	555,46,1	618,148,1	710,45,1	896,55,1	897,201,1	
52,12,1	53,37,1	54,43,1	96,103,1	102,160,1	
12,1,1	13,90,1	16,27,1	27,2,1	28,32,1	30,162,1	35,49,1	41,57,1	60,161,1	66,124,1	73,187,1	78,83,1	86,135,1	91,89,1	109,200,1	115,134,1	116,58,1	119,165,1	126,139,1	
# Incoming
14,(90, 201),5	19,(27, 201),5	24,(1, 181),1	25,(1, 30),1	26,(1, 147),2	28,(2, 199),1	29,(32, 201),5	34,(162, 201),5	39,(49, 201),5	44,(57, 201),5	49,(2, 44),1	50,(2, 180),1	51,(2, 42),1	53,(1, 110),1	54,(37, 201),5	59,(43, 201),5	64,(161, 201),5	69,(124, 201),5	74,(187, 201),5	79,(83, 201),5	84,(12, 171),1	85,(12, 92),1	86,(12, 63),1	87,(135, 201),5	92,(89, 201),5	97,(103, 201),5	102,(1, 177),1	103,(160, 201),5	108,(12, 95),2	110,(200, 201),5	115,(2, 174),1	116,(134, 201),5	121,(58, 201),5	126,(165, 201),5	131,(139, 201),5	136,(1, 130),2	138,(2, 120),2	140,(2, 141),2	142,(1, 71),2	144,(1, 150),2	146,(12, 96),3	149,(12, 127),3	152,(1, 106),3	155,(12, 42),3	158,(2, 110),3	161,(12, 39),4	165,(1, 35),5	170,(1, 119),5	175,(12, 54),5	180,(2, 189),6	186,(1, 53),6	192,(12, 177),8	200,(12, 22),9	209,(1, 132),9	218,(2, 29),4	222,(12, 29),6	228,(1, 136),7	235,(2, 136),3	238,(1, 182),12	250,(12, 73),12	262,(12, 190),12	274,(2, 144),13	287,(12, 23),15	302,(1, 174),14	316,(2, 94),24	340,(12, 25),24	364,(1, 85),39	403,(1, 105),20	423,(2, 105),1	424,(12, 105),19	443,(12, 157),51	494,(2, 46),13	507,(12, 46),48	555,(12, 148),63	618,(2, 45),92	710,(12, 55),186	
41,(0, 12),11	52,(2, 37),1	53,(8, 43),1	86,(20, 160),2	88,(10, 160),1	91,(17, 103),5	96,(15, 160),6	
1,(0, 1),11	12,(8, 27),4	16,(0, 2),11	27,(13, 162),3	30,(8, 49),1	31,(14, 49),4	35,(7, 57),6	52,(8, 58),1	54,(10, 161),6	60,(19, 124),3	63,(5, 124),3	66,(3, 187),3	69,(5, 187),4	73,(9, 83),5	78,(14, 135),5	83,(16, 135),2	85,(9, 135),1	89,(9, 165),1	90,(17, 89),1	102,(14, 200),6	108,(17, 200),1	109,(7, 58),2	111,(14, 139),1	112,(16, 139),2	114,(6, 134),1	115,(6, 58),1	116,(6, 165),3	119,(20, 139),6	125,(9, 139),1	
# Outgoing
1,(0, 1),11	12,(8, 27),4	16,(0, 2),11	27,(13, 162),3	30,(8, 49),1	31,(14, 49),4	35,(7, 57),6	41,(0, 12),11	52,(8, 58),1	53,(8, 43),1	54,(10, 161),6	60,(19, 124),3	63,(5, 124),3	66,(3, 187),3	69,(5, 187),4	73,(9, 83),5	78,(14, 135),5	83,(16, 135),2	85,(9, 135),1	86,(20, 160),2	88,(10, 160),1	89,(9, 165),1	90,(17, 89),1	91,(17, 103),5	96,(15, 160),6	102,(14, 200),6	108,(17, 200),1	109,(7, 58),2	111,(14, 139),1	112,(16, 139),2	114,(6, 134),1	115,(6, 58),1	116,(6, 165),3	119,(20, 139),6	125,(9, 139),1	
54,(37, 201),5	59,(43, 201),5	84,(12, 171),1	85,(12, 92),1	86,(12, 63),1	97,(103, 201),5	103,(160, 201),5	108,(12, 95),2	146,(12, 96),3	149,(12, 127),3	155,(12, 42),3	161,(12, 39),4	175,(12, 54),5	192,(12, 177),8	200,(12, 22),9	222,(12, 29),6	250,(12, 73),12	262,(12, 190),12	287,(12, 23),15	340,(12, 25),24	424,(12, 105),19	443,(12, 157),51	507,(12, 46),48	555,(12, 148),63	710,(12, 55),186	
14,(90, 201),5	19,(27, 201),5	24,(1, 181),1	25,(1, 30),1	26,(1, 147),2	28,(2, 199),1	29,(32, 201),5	34,(162, 201),5	39,(49, 201),5	44,(57, 201),5	49,(2, 44),1	50,(2, 180),1	51,(2, 42),1	52,(2, 37),1	53,(1, 110),1	64,(161, 201),5	69,(124, 201),5	74,(187, 201),5	79,(83, 201),5	87,(135, 201),5	92,(89, 201),5	102,(1, 177),1	110,(200, 201),5	115,(2, 174),1	116,(134, 201),5	121,(58, 201),5	126,(165, 201),5	131,(139, 201),5	136,(1, 130),2	138,(2, 120),2	140,(2, 141),2	142,(1, 71),2	144,(1, 150),2	152,(1, 106),3	158,(2, 110),3	165,(1, 35),5	170,(1, 119),5	180,(2, 189),6	186,(1, 53),6	209,(1, 132),9	218,(2, 29),4	228,(1, 136),7	235,(2, 136),3	238,(1, 182),12	274,(2, 144),13	302,(1, 174),14	316,(2, 94),24	364,(1, 85),39	403,(1, 105),20	423,(2, 105),1	494,(2, 46),13	618,(2, 45),92	
