1088
# CPU
0,81,1	1,36,7	8,32,7	15,76,7	22,30,7	29,61,7	36,53,7	43,17,7	50,78,7	57,12,7	64,49,7	71,20,7	78,75,7	85,21,7	92,50,7	99,51,7	106,42,7	113,37,7	120,33,7	127,26,7	134,22,7	141,34,7	148,69,7	155,72,7	162,58,7	169,59,7	176,70,7	183,9,7	190,64,7	197,13,7	204,47,7	211,45,7	218,43,7	225,48,7	232,71,7	239,15,7	246,57,7	253,62,7	260,25,7	267,77,7	274,40,7	281,60,7	288,74,7	295,23,7	302,56,7	309,65,7	316,52,7	323,10,7	330,67,7	337,16,7	344,27,7	351,38,7	358,31,7	365,29,7	372,54,7	379,80,7	386,28,7	393,35,7	400,14,7	407,73,7	414,66,7	421,18,7	428,44,7	435,55,7	442,63,7	449,46,7	456,79,7	463,4,7	470,39,7	477,8,7	484,3,7	491,7,7	498,6,7	505,5,7	536,1,7	1080,2,7	1087,0,1	
177,24,7	441,41,7	
353,11,7	

89,19,7	265,68,7	
# Incoming
96,(19, 7),4	100,(19, 1),8	108,(19, 2),16	272,(68, 6),80	360,(11, 5),80	448,(41, 7),32	480,(24, 5),16	496,(41, 5),8	504,(24, 1),32	536,(24, 2),28	564,(11, 2),112	676,(41, 2),404	
89,(81, 24),88	353,(81, 41),88	
265,(81, 11),88	

1,(81, 19),88	177,(81, 68),88	
# Outgoing
1,(81, 19),88	89,(81, 24),88	177,(81, 68),88	265,(81, 11),88	353,(81, 41),88	
448,(41, 7),32	480,(24, 5),16	496,(41, 5),8	504,(24, 1),32	536,(24, 2),28	676,(41, 2),404	
360,(11, 5),80	564,(11, 2),112	

96,(19, 7),4	100,(19, 1),8	108,(19, 2),16	272,(68, 6),80	
