9595
# CPU
259,3,143	402,31,143	545,4,143	775,6,143	918,58,143	1061,7,143	1204,64,143	1347,104,143	1490,10,143	1633,11,143	1776,71,143	1919,106,143	2062,30,143	2205,57,143	2348,61,143	2491,115,143	2634,116,143	2777,21,143	2920,44,143	3063,68,143	3206,93,143	3349,99,143	3492,36,143	3635,66,143	3778,73,143	3921,91,143	4064,105,143	4207,113,143	4350,26,143	4493,27,143	4636,52,143	4779,53,143	4922,56,143	5065,74,143	5208,82,143	5351,118,143	5494,13,143	5637,32,143	5780,33,143	5923,38,143	6066,59,143	6209,75,143	6352,79,143	6495,97,143	6638,107,143	6781,112,143	6924,119,143	7067,17,143	7210,22,143	7353,25,143	7496,28,143	7639,55,143	7782,63,143	7925,65,143	8068,80,143	8211,88,143	8354,90,143	8497,98,143	8640,101,143	8783,103,143	
0,0,1	1,5,143	144,12,143	287,1,143	430,8,143	573,9,143	716,2,143	859,95,143	1002,35,143	1145,39,143	1288,50,143	1431,120,143	1574,111,143	1717,54,143	1860,51,143	2003,37,143	2146,86,143	2289,48,143	2432,29,143	2575,85,143	2718,43,143	2861,47,143	3004,67,143	3147,81,143	3290,40,143	3433,77,143	3576,83,143	3719,84,143	3862,100,143	4005,117,143	4148,20,143	4291,109,143	4434,110,143	4577,16,143	4720,19,143	4863,42,143	5006,69,143	5149,70,143	5292,87,143	5435,92,143	5578,96,143	5721,102,143	5864,108,143	6007,114,143	6150,14,143	6293,15,143	6436,18,143	6579,23,143	6722,24,143	6865,34,143	7008,41,143	7151,45,143	7294,46,143	7437,49,143	7580,60,143	7723,62,143	7866,72,143	8009,76,143	8152,78,143	8295,89,143	8438,94,143	9594,121,1	
# Incoming
1,(0, 3),258	259,(0, 4),258	517,(0, 6),258	775,(0, 7),258	1033,(0, 10),258	1291,(0, 11),258	1549,(5, 21),158	1707,(5, 25),10	1717,(5, 30),32	1749,(5, 33),2	1751,(5, 44),2	1753,(5, 68),14	1767,(5, 75),4	1771,(5, 79),14	1785,(5, 99),2	1787,(5, 115),2	1789,(5, 116),10	1799,(12, 21),20	1819,(12, 32),74	1893,(12, 36),6	1899,(12, 44),8	1907,(12, 52),2	1909,(12, 65),24	1933,(12, 68),6	1939,(12, 73),60	1999,(12, 82),2	2001,(12, 91),32	2033,(12, 93),2	2035,(12, 99),12	2047,(12, 101),6	2053,(12, 103),12	2065,(12, 107),96	2161,(1, 17),2	2163,(1, 26),18	2181,(1, 36),8	2189,(1, 52),2	2191,(1, 56),4	2195,(1, 59),66	2261,(1, 66),2	2263,(1, 73),2	2265,(1, 79),20	2285,(1, 88),6	2291,(1, 91),2	2293,(1, 97),4	2297,(1, 98),2	2299,(1, 105),62	2361,(1, 112),2	2363,(1, 113),18	2381,(8, 25),6	2387,(8, 26),16	2403,(8, 27),2	2405,(8, 52),2	2407,(8, 53),2	2409,(8, 55),2	2411,(8, 56),2	2413,(8, 74),2	2415,(8, 82),4	2419,(8, 90),4	2423,(8, 98),6	2429,(8, 118),56	2485,(9, 13),2	2487,(9, 25),8	2495,(9, 32),2	2497,(9, 33),4	2501,(9, 38),2	2503,(9, 59),8	2511,(9, 63),26	2537,(9, 75),2	2539,(9, 79),10	2549,(9, 88),2	2551,(9, 90),10	2561,(9, 97),20	2581,(9, 107),8	2589,(9, 112),42	2631,(9, 119),32	2663,(2, 17),2	2665,(2, 22),6	2671,(2, 25),10	2681,(2, 28),4	2685,(2, 55),30	2715,(2, 63),12	2727,(2, 65),2	2729,(2, 80),2	2731,(2, 88),2	2733,(2, 90),2	2735,(2, 98),8	2743,(2, 101),12	2755,(2, 103),2	
402,(3, 15),8	410,(3, 16),2	412,(3, 20),24	436,(3, 35),2	438,(3, 41),6	444,(3, 42),2	446,(3, 49),8	454,(3, 78),2	456,(3, 81),28	484,(3, 84),8	492,(3, 102),156	648,(3, 109),2	650,(3, 111),14	664,(31, 121),116	780,(4, 15),2	782,(4, 41),2	784,(4, 42),1356	2140,(4, 43),12	2152,(4, 47),16	2168,(4, 62),2	2170,(4, 67),2	2172,(4, 78),2	2174,(4, 81),4	2178,(4, 94),4	2182,(4, 110),2	2184,(4, 117),22	2206,(6, 14),4	2210,(6, 15),4	2214,(6, 20),2	2216,(6, 23),8	2224,(6, 40),6	2230,(6, 42),212	2442,(6, 49),4	2446,(6, 69),12	2458,(6, 77),46	2504,(6, 83),20	2524,(6, 84),4	2528,(6, 100),52	2580,(6, 114),12	2592,(6, 117),8	2600,(58, 121),116	2716,(7, 20),2	2718,(7, 45),2	2720,(7, 94),110	2830,(7, 109),8	2838,(7, 110),2	2840,(64, 121),116	2956,(104, 121),116	3072,(10, 14),4	3076,(10, 16),6	3082,(10, 19),82	3164,(10, 42),2	3166,(10, 46),6	3172,(10, 69),2	3174,(10, 70),2	3176,(10, 87),10	3186,(10, 92),2	3188,(10, 94),256	3444,(10, 96),6	3450,(10, 102),148	3598,(10, 108),72	3670,(10, 114),14	3684,(11, 14),2	3686,(11, 15),16	3702,(11, 18),2	3704,(11, 23),14	3718,(11, 24),2	3720,(11, 34),2	3722,(11, 41),2	3724,(11, 45),4	3728,(11, 46),2	3730,(11, 49),12	3742,(11, 60),2	3744,(11, 62),2	3746,(11, 72),2	3748,(11, 76),2	3750,(11, 78),2	3752,(11, 89),2	3754,(11, 94),40	3794,(71, 121),116	3910,(106, 121),116	4026,(30, 121),116	4142,(57, 121),116	4258,(61, 121),116	4374,(115, 121),116	4490,(116, 121),116	4606,(21, 121),116	4722,(44, 121),116	4838,(68, 121),116	4954,(93, 121),116	5070,(99, 121),116	5186,(36, 121),116	5302,(66, 121),116	5418,(73, 121),116	5534,(91, 121),116	5650,(105, 121),116	5766,(113, 121),116	5882,(26, 121),116	5998,(27, 121),116	6114,(52, 121),116	6230,(53, 121),116	6346,(56, 121),116	6462,(74, 121),116	6578,(82, 121),116	6694,(118, 121),116	6810,(13, 121),116	6926,(32, 121),116	7042,(33, 121),116	7158,(38, 121),116	7274,(59, 121),116	7390,(75, 121),116	7506,(79, 121),116	7622,(97, 121),116	7738,(107, 121),116	7854,(112, 121),116	7970,(119, 121),116	8086,(17, 121),116	8202,(22, 121),116	8318,(25, 121),116	8434,(28, 121),116	8550,(55, 121),116	8666,(63, 121),116	8782,(65, 121),116	8898,(80, 121),116	9014,(88, 121),116	9130,(90, 121),116	9246,(98, 121),116	9362,(101, 121),116	9478,(103, 121),116	
# Outgoing
402,(3, 15),8	410,(3, 16),2	412,(3, 20),24	436,(3, 35),2	438,(3, 41),6	444,(3, 42),2	446,(3, 49),8	454,(3, 78),2	456,(3, 81),28	484,(3, 84),8	492,(3, 102),156	648,(3, 109),2	650,(3, 111),14	664,(31, 121),116	780,(4, 15),2	782,(4, 41),2	784,(4, 42),1356	2140,(4, 43),12	2152,(4, 47),16	2168,(4, 62),2	2170,(4, 67),2	2172,(4, 78),2	2174,(4, 81),4	2178,(4, 94),4	2182,(4, 110),2	2184,(4, 117),22	2206,(6, 14),4	2210,(6, 15),4	2214,(6, 20),2	2216,(6, 23),8	2224,(6, 40),6	2230,(6, 42),212	2442,(6, 49),4	2446,(6, 69),12	2458,(6, 77),46	2504,(6, 83),20	2524,(6, 84),4	2528,(6, 100),52	2580,(6, 114),12	2592,(6, 117),8	2600,(58, 121),116	2716,(7, 20),2	2718,(7, 45),2	2720,(7, 94),110	2830,(7, 109),8	2838,(7, 110),2	2840,(64, 121),116	2956,(104, 121),116	3072,(10, 14),4	3076,(10, 16),6	3082,(10, 19),82	3164,(10, 42),2	3166,(10, 46),6	3172,(10, 69),2	3174,(10, 70),2	3176,(10, 87),10	3186,(10, 92),2	3188,(10, 94),256	3444,(10, 96),6	3450,(10, 102),148	3598,(10, 108),72	3670,(10, 114),14	3684,(11, 14),2	3686,(11, 15),16	3702,(11, 18),2	3704,(11, 23),14	3718,(11, 24),2	3720,(11, 34),2	3722,(11, 41),2	3724,(11, 45),4	3728,(11, 46),2	3730,(11, 49),12	3742,(11, 60),2	3744,(11, 62),2	3746,(11, 72),2	3748,(11, 76),2	3750,(11, 78),2	3752,(11, 89),2	3754,(11, 94),40	3794,(71, 121),116	3910,(106, 121),116	4026,(30, 121),116	4142,(57, 121),116	4258,(61, 121),116	4374,(115, 121),116	4490,(116, 121),116	4606,(21, 121),116	4722,(44, 121),116	4838,(68, 121),116	4954,(93, 121),116	5070,(99, 121),116	5186,(36, 121),116	5302,(66, 121),116	5418,(73, 121),116	5534,(91, 121),116	5650,(105, 121),116	5766,(113, 121),116	5882,(26, 121),116	5998,(27, 121),116	6114,(52, 121),116	6230,(53, 121),116	6346,(56, 121),116	6462,(74, 121),116	6578,(82, 121),116	6694,(118, 121),116	6810,(13, 121),116	6926,(32, 121),116	7042,(33, 121),116	7158,(38, 121),116	7274,(59, 121),116	7390,(75, 121),116	7506,(79, 121),116	7622,(97, 121),116	7738,(107, 121),116	7854,(112, 121),116	7970,(119, 121),116	8086,(17, 121),116	8202,(22, 121),116	8318,(25, 121),116	8434,(28, 121),116	8550,(55, 121),116	8666,(63, 121),116	8782,(65, 121),116	8898,(80, 121),116	9014,(88, 121),116	9130,(90, 121),116	9246,(98, 121),116	9362,(101, 121),116	9478,(103, 121),116	
1,(0, 3),258	259,(0, 4),258	517,(0, 6),258	775,(0, 7),258	1033,(0, 10),258	1291,(0, 11),258	1549,(5, 21),158	1707,(5, 25),10	1717,(5, 30),32	1749,(5, 33),2	1751,(5, 44),2	1753,(5, 68),14	1767,(5, 75),4	1771,(5, 79),14	1785,(5, 99),2	1787,(5, 115),2	1789,(5, 116),10	1799,(12, 21),20	1819,(12, 32),74	1893,(12, 36),6	1899,(12, 44),8	1907,(12, 52),2	1909,(12, 65),24	1933,(12, 68),6	1939,(12, 73),60	1999,(12, 82),2	2001,(12, 91),32	2033,(12, 93),2	2035,(12, 99),12	2047,(12, 101),6	2053,(12, 103),12	2065,(12, 107),96	2161,(1, 17),2	2163,(1, 26),18	2181,(1, 36),8	2189,(1, 52),2	2191,(1, 56),4	2195,(1, 59),66	2261,(1, 66),2	2263,(1, 73),2	2265,(1, 79),20	2285,(1, 88),6	2291,(1, 91),2	2293,(1, 97),4	2297,(1, 98),2	2299,(1, 105),62	2361,(1, 112),2	2363,(1, 113),18	2381,(8, 25),6	2387,(8, 26),16	2403,(8, 27),2	2405,(8, 52),2	2407,(8, 53),2	2409,(8, 55),2	2411,(8, 56),2	2413,(8, 74),2	2415,(8, 82),4	2419,(8, 90),4	2423,(8, 98),6	2429,(8, 118),56	2485,(9, 13),2	2487,(9, 25),8	2495,(9, 32),2	2497,(9, 33),4	2501,(9, 38),2	2503,(9, 59),8	2511,(9, 63),26	2537,(9, 75),2	2539,(9, 79),10	2549,(9, 88),2	2551,(9, 90),10	2561,(9, 97),20	2581,(9, 107),8	2589,(9, 112),42	2631,(9, 119),32	2663,(2, 17),2	2665,(2, 22),6	2671,(2, 25),10	2681,(2, 28),4	2685,(2, 55),30	2715,(2, 63),12	2727,(2, 65),2	2729,(2, 80),2	2731,(2, 88),2	2733,(2, 90),2	2735,(2, 98),8	2743,(2, 101),12	2755,(2, 103),2	
