351
# CPU
0,41,1	1,29,14	15,32,14	29,40,14	43,11,14	57,34,14	71,30,14	85,23,14	99,9,14	113,8,14	127,6,14	141,24,14	155,12,14	169,13,14	183,26,14	197,36,14	211,16,14	225,31,14	239,39,14	253,7,14	267,10,14	281,2,14	336,1,14	350,0,1	
91,35,14	106,38,14	151,33,14	166,17,14	196,37,14	226,21,14	241,15,14	268,4,14	
31,28,14	121,5,14	211,14,14	277,3,14	

46,25,14	
181,22,14	


16,27,14	
61,20,14	76,19,14	136,18,14	
# Incoming
75,(20, 2),3	78,(25, 1),3	105,(35, 2),6	195,(22, 1),36	282,(4, 0),6	291,(3, 0),6	297,(37, 1),39	
76,(41, 35),15	91,(41, 38),15	106,(27, 4),3	109,(19, 4),3	136,(41, 33),15	151,(41, 17),15	166,(5, 4),12	181,(41, 37),15	196,(18, 4),15	211,(41, 21),15	226,(41, 15),15	241,(40, 4),3	244,(23, 4),3	247,(9, 4),9	256,(8, 4),12	
16,(41, 28),15	106,(41, 5),15	121,(38, 3),12	165,(33, 3),21	196,(41, 14),15	211,(17, 3),33	268,(32, 3),3	

31,(41, 25),15	
166,(41, 22),15	


1,(41, 27),15	
46,(41, 20),15	61,(41, 19),15	121,(41, 18),15	
# Outgoing
1,(41, 27),15	16,(41, 28),15	31,(41, 25),15	46,(41, 20),15	61,(41, 19),15	76,(41, 35),15	91,(41, 38),15	106,(41, 5),15	121,(41, 18),15	136,(41, 33),15	151,(41, 17),15	166,(41, 22),15	181,(41, 37),15	196,(41, 14),15	211,(41, 21),15	226,(41, 15),15	241,(40, 4),3	244,(23, 4),3	247,(9, 4),9	256,(8, 4),12	268,(32, 3),3	
105,(35, 2),6	121,(38, 3),12	165,(33, 3),21	211,(17, 3),33	282,(4, 0),6	297,(37, 1),39	
166,(5, 4),12	291,(3, 0),6	

78,(25, 1),3	
195,(22, 1),36	


106,(27, 4),3	
75,(20, 2),3	109,(19, 4),3	196,(18, 4),15	
