308
# CPU
25,12,7	35,17,7	212,7,7	
27,11,7	34,6,7	41,16,7	
16,5,7	219,10,7	226,15,7	299,20,7	
8,2,7	15,4,7	22,19,7	29,9,7	36,14,7	
0,0,1	1,1,7	8,8,7	22,3,7	33,13,7	237,18,7	307,21,1	
# Incoming
16,(1, 7),7	23,(2, 12),2	34,(1, 17),1	35,(2, 7),177	
24,(1, 11),3	27,(2, 6),3	33,(2, 16),1	
14,(1, 5),2	212,(2, 10),7	219,(2, 15),6	237,(2, 20),62	
1,(0, 2),7	8,(1, 4),6	23,(1, 9),1	27,(1, 14),7	
15,(2, 3),7	22,(4, 21),1	23,(5, 21),1	30,(2, 13),3	33,(12, 21),1	34,(19, 21),1	35,(11, 21),1	41,(6, 21),1	42,(17, 21),1	48,(16, 21),1	219,(7, 21),1	225,(2, 18),12	237,(10, 21),1	238,(15, 21),1	299,(9, 21),1	300,(14, 21),1	306,(20, 21),1	
# Outgoing
33,(12, 21),1	42,(17, 21),1	219,(7, 21),1	
35,(11, 21),1	41,(6, 21),1	48,(16, 21),1	
23,(5, 21),1	237,(10, 21),1	238,(15, 21),1	306,(20, 21),1	
15,(2, 3),7	22,(4, 21),1	23,(2, 12),2	27,(2, 6),3	30,(2, 13),3	33,(2, 16),1	34,(19, 21),1	35,(2, 7),177	212,(2, 10),7	219,(2, 15),6	225,(2, 18),12	237,(2, 20),62	299,(9, 21),1	300,(14, 21),1	
1,(0, 2),7	8,(1, 4),6	14,(1, 5),2	16,(1, 7),7	23,(1, 9),1	24,(1, 11),3	27,(1, 14),7	34,(1, 17),1	
