236
# CPU
0,0,1	1,1,18	19,8,18	37,6,18	55,5,18	73,16,18	91,2,18	109,3,18	127,17,18	145,4,18	163,14,18	181,7,18	199,20,18	217,12,18	235,21,1	
22,18,18	112,10,18	136,15,18	172,9,18	
25,11,18	118,19,18	
31,13,18	






# Incoming
40,(18, 21),6	46,(11, 21),6	52,(13, 21),6	130,(10, 21),6	136,(19, 21),6	154,(15, 21),6	190,(9, 21),6	
19,(1, 18),3	109,(2, 10),3	118,(2, 15),18	136,(2, 9),36	
22,(1, 11),3	112,(2, 19),6	
25,(1, 13),6	






# Outgoing
19,(1, 18),3	22,(1, 11),3	25,(1, 13),6	109,(2, 10),3	112,(2, 19),6	118,(2, 15),18	136,(2, 9),36	
40,(18, 21),6	130,(10, 21),6	154,(15, 21),6	190,(9, 21),6	
46,(11, 21),6	136,(19, 21),6	
52,(13, 21),6	






