233
# CPU
0,81,1	1,72,1	2,67,1	3,52,1	4,62,1	5,44,1	6,36,1	7,35,1	8,65,1	9,54,1	10,68,1	11,26,1	12,73,1	13,18,1	14,63,1	15,37,1	16,33,1	17,66,1	18,74,1	19,19,1	20,69,1	21,40,1	22,53,1	23,70,1	24,20,1	25,41,1	26,55,1	27,15,1	28,60,1	29,38,1	30,42,1	31,21,1	32,31,1	33,28,1	34,51,1	35,75,1	36,78,1	37,71,1	38,45,1	39,14,1	40,32,1	41,56,1	42,49,1	43,79,1	44,57,1	45,30,1	46,10,1	47,39,1	48,17,1	49,24,1	50,64,1	51,11,1	52,16,1	53,23,1	54,27,1	55,77,1	56,76,1	57,47,1	58,59,1	59,48,1	60,50,1	61,34,1	62,80,1	63,9,1	64,25,1	65,58,1	66,22,1	67,4,1	68,2,1	69,8,1	76,5,1	89,7,1	117,3,1	150,6,1	231,1,1	232,0,1	
12,61,1	23,13,1	34,12,1	45,43,1	56,46,1	67,29,1	
# Incoming
13,(61, 2),2	15,(61, 7),2	24,(13, 8),4	28,(13, 5),1	35,(12, 7),8	46,(43, 1),17	68,(29, 5),8	76,(29, 7),13	89,(46, 3),24	113,(29, 3),4	117,(46, 6),33	150,(29, 1),81	
1,(81, 61),11	12,(81, 13),11	23,(81, 12),11	34,(81, 43),11	45,(81, 46),11	56,(81, 29),11	
# Outgoing
1,(81, 61),11	12,(81, 13),11	23,(81, 12),11	34,(81, 43),11	45,(81, 46),11	56,(81, 29),11	
13,(61, 2),2	15,(61, 7),2	24,(13, 8),4	28,(13, 5),1	35,(12, 7),8	46,(43, 1),17	68,(29, 5),8	76,(29, 7),13	89,(46, 3),24	113,(29, 3),4	117,(46, 6),33	150,(29, 1),81	
