3148
# CPU
11,6,1	25,11,1	81,14,1	131,16,1	287,19,1	408,13,1	424,18,1	438,20,1	
7,2,1	8,8,1	9,4,1	13,7,1	23,10,1	57,12,1	117,15,1	275,17,1	3147,21,1	
0,0,1	1,1,1	2,5,1	10,3,1	402,9,1	
# Incoming
9,(1, 6),2	23,(1, 11),2	57,(1, 14),24	117,(1, 16),14	275,(1, 19),12	402,(2, 13),6	408,(2, 18),16	424,(2, 20),14	
1,(0, 2),6	7,(1, 4),2	11,(1, 7),2	13,(1, 10),10	25,(1, 12),32	81,(1, 15),36	131,(1, 17),144	287,(5, 21),260	547,(3, 21),260	807,(6, 21),260	1067,(11, 21),260	1327,(14, 21),260	1587,(16, 21),260	1847,(19, 21),260	2107,(9, 21),260	2367,(13, 21),260	2627,(18, 21),260	2887,(20, 21),260	
8,(2, 3),2	10,(2, 9),392	
# Outgoing
807,(6, 21),260	1067,(11, 21),260	1327,(14, 21),260	1587,(16, 21),260	1847,(19, 21),260	2367,(13, 21),260	2627,(18, 21),260	2887,(20, 21),260	
8,(2, 3),2	10,(2, 9),392	402,(2, 13),6	408,(2, 18),16	424,(2, 20),14	
1,(0, 2),6	7,(1, 4),2	9,(1, 6),2	11,(1, 7),2	13,(1, 10),10	23,(1, 11),2	25,(1, 12),32	57,(1, 14),24	81,(1, 15),36	117,(1, 16),14	131,(1, 17),144	275,(1, 19),12	287,(5, 21),260	547,(3, 21),260	2107,(9, 21),260	
