3930
# CPU
13,4,16	29,13,16	45,28,16	61,8,16	77,14,16	105,22,16	121,25,16	137,18,16	153,31,16	169,34,16	185,38,16	
9,3,16	25,7,16	41,12,16	57,20,16	73,9,16	89,30,16	105,16,16	121,24,16	137,27,16	157,33,16	189,37,16	
5,2,16	21,19,16	37,23,16	53,10,16	69,6,16	85,15,16	101,32,16	117,39,16	145,26,16	161,29,16	189,36,16	
0,0,1	1,1,16	17,35,16	61,5,16	185,17,16	861,40,16	921,11,16	1289,21,16	3929,41,1	
# Incoming
9,(0, 4),4	25,(2, 8),8	45,(1, 14),8	53,(1, 22),52	105,(1, 25),12	117,(3, 18),16	149,(1, 31),4	157,(1, 34),4	161,(1, 38),16	
5,(0, 3),4	21,(2, 7),4	37,(2, 16),56	93,(4, 24),8	101,(4, 27),8	153,(1, 33),4	185,(2, 37),4	
1,(0, 2),4	17,(1, 10),28	45,(3, 6),8	61,(4, 15),4	65,(4, 32),8	73,(4, 39),4	117,(1, 26),28	145,(1, 29),4	149,(4, 36),40	
33,(2, 11),4	37,(4, 5),24	93,(2, 17),92	189,(2, 40),672	861,(4, 11),60	921,(4, 21),368	1289,(19, 41),88	1377,(7, 41),88	1465,(13, 41),88	1553,(23, 41),88	1641,(12, 41),88	1729,(28, 41),88	1817,(10, 41),88	1905,(20, 41),88	1993,(8, 41),88	2081,(6, 41),88	2169,(9, 41),88	2257,(14, 41),88	2345,(15, 41),88	2433,(30, 41),88	2521,(32, 41),88	2609,(16, 41),88	2697,(22, 41),88	2785,(39, 41),88	2873,(25, 41),88	2961,(24, 41),88	3049,(18, 41),88	3137,(27, 41),88	3225,(26, 41),88	3313,(31, 41),88	3401,(33, 41),88	3489,(29, 41),88	3577,(34, 41),88	3665,(38, 41),88	3753,(36, 41),88	3841,(37, 41),88	
# Outgoing
37,(4, 5),24	61,(4, 15),4	65,(4, 32),8	73,(4, 39),4	93,(4, 24),8	101,(4, 27),8	149,(4, 36),40	861,(4, 11),60	921,(4, 21),368	1465,(13, 41),88	1729,(28, 41),88	1993,(8, 41),88	2257,(14, 41),88	2697,(22, 41),88	2873,(25, 41),88	3049,(18, 41),88	3313,(31, 41),88	3577,(34, 41),88	3665,(38, 41),88	
45,(3, 6),8	117,(3, 18),16	1377,(7, 41),88	1641,(12, 41),88	1905,(20, 41),88	2169,(9, 41),88	2433,(30, 41),88	2609,(16, 41),88	2961,(24, 41),88	3137,(27, 41),88	3401,(33, 41),88	3841,(37, 41),88	
21,(2, 7),4	25,(2, 8),8	33,(2, 11),4	37,(2, 16),56	93,(2, 17),92	185,(2, 37),4	189,(2, 40),672	1289,(19, 41),88	1553,(23, 41),88	1817,(10, 41),88	2081,(6, 41),88	2345,(15, 41),88	2521,(32, 41),88	2785,(39, 41),88	3225,(26, 41),88	3489,(29, 41),88	3753,(36, 41),88	
1,(0, 2),4	5,(0, 3),4	9,(0, 4),4	17,(1, 10),28	45,(1, 14),8	53,(1, 22),52	105,(1, 25),12	117,(1, 26),28	145,(1, 29),4	149,(1, 31),4	153,(1, 33),4	157,(1, 34),4	161,(1, 38),16	
