29583
# CPU
106,52,1	4798,53,1	8398,101,1	9554,161,1	9558,172,1	13014,34,1	13062,42,1	14238,181,1	15450,114,1	15486,126,1	15682,69,1	16510,110,1	16782,24,1	17234,49,1	17554,106,1	17798,137,1	17906,163,1	18002,40,1	18062,48,1	18090,51,1	18094,54,1	18686,132,1	18706,135,1	18754,146,1	18758,147,1	19454,180,1	19534,182,1	19594,188,1	19602,191,1	20054,67,1	20430,99,1	20490,150,1	20758,196,1	20774,57,1	20802,73,1	20894,91,1	21238,124,1	21258,142,1	21434,171,1	21842,183,1	21874,200,1	22338,74,1	22482,105,1	22490,121,1	22598,153,1	22610,157,1	22614,165,1	22662,170,1	22674,173,1	23110,22,1	23174,25,1	23558,33,1	23610,39,1	23690,71,1	24002,113,1	24182,125,1	24318,154,1	24486,187,1	24582,31,1	24586,50,1	24598,64,1	24858,104,1	24866,120,1	24918,186,1	25002,194,1	25006,197,1	25026,28,1	25030,36,1	25058,61,1	25062,72,1	25066,76,1	25082,77,1	25102,94,1	25118,130,1	25122,139,1	25138,149,1	25386,160,1	25390,190,1	25406,27,1	25474,37,1	25490,38,1	25558,70,1	25618,80,1	25642,90,1	25694,97,1	25734,103,1	25738,109,1	25890,119,1	25894,134,1	25938,148,1	26114,159,1	26126,177,1	26146,26,1	26170,41,1	26202,45,1	26206,47,1	26226,62,1	26230,82,1	26302,84,1	26342,88,1	26462,100,1	26466,108,1	26514,111,1	26530,123,1	26534,136,1	26566,141,1	26598,145,1	26610,152,1	26758,162,1	26782,164,1	26794,168,1	26838,174,1	26846,185,1	26874,193,1	26906,32,1	26910,46,1	26918,55,1	26926,60,1	26982,63,1	27038,85,1	27046,87,1	27082,92,1	27086,93,1	27114,102,1	27126,107,1	27214,112,1	27246,122,1	27354,138,1	27358,140,1	27510,151,1	27518,158,1	27522,166,1	27570,167,1	27678,178,1	27714,184,1	27846,189,1	27850,199,1	27906,30,1	27966,44,1	28062,56,1	28190,58,1	28222,59,1	28230,65,1	28262,68,1	28266,78,1	28390,79,1	28398,81,1	28402,86,1	28498,95,1	28502,127,1	28518,143,1	28530,144,1	28550,155,1	28558,169,1	28650,175,1	28674,198,1	28738,21,1	28762,23,1	28798,29,1	28802,35,1	28810,43,1	28814,66,1	28886,75,1	28918,83,1	28922,89,1	28962,96,1	28998,98,1	29002,115,1	29026,116,1	29030,117,1	29078,118,1	29102,129,1	29118,131,1	29158,156,1	29182,176,1	29226,179,1	29274,192,1	29318,195,1	29582,201,1	
0,0,1	1,7,1	2,2,1	3,10,1	4,15,1	5,8,1	6,18,1	7,12,1	8,6,1	9,11,1	10,4,1	11,20,1	12,13,1	13,19,1	14,1,1	15,3,1	16,9,1	17,5,1	18,16,1	19,14,1	20,17,1	21,133,1	22,128,1	
# Incoming
2,(7, 23),32	34,(7, 28),4	38,(7, 50),16	54,(7, 52),52	106,(7, 55),4	110,(7, 81),20	130,(7, 96),4	134,(7, 97),4	138,(7, 98),3444	3582,(7, 101),4	3586,(7, 106),4	3590,(7, 110),20	3610,(7, 114),44	3654,(7, 119),116	3770,(7, 120),4	3774,(7, 131),4	3778,(7, 154),88	3866,(7, 163),300	4166,(7, 179),100	4266,(7, 183),4	4270,(7, 184),4	4274,(7, 197),12	4286,(2, 21),92	4378,(2, 29),108	4486,(2, 30),24	4510,(2, 34),20	4530,(2, 35),156	4686,(2, 46),24	4710,(2, 48),40	4750,(2, 50),4	4754,(2, 51),4	4758,(2, 53),40	4798,(2, 71),4	4802,(2, 79),36	4838,(2, 82),264	5102,(2, 84),12	5114,(2, 90),12	5126,(2, 142),20	5146,(2, 144),4	5150,(2, 147),4	5154,(2, 149),48	5202,(2, 151),68	5270,(2, 182),1256	6526,(2, 185),12	6538,(2, 194),80	6618,(2, 196),100	6718,(10, 23),4	6722,(10, 25),4	6726,(10, 29),8	6734,(10, 33),28	6762,(10, 40),4	6766,(10, 42),4	6770,(10, 46),16	6786,(10, 49),4	6790,(10, 58),124	6914,(10, 59),4	6918,(10, 62),1168	8086,(10, 69),88	8174,(10, 71),12	8186,(10, 75),28	8214,(10, 79),28	8242,(10, 81),40	8282,(10, 101),116	8398,(10, 102),52	8450,(10, 118),40	8490,(10, 122),20	8510,(10, 131),4	8514,(10, 139),120	8634,(10, 148),60	8694,(10, 150),4	8698,(10, 157),92	8790,(10, 158),732	9522,(10, 159),4	9526,(10, 161),28	9554,(10, 172),4	9558,(10, 183),16	9574,(10, 187),60	9634,(10, 194),976	10610,(15, 30),4	10614,(15, 33),4	10618,(15, 34),24	10642,(15, 54),4	10646,(15, 55),48	10694,(15, 60),8	10702,(15, 64),4	10706,(15, 67),8	10714,(15, 83),56	10770,(15, 85),172	10942,(15, 93),4	10946,(15, 94),8	10954,(15, 102),16	10970,(15, 122),16	10986,(15, 129),16	11002,(15, 134),8	11010,(15, 138),16	11026,(15, 146),916	11942,(15, 151),244	12186,(15, 191),16	12202,(15, 194),4	12206,(8, 24),8	12214,(8, 27),4	12218,(8, 30),720	12938,(8, 34),76	13014,(8, 39),20	13034,(8, 42),28	13062,(8, 44),16	13078,(8, 70),4	13082,(8, 82),196	13278,(8, 85),112	13390,(8, 92),28	13418,(8, 103),8	13426,(8, 112),64	13490,(8, 114),40	13530,(8, 119),16	13546,(8, 130),4	13550,(8, 131),4	13554,(8, 137),232	13786,(8, 141),24	13810,(8, 146),4	13814,(8, 147),28	13842,(8, 151),28	13870,(8, 160),4	13874,(8, 164),4	13878,(8, 165),248	14126,(8, 168),4	14130,(8, 169),28	14158,(8, 174),24	14182,(8, 179),4	14186,(8, 181),52	14238,(8, 182),104	14342,(8, 199),4	14346,(18, 26),44	14390,(18, 28),4	14394,(18, 30),4	14398,(18, 32),140	14538,(18, 38),68	14606,(18, 39),16	14622,(18, 40),8	14630,(18, 43),28	14658,(18, 67),4	14662,(18, 72),4	14666,(18, 83),120	14786,(18, 85),648	15434,(18, 114),16	15450,(18, 122),4	15454,(18, 126),32	15486,(18, 135),4	15490,(18, 136),28	15518,(18, 148),4	15522,(18, 153),4	15526,(18, 156),4	15530,(18, 158),28	15558,(18, 183),60	15618,(12, 51),36	15654,(12, 63),4	15658,(12, 69),24	15682,(12, 73),68	15750,(12, 77),616	16366,(12, 80),32	16398,(12, 81),8	16406,(12, 89),16	16422,(12, 96),8	16430,(12, 97),4	16434,(12, 99),12	16446,(12, 103),60	16506,(12, 110),4	16510,(12, 117),24	16534,(12, 118),8	16542,(12, 136),4	16546,(12, 156),12	16558,(12, 188),8	16566,(12, 195),56	16622,(12, 199),156	16778,(6, 24),4	16782,(6, 28),4	16786,(6, 36),4	16790,(6, 46),36	16826,(6, 49),408	17234,(6, 57),4	17238,(6, 67),16	17254,(6, 104),252	17506,(6, 106),48	17554,(6, 111),36	17590,(6, 112),4	17594,(6, 118),4	17598,(6, 123),4	17602,(6, 130),104	17706,(6, 134),40	17746,(6, 135),16	17762,(6, 137),36	17798,(6, 154),16	17814,(6, 160),44	17858,(6, 163),48	17906,(6, 166),28	17934,(6, 199),4	17938,(11, 37),12	17950,(11, 40),52	18002,(11, 48),60	18062,(11, 50),8	18070,(11, 51),20	18090,(11, 54),4	18094,(11, 58),8	18102,(11, 60),12	18114,(11, 65),16	18130,(11, 66),4	18134,(11, 70),4	18138,(11, 72),44	18182,(11, 73),60	18242,(11, 86),356	18598,(11, 96),4	18602,(11, 109),8	18610,(11, 115),4	18614,(11, 116),4	18618,(11, 124),8	18626,(11, 130),16	18642,(11, 131),32	18674,(11, 132),12	18686,(11, 135),20	18706,(11, 143),44	18750,(11, 146),4	18754,(11, 147),4	18758,(11, 152),60	18818,(11, 162),60	18878,(11, 168),148	19026,(11, 174),128	19154,(11, 180),300	19454,(11, 182),80	19534,(11, 188),60	19594,(11, 191),8	19602,(11, 200),16	19618,(4, 33),68	19686,(4, 60),4	19690,(4, 62),340	20030,(4, 65),4	20034,(4, 67),20	20054,(4, 68),4	20058,(4, 75),180	20238,(4, 88),36	20274,(4, 99),156	20430,(4, 125),36	20466,(4, 127),12	20478,(4, 150),12	20490,(4, 153),8	20498,(4, 160),44	20542,(4, 162),12	20554,(4, 167),88	20642,(4, 175),12	20654,(4, 192),80	20734,(4, 196),24	20758,(20, 25),8	20766,(20, 55),4	20770,(20, 57),4	20774,(20, 61),20	20794,(20, 73),8	20802,(20, 79),76	20878,(20, 89),12	20890,(20, 91),4	20894,(20, 92),32	20926,(20, 95),80	21006,(20, 96),4	21010,(20, 102),96	21106,(20, 105),4	21110,(20, 115),8	21118,(20, 119),96	21214,(20, 124),24	21238,(20, 134),4	21242,(20, 142),16	21258,(20, 143),12	21270,(20, 157),60	21330,(20, 158),8	21338,(20, 159),24	21362,(20, 160),68	21430,(20, 171),4	21434,(20, 178),336	21770,(20, 179),4	21774,(20, 183),68	21842,(20, 194),4	21846,(20, 200),28	21874,(13, 22),12	21886,(13, 23),16	21902,(13, 31),96	21998,(13, 41),12	22010,(13, 45),4	22014,(13, 58),56	22070,(13, 61),12	22082,(13, 63),44	22126,(13, 72),208	22334,(13, 74),4	22338,(13, 76),8	22346,(13, 85),44	22390,(13, 86),28	22418,(13, 97),12	22430,(13, 105),52	22482,(13, 111),4	22486,(13, 121),4	22490,(13, 125),24	22514,(13, 149),4	22518,(13, 152),8	22526,(13, 153),72	22598,(13, 155),8	22606,(13, 157),4	22610,(13, 165),4	22614,(13, 170),48	22662,(13, 173),12	22674,(13, 178),24	22698,(13, 195),256	22954,(13, 197),52	23006,(19, 22),104	23110,(19, 25),64	23174,(19, 30),240	23414,(19, 32),44	23458,(19, 33),100	23558,(19, 36),44	23602,(19, 37),4	23606,(19, 39),4	23610,(19, 55),24	23634,(19, 56),24	23658,(19, 58),12	23670,(19, 64),16	23686,(19, 71),4	23690,(19, 80),228	23918,(19, 98),16	23934,(19, 100),12	23946,(19, 102),4	23950,(19, 112),40	23990,(19, 113),12	24002,(19, 115),96	24098,(19, 125),84	24182,(19, 140),4	24186,(19, 154),132	24318,(19, 175),4	24322,(19, 178),144	24466,(19, 184),12	24478,(19, 187),8	24486,(1, 30),68	24554,(1, 31),28	24582,(1, 50),4	24586,(1, 64),12	24598,(1, 65),8	24606,(1, 79),4	24610,(1, 81),220	24830,(1, 88),4	24834,(1, 94),20	24854,(1, 104),4	24858,(1, 116),4	24862,(1, 120),4	24866,(1, 127),32	24898,(1, 139),4	24902,(1, 149),4	24906,(1, 151),4	24910,(1, 186),8	24918,(1, 194),84	25002,(1, 197),4	25006,(3, 28),20	25026,(3, 36),4	25030,(3, 61),28	25058,(3, 72),4	25062,(3, 76),4	25066,(3, 77),16	25082,(3, 83),4	25086,(3, 94),16	25102,(3, 100),8	25110,(3, 107),4	25114,(3, 130),4	25118,(3, 139),4	25122,(3, 144),4	25126,(3, 149),12	25138,(3, 152),60	25198,(3, 160),188	25386,(3, 190),4	25390,(3, 192),4	25394,(9, 27),12	25406,(9, 35),28	25434,(9, 37),40	25474,(9, 38),16	25490,(9, 41),44	25534,(9, 43),4	25538,(9, 70),20	25558,(9, 80),60	25618,(9, 83),12	25630,(9, 90),12	25642,(9, 96),8	25650,(9, 97),44	25694,(9, 103),40	25734,(9, 109),4	25738,(9, 119),152	25890,(9, 134),4	25894,(9, 145),32	25926,(9, 148),12	25938,(9, 159),176	26114,(9, 168),4	26118,(9, 177),8	26126,(9, 198),16	26142,(5, 26),4	26146,(5, 41),24	26170,(5, 45),32	26202,(5, 47),4	26206,(5, 56),16	26222,(5, 62),4	26226,(5, 82),4	26230,(5, 84),72	26302,(5, 87),36	26338,(5, 88),4	26342,(5, 100),120	26462,(5, 108),4	26466,(5, 111),48	26514,(5, 116),4	26518,(5, 123),12	26530,(5, 136),4	26534,(5, 141),32	26566,(5, 144),12	26578,(5, 145),20	26598,(5, 152),12	26610,(5, 162),148	26758,(5, 164),24	26782,(5, 168),12	26794,(5, 174),44	26838,(5, 176),4	26842,(5, 185),4	26846,(5, 193),28	26874,(5, 198),4	26878,(16, 21),4	26882,(16, 32),24	26906,(16, 46),4	26910,(16, 55),8	26918,(16, 60),8	26926,(16, 63),56	26982,(16, 75),16	26998,(16, 85),40	27038,(16, 86),4	27042,(16, 87),4	27046,(16, 92),36	27082,(16, 93),4	27086,(16, 96),4	27090,(16, 102),24	27114,(16, 107),12	27126,(16, 112),88	27214,(16, 117),16	27230,(16, 122),16	27246,(16, 131),4	27250,(16, 138),104	27354,(16, 140),4	27358,(16, 143),20	27378,(16, 144),20	27398,(16, 151),112	27510,(16, 155),4	27514,(16, 158),4	27518,(16, 166),4	27522,(16, 167),48	27570,(16, 176),12	27582,(16, 178),96	27678,(16, 184),36	27714,(16, 189),132	27846,(16, 199),4	27850,(14, 29),44	27894,(14, 30),12	27906,(14, 43),8	27914,(14, 44),52	27966,(14, 56),96	28062,(14, 58),128	28190,(14, 59),32	28222,(14, 65),8	28230,(14, 68),32	28262,(14, 78),4	28266,(14, 79),124	28390,(14, 81),8	28398,(14, 86),4	28402,(14, 95),96	28498,(14, 127),4	28502,(14, 143),16	28518,(14, 144),12	28530,(14, 155),20	28550,(14, 169),8	28558,(14, 175),92	28650,(14, 198),24	28674,(17, 21),64	28738,(17, 23),24	28762,(17, 29),36	28798,(17, 35),4	28802,(17, 43),8	28810,(17, 66),4	28814,(17, 75),72	28886,(17, 83),32	28918,(17, 89),4	28922,(17, 96),40	28962,(17, 98),36	28998,(17, 115),4	29002,(17, 116),24	29026,(17, 117),4	29030,(17, 118),48	29078,(17, 129),24	29102,(17, 131),16	29118,(17, 156),40	29158,(17, 176),24	29182,(17, 179),44	29226,(17, 192),48	29274,(17, 195),44	29318,(133, 201),132	29450,(128, 201),132	

# Outgoing

2,(7, 23),32	34,(7, 28),4	38,(7, 50),16	54,(7, 52),52	106,(7, 55),4	110,(7, 81),20	130,(7, 96),4	134,(7, 97),4	138,(7, 98),3444	3582,(7, 101),4	3586,(7, 106),4	3590,(7, 110),20	3610,(7, 114),44	3654,(7, 119),116	3770,(7, 120),4	3774,(7, 131),4	3778,(7, 154),88	3866,(7, 163),300	4166,(7, 179),100	4266,(7, 183),4	4270,(7, 184),4	4274,(7, 197),12	4286,(2, 21),92	4378,(2, 29),108	4486,(2, 30),24	4510,(2, 34),20	4530,(2, 35),156	4686,(2, 46),24	4710,(2, 48),40	4750,(2, 50),4	4754,(2, 51),4	4758,(2, 53),40	4798,(2, 71),4	4802,(2, 79),36	4838,(2, 82),264	5102,(2, 84),12	5114,(2, 90),12	5126,(2, 142),20	5146,(2, 144),4	5150,(2, 147),4	5154,(2, 149),48	5202,(2, 151),68	5270,(2, 182),1256	6526,(2, 185),12	6538,(2, 194),80	6618,(2, 196),100	6718,(10, 23),4	6722,(10, 25),4	6726,(10, 29),8	6734,(10, 33),28	6762,(10, 40),4	6766,(10, 42),4	6770,(10, 46),16	6786,(10, 49),4	6790,(10, 58),124	6914,(10, 59),4	6918,(10, 62),1168	8086,(10, 69),88	8174,(10, 71),12	8186,(10, 75),28	8214,(10, 79),28	8242,(10, 81),40	8282,(10, 101),116	8398,(10, 102),52	8450,(10, 118),40	8490,(10, 122),20	8510,(10, 131),4	8514,(10, 139),120	8634,(10, 148),60	8694,(10, 150),4	8698,(10, 157),92	8790,(10, 158),732	9522,(10, 159),4	9526,(10, 161),28	9554,(10, 172),4	9558,(10, 183),16	9574,(10, 187),60	9634,(10, 194),976	10610,(15, 30),4	10614,(15, 33),4	10618,(15, 34),24	10642,(15, 54),4	10646,(15, 55),48	10694,(15, 60),8	10702,(15, 64),4	10706,(15, 67),8	10714,(15, 83),56	10770,(15, 85),172	10942,(15, 93),4	10946,(15, 94),8	10954,(15, 102),16	10970,(15, 122),16	10986,(15, 129),16	11002,(15, 134),8	11010,(15, 138),16	11026,(15, 146),916	11942,(15, 151),244	12186,(15, 191),16	12202,(15, 194),4	12206,(8, 24),8	12214,(8, 27),4	12218,(8, 30),720	12938,(8, 34),76	13014,(8, 39),20	13034,(8, 42),28	13062,(8, 44),16	13078,(8, 70),4	13082,(8, 82),196	13278,(8, 85),112	13390,(8, 92),28	13418,(8, 103),8	13426,(8, 112),64	13490,(8, 114),40	13530,(8, 119),16	13546,(8, 130),4	13550,(8, 131),4	13554,(8, 137),232	13786,(8, 141),24	13810,(8, 146),4	13814,(8, 147),28	13842,(8, 151),28	13870,(8, 160),4	13874,(8, 164),4	13878,(8, 165),248	14126,(8, 168),4	14130,(8, 169),28	14158,(8, 174),24	14182,(8, 179),4	14186,(8, 181),52	14238,(8, 182),104	14342,(8, 199),4	14346,(18, 26),44	14390,(18, 28),4	14394,(18, 30),4	14398,(18, 32),140	14538,(18, 38),68	14606,(18, 39),16	14622,(18, 40),8	14630,(18, 43),28	14658,(18, 67),4	14662,(18, 72),4	14666,(18, 83),120	14786,(18, 85),648	15434,(18, 114),16	15450,(18, 122),4	15454,(18, 126),32	15486,(18, 135),4	15490,(18, 136),28	15518,(18, 148),4	15522,(18, 153),4	15526,(18, 156),4	15530,(18, 158),28	15558,(18, 183),60	15618,(12, 51),36	15654,(12, 63),4	15658,(12, 69),24	15682,(12, 73),68	15750,(12, 77),616	16366,(12, 80),32	16398,(12, 81),8	16406,(12, 89),16	16422,(12, 96),8	16430,(12, 97),4	16434,(12, 99),12	16446,(12, 103),60	16506,(12, 110),4	16510,(12, 117),24	16534,(12, 118),8	16542,(12, 136),4	16546,(12, 156),12	16558,(12, 188),8	16566,(12, 195),56	16622,(12, 199),156	16778,(6, 24),4	16782,(6, 28),4	16786,(6, 36),4	16790,(6, 46),36	16826,(6, 49),408	17234,(6, 57),4	17238,(6, 67),16	17254,(6, 104),252	17506,(6, 106),48	17554,(6, 111),36	17590,(6, 112),4	17594,(6, 118),4	17598,(6, 123),4	17602,(6, 130),104	17706,(6, 134),40	17746,(6, 135),16	17762,(6, 137),36	17798,(6, 154),16	17814,(6, 160),44	17858,(6, 163),48	17906,(6, 166),28	17934,(6, 199),4	17938,(11, 37),12	17950,(11, 40),52	18002,(11, 48),60	18062,(11, 50),8	18070,(11, 51),20	18090,(11, 54),4	18094,(11, 58),8	18102,(11, 60),12	18114,(11, 65),16	18130,(11, 66),4	18134,(11, 70),4	18138,(11, 72),44	18182,(11, 73),60	18242,(11, 86),356	18598,(11, 96),4	18602,(11, 109),8	18610,(11, 115),4	18614,(11, 116),4	18618,(11, 124),8	18626,(11, 130),16	18642,(11, 131),32	18674,(11, 132),12	18686,(11, 135),20	18706,(11, 143),44	18750,(11, 146),4	18754,(11, 147),4	18758,(11, 152),60	18818,(11, 162),60	18878,(11, 168),148	19026,(11, 174),128	19154,(11, 180),300	19454,(11, 182),80	19534,(11, 188),60	19594,(11, 191),8	19602,(11, 200),16	19618,(4, 33),68	19686,(4, 60),4	19690,(4, 62),340	20030,(4, 65),4	20034,(4, 67),20	20054,(4, 68),4	20058,(4, 75),180	20238,(4, 88),36	20274,(4, 99),156	20430,(4, 125),36	20466,(4, 127),12	20478,(4, 150),12	20490,(4, 153),8	20498,(4, 160),44	20542,(4, 162),12	20554,(4, 167),88	20642,(4, 175),12	20654,(4, 192),80	20734,(4, 196),24	20758,(20, 25),8	20766,(20, 55),4	20770,(20, 57),4	20774,(20, 61),20	20794,(20, 73),8	20802,(20, 79),76	20878,(20, 89),12	20890,(20, 91),4	20894,(20, 92),32	20926,(20, 95),80	21006,(20, 96),4	21010,(20, 102),96	21106,(20, 105),4	21110,(20, 115),8	21118,(20, 119),96	21214,(20, 124),24	21238,(20, 134),4	21242,(20, 142),16	21258,(20, 143),12	21270,(20, 157),60	21330,(20, 158),8	21338,(20, 159),24	21362,(20, 160),68	21430,(20, 171),4	21434,(20, 178),336	21770,(20, 179),4	21774,(20, 183),68	21842,(20, 194),4	21846,(20, 200),28	21874,(13, 22),12	21886,(13, 23),16	21902,(13, 31),96	21998,(13, 41),12	22010,(13, 45),4	22014,(13, 58),56	22070,(13, 61),12	22082,(13, 63),44	22126,(13, 72),208	22334,(13, 74),4	22338,(13, 76),8	22346,(13, 85),44	22390,(13, 86),28	22418,(13, 97),12	22430,(13, 105),52	22482,(13, 111),4	22486,(13, 121),4	22490,(13, 125),24	22514,(13, 149),4	22518,(13, 152),8	22526,(13, 153),72	22598,(13, 155),8	22606,(13, 157),4	22610,(13, 165),4	22614,(13, 170),48	22662,(13, 173),12	22674,(13, 178),24	22698,(13, 195),256	22954,(13, 197),52	23006,(19, 22),104	23110,(19, 25),64	23174,(19, 30),240	23414,(19, 32),44	23458,(19, 33),100	23558,(19, 36),44	23602,(19, 37),4	23606,(19, 39),4	23610,(19, 55),24	23634,(19, 56),24	23658,(19, 58),12	23670,(19, 64),16	23686,(19, 71),4	23690,(19, 80),228	23918,(19, 98),16	23934,(19, 100),12	23946,(19, 102),4	23950,(19, 112),40	23990,(19, 113),12	24002,(19, 115),96	24098,(19, 125),84	24182,(19, 140),4	24186,(19, 154),132	24318,(19, 175),4	24322,(19, 178),144	24466,(19, 184),12	24478,(19, 187),8	24486,(1, 30),68	24554,(1, 31),28	24582,(1, 50),4	24586,(1, 64),12	24598,(1, 65),8	24606,(1, 79),4	24610,(1, 81),220	24830,(1, 88),4	24834,(1, 94),20	24854,(1, 104),4	24858,(1, 116),4	24862,(1, 120),4	24866,(1, 127),32	24898,(1, 139),4	24902,(1, 149),4	24906,(1, 151),4	24910,(1, 186),8	24918,(1, 194),84	25002,(1, 197),4	25006,(3, 28),20	25026,(3, 36),4	25030,(3, 61),28	25058,(3, 72),4	25062,(3, 76),4	25066,(3, 77),16	25082,(3, 83),4	25086,(3, 94),16	25102,(3, 100),8	25110,(3, 107),4	25114,(3, 130),4	25118,(3, 139),4	25122,(3, 144),4	25126,(3, 149),12	25138,(3, 152),60	25198,(3, 160),188	25386,(3, 190),4	25390,(3, 192),4	25394,(9, 27),12	25406,(9, 35),28	25434,(9, 37),40	25474,(9, 38),16	25490,(9, 41),44	25534,(9, 43),4	25538,(9, 70),20	25558,(9, 80),60	25618,(9, 83),12	25630,(9, 90),12	25642,(9, 96),8	25650,(9, 97),44	25694,(9, 103),40	25734,(9, 109),4	25738,(9, 119),152	25890,(9, 134),4	25894,(9, 145),32	25926,(9, 148),12	25938,(9, 159),176	26114,(9, 168),4	26118,(9, 177),8	26126,(9, 198),16	26142,(5, 26),4	26146,(5, 41),24	26170,(5, 45),32	26202,(5, 47),4	26206,(5, 56),16	26222,(5, 62),4	26226,(5, 82),4	26230,(5, 84),72	26302,(5, 87),36	26338,(5, 88),4	26342,(5, 100),120	26462,(5, 108),4	26466,(5, 111),48	26514,(5, 116),4	26518,(5, 123),12	26530,(5, 136),4	26534,(5, 141),32	26566,(5, 144),12	26578,(5, 145),20	26598,(5, 152),12	26610,(5, 162),148	26758,(5, 164),24	26782,(5, 168),12	26794,(5, 174),44	26838,(5, 176),4	26842,(5, 185),4	26846,(5, 193),28	26874,(5, 198),4	26878,(16, 21),4	26882,(16, 32),24	26906,(16, 46),4	26910,(16, 55),8	26918,(16, 60),8	26926,(16, 63),56	26982,(16, 75),16	26998,(16, 85),40	27038,(16, 86),4	27042,(16, 87),4	27046,(16, 92),36	27082,(16, 93),4	27086,(16, 96),4	27090,(16, 102),24	27114,(16, 107),12	27126,(16, 112),88	27214,(16, 117),16	27230,(16, 122),16	27246,(16, 131),4	27250,(16, 138),104	27354,(16, 140),4	27358,(16, 143),20	27378,(16, 144),20	27398,(16, 151),112	27510,(16, 155),4	27514,(16, 158),4	27518,(16, 166),4	27522,(16, 167),48	27570,(16, 176),12	27582,(16, 178),96	27678,(16, 184),36	27714,(16, 189),132	27846,(16, 199),4	27850,(14, 29),44	27894,(14, 30),12	27906,(14, 43),8	27914,(14, 44),52	27966,(14, 56),96	28062,(14, 58),128	28190,(14, 59),32	28222,(14, 65),8	28230,(14, 68),32	28262,(14, 78),4	28266,(14, 79),124	28390,(14, 81),8	28398,(14, 86),4	28402,(14, 95),96	28498,(14, 127),4	28502,(14, 143),16	28518,(14, 144),12	28530,(14, 155),20	28550,(14, 169),8	28558,(14, 175),92	28650,(14, 198),24	28674,(17, 21),64	28738,(17, 23),24	28762,(17, 29),36	28798,(17, 35),4	28802,(17, 43),8	28810,(17, 66),4	28814,(17, 75),72	28886,(17, 83),32	28918,(17, 89),4	28922,(17, 96),40	28962,(17, 98),36	28998,(17, 115),4	29002,(17, 116),24	29026,(17, 117),4	29030,(17, 118),48	29078,(17, 129),24	29102,(17, 131),16	29118,(17, 156),40	29158,(17, 176),24	29182,(17, 179),44	29226,(17, 192),48	29274,(17, 195),44	29318,(133, 201),132	29450,(128, 201),132	
