1488
# CPU
0,41,1	1,33,74	75,22,74	149,17,74	223,9,74	297,27,74	371,29,74	445,16,74	519,32,74	593,11,74	667,38,74	741,24,74	815,7,74	889,14,74	963,25,74	1037,10,74	1111,12,74	1185,5,74	1259,20,74	1333,15,74	1407,2,74	1487,0,1	
6,23,74	80,13,74	154,30,74	228,36,74	302,21,74	376,35,74	450,19,74	524,37,74	598,40,74	672,26,74	746,31,74	820,18,74	894,6,74	968,8,74	1042,39,74	1116,34,74	1190,28,74	1264,4,74	1338,3,74	1412,1,74	
# Incoming
598,(37, 2),8	968,(6, 2),16	1042,(8, 2),2	1338,(4, 0),1	1412,(3, 0),1	1486,(1, 0),1	
1,(41, 23),5	6,(41, 13),5	11,(41, 30),5	16,(41, 36),5	21,(41, 21),5	26,(41, 35),5	31,(41, 19),5	36,(41, 37),5	41,(41, 40),5	46,(41, 26),5	51,(41, 31),5	56,(41, 18),5	61,(41, 6),5	66,(41, 8),5	71,(41, 39),5	76,(41, 34),5	81,(41, 28),5	149,(22, 3),1	223,(17, 4),1	371,(27, 4),2	445,(29, 1),3	519,(16, 3),4	523,(16, 1),6	593,(32, 3),1	594,(32, 1),7	741,(38, 3),9	815,(24, 1),9	889,(7, 1),11	963,(14, 4),13	1037,(25, 4),1	1038,(25, 1),16	1111,(10, 4),27	1185,(12, 3),30	1259,(5, 1),74	1333,(20, 3),3	
# Outgoing
1,(41, 23),5	6,(41, 13),5	11,(41, 30),5	16,(41, 36),5	21,(41, 21),5	26,(41, 35),5	31,(41, 19),5	36,(41, 37),5	41,(41, 40),5	46,(41, 26),5	51,(41, 31),5	56,(41, 18),5	61,(41, 6),5	66,(41, 8),5	71,(41, 39),5	76,(41, 34),5	81,(41, 28),5	149,(22, 3),1	223,(17, 4),1	371,(27, 4),2	445,(29, 1),3	519,(16, 3),4	523,(16, 1),6	593,(32, 3),1	594,(32, 1),7	741,(38, 3),9	815,(24, 1),9	889,(7, 1),11	963,(14, 4),13	1037,(25, 4),1	1038,(25, 1),16	1111,(10, 4),27	1185,(12, 3),30	1259,(5, 1),74	1333,(20, 3),3	
598,(37, 2),8	968,(6, 2),16	1042,(8, 2),2	1338,(4, 0),1	1412,(3, 0),1	1486,(1, 0),1	
