82
# CPU
0,0,1	1,1,1	2,3,1	3,7,1	4,8,1	5,6,1	6,2,1	7,5,1	8,4,1	9,75,1	10,35,1	11,27,1	12,22,1	13,66,1	14,42,1	15,72,1	16,18,1	17,9,1	18,30,1	19,80,1	20,79,1	21,76,1	22,70,1	23,69,1	24,65,1	25,61,1	26,58,1	27,55,1	28,54,1	29,43,1	30,41,1	31,39,1	32,48,1	33,12,1	34,51,1	35,36,1	36,21,1	37,71,1	38,60,1	39,59,1	40,53,1	41,50,1	42,74,1	43,68,1	44,62,1	45,57,1	46,33,1	47,52,1	48,13,1	49,28,1	50,26,1	51,14,1	52,73,1	53,67,1	54,11,1	55,64,1	56,49,1	57,47,1	58,44,1	59,38,1	60,34,1	61,20,1	62,10,1	63,46,1	64,25,1	65,24,1	66,23,1	67,37,1	68,31,1	69,17,1	70,29,1	71,32,1	72,56,1	73,45,1	74,19,1	75,40,1	76,15,1	77,77,1	78,78,1	79,16,1	80,63,1	81,81,1	


# Incoming



# Outgoing



