3054
# CPU
3,3,25	28,6,25	1027,11,25	1160,42,25	1532,27,25	1557,39,25	1665,48,25	1764,18,25	1789,51,25	1814,63,25	1839,24,25	1864,33,25	1893,12,25	1918,15,25	2045,57,25	2090,66,25	2413,21,25	2438,30,25	2463,36,25	2488,45,25	2513,54,25	2538,60,25	2563,69,25	2588,72,25	2613,75,25	2638,78,25	
2,2,25	27,5,25	52,8,25	77,35,25	498,38,25	737,17,25	989,74,25	1091,23,25	1159,41,25	1184,47,25	1209,50,25	1235,53,25	1399,59,25	1677,77,25	1719,10,25	1744,14,25	1769,20,25	1794,26,25	1819,32,25	1844,62,25	1869,29,25	1894,44,25	1919,65,25	1944,71,25	1969,68,25	1994,80,25	2033,56,25	
0,0,1	1,1,25	26,4,25	51,7,25	76,28,25	259,37,25	289,49,25	381,9,25	1558,43,25	1672,58,25	1697,61,25	1722,22,25	1790,70,25	1815,13,25	1840,16,25	1865,25,25	1890,31,25	1915,34,25	1940,40,25	1965,46,25	1990,52,25	2015,55,25	2040,64,25	2065,67,25	2090,76,25	2115,79,25	2293,19,25	2490,73,25	3053,81,1	
# Incoming
2,(0, 3),1	4,(0, 6),1	26,(1, 11),1	27,(1, 15),1	28,(2, 11),1	29,(1, 21),11	40,(2, 15),1	41,(2, 21),1	42,(2, 24),1	55,(2, 36),1	127,(2, 48),1	128,(2, 57),13	141,(2, 63),1	147,(1, 27),1	148,(2, 45),39	187,(2, 66),1	188,(2, 72),1	210,(2, 75),3	242,(2, 78),115	381,(5, 11),50	498,(1, 39),12	510,(1, 45),1	631,(1, 54),232	863,(1, 57),76	959,(1, 60),3	963,(1, 63),1	981,(1, 72),2	989,(1, 75),6	1023,(4, 11),4	1027,(4, 12),31	1058,(4, 15),1	1059,(4, 18),1	1072,(4, 21),4	1091,(4, 24),9	1100,(4, 27),5	1105,(4, 30),27	1137,(4, 36),2	1139,(4, 39),5	1159,(4, 42),1	1163,(4, 48),3	1183,(4, 51),33	1235,(4, 57),150	1399,(4, 63),52	1451,(4, 66),2	1479,(4, 69),5	1518,(5, 24),2	1520,(5, 27),12	1532,(5, 33),5	1538,(5, 36),3	1541,(5, 39),1	1558,(5, 45),1	1559,(5, 48),106	1665,(5, 54),6	1673,(4, 72),1	1674,(4, 75),2	1676,(5, 51),61	1737,(5, 63),7	1744,(7, 12),3	1747,(7, 15),11	1758,(7, 18),6	1766,(5, 69),16	1782,(7, 21),3	1785,(7, 51),4	1789,(7, 63),1	1790,(5, 72),5	1795,(5, 78),8	1803,(7, 24),7	1810,(7, 30),30	1840,(7, 33),10	1850,(7, 36),14	1864,(7, 45),12	1876,(8, 12),17	1893,(8, 15),1	2033,(7, 57),12	2045,(7, 60),2	2047,(7, 66),43	2090,(7, 69),95	2185,(7, 72),1	2293,(8, 21),120	2413,(8, 30),8	2421,(8, 36),1	2422,(8, 45),32	2454,(8, 54),1	2455,(8, 60),15	2470,(8, 69),1	2471,(8, 72),1	2490,(8, 75),9	2499,(8, 78),27	
1,(0, 2),1	3,(0, 5),1	5,(0, 8),1	28,(1, 20),1	40,(1, 23),55	95,(1, 26),52	147,(3, 20),1	148,(1, 29),342	490,(1, 32),7	497,(1, 38),1	498,(3, 29),7	505,(3, 41),6	511,(1, 47),10	521,(1, 50),5	526,(1, 53),105	631,(3, 44),1	632,(3, 50),9	641,(3, 59),1	642,(3, 65),28	670,(3, 74),16	686,(3, 80),1	687,(6, 14),1	688,(6, 17),49	737,(6, 20),195	932,(6, 23),2	934,(6, 26),1	935,(6, 56),1	936,(6, 68),1	937,(6, 71),1	939,(1, 59),20	962,(1, 62),1	964,(1, 65),1	965,(1, 68),13	978,(1, 71),3	983,(1, 74),6	989,(6, 29),6	995,(1, 77),4	999,(1, 80),14	1013,(4, 10),10	1023,(6, 41),18	1041,(6, 44),9	1050,(6, 65),4	1060,(4, 20),12	1076,(4, 23),15	1132,(4, 32),5	1144,(4, 41),15	1160,(4, 47),3	1166,(4, 50),17	1216,(4, 53),19	1385,(4, 59),14	1453,(4, 68),26	1484,(4, 71),189	1676,(4, 77),1	1677,(4, 80),38	1715,(7, 10),4	1719,(7, 14),7	1726,(7, 20),11	1737,(7, 26),4	1741,(7, 32),1	1742,(7, 62),2	1764,(7, 29),7	1771,(7, 44),7	1778,(7, 65),3	1781,(7, 71),1	1790,(7, 68),6	1796,(7, 80),6	1876,(7, 56),157	
29,(2, 16),1	30,(2, 34),1	31,(2, 46),4	35,(2, 70),5	43,(2, 28),12	56,(2, 37),24	80,(2, 40),18	98,(2, 43),29	127,(3, 13),6	133,(3, 16),1	134,(3, 22),7	141,(3, 52),1	142,(2, 64),6	148,(3, 34),3	151,(3, 46),15	166,(3, 55),1	167,(3, 58),1	168,(3, 70),11	179,(6, 9),1	180,(6, 16),1	181,(6, 25),1	182,(6, 31),7	189,(2, 73),21	210,(6, 40),1	211,(6, 58),1	213,(2, 76),29	242,(3, 73),12	254,(6, 37),5	259,(6, 43),8	267,(6, 46),5	272,(6, 49),17	289,(6, 61),2	291,(6, 67),23	314,(6, 70),2	316,(6, 73),4	320,(6, 76),2	322,(6, 79),11	357,(2, 79),1	358,(5, 9),23	431,(5, 16),23	454,(5, 22),1064	1518,(11, 81),17	1537,(5, 34),1	1542,(5, 40),15	1557,(5, 43),1	1558,(42, 81),17	1575,(27, 81),17	1592,(39, 81),17	1671,(5, 58),1	1672,(5, 61),1	1673,(5, 64),2	1675,(8, 22),1	1690,(48, 81),17	1744,(5, 67),22	1782,(5, 70),8	1803,(8, 13),6	1809,(8, 16),2	1811,(8, 25),1	1812,(8, 31),1	1813,(8, 34),9	1822,(8, 40),2	1824,(8, 46),1	1825,(8, 52),18	1843,(8, 55),1	1844,(8, 64),10	1854,(8, 67),5	1859,(8, 76),4	1863,(8, 79),2	1865,(18, 81),17	1894,(8, 19),399	2293,(51, 81),17	2310,(63, 81),17	2327,(24, 81),17	2344,(33, 81),17	2361,(12, 81),17	2378,(15, 81),17	2395,(57, 81),17	2412,(66, 81),17	2438,(21, 81),17	2472,(8, 73),18	2490,(30, 81),17	2507,(36, 81),17	2526,(35, 81),17	2543,(38, 81),17	2560,(17, 81),17	2577,(74, 81),17	2594,(23, 81),17	2611,(41, 81),17	2628,(47, 81),17	2645,(50, 81),17	2662,(53, 81),17	2679,(59, 81),17	2696,(77, 81),17	2713,(10, 81),17	2730,(14, 81),17	2747,(20, 81),17	2764,(26, 81),17	2781,(32, 81),17	2798,(62, 81),17	2815,(29, 81),17	2832,(44, 81),17	2849,(65, 81),17	2866,(71, 81),17	2883,(68, 81),17	2900,(80, 81),17	2917,(56, 81),17	2934,(45, 81),17	2951,(54, 81),17	2968,(60, 81),17	2985,(69, 81),17	3002,(72, 81),17	3019,(75, 81),17	3036,(78, 81),17	
# Outgoing
127,(3, 13),6	133,(3, 16),1	134,(3, 22),7	141,(3, 52),1	147,(3, 20),1	148,(3, 34),3	151,(3, 46),15	166,(3, 55),1	167,(3, 58),1	168,(3, 70),11	179,(6, 9),1	180,(6, 16),1	181,(6, 25),1	182,(6, 31),7	210,(6, 40),1	211,(6, 58),1	242,(3, 73),12	254,(6, 37),5	259,(6, 43),8	267,(6, 46),5	272,(6, 49),17	289,(6, 61),2	291,(6, 67),23	314,(6, 70),2	316,(6, 73),4	320,(6, 76),2	322,(6, 79),11	498,(3, 29),7	505,(3, 41),6	631,(3, 44),1	632,(3, 50),9	641,(3, 59),1	642,(3, 65),28	670,(3, 74),16	686,(3, 80),1	687,(6, 14),1	688,(6, 17),49	737,(6, 20),195	932,(6, 23),2	934,(6, 26),1	935,(6, 56),1	936,(6, 68),1	937,(6, 71),1	989,(6, 29),6	1023,(6, 41),18	1041,(6, 44),9	1050,(6, 65),4	1518,(11, 81),17	1558,(42, 81),17	1575,(27, 81),17	1592,(39, 81),17	1690,(48, 81),17	1865,(18, 81),17	2293,(51, 81),17	2310,(63, 81),17	2327,(24, 81),17	2344,(33, 81),17	2361,(12, 81),17	2378,(15, 81),17	2395,(57, 81),17	2412,(66, 81),17	2438,(21, 81),17	2490,(30, 81),17	2507,(36, 81),17	2934,(45, 81),17	2951,(54, 81),17	2968,(60, 81),17	2985,(69, 81),17	3002,(72, 81),17	3019,(75, 81),17	3036,(78, 81),17	
28,(2, 11),1	29,(2, 16),1	30,(2, 34),1	31,(2, 46),4	35,(2, 70),5	40,(2, 15),1	41,(2, 21),1	42,(2, 24),1	43,(2, 28),12	55,(2, 36),1	56,(2, 37),24	80,(2, 40),18	98,(2, 43),29	127,(2, 48),1	128,(2, 57),13	141,(2, 63),1	142,(2, 64),6	148,(2, 45),39	187,(2, 66),1	188,(2, 72),1	189,(2, 73),21	210,(2, 75),3	213,(2, 76),29	242,(2, 78),115	357,(2, 79),1	358,(5, 9),23	381,(5, 11),50	431,(5, 16),23	454,(5, 22),1064	1518,(5, 24),2	1520,(5, 27),12	1532,(5, 33),5	1537,(5, 34),1	1538,(5, 36),3	1541,(5, 39),1	1542,(5, 40),15	1557,(5, 43),1	1558,(5, 45),1	1559,(5, 48),106	1665,(5, 54),6	1671,(5, 58),1	1672,(5, 61),1	1673,(5, 64),2	1675,(8, 22),1	1676,(5, 51),61	1737,(5, 63),7	1744,(5, 67),22	1766,(5, 69),16	1782,(5, 70),8	1790,(5, 72),5	1795,(5, 78),8	1803,(8, 13),6	1809,(8, 16),2	1811,(8, 25),1	1812,(8, 31),1	1813,(8, 34),9	1822,(8, 40),2	1824,(8, 46),1	1825,(8, 52),18	1843,(8, 55),1	1844,(8, 64),10	1854,(8, 67),5	1859,(8, 76),4	1863,(8, 79),2	1876,(8, 12),17	1893,(8, 15),1	1894,(8, 19),399	2293,(8, 21),120	2413,(8, 30),8	2421,(8, 36),1	2422,(8, 45),32	2454,(8, 54),1	2455,(8, 60),15	2470,(8, 69),1	2471,(8, 72),1	2472,(8, 73),18	2490,(8, 75),9	2499,(8, 78),27	2526,(35, 81),17	2543,(38, 81),17	2560,(17, 81),17	2577,(74, 81),17	2594,(23, 81),17	2611,(41, 81),17	2628,(47, 81),17	2645,(50, 81),17	2662,(53, 81),17	2679,(59, 81),17	2696,(77, 81),17	2713,(10, 81),17	2730,(14, 81),17	2747,(20, 81),17	2764,(26, 81),17	2781,(32, 81),17	2798,(62, 81),17	2815,(29, 81),17	2832,(44, 81),17	2849,(65, 81),17	2866,(71, 81),17	2883,(68, 81),17	2900,(80, 81),17	2917,(56, 81),17	
1,(0, 2),1	2,(0, 3),1	3,(0, 5),1	4,(0, 6),1	5,(0, 8),1	26,(1, 11),1	27,(1, 15),1	28,(1, 20),1	29,(1, 21),11	40,(1, 23),55	95,(1, 26),52	147,(1, 27),1	148,(1, 29),342	490,(1, 32),7	497,(1, 38),1	498,(1, 39),12	510,(1, 45),1	511,(1, 47),10	521,(1, 50),5	526,(1, 53),105	631,(1, 54),232	863,(1, 57),76	939,(1, 59),20	959,(1, 60),3	962,(1, 62),1	963,(1, 63),1	964,(1, 65),1	965,(1, 68),13	978,(1, 71),3	981,(1, 72),2	983,(1, 74),6	989,(1, 75),6	995,(1, 77),4	999,(1, 80),14	1013,(4, 10),10	1023,(4, 11),4	1027,(4, 12),31	1058,(4, 15),1	1059,(4, 18),1	1060,(4, 20),12	1072,(4, 21),4	1076,(4, 23),15	1091,(4, 24),9	1100,(4, 27),5	1105,(4, 30),27	1132,(4, 32),5	1137,(4, 36),2	1139,(4, 39),5	1144,(4, 41),15	1159,(4, 42),1	1160,(4, 47),3	1163,(4, 48),3	1166,(4, 50),17	1183,(4, 51),33	1216,(4, 53),19	1235,(4, 57),150	1385,(4, 59),14	1399,(4, 63),52	1451,(4, 66),2	1453,(4, 68),26	1479,(4, 69),5	1484,(4, 71),189	1673,(4, 72),1	1674,(4, 75),2	1676,(4, 77),1	1677,(4, 80),38	1715,(7, 10),4	1719,(7, 14),7	1726,(7, 20),11	1737,(7, 26),4	1741,(7, 32),1	1742,(7, 62),2	1744,(7, 12),3	1747,(7, 15),11	1758,(7, 18),6	1764,(7, 29),7	1771,(7, 44),7	1778,(7, 65),3	1781,(7, 71),1	1782,(7, 21),3	1785,(7, 51),4	1789,(7, 63),1	1790,(7, 68),6	1796,(7, 80),6	1803,(7, 24),7	1810,(7, 30),30	1840,(7, 33),10	1850,(7, 36),14	1864,(7, 45),12	1876,(7, 56),157	2033,(7, 57),12	2045,(7, 60),2	2047,(7, 66),43	2090,(7, 69),95	2185,(7, 72),1	
