142
# CPU
0,21,1	1,17,7	8,16,7	15,5,7	22,12,7	29,6,7	36,11,7	43,13,7	50,8,7	57,4,7	64,15,7	71,3,7	78,10,7	85,14,7	92,9,7	99,18,7	106,19,7	113,20,7	120,7,7	127,1,7	134,2,7	141,0,1	
# Incoming

# Outgoing

