2455
# CPU
269,3,1	270,12,1	271,33,1	272,21,1	273,24,1	274,30,1	537,6,1	905,57,1	907,45,1	911,48,1	921,10,1	931,15,1	935,18,1	953,72,1	975,51,1	1039,36,1	1055,27,1	1073,42,1	1083,60,1	1093,54,1	1121,66,1	1571,39,1	2269,63,1	2377,69,1	2423,75,1	2451,78,1	
135,2,1	136,11,1	137,59,1	403,5,1	404,56,1	405,62,1	406,80,1	407,38,1	411,44,1	535,68,1	671,8,1	672,14,1	673,32,1	674,53,1	675,17,1	676,29,1	677,71,1	901,23,1	903,26,1	905,41,1	917,74,1	947,20,1	957,47,1	1031,65,1	1045,77,1	1057,35,1	1089,50,1	
0,0,1	1,7,1	2,1,1	3,4,1	4,9,1	5,22,1	6,76,1	7,25,1	8,58,1	9,31,1	305,46,1	319,73,1	333,13,1	339,28,1	349,40,1	363,61,1	406,37,1	408,64,1	432,70,1	540,16,1	554,19,1	560,43,1	580,55,1	586,67,1	610,79,1	809,34,1	813,49,1	839,52,1	2454,81,1	
# Incoming
135,(0, 3),134	269,(2, 10),34	403,(0, 6),134	537,(5, 27),100	671,(7, 15),222	893,(5, 57),12	905,(7, 45),2	907,(5, 66),2	909,(8, 48),2	917,(1, 10),4	921,(1, 15),10	931,(1, 18),4	935,(5, 72),18	957,(1, 51),18	975,(8, 36),64	1045,(4, 27),10	1057,(4, 42),16	1073,(8, 60),10	1089,(4, 54),4	1093,(4, 66),28	1121,(5, 39),450	1571,(5, 63),698	2269,(5, 69),108	2377,(8, 75),46	2423,(8, 78),28	
1,(0, 2),134	269,(0, 5),134	403,(3, 38),2	405,(3, 44),6	411,(3, 68),124	537,(0, 8),134	671,(6, 74),16	893,(7, 23),8	901,(7, 26),2	903,(7, 41),2	907,(7, 47),4	911,(7, 74),6	935,(1, 20),12	947,(1, 47),10	975,(1, 65),56	1031,(1, 77),14	1055,(4, 35),2	1073,(4, 50),16	
303,(2, 46),2	305,(2, 52),8	313,(2, 73),6	319,(11, 81),2	321,(59, 81),2	323,(3, 13),10	333,(3, 28),6	339,(3, 40),10	349,(3, 49),6	355,(3, 61),8	363,(12, 81),2	365,(33, 81),2	367,(21, 81),2	369,(24, 81),2	371,(30, 81),2	404,(5, 37),2	406,(5, 64),2	408,(5, 70),24	432,(56, 81),2	434,(62, 81),2	436,(80, 81),2	438,(38, 81),2	440,(44, 81),2	538,(6, 16),2	540,(6, 19),14	554,(6, 43),6	560,(6, 55),20	580,(6, 67),6	586,(6, 79),24	637,(5, 34),172	809,(68, 81),2	811,(8, 49),2	813,(8, 52),26	839,(14, 81),2	841,(32, 81),2	843,(53, 81),2	845,(17, 81),2	847,(29, 81),2	849,(71, 81),2	905,(23, 81),2	907,(57, 81),2	909,(45, 81),2	911,(26, 81),2	913,(41, 81),2	915,(48, 81),2	918,(74, 81),2	922,(10, 81),2	932,(15, 81),2	936,(18, 81),2	953,(20, 81),2	955,(72, 81),2	958,(47, 81),2	976,(51, 81),2	1039,(65, 81),2	1041,(36, 81),2	1046,(77, 81),2	1056,(27, 81),2	1058,(35, 81),2	1074,(42, 81),2	1084,(60, 81),2	1090,(50, 81),2	1094,(54, 81),2	1122,(66, 81),2	1572,(39, 81),2	2270,(63, 81),2	2378,(69, 81),2	2424,(75, 81),2	2452,(78, 81),2	
# Outgoing
323,(3, 13),10	333,(3, 28),6	339,(3, 40),10	349,(3, 49),6	355,(3, 61),8	363,(12, 81),2	365,(33, 81),2	367,(21, 81),2	369,(24, 81),2	371,(30, 81),2	403,(3, 38),2	405,(3, 44),6	411,(3, 68),124	538,(6, 16),2	540,(6, 19),14	554,(6, 43),6	560,(6, 55),20	580,(6, 67),6	586,(6, 79),24	671,(6, 74),16	907,(57, 81),2	909,(45, 81),2	915,(48, 81),2	922,(10, 81),2	932,(15, 81),2	936,(18, 81),2	955,(72, 81),2	976,(51, 81),2	1041,(36, 81),2	1056,(27, 81),2	1074,(42, 81),2	1084,(60, 81),2	1094,(54, 81),2	1122,(66, 81),2	1572,(39, 81),2	2270,(63, 81),2	2378,(69, 81),2	2424,(75, 81),2	2452,(78, 81),2	
269,(2, 10),34	303,(2, 46),2	305,(2, 52),8	313,(2, 73),6	319,(11, 81),2	321,(59, 81),2	404,(5, 37),2	406,(5, 64),2	408,(5, 70),24	432,(56, 81),2	434,(62, 81),2	436,(80, 81),2	438,(38, 81),2	440,(44, 81),2	537,(5, 27),100	637,(5, 34),172	809,(68, 81),2	811,(8, 49),2	813,(8, 52),26	839,(14, 81),2	841,(32, 81),2	843,(53, 81),2	845,(17, 81),2	847,(29, 81),2	849,(71, 81),2	893,(5, 57),12	905,(23, 81),2	907,(5, 66),2	909,(8, 48),2	911,(26, 81),2	913,(41, 81),2	918,(74, 81),2	935,(5, 72),18	953,(20, 81),2	958,(47, 81),2	975,(8, 36),64	1039,(65, 81),2	1046,(77, 81),2	1058,(35, 81),2	1073,(8, 60),10	1090,(50, 81),2	1121,(5, 39),450	1571,(5, 63),698	2269,(5, 69),108	2377,(8, 75),46	2423,(8, 78),28	
1,(0, 2),134	135,(0, 3),134	269,(0, 5),134	403,(0, 6),134	537,(0, 8),134	671,(7, 15),222	893,(7, 23),8	901,(7, 26),2	903,(7, 41),2	905,(7, 45),2	907,(7, 47),4	911,(7, 74),6	917,(1, 10),4	921,(1, 15),10	931,(1, 18),4	935,(1, 20),12	947,(1, 47),10	957,(1, 51),18	975,(1, 65),56	1031,(1, 77),14	1045,(4, 27),10	1055,(4, 35),2	1057,(4, 42),16	1073,(4, 50),16	1089,(4, 54),4	1093,(4, 66),28	
