5298
# CPU
217,4,1	218,32,1	219,40,1	220,44,1	221,12,1	229,52,1	257,68,1	273,64,1	334,20,1	350,28,1	354,80,1	433,8,1	434,48,1	435,56,1	436,72,1	465,76,1	525,24,1	741,16,1	805,36,1	1437,60,1	
145,3,1	146,11,1	147,23,1	148,43,1	149,47,1	150,19,1	153,27,1	241,67,1	361,7,1	362,31,1	363,39,1	364,51,1	385,55,1	437,71,1	441,59,1	597,79,1	741,63,1	801,35,1	817,75,1	1121,15,1	
73,2,1	289,6,1	290,34,1	291,42,1	405,54,1	421,66,1	433,10,1	465,14,1	469,18,1	701,30,1	705,46,1	709,26,1	713,38,1	717,74,1	769,70,1	773,78,1	797,22,1	957,62,1	1137,50,1	1177,58,1	
0,0,1	1,1,1	2,5,1	3,29,1	4,73,1	5,69,1	6,77,1	82,9,1	86,41,1	221,49,1	237,37,1	417,57,1	729,65,1	1545,61,1	2009,25,1	2761,13,1	2977,17,1	2981,21,1	2985,33,1	3089,45,1	3093,53,1	5297,81,1	
# Incoming
145,(0, 4),72	217,(3, 12),4	221,(2, 52),8	241,(2, 68),16	257,(3, 64),16	290,(6, 20),44	334,(6, 28),16	350,(6, 80),4	361,(0, 8),72	433,(6, 76),32	465,(1, 24),60	725,(7, 16),16	801,(5, 36),4	1337,(7, 60),100	
73,(0, 3),72	145,(2, 19),4	149,(2, 27),4	229,(2, 67),12	289,(0, 7),72	361,(6, 55),24	433,(4, 71),4	437,(8, 59),4	469,(4, 79),128	705,(1, 63),36	797,(5, 35),4	805,(5, 75),12	817,(6, 15),304	
1,(0, 2),72	217,(0, 6),72	289,(3, 54),116	405,(3, 66),16	421,(4, 10),12	433,(1, 14),32	465,(4, 18),4	525,(1, 30),176	701,(1, 46),4	705,(8, 26),4	709,(8, 38),4	713,(8, 74),4	741,(1, 70),28	769,(1, 78),4	773,(5, 22),24	797,(3, 62),160	1109,(7, 50),28	1137,(7, 58),40	
74,(2, 9),8	82,(2, 41),4	153,(2, 49),68	221,(3, 37),16	385,(6, 57),32	421,(11, 81),76	497,(23, 81),76	573,(43, 81),76	649,(47, 81),76	725,(4, 65),4	729,(32, 81),76	805,(40, 81),76	881,(44, 81),76	957,(19, 81),76	1033,(27, 81),76	1109,(12, 81),76	1185,(52, 81),76	1261,(67, 81),76	1337,(68, 81),76	1413,(64, 81),76	1489,(6, 61),56	1545,(34, 81),76	1621,(42, 81),76	1697,(20, 81),76	1773,(28, 81),76	1849,(80, 81),76	1925,(7, 25),84	2009,(31, 81),76	2085,(39, 81),76	2161,(51, 81),76	2237,(55, 81),76	2313,(54, 81),76	2389,(66, 81),76	2465,(8, 13),296	2761,(8, 17),216	2977,(8, 21),4	2981,(8, 33),4	2985,(8, 45),104	3089,(8, 53),4	3093,(10, 81),76	3169,(48, 81),76	3245,(56, 81),76	3321,(72, 81),76	3397,(71, 81),76	3473,(59, 81),76	3549,(76, 81),76	3625,(14, 81),76	3701,(18, 81),76	3777,(24, 81),76	3853,(79, 81),76	3929,(30, 81),76	4005,(46, 81),76	4081,(26, 81),76	4157,(38, 81),76	4233,(74, 81),76	4309,(16, 81),76	4385,(63, 81),76	4461,(70, 81),76	4537,(78, 81),76	4613,(22, 81),76	4689,(35, 81),76	4765,(36, 81),76	4841,(75, 81),76	4917,(62, 81),76	4993,(15, 81),76	5069,(50, 81),76	5145,(58, 81),76	5221,(60, 81),76	
# Outgoing
421,(4, 10),12	433,(4, 71),4	437,(8, 59),4	465,(4, 18),4	469,(4, 79),128	705,(8, 26),4	709,(8, 38),4	713,(8, 74),4	725,(4, 65),4	729,(32, 81),76	805,(40, 81),76	881,(44, 81),76	1109,(12, 81),76	1185,(52, 81),76	1337,(68, 81),76	1413,(64, 81),76	1697,(20, 81),76	1773,(28, 81),76	1849,(80, 81),76	2465,(8, 13),296	2761,(8, 17),216	2977,(8, 21),4	2981,(8, 33),4	2985,(8, 45),104	3089,(8, 53),4	3169,(48, 81),76	3245,(56, 81),76	3321,(72, 81),76	3549,(76, 81),76	3777,(24, 81),76	4309,(16, 81),76	4765,(36, 81),76	5221,(60, 81),76	
217,(3, 12),4	221,(3, 37),16	257,(3, 64),16	289,(3, 54),116	405,(3, 66),16	421,(11, 81),76	497,(23, 81),76	573,(43, 81),76	649,(47, 81),76	725,(7, 16),16	797,(3, 62),160	957,(19, 81),76	1033,(27, 81),76	1109,(7, 50),28	1137,(7, 58),40	1261,(67, 81),76	1337,(7, 60),100	1925,(7, 25),84	2009,(31, 81),76	2085,(39, 81),76	2161,(51, 81),76	2237,(55, 81),76	3397,(71, 81),76	3473,(59, 81),76	3853,(79, 81),76	4385,(63, 81),76	4689,(35, 81),76	4841,(75, 81),76	4993,(15, 81),76	
74,(2, 9),8	82,(2, 41),4	145,(2, 19),4	149,(2, 27),4	153,(2, 49),68	221,(2, 52),8	229,(2, 67),12	241,(2, 68),16	290,(6, 20),44	334,(6, 28),16	350,(6, 80),4	361,(6, 55),24	385,(6, 57),32	433,(6, 76),32	817,(6, 15),304	1489,(6, 61),56	1545,(34, 81),76	1621,(42, 81),76	2313,(54, 81),76	2389,(66, 81),76	3093,(10, 81),76	3625,(14, 81),76	3701,(18, 81),76	3929,(30, 81),76	4005,(46, 81),76	4081,(26, 81),76	4157,(38, 81),76	4233,(74, 81),76	4461,(70, 81),76	4537,(78, 81),76	4613,(22, 81),76	4917,(62, 81),76	5069,(50, 81),76	5145,(58, 81),76	
1,(0, 2),72	73,(0, 3),72	145,(0, 4),72	217,(0, 6),72	289,(0, 7),72	361,(0, 8),72	433,(1, 14),32	465,(1, 24),60	525,(1, 30),176	701,(1, 46),4	705,(1, 63),36	741,(1, 70),28	769,(1, 78),4	773,(5, 22),24	797,(5, 35),4	801,(5, 36),4	805,(5, 75),12	
