174
# CPU
0,0,1	1,3,1	2,30,1	3,62,1	4,69,1	5,8,1	6,10,1	7,16,1	8,60,1	9,46,1	10,70,1	11,58,1	12,64,1	13,54,1	14,2,1	15,14,1	16,80,1	17,28,1	18,76,1	19,36,1	20,29,1	21,67,1	22,7,1	23,22,1	24,55,1	25,20,1	26,74,1	27,51,1	28,71,1	29,5,1	30,21,1	31,65,1	32,18,1	33,17,1	34,27,1	35,41,1	36,61,1	37,42,1	38,4,1	39,78,1	40,26,1	41,79,1	42,24,1	43,25,1	44,33,1	45,9,1	46,77,1	47,63,1	48,43,1	49,45,1	50,1,1	51,68,1	52,12,1	53,38,1	54,59,1	55,15,1	56,39,1	57,40,1	58,37,1	59,66,1	60,11,1	61,47,1	62,44,1	63,31,1	64,32,1	65,53,1	66,13,1	67,23,1	68,73,1	69,50,1	101,57,1	149,19,1	173,81,1	
16,6,1	17,52,1	18,56,1	22,35,1	29,72,1	42,34,1	57,75,1	78,48,1	123,49,1	

# Incoming
17,(6, 53),3	20,(6, 13),3	23,(6, 23),3	26,(6, 73),6	32,(6, 50),33	65,(6, 57),36	101,(6, 19),48	149,(52, 81),3	152,(56, 81),3	155,(35, 81),3	158,(72, 81),3	161,(34, 81),3	164,(75, 81),3	167,(48, 81),3	170,(49, 81),3	
1,(0, 6),15	16,(3, 35),3	19,(2, 35),3	23,(7, 72),6	39,(4, 34),3	42,(5, 75),15	57,(4, 48),21	78,(5, 49),45	

# Outgoing
1,(0, 6),15	16,(3, 35),3	19,(2, 35),3	23,(7, 72),6	39,(4, 34),3	42,(5, 75),15	57,(4, 48),21	78,(5, 49),45	
17,(6, 53),3	20,(6, 13),3	23,(6, 23),3	26,(6, 73),6	32,(6, 50),33	65,(6, 57),36	101,(6, 19),48	149,(52, 81),3	152,(56, 81),3	155,(35, 81),3	158,(72, 81),3	161,(34, 81),3	164,(75, 81),3	167,(48, 81),3	170,(49, 81),3	

