1630
# CPU
25,2,6	31,18,6	37,25,6	43,94,6	49,75,6	55,104,6	61,46,6	67,54,6	73,59,6	79,98,6	85,49,6	91,102,6	97,97,6	103,6,6	109,8,6	115,99,6	121,84,6	127,92,6	133,69,6	139,76,6	145,28,6	151,64,6	157,67,6	163,112,6	169,58,6	175,79,6	181,17,6	187,56,6	193,24,6	199,66,6	205,60,6	625,42,6	661,47,6	675,93,6	681,110,6	915,88,6	933,90,6	971,107,6	1133,95,6	1143,83,6	
49,4,6	55,21,6	61,45,6	67,68,6	73,89,6	79,62,6	121,9,6	127,13,6	133,39,6	139,111,6	145,63,6	151,80,6	157,87,6	163,72,6	169,73,6	175,10,6	181,20,6	187,119,6	193,23,6	199,36,6	205,105,6	211,55,6	217,26,6	223,33,6	621,41,6	627,44,6	633,57,6	673,91,6	697,14,6	951,101,6	1019,114,6	1025,118,6	1123,65,6	1129,77,6	1135,82,6	1141,70,6	1147,106,6	1285,50,6	1327,30,6	1583,38,6	1629,121,1	
0,0,1	1,12,6	7,11,6	13,5,6	19,3,6	25,7,6	31,1,6	37,117,6	43,27,6	49,22,6	55,19,6	61,109,6	67,108,6	73,78,6	79,116,6	85,74,6	91,71,6	97,35,6	103,103,6	109,29,6	115,120,6	121,16,6	127,96,6	133,85,6	139,31,6	145,34,6	151,115,6	157,81,6	163,53,6	169,15,6	175,32,6	181,43,6	187,48,6	193,51,6	199,52,6	205,86,6	211,100,6	217,37,6	223,40,6	229,61,6	235,113,6	
# Incoming
1,(0, 2),24	49,(0, 6),24	73,(0, 8),24	97,(4, 99),4	129,(9, 66),2	183,(10, 60),4	189,(10, 83),6	621,(12, 42),4	627,(12, 47),34	673,(12, 93),2	675,(12, 110),2	903,(11, 83),2	905,(11, 88),10	915,(11, 90),18	951,(11, 107),20	1131,(3, 95),2	1139,(7, 83),4	
25,(0, 4),24	49,(18, 121),2	51,(25, 121),2	53,(94, 121),2	55,(75, 121),2	61,(104, 121),2	67,(46, 121),2	73,(54, 121),2	79,(59, 121),2	85,(98, 121),2	91,(49, 121),2	97,(0, 9),24	121,(0, 10),24	145,(12, 41),476	621,(102, 121),2	623,(97, 121),2	625,(12, 44),2	627,(6, 57),6	633,(99, 121),2	635,(84, 121),2	637,(92, 121),2	639,(69, 121),2	641,(76, 121),2	643,(28, 121),2	645,(64, 121),2	647,(67, 121),2	649,(112, 121),2	651,(58, 121),2	653,(79, 121),2	655,(17, 121),2	657,(56, 121),2	659,(24, 121),2	661,(12, 91),12	673,(66, 121),2	675,(60, 121),2	677,(12, 114),4	681,(11, 14),16	697,(11, 70),134	831,(11, 77),72	903,(42, 121),2	905,(47, 121),2	907,(93, 121),2	909,(110, 121),2	921,(88, 121),2	933,(11, 101),18	951,(90, 121),2	971,(11, 114),48	1019,(11, 118),4	1023,(5, 50),84	1107,(5, 65),16	1123,(5, 77),2	1125,(3, 82),6	1131,(107, 121),2	1133,(7, 70),6	1139,(95, 121),2	1143,(7, 106),2	1145,(117, 121),2	1147,(27, 121),2	1149,(22, 121),2	1151,(19, 121),2	1153,(109, 121),2	1155,(108, 121),2	1157,(78, 121),2	1159,(116, 121),2	1161,(74, 121),2	1163,(71, 121),2	1165,(35, 121),2	1167,(6, 50),118	1285,(103, 121),2	1287,(8, 30),40	1327,(8, 38),256	1583,(29, 121),2	1585,(120, 121),2	1587,(16, 121),2	1589,(96, 121),2	1591,(85, 121),2	1593,(31, 121),2	1595,(34, 121),2	1597,(115, 121),2	1599,(81, 121),2	1601,(53, 121),2	1603,(15, 121),2	1605,(32, 121),2	1607,(43, 121),2	1609,(48, 121),2	1611,(51, 121),2	1613,(52, 121),2	1615,(86, 121),2	1617,(100, 121),2	1619,(37, 121),2	1621,(40, 121),2	1623,(61, 121),2	1625,(113, 121),2	1627,(83, 121),2	
55,(4, 37),2	115,(8, 51),2	117,(8, 52),2	119,(8, 86),2	121,(8, 100),2	127,(9, 37),2	181,(10, 40),2	187,(10, 61),2	195,(10, 113),6	
# Outgoing
49,(18, 121),2	51,(25, 121),2	53,(94, 121),2	55,(75, 121),2	61,(104, 121),2	67,(46, 121),2	73,(54, 121),2	79,(59, 121),2	85,(98, 121),2	91,(49, 121),2	115,(8, 51),2	117,(8, 52),2	119,(8, 86),2	121,(8, 100),2	621,(102, 121),2	623,(97, 121),2	627,(6, 57),6	633,(99, 121),2	635,(84, 121),2	637,(92, 121),2	639,(69, 121),2	641,(76, 121),2	643,(28, 121),2	645,(64, 121),2	647,(67, 121),2	649,(112, 121),2	651,(58, 121),2	653,(79, 121),2	655,(17, 121),2	657,(56, 121),2	659,(24, 121),2	673,(66, 121),2	675,(60, 121),2	903,(42, 121),2	905,(47, 121),2	907,(93, 121),2	909,(110, 121),2	921,(88, 121),2	951,(90, 121),2	1131,(107, 121),2	1139,(95, 121),2	1167,(6, 50),118	1287,(8, 30),40	1327,(8, 38),256	1627,(83, 121),2	
55,(4, 37),2	97,(4, 99),4	127,(9, 37),2	129,(9, 66),2	181,(10, 40),2	183,(10, 60),4	187,(10, 61),2	189,(10, 83),6	195,(10, 113),6	
1,(0, 2),24	25,(0, 4),24	49,(0, 6),24	73,(0, 8),24	97,(0, 9),24	121,(0, 10),24	145,(12, 41),476	621,(12, 42),4	625,(12, 44),2	627,(12, 47),34	661,(12, 91),12	673,(12, 93),2	675,(12, 110),2	677,(12, 114),4	681,(11, 14),16	697,(11, 70),134	831,(11, 77),72	903,(11, 83),2	905,(11, 88),10	915,(11, 90),18	933,(11, 101),18	951,(11, 107),20	971,(11, 114),48	1019,(11, 118),4	1023,(5, 50),84	1107,(5, 65),16	1123,(5, 77),2	1125,(3, 82),6	1131,(3, 95),2	1133,(7, 70),6	1139,(7, 83),4	1143,(7, 106),2	1145,(117, 121),2	1147,(27, 121),2	1149,(22, 121),2	1151,(19, 121),2	1153,(109, 121),2	1155,(108, 121),2	1157,(78, 121),2	1159,(116, 121),2	1161,(74, 121),2	1163,(71, 121),2	1165,(35, 121),2	1285,(103, 121),2	1583,(29, 121),2	1585,(120, 121),2	1587,(16, 121),2	1589,(96, 121),2	1591,(85, 121),2	1593,(31, 121),2	1595,(34, 121),2	1597,(115, 121),2	1599,(81, 121),2	1601,(53, 121),2	1603,(15, 121),2	1605,(32, 121),2	1607,(43, 121),2	1609,(48, 121),2	1611,(51, 121),2	1613,(52, 121),2	1615,(86, 121),2	1617,(100, 121),2	1619,(37, 121),2	1621,(40, 121),2	1623,(61, 121),2	1625,(113, 121),2	
