2806
# CPU
0,201,1	1,115,5	6,137,5	11,79,5	16,124,5	21,98,5	26,165,5	31,122,5	36,145,5	41,169,5	46,54,5	51,34,5	56,32,5	61,129,5	66,195,5	71,40,5	76,125,5	81,182,5	86,29,5	91,176,5	96,108,5	101,45,5	106,63,5	111,62,5	116,91,5	121,110,5	126,139,5	131,102,5	136,84,5	141,156,5	146,61,5	151,178,5	156,23,5	161,196,5	166,132,5	171,128,5	176,83,5	181,28,5	186,180,5	191,106,5	196,144,5	201,81,5	206,82,5	211,35,5	216,90,5	221,198,5	226,42,5	231,94,5	236,188,5	241,26,5	246,140,5	251,39,5	256,117,5	261,177,5	266,148,5	271,155,5	276,22,5	281,107,5	286,134,5	291,187,5	296,179,5	301,100,5	306,97,5	311,154,5	316,49,5	321,67,5	326,74,5	331,105,5	336,111,5	341,114,5	346,130,5	351,197,5	356,147,5	361,36,5	366,59,5	371,43,5	376,71,5	381,170,5	386,174,5	391,31,5	396,53,5	401,119,5	406,133,5	411,146,5	416,175,5	421,185,5	426,135,5	431,113,5	436,127,5	441,159,5	446,120,5	451,121,5	456,163,5	461,161,5	466,55,5	471,72,5	476,160,5	481,116,5	486,37,5	491,181,5	496,95,5	501,33,5	506,46,5	511,66,5	516,21,5	521,141,5	526,199,5	531,191,5	536,173,5	541,190,5	546,189,5	551,70,5	556,60,5	561,168,5	566,126,5	571,167,5	576,73,5	581,87,5	586,143,5	591,47,5	596,101,5	601,89,5	606,150,5	611,96,5	616,172,5	621,69,5	626,24,5	631,186,5	636,118,5	641,142,5	646,68,5	651,64,5	656,149,5	661,194,5	666,184,5	671,78,5	676,56,5	681,27,5	686,123,5	691,152,5	696,93,5	701,192,5	706,25,5	711,103,5	716,77,5	721,151,5	726,92,5	731,104,5	736,52,5	741,51,5	746,50,5	751,162,5	756,86,5	761,131,5	766,138,5	771,58,5	776,85,5	781,75,5	786,157,5	791,44,5	796,17,5	801,3,5	806,6,5	811,20,5	816,16,5	821,9,5	826,14,5	831,19,5	836,7,5	906,11,5	1000,4,5	1122,12,5	1244,13,5	1366,18,5	1488,10,5	1636,5,5	2774,8,5	
39,164,5	77,109,5	115,57,5	153,80,5	191,166,5	229,200,5	267,153,5	305,99,5	343,183,5	381,76,5	419,41,5	457,48,5	495,38,5	533,88,5	571,171,5	609,158,5	647,112,5	685,65,5	723,30,5	761,193,5	799,136,5	995,1,5	1455,2,5	1967,15,5	2805,0,1	
# Incoming
614,(158, 3),2	616,(57, 6),8	624,(80, 6),2	626,(200, 20),16	642,(99, 20),4	646,(183, 16),26	672,(109, 9),6	678,(200, 9),4	682,(41, 9),24	706,(164, 14),2	708,(80, 14),10	718,(41, 14),26	744,(80, 19),4	748,(183, 19),20	768,(76, 19),2	770,(38, 19),12	782,(80, 7),4	786,(76, 7),30	816,(158, 7),8	824,(99, 11),24	848,(38, 11),54	902,(30, 11),2	904,(136, 11),2	906,(57, 4),2	908,(183, 4),8	916,(76, 4),10	926,(171, 4),72	998,(65, 4),2	1000,(200, 12),16	1016,(48, 12),44	1060,(88, 12),2	1062,(171, 12),54	1116,(193, 12),6	1122,(65, 13),122	1244,(48, 18),36	1280,(158, 18),74	1354,(30, 18),12	1366,(200, 10),2	1368,(76, 10),4	1372,(112, 10),106	1478,(30, 10),10	1488,(166, 5),2	1490,(158, 5),80	1570,(65, 5),66	1636,(76, 8),26	1662,(41, 8),34	1696,(48, 8),2	1698,(136, 8),1076	
1,(201, 164),38	39,(201, 109),38	77,(201, 57),38	115,(201, 80),38	153,(201, 166),38	191,(201, 200),38	229,(201, 153),38	267,(201, 99),38	305,(201, 183),38	343,(201, 76),38	381,(201, 41),38	419,(201, 48),38	457,(201, 38),38	495,(201, 88),38	533,(201, 171),38	571,(201, 158),38	609,(201, 112),38	647,(201, 65),38	685,(201, 30),38	723,(201, 193),38	761,(201, 136),38	799,(137, 1),2	801,(125, 1),6	807,(156, 1),8	815,(23, 1),2	817,(196, 1),10	827,(132, 1),10	837,(35, 1),2	839,(179, 1),4	843,(174, 1),4	847,(31, 1),10	857,(191, 1),2	859,(184, 1),14	873,(56, 1),120	993,(25, 1),2	995,(98, 2),2	997,(62, 2),2	999,(84, 2),8	1007,(61, 2),10	1017,(23, 2),6	1023,(198, 2),14	1037,(188, 2),16	1053,(177, 2),16	1069,(97, 2),12	1081,(170, 2),30	1111,(159, 2),34	1145,(163, 2),2	1147,(72, 2),6	1153,(160, 2),46	1199,(181, 2),8	1207,(21, 2),2	1209,(189, 2),2	1211,(150, 2),80	1291,(149, 2),8	1299,(194, 2),16	1315,(184, 2),104	1419,(152, 2),36	1455,(79, 15),2	1457,(29, 15),6	1463,(144, 15),2	1465,(39, 15),16	1481,(179, 15),4	1485,(147, 15),22	1507,(185, 15),2	1509,(72, 15),12	1521,(116, 15),22	1543,(168, 15),8	1551,(126, 15),10	1561,(101, 15),2	1563,(150, 15),10	1573,(96, 15),2	1575,(24, 15),2	1577,(68, 15),16	1593,(194, 15),116	1709,(184, 15),14	1723,(123, 15),50	1773,(151, 15),154	1927,(157, 15),40	1967,(17, 0),26	1993,(3, 0),26	2019,(6, 0),26	2045,(20, 0),26	2071,(16, 0),26	2097,(9, 0),26	2123,(14, 0),26	2149,(19, 0),26	2175,(7, 0),26	2201,(11, 0),26	2227,(4, 0),26	2253,(12, 0),26	2279,(13, 0),26	2305,(18, 0),26	2331,(10, 0),26	2357,(5, 0),26	2779,(8, 0),26	
# Outgoing
1,(201, 164),38	39,(201, 109),38	77,(201, 57),38	115,(201, 80),38	153,(201, 166),38	191,(201, 200),38	229,(201, 153),38	267,(201, 99),38	305,(201, 183),38	343,(201, 76),38	381,(201, 41),38	419,(201, 48),38	457,(201, 38),38	495,(201, 88),38	533,(201, 171),38	571,(201, 158),38	609,(201, 112),38	647,(201, 65),38	685,(201, 30),38	723,(201, 193),38	761,(201, 136),38	799,(137, 1),2	801,(125, 1),6	807,(156, 1),8	815,(23, 1),2	817,(196, 1),10	827,(132, 1),10	837,(35, 1),2	839,(179, 1),4	843,(174, 1),4	847,(31, 1),10	857,(191, 1),2	859,(184, 1),14	873,(56, 1),120	993,(25, 1),2	995,(98, 2),2	997,(62, 2),2	999,(84, 2),8	1007,(61, 2),10	1017,(23, 2),6	1023,(198, 2),14	1037,(188, 2),16	1053,(177, 2),16	1069,(97, 2),12	1081,(170, 2),30	1111,(159, 2),34	1145,(163, 2),2	1147,(72, 2),6	1153,(160, 2),46	1199,(181, 2),8	1207,(21, 2),2	1209,(189, 2),2	1211,(150, 2),80	1291,(149, 2),8	1299,(194, 2),16	1315,(184, 2),104	1419,(152, 2),36	1455,(79, 15),2	1457,(29, 15),6	1463,(144, 15),2	1465,(39, 15),16	1481,(179, 15),4	1485,(147, 15),22	1507,(185, 15),2	1509,(72, 15),12	1521,(116, 15),22	1543,(168, 15),8	1551,(126, 15),10	1561,(101, 15),2	1563,(150, 15),10	1573,(96, 15),2	1575,(24, 15),2	1577,(68, 15),16	1593,(194, 15),116	1709,(184, 15),14	1723,(123, 15),50	1773,(151, 15),154	1927,(157, 15),40	1967,(17, 0),26	1993,(3, 0),26	2019,(6, 0),26	2045,(20, 0),26	2071,(16, 0),26	2097,(9, 0),26	2123,(14, 0),26	2149,(19, 0),26	2175,(7, 0),26	2201,(11, 0),26	2227,(4, 0),26	2253,(12, 0),26	2279,(13, 0),26	2305,(18, 0),26	2331,(10, 0),26	2357,(5, 0),26	2779,(8, 0),26	
614,(158, 3),2	616,(57, 6),8	624,(80, 6),2	626,(200, 20),16	642,(99, 20),4	646,(183, 16),26	672,(109, 9),6	678,(200, 9),4	682,(41, 9),24	706,(164, 14),2	708,(80, 14),10	718,(41, 14),26	744,(80, 19),4	748,(183, 19),20	768,(76, 19),2	770,(38, 19),12	782,(80, 7),4	786,(76, 7),30	816,(158, 7),8	824,(99, 11),24	848,(38, 11),54	902,(30, 11),2	904,(136, 11),2	906,(57, 4),2	908,(183, 4),8	916,(76, 4),10	926,(171, 4),72	998,(65, 4),2	1000,(200, 12),16	1016,(48, 12),44	1060,(88, 12),2	1062,(171, 12),54	1116,(193, 12),6	1122,(65, 13),122	1244,(48, 18),36	1280,(158, 18),74	1354,(30, 18),12	1366,(200, 10),2	1368,(76, 10),4	1372,(112, 10),106	1478,(30, 10),10	1488,(166, 5),2	1490,(158, 5),80	1570,(65, 5),66	1636,(76, 8),26	1662,(41, 8),34	1696,(48, 8),2	1698,(136, 8),1076	
