4184
# CPU
49,5,1	70,115,1	97,10,1	98,105,1	145,15,1	146,70,1	148,130,1	166,150,1	172,60,1	175,190,1	193,20,1	319,160,1	403,140,1	643,85,1	760,125,1	766,170,1	787,185,1	790,30,1	835,35,1	952,175,1	973,180,1	1126,165,1	1147,200,1	1219,100,1	1222,145,1	1243,50,1	1255,65,1	1273,120,1	1618,55,1	1708,135,1	1729,95,1	1798,110,1	1852,195,1	1936,40,1	2413,80,1	2506,155,1	3040,25,1	3049,75,1	3058,90,1	3610,45,1	
37,4,1	38,74,1	39,199,1	85,9,1	133,14,1	134,64,1	142,94,1	145,169,1	154,29,1	160,59,1	163,109,1	169,149,1	181,19,1	182,119,1	184,84,1	187,124,1	190,69,1	1624,24,1	1627,39,1	1798,164,1	1834,139,1	1864,189,1	1903,44,1	1939,154,1	1987,49,1	2053,99,1	2086,104,1	2110,54,1	2116,129,1	2125,179,1	2131,184,1	2164,194,1	2524,159,1	2824,34,1	2869,134,1	2887,144,1	3031,114,1	3052,79,1	3055,89,1	3265,174,1	
25,3,1	26,68,1	73,8,1	74,88,1	121,13,1	122,138,1	123,148,1	130,83,1	142,33,1	145,103,1	157,48,1	169,18,1	187,173,1	190,198,1	196,23,1	208,133,1	262,143,1	286,178,1	289,38,1	439,58,1	460,153,1	499,63,1	1051,73,1	1261,188,1	1720,43,1	1741,98,1	1813,113,1	1843,163,1	2467,108,1	2473,118,1	2488,123,1	2521,158,1	2737,28,1	2836,53,1	2863,78,1	2890,168,1	2962,193,1	3106,93,1	3130,128,1	3271,183,1	
13,2,1	14,157,1	61,7,1	62,192,1	109,12,1	110,152,1	112,147,1	115,22,1	157,17,1	158,137,1	196,92,1	238,127,1	244,47,1	454,77,1	841,42,1	919,97,1	1126,177,1	1219,82,1	1240,87,1	1342,132,1	1393,72,1	1438,162,1	1609,37,1	1705,107,1	1753,122,1	1777,182,1	1912,32,1	2374,197,1	2470,112,1	2575,167,1	2728,187,1	2830,52,1	2842,57,1	2857,67,1	3043,27,1	3121,102,1	3127,117,1	3208,142,1	3214,172,1	4177,62,1	
0,0,1	1,16,1	2,11,1	3,1,1	4,6,1	5,106,1	6,61,1	7,186,1	8,41,1	9,21,1	10,56,1	127,51,1	148,131,1	160,71,1	175,136,1	337,141,1	364,196,1	517,76,1	682,101,1	712,191,1	784,96,1	874,161,1	985,111,1	1006,116,1	1009,171,1	1138,36,1	1177,26,1	1261,46,1	1270,156,1	1330,166,1	1333,176,1	1345,151,1	1579,181,1	1600,31,1	1633,86,1	1669,146,1	1723,91,1	1726,121,1	1774,81,1	1858,126,1	2998,66,1	4183,201,1	
# Incoming
37,(0, 5),12	64,(2, 75),3	67,(2, 115),3	70,(2, 135),3	85,(0, 10),12	97,(2, 190),30	127,(7, 35),3	133,(0, 15),12	145,(3, 130),3	148,(3, 150),18	166,(7, 60),6	172,(3, 190),3	175,(7, 165),6	181,(0, 20),12	193,(3, 160),126	319,(4, 80),78	397,(4, 140),6	403,(4, 165),66	469,(7, 30),99	568,(7, 85),75	643,(7, 110),63	706,(7, 125),54	760,(7, 170),6	766,(7, 175),9	775,(7, 185),12	787,(12, 30),3	796,(12, 35),39	835,(12, 65),3	874,(12, 175),78	970,(12, 180),3	1051,(17, 55),18	1069,(17, 90),39	1108,(17, 165),18	1126,(8, 200),21	1147,(17, 100),72	1219,(14, 145),3	1222,(19, 40),9	1231,(19, 50),12	1243,(19, 65),12	1261,(13, 120),12	1609,(18, 55),9	1705,(18, 135),3	1720,(16, 95),9	1744,(16, 110),54	1846,(16, 195),6	1912,(11, 40),24	2410,(11, 80),3	2503,(11, 155),3	2962,(6, 25),78	3043,(6, 75),6	3055,(6, 90),3	3058,(12, 45),552	
25,(0, 4),12	37,(2, 24),27	73,(0, 9),12	121,(0, 14),12	133,(3, 79),6	139,(3, 94),3	142,(3, 169),3	145,(12, 29),9	154,(15, 59),6	160,(15, 109),3	163,(12, 129),3	166,(15, 149),3	169,(0, 19),12	181,(8, 84),3	184,(8, 124),3	187,(13, 69),3	190,(13, 159),3	196,(16, 24),1428	1624,(16, 39),3	1627,(2, 99),45	1672,(5, 164),126	1798,(12, 159),12	1810,(18, 104),3	1813,(16, 139),21	1834,(5, 189),30	1864,(7, 44),39	1903,(7, 154),36	1939,(8, 34),30	1969,(8, 49),18	1987,(8, 99),66	2053,(10, 104),33	2086,(13, 114),6	2092,(15, 54),18	2110,(18, 129),6	2116,(18, 179),9	2125,(18, 184),6	2131,(18, 194),33	2413,(11, 89),45	2521,(11, 159),3	2737,(1, 34),87	2863,(1, 134),6	2869,(1, 144),18	2998,(15, 114),33	3049,(6, 79),3	3052,(6, 89),3	3214,(6, 174),51	
13,(0, 3),12	61,(0, 8),12	73,(2, 113),9	82,(2, 153),3	85,(5, 53),21	109,(0, 13),12	121,(5, 83),9	130,(7, 43),9	139,(4, 33),3	142,(7, 103),3	145,(10, 173),6	154,(12, 48),3	157,(0, 18),12	172,(12, 63),3	181,(12, 123),3	184,(12, 173),3	187,(17, 198),3	193,(16, 23),3	196,(4, 133),12	208,(7, 143),54	262,(7, 178),24	286,(9, 38),3	289,(9, 108),12	301,(19, 128),18	391,(10, 163),36	427,(15, 58),12	454,(15, 153),6	469,(20, 63),30	703,(4, 183),294	997,(12, 73),54	1219,(17, 188),42	1627,(16, 43),93	1729,(16, 98),12	1741,(16, 108),3	1798,(16, 113),15	1834,(16, 163),9	1936,(11, 78),474	2458,(11, 108),9	2470,(11, 118),3	2473,(11, 123),15	2506,(11, 158),15	2731,(1, 28),6	2830,(1, 53),6	2857,(1, 78),6	2887,(1, 168),3	2890,(1, 193),72	3058,(6, 93),48	3127,(6, 128),3	3265,(6, 183),6	
1,(0, 2),12	49,(0, 7),12	97,(0, 12),12	109,(5, 147),3	112,(10, 22),3	130,(10, 122),9	145,(0, 17),12	157,(4, 27),36	193,(4, 92),3	208,(15, 62),21	229,(4, 187),6	235,(20, 127),3	241,(9, 47),3	244,(9, 117),6	250,(14, 37),18	268,(14, 197),3	319,(13, 97),12	337,(5, 187),54	439,(15, 77),15	460,(15, 187),9	469,(4, 182),234	703,(8, 42),138	841,(8, 97),78	919,(8, 177),207	1138,(14, 82),81	1219,(20, 87),21	1273,(13, 132),69	1342,(19, 57),21	1363,(19, 72),30	1393,(20, 162),45	1600,(18, 37),9	1633,(18, 107),72	1726,(18, 122),27	1753,(18, 182),24	1843,(16, 167),3	1852,(11, 32),60	2164,(18, 197),210	2467,(11, 112),3	2488,(11, 142),15	2524,(11, 167),51	2575,(11, 187),153	2728,(1, 27),3	2824,(1, 52),6	2836,(1, 57),6	2842,(1, 67),15	3040,(6, 27),3	3106,(6, 102),15	3121,(6, 117),6	3130,(6, 142),78	3208,(6, 172),6	3214,(14, 62),963	
85,(157, 201),3	88,(3, 36),36	124,(3, 51),3	127,(3, 121),6	133,(4, 26),6	139,(5, 76),3	142,(4, 76),3	145,(4, 131),3	148,(4, 136),9	157,(7, 71),3	160,(192, 201),3	163,(115, 201),3	166,(3, 181),6	172,(10, 136),3	175,(68, 201),3	178,(5, 86),24	202,(10, 161),3	205,(105, 201),3	208,(4, 146),9	217,(4, 151),12	229,(70, 201),3	232,(130, 201),3	235,(74, 201),3	238,(199, 201),3	241,(5, 141),96	337,(7, 196),27	364,(8, 66),63	427,(8, 76),90	517,(8, 81),12	529,(8, 101),153	682,(8, 111),3	685,(88, 201),3	688,(10, 81),9	697,(10, 191),15	712,(15, 26),15	727,(15, 91),12	739,(150, 201),3	742,(60, 201),3	745,(190, 201),3	748,(20, 96),36	784,(160, 201),3	787,(140, 201),3	790,(12, 31),6	796,(20, 176),21	817,(85, 201),3	820,(125, 201),3	823,(170, 201),3	826,(185, 201),3	829,(30, 201),3	838,(12, 161),36	874,(35, 201),3	952,(12, 176),18	970,(175, 201),3	973,(152, 201),3	976,(147, 201),3	979,(22, 201),3	982,(17, 111),3	985,(137, 201),3	988,(92, 201),3	991,(127, 201),3	994,(47, 201),3	997,(9, 116),9	1006,(9, 171),3	1009,(14, 36),129	1138,(77, 201),3	1141,(42, 201),3	1144,(97, 201),3	1147,(13, 26),30	1177,(13, 46),84	1261,(14, 156),9	1270,(64, 201),3	1273,(94, 201),3	1276,(169, 201),3	1279,(29, 201),3	1282,(17, 66),36	1318,(59, 201),3	1321,(109, 201),3	1324,(149, 201),3	1327,(19, 166),3	1330,(19, 176),3	1333,(19, 181),3	1336,(119, 201),3	1339,(84, 201),3	1342,(13, 151),3	1345,(13, 181),234	1579,(138, 201),3	1582,(148, 201),3	1585,(83, 201),3	1588,(33, 201),3	1591,(103, 201),3	1594,(48, 201),3	1597,(18, 31),3	1600,(124, 201),3	1603,(69, 201),3	1606,(180, 201),3	1609,(177, 201),3	1612,(165, 201),3	1615,(200, 201),3	1618,(18, 86),15	1633,(19, 146),36	1669,(100, 201),3	1672,(17, 91),51	1723,(18, 121),3	1726,(19, 81),48	1774,(19, 126),84	1858,(173, 201),3	1861,(198, 201),3	1864,(23, 201),3	1867,(133, 201),3	1870,(143, 201),3	1873,(178, 201),3	1876,(38, 201),3	1879,(58, 201),3	1882,(153, 201),3	1885,(63, 201),3	1888,(73, 201),3	1891,(145, 201),3	1894,(50, 201),3	1897,(65, 201),3	1900,(188, 201),3	1903,(120, 201),3	1906,(55, 201),3	1909,(24, 201),3	1912,(39, 201),3	1915,(135, 201),3	1918,(43, 201),3	1921,(95, 201),3	1924,(98, 201),3	1927,(164, 201),3	1930,(110, 201),3	1933,(113, 201),3	1936,(139, 201),3	1939,(82, 201),3	1942,(87, 201),3	1945,(132, 201),3	1948,(72, 201),3	1951,(162, 201),3	1954,(37, 201),3	1957,(107, 201),3	1960,(122, 201),3	1963,(182, 201),3	1966,(195, 201),3	1969,(189, 201),3	1972,(44, 201),3	1975,(32, 201),3	1978,(40, 201),3	1981,(154, 201),3	1988,(49, 201),3	2053,(163, 201),3	2056,(99, 201),3	2087,(104, 201),3	2110,(15, 66),888	2998,(54, 201),3	3001,(129, 201),3	3004,(179, 201),3	3007,(184, 201),3	3010,(194, 201),3	3013,(197, 201),3	3016,(108, 201),3	3019,(112, 201),3	3022,(118, 201),3	3025,(123, 201),3	3028,(158, 201),3	3031,(80, 201),3	3034,(155, 201),3	3037,(159, 201),3	3040,(167, 201),3	3043,(187, 201),3	3046,(28, 201),3	3049,(34, 201),3	3052,(52, 201),3	3055,(53, 201),3	3058,(78, 201),3	3061,(134, 201),3	3064,(144, 201),3	3067,(168, 201),3	3070,(193, 201),3	3073,(114, 201),3	3076,(25, 201),3	3079,(75, 201),3	3082,(79, 201),3	3085,(89, 201),3	3088,(90, 201),3	3107,(93, 201),3	3131,(128, 201),3	3272,(183, 201),3	3610,(57, 201),3	3613,(67, 201),3	3616,(27, 201),3	3619,(102, 201),3	3622,(117, 201),3	3625,(142, 201),3	3628,(172, 201),3	3631,(45, 201),3	4177,(174, 201),3	4180,(62, 201),3	
# Outgoing
85,(5, 53),21	109,(5, 147),3	112,(10, 22),3	121,(5, 83),9	130,(10, 122),9	139,(5, 76),3	145,(10, 173),6	154,(15, 59),6	160,(15, 109),3	163,(115, 201),3	166,(15, 149),3	172,(10, 136),3	178,(5, 86),24	202,(10, 161),3	205,(105, 201),3	208,(15, 62),21	229,(70, 201),3	232,(130, 201),3	235,(20, 127),3	241,(5, 141),96	337,(5, 187),54	391,(10, 163),36	427,(15, 58),12	439,(15, 77),15	454,(15, 153),6	460,(15, 187),9	469,(20, 63),30	688,(10, 81),9	697,(10, 191),15	712,(15, 26),15	727,(15, 91),12	739,(150, 201),3	742,(60, 201),3	745,(190, 201),3	748,(20, 96),36	784,(160, 201),3	787,(140, 201),3	796,(20, 176),21	817,(85, 201),3	820,(125, 201),3	823,(170, 201),3	826,(185, 201),3	829,(30, 201),3	874,(35, 201),3	970,(175, 201),3	1219,(20, 87),21	1393,(20, 162),45	1606,(180, 201),3	1612,(165, 201),3	1615,(200, 201),3	1669,(100, 201),3	1672,(5, 164),126	1834,(5, 189),30	1891,(145, 201),3	1894,(50, 201),3	1897,(65, 201),3	1903,(120, 201),3	1906,(55, 201),3	1915,(135, 201),3	1921,(95, 201),3	1930,(110, 201),3	1966,(195, 201),3	1978,(40, 201),3	2053,(10, 104),33	2092,(15, 54),18	2110,(15, 66),888	2998,(15, 114),33	3031,(80, 201),3	3034,(155, 201),3	3076,(25, 201),3	3079,(75, 201),3	3088,(90, 201),3	3631,(45, 201),3	
133,(4, 26),6	139,(4, 33),3	142,(4, 76),3	145,(4, 131),3	148,(4, 136),9	157,(4, 27),36	193,(4, 92),3	196,(4, 133),12	208,(4, 146),9	217,(4, 151),12	229,(4, 187),6	235,(74, 201),3	238,(199, 201),3	241,(9, 47),3	244,(9, 117),6	250,(14, 37),18	268,(14, 197),3	286,(9, 38),3	289,(9, 108),12	301,(19, 128),18	319,(4, 80),78	397,(4, 140),6	403,(4, 165),66	469,(4, 182),234	703,(4, 183),294	997,(9, 116),9	1006,(9, 171),3	1009,(14, 36),129	1138,(14, 82),81	1219,(14, 145),3	1222,(19, 40),9	1231,(19, 50),12	1243,(19, 65),12	1261,(14, 156),9	1270,(64, 201),3	1273,(94, 201),3	1276,(169, 201),3	1279,(29, 201),3	1318,(59, 201),3	1321,(109, 201),3	1324,(149, 201),3	1327,(19, 166),3	1330,(19, 176),3	1333,(19, 181),3	1336,(119, 201),3	1339,(84, 201),3	1342,(19, 57),21	1363,(19, 72),30	1600,(124, 201),3	1603,(69, 201),3	1633,(19, 146),36	1726,(19, 81),48	1774,(19, 126),84	1909,(24, 201),3	1912,(39, 201),3	1927,(164, 201),3	1936,(139, 201),3	1969,(189, 201),3	1972,(44, 201),3	1981,(154, 201),3	1988,(49, 201),3	2056,(99, 201),3	2087,(104, 201),3	2998,(54, 201),3	3001,(129, 201),3	3004,(179, 201),3	3007,(184, 201),3	3010,(194, 201),3	3037,(159, 201),3	3049,(34, 201),3	3061,(134, 201),3	3064,(144, 201),3	3073,(114, 201),3	3082,(79, 201),3	3085,(89, 201),3	3214,(14, 62),963	4177,(174, 201),3	
88,(3, 36),36	124,(3, 51),3	127,(3, 121),6	133,(3, 79),6	139,(3, 94),3	142,(3, 169),3	145,(3, 130),3	148,(3, 150),18	166,(3, 181),6	172,(3, 190),3	175,(68, 201),3	181,(8, 84),3	184,(8, 124),3	187,(13, 69),3	190,(13, 159),3	193,(3, 160),126	319,(13, 97),12	364,(8, 66),63	427,(8, 76),90	517,(8, 81),12	529,(8, 101),153	682,(8, 111),3	685,(88, 201),3	703,(8, 42),138	841,(8, 97),78	919,(8, 177),207	1126,(8, 200),21	1147,(13, 26),30	1177,(13, 46),84	1261,(13, 120),12	1273,(13, 132),69	1342,(13, 151),3	1345,(13, 181),234	1579,(138, 201),3	1582,(148, 201),3	1585,(83, 201),3	1588,(33, 201),3	1591,(103, 201),3	1594,(48, 201),3	1597,(18, 31),3	1600,(18, 37),9	1609,(18, 55),9	1618,(18, 86),15	1633,(18, 107),72	1705,(18, 135),3	1723,(18, 121),3	1726,(18, 122),27	1753,(18, 182),24	1810,(18, 104),3	1858,(173, 201),3	1861,(198, 201),3	1864,(23, 201),3	1867,(133, 201),3	1870,(143, 201),3	1873,(178, 201),3	1876,(38, 201),3	1879,(58, 201),3	1882,(153, 201),3	1885,(63, 201),3	1888,(73, 201),3	1900,(188, 201),3	1918,(43, 201),3	1924,(98, 201),3	1933,(113, 201),3	1939,(8, 34),30	1969,(8, 49),18	1987,(8, 99),66	2053,(163, 201),3	2086,(13, 114),6	2110,(18, 129),6	2116,(18, 179),9	2125,(18, 184),6	2131,(18, 194),33	2164,(18, 197),210	3016,(108, 201),3	3022,(118, 201),3	3025,(123, 201),3	3028,(158, 201),3	3046,(28, 201),3	3055,(53, 201),3	3058,(78, 201),3	3067,(168, 201),3	3070,(193, 201),3	3107,(93, 201),3	3131,(128, 201),3	3272,(183, 201),3	
37,(2, 24),27	64,(2, 75),3	67,(2, 115),3	70,(2, 135),3	73,(2, 113),9	82,(2, 153),3	85,(157, 201),3	97,(2, 190),30	127,(7, 35),3	130,(7, 43),9	142,(7, 103),3	145,(12, 29),9	154,(12, 48),3	157,(7, 71),3	160,(192, 201),3	163,(12, 129),3	166,(7, 60),6	172,(12, 63),3	175,(7, 165),6	181,(12, 123),3	184,(12, 173),3	187,(17, 198),3	208,(7, 143),54	262,(7, 178),24	337,(7, 196),27	469,(7, 30),99	568,(7, 85),75	643,(7, 110),63	706,(7, 125),54	760,(7, 170),6	766,(7, 175),9	775,(7, 185),12	787,(12, 30),3	790,(12, 31),6	796,(12, 35),39	835,(12, 65),3	838,(12, 161),36	874,(12, 175),78	952,(12, 176),18	970,(12, 180),3	973,(152, 201),3	976,(147, 201),3	979,(22, 201),3	982,(17, 111),3	985,(137, 201),3	988,(92, 201),3	991,(127, 201),3	994,(47, 201),3	997,(12, 73),54	1051,(17, 55),18	1069,(17, 90),39	1108,(17, 165),18	1138,(77, 201),3	1141,(42, 201),3	1144,(97, 201),3	1147,(17, 100),72	1219,(17, 188),42	1282,(17, 66),36	1609,(177, 201),3	1627,(2, 99),45	1672,(17, 91),51	1798,(12, 159),12	1864,(7, 44),39	1903,(7, 154),36	1939,(82, 201),3	1942,(87, 201),3	1945,(132, 201),3	1948,(72, 201),3	1951,(162, 201),3	1954,(37, 201),3	1957,(107, 201),3	1960,(122, 201),3	1963,(182, 201),3	1975,(32, 201),3	3013,(197, 201),3	3019,(112, 201),3	3040,(167, 201),3	3043,(187, 201),3	3052,(52, 201),3	3058,(12, 45),552	3610,(57, 201),3	3613,(67, 201),3	3616,(27, 201),3	3619,(102, 201),3	3622,(117, 201),3	3625,(142, 201),3	3628,(172, 201),3	4180,(62, 201),3	
1,(0, 2),12	13,(0, 3),12	25,(0, 4),12	37,(0, 5),12	49,(0, 7),12	61,(0, 8),12	73,(0, 9),12	85,(0, 10),12	97,(0, 12),12	109,(0, 13),12	121,(0, 14),12	133,(0, 15),12	145,(0, 17),12	157,(0, 18),12	169,(0, 19),12	181,(0, 20),12	193,(16, 23),3	196,(16, 24),1428	1624,(16, 39),3	1627,(16, 43),93	1720,(16, 95),9	1729,(16, 98),12	1741,(16, 108),3	1744,(16, 110),54	1798,(16, 113),15	1813,(16, 139),21	1834,(16, 163),9	1843,(16, 167),3	1846,(16, 195),6	1852,(11, 32),60	1912,(11, 40),24	1936,(11, 78),474	2410,(11, 80),3	2413,(11, 89),45	2458,(11, 108),9	2467,(11, 112),3	2470,(11, 118),3	2473,(11, 123),15	2488,(11, 142),15	2503,(11, 155),3	2506,(11, 158),15	2521,(11, 159),3	2524,(11, 167),51	2575,(11, 187),153	2728,(1, 27),3	2731,(1, 28),6	2737,(1, 34),87	2824,(1, 52),6	2830,(1, 53),6	2836,(1, 57),6	2842,(1, 67),15	2857,(1, 78),6	2863,(1, 134),6	2869,(1, 144),18	2887,(1, 168),3	2890,(1, 193),72	2962,(6, 25),78	3040,(6, 27),3	3043,(6, 75),6	3049,(6, 79),3	3052,(6, 89),3	3055,(6, 90),3	3058,(6, 93),48	3106,(6, 102),15	3121,(6, 117),6	3127,(6, 128),3	3130,(6, 142),78	3208,(6, 172),6	3214,(6, 174),51	3265,(6, 183),6	
