4794
# CPU
37,10,4	41,97,4	45,124,4	69,144,4	73,20,4	77,105,4	337,122,4	361,75,4	385,90,4	397,74,4	401,174,4	641,85,4	769,155,4	821,169,4	881,103,4	1133,147,4	1137,191,4	1161,118,4	1197,126,4	1213,137,4	1281,50,4	1289,116,4	1297,94,4	1313,83,4	1409,158,4	1413,107,4	1421,134,4	1425,197,4	1461,112,4	1513,129,4	1721,79,4	1857,165,4	1961,140,4	1981,73,4	1989,161,4	2033,77,4	2129,185,4	2177,151,4	2273,109,4	2433,131,4	2437,180,4	
33,9,4	37,184,4	49,150,4	69,19,4	73,49,4	77,101,4	117,125,4	133,136,4	137,139,4	205,196,4	209,78,4	269,96,4	277,92,4	289,178,4	401,160,4	485,157,4	517,117,4	521,164,4	549,153,4	617,120,4	649,72,4	697,115,4	705,82,4	741,76,4	945,168,4	985,70,4	1025,128,4	1129,133,4	1225,146,4	1401,106,4	1425,111,4	1505,130,4	1613,142,4	2049,104,4	2061,108,4	2217,84,4	2349,123,4	2517,189,4	4701,89,4	4785,173,4	
29,8,4	33,91,4	41,163,4	65,18,4	69,138,4	73,188,4	77,148,4	125,95,4	153,183,4	213,132,4	257,141,4	277,135,4	385,110,4	389,87,4	393,152,4	397,156,4	525,69,4	541,47,4	545,52,4	601,99,4	681,167,4	877,45,4	961,195,4	1093,177,4	1609,71,4	1629,145,4	1633,159,4	1665,172,4	1761,102,4	
25,7,4	29,64,4	61,17,4	65,51,4	141,39,4	149,59,4	285,200,4	313,194,4	645,114,4	733,65,4	853,166,4	885,162,4	1029,187,4	1161,171,4	1229,176,4	1389,100,4	1529,127,4	2017,68,4	2509,182,4	
21,6,4	57,16,4	241,62,4	253,38,4	277,170,4	281,181,4	309,186,4	509,93,4	673,98,4	837,121,4	897,67,4	1033,199,4	1045,193,4	1197,66,4	1221,46,4	1225,175,4	1957,57,4	2209,154,4	
17,5,4	21,149,4	53,15,4	249,60,4	533,42,4	621,61,4	789,86,4	985,192,4	1261,198,4	1269,33,4	1385,88,4	2417,143,4	4793,201,1	
13,4,4	49,14,4	177,37,4	341,44,4	961,48,4	1057,29,4	1093,41,4	1393,55,4	1693,54,4	2213,81,4	
9,3,4	45,13,4	169,34,4	249,36,4	525,119,4	717,63,4	733,30,4	1565,58,4	1649,43,4	1785,53,4	1789,25,4	1885,35,4	2261,80,4	2713,190,4	
5,2,4	17,22,4	41,12,4	81,23,4	721,113,4	809,32,4	873,26,4	1013,40,4	1117,24,4	1141,31,4	2077,56,4	3053,179,4	
0,0,1	1,1,4	5,11,4	97,27,4	1209,21,4	2629,28,4	
# Incoming
33,(0, 10),4	37,(4, 50),20	57,(12, 122),4	61,(3, 144),8	69,(0, 20),4	73,(2, 103),84	157,(3, 107),164	321,(3, 122),16	337,(3, 134),12	349,(4, 174),4	353,(6, 75),8	361,(9, 90),24	385,(7, 137),8	393,(14, 74),4	397,(14, 174),4	401,(3, 180),4	405,(4, 73),156	561,(4, 85),80	641,(5, 155),128	769,(5, 169),52	821,(6, 191),12	833,(7, 103),48	881,(7, 158),156	1037,(7, 191),72	1109,(8, 77),20	1129,(8, 147),4	1133,(8, 191),4	1137,(9, 118),24	1161,(9, 126),36	1197,(9, 137),16	1213,(12, 140),44	1257,(15, 79),16	1273,(15, 134),4	1277,(16, 50),4	1281,(16, 83),4	1285,(16, 116),4	1289,(17, 94),8	1297,(1, 83),16	1313,(9, 158),96	1409,(17, 107),4	1413,(17, 134),8	1421,(17, 197),4	1425,(1, 112),36	1461,(1, 129),52	1513,(9, 79),208	1721,(9, 165),136	1857,(14, 140),104	1961,(16, 73),20	1981,(17, 161),8	2017,(11, 77),16	2049,(12, 185),80	2129,(16, 151),48	2217,(11, 109),56	2349,(11, 131),84	2433,(11, 180),4	
29,(0, 9),4	33,(2, 72),8	41,(5, 78),4	45,(5, 150),4	53,(3, 142),4	57,(15, 92),4	65,(0, 19),4	69,(3, 106),36	105,(3, 125),12	117,(4, 89),12	129,(4, 136),4	133,(4, 139),4	137,(4, 196),68	205,(7, 78),4	209,(7, 108),4	213,(2, 133),12	225,(2, 160),28	253,(5, 96),16	269,(6, 108),4	273,(14, 92),4	277,(2, 178),12	289,(6, 115),48	349,(3, 160),52	401,(7, 157),84	485,(7, 173),16	501,(12, 117),16	517,(13, 164),4	525,(5, 153),24	549,(5, 189),20	569,(15, 104),40	609,(15, 120),8	621,(13, 72),28	649,(14, 115),48	697,(17, 82),8	733,(1, 76),8	885,(8, 168),60	961,(10, 70),24	985,(10, 84),4	989,(10, 128),36	1025,(10, 133),104	1129,(14, 146),96	1225,(17, 89),36	1389,(1, 106),12	1401,(1, 111),24	1425,(18, 130),80	1513,(1, 142),100	1613,(12, 104),436	2049,(20, 108),12	2213,(11, 84),4	2273,(11, 123),76	2509,(11, 189),8	2517,(15, 89),2184	4701,(18, 173),84	
25,(0, 8),4	37,(7, 163),4	41,(2, 110),16	57,(4, 69),4	61,(0, 18),4	65,(5, 138),4	69,(5, 148),4	109,(19, 141),4	113,(7, 183),8	121,(13, 95),4	145,(17, 145),4	149,(17, 183),4	157,(2, 132),56	213,(15, 167),16	253,(14, 141),4	257,(14, 172),4	273,(6, 135),4	277,(7, 110),108	385,(12, 87),4	389,(12, 152),4	393,(12, 156),4	501,(17, 69),24	533,(1, 47),8	541,(1, 52),4	545,(17, 99),56	645,(9, 167),36	873,(10, 45),4	877,(14, 195),84	1053,(15, 177),40	1161,(10, 172),4	1565,(20, 71),44	1613,(1, 145),16	1629,(1, 159),4	1633,(1, 172),32	1665,(20, 102),96	
21,(0, 7),4	41,(9, 166),4	57,(0, 17),4	73,(5, 162),24	97,(14, 59),16	133,(6, 39),8	145,(6, 59),4	149,(6, 68),8	157,(6, 100),112	281,(16, 200),4	289,(2, 194),24	313,(14, 65),28	361,(6, 176),44	509,(9, 114),136	717,(1, 65),16	733,(16, 176),72	837,(14, 166),16	857,(8, 162),28	933,(19, 187),96	1129,(10, 171),32	1225,(20, 176),4	1385,(1, 100),4	1389,(16, 127),140	1957,(11, 68),60	2437,(11, 182),72	
17,(0, 6),4	21,(3, 67),32	53,(0, 16),4	57,(3, 121),4	61,(4, 57),8	69,(4, 93),8	77,(7, 67),36	113,(9, 175),4	125,(13, 170),8	137,(17, 46),4	201,(9, 62),40	249,(14, 38),4	253,(2, 170),24	277,(14, 181),4	281,(14, 186),28	309,(19, 199),20	341,(12, 67),20	385,(9, 93),124	541,(12, 98),132	697,(14, 121),140	837,(15, 67),60	985,(8, 199),48	1041,(18, 193),4	1093,(18, 57),16	1141,(17, 66),56	1209,(20, 46),12	1221,(20, 175),4	1693,(11, 57),264	2061,(20, 154),148	
13,(0, 5),4	17,(3, 88),4	21,(22, 201),4	45,(184, 201),4	49,(0, 15),4	73,(64, 201),4	105,(150, 201),4	117,(13, 33),4	121,(17, 42),16	137,(49, 201),4	141,(17, 143),4	153,(51, 201),4	157,(39, 201),4	161,(59, 201),4	213,(17, 60),36	257,(101, 201),4	261,(125, 201),4	265,(136, 201),4	269,(139, 201),4	273,(196, 201),4	277,(78, 201),4	281,(96, 201),4	285,(62, 201),4	289,(92, 201),4	293,(178, 201),4	309,(37, 201),4	337,(38, 201),4	341,(170, 201),4	345,(181, 201),4	349,(186, 201),4	353,(44, 201),4	361,(23, 201),4	393,(200, 201),4	397,(194, 201),4	405,(34, 201),4	409,(36, 201),4	449,(1, 33),16	465,(1, 42),68	533,(13, 61),88	649,(119, 201),4	653,(114, 201),4	681,(19, 86),108	789,(19, 88),144	933,(93, 201),4	937,(98, 201),4	941,(113, 201),4	945,(8, 192),40	985,(32, 201),4	989,(121, 201),4	993,(26, 201),4	997,(67, 201),4	1001,(48, 201),4	1017,(40, 201),4	1021,(63, 201),4	1025,(30, 201),4	1029,(160, 201),4	1033,(91, 201),4	1037,(163, 201),4	1041,(157, 201),4	1045,(138, 201),4	1049,(188, 201),4	1053,(117, 201),4	1057,(164, 201),4	1061,(153, 201),4	1065,(120, 201),4	1069,(72, 201),4	1073,(115, 201),4	1077,(82, 201),4	1081,(76, 201),4	1085,(168, 201),4	1089,(70, 201),4	1093,(128, 201),4	1097,(199, 201),4	1101,(193, 201),4	1105,(29, 201),4	1109,(41, 201),4	1121,(24, 201),4	1133,(133, 201),4	1137,(148, 201),4	1141,(95, 201),4	1145,(183, 201),4	1149,(132, 201),4	1153,(141, 201),4	1157,(135, 201),4	1161,(110, 201),4	1165,(10, 198),20	1185,(97, 201),4	1189,(124, 201),4	1193,(18, 198),68	1261,(144, 201),4	1265,(20, 33),4	1269,(87, 201),4	1273,(152, 201),4	1277,(156, 201),4	1281,(69, 201),4	1285,(47, 201),4	1289,(52, 201),4	1293,(99, 201),4	1297,(65, 201),4	1301,(166, 201),4	1305,(162, 201),4	1309,(187, 201),4	1313,(1, 88),72	1385,(31, 201),4	1389,(171, 201),4	1393,(105, 201),4	1397,(122, 201),4	1401,(75, 201),4	1405,(90, 201),4	1409,(74, 201),4	1413,(174, 201),4	1417,(167, 201),4	1421,(45, 201),4	1425,(146, 201),4	1429,(176, 201),4	1433,(100, 201),4	1437,(55, 201),4	1441,(106, 201),4	1445,(111, 201),4	1505,(195, 201),4	1509,(177, 201),4	1529,(66, 201),4	1533,(46, 201),4	1537,(175, 201),4	1541,(127, 201),4	1569,(58, 201),4	1609,(85, 201),4	1613,(155, 201),4	1617,(169, 201),4	1621,(103, 201),4	1625,(147, 201),4	1629,(191, 201),4	1633,(118, 201),4	1637,(126, 201),4	1641,(137, 201),4	1645,(50, 201),4	1649,(116, 201),4	1653,(94, 201),4	1657,(83, 201),4	1661,(158, 201),4	1665,(71, 201),4	1669,(145, 201),4	1673,(159, 201),4	1677,(43, 201),4	1681,(172, 201),4	1697,(54, 201),4	1761,(107, 201),4	1765,(134, 201),4	1769,(197, 201),4	1773,(112, 201),4	1777,(129, 201),4	1781,(79, 201),4	1789,(53, 201),4	1793,(25, 201),4	1861,(165, 201),4	1889,(35, 201),4	1965,(140, 201),4	1981,(57, 201),4	1985,(73, 201),4	1993,(161, 201),4	2021,(68, 201),4	2037,(77, 201),4	2129,(56, 201),4	2209,(185, 201),4	2213,(151, 201),4	2217,(154, 201),4	2221,(81, 201),4	2261,(19, 143),156	2417,(80, 201),4	2421,(109, 201),4	2437,(131, 201),4	2441,(180, 201),4	2513,(182, 201),4	2517,(27, 201),4	2521,(21, 201),4	2633,(28, 201),4	2713,(130, 201),4	2717,(142, 201),4	2721,(104, 201),4	2725,(108, 201),4	2729,(84, 201),4	2733,(123, 201),4	2737,(189, 201),4	2741,(190, 201),4	3053,(102, 201),4	3057,(179, 201),4	4705,(89, 201),4	4789,(173, 201),4	
9,(0, 4),4	45,(0, 14),4	49,(9, 44),36	85,(9, 48),20	105,(15, 44),64	169,(17, 37),8	241,(19, 41),16	277,(16, 41),4	313,(12, 44),28	545,(1, 55),16	877,(10, 48),84	961,(15, 54),92	1053,(18, 29),4	1057,(18, 41),36	1269,(20, 55),124	1665,(11, 54),28	2033,(11, 81),180	
5,(0, 3),4	9,(2, 36),4	41,(0, 13),4	45,(6, 30),60	105,(6, 34),28	141,(6, 53),4	145,(9, 34),24	169,(9, 43),32	205,(14, 36),44	269,(5, 119),256	525,(12, 35),16	561,(1, 63),156	721,(16, 30),12	741,(1, 80),556	1297,(8, 43),120	1417,(10, 58),148	1565,(16, 43),84	1649,(17, 53),136	1785,(18, 25),4	1857,(19, 35),28	2077,(19, 80),184	2417,(19, 190),296	
1,(0, 2),4	13,(3, 22),4	29,(7, 23),8	37,(0, 12),4	41,(7, 26),32	73,(1, 23),8	81,(1, 31),368	449,(6, 113),272	721,(7, 32),88	809,(8, 26),48	857,(10, 26),16	873,(13, 40),140	1013,(13, 56),8	1021,(16, 31),8	1109,(17, 24),8	1117,(17, 31),24	1885,(19, 56),192	2629,(18, 179),424	
37,(9, 21),4	77,(14, 27),20	1193,(20, 21),16	1789,(18, 28),840	
# Outgoing
857,(10, 26),16	873,(10, 45),4	877,(10, 48),84	961,(10, 70),24	985,(10, 84),4	989,(10, 128),36	1025,(10, 133),104	1129,(10, 171),32	1161,(10, 172),4	1165,(10, 198),20	1185,(97, 201),4	1189,(124, 201),4	1193,(20, 21),16	1209,(20, 46),12	1221,(20, 175),4	1225,(20, 176),4	1261,(144, 201),4	1265,(20, 33),4	1269,(20, 55),124	1393,(105, 201),4	1397,(122, 201),4	1401,(75, 201),4	1405,(90, 201),4	1409,(74, 201),4	1413,(174, 201),4	1417,(10, 58),148	1565,(20, 71),44	1609,(85, 201),4	1613,(155, 201),4	1617,(169, 201),4	1621,(103, 201),4	1625,(147, 201),4	1629,(191, 201),4	1633,(118, 201),4	1637,(126, 201),4	1641,(137, 201),4	1645,(50, 201),4	1649,(116, 201),4	1653,(94, 201),4	1657,(83, 201),4	1661,(158, 201),4	1665,(20, 102),96	1761,(107, 201),4	1765,(134, 201),4	1769,(197, 201),4	1773,(112, 201),4	1777,(129, 201),4	1781,(79, 201),4	1861,(165, 201),4	1965,(140, 201),4	1985,(73, 201),4	1993,(161, 201),4	2037,(77, 201),4	2049,(20, 108),12	2061,(20, 154),148	2209,(185, 201),4	2213,(151, 201),4	2421,(109, 201),4	2437,(131, 201),4	2441,(180, 201),4	
37,(9, 21),4	41,(9, 166),4	45,(184, 201),4	49,(9, 44),36	85,(9, 48),20	105,(150, 201),4	109,(19, 141),4	113,(9, 175),4	137,(49, 201),4	145,(9, 34),24	169,(9, 43),32	201,(9, 62),40	241,(19, 41),16	257,(101, 201),4	261,(125, 201),4	265,(136, 201),4	269,(139, 201),4	273,(196, 201),4	277,(78, 201),4	281,(96, 201),4	289,(92, 201),4	293,(178, 201),4	309,(19, 199),20	361,(9, 90),24	385,(9, 93),124	509,(9, 114),136	645,(9, 167),36	681,(19, 86),108	789,(19, 88),144	933,(19, 187),96	1029,(160, 201),4	1041,(157, 201),4	1053,(117, 201),4	1057,(164, 201),4	1061,(153, 201),4	1065,(120, 201),4	1069,(72, 201),4	1073,(115, 201),4	1077,(82, 201),4	1081,(76, 201),4	1085,(168, 201),4	1089,(70, 201),4	1093,(128, 201),4	1133,(133, 201),4	1137,(9, 118),24	1161,(9, 126),36	1197,(9, 137),16	1313,(9, 158),96	1425,(146, 201),4	1441,(106, 201),4	1445,(111, 201),4	1513,(9, 79),208	1721,(9, 165),136	1857,(19, 35),28	1885,(19, 56),192	2077,(19, 80),184	2261,(19, 143),156	2417,(19, 190),296	2713,(130, 201),4	2717,(142, 201),4	2721,(104, 201),4	2725,(108, 201),4	2729,(84, 201),4	2733,(123, 201),4	2737,(189, 201),4	4705,(89, 201),4	4789,(173, 201),4	
809,(8, 26),48	857,(8, 162),28	885,(8, 168),60	945,(8, 192),40	985,(8, 199),48	1033,(91, 201),4	1037,(163, 201),4	1041,(18, 193),4	1045,(138, 201),4	1049,(188, 201),4	1053,(18, 29),4	1057,(18, 41),36	1093,(18, 57),16	1109,(8, 77),20	1129,(8, 147),4	1133,(8, 191),4	1137,(148, 201),4	1141,(95, 201),4	1145,(183, 201),4	1149,(132, 201),4	1153,(141, 201),4	1157,(135, 201),4	1161,(110, 201),4	1193,(18, 198),68	1269,(87, 201),4	1273,(152, 201),4	1277,(156, 201),4	1281,(69, 201),4	1285,(47, 201),4	1289,(52, 201),4	1293,(99, 201),4	1297,(8, 43),120	1417,(167, 201),4	1421,(45, 201),4	1425,(18, 130),80	1505,(195, 201),4	1509,(177, 201),4	1665,(71, 201),4	1669,(145, 201),4	1673,(159, 201),4	1681,(172, 201),4	1785,(18, 25),4	1789,(18, 28),840	2629,(18, 179),424	3053,(102, 201),4	4701,(18, 173),84	
29,(7, 23),8	37,(7, 163),4	41,(7, 26),32	73,(64, 201),4	77,(7, 67),36	113,(7, 183),8	121,(17, 42),16	137,(17, 46),4	141,(17, 143),4	145,(17, 145),4	149,(17, 183),4	153,(51, 201),4	157,(39, 201),4	161,(59, 201),4	169,(17, 37),8	205,(7, 78),4	209,(7, 108),4	213,(17, 60),36	277,(7, 110),108	385,(7, 137),8	393,(200, 201),4	397,(194, 201),4	401,(7, 157),84	485,(7, 173),16	501,(17, 69),24	545,(17, 99),56	653,(114, 201),4	697,(17, 82),8	721,(7, 32),88	833,(7, 103),48	881,(7, 158),156	1037,(7, 191),72	1109,(17, 24),8	1117,(17, 31),24	1141,(17, 66),56	1225,(17, 89),36	1289,(17, 94),8	1297,(65, 201),4	1301,(166, 201),4	1305,(162, 201),4	1309,(187, 201),4	1389,(171, 201),4	1409,(17, 107),4	1413,(17, 134),8	1421,(17, 197),4	1429,(176, 201),4	1433,(100, 201),4	1541,(127, 201),4	1649,(17, 53),136	1981,(17, 161),8	2021,(68, 201),4	2513,(182, 201),4	
45,(6, 30),60	105,(6, 34),28	133,(6, 39),8	141,(6, 53),4	145,(6, 59),4	149,(6, 68),8	157,(6, 100),112	269,(6, 108),4	273,(6, 135),4	277,(16, 41),4	281,(16, 200),4	285,(62, 201),4	289,(6, 115),48	337,(38, 201),4	341,(170, 201),4	345,(181, 201),4	349,(186, 201),4	353,(6, 75),8	361,(6, 176),44	449,(6, 113),272	721,(16, 30),12	733,(16, 176),72	821,(6, 191),12	933,(93, 201),4	937,(98, 201),4	989,(121, 201),4	997,(67, 201),4	1021,(16, 31),8	1097,(199, 201),4	1101,(193, 201),4	1277,(16, 50),4	1281,(16, 83),4	1285,(16, 116),4	1389,(16, 127),140	1529,(66, 201),4	1533,(46, 201),4	1537,(175, 201),4	1565,(16, 43),84	1961,(16, 73),20	1981,(57, 201),4	2129,(16, 151),48	2217,(154, 201),4	
41,(5, 78),4	45,(5, 150),4	57,(15, 92),4	65,(5, 138),4	69,(5, 148),4	73,(5, 162),24	105,(15, 44),64	213,(15, 167),16	253,(5, 96),16	269,(5, 119),256	525,(5, 153),24	549,(5, 189),20	569,(15, 104),40	609,(15, 120),8	641,(5, 155),128	769,(5, 169),52	837,(15, 67),60	961,(15, 54),92	1053,(15, 177),40	1257,(15, 79),16	1273,(15, 134),4	2517,(15, 89),2184	
37,(4, 50),20	57,(4, 69),4	61,(4, 57),8	69,(4, 93),8	77,(14, 27),20	97,(14, 59),16	117,(4, 89),12	129,(4, 136),4	133,(4, 139),4	137,(4, 196),68	205,(14, 36),44	249,(14, 38),4	253,(14, 141),4	257,(14, 172),4	273,(14, 92),4	277,(14, 181),4	281,(14, 186),28	309,(37, 201),4	313,(14, 65),28	349,(4, 174),4	353,(44, 201),4	393,(14, 74),4	397,(14, 174),4	405,(4, 73),156	561,(4, 85),80	649,(14, 115),48	697,(14, 121),140	837,(14, 166),16	877,(14, 195),84	1001,(48, 201),4	1105,(29, 201),4	1109,(41, 201),4	1129,(14, 146),96	1437,(55, 201),4	1697,(54, 201),4	1857,(14, 140),104	2221,(81, 201),4	
13,(3, 22),4	17,(3, 88),4	21,(3, 67),32	53,(3, 142),4	57,(3, 121),4	61,(3, 144),8	69,(3, 106),36	105,(3, 125),12	117,(13, 33),4	121,(13, 95),4	125,(13, 170),8	157,(3, 107),164	321,(3, 122),16	337,(3, 134),12	349,(3, 160),52	401,(3, 180),4	405,(34, 201),4	409,(36, 201),4	517,(13, 164),4	533,(13, 61),88	621,(13, 72),28	649,(119, 201),4	873,(13, 40),140	1013,(13, 56),8	1021,(63, 201),4	1025,(30, 201),4	1569,(58, 201),4	1677,(43, 201),4	1789,(53, 201),4	1793,(25, 201),4	1889,(35, 201),4	2417,(80, 201),4	2741,(190, 201),4	
9,(2, 36),4	21,(22, 201),4	33,(2, 72),8	41,(2, 110),16	57,(12, 122),4	73,(2, 103),84	157,(2, 132),56	213,(2, 133),12	225,(2, 160),28	253,(2, 170),24	277,(2, 178),12	289,(2, 194),24	313,(12, 44),28	341,(12, 67),20	361,(23, 201),4	385,(12, 87),4	389,(12, 152),4	393,(12, 156),4	501,(12, 117),16	525,(12, 35),16	541,(12, 98),132	941,(113, 201),4	985,(32, 201),4	993,(26, 201),4	1017,(40, 201),4	1121,(24, 201),4	1213,(12, 140),44	1385,(31, 201),4	1613,(12, 104),436	2049,(12, 185),80	2129,(56, 201),4	3057,(179, 201),4	
1,(0, 2),4	5,(0, 3),4	9,(0, 4),4	13,(0, 5),4	17,(0, 6),4	21,(0, 7),4	25,(0, 8),4	29,(0, 9),4	33,(0, 10),4	37,(0, 12),4	41,(0, 13),4	45,(0, 14),4	49,(0, 15),4	53,(0, 16),4	57,(0, 17),4	61,(0, 18),4	65,(0, 19),4	69,(0, 20),4	73,(1, 23),8	81,(1, 31),368	449,(1, 33),16	465,(1, 42),68	533,(1, 47),8	541,(1, 52),4	545,(1, 55),16	561,(1, 63),156	717,(1, 65),16	733,(1, 76),8	741,(1, 80),556	1297,(1, 83),16	1313,(1, 88),72	1385,(1, 100),4	1389,(1, 106),12	1401,(1, 111),24	1425,(1, 112),36	1461,(1, 129),52	1513,(1, 142),100	1613,(1, 145),16	1629,(1, 159),4	1633,(1, 172),32	1665,(11, 54),28	1693,(11, 57),264	1957,(11, 68),60	2017,(11, 77),16	2033,(11, 81),180	2213,(11, 84),4	2217,(11, 109),56	2273,(11, 123),76	2349,(11, 131),84	2433,(11, 180),4	2437,(11, 182),72	2509,(11, 189),8	2517,(27, 201),4	2521,(21, 201),4	2633,(28, 201),4	
