12860
# CPU
10,4,3	19,8,3	22,48,3	28,12,3	37,16,3	46,20,3	61,56,3	187,76,3	757,92,3	772,72,3	910,28,3	913,36,3	946,52,3	955,172,3	1078,68,3	1249,176,3	1552,104,3	1594,32,3	1807,60,3	2011,124,3	2035,40,3	2191,148,3	4741,156,3	5089,180,3	5092,44,3	5131,80,3	5245,116,3	5248,128,3	5677,192,3	5830,24,3	5884,64,3	5962,84,3	6001,184,3	6019,200,3	6118,196,3	6136,88,3	6148,100,3	6151,108,3	6163,120,3	7264,152,3	7318,96,3	7336,112,3	7342,132,3	7354,136,3	7414,144,3	7429,168,3	7432,188,3	10960,140,3	11041,160,3	11188,164,3	
7,3,3	10,167,3	16,7,3	25,11,3	34,15,3	43,19,3	46,95,3	358,63,3	760,143,3	811,159,3	1411,23,3	1684,51,3	1819,75,3	1936,103,3	1942,115,3	2275,55,3	2371,31,3	2389,99,3	2503,151,3	2506,183,3	2512,59,3	2515,91,3	2518,111,3	2563,131,3	2575,139,3	2674,35,3	2704,43,3	2728,27,3	2794,87,3	2878,83,3	2896,127,3	2920,147,3	2977,171,3	2983,195,3	3001,39,3	3625,107,3	3652,155,3	3679,199,3	3751,187,3	5923,79,3	5965,67,3	6016,71,3	6019,119,3	6028,163,3	6064,179,3	6100,47,3	6118,123,3	6136,135,3	6154,175,3	6295,191,3	
4,2,3	13,6,3	22,10,3	31,14,3	40,18,3	841,74,3	1081,78,3	1354,194,3	1534,162,3	1651,58,3	1768,178,3	1927,190,3	2059,42,3	2065,66,3	2620,50,3	2662,54,3	2689,130,3	2725,102,3	2773,166,3	2776,134,3	2824,90,3	2863,106,3	2890,126,3	2971,34,3	3043,22,3	3112,118,3	3142,182,3	3187,142,3	3217,146,3	3643,158,3	3757,26,3	3760,30,3	3799,38,3	3808,46,3	3856,62,3	3979,86,3	3982,98,3	3988,110,3	4033,114,3	4039,122,3	4042,138,3	4228,198,3	4363,174,3	6166,150,3	7375,170,3	7423,186,3	7660,70,3	8050,82,3	8110,94,3	10993,154,3	
0,0,1	1,17,3	4,9,3	7,1,3	10,13,3	13,5,3	16,153,3	31,121,3	40,61,3	61,189,3	94,197,3	115,65,3	412,149,3	970,25,3	973,33,3	1030,173,3	1039,37,3	1108,77,3	1111,81,3	2215,21,3	2236,109,3	2263,85,3	2581,185,3	3121,69,3	3145,105,3	3349,141,3	3394,145,3	3412,177,3	3415,53,3	3457,97,3	3481,101,3	3487,125,3	3727,41,3	3841,49,3	4813,129,3	5932,89,3	5962,113,3	6022,117,3	7372,169,3	7444,29,3	7453,45,3	7642,57,3	7771,73,3	8077,93,3	8161,133,3	8164,137,3	10996,157,3	11044,161,3	11620,165,3	11623,181,3	11779,193,3	12859,201,1	
# Incoming
7,(0, 4),3	16,(0, 8),3	25,(0, 12),3	34,(0, 16),3	40,(2, 76),3	43,(0, 20),3	46,(2, 56),15	64,(2, 104),9	73,(2, 112),9	82,(17, 28),3	85,(17, 36),3	88,(3, 40),27	127,(2, 72),33	160,(3, 76),27	187,(3, 108),6	193,(3, 116),6	208,(2, 84),45	253,(2, 92),390	643,(3, 128),27	670,(3, 188),3	673,(7, 36),15	688,(7, 40),21	709,(7, 60),9	718,(7, 68),18	736,(7, 72),9	745,(7, 80),9	754,(7, 92),3	757,(7, 120),3	760,(7, 128),3	766,(17, 72),6	805,(7, 112),9	841,(7, 136),3	844,(7, 156),3	847,(7, 168),39	886,(7, 192),6	892,(11, 28),18	910,(11, 36),3	913,(11, 84),9	922,(11, 156),3	925,(11, 176),3	928,(11, 192),3	931,(15, 52),15	946,(15, 168),3	949,(15, 172),6	955,(15, 184),3	958,(2, 116),3	961,(19, 148),3	991,(15, 188),15	1006,(19, 96),12	1030,(2, 176),3	1039,(6, 40),15	1057,(6, 68),21	1078,(6, 88),6	1093,(17, 176),156	1249,(2, 200),81	1345,(17, 188),6	1354,(6, 84),18	1372,(6, 152),72	1444,(6, 164),69	1513,(10, 32),3	1516,(10, 80),3	1519,(10, 88),30	1549,(10, 104),3	1552,(9, 32),42	1651,(9, 60),156	1807,(9, 64),6	1909,(9, 80),3	1912,(9, 84),12	1924,(9, 100),3	1945,(9, 124),66	2011,(19, 40),24	2086,(9, 140),6	2095,(9, 160),33	2128,(11, 116),48	2185,(14, 132),3	2188,(14, 148),3	2191,(9, 184),24	2215,(9, 192),3	2218,(9, 196),507	2725,(3, 100),2004	4729,(1, 96),3	4732,(1, 112),3	4735,(1, 120),3	4738,(1, 156),3	4741,(1, 180),348	5089,(13, 44),3	5092,(13, 80),39	5131,(13, 112),39	5170,(13, 116),75	5245,(13, 128),3	5248,(13, 132),33	5281,(5, 100),6	5287,(5, 108),3	5290,(5, 152),186	5476,(5, 188),3	5479,(5, 192),198	5743,(15, 24),87	5830,(15, 64),54	5923,(10, 84),39	5962,(10, 184),39	6001,(10, 200),18	6019,(14, 96),33	6052,(14, 188),63	6115,(14, 196),3	6118,(18, 88),18	6136,(18, 100),12	6148,(18, 108),3	6151,(18, 120),12	6163,(18, 164),3	6166,(15, 152),1098	7264,(18, 96),54	7318,(18, 112),18	7336,(18, 132),6	7342,(18, 136),12	7354,(18, 140),33	7387,(18, 144),27	7414,(18, 168),15	7429,(18, 188),3	8164,(19, 140),2796	10996,(19, 160),45	11044,(19, 164),144	
4,(0, 3),3	13,(0, 7),3	19,(4, 35),3	22,(0, 11),3	25,(2, 35),3	28,(2, 59),3	31,(0, 15),3	34,(4, 191),3	37,(8, 51),3	40,(0, 19),3	46,(17, 27),36	82,(2, 47),45	127,(4, 31),27	154,(8, 71),6	160,(2, 83),48	208,(4, 39),21	346,(4, 63),12	358,(4, 91),120	643,(4, 175),96	739,(8, 67),9	748,(8, 103),9	757,(12, 143),3	760,(12, 163),3	763,(17, 59),3	766,(16, 43),3	769,(16, 59),3	772,(17, 91),33	805,(16, 79),3	808,(16, 159),3	811,(20, 107),3	814,(17, 99),9	823,(17, 103),3	826,(17, 123),15	841,(8, 87),69	910,(8, 115),18	928,(8, 183),15	943,(2, 111),15	961,(2, 119),6	967,(2, 123),3	970,(2, 151),21	991,(12, 59),27	1018,(20, 131),3	1021,(17, 139),69	1090,(4, 139),231	1321,(16, 179),9	1330,(6, 43),24	1354,(17, 195),33	1387,(9, 23),24	1411,(9, 27),141	1552,(6, 39),45	1597,(6, 51),87	1684,(6, 135),9	1693,(6, 183),3	1696,(6, 187),6	1702,(8, 131),60	1762,(16, 35),12	1813,(20, 75),6	1819,(20, 163),3	1825,(9, 71),84	1933,(9, 103),3	1936,(9, 111),3	1939,(9, 115),3	1942,(9, 123),3	2011,(9, 127),75	2128,(9, 163),27	2155,(9, 175),36	2191,(6, 55),84	2299,(10, 31),72	2371,(10, 39),3	2374,(10, 43),3	2377,(10, 67),3	2380,(10, 99),9	2389,(10, 107),3	2392,(10, 111),57	2449,(10, 135),21	2470,(10, 151),33	2503,(10, 183),3	2506,(14, 59),6	2512,(14, 91),3	2515,(14, 111),3	2521,(12, 131),42	2563,(14, 139),12	2575,(14, 171),27	2602,(14, 179),24	2626,(18, 35),48	2674,(18, 39),18	2692,(18, 43),12	2725,(1, 27),3	2728,(1, 47),9	2743,(1, 71),6	2749,(1, 79),42	2791,(1, 87),3	2803,(12, 171),24	2827,(16, 71),36	2863,(16, 83),15	2890,(1, 127),6	2905,(1, 147),15	2920,(1, 171),57	2977,(1, 187),3	2980,(1, 195),3	2983,(13, 39),18	3004,(13, 71),198	3202,(20, 71),15	3217,(13, 155),210	3427,(12, 107),198	3625,(16, 155),27	3652,(16, 199),27	3685,(13, 187),66	3751,(6, 79),2172	5923,(5, 67),42	5965,(5, 71),51	6016,(5, 119),3	6019,(5, 163),9	6028,(5, 179),36	6064,(20, 47),36	6100,(20, 123),18	6118,(20, 135),18	6136,(20, 175),18	6154,(20, 191),141	
1,(0, 2),3	10,(0, 6),3	13,(4, 22),3	16,(4, 30),3	19,(0, 10),3	22,(4, 78),3	25,(4, 82),3	28,(0, 14),3	31,(4, 126),3	37,(0, 18),3	43,(12, 58),3	61,(12, 138),3	88,(17, 54),627	715,(17, 58),48	763,(3, 118),9	772,(3, 126),27	799,(3, 130),3	802,(3, 142),3	805,(17, 94),9	814,(3, 150),12	826,(7, 70),3	829,(7, 74),12	841,(17, 130),180	1021,(3, 154),57	1078,(7, 78),3	1081,(7, 94),6	1087,(7, 150),3	1090,(17, 142),3	1093,(3, 174),18	1249,(17, 182),96	1345,(12, 146),3	1348,(12, 162),3	1351,(17, 194),3	1354,(4, 162),180	1534,(8, 26),54	1588,(16, 94),3	1591,(16, 130),3	1594,(9, 50),3	1597,(9, 58),54	1651,(8, 154),42	1693,(8, 178),9	1741,(7, 102),9	1750,(7, 178),18	1768,(7, 186),3	1771,(7, 198),3	1774,(8, 158),39	1813,(9, 66),12	1825,(7, 98),87	1912,(8, 166),12	1924,(11, 190),3	1927,(9, 102),6	1933,(8, 98),111	2044,(11, 42),15	2059,(11, 66),6	2065,(11, 110),18	2083,(12, 30),9	2092,(9, 154),3	2095,(4, 86),426	2563,(12, 174),18	2581,(11, 50),39	2620,(11, 54),42	2662,(11, 118),12	2674,(11, 130),15	2689,(11, 146),15	2704,(15, 22),15	2719,(15, 94),3	2722,(15, 102),3	2737,(1, 62),6	2743,(12, 166),30	2773,(20, 134),3	2794,(1, 90),30	2824,(1, 94),6	2830,(1, 98),24	2854,(1, 106),9	2863,(1, 126),27	2896,(1, 146),9	2905,(12, 34),66	2971,(16, 86),21	3001,(13, 46),3	3004,(16, 22),39	3043,(16, 118),69	3112,(16, 182),30	3142,(20, 62),21	3163,(20, 142),24	3187,(20, 170),15	3202,(13, 110),6	3208,(13, 146),9	3217,(20, 114),42	3259,(20, 186),12	3427,(13, 158),216	3643,(13, 170),42	3751,(5, 26),6	3757,(5, 30),3	3760,(5, 38),39	3799,(5, 46),9	3808,(5, 62),48	3856,(5, 70),96	3952,(5, 86),27	3979,(5, 98),3	3982,(5, 110),6	3988,(5, 114),45	4033,(5, 122),6	4039,(5, 138),3	4042,(5, 174),9	4051,(5, 198),177	4228,(16, 174),135	4813,(11, 170),930	6022,(15, 150),144	7372,(15, 170),3	7375,(15, 186),48	7642,(19, 70),18	7771,(19, 82),279	8077,(19, 94),33	10960,(19, 154),33	
7,(2, 25),15	22,(2, 49),3	28,(8, 121),3	31,(2, 61),9	40,(8, 133),3	43,(2, 81),3	46,(4, 193),6	52,(8, 117),6	58,(8, 189),3	61,(2, 89),3	64,(4, 197),30	94,(8, 53),12	106,(12, 29),6	112,(12, 65),3	115,(3, 53),36	151,(3, 93),3	154,(3, 137),3	157,(3, 149),3	160,(8, 69),12	172,(8, 185),15	187,(12, 69),9	196,(12, 149),3	199,(3, 161),18	217,(7, 21),3	220,(7, 69),3	223,(7, 113),6	229,(4, 45),117	346,(167, 201),24	370,(7, 29),15	385,(7, 133),18	403,(7, 149),9	412,(7, 161),30	442,(7, 169),27	469,(7, 177),3	472,(7, 181),6	478,(4, 133),165	643,(2, 93),150	793,(2, 97),150	943,(48, 201),24	967,(11, 25),3	970,(11, 33),3	973,(11, 53),12	985,(11, 133),3	988,(11, 165),3	991,(2, 173),39	1030,(12, 165),3	1033,(6, 29),3	1036,(6, 37),3	1039,(12, 177),15	1054,(6, 45),3	1057,(12, 73),21	1078,(16, 181),3	1084,(6, 137),18	1102,(10, 69),3	1105,(10, 77),3	1108,(10, 81),3	1111,(3, 193),630	1741,(6, 49),222	1963,(6, 117),219	2182,(10, 133),3	2185,(11, 21),30	2215,(11, 101),12	2227,(11, 109),9	2236,(11, 169),9	2245,(15, 29),3	2248,(15, 73),3	2251,(15, 85),12	2263,(15, 125),9	2272,(19, 125),3	2275,(6, 141),24	2299,(7, 117),105	2404,(7, 185),177	2581,(8, 89),75	2656,(8, 101),81	2737,(10, 41),18	2755,(10, 157),21	2776,(10, 193),9	2785,(12, 101),18	2803,(14, 29),162	2965,(14, 69),156	3121,(14, 73),3	3124,(14, 105),21	3145,(14, 129),24	3169,(14, 137),81	3250,(14, 157),12	3262,(14, 161),36	3298,(16, 45),9	3307,(16, 53),12	3319,(16, 141),30	3349,(16, 145),45	3394,(16, 177),18	3412,(18, 53),3	3415,(18, 97),42	3457,(18, 101),24	3481,(18, 125),6	3487,(74, 201),24	3511,(78, 201),24	3535,(194, 201),24	3559,(162, 201),24	3583,(58, 201),24	3607,(178, 201),24	3631,(190, 201),24	3655,(42, 201),24	3679,(20, 41),48	3727,(20, 49),114	3841,(20, 73),6	3847,(20, 133),279	4126,(20, 157),6	4132,(20, 181),63	4195,(56, 201),24	4363,(76, 201),24	4387,(92, 201),24	4411,(72, 201),24	4435,(28, 201),24	4459,(36, 201),24	4483,(52, 201),24	4507,(172, 201),24	4531,(68, 201),24	4555,(176, 201),24	4579,(104, 201),24	4603,(32, 201),24	4627,(60, 201),24	4651,(124, 201),24	4675,(40, 201),24	4699,(148, 201),24	4729,(11, 129),84	4813,(156, 201),24	5092,(180, 201),24	5116,(44, 201),24	5140,(80, 201),24	5248,(116, 201),24	5272,(128, 201),24	5680,(192, 201),24	5833,(24, 201),24	5884,(15, 89),48	5932,(15, 113),30	5962,(15, 117),60	6022,(64, 201),24	6166,(66, 201),24	6190,(50, 201),24	6214,(54, 201),24	6238,(130, 201),24	6262,(102, 201),24	6286,(166, 201),24	6310,(134, 201),24	6334,(90, 201),24	6358,(106, 201),24	6382,(126, 201),24	6406,(34, 201),24	6430,(22, 201),24	6454,(118, 201),24	6478,(182, 201),24	6502,(142, 201),24	6526,(146, 201),24	6550,(158, 201),24	6574,(26, 201),24	6598,(30, 201),24	6622,(38, 201),24	6646,(46, 201),24	6670,(62, 201),24	6694,(86, 201),24	6718,(98, 201),24	6742,(110, 201),24	6766,(114, 201),24	6790,(122, 201),24	6814,(138, 201),24	6838,(198, 201),24	6862,(174, 201),24	6886,(84, 201),24	6910,(184, 201),24	6934,(200, 201),24	6958,(196, 201),24	6982,(88, 201),24	7006,(100, 201),24	7030,(108, 201),24	7054,(120, 201),24	7078,(150, 201),24	7264,(15, 165),96	7360,(15, 169),12	7372,(152, 201),24	7396,(96, 201),24	7423,(19, 29),21	7444,(19, 45),9	7453,(19, 57),189	7660,(19, 73),111	7771,(112, 201),24	7795,(132, 201),24	7819,(136, 201),24	7843,(170, 201),24	7867,(144, 201),24	7891,(186, 201),24	7915,(168, 201),24	7939,(188, 201),24	7963,(70, 201),24	8050,(19, 93),27	8077,(82, 201),24	8110,(19, 133),51	8161,(19, 137),3	8164,(94, 201),24	10963,(140, 201),24	10993,(19, 157),3	10996,(154, 201),24	11041,(19, 161),3	11044,(160, 201),24	11188,(19, 165),432	11620,(19, 181),3	11623,(19, 193),156	11779,(95, 201),24	11803,(63, 201),24	11827,(143, 201),24	11851,(159, 201),24	11875,(23, 201),24	11899,(51, 201),24	11923,(75, 201),24	11947,(103, 201),24	11971,(115, 201),24	11995,(55, 201),24	12019,(31, 201),24	12043,(99, 201),24	12067,(151, 201),24	12091,(183, 201),24	12115,(59, 201),24	12139,(91, 201),24	12163,(111, 201),24	12187,(131, 201),24	12211,(139, 201),24	12235,(35, 201),24	12259,(43, 201),24	12283,(27, 201),24	12307,(87, 201),24	12331,(83, 201),24	12355,(127, 201),24	12379,(147, 201),24	12403,(171, 201),24	12427,(195, 201),24	12451,(39, 201),24	12475,(107, 201),24	12499,(155, 201),24	12523,(199, 201),24	12547,(187, 201),24	12571,(79, 201),24	12595,(67, 201),24	12619,(71, 201),24	12643,(119, 201),24	12667,(163, 201),24	12691,(179, 201),24	12715,(47, 201),24	12739,(123, 201),24	12763,(135, 201),24	12787,(175, 201),24	12811,(191, 201),24	12835,(164, 201),24	
# Outgoing
13,(4, 22),3	16,(4, 30),3	19,(4, 35),3	22,(4, 78),3	25,(4, 82),3	28,(8, 121),3	31,(4, 126),3	34,(4, 191),3	37,(8, 51),3	40,(8, 133),3	43,(12, 58),3	46,(4, 193),6	52,(8, 117),6	58,(8, 189),3	61,(12, 138),3	64,(4, 197),30	94,(8, 53),12	106,(12, 29),6	112,(12, 65),3	127,(4, 31),27	154,(8, 71),6	160,(8, 69),12	172,(8, 185),15	187,(12, 69),9	196,(12, 149),3	208,(4, 39),21	229,(4, 45),117	346,(4, 63),12	358,(4, 91),120	478,(4, 133),165	643,(4, 175),96	739,(8, 67),9	748,(8, 103),9	757,(12, 143),3	760,(12, 163),3	766,(16, 43),3	769,(16, 59),3	805,(16, 79),3	808,(16, 159),3	811,(20, 107),3	841,(8, 87),69	910,(8, 115),18	928,(8, 183),15	943,(48, 201),24	991,(12, 59),27	1018,(20, 131),3	1030,(12, 165),3	1039,(12, 177),15	1057,(12, 73),21	1078,(16, 181),3	1090,(4, 139),231	1321,(16, 179),9	1345,(12, 146),3	1348,(12, 162),3	1354,(4, 162),180	1534,(8, 26),54	1588,(16, 94),3	1591,(16, 130),3	1651,(8, 154),42	1693,(8, 178),9	1702,(8, 131),60	1762,(16, 35),12	1774,(8, 158),39	1813,(20, 75),6	1819,(20, 163),3	1912,(8, 166),12	1933,(8, 98),111	2083,(12, 30),9	2095,(4, 86),426	2521,(12, 131),42	2563,(12, 174),18	2581,(8, 89),75	2656,(8, 101),81	2743,(12, 166),30	2773,(20, 134),3	2785,(12, 101),18	2803,(12, 171),24	2827,(16, 71),36	2863,(16, 83),15	2905,(12, 34),66	2971,(16, 86),21	3004,(16, 22),39	3043,(16, 118),69	3112,(16, 182),30	3142,(20, 62),21	3163,(20, 142),24	3187,(20, 170),15	3202,(20, 71),15	3217,(20, 114),42	3259,(20, 186),12	3298,(16, 45),9	3307,(16, 53),12	3319,(16, 141),30	3349,(16, 145),45	3394,(16, 177),18	3427,(12, 107),198	3625,(16, 155),27	3652,(16, 199),27	3679,(20, 41),48	3727,(20, 49),114	3841,(20, 73),6	3847,(20, 133),279	4126,(20, 157),6	4132,(20, 181),63	4195,(56, 201),24	4228,(16, 174),135	4363,(76, 201),24	4387,(92, 201),24	4411,(72, 201),24	4435,(28, 201),24	4459,(36, 201),24	4483,(52, 201),24	4507,(172, 201),24	4531,(68, 201),24	4555,(176, 201),24	4579,(104, 201),24	4603,(32, 201),24	4627,(60, 201),24	4651,(124, 201),24	4675,(40, 201),24	4699,(148, 201),24	4813,(156, 201),24	5092,(180, 201),24	5116,(44, 201),24	5140,(80, 201),24	5248,(116, 201),24	5272,(128, 201),24	5680,(192, 201),24	5833,(24, 201),24	6022,(64, 201),24	6064,(20, 47),36	6100,(20, 123),18	6118,(20, 135),18	6136,(20, 175),18	6154,(20, 191),141	6886,(84, 201),24	6910,(184, 201),24	6934,(200, 201),24	6958,(196, 201),24	6982,(88, 201),24	7006,(100, 201),24	7030,(108, 201),24	7054,(120, 201),24	7372,(152, 201),24	7396,(96, 201),24	7771,(112, 201),24	7795,(132, 201),24	7819,(136, 201),24	7867,(144, 201),24	7915,(168, 201),24	7939,(188, 201),24	10963,(140, 201),24	11044,(160, 201),24	12835,(164, 201),24	
88,(3, 40),27	115,(3, 53),36	151,(3, 93),3	154,(3, 137),3	157,(3, 149),3	160,(3, 76),27	187,(3, 108),6	193,(3, 116),6	199,(3, 161),18	217,(7, 21),3	220,(7, 69),3	223,(7, 113),6	346,(167, 201),24	370,(7, 29),15	385,(7, 133),18	403,(7, 149),9	412,(7, 161),30	442,(7, 169),27	469,(7, 177),3	472,(7, 181),6	643,(3, 128),27	670,(3, 188),3	673,(7, 36),15	688,(7, 40),21	709,(7, 60),9	718,(7, 68),18	736,(7, 72),9	745,(7, 80),9	754,(7, 92),3	757,(7, 120),3	760,(7, 128),3	763,(3, 118),9	772,(3, 126),27	799,(3, 130),3	802,(3, 142),3	805,(7, 112),9	814,(3, 150),12	826,(7, 70),3	829,(7, 74),12	841,(7, 136),3	844,(7, 156),3	847,(7, 168),39	886,(7, 192),6	892,(11, 28),18	910,(11, 36),3	913,(11, 84),9	922,(11, 156),3	925,(11, 176),3	928,(11, 192),3	931,(15, 52),15	946,(15, 168),3	949,(15, 172),6	955,(15, 184),3	961,(19, 148),3	967,(11, 25),3	970,(11, 33),3	973,(11, 53),12	985,(11, 133),3	988,(11, 165),3	991,(15, 188),15	1006,(19, 96),12	1021,(3, 154),57	1078,(7, 78),3	1081,(7, 94),6	1087,(7, 150),3	1093,(3, 174),18	1111,(3, 193),630	1741,(7, 102),9	1750,(7, 178),18	1768,(7, 186),3	1771,(7, 198),3	1825,(7, 98),87	1924,(11, 190),3	2011,(19, 40),24	2044,(11, 42),15	2059,(11, 66),6	2065,(11, 110),18	2128,(11, 116),48	2185,(11, 21),30	2215,(11, 101),12	2227,(11, 109),9	2236,(11, 169),9	2245,(15, 29),3	2248,(15, 73),3	2251,(15, 85),12	2263,(15, 125),9	2272,(19, 125),3	2299,(7, 117),105	2404,(7, 185),177	2581,(11, 50),39	2620,(11, 54),42	2662,(11, 118),12	2674,(11, 130),15	2689,(11, 146),15	2704,(15, 22),15	2719,(15, 94),3	2722,(15, 102),3	2725,(3, 100),2004	4729,(11, 129),84	4813,(11, 170),930	5743,(15, 24),87	5830,(15, 64),54	5884,(15, 89),48	5932,(15, 113),30	5962,(15, 117),60	6022,(15, 150),144	6166,(15, 152),1098	7264,(15, 165),96	7360,(15, 169),12	7372,(15, 170),3	7375,(15, 186),48	7423,(19, 29),21	7444,(19, 45),9	7453,(19, 57),189	7642,(19, 70),18	7660,(19, 73),111	7771,(19, 82),279	8050,(19, 93),27	8077,(19, 94),33	8110,(19, 133),51	8161,(19, 137),3	8164,(19, 140),2796	10960,(19, 154),33	10993,(19, 157),3	10996,(19, 160),45	11041,(19, 161),3	11044,(19, 164),144	11188,(19, 165),432	11620,(19, 181),3	11623,(19, 193),156	11779,(95, 201),24	11803,(63, 201),24	11827,(143, 201),24	11851,(159, 201),24	11875,(23, 201),24	11899,(51, 201),24	11923,(75, 201),24	11947,(103, 201),24	11971,(115, 201),24	11995,(55, 201),24	12019,(31, 201),24	12043,(99, 201),24	12067,(151, 201),24	12091,(183, 201),24	12115,(59, 201),24	12139,(91, 201),24	12163,(111, 201),24	12187,(131, 201),24	12211,(139, 201),24	12235,(35, 201),24	12259,(43, 201),24	12283,(27, 201),24	12307,(87, 201),24	12331,(83, 201),24	12355,(127, 201),24	12379,(147, 201),24	12403,(171, 201),24	12427,(195, 201),24	12451,(39, 201),24	12475,(107, 201),24	12499,(155, 201),24	12523,(199, 201),24	12547,(187, 201),24	12571,(79, 201),24	12595,(67, 201),24	12619,(71, 201),24	12643,(119, 201),24	12667,(163, 201),24	12691,(179, 201),24	12715,(47, 201),24	12739,(123, 201),24	12763,(135, 201),24	12787,(175, 201),24	12811,(191, 201),24	
7,(2, 25),15	22,(2, 49),3	25,(2, 35),3	28,(2, 59),3	31,(2, 61),9	40,(2, 76),3	43,(2, 81),3	46,(2, 56),15	61,(2, 89),3	64,(2, 104),9	73,(2, 112),9	82,(2, 47),45	127,(2, 72),33	160,(2, 83),48	208,(2, 84),45	253,(2, 92),390	643,(2, 93),150	793,(2, 97),150	943,(2, 111),15	958,(2, 116),3	961,(2, 119),6	967,(2, 123),3	970,(2, 151),21	991,(2, 173),39	1030,(2, 176),3	1033,(6, 29),3	1036,(6, 37),3	1039,(6, 40),15	1054,(6, 45),3	1057,(6, 68),21	1078,(6, 88),6	1084,(6, 137),18	1102,(10, 69),3	1105,(10, 77),3	1108,(10, 81),3	1249,(2, 200),81	1330,(6, 43),24	1354,(6, 84),18	1372,(6, 152),72	1444,(6, 164),69	1513,(10, 32),3	1516,(10, 80),3	1519,(10, 88),30	1549,(10, 104),3	1552,(6, 39),45	1597,(6, 51),87	1684,(6, 135),9	1693,(6, 183),3	1696,(6, 187),6	1741,(6, 49),222	1963,(6, 117),219	2182,(10, 133),3	2185,(14, 132),3	2188,(14, 148),3	2191,(6, 55),84	2275,(6, 141),24	2299,(10, 31),72	2371,(10, 39),3	2374,(10, 43),3	2377,(10, 67),3	2380,(10, 99),9	2389,(10, 107),3	2392,(10, 111),57	2449,(10, 135),21	2470,(10, 151),33	2503,(10, 183),3	2506,(14, 59),6	2512,(14, 91),3	2515,(14, 111),3	2563,(14, 139),12	2575,(14, 171),27	2602,(14, 179),24	2626,(18, 35),48	2674,(18, 39),18	2692,(18, 43),12	2737,(10, 41),18	2755,(10, 157),21	2776,(10, 193),9	2803,(14, 29),162	2965,(14, 69),156	3121,(14, 73),3	3124,(14, 105),21	3145,(14, 129),24	3169,(14, 137),81	3250,(14, 157),12	3262,(14, 161),36	3412,(18, 53),3	3415,(18, 97),42	3457,(18, 101),24	3481,(18, 125),6	3487,(74, 201),24	3511,(78, 201),24	3535,(194, 201),24	3559,(162, 201),24	3583,(58, 201),24	3607,(178, 201),24	3631,(190, 201),24	3655,(42, 201),24	3751,(6, 79),2172	5923,(10, 84),39	5962,(10, 184),39	6001,(10, 200),18	6019,(14, 96),33	6052,(14, 188),63	6115,(14, 196),3	6118,(18, 88),18	6136,(18, 100),12	6148,(18, 108),3	6151,(18, 120),12	6163,(18, 164),3	6166,(66, 201),24	6190,(50, 201),24	6214,(54, 201),24	6238,(130, 201),24	6262,(102, 201),24	6286,(166, 201),24	6310,(134, 201),24	6334,(90, 201),24	6358,(106, 201),24	6382,(126, 201),24	6406,(34, 201),24	6430,(22, 201),24	6454,(118, 201),24	6478,(182, 201),24	6502,(142, 201),24	6526,(146, 201),24	6550,(158, 201),24	6574,(26, 201),24	6598,(30, 201),24	6622,(38, 201),24	6646,(46, 201),24	6670,(62, 201),24	6694,(86, 201),24	6718,(98, 201),24	6742,(110, 201),24	6766,(114, 201),24	6790,(122, 201),24	6814,(138, 201),24	6838,(198, 201),24	6862,(174, 201),24	7078,(150, 201),24	7264,(18, 96),54	7318,(18, 112),18	7336,(18, 132),6	7342,(18, 136),12	7354,(18, 140),33	7387,(18, 144),27	7414,(18, 168),15	7429,(18, 188),3	7843,(170, 201),24	7891,(186, 201),24	7963,(70, 201),24	8077,(82, 201),24	8164,(94, 201),24	10996,(154, 201),24	
1,(0, 2),3	4,(0, 3),3	7,(0, 4),3	10,(0, 6),3	13,(0, 7),3	16,(0, 8),3	19,(0, 10),3	22,(0, 11),3	25,(0, 12),3	28,(0, 14),3	31,(0, 15),3	34,(0, 16),3	37,(0, 18),3	40,(0, 19),3	43,(0, 20),3	46,(17, 27),36	82,(17, 28),3	85,(17, 36),3	88,(17, 54),627	715,(17, 58),48	763,(17, 59),3	766,(17, 72),6	772,(17, 91),33	805,(17, 94),9	814,(17, 99),9	823,(17, 103),3	826,(17, 123),15	841,(17, 130),180	1021,(17, 139),69	1090,(17, 142),3	1093,(17, 176),156	1249,(17, 182),96	1345,(17, 188),6	1351,(17, 194),3	1354,(17, 195),33	1387,(9, 23),24	1411,(9, 27),141	1552,(9, 32),42	1594,(9, 50),3	1597,(9, 58),54	1651,(9, 60),156	1807,(9, 64),6	1813,(9, 66),12	1825,(9, 71),84	1909,(9, 80),3	1912,(9, 84),12	1924,(9, 100),3	1927,(9, 102),6	1933,(9, 103),3	1936,(9, 111),3	1939,(9, 115),3	1942,(9, 123),3	1945,(9, 124),66	2011,(9, 127),75	2086,(9, 140),6	2092,(9, 154),3	2095,(9, 160),33	2128,(9, 163),27	2155,(9, 175),36	2191,(9, 184),24	2215,(9, 192),3	2218,(9, 196),507	2725,(1, 27),3	2728,(1, 47),9	2737,(1, 62),6	2743,(1, 71),6	2749,(1, 79),42	2791,(1, 87),3	2794,(1, 90),30	2824,(1, 94),6	2830,(1, 98),24	2854,(1, 106),9	2863,(1, 126),27	2890,(1, 127),6	2896,(1, 146),9	2905,(1, 147),15	2920,(1, 171),57	2977,(1, 187),3	2980,(1, 195),3	2983,(13, 39),18	3001,(13, 46),3	3004,(13, 71),198	3202,(13, 110),6	3208,(13, 146),9	3217,(13, 155),210	3427,(13, 158),216	3643,(13, 170),42	3685,(13, 187),66	3751,(5, 26),6	3757,(5, 30),3	3760,(5, 38),39	3799,(5, 46),9	3808,(5, 62),48	3856,(5, 70),96	3952,(5, 86),27	3979,(5, 98),3	3982,(5, 110),6	3988,(5, 114),45	4033,(5, 122),6	4039,(5, 138),3	4042,(5, 174),9	4051,(5, 198),177	4729,(1, 96),3	4732,(1, 112),3	4735,(1, 120),3	4738,(1, 156),3	4741,(1, 180),348	5089,(13, 44),3	5092,(13, 80),39	5131,(13, 112),39	5170,(13, 116),75	5245,(13, 128),3	5248,(13, 132),33	5281,(5, 100),6	5287,(5, 108),3	5290,(5, 152),186	5476,(5, 188),3	5479,(5, 192),198	5923,(5, 67),42	5965,(5, 71),51	6016,(5, 119),3	6019,(5, 163),9	6028,(5, 179),36	
