164
# CPU
0,121,1	1,25,1	2,63,1	3,111,1	4,45,1	5,41,1	6,70,1	7,73,1	8,13,1	9,94,1	10,71,1	11,112,1	12,113,1	13,109,1	14,50,1	15,16,1	16,98,1	17,119,1	18,66,1	19,77,1	20,84,1	21,49,1	22,85,1	23,74,1	24,99,1	25,19,1	26,20,1	27,22,1	28,108,1	29,48,1	30,61,1	31,115,1	32,82,1	33,56,1	34,23,1	35,89,1	36,95,1	37,44,1	38,46,1	39,86,1	40,105,1	41,91,1	42,35,1	43,104,1	44,52,1	45,43,1	46,53,1	47,110,1	48,118,1	49,90,1	50,75,1	51,33,1	52,102,1	53,30,1	54,21,1	55,26,1	56,31,1	57,37,1	58,97,1	59,67,1	60,62,1	61,107,1	62,42,1	63,14,1	64,7,1	65,83,1	66,18,1	67,93,1	68,55,1	69,54,1	70,29,1	71,9,1	72,39,1	73,117,1	74,78,1	75,57,1	76,27,1	77,96,1	78,101,1	79,65,1	80,100,1	81,40,1	82,81,1	83,59,1	84,103,1	85,34,1	86,87,1	87,64,1	88,80,1	89,79,1	90,12,1	91,32,1	92,38,1	93,2,1	94,47,1	95,28,1	96,51,1	97,36,1	98,60,1	99,69,1	100,120,1	101,68,1	102,10,1	103,15,1	104,17,1	105,4,1	106,72,1	107,106,1	108,58,1	109,11,1	110,24,1	111,8,1	112,92,1	113,3,1	114,116,1	115,6,1	116,88,1	117,1,1	118,114,1	162,5,1	163,0,1	

93,76,1	
# Incoming
94,(76, 5),68	

1,(121, 76),92	
# Outgoing
1,(121, 76),92	

94,(76, 5),68	
