24255
# CPU
7057,10,1	12169,107,1	13217,47,1	13389,102,1	13537,106,1	13541,49,1	13869,60,1	18105,73,1	18145,80,1	18349,82,1	18529,104,1	18869,67,1	18873,70,1	19045,74,1	22737,83,1	22785,87,1	22865,89,1	22869,93,1	22929,100,1	22945,103,1	23725,110,1	23841,117,1	23849,45,1	23853,48,1	23861,51,1	23865,55,1	23873,71,1	23893,76,1	23897,77,1	23909,79,1	23925,84,1	23929,86,1	23933,88,1	23937,90,1	23949,94,1	23989,96,1	24029,97,1	24033,98,1	24069,101,1	24101,105,1	24121,109,1	24133,111,1	24189,112,1	24209,114,1	24213,116,1	24245,118,1	
6273,9,1	8493,35,1	8857,40,1	9873,65,1	11681,120,1	12625,53,1	12677,59,1	13137,91,1	
5489,8,1	7990,119,1	7994,31,1	9065,32,1	12701,61,1	13049,85,1	24254,121,1	
4705,7,1	8045,27,1	9765,58,1	9873,66,1	10433,113,1	10697,75,1	12097,28,1	13217,92,1	
3921,6,1	8761,46,1	9317,44,1	12053,25,1	12093,26,1	12213,78,1	12301,42,1	12821,64,1	12857,72,1	
3137,5,1	11861,23,1	12297,41,1	12361,43,1	12813,63,1	12981,81,1	
2353,4,1	8105,21,1	8217,33,1	10269,39,1	10441,57,1	10661,52,1	11489,95,1	11821,19,1	13541,108,1	13869,115,1	16677,34,1	
1569,3,1	8009,24,1	9045,29,1	11817,18,1	11857,22,1	12257,38,1	12837,69,1	19373,54,1	22737,99,1	
785,2,1	7841,12,1	7842,56,1	7843,36,1	7845,15,1	7881,17,1	11689,16,1	12241,30,1	12609,50,1	
0,0,1	1,1,1	2,11,1	7846,13,1	7997,20,1	8125,14,1	11917,68,1	12945,37,1	22245,62,1	
# Incoming
6273,(0, 10),784	7057,(2, 45),88	7145,(2, 48),8	7153,(2, 51),4	7157,(2, 60),40	7197,(2, 73),8	7205,(2, 74),4	7209,(2, 76),32	7241,(2, 77),4	7245,(2, 80),88	7333,(2, 86),4	7337,(2, 87),12	7349,(2, 88),36	7385,(2, 90),16	7401,(2, 93),8	7409,(2, 97),4	7413,(2, 102),4	7417,(2, 103),20	7437,(2, 105),20	7457,(2, 106),184	7641,(2, 107),8	7649,(2, 109),4	7653,(2, 110),16	7669,(2, 111),28	7697,(2, 114),4	7701,(3, 49),44	7745,(3, 55),120	7865,(3, 67),4	7869,(3, 77),4	7873,(3, 79),80	7953,(3, 80),4	7957,(3, 82),76	8033,(3, 83),4	8037,(3, 90),4	8041,(3, 94),4	8045,(3, 96),4	8049,(3, 104),4	8053,(1, 45),8	8061,(1, 48),12	8073,(1, 49),56	8129,(2, 117),844	8973,(3, 86),340	9313,(3, 88),24	9337,(3, 97),36	9373,(3, 98),32	9405,(3, 102),20	9425,(3, 107),12	9437,(3, 109),24	9461,(3, 111),112	9573,(3, 112),104	9677,(3, 114),28	9705,(3, 118),4	9709,(4, 47),12	9721,(4, 55),4	9725,(1, 60),4	9729,(4, 45),48	9777,(4, 70),16	9793,(4, 71),8	9801,(4, 73),4	9805,(4, 77),4	9809,(4, 79),16	9825,(4, 82),40	9865,(4, 87),8	9873,(1, 71),4	9877,(4, 88),36	9913,(1, 73),28	9941,(1, 74),740	10681,(4, 89),4	10685,(4, 90),4	10689,(4, 93),8	10697,(1, 76),100	10797,(4, 94),4	10801,(4, 96),24	10825,(4, 105),4	10829,(4, 106),4	10833,(4, 107),4	10837,(4, 116),4	10841,(1, 79),136	10977,(1, 80),76	11053,(5, 74),4	11057,(1, 82),4	11061,(4, 100),24	11085,(4, 104),20	11105,(4, 109),80	11185,(5, 55),8	11193,(5, 82),4	11197,(5, 84),4	11201,(1, 86),80	11281,(1, 89),4	11285,(1, 90),32	11317,(5, 45),100	11417,(5, 47),20	11437,(5, 77),56	11493,(1, 103),20	11513,(1, 104),48	11561,(1, 105),4	11565,(5, 93),20	11585,(5, 96),4	11589,(5, 102),4	11593,(5, 104),4	11597,(1, 116),16	11613,(1, 117),32	11645,(1, 118),12	11657,(5, 71),84	11741,(5, 80),36	11777,(5, 87),44	11821,(5, 89),56	11877,(5, 94),56	11933,(5, 97),12	11945,(5, 98),108	12053,(5, 101),28	12081,(5, 105),8	12089,(5, 107),80	12169,(5, 109),16	12185,(5, 110),4	12189,(5, 111),4	12193,(5, 114),68	12261,(6, 45),16	12277,(6, 47),32	12309,(6, 49),16	12325,(6, 55),28	12353,(6, 84),8	12361,(11, 45),84	12445,(11, 48),72	12517,(6, 51),80	12597,(6, 80),12	12609,(11, 51),4	12613,(6, 60),40	12653,(6, 93),8	12661,(6, 97),4	12665,(6, 98),12	12677,(11, 60),12	12689,(6, 67),96	12785,(6, 100),8	12793,(6, 103),4	12797,(6, 109),4	12801,(6, 112),4	12805,(6, 117),12	12817,(7, 47),4	12821,(11, 67),12	12833,(7, 67),4	12837,(11, 70),12	12849,(11, 71),4	12853,(7, 71),4	12857,(11, 76),80	12937,(7, 48),12	12949,(7, 60),8	12957,(7, 77),16	12973,(7, 82),8	12981,(11, 83),8	12989,(6, 79),48	13037,(7, 93),8	13045,(7, 102),4	13049,(11, 86),4	13053,(11, 87),4	13057,(11, 90),20	13077,(6, 83),108	13185,(7, 76),28	13213,(8, 47),4	13217,(11, 97),12	13229,(11, 98),88	13317,(7, 101),8	13325,(7, 106),8	13333,(11, 100),44	13377,(11, 102),12	13389,(11, 103),4	13393,(11, 105),128	13521,(11, 106),16	13537,(8, 49),4	13541,(11, 109),8	13549,(11, 110),4	13553,(11, 111),4	13557,(11, 114),12	13569,(6, 90),212	13781,(7, 80),40	13821,(7, 90),32	13853,(7, 105),12	13865,(8, 60),4	13869,(11, 116),12	13881,(11, 117),20	13901,(4, 101),2784	16685,(6, 101),416	17101,(7, 79),392	17493,(7, 84),60	17553,(7, 94),68	17621,(7, 98),56	17677,(7, 100),48	17725,(7, 103),36	17761,(7, 104),68	17829,(7, 110),16	17845,(7, 111),24	17869,(7, 112),32	17901,(7, 114),40	17941,(7, 117),80	18021,(7, 118),16	18037,(8, 48),16	18053,(8, 55),16	18069,(8, 70),12	18081,(8, 71),8	18089,(8, 73),16	18105,(8, 77),32	18137,(8, 79),4	18141,(8, 80),4	18145,(8, 82),204	18349,(8, 83),4	18353,(8, 86),4	18357,(8, 87),4	18361,(8, 88),4	18365,(8, 93),4	18369,(8, 94),8	18377,(8, 98),52	18429,(8, 100),4	18433,(8, 101),60	18493,(8, 103),4	18497,(8, 104),32	18529,(8, 105),116	18645,(8, 110),28	18673,(8, 111),72	18745,(8, 112),28	18773,(8, 114),16	18789,(8, 118),16	18805,(9, 48),40	18845,(9, 51),12	18857,(9, 67),12	18869,(9, 70),4	18873,(9, 74),172	19045,(9, 76),3628	22673,(9, 83),64	22737,(9, 87),48	22785,(9, 88),76	22861,(9, 89),4	22865,(9, 93),4	22869,(9, 97),52	22921,(9, 98),4	22925,(9, 100),4	22929,(9, 101),12	22941,(9, 103),4	22945,(9, 105),12	22957,(9, 109),764	23721,(9, 110),4	23725,(9, 111),12	23737,(9, 112),80	23817,(9, 116),12	23829,(9, 117),12	23841,(12, 45),8	23849,(12, 48),4	23853,(12, 51),8	23861,(12, 55),4	23865,(12, 71),8	23873,(12, 76),20	23893,(12, 77),4	23897,(12, 79),12	23909,(12, 84),16	23925,(12, 86),4	23929,(12, 88),4	23933,(12, 90),4	23937,(12, 94),12	23949,(12, 96),40	23989,(12, 97),40	24029,(12, 98),4	24033,(12, 101),36	24069,(12, 105),32	24101,(12, 109),20	24121,(12, 111),12	24133,(12, 112),56	24189,(12, 114),20	24209,(12, 116),4	24213,(12, 118),32	
5489,(0, 9),784	6273,(2, 40),20	6293,(2, 59),16	6309,(2, 65),60	6369,(2, 91),4	6373,(3, 35),4	6377,(3, 40),12	6389,(3, 53),8	6397,(3, 65),12	6409,(3, 120),28	6437,(4, 35),144	6581,(4, 40),4	6585,(4, 53),4	6589,(4, 59),156	6745,(4, 91),8	6753,(4, 120),4	6757,(5, 40),20	6777,(5, 53),72	6849,(5, 91),4	6853,(5, 120),12	6865,(6, 35),8	6873,(6, 40),16	6889,(6, 91),4	6893,(6, 120),12	6986,(8, 53),368	7370,(8, 65),164	7582,(8, 120),20	7942,(7, 59),8	7950,(12, 35),4	7954,(12, 40),12	7966,(12, 59),16	8001,(10, 35),12	8013,(10, 53),4	8029,(1, 35),8	8037,(1, 40),16	8189,(1, 53),104	8293,(7, 35),200	8493,(7, 53),296	8789,(10, 40),68	8857,(10, 65),40	8981,(7, 120),40	9721,(1, 59),4	9769,(1, 65),104	11317,(1, 91),168	11657,(1, 120),24	12613,(11, 53),12	12633,(11, 59),44	13077,(11, 91),60	
4705,(0, 8),784	5489,(2, 32),4	5493,(2, 61),80	5573,(2, 85),16	5589,(2, 119),20	5609,(3, 32),4	5613,(3, 61),24	5637,(3, 85),36	5673,(3, 119),68	5741,(4, 31),56	5797,(4, 32),4	5801,(5, 31),68	5869,(5, 32),4	5873,(6, 32),8	6846,(9, 32),628	7874,(7, 31),64	7938,(7, 32),4	7950,(7, 119),40	7990,(12, 31),4	8053,(24, 121),8	8105,(10, 32),72	8177,(10, 61),12	8189,(21, 121),8	8218,(33, 121),8	8261,(27, 121),8	8717,(9, 61),284	9001,(46, 121),8	9045,(12, 32),20	9318,(44, 121),8	9657,(12, 61),40	9709,(29, 121),8	9729,(1, 61),40	9769,(56, 121),8	9777,(36, 121),8	9785,(15, 121),8	9793,(17, 121),8	9801,(58, 121),8	9874,(66, 121),8	10270,(39, 121),8	10434,(113, 121),8	10442,(57, 121),8	10662,(52, 121),8	10698,(75, 121),8	11061,(1, 85),140	11490,(95, 121),8	11813,(16, 121),8	11821,(18, 121),8	11829,(19, 121),8	11858,(22, 121),8	12041,(35, 121),8	12049,(40, 121),8	12057,(65, 121),8	12065,(120, 121),8	12073,(25, 121),8	12094,(26, 121),8	12102,(28, 121),8	12170,(107, 121),8	12214,(78, 121),8	12261,(23, 121),8	12269,(38, 121),8	12298,(41, 121),8	12361,(42, 121),8	12369,(43, 121),8	12626,(53, 121),8	12678,(59, 121),8	12689,(11, 61),12	12814,(63, 121),8	12822,(64, 121),8	12838,(69, 121),8	12858,(72, 121),8	12945,(30, 121),8	12953,(50, 121),8	12989,(11, 85),60	13049,(81, 121),8	13138,(91, 121),8	13218,(92, 121),8	13226,(47, 121),8	13390,(102, 121),8	13538,(106, 121),8	13546,(108, 121),8	13554,(49, 121),8	13870,(115, 121),8	13901,(13, 121),8	13909,(20, 121),8	13917,(14, 121),8	13925,(68, 121),8	13933,(37, 121),8	16677,(60, 121),8	16685,(34, 121),8	18106,(73, 121),8	18146,(80, 121),8	18350,(82, 121),8	18530,(104, 121),8	18870,(67, 121),8	18878,(70, 121),8	19046,(74, 121),8	19374,(54, 121),8	22246,(62, 121),8	22738,(99, 121),8	22746,(83, 121),8	22786,(87, 121),8	22866,(89, 121),8	22874,(93, 121),8	22930,(100, 121),8	22946,(103, 121),8	23726,(110, 121),8	23842,(117, 121),8	23850,(45, 121),8	23858,(48, 121),8	23866,(51, 121),8	23874,(55, 121),8	23882,(71, 121),8	23894,(76, 121),8	23902,(77, 121),8	23910,(79, 121),8	23926,(84, 121),8	23934,(86, 121),8	23942,(88, 121),8	23950,(90, 121),8	23958,(94, 121),8	23990,(96, 121),8	24030,(97, 121),8	24038,(98, 121),8	24070,(101, 121),8	24102,(105, 121),8	24122,(109, 121),8	24134,(111, 121),8	24190,(112, 121),8	24210,(114, 121),8	24218,(116, 121),8	24246,(118, 121),8	
3921,(0, 7),784	4705,(2, 27),4	4709,(2, 58),52	4761,(2, 66),4	4765,(3, 27),60	4825,(3, 66),4	4829,(3, 92),128	4957,(3, 113),4	4961,(4, 27),32	4993,(4, 28),4	4997,(4, 92),24	5021,(4, 113),24	5045,(5, 28),4	5049,(6, 28),20	5069,(6, 92),4	5073,(6, 113),4	5149,(5, 66),12	5257,(5, 92),16	6382,(9, 27),4	7354,(8, 58),8	7534,(8, 66),4	7550,(8, 113),28	7782,(9, 66),16	7889,(9, 75),8	7930,(12, 28),20	8001,(1, 27),24	8025,(10, 27),20	8045,(10, 28),4	8073,(10, 66),4	8653,(1, 58),1068	9721,(10, 58),44	9765,(10, 92),32	9797,(10, 113),32	9829,(12, 66),44	10005,(12, 75),68	10349,(12, 113),84	10681,(1, 75),16	12093,(11, 28),4	13137,(11, 92),80	
3137,(0, 6),784	3921,(2, 44),8	3929,(2, 64),4	3933,(2, 72),104	4037,(3, 64),12	4049,(3, 72),96	4145,(3, 78),48	4193,(4, 46),12	4205,(4, 72),4	4266,(5, 25),8	4274,(5, 26),20	4710,(5, 44),248	4958,(7, 44),36	4994,(7, 46),4	6322,(8, 25),56	6782,(9, 25),64	6966,(8, 42),4	6970,(8, 44),4	7366,(8, 64),4	7538,(8, 72),4	7542,(8, 78),4	7546,(9, 42),12	7774,(7, 26),100	7906,(12, 25),4	7910,(12, 26),20	7933,(1, 25),4	7937,(1, 26),64	8001,(7, 25),220	8221,(7, 64),40	8293,(10, 42),36	8329,(10, 44),200	8533,(9, 46),184	8717,(10, 46),44	8761,(10, 78),4	8789,(7, 78),88	8897,(10, 72),68	9249,(12, 42),32	9281,(12, 44),36	9697,(12, 64),60	9877,(1, 72),36	9913,(12, 72),92	10073,(12, 78),112	10797,(1, 78),44	11861,(11, 25),192	12053,(11, 26),40	12093,(9, 78),120	12297,(11, 42),4	12813,(11, 64),8	12853,(11, 72),4	
2353,(0, 5),784	3137,(2, 41),28	3165,(2, 43),68	3233,(2, 81),40	3273,(3, 41),20	3293,(3, 43),48	3341,(3, 63),20	3361,(4, 41),8	4414,(6, 43),4	4530,(6, 81),8	4746,(7, 23),12	4778,(7, 41),16	4794,(7, 43),4	6386,(9, 41),20	6958,(8, 41),8	7362,(8, 63),4	7558,(9, 81),8	7678,(9, 43),104	7886,(12, 23),20	7929,(1, 23),4	7997,(10, 23),4	8017,(10, 81),4	8049,(10, 43),24	8217,(10, 41),76	8877,(7, 81),104	8981,(10, 63),260	10185,(12, 81),164	11053,(1, 81),4	11857,(11, 23),4	12257,(11, 41),40	12301,(11, 43),60	12701,(11, 63),112	12937,(11, 81),44	
1569,(0, 4),784	2353,(2, 19),4	2357,(2, 33),12	2369,(2, 34),4	2373,(2, 95),24	2397,(2, 115),12	2409,(3, 19),36	2445,(3, 21),32	2477,(3, 33),32	2509,(3, 34),60	2569,(3, 39),4	2573,(3, 108),20	2593,(3, 115),64	4234,(5, 19),4	4262,(5, 21),4	4298,(6, 19),4	4302,(6, 39),4	4310,(6, 21),24	4418,(6, 52),36	4538,(6, 95),20	4558,(6, 115),72	4634,(5, 33),64	4698,(5, 34),4	4770,(7, 39),8	4798,(7, 57),12	4854,(7, 52),40	4958,(5, 52),24	4998,(7, 108),12	6318,(8, 19),4	6350,(9, 19),4	6378,(8, 33),32	6410,(9, 21),372	7474,(9, 33),72	7546,(8, 108),4	7578,(8, 115),4	7582,(9, 39),96	7846,(12, 19),16	7862,(12, 21),24	7893,(1, 21),20	7913,(9, 52),164	8077,(10, 21),28	8129,(1, 52),60	8189,(10, 33),28	8293,(1, 57),360	8653,(8, 52),1472	10125,(10, 39),144	10269,(10, 57),172	10441,(10, 108),16	10457,(10, 115),4	10461,(12, 34),36	10497,(12, 52),164	11173,(12, 95),196	11485,(1, 95),4	11565,(1, 108),28	11593,(1, 115),4	11597,(12, 108),216	11817,(11, 19),4	11917,(9, 108),124	12241,(11, 34),12	12253,(9, 115),272	13537,(11, 108),4	13569,(11, 115),300	13869,(10, 34),2808	
785,(0, 3),784	1569,(2, 18),8	1577,(2, 22),4	1581,(2, 24),4	1585,(2, 29),16	1601,(2, 38),28	1629,(2, 69),8	2386,(4, 18),12	2398,(4, 29),16	2470,(4, 38),28	2558,(4, 69),24	4294,(5, 29),12	4306,(6, 18),4	4334,(6, 22),4	4338,(6, 24),64	4402,(6, 38),12	4454,(6, 54),20	4706,(5, 38),4	4710,(7, 18),36	4758,(7, 29),4	4934,(7, 69),16	4982,(5, 54),8	5006,(5, 99),4	5010,(7, 24),2764	7774,(8, 18),4	7778,(8, 22),24	7802,(9, 18),4	7806,(9, 24),44	7850,(9, 29),20	7870,(9, 69),8	7881,(1, 18),12	7913,(1, 22),16	7929,(8, 24),80	8009,(8, 29),300	8309,(9, 38),224	8697,(10, 99),20	8973,(12, 18),24	8997,(12, 29),48	9065,(12, 38),184	9317,(12, 54),340	10125,(8, 99),632	10757,(12, 69),416	11489,(1, 99),4	11689,(11, 18),128	11821,(11, 22),36	12253,(11, 38),4	12625,(11, 54),8	12833,(11, 69),4	13317,(11, 99),16	13333,(2, 54),6040	22245,(12, 99),492	
1,(0, 2),784	1602,(3, 16),28	1634,(3, 36),8	2162,(3, 50),40	2202,(3, 56),4	2370,(4, 16),12	2382,(4, 17),4	2414,(4, 30),28	2498,(4, 56),48	4230,(5, 15),4	4274,(6, 16),8	4282,(6, 17),16	4306,(5, 30),328	4634,(6, 30),132	4766,(6, 36),8	4774,(6, 50),44	4818,(7, 16),24	4842,(7, 30),4	4846,(7, 50),8	4894,(7, 56),24	5049,(5, 50),100	5570,(8, 15),584	6154,(8, 16),68	6222,(8, 17),96	6318,(9, 16),32	6974,(8, 50),12	7057,(0, 12),784	7841,(1, 15),4	7845,(1, 16),4	7849,(1, 17),32	7881,(9, 50),8	7889,(10, 16),16	8025,(1, 30),4	8529,(10, 50),168	11681,(11, 16),8	12097,(11, 30),144	12517,(11, 50),92	
786,(2, 13),20	806,(2, 20),8	814,(2, 37),4	818,(2, 62),16	834,(2, 68),140	1570,(3, 14),32	1630,(3, 20),4	1642,(3, 37),520	2354,(4, 14),16	2442,(4, 37),28	2546,(4, 68),12	3138,(5, 13),1092	4238,(5, 20),24	4262,(6, 14),12	4474,(6, 62),8	4482,(6, 68),48	4702,(5, 37),4	4706,(7, 13),4	4762,(7, 37),8	4810,(7, 68),4	4918,(7, 62),16	4990,(5, 62),16	5161,(5, 68),96	5490,(8, 13),52	5542,(8, 14),28	6354,(9, 20),28	6406,(9, 62),4	6410,(8, 37),548	7842,(12, 13),4	7905,(10, 20),92	7997,(12, 14),128	9001,(9, 68),2916	11917,(12, 37),1028	19373,(12, 62),2872	
# Outgoing
7889,(10, 16),16	7905,(10, 20),92	7997,(10, 23),4	8001,(10, 35),12	8013,(10, 53),4	8017,(10, 81),4	8025,(10, 27),20	8045,(10, 28),4	8049,(10, 43),24	8073,(10, 66),4	8077,(10, 21),28	8105,(10, 32),72	8177,(10, 61),12	8189,(10, 33),28	8217,(10, 41),76	8293,(10, 42),36	8329,(10, 44),200	8529,(10, 50),168	8697,(10, 99),20	8717,(10, 46),44	8761,(10, 78),4	8789,(10, 40),68	8857,(10, 65),40	8897,(10, 72),68	8981,(10, 63),260	9721,(10, 58),44	9765,(10, 92),32	9797,(10, 113),32	10125,(10, 39),144	10269,(10, 57),172	10441,(10, 108),16	10457,(10, 115),4	12170,(107, 121),8	13226,(47, 121),8	13390,(102, 121),8	13538,(106, 121),8	13554,(49, 121),8	13869,(10, 34),2808	16677,(60, 121),8	18106,(73, 121),8	18146,(80, 121),8	18350,(82, 121),8	18530,(104, 121),8	18870,(67, 121),8	18878,(70, 121),8	19046,(74, 121),8	22746,(83, 121),8	22786,(87, 121),8	22866,(89, 121),8	22874,(93, 121),8	22930,(100, 121),8	22946,(103, 121),8	23726,(110, 121),8	23842,(117, 121),8	23850,(45, 121),8	23858,(48, 121),8	23866,(51, 121),8	23874,(55, 121),8	23882,(71, 121),8	23894,(76, 121),8	23902,(77, 121),8	23910,(79, 121),8	23926,(84, 121),8	23934,(86, 121),8	23942,(88, 121),8	23950,(90, 121),8	23958,(94, 121),8	23990,(96, 121),8	24030,(97, 121),8	24038,(98, 121),8	24070,(101, 121),8	24102,(105, 121),8	24122,(109, 121),8	24134,(111, 121),8	24190,(112, 121),8	24210,(114, 121),8	24218,(116, 121),8	24246,(118, 121),8	
6318,(9, 16),32	6350,(9, 19),4	6354,(9, 20),28	6382,(9, 27),4	6386,(9, 41),20	6406,(9, 62),4	6410,(9, 21),372	6782,(9, 25),64	6846,(9, 32),628	7474,(9, 33),72	7546,(9, 42),12	7558,(9, 81),8	7582,(9, 39),96	7678,(9, 43),104	7782,(9, 66),16	7802,(9, 18),4	7806,(9, 24),44	7850,(9, 29),20	7870,(9, 69),8	7881,(9, 50),8	7889,(9, 75),8	7913,(9, 52),164	8309,(9, 38),224	8533,(9, 46),184	8717,(9, 61),284	9001,(9, 68),2916	11917,(9, 108),124	12041,(35, 121),8	12049,(40, 121),8	12057,(65, 121),8	12065,(120, 121),8	12093,(9, 78),120	12253,(9, 115),272	12626,(53, 121),8	12678,(59, 121),8	13138,(91, 121),8	18805,(9, 48),40	18845,(9, 51),12	18857,(9, 67),12	18869,(9, 70),4	18873,(9, 74),172	19045,(9, 76),3628	22673,(9, 83),64	22737,(9, 87),48	22785,(9, 88),76	22861,(9, 89),4	22865,(9, 93),4	22869,(9, 97),52	22921,(9, 98),4	22925,(9, 100),4	22929,(9, 101),12	22941,(9, 103),4	22945,(9, 105),12	22957,(9, 109),764	23721,(9, 110),4	23725,(9, 111),12	23737,(9, 112),80	23817,(9, 116),12	23829,(9, 117),12	
5490,(8, 13),52	5542,(8, 14),28	5570,(8, 15),584	6154,(8, 16),68	6222,(8, 17),96	6318,(8, 19),4	6322,(8, 25),56	6378,(8, 33),32	6410,(8, 37),548	6958,(8, 41),8	6966,(8, 42),4	6970,(8, 44),4	6974,(8, 50),12	6986,(8, 53),368	7354,(8, 58),8	7362,(8, 63),4	7366,(8, 64),4	7370,(8, 65),164	7534,(8, 66),4	7538,(8, 72),4	7542,(8, 78),4	7546,(8, 108),4	7550,(8, 113),28	7578,(8, 115),4	7582,(8, 120),20	7774,(8, 18),4	7778,(8, 22),24	7929,(8, 24),80	8009,(8, 29),300	8653,(8, 52),1472	10125,(8, 99),632	13213,(8, 47),4	13537,(8, 49),4	13865,(8, 60),4	18037,(8, 48),16	18053,(8, 55),16	18069,(8, 70),12	18081,(8, 71),8	18089,(8, 73),16	18105,(8, 77),32	18137,(8, 79),4	18141,(8, 80),4	18145,(8, 82),204	18349,(8, 83),4	18353,(8, 86),4	18357,(8, 87),4	18361,(8, 88),4	18365,(8, 93),4	18369,(8, 94),8	18377,(8, 98),52	18429,(8, 100),4	18433,(8, 101),60	18493,(8, 103),4	18497,(8, 104),32	18529,(8, 105),116	18645,(8, 110),28	18673,(8, 111),72	18745,(8, 112),28	18773,(8, 114),16	18789,(8, 118),16	
4706,(7, 13),4	4710,(7, 18),36	4746,(7, 23),12	4758,(7, 29),4	4762,(7, 37),8	4770,(7, 39),8	4778,(7, 41),16	4794,(7, 43),4	4798,(7, 57),12	4810,(7, 68),4	4818,(7, 16),24	4842,(7, 30),4	4846,(7, 50),8	4854,(7, 52),40	4894,(7, 56),24	4918,(7, 62),16	4934,(7, 69),16	4958,(7, 44),36	4994,(7, 46),4	4998,(7, 108),12	5010,(7, 24),2764	7774,(7, 26),100	7874,(7, 31),64	7938,(7, 32),4	7942,(7, 59),8	7950,(7, 119),40	8001,(7, 25),220	8221,(7, 64),40	8261,(27, 121),8	8293,(7, 35),200	8493,(7, 53),296	8789,(7, 78),88	8877,(7, 81),104	8981,(7, 120),40	9801,(58, 121),8	9874,(66, 121),8	10434,(113, 121),8	10698,(75, 121),8	12102,(28, 121),8	12817,(7, 47),4	12833,(7, 67),4	12853,(7, 71),4	12937,(7, 48),12	12949,(7, 60),8	12957,(7, 77),16	12973,(7, 82),8	13037,(7, 93),8	13045,(7, 102),4	13185,(7, 76),28	13218,(92, 121),8	13317,(7, 101),8	13325,(7, 106),8	13781,(7, 80),40	13821,(7, 90),32	13853,(7, 105),12	17101,(7, 79),392	17493,(7, 84),60	17553,(7, 94),68	17621,(7, 98),56	17677,(7, 100),48	17725,(7, 103),36	17761,(7, 104),68	17829,(7, 110),16	17845,(7, 111),24	17869,(7, 112),32	17901,(7, 114),40	17941,(7, 117),80	18021,(7, 118),16	
4262,(6, 14),12	4274,(6, 16),8	4282,(6, 17),16	4298,(6, 19),4	4302,(6, 39),4	4306,(6, 18),4	4310,(6, 21),24	4334,(6, 22),4	4338,(6, 24),64	4402,(6, 38),12	4414,(6, 43),4	4418,(6, 52),36	4454,(6, 54),20	4474,(6, 62),8	4482,(6, 68),48	4530,(6, 81),8	4538,(6, 95),20	4558,(6, 115),72	4634,(6, 30),132	4766,(6, 36),8	4774,(6, 50),44	5049,(6, 28),20	5069,(6, 92),4	5073,(6, 113),4	5873,(6, 32),8	6865,(6, 35),8	6873,(6, 40),16	6889,(6, 91),4	6893,(6, 120),12	9001,(46, 121),8	9318,(44, 121),8	12073,(25, 121),8	12094,(26, 121),8	12214,(78, 121),8	12261,(6, 45),16	12277,(6, 47),32	12309,(6, 49),16	12325,(6, 55),28	12353,(6, 84),8	12361,(42, 121),8	12517,(6, 51),80	12597,(6, 80),12	12613,(6, 60),40	12653,(6, 93),8	12661,(6, 97),4	12665,(6, 98),12	12689,(6, 67),96	12785,(6, 100),8	12793,(6, 103),4	12797,(6, 109),4	12801,(6, 112),4	12805,(6, 117),12	12822,(64, 121),8	12858,(72, 121),8	12989,(6, 79),48	13077,(6, 83),108	13569,(6, 90),212	16685,(6, 101),416	
3138,(5, 13),1092	4230,(5, 15),4	4234,(5, 19),4	4238,(5, 20),24	4262,(5, 21),4	4266,(5, 25),8	4274,(5, 26),20	4294,(5, 29),12	4306,(5, 30),328	4634,(5, 33),64	4698,(5, 34),4	4702,(5, 37),4	4706,(5, 38),4	4710,(5, 44),248	4958,(5, 52),24	4982,(5, 54),8	4990,(5, 62),16	5006,(5, 99),4	5045,(5, 28),4	5049,(5, 50),100	5149,(5, 66),12	5161,(5, 68),96	5257,(5, 92),16	5801,(5, 31),68	5869,(5, 32),4	6757,(5, 40),20	6777,(5, 53),72	6849,(5, 91),4	6853,(5, 120),12	11053,(5, 74),4	11185,(5, 55),8	11193,(5, 82),4	11197,(5, 84),4	11317,(5, 45),100	11417,(5, 47),20	11437,(5, 77),56	11565,(5, 93),20	11585,(5, 96),4	11589,(5, 102),4	11593,(5, 104),4	11657,(5, 71),84	11741,(5, 80),36	11777,(5, 87),44	11821,(5, 89),56	11877,(5, 94),56	11933,(5, 97),12	11945,(5, 98),108	12053,(5, 101),28	12081,(5, 105),8	12089,(5, 107),80	12169,(5, 109),16	12185,(5, 110),4	12189,(5, 111),4	12193,(5, 114),68	12261,(23, 121),8	12298,(41, 121),8	12369,(43, 121),8	12814,(63, 121),8	13049,(81, 121),8	
2354,(4, 14),16	2370,(4, 16),12	2382,(4, 17),4	2386,(4, 18),12	2398,(4, 29),16	2414,(4, 30),28	2442,(4, 37),28	2470,(4, 38),28	2498,(4, 56),48	2546,(4, 68),12	2558,(4, 69),24	3361,(4, 41),8	4193,(4, 46),12	4205,(4, 72),4	4961,(4, 27),32	4993,(4, 28),4	4997,(4, 92),24	5021,(4, 113),24	5741,(4, 31),56	5797,(4, 32),4	6437,(4, 35),144	6581,(4, 40),4	6585,(4, 53),4	6589,(4, 59),156	6745,(4, 91),8	6753,(4, 120),4	8189,(21, 121),8	8218,(33, 121),8	9709,(4, 47),12	9721,(4, 55),4	9729,(4, 45),48	9777,(4, 70),16	9793,(4, 71),8	9801,(4, 73),4	9805,(4, 77),4	9809,(4, 79),16	9825,(4, 82),40	9865,(4, 87),8	9877,(4, 88),36	10270,(39, 121),8	10442,(57, 121),8	10662,(52, 121),8	10681,(4, 89),4	10685,(4, 90),4	10689,(4, 93),8	10797,(4, 94),4	10801,(4, 96),24	10825,(4, 105),4	10829,(4, 106),4	10833,(4, 107),4	10837,(4, 116),4	11061,(4, 100),24	11085,(4, 104),20	11105,(4, 109),80	11490,(95, 121),8	11829,(19, 121),8	13546,(108, 121),8	13870,(115, 121),8	13901,(4, 101),2784	16685,(34, 121),8	
1570,(3, 14),32	1602,(3, 16),28	1630,(3, 20),4	1634,(3, 36),8	1642,(3, 37),520	2162,(3, 50),40	2202,(3, 56),4	2409,(3, 19),36	2445,(3, 21),32	2477,(3, 33),32	2509,(3, 34),60	2569,(3, 39),4	2573,(3, 108),20	2593,(3, 115),64	3273,(3, 41),20	3293,(3, 43),48	3341,(3, 63),20	4037,(3, 64),12	4049,(3, 72),96	4145,(3, 78),48	4765,(3, 27),60	4825,(3, 66),4	4829,(3, 92),128	4957,(3, 113),4	5609,(3, 32),4	5613,(3, 61),24	5637,(3, 85),36	5673,(3, 119),68	6373,(3, 35),4	6377,(3, 40),12	6389,(3, 53),8	6397,(3, 65),12	6409,(3, 120),28	7701,(3, 49),44	7745,(3, 55),120	7865,(3, 67),4	7869,(3, 77),4	7873,(3, 79),80	7953,(3, 80),4	7957,(3, 82),76	8033,(3, 83),4	8037,(3, 90),4	8041,(3, 94),4	8045,(3, 96),4	8049,(3, 104),4	8053,(24, 121),8	8973,(3, 86),340	9313,(3, 88),24	9337,(3, 97),36	9373,(3, 98),32	9405,(3, 102),20	9425,(3, 107),12	9437,(3, 109),24	9461,(3, 111),112	9573,(3, 112),104	9677,(3, 114),28	9705,(3, 118),4	9709,(29, 121),8	11821,(18, 121),8	11858,(22, 121),8	12269,(38, 121),8	12838,(69, 121),8	19374,(54, 121),8	22738,(99, 121),8	
786,(2, 13),20	806,(2, 20),8	814,(2, 37),4	818,(2, 62),16	834,(2, 68),140	1569,(2, 18),8	1577,(2, 22),4	1581,(2, 24),4	1585,(2, 29),16	1601,(2, 38),28	1629,(2, 69),8	2353,(2, 19),4	2357,(2, 33),12	2369,(2, 34),4	2373,(2, 95),24	2397,(2, 115),12	3137,(2, 41),28	3165,(2, 43),68	3233,(2, 81),40	3921,(2, 44),8	3929,(2, 64),4	3933,(2, 72),104	4705,(2, 27),4	4709,(2, 58),52	4761,(2, 66),4	5489,(2, 32),4	5493,(2, 61),80	5573,(2, 85),16	5589,(2, 119),20	6273,(2, 40),20	6293,(2, 59),16	6309,(2, 65),60	6369,(2, 91),4	7057,(2, 45),88	7145,(2, 48),8	7153,(2, 51),4	7157,(2, 60),40	7197,(2, 73),8	7205,(2, 74),4	7209,(2, 76),32	7241,(2, 77),4	7245,(2, 80),88	7333,(2, 86),4	7337,(2, 87),12	7349,(2, 88),36	7385,(2, 90),16	7401,(2, 93),8	7409,(2, 97),4	7413,(2, 102),4	7417,(2, 103),20	7437,(2, 105),20	7457,(2, 106),184	7641,(2, 107),8	7649,(2, 109),4	7653,(2, 110),16	7669,(2, 111),28	7697,(2, 114),4	7842,(12, 13),4	7846,(12, 19),16	7862,(12, 21),24	7886,(12, 23),20	7906,(12, 25),4	7910,(12, 26),20	7930,(12, 28),20	7950,(12, 35),4	7954,(12, 40),12	7966,(12, 59),16	7990,(12, 31),4	7997,(12, 14),128	8129,(2, 117),844	8973,(12, 18),24	8997,(12, 29),48	9045,(12, 32),20	9065,(12, 38),184	9249,(12, 42),32	9281,(12, 44),36	9317,(12, 54),340	9657,(12, 61),40	9697,(12, 64),60	9769,(56, 121),8	9777,(36, 121),8	9785,(15, 121),8	9793,(17, 121),8	9829,(12, 66),44	9913,(12, 72),92	10005,(12, 75),68	10073,(12, 78),112	10185,(12, 81),164	10349,(12, 113),84	10461,(12, 34),36	10497,(12, 52),164	10757,(12, 69),416	11173,(12, 95),196	11597,(12, 108),216	11813,(16, 121),8	11917,(12, 37),1028	12945,(30, 121),8	12953,(50, 121),8	13333,(2, 54),6040	19373,(12, 62),2872	22245,(12, 99),492	23841,(12, 45),8	23849,(12, 48),4	23853,(12, 51),8	23861,(12, 55),4	23865,(12, 71),8	23873,(12, 76),20	23893,(12, 77),4	23897,(12, 79),12	23909,(12, 84),16	23925,(12, 86),4	23929,(12, 88),4	23933,(12, 90),4	23937,(12, 94),12	23949,(12, 96),40	23989,(12, 97),40	24029,(12, 98),4	24033,(12, 101),36	24069,(12, 105),32	24101,(12, 109),20	24121,(12, 111),12	24133,(12, 112),56	24189,(12, 114),20	24209,(12, 116),4	24213,(12, 118),32	
1,(0, 2),784	785,(0, 3),784	1569,(0, 4),784	2353,(0, 5),784	3137,(0, 6),784	3921,(0, 7),784	4705,(0, 8),784	5489,(0, 9),784	6273,(0, 10),784	7057,(0, 12),784	7841,(1, 15),4	7845,(1, 16),4	7849,(1, 17),32	7881,(1, 18),12	7893,(1, 21),20	7913,(1, 22),16	7929,(1, 23),4	7933,(1, 25),4	7937,(1, 26),64	8001,(1, 27),24	8025,(1, 30),4	8029,(1, 35),8	8037,(1, 40),16	8053,(1, 45),8	8061,(1, 48),12	8073,(1, 49),56	8129,(1, 52),60	8189,(1, 53),104	8293,(1, 57),360	8653,(1, 58),1068	9721,(1, 59),4	9725,(1, 60),4	9729,(1, 61),40	9769,(1, 65),104	9873,(1, 71),4	9877,(1, 72),36	9913,(1, 73),28	9941,(1, 74),740	10681,(1, 75),16	10697,(1, 76),100	10797,(1, 78),44	10841,(1, 79),136	10977,(1, 80),76	11053,(1, 81),4	11057,(1, 82),4	11061,(1, 85),140	11201,(1, 86),80	11281,(1, 89),4	11285,(1, 90),32	11317,(1, 91),168	11485,(1, 95),4	11489,(1, 99),4	11493,(1, 103),20	11513,(1, 104),48	11561,(1, 105),4	11565,(1, 108),28	11593,(1, 115),4	11597,(1, 116),16	11613,(1, 117),32	11645,(1, 118),12	11657,(1, 120),24	11681,(11, 16),8	11689,(11, 18),128	11817,(11, 19),4	11821,(11, 22),36	11857,(11, 23),4	11861,(11, 25),192	12053,(11, 26),40	12093,(11, 28),4	12097,(11, 30),144	12241,(11, 34),12	12253,(11, 38),4	12257,(11, 41),40	12297,(11, 42),4	12301,(11, 43),60	12361,(11, 45),84	12445,(11, 48),72	12517,(11, 50),92	12609,(11, 51),4	12613,(11, 53),12	12625,(11, 54),8	12633,(11, 59),44	12677,(11, 60),12	12689,(11, 61),12	12701,(11, 63),112	12813,(11, 64),8	12821,(11, 67),12	12833,(11, 69),4	12837,(11, 70),12	12849,(11, 71),4	12853,(11, 72),4	12857,(11, 76),80	12937,(11, 81),44	12981,(11, 83),8	12989,(11, 85),60	13049,(11, 86),4	13053,(11, 87),4	13057,(11, 90),20	13077,(11, 91),60	13137,(11, 92),80	13217,(11, 97),12	13229,(11, 98),88	13317,(11, 99),16	13333,(11, 100),44	13377,(11, 102),12	13389,(11, 103),4	13393,(11, 105),128	13521,(11, 106),16	13537,(11, 108),4	13541,(11, 109),8	13549,(11, 110),4	13553,(11, 111),4	13557,(11, 114),12	13569,(11, 115),300	13869,(11, 116),12	13881,(11, 117),20	13901,(13, 121),8	13909,(20, 121),8	13917,(14, 121),8	13925,(68, 121),8	13933,(37, 121),8	22246,(62, 121),8	
