10226
# CPU
10,4,1	11,52,1	12,68,1	16,12,1	19,8,1	20,16,1	145,24,1	166,64,1	310,80,1	313,32,1	328,44,1	331,76,1	439,28,1	568,60,1	1612,36,1	1843,48,1	3151,40,1	3160,20,1	3610,56,1	3697,72,1	
7,3,1	8,15,1	16,7,1	17,43,1	37,23,1	148,35,1	160,59,1	205,67,1	436,19,1	550,55,1	571,79,1	3142,27,1	3154,71,1	3163,31,1	3214,39,1	3376,47,1	3643,63,1	3703,75,1	6673,51,1	8356,11,1	
4,2,1	5,26,1	6,42,1	13,6,1	3106,10,1	3133,18,1	3157,14,1	3160,62,1	3163,38,1	3172,74,1	3178,66,1	3220,46,1	6664,50,1	6823,58,1	6946,70,1	7006,30,1	7198,54,1	8266,78,1	8701,22,1	9073,34,1	
0,0,1	1,5,1	2,1,1	3,57,1	4,69,1	5,9,1	6,41,1	7,65,1	8,13,1	9,37,1	1042,21,1	1558,33,1	1564,25,1	1624,45,1	1675,53,1	1849,49,1	1852,61,1	1882,77,1	3160,29,1	7270,73,1	8371,17,1	10225,81,1	
# Incoming
7,(0, 4),3	10,(2, 12),6	16,(0, 8),3	37,(2, 24),108	160,(2, 60),3	163,(2, 64),3	166,(3, 20),141	307,(3, 80),3	310,(7, 32),3	313,(7, 44),15	328,(7, 76),3	436,(6, 28),3	439,(6, 48),9	550,(6, 60),18	1558,(3, 36),54	1747,(7, 48),96	3142,(5, 40),9	3154,(1, 20),6	3376,(1, 56),234	3643,(1, 72),54	
4,(0, 3),3	13,(0, 7),3	16,(2, 23),21	145,(2, 35),3	148,(2, 59),12	166,(2, 67),39	349,(6, 19),87	448,(6, 55),102	568,(6, 79),3	3133,(5, 27),9	3151,(5, 71),3	3160,(1, 31),3	3163,(1, 39),51	3220,(1, 47),156	3610,(1, 63),33	3697,(1, 75),6	6664,(4, 51),9	8338,(8, 11),18	
1,(0, 2),3	10,(0, 6),3	19,(5, 10),3087	3106,(5, 18),27	3133,(4, 14),24	3157,(7, 62),3	3160,(4, 38),3	3163,(4, 74),9	3172,(7, 66),6	3214,(1, 46),6	3220,(3, 30),99	3319,(4, 50),3345	6673,(4, 58),150	6823,(4, 70),123	6946,(7, 30),60	7006,(7, 54),192	7270,(4, 78),996	8371,(8, 22),330	8701,(8, 34),372	
205,(26, 81),72	277,(42, 81),72	349,(3, 21),693	1042,(3, 33),516	1558,(6, 25),6	1612,(3, 45),12	1624,(3, 53),51	1675,(15, 81),72	1843,(7, 49),6	1849,(7, 61),3	1852,(7, 77),30	1882,(43, 81),72	1954,(23, 81),72	2026,(35, 81),72	2098,(59, 81),72	2170,(67, 81),72	2242,(19, 81),72	2314,(55, 81),72	2386,(79, 81),72	3157,(4, 29),3	3172,(52, 81),72	3244,(68, 81),72	3316,(10, 81),72	3388,(18, 81),72	3460,(27, 81),72	3532,(71, 81),72	3604,(14, 81),72	3676,(62, 81),72	3748,(38, 81),72	3820,(31, 81),72	3892,(74, 81),72	3964,(66, 81),72	4036,(39, 81),72	4108,(46, 81),72	4180,(47, 81),72	4252,(63, 81),72	4324,(75, 81),72	6665,(50, 81),72	6737,(51, 81),72	6824,(58, 81),72	6946,(4, 73),324	7270,(70, 81),72	7342,(30, 81),72	7414,(54, 81),72	8266,(12, 81),72	8356,(8, 17),15	8371,(78, 81),72	8443,(11, 81),72	8702,(22, 81),72	9073,(16, 81),72	9145,(24, 81),72	9217,(64, 81),72	9289,(80, 81),72	9361,(32, 81),72	9433,(44, 81),72	9505,(76, 81),72	9577,(28, 81),72	9649,(60, 81),72	9721,(36, 81),72	9793,(48, 81),72	9865,(40, 81),72	9937,(20, 81),72	10009,(56, 81),72	10081,(72, 81),72	10153,(34, 81),72	
# Outgoing
3133,(4, 14),24	3157,(4, 29),3	3160,(4, 38),3	3163,(4, 74),9	3172,(52, 81),72	3244,(68, 81),72	3319,(4, 50),3345	6664,(4, 51),9	6673,(4, 58),150	6823,(4, 70),123	6946,(4, 73),324	7270,(4, 78),996	8266,(12, 81),72	8338,(8, 11),18	8356,(8, 17),15	8371,(8, 22),330	8701,(8, 34),372	9073,(16, 81),72	9145,(24, 81),72	9217,(64, 81),72	9289,(80, 81),72	9361,(32, 81),72	9433,(44, 81),72	9505,(76, 81),72	9577,(28, 81),72	9649,(60, 81),72	9721,(36, 81),72	9793,(48, 81),72	9865,(40, 81),72	9937,(20, 81),72	10009,(56, 81),72	10081,(72, 81),72	
166,(3, 20),141	307,(3, 80),3	310,(7, 32),3	313,(7, 44),15	328,(7, 76),3	349,(3, 21),693	1042,(3, 33),516	1558,(3, 36),54	1612,(3, 45),12	1624,(3, 53),51	1675,(15, 81),72	1747,(7, 48),96	1843,(7, 49),6	1849,(7, 61),3	1852,(7, 77),30	1882,(43, 81),72	1954,(23, 81),72	2026,(35, 81),72	2098,(59, 81),72	2170,(67, 81),72	2242,(19, 81),72	2314,(55, 81),72	2386,(79, 81),72	3157,(7, 62),3	3172,(7, 66),6	3220,(3, 30),99	3460,(27, 81),72	3532,(71, 81),72	3820,(31, 81),72	4036,(39, 81),72	4180,(47, 81),72	4252,(63, 81),72	4324,(75, 81),72	6737,(51, 81),72	6946,(7, 30),60	7006,(7, 54),192	8443,(11, 81),72	
10,(2, 12),6	16,(2, 23),21	37,(2, 24),108	145,(2, 35),3	148,(2, 59),12	160,(2, 60),3	163,(2, 64),3	166,(2, 67),39	205,(26, 81),72	277,(42, 81),72	349,(6, 19),87	436,(6, 28),3	439,(6, 48),9	448,(6, 55),102	550,(6, 60),18	568,(6, 79),3	1558,(6, 25),6	3316,(10, 81),72	3388,(18, 81),72	3604,(14, 81),72	3676,(62, 81),72	3748,(38, 81),72	3892,(74, 81),72	3964,(66, 81),72	4108,(46, 81),72	6665,(50, 81),72	6824,(58, 81),72	7270,(70, 81),72	7342,(30, 81),72	7414,(54, 81),72	8371,(78, 81),72	8702,(22, 81),72	10153,(34, 81),72	
1,(0, 2),3	4,(0, 3),3	7,(0, 4),3	10,(0, 6),3	13,(0, 7),3	16,(0, 8),3	19,(5, 10),3087	3106,(5, 18),27	3133,(5, 27),9	3142,(5, 40),9	3151,(5, 71),3	3154,(1, 20),6	3160,(1, 31),3	3163,(1, 39),51	3214,(1, 46),6	3220,(1, 47),156	3376,(1, 56),234	3610,(1, 63),33	3643,(1, 72),54	3697,(1, 75),6	
