39088
# CPU
31143,5,9	31157,6,9	31221,14,9	31230,15,9	31313,17,9	31945,18,9	31965,19,9	32011,32,9	32241,10,9	32601,29,9	37807,31,9	38157,34,9	38229,37,9	38789,7,9	38833,16,9	38869,38,9	38921,39,9	38957,40,9	39087,41,1	
135,2,9	144,8,9	153,13,9	297,12,9	30955,23,9	30979,24,9	31967,21,9	31976,25,9	31985,28,9	
0,0,1	1,1,9	10,3,9	19,9,9	28,11,9	37,33,9	296,20,9	
269,4,9	278,30,9	287,35,9	30943,22,9	30997,27,9	31115,36,9	31971,26,9	
# Incoming
269,(1, 6),2	271,(1, 10),6	278,(4, 5),2	280,(4, 10),10	290,(4, 14),2	292,(4, 19),2	297,(1, 16),6	303,(1, 17),30630	30933,(1, 18),2	30935,(2, 6),30	30965,(2, 7),12	30977,(2, 14),8	30985,(2, 15),6	30991,(2, 17),4	30995,(2, 18),18	31013,(2, 19),28	31041,(2, 38),4	31045,(8, 41),10	31055,(4, 31),2	31057,(4, 34),2	31059,(1, 29),2	31061,(1, 31),2	31063,(1, 34),10	31073,(13, 41),10	31083,(4, 15),16	31099,(4, 18),6	31105,(4, 32),4	31115,(1, 40),18	31133,(3, 5),10	31143,(3, 6),14	31157,(3, 7),16	31173,(3, 10),24	31197,(3, 14),24	31221,(3, 15),4	31225,(3, 16),32	31257,(3, 17),56	31313,(3, 18),632	31945,(3, 19),20	31973,(3, 29),4	31977,(3, 31),8	31985,(3, 32),26	32011,(3, 34),4	32015,(3, 37),8	32023,(3, 39),26	32049,(3, 40),54	32103,(9, 41),10	32113,(11, 41),10	32123,(33, 41),10	32133,(2, 10),108	32241,(2, 29),360	32601,(2, 31),5206	37807,(2, 34),350	38157,(2, 37),72	38229,(2, 39),202	38431,(4, 7),358	38789,(4, 16),44	38833,(4, 38),36	38869,(4, 39),52	38921,(4, 40),36	38957,(30, 41),10	38967,(35, 41),10	38977,(20, 41),10	38987,(12, 41),10	38997,(22, 41),10	39007,(23, 41),10	39017,(24, 41),10	39027,(27, 41),10	39037,(36, 41),10	39047,(21, 41),10	39057,(26, 41),10	39067,(25, 41),10	39077,(28, 41),10	
1,(0, 2),134	277,(1, 12),20	297,(4, 25),2	30935,(1, 21),2	30943,(1, 23),12	30955,(1, 24),24	30979,(1, 25),12	30997,(1, 28),62	31965,(3, 21),2	31967,(3, 25),2	31971,(3, 28),2	
294,(4, 20),2	
135,(0, 4),134	30937,(1, 22),6	30991,(1, 26),4	30995,(1, 27),2	31073,(1, 36),42	31969,(3, 26),2	
# Outgoing

30935,(2, 6),30	30965,(2, 7),12	30977,(2, 14),8	30985,(2, 15),6	30991,(2, 17),4	30995,(2, 18),18	31013,(2, 19),28	31041,(2, 38),4	31045,(8, 41),10	31073,(13, 41),10	32133,(2, 10),108	32241,(2, 29),360	32601,(2, 31),5206	37807,(2, 34),350	38157,(2, 37),72	38229,(2, 39),202	38987,(12, 41),10	39007,(23, 41),10	39017,(24, 41),10	39047,(21, 41),10	39067,(25, 41),10	39077,(28, 41),10	
1,(0, 2),134	135,(0, 4),134	269,(1, 6),2	271,(1, 10),6	277,(1, 12),20	297,(1, 16),6	303,(1, 17),30630	30933,(1, 18),2	30935,(1, 21),2	30937,(1, 22),6	30943,(1, 23),12	30955,(1, 24),24	30979,(1, 25),12	30991,(1, 26),4	30995,(1, 27),2	30997,(1, 28),62	31059,(1, 29),2	31061,(1, 31),2	31063,(1, 34),10	31073,(1, 36),42	31115,(1, 40),18	31133,(3, 5),10	31143,(3, 6),14	31157,(3, 7),16	31173,(3, 10),24	31197,(3, 14),24	31221,(3, 15),4	31225,(3, 16),32	31257,(3, 17),56	31313,(3, 18),632	31945,(3, 19),20	31965,(3, 21),2	31967,(3, 25),2	31969,(3, 26),2	31971,(3, 28),2	31973,(3, 29),4	31977,(3, 31),8	31985,(3, 32),26	32011,(3, 34),4	32015,(3, 37),8	32023,(3, 39),26	32049,(3, 40),54	32103,(9, 41),10	32113,(11, 41),10	32123,(33, 41),10	38977,(20, 41),10	
278,(4, 5),2	280,(4, 10),10	290,(4, 14),2	292,(4, 19),2	294,(4, 20),2	297,(4, 25),2	31055,(4, 31),2	31057,(4, 34),2	31083,(4, 15),16	31099,(4, 18),6	31105,(4, 32),4	38431,(4, 7),358	38789,(4, 16),44	38833,(4, 38),36	38869,(4, 39),52	38921,(4, 40),36	38957,(30, 41),10	38967,(35, 41),10	38997,(22, 41),10	39027,(27, 41),10	39037,(36, 41),10	39057,(26, 41),10	
