5756
# CPU
2345,28,6	2829,79,6	3539,46,6	3559,55,6	4555,62,6	4561,70,6	4587,73,6	5177,9,6	5211,11,6	5231,16,6	5355,40,6	5465,42,6	5471,44,6	5487,69,6	5601,74,6	5645,77,6	5755,81,1	
0,0,1	1,7,6	7,5,6	397,72,6	403,51,6	411,10,6	463,13,6	469,34,6	519,14,6	525,61,6	531,63,6	537,52,6	565,35,6	581,39,6	587,53,6	599,68,6	617,45,6	
5,1,6	21,6,6	191,21,6	289,49,6	489,64,6	513,58,6	519,60,6	571,36,6	2343,20,6	2353,23,6	2413,38,6	2425,43,6	2433,50,6	2457,56,6	2525,75,6	2531,80,6	
9,2,6	17,4,6	233,25,6	293,30,6	463,18,6	469,29,6	547,71,6	2095,76,6	2331,12,6	2359,26,6	2365,31,6	2371,33,6	2401,37,6	2459,57,6	2489,65,6	2523,67,6	
13,3,6	25,8,6	235,15,6	395,66,6	421,17,6	433,27,6	481,24,6	539,32,6	583,48,6	2341,19,6	2351,22,6	2419,41,6	2427,47,6	2453,54,6	2475,59,6	2527,78,6	
# Incoming
25,(7, 9),54	79,(7, 11),64	143,(1, 9),24	167,(2, 9),2	169,(2, 16),2	171,(3, 9),2	177,(3, 55),2	179,(1, 11),8	187,(4, 16),2	191,(2, 40),4	195,(2, 44),14	209,(3, 73),2	211,(1, 40),4	215,(1, 70),2	217,(2, 74),4	221,(4, 28),2	223,(1, 42),16	239,(2, 46),38	277,(3, 11),10	287,(8, 46),2	289,(7, 28),2	291,(2, 28),72	367,(7, 42),2	371,(7, 44),66	437,(7, 46),44	481,(1, 79),4	485,(8, 73),4	489,(7, 55),8	497,(3, 46),16	513,(15, 81),2	515,(6, 46),2	517,(7, 62),1298	1815,(7, 70),100	1915,(7, 73),136	2051,(7, 74),14	2065,(1, 46),28	2093,(4, 77),2	2095,(7, 77),114	2209,(7, 79),52	2261,(1, 28),84	2345,(1, 55),224	2569,(1, 69),22	2591,(5, 11),20	2611,(5, 16),84	2695,(5, 40),26	2721,(5, 55),62	2783,(5, 62),14	2797,(5, 69),26	2823,(5, 70),4	2827,(5, 79),2	2829,(2, 55),26	2855,(2, 77),34	2889,(3, 16),138	3027,(3, 40),320	3347,(3, 42),36	3383,(3, 69),86	3469,(3, 74),6	3475,(4, 9),22	3497,(4, 11),10	3507,(4, 42),26	3533,(4, 46),6	3539,(4, 55),20	3559,(4, 62),16	3575,(4, 69),6	3581,(4, 74),196	3777,(6, 9),540	4317,(6, 11),12	4329,(6, 16),112	4441,(6, 42),112	4553,(6, 62),2	4555,(6, 70),6	4561,(6, 73),26	4587,(6, 74),142	4729,(8, 9),448	5177,(8, 11),34	5211,(8, 16),20	5231,(8, 40),124	5355,(8, 42),110	5465,(8, 44),6	5471,(8, 69),16	5487,(8, 74),114	5601,(8, 77),44	5645,(21, 81),2	5647,(25, 81),2	5649,(49, 81),2	5651,(30, 81),2	5653,(66, 81),2	5655,(72, 81),2	5657,(51, 81),2	5659,(10, 81),2	5661,(17, 81),2	5663,(27, 81),2	5665,(18, 81),2	5667,(13, 81),2	5669,(34, 81),2	5671,(29, 81),2	5673,(24, 81),2	5675,(64, 81),2	5677,(58, 81),2	5679,(14, 81),2	5681,(60, 81),2	5683,(61, 81),2	5685,(63, 81),2	5687,(52, 81),2	5689,(32, 81),2	5691,(71, 81),2	5693,(35, 81),2	5695,(36, 81),2	5697,(39, 81),2	5699,(48, 81),2	5701,(53, 81),2	5703,(68, 81),2	5705,(45, 81),2	5707,(76, 81),2	5709,(12, 81),2	5711,(19, 81),2	5713,(20, 81),2	5715,(22, 81),2	5717,(23, 81),2	5719,(26, 81),2	5721,(31, 81),2	5723,(33, 81),2	5725,(37, 81),2	5727,(38, 81),2	5729,(41, 81),2	5731,(43, 81),2	5733,(47, 81),2	5735,(50, 81),2	5737,(54, 81),2	5739,(56, 81),2	5741,(57, 81),2	5743,(59, 81),2	5745,(65, 81),2	5747,(67, 81),2	5749,(75, 81),2	5751,(78, 81),2	5753,(80, 81),2	
167,(1, 10),12	179,(3, 34),2	181,(3, 45),2	183,(3, 61),2	185,(8, 53),2	187,(1, 13),2	189,(2, 39),2	191,(3, 14),14	207,(1, 68),2	209,(2, 52),2	211,(2, 53),2	213,(4, 10),2	215,(4, 34),2	231,(3, 52),10	253,(1, 34),40	293,(1, 61),10	303,(3, 35),30	333,(3, 53),14	347,(8, 14),8	355,(1, 35),22	377,(3, 63),10	387,(1, 72),10	397,(4, 51),2	401,(6, 10),10	421,(2, 34),26	447,(6, 13),16	467,(6, 34),2	469,(6, 35),4	473,(6, 39),2	481,(4, 45),6	505,(4, 14),14	519,(6, 61),2	521,(6, 63),4	525,(8, 52),12	539,(4, 35),26	571,(4, 39),10	583,(4, 53),4	595,(4, 68),4	599,(8, 45),18	
1,(0, 1),4	17,(0, 6),4	171,(2, 23),2	173,(2, 36),4	177,(2, 38),10	187,(3, 20),2	189,(3, 21),2	205,(3, 38),2	207,(3, 75),2	217,(7, 23),6	223,(2, 56),6	229,(4, 38),2	241,(3, 60),6	247,(8, 23),2	249,(8, 50),2	263,(3, 80),10	277,(2, 60),10	287,(4, 49),2	289,(8, 56),6	295,(8, 58),6	345,(7, 36),4	363,(7, 38),2	365,(4, 56),2	369,(7, 43),2	375,(2, 75),12	387,(3, 56),46	447,(2, 50),30	483,(7, 50),2	487,(4, 64),2	497,(7, 56),8	505,(7, 58),8	515,(7, 60),2	537,(8, 75),14	565,(4, 36),6	599,(4, 75),8	617,(8, 80),56	2261,(7, 80),64	2341,(5, 20),2	2351,(5, 23),2	2401,(5, 38),12	2419,(5, 43),6	2427,(5, 50),6	2453,(5, 56),4	2523,(5, 75),2	2527,(5, 80),2	
5,(0, 2),4	13,(0, 4),4	143,(7, 12),2	173,(3, 12),2	175,(3, 29),2	189,(1, 18),2	191,(1, 26),12	203,(1, 31),4	209,(7, 18),2	211,(3, 18),20	231,(7, 25),2	233,(7, 26),8	241,(1, 30),12	253,(3, 71),10	273,(8, 57),4	291,(7, 30),2	293,(7, 31),8	303,(7, 33),42	349,(7, 37),14	363,(8, 12),12	411,(6, 12),8	419,(6, 26),2	433,(3, 76),22	455,(8, 18),8	463,(6, 29),2	465,(6, 31),2	467,(8, 67),4	475,(6, 57),6	485,(6, 33),30	525,(6, 71),22	551,(8, 76),20	2065,(7, 76),30	2325,(5, 12),6	2353,(5, 26),6	2359,(5, 31),4	2363,(5, 33),2	2365,(5, 37),36	2457,(5, 57),2	2475,(5, 65),14	2489,(5, 67),34	
9,(0, 3),4	21,(0, 8),4	145,(7, 15),64	209,(1, 15),2	211,(7, 22),6	217,(1, 19),4	221,(1, 32),2	223,(7, 24),8	231,(2, 15),4	235,(2, 32),2	237,(2, 41),2	239,(1, 54),2	241,(7, 27),48	289,(2, 47),2	301,(7, 32),2	303,(1, 22),52	363,(2, 78),2	365,(7, 41),2	367,(2, 48),8	377,(1, 59),10	387,(2, 66),8	395,(4, 41),2	397,(1, 78),4	401,(2, 17),20	421,(6, 19),2	423,(6, 22),2	425,(6, 24),2	427,(6, 27),6	433,(6, 32),4	437,(6, 41),2	439,(6, 48),2	441,(6, 54),2	443,(6, 59),2	477,(4, 24),4	481,(7, 48),2	485,(7, 54),4	489,(2, 54),16	513,(7, 59),2	519,(4, 19),6	525,(4, 22),10	535,(4, 32),4	581,(4, 48),2	587,(4, 54),2	589,(4, 59),6	2331,(5, 19),10	2343,(5, 22),8	2413,(5, 41),6	2425,(5, 47),2	2433,(5, 54),20	2459,(5, 59),16	2525,(5, 78),2	
# Outgoing

1,(0, 1),4	5,(0, 2),4	9,(0, 3),4	13,(0, 4),4	17,(0, 6),4	21,(0, 8),4	25,(7, 9),54	79,(7, 11),64	143,(7, 12),2	145,(7, 15),64	209,(7, 18),2	211,(7, 22),6	217,(7, 23),6	223,(7, 24),8	231,(7, 25),2	233,(7, 26),8	241,(7, 27),48	289,(7, 28),2	291,(7, 30),2	293,(7, 31),8	301,(7, 32),2	303,(7, 33),42	345,(7, 36),4	349,(7, 37),14	363,(7, 38),2	365,(7, 41),2	367,(7, 42),2	369,(7, 43),2	371,(7, 44),66	437,(7, 46),44	481,(7, 48),2	483,(7, 50),2	485,(7, 54),4	489,(7, 55),8	497,(7, 56),8	505,(7, 58),8	513,(7, 59),2	515,(7, 60),2	517,(7, 62),1298	1815,(7, 70),100	1915,(7, 73),136	2051,(7, 74),14	2065,(7, 76),30	2095,(7, 77),114	2209,(7, 79),52	2261,(7, 80),64	2325,(5, 12),6	2331,(5, 19),10	2341,(5, 20),2	2343,(5, 22),8	2351,(5, 23),2	2353,(5, 26),6	2359,(5, 31),4	2363,(5, 33),2	2365,(5, 37),36	2401,(5, 38),12	2413,(5, 41),6	2419,(5, 43),6	2425,(5, 47),2	2427,(5, 50),6	2433,(5, 54),20	2453,(5, 56),4	2457,(5, 57),2	2459,(5, 59),16	2475,(5, 65),14	2489,(5, 67),34	2523,(5, 75),2	2525,(5, 78),2	2527,(5, 80),2	2591,(5, 11),20	2611,(5, 16),84	2695,(5, 40),26	2721,(5, 55),62	2783,(5, 62),14	2797,(5, 69),26	2823,(5, 70),4	2827,(5, 79),2	5655,(72, 81),2	5657,(51, 81),2	5659,(10, 81),2	5667,(13, 81),2	5669,(34, 81),2	5679,(14, 81),2	5683,(61, 81),2	5685,(63, 81),2	5687,(52, 81),2	5693,(35, 81),2	5697,(39, 81),2	5701,(53, 81),2	5703,(68, 81),2	5705,(45, 81),2	
143,(1, 9),24	167,(1, 10),12	179,(1, 11),8	187,(1, 13),2	189,(1, 18),2	191,(1, 26),12	203,(1, 31),4	207,(1, 68),2	209,(1, 15),2	211,(1, 40),4	215,(1, 70),2	217,(1, 19),4	221,(1, 32),2	223,(1, 42),16	239,(1, 54),2	241,(1, 30),12	253,(1, 34),40	293,(1, 61),10	303,(1, 22),52	355,(1, 35),22	377,(1, 59),10	387,(1, 72),10	397,(1, 78),4	401,(6, 10),10	411,(6, 12),8	419,(6, 26),2	421,(6, 19),2	423,(6, 22),2	425,(6, 24),2	427,(6, 27),6	433,(6, 32),4	437,(6, 41),2	439,(6, 48),2	441,(6, 54),2	443,(6, 59),2	447,(6, 13),16	463,(6, 29),2	465,(6, 31),2	467,(6, 34),2	469,(6, 35),4	473,(6, 39),2	475,(6, 57),6	481,(1, 79),4	485,(6, 33),30	515,(6, 46),2	519,(6, 61),2	521,(6, 63),4	525,(6, 71),22	2065,(1, 46),28	2261,(1, 28),84	2345,(1, 55),224	2569,(1, 69),22	3777,(6, 9),540	4317,(6, 11),12	4329,(6, 16),112	4441,(6, 42),112	4553,(6, 62),2	4555,(6, 70),6	4561,(6, 73),26	4587,(6, 74),142	5645,(21, 81),2	5649,(49, 81),2	5675,(64, 81),2	5677,(58, 81),2	5681,(60, 81),2	5695,(36, 81),2	5713,(20, 81),2	5717,(23, 81),2	5727,(38, 81),2	5731,(43, 81),2	5735,(50, 81),2	5739,(56, 81),2	5749,(75, 81),2	5753,(80, 81),2	
167,(2, 9),2	169,(2, 16),2	171,(2, 23),2	173,(2, 36),4	177,(2, 38),10	187,(4, 16),2	189,(2, 39),2	191,(2, 40),4	195,(2, 44),14	209,(2, 52),2	211,(2, 53),2	213,(4, 10),2	215,(4, 34),2	217,(2, 74),4	221,(4, 28),2	223,(2, 56),6	229,(4, 38),2	231,(2, 15),4	235,(2, 32),2	237,(2, 41),2	239,(2, 46),38	277,(2, 60),10	287,(4, 49),2	289,(2, 47),2	291,(2, 28),72	363,(2, 78),2	365,(4, 56),2	367,(2, 48),8	375,(2, 75),12	387,(2, 66),8	395,(4, 41),2	397,(4, 51),2	401,(2, 17),20	421,(2, 34),26	447,(2, 50),30	477,(4, 24),4	481,(4, 45),6	487,(4, 64),2	489,(2, 54),16	505,(4, 14),14	519,(4, 19),6	525,(4, 22),10	535,(4, 32),4	539,(4, 35),26	565,(4, 36),6	571,(4, 39),10	581,(4, 48),2	583,(4, 53),4	587,(4, 54),2	589,(4, 59),6	595,(4, 68),4	599,(4, 75),8	2093,(4, 77),2	2829,(2, 55),26	2855,(2, 77),34	3475,(4, 9),22	3497,(4, 11),10	3507,(4, 42),26	3533,(4, 46),6	3539,(4, 55),20	3559,(4, 62),16	3575,(4, 69),6	3581,(4, 74),196	5647,(25, 81),2	5651,(30, 81),2	5665,(18, 81),2	5671,(29, 81),2	5691,(71, 81),2	5707,(76, 81),2	5709,(12, 81),2	5719,(26, 81),2	5721,(31, 81),2	5723,(33, 81),2	5725,(37, 81),2	5741,(57, 81),2	5745,(65, 81),2	5747,(67, 81),2	
171,(3, 9),2	173,(3, 12),2	175,(3, 29),2	177,(3, 55),2	179,(3, 34),2	181,(3, 45),2	183,(3, 61),2	185,(8, 53),2	187,(3, 20),2	189,(3, 21),2	191,(3, 14),14	205,(3, 38),2	207,(3, 75),2	209,(3, 73),2	211,(3, 18),20	231,(3, 52),10	241,(3, 60),6	247,(8, 23),2	249,(8, 50),2	253,(3, 71),10	263,(3, 80),10	273,(8, 57),4	277,(3, 11),10	287,(8, 46),2	289,(8, 56),6	295,(8, 58),6	303,(3, 35),30	333,(3, 53),14	347,(8, 14),8	363,(8, 12),12	377,(3, 63),10	387,(3, 56),46	433,(3, 76),22	455,(8, 18),8	467,(8, 67),4	485,(8, 73),4	497,(3, 46),16	513,(15, 81),2	525,(8, 52),12	537,(8, 75),14	551,(8, 76),20	599,(8, 45),18	617,(8, 80),56	2889,(3, 16),138	3027,(3, 40),320	3347,(3, 42),36	3383,(3, 69),86	3469,(3, 74),6	4729,(8, 9),448	5177,(8, 11),34	5211,(8, 16),20	5231,(8, 40),124	5355,(8, 42),110	5465,(8, 44),6	5471,(8, 69),16	5487,(8, 74),114	5601,(8, 77),44	5653,(66, 81),2	5661,(17, 81),2	5663,(27, 81),2	5673,(24, 81),2	5689,(32, 81),2	5699,(48, 81),2	5711,(19, 81),2	5715,(22, 81),2	5729,(41, 81),2	5733,(47, 81),2	5737,(54, 81),2	5743,(59, 81),2	5751,(78, 81),2	
