2143
# CPU
94,3,39	133,69,39	172,97,39	211,4,39	250,23,39	289,86,39	328,100,39	367,49,39	406,77,39	445,81,39	484,72,39	523,118,39	562,116,39	601,42,39	697,26,39	925,38,39	1459,57,39	1712,84,39	1751,103,39	1790,76,39	1985,53,39	2024,68,39	2063,98,39	2102,104,39	
559,10,39	598,82,39	637,51,39	676,34,39	715,40,39	754,52,39	793,50,39	832,14,39	871,36,39	910,94,39	949,88,39	988,65,39	1084,66,39	1285,67,39	1324,80,39	1363,89,39	1440,28,39	1505,61,39	1695,64,39	1734,106,39	1773,62,39	1812,79,39	1960,110,39	1999,30,39	2142,121,1	
0,0,1	1,7,39	40,9,39	79,12,39	118,1,39	157,2,39	196,60,39	235,15,39	274,16,39	313,90,39	352,87,39	391,21,39	430,111,39	469,20,39	508,112,39	547,25,39	586,109,39	625,58,39	664,56,39	703,59,39	742,46,39	781,24,39	820,95,39	859,17,39	898,73,39	
280,5,39	319,13,39	358,18,39	397,55,39	436,29,39	475,45,39	652,11,39	691,119,39	730,43,39	769,35,39	808,91,39	847,114,39	886,115,39	925,63,39	964,41,39	1003,19,39	1042,37,39	1305,101,39	1436,117,39	1475,32,39	1700,75,39	1770,85,39	1961,120,39	2000,48,39	
373,6,39	412,71,39	451,113,39	490,107,39	529,8,39	568,92,39	607,44,39	646,70,39	685,22,39	724,39,39	763,108,39	802,27,39	1289,74,39	1328,78,39	1398,102,39	1437,105,39	1476,31,39	1515,47,39	1711,83,39	1750,96,39	1789,99,39	1828,33,39	1867,54,39	2007,93,39	
# Incoming
1,(0, 3),93	94,(0, 4),93	568,(8, 42),1	696,(11, 26),1	924,(7, 38),1	1458,(9, 57),1	1711,(9, 84),1	1724,(9, 103),5	1742,(12, 53),2	1755,(12, 76),7	1984,(1, 53),1	1985,(1, 68),4	1991,(2, 68),14	2007,(2, 98),1	2008,(2, 104),8	
466,(0, 10),93	559,(3, 51),1	560,(3, 67),1	561,(69, 121),1	562,(97, 121),1	563,(23, 121),1	564,(86, 121),1	565,(13, 121),1	566,(100, 121),1	567,(18, 121),1	568,(49, 121),1	569,(6, 40),1	570,(6, 64),2	572,(6, 82),5	577,(55, 121),1	578,(77, 121),1	579,(71, 121),1	580,(29, 121),1	581,(81, 121),1	582,(113, 121),1	583,(45, 121),1	584,(72, 121),1	585,(107, 121),1	586,(118, 121),1	589,(8, 34),1	601,(116, 121),1	607,(92, 121),1	640,(42, 121),1	646,(44, 121),1	652,(7, 30),271	923,(70, 121),1	924,(11, 65),1	925,(7, 62),9	934,(7, 66),150	1084,(7, 67),201	1285,(22, 121),1	1286,(119, 121),1	1287,(26, 121),1	1288,(39, 121),1	1289,(43, 121),1	1290,(7, 80),7	1297,(7, 89),1	1298,(11, 110),40	1338,(108, 121),1	1339,(35, 121),1	1340,(27, 121),1	1341,(91, 121),1	1342,(114, 121),1	1343,(115, 121),1	1344,(63, 121),1	1345,(38, 121),1	1346,(41, 121),1	1347,(19, 121),1	1348,(37, 121),1	1349,(74, 121),1	1350,(101, 121),1	1367,(78, 121),1	1402,(7, 106),22	1436,(9, 28),4	1440,(102, 121),1	1459,(9, 61),46	1505,(9, 64),190	1695,(117, 121),1	1696,(105, 121),1	1697,(57, 121),1	1698,(32, 121),1	1699,(31, 121),1	1700,(47, 121),1	1729,(9, 106),5	1739,(75, 121),1	1747,(12, 62),8	1755,(83, 121),1	1756,(84, 121),1	1762,(12, 79),5	1779,(12, 110),181	1960,(96, 121),1	1961,(1, 30),23	1984,(103, 121),1	1985,(85, 121),1	1986,(99, 121),1	1987,(76, 121),1	1988,(33, 121),1	1989,(54, 121),1	2000,(120, 121),1	2016,(60, 121),1	2017,(15, 121),1	2018,(16, 121),1	2019,(90, 121),1	2020,(87, 121),1	2021,(21, 121),1	2022,(111, 121),1	2023,(20, 121),1	2024,(112, 121),1	2025,(25, 121),1	2026,(109, 121),1	2027,(58, 121),1	2028,(56, 121),1	2029,(59, 121),1	2030,(46, 121),1	2031,(24, 121),1	2032,(95, 121),1	2033,(17, 121),1	2034,(73, 121),1	2035,(53, 121),1	2039,(48, 121),1	2046,(93, 121),1	2063,(68, 121),1	2102,(98, 121),1	2141,(104, 121),1	
133,(3, 16),1	134,(3, 21),8	250,(4, 46),1	251,(4, 59),4	319,(5, 46),15	334,(5, 73),6	412,(6, 24),6	586,(8, 24),3	598,(10, 95),1	691,(11, 17),5	698,(11, 73),1	
187,(0, 5),93	280,(3, 35),7	287,(3, 91),1	288,(4, 114),1	418,(6, 114),1	559,(0, 11),93	652,(8, 43),8	660,(8, 119),3	663,(10, 120),1	923,(7, 37),1	1304,(7, 101),1	1424,(7, 117),12	1442,(9, 32),12	1695,(9, 75),5	1734,(9, 120),3	1767,(12, 85),3	1960,(12, 120),1	1990,(2, 48),1	
280,(0, 6),93	373,(0, 8),93	466,(3, 44),1	467,(3, 92),14	481,(5, 54),5	697,(11, 27),1	699,(11, 102),3	1285,(7, 74),4	1289,(7, 78),1	1298,(7, 93),6	1305,(7, 102),93	1398,(7, 105),4	1440,(9, 31),2	1454,(9, 33),1	1455,(9, 47),3	1700,(9, 83),11	1712,(9, 96),1	1713,(9, 99),11	1737,(12, 33),5	1744,(12, 54),3	1770,(12, 93),9	1989,(1, 93),1	2005,(2, 93),2	
# Outgoing
133,(3, 16),1	134,(3, 21),8	250,(4, 46),1	251,(4, 59),4	280,(3, 35),7	287,(3, 91),1	288,(4, 114),1	466,(3, 44),1	467,(3, 92),14	559,(3, 51),1	560,(3, 67),1	561,(69, 121),1	562,(97, 121),1	563,(23, 121),1	564,(86, 121),1	566,(100, 121),1	568,(49, 121),1	578,(77, 121),1	581,(81, 121),1	584,(72, 121),1	586,(118, 121),1	601,(116, 121),1	640,(42, 121),1	1287,(26, 121),1	1345,(38, 121),1	1697,(57, 121),1	1756,(84, 121),1	1984,(103, 121),1	1987,(76, 121),1	2035,(53, 121),1	2063,(68, 121),1	2102,(98, 121),1	2141,(104, 121),1	
598,(10, 95),1	663,(10, 120),1	
1,(0, 3),93	94,(0, 4),93	187,(0, 5),93	280,(0, 6),93	373,(0, 8),93	466,(0, 10),93	559,(0, 11),93	652,(7, 30),271	923,(7, 37),1	924,(7, 38),1	925,(7, 62),9	934,(7, 66),150	1084,(7, 67),201	1285,(7, 74),4	1289,(7, 78),1	1290,(7, 80),7	1297,(7, 89),1	1298,(7, 93),6	1304,(7, 101),1	1305,(7, 102),93	1398,(7, 105),4	1402,(7, 106),22	1424,(7, 117),12	1436,(9, 28),4	1440,(9, 31),2	1442,(9, 32),12	1454,(9, 33),1	1455,(9, 47),3	1458,(9, 57),1	1459,(9, 61),46	1505,(9, 64),190	1695,(9, 75),5	1700,(9, 83),11	1711,(9, 84),1	1712,(9, 96),1	1713,(9, 99),11	1724,(9, 103),5	1729,(9, 106),5	1734,(9, 120),3	1737,(12, 33),5	1742,(12, 53),2	1744,(12, 54),3	1747,(12, 62),8	1755,(12, 76),7	1762,(12, 79),5	1767,(12, 85),3	1770,(12, 93),9	1779,(12, 110),181	1960,(12, 120),1	1961,(1, 30),23	1984,(1, 53),1	1985,(1, 68),4	1989,(1, 93),1	1990,(2, 48),1	1991,(2, 68),14	2005,(2, 93),2	2007,(2, 98),1	2008,(2, 104),8	2016,(60, 121),1	2017,(15, 121),1	2018,(16, 121),1	2019,(90, 121),1	2020,(87, 121),1	2021,(21, 121),1	2022,(111, 121),1	2023,(20, 121),1	2024,(112, 121),1	2025,(25, 121),1	2026,(109, 121),1	2027,(58, 121),1	2028,(56, 121),1	2029,(59, 121),1	2030,(46, 121),1	2031,(24, 121),1	2032,(95, 121),1	2033,(17, 121),1	2034,(73, 121),1	
319,(5, 46),15	334,(5, 73),6	481,(5, 54),5	565,(13, 121),1	567,(18, 121),1	577,(55, 121),1	580,(29, 121),1	583,(45, 121),1	691,(11, 17),5	696,(11, 26),1	697,(11, 27),1	698,(11, 73),1	699,(11, 102),3	924,(11, 65),1	1286,(119, 121),1	1289,(43, 121),1	1298,(11, 110),40	1339,(35, 121),1	1341,(91, 121),1	1342,(114, 121),1	1343,(115, 121),1	1344,(63, 121),1	1346,(41, 121),1	1347,(19, 121),1	1348,(37, 121),1	1350,(101, 121),1	1695,(117, 121),1	1698,(32, 121),1	1739,(75, 121),1	1985,(85, 121),1	2000,(120, 121),1	2039,(48, 121),1	
412,(6, 24),6	418,(6, 114),1	568,(8, 42),1	569,(6, 40),1	570,(6, 64),2	572,(6, 82),5	579,(71, 121),1	582,(113, 121),1	585,(107, 121),1	586,(8, 24),3	589,(8, 34),1	607,(92, 121),1	646,(44, 121),1	652,(8, 43),8	660,(8, 119),3	923,(70, 121),1	1285,(22, 121),1	1288,(39, 121),1	1338,(108, 121),1	1340,(27, 121),1	1349,(74, 121),1	1367,(78, 121),1	1440,(102, 121),1	1696,(105, 121),1	1699,(31, 121),1	1700,(47, 121),1	1755,(83, 121),1	1960,(96, 121),1	1986,(99, 121),1	1988,(33, 121),1	1989,(54, 121),1	2046,(93, 121),1	
