221
# CPU
0,0,1	1,5,3	4,1,3	7,4,3	10,2,3	13,17,3	16,3,3	19,28,3	22,10,3	25,22,3	28,68,3	31,7,3	34,34,3	37,60,3	40,6,3	43,80,3	46,67,3	49,62,3	52,64,3	55,46,3	58,37,3	61,73,3	64,15,3	67,31,3	70,63,3	73,20,3	76,24,3	79,70,3	82,58,3	85,45,3	88,56,3	91,41,3	94,57,3	97,33,3	100,40,3	103,52,3	106,8,3	109,44,3	112,12,3	115,59,3	118,47,3	121,38,3	124,48,3	127,53,3	130,61,3	133,11,3	136,35,3	139,72,3	142,55,3	145,25,3	148,18,3	151,29,3	154,42,3	157,14,3	160,50,3	163,39,3	166,77,3	169,19,3	172,65,3	175,79,3	178,74,3	181,21,3	184,26,3	187,49,3	190,54,3	193,27,3	196,78,3	199,16,3	202,13,3	205,69,3	208,51,3	211,36,3	214,32,3	217,75,3	220,81,1	
35,76,3	44,71,3	72,66,3	110,9,3	113,43,3	116,23,3	125,30,3	
# Incoming
38,(76, 81),2	47,(71, 81),2	75,(66, 81),2	113,(9, 81),2	116,(43, 81),2	119,(23, 81),2	128,(30, 81),2	
7,(1, 76),9	16,(4, 76),1	17,(2, 76),3	20,(1, 71),14	34,(7, 76),1	35,(2, 71),5	40,(3, 71),3	43,(6, 71),1	44,(6, 66),28	72,(2, 9),2	74,(5, 43),2	76,(1, 43),1	77,(3, 43),1	78,(7, 43),4	82,(5, 23),1	83,(3, 23),6	89,(7, 23),4	93,(1, 30),16	109,(8, 9),1	110,(8, 43),2	112,(8, 23),4	116,(4, 30),1	117,(3, 30),1	118,(8, 30),7	
# Outgoing
7,(1, 76),9	16,(4, 76),1	17,(2, 76),3	20,(1, 71),14	34,(7, 76),1	35,(2, 71),5	40,(3, 71),3	43,(6, 71),1	44,(6, 66),28	72,(2, 9),2	74,(5, 43),2	76,(1, 43),1	77,(3, 43),1	78,(7, 43),4	82,(5, 23),1	83,(3, 23),6	89,(7, 23),4	93,(1, 30),16	109,(8, 9),1	110,(8, 43),2	112,(8, 23),4	116,(4, 30),1	117,(3, 30),1	118,(8, 30),7	
38,(76, 81),2	47,(71, 81),2	75,(66, 81),2	113,(9, 81),2	116,(43, 81),2	119,(23, 81),2	128,(30, 81),2	
