517
# CPU
0,0,1	1,4,1	2,42,1	3,70,1	4,49,1	5,59,1	6,58,1	7,67,1	8,79,1	9,57,1	10,24,1	11,12,1	12,1,1	13,23,1	14,26,1	15,51,1	16,66,1	17,46,1	18,47,1	19,78,1	20,9,1	21,2,1	22,54,1	23,52,1	24,55,1	25,10,1	26,7,1	27,80,1	28,63,1	29,38,1	30,35,1	31,30,1	32,73,1	33,39,1	34,56,1	35,31,1	36,41,1	37,45,1	38,6,1	39,40,1	40,22,1	41,29,1	42,27,1	43,61,1	44,20,1	45,53,1	46,77,1	47,36,1	48,19,1	49,28,1	50,5,1	51,21,1	52,33,1	53,37,1	54,48,1	55,15,1	56,68,1	57,75,1	58,25,1	59,64,1	60,16,1	61,71,1	63,13,1	75,11,1	91,32,1	111,60,1	151,17,1	191,18,1	231,72,1	275,44,1	323,69,1	391,74,1	515,65,1	516,81,1	
9,3,1	10,14,1	

5,8,1	6,76,1	7,62,1	8,34,1	9,43,1	10,50,1	
# Incoming
7,(76, 81),8	15,(62, 81),8	23,(34, 81),8	31,(43, 81),8	39,(14, 81),8	47,(50, 81),8	55,(3, 13),8	63,(3, 11),12	75,(3, 32),16	91,(8, 60),20	111,(8, 17),40	151,(3, 18),40	191,(3, 72),40	231,(8, 44),44	275,(3, 69),48	323,(3, 74),68	391,(3, 65),124	
5,(0, 3),4	

1,(0, 8),4	
# Outgoing
1,(0, 8),4	5,(0, 3),4	
39,(14, 81),8	55,(3, 13),8	63,(3, 11),12	75,(3, 32),16	151,(3, 18),40	191,(3, 72),40	275,(3, 69),48	323,(3, 74),68	391,(3, 65),124	

7,(76, 81),8	15,(62, 81),8	23,(34, 81),8	31,(43, 81),8	47,(50, 81),8	91,(8, 60),20	111,(8, 17),40	231,(8, 44),44	
