121
# CPU
0,121,1	1,25,1	2,63,1	3,111,1	4,45,1	5,41,1	6,70,1	7,73,1	8,13,1	9,94,1	10,71,1	11,112,1	12,113,1	13,109,1	14,50,1	15,16,1	16,98,1	17,119,1	18,66,1	19,77,1	20,84,1	21,49,1	22,85,1	23,74,1	24,99,1	25,19,1	26,20,1	27,22,1	28,108,1	29,48,1	30,61,1	31,115,1	32,82,1	33,56,1	34,23,1	35,89,1	36,95,1	37,44,1	38,46,1	39,86,1	40,105,1	41,91,1	42,35,1	43,104,1	44,52,1	45,43,1	46,53,1	47,110,1	48,118,1	49,90,1	50,75,1	51,33,1	52,102,1	53,30,1	54,21,1	55,26,1	56,31,1	57,37,1	58,97,1	59,67,1	60,62,1	61,107,1	62,42,1	63,14,1	64,7,1	65,83,1	66,18,1	67,93,1	68,55,1	69,54,1	70,39,1	71,29,1	72,9,1	73,78,1	74,57,1	75,27,1	76,96,1	77,101,1	78,65,1	79,100,1	80,40,1	81,81,1	82,59,1	83,103,1	84,34,1	85,87,1	86,64,1	87,80,1	88,79,1	89,12,1	90,32,1	91,38,1	92,2,1	93,76,1	94,47,1	95,28,1	96,51,1	97,36,1	98,60,1	99,69,1	100,120,1	101,68,1	102,10,1	103,15,1	104,17,1	105,4,1	106,72,1	107,106,1	108,58,1	109,24,1	110,8,1	111,92,1	112,3,1	113,116,1	114,6,1	115,88,1	116,1,1	117,114,1	118,5,1	119,11,1	120,0,1	



70,117,1	





# Incoming
71,(117, 11),24	



1,(121, 117),69	





# Outgoing
1,(121, 117),69	



71,(117, 11),24	





