1882
# CPU
377,12,1	
345,11,1	
137,10,1	173,20,1	
125,9,1	169,19,1	
205,8,1	329,18,1	
93,7,1	409,17,1	
421,6,1	425,16,1	
77,5,1	145,15,1	
49,2,1	50,14,1	53,4,1	
0,0,1	1,1,1	2,3,1	141,13,1	1881,21,1	
# Incoming
345,(1, 12),16	361,(2, 12),16	
201,(1, 11),144	
125,(2, 10),12	169,(2, 20),4	
77,(2, 9),48	145,(2, 19),24	
93,(1, 8),108	201,(2, 8),4	205,(2, 18),124	
61,(1, 7),32	405,(1, 17),4	
361,(1, 16),44	405,(2, 6),16	421,(2, 16),4	
53,(1, 5),8	61,(2, 5),16	141,(2, 15),4	
1,(0, 2),48	49,(1, 4),4	
137,(2, 13),4	141,(5, 21),104	245,(7, 21),104	425,(14, 21),104	529,(4, 21),104	633,(9, 21),104	737,(10, 21),104	841,(15, 21),104	945,(19, 21),104	1049,(20, 21),104	1153,(8, 21),104	1257,(18, 21),104	1361,(11, 21),104	1465,(12, 21),104	1569,(17, 21),104	1673,(6, 21),104	1777,(16, 21),104	
# Outgoing
1465,(12, 21),104	
1361,(11, 21),104	
737,(10, 21),104	1049,(20, 21),104	
633,(9, 21),104	945,(19, 21),104	
1153,(8, 21),104	1257,(18, 21),104	
245,(7, 21),104	1569,(17, 21),104	
1673,(6, 21),104	1777,(16, 21),104	
141,(5, 21),104	841,(15, 21),104	
61,(2, 5),16	77,(2, 9),48	125,(2, 10),12	137,(2, 13),4	141,(2, 15),4	145,(2, 19),24	169,(2, 20),4	201,(2, 8),4	205,(2, 18),124	361,(2, 12),16	405,(2, 6),16	421,(2, 16),4	425,(14, 21),104	529,(4, 21),104	
1,(0, 2),48	49,(1, 4),4	53,(1, 5),8	61,(1, 7),32	93,(1, 8),108	201,(1, 11),144	345,(1, 12),16	361,(1, 16),44	405,(1, 17),4	
