136
# CPU
0,121,1	1,56,1	2,14,1	3,73,1	4,96,1	5,84,1	6,32,1	7,82,1	8,28,1	9,17,1	10,107,1	11,105,1	12,100,1	13,69,1	14,79,1	15,83,1	16,77,1	17,72,1	18,115,1	19,18,1	20,87,1	21,50,1	22,26,1	23,116,1	24,49,1	25,92,1	26,58,1	27,35,1	28,74,1	29,75,1	30,39,1	31,53,1	32,98,1	33,106,1	34,88,1	35,61,1	36,46,1	37,23,1	38,34,1	39,78,1	40,102,1	41,68,1	42,80,1	43,85,1	44,51,1	45,59,1	46,110,1	47,64,1	48,76,1	49,41,1	50,101,1	51,30,1	52,81,1	53,91,1	54,44,1	55,112,1	56,21,1	57,90,1	58,70,1	59,47,1	60,36,1	61,97,1	62,119,1	63,31,1	64,104,1	65,117,1	66,94,1	67,20,1	68,54,1	69,27,1	70,43,1	71,57,1	72,120,1	73,24,1	74,48,1	75,45,1	76,99,1	77,108,1	78,33,1	79,86,1	80,42,1	81,62,1	82,15,1	83,13,1	84,111,1	85,109,1	86,19,1	87,103,1	88,95,1	89,114,1	90,52,1	91,66,1	92,37,1	93,71,1	94,22,1	95,113,1	96,16,1	97,89,1	98,25,1	99,63,1	100,29,1	101,12,1	102,7,1	103,65,1	104,6,1	105,67,1	106,40,1	107,118,1	108,5,1	109,38,1	110,8,1	111,4,1	112,55,1	113,11,1	114,1,1	115,60,1	116,10,1	117,2,1	118,9,1	134,3,1	135,0,1	

70,93,1	
# Incoming
71,(93, 9),6	77,(93, 3),57	

1,(121, 93),69	
# Outgoing
1,(121, 93),69	

71,(93, 9),6	77,(93, 3),57	
