668
# CPU
0,81,1	1,16,7	8,19,7	15,78,7	22,55,7	29,76,7	36,40,7	43,73,7	50,32,7	57,28,7	64,14,7	71,65,7	78,26,7	85,63,7	92,51,7	99,60,7	106,53,7	113,10,7	120,77,7	127,37,7	134,70,7	141,30,7	148,46,7	155,57,7	162,52,7	169,74,7	176,12,7	183,69,7	190,59,7	197,44,7	204,34,7	211,72,7	218,36,7	225,13,7	232,24,7	239,67,7	246,42,7	253,41,7	260,33,7	267,11,7	274,29,7	281,23,7	288,21,7	295,15,7	302,66,7	309,71,7	316,25,7	323,61,7	330,39,7	337,20,7	344,9,7	351,22,7	358,18,7	365,50,7	372,47,7	379,27,7	386,31,7	393,17,7	400,56,7	407,35,7	414,58,7	421,49,7	428,54,7	435,43,7	442,38,7	449,75,7	456,6,7	463,45,7	470,8,7	477,5,7	484,3,7	491,1,7	498,2,7	505,4,7	660,7,7	667,0,1	
73,64,7	289,48,7	433,80,7	
145,68,7	217,62,7	361,79,7	
# Incoming
152,(68, 5),8	160,(64, 3),4	224,(62, 3),16	296,(48, 2),36	368,(79, 1),28	396,(79, 4),80	476,(80, 7),184	
1,(81, 64),72	217,(81, 48),72	361,(81, 80),72	
73,(81, 68),72	145,(81, 62),72	289,(81, 79),72	
# Outgoing
1,(81, 64),72	73,(81, 68),72	145,(81, 62),72	217,(81, 48),72	289,(81, 79),72	361,(81, 80),72	
160,(64, 3),4	296,(48, 2),36	476,(80, 7),184	
152,(68, 5),8	224,(62, 3),16	368,(79, 1),28	396,(79, 4),80	
