485
# CPU
2,1,8	10,12,8	18,20,8	26,16,8	256,9,8	291,14,8	299,17,8	
447,3,8	455,5,8	468,7,8	476,18,8	484,21,1	
0,0,1	1,2,8	9,15,8	17,19,8	
177,4,8	255,8,8	288,11,8	
289,13,8	465,6,8	475,10,8	
# Incoming
1,(0, 1),1	255,(2, 9),1	289,(2, 14),2	291,(2, 17),3	
9,(2, 3),160	177,(2, 5),25	202,(4, 21),1	221,(2, 7),33	263,(8, 21),1	294,(2, 18),72	366,(1, 3),81	447,(1, 5),3	450,(15, 21),1	451,(19, 21),1	452,(11, 21),1	453,(13, 21),1	465,(1, 7),3	473,(6, 21),1	475,(1, 18),1	476,(12, 21),1	477,(20, 21),1	478,(16, 21),1	479,(9, 21),1	480,(14, 21),1	481,(17, 21),1	483,(10, 21),1	

169,(2, 4),8	254,(2, 8),1	272,(2, 11),16	
202,(2, 6),19	256,(2, 10),16	288,(2, 13),1	450,(1, 6),15	468,(1, 10),7	
# Outgoing
366,(1, 3),81	447,(1, 5),3	450,(1, 6),15	465,(1, 7),3	468,(1, 10),7	475,(1, 18),1	476,(12, 21),1	477,(20, 21),1	478,(16, 21),1	479,(9, 21),1	480,(14, 21),1	481,(17, 21),1	

1,(0, 1),1	9,(2, 3),160	169,(2, 4),8	177,(2, 5),25	202,(2, 6),19	221,(2, 7),33	254,(2, 8),1	255,(2, 9),1	256,(2, 10),16	272,(2, 11),16	288,(2, 13),1	289,(2, 14),2	291,(2, 17),3	294,(2, 18),72	450,(15, 21),1	451,(19, 21),1	
202,(4, 21),1	263,(8, 21),1	452,(11, 21),1	
453,(13, 21),1	473,(6, 21),1	483,(10, 21),1	
