2972
# CPU
73,3,1	74,23,1	75,37,1	76,43,1	77,47,1	78,19,1	79,27,1	80,41,1	85,67,1	145,6,1	146,20,1	147,28,1	148,34,1	149,55,1	150,57,1	151,42,1	152,61,1	179,49,1	227,24,1	229,29,1	317,30,1	319,46,1	337,63,1	349,22,1	351,35,1	353,36,1	355,18,1	419,32,1	435,40,1	443,44,1	445,65,1	447,71,1	511,79,1	519,16,1	561,25,1	565,31,1	579,39,1	591,69,1	593,77,1	615,51,1	631,73,1	637,75,1	639,21,1	641,26,1	643,33,1	645,38,1	697,45,1	703,48,1	705,53,1	707,59,1	
37,2,1	38,52,1	39,68,1	109,5,1	111,12,1	119,64,1	127,66,1	181,8,1	182,17,1	183,56,1	184,74,1	185,72,1	197,14,1	255,54,1	335,62,1	351,70,1	353,78,1	593,50,1	635,58,1	685,60,1	769,76,1	771,80,1	
0,0,1	1,1,1	2,4,1	3,7,1	4,10,1	42,9,1	84,11,1	753,15,1	1223,13,1	2971,81,1	
# Incoming
37,(0, 3),36	73,(2, 19),2	75,(2, 27),2	77,(2, 41),2	79,(2, 67),6	109,(0, 6),36	145,(2, 49),34	197,(1, 24),30	227,(1, 29),2	229,(1, 30),88	317,(1, 46),2	319,(1, 63),18	337,(5, 22),12	349,(5, 35),2	351,(5, 36),2	353,(4, 18),2	355,(4, 32),64	419,(4, 40),16	435,(4, 44),8	443,(4, 65),2	445,(4, 71),2	447,(4, 79),64	511,(7, 16),8	519,(7, 25),42	561,(7, 31),4	565,(7, 39),14	579,(5, 69),12	591,(5, 77),2	593,(7, 51),22	615,(5, 73),16	631,(5, 75),6	637,(8, 21),2	639,(8, 26),2	641,(8, 33),2	643,(8, 38),2	645,(8, 45),52	697,(8, 48),6	703,(8, 53),2	705,(8, 59),2	
1,(0, 2),36	73,(0, 5),36	109,(3, 12),2	111,(3, 64),8	119,(3, 66),8	145,(0, 8),36	181,(1, 14),16	197,(3, 54),58	255,(3, 62),80	337,(1, 70),14	351,(1, 78),2	579,(7, 50),14	615,(7, 58),20	635,(7, 60),50	753,(6, 76),16	769,(6, 80),2	
38,(2, 9),4	74,(3, 11),10	85,(52, 81),38	127,(23, 81),38	179,(68, 81),38	217,(12, 81),38	255,(64, 81),38	293,(66, 81),38	335,(37, 81),38	373,(43, 81),38	411,(47, 81),38	449,(19, 81),38	487,(27, 81),38	525,(41, 81),38	563,(67, 81),38	601,(6, 15),152	771,(20, 81),38	809,(28, 81),38	847,(34, 81),38	885,(55, 81),38	923,(57, 81),38	961,(42, 81),38	999,(61, 81),38	1037,(49, 81),38	1075,(8, 13),148	1223,(17, 81),38	1261,(56, 81),38	1299,(74, 81),38	1337,(72, 81),38	1375,(14, 81),38	1413,(24, 81),38	1451,(29, 81),38	1489,(54, 81),38	1527,(30, 81),38	1565,(46, 81),38	1603,(62, 81),38	1641,(63, 81),38	1679,(22, 81),38	1717,(35, 81),38	1755,(70, 81),38	1793,(36, 81),38	1831,(78, 81),38	1869,(18, 81),38	1907,(32, 81),38	1945,(40, 81),38	1983,(44, 81),38	2021,(65, 81),38	2059,(71, 81),38	2097,(79, 81),38	2135,(16, 81),38	2173,(25, 81),38	2211,(31, 81),38	2249,(39, 81),38	2287,(69, 81),38	2325,(77, 81),38	2363,(50, 81),38	2401,(51, 81),38	2439,(73, 81),38	2477,(58, 81),38	2515,(75, 81),38	2553,(21, 81),38	2591,(26, 81),38	2629,(33, 81),38	2667,(38, 81),38	2705,(60, 81),38	2743,(45, 81),38	2781,(48, 81),38	2819,(53, 81),38	2857,(59, 81),38	2895,(76, 81),38	2933,(80, 81),38	
# Outgoing
74,(3, 11),10	109,(3, 12),2	111,(3, 64),8	119,(3, 66),8	127,(23, 81),38	197,(3, 54),58	255,(3, 62),80	335,(37, 81),38	373,(43, 81),38	411,(47, 81),38	449,(19, 81),38	487,(27, 81),38	525,(41, 81),38	563,(67, 81),38	601,(6, 15),152	753,(6, 76),16	769,(6, 80),2	771,(20, 81),38	809,(28, 81),38	847,(34, 81),38	885,(55, 81),38	923,(57, 81),38	961,(42, 81),38	999,(61, 81),38	1037,(49, 81),38	1413,(24, 81),38	1451,(29, 81),38	1527,(30, 81),38	1565,(46, 81),38	1641,(63, 81),38	1679,(22, 81),38	1717,(35, 81),38	1793,(36, 81),38	1869,(18, 81),38	1907,(32, 81),38	1945,(40, 81),38	1983,(44, 81),38	2021,(65, 81),38	2059,(71, 81),38	2097,(79, 81),38	2135,(16, 81),38	2173,(25, 81),38	2211,(31, 81),38	2249,(39, 81),38	2287,(69, 81),38	2325,(77, 81),38	2401,(51, 81),38	2439,(73, 81),38	2515,(75, 81),38	2553,(21, 81),38	2591,(26, 81),38	2629,(33, 81),38	2667,(38, 81),38	2743,(45, 81),38	2781,(48, 81),38	2819,(53, 81),38	2857,(59, 81),38	
38,(2, 9),4	73,(2, 19),2	75,(2, 27),2	77,(2, 41),2	79,(2, 67),6	85,(52, 81),38	145,(2, 49),34	179,(68, 81),38	217,(12, 81),38	255,(64, 81),38	293,(66, 81),38	337,(5, 22),12	349,(5, 35),2	351,(5, 36),2	579,(5, 69),12	591,(5, 77),2	615,(5, 73),16	631,(5, 75),6	637,(8, 21),2	639,(8, 26),2	641,(8, 33),2	643,(8, 38),2	645,(8, 45),52	697,(8, 48),6	703,(8, 53),2	705,(8, 59),2	1075,(8, 13),148	1223,(17, 81),38	1261,(56, 81),38	1299,(74, 81),38	1337,(72, 81),38	1375,(14, 81),38	1489,(54, 81),38	1603,(62, 81),38	1755,(70, 81),38	1831,(78, 81),38	2363,(50, 81),38	2477,(58, 81),38	2705,(60, 81),38	2895,(76, 81),38	2933,(80, 81),38	
1,(0, 2),36	37,(0, 3),36	73,(0, 5),36	109,(0, 6),36	145,(0, 8),36	181,(1, 14),16	197,(1, 24),30	227,(1, 29),2	229,(1, 30),88	317,(1, 46),2	319,(1, 63),18	337,(1, 70),14	351,(1, 78),2	353,(4, 18),2	355,(4, 32),64	419,(4, 40),16	435,(4, 44),8	443,(4, 65),2	445,(4, 71),2	447,(4, 79),64	511,(7, 16),8	519,(7, 25),42	561,(7, 31),4	565,(7, 39),14	579,(7, 50),14	593,(7, 51),22	615,(7, 58),20	635,(7, 60),50	
