24929
# CPU
10,2,183	193,4,183	376,6,183	559,8,183	742,10,183	925,12,183	1108,14,183	1291,16,183	1474,18,183	1657,20,183	1840,130,183	2023,128,183	2206,156,183	4309,28,183	5755,152,183	8467,68,183	8800,98,183	8983,138,183	9190,50,183	9760,62,183	9985,122,183	10168,132,183	10612,192,183	10795,196,183	10978,34,183	11161,40,183	11344,44,183	11527,64,183	11710,74,183	11893,84,183	12076,86,183	12259,90,183	12442,160,183	12625,172,183	12808,174,183	12991,182,183	13174,38,183	13357,52,183	13540,54,183	13723,66,183	13906,72,183	14089,78,183	14272,88,183	14455,96,183	14638,102,183	14821,108,183	15004,116,183	15187,124,183	15370,126,183	15553,134,183	15736,136,183	15919,140,183	16102,148,183	16285,164,183	16468,166,183	16651,168,183	16834,170,183	17017,26,183	17200,30,183	17383,46,183	17566,48,183	17749,60,183	17932,70,183	18115,76,183	18298,82,183	18481,104,183	18664,106,183	18847,114,183	19030,150,183	19213,162,183	19396,176,183	19579,178,183	19762,180,183	19945,184,183	20128,200,183	20311,22,183	20494,24,183	20677,32,183	20860,36,183	21043,42,183	21226,56,183	21409,58,183	21592,80,183	21775,92,183	21958,94,183	22141,100,183	22324,110,183	22507,112,183	22690,118,183	22873,120,183	23056,142,183	23239,144,183	23422,146,183	23605,154,183	23788,158,183	23971,186,183	24154,188,183	24337,190,183	24520,194,183	24703,198,183	
0,0,1	1,9,183	184,1,183	367,3,183	550,5,183	733,19,183	916,15,183	1099,7,183	1282,13,183	1465,11,183	1648,17,183	1831,53,183	2014,135,183	2197,153,183	2380,97,183	2563,75,183	2746,85,183	2929,127,183	3112,157,183	3295,189,183	3478,25,183	3661,33,183	3844,57,183	4027,73,183	4210,99,183	4393,103,183	4576,143,183	4759,171,183	4942,175,183	5125,177,183	5308,197,183	5491,47,183	5674,79,183	5857,81,183	6040,83,183	6223,87,183	6406,91,183	6589,163,183	6772,173,183	6955,187,183	7138,29,183	7321,31,183	7504,51,183	7687,59,183	7870,109,183	8053,111,183	8236,113,183	8419,123,183	8602,129,183	8785,141,183	8968,161,183	9151,165,183	9334,169,183	9517,181,183	9700,193,183	9883,23,183	10066,37,183	10249,41,183	10432,45,183	10615,71,183	10798,93,183	10981,105,183	11164,107,183	11347,117,183	11530,125,183	11713,159,183	11896,183,183	12079,199,183	12262,35,183	12445,49,183	12628,55,183	12811,61,183	12994,63,183	13177,65,183	13360,67,183	13543,69,183	13726,77,183	13909,89,183	14092,131,183	14275,133,183	14458,139,183	14641,147,183	14824,151,183	15007,167,183	15190,191,183	15373,21,183	15556,27,183	15739,39,183	15922,43,183	16105,95,183	16288,101,183	16471,115,183	16654,119,183	16837,121,183	17020,137,183	17203,145,183	17386,149,183	17569,155,183	17752,179,183	17935,185,183	18118,195,183	24928,201,1	
# Incoming
1,(0, 2),9	10,(0, 4),9	19,(0, 6),9	28,(0, 8),9	37,(0, 10),9	46,(0, 12),9	55,(0, 14),9	64,(0, 16),9	73,(0, 18),9	82,(0, 20),9	184,(9, 32),1182	1366,(9, 44),15	1381,(9, 46),51	1432,(9, 48),9	1441,(9, 56),90	1531,(9, 60),3	1534,(9, 66),3	1537,(9, 80),12	1549,(9, 94),30	1579,(9, 96),54	1633,(9, 100),3	1636,(9, 106),3	1639,(9, 116),33	1672,(9, 132),27	1699,(9, 138),24	1723,(9, 146),21	1744,(9, 148),237	1981,(9, 156),3	1984,(9, 168),3	1987,(9, 170),366	2353,(9, 172),33	2386,(9, 186),21	2407,(1, 24),84	2491,(1, 26),1014	3505,(1, 28),18	3523,(1, 36),3	3526,(1, 48),6	3532,(1, 52),3	3535,(1, 54),6	3541,(1, 56),6	3547,(1, 58),3	3550,(1, 66),126	3676,(1, 68),3	3679,(1, 72),60	3739,(1, 82),3	3742,(1, 88),3	3745,(1, 98),21	3766,(1, 106),120	3886,(1, 108),60	3946,(1, 110),3	3949,(1, 118),54	4003,(1, 122),36	4039,(1, 124),15	4054,(1, 142),15	4069,(1, 146),3	4072,(1, 180),12	4084,(1, 188),3	4087,(1, 196),9	4096,(1, 200),6	4102,(3, 24),204	4306,(3, 28),3	4309,(3, 38),21	4330,(3, 44),3	4333,(3, 50),3	4336,(3, 58),27	4363,(3, 62),30	4393,(3, 70),3	4396,(3, 76),588	4984,(3, 84),3	4987,(3, 86),33	5020,(3, 88),138	5158,(3, 98),3	5161,(3, 100),18	5179,(3, 112),30	5209,(3, 120),3	5212,(3, 122),282	5494,(3, 124),3	5497,(3, 132),153	5650,(3, 150),6	5656,(3, 152),99	5755,(3, 160),9	5764,(3, 164),3	5767,(3, 176),18	5785,(3, 192),27	5812,(3, 196),6	5818,(5, 32),63	5881,(5, 36),39	5920,(5, 44),3	5923,(5, 46),39	5962,(5, 54),147	6109,(5, 62),3	6112,(5, 70),15	6127,(5, 72),3	6130,(5, 78),81	6211,(5, 86),36	6247,(5, 90),120	6367,(5, 92),438	6805,(5, 94),60	6865,(5, 98),9	6874,(5, 100),90	6964,(5, 118),186	7150,(5, 134),12	7162,(5, 136),6	7168,(5, 138),48	7216,(5, 142),63	7279,(5, 146),3	7282,(5, 148),198	7480,(5, 162),12	7492,(5, 166),24	7516,(5, 172),24	7540,(5, 174),75	7615,(5, 180),117	7732,(5, 186),63	7795,(5, 196),3	7798,(19, 22),435	8233,(19, 26),27	8260,(19, 32),12	8272,(19, 46),78	8350,(19, 54),6	8356,(19, 56),3	8359,(19, 60),60	8419,(19, 68),48	8467,(19, 70),15	8482,(19, 72),15	8497,(19, 76),6	8503,(19, 78),39	8542,(19, 82),27	8569,(19, 84),15	8584,(19, 88),18	8602,(19, 92),171	8773,(19, 96),18	8791,(19, 98),9	8800,(19, 100),3	8803,(19, 104),45	8848,(19, 108),9	8857,(19, 110),21	8878,(19, 118),60	8938,(19, 122),9	8947,(19, 138),18	8965,(19, 146),6	8971,(19, 148),3	8974,(19, 166),18	8992,(19, 170),33	9025,(19, 178),30	9055,(19, 180),42	9097,(19, 184),9	9106,(19, 186),6	9112,(19, 188),3	9115,(19, 192),3	9118,(15, 34),6	9124,(15, 48),42	9166,(15, 50),24	9190,(15, 52),297	9487,(15, 54),6	9493,(15, 62),267	9760,(15, 66),24	9784,(15, 72),30	9814,(15, 76),3	9817,(15, 80),12	9829,(15, 84),51	9880,(15, 92),12	9892,(15, 94),24	9916,(15, 96),33	9949,(15, 120),3	9952,(15, 122),33	9985,(15, 124),81	10066,(15, 132),78	10144,(15, 134),312	10456,(15, 162),33	10489,(15, 164),3	10492,(15, 168),15	10507,(15, 180),24	10531,(15, 186),72	10603,(15, 192),9	10612,(15, 196),6	10618,(15, 198),156	10774,(15, 200),66	10840,(7, 34),3	10843,(7, 40),3	10846,(7, 42),15	10861,(7, 44),3	10864,(7, 54),24	10888,(7, 64),105	10993,(7, 70),123	11116,(7, 72),24	11140,(7, 74),6	11146,(7, 76),51	11197,(7, 84),48	11245,(7, 86),21	11266,(7, 90),3	11269,(7, 92),3	11272,(7, 94),12	11284,(7, 102),3	11287,(7, 106),33	11320,(7, 120),15	11335,(7, 126),75	11410,(7, 134),36	11446,(7, 136),258	11704,(7, 140),288	11992,(7, 144),3	11995,(7, 158),6	12001,(7, 160),138	12139,(7, 162),12	12151,(7, 172),9	12160,(7, 174),30	12190,(7, 176),3	12193,(7, 182),33	12226,(7, 188),33	12259,(7, 194),9	12268,(13, 26),6	12274,(13, 38),27	12301,(13, 46),6	12307,(13, 48),6	12313,(13, 52),3	12316,(13, 54),21	12337,(13, 58),45	12382,(13, 66),3	12385,(13, 72),120	12505,(13, 78),51	12556,(13, 88),96	12652,(13, 92),21	12673,(13, 96),3	12676,(13, 100),3	12679,(13, 102),6	12685,(13, 104),66	12751,(13, 106),252	13003,(13, 108),3	13006,(13, 116),15	13021,(13, 118),12	13033,(13, 124),3	13036,(13, 126),12	13048,(13, 134),9	13057,(13, 136),36	13093,(13, 140),3	13096,(13, 148),6	13102,(13, 154),21	13123,(13, 158),6	13129,(13, 164),12	13141,(13, 166),144	13285,(13, 168),9	13294,(13, 170),3	13297,(13, 184),201	13498,(13, 190),3	13501,(13, 194),9	13510,(11, 26),15	13525,(11, 30),3	13528,(11, 36),30	13558,(11, 42),18	13576,(11, 46),72	13648,(11, 48),9	13657,(11, 60),156	13813,(11, 70),15	13828,(11, 76),3	13831,(11, 82),99	13930,(11, 100),30	13960,(11, 104),63	14023,(11, 106),15	14038,(11, 114),24	14062,(11, 150),3	14065,(11, 162),12	14077,(11, 176),21	14098,(11, 178),72	14170,(11, 180),6	14176,(11, 184),114	14290,(11, 188),30	14320,(11, 198),27	14347,(11, 200),3	14350,(17, 22),9	14359,(17, 24),15	14374,(17, 32),18	14392,(17, 36),111	14503,(17, 42),3	14506,(17, 56),84	14590,(17, 58),27	14617,(17, 80),3	14620,(17, 92),36	14656,(17, 94),3	14659,(17, 100),12	14671,(17, 110),3	14674,(17, 112),3	14677,(17, 118),18	14695,(17, 120),3	14698,(17, 142),21	14719,(17, 144),3	14722,(17, 146),57	14779,(17, 154),12	14791,(17, 158),27	14818,(17, 186),21	14839,(17, 188),15	14854,(17, 190),54	14908,(17, 194),6	14914,(17, 198),3	
193,(2, 23),54	247,(2, 25),3	250,(2, 27),45	295,(2, 29),42	337,(2, 49),3	340,(2, 57),3	343,(2, 59),174	517,(2, 63),15	532,(2, 77),3	535,(2, 79),3	538,(2, 107),15	553,(2, 115),21	574,(2, 139),6	580,(2, 141),9	589,(2, 145),12	601,(2, 147),33	634,(2, 153),15	649,(2, 157),81	730,(2, 159),3	733,(2, 161),3	736,(2, 163),3	739,(2, 177),3	742,(2, 187),3	745,(2, 195),96	841,(4, 31),51	892,(4, 37),3	895,(4, 45),6	901,(4, 49),21	922,(4, 51),6	928,(4, 55),6	934,(4, 77),3	937,(4, 83),42	979,(4, 87),24	1003,(4, 93),39	1042,(4, 95),3	1045,(4, 99),3	1048,(4, 103),63	1111,(4, 111),3	1114,(4, 115),6	1120,(4, 121),111	1231,(4, 125),3	1234,(4, 129),6	1240,(4, 145),9	1249,(4, 169),72	1321,(4, 173),72	1393,(4, 177),12	1405,(4, 179),3	1408,(4, 185),6	1414,(4, 199),6	1420,(6, 53),126	1546,(6, 63),24	1570,(6, 65),3	1573,(6, 69),3	1576,(6, 91),6	1582,(6, 95),3	1585,(6, 103),3	1588,(6, 123),30	1618,(6, 125),3	1621,(6, 135),6	1627,(6, 143),3	1630,(6, 157),3	1633,(6, 159),75	1708,(6, 165),21	1729,(6, 167),24	1753,(6, 171),15	1768,(6, 173),3	1771,(6, 177),18	1789,(6, 181),3	1792,(6, 183),48	1840,(6, 191),3	1843,(6, 197),33	1876,(6, 199),345	2221,(8, 33),6	2227,(8, 37),9	2236,(8, 39),21	2257,(8, 49),63	2320,(8, 51),3	2323,(8, 75),6	2329,(8, 79),6	2335,(8, 85),9	2344,(8, 93),9	2353,(8, 103),3	2356,(8, 105),33	2389,(8, 119),3	2392,(8, 127),63	2455,(8, 143),57	2512,(8, 147),3	2515,(8, 151),6	2521,(8, 157),3	2524,(8, 159),3	2527,(8, 161),6	2533,(8, 171),63	2596,(8, 181),162	2758,(8, 183),3	2761,(8, 189),33	2794,(8, 199),9	2803,(10, 21),12	2815,(10, 25),3	2818,(10, 27),33	2851,(10, 31),3	2854,(10, 33),9	2863,(10, 41),6	2869,(10, 49),99	2968,(10, 51),84	3052,(10, 57),12	3064,(10, 61),3	3067,(10, 63),3	3070,(10, 69),18	3088,(10, 71),48	3136,(10, 73),15	3151,(10, 77),3	3154,(10, 81),36	3190,(10, 91),33	3223,(10, 99),9	3232,(10, 103),15	3247,(10, 105),3	3250,(10, 107),75	3325,(10, 115),24	3349,(10, 129),135	3484,(10, 137),87	3571,(10, 139),15	3586,(10, 143),201	3787,(10, 145),315	4102,(10, 159),93	4195,(10, 161),6	4201,(10, 163),3	4204,(10, 171),24	4228,(10, 175),39	4267,(10, 177),3	4270,(10, 181),18	4288,(10, 183),3	4291,(10, 187),15	4306,(10, 193),84	4390,(10, 197),150	4540,(12, 21),6	4546,(12, 23),48	4594,(12, 31),6	4600,(12, 47),9	4609,(12, 51),66	4675,(12, 55),3	4678,(12, 65),6	4684,(12, 77),111	4795,(12, 79),27	4822,(12, 81),3	4825,(12, 83),27	4852,(12, 87),6	4858,(12, 89),15	4873,(12, 91),3	4876,(12, 93),3	4879,(12, 107),9	4888,(12, 117),3	4891,(12, 119),54	4945,(12, 121),171	5116,(12, 155),12	5128,(12, 159),3	5131,(12, 163),15	5146,(12, 169),24	5170,(12, 173),6	5176,(12, 185),60	5236,(12, 187),3	5239,(14, 29),3	5242,(14, 31),12	5254,(14, 35),30	5284,(14, 37),33	5317,(14, 43),54	5371,(14, 45),6	5377,(14, 51),3	5380,(14, 59),9	5389,(14, 63),60	5449,(14, 65),6	5455,(14, 93),12	5467,(14, 105),60	5527,(14, 109),66	5593,(14, 111),21	5614,(14, 113),69	5683,(14, 119),27	5710,(14, 123),6	5716,(14, 125),24	5740,(14, 129),18	5758,(14, 131),36	5794,(14, 141),21	5815,(14, 151),33	5848,(14, 161),3	5851,(14, 165),12	5863,(14, 169),39	5902,(14, 181),3	5905,(14, 191),3	5908,(14, 193),42	5950,(16, 23),12	5962,(16, 35),3	5965,(16, 37),3	5968,(16, 41),12	5980,(16, 45),30	6010,(16, 55),9	6019,(16, 65),21	6040,(16, 69),63	6103,(16, 71),21	6124,(16, 93),132	6256,(16, 105),3	6259,(16, 107),3	6262,(16, 115),15	6277,(16, 117),12	6289,(16, 121),12	6301,(16, 125),69	6370,(16, 139),12	6382,(16, 145),9	6391,(16, 151),102	6493,(16, 159),120	6613,(16, 183),24	6637,(16, 199),15	6652,(18, 35),6	6658,(18, 49),144	6802,(18, 55),3	6805,(18, 61),9	6814,(18, 63),36	6850,(18, 65),6	6856,(18, 67),24	6880,(18, 69),3	6883,(18, 77),3	6886,(18, 89),3	6889,(18, 101),99	6988,(18, 131),192	7180,(18, 133),96	7276,(18, 139),30	7306,(18, 147),33	7339,(18, 151),12	7351,(18, 167),3	7354,(18, 191),36	7390,(18, 195),3	7393,(20, 21),12	7405,(20, 27),33	7438,(20, 39),54	7492,(20, 43),12	7504,(20, 95),27	7531,(20, 101),30	7561,(20, 115),777	8338,(20, 119),36	8374,(20, 121),3	8377,(20, 137),39	8416,(20, 145),15	8431,(20, 149),12	8443,(20, 155),39	8482,(20, 179),21	8503,(20, 185),3	8506,(20, 195),3	8509,(130, 201),42	8551,(128, 201),42	8593,(156, 201),42	8635,(28, 201),42	8677,(152, 201),42	8719,(68, 201),42	8983,(98, 201),42	9166,(138, 201),42	9373,(50, 201),42	9943,(62, 201),42	10168,(122, 201),42	10351,(132, 201),42	10795,(192, 201),42	10978,(196, 201),42	11161,(34, 201),42	11344,(40, 201),42	11527,(44, 201),42	11710,(64, 201),42	11893,(74, 201),42	12076,(84, 201),42	12259,(86, 201),42	12442,(90, 201),42	12625,(160, 201),42	12808,(172, 201),42	12991,(174, 201),42	13174,(182, 201),42	13357,(38, 201),42	13540,(52, 201),42	13723,(54, 201),42	13906,(66, 201),42	14089,(72, 201),42	14272,(78, 201),42	14455,(88, 201),42	14638,(96, 201),42	14821,(102, 201),42	15004,(108, 201),42	15187,(116, 201),42	15370,(124, 201),42	15553,(126, 201),42	15736,(134, 201),42	15919,(136, 201),42	16102,(140, 201),42	16285,(148, 201),42	16468,(164, 201),42	16651,(166, 201),42	16834,(168, 201),42	17017,(170, 201),42	17200,(26, 201),42	17383,(30, 201),42	17566,(46, 201),42	17749,(48, 201),42	17932,(60, 201),42	18115,(70, 201),42	18298,(76, 201),42	18481,(82, 201),42	18664,(104, 201),42	18847,(106, 201),42	19030,(114, 201),42	19213,(150, 201),42	19396,(162, 201),42	19579,(176, 201),42	19762,(178, 201),42	19945,(180, 201),42	20128,(184, 201),42	20311,(200, 201),42	20494,(22, 201),42	20677,(24, 201),42	20860,(32, 201),42	21043,(36, 201),42	21226,(42, 201),42	21409,(56, 201),42	21592,(58, 201),42	21775,(80, 201),42	21958,(92, 201),42	22141,(94, 201),42	22324,(100, 201),42	22507,(110, 201),42	22690,(112, 201),42	22873,(118, 201),42	23056,(120, 201),42	23239,(142, 201),42	23422,(144, 201),42	23605,(146, 201),42	23788,(154, 201),42	23971,(158, 201),42	24154,(186, 201),42	24337,(188, 201),42	24520,(190, 201),42	24703,(194, 201),42	24886,(198, 201),42	
# Outgoing
193,(2, 23),54	247,(2, 25),3	250,(2, 27),45	295,(2, 29),42	337,(2, 49),3	340,(2, 57),3	343,(2, 59),174	517,(2, 63),15	532,(2, 77),3	535,(2, 79),3	538,(2, 107),15	553,(2, 115),21	574,(2, 139),6	580,(2, 141),9	589,(2, 145),12	601,(2, 147),33	634,(2, 153),15	649,(2, 157),81	730,(2, 159),3	733,(2, 161),3	736,(2, 163),3	739,(2, 177),3	742,(2, 187),3	745,(2, 195),96	841,(4, 31),51	892,(4, 37),3	895,(4, 45),6	901,(4, 49),21	922,(4, 51),6	928,(4, 55),6	934,(4, 77),3	937,(4, 83),42	979,(4, 87),24	1003,(4, 93),39	1042,(4, 95),3	1045,(4, 99),3	1048,(4, 103),63	1111,(4, 111),3	1114,(4, 115),6	1120,(4, 121),111	1231,(4, 125),3	1234,(4, 129),6	1240,(4, 145),9	1249,(4, 169),72	1321,(4, 173),72	1393,(4, 177),12	1405,(4, 179),3	1408,(4, 185),6	1414,(4, 199),6	1420,(6, 53),126	1546,(6, 63),24	1570,(6, 65),3	1573,(6, 69),3	1576,(6, 91),6	1582,(6, 95),3	1585,(6, 103),3	1588,(6, 123),30	1618,(6, 125),3	1621,(6, 135),6	1627,(6, 143),3	1630,(6, 157),3	1633,(6, 159),75	1708,(6, 165),21	1729,(6, 167),24	1753,(6, 171),15	1768,(6, 173),3	1771,(6, 177),18	1789,(6, 181),3	1792,(6, 183),48	1840,(6, 191),3	1843,(6, 197),33	1876,(6, 199),345	2221,(8, 33),6	2227,(8, 37),9	2236,(8, 39),21	2257,(8, 49),63	2320,(8, 51),3	2323,(8, 75),6	2329,(8, 79),6	2335,(8, 85),9	2344,(8, 93),9	2353,(8, 103),3	2356,(8, 105),33	2389,(8, 119),3	2392,(8, 127),63	2455,(8, 143),57	2512,(8, 147),3	2515,(8, 151),6	2521,(8, 157),3	2524,(8, 159),3	2527,(8, 161),6	2533,(8, 171),63	2596,(8, 181),162	2758,(8, 183),3	2761,(8, 189),33	2794,(8, 199),9	2803,(10, 21),12	2815,(10, 25),3	2818,(10, 27),33	2851,(10, 31),3	2854,(10, 33),9	2863,(10, 41),6	2869,(10, 49),99	2968,(10, 51),84	3052,(10, 57),12	3064,(10, 61),3	3067,(10, 63),3	3070,(10, 69),18	3088,(10, 71),48	3136,(10, 73),15	3151,(10, 77),3	3154,(10, 81),36	3190,(10, 91),33	3223,(10, 99),9	3232,(10, 103),15	3247,(10, 105),3	3250,(10, 107),75	3325,(10, 115),24	3349,(10, 129),135	3484,(10, 137),87	3571,(10, 139),15	3586,(10, 143),201	3787,(10, 145),315	4102,(10, 159),93	4195,(10, 161),6	4201,(10, 163),3	4204,(10, 171),24	4228,(10, 175),39	4267,(10, 177),3	4270,(10, 181),18	4288,(10, 183),3	4291,(10, 187),15	4306,(10, 193),84	4390,(10, 197),150	4540,(12, 21),6	4546,(12, 23),48	4594,(12, 31),6	4600,(12, 47),9	4609,(12, 51),66	4675,(12, 55),3	4678,(12, 65),6	4684,(12, 77),111	4795,(12, 79),27	4822,(12, 81),3	4825,(12, 83),27	4852,(12, 87),6	4858,(12, 89),15	4873,(12, 91),3	4876,(12, 93),3	4879,(12, 107),9	4888,(12, 117),3	4891,(12, 119),54	4945,(12, 121),171	5116,(12, 155),12	5128,(12, 159),3	5131,(12, 163),15	5146,(12, 169),24	5170,(12, 173),6	5176,(12, 185),60	5236,(12, 187),3	5239,(14, 29),3	5242,(14, 31),12	5254,(14, 35),30	5284,(14, 37),33	5317,(14, 43),54	5371,(14, 45),6	5377,(14, 51),3	5380,(14, 59),9	5389,(14, 63),60	5449,(14, 65),6	5455,(14, 93),12	5467,(14, 105),60	5527,(14, 109),66	5593,(14, 111),21	5614,(14, 113),69	5683,(14, 119),27	5710,(14, 123),6	5716,(14, 125),24	5740,(14, 129),18	5758,(14, 131),36	5794,(14, 141),21	5815,(14, 151),33	5848,(14, 161),3	5851,(14, 165),12	5863,(14, 169),39	5902,(14, 181),3	5905,(14, 191),3	5908,(14, 193),42	5950,(16, 23),12	5962,(16, 35),3	5965,(16, 37),3	5968,(16, 41),12	5980,(16, 45),30	6010,(16, 55),9	6019,(16, 65),21	6040,(16, 69),63	6103,(16, 71),21	6124,(16, 93),132	6256,(16, 105),3	6259,(16, 107),3	6262,(16, 115),15	6277,(16, 117),12	6289,(16, 121),12	6301,(16, 125),69	6370,(16, 139),12	6382,(16, 145),9	6391,(16, 151),102	6493,(16, 159),120	6613,(16, 183),24	6637,(16, 199),15	6652,(18, 35),6	6658,(18, 49),144	6802,(18, 55),3	6805,(18, 61),9	6814,(18, 63),36	6850,(18, 65),6	6856,(18, 67),24	6880,(18, 69),3	6883,(18, 77),3	6886,(18, 89),3	6889,(18, 101),99	6988,(18, 131),192	7180,(18, 133),96	7276,(18, 139),30	7306,(18, 147),33	7339,(18, 151),12	7351,(18, 167),3	7354,(18, 191),36	7390,(18, 195),3	7393,(20, 21),12	7405,(20, 27),33	7438,(20, 39),54	7492,(20, 43),12	7504,(20, 95),27	7531,(20, 101),30	7561,(20, 115),777	8338,(20, 119),36	8374,(20, 121),3	8377,(20, 137),39	8416,(20, 145),15	8431,(20, 149),12	8443,(20, 155),39	8482,(20, 179),21	8503,(20, 185),3	8506,(20, 195),3	8509,(130, 201),42	8551,(128, 201),42	8593,(156, 201),42	8635,(28, 201),42	8677,(152, 201),42	8719,(68, 201),42	8983,(98, 201),42	9166,(138, 201),42	9373,(50, 201),42	9943,(62, 201),42	10168,(122, 201),42	10351,(132, 201),42	10795,(192, 201),42	10978,(196, 201),42	11161,(34, 201),42	11344,(40, 201),42	11527,(44, 201),42	11710,(64, 201),42	11893,(74, 201),42	12076,(84, 201),42	12259,(86, 201),42	12442,(90, 201),42	12625,(160, 201),42	12808,(172, 201),42	12991,(174, 201),42	13174,(182, 201),42	13357,(38, 201),42	13540,(52, 201),42	13723,(54, 201),42	13906,(66, 201),42	14089,(72, 201),42	14272,(78, 201),42	14455,(88, 201),42	14638,(96, 201),42	14821,(102, 201),42	15004,(108, 201),42	15187,(116, 201),42	15370,(124, 201),42	15553,(126, 201),42	15736,(134, 201),42	15919,(136, 201),42	16102,(140, 201),42	16285,(148, 201),42	16468,(164, 201),42	16651,(166, 201),42	16834,(168, 201),42	17017,(170, 201),42	17200,(26, 201),42	17383,(30, 201),42	17566,(46, 201),42	17749,(48, 201),42	17932,(60, 201),42	18115,(70, 201),42	18298,(76, 201),42	18481,(82, 201),42	18664,(104, 201),42	18847,(106, 201),42	19030,(114, 201),42	19213,(150, 201),42	19396,(162, 201),42	19579,(176, 201),42	19762,(178, 201),42	19945,(180, 201),42	20128,(184, 201),42	20311,(200, 201),42	20494,(22, 201),42	20677,(24, 201),42	20860,(32, 201),42	21043,(36, 201),42	21226,(42, 201),42	21409,(56, 201),42	21592,(58, 201),42	21775,(80, 201),42	21958,(92, 201),42	22141,(94, 201),42	22324,(100, 201),42	22507,(110, 201),42	22690,(112, 201),42	22873,(118, 201),42	23056,(120, 201),42	23239,(142, 201),42	23422,(144, 201),42	23605,(146, 201),42	23788,(154, 201),42	23971,(158, 201),42	24154,(186, 201),42	24337,(188, 201),42	24520,(190, 201),42	24703,(194, 201),42	24886,(198, 201),42	
1,(0, 2),9	10,(0, 4),9	19,(0, 6),9	28,(0, 8),9	37,(0, 10),9	46,(0, 12),9	55,(0, 14),9	64,(0, 16),9	73,(0, 18),9	82,(0, 20),9	184,(9, 32),1182	1366,(9, 44),15	1381,(9, 46),51	1432,(9, 48),9	1441,(9, 56),90	1531,(9, 60),3	1534,(9, 66),3	1537,(9, 80),12	1549,(9, 94),30	1579,(9, 96),54	1633,(9, 100),3	1636,(9, 106),3	1639,(9, 116),33	1672,(9, 132),27	1699,(9, 138),24	1723,(9, 146),21	1744,(9, 148),237	1981,(9, 156),3	1984,(9, 168),3	1987,(9, 170),366	2353,(9, 172),33	2386,(9, 186),21	2407,(1, 24),84	2491,(1, 26),1014	3505,(1, 28),18	3523,(1, 36),3	3526,(1, 48),6	3532,(1, 52),3	3535,(1, 54),6	3541,(1, 56),6	3547,(1, 58),3	3550,(1, 66),126	3676,(1, 68),3	3679,(1, 72),60	3739,(1, 82),3	3742,(1, 88),3	3745,(1, 98),21	3766,(1, 106),120	3886,(1, 108),60	3946,(1, 110),3	3949,(1, 118),54	4003,(1, 122),36	4039,(1, 124),15	4054,(1, 142),15	4069,(1, 146),3	4072,(1, 180),12	4084,(1, 188),3	4087,(1, 196),9	4096,(1, 200),6	4102,(3, 24),204	4306,(3, 28),3	4309,(3, 38),21	4330,(3, 44),3	4333,(3, 50),3	4336,(3, 58),27	4363,(3, 62),30	4393,(3, 70),3	4396,(3, 76),588	4984,(3, 84),3	4987,(3, 86),33	5020,(3, 88),138	5158,(3, 98),3	5161,(3, 100),18	5179,(3, 112),30	5209,(3, 120),3	5212,(3, 122),282	5494,(3, 124),3	5497,(3, 132),153	5650,(3, 150),6	5656,(3, 152),99	5755,(3, 160),9	5764,(3, 164),3	5767,(3, 176),18	5785,(3, 192),27	5812,(3, 196),6	5818,(5, 32),63	5881,(5, 36),39	5920,(5, 44),3	5923,(5, 46),39	5962,(5, 54),147	6109,(5, 62),3	6112,(5, 70),15	6127,(5, 72),3	6130,(5, 78),81	6211,(5, 86),36	6247,(5, 90),120	6367,(5, 92),438	6805,(5, 94),60	6865,(5, 98),9	6874,(5, 100),90	6964,(5, 118),186	7150,(5, 134),12	7162,(5, 136),6	7168,(5, 138),48	7216,(5, 142),63	7279,(5, 146),3	7282,(5, 148),198	7480,(5, 162),12	7492,(5, 166),24	7516,(5, 172),24	7540,(5, 174),75	7615,(5, 180),117	7732,(5, 186),63	7795,(5, 196),3	7798,(19, 22),435	8233,(19, 26),27	8260,(19, 32),12	8272,(19, 46),78	8350,(19, 54),6	8356,(19, 56),3	8359,(19, 60),60	8419,(19, 68),48	8467,(19, 70),15	8482,(19, 72),15	8497,(19, 76),6	8503,(19, 78),39	8542,(19, 82),27	8569,(19, 84),15	8584,(19, 88),18	8602,(19, 92),171	8773,(19, 96),18	8791,(19, 98),9	8800,(19, 100),3	8803,(19, 104),45	8848,(19, 108),9	8857,(19, 110),21	8878,(19, 118),60	8938,(19, 122),9	8947,(19, 138),18	8965,(19, 146),6	8971,(19, 148),3	8974,(19, 166),18	8992,(19, 170),33	9025,(19, 178),30	9055,(19, 180),42	9097,(19, 184),9	9106,(19, 186),6	9112,(19, 188),3	9115,(19, 192),3	9118,(15, 34),6	9124,(15, 48),42	9166,(15, 50),24	9190,(15, 52),297	9487,(15, 54),6	9493,(15, 62),267	9760,(15, 66),24	9784,(15, 72),30	9814,(15, 76),3	9817,(15, 80),12	9829,(15, 84),51	9880,(15, 92),12	9892,(15, 94),24	9916,(15, 96),33	9949,(15, 120),3	9952,(15, 122),33	9985,(15, 124),81	10066,(15, 132),78	10144,(15, 134),312	10456,(15, 162),33	10489,(15, 164),3	10492,(15, 168),15	10507,(15, 180),24	10531,(15, 186),72	10603,(15, 192),9	10612,(15, 196),6	10618,(15, 198),156	10774,(15, 200),66	10840,(7, 34),3	10843,(7, 40),3	10846,(7, 42),15	10861,(7, 44),3	10864,(7, 54),24	10888,(7, 64),105	10993,(7, 70),123	11116,(7, 72),24	11140,(7, 74),6	11146,(7, 76),51	11197,(7, 84),48	11245,(7, 86),21	11266,(7, 90),3	11269,(7, 92),3	11272,(7, 94),12	11284,(7, 102),3	11287,(7, 106),33	11320,(7, 120),15	11335,(7, 126),75	11410,(7, 134),36	11446,(7, 136),258	11704,(7, 140),288	11992,(7, 144),3	11995,(7, 158),6	12001,(7, 160),138	12139,(7, 162),12	12151,(7, 172),9	12160,(7, 174),30	12190,(7, 176),3	12193,(7, 182),33	12226,(7, 188),33	12259,(7, 194),9	12268,(13, 26),6	12274,(13, 38),27	12301,(13, 46),6	12307,(13, 48),6	12313,(13, 52),3	12316,(13, 54),21	12337,(13, 58),45	12382,(13, 66),3	12385,(13, 72),120	12505,(13, 78),51	12556,(13, 88),96	12652,(13, 92),21	12673,(13, 96),3	12676,(13, 100),3	12679,(13, 102),6	12685,(13, 104),66	12751,(13, 106),252	13003,(13, 108),3	13006,(13, 116),15	13021,(13, 118),12	13033,(13, 124),3	13036,(13, 126),12	13048,(13, 134),9	13057,(13, 136),36	13093,(13, 140),3	13096,(13, 148),6	13102,(13, 154),21	13123,(13, 158),6	13129,(13, 164),12	13141,(13, 166),144	13285,(13, 168),9	13294,(13, 170),3	13297,(13, 184),201	13498,(13, 190),3	13501,(13, 194),9	13510,(11, 26),15	13525,(11, 30),3	13528,(11, 36),30	13558,(11, 42),18	13576,(11, 46),72	13648,(11, 48),9	13657,(11, 60),156	13813,(11, 70),15	13828,(11, 76),3	13831,(11, 82),99	13930,(11, 100),30	13960,(11, 104),63	14023,(11, 106),15	14038,(11, 114),24	14062,(11, 150),3	14065,(11, 162),12	14077,(11, 176),21	14098,(11, 178),72	14170,(11, 180),6	14176,(11, 184),114	14290,(11, 188),30	14320,(11, 198),27	14347,(11, 200),3	14350,(17, 22),9	14359,(17, 24),15	14374,(17, 32),18	14392,(17, 36),111	14503,(17, 42),3	14506,(17, 56),84	14590,(17, 58),27	14617,(17, 80),3	14620,(17, 92),36	14656,(17, 94),3	14659,(17, 100),12	14671,(17, 110),3	14674,(17, 112),3	14677,(17, 118),18	14695,(17, 120),3	14698,(17, 142),21	14719,(17, 144),3	14722,(17, 146),57	14779,(17, 154),12	14791,(17, 158),27	14818,(17, 186),21	14839,(17, 188),15	14854,(17, 190),54	14908,(17, 194),6	14914,(17, 198),3	
