1786
# CPU
149,28,3	157,48,3	169,68,3	205,18,3	229,38,3	273,58,3	1773,78,3	
133,37,3	137,17,3	145,27,3	149,47,3	165,77,3	213,57,3	1113,67,3	
29,8,3	32,56,3	149,46,3	153,36,3	329,66,3	485,16,3	501,26,3	1125,76,3	
25,7,3	28,65,3	68,15,3	129,35,3	165,55,3	205,25,3	257,45,3	585,75,3	
21,6,3	24,74,3	68,14,3	72,34,3	93,24,3	137,44,3	193,54,3	313,64,3	
17,5,3	20,63,3	156,23,3	165,53,3	193,13,3	253,73,3	285,33,3	1085,43,3	
13,4,3	37,12,3	41,22,3	72,42,3	120,72,3	305,62,3	429,52,3	981,32,3	
9,3,3	12,21,3	15,41,3	40,11,3	217,71,3	361,51,3	709,31,3	985,61,3	
5,2,3	8,50,3	44,10,3	149,40,3	164,30,3	701,20,3	709,70,3	789,60,3	1405,80,3	
0,0,1	1,1,3	73,29,3	77,9,3	124,79,3	313,49,3	317,59,3	573,39,3	945,19,3	1093,69,3	1785,81,1	
# Incoming
145,(1, 28),4	149,(2, 48),8	165,(3, 68),4	169,(4, 18),36	205,(8, 38),24	257,(8, 58),16	945,(8, 78),828	
129,(2, 37),4	133,(4, 17),4	137,(4, 27),8	145,(7, 47),4	149,(7, 57),12	161,(8, 77),4	193,(2, 57),20	985,(5, 67),128	
25,(0, 8),4	29,(2, 16),4	41,(1, 26),104	145,(2, 46),4	149,(3, 36),4	213,(2, 66),4	217,(5, 16),108	325,(5, 66),4	329,(6, 16),156	485,(6, 26),16	1093,(3, 76),32	
21,(0, 7),4	44,(8, 15),24	73,(2, 35),56	149,(1, 55),16	165,(6, 25),40	229,(8, 45),28	329,(5, 75),32	361,(4, 75),224	
17,(0, 6),4	40,(7, 14),28	68,(8, 34),4	77,(3, 24),16	93,(7, 44),16	133,(2, 44),4	157,(2, 54),36	273,(8, 64),40	
13,(0, 5),4	36,(6, 23),120	157,(3, 53),8	165,(7, 13),28	217,(6, 73),36	253,(7, 33),32	701,(3, 43),384	
9,(0, 4),4	29,(1, 12),8	37,(1, 22),4	68,(7, 42),4	72,(8, 62),24	96,(8, 72),24	153,(3, 52),4	169,(1, 62),136	305,(2, 52),124	709,(5, 32),272	
5,(0, 3),4	24,(6, 11),12	36,(7, 11),4	205,(6, 71),12	313,(4, 51),48	361,(5, 31),348	981,(5, 61),4	
1,(0, 2),4	32,(8, 10),12	93,(3, 40),56	149,(4, 30),4	156,(6, 30),8	165,(1, 60),4	169,(3, 20),532	701,(6, 70),8	709,(7, 60),80	1125,(3, 80),280	
33,(2, 29),40	73,(3, 9),4	77,(65, 81),4	81,(15, 81),4	120,(8, 79),4	124,(56, 81),4	132,(35, 81),4	137,(50, 81),4	141,(10, 81),4	145,(12, 81),4	149,(37, 81),4	153,(22, 81),4	157,(42, 81),4	161,(72, 81),4	165,(17, 81),4	169,(27, 81),4	173,(47, 81),4	177,(46, 81),4	181,(28, 81),4	185,(36, 81),4	189,(48, 81),4	193,(55, 81),4	197,(77, 81),4	201,(68, 81),4	205,(4, 49),108	313,(6, 59),4	317,(74, 81),4	321,(14, 81),4	325,(34, 81),4	329,(25, 81),4	333,(18, 81),4	337,(57, 81),4	341,(38, 81),4	345,(45, 81),4	349,(58, 81),4	353,(66, 81),4	429,(40, 81),4	433,(30, 81),4	488,(16, 81),4	501,(6, 39),72	573,(8, 19),372	945,(24, 81),4	949,(44, 81),4	953,(54, 81),4	957,(62, 81),4	961,(64, 81),4	965,(52, 81),4	969,(75, 81),4	973,(20, 81),4	977,(70, 81),4	981,(60, 81),4	985,(32, 81),4	1085,(3, 69),8	1113,(63, 81),4	1117,(23, 81),4	1121,(53, 81),4	1125,(13, 81),4	1129,(73, 81),4	1133,(33, 81),4	1137,(43, 81),4	1141,(67, 81),4	1405,(21, 81),4	1409,(41, 81),4	1413,(11, 81),4	1417,(71, 81),4	1421,(51, 81),4	1425,(31, 81),4	1429,(61, 81),4	1433,(80, 81),4	1773,(26, 81),4	1777,(76, 81),4	1781,(78, 81),4	
# Outgoing
181,(28, 81),4	189,(48, 81),4	201,(68, 81),4	333,(18, 81),4	341,(38, 81),4	349,(58, 81),4	1781,(78, 81),4	
149,(37, 81),4	165,(17, 81),4	169,(27, 81),4	173,(47, 81),4	197,(77, 81),4	337,(57, 81),4	1141,(67, 81),4	
32,(8, 10),12	44,(8, 15),24	68,(8, 34),4	72,(8, 62),24	96,(8, 72),24	120,(8, 79),4	124,(56, 81),4	161,(8, 77),4	177,(46, 81),4	185,(36, 81),4	205,(8, 38),24	229,(8, 45),28	257,(8, 58),16	273,(8, 64),40	353,(66, 81),4	488,(16, 81),4	573,(8, 19),372	945,(8, 78),828	1773,(26, 81),4	1777,(76, 81),4	
36,(7, 11),4	40,(7, 14),28	68,(7, 42),4	77,(65, 81),4	81,(15, 81),4	93,(7, 44),16	132,(35, 81),4	145,(7, 47),4	149,(7, 57),12	165,(7, 13),28	193,(55, 81),4	253,(7, 33),32	329,(25, 81),4	345,(45, 81),4	709,(7, 60),80	969,(75, 81),4	
24,(6, 11),12	36,(6, 23),120	156,(6, 30),8	165,(6, 25),40	205,(6, 71),12	217,(6, 73),36	313,(6, 59),4	317,(74, 81),4	321,(14, 81),4	325,(34, 81),4	329,(6, 16),156	485,(6, 26),16	501,(6, 39),72	701,(6, 70),8	945,(24, 81),4	949,(44, 81),4	953,(54, 81),4	961,(64, 81),4	
217,(5, 16),108	325,(5, 66),4	329,(5, 75),32	361,(5, 31),348	709,(5, 32),272	981,(5, 61),4	985,(5, 67),128	1113,(63, 81),4	1117,(23, 81),4	1121,(53, 81),4	1125,(13, 81),4	1129,(73, 81),4	1133,(33, 81),4	1137,(43, 81),4	
133,(4, 17),4	137,(4, 27),8	145,(12, 81),4	149,(4, 30),4	153,(22, 81),4	157,(42, 81),4	161,(72, 81),4	169,(4, 18),36	205,(4, 49),108	313,(4, 51),48	361,(4, 75),224	957,(62, 81),4	965,(52, 81),4	985,(32, 81),4	
73,(3, 9),4	77,(3, 24),16	93,(3, 40),56	149,(3, 36),4	153,(3, 52),4	157,(3, 53),8	165,(3, 68),4	169,(3, 20),532	701,(3, 43),384	1085,(3, 69),8	1093,(3, 76),32	1125,(3, 80),280	1405,(21, 81),4	1409,(41, 81),4	1413,(11, 81),4	1417,(71, 81),4	1421,(51, 81),4	1425,(31, 81),4	1429,(61, 81),4	
29,(2, 16),4	33,(2, 29),40	73,(2, 35),56	129,(2, 37),4	133,(2, 44),4	137,(50, 81),4	141,(10, 81),4	145,(2, 46),4	149,(2, 48),8	157,(2, 54),36	193,(2, 57),20	213,(2, 66),4	305,(2, 52),124	429,(40, 81),4	433,(30, 81),4	973,(20, 81),4	977,(70, 81),4	981,(60, 81),4	1433,(80, 81),4	
1,(0, 2),4	5,(0, 3),4	9,(0, 4),4	13,(0, 5),4	17,(0, 6),4	21,(0, 7),4	25,(0, 8),4	29,(1, 12),8	37,(1, 22),4	41,(1, 26),104	145,(1, 28),4	149,(1, 55),16	165,(1, 60),4	169,(1, 62),136	
