28203
# CPU
169,4,33	337,8,33	505,12,33	16485,18,33	16777,20,33	17041,24,33	17113,27,33	17213,29,33	17965,35,33	18085,38,33	18293,41,33	18397,44,33	18430,47,33	18481,50,33	18553,53,33	18669,55,33	18761,58,33	18949,61,33	19341,67,33	19393,70,33	19529,73,33	19597,74,33	20289,75,33	20521,77,33	20785,79,33	20853,83,33	21437,21,33	21633,86,33	21666,89,33	21893,92,33	22145,95,33	22178,98,33	22381,76,33	22617,101,33	22741,104,33	22857,107,33	22965,110,33	23137,113,33	23181,116,33	23229,119,33	25469,81,33	26969,32,33	27681,64,33	
113,3,33	281,7,33	449,11,33	16469,17,33	16749,19,33	17037,23,33	17073,26,33	17245,30,33	17777,33,33	17969,36,33	18285,39,33	18329,42,33	18401,45,33	18434,48,33	18549,52,33	18657,54,33	18749,56,33	18869,59,33	19013,62,33	19293,66,33	19469,71,33	20553,78,33	20809,80,33	20842,82,33	20875,84,33	21153,69,33	21649,87,33	21689,90,33	22149,96,33	22577,99,33	22641,102,33	22757,105,33	22905,108,33	23073,111,33	23141,114,33	23201,117,33	23234,120,33	24745,93,33	28161,72,33	
57,2,33	225,6,33	393,10,33	16437,16,33	17033,22,33	17066,25,33	17273,31,33	17789,34,33	17981,37,33	18289,40,33	18333,43,33	18413,46,33	18469,49,33	18533,51,33	18757,57,33	18905,60,33	19037,63,33	20581,28,33	21629,85,33	21662,88,33	21695,91,33	22021,94,33	22153,97,33	22605,100,33	22645,103,33	22937,109,33	23117,112,33	23177,115,33	25761,118,33	26489,65,33	27381,68,33	28109,106,33	28202,121,1	
0,0,1	1,1,33	34,9,33	67,5,33	1757,13,33	3081,14,33	16245,15,33	
# Incoming
113,(0, 4),56	246,(2, 21),4	250,(2, 24),12	262,(2, 29),4	266,(2, 32),4	270,(2, 44),4	274,(2, 61),4	281,(0, 8),56	337,(2, 20),52	389,(2, 38),48	437,(2, 64),8	445,(2, 74),4	449,(0, 12),56	505,(3, 20),12	517,(3, 21),4	521,(3, 38),4	525,(3, 55),4	529,(2, 73),8	537,(1, 18),8	545,(2, 77),4	549,(1, 20),40	589,(1, 21),4	593,(2, 47),20	613,(2, 58),24	637,(2, 67),12	649,(1, 24),4	653,(2, 27),68	721,(2, 70),28	749,(2, 86),4	753,(1, 27),4	757,(3, 29),12	769,(1, 29),168	937,(2, 18),152	1089,(2, 41),60	1149,(2, 50),92	1241,(2, 53),68	1309,(2, 55),64	1373,(1, 32),76	1449,(2, 81),8	1457,(2, 92),8	1465,(2, 107),4	1469,(3, 27),24	1493,(3, 47),8	1501,(2, 75),80	1581,(1, 35),16	1597,(2, 113),4	1601,(3, 41),16	1617,(1, 38),32	1649,(2, 101),8	1657,(2, 110),8	1665,(1, 41),4	1669,(2, 76),24	1693,(2, 89),20	1713,(3, 58),4	1717,(1, 44),44	1761,(2, 35),308	2069,(2, 79),148	2217,(2, 83),44	2261,(2, 116),4	2265,(3, 67),4	2269,(3, 76),4	2273,(1, 47),176	2449,(2, 104),16	2465,(2, 119),24	2489,(3, 44),12	2501,(3, 77),4	2505,(1, 50),4	2509,(3, 32),20	2529,(3, 35),52	2581,(3, 61),12	2593,(2, 95),68	2661,(2, 98),88	2749,(3, 79),4	2753,(1, 53),8	2761,(3, 50),16	2777,(3, 53),28	2805,(3, 86),4	2809,(3, 89),4	2813,(6, 20),4	2817,(1, 55),56	2873,(3, 64),20	2893,(3, 95),12	2905,(6, 24),4	2909,(1, 58),4	2913,(3, 70),20	2933,(3, 98),8	2941,(7, 20),4	2945,(1, 61),36	2981,(3, 18),124	3105,(3, 74),20	3125,(3, 110),8	3133,(7, 21),4	3137,(1, 64),792	3929,(3, 75),44	3973,(6, 21),8	3981,(1, 67),48	4029,(3, 101),16	4045,(6, 29),4	4049,(1, 70),4	4053,(6, 27),12	4065,(6, 47),4	4069,(1, 73),44	4113,(1, 74),4	4117,(1, 75),4	4121,(1, 76),52	4173,(1, 77),16	4189,(3, 104),24	4213,(6, 32),8	4221,(6, 44),16	4237,(6, 67),4	4241,(6, 70),4	4245,(1, 79),4	4249,(3, 24),96	4345,(3, 73),120	4465,(3, 107),68	4533,(6, 75),4	4537,(1, 81),12	4549,(3, 83),112	4661,(1, 83),20	4681,(3, 92),76	4757,(6, 89),4	4761,(1, 86),64	4825,(3, 119),52	4877,(6, 35),40	4917,(6, 50),12	4929,(6, 73),8	4937,(1, 89),68	5005,(6, 76),16	5021,(1, 92),4	5025,(6, 95),4	5029,(7, 18),24	5053,(7, 24),4	5057,(7, 27),92	5149,(7, 29),4	5153,(7, 38),16	5169,(7, 53),4	5173,(7, 58),8	5181,(6, 53),24	5205,(7, 61),4	5209,(1, 95),4	5213,(6, 104),4	5217,(7, 50),20	5237,(7, 95),4	5241,(1, 98),36	5277,(6, 38),32	5309,(6, 77),8	5317,(6, 79),8	5325,(6, 83),8	5333,(1, 101),100	5433,(6, 98),8	5441,(6, 113),4	5445,(7, 77),12	5457,(11, 20),4	5461,(1, 104),20	5481,(6, 101),8	5489,(7, 81),16	5505,(11, 21),4	5509,(1, 107),20	5529,(3, 116),228	5757,(7, 74),24	5781,(1, 110),4	5785,(6, 41),44	5829,(6, 119),4	5833,(10, 24),4	5837,(1, 113),8	5845,(7, 89),12	5857,(7, 116),8	5865,(1, 116),2304	8169,(6, 18),76	8245,(6, 58),120	8365,(7, 67),28	8393,(1, 119),4	8397,(3, 113),364	8761,(6, 55),256	9017,(6, 64),60	9077,(6, 74),36	9113,(6, 81),40	9153,(7, 47),32	9185,(9, 18),64	9249,(6, 86),104	9353,(7, 44),36	9389,(9, 20),12	9401,(9, 21),4	9405,(7, 55),44	9449,(7, 101),12	9461,(10, 32),4	9465,(9, 24),640	10105,(7, 76),36	10141,(9, 27),4	10145,(6, 92),76	10221,(7, 73),52	10273,(10, 44),4	10277,(10, 53),4	10281,(9, 29),16	10297,(7, 75),80	10377,(9, 32),16	10393,(6, 61),204	10597,(6, 107),88	10685,(10, 27),16	10701,(9, 35),12	10713,(6, 110),148	10861,(6, 116),108	10969,(7, 86),36	11005,(9, 38),40	11045,(7, 32),104	11149,(7, 35),148	11297,(7, 92),24	11321,(7, 98),40	11361,(10, 55),4	11365,(9, 41),32	11397,(7, 79),72	11469,(10, 47),8	11477,(10, 70),4	11481,(10, 75),4	11485,(9, 44),8	11493,(7, 41),120	11613,(7, 64),192	11805,(7, 70),184	11989,(7, 83),280	12269,(7, 104),48	12317,(7, 107),24	12341,(10, 18),20	12361,(9, 47),16	12377,(7, 110),28	12405,(7, 113),112	12517,(7, 119),212	12729,(10, 35),44	12773,(10, 74),12	12785,(9, 50),52	12837,(10, 20),88	12925,(10, 29),104	13029,(10, 38),56	13085,(10, 41),136	13221,(10, 50),44	13265,(10, 61),32	13297,(10, 64),28	13325,(10, 67),16	13341,(10, 76),4	13345,(9, 53),12	13357,(10, 83),4	13361,(9, 55),124	13485,(10, 73),32	13517,(10, 79),16	13533,(10, 81),12	13545,(10, 98),4	13549,(9, 58),4	13553,(10, 116),4	13557,(10, 119),4	13561,(9, 61),12	13573,(10, 89),16	13589,(10, 107),16	13605,(9, 64),16	13621,(11, 27),16	13637,(9, 67),4	13641,(10, 101),20	13661,(11, 35),4	13665,(11, 44),4	13669,(11, 53),8	13677,(9, 70),32	13709,(10, 58),152	13861,(10, 77),64	13925,(10, 86),60	13985,(10, 92),156	14141,(10, 110),48	14189,(11, 38),24	14213,(9, 73),36	14249,(9, 74),84	14333,(9, 75),32	14365,(9, 76),4	14369,(9, 77),16	14385,(10, 95),76	14461,(11, 47),28	14489,(11, 61),8	14497,(9, 79),4	14501,(11, 55),12	14513,(11, 70),4	14517,(9, 81),48	14565,(11, 67),20	14585,(9, 83),4	14589,(11, 50),24	14613,(11, 73),4	14617,(11, 77),4	14621,(9, 86),32	14653,(11, 41),40	14693,(9, 89),12	14705,(11, 83),8	14713,(9, 92),24	14737,(11, 86),8	14745,(11, 89),4	14749,(11, 92),4	14753,(11, 95),8	14761,(11, 101),12	14773,(9, 95),4	14777,(10, 104),140	14917,(10, 113),72	15041,(11, 81),48	15089,(11, 104),4	15093,(11, 107),12	15105,(9, 98),4	15109,(11, 110),48	15157,(11, 116),4	15177,(9, 101),4	15181,(11, 113),24	15233,(9, 104),12	15273,(9, 107),12	15305,(9, 110),16	15321,(11, 58),124	15461,(9, 113),4	15465,(11, 18),232	15697,(11, 24),156	15853,(11, 119),56	15913,(9, 116),280	16193,(11, 79),128	16325,(9, 119),20	16345,(11, 98),116	16469,(5, 18),16	16485,(11, 29),156	16749,(5, 20),28	16777,(5, 21),40	16817,(11, 75),152	17037,(5, 24),4	17073,(5, 27),40	17201,(5, 29),12	17273,(5, 32),176	17449,(11, 74),272	17789,(5, 35),176	17981,(5, 38),104	18289,(5, 41),4	18333,(5, 44),64	18413,(5, 47),12	18469,(5, 50),12	18549,(5, 53),4	18657,(5, 55),12	18757,(5, 58),4	18905,(5, 61),44	19037,(5, 64),36	19293,(5, 67),48	19353,(5, 70),40	19485,(5, 73),44	19529,(5, 74),68	19597,(5, 75),692	20289,(5, 76),4	20293,(5, 77),228	20553,(5, 79),232	20809,(5, 81),20	20833,(5, 83),20	20853,(10, 21),584	21629,(5, 86),4	21657,(5, 89),4	21693,(5, 92),200	22021,(5, 95),124	22153,(5, 98),4	22157,(11, 76),224	22605,(5, 101),12	22645,(5, 104),96	22773,(5, 107),84	22937,(5, 110),28	23117,(5, 113),20	23177,(5, 116),4	23221,(5, 119),8	23229,(3, 81),2240	25469,(11, 32),1500	26969,(11, 64),712	
57,(0, 3),56	225,(0, 7),56	281,(2, 17),4	285,(2, 19),28	313,(2, 23),12	325,(2, 33),8	333,(2, 36),4	393,(0, 11),56	449,(2, 30),16	465,(2, 39),4	469,(2, 42),44	513,(2, 45),16	529,(1, 17),8	537,(2, 48),4	541,(2, 52),4	545,(1, 19),4	549,(2, 54),24	573,(2, 56),8	581,(2, 66),4	585,(2, 84),4	589,(2, 99),4	593,(4, 17),4	597,(4, 19),4	601,(4, 30),12	613,(4, 39),4	617,(1, 23),32	653,(4, 45),8	661,(1, 26),92	753,(2, 26),156	909,(2, 72),24	933,(4, 48),4	937,(1, 30),420	1357,(4, 59),4	1361,(4, 62),12	1373,(2, 59),36	1409,(2, 62),40	1449,(1, 33),20	1469,(2, 69),32	1501,(4, 26),28	1529,(4, 42),40	1569,(4, 66),4	1573,(4, 72),4	1577,(4, 96),4	1581,(2, 96),16	1597,(1, 36),4	1601,(2, 78),20	1621,(2, 102),24	1645,(4, 102),4	1649,(1, 39),8	1657,(4, 108),4	1661,(4, 117),4	1665,(6, 17),4	1669,(1, 42),44	1713,(2, 80),32	1745,(4, 69),12	1757,(4, 120),4	1761,(1, 45),508	2269,(2, 71),180	2449,(1, 48),52	2501,(2, 82),36	2537,(2, 93),56	2593,(4, 54),48	2641,(4, 105),12	2653,(1, 52),100	2761,(1, 54),56	2817,(2, 105),44	2861,(6, 26),12	2873,(1, 56),8	2881,(4, 80),16	2897,(4, 87),16	2913,(1, 59),28	2941,(6, 19),40	2981,(1, 62),120	3101,(2, 87),208	3309,(2, 90),284	3593,(2, 108),224	3817,(2, 111),44	3861,(2, 114),80	3941,(4, 82),20	3961,(6, 48),4	3965,(1, 66),16	3981,(4, 56),44	4025,(6, 30),8	4033,(1, 69),16	4049,(6, 71),4	4053,(1, 71),12	4065,(1, 72),4	4069,(4, 33),64	4133,(6, 23),40	4173,(6, 39),12	4185,(6, 82),4	4189,(1, 78),56	4245,(6, 90),4	4249,(1, 80),288	4537,(6, 54),12	4549,(1, 82),112	4661,(6, 52),16	4677,(6, 96),4	4681,(1, 84),40	4721,(4, 71),56	4777,(4, 84),44	4821,(6, 108),4	4825,(1, 87),108	4933,(4, 90),56	4989,(4, 99),16	5005,(1, 90),4	5009,(4, 114),16	5025,(1, 93),4	5029,(2, 117),152	5181,(4, 111),20	5201,(8, 17),4	5205,(6, 93),8	5213,(1, 96),4	5217,(6, 36),44	5261,(6, 59),16	5277,(1, 99),52	5329,(4, 93),104	5433,(1, 102),12	5445,(6, 72),12	5457,(6, 99),24	5481,(1, 105),4	5485,(8, 19),4	5489,(6, 102),16	5505,(6, 105),24	5529,(1, 108),220	5749,(6, 111),28	5777,(6, 117),4	5781,(8, 26),4	5785,(1, 111),24	5809,(8, 23),32	5841,(8, 42),4	5845,(1, 114),8	5853,(2, 120),124	5977,(4, 23),324	6301,(4, 36),236	6537,(4, 52),112	6649,(4, 78),124	6773,(6, 33),120	6893,(6, 42),268	7161,(6, 45),76	7237,(6, 56),52	7289,(6, 62),68	7357,(6, 66),160	7517,(6, 69),76	7593,(6, 78),104	7697,(6, 80),240	7937,(6, 84),76	8013,(6, 87),100	8113,(8, 33),8	8121,(8, 39),44	8165,(8, 52),4	8169,(1, 117),200	8369,(8, 48),20	8389,(8, 62),4	8393,(8, 66),4	8397,(1, 120),4	8401,(6, 114),136	8537,(6, 120),92	8629,(8, 30),96	8725,(8, 36),84	8809,(8, 45),40	8849,(8, 54),24	8873,(8, 56),12	8885,(8, 59),44	8929,(8, 69),28	8957,(8, 71),28	8985,(8, 72),4	8989,(8, 78),12	9001,(8, 80),4	9005,(8, 82),12	9017,(8, 87),4	9021,(8, 90),4	9025,(8, 96),4	9029,(8, 99),8	9037,(8, 102),16	9053,(8, 105),4	9057,(8, 108),88	9145,(8, 111),16	9161,(8, 114),4	9165,(8, 120),8	9173,(10, 19),8	9181,(9, 17),4	9185,(10, 17),40	9225,(10, 26),20	9245,(10, 36),4	9249,(9, 19),140	9389,(10, 39),12	9401,(10, 45),4	9405,(10, 52),4	9409,(9, 23),56	9465,(10, 30),92	9557,(10, 33),140	9697,(10, 42),28	9725,(10, 48),12	9737,(10, 54),24	9761,(10, 56),4	9765,(10, 59),160	9925,(10, 62),8	9933,(10, 66),4	9937,(10, 69),8	9945,(10, 71),4	9949,(10, 72),56	10005,(10, 78),16	10021,(10, 87),4	10025,(10, 90),8	10033,(8, 117),48	10081,(10, 80),20	10101,(10, 93),4	10105,(10, 99),4	10109,(10, 102),28	10137,(9, 26),4	10141,(12, 17),16	10157,(12, 19),60	10217,(12, 23),4	10221,(10, 111),12	10233,(10, 114),40	10273,(12, 33),4	10277,(12, 39),4	10281,(12, 48),8	10289,(12, 56),4	10293,(12, 66),4	10297,(9, 30),16	10313,(10, 84),64	10393,(9, 33),296	10689,(12, 54),12	10701,(12, 78),4	10705,(12, 87),8	10713,(9, 36),12	10725,(12, 26),144	10869,(12, 36),60	10929,(12, 42),36	10965,(12, 99),4	10969,(10, 108),56	11025,(10, 120),20	11045,(9, 39),316	11361,(12, 45),28	11397,(9, 42),56	11453,(12, 52),32	11493,(9, 45),852	12345,(12, 62),24	12369,(12, 90),8	12377,(9, 48),96	12473,(8, 84),348	12821,(12, 30),116	12937,(12, 59),280	13217,(12, 71),16	13233,(12, 80),48	13281,(12, 84),16	13297,(12, 105),8	13305,(12, 108),4	13309,(12, 114),8	13317,(12, 117),12	13333,(9, 52),12	13357,(9, 54),4	13361,(10, 96),84	13445,(12, 111),36	13485,(9, 56),4	13489,(12, 93),60	13553,(9, 59),4	13573,(9, 62),28	13625,(9, 66),12	13645,(9, 69),32	13709,(9, 71),52	13761,(9, 72),452	14213,(10, 105),88	14301,(10, 117),72	14385,(9, 78),112	14501,(9, 80),16	14565,(9, 82),20	14589,(9, 84),28	14653,(9, 87),36	14705,(9, 90),4	14737,(9, 93),20	14777,(9, 96),308	15109,(9, 99),4	15181,(9, 102),48	15245,(9, 105),20	15285,(9, 108),12	15321,(9, 111),60	15465,(9, 114),48	15513,(10, 23),648	16193,(9, 117),32	16245,(12, 96),68	16345,(9, 120),12	16357,(12, 120),72	16437,(5, 17),32	16485,(5, 19),264	16749,(10, 82),232	17033,(5, 23),4	17045,(5, 26),28	17073,(12, 102),124	17213,(5, 30),32	17245,(12, 82),148	17449,(5, 33),328	17965,(5, 36),4	18085,(5, 39),200	18293,(5, 42),36	18397,(5, 45),4	18425,(5, 48),4	18533,(5, 52),16	18553,(5, 54),104	18669,(5, 56),80	18761,(5, 59),108	18949,(5, 62),64	19101,(5, 66),192	19345,(5, 69),8	19393,(5, 71),76	19469,(5, 72),16	20521,(5, 78),32	20785,(5, 80),24	20829,(5, 82),4	20853,(5, 84),4	20857,(12, 69),296	21633,(5, 87),16	21661,(5, 90),28	21893,(5, 93),124	22145,(5, 96),4	22157,(5, 99),420	22617,(5, 102),24	22741,(5, 105),16	22857,(5, 108),48	22965,(5, 111),108	23137,(5, 114),4	23181,(5, 117),20	23229,(5, 120),4	23233,(8, 93),1512	27381,(12, 72),780	
1,(0, 2),56	169,(0, 6),56	337,(0, 10),56	393,(3, 16),24	417,(3, 22),44	461,(3, 31),8	469,(3, 34),4	473,(3, 43),4	477,(3, 51),4	481,(3, 60),8	489,(3, 91),4	493,(3, 94),4	497,(3, 106),4	501,(3, 109),4	505,(1, 16),24	529,(3, 49),64	593,(1, 22),24	617,(3, 65),20	637,(3, 100),12	649,(4, 16),4	653,(1, 25),8	661,(3, 57),56	717,(3, 88),36	753,(4, 22),4	757,(1, 28),12	769,(3, 25),516	1285,(3, 103),44	1329,(4, 25),4	1333,(4, 37),12	1345,(4, 40),8	1353,(4, 46),4	1357,(1, 31),16	1373,(3, 63),84	1457,(4, 57),8	1465,(4, 63),4	1469,(1, 34),112	1581,(4, 60),8	1589,(4, 85),12	1601,(1, 37),16	1617,(3, 118),36	1653,(4, 94),4	1657,(1, 40),8	1665,(4, 34),36	1701,(4, 97),4	1705,(4, 106),4	1709,(4, 109),4	1713,(1, 43),4	1717,(3, 28),148	1865,(3, 37),240	2105,(3, 40),116	2221,(4, 49),32	2253,(4, 112),16	2269,(1, 46),4	2273,(3, 46),112	2385,(3, 112),72	2457,(4, 115),36	2493,(8, 25),4	2497,(8, 63),4	2501,(1, 49),4	2505,(7, 28),4	2509,(1, 51),144	2653,(4, 28),60	2713,(4, 31),64	2777,(4, 43),104	2881,(1, 57),28	2909,(7, 31),4	2913,(8, 22),16	2929,(8, 31),8	2937,(8, 103),4	2941,(1, 60),4	2945,(4, 51),148	3093,(8, 60),8	3101,(1, 63),36	3137,(3, 85),348	3485,(3, 97),236	3721,(3, 115),116	3837,(4, 88),52	3889,(4, 118),40	3929,(1, 65),36	3965,(8, 112),4	3969,(12, 31),4	3973,(7, 22),8	3981,(7, 25),32	4013,(7, 40),4	4017,(7, 46),12	4029,(1, 68),4	4033,(8, 46),12	4045,(7, 49),52	4097,(7, 60),4	4101,(7, 63),16	4117,(7, 85),4	4121,(7, 88),4	4125,(7, 91),8	4133,(4, 65),180	4313,(4, 68),304	4617,(4, 91),76	4693,(8, 43),16	4709,(8, 88),12	4721,(1, 85),40	4761,(7, 65),24	4785,(7, 68),20	4805,(7, 94),4	4809,(7, 97),4	4813,(7, 100),4	4817,(7, 103),4	4821,(4, 103),88	4909,(7, 109),4	4913,(8, 91),12	4925,(11, 16),8	4933,(1, 88),4	4937,(7, 57),64	5001,(11, 22),4	5005,(11, 25),4	5009,(1, 91),12	5021,(11, 31),8	5029,(1, 94),180	5209,(11, 43),8	5217,(1, 97),24	5241,(7, 106),68	5309,(11, 34),20	5329,(1, 100),4	5333,(7, 37),92	5425,(11, 40),12	5437,(11, 46),8	5445,(1, 103),16	5461,(7, 112),24	5485,(1, 106),24	5509,(8, 16),64	5573,(8, 37),40	5613,(8, 49),28	5641,(8, 51),36	5677,(8, 65),56	5733,(12, 34),4	5737,(12, 37),4	5741,(12, 40),4	5745,(12, 43),4	5749,(1, 109),32	5781,(7, 115),24	5805,(11, 49),4	5809,(1, 112),28	5837,(11, 57),4	5841,(11, 65),4	5845,(12, 46),8	5853,(1, 115),12	5865,(3, 68),1588	7453,(7, 16),160	7613,(7, 34),232	7845,(7, 43),252	8097,(7, 51),108	8205,(7, 118),52	8257,(8, 68),56	8313,(8, 85),44	8357,(11, 85),4	8361,(11, 94),4	8365,(12, 57),4	8369,(1, 118),24	8393,(11, 109),4	8397,(12, 60),4	8401,(9, 16),780	9181,(8, 40),148	9329,(8, 94),40	9369,(8, 100),28	9397,(11, 88),8	9405,(9, 22),4	9409,(8, 34),240	9649,(8, 57),384	10033,(11, 28),44	10077,(11, 51),28	10105,(9, 25),32	10137,(12, 63),4	10141,(11, 112),4	10145,(9, 28),136	10281,(11, 97),16	10297,(12, 85),8	10305,(12, 94),4	10309,(12, 100),4	10313,(9, 31),64	10377,(8, 97),76	10453,(8, 106),200	10653,(11, 100),8	10661,(11, 115),4	10665,(11, 118),4	10669,(12, 25),20	10689,(9, 34),12	10713,(12, 103),8	10721,(12, 109),4	10725,(9, 37),280	11005,(8, 109),260	11265,(12, 16),52	11317,(12, 22),40	11357,(12, 112),4	11361,(9, 40),4	11389,(12, 49),36	11425,(12, 88),28	11453,(9, 43),32	11485,(8, 115),112	11597,(12, 28),96	11693,(12, 51),448	12141,(12, 91),80	12221,(12, 97),76	12297,(12, 106),24	12321,(12, 118),4	12345,(9, 46),16	12377,(12, 115),48	12473,(9, 49),312	12785,(11, 60),48	12837,(9, 51),496	13333,(11, 37),68	13401,(11, 91),56	13489,(9, 57),60	13557,(9, 60),4	13601,(9, 63),4	13621,(9, 65),4	13641,(9, 68),4	13645,(4, 100),948	14617,(9, 85),4	14689,(9, 88),4	14709,(9, 91),4	14757,(9, 94),16	14773,(11, 63),124	14897,(11, 68),144	15085,(9, 97),20	15113,(9, 100),64	15229,(9, 103),4	15265,(9, 106),8	15297,(9, 109),8	15381,(9, 112),80	15513,(9, 115),400	15913,(11, 103),96	16225,(9, 118),100	16357,(5, 16),80	16518,(18, 121),8	16641,(17, 121),8	16782,(19, 121),8	16817,(5, 22),216	17033,(20, 121),8	17041,(5, 25),4	17070,(23, 121),8	17113,(5, 28),88	17201,(24, 121),8	17209,(26, 121),8	17217,(27, 121),8	17245,(5, 31),28	17278,(30, 121),8	17393,(29, 121),8	17777,(5, 34),12	17810,(33, 121),8	17969,(5, 37),12	17998,(35, 121),8	18006,(36, 121),8	18118,(38, 121),8	18285,(5, 40),4	18318,(39, 121),8	18329,(5, 43),4	18333,(41, 121),8	18362,(42, 121),8	18401,(5, 46),12	18429,(5, 49),40	18469,(44, 121),8	18481,(5, 51),52	18533,(45, 121),8	18541,(47, 121),8	18549,(48, 121),8	18557,(50, 121),8	18582,(52, 121),8	18590,(53, 121),8	18690,(54, 121),8	18702,(55, 121),8	18749,(5, 57),8	18782,(56, 121),8	18794,(58, 121),8	18869,(5, 60),36	18905,(59, 121),8	18982,(61, 121),8	19013,(5, 63),24	19046,(62, 121),8	19073,(5, 65),28	19326,(66, 121),8	19341,(5, 68),4	19345,(8, 28),1236	20581,(67, 121),8	20589,(70, 121),8	20597,(71, 121),8	20605,(73, 121),8	20613,(74, 121),8	20621,(75, 121),8	20629,(77, 121),8	20637,(78, 121),8	20818,(79, 121),8	20842,(80, 121),8	20857,(5, 85),772	21629,(82, 121),8	21637,(83, 121),8	21649,(5, 88),8	21657,(84, 121),8	21665,(69, 121),8	21673,(21, 121),8	21681,(86, 121),8	21689,(5, 91),4	21693,(87, 121),8	21701,(89, 121),8	21722,(90, 121),8	21926,(92, 121),8	22017,(5, 94),4	22149,(5, 97),4	22178,(95, 121),8	22211,(98, 121),8	22381,(96, 121),8	22414,(76, 121),8	22577,(5, 100),28	22610,(99, 121),8	22641,(5, 103),4	22650,(101, 121),8	22674,(102, 121),8	22757,(5, 106),16	22774,(104, 121),8	22790,(105, 121),8	22890,(107, 121),8	22905,(5, 109),32	22938,(108, 121),8	22998,(110, 121),8	23073,(5, 112),44	23117,(111, 121),8	23141,(5, 115),36	23177,(113, 121),8	23185,(114, 121),8	23201,(5, 118),20	23221,(116, 121),8	23233,(13, 121),8	23241,(14, 121),8	23249,(15, 121),8	24745,(8, 118),1016	25761,(12, 65),728	26489,(12, 68),892	27681,(11, 106),428	28109,(117, 121),8	28117,(120, 121),8	28125,(93, 121),8	28161,(119, 121),8	28169,(81, 121),8	28177,(32, 121),8	28185,(64, 121),8	28194,(72, 121),8	
90,(2, 13),24	114,(2, 14),128	242,(2, 15),4	246,(3, 13),4	250,(3, 14),60	310,(3, 15),24	334,(4, 13),4	338,(4, 14),124	462,(4, 15),36	498,(8, 13),20	518,(8, 14),24	542,(8, 15),8	550,(12, 13),16	593,(7, 14),4	597,(7, 15),12	649,(6, 13),4	661,(12, 14),84	933,(6, 14),4	1329,(7, 13),40	1457,(11, 13),12	1501,(11, 14),12	1513,(11, 15),28	1745,(10, 13),12	2489,(10, 15),8	2749,(6, 15),20	2981,(10, 14),100	14593,(12, 15),1652	
# Outgoing
334,(4, 13),4	338,(4, 14),124	462,(4, 15),36	498,(8, 13),20	518,(8, 14),24	542,(8, 15),8	550,(12, 13),16	593,(4, 17),4	597,(4, 19),4	601,(4, 30),12	613,(4, 39),4	649,(4, 16),4	653,(4, 45),8	661,(12, 14),84	753,(4, 22),4	933,(4, 48),4	1329,(4, 25),4	1333,(4, 37),12	1345,(4, 40),8	1353,(4, 46),4	1357,(4, 59),4	1361,(4, 62),12	1457,(4, 57),8	1465,(4, 63),4	1501,(4, 26),28	1529,(4, 42),40	1569,(4, 66),4	1573,(4, 72),4	1577,(4, 96),4	1581,(4, 60),8	1589,(4, 85),12	1645,(4, 102),4	1653,(4, 94),4	1657,(4, 108),4	1661,(4, 117),4	1665,(4, 34),36	1701,(4, 97),4	1705,(4, 106),4	1709,(4, 109),4	1745,(4, 69),12	1757,(4, 120),4	2221,(4, 49),32	2253,(4, 112),16	2457,(4, 115),36	2493,(8, 25),4	2497,(8, 63),4	2593,(4, 54),48	2641,(4, 105),12	2653,(4, 28),60	2713,(4, 31),64	2777,(4, 43),104	2881,(4, 80),16	2897,(4, 87),16	2913,(8, 22),16	2929,(8, 31),8	2937,(8, 103),4	2945,(4, 51),148	3093,(8, 60),8	3837,(4, 88),52	3889,(4, 118),40	3941,(4, 82),20	3965,(8, 112),4	3969,(12, 31),4	3981,(4, 56),44	4033,(8, 46),12	4069,(4, 33),64	4133,(4, 65),180	4313,(4, 68),304	4617,(4, 91),76	4693,(8, 43),16	4709,(8, 88),12	4721,(4, 71),56	4777,(4, 84),44	4821,(4, 103),88	4913,(8, 91),12	4933,(4, 90),56	4989,(4, 99),16	5009,(4, 114),16	5181,(4, 111),20	5201,(8, 17),4	5329,(4, 93),104	5485,(8, 19),4	5509,(8, 16),64	5573,(8, 37),40	5613,(8, 49),28	5641,(8, 51),36	5677,(8, 65),56	5733,(12, 34),4	5737,(12, 37),4	5741,(12, 40),4	5745,(12, 43),4	5781,(8, 26),4	5809,(8, 23),32	5841,(8, 42),4	5845,(12, 46),8	5977,(4, 23),324	6301,(4, 36),236	6537,(4, 52),112	6649,(4, 78),124	8113,(8, 33),8	8121,(8, 39),44	8165,(8, 52),4	8257,(8, 68),56	8313,(8, 85),44	8365,(12, 57),4	8369,(8, 48),20	8389,(8, 62),4	8393,(8, 66),4	8397,(12, 60),4	8629,(8, 30),96	8725,(8, 36),84	8809,(8, 45),40	8849,(8, 54),24	8873,(8, 56),12	8885,(8, 59),44	8929,(8, 69),28	8957,(8, 71),28	8985,(8, 72),4	8989,(8, 78),12	9001,(8, 80),4	9005,(8, 82),12	9017,(8, 87),4	9021,(8, 90),4	9025,(8, 96),4	9029,(8, 99),8	9037,(8, 102),16	9053,(8, 105),4	9057,(8, 108),88	9145,(8, 111),16	9161,(8, 114),4	9165,(8, 120),8	9181,(8, 40),148	9329,(8, 94),40	9369,(8, 100),28	9409,(8, 34),240	9649,(8, 57),384	10033,(8, 117),48	10137,(12, 63),4	10141,(12, 17),16	10157,(12, 19),60	10217,(12, 23),4	10273,(12, 33),4	10277,(12, 39),4	10281,(12, 48),8	10289,(12, 56),4	10293,(12, 66),4	10297,(12, 85),8	10305,(12, 94),4	10309,(12, 100),4	10377,(8, 97),76	10453,(8, 106),200	10669,(12, 25),20	10689,(12, 54),12	10701,(12, 78),4	10705,(12, 87),8	10713,(12, 103),8	10721,(12, 109),4	10725,(12, 26),144	10869,(12, 36),60	10929,(12, 42),36	10965,(12, 99),4	11005,(8, 109),260	11265,(12, 16),52	11317,(12, 22),40	11357,(12, 112),4	11361,(12, 45),28	11389,(12, 49),36	11425,(12, 88),28	11453,(12, 52),32	11485,(8, 115),112	11597,(12, 28),96	11693,(12, 51),448	12141,(12, 91),80	12221,(12, 97),76	12297,(12, 106),24	12321,(12, 118),4	12345,(12, 62),24	12369,(12, 90),8	12377,(12, 115),48	12473,(8, 84),348	12821,(12, 30),116	12937,(12, 59),280	13217,(12, 71),16	13233,(12, 80),48	13281,(12, 84),16	13297,(12, 105),8	13305,(12, 108),4	13309,(12, 114),8	13317,(12, 117),12	13445,(12, 111),36	13489,(12, 93),60	13645,(4, 100),948	14593,(12, 15),1652	16245,(12, 96),68	16357,(12, 120),72	16518,(18, 121),8	17033,(20, 121),8	17073,(12, 102),124	17201,(24, 121),8	17217,(27, 121),8	17245,(12, 82),148	17393,(29, 121),8	17998,(35, 121),8	18118,(38, 121),8	18333,(41, 121),8	18469,(44, 121),8	18541,(47, 121),8	18557,(50, 121),8	18590,(53, 121),8	18702,(55, 121),8	18794,(58, 121),8	18982,(61, 121),8	19345,(8, 28),1236	20581,(67, 121),8	20589,(70, 121),8	20605,(73, 121),8	20613,(74, 121),8	20621,(75, 121),8	20629,(77, 121),8	20818,(79, 121),8	20857,(12, 69),296	21637,(83, 121),8	21673,(21, 121),8	21681,(86, 121),8	21701,(89, 121),8	21926,(92, 121),8	22178,(95, 121),8	22211,(98, 121),8	22414,(76, 121),8	22650,(101, 121),8	22774,(104, 121),8	22890,(107, 121),8	22998,(110, 121),8	23177,(113, 121),8	23221,(116, 121),8	23233,(8, 93),1512	24745,(8, 118),1016	25761,(12, 65),728	26489,(12, 68),892	27381,(12, 72),780	28161,(119, 121),8	28169,(81, 121),8	28177,(32, 121),8	28185,(64, 121),8	
246,(3, 13),4	250,(3, 14),60	310,(3, 15),24	393,(3, 16),24	417,(3, 22),44	461,(3, 31),8	469,(3, 34),4	473,(3, 43),4	477,(3, 51),4	481,(3, 60),8	489,(3, 91),4	493,(3, 94),4	497,(3, 106),4	501,(3, 109),4	505,(3, 20),12	517,(3, 21),4	521,(3, 38),4	525,(3, 55),4	529,(3, 49),64	593,(7, 14),4	597,(7, 15),12	617,(3, 65),20	637,(3, 100),12	661,(3, 57),56	717,(3, 88),36	757,(3, 29),12	769,(3, 25),516	1285,(3, 103),44	1329,(7, 13),40	1373,(3, 63),84	1457,(11, 13),12	1469,(3, 27),24	1493,(3, 47),8	1501,(11, 14),12	1513,(11, 15),28	1601,(3, 41),16	1617,(3, 118),36	1713,(3, 58),4	1717,(3, 28),148	1865,(3, 37),240	2105,(3, 40),116	2265,(3, 67),4	2269,(3, 76),4	2273,(3, 46),112	2385,(3, 112),72	2489,(3, 44),12	2501,(3, 77),4	2505,(7, 28),4	2509,(3, 32),20	2529,(3, 35),52	2581,(3, 61),12	2749,(3, 79),4	2761,(3, 50),16	2777,(3, 53),28	2805,(3, 86),4	2809,(3, 89),4	2873,(3, 64),20	2893,(3, 95),12	2909,(7, 31),4	2913,(3, 70),20	2933,(3, 98),8	2941,(7, 20),4	2981,(3, 18),124	3105,(3, 74),20	3125,(3, 110),8	3133,(7, 21),4	3137,(3, 85),348	3485,(3, 97),236	3721,(3, 115),116	3929,(3, 75),44	3973,(7, 22),8	3981,(7, 25),32	4013,(7, 40),4	4017,(7, 46),12	4029,(3, 101),16	4045,(7, 49),52	4097,(7, 60),4	4101,(7, 63),16	4117,(7, 85),4	4121,(7, 88),4	4125,(7, 91),8	4189,(3, 104),24	4249,(3, 24),96	4345,(3, 73),120	4465,(3, 107),68	4549,(3, 83),112	4681,(3, 92),76	4761,(7, 65),24	4785,(7, 68),20	4805,(7, 94),4	4809,(7, 97),4	4813,(7, 100),4	4817,(7, 103),4	4825,(3, 119),52	4909,(7, 109),4	4925,(11, 16),8	4937,(7, 57),64	5001,(11, 22),4	5005,(11, 25),4	5021,(11, 31),8	5029,(7, 18),24	5053,(7, 24),4	5057,(7, 27),92	5149,(7, 29),4	5153,(7, 38),16	5169,(7, 53),4	5173,(7, 58),8	5205,(7, 61),4	5209,(11, 43),8	5217,(7, 50),20	5237,(7, 95),4	5241,(7, 106),68	5309,(11, 34),20	5333,(7, 37),92	5425,(11, 40),12	5437,(11, 46),8	5445,(7, 77),12	5457,(11, 20),4	5461,(7, 112),24	5489,(7, 81),16	5505,(11, 21),4	5529,(3, 116),228	5757,(7, 74),24	5781,(7, 115),24	5805,(11, 49),4	5837,(11, 57),4	5841,(11, 65),4	5845,(7, 89),12	5857,(7, 116),8	5865,(3, 68),1588	7453,(7, 16),160	7613,(7, 34),232	7845,(7, 43),252	8097,(7, 51),108	8205,(7, 118),52	8357,(11, 85),4	8361,(11, 94),4	8365,(7, 67),28	8393,(11, 109),4	8397,(3, 113),364	9153,(7, 47),32	9353,(7, 44),36	9397,(11, 88),8	9405,(7, 55),44	9449,(7, 101),12	10033,(11, 28),44	10077,(11, 51),28	10105,(7, 76),36	10141,(11, 112),4	10221,(7, 73),52	10281,(11, 97),16	10297,(7, 75),80	10653,(11, 100),8	10661,(11, 115),4	10665,(11, 118),4	10969,(7, 86),36	11045,(7, 32),104	11149,(7, 35),148	11297,(7, 92),24	11321,(7, 98),40	11397,(7, 79),72	11493,(7, 41),120	11613,(7, 64),192	11805,(7, 70),184	11989,(7, 83),280	12269,(7, 104),48	12317,(7, 107),24	12377,(7, 110),28	12405,(7, 113),112	12517,(7, 119),212	12785,(11, 60),48	13333,(11, 37),68	13401,(11, 91),56	13621,(11, 27),16	13661,(11, 35),4	13665,(11, 44),4	13669,(11, 53),8	14189,(11, 38),24	14461,(11, 47),28	14489,(11, 61),8	14501,(11, 55),12	14513,(11, 70),4	14565,(11, 67),20	14589,(11, 50),24	14613,(11, 73),4	14617,(11, 77),4	14653,(11, 41),40	14705,(11, 83),8	14737,(11, 86),8	14745,(11, 89),4	14749,(11, 92),4	14753,(11, 95),8	14761,(11, 101),12	14773,(11, 63),124	14897,(11, 68),144	15041,(11, 81),48	15089,(11, 104),4	15093,(11, 107),12	15109,(11, 110),48	15157,(11, 116),4	15181,(11, 113),24	15321,(11, 58),124	15465,(11, 18),232	15697,(11, 24),156	15853,(11, 119),56	15913,(11, 103),96	16193,(11, 79),128	16345,(11, 98),116	16485,(11, 29),156	16641,(17, 121),8	16782,(19, 121),8	16817,(11, 75),152	17070,(23, 121),8	17209,(26, 121),8	17278,(30, 121),8	17449,(11, 74),272	17810,(33, 121),8	18006,(36, 121),8	18318,(39, 121),8	18362,(42, 121),8	18533,(45, 121),8	18549,(48, 121),8	18582,(52, 121),8	18690,(54, 121),8	18782,(56, 121),8	18905,(59, 121),8	19046,(62, 121),8	19326,(66, 121),8	20597,(71, 121),8	20637,(78, 121),8	20842,(80, 121),8	21629,(82, 121),8	21657,(84, 121),8	21665,(69, 121),8	21693,(87, 121),8	21722,(90, 121),8	22157,(11, 76),224	22381,(96, 121),8	22610,(99, 121),8	22674,(102, 121),8	22790,(105, 121),8	22938,(108, 121),8	23117,(111, 121),8	23185,(114, 121),8	23229,(3, 81),2240	25469,(11, 32),1500	26969,(11, 64),712	27681,(11, 106),428	28109,(117, 121),8	28117,(120, 121),8	28125,(93, 121),8	28194,(72, 121),8	
90,(2, 13),24	114,(2, 14),128	242,(2, 15),4	246,(2, 21),4	250,(2, 24),12	262,(2, 29),4	266,(2, 32),4	270,(2, 44),4	274,(2, 61),4	281,(2, 17),4	285,(2, 19),28	313,(2, 23),12	325,(2, 33),8	333,(2, 36),4	337,(2, 20),52	389,(2, 38),48	437,(2, 64),8	445,(2, 74),4	449,(2, 30),16	465,(2, 39),4	469,(2, 42),44	513,(2, 45),16	529,(2, 73),8	537,(2, 48),4	541,(2, 52),4	545,(2, 77),4	549,(2, 54),24	573,(2, 56),8	581,(2, 66),4	585,(2, 84),4	589,(2, 99),4	593,(2, 47),20	613,(2, 58),24	637,(2, 67),12	649,(6, 13),4	653,(2, 27),68	721,(2, 70),28	749,(2, 86),4	753,(2, 26),156	909,(2, 72),24	933,(6, 14),4	937,(2, 18),152	1089,(2, 41),60	1149,(2, 50),92	1241,(2, 53),68	1309,(2, 55),64	1373,(2, 59),36	1409,(2, 62),40	1449,(2, 81),8	1457,(2, 92),8	1465,(2, 107),4	1469,(2, 69),32	1501,(2, 75),80	1581,(2, 96),16	1597,(2, 113),4	1601,(2, 78),20	1621,(2, 102),24	1649,(2, 101),8	1657,(2, 110),8	1665,(6, 17),4	1669,(2, 76),24	1693,(2, 89),20	1713,(2, 80),32	1745,(10, 13),12	1761,(2, 35),308	2069,(2, 79),148	2217,(2, 83),44	2261,(2, 116),4	2269,(2, 71),180	2449,(2, 104),16	2465,(2, 119),24	2489,(10, 15),8	2501,(2, 82),36	2537,(2, 93),56	2593,(2, 95),68	2661,(2, 98),88	2749,(6, 15),20	2813,(6, 20),4	2817,(2, 105),44	2861,(6, 26),12	2905,(6, 24),4	2941,(6, 19),40	2981,(10, 14),100	3101,(2, 87),208	3309,(2, 90),284	3593,(2, 108),224	3817,(2, 111),44	3861,(2, 114),80	3961,(6, 48),4	3973,(6, 21),8	4025,(6, 30),8	4045,(6, 29),4	4049,(6, 71),4	4053,(6, 27),12	4065,(6, 47),4	4133,(6, 23),40	4173,(6, 39),12	4185,(6, 82),4	4213,(6, 32),8	4221,(6, 44),16	4237,(6, 67),4	4241,(6, 70),4	4245,(6, 90),4	4533,(6, 75),4	4537,(6, 54),12	4661,(6, 52),16	4677,(6, 96),4	4757,(6, 89),4	4821,(6, 108),4	4877,(6, 35),40	4917,(6, 50),12	4929,(6, 73),8	5005,(6, 76),16	5025,(6, 95),4	5029,(2, 117),152	5181,(6, 53),24	5205,(6, 93),8	5213,(6, 104),4	5217,(6, 36),44	5261,(6, 59),16	5277,(6, 38),32	5309,(6, 77),8	5317,(6, 79),8	5325,(6, 83),8	5433,(6, 98),8	5441,(6, 113),4	5445,(6, 72),12	5457,(6, 99),24	5481,(6, 101),8	5489,(6, 102),16	5505,(6, 105),24	5749,(6, 111),28	5777,(6, 117),4	5785,(6, 41),44	5829,(6, 119),4	5833,(10, 24),4	5853,(2, 120),124	6773,(6, 33),120	6893,(6, 42),268	7161,(6, 45),76	7237,(6, 56),52	7289,(6, 62),68	7357,(6, 66),160	7517,(6, 69),76	7593,(6, 78),104	7697,(6, 80),240	7937,(6, 84),76	8013,(6, 87),100	8169,(6, 18),76	8245,(6, 58),120	8401,(6, 114),136	8537,(6, 120),92	8761,(6, 55),256	9017,(6, 64),60	9077,(6, 74),36	9113,(6, 81),40	9173,(10, 19),8	9185,(10, 17),40	9225,(10, 26),20	9245,(10, 36),4	9249,(6, 86),104	9389,(10, 39),12	9401,(10, 45),4	9405,(10, 52),4	9461,(10, 32),4	9465,(10, 30),92	9557,(10, 33),140	9697,(10, 42),28	9725,(10, 48),12	9737,(10, 54),24	9761,(10, 56),4	9765,(10, 59),160	9925,(10, 62),8	9933,(10, 66),4	9937,(10, 69),8	9945,(10, 71),4	9949,(10, 72),56	10005,(10, 78),16	10021,(10, 87),4	10025,(10, 90),8	10081,(10, 80),20	10101,(10, 93),4	10105,(10, 99),4	10109,(10, 102),28	10145,(6, 92),76	10221,(10, 111),12	10233,(10, 114),40	10273,(10, 44),4	10277,(10, 53),4	10313,(10, 84),64	10393,(6, 61),204	10597,(6, 107),88	10685,(10, 27),16	10713,(6, 110),148	10861,(6, 116),108	10969,(10, 108),56	11025,(10, 120),20	11361,(10, 55),4	11469,(10, 47),8	11477,(10, 70),4	11481,(10, 75),4	12341,(10, 18),20	12729,(10, 35),44	12773,(10, 74),12	12837,(10, 20),88	12925,(10, 29),104	13029,(10, 38),56	13085,(10, 41),136	13221,(10, 50),44	13265,(10, 61),32	13297,(10, 64),28	13325,(10, 67),16	13341,(10, 76),4	13357,(10, 83),4	13361,(10, 96),84	13485,(10, 73),32	13517,(10, 79),16	13533,(10, 81),12	13545,(10, 98),4	13553,(10, 116),4	13557,(10, 119),4	13573,(10, 89),16	13589,(10, 107),16	13641,(10, 101),20	13709,(10, 58),152	13861,(10, 77),64	13925,(10, 86),60	13985,(10, 92),156	14141,(10, 110),48	14213,(10, 105),88	14301,(10, 117),72	14385,(10, 95),76	14777,(10, 104),140	14917,(10, 113),72	15513,(10, 23),648	16749,(10, 82),232	20853,(10, 21),584	
1,(0, 2),56	57,(0, 3),56	113,(0, 4),56	169,(0, 6),56	225,(0, 7),56	281,(0, 8),56	337,(0, 10),56	393,(0, 11),56	449,(0, 12),56	505,(1, 16),24	529,(1, 17),8	537,(1, 18),8	545,(1, 19),4	549,(1, 20),40	589,(1, 21),4	593,(1, 22),24	617,(1, 23),32	649,(1, 24),4	653,(1, 25),8	661,(1, 26),92	753,(1, 27),4	757,(1, 28),12	769,(1, 29),168	937,(1, 30),420	1357,(1, 31),16	1373,(1, 32),76	1449,(1, 33),20	1469,(1, 34),112	1581,(1, 35),16	1597,(1, 36),4	1601,(1, 37),16	1617,(1, 38),32	1649,(1, 39),8	1657,(1, 40),8	1665,(1, 41),4	1669,(1, 42),44	1713,(1, 43),4	1717,(1, 44),44	1761,(1, 45),508	2269,(1, 46),4	2273,(1, 47),176	2449,(1, 48),52	2501,(1, 49),4	2505,(1, 50),4	2509,(1, 51),144	2653,(1, 52),100	2753,(1, 53),8	2761,(1, 54),56	2817,(1, 55),56	2873,(1, 56),8	2881,(1, 57),28	2909,(1, 58),4	2913,(1, 59),28	2941,(1, 60),4	2945,(1, 61),36	2981,(1, 62),120	3101,(1, 63),36	3137,(1, 64),792	3929,(1, 65),36	3965,(1, 66),16	3981,(1, 67),48	4029,(1, 68),4	4033,(1, 69),16	4049,(1, 70),4	4053,(1, 71),12	4065,(1, 72),4	4069,(1, 73),44	4113,(1, 74),4	4117,(1, 75),4	4121,(1, 76),52	4173,(1, 77),16	4189,(1, 78),56	4245,(1, 79),4	4249,(1, 80),288	4537,(1, 81),12	4549,(1, 82),112	4661,(1, 83),20	4681,(1, 84),40	4721,(1, 85),40	4761,(1, 86),64	4825,(1, 87),108	4933,(1, 88),4	4937,(1, 89),68	5005,(1, 90),4	5009,(1, 91),12	5021,(1, 92),4	5025,(1, 93),4	5029,(1, 94),180	5209,(1, 95),4	5213,(1, 96),4	5217,(1, 97),24	5241,(1, 98),36	5277,(1, 99),52	5329,(1, 100),4	5333,(1, 101),100	5433,(1, 102),12	5445,(1, 103),16	5461,(1, 104),20	5481,(1, 105),4	5485,(1, 106),24	5509,(1, 107),20	5529,(1, 108),220	5749,(1, 109),32	5781,(1, 110),4	5785,(1, 111),24	5809,(1, 112),28	5837,(1, 113),8	5845,(1, 114),8	5853,(1, 115),12	5865,(1, 116),2304	8169,(1, 117),200	8369,(1, 118),24	8393,(1, 119),4	8397,(1, 120),4	8401,(9, 16),780	9181,(9, 17),4	9185,(9, 18),64	9249,(9, 19),140	9389,(9, 20),12	9401,(9, 21),4	9405,(9, 22),4	9409,(9, 23),56	9465,(9, 24),640	10105,(9, 25),32	10137,(9, 26),4	10141,(9, 27),4	10145,(9, 28),136	10281,(9, 29),16	10297,(9, 30),16	10313,(9, 31),64	10377,(9, 32),16	10393,(9, 33),296	10689,(9, 34),12	10701,(9, 35),12	10713,(9, 36),12	10725,(9, 37),280	11005,(9, 38),40	11045,(9, 39),316	11361,(9, 40),4	11365,(9, 41),32	11397,(9, 42),56	11453,(9, 43),32	11485,(9, 44),8	11493,(9, 45),852	12345,(9, 46),16	12361,(9, 47),16	12377,(9, 48),96	12473,(9, 49),312	12785,(9, 50),52	12837,(9, 51),496	13333,(9, 52),12	13345,(9, 53),12	13357,(9, 54),4	13361,(9, 55),124	13485,(9, 56),4	13489,(9, 57),60	13549,(9, 58),4	13553,(9, 59),4	13557,(9, 60),4	13561,(9, 61),12	13573,(9, 62),28	13601,(9, 63),4	13605,(9, 64),16	13621,(9, 65),4	13625,(9, 66),12	13637,(9, 67),4	13641,(9, 68),4	13645,(9, 69),32	13677,(9, 70),32	13709,(9, 71),52	13761,(9, 72),452	14213,(9, 73),36	14249,(9, 74),84	14333,(9, 75),32	14365,(9, 76),4	14369,(9, 77),16	14385,(9, 78),112	14497,(9, 79),4	14501,(9, 80),16	14517,(9, 81),48	14565,(9, 82),20	14585,(9, 83),4	14589,(9, 84),28	14617,(9, 85),4	14621,(9, 86),32	14653,(9, 87),36	14689,(9, 88),4	14693,(9, 89),12	14705,(9, 90),4	14709,(9, 91),4	14713,(9, 92),24	14737,(9, 93),20	14757,(9, 94),16	14773,(9, 95),4	14777,(9, 96),308	15085,(9, 97),20	15105,(9, 98),4	15109,(9, 99),4	15113,(9, 100),64	15177,(9, 101),4	15181,(9, 102),48	15229,(9, 103),4	15233,(9, 104),12	15245,(9, 105),20	15265,(9, 106),8	15273,(9, 107),12	15285,(9, 108),12	15297,(9, 109),8	15305,(9, 110),16	15321,(9, 111),60	15381,(9, 112),80	15461,(9, 113),4	15465,(9, 114),48	15513,(9, 115),400	15913,(9, 116),280	16193,(9, 117),32	16225,(9, 118),100	16325,(9, 119),20	16345,(9, 120),12	16357,(5, 16),80	16437,(5, 17),32	16469,(5, 18),16	16485,(5, 19),264	16749,(5, 20),28	16777,(5, 21),40	16817,(5, 22),216	17033,(5, 23),4	17037,(5, 24),4	17041,(5, 25),4	17045,(5, 26),28	17073,(5, 27),40	17113,(5, 28),88	17201,(5, 29),12	17213,(5, 30),32	17245,(5, 31),28	17273,(5, 32),176	17449,(5, 33),328	17777,(5, 34),12	17789,(5, 35),176	17965,(5, 36),4	17969,(5, 37),12	17981,(5, 38),104	18085,(5, 39),200	18285,(5, 40),4	18289,(5, 41),4	18293,(5, 42),36	18329,(5, 43),4	18333,(5, 44),64	18397,(5, 45),4	18401,(5, 46),12	18413,(5, 47),12	18425,(5, 48),4	18429,(5, 49),40	18469,(5, 50),12	18481,(5, 51),52	18533,(5, 52),16	18549,(5, 53),4	18553,(5, 54),104	18657,(5, 55),12	18669,(5, 56),80	18749,(5, 57),8	18757,(5, 58),4	18761,(5, 59),108	18869,(5, 60),36	18905,(5, 61),44	18949,(5, 62),64	19013,(5, 63),24	19037,(5, 64),36	19073,(5, 65),28	19101,(5, 66),192	19293,(5, 67),48	19341,(5, 68),4	19345,(5, 69),8	19353,(5, 70),40	19393,(5, 71),76	19469,(5, 72),16	19485,(5, 73),44	19529,(5, 74),68	19597,(5, 75),692	20289,(5, 76),4	20293,(5, 77),228	20521,(5, 78),32	20553,(5, 79),232	20785,(5, 80),24	20809,(5, 81),20	20829,(5, 82),4	20833,(5, 83),20	20853,(5, 84),4	20857,(5, 85),772	21629,(5, 86),4	21633,(5, 87),16	21649,(5, 88),8	21657,(5, 89),4	21661,(5, 90),28	21689,(5, 91),4	21693,(5, 92),200	21893,(5, 93),124	22017,(5, 94),4	22021,(5, 95),124	22145,(5, 96),4	22149,(5, 97),4	22153,(5, 98),4	22157,(5, 99),420	22577,(5, 100),28	22605,(5, 101),12	22617,(5, 102),24	22641,(5, 103),4	22645,(5, 104),96	22741,(5, 105),16	22757,(5, 106),16	22773,(5, 107),84	22857,(5, 108),48	22905,(5, 109),32	22937,(5, 110),28	22965,(5, 111),108	23073,(5, 112),44	23117,(5, 113),20	23137,(5, 114),4	23141,(5, 115),36	23177,(5, 116),4	23181,(5, 117),20	23201,(5, 118),20	23221,(5, 119),8	23229,(5, 120),4	23233,(13, 121),8	23241,(14, 121),8	23249,(15, 121),8	
