704
# CPU
3,3,1	4,39,1	210,6,1	326,9,1	335,30,1	337,36,1	360,27,1	365,15,1	368,18,1	375,21,1	466,12,1	509,24,1	554,33,1	
2,2,1	3,26,1	6,5,1	45,17,1	64,23,1	248,8,1	249,14,1	261,20,1	270,29,1	281,32,1	293,35,1	294,38,1	339,11,1	
0,0,1	1,4,1	2,1,1	3,16,1	4,28,1	239,7,1	341,10,1	364,13,1	395,22,1	428,25,1	441,31,1	481,34,1	536,37,1	617,40,1	688,19,1	703,41,1	
# Incoming
2,(0, 3),1	4,(4, 9),7	11,(4, 12),31	45,(4, 21),17	64,(4, 24),25	89,(4, 27),1	96,(4, 30),3	101,(4, 36),4	105,(2, 6),85	206,(1, 6),4	238,(2, 9),74	312,(1, 9),14	326,(1, 15),1	327,(1, 18),4	331,(1, 30),4	335,(1, 36),2	341,(2, 12),7	348,(1, 27),12	364,(2, 15),1	365,(2, 18),3	370,(2, 21),5	395,(2, 24),1	396,(1, 12),70	466,(1, 24),43	509,(1, 33),45	
1,(0, 2),1	3,(4, 8),1	4,(3, 5),2	6,(3, 8),1	7,(3, 14),1	8,(3, 20),2	10,(3, 29),1	11,(3, 32),27	42,(4, 17),3	45,(3, 35),13	62,(4, 23),2	64,(3, 38),6	90,(4, 29),6	99,(4, 32),2	105,(4, 38),101	210,(1, 8),38	248,(1, 14),1	249,(1, 20),12	261,(1, 29),9	270,(1, 32),11	281,(1, 35),12	293,(1, 38),1	294,(3, 11),45	
190,(2, 7),48	238,(3, 7),1	239,(3, 22),10	249,(3, 25),7	256,(3, 31),1	257,(3, 37),1	258,(39, 41),1	259,(6, 41),1	312,(2, 10),29	341,(9, 41),1	342,(30, 41),1	343,(36, 41),1	348,(2, 13),16	364,(27, 41),1	366,(15, 41),1	368,(2, 19),2	370,(18, 41),1	375,(2, 22),20	395,(21, 41),1	396,(2, 25),32	428,(2, 31),13	441,(2, 34),40	481,(2, 37),55	536,(2, 40),81	617,(3, 19),71	688,(26, 41),1	689,(5, 41),1	690,(17, 41),1	691,(23, 41),1	692,(8, 41),1	693,(14, 41),1	694,(20, 41),1	695,(29, 41),1	696,(32, 41),1	697,(35, 41),1	698,(38, 41),1	699,(11, 41),1	700,(12, 41),1	701,(24, 41),1	702,(33, 41),1	
# Outgoing
4,(3, 5),2	6,(3, 8),1	7,(3, 14),1	8,(3, 20),2	10,(3, 29),1	11,(3, 32),27	45,(3, 35),13	64,(3, 38),6	238,(3, 7),1	239,(3, 22),10	249,(3, 25),7	256,(3, 31),1	257,(3, 37),1	258,(39, 41),1	259,(6, 41),1	294,(3, 11),45	341,(9, 41),1	342,(30, 41),1	343,(36, 41),1	364,(27, 41),1	366,(15, 41),1	370,(18, 41),1	395,(21, 41),1	617,(3, 19),71	700,(12, 41),1	701,(24, 41),1	702,(33, 41),1	
105,(2, 6),85	190,(2, 7),48	238,(2, 9),74	312,(2, 10),29	341,(2, 12),7	348,(2, 13),16	364,(2, 15),1	365,(2, 18),3	368,(2, 19),2	370,(2, 21),5	375,(2, 22),20	395,(2, 24),1	396,(2, 25),32	428,(2, 31),13	441,(2, 34),40	481,(2, 37),55	536,(2, 40),81	688,(26, 41),1	689,(5, 41),1	690,(17, 41),1	691,(23, 41),1	692,(8, 41),1	693,(14, 41),1	694,(20, 41),1	695,(29, 41),1	696,(32, 41),1	697,(35, 41),1	698,(38, 41),1	699,(11, 41),1	
1,(0, 2),1	2,(0, 3),1	3,(4, 8),1	4,(4, 9),7	11,(4, 12),31	42,(4, 17),3	45,(4, 21),17	62,(4, 23),2	64,(4, 24),25	89,(4, 27),1	90,(4, 29),6	96,(4, 30),3	99,(4, 32),2	101,(4, 36),4	105,(4, 38),101	206,(1, 6),4	210,(1, 8),38	248,(1, 14),1	249,(1, 20),12	261,(1, 29),9	270,(1, 32),11	281,(1, 35),12	293,(1, 38),1	312,(1, 9),14	326,(1, 15),1	327,(1, 18),4	331,(1, 30),4	335,(1, 36),2	348,(1, 27),12	396,(1, 12),70	466,(1, 24),43	509,(1, 33),45	
