456
# CPU
5,3,10	15,10,10	25,18,10	35,20,10	45,21,10	55,39,10	65,12,10	75,16,10	85,22,10	95,31,10	169,17,10	179,19,10	199,23,10	215,25,10	225,26,10	275,35,10	293,37,10	343,33,10	415,15,10	441,29,10	
3,2,10	13,9,10	23,13,10	147,14,10	157,5,10	253,27,10	265,34,10	339,40,10	349,30,10	359,32,10	369,38,10	397,11,10	443,36,10	455,41,1	
0,0,1	1,4,10	11,1,10	21,6,10	31,7,10	41,28,10	51,24,10	319,8,10	
# Incoming
3,(0, 3),2	13,(2, 12),16	29,(2, 16),2	31,(2, 22),54	85,(2, 31),2	147,(4, 17),22	169,(4, 19),10	179,(4, 23),20	199,(4, 25),16	215,(4, 26),2	265,(4, 35),10	275,(4, 37),18	339,(1, 33),4	397,(1, 15),18	415,(1, 29),26	
1,(0, 2),2	11,(4, 9),2	13,(4, 14),134	147,(3, 5),2	217,(4, 27),36	253,(4, 34),12	293,(4, 40),46	339,(3, 30),4	343,(3, 32),10	353,(3, 38),2	355,(1, 11),42	397,(10, 41),2	399,(18, 41),2	401,(20, 41),2	403,(21, 41),2	405,(39, 41),2	407,(12, 41),2	409,(16, 41),2	411,(22, 41),2	413,(31, 41),2	415,(17, 41),2	417,(19, 41),2	419,(23, 41),2	421,(25, 41),2	423,(26, 41),2	425,(35, 41),2	427,(37, 41),2	429,(33, 41),2	431,(15, 41),2	441,(1, 36),2	443,(6, 41),2	445,(7, 41),2	447,(28, 41),2	449,(24, 41),2	451,(8, 41),2	453,(29, 41),2	
149,(3, 8),170	
# Outgoing
147,(3, 5),2	149,(3, 8),170	339,(3, 30),4	343,(3, 32),10	353,(3, 38),2	397,(10, 41),2	399,(18, 41),2	401,(20, 41),2	403,(21, 41),2	405,(39, 41),2	407,(12, 41),2	409,(16, 41),2	411,(22, 41),2	413,(31, 41),2	415,(17, 41),2	417,(19, 41),2	419,(23, 41),2	421,(25, 41),2	423,(26, 41),2	425,(35, 41),2	427,(37, 41),2	429,(33, 41),2	431,(15, 41),2	453,(29, 41),2	
13,(2, 12),16	29,(2, 16),2	31,(2, 22),54	85,(2, 31),2	
1,(0, 2),2	3,(0, 3),2	11,(4, 9),2	13,(4, 14),134	147,(4, 17),22	169,(4, 19),10	179,(4, 23),20	199,(4, 25),16	215,(4, 26),2	217,(4, 27),36	253,(4, 34),12	265,(4, 35),10	275,(4, 37),18	293,(4, 40),46	339,(1, 33),4	355,(1, 11),42	397,(1, 15),18	415,(1, 29),26	441,(1, 36),2	443,(6, 41),2	445,(7, 41),2	447,(28, 41),2	449,(24, 41),2	451,(8, 41),2	
