119
# CPU
0,0,1	1,1,3	4,35,3	7,21,3	10,36,3	13,10,3	16,19,3	19,4,3	22,23,3	25,27,3	28,8,3	31,5,3	34,7,3	37,12,3	40,9,3	43,18,3	46,14,3	49,22,3	52,34,3	55,25,3	58,30,3	79,39,3	114,20,3	118,41,1	
7,32,3	20,3,3	23,28,3	26,31,3	29,33,3	32,11,3	35,2,3	38,40,3	41,37,3	44,24,3	47,15,3	50,17,3	53,29,3	56,13,3	59,38,3	62,16,3	65,6,3	68,26,3	
# Incoming
10,(32, 41),2	23,(3, 25),1	24,(3, 30),1	26,(28, 41),2	29,(31, 41),2	32,(33, 41),2	35,(11, 41),2	41,(40, 41),2	44,(37, 41),2	47,(24, 41),2	50,(15, 41),2	53,(17, 41),2	56,(29, 41),2	59,(13, 41),2	61,(3, 39),18	79,(38, 41),2	81,(16, 41),2	83,(2, 20),31	114,(6, 41),2	116,(26, 41),2	
4,(1, 32),3	7,(0, 3),13	20,(0, 2),13	33,(4, 26),1	
# Outgoing
4,(1, 32),3	7,(0, 3),13	20,(0, 2),13	33,(4, 26),1	
10,(32, 41),2	23,(3, 25),1	24,(3, 30),1	26,(28, 41),2	29,(31, 41),2	32,(33, 41),2	35,(11, 41),2	41,(40, 41),2	44,(37, 41),2	47,(24, 41),2	50,(15, 41),2	53,(17, 41),2	56,(29, 41),2	59,(13, 41),2	61,(3, 39),18	79,(38, 41),2	81,(16, 41),2	83,(2, 20),31	114,(6, 41),2	116,(26, 41),2	
