6467
# CPU
325,5,7	332,35,7	445,45,7	502,13,7	547,20,7	643,70,7	919,15,7	961,40,7	985,50,7	1126,75,7	1378,25,7	1385,30,7	1441,60,7	1690,65,7	1993,55,7	2134,80,7	
244,4,7	517,14,7	529,19,7	619,34,7	796,11,7	817,24,7	970,49,7	994,54,7	1051,64,7	1120,74,7	1492,44,7	1579,29,7	1609,59,7	1699,69,7	3235,39,7	3694,79,7	
163,3,7	487,8,7	494,43,7	501,53,7	589,33,7	1117,12,7	1144,38,7	1345,18,7	1363,78,7	1372,23,7	1483,28,7	1609,58,7	1616,63,7	1678,68,7	1723,73,7	2032,48,7	
82,2,7	406,7,7	511,32,7	523,17,7	574,27,7	589,72,7	844,37,7	901,47,7	970,62,7	1045,67,7	1183,77,7	1213,10,7	1363,22,7	1402,42,7	1564,52,7	1579,57,7	
0,0,1	1,1,7	8,6,7	200,61,7	305,16,7	312,21,7	374,71,7	493,51,7	556,9,7	943,66,7	1090,56,7	1126,26,7	1141,31,7	1150,41,7	1213,76,7	2299,36,7	3673,46,7	6466,81,1	
# Incoming
244,(0, 5),81	325,(3, 20),9	334,(3, 25),54	388,(4, 15),3	391,(4, 45),6	397,(3, 40),3	400,(3, 55),3	403,(4, 55),3	406,(4, 65),3	409,(3, 45),36	445,(4, 13),30	475,(4, 60),6	493,(1, 13),9	502,(2, 40),9	511,(2, 70),3	514,(3, 60),6	541,(7, 20),6	547,(7, 25),3	550,(7, 30),3	556,(8, 15),9	565,(8, 80),3	568,(4, 75),12	580,(1, 30),3	583,(4, 80),12	619,(8, 55),18	637,(8, 70),6	736,(8, 40),60	874,(7, 15),45	919,(7, 40),42	970,(7, 50),15	1012,(7, 75),3	1120,(1, 75),6	1372,(6, 25),6	1378,(6, 30),3	1381,(7, 60),60	1612,(6, 65),6	1618,(7, 65),72	1726,(6, 80),15	1741,(2, 55),252	2032,(7, 80),102	
163,(0, 4),81	244,(2, 11),84	328,(2, 14),132	460,(2, 19),12	472,(2, 24),21	493,(2, 59),3	496,(3, 39),3	499,(7, 19),3	502,(1, 14),15	520,(8, 64),3	523,(1, 19),6	529,(1, 24),24	553,(2, 34),18	571,(3, 59),9	580,(3, 69),6	589,(1, 39),3	592,(1, 49),6	598,(8, 34),21	628,(1, 59),15	643,(3, 54),93	736,(5, 11),60	805,(5, 24),12	817,(5, 29),9	826,(8, 59),18	844,(5, 39),24	904,(5, 54),6	955,(5, 59),3	961,(7, 49),9	970,(5, 64),3	985,(7, 54),9	994,(7, 69),18	1024,(1, 64),27	1051,(1, 74),69	1120,(2, 44),207	1381,(6, 39),3	1402,(6, 44),90	1492,(7, 29),87	1585,(6, 59),24	1678,(6, 69),21	1723,(6, 79),3	2299,(8, 39),936	3673,(8, 79),21	
82,(0, 3),81	173,(2, 18),6	406,(0, 8),81	487,(4, 38),81	574,(1, 28),6	583,(1, 33),6	643,(1, 63),381	1024,(5, 18),84	1108,(7, 12),9	1117,(7, 63),3	1141,(5, 38),3	1150,(5, 73),60	1213,(6, 18),132	1345,(7, 23),9	1354,(7, 78),9	1363,(6, 23),9	1372,(5, 28),111	1579,(6, 58),6	1585,(7, 58),24	1609,(6, 63),3	1618,(6, 68),60	1699,(6, 73),24	1993,(7, 48),39	
1,(0, 2),81	251,(4, 10),36	308,(4, 22),12	325,(0, 7),81	406,(3, 32),3	409,(4, 47),15	424,(4, 72),6	487,(1, 10),6	493,(3, 52),3	505,(8, 27),3	508,(8, 32),3	517,(1, 17),6	523,(3, 72),21	553,(1, 27),21	586,(8, 72),3	589,(8, 77),6	598,(1, 52),30	796,(5, 22),9	826,(5, 37),18	868,(5, 47),33	901,(5, 52),3	910,(5, 57),45	958,(5, 62),12	970,(8, 67),75	1126,(1, 77),57	1183,(6, 10),30	1345,(6, 22),18	1384,(6, 42),18	1492,(6, 52),72	1564,(6, 57),15	
89,(2, 9),3	92,(2, 16),81	179,(2, 21),12	191,(2, 46),3	194,(2, 51),3	197,(2, 61),3	287,(4, 16),18	305,(4, 21),3	320,(4, 36),3	323,(4, 51),6	329,(4, 71),45	388,(3, 26),9	445,(3, 46),39	484,(3, 51),9	499,(3, 56),6	511,(8, 66),3	514,(7, 9),27	544,(8, 9),12	571,(2, 41),303	874,(3, 66),69	943,(4, 31),84	1027,(7, 26),6	1033,(7, 41),24	1057,(7, 56),33	1108,(5, 26),18	1126,(5, 31),15	1144,(5, 41),6	1210,(5, 76),3	1213,(35, 81),66	1279,(45, 81),66	1345,(8, 36),954	2299,(13, 81),66	2365,(32, 81),66	2431,(14, 81),66	2497,(17, 81),66	2563,(19, 81),66	2629,(20, 81),66	2695,(27, 81),66	2761,(72, 81),66	2827,(34, 81),66	2893,(70, 81),66	2959,(11, 81),66	3025,(24, 81),66	3091,(37, 81),66	3157,(47, 81),66	3235,(8, 46),438	3694,(43, 81),66	3760,(53, 81),66	3826,(33, 81),66	3892,(15, 81),66	3958,(40, 81),66	4024,(62, 81),66	4090,(49, 81),66	4156,(50, 81),66	4222,(54, 81),66	4288,(67, 81),66	4354,(64, 81),66	4420,(12, 81),66	4486,(74, 81),66	4552,(75, 81),66	4618,(38, 81),66	4684,(77, 81),66	4750,(10, 81),66	4816,(18, 81),66	4882,(22, 81),66	4948,(78, 81),66	5014,(23, 81),66	5080,(25, 81),66	5146,(30, 81),66	5212,(42, 81),66	5278,(60, 81),66	5344,(28, 81),66	5410,(44, 81),66	5476,(52, 81),66	5542,(29, 81),66	5608,(57, 81),66	5674,(58, 81),66	5740,(59, 81),66	5806,(63, 81),66	5872,(68, 81),66	5938,(65, 81),66	6004,(69, 81),66	6070,(73, 81),66	6136,(55, 81),66	6202,(48, 81),66	6268,(80, 81),66	6334,(39, 81),66	6400,(79, 81),66	
# Outgoing
736,(5, 11),60	796,(5, 22),9	805,(5, 24),12	817,(5, 29),9	826,(5, 37),18	844,(5, 39),24	868,(5, 47),33	901,(5, 52),3	904,(5, 54),6	910,(5, 57),45	955,(5, 59),3	958,(5, 62),12	970,(5, 64),3	1024,(5, 18),84	1108,(5, 26),18	1126,(5, 31),15	1141,(5, 38),3	1144,(5, 41),6	1150,(5, 73),60	1210,(5, 76),3	1213,(35, 81),66	1279,(45, 81),66	1372,(5, 28),111	2299,(13, 81),66	2629,(20, 81),66	2893,(70, 81),66	3892,(15, 81),66	3958,(40, 81),66	4156,(50, 81),66	4552,(75, 81),66	5080,(25, 81),66	5146,(30, 81),66	5278,(60, 81),66	5938,(65, 81),66	6136,(55, 81),66	6268,(80, 81),66	
251,(4, 10),36	287,(4, 16),18	305,(4, 21),3	308,(4, 22),12	320,(4, 36),3	323,(4, 51),6	329,(4, 71),45	388,(4, 15),3	391,(4, 45),6	403,(4, 55),3	406,(4, 65),3	409,(4, 47),15	424,(4, 72),6	445,(4, 13),30	475,(4, 60),6	487,(4, 38),81	568,(4, 75),12	583,(4, 80),12	943,(4, 31),84	2431,(14, 81),66	2563,(19, 81),66	2827,(34, 81),66	2959,(11, 81),66	3025,(24, 81),66	4090,(49, 81),66	4222,(54, 81),66	4354,(64, 81),66	4486,(74, 81),66	5410,(44, 81),66	5542,(29, 81),66	5740,(59, 81),66	6004,(69, 81),66	6334,(39, 81),66	6400,(79, 81),66	
325,(3, 20),9	334,(3, 25),54	388,(3, 26),9	397,(3, 40),3	400,(3, 55),3	406,(3, 32),3	409,(3, 45),36	445,(3, 46),39	484,(3, 51),9	493,(3, 52),3	496,(3, 39),3	499,(3, 56),6	505,(8, 27),3	508,(8, 32),3	511,(8, 66),3	514,(3, 60),6	520,(8, 64),3	523,(3, 72),21	544,(8, 9),12	556,(8, 15),9	565,(8, 80),3	571,(3, 59),9	580,(3, 69),6	586,(8, 72),3	589,(8, 77),6	598,(8, 34),21	619,(8, 55),18	637,(8, 70),6	643,(3, 54),93	736,(8, 40),60	826,(8, 59),18	874,(3, 66),69	970,(8, 67),75	1345,(8, 36),954	2299,(8, 39),936	3235,(8, 46),438	3673,(8, 79),21	3694,(43, 81),66	3760,(53, 81),66	3826,(33, 81),66	4420,(12, 81),66	4618,(38, 81),66	4816,(18, 81),66	4948,(78, 81),66	5014,(23, 81),66	5344,(28, 81),66	5674,(58, 81),66	5806,(63, 81),66	5872,(68, 81),66	6070,(73, 81),66	6202,(48, 81),66	
89,(2, 9),3	92,(2, 16),81	173,(2, 18),6	179,(2, 21),12	191,(2, 46),3	194,(2, 51),3	197,(2, 61),3	244,(2, 11),84	328,(2, 14),132	460,(2, 19),12	472,(2, 24),21	493,(2, 59),3	499,(7, 19),3	502,(2, 40),9	511,(2, 70),3	514,(7, 9),27	541,(7, 20),6	547,(7, 25),3	550,(7, 30),3	553,(2, 34),18	571,(2, 41),303	874,(7, 15),45	919,(7, 40),42	961,(7, 49),9	970,(7, 50),15	985,(7, 54),9	994,(7, 69),18	1012,(7, 75),3	1027,(7, 26),6	1033,(7, 41),24	1057,(7, 56),33	1108,(7, 12),9	1117,(7, 63),3	1120,(2, 44),207	1345,(7, 23),9	1354,(7, 78),9	1381,(7, 60),60	1492,(7, 29),87	1585,(7, 58),24	1618,(7, 65),72	1741,(2, 55),252	1993,(7, 48),39	2032,(7, 80),102	2365,(32, 81),66	2497,(17, 81),66	2695,(27, 81),66	2761,(72, 81),66	3091,(37, 81),66	3157,(47, 81),66	4024,(62, 81),66	4288,(67, 81),66	4684,(77, 81),66	4750,(10, 81),66	4882,(22, 81),66	5212,(42, 81),66	5476,(52, 81),66	5608,(57, 81),66	
1,(0, 2),81	82,(0, 3),81	163,(0, 4),81	244,(0, 5),81	325,(0, 7),81	406,(0, 8),81	487,(1, 10),6	493,(1, 13),9	502,(1, 14),15	517,(1, 17),6	523,(1, 19),6	529,(1, 24),24	553,(1, 27),21	574,(1, 28),6	580,(1, 30),3	583,(1, 33),6	589,(1, 39),3	592,(1, 49),6	598,(1, 52),30	628,(1, 59),15	643,(1, 63),381	1024,(1, 64),27	1051,(1, 74),69	1120,(1, 75),6	1126,(1, 77),57	1183,(6, 10),30	1213,(6, 18),132	1345,(6, 22),18	1363,(6, 23),9	1372,(6, 25),6	1378,(6, 30),3	1381,(6, 39),3	1384,(6, 42),18	1402,(6, 44),90	1492,(6, 52),72	1564,(6, 57),15	1579,(6, 58),6	1585,(6, 59),24	1609,(6, 63),3	1612,(6, 65),6	1618,(6, 68),60	1678,(6, 69),21	1699,(6, 73),24	1723,(6, 79),3	1726,(6, 80),15	
