118
# CPU
0,121,1	1,60,1	2,72,1	3,63,1	4,65,1	5,13,1	6,81,1	7,86,1	8,15,1	9,16,1	10,98,1	11,46,1	12,45,1	13,62,1	14,54,1	15,41,1	16,95,1	17,93,1	18,117,1	19,94,1	20,19,1	21,68,1	22,47,1	23,27,1	24,67,1	25,21,1	26,22,1	27,112,1	28,118,1	29,36,1	30,23,1	31,53,1	32,30,1	33,18,1	34,28,1	35,42,1	36,40,1	37,111,1	38,75,1	39,80,1	40,103,1	41,51,1	42,116,1	43,96,1	44,92,1	45,74,1	46,34,1	47,56,1	48,109,1	49,107,1	50,33,1	51,55,1	52,48,1	53,85,1	54,87,1	55,110,1	56,82,1	57,70,1	58,29,1	59,61,1	60,57,1	61,35,1	62,119,1	63,102,1	64,97,1	65,71,1	66,32,1	67,58,1	68,120,1	69,49,1	70,26,1	71,69,1	72,64,1	73,25,1	74,89,1	75,14,1	76,115,1	77,79,1	78,52,1	79,17,1	80,83,1	81,76,1	82,105,1	83,39,1	84,99,1	85,91,1	86,20,1	87,106,1	88,8,1	89,37,1	90,73,1	91,88,1	92,113,1	93,38,1	94,78,1	95,100,1	96,108,1	97,7,1	98,77,1	99,114,1	100,66,1	101,84,1	102,3,1	103,24,1	104,31,1	105,59,1	106,2,1	107,90,1	108,6,1	109,50,1	110,5,1	111,11,1	112,10,1	113,9,1	114,1,1	115,12,1	116,4,1	117,0,1	
22,101,1	43,104,1	64,44,1	85,43,1	
# Incoming
23,(101, 10),1	44,(104, 1),6	65,(44, 12),10	86,(43, 9),1	87,(43, 4),27	
1,(121, 101),21	22,(121, 104),21	43,(121, 44),21	64,(121, 43),21	
# Outgoing
1,(121, 101),21	22,(121, 104),21	43,(121, 44),21	64,(121, 43),21	
23,(101, 10),1	44,(104, 1),6	65,(44, 12),10	86,(43, 9),1	87,(43, 4),27	
