163
# CPU
0,0,1	1,1,1	2,38,1	3,10,1	4,3,1	5,29,1	6,21,1	7,27,1	8,22,1	9,35,1	10,39,1	11,8,1	12,18,1	13,2,1	14,26,1	15,13,1	16,11,1	17,37,1	18,36,1	19,23,1	20,30,1	21,17,1	22,9,1	23,19,1	24,12,1	25,33,1	26,5,1	38,15,1	62,6,1	122,14,1	162,41,1	
17,4,1	18,7,1	19,32,1	20,20,1	21,28,1	22,25,1	23,31,1	25,24,1	41,40,1	69,16,1	97,34,1	
# Incoming
18,(4, 33),4	22,(4, 5),4	26,(4, 15),12	38,(4, 6),24	62,(4, 14),60	122,(7, 41),4	126,(32, 41),4	130,(20, 41),4	134,(28, 41),4	138,(25, 41),4	142,(31, 41),4	146,(24, 41),4	150,(40, 41),4	154,(16, 41),4	158,(34, 41),4	
1,(0, 4),16	17,(3, 31),4	21,(1, 24),4	25,(1, 40),4	29,(3, 40),12	41,(3, 16),24	65,(2, 16),4	69,(2, 34),28	
# Outgoing
1,(0, 4),16	17,(3, 31),4	21,(1, 24),4	25,(1, 40),4	29,(3, 40),12	41,(3, 16),24	65,(2, 16),4	69,(2, 34),28	
18,(4, 33),4	22,(4, 5),4	26,(4, 15),12	38,(4, 6),24	62,(4, 14),60	122,(7, 41),4	126,(32, 41),4	130,(20, 41),4	134,(28, 41),4	138,(25, 41),4	142,(31, 41),4	146,(24, 41),4	150,(40, 41),4	154,(16, 41),4	158,(34, 41),4	
