5750
# CPU
13,3,1	25,6,1	37,9,1	43,30,1	49,12,1	50,48,1	1405,81,1	1621,66,1	1747,90,1	2170,99,1	2455,15,1	2656,18,1	2683,75,1	2734,51,1	2923,39,1	3289,111,1	3364,117,1	4243,42,1	4282,54,1	4321,60,1	4390,93,1	4423,108,1	4585,78,1	4597,84,1	4648,114,1	4729,21,1	4753,24,1	4765,27,1	4807,33,1	4819,36,1	4837,45,1	4852,57,1	4942,63,1	5095,69,1	5101,72,1	5113,87,1	5122,96,1	5152,102,1	5179,105,1	5182,120,1	
7,2,1	19,5,1	31,8,1	43,11,1	44,86,1	232,17,1	340,38,1	820,110,1	1405,92,1	1495,41,1	1498,14,1	2656,113,1	2686,50,1	2728,104,1	3337,44,1	3352,65,1	3433,20,1	3532,47,1	3706,56,1	3784,68,1	3802,71,1	3832,53,1	3877,83,1	4087,23,1	4090,26,1	4099,29,1	4120,35,1	4204,32,1	4258,62,1	4309,59,1	4363,77,1	4375,80,1	4378,89,1	4405,101,1	4414,107,1	4570,119,1	4786,95,1	5080,74,1	5428,98,1	5605,116,1	
0,0,1	1,7,1	2,1,1	3,10,1	4,4,1	5,64,1	946,79,1	955,82,1	1030,85,1	1099,97,1	1348,13,1	1432,118,1	1498,106,1	1606,112,1	1642,16,1	1651,22,1	1657,25,1	1690,34,1	1741,76,1	1756,40,1	1786,46,1	1792,61,1	1804,73,1	1840,91,1	1849,94,1	1981,70,1	2143,88,1	2278,115,1	2509,19,1	2542,37,1	2548,43,1	2554,49,1	2569,52,1	2590,100,1	2611,103,1	2614,28,1	2617,31,1	2623,55,1	2641,58,1	2644,109,1	4558,67,1	5749,121,1	
# Incoming
7,(0, 3),6	19,(0, 6),6	25,(2, 27),3	28,(2, 48),3	31,(0, 9),6	37,(2, 30),6	43,(0, 12),6	49,(7, 15),180	229,(5, 27),3	232,(7, 24),3	235,(2, 39),12	247,(2, 120),6	253,(5, 54),6	259,(7, 36),39	298,(2, 51),24	340,(7, 39),927	1267,(7, 57),3	1270,(7, 60),12	1282,(2, 36),57	1357,(7, 75),21	1378,(5, 45),12	1390,(7, 87),9	1399,(7, 90),3	1402,(5, 81),3	1405,(7, 93),3	1408,(2, 72),24	1438,(7, 96),84	1522,(2, 66),99	1621,(2, 78),39	1660,(2, 84),45	1705,(2, 90),42	1747,(5, 24),78	1825,(5, 51),24	1849,(5, 63),12	1981,(5, 72),12	1993,(5, 87),51	2143,(5, 96),12	2155,(5, 99),15	2170,(5, 102),21	2191,(5, 105),24	2215,(5, 108),30	2245,(5, 111),54	2299,(5, 114),108	2407,(8, 15),48	2509,(8, 21),18	2539,(7, 114),105	2644,(7, 120),9	2653,(1, 18),3	2656,(8, 27),15	2671,(8, 51),3	2674,(8, 63),3	2677,(8, 75),6	2683,(8, 96),3	2686,(1, 51),48	2734,(8, 33),165	2899,(8, 39),24	2923,(8, 42),45	2968,(8, 60),186	3268,(1, 93),3	3286,(1, 111),3	3289,(1, 114),72	3361,(1, 117),3	3433,(10, 21),15	3457,(10, 33),3	3463,(10, 36),12	3475,(10, 45),45	3706,(10, 60),9	3715,(10, 63),3	3802,(10, 72),45	3877,(10, 93),42	3919,(10, 96),18	3937,(10, 105),12	3994,(10, 108),33	4027,(10, 114),3	4033,(4, 21),9	4120,(4, 36),81	4201,(4, 42),42	4243,(4, 54),39	4309,(4, 60),12	4363,(4, 78),9	4378,(4, 93),12	4414,(4, 108),9	4558,(8, 69),18	4576,(8, 78),9	4585,(8, 84),12	4597,(8, 102),15	4612,(8, 114),36	4648,(11, 21),81	4729,(11, 24),24	4753,(11, 27),12	4765,(11, 33),42	4807,(11, 36),12	4819,(11, 45),18	4837,(11, 57),15	4852,(11, 63),90	4942,(11, 69),153	5095,(11, 72),6	5101,(11, 87),12	5113,(11, 96),9	5122,(11, 102),30	5152,(11, 105),27	5179,(11, 120),3	
1,(0, 2),6	13,(0, 5),6	25,(0, 8),6	37,(0, 11),6	43,(3, 14),33	76,(3, 20),12	88,(3, 26),3	91,(3, 32),3	94,(3, 44),3	97,(3, 59),42	139,(3, 65),3	142,(3, 107),39	181,(6, 29),3	184,(6, 74),3	229,(7, 17),3	235,(7, 29),24	298,(7, 38),42	340,(3, 89),414	754,(3, 119),24	778,(6, 26),15	793,(6, 83),3	796,(6, 104),3	799,(6, 110),21	820,(6, 119),54	874,(9, 20),3	877,(9, 26),3	1282,(7, 68),18	1300,(7, 74),57	1357,(9, 29),3	1360,(9, 44),15	1375,(9, 56),3	1378,(7, 77),9	1387,(7, 83),3	1390,(9, 59),3	1393,(9, 107),3	1402,(7, 92),3	1408,(7, 95),30	1438,(9, 41),57	1495,(12, 14),3	1522,(7, 98),1017	2539,(6, 113),81	2620,(9, 50),9	2629,(9, 62),18	2647,(9, 113),9	2656,(1, 35),12	2668,(1, 44),15	2683,(1, 50),3	2686,(9, 65),18	2704,(9, 104),24	2728,(12, 35),3	2731,(12, 56),3	2734,(1, 53),3	2737,(1, 56),21	2758,(1, 62),231	2989,(1, 83),72	3061,(1, 89),207	3268,(12, 116),3	3271,(1, 101),15	3286,(9, 71),45	3331,(12, 44),6	3337,(12, 65),15	3364,(10, 20),69	3433,(12, 71),15	3448,(10, 32),9	3460,(10, 35),3	3463,(9, 89),42	3520,(10, 47),12	3532,(10, 56),174	3718,(10, 68),66	3784,(10, 71),18	3802,(12, 53),30	3847,(10, 74),21	3868,(10, 80),3	3871,(10, 83),6	3877,(12, 59),51	3949,(10, 107),45	3994,(12, 98),36	4030,(10, 119),3	4042,(4, 23),45	4087,(4, 26),3	4090,(4, 29),9	4099,(4, 35),21	4120,(9, 32),84	4204,(12, 62),54	4282,(4, 59),27	4321,(4, 74),9	4330,(4, 77),33	4372,(4, 80),3	4375,(4, 89),3	4390,(4, 95),3	4393,(4, 101),12	4405,(4, 107),9	4423,(4, 119),147	4570,(6, 95),216	4786,(9, 74),294	5080,(9, 98),348	5428,(9, 116),177	
8,(2, 19),3	11,(2, 25),9	20,(2, 61),3	31,(5, 25),3	34,(5, 79),3	43,(2, 46),60	103,(2, 82),27	130,(2, 100),42	172,(2, 115),15	187,(3, 25),36	223,(3, 31),3	226,(3, 34),12	238,(3, 43),15	253,(3, 46),33	286,(3, 52),3	289,(3, 55),33	322,(2, 85),558	880,(3, 67),12	892,(3, 73),51	943,(3, 79),3	946,(3, 82),9	955,(3, 85),75	1030,(3, 88),3	1033,(3, 91),27	1060,(3, 97),39	1099,(3, 100),6	1105,(3, 115),174	1279,(3, 118),21	1300,(6, 16),3	1303,(6, 22),27	1330,(6, 25),9	1339,(5, 13),9	1348,(5, 43),6	1354,(5, 46),21	1375,(5, 112),3	1378,(6, 49),3	1381,(6, 55),3	1384,(6, 91),3	1387,(6, 94),3	1390,(5, 103),6	1396,(6, 70),18	1414,(6, 118),18	1432,(5, 91),39	1471,(5, 106),27	1498,(6, 67),84	1582,(6, 112),24	1606,(9, 16),36	1642,(9, 19),6	1648,(9, 22),3	1651,(9, 25),6	1657,(9, 28),21	1678,(9, 34),12	1690,(9, 73),3	1693,(9, 76),48	1741,(9, 91),3	1744,(9, 100),3	1747,(30, 121),6	1753,(12, 40),3	1756,(12, 46),30	1786,(12, 49),3	1789,(12, 61),3	1792,(12, 73),12	1804,(12, 91),36	1840,(12, 94),9	1849,(12, 115),9	1861,(5, 70),120	1981,(48, 121),6	1987,(81, 121),6	1993,(66, 121),6	1999,(90, 121),6	2044,(5, 88),99	2143,(9, 115),135	2278,(99, 121),6	2455,(8, 19),54	2509,(15, 121),6	2527,(8, 37),15	2542,(8, 43),6	2548,(8, 49),6	2554,(8, 52),15	2569,(8, 100),21	2590,(8, 103),21	2611,(11, 28),3	2614,(11, 31),3	2617,(11, 55),6	2623,(11, 58),18	2641,(11, 109),3	2644,(86, 121),6	2650,(17, 121),6	2657,(18, 121),6	2686,(38, 121),6	2692,(110, 121),6	2698,(92, 121),6	2704,(41, 121),6	2710,(14, 121),6	2716,(113, 121),6	2722,(50, 121),6	2734,(75, 121),6	2740,(51, 121),6	2924,(39, 121),6	3154,(8, 67),1404	4558,(111, 121),6	4564,(117, 121),6	5182,(104, 121),6	5188,(44, 121),6	5194,(65, 121),6	5200,(20, 121),6	5206,(47, 121),6	5212,(56, 121),6	5218,(68, 121),6	5224,(71, 121),6	5230,(53, 121),6	5236,(83, 121),6	5242,(23, 121),6	5248,(26, 121),6	5254,(29, 121),6	5260,(35, 121),6	5266,(32, 121),6	5272,(62, 121),6	5278,(59, 121),6	5284,(77, 121),6	5290,(80, 121),6	5296,(89, 121),6	5302,(101, 121),6	5308,(107, 121),6	5314,(119, 121),6	5320,(95, 121),6	5326,(74, 121),6	5429,(98, 121),6	5605,(42, 121),6	5611,(54, 121),6	5617,(60, 121),6	5623,(93, 121),6	5629,(108, 121),6	5635,(78, 121),6	5641,(84, 121),6	5647,(114, 121),6	5653,(21, 121),6	5659,(24, 121),6	5665,(27, 121),6	5671,(33, 121),6	5677,(36, 121),6	5683,(45, 121),6	5689,(57, 121),6	5695,(63, 121),6	5701,(69, 121),6	5707,(72, 121),6	5713,(87, 121),6	5719,(96, 121),6	5725,(102, 121),6	5731,(105, 121),6	5737,(120, 121),6	5743,(116, 121),6	
# Outgoing
43,(3, 14),33	76,(3, 20),12	88,(3, 26),3	91,(3, 32),3	94,(3, 44),3	97,(3, 59),42	139,(3, 65),3	142,(3, 107),39	181,(6, 29),3	184,(6, 74),3	187,(3, 25),36	223,(3, 31),3	226,(3, 34),12	238,(3, 43),15	253,(3, 46),33	286,(3, 52),3	289,(3, 55),33	340,(3, 89),414	754,(3, 119),24	778,(6, 26),15	793,(6, 83),3	796,(6, 104),3	799,(6, 110),21	820,(6, 119),54	874,(9, 20),3	877,(9, 26),3	880,(3, 67),12	892,(3, 73),51	943,(3, 79),3	946,(3, 82),9	955,(3, 85),75	1030,(3, 88),3	1033,(3, 91),27	1060,(3, 97),39	1099,(3, 100),6	1105,(3, 115),174	1279,(3, 118),21	1300,(6, 16),3	1303,(6, 22),27	1330,(6, 25),9	1357,(9, 29),3	1360,(9, 44),15	1375,(9, 56),3	1378,(6, 49),3	1381,(6, 55),3	1384,(6, 91),3	1387,(6, 94),3	1390,(9, 59),3	1393,(9, 107),3	1396,(6, 70),18	1414,(6, 118),18	1438,(9, 41),57	1495,(12, 14),3	1498,(6, 67),84	1582,(6, 112),24	1606,(9, 16),36	1642,(9, 19),6	1648,(9, 22),3	1651,(9, 25),6	1657,(9, 28),21	1678,(9, 34),12	1690,(9, 73),3	1693,(9, 76),48	1741,(9, 91),3	1744,(9, 100),3	1747,(30, 121),6	1753,(12, 40),3	1756,(12, 46),30	1786,(12, 49),3	1789,(12, 61),3	1792,(12, 73),12	1804,(12, 91),36	1840,(12, 94),9	1849,(12, 115),9	1981,(48, 121),6	1987,(81, 121),6	1993,(66, 121),6	1999,(90, 121),6	2143,(9, 115),135	2278,(99, 121),6	2509,(15, 121),6	2539,(6, 113),81	2620,(9, 50),9	2629,(9, 62),18	2647,(9, 113),9	2657,(18, 121),6	2686,(9, 65),18	2704,(9, 104),24	2728,(12, 35),3	2731,(12, 56),3	2734,(75, 121),6	2740,(51, 121),6	2924,(39, 121),6	3268,(12, 116),3	3286,(9, 71),45	3331,(12, 44),6	3337,(12, 65),15	3433,(12, 71),15	3463,(9, 89),42	3802,(12, 53),30	3877,(12, 59),51	3994,(12, 98),36	4120,(9, 32),84	4204,(12, 62),54	4558,(111, 121),6	4564,(117, 121),6	4570,(6, 95),216	4786,(9, 74),294	5080,(9, 98),348	5428,(9, 116),177	5605,(42, 121),6	5611,(54, 121),6	5617,(60, 121),6	5623,(93, 121),6	5629,(108, 121),6	5635,(78, 121),6	5641,(84, 121),6	5647,(114, 121),6	5653,(21, 121),6	5659,(24, 121),6	5665,(27, 121),6	5671,(33, 121),6	5677,(36, 121),6	5683,(45, 121),6	5689,(57, 121),6	5695,(63, 121),6	5701,(69, 121),6	5707,(72, 121),6	5713,(87, 121),6	5719,(96, 121),6	5725,(102, 121),6	5731,(105, 121),6	5737,(120, 121),6	
8,(2, 19),3	11,(2, 25),9	20,(2, 61),3	25,(2, 27),3	28,(2, 48),3	31,(5, 25),3	34,(5, 79),3	37,(2, 30),6	43,(2, 46),60	103,(2, 82),27	130,(2, 100),42	172,(2, 115),15	229,(5, 27),3	235,(2, 39),12	247,(2, 120),6	253,(5, 54),6	298,(2, 51),24	322,(2, 85),558	1282,(2, 36),57	1339,(5, 13),9	1348,(5, 43),6	1354,(5, 46),21	1375,(5, 112),3	1378,(5, 45),12	1390,(5, 103),6	1402,(5, 81),3	1408,(2, 72),24	1432,(5, 91),39	1471,(5, 106),27	1522,(2, 66),99	1621,(2, 78),39	1660,(2, 84),45	1705,(2, 90),42	1747,(5, 24),78	1825,(5, 51),24	1849,(5, 63),12	1861,(5, 70),120	1981,(5, 72),12	1993,(5, 87),51	2044,(5, 88),99	2143,(5, 96),12	2155,(5, 99),15	2170,(5, 102),21	2191,(5, 105),24	2215,(5, 108),30	2245,(5, 111),54	2299,(5, 114),108	2407,(8, 15),48	2455,(8, 19),54	2509,(8, 21),18	2527,(8, 37),15	2542,(8, 43),6	2548,(8, 49),6	2554,(8, 52),15	2569,(8, 100),21	2590,(8, 103),21	2611,(11, 28),3	2614,(11, 31),3	2617,(11, 55),6	2623,(11, 58),18	2641,(11, 109),3	2644,(86, 121),6	2650,(17, 121),6	2656,(8, 27),15	2671,(8, 51),3	2674,(8, 63),3	2677,(8, 75),6	2683,(8, 96),3	2686,(38, 121),6	2692,(110, 121),6	2698,(92, 121),6	2704,(41, 121),6	2710,(14, 121),6	2716,(113, 121),6	2722,(50, 121),6	2734,(8, 33),165	2899,(8, 39),24	2923,(8, 42),45	2968,(8, 60),186	3154,(8, 67),1404	4558,(8, 69),18	4576,(8, 78),9	4585,(8, 84),12	4597,(8, 102),15	4612,(8, 114),36	4648,(11, 21),81	4729,(11, 24),24	4753,(11, 27),12	4765,(11, 33),42	4807,(11, 36),12	4819,(11, 45),18	4837,(11, 57),15	4852,(11, 63),90	4942,(11, 69),153	5095,(11, 72),6	5101,(11, 87),12	5113,(11, 96),9	5122,(11, 102),30	5152,(11, 105),27	5179,(11, 120),3	5182,(104, 121),6	5188,(44, 121),6	5194,(65, 121),6	5200,(20, 121),6	5206,(47, 121),6	5212,(56, 121),6	5218,(68, 121),6	5224,(71, 121),6	5230,(53, 121),6	5236,(83, 121),6	5242,(23, 121),6	5248,(26, 121),6	5254,(29, 121),6	5260,(35, 121),6	5266,(32, 121),6	5272,(62, 121),6	5278,(59, 121),6	5284,(77, 121),6	5290,(80, 121),6	5296,(89, 121),6	5302,(101, 121),6	5308,(107, 121),6	5314,(119, 121),6	5320,(95, 121),6	5326,(74, 121),6	5429,(98, 121),6	5743,(116, 121),6	
1,(0, 2),6	7,(0, 3),6	13,(0, 5),6	19,(0, 6),6	25,(0, 8),6	31,(0, 9),6	37,(0, 11),6	43,(0, 12),6	49,(7, 15),180	229,(7, 17),3	232,(7, 24),3	235,(7, 29),24	259,(7, 36),39	298,(7, 38),42	340,(7, 39),927	1267,(7, 57),3	1270,(7, 60),12	1282,(7, 68),18	1300,(7, 74),57	1357,(7, 75),21	1378,(7, 77),9	1387,(7, 83),3	1390,(7, 87),9	1399,(7, 90),3	1402,(7, 92),3	1405,(7, 93),3	1408,(7, 95),30	1438,(7, 96),84	1522,(7, 98),1017	2539,(7, 114),105	2644,(7, 120),9	2653,(1, 18),3	2656,(1, 35),12	2668,(1, 44),15	2683,(1, 50),3	2686,(1, 51),48	2734,(1, 53),3	2737,(1, 56),21	2758,(1, 62),231	2989,(1, 83),72	3061,(1, 89),207	3268,(1, 93),3	3271,(1, 101),15	3286,(1, 111),3	3289,(1, 114),72	3361,(1, 117),3	3364,(10, 20),69	3433,(10, 21),15	3448,(10, 32),9	3457,(10, 33),3	3460,(10, 35),3	3463,(10, 36),12	3475,(10, 45),45	3520,(10, 47),12	3532,(10, 56),174	3706,(10, 60),9	3715,(10, 63),3	3718,(10, 68),66	3784,(10, 71),18	3802,(10, 72),45	3847,(10, 74),21	3868,(10, 80),3	3871,(10, 83),6	3877,(10, 93),42	3919,(10, 96),18	3937,(10, 105),12	3949,(10, 107),45	3994,(10, 108),33	4027,(10, 114),3	4030,(10, 119),3	4033,(4, 21),9	4042,(4, 23),45	4087,(4, 26),3	4090,(4, 29),9	4099,(4, 35),21	4120,(4, 36),81	4201,(4, 42),42	4243,(4, 54),39	4282,(4, 59),27	4309,(4, 60),12	4321,(4, 74),9	4330,(4, 77),33	4363,(4, 78),9	4372,(4, 80),3	4375,(4, 89),3	4378,(4, 93),12	4390,(4, 95),3	4393,(4, 101),12	4405,(4, 107),9	4414,(4, 108),9	4423,(4, 119),147	
