986
# CPU
91,4,14	105,24,14	119,64,14	133,76,14	147,80,14	181,8,14	195,68,14	209,16,14	223,20,14	237,40,14	251,32,14	265,52,14	279,44,14	293,56,14	307,28,14	321,12,14	351,48,14	529,72,14	867,36,14	957,60,14	
61,3,14	75,11,14	89,59,14	103,67,14	117,55,14	151,7,14	165,39,14	179,71,14	193,31,14	207,47,14	221,75,14	235,35,14	249,79,14	263,27,14	289,43,14	333,19,14	349,15,14	833,51,14	853,23,14	969,63,14	
31,2,14	45,10,14	59,54,14	73,70,14	87,78,14	121,6,14	135,18,14	149,26,14	163,66,14	211,14,14	225,22,14	239,50,14	253,58,14	267,62,14	281,30,14	295,38,14	309,46,14	845,74,14	859,34,14	873,42,14	
0,0,1	1,1,14	15,5,14	29,13,14	43,73,14	57,17,14	157,25,14	177,29,14	191,21,14	205,37,14	219,41,14	233,53,14	247,49,14	261,65,14	275,69,14	289,9,14	303,45,14	317,33,14	331,57,14	345,77,14	653,61,14	985,81,1	
# Incoming
61,(0, 4),30	91,(2, 24),2	151,(0, 8),30	181,(2, 68),10	191,(6, 16),2	193,(6, 32),6	199,(7, 52),2	205,(6, 44),8	213,(6, 56),10	227,(1, 28),4	247,(7, 12),4	297,(1, 48),54	351,(3, 72),178	855,(5, 36),12	869,(5, 60),88	
31,(0, 3),30	61,(2, 11),4	65,(2, 55),22	121,(0, 7),30	151,(4, 39),10	161,(4, 71),2	195,(8, 75),4	201,(6, 35),2	203,(8, 79),4	221,(1, 27),6	231,(1, 43),58	289,(6, 19),44	333,(8, 15),16	351,(1, 51),482	845,(5, 23),8	957,(5, 63),12	
1,(0, 2),30	91,(0, 6),30	121,(4, 26),16	137,(4, 66),4	181,(1, 14),30	211,(1, 22),10	221,(3, 50),6	227,(3, 58),2	229,(3, 62),10	251,(7, 30),2	255,(7, 38),2	289,(1, 46),8	833,(1, 74),12	853,(5, 34),2	867,(5, 42),2	
93,(2, 25),64	157,(2, 29),20	177,(10, 81),2	179,(54, 81),2	181,(3, 21),2	183,(3, 37),2	185,(3, 41),4	189,(3, 53),10	199,(70, 81),2	201,(11, 81),2	203,(78, 81),2	205,(59, 81),2	207,(4, 49),4	211,(4, 65),2	213,(67, 81),2	215,(24, 81),2	217,(55, 81),2	219,(64, 81),2	221,(76, 81),2	223,(6, 69),10	233,(18, 81),2	235,(80, 81),2	237,(26, 81),2	239,(7, 9),8	247,(66, 81),2	249,(8, 45),2	251,(68, 81),2	253,(7, 33),2	255,(16, 81),2	257,(7, 57),20	277,(39, 81),2	279,(71, 81),2	281,(8, 77),14	295,(31, 81),2	297,(47, 81),2	299,(75, 81),2	301,(20, 81),2	303,(35, 81),2	305,(40, 81),2	307,(79, 81),2	309,(32, 81),2	311,(27, 81),2	313,(52, 81),2	315,(44, 81),2	317,(43, 81),2	319,(56, 81),2	321,(28, 81),2	333,(14, 81),2	335,(22, 81),2	337,(50, 81),2	339,(58, 81),2	341,(62, 81),2	343,(30, 81),2	345,(38, 81),2	347,(46, 81),2	349,(12, 81),2	365,(48, 81),2	529,(7, 61),124	653,(19, 81),2	655,(15, 81),2	657,(72, 81),2	847,(51, 81),2	859,(74, 81),2	867,(23, 81),2	873,(34, 81),2	881,(36, 81),2	887,(42, 81),2	971,(60, 81),2	983,(63, 81),2	
# Outgoing
121,(4, 26),16	137,(4, 66),4	151,(4, 39),10	161,(4, 71),2	195,(8, 75),4	203,(8, 79),4	207,(4, 49),4	211,(4, 65),2	215,(24, 81),2	219,(64, 81),2	221,(76, 81),2	235,(80, 81),2	249,(8, 45),2	251,(68, 81),2	255,(16, 81),2	281,(8, 77),14	301,(20, 81),2	305,(40, 81),2	309,(32, 81),2	313,(52, 81),2	315,(44, 81),2	319,(56, 81),2	321,(28, 81),2	333,(8, 15),16	349,(12, 81),2	365,(48, 81),2	657,(72, 81),2	881,(36, 81),2	971,(60, 81),2	
181,(3, 21),2	183,(3, 37),2	185,(3, 41),4	189,(3, 53),10	199,(7, 52),2	201,(11, 81),2	205,(59, 81),2	213,(67, 81),2	217,(55, 81),2	221,(3, 50),6	227,(3, 58),2	229,(3, 62),10	239,(7, 9),8	247,(7, 12),4	251,(7, 30),2	253,(7, 33),2	255,(7, 38),2	257,(7, 57),20	277,(39, 81),2	279,(71, 81),2	295,(31, 81),2	297,(47, 81),2	299,(75, 81),2	303,(35, 81),2	307,(79, 81),2	311,(27, 81),2	317,(43, 81),2	351,(3, 72),178	529,(7, 61),124	653,(19, 81),2	655,(15, 81),2	847,(51, 81),2	867,(23, 81),2	983,(63, 81),2	
61,(2, 11),4	65,(2, 55),22	91,(2, 24),2	93,(2, 25),64	157,(2, 29),20	177,(10, 81),2	179,(54, 81),2	181,(2, 68),10	191,(6, 16),2	193,(6, 32),6	199,(70, 81),2	201,(6, 35),2	203,(78, 81),2	205,(6, 44),8	213,(6, 56),10	223,(6, 69),10	233,(18, 81),2	237,(26, 81),2	247,(66, 81),2	289,(6, 19),44	333,(14, 81),2	335,(22, 81),2	337,(50, 81),2	339,(58, 81),2	341,(62, 81),2	343,(30, 81),2	345,(38, 81),2	347,(46, 81),2	859,(74, 81),2	873,(34, 81),2	887,(42, 81),2	
1,(0, 2),30	31,(0, 3),30	61,(0, 4),30	91,(0, 6),30	121,(0, 7),30	151,(0, 8),30	181,(1, 14),30	211,(1, 22),10	221,(1, 27),6	227,(1, 28),4	231,(1, 43),58	289,(1, 46),8	297,(1, 48),54	351,(1, 51),482	833,(1, 74),12	845,(5, 23),8	853,(5, 34),2	855,(5, 36),12	867,(5, 42),2	869,(5, 60),88	957,(5, 63),12	
