283
# CPU
0,0,1	1,2,2	3,112,2	5,118,2	7,11,2	9,33,2	11,90,2	13,59,2	15,4,2	17,110,2	19,64,2	21,12,2	23,67,2	25,74,2	27,38,2	29,7,2	31,14,2	33,82,2	35,92,2	37,42,2	39,23,2	41,68,2	43,5,2	45,65,2	47,40,2	49,99,2	51,51,2	53,80,2	55,83,2	57,6,2	59,50,2	61,109,2	63,89,2	65,55,2	67,61,2	69,25,2	71,106,2	73,104,2	75,96,2	77,46,2	79,8,2	81,28,2	83,20,2	85,101,2	87,27,2	89,35,2	91,49,2	93,85,2	95,41,2	97,29,2	99,116,2	101,52,2	103,57,2	105,48,2	107,76,2	109,56,2	111,120,2	113,111,2	115,15,2	117,63,2	119,70,2	121,97,2	123,62,2	125,45,2	127,72,2	129,78,2	131,22,2	133,43,2	135,102,2	149,30,2	168,87,2	282,121,1	
8,3,2	10,69,2	12,18,2	14,31,2	16,1,2	18,117,2	20,37,2	24,34,2	28,114,2	32,107,2	34,88,2	41,9,2	43,66,2	45,60,2	47,115,2	49,81,2	51,113,2	53,36,2	56,75,2	59,19,2	61,21,2	64,105,2	69,86,2	75,94,2	82,98,2	86,47,2	92,103,2	99,10,2	101,13,2	103,54,2	105,119,2	107,17,2	109,24,2	112,79,2	119,77,2	127,100,2	139,44,2	153,16,2	191,73,2	
11,95,2	19,93,2	44,71,2	46,26,2	48,58,2	52,53,2	102,39,2	104,84,2	
19,32,2	47,91,2	50,108,2	
# Incoming
36,(3, 57),1	37,(95, 121),3	40,(1, 48),1	41,(3, 76),1	42,(1, 111),1	43,(93, 121),3	46,(32, 121),3	50,(9, 111),1	51,(1, 45),1	52,(71, 121),3	55,(26, 121),3	58,(91, 121),3	63,(3, 15),2	65,(1, 63),2	67,(1, 97),2	69,(3, 62),2	71,(9, 45),4	75,(1, 72),6	81,(1, 78),8	89,(1, 22),8	97,(9, 22),1	98,(69, 121),3	101,(58, 121),3	104,(10, 56),1	105,(10, 120),2	107,(10, 70),2	109,(3, 43),4	113,(9, 43),7	120,(1, 102),12	132,(9, 30),9	141,(10, 30),8	149,(9, 87),19	168,(18, 121),3	171,(31, 121),3	174,(117, 121),3	177,(37, 121),3	180,(34, 121),3	183,(114, 121),3	186,(107, 121),3	189,(88, 121),3	192,(66, 121),3	195,(60, 121),3	198,(115, 121),3	201,(81, 121),3	204,(108, 121),3	207,(113, 121),3	210,(53, 121),3	213,(36, 121),3	216,(75, 121),3	219,(19, 121),3	222,(21, 121),3	225,(105, 121),3	228,(86, 121),3	231,(94, 121),3	234,(98, 121),3	237,(47, 121),3	240,(103, 121),3	243,(13, 121),3	246,(39, 121),3	249,(54, 121),3	252,(84, 121),3	255,(119, 121),3	258,(17, 121),3	261,(24, 121),3	264,(79, 121),3	267,(77, 121),3	270,(100, 121),3	273,(44, 121),3	276,(16, 121),3	279,(73, 121),3	
1,(0, 3),7	9,(0, 1),7	16,(2, 107),1	19,(4, 114),3	23,(12, 34),1	24,(12, 114),4	28,(11, 107),3	31,(7, 107),1	32,(7, 88),2	34,(0, 9),7	44,(11, 113),1	52,(12, 36),1	53,(5, 75),3	56,(2, 19),3	59,(4, 21),1	60,(6, 21),1	61,(5, 105),3	64,(12, 86),1	65,(5, 86),4	69,(7, 94),1	70,(5, 94),5	75,(4, 98),3	78,(6, 103),3	81,(8, 98),1	82,(8, 47),4	86,(8, 103),6	92,(0, 10),7	100,(6, 17),3	103,(5, 24),4	107,(2, 79),4	111,(4, 79),1	112,(2, 77),6	118,(12, 77),1	119,(11, 100),6	125,(12, 100),1	126,(7, 100),1	127,(11, 44),2	129,(4, 44),10	139,(2, 16),13	152,(12, 16),1	153,(4, 73),7	160,(5, 73),11	171,(8, 73),20	
8,(2, 95),1	10,(3, 95),1	12,(3, 53),6	18,(1, 93),1	19,(3, 71),16	35,(1, 53),1	37,(1, 84),3	41,(4, 58),1	43,(9, 71),1	45,(5, 26),1	46,(5, 58),2	48,(12, 53),3	51,(5, 53),1	52,(1, 39),11	99,(8, 84),1	101,(10, 39),1	102,(10, 84),2	
11,(3, 32),1	17,(4, 32),2	22,(11, 91),1	42,(4, 108),1	43,(7, 108),1	44,(9, 91),3	47,(9, 108),3	
# Outgoing
1,(0, 3),7	8,(2, 95),1	9,(0, 1),7	16,(2, 107),1	17,(4, 32),2	19,(4, 114),3	22,(11, 91),1	23,(12, 34),1	24,(12, 114),4	28,(11, 107),3	31,(7, 107),1	32,(7, 88),2	34,(0, 9),7	41,(4, 58),1	42,(4, 108),1	43,(7, 108),1	44,(11, 113),1	45,(5, 26),1	46,(5, 58),2	48,(12, 53),3	51,(5, 53),1	52,(12, 36),1	53,(5, 75),3	56,(2, 19),3	59,(4, 21),1	60,(6, 21),1	61,(5, 105),3	64,(12, 86),1	65,(5, 86),4	69,(7, 94),1	70,(5, 94),5	75,(4, 98),3	78,(6, 103),3	81,(8, 98),1	82,(8, 47),4	86,(8, 103),6	92,(0, 10),7	99,(8, 84),1	100,(6, 17),3	103,(5, 24),4	107,(2, 79),4	111,(4, 79),1	112,(2, 77),6	118,(12, 77),1	119,(11, 100),6	125,(12, 100),1	126,(7, 100),1	127,(11, 44),2	129,(4, 44),10	139,(2, 16),13	152,(12, 16),1	153,(4, 73),7	160,(5, 73),11	171,(8, 73),20	
10,(3, 95),1	11,(3, 32),1	12,(3, 53),6	18,(1, 93),1	19,(3, 71),16	35,(1, 53),1	36,(3, 57),1	37,(1, 84),3	40,(1, 48),1	41,(3, 76),1	42,(1, 111),1	43,(9, 71),1	44,(9, 91),3	47,(9, 108),3	50,(9, 111),1	51,(1, 45),1	52,(1, 39),11	63,(3, 15),2	65,(1, 63),2	67,(1, 97),2	69,(3, 62),2	71,(9, 45),4	75,(1, 72),6	81,(1, 78),8	89,(1, 22),8	97,(9, 22),1	98,(69, 121),3	101,(10, 39),1	102,(10, 84),2	104,(10, 56),1	105,(10, 120),2	107,(10, 70),2	109,(3, 43),4	113,(9, 43),7	120,(1, 102),12	132,(9, 30),9	141,(10, 30),8	149,(9, 87),19	168,(18, 121),3	171,(31, 121),3	174,(117, 121),3	177,(37, 121),3	180,(34, 121),3	183,(114, 121),3	186,(107, 121),3	189,(88, 121),3	192,(66, 121),3	195,(60, 121),3	198,(115, 121),3	201,(81, 121),3	207,(113, 121),3	213,(36, 121),3	216,(75, 121),3	219,(19, 121),3	222,(21, 121),3	225,(105, 121),3	228,(86, 121),3	231,(94, 121),3	234,(98, 121),3	237,(47, 121),3	240,(103, 121),3	243,(13, 121),3	249,(54, 121),3	255,(119, 121),3	258,(17, 121),3	261,(24, 121),3	264,(79, 121),3	267,(77, 121),3	270,(100, 121),3	273,(44, 121),3	276,(16, 121),3	279,(73, 121),3	
37,(95, 121),3	43,(93, 121),3	52,(71, 121),3	55,(26, 121),3	101,(58, 121),3	210,(53, 121),3	246,(39, 121),3	252,(84, 121),3	
46,(32, 121),3	58,(91, 121),3	204,(108, 121),3	
