402
# CPU
0,201,1	1,33,2	3,53,2	5,118,2	7,69,2	9,138,2	11,184,2	13,123,2	15,40,2	17,141,2	19,87,2	21,167,2	23,189,2	25,157,2	27,78,2	29,154,2	31,45,2	33,83,2	35,41,2	37,80,2	39,65,2	41,51,2	43,92,2	45,149,2	47,127,2	49,116,2	51,117,2	53,122,2	55,199,2	57,195,2	59,128,2	61,194,2	63,125,2	65,147,2	67,96,2	69,186,2	71,93,2	73,26,2	75,29,2	77,132,2	79,162,2	81,129,2	83,88,2	85,25,2	87,74,2	89,165,2	91,48,2	93,176,2	95,156,2	97,136,2	99,34,2	101,21,2	103,63,2	105,59,2	107,68,2	109,191,2	111,42,2	113,111,2	115,52,2	117,120,2	119,177,2	121,102,2	123,76,2	125,89,2	127,145,2	129,170,2	131,57,2	133,146,2	135,54,2	137,153,2	139,188,2	141,152,2	143,67,2	145,155,2	147,72,2	149,90,2	151,27,2	153,106,2	155,160,2	157,28,2	159,185,2	161,84,2	163,190,2	165,175,2	167,85,2	169,107,2	171,126,2	173,131,2	175,58,2	177,169,2	179,144,2	181,50,2	183,110,2	185,174,2	187,179,2	189,22,2	191,71,2	193,86,2	195,134,2	197,135,2	199,192,2	201,161,2	203,39,2	205,75,2	207,164,2	209,172,2	211,158,2	213,44,2	215,24,2	217,148,2	219,43,2	221,112,2	223,77,2	225,130,2	227,196,2	229,101,2	231,105,2	233,200,2	235,95,2	237,137,2	239,62,2	241,124,2	243,114,2	245,197,2	247,38,2	249,115,2	251,178,2	253,61,2	255,181,2	257,79,2	259,91,2	261,55,2	263,168,2	265,32,2	267,109,2	269,97,2	271,198,2	273,183,2	275,173,2	277,23,2	279,104,2	281,98,2	283,166,2	285,37,2	287,193,2	289,103,2	291,94,2	293,139,2	295,121,2	297,66,2	299,60,2	301,113,2	303,99,2	305,187,2	307,46,2	309,133,2	311,31,2	313,108,2	315,171,2	317,100,2	319,81,2	321,142,2	323,36,2	325,70,2	327,182,2	329,1,2	331,64,2	333,151,2	335,49,2	337,73,2	339,150,2	341,4,2	343,30,2	345,119,2	347,5,2	349,9,2	351,180,2	353,13,2	355,35,2	357,47,2	359,19,2	361,16,2	363,12,2	365,140,2	367,8,2	369,56,2	371,2,2	373,17,2	375,143,2	377,3,2	379,10,2	381,163,2	383,11,2	385,6,2	387,159,2	389,18,2	391,82,2	393,14,2	395,15,2	397,20,2	399,7,2	401,0,1	
# Incoming

# Outgoing

