7699
# CPU
10,4,2	12,48,2	19,8,2	21,24,2	23,36,2	28,12,2	133,40,2	376,44,2	391,68,2	799,84,2	1150,20,2	1153,60,2	1165,108,2	1183,28,2	1222,52,2	1225,56,2	1486,76,2	1957,104,2	1990,16,2	2875,72,2	2929,80,2	3001,92,2	3193,96,2	3223,100,2	3421,116,2	3424,120,2	3511,32,2	3532,64,2	3556,88,2	3613,112,2	
7,3,2	16,7,2	18,75,2	25,11,2	27,15,2	1957,23,2	2095,47,2	2176,43,2	2185,51,2	2194,79,2	3043,91,2	3154,95,2	3184,107,2	3217,35,2	3220,71,2	3337,103,2	3385,111,2	3403,115,2	3412,31,2	3421,67,2	3454,19,2	3487,39,2	3514,59,2	3559,99,2	3607,27,2	3628,119,2	7513,87,2	7570,55,2	7642,83,2	7678,63,2	
4,2,2	6,74,2	8,110,2	13,6,2	15,42,2	22,10,2	76,54,2	151,26,2	307,38,2	358,86,2	400,106,2	457,114,2	544,62,2	772,82,2	856,118,2	898,34,2	1024,98,2	1078,30,2	1234,58,2	1924,102,2	1987,14,2	2083,18,2	2191,46,2	2194,50,2	2893,78,2	2941,90,2	3004,94,2	3460,22,2	3547,66,2	3550,70,2	
0,0,1	1,1,2	3,9,2	5,5,2	28,61,2	67,109,2	166,97,2	238,25,2	529,73,2	640,89,2	715,53,2	718,77,2	745,69,2	754,81,2	772,29,2	793,41,2	805,49,2	814,57,2	841,113,2	853,13,2	859,17,2	862,45,2	880,101,2	889,33,2	904,93,2	1027,105,2	1843,21,2	1921,117,2	1936,85,2	2218,65,2	2491,37,2	7698,121,1	
# Incoming
7,(0, 4),3	16,(0, 8),3	25,(0, 12),3	28,(1, 20),15	43,(2, 32),21	109,(3, 16),18	127,(3, 40),6	133,(1, 72),6	154,(3, 88),12	166,(2, 112),9	214,(3, 76),18	232,(6, 52),9	241,(6, 100),33	274,(6, 112),9	283,(10, 44),93	376,(10, 68),15	391,(10, 80),9	400,(10, 112),3	469,(3, 56),36	772,(3, 84),27	799,(3, 100),15	817,(3, 112),18	835,(6, 20),246	1081,(7, 20),69	1150,(7, 60),3	1153,(7, 76),6	1159,(7, 100),3	1162,(7, 108),3	1165,(11, 28),18	1219,(11, 52),3	1222,(11, 56),3	1234,(11, 64),192	1426,(11, 72),48	1474,(11, 76),12	1882,(1, 88),18	1924,(1, 104),33	1969,(1, 116),3	1972,(1, 120),3	1987,(9, 16),3	2872,(9, 72),3	2893,(9, 80),36	2941,(9, 92),60	3004,(9, 96),189	3193,(9, 100),30	3403,(9, 116),18	3421,(9, 120),3	3460,(5, 32),51	3511,(5, 64),21	3550,(5, 88),6	3559,(5, 112),54	
4,(0, 3),3	7,(2, 19),3	13,(0, 7),3	16,(2, 55),3	22,(0, 11),3	28,(2, 95),9	37,(2, 107),6	61,(1, 39),6	67,(2, 31),63	139,(1, 79),15	154,(1, 87),1728	1882,(4, 27),3	1885,(4, 35),15	1900,(4, 103),3	1903,(1, 95),18	1921,(4, 59),21	1942,(4, 91),6	1948,(6, 23),9	1957,(1, 107),12	1969,(2, 111),102	2071,(6, 55),12	2083,(6, 107),3	2086,(8, 31),3	2089,(8, 43),3	2092,(10, 47),3	2095,(9, 35),48	2143,(9, 39),3	2146,(9, 43),30	2176,(8, 51),9	2185,(8, 79),9	2194,(9, 55),54	2248,(9, 67),3	2254,(9, 71),618	2872,(2, 91),171	3043,(4, 31),48	3091,(4, 95),63	3154,(4, 107),30	3184,(6, 35),33	3217,(12, 71),3	3223,(9, 103),114	3337,(9, 111),48	3385,(9, 115),18	3403,(10, 31),9	3412,(10, 67),9	3424,(5, 19),30	3454,(6, 39),33	3487,(6, 59),27	3514,(10, 63),36	3556,(5, 99),3	3559,(12, 27),48	3613,(5, 119),15	3628,(8, 83),1644	5272,(8, 87),2241	7513,(10, 55),57	7570,(10, 83),72	7642,(12, 63),36	
1,(0, 2),3	10,(0, 6),3	19,(0, 10),3	43,(1, 26),18	67,(1, 54),9	76,(1, 62),57	133,(3, 26),18	151,(3, 78),3	172,(3, 22),42	214,(4, 14),54	268,(4, 30),24	292,(4, 34),3	295,(4, 38),12	307,(4, 50),3	310,(4, 58),3	313,(4, 62),21	334,(4, 66),3	337,(4, 82),15	352,(4, 86),6	358,(8, 34),18	376,(8, 106),24	400,(12, 70),9	409,(12, 98),45	454,(12, 114),3	457,(12, 118),21	505,(3, 62),39	544,(3, 70),204	754,(3, 82),18	841,(3, 118),15	856,(7, 14),9	865,(7, 22),3	868,(7, 30),15	889,(7, 34),9	898,(7, 70),3	904,(7, 98),120	1045,(11, 18),21	1066,(11, 30),12	1183,(11, 50),36	1225,(11, 58),9	1900,(1, 94),3	1921,(1, 102),3	1975,(9, 14),12	1990,(9, 18),93	2083,(9, 22),12	2176,(9, 46),15	2191,(9, 50),3	2251,(9, 70),3	2875,(9, 78),18	2929,(9, 90),12	3001,(9, 94),3	3454,(5, 22),6	3532,(5, 66),15	3547,(5, 70),3	
10,(2, 49),6	19,(2, 61),9	64,(2, 109),3	67,(3, 13),42	130,(2, 65),21	151,(2, 97),15	166,(3, 21),6	175,(2, 117),39	214,(74, 121),18	232,(3, 25),6	238,(3, 41),18	256,(3, 45),213	469,(110, 121),18	487,(4, 17),3	490,(4, 73),39	529,(4, 85),96	625,(4, 89),15	640,(4, 93),6	646,(4, 117),15	661,(48, 121),18	679,(6, 13),12	691,(6, 53),24	715,(6, 77),3	718,(6, 117),3	721,(42, 121),18	739,(8, 69),6	745,(10, 21),3	748,(3, 81),6	754,(8, 29),18	772,(24, 121),18	790,(10, 41),3	793,(10, 49),12	805,(10, 57),9	814,(3, 105),3	817,(36, 121),18	835,(3, 113),6	841,(12, 13),12	853,(12, 17),6	859,(12, 45),3	862,(12, 93),3	865,(12, 101),15	883,(7, 33),6	901,(7, 93),3	904,(8, 37),54	958,(40, 121),18	976,(44, 121),18	994,(68, 121),18	1024,(7, 105),3	1027,(75, 121),18	1045,(84, 121),18	1078,(11, 65),3	1081,(6, 21),762	1843,(7, 117),78	1921,(11, 85),15	1936,(15, 121),18	1954,(20, 121),18	1972,(60, 121),18	1990,(108, 121),18	2008,(28, 121),18	2026,(52, 121),18	2044,(56, 121),18	2062,(76, 121),18	2095,(10, 65),123	2218,(12, 37),273	2491,(54, 121),18	2509,(26, 121),18	2527,(38, 121),18	2545,(86, 121),18	2563,(106, 121),18	2581,(114, 121),18	2599,(62, 121),18	2617,(82, 121),18	2635,(118, 121),18	2653,(34, 121),18	2671,(98, 121),18	2689,(30, 121),18	2707,(58, 121),18	2725,(102, 121),18	2743,(104, 121),18	2761,(23, 121),18	2779,(14, 121),18	2797,(16, 121),18	2815,(18, 121),18	2833,(47, 121),18	2851,(43, 121),18	2869,(51, 121),18	2887,(79, 121),18	2905,(72, 121),18	2931,(80, 121),18	3003,(92, 121),18	3043,(46, 121),18	3061,(50, 121),18	3079,(78, 121),18	3097,(90, 121),18	3115,(94, 121),18	3133,(91, 121),18	3156,(95, 121),18	3186,(107, 121),18	3220,(96, 121),18	3238,(35, 121),18	3256,(71, 121),18	3274,(100, 121),18	3339,(103, 121),18	3387,(111, 121),18	3405,(115, 121),18	3423,(31, 121),18	3441,(116, 121),18	3459,(67, 121),18	3477,(120, 121),18	3495,(19, 121),18	3513,(39, 121),18	3531,(32, 121),18	3550,(22, 121),18	3568,(59, 121),18	3586,(66, 121),18	3607,(64, 121),18	3625,(70, 121),18	3643,(99, 121),18	3661,(27, 121),18	3679,(119, 121),18	7513,(88, 121),18	7531,(112, 121),18	7549,(87, 121),18	7572,(55, 121),18	7644,(83, 121),18	7680,(63, 121),18	
# Outgoing
214,(4, 14),54	268,(4, 30),24	292,(4, 34),3	295,(4, 38),12	307,(4, 50),3	310,(4, 58),3	313,(4, 62),21	334,(4, 66),3	337,(4, 82),15	352,(4, 86),6	358,(8, 34),18	376,(8, 106),24	400,(12, 70),9	409,(12, 98),45	454,(12, 114),3	457,(12, 118),21	487,(4, 17),3	490,(4, 73),39	529,(4, 85),96	625,(4, 89),15	640,(4, 93),6	646,(4, 117),15	661,(48, 121),18	739,(8, 69),6	754,(8, 29),18	772,(24, 121),18	817,(36, 121),18	841,(12, 13),12	853,(12, 17),6	859,(12, 45),3	862,(12, 93),3	865,(12, 101),15	904,(8, 37),54	958,(40, 121),18	976,(44, 121),18	994,(68, 121),18	1045,(84, 121),18	1882,(4, 27),3	1885,(4, 35),15	1900,(4, 103),3	1921,(4, 59),21	1942,(4, 91),6	1954,(20, 121),18	1972,(60, 121),18	1990,(108, 121),18	2008,(28, 121),18	2026,(52, 121),18	2044,(56, 121),18	2062,(76, 121),18	2086,(8, 31),3	2089,(8, 43),3	2176,(8, 51),9	2185,(8, 79),9	2218,(12, 37),273	2743,(104, 121),18	2797,(16, 121),18	2905,(72, 121),18	2931,(80, 121),18	3003,(92, 121),18	3043,(4, 31),48	3091,(4, 95),63	3154,(4, 107),30	3217,(12, 71),3	3220,(96, 121),18	3274,(100, 121),18	3441,(116, 121),18	3477,(120, 121),18	3531,(32, 121),18	3559,(12, 27),48	3607,(64, 121),18	3628,(8, 83),1644	5272,(8, 87),2241	7513,(88, 121),18	7531,(112, 121),18	7642,(12, 63),36	
67,(3, 13),42	109,(3, 16),18	127,(3, 40),6	133,(3, 26),18	151,(3, 78),3	154,(3, 88),12	166,(3, 21),6	172,(3, 22),42	214,(3, 76),18	232,(3, 25),6	238,(3, 41),18	256,(3, 45),213	469,(3, 56),36	505,(3, 62),39	544,(3, 70),204	748,(3, 81),6	754,(3, 82),18	772,(3, 84),27	799,(3, 100),15	814,(3, 105),3	817,(3, 112),18	835,(3, 113),6	841,(3, 118),15	856,(7, 14),9	865,(7, 22),3	868,(7, 30),15	883,(7, 33),6	889,(7, 34),9	898,(7, 70),3	901,(7, 93),3	904,(7, 98),120	1024,(7, 105),3	1027,(75, 121),18	1045,(11, 18),21	1066,(11, 30),12	1078,(11, 65),3	1081,(7, 20),69	1150,(7, 60),3	1153,(7, 76),6	1159,(7, 100),3	1162,(7, 108),3	1165,(11, 28),18	1183,(11, 50),36	1219,(11, 52),3	1222,(11, 56),3	1225,(11, 58),9	1234,(11, 64),192	1426,(11, 72),48	1474,(11, 76),12	1843,(7, 117),78	1921,(11, 85),15	1936,(15, 121),18	2761,(23, 121),18	2833,(47, 121),18	2851,(43, 121),18	2869,(51, 121),18	2887,(79, 121),18	3133,(91, 121),18	3156,(95, 121),18	3186,(107, 121),18	3238,(35, 121),18	3256,(71, 121),18	3339,(103, 121),18	3387,(111, 121),18	3405,(115, 121),18	3423,(31, 121),18	3459,(67, 121),18	3495,(19, 121),18	3513,(39, 121),18	3568,(59, 121),18	3643,(99, 121),18	3661,(27, 121),18	3679,(119, 121),18	7549,(87, 121),18	7572,(55, 121),18	7644,(83, 121),18	7680,(63, 121),18	
7,(2, 19),3	10,(2, 49),6	16,(2, 55),3	19,(2, 61),9	28,(2, 95),9	37,(2, 107),6	43,(2, 32),21	64,(2, 109),3	67,(2, 31),63	130,(2, 65),21	151,(2, 97),15	166,(2, 112),9	175,(2, 117),39	214,(74, 121),18	232,(6, 52),9	241,(6, 100),33	274,(6, 112),9	283,(10, 44),93	376,(10, 68),15	391,(10, 80),9	400,(10, 112),3	469,(110, 121),18	679,(6, 13),12	691,(6, 53),24	715,(6, 77),3	718,(6, 117),3	721,(42, 121),18	745,(10, 21),3	790,(10, 41),3	793,(10, 49),12	805,(10, 57),9	835,(6, 20),246	1081,(6, 21),762	1948,(6, 23),9	1969,(2, 111),102	2071,(6, 55),12	2083,(6, 107),3	2092,(10, 47),3	2095,(10, 65),123	2491,(54, 121),18	2509,(26, 121),18	2527,(38, 121),18	2545,(86, 121),18	2563,(106, 121),18	2581,(114, 121),18	2599,(62, 121),18	2617,(82, 121),18	2635,(118, 121),18	2653,(34, 121),18	2671,(98, 121),18	2689,(30, 121),18	2707,(58, 121),18	2725,(102, 121),18	2779,(14, 121),18	2815,(18, 121),18	2872,(2, 91),171	3043,(46, 121),18	3061,(50, 121),18	3079,(78, 121),18	3097,(90, 121),18	3115,(94, 121),18	3184,(6, 35),33	3403,(10, 31),9	3412,(10, 67),9	3454,(6, 39),33	3487,(6, 59),27	3514,(10, 63),36	3550,(22, 121),18	3586,(66, 121),18	3625,(70, 121),18	7513,(10, 55),57	7570,(10, 83),72	
1,(0, 2),3	4,(0, 3),3	7,(0, 4),3	10,(0, 6),3	13,(0, 7),3	16,(0, 8),3	19,(0, 10),3	22,(0, 11),3	25,(0, 12),3	28,(1, 20),15	43,(1, 26),18	61,(1, 39),6	67,(1, 54),9	76,(1, 62),57	133,(1, 72),6	139,(1, 79),15	154,(1, 87),1728	1882,(1, 88),18	1900,(1, 94),3	1903,(1, 95),18	1921,(1, 102),3	1924,(1, 104),33	1957,(1, 107),12	1969,(1, 116),3	1972,(1, 120),3	1975,(9, 14),12	1987,(9, 16),3	1990,(9, 18),93	2083,(9, 22),12	2095,(9, 35),48	2143,(9, 39),3	2146,(9, 43),30	2176,(9, 46),15	2191,(9, 50),3	2194,(9, 55),54	2248,(9, 67),3	2251,(9, 70),3	2254,(9, 71),618	2872,(9, 72),3	2875,(9, 78),18	2893,(9, 80),36	2929,(9, 90),12	2941,(9, 92),60	3001,(9, 94),3	3004,(9, 96),189	3193,(9, 100),30	3223,(9, 103),114	3337,(9, 111),48	3385,(9, 115),18	3403,(9, 116),18	3421,(9, 120),3	3424,(5, 19),30	3454,(5, 22),6	3460,(5, 32),51	3511,(5, 64),21	3532,(5, 66),15	3547,(5, 70),3	3550,(5, 88),6	3556,(5, 99),3	3559,(5, 112),54	3613,(5, 119),15	
