20474
# CPU
19,10,18	37,20,18	2993,40,18	3681,170,18	4453,120,18	5551,150,18	14725,190,18	14841,30,18	15513,50,18	15559,60,18	15613,70,18	15725,80,18	15939,90,18	16039,100,18	16117,110,18	16803,160,18	16919,180,18	16997,140,18	18077,130,18	20449,200,18	
17,9,18	35,19,18	1845,29,18	2103,79,18	2515,119,18	2643,59,18	2919,129,18	3201,49,18	4289,89,18	4345,69,18	5069,139,18	9495,149,18	14545,179,18	14707,189,18	15455,39,18	16015,99,18	16097,109,18	16863,169,18	17063,199,18	18403,159,18	
15,8,18	33,18,18	4711,28,18	5423,78,18	5455,138,18	5613,148,18	6809,98,18	11481,48,18	14787,198,18	15443,38,18	15609,68,18	15847,88,18	16309,118,18	16727,58,18	16807,108,18	16853,168,18	16905,178,18	16949,128,18	17031,188,18	18181,158,18	
13,7,18	31,17,18	1871,77,18	2625,27,18	2803,87,18	2945,157,18	4639,57,18	5357,107,18	9583,67,18	10841,97,18	15369,37,18	15503,47,18	16307,117,18	16529,137,18	16703,147,18	16851,167,18	16869,177,18	17023,187,18	17061,197,18	17631,127,18	
11,6,18	29,16,18	2269,36,18	2435,56,18	4925,96,18	5615,156,18	14805,26,18	15499,46,18	15583,66,18	15723,76,18	15813,86,18	16069,106,18	16291,116,18	16325,126,18	16515,136,18	16649,146,18	16831,166,18	16865,176,18	17025,186,18	17059,196,18	
9,5,18	27,15,18	2137,85,18	7031,25,18	14467,175,18	14567,185,18	15367,35,18	15497,45,18	15557,55,18	15581,65,18	15679,75,18	16067,105,18	16267,115,18	16321,125,18	16513,135,18	16643,145,18	16757,155,18	16821,165,18	16885,95,18	17049,195,18	
7,4,18	25,14,18	2057,74,18	2603,24,18	2915,154,18	2953,94,18	3871,44,18	12743,134,18	13025,174,18	13793,114,18	14745,194,18	15365,34,18	15553,54,18	15579,64,18	15801,84,18	16059,104,18	16315,124,18	16641,144,18	16897,164,18	18635,184,18	
5,3,18	23,13,18	987,63,18	2349,113,18	4635,153,18	5423,23,18	5763,43,18	5841,123,18	5957,173,18	14845,33,18	15787,83,18	16009,93,18	16041,103,18	16473,133,18	16589,143,18	16799,73,18	16817,163,18	16959,183,18	17047,193,18	17271,53,18	
3,2,18	21,12,18	2141,32,18	2495,22,18	2607,52,18	15479,42,18	15605,92,18	15623,72,18	15683,102,18	15713,112,18	15739,82,18	16355,162,18	16385,122,18	16471,132,18	16537,142,18	16733,152,18	17319,62,18	18471,172,18	18511,182,18	18679,192,18	
0,0,1	1,1,18	19,11,18	2247,61,18	2803,131,18	2917,21,18	2949,181,18	3137,151,18	3575,141,18	3629,31,18	3659,111,18	4063,71,18	4643,81,18	4767,41,18	5003,101,18	5021,121,18	5149,191,18	6029,171,18	6969,91,18	7715,161,18	16719,51,18	20473,201,1	
# Incoming
17,(0, 10),2	35,(0, 20),2	63,(8, 40),8	81,(3, 30),26	107,(9, 30),2	109,(9, 40),2	117,(3, 40),4	121,(9, 50),2	123,(9, 60),2	133,(3, 60),2	135,(7, 50),2	161,(19, 70),2	171,(7, 70),2	173,(5, 40),12	191,(7, 30),20	211,(9, 110),8	237,(2, 50),524	761,(4, 80),22	783,(4, 100),2	785,(5, 200),2	787,(6, 30),2	789,(6, 60),2	791,(7, 120),2	793,(2, 60),2	795,(6, 40),10	805,(7, 190),2	807,(17, 50),2	809,(3, 110),6	815,(3, 130),2	817,(8, 170),4	821,(2, 70),10	831,(3, 50),40	871,(3, 100),34	905,(6, 120),6	911,(16, 40),4	915,(2, 80),58	973,(3, 90),172	1145,(4, 140),2	1147,(4, 160),2	1149,(4, 170),2	1151,(8, 90),8	1159,(19, 100),2	1161,(3, 120),54	1215,(5, 90),60	1275,(18, 60),2	1277,(18, 100),2	1279,(4, 180),14	1293,(5, 180),8	1301,(4, 190),16	1317,(7, 110),6	1323,(7, 130),8	1331,(7, 150),6	1337,(15, 60),2	1339,(2, 120),196	1535,(4, 30),138	1673,(2, 140),2	1675,(6, 80),14	1689,(6, 140),20	1709,(7, 40),32	1741,(9, 150),6	1747,(3, 160),4	1751,(14, 30),2	1753,(14, 40),2	1755,(3, 180),10	1765,(15, 100),2	1767,(3, 190),4	1771,(17, 150),2	1773,(14, 70),2	1775,(6, 170),30	1805,(7, 140),16	1821,(9, 140),10	1831,(14, 80),2	1833,(14, 90),2	1835,(17, 180),2	1837,(14, 100),2	1839,(15, 50),6	1845,(1, 30),2	1847,(9, 180),18	1865,(1, 40),20	1885,(13, 50),6	1891,(19, 110),2	1893,(2, 150),34	1927,(15, 70),8	1935,(12, 40),2	1937,(15, 170),4	1941,(14, 150),2	1943,(17, 110),4	1947,(1, 50),2	1949,(6, 200),32	1981,(8, 60),38	2025,(3, 170),72	2097,(2, 200),10	2107,(8, 80),30	2137,(8, 110),8	2145,(15, 140),18	2163,(15, 150),10	2173,(1, 90),42	2215,(18, 120),2	2217,(19, 140),2	2219,(1, 100),2	2221,(4, 90),162	2383,(7, 180),104	2487,(9, 120),48	2535,(14, 50),20	2555,(14, 130),8	2563,(16, 80),2	2565,(1, 130),2	2567,(12, 80),4	2571,(15, 160),8	2579,(16, 90),8	2587,(1, 140),2	2589,(5, 80),320	2909,(9, 160),40	2949,(13, 30),34	2983,(13, 130),2	2985,(17, 40),8	2993,(17, 200),8	3001,(18, 70),10	3013,(1, 170),10	3023,(13, 60),256	3279,(14, 110),14	3293,(14, 120),26	3319,(14, 140),10	3329,(14, 200),22	3351,(16, 50),16	3367,(16, 150),2	3369,(18, 80),12	3381,(18, 170),4	3391,(13, 100),50	3441,(18, 190),14	3527,(19, 90),16	3543,(19, 180),20	3563,(19, 190),2	3621,(13, 170),60	3681,(13, 180),16	3871,(15, 30),36	4189,(17, 80),82	4341,(15, 110),34	4375,(15, 120),78	4453,(19, 200),112	4767,(12, 50),48	4897,(12, 90),6	4903,(17, 130),88	5009,(12, 110),2	5043,(12, 130),2	5095,(12, 100),258	5353,(18, 150),198	5615,(12, 160),40	5979,(12, 190),14	14545,(1, 180),4	14707,(1, 190),18	14805,(11, 30),36	15503,(11, 50),10	15557,(11, 60),2	15609,(11, 70),4	15723,(11, 80),2	15847,(11, 90),92	16015,(11, 100),24	16097,(11, 110),20	16793,(11, 160),10	16905,(11, 180),14	16949,(16, 140),48	17631,(16, 130),446	18679,(16, 200),1770	
15,(0, 9),2	33,(0, 19),2	39,(2, 39),2	77,(8, 59),2	115,(3, 39),2	131,(3, 49),2	137,(5, 119),2	139,(10, 49),2	141,(10, 109),2	143,(10, 179),2	145,(20, 39),2	147,(7, 29),14	163,(7, 59),8	171,(10, 89),8	179,(10, 199),4	183,(4, 29),46	229,(5, 29),36	265,(10, 69),20	285,(10, 99),14	303,(4, 39),12	315,(7, 79),2	319,(4, 59),2	323,(20, 99),2	327,(7, 99),4	331,(8, 139),2	339,(7, 109),4	349,(7, 139),2	357,(4, 89),2	359,(8, 129),8	367,(20, 29),12	389,(5, 129),2	393,(5, 139),4	397,(8, 199),2	403,(5, 149),2	405,(10, 29),48	453,(10, 169),36	543,(3, 59),10	553,(8, 179),18	571,(20, 89),18	595,(20, 139),14	609,(6, 49),2	613,(6, 59),2	615,(7, 129),16	635,(6, 69),14	649,(7, 119),28	677,(18, 139),8	685,(18, 169),4	701,(7, 149),10	711,(7, 159),12	723,(3, 79),22	745,(6, 79),16	773,(2, 59),20	793,(17, 89),10	805,(6, 99),8	813,(6, 189),2	817,(3, 139),2	819,(3, 149),2	821,(5, 169),6	837,(15, 119),2	839,(4, 119),12	853,(4, 179),2	855,(6, 129),16	871,(8, 169),26	903,(16, 29),2	927,(6, 149),6	933,(17, 119),12	963,(17, 129),4	967,(17, 149),8	975,(17, 159),2	977,(18, 199),6	983,(17, 179),2	985,(17, 199),2	987,(18, 189),8	997,(16, 89),2	999,(4, 129),10	1009,(5, 159),30	1053,(2, 89),20	1075,(2, 99),62	1137,(6, 159),46	1185,(4, 169),28	1213,(10, 189),60	1275,(5, 199),18	1301,(15, 49),12	1317,(4, 199),20	1337,(2, 119),2	1339,(7, 179),78	1417,(15, 109),6	1423,(15, 149),2	1429,(18, 39),16	1461,(16, 79),4	1479,(15, 139),6	1485,(15, 159),10	1511,(3, 129),14	1525,(15, 169),6	1533,(14, 59),2	1567,(6, 109),106	1673,(15, 199),44	1719,(14, 39),8	1741,(17, 139),30	1771,(3, 199),2	1811,(2, 149),2	1835,(14, 99),2	1841,(1, 29),4	1855,(13, 79),2	1859,(14, 179),6	1869,(14, 139),8	1923,(16, 69),12	1945,(1, 49),2	1947,(15, 79),68	2015,(15, 99),52	2081,(16, 119),2	2083,(16, 129),4	2089,(16, 139),12	2101,(1, 79),2	2107,(12, 49),12	2121,(12, 89),2	2123,(16, 179),14	2171,(1, 89),2	2173,(18, 69),28	2235,(16, 149),24	2291,(13, 119),2	2329,(1, 109),16	2397,(13, 139),2	2431,(13, 159),2	2433,(18, 59),54	2497,(1, 119),18	2515,(2, 179),50	2565,(20, 59),78	2667,(1, 149),6	2673,(2, 129),246	2921,(13, 189),10	2961,(1, 169),52	3147,(17, 49),54	3255,(14, 189),18	3279,(13, 69),112	3441,(13, 109),40	3481,(20, 159),60	4063,(15, 89),226	4289,(17, 69),56	5007,(12, 109),2	5063,(12, 139),6	5977,(12, 189),2	5999,(12, 199),76	6297,(4, 149),3198	14467,(1, 179),78	14569,(1, 189),138	14787,(1, 199),6	15443,(11, 39),12	16009,(11, 99),6	16071,(11, 109),26	16853,(11, 169),10	17061,(11, 199),2	18181,(16, 159),222	
13,(0, 8),2	25,(2, 38),2	31,(0, 18),2	79,(1, 28),1762	1841,(2, 48),2	1843,(2, 78),2	1845,(2, 98),6	1851,(2, 118),4	1855,(2, 148),2	1857,(3, 38),2	1859,(1, 38),6	1865,(2, 108),10	1875,(2, 128),6	1881,(2, 138),12	1893,(3, 128),2	1895,(3, 138),2	1897,(3, 158),6	1903,(3, 178),4	1907,(3, 188),22	1929,(2, 188),4	1933,(3, 148),92	2025,(4, 28),12	2037,(4, 38),2	2039,(4, 48),2	2041,(4, 78),2	2043,(4, 128),2	2045,(4, 138),12	2057,(4, 168),2	2059,(1, 78),42	2101,(4, 58),58	2159,(4, 158),10	2169,(1, 88),2	2171,(4, 188),8	2179,(5, 38),4	2183,(5, 48),2	2185,(5, 148),2	2187,(5, 168),2	2189,(3, 198),48	2237,(5, 78),36	2273,(5, 138),8	2281,(6, 28),40	2321,(6, 38),4	2325,(6, 58),2	2327,(1, 108),2	2329,(6, 48),10	2339,(6, 68),2	2341,(6, 108),16	2357,(6, 128),20	2377,(6, 148),4	2381,(9, 48),2	2383,(4, 178),50	2433,(4, 198),18	2451,(6, 138),78	2529,(6, 168),12	2541,(7, 28),8	2549,(7, 58),6	2555,(7, 138),4	2559,(9, 78),2	2561,(9, 188),2	2563,(1, 128),2	2565,(7, 98),18	2583,(1, 138),4	2587,(7, 108),10	2597,(7, 148),10	2607,(7, 158),6	2613,(7, 188),6	2619,(9, 98),12	2631,(9, 118),10	2641,(9, 198),2	2643,(10, 28),2	2645,(10, 78),8	2653,(10, 98),4	2657,(10, 158),2	2659,(1, 148),8	2667,(10, 58),110	2777,(10, 108),6	2783,(10, 118),8	2791,(10, 188),12	2803,(10, 198),2	2805,(13, 28),6	2811,(13, 48),4	2815,(13, 68),6	2821,(13, 108),2	2823,(13, 118),16	2839,(13, 148),18	2857,(13, 168),2	2859,(17, 48),2	2861,(17, 68),18	2879,(17, 108),2	2883,(6, 198),32	2915,(14, 38),16	2931,(13, 198),6	2937,(12, 28),8	2945,(1, 158),6	2951,(10, 148),114	3065,(17, 38),82	3147,(20, 38),6	3153,(20, 58),16	3169,(20, 78),22	3191,(20, 88),6	3197,(20, 108),4	3201,(17, 168),4	3205,(17, 198),12	3217,(20, 118),2	3219,(20, 128),2	3221,(20, 138),18	3239,(20, 148),2	3241,(20, 168),2	3243,(20, 178),2	3251,(14, 48),2	3253,(14, 158),2	3255,(9, 108),114	3369,(9, 128),158	3527,(14, 78),32	3559,(14, 128),6	3565,(16, 68),2	3567,(2, 178),108	3675,(9, 148),46	3721,(14, 58),46	3767,(14, 88),32	3799,(14, 168),4	3803,(19, 38),20	3823,(19, 48),2	3825,(7, 68),330	4155,(13, 38),246	4401,(14, 98),144	4545,(14, 108),34	4579,(14, 118),60	4639,(14, 178),38	4677,(14, 188),28	4705,(14, 198),4	4709,(15, 28),2	4711,(15, 88),4	4715,(15, 118),18	4733,(15, 128),14	4747,(15, 188),4	4815,(12, 58),12	4827,(12, 68),4	4831,(12, 78),2	4859,(12, 88),38	4925,(12, 98),48	5003,(12, 108),4	5011,(12, 118),4	5041,(12, 128),2	5043,(15, 58),248	5291,(15, 138),84	5375,(19, 58),30	5405,(19, 78),18	5423,(19, 158),16	5439,(19, 188),4	5445,(12, 138),10	5473,(12, 148),140	5613,(19, 108),54	5667,(19, 128),38	5763,(20, 48),70	5869,(12, 168),2	5967,(12, 188),10	5977,(13, 158),448	6425,(19, 98),384	6969,(20, 158),274	7379,(13, 128),1386	11477,(16, 48),4	14771,(1, 198),16	15369,(11, 38),74	15583,(11, 68),26	15813,(11, 88),34	16069,(11, 108),2	16307,(11, 118),2	16421,(11, 128),22	16719,(16, 58),8	16757,(11, 158),36	16799,(16, 108),8	16807,(16, 178),2	16851,(11, 168),2	16869,(11, 178),36	16905,(16, 128),44	17025,(11, 188),6	18077,(16, 158),104	
11,(0, 7),2	29,(0, 17),2	53,(8, 27),10	71,(2, 27),50	121,(3, 27),10	131,(5, 37),2	133,(9, 37),2	137,(3, 77),2	139,(4, 27),44	183,(10, 47),2	185,(5, 47),32	217,(10, 107),2	219,(9, 147),2	221,(8, 87),2	223,(10, 197),2	225,(5, 77),4	229,(8, 47),42	271,(8, 77),20	291,(9, 127),18	309,(10, 97),10	319,(20, 47),4	323,(9, 167),8	331,(4, 67),4	335,(8, 127),2	337,(9, 157),18	355,(4, 87),2	357,(19, 107),2	359,(10, 187),8	367,(19, 127),2	371,(5, 97),2	373,(5, 107),12	385,(20, 97),4	391,(5, 137),2	393,(9, 27),50	443,(19, 57),4	447,(19, 77),4	451,(5, 157),2	453,(18, 27),2	455,(19, 97),8	479,(19, 137),4	483,(3, 57),60	547,(19, 117),30	579,(6, 37),8	587,(18, 147),2	589,(19, 157),4	593,(20, 137),2	595,(6, 47),14	611,(6, 57),2	613,(3, 67),14	627,(4, 47),104	731,(5, 147),8	739,(18, 177),2	741,(6, 77),2	743,(4, 107),10	753,(20, 187),4	757,(15, 67),2	759,(3, 87),6	765,(6, 97),2	767,(6, 127),2	769,(18, 197),6	779,(15, 77),6	793,(6, 187),2	795,(20, 27),12	811,(2, 67),10	821,(3, 107),6	827,(3, 137),2	829,(4, 117),10	839,(19, 167),12	851,(4, 157),2	859,(2, 77),56	915,(6, 117),12	927,(8, 197),22	949,(18, 77),16	965,(6, 157),12	977,(16, 27),6	999,(15, 187),6	1009,(4, 147),20	1029,(19, 187),18	1047,(2, 87),6	1053,(9, 137),72	1125,(19, 197),10	1135,(4, 167),8	1143,(20, 37),10	1159,(14, 27),2	1161,(20, 87),22	1183,(6, 167),34	1223,(16, 67),4	1243,(3, 117),72	1315,(15, 97),12	1335,(2, 117),2	1337,(4, 177),22	1359,(10, 37),58	1417,(14, 57),2	1419,(3, 127),92	1511,(9, 177),52	1563,(15, 47),24	1587,(19, 47),42	1637,(15, 137),12	1671,(2, 137),2	1673,(4, 187),46	1729,(14, 97),2	1731,(15, 147),30	1765,(3, 187),2	1767,(19, 177),36	1819,(2, 157),10	1835,(2, 167),4	1841,(3, 197),8	1849,(1, 37),10	1859,(13, 67),2	1861,(2, 177),4	1865,(14, 107),4	1869,(13, 77),2	1871,(6, 177),52	1941,(12, 47),2	1943,(1, 47),2	1945,(20, 157),20	1991,(14, 137),2	1993,(16, 147),2	1997,(14, 197),2	2019,(18, 67),36	2059,(14, 127),16	2077,(16, 117),4	2083,(14, 147),12	2097,(13, 27),18	2115,(13, 37),20	2135,(13, 117),2	2137,(1, 87),32	2171,(20, 57),78	2325,(1, 107),2	2341,(13, 57),42	2383,(13, 87),6	2401,(13, 147),2	2403,(18, 107),20	2439,(1, 117),58	2497,(18, 137),36	2541,(16, 167),18	2603,(12, 27),22	2625,(13, 97),40	2733,(18, 87),70	2859,(13, 177),6	2897,(1, 157),48	2945,(2, 147),622	3567,(6, 147),340	3907,(8, 57),732	4639,(9, 197),430	5069,(12, 37),26	5095,(13, 167),48	5143,(18, 187),30	5353,(12, 107),4	5357,(12, 117),2	5359,(12, 127),78	5437,(12, 137),8	5865,(12, 167),4	5959,(12, 177),2	5965,(12, 187),2	5997,(12, 197),2	5999,(20, 67),144	9495,(14, 67),88	9583,(18, 97),1258	14745,(1, 197),26	15367,(11, 37),2	15499,(11, 47),4	16291,(11, 117),16	16325,(11, 127),96	16515,(11, 137),14	16649,(11, 147),54	16831,(11, 167),20	16865,(11, 177),4	16997,(16, 187),26	17059,(11, 197),2	17271,(16, 127),360	
9,(0, 6),2	23,(2, 36),2	27,(0, 16),2	41,(1, 26),38	79,(3, 26),2	87,(9, 26),8	105,(9, 66),2	107,(3, 36),8	127,(9, 136),2	129,(8, 56),2	133,(4, 46),2	135,(9, 76),14	149,(10, 76),4	153,(2, 46),84	237,(10, 56),8	261,(10, 146),2	263,(10, 196),2	265,(5, 76),4	275,(7, 46),4	279,(7, 56),2	289,(7, 66),2	291,(7, 76),6	299,(10, 176),6	305,(20, 36),2	307,(20, 46),2	315,(8, 116),14	329,(8, 126),2	331,(9, 176),6	337,(20, 136),2	343,(7, 116),4	347,(4, 76),2	351,(7, 156),2	353,(7, 186),2	355,(8, 146),4	361,(7, 146),6	367,(5, 86),4	379,(20, 76),6	385,(5, 116),4	389,(19, 126),2	395,(18, 26),2	401,(5, 146),2	407,(4, 66),58	465,(18, 136),6	471,(3, 56),12	483,(9, 166),12	495,(10, 136),20	517,(8, 166),34	557,(20, 86),6	563,(3, 66),50	613,(9, 36),36	649,(9, 156),22	675,(18, 166),2	679,(5, 126),30	709,(19, 56),14	723,(7, 166),12	735,(17, 26),6	745,(20, 126),6	753,(4, 146),4	757,(4, 156),2	759,(5, 166),16	775,(8, 176),24	803,(17, 156),2	807,(3, 106),2	809,(18, 56),8	817,(15, 56),2	821,(19, 186),6	829,(3, 166),2	831,(7, 126),38	869,(19, 46),20	895,(17, 166),2	897,(8, 186),28	925,(17, 96),6	933,(5, 156),58	991,(15, 46),8	999,(2, 86),48	1047,(4, 116),76	1123,(4, 126),12	1135,(5, 176),36	1171,(5, 186),28	1199,(15, 86),4	1203,(15, 126),4	1207,(15, 176),4	1211,(18, 66),12	1223,(18, 96),22	1275,(2, 106),54	1333,(2, 116),2	1335,(3, 116),84	1419,(4, 186),6	1425,(15, 26),42	1467,(15, 116),12	1481,(4, 196),16	1497,(14, 26),2	1499,(17, 56),18	1517,(20, 106),10	1531,(14, 46),2	1541,(2, 126),90	1631,(9, 186),70	1701,(20, 146),12	1727,(14, 66),2	1747,(14, 76),4	1751,(3, 176),4	1773,(13, 26),2	1775,(20, 96),38	1815,(2, 156),4	1827,(3, 186),14	1841,(10, 116),86	1929,(13, 66),4	1939,(12, 46),2	1941,(1, 46),2	1943,(2, 146),60	2003,(14, 96),12	2015,(14, 106),2	2017,(14, 116),2	2019,(14, 146),6	2025,(1, 66),18	2057,(1, 76),2	2075,(14, 136),8	2085,(2, 186),12	2097,(7, 36),158	2259,(13, 36),10	2273,(13, 76),10	2287,(13, 86),2	2289,(13, 116),2	2291,(15, 156),86	2391,(13, 126),2	2399,(13, 146),2	2405,(2, 196),28	2433,(12, 56),2	2435,(13, 156),2	2437,(1, 116),2	2445,(13, 96),30	2495,(14, 156),32	2581,(1, 136),2	2593,(13, 106),24	2631,(1, 146),28	2659,(9, 46),250	2931,(14, 166),18	2959,(1, 166),2	2961,(9, 106),294	3255,(20, 166),32	3481,(13, 136),36	3575,(13, 166),46	3697,(13, 186),18	3803,(14, 176),88	4155,(17, 66),34	4643,(17, 86),70	4717,(12, 26),36	4753,(17, 126),50	4803,(17, 186),28	4833,(12, 86),26	4907,(12, 96),18	5017,(12, 126),24	5045,(12, 136),18	5455,(12, 146),18	5613,(12, 156),2	5655,(12, 166),108	5957,(12, 176),2	5995,(12, 196),2	7031,(8, 196),2048	14567,(1, 186),2	14793,(11, 26),12	15497,(11, 46),2	15581,(11, 66),2	15679,(11, 76),44	15801,(11, 86),12	16067,(11, 106),2	16267,(11, 116),24	16321,(11, 126),4	16513,(11, 136),2	16643,(11, 146),6	16821,(11, 166),10	16863,(11, 176),2	16973,(11, 186),52	17049,(11, 196),10	
7,(0, 5),2	25,(0, 15),2	27,(2, 25),12	69,(3, 25),2	85,(8, 45),10	111,(9, 45),8	125,(4, 45),8	135,(3, 65),2	137,(7, 25),10	147,(10, 115),2	149,(2, 45),4	153,(8, 55),10	163,(9, 65),4	167,(9, 75),8	175,(9, 85),6	181,(9, 95),2	185,(20, 55),2	187,(8, 65),24	211,(8, 85),10	221,(9, 155),2	223,(19, 55),2	225,(8, 115),4	229,(10, 65),8	245,(10, 95),8	253,(10, 105),4	257,(10, 145),4	269,(4, 35),34	307,(8, 105),8	317,(4, 55),2	321,(4, 65),10	331,(7, 105),4	335,(7, 135),2	337,(8, 125),2	339,(20, 95),2	341,(4, 75),6	347,(20, 155),2	349,(4, 85),6	355,(7, 125),6	361,(19, 35),6	367,(8, 155),2	369,(9, 115),8	377,(9, 125),12	389,(10, 195),4	393,(20, 35),6	399,(18, 55),2	401,(20, 105),4	405,(3, 35),30	435,(7, 75),28	463,(9, 165),12	475,(19, 75),2	477,(19, 105),2	489,(20, 85),6	495,(19, 145),2	497,(19, 175),4	503,(7, 85),22	525,(20, 65),10	535,(19, 185),4	541,(20, 25),16	563,(20, 165),8	571,(18, 85),4	575,(18, 125),2	577,(6, 35),2	589,(17, 95),4	593,(6, 45),2	605,(18, 45),8	613,(4, 95),10	623,(6, 55),10	633,(6, 65),2	635,(20, 195),2	647,(17, 195),2	677,(6, 75),2	691,(7, 145),10	703,(8, 175),28	737,(4, 105),6	743,(6, 85),2	745,(8, 195),16	763,(6, 105),2	765,(3, 95),2	769,(6, 185),2	771,(3, 105),2	789,(3, 85),18	809,(2, 65),2	813,(17, 145),4	821,(18, 25),26	857,(2, 75),2	859,(10, 25),106	967,(3, 165),4	971,(18, 175),6	977,(2, 85),22	999,(18, 115),14	1027,(18, 185),8	1035,(6, 135),16	1051,(6, 165),12	1063,(6, 195),6	1069,(16, 55),4	1137,(17, 165),4	1143,(14, 25),2	1145,(3, 115),16	1161,(4, 165),24	1209,(17, 35),12	1227,(2, 105),48	1331,(2, 115),2	1359,(4, 185),44	1409,(14, 35),2	1411,(14, 75),6	1417,(17, 85),12	1465,(4, 195),16	1481,(17, 125),10	1491,(17, 155),8	1525,(3, 145),14	1539,(17, 105),34	1573,(17, 115),32	1631,(2, 135),40	1709,(6, 155),66	1775,(2, 145),36	1813,(2, 155),2	1829,(2, 165),6	1839,(14, 105),12	1851,(14, 125),8	1877,(13, 65),4	1891,(13, 115),2	1933,(1, 45),8	1953,(1, 55),2	1981,(16, 45),12	1995,(1, 65),30	2039,(16, 85),20	2071,(2, 185),14	2101,(16, 155),8	2119,(12, 55),2	2123,(1, 85),14	2137,(3, 155),52	2189,(14, 115),20	2221,(1, 105),104	2327,(16, 185),2	2329,(18, 105),34	2381,(16, 165),4	2385,(16, 195),2	2389,(13, 125),2	2393,(13, 135),4	2403,(13, 155),2	2405,(1, 115),32	2437,(2, 175),70	2571,(1, 135),10	2591,(1, 145),40	2631,(4, 115),264	2919,(12, 25),18	2937,(13, 165),8	2957,(1, 165),2	2959,(4, 125),224	3183,(8, 135),186	3369,(14, 165),30	3399,(14, 175),88	3487,(16, 25),38	3527,(7, 55),298	3825,(9, 185),280	4105,(13, 195),8	4113,(19, 195),84	4197,(20, 135),66	4517,(2, 195),200	4717,(4, 135),1580	6297,(8, 25),734	7031,(12, 35),18	7049,(12, 75),20	7069,(12, 95),28	7097,(12, 105),2	7099,(12, 115),22	7121,(12, 125),2	7123,(12, 135),18	7141,(12, 145),2	7143,(12, 165),2	7145,(12, 175),56	7201,(12, 185),34	7235,(13, 105),144	7715,(20, 185),496	9079,(18, 155),52	9131,(18, 195),82	14433,(1, 175),34	14565,(1, 185),2	15365,(11, 35),2	15479,(11, 45),18	15553,(11, 55),4	15579,(11, 65),2	15649,(11, 75),30	16059,(11, 105),8	16117,(11, 115),150	16315,(11, 125),6	16473,(11, 135),40	16641,(11, 145),2	16733,(11, 155),24	16811,(11, 165),10	16821,(16, 95),64	17047,(11, 195),2	
5,(0, 4),2	23,(0, 14),2	39,(1, 24),2	41,(2, 24),30	71,(3, 24),8	79,(8, 24),6	103,(9, 44),2	119,(9, 84),2	125,(9, 94),2	127,(2, 34),12	139,(3, 74),2	141,(2, 44),8	149,(8, 74),2	151,(8, 114),2	153,(10, 34),4	157,(10, 64),2	159,(10, 104),2	161,(7, 54),2	163,(10, 134),2	165,(10, 174),2	167,(20, 44),4	183,(9, 104),4	187,(9, 134),4	193,(10, 94),16	217,(5, 54),2	219,(5, 64),6	225,(7, 24),50	281,(7, 64),8	289,(9, 174),2	291,(8, 84),12	303,(8, 94),4	307,(7, 84),4	311,(19, 34),4	315,(5, 94),2	317,(9, 144),6	325,(20, 114),2	333,(20, 174),2	335,(20, 184),2	337,(5, 84),30	367,(7, 34),60	427,(7, 144),2	429,(8, 124),24	453,(5, 164),2	455,(18, 34),4	459,(18, 54),2	461,(18, 74),2	463,(7, 154),8	471,(8, 144),46	519,(9, 184),16	535,(10, 184),6	541,(19, 64),2	543,(19, 74),2	545,(19, 94),2	551,(18, 84),2	553,(7, 114),32	585,(7, 164),2	587,(17, 64),2	589,(5, 114),90	679,(6, 24),16	695,(6, 44),4	699,(6, 64),42	741,(7, 124),30	771,(2, 54),2	773,(3, 84),16	789,(5, 154),28	817,(6, 84),22	839,(15, 54),2	841,(15, 64),6	847,(18, 94),6	853,(16, 54),2	855,(2, 74),2	857,(19, 54),12	869,(7, 134),12	881,(7, 174),14	895,(19, 144),2	897,(6, 134),6	903,(7, 194),6	909,(17, 104),16	925,(19, 174),2	945,(17, 124),14	959,(3, 124),8	967,(9, 74),52	1019,(18, 104),8	1029,(17, 154),4	1033,(20, 24),6	1039,(17, 174),6	1045,(20, 84),6	1073,(5, 194),30	1103,(15, 24),16	1123,(16, 124),2	1125,(15, 94),6	1131,(18, 124),10	1143,(2, 104),84	1227,(3, 114),16	1243,(9, 164),74	1329,(2, 114),2	1339,(15, 134),30	1419,(6, 144),26	1445,(16, 24),16	1461,(17, 134),20	1481,(18, 24),22	1503,(18, 44),52	1593,(10, 144),104	1701,(19, 164),30	1731,(3, 144),16	1765,(2, 144),10	1775,(3, 164),32	1807,(3, 184),20	1833,(6, 174),38	1871,(13, 44),6	1881,(13, 84),4	1887,(1, 44),46	1933,(2, 184),2	1937,(12, 44),2	1939,(16, 34),8	1969,(1, 64),26	1995,(6, 194),44	2047,(1, 74),10	2071,(16, 104),6	2087,(16, 134),2	2105,(1, 84),18	2123,(2, 154),170	2293,(3, 194),48	2341,(10, 164),134	2475,(13, 94),8	2493,(13, 104),6	2507,(13, 114),8	2515,(20, 164),32	2547,(1, 124),16	2565,(12, 104),2	2569,(1, 134),2	2571,(12, 24),32	2617,(13, 124),8	2625,(12, 34),46	2671,(13, 184),2	2673,(18, 64),60	2865,(13, 194),26	2895,(1, 154),2	2897,(18, 154),18	2915,(16, 94),38	2955,(1, 164),2	2957,(5, 44),914	3871,(18, 134),28	3907,(6, 164),7570	11477,(7, 184),642	12119,(8, 34),602	12721,(12, 84),6	12727,(12, 114),8	12735,(12, 134),8	12743,(12, 184),16	12759,(13, 144),70	12829,(13, 174),196	13025,(15, 34),196	13221,(18, 114),298	13519,(18, 194),112	13631,(19, 84),66	13697,(19, 104),46	13743,(19, 114),50	13793,(20, 54),100	13893,(20, 64),160	14053,(20, 104),90	14551,(1, 184),14	14725,(1, 194),20	14845,(11, 34),520	15513,(11, 54),40	15577,(11, 64),2	15787,(11, 84),14	16041,(11, 104),18	16309,(11, 124),6	16589,(11, 144),52	16809,(11, 164),2	16885,(16, 164),12	16959,(11, 184),14	18511,(16, 184),124	
3,(0, 3),2	21,(0, 13),2	37,(1, 23),2	39,(8, 23),14	71,(8, 53),6	95,(9, 33),8	121,(2, 33),6	127,(5, 23),2	129,(5, 73),2	131,(7, 23),2	133,(7, 43),2	135,(8, 73),12	147,(8, 123),2	149,(9, 63),12	161,(10, 133),2	163,(8, 63),24	187,(10, 33),6	209,(10, 163),2	211,(7, 33),14	225,(9, 43),48	273,(9, 123),6	279,(9, 143),10	297,(5, 63),18	315,(4, 53),2	317,(5, 83),20	337,(7, 103),2	339,(8, 103),6	345,(8, 113),8	353,(10, 103),6	359,(19, 63),2	369,(8, 173),24	393,(18, 23),2	397,(5, 143),4	401,(18, 63),2	403,(18, 83),2	405,(18, 143),2	463,(5, 123),32	495,(4, 83),116	611,(19, 173),2	613,(20, 153),2	615,(6, 63),2	617,(20, 183),2	623,(4, 133),2	631,(7, 133),14	645,(17, 23),2	649,(6, 73),28	677,(9, 53),26	703,(20, 63),8	711,(20, 133),8	721,(5, 173),2	723,(19, 183),2	727,(5, 193),2	731,(18, 53),8	739,(5, 153),16	761,(18, 163),6	769,(2, 53),2	775,(15, 73),4	783,(6, 143),4	791,(6, 173),2	795,(4, 113),28	827,(15, 43),10	847,(15, 93),6	853,(2, 73),2	855,(4, 103),114	969,(4, 163),2	971,(14, 23),2	973,(2, 83),4	977,(17, 33),6	983,(16, 33),2	985,(16, 63),2	987,(4, 123),12	999,(6, 133),36	1035,(8, 163),96	1131,(15, 103),4	1137,(2, 103),6	1143,(7, 73),66	1213,(4, 173),66	1279,(18, 103),14	1293,(4, 183),8	1301,(8, 83),128	1429,(17, 53),4	1433,(17, 93),28	1461,(9, 163),34	1495,(15, 123),8	1503,(14, 33),28	1535,(17, 133),4	1539,(2, 123),2	1541,(10, 53),52	1593,(15, 113),44	1637,(17, 113),10	1649,(15, 163),18	1667,(17, 153),6	1673,(16, 103),2	1675,(2, 143),90	1765,(14, 43),8	1773,(17, 163),10	1795,(14, 93),36	1839,(2, 173),2	1847,(1, 33),2	1849,(17, 193),34	1885,(1, 43),2	1887,(14, 73),54	1947,(16, 123),2	1949,(1, 53),4	1955,(14, 113),36	1991,(17, 43),46	2037,(20, 113),14	2059,(16, 93),12	2071,(18, 123),16	2087,(18, 183),12	2103,(1, 83),2	2109,(16, 163),14	2145,(18, 153),22	2167,(19, 53),30	2201,(18, 193),10	2217,(1, 93),2	2219,(18, 43),104	2323,(19, 113),26	2377,(15, 173),80	2475,(20, 43),24	2517,(1, 123),30	2551,(18, 173),34	2589,(1, 143),2	2591,(6, 123),292	2951,(1, 163),4	2955,(6, 183),304	3259,(7, 53),268	3541,(20, 163),24	3565,(14, 193),46	3611,(20, 73),52	3675,(2, 183),842	4517,(15, 183),80	4597,(19, 153),38	4639,(8, 133),424	5063,(10, 23),360	5423,(10, 43),340	5763,(12, 33),32	5795,(12, 53),18	5813,(12, 83),6	5819,(12, 103),16	5835,(12, 123),6	5841,(12, 133),24	5871,(12, 173),86	5961,(12, 183),4	5993,(12, 193),2	5995,(17, 83),92	6087,(19, 133),100	6187,(20, 53),164	9583,(14, 103),166	14549,(1, 183),2	14841,(11, 33),4	15623,(11, 73),26	15739,(11, 83),48	15939,(11, 93),70	16039,(11, 103),2	16471,(11, 133),2	16537,(11, 143),52	16727,(16, 73),72	16803,(11, 163),6	16939,(11, 183),20	17045,(11, 193),2	17047,(16, 53),224	
1,(0, 2),2	19,(0, 12),2	25,(3, 22),44	69,(9, 22),18	95,(8, 52),34	129,(9, 102),2	131,(9, 152),2	133,(8, 72),2	135,(4, 52),4	139,(5, 22),34	173,(7, 22),18	191,(9, 52),20	211,(10, 72),2	213,(10, 112),2	215,(10, 162),2	219,(10, 182),4	223,(8, 92),2	225,(20, 42),4	229,(4, 32),40	269,(5, 62),28	297,(7, 42),10	309,(9, 162),2	311,(7, 102),4	315,(9, 172),2	317,(7, 82),10	327,(10, 122),6	333,(8, 182),2	335,(4, 72),6	341,(20, 52),6	347,(7, 122),2	349,(20, 82),4	353,(8, 192),2	355,(19, 42),2	359,(4, 132),2	361,(3, 32),44	405,(5, 122),2	407,(8, 122),14	421,(18, 22),2	423,(18, 82),6	429,(7, 162),4	433,(5, 92),6	439,(5, 132),12	451,(19, 72),4	455,(3, 42),16	471,(7, 72),32	503,(9, 82),16	519,(20, 132),2	521,(20, 142),2	525,(7, 92),28	553,(3, 62),10	563,(5, 102),26	589,(8, 152),16	605,(19, 182),2	607,(7, 152),6	613,(18, 102),2	615,(18, 112),4	619,(6, 72),2	621,(18, 182),2	625,(4, 142),2	627,(8, 142),40	667,(18, 52),8	677,(7, 142),14	691,(8, 172),12	703,(19, 32),6	709,(5, 142),12	723,(5, 192),4	727,(9, 72),28	755,(15, 52),2	757,(3, 82),2	759,(4, 162),2	761,(6, 102),2	763,(19, 82),4	767,(3, 102),2	771,(7, 182),8	779,(7, 192),10	789,(9, 122),20	809,(9, 142),12	823,(4, 122),6	829,(9, 192),10	839,(6, 112),6	845,(6, 122),8	853,(18, 32),12	865,(18, 132),6	871,(6, 132),26	897,(17, 22),2	899,(17, 32),2	901,(17, 102),2	905,(3, 112),54	959,(17, 82),4	965,(10, 52),28	993,(10, 82),24	1017,(10, 192),16	1033,(17, 122),4	1037,(17, 132),2	1039,(5, 172),34	1073,(6, 142),50	1123,(15, 72),2	1125,(16, 32),10	1135,(16, 62),2	1141,(17, 172),2	1151,(4, 182),8	1161,(19, 162),8	1181,(18, 92),26	1217,(16, 52),6	1225,(3, 172),2	1227,(6, 22),100	1327,(6, 62),92	1425,(4, 192),40	1465,(6, 92),102	1567,(8, 82),378	1945,(14, 32),10	1955,(1, 62),14	1969,(9, 182),74	2043,(1, 72),4	2047,(9, 32),94	2141,(16, 72),14	2155,(16, 92),6	2161,(16, 112),6	2167,(16, 142),2	2169,(14, 142),2	2173,(15, 192),6	2179,(14, 192),6	2189,(15, 182),12	2215,(1, 92),2	2237,(13, 22),22	2259,(16, 122),8	2269,(13, 52),2	2271,(13, 72),2	2273,(20, 112),10	2283,(13, 82),4	2287,(17, 42),22	2309,(17, 92),22	2345,(1, 112),60	2405,(16, 42),34	2451,(14, 22),44	2499,(13, 112),8	2515,(1, 122),2	2517,(17, 142),16	2533,(18, 122),18	2567,(1, 132),2	2569,(14, 52),38	2665,(13, 162),2	2673,(1, 152),222	2895,(13, 122),26	2921,(20, 102),16	2985,(13, 172),28	3023,(1, 172),11410	14433,(3, 132),704	15137,(13, 132),108	15245,(13, 182),76	15321,(14, 62),84	15405,(14, 182),32	15455,(11, 42),24	15479,(14, 72),60	15559,(11, 62),18	15577,(19, 92),28	15613,(11, 72),10	15623,(14, 102),60	15683,(19, 112),30	15725,(11, 82),14	15739,(13, 192),280	16019,(15, 172),54	16073,(17, 162),282	16355,(19, 122),30	16385,(20, 152),56	16443,(11, 132),28	16471,(20, 172),54	16529,(11, 142),8	16537,(19, 172),66	16703,(11, 152),30	16919,(11, 182),20	17031,(11, 192),14	17045,(20, 62),274	18403,(16, 172),68	18471,(16, 182),40	18635,(16, 192),44	
21,(2, 21),2	23,(3, 21),2	25,(4, 21),98	123,(4, 41),2	125,(5, 21),2	127,(7, 21),4	131,(8, 61),2	133,(5, 41),4	137,(10, 21),2	139,(2, 41),2	141,(3, 31),220	361,(4, 31),44	405,(4, 61),2	407,(5, 51),26	433,(7, 131),2	435,(3, 41),20	455,(5, 81),8	463,(8, 101),2	465,(4, 81),30	495,(5, 61),14	509,(5, 91),24	533,(5, 111),26	559,(5, 151),2	561,(5, 161),2	563,(6, 21),14	577,(8, 51),6	583,(8, 121),4	587,(6, 41),6	593,(7, 31),14	607,(9, 91),2	609,(9, 151),2	611,(4, 91),2	613,(7, 191),2	615,(10, 91),2	617,(6, 71),2	619,(10, 161),2	621,(6, 81),2	623,(10, 111),4	627,(3, 71),96	723,(10, 101),6	729,(10, 171),2	731,(4, 101),6	737,(10, 191),8	745,(3, 81),12	757,(19, 181),2	759,(20, 71),2	761,(2, 51),8	769,(3, 101),2	771,(6, 91),2	773,(6, 111),10	783,(20, 131),2	785,(4, 111),10	795,(2, 61),14	809,(17, 61),2	811,(17, 71),2	813,(20, 171),2	815,(6, 191),2	817,(7, 151),14	831,(2, 71),22	853,(5, 121),80	933,(6, 101),32	965,(18, 61),2	967,(18, 101),2	969,(18, 111),2	971,(3, 171),2	973,(4, 121),14	987,(6, 131),10	997,(7, 41),16	1013,(7, 161),16	1029,(4, 161),12	1041,(4, 171),4	1045,(4, 181),2	1047,(7, 171),14	1061,(10, 41),12	1073,(2, 91),2	1075,(7, 61),62	1137,(9, 31),14	1151,(19, 141),6	1157,(20, 191),2	1159,(8, 191),22	1181,(9, 51),20	1201,(9, 141),12	1213,(15, 111),2	1215,(3, 131),10	1225,(7, 101),46	1271,(7, 121),40	1311,(17, 151),2	1313,(15, 141),2	1315,(3, 121),20	1335,(9, 81),54	1389,(15, 131),6	1395,(15, 161),2	1397,(15, 181),2	1403,(4, 191),6	1409,(9, 111),52	1461,(10, 81),14	1475,(10, 141),24	1499,(14, 31),4	1503,(15, 21),18	1521,(17, 121),14	1535,(2, 121),4	1539,(3, 141),192	1731,(14, 51),14	1745,(14, 61),2	1747,(20, 51),4	1751,(20, 61),4	1755,(14, 81),2	1757,(14, 91),8	1765,(20, 101),10	1775,(14, 71),20	1795,(17, 161),10	1805,(6, 171),28	1833,(17, 171),2	1837,(17, 181),2	1849,(13, 21),4	1853,(13, 41),2	1857,(2, 171),4	1861,(13, 31),8	1869,(29, 201),4	1877,(14, 151),2	1879,(14, 171),4	1883,(14, 181),2	1885,(15, 151),22	1907,(17, 51),20	1927,(2, 181),2	1929,(77, 201),4	1935,(16, 81),4	1945,(18, 31),8	1953,(18, 51),12	1965,(18, 91),12	1977,(18, 131),2	1979,(18, 151),2	1981,(20, 31),12	1993,(14, 191),4	2003,(2, 151),68	2071,(10, 181),100	2171,(16, 21),46	2217,(16, 61),18	2235,(19, 61),12	2247,(19, 81),14	2261,(79, 201),4	2267,(16, 151),12	2281,(85, 201),4	2293,(2, 161),112	2405,(13, 51),26	2433,(13, 161),2	2435,(12, 81),2	2437,(13, 91),8	2445,(16, 181),4	2449,(19, 41),34	2483,(13, 101),10	2507,(12, 71),8	2515,(13, 71),78	2593,(18, 141),14	2607,(14, 121),24	2631,(18, 171),34	2667,(13, 171),2	2671,(12, 111),2	2673,(13, 121),14	2687,(13, 131),116	2803,(18, 81),52	2855,(18, 181),18	2873,(20, 21),44	2917,(27, 201),4	2921,(87, 201),4	2937,(20, 181),12	2949,(74, 201),4	2953,(119, 201),4	2957,(59, 201),4	2963,(157, 201),4	3013,(63, 201),4	3017,(113, 201),4	3065,(20, 111),40	3105,(20, 151),32	3137,(40, 201),4	3183,(14, 41),68	3259,(16, 191),10	3269,(36, 201),4	3273,(56, 201),4	3351,(24, 201),4	3355,(154, 201),4	3359,(94, 201),4	3517,(13, 141),58	3575,(19, 31),54	3629,(19, 111),30	3659,(129, 201),4	3663,(49, 201),4	3699,(170, 201),4	3721,(19, 101),48	3769,(19, 191),18	3891,(44, 201),4	3907,(15, 71),156	4289,(15, 101),52	4341,(89, 201),4	4345,(17, 81),298	4643,(120, 201),4	4653,(153, 201),4	4713,(57, 201),4	4753,(12, 41),14	4903,(12, 91),4	4973,(12, 101),30	5015,(12, 121),2	5017,(17, 191),132	5149,(69, 201),4	5153,(139, 201),4	5173,(28, 201),4	5375,(107, 201),4	5441,(23, 201),4	5551,(78, 201),4	5555,(138, 201),4	5631,(148, 201),4	5705,(19, 171),324	6075,(32, 201),4	6079,(22, 201),4	6083,(52, 201),4	6143,(150, 201),4	6351,(20, 91),618	6969,(43, 201),4	6973,(123, 201),4	6977,(173, 201),4	7049,(25, 201),4	7243,(20, 161),472	9213,(98, 201),4	9513,(149, 201),4	9601,(67, 201),4	10859,(97, 201),4	11481,(16, 51),5238	16719,(48, 201),4	16723,(134, 201),4	16727,(174, 201),4	16731,(114, 201),4	16735,(175, 201),4	16739,(179, 201),4	16743,(185, 201),4	16747,(189, 201),4	16751,(190, 201),4	16755,(194, 201),4	16759,(198, 201),4	16763,(30, 201),4	16767,(33, 201),4	16771,(34, 201),4	16775,(35, 201),4	16779,(37, 201),4	16783,(38, 201),4	16787,(39, 201),4	16791,(42, 201),4	16795,(45, 201),4	16799,(47, 201),4	16803,(50, 201),4	16809,(96, 201),4	16813,(156, 201),4	16817,(26, 201),4	16821,(54, 201),4	16825,(55, 201),4	16829,(60, 201),4	16833,(64, 201),4	16837,(65, 201),4	16841,(92, 201),4	16845,(68, 201),4	16849,(70, 201),4	16853,(72, 201),4	16857,(75, 201),4	16861,(102, 201),4	16865,(112, 201),4	16869,(80, 201),4	16873,(82, 201),4	16877,(83, 201),4	16881,(84, 201),4	16885,(88, 201),4	16889,(90, 201),4	16893,(93, 201),4	16897,(46, 201),4	16901,(66, 201),4	16905,(99, 201),4	16909,(100, 201),4	16913,(103, 201),4	16917,(104, 201),4	16921,(105, 201),4	16925,(109, 201),4	16929,(110, 201),4	16933,(115, 201),4	16937,(117, 201),4	16941,(118, 201),4	16945,(124, 201),4	16949,(125, 201),4	16953,(162, 201),4	16957,(122, 201),4	16961,(132, 201),4	16965,(133, 201),4	16969,(135, 201),4	16973,(137, 201),4	16977,(142, 201),4	16981,(143, 201),4	16985,(144, 201),4	16989,(145, 201),4	16993,(147, 201),4	16997,(58, 201),4	17001,(152, 201),4	17005,(155, 201),4	17009,(73, 201),4	17013,(160, 201),4	17017,(108, 201),4	17023,(76, 201),4	17027,(86, 201),4	17031,(106, 201),4	17035,(116, 201),4	17039,(126, 201),4	17043,(136, 201),4	17047,(163, 201),4	17051,(165, 201),4	17055,(167, 201),4	17059,(168, 201),4	17063,(169, 201),4	17067,(177, 201),4	17071,(95, 201),4	17075,(164, 201),4	17079,(178, 201),4	17083,(128, 201),4	17087,(183, 201),4	17091,(187, 201),4	17095,(188, 201),4	17099,(193, 201),4	17103,(195, 201),4	17107,(197, 201),4	17111,(199, 201),4	17289,(53, 201),4	17319,(180, 201),4	17323,(140, 201),4	17337,(62, 201),4	17649,(127, 201),4	18095,(130, 201),4	18199,(158, 201),4	18421,(159, 201),4	18489,(172, 201),4	18529,(182, 201),4	18653,(184, 201),4	18697,(192, 201),4	20449,(146, 201),4	20453,(166, 201),4	20457,(176, 201),4	20461,(186, 201),4	20465,(196, 201),4	20469,(200, 201),4	
# Outgoing
137,(10, 21),2	139,(10, 49),2	141,(10, 109),2	143,(10, 179),2	145,(20, 39),2	147,(10, 115),2	149,(10, 76),4	153,(10, 34),4	157,(10, 64),2	159,(10, 104),2	161,(10, 133),2	163,(10, 134),2	165,(10, 174),2	167,(20, 44),4	171,(10, 89),8	179,(10, 199),4	183,(10, 47),2	185,(20, 55),2	187,(10, 33),6	193,(10, 94),16	209,(10, 163),2	211,(10, 72),2	213,(10, 112),2	215,(10, 162),2	217,(10, 107),2	219,(10, 182),4	223,(10, 197),2	225,(20, 42),4	229,(10, 65),8	237,(10, 56),8	245,(10, 95),8	253,(10, 105),4	257,(10, 145),4	261,(10, 146),2	263,(10, 196),2	265,(10, 69),20	285,(10, 99),14	299,(10, 176),6	305,(20, 36),2	307,(20, 46),2	309,(10, 97),10	319,(20, 47),4	323,(20, 99),2	325,(20, 114),2	327,(10, 122),6	333,(20, 174),2	335,(20, 184),2	337,(20, 136),2	339,(20, 95),2	341,(20, 52),6	347,(20, 155),2	349,(20, 82),4	353,(10, 103),6	359,(10, 187),8	367,(20, 29),12	379,(20, 76),6	385,(20, 97),4	389,(10, 195),4	393,(20, 35),6	401,(20, 105),4	405,(10, 29),48	453,(10, 169),36	489,(20, 85),6	495,(10, 136),20	519,(20, 132),2	521,(20, 142),2	525,(20, 65),10	535,(10, 184),6	541,(20, 25),16	557,(20, 86),6	563,(20, 165),8	571,(20, 89),18	593,(20, 137),2	595,(20, 139),14	613,(20, 153),2	615,(10, 91),2	617,(20, 183),2	619,(10, 161),2	623,(10, 111),4	635,(20, 195),2	703,(20, 63),8	711,(20, 133),8	723,(10, 101),6	729,(10, 171),2	737,(10, 191),8	745,(20, 126),6	753,(20, 187),4	759,(20, 71),2	783,(20, 131),2	795,(20, 27),12	813,(20, 171),2	859,(10, 25),106	965,(10, 52),28	993,(10, 82),24	1017,(10, 192),16	1033,(20, 24),6	1045,(20, 84),6	1061,(10, 41),12	1143,(20, 37),10	1157,(20, 191),2	1161,(20, 87),22	1213,(10, 189),60	1359,(10, 37),58	1461,(10, 81),14	1475,(10, 141),24	1517,(20, 106),10	1541,(10, 53),52	1593,(10, 144),104	1701,(20, 146),12	1747,(20, 51),4	1751,(20, 61),4	1765,(20, 101),10	1775,(20, 96),38	1841,(10, 116),86	1945,(20, 157),20	1981,(20, 31),12	2037,(20, 113),14	2071,(10, 181),100	2171,(20, 57),78	2273,(20, 112),10	2341,(10, 164),134	2475,(20, 43),24	2515,(20, 164),32	2565,(20, 59),78	2643,(10, 28),2	2645,(10, 78),8	2653,(10, 98),4	2657,(10, 158),2	2667,(10, 58),110	2777,(10, 108),6	2783,(10, 118),8	2791,(10, 188),12	2803,(10, 198),2	2873,(20, 21),44	2921,(20, 102),16	2937,(20, 181),12	2951,(10, 148),114	3065,(20, 111),40	3105,(20, 151),32	3137,(40, 201),4	3147,(20, 38),6	3153,(20, 58),16	3169,(20, 78),22	3191,(20, 88),6	3197,(20, 108),4	3217,(20, 118),2	3219,(20, 128),2	3221,(20, 138),18	3239,(20, 148),2	3241,(20, 168),2	3243,(20, 178),2	3255,(20, 166),32	3481,(20, 159),60	3541,(20, 163),24	3611,(20, 73),52	3699,(170, 201),4	4197,(20, 135),66	4643,(120, 201),4	5063,(10, 23),360	5423,(10, 43),340	5763,(20, 48),70	5999,(20, 67),144	6143,(150, 201),4	6187,(20, 53),164	6351,(20, 91),618	6969,(20, 158),274	7243,(20, 161),472	7715,(20, 185),496	13793,(20, 54),100	13893,(20, 64),160	14053,(20, 104),90	16385,(20, 152),56	16471,(20, 172),54	16751,(190, 201),4	16763,(30, 201),4	16803,(50, 201),4	16829,(60, 201),4	16849,(70, 201),4	16869,(80, 201),4	16889,(90, 201),4	16909,(100, 201),4	16929,(110, 201),4	17013,(160, 201),4	17045,(20, 62),274	17319,(180, 201),4	17323,(140, 201),4	18095,(130, 201),4	20469,(200, 201),4	
69,(9, 22),18	87,(9, 26),8	95,(9, 33),8	103,(9, 44),2	105,(9, 66),2	107,(9, 30),2	109,(9, 40),2	111,(9, 45),8	119,(9, 84),2	121,(9, 50),2	123,(9, 60),2	125,(9, 94),2	127,(9, 136),2	129,(9, 102),2	131,(9, 152),2	133,(9, 37),2	135,(9, 76),14	149,(9, 63),12	161,(19, 70),2	163,(9, 65),4	167,(9, 75),8	175,(9, 85),6	181,(9, 95),2	183,(9, 104),4	187,(9, 134),4	191,(9, 52),20	211,(9, 110),8	219,(9, 147),2	221,(9, 155),2	223,(19, 55),2	225,(9, 43),48	273,(9, 123),6	279,(9, 143),10	289,(9, 174),2	291,(9, 127),18	309,(9, 162),2	311,(19, 34),4	315,(9, 172),2	317,(9, 144),6	323,(9, 167),8	331,(9, 176),6	337,(9, 157),18	355,(19, 42),2	357,(19, 107),2	359,(19, 63),2	361,(19, 35),6	367,(19, 127),2	369,(9, 115),8	377,(9, 125),12	389,(19, 126),2	393,(9, 27),50	443,(19, 57),4	447,(19, 77),4	451,(19, 72),4	455,(19, 97),8	463,(9, 165),12	475,(19, 75),2	477,(19, 105),2	479,(19, 137),4	483,(9, 166),12	495,(19, 145),2	497,(19, 175),4	503,(9, 82),16	519,(9, 184),16	535,(19, 185),4	541,(19, 64),2	543,(19, 74),2	545,(19, 94),2	547,(19, 117),30	589,(19, 157),4	605,(19, 182),2	607,(9, 91),2	609,(9, 151),2	611,(19, 173),2	613,(9, 36),36	649,(9, 156),22	677,(9, 53),26	703,(19, 32),6	709,(19, 56),14	723,(19, 183),2	727,(9, 72),28	757,(19, 181),2	763,(19, 82),4	789,(9, 122),20	809,(9, 142),12	821,(19, 186),6	829,(9, 192),10	839,(19, 167),12	857,(19, 54),12	869,(19, 46),20	895,(19, 144),2	925,(19, 174),2	967,(9, 74),52	1029,(19, 187),18	1053,(9, 137),72	1125,(19, 197),10	1137,(9, 31),14	1151,(19, 141),6	1159,(19, 100),2	1161,(19, 162),8	1181,(9, 51),20	1201,(9, 141),12	1243,(9, 164),74	1335,(9, 81),54	1409,(9, 111),52	1461,(9, 163),34	1511,(9, 177),52	1587,(19, 47),42	1631,(9, 186),70	1701,(19, 164),30	1741,(9, 150),6	1767,(19, 177),36	1821,(9, 140),10	1847,(9, 180),18	1869,(29, 201),4	1891,(19, 110),2	1969,(9, 182),74	2047,(9, 32),94	2167,(19, 53),30	2217,(19, 140),2	2235,(19, 61),12	2247,(19, 81),14	2261,(79, 201),4	2323,(19, 113),26	2381,(9, 48),2	2449,(19, 41),34	2487,(9, 120),48	2559,(9, 78),2	2561,(9, 188),2	2619,(9, 98),12	2631,(9, 118),10	2641,(9, 198),2	2659,(9, 46),250	2909,(9, 160),40	2953,(119, 201),4	2957,(59, 201),4	2961,(9, 106),294	3255,(9, 108),114	3369,(9, 128),158	3527,(19, 90),16	3543,(19, 180),20	3563,(19, 190),2	3575,(19, 31),54	3629,(19, 111),30	3659,(129, 201),4	3663,(49, 201),4	3675,(9, 148),46	3721,(19, 101),48	3769,(19, 191),18	3803,(19, 38),20	3823,(19, 48),2	3825,(9, 185),280	4113,(19, 195),84	4341,(89, 201),4	4453,(19, 200),112	4597,(19, 153),38	4639,(9, 197),430	5149,(69, 201),4	5153,(139, 201),4	5375,(19, 58),30	5405,(19, 78),18	5423,(19, 158),16	5439,(19, 188),4	5613,(19, 108),54	5667,(19, 128),38	5705,(19, 171),324	6087,(19, 133),100	6425,(19, 98),384	9513,(149, 201),4	13631,(19, 84),66	13697,(19, 104),46	13743,(19, 114),50	15577,(19, 92),28	15683,(19, 112),30	16355,(19, 122),30	16537,(19, 172),66	16739,(179, 201),4	16747,(189, 201),4	16787,(39, 201),4	16905,(99, 201),4	16925,(109, 201),4	17063,(169, 201),4	17111,(199, 201),4	18421,(159, 201),4	
39,(8, 23),14	53,(8, 27),10	63,(8, 40),8	71,(8, 53),6	77,(8, 59),2	79,(8, 24),6	85,(8, 45),10	95,(8, 52),34	129,(8, 56),2	131,(8, 61),2	133,(8, 72),2	135,(8, 73),12	147,(8, 123),2	149,(8, 74),2	151,(8, 114),2	153,(8, 55),10	163,(8, 63),24	187,(8, 65),24	211,(8, 85),10	221,(8, 87),2	223,(8, 92),2	225,(8, 115),4	229,(8, 47),42	271,(8, 77),20	291,(8, 84),12	303,(8, 94),4	307,(8, 105),8	315,(8, 116),14	329,(8, 126),2	331,(8, 139),2	333,(8, 182),2	335,(8, 127),2	337,(8, 125),2	339,(8, 103),6	345,(8, 113),8	353,(8, 192),2	355,(8, 146),4	359,(8, 129),8	367,(8, 155),2	369,(8, 173),24	393,(18, 23),2	395,(18, 26),2	397,(8, 199),2	399,(18, 55),2	401,(18, 63),2	403,(18, 83),2	405,(18, 143),2	407,(8, 122),14	421,(18, 22),2	423,(18, 82),6	429,(8, 124),24	453,(18, 27),2	455,(18, 34),4	459,(18, 54),2	461,(18, 74),2	463,(8, 101),2	465,(18, 136),6	471,(8, 144),46	517,(8, 166),34	551,(18, 84),2	553,(8, 179),18	571,(18, 85),4	575,(18, 125),2	577,(8, 51),6	583,(8, 121),4	587,(18, 147),2	589,(8, 152),16	605,(18, 45),8	613,(18, 102),2	615,(18, 112),4	621,(18, 182),2	627,(8, 142),40	667,(18, 52),8	675,(18, 166),2	677,(18, 139),8	685,(18, 169),4	691,(8, 172),12	703,(8, 175),28	731,(18, 53),8	739,(18, 177),2	745,(8, 195),16	761,(18, 163),6	769,(18, 197),6	775,(8, 176),24	809,(18, 56),8	817,(8, 170),4	821,(18, 25),26	847,(18, 94),6	853,(18, 32),12	865,(18, 132),6	871,(8, 169),26	897,(8, 186),28	927,(8, 197),22	949,(18, 77),16	965,(18, 61),2	967,(18, 101),2	969,(18, 111),2	971,(18, 175),6	977,(18, 199),6	987,(18, 189),8	999,(18, 115),14	1019,(18, 104),8	1027,(18, 185),8	1035,(8, 163),96	1131,(18, 124),10	1151,(8, 90),8	1159,(8, 191),22	1181,(18, 92),26	1211,(18, 66),12	1223,(18, 96),22	1275,(18, 60),2	1277,(18, 100),2	1279,(18, 103),14	1301,(8, 83),128	1429,(18, 39),16	1481,(18, 24),22	1503,(18, 44),52	1567,(8, 82),378	1945,(18, 31),8	1953,(18, 51),12	1965,(18, 91),12	1977,(18, 131),2	1979,(18, 151),2	1981,(8, 60),38	2019,(18, 67),36	2071,(18, 123),16	2087,(18, 183),12	2107,(8, 80),30	2137,(8, 110),8	2145,(18, 153),22	2173,(18, 69),28	2201,(18, 193),10	2215,(18, 120),2	2219,(18, 43),104	2329,(18, 105),34	2403,(18, 107),20	2433,(18, 59),54	2497,(18, 137),36	2533,(18, 122),18	2551,(18, 173),34	2593,(18, 141),14	2631,(18, 171),34	2673,(18, 64),60	2733,(18, 87),70	2803,(18, 81),52	2855,(18, 181),18	2897,(18, 154),18	3001,(18, 70),10	3183,(8, 135),186	3369,(18, 80),12	3381,(18, 170),4	3441,(18, 190),14	3871,(18, 134),28	3907,(8, 57),732	4639,(8, 133),424	5143,(18, 187),30	5173,(28, 201),4	5353,(18, 150),198	5551,(78, 201),4	5555,(138, 201),4	5631,(148, 201),4	6297,(8, 25),734	7031,(8, 196),2048	9079,(18, 155),52	9131,(18, 195),82	9213,(98, 201),4	9583,(18, 97),1258	12119,(8, 34),602	13221,(18, 114),298	13519,(18, 194),112	16719,(48, 201),4	16759,(198, 201),4	16783,(38, 201),4	16845,(68, 201),4	16885,(88, 201),4	16941,(118, 201),4	16997,(58, 201),4	17017,(108, 201),4	17059,(168, 201),4	17079,(178, 201),4	17083,(128, 201),4	17095,(188, 201),4	18199,(158, 201),4	
127,(7, 21),4	131,(7, 23),2	133,(7, 43),2	135,(7, 50),2	137,(7, 25),10	147,(7, 29),14	161,(7, 54),2	163,(7, 59),8	171,(7, 70),2	173,(7, 22),18	191,(7, 30),20	211,(7, 33),14	225,(7, 24),50	275,(7, 46),4	279,(7, 56),2	281,(7, 64),8	289,(7, 66),2	291,(7, 76),6	297,(7, 42),10	307,(7, 84),4	311,(7, 102),4	315,(7, 79),2	317,(7, 82),10	327,(7, 99),4	331,(7, 105),4	335,(7, 135),2	337,(7, 103),2	339,(7, 109),4	343,(7, 116),4	347,(7, 122),2	349,(7, 139),2	351,(7, 156),2	353,(7, 186),2	355,(7, 125),6	361,(7, 146),6	367,(7, 34),60	427,(7, 144),2	429,(7, 162),4	433,(7, 131),2	435,(7, 75),28	463,(7, 154),8	471,(7, 72),32	503,(7, 85),22	525,(7, 92),28	553,(7, 114),32	585,(7, 164),2	587,(17, 64),2	589,(17, 95),4	593,(7, 31),14	607,(7, 152),6	613,(7, 191),2	615,(7, 129),16	631,(7, 133),14	645,(17, 23),2	647,(17, 195),2	649,(7, 119),28	677,(7, 142),14	691,(7, 145),10	701,(7, 149),10	711,(7, 159),12	723,(7, 166),12	735,(17, 26),6	741,(7, 124),30	771,(7, 182),8	779,(7, 192),10	791,(7, 120),2	793,(17, 89),10	803,(17, 156),2	805,(7, 190),2	807,(17, 50),2	809,(17, 61),2	811,(17, 71),2	813,(17, 145),4	817,(7, 151),14	831,(7, 126),38	869,(7, 134),12	881,(7, 174),14	895,(17, 166),2	897,(17, 22),2	899,(17, 32),2	901,(17, 102),2	903,(7, 194),6	909,(17, 104),16	925,(17, 96),6	933,(17, 119),12	945,(17, 124),14	959,(17, 82),4	963,(17, 129),4	967,(17, 149),8	975,(17, 159),2	977,(17, 33),6	983,(17, 179),2	985,(17, 199),2	997,(7, 41),16	1013,(7, 161),16	1029,(17, 154),4	1033,(17, 122),4	1037,(17, 132),2	1039,(17, 174),6	1047,(7, 171),14	1075,(7, 61),62	1137,(17, 165),4	1141,(17, 172),2	1143,(7, 73),66	1209,(17, 35),12	1225,(7, 101),46	1271,(7, 121),40	1311,(17, 151),2	1317,(7, 110),6	1323,(7, 130),8	1331,(7, 150),6	1339,(7, 179),78	1417,(17, 85),12	1429,(17, 53),4	1433,(17, 93),28	1461,(17, 134),20	1481,(17, 125),10	1491,(17, 155),8	1499,(17, 56),18	1521,(17, 121),14	1535,(17, 133),4	1539,(17, 105),34	1573,(17, 115),32	1637,(17, 113),10	1667,(17, 153),6	1709,(7, 40),32	1741,(17, 139),30	1771,(17, 150),2	1773,(17, 163),10	1795,(17, 161),10	1805,(7, 140),16	1833,(17, 171),2	1835,(17, 180),2	1837,(17, 181),2	1849,(17, 193),34	1907,(17, 51),20	1929,(77, 201),4	1943,(17, 110),4	1991,(17, 43),46	2097,(7, 36),158	2287,(17, 42),22	2309,(17, 92),22	2383,(7, 180),104	2517,(17, 142),16	2541,(7, 28),8	2549,(7, 58),6	2555,(7, 138),4	2565,(7, 98),18	2587,(7, 108),10	2597,(7, 148),10	2607,(7, 158),6	2613,(7, 188),6	2859,(17, 48),2	2861,(17, 68),18	2879,(17, 108),2	2917,(27, 201),4	2921,(87, 201),4	2963,(157, 201),4	2985,(17, 40),8	2993,(17, 200),8	3065,(17, 38),82	3147,(17, 49),54	3201,(17, 168),4	3205,(17, 198),12	3259,(7, 53),268	3527,(7, 55),298	3825,(7, 68),330	4155,(17, 66),34	4189,(17, 80),82	4289,(17, 69),56	4345,(17, 81),298	4643,(17, 86),70	4713,(57, 201),4	4753,(17, 126),50	4803,(17, 186),28	4903,(17, 130),88	5017,(17, 191),132	5375,(107, 201),4	5995,(17, 83),92	9601,(67, 201),4	10859,(97, 201),4	11477,(7, 184),642	16073,(17, 162),282	16779,(37, 201),4	16799,(47, 201),4	16937,(117, 201),4	16973,(137, 201),4	16993,(147, 201),4	17055,(167, 201),4	17067,(177, 201),4	17091,(187, 201),4	17107,(197, 201),4	17649,(127, 201),4	
563,(6, 21),14	577,(6, 35),2	579,(6, 37),8	587,(6, 41),6	593,(6, 45),2	595,(6, 47),14	609,(6, 49),2	611,(6, 57),2	613,(6, 59),2	615,(6, 63),2	617,(6, 71),2	619,(6, 72),2	621,(6, 81),2	623,(6, 55),10	633,(6, 65),2	635,(6, 69),14	649,(6, 73),28	677,(6, 75),2	679,(6, 24),16	695,(6, 44),4	699,(6, 64),42	741,(6, 77),2	743,(6, 85),2	745,(6, 79),16	761,(6, 102),2	763,(6, 105),2	765,(6, 97),2	767,(6, 127),2	769,(6, 185),2	771,(6, 91),2	773,(6, 111),10	783,(6, 143),4	787,(6, 30),2	789,(6, 60),2	791,(6, 173),2	793,(6, 187),2	795,(6, 40),10	805,(6, 99),8	813,(6, 189),2	815,(6, 191),2	817,(6, 84),22	839,(6, 112),6	845,(6, 122),8	853,(16, 54),2	855,(6, 129),16	871,(6, 132),26	897,(6, 134),6	903,(16, 29),2	905,(6, 120),6	911,(16, 40),4	915,(6, 117),12	927,(6, 149),6	933,(6, 101),32	965,(6, 157),12	977,(16, 27),6	983,(16, 33),2	985,(16, 63),2	987,(6, 131),10	997,(16, 89),2	999,(6, 133),36	1035,(6, 135),16	1051,(6, 165),12	1063,(6, 195),6	1069,(16, 55),4	1073,(6, 142),50	1123,(16, 124),2	1125,(16, 32),10	1135,(16, 62),2	1137,(6, 159),46	1183,(6, 167),34	1217,(16, 52),6	1223,(16, 67),4	1227,(6, 22),100	1327,(6, 62),92	1419,(6, 144),26	1445,(16, 24),16	1461,(16, 79),4	1465,(6, 92),102	1567,(6, 109),106	1673,(16, 103),2	1675,(6, 80),14	1689,(6, 140),20	1709,(6, 155),66	1775,(6, 170),30	1805,(6, 171),28	1833,(6, 174),38	1871,(6, 177),52	1923,(16, 69),12	1935,(16, 81),4	1939,(16, 34),8	1947,(16, 123),2	1949,(6, 200),32	1981,(16, 45),12	1993,(16, 147),2	1995,(6, 194),44	2039,(16, 85),20	2059,(16, 93),12	2071,(16, 104),6	2077,(16, 117),4	2081,(16, 119),2	2083,(16, 129),4	2087,(16, 134),2	2089,(16, 139),12	2101,(16, 155),8	2109,(16, 163),14	2123,(16, 179),14	2141,(16, 72),14	2155,(16, 92),6	2161,(16, 112),6	2167,(16, 142),2	2171,(16, 21),46	2217,(16, 61),18	2235,(16, 149),24	2259,(16, 122),8	2267,(16, 151),12	2281,(6, 28),40	2321,(6, 38),4	2325,(6, 58),2	2327,(16, 185),2	2329,(6, 48),10	2339,(6, 68),2	2341,(6, 108),16	2357,(6, 128),20	2377,(6, 148),4	2381,(16, 165),4	2385,(16, 195),2	2405,(16, 42),34	2445,(16, 181),4	2451,(6, 138),78	2529,(6, 168),12	2541,(16, 167),18	2563,(16, 80),2	2579,(16, 90),8	2591,(6, 123),292	2883,(6, 198),32	2915,(16, 94),38	2955,(6, 183),304	3259,(16, 191),10	3269,(36, 201),4	3273,(56, 201),4	3351,(16, 50),16	3367,(16, 150),2	3487,(16, 25),38	3565,(16, 68),2	3567,(6, 147),340	3907,(6, 164),7570	11477,(16, 48),4	11481,(16, 51),5238	16719,(16, 58),8	16727,(16, 73),72	16799,(16, 108),8	16807,(16, 178),2	16809,(96, 201),4	16813,(156, 201),4	16817,(26, 201),4	16821,(16, 95),64	16885,(16, 164),12	16897,(46, 201),4	16901,(66, 201),4	16905,(16, 128),44	16949,(16, 140),48	16997,(16, 187),26	17023,(76, 201),4	17027,(86, 201),4	17031,(106, 201),4	17035,(116, 201),4	17039,(126, 201),4	17043,(136, 201),4	17047,(16, 53),224	17271,(16, 127),360	17631,(16, 130),446	18077,(16, 158),104	18181,(16, 159),222	18403,(16, 172),68	18471,(16, 182),40	18511,(16, 184),124	18635,(16, 192),44	18679,(16, 200),1770	20449,(146, 201),4	20453,(166, 201),4	20457,(176, 201),4	20461,(186, 201),4	20465,(196, 201),4	
125,(5, 21),2	127,(5, 23),2	129,(5, 73),2	131,(5, 37),2	133,(5, 41),4	137,(5, 119),2	139,(5, 22),34	173,(5, 40),12	185,(5, 47),32	217,(5, 54),2	219,(5, 64),6	225,(5, 77),4	229,(5, 29),36	265,(5, 76),4	269,(5, 62),28	297,(5, 63),18	315,(5, 94),2	317,(5, 83),20	337,(5, 84),30	367,(5, 86),4	371,(5, 97),2	373,(5, 107),12	385,(5, 116),4	389,(5, 129),2	391,(5, 137),2	393,(5, 139),4	397,(5, 143),4	401,(5, 146),2	403,(5, 149),2	405,(5, 122),2	407,(5, 51),26	433,(5, 92),6	439,(5, 132),12	451,(5, 157),2	453,(5, 164),2	455,(5, 81),8	463,(5, 123),32	495,(5, 61),14	509,(5, 91),24	533,(5, 111),26	559,(5, 151),2	561,(5, 161),2	563,(5, 102),26	589,(5, 114),90	679,(5, 126),30	709,(5, 142),12	721,(5, 173),2	723,(5, 192),4	727,(5, 193),2	731,(5, 147),8	739,(5, 153),16	755,(15, 52),2	757,(15, 67),2	759,(5, 166),16	775,(15, 73),4	779,(15, 77),6	785,(5, 200),2	789,(5, 154),28	817,(15, 56),2	821,(5, 169),6	827,(15, 43),10	837,(15, 119),2	839,(15, 54),2	841,(15, 64),6	847,(15, 93),6	853,(5, 121),80	933,(5, 156),58	991,(15, 46),8	999,(15, 187),6	1009,(5, 159),30	1039,(5, 172),34	1073,(5, 194),30	1103,(15, 24),16	1123,(15, 72),2	1125,(15, 94),6	1131,(15, 103),4	1135,(5, 176),36	1171,(5, 186),28	1199,(15, 86),4	1203,(15, 126),4	1207,(15, 176),4	1213,(15, 111),2	1215,(5, 90),60	1275,(5, 199),18	1293,(5, 180),8	1301,(15, 49),12	1313,(15, 141),2	1315,(15, 97),12	1337,(15, 60),2	1339,(15, 134),30	1389,(15, 131),6	1395,(15, 161),2	1397,(15, 181),2	1417,(15, 109),6	1423,(15, 149),2	1425,(15, 26),42	1467,(15, 116),12	1479,(15, 139),6	1485,(15, 159),10	1495,(15, 123),8	1503,(15, 21),18	1525,(15, 169),6	1563,(15, 47),24	1593,(15, 113),44	1637,(15, 137),12	1649,(15, 163),18	1673,(15, 199),44	1731,(15, 147),30	1765,(15, 100),2	1839,(15, 50),6	1885,(15, 151),22	1927,(15, 70),8	1937,(15, 170),4	1947,(15, 79),68	2015,(15, 99),52	2145,(15, 140),18	2163,(15, 150),10	2173,(15, 192),6	2179,(5, 38),4	2183,(5, 48),2	2185,(5, 148),2	2187,(5, 168),2	2189,(15, 182),12	2237,(5, 78),36	2273,(5, 138),8	2281,(85, 201),4	2291,(15, 156),86	2377,(15, 173),80	2571,(15, 160),8	2589,(5, 80),320	2957,(5, 44),914	3871,(15, 30),36	3907,(15, 71),156	4063,(15, 89),226	4289,(15, 101),52	4341,(15, 110),34	4375,(15, 120),78	4517,(15, 183),80	4709,(15, 28),2	4711,(15, 88),4	4715,(15, 118),18	4733,(15, 128),14	4747,(15, 188),4	5043,(15, 58),248	5291,(15, 138),84	7049,(25, 201),4	13025,(15, 34),196	16019,(15, 172),54	16735,(175, 201),4	16743,(185, 201),4	16775,(35, 201),4	16795,(45, 201),4	16825,(55, 201),4	16837,(65, 201),4	16857,(75, 201),4	16921,(105, 201),4	16933,(115, 201),4	16949,(125, 201),4	16969,(135, 201),4	16989,(145, 201),4	17005,(155, 201),4	17051,(165, 201),4	17071,(95, 201),4	17103,(195, 201),4	
25,(4, 21),98	123,(4, 41),2	125,(4, 45),8	133,(4, 46),2	135,(4, 52),4	139,(4, 27),44	183,(4, 29),46	229,(4, 32),40	269,(4, 35),34	303,(4, 39),12	315,(4, 53),2	317,(4, 55),2	319,(4, 59),2	321,(4, 65),10	331,(4, 67),4	335,(4, 72),6	341,(4, 75),6	347,(4, 76),2	349,(4, 85),6	355,(4, 87),2	357,(4, 89),2	359,(4, 132),2	361,(4, 31),44	405,(4, 61),2	407,(4, 66),58	465,(4, 81),30	495,(4, 83),116	611,(4, 91),2	613,(4, 95),10	623,(4, 133),2	625,(4, 142),2	627,(4, 47),104	731,(4, 101),6	737,(4, 105),6	743,(4, 107),10	753,(4, 146),4	757,(4, 156),2	759,(4, 162),2	761,(4, 80),22	783,(4, 100),2	785,(4, 111),10	795,(4, 113),28	823,(4, 122),6	829,(4, 117),10	839,(4, 119),12	851,(4, 157),2	853,(4, 179),2	855,(4, 103),114	969,(4, 163),2	971,(14, 23),2	973,(4, 121),14	987,(4, 123),12	999,(4, 129),10	1009,(4, 147),20	1029,(4, 161),12	1041,(4, 171),4	1045,(4, 181),2	1047,(4, 116),76	1123,(4, 126),12	1135,(4, 167),8	1143,(14, 25),2	1145,(4, 140),2	1147,(4, 160),2	1149,(4, 170),2	1151,(4, 182),8	1159,(14, 27),2	1161,(4, 165),24	1185,(4, 169),28	1213,(4, 173),66	1279,(4, 180),14	1293,(4, 183),8	1301,(4, 190),16	1317,(4, 199),20	1337,(4, 177),22	1359,(4, 185),44	1403,(4, 191),6	1409,(14, 35),2	1411,(14, 75),6	1417,(14, 57),2	1419,(4, 186),6	1425,(4, 192),40	1465,(4, 195),16	1481,(4, 196),16	1497,(14, 26),2	1499,(14, 31),4	1503,(14, 33),28	1531,(14, 46),2	1533,(14, 59),2	1535,(4, 30),138	1673,(4, 187),46	1719,(14, 39),8	1727,(14, 66),2	1729,(14, 97),2	1731,(14, 51),14	1745,(14, 61),2	1747,(14, 76),4	1751,(14, 30),2	1753,(14, 40),2	1755,(14, 81),2	1757,(14, 91),8	1765,(14, 43),8	1773,(14, 70),2	1775,(14, 71),20	1795,(14, 93),36	1831,(14, 80),2	1833,(14, 90),2	1835,(14, 99),2	1837,(14, 100),2	1839,(14, 105),12	1851,(14, 125),8	1859,(14, 179),6	1865,(14, 107),4	1869,(14, 139),8	1877,(14, 151),2	1879,(14, 171),4	1883,(14, 181),2	1887,(14, 73),54	1941,(14, 150),2	1945,(14, 32),10	1955,(14, 113),36	1991,(14, 137),2	1993,(14, 191),4	1997,(14, 197),2	2003,(14, 96),12	2015,(14, 106),2	2017,(14, 116),2	2019,(14, 146),6	2025,(4, 28),12	2037,(4, 38),2	2039,(4, 48),2	2041,(4, 78),2	2043,(4, 128),2	2045,(4, 138),12	2057,(4, 168),2	2059,(14, 127),16	2075,(14, 136),8	2083,(14, 147),12	2101,(4, 58),58	2159,(4, 158),10	2169,(14, 142),2	2171,(4, 188),8	2179,(14, 192),6	2189,(14, 115),20	2221,(4, 90),162	2383,(4, 178),50	2433,(4, 198),18	2451,(14, 22),44	2495,(14, 156),32	2535,(14, 50),20	2555,(14, 130),8	2569,(14, 52),38	2607,(14, 121),24	2631,(4, 115),264	2915,(14, 38),16	2931,(14, 166),18	2949,(74, 201),4	2959,(4, 125),224	3183,(14, 41),68	3251,(14, 48),2	3253,(14, 158),2	3255,(14, 189),18	3279,(14, 110),14	3293,(14, 120),26	3319,(14, 140),10	3329,(14, 200),22	3351,(24, 201),4	3355,(154, 201),4	3359,(94, 201),4	3369,(14, 165),30	3399,(14, 175),88	3527,(14, 78),32	3559,(14, 128),6	3565,(14, 193),46	3721,(14, 58),46	3767,(14, 88),32	3799,(14, 168),4	3803,(14, 176),88	3891,(44, 201),4	4401,(14, 98),144	4545,(14, 108),34	4579,(14, 118),60	4639,(14, 178),38	4677,(14, 188),28	4705,(14, 198),4	4717,(4, 135),1580	6297,(4, 149),3198	9495,(14, 67),88	9583,(14, 103),166	15321,(14, 62),84	15405,(14, 182),32	15479,(14, 72),60	15623,(14, 102),60	16723,(134, 201),4	16727,(174, 201),4	16731,(114, 201),4	16755,(194, 201),4	16771,(34, 201),4	16821,(54, 201),4	16833,(64, 201),4	16881,(84, 201),4	16917,(104, 201),4	16945,(124, 201),4	16985,(144, 201),4	17075,(164, 201),4	18653,(184, 201),4	
23,(3, 21),2	25,(3, 22),44	69,(3, 25),2	71,(3, 24),8	79,(3, 26),2	81,(3, 30),26	107,(3, 36),8	115,(3, 39),2	117,(3, 40),4	121,(3, 27),10	131,(3, 49),2	133,(3, 60),2	135,(3, 65),2	137,(3, 77),2	139,(3, 74),2	141,(3, 31),220	361,(3, 32),44	405,(3, 35),30	435,(3, 41),20	455,(3, 42),16	471,(3, 56),12	483,(3, 57),60	543,(3, 59),10	553,(3, 62),10	563,(3, 66),50	613,(3, 67),14	627,(3, 71),96	723,(3, 79),22	745,(3, 81),12	757,(3, 82),2	759,(3, 87),6	765,(3, 95),2	767,(3, 102),2	769,(3, 101),2	771,(3, 105),2	773,(3, 84),16	789,(3, 85),18	807,(3, 106),2	809,(3, 110),6	815,(3, 130),2	817,(3, 139),2	819,(3, 149),2	821,(3, 107),6	827,(3, 137),2	829,(3, 166),2	831,(3, 50),40	871,(3, 100),34	905,(3, 112),54	959,(3, 124),8	967,(3, 165),4	971,(3, 171),2	973,(3, 90),172	1145,(3, 115),16	1161,(3, 120),54	1215,(3, 131),10	1225,(3, 172),2	1227,(3, 114),16	1243,(3, 117),72	1315,(3, 121),20	1335,(3, 116),84	1419,(3, 127),92	1511,(3, 129),14	1525,(3, 145),14	1539,(3, 141),192	1731,(3, 144),16	1747,(3, 160),4	1751,(3, 176),4	1755,(3, 180),10	1765,(3, 187),2	1767,(3, 190),4	1771,(3, 199),2	1773,(13, 26),2	1775,(3, 164),32	1807,(3, 184),20	1827,(3, 186),14	1841,(3, 197),8	1849,(13, 21),4	1853,(13, 41),2	1855,(13, 79),2	1857,(3, 38),2	1859,(13, 67),2	1861,(13, 31),8	1869,(13, 77),2	1871,(13, 44),6	1877,(13, 65),4	1881,(13, 84),4	1885,(13, 50),6	1891,(13, 115),2	1893,(3, 128),2	1895,(3, 138),2	1897,(3, 158),6	1903,(3, 178),4	1907,(3, 188),22	1929,(13, 66),4	1933,(3, 148),92	2025,(3, 170),72	2097,(13, 27),18	2115,(13, 37),20	2135,(13, 117),2	2137,(3, 155),52	2189,(3, 198),48	2237,(13, 22),22	2259,(13, 36),10	2269,(13, 52),2	2271,(13, 72),2	2273,(13, 76),10	2283,(13, 82),4	2287,(13, 86),2	2289,(13, 116),2	2291,(13, 119),2	2293,(3, 194),48	2341,(13, 57),42	2383,(13, 87),6	2389,(13, 125),2	2391,(13, 126),2	2393,(13, 135),4	2397,(13, 139),2	2399,(13, 146),2	2401,(13, 147),2	2403,(13, 155),2	2405,(13, 51),26	2431,(13, 159),2	2433,(13, 161),2	2435,(13, 156),2	2437,(13, 91),8	2445,(13, 96),30	2475,(13, 94),8	2483,(13, 101),10	2493,(13, 104),6	2499,(13, 112),8	2507,(13, 114),8	2515,(13, 71),78	2593,(13, 106),24	2617,(13, 124),8	2625,(13, 97),40	2665,(13, 162),2	2667,(13, 171),2	2671,(13, 184),2	2673,(13, 121),14	2687,(13, 131),116	2805,(13, 28),6	2811,(13, 48),4	2815,(13, 68),6	2821,(13, 108),2	2823,(13, 118),16	2839,(13, 148),18	2857,(13, 168),2	2859,(13, 177),6	2865,(13, 194),26	2895,(13, 122),26	2921,(13, 189),10	2931,(13, 198),6	2937,(13, 165),8	2949,(13, 30),34	2983,(13, 130),2	2985,(13, 172),28	3013,(63, 201),4	3017,(113, 201),4	3023,(13, 60),256	3279,(13, 69),112	3391,(13, 100),50	3441,(13, 109),40	3481,(13, 136),36	3517,(13, 141),58	3575,(13, 166),46	3621,(13, 170),60	3681,(13, 180),16	3697,(13, 186),18	4105,(13, 195),8	4155,(13, 38),246	4653,(153, 201),4	5095,(13, 167),48	5441,(23, 201),4	5977,(13, 158),448	6969,(43, 201),4	6973,(123, 201),4	6977,(173, 201),4	7235,(13, 105),144	7379,(13, 128),1386	12759,(13, 144),70	12829,(13, 174),196	14433,(3, 132),704	15137,(13, 132),108	15245,(13, 182),76	15739,(13, 192),280	16767,(33, 201),4	16877,(83, 201),4	16893,(93, 201),4	16913,(103, 201),4	16965,(133, 201),4	16981,(143, 201),4	17009,(73, 201),4	17047,(163, 201),4	17087,(183, 201),4	17099,(193, 201),4	17289,(53, 201),4	
21,(2, 21),2	23,(2, 36),2	25,(2, 38),2	27,(2, 25),12	39,(2, 39),2	41,(2, 24),30	71,(2, 27),50	121,(2, 33),6	127,(2, 34),12	139,(2, 41),2	141,(2, 44),8	149,(2, 45),4	153,(2, 46),84	237,(2, 50),524	761,(2, 51),8	769,(2, 53),2	771,(2, 54),2	773,(2, 59),20	793,(2, 60),2	795,(2, 61),14	809,(2, 65),2	811,(2, 67),10	821,(2, 70),10	831,(2, 71),22	853,(2, 73),2	855,(2, 74),2	857,(2, 75),2	859,(2, 77),56	915,(2, 80),58	973,(2, 83),4	977,(2, 85),22	999,(2, 86),48	1047,(2, 87),6	1053,(2, 89),20	1073,(2, 91),2	1075,(2, 99),62	1137,(2, 103),6	1143,(2, 104),84	1227,(2, 105),48	1275,(2, 106),54	1329,(2, 114),2	1331,(2, 115),2	1333,(2, 116),2	1335,(2, 117),2	1337,(2, 119),2	1339,(2, 120),196	1535,(2, 121),4	1539,(2, 123),2	1541,(2, 126),90	1631,(2, 135),40	1671,(2, 137),2	1673,(2, 140),2	1675,(2, 143),90	1765,(2, 144),10	1775,(2, 145),36	1811,(2, 149),2	1813,(2, 155),2	1815,(2, 156),4	1819,(2, 157),10	1829,(2, 165),6	1835,(2, 167),4	1839,(2, 173),2	1841,(2, 48),2	1843,(2, 78),2	1845,(2, 98),6	1851,(2, 118),4	1855,(2, 148),2	1857,(2, 171),4	1861,(2, 177),4	1865,(2, 108),10	1875,(2, 128),6	1881,(2, 138),12	1893,(2, 150),34	1927,(2, 181),2	1929,(2, 188),4	1933,(2, 184),2	1935,(12, 40),2	1937,(12, 44),2	1939,(12, 46),2	1941,(12, 47),2	1943,(2, 146),60	2003,(2, 151),68	2071,(2, 185),14	2085,(2, 186),12	2097,(2, 200),10	2107,(12, 49),12	2119,(12, 55),2	2121,(12, 89),2	2123,(2, 154),170	2293,(2, 161),112	2405,(2, 196),28	2433,(12, 56),2	2435,(12, 81),2	2437,(2, 175),70	2507,(12, 71),8	2515,(2, 179),50	2565,(12, 104),2	2567,(12, 80),4	2571,(12, 24),32	2603,(12, 27),22	2625,(12, 34),46	2671,(12, 111),2	2673,(2, 129),246	2919,(12, 25),18	2937,(12, 28),8	2945,(2, 147),622	3567,(2, 178),108	3675,(2, 183),842	4517,(2, 195),200	4717,(12, 26),36	4753,(12, 41),14	4767,(12, 50),48	4815,(12, 58),12	4827,(12, 68),4	4831,(12, 78),2	4833,(12, 86),26	4859,(12, 88),38	4897,(12, 90),6	4903,(12, 91),4	4907,(12, 96),18	4925,(12, 98),48	4973,(12, 101),30	5003,(12, 108),4	5007,(12, 109),2	5009,(12, 110),2	5011,(12, 118),4	5015,(12, 121),2	5017,(12, 126),24	5041,(12, 128),2	5043,(12, 130),2	5045,(12, 136),18	5063,(12, 139),6	5069,(12, 37),26	5095,(12, 100),258	5353,(12, 107),4	5357,(12, 117),2	5359,(12, 127),78	5437,(12, 137),8	5445,(12, 138),10	5455,(12, 146),18	5473,(12, 148),140	5613,(12, 156),2	5615,(12, 160),40	5655,(12, 166),108	5763,(12, 33),32	5795,(12, 53),18	5813,(12, 83),6	5819,(12, 103),16	5835,(12, 123),6	5841,(12, 133),24	5865,(12, 167),4	5869,(12, 168),2	5871,(12, 173),86	5957,(12, 176),2	5959,(12, 177),2	5961,(12, 183),4	5965,(12, 187),2	5967,(12, 188),10	5977,(12, 189),2	5979,(12, 190),14	5993,(12, 193),2	5995,(12, 196),2	5997,(12, 197),2	5999,(12, 199),76	6075,(32, 201),4	6079,(22, 201),4	6083,(52, 201),4	7031,(12, 35),18	7049,(12, 75),20	7069,(12, 95),28	7097,(12, 105),2	7099,(12, 115),22	7121,(12, 125),2	7123,(12, 135),18	7141,(12, 145),2	7143,(12, 165),2	7145,(12, 175),56	7201,(12, 185),34	12721,(12, 84),6	12727,(12, 114),8	12735,(12, 134),8	12743,(12, 184),16	16791,(42, 201),4	16841,(92, 201),4	16853,(72, 201),4	16861,(102, 201),4	16865,(112, 201),4	16873,(82, 201),4	16953,(162, 201),4	16957,(122, 201),4	16961,(132, 201),4	16977,(142, 201),4	17001,(152, 201),4	17337,(62, 201),4	18489,(172, 201),4	18529,(182, 201),4	18697,(192, 201),4	
1,(0, 2),2	3,(0, 3),2	5,(0, 4),2	7,(0, 5),2	9,(0, 6),2	11,(0, 7),2	13,(0, 8),2	15,(0, 9),2	17,(0, 10),2	19,(0, 12),2	21,(0, 13),2	23,(0, 14),2	25,(0, 15),2	27,(0, 16),2	29,(0, 17),2	31,(0, 18),2	33,(0, 19),2	35,(0, 20),2	37,(1, 23),2	39,(1, 24),2	41,(1, 26),38	79,(1, 28),1762	1841,(1, 29),4	1845,(1, 30),2	1847,(1, 33),2	1849,(1, 37),10	1859,(1, 38),6	1865,(1, 40),20	1885,(1, 43),2	1887,(1, 44),46	1933,(1, 45),8	1941,(1, 46),2	1943,(1, 47),2	1945,(1, 49),2	1947,(1, 50),2	1949,(1, 53),4	1953,(1, 55),2	1955,(1, 62),14	1969,(1, 64),26	1995,(1, 65),30	2025,(1, 66),18	2043,(1, 72),4	2047,(1, 74),10	2057,(1, 76),2	2059,(1, 78),42	2101,(1, 79),2	2103,(1, 83),2	2105,(1, 84),18	2123,(1, 85),14	2137,(1, 87),32	2169,(1, 88),2	2171,(1, 89),2	2173,(1, 90),42	2215,(1, 92),2	2217,(1, 93),2	2219,(1, 100),2	2221,(1, 105),104	2325,(1, 107),2	2327,(1, 108),2	2329,(1, 109),16	2345,(1, 112),60	2405,(1, 115),32	2437,(1, 116),2	2439,(1, 117),58	2497,(1, 119),18	2515,(1, 122),2	2517,(1, 123),30	2547,(1, 124),16	2563,(1, 128),2	2565,(1, 130),2	2567,(1, 132),2	2569,(1, 134),2	2571,(1, 135),10	2581,(1, 136),2	2583,(1, 138),4	2587,(1, 140),2	2589,(1, 143),2	2591,(1, 145),40	2631,(1, 146),28	2659,(1, 148),8	2667,(1, 149),6	2673,(1, 152),222	2895,(1, 154),2	2897,(1, 157),48	2945,(1, 158),6	2951,(1, 163),4	2955,(1, 164),2	2957,(1, 165),2	2959,(1, 166),2	2961,(1, 169),52	3013,(1, 170),10	3023,(1, 172),11410	14433,(1, 175),34	14467,(1, 179),78	14545,(1, 180),4	14549,(1, 183),2	14551,(1, 184),14	14565,(1, 185),2	14567,(1, 186),2	14569,(1, 189),138	14707,(1, 190),18	14725,(1, 194),20	14745,(1, 197),26	14771,(1, 198),16	14787,(1, 199),6	14793,(11, 26),12	14805,(11, 30),36	14841,(11, 33),4	14845,(11, 34),520	15365,(11, 35),2	15367,(11, 37),2	15369,(11, 38),74	15443,(11, 39),12	15455,(11, 42),24	15479,(11, 45),18	15497,(11, 46),2	15499,(11, 47),4	15503,(11, 50),10	15513,(11, 54),40	15553,(11, 55),4	15557,(11, 60),2	15559,(11, 62),18	15577,(11, 64),2	15579,(11, 65),2	15581,(11, 66),2	15583,(11, 68),26	15609,(11, 70),4	15613,(11, 72),10	15623,(11, 73),26	15649,(11, 75),30	15679,(11, 76),44	15723,(11, 80),2	15725,(11, 82),14	15739,(11, 83),48	15787,(11, 84),14	15801,(11, 86),12	15813,(11, 88),34	15847,(11, 90),92	15939,(11, 93),70	16009,(11, 99),6	16015,(11, 100),24	16039,(11, 103),2	16041,(11, 104),18	16059,(11, 105),8	16067,(11, 106),2	16069,(11, 108),2	16071,(11, 109),26	16097,(11, 110),20	16117,(11, 115),150	16267,(11, 116),24	16291,(11, 117),16	16307,(11, 118),2	16309,(11, 124),6	16315,(11, 125),6	16321,(11, 126),4	16325,(11, 127),96	16421,(11, 128),22	16443,(11, 132),28	16471,(11, 133),2	16473,(11, 135),40	16513,(11, 136),2	16515,(11, 137),14	16529,(11, 142),8	16537,(11, 143),52	16589,(11, 144),52	16641,(11, 145),2	16643,(11, 146),6	16649,(11, 147),54	16703,(11, 152),30	16733,(11, 155),24	16757,(11, 158),36	16793,(11, 160),10	16803,(11, 163),6	16809,(11, 164),2	16811,(11, 165),10	16821,(11, 166),10	16831,(11, 167),20	16851,(11, 168),2	16853,(11, 169),10	16863,(11, 176),2	16865,(11, 177),4	16869,(11, 178),36	16905,(11, 180),14	16919,(11, 182),20	16939,(11, 183),20	16959,(11, 184),14	16973,(11, 186),52	17025,(11, 188),6	17031,(11, 192),14	17045,(11, 193),2	17047,(11, 195),2	17049,(11, 196),10	17059,(11, 197),2	17061,(11, 199),2	
