3125
# CPU
477,2,2	479,36,2	481,38,2	483,40,2	953,4,2	955,47,2	957,50,2	959,54,2	961,64,2	1429,6,2	1431,18,2	1433,32,2	1435,37,2	1437,39,2	1905,8,2	1907,12,2	1909,20,2	1911,26,2	1913,53,2	1915,70,2	1917,80,2	1919,62,2	1921,63,2	1923,29,2	1925,43,2	1927,22,2	1988,33,2	2004,35,2	2014,41,2	2078,51,2	2106,56,2	2119,72,2	2121,11,2	2123,23,2	2125,30,2	2139,34,2	2141,44,2	2144,45,2	2146,58,2	2173,65,2	2214,74,2	2216,78,2	2218,10,2	2226,14,2	2234,27,2	2250,42,2	2255,46,2	2257,49,2	2259,52,2	2263,55,2	2270,67,2	2279,16,2	2281,25,2	2289,28,2	2292,31,2	2294,61,2	2304,66,2	2315,68,2	2331,69,2	2333,76,2	
0,0,1	1,1,2	3,5,2	5,3,2	7,7,2	9,57,2	11,79,2	13,77,2	15,75,2	17,48,2	19,73,2	21,9,2	959,17,2	962,19,2	965,21,2	1434,13,2	1523,24,2	1525,59,2	1913,15,2	2043,60,2	2045,71,2	3124,81,1	
# Incoming
1,(0, 2),476	477,(0, 4),476	953,(0, 6),476	1429,(0, 8),476	1905,(1, 22),3	1908,(1, 27),71	1979,(1, 33),9	1988,(1, 35),16	2004,(1, 41),10	2014,(1, 44),60	2074,(1, 51),4	2078,(1, 56),28	2106,(1, 72),13	2119,(5, 11),2	2121,(5, 23),1	2122,(5, 30),1	2123,(5, 31),1	2124,(5, 34),15	2139,(5, 44),2	2141,(5, 45),3	2144,(5, 58),2	2146,(5, 65),27	2173,(5, 74),41	2214,(5, 78),1	2215,(3, 10),1	2216,(3, 14),10	2226,(3, 27),8	2234,(3, 42),16	2250,(3, 46),5	2255,(3, 49),1	2256,(3, 52),1	2257,(3, 55),6	2263,(3, 67),7	2270,(7, 16),9	2279,(7, 25),1	2280,(7, 28),9	2289,(7, 31),3	2292,(7, 61),1	2293,(7, 66),11	2304,(7, 68),11	2315,(7, 69),16	2331,(7, 76),1	
479,(2, 24),5	484,(2, 71),2	486,(36, 81),24	510,(38, 81),24	534,(40, 81),24	955,(4, 15),3	958,(4, 17),1	959,(4, 19),3	962,(4, 21),3	965,(4, 60),3	968,(47, 81),24	992,(50, 81),24	1016,(54, 81),24	1040,(64, 81),24	1431,(6, 13),3	1434,(6, 15),10	1444,(6, 24),79	1523,(6, 59),2	1525,(18, 81),24	1549,(32, 81),24	1573,(37, 81),24	1597,(39, 81),24	1907,(8, 15),6	1913,(8, 60),130	2043,(8, 71),1	2044,(12, 81),24	2068,(20, 81),24	2092,(26, 81),24	2116,(53, 81),24	2140,(70, 81),24	2164,(80, 81),24	2188,(62, 81),24	2212,(63, 81),24	2236,(29, 81),24	2260,(43, 81),24	2284,(22, 81),24	2308,(33, 81),24	2332,(35, 81),24	2356,(41, 81),24	2380,(51, 81),24	2404,(56, 81),24	2428,(72, 81),24	2452,(11, 81),24	2476,(23, 81),24	2500,(30, 81),24	2524,(34, 81),24	2548,(44, 81),24	2572,(45, 81),24	2596,(58, 81),24	2620,(65, 81),24	2644,(74, 81),24	2668,(78, 81),24	2692,(10, 81),24	2716,(14, 81),24	2740,(27, 81),24	2764,(42, 81),24	2788,(46, 81),24	2812,(49, 81),24	2836,(52, 81),24	2860,(55, 81),24	2884,(67, 81),24	2908,(16, 81),24	2932,(25, 81),24	2956,(28, 81),24	2980,(31, 81),24	3004,(61, 81),24	3028,(66, 81),24	3052,(68, 81),24	3076,(69, 81),24	3100,(76, 81),24	
# Outgoing
479,(2, 24),5	484,(2, 71),2	486,(36, 81),24	510,(38, 81),24	534,(40, 81),24	955,(4, 15),3	958,(4, 17),1	959,(4, 19),3	962,(4, 21),3	965,(4, 60),3	968,(47, 81),24	992,(50, 81),24	1016,(54, 81),24	1040,(64, 81),24	1431,(6, 13),3	1434,(6, 15),10	1444,(6, 24),79	1523,(6, 59),2	1525,(18, 81),24	1549,(32, 81),24	1573,(37, 81),24	1597,(39, 81),24	1907,(8, 15),6	1913,(8, 60),130	2043,(8, 71),1	2044,(12, 81),24	2068,(20, 81),24	2092,(26, 81),24	2116,(53, 81),24	2140,(70, 81),24	2164,(80, 81),24	2188,(62, 81),24	2212,(63, 81),24	2236,(29, 81),24	2260,(43, 81),24	2284,(22, 81),24	2308,(33, 81),24	2332,(35, 81),24	2356,(41, 81),24	2380,(51, 81),24	2404,(56, 81),24	2428,(72, 81),24	2452,(11, 81),24	2476,(23, 81),24	2500,(30, 81),24	2524,(34, 81),24	2548,(44, 81),24	2572,(45, 81),24	2596,(58, 81),24	2620,(65, 81),24	2644,(74, 81),24	2668,(78, 81),24	2692,(10, 81),24	2716,(14, 81),24	2740,(27, 81),24	2764,(42, 81),24	2788,(46, 81),24	2812,(49, 81),24	2836,(52, 81),24	2860,(55, 81),24	2884,(67, 81),24	2908,(16, 81),24	2932,(25, 81),24	2956,(28, 81),24	2980,(31, 81),24	3004,(61, 81),24	3028,(66, 81),24	3052,(68, 81),24	3076,(69, 81),24	3100,(76, 81),24	
1,(0, 2),476	477,(0, 4),476	953,(0, 6),476	1429,(0, 8),476	1905,(1, 22),3	1908,(1, 27),71	1979,(1, 33),9	1988,(1, 35),16	2004,(1, 41),10	2014,(1, 44),60	2074,(1, 51),4	2078,(1, 56),28	2106,(1, 72),13	2119,(5, 11),2	2121,(5, 23),1	2122,(5, 30),1	2123,(5, 31),1	2124,(5, 34),15	2139,(5, 44),2	2141,(5, 45),3	2144,(5, 58),2	2146,(5, 65),27	2173,(5, 74),41	2214,(5, 78),1	2215,(3, 10),1	2216,(3, 14),10	2226,(3, 27),8	2234,(3, 42),16	2250,(3, 46),5	2255,(3, 49),1	2256,(3, 52),1	2257,(3, 55),6	2263,(3, 67),7	2270,(7, 16),9	2279,(7, 25),1	2280,(7, 28),9	2289,(7, 31),3	2292,(7, 61),1	2293,(7, 66),11	2304,(7, 68),11	2315,(7, 69),16	2331,(7, 76),1	
