1202
# CPU
0,121,1	1,100,10	11,74,10	21,26,10	31,92,10	41,84,10	51,64,10	61,75,10	71,86,10	81,109,10	91,13,10	101,106,10	111,91,10	121,67,10	131,83,10	141,117,10	151,30,10	161,103,10	171,119,10	181,96,10	191,104,10	201,82,10	211,88,10	221,72,10	231,108,10	241,116,10	251,55,10	261,110,10	271,51,10	281,57,10	291,95,10	301,18,10	311,118,10	321,115,10	331,50,10	341,52,10	351,27,10	361,37,10	371,20,10	381,90,10	391,61,10	401,48,10	411,39,10	421,79,10	431,77,10	441,28,10	451,17,10	461,113,10	471,38,10	481,36,10	491,63,10	501,49,10	511,85,10	521,35,10	531,47,10	541,41,10	551,56,10	561,32,10	571,16,10	581,60,10	591,98,10	601,99,10	611,15,10	621,80,10	631,71,10	641,102,10	651,42,10	661,59,10	671,33,10	681,46,10	691,14,10	701,53,10	711,58,10	721,23,10	731,24,10	741,93,10	751,29,10	761,43,10	771,105,10	781,94,10	791,114,10	801,54,10	811,111,10	821,107,10	831,78,10	841,97,10	851,68,10	861,25,10	871,87,10	881,31,10	891,21,10	901,70,10	911,40,10	921,65,10	931,120,10	941,81,10	951,62,10	961,19,10	971,76,10	981,1,10	991,22,10	1001,44,10	1011,7,10	1021,66,10	1031,34,10	1041,69,10	1051,12,10	1061,101,10	1071,89,10	1081,2,10	1091,112,10	1101,8,10	1111,45,10	1121,11,10	1131,4,10	1141,5,10	1151,73,10	1161,3,10	1171,6,10	1181,9,10	1191,10,10	1201,0,1	
# Incoming

# Outgoing

