3603
# CPU
135,28,14	149,37,14	163,66,14	177,18,14	191,47,14	205,57,14	219,75,14	
130,22,14	144,50,14	158,17,14	172,31,14	189,60,14	203,69,14	217,40,14	231,79,14	
106,8,14	120,68,14	134,21,14	148,39,14	162,49,14	176,16,14	190,77,14	204,30,14	218,59,14	
91,7,14	105,65,14	130,56,14	144,27,14	158,36,14	172,15,14	186,46,14	210,74,14	
76,6,14	90,29,14	104,76,14	125,14,14	139,58,14	153,67,14	167,38,14	195,48,14	
61,5,14	75,55,14	89,34,14	103,26,14	117,64,14	131,13,14	145,44,14	204,73,14	
46,4,14	60,24,14	74,71,14	111,12,14	125,33,14	139,53,14	153,62,14	167,42,14	
31,3,14	45,11,14	59,41,14	135,70,14	149,23,14	163,52,14	177,32,14	224,61,14	
16,2,14	30,10,14	44,25,14	58,78,14	72,54,14	164,43,14	182,20,14	196,63,14	296,72,14	
0,0,1	1,1,14	15,51,14	109,9,14	123,35,14	3525,80,14	3548,19,14	3562,45,14	3602,81,1	
# Incoming
133,(1, 28),2	135,(3, 37),1	136,(4, 66),2	138,(6, 18),13	151,(7, 47),1	152,(7, 57),10	162,(8, 75),2	
125,(1, 22),5	130,(3, 50),3	133,(5, 17),1	134,(7, 31),1	145,(5, 60),44	189,(6, 69),5	194,(8, 40),1	195,(8, 79),2	
91,(0, 8),15	106,(2, 68),5	111,(3, 21),1	112,(4, 39),5	117,(4, 49),2	119,(6, 16),1	120,(7, 30),1	136,(3, 59),71	
76,(0, 7),15	99,(4, 65),1	125,(6, 56),5	130,(1, 27),3	139,(5, 36),6	145,(8, 15),8	164,(1, 46),4	204,(1, 74),6	
61,(0, 6),15	76,(2, 29),10	100,(4, 76),3	110,(1, 14),15	125,(3, 58),1	126,(3, 67),1	127,(7, 38),1	168,(1, 48),27	
46,(0, 5),15	61,(2, 55),11	72,(4, 26),8	80,(4, 64),19	106,(1, 13),4	121,(6, 44),4	195,(1, 73),9	
31,(0, 4),15	46,(2, 24),1	109,(7, 12),2	111,(7, 33),1	112,(3, 53),5	117,(3, 62),5	134,(5, 42),1	
16,(0, 3),15	31,(2, 11),2	111,(2, 70),24	135,(5, 23),4	139,(7, 52),1	151,(6, 32),3	162,(7, 61),62	
1,(0, 2),15	135,(1, 43),29	164,(8, 20),18	189,(5, 63),6	207,(3, 72),89	
44,(10, 81),1	58,(25, 81),1	72,(78, 81),1	86,(54, 81),1	103,(24, 81),1	104,(71, 81),1	105,(7, 9),4	119,(65, 81),1	120,(6, 35),1	122,(11, 81),1	123,(41, 81),1	125,(12, 81),1	130,(29, 81),1	131,(76, 81),1	138,(4, 80),3387	3525,(55, 81),1	3526,(6, 19),22	3548,(34, 81),1	3549,(26, 81),1	3550,(8, 45),1	3551,(64, 81),1	3552,(68, 81),1	3553,(33, 81),1	3554,(14, 81),1	3555,(56, 81),1	3556,(22, 81),1	3557,(13, 81),1	3558,(21, 81),1	3559,(70, 81),1	3560,(28, 81),1	3561,(53, 81),1	3562,(58, 81),1	3563,(50, 81),1	3564,(27, 81),1	3565,(44, 81),1	3566,(39, 81),1	3567,(23, 81),1	3568,(37, 81),1	3569,(62, 81),1	3570,(67, 81),1	3571,(36, 81),1	3572,(17, 81),1	3573,(49, 81),1	3574,(66, 81),1	3575,(52, 81),1	3576,(43, 81),1	3577,(38, 81),1	3578,(42, 81),1	3579,(15, 81),1	3580,(31, 81),1	3581,(16, 81),1	3582,(18, 81),1	3583,(32, 81),1	3584,(20, 81),1	3585,(46, 81),1	3586,(60, 81),1	3587,(77, 81),1	3588,(47, 81),1	3589,(48, 81),1	3590,(63, 81),1	3591,(69, 81),1	3592,(30, 81),1	3593,(73, 81),1	3594,(57, 81),1	3595,(74, 81),1	3596,(40, 81),1	3597,(59, 81),1	3598,(75, 81),1	3599,(61, 81),1	3600,(79, 81),1	3601,(72, 81),1	
# Outgoing
3560,(28, 81),1	3568,(37, 81),1	3574,(66, 81),1	3582,(18, 81),1	3588,(47, 81),1	3594,(57, 81),1	3598,(75, 81),1	
3556,(22, 81),1	3563,(50, 81),1	3572,(17, 81),1	3580,(31, 81),1	3586,(60, 81),1	3591,(69, 81),1	3596,(40, 81),1	3600,(79, 81),1	
145,(8, 15),8	162,(8, 75),2	164,(8, 20),18	194,(8, 40),1	195,(8, 79),2	3550,(8, 45),1	3552,(68, 81),1	3558,(21, 81),1	3566,(39, 81),1	3573,(49, 81),1	3581,(16, 81),1	3587,(77, 81),1	3592,(30, 81),1	3597,(59, 81),1	
105,(7, 9),4	109,(7, 12),2	111,(7, 33),1	119,(65, 81),1	120,(7, 30),1	127,(7, 38),1	134,(7, 31),1	139,(7, 52),1	151,(7, 47),1	152,(7, 57),10	162,(7, 61),62	3555,(56, 81),1	3564,(27, 81),1	3571,(36, 81),1	3579,(15, 81),1	3585,(46, 81),1	3595,(74, 81),1	
119,(6, 16),1	120,(6, 35),1	121,(6, 44),4	125,(6, 56),5	130,(29, 81),1	131,(76, 81),1	138,(6, 18),13	151,(6, 32),3	189,(6, 69),5	3526,(6, 19),22	3554,(14, 81),1	3562,(58, 81),1	3570,(67, 81),1	3577,(38, 81),1	3589,(48, 81),1	
133,(5, 17),1	134,(5, 42),1	135,(5, 23),4	139,(5, 36),6	145,(5, 60),44	189,(5, 63),6	3525,(55, 81),1	3548,(34, 81),1	3549,(26, 81),1	3551,(64, 81),1	3557,(13, 81),1	3565,(44, 81),1	3593,(73, 81),1	
72,(4, 26),8	80,(4, 64),19	99,(4, 65),1	100,(4, 76),3	103,(24, 81),1	104,(71, 81),1	112,(4, 39),5	117,(4, 49),2	125,(12, 81),1	136,(4, 66),2	138,(4, 80),3387	3553,(33, 81),1	3561,(53, 81),1	3569,(62, 81),1	3578,(42, 81),1	
111,(3, 21),1	112,(3, 53),5	117,(3, 62),5	122,(11, 81),1	123,(41, 81),1	125,(3, 58),1	126,(3, 67),1	130,(3, 50),3	135,(3, 37),1	136,(3, 59),71	207,(3, 72),89	3559,(70, 81),1	3567,(23, 81),1	3575,(52, 81),1	3583,(32, 81),1	3599,(61, 81),1	
31,(2, 11),2	44,(10, 81),1	46,(2, 24),1	58,(25, 81),1	61,(2, 55),11	72,(78, 81),1	76,(2, 29),10	86,(54, 81),1	106,(2, 68),5	111,(2, 70),24	3576,(43, 81),1	3584,(20, 81),1	3590,(63, 81),1	3601,(72, 81),1	
1,(0, 2),15	16,(0, 3),15	31,(0, 4),15	46,(0, 5),15	61,(0, 6),15	76,(0, 7),15	91,(0, 8),15	106,(1, 13),4	110,(1, 14),15	125,(1, 22),5	130,(1, 27),3	133,(1, 28),2	135,(1, 43),29	164,(1, 46),4	168,(1, 48),27	195,(1, 73),9	204,(1, 74),6	
