339
# CPU
35,3,13	48,8,13	61,15,13	74,9,13	87,36,13	100,27,13	113,30,13	126,18,13	139,21,13	152,24,13	165,12,13	245,33,13	258,39,13	
18,2,13	31,14,13	44,23,13	57,7,13	70,17,13	83,20,13	96,5,13	109,38,13	122,11,13	135,26,13	148,29,13	161,32,13	174,35,13	
0,0,1	1,4,13	14,1,13	27,6,13	40,16,13	53,40,13	66,28,13	79,10,13	92,25,13	105,19,13	118,13,13	131,22,13	144,31,13	157,37,13	253,34,13	338,41,1	
# Incoming
18,(0, 3),17	35,(2, 8),5	42,(4, 15),3	47,(4, 21),23	70,(4, 24),1	71,(4, 33),9	83,(1, 12),4	90,(2, 33),155	253,(2, 39),1	
1,(0, 2),17	35,(4, 7),6	41,(4, 11),1	45,(4, 17),1	46,(4, 20),1	48,(3, 5),1	49,(3, 26),1	50,(3, 38),10	80,(1, 11),3	87,(1, 26),1	88,(1, 29),4	92,(1, 32),1	93,(3, 35),41	
40,(2, 13),8	48,(2, 22),3	51,(2, 31),39	90,(3, 37),1	134,(8, 41),6	140,(15, 41),6	146,(9, 41),6	152,(36, 41),6	158,(27, 41),6	164,(30, 41),6	170,(18, 41),6	176,(21, 41),6	182,(24, 41),6	188,(12, 41),6	245,(2, 34),8	254,(14, 41),6	260,(23, 41),6	266,(7, 41),6	272,(17, 41),6	278,(20, 41),6	284,(5, 41),6	290,(38, 41),6	296,(11, 41),6	302,(26, 41),6	308,(29, 41),6	314,(32, 41),6	320,(35, 41),6	326,(33, 41),6	332,(39, 41),6	
# Outgoing
48,(3, 5),1	49,(3, 26),1	50,(3, 38),10	90,(3, 37),1	93,(3, 35),41	134,(8, 41),6	140,(15, 41),6	146,(9, 41),6	152,(36, 41),6	158,(27, 41),6	164,(30, 41),6	170,(18, 41),6	176,(21, 41),6	182,(24, 41),6	188,(12, 41),6	326,(33, 41),6	332,(39, 41),6	
35,(2, 8),5	40,(2, 13),8	48,(2, 22),3	51,(2, 31),39	90,(2, 33),155	245,(2, 34),8	253,(2, 39),1	254,(14, 41),6	260,(23, 41),6	266,(7, 41),6	272,(17, 41),6	278,(20, 41),6	284,(5, 41),6	290,(38, 41),6	296,(11, 41),6	302,(26, 41),6	308,(29, 41),6	314,(32, 41),6	320,(35, 41),6	
1,(0, 2),17	18,(0, 3),17	35,(4, 7),6	41,(4, 11),1	42,(4, 15),3	45,(4, 17),1	46,(4, 20),1	47,(4, 21),23	70,(4, 24),1	71,(4, 33),9	80,(1, 11),3	83,(1, 12),4	87,(1, 26),1	88,(1, 29),4	92,(1, 32),1	
