1241
# CPU
3,3,11	14,6,11	25,25,11	36,35,11	47,45,11	58,29,11	69,59,11	80,79,11	91,47,11	102,33,11	113,77,11	124,18,11	135,23,11	146,37,11	157,61,11	168,67,11	179,71,11	190,73,11	201,31,11	212,41,11	223,55,11	234,57,11	245,75,11	256,12,11	267,21,11	291,53,11	302,65,11	313,69,11	324,9,11	335,15,11	346,43,11	357,51,11	368,63,11	1190,27,11	1217,39,11	1228,49,11	
2,2,11	13,5,11	24,8,11	35,72,11	46,76,11	57,32,11	68,50,11	79,52,11	90,36,11	101,42,11	112,44,11	123,13,11	134,24,11	145,56,11	156,62,11	167,28,11	178,78,11	189,11,11	200,16,11	211,26,11	222,34,11	233,54,11	244,20,11	255,40,11	382,46,11	413,48,11	424,60,11	435,70,11	446,74,11	457,80,11	468,38,11	496,68,11	507,30,11	518,58,11	529,64,11	540,66,11	551,22,11	1240,81,1	
0,0,1	1,1,11	12,7,11	23,4,11	187,14,11	198,10,11	209,17,11	1180,19,11	
# Incoming
2,(0, 3),1	4,(0, 6),1	13,(1, 29),11	24,(1, 33),2	26,(1, 39),1	27,(1, 55),1	28,(1, 57),55	83,(2, 9),18	103,(1, 65),1	104,(1, 77),1	105,(2, 18),2	107,(2, 23),2	109,(2, 37),1	110,(2, 49),22	132,(2, 61),8	140,(2, 67),15	155,(2, 71),1	156,(2, 73),25	181,(7, 31),6	187,(7, 41),1	188,(7, 43),1	189,(7, 55),1	190,(7, 57),3	193,(7, 75),32	225,(5, 12),9	234,(5, 21),6	240,(5, 53),51	291,(5, 65),3	294,(5, 69),3	297,(4, 9),2	299,(4, 15),23	322,(4, 43),9	331,(4, 51),1	332,(4, 63),33	1180,(8, 27),10	1190,(8, 39),27	1217,(8, 49),2	
1,(0, 2),1	3,(0, 5),1	5,(0, 8),1	12,(1, 13),1	83,(1, 60),9	92,(1, 62),11	105,(7, 26),7	112,(7, 28),2	114,(7, 34),10	124,(7, 78),7	131,(4, 11),13	144,(4, 16),1	145,(4, 20),2	147,(4, 26),1	148,(4, 34),1	149,(4, 40),1	150,(4, 54),1	154,(3, 20),1	155,(3, 22),5	160,(3, 40),8	168,(3, 46),214	382,(3, 48),31	413,(3, 60),10	423,(3, 70),2	425,(3, 74),1	426,(3, 80),1	427,(7, 38),37	464,(7, 68),32	496,(6, 30),2	498,(6, 58),8	506,(6, 64),1	507,(6, 66),7	514,(4, 22),8	522,(25, 81),1	523,(35, 81),1	524,(45, 81),1	525,(29, 81),1	526,(59, 81),1	527,(79, 81),1	528,(47, 81),1	529,(33, 81),1	530,(77, 81),1	531,(18, 81),1	532,(23, 81),1	533,(37, 81),1	534,(61, 81),1	535,(67, 81),1	536,(71, 81),1	537,(14, 81),1	538,(73, 81),1	539,(10, 81),1	540,(31, 81),1	541,(17, 81),1	542,(41, 81),1	543,(55, 81),1	544,(57, 81),1	545,(75, 81),1	546,(12, 81),1	547,(21, 81),1	548,(53, 81),1	549,(65, 81),1	550,(69, 81),1	551,(9, 81),1	552,(15, 81),1	553,(43, 81),1	554,(51, 81),1	555,(63, 81),1	1191,(19, 81),1	1201,(27, 81),1	1228,(39, 81),1	1239,(49, 81),1	
101,(2, 17),2	103,(3, 19),51	181,(5, 14),6	187,(8, 10),3	190,(8, 17),14	297,(8, 19),883	
# Outgoing
103,(3, 19),51	154,(3, 20),1	155,(3, 22),5	160,(3, 40),8	168,(3, 46),214	382,(3, 48),31	413,(3, 60),10	423,(3, 70),2	425,(3, 74),1	426,(3, 80),1	496,(6, 30),2	498,(6, 58),8	506,(6, 64),1	507,(6, 66),7	522,(25, 81),1	523,(35, 81),1	524,(45, 81),1	525,(29, 81),1	526,(59, 81),1	527,(79, 81),1	528,(47, 81),1	529,(33, 81),1	530,(77, 81),1	531,(18, 81),1	532,(23, 81),1	533,(37, 81),1	534,(61, 81),1	535,(67, 81),1	536,(71, 81),1	538,(73, 81),1	540,(31, 81),1	542,(41, 81),1	543,(55, 81),1	544,(57, 81),1	545,(75, 81),1	546,(12, 81),1	547,(21, 81),1	548,(53, 81),1	549,(65, 81),1	550,(69, 81),1	551,(9, 81),1	552,(15, 81),1	553,(43, 81),1	554,(51, 81),1	555,(63, 81),1	1201,(27, 81),1	1228,(39, 81),1	1239,(49, 81),1	
83,(2, 9),18	101,(2, 17),2	105,(2, 18),2	107,(2, 23),2	109,(2, 37),1	110,(2, 49),22	132,(2, 61),8	140,(2, 67),15	155,(2, 71),1	156,(2, 73),25	181,(5, 14),6	187,(8, 10),3	190,(8, 17),14	225,(5, 12),9	234,(5, 21),6	240,(5, 53),51	291,(5, 65),3	294,(5, 69),3	297,(8, 19),883	1180,(8, 27),10	1190,(8, 39),27	1217,(8, 49),2	
1,(0, 2),1	2,(0, 3),1	3,(0, 5),1	4,(0, 6),1	5,(0, 8),1	12,(1, 13),1	13,(1, 29),11	24,(1, 33),2	26,(1, 39),1	27,(1, 55),1	28,(1, 57),55	83,(1, 60),9	92,(1, 62),11	103,(1, 65),1	104,(1, 77),1	105,(7, 26),7	112,(7, 28),2	114,(7, 34),10	124,(7, 78),7	131,(4, 11),13	144,(4, 16),1	145,(4, 20),2	147,(4, 26),1	148,(4, 34),1	149,(4, 40),1	150,(4, 54),1	181,(7, 31),6	187,(7, 41),1	188,(7, 43),1	189,(7, 55),1	190,(7, 57),3	193,(7, 75),32	297,(4, 9),2	299,(4, 15),23	322,(4, 43),9	331,(4, 51),1	332,(4, 63),33	427,(7, 38),37	464,(7, 68),32	514,(4, 22),8	537,(14, 81),1	539,(10, 81),1	541,(17, 81),1	1191,(19, 81),1	
