929
# CPU
0,0,1	1,6,9	10,2,9	19,1,9	28,5,9	37,3,9	46,4,9	55,77,9	64,80,9	73,16,9	82,25,9	91,9,9	100,73,9	109,75,9	118,72,9	127,58,9	136,19,9	145,15,9	154,64,9	163,31,9	
7,8,9	16,20,9	25,28,9	34,47,9	43,76,9	52,62,9	61,45,9	70,37,9	79,55,9	88,38,9	97,14,9	
4,7,9	13,21,9	22,39,9	31,36,9	40,54,9	49,59,9	271,46,9	721,40,9	
178,56,9	322,50,9	481,17,9	529,26,9	583,35,9	877,57,9	928,81,1	
28,10,9	241,23,9	634,69,9	817,61,9	841,33,9	856,49,9	
34,24,9	415,79,9	532,34,9	670,70,9	679,11,9	733,63,9	
166,65,9	391,71,9	433,12,9	718,27,9	808,41,9	859,51,9	
325,52,9	586,42,9	604,48,9	673,74,9	802,13,9	880,66,9	
85,43,9	268,30,9	679,18,9	751,67,9	838,78,9	868,53,9	
37,29,9	46,32,9	610,60,9	805,22,9	814,44,9	883,68,9	
# Incoming

4,(0, 8),3	28,(7, 14),6	
1,(0, 7),3	46,(6, 40),6	268,(2, 46),3	718,(5, 40),3	
85,(6, 56),69	154,(7, 17),15	169,(8, 56),9	178,(21, 81),3	181,(20, 81),3	184,(39, 81),3	187,(28, 81),3	190,(10, 81),3	193,(36, 81),3	196,(24, 81),3	199,(47, 81),3	202,(29, 81),3	205,(54, 81),3	208,(76, 81),3	211,(32, 81),3	214,(59, 81),3	217,(62, 81),3	220,(45, 81),3	223,(37, 81),3	226,(55, 81),3	229,(43, 81),3	232,(38, 81),3	235,(14, 81),3	238,(65, 81),3	250,(23, 81),3	271,(2, 50),51	322,(30, 81),3	325,(2, 57),63	388,(46, 81),3	391,(52, 81),3	400,(71, 81),3	424,(79, 81),3	433,(1, 17),48	481,(1, 26),48	529,(12, 81),3	532,(1, 35),51	583,(34, 81),3	595,(42, 81),3	613,(48, 81),3	619,(60, 81),3	643,(69, 81),3	679,(70, 81),3	682,(74, 81),3	688,(11, 81),3	691,(18, 81),3	727,(27, 81),3	730,(40, 81),3	742,(63, 81),3	760,(67, 81),3	811,(13, 81),3	814,(22, 81),3	817,(41, 81),3	823,(44, 81),3	826,(61, 81),3	847,(78, 81),3	850,(33, 81),3	865,(49, 81),3	868,(4, 57),9	877,(51, 81),3	880,(53, 81),3	883,(77, 81),3	886,(80, 81),3	889,(16, 81),3	892,(25, 81),3	895,(9, 81),3	898,(73, 81),3	901,(75, 81),3	904,(72, 81),3	907,(58, 81),3	910,(19, 81),3	913,(15, 81),3	916,(64, 81),3	919,(31, 81),3	922,(66, 81),3	925,(68, 81),3	
10,(6, 10),12	22,(7, 10),6	238,(2, 23),3	610,(1, 69),24	814,(3, 61),3	838,(4, 33),3	841,(4, 49),15	
22,(6, 24),12	34,(7, 70),18	166,(6, 70),3	169,(6, 79),33	391,(2, 79),24	529,(1, 34),3	634,(1, 70),36	673,(5, 11),3	721,(5, 63),12	
154,(6, 65),12	388,(2, 71),3	415,(1, 12),18	679,(5, 27),39	805,(3, 41),3	856,(4, 51),3	
322,(2, 52),3	583,(1, 42),3	586,(1, 48),18	670,(1, 74),3	781,(3, 13),21	877,(4, 66),3	
52,(6, 43),33	241,(2, 30),27	676,(5, 18),3	733,(5, 67),18	751,(5, 78),30	817,(3, 78),21	859,(4, 53),9	
34,(6, 29),3	37,(6, 32),9	202,(2, 22),36	604,(1, 60),6	802,(3, 22),3	808,(3, 44),6	880,(4, 68),3	
# Outgoing
1,(0, 7),3	4,(0, 8),3	10,(6, 10),12	22,(6, 24),12	34,(6, 29),3	37,(6, 32),9	46,(6, 40),6	52,(6, 43),33	85,(6, 56),69	154,(6, 65),12	166,(6, 70),3	169,(6, 79),33	202,(2, 22),36	238,(2, 23),3	241,(2, 30),27	268,(2, 46),3	271,(2, 50),51	322,(2, 52),3	325,(2, 57),63	388,(2, 71),3	391,(2, 79),24	415,(1, 12),18	433,(1, 17),48	481,(1, 26),48	529,(1, 34),3	532,(1, 35),51	583,(1, 42),3	586,(1, 48),18	604,(1, 60),6	610,(1, 69),24	634,(1, 70),36	670,(1, 74),3	673,(5, 11),3	676,(5, 18),3	679,(5, 27),39	718,(5, 40),3	721,(5, 63),12	733,(5, 67),18	751,(5, 78),30	781,(3, 13),21	802,(3, 22),3	805,(3, 41),3	808,(3, 44),6	814,(3, 61),3	817,(3, 78),21	838,(4, 33),3	841,(4, 49),15	856,(4, 51),3	859,(4, 53),9	868,(4, 57),9	877,(4, 66),3	880,(4, 68),3	883,(77, 81),3	886,(80, 81),3	889,(16, 81),3	892,(25, 81),3	895,(9, 81),3	898,(73, 81),3	901,(75, 81),3	904,(72, 81),3	907,(58, 81),3	910,(19, 81),3	913,(15, 81),3	916,(64, 81),3	919,(31, 81),3	
169,(8, 56),9	181,(20, 81),3	187,(28, 81),3	199,(47, 81),3	208,(76, 81),3	217,(62, 81),3	220,(45, 81),3	223,(37, 81),3	226,(55, 81),3	232,(38, 81),3	235,(14, 81),3	
22,(7, 10),6	28,(7, 14),6	34,(7, 70),18	154,(7, 17),15	178,(21, 81),3	184,(39, 81),3	193,(36, 81),3	205,(54, 81),3	214,(59, 81),3	388,(46, 81),3	730,(40, 81),3	

190,(10, 81),3	250,(23, 81),3	643,(69, 81),3	826,(61, 81),3	850,(33, 81),3	865,(49, 81),3	
196,(24, 81),3	424,(79, 81),3	583,(34, 81),3	679,(70, 81),3	688,(11, 81),3	742,(63, 81),3	
238,(65, 81),3	400,(71, 81),3	529,(12, 81),3	727,(27, 81),3	817,(41, 81),3	877,(51, 81),3	
391,(52, 81),3	595,(42, 81),3	613,(48, 81),3	682,(74, 81),3	811,(13, 81),3	922,(66, 81),3	
229,(43, 81),3	322,(30, 81),3	691,(18, 81),3	760,(67, 81),3	847,(78, 81),3	880,(53, 81),3	
202,(29, 81),3	211,(32, 81),3	619,(60, 81),3	814,(22, 81),3	823,(44, 81),3	925,(68, 81),3	
