214
# CPU
0,21,1	1,19,8	9,8,8	17,13,8	25,14,8	33,4,8	41,15,8	49,10,8	57,11,8	65,6,8	73,5,8	81,7,8	89,18,8	97,3,8	105,2,8	205,1,8	213,0,1	
5,12,8	13,16,8	21,17,8	
9,9,8	17,20,8	


# Incoming
17,(9, 2),4	21,(9, 1),4	29,(17, 2),12	41,(12, 1),24	65,(16, 1),24	89,(20, 1),76	165,(17, 1),40	
1,(21, 12),4	9,(21, 16),4	17,(21, 17),4	
5,(21, 9),4	13,(21, 20),4	


# Outgoing
1,(21, 12),4	5,(21, 9),4	9,(21, 16),4	13,(21, 20),4	17,(21, 17),4	
29,(17, 2),12	41,(12, 1),24	65,(16, 1),24	165,(17, 1),40	
17,(9, 2),4	21,(9, 1),4	89,(20, 1),76	


