11522
# CPU
13,3,14	27,6,14	43,10,14	484,60,14	655,42,14	847,30,14	865,33,14	907,63,14	940,27,14	954,39,14	968,51,14	982,54,14	1015,15,14	1123,18,14	1192,21,14	1777,57,14	1791,66,14	1805,69,14	1834,75,14	1924,36,14	1957,78,14	2026,12,14	2040,24,14	2054,45,14	2068,48,14	2082,72,14	
7,2,14	21,5,14	35,8,14	49,47,14	97,11,14	111,23,14	289,14,14	303,17,14	355,32,14	421,53,14	559,74,14	652,77,14	1012,71,14	1048,26,14	1062,29,14	1076,35,14	1090,41,14	1276,56,14	1290,59,14	1304,65,14	1345,62,14	1474,20,14	1488,38,14	1516,44,14	1591,50,14	1605,68,14	1651,80,14	
0,0,1	1,4,14	15,1,14	29,7,14	43,16,14	57,73,14	71,9,14	133,67,14	304,64,14	318,22,14	332,25,14	355,55,14	415,37,14	429,43,14	443,70,14	457,40,14	471,31,14	547,13,14	580,79,14	594,46,14	608,52,14	622,58,14	1183,19,14	1279,34,14	1537,49,14	1954,28,14	2056,61,14	2074,76,14	11521,81,1	
# Incoming
7,(0, 3),6	19,(0, 6),6	25,(2, 15),6	31,(4, 10),12	43,(2, 24),3	46,(2, 30),3	49,(2, 33),12	97,(4, 12),3	109,(4, 30),3	112,(4, 33),9	121,(4, 36),306	427,(2, 57),6	433,(2, 63),3	436,(5, 27),3	439,(4, 54),39	478,(4, 57),3	481,(4, 60),3	484,(4, 63),3	487,(4, 75),111	598,(2, 42),57	655,(2, 69),18	673,(1, 12),144	817,(1, 18),12	829,(1, 24),15	844,(1, 30),3	847,(1, 33),18	865,(1, 48),24	889,(1, 57),15	904,(1, 63),3	907,(1, 66),24	931,(7, 27),9	940,(7, 39),6	946,(7, 45),6	952,(7, 51),9	961,(7, 54),12	985,(5, 15),30	1015,(5, 18),108	1183,(5, 21),9	1297,(1, 75),99	1396,(5, 36),54	1450,(5, 57),327	1777,(5, 66),6	1783,(5, 69),3	1786,(5, 72),24	1810,(5, 75),24	1834,(7, 36),90	1924,(7, 78),33	1957,(8, 12),69	2026,(8, 24),6	2032,(8, 45),12	2044,(8, 48),3	2056,(8, 72),9	
1,(0, 2),6	13,(0, 5),6	25,(0, 8),6	43,(4, 11),54	100,(4, 14),3	103,(4, 17),3	106,(4, 23),3	286,(3, 14),3	289,(3, 17),12	301,(3, 20),3	316,(3, 26),3	331,(3, 32),24	418,(3, 53),3	421,(3, 68),3	427,(4, 50),12	439,(3, 41),33	496,(3, 62),45	541,(6, 38),12	553,(6, 56),3	556,(6, 74),3	559,(6, 80),3	598,(4, 77),54	652,(3, 59),222	874,(3, 71),138	1012,(1, 20),33	1045,(1, 26),3	1048,(1, 29),12	1060,(1, 35),15	1075,(1, 41),3	1078,(1, 56),198	1276,(1, 59),3	1279,(1, 65),3	1282,(1, 68),15	1297,(6, 62),48	1396,(7, 20),78	1474,(7, 38),3	1477,(7, 44),39	1516,(7, 50),75	1591,(7, 68),9	1600,(7, 80),51	
61,(2, 40),51	112,(2, 52),3	115,(2, 58),9	124,(2, 67),9	133,(2, 70),15	148,(3, 13),138	286,(5, 25),3	289,(5, 28),3	292,(5, 70),3	295,(8, 34),3	298,(8, 58),3	301,(8, 64),3	304,(3, 22),9	313,(3, 25),3	319,(3, 28),3	322,(3, 31),9	331,(8, 55),24	355,(3, 34),45	400,(3, 37),15	415,(3, 43),3	424,(3, 70),3	427,(6, 40),12	439,(5, 31),30	472,(3, 61),24	496,(5, 13),51	547,(5, 79),33	580,(6, 46),9	589,(6, 52),6	595,(6, 58),24	673,(2, 76),312	1123,(5, 19),60	1192,(5, 34),87	1279,(5, 61),75	1354,(6, 49),183	1537,(10, 81),201	1834,(8, 28),120	2047,(8, 61),9	2065,(8, 76),9	2074,(47, 81),201	2275,(11, 81),201	2476,(23, 81),201	2677,(14, 81),201	2878,(17, 81),201	3079,(32, 81),201	3280,(53, 81),201	3481,(60, 81),201	3682,(74, 81),201	3883,(77, 81),201	4084,(42, 81),201	4285,(30, 81),201	4486,(33, 81),201	4687,(63, 81),201	4888,(27, 81),201	5089,(39, 81),201	5290,(51, 81),201	5491,(54, 81),201	5692,(71, 81),201	5893,(15, 81),201	6094,(26, 81),201	6295,(29, 81),201	6496,(35, 81),201	6697,(41, 81),201	6898,(18, 81),201	7099,(21, 81),201	7300,(56, 81),201	7501,(59, 81),201	7702,(65, 81),201	7903,(62, 81),201	8104,(20, 81),201	8305,(38, 81),201	8506,(44, 81),201	8707,(50, 81),201	8908,(68, 81),201	9109,(80, 81),201	9310,(57, 81),201	9511,(66, 81),201	9712,(69, 81),201	9913,(75, 81),201	10114,(36, 81),201	10315,(78, 81),201	10516,(12, 81),201	10717,(24, 81),201	10918,(45, 81),201	11119,(48, 81),201	11320,(72, 81),201	
# Outgoing
148,(3, 13),138	286,(3, 14),3	289,(3, 17),12	301,(3, 20),3	304,(3, 22),9	313,(3, 25),3	316,(3, 26),3	319,(3, 28),3	322,(3, 31),9	331,(3, 32),24	355,(3, 34),45	400,(3, 37),15	415,(3, 43),3	418,(3, 53),3	421,(3, 68),3	424,(3, 70),3	427,(6, 40),12	439,(3, 41),33	472,(3, 61),24	496,(3, 62),45	541,(6, 38),12	553,(6, 56),3	556,(6, 74),3	559,(6, 80),3	580,(6, 46),9	589,(6, 52),6	595,(6, 58),24	652,(3, 59),222	874,(3, 71),138	1297,(6, 62),48	1354,(6, 49),183	1537,(10, 81),201	3481,(60, 81),201	4084,(42, 81),201	4285,(30, 81),201	4486,(33, 81),201	4687,(63, 81),201	4888,(27, 81),201	5089,(39, 81),201	5290,(51, 81),201	5491,(54, 81),201	5893,(15, 81),201	6898,(18, 81),201	7099,(21, 81),201	9310,(57, 81),201	9511,(66, 81),201	9712,(69, 81),201	9913,(75, 81),201	10114,(36, 81),201	10315,(78, 81),201	10516,(12, 81),201	10717,(24, 81),201	10918,(45, 81),201	11119,(48, 81),201	11320,(72, 81),201	
25,(2, 15),6	43,(2, 24),3	46,(2, 30),3	49,(2, 33),12	61,(2, 40),51	112,(2, 52),3	115,(2, 58),9	124,(2, 67),9	133,(2, 70),15	286,(5, 25),3	289,(5, 28),3	292,(5, 70),3	295,(8, 34),3	298,(8, 58),3	301,(8, 64),3	331,(8, 55),24	427,(2, 57),6	433,(2, 63),3	436,(5, 27),3	439,(5, 31),30	496,(5, 13),51	547,(5, 79),33	598,(2, 42),57	655,(2, 69),18	673,(2, 76),312	985,(5, 15),30	1015,(5, 18),108	1123,(5, 19),60	1183,(5, 21),9	1192,(5, 34),87	1279,(5, 61),75	1396,(5, 36),54	1450,(5, 57),327	1777,(5, 66),6	1783,(5, 69),3	1786,(5, 72),24	1810,(5, 75),24	1834,(8, 28),120	1957,(8, 12),69	2026,(8, 24),6	2032,(8, 45),12	2044,(8, 48),3	2047,(8, 61),9	2056,(8, 72),9	2065,(8, 76),9	2074,(47, 81),201	2275,(11, 81),201	2476,(23, 81),201	2677,(14, 81),201	2878,(17, 81),201	3079,(32, 81),201	3280,(53, 81),201	3682,(74, 81),201	3883,(77, 81),201	5692,(71, 81),201	6094,(26, 81),201	6295,(29, 81),201	6496,(35, 81),201	6697,(41, 81),201	7300,(56, 81),201	7501,(59, 81),201	7702,(65, 81),201	7903,(62, 81),201	8104,(20, 81),201	8305,(38, 81),201	8506,(44, 81),201	8707,(50, 81),201	8908,(68, 81),201	9109,(80, 81),201	
1,(0, 2),6	7,(0, 3),6	13,(0, 5),6	19,(0, 6),6	25,(0, 8),6	31,(4, 10),12	43,(4, 11),54	97,(4, 12),3	100,(4, 14),3	103,(4, 17),3	106,(4, 23),3	109,(4, 30),3	112,(4, 33),9	121,(4, 36),306	427,(4, 50),12	439,(4, 54),39	478,(4, 57),3	481,(4, 60),3	484,(4, 63),3	487,(4, 75),111	598,(4, 77),54	673,(1, 12),144	817,(1, 18),12	829,(1, 24),15	844,(1, 30),3	847,(1, 33),18	865,(1, 48),24	889,(1, 57),15	904,(1, 63),3	907,(1, 66),24	931,(7, 27),9	940,(7, 39),6	946,(7, 45),6	952,(7, 51),9	961,(7, 54),12	1012,(1, 20),33	1045,(1, 26),3	1048,(1, 29),12	1060,(1, 35),15	1075,(1, 41),3	1078,(1, 56),198	1276,(1, 59),3	1279,(1, 65),3	1282,(1, 68),15	1297,(1, 75),99	1396,(7, 20),78	1474,(7, 38),3	1477,(7, 44),39	1516,(7, 50),75	1591,(7, 68),9	1600,(7, 80),51	1834,(7, 36),90	1924,(7, 78),33	
