4442
# CPU
37,5,1	38,38,1	39,39,1	64,88,1	73,10,1	74,28,1	75,37,1	76,90,1	109,23,1	112,43,1	124,96,1	415,52,1	442,79,1	850,56,1	1126,45,1	1132,51,1	1141,66,1	1156,64,1	1237,77,1	1375,86,1	1387,40,1	1432,104,1	1546,98,1	1555,100,1	1567,31,1	1570,108,1	1573,50,1	1579,30,1	1642,92,1	1651,62,1	1729,73,1	1747,41,1	1801,68,1	1804,75,1	3757,60,1	3772,70,1	3844,102,1	3859,110,1	3892,29,1	3934,35,1	3955,81,1	3958,94,1	4012,114,1	4087,120,1	4105,25,1	4153,34,1	4165,84,1	4180,106,1	4261,112,1	4300,116,1	4333,118,1	
28,4,1	34,80,1	64,9,1	65,97,1	217,44,1	406,103,1	823,46,1	832,63,1	928,42,1	952,109,1	1039,71,1	1141,91,1	1189,69,1	1228,107,1	1234,55,1	1237,95,1	1243,78,1	1303,48,1	1342,26,1	1384,119,1	1387,99,1	1399,59,1	1480,113,1	1516,115,1	1528,111,1	1552,19,1	1558,20,1	1639,33,1	1642,61,1	1747,67,1	1843,22,1	1849,76,1	1852,83,1	1855,117,1	2071,101,1	2107,65,1	2119,89,1	2155,105,1	3760,74,1	3802,27,1	3847,32,1	3901,36,1	3922,85,1	3970,87,1	3979,93,1	4441,121,1	
19,3,1	55,8,1	334,17,1	1135,58,1	1361,24,1	1373,53,1	1576,21,1	1894,72,1	
10,2,1	46,7,1	82,12,1	83,57,1	193,18,1	619,54,1	1220,16,1	1651,15,1	
0,0,1	1,6,1	2,1,1	3,11,1	4,82,1	29,49,1	958,13,1	1051,14,1	1252,47,1	
# Incoming
28,(0, 5),9	37,(3, 25),12	49,(2, 50),3	52,(2, 64),3	55,(2, 88),9	64,(0, 10),9	73,(2, 43),18	91,(2, 92),15	106,(7, 23),3	109,(6, 43),3	112,(6, 62),6	118,(2, 96),6	124,(3, 51),6	130,(6, 64),81	211,(6, 70),3	214,(2, 108),9	223,(2, 112),54	277,(3, 34),87	364,(3, 35),27	391,(3, 41),12	403,(7, 52),12	415,(7, 64),3	418,(7, 79),24	442,(7, 98),18	460,(7, 120),3	463,(6, 110),18	481,(6, 112),312	793,(8, 68),3	796,(6, 116),3	799,(6, 120),33	832,(3, 56),18	850,(1, 40),3	853,(1, 41),3	856,(1, 45),270	1126,(1, 51),6	1132,(8, 73),3	1135,(1, 66),6	1141,(3, 64),15	1156,(3, 68),24	1180,(3, 70),9	1189,(1, 77),48	1237,(7, 112),6	1243,(1, 81),96	1339,(1, 86),36	1375,(1, 92),9	1384,(4, 40),3	1387,(1, 100),3	1390,(1, 102),30	1420,(1, 104),12	1432,(3, 98),9	1441,(4, 25),96	1537,(4, 98),9	1546,(4, 100),9	1555,(8, 31),12	1567,(8, 108),3	1570,(12, 50),3	1573,(12, 60),3	1576,(11, 30),3	1579,(7, 94),54	1633,(12, 62),6	1639,(12, 92),3	1642,(11, 62),9	1651,(4, 73),78	1729,(8, 41),18	1747,(11, 68),54	1801,(11, 75),3	1810,(11, 102),33	1843,(11, 112),9	1852,(2, 70),1776	3628,(8, 34),117	3745,(8, 60),12	3757,(8, 70),15	3772,(8, 81),21	3793,(8, 102),51	3844,(8, 110),15	3859,(8, 116),21	3880,(9, 29),12	3892,(9, 35),42	3934,(9, 81),21	3955,(9, 94),3	3958,(9, 106),3	3961,(9, 114),51	4012,(9, 118),54	4066,(9, 120),21	4087,(12, 25),18	4105,(12, 34),48	4153,(12, 84),12	4165,(12, 106),15	4180,(12, 112),81	4261,(12, 116),39	4300,(12, 118),33	
19,(0, 4),9	28,(2, 19),3	31,(3, 80),3	34,(2, 22),9	43,(2, 27),6	49,(3, 65),6	55,(0, 9),9	64,(2, 87),6	70,(2, 95),3	73,(3, 33),24	97,(6, 27),3	100,(6, 42),9	109,(2, 117),9	118,(6, 63),12	130,(2, 48),36	166,(2, 69),24	190,(2, 113),18	208,(3, 44),9	217,(3, 101),3	220,(6, 93),129	349,(6, 99),54	403,(6, 103),3	406,(6, 109),57	463,(2, 59),60	523,(2, 93),132	655,(2, 101),114	769,(2, 119),18	787,(5, 26),3	790,(7, 22),3	793,(6, 115),3	796,(3, 85),15	811,(5, 46),12	823,(5, 63),9	832,(1, 19),18	850,(3, 42),78	928,(3, 109),24	952,(5, 67),78	1030,(5, 71),9	1039,(5, 93),18	1057,(38, 121),21	1078,(39, 121),21	1099,(7, 32),6	1105,(7, 55),3	1108,(7, 76),3	1111,(7, 91),30	1141,(1, 69),48	1189,(7, 107),39	1228,(7, 115),3	1231,(8, 55),3	1234,(8, 95),3	1237,(1, 78),6	1243,(7, 48),60	1303,(8, 26),39	1342,(8, 32),18	1360,(8, 36),15	1375,(8, 119),9	1384,(1, 99),3	1387,(8, 59),12	1399,(8, 83),33	1432,(1, 111),3	1435,(1, 113),45	1480,(1, 115),36	1516,(8, 111),12	1528,(88, 121),21	1549,(10, 19),3	1552,(10, 20),6	1558,(10, 32),6	1564,(10, 61),15	1579,(11, 32),9	1588,(11, 33),51	1639,(11, 61),3	1642,(10, 67),9	1651,(11, 65),42	1693,(11, 67),54	1747,(8, 117),54	1801,(10, 101),3	1804,(11, 87),6	1810,(10, 22),33	1843,(10, 117),3	1846,(12, 76),3	1849,(12, 83),3	1852,(11, 117),3	1855,(82, 121),21	1876,(49, 121),21	1897,(5, 101),174	2071,(10, 65),36	2107,(10, 89),12	2119,(10, 105),36	2155,(28, 121),21	2176,(37, 121),21	2197,(90, 121),21	2218,(23, 121),21	2239,(43, 121),21	2260,(96, 121),21	2281,(17, 121),21	2302,(52, 121),21	2323,(79, 121),21	2344,(56, 121),21	2365,(13, 121),21	2386,(14, 121),21	2407,(45, 121),21	2428,(51, 121),21	2449,(58, 121),21	2470,(66, 121),21	2491,(64, 121),21	2512,(77, 121),21	2533,(47, 121),21	2554,(24, 121),21	2575,(53, 121),21	2596,(86, 121),21	2617,(40, 121),21	2638,(104, 121),21	2659,(98, 121),21	2680,(100, 121),21	2701,(31, 121),21	2722,(108, 121),21	2743,(50, 121),21	2764,(21, 121),21	2785,(30, 121),21	2806,(92, 121),21	2827,(62, 121),21	2848,(73, 121),21	2869,(41, 121),21	2890,(68, 121),21	2911,(75, 121),21	2932,(72, 121),21	3628,(7, 74),132	3760,(12, 27),42	3802,(12, 32),45	3847,(12, 36),54	3901,(12, 85),21	3922,(12, 87),48	3970,(12, 93),9	3979,(57, 121),21	4000,(18, 121),21	4021,(54, 121),21	4042,(16, 121),21	4063,(15, 121),21	4084,(60, 121),21	4105,(70, 121),21	4126,(102, 121),21	4147,(110, 121),21	4168,(29, 121),21	4189,(35, 121),21	4210,(81, 121),21	4231,(94, 121),21	4252,(114, 121),21	4273,(120, 121),21	4294,(25, 121),21	4315,(34, 121),21	4336,(84, 121),21	4357,(106, 121),21	4378,(112, 121),21	4399,(116, 121),21	4420,(118, 121),21	
10,(0, 3),9	31,(2, 21),3	38,(5, 17),3	46,(0, 8),9	74,(10, 53),3	214,(6, 72),6	277,(7, 17),36	313,(7, 72),12	325,(12, 17),9	793,(7, 58),150	1132,(1, 58),3	1220,(4, 24),81	1301,(9, 24),60	1361,(9, 53),12	1522,(11, 21),54	1729,(9, 72),165	
1,(0, 2),9	37,(0, 7),9	73,(0, 12),9	82,(6, 15),15	97,(10, 16),30	130,(8, 18),63	403,(3, 54),216	890,(4, 16),330	1516,(11, 15),6	1555,(9, 15),96	
20,(3, 13),3	23,(3, 49),6	29,(4, 13),861	952,(8, 13),6	958,(12, 14),93	1099,(10, 47),153	
# Outgoing
38,(5, 17),3	74,(10, 53),3	97,(10, 16),30	787,(5, 26),3	811,(5, 46),12	823,(5, 63),9	952,(5, 67),78	1030,(5, 71),9	1039,(5, 93),18	1057,(38, 121),21	1078,(39, 121),21	1099,(10, 47),153	1528,(88, 121),21	1549,(10, 19),3	1552,(10, 20),6	1558,(10, 32),6	1564,(10, 61),15	1642,(10, 67),9	1801,(10, 101),3	1810,(10, 22),33	1843,(10, 117),3	1897,(5, 101),174	2071,(10, 65),36	2107,(10, 89),12	2119,(10, 105),36	2155,(28, 121),21	2176,(37, 121),21	2197,(90, 121),21	2218,(23, 121),21	2239,(43, 121),21	2260,(96, 121),21	2302,(52, 121),21	2323,(79, 121),21	2344,(56, 121),21	2407,(45, 121),21	2428,(51, 121),21	2470,(66, 121),21	2491,(64, 121),21	2512,(77, 121),21	2596,(86, 121),21	2617,(40, 121),21	2638,(104, 121),21	2659,(98, 121),21	2680,(100, 121),21	2701,(31, 121),21	2722,(108, 121),21	2743,(50, 121),21	2785,(30, 121),21	2806,(92, 121),21	2827,(62, 121),21	2848,(73, 121),21	2869,(41, 121),21	2890,(68, 121),21	2911,(75, 121),21	4084,(60, 121),21	4105,(70, 121),21	4126,(102, 121),21	4147,(110, 121),21	4168,(29, 121),21	4189,(35, 121),21	4210,(81, 121),21	4231,(94, 121),21	4252,(114, 121),21	4273,(120, 121),21	4294,(25, 121),21	4315,(34, 121),21	4336,(84, 121),21	4357,(106, 121),21	4378,(112, 121),21	4399,(116, 121),21	4420,(118, 121),21	
29,(4, 13),861	890,(4, 16),330	1220,(4, 24),81	1301,(9, 24),60	1361,(9, 53),12	1384,(4, 40),3	1441,(4, 25),96	1537,(4, 98),9	1546,(4, 100),9	1555,(9, 15),96	1651,(4, 73),78	1729,(9, 72),165	3880,(9, 29),12	3892,(9, 35),42	3934,(9, 81),21	3955,(9, 94),3	3958,(9, 106),3	3961,(9, 114),51	4012,(9, 118),54	4066,(9, 120),21	
20,(3, 13),3	23,(3, 49),6	31,(3, 80),3	37,(3, 25),12	49,(3, 65),6	73,(3, 33),24	124,(3, 51),6	130,(8, 18),63	208,(3, 44),9	217,(3, 101),3	277,(3, 34),87	364,(3, 35),27	391,(3, 41),12	403,(3, 54),216	793,(8, 68),3	796,(3, 85),15	832,(3, 56),18	850,(3, 42),78	928,(3, 109),24	952,(8, 13),6	1132,(8, 73),3	1141,(3, 64),15	1156,(3, 68),24	1180,(3, 70),9	1231,(8, 55),3	1234,(8, 95),3	1303,(8, 26),39	1342,(8, 32),18	1360,(8, 36),15	1375,(8, 119),9	1387,(8, 59),12	1399,(8, 83),33	1432,(3, 98),9	1516,(8, 111),12	1555,(8, 31),12	1567,(8, 108),3	1729,(8, 41),18	1747,(8, 117),54	2281,(17, 121),21	2449,(58, 121),21	2554,(24, 121),21	2575,(53, 121),21	2764,(21, 121),21	2932,(72, 121),21	3628,(8, 34),117	3745,(8, 60),12	3757,(8, 70),15	3772,(8, 81),21	3793,(8, 102),51	3844,(8, 110),15	3859,(8, 116),21	
28,(2, 19),3	31,(2, 21),3	34,(2, 22),9	43,(2, 27),6	49,(2, 50),3	52,(2, 64),3	55,(2, 88),9	64,(2, 87),6	70,(2, 95),3	73,(2, 43),18	91,(2, 92),15	106,(7, 23),3	109,(2, 117),9	118,(2, 96),6	130,(2, 48),36	166,(2, 69),24	190,(2, 113),18	214,(2, 108),9	223,(2, 112),54	277,(7, 17),36	313,(7, 72),12	325,(12, 17),9	403,(7, 52),12	415,(7, 64),3	418,(7, 79),24	442,(7, 98),18	460,(7, 120),3	463,(2, 59),60	523,(2, 93),132	655,(2, 101),114	769,(2, 119),18	790,(7, 22),3	793,(7, 58),150	958,(12, 14),93	1099,(7, 32),6	1105,(7, 55),3	1108,(7, 76),3	1111,(7, 91),30	1189,(7, 107),39	1228,(7, 115),3	1237,(7, 112),6	1243,(7, 48),60	1570,(12, 50),3	1573,(12, 60),3	1579,(7, 94),54	1633,(12, 62),6	1639,(12, 92),3	1846,(12, 76),3	1849,(12, 83),3	1852,(2, 70),1776	3628,(7, 74),132	3760,(12, 27),42	3802,(12, 32),45	3847,(12, 36),54	3901,(12, 85),21	3922,(12, 87),48	3970,(12, 93),9	3979,(57, 121),21	4000,(18, 121),21	4021,(54, 121),21	4042,(16, 121),21	4063,(15, 121),21	4087,(12, 25),18	4105,(12, 34),48	4153,(12, 84),12	4165,(12, 106),15	4180,(12, 112),81	4261,(12, 116),39	4300,(12, 118),33	
1,(0, 2),9	10,(0, 3),9	19,(0, 4),9	28,(0, 5),9	37,(0, 7),9	46,(0, 8),9	55,(0, 9),9	64,(0, 10),9	73,(0, 12),9	82,(6, 15),15	97,(6, 27),3	100,(6, 42),9	109,(6, 43),3	112,(6, 62),6	118,(6, 63),12	130,(6, 64),81	211,(6, 70),3	214,(6, 72),6	220,(6, 93),129	349,(6, 99),54	403,(6, 103),3	406,(6, 109),57	463,(6, 110),18	481,(6, 112),312	793,(6, 115),3	796,(6, 116),3	799,(6, 120),33	832,(1, 19),18	850,(1, 40),3	853,(1, 41),3	856,(1, 45),270	1126,(1, 51),6	1132,(1, 58),3	1135,(1, 66),6	1141,(1, 69),48	1189,(1, 77),48	1237,(1, 78),6	1243,(1, 81),96	1339,(1, 86),36	1375,(1, 92),9	1384,(1, 99),3	1387,(1, 100),3	1390,(1, 102),30	1420,(1, 104),12	1432,(1, 111),3	1435,(1, 113),45	1480,(1, 115),36	1516,(11, 15),6	1522,(11, 21),54	1576,(11, 30),3	1579,(11, 32),9	1588,(11, 33),51	1639,(11, 61),3	1642,(11, 62),9	1651,(11, 65),42	1693,(11, 67),54	1747,(11, 68),54	1801,(11, 75),3	1804,(11, 87),6	1810,(11, 102),33	1843,(11, 112),9	1852,(11, 117),3	1855,(82, 121),21	1876,(49, 121),21	2365,(13, 121),21	2386,(14, 121),21	2533,(47, 121),21	
