265
# CPU
0,0,1	1,8,9	10,28,9	19,45,9	28,47,9	37,76,9	46,20,9	55,38,9	64,55,9	73,62,9	82,37,9	91,1,9	100,74,9	109,34,9	118,42,9	127,60,9	136,12,9	145,69,9	154,26,9	163,35,9	172,25,9	181,17,9	264,81,1	
9,3,9	18,41,9	27,61,9	36,44,9	45,13,9	54,19,9	63,4,9	72,33,9	81,51,9	90,68,9	99,53,9	108,49,9	117,64,9	126,31,9	135,15,9	144,48,9	153,14,9	180,78,9	
13,2,9	22,23,9	31,52,9	40,71,9	49,30,9	58,50,9	67,77,9	76,80,9	85,66,9	94,22,9	103,5,9	112,11,9	121,18,9	130,63,9	139,67,9	148,27,9	157,73,9	166,9,9	175,75,9	184,72,9	193,57,9	208,16,9	
5,7,9	14,36,9	23,59,9	32,39,9	41,21,9	50,54,9	59,46,9	68,6,9	77,29,9	86,32,9	95,10,9	104,24,9	113,65,9	122,43,9	131,40,9	140,56,9	149,58,9	158,79,9	188,70,9	
# Incoming
25,(7, 17),20	45,(36, 81),4	49,(59, 81),4	53,(39, 81),4	57,(21, 81),4	61,(54, 81),4	70,(23, 81),4	74,(52, 81),4	78,(71, 81),4	82,(30, 81),4	86,(50, 81),4	92,(41, 81),4	96,(61, 81),4	100,(44, 81),4	104,(13, 81),4	108,(19, 81),4	112,(46, 81),4	116,(33, 81),4	120,(29, 81),4	124,(51, 81),4	128,(32, 81),4	132,(68, 81),4	136,(10, 81),4	140,(53, 81),4	144,(24, 81),4	148,(49, 81),4	152,(65, 81),4	156,(64, 81),4	160,(43, 81),4	164,(31, 81),4	168,(40, 81),4	172,(15, 81),4	176,(56, 81),4	180,(77, 81),4	184,(80, 81),4	188,(66, 81),4	192,(22, 81),4	196,(11, 81),4	200,(18, 81),4	204,(63, 81),4	208,(67, 81),4	212,(48, 81),4	216,(27, 81),4	220,(58, 81),4	224,(14, 81),4	228,(73, 81),4	232,(79, 81),4	236,(9, 81),4	240,(75, 81),4	244,(78, 81),4	248,(72, 81),4	252,(70, 81),4	256,(57, 81),4	260,(16, 81),4	
5,(0, 3),4	13,(0, 4),4	17,(7, 14),8	38,(8, 14),44	100,(1, 48),24	140,(5, 78),40	
9,(0, 2),4	21,(0, 5),4	72,(4, 66),4	76,(3, 22),4	80,(4, 57),12	188,(1, 16),20	
1,(0, 7),4	17,(0, 6),4	22,(2, 46),4	26,(8, 56),12	38,(2, 79),32	112,(5, 40),4	116,(5, 58),24	140,(1, 70),48	
# Outgoing
1,(0, 7),4	5,(0, 3),4	9,(0, 2),4	13,(0, 4),4	17,(0, 6),4	21,(0, 5),4	26,(8, 56),12	38,(8, 14),44	100,(1, 48),24	140,(1, 70),48	188,(1, 16),20	
72,(4, 66),4	76,(3, 22),4	80,(4, 57),12	92,(41, 81),4	96,(61, 81),4	100,(44, 81),4	104,(13, 81),4	108,(19, 81),4	116,(33, 81),4	124,(51, 81),4	132,(68, 81),4	140,(53, 81),4	148,(49, 81),4	156,(64, 81),4	164,(31, 81),4	172,(15, 81),4	212,(48, 81),4	224,(14, 81),4	244,(78, 81),4	
22,(2, 46),4	38,(2, 79),32	70,(23, 81),4	74,(52, 81),4	78,(71, 81),4	82,(30, 81),4	86,(50, 81),4	112,(5, 40),4	116,(5, 58),24	140,(5, 78),40	180,(77, 81),4	184,(80, 81),4	188,(66, 81),4	192,(22, 81),4	196,(11, 81),4	200,(18, 81),4	204,(63, 81),4	208,(67, 81),4	216,(27, 81),4	228,(73, 81),4	236,(9, 81),4	240,(75, 81),4	248,(72, 81),4	256,(57, 81),4	260,(16, 81),4	
17,(7, 14),8	25,(7, 17),20	45,(36, 81),4	49,(59, 81),4	53,(39, 81),4	57,(21, 81),4	61,(54, 81),4	112,(46, 81),4	120,(29, 81),4	128,(32, 81),4	136,(10, 81),4	144,(24, 81),4	152,(65, 81),4	160,(43, 81),4	168,(40, 81),4	176,(56, 81),4	220,(58, 81),4	232,(79, 81),4	252,(70, 81),4	
