691
# CPU
0,0,1	1,7,5	6,29,5	11,3,5	16,32,5	21,42,5	26,17,5	31,102,5	36,54,5	41,70,5	46,33,5	51,41,5	56,69,5	61,56,5	66,93,5	71,95,5	78,91,5	101,48,5	133,18,5	217,72,5	313,13,5	389,78,5	
9,8,5	22,44,5	33,12,5	38,68,5	43,94,5	48,81,5	53,64,5	58,86,5	63,109,5	85,101,5	114,76,5	141,52,5	201,27,5	261,30,5	681,55,5	
5,1,5	10,28,5	15,110,5	20,73,5	25,67,5	34,37,5	41,4,5	46,84,5	51,34,5	56,98,5	61,74,5	66,89,5	89,99,5	122,45,5	169,100,5	209,22,5	261,15,5	401,38,5	
13,9,5	18,26,5	23,57,5	28,14,5	33,113,5	38,39,5	43,83,5	48,20,5	54,65,5	94,53,5	141,24,5	177,106,5	249,88,5	357,108,5	
29,2,5	34,58,5	39,114,5	44,79,5	49,61,5	57,111,5	62,63,5	94,62,5	110,80,5	134,104,5	177,105,5	225,116,5	289,47,5	690,121,1	
37,11,5	42,31,5	47,96,5	52,40,5	57,50,5	62,25,5	70,23,5	97,60,5	213,19,5	457,35,5	
38,120,5	65,90,5	
25,6,5	30,71,5	35,107,5	40,51,5	45,117,5	50,112,5	55,103,5	61,82,5	77,119,5	93,115,5	121,46,5	149,77,5	221,21,5	
21,10,5	26,36,5	31,59,5	36,87,5	45,118,5	50,92,5	110,85,5	
17,5,5	22,49,5	46,16,5	51,43,5	117,75,5	177,97,5	409,66,5	
# Incoming
25,(1, 33),4	29,(9, 41),4	46,(2, 69),4	54,(4, 56),4	58,(6, 93),4	62,(6, 95),8	70,(12, 91),4	74,(11, 91),4	89,(2, 48),12	101,(6, 18),32	133,(6, 72),20	153,(6, 78),4	165,(1, 72),32	197,(12, 72),20	221,(9, 13),92	313,(2, 78),76	
5,(0, 8),4	18,(9, 44),4	29,(0, 12),4	33,(1, 109),8	41,(10, 30),4	49,(3, 64),4	53,(11, 86),4	57,(11, 109),4	61,(5, 101),24	85,(5, 76),24	110,(11, 76),4	117,(1, 52),8	125,(3, 52),16	141,(1, 27),24	177,(5, 27),24	209,(2, 30),52	261,(1, 55),12	273,(2, 55),24	297,(10, 55),372	669,(11, 55),12	
1,(0, 1),4	30,(6, 37),4	37,(0, 4),4	45,(8, 74),4	49,(12, 89),4	53,(12, 45),16	77,(3, 99),4	81,(2, 99),8	90,(10, 45),32	141,(3, 100),8	149,(11, 100),20	177,(3, 22),4	181,(2, 22),28	209,(11, 15),52	289,(8, 38),56	345,(6, 38),56	
9,(0, 9),4	26,(10, 20),8	34,(2, 20),12	50,(4, 65),4	62,(1, 24),4	66,(4, 106),4	70,(6, 53),24	101,(2, 24),40	141,(8, 106),12	153,(5, 106),24	177,(10, 88),20	225,(3, 88),24	261,(3, 108),96	
25,(0, 2),4	34,(36, 121),4	41,(7, 61),4	45,(6, 111),12	58,(4, 63),4	62,(9, 62),4	66,(9, 80),4	70,(28, 121),4	74,(26, 121),4	78,(11, 62),16	94,(11, 80),16	110,(5, 104),24	134,(110, 121),4	138,(49, 121),4	142,(59, 121),4	149,(3, 105),28	177,(9, 116),44	221,(7, 116),4	225,(73, 121),4	229,(44, 121),4	233,(67, 121),4	237,(71, 121),4	241,(37, 121),4	245,(107, 121),4	249,(3, 47),12	261,(12, 47),28	289,(120, 121),4	293,(51, 121),4	297,(31, 121),4	301,(117, 121),4	305,(84, 121),4	309,(96, 121),4	313,(112, 121),4	317,(34, 121),4	321,(40, 121),4	325,(103, 121),4	329,(98, 121),4	333,(50, 121),4	337,(82, 121),4	341,(57, 121),4	345,(14, 121),4	349,(113, 121),4	353,(68, 121),4	357,(39, 121),4	361,(94, 121),4	365,(83, 121),4	369,(81, 121),4	373,(20, 121),4	377,(64, 121),4	381,(65, 121),4	385,(86, 121),4	389,(74, 121),4	393,(25, 121),4	397,(109, 121),4	401,(90, 121),4	405,(29, 121),4	409,(32, 121),4	413,(42, 121),4	417,(17, 121),4	421,(102, 121),4	425,(54, 121),4	429,(70, 121),4	433,(33, 121),4	437,(41, 121),4	441,(69, 121),4	445,(56, 121),4	449,(93, 121),4	453,(89, 121),4	457,(16, 121),4	461,(43, 121),4	465,(23, 121),4	469,(95, 121),4	473,(119, 121),4	477,(91, 121),4	481,(101, 121),4	485,(99, 121),4	489,(115, 121),4	493,(53, 121),4	497,(60, 121),4	501,(48, 121),4	505,(76, 121),4	509,(75, 121),4	513,(46, 121),4	517,(45, 121),4	521,(18, 121),4	525,(52, 121),4	529,(24, 121),4	533,(77, 121),4	537,(100, 121),4	541,(97, 121),4	545,(106, 121),4	549,(27, 121),4	553,(22, 121),4	557,(19, 121),4	561,(72, 121),4	565,(21, 121),4	569,(88, 121),4	573,(15, 121),4	577,(30, 121),4	581,(13, 121),4	585,(108, 121),4	589,(78, 121),4	593,(38, 121),4	597,(66, 121),4	601,(35, 121),4	669,(87, 121),4	673,(118, 121),4	677,(92, 121),4	681,(85, 121),4	686,(55, 121),4	
33,(0, 11),4	37,(5, 25),4	41,(12, 40),4	53,(7, 50),4	58,(2, 23),12	81,(7, 60),16	97,(9, 19),20	181,(3, 19),32	213,(5, 35),244	
22,(9, 120),4	29,(1, 90),4	34,(6, 120),4	50,(2, 90),8	61,(7, 90),4	
21,(0, 6),4	33,(9, 103),12	45,(3, 112),4	57,(7, 82),4	65,(7, 119),12	77,(4, 115),16	97,(3, 46),24	121,(3, 77),4	125,(9, 77),24	153,(12, 21),36	213,(7, 21),8	
17,(0, 10),4	21,(1, 59),4	25,(8, 87),8	33,(8, 118),8	41,(6, 118),4	46,(4, 92),4	74,(12, 85),36	
13,(0, 5),4	42,(11, 16),4	46,(11, 43),4	50,(10, 75),40	93,(4, 75),24	141,(2, 97),36	177,(2, 66),4	197,(10, 66),100	313,(9, 66),28	357,(3, 66),48	
# Outgoing
1,(0, 1),4	5,(0, 8),4	9,(0, 9),4	13,(0, 5),4	17,(0, 10),4	21,(0, 6),4	25,(0, 2),4	29,(0, 12),4	33,(0, 11),4	37,(0, 4),4	41,(7, 61),4	45,(3, 112),4	49,(3, 64),4	53,(7, 50),4	57,(7, 82),4	61,(7, 90),4	65,(7, 119),12	77,(3, 99),4	81,(7, 60),16	97,(3, 46),24	121,(3, 77),4	125,(3, 52),16	141,(3, 100),8	149,(3, 105),28	177,(3, 22),4	181,(3, 19),32	213,(7, 21),8	221,(7, 116),4	225,(3, 88),24	249,(3, 47),12	261,(3, 108),96	357,(3, 66),48	405,(29, 121),4	409,(32, 121),4	413,(42, 121),4	417,(17, 121),4	421,(102, 121),4	425,(54, 121),4	429,(70, 121),4	433,(33, 121),4	437,(41, 121),4	441,(69, 121),4	445,(56, 121),4	449,(93, 121),4	469,(95, 121),4	477,(91, 121),4	501,(48, 121),4	521,(18, 121),4	561,(72, 121),4	581,(13, 121),4	589,(78, 121),4	
25,(8, 87),8	33,(8, 118),8	41,(12, 40),4	45,(8, 74),4	49,(12, 89),4	53,(12, 45),16	70,(12, 91),4	74,(12, 85),36	141,(8, 106),12	153,(12, 21),36	197,(12, 72),20	229,(44, 121),4	261,(12, 47),28	289,(8, 38),56	353,(68, 121),4	361,(94, 121),4	369,(81, 121),4	377,(64, 121),4	385,(86, 121),4	397,(109, 121),4	481,(101, 121),4	505,(76, 121),4	525,(52, 121),4	549,(27, 121),4	577,(30, 121),4	686,(55, 121),4	
21,(1, 59),4	25,(1, 33),4	29,(1, 90),4	33,(1, 109),8	46,(4, 92),4	50,(4, 65),4	54,(4, 56),4	58,(4, 63),4	62,(1, 24),4	66,(4, 106),4	70,(28, 121),4	77,(4, 115),16	93,(4, 75),24	117,(1, 52),8	134,(110, 121),4	141,(1, 27),24	165,(1, 72),32	225,(73, 121),4	233,(67, 121),4	241,(37, 121),4	261,(1, 55),12	305,(84, 121),4	317,(34, 121),4	329,(98, 121),4	389,(74, 121),4	453,(89, 121),4	485,(99, 121),4	517,(45, 121),4	537,(100, 121),4	553,(22, 121),4	573,(15, 121),4	593,(38, 121),4	
18,(9, 44),4	22,(9, 120),4	29,(9, 41),4	33,(9, 103),12	62,(9, 62),4	66,(9, 80),4	74,(26, 121),4	97,(9, 19),20	125,(9, 77),24	177,(9, 116),44	221,(9, 13),92	313,(9, 66),28	341,(57, 121),4	345,(14, 121),4	349,(113, 121),4	357,(39, 121),4	365,(83, 121),4	373,(20, 121),4	381,(65, 121),4	493,(53, 121),4	529,(24, 121),4	545,(106, 121),4	569,(88, 121),4	585,(108, 121),4	
34,(2, 20),12	46,(2, 69),4	50,(2, 90),8	58,(2, 23),12	81,(2, 99),8	89,(2, 48),12	101,(2, 24),40	141,(2, 97),36	177,(2, 66),4	181,(2, 22),28	209,(2, 30),52	273,(2, 55),24	313,(2, 78),76	
42,(11, 16),4	46,(11, 43),4	53,(11, 86),4	57,(11, 109),4	74,(11, 91),4	78,(11, 62),16	94,(11, 80),16	110,(11, 76),4	149,(11, 100),20	209,(11, 15),52	297,(31, 121),4	309,(96, 121),4	321,(40, 121),4	333,(50, 121),4	393,(25, 121),4	465,(23, 121),4	497,(60, 121),4	557,(19, 121),4	601,(35, 121),4	669,(11, 55),12	
289,(120, 121),4	401,(90, 121),4	
30,(6, 37),4	34,(6, 120),4	41,(6, 118),4	45,(6, 111),12	58,(6, 93),4	62,(6, 95),8	70,(6, 53),24	101,(6, 18),32	133,(6, 72),20	153,(6, 78),4	237,(71, 121),4	245,(107, 121),4	293,(51, 121),4	301,(117, 121),4	313,(112, 121),4	325,(103, 121),4	337,(82, 121),4	345,(6, 38),56	473,(119, 121),4	489,(115, 121),4	513,(46, 121),4	533,(77, 121),4	565,(21, 121),4	
26,(10, 20),8	34,(36, 121),4	41,(10, 30),4	50,(10, 75),40	90,(10, 45),32	142,(59, 121),4	177,(10, 88),20	197,(10, 66),100	297,(10, 55),372	669,(87, 121),4	673,(118, 121),4	677,(92, 121),4	681,(85, 121),4	
37,(5, 25),4	61,(5, 101),24	85,(5, 76),24	110,(5, 104),24	138,(49, 121),4	153,(5, 106),24	177,(5, 27),24	213,(5, 35),244	457,(16, 121),4	461,(43, 121),4	509,(75, 121),4	541,(97, 121),4	597,(66, 121),4	
