5111
# CPU





37,11,1	430,19,1	656,20,1	
19,7,1	196,16,1	635,18,1	
16,6,1	121,14,1	611,13,1	
10,2,1	11,8,1	13,4,1	34,10,1	85,12,1	175,15,1	412,17,1	5110,21,1	
0,0,1	1,1,1	2,5,1	14,3,1	602,9,1	
# Incoming





34,(1, 11),3	412,(1, 19),18	635,(2, 20),21	
16,(1, 7),3	175,(1, 16),21	611,(2, 18),24	
13,(1, 6),3	85,(1, 14),36	602,(2, 13),9	
1,(0, 2),9	10,(1, 4),3	19,(1, 10),15	37,(1, 12),48	121,(1, 15),54	196,(1, 17),216	430,(5, 21),390	820,(3, 21),390	1210,(6, 21),390	1600,(7, 21),390	1990,(11, 21),390	2380,(14, 21),390	2770,(16, 21),390	3160,(19, 21),390	3550,(9, 21),390	3940,(13, 21),390	4330,(18, 21),390	4720,(20, 21),390	
11,(2, 3),3	14,(2, 9),588	
# Outgoing





1990,(11, 21),390	3160,(19, 21),390	4720,(20, 21),390	
1600,(7, 21),390	2770,(16, 21),390	4330,(18, 21),390	
1210,(6, 21),390	2380,(14, 21),390	3940,(13, 21),390	
11,(2, 3),3	14,(2, 9),588	602,(2, 13),9	611,(2, 18),24	635,(2, 20),21	
1,(0, 2),9	10,(1, 4),3	13,(1, 6),3	16,(1, 7),3	19,(1, 10),15	34,(1, 11),3	37,(1, 12),48	85,(1, 14),36	121,(1, 15),54	175,(1, 16),21	196,(1, 17),216	412,(1, 19),18	430,(5, 21),390	820,(3, 21),390	3550,(9, 21),390	
