744
# CPU
3,2,1	4,26,1	5,50,1	6,124,1	7,58,1	8,90,1	9,106,1	10,4,1	11,6,1	12,8,1	13,10,1	14,174,1	15,112,1	16,166,1	17,130,1	18,36,1	19,46,1	20,138,1	21,38,1	22,12,1	23,142,1	24,86,1	25,52,1	26,54,1	27,104,1	28,140,1	29,64,1	30,72,1	31,14,1	32,16,1	33,18,1	34,20,1	35,22,1	36,120,1	37,172,1	38,184,1	39,42,1	40,180,1	41,178,1	42,68,1	43,160,1	44,194,1	45,32,1	46,70,1	47,198,1	48,80,1	49,170,1	50,100,1	51,148,1	52,28,1	53,98,1	54,40,1	55,134,1	56,146,1	57,156,1	58,196,1	59,168,1	129,76,1	142,128,1	143,56,1	146,94,1	150,96,1	253,102,1	254,114,1	264,144,1	265,24,1	266,30,1	267,78,1	268,82,1	315,136,1	355,154,1	356,190,1	357,192,1	424,162,1	425,44,1	442,48,1	452,60,1	455,66,1	457,92,1	458,110,1	492,158,1	494,176,1	498,200,1	509,34,1	540,88,1	573,74,1	574,84,1	576,122,1	586,116,1	597,118,1	603,62,1	604,108,1	611,126,1	613,132,1	615,150,1	625,152,1	626,188,1	631,164,1	637,182,1	638,186,1	
0,0,1	1,9,1	2,13,1	3,19,1	4,17,1	5,15,1	6,1,1	7,11,1	8,7,1	9,5,1	10,3,1	11,127,1	12,113,1	13,191,1	14,111,1	15,101,1	16,67,1	17,147,1	18,119,1	19,107,1	20,129,1	21,105,1	22,95,1	23,181,1	24,79,1	25,49,1	26,37,1	27,179,1	28,169,1	29,153,1	30,137,1	31,131,1	32,103,1	33,55,1	34,81,1	35,77,1	36,45,1	37,165,1	38,57,1	39,155,1	40,89,1	41,63,1	42,161,1	43,139,1	44,21,1	45,197,1	46,195,1	47,177,1	48,75,1	49,69,1	50,73,1	51,23,1	52,163,1	53,183,1	103,185,1	190,39,1	191,53,1	198,61,1	200,87,1	201,121,1	203,123,1	204,157,1	214,97,1	222,115,1	238,125,1	322,149,1	343,187,1	356,29,1	357,83,1	358,85,1	359,133,1	367,171,1	368,199,1	377,25,1	396,31,1	397,47,1	398,65,1	401,71,1	405,117,1	407,141,1	426,159,1	467,167,1	468,193,1	469,41,1	474,91,1	475,173,1	476,27,1	484,43,1	485,59,1	498,93,1	511,99,1	617,151,1	626,175,1	627,33,1	628,35,1	649,51,1	650,109,1	651,135,1	652,143,1	674,145,1	675,189,1	743,201,1	
# Incoming
1,(0, 2),2	3,(0, 4),2	5,(0, 6),2	7,(0, 8),2	9,(0, 10),2	11,(0, 12),2	13,(0, 14),2	15,(0, 16),2	17,(0, 18),2	19,(0, 20),2	21,(9, 22),1	22,(9, 42),1	23,(9, 76),106	129,(9, 108),9	138,(9, 128),4	142,(13, 56),1	143,(13, 94),3	146,(13, 96),4	150,(13, 102),103	253,(13, 114),1	254,(13, 144),10	264,(19, 24),1	265,(19, 30),1	266,(19, 78),1	267,(19, 82),1	268,(19, 136),47	315,(19, 154),40	355,(19, 190),1	356,(19, 192),1	357,(17, 118),36	393,(17, 122),3	396,(17, 158),14	410,(17, 162),14	424,(15, 44),1	425,(15, 48),17	442,(15, 60),10	452,(15, 66),3	455,(15, 92),2	457,(15, 110),1	458,(15, 158),34	492,(15, 176),2	494,(15, 200),4	498,(1, 34),11	509,(1, 88),31	540,(1, 116),8	548,(11, 74),25	573,(11, 84),1	574,(11, 122),2	576,(7, 116),10	586,(7, 118),11	597,(5, 62),6	603,(5, 108),1	604,(5, 126),7	611,(5, 132),2	613,(5, 150),2	615,(5, 152),10	625,(5, 188),1	626,(3, 164),5	631,(3, 182),6	637,(3, 186),1	
4,(2, 107),1	5,(2, 135),8	13,(26, 201),1	14,(50, 201),1	15,(124, 201),1	16,(58, 201),1	17,(90, 201),1	18,(106, 201),1	19,(4, 23),24	43,(4, 163),5	48,(4, 183),1	49,(4, 185),54	103,(6, 29),1	104,(6, 39),86	190,(6, 53),1	191,(6, 61),7	198,(6, 87),2	200,(6, 121),1	201,(6, 123),2	203,(6, 157),1	204,(8, 97),10	214,(8, 109),7	221,(8, 115),1	222,(8, 125),16	238,(10, 25),6	244,(10, 83),4	248,(10, 91),1	249,(10, 149),73	322,(10, 187),21	343,(174, 201),1	344,(112, 201),1	345,(166, 201),1	346,(130, 201),1	347,(36, 201),1	348,(46, 201),1	349,(138, 201),1	350,(38, 201),1	351,(12, 29),5	356,(12, 83),1	357,(12, 85),1	358,(12, 133),1	359,(12, 171),8	367,(12, 199),1	368,(142, 201),1	369,(86, 201),1	370,(52, 201),1	371,(54, 201),1	372,(104, 201),1	373,(140, 201),1	374,(64, 201),1	375,(72, 201),1	376,(14, 25),1	377,(14, 31),19	396,(14, 47),1	397,(14, 65),1	398,(14, 71),3	401,(14, 93),1	402,(14, 117),3	405,(14, 141),2	407,(14, 159),19	426,(14, 167),41	467,(14, 193),1	468,(16, 41),1	469,(16, 91),5	474,(16, 173),1	475,(18, 27),1	476,(18, 35),5	481,(18, 43),3	484,(18, 59),1	485,(18, 93),13	498,(18, 99),13	511,(18, 143),103	614,(18, 151),3	617,(18, 175),9	626,(20, 33),1	627,(20, 35),1	628,(20, 51),21	649,(20, 109),1	650,(20, 135),1	651,(20, 143),1	652,(20, 145),22	674,(20, 189),1	675,(22, 201),1	676,(120, 201),1	677,(172, 201),1	678,(184, 201),1	679,(42, 201),1	680,(180, 201),1	681,(178, 201),1	682,(68, 201),1	683,(160, 201),1	684,(194, 201),1	685,(32, 201),1	686,(70, 201),1	687,(198, 201),1	688,(80, 201),1	689,(170, 201),1	690,(100, 201),1	691,(148, 201),1	692,(28, 201),1	693,(98, 201),1	694,(40, 201),1	695,(134, 201),1	696,(146, 201),1	697,(156, 201),1	698,(196, 201),1	699,(168, 201),1	700,(76, 201),1	701,(128, 201),1	702,(56, 201),1	703,(94, 201),1	704,(96, 201),1	705,(102, 201),1	706,(114, 201),1	707,(144, 201),1	708,(24, 201),1	709,(30, 201),1	710,(78, 201),1	711,(82, 201),1	712,(136, 201),1	713,(154, 201),1	714,(190, 201),1	715,(192, 201),1	716,(162, 201),1	717,(44, 201),1	718,(48, 201),1	719,(60, 201),1	720,(66, 201),1	721,(92, 201),1	722,(110, 201),1	723,(158, 201),1	724,(176, 201),1	725,(200, 201),1	726,(34, 201),1	727,(88, 201),1	728,(74, 201),1	729,(84, 201),1	730,(122, 201),1	731,(116, 201),1	732,(118, 201),1	733,(62, 201),1	734,(108, 201),1	735,(126, 201),1	736,(132, 201),1	737,(150, 201),1	738,(152, 201),1	739,(188, 201),1	740,(164, 201),1	741,(182, 201),1	742,(186, 201),1	
# Outgoing
4,(2, 107),1	5,(2, 135),8	13,(26, 201),1	14,(50, 201),1	15,(124, 201),1	16,(58, 201),1	17,(90, 201),1	18,(106, 201),1	19,(4, 23),24	43,(4, 163),5	48,(4, 183),1	49,(4, 185),54	103,(6, 29),1	104,(6, 39),86	190,(6, 53),1	191,(6, 61),7	198,(6, 87),2	200,(6, 121),1	201,(6, 123),2	203,(6, 157),1	204,(8, 97),10	214,(8, 109),7	221,(8, 115),1	222,(8, 125),16	238,(10, 25),6	244,(10, 83),4	248,(10, 91),1	249,(10, 149),73	322,(10, 187),21	343,(174, 201),1	344,(112, 201),1	345,(166, 201),1	346,(130, 201),1	347,(36, 201),1	348,(46, 201),1	349,(138, 201),1	350,(38, 201),1	351,(12, 29),5	356,(12, 83),1	357,(12, 85),1	358,(12, 133),1	359,(12, 171),8	367,(12, 199),1	368,(142, 201),1	369,(86, 201),1	370,(52, 201),1	371,(54, 201),1	372,(104, 201),1	373,(140, 201),1	374,(64, 201),1	375,(72, 201),1	376,(14, 25),1	377,(14, 31),19	396,(14, 47),1	397,(14, 65),1	398,(14, 71),3	401,(14, 93),1	402,(14, 117),3	405,(14, 141),2	407,(14, 159),19	426,(14, 167),41	467,(14, 193),1	468,(16, 41),1	469,(16, 91),5	474,(16, 173),1	475,(18, 27),1	476,(18, 35),5	481,(18, 43),3	484,(18, 59),1	485,(18, 93),13	498,(18, 99),13	511,(18, 143),103	614,(18, 151),3	617,(18, 175),9	626,(20, 33),1	627,(20, 35),1	628,(20, 51),21	649,(20, 109),1	650,(20, 135),1	651,(20, 143),1	652,(20, 145),22	674,(20, 189),1	675,(22, 201),1	676,(120, 201),1	677,(172, 201),1	678,(184, 201),1	679,(42, 201),1	680,(180, 201),1	681,(178, 201),1	682,(68, 201),1	683,(160, 201),1	684,(194, 201),1	685,(32, 201),1	686,(70, 201),1	687,(198, 201),1	688,(80, 201),1	689,(170, 201),1	690,(100, 201),1	691,(148, 201),1	692,(28, 201),1	693,(98, 201),1	694,(40, 201),1	695,(134, 201),1	696,(146, 201),1	697,(156, 201),1	698,(196, 201),1	699,(168, 201),1	700,(76, 201),1	701,(128, 201),1	702,(56, 201),1	703,(94, 201),1	704,(96, 201),1	705,(102, 201),1	706,(114, 201),1	707,(144, 201),1	708,(24, 201),1	709,(30, 201),1	710,(78, 201),1	711,(82, 201),1	712,(136, 201),1	713,(154, 201),1	714,(190, 201),1	715,(192, 201),1	716,(162, 201),1	717,(44, 201),1	718,(48, 201),1	719,(60, 201),1	720,(66, 201),1	721,(92, 201),1	722,(110, 201),1	723,(158, 201),1	724,(176, 201),1	725,(200, 201),1	726,(34, 201),1	727,(88, 201),1	728,(74, 201),1	729,(84, 201),1	730,(122, 201),1	731,(116, 201),1	732,(118, 201),1	733,(62, 201),1	734,(108, 201),1	735,(126, 201),1	736,(132, 201),1	737,(150, 201),1	738,(152, 201),1	739,(188, 201),1	740,(164, 201),1	741,(182, 201),1	742,(186, 201),1	
1,(0, 2),2	3,(0, 4),2	5,(0, 6),2	7,(0, 8),2	9,(0, 10),2	11,(0, 12),2	13,(0, 14),2	15,(0, 16),2	17,(0, 18),2	19,(0, 20),2	21,(9, 22),1	22,(9, 42),1	23,(9, 76),106	129,(9, 108),9	138,(9, 128),4	142,(13, 56),1	143,(13, 94),3	146,(13, 96),4	150,(13, 102),103	253,(13, 114),1	254,(13, 144),10	264,(19, 24),1	265,(19, 30),1	266,(19, 78),1	267,(19, 82),1	268,(19, 136),47	315,(19, 154),40	355,(19, 190),1	356,(19, 192),1	357,(17, 118),36	393,(17, 122),3	396,(17, 158),14	410,(17, 162),14	424,(15, 44),1	425,(15, 48),17	442,(15, 60),10	452,(15, 66),3	455,(15, 92),2	457,(15, 110),1	458,(15, 158),34	492,(15, 176),2	494,(15, 200),4	498,(1, 34),11	509,(1, 88),31	540,(1, 116),8	548,(11, 74),25	573,(11, 84),1	574,(11, 122),2	576,(7, 116),10	586,(7, 118),11	597,(5, 62),6	603,(5, 108),1	604,(5, 126),7	611,(5, 132),2	613,(5, 150),2	615,(5, 152),10	625,(5, 188),1	626,(3, 164),5	631,(3, 182),6	637,(3, 186),1	
