969
# CPU
13,5,1	14,40,1	37,11,1	58,55,1	61,65,1	64,35,1	134,15,1	140,60,1	144,70,1	151,25,1	168,30,1	228,20,1	239,45,1	331,50,1	344,75,1	367,80,1	
10,4,1	54,24,1	147,54,1	170,10,1	172,44,1	194,64,1	206,69,1	209,74,1	224,19,1	270,34,1	288,49,1	349,79,1	362,29,1	398,14,1	417,39,1	423,59,1	
7,3,1	19,8,1	20,68,1	64,28,1	110,48,1	122,18,1	148,33,1	171,43,1	172,13,1	175,23,1	176,38,1	181,53,1	185,73,1	221,78,1	335,63,1	492,58,1	
4,2,1	5,37,1	16,7,1	17,12,1	18,67,1	130,32,1	144,17,1	145,52,1	177,62,1	227,57,1	233,42,1	274,47,1	363,72,1	403,22,1	429,27,1	495,77,1	
0,0,1	1,1,1	2,6,1	3,31,1	4,51,1	5,21,1	123,26,1	125,61,1	131,36,1	135,41,1	143,66,1	178,46,1	180,71,1	234,16,1	262,76,1	299,56,1	390,9,1	968,81,1	
# Incoming
10,(0, 5),3	13,(4, 11),24	54,(2, 55),4	60,(2, 65),1	62,(2, 75),1	63,(7, 35),1	72,(3, 25),57	129,(4, 30),1	130,(7, 15),4	135,(3, 60),5	140,(4, 70),4	144,(7, 20),3	147,(7, 25),4	151,(7, 30),17	172,(1, 50),5	178,(3, 50),14	192,(8, 75),5	224,(6, 20),4	228,(6, 45),11	239,(3, 80),47	286,(7, 50),45	335,(6, 75),9	344,(6, 80),23	
7,(0, 4),3	19,(1, 10),1	20,(1, 14),13	33,(2, 24),21	61,(2, 69),1	64,(1, 29),81	145,(3, 19),1	146,(3, 54),1	147,(8, 79),1	148,(1, 34),2	150,(3, 29),4	154,(5, 10),16	170,(5, 44),1	171,(1, 44),1	172,(2, 64),22	194,(5, 29),8	202,(5, 69),4	206,(5, 74),3	221,(6, 19),3	224,(5, 34),46	270,(7, 79),1	274,(6, 49),14	294,(6, 59),39	333,(5, 79),16	349,(7, 29),13	390,(8, 14),8	398,(8, 39),19	417,(8, 59),6	
4,(0, 3),3	16,(0, 8),3	33,(1, 23),25	58,(1, 28),6	64,(2, 38),5	69,(2, 48),41	121,(7, 18),1	126,(4, 63),3	145,(1, 33),3	154,(1, 43),17	171,(5, 13),1	172,(5, 23),3	175,(5, 38),1	177,(1, 53),4	183,(1, 73),2	211,(1, 78),10	288,(6, 58),6	333,(6, 63),2	429,(5, 58),63	
1,(0, 2),3	13,(0, 7),3	37,(4, 17),21	58,(4, 22),68	129,(3, 32),1	130,(4, 57),9	143,(8, 17),1	144,(8, 52),1	150,(1, 42),4	176,(5, 62),1	181,(1, 57),1	182,(1, 72),1	185,(1, 77),26	211,(3, 57),16	227,(8, 42),6	239,(6, 47),35	274,(4, 72),89	363,(5, 22),40	403,(5, 27),26	492,(5, 77),3	
58,(2, 61),2	60,(3, 9),12	110,(37, 81),11	122,(7, 26),1	123,(7, 61),2	125,(7, 71),3	130,(3, 36),1	131,(3, 41),4	140,(3, 66),3	154,(3, 46),24	178,(5, 71),2	180,(40, 81),11	194,(7, 9),16	210,(7, 16),24	234,(7, 76),28	271,(12, 81),11	286,(8, 56),13	299,(68, 81),11	310,(11, 81),11	331,(67, 81),11	342,(8, 9),48	390,(24, 81),11	401,(32, 81),11	412,(17, 81),11	423,(28, 81),11	434,(48, 81),11	445,(18, 81),11	456,(52, 81),11	467,(54, 81),11	478,(33, 81),11	495,(55, 81),11	506,(65, 81),11	517,(35, 81),11	528,(15, 81),11	539,(60, 81),11	550,(70, 81),11	561,(25, 81),11	572,(30, 81),11	583,(10, 81),11	594,(43, 81),11	605,(44, 81),11	616,(13, 81),11	627,(23, 81),11	638,(38, 81),11	649,(62, 81),11	660,(53, 81),11	671,(73, 81),11	682,(64, 81),11	693,(69, 81),11	704,(74, 81),11	715,(78, 81),11	726,(19, 81),11	737,(57, 81),11	748,(20, 81),11	759,(42, 81),11	770,(45, 81),11	781,(34, 81),11	792,(47, 81),11	803,(49, 81),11	814,(50, 81),11	825,(63, 81),11	836,(75, 81),11	847,(79, 81),11	858,(29, 81),11	869,(72, 81),11	880,(80, 81),11	891,(14, 81),11	902,(22, 81),11	913,(39, 81),11	924,(59, 81),11	935,(27, 81),11	946,(58, 81),11	957,(77, 81),11	
# Outgoing
154,(5, 10),16	170,(5, 44),1	171,(5, 13),1	172,(5, 23),3	175,(5, 38),1	176,(5, 62),1	178,(5, 71),2	180,(40, 81),11	194,(5, 29),8	202,(5, 69),4	206,(5, 74),3	224,(5, 34),46	310,(11, 81),11	333,(5, 79),16	363,(5, 22),40	403,(5, 27),26	429,(5, 58),63	492,(5, 77),3	495,(55, 81),11	506,(65, 81),11	517,(35, 81),11	528,(15, 81),11	539,(60, 81),11	550,(70, 81),11	561,(25, 81),11	572,(30, 81),11	748,(20, 81),11	770,(45, 81),11	814,(50, 81),11	836,(75, 81),11	880,(80, 81),11	
13,(4, 11),24	37,(4, 17),21	58,(4, 22),68	126,(4, 63),3	129,(4, 30),1	130,(4, 57),9	140,(4, 70),4	274,(4, 72),89	390,(24, 81),11	467,(54, 81),11	583,(10, 81),11	605,(44, 81),11	682,(64, 81),11	693,(69, 81),11	704,(74, 81),11	726,(19, 81),11	781,(34, 81),11	803,(49, 81),11	847,(79, 81),11	858,(29, 81),11	891,(14, 81),11	913,(39, 81),11	924,(59, 81),11	
60,(3, 9),12	72,(3, 25),57	129,(3, 32),1	130,(3, 36),1	131,(3, 41),4	135,(3, 60),5	140,(3, 66),3	143,(8, 17),1	144,(8, 52),1	145,(3, 19),1	146,(3, 54),1	147,(8, 79),1	150,(3, 29),4	154,(3, 46),24	178,(3, 50),14	192,(8, 75),5	211,(3, 57),16	227,(8, 42),6	239,(3, 80),47	286,(8, 56),13	299,(68, 81),11	342,(8, 9),48	390,(8, 14),8	398,(8, 39),19	417,(8, 59),6	423,(28, 81),11	434,(48, 81),11	445,(18, 81),11	478,(33, 81),11	594,(43, 81),11	616,(13, 81),11	627,(23, 81),11	638,(38, 81),11	660,(53, 81),11	671,(73, 81),11	715,(78, 81),11	825,(63, 81),11	946,(58, 81),11	
33,(2, 24),21	54,(2, 55),4	58,(2, 61),2	60,(2, 65),1	61,(2, 69),1	62,(2, 75),1	63,(7, 35),1	64,(2, 38),5	69,(2, 48),41	110,(37, 81),11	121,(7, 18),1	122,(7, 26),1	123,(7, 61),2	125,(7, 71),3	130,(7, 15),4	144,(7, 20),3	147,(7, 25),4	151,(7, 30),17	172,(2, 64),22	194,(7, 9),16	210,(7, 16),24	234,(7, 76),28	270,(7, 79),1	271,(12, 81),11	286,(7, 50),45	331,(67, 81),11	349,(7, 29),13	401,(32, 81),11	412,(17, 81),11	456,(52, 81),11	649,(62, 81),11	737,(57, 81),11	759,(42, 81),11	792,(47, 81),11	869,(72, 81),11	902,(22, 81),11	935,(27, 81),11	957,(77, 81),11	
1,(0, 2),3	4,(0, 3),3	7,(0, 4),3	10,(0, 5),3	13,(0, 7),3	16,(0, 8),3	19,(1, 10),1	20,(1, 14),13	33,(1, 23),25	58,(1, 28),6	64,(1, 29),81	145,(1, 33),3	148,(1, 34),2	150,(1, 42),4	154,(1, 43),17	171,(1, 44),1	172,(1, 50),5	177,(1, 53),4	181,(1, 57),1	182,(1, 72),1	183,(1, 73),2	185,(1, 77),26	211,(1, 78),10	221,(6, 19),3	224,(6, 20),4	228,(6, 45),11	239,(6, 47),35	274,(6, 49),14	288,(6, 58),6	294,(6, 59),39	333,(6, 63),2	335,(6, 75),9	344,(6, 80),23	
