641
# CPU
13,2,3	16,4,3	19,12,3	22,14,3	25,8,3	28,10,3	31,20,3	49,6,3	63,16,3	69,18,3	
0,0,1	1,1,3	4,7,3	7,11,3	10,19,3	13,9,3	16,17,3	58,3,3	120,5,3	176,13,3	226,15,3	640,21,1	
# Incoming
1,(0, 2),12	13,(1, 6),36	49,(1, 16),14	63,(1, 18),6	
16,(2, 3),42	58,(2, 5),62	120,(2, 13),56	176,(2, 15),50	226,(4, 21),46	272,(12, 21),46	318,(14, 21),46	364,(8, 21),46	410,(10, 21),46	456,(20, 21),46	502,(6, 21),46	548,(16, 21),46	594,(18, 21),46	
# Outgoing
16,(2, 3),42	58,(2, 5),62	120,(2, 13),56	176,(2, 15),50	226,(4, 21),46	272,(12, 21),46	318,(14, 21),46	364,(8, 21),46	410,(10, 21),46	456,(20, 21),46	502,(6, 21),46	548,(16, 21),46	594,(18, 21),46	
1,(0, 2),12	13,(1, 6),36	49,(1, 16),14	63,(1, 18),6	
