4594
# CPU
297,38,1	461,48,1	645,78,1	893,28,1	1021,18,1	1429,58,1	1973,68,1	
489,37,1	701,77,1	889,27,1	1033,67,1	1145,57,1	1285,47,1	1841,17,1	
85,8,1	917,36,1	1145,46,1	1149,26,1	1209,66,1	1305,16,1	1397,56,1	1577,76,1	
73,7,1	74,35,1	237,15,1	505,55,1	597,65,1	889,25,1	989,45,1	1993,75,1	
61,6,1	225,24,1	321,74,1	397,44,1	593,64,1	1073,34,1	1081,54,1	1837,14,1	
49,5,1	241,23,1	301,33,1	393,43,1	481,73,1	1077,53,1	1405,63,1	1805,13,1	
37,4,1	281,62,1	473,72,1	633,22,1	913,32,1	1017,12,1	1941,42,1	1945,52,1	
25,3,1	26,41,1	257,11,1	289,31,1	445,51,1	945,21,1	1029,61,1	1637,71,1	
13,2,1	225,10,1	257,40,1	293,70,1	1081,20,1	1197,60,1	1465,30,1	1729,80,1	1909,50,1	
0,0,1	1,1,1	677,69,1	921,19,1	1201,29,1	1341,49,1	1789,9,1	1917,39,1	1969,59,1	1997,79,1	4593,81,1	
# Incoming
241,(1, 28),24	265,(5, 38),4	277,(2, 38),20	297,(2, 48),164	605,(1, 78),40	649,(3, 18),8	889,(3, 28),4	989,(6, 58),24	1017,(7, 18),4	1145,(3, 58),32	1177,(5, 58),252	1969,(8, 68),4	
465,(1, 57),4	469,(2, 27),8	477,(2, 37),12	501,(1, 77),104	605,(4, 17),84	689,(5, 77),12	749,(4, 57),36	785,(5, 27),104	1029,(7, 67),4	1081,(3, 57),64	1145,(6, 47),140	1837,(8, 17),4	
73,(0, 8),12	461,(1, 56),4	481,(1, 76),20	905,(6, 36),4	913,(3, 36),4	917,(3, 46),96	1013,(6, 46),132	1145,(7, 26),4	1197,(3, 66),12	1209,(7, 16),96	1341,(6, 56),56	1465,(7, 76),112	
61,(0, 7),12	225,(5, 15),12	489,(2, 55),16	593,(2, 65),4	601,(2, 75),4	661,(3, 25),228	945,(6, 45),44	1405,(6, 75),36	1973,(8, 75),20	
49,(0, 6),12	89,(1, 14),52	141,(2, 24),84	257,(5, 44),4	261,(4, 34),4	301,(1, 34),8	309,(5, 74),12	393,(1, 44),4	505,(2, 64),88	889,(5, 34),184	1077,(3, 54),4	1805,(8, 14),32	
37,(0, 5),12	141,(1, 23),100	265,(4, 63),12	289,(1, 33),12	325,(1, 43),68	445,(1, 53),16	473,(1, 73),8	1069,(3, 53),8	1397,(6, 63),8	1789,(8, 13),16	
25,(0, 4),12	225,(2, 32),52	277,(5, 62),4	309,(1, 42),16	469,(1, 72),4	473,(5, 22),160	909,(3, 32),4	985,(7, 12),32	1917,(8, 42),24	1941,(8, 52),4	
13,(0, 3),12	161,(4, 11),96	265,(1, 31),24	289,(5, 71),8	417,(1, 51),28	461,(2, 61),8	921,(6, 21),24	1021,(7, 61),8	1033,(7, 71),12	1597,(6, 71),40	
1,(0, 2),12	85,(1, 10),4	89,(4, 10),72	161,(5, 10),64	237,(5, 20),4	241,(5, 40),16	257,(4, 30),4	277,(4, 70),16	397,(1, 50),20	889,(6, 20),16	1013,(3, 50),56	1069,(7, 20),12	1177,(3, 60),20	1209,(3, 80),188	1397,(7, 30),68	1637,(6, 80),92	1729,(7, 50),180	
597,(2, 69),4	601,(3, 9),48	657,(3, 19),4	661,(5, 69),16	689,(4, 39),60	749,(5, 29),32	781,(6, 9),108	893,(3, 29),16	909,(6, 19),12	921,(7, 9),64	985,(10, 81),44	1045,(7, 79),4	1073,(5, 79),64	1149,(7, 29),52	1201,(40, 81),44	1285,(6, 49),56	1341,(35, 81),44	1397,(41, 81),44	1441,(6, 59),156	1597,(8, 9),192	1789,(24, 81),44	1841,(8, 39),76	1945,(8, 59),24	1993,(8, 79),4	1997,(15, 81),44	2041,(23, 81),44	2085,(11, 81),44	2129,(62, 81),44	2173,(31, 81),44	2217,(70, 81),44	2261,(38, 81),44	2305,(33, 81),44	2349,(74, 81),44	2393,(43, 81),44	2437,(44, 81),44	2481,(51, 81),44	2525,(48, 81),44	2569,(72, 81),44	2613,(73, 81),44	2657,(37, 81),44	2701,(55, 81),44	2745,(64, 81),44	2789,(65, 81),44	2833,(22, 81),44	2877,(78, 81),44	2921,(77, 81),44	2965,(25, 81),44	3009,(27, 81),44	3053,(28, 81),44	3097,(32, 81),44	3141,(36, 81),44	3185,(21, 81),44	3229,(45, 81),44	3273,(12, 81),44	3317,(18, 81),44	3361,(61, 81),44	3405,(67, 81),44	3449,(34, 81),44	3493,(53, 81),44	3537,(20, 81),44	3581,(54, 81),44	3625,(46, 81),44	3669,(57, 81),44	3713,(26, 81),44	3757,(60, 81),44	3801,(66, 81),44	3845,(47, 81),44	3889,(16, 81),44	3933,(56, 81),44	3977,(63, 81),44	4021,(58, 81),44	4065,(30, 81),44	4109,(76, 81),44	4153,(71, 81),44	4197,(80, 81),44	4241,(13, 81),44	4285,(14, 81),44	4329,(17, 81),44	4373,(50, 81),44	4417,(42, 81),44	4461,(52, 81),44	4505,(68, 81),44	4549,(75, 81),44	
# Outgoing
2261,(38, 81),44	2525,(48, 81),44	2877,(78, 81),44	3053,(28, 81),44	3317,(18, 81),44	4021,(58, 81),44	4505,(68, 81),44	
2657,(37, 81),44	2921,(77, 81),44	3009,(27, 81),44	3405,(67, 81),44	3669,(57, 81),44	3845,(47, 81),44	4329,(17, 81),44	
1597,(8, 9),192	1789,(8, 13),16	1805,(8, 14),32	1837,(8, 17),4	1841,(8, 39),76	1917,(8, 42),24	1941,(8, 52),4	1945,(8, 59),24	1969,(8, 68),4	1973,(8, 75),20	1993,(8, 79),4	3141,(36, 81),44	3625,(46, 81),44	3713,(26, 81),44	3801,(66, 81),44	3889,(16, 81),44	3933,(56, 81),44	4109,(76, 81),44	
921,(7, 9),64	985,(7, 12),32	1017,(7, 18),4	1021,(7, 61),8	1029,(7, 67),4	1033,(7, 71),12	1045,(7, 79),4	1069,(7, 20),12	1145,(7, 26),4	1149,(7, 29),52	1209,(7, 16),96	1341,(35, 81),44	1397,(7, 30),68	1465,(7, 76),112	1729,(7, 50),180	1997,(15, 81),44	2701,(55, 81),44	2789,(65, 81),44	2965,(25, 81),44	3229,(45, 81),44	4549,(75, 81),44	
781,(6, 9),108	889,(6, 20),16	905,(6, 36),4	909,(6, 19),12	921,(6, 21),24	945,(6, 45),44	989,(6, 58),24	1013,(6, 46),132	1145,(6, 47),140	1285,(6, 49),56	1341,(6, 56),56	1397,(6, 63),8	1405,(6, 75),36	1441,(6, 59),156	1597,(6, 71),40	1637,(6, 80),92	1789,(24, 81),44	2349,(74, 81),44	2437,(44, 81),44	2745,(64, 81),44	3449,(34, 81),44	3581,(54, 81),44	4285,(14, 81),44	
161,(5, 10),64	225,(5, 15),12	237,(5, 20),4	241,(5, 40),16	257,(5, 44),4	265,(5, 38),4	277,(5, 62),4	289,(5, 71),8	309,(5, 74),12	473,(5, 22),160	661,(5, 69),16	689,(5, 77),12	749,(5, 29),32	785,(5, 27),104	889,(5, 34),184	1073,(5, 79),64	1177,(5, 58),252	2041,(23, 81),44	2305,(33, 81),44	2393,(43, 81),44	2613,(73, 81),44	3493,(53, 81),44	3977,(63, 81),44	4241,(13, 81),44	
89,(4, 10),72	161,(4, 11),96	257,(4, 30),4	261,(4, 34),4	265,(4, 63),12	277,(4, 70),16	605,(4, 17),84	689,(4, 39),60	749,(4, 57),36	2129,(62, 81),44	2569,(72, 81),44	2833,(22, 81),44	3097,(32, 81),44	3273,(12, 81),44	4417,(42, 81),44	4461,(52, 81),44	
601,(3, 9),48	649,(3, 18),8	657,(3, 19),4	661,(3, 25),228	889,(3, 28),4	893,(3, 29),16	909,(3, 32),4	913,(3, 36),4	917,(3, 46),96	1013,(3, 50),56	1069,(3, 53),8	1077,(3, 54),4	1081,(3, 57),64	1145,(3, 58),32	1177,(3, 60),20	1197,(3, 66),12	1209,(3, 80),188	1397,(41, 81),44	2085,(11, 81),44	2173,(31, 81),44	2481,(51, 81),44	3185,(21, 81),44	3361,(61, 81),44	4153,(71, 81),44	
141,(2, 24),84	225,(2, 32),52	277,(2, 38),20	297,(2, 48),164	461,(2, 61),8	469,(2, 27),8	477,(2, 37),12	489,(2, 55),16	505,(2, 64),88	593,(2, 65),4	597,(2, 69),4	601,(2, 75),4	985,(10, 81),44	1201,(40, 81),44	2217,(70, 81),44	3537,(20, 81),44	3757,(60, 81),44	4065,(30, 81),44	4197,(80, 81),44	4373,(50, 81),44	
1,(0, 2),12	13,(0, 3),12	25,(0, 4),12	37,(0, 5),12	49,(0, 6),12	61,(0, 7),12	73,(0, 8),12	85,(1, 10),4	89,(1, 14),52	141,(1, 23),100	241,(1, 28),24	265,(1, 31),24	289,(1, 33),12	301,(1, 34),8	309,(1, 42),16	325,(1, 43),68	393,(1, 44),4	397,(1, 50),20	417,(1, 51),28	445,(1, 53),16	461,(1, 56),4	465,(1, 57),4	469,(1, 72),4	473,(1, 73),8	481,(1, 76),20	501,(1, 77),104	605,(1, 78),40	
