4130
# CPU
13,3,1	14,186,1	25,6,1	26,39,1	27,123,1	28,138,1	37,9,1	38,42,1	39,111,1	49,12,1	50,120,1	51,171,1	61,15,1	62,48,1	63,153,1	73,18,1	74,27,1	75,99,1	427,81,1	433,87,1	442,90,1	454,75,1	457,108,1	460,165,1	466,45,1	484,54,1	793,102,1	796,114,1	829,144,1	832,147,1	835,72,1	991,69,1	1012,126,1	1018,132,1	1024,150,1	1054,177,1	1078,195,1	1090,60,1	1093,66,1	1096,96,1	1099,63,1	1102,84,1	1105,93,1	1114,117,1	1120,141,1	1123,33,1	1126,135,1	1129,189,1	1153,36,1	1201,174,1	1204,183,1	1309,159,1	1369,21,1	1414,156,1	1429,198,1	1432,24,1	1435,30,1	1438,78,1	1444,192,1	3028,57,1	3091,180,1	3448,105,1	3610,129,1	3814,51,1	3943,162,1	3985,168,1	
7,2,1	8,26,1	9,50,1	10,107,1	19,5,1	20,152,1	21,197,1	31,8,1	32,86,1	33,188,1	43,11,1	44,89,1	45,155,1	55,14,1	56,47,1	57,65,1	58,68,1	59,167,1	67,17,1	68,71,1	69,95,1	70,122,1	79,20,1	80,98,1	81,134,1	82,146,1	118,77,1	133,164,1	151,182,1	157,38,1	160,53,1	163,74,1	328,128,1	343,29,1	463,44,1	469,56,1	484,101,1	556,113,1	601,191,1	607,92,1	610,110,1	847,83,1	856,104,1	859,140,1	1078,149,1	1150,23,1	1198,137,1	1204,176,1	1366,185,1	1369,59,1	1399,116,1	1402,161,1	1417,32,1	1420,41,1	1423,173,1	1426,194,1	1441,119,1	1543,125,1	1591,131,1	1693,158,1	1711,179,1	1723,200,1	1738,35,1	1750,62,1	1756,80,1	2083,143,1	2095,170,1	
0,0,1	1,1,1	2,13,1	3,10,1	4,4,1	5,7,1	6,16,1	7,19,1	8,34,1	9,88,1	10,67,1	11,187,1	12,64,1	13,166,1	14,163,1	15,130,1	16,112,1	17,139,1	18,160,1	19,94,1	20,91,1	21,70,1	22,190,1	23,82,1	24,154,1	25,136,1	136,58,1	250,106,1	334,124,1	346,73,1	442,46,1	445,121,1	448,157,1	484,61,1	547,52,1	577,97,1	604,142,1	613,22,1	931,76,1	1123,127,1	1141,85,1	1144,133,1	1177,172,1	1183,184,1	1186,199,1	1195,25,1	1252,31,1	1270,55,1	1273,103,1	1276,169,1	1306,28,1	1309,148,1	1375,178,1	1378,193,1	1441,115,1	1774,100,1	2092,151,1	2122,175,1	3127,37,1	3181,43,1	3382,49,1	3388,79,1	3556,118,1	3742,181,1	3751,40,1	3817,109,1	3883,145,1	3994,196,1	4129,201,1	
# Incoming
7,(0, 3),6	19,(0, 6),6	31,(0, 9),6	43,(0, 12),6	55,(0, 15),6	67,(0, 18),6	79,(1, 45),21	100,(2, 30),9	118,(1, 81),309	427,(1, 87),6	433,(2, 90),9	442,(5, 75),12	454,(5, 108),3	457,(1, 165),3	460,(13, 45),6	466,(5, 189),3	469,(13, 96),12	481,(8, 54),3	484,(13, 102),309	793,(13, 114),3	796,(13, 141),3	799,(13, 144),30	829,(13, 147),3	832,(10, 72),3	835,(2, 135),24	859,(2, 192),42	901,(5, 69),90	991,(5, 126),21	1012,(5, 132),6	1018,(5, 150),6	1024,(5, 177),30	1054,(5, 195),24	1078,(8, 60),12	1090,(8, 66),3	1093,(8, 96),3	1096,(11, 63),3	1099,(11, 84),3	1102,(14, 93),3	1105,(14, 117),9	1114,(14, 141),6	1120,(20, 33),3	1123,(20, 135),3	1126,(20, 189),3	1150,(4, 36),3	1153,(4, 174),48	1201,(4, 183),3	1252,(14, 159),57	1366,(7, 21),3	1390,(20, 156),24	1426,(16, 198),3	1429,(19, 24),3	1432,(19, 30),3	1435,(19, 78),3	1441,(19, 192),3	1444,(11, 57),1584	3028,(14, 180),63	3388,(17, 105),60	3556,(17, 129),54	3610,(17, 162),42	3751,(20, 51),63	3883,(20, 162),60	3943,(20, 168),42	
1,(0, 2),6	13,(0, 5),6	25,(0, 8),6	37,(0, 11),6	49,(0, 14),6	61,(0, 17),6	73,(0, 20),6	79,(3, 23),18	97,(3, 149),3	100,(1, 77),18	118,(3, 164),15	133,(3, 182),18	151,(6, 29),3	154,(6, 38),3	157,(6, 53),3	160,(6, 74),3	163,(9, 41),153	316,(9, 128),12	328,(12, 29),15	433,(1, 116),24	457,(12, 83),3	460,(15, 44),3	466,(13, 56),3	481,(13, 101),3	484,(9, 113),72	556,(9, 191),45	601,(15, 92),6	607,(15, 110),3	835,(10, 83),12	847,(10, 104),9	856,(10, 140),3	859,(10, 149),219	1078,(4, 23),72	1192,(15, 137),6	1198,(15, 176),6	1204,(4, 185),162	1366,(18, 59),3	1369,(7, 116),30	1399,(7, 161),3	1402,(16, 32),15	1417,(16, 41),3	1420,(16, 173),3	1423,(16, 194),3	1438,(19, 119),3	1441,(15, 125),102	1543,(15, 131),48	1591,(15, 158),102	1693,(15, 179),18	1711,(15, 200),12	1723,(18, 35),15	1747,(18, 62),3	1750,(18, 80),6	1774,(18, 143),309	2092,(18, 170),3	
109,(2, 58),27	136,(2, 106),114	250,(2, 124),84	334,(26, 201),3	337,(50, 201),3	340,(107, 201),3	343,(3, 73),3	346,(3, 175),90	436,(186, 201),3	439,(6, 46),3	442,(6, 121),3	445,(6, 157),3	448,(39, 201),3	451,(123, 201),3	454,(138, 201),3	457,(152, 201),3	460,(197, 201),3	463,(6, 61),21	484,(8, 52),63	547,(8, 97),30	577,(8, 109),21	598,(8, 115),3	601,(8, 142),3	604,(86, 201),3	607,(188, 201),3	610,(9, 22),3	613,(9, 76),318	931,(9, 115),33	964,(9, 127),159	1123,(9, 181),3	1126,(42, 201),3	1129,(111, 201),3	1132,(89, 201),3	1135,(155, 201),3	1138,(12, 85),3	1141,(12, 133),3	1144,(12, 172),33	1177,(12, 184),6	1183,(12, 199),3	1186,(120, 201),3	1189,(171, 201),3	1192,(14, 25),3	1195,(14, 31),57	1252,(15, 55),18	1270,(15, 103),3	1273,(15, 169),3	1276,(48, 201),3	1279,(153, 201),3	1282,(18, 28),24	1306,(18, 148),3	1309,(14, 178),66	1375,(14, 193),3	1378,(47, 201),3	1381,(65, 201),3	1384,(68, 201),3	1387,(167, 201),3	1390,(15, 115),51	1441,(71, 201),3	1738,(18, 43),9	1756,(18, 100),18	2083,(18, 151),9	2095,(18, 175),27	2122,(27, 201),3	2125,(99, 201),3	2128,(81, 201),3	2131,(87, 201),3	2134,(90, 201),3	2137,(75, 201),3	2140,(108, 201),3	2143,(165, 201),3	2146,(45, 201),3	2149,(54, 201),3	2152,(102, 201),3	2155,(114, 201),3	2158,(144, 201),3	2161,(147, 201),3	2164,(72, 201),3	2167,(69, 201),3	2170,(126, 201),3	2173,(132, 201),3	2176,(150, 201),3	2179,(177, 201),3	2182,(195, 201),3	2185,(60, 201),3	2188,(66, 201),3	2191,(96, 201),3	2194,(63, 201),3	2197,(84, 201),3	2200,(93, 201),3	2203,(117, 201),3	2206,(141, 201),3	2209,(33, 201),3	2212,(135, 201),3	2215,(189, 201),3	2218,(36, 201),3	2221,(174, 201),3	2224,(183, 201),3	2227,(159, 201),3	2230,(21, 201),3	2233,(156, 201),3	2236,(198, 201),3	2239,(24, 201),3	2242,(30, 201),3	2245,(78, 201),3	2248,(192, 201),3	3029,(57, 201),3	3091,(17, 37),36	3127,(17, 43),54	3181,(17, 49),201	3382,(17, 79),6	3388,(180, 201),3	3448,(17, 118),108	3556,(105, 201),3	3611,(129, 201),3	3652,(17, 181),90	3742,(95, 201),3	3745,(122, 201),3	3748,(20, 40),3	3814,(20, 109),3	3817,(20, 145),66	3883,(51, 201),3	3944,(162, 201),3	3985,(20, 196),9	3994,(98, 201),3	3997,(134, 201),3	4000,(146, 201),3	4003,(77, 201),3	4006,(164, 201),3	4009,(182, 201),3	4012,(38, 201),3	4015,(53, 201),3	4018,(74, 201),3	4021,(128, 201),3	4024,(29, 201),3	4027,(44, 201),3	4030,(56, 201),3	4033,(101, 201),3	4036,(113, 201),3	4039,(191, 201),3	4042,(92, 201),3	4045,(110, 201),3	4048,(83, 201),3	4051,(104, 201),3	4054,(140, 201),3	4057,(149, 201),3	4060,(23, 201),3	4063,(137, 201),3	4066,(176, 201),3	4069,(185, 201),3	4072,(59, 201),3	4075,(116, 201),3	4078,(161, 201),3	4081,(32, 201),3	4084,(41, 201),3	4087,(173, 201),3	4090,(194, 201),3	4093,(119, 201),3	4096,(125, 201),3	4099,(131, 201),3	4102,(158, 201),3	4105,(179, 201),3	4108,(200, 201),3	4111,(35, 201),3	4114,(62, 201),3	4117,(80, 201),3	4120,(143, 201),3	4123,(170, 201),3	4126,(168, 201),3	
# Outgoing
79,(3, 23),18	97,(3, 149),3	118,(3, 164),15	133,(3, 182),18	151,(6, 29),3	154,(6, 38),3	157,(6, 53),3	160,(6, 74),3	163,(9, 41),153	316,(9, 128),12	328,(12, 29),15	343,(3, 73),3	346,(3, 175),90	436,(186, 201),3	439,(6, 46),3	442,(6, 121),3	445,(6, 157),3	448,(39, 201),3	451,(123, 201),3	454,(138, 201),3	457,(12, 83),3	460,(15, 44),3	463,(6, 61),21	484,(9, 113),72	556,(9, 191),45	601,(15, 92),6	607,(15, 110),3	610,(9, 22),3	613,(9, 76),318	931,(9, 115),33	964,(9, 127),159	1123,(9, 181),3	1126,(42, 201),3	1129,(111, 201),3	1138,(12, 85),3	1141,(12, 133),3	1144,(12, 172),33	1177,(12, 184),6	1183,(12, 199),3	1186,(120, 201),3	1189,(171, 201),3	1192,(15, 137),6	1198,(15, 176),6	1252,(15, 55),18	1270,(15, 103),3	1273,(15, 169),3	1276,(48, 201),3	1279,(153, 201),3	1282,(18, 28),24	1306,(18, 148),3	1366,(18, 59),3	1390,(15, 115),51	1441,(15, 125),102	1543,(15, 131),48	1591,(15, 158),102	1693,(15, 179),18	1711,(15, 200),12	1723,(18, 35),15	1738,(18, 43),9	1747,(18, 62),3	1750,(18, 80),6	1756,(18, 100),18	1774,(18, 143),309	2083,(18, 151),9	2092,(18, 170),3	2095,(18, 175),27	2122,(27, 201),3	2125,(99, 201),3	2128,(81, 201),3	2131,(87, 201),3	2134,(90, 201),3	2137,(75, 201),3	2140,(108, 201),3	2143,(165, 201),3	2146,(45, 201),3	2149,(54, 201),3	2152,(102, 201),3	2155,(114, 201),3	2158,(144, 201),3	2161,(147, 201),3	2164,(72, 201),3	2167,(69, 201),3	2170,(126, 201),3	2173,(132, 201),3	2176,(150, 201),3	2179,(177, 201),3	2182,(195, 201),3	2185,(60, 201),3	2188,(66, 201),3	2191,(96, 201),3	2194,(63, 201),3	2197,(84, 201),3	2200,(93, 201),3	2203,(117, 201),3	2206,(141, 201),3	2209,(33, 201),3	2212,(135, 201),3	2215,(189, 201),3	2218,(36, 201),3	2221,(174, 201),3	2224,(183, 201),3	2227,(159, 201),3	2230,(21, 201),3	2233,(156, 201),3	2236,(198, 201),3	2239,(24, 201),3	2242,(30, 201),3	2245,(78, 201),3	2248,(192, 201),3	3029,(57, 201),3	3388,(180, 201),3	3556,(105, 201),3	3611,(129, 201),3	3883,(51, 201),3	3944,(162, 201),3	4126,(168, 201),3	
100,(2, 30),9	109,(2, 58),27	136,(2, 106),114	250,(2, 124),84	334,(26, 201),3	337,(50, 201),3	340,(107, 201),3	433,(2, 90),9	442,(5, 75),12	454,(5, 108),3	457,(152, 201),3	460,(197, 201),3	466,(5, 189),3	481,(8, 54),3	484,(8, 52),63	547,(8, 97),30	577,(8, 109),21	598,(8, 115),3	601,(8, 142),3	604,(86, 201),3	607,(188, 201),3	835,(2, 135),24	859,(2, 192),42	901,(5, 69),90	991,(5, 126),21	1012,(5, 132),6	1018,(5, 150),6	1024,(5, 177),30	1054,(5, 195),24	1078,(8, 60),12	1090,(8, 66),3	1093,(8, 96),3	1096,(11, 63),3	1099,(11, 84),3	1102,(14, 93),3	1105,(14, 117),9	1114,(14, 141),6	1120,(20, 33),3	1123,(20, 135),3	1126,(20, 189),3	1132,(89, 201),3	1135,(155, 201),3	1192,(14, 25),3	1195,(14, 31),57	1252,(14, 159),57	1309,(14, 178),66	1375,(14, 193),3	1378,(47, 201),3	1381,(65, 201),3	1384,(68, 201),3	1387,(167, 201),3	1390,(20, 156),24	1441,(71, 201),3	1444,(11, 57),1584	3028,(14, 180),63	3091,(17, 37),36	3127,(17, 43),54	3181,(17, 49),201	3382,(17, 79),6	3388,(17, 105),60	3448,(17, 118),108	3556,(17, 129),54	3610,(17, 162),42	3652,(17, 181),90	3742,(95, 201),3	3745,(122, 201),3	3748,(20, 40),3	3751,(20, 51),63	3814,(20, 109),3	3817,(20, 145),66	3883,(20, 162),60	3943,(20, 168),42	3985,(20, 196),9	3994,(98, 201),3	3997,(134, 201),3	4000,(146, 201),3	4003,(77, 201),3	4006,(164, 201),3	4009,(182, 201),3	4012,(38, 201),3	4015,(53, 201),3	4018,(74, 201),3	4021,(128, 201),3	4024,(29, 201),3	4027,(44, 201),3	4030,(56, 201),3	4033,(101, 201),3	4036,(113, 201),3	4039,(191, 201),3	4042,(92, 201),3	4045,(110, 201),3	4048,(83, 201),3	4051,(104, 201),3	4054,(140, 201),3	4057,(149, 201),3	4060,(23, 201),3	4063,(137, 201),3	4066,(176, 201),3	4069,(185, 201),3	4072,(59, 201),3	4075,(116, 201),3	4078,(161, 201),3	4081,(32, 201),3	4084,(41, 201),3	4087,(173, 201),3	4090,(194, 201),3	4093,(119, 201),3	4096,(125, 201),3	4099,(131, 201),3	4102,(158, 201),3	4105,(179, 201),3	4108,(200, 201),3	4111,(35, 201),3	4114,(62, 201),3	4117,(80, 201),3	4120,(143, 201),3	4123,(170, 201),3	
1,(0, 2),6	7,(0, 3),6	13,(0, 5),6	19,(0, 6),6	25,(0, 8),6	31,(0, 9),6	37,(0, 11),6	43,(0, 12),6	49,(0, 14),6	55,(0, 15),6	61,(0, 17),6	67,(0, 18),6	73,(0, 20),6	79,(1, 45),21	100,(1, 77),18	118,(1, 81),309	427,(1, 87),6	433,(1, 116),24	457,(1, 165),3	460,(13, 45),6	466,(13, 56),3	469,(13, 96),12	481,(13, 101),3	484,(13, 102),309	793,(13, 114),3	796,(13, 141),3	799,(13, 144),30	829,(13, 147),3	832,(10, 72),3	835,(10, 83),12	847,(10, 104),9	856,(10, 140),3	859,(10, 149),219	1078,(4, 23),72	1150,(4, 36),3	1153,(4, 174),48	1201,(4, 183),3	1204,(4, 185),162	1366,(7, 21),3	1369,(7, 116),30	1399,(7, 161),3	1402,(16, 32),15	1417,(16, 41),3	1420,(16, 173),3	1423,(16, 194),3	1426,(16, 198),3	1429,(19, 24),3	1432,(19, 30),3	1435,(19, 78),3	1438,(19, 119),3	1441,(19, 192),3	
