974
# CPU
23,2,23	46,14,23	69,110,23	92,4,23	115,6,23	138,16,23	161,21,23	184,64,23	207,19,23	230,104,23	253,119,23	276,70,23	299,51,23	322,68,23	345,24,23	368,49,23	391,13,23	414,23,23	437,38,23	460,97,23	483,55,23	506,78,23	529,80,23	552,95,23	575,33,23	598,17,23	621,32,23	644,59,23	667,39,23	690,62,23	713,102,23	736,29,23	759,52,23	782,75,23	805,87,23	828,106,23	851,113,23	874,36,23	897,76,23	920,90,23	
45,3,23	68,100,23	91,115,23	114,7,23	137,9,23	160,46,23	183,65,23	206,30,23	229,71,23	252,27,23	275,77,23	298,18,23	321,107,23	344,112,23	367,44,23	390,42,23	413,47,23	436,83,23	459,25,23	482,69,23	505,96,23	528,108,23	551,114,23	574,15,23	597,41,23	620,86,23	643,98,23	666,26,23	689,35,23	712,37,23	735,61,23	758,66,23	781,57,23	804,74,23	827,118,23	850,50,23	873,73,23	896,82,23	919,105,23	942,117,23	
0,0,1	1,1,23	24,8,23	47,5,23	70,11,23	93,10,23	116,12,23	139,85,23	162,43,23	185,34,23	208,92,23	231,109,23	254,89,23	277,91,23	300,84,23	323,54,23	346,28,23	369,93,23	392,20,23	415,60,23	438,101,23	461,88,23	484,79,23	507,67,23	530,63,23	553,48,23	576,116,23	599,45,23	622,111,23	645,99,23	668,58,23	691,40,23	714,56,23	737,81,23	760,31,23	783,72,23	806,120,23	829,53,23	852,103,23	875,94,23	898,22,23	973,121,1	
# Incoming
1,(0, 2),22	45,(0, 4),22	67,(0, 6),22	89,(3, 16),10	99,(3, 38),18	139,(7, 76),10	151,(1, 38),82	233,(9, 33),4	237,(9, 97),2	281,(1, 52),16	297,(1, 55),2	303,(1, 78),4	307,(1, 80),2	319,(1, 95),12	335,(8, 33),16	407,(8, 113),2	447,(5, 17),2	449,(5, 32),2	473,(5, 59),8	549,(11, 39),40	621,(11, 62),18	643,(11, 102),12	695,(10, 29),6	701,(10, 52),38	747,(10, 75),28	775,(10, 87),2	777,(10, 106),12	789,(10, 113),12	813,(12, 36),2	819,(12, 76),28	879,(12, 90),2	
23,(0, 3),22	46,(2, 69),8	54,(2, 71),2	89,(0, 7),22	111,(0, 9),22	133,(1, 18),8	141,(1, 30),10	151,(4, 44),18	169,(4, 47),2	171,(4, 61),6	177,(6, 50),4	233,(1, 42),12	245,(1, 47),36	299,(1, 74),4	309,(1, 83),10	331,(8, 25),4	351,(8, 69),2	353,(8, 96),2	355,(8, 108),52	409,(8, 114),16	425,(8, 117),2	427,(5, 15),20	451,(5, 41),2	453,(5, 50),6	459,(5, 57),14	481,(5, 86),10	491,(5, 98),40	531,(5, 118),2	533,(11, 26),6	539,(11, 35),8	547,(11, 37),2	589,(11, 50),2	591,(11, 61),30	639,(11, 66),2	641,(11, 82),2	655,(11, 117),40	739,(10, 57),2	741,(10, 74),6	801,(10, 118),12	815,(12, 50),2	817,(12, 73),2	847,(12, 82),32	881,(12, 105),20	901,(12, 117),2	
69,(14, 121),8	92,(110, 121),8	117,(100, 121),8	125,(115, 121),8	133,(4, 116),4	137,(7, 45),2	139,(6, 120),2	160,(9, 53),4	164,(9, 103),14	181,(6, 94),72	253,(9, 22),28	281,(16, 121),8	289,(46, 121),8	297,(21, 121),8	305,(65, 121),8	313,(64, 121),8	321,(30, 121),8	329,(19, 121),8	337,(71, 121),8	345,(104, 121),8	353,(27, 121),8	361,(119, 121),8	369,(77, 121),8	377,(70, 121),8	385,(18, 121),8	393,(51, 121),8	401,(107, 121),8	409,(68, 121),8	417,(112, 121),8	425,(24, 121),8	433,(44, 121),8	441,(49, 121),8	449,(42, 121),8	457,(13, 121),8	465,(47, 121),8	473,(23, 121),8	481,(83, 121),8	489,(38, 121),8	497,(25, 121),8	505,(97, 121),8	513,(69, 121),8	521,(55, 121),8	529,(96, 121),8	537,(78, 121),8	551,(108, 121),8	559,(80, 121),8	574,(114, 121),8	582,(95, 121),8	597,(15, 121),8	605,(33, 121),8	620,(41, 121),8	628,(17, 121),8	643,(86, 121),8	651,(32, 121),8	666,(98, 121),8	674,(59, 121),8	689,(26, 121),8	697,(39, 121),8	712,(35, 121),8	720,(62, 121),8	735,(37, 121),8	743,(102, 121),8	758,(61, 121),8	766,(29, 121),8	781,(66, 121),8	789,(52, 121),8	804,(57, 121),8	812,(75, 121),8	827,(74, 121),8	835,(87, 121),8	850,(118, 121),8	858,(106, 121),8	873,(50, 121),8	881,(113, 121),8	896,(73, 121),8	904,(36, 121),8	919,(82, 121),8	927,(76, 121),8	942,(105, 121),8	950,(90, 121),8	965,(117, 121),8	
# Outgoing
46,(2, 69),8	54,(2, 71),2	69,(14, 121),8	92,(110, 121),8	133,(4, 116),4	139,(6, 120),2	151,(4, 44),18	169,(4, 47),2	171,(4, 61),6	177,(6, 50),4	181,(6, 94),72	281,(16, 121),8	297,(21, 121),8	313,(64, 121),8	329,(19, 121),8	345,(104, 121),8	361,(119, 121),8	377,(70, 121),8	393,(51, 121),8	409,(68, 121),8	425,(24, 121),8	441,(49, 121),8	457,(13, 121),8	473,(23, 121),8	489,(38, 121),8	505,(97, 121),8	521,(55, 121),8	537,(78, 121),8	559,(80, 121),8	582,(95, 121),8	605,(33, 121),8	628,(17, 121),8	651,(32, 121),8	674,(59, 121),8	697,(39, 121),8	720,(62, 121),8	743,(102, 121),8	766,(29, 121),8	789,(52, 121),8	812,(75, 121),8	835,(87, 121),8	858,(106, 121),8	881,(113, 121),8	904,(36, 121),8	927,(76, 121),8	950,(90, 121),8	
89,(3, 16),10	99,(3, 38),18	117,(100, 121),8	125,(115, 121),8	137,(7, 45),2	139,(7, 76),10	160,(9, 53),4	164,(9, 103),14	233,(9, 33),4	237,(9, 97),2	253,(9, 22),28	289,(46, 121),8	305,(65, 121),8	321,(30, 121),8	337,(71, 121),8	353,(27, 121),8	369,(77, 121),8	385,(18, 121),8	401,(107, 121),8	417,(112, 121),8	433,(44, 121),8	449,(42, 121),8	465,(47, 121),8	481,(83, 121),8	497,(25, 121),8	513,(69, 121),8	529,(96, 121),8	551,(108, 121),8	574,(114, 121),8	597,(15, 121),8	620,(41, 121),8	643,(86, 121),8	666,(98, 121),8	689,(26, 121),8	712,(35, 121),8	735,(37, 121),8	758,(61, 121),8	781,(66, 121),8	804,(57, 121),8	827,(74, 121),8	850,(118, 121),8	873,(50, 121),8	896,(73, 121),8	919,(82, 121),8	942,(105, 121),8	965,(117, 121),8	
1,(0, 2),22	23,(0, 3),22	45,(0, 4),22	67,(0, 6),22	89,(0, 7),22	111,(0, 9),22	133,(1, 18),8	141,(1, 30),10	151,(1, 38),82	233,(1, 42),12	245,(1, 47),36	281,(1, 52),16	297,(1, 55),2	299,(1, 74),4	303,(1, 78),4	307,(1, 80),2	309,(1, 83),10	319,(1, 95),12	331,(8, 25),4	335,(8, 33),16	351,(8, 69),2	353,(8, 96),2	355,(8, 108),52	407,(8, 113),2	409,(8, 114),16	425,(8, 117),2	427,(5, 15),20	447,(5, 17),2	449,(5, 32),2	451,(5, 41),2	453,(5, 50),6	459,(5, 57),14	473,(5, 59),8	481,(5, 86),10	491,(5, 98),40	531,(5, 118),2	533,(11, 26),6	539,(11, 35),8	547,(11, 37),2	549,(11, 39),40	589,(11, 50),2	591,(11, 61),30	621,(11, 62),18	639,(11, 66),2	641,(11, 82),2	643,(11, 102),12	655,(11, 117),40	695,(10, 29),6	701,(10, 52),38	739,(10, 57),2	741,(10, 74),6	747,(10, 75),28	775,(10, 87),2	777,(10, 106),12	789,(10, 113),12	801,(10, 118),12	813,(12, 36),2	815,(12, 50),2	817,(12, 73),2	819,(12, 76),28	847,(12, 82),32	879,(12, 90),2	881,(12, 105),20	901,(12, 117),2	
