564
# CPU



545,20,1	
124,18,1	
269,17,1	
203,11,1	266,15,1	563,21,1	
70,10,1	118,16,1	221,12,1	260,14,1	
46,2,1	47,5,1	48,13,1	49,4,1	67,7,1	
0,0,1	1,1,1	2,3,1	68,6,1	128,8,1	200,9,1	542,19,1	
# Incoming



542,(2, 20),3	
121,(1, 18),3	
118,(1, 17),3	266,(2, 17),3	
124,(3, 21),3	127,(6, 21),3	130,(10, 21),3	133,(16, 21),3	136,(18, 21),3	139,(8, 21),3	200,(2, 11),3	203,(9, 21),3	222,(12, 21),3	260,(2, 15),6	266,(14, 21),3	270,(17, 21),3	545,(5, 21),3	548,(13, 21),3	551,(4, 21),3	554,(7, 21),3	557,(19, 21),3	560,(20, 21),3	
67,(1, 10),3	70,(1, 12),6	76,(1, 16),42	203,(2, 12),18	221,(2, 14),39	
1,(0, 2),45	46,(1, 4),3	49,(1, 7),18	
47,(2, 6),21	68,(2, 8),60	128,(2, 9),72	269,(2, 19),273	
# Outgoing



560,(20, 21),3	
136,(18, 21),3	
270,(17, 21),3	

130,(10, 21),3	133,(16, 21),3	222,(12, 21),3	266,(14, 21),3	
47,(2, 6),21	68,(2, 8),60	128,(2, 9),72	200,(2, 11),3	203,(2, 12),18	221,(2, 14),39	260,(2, 15),6	266,(2, 17),3	269,(2, 19),273	542,(2, 20),3	545,(5, 21),3	548,(13, 21),3	551,(4, 21),3	554,(7, 21),3	
1,(0, 2),45	46,(1, 4),3	49,(1, 7),18	67,(1, 10),3	70,(1, 12),6	76,(1, 16),42	118,(1, 17),3	121,(1, 18),3	124,(3, 21),3	127,(6, 21),3	139,(8, 21),3	203,(9, 21),3	557,(19, 21),3	
