213
# CPU
0,0,1	1,3,4	5,91,4	9,139,4	13,175,4	17,72,4	21,40,4	25,177,4	29,24,4	33,11,4	37,186,4	41,73,4	45,85,4	49,99,4	53,7,4	57,60,4	61,195,4	65,113,4	69,79,4	73,134,4	77,119,4	81,176,4	85,14,4	89,184,4	93,110,4	97,118,4	101,109,4	105,107,4	109,138,4	113,178,4	117,46,4	121,100,4	125,171,4	129,15,4	133,88,4	137,136,4	141,127,4	145,197,4	149,70,4	153,194,4	157,150,4	161,174,4	165,112,4	169,192,4	173,92,4	212,201,1	
6,141,4	10,84,4	18,179,4	25,13,4	29,188,4	33,199,4	37,154,4	41,78,4	45,21,4	49,200,4	58,42,4	64,30,4	75,10,4	79,187,4	83,129,4	87,111,4	91,124,4	95,25,4	107,62,4	124,160,4	129,106,4	134,189,4	139,33,4	156,120,4	165,17,4	169,191,4	173,52,4	177,104,4	181,180,4	185,43,4	189,87,4	193,29,4	197,83,4	201,89,4	205,163,4	
7,116,4	13,149,4	31,126,4	36,32,4	51,135,4	59,183,4	80,38,4	86,50,4	91,76,4	95,49,4	108,153,4	126,146,4	136,55,4	158,4,4	162,95,4	166,159,4	170,161,4	174,54,4	178,108,4	182,36,4	
8,31,4	38,152,4	52,142,4	61,77,4	81,96,4	87,65,4	94,90,4	130,1,4	134,69,4	138,51,4	142,182,4	146,123,4	150,101,4	154,67,4	158,28,4	162,151,4	167,133,4	175,93,4	
82,16,4	86,137,4	90,162,4	94,105,4	122,48,4	133,155,4	137,185,4	
96,121,4	116,2,4	120,41,4	124,114,4	128,130,4	132,169,4	136,167,4	140,165,4	
32,19,4	36,81,4	40,168,4	44,34,4	48,115,4	52,75,4	56,140,4	116,148,4	140,172,4	
68,166,4	102,6,4	106,193,4	110,157,4	114,117,4	118,23,4	122,68,4	126,58,4	130,198,4	134,45,4	144,128,4	
42,56,4	53,5,4	57,64,4	61,173,4	65,144,4	69,39,4	73,131,4	89,12,4	93,122,4	97,170,4	101,86,4	105,37,4	109,147,4	113,103,4	123,8,4	127,74,4	131,80,4	135,125,4	139,156,4	143,66,4	147,196,4	151,102,4	158,22,4	
39,158,4	46,20,4	50,190,4	54,132,4	58,181,4	62,35,4	66,44,4	70,53,4	89,98,4	100,47,4	109,18,4	113,71,4	117,94,4	121,63,4	125,59,4	129,143,4	133,82,4	137,145,4	141,57,4	151,9,4	155,61,4	159,97,4	163,164,4	167,27,4	171,26,4	
# Incoming
36,(141, 201),1	37,(84, 201),1	38,(179, 201),1	39,(188, 201),1	40,(199, 201),1	41,(154, 201),1	42,(81, 201),1	44,(168, 201),1	45,(78, 201),1	48,(34, 201),1	49,(21, 201),1	52,(158, 201),1	53,(115, 201),1	54,(200, 201),1	55,(190, 201),1	56,(75, 201),1	58,(132, 201),1	60,(140, 201),1	62,(181, 201),1	63,(42, 201),1	66,(35, 201),1	68,(30, 201),1	70,(44, 201),1	74,(53, 201),1	86,(187, 201),1	87,(129, 201),1	90,(137, 201),1	91,(111, 201),1	93,(98, 201),1	94,(162, 201),1	95,(124, 201),1	98,(105, 201),1	99,(25, 201),1	100,(56, 201),1	101,(64, 201),1	102,(173, 201),1	103,(144, 201),1	104,(39, 201),1	105,(131, 201),1	106,(122, 201),1	107,(170, 201),1	108,(47, 201),1	109,(86, 201),1	110,(37, 201),1	111,(62, 201),1	113,(166, 201),1	114,(193, 201),1	115,(147, 201),1	116,(157, 201),1	117,(103, 201),1	118,(117, 201),1	120,(148, 201),1	122,(23, 201),1	124,(71, 201),1	125,(94, 201),1	126,(121, 201),1	127,(41, 201),1	128,(63, 201),1	129,(68, 201),1	130,(48, 201),1	131,(114, 201),1	132,(160, 201),1	133,(59, 201),1	134,(58, 201),1	135,(130, 201),1	136,(143, 201),1	137,(74, 201),1	138,(106, 201),1	139,(198, 201),1	140,(31, 201),1	141,(152, 201),1	142,(142, 201),1	143,(77, 201),1	144,(96, 201),1	145,(65, 201),1	146,(90, 201),1	147,(80, 201),1	148,(169, 201),1	149,(82, 201),1	150,(155, 201),1	151,(69, 201),1	152,(45, 201),1	153,(189, 201),1	154,(125, 201),1	155,(167, 201),1	156,(185, 201),1	157,(51, 201),1	158,(145, 201),1	159,(156, 201),1	160,(33, 201),1	161,(165, 201),1	162,(172, 201),1	163,(57, 201),1	164,(182, 201),1	165,(66, 201),1	166,(128, 201),1	167,(116, 201),1	168,(149, 201),1	169,(126, 201),1	170,(32, 201),1	171,(135, 201),1	172,(183, 201),1	173,(38, 201),1	174,(50, 201),1	175,(76, 201),1	176,(49, 201),1	177,(153, 201),1	178,(146, 201),1	179,(55, 201),1	180,(123, 201),1	181,(196, 201),1	182,(101, 201),1	183,(102, 201),1	184,(67, 201),1	185,(61, 201),1	186,(120, 201),1	187,(28, 201),1	188,(22, 201),1	189,(97, 201),1	190,(95, 201),1	191,(151, 201),1	192,(164, 201),1	193,(159, 201),1	194,(27, 201),1	195,(133, 201),1	196,(191, 201),1	197,(161, 201),1	198,(26, 201),1	199,(52, 201),1	200,(54, 201),1	201,(93, 201),1	202,(104, 201),1	203,(108, 201),1	204,(180, 201),1	205,(36, 201),1	206,(43, 201),1	207,(87, 201),1	208,(29, 201),1	209,(83, 201),1	210,(89, 201),1	211,(163, 201),1	
5,(3, 141),1	8,(3, 84),2	13,(3, 179),5	18,(0, 13),7	57,(7, 42),1	61,(7, 30),3	68,(0, 10),7	106,(6, 62),1	116,(18, 160),8	127,(8, 106),2	133,(15, 189),1	136,(15, 33),3	155,(9, 120),1	158,(0, 17),7	
6,(3, 116),1	10,(3, 149),3	29,(13, 126),2	31,(13, 32),5	50,(20, 135),1	58,(7, 183),1	79,(10, 38),1	81,(10, 50),5	89,(14, 76),2	91,(14, 49),4	107,(6, 153),1	122,(2, 146),4	134,(15, 55),2	151,(0, 4),7	
7,(3, 31),1	37,(11, 152),1	51,(20, 142),1	59,(7, 77),2	80,(10, 96),1	86,(16, 65),1	93,(12, 90),1	123,(0, 1),7	162,(4, 133),5	169,(17, 93),6	
75,(0, 16),7	120,(2, 48),2	129,(8, 155),4	133,(8, 185),4	
94,(12, 121),2	109,(0, 2),7	
25,(0, 19),7	113,(18, 148),3	134,(1, 172),6	
64,(7, 166),4	95,(0, 6),7	139,(15, 128),5	
36,(19, 56),6	46,(0, 5),7	82,(0, 12),7	108,(6, 103),5	116,(0, 8),7	156,(9, 22),2	
38,(11, 158),1	39,(0, 20),7	87,(16, 98),2	96,(12, 47),4	102,(0, 18),7	144,(0, 9),7	
# Outgoing
5,(3, 141),1	6,(3, 116),1	7,(3, 31),1	8,(3, 84),2	10,(3, 149),3	13,(3, 179),5	18,(0, 13),7	25,(0, 19),7	37,(11, 152),1	38,(11, 158),1	39,(0, 20),7	46,(0, 5),7	57,(7, 42),1	58,(7, 183),1	59,(7, 77),2	61,(7, 30),3	64,(7, 166),4	68,(0, 10),7	75,(0, 16),7	82,(0, 12),7	89,(14, 76),2	91,(14, 49),4	95,(0, 6),7	102,(0, 18),7	109,(0, 2),7	116,(0, 8),7	123,(0, 1),7	133,(15, 189),1	134,(15, 55),2	136,(15, 33),3	139,(15, 128),5	144,(0, 9),7	151,(0, 4),7	158,(0, 17),7	
29,(13, 126),2	31,(13, 32),5	36,(141, 201),1	37,(84, 201),1	38,(179, 201),1	39,(188, 201),1	40,(199, 201),1	41,(154, 201),1	45,(78, 201),1	49,(21, 201),1	54,(200, 201),1	63,(42, 201),1	68,(30, 201),1	79,(10, 38),1	80,(10, 96),1	81,(10, 50),5	86,(187, 201),1	87,(129, 201),1	91,(111, 201),1	95,(124, 201),1	99,(25, 201),1	111,(62, 201),1	132,(160, 201),1	138,(106, 201),1	153,(189, 201),1	160,(33, 201),1	169,(17, 93),6	186,(120, 201),1	196,(191, 201),1	199,(52, 201),1	202,(104, 201),1	204,(180, 201),1	206,(43, 201),1	207,(87, 201),1	208,(29, 201),1	209,(83, 201),1	210,(89, 201),1	211,(163, 201),1	
162,(4, 133),5	167,(116, 201),1	168,(149, 201),1	169,(126, 201),1	170,(32, 201),1	171,(135, 201),1	172,(183, 201),1	173,(38, 201),1	174,(50, 201),1	175,(76, 201),1	176,(49, 201),1	177,(153, 201),1	178,(146, 201),1	179,(55, 201),1	190,(95, 201),1	193,(159, 201),1	197,(161, 201),1	200,(54, 201),1	203,(108, 201),1	205,(36, 201),1	
134,(1, 172),6	140,(31, 201),1	141,(152, 201),1	142,(142, 201),1	143,(77, 201),1	144,(96, 201),1	145,(65, 201),1	146,(90, 201),1	151,(69, 201),1	157,(51, 201),1	164,(182, 201),1	180,(123, 201),1	182,(101, 201),1	184,(67, 201),1	187,(28, 201),1	191,(151, 201),1	195,(133, 201),1	201,(93, 201),1	
86,(16, 65),1	87,(16, 98),2	90,(137, 201),1	94,(162, 201),1	98,(105, 201),1	130,(48, 201),1	150,(155, 201),1	156,(185, 201),1	
120,(2, 48),2	122,(2, 146),4	126,(121, 201),1	127,(41, 201),1	131,(114, 201),1	135,(130, 201),1	148,(169, 201),1	155,(167, 201),1	161,(165, 201),1	
36,(19, 56),6	42,(81, 201),1	44,(168, 201),1	48,(34, 201),1	53,(115, 201),1	56,(75, 201),1	60,(140, 201),1	120,(148, 201),1	162,(172, 201),1	
106,(6, 62),1	107,(6, 153),1	108,(6, 103),5	113,(166, 201),1	114,(193, 201),1	116,(157, 201),1	118,(117, 201),1	122,(23, 201),1	129,(68, 201),1	134,(58, 201),1	139,(198, 201),1	152,(45, 201),1	166,(128, 201),1	
93,(12, 90),1	94,(12, 121),2	96,(12, 47),4	100,(56, 201),1	101,(64, 201),1	102,(173, 201),1	103,(144, 201),1	104,(39, 201),1	105,(131, 201),1	106,(122, 201),1	107,(170, 201),1	109,(86, 201),1	110,(37, 201),1	115,(147, 201),1	117,(103, 201),1	127,(8, 106),2	129,(8, 155),4	133,(8, 185),4	137,(74, 201),1	147,(80, 201),1	154,(125, 201),1	159,(156, 201),1	165,(66, 201),1	181,(196, 201),1	183,(102, 201),1	188,(22, 201),1	
50,(20, 135),1	51,(20, 142),1	52,(158, 201),1	55,(190, 201),1	58,(132, 201),1	62,(181, 201),1	66,(35, 201),1	70,(44, 201),1	74,(53, 201),1	93,(98, 201),1	108,(47, 201),1	113,(18, 148),3	116,(18, 160),8	124,(71, 201),1	125,(94, 201),1	128,(63, 201),1	133,(59, 201),1	136,(143, 201),1	149,(82, 201),1	155,(9, 120),1	156,(9, 22),2	158,(145, 201),1	163,(57, 201),1	185,(61, 201),1	189,(97, 201),1	192,(164, 201),1	194,(27, 201),1	198,(26, 201),1	
