3302
# CPU
289,10,1	290,68,1	291,91,1	292,93,1	293,158,1	294,49,1	297,84,1	305,88,1	317,173,1	321,60,1	325,89,1	341,165,1	349,55,1	357,100,1	393,142,1	429,126,1	433,147,1	441,145,1	545,62,1	577,20,1	578,125,1	579,141,1	580,150,1	581,177,1	609,160,1	613,108,1	625,136,1	629,157,1	653,92,1	713,162,1	757,199,1	785,45,1	801,127,1	837,122,1	845,146,1	893,143,1	925,79,1	961,128,1	989,161,1	1069,118,1	1109,149,1	1113,164,1	1121,117,1	1177,123,1	1185,75,1	1189,83,1	1213,94,1	1237,153,1	1261,116,1	1285,138,1	1301,195,1	1317,180,1	1325,148,1	1333,156,1	1449,119,1	1453,152,1	1457,159,1	1477,175,1	1493,191,1	1497,134,1	1685,151,1	1761,154,1	1825,155,1	1881,170,1	1909,188,1	2045,185,1	2377,81,1	3009,111,1	3029,114,1	3037,121,1	3265,168,1	
257,9,1	293,169,1	297,52,1	325,109,1	333,61,1	337,78,1	389,194,1	429,63,1	433,187,1	457,80,1	461,90,1	465,43,1	485,85,1	505,172,1	509,47,1	513,190,1	545,19,1	546,131,1	605,176,1	609,58,1	745,184,1	769,99,1	781,73,1	785,113,1	793,174,1	929,198,1	1077,115,1	1185,135,1	1213,137,1	1261,179,1	1493,107,1	
225,8,1	229,51,1	269,74,1	297,182,1	357,56,1	433,124,1	465,186,1	473,98,1	513,18,1	514,41,1	515,104,1	605,133,1	649,76,1	657,102,1	681,193,1	709,57,1	873,178,1	1113,82,1	1257,103,1	1285,189,1	1913,197,1	
193,7,1	194,200,1	290,48,1	377,65,1	481,17,1	482,39,1	483,96,1	577,129,1	629,66,1	773,196,1	2369,112,1	2493,101,1	2533,77,1	2557,192,1	3301,201,1	
161,6,1	162,97,1	449,16,1	465,46,1	581,53,1	597,36,1	861,132,1	973,54,1	1217,181,1	1649,86,1	1749,105,1	
129,5,1	417,15,1	418,38,1	469,35,1	605,44,1	801,120,1	1161,163,1	1393,183,1	1497,87,1	1529,69,1	1589,71,1	2509,95,1	
97,4,1	274,33,1	385,14,1	386,72,1	441,67,1	517,34,1	837,106,1	1101,70,1	1997,171,1	3237,166,1	
65,3,1	142,25,1	158,28,1	353,13,1	354,37,1	355,167,1	461,32,1	677,59,1	893,144,1	929,27,1	1205,64,1	
33,2,1	258,31,1	321,12,1	322,50,1	397,30,1	569,42,1	573,23,1	629,24,1	1673,140,1	1969,139,1	
0,0,1	1,11,1	2,1,1	434,29,1	482,26,1	502,22,1	558,21,1	1245,40,1	2453,130,1	3005,110,1	
# Incoming
257,(0, 10),32	289,(2, 49),4	293,(3, 84),4	297,(3, 88),8	305,(4, 159),4	309,(4, 173),8	317,(5, 60),4	321,(5, 89),4	325,(3, 127),4	329,(3, 146),4	333,(3, 165),8	341,(5, 138),4	345,(6, 55),4	353,(2, 100),4	357,(3, 142),36	393,(4, 126),36	429,(13, 147),4	433,(15, 92),4	437,(2, 145),4	441,(3, 62),96	537,(7, 45),4	541,(9, 62),4	545,(0, 20),32	577,(4, 160),32	609,(8, 108),4	613,(8, 136),12	625,(8, 157),4	629,(11, 81),20	649,(11, 92),4	653,(4, 162),60	713,(4, 199),44	757,(6, 45),28	785,(7, 127),16	801,(11, 122),36	837,(11, 123),4	841,(11, 146),4	845,(7, 143),48	893,(8, 156),24	917,(9, 79),8	925,(9, 128),36	961,(9, 161),28	989,(9, 168),4	993,(15, 94),4	997,(15, 114),28	1025,(15, 118),44	1069,(15, 119),12	1081,(15, 123),4	1085,(15, 149),24	1109,(17, 164),4	1113,(1, 117),8	1121,(1, 123),56	1177,(17, 168),4	1181,(18, 75),4	1185,(18, 83),4	1189,(18, 94),24	1217,(15, 191),12	1229,(18, 153),8	1245,(12, 116),16	1261,(18, 138),24	1285,(1, 195),16	1301,(18, 180),16	1317,(19, 148),8	1325,(19, 156),8	1333,(19, 175),16	1393,(14, 119),56	1449,(14, 152),4	1453,(14, 159),4	1457,(14, 175),20	1477,(14, 191),16	1493,(12, 134),4	1673,(13, 151),12	1685,(13, 154),76	1761,(13, 155),64	1825,(13, 170),56	1881,(13, 188),28	1997,(12, 185),48	2369,(16, 81),8	3005,(16, 111),4	3009,(16, 114),20	3029,(16, 121),8	3237,(16, 168),28	
225,(0, 9),32	257,(4, 169),36	293,(2, 52),4	297,(4, 172),8	305,(3, 109),20	325,(5, 61),8	333,(5, 78),4	345,(5, 179),8	353,(5, 194),36	389,(10, 58),12	401,(13, 90),24	425,(15, 63),4	429,(14, 187),4	437,(15, 131),4	441,(10, 80),16	457,(10, 90),4	461,(7, 43),4	465,(10, 85),20	485,(7, 190),4	489,(16, 172),16	505,(17, 47),4	509,(17, 190),4	513,(0, 19),32	569,(8, 174),4	573,(8, 176),32	605,(11, 58),4	609,(2, 137),88	697,(7, 184),48	745,(18, 99),24	769,(18, 107),4	773,(12, 73),8	781,(20, 113),4	785,(12, 174),8	793,(20, 115),52	845,(11, 198),84	929,(8, 115),148	1177,(1, 135),8	1185,(1, 137),28	1213,(1, 179),48	1261,(2, 107),232	
193,(0, 8),32	225,(4, 51),4	229,(4, 178),20	249,(5, 74),20	269,(6, 103),4	273,(6, 182),24	297,(2, 82),56	353,(10, 56),4	357,(2, 124),76	433,(2, 133),4	437,(9, 189),4	441,(9, 197),4	445,(2, 186),20	465,(7, 98),8	481,(0, 18),32	513,(5, 133),92	605,(13, 82),24	629,(15, 76),20	653,(11, 102),4	657,(16, 193),24	697,(20, 57),12	837,(15, 178),36	1101,(1, 82),12	1205,(19, 103),52	1261,(1, 189),24	1909,(13, 197),4	
161,(0, 7),32	193,(6, 39),4	274,(3, 48),16	293,(33, 201),4	297,(97, 201),4	341,(25, 201),4	345,(28, 201),4	357,(10, 65),20	377,(68, 201),4	381,(91, 201),4	385,(93, 201),4	389,(72, 201),4	393,(37, 201),4	397,(167, 201),4	419,(38, 201),4	445,(169, 201),4	449,(0, 17),32	481,(2, 129),96	577,(31, 201),4	581,(158, 201),4	585,(49, 201),4	589,(84, 201),4	593,(52, 201),4	597,(88, 201),4	601,(173, 201),4	605,(51, 201),4	609,(11, 66),20	629,(74, 201),4	633,(182, 201),4	637,(60, 201),4	641,(109, 201),4	645,(89, 201),4	649,(61, 201),4	653,(78, 201),4	657,(165, 201),4	661,(55, 201),4	665,(100, 201),4	669,(56, 201),4	673,(194, 201),4	677,(142, 201),4	681,(126, 201),4	685,(124, 201),4	689,(147, 201),4	693,(145, 201),4	697,(2, 196),76	773,(186, 201),4	777,(98, 201),4	781,(12, 101),4	785,(6, 112),1584	2369,(50, 201),4	2373,(30, 201),4	2377,(63, 201),4	2381,(187, 201),4	2385,(29, 201),4	2389,(67, 201),4	2393,(80, 201),4	2397,(32, 201),4	2401,(90, 201),4	2405,(43, 201),4	2409,(35, 201),4	2413,(26, 201),4	2417,(85, 201),4	2421,(22, 201),4	2425,(172, 201),4	2429,(47, 201),4	2433,(18, 101),60	2493,(190, 201),4	2497,(41, 201),4	2501,(104, 201),4	2505,(34, 201),4	2509,(19, 77),24	2533,(62, 201),4	2537,(131, 201),4	2541,(21, 201),4	2545,(42, 201),4	2549,(23, 201),4	2553,(20, 192),4	2557,(125, 201),4	2561,(141, 201),4	2565,(150, 201),4	2569,(177, 201),4	2573,(133, 201),4	2577,(176, 201),4	2581,(44, 201),4	2585,(160, 201),4	2589,(58, 201),4	2593,(108, 201),4	2597,(136, 201),4	2601,(24, 201),4	2605,(157, 201),4	2609,(76, 201),4	2613,(92, 201),4	2617,(102, 201),4	2621,(59, 201),4	2625,(193, 201),4	2629,(57, 201),4	2633,(162, 201),4	2637,(184, 201),4	2641,(199, 201),4	2645,(99, 201),4	2649,(73, 201),4	2653,(45, 201),4	2657,(113, 201),4	2661,(174, 201),4	2665,(120, 201),4	2669,(127, 201),4	2673,(106, 201),4	2677,(122, 201),4	2681,(146, 201),4	2685,(178, 201),4	2689,(144, 201),4	2693,(143, 201),4	2697,(79, 201),4	2701,(198, 201),4	2705,(27, 201),4	2709,(128, 201),4	2713,(161, 201),4	2717,(118, 201),4	2721,(115, 201),4	2725,(70, 201),4	2729,(149, 201),4	2733,(82, 201),4	2737,(164, 201),4	2741,(117, 201),4	2745,(163, 201),4	2749,(123, 201),4	2753,(75, 201),4	2757,(135, 201),4	2761,(83, 201),4	2765,(64, 201),4	2769,(137, 201),4	2773,(94, 201),4	2777,(153, 201),4	2781,(40, 201),4	2785,(103, 201),4	2789,(116, 201),4	2793,(179, 201),4	2797,(138, 201),4	2801,(189, 201),4	2805,(195, 201),4	2809,(180, 201),4	2813,(148, 201),4	2817,(156, 201),4	2821,(183, 201),4	2825,(119, 201),4	2829,(152, 201),4	2833,(159, 201),4	2837,(175, 201),4	2841,(107, 201),4	2845,(191, 201),4	2849,(87, 201),4	2853,(134, 201),4	2857,(69, 201),4	2861,(71, 201),4	2865,(140, 201),4	2869,(151, 201),4	2873,(154, 201),4	2877,(155, 201),4	2881,(170, 201),4	2885,(188, 201),4	2889,(197, 201),4	2893,(139, 201),4	2897,(171, 201),4	2901,(185, 201),4	2905,(81, 201),4	2909,(130, 201),4	2913,(95, 201),4	3006,(110, 201),4	3010,(111, 201),4	3030,(114, 201),4	3038,(121, 201),4	3238,(166, 201),4	3265,(46, 201),4	3269,(53, 201),4	3273,(36, 201),4	3277,(132, 201),4	3281,(54, 201),4	3285,(181, 201),4	3289,(86, 201),4	3293,(105, 201),4	3297,(168, 201),4	
129,(0, 6),32	417,(0, 16),32	449,(9, 46),16	465,(9, 132),4	537,(13, 54),28	565,(19, 53),16	593,(20, 36),4	757,(14, 132),104	929,(1, 54),44	1109,(15, 181),108	1589,(12, 86),60	1649,(12, 105),100	
97,(0, 5),32	197,(6, 71),72	385,(0, 15),32	465,(12, 35),4	577,(11, 44),28	657,(11, 120),144	801,(2, 69),180	981,(4, 163),180	1161,(4, 183),232	1393,(8, 87),104	1497,(12, 69),32	1529,(12, 71),60	2377,(16, 95),132	
65,(0, 4),32	258,(3, 33),16	353,(0, 14),32	401,(10, 67),40	441,(2, 166),4	473,(7, 166),12	485,(9, 34),32	649,(15, 106),188	973,(1, 70),128	1749,(12, 171),248	3037,(16, 166),200	
33,(0, 3),32	138,(5, 25),4	142,(5, 28),16	321,(0, 13),32	397,(7, 32),64	541,(7, 59),136	677,(9, 144),216	917,(18, 27),12	993,(19, 64),212	
1,(0, 2),32	94,(3, 31),164	289,(0, 12),32	321,(7, 30),76	397,(8, 42),172	569,(16, 23),4	609,(14, 24),20	629,(13, 140),1044	1673,(14, 139),296	
66,(3, 26),28	130,(5, 22),8	258,(9, 29),176	434,(14, 26),48	482,(15, 22),20	546,(19, 21),12	981,(12, 40),264	1245,(17, 130),1208	2509,(16, 110),496	
# Outgoing
353,(10, 56),4	357,(10, 65),20	377,(68, 201),4	381,(91, 201),4	385,(93, 201),4	389,(10, 58),12	401,(10, 67),40	441,(10, 80),16	457,(10, 90),4	465,(10, 85),20	581,(158, 201),4	585,(49, 201),4	589,(84, 201),4	593,(20, 36),4	597,(88, 201),4	601,(173, 201),4	637,(60, 201),4	645,(89, 201),4	657,(165, 201),4	661,(55, 201),4	665,(100, 201),4	677,(142, 201),4	681,(126, 201),4	689,(147, 201),4	693,(145, 201),4	697,(20, 57),12	781,(20, 113),4	793,(20, 115),52	2533,(62, 201),4	2553,(20, 192),4	2557,(125, 201),4	2561,(141, 201),4	2565,(150, 201),4	2569,(177, 201),4	2585,(160, 201),4	2593,(108, 201),4	2597,(136, 201),4	2605,(157, 201),4	2613,(92, 201),4	2633,(162, 201),4	2641,(199, 201),4	2653,(45, 201),4	2669,(127, 201),4	2677,(122, 201),4	2681,(146, 201),4	2693,(143, 201),4	2697,(79, 201),4	2709,(128, 201),4	2713,(161, 201),4	2717,(118, 201),4	2729,(149, 201),4	2737,(164, 201),4	2741,(117, 201),4	2749,(123, 201),4	2753,(75, 201),4	2761,(83, 201),4	2773,(94, 201),4	2777,(153, 201),4	2789,(116, 201),4	2797,(138, 201),4	2805,(195, 201),4	2809,(180, 201),4	2813,(148, 201),4	2817,(156, 201),4	2825,(119, 201),4	2829,(152, 201),4	2833,(159, 201),4	2837,(175, 201),4	2845,(191, 201),4	2853,(134, 201),4	2869,(151, 201),4	2873,(154, 201),4	2877,(155, 201),4	2881,(170, 201),4	2885,(188, 201),4	2901,(185, 201),4	2905,(81, 201),4	3010,(111, 201),4	3030,(114, 201),4	3038,(121, 201),4	3297,(168, 201),4	
258,(9, 29),176	437,(9, 189),4	441,(9, 197),4	445,(169, 201),4	449,(9, 46),16	465,(9, 132),4	485,(9, 34),32	541,(9, 62),4	546,(19, 21),12	565,(19, 53),16	593,(52, 201),4	641,(109, 201),4	649,(61, 201),4	653,(78, 201),4	673,(194, 201),4	677,(9, 144),216	917,(9, 79),8	925,(9, 128),36	961,(9, 161),28	989,(9, 168),4	993,(19, 64),212	1205,(19, 103),52	1317,(19, 148),8	1325,(19, 156),8	1333,(19, 175),16	2377,(63, 201),4	2381,(187, 201),4	2393,(80, 201),4	2401,(90, 201),4	2405,(43, 201),4	2417,(85, 201),4	2425,(172, 201),4	2429,(47, 201),4	2493,(190, 201),4	2509,(19, 77),24	2537,(131, 201),4	2577,(176, 201),4	2589,(58, 201),4	2637,(184, 201),4	2645,(99, 201),4	2649,(73, 201),4	2657,(113, 201),4	2661,(174, 201),4	2701,(198, 201),4	2721,(115, 201),4	2757,(135, 201),4	2769,(137, 201),4	2793,(179, 201),4	2841,(107, 201),4	
397,(8, 42),172	569,(8, 174),4	573,(8, 176),32	605,(51, 201),4	609,(8, 108),4	613,(8, 136),12	625,(8, 157),4	629,(74, 201),4	633,(182, 201),4	669,(56, 201),4	685,(124, 201),4	745,(18, 99),24	769,(18, 107),4	773,(186, 201),4	777,(98, 201),4	893,(8, 156),24	917,(18, 27),12	929,(8, 115),148	1181,(18, 75),4	1185,(18, 83),4	1189,(18, 94),24	1229,(18, 153),8	1261,(18, 138),24	1301,(18, 180),16	1393,(8, 87),104	2433,(18, 101),60	2497,(41, 201),4	2501,(104, 201),4	2573,(133, 201),4	2609,(76, 201),4	2617,(102, 201),4	2625,(193, 201),4	2629,(57, 201),4	2685,(178, 201),4	2733,(82, 201),4	2785,(103, 201),4	2801,(189, 201),4	2889,(197, 201),4	
321,(7, 30),76	397,(7, 32),64	461,(7, 43),4	465,(7, 98),8	473,(7, 166),12	485,(7, 190),4	505,(17, 47),4	509,(17, 190),4	537,(7, 45),4	541,(7, 59),136	697,(7, 184),48	785,(7, 127),16	845,(7, 143),48	1109,(17, 164),4	1177,(17, 168),4	1245,(17, 130),1208	
193,(6, 39),4	197,(6, 71),72	269,(6, 103),4	273,(6, 182),24	297,(97, 201),4	345,(6, 55),4	489,(16, 172),16	569,(16, 23),4	657,(16, 193),24	757,(6, 45),28	785,(6, 112),1584	2369,(16, 81),8	2377,(16, 95),132	2509,(16, 110),496	3005,(16, 111),4	3009,(16, 114),20	3029,(16, 121),8	3037,(16, 166),200	3237,(16, 168),28	3265,(46, 201),4	3269,(53, 201),4	3273,(36, 201),4	3277,(132, 201),4	3281,(54, 201),4	3285,(181, 201),4	3289,(86, 201),4	3293,(105, 201),4	
130,(5, 22),8	138,(5, 25),4	142,(5, 28),16	249,(5, 74),20	317,(5, 60),4	321,(5, 89),4	325,(5, 61),8	333,(5, 78),4	341,(5, 138),4	345,(5, 179),8	353,(5, 194),36	419,(38, 201),4	425,(15, 63),4	433,(15, 92),4	437,(15, 131),4	482,(15, 22),20	513,(5, 133),92	629,(15, 76),20	649,(15, 106),188	837,(15, 178),36	993,(15, 94),4	997,(15, 114),28	1025,(15, 118),44	1069,(15, 119),12	1081,(15, 123),4	1085,(15, 149),24	1109,(15, 181),108	1217,(15, 191),12	2409,(35, 201),4	2581,(44, 201),4	2665,(120, 201),4	2745,(163, 201),4	2821,(183, 201),4	2849,(87, 201),4	2857,(69, 201),4	2861,(71, 201),4	2913,(95, 201),4	
225,(4, 51),4	229,(4, 178),20	257,(4, 169),36	293,(33, 201),4	297,(4, 172),8	305,(4, 159),4	309,(4, 173),8	389,(72, 201),4	393,(4, 126),36	429,(14, 187),4	434,(14, 26),48	577,(4, 160),32	609,(14, 24),20	653,(4, 162),60	713,(4, 199),44	757,(14, 132),104	981,(4, 163),180	1161,(4, 183),232	1393,(14, 119),56	1449,(14, 152),4	1453,(14, 159),4	1457,(14, 175),20	1477,(14, 191),16	1673,(14, 139),296	2389,(67, 201),4	2505,(34, 201),4	2673,(106, 201),4	2725,(70, 201),4	2897,(171, 201),4	3238,(166, 201),4	
66,(3, 26),28	94,(3, 31),164	258,(3, 33),16	274,(3, 48),16	293,(3, 84),4	297,(3, 88),8	305,(3, 109),20	325,(3, 127),4	329,(3, 146),4	333,(3, 165),8	341,(25, 201),4	345,(28, 201),4	357,(3, 142),36	393,(37, 201),4	397,(167, 201),4	401,(13, 90),24	429,(13, 147),4	441,(3, 62),96	537,(13, 54),28	605,(13, 82),24	629,(13, 140),1044	1673,(13, 151),12	1685,(13, 154),76	1761,(13, 155),64	1825,(13, 170),56	1881,(13, 188),28	1909,(13, 197),4	2397,(32, 201),4	2621,(59, 201),4	2689,(144, 201),4	2705,(27, 201),4	2765,(64, 201),4	
289,(2, 49),4	293,(2, 52),4	297,(2, 82),56	353,(2, 100),4	357,(2, 124),76	433,(2, 133),4	437,(2, 145),4	441,(2, 166),4	445,(2, 186),20	465,(12, 35),4	481,(2, 129),96	577,(31, 201),4	609,(2, 137),88	697,(2, 196),76	773,(12, 73),8	781,(12, 101),4	785,(12, 174),8	801,(2, 69),180	981,(12, 40),264	1245,(12, 116),16	1261,(2, 107),232	1493,(12, 134),4	1497,(12, 69),32	1529,(12, 71),60	1589,(12, 86),60	1649,(12, 105),100	1749,(12, 171),248	1997,(12, 185),48	2369,(50, 201),4	2373,(30, 201),4	2545,(42, 201),4	2549,(23, 201),4	2601,(24, 201),4	2865,(140, 201),4	2893,(139, 201),4	
1,(0, 2),32	33,(0, 3),32	65,(0, 4),32	97,(0, 5),32	129,(0, 6),32	161,(0, 7),32	193,(0, 8),32	225,(0, 9),32	257,(0, 10),32	289,(0, 12),32	321,(0, 13),32	353,(0, 14),32	385,(0, 15),32	417,(0, 16),32	449,(0, 17),32	481,(0, 18),32	513,(0, 19),32	545,(0, 20),32	577,(11, 44),28	605,(11, 58),4	609,(11, 66),20	629,(11, 81),20	649,(11, 92),4	653,(11, 102),4	657,(11, 120),144	801,(11, 122),36	837,(11, 123),4	841,(11, 146),4	845,(11, 198),84	929,(1, 54),44	973,(1, 70),128	1101,(1, 82),12	1113,(1, 117),8	1121,(1, 123),56	1177,(1, 135),8	1185,(1, 137),28	1213,(1, 179),48	1261,(1, 189),24	1285,(1, 195),16	2385,(29, 201),4	2413,(26, 201),4	2421,(22, 201),4	2541,(21, 201),4	2781,(40, 201),4	2909,(130, 201),4	3006,(110, 201),4	
