1671
# CPU
55,2,10	65,12,10	75,14,10	85,30,10	95,36,10	109,4,10	119,24,10	129,26,10	139,74,10	149,76,10	163,6,10	173,16,10	183,18,10	193,28,10	203,66,10	213,78,10	223,40,10	233,8,10	243,22,10	253,38,10	263,56,10	273,80,10	283,60,10	293,34,10	361,44,10	385,46,10	445,50,10	455,62,10	481,72,10	550,48,10	560,54,10	570,64,10	583,10,10	595,20,10	605,32,10	615,42,10	625,52,10	635,58,10	658,68,10	673,70,10	
0,0,1	1,1,10	11,5,10	21,7,10	31,3,10	41,19,10	51,29,10	61,59,10	71,21,10	81,41,10	91,17,10	101,11,10	111,53,10	121,25,10	131,43,10	287,57,10	297,61,10	491,63,10	509,15,10	527,33,10	668,37,10	686,39,10	755,45,10	765,47,10	775,51,10	785,71,10	947,73,10	1139,9,10	1149,27,10	1178,55,10	1286,75,10	1457,77,10	1493,79,10	1529,13,10	1580,23,10	1590,31,10	1600,35,10	1610,49,10	1620,65,10	1630,67,10	1640,69,10	1670,81,1	
# Incoming
1,(0, 2),54	55,(0, 4),54	109,(0, 6),54	163,(0, 8),54	217,(1, 22),9	226,(1, 38),3	229,(1, 42),93	322,(1, 44),39	361,(1, 46),24	385,(5, 50),60	445,(5, 62),3	448,(5, 72),33	481,(7, 20),48	529,(7, 32),6	535,(7, 48),15	550,(7, 54),6	556,(7, 64),6	562,(3, 10),21	583,(3, 20),12	595,(3, 32),3	598,(3, 42),9	607,(3, 52),18	625,(3, 58),3	628,(3, 68),30	658,(3, 70),15	
65,(2, 9),213	278,(2, 57),9	287,(2, 61),6	293,(2, 63),198	491,(2, 71),3	494,(12, 81),3	497,(14, 81),3	500,(30, 81),3	503,(36, 81),3	506,(4, 15),3	509,(4, 33),18	527,(4, 37),141	668,(4, 39),18	686,(4, 45),69	755,(4, 47),3	758,(4, 51),3	761,(4, 71),3	764,(4, 73),183	947,(24, 81),3	950,(26, 81),3	953,(74, 81),3	956,(76, 81),3	959,(6, 9),180	1139,(6, 27),6	1145,(6, 55),33	1178,(6, 75),108	1286,(6, 77),171	1457,(6, 79),36	1493,(16, 81),3	1496,(18, 81),3	1499,(28, 81),3	1502,(66, 81),3	1505,(78, 81),3	1508,(40, 81),3	1511,(8, 13),18	1529,(8, 23),51	1580,(8, 31),3	1583,(8, 35),3	1586,(8, 49),6	1592,(8, 65),3	1595,(8, 67),3	1598,(8, 69),6	1604,(22, 81),3	1607,(38, 81),3	1610,(56, 81),3	1613,(80, 81),3	1616,(60, 81),3	1619,(34, 81),3	1622,(44, 81),3	1625,(46, 81),3	1628,(50, 81),3	1631,(62, 81),3	1634,(72, 81),3	1637,(48, 81),3	1640,(54, 81),3	1643,(64, 81),3	1646,(10, 81),3	1649,(20, 81),3	1652,(32, 81),3	1655,(42, 81),3	1658,(52, 81),3	1661,(58, 81),3	1664,(68, 81),3	1667,(70, 81),3	
# Outgoing
65,(2, 9),213	278,(2, 57),9	287,(2, 61),6	293,(2, 63),198	491,(2, 71),3	494,(12, 81),3	497,(14, 81),3	500,(30, 81),3	503,(36, 81),3	506,(4, 15),3	509,(4, 33),18	527,(4, 37),141	668,(4, 39),18	686,(4, 45),69	755,(4, 47),3	758,(4, 51),3	761,(4, 71),3	764,(4, 73),183	947,(24, 81),3	950,(26, 81),3	953,(74, 81),3	956,(76, 81),3	959,(6, 9),180	1139,(6, 27),6	1145,(6, 55),33	1178,(6, 75),108	1286,(6, 77),171	1457,(6, 79),36	1493,(16, 81),3	1496,(18, 81),3	1499,(28, 81),3	1502,(66, 81),3	1505,(78, 81),3	1508,(40, 81),3	1511,(8, 13),18	1529,(8, 23),51	1580,(8, 31),3	1583,(8, 35),3	1586,(8, 49),6	1592,(8, 65),3	1595,(8, 67),3	1598,(8, 69),6	1604,(22, 81),3	1607,(38, 81),3	1610,(56, 81),3	1613,(80, 81),3	1616,(60, 81),3	1619,(34, 81),3	1622,(44, 81),3	1625,(46, 81),3	1628,(50, 81),3	1631,(62, 81),3	1634,(72, 81),3	1637,(48, 81),3	1640,(54, 81),3	1643,(64, 81),3	1646,(10, 81),3	1649,(20, 81),3	1652,(32, 81),3	1655,(42, 81),3	1658,(52, 81),3	1661,(58, 81),3	1664,(68, 81),3	1667,(70, 81),3	
1,(0, 2),54	55,(0, 4),54	109,(0, 6),54	163,(0, 8),54	217,(1, 22),9	226,(1, 38),3	229,(1, 42),93	322,(1, 44),39	361,(1, 46),24	385,(5, 50),60	445,(5, 62),3	448,(5, 72),33	481,(7, 20),48	529,(7, 32),6	535,(7, 48),15	550,(7, 54),6	556,(7, 64),6	562,(3, 10),21	583,(3, 20),12	595,(3, 32),3	598,(3, 42),9	607,(3, 52),18	625,(3, 58),3	628,(3, 68),30	658,(3, 70),15	
