2741
# CPU
208,37,1	229,70,1	235,35,1	239,28,1	242,36,1	248,63,1	257,54,1	296,60,1	305,66,1	314,67,1	337,61,1	385,52,1	406,65,1	442,68,1	457,75,1	478,62,1	601,73,1	724,78,1	1006,58,1	1123,59,1	
469,33,1	520,55,1	526,32,1	538,26,1	541,44,1	553,69,1	568,74,1	589,53,1	694,77,1	769,57,1	799,71,1	1054,79,1	
64,8,1	254,41,1	382,23,1	577,51,1	592,56,1	
55,7,1	62,18,1	223,45,1	253,20,1	295,49,1	463,38,1	475,40,1	487,42,1	
46,6,1	65,19,1	311,25,1	332,17,1	460,31,1	538,43,1	
37,5,1	167,21,1	673,80,1	736,15,1	775,29,1	826,30,1	883,39,1	
28,4,1	169,24,1	403,64,1	415,13,1	439,14,1	700,76,1	2740,81,1	
19,3,1	331,48,1	355,12,1	460,27,1	532,16,1	655,46,1	760,47,1	961,50,1	
10,2,1	193,11,1	247,10,1	679,22,1	817,34,1	
0,0,1	1,1,1	329,9,1	1036,72,1	
# Incoming
181,(1, 28),18	199,(2, 37),9	208,(4, 63),9	217,(4, 70),12	229,(6, 36),3	232,(7, 35),3	236,(3, 28),3	239,(3, 36),3	242,(6, 63),6	248,(7, 61),6	254,(3, 54),3	257,(3, 58),24	281,(3, 60),15	296,(3, 66),9	311,(7, 67),3	331,(2, 61),6	337,(6, 58),18	355,(6, 75),27	382,(8, 52),3	385,(8, 59),18	403,(2, 65),3	406,(2, 75),3	439,(8, 68),3	442,(8, 75),15	475,(5, 62),3	595,(1, 73),6	694,(1, 78),30	817,(5, 58),189	1006,(6, 59),117	
460,(1, 33),9	469,(2, 32),39	508,(2, 55),12	520,(2, 69),3	523,(3, 32),3	526,(3, 53),6	532,(5, 44),3	535,(7, 26),3	538,(1, 44),3	541,(5, 69),12	553,(5, 71),6	559,(5, 74),9	568,(5, 77),9	577,(1, 53),12	589,(7, 79),3	592,(1, 57),3	595,(7, 71),9	604,(8, 79),3	616,(1, 77),78	694,(3, 57),48	742,(4, 57),27	769,(6, 71),30	1006,(5, 79),48	
55,(0, 8),9	106,(1, 23),75	242,(3, 41),12	295,(6, 56),42	373,(5, 23),9	556,(1, 51),21	589,(1, 56),3	
46,(0, 7),9	56,(3, 18),6	137,(6, 20),12	175,(2, 38),15	190,(6, 45),33	250,(5, 20),3	253,(6, 49),42	332,(8, 42),18	460,(5, 38),3	463,(5, 40),12	475,(1, 42),12	
37,(0, 6),9	62,(3, 19),3	65,(3, 25),171	236,(4, 17),63	299,(7, 25),12	329,(8, 17),3	442,(1, 31),18	487,(1, 43),51	
28,(0, 5),9	149,(6, 21),18	193,(4, 30),3	199,(1, 29),243	442,(3, 29),12	454,(6, 80),69	532,(3, 80),141	679,(4, 39),45	724,(7, 15),12	736,(7, 29),39	775,(7, 30),51	826,(8, 39),57	
19,(0, 4),9	67,(1, 14),39	106,(2, 24),63	185,(18, 81),33	247,(5, 13),3	250,(37, 81),33	283,(70, 81),33	337,(2, 64),66	403,(8, 13),12	415,(8, 14),24	439,(35, 81),33	478,(21, 81),33	523,(19, 81),33	556,(11, 81),33	601,(1, 76),15	616,(7, 76),84	700,(28, 81),33	733,(36, 81),33	766,(10, 81),33	799,(63, 81),33	832,(54, 81),33	883,(41, 81),33	916,(60, 81),33	961,(45, 81),33	994,(20, 81),33	1027,(49, 81),33	1060,(66, 81),33	1123,(25, 81),33	1156,(67, 81),33	1189,(9, 81),33	1222,(48, 81),33	1255,(17, 81),33	1288,(61, 81),33	1321,(12, 81),33	1354,(23, 81),33	1387,(52, 81),33	1420,(65, 81),33	1453,(68, 81),33	1486,(75, 81),33	1519,(27, 81),33	1552,(31, 81),33	1585,(38, 81),33	1618,(33, 81),33	1651,(40, 81),33	1684,(62, 81),33	1717,(42, 81),33	1750,(55, 81),33	1783,(32, 81),33	1816,(16, 81),33	1849,(43, 81),33	1882,(26, 81),33	1915,(44, 81),33	1948,(69, 81),33	1981,(74, 81),33	2014,(51, 81),33	2047,(53, 81),33	2080,(56, 81),33	2113,(73, 81),33	2146,(46, 81),33	2179,(80, 81),33	2212,(22, 81),33	2245,(77, 81),33	2278,(78, 81),33	2311,(15, 81),33	2344,(47, 81),33	2377,(57, 81),33	2410,(29, 81),33	2443,(71, 81),33	2476,(34, 81),33	2509,(30, 81),33	2542,(39, 81),33	2575,(50, 81),33	2608,(58, 81),33	2641,(72, 81),33	2674,(79, 81),33	2707,(59, 81),33	
10,(0, 3),9	169,(2, 27),6	208,(2, 48),123	331,(7, 12),24	382,(5, 27),78	460,(7, 16),72	541,(1, 50),15	556,(6, 46),99	655,(6, 47),105	826,(7, 50),135	
1,(0, 2),9	64,(1, 10),3	67,(4, 10),54	121,(4, 11),72	196,(4, 34),3	199,(5, 10),48	253,(5, 22),120	469,(1, 34),6	475,(4, 22),204	679,(5, 34),138	
20,(3, 9),36	56,(6, 9),81	137,(7, 9),48	185,(8, 9),144	769,(4, 72),267	
# Outgoing
250,(37, 81),33	283,(70, 81),33	439,(35, 81),33	700,(28, 81),33	733,(36, 81),33	799,(63, 81),33	832,(54, 81),33	916,(60, 81),33	1060,(66, 81),33	1156,(67, 81),33	1288,(61, 81),33	1387,(52, 81),33	1420,(65, 81),33	1453,(68, 81),33	1486,(75, 81),33	1684,(62, 81),33	2113,(73, 81),33	2278,(78, 81),33	2608,(58, 81),33	2707,(59, 81),33	
1618,(33, 81),33	1750,(55, 81),33	1783,(32, 81),33	1882,(26, 81),33	1915,(44, 81),33	1948,(69, 81),33	1981,(74, 81),33	2047,(53, 81),33	2245,(77, 81),33	2377,(57, 81),33	2443,(71, 81),33	2674,(79, 81),33	
185,(8, 9),144	329,(8, 17),3	332,(8, 42),18	382,(8, 52),3	385,(8, 59),18	403,(8, 13),12	415,(8, 14),24	439,(8, 68),3	442,(8, 75),15	604,(8, 79),3	826,(8, 39),57	883,(41, 81),33	1354,(23, 81),33	2014,(51, 81),33	2080,(56, 81),33	
137,(7, 9),48	185,(18, 81),33	232,(7, 35),3	248,(7, 61),6	299,(7, 25),12	311,(7, 67),3	331,(7, 12),24	460,(7, 16),72	535,(7, 26),3	589,(7, 79),3	595,(7, 71),9	616,(7, 76),84	724,(7, 15),12	736,(7, 29),39	775,(7, 30),51	826,(7, 50),135	961,(45, 81),33	994,(20, 81),33	1027,(49, 81),33	1585,(38, 81),33	1651,(40, 81),33	1717,(42, 81),33	
56,(6, 9),81	137,(6, 20),12	149,(6, 21),18	190,(6, 45),33	229,(6, 36),3	242,(6, 63),6	253,(6, 49),42	295,(6, 56),42	337,(6, 58),18	355,(6, 75),27	454,(6, 80),69	523,(19, 81),33	556,(6, 46),99	655,(6, 47),105	769,(6, 71),30	1006,(6, 59),117	1123,(25, 81),33	1255,(17, 81),33	1552,(31, 81),33	1849,(43, 81),33	
199,(5, 10),48	247,(5, 13),3	250,(5, 20),3	253,(5, 22),120	373,(5, 23),9	382,(5, 27),78	460,(5, 38),3	463,(5, 40),12	475,(5, 62),3	478,(21, 81),33	532,(5, 44),3	541,(5, 69),12	553,(5, 71),6	559,(5, 74),9	568,(5, 77),9	679,(5, 34),138	817,(5, 58),189	1006,(5, 79),48	2179,(80, 81),33	2311,(15, 81),33	2410,(29, 81),33	2509,(30, 81),33	2542,(39, 81),33	
67,(4, 10),54	121,(4, 11),72	193,(4, 30),3	196,(4, 34),3	208,(4, 63),9	217,(4, 70),12	236,(4, 17),63	475,(4, 22),204	679,(4, 39),45	742,(4, 57),27	769,(4, 72),267	
20,(3, 9),36	56,(3, 18),6	62,(3, 19),3	65,(3, 25),171	236,(3, 28),3	239,(3, 36),3	242,(3, 41),12	254,(3, 54),3	257,(3, 58),24	281,(3, 60),15	296,(3, 66),9	442,(3, 29),12	523,(3, 32),3	526,(3, 53),6	532,(3, 80),141	694,(3, 57),48	1222,(48, 81),33	1321,(12, 81),33	1519,(27, 81),33	1816,(16, 81),33	2146,(46, 81),33	2344,(47, 81),33	2575,(50, 81),33	
106,(2, 24),63	169,(2, 27),6	175,(2, 38),15	199,(2, 37),9	208,(2, 48),123	331,(2, 61),6	337,(2, 64),66	403,(2, 65),3	406,(2, 75),3	469,(2, 32),39	508,(2, 55),12	520,(2, 69),3	556,(11, 81),33	766,(10, 81),33	2212,(22, 81),33	2476,(34, 81),33	
1,(0, 2),9	10,(0, 3),9	19,(0, 4),9	28,(0, 5),9	37,(0, 6),9	46,(0, 7),9	55,(0, 8),9	64,(1, 10),3	67,(1, 14),39	106,(1, 23),75	181,(1, 28),18	199,(1, 29),243	442,(1, 31),18	460,(1, 33),9	469,(1, 34),6	475,(1, 42),12	487,(1, 43),51	538,(1, 44),3	541,(1, 50),15	556,(1, 51),21	577,(1, 53),12	589,(1, 56),3	592,(1, 57),3	595,(1, 73),6	601,(1, 76),15	616,(1, 77),78	694,(1, 78),30	1189,(9, 81),33	2641,(72, 81),33	
