18370
# CPU
0,0,1	1,9,183	184,16,183	367,2,183	550,10,183	733,11,183	916,17,183	1099,5,183	1282,20,183	1465,14,183	1648,18,183	1831,73,183	2014,25,183	2197,149,183	2380,156,183	2563,29,183	2746,35,183	2929,67,183	3112,28,183	3295,125,183	3478,142,183	3661,40,183	3844,44,183	4027,61,183	4210,64,183	4393,69,183	4576,174,183	4759,176,183	4942,30,183	5125,33,183	5308,37,183	5491,42,183	5674,85,183	5857,90,183	6040,105,183	6223,114,183	6406,143,183	6589,151,183	6772,161,183	6955,89,183	7138,93,183	7321,107,183	7504,150,183	7687,159,183	7870,173,183	8053,39,183	8236,102,183	8419,106,183	8602,115,183	8785,127,183	8968,136,183	9151,155,183	9334,158,183	9517,179,183	9700,195,183	9883,197,183	10066,65,183	10249,80,183	10432,94,183	10615,97,183	10798,109,183	10981,113,183	11164,120,183	11347,124,183	11530,134,183	11713,147,183	11896,32,183	12079,43,183	12262,49,183	12445,51,183	12628,54,183	12811,59,183	12994,60,183	13177,68,183	13360,76,183	13543,78,183	13726,82,183	13909,92,183	14092,95,183	14275,96,183	14458,100,183	14641,101,183	14824,108,183	15007,118,183	15190,119,183	15373,129,183	15556,131,183	15739,133,183	15922,137,183	16105,138,183	16288,145,183	16471,146,183	16654,148,183	16837,153,183	17020,157,183	17203,166,183	17386,170,183	17569,178,183	17752,180,183	17935,191,183	18118,193,183	18369,201,1	
13,1,183	196,3,183	379,4,183	562,6,183	745,7,183	928,8,183	1111,12,183	1294,13,183	1477,15,183	1660,19,183	1843,74,183	2026,83,183	2209,152,183	2392,116,183	2575,53,183	2758,135,183	2941,132,183	3124,168,183	3307,189,183	3490,164,183	3673,66,183	3856,87,183	4039,75,183	4222,47,183	4405,23,183	4588,128,183	4771,130,183	4954,140,183	5137,122,183	5320,163,183	5503,171,183	5686,187,183	5869,48,183	6052,57,183	6235,99,183	6418,175,183	6601,177,183	6784,200,183	6967,24,183	7150,71,183	7333,79,183	7516,91,183	7699,103,183	7882,144,183	8065,190,183	8248,194,183	8431,198,183	8614,41,183	8797,81,183	8980,86,183	9163,117,183	9346,172,183	9529,183,183	9712,186,183	9895,196,183	10078,199,183	10261,21,183	10444,27,183	10627,34,183	10810,70,183	10993,121,183	11176,185,183	11359,31,183	11542,36,183	11725,38,183	11908,45,183	12091,58,183	12274,62,183	12457,72,183	12640,84,183	12823,88,183	13006,104,183	13189,111,183	13372,112,183	13555,123,183	13738,141,183	13921,154,183	14104,160,183	14287,165,183	14470,169,183	14653,181,183	14836,184,183	15019,22,183	15202,26,183	15385,46,183	15568,50,183	15751,52,183	15934,55,183	16117,56,183	16300,63,183	16483,77,183	16666,98,183	16849,110,183	17032,126,183	17215,139,183	17398,162,183	17581,167,183	17764,182,183	17947,188,183	18130,192,183	
# Incoming
196,(1, 28),24	220,(1, 29),16	236,(1, 49),40	276,(1, 54),8	284,(1, 68),4	288,(1, 73),32	320,(1, 82),4	324,(1, 89),4	328,(1, 106),160	488,(1, 108),80	568,(1, 109),52	620,(1, 113),4	624,(1, 115),12	636,(1, 118),72	708,(1, 124),20	728,(1, 127),4	732,(1, 142),20	752,(1, 146),4	756,(1, 147),8	764,(1, 151),12	776,(1, 153),4	780,(1, 155),4	784,(1, 180),16	800,(1, 193),4	804,(3, 28),4	808,(3, 35),36	844,(3, 43),44	888,(3, 44),4	892,(3, 49),80	972,(3, 51),8	980,(3, 67),8	988,(3, 76),784	1772,(3, 100),24	1796,(3, 105),12	1808,(3, 120),4	1812,(3, 124),4	1816,(3, 129),16	1832,(3, 143),48	1880,(3, 145),4	1884,(3, 147),60	1944,(3, 150),8	1952,(3, 161),4	1956,(3, 176),24	1980,(3, 179),4	1984,(3, 191),112	2096,(3, 195),4	2100,(4, 28),28	2128,(4, 37),4	2132,(4, 49),28	2160,(4, 51),8	2168,(4, 60),24	2192,(4, 90),4	2196,(4, 93),52	2248,(4, 95),4	2252,(4, 108),4	2256,(4, 115),8	2264,(4, 125),4	2268,(4, 129),8	2276,(4, 142),8	2284,(4, 145),12	2296,(4, 146),24	2320,(4, 148),4	2324,(4, 166),4	2328,(4, 173),96	2424,(4, 174),52	2476,(4, 178),20	2496,(4, 179),4	2500,(4, 180),8	2508,(6, 42),44	2552,(6, 44),16	2568,(6, 65),4	2572,(6, 69),4	2576,(6, 78),12	2588,(6, 95),4	2592,(6, 102),20	2612,(6, 114),4	2616,(6, 120),4	2620,(6, 124),36	2656,(6, 125),4	2660,(6, 138),36	2696,(6, 142),4	2700,(6, 143),4	2704,(6, 157),4	2708,(6, 159),100	2808,(6, 166),4	2812,(6, 173),4	2816,(6, 191),4	2820,(6, 197),44	2864,(7, 39),8	2872,(7, 40),4	2876,(7, 42),20	2896,(7, 44),4	2900,(7, 54),32	2932,(7, 59),20	2952,(7, 61),12	2964,(7, 64),140	3104,(7, 69),72	3176,(7, 76),68	3244,(7, 85),8	3252,(7, 90),4	3256,(7, 92),4	3260,(7, 94),16	3276,(7, 95),16	3292,(7, 102),4	3296,(7, 105),12	3308,(7, 106),44	3352,(7, 107),12	3364,(7, 115),12	3376,(7, 120),20	3396,(7, 134),48	3444,(7, 136),344	3788,(7, 143),4	3792,(7, 158),8	3800,(7, 159),4	3804,(7, 173),4	3808,(7, 174),40	3848,(7, 176),4	3852,(8, 30),4	3856,(8, 33),8	3864,(8, 37),12	3876,(8, 39),28	3904,(8, 42),20	3924,(8, 49),84	4008,(8, 51),4	4012,(8, 85),12	4024,(8, 90),68	4092,(8, 92),124	4216,(8, 93),12	4228,(8, 94),4	4232,(8, 105),44	4276,(8, 106),28	4304,(8, 114),4	4308,(8, 119),4	4312,(8, 127),84	4396,(8, 143),76	4472,(8, 147),4	4476,(8, 148),8	4484,(8, 151),8	4492,(8, 157),4	4496,(8, 159),4	4500,(8, 161),8	4508,(12, 51),88	4596,(12, 65),8	4604,(12, 76),20	4624,(12, 78),4	4628,(12, 89),20	4648,(12, 93),4	4652,(12, 94),28	4680,(12, 107),12	4692,(12, 119),72	4764,(12, 120),8	4772,(12, 136),16	4788,(12, 148),24	4812,(12, 150),4	4816,(12, 155),16	4832,(12, 159),4	4836,(12, 173),8	4844,(13, 39),16	4860,(13, 54),28	4888,(13, 65),12	4900,(13, 78),68	4968,(13, 92),28	4996,(13, 96),4	5000,(13, 97),12	5012,(13, 100),4	5016,(13, 101),12	5028,(13, 102),8	5036,(13, 106),336	5372,(13, 108),4	5376,(13, 115),8	5384,(13, 118),16	5400,(13, 124),4	5404,(13, 127),24	5428,(13, 131),4	5432,(13, 133),16	5448,(13, 134),12	5460,(13, 136),48	5508,(13, 147),4	5512,(13, 148),8	5520,(13, 153),48	5568,(13, 155),12	5580,(13, 158),8	5588,(13, 166),192	5780,(13, 170),4	5784,(13, 179),12	5796,(13, 191),72	5868,(13, 195),8	5876,(13, 197),20	5896,(15, 49),16	5912,(15, 54),8	5920,(15, 65),4	5924,(15, 76),4	5928,(15, 80),16	5944,(15, 92),16	5960,(15, 94),32	5992,(15, 96),44	6036,(15, 97),4	6040,(15, 109),12	6052,(15, 113),8	6060,(15, 120),4	6064,(15, 124),108	6172,(15, 134),416	6588,(15, 147),16	6604,(15, 153),8	6612,(15, 180),32	6644,(19, 32),16	6660,(19, 43),32	6692,(19, 49),12	6704,(19, 51),28	6732,(19, 54),8	6740,(19, 59),4	6744,(19, 60),80	6824,(19, 68),64	6888,(19, 76),8	6896,(19, 78),52	6948,(19, 82),36	6984,(19, 92),228	7212,(19, 95),8	7220,(19, 96),24	7244,(19, 100),4	7248,(19, 101),16	7264,(19, 108),12	7276,(19, 118),80	7356,(19, 119),24	7380,(19, 129),36	7416,(19, 131),4	7420,(19, 133),16	7436,(19, 137),8	7444,(19, 138),24	7468,(19, 145),36	7504,(19, 146),8	7512,(19, 148),4	7516,(19, 153),4	7520,(19, 157),4	7524,(19, 166),24	7548,(19, 170),44	7592,(19, 178),40	7632,(19, 180),56	7688,(19, 191),8	7696,(19, 193),20	7716,(74, 201),56	7772,(83, 201),56	7828,(152, 201),56	7884,(116, 201),56	7940,(53, 201),56	7996,(135, 201),56	8052,(132, 201),56	8108,(168, 201),56	8164,(189, 201),56	8220,(164, 201),56	8276,(66, 201),56	8332,(87, 201),56	8388,(75, 201),56	8444,(47, 201),56	8500,(23, 201),56	8556,(128, 201),56	8612,(130, 201),56	8668,(140, 201),56	8724,(122, 201),56	8780,(163, 201),56	8836,(171, 201),56	8892,(187, 201),56	8948,(48, 201),56	9004,(57, 201),56	9060,(99, 201),56	9116,(175, 201),56	9172,(177, 201),56	9228,(200, 201),56	9284,(24, 201),56	9340,(71, 201),56	9396,(79, 201),56	9452,(91, 201),56	9508,(103, 201),56	9564,(144, 201),56	9620,(190, 201),56	9676,(194, 201),56	9732,(198, 201),56	9788,(41, 201),56	9844,(81, 201),56	9900,(86, 201),56	9956,(117, 201),56	10012,(172, 201),56	10068,(183, 201),56	10124,(186, 201),56	10180,(196, 201),56	10261,(199, 201),56	10444,(21, 201),56	10627,(27, 201),56	10810,(34, 201),56	10993,(70, 201),56	11176,(121, 201),56	11359,(185, 201),56	11542,(31, 201),56	11725,(36, 201),56	11908,(38, 201),56	12091,(45, 201),56	12274,(58, 201),56	12457,(62, 201),56	12640,(72, 201),56	12823,(84, 201),56	13006,(88, 201),56	13189,(104, 201),56	13372,(111, 201),56	13555,(112, 201),56	13738,(123, 201),56	13921,(141, 201),56	14104,(154, 201),56	14287,(160, 201),56	14470,(165, 201),56	14653,(169, 201),56	14836,(181, 201),56	15019,(184, 201),56	15202,(22, 201),56	15385,(26, 201),56	15568,(46, 201),56	15751,(50, 201),56	15934,(52, 201),56	16117,(55, 201),56	16300,(56, 201),56	16483,(63, 201),56	16666,(77, 201),56	16849,(98, 201),56	17032,(110, 201),56	17215,(126, 201),56	17398,(139, 201),56	17581,(162, 201),56	17764,(167, 201),56	17947,(182, 201),56	18130,(188, 201),56	18313,(192, 201),56	
1,(0, 1),12	13,(0, 3),12	25,(0, 4),12	37,(0, 6),12	49,(0, 7),12	61,(0, 8),12	73,(0, 12),12	85,(0, 13),12	97,(0, 15),12	109,(0, 19),12	184,(9, 23),76	260,(9, 46),68	328,(9, 48),12	340,(9, 53),28	368,(9, 55),12	380,(9, 56),120	500,(9, 66),4	504,(9, 79),12	516,(9, 87),24	540,(9, 116),44	584,(9, 132),36	620,(9, 135),44	664,(9, 141),40	704,(9, 168),4	708,(9, 169),44	752,(9, 172),44	796,(9, 175),128	924,(9, 181),8	932,(9, 186),28	960,(9, 189),4	964,(9, 199),376	1340,(16, 22),152	1492,(16, 23),16	1508,(16, 26),64	1572,(16, 34),4	1576,(16, 41),16	1592,(16, 45),40	1632,(16, 46),44	1676,(16, 55),12	1688,(16, 71),28	1716,(16, 84),4	1720,(16, 117),16	1736,(16, 121),16	1752,(16, 122),372	2124,(16, 139),16	2140,(16, 140),4	2144,(16, 154),24	2168,(16, 172),4	2172,(16, 182),4	2176,(16, 183),32	2208,(16, 186),4	2212,(16, 194),4	2216,(16, 199),20	2236,(2, 22),4	2240,(2, 23),72	2312,(2, 27),60	2372,(2, 36),16	2388,(2, 46),4	2392,(2, 48),20	2412,(2, 50),200	2612,(2, 57),4	2616,(2, 58),4	2620,(2, 62),32	2652,(2, 63),20	2672,(2, 77),4	2676,(2, 79),4	2680,(2, 88),84	2764,(2, 98),4	2768,(2, 110),16	2784,(2, 126),36	2820,(2, 128),4	2824,(2, 130),4	2828,(2, 139),8	2836,(2, 140),28	2864,(2, 141),12	2876,(2, 144),8	2884,(2, 163),4	2888,(2, 177),4	2892,(2, 187),4	2896,(2, 192),40	2936,(2, 196),4	2940,(10, 21),16	2956,(10, 22),180	3136,(10, 27),44	3180,(10, 31),4	3184,(10, 41),8	3192,(10, 48),4	3196,(10, 57),16	3212,(10, 63),4	3216,(10, 71),64	3280,(10, 77),4	3284,(10, 81),48	3332,(10, 86),16	3348,(10, 91),44	3392,(10, 98),20	3412,(10, 99),12	3424,(10, 103),20	3444,(10, 104),28	3472,(10, 122),4	3476,(10, 126),4	3480,(10, 139),20	3500,(10, 162),4	3504,(10, 163),4	3508,(10, 171),32	3540,(10, 175),52	3592,(10, 177),4	3596,(10, 181),24	3620,(10, 182),4	3624,(10, 183),4	3628,(10, 184),84	3712,(10, 187),20	3732,(11, 26),20	3752,(11, 36),40	3792,(11, 45),4	3796,(11, 46),96	3892,(11, 48),12	3904,(11, 57),20	3924,(11, 70),20	3944,(11, 99),4	3948,(11, 103),56	4004,(11, 104),84	4088,(11, 117),4	4092,(11, 121),4	4096,(11, 139),8	4104,(11, 141),4	4108,(11, 162),16	4124,(11, 175),4	4128,(11, 177),4	4132,(11, 184),152	4284,(11, 188),40	4324,(11, 198),36	4360,(11, 199),4	4364,(11, 200),4	4368,(17, 22),12	4380,(17, 24),20	4400,(17, 27),44	4444,(17, 36),148	4592,(17, 41),12	4604,(17, 55),4	4608,(17, 56),112	4720,(17, 58),36	4756,(17, 71),4	4760,(17, 79),8	4768,(17, 91),12	4780,(17, 103),4	4784,(17, 110),4	4788,(17, 112),4	4792,(17, 141),24	4816,(17, 144),4	4820,(17, 154),16	4836,(17, 167),4	4840,(17, 186),28	4868,(17, 188),20	4888,(17, 190),72	4960,(17, 194),8	4968,(17, 198),4	4972,(5, 31),32	5004,(5, 36),52	5056,(5, 41),16	5072,(5, 46),52	5124,(5, 62),4	5128,(5, 70),20	5148,(5, 72),4	5152,(5, 81),4	5156,(5, 86),48	5204,(5, 98),12	5216,(5, 117),4	5220,(5, 123),4	5224,(5, 162),16	5240,(5, 172),32	5272,(5, 183),4	5276,(5, 186),84	5360,(5, 196),4	5364,(5, 199),8	5372,(20, 21),16	5388,(20, 22),4	5392,(20, 27),44	5436,(20, 34),24	5460,(20, 58),24	5484,(20, 70),80	5564,(20, 98),12	5576,(20, 104),24	5600,(20, 110),8	5608,(20, 121),4	5612,(20, 126),12	5624,(20, 160),52	5676,(20, 185),4	5680,(20, 192),4	5684,(14, 31),16	5700,(14, 36),16	5716,(14, 38),16	5732,(14, 45),8	5740,(14, 56),28	5768,(14, 58),4	5772,(14, 62),4	5776,(14, 63),80	5856,(14, 72),4	5860,(14, 84),32	5892,(14, 88),28	5920,(14, 104),8	5928,(14, 111),28	5956,(14, 112),12	5968,(14, 123),8	5976,(14, 141),28	6004,(14, 154),4	6008,(14, 160),8	6016,(14, 165),16	6032,(14, 169),52	6084,(14, 181),4	6088,(14, 184),4	6092,(18, 22),4	6096,(18, 26),8	6104,(18, 46),12	6116,(18, 50),36	6152,(18, 52),12	6164,(18, 55),4	6168,(18, 56),16	6184,(18, 63),48	6232,(18, 77),4	6236,(18, 98),4	6240,(18, 110),12	6252,(18, 126),16	6268,(18, 139),40	6308,(18, 162),4	6312,(18, 167),4	6316,(18, 182),24	6340,(18, 188),24	6364,(18, 192),16	
# Outgoing
1,(0, 1),12	13,(0, 3),12	25,(0, 4),12	37,(0, 6),12	49,(0, 7),12	61,(0, 8),12	73,(0, 12),12	85,(0, 13),12	97,(0, 15),12	109,(0, 19),12	184,(9, 23),76	260,(9, 46),68	328,(9, 48),12	340,(9, 53),28	368,(9, 55),12	380,(9, 56),120	500,(9, 66),4	504,(9, 79),12	516,(9, 87),24	540,(9, 116),44	584,(9, 132),36	620,(9, 135),44	664,(9, 141),40	704,(9, 168),4	708,(9, 169),44	752,(9, 172),44	796,(9, 175),128	924,(9, 181),8	932,(9, 186),28	960,(9, 189),4	964,(9, 199),376	1340,(16, 22),152	1492,(16, 23),16	1508,(16, 26),64	1572,(16, 34),4	1576,(16, 41),16	1592,(16, 45),40	1632,(16, 46),44	1676,(16, 55),12	1688,(16, 71),28	1716,(16, 84),4	1720,(16, 117),16	1736,(16, 121),16	1752,(16, 122),372	2124,(16, 139),16	2140,(16, 140),4	2144,(16, 154),24	2168,(16, 172),4	2172,(16, 182),4	2176,(16, 183),32	2208,(16, 186),4	2212,(16, 194),4	2216,(16, 199),20	2236,(2, 22),4	2240,(2, 23),72	2312,(2, 27),60	2372,(2, 36),16	2388,(2, 46),4	2392,(2, 48),20	2412,(2, 50),200	2612,(2, 57),4	2616,(2, 58),4	2620,(2, 62),32	2652,(2, 63),20	2672,(2, 77),4	2676,(2, 79),4	2680,(2, 88),84	2764,(2, 98),4	2768,(2, 110),16	2784,(2, 126),36	2820,(2, 128),4	2824,(2, 130),4	2828,(2, 139),8	2836,(2, 140),28	2864,(2, 141),12	2876,(2, 144),8	2884,(2, 163),4	2888,(2, 177),4	2892,(2, 187),4	2896,(2, 192),40	2936,(2, 196),4	2940,(10, 21),16	2956,(10, 22),180	3136,(10, 27),44	3180,(10, 31),4	3184,(10, 41),8	3192,(10, 48),4	3196,(10, 57),16	3212,(10, 63),4	3216,(10, 71),64	3280,(10, 77),4	3284,(10, 81),48	3332,(10, 86),16	3348,(10, 91),44	3392,(10, 98),20	3412,(10, 99),12	3424,(10, 103),20	3444,(10, 104),28	3472,(10, 122),4	3476,(10, 126),4	3480,(10, 139),20	3500,(10, 162),4	3504,(10, 163),4	3508,(10, 171),32	3540,(10, 175),52	3592,(10, 177),4	3596,(10, 181),24	3620,(10, 182),4	3624,(10, 183),4	3628,(10, 184),84	3712,(10, 187),20	3732,(11, 26),20	3752,(11, 36),40	3792,(11, 45),4	3796,(11, 46),96	3892,(11, 48),12	3904,(11, 57),20	3924,(11, 70),20	3944,(11, 99),4	3948,(11, 103),56	4004,(11, 104),84	4088,(11, 117),4	4092,(11, 121),4	4096,(11, 139),8	4104,(11, 141),4	4108,(11, 162),16	4124,(11, 175),4	4128,(11, 177),4	4132,(11, 184),152	4284,(11, 188),40	4324,(11, 198),36	4360,(11, 199),4	4364,(11, 200),4	4368,(17, 22),12	4380,(17, 24),20	4400,(17, 27),44	4444,(17, 36),148	4592,(17, 41),12	4604,(17, 55),4	4608,(17, 56),112	4720,(17, 58),36	4756,(17, 71),4	4760,(17, 79),8	4768,(17, 91),12	4780,(17, 103),4	4784,(17, 110),4	4788,(17, 112),4	4792,(17, 141),24	4816,(17, 144),4	4820,(17, 154),16	4836,(17, 167),4	4840,(17, 186),28	4868,(17, 188),20	4888,(17, 190),72	4960,(17, 194),8	4968,(17, 198),4	4972,(5, 31),32	5004,(5, 36),52	5056,(5, 41),16	5072,(5, 46),52	5124,(5, 62),4	5128,(5, 70),20	5148,(5, 72),4	5152,(5, 81),4	5156,(5, 86),48	5204,(5, 98),12	5216,(5, 117),4	5220,(5, 123),4	5224,(5, 162),16	5240,(5, 172),32	5272,(5, 183),4	5276,(5, 186),84	5360,(5, 196),4	5364,(5, 199),8	5372,(20, 21),16	5388,(20, 22),4	5392,(20, 27),44	5436,(20, 34),24	5460,(20, 58),24	5484,(20, 70),80	5564,(20, 98),12	5576,(20, 104),24	5600,(20, 110),8	5608,(20, 121),4	5612,(20, 126),12	5624,(20, 160),52	5676,(20, 185),4	5680,(20, 192),4	5684,(14, 31),16	5700,(14, 36),16	5716,(14, 38),16	5732,(14, 45),8	5740,(14, 56),28	5768,(14, 58),4	5772,(14, 62),4	5776,(14, 63),80	5856,(14, 72),4	5860,(14, 84),32	5892,(14, 88),28	5920,(14, 104),8	5928,(14, 111),28	5956,(14, 112),12	5968,(14, 123),8	5976,(14, 141),28	6004,(14, 154),4	6008,(14, 160),8	6016,(14, 165),16	6032,(14, 169),52	6084,(14, 181),4	6088,(14, 184),4	6092,(18, 22),4	6096,(18, 26),8	6104,(18, 46),12	6116,(18, 50),36	6152,(18, 52),12	6164,(18, 55),4	6168,(18, 56),16	6184,(18, 63),48	6232,(18, 77),4	6236,(18, 98),4	6240,(18, 110),12	6252,(18, 126),16	6268,(18, 139),40	6308,(18, 162),4	6312,(18, 167),4	6316,(18, 182),24	6340,(18, 188),24	6364,(18, 192),16	
196,(1, 28),24	220,(1, 29),16	236,(1, 49),40	276,(1, 54),8	284,(1, 68),4	288,(1, 73),32	320,(1, 82),4	324,(1, 89),4	328,(1, 106),160	488,(1, 108),80	568,(1, 109),52	620,(1, 113),4	624,(1, 115),12	636,(1, 118),72	708,(1, 124),20	728,(1, 127),4	732,(1, 142),20	752,(1, 146),4	756,(1, 147),8	764,(1, 151),12	776,(1, 153),4	780,(1, 155),4	784,(1, 180),16	800,(1, 193),4	804,(3, 28),4	808,(3, 35),36	844,(3, 43),44	888,(3, 44),4	892,(3, 49),80	972,(3, 51),8	980,(3, 67),8	988,(3, 76),784	1772,(3, 100),24	1796,(3, 105),12	1808,(3, 120),4	1812,(3, 124),4	1816,(3, 129),16	1832,(3, 143),48	1880,(3, 145),4	1884,(3, 147),60	1944,(3, 150),8	1952,(3, 161),4	1956,(3, 176),24	1980,(3, 179),4	1984,(3, 191),112	2096,(3, 195),4	2100,(4, 28),28	2128,(4, 37),4	2132,(4, 49),28	2160,(4, 51),8	2168,(4, 60),24	2192,(4, 90),4	2196,(4, 93),52	2248,(4, 95),4	2252,(4, 108),4	2256,(4, 115),8	2264,(4, 125),4	2268,(4, 129),8	2276,(4, 142),8	2284,(4, 145),12	2296,(4, 146),24	2320,(4, 148),4	2324,(4, 166),4	2328,(4, 173),96	2424,(4, 174),52	2476,(4, 178),20	2496,(4, 179),4	2500,(4, 180),8	2508,(6, 42),44	2552,(6, 44),16	2568,(6, 65),4	2572,(6, 69),4	2576,(6, 78),12	2588,(6, 95),4	2592,(6, 102),20	2612,(6, 114),4	2616,(6, 120),4	2620,(6, 124),36	2656,(6, 125),4	2660,(6, 138),36	2696,(6, 142),4	2700,(6, 143),4	2704,(6, 157),4	2708,(6, 159),100	2808,(6, 166),4	2812,(6, 173),4	2816,(6, 191),4	2820,(6, 197),44	2864,(7, 39),8	2872,(7, 40),4	2876,(7, 42),20	2896,(7, 44),4	2900,(7, 54),32	2932,(7, 59),20	2952,(7, 61),12	2964,(7, 64),140	3104,(7, 69),72	3176,(7, 76),68	3244,(7, 85),8	3252,(7, 90),4	3256,(7, 92),4	3260,(7, 94),16	3276,(7, 95),16	3292,(7, 102),4	3296,(7, 105),12	3308,(7, 106),44	3352,(7, 107),12	3364,(7, 115),12	3376,(7, 120),20	3396,(7, 134),48	3444,(7, 136),344	3788,(7, 143),4	3792,(7, 158),8	3800,(7, 159),4	3804,(7, 173),4	3808,(7, 174),40	3848,(7, 176),4	3852,(8, 30),4	3856,(8, 33),8	3864,(8, 37),12	3876,(8, 39),28	3904,(8, 42),20	3924,(8, 49),84	4008,(8, 51),4	4012,(8, 85),12	4024,(8, 90),68	4092,(8, 92),124	4216,(8, 93),12	4228,(8, 94),4	4232,(8, 105),44	4276,(8, 106),28	4304,(8, 114),4	4308,(8, 119),4	4312,(8, 127),84	4396,(8, 143),76	4472,(8, 147),4	4476,(8, 148),8	4484,(8, 151),8	4492,(8, 157),4	4496,(8, 159),4	4500,(8, 161),8	4508,(12, 51),88	4596,(12, 65),8	4604,(12, 76),20	4624,(12, 78),4	4628,(12, 89),20	4648,(12, 93),4	4652,(12, 94),28	4680,(12, 107),12	4692,(12, 119),72	4764,(12, 120),8	4772,(12, 136),16	4788,(12, 148),24	4812,(12, 150),4	4816,(12, 155),16	4832,(12, 159),4	4836,(12, 173),8	4844,(13, 39),16	4860,(13, 54),28	4888,(13, 65),12	4900,(13, 78),68	4968,(13, 92),28	4996,(13, 96),4	5000,(13, 97),12	5012,(13, 100),4	5016,(13, 101),12	5028,(13, 102),8	5036,(13, 106),336	5372,(13, 108),4	5376,(13, 115),8	5384,(13, 118),16	5400,(13, 124),4	5404,(13, 127),24	5428,(13, 131),4	5432,(13, 133),16	5448,(13, 134),12	5460,(13, 136),48	5508,(13, 147),4	5512,(13, 148),8	5520,(13, 153),48	5568,(13, 155),12	5580,(13, 158),8	5588,(13, 166),192	5780,(13, 170),4	5784,(13, 179),12	5796,(13, 191),72	5868,(13, 195),8	5876,(13, 197),20	5896,(15, 49),16	5912,(15, 54),8	5920,(15, 65),4	5924,(15, 76),4	5928,(15, 80),16	5944,(15, 92),16	5960,(15, 94),32	5992,(15, 96),44	6036,(15, 97),4	6040,(15, 109),12	6052,(15, 113),8	6060,(15, 120),4	6064,(15, 124),108	6172,(15, 134),416	6588,(15, 147),16	6604,(15, 153),8	6612,(15, 180),32	6644,(19, 32),16	6660,(19, 43),32	6692,(19, 49),12	6704,(19, 51),28	6732,(19, 54),8	6740,(19, 59),4	6744,(19, 60),80	6824,(19, 68),64	6888,(19, 76),8	6896,(19, 78),52	6948,(19, 82),36	6984,(19, 92),228	7212,(19, 95),8	7220,(19, 96),24	7244,(19, 100),4	7248,(19, 101),16	7264,(19, 108),12	7276,(19, 118),80	7356,(19, 119),24	7380,(19, 129),36	7416,(19, 131),4	7420,(19, 133),16	7436,(19, 137),8	7444,(19, 138),24	7468,(19, 145),36	7504,(19, 146),8	7512,(19, 148),4	7516,(19, 153),4	7520,(19, 157),4	7524,(19, 166),24	7548,(19, 170),44	7592,(19, 178),40	7632,(19, 180),56	7688,(19, 191),8	7696,(19, 193),20	7716,(74, 201),56	7772,(83, 201),56	7828,(152, 201),56	7884,(116, 201),56	7940,(53, 201),56	7996,(135, 201),56	8052,(132, 201),56	8108,(168, 201),56	8164,(189, 201),56	8220,(164, 201),56	8276,(66, 201),56	8332,(87, 201),56	8388,(75, 201),56	8444,(47, 201),56	8500,(23, 201),56	8556,(128, 201),56	8612,(130, 201),56	8668,(140, 201),56	8724,(122, 201),56	8780,(163, 201),56	8836,(171, 201),56	8892,(187, 201),56	8948,(48, 201),56	9004,(57, 201),56	9060,(99, 201),56	9116,(175, 201),56	9172,(177, 201),56	9228,(200, 201),56	9284,(24, 201),56	9340,(71, 201),56	9396,(79, 201),56	9452,(91, 201),56	9508,(103, 201),56	9564,(144, 201),56	9620,(190, 201),56	9676,(194, 201),56	9732,(198, 201),56	9788,(41, 201),56	9844,(81, 201),56	9900,(86, 201),56	9956,(117, 201),56	10012,(172, 201),56	10068,(183, 201),56	10124,(186, 201),56	10180,(196, 201),56	10261,(199, 201),56	10444,(21, 201),56	10627,(27, 201),56	10810,(34, 201),56	10993,(70, 201),56	11176,(121, 201),56	11359,(185, 201),56	11542,(31, 201),56	11725,(36, 201),56	11908,(38, 201),56	12091,(45, 201),56	12274,(58, 201),56	12457,(62, 201),56	12640,(72, 201),56	12823,(84, 201),56	13006,(88, 201),56	13189,(104, 201),56	13372,(111, 201),56	13555,(112, 201),56	13738,(123, 201),56	13921,(141, 201),56	14104,(154, 201),56	14287,(160, 201),56	14470,(165, 201),56	14653,(169, 201),56	14836,(181, 201),56	15019,(184, 201),56	15202,(22, 201),56	15385,(26, 201),56	15568,(46, 201),56	15751,(50, 201),56	15934,(52, 201),56	16117,(55, 201),56	16300,(56, 201),56	16483,(63, 201),56	16666,(77, 201),56	16849,(98, 201),56	17032,(110, 201),56	17215,(126, 201),56	17398,(139, 201),56	17581,(162, 201),56	17764,(167, 201),56	17947,(182, 201),56	18130,(188, 201),56	18313,(192, 201),56	
