5430
# CPU
55,4,537	592,16,537	1129,8,537	1666,28,537	2203,32,537	2740,12,537	3277,24,537	3814,20,537	4351,36,537	4888,40,537	
37,3,537	574,7,537	1111,34,537	1648,10,537	2185,14,537	2722,18,537	3259,30,537	3796,22,537	4333,26,537	4870,38,537	
19,2,537	556,11,537	1093,19,537	1630,6,537	2167,15,537	2704,27,537	3241,39,537	3778,35,537	4315,23,537	4852,31,537	
0,0,1	1,1,537	538,21,537	1075,5,537	1612,13,537	2149,17,537	2686,33,537	3223,9,537	3760,25,537	4297,37,537	4834,29,537	5429,41,1	
# Incoming
37,(0, 4),18	566,(1, 16),12	578,(2, 12),26	618,(1, 20),82	706,(1, 24),16	722,(3, 20),32	756,(3, 36),4	766,(3, 40),4	
19,(0, 3),18	538,(1, 10),28	566,(2, 7),4	570,(2, 10),8	628,(4, 14),14	648,(2, 18),16	664,(2, 30),8	700,(1, 22),6	722,(1, 26),52	774,(2, 38),36	
1,(0, 2),18	578,(1, 19),40	618,(4, 6),10	642,(4, 15),2	644,(4, 27),2	672,(4, 39),12	754,(3, 35),2	774,(1, 31),74	848,(3, 23),80	928,(4, 31),82	
556,(2, 5),2	604,(2, 13),44	648,(4, 17),8	656,(4, 37),16	672,(2, 33),16	688,(4, 9),38	726,(4, 25),20	760,(3, 37),6	766,(4, 29),48	1093,(11, 41),4	1111,(7, 41),4	1129,(16, 41),4	1630,(19, 41),4	1648,(34, 41),4	1666,(8, 41),4	2167,(6, 41),4	2185,(10, 41),4	2203,(28, 41),4	2704,(15, 41),4	2722,(14, 41),4	2740,(32, 41),4	3241,(27, 41),4	3259,(18, 41),4	3277,(12, 41),4	3778,(39, 41),4	3796,(30, 41),4	3814,(24, 41),4	4315,(35, 41),4	4333,(22, 41),4	4351,(20, 41),4	4852,(23, 41),4	4870,(26, 41),4	4888,(36, 41),4	5389,(31, 41),4	5407,(38, 41),4	5425,(40, 41),4	
# Outgoing
618,(4, 6),10	628,(4, 14),14	642,(4, 15),2	644,(4, 27),2	648,(4, 17),8	656,(4, 37),16	672,(4, 39),12	688,(4, 9),38	726,(4, 25),20	766,(4, 29),48	928,(4, 31),82	1129,(16, 41),4	1666,(8, 41),4	2203,(28, 41),4	2740,(32, 41),4	3277,(12, 41),4	3814,(24, 41),4	4351,(20, 41),4	4888,(36, 41),4	5425,(40, 41),4	
722,(3, 20),32	754,(3, 35),2	756,(3, 36),4	760,(3, 37),6	766,(3, 40),4	848,(3, 23),80	1111,(7, 41),4	1648,(34, 41),4	2185,(10, 41),4	2722,(14, 41),4	3259,(18, 41),4	3796,(30, 41),4	4333,(22, 41),4	4870,(26, 41),4	5407,(38, 41),4	
556,(2, 5),2	566,(2, 7),4	570,(2, 10),8	578,(2, 12),26	604,(2, 13),44	648,(2, 18),16	664,(2, 30),8	672,(2, 33),16	774,(2, 38),36	1093,(11, 41),4	1630,(19, 41),4	2167,(6, 41),4	2704,(15, 41),4	3241,(27, 41),4	3778,(39, 41),4	4315,(35, 41),4	4852,(23, 41),4	5389,(31, 41),4	
1,(0, 2),18	19,(0, 3),18	37,(0, 4),18	538,(1, 10),28	566,(1, 16),12	578,(1, 19),40	618,(1, 20),82	700,(1, 22),6	706,(1, 24),16	722,(1, 26),52	774,(1, 31),74	
