1823
# CPU
89,5,3	92,16,3	133,115,3	151,45,3	154,60,3	177,10,3	180,35,3	183,95,3	216,120,3	284,55,3	453,70,3	456,105,3	465,110,3	539,65,3	568,75,3	578,85,3	587,100,3	624,25,3	628,30,3	670,50,3	693,80,3	801,40,3	959,20,3	1096,90,3	
67,4,3	70,49,3	115,29,3	119,34,3	155,9,3	158,109,3	161,54,3	164,14,3	168,19,3	172,79,3	472,114,3	491,24,3	533,39,3	538,44,3	555,69,3	579,89,3	582,94,3	623,119,3	626,64,3	629,104,3	685,59,3	693,84,3	1477,74,3	1585,99,3	
45,3,3	48,118,3	89,98,3	100,103,3	133,8,3	136,43,3	139,73,3	181,88,3	255,33,3	503,108,3	506,13,3	509,23,3	556,48,3	566,18,3	569,38,3	575,83,3	578,78,3	581,28,3	597,58,3	631,63,3	640,68,3	676,53,3	930,113,3	1818,93,3	
23,2,3	26,67,3	29,77,3	111,7,3	139,117,3	176,17,3	199,12,3	202,112,3	206,22,3	254,27,3	263,42,3	270,47,3	423,87,3	426,102,3	581,52,3	618,92,3	623,57,3	638,32,3	648,37,3	656,107,3	663,82,3	687,62,3	692,72,3	1556,97,3	
0,0,1	1,1,3	4,11,3	7,6,3	10,106,3	13,71,3	16,76,3	447,96,3	460,21,3	463,26,3	466,36,3	512,51,3	519,91,3	522,111,3	535,116,3	571,41,3	589,61,3	616,86,3	636,66,3	639,81,3	648,101,3	657,15,3	678,56,3	917,31,3	951,46,3	1822,121,1	
# Incoming
67,(0, 5),22	89,(4, 30),10	124,(3, 45),6	131,(3, 100),1	132,(3, 115),1	139,(8, 45),12	151,(8, 60),3	155,(0, 10),22	206,(8, 120),10	250,(1, 20),3	270,(1, 55),14	284,(9, 25),40	324,(9, 105),27	372,(1, 85),8	452,(12, 70),1	453,(12, 105),1	454,(12, 110),1	460,(1, 110),5	498,(11, 25),12	533,(11, 40),3	536,(11, 65),3	555,(11, 75),13	568,(11, 80),3	575,(11, 85),3	580,(11, 100),7	623,(6, 25),1	624,(6, 30),4	648,(6, 50),22	678,(12, 80),15	693,(6, 90),30	723,(2, 40),78	801,(8, 20),158	959,(12, 90),137	
45,(0, 4),22	67,(3, 14),23	90,(3, 19),15	105,(3, 24),5	110,(3, 29),5	116,(3, 34),3	133,(0, 9),22	155,(3, 109),3	158,(8, 14),2	160,(8, 19),8	168,(8, 39),1	169,(8, 79),3	176,(8, 104),22	296,(1, 74),64	446,(2, 119),1	449,(7, 39),2	451,(7, 44),1	465,(1, 114),7	472,(7, 24),19	509,(7, 84),9	523,(11, 39),10	537,(5, 44),1	539,(11, 69),16	578,(11, 89),1	579,(11, 94),1	587,(11, 104),35	622,(11, 119),1	623,(5, 64),1	624,(5, 104),1	625,(10, 84),5	676,(6, 59),9	692,(6, 84),1	951,(10, 74),526	1556,(10, 99),29	
23,(0, 3),22	70,(4, 18),1	71,(4, 83),14	85,(4, 98),4	99,(4, 103),1	100,(4, 108),11	111,(0, 8),22	175,(9, 88),6	199,(1, 13),51	254,(1, 33),1	285,(1, 58),11	424,(1, 108),36	460,(2, 83),12	472,(11, 18),26	498,(2, 108),5	503,(7, 13),3	506,(7, 23),2	508,(7, 83),1	510,(11, 28),10	520,(11, 38),3	523,(2, 48),33	556,(7, 18),10	566,(7, 38),3	571,(11, 83),4	575,(7, 78),3	578,(12, 28),1	581,(5, 58),16	597,(12, 63),34	631,(12, 68),9	670,(6, 53),6	676,(5, 113),254	1096,(12, 93),722	
1,(0, 2),22	89,(0, 7),22	115,(3, 32),1	119,(3, 42),5	130,(3, 97),1	133,(3, 117),6	139,(4, 52),20	159,(4, 107),16	175,(8, 17),1	177,(0, 12),22	199,(8, 22),7	206,(9, 42),18	224,(9, 47),2	226,(9, 102),1	253,(1, 27),1	255,(1, 42),8	263,(1, 47),7	284,(1, 57),1	360,(1, 82),12	380,(1, 87),43	423,(1, 102),1	551,(5, 52),30	597,(5, 72),1	616,(5, 92),2	622,(10, 57),1	628,(6, 32),10	638,(6, 37),10	648,(5, 107),8	656,(10, 82),7	685,(6, 62),2	687,(6, 72),5	1477,(10, 97),79	
26,(2, 15),420	446,(3, 96),1	447,(67, 121),1	448,(77, 121),1	449,(3, 101),7	456,(118, 121),1	457,(4, 21),3	460,(4, 26),2	462,(4, 36),3	465,(4, 51),47	512,(4, 91),7	519,(4, 111),2	521,(4, 116),14	535,(49, 121),1	536,(5, 15),1	537,(98, 121),1	538,(5, 46),13	551,(103, 121),1	552,(29, 121),1	553,(34, 121),1	554,(43, 121),1	555,(73, 121),1	556,(109, 121),1	557,(54, 121),1	558,(14, 121),1	559,(19, 121),1	560,(79, 121),1	561,(88, 121),1	562,(33, 121),1	563,(114, 121),1	564,(24, 121),1	565,(108, 121),1	566,(13, 121),1	567,(23, 121),1	568,(39, 121),1	569,(7, 41),2	571,(8, 61),18	589,(117, 121),1	590,(17, 121),1	591,(112, 121),1	592,(22, 121),1	593,(27, 121),1	594,(42, 121),1	595,(47, 121),1	596,(87, 121),1	597,(44, 121),1	598,(5, 86),18	616,(69, 121),1	617,(48, 121),1	618,(16, 121),1	619,(115, 121),1	620,(45, 121),1	621,(60, 121),1	622,(9, 66),14	636,(10, 81),2	638,(10, 101),10	648,(12, 15),9	657,(102, 121),1	658,(18, 121),1	659,(38, 121),1	660,(83, 121),1	661,(78, 121),1	662,(89, 121),1	663,(35, 121),1	664,(95, 121),1	665,(12, 56),13	678,(28, 121),1	679,(94, 121),1	680,(58, 121),1	681,(119, 121),1	682,(64, 121),1	683,(104, 121),1	684,(63, 121),1	685,(68, 121),1	686,(53, 121),1	688,(59, 121),1	693,(52, 121),1	694,(92, 121),1	695,(57, 121),1	696,(32, 121),1	697,(37, 121),1	698,(107, 121),1	699,(82, 121),1	700,(62, 121),1	701,(72, 121),1	702,(84, 121),1	801,(7, 31),116	930,(10, 46),21	959,(113, 121),1	1480,(74, 121),1	1585,(120, 121),1	1586,(55, 121),1	1587,(70, 121),1	1588,(105, 121),1	1589,(110, 121),1	1590,(65, 121),1	1591,(75, 121),1	1592,(85, 121),1	1593,(100, 121),1	1594,(25, 121),1	1595,(30, 121),1	1596,(50, 121),1	1597,(80, 121),1	1598,(40, 121),1	1599,(20, 121),1	1600,(90, 121),1	1601,(99, 121),1	1818,(97, 121),1	1821,(93, 121),1	
# Outgoing
536,(5, 15),1	537,(5, 44),1	538,(5, 46),13	551,(5, 52),30	581,(5, 58),16	597,(5, 72),1	598,(5, 86),18	616,(5, 92),2	618,(16, 121),1	619,(115, 121),1	620,(45, 121),1	621,(60, 121),1	622,(10, 57),1	623,(5, 64),1	624,(5, 104),1	625,(10, 84),5	636,(10, 81),2	638,(10, 101),10	648,(5, 107),8	656,(10, 82),7	663,(35, 121),1	664,(95, 121),1	676,(5, 113),254	930,(10, 46),21	951,(10, 74),526	1477,(10, 97),79	1556,(10, 99),29	1585,(120, 121),1	1586,(55, 121),1	1587,(70, 121),1	1588,(105, 121),1	1589,(110, 121),1	1590,(65, 121),1	1591,(75, 121),1	1592,(85, 121),1	1593,(100, 121),1	1594,(25, 121),1	1595,(30, 121),1	1596,(50, 121),1	1597,(80, 121),1	1598,(40, 121),1	1599,(20, 121),1	1600,(90, 121),1	
70,(4, 18),1	71,(4, 83),14	85,(4, 98),4	89,(4, 30),10	99,(4, 103),1	100,(4, 108),11	139,(4, 52),20	159,(4, 107),16	175,(9, 88),6	206,(9, 42),18	224,(9, 47),2	226,(9, 102),1	284,(9, 25),40	324,(9, 105),27	457,(4, 21),3	460,(4, 26),2	462,(4, 36),3	465,(4, 51),47	512,(4, 91),7	519,(4, 111),2	521,(4, 116),14	535,(49, 121),1	552,(29, 121),1	553,(34, 121),1	556,(109, 121),1	557,(54, 121),1	558,(14, 121),1	559,(19, 121),1	560,(79, 121),1	563,(114, 121),1	564,(24, 121),1	568,(39, 121),1	597,(44, 121),1	616,(69, 121),1	622,(9, 66),14	662,(89, 121),1	679,(94, 121),1	681,(119, 121),1	682,(64, 121),1	683,(104, 121),1	688,(59, 121),1	702,(84, 121),1	1480,(74, 121),1	1601,(99, 121),1	
67,(3, 14),23	90,(3, 19),15	105,(3, 24),5	110,(3, 29),5	115,(3, 32),1	116,(3, 34),3	119,(3, 42),5	124,(3, 45),6	130,(3, 97),1	131,(3, 100),1	132,(3, 115),1	133,(3, 117),6	139,(8, 45),12	151,(8, 60),3	155,(3, 109),3	158,(8, 14),2	160,(8, 19),8	168,(8, 39),1	169,(8, 79),3	175,(8, 17),1	176,(8, 104),22	199,(8, 22),7	206,(8, 120),10	446,(3, 96),1	449,(3, 101),7	456,(118, 121),1	537,(98, 121),1	551,(103, 121),1	554,(43, 121),1	555,(73, 121),1	561,(88, 121),1	562,(33, 121),1	565,(108, 121),1	566,(13, 121),1	567,(23, 121),1	571,(8, 61),18	617,(48, 121),1	658,(18, 121),1	659,(38, 121),1	660,(83, 121),1	661,(78, 121),1	678,(28, 121),1	680,(58, 121),1	684,(63, 121),1	685,(68, 121),1	686,(53, 121),1	801,(8, 20),158	959,(113, 121),1	1821,(93, 121),1	
26,(2, 15),420	446,(2, 119),1	447,(67, 121),1	448,(77, 121),1	449,(7, 39),2	451,(7, 44),1	452,(12, 70),1	453,(12, 105),1	454,(12, 110),1	460,(2, 83),12	472,(7, 24),19	498,(2, 108),5	503,(7, 13),3	506,(7, 23),2	508,(7, 83),1	509,(7, 84),9	523,(2, 48),33	556,(7, 18),10	566,(7, 38),3	569,(7, 41),2	575,(7, 78),3	578,(12, 28),1	589,(117, 121),1	590,(17, 121),1	591,(112, 121),1	592,(22, 121),1	593,(27, 121),1	594,(42, 121),1	595,(47, 121),1	596,(87, 121),1	597,(12, 63),34	631,(12, 68),9	648,(12, 15),9	657,(102, 121),1	665,(12, 56),13	678,(12, 80),15	693,(52, 121),1	694,(92, 121),1	695,(57, 121),1	696,(32, 121),1	697,(37, 121),1	698,(107, 121),1	699,(82, 121),1	700,(62, 121),1	701,(72, 121),1	723,(2, 40),78	801,(7, 31),116	959,(12, 90),137	1096,(12, 93),722	1818,(97, 121),1	
1,(0, 2),22	23,(0, 3),22	45,(0, 4),22	67,(0, 5),22	89,(0, 7),22	111,(0, 8),22	133,(0, 9),22	155,(0, 10),22	177,(0, 12),22	199,(1, 13),51	250,(1, 20),3	253,(1, 27),1	254,(1, 33),1	255,(1, 42),8	263,(1, 47),7	270,(1, 55),14	284,(1, 57),1	285,(1, 58),11	296,(1, 74),64	360,(1, 82),12	372,(1, 85),8	380,(1, 87),43	423,(1, 102),1	424,(1, 108),36	460,(1, 110),5	465,(1, 114),7	472,(11, 18),26	498,(11, 25),12	510,(11, 28),10	520,(11, 38),3	523,(11, 39),10	533,(11, 40),3	536,(11, 65),3	539,(11, 69),16	555,(11, 75),13	568,(11, 80),3	571,(11, 83),4	575,(11, 85),3	578,(11, 89),1	579,(11, 94),1	580,(11, 100),7	587,(11, 104),35	622,(11, 119),1	623,(6, 25),1	624,(6, 30),4	628,(6, 32),10	638,(6, 37),10	648,(6, 50),22	670,(6, 53),6	676,(6, 59),9	685,(6, 62),2	687,(6, 72),5	692,(6, 84),1	693,(6, 90),30	
