4446
# CPU
13,4,2	15,112,2	17,142,2	19,148,2	21,161,2	23,163,2	25,169,2	27,146,2	29,8,2	31,39,2	33,44,2	35,127,2	37,137,2	39,198,2	41,140,2	43,149,2	45,60,2	47,70,2	49,109,2	51,121,2	53,12,2	55,16,2	57,107,2	59,136,2	61,192,2	63,155,2	65,165,2	67,182,2	69,190,2	71,172,2	73,159,2	75,46,2	77,76,2	79,119,2	81,151,2	83,139,2	85,89,2	87,113,2	89,167,2	91,118,2	93,20,2	95,48,2	97,27,2	99,153,2	101,177,2	113,66,2	217,72,2	221,132,2	225,93,2	237,65,2	257,85,2	261,106,2	417,125,2	425,133,2	433,174,2	437,179,2	565,83,2	589,96,2	601,126,2	605,150,2	905,197,2	977,29,2	981,160,2	985,191,2	989,124,2	1005,123,2	1065,134,2	1069,144,2	1121,154,2	1125,158,2	1189,166,2	1225,180,2	1229,45,2	1241,51,2	1345,120,2	1353,68,2	1365,100,2	1533,135,2	1537,157,2	1549,176,2	1553,69,2	1601,74,2	1609,116,2	1721,193,2	1729,194,2	1749,28,2	1757,71,2	1773,37,2	1825,55,2	1877,61,2	1897,64,2	1901,67,2	1941,130,2	1953,173,2	1957,181,2	1961,35,2	1977,57,2	1993,110,2	2001,129,2	2013,145,2	2037,183,2	2061,196,2	2141,171,2	2225,104,2	2253,108,2	2369,131,2	2461,143,2	2493,164,2	2505,175,2	2533,98,2	2541,115,2	2545,168,2	2549,170,2	2553,185,2	2557,56,2	2569,147,2	2593,195,2	2597,200,2	2613,81,2	2617,87,2	2621,114,2	2677,184,2	2697,187,2	2701,32,2	2725,59,2	2729,79,2	2753,111,2	2757,141,2	2809,162,2	3433,117,2	3549,122,2	3553,128,2	3633,152,2	3705,186,2	3729,188,2	3793,189,2	3921,138,2	4185,156,2	4189,178,2	4193,199,2	4445,201,1	
9,3,2	11,23,2	13,30,2	15,52,2	17,105,2	21,7,2	23,73,2	25,99,2	33,11,2	35,54,2	45,15,2	47,97,2	57,19,2	59,50,2	61,75,2	63,95,2	65,80,2	69,38,2	77,82,2	113,84,2	153,102,2	165,36,2	197,43,2	221,86,2	493,91,2	601,63,2	669,88,2	1213,24,2	1229,42,2	1253,62,2	1353,78,2	1553,47,2	1757,33,2	
5,2,2	7,22,2	9,40,2	11,92,2	17,6,2	19,34,2	29,10,2	41,14,2	53,18,2	55,58,2	57,90,2	85,26,2	989,103,2	1201,77,2	1529,94,2	
0,0,1	1,17,2	3,1,2	5,13,2	7,5,2	9,9,2	11,21,2	13,25,2	1509,49,2	1581,41,2	1641,31,2	2185,53,2	3429,101,2	
# Incoming
9,(0, 4),4	21,(0, 8),4	33,(0, 12),4	45,(0, 16),4	57,(0, 20),4	61,(17, 48),20	81,(17, 66),32	113,(17, 72),104	217,(3, 132),4	221,(17, 93),4	225,(2, 65),12	237,(2, 85),20	257,(2, 106),4	261,(2, 125),156	417,(2, 133),8	425,(2, 174),8	433,(2, 179),4	437,(22, 201),12	449,(3, 83),116	565,(3, 96),24	589,(3, 126),12	601,(3, 150),4	605,(3, 197),300	905,(40, 201),12	917,(23, 201),12	929,(92, 201),12	941,(30, 201),12	953,(52, 201),12	965,(6, 29),12	977,(6, 160),4	981,(6, 191),4	985,(7, 124),4	989,(17, 123),16	1005,(17, 134),60	1065,(17, 144),4	1069,(17, 154),52	1121,(17, 158),4	1125,(17, 166),64	1189,(6, 180),36	1225,(10, 45),4	1229,(1, 51),12	1241,(6, 120),104	1345,(10, 68),8	1353,(1, 100),12	1365,(1, 135),168	1533,(1, 157),4	1537,(1, 176),12	1549,(10, 69),4	1553,(13, 74),48	1601,(13, 116),8	1609,(13, 193),112	1721,(13, 194),8	1729,(5, 28),20	1749,(10, 71),8	1757,(5, 37),16	1773,(5, 55),52	1825,(5, 61),52	1877,(5, 64),20	1897,(5, 67),4	1901,(5, 130),40	1941,(5, 173),12	1953,(5, 181),4	1957,(9, 35),4	1961,(9, 57),16	1977,(9, 110),16	1993,(9, 129),8	2001,(9, 145),12	2013,(9, 183),24	2037,(9, 196),24	2061,(21, 201),12	2073,(25, 201),12	2085,(6, 171),56	2141,(105, 201),12	2153,(34, 201),12	2165,(7, 104),60	2225,(7, 108),28	2253,(7, 131),116	2369,(7, 143),92	2461,(7, 164),32	2493,(7, 175),12	2505,(73, 201),12	2517,(99, 201),12	2529,(10, 98),4	2533,(10, 115),8	2541,(10, 168),4	2545,(10, 170),4	2549,(10, 185),4	2553,(11, 56),4	2557,(11, 147),12	2569,(11, 195),24	2593,(11, 200),4	2597,(54, 201),12	2609,(14, 81),4	2613,(14, 87),4	2617,(14, 114),4	2621,(14, 184),56	2677,(14, 187),20	2697,(18, 32),4	2701,(18, 59),24	2725,(18, 79),4	2729,(18, 111),24	2753,(18, 141),4	2757,(18, 162),52	2809,(58, 201),12	2821,(90, 201),12	2833,(26, 201),12	2845,(103, 201),12	2857,(77, 201),12	2869,(49, 201),12	2881,(94, 201),12	2893,(41, 201),12	2905,(31, 201),12	2917,(53, 201),12	3429,(15, 117),4	3433,(15, 122),116	3549,(15, 128),4	3553,(15, 152),80	3633,(15, 186),72	3705,(15, 188),24	3729,(15, 189),64	3793,(97, 201),12	3805,(19, 138),116	3921,(19, 156),264	4185,(19, 178),4	4189,(19, 199),4	4193,(50, 201),12	4205,(75, 201),12	4217,(95, 201),12	4229,(80, 201),12	4241,(38, 201),12	4253,(82, 201),12	4265,(84, 201),12	4277,(102, 201),12	4289,(36, 201),12	4301,(43, 201),12	4313,(86, 201),12	4325,(91, 201),12	4337,(63, 201),12	4349,(88, 201),12	4361,(24, 201),12	4373,(42, 201),12	4385,(62, 201),12	4397,(78, 201),12	4409,(47, 201),12	4421,(33, 201),12	4433,(101, 201),12	
5,(0, 3),4	17,(0, 7),4	21,(4, 99),4	29,(0, 11),4	41,(0, 15),4	53,(0, 19),4	57,(12, 38),12	69,(12, 82),8	77,(12, 84),36	113,(12, 102),40	153,(16, 36),12	165,(16, 43),32	217,(17, 86),4	449,(6, 91),44	493,(10, 63),108	601,(14, 88),68	1189,(1, 24),24	1213,(1, 42),16	1241,(1, 62),12	1253,(1, 78),100	1549,(13, 47),4	1749,(5, 33),8	
1,(0, 2),4	13,(0, 6),4	25,(0, 10),4	37,(0, 14),4	49,(0, 18),4	53,(3, 26),32	225,(17, 103),764	989,(3, 77),212	1201,(20, 94),328	
1201,(7, 49),308	1509,(15, 41),72	1581,(18, 31),60	1641,(16, 53),544	2609,(15, 101),820	
# Outgoing
21,(4, 99),4	57,(12, 38),12	69,(12, 82),8	77,(12, 84),36	113,(12, 102),40	153,(16, 36),12	165,(16, 43),32	1201,(20, 94),328	1641,(16, 53),544	
53,(3, 26),32	217,(3, 132),4	449,(3, 83),116	565,(3, 96),24	589,(3, 126),12	601,(3, 150),4	605,(3, 197),300	917,(23, 201),12	941,(30, 201),12	953,(52, 201),12	985,(7, 124),4	989,(3, 77),212	1201,(7, 49),308	1509,(15, 41),72	2141,(105, 201),12	2165,(7, 104),60	2225,(7, 108),28	2253,(7, 131),116	2369,(7, 143),92	2461,(7, 164),32	2493,(7, 175),12	2505,(73, 201),12	2517,(99, 201),12	2553,(11, 56),4	2557,(11, 147),12	2569,(11, 195),24	2593,(11, 200),4	2597,(54, 201),12	2609,(15, 101),820	3429,(15, 117),4	3433,(15, 122),116	3549,(15, 128),4	3553,(15, 152),80	3633,(15, 186),72	3705,(15, 188),24	3729,(15, 189),64	3793,(97, 201),12	3805,(19, 138),116	3921,(19, 156),264	4185,(19, 178),4	4189,(19, 199),4	4193,(50, 201),12	4205,(75, 201),12	4217,(95, 201),12	4229,(80, 201),12	4241,(38, 201),12	4253,(82, 201),12	4265,(84, 201),12	4277,(102, 201),12	4289,(36, 201),12	4301,(43, 201),12	4313,(86, 201),12	4325,(91, 201),12	4337,(63, 201),12	4349,(88, 201),12	4361,(24, 201),12	4373,(42, 201),12	4385,(62, 201),12	4397,(78, 201),12	4409,(47, 201),12	4421,(33, 201),12	
225,(2, 65),12	237,(2, 85),20	257,(2, 106),4	261,(2, 125),156	417,(2, 133),8	425,(2, 174),8	433,(2, 179),4	437,(22, 201),12	449,(6, 91),44	493,(10, 63),108	601,(14, 88),68	905,(40, 201),12	929,(92, 201),12	965,(6, 29),12	977,(6, 160),4	981,(6, 191),4	1189,(6, 180),36	1225,(10, 45),4	1241,(6, 120),104	1345,(10, 68),8	1549,(10, 69),4	1581,(18, 31),60	1749,(10, 71),8	2085,(6, 171),56	2153,(34, 201),12	2529,(10, 98),4	2533,(10, 115),8	2541,(10, 168),4	2545,(10, 170),4	2549,(10, 185),4	2609,(14, 81),4	2613,(14, 87),4	2617,(14, 114),4	2621,(14, 184),56	2677,(14, 187),20	2697,(18, 32),4	2701,(18, 59),24	2725,(18, 79),4	2729,(18, 111),24	2753,(18, 141),4	2757,(18, 162),52	2809,(58, 201),12	2821,(90, 201),12	2833,(26, 201),12	2845,(103, 201),12	2857,(77, 201),12	2881,(94, 201),12	
1,(0, 2),4	5,(0, 3),4	9,(0, 4),4	13,(0, 6),4	17,(0, 7),4	21,(0, 8),4	25,(0, 10),4	29,(0, 11),4	33,(0, 12),4	37,(0, 14),4	41,(0, 15),4	45,(0, 16),4	49,(0, 18),4	53,(0, 19),4	57,(0, 20),4	61,(17, 48),20	81,(17, 66),32	113,(17, 72),104	217,(17, 86),4	221,(17, 93),4	225,(17, 103),764	989,(17, 123),16	1005,(17, 134),60	1065,(17, 144),4	1069,(17, 154),52	1121,(17, 158),4	1125,(17, 166),64	1189,(1, 24),24	1213,(1, 42),16	1229,(1, 51),12	1241,(1, 62),12	1253,(1, 78),100	1353,(1, 100),12	1365,(1, 135),168	1533,(1, 157),4	1537,(1, 176),12	1549,(13, 47),4	1553,(13, 74),48	1601,(13, 116),8	1609,(13, 193),112	1721,(13, 194),8	1729,(5, 28),20	1749,(5, 33),8	1757,(5, 37),16	1773,(5, 55),52	1825,(5, 61),52	1877,(5, 64),20	1897,(5, 67),4	1901,(5, 130),40	1941,(5, 173),12	1953,(5, 181),4	1957,(9, 35),4	1961,(9, 57),16	1977,(9, 110),16	1993,(9, 129),8	2001,(9, 145),12	2013,(9, 183),24	2037,(9, 196),24	2061,(21, 201),12	2073,(25, 201),12	2869,(49, 201),12	2893,(41, 201),12	2905,(31, 201),12	2917,(53, 201),12	4433,(101, 201),12	
