722
# CPU
19,4,5	24,64,5	37,8,5	42,20,5	47,84,5	52,24,5	57,12,5	62,76,5	67,96,5	72,80,5	77,48,5	97,52,5	102,16,5	123,88,5	128,104,5	139,116,5	144,28,5	149,40,5	154,44,5	161,120,5	169,72,5	191,112,5	203,32,5	208,36,5	217,60,5	329,92,5	375,108,5	571,68,5	601,100,5	663,56,5	
13,3,5	31,7,5	36,31,5	41,55,5	46,15,5	51,43,5	56,71,5	61,35,5	66,83,5	71,87,5	76,11,5	81,91,5	86,103,5	91,23,5	96,119,5	101,51,5	111,75,5	117,95,5	122,115,5	127,27,5	132,99,5	155,79,5	161,47,5	166,39,5	171,67,5	179,111,5	201,19,5	215,63,5	355,59,5	465,107,5	
7,2,5	12,82,5	25,6,5	30,18,5	35,38,5	40,114,5	45,62,5	50,34,5	55,74,5	60,10,5	65,46,5	70,70,5	91,98,5	96,26,5	107,58,5	113,78,5	118,118,5	125,14,5	130,30,5	135,110,5	161,22,5	166,66,5	179,86,5	201,94,5	209,50,5	261,106,5	361,90,5	375,42,5	385,54,5	403,102,5	
0,0,1	1,9,5	6,1,5	11,5,5	16,85,5	21,57,5	26,109,5	31,101,5	36,73,5	41,89,5	46,77,5	51,13,5	56,93,5	61,61,5	66,97,5	71,33,5	76,69,5	91,21,5	96,113,5	149,45,5	179,17,5	187,25,5	193,41,5	207,53,5	217,105,5	231,65,5	325,37,5	365,81,5	439,29,5	493,117,5	653,49,5	721,121,1	
# Incoming
13,(0, 4),6	31,(0, 8),6	37,(2, 24),8	49,(0, 12),6	55,(6, 80),8	63,(3, 48),6	85,(9, 52),12	97,(7, 16),4	107,(9, 88),16	125,(9, 104),2	127,(9, 116),12	139,(11, 28),2	141,(11, 40),4	145,(11, 44),4	149,(10, 120),12	167,(1, 72),2	179,(1, 112),12	191,(5, 32),12	203,(5, 36),2	209,(5, 60),8	217,(6, 92),112	329,(7, 108),46	375,(10, 68),196	571,(10, 100),30	653,(11, 56),10	
7,(0, 3),6	25,(0, 7),6	31,(2, 31),2	33,(4, 55),2	43,(0, 11),6	49,(4, 91),4	53,(6, 103),2	55,(9, 51),30	85,(2, 75),26	111,(8, 95),6	117,(8, 115),2	119,(12, 27),2	123,(9, 99),2	125,(4, 79),30	155,(12, 47),6	161,(10, 39),2	165,(1, 67),2	167,(6, 111),12	179,(12, 19),22	207,(10, 63),8	329,(10, 59),26	403,(12, 107),62	
1,(0, 2),6	19,(0, 6),6	35,(4, 74),2	37,(0, 10),6	65,(12, 70),2	71,(3, 98),20	91,(7, 26),4	97,(9, 58),10	107,(7, 78),6	113,(7, 118),4	117,(11, 14),8	125,(11, 30),4	129,(11, 110),4	139,(1, 22),22	161,(1, 66),4	169,(1, 86),10	181,(11, 94),20	205,(5, 50),4	209,(4, 106),52	325,(8, 90),36	361,(12, 42),14	375,(12, 54),10	385,(12, 102),18	
12,(2, 13),18	33,(2, 93),2	35,(82, 121),2	37,(4, 61),8	45,(2, 97),4	49,(3, 33),14	63,(64, 121),2	65,(18, 121),2	67,(38, 121),2	69,(3, 69),2	71,(114, 121),2	73,(20, 121),2	75,(62, 121),2	77,(84, 121),2	79,(34, 121),2	81,(24, 121),2	83,(74, 121),2	85,(12, 21),6	91,(12, 113),2	93,(76, 121),2	95,(31, 121),2	97,(96, 121),2	99,(80, 121),2	101,(55, 121),2	103,(15, 121),2	105,(43, 121),2	107,(48, 121),2	109,(52, 121),2	111,(6, 45),38	149,(7, 17),30	179,(71, 121),2	181,(10, 25),6	187,(10, 41),6	193,(10, 53),14	207,(35, 121),2	209,(83, 121),2	211,(87, 121),2	213,(91, 121),2	215,(10, 105),2	217,(11, 65),14	231,(103, 121),2	233,(23, 121),2	235,(119, 121),2	237,(51, 121),2	239,(75, 121),2	241,(95, 121),2	243,(115, 121),2	245,(27, 121),2	247,(99, 121),2	249,(79, 121),2	251,(47, 121),2	253,(39, 121),2	255,(67, 121),2	257,(111, 121),2	259,(19, 121),2	261,(8, 37),64	325,(63, 121),2	355,(10, 81),10	365,(46, 121),2	367,(70, 121),2	369,(98, 121),2	371,(26, 121),2	373,(58, 121),2	375,(11, 29),64	439,(59, 121),2	465,(12, 117),28	493,(11, 49),160	653,(16, 121),2	655,(78, 121),2	657,(118, 121),2	659,(88, 121),2	661,(14, 121),2	663,(104, 121),2	665,(30, 121),2	667,(110, 121),2	669,(116, 121),2	671,(28, 121),2	673,(40, 121),2	675,(44, 121),2	677,(22, 121),2	679,(120, 121),2	681,(66, 121),2	683,(72, 121),2	685,(86, 121),2	687,(112, 121),2	689,(94, 121),2	691,(32, 121),2	693,(36, 121),2	695,(50, 121),2	697,(60, 121),2	699,(106, 121),2	701,(92, 121),2	703,(90, 121),2	705,(108, 121),2	707,(42, 121),2	709,(54, 121),2	711,(102, 121),2	713,(107, 121),2	715,(68, 121),2	717,(100, 121),2	719,(56, 121),2	
# Outgoing
33,(4, 55),2	35,(4, 74),2	37,(4, 61),8	49,(4, 91),4	63,(64, 121),2	65,(12, 70),2	73,(20, 121),2	77,(84, 121),2	81,(24, 121),2	85,(12, 21),6	91,(12, 113),2	93,(76, 121),2	97,(96, 121),2	99,(80, 121),2	107,(48, 121),2	109,(52, 121),2	111,(8, 95),6	117,(8, 115),2	119,(12, 27),2	125,(4, 79),30	155,(12, 47),6	179,(12, 19),22	209,(4, 106),52	261,(8, 37),64	325,(8, 90),36	361,(12, 42),14	375,(12, 54),10	385,(12, 102),18	403,(12, 107),62	465,(12, 117),28	653,(16, 121),2	659,(88, 121),2	663,(104, 121),2	669,(116, 121),2	671,(28, 121),2	673,(40, 121),2	675,(44, 121),2	679,(120, 121),2	683,(72, 121),2	687,(112, 121),2	691,(32, 121),2	693,(36, 121),2	697,(60, 121),2	701,(92, 121),2	705,(108, 121),2	715,(68, 121),2	717,(100, 121),2	719,(56, 121),2	
49,(3, 33),14	63,(3, 48),6	69,(3, 69),2	71,(3, 98),20	91,(7, 26),4	95,(31, 121),2	97,(7, 16),4	101,(55, 121),2	103,(15, 121),2	105,(43, 121),2	107,(7, 78),6	113,(7, 118),4	117,(11, 14),8	125,(11, 30),4	129,(11, 110),4	139,(11, 28),2	141,(11, 40),4	145,(11, 44),4	149,(7, 17),30	179,(71, 121),2	181,(11, 94),20	207,(35, 121),2	209,(83, 121),2	211,(87, 121),2	213,(91, 121),2	217,(11, 65),14	231,(103, 121),2	233,(23, 121),2	235,(119, 121),2	237,(51, 121),2	239,(75, 121),2	241,(95, 121),2	243,(115, 121),2	245,(27, 121),2	247,(99, 121),2	249,(79, 121),2	251,(47, 121),2	253,(39, 121),2	255,(67, 121),2	257,(111, 121),2	259,(19, 121),2	325,(63, 121),2	329,(7, 108),46	375,(11, 29),64	439,(59, 121),2	493,(11, 49),160	653,(11, 56),10	713,(107, 121),2	
12,(2, 13),18	31,(2, 31),2	33,(2, 93),2	35,(82, 121),2	37,(2, 24),8	45,(2, 97),4	53,(6, 103),2	55,(6, 80),8	65,(18, 121),2	67,(38, 121),2	71,(114, 121),2	75,(62, 121),2	79,(34, 121),2	83,(74, 121),2	85,(2, 75),26	111,(6, 45),38	149,(10, 120),12	161,(10, 39),2	167,(6, 111),12	181,(10, 25),6	187,(10, 41),6	193,(10, 53),14	207,(10, 63),8	215,(10, 105),2	217,(6, 92),112	329,(10, 59),26	355,(10, 81),10	365,(46, 121),2	367,(70, 121),2	369,(98, 121),2	371,(26, 121),2	373,(58, 121),2	375,(10, 68),196	571,(10, 100),30	655,(78, 121),2	657,(118, 121),2	661,(14, 121),2	665,(30, 121),2	667,(110, 121),2	677,(22, 121),2	681,(66, 121),2	685,(86, 121),2	689,(94, 121),2	695,(50, 121),2	699,(106, 121),2	703,(90, 121),2	707,(42, 121),2	709,(54, 121),2	711,(102, 121),2	
1,(0, 2),6	7,(0, 3),6	13,(0, 4),6	19,(0, 6),6	25,(0, 7),6	31,(0, 8),6	37,(0, 10),6	43,(0, 11),6	49,(0, 12),6	55,(9, 51),30	85,(9, 52),12	97,(9, 58),10	107,(9, 88),16	123,(9, 99),2	125,(9, 104),2	127,(9, 116),12	139,(1, 22),22	161,(1, 66),4	165,(1, 67),2	167,(1, 72),2	169,(1, 86),10	179,(1, 112),12	191,(5, 32),12	203,(5, 36),2	205,(5, 50),4	209,(5, 60),8	
