134
# CPU
0,21,1	1,17,11	12,4,11	23,8,11	34,11,11	45,19,11	56,6,11	67,7,11	78,3,11	89,20,11	100,10,11	111,12,11	122,1,11	133,0,1	
19,16,11	55,9,11	
10,14,11	46,5,11	64,18,11	88,2,11	


37,13,11	
28,15,11	



# Incoming
30,(16, 1),3	39,(15, 1),3	99,(2, 0),9	
10,(21, 16),9	46,(21, 9),9	
1,(21, 14),9	37,(21, 5),9	48,(13, 2),3	55,(21, 18),9	64,(4, 2),3	67,(8, 2),3	70,(9, 2),18	


28,(21, 13),9	
19,(21, 15),9	



# Outgoing
1,(21, 14),9	10,(21, 16),9	19,(21, 15),9	28,(21, 13),9	37,(21, 5),9	46,(21, 9),9	55,(21, 18),9	64,(4, 2),3	67,(8, 2),3	
30,(16, 1),3	70,(9, 2),18	
99,(2, 0),9	


48,(13, 2),3	
39,(15, 1),3	



