114
# CPU
0,0,1	1,1,7	8,17,7	15,11,7	22,8,7	29,4,7	36,2,7	43,16,7	50,6,7	57,13,7	64,15,7	71,10,7	78,9,7	85,18,7	92,19,7	99,20,7	106,7,7	113,21,1	
14,5,7	35,14,7	49,12,7	70,3,7	

# Incoming
21,(5, 21),3	42,(14, 21),3	56,(12, 21),3	77,(3, 21),3	
8,(1, 5),6	14,(1, 14),21	43,(2, 12),6	49,(2, 3),21	

# Outgoing
8,(1, 5),6	14,(1, 14),21	43,(2, 12),6	49,(2, 3),21	
21,(5, 21),3	42,(14, 21),3	56,(12, 21),3	77,(3, 21),3	

