5550
# CPU
269,34,1	
265,31,1	273,40,1	
521,39,1	525,38,1	529,27,1	
222,37,1	230,25,1	
198,19,1	206,29,1	366,30,1	
194,16,1	298,28,1	
109,4,1	113,13,1	165,17,1	245,26,1	
73,3,1	74,22,1	75,23,1	157,14,1	261,24,1	277,15,1	453,12,1	5549,41,1	
37,2,1	38,6,1	86,9,1	117,8,1	226,10,1	509,35,1	585,18,1	1233,21,1	1421,33,1	
0,0,1	1,1,1	2,32,1	3,36,1	190,11,1	194,5,1	210,7,1	1121,20,1	
# Incoming
265,(1, 34),4	
261,(1, 31),4	265,(3, 40),8	
509,(1, 39),12	521,(2, 38),4	525,(3, 27),4	
206,(3, 37),16	226,(4, 25),4	
194,(3, 19),4	198,(3, 29),8	298,(4, 30),68	
190,(3, 16),4	230,(4, 28),68	
73,(0, 4),36	109,(2, 13),4	149,(1, 17),16	165,(2, 26),80	
37,(0, 3),36	117,(1, 14),32	149,(2, 14),8	165,(1, 24),96	261,(2, 15),16	277,(6, 41),172	449,(4, 12),4	521,(32, 41),172	693,(36, 41),172	865,(9, 41),172	1037,(8, 41),172	1209,(11, 41),172	1421,(13, 41),172	1593,(17, 41),172	1765,(16, 41),172	1937,(5, 41),172	2109,(19, 41),172	2281,(29, 41),172	2453,(7, 41),172	2625,(37, 41),172	2797,(10, 41),172	2969,(25, 41),172	3141,(26, 41),172	3313,(31, 41),172	3485,(34, 41),172	3657,(40, 41),172	3829,(28, 41),172	4001,(30, 41),172	4173,(35, 41),172	4345,(39, 41),172	4517,(38, 41),172	4689,(27, 41),172	4861,(18, 41),172	5033,(20, 41),172	5205,(21, 41),172	5377,(33, 41),172	
1,(0, 2),36	74,(3, 9),12	109,(1, 8),8	210,(4, 10),16	269,(1, 35),240	509,(4, 18),76	1121,(4, 21),112	1233,(4, 33),188	
86,(3, 11),104	190,(4, 5),4	194,(4, 7),16	585,(4, 20),536	
# Outgoing
3485,(34, 41),172	
3313,(31, 41),172	3657,(40, 41),172	
4345,(39, 41),172	4517,(38, 41),172	4689,(27, 41),172	
2625,(37, 41),172	2969,(25, 41),172	
2109,(19, 41),172	2281,(29, 41),172	4001,(30, 41),172	
1765,(16, 41),172	3829,(28, 41),172	
190,(4, 5),4	194,(4, 7),16	210,(4, 10),16	226,(4, 25),4	230,(4, 28),68	298,(4, 30),68	449,(4, 12),4	509,(4, 18),76	585,(4, 20),536	1121,(4, 21),112	1233,(4, 33),188	1421,(13, 41),172	1593,(17, 41),172	3141,(26, 41),172	
74,(3, 9),12	86,(3, 11),104	190,(3, 16),4	194,(3, 19),4	198,(3, 29),8	206,(3, 37),16	265,(3, 40),8	525,(3, 27),4	
109,(2, 13),4	149,(2, 14),8	165,(2, 26),80	261,(2, 15),16	277,(6, 41),172	521,(2, 38),4	865,(9, 41),172	1037,(8, 41),172	2797,(10, 41),172	4173,(35, 41),172	4861,(18, 41),172	5205,(21, 41),172	5377,(33, 41),172	
1,(0, 2),36	37,(0, 3),36	73,(0, 4),36	109,(1, 8),8	117,(1, 14),32	149,(1, 17),16	165,(1, 24),96	261,(1, 31),4	265,(1, 34),4	269,(1, 35),240	509,(1, 39),12	521,(32, 41),172	693,(36, 41),172	1209,(11, 41),172	1937,(5, 41),172	2453,(7, 41),172	5033,(20, 41),172	
