4116
# CPU
56,27,1	83,43,1	143,45,1	203,46,1	251,60,1	1130,15,1	1133,21,1	1136,22,1	1181,48,1	1253,61,1	2060,63,1	2141,70,1	2159,71,1	2162,73,1	2201,74,1	2216,9,1	2264,47,1	2291,49,1	2324,55,1	2327,56,1	2342,65,1	2654,75,1	2669,14,1	2672,16,1	2759,23,1	2813,35,1	2918,57,1	2927,69,1	2951,12,1	2954,25,1	2987,72,1	3077,76,1	3107,78,1	3128,80,1	3188,18,1	3191,41,1	3266,50,1	3290,66,1	3299,77,1	3302,20,1	3320,26,1	3323,58,1	3374,59,1	3389,62,1	3398,67,1	3407,68,1	3410,10,1	3413,11,1	3452,13,1	3455,19,1	3503,24,1	3512,51,1	3515,52,1	3518,54,1	3545,64,1	3587,79,1	4115,81,1	
0,0,1	1,1,1	2,3,1	3,7,1	4,6,1	5,4,1	6,2,1	7,5,1	8,8,1	9,53,1	10,17,1	11,42,1	12,30,1	13,37,1	14,39,1	15,29,1	16,32,1	17,36,1	18,38,1	19,44,1	20,31,1	21,28,1	22,34,1	23,33,1	24,40,1	
# Incoming
2,(1, 27),54	56,(1, 43),27	83,(1, 45),60	143,(1, 46),60	203,(1, 48),3	206,(1, 56),3	209,(1, 60),42	251,(1, 68),876	1127,(3, 15),3	1130,(3, 21),3	1133,(3, 22),3	1136,(3, 47),3	1139,(3, 48),42	1181,(3, 61),72	1253,(3, 63),807	2060,(3, 70),81	2141,(3, 71),18	2159,(3, 73),3	2162,(3, 74),39	2201,(3, 75),9	2210,(7, 9),6	2216,(7, 47),48	2264,(7, 49),27	2291,(7, 55),33	2324,(7, 56),3	2327,(7, 65),15	2342,(7, 68),309	2651,(7, 75),3	2654,(6, 14),15	2669,(6, 16),3	2672,(6, 23),87	2759,(6, 35),54	2813,(6, 57),105	2918,(6, 69),9	2927,(4, 12),24	2951,(4, 25),3	2954,(4, 41),18	2972,(4, 72),15	2987,(4, 76),90	3077,(4, 78),30	3107,(4, 80),21	3128,(2, 18),60	3188,(2, 41),3	3191,(2, 50),75	3266,(2, 66),24	3290,(2, 77),9	3299,(5, 20),3	3302,(5, 26),18	3320,(5, 58),3	3323,(5, 59),51	3374,(5, 62),15	3389,(5, 67),9	3398,(5, 68),9	3407,(8, 10),3	3410,(8, 11),3	3413,(8, 13),39	3452,(8, 19),3	3455,(8, 24),48	3503,(8, 51),9	3512,(8, 52),3	3515,(8, 54),3	3518,(8, 64),27	3545,(8, 79),42	3587,(53, 81),33	3620,(17, 81),33	3653,(42, 81),33	3686,(30, 81),33	3719,(37, 81),33	3752,(39, 81),33	3785,(29, 81),33	3818,(32, 81),33	3851,(36, 81),33	3884,(38, 81),33	3917,(44, 81),33	3950,(31, 81),33	3983,(28, 81),33	4016,(34, 81),33	4049,(33, 81),33	4082,(40, 81),33	

# Outgoing

2,(1, 27),54	56,(1, 43),27	83,(1, 45),60	143,(1, 46),60	203,(1, 48),3	206,(1, 56),3	209,(1, 60),42	251,(1, 68),876	1127,(3, 15),3	1130,(3, 21),3	1133,(3, 22),3	1136,(3, 47),3	1139,(3, 48),42	1181,(3, 61),72	1253,(3, 63),807	2060,(3, 70),81	2141,(3, 71),18	2159,(3, 73),3	2162,(3, 74),39	2201,(3, 75),9	2210,(7, 9),6	2216,(7, 47),48	2264,(7, 49),27	2291,(7, 55),33	2324,(7, 56),3	2327,(7, 65),15	2342,(7, 68),309	2651,(7, 75),3	2654,(6, 14),15	2669,(6, 16),3	2672,(6, 23),87	2759,(6, 35),54	2813,(6, 57),105	2918,(6, 69),9	2927,(4, 12),24	2951,(4, 25),3	2954,(4, 41),18	2972,(4, 72),15	2987,(4, 76),90	3077,(4, 78),30	3107,(4, 80),21	3128,(2, 18),60	3188,(2, 41),3	3191,(2, 50),75	3266,(2, 66),24	3290,(2, 77),9	3299,(5, 20),3	3302,(5, 26),18	3320,(5, 58),3	3323,(5, 59),51	3374,(5, 62),15	3389,(5, 67),9	3398,(5, 68),9	3407,(8, 10),3	3410,(8, 11),3	3413,(8, 13),39	3452,(8, 19),3	3455,(8, 24),48	3503,(8, 51),9	3512,(8, 52),3	3515,(8, 54),3	3518,(8, 64),27	3545,(8, 79),42	3587,(53, 81),33	3620,(17, 81),33	3653,(42, 81),33	3686,(30, 81),33	3719,(37, 81),33	3752,(39, 81),33	3785,(29, 81),33	3818,(32, 81),33	3851,(36, 81),33	3884,(38, 81),33	3917,(44, 81),33	3950,(31, 81),33	3983,(28, 81),33	4016,(34, 81),33	4049,(33, 81),33	4082,(40, 81),33	
