920
# CPU
151,3,17	168,7,17	185,26,17	445,17,17	502,20,17	619,35,17	636,8,17	653,11,17	670,14,17	687,23,17	718,32,17	735,38,17	811,29,17	
76,2,17	154,6,17	199,13,17	216,16,17	448,34,17	526,22,17	601,31,17	643,10,17	670,19,17	687,25,17	704,28,17	721,37,17	841,40,17	
0,0,1	1,4,17	18,1,17	35,21,17	52,33,17	69,24,17	86,18,17	103,5,17	126,27,17	147,30,17	164,39,17	183,9,17	200,12,17	415,15,17	490,36,17	919,41,1	
# Incoming
76,(0, 3),75	151,(2, 14),3	154,(4, 8),27	181,(2, 8),9	199,(4, 14),3	208,(4, 17),237	445,(4, 20),57	502,(2, 11),12	526,(4, 23),27	568,(4, 29),9	577,(2, 35),21	601,(4, 35),18	631,(1, 8),3	643,(1, 11),3	646,(1, 14),3	670,(1, 23),3	682,(1, 32),36	721,(1, 38),3	724,(2, 29),87	
1,(0, 2),75	151,(4, 6),3	181,(4, 10),15	196,(4, 13),3	199,(3, 31),3	202,(4, 16),6	208,(3, 10),24	415,(3, 34),33	502,(4, 22),24	553,(4, 28),15	577,(4, 31),24	619,(4, 37),12	634,(1, 10),9	649,(1, 19),21	673,(1, 25),3	676,(1, 28),6	718,(1, 37),3	724,(1, 40),117	
93,(2, 5),3	96,(2, 9),15	111,(2, 27),15	126,(2, 30),21	147,(2, 39),3	168,(3, 9),15	183,(3, 12),3	190,(6, 41),18	232,(3, 15),183	415,(13, 41),18	448,(3, 36),42	490,(7, 41),18	508,(26, 41),18	526,(16, 41),18	544,(17, 41),18	562,(20, 41),18	598,(34, 41),18	616,(22, 41),18	634,(31, 41),18	652,(35, 41),18	670,(8, 41),18	688,(10, 41),18	706,(11, 41),18	724,(14, 41),18	742,(23, 41),18	760,(32, 41),18	778,(38, 41),18	811,(19, 41),18	829,(25, 41),18	847,(28, 41),18	865,(37, 41),18	883,(29, 41),18	901,(40, 41),18	
# Outgoing
168,(3, 9),15	183,(3, 12),3	199,(3, 31),3	208,(3, 10),24	232,(3, 15),183	415,(3, 34),33	448,(3, 36),42	490,(7, 41),18	508,(26, 41),18	544,(17, 41),18	562,(20, 41),18	652,(35, 41),18	670,(8, 41),18	706,(11, 41),18	724,(14, 41),18	742,(23, 41),18	760,(32, 41),18	778,(38, 41),18	883,(29, 41),18	
93,(2, 5),3	96,(2, 9),15	111,(2, 27),15	126,(2, 30),21	147,(2, 39),3	151,(2, 14),3	181,(2, 8),9	190,(6, 41),18	415,(13, 41),18	502,(2, 11),12	526,(16, 41),18	577,(2, 35),21	598,(34, 41),18	616,(22, 41),18	634,(31, 41),18	688,(10, 41),18	724,(2, 29),87	811,(19, 41),18	829,(25, 41),18	847,(28, 41),18	865,(37, 41),18	901,(40, 41),18	
1,(0, 2),75	76,(0, 3),75	151,(4, 6),3	154,(4, 8),27	181,(4, 10),15	196,(4, 13),3	199,(4, 14),3	202,(4, 16),6	208,(4, 17),237	445,(4, 20),57	502,(4, 22),24	526,(4, 23),27	553,(4, 28),15	568,(4, 29),9	577,(4, 31),24	601,(4, 35),18	619,(4, 37),12	631,(1, 8),3	634,(1, 10),9	643,(1, 11),3	646,(1, 14),3	649,(1, 19),21	670,(1, 23),3	673,(1, 25),3	676,(1, 28),6	682,(1, 32),36	718,(1, 37),3	721,(1, 38),3	724,(1, 40),117	
