6142
# CPU
81,3,28	161,6,28	189,36,28	241,9,28	321,12,28	349,27,28	377,51,28	405,72,28	801,39,28	1101,54,28	2313,111,28	2345,21,28	2713,15,28	2741,90,28	2793,99,28	3201,87,28	3229,105,28	3965,75,28	4017,24,28	4045,30,28	4073,42,28	4141,57,28	4361,69,28	4489,117,28	4517,18,28	4545,33,28	4573,45,28	4601,63,28	4629,66,28	4705,84,28	4733,93,28	4781,96,28	4825,102,28	4877,108,28	4981,114,28	5381,120,28	5413,48,28	5501,60,28	5597,78,28	6101,81,28	
41,2,28	121,5,28	201,8,28	281,11,28	309,38,28	481,26,28	1013,53,28	1045,65,28	1081,50,28	1109,77,28	1145,86,28	1221,68,28	1489,104,28	1673,110,28	2201,107,28	2721,23,28	2841,44,28	3105,71,28	3217,92,28	3293,119,28	3321,29,28	3605,41,28	3633,47,28	3661,59,28	3761,74,28	3789,83,28	3817,89,28	3845,95,28	3873,14,28	3901,17,28	3929,20,28	3957,32,28	3985,35,28	4013,56,28	4041,62,28	4117,80,28	4785,98,28	4901,113,28	5041,116,28	5857,101,28	
0,0,1	1,7,28	29,4,28	57,10,28	85,1,28	113,37,28	337,67,28	365,31,28	537,28,28	897,46,28	925,109,28	953,16,28	1025,55,28	1117,49,28	1225,94,28	1637,91,28	1693,100,28	1733,79,28	1861,13,28	2217,34,28	2245,43,28	2297,76,28	2325,22,28	2353,40,28	2381,61,28	2409,82,28	2437,88,28	2465,106,28	2493,112,28	2521,19,28	2549,25,28	2577,52,28	2605,58,28	2633,70,28	2661,73,28	2689,85,28	2717,97,28	2745,115,28	2773,118,28	2801,103,28	4053,64,28	6141,121,1	
# Incoming
41,(0, 3),40	81,(2, 30),8	121,(0, 6),40	201,(0, 9),40	269,(2, 66),12	281,(0, 12),40	321,(7, 18),8	329,(7, 21),12	341,(2, 54),20	361,(2, 72),4	365,(2, 111),4	369,(5, 45),4	373,(7, 24),104	477,(5, 15),12	489,(7, 33),32	521,(2, 60),16	541,(7, 39),260	801,(2, 84),16	817,(2, 93),44	861,(7, 54),52	913,(5, 24),16	929,(7, 63),112	1041,(5, 69),4	1045,(7, 66),44	1089,(5, 54),12	1101,(5, 90),44	1145,(7, 87),4	1161,(7, 99),36	1213,(7, 117),1064	2277,(7, 120),4	2281,(4, 15),16	2297,(5, 105),8	2305,(5, 111),8	2313,(8, 45),4	2317,(8, 63),4	2321,(4, 21),24	2345,(2, 33),64	2409,(2, 45),68	2477,(2, 69),76	2553,(2, 105),64	2617,(2, 117),72	2689,(8, 15),24	2713,(8, 87),4	2717,(8, 90),4	2721,(4, 24),28	2749,(4, 30),4	2753,(5, 99),40	2793,(4, 42),12	2805,(8, 24),20	2825,(8, 78),16	2841,(4, 45),24	2865,(8, 102),12	2877,(4, 57),4	2881,(4, 69),56	2937,(8, 18),132	3069,(8, 60),20	3089,(8, 114),12	3101,(11, 30),4	3105,(4, 75),56	3161,(8, 69),36	3197,(11, 87),4	3201,(11, 96),8	3217,(4, 105),8	3225,(2, 75),740	3965,(10, 24),52	4017,(10, 30),12	4029,(10, 33),4	4033,(10, 42),8	4041,(10, 45),40	4081,(10, 57),60	4141,(10, 60),204	4345,(10, 69),16	4361,(10, 93),16	4377,(10, 96),80	4457,(10, 117),32	4489,(1, 18),4	4493,(1, 33),44	4537,(1, 45),12	4549,(1, 63),8	4557,(1, 66),8	4565,(1, 78),132	4697,(1, 81),4	4701,(1, 84),4	4705,(1, 93),16	4721,(1, 96),60	4809,(1, 102),16	4825,(1, 108),52	4901,(1, 114),80	4981,(8, 120),400	5381,(11, 48),32	5413,(11, 60),88	5501,(11, 78),96	5597,(11, 81),504	
1,(0, 2),40	81,(0, 5),40	161,(0, 8),40	241,(0, 11),40	313,(3, 26),24	341,(7, 23),32	373,(3, 35),16	389,(3, 44),4	421,(3, 65),4	425,(3, 68),32	457,(3, 71),4	473,(3, 86),4	477,(7, 26),4	481,(7, 29),8	521,(7, 35),20	541,(3, 83),52	593,(6, 41),172	765,(6, 53),8	773,(6, 113),4	777,(9, 50),8	801,(7, 41),4	805,(7, 50),52	857,(7, 53),4	861,(6, 56),40	913,(7, 62),16	929,(6, 65),32	961,(9, 35),36	997,(9, 53),16	1013,(9, 68),4	1017,(9, 80),4	1021,(9, 107),4	1041,(7, 65),4	1073,(12, 29),4	1077,(12, 50),4	1081,(12, 89),4	1089,(7, 74),8	1097,(7, 77),8	1105,(7, 80),12	1117,(7, 86),28	1145,(12, 95),4	1149,(7, 89),12	1161,(9, 56),20	1181,(12, 47),12	1197,(7, 101),8	1205,(7, 110),8	1213,(12, 68),8	1369,(9, 74),36	1405,(9, 101),44	1449,(9, 104),40	1489,(9, 110),184	1673,(12, 74),16	1801,(12, 23),32	1833,(12, 41),360	2193,(12, 107),8	2201,(12, 119),16	2297,(4, 17),24	2345,(4, 23),376	2753,(4, 35),40	2805,(4, 44),36	2865,(4, 56),12	2937,(4, 71),168	3161,(4, 83),52	3213,(4, 92),4	3225,(4, 113),60	3285,(4, 116),4	3289,(4, 119),4	3293,(10, 20),4	3297,(10, 29),8	3305,(10, 41),300	3605,(10, 47),24	3629,(10, 59),24	3653,(10, 62),36	3689,(10, 74),72	3761,(10, 83),8	3769,(10, 89),4	3773,(10, 95),20	3793,(1, 14),28	3821,(1, 17),8	3829,(1, 20),20	3849,(1, 32),4	3853,(1, 35),12	3865,(1, 56),4	3869,(1, 62),44	3913,(1, 80),52	3965,(12, 80),152	4781,(1, 98),4	4785,(1, 101),24	4877,(1, 113),24	4981,(1, 116),60	5041,(12, 101),816	
69,(2, 13),8	77,(2, 43),4	89,(2, 40),172	261,(2, 46),8	281,(2, 100),12	293,(3, 16),20	313,(5, 28),4	317,(5, 43),12	329,(5, 64),4	333,(5, 67),4	337,(3, 28),4	341,(3, 31),4	345,(3, 34),28	373,(5, 46),12	385,(5, 85),4	389,(5, 109),4	393,(3, 49),28	421,(5, 13),40	461,(3, 76),8	469,(3, 79),4	473,(8, 13),4	477,(3, 103),48	525,(6, 28),12	537,(2, 109),248	785,(6, 58),16	801,(6, 76),4	805,(6, 79),52	857,(6, 88),4	861,(5, 97),28	889,(8, 46),8	897,(8, 97),4	901,(6, 103),4	905,(6, 109),8	913,(6, 112),8	921,(9, 16),4	925,(9, 19),4	929,(5, 55),96	1025,(6, 97),36	1061,(36, 121),12	1073,(8, 103),12	1085,(9, 25),4	1089,(9, 40),4	1093,(9, 49),24	1117,(9, 82),4	1121,(9, 91),4	1125,(9, 97),4	1129,(9, 100),4	1133,(12, 13),12	1145,(5, 94),80	1225,(6, 64),144	1369,(8, 19),32	1401,(8, 82),20	1421,(8, 85),28	1449,(8, 91),188	1637,(8, 100),56	1693,(9, 79),40	1733,(9, 85),68	1801,(11, 13),60	1861,(11, 19),12	1873,(11, 25),20	1893,(11, 34),324	2217,(11, 43),4	2221,(11, 58),16	2237,(11, 70),32	2269,(11, 73),12	2281,(11, 76),16	2297,(12, 22),16	2313,(12, 40),4	2317,(12, 61),4	2321,(11, 82),4	2325,(11, 88),4	2329,(11, 97),4	2333,(11, 106),4	2337,(11, 112),4	2341,(11, 115),4	2345,(12, 19),28	2373,(12, 25),32	2405,(12, 52),52	2457,(12, 58),8	2465,(12, 70),4	2469,(12, 73),4	2473,(12, 85),4	2477,(12, 97),36	2513,(12, 103),20	2533,(12, 115),148	2681,(12, 118),24	2705,(27, 121),12	2721,(11, 103),28	2749,(51, 121),12	2761,(72, 121),12	2773,(39, 121),12	2793,(38, 121),12	2805,(54, 121),12	2817,(111, 121),12	2829,(21, 121),12	2841,(26, 121),12	2853,(53, 121),12	2865,(15, 121),12	2877,(65, 121),12	2889,(50, 121),12	2901,(77, 121),12	2913,(86, 121),12	2925,(68, 121),12	2937,(90, 121),12	2949,(99, 121),12	3105,(104, 121),12	3117,(110, 121),12	3129,(107, 121),12	3141,(23, 121),12	3209,(44, 121),12	3229,(87, 121),12	3257,(105, 121),12	3965,(11, 64),88	4053,(71, 121),12	4065,(92, 121),12	4077,(119, 121),12	4089,(29, 121),12	4101,(41, 121),12	4113,(47, 121),12	4125,(59, 121),12	4137,(74, 121),12	4149,(83, 121),12	4161,(89, 121),12	4173,(95, 121),12	4185,(14, 121),12	4197,(17, 121),12	4209,(20, 121),12	4221,(32, 121),12	4233,(75, 121),12	4245,(35, 121),12	4257,(56, 121),12	4269,(24, 121),12	4281,(62, 121),12	4293,(30, 121),12	4305,(42, 121),12	4317,(80, 121),12	4329,(57, 121),12	4389,(69, 121),12	4517,(117, 121),12	4545,(18, 121),12	4573,(33, 121),12	4601,(45, 121),12	4629,(63, 121),12	4657,(66, 121),12	4733,(84, 121),12	4761,(93, 121),12	4809,(96, 121),12	4821,(98, 121),12	4853,(102, 121),12	4905,(108, 121),12	4929,(113, 121),12	5009,(114, 121),12	5857,(120, 121),12	5869,(48, 121),12	5881,(60, 121),12	5893,(78, 121),12	6101,(116, 121),12	6113,(101, 121),12	6129,(81, 121),12	
# Outgoing
293,(3, 16),20	313,(3, 26),24	337,(3, 28),4	341,(3, 31),4	345,(3, 34),28	373,(3, 35),16	389,(3, 44),4	393,(3, 49),28	421,(3, 65),4	425,(3, 68),32	457,(3, 71),4	461,(3, 76),8	469,(3, 79),4	473,(3, 86),4	477,(3, 103),48	525,(6, 28),12	541,(3, 83),52	593,(6, 41),172	765,(6, 53),8	773,(6, 113),4	777,(9, 50),8	785,(6, 58),16	801,(6, 76),4	805,(6, 79),52	857,(6, 88),4	861,(6, 56),40	901,(6, 103),4	905,(6, 109),8	913,(6, 112),8	921,(9, 16),4	925,(9, 19),4	929,(6, 65),32	961,(9, 35),36	997,(9, 53),16	1013,(9, 68),4	1017,(9, 80),4	1021,(9, 107),4	1025,(6, 97),36	1061,(36, 121),12	1073,(12, 29),4	1077,(12, 50),4	1081,(12, 89),4	1085,(9, 25),4	1089,(9, 40),4	1093,(9, 49),24	1117,(9, 82),4	1121,(9, 91),4	1125,(9, 97),4	1129,(9, 100),4	1133,(12, 13),12	1145,(12, 95),4	1161,(9, 56),20	1181,(12, 47),12	1213,(12, 68),8	1225,(6, 64),144	1369,(9, 74),36	1405,(9, 101),44	1449,(9, 104),40	1489,(9, 110),184	1673,(12, 74),16	1693,(9, 79),40	1733,(9, 85),68	1801,(12, 23),32	1833,(12, 41),360	2193,(12, 107),8	2201,(12, 119),16	2297,(12, 22),16	2313,(12, 40),4	2317,(12, 61),4	2345,(12, 19),28	2373,(12, 25),32	2405,(12, 52),52	2457,(12, 58),8	2465,(12, 70),4	2469,(12, 73),4	2473,(12, 85),4	2477,(12, 97),36	2513,(12, 103),20	2533,(12, 115),148	2681,(12, 118),24	2705,(27, 121),12	2749,(51, 121),12	2761,(72, 121),12	2773,(39, 121),12	2805,(54, 121),12	2817,(111, 121),12	2829,(21, 121),12	2865,(15, 121),12	2937,(90, 121),12	2949,(99, 121),12	3229,(87, 121),12	3257,(105, 121),12	3965,(12, 80),152	4233,(75, 121),12	4269,(24, 121),12	4293,(30, 121),12	4305,(42, 121),12	4329,(57, 121),12	4389,(69, 121),12	4517,(117, 121),12	4545,(18, 121),12	4573,(33, 121),12	4601,(45, 121),12	4629,(63, 121),12	4657,(66, 121),12	4733,(84, 121),12	4761,(93, 121),12	4809,(96, 121),12	4853,(102, 121),12	4905,(108, 121),12	5009,(114, 121),12	5041,(12, 101),816	5857,(120, 121),12	5869,(48, 121),12	5881,(60, 121),12	5893,(78, 121),12	6129,(81, 121),12	
69,(2, 13),8	77,(2, 43),4	81,(2, 30),8	89,(2, 40),172	261,(2, 46),8	269,(2, 66),12	281,(2, 100),12	313,(5, 28),4	317,(5, 43),12	329,(5, 64),4	333,(5, 67),4	341,(2, 54),20	361,(2, 72),4	365,(2, 111),4	369,(5, 45),4	373,(5, 46),12	385,(5, 85),4	389,(5, 109),4	421,(5, 13),40	473,(8, 13),4	477,(5, 15),12	521,(2, 60),16	537,(2, 109),248	801,(2, 84),16	817,(2, 93),44	861,(5, 97),28	889,(8, 46),8	897,(8, 97),4	913,(5, 24),16	929,(5, 55),96	1041,(5, 69),4	1073,(8, 103),12	1089,(5, 54),12	1101,(5, 90),44	1145,(5, 94),80	1369,(8, 19),32	1401,(8, 82),20	1421,(8, 85),28	1449,(8, 91),188	1637,(8, 100),56	1801,(11, 13),60	1861,(11, 19),12	1873,(11, 25),20	1893,(11, 34),324	2217,(11, 43),4	2221,(11, 58),16	2237,(11, 70),32	2269,(11, 73),12	2281,(11, 76),16	2297,(5, 105),8	2305,(5, 111),8	2313,(8, 45),4	2317,(8, 63),4	2321,(11, 82),4	2325,(11, 88),4	2329,(11, 97),4	2333,(11, 106),4	2337,(11, 112),4	2341,(11, 115),4	2345,(2, 33),64	2409,(2, 45),68	2477,(2, 69),76	2553,(2, 105),64	2617,(2, 117),72	2689,(8, 15),24	2713,(8, 87),4	2717,(8, 90),4	2721,(11, 103),28	2753,(5, 99),40	2793,(38, 121),12	2805,(8, 24),20	2825,(8, 78),16	2841,(26, 121),12	2853,(53, 121),12	2865,(8, 102),12	2877,(65, 121),12	2889,(50, 121),12	2901,(77, 121),12	2913,(86, 121),12	2925,(68, 121),12	2937,(8, 18),132	3069,(8, 60),20	3089,(8, 114),12	3101,(11, 30),4	3105,(104, 121),12	3117,(110, 121),12	3129,(107, 121),12	3141,(23, 121),12	3161,(8, 69),36	3197,(11, 87),4	3201,(11, 96),8	3209,(44, 121),12	3225,(2, 75),740	3965,(11, 64),88	4053,(71, 121),12	4065,(92, 121),12	4077,(119, 121),12	4089,(29, 121),12	4101,(41, 121),12	4113,(47, 121),12	4125,(59, 121),12	4137,(74, 121),12	4149,(83, 121),12	4161,(89, 121),12	4173,(95, 121),12	4185,(14, 121),12	4197,(17, 121),12	4209,(20, 121),12	4221,(32, 121),12	4245,(35, 121),12	4257,(56, 121),12	4281,(62, 121),12	4317,(80, 121),12	4821,(98, 121),12	4929,(113, 121),12	4981,(8, 120),400	5381,(11, 48),32	5413,(11, 60),88	5501,(11, 78),96	5597,(11, 81),504	6101,(116, 121),12	6113,(101, 121),12	
1,(0, 2),40	41,(0, 3),40	81,(0, 5),40	121,(0, 6),40	161,(0, 8),40	201,(0, 9),40	241,(0, 11),40	281,(0, 12),40	321,(7, 18),8	329,(7, 21),12	341,(7, 23),32	373,(7, 24),104	477,(7, 26),4	481,(7, 29),8	489,(7, 33),32	521,(7, 35),20	541,(7, 39),260	801,(7, 41),4	805,(7, 50),52	857,(7, 53),4	861,(7, 54),52	913,(7, 62),16	929,(7, 63),112	1041,(7, 65),4	1045,(7, 66),44	1089,(7, 74),8	1097,(7, 77),8	1105,(7, 80),12	1117,(7, 86),28	1145,(7, 87),4	1149,(7, 89),12	1161,(7, 99),36	1197,(7, 101),8	1205,(7, 110),8	1213,(7, 117),1064	2277,(7, 120),4	2281,(4, 15),16	2297,(4, 17),24	2321,(4, 21),24	2345,(4, 23),376	2721,(4, 24),28	2749,(4, 30),4	2753,(4, 35),40	2793,(4, 42),12	2805,(4, 44),36	2841,(4, 45),24	2865,(4, 56),12	2877,(4, 57),4	2881,(4, 69),56	2937,(4, 71),168	3105,(4, 75),56	3161,(4, 83),52	3213,(4, 92),4	3217,(4, 105),8	3225,(4, 113),60	3285,(4, 116),4	3289,(4, 119),4	3293,(10, 20),4	3297,(10, 29),8	3305,(10, 41),300	3605,(10, 47),24	3629,(10, 59),24	3653,(10, 62),36	3689,(10, 74),72	3761,(10, 83),8	3769,(10, 89),4	3773,(10, 95),20	3793,(1, 14),28	3821,(1, 17),8	3829,(1, 20),20	3849,(1, 32),4	3853,(1, 35),12	3865,(1, 56),4	3869,(1, 62),44	3913,(1, 80),52	3965,(10, 24),52	4017,(10, 30),12	4029,(10, 33),4	4033,(10, 42),8	4041,(10, 45),40	4081,(10, 57),60	4141,(10, 60),204	4345,(10, 69),16	4361,(10, 93),16	4377,(10, 96),80	4457,(10, 117),32	4489,(1, 18),4	4493,(1, 33),44	4537,(1, 45),12	4549,(1, 63),8	4557,(1, 66),8	4565,(1, 78),132	4697,(1, 81),4	4701,(1, 84),4	4705,(1, 93),16	4721,(1, 96),60	4781,(1, 98),4	4785,(1, 101),24	4809,(1, 102),16	4825,(1, 108),52	4877,(1, 113),24	4901,(1, 114),80	4981,(1, 116),60	
