54890
# CPU
145,2,20	165,29,20	289,4,20	309,116,20	329,174,20	433,6,20	453,94,20	473,142,20	493,170,20	577,8,20	597,31,20	617,152,20	637,180,20	721,10,20	741,190,20	865,12,20	885,28,20	905,98,20	1009,14,20	1029,108,20	1049,138,20	1153,16,20	1173,80,20	1193,106,20	1213,172,20	1297,18,20	1317,27,20	1337,46,20	1357,48,20	1377,110,20	1397,132,20	1417,160,20	1437,122,20	1457,162,20	1477,166,20	1497,192,20	1517,20,20	1537,54,20	1557,30,20	1577,42,20	1597,84,20	2193,24,20	2213,62,20	2513,68,20	2533,140,20	2553,164,20	2677,40,20	2705,56,20	2993,118,20	3013,136,20	3033,186,20	3281,32,20	3329,78,20	3349,82,20	3381,198,20	3401,34,20	3421,50,20	3441,58,20	3461,64,20	3493,66,20	3553,72,20	3733,88,20	3753,102,20	3773,144,20	3793,188,20	3813,200,20	3889,74,20	3909,90,20	3929,104,20	3949,130,20	3969,156,20	3989,168,20	4041,182,20	4077,184,20	4165,23,20	4185,36,20	4205,44,20	4225,52,20	4245,86,20	4265,100,20	4285,112,20	4345,120,20	4365,150,20	4385,176,20	4405,194,20	4425,38,20	4445,70,20	4465,114,20	4485,148,20	4537,92,20	4561,126,20	4581,134,20	4601,146,20	4621,154,20	4641,158,20	4661,26,20	4681,60,20	4701,76,20	4721,96,20	4741,124,20	4761,128,20	4781,178,20	4801,196,20	
0,0,1	1,15,20	21,17,20	41,9,20	61,7,20	81,19,20	101,13,20	121,11,20	141,3,20	161,5,20	181,1,20	201,83,20	221,193,20	241,191,20	261,157,20	281,195,20	301,35,20	321,125,20	341,57,20	361,167,20	381,171,20	401,101,20	421,73,20	441,199,20	461,53,20	481,33,20	501,25,20	521,163,20	541,137,20	561,115,20	581,93,20	601,81,20	621,173,20	641,75,20	661,121,20	681,183,20	701,145,20	721,69,20	741,51,20	761,97,20	781,147,20	801,59,20	821,65,20	841,21,20	861,41,20	881,79,20	901,91,20	921,99,20	941,107,20	961,119,20	981,39,20	1001,89,20	1021,113,20	1041,143,20	1061,181,20	1081,61,20	1241,87,20	51621,117,20	51641,123,20	51661,127,20	51681,135,20	51701,153,20	51761,49,20	51781,85,20	51801,179,20	51821,131,20	51845,22,20	52033,71,20	52053,103,20	52073,129,20	52093,151,20	52113,159,20	52265,189,20	52321,37,20	52341,63,20	52361,149,20	52381,155,20	52409,177,20	52473,45,20	52497,47,20	52573,77,20	52593,95,20	52613,105,20	52633,109,20	52653,141,20	52673,161,20	52693,169,20	52713,55,20	53001,67,20	53397,133,20	53421,165,20	53441,185,20	53485,43,20	54417,111,20	54485,139,20	54513,175,20	54609,187,20	54629,197,20	54889,201,1	
# Incoming
1,(0, 2),144	145,(0, 4),144	289,(0, 6),144	433,(0, 8),144	577,(0, 10),144	721,(0, 12),144	865,(0, 14),144	1009,(0, 16),144	1153,(0, 18),144	1297,(0, 20),144	1441,(15, 24),4	1445,(15, 50),28	1473,(15, 54),4	1477,(15, 72),4	1481,(15, 84),104	1585,(15, 154),588	2173,(15, 186),16	2189,(17, 24),4	2193,(17, 62),12	2205,(17, 68),308	2513,(17, 140),8	2521,(17, 164),8	2529,(17, 176),12	2541,(9, 32),132	2673,(9, 40),4	2677,(9, 56),28	2705,(9, 118),288	2993,(9, 136),4	2997,(9, 186),8	3005,(7, 32),276	3281,(7, 78),48	3329,(7, 82),8	3337,(7, 124),4	3341,(7, 188),32	3373,(7, 198),8	3381,(19, 34),4	3385,(19, 50),4	3389,(19, 52),4	3393,(19, 58),4	3397,(19, 64),16	3413,(19, 66),80	3493,(19, 72),60	3553,(19, 88),180	3733,(19, 102),4	3737,(19, 144),12	3749,(19, 188),4	3753,(19, 200),4	3757,(13, 52),40	3797,(13, 74),92	3889,(13, 90),20	3909,(13, 104),4	3913,(13, 126),4	3917,(13, 130),20	3937,(13, 156),28	3965,(13, 168),20	3985,(13, 182),56	4041,(13, 184),36	4077,(11, 23),88	4165,(11, 36),16	4181,(11, 44),12	4193,(11, 52),8	4201,(11, 86),8	4209,(11, 100),4	4213,(11, 112),36	4249,(11, 114),84	4333,(11, 120),12	4345,(11, 150),4	4349,(11, 176),4	4353,(11, 194),20	4373,(3, 38),12	4385,(3, 70),56	4441,(3, 114),8	4449,(3, 148),36	4485,(5, 92),52	4537,(5, 126),24	4561,(5, 134),8	4569,(5, 146),4	4573,(5, 154),44	4617,(5, 158),20	4637,(1, 26),16	4653,(1, 60),4	4657,(1, 76),4	4661,(1, 96),4	4665,(1, 124),8	4673,(1, 128),24	4697,(1, 178),4	4701,(1, 196),24	
165,(2, 51),4	169,(2, 55),20	189,(2, 61),16	205,(2, 91),192	397,(2, 99),4	401,(2, 107),52	453,(2, 119),28	481,(2, 177),32	513,(2, 181),20	533,(29, 201),4	537,(4, 39),12	549,(4, 63),32	581,(4, 71),8	589,(4, 89),36	625,(4, 113),4	629,(4, 143),8	637,(4, 161),228	865,(4, 181),4	869,(116, 201),4	873,(174, 201),4	877,(6, 61),8	885,(6, 71),88	973,(6, 87),268	1241,(6, 111),24	1265,(6, 117),50356	51621,(6, 123),8	51629,(6, 127),4	51633,(6, 135),4	51637,(6, 153),48	51685,(6, 177),44	51729,(94, 201),4	51733,(142, 201),4	51737,(170, 201),4	51741,(8, 49),20	51761,(8, 85),8	51769,(8, 179),4	51773,(31, 201),4	51777,(152, 201),4	51781,(180, 201),4	51785,(10, 131),4	51789,(10, 149),16	51805,(10, 187),4	51809,(190, 201),4	51813,(12, 22),32	51845,(12, 71),188	52033,(12, 103),12	52045,(12, 129),8	52053,(12, 151),16	52069,(12, 159),4	52073,(12, 177),112	52185,(12, 189),80	52265,(28, 201),4	52269,(98, 201),4	52273,(14, 37),48	52321,(14, 63),20	52341,(14, 149),16	52357,(14, 155),20	52377,(14, 177),32	52409,(108, 201),4	52413,(138, 201),4	52417,(16, 45),56	52473,(16, 47),24	52497,(16, 77),76	52573,(16, 95),8	52581,(16, 105),28	52609,(16, 109),20	52629,(16, 141),16	52645,(16, 161),16	52661,(16, 169),4	52665,(80, 201),4	52669,(106, 201),4	52673,(172, 201),4	52677,(18, 55),32	52709,(18, 67),292	53001,(18, 133),396	53397,(18, 165),24	53421,(18, 185),20	53441,(27, 201),4	53445,(46, 201),4	53449,(48, 201),4	53453,(110, 201),4	53457,(132, 201),4	53461,(160, 201),4	53465,(122, 201),4	53469,(162, 201),4	53473,(166, 201),4	53477,(192, 201),4	53481,(20, 43),4	53485,(20, 111),932	54417,(20, 139),68	54485,(20, 175),28	54513,(20, 187),96	54609,(20, 197),16	54625,(54, 201),4	54629,(30, 201),4	54633,(42, 201),4	54637,(84, 201),4	54641,(24, 201),4	54645,(62, 201),4	54649,(68, 201),4	54653,(140, 201),4	54657,(164, 201),4	54661,(40, 201),4	54665,(56, 201),4	54669,(118, 201),4	54673,(136, 201),4	54677,(186, 201),4	54681,(32, 201),4	54685,(78, 201),4	54689,(82, 201),4	54693,(198, 201),4	54697,(34, 201),4	54701,(50, 201),4	54705,(58, 201),4	54709,(64, 201),4	54713,(66, 201),4	54717,(72, 201),4	54721,(88, 201),4	54725,(102, 201),4	54729,(144, 201),4	54733,(188, 201),4	54737,(200, 201),4	54741,(74, 201),4	54745,(90, 201),4	54749,(104, 201),4	54753,(130, 201),4	54757,(156, 201),4	54761,(168, 201),4	54765,(182, 201),4	54769,(184, 201),4	54773,(23, 201),4	54777,(36, 201),4	54781,(44, 201),4	54785,(52, 201),4	54789,(86, 201),4	54793,(100, 201),4	54797,(112, 201),4	54801,(120, 201),4	54805,(150, 201),4	54809,(176, 201),4	54813,(194, 201),4	54817,(38, 201),4	54821,(70, 201),4	54825,(114, 201),4	54829,(148, 201),4	54833,(92, 201),4	54837,(126, 201),4	54841,(134, 201),4	54845,(146, 201),4	54849,(154, 201),4	54853,(158, 201),4	54857,(26, 201),4	54861,(60, 201),4	54865,(76, 201),4	54869,(96, 201),4	54873,(124, 201),4	54877,(128, 201),4	54881,(178, 201),4	54885,(196, 201),4	
# Outgoing
165,(2, 51),4	169,(2, 55),20	189,(2, 61),16	205,(2, 91),192	397,(2, 99),4	401,(2, 107),52	453,(2, 119),28	481,(2, 177),32	513,(2, 181),20	533,(29, 201),4	537,(4, 39),12	549,(4, 63),32	581,(4, 71),8	589,(4, 89),36	625,(4, 113),4	629,(4, 143),8	637,(4, 161),228	865,(4, 181),4	869,(116, 201),4	873,(174, 201),4	877,(6, 61),8	885,(6, 71),88	973,(6, 87),268	1241,(6, 111),24	1265,(6, 117),50356	51621,(6, 123),8	51629,(6, 127),4	51633,(6, 135),4	51637,(6, 153),48	51685,(6, 177),44	51729,(94, 201),4	51733,(142, 201),4	51737,(170, 201),4	51741,(8, 49),20	51761,(8, 85),8	51769,(8, 179),4	51773,(31, 201),4	51777,(152, 201),4	51781,(180, 201),4	51785,(10, 131),4	51789,(10, 149),16	51805,(10, 187),4	51809,(190, 201),4	51813,(12, 22),32	51845,(12, 71),188	52033,(12, 103),12	52045,(12, 129),8	52053,(12, 151),16	52069,(12, 159),4	52073,(12, 177),112	52185,(12, 189),80	52265,(28, 201),4	52269,(98, 201),4	52273,(14, 37),48	52321,(14, 63),20	52341,(14, 149),16	52357,(14, 155),20	52377,(14, 177),32	52409,(108, 201),4	52413,(138, 201),4	52417,(16, 45),56	52473,(16, 47),24	52497,(16, 77),76	52573,(16, 95),8	52581,(16, 105),28	52609,(16, 109),20	52629,(16, 141),16	52645,(16, 161),16	52661,(16, 169),4	52665,(80, 201),4	52669,(106, 201),4	52673,(172, 201),4	52677,(18, 55),32	52709,(18, 67),292	53001,(18, 133),396	53397,(18, 165),24	53421,(18, 185),20	53441,(27, 201),4	53445,(46, 201),4	53449,(48, 201),4	53453,(110, 201),4	53457,(132, 201),4	53461,(160, 201),4	53465,(122, 201),4	53469,(162, 201),4	53473,(166, 201),4	53477,(192, 201),4	53481,(20, 43),4	53485,(20, 111),932	54417,(20, 139),68	54485,(20, 175),28	54513,(20, 187),96	54609,(20, 197),16	54625,(54, 201),4	54629,(30, 201),4	54633,(42, 201),4	54637,(84, 201),4	54641,(24, 201),4	54645,(62, 201),4	54649,(68, 201),4	54653,(140, 201),4	54657,(164, 201),4	54661,(40, 201),4	54665,(56, 201),4	54669,(118, 201),4	54673,(136, 201),4	54677,(186, 201),4	54681,(32, 201),4	54685,(78, 201),4	54689,(82, 201),4	54693,(198, 201),4	54697,(34, 201),4	54701,(50, 201),4	54705,(58, 201),4	54709,(64, 201),4	54713,(66, 201),4	54717,(72, 201),4	54721,(88, 201),4	54725,(102, 201),4	54729,(144, 201),4	54733,(188, 201),4	54737,(200, 201),4	54741,(74, 201),4	54745,(90, 201),4	54749,(104, 201),4	54753,(130, 201),4	54757,(156, 201),4	54761,(168, 201),4	54765,(182, 201),4	54769,(184, 201),4	54773,(23, 201),4	54777,(36, 201),4	54781,(44, 201),4	54785,(52, 201),4	54789,(86, 201),4	54793,(100, 201),4	54797,(112, 201),4	54801,(120, 201),4	54805,(150, 201),4	54809,(176, 201),4	54813,(194, 201),4	54817,(38, 201),4	54821,(70, 201),4	54825,(114, 201),4	54829,(148, 201),4	54833,(92, 201),4	54837,(126, 201),4	54841,(134, 201),4	54845,(146, 201),4	54849,(154, 201),4	54853,(158, 201),4	54857,(26, 201),4	54861,(60, 201),4	54865,(76, 201),4	54869,(96, 201),4	54873,(124, 201),4	54877,(128, 201),4	54881,(178, 201),4	54885,(196, 201),4	
1,(0, 2),144	145,(0, 4),144	289,(0, 6),144	433,(0, 8),144	577,(0, 10),144	721,(0, 12),144	865,(0, 14),144	1009,(0, 16),144	1153,(0, 18),144	1297,(0, 20),144	1441,(15, 24),4	1445,(15, 50),28	1473,(15, 54),4	1477,(15, 72),4	1481,(15, 84),104	1585,(15, 154),588	2173,(15, 186),16	2189,(17, 24),4	2193,(17, 62),12	2205,(17, 68),308	2513,(17, 140),8	2521,(17, 164),8	2529,(17, 176),12	2541,(9, 32),132	2673,(9, 40),4	2677,(9, 56),28	2705,(9, 118),288	2993,(9, 136),4	2997,(9, 186),8	3005,(7, 32),276	3281,(7, 78),48	3329,(7, 82),8	3337,(7, 124),4	3341,(7, 188),32	3373,(7, 198),8	3381,(19, 34),4	3385,(19, 50),4	3389,(19, 52),4	3393,(19, 58),4	3397,(19, 64),16	3413,(19, 66),80	3493,(19, 72),60	3553,(19, 88),180	3733,(19, 102),4	3737,(19, 144),12	3749,(19, 188),4	3753,(19, 200),4	3757,(13, 52),40	3797,(13, 74),92	3889,(13, 90),20	3909,(13, 104),4	3913,(13, 126),4	3917,(13, 130),20	3937,(13, 156),28	3965,(13, 168),20	3985,(13, 182),56	4041,(13, 184),36	4077,(11, 23),88	4165,(11, 36),16	4181,(11, 44),12	4193,(11, 52),8	4201,(11, 86),8	4209,(11, 100),4	4213,(11, 112),36	4249,(11, 114),84	4333,(11, 120),12	4345,(11, 150),4	4349,(11, 176),4	4353,(11, 194),20	4373,(3, 38),12	4385,(3, 70),56	4441,(3, 114),8	4449,(3, 148),36	4485,(5, 92),52	4537,(5, 126),24	4561,(5, 134),8	4569,(5, 146),4	4573,(5, 154),44	4617,(5, 158),20	4637,(1, 26),16	4653,(1, 60),4	4657,(1, 76),4	4661,(1, 96),4	4665,(1, 124),8	4673,(1, 128),24	4697,(1, 178),4	4701,(1, 196),24	
