2081
# CPU
82,4,1	83,20,1	84,32,1	85,44,1	98,100,1	122,60,1	163,8,1	164,24,1	165,96,1	166,104,1	167,40,1	190,120,1	244,12,1	245,48,1	246,84,1	247,16,1	249,52,1	251,56,1	266,80,1	282,64,1	301,76,1	381,92,1	420,68,1	421,112,1	520,88,1	545,108,1	563,28,1	676,116,1	700,36,1	742,72,1	
55,3,1	56,15,1	57,67,1	58,91,1	86,35,1	88,99,1	136,7,1	137,63,1	217,11,1	218,87,1	233,59,1	240,55,1	243,95,1	244,111,1	245,119,1	252,39,1	269,47,1	276,83,1	278,115,1	284,71,1	366,103,1	382,23,1	391,27,1	395,43,1	399,75,1	418,19,1	530,31,1	543,107,1	619,51,1	685,79,1	
28,2,1	29,38,1	30,46,1	31,62,1	32,94,1	33,102,1	63,18,1	64,50,1	68,118,1	109,6,1	144,14,1	149,26,1	190,10,1	191,82,1	192,98,1	219,74,1	283,70,1	305,90,1	309,110,1	417,114,1	421,86,1	452,54,1	498,106,1	510,34,1	518,78,1	521,22,1	525,30,1	536,42,1	537,66,1	671,58,1	
0,0,1	1,5,1	2,1,1	3,9,1	4,69,1	5,109,1	6,45,1	7,85,1	8,25,1	9,29,1	10,21,1	87,73,1	92,37,1	98,97,1	107,101,1	232,65,1	239,93,1	355,13,1	357,61,1	381,113,1	445,17,1	446,77,1	449,105,1	450,41,1	451,49,1	578,81,1	673,89,1	772,33,1	849,117,1	968,53,1	976,57,1	2080,121,1	
# Incoming
55,(0, 4),27	82,(2, 20),1	88,(2, 100),10	98,(3, 60),24	136,(0, 8),27	163,(3, 120),27	217,(0, 12),27	244,(5, 16),1	245,(10, 52),4	249,(10, 56),2	251,(10, 80),15	269,(5, 64),13	284,(5, 76),17	301,(3, 92),80	381,(10, 68),39	420,(11, 112),1	421,(1, 88),99	543,(9, 108),2	545,(11, 28),18	578,(6, 116),98	676,(11, 36),24	700,(11, 72),42	
28,(0, 3),27	83,(2, 35),3	87,(2, 99),1	109,(0, 7),27	190,(0, 11),27	222,(6, 59),11	233,(10, 55),7	240,(10, 95),3	243,(10, 111),1	244,(10, 119),1	245,(5, 39),7	252,(5, 47),17	269,(10, 83),7	276,(10, 115),2	283,(5, 71),1	354,(10, 103),12	380,(8, 23),2	382,(8, 27),9	391,(8, 43),4	395,(8, 75),4	417,(1, 19),1	525,(9, 31),5	537,(9, 107),6	601,(8, 51),18	670,(12, 79),15	
1,(0, 2),27	56,(3, 18),7	63,(3, 50),1	64,(3, 118),4	82,(0, 6),27	137,(7, 14),7	144,(7, 26),5	163,(0, 10),27	218,(11, 74),1	282,(5, 70),1	301,(5, 90),4	305,(5, 110),4	309,(5, 114),108	418,(1, 86),3	445,(4, 54),7	452,(11, 106),46	498,(8, 34),12	510,(8, 78),8	520,(9, 22),1	521,(9, 30),4	530,(9, 42),6	536,(9, 66),1	624,(11, 58),47	
86,(2, 73),1	87,(3, 37),5	92,(3, 97),6	98,(2, 101),9	107,(38, 121),23	130,(46, 121),23	153,(62, 121),23	176,(94, 121),23	199,(102, 121),23	222,(3, 65),10	232,(3, 93),7	239,(15, 121),23	262,(67, 121),23	285,(18, 121),23	308,(50, 121),23	331,(118, 121),23	354,(4, 13),1	355,(4, 61),2	357,(20, 121),23	380,(6, 113),1	381,(91, 121),23	404,(4, 17),41	445,(7, 77),1	446,(7, 105),3	449,(10, 41),1	450,(10, 49),1	452,(32, 121),23	475,(44, 121),23	498,(35, 121),23	521,(99, 121),23	544,(100, 121),23	567,(6, 81),11	578,(60, 121),23	601,(63, 121),23	624,(24, 121),23	647,(96, 121),23	671,(11, 89),2	676,(14, 121),23	699,(26, 121),23	722,(104, 121),23	745,(40, 121),23	768,(10, 33),4	772,(120, 121),23	795,(82, 121),23	818,(98, 121),23	841,(11, 117),8	849,(87, 121),23	872,(74, 121),23	895,(59, 121),23	918,(55, 121),23	941,(95, 121),23	964,(12, 53),4	968,(12, 57),8	976,(111, 121),23	999,(119, 121),23	1022,(48, 121),23	1045,(84, 121),23	1068,(16, 121),23	1091,(52, 121),23	1114,(56, 121),23	1137,(39, 121),23	1160,(80, 121),23	1183,(47, 121),23	1206,(83, 121),23	1229,(115, 121),23	1252,(64, 121),23	1275,(70, 121),23	1298,(71, 121),23	1321,(76, 121),23	1344,(90, 121),23	1367,(110, 121),23	1390,(103, 121),23	1413,(92, 121),23	1436,(23, 121),23	1459,(27, 121),23	1482,(43, 121),23	1505,(75, 121),23	1528,(114, 121),23	1551,(19, 121),23	1574,(68, 121),23	1597,(112, 121),23	1620,(86, 121),23	1643,(54, 121),23	1666,(106, 121),23	1689,(34, 121),23	1712,(78, 121),23	1735,(88, 121),23	1758,(22, 121),23	1781,(30, 121),23	1804,(31, 121),23	1827,(42, 121),23	1850,(66, 121),23	1873,(107, 121),23	1896,(108, 121),23	1919,(28, 121),23	1942,(51, 121),23	1965,(58, 121),23	1988,(116, 121),23	2011,(79, 121),23	2034,(36, 121),23	2057,(72, 121),23	
# Outgoing
354,(4, 13),1	355,(4, 61),2	357,(20, 121),23	380,(8, 23),2	382,(8, 27),9	391,(8, 43),4	395,(8, 75),4	404,(4, 17),41	445,(4, 54),7	452,(32, 121),23	475,(44, 121),23	498,(8, 34),12	510,(8, 78),8	544,(100, 121),23	578,(60, 121),23	601,(8, 51),18	624,(24, 121),23	647,(96, 121),23	670,(12, 79),15	722,(104, 121),23	745,(40, 121),23	772,(120, 121),23	964,(12, 53),4	968,(12, 57),8	1022,(48, 121),23	1045,(84, 121),23	1068,(16, 121),23	1091,(52, 121),23	1114,(56, 121),23	1160,(80, 121),23	1252,(64, 121),23	1321,(76, 121),23	1413,(92, 121),23	1574,(68, 121),23	1597,(112, 121),23	1735,(88, 121),23	1896,(108, 121),23	1919,(28, 121),23	1988,(116, 121),23	2034,(36, 121),23	2057,(72, 121),23	
56,(3, 18),7	63,(3, 50),1	64,(3, 118),4	87,(3, 37),5	92,(3, 97),6	98,(3, 60),24	137,(7, 14),7	144,(7, 26),5	163,(3, 120),27	218,(11, 74),1	222,(3, 65),10	232,(3, 93),7	239,(15, 121),23	262,(67, 121),23	301,(3, 92),80	381,(91, 121),23	420,(11, 112),1	445,(7, 77),1	446,(7, 105),3	452,(11, 106),46	498,(35, 121),23	521,(99, 121),23	545,(11, 28),18	601,(63, 121),23	624,(11, 58),47	671,(11, 89),2	676,(11, 36),24	700,(11, 72),42	841,(11, 117),8	849,(87, 121),23	895,(59, 121),23	918,(55, 121),23	941,(95, 121),23	976,(111, 121),23	999,(119, 121),23	1137,(39, 121),23	1183,(47, 121),23	1206,(83, 121),23	1229,(115, 121),23	1298,(71, 121),23	1390,(103, 121),23	1436,(23, 121),23	1459,(27, 121),23	1482,(43, 121),23	1505,(75, 121),23	1551,(19, 121),23	1804,(31, 121),23	1873,(107, 121),23	1942,(51, 121),23	2011,(79, 121),23	
82,(2, 20),1	83,(2, 35),3	86,(2, 73),1	87,(2, 99),1	88,(2, 100),10	98,(2, 101),9	107,(38, 121),23	130,(46, 121),23	153,(62, 121),23	176,(94, 121),23	199,(102, 121),23	222,(6, 59),11	233,(10, 55),7	240,(10, 95),3	243,(10, 111),1	244,(10, 119),1	245,(10, 52),4	249,(10, 56),2	251,(10, 80),15	269,(10, 83),7	276,(10, 115),2	285,(18, 121),23	308,(50, 121),23	331,(118, 121),23	354,(10, 103),12	380,(6, 113),1	381,(10, 68),39	449,(10, 41),1	450,(10, 49),1	567,(6, 81),11	578,(6, 116),98	676,(14, 121),23	699,(26, 121),23	768,(10, 33),4	795,(82, 121),23	818,(98, 121),23	872,(74, 121),23	1275,(70, 121),23	1344,(90, 121),23	1367,(110, 121),23	1528,(114, 121),23	1620,(86, 121),23	1643,(54, 121),23	1666,(106, 121),23	1689,(34, 121),23	1712,(78, 121),23	1758,(22, 121),23	1781,(30, 121),23	1827,(42, 121),23	1850,(66, 121),23	1965,(58, 121),23	
1,(0, 2),27	28,(0, 3),27	55,(0, 4),27	82,(0, 6),27	109,(0, 7),27	136,(0, 8),27	163,(0, 10),27	190,(0, 11),27	217,(0, 12),27	244,(5, 16),1	245,(5, 39),7	252,(5, 47),17	269,(5, 64),13	282,(5, 70),1	283,(5, 71),1	284,(5, 76),17	301,(5, 90),4	305,(5, 110),4	309,(5, 114),108	417,(1, 19),1	418,(1, 86),3	421,(1, 88),99	520,(9, 22),1	521,(9, 30),4	525,(9, 31),5	530,(9, 42),6	536,(9, 66),1	537,(9, 107),6	543,(9, 108),2	
