27044
# CPU
3,2,18	21,5,18	39,9,18	57,10,18	2509,160,18	2659,143,18	14955,44,18	15237,65,18	15345,106,18	15699,23,18	15753,37,18	15771,43,18	15923,99,18	15983,116,18	16001,120,18	16025,121,18	16201,154,18	16375,27,18	16431,50,18	16537,80,18	16561,85,18	16645,129,18	16663,146,18	16701,151,18	16759,178,18	16953,29,18	16971,32,18	17041,46,18	17107,70,18	17125,77,18	17249,108,18	17279,111,18	17331,126,18	17473,137,18	17491,144,18	17509,145,18	17579,181,18	17597,186,18	17711,195,18	17729,197,18	
11,6,18	29,8,18	47,13,18	65,17,18	2227,83,18	4337,193,18	15219,60,18	15413,136,18	15651,168,18	15697,22,18	15947,109,18	16087,131,18	16369,25,18	16505,69,18	16565,86,18	16595,123,18	16659,139,18	16677,142,18	16709,155,18	16727,163,18	16883,192,18	16951,196,18	16985,38,18	17087,49,18	17105,57,18	17123,63,18	17151,81,18	17169,82,18	17187,92,18	17205,105,18	17369,128,18	17469,133,18	17487,157,18	17505,162,18	17523,164,18	17541,167,18	17559,174,18	17577,177,18	17595,182,18	17627,191,18	
5,3,18	23,12,18	41,15,18	22619,138,18	22815,152,18	23301,88,18	23729,135,18	24881,28,18	25861,147,18	25909,148,18	25937,170,18	26013,26,18	26031,33,18	26049,71,18	26067,89,18	26085,132,18	26103,156,18	26121,166,18	26139,198,18	26157,199,18	26175,31,18	26193,34,18	26211,53,18	26229,58,18	26247,61,18	26265,79,18	26283,90,18	26301,100,18	26319,101,18	26337,110,18	26355,113,18	26373,117,18	26391,141,18	26409,153,18	26427,158,18	26461,172,18	26479,173,18	26497,183,18	26515,185,18	26533,189,18	27043,201,1	
7,4,18	25,11,18	43,14,18	61,18,18	2545,115,18	2583,176,18	15309,87,18	15393,118,18	15743,30,18	15927,102,18	16031,125,18	16285,194,18	16331,21,18	16399,45,18	16437,52,18	16493,66,18	16535,76,18	16583,93,18	16601,103,18	16647,134,18	16689,150,18	16739,165,18	16965,35,18	16987,39,18	17021,41,18	17083,47,18	17101,48,18	17119,54,18	17137,72,18	17155,74,18	17173,75,18	17191,78,18	17209,97,18	17227,107,18	17329,114,18	17479,149,18	17535,169,18	17553,175,18	17605,187,18	17623,188,18	
0,0,1	1,1,18	19,20,18	37,7,18	55,16,18	73,19,18	2399,36,18	2569,73,18	2737,55,18	2755,159,18	2825,62,18	2843,40,18	2861,42,18	2879,95,18	2897,140,18	2957,127,18	2993,68,18	3011,179,18	3283,119,18	3385,130,18	3437,184,18	3455,161,18	3505,200,18	3527,24,18	3603,51,18	3621,56,18	3639,84,18	3657,98,18	3699,180,18	3801,59,18	3861,64,18	3897,67,18	4027,91,18	4059,94,18	4081,96,18	4099,104,18	4127,112,18	4145,122,18	4163,124,18	4295,171,18	4327,190,18	
# Incoming
1,(0, 2),2	7,(0, 5),2	13,(0, 9),2	15,(0, 10),2	35,(1, 23),2	39,(3, 65),2	43,(3, 27),10	57,(6, 44),4	61,(6, 65),2	63,(3, 77),2	65,(6, 37),8	83,(6, 77),2	89,(6, 80),14	103,(3, 106),2	105,(6, 85),2	107,(6, 99),8	115,(6, 106),8	123,(6, 126),2	127,(6, 143),4	131,(3, 32),44	175,(4, 27),44	219,(4, 29),46	265,(6, 146),2	267,(4, 44),6	273,(4, 46),2	275,(4, 65),10	285,(4, 85),6	291,(8, 126),2	293,(3, 50),40	333,(4, 80),22	355,(3, 85),18	373,(4, 32),40	413,(4, 111),10	423,(4, 144),2	425,(3, 137),2	427,(6, 120),6	433,(13, 77),2	435,(4, 121),14	449,(4, 126),12	461,(4, 129),10	471,(4, 146),4	475,(4, 154),2	477,(4, 160),2	479,(4, 181),2	481,(4, 186),6	487,(6, 108),16	503,(6, 111),10	513,(6, 129),16	529,(6, 195),6	535,(8, 23),14	549,(3, 121),20	569,(11, 37),2	571,(3, 143),2	573,(6, 144),26	599,(8, 121),4	603,(8, 146),4	607,(4, 195),16	623,(11, 46),2	625,(11, 65),2	627,(3, 129),14	641,(11, 80),2	643,(8, 27),10	653,(8, 77),20	673,(13, 108),2	675,(3, 116),84	759,(3, 120),54	813,(6, 186),44	857,(8, 65),24	881,(8, 85),10	891,(11, 50),10	901,(11, 70),4	905,(8, 129),8	913,(13, 116),2	915,(3, 144),16	931,(3, 145),14	945,(4, 178),50	995,(11, 106),2	997,(11, 108),2	999,(3, 160),4	1003,(11, 99),6	1009,(11, 111),2	1011,(11, 116),24	1035,(11, 126),4	1039,(11, 137),14	1053,(11, 145),2	1055,(11, 195),2	1057,(11, 197),2	1059,(3, 178),4	1063,(11, 146),6	1069,(11, 151),24	1093,(3, 186),14	1107,(4, 116),76	1183,(11, 160),10	1193,(14, 23),2	1195,(14, 27),2	1197,(14, 32),10	1207,(14, 43),8	1215,(14, 46),2	1217,(14, 70),2	1219,(14, 80),2	1221,(14, 99),2	1223,(3, 197),8	1231,(12, 27),22	1253,(14, 106),2	1255,(14, 116),2	1257,(14, 137),2	1259,(14, 146),6	1265,(14, 151),2	1267,(14, 181),2	1269,(14, 197),2	1271,(12, 44),2	1273,(12, 46),2	1275,(18, 23),2	1277,(18, 27),2	1279,(12, 80),4	1283,(8, 108),18	1301,(18, 111),2	1303,(12, 32),40	1343,(12, 37),26	1369,(8, 116),14	1383,(8, 178),12	1395,(12, 50),48	1443,(8, 80),30	1473,(8, 144),46	1519,(8, 186),28	1547,(8, 195),16	1563,(8, 197),22	1585,(13, 44),6	1591,(13, 50),6	1597,(13, 126),2	1599,(11, 143),52	1651,(13, 23),36	1687,(13, 65),4	1691,(13, 146),2	1693,(13, 195),8	1701,(17, 23),2	1703,(18, 85),4	1707,(18, 120),2	1709,(17, 32),2	1711,(17, 50),2	1713,(18, 143),2	1715,(17, 108),2	1717,(17, 151),2	1719,(12, 108),4	1723,(17, 181),2	1725,(12, 111),2	1727,(13, 27),18	1745,(17, 77),6	1751,(17, 129),4	1755,(18, 151),2	1761,(12, 121),2	1763,(17, 85),12	1775,(12, 126),24	1799,(13, 37),20	1819,(13, 121),14	1833,(17, 145),4	1837,(1, 29),4	1841,(17, 154),4	1845,(1, 37),10	1855,(18, 197),6	1861,(1, 43),2	1863,(1, 44),46	1909,(12, 137),8	1917,(1, 46),2	1919,(12, 145),2	1921,(17, 195),2	1923,(1, 50),2	1925,(13, 106),24	1953,(12, 146),18	1971,(12, 160),40	2011,(11, 144),52	2063,(11, 178),36	2101,(17, 121),14	2115,(1, 65),30	2145,(12, 197),2	2147,(15, 43),10	2157,(15, 46),8	2165,(15, 50),6	2171,(13, 186),18	2189,(17, 197),8	2205,(15, 70),8	2213,(15, 77),6	2227,(1, 85),14	2241,(15, 85),6	2253,(15, 111),2	2255,(15, 116),12	2267,(15, 126),4	2271,(11, 186),52	2323,(13, 43),42	2365,(17, 27),24	2419,(15, 137),12	2437,(1, 108),2	2455,(1, 111),24	2479,(15, 151),22	2501,(15, 160),8	2509,(15, 181),2	2511,(1, 116),2	2513,(15, 99),52	2571,(1, 121),10	2593,(15, 195),12	2605,(14, 50),20	2625,(17, 186),28	2657,(1, 143),2	2659,(1, 145),40	2699,(1, 146),28	2727,(15, 120),78	2825,(14, 108),34	2859,(14, 120),26	2885,(17, 43),46	2939,(14, 121),24	2963,(1, 154),2	3069,(13, 144),70	3139,(17, 80),82	3221,(17, 126),50	3339,(14, 178),38	3385,(17, 137),42	3527,(18, 32),12	3539,(18, 44),52	3643,(18, 43),104	3925,(18, 70),10	3935,(18, 77),16	3951,(18, 80),12	4155,(18, 137),36	4191,(18, 154),18	4295,(18, 181),18	4337,(18, 195),82	14535,(1, 181),50	14589,(1, 186),2	14749,(1, 197),26	14857,(20, 27),12	14869,(20, 29),12	14909,(20, 37),10	14927,(20, 43),24	14951,(20, 44),4	14955,(20, 46),2	15227,(20, 65),10	15265,(20, 80),6	15275,(20, 85),6	15313,(20, 99),2	15335,(20, 106),10	15345,(20, 108),4	15349,(20, 111),40	15393,(20, 126),6	15413,(20, 137),2	15431,(20, 146),12	15531,(20, 151),32	15653,(20, 178),2	15655,(20, 181),12	15673,(20, 195),2	15697,(7, 23),2	15709,(7, 29),14	15743,(7, 37),10	15769,(7, 43),2	15771,(7, 46),4	15775,(7, 50),2	15791,(7, 70),2	15869,(7, 85),22	15919,(7, 99),4	15933,(7, 108),10	15979,(7, 116),4	15983,(7, 120),2	15985,(7, 121),40	16031,(7, 126),38	16069,(7, 129),16	16113,(7, 137),16	16145,(7, 144),2	16147,(7, 145),10	16157,(7, 146),6	16179,(7, 151),14	16193,(7, 154),8	16259,(7, 186),2	16369,(16, 27),6	16375,(16, 29),2	16377,(16, 32),10	16399,(16, 46),12	16415,(16, 50),16	16535,(16, 80),2	16541,(16, 85),20	16585,(16, 108),8	16595,(16, 126),2	16641,(16, 129),4	16661,(16, 146),2	16689,(16, 151),12	16757,(16, 178),2	16759,(16, 181),4	16883,(16, 195),2	16951,(19, 29),2	16953,(19, 32),6	17021,(19, 46),20	17105,(19, 70),2	17115,(19, 77),4	17195,(19, 108),54	17249,(19, 111),30	17329,(19, 126),2	17469,(19, 137),4	17473,(19, 144),2	17475,(19, 145),2	17577,(19, 181),2	17581,(19, 186),6	17627,(19, 195),84	17711,(19, 197),10	
9,(0, 6),2	11,(0, 8),2	21,(0, 13),2	23,(2, 38),2	27,(0, 17),2	29,(2, 22),12	41,(3, 25),2	53,(3, 38),2	55,(3, 49),2	57,(3, 60),2	59,(3, 63),2	65,(3, 82),2	71,(2, 25),12	83,(3, 81),12	101,(3, 105),2	125,(2, 60),2	145,(2, 82),2	147,(2, 83),4	151,(2, 86),48	199,(3, 22),44	265,(4, 38),2	291,(4, 105),6	297,(4, 128),2	299,(4, 133),2	301,(4, 142),2	303,(2, 105),48	355,(4, 123),12	367,(2, 123),2	369,(2, 128),6	375,(3, 128),2	377,(2, 142),14	427,(2, 155),2	429,(2, 157),10	439,(3, 57),60	499,(4, 81),30	529,(4, 157),2	531,(4, 162),2	533,(4, 163),2	535,(4, 167),8	543,(4, 168),2	545,(4, 174),4	549,(11, 60),2	551,(2, 162),8	565,(2, 167),4	569,(3, 139),2	571,(4, 177),22	593,(4, 182),8	601,(4, 191),6	639,(11, 133),2	643,(2, 177),4	647,(4, 192),40	687,(11, 105),8	695,(11, 136),2	697,(2, 182),28	725,(11, 164),2	731,(2, 196),28	759,(4, 83),116	875,(4, 196),16	891,(5, 25),2	893,(5, 38),4	897,(5, 81),8	905,(3, 131),10	915,(5, 63),18	933,(5, 86),4	937,(5, 92),6	943,(5, 139),4	947,(3, 155),52	999,(11, 131),4	1003,(3, 163),16	1019,(3, 164),32	1051,(5, 22),34	1085,(5, 83),20	1105,(5, 142),12	1117,(5, 157),2	1119,(5, 164),2	1135,(3, 193),40	1175,(5, 105),72	1247,(5, 123),32	1279,(5, 168),2	1281,(5, 193),2	1283,(12, 22),2	1285,(12, 25),18	1303,(11, 38),74	1377,(11, 163),6	1383,(12, 49),12	1395,(11, 82),14	1409,(11, 83),48	1457,(11, 168),2	1459,(11, 177),4	1463,(12, 81),2	1465,(11, 86),12	1477,(11, 128),22	1499,(11, 193),2	1501,(12, 82),2	1503,(12, 83),6	1509,(5, 192),4	1513,(11, 109),26	1539,(14, 25),2	1541,(14, 57),2	1543,(12, 105),2	1545,(14, 81),2	1547,(14, 142),2	1549,(18, 22),2	1551,(12, 86),26	1577,(9, 60),2	1579,(18, 60),2	1581,(12, 92),10	1591,(11, 142),8	1599,(9, 22),18	1617,(9, 63),12	1651,(11, 155),24	1675,(11, 196),10	1685,(9, 82),16	1701,(9, 123),6	1707,(9, 136),2	1709,(14, 168),4	1713,(9, 139),4	1717,(9, 155),2	1719,(9, 162),2	1721,(9, 174),2	1723,(12, 109),2	1725,(9, 109),14	1739,(9, 142),12	1751,(9, 167),8	1759,(14, 128),6	1765,(18, 63),2	1767,(12, 123),6	1773,(10, 49),2	1793,(11, 167),20	1813,(11, 182),20	1833,(11, 192),14	1847,(14, 136),8	1855,(1, 38),6	1861,(14, 38),16	1877,(12, 128),2	1879,(18, 83),2	1881,(12, 133),24	1907,(12, 168),2	1921,(1, 49),2	1925,(10, 105),4	1929,(12, 136),18	1947,(12, 139),6	1953,(9, 81),54	2009,(18, 131),2	2011,(12, 167),4	2015,(9, 157),18	2033,(9, 192),10	2043,(10, 60),10	2053,(10, 109),2	2055,(10, 133),2	2071,(12, 177),2	2073,(10, 81),14	2093,(10, 162),2	2095,(10, 163),2	2097,(10, 174),2	2099,(14, 105),12	2111,(14, 191),4	2115,(12, 192),2	2117,(12, 193),2	2119,(12, 196),2	2129,(14, 139),8	2137,(14, 192),6	2143,(18, 82),6	2149,(18, 136),6	2155,(10, 182),4	2159,(10, 196),2	2163,(18, 123),16	2179,(18, 139),8	2187,(15, 49),12	2199,(18, 177),2	2201,(15, 60),2	2203,(18, 182),2	2219,(15, 86),4	2225,(1, 83),2	2247,(15, 109),6	2319,(1, 92),2	2323,(18, 163),6	2331,(1, 105),104	2439,(1, 109),16	2455,(9, 163),34	2489,(9, 164),74	2565,(15, 123),8	2573,(15, 131),6	2581,(1, 123),30	2611,(1, 128),2	2613,(15, 128),14	2627,(1, 136),2	2629,(9, 177),52	2681,(15, 139),6	2687,(15, 163),18	2705,(15, 182),12	2717,(15, 192),6	2723,(10, 191),8	2737,(9, 128),158	2895,(14, 22),44	2939,(10, 69),20	2965,(1, 157),48	3019,(1, 163),4	3023,(1, 164),2	3027,(10, 82),24	3051,(10, 192),16	3081,(9, 182),74	3155,(10, 25),106	3271,(14, 164),68	3339,(10, 136),20	3377,(14, 182),32	3437,(14, 193),46	3483,(10, 164),134	3617,(18, 25),26	3897,(18, 69),28	3963,(18, 81),52	4027,(18, 92),26	4089,(18, 105),34	4209,(18, 155),52	4327,(18, 193),10	14841,(20, 25),16	14919,(20, 38),6	15137,(20, 57),78	15215,(20, 60),4	15219,(20, 63),8	15271,(20, 82),4	15281,(20, 86),6	15331,(20, 105),4	15399,(20, 128),2	15401,(20, 131),2	15403,(20, 133),8	15411,(20, 136),2	15415,(20, 139),14	15429,(20, 142),2	15563,(20, 155),2	15565,(20, 157),20	15585,(20, 163),24	15609,(20, 164),32	15649,(20, 168),2	15651,(20, 174),2	15671,(20, 191),2	15679,(7, 22),18	15699,(7, 25),10	15779,(7, 57),10	15859,(7, 82),10	15891,(7, 92),28	15929,(7, 105),4	15943,(7, 109),4	16085,(7, 131),2	16087,(7, 133),14	16129,(7, 139),2	16131,(7, 142),14	16201,(7, 157),2	16203,(7, 162),4	16207,(7, 164),2	16209,(7, 167),18	16227,(7, 174),14	16241,(7, 177),10	16251,(7, 182),8	16267,(7, 191),2	16269,(7, 192),10	16331,(16, 25),38	16439,(16, 63),2	16493,(16, 69),12	16537,(16, 81),4	16561,(16, 86),4	16565,(16, 92),6	16593,(16, 123),2	16597,(16, 128),44	16647,(16, 139),12	16659,(16, 142),2	16701,(16, 155),8	16709,(16, 163),14	16723,(16, 164),12	16739,(16, 167),18	16763,(16, 182),40	16829,(16, 191),10	16839,(16, 192),44	16885,(16, 196),66	16965,(19, 38),20	17085,(19, 49),2	17099,(19, 57),4	17103,(19, 63),2	17137,(19, 81),14	17151,(19, 82),4	17155,(19, 92),28	17191,(19, 105),2	17331,(19, 128),38	17369,(19, 133),100	17479,(19, 157),4	17483,(19, 162),8	17491,(19, 164),30	17521,(19, 167),12	17535,(19, 174),2	17541,(19, 177),36	17579,(19, 182),2	17609,(19, 191),18	
3,(0, 3),2	19,(0, 12),2	25,(0, 15),2	37,(1, 26),38	75,(1, 28),1762	1837,(2, 33),6	1843,(1, 33),2	1845,(2, 34),12	1857,(2, 53),2	1859,(2, 61),14	1873,(2, 71),22	1895,(2, 89),20	1915,(2, 117),2	1917,(2, 148),2	1919,(2, 156),4	1923,(2, 173),2	1925,(1, 53),4	1929,(1, 61),186	2115,(2, 135),40	2155,(4, 53),2	2157,(4, 61),2	2159,(4, 89),2	2161,(4, 100),2	2163,(1, 71),2	2165,(2, 138),12	2177,(2, 152),16	2193,(2, 185),14	2207,(4, 28),12	2219,(4, 132),2	2221,(4, 156),2	2223,(1, 79),2	2225,(4, 31),44	2269,(4, 170),2	2271,(6, 58),2	2273,(1, 88),2	2275,(1, 89),2	2277,(1, 90),42	2319,(6, 71),2	2321,(6, 173),2	2323,(1, 100),2	2325,(1, 101),6	2331,(4, 58),58	2389,(4, 101),6	2395,(4, 113),28	2423,(4, 117),10	2433,(4, 138),12	2445,(4, 147),20	2465,(4, 158),10	2475,(4, 183),8	2483,(4, 198),18	2501,(6, 117),12	2513,(1, 117),58	2571,(4, 199),20	2591,(6, 79),16	2607,(6, 148),4	2611,(6, 185),2	2613,(1, 132),2	2615,(6, 189),2	2617,(1, 135),10	2627,(5, 148),2	2629,(1, 138),4	2633,(1, 141),24	2657,(4, 173),66	2723,(6, 156),4	2727,(1, 148),8	2735,(5, 173),2	2737,(11, 31),2	2739,(11, 61),2	2741,(1, 152),222	2963,(4, 185),44	3007,(11, 33),4	3011,(11, 199),2	3013,(1, 158),6	3019,(5, 138),8	3027,(1, 166),2	3029,(6, 28),40	3069,(5, 132),12	3081,(1, 170),10	3091,(1, 172),11410	14501,(6, 101),32	14533,(6, 132),26	14559,(6, 135),16	14575,(5, 147),8	14583,(8, 58),2	14585,(1, 183),2	14587,(1, 185),2	14589,(8, 61),2	14591,(1, 189),138	14729,(6, 170),30	14759,(5, 61),14	14773,(8, 101),2	14775,(1, 198),16	14791,(1, 199),6	14797,(2, 147),622	15419,(2, 183),842	16261,(4, 90),162	16423,(4, 135),1580	18003,(6, 138),78	18081,(6, 147),340	18421,(6, 183),304	18725,(6, 198),32	18757,(20, 31),12	18769,(20, 53),164	18933,(20, 58),16	18949,(20, 61),4	18953,(20, 71),2	18955,(20, 88),6	18961,(20, 89),18	18979,(20, 101),10	18989,(20, 110),2	18991,(20, 113),14	19005,(20, 132),2	19007,(20, 135),66	19073,(20, 138),18	19091,(20, 148),2	19093,(20, 152),56	19149,(20, 153),2	19151,(20, 158),274	19425,(20, 166),32	19457,(20, 170),24	19481,(20, 172),54	19535,(20, 183),2	19537,(20, 185),496	20033,(5, 90),60	20093,(5, 153),16	20109,(5, 156),58	20167,(5, 166),16	20183,(5, 172),34	20217,(5, 185),22	20239,(5, 199),18	20257,(11, 26),12	20269,(11, 34),520	20789,(11, 71),4	20793,(11, 88),34	20827,(11, 90),92	20919,(11, 100),24	20943,(11, 110),20	20963,(11, 117),16	20979,(11, 132),28	21007,(11, 135),40	21047,(11, 147),54	21101,(11, 152),30	21131,(11, 158),36	21167,(11, 166),10	21177,(11, 183),20	21197,(8, 34),602	21799,(8, 53),6	21805,(8, 88),8	21813,(8, 90),8	21821,(8, 110),8	21829,(8, 113),8	21837,(8, 135),186	22023,(8, 152),16	22039,(8, 158),12	22051,(8, 166),34	22085,(8, 170),4	22089,(8, 172),12	22101,(8, 173),24	22125,(8, 199),2	22127,(7, 28),8	22135,(7, 31),14	22149,(7, 33),14	22163,(7, 34),60	22223,(7, 53),268	22491,(7, 58),6	22497,(7, 61),62	22559,(7, 79),2	22561,(7, 101),46	22607,(7, 110),6	22613,(7, 135),2	22615,(7, 138),4	22619,(7, 147),8	22627,(7, 148),10	22637,(7, 152),6	22643,(7, 156),2	22645,(7, 158),6	22651,(7, 166),12	22663,(9, 26),8	22671,(9, 31),14	22685,(9, 33),8	22693,(9, 53),26	22719,(9, 79),16	22735,(9, 89),10	22745,(9, 110),8	22753,(9, 141),12	22765,(9, 147),2	22767,(9, 148),46	22813,(9, 152),2	22815,(9, 156),22	22837,(9, 166),12	22849,(9, 172),2	22851,(9, 185),280	23131,(9, 189),2	23133,(9, 198),2	23135,(14, 26),2	23137,(14, 31),4	23141,(14, 33),28	23169,(14, 34),32	23201,(14, 58),46	23247,(14, 61),2	23249,(14, 71),20	23269,(14, 88),32	23301,(14, 90),2	23303,(14, 100),2	23305,(14, 110),14	23319,(14, 113),36	23355,(14, 147),12	23367,(14, 156),32	23399,(14, 158),2	23401,(14, 166),18	23419,(14, 189),18	23437,(14, 198),4	23441,(13, 26),2	23443,(13, 28),6	23449,(13, 31),8	23457,(13, 53),18	23475,(13, 71),78	23553,(13, 79),2	23555,(13, 100),50	23605,(13, 101),10	23615,(13, 117),2	23617,(13, 132),108	23725,(13, 135),4	23729,(13, 141),58	23787,(13, 147),2	23789,(13, 148),18	23807,(13, 153),4	23811,(13, 156),2	23813,(13, 158),448	24261,(13, 166),46	24307,(13, 170),60	24367,(13, 172),28	24395,(13, 183),12	24407,(13, 189),10	24417,(13, 198),6	24423,(16, 26),2	24425,(16, 33),2	24427,(16, 34),8	24435,(16, 53),224	24659,(16, 58),8	24667,(16, 61),18	24685,(16, 79),4	24689,(16, 89),2	24691,(16, 90),8	24699,(16, 117),4	24703,(16, 147),2	24705,(16, 158),104	24809,(16, 172),68	24877,(16, 185),2	24879,(10, 28),2	24881,(10, 33),6	24887,(10, 34),4	24891,(10, 53),52	24943,(10, 58),110	25053,(10, 89),8	25061,(10, 90),8	25069,(10, 100),54	25123,(10, 101),6	25129,(10, 110),14	25143,(10, 141),24	25167,(10, 148),114	25281,(10, 158),2	25283,(10, 170),14	25297,(10, 189),60	25357,(10, 198),2	25359,(10, 199),4	25363,(18, 26),2	25365,(18, 31),8	25373,(18, 34),4	25377,(18, 53),8	25385,(18, 58),448	25833,(18, 61),2	25835,(18, 100),2	25837,(18, 101),2	25839,(18, 132),6	25845,(18, 141),14	25859,(18, 147),2	25861,(18, 148),48	25909,(18, 153),22	25931,(18, 166),2	25933,(18, 170),4	25937,(18, 173),34	25971,(18, 183),12	25983,(18, 185),8	25991,(18, 189),8	25999,(18, 198),2	26001,(18, 199),6	26007,(17, 26),6	26013,(17, 33),6	26019,(17, 53),4	26023,(17, 61),2	26025,(17, 71),2	26027,(17, 89),10	26037,(17, 110),4	26041,(17, 113),10	26051,(17, 132),2	26053,(17, 153),6	26059,(17, 156),2	26061,(17, 166),2	26063,(17, 172),2	26065,(17, 198),12	26077,(17, 199),2	26079,(19, 31),54	26133,(19, 34),4	26137,(19, 53),30	26167,(19, 58),30	26197,(19, 61),12	26209,(19, 79),2	26211,(19, 90),16	26227,(19, 100),2	26229,(19, 101),48	26277,(19, 110),2	26279,(19, 113),26	26305,(19, 117),30	26335,(19, 141),6	26341,(19, 153),38	26379,(19, 158),16	26395,(19, 172),66	26461,(19, 173),2	26463,(19, 183),2	26465,(19, 185),4	26469,(19, 189),2	26471,(83, 201),4	26475,(36, 201),4	26479,(160, 201),4	26483,(115, 201),4	26487,(73, 201),4	26491,(176, 201),4	26495,(143, 201),4	26499,(55, 201),4	26503,(159, 201),4	26507,(62, 201),4	26511,(40, 201),4	26515,(42, 201),4	26519,(95, 201),4	26523,(140, 201),4	26527,(127, 201),4	26531,(68, 201),4	26535,(179, 201),4	26539,(119, 201),4	26543,(130, 201),4	26547,(184, 201),4	26551,(161, 201),4	26555,(200, 201),4	26559,(24, 201),4	26563,(51, 201),4	26567,(56, 201),4	26571,(84, 201),4	26575,(98, 201),4	26579,(180, 201),4	26583,(59, 201),4	26587,(64, 201),4	26591,(67, 201),4	26595,(91, 201),4	26599,(94, 201),4	26603,(96, 201),4	26607,(104, 201),4	26611,(112, 201),4	26615,(122, 201),4	26619,(124, 201),4	26623,(171, 201),4	26627,(190, 201),4	26631,(193, 201),4	26635,(44, 201),4	26639,(60, 201),4	26643,(65, 201),4	26647,(87, 201),4	26651,(106, 201),4	26655,(118, 201),4	26659,(136, 201),4	26663,(168, 201),4	26667,(22, 201),4	26671,(23, 201),4	26675,(30, 201),4	26679,(37, 201),4	26683,(43, 201),4	26687,(99, 201),4	26691,(102, 201),4	26695,(109, 201),4	26699,(116, 201),4	26703,(120, 201),4	26707,(121, 201),4	26711,(125, 201),4	26715,(131, 201),4	26719,(154, 201),4	26723,(194, 201),4	26727,(21, 201),4	26731,(25, 201),4	26735,(27, 201),4	26739,(45, 201),4	26743,(50, 201),4	26747,(52, 201),4	26751,(66, 201),4	26755,(69, 201),4	26759,(76, 201),4	26763,(80, 201),4	26767,(85, 201),4	26771,(86, 201),4	26775,(93, 201),4	26779,(123, 201),4	26783,(103, 201),4	26787,(129, 201),4	26791,(134, 201),4	26795,(139, 201),4	26799,(146, 201),4	26803,(142, 201),4	26807,(150, 201),4	26811,(151, 201),4	26815,(155, 201),4	26819,(163, 201),4	26823,(165, 201),4	26827,(178, 201),4	26831,(192, 201),4	26835,(196, 201),4	26839,(29, 201),4	26843,(35, 201),4	26847,(32, 201),4	26851,(38, 201),4	26855,(39, 201),4	26859,(41, 201),4	26863,(46, 201),4	26867,(47, 201),4	26871,(49, 201),4	26875,(48, 201),4	26879,(57, 201),4	26883,(70, 201),4	26887,(54, 201),4	26891,(63, 201),4	26895,(77, 201),4	26899,(72, 201),4	26903,(81, 201),4	26907,(74, 201),4	26911,(82, 201),4	26915,(75, 201),4	26919,(92, 201),4	26923,(78, 201),4	26927,(105, 201),4	26931,(97, 201),4	26935,(107, 201),4	26939,(108, 201),4	26943,(111, 201),4	26947,(114, 201),4	26951,(126, 201),4	26955,(128, 201),4	26959,(133, 201),4	26963,(137, 201),4	26967,(149, 201),4	26971,(157, 201),4	26975,(144, 201),4	26979,(162, 201),4	26983,(145, 201),4	26987,(164, 201),4	26991,(169, 201),4	26995,(167, 201),4	26999,(175, 201),4	27003,(174, 201),4	27007,(177, 201),4	27011,(181, 201),4	27015,(182, 201),4	27019,(186, 201),4	27023,(187, 201),4	27027,(188, 201),4	27031,(191, 201),4	27035,(195, 201),4	27039,(197, 201),4	
5,(0, 4),2	17,(0, 11),2	21,(2, 21),2	23,(0, 14),2	25,(2, 39),2	27,(2, 41),2	29,(0, 18),2	31,(1, 21),4	35,(3, 21),2	37,(3, 39),2	39,(6, 21),14	53,(6, 30),2	55,(6, 35),2	61,(3, 74),2	63,(6, 45),2	67,(3, 93),4	73,(6, 41),6	79,(6, 72),2	81,(6, 75),2	85,(2, 45),4	89,(2, 48),2	95,(3, 102),2	97,(3, 103),2	99,(2, 52),4	103,(2, 54),2	105,(3, 30),26	131,(6, 97),2	133,(6, 102),2	135,(6, 187),2	137,(8, 48),2	139,(2, 74),2	141,(2, 75),2	143,(2, 78),2	165,(6, 47),14	179,(6, 48),10	189,(6, 134),6	195,(8, 72),2	197,(8, 74),2	199,(2, 87),6	205,(6, 149),6	211,(8, 87),2	213,(2, 103),6	219,(6, 66),22	241,(8, 114),2	243,(3, 35),30	273,(3, 41),20	293,(6, 165),12	305,(6, 194),44	349,(8, 125),2	351,(2, 114),2	353,(2, 115),2	355,(2, 118),4	359,(8, 45),10	369,(8, 103),6	375,(8, 115),4	379,(8, 118),4	383,(13, 21),4	387,(13, 41),2	389,(13, 52),2	391,(2, 149),2	393,(2, 150),34	427,(3, 87),6	433,(3, 107),6	439,(8, 47),42	481,(13, 48),4	485,(13, 72),2	499,(3, 66),50	549,(13, 66),4	553,(13, 87),6	559,(2, 165),6	565,(13, 114),8	573,(2, 175),70	643,(3, 114),16	659,(3, 115),16	675,(8, 52),34	709,(13, 76),10	719,(13, 115),2	721,(13, 125),2	723,(17, 48),2	725,(17, 97),2	727,(2, 188),4	731,(8, 169),26	757,(13, 165),8	765,(17, 102),2	767,(17, 150),2	769,(5, 21),2	771,(5, 41),4	775,(5, 45),2	777,(5, 47),32	809,(5, 48),2	811,(5, 54),2	813,(5, 76),4	817,(5, 78),36	853,(5, 97),2	855,(5, 102),26	881,(5, 115),6	887,(5, 149),2	889,(5, 175),2	891,(17, 35),12	903,(17, 187),2	905,(5, 125),10	915,(8, 176),24	945,(3, 149),2	947,(5, 107),12	959,(5, 114),90	1049,(9, 30),2	1051,(3, 165),4	1055,(3, 176),4	1061,(8, 175),28	1089,(17, 107),4	1107,(3, 187),2	1109,(3, 188),22	1131,(5, 165),24	1155,(5, 169),6	1161,(9, 45),8	1169,(9, 48),2	1171,(9, 66),2	1173,(9, 78),2	1175,(3, 194),48	1253,(12, 35),18	1275,(12, 47),2	1277,(12, 78),2	1301,(13, 30),34	1335,(13, 118),16	1351,(17, 125),10	1361,(17, 149),8	1369,(12, 41),14	1395,(13, 97),40	1435,(17, 165),4	1443,(12, 75),20	1465,(5, 176),36	1513,(5, 194),30	1545,(9, 52),20	1565,(9, 75),8	1573,(9, 102),2	1579,(9, 76),14	1593,(9, 134),4	1597,(9, 188),2	1599,(13, 194),26	1629,(9, 72),28	1657,(9, 115),8	1665,(9, 118),10	1675,(9, 150),6	1681,(10, 21),2	1683,(10, 47),2	1685,(12, 102),12	1697,(12, 103),16	1715,(12, 107),4	1723,(10, 72),2	1727,(12, 114),8	1735,(12, 115),22	1757,(12, 118),4	1761,(9, 125),12	1773,(12, 125),2	1775,(9, 74),52	1827,(9, 176),6	1833,(10, 76),4	1841,(1, 30),2	1843,(10, 107),2	1845,(17, 93),28	1879,(17, 134),20	1905,(12, 165),2	1909,(1, 45),8	1917,(12, 176),2	1919,(1, 47),2	1921,(12, 134),8	1929,(9, 165),12	1941,(10, 41),12	1953,(17, 66),34	2007,(10, 78),8	2015,(12, 175),56	2087,(10, 115),2	2089,(12, 187),2	2091,(12, 188),10	2101,(10, 97),10	2111,(10, 134),2	2113,(10, 150),2	2121,(15, 21),18	2139,(15, 35),2	2141,(15, 45),4	2145,(1, 66),18	2165,(1, 72),4	2169,(1, 74),10	2179,(1, 76),2	2181,(1, 78),42	2223,(15, 52),2	2225,(15, 54),2	2227,(15, 72),2	2229,(15, 93),6	2235,(15, 103),4	2239,(15, 115),2	2241,(1, 87),32	2273,(15, 30),36	2309,(15, 97),12	2321,(1, 93),2	2323,(15, 47),24	2347,(15, 118),18	2365,(15, 125),4	2369,(15, 149),2	2371,(10, 103),6	2377,(10, 118),8	2389,(15, 134),30	2419,(10, 176),6	2425,(10, 187),8	2435,(1, 107),2	2437,(10, 188),12	2449,(15, 150),10	2471,(15, 169),6	2479,(1, 115),32	2513,(17, 115),32	2579,(15, 176),4	2583,(15, 187),6	2589,(15, 188),4	2615,(1, 134),2	2681,(10, 52),28	2735,(1, 149),6	2903,(10, 169),36	3025,(1, 165),2	3029,(1, 169),52	14501,(1, 175),34	14729,(1, 194),20	14797,(20, 21),44	14881,(20, 30),22	14903,(20, 35),6	14925,(20, 39),2	14957,(20, 47),4	14961,(20, 48),70	15031,(20, 52),6	15037,(20, 54),100	15237,(20, 76),6	15243,(20, 78),22	15287,(20, 87),22	15309,(20, 97),4	15315,(20, 102),16	15389,(20, 114),2	15391,(20, 118),2	15443,(20, 150),88	15641,(20, 165),8	15667,(20, 187),4	15675,(7, 21),4	15723,(7, 30),20	15753,(7, 41),16	15777,(7, 54),2	15789,(7, 66),2	15793,(7, 72),32	15825,(7, 75),28	15853,(7, 76),6	15923,(7, 102),4	15927,(7, 103),2	15947,(7, 114),32	16025,(7, 125),6	16101,(7, 134),12	16163,(7, 149),10	16173,(7, 150),6	16261,(7, 188),6	16279,(7, 194),6	16285,(16, 21),46	16387,(16, 45),12	16411,(16, 48),4	16431,(16, 52),6	16437,(16, 54),2	16441,(16, 66),52	16505,(16, 72),14	16519,(16, 76),16	16571,(16, 93),12	16583,(16, 103),2	16645,(16, 134),2	16663,(16, 149),24	16687,(16, 150),2	16735,(16, 165),4	16803,(16, 187),26	16959,(19, 35),6	16985,(19, 39),2	16987,(19, 41),34	17041,(19, 47),42	17083,(19, 48),2	17087,(19, 54),12	17107,(19, 72),4	17111,(19, 74),2	17113,(19, 75),2	17119,(19, 78),18	17183,(19, 97),8	17193,(19, 107),2	17279,(19, 114),50	17477,(19, 149),2	17533,(19, 169),2	17537,(19, 175),4	17587,(19, 187),18	17605,(19, 188),4	
41,(2, 24),30	71,(3, 24),8	79,(3, 40),4	83,(2, 36),2	85,(6, 59),2	87,(6, 68),2	91,(2, 51),8	99,(3, 95),2	103,(6, 91),2	105,(2, 59),20	125,(6, 96),2	127,(2, 67),10	137,(2, 73),2	139,(6, 24),16	155,(6, 40),10	175,(3, 36),8	183,(3, 42),16	199,(6, 112),6	205,(2, 91),2	207,(2, 98),6	213,(6, 127),2	215,(8, 56),2	217,(8, 59),2	219,(2, 104),84	303,(4, 55),2	305,(4, 59),2	307,(4, 67),4	311,(4, 91),2	313,(4, 94),14	327,(4, 122),6	333,(3, 56),12	345,(3, 59),10	355,(8, 94),4	359,(2, 119),2	361,(2, 122),6	367,(4, 140),2	369,(4, 171),4	373,(3, 130),2	375,(2, 140),2	377,(3, 62),10	387,(3, 67),14	401,(3, 84),16	417,(3, 124),8	425,(4, 95),10	435,(8, 98),4	439,(2, 161),112	551,(4, 119),12	563,(4, 179),2	565,(4, 184),2	567,(11, 64),2	569,(2, 171),4	573,(3, 112),54	627,(4, 161),12	639,(8, 127),2	641,(3, 171),2	643,(11, 55),4	647,(2, 179),50	697,(4, 64),28	725,(2, 184),2	727,(4, 180),14	741,(4, 190),16	757,(14, 40),2	759,(2, 200),10	769,(6, 55),10	779,(6, 56),12	791,(6, 84),22	813,(3, 127),92	905,(4, 84),36	941,(6, 62),92	1033,(6, 73),28	1061,(14, 59),2	1063,(3, 180),10	1073,(3, 184),20	1093,(6, 122),8	1101,(6, 140),20	1121,(5, 64),6	1127,(5, 73),2	1129,(5, 94),2	1131,(3, 190),4	1135,(6, 64),42	1177,(6, 159),46	1223,(6, 171),28	1251,(6, 200),32	1283,(5, 40),12	1295,(5, 51),26	1321,(5, 55),24	1345,(5, 62),28	1373,(5, 84),30	1403,(5, 91),24	1427,(5, 95),2	1429,(5, 119),2	1431,(5, 122),2	1433,(5, 159),30	1463,(5, 161),2	1465,(12, 24),32	1497,(12, 40),2	1499,(12, 55),2	1501,(5, 180),8	1509,(12, 42),8	1517,(12, 56),2	1519,(12, 62),20	1539,(12, 68),4	1543,(5, 200),2	1545,(12, 84),6	1551,(11, 42),24	1575,(9, 40),2	1577,(12, 91),4	1581,(11, 124),6	1587,(14, 171),4	1591,(12, 95),28	1619,(12, 96),18	1637,(12, 98),48	1685,(11, 62),18	1703,(8, 24),6	1709,(9, 84),2	1711,(9, 91),2	1713,(12, 104),2	1715,(11, 68),26	1741,(11, 84),14	1755,(8, 40),8	1763,(12, 122),4	1767,(11, 73),26	1793,(8, 51),6	1799,(12, 127),78	1877,(13, 67),2	1879,(12, 130),2	1881,(11, 104),18	1899,(11, 127),96	1995,(11, 180),14	2009,(8, 55),10	2019,(8, 73),12	2031,(8, 84),12	2043,(8, 122),14	2057,(9, 94),2	2059,(9, 95),2	2061,(9, 98),12	2073,(12, 184),16	2089,(9, 104),4	2093,(13, 68),6	2099,(13, 119),2	2101,(12, 190),14	2115,(11, 184),14	2129,(8, 124),24	2153,(8, 179),18	2171,(15, 24),16	2187,(14, 24),6	2193,(14, 179),6	2199,(15, 56),2	2201,(13, 130),2	2203,(15, 67),2	2205,(13, 159),2	2207,(9, 36),36	2243,(9, 51),20	2263,(9, 122),20	2283,(9, 127),18	2301,(9, 140),10	2311,(9, 159),26	2337,(9, 180),18	2355,(9, 184),16	2371,(15, 64),6	2377,(15, 73),4	2381,(15, 94),6	2387,(15, 119),2	2389,(13, 36),10	2399,(13, 51),26	2425,(13, 84),4	2429,(13, 161),2	2431,(15, 140),18	2449,(13, 91),8	2457,(13, 171),2	2459,(15, 159),10	2469,(15, 161),2	2471,(13, 94),8	2479,(13, 104),6	2485,(13, 112),8	2493,(13, 124),8	2501,(14, 51),14	2515,(14, 73),54	2569,(13, 180),16	2585,(13, 184),2	2587,(10, 40),2	2589,(10, 64),2	2591,(14, 91),8	2599,(10, 56),8	2607,(10, 91),2	2609,(10, 94),16	2625,(14, 96),12	2637,(14, 127),16	2653,(13, 96),30	2683,(13, 122),26	2709,(10, 95),8	2717,(10, 98),4	2721,(10, 104),2	2723,(14, 130),8	2731,(10, 112),2	2733,(10, 140),2	2735,(18, 55),2	2737,(17, 64),2	2739,(17, 159),2	2741,(14, 62),84	2825,(17, 40),8	2833,(17, 42),22	2855,(17, 51),20	2875,(17, 95),4	2879,(17, 96),6	2885,(14, 140),10	2895,(10, 122),6	2901,(10, 161),2	2931,(17, 56),18	2949,(17, 122),4	2953,(17, 127),4	2957,(17, 171),2	2959,(10, 171),2	2961,(10, 179),2	2963,(10, 184),6	2969,(10, 190),2	2971,(10, 200),4	2975,(17, 68),18	2993,(17, 104),16	3009,(17, 179),2	3011,(17, 180),2	3013,(14, 67),88	3101,(14, 98),144	3245,(14, 124),26	3271,(17, 119),12	3283,(17, 124),14	3297,(17, 130),88	3409,(14, 184),28	3437,(17, 161),10	3447,(17, 200),8	3483,(14, 200),22	3505,(18, 24),22	3591,(18, 51),12	3603,(18, 56),8	3611,(18, 84),2	3613,(18, 98),2	3617,(10, 180),82	3747,(18, 59),54	3801,(18, 64),60	3861,(18, 67),36	4015,(18, 91),12	4053,(18, 94),6	4059,(18, 96),22	4081,(18, 104),8	4123,(18, 112),4	4127,(18, 122),18	4145,(18, 124),10	4261,(18, 171),34	4313,(18, 190),14	
# Outgoing
21,(2, 21),2	23,(2, 38),2	25,(2, 39),2	27,(2, 41),2	29,(2, 22),12	41,(2, 24),30	71,(2, 25),12	83,(2, 36),2	85,(2, 45),4	89,(2, 48),2	91,(2, 51),8	99,(2, 52),4	103,(2, 54),2	105,(2, 59),20	125,(2, 60),2	127,(2, 67),10	137,(2, 73),2	139,(2, 74),2	141,(2, 75),2	143,(2, 78),2	145,(2, 82),2	147,(2, 83),4	151,(2, 86),48	199,(2, 87),6	205,(2, 91),2	207,(2, 98),6	213,(2, 103),6	219,(2, 104),84	303,(2, 105),48	351,(2, 114),2	353,(2, 115),2	355,(2, 118),4	359,(2, 119),2	361,(2, 122),6	367,(2, 123),2	369,(2, 128),6	375,(2, 140),2	377,(2, 142),14	391,(2, 149),2	393,(2, 150),34	427,(2, 155),2	429,(2, 157),10	439,(2, 161),112	551,(2, 162),8	559,(2, 165),6	565,(2, 167),4	569,(2, 171),4	573,(2, 175),70	643,(2, 177),4	647,(2, 179),50	697,(2, 182),28	725,(2, 184),2	727,(2, 188),4	731,(2, 196),28	759,(2, 200),10	769,(5, 21),2	771,(5, 41),4	775,(5, 45),2	777,(5, 47),32	809,(5, 48),2	811,(5, 54),2	813,(5, 76),4	817,(5, 78),36	853,(5, 97),2	855,(5, 102),26	881,(5, 115),6	887,(5, 149),2	889,(5, 175),2	891,(5, 25),2	893,(5, 38),4	897,(5, 81),8	905,(5, 125),10	915,(5, 63),18	933,(5, 86),4	937,(5, 92),6	943,(5, 139),4	947,(5, 107),12	959,(5, 114),90	1049,(9, 30),2	1051,(5, 22),34	1085,(5, 83),20	1105,(5, 142),12	1117,(5, 157),2	1119,(5, 164),2	1121,(5, 64),6	1127,(5, 73),2	1129,(5, 94),2	1131,(5, 165),24	1155,(5, 169),6	1161,(9, 45),8	1169,(9, 48),2	1171,(9, 66),2	1173,(9, 78),2	1175,(5, 105),72	1247,(5, 123),32	1279,(5, 168),2	1281,(5, 193),2	1283,(5, 40),12	1295,(5, 51),26	1321,(5, 55),24	1345,(5, 62),28	1373,(5, 84),30	1403,(5, 91),24	1427,(5, 95),2	1429,(5, 119),2	1431,(5, 122),2	1433,(5, 159),30	1463,(5, 161),2	1465,(5, 176),36	1501,(5, 180),8	1509,(5, 192),4	1513,(5, 194),30	1543,(5, 200),2	1545,(9, 52),20	1565,(9, 75),8	1573,(9, 102),2	1575,(9, 40),2	1577,(9, 60),2	1579,(9, 76),14	1593,(9, 134),4	1597,(9, 188),2	1599,(9, 22),18	1617,(9, 63),12	1629,(9, 72),28	1657,(9, 115),8	1665,(9, 118),10	1675,(9, 150),6	1681,(10, 21),2	1683,(10, 47),2	1685,(9, 82),16	1701,(9, 123),6	1707,(9, 136),2	1709,(9, 84),2	1711,(9, 91),2	1713,(9, 139),4	1717,(9, 155),2	1719,(9, 162),2	1721,(9, 174),2	1723,(10, 72),2	1725,(9, 109),14	1739,(9, 142),12	1751,(9, 167),8	1761,(9, 125),12	1773,(10, 49),2	1775,(9, 74),52	1827,(9, 176),6	1833,(10, 76),4	1837,(2, 33),6	1843,(10, 107),2	1845,(2, 34),12	1857,(2, 53),2	1859,(2, 61),14	1873,(2, 71),22	1895,(2, 89),20	1915,(2, 117),2	1917,(2, 148),2	1919,(2, 156),4	1923,(2, 173),2	1925,(10, 105),4	1929,(9, 165),12	1941,(10, 41),12	1953,(9, 81),54	2007,(10, 78),8	2015,(9, 157),18	2033,(9, 192),10	2043,(10, 60),10	2053,(10, 109),2	2055,(10, 133),2	2057,(9, 94),2	2059,(9, 95),2	2061,(9, 98),12	2073,(10, 81),14	2087,(10, 115),2	2089,(9, 104),4	2093,(10, 162),2	2095,(10, 163),2	2097,(10, 174),2	2101,(10, 97),10	2111,(10, 134),2	2113,(10, 150),2	2115,(2, 135),40	2155,(10, 182),4	2159,(10, 196),2	2165,(2, 138),12	2177,(2, 152),16	2193,(2, 185),14	2207,(9, 36),36	2243,(9, 51),20	2263,(9, 122),20	2283,(9, 127),18	2301,(9, 140),10	2311,(9, 159),26	2337,(9, 180),18	2355,(9, 184),16	2371,(10, 103),6	2377,(10, 118),8	2419,(10, 176),6	2425,(10, 187),8	2437,(10, 188),12	2455,(9, 163),34	2489,(9, 164),74	2587,(10, 40),2	2589,(10, 64),2	2599,(10, 56),8	2607,(10, 91),2	2609,(10, 94),16	2627,(5, 148),2	2629,(9, 177),52	2681,(10, 52),28	2709,(10, 95),8	2717,(10, 98),4	2721,(10, 104),2	2723,(10, 191),8	2731,(10, 112),2	2733,(10, 140),2	2735,(5, 173),2	2737,(9, 128),158	2895,(10, 122),6	2901,(10, 161),2	2903,(10, 169),36	2939,(10, 69),20	2959,(10, 171),2	2961,(10, 179),2	2963,(10, 184),6	2969,(10, 190),2	2971,(10, 200),4	3019,(5, 138),8	3027,(10, 82),24	3051,(10, 192),16	3069,(5, 132),12	3081,(9, 182),74	3155,(10, 25),106	3339,(10, 136),20	3483,(10, 164),134	3617,(10, 180),82	14575,(5, 147),8	14759,(5, 61),14	14797,(2, 147),622	15419,(2, 183),842	20033,(5, 90),60	20093,(5, 153),16	20109,(5, 156),58	20167,(5, 166),16	20183,(5, 172),34	20217,(5, 185),22	20239,(5, 199),18	22663,(9, 26),8	22671,(9, 31),14	22685,(9, 33),8	22693,(9, 53),26	22719,(9, 79),16	22735,(9, 89),10	22745,(9, 110),8	22753,(9, 141),12	22765,(9, 147),2	22767,(9, 148),46	22813,(9, 152),2	22815,(9, 156),22	22837,(9, 166),12	22849,(9, 172),2	22851,(9, 185),280	23131,(9, 189),2	23133,(9, 198),2	24879,(10, 28),2	24881,(10, 33),6	24887,(10, 34),4	24891,(10, 53),52	24943,(10, 58),110	25053,(10, 89),8	25061,(10, 90),8	25069,(10, 100),54	25123,(10, 101),6	25129,(10, 110),14	25143,(10, 141),24	25167,(10, 148),114	25281,(10, 158),2	25283,(10, 170),14	25297,(10, 189),60	25357,(10, 198),2	25359,(10, 199),4	26479,(160, 201),4	26495,(143, 201),4	26635,(44, 201),4	26643,(65, 201),4	26651,(106, 201),4	26671,(23, 201),4	26679,(37, 201),4	26683,(43, 201),4	26687,(99, 201),4	26699,(116, 201),4	26703,(120, 201),4	26707,(121, 201),4	26719,(154, 201),4	26735,(27, 201),4	26743,(50, 201),4	26763,(80, 201),4	26767,(85, 201),4	26787,(129, 201),4	26799,(146, 201),4	26811,(151, 201),4	26827,(178, 201),4	26839,(29, 201),4	26847,(32, 201),4	26863,(46, 201),4	26883,(70, 201),4	26895,(77, 201),4	26939,(108, 201),4	26943,(111, 201),4	26951,(126, 201),4	26963,(137, 201),4	26975,(144, 201),4	26983,(145, 201),4	27011,(181, 201),4	27019,(186, 201),4	27035,(195, 201),4	27039,(197, 201),4	
39,(6, 21),14	53,(6, 30),2	55,(6, 35),2	57,(6, 44),4	61,(6, 65),2	63,(6, 45),2	65,(6, 37),8	73,(6, 41),6	79,(6, 72),2	81,(6, 75),2	83,(6, 77),2	85,(6, 59),2	87,(6, 68),2	89,(6, 80),14	103,(6, 91),2	105,(6, 85),2	107,(6, 99),8	115,(6, 106),8	123,(6, 126),2	125,(6, 96),2	127,(6, 143),4	131,(6, 97),2	133,(6, 102),2	135,(6, 187),2	137,(8, 48),2	139,(6, 24),16	155,(6, 40),10	165,(6, 47),14	179,(6, 48),10	189,(6, 134),6	195,(8, 72),2	197,(8, 74),2	199,(6, 112),6	205,(6, 149),6	211,(8, 87),2	213,(6, 127),2	215,(8, 56),2	217,(8, 59),2	219,(6, 66),22	241,(8, 114),2	265,(6, 146),2	291,(8, 126),2	293,(6, 165),12	305,(6, 194),44	349,(8, 125),2	355,(8, 94),4	359,(8, 45),10	369,(8, 103),6	375,(8, 115),4	379,(8, 118),4	383,(13, 21),4	387,(13, 41),2	389,(13, 52),2	427,(6, 120),6	433,(13, 77),2	435,(8, 98),4	439,(8, 47),42	481,(13, 48),4	485,(13, 72),2	487,(6, 108),16	503,(6, 111),10	513,(6, 129),16	529,(6, 195),6	535,(8, 23),14	549,(13, 66),4	553,(13, 87),6	565,(13, 114),8	573,(6, 144),26	599,(8, 121),4	603,(8, 146),4	639,(8, 127),2	643,(8, 27),10	653,(8, 77),20	673,(13, 108),2	675,(8, 52),34	709,(13, 76),10	719,(13, 115),2	721,(13, 125),2	723,(17, 48),2	725,(17, 97),2	731,(8, 169),26	757,(13, 165),8	765,(17, 102),2	767,(17, 150),2	769,(6, 55),10	779,(6, 56),12	791,(6, 84),22	813,(6, 186),44	857,(8, 65),24	881,(8, 85),10	891,(17, 35),12	903,(17, 187),2	905,(8, 129),8	913,(13, 116),2	915,(8, 176),24	941,(6, 62),92	1033,(6, 73),28	1061,(8, 175),28	1089,(17, 107),4	1093,(6, 122),8	1101,(6, 140),20	1135,(6, 64),42	1177,(6, 159),46	1223,(6, 171),28	1251,(6, 200),32	1283,(8, 108),18	1301,(13, 30),34	1335,(13, 118),16	1351,(17, 125),10	1361,(17, 149),8	1369,(8, 116),14	1383,(8, 178),12	1395,(13, 97),40	1435,(17, 165),4	1443,(8, 80),30	1473,(8, 144),46	1519,(8, 186),28	1547,(8, 195),16	1563,(8, 197),22	1585,(13, 44),6	1591,(13, 50),6	1597,(13, 126),2	1599,(13, 194),26	1651,(13, 23),36	1687,(13, 65),4	1691,(13, 146),2	1693,(13, 195),8	1701,(17, 23),2	1703,(8, 24),6	1709,(17, 32),2	1711,(17, 50),2	1715,(17, 108),2	1717,(17, 151),2	1723,(17, 181),2	1727,(13, 27),18	1745,(17, 77),6	1751,(17, 129),4	1755,(8, 40),8	1763,(17, 85),12	1793,(8, 51),6	1799,(13, 37),20	1819,(13, 121),14	1833,(17, 145),4	1841,(17, 154),4	1845,(17, 93),28	1877,(13, 67),2	1879,(17, 134),20	1921,(17, 195),2	1925,(13, 106),24	1953,(17, 66),34	2009,(8, 55),10	2019,(8, 73),12	2031,(8, 84),12	2043,(8, 122),14	2093,(13, 68),6	2099,(13, 119),2	2101,(17, 121),14	2129,(8, 124),24	2153,(8, 179),18	2171,(13, 186),18	2189,(17, 197),8	2201,(13, 130),2	2205,(13, 159),2	2271,(6, 58),2	2319,(6, 71),2	2321,(6, 173),2	2323,(13, 43),42	2365,(17, 27),24	2389,(13, 36),10	2399,(13, 51),26	2425,(13, 84),4	2429,(13, 161),2	2449,(13, 91),8	2457,(13, 171),2	2471,(13, 94),8	2479,(13, 104),6	2485,(13, 112),8	2493,(13, 124),8	2501,(6, 117),12	2513,(17, 115),32	2569,(13, 180),16	2585,(13, 184),2	2591,(6, 79),16	2607,(6, 148),4	2611,(6, 185),2	2615,(6, 189),2	2625,(17, 186),28	2653,(13, 96),30	2683,(13, 122),26	2723,(6, 156),4	2737,(17, 64),2	2739,(17, 159),2	2825,(17, 40),8	2833,(17, 42),22	2855,(17, 51),20	2875,(17, 95),4	2879,(17, 96),6	2885,(17, 43),46	2931,(17, 56),18	2949,(17, 122),4	2953,(17, 127),4	2957,(17, 171),2	2975,(17, 68),18	2993,(17, 104),16	3009,(17, 179),2	3011,(17, 180),2	3029,(6, 28),40	3069,(13, 144),70	3139,(17, 80),82	3221,(17, 126),50	3271,(17, 119),12	3283,(17, 124),14	3297,(17, 130),88	3385,(17, 137),42	3437,(17, 161),10	3447,(17, 200),8	14501,(6, 101),32	14533,(6, 132),26	14559,(6, 135),16	14583,(8, 58),2	14589,(8, 61),2	14729,(6, 170),30	14773,(8, 101),2	18003,(6, 138),78	18081,(6, 147),340	18421,(6, 183),304	18725,(6, 198),32	21197,(8, 34),602	21799,(8, 53),6	21805,(8, 88),8	21813,(8, 90),8	21821,(8, 110),8	21829,(8, 113),8	21837,(8, 135),186	22023,(8, 152),16	22039,(8, 158),12	22051,(8, 166),34	22085,(8, 170),4	22089,(8, 172),12	22101,(8, 173),24	22125,(8, 199),2	23441,(13, 26),2	23443,(13, 28),6	23449,(13, 31),8	23457,(13, 53),18	23475,(13, 71),78	23553,(13, 79),2	23555,(13, 100),50	23605,(13, 101),10	23615,(13, 117),2	23617,(13, 132),108	23725,(13, 135),4	23729,(13, 141),58	23787,(13, 147),2	23789,(13, 148),18	23807,(13, 153),4	23811,(13, 156),2	23813,(13, 158),448	24261,(13, 166),46	24307,(13, 170),60	24367,(13, 172),28	24395,(13, 183),12	24407,(13, 189),10	24417,(13, 198),6	26007,(17, 26),6	26013,(17, 33),6	26019,(17, 53),4	26023,(17, 61),2	26025,(17, 71),2	26027,(17, 89),10	26037,(17, 110),4	26041,(17, 113),10	26051,(17, 132),2	26053,(17, 153),6	26059,(17, 156),2	26061,(17, 166),2	26063,(17, 172),2	26065,(17, 198),12	26077,(17, 199),2	26471,(83, 201),4	26631,(193, 201),4	26639,(60, 201),4	26659,(136, 201),4	26663,(168, 201),4	26667,(22, 201),4	26695,(109, 201),4	26715,(131, 201),4	26731,(25, 201),4	26755,(69, 201),4	26771,(86, 201),4	26779,(123, 201),4	26795,(139, 201),4	26803,(142, 201),4	26815,(155, 201),4	26819,(163, 201),4	26831,(192, 201),4	26835,(196, 201),4	26851,(38, 201),4	26871,(49, 201),4	26879,(57, 201),4	26891,(63, 201),4	26903,(81, 201),4	26911,(82, 201),4	26919,(92, 201),4	26927,(105, 201),4	26955,(128, 201),4	26959,(133, 201),4	26971,(157, 201),4	26979,(162, 201),4	26987,(164, 201),4	26995,(167, 201),4	27003,(174, 201),4	27007,(177, 201),4	27015,(182, 201),4	27031,(191, 201),4	
35,(3, 21),2	37,(3, 39),2	39,(3, 65),2	41,(3, 25),2	43,(3, 27),10	53,(3, 38),2	55,(3, 49),2	57,(3, 60),2	59,(3, 63),2	61,(3, 74),2	63,(3, 77),2	65,(3, 82),2	67,(3, 93),4	71,(3, 24),8	79,(3, 40),4	83,(3, 81),12	95,(3, 102),2	97,(3, 103),2	99,(3, 95),2	101,(3, 105),2	103,(3, 106),2	105,(3, 30),26	131,(3, 32),44	175,(3, 36),8	183,(3, 42),16	199,(3, 22),44	243,(3, 35),30	273,(3, 41),20	293,(3, 50),40	333,(3, 56),12	345,(3, 59),10	355,(3, 85),18	373,(3, 130),2	375,(3, 128),2	377,(3, 62),10	387,(3, 67),14	401,(3, 84),16	417,(3, 124),8	425,(3, 137),2	427,(3, 87),6	433,(3, 107),6	439,(3, 57),60	499,(3, 66),50	549,(3, 121),20	569,(3, 139),2	571,(3, 143),2	573,(3, 112),54	627,(3, 129),14	641,(3, 171),2	643,(3, 114),16	659,(3, 115),16	675,(3, 116),84	759,(3, 120),54	813,(3, 127),92	905,(3, 131),10	915,(3, 144),16	931,(3, 145),14	945,(3, 149),2	947,(3, 155),52	999,(3, 160),4	1003,(3, 163),16	1019,(3, 164),32	1051,(3, 165),4	1055,(3, 176),4	1059,(3, 178),4	1063,(3, 180),10	1073,(3, 184),20	1093,(3, 186),14	1107,(3, 187),2	1109,(3, 188),22	1131,(3, 190),4	1135,(3, 193),40	1175,(3, 194),48	1223,(3, 197),8	1231,(12, 27),22	1253,(12, 35),18	1271,(12, 44),2	1273,(12, 46),2	1275,(12, 47),2	1277,(12, 78),2	1279,(12, 80),4	1283,(12, 22),2	1285,(12, 25),18	1303,(12, 32),40	1343,(12, 37),26	1369,(12, 41),14	1383,(12, 49),12	1395,(12, 50),48	1443,(12, 75),20	1463,(12, 81),2	1465,(12, 24),32	1497,(12, 40),2	1499,(12, 55),2	1501,(12, 82),2	1503,(12, 83),6	1509,(12, 42),8	1517,(12, 56),2	1519,(12, 62),20	1539,(12, 68),4	1543,(12, 105),2	1545,(12, 84),6	1551,(12, 86),26	1577,(12, 91),4	1581,(12, 92),10	1591,(12, 95),28	1619,(12, 96),18	1637,(12, 98),48	1685,(12, 102),12	1697,(12, 103),16	1713,(12, 104),2	1715,(12, 107),4	1719,(12, 108),4	1723,(12, 109),2	1725,(12, 111),2	1727,(12, 114),8	1735,(12, 115),22	1757,(12, 118),4	1761,(12, 121),2	1763,(12, 122),4	1767,(12, 123),6	1773,(12, 125),2	1775,(12, 126),24	1799,(12, 127),78	1877,(12, 128),2	1879,(12, 130),2	1881,(12, 133),24	1905,(12, 165),2	1907,(12, 168),2	1909,(12, 137),8	1917,(12, 176),2	1919,(12, 145),2	1921,(12, 134),8	1929,(12, 136),18	1947,(12, 139),6	1953,(12, 146),18	1971,(12, 160),40	2011,(12, 167),4	2015,(12, 175),56	2071,(12, 177),2	2073,(12, 184),16	2089,(12, 187),2	2091,(12, 188),10	2101,(12, 190),14	2115,(12, 192),2	2117,(12, 193),2	2119,(12, 196),2	2121,(15, 21),18	2139,(15, 35),2	2141,(15, 45),4	2145,(12, 197),2	2147,(15, 43),10	2157,(15, 46),8	2165,(15, 50),6	2171,(15, 24),16	2187,(15, 49),12	2199,(15, 56),2	2201,(15, 60),2	2203,(15, 67),2	2205,(15, 70),8	2213,(15, 77),6	2219,(15, 86),4	2223,(15, 52),2	2225,(15, 54),2	2227,(15, 72),2	2229,(15, 93),6	2235,(15, 103),4	2239,(15, 115),2	2241,(15, 85),6	2247,(15, 109),6	2253,(15, 111),2	2255,(15, 116),12	2267,(15, 126),4	2273,(15, 30),36	2309,(15, 97),12	2323,(15, 47),24	2347,(15, 118),18	2365,(15, 125),4	2369,(15, 149),2	2371,(15, 64),6	2377,(15, 73),4	2381,(15, 94),6	2387,(15, 119),2	2389,(15, 134),30	2419,(15, 137),12	2431,(15, 140),18	2449,(15, 150),10	2459,(15, 159),10	2469,(15, 161),2	2471,(15, 169),6	2479,(15, 151),22	2501,(15, 160),8	2509,(15, 181),2	2513,(15, 99),52	2565,(15, 123),8	2573,(15, 131),6	2579,(15, 176),4	2583,(15, 187),6	2589,(15, 188),4	2593,(15, 195),12	2613,(15, 128),14	2681,(15, 139),6	2687,(15, 163),18	2705,(15, 182),12	2717,(15, 192),6	2727,(15, 120),78	
175,(4, 27),44	219,(4, 29),46	265,(4, 38),2	267,(4, 44),6	273,(4, 46),2	275,(4, 65),10	285,(4, 85),6	291,(4, 105),6	297,(4, 128),2	299,(4, 133),2	301,(4, 142),2	303,(4, 55),2	305,(4, 59),2	307,(4, 67),4	311,(4, 91),2	313,(4, 94),14	327,(4, 122),6	333,(4, 80),22	355,(4, 123),12	367,(4, 140),2	369,(4, 171),4	373,(4, 32),40	413,(4, 111),10	423,(4, 144),2	425,(4, 95),10	435,(4, 121),14	449,(4, 126),12	461,(4, 129),10	471,(4, 146),4	475,(4, 154),2	477,(4, 160),2	479,(4, 181),2	481,(4, 186),6	499,(4, 81),30	529,(4, 157),2	531,(4, 162),2	533,(4, 163),2	535,(4, 167),8	543,(4, 168),2	545,(4, 174),4	549,(11, 60),2	551,(4, 119),12	563,(4, 179),2	565,(4, 184),2	567,(11, 64),2	569,(11, 37),2	571,(4, 177),22	593,(4, 182),8	601,(4, 191),6	607,(4, 195),16	623,(11, 46),2	625,(11, 65),2	627,(4, 161),12	639,(11, 133),2	641,(11, 80),2	643,(11, 55),4	647,(4, 192),40	687,(11, 105),8	695,(11, 136),2	697,(4, 64),28	725,(11, 164),2	727,(4, 180),14	741,(4, 190),16	757,(14, 40),2	759,(4, 83),116	875,(4, 196),16	891,(11, 50),10	901,(11, 70),4	905,(4, 84),36	945,(4, 178),50	995,(11, 106),2	997,(11, 108),2	999,(11, 131),4	1003,(11, 99),6	1009,(11, 111),2	1011,(11, 116),24	1035,(11, 126),4	1039,(11, 137),14	1053,(11, 145),2	1055,(11, 195),2	1057,(11, 197),2	1061,(14, 59),2	1063,(11, 146),6	1069,(11, 151),24	1107,(4, 116),76	1183,(11, 160),10	1193,(14, 23),2	1195,(14, 27),2	1197,(14, 32),10	1207,(14, 43),8	1215,(14, 46),2	1217,(14, 70),2	1219,(14, 80),2	1221,(14, 99),2	1253,(14, 106),2	1255,(14, 116),2	1257,(14, 137),2	1259,(14, 146),6	1265,(14, 151),2	1267,(14, 181),2	1269,(14, 197),2	1275,(18, 23),2	1277,(18, 27),2	1301,(18, 111),2	1303,(11, 38),74	1377,(11, 163),6	1395,(11, 82),14	1409,(11, 83),48	1457,(11, 168),2	1459,(11, 177),4	1465,(11, 86),12	1477,(11, 128),22	1499,(11, 193),2	1513,(11, 109),26	1539,(14, 25),2	1541,(14, 57),2	1545,(14, 81),2	1547,(14, 142),2	1549,(18, 22),2	1551,(11, 42),24	1579,(18, 60),2	1581,(11, 124),6	1587,(14, 171),4	1591,(11, 142),8	1599,(11, 143),52	1651,(11, 155),24	1675,(11, 196),10	1685,(11, 62),18	1703,(18, 85),4	1707,(18, 120),2	1709,(14, 168),4	1713,(18, 143),2	1715,(11, 68),26	1741,(11, 84),14	1755,(18, 151),2	1759,(14, 128),6	1765,(18, 63),2	1767,(11, 73),26	1793,(11, 167),20	1813,(11, 182),20	1833,(11, 192),14	1847,(14, 136),8	1855,(18, 197),6	1861,(14, 38),16	1879,(18, 83),2	1881,(11, 104),18	1899,(11, 127),96	1995,(11, 180),14	2009,(18, 131),2	2011,(11, 144),52	2063,(11, 178),36	2099,(14, 105),12	2111,(14, 191),4	2115,(11, 184),14	2129,(14, 139),8	2137,(14, 192),6	2143,(18, 82),6	2149,(18, 136),6	2155,(4, 53),2	2157,(4, 61),2	2159,(4, 89),2	2161,(4, 100),2	2163,(18, 123),16	2179,(18, 139),8	2187,(14, 24),6	2193,(14, 179),6	2199,(18, 177),2	2203,(18, 182),2	2207,(4, 28),12	2219,(4, 132),2	2221,(4, 156),2	2225,(4, 31),44	2269,(4, 170),2	2271,(11, 186),52	2323,(18, 163),6	2331,(4, 58),58	2389,(4, 101),6	2395,(4, 113),28	2423,(4, 117),10	2433,(4, 138),12	2445,(4, 147),20	2465,(4, 158),10	2475,(4, 183),8	2483,(4, 198),18	2501,(14, 51),14	2515,(14, 73),54	2571,(4, 199),20	2591,(14, 91),8	2605,(14, 50),20	2625,(14, 96),12	2637,(14, 127),16	2657,(4, 173),66	2723,(14, 130),8	2735,(18, 55),2	2737,(11, 31),2	2739,(11, 61),2	2741,(14, 62),84	2825,(14, 108),34	2859,(14, 120),26	2885,(14, 140),10	2895,(14, 22),44	2939,(14, 121),24	2963,(4, 185),44	3007,(11, 33),4	3011,(11, 199),2	3013,(14, 67),88	3101,(14, 98),144	3245,(14, 124),26	3271,(14, 164),68	3339,(14, 178),38	3377,(14, 182),32	3409,(14, 184),28	3437,(14, 193),46	3483,(14, 200),22	3505,(18, 24),22	3527,(18, 32),12	3539,(18, 44),52	3591,(18, 51),12	3603,(18, 56),8	3611,(18, 84),2	3613,(18, 98),2	3617,(18, 25),26	3643,(18, 43),104	3747,(18, 59),54	3801,(18, 64),60	3861,(18, 67),36	3897,(18, 69),28	3925,(18, 70),10	3935,(18, 77),16	3951,(18, 80),12	3963,(18, 81),52	4015,(18, 91),12	4027,(18, 92),26	4053,(18, 94),6	4059,(18, 96),22	4081,(18, 104),8	4089,(18, 105),34	4123,(18, 112),4	4127,(18, 122),18	4145,(18, 124),10	4155,(18, 137),36	4191,(18, 154),18	4209,(18, 155),52	4261,(18, 171),34	4295,(18, 181),18	4313,(18, 190),14	4327,(18, 193),10	4337,(18, 195),82	16261,(4, 90),162	16423,(4, 135),1580	20257,(11, 26),12	20269,(11, 34),520	20789,(11, 71),4	20793,(11, 88),34	20827,(11, 90),92	20919,(11, 100),24	20943,(11, 110),20	20963,(11, 117),16	20979,(11, 132),28	21007,(11, 135),40	21047,(11, 147),54	21101,(11, 152),30	21131,(11, 158),36	21167,(11, 166),10	21177,(11, 183),20	23135,(14, 26),2	23137,(14, 31),4	23141,(14, 33),28	23169,(14, 34),32	23201,(14, 58),46	23247,(14, 61),2	23249,(14, 71),20	23269,(14, 88),32	23301,(14, 90),2	23303,(14, 100),2	23305,(14, 110),14	23319,(14, 113),36	23355,(14, 147),12	23367,(14, 156),32	23399,(14, 158),2	23401,(14, 166),18	23419,(14, 189),18	23437,(14, 198),4	25363,(18, 26),2	25365,(18, 31),8	25373,(18, 34),4	25377,(18, 53),8	25385,(18, 58),448	25833,(18, 61),2	25835,(18, 100),2	25837,(18, 101),2	25839,(18, 132),6	25845,(18, 141),14	25859,(18, 147),2	25861,(18, 148),48	25909,(18, 153),22	25931,(18, 166),2	25933,(18, 170),4	25937,(18, 173),34	25971,(18, 183),12	25983,(18, 185),8	25991,(18, 189),8	25999,(18, 198),2	26001,(18, 199),6	26483,(115, 201),4	26491,(176, 201),4	26647,(87, 201),4	26655,(118, 201),4	26675,(30, 201),4	26691,(102, 201),4	26711,(125, 201),4	26723,(194, 201),4	26727,(21, 201),4	26739,(45, 201),4	26747,(52, 201),4	26751,(66, 201),4	26759,(76, 201),4	26775,(93, 201),4	26783,(103, 201),4	26791,(134, 201),4	26807,(150, 201),4	26823,(165, 201),4	26843,(35, 201),4	26855,(39, 201),4	26859,(41, 201),4	26867,(47, 201),4	26875,(48, 201),4	26887,(54, 201),4	26899,(72, 201),4	26907,(74, 201),4	26915,(75, 201),4	26923,(78, 201),4	26931,(97, 201),4	26935,(107, 201),4	26947,(114, 201),4	26967,(149, 201),4	26991,(169, 201),4	26999,(175, 201),4	27023,(187, 201),4	27027,(188, 201),4	
1,(0, 2),2	3,(0, 3),2	5,(0, 4),2	7,(0, 5),2	9,(0, 6),2	11,(0, 8),2	13,(0, 9),2	15,(0, 10),2	17,(0, 11),2	19,(0, 12),2	21,(0, 13),2	23,(0, 14),2	25,(0, 15),2	27,(0, 17),2	29,(0, 18),2	31,(1, 21),4	35,(1, 23),2	37,(1, 26),38	75,(1, 28),1762	1837,(1, 29),4	1841,(1, 30),2	1843,(1, 33),2	1845,(1, 37),10	1855,(1, 38),6	1861,(1, 43),2	1863,(1, 44),46	1909,(1, 45),8	1917,(1, 46),2	1919,(1, 47),2	1921,(1, 49),2	1923,(1, 50),2	1925,(1, 53),4	1929,(1, 61),186	2115,(1, 65),30	2145,(1, 66),18	2163,(1, 71),2	2165,(1, 72),4	2169,(1, 74),10	2179,(1, 76),2	2181,(1, 78),42	2223,(1, 79),2	2225,(1, 83),2	2227,(1, 85),14	2241,(1, 87),32	2273,(1, 88),2	2275,(1, 89),2	2277,(1, 90),42	2319,(1, 92),2	2321,(1, 93),2	2323,(1, 100),2	2325,(1, 101),6	2331,(1, 105),104	2435,(1, 107),2	2437,(1, 108),2	2439,(1, 109),16	2455,(1, 111),24	2479,(1, 115),32	2511,(1, 116),2	2513,(1, 117),58	2571,(1, 121),10	2581,(1, 123),30	2611,(1, 128),2	2613,(1, 132),2	2615,(1, 134),2	2617,(1, 135),10	2627,(1, 136),2	2629,(1, 138),4	2633,(1, 141),24	2657,(1, 143),2	2659,(1, 145),40	2699,(1, 146),28	2727,(1, 148),8	2735,(1, 149),6	2741,(1, 152),222	2963,(1, 154),2	2965,(1, 157),48	3013,(1, 158),6	3019,(1, 163),4	3023,(1, 164),2	3025,(1, 165),2	3027,(1, 166),2	3029,(1, 169),52	3081,(1, 170),10	3091,(1, 172),11410	14501,(1, 175),34	14535,(1, 181),50	14585,(1, 183),2	14587,(1, 185),2	14589,(1, 186),2	14591,(1, 189),138	14729,(1, 194),20	14749,(1, 197),26	14775,(1, 198),16	14791,(1, 199),6	14797,(20, 21),44	14841,(20, 25),16	14857,(20, 27),12	14869,(20, 29),12	14881,(20, 30),22	14903,(20, 35),6	14909,(20, 37),10	14919,(20, 38),6	14925,(20, 39),2	14927,(20, 43),24	14951,(20, 44),4	14955,(20, 46),2	14957,(20, 47),4	14961,(20, 48),70	15031,(20, 52),6	15037,(20, 54),100	15137,(20, 57),78	15215,(20, 60),4	15219,(20, 63),8	15227,(20, 65),10	15237,(20, 76),6	15243,(20, 78),22	15265,(20, 80),6	15271,(20, 82),4	15275,(20, 85),6	15281,(20, 86),6	15287,(20, 87),22	15309,(20, 97),4	15313,(20, 99),2	15315,(20, 102),16	15331,(20, 105),4	15335,(20, 106),10	15345,(20, 108),4	15349,(20, 111),40	15389,(20, 114),2	15391,(20, 118),2	15393,(20, 126),6	15399,(20, 128),2	15401,(20, 131),2	15403,(20, 133),8	15411,(20, 136),2	15413,(20, 137),2	15415,(20, 139),14	15429,(20, 142),2	15431,(20, 146),12	15443,(20, 150),88	15531,(20, 151),32	15563,(20, 155),2	15565,(20, 157),20	15585,(20, 163),24	15609,(20, 164),32	15641,(20, 165),8	15649,(20, 168),2	15651,(20, 174),2	15653,(20, 178),2	15655,(20, 181),12	15667,(20, 187),4	15671,(20, 191),2	15673,(20, 195),2	15675,(7, 21),4	15679,(7, 22),18	15697,(7, 23),2	15699,(7, 25),10	15709,(7, 29),14	15723,(7, 30),20	15743,(7, 37),10	15753,(7, 41),16	15769,(7, 43),2	15771,(7, 46),4	15775,(7, 50),2	15777,(7, 54),2	15779,(7, 57),10	15789,(7, 66),2	15791,(7, 70),2	15793,(7, 72),32	15825,(7, 75),28	15853,(7, 76),6	15859,(7, 82),10	15869,(7, 85),22	15891,(7, 92),28	15919,(7, 99),4	15923,(7, 102),4	15927,(7, 103),2	15929,(7, 105),4	15933,(7, 108),10	15943,(7, 109),4	15947,(7, 114),32	15979,(7, 116),4	15983,(7, 120),2	15985,(7, 121),40	16025,(7, 125),6	16031,(7, 126),38	16069,(7, 129),16	16085,(7, 131),2	16087,(7, 133),14	16101,(7, 134),12	16113,(7, 137),16	16129,(7, 139),2	16131,(7, 142),14	16145,(7, 144),2	16147,(7, 145),10	16157,(7, 146),6	16163,(7, 149),10	16173,(7, 150),6	16179,(7, 151),14	16193,(7, 154),8	16201,(7, 157),2	16203,(7, 162),4	16207,(7, 164),2	16209,(7, 167),18	16227,(7, 174),14	16241,(7, 177),10	16251,(7, 182),8	16259,(7, 186),2	16261,(7, 188),6	16267,(7, 191),2	16269,(7, 192),10	16279,(7, 194),6	16285,(16, 21),46	16331,(16, 25),38	16369,(16, 27),6	16375,(16, 29),2	16377,(16, 32),10	16387,(16, 45),12	16399,(16, 46),12	16411,(16, 48),4	16415,(16, 50),16	16431,(16, 52),6	16437,(16, 54),2	16439,(16, 63),2	16441,(16, 66),52	16493,(16, 69),12	16505,(16, 72),14	16519,(16, 76),16	16535,(16, 80),2	16537,(16, 81),4	16541,(16, 85),20	16561,(16, 86),4	16565,(16, 92),6	16571,(16, 93),12	16583,(16, 103),2	16585,(16, 108),8	16593,(16, 123),2	16595,(16, 126),2	16597,(16, 128),44	16641,(16, 129),4	16645,(16, 134),2	16647,(16, 139),12	16659,(16, 142),2	16661,(16, 146),2	16663,(16, 149),24	16687,(16, 150),2	16689,(16, 151),12	16701,(16, 155),8	16709,(16, 163),14	16723,(16, 164),12	16735,(16, 165),4	16739,(16, 167),18	16757,(16, 178),2	16759,(16, 181),4	16763,(16, 182),40	16803,(16, 187),26	16829,(16, 191),10	16839,(16, 192),44	16883,(16, 195),2	16885,(16, 196),66	16951,(19, 29),2	16953,(19, 32),6	16959,(19, 35),6	16965,(19, 38),20	16985,(19, 39),2	16987,(19, 41),34	17021,(19, 46),20	17041,(19, 47),42	17083,(19, 48),2	17085,(19, 49),2	17087,(19, 54),12	17099,(19, 57),4	17103,(19, 63),2	17105,(19, 70),2	17107,(19, 72),4	17111,(19, 74),2	17113,(19, 75),2	17115,(19, 77),4	17119,(19, 78),18	17137,(19, 81),14	17151,(19, 82),4	17155,(19, 92),28	17183,(19, 97),8	17191,(19, 105),2	17193,(19, 107),2	17195,(19, 108),54	17249,(19, 111),30	17279,(19, 114),50	17329,(19, 126),2	17331,(19, 128),38	17369,(19, 133),100	17469,(19, 137),4	17473,(19, 144),2	17475,(19, 145),2	17477,(19, 149),2	17479,(19, 157),4	17483,(19, 162),8	17491,(19, 164),30	17521,(19, 167),12	17533,(19, 169),2	17535,(19, 174),2	17537,(19, 175),4	17541,(19, 177),36	17577,(19, 181),2	17579,(19, 182),2	17581,(19, 186),6	17587,(19, 187),18	17605,(19, 188),4	17609,(19, 191),18	17627,(19, 195),84	17711,(19, 197),10	18757,(20, 31),12	18769,(20, 53),164	18933,(20, 58),16	18949,(20, 61),4	18953,(20, 71),2	18955,(20, 88),6	18961,(20, 89),18	18979,(20, 101),10	18989,(20, 110),2	18991,(20, 113),14	19005,(20, 132),2	19007,(20, 135),66	19073,(20, 138),18	19091,(20, 148),2	19093,(20, 152),56	19149,(20, 153),2	19151,(20, 158),274	19425,(20, 166),32	19457,(20, 170),24	19481,(20, 172),54	19535,(20, 183),2	19537,(20, 185),496	22127,(7, 28),8	22135,(7, 31),14	22149,(7, 33),14	22163,(7, 34),60	22223,(7, 53),268	22491,(7, 58),6	22497,(7, 61),62	22559,(7, 79),2	22561,(7, 101),46	22607,(7, 110),6	22613,(7, 135),2	22615,(7, 138),4	22619,(7, 147),8	22627,(7, 148),10	22637,(7, 152),6	22643,(7, 156),2	22645,(7, 158),6	22651,(7, 166),12	24423,(16, 26),2	24425,(16, 33),2	24427,(16, 34),8	24435,(16, 53),224	24659,(16, 58),8	24667,(16, 61),18	24685,(16, 79),4	24689,(16, 89),2	24691,(16, 90),8	24699,(16, 117),4	24703,(16, 147),2	24705,(16, 158),104	24809,(16, 172),68	24877,(16, 185),2	26079,(19, 31),54	26133,(19, 34),4	26137,(19, 53),30	26167,(19, 58),30	26197,(19, 61),12	26209,(19, 79),2	26211,(19, 90),16	26227,(19, 100),2	26229,(19, 101),48	26277,(19, 110),2	26279,(19, 113),26	26305,(19, 117),30	26335,(19, 141),6	26341,(19, 153),38	26379,(19, 158),16	26395,(19, 172),66	26461,(19, 173),2	26463,(19, 183),2	26465,(19, 185),4	26469,(19, 189),2	26475,(36, 201),4	26487,(73, 201),4	26499,(55, 201),4	26503,(159, 201),4	26507,(62, 201),4	26511,(40, 201),4	26515,(42, 201),4	26519,(95, 201),4	26523,(140, 201),4	26527,(127, 201),4	26531,(68, 201),4	26535,(179, 201),4	26539,(119, 201),4	26543,(130, 201),4	26547,(184, 201),4	26551,(161, 201),4	26555,(200, 201),4	26559,(24, 201),4	26563,(51, 201),4	26567,(56, 201),4	26571,(84, 201),4	26575,(98, 201),4	26579,(180, 201),4	26583,(59, 201),4	26587,(64, 201),4	26591,(67, 201),4	26595,(91, 201),4	26599,(94, 201),4	26603,(96, 201),4	26607,(104, 201),4	26611,(112, 201),4	26615,(122, 201),4	26619,(124, 201),4	26623,(171, 201),4	26627,(190, 201),4	
