4238
# CPU
2396,38,2	2399,78,2	2411,18,2	2416,58,2	3059,48,2	3072,68,2	3366,28,2	
3429,77,2	3431,17,2	3510,47,2	3519,67,2	3522,37,2	3528,27,2	3536,57,2	
3333,8,2	3335,26,2	3337,36,2	3381,46,2	3397,16,2	3408,66,2	3410,76,2	3534,56,2	
2857,7,2	2865,75,2	2879,25,2	2924,45,2	2951,65,2	3346,15,2	3390,55,2	3432,35,2	
2381,6,2	2386,24,2	2402,14,2	2414,54,2	2457,64,2	2500,74,2	3373,34,2	3502,44,2	
1905,5,2	1907,23,2	2386,13,2	3136,73,2	3388,43,2	3390,53,2	3416,33,2	3649,63,2	
1429,4,2	1445,42,2	2412,52,2	2415,32,2	3336,22,2	3340,12,2	3532,62,2	3549,72,2	
953,3,2	1909,11,2	2956,21,2	2968,31,2	3061,61,2	3442,41,2	3506,51,2	3521,71,2	
477,2,2	479,40,2	956,10,2	2411,30,2	2413,50,2	3355,20,2	3520,60,2	3656,70,2	3661,80,2	
0,0,1	1,1,2	2473,49,2	2526,19,2	2528,79,2	2591,39,2	2933,9,2	3060,59,2	3088,69,2	3371,29,2	4237,81,1	
# Incoming
2394,(2, 38),2	2396,(5, 58),2	2398,(5, 78),1	2399,(6, 18),12	2411,(6, 68),1	2414,(4, 58),2	2956,(7, 28),9	2968,(7, 48),91	3061,(7, 68),11	3355,(8, 28),11	
3336,(1, 27),71	3407,(3, 27),8	3415,(3, 67),7	3422,(3, 77),7	3429,(4, 17),1	3430,(4, 47),80	3510,(4, 67),9	3519,(5, 57),1	3520,(6, 37),2	3522,(8, 27),6	3534,(1, 57),2	
2857,(0, 8),476	3333,(2, 36),3	3336,(2, 46),40	3376,(3, 46),5	3381,(6, 16),7	3388,(7, 16),9	3397,(7, 66),11	3408,(7, 76),1	3506,(1, 56),28	
2381,(0, 7),476	2857,(3, 55),6	2863,(3, 75),2	2865,(4, 15),3	2868,(4, 25),11	2879,(4, 35),42	2921,(5, 45),3	2924,(5, 65),27	2951,(6, 15),10	3340,(8, 15),6	3389,(8, 55),1	3416,(1, 35),16	
1905,(0, 6),476	2381,(2, 24),5	2386,(3, 14),10	2396,(4, 14),6	2402,(5, 44),2	2413,(4, 54),1	2414,(5, 34),15	2443,(2, 64),3	2456,(4, 64),1	2457,(4, 74),2	2459,(5, 74),41	3372,(8, 34),1	3442,(1, 44),60	
1429,(0, 5),476	2383,(6, 13),3	2411,(4, 43),1	2412,(2, 53),7	2419,(4, 53),36	2455,(4, 63),1	3135,(7, 73),1	3371,(8, 33),1	3374,(8, 43),14	3388,(8, 53),1	3407,(1, 33),9	3532,(8, 63),117	
953,(0, 4),476	1429,(3, 42),16	1445,(3, 52),1	2386,(2, 32),8	2396,(2, 52),16	2412,(6, 32),3	2419,(2, 62),24	3333,(1, 22),3	3336,(8, 12),4	3528,(8, 62),4	3536,(1, 72),13	
477,(0, 3),476	1907,(5, 11),2	1910,(5, 31),1	2386,(6, 61),1	2402,(4, 21),3	2446,(2, 71),2	2933,(7, 21),23	2965,(7, 31),3	3060,(7, 61),1	3088,(7, 71),47	3373,(8, 41),1	3432,(1, 41),10	3502,(1, 51),4	3520,(8, 71),1	
1,(0, 2),476	955,(3, 10),1	1909,(5, 30),1	2387,(6, 80),1	2405,(4, 30),6	2412,(4, 50),1	2416,(4, 60),3	2419,(6, 70),74	3346,(8, 20),9	3390,(8, 60),130	3649,(8, 70),7	3656,(8, 80),5	
2448,(40, 81),24	2472,(3, 49),1	2473,(10, 81),24	2497,(4, 19),3	2500,(4, 39),1	2501,(42, 81),24	2525,(5, 19),1	2526,(5, 79),1	2527,(23, 81),24	2551,(11, 81),24	2575,(6, 39),16	2591,(6, 59),2	2593,(24, 81),24	2617,(13, 81),24	2641,(38, 81),24	2665,(78, 81),24	2689,(14, 81),24	2713,(18, 81),24	2737,(30, 81),24	2761,(52, 81),24	2785,(50, 81),24	2809,(54, 81),24	2833,(32, 81),24	2857,(58, 81),24	2881,(64, 81),24	2905,(74, 81),24	2929,(7, 9),4	2958,(21, 81),24	2982,(31, 81),24	3059,(7, 59),1	3072,(7, 69),16	3088,(48, 81),24	3112,(61, 81),24	3136,(75, 81),24	3160,(25, 81),24	3184,(45, 81),24	3208,(65, 81),24	3232,(68, 81),24	3256,(73, 81),24	3338,(22, 81),24	3366,(8, 29),5	3371,(12, 81),24	3409,(15, 81),24	3433,(20, 81),24	3457,(28, 81),24	3481,(34, 81),24	3520,(43, 81),24	3544,(53, 81),24	3568,(55, 81),24	3592,(33, 81),24	3616,(77, 81),24	3661,(26, 81),24	3685,(36, 81),24	3709,(46, 81),24	3733,(16, 81),24	3757,(66, 81),24	3781,(76, 81),24	3805,(17, 81),24	3829,(35, 81),24	3853,(41, 81),24	3877,(44, 81),24	3901,(51, 81),24	3925,(47, 81),24	3949,(67, 81),24	3973,(60, 81),24	3997,(71, 81),24	4021,(37, 81),24	4045,(27, 81),24	4069,(62, 81),24	4093,(56, 81),24	4117,(57, 81),24	4141,(72, 81),24	4165,(63, 81),24	4189,(70, 81),24	4213,(80, 81),24	
# Outgoing
2641,(38, 81),24	2665,(78, 81),24	2713,(18, 81),24	2857,(58, 81),24	3088,(48, 81),24	3232,(68, 81),24	3457,(28, 81),24	
3616,(77, 81),24	3805,(17, 81),24	3925,(47, 81),24	3949,(67, 81),24	4021,(37, 81),24	4045,(27, 81),24	4117,(57, 81),24	
3336,(8, 12),4	3340,(8, 15),6	3346,(8, 20),9	3355,(8, 28),11	3366,(8, 29),5	3371,(8, 33),1	3372,(8, 34),1	3373,(8, 41),1	3374,(8, 43),14	3388,(8, 53),1	3389,(8, 55),1	3390,(8, 60),130	3520,(8, 71),1	3522,(8, 27),6	3528,(8, 62),4	3532,(8, 63),117	3649,(8, 70),7	3656,(8, 80),5	3661,(26, 81),24	3685,(36, 81),24	3709,(46, 81),24	3733,(16, 81),24	3757,(66, 81),24	3781,(76, 81),24	4093,(56, 81),24	
2929,(7, 9),4	2933,(7, 21),23	2956,(7, 28),9	2965,(7, 31),3	2968,(7, 48),91	3059,(7, 59),1	3060,(7, 61),1	3061,(7, 68),11	3072,(7, 69),16	3088,(7, 71),47	3135,(7, 73),1	3136,(75, 81),24	3160,(25, 81),24	3184,(45, 81),24	3208,(65, 81),24	3388,(7, 16),9	3397,(7, 66),11	3408,(7, 76),1	3409,(15, 81),24	3568,(55, 81),24	3829,(35, 81),24	
2383,(6, 13),3	2386,(6, 61),1	2387,(6, 80),1	2399,(6, 18),12	2411,(6, 68),1	2412,(6, 32),3	2419,(6, 70),74	2575,(6, 39),16	2591,(6, 59),2	2593,(24, 81),24	2689,(14, 81),24	2809,(54, 81),24	2881,(64, 81),24	2905,(74, 81),24	2951,(6, 15),10	3381,(6, 16),7	3481,(34, 81),24	3520,(6, 37),2	3877,(44, 81),24	
1907,(5, 11),2	1909,(5, 30),1	1910,(5, 31),1	2396,(5, 58),2	2398,(5, 78),1	2402,(5, 44),2	2414,(5, 34),15	2459,(5, 74),41	2525,(5, 19),1	2526,(5, 79),1	2527,(23, 81),24	2617,(13, 81),24	2921,(5, 45),3	2924,(5, 65),27	3256,(73, 81),24	3519,(5, 57),1	3520,(43, 81),24	3544,(53, 81),24	3592,(33, 81),24	4165,(63, 81),24	
2396,(4, 14),6	2402,(4, 21),3	2405,(4, 30),6	2411,(4, 43),1	2412,(4, 50),1	2413,(4, 54),1	2414,(4, 58),2	2416,(4, 60),3	2419,(4, 53),36	2455,(4, 63),1	2456,(4, 64),1	2457,(4, 74),2	2497,(4, 19),3	2500,(4, 39),1	2501,(42, 81),24	2761,(52, 81),24	2833,(32, 81),24	2865,(4, 15),3	2868,(4, 25),11	2879,(4, 35),42	3338,(22, 81),24	3371,(12, 81),24	3429,(4, 17),1	3430,(4, 47),80	3510,(4, 67),9	4069,(62, 81),24	4141,(72, 81),24	
955,(3, 10),1	1429,(3, 42),16	1445,(3, 52),1	2386,(3, 14),10	2472,(3, 49),1	2551,(11, 81),24	2857,(3, 55),6	2863,(3, 75),2	2958,(21, 81),24	2982,(31, 81),24	3112,(61, 81),24	3376,(3, 46),5	3407,(3, 27),8	3415,(3, 67),7	3422,(3, 77),7	3853,(41, 81),24	3901,(51, 81),24	3997,(71, 81),24	
2381,(2, 24),5	2386,(2, 32),8	2394,(2, 38),2	2396,(2, 52),16	2412,(2, 53),7	2419,(2, 62),24	2443,(2, 64),3	2446,(2, 71),2	2448,(40, 81),24	2473,(10, 81),24	2737,(30, 81),24	2785,(50, 81),24	3333,(2, 36),3	3336,(2, 46),40	3433,(20, 81),24	3973,(60, 81),24	4189,(70, 81),24	4213,(80, 81),24	
1,(0, 2),476	477,(0, 3),476	953,(0, 4),476	1429,(0, 5),476	1905,(0, 6),476	2381,(0, 7),476	2857,(0, 8),476	3333,(1, 22),3	3336,(1, 27),71	3407,(1, 33),9	3416,(1, 35),16	3432,(1, 41),10	3442,(1, 44),60	3502,(1, 51),4	3506,(1, 56),28	3534,(1, 57),2	3536,(1, 72),13	
