2366
# CPU
17,5,31	48,14,31	79,23,31	110,42,31	141,19,31	172,62,31	203,47,31	234,10,31	392,52,31	423,77,31	454,27,31	485,67,31	516,72,31	547,37,31	578,57,31	616,32,31	
13,4,31	59,28,31	133,9,31	164,73,31	195,24,31	226,63,31	257,68,31	306,17,31	337,20,31	368,38,31	399,48,31	430,53,31	461,78,31	492,33,31	523,43,31	554,58,31	
9,3,31	40,8,31	71,13,31	102,25,31	133,35,31	164,60,31	195,55,31	226,40,31	257,18,31	288,50,31	319,65,31	350,70,31	381,21,31	412,30,31	443,80,31	474,75,31	505,45,31	
5,2,31	36,7,31	67,12,31	98,36,31	129,31,31	160,56,31	191,46,31	222,26,31	253,61,31	284,71,31	315,51,31	346,22,31	377,41,31	408,66,31	439,76,31	470,16,31	
0,0,1	1,1,31	32,6,31	320,11,31	351,15,31	382,29,31	413,49,31	1956,79,31	2117,39,31	2148,54,31	2179,44,31	2210,59,31	2241,64,31	2272,74,31	2303,34,31	2334,69,31	2365,81,1	
# Incoming
13,(0, 5),4	40,(3, 10),1	44,(4, 19),7	53,(3, 52),1	57,(1, 27),4	61,(3, 67),1	68,(3, 62),4	72,(4, 47),11	83,(8, 47),2	85,(8, 72),8	133,(2, 10),3	138,(2, 27),5	143,(2, 32),1	166,(2, 52),41	272,(1, 52),120	392,(2, 77),1	393,(7, 27),4	397,(7, 57),2	399,(7, 67),8	407,(1, 72),5	466,(6, 37),1	495,(6, 57),1	496,(8, 32),120	
9,(0, 4),4	32,(1, 20),24	56,(1, 24),1	57,(3, 28),2	59,(3, 53),1	60,(5, 9),3	63,(1, 38),26	89,(2, 9),44	133,(8, 43),1	134,(8, 73),1	136,(2, 24),2	144,(2, 33),14	158,(2, 38),1	159,(2, 48),6	165,(3, 68),22	207,(2, 63),1	208,(8, 38),21	240,(2, 68),3	303,(7, 17),3	306,(7, 20),14	342,(7, 38),15	357,(7, 48),2	392,(1, 53),1	393,(1, 58),1	417,(1, 78),16	465,(6, 33),1	467,(6, 43),23	496,(6, 58),11	
5,(0, 3),4	21,(0, 8),4	51,(4, 25),2	53,(4, 30),1	62,(1, 35),1	63,(5, 60),3	89,(1, 40),1	90,(4, 75),13	103,(5, 18),45	165,(2, 50),1	208,(2, 65),32	243,(2, 70),7	320,(7, 21),21	341,(7, 30),1	359,(7, 80),1	412,(1, 75),1	490,(6, 45),5	
1,(0, 2),4	17,(0, 7),4	41,(3, 36),11	52,(3, 51),1	54,(3, 61),3	57,(4, 31),1	61,(1, 31),1	62,(3, 46),6	68,(5, 26),1	69,(5, 61),1	70,(5, 71),1	72,(8, 51),1	83,(4, 71),5	90,(1, 51),182	272,(3, 76),23	328,(8, 22),15	343,(8, 41),14	394,(1, 66),13	413,(1, 76),4	433,(6, 16),32	
250,(2, 74),53	303,(3, 11),17	320,(3, 15),1	321,(3, 29),3	324,(3, 69),3	327,(3, 74),1	328,(4, 49),17	345,(4, 79),1611	1956,(5, 39),161	2117,(5, 54),11	2128,(7, 44),7	2135,(7, 59),27	2162,(7, 64),12	2174,(7, 74),40	2214,(8, 34),1	2215,(8, 69),9	2224,(14, 81),2	2226,(28, 81),2	2228,(12, 81),2	2230,(13, 81),2	2232,(23, 81),2	2234,(36, 81),2	2236,(25, 81),2	2238,(42, 81),2	2240,(31, 81),2	2242,(9, 81),2	2244,(35, 81),2	2246,(19, 81),2	2248,(56, 81),2	2250,(60, 81),2	2252,(73, 81),2	2254,(62, 81),2	2256,(46, 81),2	2258,(24, 81),2	2260,(55, 81),2	2262,(47, 81),2	2264,(26, 81),2	2266,(63, 81),2	2268,(40, 81),2	2270,(10, 81),2	2272,(61, 81),2	2274,(18, 81),2	2276,(68, 81),2	2278,(71, 81),2	2280,(50, 81),2	2282,(17, 81),2	2284,(51, 81),2	2286,(65, 81),2	2288,(20, 81),2	2290,(22, 81),2	2292,(70, 81),2	2294,(38, 81),2	2296,(41, 81),2	2298,(21, 81),2	2300,(52, 81),2	2302,(48, 81),2	2304,(66, 81),2	2306,(30, 81),2	2308,(77, 81),2	2310,(53, 81),2	2312,(76, 81),2	2314,(80, 81),2	2316,(27, 81),2	2318,(78, 81),2	2320,(16, 81),2	2322,(75, 81),2	2324,(67, 81),2	2326,(33, 81),2	2328,(45, 81),2	2330,(72, 81),2	2332,(43, 81),2	2334,(37, 81),2	2336,(58, 81),2	2338,(57, 81),2	2340,(32, 81),2	
# Outgoing
60,(5, 9),3	63,(5, 60),3	68,(5, 26),1	69,(5, 61),1	70,(5, 71),1	103,(5, 18),45	1956,(5, 39),161	2117,(5, 54),11	2224,(14, 81),2	2232,(23, 81),2	2238,(42, 81),2	2246,(19, 81),2	2254,(62, 81),2	2262,(47, 81),2	2270,(10, 81),2	2300,(52, 81),2	2308,(77, 81),2	2316,(27, 81),2	2324,(67, 81),2	2330,(72, 81),2	2334,(37, 81),2	2338,(57, 81),2	2340,(32, 81),2	
44,(4, 19),7	51,(4, 25),2	53,(4, 30),1	57,(4, 31),1	72,(4, 47),11	83,(4, 71),5	90,(4, 75),13	328,(4, 49),17	345,(4, 79),1611	2226,(28, 81),2	2242,(9, 81),2	2252,(73, 81),2	2258,(24, 81),2	2266,(63, 81),2	2276,(68, 81),2	2282,(17, 81),2	2288,(20, 81),2	2294,(38, 81),2	2302,(48, 81),2	2310,(53, 81),2	2318,(78, 81),2	2326,(33, 81),2	2332,(43, 81),2	2336,(58, 81),2	
40,(3, 10),1	41,(3, 36),11	52,(3, 51),1	53,(3, 52),1	54,(3, 61),3	57,(3, 28),2	59,(3, 53),1	61,(3, 67),1	62,(3, 46),6	68,(3, 62),4	72,(8, 51),1	83,(8, 47),2	85,(8, 72),8	133,(8, 43),1	134,(8, 73),1	165,(3, 68),22	208,(8, 38),21	272,(3, 76),23	303,(3, 11),17	320,(3, 15),1	321,(3, 29),3	324,(3, 69),3	327,(3, 74),1	328,(8, 22),15	343,(8, 41),14	496,(8, 32),120	2214,(8, 34),1	2215,(8, 69),9	2230,(13, 81),2	2236,(25, 81),2	2244,(35, 81),2	2250,(60, 81),2	2260,(55, 81),2	2268,(40, 81),2	2274,(18, 81),2	2280,(50, 81),2	2286,(65, 81),2	2292,(70, 81),2	2298,(21, 81),2	2306,(30, 81),2	2314,(80, 81),2	2322,(75, 81),2	2328,(45, 81),2	
89,(2, 9),44	133,(2, 10),3	136,(2, 24),2	138,(2, 27),5	143,(2, 32),1	144,(2, 33),14	158,(2, 38),1	159,(2, 48),6	165,(2, 50),1	166,(2, 52),41	207,(2, 63),1	208,(2, 65),32	240,(2, 68),3	243,(2, 70),7	250,(2, 74),53	303,(7, 17),3	306,(7, 20),14	320,(7, 21),21	341,(7, 30),1	342,(7, 38),15	357,(7, 48),2	359,(7, 80),1	392,(2, 77),1	393,(7, 27),4	397,(7, 57),2	399,(7, 67),8	2128,(7, 44),7	2135,(7, 59),27	2162,(7, 64),12	2174,(7, 74),40	2228,(12, 81),2	2234,(36, 81),2	2240,(31, 81),2	2248,(56, 81),2	2256,(46, 81),2	2264,(26, 81),2	2272,(61, 81),2	2278,(71, 81),2	2284,(51, 81),2	2290,(22, 81),2	2296,(41, 81),2	2304,(66, 81),2	2312,(76, 81),2	2320,(16, 81),2	
1,(0, 2),4	5,(0, 3),4	9,(0, 4),4	13,(0, 5),4	17,(0, 7),4	21,(0, 8),4	32,(1, 20),24	56,(1, 24),1	57,(1, 27),4	61,(1, 31),1	62,(1, 35),1	63,(1, 38),26	89,(1, 40),1	90,(1, 51),182	272,(1, 52),120	392,(1, 53),1	393,(1, 58),1	394,(1, 66),13	407,(1, 72),5	412,(1, 75),1	413,(1, 76),4	417,(1, 78),16	433,(6, 16),32	465,(6, 33),1	466,(6, 37),1	467,(6, 43),23	490,(6, 45),5	495,(6, 57),1	496,(6, 58),11	
