2558
# CPU
0,0,1	1,8,8	9,9,8	17,2,8	25,11,8	33,10,8	41,5,8	49,74,8	57,14,8	65,115,8	73,66,8	81,67,8	89,57,8	97,58,8	105,34,8	113,86,8	121,29,8	129,73,8	137,118,8	145,62,8	153,98,8	161,30,8	169,40,8	177,72,8	185,83,8	193,45,8	201,46,8	209,18,8	217,42,8	225,80,8	233,113,8	241,33,8	249,39,8	297,53,8	305,61,8	377,106,8	385,107,8	429,56,8	557,94,8	597,102,8	629,44,8	637,48,8	805,76,8	813,77,8	825,78,8	885,96,8	893,97,8	901,110,8	909,112,8	917,119,8	925,15,8	933,43,8	1033,90,8	1041,99,8	1245,50,8	1285,64,8	1313,70,8	1349,71,8	1357,85,8	1401,87,8	1409,103,8	2557,121,1	
5,1,8	13,3,8	21,4,8	29,54,8	37,6,8	45,7,8	53,114,8	61,120,8	69,92,8	77,28,8	85,19,8	93,12,8	101,27,8	109,37,8	117,111,8	125,101,8	133,47,8	141,23,8	149,84,8	157,20,8	165,100,8	173,117,8	181,52,8	189,55,8	197,25,8	205,32,8	213,108,8	221,81,8	229,95,8	237,38,8	245,59,8	253,21,8	261,16,8	269,13,8	277,93,8	285,105,8	293,109,8	301,24,8	309,31,8	317,68,8	325,91,8	333,51,8	341,60,8	349,63,8	357,69,8	365,79,8	373,88,8	381,116,8	389,17,8	397,26,8	405,35,8	413,65,8	421,22,8	429,36,8	437,89,8	445,41,8	453,49,8	461,75,8	469,82,8	477,104,8	
# Incoming
13,(1, 39),24	37,(1, 53),80	117,(1, 80),4	121,(1, 87),20	141,(1, 90),12	153,(1, 113),12	165,(3, 33),12	177,(3, 39),28	205,(3, 53),92	297,(3, 61),4	301,(3, 78),4	305,(3, 97),68	373,(3, 106),4	377,(3, 107),4	381,(3, 110),4	385,(4, 15),4	389,(4, 44),36	425,(4, 56),4	429,(4, 94),128	557,(4, 102),40	597,(54, 121),24	621,(6, 15),4	625,(6, 44),4	629,(6, 48),4	633,(6, 50),160	793,(6, 64),8	801,(6, 76),4	805,(6, 77),4	809,(6, 78),16	825,(6, 87),56	881,(6, 96),4	885,(6, 97),4	889,(6, 110),4	893,(6, 112),4	897,(6, 119),4	901,(7, 15),4	905,(7, 43),12	917,(7, 90),116	1033,(7, 99),4	1037,(114, 121),24	1061,(120, 121),24	1085,(92, 121),24	1109,(28, 121),24	1133,(19, 121),24	1157,(12, 50),88	1245,(12, 64),40	1285,(12, 70),28	1313,(12, 71),36	1349,(12, 85),4	1353,(12, 87),48	1401,(12, 103),4	1405,(27, 121),24	1429,(37, 121),24	1453,(111, 121),24	1477,(101, 121),24	1501,(47, 121),24	1525,(23, 121),24	1549,(84, 121),24	1573,(20, 121),24	1597,(100, 121),24	1621,(117, 121),24	1645,(52, 121),24	1669,(55, 121),24	1693,(25, 121),24	1717,(32, 121),24	1741,(108, 121),24	1765,(81, 121),24	1789,(95, 121),24	1813,(38, 121),24	1837,(59, 121),24	1861,(21, 121),24	1885,(16, 121),24	1909,(13, 121),24	1933,(93, 121),24	1957,(105, 121),24	1981,(109, 121),24	2005,(24, 121),24	2029,(31, 121),24	2053,(68, 121),24	2077,(91, 121),24	2101,(51, 121),24	2125,(60, 121),24	2149,(63, 121),24	2173,(69, 121),24	2197,(79, 121),24	2221,(88, 121),24	2245,(116, 121),24	2269,(17, 121),24	2293,(26, 121),24	2317,(35, 121),24	2341,(65, 121),24	2365,(22, 121),24	2389,(36, 121),24	2413,(89, 121),24	2437,(41, 121),24	2461,(49, 121),24	2485,(75, 121),24	2509,(82, 121),24	2533,(104, 121),24	
1,(0, 1),4	5,(0, 3),4	9,(0, 4),4	13,(0, 6),4	17,(0, 7),4	21,(0, 12),4	25,(8, 17),4	29,(8, 23),12	41,(8, 24),20	61,(8, 25),20	81,(8, 32),4	85,(8, 49),16	101,(8, 51),20	121,(8, 69),4	125,(8, 93),8	133,(8, 104),44	177,(8, 105),8	185,(8, 109),12	197,(9, 24),36	233,(9, 31),4	237,(9, 41),8	245,(9, 68),4	249,(9, 75),4	253,(9, 82),4	257,(9, 91),4	261,(2, 17),4	265,(2, 51),32	297,(2, 60),8	305,(2, 63),4	309,(2, 69),4	313,(2, 79),24	337,(2, 88),4	341,(2, 116),4	345,(11, 17),4	349,(11, 26),8	357,(11, 35),32	389,(11, 65),8	397,(11, 104),4	401,(10, 22),12	413,(10, 36),8	421,(10, 89),8	429,(10, 104),4	433,(5, 41),4	437,(5, 49),4	441,(5, 75),4	445,(5, 82),4	449,(5, 104),4	
# Outgoing
1,(0, 1),4	5,(0, 3),4	9,(0, 4),4	13,(0, 6),4	17,(0, 7),4	21,(0, 12),4	25,(8, 17),4	29,(8, 23),12	41,(8, 24),20	61,(8, 25),20	81,(8, 32),4	85,(8, 49),16	101,(8, 51),20	121,(8, 69),4	125,(8, 93),8	133,(8, 104),44	177,(8, 105),8	185,(8, 109),12	197,(9, 24),36	233,(9, 31),4	237,(9, 41),8	245,(9, 68),4	249,(9, 75),4	253,(9, 82),4	257,(9, 91),4	261,(2, 17),4	265,(2, 51),32	297,(2, 60),8	305,(2, 63),4	309,(2, 69),4	313,(2, 79),24	337,(2, 88),4	341,(2, 116),4	345,(11, 17),4	349,(11, 26),8	357,(11, 35),32	389,(11, 65),8	397,(11, 104),4	401,(10, 22),12	413,(10, 36),8	421,(10, 89),8	429,(10, 104),4	433,(5, 41),4	437,(5, 49),4	441,(5, 75),4	445,(5, 82),4	449,(5, 104),4	
13,(1, 39),24	37,(1, 53),80	117,(1, 80),4	121,(1, 87),20	141,(1, 90),12	153,(1, 113),12	165,(3, 33),12	177,(3, 39),28	205,(3, 53),92	297,(3, 61),4	301,(3, 78),4	305,(3, 97),68	373,(3, 106),4	377,(3, 107),4	381,(3, 110),4	385,(4, 15),4	389,(4, 44),36	425,(4, 56),4	429,(4, 94),128	557,(4, 102),40	597,(54, 121),24	621,(6, 15),4	625,(6, 44),4	629,(6, 48),4	633,(6, 50),160	793,(6, 64),8	801,(6, 76),4	805,(6, 77),4	809,(6, 78),16	825,(6, 87),56	881,(6, 96),4	885,(6, 97),4	889,(6, 110),4	893,(6, 112),4	897,(6, 119),4	901,(7, 15),4	905,(7, 43),12	917,(7, 90),116	1033,(7, 99),4	1037,(114, 121),24	1061,(120, 121),24	1085,(92, 121),24	1109,(28, 121),24	1133,(19, 121),24	1157,(12, 50),88	1245,(12, 64),40	1285,(12, 70),28	1313,(12, 71),36	1349,(12, 85),4	1353,(12, 87),48	1401,(12, 103),4	1405,(27, 121),24	1429,(37, 121),24	1453,(111, 121),24	1477,(101, 121),24	1501,(47, 121),24	1525,(23, 121),24	1549,(84, 121),24	1573,(20, 121),24	1597,(100, 121),24	1621,(117, 121),24	1645,(52, 121),24	1669,(55, 121),24	1693,(25, 121),24	1717,(32, 121),24	1741,(108, 121),24	1765,(81, 121),24	1789,(95, 121),24	1813,(38, 121),24	1837,(59, 121),24	1861,(21, 121),24	1885,(16, 121),24	1909,(13, 121),24	1933,(93, 121),24	1957,(105, 121),24	1981,(109, 121),24	2005,(24, 121),24	2029,(31, 121),24	2053,(68, 121),24	2077,(91, 121),24	2101,(51, 121),24	2125,(60, 121),24	2149,(63, 121),24	2173,(69, 121),24	2197,(79, 121),24	2221,(88, 121),24	2245,(116, 121),24	2269,(17, 121),24	2293,(26, 121),24	2317,(35, 121),24	2341,(65, 121),24	2365,(22, 121),24	2389,(36, 121),24	2413,(89, 121),24	2437,(41, 121),24	2461,(49, 121),24	2485,(75, 121),24	2509,(82, 121),24	2533,(104, 121),24	
