524
# CPU
11,7,1	37,8,1	95,24,1	225,35,1	259,40,1	315,10,1	317,13,1	341,15,1	349,16,1	351,32,1	365,30,1	443,34,1	523,41,1	
3,2,1	4,14,1	5,21,1	6,29,1	7,38,1	8,26,1	9,22,1	10,25,1	11,31,1	267,6,1	351,28,1	
5,3,1	6,11,1	7,17,1	8,36,1	9,37,1	10,19,1	11,33,1	41,12,1	
0,0,1	1,1,1	2,4,1	3,18,1	4,27,1	
39,9,1	55,20,1	57,23,1	263,5,1	423,39,1	
# Incoming
5,(1, 7),6	11,(1, 8),26	37,(2, 40),2	41,(1, 13),8	49,(14, 41),4	53,(21, 41),4	57,(1, 24),38	95,(1, 32),82	177,(1, 35),48	225,(1, 40),34	259,(3, 10),6	265,(3, 30),2	267,(4, 10),48	315,(4, 13),2	317,(4, 15),24	341,(4, 16),8	349,(3, 32),2	351,(4, 30),14	365,(4, 34),56	423,(18, 41),4	427,(27, 41),4	431,(3, 34),12	443,(29, 41),4	447,(11, 41),4	451,(38, 41),4	455,(17, 41),4	459,(26, 41),4	463,(36, 41),4	467,(22, 41),4	471,(37, 41),4	475,(25, 41),4	479,(19, 41),4	483,(33, 41),4	487,(31, 41),4	491,(9, 41),4	495,(12, 41),4	499,(20, 41),4	503,(23, 41),4	507,(5, 41),4	511,(6, 41),4	515,(28, 41),4	519,(39, 41),4	
1,(0, 2),2	263,(4, 6),4	267,(3, 28),2	349,(4, 28),2	
3,(0, 3),2	5,(2, 33),2	39,(1, 12),2	

37,(1, 9),2	49,(1, 20),6	55,(1, 23),2	259,(4, 5),4	421,(4, 39),2	
# Outgoing

5,(2, 33),2	37,(2, 40),2	49,(14, 41),4	53,(21, 41),4	443,(29, 41),4	451,(38, 41),4	459,(26, 41),4	467,(22, 41),4	475,(25, 41),4	487,(31, 41),4	511,(6, 41),4	515,(28, 41),4	
259,(3, 10),6	265,(3, 30),2	267,(3, 28),2	349,(3, 32),2	431,(3, 34),12	447,(11, 41),4	455,(17, 41),4	463,(36, 41),4	471,(37, 41),4	479,(19, 41),4	483,(33, 41),4	495,(12, 41),4	
1,(0, 2),2	3,(0, 3),2	5,(1, 7),6	11,(1, 8),26	37,(1, 9),2	39,(1, 12),2	41,(1, 13),8	49,(1, 20),6	55,(1, 23),2	57,(1, 24),38	95,(1, 32),82	177,(1, 35),48	225,(1, 40),34	259,(4, 5),4	263,(4, 6),4	267,(4, 10),48	315,(4, 13),2	317,(4, 15),24	341,(4, 16),8	349,(4, 28),2	351,(4, 30),14	365,(4, 34),56	421,(4, 39),2	423,(18, 41),4	427,(27, 41),4	
491,(9, 41),4	499,(20, 41),4	503,(23, 41),4	507,(5, 41),4	519,(39, 41),4	
