4113
# CPU
5,3,151	156,6,151	307,27,151	458,30,151	609,51,151	760,15,151	911,24,151	1062,78,151	1213,33,151	1364,48,151	1515,21,151	1666,36,151	1817,42,151	1968,54,151	2119,69,151	2270,60,151	2421,63,151	2572,66,151	2723,75,151	2874,9,151	3025,12,151	3176,39,151	3327,45,151	3478,72,151	3629,18,151	3780,57,151	
3,2,151	154,5,151	305,8,151	456,11,151	607,65,151	758,14,151	909,50,151	1060,53,151	1211,77,151	1362,56,151	1513,35,151	1664,47,151	1815,17,151	1966,20,151	2117,68,151	2268,44,151	2419,62,151	2570,74,151	2721,80,151	2872,26,151	3023,29,151	3174,32,151	3325,38,151	3476,59,151	3627,71,151	3778,23,151	3929,41,151	
0,0,1	1,7,151	152,1,151	303,4,151	454,16,151	605,73,151	756,46,151	907,22,151	1058,10,151	1209,49,151	1360,55,151	1511,58,151	1662,19,151	1813,34,151	1964,37,151	2115,76,151	2266,13,151	2417,28,151	2568,31,151	2719,40,151	2870,52,151	3021,25,151	3172,70,151	3323,79,151	3474,61,151	3625,43,151	3776,64,151	3927,67,151	4112,81,1	
# Incoming
3,(0, 3),2	7,(0, 6),2	172,(7, 15),358	530,(5, 24),10	540,(5, 78),2	542,(7, 33),80	630,(7, 48),64	694,(2, 21),42	736,(2, 36),24	760,(2, 42),32	792,(2, 54),46	838,(5, 69),20	860,(1, 60),2	862,(1, 63),12	874,(1, 66),2	876,(5, 75),46	922,(4, 9),2	924,(4, 12),18	942,(4, 39),26	968,(4, 45),6	974,(4, 72),10	984,(8, 18),10	994,(8, 57),26	
1,(0, 2),2	5,(0, 5),2	9,(0, 8),2	152,(7, 14),20	172,(3, 29),40	212,(3, 50),2	214,(3, 53),26	240,(3, 77),12	420,(6, 17),86	530,(7, 20),12	544,(6, 68),34	578,(6, 80),6	622,(7, 44),8	694,(7, 62),2	696,(7, 74),26	722,(7, 80),16	738,(1, 26),2	740,(1, 29),62	802,(1, 32),36	838,(1, 38),10	848,(1, 59),12	876,(1, 71),2	878,(4, 23),2	880,(4, 41),14	
154,(2, 10),54	208,(2, 49),24	232,(2, 55),34	266,(2, 67),2	268,(3, 37),120	388,(3, 76),32	420,(5, 13),14	434,(5, 28),8	442,(5, 31),2	444,(5, 40),2	506,(6, 43),14	520,(6, 64),2	522,(6, 67),22	584,(27, 81),32	616,(11, 81),32	648,(30, 81),32	760,(51, 81),32	922,(65, 81),32	954,(15, 81),32	1020,(14, 81),32	1060,(50, 81),32	1092,(24, 81),32	1211,(53, 81),32	1243,(78, 81),32	1362,(77, 81),32	1394,(33, 81),32	1513,(56, 81),32	1545,(48, 81),32	1664,(35, 81),32	1696,(21, 81),32	1815,(47, 81),32	1847,(36, 81),32	1966,(17, 81),32	1998,(42, 81),32	2117,(20, 81),32	2149,(54, 81),32	2268,(68, 81),32	2300,(69, 81),32	2419,(44, 81),32	2451,(60, 81),32	2570,(62, 81),32	2602,(63, 81),32	2721,(74, 81),32	2753,(66, 81),32	2872,(80, 81),32	2904,(75, 81),32	3023,(26, 81),32	3055,(9, 81),32	3174,(29, 81),32	3206,(12, 81),32	3325,(32, 81),32	3357,(39, 81),32	3476,(38, 81),32	3508,(45, 81),32	3627,(59, 81),32	3659,(72, 81),32	3778,(71, 81),32	3810,(18, 81),32	3929,(23, 81),32	3961,(57, 81),32	4080,(41, 81),32	
# Outgoing
172,(3, 29),40	212,(3, 50),2	214,(3, 53),26	240,(3, 77),12	268,(3, 37),120	388,(3, 76),32	420,(6, 17),86	506,(6, 43),14	520,(6, 64),2	522,(6, 67),22	544,(6, 68),34	578,(6, 80),6	584,(27, 81),32	648,(30, 81),32	760,(51, 81),32	954,(15, 81),32	1092,(24, 81),32	1243,(78, 81),32	1394,(33, 81),32	1545,(48, 81),32	1696,(21, 81),32	1847,(36, 81),32	1998,(42, 81),32	2149,(54, 81),32	2300,(69, 81),32	2451,(60, 81),32	2602,(63, 81),32	2753,(66, 81),32	2904,(75, 81),32	3055,(9, 81),32	3206,(12, 81),32	3357,(39, 81),32	3508,(45, 81),32	3659,(72, 81),32	3810,(18, 81),32	3961,(57, 81),32	
154,(2, 10),54	208,(2, 49),24	232,(2, 55),34	266,(2, 67),2	420,(5, 13),14	434,(5, 28),8	442,(5, 31),2	444,(5, 40),2	530,(5, 24),10	540,(5, 78),2	616,(11, 81),32	694,(2, 21),42	736,(2, 36),24	760,(2, 42),32	792,(2, 54),46	838,(5, 69),20	876,(5, 75),46	922,(65, 81),32	984,(8, 18),10	994,(8, 57),26	1020,(14, 81),32	1060,(50, 81),32	1211,(53, 81),32	1362,(77, 81),32	1513,(56, 81),32	1664,(35, 81),32	1815,(47, 81),32	1966,(17, 81),32	2117,(20, 81),32	2268,(68, 81),32	2419,(44, 81),32	2570,(62, 81),32	2721,(74, 81),32	2872,(80, 81),32	3023,(26, 81),32	3174,(29, 81),32	3325,(32, 81),32	3476,(38, 81),32	3627,(59, 81),32	3778,(71, 81),32	3929,(23, 81),32	4080,(41, 81),32	
1,(0, 2),2	3,(0, 3),2	5,(0, 5),2	7,(0, 6),2	9,(0, 8),2	152,(7, 14),20	172,(7, 15),358	530,(7, 20),12	542,(7, 33),80	622,(7, 44),8	630,(7, 48),64	694,(7, 62),2	696,(7, 74),26	722,(7, 80),16	738,(1, 26),2	740,(1, 29),62	802,(1, 32),36	838,(1, 38),10	848,(1, 59),12	860,(1, 60),2	862,(1, 63),12	874,(1, 66),2	876,(1, 71),2	878,(4, 23),2	880,(4, 41),14	922,(4, 9),2	924,(4, 12),18	942,(4, 39),26	968,(4, 45),6	974,(4, 72),10	
