3556
# CPU
0,81,1	1,69,3	4,25,3	7,41,3	10,24,3	13,20,3	16,79,3	19,55,3	22,48,3	25,28,3	28,38,3	31,23,3	34,13,3	37,50,3	40,74,3	43,77,3	46,63,3	49,70,3	52,21,3	55,43,3	58,27,3	61,66,3	64,22,3	67,76,3	70,12,3	73,56,3	76,68,3	79,42,3	82,67,3	85,34,3	88,54,3	91,40,3	94,32,3	97,31,3	100,45,3	103,19,3	106,58,3	109,59,3	112,72,3	115,64,3	118,26,3	121,80,3	124,53,3	127,39,3	130,18,3	133,10,3	136,47,3	139,49,3	142,35,3	145,75,3	148,51,3	151,14,3	154,60,3	157,37,3	160,33,3	163,52,3	166,62,3	169,57,3	172,36,3	175,44,3	178,16,3	181,11,3	184,5,3	187,8,3	256,6,3	532,7,3	908,4,3	1376,3,3	2424,2,3	3552,1,3	3555,0,1	
17,29,3	33,65,3	49,61,3	65,46,3	81,78,3	97,30,3	113,15,3	129,73,3	145,9,3	161,71,3	177,17,3	
# Incoming
20,(29, 8),4	24,(29, 7),4	28,(29, 4),4	32,(29, 1),8	52,(61, 8),4	68,(46, 6),4	72,(46, 7),12	84,(61, 3),16	100,(30, 8),8	108,(30, 6),4	112,(78, 3),4	116,(15, 6),4	120,(15, 7),4	124,(30, 3),4	128,(15, 3),4	132,(73, 8),12	148,(9, 8),24	172,(78, 6),32	204,(73, 6),24	228,(9, 6),16	244,(71, 6),8	252,(17, 6),4	256,(61, 7),52	308,(73, 7),168	476,(9, 7),16	492,(71, 7),40	532,(46, 4),72	604,(30, 4),124	728,(9, 4),164	892,(71, 4),16	908,(65, 3),32	940,(9, 3),40	980,(71, 3),392	1372,(17, 3),4	1376,(29, 2),24	1400,(61, 2),52	1452,(73, 2),48	1500,(9, 2),64	1564,(71, 2),56	1620,(17, 2),804	2424,(78, 1),88	2512,(30, 1),52	2564,(15, 1),140	2704,(73, 1),140	2844,(9, 1),372	3216,(71, 1),316	3532,(17, 1),20	
1,(81, 29),16	17,(81, 65),16	33,(81, 61),16	49,(81, 46),16	65,(81, 78),16	81,(81, 30),16	97,(81, 15),16	113,(81, 73),16	129,(81, 9),16	145,(81, 71),16	161,(81, 17),16	
# Outgoing
1,(81, 29),16	17,(81, 65),16	33,(81, 61),16	49,(81, 46),16	65,(81, 78),16	81,(81, 30),16	97,(81, 15),16	113,(81, 73),16	129,(81, 9),16	145,(81, 71),16	161,(81, 17),16	
20,(29, 8),4	24,(29, 7),4	28,(29, 4),4	32,(29, 1),8	52,(61, 8),4	68,(46, 6),4	72,(46, 7),12	84,(61, 3),16	100,(30, 8),8	108,(30, 6),4	112,(78, 3),4	116,(15, 6),4	120,(15, 7),4	124,(30, 3),4	128,(15, 3),4	132,(73, 8),12	148,(9, 8),24	172,(78, 6),32	204,(73, 6),24	228,(9, 6),16	244,(71, 6),8	252,(17, 6),4	256,(61, 7),52	308,(73, 7),168	476,(9, 7),16	492,(71, 7),40	532,(46, 4),72	604,(30, 4),124	728,(9, 4),164	892,(71, 4),16	908,(65, 3),32	940,(9, 3),40	980,(71, 3),392	1372,(17, 3),4	1376,(29, 2),24	1400,(61, 2),52	1452,(73, 2),48	1500,(9, 2),64	1564,(71, 2),56	1620,(17, 2),804	2424,(78, 1),88	2512,(30, 1),52	2564,(15, 1),140	2704,(73, 1),140	2844,(9, 1),372	3216,(71, 1),316	3532,(17, 1),20	
