1852
# CPU
0,0,1	1,3,25	26,7,25	51,6,25	76,8,25	101,25,25	126,31,25	151,58,25	176,18,25	201,52,25	226,35,25	251,15,25	276,60,25	301,65,25	326,17,25	351,66,25	376,33,25	401,55,25	426,36,25	451,49,25	476,72,25	501,64,25	526,75,25	551,44,25	576,19,25	601,24,25	626,70,25	651,56,25	676,20,25	701,74,25	726,41,25	751,21,25	776,46,25	801,69,25	826,67,25	851,30,25	876,12,25	901,45,25	
3,2,25	28,4,25	53,28,25	78,42,25	103,5,25	128,1,25	153,47,25	178,38,25	203,32,25	228,27,25	253,59,25	278,77,25	303,61,25	328,71,25	353,54,25	378,62,25	403,48,25	428,40,25	453,16,25	478,9,25	503,63,25	528,51,25	553,10,25	578,37,25	603,23,25	628,39,25	653,80,25	678,43,25	703,76,25	728,22,25	753,50,25	778,11,25	803,34,25	828,14,25	853,13,25	878,79,25	903,68,25	928,26,25	953,57,25	978,29,25	1003,73,25	1028,53,25	1053,78,25	1851,81,1	
# Incoming
128,(5, 58),2	130,(4, 18),2	132,(2, 35),2	134,(5, 35),2	136,(2, 15),2	138,(4, 15),2	140,(2, 65),4	144,(2, 17),6	150,(2, 66),2	153,(1, 52),2	155,(1, 15),2	157,(1, 60),6	163,(1, 65),2	165,(4, 66),4	169,(5, 33),10	179,(1, 55),10	189,(2, 36),2	191,(4, 36),4	195,(5, 36),6	201,(4, 49),14	215,(2, 72),2	217,(4, 72),2	219,(5, 72),10	229,(1, 72),4	233,(2, 64),12	245,(5, 64),4	249,(1, 64),2	251,(2, 75),6	257,(4, 75),4	261,(1, 75),12	273,(5, 44),22	295,(4, 19),4	299,(1, 19),18	317,(2, 24),2	319,(4, 24),18	337,(5, 24),4	341,(2, 70),10	351,(5, 70),16	367,(2, 56),6	373,(5, 56),22	395,(4, 20),24	419,(5, 20),2	421,(1, 20),2	423,(5, 74),18	441,(1, 74),12	453,(4, 41),30	483,(5, 41),2	485,(2, 21),2	487,(4, 21),8	495,(1, 21),22	517,(2, 46),8	525,(4, 46),32	557,(1, 46),2	559,(4, 69),10	569,(5, 69),32	601,(4, 67),6	607,(5, 67),44	651,(4, 30),54	705,(4, 12),62	767,(2, 45),78	845,(5, 45),2	847,(1, 45),2	
1,(0, 2),2	3,(0, 4),2	5,(0, 5),2	7,(0, 1),2	26,(3, 42),2	28,(3, 59),2	30,(3, 54),2	32,(3, 48),2	34,(3, 16),2	36,(3, 39),2	38,(3, 80),2	40,(3, 34),6	51,(7, 32),2	53,(7, 71),2	55,(7, 62),4	59,(7, 40),2	61,(7, 9),6	67,(7, 63),2	69,(7, 76),4	73,(7, 13),2	76,(6, 27),2	78,(6, 61),4	82,(6, 71),2	84,(6, 48),4	88,(6, 40),2	90,(6, 16),2	92,(6, 9),2	94,(6, 63),6	101,(8, 77),2	103,(8, 54),2	105,(8, 62),2	107,(8, 40),4	111,(8, 16),4	115,(7, 51),8	123,(7, 10),8	131,(8, 10),2	133,(6, 37),10	143,(6, 23),4	147,(8, 23),6	153,(6, 39),10	163,(7, 80),12	175,(6, 43),16	191,(6, 76),4	195,(8, 76),8	203,(3, 22),14	217,(8, 22),2	219,(3, 50),18	237,(3, 11),16	253,(6, 11),2	255,(8, 34),18	273,(7, 14),14	287,(6, 14),2	289,(8, 14),8	297,(3, 13),12	309,(8, 13),12	321,(6, 79),22	343,(8, 79),4	347,(7, 68),12	359,(6, 68),2	361,(8, 68),14	375,(7, 26),8	383,(6, 26),2	385,(8, 26),18	403,(3, 57),10	413,(7, 57),24	437,(3, 29),14	451,(7, 29),14	465,(6, 29),12	477,(3, 73),24	501,(6, 73),8	509,(8, 73),36	545,(8, 53),86	631,(6, 78),44	675,(8, 78),54	729,(25, 81),34	763,(31, 81),34	797,(58, 81),34	831,(18, 81),34	865,(52, 81),34	899,(35, 81),34	933,(15, 81),34	967,(60, 81),34	1001,(65, 81),34	1035,(17, 81),34	1069,(66, 81),34	1103,(33, 81),34	1137,(55, 81),34	1171,(36, 81),34	1205,(49, 81),34	1239,(72, 81),34	1273,(64, 81),34	1307,(75, 81),34	1341,(44, 81),34	1375,(19, 81),34	1409,(24, 81),34	1443,(70, 81),34	1477,(56, 81),34	1511,(20, 81),34	1545,(74, 81),34	1579,(41, 81),34	1613,(21, 81),34	1647,(46, 81),34	1681,(69, 81),34	1715,(67, 81),34	1749,(30, 81),34	1783,(12, 81),34	1817,(45, 81),34	
# Outgoing
1,(0, 2),2	3,(0, 4),2	5,(0, 5),2	7,(0, 1),2	26,(3, 42),2	28,(3, 59),2	30,(3, 54),2	32,(3, 48),2	34,(3, 16),2	36,(3, 39),2	38,(3, 80),2	40,(3, 34),6	51,(7, 32),2	53,(7, 71),2	55,(7, 62),4	59,(7, 40),2	61,(7, 9),6	67,(7, 63),2	69,(7, 76),4	73,(7, 13),2	76,(6, 27),2	78,(6, 61),4	82,(6, 71),2	84,(6, 48),4	88,(6, 40),2	90,(6, 16),2	92,(6, 9),2	94,(6, 63),6	101,(8, 77),2	103,(8, 54),2	105,(8, 62),2	107,(8, 40),4	111,(8, 16),4	115,(7, 51),8	123,(7, 10),8	131,(8, 10),2	133,(6, 37),10	143,(6, 23),4	147,(8, 23),6	153,(6, 39),10	163,(7, 80),12	175,(6, 43),16	191,(6, 76),4	195,(8, 76),8	203,(3, 22),14	217,(8, 22),2	219,(3, 50),18	237,(3, 11),16	253,(6, 11),2	255,(8, 34),18	273,(7, 14),14	287,(6, 14),2	289,(8, 14),8	297,(3, 13),12	309,(8, 13),12	321,(6, 79),22	343,(8, 79),4	347,(7, 68),12	359,(6, 68),2	361,(8, 68),14	375,(7, 26),8	383,(6, 26),2	385,(8, 26),18	403,(3, 57),10	413,(7, 57),24	437,(3, 29),14	451,(7, 29),14	465,(6, 29),12	477,(3, 73),24	501,(6, 73),8	509,(8, 73),36	545,(8, 53),86	631,(6, 78),44	675,(8, 78),54	729,(25, 81),34	763,(31, 81),34	797,(58, 81),34	831,(18, 81),34	865,(52, 81),34	899,(35, 81),34	933,(15, 81),34	967,(60, 81),34	1001,(65, 81),34	1035,(17, 81),34	1069,(66, 81),34	1103,(33, 81),34	1137,(55, 81),34	1171,(36, 81),34	1205,(49, 81),34	1239,(72, 81),34	1273,(64, 81),34	1307,(75, 81),34	1341,(44, 81),34	1375,(19, 81),34	1409,(24, 81),34	1443,(70, 81),34	1477,(56, 81),34	1511,(20, 81),34	1545,(74, 81),34	1579,(41, 81),34	1613,(21, 81),34	1647,(46, 81),34	1681,(69, 81),34	1715,(67, 81),34	1749,(30, 81),34	1783,(12, 81),34	1817,(45, 81),34	
128,(5, 58),2	130,(4, 18),2	132,(2, 35),2	134,(5, 35),2	136,(2, 15),2	138,(4, 15),2	140,(2, 65),4	144,(2, 17),6	150,(2, 66),2	153,(1, 52),2	155,(1, 15),2	157,(1, 60),6	163,(1, 65),2	165,(4, 66),4	169,(5, 33),10	179,(1, 55),10	189,(2, 36),2	191,(4, 36),4	195,(5, 36),6	201,(4, 49),14	215,(2, 72),2	217,(4, 72),2	219,(5, 72),10	229,(1, 72),4	233,(2, 64),12	245,(5, 64),4	249,(1, 64),2	251,(2, 75),6	257,(4, 75),4	261,(1, 75),12	273,(5, 44),22	295,(4, 19),4	299,(1, 19),18	317,(2, 24),2	319,(4, 24),18	337,(5, 24),4	341,(2, 70),10	351,(5, 70),16	367,(2, 56),6	373,(5, 56),22	395,(4, 20),24	419,(5, 20),2	421,(1, 20),2	423,(5, 74),18	441,(1, 74),12	453,(4, 41),30	483,(5, 41),2	485,(2, 21),2	487,(4, 21),8	495,(1, 21),22	517,(2, 46),8	525,(4, 46),32	557,(1, 46),2	559,(4, 69),10	569,(5, 69),32	601,(4, 67),6	607,(5, 67),44	651,(4, 30),54	705,(4, 12),62	767,(2, 45),78	845,(5, 45),2	847,(1, 45),2	
