2558
# CPU
2,1,3	5,109,3	8,159,3	13,16,3	16,20,3	19,27,3	22,34,3	25,41,3	28,163,3	31,200,3	34,52,3	37,129,3	40,153,3	43,157,3	46,132,3	49,106,3	52,118,3	55,125,3	58,185,3	61,172,3	64,42,3	67,56,3	132,156,3	135,45,3	138,167,3	156,196,3	159,29,3	162,26,3	165,198,3	168,80,3	180,101,3	190,119,3	202,133,3	205,181,3	219,152,3	388,177,3	414,54,3	476,176,3	510,93,3	1087,136,3	2557,201,1	
6,5,3	9,10,3	12,11,3	15,64,3	18,165,3	21,194,3	24,57,3	27,160,3	30,149,3	33,25,3	36,111,3	39,120,3	42,66,3	45,90,3	48,12,3	51,22,3	54,195,3	57,147,3	60,50,3	63,123,3	66,102,3	69,48,3	72,186,3	75,70,3	78,37,3	81,60,3	84,116,3	87,189,3	90,121,3	93,73,3	96,58,3	99,179,3	102,30,3	105,83,3	108,169,3	111,77,3	114,76,3	117,39,3	203,134,3	305,86,3	
3,2,3	6,4,3	9,84,3	12,96,3	15,35,3	18,188,3	21,126,3	24,178,3	27,6,3	30,135,3	33,108,3	36,104,3	39,47,3	42,38,3	45,145,3	48,18,3	51,53,3	54,117,3	57,43,3	60,65,3	63,128,3	66,31,3	69,199,3	72,24,3	75,105,3	78,124,3	81,75,3	84,187,3	87,87,3	90,127,3	93,173,3	96,131,3	99,68,3	102,44,3	134,138,3	137,81,3	302,40,3	305,85,3	308,137,3	313,51,3	
4,3,3	7,33,3	10,103,3	13,168,3	16,13,3	19,14,3	22,19,3	25,63,3	28,180,3	31,154,3	34,174,3	37,107,3	40,113,3	43,193,3	46,72,3	49,82,3	52,21,3	55,88,3	58,170,3	61,143,3	64,142,3	67,114,3	70,112,3	73,94,3	76,97,3	79,190,3	82,182,3	85,139,3	88,130,3	91,140,3	94,146,3	97,115,3	100,122,3	103,32,3	106,74,3	109,171,3	135,141,3	160,71,3	303,61,3	312,62,3	
0,0,1	1,8,3	4,9,3	7,15,3	10,17,3	13,7,3	16,110,3	19,49,3	22,191,3	25,36,3	28,28,3	31,150,3	34,164,3	37,162,3	40,100,3	43,89,3	46,79,3	49,78,3	52,23,3	55,184,3	58,192,3	61,183,3	64,91,3	67,166,3	70,158,3	73,98,3	76,92,3	79,99,3	82,69,3	85,67,3	88,55,3	91,151,3	94,148,3	97,155,3	100,175,3	103,161,3	106,46,3	109,197,3	136,95,3	139,59,3	142,144,3	
# Incoming
1,(0, 1),1	8,(3, 181),1	12,(0, 16),1	15,(0, 20),1	20,(8, 26),4	24,(8, 45),102	126,(5, 156),6	132,(10, 45),2	134,(13, 196),1	135,(8, 167),1	136,(8, 176),4	140,(8, 196),16	156,(9, 29),1	157,(11, 26),2	159,(11, 198),1	160,(9, 80),1	161,(9, 101),19	180,(9, 119),10	190,(9, 133),12	202,(14, 181),1	203,(9, 152),16	219,(9, 176),82	301,(5, 177),51	352,(15, 54),9	361,(15, 177),27	388,(33, 201),15	403,(10, 54),11	414,(84, 201),15	429,(103, 201),15	444,(96, 201),15	459,(168, 201),15	474,(7, 176),2	476,(64, 201),15	491,(35, 201),15	506,(13, 93),4	510,(110, 201),15	525,(165, 201),15	540,(188, 201),15	555,(49, 201),15	570,(194, 201),15	585,(126, 201),15	600,(191, 201),15	615,(57, 201),15	630,(178, 201),15	645,(63, 201),15	660,(36, 201),15	675,(160, 201),15	690,(180, 201),15	705,(28, 201),15	720,(149, 201),15	735,(135, 201),15	750,(154, 201),15	765,(150, 201),15	780,(25, 201),15	795,(108, 201),15	810,(174, 201),15	825,(164, 201),15	840,(111, 201),15	855,(104, 201),15	870,(107, 201),15	885,(162, 201),15	900,(120, 201),15	915,(47, 201),15	930,(113, 201),15	945,(100, 201),15	960,(66, 201),15	975,(38, 201),15	990,(193, 201),15	1005,(89, 201),15	1020,(90, 201),15	1035,(145, 201),15	1050,(72, 201),15	1065,(79, 201),15	1080,(12, 136),7	1087,(82, 201),15	1102,(78, 201),15	1117,(53, 201),15	1132,(22, 201),15	1147,(21, 201),15	1162,(23, 201),15	1177,(117, 201),15	1192,(195, 201),15	1207,(88, 201),15	1222,(184, 201),15	1237,(147, 201),15	1252,(43, 201),15	1267,(170, 201),15	1282,(192, 201),15	1297,(50, 201),15	1312,(65, 201),15	1327,(183, 201),15	1342,(143, 201),15	1357,(123, 201),15	1372,(128, 201),15	1387,(91, 201),15	1402,(142, 201),15	1417,(102, 201),15	1432,(31, 201),15	1447,(114, 201),15	1462,(166, 201),15	1477,(48, 201),15	1492,(199, 201),15	1507,(112, 201),15	1522,(158, 201),15	1537,(186, 201),15	1552,(24, 201),15	1567,(94, 201),15	1582,(98, 201),15	1597,(70, 201),15	1612,(105, 201),15	1627,(97, 201),15	1642,(92, 201),15	1657,(37, 201),15	1672,(124, 201),15	1687,(190, 201),15	1702,(99, 201),15	1717,(60, 201),15	1732,(75, 201),15	1747,(182, 201),15	1762,(69, 201),15	1777,(116, 201),15	1792,(187, 201),15	1807,(139, 201),15	1822,(67, 201),15	1837,(189, 201),15	1852,(87, 201),15	1867,(130, 201),15	1882,(55, 201),15	1897,(121, 201),15	1912,(127, 201),15	1927,(140, 201),15	1942,(151, 201),15	1957,(73, 201),15	1972,(173, 201),15	1987,(146, 201),15	2002,(148, 201),15	2017,(58, 201),15	2032,(131, 201),15	2047,(115, 201),15	2062,(155, 201),15	2077,(179, 201),15	2092,(68, 201),15	2107,(122, 201),15	2122,(175, 201),15	2137,(30, 201),15	2152,(44, 201),15	2167,(32, 201),15	2182,(161, 201),15	2197,(83, 201),15	2212,(74, 201),15	2227,(46, 201),15	2242,(169, 201),15	2257,(197, 201),15	2272,(171, 201),15	2287,(77, 201),15	2302,(76, 201),15	2317,(39, 201),15	2332,(138, 201),15	2347,(141, 201),15	2362,(95, 201),15	2377,(81, 201),15	2392,(59, 201),15	2407,(144, 201),15	2422,(71, 201),15	2437,(134, 201),15	2452,(40, 201),15	2467,(61, 201),15	2482,(86, 201),15	2497,(85, 201),15	2512,(137, 201),15	2527,(62, 201),15	2542,(51, 201),15	
5,(0, 5),1	6,(1, 121),1	7,(0, 10),1	8,(0, 11),1	9,(0, 12),1	19,(13, 60),1	20,(20, 116),5	25,(14, 73),1	26,(20, 189),2	30,(19, 58),1	202,(9, 134),1	304,(15, 86),1	
2,(0, 2),1	4,(0, 4),1	6,(0, 6),1	13,(0, 18),1	16,(16, 53),1	17,(16, 117),1	19,(20, 51),1	31,(19, 81),1	126,(8, 137),2	128,(8, 138),6	134,(10, 81),1	301,(15, 40),1	303,(15, 85),1	305,(15, 137),2	312,(7, 51),1	
3,(0, 3),1	10,(0, 13),1	11,(0, 14),1	14,(0, 19),1	16,(8, 21),4	20,(4, 146),5	25,(16, 146),1	30,(6, 115),1	31,(6, 122),2	51,(18, 32),1	52,(18, 74),2	54,(18, 171),2	134,(8, 141),1	157,(9, 71),3	302,(15, 61),1	307,(17, 62),5	
7,(3, 91),1	9,(3, 183),4	26,(14, 197),4	135,(10, 95),1	136,(11, 59),3	139,(11, 144),1	
# Outgoing
6,(1, 121),1	16,(16, 53),1	17,(16, 117),1	19,(20, 51),1	20,(20, 116),5	25,(16, 146),1	26,(20, 189),2	
126,(5, 156),6	132,(10, 45),2	134,(10, 81),1	135,(10, 95),1	136,(11, 59),3	139,(11, 144),1	157,(11, 26),2	159,(11, 198),1	301,(5, 177),51	403,(10, 54),11	476,(64, 201),15	525,(165, 201),15	570,(194, 201),15	615,(57, 201),15	675,(160, 201),15	720,(149, 201),15	780,(25, 201),15	840,(111, 201),15	900,(120, 201),15	960,(66, 201),15	1020,(90, 201),15	1080,(12, 136),7	1132,(22, 201),15	1192,(195, 201),15	1237,(147, 201),15	1297,(50, 201),15	1357,(123, 201),15	1417,(102, 201),15	1477,(48, 201),15	1537,(186, 201),15	1597,(70, 201),15	1657,(37, 201),15	1717,(60, 201),15	1777,(116, 201),15	1837,(189, 201),15	1897,(121, 201),15	1957,(73, 201),15	2017,(58, 201),15	2077,(179, 201),15	2137,(30, 201),15	2197,(83, 201),15	2242,(169, 201),15	2287,(77, 201),15	2302,(76, 201),15	2317,(39, 201),15	2437,(134, 201),15	2482,(86, 201),15	
20,(4, 146),5	30,(6, 115),1	31,(6, 122),2	51,(18, 32),1	52,(18, 74),2	54,(18, 171),2	414,(84, 201),15	444,(96, 201),15	491,(35, 201),15	540,(188, 201),15	585,(126, 201),15	630,(178, 201),15	735,(135, 201),15	795,(108, 201),15	855,(104, 201),15	915,(47, 201),15	975,(38, 201),15	1035,(145, 201),15	1117,(53, 201),15	1177,(117, 201),15	1252,(43, 201),15	1312,(65, 201),15	1372,(128, 201),15	1432,(31, 201),15	1492,(199, 201),15	1552,(24, 201),15	1612,(105, 201),15	1672,(124, 201),15	1732,(75, 201),15	1792,(187, 201),15	1852,(87, 201),15	1912,(127, 201),15	1972,(173, 201),15	2032,(131, 201),15	2092,(68, 201),15	2152,(44, 201),15	2332,(138, 201),15	2377,(81, 201),15	2452,(40, 201),15	2497,(85, 201),15	2512,(137, 201),15	2542,(51, 201),15	
7,(3, 91),1	8,(3, 181),1	9,(3, 183),4	19,(13, 60),1	25,(14, 73),1	26,(14, 197),4	30,(19, 58),1	31,(19, 81),1	134,(13, 196),1	202,(14, 181),1	388,(33, 201),15	429,(103, 201),15	459,(168, 201),15	506,(13, 93),4	645,(63, 201),15	690,(180, 201),15	750,(154, 201),15	810,(174, 201),15	870,(107, 201),15	930,(113, 201),15	990,(193, 201),15	1050,(72, 201),15	1087,(82, 201),15	1147,(21, 201),15	1207,(88, 201),15	1267,(170, 201),15	1342,(143, 201),15	1402,(142, 201),15	1447,(114, 201),15	1507,(112, 201),15	1567,(94, 201),15	1627,(97, 201),15	1687,(190, 201),15	1747,(182, 201),15	1807,(139, 201),15	1867,(130, 201),15	1927,(140, 201),15	1987,(146, 201),15	2047,(115, 201),15	2107,(122, 201),15	2167,(32, 201),15	2212,(74, 201),15	2272,(171, 201),15	2347,(141, 201),15	2422,(71, 201),15	2467,(61, 201),15	2527,(62, 201),15	
1,(0, 1),1	2,(0, 2),1	3,(0, 3),1	4,(0, 4),1	5,(0, 5),1	6,(0, 6),1	7,(0, 10),1	8,(0, 11),1	9,(0, 12),1	10,(0, 13),1	11,(0, 14),1	12,(0, 16),1	13,(0, 18),1	14,(0, 19),1	15,(0, 20),1	16,(8, 21),4	20,(8, 26),4	24,(8, 45),102	126,(8, 137),2	128,(8, 138),6	134,(8, 141),1	135,(8, 167),1	136,(8, 176),4	140,(8, 196),16	156,(9, 29),1	157,(9, 71),3	160,(9, 80),1	161,(9, 101),19	180,(9, 119),10	190,(9, 133),12	202,(9, 134),1	203,(9, 152),16	219,(9, 176),82	301,(15, 40),1	302,(15, 61),1	303,(15, 85),1	304,(15, 86),1	305,(15, 137),2	307,(17, 62),5	312,(7, 51),1	352,(15, 54),9	361,(15, 177),27	474,(7, 176),2	510,(110, 201),15	555,(49, 201),15	600,(191, 201),15	660,(36, 201),15	705,(28, 201),15	765,(150, 201),15	825,(164, 201),15	885,(162, 201),15	945,(100, 201),15	1005,(89, 201),15	1065,(79, 201),15	1102,(78, 201),15	1162,(23, 201),15	1222,(184, 201),15	1282,(192, 201),15	1327,(183, 201),15	1387,(91, 201),15	1462,(166, 201),15	1522,(158, 201),15	1582,(98, 201),15	1642,(92, 201),15	1702,(99, 201),15	1762,(69, 201),15	1822,(67, 201),15	1882,(55, 201),15	1942,(151, 201),15	2002,(148, 201),15	2062,(155, 201),15	2122,(175, 201),15	2182,(161, 201),15	2227,(46, 201),15	2257,(197, 201),15	2362,(95, 201),15	2392,(59, 201),15	2407,(144, 201),15	
