2297
# CPU
1456,9,3	1459,39,3	1462,51,3	1506,36,3	1542,49,3	1605,69,3	1609,71,3	1615,72,3	1701,33,3	1806,73,3	1900,37,3	1997,52,3	2072,75,3	2296,81,1	
7,1,3	422,16,3	444,10,3	497,78,3	1033,15,3	1105,60,3	1483,24,3	1550,44,3	1553,47,3	1595,62,3	1601,64,3	1604,67,3	
13,2,3	967,17,3	1005,34,3	1040,32,3	1065,48,3	1068,50,3	1071,42,3	1106,61,3	1465,11,3	1492,26,3	1497,29,3	
19,3,3	22,65,3	613,58,3	968,18,3	1027,55,3	1112,66,3	1482,23,3	1496,27,3	1594,53,3	1664,79,3	
25,4,3	195,14,3	1035,21,3	1039,30,3	1046,13,3	1057,28,3	1060,41,3	1063,46,3	1191,74,3	1194,77,3	
31,6,3	1055,25,3	1073,59,3	1083,31,3	1102,54,3	1114,70,3	1127,68,3	1472,12,3	1499,35,3	1665,80,3	
37,7,3	1006,38,3	1103,57,3	1476,22,3	1533,40,3	1540,43,3	1600,63,3	
43,8,3	411,20,3	1071,56,3	1663,76,3	
0,0,1	1,5,3	
1073,45,3	1474,19,3	
# Incoming
172,(5, 33),15	187,(6, 9),4	192,(5, 36),118	310,(5, 37),24	334,(6, 37),2	336,(6, 49),4	340,(6, 51),1	341,(5, 39),41	382,(2, 9),16	398,(3, 9),10	408,(6, 52),3	411,(6, 71),2	413,(6, 75),1	414,(2, 69),1	415,(6, 69),22	437,(6, 73),6	446,(2, 72),1	447,(2, 75),2	449,(3, 69),3	452,(5, 49),61	516,(5, 51),78	594,(5, 52),6	600,(2, 36),18	618,(5, 69),251	869,(1, 9),93	962,(2, 52),16	978,(2, 71),14	994,(1, 33),2	996,(2, 73),12	1008,(3, 51),4	1012,(3, 75),4	1019,(1, 51),4	1023,(65, 81),4	1027,(7, 9),4	1031,(8, 9),6	1040,(7, 37),1	1041,(1, 69),1	1042,(1, 71),79	1121,(1, 72),27	1148,(1, 73),35	1183,(2, 37),37	1220,(3, 33),97	1317,(3, 71),98	1415,(4, 9),41	1456,(7, 39),1	1457,(7, 51),1	1458,(7, 69),8	1466,(7, 71),10	1476,(7, 72),16	1492,(7, 75),1	1493,(8, 69),1	1494,(8, 73),3	1497,(4, 33),1	1499,(4, 36),7	1506,(4, 37),26	1532,(8, 49),10	1542,(20, 81),4	1546,(16, 81),4	1553,(4, 52),16	1569,(8, 72),34	1604,(4, 69),1	1605,(4, 71),4	1609,(4, 72),6	1615,(4, 75),34	1649,(7, 33),52	1701,(7, 52),63	1764,(7, 73),42	1806,(8, 37),94	1900,(8, 52),97	1997,(8, 75),75	2072,(14, 81),4	2076,(10, 81),4	2080,(78, 81),4	2084,(58, 81),4	2088,(17, 81),4	2092,(18, 81),4	2096,(34, 81),4	2100,(38, 81),4	2104,(55, 81),4	2108,(15, 81),4	2112,(21, 81),4	2116,(30, 81),4	2120,(32, 81),4	2124,(13, 81),4	2128,(25, 81),4	2132,(28, 81),4	2136,(41, 81),4	2140,(46, 81),4	2144,(48, 81),4	2148,(50, 81),4	2152,(42, 81),4	2156,(56, 81),4	2160,(45, 81),4	2164,(59, 81),4	2168,(31, 81),4	2172,(54, 81),4	2176,(57, 81),4	2180,(60, 81),4	2184,(61, 81),4	2188,(66, 81),4	2192,(70, 81),4	2196,(68, 81),4	2200,(74, 81),4	2204,(77, 81),4	2208,(11, 81),4	2212,(12, 81),4	2216,(19, 81),4	2220,(22, 81),4	2224,(23, 81),4	2228,(24, 81),4	2232,(26, 81),4	2236,(27, 81),4	2240,(29, 81),4	2244,(35, 81),4	2248,(40, 81),4	2252,(43, 81),4	2256,(44, 81),4	2260,(47, 81),4	2264,(53, 81),4	2268,(62, 81),4	2272,(63, 81),4	2276,(64, 81),4	2280,(67, 81),4	2284,(76, 81),4	2288,(79, 81),4	2292,(80, 81),4	
1,(0, 1),6	43,(5, 10),16	95,(5, 16),9	163,(5, 24),4	195,(6, 15),1	196,(6, 16),18	264,(6, 60),12	276,(6, 62),5	292,(6, 78),8	394,(5, 44),21	415,(2, 16),7	422,(3, 10),22	444,(5, 47),6	450,(2, 44),2	452,(3, 15),1	458,(3, 44),1	478,(2, 60),4	496,(3, 78),1	615,(5, 60),1	616,(5, 64),2	1032,(7, 15),1	1045,(7, 24),5	1057,(8, 44),1	1059,(7, 44),1	1065,(8, 47),1	1086,(7, 64),13	1103,(8, 60),2	1106,(8, 62),4	1112,(8, 67),13	1482,(4, 24),1	1540,(4, 44),10	1550,(4, 47),3	1594,(4, 62),1	1600,(4, 64),1	1601,(4, 67),3	
7,(0, 2),6	59,(5, 11),18	167,(5, 26),3	191,(6, 11),1	214,(6, 17),1	222,(6, 26),2	229,(6, 34),1	230,(6, 42),10	248,(6, 48),1	249,(6, 50),5	389,(5, 42),5	412,(3, 17),1	444,(3, 26),1	448,(3, 48),1	450,(5, 48),2	459,(3, 50),7	476,(3, 61),4	513,(5, 50),3	962,(1, 17),5	974,(1, 29),2	990,(1, 32),4	996,(1, 34),9	1010,(1, 42),3	1013,(1, 48),2	1015,(1, 50),4	1031,(7, 11),1	1037,(7, 26),1	1038,(7, 29),1	1039,(7, 32),1	1040,(8, 11),1	1055,(8, 29),1	1063,(7, 48),2	1065,(7, 50),1	1066,(8, 42),3	1073,(7, 61),13	1105,(8, 61),1	1456,(4, 11),9	1483,(4, 26),9	1496,(4, 29),1	
13,(0, 3),6	104,(5, 18),9	162,(5, 23),1	217,(6, 23),5	224,(6, 27),4	262,(6, 58),2	282,(6, 66),7	300,(6, 79),1	405,(2, 18),4	432,(2, 27),11	443,(2, 66),3	462,(2, 58),16	602,(5, 58),11	967,(1, 18),1	972,(1, 27),2	1026,(1, 55),1	1035,(7, 23),2	1066,(7, 53),1	1083,(8, 53),3	1099,(7, 66),13	1128,(8, 79),1	1476,(4, 23),6	1492,(4, 27),4	1569,(4, 53),25	1663,(4, 79),1	
19,(0, 4),6	90,(5, 13),1	91,(5, 14),4	146,(5, 21),11	170,(5, 28),2	192,(6, 14),3	216,(6, 21),1	228,(6, 30),1	247,(6, 46),1	291,(6, 77),1	399,(2, 13),6	408,(3, 13),4	422,(2, 21),10	445,(3, 28),1	446,(3, 30),1	449,(2, 77),1	485,(3, 74),5	491,(3, 77),5	871,(5, 74),2	883,(5, 77),8	968,(1, 21),3	976,(1, 30),13	1009,(1, 41),1	1034,(7, 21),1	1037,(8, 30),2	1039,(8, 41),1	1041,(8, 13),5	1051,(7, 28),6	1058,(7, 41),1	1060,(7, 46),3	1127,(8, 74),1	1183,(1, 74),8	1192,(1, 77),1	
25,(0, 6),6	77,(5, 12),13	187,(5, 35),5	398,(2, 12),1	411,(2, 25),2	413,(2, 54),1	414,(3, 12),8	447,(3, 31),1	453,(3, 35),5	466,(3, 59),10	497,(3, 80),4	613,(5, 59),2	869,(5, 70),2	989,(1, 31),1	1023,(1, 54),3	1027,(1, 59),2	1031,(1, 68),10	1041,(7, 12),4	1050,(7, 25),1	1054,(8, 25),1	1056,(8, 35),1	1057,(7, 35),1	1058,(8, 12),7	1071,(7, 59),2	1073,(8, 31),10	1086,(8, 54),16	1112,(7, 68),1	1113,(7, 70),1	1114,(7, 80),3	1125,(8, 68),2	1129,(8, 80),24	1465,(4, 12),7	1498,(4, 35),1	1664,(4, 80),1	
31,(0, 7),6	157,(5, 22),5	240,(6, 43),3	255,(6, 57),7	281,(6, 63),1	334,(5, 38),7	382,(5, 40),7	413,(3, 22),1	452,(2, 57),10	480,(3, 63),5	601,(5, 57),1	971,(1, 22),1	1005,(1, 38),1	1006,(1, 40),3	1029,(1, 63),2	1046,(8, 22),8	1102,(8, 57),1	1110,(8, 63),2	1474,(4, 22),2	1532,(4, 40),1	1533,(4, 43),7	1595,(4, 63),5	
37,(0, 8),6	143,(5, 20),3	254,(6, 56),1	289,(6, 76),2	410,(2, 20),1	490,(3, 76),1	600,(5, 56),1	873,(5, 76),10	1067,(7, 56),4	1191,(1, 76),1	1649,(4, 76),14	

113,(5, 19),30	215,(6, 19),1	243,(6, 45),4	409,(2, 19),1	415,(5, 45),29	1033,(7, 19),1	1069,(8, 45),4	1472,(4, 19),2	
# Outgoing

869,(1, 9),93	962,(1, 17),5	967,(1, 18),1	968,(1, 21),3	971,(1, 22),1	972,(1, 27),2	974,(1, 29),2	976,(1, 30),13	989,(1, 31),1	990,(1, 32),4	994,(1, 33),2	996,(1, 34),9	1005,(1, 38),1	1006,(1, 40),3	1009,(1, 41),1	1010,(1, 42),3	1013,(1, 48),2	1015,(1, 50),4	1019,(1, 51),4	1023,(1, 54),3	1026,(1, 55),1	1027,(1, 59),2	1029,(1, 63),2	1031,(1, 68),10	1041,(1, 69),1	1042,(1, 71),79	1121,(1, 72),27	1148,(1, 73),35	1183,(1, 74),8	1191,(1, 76),1	1192,(1, 77),1	1546,(16, 81),4	2076,(10, 81),4	2080,(78, 81),4	2108,(15, 81),4	2180,(60, 81),4	2228,(24, 81),4	2256,(44, 81),4	2260,(47, 81),4	2268,(62, 81),4	2276,(64, 81),4	2280,(67, 81),4	
382,(2, 9),16	398,(2, 12),1	399,(2, 13),6	405,(2, 18),4	409,(2, 19),1	410,(2, 20),1	411,(2, 25),2	413,(2, 54),1	414,(2, 69),1	415,(2, 16),7	422,(2, 21),10	432,(2, 27),11	443,(2, 66),3	446,(2, 72),1	447,(2, 75),2	449,(2, 77),1	450,(2, 44),2	452,(2, 57),10	462,(2, 58),16	478,(2, 60),4	600,(2, 36),18	962,(2, 52),16	978,(2, 71),14	996,(2, 73),12	1183,(2, 37),37	2088,(17, 81),4	2096,(34, 81),4	2120,(32, 81),4	2144,(48, 81),4	2148,(50, 81),4	2152,(42, 81),4	2184,(61, 81),4	2208,(11, 81),4	2232,(26, 81),4	2240,(29, 81),4	
398,(3, 9),10	408,(3, 13),4	412,(3, 17),1	413,(3, 22),1	414,(3, 12),8	422,(3, 10),22	444,(3, 26),1	445,(3, 28),1	446,(3, 30),1	447,(3, 31),1	448,(3, 48),1	449,(3, 69),3	452,(3, 15),1	453,(3, 35),5	458,(3, 44),1	459,(3, 50),7	466,(3, 59),10	476,(3, 61),4	480,(3, 63),5	485,(3, 74),5	490,(3, 76),1	491,(3, 77),5	496,(3, 78),1	497,(3, 80),4	1008,(3, 51),4	1012,(3, 75),4	1023,(65, 81),4	1220,(3, 33),97	1317,(3, 71),98	2084,(58, 81),4	2092,(18, 81),4	2104,(55, 81),4	2188,(66, 81),4	2224,(23, 81),4	2236,(27, 81),4	2264,(53, 81),4	2288,(79, 81),4	
1415,(4, 9),41	1456,(4, 11),9	1465,(4, 12),7	1472,(4, 19),2	1474,(4, 22),2	1476,(4, 23),6	1482,(4, 24),1	1483,(4, 26),9	1492,(4, 27),4	1496,(4, 29),1	1497,(4, 33),1	1498,(4, 35),1	1499,(4, 36),7	1506,(4, 37),26	1532,(4, 40),1	1533,(4, 43),7	1540,(4, 44),10	1550,(4, 47),3	1553,(4, 52),16	1569,(4, 53),25	1594,(4, 62),1	1595,(4, 63),5	1600,(4, 64),1	1601,(4, 67),3	1604,(4, 69),1	1605,(4, 71),4	1609,(4, 72),6	1615,(4, 75),34	1649,(4, 76),14	1663,(4, 79),1	1664,(4, 80),1	2072,(14, 81),4	2112,(21, 81),4	2116,(30, 81),4	2124,(13, 81),4	2132,(28, 81),4	2136,(41, 81),4	2140,(46, 81),4	2200,(74, 81),4	2204,(77, 81),4	
187,(6, 9),4	191,(6, 11),1	192,(6, 14),3	195,(6, 15),1	196,(6, 16),18	214,(6, 17),1	215,(6, 19),1	216,(6, 21),1	217,(6, 23),5	222,(6, 26),2	224,(6, 27),4	228,(6, 30),1	229,(6, 34),1	230,(6, 42),10	240,(6, 43),3	243,(6, 45),4	247,(6, 46),1	248,(6, 48),1	249,(6, 50),5	254,(6, 56),1	255,(6, 57),7	262,(6, 58),2	264,(6, 60),12	276,(6, 62),5	281,(6, 63),1	282,(6, 66),7	289,(6, 76),2	291,(6, 77),1	292,(6, 78),8	300,(6, 79),1	334,(6, 37),2	336,(6, 49),4	340,(6, 51),1	408,(6, 52),3	411,(6, 71),2	413,(6, 75),1	415,(6, 69),22	437,(6, 73),6	2128,(25, 81),4	2164,(59, 81),4	2168,(31, 81),4	2172,(54, 81),4	2192,(70, 81),4	2196,(68, 81),4	2212,(12, 81),4	2244,(35, 81),4	2292,(80, 81),4	
1027,(7, 9),4	1031,(7, 11),1	1032,(7, 15),1	1033,(7, 19),1	1034,(7, 21),1	1035,(7, 23),2	1037,(7, 26),1	1038,(7, 29),1	1039,(7, 32),1	1040,(7, 37),1	1041,(7, 12),4	1045,(7, 24),5	1050,(7, 25),1	1051,(7, 28),6	1057,(7, 35),1	1058,(7, 41),1	1059,(7, 44),1	1060,(7, 46),3	1063,(7, 48),2	1065,(7, 50),1	1066,(7, 53),1	1067,(7, 56),4	1071,(7, 59),2	1073,(7, 61),13	1086,(7, 64),13	1099,(7, 66),13	1112,(7, 68),1	1113,(7, 70),1	1114,(7, 80),3	1456,(7, 39),1	1457,(7, 51),1	1458,(7, 69),8	1466,(7, 71),10	1476,(7, 72),16	1492,(7, 75),1	1649,(7, 33),52	1701,(7, 52),63	1764,(7, 73),42	2100,(38, 81),4	2176,(57, 81),4	2220,(22, 81),4	2248,(40, 81),4	2252,(43, 81),4	2272,(63, 81),4	
1031,(8, 9),6	1037,(8, 30),2	1039,(8, 41),1	1040,(8, 11),1	1041,(8, 13),5	1046,(8, 22),8	1054,(8, 25),1	1055,(8, 29),1	1056,(8, 35),1	1057,(8, 44),1	1058,(8, 12),7	1065,(8, 47),1	1066,(8, 42),3	1069,(8, 45),4	1073,(8, 31),10	1083,(8, 53),3	1086,(8, 54),16	1102,(8, 57),1	1103,(8, 60),2	1105,(8, 61),1	1106,(8, 62),4	1110,(8, 63),2	1112,(8, 67),13	1125,(8, 68),2	1127,(8, 74),1	1128,(8, 79),1	1129,(8, 80),24	1493,(8, 69),1	1494,(8, 73),3	1532,(8, 49),10	1542,(20, 81),4	1569,(8, 72),34	1806,(8, 37),94	1900,(8, 52),97	1997,(8, 75),75	2156,(56, 81),4	2284,(76, 81),4	
1,(0, 1),6	7,(0, 2),6	13,(0, 3),6	19,(0, 4),6	25,(0, 6),6	31,(0, 7),6	37,(0, 8),6	43,(5, 10),16	59,(5, 11),18	77,(5, 12),13	90,(5, 13),1	91,(5, 14),4	95,(5, 16),9	104,(5, 18),9	113,(5, 19),30	143,(5, 20),3	146,(5, 21),11	157,(5, 22),5	162,(5, 23),1	163,(5, 24),4	167,(5, 26),3	170,(5, 28),2	172,(5, 33),15	187,(5, 35),5	192,(5, 36),118	310,(5, 37),24	334,(5, 38),7	341,(5, 39),41	382,(5, 40),7	389,(5, 42),5	394,(5, 44),21	415,(5, 45),29	444,(5, 47),6	450,(5, 48),2	452,(5, 49),61	513,(5, 50),3	516,(5, 51),78	594,(5, 52),6	600,(5, 56),1	601,(5, 57),1	602,(5, 58),11	613,(5, 59),2	615,(5, 60),1	616,(5, 64),2	618,(5, 69),251	869,(5, 70),2	871,(5, 74),2	873,(5, 76),10	883,(5, 77),8	
2160,(45, 81),4	2216,(19, 81),4	
