1484
# CPU
0,201,1	1,108,1	2,112,1	3,86,1	4,148,1	5,191,1	6,161,1	7,52,1	8,67,1	9,159,1	10,149,1	11,111,1	12,184,1	13,198,1	14,137,1	15,21,1	16,72,1	17,132,1	18,189,1	19,30,1	20,38,1	21,41,1	22,50,1	23,45,1	24,82,1	25,84,1	26,49,1	27,87,1	28,146,1	29,92,1	30,142,1	31,186,1	32,177,1	33,104,1	34,120,1	35,55,1	36,176,1	37,166,1	38,103,1	39,173,1	40,31,1	41,135,1	42,170,1	43,28,1	44,99,1	45,180,1	46,163,1	47,23,1	48,152,1	49,44,1	50,128,1	51,188,1	52,114,1	53,93,1	54,78,1	55,200,1	56,102,1	57,196,1	58,127,1	59,101,1	60,75,1	61,194,1	62,139,1	63,185,1	64,36,1	65,83,1	66,43,1	67,122,1	68,89,1	69,158,1	70,151,1	71,192,1	72,37,1	73,190,1	74,80,1	75,182,1	76,71,1	77,63,1	78,113,1	79,69,1	80,66,1	81,33,1	82,141,1	83,70,1	84,56,1	85,187,1	86,167,1	87,117,1	88,172,1	89,54,1	90,22,1	91,98,1	92,155,1	93,109,1	94,27,1	95,105,1	96,42,1	97,58,1	98,39,1	99,140,1	100,68,1	101,144,1	102,91,1	103,150,1	104,129,1	105,62,1	106,26,1	107,121,1	108,100,1	109,133,1	110,25,1	111,29,1	112,64,1	113,165,1	114,46,1	115,143,1	116,119,1	117,95,1	118,74,1	119,47,1	120,106,1	121,145,1	122,90,1	123,59,1	124,40,1	125,164,1	126,60,1	127,157,1	128,77,1	129,179,1	130,168,1	131,193,1	132,136,1	133,131,1	134,51,1	135,123,1	136,6,1	137,15,1	142,9,1	185,11,1	209,20,1	258,12,1	316,19,1	392,5,1	484,2,1	598,17,1	714,8,1	845,3,1	980,18,1	1140,14,1	1482,10,1	1483,0,1	
16,65,1	22,53,1	76,76,1	88,126,1	91,116,1	97,169,1	106,48,1	121,162,1	124,73,1	136,61,1	241,7,1	1413,16,1	
10,125,1	55,175,1	58,96,1	94,134,1	100,178,1	112,138,1	
13,24,1	34,195,1	49,97,1	
7,174,1	46,160,1	64,79,1	
25,34,1	28,107,1	85,81,1	
4,118,1	19,115,1	31,171,1	52,130,1	
82,156,1	
40,110,1	61,183,1	70,94,1	
37,147,1	43,35,1	67,124,1	73,32,1	79,153,1	103,199,1	109,181,1	115,88,1	118,154,1	127,197,1	130,85,1	133,57,1	398,1,1	684,4,1	1046,13,1	
# Incoming
32,(171, 15),6	38,(147, 15),7	47,(35, 18),3	50,(97, 9),11	61,(24, 20),1	62,(183, 15),3	65,(79, 9),1	66,(174, 12),1	67,(79, 5),1	68,(124, 9),1	69,(130, 12),2	71,(94, 15),3	74,(160, 20),10	84,(156, 20),1	85,(32, 5),1	86,(81, 11),5	91,(97, 2),1	92,(116, 15),2	94,(126, 9),1	95,(134, 15),2	97,(96, 9),14	111,(96, 11),1	112,(175, 20),13	125,(73, 15),1	126,(199, 9),16	142,(199, 11),43	185,(32, 20),20	205,(116, 20),4	209,(48, 12),48	257,(181, 12),1	258,(7, 0),1	259,(53, 19),4	263,(110, 19),8	271,(160, 19),10	281,(76, 19),21	302,(169, 19),2	304,(178, 19),1	305,(199, 19),11	316,(125, 5),1	317,(147, 5),4	321,(134, 5),27	348,(169, 5),37	385,(48, 5),6	391,(154, 5),1	392,(35, 2),9	401,(130, 2),10	411,(175, 2),1	412,(32, 2),1	413,(156, 2),5	418,(126, 2),27	445,(134, 2),24	469,(162, 2),6	475,(57, 2),6	481,(61, 2),3	484,(1, 0),1	485,(53, 17),1	486,(34, 17),5	491,(96, 17),2	493,(79, 17),16	509,(153, 17),22	531,(156, 17),25	556,(48, 17),6	562,(138, 17),11	573,(88, 17),20	593,(61, 17),5	598,(107, 8),1	599,(81, 8),26	625,(138, 8),73	698,(154, 8),14	712,(61, 8),2	714,(4, 0),1	715,(183, 3),15	730,(124, 3),17	747,(32, 3),7	754,(116, 3),29	783,(134, 3),35	818,(178, 3),1	819,(181, 3),4	823,(197, 3),22	845,(125, 18),1	846,(130, 18),11	857,(175, 18),5	862,(94, 18),19	881,(134, 18),1	882,(178, 18),2	884,(199, 18),1	885,(181, 18),6	891,(162, 18),3	894,(73, 18),86	980,(24, 14),2	982,(34, 14),4	986,(107, 14),6	992,(147, 14),7	999,(116, 14),1	1000,(181, 14),62	1062,(88, 14),78	1140,(13, 0),1	1141,(65, 10),1	1142,(116, 10),4	1146,(178, 10),1	1147,(138, 10),3	1150,(154, 10),1	1151,(85, 10),331	1482,(16, 0),1	
13,(201, 65),3	19,(201, 53),3	38,(118, 7),1	39,(115, 7),4	45,(35, 7),2	62,(195, 7),7	69,(124, 7),1	73,(201, 76),3	85,(201, 126),3	88,(201, 116),3	91,(107, 7),3	94,(201, 169),3	103,(201, 48),3	110,(181, 16),8	118,(201, 162),3	121,(201, 73),3	125,(96, 7),1	126,(178, 7),1	133,(201, 61),3	136,(161, 7),1	137,(21, 7),3	140,(82, 7),5	145,(180, 7),1	146,(101, 7),3	149,(194, 7),5	154,(122, 7),1	155,(182, 7),7	162,(187, 7),2	164,(22, 7),29	193,(27, 7),15	208,(68, 7),9	217,(40, 7),14	231,(77, 7),9	240,(193, 7),1	1046,(108, 16),1	1047,(72, 16),3	1050,(120, 16),7	1057,(55, 16),7	1064,(31, 16),1	1065,(101, 16),14	1079,(80, 16),20	1099,(182, 16),20	1119,(69, 16),5	1124,(56, 16),2	1126,(105, 16),14	1140,(140, 16),6	1146,(91, 16),1	1147,(133, 16),60	1207,(47, 16),1	1208,(106, 16),2	1210,(59, 16),125	1335,(164, 16),4	1339,(123, 16),74	
7,(201, 125),3	52,(201, 175),3	55,(201, 96),3	91,(201, 134),3	97,(201, 178),3	109,(201, 138),3	
10,(201, 24),3	31,(201, 195),3	46,(201, 97),3	
4,(201, 174),3	43,(201, 160),3	61,(201, 79),3	
22,(201, 34),3	25,(201, 107),3	82,(201, 81),3	
1,(201, 118),3	16,(201, 115),3	28,(201, 171),3	49,(201, 130),3	
79,(201, 156),3	
37,(201, 110),3	58,(201, 183),3	67,(201, 94),3	
34,(201, 147),3	40,(201, 35),3	43,(115, 4),1	64,(201, 124),3	69,(97, 1),1	70,(201, 32),3	76,(201, 153),3	84,(160, 4),7	94,(107, 13),1	95,(65, 4),3	98,(65, 13),1	100,(201, 199),3	103,(169, 4),3	106,(201, 181),3	112,(201, 88),3	115,(201, 154),3	118,(195, 13),6	124,(201, 197),3	127,(201, 85),3	130,(201, 57),3	133,(116, 1),32	165,(125, 4),1	166,(178, 4),39	241,(184, 1),2	243,(189, 1),4	247,(104, 1),6	253,(103, 1),1	254,(173, 1),7	261,(135, 1),2	263,(99, 1),2	265,(188, 1),5	270,(158, 1),1	271,(151, 1),18	289,(192, 1),18	307,(71, 1),21	328,(63, 1),2	330,(68, 1),14	344,(62, 1),3	347,(25, 1),2	349,(95, 1),1	350,(77, 1),47	397,(193, 1),1	398,(137, 4),2	400,(132, 4),1	401,(41, 4),4	405,(177, 4),6	411,(120, 4),4	415,(200, 4),1	416,(139, 4),6	422,(185, 4),2	424,(43, 4),2	426,(151, 4),6	432,(71, 4),19	451,(56, 4),1	452,(172, 4),9	461,(22, 4),1	462,(129, 4),6	468,(100, 4),59	527,(164, 4),156	683,(157, 4),1	684,(86, 13),1	685,(67, 13),1	686,(92, 13),1	687,(177, 13),3	690,(104, 13),6	696,(166, 13),7	703,(173, 13),8	711,(78, 13),11	722,(75, 13),10	732,(43, 13),16	748,(33, 13),1	749,(56, 13),12	761,(155, 13),1	762,(68, 13),39	801,(91, 13),41	842,(150, 13),42	884,(129, 13),43	927,(100, 13),2	929,(29, 13),1	930,(74, 13),90	1020,(47, 13),1	1021,(157, 13),5	1026,(179, 13),16	1042,(131, 13),4	
# Outgoing
1,(201, 118),3	4,(201, 174),3	7,(201, 125),3	10,(201, 24),3	13,(201, 65),3	16,(201, 115),3	19,(201, 53),3	22,(201, 34),3	25,(201, 107),3	28,(201, 171),3	31,(201, 195),3	34,(201, 147),3	37,(201, 110),3	40,(201, 35),3	43,(201, 160),3	46,(201, 97),3	49,(201, 130),3	52,(201, 175),3	55,(201, 96),3	58,(201, 183),3	61,(201, 79),3	64,(201, 124),3	67,(201, 94),3	70,(201, 32),3	73,(201, 76),3	76,(201, 153),3	79,(201, 156),3	82,(201, 81),3	85,(201, 126),3	88,(201, 116),3	91,(201, 134),3	94,(201, 169),3	97,(201, 178),3	100,(201, 199),3	103,(201, 48),3	106,(201, 181),3	109,(201, 138),3	112,(201, 88),3	115,(201, 154),3	118,(201, 162),3	121,(201, 73),3	124,(201, 197),3	127,(201, 85),3	130,(201, 57),3	133,(201, 61),3	136,(161, 7),1	137,(21, 7),3	140,(82, 7),5	145,(180, 7),1	146,(101, 7),3	149,(194, 7),5	154,(122, 7),1	155,(182, 7),7	162,(187, 7),2	164,(22, 7),29	193,(27, 7),15	208,(68, 7),9	217,(40, 7),14	231,(77, 7),9	240,(193, 7),1	241,(184, 1),2	243,(189, 1),4	247,(104, 1),6	253,(103, 1),1	254,(173, 1),7	261,(135, 1),2	263,(99, 1),2	265,(188, 1),5	270,(158, 1),1	271,(151, 1),18	289,(192, 1),18	307,(71, 1),21	328,(63, 1),2	330,(68, 1),14	344,(62, 1),3	347,(25, 1),2	349,(95, 1),1	350,(77, 1),47	397,(193, 1),1	398,(137, 4),2	400,(132, 4),1	401,(41, 4),4	405,(177, 4),6	411,(120, 4),4	415,(200, 4),1	416,(139, 4),6	422,(185, 4),2	424,(43, 4),2	426,(151, 4),6	432,(71, 4),19	451,(56, 4),1	452,(172, 4),9	461,(22, 4),1	462,(129, 4),6	468,(100, 4),59	527,(164, 4),156	683,(157, 4),1	684,(86, 13),1	685,(67, 13),1	686,(92, 13),1	687,(177, 13),3	690,(104, 13),6	696,(166, 13),7	703,(173, 13),8	711,(78, 13),11	722,(75, 13),10	732,(43, 13),16	748,(33, 13),1	749,(56, 13),12	761,(155, 13),1	762,(68, 13),39	801,(91, 13),41	842,(150, 13),42	884,(129, 13),43	927,(100, 13),2	929,(29, 13),1	930,(74, 13),90	1020,(47, 13),1	1021,(157, 13),5	1026,(179, 13),16	1042,(131, 13),4	1046,(108, 16),1	1047,(72, 16),3	1050,(120, 16),7	1057,(55, 16),7	1064,(31, 16),1	1065,(101, 16),14	1079,(80, 16),20	1099,(182, 16),20	1119,(69, 16),5	1124,(56, 16),2	1126,(105, 16),14	1140,(140, 16),6	1146,(91, 16),1	1147,(133, 16),60	1207,(47, 16),1	1208,(106, 16),2	1210,(59, 16),125	1335,(164, 16),4	1339,(123, 16),74	
92,(116, 15),2	94,(126, 9),1	95,(65, 4),3	98,(65, 13),1	103,(169, 4),3	125,(73, 15),1	133,(116, 1),32	205,(116, 20),4	209,(48, 12),48	258,(7, 0),1	259,(53, 19),4	281,(76, 19),21	302,(169, 19),2	348,(169, 5),37	385,(48, 5),6	418,(126, 2),27	469,(162, 2),6	481,(61, 2),3	485,(53, 17),1	556,(48, 17),6	593,(61, 17),5	712,(61, 8),2	754,(116, 3),29	891,(162, 18),3	894,(73, 18),86	999,(116, 14),1	1141,(65, 10),1	1142,(116, 10),4	1482,(16, 0),1	
95,(134, 15),2	97,(96, 9),14	111,(96, 11),1	112,(175, 20),13	125,(96, 7),1	126,(178, 7),1	165,(125, 4),1	166,(178, 4),39	304,(178, 19),1	316,(125, 5),1	321,(134, 5),27	411,(175, 2),1	445,(134, 2),24	491,(96, 17),2	562,(138, 17),11	625,(138, 8),73	783,(134, 3),35	818,(178, 3),1	845,(125, 18),1	857,(175, 18),5	881,(134, 18),1	882,(178, 18),2	1146,(178, 10),1	1147,(138, 10),3	
50,(97, 9),11	61,(24, 20),1	62,(195, 7),7	69,(97, 1),1	91,(97, 2),1	118,(195, 13),6	980,(24, 14),2	
65,(79, 9),1	66,(174, 12),1	67,(79, 5),1	74,(160, 20),10	84,(160, 4),7	271,(160, 19),10	493,(79, 17),16	
86,(81, 11),5	91,(107, 7),3	94,(107, 13),1	486,(34, 17),5	598,(107, 8),1	599,(81, 8),26	982,(34, 14),4	986,(107, 14),6	
32,(171, 15),6	38,(118, 7),1	39,(115, 7),4	43,(115, 4),1	69,(130, 12),2	401,(130, 2),10	846,(130, 18),11	
84,(156, 20),1	413,(156, 2),5	531,(156, 17),25	
62,(183, 15),3	71,(94, 15),3	263,(110, 19),8	715,(183, 3),15	862,(94, 18),19	
38,(147, 15),7	45,(35, 7),2	47,(35, 18),3	68,(124, 9),1	69,(124, 7),1	85,(32, 5),1	110,(181, 16),8	126,(199, 9),16	142,(199, 11),43	185,(32, 20),20	257,(181, 12),1	305,(199, 19),11	317,(147, 5),4	391,(154, 5),1	392,(35, 2),9	412,(32, 2),1	475,(57, 2),6	484,(1, 0),1	509,(153, 17),22	573,(88, 17),20	698,(154, 8),14	714,(4, 0),1	730,(124, 3),17	747,(32, 3),7	819,(181, 3),4	823,(197, 3),22	884,(199, 18),1	885,(181, 18),6	992,(147, 14),7	1000,(181, 14),62	1062,(88, 14),78	1140,(13, 0),1	1150,(154, 10),1	1151,(85, 10),331	
