15
# CPU
0,0,1	1,1,1	2,4,1	3,6,1	4,14,1	5,12,1	6,11,1	7,17,1	8,7,1	9,5,1	10,16,1	
3,9,1	5,2,1	6,18,1	7,3,1	8,19,1	9,10,1	10,13,1	11,15,1	12,8,1	13,20,1	14,21,1	



# Incoming

2,(1, 9),1	3,(0, 2),2	5,(4, 21),1	6,(6, 21),1	7,(14, 21),1	8,(12, 21),1	9,(11, 21),1	10,(17, 21),1	11,(7, 21),1	12,(5, 21),1	13,(16, 21),1	



# Outgoing
2,(1, 9),1	3,(0, 2),2	5,(4, 21),1	6,(6, 21),1	7,(14, 21),1	8,(12, 21),1	9,(11, 21),1	10,(17, 21),1	11,(7, 21),1	12,(5, 21),1	13,(16, 21),1	




