82
# CPU
0,81,1	1,72,1	2,58,1	3,54,1	4,27,1	5,73,1	6,45,1	7,46,1	8,78,1	9,32,1	10,12,1	11,36,1	12,50,1	13,29,1	14,21,1	15,74,1	16,9,1	17,19,1	18,66,1	19,69,1	20,34,1	21,49,1	22,62,1	23,33,1	24,10,1	25,41,1	26,39,1	27,63,1	28,18,1	29,24,1	30,11,1	31,42,1	32,47,1	33,71,1	34,13,1	35,79,1	36,76,1	37,52,1	38,75,1	39,14,1	40,43,1	41,31,1	42,64,1	43,28,1	44,77,1	45,38,1	46,35,1	47,22,1	48,16,1	49,80,1	50,20,1	51,65,1	52,30,1	53,17,1	54,25,1	55,40,1	56,60,1	57,1,1	58,56,1	59,68,1	60,53,1	61,67,1	62,51,1	63,59,1	64,6,1	65,55,1	66,26,1	67,57,1	68,2,1	69,48,1	70,8,1	71,70,1	72,61,1	73,3,1	74,15,1	75,7,1	76,23,1	77,37,1	78,4,1	79,44,1	80,5,1	81,0,1	
# Incoming

# Outgoing

