8210
# CPU
41,5,80	121,10,80	201,15,80	281,20,80	361,28,80	441,68,80	521,98,80	601,108,80	681,83,80	761,128,80	841,183,80	921,48,80	1001,138,80	1081,173,80	1161,103,80	1241,33,80	1321,38,80	1401,73,80	1481,118,80	1561,193,80	1641,58,80	1721,63,80	1801,123,80	1881,148,80	1961,198,80	3937,25,80	4041,158,80	4605,178,80	4741,188,80	4913,133,80	4993,143,80	5073,153,80	5153,168,80	5233,43,80	5313,53,80	5393,163,80	5473,78,80	5553,88,80	5633,93,80	5713,113,80	
31,4,80	111,9,80	191,14,80	271,19,80	433,24,80	625,97,80	705,152,80	923,32,80	1003,52,80	1083,67,80	1163,72,80	1243,162,80	1323,177,80	1403,82,80	1483,192,80	1563,117,80	1643,167,80	1723,157,80	1803,172,80	1883,147,80	1963,87,80	2043,92,80	2123,112,80	2203,142,80	2283,77,80	3979,42,80	4059,47,80	4851,197,80	4931,27,80	5011,37,80	5091,127,80	5339,187,80	5419,57,80	5499,62,80	5579,102,80	5659,107,80	5739,122,80	5819,132,80	5899,137,80	5979,182,80	
21,3,80	101,8,80	181,13,80	261,70,80	341,18,80	525,175,80	4673,200,80	4753,45,80	5017,125,80	5097,130,80	5177,135,80	5311,30,80	5391,185,80	6047,170,80	6127,55,80	6207,120,80	6287,140,80	6367,145,80	6447,195,80	6527,95,80	6607,105,80	6687,150,80	6767,60,80	6847,75,80	6927,100,80	7007,160,80	7087,165,80	7167,40,80	7247,80,80	7327,85,80	7407,90,80	7487,115,80	7567,190,80	7647,23,80	7727,35,80	7807,50,80	7887,65,80	7967,110,80	8047,155,80	8127,180,80	
11,2,80	91,7,80	171,12,80	251,17,80	331,81,80	851,96,80	967,111,80	1147,176,80	1227,46,80	1419,22,80	1499,66,80	1579,116,80	1659,136,80	1739,86,80	1819,121,80	3467,101,80	3905,56,80	3985,196,80	4065,41,80	4145,51,80	4225,71,80	4305,106,80	4385,61,80	4465,146,80	4545,156,80	4625,171,80	4705,126,80	4785,181,80	4865,131,80	4945,166,80	5025,186,80	5105,76,80	5185,91,80	5265,26,80	5345,161,80	5425,31,80	5505,36,80	5585,141,80	5665,151,80	5849,191,80	
0,0,1	1,11,80	81,6,80	161,1,80	241,16,80	321,129,80	401,49,80	481,109,80	763,54,80	937,149,80	1017,39,80	1097,174,80	1289,169,80	1369,179,80	1449,164,80	1775,124,80	2063,59,80	2143,159,80	2223,44,80	2303,94,80	2383,104,80	2463,114,80	2543,134,80	2623,154,80	2703,21,80	2783,64,80	2863,74,80	2943,119,80	3023,194,80	3103,69,80	3183,79,80	3263,139,80	3343,144,80	3461,29,80	3541,84,80	3621,89,80	3701,99,80	3781,184,80	3861,189,80	3941,199,80	4021,34,80	8209,201,1	
# Incoming
31,(0, 5),10	71,(0, 10),10	101,(3, 28),10	111,(0, 15),10	121,(3, 33),6	127,(3, 83),2	129,(2, 48),10	151,(0, 20),10	161,(11, 33),4	165,(4, 28),22	243,(4, 88),12	259,(2, 73),2	261,(3, 88),12	273,(3, 98),10	303,(4, 168),8	311,(9, 68),4	315,(9, 108),10	325,(9, 123),2	327,(9, 163),8	335,(14, 38),12	351,(19, 98),2	375,(14, 173),12	387,(19, 43),4	391,(19, 128),6	397,(2, 178),2	399,(2, 183),22	421,(19, 183),2	423,(7, 48),2	425,(3, 123),8	433,(8, 73),2	437,(11, 138),2	439,(2, 198),44	483,(3, 138),22	505,(3, 143),4	509,(3, 173),4	513,(7, 103),4	517,(3, 193),14	531,(9, 133),48	579,(14, 113),48	627,(14, 133),32	661,(7, 153),2	663,(7, 168),8	671,(9, 153),90	781,(12, 33),14	795,(12, 38),2	797,(12, 73),72	869,(12, 118),6	875,(17, 133),2	887,(8, 25),34	925,(8, 53),12	939,(8, 78),14	1345,(8, 158),18	1419,(8, 193),6	1435,(13, 58),6	1441,(13, 63),28	1591,(18, 63),2	1593,(18, 113),20	1613,(18, 123),6	1619,(18, 148),8	1681,(18, 158),2	1683,(18, 198),2	2059,(18, 178),126	3933,(6, 25),4	3979,(6, 43),2	4039,(6, 158),2	4603,(6, 178),2	4729,(6, 188),12	4895,(1, 133),18	4913,(1, 143),48	4961,(1, 153),18	4979,(1, 168),2	4989,(16, 43),2	4991,(16, 53),4	5263,(1, 163),28	5383,(16, 78),2	5385,(16, 88),8	5393,(16, 93),2	5473,(16, 113),2	
21,(0, 4),10	61,(0, 9),10	101,(0, 14),10	111,(2, 42),18	129,(3, 187),2	141,(0, 19),10	163,(2, 72),96	281,(2, 112),6	287,(2, 117),2	289,(2, 127),18	307,(2, 132),6	353,(2, 142),12	365,(2, 157),10	421,(7, 42),2	429,(7, 67),2	431,(5, 24),2	433,(7, 27),6	439,(11, 142),2	441,(11, 152),12	453,(5, 102),2	455,(5, 162),2	457,(3, 167),26	483,(5, 57),28	511,(5, 147),8	519,(5, 152),6	525,(7, 92),12	537,(7, 97),88	625,(7, 107),20	645,(7, 152),16	671,(12, 77),4	675,(17, 52),2	677,(17, 67),10	687,(17, 87),4	691,(17, 92),20	711,(17, 127),4	715,(17, 137),4	719,(17, 172),16	739,(5, 172),2	741,(10, 107),4	745,(10, 117),2	747,(10, 137),60	807,(10, 147),10	817,(10, 162),12	829,(10, 167),26	855,(10, 182),50	905,(15, 52),2	907,(15, 72),2	909,(15, 77),12	921,(8, 32),2	923,(8, 52),2	925,(15, 107),4	929,(20, 67),2	937,(8, 72),2	939,(15, 162),4	943,(20, 107),2	953,(8, 87),4	957,(10, 177),78	1035,(10, 192),42	1077,(15, 82),12	1089,(15, 112),56	1145,(20, 127),2	1167,(15, 117),10	1177,(15, 192),10	1187,(20, 117),10	1197,(20, 167),10	1207,(20, 172),2	1277,(8, 127),14	1321,(8, 157),24	1417,(8, 172),2	1425,(13, 42),10	1469,(13, 77),2	1477,(13, 107),22	1499,(15, 157),36	1535,(20, 122),24	1561,(13, 127),2	1563,(13, 172),26	1589,(13, 197),2	1591,(20, 147),36	1627,(18, 47),2	1629,(18, 62),2	1631,(18, 87),8	1639,(18, 92),10	1649,(18, 112),4	1653,(18, 122),10	1663,(18, 132),16	1679,(18, 142),2	1775,(17, 77),128	3937,(6, 37),14	3951,(6, 42),28	3981,(6, 47),10	3999,(6, 122),36	4751,(6, 197),100	4851,(1, 27),2	4853,(1, 37),10	4887,(1, 127),8	4981,(1, 182),4	5295,(1, 187),44	5365,(16, 57),4	5369,(16, 62),14	5395,(16, 102),24	5419,(16, 107),54	5475,(16, 122),30	5505,(16, 132),54	5559,(16, 137),2	5591,(16, 182),6	
11,(0, 3),10	51,(0, 8),10	91,(0, 13),10	101,(2, 35),10	131,(0, 18),10	165,(11, 40),4	169,(11, 55),6	175,(11, 75),230	405,(11, 120),20	425,(2, 105),2	427,(2, 115),2	429,(4, 85),2	431,(9, 135),4	435,(11, 130),2	437,(4, 80),10	447,(4, 155),62	509,(4, 175),16	525,(5, 75),14	539,(11, 170),3394	3933,(5, 35),24	3957,(5, 85),6	3963,(5, 155),10	3973,(5, 185),2	3975,(5, 190),66	4041,(6, 60),8	4049,(6, 75),520	4569,(7, 90),6	4575,(10, 40),2	4577,(6, 135),24	4601,(10, 155),2	4603,(12, 35),2	4605,(6, 180),2	4607,(7, 100),12	4619,(7, 165),12	4631,(7, 170),26	4657,(7, 200),16	4673,(9, 40),10	4683,(9, 80),12	4695,(9, 110),10	4705,(9, 130),10	4715,(10, 130),14	4729,(12, 45),2	4731,(12, 50),2	4733,(12, 60),2	4735,(12, 105),4	4739,(12, 130),2	4741,(6, 190),10	4751,(9, 55),128	4879,(10, 30),76	4955,(10, 65),40	4995,(1, 23),2	4997,(1, 40),2	4999,(1, 80),16	5015,(1, 125),2	5017,(1, 130),32	5049,(1, 135),2	5051,(1, 140),2	5053,(12, 40),222	5275,(12, 150),8	5283,(12, 190),4	5287,(14, 100),2	5289,(15, 50),2	5291,(1, 185),4	5295,(14, 30),16	5311,(14, 185),12	5323,(15, 40),14	5337,(15, 170),2	5339,(1, 190),8	5347,(14, 170),700	6047,(15, 55),50	6097,(15, 110),30	6127,(15, 120),22	6149,(15, 140),6	6155,(15, 145),16	6171,(15, 195),2	6173,(16, 23),6	6179,(16, 35),2	6181,(16, 65),4	6185,(16, 80),12	6197,(16, 95),44	6241,(16, 105),26	6267,(16, 150),22	6289,(16, 180),4	6293,(17, 60),36	6329,(17, 75),14	6343,(17, 100),16	6359,(17, 110),4	6363,(17, 160),12	6375,(17, 165),30	6405,(19, 40),2	6407,(19, 80),2	6409,(19, 85),22	6431,(19, 90),14	6445,(19, 115),2	6447,(19, 190),4	6451,(20, 23),6	6457,(20, 35),4	6461,(20, 50),12	6473,(20, 65),84	6557,(20, 110),4	6561,(20, 155),4	6565,(20, 180),2	
1,(0, 2),10	41,(0, 7),10	81,(0, 12),10	121,(0, 17),10	131,(3, 76),22	187,(4, 36),18	205,(4, 66),4	209,(4, 76),34	255,(4, 146),4	259,(4, 151),6	265,(9, 26),12	277,(9, 61),2	279,(9, 86),2	283,(9, 41),6	289,(3, 106),136	425,(11, 126),10	435,(3, 111),16	451,(5, 76),2	453,(11, 156),48	501,(11, 161),38	539,(3, 61),238	777,(3, 116),28	805,(4, 96),46	851,(4, 176),94	945,(5, 46),12	957,(8, 51),8	965,(9, 111),2	967,(9, 146),24	991,(9, 176),156	1147,(10, 22),14	1161,(10, 51),2	1163,(10, 56),2	1165,(10, 121),2	1167,(14, 41),6	1173,(14, 46),8	1181,(8, 116),24	1205,(8, 126),72	1277,(19, 41),10	1287,(19, 61),4	1291,(8, 131),30	1321,(10, 36),36	1357,(10, 161),28	1385,(10, 171),18	1403,(14, 22),16	1419,(15, 66),8	1427,(15, 86),12	1439,(15, 116),4	1443,(15, 141),2	1445,(15, 166),12	1457,(19, 76),2	1459,(19, 166),2	1461,(20, 26),4	1465,(20, 41),2	1467,(20, 136),4	1471,(13, 86),2	1473,(13, 101),4	1477,(19, 51),20	1497,(20, 151),2	1499,(13, 121),62	1561,(14, 26),1872	3433,(15, 101),34	3467,(15, 146),342	3809,(15, 151),38	3847,(20, 56),58	3905,(20, 196),2	3907,(18, 41),2	3909,(18, 51),18	3927,(18, 71),2	3929,(18, 106),2	3931,(18, 141),16	3991,(6, 61),8	4035,(6, 146),2	4037,(6, 156),2	4041,(15, 171),104	4145,(20, 126),42	4187,(18, 166),72	4259,(18, 181),112	4569,(6, 131),8	4601,(6, 166),2	4607,(6, 186),122	4863,(1, 76),18	4881,(1, 91),6	4985,(16, 26),4	5053,(1, 161),210	5347,(16, 31),8	5355,(16, 36),10	5561,(16, 141),20	5581,(16, 151),10	5591,(18, 191),258	
139,(2, 54),2	141,(2, 59),20	161,(2, 69),2	163,(3, 49),60	223,(3, 69),34	257,(3, 124),2	259,(3, 179),2	261,(2, 99),20	281,(4, 34),2	283,(3, 104),6	289,(4, 44),2	291,(4, 59),8	299,(4, 159),4	313,(2, 134),40	353,(9, 49),18	371,(9, 64),4	375,(2, 169),22	397,(5, 21),34	431,(7, 134),2	433,(5, 59),14	447,(5, 109),2	449,(10, 114),2	451,(3, 159),6	457,(5, 74),10	467,(5, 154),6	473,(10, 39),4	477,(10, 119),2	479,(10, 154),2	481,(15, 94),2	483,(7, 21),6	489,(7, 29),6	495,(7, 74),8	503,(7, 169),2	505,(7, 184),6	511,(12, 84),2	513,(3, 174),4	517,(7, 199),8	525,(9, 119),2	527,(9, 144),2	529,(9, 194),2	531,(8, 69),6	537,(70, 201),2	539,(5, 144),200	739,(7, 54),24	763,(7, 99),18	781,(9, 179),24	805,(3, 144),82	887,(7, 194),44	931,(10, 149),6	937,(12, 104),10	947,(14, 39),14	961,(14, 69),2	963,(14, 174),2	965,(8, 74),216	1181,(9, 184),30	1211,(10, 64),18	1229,(10, 169),60	1289,(10, 179),26	1315,(12, 189),32	1347,(14, 44),16	1363,(8, 164),54	1417,(12, 29),298	1715,(12, 124),60	1775,(13, 89),74	1849,(13, 94),16	1865,(13, 134),194	2059,(15, 59),4	2063,(15, 104),2	2065,(15, 159),2	2067,(17, 44),106	2173,(17, 84),10	2183,(17, 94),8	2191,(17, 104),4	2195,(17, 114),60	2255,(17, 134),2	2257,(17, 154),2	2259,(17, 194),2	2261,(20, 21),2	2263,(20, 64),2	2265,(20, 69),288	2553,(20, 74),48	2601,(20, 99),14	2615,(20, 119),2	2617,(20, 189),12	2629,(20, 194),16	2645,(81, 201),2	2647,(18, 69),14	2661,(18, 79),6	2667,(18, 139),2	2669,(18, 144),2	2671,(18, 184),8	2679,(28, 201),2	2681,(68, 201),2	2683,(98, 201),2	2685,(175, 201),2	2687,(108, 201),2	2689,(83, 201),2	2691,(128, 201),2	2693,(183, 201),2	2695,(96, 201),2	2697,(48, 201),2	2699,(111, 201),2	2701,(138, 201),2	2703,(173, 201),2	2705,(176, 201),2	2707,(103, 201),2	2709,(46, 201),2	2711,(33, 201),2	2713,(38, 201),2	2715,(73, 201),2	2717,(22, 201),2	2719,(118, 201),2	2721,(66, 201),2	2723,(193, 201),2	2725,(116, 201),2	2727,(58, 201),2	2729,(136, 201),2	2731,(63, 201),2	2733,(86, 201),2	2735,(123, 201),2	2737,(121, 201),2	2739,(148, 201),2	2741,(198, 201),2	3433,(14, 29),28	3461,(14, 84),24	3485,(14, 89),34	3519,(14, 99),6	3525,(14, 184),82	3607,(14, 189),2	3609,(14, 199),84	3693,(19, 34),10	3703,(24, 201),2	3705,(97, 201),2	3707,(152, 201),2	3709,(32, 201),2	3711,(52, 201),2	3713,(67, 201),2	3715,(72, 201),2	3717,(162, 201),2	3719,(177, 201),2	3721,(82, 201),2	3723,(192, 201),2	3725,(117, 201),2	3727,(167, 201),2	3729,(157, 201),2	3731,(172, 201),2	3733,(147, 201),2	3735,(87, 201),2	3737,(92, 201),2	3739,(112, 201),2	3741,(142, 201),2	3743,(77, 201),2	3745,(101, 201),2	3985,(56, 201),2	4059,(42, 201),2	4065,(196, 201),2	4139,(47, 201),2	4145,(41, 201),2	4187,(25, 201),2	4189,(158, 201),2	4225,(51, 201),2	4305,(71, 201),2	4385,(106, 201),2	4465,(61, 201),2	4545,(146, 201),2	4673,(156, 201),2	4685,(178, 201),2	4705,(171, 201),2	4753,(200, 201),2	4785,(126, 201),2	4821,(188, 201),2	4833,(45, 201),2	4865,(181, 201),2	4931,(197, 201),2	4945,(131, 201),2	4995,(133, 201),2	5011,(27, 201),2	5025,(166, 201),2	5073,(143, 201),2	5091,(37, 201),2	5097,(125, 201),2	5153,(153, 201),2	5171,(127, 201),2	5177,(130, 201),2	5233,(168, 201),2	5257,(135, 201),2	5287,(186, 201),2	5289,(76, 201),2	5291,(91, 201),2	5313,(43, 201),2	5345,(26, 201),2	5391,(30, 201),2	5393,(53, 201),2	5425,(161, 201),2	5471,(185, 201),2	5473,(163, 201),2	5505,(31, 201),2	5553,(78, 201),2	5585,(36, 201),2	5633,(88, 201),2	5665,(141, 201),2	5713,(93, 201),2	5745,(151, 201),2	5793,(113, 201),2	5929,(191, 201),2	6047,(187, 201),2	6049,(57, 201),2	6051,(62, 201),2	6053,(102, 201),2	6055,(107, 201),2	6057,(122, 201),2	6059,(132, 201),2	6061,(137, 201),2	6063,(182, 201),2	6127,(170, 201),2	6207,(55, 201),2	6287,(120, 201),2	6367,(140, 201),2	6447,(145, 201),2	6527,(195, 201),2	6607,(95, 201),2	6687,(105, 201),2	6767,(150, 201),2	6847,(60, 201),2	6927,(75, 201),2	7007,(100, 201),2	7087,(160, 201),2	7167,(165, 201),2	7247,(40, 201),2	7327,(80, 201),2	7407,(85, 201),2	7487,(90, 201),2	7567,(115, 201),2	7647,(190, 201),2	7727,(23, 201),2	7807,(35, 201),2	7887,(50, 201),2	7967,(65, 201),2	8047,(110, 201),2	8127,(155, 201),2	8207,(180, 201),2	
# Outgoing
397,(5, 21),34	431,(5, 24),2	433,(5, 59),14	447,(5, 109),2	449,(10, 114),2	451,(5, 76),2	453,(5, 102),2	455,(5, 162),2	457,(5, 74),10	467,(5, 154),6	473,(10, 39),4	477,(10, 119),2	479,(10, 154),2	481,(15, 94),2	483,(5, 57),28	511,(5, 147),8	519,(5, 152),6	525,(5, 75),14	539,(5, 144),200	739,(5, 172),2	741,(10, 107),4	745,(10, 117),2	747,(10, 137),60	807,(10, 147),10	817,(10, 162),12	829,(10, 167),26	855,(10, 182),50	905,(15, 52),2	907,(15, 72),2	909,(15, 77),12	925,(15, 107),4	929,(20, 67),2	931,(10, 149),6	939,(15, 162),4	943,(20, 107),2	945,(5, 46),12	957,(10, 177),78	1035,(10, 192),42	1077,(15, 82),12	1089,(15, 112),56	1145,(20, 127),2	1147,(10, 22),14	1161,(10, 51),2	1163,(10, 56),2	1165,(10, 121),2	1167,(15, 117),10	1177,(15, 192),10	1187,(20, 117),10	1197,(20, 167),10	1207,(20, 172),2	1211,(10, 64),18	1229,(10, 169),60	1289,(10, 179),26	1321,(10, 36),36	1357,(10, 161),28	1385,(10, 171),18	1419,(15, 66),8	1427,(15, 86),12	1439,(15, 116),4	1443,(15, 141),2	1445,(15, 166),12	1461,(20, 26),4	1465,(20, 41),2	1467,(20, 136),4	1497,(20, 151),2	1499,(15, 157),36	1535,(20, 122),24	1591,(20, 147),36	2059,(15, 59),4	2063,(15, 104),2	2065,(15, 159),2	2261,(20, 21),2	2263,(20, 64),2	2265,(20, 69),288	2553,(20, 74),48	2601,(20, 99),14	2615,(20, 119),2	2617,(20, 189),12	2629,(20, 194),16	2679,(28, 201),2	2681,(68, 201),2	2683,(98, 201),2	2687,(108, 201),2	2689,(83, 201),2	2691,(128, 201),2	2693,(183, 201),2	2697,(48, 201),2	2701,(138, 201),2	2703,(173, 201),2	2707,(103, 201),2	2711,(33, 201),2	2713,(38, 201),2	2715,(73, 201),2	2719,(118, 201),2	2723,(193, 201),2	2727,(58, 201),2	2731,(63, 201),2	2735,(123, 201),2	2739,(148, 201),2	2741,(198, 201),2	3433,(15, 101),34	3467,(15, 146),342	3809,(15, 151),38	3847,(20, 56),58	3905,(20, 196),2	3933,(5, 35),24	3957,(5, 85),6	3963,(5, 155),10	3973,(5, 185),2	3975,(5, 190),66	4041,(15, 171),104	4145,(20, 126),42	4187,(25, 201),2	4189,(158, 201),2	4575,(10, 40),2	4601,(10, 155),2	4685,(178, 201),2	4715,(10, 130),14	4821,(188, 201),2	4879,(10, 30),76	4955,(10, 65),40	4995,(133, 201),2	5073,(143, 201),2	5153,(153, 201),2	5233,(168, 201),2	5289,(15, 50),2	5313,(43, 201),2	5323,(15, 40),14	5337,(15, 170),2	5393,(53, 201),2	5473,(163, 201),2	5553,(78, 201),2	5633,(88, 201),2	5713,(93, 201),2	5793,(113, 201),2	6047,(15, 55),50	6097,(15, 110),30	6127,(15, 120),22	6149,(15, 140),6	6155,(15, 145),16	6171,(15, 195),2	6451,(20, 23),6	6457,(20, 35),4	6461,(20, 50),12	6473,(20, 65),84	6557,(20, 110),4	6561,(20, 155),4	6565,(20, 180),2	
165,(4, 28),22	187,(4, 36),18	205,(4, 66),4	209,(4, 76),34	243,(4, 88),12	255,(4, 146),4	259,(4, 151),6	265,(9, 26),12	277,(9, 61),2	279,(9, 86),2	281,(4, 34),2	283,(9, 41),6	289,(4, 44),2	291,(4, 59),8	299,(4, 159),4	303,(4, 168),8	311,(9, 68),4	315,(9, 108),10	325,(9, 123),2	327,(9, 163),8	335,(14, 38),12	351,(19, 98),2	353,(9, 49),18	371,(9, 64),4	375,(14, 173),12	387,(19, 43),4	391,(19, 128),6	421,(19, 183),2	429,(4, 85),2	431,(9, 135),4	437,(4, 80),10	447,(4, 155),62	509,(4, 175),16	525,(9, 119),2	527,(9, 144),2	529,(9, 194),2	531,(9, 133),48	579,(14, 113),48	627,(14, 133),32	671,(9, 153),90	781,(9, 179),24	805,(4, 96),46	851,(4, 176),94	947,(14, 39),14	961,(14, 69),2	963,(14, 174),2	965,(9, 111),2	967,(9, 146),24	991,(9, 176),156	1167,(14, 41),6	1173,(14, 46),8	1181,(9, 184),30	1277,(19, 41),10	1287,(19, 61),4	1347,(14, 44),16	1403,(14, 22),16	1457,(19, 76),2	1459,(19, 166),2	1477,(19, 51),20	1561,(14, 26),1872	3433,(14, 29),28	3461,(14, 84),24	3485,(14, 89),34	3519,(14, 99),6	3525,(14, 184),82	3607,(14, 189),2	3609,(14, 199),84	3693,(19, 34),10	3703,(24, 201),2	3705,(97, 201),2	3707,(152, 201),2	3709,(32, 201),2	3711,(52, 201),2	3713,(67, 201),2	3715,(72, 201),2	3717,(162, 201),2	3719,(177, 201),2	3721,(82, 201),2	3723,(192, 201),2	3725,(117, 201),2	3727,(167, 201),2	3729,(157, 201),2	3731,(172, 201),2	3733,(147, 201),2	3735,(87, 201),2	3737,(92, 201),2	3739,(112, 201),2	3741,(142, 201),2	3743,(77, 201),2	4059,(42, 201),2	4139,(47, 201),2	4673,(9, 40),10	4683,(9, 80),12	4695,(9, 110),10	4705,(9, 130),10	4751,(9, 55),128	4931,(197, 201),2	5011,(27, 201),2	5091,(37, 201),2	5171,(127, 201),2	5287,(14, 100),2	5295,(14, 30),16	5311,(14, 185),12	5347,(14, 170),700	6047,(187, 201),2	6049,(57, 201),2	6051,(62, 201),2	6053,(102, 201),2	6055,(107, 201),2	6057,(122, 201),2	6059,(132, 201),2	6061,(137, 201),2	6063,(182, 201),2	6405,(19, 40),2	6407,(19, 80),2	6409,(19, 85),22	6431,(19, 90),14	6445,(19, 115),2	6447,(19, 190),4	
101,(3, 28),10	121,(3, 33),6	127,(3, 83),2	129,(3, 187),2	131,(3, 76),22	163,(3, 49),60	223,(3, 69),34	257,(3, 124),2	259,(3, 179),2	261,(3, 88),12	273,(3, 98),10	283,(3, 104),6	289,(3, 106),136	425,(3, 123),8	433,(8, 73),2	435,(3, 111),16	451,(3, 159),6	457,(3, 167),26	483,(3, 138),22	505,(3, 143),4	509,(3, 173),4	513,(3, 174),4	517,(3, 193),14	531,(8, 69),6	537,(70, 201),2	539,(3, 61),238	777,(3, 116),28	805,(3, 144),82	887,(8, 25),34	921,(8, 32),2	923,(8, 52),2	925,(8, 53),12	937,(8, 72),2	939,(8, 78),14	953,(8, 87),4	957,(8, 51),8	965,(8, 74),216	1181,(8, 116),24	1205,(8, 126),72	1277,(8, 127),14	1291,(8, 131),30	1321,(8, 157),24	1345,(8, 158),18	1363,(8, 164),54	1417,(8, 172),2	1419,(8, 193),6	1425,(13, 42),10	1435,(13, 58),6	1441,(13, 63),28	1469,(13, 77),2	1471,(13, 86),2	1473,(13, 101),4	1477,(13, 107),22	1499,(13, 121),62	1561,(13, 127),2	1563,(13, 172),26	1589,(13, 197),2	1591,(18, 63),2	1593,(18, 113),20	1613,(18, 123),6	1619,(18, 148),8	1627,(18, 47),2	1629,(18, 62),2	1631,(18, 87),8	1639,(18, 92),10	1649,(18, 112),4	1653,(18, 122),10	1663,(18, 132),16	1679,(18, 142),2	1681,(18, 158),2	1683,(18, 198),2	1775,(13, 89),74	1849,(13, 94),16	1865,(13, 134),194	2059,(18, 178),126	2647,(18, 69),14	2661,(18, 79),6	2667,(18, 139),2	2669,(18, 144),2	2671,(18, 184),8	2685,(175, 201),2	3907,(18, 41),2	3909,(18, 51),18	3927,(18, 71),2	3929,(18, 106),2	3931,(18, 141),16	4187,(18, 166),72	4259,(18, 181),112	4753,(200, 201),2	4833,(45, 201),2	5097,(125, 201),2	5177,(130, 201),2	5257,(135, 201),2	5391,(30, 201),2	5471,(185, 201),2	5591,(18, 191),258	6127,(170, 201),2	6207,(55, 201),2	6287,(120, 201),2	6367,(140, 201),2	6447,(145, 201),2	6527,(195, 201),2	6607,(95, 201),2	6687,(105, 201),2	6767,(150, 201),2	6847,(60, 201),2	6927,(75, 201),2	7007,(100, 201),2	7087,(160, 201),2	7167,(165, 201),2	7247,(40, 201),2	7327,(80, 201),2	7407,(85, 201),2	7487,(90, 201),2	7567,(115, 201),2	7647,(190, 201),2	7727,(23, 201),2	7807,(35, 201),2	7887,(50, 201),2	7967,(65, 201),2	8047,(110, 201),2	8127,(155, 201),2	8207,(180, 201),2	
101,(2, 35),10	111,(2, 42),18	129,(2, 48),10	139,(2, 54),2	141,(2, 59),20	161,(2, 69),2	163,(2, 72),96	259,(2, 73),2	261,(2, 99),20	281,(2, 112),6	287,(2, 117),2	289,(2, 127),18	307,(2, 132),6	313,(2, 134),40	353,(2, 142),12	365,(2, 157),10	375,(2, 169),22	397,(2, 178),2	399,(2, 183),22	421,(7, 42),2	423,(7, 48),2	425,(2, 105),2	427,(2, 115),2	429,(7, 67),2	431,(7, 134),2	433,(7, 27),6	439,(2, 198),44	483,(7, 21),6	489,(7, 29),6	495,(7, 74),8	503,(7, 169),2	505,(7, 184),6	511,(12, 84),2	513,(7, 103),4	517,(7, 199),8	525,(7, 92),12	537,(7, 97),88	625,(7, 107),20	645,(7, 152),16	661,(7, 153),2	663,(7, 168),8	671,(12, 77),4	675,(17, 52),2	677,(17, 67),10	687,(17, 87),4	691,(17, 92),20	711,(17, 127),4	715,(17, 137),4	719,(17, 172),16	739,(7, 54),24	763,(7, 99),18	781,(12, 33),14	795,(12, 38),2	797,(12, 73),72	869,(12, 118),6	875,(17, 133),2	887,(7, 194),44	937,(12, 104),10	1315,(12, 189),32	1417,(12, 29),298	1715,(12, 124),60	1775,(17, 77),128	2067,(17, 44),106	2173,(17, 84),10	2183,(17, 94),8	2191,(17, 104),4	2195,(17, 114),60	2255,(17, 134),2	2257,(17, 154),2	2259,(17, 194),2	2645,(81, 201),2	2695,(96, 201),2	2699,(111, 201),2	2705,(176, 201),2	2709,(46, 201),2	2717,(22, 201),2	2721,(66, 201),2	2725,(116, 201),2	2729,(136, 201),2	2733,(86, 201),2	2737,(121, 201),2	3745,(101, 201),2	3985,(56, 201),2	4065,(196, 201),2	4145,(41, 201),2	4225,(51, 201),2	4305,(71, 201),2	4385,(106, 201),2	4465,(61, 201),2	4545,(146, 201),2	4569,(7, 90),6	4603,(12, 35),2	4607,(7, 100),12	4619,(7, 165),12	4631,(7, 170),26	4657,(7, 200),16	4673,(156, 201),2	4705,(171, 201),2	4729,(12, 45),2	4731,(12, 50),2	4733,(12, 60),2	4735,(12, 105),4	4739,(12, 130),2	4785,(126, 201),2	4865,(181, 201),2	4945,(131, 201),2	5025,(166, 201),2	5053,(12, 40),222	5275,(12, 150),8	5283,(12, 190),4	5287,(186, 201),2	5289,(76, 201),2	5291,(91, 201),2	5345,(26, 201),2	5425,(161, 201),2	5505,(31, 201),2	5585,(36, 201),2	5665,(141, 201),2	5745,(151, 201),2	5929,(191, 201),2	6293,(17, 60),36	6329,(17, 75),14	6343,(17, 100),16	6359,(17, 110),4	6363,(17, 160),12	6375,(17, 165),30	
1,(0, 2),10	11,(0, 3),10	21,(0, 4),10	31,(0, 5),10	41,(0, 7),10	51,(0, 8),10	61,(0, 9),10	71,(0, 10),10	81,(0, 12),10	91,(0, 13),10	101,(0, 14),10	111,(0, 15),10	121,(0, 17),10	131,(0, 18),10	141,(0, 19),10	151,(0, 20),10	161,(11, 33),4	165,(11, 40),4	169,(11, 55),6	175,(11, 75),230	405,(11, 120),20	425,(11, 126),10	435,(11, 130),2	437,(11, 138),2	439,(11, 142),2	441,(11, 152),12	453,(11, 156),48	501,(11, 161),38	539,(11, 170),3394	3933,(6, 25),4	3937,(6, 37),14	3951,(6, 42),28	3979,(6, 43),2	3981,(6, 47),10	3991,(6, 61),8	3999,(6, 122),36	4035,(6, 146),2	4037,(6, 156),2	4039,(6, 158),2	4041,(6, 60),8	4049,(6, 75),520	4569,(6, 131),8	4577,(6, 135),24	4601,(6, 166),2	4603,(6, 178),2	4605,(6, 180),2	4607,(6, 186),122	4729,(6, 188),12	4741,(6, 190),10	4751,(6, 197),100	4851,(1, 27),2	4853,(1, 37),10	4863,(1, 76),18	4881,(1, 91),6	4887,(1, 127),8	4895,(1, 133),18	4913,(1, 143),48	4961,(1, 153),18	4979,(1, 168),2	4981,(1, 182),4	4985,(16, 26),4	4989,(16, 43),2	4991,(16, 53),4	4995,(1, 23),2	4997,(1, 40),2	4999,(1, 80),16	5015,(1, 125),2	5017,(1, 130),32	5049,(1, 135),2	5051,(1, 140),2	5053,(1, 161),210	5263,(1, 163),28	5291,(1, 185),4	5295,(1, 187),44	5339,(1, 190),8	5347,(16, 31),8	5355,(16, 36),10	5365,(16, 57),4	5369,(16, 62),14	5383,(16, 78),2	5385,(16, 88),8	5393,(16, 93),2	5395,(16, 102),24	5419,(16, 107),54	5473,(16, 113),2	5475,(16, 122),30	5505,(16, 132),54	5559,(16, 137),2	5561,(16, 141),20	5581,(16, 151),10	5591,(16, 182),6	6173,(16, 23),6	6179,(16, 35),2	6181,(16, 65),4	6185,(16, 80),12	6197,(16, 95),44	6241,(16, 105),26	6267,(16, 150),22	6289,(16, 180),4	
