22830
# CPU
133,4,1	265,8,1	353,24,1	397,12,1	529,16,1	541,128,1	585,172,1	605,132,1	613,60,1	661,20,1	662,124,1	663,92,1	761,196,1	813,52,1	869,140,1	1105,76,1	1121,200,1	1393,48,1	1493,160,1	1973,44,1	1977,28,1	2037,188,1	2065,72,1	2161,84,1	2193,68,1	2197,148,1	2321,100,1	2325,108,1	2333,40,1	2373,112,1	2389,184,1	2405,144,1	2417,152,1	2461,36,1	2589,164,1	2601,168,1	2765,64,1	2773,88,1	2805,120,1	3057,104,1	3121,96,1	3185,116,1	3289,156,1	3313,176,1	3345,136,1	3405,192,1	3501,56,1	3641,32,1	7317,180,1	7645,80,1	
89,3,1	221,7,1	353,11,1	485,15,1	486,191,1	617,19,1	1217,147,1	1493,27,1	1537,71,1	1589,163,1	2065,47,1	2153,59,1	2161,67,1	2197,87,1	2321,135,1	2373,111,1	2389,123,1	2605,51,1	2665,103,1	2749,31,1	2805,39,1	2837,127,1	2841,139,1	2937,107,1	2961,23,1	2965,35,1	2977,155,1	3141,187,1	3157,75,1	3217,63,1	3225,55,1	3229,91,1	3233,171,1	3249,131,1	3385,43,1	3449,195,1	3729,99,1	4041,175,1	4161,83,1	4501,199,1	4633,151,1	4681,167,1	5021,79,1	5101,95,1	5109,115,1	5205,119,1	5217,143,1	5241,159,1	5245,179,1	5313,183,1	
45,2,1	177,6,1	201,190,1	242,106,1	309,10,1	441,14,1	442,78,1	573,18,1	574,126,1	617,150,1	621,54,1	945,42,1	985,114,1	1025,130,1	1097,74,1	1137,110,1	1201,170,1	1425,46,1	1437,166,1	1461,34,1	1537,38,1	1561,70,1	1589,58,1	1633,158,1	1645,90,1	1789,122,1	1805,142,1	1849,134,1	2061,26,1	2089,82,1	2169,182,1	2273,22,1	2565,162,1	2645,174,1	2653,198,1	2753,50,1	2793,94,1	2853,186,1	2937,194,1	2977,66,1	3233,118,1	3573,62,1	7017,98,1	8093,86,1	9009,146,1	9113,138,1	9353,30,1	9485,154,1	9725,102,1	10061,178,1	
0,0,1	1,13,1	2,9,1	3,5,1	4,1,1	5,17,1	6,173,1	7,121,1	8,177,1	9,45,1	10,41,1	11,193,1	12,145,1	345,53,1	385,197,1	437,133,1	485,149,1	565,185,1	653,109,1	665,37,1	697,141,1	761,97,1	769,65,1	773,153,1	825,181,1	829,21,1	833,93,1	837,57,1	949,129,1	961,113,1	1449,49,1	1585,117,1	1589,105,1	2085,137,1	2333,165,1	2449,69,1	2605,101,1	2725,161,1	3065,81,1	3073,169,1	3141,61,1	3185,29,1	3553,25,1	4345,77,1	4813,189,1	5593,85,1	6129,73,1	6141,89,1	6201,157,1	7417,33,1	7729,125,1	22829,201,1	
# Incoming
89,(0, 4),44	133,(3, 28),20	153,(3, 36),4	157,(3, 72),4	161,(3, 76),4	165,(3, 100),8	173,(3, 144),4	201,(3, 192),4	221,(0, 8),44	265,(2, 48),40	305,(7, 28),4	309,(7, 96),4	333,(7, 120),4	337,(7, 184),4	345,(2, 144),4	349,(6, 24),4	353,(0, 12),44	397,(2, 84),12	409,(3, 152),60	485,(0, 16),44	529,(7, 128),12	541,(11, 60),12	553,(11, 96),4	557,(11, 116),4	561,(15, 64),4	565,(6, 28),4	569,(6, 36),4	573,(6, 112),4	577,(10, 40),4	581,(10, 172),4	585,(11, 124),8	593,(11, 132),12	605,(15, 60),8	617,(0, 20),44	661,(2, 196),100	761,(7, 52),52	813,(11, 40),52	865,(19, 140),4	873,(14, 144),12	885,(13, 72),208	1097,(13, 76),8	1105,(11, 200),16	1121,(19, 64),16	1137,(13, 152),8	1145,(3, 160),188	1333,(11, 48),60	1393,(11, 72),44	1449,(6, 160),44	1493,(11, 152),60	1561,(9, 80),60	1621,(19, 56),24	1645,(9, 96),8	1653,(11, 168),148	1801,(19, 32),44	1849,(9, 148),12	1861,(10, 148),60	1921,(14, 44),52	1973,(18, 28),4	1977,(11, 188),60	2037,(9, 168),4	2041,(19, 100),12	2061,(18, 72),4	2065,(5, 56),16	2089,(5, 84),72	2161,(14, 68),32	2193,(18, 148),4	2197,(5, 88),4	2201,(5, 100),120	2321,(5, 108),4	2325,(18, 40),8	2333,(19, 112),40	2373,(5, 116),4	2377,(19, 184),12	2389,(5, 136),4	2393,(5, 144),12	2405,(5, 152),12	2417,(19, 36),44	2565,(5, 164),24	2589,(5, 168),12	2645,(5, 176),4	2725,(18, 156),4	2753,(1, 64),12	2769,(1, 88),4	2793,(1, 104),4	2797,(1, 116),4	2801,(1, 120),4	2805,(6, 104),252	3081,(17, 96),40	3161,(17, 116),24	3249,(17, 156),40	3289,(17, 176),24	3317,(18, 136),28	3357,(17, 192),48	3405,(14, 56),96	3501,(18, 32),140	7017,(11, 180),300	7417,(19, 80),228	
45,(0, 3),44	177,(0, 7),44	246,(2, 51),4	250,(2, 71),4	254,(2, 147),4	258,(6, 123),4	309,(0, 11),44	353,(2, 79),36	393,(6, 199),4	441,(0, 15),44	485,(2, 151),68	553,(4, 127),12	573,(0, 19),44	617,(4, 67),20	637,(6, 67),16	653,(10, 23),4	657,(4, 175),12	669,(8, 27),4	673,(13, 23),16	689,(13, 31),96	785,(6, 111),36	821,(6, 135),16	837,(8, 131),4	841,(13, 63),44	885,(2, 35),156	1041,(4, 167),88	1129,(8, 179),4	1133,(13, 111),4	1137,(8, 103),8	1145,(13, 155),8	1153,(8, 39),20	1173,(8, 119),16	1189,(8, 147),28	1217,(8, 199),4	1221,(12, 63),4	1225,(13, 195),256	1481,(9, 27),12	1493,(9, 35),28	1521,(10, 59),4	1525,(10, 71),12	1537,(9, 43),4	1541,(6, 163),48	1589,(8, 151),28	1617,(16, 87),4	1621,(9, 83),12	1633,(12, 99),12	1653,(9, 103),40	1693,(9, 119),152	1845,(16, 55),8	1853,(10, 131),4	1857,(10, 159),4	1861,(9, 159),176	2037,(10, 183),16	2053,(14, 43),8	2061,(5, 47),4	2065,(10, 75),28	2093,(10, 79),28	2121,(14, 59),32	2153,(14, 127),4	2157,(18, 67),4	2161,(5, 87),36	2197,(10, 139),120	2317,(18, 135),4	2325,(5, 111),48	2373,(16, 131),4	2377,(5, 123),12	2389,(4, 75),180	2569,(12, 51),36	2605,(12, 103),60	2665,(12, 195),56	2721,(1, 31),28	2749,(14, 143),16	2765,(1, 79),4	2769,(14, 155),20	2789,(18, 39),16	2805,(1, 127),32	2837,(1, 139),4	2841,(1, 151),4	2925,(16, 107),12	2937,(17, 23),24	2961,(17, 35),4	2965,(17, 43),8	2973,(16, 155),4	2977,(17, 75),72	3049,(17, 83),32	3081,(10, 187),60	3141,(16, 75),16	3157,(17, 115),4	3161,(16, 63),56	3217,(16, 199),4	3221,(20, 55),4	3225,(20, 91),4	3229,(20, 171),4	3233,(17, 131),16	3313,(17, 179),44	3357,(18, 43),28	3405,(17, 195),44	3573,(4, 99),156	3729,(14, 79),124	3853,(14, 95),96	3949,(14, 175),92	4041,(18, 83),120	4161,(18, 183),60	4345,(12, 199),156	4501,(16, 143),20	4521,(16, 151),112	4633,(16, 167),48	4945,(20, 79),76	5021,(20, 95),80	5101,(20, 115),8	5109,(20, 119),96	5205,(20, 143),12	5217,(20, 159),24	5241,(20, 179),4	5245,(20, 183),68	
1,(0, 2),44	133,(0, 6),44	177,(3, 94),16	193,(3, 130),4	197,(3, 190),4	222,(7, 50),16	238,(7, 106),4	265,(0, 10),44	313,(7, 110),20	385,(11, 50),8	397,(0, 14),44	469,(7, 114),44	513,(11, 54),4	517,(11, 58),8	525,(11, 66),4	529,(0, 18),44	573,(11, 70),4	577,(11, 146),4	581,(15, 30),4	605,(4, 150),12	617,(15, 54),4	637,(15, 94),8	645,(4, 162),12	661,(13, 22),12	673,(7, 154),88	761,(8, 70),4	765,(8, 130),4	769,(8, 146),4	785,(13, 58),56	841,(8, 34),76	917,(8, 42),28	945,(8, 114),40	985,(8, 174),24	1009,(11, 130),16	1025,(11, 162),60	1085,(15, 134),8	1093,(13, 74),4	1097,(15, 194),4	1101,(19, 102),4	1105,(13, 86),28	1133,(12, 110),4	1145,(12, 118),8	1153,(13, 170),48	1201,(13, 178),24	1225,(8, 82),196	1421,(16, 46),4	1425,(16, 86),4	1429,(16, 158),4	1433,(16, 166),4	1437,(15, 34),24	1461,(15, 102),16	1477,(15, 122),16	1521,(9, 38),16	1541,(9, 70),20	1561,(15, 138),16	1577,(19, 58),12	1589,(19, 98),16	1621,(20, 134),4	1625,(20, 158),8	1633,(9, 90),12	1645,(8, 182),104	1749,(16, 102),24	1773,(16, 122),16	1789,(20, 142),16	1805,(20, 194),4	1845,(9, 134),4	1849,(11, 174),128	2041,(9, 198),16	2057,(5, 26),4	2081,(5, 62),4	2085,(5, 82),4	2089,(11, 182),80	2169,(19, 22),104	2417,(5, 162),148	2601,(5, 174),44	2649,(5, 198),4	2653,(1, 30),68	2749,(1, 50),4	2773,(1, 94),20	2845,(1, 186),8	2853,(1, 194),84	2973,(17, 66),4	2977,(16, 178),96	3121,(17, 98),36	3185,(17, 118),48	3233,(4, 62),340	3573,(7, 98),3444	7017,(8, 30),720	7737,(11, 86),356	8093,(15, 146),916	9009,(16, 138),104	9113,(19, 30),240	9353,(19, 154),132	9485,(19, 178),144	9629,(20, 102),96	9725,(20, 178),336	
46,(2, 21),92	138,(2, 29),108	246,(3, 61),28	274,(3, 77),16	290,(3, 149),12	305,(2, 53),40	345,(7, 81),20	365,(7, 97),4	369,(7, 101),4	373,(7, 197),12	389,(6, 57),4	393,(11, 37),12	409,(2, 133),28	437,(2, 149),48	485,(4, 33),68	553,(2, 185),12	565,(4, 65),4	569,(4, 125),36	605,(10, 25),4	609,(10, 29),8	617,(10, 49),4	621,(11, 65),16	637,(4, 153),8	645,(11, 109),8	653,(15, 33),4	657,(15, 93),4	661,(19, 37),4	673,(8, 141),24	697,(8, 169),28	725,(12, 69),24	749,(12, 81),8	757,(12, 97),4	761,(14, 65),8	769,(18, 153),4	773,(8, 181),52	825,(16, 21),4	829,(16, 93),4	833,(20, 57),4	837,(6, 137),36	873,(11, 73),60	933,(15, 129),16	949,(19, 113),12	1009,(12, 89),16	1025,(16, 117),16	1041,(6, 49),408	1449,(8, 85),112	1561,(12, 117),24	1585,(20, 105),4	1589,(190, 201),132	1721,(106, 201),132	1853,(8, 137),232	2085,(8, 165),248	2333,(10, 33),28	2361,(10, 69),88	2449,(10, 81),40	2489,(10, 101),116	2605,(10, 157),92	2697,(10, 161),28	2725,(24, 201),132	2857,(12, 73),68	2925,(191, 201),132	3057,(14, 81),8	3065,(14, 169),8	3073,(16, 85),40	3113,(20, 25),8	3121,(20, 61),20	3141,(14, 29),44	3185,(78, 201),132	3317,(15, 85),172	3489,(19, 25),64	3729,(12, 77),616	4345,(126, 201),132	4477,(150, 201),132	4681,(16, 189),132	4813,(128, 201),132	4945,(18, 85),648	5593,(172, 201),132	5725,(132, 201),132	5857,(60, 201),132	5989,(54, 201),132	6121,(20, 73),8	6129,(20, 89),12	6141,(20, 157),60	6201,(124, 201),132	6333,(92, 201),132	6465,(196, 201),132	6597,(52, 201),132	6729,(140, 201),132	6861,(42, 201),132	6993,(114, 201),132	7125,(130, 201),132	7317,(19, 33),100	7417,(74, 201),132	7645,(19, 125),84	7737,(76, 201),132	7869,(200, 201),132	8001,(110, 201),132	8133,(170, 201),132	8265,(48, 201),132	8397,(46, 201),132	8529,(166, 201),132	8661,(34, 201),132	8793,(160, 201),132	8925,(38, 201),132	9057,(70, 201),132	9189,(58, 201),132	9321,(158, 201),132	9453,(90, 201),132	9629,(147, 201),132	9761,(27, 201),132	9893,(71, 201),132	10025,(163, 201),132	10157,(122, 201),132	10289,(142, 201),132	10421,(134, 201),132	10553,(44, 201),132	10685,(28, 201),132	10817,(188, 201),132	10949,(26, 201),132	11081,(72, 201),132	11213,(47, 201),132	11345,(82, 201),132	11477,(59, 201),132	11609,(84, 201),132	11741,(67, 201),132	11873,(182, 201),132	12005,(68, 201),132	12137,(148, 201),132	12269,(87, 201),132	12401,(22, 201),132	12533,(100, 201),132	12665,(135, 201),132	12797,(108, 201),132	12929,(40, 201),132	13061,(112, 201),132	13193,(111, 201),132	13325,(184, 201),132	13457,(123, 201),132	13589,(144, 201),132	13721,(152, 201),132	13853,(36, 201),132	13985,(162, 201),132	14117,(164, 201),132	14249,(168, 201),132	14381,(51, 201),132	14513,(174, 201),132	14645,(198, 201),132	14777,(103, 201),132	14909,(31, 201),132	15041,(50, 201),132	15173,(64, 201),132	15305,(88, 201),132	15437,(94, 201),132	15569,(39, 201),132	15701,(120, 201),132	15833,(127, 201),132	15965,(139, 201),132	16097,(186, 201),132	16229,(194, 201),132	16361,(107, 201),132	16493,(23, 201),132	16625,(35, 201),132	16757,(155, 201),132	16889,(66, 201),132	17021,(104, 201),132	17153,(96, 201),132	17285,(187, 201),132	17417,(75, 201),132	17549,(116, 201),132	17681,(63, 201),132	17813,(55, 201),132	17945,(91, 201),132	18077,(118, 201),132	18209,(171, 201),132	18341,(131, 201),132	18473,(156, 201),132	18605,(176, 201),132	18737,(136, 201),132	18869,(43, 201),132	19001,(192, 201),132	19133,(195, 201),132	19265,(56, 201),132	19397,(62, 201),132	19529,(32, 201),132	19661,(99, 201),132	19793,(175, 201),132	19925,(83, 201),132	20057,(199, 201),132	20189,(151, 201),132	20321,(167, 201),132	20453,(79, 201),132	20585,(95, 201),132	20717,(115, 201),132	20849,(119, 201),132	20981,(143, 201),132	21113,(159, 201),132	21245,(179, 201),132	21377,(183, 201),132	21509,(98, 201),132	21641,(180, 201),132	21773,(80, 201),132	21905,(86, 201),132	22037,(146, 201),132	22169,(138, 201),132	22301,(30, 201),132	22433,(154, 201),132	22565,(102, 201),132	22697,(178, 201),132	
# Outgoing
485,(4, 33),68	553,(4, 127),12	565,(4, 65),4	569,(4, 125),36	605,(4, 150),12	617,(4, 67),20	637,(4, 153),8	645,(4, 162),12	657,(4, 175),12	669,(8, 27),4	673,(8, 141),24	697,(8, 169),28	725,(12, 69),24	749,(12, 81),8	757,(12, 97),4	761,(8, 70),4	765,(8, 130),4	769,(8, 146),4	773,(8, 181),52	825,(16, 21),4	829,(16, 93),4	833,(20, 57),4	837,(8, 131),4	841,(8, 34),76	917,(8, 42),28	945,(8, 114),40	985,(8, 174),24	1009,(12, 89),16	1025,(16, 117),16	1041,(4, 167),88	1129,(8, 179),4	1133,(12, 110),4	1137,(8, 103),8	1145,(12, 118),8	1153,(8, 39),20	1173,(8, 119),16	1189,(8, 147),28	1217,(8, 199),4	1221,(12, 63),4	1225,(8, 82),196	1421,(16, 46),4	1425,(16, 86),4	1429,(16, 158),4	1433,(16, 166),4	1449,(8, 85),112	1561,(12, 117),24	1585,(20, 105),4	1589,(8, 151),28	1617,(16, 87),4	1621,(20, 134),4	1625,(20, 158),8	1633,(12, 99),12	1645,(8, 182),104	1749,(16, 102),24	1773,(16, 122),16	1789,(20, 142),16	1805,(20, 194),4	1845,(16, 55),8	1853,(8, 137),232	2085,(8, 165),248	2373,(16, 131),4	2389,(4, 75),180	2569,(12, 51),36	2605,(12, 103),60	2665,(12, 195),56	2725,(24, 201),132	2857,(12, 73),68	2925,(16, 107),12	2973,(16, 155),4	2977,(16, 178),96	3073,(16, 85),40	3113,(20, 25),8	3121,(20, 61),20	3141,(16, 75),16	3161,(16, 63),56	3217,(16, 199),4	3221,(20, 55),4	3225,(20, 91),4	3229,(20, 171),4	3233,(4, 62),340	3573,(4, 99),156	3729,(12, 77),616	4345,(12, 199),156	4501,(16, 143),20	4521,(16, 151),112	4633,(16, 167),48	4681,(16, 189),132	4813,(128, 201),132	4945,(20, 79),76	5021,(20, 95),80	5101,(20, 115),8	5109,(20, 119),96	5205,(20, 143),12	5217,(20, 159),24	5241,(20, 179),4	5245,(20, 183),68	5593,(172, 201),132	5725,(132, 201),132	5857,(60, 201),132	6121,(20, 73),8	6129,(20, 89),12	6141,(20, 157),60	6201,(124, 201),132	6333,(92, 201),132	6465,(196, 201),132	6597,(52, 201),132	6729,(140, 201),132	7017,(8, 30),720	7737,(76, 201),132	7869,(200, 201),132	8265,(48, 201),132	8793,(160, 201),132	9009,(16, 138),104	9629,(20, 102),96	9725,(20, 178),336	10553,(44, 201),132	10685,(28, 201),132	10817,(188, 201),132	11081,(72, 201),132	11609,(84, 201),132	12005,(68, 201),132	12137,(148, 201),132	12533,(100, 201),132	12797,(108, 201),132	12929,(40, 201),132	13061,(112, 201),132	13325,(184, 201),132	13589,(144, 201),132	13721,(152, 201),132	13853,(36, 201),132	14117,(164, 201),132	14249,(168, 201),132	15173,(64, 201),132	15305,(88, 201),132	15701,(120, 201),132	17021,(104, 201),132	17153,(96, 201),132	17549,(116, 201),132	18473,(156, 201),132	18605,(176, 201),132	18737,(136, 201),132	19001,(192, 201),132	19265,(56, 201),132	19529,(32, 201),132	21641,(180, 201),132	21773,(80, 201),132	
133,(3, 28),20	153,(3, 36),4	157,(3, 72),4	161,(3, 76),4	165,(3, 100),8	173,(3, 144),4	177,(3, 94),16	193,(3, 130),4	197,(3, 190),4	201,(3, 192),4	222,(7, 50),16	238,(7, 106),4	246,(3, 61),28	274,(3, 77),16	290,(3, 149),12	305,(7, 28),4	309,(7, 96),4	313,(7, 110),20	333,(7, 120),4	337,(7, 184),4	345,(7, 81),20	365,(7, 97),4	369,(7, 101),4	373,(7, 197),12	385,(11, 50),8	393,(11, 37),12	409,(3, 152),60	469,(7, 114),44	513,(11, 54),4	517,(11, 58),8	525,(11, 66),4	529,(7, 128),12	541,(11, 60),12	553,(11, 96),4	557,(11, 116),4	561,(15, 64),4	573,(11, 70),4	577,(11, 146),4	581,(15, 30),4	585,(11, 124),8	593,(11, 132),12	605,(15, 60),8	617,(15, 54),4	621,(11, 65),16	637,(15, 94),8	645,(11, 109),8	653,(15, 33),4	657,(15, 93),4	661,(19, 37),4	673,(7, 154),88	761,(7, 52),52	813,(11, 40),52	865,(19, 140),4	873,(11, 73),60	933,(15, 129),16	949,(19, 113),12	1009,(11, 130),16	1025,(11, 162),60	1085,(15, 134),8	1097,(15, 194),4	1101,(19, 102),4	1105,(11, 200),16	1121,(19, 64),16	1145,(3, 160),188	1333,(11, 48),60	1393,(11, 72),44	1437,(15, 34),24	1461,(15, 102),16	1477,(15, 122),16	1493,(11, 152),60	1561,(15, 138),16	1577,(19, 58),12	1589,(19, 98),16	1621,(19, 56),24	1653,(11, 168),148	1801,(19, 32),44	1849,(11, 174),128	1977,(11, 188),60	2041,(19, 100),12	2089,(11, 182),80	2169,(19, 22),104	2333,(19, 112),40	2377,(19, 184),12	2417,(19, 36),44	2925,(191, 201),132	3317,(15, 85),172	3489,(19, 25),64	3573,(7, 98),3444	7017,(11, 180),300	7317,(19, 33),100	7417,(19, 80),228	7645,(19, 125),84	7737,(11, 86),356	8093,(15, 146),916	9113,(19, 30),240	9353,(19, 154),132	9485,(19, 178),144	9629,(147, 201),132	9761,(27, 201),132	9893,(71, 201),132	10025,(163, 201),132	11213,(47, 201),132	11477,(59, 201),132	11741,(67, 201),132	12269,(87, 201),132	12665,(135, 201),132	13193,(111, 201),132	13457,(123, 201),132	14381,(51, 201),132	14777,(103, 201),132	14909,(31, 201),132	15569,(39, 201),132	15833,(127, 201),132	15965,(139, 201),132	16361,(107, 201),132	16493,(23, 201),132	16625,(35, 201),132	16757,(155, 201),132	17285,(187, 201),132	17417,(75, 201),132	17681,(63, 201),132	17813,(55, 201),132	17945,(91, 201),132	18209,(171, 201),132	18341,(131, 201),132	18869,(43, 201),132	19133,(195, 201),132	19661,(99, 201),132	19793,(175, 201),132	19925,(83, 201),132	20057,(199, 201),132	20189,(151, 201),132	20321,(167, 201),132	20453,(79, 201),132	20585,(95, 201),132	20717,(115, 201),132	20849,(119, 201),132	20981,(143, 201),132	21113,(159, 201),132	21245,(179, 201),132	21377,(183, 201),132	
46,(2, 21),92	138,(2, 29),108	246,(2, 51),4	250,(2, 71),4	254,(2, 147),4	258,(6, 123),4	265,(2, 48),40	305,(2, 53),40	345,(2, 144),4	349,(6, 24),4	353,(2, 79),36	389,(6, 57),4	393,(6, 199),4	397,(2, 84),12	409,(2, 133),28	437,(2, 149),48	485,(2, 151),68	553,(2, 185),12	565,(6, 28),4	569,(6, 36),4	573,(6, 112),4	577,(10, 40),4	581,(10, 172),4	605,(10, 25),4	609,(10, 29),8	617,(10, 49),4	637,(6, 67),16	653,(10, 23),4	661,(2, 196),100	761,(14, 65),8	769,(18, 153),4	785,(6, 111),36	821,(6, 135),16	837,(6, 137),36	873,(14, 144),12	885,(2, 35),156	1041,(6, 49),408	1449,(6, 160),44	1521,(10, 59),4	1525,(10, 71),12	1541,(6, 163),48	1589,(190, 201),132	1721,(106, 201),132	1853,(10, 131),4	1857,(10, 159),4	1861,(10, 148),60	1921,(14, 44),52	1973,(18, 28),4	2037,(10, 183),16	2053,(14, 43),8	2061,(18, 72),4	2065,(10, 75),28	2093,(10, 79),28	2121,(14, 59),32	2153,(14, 127),4	2157,(18, 67),4	2161,(14, 68),32	2193,(18, 148),4	2197,(10, 139),120	2317,(18, 135),4	2325,(18, 40),8	2333,(10, 33),28	2361,(10, 69),88	2449,(10, 81),40	2489,(10, 101),116	2605,(10, 157),92	2697,(10, 161),28	2725,(18, 156),4	2749,(14, 143),16	2769,(14, 155),20	2789,(18, 39),16	2805,(6, 104),252	3057,(14, 81),8	3065,(14, 169),8	3081,(10, 187),60	3141,(14, 29),44	3185,(78, 201),132	3317,(18, 136),28	3357,(18, 43),28	3405,(14, 56),96	3501,(18, 32),140	3729,(14, 79),124	3853,(14, 95),96	3949,(14, 175),92	4041,(18, 83),120	4161,(18, 183),60	4345,(126, 201),132	4477,(150, 201),132	4945,(18, 85),648	5989,(54, 201),132	6861,(42, 201),132	6993,(114, 201),132	7125,(130, 201),132	7417,(74, 201),132	8001,(110, 201),132	8133,(170, 201),132	8397,(46, 201),132	8529,(166, 201),132	8661,(34, 201),132	8925,(38, 201),132	9057,(70, 201),132	9189,(58, 201),132	9321,(158, 201),132	9453,(90, 201),132	10157,(122, 201),132	10289,(142, 201),132	10421,(134, 201),132	10949,(26, 201),132	11345,(82, 201),132	11873,(182, 201),132	12401,(22, 201),132	13985,(162, 201),132	14513,(174, 201),132	14645,(198, 201),132	15041,(50, 201),132	15437,(94, 201),132	16097,(186, 201),132	16229,(194, 201),132	16889,(66, 201),132	18077,(118, 201),132	19397,(62, 201),132	21509,(98, 201),132	21905,(86, 201),132	22037,(146, 201),132	22169,(138, 201),132	22301,(30, 201),132	22433,(154, 201),132	22565,(102, 201),132	22697,(178, 201),132	
1,(0, 2),44	45,(0, 3),44	89,(0, 4),44	133,(0, 6),44	177,(0, 7),44	221,(0, 8),44	265,(0, 10),44	309,(0, 11),44	353,(0, 12),44	397,(0, 14),44	441,(0, 15),44	485,(0, 16),44	529,(0, 18),44	573,(0, 19),44	617,(0, 20),44	661,(13, 22),12	673,(13, 23),16	689,(13, 31),96	785,(13, 58),56	841,(13, 63),44	885,(13, 72),208	1093,(13, 74),4	1097,(13, 76),8	1105,(13, 86),28	1133,(13, 111),4	1137,(13, 152),8	1145,(13, 155),8	1153,(13, 170),48	1201,(13, 178),24	1225,(13, 195),256	1481,(9, 27),12	1493,(9, 35),28	1521,(9, 38),16	1537,(9, 43),4	1541,(9, 70),20	1561,(9, 80),60	1621,(9, 83),12	1633,(9, 90),12	1645,(9, 96),8	1653,(9, 103),40	1693,(9, 119),152	1845,(9, 134),4	1849,(9, 148),12	1861,(9, 159),176	2037,(9, 168),4	2041,(9, 198),16	2057,(5, 26),4	2061,(5, 47),4	2065,(5, 56),16	2081,(5, 62),4	2085,(5, 82),4	2089,(5, 84),72	2161,(5, 87),36	2197,(5, 88),4	2201,(5, 100),120	2321,(5, 108),4	2325,(5, 111),48	2373,(5, 116),4	2377,(5, 123),12	2389,(5, 136),4	2393,(5, 144),12	2405,(5, 152),12	2417,(5, 162),148	2565,(5, 164),24	2589,(5, 168),12	2601,(5, 174),44	2645,(5, 176),4	2649,(5, 198),4	2653,(1, 30),68	2721,(1, 31),28	2749,(1, 50),4	2753,(1, 64),12	2765,(1, 79),4	2769,(1, 88),4	2773,(1, 94),20	2793,(1, 104),4	2797,(1, 116),4	2801,(1, 120),4	2805,(1, 127),32	2837,(1, 139),4	2841,(1, 151),4	2845,(1, 186),8	2853,(1, 194),84	2937,(17, 23),24	2961,(17, 35),4	2965,(17, 43),8	2973,(17, 66),4	2977,(17, 75),72	3049,(17, 83),32	3081,(17, 96),40	3121,(17, 98),36	3157,(17, 115),4	3161,(17, 116),24	3185,(17, 118),48	3233,(17, 131),16	3249,(17, 156),40	3289,(17, 176),24	3313,(17, 179),44	3357,(17, 192),48	3405,(17, 195),44	
