44
# CPU
0,0,1	1,1,1	2,4,1	3,6,1	4,9,1	5,14,1	6,12,1	7,11,1	8,17,1	9,7,1	10,5,1	11,16,1	43,21,1	
9,2,1	10,18,1	11,3,1	12,19,1	13,10,1	14,13,1	15,15,1	16,8,1	17,20,1	
# Incoming
11,(18, 21),4	15,(3, 21),4	19,(19, 21),4	23,(10, 21),4	27,(13, 21),4	31,(15, 21),4	35,(8, 21),4	39,(20, 21),4	
1,(0, 2),8	
# Outgoing
1,(0, 2),8	
11,(18, 21),4	15,(3, 21),4	19,(19, 21),4	23,(10, 21),4	27,(13, 21),4	31,(15, 21),4	35,(8, 21),4	39,(20, 21),4	
