1153
# CPU
59,52,1	65,70,1	69,79,1	170,49,1	353,72,1	1001,36,1	1007,59,1	1137,45,1	1143,63,1	1149,68,1	
185,69,1	187,43,1	218,64,1	361,31,1	379,75,1	401,56,1	935,62,1	937,71,1	1003,51,1	1139,47,1	
127,8,1	128,41,1	129,54,1	130,61,1	133,60,1	142,30,1	257,80,1	339,46,1	351,66,1	1141,50,1	
109,7,1	110,40,1	131,25,1	163,37,1	216,48,1	415,65,1	1152,81,1	
91,6,1	111,44,1	205,77,1	243,78,1	365,33,1	1113,20,1	1135,39,1	
73,5,1	96,18,1	161,34,1	181,38,1	331,76,1	1129,24,1	
55,4,1	57,16,1	93,35,1	147,28,1	348,74,1	1121,23,1	
37,3,1	129,15,1	168,32,1	204,42,1	292,73,1	359,19,1	485,67,1	979,21,1	999,29,1	
19,2,1	20,14,1	140,27,1	338,58,1	345,12,1	349,13,1	
0,0,1	1,1,1	291,55,1	337,26,1	339,9,1	933,57,1	961,11,1	1029,53,1	1071,22,1	1077,10,1	1111,17,1	
# Incoming
57,(2, 52),2	59,(2, 70),6	65,(2, 79),4	168,(6, 49),2	351,(6, 72),2	999,(4, 36),2	1003,(4, 59),4	1135,(7, 45),2	1141,(7, 63),2	1143,(7, 68),6	
181,(1, 51),2	183,(1, 69),2	185,(2, 43),2	216,(8, 64),2	359,(5, 31),2	365,(5, 47),6	371,(6, 75),8	399,(5, 56),2	933,(3, 62),2	935,(3, 71),2	1001,(4, 51),2	1137,(7, 47),2	
109,(0, 8),18	127,(2, 60),6	140,(6, 30),2	243,(1, 80),14	337,(3, 46),2	339,(6, 66),12	371,(5, 50),28	1139,(7, 50),2	
91,(0, 7),18	109,(52, 81),2	111,(14, 81),2	113,(70, 81),2	115,(79, 81),2	129,(1, 25),2	141,(27, 81),2	161,(1, 37),2	171,(49, 81),2	186,(69, 81),2	188,(43, 81),2	204,(8, 48),12	219,(64, 81),2	292,(55, 81),2	338,(26, 81),2	340,(58, 81),2	342,(9, 81),2	346,(12, 81),2	348,(41, 81),2	350,(54, 81),2	353,(44, 81),2	355,(61, 81),2	357,(60, 81),2	359,(30, 81),2	361,(77, 81),2	363,(78, 81),2	365,(80, 81),2	367,(46, 81),2	369,(13, 81),2	371,(66, 81),2	373,(72, 81),2	375,(31, 81),2	379,(33, 81),2	381,(75, 81),2	401,(5, 65),14	415,(56, 81),2	485,(18, 81),2	487,(34, 81),2	489,(38, 81),2	491,(76, 81),2	934,(57, 81),2	937,(15, 81),2	939,(32, 81),2	941,(42, 81),2	943,(73, 81),2	945,(19, 81),2	947,(67, 81),2	949,(62, 81),2	951,(71, 81),2	962,(11, 81),2	980,(21, 81),2	1000,(29, 81),2	1002,(36, 81),2	1004,(51, 81),2	1007,(16, 81),2	1009,(35, 81),2	1011,(28, 81),2	1013,(74, 81),2	1015,(59, 81),2	1030,(53, 81),2	1072,(22, 81),2	1078,(10, 81),2	1112,(17, 81),2	1114,(20, 81),2	1122,(23, 81),2	1130,(24, 81),2	1136,(39, 81),2	1138,(45, 81),2	1140,(47, 81),2	1142,(50, 81),2	1144,(63, 81),2	1150,(68, 81),2	
73,(0, 6),18	93,(2, 44),18	185,(1, 77),20	205,(1, 78),38	361,(5, 33),4	1111,(7, 20),2	1129,(7, 39),6	
55,(0, 5),18	73,(2, 24),2	94,(6, 18),2	147,(1, 34),14	163,(1, 38),18	291,(2, 76),40	1121,(7, 24),8	
37,(0, 4),18	55,(2, 16),2	75,(2, 35),18	131,(1, 28),16	292,(8, 74),56	1113,(7, 23),8	
19,(0, 3),18	127,(1, 15),2	142,(6, 32),26	168,(8, 42),36	218,(8, 73),74	349,(5, 19),10	415,(5, 67),70	961,(4, 21),18	979,(4, 29),20	
1,(0, 2),18	92,(6, 12),2	96,(6, 27),44	170,(6, 58),168	339,(5, 12),6	345,(5, 13),4	
187,(2, 55),104	291,(3, 26),46	337,(5, 9),2	339,(3, 57),594	933,(4, 11),28	961,(5, 53),68	1029,(6, 22),42	1071,(7, 10),6	1077,(7, 17),34	
# Outgoing
109,(52, 81),2	113,(70, 81),2	115,(79, 81),2	171,(49, 81),2	373,(72, 81),2	1002,(36, 81),2	1015,(59, 81),2	1138,(45, 81),2	1144,(63, 81),2	1150,(68, 81),2	
186,(69, 81),2	188,(43, 81),2	219,(64, 81),2	375,(31, 81),2	381,(75, 81),2	415,(56, 81),2	949,(62, 81),2	951,(71, 81),2	1004,(51, 81),2	1140,(47, 81),2	
168,(8, 42),36	204,(8, 48),12	216,(8, 64),2	218,(8, 73),74	292,(8, 74),56	348,(41, 81),2	350,(54, 81),2	355,(61, 81),2	357,(60, 81),2	359,(30, 81),2	365,(80, 81),2	367,(46, 81),2	371,(66, 81),2	1142,(50, 81),2	
1071,(7, 10),6	1077,(7, 17),34	1111,(7, 20),2	1113,(7, 23),8	1121,(7, 24),8	1129,(7, 39),6	1135,(7, 45),2	1137,(7, 47),2	1139,(7, 50),2	1141,(7, 63),2	1143,(7, 68),6	
92,(6, 12),2	94,(6, 18),2	96,(6, 27),44	140,(6, 30),2	142,(6, 32),26	168,(6, 49),2	170,(6, 58),168	339,(6, 66),12	351,(6, 72),2	353,(44, 81),2	361,(77, 81),2	363,(78, 81),2	371,(6, 75),8	379,(33, 81),2	1029,(6, 22),42	1114,(20, 81),2	1136,(39, 81),2	
337,(5, 9),2	339,(5, 12),6	345,(5, 13),4	349,(5, 19),10	359,(5, 31),2	361,(5, 33),4	365,(5, 47),6	371,(5, 50),28	399,(5, 56),2	401,(5, 65),14	415,(5, 67),70	485,(18, 81),2	487,(34, 81),2	489,(38, 81),2	491,(76, 81),2	961,(5, 53),68	1130,(24, 81),2	
933,(4, 11),28	961,(4, 21),18	979,(4, 29),20	999,(4, 36),2	1001,(4, 51),2	1003,(4, 59),4	1007,(16, 81),2	1009,(35, 81),2	1011,(28, 81),2	1013,(74, 81),2	1122,(23, 81),2	
291,(3, 26),46	337,(3, 46),2	339,(3, 57),594	933,(3, 62),2	935,(3, 71),2	937,(15, 81),2	939,(32, 81),2	941,(42, 81),2	943,(73, 81),2	945,(19, 81),2	947,(67, 81),2	980,(21, 81),2	1000,(29, 81),2	
55,(2, 16),2	57,(2, 52),2	59,(2, 70),6	65,(2, 79),4	73,(2, 24),2	75,(2, 35),18	93,(2, 44),18	111,(14, 81),2	127,(2, 60),6	141,(27, 81),2	185,(2, 43),2	187,(2, 55),104	291,(2, 76),40	340,(58, 81),2	346,(12, 81),2	369,(13, 81),2	
1,(0, 2),18	19,(0, 3),18	37,(0, 4),18	55,(0, 5),18	73,(0, 6),18	91,(0, 7),18	109,(0, 8),18	127,(1, 15),2	129,(1, 25),2	131,(1, 28),16	147,(1, 34),14	161,(1, 37),2	163,(1, 38),18	181,(1, 51),2	183,(1, 69),2	185,(1, 77),20	205,(1, 78),38	243,(1, 80),14	292,(55, 81),2	338,(26, 81),2	342,(9, 81),2	934,(57, 81),2	962,(11, 81),2	1030,(53, 81),2	1072,(22, 81),2	1078,(10, 81),2	1112,(17, 81),2	
