120
# CPU
7,2,1	8,8,1	9,10,1	10,18,1	11,20,1	12,4,1	13,6,1	19,12,1	22,14,1	82,16,1	
0,0,1	1,1,1	2,5,1	3,9,1	4,17,1	5,7,1	6,11,1	17,3,1	44,13,1	83,15,1	92,19,1	119,21,1	
# Incoming
1,(0, 2),6	7,(1, 4),3	10,(1, 6),3	13,(1, 12),6	19,(1, 14),3	22,(1, 16),60	
8,(2, 3),9	17,(2, 13),27	44,(2, 15),39	83,(2, 19),9	92,(8, 21),3	95,(10, 21),3	98,(18, 21),3	101,(20, 21),3	104,(4, 21),3	107,(6, 21),3	110,(12, 21),3	113,(14, 21),3	116,(16, 21),3	
# Outgoing
8,(2, 3),9	17,(2, 13),27	44,(2, 15),39	83,(2, 19),9	92,(8, 21),3	95,(10, 21),3	98,(18, 21),3	101,(20, 21),3	104,(4, 21),3	107,(6, 21),3	110,(12, 21),3	113,(14, 21),3	116,(16, 21),3	
1,(0, 2),6	7,(1, 4),3	10,(1, 6),3	13,(1, 12),6	19,(1, 14),3	22,(1, 16),60	
