8794
# CPU
5,3,8	13,6,8	21,9,8	29,120,8	37,114,8	45,12,8	53,21,8	111,54,8	323,81,8	393,84,8	523,30,8	531,36,8	657,39,8	705,72,8	839,18,8	871,45,8	899,27,8	907,60,8	915,63,8	945,111,8	975,69,8	983,75,8	991,99,8	1253,24,8	1277,33,8	7371,48,8	7381,51,8	7439,90,8	7471,87,8	7479,93,8	7487,108,8	7495,117,8	7517,105,8	7525,15,8	7643,42,8	7659,57,8	7667,66,8	7753,78,8	7861,96,8	8339,102,8	
3,2,8	11,5,8	19,8,8	27,14,8	35,11,8	43,29,8	51,23,8	115,80,8	419,53,8	483,92,8	655,32,8	703,62,8	885,20,8	979,65,8	987,77,8	995,110,8	1003,119,8	1097,35,8	1119,44,8	1131,47,8	1139,41,8	1147,68,8	1155,74,8	1163,83,8	1171,86,8	1179,98,8	1199,107,8	1219,113,8	1239,38,8	1247,56,8	1335,89,8	1357,101,8	1365,116,8	1699,17,8	1707,26,8	1769,104,8	2069,50,8	2097,59,8	2115,71,8	2123,95,8	
0,0,1	1,1,8	9,10,8	17,4,8	25,7,8	33,40,8	41,37,8	49,52,8	57,55,8	243,115,8	251,118,8	291,25,8	299,19,8	339,22,8	347,49,8	363,28,8	383,46,8	421,61,8	461,88,8	477,58,8	519,106,8	623,109,8	717,43,8	747,76,8	755,100,8	763,31,8	771,82,8	791,13,8	799,16,8	837,91,8	1105,64,8	1263,79,8	2025,103,8	7413,70,8	7439,85,8	7513,97,8	7609,34,8	7707,67,8	7733,73,8	7821,94,8	8373,112,8	8793,121,1	
# Incoming
3,(0, 3),2	7,(0, 6),2	11,(0, 9),2	15,(0, 12),2	19,(2, 51),16	35,(2, 60),4	41,(2, 63),2	45,(1, 24),6	51,(2, 69),2	53,(1, 39),12	105,(1, 54),6	111,(1, 69),2	115,(1, 81),208	323,(1, 84),70	393,(1, 87),10	403,(1, 90),6	409,(1, 105),8	417,(1, 111),2	419,(5, 42),2	421,(5, 72),6	427,(5, 75),2	429,(8, 66),2	431,(8, 69),2	433,(10, 15),88	521,(10, 30),2	523,(10, 36),4	527,(10, 39),130	703,(10, 72),2	717,(5, 99),16	733,(10, 87),2	735,(5, 18),104	839,(5, 45),32	871,(4, 15),2	873,(4, 27),26	899,(4, 60),2	901,(4, 63),10	911,(4, 69),6	917,(4, 75),6	923,(4, 102),20	943,(4, 111),2	945,(7, 15),2	947,(7, 24),26	973,(7, 69),2	975,(7, 75),2	977,(7, 93),2	979,(7, 99),2	1131,(4, 51),112	1243,(8, 24),10	1253,(8, 33),24	1277,(8, 48),6094	7371,(8, 51),10	7381,(7, 90),58	7439,(8, 87),32	7471,(8, 93),4	7475,(7, 108),10	7485,(7, 117),8	7513,(8, 105),4	7517,(11, 15),4	7609,(11, 42),34	7643,(11, 57),16	7659,(11, 66),2	7733,(11, 78),20	7821,(11, 96),40	7861,(11, 102),478	
1,(0, 2),2	5,(0, 5),2	9,(0, 8),2	13,(0, 11),2	17,(1, 23),28	51,(1, 35),2	65,(1, 53),40	113,(1, 80),2	277,(3, 17),14	339,(3, 26),10	363,(3, 35),10	373,(3, 53),46	419,(1, 113),6	425,(1, 116),8	463,(3, 92),20	519,(3, 107),2	623,(3, 110),2	625,(6, 32),30	655,(6, 44),2	657,(10, 44),32	689,(10, 62),14	703,(6, 68),2	705,(10, 77),28	735,(10, 89),4	739,(10, 98),60	799,(10, 104),2	801,(10, 113),38	839,(10, 119),4	843,(6, 20),42	885,(6, 50),80	965,(6, 65),14	979,(6, 77),2	981,(6, 104),2	983,(6, 110),2	985,(6, 119),2	987,(4, 35),110	1097,(4, 41),4	1101,(4, 44),18	1119,(4, 47),12	1131,(9, 41),4	1135,(9, 68),2	1137,(9, 74),4	1141,(9, 83),4	1145,(9, 86),2	1147,(9, 98),4	1151,(9, 107),48	1199,(9, 113),20	1219,(12, 26),2	1221,(12, 38),18	1243,(4, 56),2	1245,(4, 89),90	1335,(4, 101),22	1357,(4, 116),2	1359,(9, 71),338	1697,(7, 17),2	1699,(7, 26),8	1707,(7, 59),16	1723,(7, 104),46	2025,(12, 50),44	2069,(12, 59),28	2097,(12, 71),18	2115,(12, 95),6	
11,(2, 34),2	13,(2, 43),6	39,(2, 61),2	43,(2, 67),4	47,(2, 88),2	49,(2, 94),2	53,(2, 76),162	215,(2, 79),12	227,(2, 103),8	235,(2, 106),6	241,(2, 115),2	243,(2, 118),4	247,(3, 16),30	277,(5, 49),2	279,(5, 82),2	281,(8, 25),10	291,(3, 19),4	295,(3, 22),44	339,(8, 49),8	347,(8, 73),2	349,(3, 28),14	363,(5, 46),20	383,(5, 76),30	413,(8, 109),6	419,(3, 61),2	421,(3, 79),34	455,(3, 88),6	461,(3, 91),2	463,(14, 121),12	475,(11, 58),2	477,(11, 106),4	483,(3, 97),34	517,(3, 106),2	521,(3, 109),102	623,(5, 43),94	717,(6, 13),22	739,(6, 31),2	741,(6, 64),4	745,(6, 76),2	747,(6, 91),2	749,(6, 97),2	751,(6, 100),4	755,(6, 112),2	757,(9, 31),2	759,(9, 64),2	761,(9, 82),2	763,(9, 91),2	765,(120, 121),12	777,(114, 121),12	789,(12, 13),2	791,(12, 16),2	793,(12, 64),20	813,(12, 70),14	827,(12, 85),2	829,(12, 91),8	837,(12, 103),2	871,(5, 64),234	1105,(5, 94),122	1227,(29, 121),12	1239,(12, 79),24	1263,(21, 121),12	1275,(54, 121),12	1287,(81, 121),12	1299,(84, 121),12	1311,(30, 121),12	1323,(36, 121),12	1335,(39, 121),12	1347,(72, 121),12	1697,(9, 103),328	2121,(18, 121),12	2133,(45, 121),12	2145,(27, 121),12	2157,(60, 121),12	2169,(63, 121),12	2181,(111, 121),12	2193,(69, 121),12	2205,(75, 121),12	2217,(99, 121),12	2229,(24, 121),12	2241,(33, 121),12	7381,(8, 70),32	7413,(8, 85),26	7439,(48, 121),12	7451,(51, 121),12	7463,(90, 121),12	7475,(8, 97),38	7521,(11, 34),88	7609,(87, 121),12	7621,(93, 121),12	7633,(108, 121),12	7645,(117, 121),12	7661,(11, 67),46	7707,(11, 73),26	7733,(105, 121),12	7753,(11, 94),68	7821,(15, 121),12	7833,(42, 121),12	7845,(57, 121),12	7857,(66, 121),12	7869,(78, 121),12	7881,(96, 121),12	8339,(11, 112),34	8373,(23, 121),12	8385,(80, 121),12	8397,(53, 121),12	8409,(92, 121),12	8421,(32, 121),12	8433,(62, 121),12	8445,(20, 121),12	8457,(65, 121),12	8469,(77, 121),12	8481,(110, 121),12	8493,(119, 121),12	8505,(35, 121),12	8517,(44, 121),12	8529,(47, 121),12	8541,(41, 121),12	8553,(68, 121),12	8565,(74, 121),12	8577,(83, 121),12	8589,(86, 121),12	8601,(98, 121),12	8613,(107, 121),12	8625,(113, 121),12	8637,(38, 121),12	8649,(56, 121),12	8661,(89, 121),12	8673,(101, 121),12	8685,(116, 121),12	8697,(17, 121),12	8709,(26, 121),12	8721,(104, 121),12	8733,(50, 121),12	8745,(59, 121),12	8757,(71, 121),12	8769,(95, 121),12	8781,(102, 121),12	
# Outgoing
247,(3, 16),30	277,(3, 17),14	291,(3, 19),4	295,(3, 22),44	339,(3, 26),10	349,(3, 28),14	363,(3, 35),10	373,(3, 53),46	419,(3, 61),2	421,(3, 79),34	455,(3, 88),6	461,(3, 91),2	463,(3, 92),20	483,(3, 97),34	517,(3, 106),2	519,(3, 107),2	521,(3, 109),102	623,(3, 110),2	625,(6, 32),30	655,(6, 44),2	703,(6, 68),2	717,(6, 13),22	739,(6, 31),2	741,(6, 64),4	745,(6, 76),2	747,(6, 91),2	749,(6, 97),2	751,(6, 100),4	755,(6, 112),2	757,(9, 31),2	759,(9, 64),2	761,(9, 82),2	763,(9, 91),2	765,(120, 121),12	777,(114, 121),12	789,(12, 13),2	791,(12, 16),2	793,(12, 64),20	813,(12, 70),14	827,(12, 85),2	829,(12, 91),8	837,(12, 103),2	843,(6, 20),42	885,(6, 50),80	965,(6, 65),14	979,(6, 77),2	981,(6, 104),2	983,(6, 110),2	985,(6, 119),2	1131,(9, 41),4	1135,(9, 68),2	1137,(9, 74),4	1141,(9, 83),4	1145,(9, 86),2	1147,(9, 98),4	1151,(9, 107),48	1199,(9, 113),20	1219,(12, 26),2	1221,(12, 38),18	1239,(12, 79),24	1263,(21, 121),12	1275,(54, 121),12	1287,(81, 121),12	1299,(84, 121),12	1311,(30, 121),12	1323,(36, 121),12	1335,(39, 121),12	1347,(72, 121),12	1359,(9, 71),338	1697,(9, 103),328	2025,(12, 50),44	2069,(12, 59),28	2097,(12, 71),18	2115,(12, 95),6	2121,(18, 121),12	2133,(45, 121),12	2145,(27, 121),12	2157,(60, 121),12	2169,(63, 121),12	2181,(111, 121),12	2193,(69, 121),12	2205,(75, 121),12	2217,(99, 121),12	2229,(24, 121),12	2241,(33, 121),12	7439,(48, 121),12	7451,(51, 121),12	7463,(90, 121),12	7609,(87, 121),12	7621,(93, 121),12	7633,(108, 121),12	7645,(117, 121),12	7733,(105, 121),12	7821,(15, 121),12	7833,(42, 121),12	7845,(57, 121),12	7857,(66, 121),12	7869,(78, 121),12	7881,(96, 121),12	8781,(102, 121),12	
11,(2, 34),2	13,(2, 43),6	19,(2, 51),16	35,(2, 60),4	39,(2, 61),2	41,(2, 63),2	43,(2, 67),4	47,(2, 88),2	49,(2, 94),2	51,(2, 69),2	53,(2, 76),162	215,(2, 79),12	227,(2, 103),8	235,(2, 106),6	241,(2, 115),2	243,(2, 118),4	277,(5, 49),2	279,(5, 82),2	281,(8, 25),10	339,(8, 49),8	347,(8, 73),2	363,(5, 46),20	383,(5, 76),30	413,(8, 109),6	419,(5, 42),2	421,(5, 72),6	427,(5, 75),2	429,(8, 66),2	431,(8, 69),2	463,(14, 121),12	475,(11, 58),2	477,(11, 106),4	623,(5, 43),94	717,(5, 99),16	735,(5, 18),104	839,(5, 45),32	871,(5, 64),234	1105,(5, 94),122	1227,(29, 121),12	1243,(8, 24),10	1253,(8, 33),24	1277,(8, 48),6094	7371,(8, 51),10	7381,(8, 70),32	7413,(8, 85),26	7439,(8, 87),32	7471,(8, 93),4	7475,(8, 97),38	7513,(8, 105),4	7517,(11, 15),4	7521,(11, 34),88	7609,(11, 42),34	7643,(11, 57),16	7659,(11, 66),2	7661,(11, 67),46	7707,(11, 73),26	7733,(11, 78),20	7753,(11, 94),68	7821,(11, 96),40	7861,(11, 102),478	8339,(11, 112),34	8373,(23, 121),12	8385,(80, 121),12	8397,(53, 121),12	8409,(92, 121),12	8421,(32, 121),12	8433,(62, 121),12	8445,(20, 121),12	8457,(65, 121),12	8469,(77, 121),12	8481,(110, 121),12	8493,(119, 121),12	8505,(35, 121),12	8517,(44, 121),12	8529,(47, 121),12	8541,(41, 121),12	8553,(68, 121),12	8565,(74, 121),12	8577,(83, 121),12	8589,(86, 121),12	8601,(98, 121),12	8613,(107, 121),12	8625,(113, 121),12	8637,(38, 121),12	8649,(56, 121),12	8661,(89, 121),12	8673,(101, 121),12	8685,(116, 121),12	8697,(17, 121),12	8709,(26, 121),12	8721,(104, 121),12	8733,(50, 121),12	8745,(59, 121),12	8757,(71, 121),12	8769,(95, 121),12	
1,(0, 2),2	3,(0, 3),2	5,(0, 5),2	7,(0, 6),2	9,(0, 8),2	11,(0, 9),2	13,(0, 11),2	15,(0, 12),2	17,(1, 23),28	45,(1, 24),6	51,(1, 35),2	53,(1, 39),12	65,(1, 53),40	105,(1, 54),6	111,(1, 69),2	113,(1, 80),2	115,(1, 81),208	323,(1, 84),70	393,(1, 87),10	403,(1, 90),6	409,(1, 105),8	417,(1, 111),2	419,(1, 113),6	425,(1, 116),8	433,(10, 15),88	521,(10, 30),2	523,(10, 36),4	527,(10, 39),130	657,(10, 44),32	689,(10, 62),14	703,(10, 72),2	705,(10, 77),28	733,(10, 87),2	735,(10, 89),4	739,(10, 98),60	799,(10, 104),2	801,(10, 113),38	839,(10, 119),4	871,(4, 15),2	873,(4, 27),26	899,(4, 60),2	901,(4, 63),10	911,(4, 69),6	917,(4, 75),6	923,(4, 102),20	943,(4, 111),2	945,(7, 15),2	947,(7, 24),26	973,(7, 69),2	975,(7, 75),2	977,(7, 93),2	979,(7, 99),2	987,(4, 35),110	1097,(4, 41),4	1101,(4, 44),18	1119,(4, 47),12	1131,(4, 51),112	1243,(4, 56),2	1245,(4, 89),90	1335,(4, 101),22	1357,(4, 116),2	1697,(7, 17),2	1699,(7, 26),8	1707,(7, 59),16	1723,(7, 104),46	7381,(7, 90),58	7475,(7, 108),10	7485,(7, 117),8	
