5326
# CPU
1221,52,9	1231,37,9	1240,30,9	1249,26,9	4431,44,9	4547,60,9	4723,68,9	4971,75,9	
1147,21,9	1156,31,9	1183,61,9	1192,40,9	1205,45,9	1214,76,9	1245,54,9	4729,69,9	
995,8,9	1011,29,9	1129,18,9	1139,35,9	1215,43,9	1291,67,9	4521,51,9	4541,59,9	4779,74,9	
853,7,9	862,17,9	871,79,9	880,42,9	1035,32,9	1105,28,9	1287,57,9	4519,49,9	4687,65,9	4767,72,9	
711,6,9	723,64,9	843,78,9	1009,16,9	1087,25,9	1107,56,9	1137,41,9	1359,71,9	4525,48,9	
569,5,9	748,15,9	1085,24,9	1125,20,9	1221,70,9	1339,55,9	1433,47,9	1453,63,9	4841,77,9	
427,4,9	447,14,9	920,80,9	1155,33,9	1225,50,9	1315,58,9	1357,66,9	1383,73,9	
285,3,9	494,13,9	1003,11,9	1077,23,9	1217,36,9	1673,53,9	5325,81,1	
143,2,9	522,19,9	703,62,9	783,39,9	1020,10,9	1103,27,9	1351,46,9	
0,0,1	1,1,9	846,22,9	880,9,9	4429,38,9	4601,34,9	4643,12,9	
# Incoming
1103,(1, 37),26	1129,(2, 26),2	1131,(2, 60),2	1133,(6, 30),4	1137,(1, 44),74	1211,(2, 52),8	1219,(4, 52),2	1221,(5, 37),2	1223,(6, 37),8	1231,(7, 26),2	1233,(7, 30),2	1235,(8, 26),6	1453,(8, 75),70	4429,(3, 44),2	4541,(3, 60),6	4687,(3, 68),36	4779,(3, 75),20	4799,(5, 75),172	
1039,(1, 21),28	1067,(2, 21),34	1101,(2, 31),4	1105,(4, 31),6	1111,(4, 40),22	1133,(4, 45),6	1139,(5, 21),8	1147,(5, 31),2	1149,(5, 40),2	1151,(6, 40),2	1153,(6, 45),16	1169,(6, 61),14	1183,(7, 40),2	1185,(7, 45),20	1205,(7, 76),6	1231,(1, 54),14	4723,(3, 69),6	
853,(0, 8),142	995,(2, 43),4	999,(2, 51),8	1007,(3, 29),4	1011,(3, 35),8	1019,(4, 18),44	1063,(4, 43),28	1091,(5, 18),38	1129,(5, 35),10	1139,(4, 59),70	1209,(5, 43),2	1211,(6, 43),4	1215,(6, 51),2	1217,(6, 67),2	1219,(7, 67),6	1225,(1, 51),6	1231,(4, 67),16	1247,(5, 67),44	1339,(1, 59),14	1353,(6, 59),34	4519,(3, 51),2	4521,(3, 59),20	4767,(3, 74),12	
711,(0, 7),142	853,(2, 28),12	865,(2, 32),2	867,(2, 49),2	869,(3, 42),2	871,(4, 28),2	873,(4, 42),4	877,(4, 65),102	979,(4, 72),26	1005,(5, 32),2	1007,(5, 57),24	1031,(6, 32),4	1035,(6, 57),30	1103,(8, 28),2	1221,(8, 72),8	1267,(8, 57),20	1315,(8, 65),22	4431,(3, 49),88	4547,(3, 65),140	4729,(3, 72),38	
569,(0, 6),142	711,(2, 64),12	723,(2, 71),8	731,(3, 16),20	751,(3, 41),2	753,(3, 71),86	839,(3, 78),4	843,(4, 48),2	845,(4, 71),22	867,(5, 25),2	869,(5, 71),10	880,(7, 16),10	890,(7, 41),18	1003,(1, 16),6	1085,(1, 25),2	1105,(8, 56),2	1129,(1, 41),8	1241,(8, 48),26	1357,(1, 71),2	1359,(5, 48),3166	
427,(0, 5),142	569,(2, 15),2	571,(2, 47),2	573,(2, 77),28	601,(4, 15),20	621,(4, 63),34	746,(6, 15),2	748,(6, 20),10	871,(3, 47),132	1003,(6, 55),2	1009,(1, 20),30	1039,(7, 24),28	1067,(7, 63),2	1069,(7, 70),8	1077,(1, 24),8	1085,(7, 47),26	1111,(8, 20),14	1155,(8, 47),2	1211,(1, 47),6	1217,(8, 70),4	1229,(8, 77),6	1245,(1, 55),94	1339,(4, 47),94	1433,(8, 63),20	4799,(3, 77),42	
285,(0, 4),142	427,(2, 14),20	447,(3, 58),8	463,(2, 33),2	465,(2, 50),8	473,(2, 66),16	489,(3, 33),42	703,(3, 66),14	748,(5, 33),2	754,(5, 66),22	785,(5, 80),10	908,(7, 73),6	914,(7, 80),6	1087,(1, 33),16	1125,(8, 33),30	1217,(1, 50),8	1287,(8, 58),28	1353,(1, 66),4	1357,(8, 73),26	
143,(0, 3),142	447,(2, 23),16	476,(4, 13),18	522,(4, 36),4	530,(4, 53),38	601,(19, 81),40	655,(14, 81),40	742,(5, 23),6	752,(5, 53),2	754,(62, 81),40	795,(15, 81),40	846,(6, 23),2	848,(6, 36),62	910,(64, 81),40	950,(39, 81),40	999,(1, 11),4	1003,(7, 36),18	1021,(8, 23),30	1067,(1, 23),10	1077,(78, 81),40	1117,(17, 81),40	1157,(8, 36),60	1219,(2, 53),326	1545,(22, 81),40	1585,(7, 53),88	1673,(79, 81),40	1713,(9, 81),40	1753,(42, 81),40	1793,(80, 81),40	1833,(16, 81),40	1873,(29, 81),40	1913,(10, 81),40	1953,(32, 81),40	1993,(25, 81),40	2033,(27, 81),40	2073,(28, 81),40	2113,(56, 81),40	2153,(18, 81),40	2193,(41, 81),40	2233,(35, 81),40	2273,(21, 81),40	2313,(33, 81),40	2353,(31, 81),40	2393,(61, 81),40	2433,(40, 81),40	2473,(45, 81),40	2513,(76, 81),40	2553,(43, 81),40	2593,(52, 81),40	2633,(50, 81),40	2673,(37, 81),40	2713,(30, 81),40	2753,(54, 81),40	2793,(26, 81),40	2833,(57, 81),40	2873,(67, 81),40	2913,(58, 81),40	2953,(46, 81),40	2993,(66, 81),40	3033,(71, 81),40	3073,(73, 81),40	4438,(38, 81),40	4478,(44, 81),40	4525,(24, 81),40	4565,(20, 81),40	4605,(70, 81),40	4645,(55, 81),40	4685,(47, 81),40	4725,(63, 81),40	4765,(49, 81),40	4805,(51, 81),40	4845,(48, 81),40	4885,(59, 81),40	4925,(60, 81),40	4965,(34, 81),40	5005,(12, 81),40	5045,(65, 81),40	5085,(68, 81),40	5125,(69, 81),40	5165,(72, 81),40	5205,(74, 81),40	5245,(77, 81),40	5285,(75, 81),40	
1,(0, 2),142	296,(3, 10),4	300,(3, 27),2	438,(4, 10),16	494,(4, 19),28	526,(4, 46),4	531,(3, 62),172	703,(4, 39),80	783,(5, 46),2	995,(1, 10),4	1004,(8, 10),16	1051,(8, 27),52	1231,(6, 46),120	
294,(3, 9),2	302,(3, 34),2	436,(4, 9),2	454,(4, 12),22	578,(5, 9),18	596,(5, 12),2	598,(5, 22),144	742,(6, 9),4	750,(5, 34),2	758,(6, 22),88	862,(7, 9),18	1019,(3, 38),3410	4429,(6, 34),172	4601,(8, 12),42	
# Outgoing
2593,(52, 81),40	2673,(37, 81),40	2713,(30, 81),40	2793,(26, 81),40	4478,(44, 81),40	4925,(60, 81),40	5085,(68, 81),40	5285,(75, 81),40	
2273,(21, 81),40	2353,(31, 81),40	2393,(61, 81),40	2433,(40, 81),40	2473,(45, 81),40	2513,(76, 81),40	2753,(54, 81),40	5125,(69, 81),40	
1004,(8, 10),16	1021,(8, 23),30	1051,(8, 27),52	1103,(8, 28),2	1105,(8, 56),2	1111,(8, 20),14	1125,(8, 33),30	1155,(8, 47),2	1157,(8, 36),60	1217,(8, 70),4	1221,(8, 72),8	1229,(8, 77),6	1235,(8, 26),6	1241,(8, 48),26	1267,(8, 57),20	1287,(8, 58),28	1315,(8, 65),22	1357,(8, 73),26	1433,(8, 63),20	1453,(8, 75),70	1873,(29, 81),40	2153,(18, 81),40	2233,(35, 81),40	2553,(43, 81),40	2873,(67, 81),40	4601,(8, 12),42	4805,(51, 81),40	4885,(59, 81),40	5205,(74, 81),40	
862,(7, 9),18	880,(7, 16),10	890,(7, 41),18	908,(7, 73),6	914,(7, 80),6	1003,(7, 36),18	1039,(7, 24),28	1067,(7, 63),2	1069,(7, 70),8	1085,(7, 47),26	1117,(17, 81),40	1183,(7, 40),2	1185,(7, 45),20	1205,(7, 76),6	1219,(7, 67),6	1231,(7, 26),2	1233,(7, 30),2	1585,(7, 53),88	1673,(79, 81),40	1753,(42, 81),40	1953,(32, 81),40	2073,(28, 81),40	2833,(57, 81),40	4765,(49, 81),40	5045,(65, 81),40	5165,(72, 81),40	
742,(6, 9),4	746,(6, 15),2	748,(6, 20),10	758,(6, 22),88	846,(6, 23),2	848,(6, 36),62	910,(64, 81),40	1003,(6, 55),2	1031,(6, 32),4	1035,(6, 57),30	1077,(78, 81),40	1133,(6, 30),4	1151,(6, 40),2	1153,(6, 45),16	1169,(6, 61),14	1211,(6, 43),4	1215,(6, 51),2	1217,(6, 67),2	1223,(6, 37),8	1231,(6, 46),120	1353,(6, 59),34	1833,(16, 81),40	1993,(25, 81),40	2113,(56, 81),40	2193,(41, 81),40	3033,(71, 81),40	4429,(6, 34),172	4845,(48, 81),40	
578,(5, 9),18	596,(5, 12),2	598,(5, 22),144	742,(5, 23),6	748,(5, 33),2	750,(5, 34),2	752,(5, 53),2	754,(5, 66),22	783,(5, 46),2	785,(5, 80),10	795,(15, 81),40	867,(5, 25),2	869,(5, 71),10	1005,(5, 32),2	1007,(5, 57),24	1091,(5, 18),38	1129,(5, 35),10	1139,(5, 21),8	1147,(5, 31),2	1149,(5, 40),2	1209,(5, 43),2	1221,(5, 37),2	1247,(5, 67),44	1359,(5, 48),3166	4525,(24, 81),40	4565,(20, 81),40	4605,(70, 81),40	4645,(55, 81),40	4685,(47, 81),40	4725,(63, 81),40	4799,(5, 75),172	5245,(77, 81),40	
436,(4, 9),2	438,(4, 10),16	454,(4, 12),22	476,(4, 13),18	494,(4, 19),28	522,(4, 36),4	526,(4, 46),4	530,(4, 53),38	601,(4, 15),20	621,(4, 63),34	655,(14, 81),40	703,(4, 39),80	843,(4, 48),2	845,(4, 71),22	871,(4, 28),2	873,(4, 42),4	877,(4, 65),102	979,(4, 72),26	1019,(4, 18),44	1063,(4, 43),28	1105,(4, 31),6	1111,(4, 40),22	1133,(4, 45),6	1139,(4, 59),70	1219,(4, 52),2	1231,(4, 67),16	1339,(4, 47),94	1793,(80, 81),40	2313,(33, 81),40	2633,(50, 81),40	2913,(58, 81),40	2993,(66, 81),40	3073,(73, 81),40	
294,(3, 9),2	296,(3, 10),4	300,(3, 27),2	302,(3, 34),2	447,(3, 58),8	489,(3, 33),42	531,(3, 62),172	703,(3, 66),14	731,(3, 16),20	751,(3, 41),2	753,(3, 71),86	839,(3, 78),4	869,(3, 42),2	871,(3, 47),132	1007,(3, 29),4	1011,(3, 35),8	1019,(3, 38),3410	4429,(3, 44),2	4431,(3, 49),88	4519,(3, 51),2	4521,(3, 59),20	4541,(3, 60),6	4547,(3, 65),140	4687,(3, 68),36	4723,(3, 69),6	4729,(3, 72),38	4767,(3, 74),12	4779,(3, 75),20	4799,(3, 77),42	
427,(2, 14),20	447,(2, 23),16	463,(2, 33),2	465,(2, 50),8	473,(2, 66),16	569,(2, 15),2	571,(2, 47),2	573,(2, 77),28	601,(19, 81),40	711,(2, 64),12	723,(2, 71),8	754,(62, 81),40	853,(2, 28),12	865,(2, 32),2	867,(2, 49),2	950,(39, 81),40	995,(2, 43),4	999,(2, 51),8	1067,(2, 21),34	1101,(2, 31),4	1129,(2, 26),2	1131,(2, 60),2	1211,(2, 52),8	1219,(2, 53),326	1913,(10, 81),40	2033,(27, 81),40	2953,(46, 81),40	
1,(0, 2),142	143,(0, 3),142	285,(0, 4),142	427,(0, 5),142	569,(0, 6),142	711,(0, 7),142	853,(0, 8),142	995,(1, 10),4	999,(1, 11),4	1003,(1, 16),6	1009,(1, 20),30	1039,(1, 21),28	1067,(1, 23),10	1077,(1, 24),8	1085,(1, 25),2	1087,(1, 33),16	1103,(1, 37),26	1129,(1, 41),8	1137,(1, 44),74	1211,(1, 47),6	1217,(1, 50),8	1225,(1, 51),6	1231,(1, 54),14	1245,(1, 55),94	1339,(1, 59),14	1353,(1, 66),4	1357,(1, 71),2	1545,(22, 81),40	1713,(9, 81),40	4438,(38, 81),40	4965,(34, 81),40	5005,(12, 81),40	
