402
# CPU
0,0,1	1,1,2	3,3,2	5,7,2	7,15,2	9,20,2	11,14,2	13,6,2	15,13,2	17,12,2	19,2,2	21,5,2	23,11,2	25,10,2	27,4,2	29,9,2	31,19,2	33,18,2	35,8,2	37,17,2	39,16,2	41,176,2	43,157,2	45,135,2	47,100,2	49,78,2	51,62,2	53,51,2	55,42,2	57,24,2	59,52,2	61,30,2	63,26,2	65,197,2	67,23,2	69,150,2	71,132,2	73,126,2	75,105,2	77,96,2	79,83,2	81,77,2	83,175,2	85,164,2	87,143,2	89,131,2	91,124,2	93,108,2	95,104,2	97,73,2	99,49,2	101,188,2	103,189,2	105,186,2	107,152,2	109,128,2	111,122,2	113,117,2	115,101,2	117,97,2	119,41,2	121,153,2	123,94,2	125,27,2	127,177,2	129,184,2	131,114,2	133,88,2	135,87,2	137,81,2	139,187,2	141,191,2	143,180,2	145,171,2	147,160,2	149,120,2	151,91,2	153,34,2	155,29,2	157,194,2	159,193,2	161,116,2	163,74,2	165,47,2	167,190,2	169,192,2	171,182,2	173,172,2	175,165,2	177,159,2	179,155,2	181,136,2	183,107,2	185,102,2	187,84,2	189,82,2	191,46,2	193,38,2	195,174,2	197,133,2	199,125,2	201,106,2	203,92,2	205,85,2	207,179,2	209,65,2	211,40,2	213,22,2	215,173,2	217,130,2	219,67,2	221,64,2	223,61,2	225,37,2	227,33,2	229,28,2	231,55,2	233,181,2	235,195,2	237,147,2	239,56,2	241,54,2	243,200,2	245,170,2	247,168,2	249,115,2	251,98,2	253,71,2	255,69,2	257,63,2	259,68,2	261,185,2	263,45,2	265,163,2	267,161,2	269,148,2	271,146,2	273,142,2	275,99,2	277,112,2	279,169,2	281,35,2	283,110,2	285,57,2	287,183,2	289,25,2	291,196,2	293,129,2	295,145,2	297,75,2	299,199,2	301,80,2	303,138,2	305,50,2	307,95,2	309,156,2	311,178,2	313,79,2	315,111,2	317,162,2	319,31,2	321,58,2	323,59,2	325,141,2	327,90,2	329,32,2	331,60,2	333,121,2	335,44,2	337,127,2	339,198,2	341,137,2	343,39,2	345,140,2	347,70,2	349,109,2	351,149,2	353,158,2	355,86,2	357,21,2	359,166,2	361,154,2	363,134,2	365,93,2	367,48,2	369,72,2	371,123,2	373,144,2	375,103,2	377,66,2	379,53,2	381,89,2	383,43,2	385,119,2	387,139,2	389,167,2	391,118,2	393,76,2	395,151,2	397,113,2	399,36,2	401,201,1	




# Incoming





# Outgoing





