4121
# CPU
145,4,6	151,17,6	157,60,6	163,110,6	169,27,6	175,22,6	181,39,6	187,46,6	193,54,6	235,74,6	241,82,6	289,8,6	295,88,6	316,98,6	367,108,6	382,50,6	433,12,6	439,36,6	445,90,6	451,106,6	469,116,6	484,31,6	910,24,6	916,72,6	922,92,6	940,120,6	955,76,6	964,23,6	1000,56,6	1027,112,6	1033,42,6	1039,33,6	1045,48,6	1057,95,6	1162,64,6	1168,58,6	1177,70,6	1183,114,6	1198,86,6	1207,68,6	1237,29,6	1270,62,6	1312,104,6	1417,66,6	1528,118,6	1570,101,6	1639,52,6	1678,78,6	1732,44,6	1771,80,6	1825,84,6	
97,3,6	103,25,6	109,43,6	115,94,6	121,113,6	169,51,6	241,7,6	247,77,6	253,41,6	259,91,6	265,103,6	271,115,6	277,109,6	385,11,6	391,65,6	397,16,6	403,28,6	409,47,6	415,49,6	433,81,6	439,87,6	445,111,6	481,32,6	544,67,6	688,79,6	907,69,6	913,57,6	958,59,6	964,61,6	970,85,6	1027,38,6	1060,55,6	1210,21,6	1231,53,6	1249,45,6	1255,63,6	1297,89,6	1303,97,6	1315,105,6	1333,107,6	1345,75,6	1495,117,6	1618,100,6	1651,30,6	1678,34,6	1720,119,6	2215,71,6	2248,73,6	2263,83,6	
49,2,6	193,6,6	199,18,6	205,93,6	337,10,6	343,26,6	349,15,6	688,20,6	1291,99,6	1300,96,6	1579,37,6	2560,102,6	4120,121,1	
0,0,1	1,5,6	7,9,6	13,1,6	19,14,6	289,13,6	349,19,6	799,35,6	2170,40,6	
# Incoming
97,(0, 4),48	145,(2, 17),3	148,(2, 27),9	157,(2, 36),3	160,(3, 22),3	163,(3, 39),6	169,(3, 46),3	172,(3, 54),6	181,(2, 74),54	235,(2, 82),3	238,(2, 120),3	241,(0, 8),48	289,(2, 95),15	304,(2, 98),12	316,(3, 108),51	367,(6, 23),12	379,(6, 50),3	382,(10, 120),3	385,(0, 12),48	433,(5, 29),9	442,(3, 116),27	469,(6, 31),15	484,(5, 42),423	907,(7, 24),3	910,(7, 72),3	913,(5, 92),6	919,(6, 42),12	931,(6, 120),9	940,(7, 29),12	952,(7, 76),3	955,(9, 23),9	964,(9, 29),3	967,(6, 56),33	1000,(6, 112),27	1027,(9, 42),6	1033,(7, 33),6	1042,(9, 48),3	1045,(7, 84),6	1051,(7, 95),6	1060,(9, 64),102	1162,(11, 58),6	1171,(10, 70),6	1177,(9, 114),3	1180,(7, 86),18	1198,(10, 68),9	1210,(1, 29),27	1237,(6, 62),33	1270,(11, 101),24	1306,(1, 104),6	1312,(3, 66),105	1417,(3, 118),111	1528,(6, 101),42	1570,(7, 52),69	1639,(10, 78),39	1678,(11, 44),54	1732,(11, 80),39	1771,(11, 84),54	
49,(0, 3),48	160,(2, 51),9	169,(2, 65),12	193,(0, 7),48	241,(2, 77),3	244,(2, 115),12	256,(6, 85),9	265,(6, 109),3	337,(0, 11),48	385,(2, 117),45	430,(4, 81),3	433,(4, 87),3	436,(10, 111),6	442,(5, 32),39	481,(4, 67),63	544,(4, 79),144	799,(6, 69),108	907,(5, 57),6	919,(5, 105),36	955,(8, 59),3	958,(8, 61),6	964,(12, 85),3	967,(9, 30),57	1024,(9, 38),3	1033,(9, 45),9	1045,(9, 55),15	1060,(6, 89),111	1180,(1, 21),30	1210,(8, 53),21	1237,(1, 45),12	1249,(1, 63),3	1252,(1, 75),3	1255,(1, 83),12	1267,(1, 89),30	1300,(1, 97),3	1303,(1, 100),3	1312,(1, 105),3	1315,(1, 107),18	1333,(8, 75),12	1345,(10, 71),48	1393,(10, 117),102	1579,(8, 100),39	1618,(12, 30),33	1651,(12, 34),27	1678,(10, 119),42	2170,(12, 71),45	2215,(12, 73),33	2248,(12, 83),15	
1,(0, 2),48	145,(0, 6),48	193,(25, 121),30	223,(43, 121),30	253,(94, 121),30	289,(0, 10),48	337,(4, 15),9	349,(8, 20),3	367,(113, 121),30	397,(17, 121),30	436,(60, 121),30	481,(5, 37),3	484,(51, 121),30	514,(7, 37),27	541,(77, 121),30	571,(41, 121),30	601,(91, 121),30	631,(103, 121),30	661,(11, 20),27	688,(110, 121),30	718,(27, 121),30	748,(22, 121),30	778,(39, 121),30	808,(46, 121),30	838,(54, 121),30	868,(74, 121),30	898,(82, 121),30	955,(115, 121),30	985,(109, 121),30	1015,(88, 121),30	1045,(98, 121),30	1075,(108, 121),30	1105,(50, 121),30	1162,(9, 102),15	1198,(65, 121),30	1228,(16, 121),30	1258,(12, 99),33	1297,(1, 96),3	1300,(36, 121),30	1333,(14, 121),30	1363,(8, 37),216	1579,(13, 121),30	1609,(19, 121),30	1639,(28, 121),30	1669,(35, 121),30	1825,(47, 121),30	1855,(49, 121),30	1885,(81, 121),30	1915,(87, 121),30	1945,(111, 121),30	1975,(32, 121),30	2005,(67, 121),30	2035,(79, 121),30	2065,(69, 121),30	2095,(57, 121),30	2125,(59, 121),30	2155,(61, 121),30	2185,(85, 121),30	2215,(38, 121),30	2263,(12, 102),297	2560,(90, 121),30	2590,(106, 121),30	2620,(116, 121),30	2650,(31, 121),30	2680,(24, 121),30	2710,(72, 121),30	2740,(92, 121),30	2770,(120, 121),30	2800,(76, 121),30	2830,(23, 121),30	2860,(56, 121),30	2890,(112, 121),30	2920,(42, 121),30	2950,(33, 121),30	2980,(48, 121),30	3010,(95, 121),30	3040,(55, 121),30	3070,(64, 121),30	3100,(58, 121),30	3130,(70, 121),30	3160,(114, 121),30	3190,(86, 121),30	3220,(68, 121),30	3250,(21, 121),30	3280,(53, 121),30	3310,(29, 121),30	3340,(45, 121),30	3370,(63, 121),30	3400,(62, 121),30	3430,(89, 121),30	3460,(97, 121),30	3490,(104, 121),30	3520,(105, 121),30	3550,(107, 121),30	3580,(75, 121),30	3610,(66, 121),30	3640,(117, 121),30	3670,(118, 121),30	3700,(101, 121),30	3730,(100, 121),30	3760,(52, 121),30	3790,(30, 121),30	3820,(78, 121),30	3850,(34, 121),30	3880,(119, 121),30	3910,(44, 121),30	3940,(80, 121),30	3970,(84, 121),30	4000,(40, 121),30	4030,(71, 121),30	4060,(73, 121),30	4090,(83, 121),30	
103,(3, 19),36	283,(7, 13),6	346,(4, 19),3	484,(6, 35),315	1678,(12, 40),492	
# Outgoing
337,(4, 15),9	346,(4, 19),3	349,(8, 20),3	397,(17, 121),30	430,(4, 81),3	433,(4, 87),3	436,(60, 121),30	481,(4, 67),63	544,(4, 79),144	688,(110, 121),30	718,(27, 121),30	748,(22, 121),30	778,(39, 121),30	808,(46, 121),30	838,(54, 121),30	868,(74, 121),30	898,(82, 121),30	955,(8, 59),3	958,(8, 61),6	964,(12, 85),3	1015,(88, 121),30	1045,(98, 121),30	1075,(108, 121),30	1105,(50, 121),30	1210,(8, 53),21	1258,(12, 99),33	1300,(36, 121),30	1333,(8, 75),12	1363,(8, 37),216	1579,(8, 100),39	1618,(12, 30),33	1651,(12, 34),27	1678,(12, 40),492	2170,(12, 71),45	2215,(12, 73),33	2248,(12, 83),15	2263,(12, 102),297	2560,(90, 121),30	2590,(106, 121),30	2620,(116, 121),30	2650,(31, 121),30	2680,(24, 121),30	2710,(72, 121),30	2740,(92, 121),30	2770,(120, 121),30	2800,(76, 121),30	2830,(23, 121),30	2860,(56, 121),30	2890,(112, 121),30	2920,(42, 121),30	2950,(33, 121),30	2980,(48, 121),30	3010,(95, 121),30	3070,(64, 121),30	3100,(58, 121),30	3130,(70, 121),30	3160,(114, 121),30	3190,(86, 121),30	3220,(68, 121),30	3310,(29, 121),30	3400,(62, 121),30	3490,(104, 121),30	3610,(66, 121),30	3670,(118, 121),30	3700,(101, 121),30	3760,(52, 121),30	3820,(78, 121),30	3910,(44, 121),30	3940,(80, 121),30	3970,(84, 121),30	
103,(3, 19),36	160,(3, 22),3	163,(3, 39),6	169,(3, 46),3	172,(3, 54),6	193,(25, 121),30	223,(43, 121),30	253,(94, 121),30	283,(7, 13),6	316,(3, 108),51	367,(113, 121),30	442,(3, 116),27	484,(51, 121),30	514,(7, 37),27	541,(77, 121),30	571,(41, 121),30	601,(91, 121),30	631,(103, 121),30	661,(11, 20),27	907,(7, 24),3	910,(7, 72),3	940,(7, 29),12	952,(7, 76),3	955,(115, 121),30	985,(109, 121),30	1033,(7, 33),6	1045,(7, 84),6	1051,(7, 95),6	1162,(11, 58),6	1180,(7, 86),18	1198,(65, 121),30	1228,(16, 121),30	1270,(11, 101),24	1312,(3, 66),105	1417,(3, 118),111	1570,(7, 52),69	1639,(28, 121),30	1678,(11, 44),54	1732,(11, 80),39	1771,(11, 84),54	1825,(47, 121),30	1855,(49, 121),30	1885,(81, 121),30	1915,(87, 121),30	1945,(111, 121),30	1975,(32, 121),30	2005,(67, 121),30	2035,(79, 121),30	2065,(69, 121),30	2095,(57, 121),30	2125,(59, 121),30	2155,(61, 121),30	2185,(85, 121),30	2215,(38, 121),30	3040,(55, 121),30	3250,(21, 121),30	3280,(53, 121),30	3340,(45, 121),30	3370,(63, 121),30	3430,(89, 121),30	3460,(97, 121),30	3520,(105, 121),30	3550,(107, 121),30	3580,(75, 121),30	3640,(117, 121),30	3730,(100, 121),30	3790,(30, 121),30	3850,(34, 121),30	3880,(119, 121),30	4030,(71, 121),30	4060,(73, 121),30	4090,(83, 121),30	
145,(2, 17),3	148,(2, 27),9	157,(2, 36),3	160,(2, 51),9	169,(2, 65),12	181,(2, 74),54	235,(2, 82),3	238,(2, 120),3	241,(2, 77),3	244,(2, 115),12	256,(6, 85),9	265,(6, 109),3	289,(2, 95),15	304,(2, 98),12	367,(6, 23),12	379,(6, 50),3	382,(10, 120),3	385,(2, 117),45	436,(10, 111),6	469,(6, 31),15	484,(6, 35),315	799,(6, 69),108	919,(6, 42),12	931,(6, 120),9	967,(6, 56),33	1000,(6, 112),27	1060,(6, 89),111	1171,(10, 70),6	1198,(10, 68),9	1237,(6, 62),33	1345,(10, 71),48	1393,(10, 117),102	1528,(6, 101),42	1639,(10, 78),39	1678,(10, 119),42	
1,(0, 2),48	49,(0, 3),48	97,(0, 4),48	145,(0, 6),48	193,(0, 7),48	241,(0, 8),48	289,(0, 10),48	337,(0, 11),48	385,(0, 12),48	433,(5, 29),9	442,(5, 32),39	481,(5, 37),3	484,(5, 42),423	907,(5, 57),6	913,(5, 92),6	919,(5, 105),36	955,(9, 23),9	964,(9, 29),3	967,(9, 30),57	1024,(9, 38),3	1027,(9, 42),6	1033,(9, 45),9	1042,(9, 48),3	1045,(9, 55),15	1060,(9, 64),102	1162,(9, 102),15	1177,(9, 114),3	1180,(1, 21),30	1210,(1, 29),27	1237,(1, 45),12	1249,(1, 63),3	1252,(1, 75),3	1255,(1, 83),12	1267,(1, 89),30	1297,(1, 96),3	1300,(1, 97),3	1303,(1, 100),3	1306,(1, 104),6	1312,(1, 105),3	1315,(1, 107),18	1333,(14, 121),30	1579,(13, 121),30	1609,(19, 121),30	1669,(35, 121),30	4000,(40, 121),30	
