162
# CPU
0,0,1	1,2,10	11,5,10	21,6,10	31,3,10	41,12,10	51,1,10	61,11,10	71,4,10	81,10,10	91,8,10	101,18,10	111,20,10	121,17,10	131,7,10	141,9,10	151,15,10	161,21,1	
15,14,10	69,16,10	89,13,10	
19,19,10	

# Incoming
25,(14, 21),8	33,(19, 21),8	79,(16, 21),8	99,(13, 21),8	
11,(2, 14),4	61,(1, 16),8	69,(1, 13),20	
15,(2, 19),4	

# Outgoing
11,(2, 14),4	15,(2, 19),4	61,(1, 16),8	69,(1, 13),20	
25,(14, 21),8	79,(16, 21),8	99,(13, 21),8	
33,(19, 21),8	

