119
# CPU
0,0,1	1,1,3	4,35,3	7,21,3	10,36,3	13,10,3	16,19,3	19,4,3	22,23,3	25,27,3	28,8,3	31,5,3	34,12,3	37,9,3	40,18,3	43,14,3	46,22,3	49,34,3	58,15,3	80,39,3	115,20,3	118,41,1	
7,32,3	20,3,3	23,28,3	26,31,3	29,33,3	32,11,3	35,17,3	38,38,3	41,2,3	44,40,3	47,24,3	50,29,3	53,13,3	56,16,3	59,6,3	62,26,3	
24,25,3	28,30,3	46,37,3	
26,7,3	

# Incoming
10,(32, 41),2	26,(28, 41),2	28,(25, 41),2	30,(31, 41),2	32,(7, 41),2	34,(30, 41),2	36,(33, 41),2	38,(11, 41),2	40,(17, 41),2	42,(38, 41),2	47,(40, 41),2	49,(37, 41),2	51,(24, 41),2	53,(2, 15),5	58,(29, 41),2	60,(13, 41),2	62,(3, 39),18	80,(16, 41),2	82,(6, 41),2	84,(2, 20),31	115,(26, 41),2	
4,(1, 32),3	7,(0, 3),13	28,(0, 2),13	41,(4, 26),1	
20,(1, 25),2	23,(3, 25),1	24,(3, 30),1	26,(4, 30),2	44,(2, 37),2	
22,(4, 7),4	

# Outgoing
4,(1, 32),3	7,(0, 3),13	20,(1, 25),2	22,(4, 7),4	26,(4, 30),2	28,(0, 2),13	41,(4, 26),1	
10,(32, 41),2	23,(3, 25),1	24,(3, 30),1	26,(28, 41),2	30,(31, 41),2	36,(33, 41),2	38,(11, 41),2	40,(17, 41),2	42,(38, 41),2	44,(2, 37),2	47,(40, 41),2	51,(24, 41),2	53,(2, 15),5	58,(29, 41),2	60,(13, 41),2	62,(3, 39),18	80,(16, 41),2	82,(6, 41),2	84,(2, 20),31	115,(26, 41),2	
28,(25, 41),2	34,(30, 41),2	49,(37, 41),2	
32,(7, 41),2	

