639
# CPU
3,3,16	19,7,16	35,30,16	51,8,16	67,19,16	83,13,16	99,24,16	115,27,16	131,36,16	147,39,16	163,16,16	179,10,16	195,22,16	211,33,16	
2,2,16	18,17,16	34,40,16	50,23,16	66,37,16	82,11,16	98,6,16	114,9,16	130,28,16	146,20,16	162,14,16	178,25,16	194,31,16	210,34,16	
0,0,1	1,4,16	17,1,16	33,15,16	49,5,16	65,32,16	81,21,16	97,26,16	113,38,16	129,35,16	145,29,16	161,12,16	177,18,16	638,41,1	
# Incoming
2,(0, 3),1	18,(2, 7),1	19,(2, 8),2	21,(2, 19),1	32,(4, 13),3	35,(4, 24),2	37,(4, 27),2	41,(4, 36),10	51,(4, 39),1	52,(2, 16),14	66,(1, 10),7	73,(1, 22),13	86,(1, 33),1	
1,(0, 2),1	17,(4, 11),15	32,(3, 6),2	34,(3, 9),1	39,(4, 28),2	48,(3, 20),2	52,(1, 14),2	54,(1, 25),3	57,(1, 31),1	58,(1, 34),1	
35,(3, 12),9	44,(3, 18),4	66,(17, 41),22	88,(7, 41),22	110,(40, 41),22	132,(30, 41),22	154,(23, 41),22	176,(8, 41),22	198,(37, 41),22	220,(19, 41),22	242,(11, 41),22	264,(13, 41),22	286,(6, 41),22	308,(24, 41),22	330,(9, 41),22	352,(27, 41),22	374,(28, 41),22	396,(36, 41),22	418,(20, 41),22	440,(39, 41),22	462,(14, 41),22	484,(16, 41),22	506,(25, 41),22	528,(10, 41),22	550,(31, 41),22	572,(22, 41),22	594,(34, 41),22	616,(33, 41),22	
# Outgoing
32,(3, 6),2	34,(3, 9),1	35,(3, 12),9	44,(3, 18),4	48,(3, 20),2	88,(7, 41),22	132,(30, 41),22	176,(8, 41),22	220,(19, 41),22	264,(13, 41),22	308,(24, 41),22	352,(27, 41),22	396,(36, 41),22	440,(39, 41),22	484,(16, 41),22	528,(10, 41),22	572,(22, 41),22	616,(33, 41),22	
18,(2, 7),1	19,(2, 8),2	21,(2, 19),1	52,(2, 16),14	66,(17, 41),22	110,(40, 41),22	154,(23, 41),22	198,(37, 41),22	242,(11, 41),22	286,(6, 41),22	330,(9, 41),22	374,(28, 41),22	418,(20, 41),22	462,(14, 41),22	506,(25, 41),22	550,(31, 41),22	594,(34, 41),22	
1,(0, 2),1	2,(0, 3),1	17,(4, 11),15	32,(4, 13),3	35,(4, 24),2	37,(4, 27),2	39,(4, 28),2	41,(4, 36),10	51,(4, 39),1	52,(1, 14),2	54,(1, 25),3	57,(1, 31),1	58,(1, 34),1	66,(1, 10),7	73,(1, 22),13	86,(1, 33),1	
