6094
# CPU
50,14,7	57,34,7	193,24,7	
115,13,7	154,23,7	5587,33,7	
28,22,7	5548,12,7	5563,32,7	
14,11,7	27,21,7	34,31,7	
25,10,7	118,20,7	139,30,7	157,40,7	
52,9,7	117,19,7	223,29,7	5589,39,7	
4,4,7	13,8,7	32,28,7	5556,18,7	5588,38,7	
3,3,7	10,27,7	17,7,7	24,17,7	414,37,7	
2,2,7	9,36,7	138,26,7	5545,6,7	5552,16,7	
0,0,1	1,1,7	8,25,7	148,15,7	159,5,7	169,35,7	6093,41,1	
# Incoming
37,(1, 24),12	49,(2, 14),1	50,(1, 34),1	154,(2, 24),39	
49,(1, 33),1	52,(4, 13),63	148,(2, 23),6	5563,(3, 33),24	
14,(2, 12),11	27,(2, 22),1	33,(2, 32),1	5545,(3, 12),3	5556,(3, 32),7	
13,(2, 11),1	26,(2, 21),1	32,(2, 31),1	
19,(1, 10),6	25,(1, 20),12	51,(1, 40),11	117,(4, 20),1	138,(4, 30),1	156,(4, 40),1	
18,(1, 9),1	19,(4, 9),33	115,(4, 19),2	139,(4, 39),17	193,(2, 29),30	5588,(3, 39),1	
3,(0, 4),1	9,(2, 8),4	25,(2, 18),1	28,(2, 28),4	5550,(3, 18),6	5587,(3, 38),1	
2,(0, 3),1	11,(4, 7),2	13,(4, 17),1	169,(4, 37),245	
1,(0, 2),1	8,(1, 6),10	118,(4, 26),20	159,(3, 6),5386	5548,(3, 16),2	
50,(2, 15),98	148,(3, 5),11	159,(4, 35),10	169,(11, 41),42	223,(36, 41),42	265,(10, 41),42	307,(21, 41),42	349,(22, 41),42	414,(8, 41),42	456,(28, 41),42	498,(31, 41),42	540,(14, 41),42	582,(9, 41),42	624,(34, 41),42	666,(13, 41),42	708,(19, 41),42	750,(20, 41),42	792,(26, 41),42	834,(30, 41),42	876,(23, 41),42	918,(40, 41),42	960,(24, 41),42	1002,(29, 41),42	5589,(27, 41),42	5631,(7, 41),42	5673,(17, 41),42	5715,(37, 41),42	5757,(6, 41),42	5799,(12, 41),42	5841,(16, 41),42	5883,(18, 41),42	5925,(32, 41),42	5967,(33, 41),42	6009,(38, 41),42	6051,(39, 41),42	
# Outgoing
540,(14, 41),42	624,(34, 41),42	960,(24, 41),42	
666,(13, 41),42	876,(23, 41),42	5967,(33, 41),42	
349,(22, 41),42	5799,(12, 41),42	5925,(32, 41),42	
169,(11, 41),42	307,(21, 41),42	498,(31, 41),42	
265,(10, 41),42	750,(20, 41),42	834,(30, 41),42	918,(40, 41),42	
582,(9, 41),42	708,(19, 41),42	1002,(29, 41),42	6051,(39, 41),42	
11,(4, 7),2	13,(4, 17),1	19,(4, 9),33	52,(4, 13),63	115,(4, 19),2	117,(4, 20),1	118,(4, 26),20	138,(4, 30),1	139,(4, 39),17	156,(4, 40),1	159,(4, 35),10	169,(4, 37),245	414,(8, 41),42	456,(28, 41),42	5883,(18, 41),42	6009,(38, 41),42	
148,(3, 5),11	159,(3, 6),5386	5545,(3, 12),3	5548,(3, 16),2	5550,(3, 18),6	5556,(3, 32),7	5563,(3, 33),24	5587,(3, 38),1	5588,(3, 39),1	5589,(27, 41),42	5631,(7, 41),42	5673,(17, 41),42	5715,(37, 41),42	
9,(2, 8),4	13,(2, 11),1	14,(2, 12),11	25,(2, 18),1	26,(2, 21),1	27,(2, 22),1	28,(2, 28),4	32,(2, 31),1	33,(2, 32),1	49,(2, 14),1	50,(2, 15),98	148,(2, 23),6	154,(2, 24),39	193,(2, 29),30	223,(36, 41),42	792,(26, 41),42	5757,(6, 41),42	5841,(16, 41),42	
1,(0, 2),1	2,(0, 3),1	3,(0, 4),1	8,(1, 6),10	18,(1, 9),1	19,(1, 10),6	25,(1, 20),12	37,(1, 24),12	49,(1, 33),1	50,(1, 34),1	51,(1, 40),11	
