1011
# CPU
0,121,1	1,69,5	6,72,5	11,75,5	16,49,5	21,36,5	26,78,5	31,104,5	36,13,5	41,55,5	46,81,5	51,26,5	56,15,5	61,46,5	66,14,5	71,17,5	76,53,5	81,113,5	86,18,5	91,66,5	96,82,5	101,100,5	106,56,5	111,34,5	116,20,5	121,51,5	126,16,5	131,23,5	136,86,5	141,90,5	146,60,5	151,116,5	156,59,5	161,21,5	166,92,5	171,48,5	176,118,5	181,57,5	186,96,5	191,30,5	196,67,5	201,38,5	206,33,5	211,50,5	216,25,5	221,110,5	226,94,5	231,112,5	236,71,5	241,39,5	246,64,5	251,99,5	256,35,5	261,114,5	266,111,5	271,101,5	276,84,5	281,62,5	286,109,5	291,32,5	296,31,5	301,103,5	306,95,5	311,117,5	316,24,5	321,40,5	326,8,5	331,22,5	336,93,5	341,37,5	346,91,5	351,97,5	356,19,5	361,61,5	366,83,5	371,54,5	376,87,5	381,43,5	386,44,5	391,29,5	396,28,5	401,63,5	406,98,5	411,52,5	416,85,5	421,4,5	426,5,5	431,1,5	436,2,5	441,6,5	446,3,5	451,7,5	456,12,5	528,10,5	690,11,5	1005,9,5	1010,0,1	
16,42,5	31,45,5	61,79,5	76,105,5	106,106,5	196,47,5	211,88,5	241,65,5	256,80,5	271,76,5	286,27,5	301,115,5	361,58,5	376,108,5	
46,70,5	91,89,5	121,68,5	136,107,5	151,102,5	166,119,5	181,73,5	226,74,5	316,41,5	331,120,5	346,77,5	
# Incoming
66,(79, 8),3	69,(45, 5),3	72,(42, 9),3	81,(105, 1),3	111,(106, 10),3	126,(68, 4),3	129,(89, 3),3	132,(70, 11),3	141,(107, 12),6	156,(102, 2),6	171,(119, 7),9	186,(73, 10),9	201,(47, 3),12	216,(88, 11),15	246,(65, 2),18	264,(80, 6),27	291,(74, 3),18	309,(76, 7),30	339,(41, 12),54	393,(115, 10),42	435,(58, 10),93	528,(27, 11),33	561,(120, 11),57	618,(77, 11),72	690,(108, 9),315	
1,(121, 42),15	16,(121, 45),15	46,(121, 79),15	61,(121, 105),15	91,(121, 106),15	181,(121, 47),15	196,(121, 88),15	226,(121, 65),15	241,(121, 80),15	256,(121, 76),15	271,(121, 27),15	286,(121, 115),15	346,(121, 58),15	361,(121, 108),15	
31,(121, 70),15	76,(121, 89),15	106,(121, 68),15	121,(121, 107),15	136,(121, 102),15	151,(121, 119),15	166,(121, 73),15	211,(121, 74),15	301,(121, 41),15	316,(121, 120),15	331,(121, 77),15	
# Outgoing
1,(121, 42),15	16,(121, 45),15	31,(121, 70),15	46,(121, 79),15	61,(121, 105),15	76,(121, 89),15	91,(121, 106),15	106,(121, 68),15	121,(121, 107),15	136,(121, 102),15	151,(121, 119),15	166,(121, 73),15	181,(121, 47),15	196,(121, 88),15	211,(121, 74),15	226,(121, 65),15	241,(121, 80),15	256,(121, 76),15	271,(121, 27),15	286,(121, 115),15	301,(121, 41),15	316,(121, 120),15	331,(121, 77),15	346,(121, 58),15	361,(121, 108),15	
66,(79, 8),3	69,(45, 5),3	72,(42, 9),3	81,(105, 1),3	111,(106, 10),3	201,(47, 3),12	216,(88, 11),15	246,(65, 2),18	264,(80, 6),27	309,(76, 7),30	393,(115, 10),42	435,(58, 10),93	528,(27, 11),33	690,(108, 9),315	
126,(68, 4),3	129,(89, 3),3	132,(70, 11),3	141,(107, 12),6	156,(102, 2),6	171,(119, 7),9	186,(73, 10),9	291,(74, 3),18	339,(41, 12),54	561,(120, 11),57	618,(77, 11),72	
