7350
# CPU
209,5,5	214,45,5	219,104,5	224,62,5	229,60,5	241,65,5	246,26,5	251,56,5	261,102,5	285,94,5	290,18,5	301,59,5	313,119,5	338,47,5	343,49,5	348,51,5	353,100,5	417,10,5	422,58,5	427,106,5	432,115,5	437,81,5	442,97,5	447,74,5	485,109,5	565,91,5	605,76,5	610,42,5	615,113,5	620,78,5	653,35,5	665,57,5	785,61,5	801,67,5	806,72,5	973,39,5	981,55,5	1053,31,5	1157,84,5	1189,30,5	1205,33,5	1210,70,5	1325,88,5	1385,117,5	7037,111,5	
157,4,5	162,20,5	167,116,5	172,68,5	177,92,5	182,103,5	209,32,5	245,82,5	253,86,5	365,9,5	370,34,5	375,112,5	380,25,5	389,50,5	394,89,5	417,110,5	454,71,5	459,53,5	477,16,5	509,79,5	801,54,5	806,66,5	811,105,5	845,114,5	877,99,5	929,73,5	934,75,5	949,38,5	977,46,5	1009,64,5	1121,40,5	1133,23,5	1177,27,5	1189,48,5	1305,77,5	1461,120,5	1613,41,5	1621,107,5	1801,101,5	7001,95,5	7049,118,5	7349,121,1	
105,3,5	110,43,5	313,8,5	497,44,5	509,96,5	514,17,5	617,24,5	773,87,5	793,90,5	849,13,5	854,36,5	933,37,5	1045,80,5	1121,93,5	1409,98,5	1829,108,5	1977,83,5	
53,2,5	261,7,5	469,12,5	474,21,5	553,22,5	1001,85,5	1125,15,5	1313,29,5	1645,63,5	
0,0,1	1,1,5	6,6,5	11,11,5	16,52,5	21,14,5	322,28,5	430,19,5	6941,69,5	
# Incoming
157,(0, 5),52	209,(2, 60),8	217,(2, 65),24	241,(4, 26),4	245,(4, 56),4	253,(2, 102),8	261,(4, 94),24	285,(7, 18),4	289,(7, 59),12	301,(7, 119),12	322,(3, 47),16	338,(3, 49),4	342,(8, 51),4	346,(8, 100),4	365,(0, 10),52	417,(3, 74),24	441,(3, 109),44	485,(4, 91),80	565,(7, 76),40	605,(9, 42),4	609,(9, 113),4	613,(12, 78),4	617,(1, 35),36	653,(9, 57),12	665,(9, 61),120	785,(12, 67),16	801,(1, 72),4	949,(6, 39),24	977,(6, 55),4	1001,(8, 31),52	1121,(8, 84),36	1177,(11, 30),12	1189,(11, 33),16	1205,(11, 70),4	1305,(11, 88),20	1325,(11, 117),60	7001,(8, 111),36	
105,(0, 4),52	157,(2, 20),4	161,(2, 32),48	241,(2, 82),4	245,(2, 86),8	313,(0, 9),52	365,(3, 34),4	369,(3, 50),20	389,(3, 89),4	393,(3, 110),24	430,(5, 71),24	454,(10, 53),4	469,(1, 16),8	485,(43, 121),20	505,(8, 79),4	509,(45, 121),20	529,(104, 121),20	549,(62, 121),20	569,(60, 121),20	589,(65, 121),20	609,(26, 121),20	629,(56, 121),20	653,(1, 54),148	801,(12, 66),4	805,(1, 105),4	809,(1, 114),36	845,(7, 99),32	877,(102, 121),20	897,(94, 121),20	917,(10, 73),12	929,(12, 75),4	933,(6, 38),16	949,(18, 121),20	973,(6, 46),4	981,(6, 64),28	1009,(59, 121),20	1029,(119, 121),20	1053,(8, 40),68	1125,(11, 23),8	1133,(11, 27),44	1177,(8, 48),12	1189,(47, 121),20	1209,(11, 77),96	1305,(49, 121),20	1325,(51, 121),20	1345,(100, 121),20	1385,(11, 120),76	1461,(52, 121),20	1481,(14, 121),20	1501,(28, 121),20	1521,(19, 121),20	1541,(12, 41),72	1613,(12, 107),8	1621,(21, 121),20	1645,(58, 121),20	1665,(106, 121),20	1685,(115, 121),20	1705,(81, 121),20	1725,(97, 121),20	1745,(74, 121),20	1765,(12, 101),36	1801,(109, 121),20	1821,(91, 121),20	1841,(76, 121),20	1861,(42, 121),20	1881,(113, 121),20	1901,(78, 121),20	1921,(35, 121),20	1941,(57, 121),20	1977,(22, 121),20	1997,(61, 121),20	2017,(67, 121),20	2037,(72, 121),20	2057,(39, 121),20	2077,(55, 121),20	2097,(85, 121),20	2117,(31, 121),20	2137,(15, 121),20	2157,(84, 121),20	2177,(30, 121),20	2197,(33, 121),20	2217,(70, 121),20	2237,(29, 121),20	2257,(88, 121),20	2277,(117, 121),20	2297,(63, 121),20	6941,(8, 95),60	7001,(69, 121),20	7037,(8, 118),12	7049,(44, 121),20	7069,(96, 121),20	7089,(17, 121),20	7109,(24, 121),20	7129,(87, 121),20	7149,(90, 121),20	7169,(13, 121),20	7189,(36, 121),20	7209,(37, 121),20	7229,(80, 121),20	7249,(93, 121),20	7269,(98, 121),20	7289,(108, 121),20	7309,(83, 121),20	7329,(111, 121),20	
53,(0, 3),52	261,(0, 8),52	313,(2, 44),184	497,(5, 96),12	509,(12, 17),4	553,(1, 24),64	617,(7, 87),156	785,(9, 90),8	845,(6, 13),4	849,(6, 36),4	853,(6, 37),80	1009,(6, 80),36	1045,(6, 93),76	1121,(2, 98),288	1409,(9, 108),420	1829,(12, 83),148	
1,(0, 2),52	209,(0, 7),52	417,(0, 12),52	477,(1, 22),76	553,(3, 85),448	1121,(11, 15),4	1125,(9, 29),188	1365,(10, 63),280	
110,(3, 28),212	322,(5, 19),108	1189,(8, 69),5752	
# Outgoing
322,(5, 19),108	430,(5, 71),24	454,(10, 53),4	497,(5, 96),12	509,(45, 121),20	529,(104, 121),20	549,(62, 121),20	569,(60, 121),20	589,(65, 121),20	609,(26, 121),20	629,(56, 121),20	877,(102, 121),20	897,(94, 121),20	917,(10, 73),12	949,(18, 121),20	1009,(59, 121),20	1029,(119, 121),20	1189,(47, 121),20	1305,(49, 121),20	1325,(51, 121),20	1345,(100, 121),20	1365,(10, 63),280	1645,(58, 121),20	1665,(106, 121),20	1685,(115, 121),20	1705,(81, 121),20	1725,(97, 121),20	1745,(74, 121),20	1801,(109, 121),20	1821,(91, 121),20	1841,(76, 121),20	1861,(42, 121),20	1881,(113, 121),20	1901,(78, 121),20	1921,(35, 121),20	1941,(57, 121),20	1997,(61, 121),20	2017,(67, 121),20	2037,(72, 121),20	2057,(39, 121),20	2077,(55, 121),20	2117,(31, 121),20	2157,(84, 121),20	2177,(30, 121),20	2197,(33, 121),20	2217,(70, 121),20	2257,(88, 121),20	2277,(117, 121),20	7329,(111, 121),20	
241,(4, 26),4	245,(4, 56),4	261,(4, 94),24	485,(4, 91),80	605,(9, 42),4	609,(9, 113),4	653,(9, 57),12	665,(9, 61),120	785,(9, 90),8	1125,(9, 29),188	1409,(9, 108),420	
110,(3, 28),212	322,(3, 47),16	338,(3, 49),4	342,(8, 51),4	346,(8, 100),4	365,(3, 34),4	369,(3, 50),20	389,(3, 89),4	393,(3, 110),24	417,(3, 74),24	441,(3, 109),44	485,(43, 121),20	505,(8, 79),4	553,(3, 85),448	1001,(8, 31),52	1053,(8, 40),68	1121,(8, 84),36	1177,(8, 48),12	1189,(8, 69),5752	6941,(8, 95),60	7001,(8, 111),36	7037,(8, 118),12	7049,(44, 121),20	7069,(96, 121),20	7089,(17, 121),20	7109,(24, 121),20	7129,(87, 121),20	7149,(90, 121),20	7169,(13, 121),20	7189,(36, 121),20	7209,(37, 121),20	7229,(80, 121),20	7249,(93, 121),20	7269,(98, 121),20	7289,(108, 121),20	7309,(83, 121),20	
157,(2, 20),4	161,(2, 32),48	209,(2, 60),8	217,(2, 65),24	241,(2, 82),4	245,(2, 86),8	253,(2, 102),8	285,(7, 18),4	289,(7, 59),12	301,(7, 119),12	313,(2, 44),184	509,(12, 17),4	565,(7, 76),40	613,(12, 78),4	617,(7, 87),156	785,(12, 67),16	801,(12, 66),4	845,(7, 99),32	929,(12, 75),4	1121,(2, 98),288	1541,(12, 41),72	1613,(12, 107),8	1621,(21, 121),20	1765,(12, 101),36	1829,(12, 83),148	1977,(22, 121),20	2097,(85, 121),20	2137,(15, 121),20	2237,(29, 121),20	2297,(63, 121),20	
1,(0, 2),52	53,(0, 3),52	105,(0, 4),52	157,(0, 5),52	209,(0, 7),52	261,(0, 8),52	313,(0, 9),52	365,(0, 10),52	417,(0, 12),52	469,(1, 16),8	477,(1, 22),76	553,(1, 24),64	617,(1, 35),36	653,(1, 54),148	801,(1, 72),4	805,(1, 105),4	809,(1, 114),36	845,(6, 13),4	849,(6, 36),4	853,(6, 37),80	933,(6, 38),16	949,(6, 39),24	973,(6, 46),4	977,(6, 55),4	981,(6, 64),28	1009,(6, 80),36	1045,(6, 93),76	1121,(11, 15),4	1125,(11, 23),8	1133,(11, 27),44	1177,(11, 30),12	1189,(11, 33),16	1205,(11, 70),4	1209,(11, 77),96	1305,(11, 88),20	1325,(11, 117),60	1385,(11, 120),76	1461,(52, 121),20	1481,(14, 121),20	1501,(28, 121),20	1521,(19, 121),20	7001,(69, 121),20	
