158
# CPU
0,0,1	1,2,12	13,20,12	25,17,12	37,5,12	49,11,12	61,1,12	73,9,12	85,3,12	97,19,12	109,6,12	121,14,12	133,8,12	145,18,12	157,21,1	
16,7,12	31,16,12	76,12,12	91,4,12	
19,10,12	79,13,12	
25,15,12	

# Incoming
28,(7, 21),3	31,(10, 21),3	37,(15, 21),3	43,(16, 21),3	88,(12, 21),3	91,(13, 21),3	103,(4, 21),3	
13,(2, 7),3	25,(2, 16),6	31,(2, 4),30	73,(1, 12),3	79,(1, 4),12	
16,(2, 10),3	76,(1, 13),3	
19,(2, 15),6	

# Outgoing
13,(2, 7),3	16,(2, 10),3	19,(2, 15),6	25,(2, 16),6	31,(2, 4),30	73,(1, 12),3	76,(1, 13),3	79,(1, 4),12	
28,(7, 21),3	43,(16, 21),3	88,(12, 21),3	103,(4, 21),3	
31,(10, 21),3	91,(13, 21),3	
37,(15, 21),3	

