9910
# CPU
97,5,1	98,50,1	99,80,1	100,85,1	193,10,1	197,55,1	201,105,1	289,15,1	290,110,1	291,170,1	329,60,1	333,100,1	385,20,1	386,160,1	473,155,1	525,180,1	557,120,1	673,45,1	681,65,1	717,95,1	745,165,1	749,30,1	757,35,1	761,130,1	765,135,1	813,185,1	869,175,1	885,195,1	1449,140,1	1605,25,1	1701,150,1	1789,125,1	1913,200,1	2017,115,1	2085,190,1	2177,40,1	2257,70,1	2633,75,1	2761,90,1	2865,145,1	
73,4,1	74,119,1	75,134,1	76,144,1	106,39,1	169,9,1	170,24,1	171,104,1	181,79,1	265,14,1	266,199,1	297,124,1	337,129,1	361,19,1	362,99,1	363,34,1	364,94,1	481,29,1	521,54,1	553,174,1	629,159,1	681,179,1	853,59,1	857,84,1	881,109,1	909,89,1	925,114,1	1353,139,1	1377,69,1	1461,74,1	1533,169,1	1553,189,1	1609,44,1	2173,194,1	2325,64,1	2465,154,1	2549,184,1	4917,149,1	5189,49,1	9893,164,1	
49,3,1	50,43,1	51,103,1	65,93,1	78,63,1	82,143,1	86,198,1	93,158,1	97,178,1	145,8,1	241,13,1	242,48,1	243,73,1	244,193,1	257,188,1	270,53,1	274,68,1	286,113,1	309,78,1	313,153,1	337,18,1	338,138,1	361,108,1	397,173,1	569,33,1	573,168,1	577,28,1	657,128,1	673,183,1	705,118,1	985,23,1	1105,88,1	1337,38,1	1513,163,1	1625,58,1	2017,98,1	2433,123,1	2653,83,1	2869,148,1	9817,133,1	
25,2,1	26,177,1	121,7,1	149,187,1	169,197,1	217,12,1	218,42,1	265,72,1	313,17,1	314,117,1	315,107,1	316,152,1	317,137,1	345,127,1	397,32,1	461,52,1	573,132,1	697,167,1	817,102,1	821,22,1	829,87,1	1021,192,1	1353,162,1	1397,57,1	1469,142,1	1517,112,1	1573,27,1	1613,122,1	1701,172,1	2181,47,1	2185,62,1	2253,67,1	2297,82,1	2409,92,1	2469,157,1	2545,182,1	2585,37,1	2637,77,1	2765,97,1	5417,147,1	
0,0,1	1,11,1	2,16,1	3,6,1	4,1,1	5,21,1	6,161,1	7,186,1	8,46,1	9,51,1	93,66,1	309,191,1	345,121,1	377,96,1	413,81,1	421,91,1	429,196,1	449,36,1	501,101,1	505,111,1	557,156,1	629,166,1	681,106,1	869,41,1	901,31,1	1189,76,1	1305,131,1	1365,26,1	1565,146,1	1593,171,1	1849,176,1	1893,151,1	1905,61,1	1909,126,1	1953,56,1	1969,116,1	1981,141,1	2029,181,1	2217,71,1	2765,136,1	5181,86,1	9909,201,1	
# Incoming
73,(0, 5),24	169,(0, 10),24	193,(9, 55),4	197,(9, 105),4	265,(0, 15),24	289,(14, 25),12	321,(7, 60),8	329,(17, 100),4	361,(0, 20),24	385,(4, 155),88	521,(19, 180),4	525,(3, 120),32	569,(11, 40),100	669,(11, 45),4	673,(11, 65),8	705,(17, 95),12	717,(17, 135),8	725,(17, 165),20	745,(13, 30),4	749,(13, 35),8	757,(18, 130),4	761,(18, 135),4	765,(18, 150),44	809,(18, 185),4	817,(9, 175),52	881,(17, 195),4	925,(11, 140),524	1449,(8, 25),156	1605,(8, 150),96	1701,(18, 125),88	1849,(12, 200),64	1953,(19, 115),64	2029,(17, 190),56	2173,(6, 40),4	2253,(6, 70),4	2585,(1, 75),48	2653,(1, 90),108	2765,(1, 145),100	
49,(0, 4),24	102,(5, 39),4	106,(5, 59),20	126,(5, 69),12	145,(0, 9),24	169,(5, 79),12	194,(10, 99),4	241,(0, 14),24	265,(10, 124),32	333,(17, 129),4	337,(0, 19),24	361,(3, 59),28	389,(3, 84),8	397,(7, 29),84	481,(7, 54),40	521,(10, 174),32	557,(7, 159),72	673,(20, 179),8	681,(11, 74),164	845,(8, 59),8	853,(13, 84),4	857,(13, 169),4	869,(12, 109),12	885,(11, 89),24	909,(11, 114),16	925,(2, 139),428	1353,(13, 69),24	1377,(20, 74),84	1513,(11, 169),20	1533,(11, 189),20	1573,(16, 44),36	1701,(16, 194),472	2173,(17, 64),152	2433,(6, 154),32	2469,(6, 164),60	2545,(6, 184),4	2549,(3, 149),2368	4917,(12, 49),272	9817,(17, 164),76	
25,(0, 3),24	49,(2, 93),16	74,(4, 63),4	78,(4, 143),4	82,(4, 198),4	89,(2, 158),4	93,(2, 178),4	98,(5, 33),4	121,(0, 8),24	174,(9, 88),4	198,(10, 128),16	217,(0, 13),24	241,(10, 188),16	266,(14, 53),4	270,(14, 68),4	274,(14, 113),12	297,(15, 28),8	305,(15, 78),4	309,(15, 153),4	313,(0, 18),24	337,(7, 108),24	361,(7, 173),36	397,(11, 33),172	569,(15, 168),4	573,(19, 28),4	577,(19, 38),12	625,(15, 128),32	657,(15, 183),16	697,(12, 118),8	705,(20, 23),280	1021,(19, 88),84	1181,(20, 38),156	1449,(11, 163),64	1513,(12, 58),112	1929,(17, 98),88	2409,(6, 123),24	2637,(1, 83),16	2865,(1, 148),4	5189,(12, 133),4628	
1,(0, 2),24	97,(0, 7),24	121,(4, 187),28	149,(5, 197),20	170,(9, 77),4	178,(9, 117),4	193,(0, 12),24	217,(5, 182),24	241,(9, 72),24	289,(0, 17),24	313,(10, 137),4	341,(3, 127),4	385,(11, 32),12	397,(3, 52),64	461,(3, 97),64	525,(9, 132),48	573,(10, 47),52	629,(3, 167),68	697,(4, 102),120	817,(8, 22),4	821,(8, 62),4	825,(8, 87),4	829,(13, 97),4	845,(11, 82),40	885,(4, 192),136	1021,(15, 82),140	1161,(20, 27),20	1189,(13, 112),40	1337,(20, 67),4	1341,(20, 162),12	1353,(19, 57),44	1397,(19, 62),36	1433,(19, 142),36	1469,(20, 112),48	1553,(16, 27),20	1609,(16, 122),4	1613,(16, 172),88	2177,(6, 47),4	2181,(6, 62),4	2185,(6, 67),68	2257,(6, 82),40	2297,(6, 92),112	2465,(6, 157),4	2529,(6, 182),16	2549,(1, 37),36	2633,(1, 77),4	2761,(1, 97),4	5181,(18, 147),236	
65,(2, 141),24	89,(4, 66),4	97,(2, 191),212	309,(2, 196),4	313,(177, 201),8	321,(3, 41),20	341,(5, 121),4	345,(43, 201),8	353,(103, 201),8	361,(4, 96),16	377,(119, 201),8	385,(50, 201),8	393,(80, 201),8	401,(85, 201),8	409,(10, 81),4	413,(10, 91),8	421,(10, 196),8	429,(55, 201),8	437,(105, 201),8	445,(15, 36),4	449,(15, 146),4	453,(110, 201),8	461,(170, 201),8	473,(134, 201),8	481,(144, 201),8	489,(39, 201),8	497,(9, 101),4	501,(9, 111),4	505,(24, 201),8	513,(104, 201),8	521,(7, 141),32	553,(7, 156),4	557,(3, 166),72	629,(7, 106),52	681,(187, 201),8	689,(197, 201),8	697,(93, 201),8	705,(63, 201),8	713,(143, 201),8	721,(198, 201),8	729,(158, 201),8	737,(178, 201),8	745,(7, 41),124	869,(8, 31),32	901,(8, 76),288	1189,(9, 131),116	1305,(79, 201),8	1313,(48, 201),8	1321,(73, 201),8	1329,(193, 201),8	1337,(188, 201),8	1345,(199, 201),8	1353,(12, 26),12	1365,(12, 126),144	1509,(14, 146),56	1565,(14, 171),28	1593,(124, 201),8	1601,(60, 201),8	1609,(100, 201),8	1617,(129, 201),8	1625,(12, 176),224	1849,(53, 201),8	1857,(68, 201),8	1865,(113, 201),8	1873,(78, 201),8	1881,(153, 201),8	1889,(18, 151),4	1893,(138, 201),8	1901,(19, 61),4	1905,(19, 126),4	1913,(42, 201),8	1921,(72, 201),8	1929,(19, 56),24	1953,(108, 201),8	1961,(20, 116),8	1969,(20, 141),12	1981,(160, 201),8	1989,(173, 201),8	1997,(155, 201),8	2005,(180, 201),8	2017,(17, 181),12	2029,(99, 201),8	2037,(34, 201),8	2045,(94, 201),8	2053,(29, 201),8	2061,(54, 201),8	2069,(174, 201),8	2077,(120, 201),8	2085,(117, 201),8	2093,(107, 201),8	2101,(152, 201),8	2109,(137, 201),8	2117,(18, 71),100	2217,(33, 201),8	2225,(168, 201),8	2233,(28, 201),8	2241,(159, 201),8	2249,(128, 201),8	2257,(183, 201),8	2265,(45, 201),8	2273,(179, 201),8	2281,(65, 201),8	2289,(118, 201),8	2297,(95, 201),8	2305,(165, 201),8	2313,(30, 201),8	2325,(17, 136),440	2765,(127, 201),8	2773,(32, 201),8	2781,(52, 201),8	2789,(132, 201),8	2797,(167, 201),8	2805,(35, 201),8	2813,(130, 201),8	2821,(135, 201),8	2829,(185, 201),8	2837,(102, 201),8	2845,(22, 201),8	2853,(87, 201),8	2861,(59, 201),8	2869,(84, 201),8	2877,(175, 201),8	2885,(109, 201),8	2893,(195, 201),8	2901,(89, 201),8	2909,(114, 201),8	2917,(192, 201),8	2925,(139, 201),8	2933,(162, 201),8	2941,(69, 201),8	2949,(57, 201),8	2957,(140, 201),8	2965,(74, 201),8	2973,(142, 201),8	2981,(112, 201),8	2989,(169, 201),8	2997,(189, 201),8	3005,(27, 201),8	3013,(25, 201),8	3021,(44, 201),8	3029,(122, 201),8	3037,(150, 201),8	3045,(172, 201),8	3053,(125, 201),8	3061,(200, 201),8	3069,(115, 201),8	3077,(190, 201),8	3085,(194, 201),8	3093,(40, 201),8	3101,(47, 201),8	3109,(62, 201),8	3117,(67, 201),8	3125,(70, 201),8	3133,(82, 201),8	3141,(64, 201),8	3149,(92, 201),8	3157,(154, 201),8	3165,(157, 201),8	3173,(182, 201),8	3181,(184, 201),8	3189,(37, 201),8	3197,(75, 201),8	3205,(77, 201),8	3213,(90, 201),8	3221,(97, 201),8	3229,(145, 201),8	4917,(18, 86),264	5181,(149, 201),8	5190,(49, 201),8	5417,(23, 201),8	5425,(88, 201),8	5433,(38, 201),8	5441,(163, 201),8	5449,(58, 201),8	5457,(98, 201),8	5465,(123, 201),8	5473,(83, 201),8	5481,(148, 201),8	9818,(133, 201),8	9893,(147, 201),8	9901,(164, 201),8	
# Outgoing
98,(5, 33),4	102,(5, 39),4	106,(5, 59),20	126,(5, 69),12	149,(5, 197),20	169,(5, 79),12	194,(10, 99),4	198,(10, 128),16	217,(5, 182),24	241,(10, 188),16	265,(10, 124),32	297,(15, 28),8	305,(15, 78),4	309,(15, 153),4	313,(10, 137),4	341,(5, 121),4	385,(50, 201),8	393,(80, 201),8	401,(85, 201),8	409,(10, 81),4	413,(10, 91),8	421,(10, 196),8	429,(55, 201),8	437,(105, 201),8	445,(15, 36),4	449,(15, 146),4	453,(110, 201),8	461,(170, 201),8	521,(10, 174),32	569,(15, 168),4	573,(10, 47),52	625,(15, 128),32	657,(15, 183),16	673,(20, 179),8	705,(20, 23),280	1021,(15, 82),140	1161,(20, 27),20	1181,(20, 38),156	1337,(20, 67),4	1341,(20, 162),12	1377,(20, 74),84	1469,(20, 112),48	1601,(60, 201),8	1609,(100, 201),8	1961,(20, 116),8	1969,(20, 141),12	1981,(160, 201),8	1997,(155, 201),8	2005,(180, 201),8	2077,(120, 201),8	2265,(45, 201),8	2281,(65, 201),8	2297,(95, 201),8	2305,(165, 201),8	2313,(30, 201),8	2805,(35, 201),8	2813,(130, 201),8	2821,(135, 201),8	2829,(185, 201),8	2877,(175, 201),8	2893,(195, 201),8	2957,(140, 201),8	3013,(25, 201),8	3037,(150, 201),8	3053,(125, 201),8	3061,(200, 201),8	3069,(115, 201),8	3077,(190, 201),8	3093,(40, 201),8	3125,(70, 201),8	3197,(75, 201),8	3213,(90, 201),8	3229,(145, 201),8	
74,(4, 63),4	78,(4, 143),4	82,(4, 198),4	89,(4, 66),4	121,(4, 187),28	170,(9, 77),4	174,(9, 88),4	178,(9, 117),4	193,(9, 55),4	197,(9, 105),4	241,(9, 72),24	266,(14, 53),4	270,(14, 68),4	274,(14, 113),12	289,(14, 25),12	361,(4, 96),16	377,(119, 201),8	385,(4, 155),88	473,(134, 201),8	481,(144, 201),8	489,(39, 201),8	497,(9, 101),4	501,(9, 111),4	505,(24, 201),8	513,(104, 201),8	521,(19, 180),4	525,(9, 132),48	573,(19, 28),4	577,(19, 38),12	697,(4, 102),120	817,(9, 175),52	885,(4, 192),136	1021,(19, 88),84	1189,(9, 131),116	1305,(79, 201),8	1345,(199, 201),8	1353,(19, 57),44	1397,(19, 62),36	1433,(19, 142),36	1509,(14, 146),56	1565,(14, 171),28	1593,(124, 201),8	1617,(129, 201),8	1901,(19, 61),4	1905,(19, 126),4	1929,(19, 56),24	1953,(19, 115),64	2029,(99, 201),8	2037,(34, 201),8	2045,(94, 201),8	2053,(29, 201),8	2061,(54, 201),8	2069,(174, 201),8	2241,(159, 201),8	2273,(179, 201),8	2861,(59, 201),8	2869,(84, 201),8	2885,(109, 201),8	2901,(89, 201),8	2909,(114, 201),8	2925,(139, 201),8	2941,(69, 201),8	2965,(74, 201),8	2989,(169, 201),8	2997,(189, 201),8	3021,(44, 201),8	3085,(194, 201),8	3141,(64, 201),8	3157,(154, 201),8	3181,(184, 201),8	5181,(149, 201),8	5190,(49, 201),8	9901,(164, 201),8	
321,(3, 41),20	341,(3, 127),4	345,(43, 201),8	353,(103, 201),8	361,(3, 59),28	389,(3, 84),8	397,(3, 52),64	461,(3, 97),64	525,(3, 120),32	557,(3, 166),72	629,(3, 167),68	697,(93, 201),8	705,(63, 201),8	713,(143, 201),8	721,(198, 201),8	729,(158, 201),8	737,(178, 201),8	745,(13, 30),4	749,(13, 35),8	757,(18, 130),4	761,(18, 135),4	765,(18, 150),44	809,(18, 185),4	817,(8, 22),4	821,(8, 62),4	825,(8, 87),4	829,(13, 97),4	845,(8, 59),8	853,(13, 84),4	857,(13, 169),4	869,(8, 31),32	901,(8, 76),288	1189,(13, 112),40	1313,(48, 201),8	1321,(73, 201),8	1329,(193, 201),8	1337,(188, 201),8	1353,(13, 69),24	1449,(8, 25),156	1605,(8, 150),96	1701,(18, 125),88	1849,(53, 201),8	1857,(68, 201),8	1865,(113, 201),8	1873,(78, 201),8	1881,(153, 201),8	1889,(18, 151),4	1893,(138, 201),8	1953,(108, 201),8	1989,(173, 201),8	2117,(18, 71),100	2217,(33, 201),8	2225,(168, 201),8	2233,(28, 201),8	2249,(128, 201),8	2257,(183, 201),8	2289,(118, 201),8	2549,(3, 149),2368	4917,(18, 86),264	5181,(18, 147),236	5417,(23, 201),8	5425,(88, 201),8	5433,(38, 201),8	5441,(163, 201),8	5449,(58, 201),8	5457,(98, 201),8	5465,(123, 201),8	5473,(83, 201),8	5481,(148, 201),8	9818,(133, 201),8	
49,(2, 93),16	65,(2, 141),24	89,(2, 158),4	93,(2, 178),4	97,(2, 191),212	309,(2, 196),4	313,(177, 201),8	321,(7, 60),8	329,(17, 100),4	333,(17, 129),4	337,(7, 108),24	361,(7, 173),36	397,(7, 29),84	481,(7, 54),40	521,(7, 141),32	553,(7, 156),4	557,(7, 159),72	629,(7, 106),52	681,(187, 201),8	689,(197, 201),8	697,(12, 118),8	705,(17, 95),12	717,(17, 135),8	725,(17, 165),20	745,(7, 41),124	869,(12, 109),12	881,(17, 195),4	925,(2, 139),428	1353,(12, 26),12	1365,(12, 126),144	1513,(12, 58),112	1625,(12, 176),224	1849,(12, 200),64	1913,(42, 201),8	1921,(72, 201),8	1929,(17, 98),88	2017,(17, 181),12	2029,(17, 190),56	2085,(117, 201),8	2093,(107, 201),8	2101,(152, 201),8	2109,(137, 201),8	2173,(17, 64),152	2325,(17, 136),440	2765,(127, 201),8	2773,(32, 201),8	2781,(52, 201),8	2789,(132, 201),8	2797,(167, 201),8	2837,(102, 201),8	2845,(22, 201),8	2853,(87, 201),8	2917,(192, 201),8	2933,(162, 201),8	2949,(57, 201),8	2973,(142, 201),8	2981,(112, 201),8	3005,(27, 201),8	3029,(122, 201),8	3045,(172, 201),8	3101,(47, 201),8	3109,(62, 201),8	3117,(67, 201),8	3133,(82, 201),8	3149,(92, 201),8	3165,(157, 201),8	3173,(182, 201),8	3189,(37, 201),8	3205,(77, 201),8	3221,(97, 201),8	4917,(12, 49),272	5189,(12, 133),4628	9817,(17, 164),76	9893,(147, 201),8	
1,(0, 2),24	25,(0, 3),24	49,(0, 4),24	73,(0, 5),24	97,(0, 7),24	121,(0, 8),24	145,(0, 9),24	169,(0, 10),24	193,(0, 12),24	217,(0, 13),24	241,(0, 14),24	265,(0, 15),24	289,(0, 17),24	313,(0, 18),24	337,(0, 19),24	361,(0, 20),24	385,(11, 32),12	397,(11, 33),172	569,(11, 40),100	669,(11, 45),4	673,(11, 65),8	681,(11, 74),164	845,(11, 82),40	885,(11, 89),24	909,(11, 114),16	925,(11, 140),524	1449,(11, 163),64	1513,(11, 169),20	1533,(11, 189),20	1553,(16, 27),20	1573,(16, 44),36	1609,(16, 122),4	1613,(16, 172),88	1701,(16, 194),472	2173,(6, 40),4	2177,(6, 47),4	2181,(6, 62),4	2185,(6, 67),68	2253,(6, 70),4	2257,(6, 82),40	2297,(6, 92),112	2409,(6, 123),24	2433,(6, 154),32	2465,(6, 157),4	2469,(6, 164),60	2529,(6, 182),16	2545,(6, 184),4	2549,(1, 37),36	2585,(1, 75),48	2633,(1, 77),4	2637,(1, 83),16	2653,(1, 90),108	2761,(1, 97),4	2765,(1, 145),100	2865,(1, 148),4	
