130
# CPU
0,0,1	1,8,1	2,76,1	3,62,1	4,34,1	5,43,1	6,50,1	7,60,1	8,17,1	9,44,1	10,2,1	11,54,1	12,52,1	13,55,1	14,3,1	15,14,1	16,13,1	17,11,1	18,32,1	19,18,1	20,72,1	21,69,1	22,74,1	23,65,1	24,6,1	25,22,1	26,40,1	27,29,1	28,27,1	29,61,1	30,20,1	31,53,1	32,77,1	33,36,1	34,19,1	35,4,1	36,49,1	37,59,1	38,70,1	39,58,1	40,67,1	41,79,1	42,57,1	43,24,1	44,12,1	45,28,1	46,42,1	129,81,1	
3,1,1	4,23,1	5,26,1	6,51,1	7,66,1	8,46,1	9,47,1	10,9,1	11,78,1	12,10,1	13,7,1	14,80,1	15,63,1	16,30,1	17,35,1	18,38,1	19,73,1	20,39,1	21,56,1	22,31,1	23,41,1	24,45,1	25,5,1	26,21,1	27,33,1	28,37,1	29,48,1	30,15,1	31,68,1	32,75,1	33,25,1	34,64,1	35,16,1	36,71,1	
# Incoming
5,(23, 81),4	9,(26, 81),4	13,(51, 81),4	17,(66, 81),4	21,(46, 81),4	25,(47, 81),4	29,(9, 81),4	33,(78, 81),4	37,(10, 81),4	41,(80, 81),4	45,(63, 81),4	49,(30, 81),4	53,(35, 81),4	57,(38, 81),4	61,(73, 81),4	65,(39, 81),4	69,(56, 81),4	73,(31, 81),4	77,(41, 81),4	81,(45, 81),4	85,(21, 81),4	89,(33, 81),4	93,(37, 81),4	97,(48, 81),4	101,(15, 81),4	105,(68, 81),4	109,(75, 81),4	113,(25, 81),4	117,(64, 81),4	121,(16, 81),4	125,(71, 81),4	
1,(0, 1),2	3,(0, 7),2	5,(0, 5),2	
# Outgoing
1,(0, 1),2	3,(0, 7),2	5,(0, 5),2	
5,(23, 81),4	9,(26, 81),4	13,(51, 81),4	17,(66, 81),4	21,(46, 81),4	25,(47, 81),4	29,(9, 81),4	33,(78, 81),4	37,(10, 81),4	41,(80, 81),4	45,(63, 81),4	49,(30, 81),4	53,(35, 81),4	57,(38, 81),4	61,(73, 81),4	65,(39, 81),4	69,(56, 81),4	73,(31, 81),4	77,(41, 81),4	81,(45, 81),4	85,(21, 81),4	89,(33, 81),4	93,(37, 81),4	97,(48, 81),4	101,(15, 81),4	105,(68, 81),4	109,(75, 81),4	113,(25, 81),4	117,(64, 81),4	121,(16, 81),4	125,(71, 81),4	
