253
# CPU
0,81,1	1,67,1	2,52,1	3,62,1	4,44,1	5,36,1	6,35,1	7,65,1	8,54,1	9,68,1	10,26,1	11,61,1	12,73,1	13,18,1	14,63,1	15,37,1	16,33,1	17,66,1	18,74,1	19,19,1	20,69,1	21,40,1	22,53,1	23,55,1	24,13,1	25,41,1	26,15,1	27,70,1	28,20,1	29,60,1	30,38,1	31,42,1	32,21,1	33,31,1	34,28,1	35,12,1	36,75,1	37,78,1	38,71,1	39,45,1	40,14,1	41,32,1	42,49,1	43,56,1	44,79,1	45,57,1	46,43,1	47,30,1	48,10,1	49,39,1	50,17,1	51,24,1	52,64,1	53,11,1	54,16,1	55,23,1	56,27,1	57,77,1	58,76,1	59,46,1	60,47,1	61,59,1	62,48,1	63,2,1	64,50,1	65,34,1	66,80,1	67,9,1	68,8,1	69,58,1	70,6,1	71,22,1	72,29,1	73,5,1	74,72,1	75,4,1	76,1,1	80,7,1	251,3,1	252,0,1	
34,51,1	67,25,1	


# Incoming
35,(51, 1),21	68,(25, 7),12	80,(25, 3),171	
1,(81, 51),33	34,(81, 25),33	


# Outgoing
1,(81, 51),33	34,(81, 25),33	
35,(51, 1),21	68,(25, 7),12	80,(25, 3),171	


