4542
# CPU
271,10,28	334,31,28	415,28,28	949,62,28	1027,55,28	1055,69,28	1252,84,28	1354,91,28	1382,40,28	2005,48,28	2167,107,28	2263,76,28	2899,98,28	4486,115,28	
241,9,28	451,26,28	493,33,28	760,71,28	946,86,28	1021,100,28	1249,57,28	1366,93,28	1394,29,28	1422,50,28	1744,109,28	1981,43,28	2149,64,28	2494,78,28	3292,117,28	
211,8,28	502,21,28	670,42,28	698,56,28	775,63,28	910,49,28	1411,85,28	1465,108,28	1687,30,28	2143,99,28	2239,70,28	2422,77,28	2887,92,28	2932,116,28	
181,7,28	379,20,28	631,94,28	769,44,28	838,24,28	1054,110,28	1207,79,28	1426,102,28	1828,51,28	1963,35,28	1991,72,28	2019,58,28	2833,65,28	2881,87,28	4504,118,28	
151,6,28	616,90,28	760,83,28	1324,75,28	1423,18,28	1486,61,28	1546,114,28	1684,25,28	1909,39,28	1937,47,28	1965,54,28	2215,68,28	2896,97,28	2924,106,28	
121,5,28	322,53,28	350,17,28	454,46,28	1072,67,28	1603,113,28	1894,23,28	1978,38,28	2107,89,28	2161,105,28	2251,74,28	2878,82,28	2906,96,28	3763,60,28	
91,4,28	289,16,28	427,36,28	523,45,28	562,66,28	616,59,28	1357,22,28	1867,52,28	1895,95,28	1978,111,28	2248,73,28	2497,80,28	2884,88,28	2920,103,28	2948,119,28	
61,3,28	322,14,28	598,37,28	913,104,28	1669,19,28	1969,120,28	2926,112,28	3631,41,28	4541,121,1	
31,2,28	301,12,28	329,15,28	1690,32,28	1933,34,28	2875,81,28	
0,0,1	1,1,28	29,11,28	397,13,28	3361,27,28	4375,101,28	
# Incoming
241,(0, 10),30	271,(5, 28),3	274,(5, 69),3	277,(6, 28),9	286,(6, 48),3	289,(4, 40),15	304,(4, 91),6	310,(3, 28),3	313,(6, 76),3	316,(7, 31),6	322,(9, 40),3	325,(9, 48),3	328,(9, 91),3	331,(3, 31),3	334,(7, 62),12	349,(9, 107),3	352,(2, 84),12	364,(9, 84),6	370,(1, 28),3	373,(2, 98),12	385,(3, 76),6	391,(7, 28),24	415,(8, 107),3	421,(1, 40),15	436,(2, 69),57	493,(1, 62),33	526,(2, 40),129	655,(3, 84),147	802,(4, 69),42	844,(5, 55),72	916,(5, 62),33	949,(7, 40),57	1006,(7, 55),21	1027,(8, 69),27	1072,(1, 76),33	1105,(8, 91),141	1249,(1, 84),3	1252,(1, 91),102	1357,(12, 40),3	1411,(1, 98),3	1981,(11, 48),24	2161,(12, 107),6	2251,(11, 76),12	2896,(11, 98),3	2926,(11, 115),3	4375,(12, 115),111	
211,(0, 9),30	241,(2, 29),15	256,(2, 33),48	304,(2, 43),3	307,(2, 50),6	313,(3, 26),18	331,(5, 29),6	337,(5, 43),9	346,(5, 64),3	349,(5, 109),3	352,(6, 57),12	364,(2, 100),9	373,(4, 57),3	376,(1, 33),33	409,(2, 71),27	436,(1, 43),6	442,(3, 71),3	445,(3, 86),3	448,(7, 26),3	451,(7, 29),6	457,(7, 33),24	481,(7, 109),3	484,(10, 29),6	490,(10, 33),3	493,(2, 93),33	526,(10, 100),3	532,(1, 64),24	556,(3, 93),6	562,(4, 64),72	634,(4, 71),126	760,(4, 100),3	763,(4, 109),6	769,(6, 64),108	877,(7, 50),39	916,(6, 109),6	922,(6, 117),3	925,(7, 86),21	946,(8, 50),21	967,(8, 78),12	979,(8, 100),42	1105,(1, 78),99	1204,(10, 57),45	1249,(10, 93),12	1261,(10, 117),24	1354,(1, 93),12	1366,(12, 29),3	1399,(12, 50),3	1465,(1, 109),3	1558,(2, 109),186	1744,(2, 117),54	1978,(11, 43),3	2083,(11, 64),66	2422,(11, 78),72	2494,(7, 117),798	
181,(0, 8),30	211,(2, 30),6	217,(2, 56),3	220,(4, 30),3	223,(4, 92),3	226,(4, 116),3	229,(3, 108),3	232,(2, 116),9	241,(3, 21),69	310,(4, 21),18	328,(5, 56),3	334,(3, 49),21	355,(4, 42),9	364,(4, 56),9	373,(5, 85),3	376,(4, 70),42	418,(5, 92),3	421,(5, 99),30	451,(5, 116),3	454,(1, 49),36	490,(1, 56),3	493,(7, 21),9	502,(7, 77),6	508,(9, 49),18	526,(1, 63),6	532,(10, 30),9	541,(10, 42),6	556,(6, 42),6	562,(6, 56),30	592,(6, 63),12	604,(7, 99),27	631,(9, 42),39	670,(9, 56),15	691,(7, 63),84	799,(9, 85),51	850,(10, 49),60	1369,(12, 30),30	1402,(12, 70),3	1408,(12, 85),3	1426,(1, 108),39	1546,(1, 116),45	1684,(11, 30),3	2134,(12, 99),9	2215,(11, 70),24	2263,(11, 77),159	2884,(11, 92),3	2929,(11, 116),3	
151,(0, 7),30	181,(2, 20),30	211,(3, 35),12	223,(3, 44),3	226,(3, 65),3	229,(2, 72),3	232,(3, 79),3	235,(3, 102),3	238,(4, 24),21	259,(4, 35),30	289,(5, 20),9	298,(5, 24),12	310,(5, 65),3	313,(5, 110),3	316,(6, 58),12	328,(4, 44),27	355,(1, 20),15	370,(6, 102),3	373,(9, 24),3	376,(10, 20),3	379,(8, 24),15	394,(9, 51),15	409,(8, 87),3	412,(1, 35),9	421,(4, 118),9	430,(10, 58),9	448,(3, 87),84	532,(8, 102),9	541,(8, 110),3	544,(9, 35),27	571,(5, 94),60	631,(6, 65),24	655,(2, 44),114	769,(9, 79),30	799,(10, 24),39	877,(6, 79),39	916,(9, 110),138	1138,(10, 118),18	1204,(1, 79),3	1360,(12, 58),6	1414,(1, 102),12	1591,(1, 118),69	1798,(12, 51),30	1933,(11, 35),30	1963,(12, 72),12	2005,(11, 58),12	2149,(11, 65),54	2203,(2, 65),630	2878,(11, 87),3	4486,(12, 118),18	
121,(0, 6),30	151,(2, 54),15	178,(2, 68),3	187,(3, 39),3	190,(3, 114),9	199,(5, 47),18	217,(5, 54),9	226,(7, 18),6	232,(7, 25),3	286,(7, 61),18	304,(8, 47),3	307,(8, 68),18	325,(8, 90),3	328,(1, 18),3	331,(9, 18),18	349,(8, 97),3	352,(9, 25),3	355,(3, 68),24	379,(9, 68),3	382,(9, 75),3	385,(9, 97),3	391,(3, 83),39	430,(4, 61),27	457,(4, 75),42	499,(4, 83),39	538,(5, 90),33	571,(8, 114),9	580,(9, 54),27	607,(9, 90),9	631,(5, 97),21	652,(7, 54),39	691,(9, 39),63	754,(10, 83),6	769,(2, 75),555	1324,(8, 18),99	1423,(10, 47),18	1441,(10, 97),12	1459,(12, 25),24	1483,(12, 61),3	1486,(1, 114),60	1669,(11, 25),15	1684,(7, 39),195	1894,(12, 39),15	1909,(12, 47),9	1918,(12, 54),39	1957,(12, 68),6	2107,(12, 97),27	2203,(11, 68),12	2893,(11, 97),3	2920,(11, 106),3	
91,(0, 5),30	131,(4, 105),6	142,(2, 46),6	148,(4, 17),18	166,(2, 60),12	202,(6, 53),6	211,(6, 96),18	235,(6, 113),3	238,(7, 23),24	262,(7, 53),3	265,(7, 67),3	268,(8, 17),21	292,(8, 46),6	298,(8, 89),3	301,(9, 82),3	304,(7, 74),6	310,(9, 53),12	322,(1, 17),6	328,(8, 38),21	382,(10, 46),3	385,(10, 82),9	394,(8, 60),15	409,(10, 89),3	415,(7, 89),9	424,(8, 82),15	451,(1, 46),3	454,(9, 74),27	562,(1, 67),510	1072,(4, 23),282	1366,(1, 96),45	1411,(2, 105),48	1468,(1, 113),18	1486,(2, 89),72	1558,(4, 113),45	1603,(10, 60),153	1756,(10, 74),54	1810,(10, 96),60	1870,(12, 23),24	1963,(11, 38),15	1978,(12, 74),12	2017,(11, 60),66	2104,(12, 89),3	2158,(12, 105),3	2248,(11, 74),3	2875,(11, 82),3	2887,(11, 96),6	3631,(12, 60),132	
61,(0, 4),30	91,(2, 45),51	148,(2, 111),3	151,(3, 16),15	179,(5, 45),3	208,(6, 88),3	220,(2, 66),9	229,(5, 59),30	259,(5, 111),6	265,(6, 103),3	268,(7, 22),18	286,(9, 16),3	289,(8, 45),3	292,(9, 80),3	313,(2, 59),39	352,(7, 66),33	385,(2, 119),3	388,(6, 36),39	427,(7, 80),9	442,(1, 45),9	451,(10, 22),15	466,(8, 103),9	475,(8, 119),9	493,(10, 45),30	556,(1, 66),6	562,(3, 103),36	598,(10, 59),18	616,(10, 73),36	652,(10, 95),15	1207,(1, 80),39	1345,(12, 22),12	1405,(12, 73),3	1828,(12, 52),39	1867,(12, 95),3	1975,(12, 111),3	1990,(12, 80),114	2143,(12, 103),15	2167,(12, 119),12	2239,(11, 73),9	2494,(11, 80),3	2881,(11, 88),3	2899,(11, 103),21	2932,(11, 119),15	
31,(0, 3),30	65,(2, 14),12	212,(7, 19),6	218,(7, 41),3	221,(7, 120),3	229,(6, 112),6	289,(9, 19),3	301,(1, 14),21	331,(1, 19),24	355,(8, 19),24	379,(53, 121),9	388,(17, 121),9	397,(15, 121),9	412,(31, 121),9	427,(6, 41),129	556,(7, 37),42	598,(21, 121),9	616,(26, 121),9	631,(20, 121),9	655,(6, 120),51	706,(28, 121),9	715,(46, 121),9	724,(90, 121),9	733,(42, 121),9	742,(56, 121),9	754,(33, 121),9	769,(16, 121),9	778,(36, 121),9	787,(45, 121),9	796,(94, 121),9	805,(44, 121),9	814,(63, 121),9	844,(66, 121),9	853,(59, 121),9	866,(24, 121),9	883,(9, 104),30	913,(10, 41),225	1138,(71, 121),9	1147,(83, 121),9	1156,(86, 121),9	1165,(62, 121),9	1174,(100, 121),9	1183,(55, 121),9	1192,(110, 121),9	1201,(67, 121),9	1235,(79, 121),9	1246,(49, 121),9	1285,(69, 121),9	1294,(57, 121),9	1303,(84, 121),9	1324,(12, 19),21	1352,(75, 121),9	1382,(91, 121),9	1391,(22, 121),9	1400,(93, 121),9	1410,(40, 121),9	1422,(29, 121),9	1439,(85, 121),9	1450,(50, 121),9	1459,(18, 121),9	1468,(102, 121),9	1493,(108, 121),9	1514,(61, 121),9	1574,(114, 121),9	1631,(113, 121),9	1660,(11, 19),9	1669,(8, 120),300	1969,(25, 121),9	1978,(30, 121),9	1987,(109, 121),9	1996,(51, 121),9	2005,(52, 121),9	2014,(23, 121),9	2023,(95, 121),9	2032,(39, 121),9	2041,(47, 121),9	2050,(35, 121),9	2059,(54, 121),9	2068,(38, 121),9	2077,(111, 121),9	2086,(43, 121),9	2095,(72, 121),9	2104,(48, 121),9	2113,(58, 121),9	2135,(89, 121),9	2179,(32, 121),9	2188,(34, 121),9	2197,(99, 121),9	2206,(64, 121),9	2215,(105, 121),9	2224,(107, 121),9	2243,(68, 121),9	2267,(70, 121),9	2276,(73, 121),9	2285,(74, 121),9	2294,(76, 121),9	2450,(77, 121),9	2522,(78, 121),9	2531,(80, 121),9	2906,(82, 121),9	2923,(11, 112),3	2926,(88, 121),9	2935,(92, 121),9	2947,(13, 121),9	2956,(97, 121),9	2965,(98, 121),9	2974,(96, 121),9	2983,(103, 121),9	2992,(106, 121),9	3001,(116, 121),9	3010,(119, 121),9	3292,(65, 121),9	3301,(87, 121),9	3320,(117, 121),9	3361,(12, 41),270	3631,(27, 121),9	3791,(60, 121),9	4403,(101, 121),9	4504,(81, 121),9	4514,(115, 121),9	4532,(118, 121),9	
1,(0, 2),30	119,(4, 15),12	166,(3, 34),21	187,(5, 15),9	196,(6, 15),6	242,(8, 15),18	260,(8, 32),6	271,(0, 12),30	373,(1, 32),3	379,(10, 34),3	409,(1, 34),3	1246,(1, 81),3	1687,(11, 32),3	1690,(11, 34),243	2497,(11, 81),378	
59,(2, 13),6	149,(5, 13),30	209,(7, 13),3	239,(8, 13),3	310,(7, 101),6	388,(12, 13),9	439,(8, 101),27	850,(9, 101),33	2833,(12, 27),528	3763,(12, 101),612	
# Outgoing
376,(10, 20),3	379,(10, 34),3	382,(10, 46),3	385,(10, 82),9	409,(10, 89),3	412,(31, 121),9	430,(10, 58),9	451,(10, 22),15	484,(10, 29),6	490,(10, 33),3	493,(10, 45),30	526,(10, 100),3	532,(10, 30),9	541,(10, 42),6	598,(10, 59),18	616,(10, 73),36	652,(10, 95),15	706,(28, 121),9	754,(10, 83),6	799,(10, 24),39	850,(10, 49),60	913,(10, 41),225	1138,(10, 118),18	1165,(62, 121),9	1183,(55, 121),9	1204,(10, 57),45	1249,(10, 93),12	1261,(10, 117),24	1285,(69, 121),9	1303,(84, 121),9	1382,(91, 121),9	1410,(40, 121),9	1423,(10, 47),18	1441,(10, 97),12	1603,(10, 60),153	1756,(10, 74),54	1810,(10, 96),60	2104,(48, 121),9	2224,(107, 121),9	2294,(76, 121),9	2965,(98, 121),9	4514,(115, 121),9	
286,(9, 16),3	289,(9, 19),3	292,(9, 80),3	301,(9, 82),3	310,(9, 53),12	322,(9, 40),3	325,(9, 48),3	328,(9, 91),3	331,(9, 18),18	349,(9, 107),3	352,(9, 25),3	364,(9, 84),6	373,(9, 24),3	379,(9, 68),3	382,(9, 75),3	385,(9, 97),3	394,(9, 51),15	454,(9, 74),27	508,(9, 49),18	544,(9, 35),27	580,(9, 54),27	607,(9, 90),9	616,(26, 121),9	631,(9, 42),39	670,(9, 56),15	691,(9, 39),63	754,(33, 121),9	769,(9, 79),30	799,(9, 85),51	850,(9, 101),33	883,(9, 104),30	916,(9, 110),138	1138,(71, 121),9	1156,(86, 121),9	1174,(100, 121),9	1294,(57, 121),9	1400,(93, 121),9	1422,(29, 121),9	1450,(50, 121),9	1987,(109, 121),9	2086,(43, 121),9	2206,(64, 121),9	2522,(78, 121),9	3320,(117, 121),9	
239,(8, 13),3	242,(8, 15),18	260,(8, 32),6	268,(8, 17),21	289,(8, 45),3	292,(8, 46),6	298,(8, 89),3	304,(8, 47),3	307,(8, 68),18	325,(8, 90),3	328,(8, 38),21	349,(8, 97),3	355,(8, 19),24	379,(8, 24),15	394,(8, 60),15	409,(8, 87),3	415,(8, 107),3	424,(8, 82),15	439,(8, 101),27	466,(8, 103),9	475,(8, 119),9	532,(8, 102),9	541,(8, 110),3	571,(8, 114),9	598,(21, 121),9	733,(42, 121),9	742,(56, 121),9	814,(63, 121),9	946,(8, 50),21	967,(8, 78),12	979,(8, 100),42	1027,(8, 69),27	1105,(8, 91),141	1246,(49, 121),9	1324,(8, 18),99	1439,(85, 121),9	1493,(108, 121),9	1669,(8, 120),300	1978,(30, 121),9	2197,(99, 121),9	2267,(70, 121),9	2450,(77, 121),9	2935,(92, 121),9	3001,(116, 121),9	
209,(7, 13),3	212,(7, 19),6	218,(7, 41),3	221,(7, 120),3	226,(7, 18),6	232,(7, 25),3	238,(7, 23),24	262,(7, 53),3	265,(7, 67),3	268,(7, 22),18	286,(7, 61),18	304,(7, 74),6	310,(7, 101),6	316,(7, 31),6	334,(7, 62),12	352,(7, 66),33	391,(7, 28),24	415,(7, 89),9	427,(7, 80),9	448,(7, 26),3	451,(7, 29),6	457,(7, 33),24	481,(7, 109),3	493,(7, 21),9	502,(7, 77),6	556,(7, 37),42	604,(7, 99),27	631,(20, 121),9	652,(7, 54),39	691,(7, 63),84	796,(94, 121),9	805,(44, 121),9	866,(24, 121),9	877,(7, 50),39	925,(7, 86),21	949,(7, 40),57	1006,(7, 55),21	1192,(110, 121),9	1235,(79, 121),9	1468,(102, 121),9	1684,(7, 39),195	1996,(51, 121),9	2050,(35, 121),9	2095,(72, 121),9	2113,(58, 121),9	2494,(7, 117),798	3292,(65, 121),9	3301,(87, 121),9	4532,(118, 121),9	
196,(6, 15),6	202,(6, 53),6	208,(6, 88),3	211,(6, 96),18	229,(6, 112),6	235,(6, 113),3	265,(6, 103),3	277,(6, 28),9	286,(6, 48),3	313,(6, 76),3	316,(6, 58),12	352,(6, 57),12	370,(6, 102),3	388,(6, 36),39	427,(6, 41),129	556,(6, 42),6	562,(6, 56),30	592,(6, 63),12	631,(6, 65),24	655,(6, 120),51	724,(90, 121),9	769,(6, 64),108	877,(6, 79),39	916,(6, 109),6	922,(6, 117),3	1147,(83, 121),9	1352,(75, 121),9	1459,(18, 121),9	1514,(61, 121),9	1574,(114, 121),9	1969,(25, 121),9	2032,(39, 121),9	2041,(47, 121),9	2059,(54, 121),9	2243,(68, 121),9	2956,(97, 121),9	2992,(106, 121),9	
149,(5, 13),30	179,(5, 45),3	187,(5, 15),9	199,(5, 47),18	217,(5, 54),9	229,(5, 59),30	259,(5, 111),6	271,(5, 28),3	274,(5, 69),3	289,(5, 20),9	298,(5, 24),12	310,(5, 65),3	313,(5, 110),3	328,(5, 56),3	331,(5, 29),6	337,(5, 43),9	346,(5, 64),3	349,(5, 109),3	373,(5, 85),3	379,(53, 121),9	388,(17, 121),9	418,(5, 92),3	421,(5, 99),30	451,(5, 116),3	538,(5, 90),33	571,(5, 94),60	631,(5, 97),21	715,(46, 121),9	844,(5, 55),72	916,(5, 62),33	1201,(67, 121),9	1631,(113, 121),9	2014,(23, 121),9	2068,(38, 121),9	2135,(89, 121),9	2215,(105, 121),9	2285,(74, 121),9	2906,(82, 121),9	2974,(96, 121),9	3791,(60, 121),9	
119,(4, 15),12	131,(4, 105),6	148,(4, 17),18	220,(4, 30),3	223,(4, 92),3	226,(4, 116),3	238,(4, 24),21	259,(4, 35),30	289,(4, 40),15	304,(4, 91),6	310,(4, 21),18	328,(4, 44),27	355,(4, 42),9	364,(4, 56),9	373,(4, 57),3	376,(4, 70),42	421,(4, 118),9	430,(4, 61),27	457,(4, 75),42	499,(4, 83),39	562,(4, 64),72	634,(4, 71),126	760,(4, 100),3	763,(4, 109),6	769,(16, 121),9	778,(36, 121),9	787,(45, 121),9	802,(4, 69),42	844,(66, 121),9	853,(59, 121),9	1072,(4, 23),282	1391,(22, 121),9	1558,(4, 113),45	2005,(52, 121),9	2023,(95, 121),9	2077,(111, 121),9	2276,(73, 121),9	2531,(80, 121),9	2926,(88, 121),9	2983,(103, 121),9	3010,(119, 121),9	
151,(3, 16),15	166,(3, 34),21	187,(3, 39),3	190,(3, 114),9	211,(3, 35),12	223,(3, 44),3	226,(3, 65),3	229,(3, 108),3	232,(3, 79),3	235,(3, 102),3	241,(3, 21),69	310,(3, 28),3	313,(3, 26),18	331,(3, 31),3	334,(3, 49),21	355,(3, 68),24	385,(3, 76),6	391,(3, 83),39	442,(3, 71),3	445,(3, 86),3	448,(3, 87),84	556,(3, 93),6	562,(3, 103),36	655,(3, 84),147	
59,(2, 13),6	65,(2, 14),12	91,(2, 45),51	142,(2, 46),6	148,(2, 111),3	151,(2, 54),15	166,(2, 60),12	178,(2, 68),3	181,(2, 20),30	211,(2, 30),6	217,(2, 56),3	220,(2, 66),9	229,(2, 72),3	232,(2, 116),9	241,(2, 29),15	256,(2, 33),48	304,(2, 43),3	307,(2, 50),6	313,(2, 59),39	352,(2, 84),12	364,(2, 100),9	373,(2, 98),12	385,(2, 119),3	388,(12, 13),9	397,(15, 121),9	409,(2, 71),27	436,(2, 69),57	493,(2, 93),33	526,(2, 40),129	655,(2, 44),114	769,(2, 75),555	1324,(12, 19),21	1345,(12, 22),12	1357,(12, 40),3	1360,(12, 58),6	1366,(12, 29),3	1369,(12, 30),30	1399,(12, 50),3	1402,(12, 70),3	1405,(12, 73),3	1408,(12, 85),3	1411,(2, 105),48	1459,(12, 25),24	1483,(12, 61),3	1486,(2, 89),72	1558,(2, 109),186	1744,(2, 117),54	1798,(12, 51),30	1828,(12, 52),39	1867,(12, 95),3	1870,(12, 23),24	1894,(12, 39),15	1909,(12, 47),9	1918,(12, 54),39	1957,(12, 68),6	1963,(12, 72),12	1975,(12, 111),3	1978,(12, 74),12	1990,(12, 80),114	2104,(12, 89),3	2107,(12, 97),27	2134,(12, 99),9	2143,(12, 103),15	2158,(12, 105),3	2161,(12, 107),6	2167,(12, 119),12	2179,(32, 121),9	2188,(34, 121),9	2203,(2, 65),630	2833,(12, 27),528	3361,(12, 41),270	3631,(12, 60),132	3763,(12, 101),612	4375,(12, 115),111	4486,(12, 118),18	4504,(81, 121),9	
1,(0, 2),30	31,(0, 3),30	61,(0, 4),30	91,(0, 5),30	121,(0, 6),30	151,(0, 7),30	181,(0, 8),30	211,(0, 9),30	241,(0, 10),30	271,(0, 12),30	301,(1, 14),21	322,(1, 17),6	328,(1, 18),3	331,(1, 19),24	355,(1, 20),15	370,(1, 28),3	373,(1, 32),3	376,(1, 33),33	409,(1, 34),3	412,(1, 35),9	421,(1, 40),15	436,(1, 43),6	442,(1, 45),9	451,(1, 46),3	454,(1, 49),36	490,(1, 56),3	493,(1, 62),33	526,(1, 63),6	532,(1, 64),24	556,(1, 66),6	562,(1, 67),510	1072,(1, 76),33	1105,(1, 78),99	1204,(1, 79),3	1207,(1, 80),39	1246,(1, 81),3	1249,(1, 84),3	1252,(1, 91),102	1354,(1, 93),12	1366,(1, 96),45	1411,(1, 98),3	1414,(1, 102),12	1426,(1, 108),39	1465,(1, 109),3	1468,(1, 113),18	1486,(1, 114),60	1546,(1, 116),45	1591,(1, 118),69	1660,(11, 19),9	1669,(11, 25),15	1684,(11, 30),3	1687,(11, 32),3	1690,(11, 34),243	1933,(11, 35),30	1963,(11, 38),15	1978,(11, 43),3	1981,(11, 48),24	2005,(11, 58),12	2017,(11, 60),66	2083,(11, 64),66	2149,(11, 65),54	2203,(11, 68),12	2215,(11, 70),24	2239,(11, 73),9	2248,(11, 74),3	2251,(11, 76),12	2263,(11, 77),159	2422,(11, 78),72	2494,(11, 80),3	2497,(11, 81),378	2875,(11, 82),3	2878,(11, 87),3	2881,(11, 88),3	2884,(11, 92),3	2887,(11, 96),6	2893,(11, 97),3	2896,(11, 98),3	2899,(11, 103),21	2920,(11, 106),3	2923,(11, 112),3	2926,(11, 115),3	2929,(11, 116),3	2932,(11, 119),15	2947,(13, 121),9	3631,(27, 121),9	4403,(101, 121),9	
