2690
# CPU
65,3,6	71,27,6	77,39,6	83,54,6	89,108,6	95,66,6	101,51,6	129,6,6	135,18,6	141,69,6	147,93,6	193,9,6	199,48,6	205,114,6	223,57,6	257,12,6	263,36,6	269,102,6	275,30,6	281,90,6	287,99,6	351,78,6	357,111,6	423,117,6	453,120,6	473,21,6	501,63,6	507,75,6	533,96,6	539,105,6	557,15,6	571,60,6	577,81,6	583,87,6	595,24,6	607,33,6	625,45,6	631,72,6	637,84,6	913,42,6	
33,2,6	39,17,6	45,74,6	51,98,6	57,77,6	97,5,6	103,32,6	109,92,6	161,8,6	167,53,6	173,59,6	179,113,6	191,116,6	197,50,6	225,11,6	231,20,6	237,44,6	243,47,6	249,80,6	255,65,6	287,26,6	293,68,6	451,119,6	497,23,6	503,38,6	537,104,6	551,107,6	573,56,6	593,110,6	603,29,6	611,41,6	643,86,6	649,95,6	857,35,6	879,62,6	953,89,6	981,101,6	1023,14,6	1053,71,6	1063,83,6	
0,0,1	1,10,6	7,1,6	13,4,6	19,7,6	25,70,6	31,67,6	37,79,6	43,91,6	49,76,6	55,52,6	61,103,6	67,13,6	81,82,6	89,115,6	137,22,6	155,25,6	161,46,6	167,94,6	249,43,6	323,118,6	457,19,6	529,31,6	537,109,6	543,61,6	549,88,6	571,100,6	577,16,6	641,55,6	647,85,6	653,112,6	975,28,6	981,49,6	987,58,6	1145,37,6	1233,64,6	1333,97,6	1451,34,6	1779,40,6	1801,73,6	1809,106,6	2689,121,1	
# Incoming
33,(0, 3),32	65,(2, 27),6	71,(2, 36),2	73,(2, 51),6	89,(2, 120),2	97,(0, 6),32	129,(2, 117),30	161,(0, 9),32	219,(5, 57),4	225,(0, 12),32	257,(5, 105),24	281,(8, 75),8	289,(11, 84),36	325,(10, 78),26	351,(10, 111),4	355,(10, 117),68	451,(10, 120),2	453,(1, 21),20	491,(1, 45),8	499,(1, 63),2	501,(1, 75),2	531,(1, 96),2	537,(1, 105),2	551,(4, 15),6	557,(4, 60),14	571,(4, 81),2	573,(4, 87),2	593,(7, 24),2	603,(7, 33),4	611,(7, 45),14	625,(7, 72),2	627,(7, 84),4	631,(5, 42),282	
1,(0, 2),32	65,(0, 5),32	129,(0, 8),32	161,(3, 53),4	165,(3, 107),6	171,(3, 113),2	173,(3, 116),18	191,(6, 50),2	193,(0, 11),32	257,(10, 26),30	287,(10, 68),6	293,(10, 71),32	423,(10, 119),28	451,(6, 23),8	473,(1, 29),18	491,(9, 23),6	497,(9, 29),2	499,(9, 38),2	503,(1, 83),8	511,(1, 89),20	533,(1, 104),4	539,(1, 107),12	551,(6, 56),22	575,(4, 110),18	595,(7, 29),8	607,(7, 41),4	631,(7, 86),12	643,(7, 95),4	647,(6, 35),210	857,(6, 62),22	879,(6, 89),74	953,(6, 101),28	1001,(9, 14),22	1023,(12, 71),30	1053,(12, 83),10	
79,(2, 82),2	81,(2, 115),8	91,(17, 121),20	111,(3, 19),24	135,(3, 22),2	137,(3, 25),18	155,(3, 46),2	157,(3, 94),2	159,(74, 121),20	179,(98, 121),20	199,(77, 121),20	219,(3, 43),30	249,(3, 118),74	323,(27, 121),20	343,(39, 121),20	363,(54, 121),20	383,(108, 121),20	403,(66, 121),20	423,(5, 19),34	457,(5, 37),2	459,(51, 121),20	479,(32, 121),20	499,(92, 121),20	519,(6, 31),10	529,(6, 85),6	535,(6, 109),2	537,(8, 61),4	541,(8, 88),4	545,(8, 100),26	571,(11, 16),2	573,(6, 112),18	591,(18, 121),20	611,(69, 121),20	631,(9, 55),10	641,(12, 85),2	643,(12, 112),2	913,(53, 121),20	933,(59, 121),20	953,(113, 121),20	973,(11, 28),2	975,(11, 49),2	977,(11, 58),4	981,(93, 121),20	1001,(8, 37),144	1145,(116, 121),20	1165,(9, 64),68	1233,(50, 121),20	1253,(48, 121),20	1273,(114, 121),20	1293,(57, 121),20	1313,(11, 34),10	1323,(11, 97),10	1333,(20, 121),20	1353,(44, 121),20	1373,(47, 121),20	1393,(80, 121),20	1413,(65, 121),20	1433,(12, 34),18	1451,(12, 40),328	1779,(12, 73),22	1801,(12, 106),8	1809,(36, 121),20	1829,(102, 121),20	1849,(30, 121),20	1869,(90, 121),20	1889,(99, 121),20	1909,(26, 121),20	1929,(68, 121),20	1949,(78, 121),20	1969,(111, 121),20	1989,(117, 121),20	2009,(119, 121),20	2029,(120, 121),20	2049,(21, 121),20	2069,(23, 121),20	2089,(63, 121),20	2109,(38, 121),20	2129,(75, 121),20	2149,(96, 121),20	2169,(104, 121),20	2189,(105, 121),20	2209,(107, 121),20	2229,(15, 121),20	2249,(60, 121),20	2269,(56, 121),20	2289,(81, 121),20	2309,(87, 121),20	2329,(110, 121),20	2349,(24, 121),20	2369,(29, 121),20	2389,(33, 121),20	2409,(41, 121),20	2429,(45, 121),20	2449,(72, 121),20	2469,(84, 121),20	2489,(86, 121),20	2509,(95, 121),20	2529,(35, 121),20	2549,(62, 121),20	2569,(42, 121),20	2589,(89, 121),20	2609,(101, 121),20	2629,(14, 121),20	2649,(71, 121),20	2669,(83, 121),20	
# Outgoing
111,(3, 19),24	135,(3, 22),2	137,(3, 25),18	155,(3, 46),2	157,(3, 94),2	161,(3, 53),4	165,(3, 107),6	171,(3, 113),2	173,(3, 116),18	191,(6, 50),2	219,(3, 43),30	249,(3, 118),74	323,(27, 121),20	343,(39, 121),20	363,(54, 121),20	383,(108, 121),20	403,(66, 121),20	451,(6, 23),8	459,(51, 121),20	491,(9, 23),6	497,(9, 29),2	499,(9, 38),2	519,(6, 31),10	529,(6, 85),6	535,(6, 109),2	551,(6, 56),22	573,(6, 112),18	591,(18, 121),20	611,(69, 121),20	631,(9, 55),10	641,(12, 85),2	643,(12, 112),2	647,(6, 35),210	857,(6, 62),22	879,(6, 89),74	953,(6, 101),28	981,(93, 121),20	1001,(9, 14),22	1023,(12, 71),30	1053,(12, 83),10	1165,(9, 64),68	1253,(48, 121),20	1273,(114, 121),20	1293,(57, 121),20	1433,(12, 34),18	1451,(12, 40),328	1779,(12, 73),22	1801,(12, 106),8	1809,(36, 121),20	1829,(102, 121),20	1849,(30, 121),20	1869,(90, 121),20	1889,(99, 121),20	1949,(78, 121),20	1969,(111, 121),20	1989,(117, 121),20	2029,(120, 121),20	2049,(21, 121),20	2089,(63, 121),20	2129,(75, 121),20	2149,(96, 121),20	2189,(105, 121),20	2229,(15, 121),20	2249,(60, 121),20	2289,(81, 121),20	2309,(87, 121),20	2349,(24, 121),20	2389,(33, 121),20	2429,(45, 121),20	2449,(72, 121),20	2469,(84, 121),20	2569,(42, 121),20	
65,(2, 27),6	71,(2, 36),2	73,(2, 51),6	79,(2, 82),2	81,(2, 115),8	89,(2, 120),2	91,(17, 121),20	129,(2, 117),30	159,(74, 121),20	179,(98, 121),20	199,(77, 121),20	219,(5, 57),4	257,(5, 105),24	281,(8, 75),8	289,(11, 84),36	423,(5, 19),34	457,(5, 37),2	479,(32, 121),20	499,(92, 121),20	537,(8, 61),4	541,(8, 88),4	545,(8, 100),26	571,(11, 16),2	631,(5, 42),282	913,(53, 121),20	933,(59, 121),20	953,(113, 121),20	973,(11, 28),2	975,(11, 49),2	977,(11, 58),4	1001,(8, 37),144	1145,(116, 121),20	1233,(50, 121),20	1313,(11, 34),10	1323,(11, 97),10	1333,(20, 121),20	1353,(44, 121),20	1373,(47, 121),20	1393,(80, 121),20	1413,(65, 121),20	1909,(26, 121),20	1929,(68, 121),20	2009,(119, 121),20	2069,(23, 121),20	2109,(38, 121),20	2169,(104, 121),20	2209,(107, 121),20	2269,(56, 121),20	2329,(110, 121),20	2369,(29, 121),20	2409,(41, 121),20	2489,(86, 121),20	2509,(95, 121),20	2529,(35, 121),20	2549,(62, 121),20	2589,(89, 121),20	2609,(101, 121),20	2629,(14, 121),20	2649,(71, 121),20	2669,(83, 121),20	
1,(0, 2),32	33,(0, 3),32	65,(0, 5),32	97,(0, 6),32	129,(0, 8),32	161,(0, 9),32	193,(0, 11),32	225,(0, 12),32	257,(10, 26),30	287,(10, 68),6	293,(10, 71),32	325,(10, 78),26	351,(10, 111),4	355,(10, 117),68	423,(10, 119),28	451,(10, 120),2	453,(1, 21),20	473,(1, 29),18	491,(1, 45),8	499,(1, 63),2	501,(1, 75),2	503,(1, 83),8	511,(1, 89),20	531,(1, 96),2	533,(1, 104),4	537,(1, 105),2	539,(1, 107),12	551,(4, 15),6	557,(4, 60),14	571,(4, 81),2	573,(4, 87),2	575,(4, 110),18	593,(7, 24),2	595,(7, 29),8	603,(7, 33),4	607,(7, 41),4	611,(7, 45),14	625,(7, 72),2	627,(7, 84),4	631,(7, 86),12	643,(7, 95),4	
