205
# CPU
5,2,1	6,6,1	7,32,1	8,40,1	9,10,1	10,20,1	11,22,1	12,12,1	13,4,1	14,8,1	15,16,1	16,26,1	17,38,1	18,28,1	19,34,1	20,30,1	21,14,1	25,18,1	27,24,1	29,36,1	
0,0,1	1,1,1	2,3,1	3,11,1	4,23,1	5,5,1	6,17,1	7,19,1	8,33,1	9,13,1	10,27,1	11,7,1	12,21,1	22,29,1	24,35,1	46,39,1	84,9,1	94,15,1	108,25,1	150,31,1	160,37,1	204,41,1	
# Incoming
1,(0, 2),4	5,(0, 4),4	9,(1, 8),2	11,(1, 14),10	21,(1, 18),4	25,(3, 24),2	27,(3, 36),2	
6,(2, 29),16	22,(2, 35),2	24,(2, 39),22	46,(6, 41),4	50,(32, 41),4	54,(40, 41),4	58,(10, 41),4	62,(20, 41),4	66,(22, 41),4	70,(12, 41),4	74,(4, 9),10	84,(4, 15),10	94,(4, 25),14	108,(4, 31),42	150,(4, 37),10	160,(8, 41),4	164,(16, 41),4	168,(26, 41),4	172,(38, 41),4	176,(28, 41),4	180,(34, 41),4	184,(30, 41),4	188,(14, 41),4	192,(18, 41),4	196,(24, 41),4	200,(36, 41),4	
# Outgoing
6,(2, 29),16	22,(2, 35),2	24,(2, 39),22	46,(6, 41),4	50,(32, 41),4	54,(40, 41),4	58,(10, 41),4	62,(20, 41),4	66,(22, 41),4	70,(12, 41),4	74,(4, 9),10	84,(4, 15),10	94,(4, 25),14	108,(4, 31),42	150,(4, 37),10	160,(8, 41),4	164,(16, 41),4	168,(26, 41),4	172,(38, 41),4	176,(28, 41),4	180,(34, 41),4	184,(30, 41),4	188,(14, 41),4	192,(18, 41),4	196,(24, 41),4	200,(36, 41),4	
1,(0, 2),4	5,(0, 4),4	9,(1, 8),2	11,(1, 14),10	21,(1, 18),4	25,(3, 24),2	27,(3, 36),2	
