1772
# CPU
0,81,1	1,45,22	23,80,22	45,61,22	67,9,22	89,19,22	111,43,22	133,38,22	155,12,22	177,51,22	199,46,22	221,29,22	243,64,22	265,22,22	287,36,22	309,70,22	331,63,22	353,16,22	375,55,22	397,13,22	419,23,22	441,75,22	463,57,22	485,59,22	507,67,22	529,25,22	551,26,22	573,15,22	595,69,22	617,40,22	639,27,22	661,71,22	683,79,22	705,56,22	727,42,22	749,32,22	771,34,22	793,18,22	815,21,22	837,53,22	859,62,22	881,17,22	903,20,22	925,37,22	947,47,22	969,72,22	991,52,22	1013,33,22	1035,39,22	1057,11,22	1079,14,22	1101,74,22	1123,24,22	1145,58,22	1167,49,22	1189,73,22	1211,35,22	1233,50,22	1255,54,22	1277,10,22	1299,78,22	1321,76,22	1343,77,22	1365,60,22	1387,1,22	1409,68,22	1431,48,22	1453,6,22	1475,31,22	1497,30,22	1519,3,22	1541,5,22	1563,41,22	1585,8,22	1607,7,22	1629,4,22	1771,0,1	
1117,44,22	
1489,28,22	1717,2,22	





373,66,22	
745,65,22	
# Incoming
395,(66, 8),2	397,(66, 4),6	767,(65, 4),16	1511,(28, 8),2	1513,(28, 7),22	1739,(2, 0),32	
745,(81, 44),372	
1117,(81, 28),372	1489,(61, 2),2	1491,(19, 2),2	1493,(46, 2),2	1495,(22, 2),2	1497,(13, 2),2	1499,(23, 2),2	1501,(25, 2),2	1503,(26, 2),10	1513,(40, 2),12	1525,(32, 2),6	1531,(11, 2),2	1533,(44, 2),46	1579,(68, 2),134	1713,(48, 2),4	





1,(81, 66),372	
373,(81, 65),372	
# Outgoing
1,(81, 66),372	373,(81, 65),372	745,(81, 44),372	1117,(81, 28),372	1489,(61, 2),2	1491,(19, 2),2	1493,(46, 2),2	1495,(22, 2),2	1497,(13, 2),2	1499,(23, 2),2	1501,(25, 2),2	1503,(26, 2),10	1513,(40, 2),12	1525,(32, 2),6	1531,(11, 2),2	1579,(68, 2),134	1713,(48, 2),4	
1533,(44, 2),46	
1511,(28, 8),2	1513,(28, 7),22	1739,(2, 0),32	





395,(66, 8),2	397,(66, 4),6	
767,(65, 4),16	
