1944
# CPU
0,81,1	1,22,23	24,33,23	47,38,23	70,55,23	93,60,23	116,9,23	139,66,23	162,35,23	185,76,23	208,13,23	231,54,23	254,26,23	277,42,23	300,80,23	323,37,23	346,40,23	369,58,23	392,78,23	415,73,23	438,19,23	461,10,23	484,71,23	507,59,23	530,32,23	553,69,23	576,61,23	599,16,23	622,65,23	645,68,23	668,34,23	691,39,23	714,79,23	737,70,23	760,23,23	783,12,23	806,67,23	829,77,23	852,21,23	875,63,23	898,45,23	921,56,23	944,53,23	967,44,23	990,46,23	1013,28,23	1036,29,23	1059,75,23	1082,17,23	1105,43,23	1128,49,23	1151,24,23	1174,14,23	1197,74,23	1220,36,23	1243,30,23	1266,25,23	1289,48,23	1312,57,23	1335,18,23	1358,2,23	1381,1,23	1404,5,23	1427,6,23	1450,8,23	1473,7,23	1564,3,23	1920,4,23	1943,0,1	
301,64,23	501,50,23	601,31,23	801,52,23	1201,47,23	1301,62,23	
1101,11,23	
101,15,23	201,72,23	401,20,23	701,27,23	901,41,23	1001,51,23	
# Incoming
324,(64, 2),2	326,(64, 6),2	328,(64, 3),8	336,(64, 4),2	524,(50, 1),16	540,(50, 5),2	542,(50, 8),10	552,(50, 4),6	624,(31, 2),2	626,(31, 8),12	638,(31, 7),18	824,(52, 5),2	826,(52, 6),30	856,(52, 8),36	892,(52, 3),4	1024,(51, 2),10	1034,(72, 1),2	1036,(27, 1),26	1062,(51, 1),2	1064,(41, 5),48	1112,(20, 6),2	1114,(20, 8),10	1124,(11, 6),8	1132,(27, 8),4	1136,(41, 8),26	1162,(51, 8),2	1164,(72, 7),6	1170,(41, 7),26	1196,(20, 3),2	1198,(41, 3),2	1200,(15, 4),2	1202,(41, 4),16	1224,(47, 6),22	1246,(51, 7),70	1324,(62, 7),28	1352,(11, 3),92	1444,(47, 3),120	1564,(11, 4),18	1582,(62, 4),338	
201,(81, 64),100	401,(81, 50),100	501,(81, 31),100	701,(81, 52),100	1101,(81, 47),100	1201,(81, 62),100	
1001,(81, 11),100	
1,(81, 15),100	101,(81, 72),100	301,(81, 20),100	601,(81, 27),100	801,(81, 41),100	901,(81, 51),100	
# Outgoing
1,(81, 15),100	101,(81, 72),100	201,(81, 64),100	301,(81, 20),100	401,(81, 50),100	501,(81, 31),100	601,(81, 27),100	701,(81, 52),100	801,(81, 41),100	901,(81, 51),100	1001,(81, 11),100	1101,(81, 47),100	1201,(81, 62),100	
324,(64, 2),2	326,(64, 6),2	328,(64, 3),8	336,(64, 4),2	524,(50, 1),16	540,(50, 5),2	542,(50, 8),10	552,(50, 4),6	624,(31, 2),2	626,(31, 8),12	638,(31, 7),18	824,(52, 5),2	826,(52, 6),30	856,(52, 8),36	892,(52, 3),4	1224,(47, 6),22	1324,(62, 7),28	1444,(47, 3),120	1582,(62, 4),338	
1124,(11, 6),8	1352,(11, 3),92	1564,(11, 4),18	
1024,(51, 2),10	1034,(72, 1),2	1036,(27, 1),26	1062,(51, 1),2	1064,(41, 5),48	1112,(20, 6),2	1114,(20, 8),10	1132,(27, 8),4	1136,(41, 8),26	1162,(51, 8),2	1164,(72, 7),6	1170,(41, 7),26	1196,(20, 3),2	1198,(41, 3),2	1200,(15, 4),2	1202,(41, 4),16	1246,(51, 7),70	
