2992
# CPU
0,201,1	1,108,1	2,112,1	3,86,1	4,174,1	5,67,1	6,52,1	7,118,1	8,125,1	9,161,1	10,159,1	11,148,1	12,149,1	13,137,1	14,184,1	15,24,1	16,198,1	17,21,1	18,65,1	19,72,1	20,53,1	21,189,1	22,41,1	23,38,1	24,115,1	25,30,1	26,50,1	27,82,1	28,84,1	29,87,1	30,45,1	31,34,1	32,107,1	33,92,1	34,142,1	35,186,1	36,177,1	37,104,1	38,195,1	39,55,1	40,120,1	41,176,1	42,166,1	43,147,1	44,103,1	45,110,1	46,135,1	47,31,1	48,170,1	49,35,1	50,99,1	51,180,1	52,28,1	53,23,1	54,152,1	55,160,1	56,93,1	57,78,1	58,97,1	59,114,1	60,128,1	61,130,1	62,102,1	63,200,1	64,175,1	65,196,1	66,96,1	67,127,1	68,75,1	69,139,1	70,183,1	71,194,1	72,185,1	73,36,1	74,83,1	75,43,1	76,124,1	77,122,1	78,192,1	79,89,1	80,151,1	81,94,1	82,37,1	83,190,1	84,80,1	85,182,1	86,71,1	87,63,1	88,76,1	89,113,1	90,69,1	91,153,1	92,66,1	93,141,1	94,70,1	95,56,1	96,156,1	97,117,1	98,187,1	99,167,1	100,126,1	101,172,1	102,54,1	103,22,1	104,98,1	105,155,1	106,109,1	107,27,1	108,134,1	109,42,1	110,58,1	111,169,1	112,39,1	113,140,1	114,178,1	115,68,1	116,91,1	117,150,1	118,199,1	119,129,1	120,62,1	121,26,1	122,121,1	123,100,1	124,133,1	125,29,1	126,25,1	127,181,1	128,165,1	129,138,1	130,46,1	131,143,1	132,88,1	133,119,1	134,95,1	135,154,1	136,47,1	137,106,1	138,145,1	139,162,1	140,40,1	141,59,1	142,164,1	143,73,1	144,60,1	145,157,1	146,77,1	147,179,1	148,168,1	149,193,1	150,85,1	151,136,1	152,131,1	153,51,1	154,123,1	155,6,1	156,61,1	157,7,1	158,5,1	159,10,1	170,19,1	218,18,1	270,8,1	326,16,1	380,20,1	458,14,1	548,1,1	642,17,1	742,11,1	862,2,1	1000,12,1	1146,9,1	1340,3,1	1586,15,1	2240,13,1	2990,4,1	2991,0,1	
7,191,1	25,49,1	31,146,1	55,44,1	97,81,1	115,144,1	127,64,1	151,57,1	
103,116,1	133,74,1	
61,188,1	
13,111,1	19,132,1	37,171,1	43,173,1	49,163,1	67,101,1	73,79,1	79,158,1	85,32,1	91,33,1	109,105,1	121,48,1	139,90,1	145,197,1	
# Incoming
68,(101, 7),6	74,(191, 5),2	76,(79, 5),2	78,(101, 10),2	80,(158, 19),2	82,(111, 8),2	84,(158, 1),2	86,(32, 5),2	88,(44, 10),12	100,(146, 20),4	104,(116, 10),8	112,(33, 19),6	118,(105, 20),4	122,(48, 5),12	134,(188, 19),22	156,(90, 19),14	170,(33, 18),46	216,(90, 18),2	218,(81, 8),52	270,(101, 16),28	298,(105, 16),28	326,(32, 20),40	366,(116, 20),8	374,(144, 20),2	376,(74, 20),4	380,(116, 14),2	382,(144, 14),76	458,(173, 1),14	472,(188, 1),10	482,(116, 1),64	546,(197, 1),2	548,(146, 17),10	558,(79, 17),32	590,(158, 17),18	608,(105, 17),20	628,(144, 17),2	630,(48, 17),12	642,(191, 11),2	644,(111, 11),2	646,(132, 11),6	652,(81, 11),10	662,(144, 11),80	742,(49, 2),10	752,(173, 2),4	756,(44, 2),20	776,(32, 2),2	778,(105, 2),72	850,(57, 2),12	862,(111, 12),4	866,(163, 12),18	884,(33, 12),20	904,(48, 12),96	1000,(79, 9),2	1002,(33, 9),2	1004,(64, 9),142	1146,(101, 3),28	1174,(158, 3),36	1210,(32, 3),14	1224,(116, 3),58	1282,(144, 3),2	1284,(64, 3),12	1296,(197, 3),44	1340,(171, 15),12	1352,(188, 15),2	1354,(116, 15),4	1358,(90, 15),228	1586,(173, 13),16	1602,(33, 13),2	1604,(74, 13),180	1784,(197, 13),456	2240,(132, 4),2	2242,(57, 4),748	
1,(201, 191),6	19,(201, 49),6	25,(201, 146),6	49,(201, 44),6	91,(201, 81),6	109,(201, 144),6	121,(201, 64),6	145,(201, 57),6	
97,(201, 116),6	127,(201, 74),6	
55,(201, 188),6	
7,(201, 111),6	13,(201, 132),6	31,(201, 171),6	37,(201, 173),6	43,(201, 163),6	61,(201, 101),6	67,(201, 79),6	73,(201, 158),6	79,(201, 32),6	85,(201, 33),6	103,(201, 105),6	115,(201, 48),6	133,(201, 90),6	139,(201, 197),6	
# Outgoing
1,(201, 191),6	7,(201, 111),6	13,(201, 132),6	19,(201, 49),6	25,(201, 146),6	31,(201, 171),6	37,(201, 173),6	43,(201, 163),6	49,(201, 44),6	55,(201, 188),6	61,(201, 101),6	67,(201, 79),6	73,(201, 158),6	79,(201, 32),6	85,(201, 33),6	91,(201, 81),6	97,(201, 116),6	103,(201, 105),6	109,(201, 144),6	115,(201, 48),6	121,(201, 64),6	127,(201, 74),6	133,(201, 90),6	139,(201, 197),6	145,(201, 57),6	
74,(191, 5),2	88,(44, 10),12	100,(146, 20),4	218,(81, 8),52	374,(144, 20),2	382,(144, 14),76	548,(146, 17),10	628,(144, 17),2	642,(191, 11),2	652,(81, 11),10	662,(144, 11),80	742,(49, 2),10	756,(44, 2),20	850,(57, 2),12	1004,(64, 9),142	1282,(144, 3),2	1284,(64, 3),12	2242,(57, 4),748	
104,(116, 10),8	366,(116, 20),8	376,(74, 20),4	380,(116, 14),2	482,(116, 1),64	1224,(116, 3),58	1354,(116, 15),4	1604,(74, 13),180	
134,(188, 19),22	472,(188, 1),10	1352,(188, 15),2	
68,(101, 7),6	76,(79, 5),2	78,(101, 10),2	80,(158, 19),2	82,(111, 8),2	84,(158, 1),2	86,(32, 5),2	112,(33, 19),6	118,(105, 20),4	122,(48, 5),12	156,(90, 19),14	170,(33, 18),46	216,(90, 18),2	270,(101, 16),28	298,(105, 16),28	326,(32, 20),40	458,(173, 1),14	546,(197, 1),2	558,(79, 17),32	590,(158, 17),18	608,(105, 17),20	630,(48, 17),12	644,(111, 11),2	646,(132, 11),6	752,(173, 2),4	776,(32, 2),2	778,(105, 2),72	862,(111, 12),4	866,(163, 12),18	884,(33, 12),20	904,(48, 12),96	1000,(79, 9),2	1002,(33, 9),2	1146,(101, 3),28	1174,(158, 3),36	1210,(32, 3),14	1296,(197, 3),44	1340,(171, 15),12	1358,(90, 15),228	1586,(173, 13),16	1602,(33, 13),2	1784,(197, 13),456	2240,(132, 4),2	
