7135
# CPU
1120,35,4	1124,37,4	1142,41,4	1151,68,4	1155,76,4	1302,36,4	1317,44,4	1321,93,4	1325,94,4	1329,109,4	1333,117,4	1337,107,4	1353,96,4	1361,112,4	1368,79,4	1375,82,4	1403,38,4	1436,56,4	1440,57,4	1444,80,4	1497,115,4	1501,13,4	1671,89,4	1744,17,4	1767,113,4	1771,65,4	1775,42,4	1779,58,4	1792,73,4	1855,85,4	1859,87,4	1863,90,4	1867,106,4	4222,116,4	4235,70,4	4247,77,4	4255,83,4	4453,16,4	4468,28,4	4490,81,4	4510,97,4	4524,102,4	4533,104,4	4541,18,4	4615,27,4	4619,50,4	4623,62,4	4627,64,4	4631,67,4	4647,72,4	4651,91,4	4658,99,4	4668,103,4	4672,118,4	4676,21,4	4680,26,4	4687,33,4	4691,43,4	4695,51,4	4699,54,4	4733,71,4	4737,74,4	4746,108,4	4750,120,4	4760,22,4	4768,23,4	4772,24,4	4778,29,4	4782,30,4	4802,34,4	4806,39,4	4810,45,4	4814,48,4	4818,59,4	4822,69,4	4826,78,4	4830,92,4	4834,98,4	4838,119,4	7134,121,1	
0,0,1	1,3,4	5,4,4	9,2,4	13,10,4	17,11,4	21,9,4	25,84,4	29,14,4	33,111,4	37,55,4	41,47,4	45,19,4	49,61,4	53,60,4	57,88,4	61,40,4	65,100,4	69,66,4	73,105,4	77,31,4	
145,1,4	289,5,4	293,52,4	433,6,4	577,7,4	721,8,4	865,12,4	870,20,4	874,32,4	887,86,4	1152,15,4	1156,25,4	1329,46,4	1333,53,4	1361,101,4	1376,49,4	1404,75,4	1438,95,4	1497,110,4	1769,63,4	1773,114,4	
# Incoming
916,(3, 115),201	1117,(3, 116),1	1118,(3, 118),1	1119,(1, 35),1	1120,(1, 37),1	1121,(1, 41),21	1142,(1, 44),7	1149,(1, 51),1	1150,(1, 68),1	1151,(1, 76),2	1153,(4, 36),149	1302,(4, 38),5	1307,(4, 44),10	1317,(1, 93),1	1318,(1, 94),6	1324,(1, 96),1	1325,(1, 109),2	1327,(1, 117),1	1328,(5, 16),1	1329,(5, 99),1	1330,(5, 107),1	1331,(4, 58),1	1332,(4, 67),18	1350,(4, 73),1	1351,(4, 96),2	1353,(5, 17),7	1360,(5, 112),1	1361,(2, 22),2	1363,(2, 39),2	1365,(5, 79),3	1368,(5, 82),7	1375,(6, 13),1	1376,(2, 67),5	1381,(5, 38),22	1403,(6, 42),1	1404,(2, 83),15	1419,(5, 45),16	1435,(6, 56),1	1436,(6, 57),1	1437,(6, 80),1	1438,(2, 103),58	1496,(6, 115),1	1497,(10, 13),1	1498,(10, 64),1	1499,(10, 89),172	1671,(10, 98),2	1673,(10, 113),1	1674,(11, 17),70	1744,(11, 39),1	1745,(11, 59),18	1763,(5, 113),4	1767,(6, 65),3	1770,(9, 42),1	1771,(9, 58),2	1773,(9, 73),19	1792,(9, 74),10	1802,(9, 85),53	1855,(9, 87),2	1857,(9, 90),6	1863,(9, 106),3	1866,(84, 121),165	2031,(14, 121),165	2196,(111, 121),165	2361,(55, 121),165	2526,(47, 121),165	2691,(19, 121),165	2856,(61, 121),165	3021,(60, 121),165	3186,(88, 121),165	3351,(40, 121),165	3516,(100, 121),165	3681,(66, 121),165	3846,(105, 121),165	4011,(31, 121),165	4176,(1, 116),46	4222,(5, 70),13	4235,(5, 77),12	4247,(5, 83),8	4255,(52, 121),165	4420,(6, 16),33	4453,(6, 23),7	4460,(6, 28),8	4468,(6, 33),16	4484,(6, 81),6	4490,(6, 97),20	4510,(6, 102),14	4524,(6, 104),9	4533,(6, 118),6	4539,(7, 18),2	4541,(7, 23),7	4548,(7, 26),26	4574,(7, 27),41	4615,(7, 50),4	4619,(7, 62),1	4620,(7, 64),7	4627,(7, 67),1	4628,(7, 72),19	4647,(7, 91),1	4648,(7, 99),10	4658,(7, 103),10	4668,(7, 118),1	4669,(8, 21),4	4673,(8, 26),3	4676,(8, 33),11	4687,(8, 43),1	4688,(8, 51),1	4689,(8, 54),3	4692,(8, 71),41	4733,(8, 74),1	4734,(8, 92),8	4742,(8, 108),4	4746,(8, 120),1	4747,(12, 22),13	4760,(12, 23),8	4768,(12, 24),1	4769,(12, 29),9	4778,(12, 30),4	4782,(12, 34),20	4802,(12, 39),4	4806,(12, 45),1	4807,(12, 48),2	4809,(12, 59),4	4813,(12, 69),1	4814,(12, 78),1	4815,(12, 92),1	4816,(12, 98),1	4817,(12, 119),7	4824,(20, 121),165	4989,(32, 121),165	5154,(86, 121),165	5319,(15, 121),165	5484,(25, 121),165	5649,(46, 121),165	5814,(53, 121),165	5979,(101, 121),165	6144,(49, 121),165	6309,(75, 121),165	6474,(95, 121),165	6639,(110, 121),165	6804,(63, 121),165	6969,(114, 121),165	

1,(0, 1),144	145,(0, 5),144	289,(0, 6),144	433,(0, 7),144	577,(0, 8),144	721,(0, 12),144	865,(3, 20),5	870,(3, 32),1	871,(3, 86),16	887,(3, 101),29	1119,(4, 15),33	1152,(4, 25),1	1317,(4, 46),12	1329,(4, 53),2	1353,(4, 101),8	1365,(2, 49),11	1381,(2, 75),23	1419,(2, 95),19	1496,(2, 110),1	1763,(11, 63),6	1769,(11, 114),1	
# Outgoing

1,(0, 1),144	145,(0, 5),144	289,(0, 6),144	433,(0, 7),144	577,(0, 8),144	721,(0, 12),144	865,(3, 20),5	870,(3, 32),1	871,(3, 86),16	887,(3, 101),29	916,(3, 115),201	1117,(3, 116),1	1118,(3, 118),1	1119,(4, 15),33	1152,(4, 25),1	1153,(4, 36),149	1302,(4, 38),5	1307,(4, 44),10	1317,(4, 46),12	1329,(4, 53),2	1331,(4, 58),1	1332,(4, 67),18	1350,(4, 73),1	1351,(4, 96),2	1353,(4, 101),8	1361,(2, 22),2	1363,(2, 39),2	1365,(2, 49),11	1376,(2, 67),5	1381,(2, 75),23	1404,(2, 83),15	1419,(2, 95),19	1438,(2, 103),58	1496,(2, 110),1	1497,(10, 13),1	1498,(10, 64),1	1499,(10, 89),172	1671,(10, 98),2	1673,(10, 113),1	1674,(11, 17),70	1744,(11, 39),1	1745,(11, 59),18	1763,(11, 63),6	1769,(11, 114),1	1770,(9, 42),1	1771,(9, 58),2	1773,(9, 73),19	1792,(9, 74),10	1802,(9, 85),53	1855,(9, 87),2	1857,(9, 90),6	1863,(9, 106),3	1866,(84, 121),165	2031,(14, 121),165	2196,(111, 121),165	2361,(55, 121),165	2526,(47, 121),165	2691,(19, 121),165	2856,(61, 121),165	3021,(60, 121),165	3186,(88, 121),165	3351,(40, 121),165	3516,(100, 121),165	3681,(66, 121),165	3846,(105, 121),165	4011,(31, 121),165	
1119,(1, 35),1	1120,(1, 37),1	1121,(1, 41),21	1142,(1, 44),7	1149,(1, 51),1	1150,(1, 68),1	1151,(1, 76),2	1317,(1, 93),1	1318,(1, 94),6	1324,(1, 96),1	1325,(1, 109),2	1327,(1, 117),1	1328,(5, 16),1	1329,(5, 99),1	1330,(5, 107),1	1353,(5, 17),7	1360,(5, 112),1	1365,(5, 79),3	1368,(5, 82),7	1375,(6, 13),1	1381,(5, 38),22	1403,(6, 42),1	1419,(5, 45),16	1435,(6, 56),1	1436,(6, 57),1	1437,(6, 80),1	1496,(6, 115),1	1763,(5, 113),4	1767,(6, 65),3	4176,(1, 116),46	4222,(5, 70),13	4235,(5, 77),12	4247,(5, 83),8	4255,(52, 121),165	4420,(6, 16),33	4453,(6, 23),7	4460,(6, 28),8	4468,(6, 33),16	4484,(6, 81),6	4490,(6, 97),20	4510,(6, 102),14	4524,(6, 104),9	4533,(6, 118),6	4539,(7, 18),2	4541,(7, 23),7	4548,(7, 26),26	4574,(7, 27),41	4615,(7, 50),4	4619,(7, 62),1	4620,(7, 64),7	4627,(7, 67),1	4628,(7, 72),19	4647,(7, 91),1	4648,(7, 99),10	4658,(7, 103),10	4668,(7, 118),1	4669,(8, 21),4	4673,(8, 26),3	4676,(8, 33),11	4687,(8, 43),1	4688,(8, 51),1	4689,(8, 54),3	4692,(8, 71),41	4733,(8, 74),1	4734,(8, 92),8	4742,(8, 108),4	4746,(8, 120),1	4747,(12, 22),13	4760,(12, 23),8	4768,(12, 24),1	4769,(12, 29),9	4778,(12, 30),4	4782,(12, 34),20	4802,(12, 39),4	4806,(12, 45),1	4807,(12, 48),2	4809,(12, 59),4	4813,(12, 69),1	4814,(12, 78),1	4815,(12, 92),1	4816,(12, 98),1	4817,(12, 119),7	4824,(20, 121),165	4989,(32, 121),165	5154,(86, 121),165	5319,(15, 121),165	5484,(25, 121),165	5649,(46, 121),165	5814,(53, 121),165	5979,(101, 121),165	6144,(49, 121),165	6309,(75, 121),165	6474,(95, 121),165	6639,(110, 121),165	6804,(63, 121),165	6969,(114, 121),165	
