847
# CPU
0,0,1	1,3,31	32,28,31	63,13,31	94,29,31	125,62,31	156,36,31	187,11,31	218,8,31	249,73,31	280,55,31	311,41,31	342,22,31	373,1,31	404,40,31	435,53,31	466,35,31	497,34,31	528,72,31	559,66,31	590,78,31	621,76,31	652,51,31	683,69,31	714,32,31	745,68,31	776,20,31	807,52,31	
9,7,31	40,80,31	71,17,31	102,44,31	133,56,31	164,59,31	195,67,31	226,5,31	257,26,31	288,60,31	319,14,31	350,23,31	381,42,31	412,18,31	443,39,31	474,57,31	505,54,31	536,4,31	567,30,31	598,25,31	629,71,31	660,19,31	691,49,31	722,75,31	753,47,31	784,38,31	815,79,31	846,81,1	
17,2,31	48,63,31	79,77,31	110,12,31	141,10,31	172,48,31	203,6,31	234,37,31	265,45,31	296,33,31	327,16,31	358,43,31	389,15,31	420,24,31	451,58,31	482,9,31	513,61,31	544,46,31	575,31,31	606,65,31	637,50,31	668,70,31	699,27,31	730,64,31	761,21,31	792,74,31	
# Incoming
236,(6, 69),2	238,(2, 32),2	240,(2, 68),6	265,(7, 20),28	293,(2, 52),82	
1,(0, 7),8	34,(3, 67),2	36,(0, 5),8	52,(0, 4),8	86,(28, 81),4	94,(13, 81),4	125,(29, 81),4	156,(62, 81),4	187,(36, 81),4	218,(11, 81),4	234,(6, 57),2	246,(2, 38),2	251,(8, 47),4	255,(63, 81),4	259,(77, 81),4	263,(12, 81),4	267,(10, 81),4	271,(48, 81),4	275,(37, 81),4	291,(8, 38),42	333,(73, 81),4	337,(55, 81),4	342,(41, 81),4	375,(45, 81),4	379,(33, 81),4	383,(16, 81),4	387,(22, 81),4	391,(43, 81),4	408,(1, 54),4	422,(1, 75),2	424,(1, 38),52	476,(6, 79),98	574,(15, 81),4	578,(40, 81),4	582,(24, 81),4	586,(53, 81),4	590,(58, 81),4	594,(35, 81),4	598,(9, 81),4	602,(34, 81),4	606,(61, 81),4	610,(72, 81),4	614,(46, 81),4	618,(66, 81),4	622,(31, 81),4	626,(78, 81),4	637,(65, 81),4	652,(76, 81),4	668,(50, 81),4	683,(51, 81),4	699,(70, 81),4	714,(69, 81),4	730,(27, 81),4	745,(32, 81),4	761,(64, 81),4	776,(68, 81),4	792,(21, 81),4	807,(20, 81),4	823,(74, 81),4	838,(52, 81),4	
9,(0, 2),8	17,(0, 6),8	32,(3, 10),2	40,(7, 48),4	44,(3, 15),2	46,(3, 61),6	52,(7, 27),8	60,(3, 46),12	72,(3, 50),14	86,(7, 64),24	110,(3, 21),10	120,(7, 21),42	162,(3, 74),2	164,(7, 74),80	249,(8, 43),2	257,(5, 9),6	263,(5, 61),2	265,(8, 65),12	277,(8, 70),14	404,(1, 24),2	406,(1, 58),2	412,(1, 31),2	414,(1, 27),8	567,(4, 31),2	
# Outgoing
1,(0, 7),8	9,(0, 2),8	17,(0, 6),8	32,(3, 10),2	34,(3, 67),2	36,(0, 5),8	44,(3, 15),2	46,(3, 61),6	52,(0, 4),8	60,(3, 46),12	72,(3, 50),14	86,(28, 81),4	94,(13, 81),4	110,(3, 21),10	125,(29, 81),4	156,(62, 81),4	162,(3, 74),2	187,(36, 81),4	218,(11, 81),4	249,(8, 43),2	251,(8, 47),4	265,(8, 65),12	277,(8, 70),14	291,(8, 38),42	333,(73, 81),4	337,(55, 81),4	342,(41, 81),4	387,(22, 81),4	404,(1, 24),2	406,(1, 58),2	408,(1, 54),4	412,(1, 31),2	414,(1, 27),8	422,(1, 75),2	424,(1, 38),52	578,(40, 81),4	586,(53, 81),4	594,(35, 81),4	602,(34, 81),4	610,(72, 81),4	618,(66, 81),4	626,(78, 81),4	652,(76, 81),4	683,(51, 81),4	714,(69, 81),4	745,(32, 81),4	776,(68, 81),4	807,(20, 81),4	838,(52, 81),4	
40,(7, 48),4	52,(7, 27),8	86,(7, 64),24	120,(7, 21),42	164,(7, 74),80	257,(5, 9),6	263,(5, 61),2	265,(7, 20),28	567,(4, 31),2	
234,(6, 57),2	236,(6, 69),2	238,(2, 32),2	240,(2, 68),6	246,(2, 38),2	255,(63, 81),4	259,(77, 81),4	263,(12, 81),4	267,(10, 81),4	271,(48, 81),4	275,(37, 81),4	293,(2, 52),82	375,(45, 81),4	379,(33, 81),4	383,(16, 81),4	391,(43, 81),4	476,(6, 79),98	574,(15, 81),4	582,(24, 81),4	590,(58, 81),4	598,(9, 81),4	606,(61, 81),4	614,(46, 81),4	622,(31, 81),4	637,(65, 81),4	668,(50, 81),4	699,(70, 81),4	730,(27, 81),4	761,(64, 81),4	792,(21, 81),4	823,(74, 81),4	
