938
# CPU
0,81,1	1,50,13	14,18,13	27,36,13	40,38,13	53,28,13	66,70,13	79,26,13	92,13,13	105,44,13	118,71,13	131,20,13	144,11,13	157,43,13	170,65,13	183,21,13	196,24,13	209,9,13	222,56,13	235,79,13	248,51,13	261,19,13	274,46,13	287,15,13	300,72,13	313,68,13	326,33,13	339,78,13	352,63,13	365,47,13	378,54,13	391,77,13	404,66,13	417,55,13	430,80,13	443,61,13	456,53,13	469,52,13	482,27,13	495,16,13	508,32,13	521,31,13	534,60,13	547,17,13	560,39,13	573,30,13	586,37,13	599,12,13	612,49,13	625,22,13	638,75,13	651,23,13	664,73,13	677,6,13	690,4,13	703,3,13	716,1,13	729,5,13	902,2,13	
199,74,13	232,76,13	265,64,13	397,67,13	463,25,13	496,40,13	529,14,13	562,35,13	595,69,13	661,34,13	718,7,13	829,8,13	937,0,1	
34,62,13	67,59,13	166,41,13	364,10,13	

100,57,13	133,45,13	298,58,13	331,29,13	430,48,13	628,42,13	
# Incoming
212,(74, 6),6	218,(41, 4),6	224,(74, 1),3	227,(59, 5),3	230,(62, 2),3	245,(76, 2),9	278,(64, 5),12	311,(58, 4),3	344,(29, 2),18	377,(10, 3),21	410,(67, 4),3	413,(67, 2),21	443,(48, 1),30	476,(25, 5),33	641,(42, 2),261	
166,(81, 74),33	199,(81, 76),33	232,(81, 64),33	314,(57, 7),3	317,(45, 7),6	323,(58, 7),12	364,(81, 67),33	430,(81, 25),33	463,(81, 40),33	496,(81, 14),33	529,(81, 35),33	562,(81, 69),33	628,(81, 34),33	661,(79, 7),9	670,(51, 7),9	679,(33, 7),3	682,(78, 7),3	685,(53, 7),33	718,(36, 8),3	721,(28, 8),3	724,(71, 8),3	727,(20, 8),3	730,(21, 8),6	736,(9, 8),9	745,(15, 8),12	757,(33, 8),15	772,(80, 8),30	802,(75, 8),21	823,(73, 8),6	829,(6, 0),18	847,(4, 0),18	865,(3, 0),18	883,(1, 0),18	901,(5, 0),18	919,(2, 0),18	
1,(81, 62),33	34,(81, 59),33	133,(81, 41),33	331,(81, 10),33	

67,(81, 57),33	100,(81, 45),33	265,(81, 58),33	298,(81, 29),33	397,(81, 48),33	595,(81, 42),33	
# Outgoing
1,(81, 62),33	34,(81, 59),33	67,(81, 57),33	100,(81, 45),33	133,(81, 41),33	166,(81, 74),33	199,(81, 76),33	232,(81, 64),33	265,(81, 58),33	298,(81, 29),33	331,(81, 10),33	364,(81, 67),33	397,(81, 48),33	430,(81, 25),33	463,(81, 40),33	496,(81, 14),33	529,(81, 35),33	562,(81, 69),33	595,(81, 42),33	628,(81, 34),33	661,(79, 7),9	670,(51, 7),9	679,(33, 7),3	682,(78, 7),3	685,(53, 7),33	718,(36, 8),3	721,(28, 8),3	724,(71, 8),3	727,(20, 8),3	730,(21, 8),6	736,(9, 8),9	745,(15, 8),12	757,(33, 8),15	772,(80, 8),30	802,(75, 8),21	823,(73, 8),6	829,(6, 0),18	847,(4, 0),18	865,(3, 0),18	883,(1, 0),18	901,(5, 0),18	919,(2, 0),18	
212,(74, 6),6	224,(74, 1),3	245,(76, 2),9	278,(64, 5),12	410,(67, 4),3	413,(67, 2),21	476,(25, 5),33	
218,(41, 4),6	227,(59, 5),3	230,(62, 2),3	377,(10, 3),21	

311,(58, 4),3	314,(57, 7),3	317,(45, 7),6	323,(58, 7),12	344,(29, 2),18	443,(48, 1),30	641,(42, 2),261	
