28538
# CPU
529,3,23	552,9,23	1057,6,23	1080,24,23	1103,54,23	1126,60,23	1149,57,23	1361,15,23	1417,75,23	1461,33,23	2425,78,23	2793,30,23	3265,63,23	3373,12,23	3449,21,23	3501,27,23	3549,36,23	3601,39,23	3624,42,23	3647,45,23	3673,51,23	3713,66,23	3745,69,23	3768,72,23	12841,18,23	24137,48,23	
265,2,23	288,80,23	793,5,23	816,32,23	1321,8,23	1344,71,23	2429,59,23	2649,14,23	2697,29,23	2720,68,23	2743,11,23	2766,20,23	2797,23,23	2820,26,23	2843,35,23	2866,41,23	2889,44,23	2912,38,23	2997,74,23	3021,53,23	3117,56,23	3173,62,23	3445,17,23	3669,50,23	3709,65,23	3757,77,23	3997,47,23	
0,0,1	1,4,23	24,7,23	47,1,23	70,43,23	312,10,23	488,55,23	909,46,23	941,61,23	964,28,23	987,73,23	1081,40,23	1104,58,23	1189,13,23	1212,16,23	1235,64,23	1501,49,23	1524,79,23	1547,19,23	1570,37,23	2305,31,23	2353,34,23	2425,52,23	2448,76,23	2709,67,23	2769,70,23	23305,22,23	23721,25,23	28537,81,1	
# Incoming
265,(0, 3),264	529,(2, 24),124	653,(2, 39),48	701,(2, 45),92	793,(0, 6),264	1057,(2, 51),20	1077,(2, 57),44	1121,(2, 75),92	1357,(4, 15),4	1413,(5, 75),4	1417,(8, 12),32	1449,(8, 27),8	1457,(8, 33),4	1461,(8, 51),4	1465,(8, 63),8	1541,(4, 42),4	1545,(5, 18),200	1745,(5, 36),136	2081,(8, 21),88	2349,(4, 66),8	2405,(4, 78),20	2425,(7, 12),4	2697,(7, 30),96	2793,(7, 39),16	2877,(7, 51),140	3173,(7, 63),92	3305,(7, 72),12	3317,(1, 12),56	3445,(1, 21),4	3449,(1, 27),52	3501,(1, 36),48	3549,(1, 39),52	3601,(1, 42),12	3613,(1, 45),16	3629,(1, 48),8	3669,(1, 51),4	3709,(1, 66),4	3713,(1, 69),32	3745,(1, 72),4	3749,(2, 18),9092	23721,(8, 48),416	
1,(0, 2),264	529,(0, 5),264	793,(3, 11),184	977,(3, 14),4	997,(3, 20),4	1057,(0, 8),264	1321,(4, 11),36	1357,(3, 41),4	1361,(4, 17),132	1493,(4, 23),4	1497,(4, 26),4	1501,(4, 35),8	1509,(4, 41),32	1541,(3, 74),4	1545,(4, 44),112	1657,(4, 50),12	1669,(4, 56),4	1673,(4, 62),676	2349,(3, 29),8	2357,(4, 68),48	2405,(3, 59),24	2429,(7, 14),220	2649,(7, 17),36	2685,(7, 26),4	2689,(7, 29),8	2697,(3, 68),16	2713,(3, 77),4	2717,(6, 11),16	2733,(6, 20),4	2737,(6, 23),60	2797,(6, 26),8	2805,(6, 35),4	2809,(7, 41),52	2861,(7, 44),16	2877,(6, 38),4	2881,(6, 47),44	2925,(6, 65),44	2969,(6, 74),28	2997,(6, 77),4	3017,(7, 53),4	3021,(7, 56),96	3117,(7, 62),56	3265,(7, 65),40	3373,(1, 17),72	3637,(1, 50),32	3673,(1, 65),36	3749,(1, 77),8	3757,(3, 47),240	
288,(2, 10),24	312,(2, 16),36	348,(2, 28),116	464,(2, 31),4	468,(2, 49),16	484,(2, 55),4	488,(2, 58),20	508,(2, 64),4	793,(2, 46),116	909,(2, 61),32	941,(5, 16),4	945,(5, 19),4	949,(5, 28),4	953,(5, 52),4	957,(5, 58),4	961,(5, 67),4	965,(5, 73),4	981,(3, 16),16	1001,(3, 22),56	1057,(3, 37),8	1065,(3, 40),16	1081,(3, 52),8	1089,(3, 58),4	1093,(3, 64),16	1109,(3, 76),8	1117,(3, 79),60	1177,(6, 13),12	1189,(6, 16),8	1197,(6, 64),4	1201,(6, 67),12	1213,(80, 81),200	1413,(6, 49),88	1501,(6, 79),8	1509,(8, 19),20	1529,(8, 37),16	1545,(9, 81),200	1745,(6, 52),60	1881,(32, 81),200	2081,(24, 81),200	2281,(8, 31),24	2305,(8, 34),48	2353,(8, 52),72	2425,(8, 76),4	2429,(54, 81),200	2629,(8, 67),80	2709,(8, 70),60	2769,(71, 81),200	3001,(60, 81),200	3201,(57, 81),200	3401,(15, 81),200	3997,(75, 81),200	4197,(33, 81),200	4397,(78, 81),200	4597,(30, 81),200	4797,(63, 81),200	4997,(12, 81),200	5197,(21, 81),200	5397,(27, 81),200	5597,(36, 81),200	5797,(39, 81),200	5997,(42, 81),200	6197,(45, 81),200	6397,(51, 81),200	6597,(66, 81),200	6797,(69, 81),200	6997,(72, 81),200	12841,(2, 22),10464	23305,(8, 25),416	23721,(18, 81),200	24137,(59, 81),200	24337,(14, 81),200	24537,(29, 81),200	24737,(68, 81),200	24937,(11, 81),200	25137,(20, 81),200	25337,(23, 81),200	25537,(26, 81),200	25737,(35, 81),200	25937,(41, 81),200	26137,(44, 81),200	26337,(38, 81),200	26537,(74, 81),200	26737,(53, 81),200	26937,(56, 81),200	27137,(62, 81),200	27337,(17, 81),200	27537,(50, 81),200	27737,(65, 81),200	27937,(77, 81),200	28137,(47, 81),200	28337,(48, 81),200	
# Outgoing
793,(3, 11),184	977,(3, 14),4	981,(3, 16),16	997,(3, 20),4	1001,(3, 22),56	1057,(3, 37),8	1065,(3, 40),16	1081,(3, 52),8	1089,(3, 58),4	1093,(3, 64),16	1109,(3, 76),8	1117,(3, 79),60	1177,(6, 13),12	1189,(6, 16),8	1197,(6, 64),4	1201,(6, 67),12	1357,(3, 41),4	1413,(6, 49),88	1501,(6, 79),8	1541,(3, 74),4	1545,(9, 81),200	1745,(6, 52),60	2081,(24, 81),200	2349,(3, 29),8	2405,(3, 59),24	2429,(54, 81),200	2697,(3, 68),16	2713,(3, 77),4	2717,(6, 11),16	2733,(6, 20),4	2737,(6, 23),60	2797,(6, 26),8	2805,(6, 35),4	2877,(6, 38),4	2881,(6, 47),44	2925,(6, 65),44	2969,(6, 74),28	2997,(6, 77),4	3001,(60, 81),200	3201,(57, 81),200	3401,(15, 81),200	3757,(3, 47),240	3997,(75, 81),200	4197,(33, 81),200	4397,(78, 81),200	4597,(30, 81),200	4797,(63, 81),200	4997,(12, 81),200	5197,(21, 81),200	5397,(27, 81),200	5597,(36, 81),200	5797,(39, 81),200	5997,(42, 81),200	6197,(45, 81),200	6397,(51, 81),200	6597,(66, 81),200	6797,(69, 81),200	6997,(72, 81),200	23721,(18, 81),200	28337,(48, 81),200	
288,(2, 10),24	312,(2, 16),36	348,(2, 28),116	464,(2, 31),4	468,(2, 49),16	484,(2, 55),4	488,(2, 58),20	508,(2, 64),4	529,(2, 24),124	653,(2, 39),48	701,(2, 45),92	793,(2, 46),116	909,(2, 61),32	941,(5, 16),4	945,(5, 19),4	949,(5, 28),4	953,(5, 52),4	957,(5, 58),4	961,(5, 67),4	965,(5, 73),4	1057,(2, 51),20	1077,(2, 57),44	1121,(2, 75),92	1213,(80, 81),200	1413,(5, 75),4	1417,(8, 12),32	1449,(8, 27),8	1457,(8, 33),4	1461,(8, 51),4	1465,(8, 63),8	1509,(8, 19),20	1529,(8, 37),16	1545,(5, 18),200	1745,(5, 36),136	1881,(32, 81),200	2081,(8, 21),88	2281,(8, 31),24	2305,(8, 34),48	2353,(8, 52),72	2425,(8, 76),4	2629,(8, 67),80	2709,(8, 70),60	2769,(71, 81),200	3749,(2, 18),9092	12841,(2, 22),10464	23305,(8, 25),416	23721,(8, 48),416	24137,(59, 81),200	24337,(14, 81),200	24537,(29, 81),200	24737,(68, 81),200	24937,(11, 81),200	25137,(20, 81),200	25337,(23, 81),200	25537,(26, 81),200	25737,(35, 81),200	25937,(41, 81),200	26137,(44, 81),200	26337,(38, 81),200	26537,(74, 81),200	26737,(53, 81),200	26937,(56, 81),200	27137,(62, 81),200	27337,(17, 81),200	27537,(50, 81),200	27737,(65, 81),200	27937,(77, 81),200	28137,(47, 81),200	
1,(0, 2),264	265,(0, 3),264	529,(0, 5),264	793,(0, 6),264	1057,(0, 8),264	1321,(4, 11),36	1357,(4, 15),4	1361,(4, 17),132	1493,(4, 23),4	1497,(4, 26),4	1501,(4, 35),8	1509,(4, 41),32	1541,(4, 42),4	1545,(4, 44),112	1657,(4, 50),12	1669,(4, 56),4	1673,(4, 62),676	2349,(4, 66),8	2357,(4, 68),48	2405,(4, 78),20	2425,(7, 12),4	2429,(7, 14),220	2649,(7, 17),36	2685,(7, 26),4	2689,(7, 29),8	2697,(7, 30),96	2793,(7, 39),16	2809,(7, 41),52	2861,(7, 44),16	2877,(7, 51),140	3017,(7, 53),4	3021,(7, 56),96	3117,(7, 62),56	3173,(7, 63),92	3265,(7, 65),40	3305,(7, 72),12	3317,(1, 12),56	3373,(1, 17),72	3445,(1, 21),4	3449,(1, 27),52	3501,(1, 36),48	3549,(1, 39),52	3601,(1, 42),12	3613,(1, 45),16	3629,(1, 48),8	3637,(1, 50),32	3669,(1, 51),4	3673,(1, 65),36	3709,(1, 66),4	3713,(1, 69),32	3745,(1, 72),4	3749,(1, 77),8	
