45986
# CPU
3730,144,1	22243,23,1	24115,162,1	25003,86,1	25540,114,1	25930,90,1	25981,26,1	25996,80,1	26008,115,1	26140,119,1	26509,168,1	26728,31,1	26791,122,1	27253,199,1	28417,153,1	29341,146,1	29425,157,1	29806,32,1	32386,51,1	32767,71,1	33028,137,1	33235,63,1	33331,97,1	36805,172,1	36955,44,1	37072,49,1	37132,52,1	38584,133,1	38980,46,1	39607,67,1	39712,92,1	39781,102,1	39964,118,1	40813,81,1	40858,105,1	41050,135,1	41407,188,1	41440,21,1	41539,75,1	41692,84,1	41719,88,1	41836,96,1	42142,129,1	42484,22,1	42580,48,1	42775,62,1	42847,69,1	42871,78,1	42958,117,1	42982,123,1	43519,124,1	43579,134,1	43594,136,1	43747,155,1	43852,169,1	44110,186,1	44134,193,1	44152,25,1	45025,35,1	45052,45,1	45163,130,1	45220,141,1	45259,150,1	45271,159,1	45394,163,1	45568,183,1	45703,196,1	45985,201,1	
0,0,1	1,7,1	2,13,1	3,18,1	4,4,1	5,20,1	6,8,1	7,2,1	8,16,1	9,10,1	10,5,1	11,43,1	12,147,1	13,128,1	14,76,1	15,156,1	16,66,1	17,59,1	442,120,1	493,143,1	550,89,1	640,28,1	673,40,1	676,42,1	694,55,1	718,121,1	880,198,1	985,113,1	991,170,1	1015,180,1	1138,132,1	1147,166,1	1180,181,1	1237,33,1	1258,56,1	1276,82,1	1291,94,1	1333,151,1	1369,95,1	1435,77,1	1486,149,1	1495,171,1	1513,50,1	1516,53,1	1540,73,1	1546,79,1	1552,101,1	1561,139,1	1564,195,1	1600,60,1	1606,103,1	1615,158,1	1621,178,1	1624,24,1	1630,30,1	1633,38,1	1636,54,1	1660,68,1	1666,109,1	1681,125,1	1684,127,1	1714,142,1	1729,160,1	1762,175,1	1798,179,1	1804,187,1	1810,194,1	
16,1,1	31,3,1	46,6,1	61,9,1	76,11,1	91,12,1	106,14,1	121,15,1	136,17,1	151,19,1	152,110,1	3751,145,1	4426,165,1	14980,85,1	15133,93,1	17485,197,1	17500,37,1	17542,41,1	19066,184,1	19474,58,1	19756,104,1	20119,154,1	21538,106,1	21541,112,1	22306,27,1	22348,65,1	22417,72,1	22423,87,1	23314,192,1	23392,39,1	23737,116,1	23845,126,1	24010,138,1	24049,152,1	24145,177,1	24712,61,1	24838,64,1	24937,74,1	25174,99,1	25177,100,1	25192,107,1	25369,140,1	25477,173,1	25495,182,1	25540,34,1	25546,47,1	25852,70,1	25996,111,1	26431,164,1	26434,167,1	26512,174,1	26542,176,1	26563,185,1	26566,189,1	26569,190,1	26707,29,1	26752,36,1	26794,57,1	26911,83,1	26941,91,1	27031,98,1	27040,108,1	27052,131,1	27061,148,1	27124,161,1	27154,191,1	27286,200,1	
# Incoming
151,(7, 21),21	172,(7, 31),51	223,(7, 32),108	331,(1, 23),9	352,(1, 51),15	367,(1, 63),3	388,(7, 48),3	391,(7, 63),12	415,(1, 114),24	442,(7, 78),102	544,(7, 80),750	1294,(7, 84),3	1297,(1, 133),3	1300,(1, 137),18	1318,(1, 188),3	1321,(7, 92),12	1333,(3, 26),9	1342,(3, 67),15	1357,(7, 96),15	1372,(3, 78),15	1387,(3, 86),3	1390,(3, 114),3	1393,(3, 122),3	1396,(3, 124),3	1399,(3, 168),3	1402,(7, 114),96	1498,(7, 117),3	1501,(7, 118),1602	3103,(7, 122),126	3229,(7, 130),6	3235,(7, 136),165	3400,(7, 137),303	3703,(7, 144),27	3730,(3, 48),36	3766,(7, 162),642	4408,(7, 163),3	4411,(3, 115),12	4423,(6, 23),3	4426,(7, 168),3	4429,(7, 169),87	4516,(3, 137),9	4525,(6, 52),3	4528,(6, 122),3	4531,(7, 188),3	4534,(7, 196),8886	13420,(13, 21),27	13447,(13, 22),3	13450,(13, 23),930	14380,(13, 26),3	14383,(6, 118),9	14392,(13, 31),9	14401,(13, 44),132	14533,(13, 48),66	14599,(13, 51),3	14602,(3, 92),21	14623,(13, 69),3	14626,(13, 71),78	14704,(6, 153),3	14707,(13, 78),249	14956,(3, 169),12	14968,(6, 123),6	14974,(6, 124),6	14980,(13, 86),39	15019,(6, 169),3	15022,(13, 88),3	15025,(13, 90),78	15103,(3, 102),30	15133,(13, 97),48	15181,(6, 183),9	15190,(13, 102),3	15193,(13, 115),60	15253,(13, 117),600	15853,(13, 118),12	15865,(13, 119),3	15868,(13, 122),6	15874,(13, 130),3	15877,(13, 134),3	15880,(13, 137),15	15895,(9, 52),3	15898,(13, 146),1248	17146,(13, 169),24	17170,(13, 186),36	17206,(13, 188),237	17443,(1, 183),42	17485,(18, 22),3	17488,(1, 130),45	17533,(9, 21),9	17542,(18, 44),27	17569,(18, 45),9	17578,(18, 46),45	17623,(18, 48),18	17641,(18, 51),48	17689,(18, 62),18	17707,(18, 63),54	17761,(9, 105),3	17764,(18, 67),21	17785,(18, 71),3	17788,(18, 75),471	18259,(18, 81),9	18268,(18, 90),57	18325,(9, 137),3	18328,(18, 97),3	18331,(18, 102),24	18355,(9, 49),6	18361,(9, 62),6	18367,(18, 115),3	18370,(18, 123),150	18520,(18, 124),27	18547,(18, 133),165	18712,(18, 135),3	18715,(18, 137),66	18781,(18, 141),33	18814,(18, 150),51	18865,(18, 153),6	18871,(18, 155),9	18880,(18, 162),60	18940,(18, 163),45	18985,(1, 46),75	19060,(3, 188),18	19078,(18, 186),3	19081,(6, 97),15	19096,(9, 141),3	19099,(18, 196),12	19111,(18, 199),21	19132,(4, 25),228	19360,(4, 31),3	19363,(4, 44),3	19366,(4, 46),3	19369,(4, 48),9	19378,(4, 51),69	19447,(4, 52),24	19471,(9, 153),3	19474,(4, 62),87	19561,(3, 75),36	19597,(9, 199),3	19600,(4, 81),18	19618,(4, 86),57	19675,(9, 118),6	19681,(9, 134),9	19690,(4, 97),45	19735,(6, 75),21	19756,(11, 23),3	19759,(4, 117),102	19861,(4, 118),9	19870,(4, 124),3	19873,(3, 162),27	19900,(4, 130),3	19903,(4, 136),192	20095,(4, 141),3	20098,(9, 75),18	20116,(11, 48),3	20119,(4, 155),3	20122,(11, 81),3	20125,(4, 168),51	20176,(11, 115),3	20179,(4, 183),27	20206,(11, 123),3	20209,(11, 159),3	20212,(4, 193),63	20275,(4, 196),9	20284,(4, 199),348	20632,(20, 23),12	20644,(20, 25),66	20710,(20, 26),84	20794,(20, 32),3	20797,(20, 45),87	20884,(20, 46),33	20917,(11, 188),3	20920,(20, 49),324	21244,(20, 67),45	21289,(20, 75),102	21391,(20, 81),30	21421,(20, 92),3	21424,(20, 96),3	21427,(20, 97),39	21466,(20, 102),60	21526,(20, 105),9	21535,(9, 80),18	21553,(9, 162),9	21562,(20, 118),30	21592,(20, 119),3	21595,(3, 81),42	21637,(11, 130),6	21643,(12, 69),3	21646,(20, 135),9	21655,(11, 35),12	21667,(20, 146),15	21682,(6, 136),30	21712,(12, 51),6	21718,(20, 172),72	21790,(20, 183),3	21793,(12, 78),3	21796,(20, 186),3	21799,(20, 196),3	21802,(20, 199),12	21814,(8, 21),132	21946,(8, 22),15	21961,(8, 23),282	22243,(8, 25),30	22273,(9, 71),45	22318,(8, 51),6	22324,(8, 52),3	22327,(8, 63),18	22345,(12, 159),3	22348,(8, 69),63	22411,(11, 80),12	22423,(8, 90),3	22426,(8, 92),135	22561,(8, 105),3	22564,(12, 193),3	22567,(8, 117),12	22579,(8, 118),48	22627,(8, 119),45	22672,(8, 129),39	22711,(8, 130),246	22957,(9, 133),18	22975,(8, 146),51	23026,(8, 157),147	23173,(14, 84),3	23176,(8, 163),3	23179,(6, 159),48	23227,(14, 86),3	23230,(8, 188),18	23248,(3, 105),60	23308,(12, 163),6	23314,(8, 193),24	23338,(8, 196),18	23356,(2, 26),21	23377,(11, 90),15	23392,(2, 44),48	23440,(2, 45),6	23446,(11, 193),9	23455,(14, 123),3	23458,(2, 67),3	23461,(14, 129),3	23464,(2, 75),3	23467,(2, 81),3	23470,(2, 86),24	23494,(2, 88),24	23518,(2, 90),3	23521,(11, 183),15	23536,(12, 32),9	23545,(15, 92),3	23548,(2, 102),3	23551,(12, 63),12	23563,(2, 115),171	23734,(15, 105),3	23737,(2, 118),39	23776,(2, 122),45	23821,(2, 123),3	23824,(2, 124),9	23833,(12, 96),12	23845,(2, 129),81	23926,(2, 136),81	24007,(9, 196),30	24037,(12, 123),9	24046,(17, 45),3	24049,(2, 157),9	24058,(2, 159),54	24112,(2, 162),3	24115,(2, 169),15	24130,(12, 186),15	24145,(2, 188),57	24202,(2, 193),48	24250,(16, 25),72	24322,(12, 196),24	24346,(14, 49),6	24352,(16, 44),42	24394,(16, 46),18	24412,(16, 48),132	24544,(16, 49),165	24709,(17, 75),3	24712,(16, 62),54	24766,(16, 63),30	24796,(12, 25),36	24832,(14, 153),6	24838,(16, 67),63	24901,(12, 49),33	24934,(17, 80),3	24937,(16, 81),18	24955,(16, 86),48	25003,(16, 88),84	25087,(16, 90),3	25090,(16, 97),81	25171,(14, 44),33	25204,(14, 172),6	25210,(16, 122),6	25216,(16, 123),21	25237,(16, 129),114	25351,(16, 133),3	25354,(14, 69),15	25369,(16, 153),27	25396,(16, 157),39	25435,(14, 71),12	25447,(15, 102),6	25453,(15, 188),9	25462,(16, 172),12	25474,(14, 119),18	25492,(17, 88),3	25495,(16, 183),6	25501,(16, 188),6	25507,(10, 21),24	25531,(10, 22),3	25534,(17, 114),6	25540,(10, 45),3	25543,(17, 119),3	25546,(10, 48),33	25579,(17, 122),3	25582,(10, 63),156	25738,(10, 67),75	25813,(14, 90),30	25843,(17, 135),9	25852,(10, 81),54	25906,(10, 90),24	25930,(9, 26),51	25981,(17, 153),3	25984,(19, 22),3	25987,(10, 102),6	25993,(19, 80),3	25996,(10, 115),12	26008,(10, 118),87	26095,(10, 119),45	26140,(10, 129),24	26164,(10, 134),48	26212,(10, 153),63	26275,(10, 157),6	26281,(10, 159),9	26290,(19, 117),3	26293,(10, 163),135	26428,(19, 67),6	26434,(10, 168),75	26509,(9, 135),60	26569,(10, 193),9	26578,(10, 199),3	26581,(5, 21),117	26698,(19, 69),9	26707,(5, 31),21	26728,(5, 32),3	26731,(5, 35),3	26734,(15, 32),18	26752,(5, 44),3	26755,(5, 48),24	26779,(15, 122),12	26791,(19, 124),3	26794,(5, 67),114	26908,(110, 201),3	26911,(5, 88),27	26938,(145, 201),3	26941,(5, 96),87	27028,(19, 71),9	27037,(165, 201),3	27040,(5, 130),3	27043,(85, 201),3	27046,(93, 201),3	27049,(197, 201),3	27052,(5, 135),3	27055,(37, 201),3	27058,(41, 201),3	27061,(5, 150),57	27118,(184, 201),3	27121,(58, 201),3	27124,(5, 163),6	27130,(5, 186),9	27139,(5, 188),9	27148,(104, 201),3	27151,(154, 201),3	27154,(5, 193),21	27175,(5, 199),78	27253,(14, 155),33	27286,(43, 201),3	27289,(147, 201),3	27292,(128, 201),3	27295,(76, 201),3	27298,(156, 201),3	27301,(1, 69),330	27631,(1, 75),96	27727,(1, 123),105	27832,(1, 153),585	28417,(66, 201),3	28420,(59, 201),3	28423,(3, 52),588	29011,(3, 88),69	29080,(3, 129),174	29254,(3, 146),87	29341,(3, 157),84	29425,(3, 183),132	29557,(6, 32),249	29806,(6, 51),2580	32386,(6, 69),78	32464,(6, 71),303	32767,(6, 133),63	32830,(6, 137),198	33028,(6, 155),84	33112,(9, 63),123	33235,(9, 97),96	33331,(9, 136),3213	36544,(9, 163),201	36745,(9, 172),60	36805,(11, 44),150	36955,(11, 49),117	37072,(11, 52),60	37132,(11, 75),1266	38398,(11, 118),72	38470,(11, 133),114	38584,(11, 141),78	38662,(12, 22),273	38935,(12, 46),45	38980,(12, 62),213	39193,(12, 67),414	39607,(12, 84),57	39664,(12, 92),48	39712,(12, 102),69	39781,(12, 117),48	39829,(12, 118),135	39964,(12, 129),51	40015,(12, 136),702	40717,(14, 81),96	40813,(14, 105),45	40858,(14, 135),192	41050,(14, 159),198	41248,(14, 186),93	41341,(14, 188),66	41407,(15, 21),33	41440,(15, 35),27	41467,(15, 45),54	41521,(15, 75),18	41539,(15, 84),153	41692,(15, 88),27	41719,(15, 96),117	41836,(15, 123),171	42007,(15, 124),90	42097,(15, 129),45	42142,(15, 155),24	42166,(15, 163),90	42256,(17, 22),228	42484,(17, 35),72	42556,(17, 48),24	42580,(17, 62),195	42775,(17, 69),72	42847,(17, 78),24	42871,(17, 117),87	42958,(17, 123),24	42982,(17, 124),537	43519,(17, 134),60	43579,(17, 136),15	43594,(17, 150),105	43699,(17, 155),48	43747,(17, 163),24	43771,(17, 169),81	43852,(17, 183),51	43903,(17, 186),207	44110,(17, 193),24	44134,(19, 25),18	44152,(19, 35),873	45025,(19, 45),27	45052,(19, 130),111	45163,(19, 141),57	45220,(19, 150),39	45259,(19, 159),12	45271,(19, 163),123	45394,(19, 183),174	45568,(19, 196),135	45703,(120, 201),3	45706,(143, 201),3	45709,(89, 201),3	45712,(28, 201),3	45715,(40, 201),3	45718,(42, 201),3	45721,(55, 201),3	45724,(121, 201),3	45727,(198, 201),3	45730,(113, 201),3	45733,(170, 201),3	45736,(180, 201),3	45739,(132, 201),3	45742,(166, 201),3	45745,(181, 201),3	45748,(33, 201),3	45751,(56, 201),3	45754,(82, 201),3	45757,(94, 201),3	45760,(151, 201),3	45763,(95, 201),3	45766,(77, 201),3	45769,(149, 201),3	45772,(171, 201),3	45775,(50, 201),3	45778,(53, 201),3	45781,(73, 201),3	45784,(79, 201),3	45787,(101, 201),3	45790,(139, 201),3	45793,(195, 201),3	45796,(60, 201),3	45799,(103, 201),3	45802,(158, 201),3	45805,(178, 201),3	45808,(24, 201),3	45811,(30, 201),3	45814,(38, 201),3	45817,(54, 201),3	45820,(68, 201),3	45823,(109, 201),3	45826,(125, 201),3	45829,(127, 201),3	45832,(142, 201),3	45835,(160, 201),3	45838,(175, 201),3	45841,(179, 201),3	45844,(187, 201),3	45847,(194, 201),3	45850,(106, 201),3	45853,(112, 201),3	45856,(27, 201),3	45859,(65, 201),3	45862,(72, 201),3	45865,(87, 201),3	45868,(192, 201),3	45871,(39, 201),3	45874,(116, 201),3	45877,(126, 201),3	45880,(138, 201),3	45883,(152, 201),3	45886,(177, 201),3	45889,(61, 201),3	45892,(64, 201),3	45895,(74, 201),3	45898,(99, 201),3	45901,(100, 201),3	45904,(107, 201),3	45907,(140, 201),3	45910,(173, 201),3	45913,(182, 201),3	45916,(34, 201),3	45919,(47, 201),3	45922,(70, 201),3	45925,(111, 201),3	45928,(164, 201),3	45931,(167, 201),3	45934,(174, 201),3	45937,(176, 201),3	45940,(185, 201),3	45943,(189, 201),3	45946,(190, 201),3	45949,(29, 201),3	45952,(36, 201),3	45955,(57, 201),3	45958,(83, 201),3	45961,(91, 201),3	45964,(98, 201),3	45967,(108, 201),3	45970,(131, 201),3	45973,(148, 201),3	45976,(161, 201),3	45979,(191, 201),3	45982,(200, 201),3	
340,(1, 24),3	343,(1, 28),9	370,(1, 68),9	379,(1, 73),3	382,(1, 77),3	385,(1, 79),6	391,(1, 101),21	412,(1, 113),3	439,(1, 120),3	442,(1, 121),3	445,(1, 125),6	451,(1, 132),3	454,(1, 143),39	493,(1, 149),12	505,(1, 166),6	511,(1, 179),6	517,(1, 194),9	526,(3, 40),3	529,(3, 50),3	532,(3, 56),6	538,(3, 68),3	541,(3, 89),9	550,(3, 113),9	559,(3, 149),24	583,(3, 170),21	604,(3, 187),6	610,(3, 194),3	613,(3, 195),18	631,(6, 28),9	640,(6, 40),33	673,(6, 42),3	676,(6, 55),18	694,(6, 68),6	700,(6, 103),15	715,(6, 121),3	718,(6, 127),3	721,(6, 132),3	724,(6, 139),12	736,(6, 142),18	754,(6, 149),6	760,(6, 151),6	766,(6, 166),9	775,(6, 175),36	811,(6, 178),3	814,(6, 180),42	856,(6, 198),24	880,(9, 33),3	883,(9, 50),6	889,(9, 60),12	901,(9, 68),30	931,(9, 77),30	961,(9, 109),6	967,(9, 113),18	985,(9, 170),6	991,(9, 171),6	997,(9, 180),18	1015,(11, 30),6	1021,(11, 33),27	1048,(11, 53),9	1057,(11, 60),24	1081,(11, 73),9	1090,(11, 82),3	1093,(11, 101),3	1096,(11, 132),42	1138,(11, 139),3	1141,(11, 158),3	1144,(11, 166),3	1147,(11, 175),12	1159,(11, 179),15	1174,(11, 181),6	1180,(11, 194),3	1183,(12, 30),15	1198,(12, 33),39	1237,(12, 38),9	1246,(12, 56),12	1258,(12, 73),12	1270,(12, 82),6	1276,(12, 94),15	1291,(12, 101),3	1294,(12, 171),3	1321,(12, 151),6	1327,(12, 187),3	1330,(14, 151),3	1357,(14, 95),12	1369,(15, 38),3	1402,(12, 77),33	1435,(14, 73),36	1471,(14, 149),15	1486,(14, 171),9	1495,(14, 175),12	1507,(15, 50),6	1513,(15, 53),3	1516,(15, 73),24	1540,(15, 79),6	1546,(15, 101),6	1552,(15, 103),3	1555,(15, 139),6	1561,(15, 195),3	1564,(17, 24),9	1573,(17, 30),3	1576,(17, 60),24	1600,(17, 103),6	1606,(17, 158),9	1615,(17, 178),6	1621,(19, 24),3	1624,(19, 30),6	1630,(19, 38),3	1633,(19, 54),3	1636,(19, 68),24	1660,(19, 109),6	1666,(19, 125),15	1681,(19, 127),3	1684,(19, 142),30	1714,(19, 160),15	1729,(19, 175),33	1762,(19, 179),36	1798,(19, 187),6	1804,(19, 194),6	
1,(0, 1),15	16,(0, 3),15	31,(0, 6),15	46,(0, 9),15	61,(0, 11),15	76,(0, 12),15	91,(0, 14),15	106,(0, 15),15	121,(0, 17),15	136,(0, 19),15	331,(7, 34),9	340,(7, 41),48	403,(7, 65),36	439,(7, 70),3	1297,(7, 85),24	1333,(7, 93),24	1372,(7, 98),27	1399,(7, 108),3	3730,(7, 145),21	3751,(7, 154),12	3763,(7, 161),3	4411,(7, 165),15	4516,(7, 182),3	4519,(7, 185),12	14383,(13, 27),9	14602,(13, 61),15	14617,(13, 64),6	14704,(13, 74),3	14956,(13, 83),15	14971,(13, 85),9	15019,(13, 87),3	15103,(13, 93),30	15181,(13, 100),9	15895,(13, 138),3	17443,(13, 189),18	17461,(13, 197),24	17488,(18, 27),3	17491,(18, 37),9	17500,(18, 41),42	17761,(18, 65),3	18325,(18, 91),3	18355,(18, 106),12	18985,(18, 174),3	18988,(18, 177),33	19021,(18, 182),27	19048,(18, 184),18	19066,(18, 185),12	19081,(18, 189),18	19471,(4, 58),3	19561,(4, 72),39	19675,(4, 87),3	19678,(4, 91),12	19735,(4, 98),12	19747,(4, 104),9	19756,(4, 116),3	19873,(4, 126),27	20098,(4, 148),18	20116,(4, 154),3	20122,(4, 167),3	20176,(4, 182),3	20206,(4, 185),6	20917,(20, 47),3	21535,(20, 106),3	21538,(20, 112),3	21541,(20, 116),21	21595,(20, 126),36	21631,(20, 131),15	21655,(20, 138),9	21664,(20, 140),3	21682,(20, 152),27	21709,(20, 161),9	21793,(20, 185),3	22273,(8, 27),33	22306,(8, 36),12	22345,(8, 65),3	22411,(8, 70),3	22414,(8, 72),3	22417,(8, 87),6	22564,(8, 108),3	22957,(8, 138),18	23173,(8, 161),3	23179,(8, 164),3	23182,(8, 174),3	23185,(8, 182),6	23191,(8, 185),39	23248,(8, 189),18	23266,(8, 190),9	23275,(8, 191),36	23311,(8, 192),3	23377,(2, 29),9	23386,(2, 34),3	23389,(2, 39),3	23446,(2, 47),3	23449,(2, 61),9	23461,(2, 70),3	23521,(2, 98),12	23533,(2, 99),15	23551,(2, 107),12	23734,(2, 116),3	23833,(2, 126),12	24007,(2, 138),3	24010,(2, 140),9	24019,(2, 152),30	24130,(2, 176),9	24139,(2, 177),6	24322,(16, 34),30	24709,(16, 61),3	24796,(16, 64),42	24901,(16, 70),12	24913,(16, 74),24	25171,(16, 99),3	25174,(16, 100),3	25177,(16, 107),15	25192,(16, 111),18	25354,(16, 140),15	25435,(16, 164),27	25474,(16, 173),3	25477,(16, 176),6	25483,(16, 182),12	25534,(10, 29),3	25537,(10, 34),3	25543,(10, 47),3	25579,(10, 57),3	25813,(10, 70),39	25930,(10, 91),15	25945,(10, 98),42	25993,(10, 111),3	26290,(10, 161),3	26428,(10, 164),3	26431,(10, 167),3	26509,(10, 174),3	26512,(10, 176),30	26542,(10, 185),21	26563,(10, 189),3	26566,(10, 190),3	26698,(5, 29),9	26734,(5, 36),18	26779,(5, 57),15	26908,(5, 83),3	26938,(5, 91),3	27028,(5, 98),3	27031,(5, 108),9	27043,(5, 131),9	27055,(5, 148),6	27118,(5, 161),6	27148,(5, 191),6	27253,(5, 200),33	
# Outgoing

1,(0, 1),15	16,(0, 3),15	31,(0, 6),15	46,(0, 9),15	61,(0, 11),15	76,(0, 12),15	91,(0, 14),15	106,(0, 15),15	121,(0, 17),15	136,(0, 19),15	151,(7, 21),21	172,(7, 31),51	223,(7, 32),108	331,(7, 34),9	340,(7, 41),48	388,(7, 48),3	391,(7, 63),12	403,(7, 65),36	439,(7, 70),3	442,(7, 78),102	544,(7, 80),750	1294,(7, 84),3	1297,(7, 85),24	1321,(7, 92),12	1333,(7, 93),24	1357,(7, 96),15	1372,(7, 98),27	1399,(7, 108),3	1402,(7, 114),96	1498,(7, 117),3	1501,(7, 118),1602	3103,(7, 122),126	3229,(7, 130),6	3235,(7, 136),165	3400,(7, 137),303	3703,(7, 144),27	3730,(7, 145),21	3751,(7, 154),12	3763,(7, 161),3	3766,(7, 162),642	4408,(7, 163),3	4411,(7, 165),15	4426,(7, 168),3	4429,(7, 169),87	4516,(7, 182),3	4519,(7, 185),12	4531,(7, 188),3	4534,(7, 196),8886	13420,(13, 21),27	13447,(13, 22),3	13450,(13, 23),930	14380,(13, 26),3	14383,(13, 27),9	14392,(13, 31),9	14401,(13, 44),132	14533,(13, 48),66	14599,(13, 51),3	14602,(13, 61),15	14617,(13, 64),6	14623,(13, 69),3	14626,(13, 71),78	14704,(13, 74),3	14707,(13, 78),249	14956,(13, 83),15	14971,(13, 85),9	14980,(13, 86),39	15019,(13, 87),3	15022,(13, 88),3	15025,(13, 90),78	15103,(13, 93),30	15133,(13, 97),48	15181,(13, 100),9	15190,(13, 102),3	15193,(13, 115),60	15253,(13, 117),600	15853,(13, 118),12	15865,(13, 119),3	15868,(13, 122),6	15874,(13, 130),3	15877,(13, 134),3	15880,(13, 137),15	15895,(13, 138),3	15898,(13, 146),1248	17146,(13, 169),24	17170,(13, 186),36	17206,(13, 188),237	17443,(13, 189),18	17461,(13, 197),24	17485,(18, 22),3	17488,(18, 27),3	17491,(18, 37),9	17500,(18, 41),42	17542,(18, 44),27	17569,(18, 45),9	17578,(18, 46),45	17623,(18, 48),18	17641,(18, 51),48	17689,(18, 62),18	17707,(18, 63),54	17761,(18, 65),3	17764,(18, 67),21	17785,(18, 71),3	17788,(18, 75),471	18259,(18, 81),9	18268,(18, 90),57	18325,(18, 91),3	18328,(18, 97),3	18331,(18, 102),24	18355,(18, 106),12	18367,(18, 115),3	18370,(18, 123),150	18520,(18, 124),27	18547,(18, 133),165	18712,(18, 135),3	18715,(18, 137),66	18781,(18, 141),33	18814,(18, 150),51	18865,(18, 153),6	18871,(18, 155),9	18880,(18, 162),60	18940,(18, 163),45	18985,(18, 174),3	18988,(18, 177),33	19021,(18, 182),27	19048,(18, 184),18	19066,(18, 185),12	19078,(18, 186),3	19081,(18, 189),18	19099,(18, 196),12	19111,(18, 199),21	19132,(4, 25),228	19360,(4, 31),3	19363,(4, 44),3	19366,(4, 46),3	19369,(4, 48),9	19378,(4, 51),69	19447,(4, 52),24	19471,(4, 58),3	19474,(4, 62),87	19561,(4, 72),39	19600,(4, 81),18	19618,(4, 86),57	19675,(4, 87),3	19678,(4, 91),12	19690,(4, 97),45	19735,(4, 98),12	19747,(4, 104),9	19756,(4, 116),3	19759,(4, 117),102	19861,(4, 118),9	19870,(4, 124),3	19873,(4, 126),27	19900,(4, 130),3	19903,(4, 136),192	20095,(4, 141),3	20098,(4, 148),18	20116,(4, 154),3	20119,(4, 155),3	20122,(4, 167),3	20125,(4, 168),51	20176,(4, 182),3	20179,(4, 183),27	20206,(4, 185),6	20212,(4, 193),63	20275,(4, 196),9	20284,(4, 199),348	20632,(20, 23),12	20644,(20, 25),66	20710,(20, 26),84	20794,(20, 32),3	20797,(20, 45),87	20884,(20, 46),33	20917,(20, 47),3	20920,(20, 49),324	21244,(20, 67),45	21289,(20, 75),102	21391,(20, 81),30	21421,(20, 92),3	21424,(20, 96),3	21427,(20, 97),39	21466,(20, 102),60	21526,(20, 105),9	21535,(20, 106),3	21538,(20, 112),3	21541,(20, 116),21	21562,(20, 118),30	21592,(20, 119),3	21595,(20, 126),36	21631,(20, 131),15	21646,(20, 135),9	21655,(20, 138),9	21664,(20, 140),3	21667,(20, 146),15	21682,(20, 152),27	21709,(20, 161),9	21718,(20, 172),72	21790,(20, 183),3	21793,(20, 185),3	21796,(20, 186),3	21799,(20, 196),3	21802,(20, 199),12	21814,(8, 21),132	21946,(8, 22),15	21961,(8, 23),282	22243,(8, 25),30	22273,(8, 27),33	22306,(8, 36),12	22318,(8, 51),6	22324,(8, 52),3	22327,(8, 63),18	22345,(8, 65),3	22348,(8, 69),63	22411,(8, 70),3	22414,(8, 72),3	22417,(8, 87),6	22423,(8, 90),3	22426,(8, 92),135	22561,(8, 105),3	22564,(8, 108),3	22567,(8, 117),12	22579,(8, 118),48	22627,(8, 119),45	22672,(8, 129),39	22711,(8, 130),246	22957,(8, 138),18	22975,(8, 146),51	23026,(8, 157),147	23173,(8, 161),3	23176,(8, 163),3	23179,(8, 164),3	23182,(8, 174),3	23185,(8, 182),6	23191,(8, 185),39	23230,(8, 188),18	23248,(8, 189),18	23266,(8, 190),9	23275,(8, 191),36	23311,(8, 192),3	23314,(8, 193),24	23338,(8, 196),18	23356,(2, 26),21	23377,(2, 29),9	23386,(2, 34),3	23389,(2, 39),3	23392,(2, 44),48	23440,(2, 45),6	23446,(2, 47),3	23449,(2, 61),9	23458,(2, 67),3	23461,(2, 70),3	23464,(2, 75),3	23467,(2, 81),3	23470,(2, 86),24	23494,(2, 88),24	23518,(2, 90),3	23521,(2, 98),12	23533,(2, 99),15	23548,(2, 102),3	23551,(2, 107),12	23563,(2, 115),171	23734,(2, 116),3	23737,(2, 118),39	23776,(2, 122),45	23821,(2, 123),3	23824,(2, 124),9	23833,(2, 126),12	23845,(2, 129),81	23926,(2, 136),81	24007,(2, 138),3	24010,(2, 140),9	24019,(2, 152),30	24049,(2, 157),9	24058,(2, 159),54	24112,(2, 162),3	24115,(2, 169),15	24130,(2, 176),9	24139,(2, 177),6	24145,(2, 188),57	24202,(2, 193),48	24250,(16, 25),72	24322,(16, 34),30	24352,(16, 44),42	24394,(16, 46),18	24412,(16, 48),132	24544,(16, 49),165	24709,(16, 61),3	24712,(16, 62),54	24766,(16, 63),30	24796,(16, 64),42	24838,(16, 67),63	24901,(16, 70),12	24913,(16, 74),24	24937,(16, 81),18	24955,(16, 86),48	25003,(16, 88),84	25087,(16, 90),3	25090,(16, 97),81	25171,(16, 99),3	25174,(16, 100),3	25177,(16, 107),15	25192,(16, 111),18	25210,(16, 122),6	25216,(16, 123),21	25237,(16, 129),114	25351,(16, 133),3	25354,(16, 140),15	25369,(16, 153),27	25396,(16, 157),39	25435,(16, 164),27	25462,(16, 172),12	25474,(16, 173),3	25477,(16, 176),6	25483,(16, 182),12	25495,(16, 183),6	25501,(16, 188),6	25507,(10, 21),24	25531,(10, 22),3	25534,(10, 29),3	25537,(10, 34),3	25540,(10, 45),3	25543,(10, 47),3	25546,(10, 48),33	25579,(10, 57),3	25582,(10, 63),156	25738,(10, 67),75	25813,(10, 70),39	25852,(10, 81),54	25906,(10, 90),24	25930,(10, 91),15	25945,(10, 98),42	25987,(10, 102),6	25993,(10, 111),3	25996,(10, 115),12	26008,(10, 118),87	26095,(10, 119),45	26140,(10, 129),24	26164,(10, 134),48	26212,(10, 153),63	26275,(10, 157),6	26281,(10, 159),9	26290,(10, 161),3	26293,(10, 163),135	26428,(10, 164),3	26431,(10, 167),3	26434,(10, 168),75	26509,(10, 174),3	26512,(10, 176),30	26542,(10, 185),21	26563,(10, 189),3	26566,(10, 190),3	26569,(10, 193),9	26578,(10, 199),3	26581,(5, 21),117	26698,(5, 29),9	26707,(5, 31),21	26728,(5, 32),3	26731,(5, 35),3	26734,(5, 36),18	26752,(5, 44),3	26755,(5, 48),24	26779,(5, 57),15	26794,(5, 67),114	26908,(5, 83),3	26911,(5, 88),27	26938,(5, 91),3	26941,(5, 96),87	27028,(5, 98),3	27031,(5, 108),9	27040,(5, 130),3	27043,(5, 131),9	27052,(5, 135),3	27055,(5, 148),6	27061,(5, 150),57	27118,(5, 161),6	27124,(5, 163),6	27130,(5, 186),9	27139,(5, 188),9	27148,(5, 191),6	27154,(5, 193),21	27175,(5, 199),78	27253,(5, 200),33	27286,(43, 201),3	27289,(147, 201),3	27292,(128, 201),3	27295,(76, 201),3	27298,(156, 201),3	28417,(66, 201),3	28420,(59, 201),3	45703,(120, 201),3	45706,(143, 201),3	45709,(89, 201),3	45712,(28, 201),3	45715,(40, 201),3	45718,(42, 201),3	45721,(55, 201),3	45724,(121, 201),3	45727,(198, 201),3	45730,(113, 201),3	45733,(170, 201),3	45736,(180, 201),3	45739,(132, 201),3	45742,(166, 201),3	45745,(181, 201),3	45748,(33, 201),3	45751,(56, 201),3	45754,(82, 201),3	45757,(94, 201),3	45760,(151, 201),3	45763,(95, 201),3	45766,(77, 201),3	45769,(149, 201),3	45772,(171, 201),3	45775,(50, 201),3	45778,(53, 201),3	45781,(73, 201),3	45784,(79, 201),3	45787,(101, 201),3	45790,(139, 201),3	45793,(195, 201),3	45796,(60, 201),3	45799,(103, 201),3	45802,(158, 201),3	45805,(178, 201),3	45808,(24, 201),3	45811,(30, 201),3	45814,(38, 201),3	45817,(54, 201),3	45820,(68, 201),3	45823,(109, 201),3	45826,(125, 201),3	45829,(127, 201),3	45832,(142, 201),3	45835,(160, 201),3	45838,(175, 201),3	45841,(179, 201),3	45844,(187, 201),3	45847,(194, 201),3	
331,(1, 23),9	340,(1, 24),3	343,(1, 28),9	352,(1, 51),15	367,(1, 63),3	370,(1, 68),9	379,(1, 73),3	382,(1, 77),3	385,(1, 79),6	391,(1, 101),21	412,(1, 113),3	415,(1, 114),24	439,(1, 120),3	442,(1, 121),3	445,(1, 125),6	451,(1, 132),3	454,(1, 143),39	493,(1, 149),12	505,(1, 166),6	511,(1, 179),6	517,(1, 194),9	526,(3, 40),3	529,(3, 50),3	532,(3, 56),6	538,(3, 68),3	541,(3, 89),9	550,(3, 113),9	559,(3, 149),24	583,(3, 170),21	604,(3, 187),6	610,(3, 194),3	613,(3, 195),18	631,(6, 28),9	640,(6, 40),33	673,(6, 42),3	676,(6, 55),18	694,(6, 68),6	700,(6, 103),15	715,(6, 121),3	718,(6, 127),3	721,(6, 132),3	724,(6, 139),12	736,(6, 142),18	754,(6, 149),6	760,(6, 151),6	766,(6, 166),9	775,(6, 175),36	811,(6, 178),3	814,(6, 180),42	856,(6, 198),24	880,(9, 33),3	883,(9, 50),6	889,(9, 60),12	901,(9, 68),30	931,(9, 77),30	961,(9, 109),6	967,(9, 113),18	985,(9, 170),6	991,(9, 171),6	997,(9, 180),18	1015,(11, 30),6	1021,(11, 33),27	1048,(11, 53),9	1057,(11, 60),24	1081,(11, 73),9	1090,(11, 82),3	1093,(11, 101),3	1096,(11, 132),42	1138,(11, 139),3	1141,(11, 158),3	1144,(11, 166),3	1147,(11, 175),12	1159,(11, 179),15	1174,(11, 181),6	1180,(11, 194),3	1183,(12, 30),15	1198,(12, 33),39	1237,(12, 38),9	1246,(12, 56),12	1258,(12, 73),12	1270,(12, 82),6	1276,(12, 94),15	1291,(12, 101),3	1294,(12, 171),3	1297,(1, 133),3	1300,(1, 137),18	1318,(1, 188),3	1321,(12, 151),6	1327,(12, 187),3	1330,(14, 151),3	1333,(3, 26),9	1342,(3, 67),15	1357,(14, 95),12	1369,(15, 38),3	1372,(3, 78),15	1387,(3, 86),3	1390,(3, 114),3	1393,(3, 122),3	1396,(3, 124),3	1399,(3, 168),3	1402,(12, 77),33	1435,(14, 73),36	1471,(14, 149),15	1486,(14, 171),9	1495,(14, 175),12	1507,(15, 50),6	1513,(15, 53),3	1516,(15, 73),24	1540,(15, 79),6	1546,(15, 101),6	1552,(15, 103),3	1555,(15, 139),6	1561,(15, 195),3	1564,(17, 24),9	1573,(17, 30),3	1576,(17, 60),24	1600,(17, 103),6	1606,(17, 158),9	1615,(17, 178),6	1621,(19, 24),3	1624,(19, 30),6	1630,(19, 38),3	1633,(19, 54),3	1636,(19, 68),24	1660,(19, 109),6	1666,(19, 125),15	1681,(19, 127),3	1684,(19, 142),30	1714,(19, 160),15	1729,(19, 175),33	1762,(19, 179),36	1798,(19, 187),6	1804,(19, 194),6	3730,(3, 48),36	4411,(3, 115),12	4423,(6, 23),3	4516,(3, 137),9	4525,(6, 52),3	4528,(6, 122),3	14383,(6, 118),9	14602,(3, 92),21	14704,(6, 153),3	14956,(3, 169),12	14968,(6, 123),6	14974,(6, 124),6	15019,(6, 169),3	15103,(3, 102),30	15181,(6, 183),9	15895,(9, 52),3	17443,(1, 183),42	17488,(1, 130),45	17533,(9, 21),9	17761,(9, 105),3	18325,(9, 137),3	18355,(9, 49),6	18361,(9, 62),6	18985,(1, 46),75	19060,(3, 188),18	19081,(6, 97),15	19096,(9, 141),3	19471,(9, 153),3	19561,(3, 75),36	19597,(9, 199),3	19675,(9, 118),6	19681,(9, 134),9	19735,(6, 75),21	19756,(11, 23),3	19873,(3, 162),27	20098,(9, 75),18	20116,(11, 48),3	20122,(11, 81),3	20176,(11, 115),3	20206,(11, 123),3	20209,(11, 159),3	20917,(11, 188),3	21535,(9, 80),18	21553,(9, 162),9	21595,(3, 81),42	21637,(11, 130),6	21643,(12, 69),3	21655,(11, 35),12	21682,(6, 136),30	21712,(12, 51),6	21793,(12, 78),3	22273,(9, 71),45	22345,(12, 159),3	22411,(11, 80),12	22564,(12, 193),3	22957,(9, 133),18	23173,(14, 84),3	23179,(6, 159),48	23227,(14, 86),3	23248,(3, 105),60	23308,(12, 163),6	23377,(11, 90),15	23446,(11, 193),9	23455,(14, 123),3	23461,(14, 129),3	23521,(11, 183),15	23536,(12, 32),9	23545,(15, 92),3	23551,(12, 63),12	23734,(15, 105),3	23833,(12, 96),12	24007,(9, 196),30	24037,(12, 123),9	24046,(17, 45),3	24130,(12, 186),15	24322,(12, 196),24	24346,(14, 49),6	24709,(17, 75),3	24796,(12, 25),36	24832,(14, 153),6	24901,(12, 49),33	24934,(17, 80),3	25171,(14, 44),33	25204,(14, 172),6	25354,(14, 69),15	25435,(14, 71),12	25447,(15, 102),6	25453,(15, 188),9	25474,(14, 119),18	25492,(17, 88),3	25534,(17, 114),6	25543,(17, 119),3	25579,(17, 122),3	25813,(14, 90),30	25843,(17, 135),9	25930,(9, 26),51	25981,(17, 153),3	25984,(19, 22),3	25993,(19, 80),3	26290,(19, 117),3	26428,(19, 67),6	26509,(9, 135),60	26698,(19, 69),9	26734,(15, 32),18	26779,(15, 122),12	26791,(19, 124),3	26908,(110, 201),3	26938,(145, 201),3	27028,(19, 71),9	27037,(165, 201),3	27043,(85, 201),3	27046,(93, 201),3	27049,(197, 201),3	27055,(37, 201),3	27058,(41, 201),3	27118,(184, 201),3	27121,(58, 201),3	27148,(104, 201),3	27151,(154, 201),3	27253,(14, 155),33	27301,(1, 69),330	27631,(1, 75),96	27727,(1, 123),105	27832,(1, 153),585	28423,(3, 52),588	29011,(3, 88),69	29080,(3, 129),174	29254,(3, 146),87	29341,(3, 157),84	29425,(3, 183),132	29557,(6, 32),249	29806,(6, 51),2580	32386,(6, 69),78	32464,(6, 71),303	32767,(6, 133),63	32830,(6, 137),198	33028,(6, 155),84	33112,(9, 63),123	33235,(9, 97),96	33331,(9, 136),3213	36544,(9, 163),201	36745,(9, 172),60	36805,(11, 44),150	36955,(11, 49),117	37072,(11, 52),60	37132,(11, 75),1266	38398,(11, 118),72	38470,(11, 133),114	38584,(11, 141),78	38662,(12, 22),273	38935,(12, 46),45	38980,(12, 62),213	39193,(12, 67),414	39607,(12, 84),57	39664,(12, 92),48	39712,(12, 102),69	39781,(12, 117),48	39829,(12, 118),135	39964,(12, 129),51	40015,(12, 136),702	40717,(14, 81),96	40813,(14, 105),45	40858,(14, 135),192	41050,(14, 159),198	41248,(14, 186),93	41341,(14, 188),66	41407,(15, 21),33	41440,(15, 35),27	41467,(15, 45),54	41521,(15, 75),18	41539,(15, 84),153	41692,(15, 88),27	41719,(15, 96),117	41836,(15, 123),171	42007,(15, 124),90	42097,(15, 129),45	42142,(15, 155),24	42166,(15, 163),90	42256,(17, 22),228	42484,(17, 35),72	42556,(17, 48),24	42580,(17, 62),195	42775,(17, 69),72	42847,(17, 78),24	42871,(17, 117),87	42958,(17, 123),24	42982,(17, 124),537	43519,(17, 134),60	43579,(17, 136),15	43594,(17, 150),105	43699,(17, 155),48	43747,(17, 163),24	43771,(17, 169),81	43852,(17, 183),51	43903,(17, 186),207	44110,(17, 193),24	44134,(19, 25),18	44152,(19, 35),873	45025,(19, 45),27	45052,(19, 130),111	45163,(19, 141),57	45220,(19, 150),39	45259,(19, 159),12	45271,(19, 163),123	45394,(19, 183),174	45568,(19, 196),135	45850,(106, 201),3	45853,(112, 201),3	45856,(27, 201),3	45859,(65, 201),3	45862,(72, 201),3	45865,(87, 201),3	45868,(192, 201),3	45871,(39, 201),3	45874,(116, 201),3	45877,(126, 201),3	45880,(138, 201),3	45883,(152, 201),3	45886,(177, 201),3	45889,(61, 201),3	45892,(64, 201),3	45895,(74, 201),3	45898,(99, 201),3	45901,(100, 201),3	45904,(107, 201),3	45907,(140, 201),3	45910,(173, 201),3	45913,(182, 201),3	45916,(34, 201),3	45919,(47, 201),3	45922,(70, 201),3	45925,(111, 201),3	45928,(164, 201),3	45931,(167, 201),3	45934,(174, 201),3	45937,(176, 201),3	45940,(185, 201),3	45943,(189, 201),3	45946,(190, 201),3	45949,(29, 201),3	45952,(36, 201),3	45955,(57, 201),3	45958,(83, 201),3	45961,(91, 201),3	45964,(98, 201),3	45967,(108, 201),3	45970,(131, 201),3	45973,(148, 201),3	45976,(161, 201),3	45979,(191, 201),3	45982,(200, 201),3	
