1265
# CPU
7,3,48	55,6,48	103,16,48	151,18,48	199,12,48	247,14,48	295,22,48	343,40,48	643,34,48	727,37,48	775,8,48	823,11,48	871,17,48	919,19,48	967,25,48	1015,28,48	1063,31,48	
4,2,48	52,5,48	100,13,48	202,10,48	544,15,48	592,23,48	640,26,48	772,20,48	973,29,48	1108,32,48	1156,35,48	1204,38,48	
0,0,1	1,1,48	49,4,48	97,30,48	145,27,48	250,21,48	298,24,48	346,39,48	394,7,48	649,9,48	697,33,48	745,36,48	1264,41,1	
# Incoming
4,(0, 3),3	52,(2, 17),39	550,(1, 34),93	643,(1, 37),84	727,(4, 8),3	730,(4, 11),18	748,(4, 17),12	760,(4, 19),9	772,(4, 25),105	877,(4, 28),60	973,(4, 31),3	
1,(0, 2),3	49,(1, 10),153	202,(1, 15),342	544,(1, 23),3	547,(1, 26),3	769,(4, 20),3	937,(4, 29),36	976,(4, 32),132	1108,(4, 35),3	1111,(4, 38),51	
91,(2, 21),159	250,(2, 24),6	256,(2, 39),6	262,(3, 7),6	268,(3, 9),381	649,(3, 33),3	652,(3, 36),3	655,(5, 41),12	667,(6, 41),12	679,(13, 41),12	691,(16, 41),12	703,(18, 41),12	715,(12, 41),12	727,(10, 41),12	739,(14, 41),12	751,(22, 41),12	763,(40, 41),12	775,(15, 41),12	787,(23, 41),12	799,(26, 41),12	811,(34, 41),12	823,(37, 41),12	835,(20, 41),12	847,(8, 41),12	871,(11, 41),12	919,(17, 41),12	967,(19, 41),12	1015,(25, 41),12	1027,(29, 41),12	1063,(28, 41),12	1111,(31, 41),12	1156,(32, 41),12	1204,(35, 41),12	1252,(38, 41),12	
# Outgoing
262,(3, 7),6	268,(3, 9),381	649,(3, 33),3	652,(3, 36),3	667,(6, 41),12	691,(16, 41),12	703,(18, 41),12	715,(12, 41),12	739,(14, 41),12	751,(22, 41),12	763,(40, 41),12	811,(34, 41),12	823,(37, 41),12	847,(8, 41),12	871,(11, 41),12	919,(17, 41),12	967,(19, 41),12	1015,(25, 41),12	1063,(28, 41),12	1111,(31, 41),12	
52,(2, 17),39	91,(2, 21),159	250,(2, 24),6	256,(2, 39),6	655,(5, 41),12	679,(13, 41),12	727,(10, 41),12	775,(15, 41),12	787,(23, 41),12	799,(26, 41),12	835,(20, 41),12	1027,(29, 41),12	1156,(32, 41),12	1204,(35, 41),12	1252,(38, 41),12	
1,(0, 2),3	4,(0, 3),3	49,(1, 10),153	202,(1, 15),342	544,(1, 23),3	547,(1, 26),3	550,(1, 34),93	643,(1, 37),84	727,(4, 8),3	730,(4, 11),18	748,(4, 17),12	760,(4, 19),9	769,(4, 20),3	772,(4, 25),105	877,(4, 28),60	937,(4, 29),36	973,(4, 31),3	976,(4, 32),132	1108,(4, 35),3	1111,(4, 38),51	
