1668
# CPU
7,4,1	8,36,1	9,112,1	13,8,1	14,52,1	19,12,1	20,84,1	21,120,1	22,172,1	23,184,1	25,16,1	26,44,1	27,32,1	28,160,1	31,20,1	32,40,1	33,156,1	34,168,1	35,196,1	59,124,1	78,164,1	89,64,1	90,72,1	93,104,1	94,140,1	111,48,1	121,60,1	123,92,1	160,176,1	165,24,1	168,68,1	189,180,1	217,200,1	225,28,1	227,80,1	233,100,1	234,148,1	698,192,1	800,136,1	1246,76,1	1328,128,1	1344,56,1	1354,96,1	1468,144,1	1513,88,1	1521,116,1	1532,108,1	1541,132,1	1553,152,1	1554,188,1	
5,3,1	6,107,1	11,7,1	12,139,1	17,11,1	18,63,1	19,155,1	23,15,1	24,55,1	25,103,1	26,131,1	27,179,1	29,19,1	30,119,1	31,123,1	1028,79,1	1071,95,1	1103,23,1	1108,163,1	1109,183,1	1195,39,1	1221,187,1	1240,31,1	1241,47,1	1244,71,1	1245,27,1	1253,43,1	1254,59,1	1260,111,1	1324,127,1	1325,115,1	1326,83,1	1327,199,1	1328,35,1	1343,191,1	1344,135,1	1347,67,1	1355,171,1	1374,159,1	1415,167,1	1420,91,1	1433,99,1	1436,151,1	1445,175,1	1466,51,1	1469,147,1	1482,87,1	1531,75,1	1562,195,1	1665,143,1	
3,2,1	4,26,1	5,90,1	6,106,1	7,50,1	8,58,1	9,6,1	10,186,1	11,38,1	12,46,1	13,138,1	15,10,1	21,14,1	22,178,1	27,18,1	28,170,1	33,182,1	124,110,1	166,30,1	167,78,1	696,82,1	697,190,1	1107,118,1	1110,122,1	1124,158,1	1139,22,1	1140,42,1	1158,130,1	1207,154,1	1209,166,1	1225,174,1	1280,54,1	1281,66,1	1287,86,1	1304,142,1	1306,70,1	1310,194,1	1311,198,1	1316,74,1	1321,134,1	1323,146,1	1350,94,1	1457,102,1	1458,114,1	1480,34,1	1500,162,1	1527,62,1	1539,126,1	1543,150,1	1609,98,1	
0,0,1	1,17,1	2,9,1	3,13,1	4,1,1	5,5,1	6,49,1	7,37,1	8,105,1	9,113,1	10,181,1	11,129,1	12,101,1	13,165,1	14,81,1	15,77,1	16,45,1	17,177,1	18,197,1	19,69,1	20,73,1	21,53,1	23,61,1	24,21,1	25,161,1	26,121,1	27,157,1	73,89,1	82,25,1	83,65,1	87,117,1	88,193,1	167,149,1	695,57,1	697,141,1	734,137,1	735,153,1	736,169,1	752,93,1	1121,97,1	1134,29,1	1135,85,1	1136,133,1	1279,185,1	1303,125,1	1305,41,1	1309,173,1	1315,33,1	1317,109,1	1324,189,1	1377,145,1	1667,201,1	
# Incoming
5,(0, 4),2	11,(0, 8),2	17,(0, 12),2	19,(11, 84),1	23,(0, 16),2	25,(15, 44),1	29,(0, 20),2	31,(2, 124),28	59,(2, 192),14	73,(3, 164),5	78,(7, 116),10	88,(10, 64),1	89,(10, 72),1	90,(10, 104),3	93,(10, 140),1	94,(15, 48),17	111,(15, 60),10	121,(15, 92),2	158,(15, 176),2	160,(15, 200),4	164,(19, 24),1	167,(14, 68),1	168,(14, 180),21	189,(14, 200),28	217,(18, 28),8	225,(18, 80),2	227,(18, 100),6	233,(18, 148),1	697,(19, 192),1	753,(19, 136),47	1140,(9, 76),106	1246,(9, 108),9	1324,(9, 128),4	1343,(13, 56),1	1350,(13, 96),4	1458,(13, 144),10	1482,(1, 88),31	1513,(1, 116),8	1531,(5, 108),1	1539,(5, 132),2	1543,(5, 152),10	1553,(5, 188),1	
3,(0, 3),2	5,(2, 107),1	9,(0, 7),2	15,(0, 11),2	21,(0, 15),2	23,(6, 87),2	27,(0, 19),2	29,(6, 123),2	31,(17, 43),18	49,(17, 59),8	57,(17, 71),969	1026,(17, 79),2	1028,(17, 95),43	1071,(2, 135),8	1079,(4, 23),24	1103,(4, 163),5	1108,(4, 183),1	1109,(6, 39),86	1195,(10, 83),4	1199,(10, 91),1	1200,(10, 187),21	1221,(14, 31),19	1240,(14, 47),1	1241,(14, 71),3	1244,(18, 27),1	1245,(18, 35),5	1250,(18, 43),3	1253,(18, 59),1	1255,(9, 111),5	1260,(9, 115),11	1271,(9, 127),53	1324,(8, 115),1	1325,(12, 83),1	1326,(12, 199),1	1327,(20, 35),1	1328,(9, 191),15	1343,(20, 135),1	1344,(13, 67),3	1347,(12, 171),8	1355,(14, 159),19	1374,(14, 167),41	1415,(16, 91),5	1420,(18, 99),13	1433,(18, 151),3	1436,(18, 175),9	1445,(20, 51),21	1466,(20, 143),1	1468,(13, 147),1	1480,(1, 87),2	1527,(5, 75),4	1554,(5, 195),8	1562,(18, 143),103	
1,(0, 2),2	7,(0, 6),2	9,(3, 186),1	13,(0, 10),2	19,(0, 14),2	21,(11, 122),2	25,(0, 18),2	27,(3, 182),6	33,(7, 118),11	45,(11, 74),25	90,(15, 66),3	123,(15, 110),1	124,(15, 158),34	165,(19, 30),1	166,(19, 78),1	695,(19, 82),1	696,(19, 190),1	800,(19, 154),40	1071,(17, 118),36	1107,(17, 122),3	1110,(17, 158),14	1124,(17, 162),14	1138,(9, 22),1	1139,(9, 42),1	1140,(4, 94),17	1157,(4, 130),1	1158,(4, 154),49	1207,(4, 166),2	1209,(4, 174),16	1279,(8, 54),1	1280,(8, 66),1	1281,(8, 86),6	1303,(8, 142),1	1305,(16, 70),1	1306,(16, 94),2	1309,(16, 194),1	1310,(16, 198),1	1315,(20, 74),1	1317,(20, 134),4	1321,(20, 146),2	1347,(13, 94),3	1354,(13, 102),103	1457,(13, 114),1	1469,(1, 34),11	1480,(20, 162),20	1521,(5, 62),6	1532,(5, 126),7	1541,(5, 150),2	1543,(20, 98),66	
6,(26, 201),1	7,(3, 73),1	8,(3, 149),1	9,(90, 201),1	10,(107, 201),1	11,(106, 201),1	12,(50, 201),1	13,(58, 201),1	14,(6, 29),1	15,(6, 53),1	16,(6, 61),7	23,(7, 21),1	24,(7, 161),1	25,(6, 121),1	26,(6, 157),1	27,(186, 201),1	28,(38, 201),1	44,(139, 201),1	70,(11, 89),3	73,(46, 201),1	74,(138, 201),1	75,(10, 25),6	81,(14, 25),1	82,(14, 65),1	83,(14, 93),1	84,(14, 117),3	87,(14, 193),1	88,(63, 201),1	89,(155, 201),1	93,(15, 93),1	94,(10, 149),73	167,(11, 57),528	695,(14, 141),2	697,(178, 201),1	698,(15, 125),34	732,(15, 137),2	734,(15, 153),1	735,(15, 169),1	736,(55, 201),1	737,(103, 201),1	738,(131, 201),1	739,(18, 93),13	752,(179, 201),1	753,(170, 201),1	754,(182, 201),1	755,(110, 201),1	756,(30, 201),1	757,(78, 201),1	758,(82, 201),1	759,(190, 201),1	840,(119, 201),1	841,(123, 201),1	1029,(79, 201),1	1072,(95, 201),1	1104,(23, 201),1	1108,(118, 201),1	1109,(36, 201),1	1110,(112, 201),1	1111,(8, 97),10	1121,(8, 109),7	1128,(52, 201),1	1129,(12, 29),5	1134,(12, 85),1	1135,(12, 133),1	1136,(84, 201),1	1137,(120, 201),1	1138,(172, 201),1	1139,(184, 201),1	1140,(163, 201),1	1141,(183, 201),1	1196,(39, 201),1	1222,(187, 201),1	1225,(4, 185),54	1279,(122, 201),1	1280,(158, 201),1	1281,(22, 201),1	1282,(42, 201),1	1283,(130, 201),1	1284,(154, 201),1	1285,(166, 201),1	1286,(174, 201),1	1287,(8, 125),16	1303,(31, 201),1	1304,(16, 41),1	1305,(47, 201),1	1306,(71, 201),1	1307,(27, 201),1	1308,(16, 173),1	1309,(43, 201),1	1310,(59, 201),1	1311,(44, 201),1	1312,(32, 201),1	1313,(160, 201),1	1314,(20, 33),1	1315,(111, 201),1	1316,(20, 109),1	1317,(54, 201),1	1318,(66, 201),1	1319,(86, 201),1	1320,(142, 201),1	1321,(70, 201),1	1322,(194, 201),1	1323,(20, 189),1	1324,(198, 201),1	1325,(74, 201),1	1326,(134, 201),1	1327,(146, 201),1	1328,(40, 201),1	1329,(156, 201),1	1330,(168, 201),1	1331,(196, 201),1	1332,(124, 201),1	1333,(164, 201),1	1334,(64, 201),1	1335,(72, 201),1	1336,(104, 201),1	1337,(140, 201),1	1338,(48, 201),1	1339,(60, 201),1	1340,(92, 201),1	1341,(176, 201),1	1342,(24, 201),1	1343,(127, 201),1	1344,(68, 201),1	1345,(180, 201),1	1346,(200, 201),1	1347,(115, 201),1	1348,(83, 201),1	1349,(199, 201),1	1350,(35, 201),1	1351,(191, 201),1	1352,(135, 201),1	1353,(67, 201),1	1354,(94, 201),1	1355,(20, 145),22	1377,(28, 201),1	1378,(80, 201),1	1379,(100, 201),1	1380,(148, 201),1	1381,(192, 201),1	1382,(136, 201),1	1383,(76, 201),1	1384,(128, 201),1	1385,(56, 201),1	1386,(96, 201),1	1387,(171, 201),1	1388,(159, 201),1	1416,(167, 201),1	1421,(91, 201),1	1434,(99, 201),1	1437,(151, 201),1	1446,(175, 201),1	1458,(102, 201),1	1459,(114, 201),1	1467,(51, 201),1	1469,(144, 201),1	1470,(147, 201),1	1481,(34, 201),1	1483,(87, 201),1	1501,(162, 201),1	1514,(88, 201),1	1522,(116, 201),1	1528,(62, 201),1	1532,(75, 201),1	1533,(108, 201),1	1540,(126, 201),1	1542,(132, 201),1	1544,(150, 201),1	1563,(195, 201),1	1609,(152, 201),1	1610,(188, 201),1	1665,(98, 201),1	1666,(143, 201),1	
# Outgoing
1079,(4, 23),24	1103,(4, 163),5	1108,(4, 183),1	1109,(36, 201),1	1110,(112, 201),1	1111,(8, 97),10	1121,(8, 109),7	1128,(52, 201),1	1129,(12, 29),5	1134,(12, 85),1	1135,(12, 133),1	1136,(84, 201),1	1137,(120, 201),1	1138,(172, 201),1	1139,(184, 201),1	1140,(4, 94),17	1157,(4, 130),1	1158,(4, 154),49	1207,(4, 166),2	1209,(4, 174),16	1225,(4, 185),54	1279,(8, 54),1	1280,(8, 66),1	1281,(8, 86),6	1287,(8, 125),16	1303,(8, 142),1	1304,(16, 41),1	1305,(16, 70),1	1306,(16, 94),2	1308,(16, 173),1	1309,(16, 194),1	1310,(16, 198),1	1311,(44, 201),1	1312,(32, 201),1	1313,(160, 201),1	1314,(20, 33),1	1315,(20, 74),1	1316,(20, 109),1	1317,(20, 134),4	1321,(20, 146),2	1323,(20, 189),1	1324,(8, 115),1	1325,(12, 83),1	1326,(12, 199),1	1327,(20, 35),1	1328,(40, 201),1	1329,(156, 201),1	1330,(168, 201),1	1331,(196, 201),1	1332,(124, 201),1	1333,(164, 201),1	1334,(64, 201),1	1335,(72, 201),1	1336,(104, 201),1	1337,(140, 201),1	1338,(48, 201),1	1339,(60, 201),1	1340,(92, 201),1	1341,(176, 201),1	1342,(24, 201),1	1343,(20, 135),1	1344,(68, 201),1	1345,(180, 201),1	1346,(200, 201),1	1347,(12, 171),8	1355,(20, 145),22	1377,(28, 201),1	1378,(80, 201),1	1379,(100, 201),1	1380,(148, 201),1	1381,(192, 201),1	1382,(136, 201),1	1383,(76, 201),1	1384,(128, 201),1	1385,(56, 201),1	1386,(96, 201),1	1415,(16, 91),5	1445,(20, 51),21	1466,(20, 143),1	1469,(144, 201),1	1480,(20, 162),20	1514,(88, 201),1	1522,(116, 201),1	1533,(108, 201),1	1542,(132, 201),1	1543,(20, 98),66	1609,(152, 201),1	1610,(188, 201),1	
7,(3, 73),1	8,(3, 149),1	9,(3, 186),1	10,(107, 201),1	19,(11, 84),1	21,(11, 122),2	23,(7, 21),1	24,(7, 161),1	25,(15, 44),1	27,(3, 182),6	33,(7, 118),11	44,(139, 201),1	45,(11, 74),25	70,(11, 89),3	73,(3, 164),5	78,(7, 116),10	88,(63, 201),1	89,(155, 201),1	90,(15, 66),3	93,(15, 93),1	94,(15, 48),17	111,(15, 60),10	121,(15, 92),2	123,(15, 110),1	124,(15, 158),34	158,(15, 176),2	160,(15, 200),4	164,(19, 24),1	165,(19, 30),1	166,(19, 78),1	167,(11, 57),528	695,(19, 82),1	696,(19, 190),1	697,(19, 192),1	698,(15, 125),34	732,(15, 137),2	734,(15, 153),1	735,(15, 169),1	736,(55, 201),1	737,(103, 201),1	738,(131, 201),1	752,(179, 201),1	753,(19, 136),47	800,(19, 154),40	840,(119, 201),1	841,(123, 201),1	1029,(79, 201),1	1072,(95, 201),1	1104,(23, 201),1	1140,(163, 201),1	1141,(183, 201),1	1196,(39, 201),1	1222,(187, 201),1	1303,(31, 201),1	1305,(47, 201),1	1306,(71, 201),1	1307,(27, 201),1	1309,(43, 201),1	1310,(59, 201),1	1315,(111, 201),1	1343,(127, 201),1	1347,(115, 201),1	1348,(83, 201),1	1349,(199, 201),1	1350,(35, 201),1	1351,(191, 201),1	1352,(135, 201),1	1353,(67, 201),1	1387,(171, 201),1	1388,(159, 201),1	1416,(167, 201),1	1421,(91, 201),1	1434,(99, 201),1	1437,(151, 201),1	1446,(175, 201),1	1467,(51, 201),1	1470,(147, 201),1	1483,(87, 201),1	1532,(75, 201),1	1563,(195, 201),1	1666,(143, 201),1	
5,(2, 107),1	6,(26, 201),1	9,(90, 201),1	11,(106, 201),1	12,(50, 201),1	13,(58, 201),1	14,(6, 29),1	15,(6, 53),1	16,(6, 61),7	23,(6, 87),2	25,(6, 121),1	26,(6, 157),1	27,(186, 201),1	28,(38, 201),1	29,(6, 123),2	31,(2, 124),28	59,(2, 192),14	73,(46, 201),1	74,(138, 201),1	75,(10, 25),6	81,(14, 25),1	82,(14, 65),1	83,(14, 93),1	84,(14, 117),3	87,(14, 193),1	88,(10, 64),1	89,(10, 72),1	90,(10, 104),3	93,(10, 140),1	94,(10, 149),73	167,(14, 68),1	168,(14, 180),21	189,(14, 200),28	217,(18, 28),8	225,(18, 80),2	227,(18, 100),6	233,(18, 148),1	695,(14, 141),2	697,(178, 201),1	739,(18, 93),13	753,(170, 201),1	754,(182, 201),1	755,(110, 201),1	756,(30, 201),1	757,(78, 201),1	758,(82, 201),1	759,(190, 201),1	1071,(2, 135),8	1108,(118, 201),1	1109,(6, 39),86	1195,(10, 83),4	1199,(10, 91),1	1200,(10, 187),21	1221,(14, 31),19	1240,(14, 47),1	1241,(14, 71),3	1244,(18, 27),1	1245,(18, 35),5	1250,(18, 43),3	1253,(18, 59),1	1279,(122, 201),1	1280,(158, 201),1	1281,(22, 201),1	1282,(42, 201),1	1283,(130, 201),1	1284,(154, 201),1	1285,(166, 201),1	1286,(174, 201),1	1317,(54, 201),1	1318,(66, 201),1	1319,(86, 201),1	1320,(142, 201),1	1321,(70, 201),1	1322,(194, 201),1	1324,(198, 201),1	1325,(74, 201),1	1326,(134, 201),1	1327,(146, 201),1	1354,(94, 201),1	1355,(14, 159),19	1374,(14, 167),41	1420,(18, 99),13	1433,(18, 151),3	1436,(18, 175),9	1458,(102, 201),1	1459,(114, 201),1	1481,(34, 201),1	1501,(162, 201),1	1528,(62, 201),1	1540,(126, 201),1	1544,(150, 201),1	1562,(18, 143),103	1665,(98, 201),1	
1,(0, 2),2	3,(0, 3),2	5,(0, 4),2	7,(0, 6),2	9,(0, 7),2	11,(0, 8),2	13,(0, 10),2	15,(0, 11),2	17,(0, 12),2	19,(0, 14),2	21,(0, 15),2	23,(0, 16),2	25,(0, 18),2	27,(0, 19),2	29,(0, 20),2	31,(17, 43),18	49,(17, 59),8	57,(17, 71),969	1026,(17, 79),2	1028,(17, 95),43	1071,(17, 118),36	1107,(17, 122),3	1110,(17, 158),14	1124,(17, 162),14	1138,(9, 22),1	1139,(9, 42),1	1140,(9, 76),106	1246,(9, 108),9	1255,(9, 111),5	1260,(9, 115),11	1271,(9, 127),53	1324,(9, 128),4	1328,(9, 191),15	1343,(13, 56),1	1344,(13, 67),3	1347,(13, 94),3	1350,(13, 96),4	1354,(13, 102),103	1457,(13, 114),1	1458,(13, 144),10	1468,(13, 147),1	1469,(1, 34),11	1480,(1, 87),2	1482,(1, 88),31	1513,(1, 116),8	1521,(5, 62),6	1527,(5, 75),4	1531,(5, 108),1	1532,(5, 126),7	1539,(5, 132),2	1541,(5, 150),2	1543,(5, 152),10	1553,(5, 188),1	1554,(5, 195),8	
