570
# CPU
41,9,12	73,14,12	93,5,12	161,11,12	173,17,12	
31,2,12	43,4,12	55,16,12	67,7,12	79,10,12	91,13,12	103,19,12	
0,0,1	1,1,12	13,3,12	25,6,12	37,12,12	135,8,12	165,15,12	295,18,12	553,20,12	569,21,1	
# Incoming
39,(1, 9),2	43,(1, 14),30	73,(2, 5),20	135,(2, 11),26	165,(2, 17),2	
1,(0, 2),30	31,(1, 4),8	41,(1, 13),2	73,(1, 19),12	
93,(2, 8),42	135,(9, 21),2	137,(14, 21),2	139,(5, 21),2	161,(2, 15),4	167,(2, 18),128	295,(2, 20),258	553,(4, 21),2	555,(16, 21),2	557,(7, 21),2	559,(10, 21),2	561,(13, 21),2	563,(19, 21),2	565,(11, 21),2	567,(17, 21),2	
# Outgoing
135,(9, 21),2	137,(14, 21),2	139,(5, 21),2	565,(11, 21),2	567,(17, 21),2	
73,(2, 5),20	93,(2, 8),42	135,(2, 11),26	161,(2, 15),4	165,(2, 17),2	167,(2, 18),128	295,(2, 20),258	553,(4, 21),2	555,(16, 21),2	557,(7, 21),2	559,(10, 21),2	561,(13, 21),2	563,(19, 21),2	
1,(0, 2),30	31,(1, 4),8	39,(1, 9),2	41,(1, 13),2	43,(1, 14),30	73,(1, 19),12	
