573
# CPU
122,10,10	134,13,10	144,17,10	
71,12,10	104,16,10	114,7,10	
26,5,10	74,14,10	239,19,10	365,20,10	
4,2,10	14,4,10	24,11,10	68,9,10	218,18,10	572,21,1	
0,0,1	1,1,10	11,8,10	21,15,10	44,3,10	101,6,10	
# Incoming
113,(2, 10),9	122,(2, 13),12	134,(2, 17),9	
68,(1, 12),3	74,(1, 16),30	104,(2, 7),9	
11,(1, 5),15	71,(1, 14),3	218,(1, 19),21	239,(1, 20),9	248,(2, 20),117	
1,(0, 2),3	26,(1, 9),42	68,(5, 21),27	104,(1, 18),114	218,(12, 21),27	248,(8, 21),27	275,(15, 21),27	302,(3, 21),27	329,(14, 21),27	356,(6, 21),27	383,(16, 21),27	410,(7, 21),27	437,(10, 21),27	464,(13, 21),27	491,(17, 21),27	518,(19, 21),27	545,(20, 21),27	
14,(2, 3),30	44,(2, 6),57	
# Outgoing
437,(10, 21),27	464,(13, 21),27	491,(17, 21),27	
218,(12, 21),27	383,(16, 21),27	410,(7, 21),27	
68,(5, 21),27	329,(14, 21),27	518,(19, 21),27	545,(20, 21),27	
14,(2, 3),30	44,(2, 6),57	104,(2, 7),9	113,(2, 10),9	122,(2, 13),12	134,(2, 17),9	248,(2, 20),117	
1,(0, 2),3	11,(1, 5),15	26,(1, 9),42	68,(1, 12),3	71,(1, 14),3	74,(1, 16),30	104,(1, 18),114	218,(1, 19),21	239,(1, 20),9	248,(8, 21),27	275,(15, 21),27	302,(3, 21),27	356,(6, 21),27	
