161
# CPU
29,1,7	36,5,7	43,11,7	50,17,7	57,8,7	64,14,7	71,3,7	85,10,7	97,13,7	121,15,7	
0,0,1	1,2,7	8,6,7	15,16,7	22,20,7	29,12,7	36,19,7	60,4,7	88,7,7	95,9,7	124,18,7	160,21,1	
# Incoming
1,(0, 1),28	29,(2, 3),28	57,(2, 10),28	85,(2, 13),12	97,(2, 15),24	
36,(1, 4),24	60,(1, 7),28	88,(1, 9),4	92,(1, 18),32	124,(5, 21),4	128,(11, 21),4	132,(17, 21),4	136,(8, 21),4	140,(14, 21),4	144,(3, 21),4	148,(10, 21),4	152,(13, 21),4	156,(15, 21),4	
# Outgoing
36,(1, 4),24	60,(1, 7),28	88,(1, 9),4	92,(1, 18),32	124,(5, 21),4	128,(11, 21),4	132,(17, 21),4	136,(8, 21),4	140,(14, 21),4	144,(3, 21),4	148,(10, 21),4	152,(13, 21),4	156,(15, 21),4	
1,(0, 1),28	29,(2, 3),28	57,(2, 10),28	85,(2, 13),12	97,(2, 15),24	
