2510
# CPU
37,10,2	39,71,2	41,98,2	43,99,2	61,112,2	65,160,2	69,118,2	73,20,2	75,153,2	85,65,2	105,142,2	109,106,2	125,146,2	137,62,2	209,163,2	217,169,2	221,67,2	257,180,2	265,60,2	277,109,2	281,121,2	289,198,2	293,136,2	297,192,2	301,114,2	321,149,2	345,96,2	361,132,2	389,127,2	393,79,2	405,47,2	413,116,2	421,157,2	433,176,2	467,108,2	471,124,2	487,110,2	497,56,2	505,129,2	565,139,2	641,172,2	697,184,2	769,86,2	773,93,2	921,111,2	1539,188,2	1963,166,2	
33,9,2	35,57,2	37,145,2	39,183,2	41,196,2	43,191,2	45,45,2	55,115,2	59,168,2	65,148,2	69,19,2	71,95,2	73,76,2	77,89,2	81,113,2	85,119,2	105,85,2	125,51,2	133,133,2	137,179,2	217,171,2	221,46,2	225,155,2	229,165,2	237,117,2	249,100,2	289,130,2	297,70,2	305,137,2	345,102,2	357,126,2	369,159,2	389,187,2	417,97,2	421,128,2	425,141,2	477,162,2	605,151,2	733,175,2	789,123,2	
29,8,2	31,39,2	33,44,2	35,140,2	47,69,2	65,18,2	85,161,2	89,170,2	109,52,2	117,174,2	161,91,2	181,82,2	185,182,2	201,190,2	221,167,2	225,87,2	361,186,2	365,150,2	439,104,2	471,178,2	475,144,2	479,158,2	509,147,2	533,195,2	537,200,2	561,50,2	573,75,2	721,164,2	849,134,2	1813,154,2	
25,7,2	27,73,2	51,181,2	61,17,2	69,68,2	73,185,2	113,42,2	173,38,2	213,173,2	221,81,2	269,84,2	431,35,2	491,199,2	537,194,2	617,88,2	729,177,2	1515,152,2	1603,189,2	2509,201,1	
21,6,2	47,33,2	57,16,2	59,36,2	73,37,2	93,64,2	361,32,2	525,193,2	689,143,2	769,107,2	837,80,2	
17,5,2	35,29,2	53,15,2	93,30,2	237,78,2	481,120,2	597,131,2	765,66,2	921,74,2	1037,138,2	
13,4,2	39,28,2	49,14,2	101,27,2	201,61,2	417,135,2	573,125,2	873,197,2	893,48,2	997,72,2	1021,59,2	1301,156,2	1435,122,2	
9,3,2	11,23,2	13,83,2	15,105,2	45,13,2	97,24,2	149,55,2	257,63,2	289,43,2	
5,2,2	7,22,2	9,92,2	41,12,2	73,26,2	321,77,2	377,34,2	493,54,2	673,58,2	897,90,2	1761,103,2	2089,94,2	
0,0,1	1,1,2	3,11,2	71,40,2	379,49,2	427,25,2	499,41,2	1319,101,2	1863,53,2	1899,21,2	1959,31,2	
# Incoming
33,(0, 10),4	37,(4, 99),4	41,(4, 112),20	61,(6, 160),4	65,(16, 118),4	69,(0, 20),4	73,(2, 65),12	85,(4, 142),20	105,(2, 106),4	109,(4, 146),16	125,(1, 62),12	137,(4, 163),72	209,(4, 169),8	217,(5, 67),4	221,(6, 180),36	257,(8, 60),8	265,(8, 109),12	277,(8, 121),4	281,(8, 198),8	289,(12, 136),4	293,(12, 192),4	297,(14, 114),4	305,(8, 149),16	321,(3, 96),24	357,(3, 132),4	361,(8, 127),28	389,(18, 79),4	401,(13, 47),4	405,(13, 116),8	417,(1, 157),4	421,(1, 176),12	439,(7, 108),28	467,(7, 124),4	471,(9, 110),16	493,(11, 56),4	497,(9, 129),8	505,(16, 139),60	573,(12, 172),68	641,(14, 184),56	765,(17, 86),4	769,(17, 93),4	897,(18, 111),24	1515,(15, 188),24	1899,(17, 166),64	
29,(0, 9),4	35,(6, 191),4	39,(10, 45),4	47,(10, 115),8	55,(10, 168),4	61,(4, 148),4	65,(0, 19),4	69,(16, 76),4	73,(16, 89),4	77,(16, 113),4	81,(16, 119),4	85,(2, 85),20	113,(1, 51),12	125,(2, 133),8	133,(2, 179),4	161,(6, 171),56	217,(12, 46),4	221,(12, 155),4	225,(12, 165),4	233,(15, 117),4	237,(1, 100),12	249,(5, 130),40	289,(8, 70),8	297,(8, 137),8	305,(12, 102),40	345,(3, 126),12	357,(12, 159),12	369,(14, 187),20	389,(15, 97),28	417,(15, 128),4	421,(18, 141),4	425,(18, 162),52	565,(16, 151),40	721,(7, 175),12	773,(17, 123),16	
25,(0, 8),4	43,(10, 69),4	61,(0, 18),4	65,(4, 161),20	85,(10, 170),4	93,(3, 52),16	109,(2, 174),8	117,(6, 91),44	173,(12, 82),8	181,(12, 182),4	185,(12, 190),16	217,(16, 167),4	221,(14, 87),4	289,(15, 186),72	361,(3, 150),4	379,(7, 104),60	467,(19, 178),4	471,(17, 144),4	475,(17, 158),4	497,(11, 147),12	509,(11, 195),24	533,(11, 200),4	549,(19, 50),12	561,(19, 75),12	689,(7, 164),32	789,(17, 134),60	1761,(17, 154),52	
21,(0, 7),4	47,(5, 181),4	57,(0, 17),4	61,(10, 68),8	69,(10, 185),4	73,(71, 201),12	85,(33, 201),12	97,(1, 42),16	113,(98, 201),12	125,(28, 201),12	137,(22, 201),12	149,(92, 201),12	161,(12, 38),12	201,(5, 173),12	217,(14, 81),4	221,(29, 201),12	233,(12, 84),36	269,(99, 201),12	289,(36, 201),12	301,(112, 201),12	321,(39, 201),12	333,(44, 201),12	345,(140, 201),12	365,(23, 201),12	377,(83, 201),12	389,(105, 201),12	401,(69, 201),12	413,(160, 201),12	427,(9, 35),4	431,(57, 201),12	443,(145, 201),12	455,(183, 201),12	467,(118, 201),12	487,(19, 199),4	491,(37, 201),12	505,(196, 201),12	517,(191, 201),12	529,(13, 194),8	537,(45, 201),12	549,(14, 88),68	617,(115, 201),12	629,(168, 201),12	641,(148, 201),12	653,(40, 201),12	665,(95, 201),12	677,(20, 177),52	729,(76, 201),12	741,(153, 201),12	753,(89, 201),12	769,(26, 201),12	781,(65, 201),12	793,(64, 201),12	805,(27, 201),12	817,(142, 201),12	837,(113, 201),12	849,(119, 201),12	861,(85, 201),12	873,(106, 201),12	885,(146, 201),12	897,(51, 201),12	909,(133, 201),12	921,(161, 201),12	933,(170, 201),12	945,(24, 201),12	957,(52, 201),12	969,(174, 201),12	981,(62, 201),12	993,(55, 201),12	1005,(61, 201),12	1021,(91, 201),12	1033,(82, 201),12	1045,(182, 201),12	1057,(190, 201),12	1069,(163, 201),12	1081,(169, 201),12	1093,(67, 201),12	1105,(167, 201),12	1117,(87, 201),12	1129,(63, 201),12	1141,(180, 201),12	1153,(60, 201),12	1165,(109, 201),12	1177,(121, 201),12	1189,(43, 201),12	1201,(198, 201),12	1213,(136, 201),12	1225,(192, 201),12	1237,(114, 201),12	1249,(77, 201),12	1261,(149, 201),12	1273,(96, 201),12	1285,(186, 201),12	1301,(179, 201),12	1313,(171, 201),12	1325,(46, 201),12	1337,(155, 201),12	1349,(165, 201),12	1361,(117, 201),12	1373,(100, 201),12	1385,(130, 201),12	1397,(70, 201),12	1409,(137, 201),12	1421,(102, 201),12	1435,(15, 152),80	1515,(126, 201),12	1527,(132, 201),12	1539,(15, 189),64	1603,(30, 201),12	1615,(78, 201),12	1627,(150, 201),12	1639,(159, 201),12	1651,(34, 201),12	1663,(49, 201),12	1675,(127, 201),12	1687,(187, 201),12	1699,(79, 201),12	1711,(47, 201),12	1723,(116, 201),12	1735,(135, 201),12	1747,(97, 201),12	1759,(128, 201),12	1771,(141, 201),12	1783,(25, 201),12	1795,(104, 201),12	1807,(178, 201),12	1819,(144, 201),12	1831,(162, 201),12	1843,(158, 201),12	1863,(32, 201),12	1875,(120, 201),12	1887,(54, 201),12	1899,(41, 201),12	1911,(193, 201),12	1923,(125, 201),12	1935,(131, 201),12	1947,(151, 201),12	1959,(147, 201),12	1971,(195, 201),12	1983,(200, 201),12	1995,(50, 201),12	2007,(75, 201),12	2019,(58, 201),12	2031,(143, 201),12	2043,(164, 201),12	2055,(175, 201),12	2067,(66, 201),12	2089,(157, 201),12	2101,(176, 201),12	2113,(108, 201),12	2125,(124, 201),12	2137,(110, 201),12	2149,(56, 201),12	2161,(129, 201),12	2173,(139, 201),12	2185,(172, 201),12	2197,(184, 201),12	2209,(107, 201),12	2221,(86, 201),12	2233,(93, 201),12	2245,(123, 201),12	2257,(80, 201),12	2269,(134, 201),12	2281,(197, 201),12	2293,(48, 201),12	2305,(90, 201),12	2317,(74, 201),12	2329,(111, 201),12	2341,(72, 201),12	2353,(59, 201),12	2365,(138, 201),12	2377,(156, 201),12	2389,(101, 201),12	2401,(122, 201),12	2413,(188, 201),12	2425,(103, 201),12	2437,(154, 201),12	2449,(53, 201),12	2461,(21, 201),12	2473,(31, 201),12	2485,(166, 201),12	2497,(94, 201),12	
17,(0, 6),4	39,(5, 33),8	53,(0, 16),4	57,(5, 37),16	73,(5, 64),20	357,(18, 32),4	413,(13, 193),112	597,(7, 143),92	689,(12, 107),80	769,(19, 80),68	
13,(0, 5),4	23,(6, 29),12	49,(0, 15),4	73,(3, 30),20	137,(1, 78),100	377,(6, 120),104	481,(7, 131),116	733,(17, 66),32	873,(13, 74),48	921,(19, 138),116	
9,(0, 4),4	19,(5, 28),20	45,(0, 14),4	89,(20, 27),12	149,(5, 61),52	249,(1, 135),168	417,(2, 125),156	573,(3, 197),300	873,(17, 48),20	893,(17, 72),104	997,(18, 59),24	1037,(19, 156),264	1319,(15, 122),116	
5,(0, 3),4	41,(0, 13),4	73,(1, 24),24	97,(5, 55),52	149,(10, 63),108	257,(16, 43),32	
1,(0, 2),4	37,(0, 12),4	41,(3, 26),32	109,(3, 77),212	321,(6, 34),56	433,(11, 54),60	493,(18, 58),180	673,(18, 90),224	997,(17, 103),764	1761,(20, 94),328	
7,(2, 40),64	71,(7, 49),308	379,(9, 25),48	427,(15, 41),72	499,(15, 101),820	1319,(16, 53),544	1863,(17, 21),36	1899,(18, 31),60	
# Outgoing
39,(10, 45),4	43,(10, 69),4	47,(10, 115),8	55,(10, 168),4	61,(10, 68),8	69,(10, 185),4	73,(71, 201),12	85,(10, 170),4	89,(20, 27),12	113,(98, 201),12	149,(10, 63),108	269,(99, 201),12	301,(112, 201),12	413,(160, 201),12	467,(118, 201),12	677,(20, 177),52	741,(153, 201),12	781,(65, 201),12	817,(142, 201),12	873,(106, 201),12	885,(146, 201),12	981,(62, 201),12	1069,(163, 201),12	1081,(169, 201),12	1093,(67, 201),12	1141,(180, 201),12	1153,(60, 201),12	1165,(109, 201),12	1177,(121, 201),12	1201,(198, 201),12	1213,(136, 201),12	1225,(192, 201),12	1237,(114, 201),12	1261,(149, 201),12	1273,(96, 201),12	1527,(132, 201),12	1675,(127, 201),12	1699,(79, 201),12	1711,(47, 201),12	1723,(116, 201),12	1761,(20, 94),328	2089,(157, 201),12	2101,(176, 201),12	2113,(108, 201),12	2125,(124, 201),12	2137,(110, 201),12	2149,(56, 201),12	2161,(129, 201),12	2173,(139, 201),12	2185,(172, 201),12	2197,(184, 201),12	2221,(86, 201),12	2233,(93, 201),12	2329,(111, 201),12	2413,(188, 201),12	2485,(166, 201),12	
379,(9, 25),48	427,(9, 35),4	431,(57, 201),12	443,(145, 201),12	455,(183, 201),12	467,(19, 178),4	471,(9, 110),16	487,(19, 199),4	497,(9, 129),8	505,(196, 201),12	517,(191, 201),12	537,(45, 201),12	549,(19, 50),12	561,(19, 75),12	617,(115, 201),12	629,(168, 201),12	641,(148, 201),12	665,(95, 201),12	729,(76, 201),12	753,(89, 201),12	769,(19, 80),68	837,(113, 201),12	849,(119, 201),12	861,(85, 201),12	897,(51, 201),12	909,(133, 201),12	921,(19, 138),116	1037,(19, 156),264	1301,(179, 201),12	1313,(171, 201),12	1325,(46, 201),12	1337,(155, 201),12	1349,(165, 201),12	1361,(117, 201),12	1373,(100, 201),12	1385,(130, 201),12	1397,(70, 201),12	1409,(137, 201),12	1421,(102, 201),12	1515,(126, 201),12	1639,(159, 201),12	1687,(187, 201),12	1747,(97, 201),12	1759,(128, 201),12	1771,(141, 201),12	1831,(162, 201),12	1947,(151, 201),12	2055,(175, 201),12	2245,(123, 201),12	
257,(8, 60),8	265,(8, 109),12	277,(8, 121),4	281,(8, 198),8	289,(8, 70),8	297,(8, 137),8	305,(8, 149),16	321,(39, 201),12	333,(44, 201),12	345,(140, 201),12	357,(18, 32),4	361,(8, 127),28	389,(18, 79),4	401,(69, 201),12	421,(18, 141),4	425,(18, 162),52	493,(18, 58),180	673,(18, 90),224	897,(18, 111),24	921,(161, 201),12	933,(170, 201),12	957,(52, 201),12	969,(174, 201),12	997,(18, 59),24	1021,(91, 201),12	1033,(82, 201),12	1045,(182, 201),12	1057,(190, 201),12	1105,(167, 201),12	1117,(87, 201),12	1285,(186, 201),12	1627,(150, 201),12	1795,(104, 201),12	1807,(178, 201),12	1819,(144, 201),12	1843,(158, 201),12	1899,(18, 31),60	1959,(147, 201),12	1971,(195, 201),12	1983,(200, 201),12	1995,(50, 201),12	2007,(75, 201),12	2043,(164, 201),12	2269,(134, 201),12	2437,(154, 201),12	
71,(7, 49),308	379,(7, 104),60	439,(7, 108),28	467,(7, 124),4	471,(17, 144),4	475,(17, 158),4	481,(7, 131),116	597,(7, 143),92	689,(7, 164),32	721,(7, 175),12	733,(17, 66),32	765,(17, 86),4	769,(17, 93),4	773,(17, 123),16	789,(17, 134),60	873,(17, 48),20	893,(17, 72),104	997,(17, 103),764	1761,(17, 154),52	1863,(17, 21),36	1899,(17, 166),64	
23,(6, 29),12	35,(6, 191),4	61,(6, 160),4	65,(16, 118),4	69,(16, 76),4	73,(16, 89),4	77,(16, 113),4	81,(16, 119),4	85,(33, 201),12	117,(6, 91),44	161,(6, 171),56	217,(16, 167),4	221,(6, 180),36	257,(16, 43),32	289,(36, 201),12	321,(6, 34),56	377,(6, 120),104	491,(37, 201),12	505,(16, 139),60	565,(16, 151),40	793,(64, 201),12	1319,(16, 53),544	1863,(32, 201),12	1911,(193, 201),12	2031,(143, 201),12	2209,(107, 201),12	2257,(80, 201),12	
19,(5, 28),20	39,(5, 33),8	47,(5, 181),4	57,(5, 37),16	73,(5, 64),20	97,(5, 55),52	149,(5, 61),52	201,(5, 173),12	217,(5, 67),4	221,(29, 201),12	233,(15, 117),4	249,(5, 130),40	289,(15, 186),72	389,(15, 97),28	417,(15, 128),4	427,(15, 41),72	499,(15, 101),820	1319,(15, 122),116	1435,(15, 152),80	1515,(15, 188),24	1539,(15, 189),64	1603,(30, 201),12	1615,(78, 201),12	1875,(120, 201),12	1935,(131, 201),12	2067,(66, 201),12	2317,(74, 201),12	2365,(138, 201),12	
37,(4, 99),4	41,(4, 112),20	61,(4, 148),4	65,(4, 161),20	85,(4, 142),20	109,(4, 146),16	125,(28, 201),12	137,(4, 163),72	209,(4, 169),8	217,(14, 81),4	221,(14, 87),4	297,(14, 114),4	369,(14, 187),20	549,(14, 88),68	641,(14, 184),56	805,(27, 201),12	1005,(61, 201),12	1735,(135, 201),12	1923,(125, 201),12	2281,(197, 201),12	2293,(48, 201),12	2341,(72, 201),12	2353,(59, 201),12	2377,(156, 201),12	2401,(122, 201),12	
41,(3, 26),32	73,(3, 30),20	93,(3, 52),16	109,(3, 77),212	321,(3, 96),24	345,(3, 126),12	357,(3, 132),4	361,(3, 150),4	365,(23, 201),12	377,(83, 201),12	389,(105, 201),12	401,(13, 47),4	405,(13, 116),8	413,(13, 193),112	529,(13, 194),8	573,(3, 197),300	873,(13, 74),48	945,(24, 201),12	993,(55, 201),12	1129,(63, 201),12	1189,(43, 201),12	
7,(2, 40),64	73,(2, 65),12	85,(2, 85),20	105,(2, 106),4	109,(2, 174),8	125,(2, 133),8	133,(2, 179),4	137,(22, 201),12	149,(92, 201),12	161,(12, 38),12	173,(12, 82),8	181,(12, 182),4	185,(12, 190),16	217,(12, 46),4	221,(12, 155),4	225,(12, 165),4	233,(12, 84),36	289,(12, 136),4	293,(12, 192),4	305,(12, 102),40	357,(12, 159),12	417,(2, 125),156	573,(12, 172),68	689,(12, 107),80	769,(26, 201),12	1249,(77, 201),12	1651,(34, 201),12	1887,(54, 201),12	2019,(58, 201),12	2305,(90, 201),12	2425,(103, 201),12	2497,(94, 201),12	
1,(0, 2),4	5,(0, 3),4	9,(0, 4),4	13,(0, 5),4	17,(0, 6),4	21,(0, 7),4	25,(0, 8),4	29,(0, 9),4	33,(0, 10),4	37,(0, 12),4	41,(0, 13),4	45,(0, 14),4	49,(0, 15),4	53,(0, 16),4	57,(0, 17),4	61,(0, 18),4	65,(0, 19),4	69,(0, 20),4	73,(1, 24),24	97,(1, 42),16	113,(1, 51),12	125,(1, 62),12	137,(1, 78),100	237,(1, 100),12	249,(1, 135),168	417,(1, 157),4	421,(1, 176),12	433,(11, 54),60	493,(11, 56),4	497,(11, 147),12	509,(11, 195),24	533,(11, 200),4	653,(40, 201),12	1663,(49, 201),12	1783,(25, 201),12	1899,(41, 201),12	2389,(101, 201),12	2449,(53, 201),12	2461,(21, 201),12	2473,(31, 201),12	
