1336
# CPU
0,81,1	1,73,13	14,50,13	27,18,13	40,36,13	53,38,13	66,62,13	79,28,13	92,26,13	105,13,13	118,44,13	131,57,13	144,70,13	157,65,13	170,11,13	183,45,13	196,43,13	209,41,13	222,21,13	235,9,13	248,56,13	261,79,13	274,76,13	287,19,13	300,46,13	313,72,13	326,68,13	339,64,13	352,58,13	365,63,13	378,78,13	391,29,13	404,47,13	417,77,13	430,67,13	443,55,13	456,54,13	469,80,13	482,61,13	495,53,13	508,25,13	521,52,13	534,27,13	547,5,13	560,32,13	573,31,13	586,16,13	599,60,13	612,17,13	625,30,13	638,35,13	651,37,13	664,12,13	677,49,13	690,22,13	703,42,13	716,2,13	729,23,13	742,34,13	755,6,13	768,4,13	781,7,13	794,3,13	906,8,13	1322,1,13	1335,0,1	
45,20,13	89,71,13	177,74,13	265,51,13	309,15,13	485,48,13	573,14,13	705,75,13	
133,59,13	397,10,13	
221,24,13	353,33,13	441,66,13	529,40,13	617,39,13	661,69,13	
# Incoming
146,(59, 5),4	190,(74, 6),8	198,(20, 8),4	202,(71, 8),4	206,(74, 1),4	234,(24, 4),8	278,(51, 7),12	322,(15, 3),4	326,(15, 8),16	366,(33, 7),4	370,(33, 8),20	410,(10, 3),28	454,(66, 4),28	498,(48, 1),40	542,(40, 7),56	630,(39, 3),72	702,(14, 8),60	762,(69, 8),116	878,(75, 8),28	906,(75, 1),416	
1,(81, 20),44	45,(81, 71),44	133,(81, 74),44	221,(81, 51),44	265,(81, 15),44	441,(81, 48),44	529,(81, 14),44	661,(81, 75),44	
89,(81, 59),44	353,(81, 10),44	
177,(81, 24),44	309,(81, 33),44	397,(81, 66),44	485,(81, 40),44	573,(81, 39),44	617,(81, 69),44	
# Outgoing
1,(81, 20),44	45,(81, 71),44	89,(81, 59),44	133,(81, 74),44	177,(81, 24),44	221,(81, 51),44	265,(81, 15),44	309,(81, 33),44	353,(81, 10),44	397,(81, 66),44	441,(81, 48),44	485,(81, 40),44	529,(81, 14),44	573,(81, 39),44	617,(81, 69),44	661,(81, 75),44	
190,(74, 6),8	198,(20, 8),4	202,(71, 8),4	206,(74, 1),4	278,(51, 7),12	322,(15, 3),4	326,(15, 8),16	498,(48, 1),40	702,(14, 8),60	878,(75, 8),28	906,(75, 1),416	
146,(59, 5),4	410,(10, 3),28	
234,(24, 4),8	366,(33, 7),4	370,(33, 8),20	454,(66, 4),28	542,(40, 7),56	630,(39, 3),72	762,(69, 8),116	
