1707
# CPU
0,0,1	1,3,7	8,1,7	15,16,7	22,5,7	29,38,7	36,27,7	43,25,7	50,34,7	57,33,7	64,10,7	71,6,7	78,12,7	85,18,7	112,24,7	120,28,7	127,32,7	188,9,7	195,17,7	202,20,7	209,40,7	1706,41,1	
3,2,7	10,4,7	17,11,7	24,22,7	31,36,7	38,21,7	45,8,7	52,15,7	59,31,7	66,14,7	73,29,7	80,23,7	87,30,7	94,39,7	101,26,7	108,19,7	115,13,7	122,35,7	129,7,7	136,37,7	
# Incoming
10,(2, 12),22	32,(2, 18),2	34,(2, 24),78	112,(2, 28),8	120,(2, 32),2	122,(4, 9),66	188,(4, 17),2	190,(4, 20),2	192,(4, 40),2	194,(11, 41),84	278,(22, 41),84	362,(36, 41),84	446,(21, 41),84	530,(8, 41),84	614,(15, 41),84	698,(31, 41),84	782,(14, 41),84	866,(29, 41),84	950,(23, 41),84	1034,(30, 41),84	1118,(39, 41),84	1202,(26, 41),84	1286,(19, 41),84	1370,(13, 41),84	1454,(35, 41),84	1538,(7, 41),84	1622,(37, 41),84	
1,(0, 2),2	3,(0, 4),2	8,(3, 39),2	
# Outgoing
1,(0, 2),2	3,(0, 4),2	8,(3, 39),2	
10,(2, 12),22	32,(2, 18),2	34,(2, 24),78	112,(2, 28),8	120,(2, 32),2	122,(4, 9),66	188,(4, 17),2	190,(4, 20),2	192,(4, 40),2	194,(11, 41),84	278,(22, 41),84	362,(36, 41),84	446,(21, 41),84	530,(8, 41),84	614,(15, 41),84	698,(31, 41),84	782,(14, 41),84	866,(29, 41),84	950,(23, 41),84	1034,(30, 41),84	1118,(39, 41),84	1202,(26, 41),84	1286,(19, 41),84	1370,(13, 41),84	1454,(35, 41),84	1538,(7, 41),84	1622,(37, 41),84	
