1920
# CPU
53,5,7	122,20,7	129,8,7	136,11,7	1610,14,7	1730,17,7	
7,2,7	14,4,7	21,19,7	28,13,7	35,16,7	56,7,7	89,10,7	
0,0,1	1,1,7	8,3,7	15,18,7	89,6,7	113,9,7	1394,12,7	1628,15,7	1919,21,1	
# Incoming
14,(1, 5),39	89,(1, 20),33	122,(2, 8),3	125,(2, 11),3	1394,(2, 14),216	1628,(2, 17),102	
1,(0, 2),6	8,(1, 4),6	53,(1, 7),3	56,(1, 10),33	
14,(2, 6),75	89,(2, 9),24	128,(2, 12),1266	1394,(5, 21),27	1421,(20, 21),27	1448,(8, 21),27	1475,(11, 21),27	1610,(2, 15),18	1628,(14, 21),27	1730,(4, 21),27	1757,(19, 21),27	1784,(13, 21),27	1811,(16, 21),27	1838,(7, 21),27	1865,(10, 21),27	1892,(17, 21),27	
# Outgoing
1394,(5, 21),27	1421,(20, 21),27	1448,(8, 21),27	1475,(11, 21),27	1628,(14, 21),27	1892,(17, 21),27	
14,(2, 6),75	89,(2, 9),24	122,(2, 8),3	125,(2, 11),3	128,(2, 12),1266	1394,(2, 14),216	1610,(2, 15),18	1628,(2, 17),102	1730,(4, 21),27	1757,(19, 21),27	1784,(13, 21),27	1811,(16, 21),27	1838,(7, 21),27	1865,(10, 21),27	
1,(0, 2),6	8,(1, 4),6	14,(1, 5),39	53,(1, 7),3	56,(1, 10),33	89,(1, 20),33	
