800
# CPU
0,21,1	1,4,76	77,10,76	153,18,76	229,15,76	305,3,76	381,7,76	457,17,76	533,6,76	609,8,76	685,1,76	
2,20,76	78,16,76	154,14,76	230,11,76	306,13,76	382,9,76	458,5,76	534,19,76	610,12,76	715,2,76	799,0,1	
# Incoming
382,(13, 1),4	458,(9, 1),9	534,(5, 1),16	610,(19, 1),5	
1,(21, 20),1	2,(21, 16),1	3,(21, 14),1	4,(21, 11),1	5,(21, 13),1	6,(21, 9),1	7,(21, 5),1	8,(21, 19),1	9,(21, 12),1	77,(4, 2),1	305,(15, 2),2	533,(17, 2),9	609,(6, 2),16	685,(8, 2),30	761,(1, 0),38	
# Outgoing
1,(21, 20),1	2,(21, 16),1	3,(21, 14),1	4,(21, 11),1	5,(21, 13),1	6,(21, 9),1	7,(21, 5),1	8,(21, 19),1	9,(21, 12),1	77,(4, 2),1	305,(15, 2),2	533,(17, 2),9	609,(6, 2),16	685,(8, 2),30	761,(1, 0),38	
382,(13, 1),4	458,(9, 1),9	534,(5, 1),16	610,(19, 1),5	
