674
# CPU
0,0,1	1,1,22	23,4,22	45,35,22	67,3,22	89,27,22	111,24,22	133,23,22	155,20,22	177,34,22	199,36,22	221,16,22	243,30,22	265,33,22	287,11,22	309,10,22	331,29,22	353,13,22	375,25,22	397,28,22	427,31,22	449,37,22	471,7,22	651,19,22	673,41,1	
29,2,22	51,21,22	73,38,22	95,18,22	117,39,22	139,26,22	161,32,22	183,40,22	205,12,22	227,6,22	249,15,22	271,17,22	293,5,22	315,8,22	337,9,22	359,22,22	381,14,22	
# Incoming
51,(2, 27),4	55,(2, 10),4	59,(2, 29),4	63,(2, 13),4	67,(2, 25),4	73,(21, 41),16	89,(2, 28),4	95,(38, 41),16	117,(18, 41),16	139,(39, 41),16	161,(26, 41),16	183,(32, 41),16	205,(40, 41),16	227,(12, 41),16	249,(6, 41),16	271,(15, 41),16	293,(17, 41),16	315,(5, 41),16	337,(8, 41),16	359,(9, 41),16	381,(22, 41),16	403,(14, 41),16	419,(2, 31),8	427,(2, 37),16	443,(2, 7),20	463,(2, 19),188	
1,(0, 2),28	29,(1, 38),4	33,(1, 26),4	37,(1, 12),4	41,(1, 17),4	45,(4, 18),4	49,(4, 39),4	53,(4, 12),8	61,(4, 6),8	69,(1, 15),12	81,(1, 8),4	85,(4, 9),4	89,(3, 32),8	97,(3, 40),8	105,(3, 6),4	109,(3, 15),4	113,(4, 17),16	129,(1, 5),32	161,(4, 8),28	189,(1, 9),40	229,(1, 22),4	233,(4, 22),40	273,(1, 14),8	281,(4, 14),64	345,(3, 14),12	
# Outgoing
1,(0, 2),28	29,(1, 38),4	33,(1, 26),4	37,(1, 12),4	41,(1, 17),4	45,(4, 18),4	49,(4, 39),4	53,(4, 12),8	61,(4, 6),8	69,(1, 15),12	81,(1, 8),4	85,(4, 9),4	89,(3, 32),8	97,(3, 40),8	105,(3, 6),4	109,(3, 15),4	113,(4, 17),16	129,(1, 5),32	161,(4, 8),28	189,(1, 9),40	229,(1, 22),4	233,(4, 22),40	273,(1, 14),8	281,(4, 14),64	345,(3, 14),12	
51,(2, 27),4	55,(2, 10),4	59,(2, 29),4	63,(2, 13),4	67,(2, 25),4	73,(21, 41),16	89,(2, 28),4	95,(38, 41),16	117,(18, 41),16	139,(39, 41),16	161,(26, 41),16	183,(32, 41),16	205,(40, 41),16	227,(12, 41),16	249,(6, 41),16	271,(15, 41),16	293,(17, 41),16	315,(5, 41),16	337,(8, 41),16	359,(9, 41),16	381,(22, 41),16	403,(14, 41),16	419,(2, 31),8	427,(2, 37),16	443,(2, 7),20	463,(2, 19),188	
