4156
# CPU
0,201,1	1,108,1	2,112,1	3,86,1	4,174,1	5,67,1	6,52,1	7,125,1	8,118,1	9,161,1	10,149,1	11,148,1	12,159,1	13,24,1	14,137,1	15,198,1	16,111,1	17,184,1	18,21,1	19,72,1	20,132,1	21,189,1	22,115,1	23,53,1	24,50,1	25,41,1	26,38,1	27,30,1	28,34,1	29,82,1	30,84,1	31,146,1	32,45,1	33,49,1	34,92,1	35,142,1	36,186,1	37,107,1	38,177,1	39,104,1	40,55,1	41,195,1	42,120,1	43,176,1	44,166,1	45,147,1	46,31,1	47,110,1	48,135,1	49,173,1	50,170,1	51,99,1	52,35,1	53,180,1	54,163,1	55,28,1	56,23,1	57,152,1	58,44,1	59,78,1	60,128,1	61,93,1	62,130,1	63,114,1	64,97,1	65,102,1	66,200,1	67,175,1	68,196,1	69,96,1	70,127,1	71,101,1	72,75,1	73,194,1	74,139,1	75,185,1	76,36,1	77,83,1	78,79,1	79,43,1	80,124,1	81,122,1	82,89,1	83,151,1	84,192,1	85,94,1	86,37,1	87,190,1	88,80,1	89,182,1	90,32,1	91,71,1	92,63,1	93,113,1	94,69,1	95,153,1	96,33,1	97,66,1	98,141,1	99,70,1	100,56,1	101,167,1	102,187,1	103,117,1	104,81,1	105,126,1	106,172,1	107,54,1	108,22,1	109,98,1	110,155,1	111,109,1	112,27,1	113,134,1	114,42,1	115,105,1	116,169,1	117,58,1	118,140,1	119,68,1	120,178,1	121,144,1	122,91,1	123,150,1	124,199,1	125,129,1	126,62,1	127,26,1	128,121,1	129,100,1	130,133,1	131,29,1	132,25,1	133,181,1	134,64,1	135,165,1	136,138,1	137,46,1	138,143,1	139,119,1	140,95,1	141,74,1	142,154,1	143,47,1	144,106,1	145,145,1	146,90,1	147,40,1	148,59,1	149,164,1	150,73,1	151,60,1	152,157,1	153,77,1	154,179,1	155,168,1	156,9,1	157,193,1	158,85,1	159,136,1	160,131,1	161,57,1	162,51,1	163,123,1	164,6,1	165,18,1	170,8,1	182,10,1	197,11,1	215,5,1	245,4,1	287,2,1	332,15,1	407,20,1	527,1,1	668,19,1	890,17,1	1130,14,1	1385,3,1	1643,12,1	1964,7,1	2651,13,1	4154,16,1	4155,0,1	
10,191,1	19,65,1	91,76,1	109,116,1	127,48,1	145,162,1	163,61,1	


55,160,1	

37,171,1	64,188,1	

28,87,1	73,183,1	
46,103,1	82,158,1	100,156,1	118,39,1	136,88,1	154,197,1	
# Incoming
146,(162, 18),9	155,(65, 10),3	158,(191, 11),3	161,(191, 5),3	164,(61, 8),6	170,(116, 10),12	182,(87, 11),15	197,(48, 5),18	215,(65, 4),9	224,(160, 4),21	245,(156, 2),15	260,(162, 2),18	278,(61, 2),9	287,(171, 15),18	305,(103, 15),9	314,(188, 15),3	317,(183, 15),9	326,(116, 15),6	332,(160, 20),30	362,(156, 20),3	365,(116, 20),12	377,(39, 20),30	407,(103, 1),3	410,(188, 1),15	425,(158, 1),3	428,(116, 1),96	524,(197, 1),3	527,(103, 19),3	530,(160, 19),30	560,(188, 19),33	593,(158, 19),3	596,(76, 19),63	659,(39, 19),9	668,(103, 17),24	692,(158, 17),27	719,(156, 17),75	794,(39, 17),3	797,(48, 17),18	815,(88, 17),60	875,(61, 17),15	890,(116, 14),3	893,(39, 14),3	896,(88, 14),234	1130,(183, 3),45	1175,(158, 3),54	1229,(116, 3),87	1316,(39, 3),3	1319,(197, 3),66	1385,(39, 12),114	1499,(48, 12),144	1643,(162, 7),321	1964,(65, 13),3	1967,(197, 13),684	2651,(61, 16),1503	
1,(201, 191),9	10,(201, 65),9	82,(201, 76),9	100,(201, 116),9	118,(201, 48),9	136,(201, 162),9	154,(201, 61),9	


46,(201, 160),9	

28,(201, 171),9	55,(201, 188),9	

19,(201, 87),9	64,(201, 183),9	
37,(201, 103),9	73,(201, 158),9	91,(201, 156),9	109,(201, 39),9	127,(201, 88),9	145,(201, 197),9	
# Outgoing
1,(201, 191),9	10,(201, 65),9	19,(201, 87),9	28,(201, 171),9	37,(201, 103),9	46,(201, 160),9	55,(201, 188),9	64,(201, 183),9	73,(201, 158),9	82,(201, 76),9	91,(201, 156),9	100,(201, 116),9	109,(201, 39),9	118,(201, 48),9	127,(201, 88),9	136,(201, 162),9	145,(201, 197),9	154,(201, 61),9	
146,(162, 18),9	155,(65, 10),3	158,(191, 11),3	161,(191, 5),3	164,(61, 8),6	170,(116, 10),12	197,(48, 5),18	215,(65, 4),9	260,(162, 2),18	278,(61, 2),9	326,(116, 15),6	365,(116, 20),12	428,(116, 1),96	596,(76, 19),63	797,(48, 17),18	875,(61, 17),15	890,(116, 14),3	1229,(116, 3),87	1499,(48, 12),144	1643,(162, 7),321	1964,(65, 13),3	2651,(61, 16),1503	


224,(160, 4),21	332,(160, 20),30	530,(160, 19),30	

287,(171, 15),18	314,(188, 15),3	410,(188, 1),15	560,(188, 19),33	

182,(87, 11),15	317,(183, 15),9	1130,(183, 3),45	
245,(156, 2),15	305,(103, 15),9	362,(156, 20),3	377,(39, 20),30	407,(103, 1),3	425,(158, 1),3	524,(197, 1),3	527,(103, 19),3	593,(158, 19),3	659,(39, 19),9	668,(103, 17),24	692,(158, 17),27	719,(156, 17),75	794,(39, 17),3	815,(88, 17),60	893,(39, 14),3	896,(88, 14),234	1175,(158, 3),54	1316,(39, 3),3	1319,(197, 3),66	1385,(39, 12),114	1967,(197, 13),684	
