890
# CPU
0,41,1	1,33,74	75,17,74	149,27,74	223,16,74	297,11,74	371,24,74	445,14,74	519,10,74	593,5,74	667,20,74	741,15,74	815,2,74	889,0,1	
16,13,74	90,36,74	164,35,74	238,37,74	312,38,74	386,18,74	460,8,74	534,34,74	620,4,74	
11,22,74	85,9,74	159,29,74	233,32,74	307,26,74	381,7,74	455,25,74	529,12,74	741,1,74	
6,23,74	80,30,74	154,21,74	228,19,74	302,40,74	376,31,74	450,6,74	524,39,74	598,28,74	744,3,74	
# Incoming
159,(9, 2),2	312,(37, 2),8	455,(7, 2),2	524,(6, 2),16	540,(8, 2),2	694,(4, 0),1	815,(1, 0),1	818,(3, 0),1	
11,(41, 13),5	26,(41, 36),5	41,(41, 35),5	56,(41, 37),5	71,(41, 38),5	86,(41, 18),5	101,(41, 8),5	116,(41, 34),5	149,(17, 4),1	223,(27, 4),2	519,(14, 4),13	532,(25, 4),1	540,(23, 4),1	541,(30, 4),2	543,(40, 4),9	593,(10, 4),27	
6,(41, 22),5	21,(41, 9),5	36,(41, 29),5	51,(41, 32),5	66,(41, 26),5	81,(41, 7),5	96,(41, 25),5	111,(41, 12),5	297,(16, 1),6	320,(36, 1),2	445,(24, 1),9	552,(21, 1),2	554,(19, 1),6	598,(39, 1),29	667,(5, 1),74	
1,(41, 23),5	16,(41, 30),5	31,(41, 21),5	46,(41, 19),5	61,(41, 40),5	76,(41, 31),5	91,(41, 6),5	106,(41, 39),5	121,(41, 28),5	161,(22, 3),1	303,(16, 3),4	307,(32, 3),1	322,(35, 3),4	381,(26, 3),9	390,(38, 3),9	542,(8, 3),24	603,(12, 3),30	633,(34, 3),52	741,(20, 3),3	
# Outgoing
1,(41, 23),5	6,(41, 22),5	11,(41, 13),5	16,(41, 30),5	21,(41, 9),5	26,(41, 36),5	31,(41, 21),5	36,(41, 29),5	41,(41, 35),5	46,(41, 19),5	51,(41, 32),5	56,(41, 37),5	61,(41, 40),5	66,(41, 26),5	71,(41, 38),5	76,(41, 31),5	81,(41, 7),5	86,(41, 18),5	91,(41, 6),5	96,(41, 25),5	101,(41, 8),5	106,(41, 39),5	111,(41, 12),5	116,(41, 34),5	121,(41, 28),5	149,(17, 4),1	223,(27, 4),2	297,(16, 1),6	303,(16, 3),4	445,(24, 1),9	519,(14, 4),13	593,(10, 4),27	667,(5, 1),74	741,(20, 3),3	
312,(37, 2),8	320,(36, 1),2	322,(35, 3),4	390,(38, 3),9	540,(8, 2),2	542,(8, 3),24	633,(34, 3),52	694,(4, 0),1	
159,(9, 2),2	161,(22, 3),1	307,(32, 3),1	381,(26, 3),9	455,(7, 2),2	532,(25, 4),1	603,(12, 3),30	815,(1, 0),1	
524,(6, 2),16	540,(23, 4),1	541,(30, 4),2	543,(40, 4),9	552,(21, 1),2	554,(19, 1),6	598,(39, 1),29	818,(3, 0),1	
