884
# CPU
4,1,15	19,13,15	34,17,15	49,19,15	64,14,15	79,18,15	472,6,15	559,8,15	574,11,15	613,16,15	
556,3,15	610,12,15	712,20,15	736,5,15	775,7,15	883,21,1	
0,0,1	1,2,15	16,4,15	31,10,15	46,9,15	61,15,15	
# Incoming
1,(0, 1),3	469,(2, 6),3	550,(2, 8),9	559,(2, 11),12	610,(2, 16),3	
16,(2, 3),204	220,(2, 5),249	472,(2, 7),78	550,(1, 3),6	556,(1, 12),3	559,(1, 20),3	562,(13, 21),9	571,(2, 12),39	613,(2, 20),99	712,(1, 5),24	736,(1, 7),39	775,(4, 21),9	784,(10, 21),9	793,(17, 21),9	802,(9, 21),9	811,(19, 21),9	820,(15, 21),9	829,(14, 21),9	838,(18, 21),9	847,(6, 21),9	856,(8, 21),9	865,(11, 21),9	874,(16, 21),9	

# Outgoing
550,(1, 3),6	556,(1, 12),3	559,(1, 20),3	562,(13, 21),9	712,(1, 5),24	736,(1, 7),39	793,(17, 21),9	811,(19, 21),9	829,(14, 21),9	838,(18, 21),9	847,(6, 21),9	856,(8, 21),9	865,(11, 21),9	874,(16, 21),9	

1,(0, 1),3	16,(2, 3),204	220,(2, 5),249	469,(2, 6),3	472,(2, 7),78	550,(2, 8),9	559,(2, 11),12	571,(2, 12),39	610,(2, 16),3	613,(2, 20),99	775,(4, 21),9	784,(10, 21),9	802,(9, 21),9	820,(15, 21),9	
