1263
# CPU
4,4,13	17,8,13	30,12,13	43,76,13	56,16,13	69,19,13	82,97,13	95,118,13	108,22,13	121,41,13	134,94,13	147,38,13	160,100,13	173,109,13	495,82,13	511,103,13	524,26,13	537,34,13	550,79,13	563,106,13	576,30,13	589,44,13	602,91,13	630,68,13	724,47,13	737,50,13	750,60,13	763,64,13	776,88,13	789,53,13	802,56,13	822,73,13	835,85,13	848,115,13	1024,112,13	
3,3,13	16,7,13	29,11,13	42,87,13	55,62,13	68,99,13	81,46,13	94,36,13	107,32,13	120,90,13	140,66,13	153,40,13	166,43,13	209,120,13	483,114,13	496,111,13	591,49,13	622,52,13	697,81,13	710,102,13	723,117,13	736,78,13	749,84,13	762,93,13	775,96,13	788,105,13	801,15,13	814,20,13	827,24,13	840,28,13	853,55,13	866,58,13	879,71,13	892,75,13	905,108,13	
2,2,13	15,6,13	28,10,13	41,18,13	54,14,13	67,31,13	80,89,13	93,27,13	106,39,13	119,35,13	132,51,13	624,48,13	637,57,13	676,74,13	697,65,13	710,45,13	742,61,13	765,70,13	839,80,13	883,86,13	946,101,13	959,110,13	978,23,13	991,104,13	1018,83,13	1031,98,13	1044,107,13	1060,119,13	1099,42,13	1112,54,13	1125,92,13	1138,116,13	1153,77,13	1168,95,13	1186,113,13	1262,121,1	
0,0,1	1,9,13	14,1,13	27,5,13	40,21,13	53,29,13	66,59,13	79,63,13	92,17,13	105,13,13	118,25,13	131,67,13	144,33,13	398,69,13	557,37,13	970,72,13	
# Incoming
3,(0, 4),1	6,(0, 8),1	9,(0, 12),1	15,(9, 22),8	23,(3, 16),1	24,(3, 30),1	26,(9, 30),5	31,(9, 34),7	38,(2, 73),7	45,(7, 22),1	46,(7, 41),1	47,(7, 94),1	48,(9, 38),1	49,(3, 50),4	53,(3, 100),6	59,(7, 88),14	73,(7, 109),1	74,(2, 100),21	95,(2, 109),9	104,(3, 106),79	183,(6, 68),2	185,(6, 79),35	398,(7, 73),52	450,(7, 82),45	495,(7, 103),16	511,(10, 26),1	512,(10, 34),17	529,(10, 79),5	534,(10, 88),1	535,(10, 106),4	539,(11, 30),4	543,(11, 44),39	582,(11, 53),5	587,(11, 91),1	588,(11, 112),1	623,(9, 64),5	628,(9, 68),2	630,(11, 73),30	697,(9, 85),1	707,(9, 115),14	723,(1, 47),1	724,(1, 50),3	727,(1, 60),1	728,(1, 64),7	738,(1, 88),1	748,(1, 115),2	761,(5, 53),5	781,(5, 56),3	801,(5, 73),21	824,(5, 85),1	826,(5, 115),3	970,(10, 112),54	
2,(0, 3),1	5,(0, 7),1	8,(0, 11),1	14,(9, 15),1	17,(4, 20),3	20,(4, 87),1	31,(2, 90),1	32,(6, 36),6	38,(9, 36),10	48,(2, 28),26	74,(4, 32),13	87,(8, 81),2	89,(8, 105),5	94,(12, 66),3	97,(12, 78),5	102,(12, 93),1	104,(2, 117),10	114,(6, 58),1	115,(6, 90),1	116,(6, 111),4	120,(6, 120),1	121,(8, 66),19	140,(10, 28),3	143,(10, 40),3	146,(10, 43),11	157,(10, 49),25	182,(10, 75),1	183,(12, 24),18	201,(12, 120),8	220,(6, 114),263	483,(10, 96),2	485,(10, 111),9	494,(10, 117),7	557,(12, 49),34	616,(9, 52),6	622,(9, 58),1	690,(9, 81),7	701,(9, 96),1	702,(9, 102),4	721,(9, 117),2	735,(1, 78),1	736,(1, 84),2	739,(1, 93),5	744,(1, 96),1	745,(1, 105),2	747,(1, 108),1	750,(5, 15),1	751,(5, 20),6	757,(5, 24),3	760,(5, 28),1	766,(5, 55),15	784,(5, 58),11	795,(5, 71),6	822,(5, 75),2	825,(5, 108),1	
1,(0, 2),1	4,(0, 6),1	7,(0, 10),1	16,(3, 14),1	17,(3, 31),3	20,(3, 45),1	21,(3, 116),1	23,(9, 23),3	26,(4, 54),3	29,(7, 70),1	30,(8, 35),2	32,(8, 51),1	34,(3, 42),10	44,(11, 48),1	45,(12, 104),3	48,(11, 61),1	49,(9, 42),548	597,(9, 48),19	616,(3, 48),8	624,(3, 57),6	630,(9, 74),46	676,(9, 77),14	690,(4, 65),7	697,(11, 86),1	698,(9, 86),3	701,(7, 45),5	706,(9, 107),1	707,(3, 61),35	742,(3, 92),15	757,(4, 70),8	765,(4, 80),74	839,(4, 86),44	883,(1, 54),36	919,(1, 101),1	920,(1, 104),1	921,(1, 113),3	924,(1, 119),9	933,(7, 101),13	946,(7, 110),8	954,(7, 113),8	962,(8, 23),16	978,(8, 77),4	982,(8, 83),5	987,(8, 104),4	991,(5, 83),27	1018,(5, 98),2	1020,(5, 107),7	1027,(5, 119),33	1060,(11, 42),39	1099,(11, 54),9	1108,(11, 77),3	1111,(11, 92),9	1120,(11, 113),17	1137,(11, 116),1	1138,(12, 77),15	1153,(12, 95),15	1168,(12, 113),18	1186,(21, 121),1	1187,(87, 121),1	1188,(76, 121),1	1189,(29, 121),1	1190,(62, 121),1	1191,(16, 121),1	1192,(59, 121),1	1193,(99, 121),1	1194,(19, 121),1	1195,(63, 121),1	1196,(46, 121),1	1197,(97, 121),1	1198,(17, 121),1	1199,(36, 121),1	1200,(118, 121),1	1201,(13, 121),1	1202,(32, 121),1	1203,(22, 121),1	1204,(25, 121),1	1205,(90, 121),1	1206,(41, 121),1	1207,(67, 121),1	1208,(94, 121),1	1209,(66, 121),1	1210,(33, 121),1	1211,(38, 121),1	1212,(40, 121),1	1213,(100, 121),1	1214,(43, 121),1	1215,(109, 121),1	1216,(120, 121),1	1217,(69, 121),1	1218,(114, 121),1	1219,(82, 121),1	1220,(111, 121),1	1221,(103, 121),1	1222,(26, 121),1	1223,(34, 121),1	1224,(79, 121),1	1225,(37, 121),1	1226,(106, 121),1	1227,(30, 121),1	1228,(44, 121),1	1229,(49, 121),1	1230,(91, 121),1	1231,(52, 121),1	1232,(68, 121),1	1233,(81, 121),1	1234,(102, 121),1	1235,(117, 121),1	1236,(47, 121),1	1237,(78, 121),1	1238,(50, 121),1	1239,(84, 121),1	1240,(60, 121),1	1241,(93, 121),1	1242,(64, 121),1	1243,(96, 121),1	1244,(88, 121),1	1245,(105, 121),1	1246,(53, 121),1	1247,(15, 121),1	1248,(56, 121),1	1249,(20, 121),1	1250,(73, 121),1	1251,(24, 121),1	1252,(85, 121),1	1253,(28, 121),1	1254,(115, 121),1	1255,(55, 121),1	1256,(58, 121),1	1257,(71, 121),1	1258,(75, 121),1	1259,(108, 121),1	1260,(72, 121),1	1261,(112, 121),1	
15,(2, 13),1	16,(2, 63),15	31,(3, 25),3	34,(4, 69),8	42,(8, 63),3	45,(6, 17),1	46,(6, 33),1	47,(6, 72),1	48,(8, 13),11	59,(8, 25),4	63,(8, 67),1	74,(11, 33),3	183,(7, 69),215	398,(8, 37),159	557,(10, 72),413	
# Outgoing
17,(4, 20),3	20,(4, 87),1	26,(4, 54),3	30,(8, 35),2	32,(8, 51),1	34,(4, 69),8	42,(8, 63),3	45,(12, 104),3	48,(8, 13),11	59,(8, 25),4	63,(8, 67),1	74,(4, 32),13	87,(8, 81),2	89,(8, 105),5	94,(12, 66),3	97,(12, 78),5	102,(12, 93),1	121,(8, 66),19	183,(12, 24),18	201,(12, 120),8	398,(8, 37),159	557,(12, 49),34	690,(4, 65),7	757,(4, 70),8	765,(4, 80),74	839,(4, 86),44	962,(8, 23),16	978,(8, 77),4	982,(8, 83),5	987,(8, 104),4	1138,(12, 77),15	1153,(12, 95),15	1168,(12, 113),18	1188,(76, 121),1	1191,(16, 121),1	1194,(19, 121),1	1197,(97, 121),1	1200,(118, 121),1	1203,(22, 121),1	1206,(41, 121),1	1208,(94, 121),1	1211,(38, 121),1	1213,(100, 121),1	1215,(109, 121),1	1219,(82, 121),1	1221,(103, 121),1	1222,(26, 121),1	1223,(34, 121),1	1224,(79, 121),1	1226,(106, 121),1	1227,(30, 121),1	1228,(44, 121),1	1230,(91, 121),1	1232,(68, 121),1	1236,(47, 121),1	1238,(50, 121),1	1240,(60, 121),1	1242,(64, 121),1	1244,(88, 121),1	1246,(53, 121),1	1248,(56, 121),1	1250,(73, 121),1	1252,(85, 121),1	1254,(115, 121),1	1261,(112, 121),1	
16,(3, 14),1	17,(3, 31),3	20,(3, 45),1	21,(3, 116),1	23,(3, 16),1	24,(3, 30),1	29,(7, 70),1	31,(3, 25),3	34,(3, 42),10	44,(11, 48),1	45,(7, 22),1	46,(7, 41),1	47,(7, 94),1	48,(11, 61),1	49,(3, 50),4	53,(3, 100),6	59,(7, 88),14	73,(7, 109),1	74,(11, 33),3	104,(3, 106),79	183,(7, 69),215	398,(7, 73),52	450,(7, 82),45	495,(7, 103),16	539,(11, 30),4	543,(11, 44),39	582,(11, 53),5	587,(11, 91),1	588,(11, 112),1	616,(3, 48),8	624,(3, 57),6	630,(11, 73),30	697,(11, 86),1	701,(7, 45),5	707,(3, 61),35	742,(3, 92),15	933,(7, 101),13	946,(7, 110),8	954,(7, 113),8	1060,(11, 42),39	1099,(11, 54),9	1108,(11, 77),3	1111,(11, 92),9	1120,(11, 113),17	1137,(11, 116),1	1187,(87, 121),1	1190,(62, 121),1	1193,(99, 121),1	1196,(46, 121),1	1199,(36, 121),1	1202,(32, 121),1	1205,(90, 121),1	1209,(66, 121),1	1212,(40, 121),1	1214,(43, 121),1	1216,(120, 121),1	1218,(114, 121),1	1220,(111, 121),1	1229,(49, 121),1	1231,(52, 121),1	1233,(81, 121),1	1234,(102, 121),1	1235,(117, 121),1	1237,(78, 121),1	1239,(84, 121),1	1241,(93, 121),1	1243,(96, 121),1	1245,(105, 121),1	1247,(15, 121),1	1249,(20, 121),1	1251,(24, 121),1	1253,(28, 121),1	1255,(55, 121),1	1256,(58, 121),1	1257,(71, 121),1	1258,(75, 121),1	1259,(108, 121),1	
15,(2, 13),1	16,(2, 63),15	31,(2, 90),1	32,(6, 36),6	38,(2, 73),7	45,(6, 17),1	46,(6, 33),1	47,(6, 72),1	48,(2, 28),26	74,(2, 100),21	95,(2, 109),9	104,(2, 117),10	114,(6, 58),1	115,(6, 90),1	116,(6, 111),4	120,(6, 120),1	140,(10, 28),3	143,(10, 40),3	146,(10, 43),11	157,(10, 49),25	182,(10, 75),1	183,(6, 68),2	185,(6, 79),35	220,(6, 114),263	483,(10, 96),2	485,(10, 111),9	494,(10, 117),7	511,(10, 26),1	512,(10, 34),17	529,(10, 79),5	534,(10, 88),1	535,(10, 106),4	557,(10, 72),413	970,(10, 112),54	
1,(0, 2),1	2,(0, 3),1	3,(0, 4),1	4,(0, 6),1	5,(0, 7),1	6,(0, 8),1	7,(0, 10),1	8,(0, 11),1	9,(0, 12),1	14,(9, 15),1	15,(9, 22),8	23,(9, 23),3	26,(9, 30),5	31,(9, 34),7	38,(9, 36),10	48,(9, 38),1	49,(9, 42),548	597,(9, 48),19	616,(9, 52),6	622,(9, 58),1	623,(9, 64),5	628,(9, 68),2	630,(9, 74),46	676,(9, 77),14	690,(9, 81),7	697,(9, 85),1	698,(9, 86),3	701,(9, 96),1	702,(9, 102),4	706,(9, 107),1	707,(9, 115),14	721,(9, 117),2	723,(1, 47),1	724,(1, 50),3	727,(1, 60),1	728,(1, 64),7	735,(1, 78),1	736,(1, 84),2	738,(1, 88),1	739,(1, 93),5	744,(1, 96),1	745,(1, 105),2	747,(1, 108),1	748,(1, 115),2	750,(5, 15),1	751,(5, 20),6	757,(5, 24),3	760,(5, 28),1	761,(5, 53),5	766,(5, 55),15	781,(5, 56),3	784,(5, 58),11	795,(5, 71),6	801,(5, 73),21	822,(5, 75),2	824,(5, 85),1	825,(5, 108),1	826,(5, 115),3	883,(1, 54),36	919,(1, 101),1	920,(1, 104),1	921,(1, 113),3	924,(1, 119),9	991,(5, 83),27	1018,(5, 98),2	1020,(5, 107),7	1027,(5, 119),33	1186,(21, 121),1	1189,(29, 121),1	1192,(59, 121),1	1195,(63, 121),1	1198,(17, 121),1	1201,(13, 121),1	1204,(25, 121),1	1207,(67, 121),1	1210,(33, 121),1	1217,(69, 121),1	1225,(37, 121),1	1260,(72, 121),1	
