2540
# CPU
3,3,1	5,6,1	6,30,1	7,102,1	8,9,1	9,12,1	10,168,1	11,174,1	12,15,1	13,18,1	14,171,1	15,183,1	404,57,1	496,126,1	583,93,1	749,75,1	766,111,1	767,117,1	870,177,1	1004,81,1	1009,84,1	1014,87,1	1017,132,1	1125,69,1	1128,72,1	1143,108,1	1150,120,1	1224,123,1	1227,21,1	1242,27,1	1251,195,1	1254,33,1	1267,90,1	1280,135,1	1304,63,1	1376,165,1	1393,36,1	1397,78,1	1408,114,1	1453,147,1	1454,180,1	1455,198,1	1633,162,1	1639,48,1	1641,96,1	1650,99,1	1672,141,1	1679,150,1	1701,153,1	1929,192,1	1930,24,1	1940,39,1	1941,45,1	1943,105,1	1949,129,1	1950,144,1	1951,156,1	1952,159,1	1953,189,1	1962,42,1	2006,51,1	2011,54,1	2016,60,1	2033,138,1	2044,186,1	2067,66,1	
2,2,1	4,5,1	6,8,1	8,11,1	9,83,1	10,191,1	11,14,1	12,17,1	14,20,1	15,89,1	16,146,1	26,32,1	169,26,1	173,38,1	177,50,1	202,149,1	329,167,1	363,113,1	429,137,1	594,200,1	595,29,1	739,74,1	783,170,1	824,92,1	825,41,1	833,128,1	853,185,1	858,125,1	868,134,1	886,179,1	892,98,1	1434,59,1	1454,80,1	1474,140,1	1500,35,1	1524,107,1	1525,122,1	1526,161,1	1640,182,1	1645,194,1	1659,47,1	1663,53,1	1721,86,1	1729,110,1	1794,152,1	1809,62,1	1823,68,1	1844,71,1	1891,77,1	1892,95,1	1898,104,1	1931,158,1	1938,173,1	1943,188,1	1944,197,1	1954,23,1	1968,44,1	2017,65,1	2018,101,1	2022,116,1	2030,131,1	2040,176,1	2120,119,1	2145,56,1	2307,143,1	2339,155,1	2353,164,1	
0,0,1	1,4,1	2,13,1	3,16,1	4,7,1	5,19,1	6,1,1	7,10,1	8,67,1	9,43,1	10,166,1	11,91,1	12,118,1	13,115,1	14,76,1	15,100,1	16,133,1	17,184,1	18,85,1	39,49,1	290,70,1	349,169,1	351,190,1	365,22,1	412,109,1	784,37,1	929,97,1	936,124,1	938,148,1	955,82,1	966,163,1	982,139,1	984,52,1	998,154,1	999,40,1	1002,31,1	1017,178,1	1081,187,1	1135,199,1	1289,193,1	1298,28,1	1303,34,1	1304,112,1	1377,64,1	1435,121,1	1454,94,1	1523,181,1	1558,58,1	1563,61,1	1579,79,1	1599,88,1	1607,103,1	1620,127,1	1623,136,1	1626,142,1	1701,46,1	1712,130,1	1899,157,1	1926,172,1	2031,145,1	2042,25,1	2043,55,1	2044,151,1	2096,106,1	2106,160,1	2119,175,1	2120,196,1	2231,73,1	2539,201,1	
# Incoming
2,(0, 3),1	4,(0, 6),1	6,(0, 9),1	8,(0, 12),1	10,(0, 15),1	12,(0, 18),1	13,(2, 21),2	19,(4, 57),374	393,(2, 45),5	398,(2, 57),6	404,(2, 114),8	412,(2, 135),1	413,(5, 93),2	415,(4, 120),4	419,(5, 99),1	420,(4, 129),6	426,(4, 132),1	427,(2, 105),36	463,(2, 120),6	469,(2, 126),27	496,(2, 156),5	501,(2, 162),6	507,(5, 48),6	513,(5, 69),22	535,(5, 72),3	538,(5, 78),8	546,(5, 129),1	547,(5, 147),4	551,(5, 177),1	552,(5, 186),1	553,(8, 63),19	572,(8, 93),11	583,(8, 111),1	584,(8, 141),1	585,(4, 177),6	591,(8, 192),3	594,(11, 72),1	595,(13, 33),1	596,(5, 108),78	674,(8, 81),26	700,(8, 108),7	707,(8, 117),26	733,(11, 36),5	738,(11, 96),1	739,(13, 75),10	749,(13, 78),11	760,(11, 69),5	765,(11, 111),1	766,(11, 117),1	767,(11, 192),1	768,(14, 39),1	769,(13, 129),43	816,(13, 150),42	867,(13, 177),3	886,(13, 195),6	911,(8, 138),73	999,(11, 81),5	1004,(11, 84),5	1009,(11, 87),5	1014,(11, 132),3	1021,(11, 144),40	1120,(16, 69),5	1125,(16, 72),3	1128,(16, 105),14	1142,(16, 108),1	1143,(16, 120),7	1150,(16, 123),74	1224,(7, 21),3	1227,(7, 27),15	1242,(7, 96),1	1243,(7, 180),1	1244,(7, 195),7	1251,(19, 33),3	1254,(19, 39),3	1257,(19, 60),2	1259,(19, 63),1	1260,(19, 90),7	1267,(19, 150),1	1268,(19, 186),6	1274,(1, 63),2	1276,(1, 99),2	1278,(1, 135),2	1280,(1, 189),4	1284,(1, 192),18	1302,(10, 63),2	1304,(11, 165),72	1376,(14, 24),2	1378,(14, 36),15	1393,(14, 51),1	1394,(14, 60),2	1396,(14, 78),1	1397,(14, 114),11	1408,(14, 144),38	1446,(14, 147),7	1453,(14, 180),1	1454,(14, 198),1	1517,(17, 39),1	1518,(17, 45),5	1526,(7, 162),107	1633,(17, 48),6	1639,(17, 96),2	1641,(17, 99),9	1650,(17, 105),10	1660,(17, 138),11	1671,(17, 141),1	1672,(17, 144),1	1673,(17, 150),6	1679,(17, 153),22	1701,(17, 156),25	1926,(17, 192),3	1929,(20, 24),1	1930,(20, 39),10	1940,(20, 45),1	1941,(20, 105),2	1943,(20, 129),6	1949,(20, 144),1	1950,(20, 156),1	1951,(20, 159),1	1952,(20, 189),1	1954,(10, 42),8	1968,(10, 51),38	2006,(10, 54),5	2011,(10, 60),5	2030,(10, 138),3	2040,(10, 186),4	2044,(20, 66),23	
1,(0, 2),1	3,(0, 5),1	5,(0, 8),1	7,(0, 11),1	9,(0, 14),1	11,(0, 17),1	13,(0, 20),1	14,(4, 41),4	18,(4, 56),1	19,(3, 32),7	26,(3, 101),14	40,(3, 116),29	69,(3, 134),35	104,(3, 143),11	115,(3, 158),18	133,(3, 170),3	136,(3, 185),2	138,(3, 197),22	160,(6, 26),9	169,(6, 38),4	173,(6, 50),4	177,(6, 56),1	178,(6, 77),1	179,(6, 98),18	197,(6, 113),3	200,(6, 143),1	201,(6, 149),1	202,(6, 164),2	204,(6, 200),2	265,(6, 131),8	273,(6, 140),38	311,(6, 155),12	323,(6, 167),6	329,(6, 179),11	340,(6, 185),15	355,(9, 29),1	356,(9, 47),1	357,(9, 95),5	362,(9, 113),1	363,(9, 137),1	393,(4, 65),3	396,(4, 71),19	419,(4, 125),1	427,(4, 137),2	429,(4, 164),156	591,(4, 185),2	593,(4, 200),1	594,(13, 29),1	596,(13, 47),1	597,(13, 56),12	609,(13, 65),1	610,(13, 68),39	649,(13, 74),90	760,(13, 86),1	761,(13, 92),1	762,(13, 104),6	768,(13, 107),1	772,(9, 98),6	778,(9, 170),5	783,(9, 179),1	784,(9, 194),15	799,(12, 47),9	808,(12, 62),4	812,(13, 131),4	816,(12, 80),2	818,(12, 92),6	824,(15, 41),1	825,(15, 59),2	827,(15, 116),2	829,(15, 128),4	833,(15, 134),2	835,(15, 155),11	846,(15, 185),7	853,(15, 188),1	854,(18, 35),3	857,(18, 125),1	858,(13, 155),1	859,(13, 173),8	867,(18, 134),1	868,(18, 176),1	870,(13, 179),16	886,(18, 98),6	892,(13, 197),228	1120,(3, 77),186	1306,(16, 47),1	1307,(16, 56),2	1309,(16, 59),125	1434,(16, 80),20	1454,(16, 101),14	1468,(16, 140),6	1474,(16, 164),4	1478,(16, 182),20	1498,(7, 35),2	1500,(7, 68),9	1509,(7, 77),9	1518,(7, 101),3	1521,(7, 107),3	1524,(7, 122),1	1525,(7, 161),1	1526,(15, 47),98	1633,(7, 182),7	1640,(7, 194),5	1645,(19, 47),14	1659,(19, 53),4	1663,(19, 62),44	1707,(19, 68),9	1716,(19, 77),4	1720,(19, 86),1	1721,(19, 110),8	1729,(19, 119),1	1730,(19, 131),54	1784,(19, 152),10	1794,(19, 158),1	1795,(19, 188),11	1806,(1, 62),3	1809,(1, 68),14	1823,(1, 71),21	1844,(1, 77),47	1891,(1, 95),1	1892,(1, 104),6	1898,(1, 116),32	1930,(1, 158),1	1931,(1, 173),7	1938,(1, 188),5	1943,(1, 197),1	1944,(10, 23),10	1962,(10, 44),6	2016,(10, 65),1	2017,(10, 101),1	2018,(10, 116),4	2022,(10, 131),8	2033,(10, 176),7	2040,(15, 119),80	2120,(18, 56),25	2231,(18, 143),76	2307,(18, 155),32	2339,(18, 164),14	
15,(2, 37),19	34,(2, 49),5	39,(2, 52),1	40,(2, 61),3	43,(2, 97),1	44,(2, 106),100	144,(2, 109),2	146,(2, 130),10	156,(2, 136),1	157,(2, 139),15	172,(2, 142),1	173,(2, 172),12	185,(2, 175),1	186,(2, 190),20	206,(3, 64),6	212,(3, 112),1	213,(3, 124),17	230,(3, 127),2	232,(3, 178),1	233,(3, 181),4	237,(3, 187),26	263,(3, 196),2	265,(5, 70),25	290,(5, 79),1	291,(5, 106),3	294,(5, 121),2	296,(5, 127),14	310,(5, 139),1	311,(5, 154),1	312,(5, 169),37	349,(5, 172),1	350,(5, 190),1	351,(5, 196),13	364,(6, 22),1	365,(6, 31),8	373,(6, 46),5	378,(6, 52),1	379,(6, 109),33	412,(6, 121),8	420,(6, 136),338	758,(6, 142),6	764,(6, 193),8	772,(8, 37),12	784,(8, 40),125	909,(8, 61),2	911,(30, 201),3	914,(102, 201),3	917,(9, 79),1	918,(9, 97),11	929,(9, 121),6	935,(9, 124),1	936,(9, 142),1	937,(9, 148),1	938,(9, 199),16	954,(12, 82),1	955,(12, 130),2	957,(12, 163),9	966,(12, 172),1	967,(12, 181),1	968,(168, 201),3	971,(174, 201),3	974,(15, 73),1	975,(15, 94),3	978,(15, 103),3	981,(15, 139),1	982,(15, 193),1	983,(18, 52),1	984,(8, 154),14	998,(11, 40),1	999,(18, 31),3	1002,(18, 127),8	1010,(18, 175),5	1015,(18, 178),2	1017,(11, 136),4	1021,(18, 58),37	1058,(18, 199),1	1061,(11, 187),20	1081,(11, 196),11	1092,(11, 199),43	1135,(83, 201),3	1138,(191, 201),3	1141,(14, 28),1	1142,(14, 34),4	1146,(14, 88),78	1224,(14, 142),1	1225,(14, 172),1	1226,(14, 181),62	1288,(14, 193),1	1289,(17, 28),9	1298,(17, 34),5	1303,(17, 112),1	1306,(9, 64),71	1377,(15, 121),58	1435,(18, 94),19	1455,(17, 25),62	1517,(18, 181),6	1523,(17, 58),35	1558,(17, 61),5	1563,(17, 79),16	1579,(17, 88),20	1599,(17, 103),8	1607,(17, 127),13	1620,(17, 136),3	1623,(17, 142),3	1626,(18, 46),75	1701,(18, 130),11	1712,(171, 201),3	1715,(183, 201),3	1718,(57, 201),3	1721,(126, 201),3	1726,(17, 157),173	1899,(17, 172),27	1926,(15, 145),105	2031,(20, 25),11	2042,(20, 55),1	2043,(20, 151),1	2067,(20, 106),29	2096,(20, 160),10	2106,(20, 175),13	2119,(20, 196),1	2120,(89, 201),3	2123,(146, 201),3	2126,(32, 201),3	2129,(26, 201),3	2132,(38, 201),3	2135,(50, 201),3	2138,(149, 201),3	2141,(167, 201),3	2145,(18, 73),86	2231,(113, 201),3	2234,(137, 201),3	2237,(200, 201),3	2240,(29, 201),3	2243,(74, 201),3	2246,(170, 201),3	2249,(92, 201),3	2252,(41, 201),3	2255,(128, 201),3	2258,(185, 201),3	2261,(125, 201),3	2264,(134, 201),3	2267,(179, 201),3	2270,(98, 201),3	2273,(59, 201),3	2276,(80, 201),3	2279,(140, 201),3	2282,(35, 201),3	2285,(107, 201),3	2288,(122, 201),3	2291,(161, 201),3	2294,(182, 201),3	2297,(194, 201),3	2300,(47, 201),3	2303,(53, 201),3	2306,(86, 201),3	2309,(110, 201),3	2312,(152, 201),3	2315,(62, 201),3	2318,(68, 201),3	2321,(71, 201),3	2324,(77, 201),3	2327,(95, 201),3	2330,(104, 201),3	2333,(158, 201),3	2336,(173, 201),3	2339,(188, 201),3	2342,(197, 201),3	2345,(23, 201),3	2348,(44, 201),3	2353,(93, 201),3	2356,(75, 201),3	2359,(111, 201),3	2362,(117, 201),3	2365,(177, 201),3	2368,(81, 201),3	2371,(84, 201),3	2374,(87, 201),3	2377,(132, 201),3	2380,(69, 201),3	2383,(72, 201),3	2386,(108, 201),3	2389,(120, 201),3	2392,(123, 201),3	2395,(21, 201),3	2398,(27, 201),3	2401,(195, 201),3	2404,(33, 201),3	2407,(90, 201),3	2410,(135, 201),3	2413,(63, 201),3	2416,(165, 201),3	2419,(36, 201),3	2422,(78, 201),3	2425,(114, 201),3	2428,(147, 201),3	2431,(180, 201),3	2434,(198, 201),3	2437,(162, 201),3	2440,(48, 201),3	2443,(96, 201),3	2446,(99, 201),3	2449,(141, 201),3	2452,(150, 201),3	2455,(153, 201),3	2458,(192, 201),3	2461,(24, 201),3	2464,(39, 201),3	2467,(45, 201),3	2470,(105, 201),3	2473,(129, 201),3	2476,(144, 201),3	2479,(156, 201),3	2482,(159, 201),3	2485,(189, 201),3	2488,(42, 201),3	2491,(51, 201),3	2494,(54, 201),3	2497,(60, 201),3	2500,(65, 201),3	2503,(101, 201),3	2506,(116, 201),3	2509,(131, 201),3	2512,(138, 201),3	2515,(176, 201),3	2518,(186, 201),3	2521,(66, 201),3	2524,(119, 201),3	2527,(56, 201),3	2530,(143, 201),3	2533,(155, 201),3	2536,(164, 201),3	
# Outgoing
19,(3, 32),7	26,(3, 101),14	40,(3, 116),29	69,(3, 134),35	104,(3, 143),11	115,(3, 158),18	133,(3, 170),3	136,(3, 185),2	138,(3, 197),22	160,(6, 26),9	169,(6, 38),4	173,(6, 50),4	177,(6, 56),1	178,(6, 77),1	179,(6, 98),18	197,(6, 113),3	200,(6, 143),1	201,(6, 149),1	202,(6, 164),2	204,(6, 200),2	206,(3, 64),6	212,(3, 112),1	213,(3, 124),17	230,(3, 127),2	232,(3, 178),1	233,(3, 181),4	237,(3, 187),26	263,(3, 196),2	265,(6, 131),8	273,(6, 140),38	311,(6, 155),12	323,(6, 167),6	329,(6, 179),11	340,(6, 185),15	355,(9, 29),1	356,(9, 47),1	357,(9, 95),5	362,(9, 113),1	363,(9, 137),1	364,(6, 22),1	365,(6, 31),8	373,(6, 46),5	378,(6, 52),1	379,(6, 109),33	412,(6, 121),8	420,(6, 136),338	758,(6, 142),6	764,(6, 193),8	772,(9, 98),6	778,(9, 170),5	783,(9, 179),1	784,(9, 194),15	799,(12, 47),9	808,(12, 62),4	816,(12, 80),2	818,(12, 92),6	824,(15, 41),1	825,(15, 59),2	827,(15, 116),2	829,(15, 128),4	833,(15, 134),2	835,(15, 155),11	846,(15, 185),7	853,(15, 188),1	854,(18, 35),3	857,(18, 125),1	867,(18, 134),1	868,(18, 176),1	886,(18, 98),6	911,(30, 201),3	914,(102, 201),3	917,(9, 79),1	918,(9, 97),11	929,(9, 121),6	935,(9, 124),1	936,(9, 142),1	937,(9, 148),1	938,(9, 199),16	954,(12, 82),1	955,(12, 130),2	957,(12, 163),9	966,(12, 172),1	967,(12, 181),1	968,(168, 201),3	971,(174, 201),3	974,(15, 73),1	975,(15, 94),3	978,(15, 103),3	981,(15, 139),1	982,(15, 193),1	983,(18, 52),1	999,(18, 31),3	1002,(18, 127),8	1010,(18, 175),5	1015,(18, 178),2	1021,(18, 58),37	1058,(18, 199),1	1120,(3, 77),186	1306,(9, 64),71	1377,(15, 121),58	1435,(18, 94),19	1517,(18, 181),6	1526,(15, 47),98	1626,(18, 46),75	1701,(18, 130),11	1712,(171, 201),3	1715,(183, 201),3	1718,(57, 201),3	1721,(126, 201),3	1926,(15, 145),105	2040,(15, 119),80	2120,(18, 56),25	2145,(18, 73),86	2231,(18, 143),76	2307,(18, 155),32	2339,(18, 164),14	2353,(93, 201),3	2356,(75, 201),3	2359,(111, 201),3	2362,(117, 201),3	2365,(177, 201),3	2368,(81, 201),3	2371,(84, 201),3	2374,(87, 201),3	2377,(132, 201),3	2380,(69, 201),3	2383,(72, 201),3	2386,(108, 201),3	2389,(120, 201),3	2392,(123, 201),3	2395,(21, 201),3	2398,(27, 201),3	2401,(195, 201),3	2404,(33, 201),3	2407,(90, 201),3	2410,(135, 201),3	2413,(63, 201),3	2416,(165, 201),3	2419,(36, 201),3	2422,(78, 201),3	2425,(114, 201),3	2428,(147, 201),3	2431,(180, 201),3	2434,(198, 201),3	2437,(162, 201),3	2440,(48, 201),3	2443,(96, 201),3	2446,(99, 201),3	2449,(141, 201),3	2452,(150, 201),3	2455,(153, 201),3	2458,(192, 201),3	2461,(24, 201),3	2464,(39, 201),3	2467,(45, 201),3	2470,(105, 201),3	2473,(129, 201),3	2476,(144, 201),3	2479,(156, 201),3	2482,(159, 201),3	2485,(189, 201),3	2488,(42, 201),3	2491,(51, 201),3	2494,(54, 201),3	2497,(60, 201),3	2512,(138, 201),3	2518,(186, 201),3	2521,(66, 201),3	
13,(2, 21),2	15,(2, 37),19	34,(2, 49),5	39,(2, 52),1	40,(2, 61),3	43,(2, 97),1	44,(2, 106),100	144,(2, 109),2	146,(2, 130),10	156,(2, 136),1	157,(2, 139),15	172,(2, 142),1	173,(2, 172),12	185,(2, 175),1	186,(2, 190),20	265,(5, 70),25	290,(5, 79),1	291,(5, 106),3	294,(5, 121),2	296,(5, 127),14	310,(5, 139),1	311,(5, 154),1	312,(5, 169),37	349,(5, 172),1	350,(5, 190),1	351,(5, 196),13	393,(2, 45),5	398,(2, 57),6	404,(2, 114),8	412,(2, 135),1	413,(5, 93),2	419,(5, 99),1	427,(2, 105),36	463,(2, 120),6	469,(2, 126),27	496,(2, 156),5	501,(2, 162),6	507,(5, 48),6	513,(5, 69),22	535,(5, 72),3	538,(5, 78),8	546,(5, 129),1	547,(5, 147),4	551,(5, 177),1	552,(5, 186),1	553,(8, 63),19	572,(8, 93),11	583,(8, 111),1	584,(8, 141),1	591,(8, 192),3	594,(11, 72),1	596,(5, 108),78	674,(8, 81),26	700,(8, 108),7	707,(8, 117),26	733,(11, 36),5	738,(11, 96),1	760,(11, 69),5	765,(11, 111),1	766,(11, 117),1	767,(11, 192),1	768,(14, 39),1	772,(8, 37),12	784,(8, 40),125	909,(8, 61),2	911,(8, 138),73	984,(8, 154),14	998,(11, 40),1	999,(11, 81),5	1004,(11, 84),5	1009,(11, 87),5	1014,(11, 132),3	1017,(11, 136),4	1021,(11, 144),40	1061,(11, 187),20	1081,(11, 196),11	1092,(11, 199),43	1135,(83, 201),3	1138,(191, 201),3	1141,(14, 28),1	1142,(14, 34),4	1146,(14, 88),78	1224,(14, 142),1	1225,(14, 172),1	1226,(14, 181),62	1288,(14, 193),1	1289,(17, 28),9	1298,(17, 34),5	1303,(17, 112),1	1304,(11, 165),72	1376,(14, 24),2	1378,(14, 36),15	1393,(14, 51),1	1394,(14, 60),2	1396,(14, 78),1	1397,(14, 114),11	1408,(14, 144),38	1446,(14, 147),7	1453,(14, 180),1	1454,(14, 198),1	1455,(17, 25),62	1517,(17, 39),1	1518,(17, 45),5	1523,(17, 58),35	1558,(17, 61),5	1563,(17, 79),16	1579,(17, 88),20	1599,(17, 103),8	1607,(17, 127),13	1620,(17, 136),3	1623,(17, 142),3	1633,(17, 48),6	1639,(17, 96),2	1641,(17, 99),9	1650,(17, 105),10	1660,(17, 138),11	1671,(17, 141),1	1672,(17, 144),1	1673,(17, 150),6	1679,(17, 153),22	1701,(17, 156),25	1726,(17, 157),173	1899,(17, 172),27	1926,(17, 192),3	1929,(20, 24),1	1930,(20, 39),10	1940,(20, 45),1	1941,(20, 105),2	1943,(20, 129),6	1949,(20, 144),1	1950,(20, 156),1	1951,(20, 159),1	1952,(20, 189),1	2031,(20, 25),11	2042,(20, 55),1	2043,(20, 151),1	2044,(20, 66),23	2067,(20, 106),29	2096,(20, 160),10	2106,(20, 175),13	2119,(20, 196),1	2120,(89, 201),3	2123,(146, 201),3	2126,(32, 201),3	2129,(26, 201),3	2132,(38, 201),3	2135,(50, 201),3	2138,(149, 201),3	2141,(167, 201),3	2231,(113, 201),3	2234,(137, 201),3	2237,(200, 201),3	2240,(29, 201),3	2243,(74, 201),3	2246,(170, 201),3	2249,(92, 201),3	2252,(41, 201),3	2255,(128, 201),3	2258,(185, 201),3	2261,(125, 201),3	2264,(134, 201),3	2267,(179, 201),3	2270,(98, 201),3	2273,(59, 201),3	2276,(80, 201),3	2279,(140, 201),3	2282,(35, 201),3	2285,(107, 201),3	2288,(122, 201),3	2291,(161, 201),3	2294,(182, 201),3	2297,(194, 201),3	2300,(47, 201),3	2303,(53, 201),3	2306,(86, 201),3	2309,(110, 201),3	2312,(152, 201),3	2315,(62, 201),3	2318,(68, 201),3	2321,(71, 201),3	2324,(77, 201),3	2327,(95, 201),3	2330,(104, 201),3	2333,(158, 201),3	2336,(173, 201),3	2339,(188, 201),3	2342,(197, 201),3	2345,(23, 201),3	2348,(44, 201),3	2500,(65, 201),3	2503,(101, 201),3	2506,(116, 201),3	2509,(131, 201),3	2515,(176, 201),3	2524,(119, 201),3	2527,(56, 201),3	2530,(143, 201),3	2533,(155, 201),3	2536,(164, 201),3	
1,(0, 2),1	2,(0, 3),1	3,(0, 5),1	4,(0, 6),1	5,(0, 8),1	6,(0, 9),1	7,(0, 11),1	8,(0, 12),1	9,(0, 14),1	10,(0, 15),1	11,(0, 17),1	12,(0, 18),1	13,(0, 20),1	14,(4, 41),4	18,(4, 56),1	19,(4, 57),374	393,(4, 65),3	396,(4, 71),19	415,(4, 120),4	419,(4, 125),1	420,(4, 129),6	426,(4, 132),1	427,(4, 137),2	429,(4, 164),156	585,(4, 177),6	591,(4, 185),2	593,(4, 200),1	594,(13, 29),1	595,(13, 33),1	596,(13, 47),1	597,(13, 56),12	609,(13, 65),1	610,(13, 68),39	649,(13, 74),90	739,(13, 75),10	749,(13, 78),11	760,(13, 86),1	761,(13, 92),1	762,(13, 104),6	768,(13, 107),1	769,(13, 129),43	812,(13, 131),4	816,(13, 150),42	858,(13, 155),1	859,(13, 173),8	867,(13, 177),3	870,(13, 179),16	886,(13, 195),6	892,(13, 197),228	1120,(16, 69),5	1125,(16, 72),3	1128,(16, 105),14	1142,(16, 108),1	1143,(16, 120),7	1150,(16, 123),74	1224,(7, 21),3	1227,(7, 27),15	1242,(7, 96),1	1243,(7, 180),1	1244,(7, 195),7	1251,(19, 33),3	1254,(19, 39),3	1257,(19, 60),2	1259,(19, 63),1	1260,(19, 90),7	1267,(19, 150),1	1268,(19, 186),6	1274,(1, 63),2	1276,(1, 99),2	1278,(1, 135),2	1280,(1, 189),4	1284,(1, 192),18	1302,(10, 63),2	1306,(16, 47),1	1307,(16, 56),2	1309,(16, 59),125	1434,(16, 80),20	1454,(16, 101),14	1468,(16, 140),6	1474,(16, 164),4	1478,(16, 182),20	1498,(7, 35),2	1500,(7, 68),9	1509,(7, 77),9	1518,(7, 101),3	1521,(7, 107),3	1524,(7, 122),1	1525,(7, 161),1	1526,(7, 162),107	1633,(7, 182),7	1640,(7, 194),5	1645,(19, 47),14	1659,(19, 53),4	1663,(19, 62),44	1707,(19, 68),9	1716,(19, 77),4	1720,(19, 86),1	1721,(19, 110),8	1729,(19, 119),1	1730,(19, 131),54	1784,(19, 152),10	1794,(19, 158),1	1795,(19, 188),11	1806,(1, 62),3	1809,(1, 68),14	1823,(1, 71),21	1844,(1, 77),47	1891,(1, 95),1	1892,(1, 104),6	1898,(1, 116),32	1930,(1, 158),1	1931,(1, 173),7	1938,(1, 188),5	1943,(1, 197),1	1944,(10, 23),10	1954,(10, 42),8	1962,(10, 44),6	1968,(10, 51),38	2006,(10, 54),5	2011,(10, 60),5	2016,(10, 65),1	2017,(10, 101),1	2018,(10, 116),4	2022,(10, 131),8	2030,(10, 138),3	2033,(10, 176),7	2040,(10, 186),4	
