146
# CPU
0,0,1	1,2,18	19,9,18	37,17,18	55,3,18	73,14,18	91,12,18	109,13,18	127,20,18	145,21,1	
5,1,18	23,6,18	41,7,18	59,5,18	77,18,18	95,8,18	113,10,18	
23,11,18	67,16,18	119,15,18	
27,19,18	
35,4,18	
# Incoming
41,(6, 21),4	45,(11, 21),4	49,(19, 21),4	53,(4, 21),4	59,(7, 21),4	77,(5, 21),4	85,(16, 21),4	95,(18, 21),4	113,(8, 21),4	131,(10, 21),4	137,(15, 21),4	
1,(0, 1),4	
19,(2, 11),4	35,(2, 16),32	67,(2, 15),52	
23,(2, 19),4	
27,(2, 4),8	
# Outgoing
1,(0, 1),4	19,(2, 11),4	23,(2, 19),4	27,(2, 4),8	35,(2, 16),32	67,(2, 15),52	
41,(6, 21),4	59,(7, 21),4	77,(5, 21),4	95,(18, 21),4	113,(8, 21),4	131,(10, 21),4	
45,(11, 21),4	85,(16, 21),4	137,(15, 21),4	
49,(19, 21),4	
53,(4, 21),4	
