2862
# CPU
113,22,8	739,17,8	1027,6,8	1069,10,8	1077,15,8	1085,18,8	1111,31,8	1167,40,8	1503,12,8	1511,23,8	1521,32,8	1543,34,8	1565,36,8	2861,41,1	
19,1,8	27,9,8	35,27,8	43,19,8	51,20,8	65,7,8	115,25,8	363,37,8	371,38,8	495,5,8	
37,2,8	45,11,8	53,21,8	61,28,8	367,39,8	513,13,8	849,29,8	863,33,8	873,35,8	
0,0,1	1,4,8	9,3,8	17,24,8	25,14,8	33,30,8	41,26,8	49,8,8	57,16,8	
# Incoming
37,(4, 6),22	65,(4, 17),2	67,(4, 18),14	81,(4, 22),32	115,(4, 31),242	357,(4, 34),4	367,(4, 40),124	495,(3, 6),10	513,(3, 15),2	515,(3, 17),224	739,(3, 18),108	847,(2, 10),10	857,(2, 15),16	873,(3, 36),2	875,(3, 40),4	879,(24, 41),72	951,(1, 6),76	1027,(1, 10),42	1069,(1, 15),2	1071,(1, 18),14	1085,(1, 23),10	1095,(1, 31),16	1111,(1, 32),2	1113,(1, 34),8	1121,(1, 36),44	1165,(1, 40),2	1167,(14, 41),72	1239,(9, 41),72	1311,(30, 41),72	1383,(27, 41),72	1455,(2, 12),48	1503,(2, 23),4	1507,(2, 32),14	1521,(2, 34),22	1543,(2, 36),22	1565,(26, 41),72	1637,(19, 41),72	1709,(11, 41),72	1781,(8, 41),72	1853,(20, 41),72	1925,(21, 41),72	1997,(16, 41),72	2069,(28, 41),72	2141,(7, 41),72	2213,(25, 41),72	2285,(37, 41),72	2357,(39, 41),72	2429,(38, 41),72	2501,(5, 41),72	2573,(13, 41),72	2645,(29, 41),72	2717,(33, 41),72	2789,(35, 41),72	
1,(0, 1),18	59,(4, 7),6	113,(4, 25),2	361,(4, 37),2	363,(4, 38),2	491,(3, 5),4	
19,(0, 2),18	365,(4, 39),2	505,(3, 13),8	847,(3, 29),2	849,(3, 33),14	863,(3, 35),10	

# Outgoing

951,(1, 6),76	1027,(1, 10),42	1069,(1, 15),2	1071,(1, 18),14	1085,(1, 23),10	1095,(1, 31),16	1111,(1, 32),2	1113,(1, 34),8	1121,(1, 36),44	1165,(1, 40),2	1239,(9, 41),72	1383,(27, 41),72	1637,(19, 41),72	1853,(20, 41),72	2141,(7, 41),72	2213,(25, 41),72	2285,(37, 41),72	2429,(38, 41),72	2501,(5, 41),72	
847,(2, 10),10	857,(2, 15),16	1455,(2, 12),48	1503,(2, 23),4	1507,(2, 32),14	1521,(2, 34),22	1543,(2, 36),22	1709,(11, 41),72	1925,(21, 41),72	2069,(28, 41),72	2357,(39, 41),72	2573,(13, 41),72	2645,(29, 41),72	2717,(33, 41),72	2789,(35, 41),72	
1,(0, 1),18	19,(0, 2),18	37,(4, 6),22	59,(4, 7),6	65,(4, 17),2	67,(4, 18),14	81,(4, 22),32	113,(4, 25),2	115,(4, 31),242	357,(4, 34),4	361,(4, 37),2	363,(4, 38),2	365,(4, 39),2	367,(4, 40),124	491,(3, 5),4	495,(3, 6),10	505,(3, 13),8	513,(3, 15),2	515,(3, 17),224	739,(3, 18),108	847,(3, 29),2	849,(3, 33),14	863,(3, 35),10	873,(3, 36),2	875,(3, 40),4	879,(24, 41),72	1167,(14, 41),72	1311,(30, 41),72	1565,(26, 41),72	1781,(8, 41),72	1997,(16, 41),72	
