5763
# CPU
81,5,1	90,25,1	91,35,1	161,10,1	162,15,1	163,70,1	164,100,1	165,110,1	247,20,1	513,105,1	530,30,1	558,95,1	634,40,1	882,45,1	897,60,1	2554,90,1	3052,65,1	3151,80,1	3152,85,1	3566,120,1	3571,50,1	3579,55,1	3605,75,1	3680,115,1	
61,4,1	88,99,1	101,49,1	141,9,1	142,44,1	195,39,1	235,29,1	238,109,1	247,19,1	262,79,1	468,59,1	540,119,1	792,34,1	2512,74,1	2555,104,1	3020,24,1	3051,54,1	3174,94,1	3565,114,1	3569,14,1	3591,64,1	3595,69,1	3607,84,1	3642,89,1	
41,3,1	71,78,1	121,8,1	122,118,1	123,38,1	140,83,1	141,93,1	181,103,1	232,88,1	389,53,1	540,68,1	556,18,1	560,23,1	566,48,1	756,33,1	894,58,1	2556,108,1	3037,43,1	3188,98,1	3540,113,1	3567,13,1	3570,28,1	3604,73,1	5706,63,1	
21,2,1	101,7,1	126,27,1	130,82,1	181,12,1	754,22,1	775,52,1	776,47,1	792,117,1	845,97,1	880,92,1	890,57,1	956,37,1	979,42,1	990,62,1	1059,67,1	3017,17,1	3021,32,1	3119,77,1	3191,107,1	3199,112,1	3596,72,1	3617,87,1	3679,102,1	
0,0,1	1,11,1	2,6,1	3,1,1	4,26,1	5,51,1	228,41,1	229,61,1	232,86,1	248,101,1	261,111,1	322,21,1	365,16,1	368,31,1	396,96,1	432,36,1	470,56,1	495,81,1	496,91,1	498,106,1	715,66,1	1573,46,1	1671,71,1	1684,76,1	1694,116,1	5762,121,1	
# Incoming
61,(0, 5),20	81,(2, 15),6	87,(3, 25),3	90,(4, 35),1	91,(4, 45),2	93,(4, 70),1	94,(4, 85),1	98,(2, 40),1	101,(2, 55),10	118,(2, 80),18	141,(0, 10),20	165,(9, 65),1	166,(3, 50),16	182,(4, 60),8	190,(4, 120),13	203,(8, 65),4	207,(8, 105),1	208,(9, 50),34	244,(12, 80),1	246,(11, 20),1	247,(2, 30),101	348,(3, 105),165	513,(7, 75),7	520,(8, 30),10	530,(8, 95),28	558,(9, 60),73	631,(12, 40),3	798,(11, 45),84	882,(11, 55),3	894,(11, 60),3	2512,(11, 90),42	3051,(6, 65),1	3119,(6, 80),32	3151,(6, 85),1	3565,(6, 120),1	3570,(1, 50),1	3571,(1, 55),8	3604,(1, 75),1	3679,(1, 115),1	
41,(0, 4),20	61,(3, 19),1	62,(3, 29),10	72,(3, 64),1	73,(3, 79),2	75,(3, 99),1	82,(5, 19),1	87,(5, 99),1	94,(2, 24),2	96,(2, 34),1	99,(2, 44),1	100,(2, 49),1	101,(5, 44),16	117,(2, 64),1	121,(0, 9),20	141,(2, 39),54	195,(5, 64),17	212,(8, 29),23	235,(8, 59),2	237,(2, 109),1	238,(10, 84),1	240,(7, 14),1	241,(7, 94),3	244,(10, 19),3	247,(10, 104),2	261,(8, 79),1	262,(8, 89),2	264,(8, 119),1	294,(8, 74),22	389,(7, 59),79	468,(7, 64),21	512,(12, 114),1	520,(7, 119),20	560,(12, 24),5	756,(11, 34),36	2414,(11, 74),98	2554,(11, 104),1	3017,(6, 24),3	3037,(6, 54),14	3152,(6, 89),2	3154,(6, 94),20	3540,(6, 114),25	3567,(1, 14),2	3579,(1, 64),12	3591,(1, 69),4	3605,(1, 84),2	3617,(1, 89),25	
21,(0, 3),20	62,(4, 13),1	63,(4, 28),1	64,(4, 33),1	69,(4, 78),2	71,(4, 98),4	75,(4, 118),3	83,(5, 43),2	85,(5, 48),2	87,(2, 23),7	94,(5, 118),1	101,(0, 8),20	136,(2, 83),4	140,(7, 93),1	142,(9, 18),23	167,(9, 98),2	169,(9, 103),12	227,(2, 88),5	238,(2, 113),2	242,(11, 18),4	246,(12, 43),1	348,(7, 28),6	354,(7, 33),5	359,(7, 58),5	368,(7, 48),6	374,(7, 53),15	470,(10, 68),70	554,(12, 18),2	556,(12, 23),4	565,(12, 48),1	566,(12, 63),26	754,(11, 28),1	755,(11, 33),1	890,(11, 58),4	897,(11, 73),1517	2555,(11, 108),1	3021,(6, 43),16	3097,(6, 73),1	3174,(6, 98),14	3199,(6, 113),341	3566,(1, 13),1	3569,(1, 28),1	3596,(1, 73),8	3604,(2, 63),2102	
1,(0, 2),20	42,(3, 17),13	65,(4, 67),1	66,(4, 72),2	68,(4, 77),1	81,(0, 7),20	101,(4, 27),25	126,(5, 62),1	127,(5, 82),3	161,(0, 12),20	181,(11, 17),61	242,(9, 87),1	243,(9, 112),3	247,(11, 22),507	754,(3, 52),21	775,(8, 47),1	776,(8, 57),2	778,(8, 92),4	782,(9, 117),10	792,(11, 42),6	798,(8, 87),36	834,(8, 97),11	845,(9, 92),32	877,(10, 92),3	885,(11, 57),5	890,(9, 107),33	923,(10, 37),33	956,(10, 42),23	979,(10, 62),11	990,(10, 67),69	2556,(6, 17),461	3020,(6, 32),1	3052,(6, 72),45	3098,(6, 77),21	3188,(6, 107),3	3191,(6, 112),8	3595,(1, 72),1	3607,(1, 87),10	3642,(1, 102),37	
97,(2, 36),1	98,(3, 41),1	99,(3, 86),12	111,(2, 61),6	117,(3, 31),49	166,(4, 61),1	167,(5, 31),1	168,(5, 91),10	178,(5, 106),1	179,(5, 111),2	181,(10, 21),1	182,(3, 61),13	195,(2, 71),32	227,(10, 41),1	228,(10, 61),1	229,(10, 86),3	232,(2, 91),5	237,(3, 101),11	248,(3, 111),13	261,(4, 91),19	280,(78, 121),14	294,(5, 21),28	322,(99, 121),14	336,(25, 121),14	350,(35, 121),14	364,(7, 16),1	365,(7, 31),3	368,(49, 121),14	382,(9, 56),4	386,(9, 96),10	396,(9, 116),6	402,(44, 121),14	416,(10, 36),16	432,(10, 46),11	443,(10, 56),27	470,(39, 121),14	489,(7, 76),1	490,(7, 81),5	495,(7, 91),1	496,(7, 106),2	498,(27, 121),14	512,(29, 121),14	526,(109, 121),14	540,(82, 121),14	558,(118, 121),14	572,(38, 121),14	586,(83, 121),14	600,(93, 121),14	614,(10, 66),101	715,(15, 121),14	729,(70, 121),14	743,(100, 121),14	757,(110, 121),14	771,(12, 46),802	1573,(12, 71),98	1671,(12, 76),13	1684,(12, 116),10	1694,(103, 121),14	1708,(88, 121),14	1722,(19, 121),14	1736,(20, 121),14	1750,(79, 121),14	1764,(53, 121),14	1778,(59, 121),14	1792,(105, 121),14	1806,(30, 121),14	1820,(68, 121),14	1834,(119, 121),14	1848,(18, 121),14	1862,(95, 121),14	1876,(23, 121),14	1890,(48, 121),14	1904,(40, 121),14	1918,(22, 121),14	1932,(33, 121),14	1946,(52, 121),14	1960,(47, 121),14	1974,(34, 121),14	1988,(117, 121),14	2002,(97, 121),14	2016,(92, 121),14	2030,(45, 121),14	2044,(57, 121),14	2058,(58, 121),14	2072,(60, 121),14	2086,(37, 121),14	2100,(42, 121),14	2114,(62, 121),14	2128,(67, 121),14	2513,(74, 121),14	2555,(90, 121),14	2569,(104, 121),14	2583,(108, 121),14	3018,(17, 121),14	3032,(24, 121),14	3046,(32, 121),14	3060,(43, 121),14	3074,(54, 121),14	3088,(65, 121),14	3120,(77, 121),14	3152,(80, 121),14	3166,(85, 121),14	3180,(94, 121),14	3194,(98, 121),14	3208,(107, 121),14	3222,(112, 121),14	3541,(113, 121),14	3566,(114, 121),14	3580,(120, 121),14	3594,(13, 121),14	3608,(14, 121),14	3622,(28, 121),14	3636,(50, 121),14	3650,(55, 121),14	3664,(64, 121),14	3678,(69, 121),14	3692,(73, 121),14	3706,(75, 121),14	3720,(84, 121),14	3734,(89, 121),14	3748,(115, 121),14	5706,(72, 121),14	5720,(87, 121),14	5734,(102, 121),14	5748,(63, 121),14	
# Outgoing
82,(5, 19),1	83,(5, 43),2	85,(5, 48),2	87,(5, 99),1	94,(5, 118),1	101,(5, 44),16	126,(5, 62),1	127,(5, 82),3	167,(5, 31),1	168,(5, 91),10	178,(5, 106),1	179,(5, 111),2	181,(10, 21),1	195,(5, 64),17	227,(10, 41),1	228,(10, 61),1	229,(10, 86),3	238,(10, 84),1	244,(10, 19),3	247,(10, 104),2	294,(5, 21),28	336,(25, 121),14	350,(35, 121),14	416,(10, 36),16	432,(10, 46),11	443,(10, 56),27	470,(10, 68),70	614,(10, 66),101	715,(15, 121),14	729,(70, 121),14	743,(100, 121),14	757,(110, 121),14	877,(10, 92),3	923,(10, 37),33	956,(10, 42),23	979,(10, 62),11	990,(10, 67),69	1736,(20, 121),14	1792,(105, 121),14	1806,(30, 121),14	1862,(95, 121),14	1904,(40, 121),14	2030,(45, 121),14	2072,(60, 121),14	2555,(90, 121),14	3088,(65, 121),14	3152,(80, 121),14	3166,(85, 121),14	3580,(120, 121),14	3636,(50, 121),14	3650,(55, 121),14	3706,(75, 121),14	3748,(115, 121),14	
62,(4, 13),1	63,(4, 28),1	64,(4, 33),1	65,(4, 67),1	66,(4, 72),2	68,(4, 77),1	69,(4, 78),2	71,(4, 98),4	75,(4, 118),3	90,(4, 35),1	91,(4, 45),2	93,(4, 70),1	94,(4, 85),1	101,(4, 27),25	142,(9, 18),23	165,(9, 65),1	166,(4, 61),1	167,(9, 98),2	169,(9, 103),12	182,(4, 60),8	190,(4, 120),13	208,(9, 50),34	242,(9, 87),1	243,(9, 112),3	261,(4, 91),19	322,(99, 121),14	368,(49, 121),14	382,(9, 56),4	386,(9, 96),10	396,(9, 116),6	402,(44, 121),14	470,(39, 121),14	512,(29, 121),14	526,(109, 121),14	558,(9, 60),73	782,(9, 117),10	845,(9, 92),32	890,(9, 107),33	1722,(19, 121),14	1750,(79, 121),14	1778,(59, 121),14	1834,(119, 121),14	1974,(34, 121),14	2513,(74, 121),14	2569,(104, 121),14	3032,(24, 121),14	3074,(54, 121),14	3180,(94, 121),14	3566,(114, 121),14	3608,(14, 121),14	3664,(64, 121),14	3678,(69, 121),14	3720,(84, 121),14	3734,(89, 121),14	
42,(3, 17),13	61,(3, 19),1	62,(3, 29),10	72,(3, 64),1	73,(3, 79),2	75,(3, 99),1	87,(3, 25),3	98,(3, 41),1	99,(3, 86),12	117,(3, 31),49	166,(3, 50),16	182,(3, 61),13	203,(8, 65),4	207,(8, 105),1	212,(8, 29),23	235,(8, 59),2	237,(3, 101),11	248,(3, 111),13	261,(8, 79),1	262,(8, 89),2	264,(8, 119),1	280,(78, 121),14	294,(8, 74),22	348,(3, 105),165	520,(8, 30),10	530,(8, 95),28	558,(118, 121),14	572,(38, 121),14	586,(83, 121),14	600,(93, 121),14	754,(3, 52),21	775,(8, 47),1	776,(8, 57),2	778,(8, 92),4	798,(8, 87),36	834,(8, 97),11	1694,(103, 121),14	1708,(88, 121),14	1764,(53, 121),14	1820,(68, 121),14	1848,(18, 121),14	1876,(23, 121),14	1890,(48, 121),14	1932,(33, 121),14	2058,(58, 121),14	2583,(108, 121),14	3060,(43, 121),14	3194,(98, 121),14	3541,(113, 121),14	3594,(13, 121),14	3622,(28, 121),14	3692,(73, 121),14	5748,(63, 121),14	
81,(2, 15),6	87,(2, 23),7	94,(2, 24),2	96,(2, 34),1	97,(2, 36),1	98,(2, 40),1	99,(2, 44),1	100,(2, 49),1	101,(2, 55),10	111,(2, 61),6	117,(2, 64),1	118,(2, 80),18	136,(2, 83),4	140,(7, 93),1	141,(2, 39),54	195,(2, 71),32	227,(2, 88),5	232,(2, 91),5	237,(2, 109),1	238,(2, 113),2	240,(7, 14),1	241,(7, 94),3	244,(12, 80),1	246,(12, 43),1	247,(2, 30),101	348,(7, 28),6	354,(7, 33),5	359,(7, 58),5	364,(7, 16),1	365,(7, 31),3	368,(7, 48),6	374,(7, 53),15	389,(7, 59),79	468,(7, 64),21	489,(7, 76),1	490,(7, 81),5	495,(7, 91),1	496,(7, 106),2	498,(27, 121),14	512,(12, 114),1	513,(7, 75),7	520,(7, 119),20	540,(82, 121),14	554,(12, 18),2	556,(12, 23),4	560,(12, 24),5	565,(12, 48),1	566,(12, 63),26	631,(12, 40),3	771,(12, 46),802	1573,(12, 71),98	1671,(12, 76),13	1684,(12, 116),10	1918,(22, 121),14	1946,(52, 121),14	1960,(47, 121),14	1988,(117, 121),14	2002,(97, 121),14	2016,(92, 121),14	2044,(57, 121),14	2086,(37, 121),14	2100,(42, 121),14	2114,(62, 121),14	2128,(67, 121),14	3018,(17, 121),14	3046,(32, 121),14	3120,(77, 121),14	3208,(107, 121),14	3222,(112, 121),14	3604,(2, 63),2102	5706,(72, 121),14	5720,(87, 121),14	5734,(102, 121),14	
1,(0, 2),20	21,(0, 3),20	41,(0, 4),20	61,(0, 5),20	81,(0, 7),20	101,(0, 8),20	121,(0, 9),20	141,(0, 10),20	161,(0, 12),20	181,(11, 17),61	242,(11, 18),4	246,(11, 20),1	247,(11, 22),507	754,(11, 28),1	755,(11, 33),1	756,(11, 34),36	792,(11, 42),6	798,(11, 45),84	882,(11, 55),3	885,(11, 57),5	890,(11, 58),4	894,(11, 60),3	897,(11, 73),1517	2414,(11, 74),98	2512,(11, 90),42	2554,(11, 104),1	2555,(11, 108),1	2556,(6, 17),461	3017,(6, 24),3	3020,(6, 32),1	3021,(6, 43),16	3037,(6, 54),14	3051,(6, 65),1	3052,(6, 72),45	3097,(6, 73),1	3098,(6, 77),21	3119,(6, 80),32	3151,(6, 85),1	3152,(6, 89),2	3154,(6, 94),20	3174,(6, 98),14	3188,(6, 107),3	3191,(6, 112),8	3199,(6, 113),341	3540,(6, 114),25	3565,(6, 120),1	3566,(1, 13),1	3567,(1, 14),2	3569,(1, 28),1	3570,(1, 50),1	3571,(1, 55),8	3579,(1, 64),12	3591,(1, 69),4	3595,(1, 72),1	3596,(1, 73),8	3604,(1, 75),1	3605,(1, 84),2	3607,(1, 87),10	3617,(1, 89),25	3642,(1, 102),37	3679,(1, 115),1	
