4922
# CPU
0,121,1	1,114,22	23,111,22	45,110,22	67,86,22	89,36,22	111,98,22	133,32,22	155,22,22	177,52,22	199,61,22	221,119,22	243,105,22	265,16,22	287,117,22	309,100,22	331,79,22	353,21,22	375,37,22	397,17,22	419,103,22	441,29,22	463,67,22	485,84,22	507,59,22	529,46,22	551,20,22	573,83,22	595,50,22	617,58,22	639,89,22	661,69,22	683,90,22	705,48,22	727,82,22	749,78,22	771,19,22	793,31,22	815,118,22	837,75,22	859,55,22	881,109,22	903,74,22	925,15,22	947,88,22	969,47,22	991,13,22	1013,68,22	1035,93,22	1057,91,22	1079,70,22	1101,45,22	1123,113,22	1145,112,22	1167,106,22	1189,34,22	1211,23,22	1233,101,22	1255,80,22	1277,39,22	1299,102,22	1321,116,22	1343,49,22	1365,108,22	1387,97,22	1409,71,22	1431,65,22	1453,120,22	1475,43,22	1497,10,22	1519,54,22	1541,60,22	1563,7,22	1585,1,22	1607,5,22	1629,2,22	1723,11,22	1975,8,22	2515,3,22	3199,4,22	4899,9,22	4921,0,1	
41,35,22	81,77,22	201,63,22	521,92,22	641,44,22	801,62,22	841,66,22	881,53,22	1001,42,22	1041,115,22	1121,104,22	1161,87,22	1321,56,22	1361,41,22	1481,26,22	1521,76,22	2375,12,22	
561,94,22	601,28,22	721,24,22	921,38,22	1401,14,22	
161,81,22	361,40,22	441,72,22	1081,27,22	1819,6,22	
121,73,22	241,95,22	281,57,22	321,30,22	401,96,22	481,33,22	681,25,22	761,107,22	961,99,22	1201,64,22	1241,51,22	1281,18,22	1441,85,22	
# Incoming
383,(40, 10),4	387,(40, 7),16	403,(81, 1),8	463,(72, 1),20	483,(72, 5),8	491,(72, 8),4	623,(28, 1),28	651,(28, 11),8	659,(94, 4),28	743,(24, 1),12	755,(24, 2),16	771,(24, 11),4	775,(24, 3),36	863,(66, 10),4	867,(66, 7),24	891,(77, 5),4	895,(35, 2),4	899,(77, 4),4	903,(53, 5),4	907,(92, 2),24	931,(44, 2),32	963,(62, 2),44	1007,(63, 8),8	1023,(42, 1),64	1087,(42, 11),4	1091,(53, 4),12	1103,(27, 7),4	1107,(42, 5),28	1135,(27, 5),84	1219,(27, 8),40	1263,(51, 10),8	1271,(107, 7),4	1275,(57, 1),12	1287,(99, 1),32	1319,(64, 5),60	1379,(30, 2),12	1391,(25, 2),32	1423,(95, 11),8	1431,(25, 11),12	1443,(96, 8),16	1463,(85, 1),4	1467,(64, 2),56	1523,(107, 11),44	1567,(115, 11),72	1639,(64, 11),84	1723,(33, 8),20	1743,(99, 8),16	1759,(56, 8),216	1975,(6, 0),4	1979,(95, 3),4	1983,(44, 3),16	1999,(107, 3),24	2023,(104, 3),64	2087,(64, 3),140	2227,(41, 3),288	2515,(12, 0),4	2519,(99, 4),60	2579,(18, 4),172	2751,(41, 4),36	2787,(14, 4),412	3199,(62, 9),16	3215,(18, 9),8	3223,(85, 9),492	3715,(26, 9),1184	
1,(121, 35),40	41,(121, 77),40	161,(121, 63),40	481,(121, 92),40	601,(121, 44),40	761,(121, 62),40	801,(121, 66),40	841,(121, 53),40	961,(121, 42),40	1001,(121, 115),40	1081,(121, 104),40	1121,(121, 87),40	1281,(121, 56),40	1321,(121, 41),40	1441,(121, 26),40	1481,(121, 76),40	1561,(86, 12),4	1565,(36, 12),4	1569,(50, 12),4	1573,(43, 12),4	1579,(33, 12),4	1819,(16, 12),12	1831,(75, 12),8	1839,(93, 12),68	1907,(113, 12),16	1923,(106, 12),8	1931,(80, 12),8	1939,(49, 12),244	2227,(51, 12),148	
521,(121, 94),40	561,(121, 28),40	681,(121, 24),40	881,(121, 38),40	1361,(121, 14),40	
121,(121, 81),40	321,(121, 40),40	401,(121, 72),40	943,(38, 6),56	1041,(121, 27),40	1135,(66, 6),48	1183,(104, 6),108	1291,(87, 6),124	1459,(73, 6),4	1521,(52, 6),4	1525,(119, 6),8	1533,(31, 6),16	1549,(97, 6),12	1567,(30, 6),12	1579,(13, 6),64	1643,(45, 6),52	1695,(71, 6),124	
81,(121, 73),40	201,(121, 95),40	241,(121, 57),40	281,(121, 30),40	361,(121, 96),40	441,(121, 33),40	641,(121, 25),40	721,(121, 107),40	921,(121, 99),40	1161,(121, 64),40	1201,(121, 51),40	1241,(121, 18),40	1401,(121, 85),40	
# Outgoing
1,(121, 35),40	41,(121, 77),40	81,(121, 73),40	121,(121, 81),40	161,(121, 63),40	201,(121, 95),40	241,(121, 57),40	281,(121, 30),40	321,(121, 40),40	361,(121, 96),40	401,(121, 72),40	441,(121, 33),40	481,(121, 92),40	521,(121, 94),40	561,(121, 28),40	601,(121, 44),40	641,(121, 25),40	681,(121, 24),40	721,(121, 107),40	761,(121, 62),40	801,(121, 66),40	841,(121, 53),40	881,(121, 38),40	921,(121, 99),40	961,(121, 42),40	1001,(121, 115),40	1041,(121, 27),40	1081,(121, 104),40	1121,(121, 87),40	1161,(121, 64),40	1201,(121, 51),40	1241,(121, 18),40	1281,(121, 56),40	1321,(121, 41),40	1361,(121, 14),40	1401,(121, 85),40	1441,(121, 26),40	1481,(121, 76),40	1521,(52, 6),4	1525,(119, 6),8	1533,(31, 6),16	1549,(97, 6),12	1561,(86, 12),4	1565,(36, 12),4	1569,(50, 12),4	1573,(43, 12),4	1579,(13, 6),64	1643,(45, 6),52	1695,(71, 6),124	1819,(16, 12),12	1831,(75, 12),8	1839,(93, 12),68	1907,(113, 12),16	1923,(106, 12),8	1931,(80, 12),8	1939,(49, 12),244	
863,(66, 10),4	867,(66, 7),24	891,(77, 5),4	895,(35, 2),4	899,(77, 4),4	903,(53, 5),4	907,(92, 2),24	931,(44, 2),32	963,(62, 2),44	1007,(63, 8),8	1023,(42, 1),64	1087,(42, 11),4	1091,(53, 4),12	1107,(42, 5),28	1135,(66, 6),48	1183,(104, 6),108	1291,(87, 6),124	1567,(115, 11),72	1759,(56, 8),216	1983,(44, 3),16	2023,(104, 3),64	2227,(41, 3),288	2515,(12, 0),4	2751,(41, 4),36	3199,(62, 9),16	3715,(26, 9),1184	
623,(28, 1),28	651,(28, 11),8	659,(94, 4),28	743,(24, 1),12	755,(24, 2),16	771,(24, 11),4	775,(24, 3),36	943,(38, 6),56	2787,(14, 4),412	
383,(40, 10),4	387,(40, 7),16	403,(81, 1),8	463,(72, 1),20	483,(72, 5),8	491,(72, 8),4	1103,(27, 7),4	1135,(27, 5),84	1219,(27, 8),40	1975,(6, 0),4	
1263,(51, 10),8	1271,(107, 7),4	1275,(57, 1),12	1287,(99, 1),32	1319,(64, 5),60	1379,(30, 2),12	1391,(25, 2),32	1423,(95, 11),8	1431,(25, 11),12	1443,(96, 8),16	1459,(73, 6),4	1463,(85, 1),4	1467,(64, 2),56	1523,(107, 11),44	1567,(30, 6),12	1579,(33, 12),4	1639,(64, 11),84	1723,(33, 8),20	1743,(99, 8),16	1979,(95, 3),4	1999,(107, 3),24	2087,(64, 3),140	2227,(51, 12),148	2519,(99, 4),60	2579,(18, 4),172	3215,(18, 9),8	3223,(85, 9),492	
