314
# CPU
87,5,18	105,8,18	123,11,18	233,14,18	253,17,18	285,20,18	
49,2,18	67,4,18	85,19,18	103,7,18	121,10,18	139,13,18	173,16,18	
0,0,1	1,1,18	19,6,18	37,18,18	69,3,18	93,9,18	211,12,18	245,15,18	313,21,1	
# Incoming
49,(1, 5),38	87,(1, 8),2	89,(1, 11),2	211,(2, 14),22	245,(2, 17),8	253,(2, 20),32	
1,(0, 2),48	91,(1, 13),4	95,(1, 16),78	
67,(2, 3),2	69,(2, 9),24	93,(2, 12),118	211,(5, 21),4	215,(8, 21),4	219,(11, 21),4	233,(2, 15),12	251,(14, 21),4	271,(17, 21),4	285,(4, 21),4	289,(19, 21),4	293,(7, 21),4	297,(10, 21),4	301,(13, 21),4	305,(16, 21),4	309,(20, 21),4	
# Outgoing
211,(5, 21),4	215,(8, 21),4	219,(11, 21),4	251,(14, 21),4	271,(17, 21),4	309,(20, 21),4	
67,(2, 3),2	69,(2, 9),24	93,(2, 12),118	211,(2, 14),22	233,(2, 15),12	245,(2, 17),8	253,(2, 20),32	285,(4, 21),4	289,(19, 21),4	293,(7, 21),4	297,(10, 21),4	301,(13, 21),4	305,(16, 21),4	
1,(0, 2),48	49,(1, 5),38	87,(1, 8),2	89,(1, 11),2	91,(1, 13),4	95,(1, 16),78	
