3050
# CPU
141,6,24	165,10,24	189,45,24	213,49,24	237,75,24	261,29,24	285,40,24	309,67,24	333,61,24	357,77,24	381,20,24	405,17,24	429,24,24	
29,1,24	53,9,24	77,32,24	101,44,24	125,69,24	149,64,24	173,38,24	197,60,24	221,14,24	245,34,24	269,35,24	1621,53,24	
113,5,24	137,22,24	161,36,24	185,66,24	209,65,24	233,70,24	257,23,24	281,37,24	305,55,24	329,15,24	
85,4,24	109,12,24	133,28,24	157,78,24	181,79,24	205,21,24	229,39,24	253,72,24	993,74,24	
57,2,24	81,18,24	105,42,24	129,63,24	153,48,24	177,46,24	201,26,24	1625,62,24	
169,7,24	193,16,24	217,50,24	241,33,24	265,56,24	289,51,24	313,71,24	861,57,24	
197,8,24	221,19,24	245,41,24	269,80,24	293,30,24	317,54,24	
249,11,24	977,68,24	1493,43,24	1725,76,24	1873,27,24	3049,81,1	
0,0,1	1,3,24	25,13,24	49,25,24	73,59,24	
309,31,24	817,47,24	857,52,24	881,58,24	989,73,24	
# Incoming
113,(0, 6),28	197,(7, 77),4	221,(8, 20),4	249,(3, 17),4	253,(3, 24),28	
1,(0, 1),28	1613,(6, 53),8	
85,(0, 5),28	113,(4, 22),4	193,(7, 15),4	
57,(0, 4),28	989,(3, 74),4	
29,(0, 2),28	1621,(6, 62),4	
141,(0, 7),28	169,(1, 71),4	225,(8, 71),16	857,(3, 57),4	
169,(0, 8),28	
197,(3, 11),52	249,(1, 76),48	309,(3, 43),504	813,(9, 81),24	837,(32, 81),24	881,(3, 68),96	993,(13, 81),24	1017,(25, 81),24	1041,(59, 81),24	1065,(18, 81),24	1089,(44, 81),24	1113,(42, 81),24	1137,(12, 81),24	1161,(5, 43),332	1493,(69, 81),24	1517,(63, 81),24	1541,(28, 81),24	1565,(22, 81),24	1589,(6, 27),24	1625,(6, 76),100	1725,(64, 81),24	1749,(48, 81),24	1773,(78, 81),24	1797,(36, 81),24	1821,(10, 81),24	1845,(7, 27),28	1873,(38, 81),24	1897,(46, 81),24	1921,(79, 81),24	1945,(66, 81),24	1969,(45, 81),24	1993,(16, 81),24	2017,(60, 81),24	2041,(26, 81),24	2065,(21, 81),24	2089,(65, 81),24	2113,(49, 81),24	2137,(50, 81),24	2161,(14, 81),24	2185,(19, 81),24	2209,(39, 81),24	2233,(70, 81),24	2257,(75, 81),24	2281,(33, 81),24	2305,(34, 81),24	2329,(41, 81),24	2353,(72, 81),24	2377,(23, 81),24	2401,(29, 81),24	2425,(56, 81),24	2449,(35, 81),24	2473,(80, 81),24	2497,(37, 81),24	2521,(40, 81),24	2545,(51, 81),24	2569,(30, 81),24	2593,(55, 81),24	2617,(67, 81),24	2641,(31, 81),24	2665,(71, 81),24	2689,(54, 81),24	2713,(15, 81),24	2737,(61, 81),24	2761,(77, 81),24	2785,(20, 81),24	2809,(17, 81),24	2833,(24, 81),24	2857,(47, 81),24	2881,(52, 81),24	2905,(57, 81),24	2929,(58, 81),24	2953,(73, 81),24	2977,(74, 81),24	3001,(53, 81),24	3025,(62, 81),24	

281,(3, 31),28	813,(3, 47),4	817,(3, 52),40	861,(3, 58),20	977,(3, 73),12	
# Outgoing
1589,(6, 27),24	1613,(6, 53),8	1621,(6, 62),4	1625,(6, 76),100	1821,(10, 81),24	1969,(45, 81),24	2113,(49, 81),24	2257,(75, 81),24	2401,(29, 81),24	2521,(40, 81),24	2617,(67, 81),24	2737,(61, 81),24	2761,(77, 81),24	2785,(20, 81),24	2809,(17, 81),24	2833,(24, 81),24	
169,(1, 71),4	249,(1, 76),48	813,(9, 81),24	837,(32, 81),24	1089,(44, 81),24	1493,(69, 81),24	1725,(64, 81),24	1873,(38, 81),24	2017,(60, 81),24	2161,(14, 81),24	2305,(34, 81),24	2449,(35, 81),24	3001,(53, 81),24	
1161,(5, 43),332	1565,(22, 81),24	1797,(36, 81),24	1945,(66, 81),24	2089,(65, 81),24	2233,(70, 81),24	2377,(23, 81),24	2497,(37, 81),24	2593,(55, 81),24	2713,(15, 81),24	
113,(4, 22),4	1137,(12, 81),24	1541,(28, 81),24	1773,(78, 81),24	1921,(79, 81),24	2065,(21, 81),24	2209,(39, 81),24	2353,(72, 81),24	2977,(74, 81),24	
1065,(18, 81),24	1113,(42, 81),24	1517,(63, 81),24	1749,(48, 81),24	1897,(46, 81),24	2041,(26, 81),24	3025,(62, 81),24	
193,(7, 15),4	197,(7, 77),4	1845,(7, 27),28	1993,(16, 81),24	2137,(50, 81),24	2281,(33, 81),24	2425,(56, 81),24	2545,(51, 81),24	2665,(71, 81),24	2905,(57, 81),24	
221,(8, 20),4	225,(8, 71),16	2185,(19, 81),24	2329,(41, 81),24	2473,(80, 81),24	2569,(30, 81),24	2689,(54, 81),24	

1,(0, 1),28	29,(0, 2),28	57,(0, 4),28	85,(0, 5),28	113,(0, 6),28	141,(0, 7),28	169,(0, 8),28	197,(3, 11),52	249,(3, 17),4	253,(3, 24),28	281,(3, 31),28	309,(3, 43),504	813,(3, 47),4	817,(3, 52),40	857,(3, 57),4	861,(3, 58),20	881,(3, 68),96	977,(3, 73),12	989,(3, 74),4	993,(13, 81),24	1017,(25, 81),24	1041,(59, 81),24	
2641,(31, 81),24	2857,(47, 81),24	2881,(52, 81),24	2929,(58, 81),24	2953,(73, 81),24	
