4260
# CPU
13,4,10	23,43,10	33,65,10	43,8,10	53,71,10	63,12,10	73,96,10	83,102,10	93,114,10	103,40,10	113,46,10	123,117,10	133,28,10	143,17,10	153,50,10	163,120,10	173,53,10	183,59,10	193,77,10	231,83,10	377,111,10	387,62,10	441,99,10	483,68,10	493,74,10	503,89,10	1343,80,10	1353,105,10	1363,108,10	1373,22,10	1383,25,10	1393,32,10	1403,37,10	1413,56,10	1451,93,10	1461,19,10	1471,86,10	
9,3,10	19,24,10	29,52,10	39,7,10	49,55,10	59,11,10	69,21,10	79,64,10	89,107,10	99,18,10	109,39,10	119,61,10	129,101,10	139,119,10	149,91,10	159,113,10	169,67,10	179,76,10	189,42,10	199,27,10	209,31,10	219,95,10	229,88,10	239,70,10	249,45,10	335,58,10	351,82,10	367,73,10	381,16,10	409,79,10	431,85,10	441,98,10	451,110,10	461,36,10	471,116,10	481,49,10	491,104,10	
5,2,10	15,38,10	25,112,10	35,6,10	45,10,10	55,35,10	65,15,10	75,103,10	85,87,10	95,20,10	105,23,10	115,63,10	125,115,10	135,81,10	145,51,10	155,72,10	175,78,10	233,97,10	365,109,10	379,118,10	1281,30,10	1319,26,10	1343,47,10	1387,100,10	1425,54,10	1471,60,10	1497,75,10	1507,90,10	1517,106,10	1545,57,10	1559,84,10	1681,69,10	2563,41,10	2597,44,10	3293,66,10	3303,94,10	4259,121,1	
0,0,1	1,9,10	11,5,10	21,1,10	39,29,10	91,33,10	381,14,10	535,34,10	1453,13,10	2511,92,10	3289,48,10	
# Incoming
9,(0, 4),4	21,(0, 8),4	27,(2, 71),2	29,(2, 83),4	33,(0, 12),4	37,(2, 46),20	57,(2, 117),2	59,(6, 17),22	87,(6, 50),2	91,(10, 120),2	93,(9, 37),2	107,(9, 53),4	111,(9, 59),24	147,(9, 77),2	175,(9, 80),40	215,(9, 83),16	365,(9, 111),12	381,(5, 62),2	383,(10, 99),32	437,(5, 99),4	443,(5, 108),10	481,(1, 68),2	483,(1, 74),6	489,(1, 89),2	1317,(3, 80),26	1343,(3, 105),2	1345,(3, 108),14	1359,(7, 22),4	1363,(7, 25),2	1365,(7, 32),2	1367,(7, 37),10	1377,(7, 56),10	1417,(7, 93),34	1453,(11, 19),2	1455,(11, 86),2	
5,(0, 3),4	17,(0, 7),4	21,(2, 21),4	25,(2, 55),2	29,(0, 11),4	37,(9, 16),2	39,(9, 27),34	73,(9, 31),20	93,(2, 95),30	123,(4, 88),8	131,(6, 73),2	133,(6, 85),2	135,(9, 70),2	137,(2, 45),90	227,(2, 58),108	335,(4, 82),16	351,(8, 36),8	359,(8, 73),8	367,(12, 98),2	379,(5, 16),2	383,(5, 79),26	409,(5, 85),22	431,(5, 98),6	437,(6, 104),4	441,(5, 104),2	443,(6, 110),4	447,(10, 36),4	453,(5, 116),2	455,(1, 49),26	481,(10, 104),4	
1,(0, 2),4	13,(0, 6),4	25,(0, 10),4	39,(4, 35),4	43,(4, 51),4	47,(43, 121),30	77,(8, 63),2	79,(8, 100),6	85,(8, 115),2	87,(12, 81),2	95,(9, 51),12	107,(12, 106),12	137,(9, 72),10	149,(9, 78),26	175,(65, 121),30	231,(9, 97),2	233,(9, 109),132	377,(9, 118),2	379,(3, 30),902	1281,(3, 66),36	1317,(5, 26),2	1319,(5, 47),24	1343,(5, 100),44	1387,(24, 121),30	1417,(1, 54),8	1425,(1, 60),46	1471,(1, 75),26	1497,(1, 90),8	1505,(1, 106),4	1509,(52, 121),30	1539,(7, 57),6	1545,(7, 84),14	1559,(29, 121),30	1589,(71, 121),30	1619,(12, 69),62	1681,(96, 121),30	1711,(102, 121),30	1741,(33, 121),30	1771,(114, 121),30	1801,(40, 121),30	1831,(46, 121),30	1861,(117, 121),30	1891,(28, 121),30	1921,(17, 121),30	1951,(50, 121),30	1981,(120, 121),30	2011,(53, 121),30	2041,(59, 121),30	2071,(77, 121),30	2101,(83, 121),30	2131,(111, 121),30	2161,(14, 121),30	2191,(62, 121),30	2221,(99, 121),30	2251,(68, 121),30	2281,(74, 121),30	2311,(89, 121),30	2341,(34, 121),30	2371,(80, 121),30	2401,(105, 121),30	2431,(108, 121),30	2461,(22, 121),30	2511,(55, 121),30	2541,(11, 41),22	2563,(11, 44),34	2597,(25, 121),30	2627,(32, 121),30	2657,(37, 121),30	2687,(56, 121),30	2717,(93, 121),30	2747,(13, 121),30	2777,(19, 121),30	2807,(86, 121),30	2837,(92, 121),30	3289,(11, 66),4	3293,(11, 94),6	3299,(21, 121),30	3329,(64, 121),30	3359,(107, 121),30	3389,(18, 121),30	3419,(39, 121),30	3449,(61, 121),30	3479,(101, 121),30	3509,(119, 121),30	3539,(91, 121),30	3569,(113, 121),30	3599,(67, 121),30	3629,(76, 121),30	3659,(42, 121),30	3689,(27, 121),30	3719,(31, 121),30	3749,(95, 121),30	3779,(88, 121),30	3809,(70, 121),30	3839,(45, 121),30	3869,(58, 121),30	3899,(82, 121),30	3929,(73, 121),30	3959,(16, 121),30	3989,(79, 121),30	4019,(85, 121),30	4049,(98, 121),30	4079,(110, 121),30	4109,(36, 121),30	4139,(116, 121),30	4169,(49, 121),30	4199,(104, 121),30	4229,(48, 121),30	
23,(4, 29),16	81,(6, 34),6	89,(10, 33),2	335,(6, 14),46	381,(12, 34),154	1451,(11, 13),2	1559,(7, 92),952	2597,(11, 48),692	
# Outgoing
23,(4, 29),16	39,(4, 35),4	43,(4, 51),4	47,(43, 121),30	77,(8, 63),2	79,(8, 100),6	85,(8, 115),2	87,(12, 81),2	107,(12, 106),12	123,(4, 88),8	175,(65, 121),30	335,(4, 82),16	351,(8, 36),8	359,(8, 73),8	367,(12, 98),2	381,(12, 34),154	1589,(71, 121),30	1619,(12, 69),62	1681,(96, 121),30	1711,(102, 121),30	1771,(114, 121),30	1801,(40, 121),30	1831,(46, 121),30	1861,(117, 121),30	1891,(28, 121),30	1921,(17, 121),30	1951,(50, 121),30	1981,(120, 121),30	2011,(53, 121),30	2041,(59, 121),30	2071,(77, 121),30	2101,(83, 121),30	2131,(111, 121),30	2191,(62, 121),30	2221,(99, 121),30	2251,(68, 121),30	2281,(74, 121),30	2311,(89, 121),30	2371,(80, 121),30	2401,(105, 121),30	2431,(108, 121),30	2461,(22, 121),30	2597,(25, 121),30	2627,(32, 121),30	2657,(37, 121),30	2687,(56, 121),30	2717,(93, 121),30	2777,(19, 121),30	2807,(86, 121),30	
379,(3, 30),902	1281,(3, 66),36	1317,(3, 80),26	1343,(3, 105),2	1345,(3, 108),14	1359,(7, 22),4	1363,(7, 25),2	1365,(7, 32),2	1367,(7, 37),10	1377,(7, 56),10	1387,(24, 121),30	1417,(7, 93),34	1451,(11, 13),2	1453,(11, 19),2	1455,(11, 86),2	1509,(52, 121),30	1539,(7, 57),6	1545,(7, 84),14	1559,(7, 92),952	2511,(55, 121),30	2541,(11, 41),22	2563,(11, 44),34	2597,(11, 48),692	3289,(11, 66),4	3293,(11, 94),6	3299,(21, 121),30	3329,(64, 121),30	3359,(107, 121),30	3389,(18, 121),30	3419,(39, 121),30	3449,(61, 121),30	3479,(101, 121),30	3509,(119, 121),30	3539,(91, 121),30	3569,(113, 121),30	3599,(67, 121),30	3629,(76, 121),30	3659,(42, 121),30	3689,(27, 121),30	3719,(31, 121),30	3749,(95, 121),30	3779,(88, 121),30	3809,(70, 121),30	3839,(45, 121),30	3869,(58, 121),30	3899,(82, 121),30	3929,(73, 121),30	3959,(16, 121),30	3989,(79, 121),30	4019,(85, 121),30	4049,(98, 121),30	4079,(110, 121),30	4109,(36, 121),30	4139,(116, 121),30	4169,(49, 121),30	4199,(104, 121),30	
21,(2, 21),4	25,(2, 55),2	27,(2, 71),2	29,(2, 83),4	37,(2, 46),20	57,(2, 117),2	59,(6, 17),22	81,(6, 34),6	87,(6, 50),2	89,(10, 33),2	91,(10, 120),2	93,(2, 95),30	131,(6, 73),2	133,(6, 85),2	137,(2, 45),90	227,(2, 58),108	335,(6, 14),46	383,(10, 99),32	437,(6, 104),4	443,(6, 110),4	447,(10, 36),4	481,(10, 104),4	
1,(0, 2),4	5,(0, 3),4	9,(0, 4),4	13,(0, 6),4	17,(0, 7),4	21,(0, 8),4	25,(0, 10),4	29,(0, 11),4	33,(0, 12),4	37,(9, 16),2	39,(9, 27),34	73,(9, 31),20	93,(9, 37),2	95,(9, 51),12	107,(9, 53),4	111,(9, 59),24	135,(9, 70),2	137,(9, 72),10	147,(9, 77),2	149,(9, 78),26	175,(9, 80),40	215,(9, 83),16	231,(9, 97),2	233,(9, 109),132	365,(9, 111),12	377,(9, 118),2	379,(5, 16),2	381,(5, 62),2	383,(5, 79),26	409,(5, 85),22	431,(5, 98),6	437,(5, 99),4	441,(5, 104),2	443,(5, 108),10	453,(5, 116),2	455,(1, 49),26	481,(1, 68),2	483,(1, 74),6	489,(1, 89),2	1317,(5, 26),2	1319,(5, 47),24	1343,(5, 100),44	1417,(1, 54),8	1425,(1, 60),46	1471,(1, 75),26	1497,(1, 90),8	1505,(1, 106),4	1559,(29, 121),30	1741,(33, 121),30	2161,(14, 121),30	2341,(34, 121),30	2747,(13, 121),30	2837,(92, 121),30	4229,(48, 121),30	
