6071
# CPU
9,3,1	10,18,1	11,69,1	12,72,1	17,6,1	18,27,1	19,36,1	69,12,1	105,24,1	5613,42,1	5641,57,1	5645,21,1	5649,30,1	5657,33,1	5673,39,1	5689,54,1	5725,15,1	5805,45,1	5821,48,1	5841,63,1	5897,9,1	5945,75,1	5969,51,1	5989,66,1	6041,78,1	6061,60,1	
5,2,1	13,5,1	14,68,1	15,71,1	21,8,1	22,17,1	23,44,1	24,50,1	25,62,1	33,11,1	37,14,1	53,32,1	93,20,1	101,29,1	242,65,1	310,74,1	374,53,1	434,77,1	5645,59,1	5653,35,1	5657,38,1	5737,41,1	5837,56,1	5845,80,1	5901,23,1	5909,26,1	5957,47,1	
0,0,1	1,4,1	2,7,1	3,1,1	4,28,1	5,70,1	6,67,1	7,58,1	8,79,1	9,49,1	10,73,1	11,31,1	12,46,1	13,10,1	54,52,1	110,55,1	118,13,1	130,37,1	158,34,1	170,43,1	174,76,1	674,16,1	902,25,1	1130,64,1	1262,19,1	1266,22,1	1270,40,1	1298,61,1	6070,81,1	
# Incoming
5,(0, 3),4	13,(0, 6),4	21,(4, 12),48	69,(4, 24),36	105,(4, 42),5508	5613,(4, 57),28	5641,(5, 21),4	5645,(7, 30),4	5649,(5, 33),8	5657,(7, 39),16	5673,(2, 54),16	5689,(5, 15),36	5737,(7, 45),68	5805,(5, 48),16	5837,(7, 63),4	5845,(1, 9),52	5897,(5, 75),48	5957,(1, 51),12	5969,(1, 66),20	5989,(1, 78),52	6041,(8, 60),20	
1,(0, 2),4	9,(0, 5),4	17,(0, 8),4	21,(3, 11),12	33,(3, 14),4	37,(3, 32),16	53,(6, 20),40	93,(6, 29),8	118,(3, 65),124	242,(3, 74),68	334,(6, 53),40	374,(6, 77),60	5641,(4, 59),4	5649,(7, 35),4	5653,(7, 38),4	5673,(7, 41),64	5805,(7, 56),32	5841,(7, 80),4	5897,(1, 23),4	5901,(1, 26),8	5909,(1, 47),48	
6,(2, 52),48	54,(2, 55),56	110,(3, 13),8	118,(5, 37),12	130,(68, 81),8	138,(71, 81),8	146,(8, 34),12	158,(8, 43),12	170,(8, 76),4	174,(17, 81),8	182,(44, 81),8	190,(50, 81),8	198,(62, 81),8	206,(11, 81),8	214,(14, 81),8	222,(32, 81),8	230,(20, 81),8	238,(29, 81),8	246,(65, 81),8	310,(18, 81),8	318,(69, 81),8	326,(72, 81),8	334,(5, 16),340	674,(5, 25),228	902,(5, 64),228	1130,(6, 19),132	1262,(6, 22),4	1266,(6, 40),4	1270,(6, 61),28	1298,(27, 81),8	1306,(36, 81),8	1314,(12, 81),8	1322,(24, 81),8	1330,(74, 81),8	1338,(53, 81),8	1346,(77, 81),8	5614,(42, 81),8	5642,(57, 81),8	5650,(21, 81),8	5658,(59, 81),8	5666,(30, 81),8	5674,(33, 81),8	5682,(39, 81),8	5690,(54, 81),8	5725,(35, 81),8	5733,(38, 81),8	5741,(15, 81),8	5749,(41, 81),8	5806,(45, 81),8	5822,(48, 81),8	5838,(56, 81),8	5846,(63, 81),8	5854,(80, 81),8	5898,(9, 81),8	5945,(23, 81),8	5953,(26, 81),8	5961,(75, 81),8	5969,(47, 81),8	5977,(51, 81),8	5990,(66, 81),8	6042,(78, 81),8	6062,(60, 81),8	
# Outgoing
21,(3, 11),12	33,(3, 14),4	37,(3, 32),16	53,(6, 20),40	93,(6, 29),8	110,(3, 13),8	118,(3, 65),124	242,(3, 74),68	310,(18, 81),8	318,(69, 81),8	326,(72, 81),8	334,(6, 53),40	374,(6, 77),60	1130,(6, 19),132	1262,(6, 22),4	1266,(6, 40),4	1270,(6, 61),28	1298,(27, 81),8	1306,(36, 81),8	1314,(12, 81),8	1322,(24, 81),8	5614,(42, 81),8	5642,(57, 81),8	5650,(21, 81),8	5666,(30, 81),8	5674,(33, 81),8	5682,(39, 81),8	5690,(54, 81),8	5741,(15, 81),8	5806,(45, 81),8	5822,(48, 81),8	5846,(63, 81),8	5898,(9, 81),8	5961,(75, 81),8	5977,(51, 81),8	5990,(66, 81),8	6042,(78, 81),8	6062,(60, 81),8	
6,(2, 52),48	54,(2, 55),56	118,(5, 37),12	130,(68, 81),8	138,(71, 81),8	146,(8, 34),12	158,(8, 43),12	170,(8, 76),4	174,(17, 81),8	182,(44, 81),8	190,(50, 81),8	198,(62, 81),8	206,(11, 81),8	214,(14, 81),8	222,(32, 81),8	230,(20, 81),8	238,(29, 81),8	246,(65, 81),8	334,(5, 16),340	674,(5, 25),228	902,(5, 64),228	1330,(74, 81),8	1338,(53, 81),8	1346,(77, 81),8	5641,(5, 21),4	5649,(5, 33),8	5658,(59, 81),8	5673,(2, 54),16	5689,(5, 15),36	5725,(35, 81),8	5733,(38, 81),8	5749,(41, 81),8	5805,(5, 48),16	5838,(56, 81),8	5854,(80, 81),8	5897,(5, 75),48	5945,(23, 81),8	5953,(26, 81),8	5969,(47, 81),8	6041,(8, 60),20	
1,(0, 2),4	5,(0, 3),4	9,(0, 5),4	13,(0, 6),4	17,(0, 8),4	21,(4, 12),48	69,(4, 24),36	105,(4, 42),5508	5613,(4, 57),28	5641,(4, 59),4	5645,(7, 30),4	5649,(7, 35),4	5653,(7, 38),4	5657,(7, 39),16	5673,(7, 41),64	5737,(7, 45),68	5805,(7, 56),32	5837,(7, 63),4	5841,(7, 80),4	5845,(1, 9),52	5897,(1, 23),4	5901,(1, 26),8	5909,(1, 47),48	5957,(1, 51),12	5969,(1, 66),20	5989,(1, 78),52	
