224
# CPU
0,0,1	1,2,10	11,16,10	21,31,10	31,12,10	41,22,10	51,13,10	61,3,10	71,38,10	81,5,10	91,30,10	101,18,10	111,32,10	121,10,10	131,21,10	141,39,10	151,20,10	161,8,10	171,15,10	
3,4,10	13,9,10	23,26,10	33,19,10	43,35,10	53,6,10	63,34,10	73,25,10	83,37,10	93,23,10	103,17,10	113,27,10	123,40,10	133,14,10	143,1,10	153,36,10	163,33,10	173,29,10	183,11,10	193,7,10	203,24,10	213,28,10	223,41,1	
# Incoming
153,(1, 15),18	
1,(0, 4),2	3,(0, 1),2	21,(16, 41),2	31,(31, 41),2	41,(12, 41),2	51,(22, 41),2	61,(13, 41),2	81,(38, 41),2	91,(5, 41),2	101,(30, 41),2	111,(18, 41),2	121,(32, 41),2	131,(10, 41),2	141,(21, 41),2	151,(39, 41),2	161,(20, 41),2	171,(8, 41),2	181,(15, 41),2	
# Outgoing
1,(0, 4),2	3,(0, 1),2	21,(16, 41),2	31,(31, 41),2	41,(12, 41),2	51,(22, 41),2	61,(13, 41),2	81,(38, 41),2	91,(5, 41),2	101,(30, 41),2	111,(18, 41),2	121,(32, 41),2	131,(10, 41),2	141,(21, 41),2	151,(39, 41),2	161,(20, 41),2	171,(8, 41),2	181,(15, 41),2	
153,(1, 15),18	
