823
# CPU
0,201,1	1,90,3	4,99,3	7,89,3	10,88,3	13,65,3	16,63,3	19,131,3	22,128,3	25,141,3	28,147,3	31,112,3	34,185,3	37,154,3	40,145,3	43,115,3	46,123,3	49,134,3	52,135,3	55,111,3	58,51,3	61,100,3	64,29,3	67,162,3	70,160,3	73,163,3	76,200,3	79,178,3	82,36,3	85,173,3	88,179,3	91,25,3	94,60,3	97,167,3	100,34,3	103,166,3	106,184,3	109,42,3	112,186,3	115,164,3	118,31,3	121,61,3	124,30,3	127,190,3	130,76,3	133,81,3	136,83,3	139,110,3	142,38,3	145,199,3	148,86,3	151,105,3	154,129,3	157,82,3	160,95,3	163,70,3	166,187,3	169,64,3	172,28,3	175,120,3	178,22,3	181,77,3	184,142,3	187,44,3	190,121,3	193,58,3	196,113,3	199,53,3	202,92,3	205,153,3	208,35,3	211,37,3	214,98,3	217,26,3	220,157,3	223,155,3	226,137,3	229,40,3	232,168,3	235,180,3	238,116,3	241,107,3	244,49,3	247,21,3	250,93,3	253,69,3	256,193,3	259,138,3	262,198,3	265,194,3	268,84,3	271,172,3	274,182,3	277,197,3	280,125,3	283,192,3	286,78,3	289,183,3	292,71,3	295,67,3	298,148,3	301,140,3	304,122,3	307,102,3	310,106,3	313,126,3	316,87,3	319,127,3	322,188,3	325,48,3	328,119,3	331,169,3	334,130,3	337,24,3	340,23,3	343,124,3	346,132,3	349,158,3	352,175,3	355,54,3	358,39,3	361,133,3	364,161,3	367,55,3	370,32,3	373,43,3	376,181,3	379,85,3	382,108,3	385,144,3	388,52,3	391,159,3	394,47,3	397,196,3	400,74,3	403,66,3	406,152,3	409,156,3	412,195,3	415,165,3	418,149,3	421,101,3	424,46,3	427,57,3	430,104,3	433,151,3	436,75,3	439,136,3	442,170,3	445,41,3	448,189,3	451,56,3	454,20,3	457,68,3	460,177,3	463,5,3	466,73,3	469,12,3	472,72,3	475,139,3	478,62,3	481,33,3	484,96,3	487,2,3	490,174,3	493,13,3	496,118,3	499,176,3	502,7,3	505,114,3	508,45,3	511,8,3	514,10,3	517,6,3	520,18,3	523,11,3	526,16,3	529,17,3	532,4,3	535,19,3	538,15,3	541,14,3	622,3,3	822,0,1	
31,117,3	271,146,3	361,171,3	
61,50,3	181,97,3	511,150,3	817,9,3	

151,191,3	
331,59,3	

121,27,3	
211,143,3	241,91,3	421,79,3	
91,80,3	301,109,3	391,94,3	451,1,3	481,103,3	
# Incoming
64,(50, 10),2	66,(117, 6),2	68,(117, 16),2	124,(27, 16),2	184,(97, 14),6	244,(91, 17),10	254,(143, 14),6	260,(91, 3),2	274,(146, 16),2	276,(146, 4),10	286,(146, 19),16	334,(59, 11),6	340,(59, 15),20	364,(171, 18),4	368,(171, 14),24	394,(94, 14),30	424,(79, 15),38	462,(1, 0),2	484,(103, 3),138	820,(9, 0),2	
1,(201, 117),30	241,(201, 146),30	331,(201, 171),30	
31,(201, 50),30	151,(201, 97),30	181,(191, 9),4	424,(80, 9),2	481,(201, 150),30	511,(134, 9),2	513,(29, 9),2	515,(36, 9),2	517,(28, 9),4	521,(49, 9),12	533,(71, 9),6	539,(119, 9),20	559,(133, 9),24	583,(152, 9),32	615,(101, 9),38	653,(176, 9),164	

121,(201, 191),30	
301,(201, 59),30	

91,(201, 27),30	
181,(201, 143),30	211,(201, 91),30	391,(201, 79),30	
61,(201, 80),30	271,(201, 109),30	361,(201, 94),30	421,(121, 1),2	423,(159, 1),28	451,(201, 103),30	
# Outgoing
1,(201, 117),30	31,(201, 50),30	61,(201, 80),30	91,(201, 27),30	121,(201, 191),30	151,(201, 97),30	181,(201, 143),30	211,(201, 91),30	241,(201, 146),30	271,(201, 109),30	301,(201, 59),30	331,(201, 171),30	361,(201, 94),30	391,(201, 79),30	421,(121, 1),2	423,(159, 1),28	451,(201, 103),30	481,(201, 150),30	511,(134, 9),2	513,(29, 9),2	515,(36, 9),2	517,(28, 9),4	521,(49, 9),12	533,(71, 9),6	539,(119, 9),20	559,(133, 9),24	583,(152, 9),32	615,(101, 9),38	653,(176, 9),164	
66,(117, 6),2	68,(117, 16),2	274,(146, 16),2	276,(146, 4),10	286,(146, 19),16	364,(171, 18),4	368,(171, 14),24	
64,(50, 10),2	184,(97, 14),6	820,(9, 0),2	

181,(191, 9),4	
334,(59, 11),6	340,(59, 15),20	

124,(27, 16),2	
244,(91, 17),10	254,(143, 14),6	260,(91, 3),2	424,(79, 15),38	
394,(94, 14),30	424,(80, 9),2	462,(1, 0),2	484,(103, 3),138	
