1066
# CPU
0,81,1	1,37,14	15,9,14	29,30,14	43,14,14	57,26,14	71,60,14	85,63,14	99,51,14	113,22,14	127,45,14	141,17,14	155,47,14	169,35,14	183,70,14	197,29,14	211,68,14	225,74,14	239,23,14	253,48,14	267,72,14	281,33,14	295,55,14	309,58,14	323,66,14	337,25,14	351,10,14	365,43,14	379,69,14	393,15,14	407,46,14	421,16,14	435,64,14	449,79,14	463,78,14	477,54,14	491,65,14	505,11,14	519,77,14	533,62,14	547,42,14	561,27,14	575,39,14	589,19,14	603,61,14	617,50,14	631,20,14	645,38,14	659,34,14	673,41,14	687,73,14	701,67,14	715,18,14	729,75,14	743,28,14	757,52,14	771,80,14	785,40,14	799,21,14	813,13,14	827,12,14	841,49,14	855,56,14	869,6,14	883,59,14	897,36,14	911,76,14	925,57,14	939,4,14	953,44,14	967,7,14	981,53,14	995,2,14	1009,1,14	1023,5,14	1037,8,14	1051,3,14	1065,0,1	
403,31,14	604,32,14	805,71,14	


202,24,14	
# Incoming
216,(24, 2),3	219,(24, 1),15	234,(24, 8),6	417,(31, 1),3	420,(31, 5),30	450,(31, 3),9	618,(32, 8),75	693,(32, 3),24	819,(71, 3),138	
202,(81, 31),201	403,(81, 32),201	604,(81, 71),201	


1,(81, 24),201	
# Outgoing
1,(81, 24),201	202,(81, 31),201	403,(81, 32),201	604,(81, 71),201	
417,(31, 1),3	420,(31, 5),30	450,(31, 3),9	618,(32, 8),75	693,(32, 3),24	819,(71, 3),138	


216,(24, 2),3	219,(24, 1),15	234,(24, 8),6	
