1020
# CPU
0,0,1	1,6,70	71,39,70	141,46,70	211,26,70	281,49,70	351,89,70	421,100,70	491,96,70	561,54,70	631,72,70	701,23,70	771,57,70	949,41,70	1019,121,1	
4,10,70	74,70,70	144,113,70	214,73,70	284,62,70	354,7,70	424,104,70	494,63,70	564,52,70	634,84,70	704,45,70	774,90,70	844,29,70	
7,11,70	77,40,70	147,69,70	217,68,70	287,74,70	357,43,70	427,38,70	497,93,70	567,53,70	637,120,70	707,58,70	
16,5,70	86,85,70	156,51,70	226,110,70	296,77,70	366,114,70	436,99,70	506,64,70	576,60,70	646,103,70	716,48,70	
19,2,70	89,117,70	159,24,70	229,76,70	299,82,70	369,119,70	439,31,70	509,20,70	579,56,70	649,18,70	719,97,70	789,111,70	
22,3,70	92,21,70	162,106,70	232,86,70	302,108,70	372,34,70	442,35,70	512,55,70	582,42,70	652,101,70	722,13,70	792,115,70	862,87,70	
25,1,70	95,59,70	165,71,70	235,109,70	305,102,70	375,91,70	445,107,70	515,44,70	585,15,70	655,105,70	725,47,70	
28,4,70	98,65,70	168,28,70	238,19,70	308,81,70	378,88,70	448,25,70	518,22,70	588,83,70	658,37,70	728,80,70	
13,8,70	83,94,70	153,36,70	223,14,70	293,50,70	363,116,70	433,33,70	503,9,70	573,95,70	643,27,70	713,16,70	783,75,70	853,112,70	923,61,70	
10,12,70	80,118,70	150,92,70	220,98,70	290,79,70	360,78,70	430,67,70	500,66,70	570,30,70	640,17,70	710,32,70	
# Incoming
144,(70, 121),3	147,(40, 121),3	150,(118, 121),3	153,(94, 121),3	156,(85, 121),3	159,(117, 121),3	162,(21, 121),3	165,(59, 121),3	168,(65, 121),3	174,(2, 57),9	183,(5, 41),9	214,(113, 121),3	217,(69, 121),3	220,(92, 121),3	223,(36, 121),3	226,(51, 121),3	229,(24, 121),3	232,(106, 121),3	235,(71, 121),3	238,(28, 121),3	284,(73, 121),3	287,(68, 121),3	290,(98, 121),3	293,(14, 121),3	296,(110, 121),3	299,(76, 121),3	302,(86, 121),3	305,(109, 121),3	308,(19, 121),3	354,(62, 121),3	357,(74, 121),3	360,(79, 121),3	363,(50, 121),3	366,(77, 121),3	369,(82, 121),3	372,(108, 121),3	375,(102, 121),3	378,(81, 121),3	424,(7, 96),12	436,(43, 121),3	439,(78, 121),3	442,(116, 121),3	445,(114, 121),3	448,(119, 121),3	451,(34, 121),3	454,(91, 121),3	457,(88, 121),3	494,(104, 121),3	497,(38, 121),3	500,(67, 121),3	503,(33, 121),3	506,(99, 121),3	509,(31, 121),3	512,(35, 121),3	515,(107, 121),3	518,(25, 121),3	564,(63, 121),3	567,(93, 121),3	570,(66, 121),3	576,(64, 121),3	579,(20, 121),3	582,(55, 121),3	585,(44, 121),3	588,(22, 121),3	615,(9, 41),6	634,(52, 121),3	637,(53, 121),3	640,(30, 121),3	643,(95, 121),3	646,(60, 121),3	649,(56, 121),3	652,(42, 121),3	655,(15, 121),3	658,(83, 121),3	704,(84, 121),3	707,(120, 121),3	710,(17, 121),3	713,(27, 121),3	716,(103, 121),3	719,(18, 121),3	722,(101, 121),3	725,(105, 121),3	728,(37, 121),3	774,(45, 121),3	777,(58, 121),3	780,(32, 121),3	783,(16, 121),3	786,(48, 121),3	789,(97, 121),3	792,(13, 121),3	795,(47, 121),3	798,(80, 121),3	844,(90, 121),3	853,(75, 121),3	859,(111, 121),3	862,(115, 121),3	865,(8, 41),84	949,(29, 121),3	952,(112, 121),3	955,(87, 121),3	993,(61, 121),3	
1,(0, 10),3	28,(0, 7),3	
4,(0, 11),3	153,(12, 93),3	162,(2, 53),3	168,(1, 53),9	177,(10, 58),33	210,(2, 58),15	585,(9, 120),15	
13,(0, 5),3	77,(6, 103),3	156,(8, 99),3	165,(2, 60),9	436,(7, 64),6	445,(7, 103),18	646,(9, 48),60	
16,(0, 2),3	
19,(0, 3),3	
22,(0, 1),3	80,(6, 47),57	171,(4, 47),6	442,(7, 15),3	463,(7, 105),3	
25,(0, 4),3	71,(6, 22),3	159,(8, 37),15	174,(6, 80),63	237,(8, 80),3	573,(9, 83),12	
10,(0, 8),3	31,(0, 9),3	150,(11, 33),3	
7,(0, 12),3	74,(6, 30),3	497,(7, 32),48	600,(9, 17),15	
# Outgoing
1,(0, 10),3	4,(0, 11),3	7,(0, 12),3	10,(0, 8),3	13,(0, 5),3	16,(0, 2),3	19,(0, 3),3	22,(0, 1),3	25,(0, 4),3	28,(0, 7),3	31,(0, 9),3	71,(6, 22),3	74,(6, 30),3	77,(6, 103),3	80,(6, 47),57	174,(6, 80),63	
144,(70, 121),3	177,(10, 58),33	214,(113, 121),3	284,(73, 121),3	354,(62, 121),3	424,(7, 96),12	436,(7, 64),6	442,(7, 15),3	445,(7, 103),18	463,(7, 105),3	494,(104, 121),3	497,(7, 32),48	564,(63, 121),3	634,(52, 121),3	704,(84, 121),3	774,(45, 121),3	844,(90, 121),3	949,(29, 121),3	
147,(40, 121),3	150,(11, 33),3	217,(69, 121),3	287,(68, 121),3	357,(74, 121),3	436,(43, 121),3	497,(38, 121),3	567,(93, 121),3	637,(53, 121),3	707,(120, 121),3	777,(58, 121),3	
156,(85, 121),3	183,(5, 41),9	226,(51, 121),3	296,(110, 121),3	366,(77, 121),3	445,(114, 121),3	506,(99, 121),3	576,(64, 121),3	646,(60, 121),3	716,(103, 121),3	786,(48, 121),3	
159,(117, 121),3	162,(2, 53),3	165,(2, 60),9	174,(2, 57),9	210,(2, 58),15	229,(24, 121),3	299,(76, 121),3	369,(82, 121),3	448,(119, 121),3	509,(31, 121),3	579,(20, 121),3	649,(56, 121),3	719,(18, 121),3	789,(97, 121),3	859,(111, 121),3	
162,(21, 121),3	232,(106, 121),3	302,(86, 121),3	372,(108, 121),3	451,(34, 121),3	512,(35, 121),3	582,(55, 121),3	652,(42, 121),3	722,(101, 121),3	792,(13, 121),3	862,(115, 121),3	955,(87, 121),3	
165,(59, 121),3	168,(1, 53),9	235,(71, 121),3	305,(109, 121),3	375,(102, 121),3	454,(91, 121),3	515,(107, 121),3	585,(44, 121),3	655,(15, 121),3	725,(105, 121),3	795,(47, 121),3	
168,(65, 121),3	171,(4, 47),6	238,(28, 121),3	308,(19, 121),3	378,(81, 121),3	457,(88, 121),3	518,(25, 121),3	588,(22, 121),3	658,(83, 121),3	728,(37, 121),3	798,(80, 121),3	
153,(94, 121),3	156,(8, 99),3	159,(8, 37),15	223,(36, 121),3	237,(8, 80),3	293,(14, 121),3	363,(50, 121),3	442,(116, 121),3	503,(33, 121),3	573,(9, 83),12	585,(9, 120),15	600,(9, 17),15	615,(9, 41),6	643,(95, 121),3	646,(9, 48),60	713,(27, 121),3	783,(16, 121),3	853,(75, 121),3	865,(8, 41),84	952,(112, 121),3	993,(61, 121),3	
150,(118, 121),3	153,(12, 93),3	220,(92, 121),3	290,(98, 121),3	360,(79, 121),3	439,(78, 121),3	500,(67, 121),3	570,(66, 121),3	640,(30, 121),3	710,(17, 121),3	780,(32, 121),3	
