307
# CPU
0,0,1	1,2,17	18,30,17	35,4,17	52,13,17	69,33,17	86,5,17	103,20,17	120,29,17	137,17,17	154,34,17	171,25,17	188,8,17	231,40,17	
26,3,17	43,7,17	60,26,17	77,15,17	105,39,17	127,12,17	152,1,17	169,38,17	186,24,17	203,32,17	220,36,17	306,41,1	
48,9,17	71,22,17	179,18,17	
53,6,17	84,31,17	170,14,17	189,19,17	
57,21,17	182,23,17	
55,16,17	192,10,17	
63,35,17	176,28,17	
172,11,17	
174,27,17	
173,37,17	
# Incoming
49,(3, 34),11	170,(1, 25),1	179,(1, 8),1	192,(1, 40),39	
1,(0, 3),25	49,(2, 39),1	65,(9, 41),6	71,(4, 15),5	76,(6, 41),6	84,(4, 39),21	105,(4, 12),22	127,(0, 1),25	152,(16, 41),6	158,(21, 41),6	164,(35, 41),6	170,(22, 41),6	176,(31, 41),6	186,(30, 41),6	192,(13, 41),6	198,(33, 41),6	204,(5, 41),6	210,(20, 41),6	216,(29, 41),6	222,(17, 41),6	228,(34, 41),6	234,(14, 41),6	240,(25, 41),6	246,(11, 41),6	252,(37, 41),6	258,(27, 41),6	264,(28, 41),6	270,(18, 41),6	276,(23, 41),6	282,(8, 41),6	288,(19, 41),6	294,(10, 41),6	300,(40, 41),6	
26,(2, 9),5	43,(3, 9),5	63,(4, 22),8	171,(4, 18),1	176,(1, 18),3	
31,(2, 6),11	48,(3, 31),1	50,(2, 14),1	52,(4, 6),1	76,(4, 31),8	152,(4, 14),1	169,(1, 14),1	182,(1, 19),7	
55,(4, 21),2	172,(4, 23),9	181,(1, 23),1	
53,(4, 16),2	60,(3, 10),8	181,(4, 10),5	189,(1, 10),3	
42,(2, 35),7	51,(2, 28),1	57,(4, 35),6	166,(4, 28),5	174,(1, 28),2	
153,(2, 11),4	171,(1, 11),1	
161,(2, 27),5	173,(1, 27),1	
157,(4, 37),4	172,(1, 37),1	
# Outgoing
1,(0, 3),25	26,(2, 9),5	31,(2, 6),11	42,(2, 35),7	49,(2, 39),1	50,(2, 14),1	51,(2, 28),1	52,(4, 6),1	53,(4, 16),2	55,(4, 21),2	57,(4, 35),6	63,(4, 22),8	71,(4, 15),5	76,(4, 31),8	84,(4, 39),21	105,(4, 12),22	127,(0, 1),25	152,(4, 14),1	153,(2, 11),4	157,(4, 37),4	161,(2, 27),5	166,(4, 28),5	171,(4, 18),1	172,(4, 23),9	181,(4, 10),5	186,(30, 41),6	192,(13, 41),6	198,(33, 41),6	204,(5, 41),6	210,(20, 41),6	216,(29, 41),6	222,(17, 41),6	228,(34, 41),6	240,(25, 41),6	282,(8, 41),6	300,(40, 41),6	
43,(3, 9),5	48,(3, 31),1	49,(3, 34),11	60,(3, 10),8	169,(1, 14),1	170,(1, 25),1	171,(1, 11),1	172,(1, 37),1	173,(1, 27),1	174,(1, 28),2	176,(1, 18),3	179,(1, 8),1	181,(1, 23),1	182,(1, 19),7	189,(1, 10),3	192,(1, 40),39	
65,(9, 41),6	170,(22, 41),6	270,(18, 41),6	
76,(6, 41),6	176,(31, 41),6	234,(14, 41),6	288,(19, 41),6	
158,(21, 41),6	276,(23, 41),6	
152,(16, 41),6	294,(10, 41),6	
164,(35, 41),6	264,(28, 41),6	
246,(11, 41),6	
258,(27, 41),6	
252,(37, 41),6	
