683
# CPU
0,41,1	1,23,13	14,40,13	27,7,13	40,36,13	53,34,13	66,12,13	79,15,13	92,16,13	105,6,13	118,20,13	131,10,13	144,29,13	157,27,13	170,32,13	183,5,13	196,24,13	209,22,13	222,25,13	235,18,13	248,9,13	261,21,13	274,35,13	287,11,13	300,30,13	313,17,13	326,13,13	339,14,13	352,8,13	365,31,13	378,26,13	391,2,13	404,33,13	417,28,13	430,4,13	443,3,13	682,0,1	
101,19,13	401,37,13	649,1,13	
201,39,13	301,38,13	
# Incoming
314,(38, 3),60	662,(1, 0),20	
1,(41, 19),100	301,(41, 37),100	401,(40, 1),4	405,(39, 1),40	445,(22, 1),40	485,(11, 1),60	545,(13, 1),4	549,(8, 1),84	633,(33, 1),16	
101,(41, 39),100	201,(41, 38),100	
# Outgoing
1,(41, 19),100	101,(41, 39),100	201,(41, 38),100	301,(41, 37),100	401,(40, 1),4	445,(22, 1),40	485,(11, 1),60	545,(13, 1),4	549,(8, 1),84	633,(33, 1),16	
662,(1, 0),20	
314,(38, 3),60	405,(39, 1),40	
