296
# CPU
0,0,1	1,1,1	2,5,1	3,76,1	4,13,1	5,2,1	6,33,1	7,34,1	8,65,1	9,4,1	10,80,1	11,42,1	12,9,1	13,3,1	14,41,1	15,64,1	16,58,1	17,47,1	18,19,1	19,32,1	20,45,1	21,63,1	22,6,1	23,18,1	24,70,1	25,22,1	26,24,1	27,79,1	28,75,1	29,26,1	30,62,1	31,28,1	32,8,1	33,74,1	34,55,1	35,54,1	36,73,1	37,67,1	38,36,1	39,12,1	40,59,1	41,43,1	42,16,1	43,66,1	44,40,1	45,27,1	46,78,1	47,68,1	48,61,1	49,14,1	50,11,1	51,46,1	52,21,1	53,51,1	54,48,1	55,49,1	56,71,1	57,10,1	58,31,1	59,53,1	60,50,1	61,37,1	62,20,1	63,15,1	64,25,1	65,38,1	66,39,1	67,60,1	68,56,1	73,77,1	94,44,1	294,35,1	295,81,1	
25,7,1	28,30,1	32,17,1	37,72,1	41,57,1	46,23,1	57,52,1	77,69,1	
34,29,1	

# Incoming
29,(30, 81),1	30,(7, 31),1	31,(7, 53),1	32,(7, 50),1	33,(17, 81),1	34,(7, 37),1	35,(29, 81),1	36,(7, 20),1	37,(7, 15),1	38,(72, 81),1	39,(7, 25),2	42,(57, 81),1	43,(7, 38),3	47,(23, 81),1	48,(7, 39),4	52,(7, 60),5	58,(52, 81),1	59,(7, 56),7	66,(7, 77),7	73,(7, 44),21	94,(69, 81),1	95,(7, 35),199	
1,(0, 7),24	25,(2, 30),3	28,(2, 17),1	29,(6, 17),3	34,(5, 72),1	35,(4, 72),1	36,(8, 72),1	37,(1, 57),3	40,(3, 57),1	41,(4, 23),5	46,(5, 52),11	57,(6, 69),19	76,(8, 69),1	
32,(6, 29),1	33,(8, 29),1	

# Outgoing
1,(0, 7),24	25,(2, 30),3	28,(2, 17),1	29,(6, 17),3	32,(6, 29),1	33,(8, 29),1	34,(5, 72),1	35,(4, 72),1	36,(8, 72),1	37,(1, 57),3	40,(3, 57),1	41,(4, 23),5	46,(5, 52),11	57,(6, 69),19	76,(8, 69),1	
29,(30, 81),1	30,(7, 31),1	31,(7, 53),1	32,(7, 50),1	33,(17, 81),1	34,(7, 37),1	36,(7, 20),1	37,(7, 15),1	38,(72, 81),1	39,(7, 25),2	42,(57, 81),1	43,(7, 38),3	47,(23, 81),1	48,(7, 39),4	52,(7, 60),5	58,(52, 81),1	59,(7, 56),7	66,(7, 77),7	73,(7, 44),21	94,(69, 81),1	95,(7, 35),199	
35,(29, 81),1	

