734
# CPU
217,5,76	349,8,76	425,11,76	501,14,76	577,17,76	653,20,76	
153,2,76	229,4,76	305,15,76	381,6,76	457,12,76	533,9,76	609,18,76	
0,0,1	1,1,76	77,3,76	153,10,76	229,13,76	305,7,76	381,16,76	477,19,76	733,21,1	
# Incoming
153,(1, 5),64	229,(2, 8),120	349,(2, 11),12	361,(2, 14),8	373,(2, 17),36	477,(2, 20),4	
1,(0, 2),152	217,(1, 9),36	253,(1, 18),4	
369,(2, 16),4	373,(5, 21),4	409,(2, 19),68	477,(8, 21),4	481,(4, 21),4	485,(15, 21),4	489,(6, 21),4	501,(11, 21),4	533,(12, 21),4	577,(14, 21),4	609,(9, 21),4	653,(17, 21),4	685,(18, 21),4	729,(20, 21),4	
# Outgoing
373,(5, 21),4	477,(8, 21),4	501,(11, 21),4	577,(14, 21),4	653,(17, 21),4	729,(20, 21),4	
229,(2, 8),120	349,(2, 11),12	361,(2, 14),8	369,(2, 16),4	373,(2, 17),36	409,(2, 19),68	477,(2, 20),4	481,(4, 21),4	485,(15, 21),4	489,(6, 21),4	533,(12, 21),4	609,(9, 21),4	685,(18, 21),4	
1,(0, 2),152	153,(1, 5),64	217,(1, 9),36	253,(1, 18),4	
