868
# CPU
151,4,17	168,8,17	185,13,17	202,16,17	219,20,17	236,35,17	253,23,17	270,32,17	287,29,17	383,26,17	499,38,17	
101,3,17	118,7,17	181,19,17	198,25,17	383,34,17	400,10,17	417,14,17	434,22,17	451,28,17	468,31,17	497,37,17	
51,2,17	68,30,17	128,9,17	191,24,17	208,27,17	497,6,17	514,18,17	577,40,17	605,36,17	649,12,17	811,21,17	828,33,17	
0,0,1	1,1,17	78,11,17	282,5,17	299,15,17	334,39,17	807,17,17	867,41,1	
# Incoming
101,(0, 4),50	151,(1, 8),2	153,(2, 8),6	159,(2, 13),2	161,(2, 35),14	181,(1, 23),2	199,(1, 32),24	223,(2, 29),58	281,(3, 26),102	497,(1, 38),2	
51,(0, 3),50	101,(2, 14),2	103,(2, 25),4	107,(2, 28),2	153,(1, 10),6	159,(1, 14),2	167,(1, 19),14	191,(1, 25),2	195,(1, 28),4	281,(2, 34),102	383,(4, 10),10	393,(4, 14),2	395,(4, 22),16	411,(4, 28),10	421,(4, 31),16	437,(4, 37),8	495,(1, 37),2	
1,(0, 2),50	118,(3, 9),10	128,(3, 12),2	161,(1, 18),6	183,(1, 24),8	193,(1, 27),2	223,(1, 36),272	495,(4, 6),2	497,(4, 18),2	499,(1, 40),78	577,(3, 36),28	605,(4, 12),44	807,(4, 21),4	811,(4, 33),14	
68,(2, 5),2	70,(2, 11),8	78,(2, 39),2	85,(30, 41),12	130,(3, 15),122	252,(7, 41),12	264,(4, 5),18	282,(4, 15),10	292,(4, 39),42	334,(8, 41),12	346,(13, 41),12	358,(16, 41),12	370,(20, 41),12	383,(9, 41),12	395,(19, 41),12	407,(24, 41),12	419,(25, 41),12	431,(27, 41),12	445,(35, 41),12	457,(23, 41),12	469,(32, 41),12	481,(29, 41),12	499,(26, 41),12	511,(34, 41),12	523,(10, 41),12	535,(14, 41),12	547,(22, 41),12	559,(28, 41),12	571,(6, 41),12	583,(38, 41),12	605,(31, 41),12	617,(37, 41),12	629,(18, 41),12	649,(4, 17),158	807,(40, 41),12	819,(36, 41),12	831,(12, 41),12	843,(21, 41),12	855,(33, 41),12	
# Outgoing
264,(4, 5),18	282,(4, 15),10	292,(4, 39),42	334,(8, 41),12	346,(13, 41),12	358,(16, 41),12	370,(20, 41),12	383,(4, 10),10	393,(4, 14),2	395,(4, 22),16	411,(4, 28),10	421,(4, 31),16	437,(4, 37),8	445,(35, 41),12	457,(23, 41),12	469,(32, 41),12	481,(29, 41),12	495,(4, 6),2	497,(4, 18),2	499,(26, 41),12	583,(38, 41),12	605,(4, 12),44	649,(4, 17),158	807,(4, 21),4	811,(4, 33),14	
118,(3, 9),10	128,(3, 12),2	130,(3, 15),122	252,(7, 41),12	281,(3, 26),102	395,(19, 41),12	419,(25, 41),12	511,(34, 41),12	523,(10, 41),12	535,(14, 41),12	547,(22, 41),12	559,(28, 41),12	577,(3, 36),28	605,(31, 41),12	617,(37, 41),12	
68,(2, 5),2	70,(2, 11),8	78,(2, 39),2	85,(30, 41),12	101,(2, 14),2	103,(2, 25),4	107,(2, 28),2	153,(2, 8),6	159,(2, 13),2	161,(2, 35),14	223,(2, 29),58	281,(2, 34),102	383,(9, 41),12	407,(24, 41),12	431,(27, 41),12	571,(6, 41),12	629,(18, 41),12	807,(40, 41),12	819,(36, 41),12	831,(12, 41),12	843,(21, 41),12	855,(33, 41),12	
1,(0, 2),50	51,(0, 3),50	101,(0, 4),50	151,(1, 8),2	153,(1, 10),6	159,(1, 14),2	161,(1, 18),6	167,(1, 19),14	181,(1, 23),2	183,(1, 24),8	191,(1, 25),2	193,(1, 27),2	195,(1, 28),4	199,(1, 32),24	223,(1, 36),272	495,(1, 37),2	497,(1, 38),2	499,(1, 40),78	
