342
# CPU
0,41,1	1,8,10	11,32,10	21,15,10	31,31,10	41,40,10	51,28,10	61,36,10	71,35,10	81,27,10	91,24,10	101,9,10	111,20,10	121,19,10	131,18,10	141,30,10	151,13,10	161,6,10	171,7,10	181,29,10	191,37,10	201,34,10	211,38,10	221,25,10	231,14,10	241,5,10	251,16,10	261,21,10	271,10,10	281,39,10	291,26,10	301,2,10	311,3,10	321,4,10	331,1,10	341,0,1	
37,22,10	73,33,10	109,12,10	145,11,10	181,17,10	217,23,10	
# Incoming
155,(11, 3),20	175,(22, 4),4	179,(33, 1),4	183,(12, 1),8	191,(17, 4),64	255,(23, 1),72	
1,(41, 22),36	37,(41, 33),36	73,(41, 12),36	109,(41, 11),36	145,(41, 17),36	181,(41, 23),36	
# Outgoing
1,(41, 22),36	37,(41, 33),36	73,(41, 12),36	109,(41, 11),36	145,(41, 17),36	181,(41, 23),36	
155,(11, 3),20	175,(22, 4),4	179,(33, 1),4	183,(12, 1),8	191,(17, 4),64	255,(23, 1),72	
