7862
# CPU
189,7,8	1817,20,8	3201,13,8	4805,16,8	5121,19,8	5129,21,8	5213,29,8	5817,5,8	5905,8,8	5925,9,8	5961,10,8	5969,12,8	5989,14,8	6045,15,8	6209,17,8	6217,18,8	6245,22,8	6473,23,8	6485,24,8	6513,27,8	6549,28,8	6609,30,8	6621,31,8	6633,32,8	6641,34,8	6649,35,8	6657,37,8	6669,38,8	6709,39,8	6781,40,8	7861,41,1	
5,3,8	13,25,8	21,6,8	189,11,8	
0,0,1	1,4,8	9,2,8	17,1,8	25,26,8	33,36,8	41,33,8	
# Incoming
9,(4, 5),4	13,(3, 5),4	17,(4, 7),96	113,(4, 8),72	185,(3, 7),4	189,(4, 13),100	289,(4, 15),28	317,(4, 18),72	389,(4, 19),1388	1777,(4, 20),40	1817,(4, 21),24	1841,(4, 22),20	1861,(4, 23),36	1897,(4, 27),20	1917,(4, 28),24	1941,(4, 29),44	1985,(4, 32),84	2069,(4, 37),24	2093,(4, 39),124	2217,(4, 40),4	2221,(3, 8),876	3097,(3, 9),32	3129,(3, 13),72	3201,(3, 14),4	3205,(3, 16),8	3213,(3, 21),56	3269,(3, 22),480	3749,(3, 24),4	3753,(3, 27),8	3761,(3, 29),20	3781,(3, 30),84	3865,(3, 31),72	3937,(3, 34),28	3965,(3, 35),280	4245,(3, 37),28	4273,(3, 40),4	4277,(2, 5),192	4469,(2, 8),36	4505,(2, 9),16	4521,(2, 10),40	4561,(2, 12),4	4565,(2, 14),32	4597,(2, 15),148	4745,(2, 16),60	4805,(2, 17),60	4865,(2, 18),44	4909,(2, 19),212	5121,(2, 21),4	5125,(2, 23),12	5137,(2, 27),4	5141,(2, 28),64	5205,(2, 29),8	5213,(2, 31),4	5217,(2, 34),8	5225,(2, 35),20	5245,(2, 37),312	5557,(2, 38),4	5561,(2, 40),8	5569,(25, 41),216	5785,(1, 5),32	5817,(1, 8),88	5905,(1, 9),20	5925,(1, 10),36	5961,(1, 12),8	5969,(1, 14),20	5989,(1, 15),56	6045,(1, 17),164	6209,(1, 18),4	6213,(1, 22),32	6245,(1, 23),228	6473,(1, 24),12	6485,(1, 27),28	6513,(1, 28),36	6549,(1, 30),60	6609,(1, 31),12	6621,(1, 32),12	6633,(1, 34),4	6637,(1, 35),8	6645,(1, 37),4	6649,(1, 38),20	6669,(1, 39),40	6709,(1, 40),72	6781,(6, 41),216	6997,(26, 41),216	7213,(36, 41),216	7429,(33, 41),216	7645,(11, 41),216	
1,(0, 3),4	13,(4, 6),4	185,(4, 11),4	

# Outgoing

13,(3, 5),4	185,(3, 7),4	2221,(3, 8),876	3097,(3, 9),32	3129,(3, 13),72	3201,(3, 14),4	3205,(3, 16),8	3213,(3, 21),56	3269,(3, 22),480	3749,(3, 24),4	3753,(3, 27),8	3761,(3, 29),20	3781,(3, 30),84	3865,(3, 31),72	3937,(3, 34),28	3965,(3, 35),280	4245,(3, 37),28	4273,(3, 40),4	5569,(25, 41),216	6781,(6, 41),216	7645,(11, 41),216	
1,(0, 3),4	9,(4, 5),4	13,(4, 6),4	17,(4, 7),96	113,(4, 8),72	185,(4, 11),4	189,(4, 13),100	289,(4, 15),28	317,(4, 18),72	389,(4, 19),1388	1777,(4, 20),40	1817,(4, 21),24	1841,(4, 22),20	1861,(4, 23),36	1897,(4, 27),20	1917,(4, 28),24	1941,(4, 29),44	1985,(4, 32),84	2069,(4, 37),24	2093,(4, 39),124	2217,(4, 40),4	4277,(2, 5),192	4469,(2, 8),36	4505,(2, 9),16	4521,(2, 10),40	4561,(2, 12),4	4565,(2, 14),32	4597,(2, 15),148	4745,(2, 16),60	4805,(2, 17),60	4865,(2, 18),44	4909,(2, 19),212	5121,(2, 21),4	5125,(2, 23),12	5137,(2, 27),4	5141,(2, 28),64	5205,(2, 29),8	5213,(2, 31),4	5217,(2, 34),8	5225,(2, 35),20	5245,(2, 37),312	5557,(2, 38),4	5561,(2, 40),8	5785,(1, 5),32	5817,(1, 8),88	5905,(1, 9),20	5925,(1, 10),36	5961,(1, 12),8	5969,(1, 14),20	5989,(1, 15),56	6045,(1, 17),164	6209,(1, 18),4	6213,(1, 22),32	6245,(1, 23),228	6473,(1, 24),12	6485,(1, 27),28	6513,(1, 28),36	6549,(1, 30),60	6609,(1, 31),12	6621,(1, 32),12	6633,(1, 34),4	6637,(1, 35),8	6645,(1, 37),4	6649,(1, 38),20	6669,(1, 39),40	6709,(1, 40),72	6997,(26, 41),216	7213,(36, 41),216	7429,(33, 41),216	
