3038
# CPU
202,48,1	204,18,1	238,68,1	275,78,1	303,28,1	309,38,1	311,58,1	
371,47,1	519,67,1	541,77,1	549,17,1	577,27,1	579,37,1	585,57,1	
281,8,1	321,66,1	339,46,1	351,16,1	379,26,1	411,36,1	581,56,1	683,76,1	
241,7,1	242,15,1	245,65,1	265,45,1	283,25,1	285,35,1	287,55,1	343,75,1	
201,6,1	203,44,1	215,64,1	284,14,1	298,34,1	329,24,1	709,74,1	1237,54,1	
161,5,1	288,23,1	305,43,1	313,53,1	321,63,1	359,33,1	583,73,1	1247,13,1	
121,4,1	122,12,1	137,32,1	149,42,1	206,62,1	208,72,1	321,22,1	505,52,1	
81,3,1	85,41,1	164,21,1	208,61,1	297,11,1	357,31,1	475,51,1	519,71,1	
41,2,1	42,30,1	193,70,1	244,80,1	287,10,1	293,20,1	311,50,1	331,40,1	485,60,1	
0,0,1	1,1,1	2,39,1	3,79,1	91,59,1	157,49,1	241,29,1	279,9,1	353,19,1	2953,69,1	3037,81,1	
# Incoming
164,(5, 48),38	202,(6, 18),2	208,(5, 68),30	241,(6, 78),34	297,(7, 28),6	303,(8, 38),6	309,(8, 58),2	
331,(1, 47),40	371,(2, 67),148	519,(6, 77),22	541,(7, 17),8	549,(8, 27),28	577,(8, 37),2	579,(8, 57),6	
241,(0, 8),40	281,(2, 66),40	321,(3, 46),18	339,(4, 16),12	351,(7, 26),28	379,(7, 36),32	505,(1, 56),76	581,(2, 76),102	
201,(0, 7),40	241,(2, 65),4	245,(3, 45),20	265,(5, 25),18	283,(5, 35),2	285,(6, 55),2	311,(8, 75),32	
161,(0, 6),40	201,(2, 44),2	203,(3, 64),12	282,(8, 14),2	288,(8, 34),10	321,(1, 24),8	583,(1, 74),126	709,(5, 54),528	
121,(0, 5),40	284,(8, 23),4	303,(7, 43),2	311,(7, 53),2	313,(7, 63),8	357,(4, 33),2	581,(1, 73),2	583,(7, 13),664	
81,(0, 4),40	121,(3, 32),16	137,(3, 42),12	204,(6, 62),2	206,(6, 72),2	293,(1, 22),28	475,(1, 52),30	
41,(0, 3),40	81,(2, 41),4	162,(5, 21),2	202,(5, 61),6	279,(7, 11),18	353,(4, 31),4	371,(1, 51),104	485,(7, 71),34	
1,(0, 2),40	157,(3, 70),36	238,(5, 80),6	281,(1, 10),6	287,(1, 20),6	305,(7, 50),6	329,(1, 40),2	411,(7, 60),74	
85,(2, 59),6	91,(30, 81),12	149,(3, 49),8	203,(70, 81),12	215,(41, 81),12	227,(21, 81),12	239,(6, 29),2	241,(48, 81),12	253,(18, 81),12	265,(61, 81),12	277,(7, 9),2	287,(44, 81),12	299,(64, 81),12	311,(68, 81),12	323,(15, 81),12	335,(80, 81),12	351,(4, 19),2	359,(12, 81),12	371,(32, 81),12	383,(42, 81),12	395,(62, 81),12	407,(72, 81),12	419,(78, 81),12	431,(14, 81),12	443,(23, 81),12	455,(11, 81),12	467,(34, 81),12	479,(28, 81),12	491,(43, 81),12	503,(38, 81),12	519,(65, 81),12	531,(10, 81),12	549,(45, 81),12	561,(25, 81),12	573,(58, 81),12	585,(53, 81),12	597,(66, 81),12	609,(63, 81),12	621,(22, 81),12	633,(24, 81),12	645,(46, 81),12	657,(16, 81),12	669,(31, 81),12	683,(20, 81),12	695,(50, 81),12	707,(40, 81),12	719,(47, 81),12	731,(26, 81),12	743,(36, 81),12	755,(51, 81),12	767,(60, 81),12	779,(52, 81),12	791,(67, 81),12	803,(71, 81),12	815,(77, 81),12	827,(17, 81),12	839,(27, 81),12	851,(37, 81),12	863,(56, 81),12	875,(57, 81),12	887,(76, 81),12	899,(74, 81),12	1237,(5, 69),1716	2953,(35, 81),12	2965,(55, 81),12	2977,(75, 81),12	2989,(33, 81),12	3001,(73, 81),12	3013,(54, 81),12	3025,(13, 81),12	
# Outgoing
241,(48, 81),12	253,(18, 81),12	311,(68, 81),12	419,(78, 81),12	479,(28, 81),12	503,(38, 81),12	573,(58, 81),12	
719,(47, 81),12	791,(67, 81),12	815,(77, 81),12	827,(17, 81),12	839,(27, 81),12	851,(37, 81),12	875,(57, 81),12	
282,(8, 14),2	284,(8, 23),4	288,(8, 34),10	303,(8, 38),6	309,(8, 58),2	311,(8, 75),32	549,(8, 27),28	577,(8, 37),2	579,(8, 57),6	597,(66, 81),12	645,(46, 81),12	657,(16, 81),12	731,(26, 81),12	743,(36, 81),12	863,(56, 81),12	887,(76, 81),12	
277,(7, 9),2	279,(7, 11),18	297,(7, 28),6	303,(7, 43),2	305,(7, 50),6	311,(7, 53),2	313,(7, 63),8	323,(15, 81),12	351,(7, 26),28	379,(7, 36),32	411,(7, 60),74	485,(7, 71),34	519,(65, 81),12	541,(7, 17),8	549,(45, 81),12	561,(25, 81),12	583,(7, 13),664	2953,(35, 81),12	2965,(55, 81),12	2977,(75, 81),12	
202,(6, 18),2	204,(6, 62),2	206,(6, 72),2	239,(6, 29),2	241,(6, 78),34	285,(6, 55),2	287,(44, 81),12	299,(64, 81),12	431,(14, 81),12	467,(34, 81),12	519,(6, 77),22	633,(24, 81),12	899,(74, 81),12	3013,(54, 81),12	
162,(5, 21),2	164,(5, 48),38	202,(5, 61),6	208,(5, 68),30	238,(5, 80),6	265,(5, 25),18	283,(5, 35),2	443,(23, 81),12	491,(43, 81),12	585,(53, 81),12	609,(63, 81),12	709,(5, 54),528	1237,(5, 69),1716	2989,(33, 81),12	3001,(73, 81),12	3025,(13, 81),12	
339,(4, 16),12	351,(4, 19),2	353,(4, 31),4	357,(4, 33),2	359,(12, 81),12	371,(32, 81),12	383,(42, 81),12	395,(62, 81),12	407,(72, 81),12	621,(22, 81),12	779,(52, 81),12	
121,(3, 32),16	137,(3, 42),12	149,(3, 49),8	157,(3, 70),36	203,(3, 64),12	215,(41, 81),12	227,(21, 81),12	245,(3, 45),20	265,(61, 81),12	321,(3, 46),18	455,(11, 81),12	669,(31, 81),12	755,(51, 81),12	803,(71, 81),12	
81,(2, 41),4	85,(2, 59),6	91,(30, 81),12	201,(2, 44),2	203,(70, 81),12	241,(2, 65),4	281,(2, 66),40	335,(80, 81),12	371,(2, 67),148	531,(10, 81),12	581,(2, 76),102	683,(20, 81),12	695,(50, 81),12	707,(40, 81),12	767,(60, 81),12	
1,(0, 2),40	41,(0, 3),40	81,(0, 4),40	121,(0, 5),40	161,(0, 6),40	201,(0, 7),40	241,(0, 8),40	281,(1, 10),6	287,(1, 20),6	293,(1, 22),28	321,(1, 24),8	329,(1, 40),2	331,(1, 47),40	371,(1, 51),104	475,(1, 52),30	505,(1, 56),76	581,(1, 73),2	583,(1, 74),126	
