268
# CPU
0,41,1	1,6,7	8,38,7	15,34,7	22,31,7	29,30,7	36,22,7	43,21,7	50,14,7	57,11,7	64,7,7	71,16,7	78,19,7	85,17,7	92,28,7	99,10,7	106,18,7	113,23,7	120,27,7	127,32,7	134,25,7	141,35,7	148,5,7	155,12,7	162,40,7	169,20,7	176,36,7	183,26,7	190,33,7	197,3,7	204,29,7	211,9,7	218,24,7	225,1,7	232,13,7	239,15,7	246,37,7	253,2,7	260,4,7	267,0,1	

85,8,7	
169,39,7	
# Incoming
176,(39, 3),2	178,(8, 2),8	186,(39, 4),34	

1,(41, 8),84	
85,(41, 39),84	
# Outgoing
1,(41, 8),84	85,(41, 39),84	

178,(8, 2),8	
176,(39, 3),2	186,(39, 4),34	
