4888
# CPU
65,3,41	106,45,41	147,111,41	188,6,41	229,9,41	270,15,41	311,96,41	352,12,41	393,57,41	434,84,41	475,63,41	516,24,41	557,27,41	598,81,41	639,108,41	680,120,41	721,21,41	762,72,41	803,48,41	844,54,41	885,117,41	926,18,41	967,66,41	1008,69,41	1049,87,41	4081,39,41	4179,42,41	4220,90,41	4261,93,41	4302,30,41	4343,33,41	4384,36,41	4425,75,41	4466,102,41	4507,51,41	4548,60,41	4589,78,41	4630,99,41	4671,105,41	4712,114,41	
33,2,41	74,53,41	115,5,41	156,83,41	197,8,41	238,11,41	279,32,41	320,65,41	361,71,41	402,89,41	443,50,41	1089,20,41	1741,98,41	1782,17,41	1823,44,41	1963,110,41	2004,14,41	2079,26,41	2120,59,41	2161,68,41	2202,101,41	2243,119,41	2284,29,41	2325,35,41	2366,38,41	2407,80,41	2448,95,41	2489,104,41	2530,47,41	2571,56,41	2612,92,41	2653,113,41	2694,116,41	2735,23,41	2776,41,41	2817,62,41	2858,74,41	2899,77,41	2940,86,41	2981,107,41	
0,0,1	1,7,41	42,10,41	83,1,41	124,4,41	165,67,41	206,31,41	247,40,41	288,82,41	329,88,41	370,55,41	411,13,41	452,112,41	493,100,41	534,37,41	745,58,41	786,61,41	827,70,41	868,73,41	909,22,41	950,16,41	991,28,41	1032,97,41	1073,25,41	1114,49,41	1155,94,41	1196,43,41	1803,34,41	1847,46,41	1888,76,41	1929,118,41	4183,52,41	4224,19,41	4265,64,41	4306,109,41	4347,115,41	4388,79,41	4429,85,41	4470,91,41	4511,103,41	4552,106,41	4887,121,1	
# Incoming
33,(0, 3),32	74,(2, 15),8	97,(0, 6),32	129,(2, 39),2	131,(2, 57),16	147,(2, 78),2	161,(0, 9),32	225,(0, 12),32	267,(2, 114),4	271,(5, 24),4	275,(5, 27),2	277,(5, 33),18	295,(5, 48),66	361,(5, 75),8	369,(5, 81),2	371,(5, 87),10	381,(5, 108),6	387,(5, 120),6	393,(8, 48),4	397,(8, 54),6	403,(8, 69),8	411,(8, 117),10	421,(11, 18),66	487,(11, 33),2	489,(11, 66),8	805,(7, 51),6	813,(7, 69),14	827,(7, 87),2	829,(2, 42),3250	4079,(10, 39),2	4081,(10, 42),98	4179,(10, 90),2	4181,(10, 93),2	4183,(1, 30),2	4185,(1, 33),2	4187,(1, 36),6	4193,(1, 51),2	4195,(1, 60),2	4197,(1, 75),70	4267,(1, 102),2	4269,(4, 51),12	4281,(4, 60),2	4283,(4, 78),2	4285,(4, 99),2	4287,(4, 105),4	4291,(4, 114),10	
1,(0, 2),32	65,(0, 5),32	129,(0, 8),32	193,(0, 11),32	257,(7, 17),548	805,(3, 104),4	811,(7, 68),2	813,(3, 35),8	829,(7, 92),2	831,(10, 17),66	897,(10, 20),192	1089,(10, 74),6	1095,(10, 77),2	1097,(10, 101),2	1099,(10, 119),6	1105,(3, 74),314	1419,(3, 86),186	1605,(3, 98),136	1741,(3, 116),10	1751,(1, 17),4	1755,(1, 44),18	1773,(1, 62),150	1923,(1, 68),28	1951,(1, 107),2	1953,(1, 110),10	1963,(1, 119),16	1979,(4, 14),8	1987,(4, 23),8	1995,(4, 26),84	2079,(4, 59),6	2085,(4, 68),12	2097,(4, 101),26	2123,(4, 119),12	2135,(6, 29),48	2183,(6, 35),2	2185,(6, 38),2	2187,(6, 80),8	2195,(6, 95),22	2217,(6, 104),40	2257,(9, 41),22	2279,(9, 47),2	2281,(9, 56),28	2309,(9, 86),4	2313,(9, 92),48	2361,(9, 113),14	2375,(9, 116),62	2437,(12, 23),34	2471,(12, 41),8	2479,(12, 62),208	2687,(12, 74),2	2689,(12, 77),2	2691,(12, 86),8	2699,(12, 107),24	
82,(2, 16),6	88,(2, 28),18	106,(2, 31),6	112,(2, 40),2	114,(2, 79),2	116,(2, 82),6	149,(2, 94),28	177,(2, 100),90	267,(3, 22),80	347,(3, 28),4	351,(3, 37),2	353,(3, 70),146	499,(3, 79),54	553,(53, 121),8	561,(45, 121),8	569,(5, 22),32	601,(5, 34),44	645,(5, 49),98	743,(5, 58),2	745,(5, 61),16	761,(5, 64),4	765,(5, 70),8	773,(5, 73),22	795,(5, 85),6	801,(83, 121),8	809,(6, 16),2	811,(6, 22),2	813,(8, 16),6	819,(11, 76),2	821,(111, 121),8	829,(6, 25),10	839,(6, 28),2	841,(6, 46),2	843,(6, 97),2	845,(9, 25),58	903,(9, 46),2	905,(9, 49),8	913,(9, 76),4	917,(9, 79),98	1015,(9, 91),16	1031,(9, 94),20	1051,(9, 103),12	1063,(15, 121),8	1071,(96, 121),8	1079,(12, 43),4	1083,(12, 64),4	1087,(12, 79),2	1089,(57, 121),8	1097,(84, 121),8	1751,(12, 34),52	1803,(12, 46),44	1847,(12, 76),36	1883,(12, 118),32	1915,(63, 121),8	1923,(24, 121),8	1931,(27, 121),8	1939,(81, 121),8	1947,(108, 121),8	1955,(120, 121),8	1963,(21, 121),8	1971,(72, 121),8	1979,(48, 121),8	1987,(54, 121),8	1995,(117, 121),8	2003,(18, 121),8	2011,(66, 121),8	2019,(69, 121),8	2027,(87, 121),8	4079,(5, 52),104	4183,(8, 19),10	4193,(8, 64),4	4197,(8, 109),10	4207,(8, 115),12	4219,(11, 79),8	4227,(11, 85),4	4231,(11, 91),2	4233,(11, 103),28	4261,(11, 106),234	4495,(32, 121),8	4503,(65, 121),8	4511,(71, 121),8	4519,(89, 121),8	4527,(50, 121),8	4535,(20, 121),8	4543,(98, 121),8	4551,(17, 121),8	4559,(44, 121),8	4567,(110, 121),8	4575,(14, 121),8	4583,(26, 121),8	4591,(59, 121),8	4599,(68, 121),8	4607,(101, 121),8	4615,(119, 121),8	4623,(29, 121),8	4631,(35, 121),8	4639,(38, 121),8	4647,(80, 121),8	4655,(95, 121),8	4663,(104, 121),8	4671,(47, 121),8	4679,(56, 121),8	4687,(92, 121),8	4695,(113, 121),8	4703,(116, 121),8	4711,(23, 121),8	4719,(41, 121),8	4727,(62, 121),8	4735,(74, 121),8	4743,(77, 121),8	4751,(86, 121),8	4759,(107, 121),8	4767,(39, 121),8	4775,(42, 121),8	4783,(90, 121),8	4791,(93, 121),8	4799,(30, 121),8	4807,(33, 121),8	4815,(36, 121),8	4823,(75, 121),8	4831,(102, 121),8	4839,(51, 121),8	4847,(60, 121),8	4855,(78, 121),8	4863,(99, 121),8	4871,(105, 121),8	4879,(114, 121),8	
# Outgoing
267,(3, 22),80	347,(3, 28),4	351,(3, 37),2	353,(3, 70),146	499,(3, 79),54	561,(45, 121),8	805,(3, 104),4	809,(6, 16),2	811,(6, 22),2	813,(3, 35),8	821,(111, 121),8	829,(6, 25),10	839,(6, 28),2	841,(6, 46),2	843,(6, 97),2	845,(9, 25),58	903,(9, 46),2	905,(9, 49),8	913,(9, 76),4	917,(9, 79),98	1015,(9, 91),16	1031,(9, 94),20	1051,(9, 103),12	1063,(15, 121),8	1071,(96, 121),8	1079,(12, 43),4	1083,(12, 64),4	1087,(12, 79),2	1089,(57, 121),8	1097,(84, 121),8	1105,(3, 74),314	1419,(3, 86),186	1605,(3, 98),136	1741,(3, 116),10	1751,(12, 34),52	1803,(12, 46),44	1847,(12, 76),36	1883,(12, 118),32	1915,(63, 121),8	1923,(24, 121),8	1931,(27, 121),8	1939,(81, 121),8	1947,(108, 121),8	1955,(120, 121),8	1963,(21, 121),8	1971,(72, 121),8	1979,(48, 121),8	1987,(54, 121),8	1995,(117, 121),8	2003,(18, 121),8	2011,(66, 121),8	2019,(69, 121),8	2027,(87, 121),8	2135,(6, 29),48	2183,(6, 35),2	2185,(6, 38),2	2187,(6, 80),8	2195,(6, 95),22	2217,(6, 104),40	2257,(9, 41),22	2279,(9, 47),2	2281,(9, 56),28	2309,(9, 86),4	2313,(9, 92),48	2361,(9, 113),14	2375,(9, 116),62	2437,(12, 23),34	2471,(12, 41),8	2479,(12, 62),208	2687,(12, 74),2	2689,(12, 77),2	2691,(12, 86),8	2699,(12, 107),24	4767,(39, 121),8	4775,(42, 121),8	4783,(90, 121),8	4791,(93, 121),8	4799,(30, 121),8	4807,(33, 121),8	4815,(36, 121),8	4823,(75, 121),8	4831,(102, 121),8	4839,(51, 121),8	4847,(60, 121),8	4855,(78, 121),8	4863,(99, 121),8	4871,(105, 121),8	4879,(114, 121),8	
74,(2, 15),8	82,(2, 16),6	88,(2, 28),18	106,(2, 31),6	112,(2, 40),2	114,(2, 79),2	116,(2, 82),6	129,(2, 39),2	131,(2, 57),16	147,(2, 78),2	149,(2, 94),28	177,(2, 100),90	267,(2, 114),4	271,(5, 24),4	275,(5, 27),2	277,(5, 33),18	295,(5, 48),66	361,(5, 75),8	369,(5, 81),2	371,(5, 87),10	381,(5, 108),6	387,(5, 120),6	393,(8, 48),4	397,(8, 54),6	403,(8, 69),8	411,(8, 117),10	421,(11, 18),66	487,(11, 33),2	489,(11, 66),8	553,(53, 121),8	569,(5, 22),32	601,(5, 34),44	645,(5, 49),98	743,(5, 58),2	745,(5, 61),16	761,(5, 64),4	765,(5, 70),8	773,(5, 73),22	795,(5, 85),6	801,(83, 121),8	813,(8, 16),6	819,(11, 76),2	829,(2, 42),3250	4079,(5, 52),104	4183,(8, 19),10	4193,(8, 64),4	4197,(8, 109),10	4207,(8, 115),12	4219,(11, 79),8	4227,(11, 85),4	4231,(11, 91),2	4233,(11, 103),28	4261,(11, 106),234	4495,(32, 121),8	4503,(65, 121),8	4511,(71, 121),8	4519,(89, 121),8	4527,(50, 121),8	4535,(20, 121),8	4543,(98, 121),8	4551,(17, 121),8	4559,(44, 121),8	4567,(110, 121),8	4575,(14, 121),8	4583,(26, 121),8	4591,(59, 121),8	4599,(68, 121),8	4607,(101, 121),8	4615,(119, 121),8	4623,(29, 121),8	4631,(35, 121),8	4639,(38, 121),8	4647,(80, 121),8	4655,(95, 121),8	4663,(104, 121),8	4671,(47, 121),8	4679,(56, 121),8	4687,(92, 121),8	4695,(113, 121),8	4703,(116, 121),8	4711,(23, 121),8	4719,(41, 121),8	4727,(62, 121),8	4735,(74, 121),8	4743,(77, 121),8	4751,(86, 121),8	4759,(107, 121),8	
1,(0, 2),32	33,(0, 3),32	65,(0, 5),32	97,(0, 6),32	129,(0, 8),32	161,(0, 9),32	193,(0, 11),32	225,(0, 12),32	257,(7, 17),548	805,(7, 51),6	811,(7, 68),2	813,(7, 69),14	827,(7, 87),2	829,(7, 92),2	831,(10, 17),66	897,(10, 20),192	1089,(10, 74),6	1095,(10, 77),2	1097,(10, 101),2	1099,(10, 119),6	1751,(1, 17),4	1755,(1, 44),18	1773,(1, 62),150	1923,(1, 68),28	1951,(1, 107),2	1953,(1, 110),10	1963,(1, 119),16	1979,(4, 14),8	1987,(4, 23),8	1995,(4, 26),84	2079,(4, 59),6	2085,(4, 68),12	2097,(4, 101),26	2123,(4, 119),12	4079,(10, 39),2	4081,(10, 42),98	4179,(10, 90),2	4181,(10, 93),2	4183,(1, 30),2	4185,(1, 33),2	4187,(1, 36),6	4193,(1, 51),2	4195,(1, 60),2	4197,(1, 75),70	4267,(1, 102),2	4269,(4, 51),12	4281,(4, 60),2	4283,(4, 78),2	4285,(4, 99),2	4287,(4, 105),4	4291,(4, 114),10	
