968
# CPU
0,0,1	1,4,23	24,21,23	47,19,23	70,6,23	93,119,23	116,23,23	139,13,23	162,51,23	185,24,23	208,7,23	231,65,23	254,11,23	277,66,23	300,101,23	323,102,23	346,62,23	369,61,23	392,39,23	415,10,23	438,87,23	461,106,23	484,88,23	507,79,23	530,75,23	553,94,23	576,63,23	599,1,23	622,80,23	645,60,23	668,78,23	691,30,23	714,95,23	737,47,23	760,52,23	783,116,23	806,85,23	829,90,23	852,36,23	875,120,23	898,53,23	921,22,23	944,82,23	967,121,1	
23,3,23	46,115,23	69,100,23	92,110,23	115,70,23	138,104,23	161,44,23	184,71,23	207,12,23	230,31,23	253,81,23	276,73,23	299,72,23	322,40,23	345,26,23	368,46,23	391,58,23	414,84,23	437,17,23	460,29,23	483,67,23	506,32,23	529,118,23	552,57,23	575,103,23	598,8,23	621,109,23	644,89,23	667,25,23	690,43,23	713,34,23	736,108,23	759,92,23	782,113,23	805,42,23	828,114,23	851,16,23	874,33,23	897,105,23	
32,64,23	55,2,23	78,14,23	101,49,23	124,68,23	147,9,23	170,27,23	193,77,23	216,97,23	239,107,23	262,112,23	285,37,23	308,111,23	331,99,23	354,35,23	377,5,23	400,91,23	423,41,23	446,59,23	469,86,23	492,28,23	515,93,23	538,98,23	561,54,23	584,45,23	607,50,23	630,55,23	653,96,23	676,56,23	699,18,23	722,83,23	745,48,23	768,20,23	791,74,23	814,69,23	837,76,23	860,117,23	883,15,23	906,38,23	
# Incoming
240,(12, 90),2	242,(9, 53),4	251,(12, 36),2	253,(9, 22),28	281,(64, 121),8	289,(115, 121),8	297,(100, 121),8	305,(14, 121),8	313,(49, 121),8	321,(68, 121),8	329,(27, 121),8	339,(110, 121),8	347,(77, 121),8	355,(97, 121),8	367,(12, 82),32	399,(70, 121),8	407,(104, 121),8	415,(44, 121),8	423,(71, 121),8	431,(31, 121),8	439,(107, 121),8	447,(81, 121),8	455,(112, 121),8	463,(73, 121),8	471,(37, 121),8	479,(72, 121),8	487,(111, 121),8	495,(40, 121),8	503,(99, 121),8	511,(26, 121),8	519,(35, 121),8	527,(46, 121),8	535,(58, 121),8	543,(91, 121),8	551,(84, 121),8	559,(41, 121),8	567,(17, 121),8	575,(59, 121),8	583,(29, 121),8	591,(86, 121),8	599,(67, 121),8	607,(28, 121),8	615,(32, 121),8	626,(8, 120),6	632,(8, 53),6	638,(93, 121),8	646,(98, 121),8	654,(54, 121),8	662,(45, 121),8	676,(118, 121),8	684,(57, 121),8	692,(103, 121),8	700,(50, 121),8	708,(109, 121),8	716,(55, 121),8	724,(89, 121),8	732,(96, 121),8	740,(25, 121),8	748,(56, 121),8	756,(43, 121),8	764,(18, 121),8	772,(34, 121),8	780,(83, 121),8	788,(108, 121),8	796,(48, 121),8	804,(92, 121),8	812,(20, 121),8	820,(113, 121),8	828,(74, 121),8	836,(42, 121),8	844,(69, 121),8	852,(114, 121),8	860,(76, 121),8	874,(16, 121),8	883,(117, 121),8	897,(33, 121),8	906,(15, 121),8	920,(105, 121),8	929,(38, 121),8	
1,(0, 3),22	76,(4, 32),2	78,(2, 110),12	90,(2, 71),2	95,(6, 70),2	107,(6, 104),10	117,(4, 44),18	135,(0, 12),22	170,(9, 71),6	176,(9, 26),2	179,(6, 32),10	189,(9, 103),14	203,(0, 8),22	225,(9, 33),4	231,(7, 46),10	283,(11, 26),6	297,(11, 58),10	307,(11, 103),2	311,(7, 114),18	349,(4, 16),30	400,(5, 84),2	402,(5, 17),2	404,(5, 67),2	406,(5, 32),2	408,(5, 118),2	410,(5, 57),14	438,(10, 29),6	444,(10, 67),8	452,(10, 118),12	464,(10, 57),2	468,(10, 113),12	486,(4, 33),44	646,(1, 42),12	672,(7, 105),48	
24,(4, 64),8	32,(0, 2),22	54,(0, 9),22	93,(6, 49),2	97,(6, 68),10	157,(0, 5),22	189,(6, 50),4	230,(12, 111),2	232,(12, 99),2	234,(12, 50),2	236,(12, 56),4	241,(7, 45),2	243,(3, 74),8	251,(7, 69),18	269,(12, 117),2	277,(11, 37),2	279,(11, 111),2	281,(11, 99),2	289,(11, 35),8	309,(11, 50),2	311,(12, 76),28	339,(7, 76),10	349,(3, 38),18	379,(11, 117),40	466,(10, 48),2	480,(10, 74),6	530,(7, 15),52	622,(1, 55),2	624,(8, 96),2	626,(1, 56),2	628,(1, 18),8	636,(1, 83),10	646,(8, 48),10	656,(8, 20),12	668,(1, 74),4	672,(8, 69),2	674,(8, 117),2	720,(1, 38),82	
# Outgoing
1,(0, 3),22	24,(4, 64),8	32,(0, 2),22	54,(0, 9),22	76,(4, 32),2	93,(6, 49),2	95,(6, 70),2	97,(6, 68),10	107,(6, 104),10	117,(4, 44),18	135,(0, 12),22	157,(0, 5),22	179,(6, 32),10	189,(6, 50),4	203,(0, 8),22	231,(7, 46),10	241,(7, 45),2	251,(7, 69),18	277,(11, 37),2	279,(11, 111),2	281,(11, 99),2	283,(11, 26),6	289,(11, 35),8	297,(11, 58),10	307,(11, 103),2	309,(11, 50),2	311,(7, 114),18	339,(7, 76),10	349,(4, 16),30	379,(11, 117),40	438,(10, 29),6	444,(10, 67),8	452,(10, 118),12	464,(10, 57),2	466,(10, 48),2	468,(10, 113),12	480,(10, 74),6	486,(4, 33),44	530,(7, 15),52	622,(1, 55),2	626,(1, 56),2	628,(1, 18),8	636,(1, 83),10	646,(1, 42),12	668,(1, 74),4	672,(7, 105),48	720,(1, 38),82	
230,(12, 111),2	232,(12, 99),2	234,(12, 50),2	236,(12, 56),4	240,(12, 90),2	243,(3, 74),8	251,(12, 36),2	269,(12, 117),2	289,(115, 121),8	297,(100, 121),8	311,(12, 76),28	339,(110, 121),8	349,(3, 38),18	367,(12, 82),32	399,(70, 121),8	407,(104, 121),8	415,(44, 121),8	423,(71, 121),8	431,(31, 121),8	447,(81, 121),8	463,(73, 121),8	479,(72, 121),8	495,(40, 121),8	511,(26, 121),8	527,(46, 121),8	535,(58, 121),8	551,(84, 121),8	567,(17, 121),8	583,(29, 121),8	599,(67, 121),8	615,(32, 121),8	624,(8, 96),2	626,(8, 120),6	632,(8, 53),6	646,(8, 48),10	656,(8, 20),12	672,(8, 69),2	674,(8, 117),2	676,(118, 121),8	684,(57, 121),8	692,(103, 121),8	708,(109, 121),8	724,(89, 121),8	740,(25, 121),8	756,(43, 121),8	772,(34, 121),8	788,(108, 121),8	804,(92, 121),8	820,(113, 121),8	836,(42, 121),8	852,(114, 121),8	874,(16, 121),8	897,(33, 121),8	920,(105, 121),8	
78,(2, 110),12	90,(2, 71),2	170,(9, 71),6	176,(9, 26),2	189,(9, 103),14	225,(9, 33),4	242,(9, 53),4	253,(9, 22),28	281,(64, 121),8	305,(14, 121),8	313,(49, 121),8	321,(68, 121),8	329,(27, 121),8	347,(77, 121),8	355,(97, 121),8	400,(5, 84),2	402,(5, 17),2	404,(5, 67),2	406,(5, 32),2	408,(5, 118),2	410,(5, 57),14	439,(107, 121),8	455,(112, 121),8	471,(37, 121),8	487,(111, 121),8	503,(99, 121),8	519,(35, 121),8	543,(91, 121),8	559,(41, 121),8	575,(59, 121),8	591,(86, 121),8	607,(28, 121),8	638,(93, 121),8	646,(98, 121),8	654,(54, 121),8	662,(45, 121),8	700,(50, 121),8	716,(55, 121),8	732,(96, 121),8	748,(56, 121),8	764,(18, 121),8	780,(83, 121),8	796,(48, 121),8	812,(20, 121),8	828,(74, 121),8	844,(69, 121),8	860,(76, 121),8	883,(117, 121),8	906,(15, 121),8	929,(38, 121),8	
