2232
# CPU
55,9,10	65,14,10	130,19,10	178,24,10	601,29,10	910,39,10	1873,34,10	
28,4,10	38,13,10	97,8,10	133,28,10	199,38,10	1798,18,10	2020,23,10	2215,33,10	
19,3,10	29,7,10	118,17,10	220,27,10	346,12,10	580,22,10	667,32,10	853,37,10	
10,2,10	20,36,10	169,26,10	238,6,10	286,11,10	388,16,10	511,21,10	613,31,10	
0,0,1	1,1,10	11,35,10	26,10,10	40,25,10	50,5,10	76,40,10	154,30,10	349,15,10	484,20,10	2231,41,1	
# Incoming
40,(1, 9),15	55,(3, 14),3	58,(3, 24),3	118,(4, 19),3	127,(2, 19),3	133,(2, 29),24	175,(1, 24),3	247,(1, 39),3	580,(4, 29),21	667,(4, 34),120	853,(4, 39),57	1798,(2, 34),75	
19,(0, 4),9	28,(2, 13),3	31,(1, 8),9	40,(2, 8),57	130,(2, 28),3	145,(1, 18),21	166,(1, 23),9	175,(2, 33),21	196,(2, 38),3	346,(2, 18),1452	1798,(3, 23),222	2020,(3, 33),195	
10,(0, 3),9	20,(2, 7),3	46,(4, 17),72	121,(4, 27),3	142,(1, 12),3	178,(1, 27),42	220,(1, 32),27	247,(2, 12),99	511,(4, 22),69	613,(4, 32),54	787,(4, 37),66	
1,(0, 2),9	28,(1, 6),3	55,(1, 11),87	142,(3, 26),27	169,(4, 6),69	238,(4, 11),48	349,(4, 16),39	484,(4, 21),27	601,(4, 31),12	
23,(2, 10),3	31,(2, 40),3	34,(3, 5),3	37,(3, 25),3	40,(3, 30),3	43,(4, 5),3	46,(7, 41),6	61,(3, 40),15	76,(9, 41),6	82,(14, 41),6	97,(2, 15),30	127,(4, 30),27	157,(36, 41),6	163,(13, 41),6	169,(17, 41),6	175,(19, 41),6	188,(24, 41),6	199,(26, 41),6	230,(27, 41),6	286,(4, 15),63	356,(12, 41),6	388,(4, 20),96	590,(22, 41),6	611,(29, 41),6	677,(32, 41),6	863,(37, 41),6	910,(8, 41),6	916,(28, 41),6	922,(38, 41),6	928,(39, 41),6	1808,(18, 41),6	1873,(6, 41),6	1879,(11, 41),6	1885,(16, 41),6	1891,(21, 41),6	1897,(31, 41),6	1903,(34, 41),6	2030,(23, 41),6	2225,(33, 41),6	
# Outgoing
76,(9, 41),6	82,(14, 41),6	175,(19, 41),6	188,(24, 41),6	611,(29, 41),6	928,(39, 41),6	1903,(34, 41),6	
43,(4, 5),3	46,(4, 17),72	118,(4, 19),3	121,(4, 27),3	127,(4, 30),27	163,(13, 41),6	169,(4, 6),69	238,(4, 11),48	286,(4, 15),63	349,(4, 16),39	388,(4, 20),96	484,(4, 21),27	511,(4, 22),69	580,(4, 29),21	601,(4, 31),12	613,(4, 32),54	667,(4, 34),120	787,(4, 37),66	853,(4, 39),57	910,(8, 41),6	916,(28, 41),6	922,(38, 41),6	1808,(18, 41),6	2030,(23, 41),6	2225,(33, 41),6	
34,(3, 5),3	37,(3, 25),3	40,(3, 30),3	46,(7, 41),6	55,(3, 14),3	58,(3, 24),3	61,(3, 40),15	142,(3, 26),27	169,(17, 41),6	230,(27, 41),6	356,(12, 41),6	590,(22, 41),6	677,(32, 41),6	863,(37, 41),6	1798,(3, 23),222	2020,(3, 33),195	
20,(2, 7),3	23,(2, 10),3	28,(2, 13),3	31,(2, 40),3	40,(2, 8),57	97,(2, 15),30	127,(2, 19),3	130,(2, 28),3	133,(2, 29),24	157,(36, 41),6	175,(2, 33),21	196,(2, 38),3	199,(26, 41),6	247,(2, 12),99	346,(2, 18),1452	1798,(2, 34),75	1873,(6, 41),6	1879,(11, 41),6	1885,(16, 41),6	1891,(21, 41),6	1897,(31, 41),6	
1,(0, 2),9	10,(0, 3),9	19,(0, 4),9	28,(1, 6),3	31,(1, 8),9	40,(1, 9),15	55,(1, 11),87	142,(1, 12),3	145,(1, 18),21	166,(1, 23),9	175,(1, 24),3	178,(1, 27),42	220,(1, 32),27	247,(1, 39),3	
