1048
# CPU
76,2,17	93,30,17	151,4,17	168,6,17	185,14,17	202,20,17	219,16,17	236,8,17	253,22,17	270,18,17	287,24,17	304,28,17	321,32,17	640,38,17	757,40,17	781,10,17	798,12,17	937,26,17	970,34,17	1012,36,17	
0,0,1	1,1,17	18,3,17	35,19,17	52,7,17	111,9,17	128,11,17	145,25,17	162,27,17	303,5,17	320,13,17	337,15,17	558,17,17	575,21,17	592,23,17	609,29,17	626,31,17	645,33,17	663,35,17	680,37,17	738,39,17	1047,41,1	
# Incoming
1,(0, 2),75	76,(0, 4),75	151,(1, 8),3	154,(1, 10),9	163,(1, 14),3	166,(1, 18),9	175,(1, 24),12	187,(1, 28),6	193,(1, 32),36	229,(1, 36),408	637,(1, 38),3	640,(1, 40),117	757,(3, 10),24	781,(3, 12),3	784,(3, 26),153	937,(3, 34),33	970,(3, 36),42	
93,(2, 5),3	96,(2, 9),15	111,(2, 11),12	123,(2, 13),3	126,(2, 25),6	132,(2, 27),15	147,(2, 29),87	234,(2, 35),21	255,(2, 39),3	258,(30, 41),18	276,(4, 5),27	303,(4, 13),3	306,(4, 15),15	321,(4, 17),237	558,(4, 21),6	564,(4, 23),27	591,(4, 29),9	600,(4, 31),24	624,(4, 33),21	645,(4, 35),18	663,(4, 37),12	675,(4, 39),63	738,(6, 41),18	756,(14, 41),18	774,(20, 41),18	792,(16, 41),18	810,(8, 41),18	828,(22, 41),18	846,(18, 41),18	864,(24, 41),18	882,(28, 41),18	900,(32, 41),18	918,(38, 41),18	936,(40, 41),18	954,(10, 41),18	972,(12, 41),18	990,(26, 41),18	1008,(34, 41),18	1029,(36, 41),18	
# Outgoing
93,(2, 5),3	96,(2, 9),15	111,(2, 11),12	123,(2, 13),3	126,(2, 25),6	132,(2, 27),15	147,(2, 29),87	234,(2, 35),21	255,(2, 39),3	258,(30, 41),18	276,(4, 5),27	303,(4, 13),3	306,(4, 15),15	321,(4, 17),237	558,(4, 21),6	564,(4, 23),27	591,(4, 29),9	600,(4, 31),24	624,(4, 33),21	645,(4, 35),18	663,(4, 37),12	675,(4, 39),63	738,(6, 41),18	756,(14, 41),18	774,(20, 41),18	792,(16, 41),18	810,(8, 41),18	828,(22, 41),18	846,(18, 41),18	864,(24, 41),18	882,(28, 41),18	900,(32, 41),18	918,(38, 41),18	936,(40, 41),18	954,(10, 41),18	972,(12, 41),18	990,(26, 41),18	1008,(34, 41),18	1029,(36, 41),18	
1,(0, 2),75	76,(0, 4),75	151,(1, 8),3	154,(1, 10),9	163,(1, 14),3	166,(1, 18),9	175,(1, 24),12	187,(1, 28),6	193,(1, 32),36	229,(1, 36),408	637,(1, 38),3	640,(1, 40),117	757,(3, 10),24	781,(3, 12),3	784,(3, 26),153	937,(3, 34),33	970,(3, 36),42	
