3401
# CPU
0,0,1	1,2,18	19,45,18	37,6,18	55,112,18	73,8,18	91,92,18	109,29,18	127,9,18	145,39,18	163,36,18	181,7,18	199,116,18	217,31,18	235,51,18	253,48,18	271,87,18	289,38,18	307,84,18	325,76,18	343,89,18	361,49,18	379,47,18	397,85,18	415,97,18	433,22,18	478,13,18	505,90,18	553,68,18	580,80,18	619,71,18	652,118,18	703,78,18	727,56,18	769,42,18	823,111,18	871,79,18	928,16,18	994,44,18	1069,40,18	1144,66,18	1240,52,18	1339,81,18	1489,82,18	1642,60,18	2323,41,18	3382,86,18	3400,121,1	
7,3,18	25,120,18	43,17,18	61,12,18	79,1,18	97,25,18	115,18,18	133,74,18	151,43,18	169,58,18	187,88,18	205,54,18	223,98,18	241,63,18	259,46,18	277,99,18	295,69,18	313,101,18	331,110,18	349,114,18	367,50,18	385,59,18	403,100,18	421,28,18	439,24,18	457,33,18	544,19,18	658,55,18	772,62,18	955,73,18	1315,30,18	
13,10,18	31,11,18	49,5,18	67,95,18	85,4,18	103,109,18	121,57,18	139,91,18	157,105,18	175,15,18	193,34,18	211,83,18	229,96,18	247,72,18	265,104,18	283,70,18	301,102,18	319,26,18	337,27,18	355,23,18	373,106,18	391,37,18	409,113,18	427,32,18	445,14,18	466,107,18	496,20,18	514,94,18	577,61,18	610,35,18	640,65,18	685,108,18	721,64,18	751,21,18	805,75,18	844,115,18	910,117,18	973,77,18	1045,103,18	1132,67,18	1261,53,18	1552,93,18	1630,119,18	
# Incoming
43,(120, 121),3	55,(3, 48),3	58,(3, 84),3	61,(17, 121),3	64,(3, 49),3	67,(3, 118),3	70,(3, 56),3	85,(95, 121),3	91,(12, 38),3	94,(12, 85),3	97,(1, 116),3	100,(10, 87),3	115,(25, 121),3	118,(10, 76),3	121,(109, 121),3	124,(10, 89),3	133,(18, 121),3	136,(11, 85),3	139,(57, 121),3	142,(11, 47),6	148,(10, 22),3	151,(74, 121),3	154,(1, 56),3	157,(91, 121),3	160,(12, 22),9	169,(43, 121),3	172,(1, 79),3	175,(105, 121),3	178,(5, 97),9	187,(58, 121),3	190,(5, 111),3	193,(15, 121),3	196,(12, 13),9	205,(88, 121),3	208,(10, 44),3	211,(34, 121),3	214,(4, 118),6	220,(11, 41),3	223,(54, 121),3	229,(83, 121),3	232,(4, 56),6	241,(98, 121),3	247,(96, 121),3	250,(12, 42),9	259,(63, 121),3	265,(72, 121),3	277,(46, 121),3	283,(104, 121),3	286,(4, 42),6	295,(99, 121),3	301,(70, 121),3	313,(69, 121),3	319,(102, 121),3	331,(101, 121),3	337,(26, 121),3	349,(110, 121),3	355,(27, 121),3	367,(114, 121),3	373,(23, 121),3	385,(50, 121),3	391,(106, 121),3	403,(59, 121),3	409,(37, 121),3	421,(100, 121),3	427,(113, 121),3	439,(28, 121),3	445,(32, 121),3	457,(24, 121),3	463,(14, 121),3	466,(5, 13),12	478,(33, 121),3	484,(107, 121),3	487,(5, 90),18	514,(20, 121),3	517,(1, 80),12	532,(94, 121),3	535,(12, 68),18	562,(19, 121),3	565,(4, 80),15	580,(1, 66),12	595,(61, 121),3	598,(3, 71),21	628,(35, 121),3	631,(11, 118),21	658,(65, 121),3	676,(55, 121),3	679,(12, 78),24	703,(108, 121),3	706,(10, 56),21	739,(64, 121),3	742,(10, 42),27	769,(21, 121),3	772,(11, 111),18	790,(62, 121),3	793,(10, 111),30	823,(75, 121),3	826,(10, 79),45	871,(115, 121),3	874,(1, 16),36	910,(4, 16),18	928,(117, 121),3	931,(11, 44),63	994,(73, 121),3	997,(77, 121),3	1000,(11, 40),69	1069,(103, 121),3	1072,(10, 66),27	1099,(5, 66),45	1150,(67, 121),3	1153,(3, 52),33	1186,(11, 52),54	1240,(3, 81),27	1267,(12, 81),48	1315,(4, 81),24	1339,(53, 121),3	1342,(30, 121),3	1345,(11, 82),18	1363,(5, 82),24	1387,(1, 82),102	1489,(10, 60),138	1627,(11, 60),15	1642,(93, 121),3	1648,(119, 121),3	1651,(5, 41),567	2218,(12, 41),105	2323,(3, 86),42	2365,(11, 86),72	2437,(4, 86),945	
1,(0, 3),6	25,(0, 12),6	31,(0, 1),6	46,(2, 114),6	52,(2, 59),3	58,(6, 88),3	73,(6, 99),3	76,(6, 69),6	82,(6, 101),6	88,(5, 18),3	91,(10, 74),3	94,(11, 74),3	97,(11, 58),3	100,(8, 58),3	103,(11, 88),3	106,(5, 98),3	109,(4, 46),3	112,(11, 99),3	115,(10, 110),3	118,(8, 110),9	127,(11, 114),6	133,(8, 59),9	142,(6, 24),3	145,(9, 43),3	151,(9, 101),6	160,(5, 59),15	175,(8, 50),18	196,(4, 24),3	199,(7, 54),6	205,(7, 98),3	208,(7, 63),6	214,(7, 46),6	220,(7, 99),6	226,(7, 69),6	232,(7, 110),6	238,(10, 55),3	241,(7, 114),6	250,(10, 100),9	259,(7, 59),6	268,(11, 24),9	277,(4, 62),3	280,(7, 100),24	304,(4, 55),6	310,(2, 28),15	325,(7, 28),3	328,(5, 33),9	340,(4, 28),15	355,(8, 24),3	358,(9, 24),18	376,(7, 24),3	379,(11, 19),9	406,(6, 33),3	409,(8, 33),27	436,(7, 33),3	496,(2, 19),48	610,(2, 55),48	661,(5, 62),24	724,(9, 62),33	757,(7, 62),15	772,(7, 73),3	874,(10, 73),36	910,(8, 73),45	955,(6, 30),3	958,(8, 30),6	1240,(5, 30),75	
7,(0, 10),6	13,(0, 11),6	19,(0, 5),6	37,(0, 4),6	43,(2, 83),3	46,(3, 105),3	49,(3, 34),6	55,(6, 105),3	61,(6, 83),3	64,(2, 96),3	67,(2, 72),6	73,(3, 26),3	76,(3, 64),3	79,(12, 15),6	85,(12, 96),6	91,(8, 57),3	94,(8, 91),3	97,(6, 23),3	100,(12, 72),3	103,(1, 104),9	112,(12, 106),3	115,(2, 113),3	118,(12, 70),9	127,(1, 102),6	136,(1, 26),9	145,(12, 53),3	148,(9, 102),3	157,(6, 27),9	166,(2, 23),9	175,(1, 53),3	193,(6, 113),6	208,(12, 75),15	238,(7, 27),3	247,(8, 106),12	265,(7, 37),15	304,(8, 113),3	307,(9, 113),3	328,(2, 32),21	349,(6, 20),6	379,(9, 14),27	439,(6, 107),12	451,(8, 107),15	466,(9, 20),30	496,(1, 94),18	544,(6, 61),33	577,(2, 35),18	595,(9, 35),15	619,(1, 65),21	640,(12, 108),18	658,(6, 108),15	673,(7, 108),12	685,(6, 64),33	718,(7, 64),3	721,(8, 21),3	724,(1, 21),27	751,(3, 75),24	775,(9, 75),12	787,(7, 75),18	805,(6, 115),15	820,(7, 115),24	844,(9, 117),66	910,(3, 77),60	970,(9, 77),3	973,(2, 103),27	1000,(1, 103),33	1033,(9, 103),12	1045,(2, 67),45	1090,(1, 67),30	1120,(9, 67),12	1132,(6, 53),84	1216,(9, 53),45	1261,(2, 93),3	1264,(6, 93),54	1318,(8, 93),87	1405,(7, 93),3	1408,(2, 119),18	1426,(8, 119),45	1489,(1, 93),63	1552,(1, 119),78	
# Outgoing
1,(0, 3),6	7,(0, 10),6	13,(0, 11),6	19,(0, 5),6	25,(0, 12),6	31,(0, 1),6	37,(0, 4),6	43,(2, 83),3	46,(2, 114),6	52,(2, 59),3	55,(6, 105),3	58,(6, 88),3	61,(6, 83),3	64,(2, 96),3	67,(2, 72),6	73,(6, 99),3	76,(6, 69),6	82,(6, 101),6	91,(8, 57),3	94,(8, 91),3	97,(6, 23),3	100,(8, 58),3	115,(2, 113),3	118,(8, 110),9	133,(8, 59),9	142,(6, 24),3	145,(9, 43),3	148,(9, 102),3	151,(9, 101),6	157,(6, 27),9	166,(2, 23),9	175,(8, 50),18	193,(6, 113),6	199,(7, 54),6	205,(7, 98),3	208,(7, 63),6	214,(7, 46),6	220,(7, 99),6	226,(7, 69),6	232,(7, 110),6	238,(7, 27),3	241,(7, 114),6	247,(8, 106),12	259,(7, 59),6	265,(7, 37),15	280,(7, 100),24	304,(8, 113),3	307,(9, 113),3	310,(2, 28),15	325,(7, 28),3	328,(2, 32),21	349,(6, 20),6	355,(8, 24),3	358,(9, 24),18	376,(7, 24),3	379,(9, 14),27	406,(6, 33),3	409,(8, 33),27	436,(7, 33),3	439,(6, 107),12	451,(8, 107),15	466,(9, 20),30	496,(2, 19),48	544,(6, 61),33	577,(2, 35),18	595,(9, 35),15	610,(2, 55),48	658,(6, 108),15	673,(7, 108),12	685,(6, 64),33	718,(7, 64),3	721,(8, 21),3	724,(9, 62),33	757,(7, 62),15	772,(7, 73),3	775,(9, 75),12	787,(7, 75),18	805,(6, 115),15	820,(7, 115),24	844,(9, 117),66	910,(8, 73),45	955,(6, 30),3	958,(8, 30),6	970,(9, 77),3	973,(2, 103),27	1033,(9, 103),12	1045,(2, 67),45	1120,(9, 67),12	1132,(6, 53),84	1216,(9, 53),45	1261,(2, 93),3	1264,(6, 93),54	1318,(8, 93),87	1405,(7, 93),3	1408,(2, 119),18	1426,(8, 119),45	
43,(120, 121),3	46,(3, 105),3	49,(3, 34),6	55,(3, 48),3	58,(3, 84),3	61,(17, 121),3	64,(3, 49),3	67,(3, 118),3	70,(3, 56),3	73,(3, 26),3	76,(3, 64),3	79,(12, 15),6	85,(12, 96),6	91,(12, 38),3	94,(12, 85),3	97,(1, 116),3	100,(12, 72),3	103,(1, 104),9	112,(12, 106),3	115,(25, 121),3	118,(12, 70),9	127,(1, 102),6	133,(18, 121),3	136,(1, 26),9	145,(12, 53),3	151,(74, 121),3	154,(1, 56),3	160,(12, 22),9	169,(43, 121),3	172,(1, 79),3	175,(1, 53),3	187,(58, 121),3	196,(12, 13),9	205,(88, 121),3	208,(12, 75),15	223,(54, 121),3	241,(98, 121),3	250,(12, 42),9	259,(63, 121),3	277,(46, 121),3	295,(99, 121),3	313,(69, 121),3	331,(101, 121),3	349,(110, 121),3	367,(114, 121),3	385,(50, 121),3	403,(59, 121),3	421,(100, 121),3	439,(28, 121),3	457,(24, 121),3	478,(33, 121),3	496,(1, 94),18	517,(1, 80),12	535,(12, 68),18	562,(19, 121),3	580,(1, 66),12	598,(3, 71),21	619,(1, 65),21	640,(12, 108),18	676,(55, 121),3	679,(12, 78),24	724,(1, 21),27	751,(3, 75),24	790,(62, 121),3	874,(1, 16),36	910,(3, 77),60	994,(73, 121),3	1000,(1, 103),33	1090,(1, 67),30	1153,(3, 52),33	1240,(3, 81),27	1267,(12, 81),48	1342,(30, 121),3	1387,(1, 82),102	1489,(1, 93),63	1552,(1, 119),78	2218,(12, 41),105	2323,(3, 86),42	
85,(95, 121),3	88,(5, 18),3	91,(10, 74),3	94,(11, 74),3	97,(11, 58),3	100,(10, 87),3	103,(11, 88),3	106,(5, 98),3	109,(4, 46),3	112,(11, 99),3	115,(10, 110),3	118,(10, 76),3	121,(109, 121),3	124,(10, 89),3	127,(11, 114),6	136,(11, 85),3	139,(57, 121),3	142,(11, 47),6	148,(10, 22),3	157,(91, 121),3	160,(5, 59),15	175,(105, 121),3	178,(5, 97),9	190,(5, 111),3	193,(15, 121),3	196,(4, 24),3	208,(10, 44),3	211,(34, 121),3	214,(4, 118),6	220,(11, 41),3	229,(83, 121),3	232,(4, 56),6	238,(10, 55),3	247,(96, 121),3	250,(10, 100),9	265,(72, 121),3	268,(11, 24),9	277,(4, 62),3	283,(104, 121),3	286,(4, 42),6	301,(70, 121),3	304,(4, 55),6	319,(102, 121),3	328,(5, 33),9	337,(26, 121),3	340,(4, 28),15	355,(27, 121),3	373,(23, 121),3	379,(11, 19),9	391,(106, 121),3	409,(37, 121),3	427,(113, 121),3	445,(32, 121),3	463,(14, 121),3	466,(5, 13),12	484,(107, 121),3	487,(5, 90),18	514,(20, 121),3	532,(94, 121),3	565,(4, 80),15	595,(61, 121),3	628,(35, 121),3	631,(11, 118),21	658,(65, 121),3	661,(5, 62),24	703,(108, 121),3	706,(10, 56),21	739,(64, 121),3	742,(10, 42),27	769,(21, 121),3	772,(11, 111),18	793,(10, 111),30	823,(75, 121),3	826,(10, 79),45	871,(115, 121),3	874,(10, 73),36	910,(4, 16),18	928,(117, 121),3	931,(11, 44),63	997,(77, 121),3	1000,(11, 40),69	1069,(103, 121),3	1072,(10, 66),27	1099,(5, 66),45	1150,(67, 121),3	1186,(11, 52),54	1240,(5, 30),75	1315,(4, 81),24	1339,(53, 121),3	1345,(11, 82),18	1363,(5, 82),24	1489,(10, 60),138	1627,(11, 60),15	1642,(93, 121),3	1648,(119, 121),3	1651,(5, 41),567	2365,(11, 86),72	2437,(4, 86),945	
