606
# CPU
57,7,12	141,8,12	193,11,12	205,16,12	473,4,12	485,12,12	497,13,12	541,14,12	553,18,12	573,19,12	605,21,1	
0,0,1	1,2,12	13,1,12	25,10,12	37,20,12	49,5,12	61,17,12	73,15,12	85,6,12	97,3,12	109,9,12	
# Incoming
13,(2, 4),40	53,(2, 7),4	57,(2, 8),84	141,(2, 11),52	193,(2, 16),8	201,(2, 18),256	457,(1, 4),16	473,(1, 12),4	477,(1, 13),4	481,(1, 14),60	541,(1, 18),8	549,(1, 19),24	573,(10, 21),4	577,(20, 21),4	581,(5, 21),4	585,(17, 21),4	589,(15, 21),4	593,(6, 21),4	597,(3, 21),4	601,(9, 21),4	

# Outgoing

13,(2, 4),40	53,(2, 7),4	57,(2, 8),84	141,(2, 11),52	193,(2, 16),8	201,(2, 18),256	457,(1, 4),16	473,(1, 12),4	477,(1, 13),4	481,(1, 14),60	541,(1, 18),8	549,(1, 19),24	573,(10, 21),4	577,(20, 21),4	581,(5, 21),4	585,(17, 21),4	589,(15, 21),4	593,(6, 21),4	597,(3, 21),4	601,(9, 21),4	
