6970
# CPU
325,4,7	649,8,7	656,32,7	663,36,7	677,20,7	761,16,7	829,72,7	853,12,7	961,40,7	1049,48,7	1617,60,7	1913,44,7	1993,68,7	2025,24,7	2197,28,7	2385,56,7	2453,52,7	2485,64,7	2521,76,7	2661,80,7	
217,3,7	541,7,7	769,19,7	797,15,7	833,27,7	1789,23,7	1805,75,7	1885,11,7	2021,51,7	2057,63,7	2073,71,7	2097,55,7	2157,43,7	2217,31,7	2365,35,7	2445,47,7	2465,59,7	4761,39,7	5445,67,7	5473,79,7	
109,2,7	433,6,7	440,42,7	657,10,7	677,14,7	845,30,7	1025,34,7	1409,78,7	1705,66,7	1797,74,7	1829,58,7	1997,18,7	2009,22,7	2049,26,7	2369,38,7	2449,50,7	2461,54,7	2481,62,7	2517,70,7	5345,46,7	
0,0,1	1,1,7	8,5,7	15,17,7	144,61,7	525,13,7	532,21,7	539,45,7	664,53,7	1309,37,7	1341,41,7	1353,25,7	1373,57,7	1525,29,7	1537,49,7	1553,9,7	1577,33,7	1605,77,7	1713,65,7	1737,69,7	2105,73,7	6969,81,1	
# Incoming
217,(0, 4),108	325,(3, 32),4	329,(2, 16),108	437,(2, 24),28	465,(2, 40),12	477,(3, 20),12	489,(3, 40),4	493,(6, 16),12	505,(6, 80),20	541,(0, 8),108	649,(3, 52),4	653,(3, 56),8	661,(3, 60),8	669,(7, 20),8	677,(1, 16),84	769,(1, 24),32	801,(3, 72),28	833,(1, 28),8	841,(7, 12),12	865,(1, 52),40	905,(7, 40),56	997,(7, 48),52	1069,(2, 44),276	1353,(7, 56),44	1433,(1, 64),36	1537,(7, 60),80	1793,(6, 44),120	1913,(6, 68),80	2009,(5, 24),16	2049,(5, 28),148	2197,(6, 52),96	2293,(6, 56),92	2449,(5, 52),4	2481,(5, 64),4	2517,(5, 76),4	2521,(5, 80),4	2525,(7, 80),136	
109,(0, 3),108	217,(2, 11),112	433,(0, 7),108	541,(2, 19),16	557,(2, 27),108	665,(4, 15),4	669,(4, 47),20	689,(4, 51),8	697,(4, 55),4	701,(4, 71),60	761,(1, 19),8	769,(4, 75),16	785,(8, 15),12	797,(8, 27),4	805,(1, 27),28	845,(1, 39),4	905,(1, 59),20	925,(1, 63),508	1433,(2, 51),4	1437,(2, 55),336	1773,(2, 59),4	1777,(6, 23),12	1789,(6, 39),4	1797,(1, 75),8	1805,(5, 11),80	1885,(4, 31),112	1997,(6, 51),24	2021,(6, 59),32	2053,(6, 63),4	2057,(6, 71),16	2073,(8, 55),24	2105,(6, 79),4	2109,(8, 43),48	2157,(8, 59),24	2197,(5, 31),20	2217,(5, 35),148	2369,(5, 39),32	2401,(5, 47),44	2461,(5, 59),4	2465,(4, 79),1048	3513,(8, 39),1248	5345,(8, 67),100	5445,(8, 79),28	
1,(0, 2),108	224,(3, 18),4	300,(3, 26),12	312,(3, 38),12	325,(0, 6),108	433,(3, 78),4	437,(4, 10),48	493,(3, 46),52	545,(3, 66),92	641,(7, 26),8	649,(1, 10),8	657,(1, 14),20	677,(3, 54),124	801,(1, 26),4	805,(4, 22),16	821,(8, 66),4	829,(7, 30),4	833,(8, 70),8	841,(1, 30),4	849,(1, 46),16	865,(4, 38),108	973,(7, 22),24	997,(8, 34),28	1049,(7, 50),20	1069,(8, 18),264	1341,(7, 54),12	1353,(8, 38),28	1397,(7, 78),12	1469,(1, 66),236	1705,(1, 74),92	1797,(7, 58),32	1885,(5, 18),112	1997,(5, 22),12	2025,(5, 26),24	2049,(7, 62),72	2365,(5, 38),4	2445,(5, 50),4	2453,(5, 54),8	2465,(5, 62),16	2485,(5, 70),32	4761,(8, 46),584	
116,(2, 9),4	120,(2, 21),16	136,(2, 37),4	140,(2, 61),4	228,(3, 25),72	329,(3, 45),48	377,(3, 69),8	477,(6, 9),4	485,(4, 13),40	525,(4, 21),4	529,(4, 45),8	537,(4, 65),4	637,(7, 25),4	656,(8, 53),8	665,(2, 41),404	1069,(3, 73),192	1261,(7, 9),36	1297,(7, 37),12	1309,(7, 41),32	1345,(6, 25),8	1353,(6, 57),20	1373,(6, 65),8	1381,(6, 69),28	1409,(7, 29),116	1525,(7, 49),12	1537,(8, 9),16	1553,(8, 33),24	1577,(8, 73),20	1597,(8, 77),8	1617,(7, 65),96	1713,(7, 69),24	1737,(32, 81),88	1829,(19, 81),88	1917,(15, 81),88	2073,(6, 73),32	2109,(42, 81),88	2197,(36, 81),88	2285,(20, 81),88	2385,(10, 81),88	2473,(14, 81),88	2561,(30, 81),88	2661,(27, 81),88	2749,(34, 81),88	2837,(78, 81),88	2925,(66, 81),88	3013,(23, 81),88	3101,(74, 81),88	3189,(75, 81),88	3277,(58, 81),88	3365,(11, 81),88	3453,(18, 81),88	3541,(22, 81),88	3629,(51, 81),88	3717,(26, 81),88	3805,(63, 81),88	3893,(71, 81),88	3981,(55, 81),88	4069,(43, 81),88	4157,(31, 81),88	4245,(35, 81),88	4333,(38, 81),88	4421,(47, 81),88	4509,(50, 81),88	4597,(54, 81),88	4685,(59, 81),88	4773,(62, 81),88	4861,(70, 81),88	4949,(39, 81),88	5352,(46, 81),88	5473,(16, 81),88	5561,(72, 81),88	5649,(12, 81),88	5737,(40, 81),88	5825,(48, 81),88	5913,(60, 81),88	6001,(44, 81),88	6089,(68, 81),88	6177,(24, 81),88	6265,(28, 81),88	6353,(56, 81),88	6441,(52, 81),88	6529,(64, 81),88	6617,(76, 81),88	6705,(80, 81),88	6793,(67, 81),88	6881,(79, 81),88	
# Outgoing
437,(4, 10),48	485,(4, 13),40	525,(4, 21),4	529,(4, 45),8	537,(4, 65),4	656,(8, 53),8	665,(4, 15),4	669,(4, 47),20	689,(4, 51),8	697,(4, 55),4	701,(4, 71),60	769,(4, 75),16	785,(8, 15),12	797,(8, 27),4	805,(4, 22),16	821,(8, 66),4	833,(8, 70),8	865,(4, 38),108	997,(8, 34),28	1069,(8, 18),264	1353,(8, 38),28	1537,(8, 9),16	1553,(8, 33),24	1577,(8, 73),20	1597,(8, 77),8	1737,(32, 81),88	1885,(4, 31),112	2073,(8, 55),24	2109,(8, 43),48	2157,(8, 59),24	2197,(36, 81),88	2285,(20, 81),88	2465,(4, 79),1048	3513,(8, 39),1248	4761,(8, 46),584	5345,(8, 67),100	5445,(8, 79),28	5473,(16, 81),88	5561,(72, 81),88	5649,(12, 81),88	5737,(40, 81),88	5825,(48, 81),88	5913,(60, 81),88	6001,(44, 81),88	6089,(68, 81),88	6177,(24, 81),88	6265,(28, 81),88	6353,(56, 81),88	6441,(52, 81),88	6529,(64, 81),88	6617,(76, 81),88	6705,(80, 81),88	
224,(3, 18),4	228,(3, 25),72	300,(3, 26),12	312,(3, 38),12	325,(3, 32),4	329,(3, 45),48	377,(3, 69),8	433,(3, 78),4	477,(3, 20),12	489,(3, 40),4	493,(3, 46),52	545,(3, 66),92	637,(7, 25),4	641,(7, 26),8	649,(3, 52),4	653,(3, 56),8	661,(3, 60),8	669,(7, 20),8	677,(3, 54),124	801,(3, 72),28	829,(7, 30),4	841,(7, 12),12	905,(7, 40),56	973,(7, 22),24	997,(7, 48),52	1049,(7, 50),20	1069,(3, 73),192	1261,(7, 9),36	1297,(7, 37),12	1309,(7, 41),32	1341,(7, 54),12	1353,(7, 56),44	1397,(7, 78),12	1409,(7, 29),116	1525,(7, 49),12	1537,(7, 60),80	1617,(7, 65),96	1713,(7, 69),24	1797,(7, 58),32	1829,(19, 81),88	1917,(15, 81),88	2049,(7, 62),72	2525,(7, 80),136	2661,(27, 81),88	3013,(23, 81),88	3189,(75, 81),88	3365,(11, 81),88	3629,(51, 81),88	3805,(63, 81),88	3893,(71, 81),88	3981,(55, 81),88	4069,(43, 81),88	4157,(31, 81),88	4245,(35, 81),88	4421,(47, 81),88	4685,(59, 81),88	4949,(39, 81),88	6793,(67, 81),88	6881,(79, 81),88	
116,(2, 9),4	120,(2, 21),16	136,(2, 37),4	140,(2, 61),4	217,(2, 11),112	329,(2, 16),108	437,(2, 24),28	465,(2, 40),12	477,(6, 9),4	493,(6, 16),12	505,(6, 80),20	541,(2, 19),16	557,(2, 27),108	665,(2, 41),404	1069,(2, 44),276	1345,(6, 25),8	1353,(6, 57),20	1373,(6, 65),8	1381,(6, 69),28	1433,(2, 51),4	1437,(2, 55),336	1773,(2, 59),4	1777,(6, 23),12	1789,(6, 39),4	1793,(6, 44),120	1913,(6, 68),80	1997,(6, 51),24	2021,(6, 59),32	2053,(6, 63),4	2057,(6, 71),16	2073,(6, 73),32	2105,(6, 79),4	2109,(42, 81),88	2197,(6, 52),96	2293,(6, 56),92	2385,(10, 81),88	2473,(14, 81),88	2561,(30, 81),88	2749,(34, 81),88	2837,(78, 81),88	2925,(66, 81),88	3101,(74, 81),88	3277,(58, 81),88	3453,(18, 81),88	3541,(22, 81),88	3717,(26, 81),88	4333,(38, 81),88	4509,(50, 81),88	4597,(54, 81),88	4773,(62, 81),88	4861,(70, 81),88	5352,(46, 81),88	
1,(0, 2),108	109,(0, 3),108	217,(0, 4),108	325,(0, 6),108	433,(0, 7),108	541,(0, 8),108	649,(1, 10),8	657,(1, 14),20	677,(1, 16),84	761,(1, 19),8	769,(1, 24),32	801,(1, 26),4	805,(1, 27),28	833,(1, 28),8	841,(1, 30),4	845,(1, 39),4	849,(1, 46),16	865,(1, 52),40	905,(1, 59),20	925,(1, 63),508	1433,(1, 64),36	1469,(1, 66),236	1705,(1, 74),92	1797,(1, 75),8	1805,(5, 11),80	1885,(5, 18),112	1997,(5, 22),12	2009,(5, 24),16	2025,(5, 26),24	2049,(5, 28),148	2197,(5, 31),20	2217,(5, 35),148	2365,(5, 38),4	2369,(5, 39),32	2401,(5, 47),44	2445,(5, 50),4	2449,(5, 52),4	2453,(5, 54),8	2461,(5, 59),4	2465,(5, 62),16	2481,(5, 64),4	2485,(5, 70),32	2517,(5, 76),4	2521,(5, 80),4	
