1279
# CPU
0,0,1	1,3,89	90,28,89	179,32,89	268,37,89	357,40,89	446,16,89	618,39,89	783,14,89	951,11,89	1122,8,89	1278,41,1	
7,2,89	96,26,89	185,24,89	274,5,89	363,15,89	452,17,89	541,27,89	630,7,89	
13,1,89	102,19,89	191,25,89	280,30,89	369,35,89	458,23,89	547,12,89	636,20,89	
19,4,89	108,33,89	197,34,89	286,10,89	375,22,89	464,21,89	553,38,89	
93,36,89	182,18,89	271,13,89	360,31,89	449,9,89	538,6,89	627,29,89	
# Incoming
108,(4, 37),78	186,(36, 41),39	225,(26, 41),39	264,(19, 41),39	303,(33, 41),39	342,(18, 41),39	381,(24, 41),39	420,(25, 41),39	459,(34, 41),39	498,(13, 41),39	537,(5, 41),39	576,(30, 41),39	615,(4, 39),3	618,(10, 41),39	657,(31, 41),39	696,(15, 41),39	735,(35, 41),39	774,(2, 14),9	783,(22, 41),39	822,(9, 41),39	861,(17, 41),39	900,(23, 41),39	939,(2, 11),3	942,(1, 11),9	951,(21, 41),39	990,(6, 41),39	1029,(27, 41),39	1068,(12, 41),39	1107,(2, 8),15	1122,(38, 41),39	1161,(29, 41),39	1200,(7, 41),39	1239,(20, 41),39	
1,(0, 2),6	210,(4, 7),24	351,(1, 27),6	459,(1, 7),111	
7,(0, 1),6	
13,(0, 4),6	111,(3, 21),6	117,(3, 38),9	
90,(3, 36),3	93,(3, 18),18	126,(3, 29),51	186,(4, 13),24	264,(2, 6),9	303,(1, 31),9	312,(1, 9),15	327,(1, 6),24	357,(1, 29),21	
# Outgoing
1,(0, 2),6	7,(0, 1),6	13,(0, 4),6	90,(3, 36),3	93,(3, 18),18	111,(3, 21),6	117,(3, 38),9	126,(3, 29),51	
225,(26, 41),39	264,(2, 6),9	381,(24, 41),39	537,(5, 41),39	696,(15, 41),39	774,(2, 14),9	861,(17, 41),39	939,(2, 11),3	1029,(27, 41),39	1107,(2, 8),15	1200,(7, 41),39	
264,(19, 41),39	303,(1, 31),9	312,(1, 9),15	327,(1, 6),24	351,(1, 27),6	357,(1, 29),21	420,(25, 41),39	459,(1, 7),111	576,(30, 41),39	735,(35, 41),39	900,(23, 41),39	942,(1, 11),9	1068,(12, 41),39	1239,(20, 41),39	
108,(4, 37),78	186,(4, 13),24	210,(4, 7),24	303,(33, 41),39	459,(34, 41),39	615,(4, 39),3	618,(10, 41),39	783,(22, 41),39	951,(21, 41),39	1122,(38, 41),39	
186,(36, 41),39	342,(18, 41),39	498,(13, 41),39	657,(31, 41),39	822,(9, 41),39	990,(6, 41),39	1161,(29, 41),39	
