619
# CPU
0,41,1	1,7,4	5,12,4	9,26,4	13,34,4	17,29,4	21,8,4	25,32,4	29,15,4	33,17,4	37,5,4	41,11,4	45,20,4	49,30,4	53,37,4	57,10,4	61,35,4	65,36,4	69,38,4	73,21,4	77,6,4	81,25,4	85,33,4	89,1,4	107,4,4	167,2,4	614,3,4	618,0,1	
19,16,4	25,14,4	85,19,4	
43,22,4	79,9,4	

7,24,4	
13,27,4	49,18,4	55,13,4	61,31,4	
67,23,4	

31,28,4	
37,40,4	73,39,4	
# Incoming
11,(24, 4),6	23,(16, 3),6	29,(14, 3),6	41,(40, 2),12	53,(18, 4),18	71,(13, 4),36	107,(27, 2),6	113,(23, 2),54	167,(28, 3),9	176,(22, 3),15	191,(31, 3),51	242,(39, 3),66	308,(9, 3),111	419,(19, 3),195	
13,(41, 16),6	19,(41, 14),6	79,(41, 19),6	
37,(41, 22),6	73,(41, 9),6	

1,(41, 24),6	
7,(41, 27),6	43,(41, 18),6	49,(41, 13),6	55,(41, 31),6	
61,(41, 23),6	

25,(41, 28),6	
31,(41, 40),6	67,(41, 39),6	
# Outgoing
1,(41, 24),6	7,(41, 27),6	13,(41, 16),6	19,(41, 14),6	25,(41, 28),6	31,(41, 40),6	37,(41, 22),6	43,(41, 18),6	49,(41, 13),6	55,(41, 31),6	61,(41, 23),6	67,(41, 39),6	73,(41, 9),6	79,(41, 19),6	
23,(16, 3),6	29,(14, 3),6	419,(19, 3),195	
176,(22, 3),15	308,(9, 3),111	

11,(24, 4),6	
53,(18, 4),18	71,(13, 4),36	107,(27, 2),6	191,(31, 3),51	
113,(23, 2),54	

167,(28, 3),9	
41,(40, 2),12	242,(39, 3),66	
