10351
# CPU
4,4,14	18,8,14	32,12,14	46,16,14	60,20,14	74,32,14	88,80,14	102,72,14	116,48,14	130,124,14	144,64,14	158,176,14	325,152,14	349,168,14	363,56,14	377,92,14	391,196,14	405,156,14	419,100,14	433,136,14	447,140,14	461,144,14	475,148,14	489,188,14	503,172,14	544,84,14	665,108,14	709,184,14	755,36,14	784,44,14	798,52,14	812,60,14	826,180,14	892,164,14	933,68,14	1092,76,14	1149,40,14	1163,104,14	1177,112,14	1252,116,14	1266,200,14	1280,24,14	1294,28,14	1308,88,14	1322,96,14	1336,120,14	1350,132,14	1505,192,14	1531,128,14	1545,160,14	
3,3,14	17,7,14	31,11,14	45,15,14	59,19,14	73,27,14	87,143,14	101,55,14	115,43,14	129,135,14	143,139,14	157,31,14	171,127,14	185,67,14	199,39,14	213,151,14	227,79,14	444,159,14	458,35,14	472,167,14	486,175,14	500,163,14	514,107,14	528,83,14	542,47,14	556,51,14	570,71,14	584,191,14	707,103,14	804,123,14	881,111,14	895,91,14	909,23,14	931,59,14	1093,87,14	1107,99,14	1129,147,14	1149,171,14	1163,183,14	1336,119,14	1350,95,14	1406,63,14	1444,75,14	1462,131,14	1476,155,14	1490,187,14	1504,195,14	1518,199,14	1590,179,14	1794,115,14	
2,2,14	16,6,14	30,10,14	44,14,14	58,18,14	72,34,14	86,138,14	100,110,14	114,38,14	128,86,14	142,50,14	156,58,14	170,122,14	184,134,14	198,78,14	212,106,14	226,190,14	240,186,14	254,90,14	268,94,14	282,142,14	296,166,14	310,30,14	324,82,14	338,130,14	352,146,14	366,66,14	380,198,14	394,178,14	441,126,14	455,150,14	492,26,14	515,22,14	529,62,14	571,102,14	590,170,14	861,162,14	901,42,14	917,46,14	934,70,14	948,74,14	1130,158,14	1150,174,14	1164,54,14	1178,98,14	1256,118,14	1270,154,14	1284,194,14	1323,114,14	1337,182,14	
0,0,1	1,5,14	15,1,14	29,13,14	43,9,14	57,17,14	71,29,14	85,41,14	99,197,14	113,65,14	127,145,14	141,113,14	155,133,14	169,185,14	183,181,14	197,53,14	211,105,14	225,161,14	239,25,14	253,73,14	267,149,14	281,153,14	295,173,14	309,117,14	323,125,14	344,129,14	370,33,14	384,77,14	398,89,14	412,193,14	426,37,14	444,57,14	463,85,14	477,137,14	491,177,14	506,93,14	559,157,14	573,69,14	587,141,14	604,189,14	780,101,14	794,61,14	808,97,14	822,109,14	836,121,14	850,21,14	875,49,14	889,165,14	903,45,14	917,169,14	932,81,14	10350,201,1	
# Incoming
3,(0, 4),1	6,(0, 8),1	9,(0, 12),1	12,(0, 16),1	15,(0, 20),1	16,(2, 44),4	20,(2, 52),4	38,(2, 132),5	43,(3, 32),3	46,(3, 72),6	52,(3, 76),1	53,(3, 180),1	54,(3, 188),1	55,(7, 44),4	59,(7, 68),1	69,(2, 176),4	73,(7, 148),1	74,(7, 200),1	75,(2, 184),1	81,(2, 196),1	82,(5, 40),15	97,(6, 60),2	99,(6, 176),8	107,(10, 28),1	108,(10, 68),4	112,(10, 108),2	114,(14, 40),1	115,(14, 88),1	116,(5, 116),5	121,(2, 88),137	258,(3, 152),13	271,(6, 104),30	301,(7, 92),3	304,(7, 140),4	308,(7, 152),17	325,(14, 128),8	333,(14, 164),14	347,(14, 168),2	349,(14, 192),5	354,(18, 56),4	358,(18, 92),1	359,(18, 196),2	380,(15, 140),9	389,(15, 156),1	390,(19, 100),1	392,(5, 132),2	394,(5, 136),6	400,(5, 140),1	401,(5, 144),39	440,(5, 148),1	441,(11, 188),44	485,(15, 172),5	516,(1, 84),28	544,(6, 108),121	665,(15, 184),44	709,(19, 36),46	755,(19, 44),29	784,(19, 52),7	791,(19, 60),3	794,(19, 180),6	861,(1, 164),31	931,(13, 68),2	940,(13, 76),152	1092,(18, 40),57	1161,(9, 104),1	1162,(9, 112),8	1170,(9, 116),82	1261,(9, 200),1	1262,(17, 24),6	1268,(17, 28),10	1278,(17, 88),2	1280,(17, 96),42	1323,(17, 120),1	1324,(17, 132),7	1336,(10, 192),169	1505,(17, 128),26	1531,(17, 160),9	
2,(0, 3),1	5,(0, 7),1	8,(0, 11),1	11,(0, 15),1	14,(0, 19),1	24,(2, 55),8	43,(2, 139),8	51,(4, 31),8	59,(4, 151),1	60,(2, 147),9	69,(4, 47),5	74,(8, 39),1	75,(12, 75),1	76,(2, 191),1	77,(2, 195),4	81,(5, 39),1	82,(2, 199),1	83,(6, 67),2	85,(6, 75),4	89,(6, 83),1	90,(6, 123),1	91,(8, 63),5	96,(10, 75),1	97,(12, 111),1	98,(12, 147),1	99,(12, 151),3	102,(12, 183),3	105,(16, 39),2	107,(16, 95),1	108,(16, 99),2	110,(16, 151),2	112,(20, 79),1	113,(20, 159),1	114,(5, 79),2	116,(10, 187),1	117,(14, 47),3	120,(14, 71),1	121,(5, 131),271	392,(2, 159),52	444,(20, 35),4	449,(5, 155),2	451,(5, 167),4	455,(5, 171),4	459,(5, 175),1	460,(5, 191),7	467,(6, 163),17	484,(14, 99),1	485,(14, 107),3	488,(18, 83),1	489,(18, 119),1	492,(1, 47),8	500,(1, 51),16	516,(10, 63),9	525,(12, 71),22	547,(20, 191),6	571,(1, 147),21	592,(16, 187),27	619,(20, 23),55	674,(20, 103),33	780,(10, 123),24	847,(14, 111),34	882,(18, 91),4	892,(1, 187),2	894,(1, 199),4	898,(13, 23),1	899,(14, 183),14	917,(13, 59),14	935,(13, 75),5	940,(18, 95),13	953,(18, 195),31	1092,(13, 87),1	1093,(13, 99),2	1095,(13, 119),11	1106,(13, 131),8	1114,(13, 147),15	1130,(13, 171),19	1150,(13, 183),4	1154,(13, 199),5	1159,(10, 119),177	1336,(9, 95),6	1342,(17, 63),64	1406,(17, 75),38	1444,(17, 131),18	1462,(17, 155),1	1463,(17, 187),4	1467,(17, 195),13	1480,(17, 199),6	1540,(17, 179),50	1590,(20, 115),204	
1,(0, 2),1	4,(0, 6),1	7,(0, 10),1	10,(0, 14),1	13,(0, 18),1	16,(5, 38),65	81,(4, 86),1	82,(4, 110),2	84,(4, 166),1	85,(8, 38),2	87,(8, 50),4	93,(3, 86),1	96,(12, 98),1	97,(5, 50),1	98,(5, 58),1	99,(5, 66),15	114,(8, 62),4	118,(8, 122),2	120,(3, 134),5	125,(3, 194),1	126,(7, 78),14	140,(7, 82),2	142,(7, 106),1	143,(7, 114),9	152,(7, 162),3	155,(7, 190),1	156,(11, 94),3	159,(11, 186),1	160,(15, 90),1	161,(15, 94),3	166,(4, 142),51	217,(11, 166),19	236,(15, 30),8	246,(8, 82),5	251,(8, 130),11	262,(12, 114),4	266,(12, 146),1	271,(15, 66),12	283,(15, 198),10	300,(12, 162),5	305,(16, 42),2	307,(20, 126),2	325,(7, 178),55	380,(12, 54),15	427,(12, 126),14	441,(5, 150),8	449,(16, 46),7	456,(16, 62),6	467,(1, 26),25	492,(16, 22),23	515,(16, 74),4	519,(20, 62),6	544,(1, 102),27	571,(16, 54),11	582,(16, 170),8	592,(1, 162),269	899,(13, 42),2	901,(13, 46),16	933,(13, 70),1	934,(13, 74),1	1129,(13, 158),1	1149,(13, 174),1	1159,(9, 54),1	1160,(9, 98),1	1252,(9, 118),4	1256,(9, 154),4	1260,(9, 194),1	1322,(17, 114),1	1331,(17, 182),5	
32,(2, 109),6	38,(3, 29),2	40,(3, 41),1	41,(3, 161),1	42,(4, 25),3	45,(4, 109),5	50,(12, 181),1	51,(2, 145),9	60,(3, 49),11	71,(11, 61),1	72,(11, 185),1	73,(2, 181),2	75,(3, 53),18	93,(6, 169),1	94,(3, 105),21	115,(3, 117),5	120,(4, 137),46	166,(7, 37),11	177,(7, 61),9	186,(7, 109),5	191,(11, 125),5	196,(11, 153),2	198,(11, 161),4	202,(15, 25),7	209,(15, 33),1	210,(15, 85),5	215,(19, 73),1	216,(19, 93),1	217,(4, 149),4	221,(4, 153),15	236,(4, 165),4	240,(8, 57),2	242,(8, 77),4	246,(15, 49),9	258,(6, 61),3	261,(6, 93),2	263,(6, 173),4	267,(8, 117),30	297,(12, 97),3	301,(6, 125),9	310,(8, 129),34	344,(8, 137),19	363,(8, 157),5	368,(10, 33),2	370,(10, 77),5	375,(10, 89),1	376,(14, 49),3	379,(14, 85),1	380,(14, 193),4	384,(18, 37),8	395,(12, 121),32	441,(16, 57),3	444,(10, 85),19	463,(12, 137),10	473,(12, 177),17	490,(15, 93),16	506,(15, 157),53	559,(16, 69),2	561,(19, 141),25	586,(19, 189),18	665,(10, 101),115	780,(20, 61),5	785,(20, 97),1	786,(20, 109),12	798,(20, 121),1	804,(14, 21),43	847,(20, 49),28	875,(20, 165),6	881,(18, 45),1	886,(18, 169),2	913,(18, 81),19	984,(34, 201),69	1053,(27, 201),69	1122,(32, 201),69	1191,(143, 201),69	1260,(80, 201),69	1329,(55, 201),69	1398,(72, 201),69	1505,(138, 201),69	1574,(110, 201),69	1643,(38, 201),69	1712,(43, 201),69	1794,(48, 201),69	1863,(86, 201),69	1932,(135, 201),69	2001,(124, 201),69	2070,(50, 201),69	2139,(139, 201),69	2208,(64, 201),69	2277,(58, 201),69	2346,(31, 201),69	2415,(176, 201),69	2484,(122, 201),69	2553,(127, 201),69	2622,(134, 201),69	2691,(67, 201),69	2760,(78, 201),69	2829,(39, 201),69	2898,(106, 201),69	2967,(151, 201),69	3036,(190, 201),69	3105,(79, 201),69	3174,(186, 201),69	3243,(90, 201),69	3312,(94, 201),69	3381,(142, 201),69	3450,(166, 201),69	3519,(30, 201),69	3588,(82, 201),69	3657,(152, 201),69	3726,(130, 201),69	3795,(168, 201),69	3864,(146, 201),69	3933,(56, 201),69	4002,(66, 201),69	4071,(92, 201),69	4140,(198, 201),69	4209,(196, 201),69	4278,(178, 201),69	4347,(156, 201),69	4416,(100, 201),69	4485,(136, 201),69	4554,(126, 201),69	4623,(159, 201),69	4692,(140, 201),69	4761,(150, 201),69	4830,(35, 201),69	4899,(144, 201),69	4968,(167, 201),69	5037,(148, 201),69	5106,(175, 201),69	5175,(188, 201),69	5244,(26, 201),69	5313,(163, 201),69	5382,(172, 201),69	5451,(107, 201),69	5520,(22, 201),69	5589,(83, 201),69	5658,(62, 201),69	5727,(47, 201),69	5796,(84, 201),69	5865,(51, 201),69	5934,(71, 201),69	6003,(102, 201),69	6072,(191, 201),69	6141,(170, 201),69	6210,(108, 201),69	6279,(103, 201),69	6348,(184, 201),69	6417,(36, 201),69	6486,(44, 201),69	6555,(52, 201),69	6624,(123, 201),69	6693,(60, 201),69	6762,(180, 201),69	6831,(162, 201),69	6900,(111, 201),69	6969,(164, 201),69	7038,(91, 201),69	7107,(42, 201),69	7176,(23, 201),69	7245,(46, 201),69	7314,(59, 201),69	7383,(68, 201),69	7452,(70, 201),69	7521,(74, 201),69	7590,(76, 201),69	7659,(87, 201),69	7728,(99, 201),69	7797,(147, 201),69	7866,(158, 201),69	7935,(40, 201),69	8004,(171, 201),69	8073,(174, 201),69	8142,(104, 201),69	8211,(183, 201),69	8280,(54, 201),69	8349,(112, 201),69	8418,(98, 201),69	8487,(116, 201),69	8556,(118, 201),69	8625,(200, 201),69	8694,(154, 201),69	8763,(24, 201),69	8832,(194, 201),69	8901,(28, 201),69	8970,(88, 201),69	9039,(96, 201),69	9108,(114, 201),69	9177,(119, 201),69	9246,(120, 201),69	9315,(182, 201),69	9384,(95, 201),69	9453,(132, 201),69	9522,(63, 201),69	9591,(75, 201),69	9660,(131, 201),69	9729,(155, 201),69	9798,(187, 201),69	9867,(195, 201),69	9936,(192, 201),69	10005,(199, 201),69	10074,(128, 201),69	10143,(160, 201),69	10212,(179, 201),69	10281,(115, 201),69	
# Outgoing
42,(4, 25),3	45,(4, 109),5	50,(12, 181),1	51,(4, 31),8	59,(4, 151),1	69,(4, 47),5	74,(8, 39),1	75,(12, 75),1	81,(4, 86),1	82,(4, 110),2	84,(4, 166),1	85,(8, 38),2	87,(8, 50),4	91,(8, 63),5	96,(12, 98),1	97,(12, 111),1	98,(12, 147),1	99,(12, 151),3	102,(12, 183),3	105,(16, 39),2	107,(16, 95),1	108,(16, 99),2	110,(16, 151),2	112,(20, 79),1	113,(20, 159),1	114,(8, 62),4	118,(8, 122),2	120,(4, 137),46	166,(4, 142),51	217,(4, 149),4	221,(4, 153),15	236,(4, 165),4	240,(8, 57),2	242,(8, 77),4	246,(8, 82),5	251,(8, 130),11	262,(12, 114),4	266,(12, 146),1	267,(8, 117),30	297,(12, 97),3	300,(12, 162),5	305,(16, 42),2	307,(20, 126),2	310,(8, 129),34	344,(8, 137),19	363,(8, 157),5	380,(12, 54),15	395,(12, 121),32	427,(12, 126),14	441,(16, 57),3	444,(20, 35),4	449,(16, 46),7	456,(16, 62),6	463,(12, 137),10	473,(12, 177),17	492,(16, 22),23	515,(16, 74),4	519,(20, 62),6	525,(12, 71),22	547,(20, 191),6	559,(16, 69),2	571,(16, 54),11	582,(16, 170),8	592,(16, 187),27	619,(20, 23),55	674,(20, 103),33	780,(20, 61),5	785,(20, 97),1	786,(20, 109),12	798,(20, 121),1	847,(20, 49),28	875,(20, 165),6	1122,(32, 201),69	1260,(80, 201),69	1398,(72, 201),69	1590,(20, 115),204	1794,(48, 201),69	2001,(124, 201),69	2208,(64, 201),69	2415,(176, 201),69	3657,(152, 201),69	3795,(168, 201),69	3933,(56, 201),69	4071,(92, 201),69	4209,(196, 201),69	4347,(156, 201),69	4416,(100, 201),69	4485,(136, 201),69	4692,(140, 201),69	4899,(144, 201),69	5037,(148, 201),69	5175,(188, 201),69	5382,(172, 201),69	5796,(84, 201),69	6210,(108, 201),69	6348,(184, 201),69	6417,(36, 201),69	6486,(44, 201),69	6555,(52, 201),69	6693,(60, 201),69	6762,(180, 201),69	6969,(164, 201),69	7383,(68, 201),69	7590,(76, 201),69	7935,(40, 201),69	8142,(104, 201),69	8349,(112, 201),69	8487,(116, 201),69	8625,(200, 201),69	8763,(24, 201),69	8901,(28, 201),69	8970,(88, 201),69	9039,(96, 201),69	9246,(120, 201),69	9453,(132, 201),69	9936,(192, 201),69	10074,(128, 201),69	10143,(160, 201),69	
38,(3, 29),2	40,(3, 41),1	41,(3, 161),1	43,(3, 32),3	46,(3, 72),6	52,(3, 76),1	53,(3, 180),1	54,(3, 188),1	55,(7, 44),4	59,(7, 68),1	60,(3, 49),11	71,(11, 61),1	72,(11, 185),1	73,(7, 148),1	74,(7, 200),1	75,(3, 53),18	93,(3, 86),1	94,(3, 105),21	115,(3, 117),5	120,(3, 134),5	125,(3, 194),1	126,(7, 78),14	140,(7, 82),2	142,(7, 106),1	143,(7, 114),9	152,(7, 162),3	155,(7, 190),1	156,(11, 94),3	159,(11, 186),1	160,(15, 90),1	161,(15, 94),3	166,(7, 37),11	177,(7, 61),9	186,(7, 109),5	191,(11, 125),5	196,(11, 153),2	198,(11, 161),4	202,(15, 25),7	209,(15, 33),1	210,(15, 85),5	215,(19, 73),1	216,(19, 93),1	217,(11, 166),19	236,(15, 30),8	246,(15, 49),9	258,(3, 152),13	271,(15, 66),12	283,(15, 198),10	301,(7, 92),3	304,(7, 140),4	308,(7, 152),17	325,(7, 178),55	380,(15, 140),9	389,(15, 156),1	390,(19, 100),1	441,(11, 188),44	485,(15, 172),5	490,(15, 93),16	506,(15, 157),53	561,(19, 141),25	586,(19, 189),18	665,(15, 184),44	709,(19, 36),46	755,(19, 44),29	784,(19, 52),7	791,(19, 60),3	794,(19, 180),6	1053,(27, 201),69	1191,(143, 201),69	1329,(55, 201),69	1712,(43, 201),69	1932,(135, 201),69	2139,(139, 201),69	2346,(31, 201),69	2553,(127, 201),69	2691,(67, 201),69	2829,(39, 201),69	2967,(151, 201),69	3105,(79, 201),69	4623,(159, 201),69	4830,(35, 201),69	4968,(167, 201),69	5106,(175, 201),69	5313,(163, 201),69	5451,(107, 201),69	5589,(83, 201),69	5727,(47, 201),69	5865,(51, 201),69	5934,(71, 201),69	6072,(191, 201),69	6279,(103, 201),69	6624,(123, 201),69	6900,(111, 201),69	7038,(91, 201),69	7176,(23, 201),69	7314,(59, 201),69	7659,(87, 201),69	7728,(99, 201),69	7797,(147, 201),69	8004,(171, 201),69	8211,(183, 201),69	9177,(119, 201),69	9384,(95, 201),69	9522,(63, 201),69	9591,(75, 201),69	9660,(131, 201),69	9729,(155, 201),69	9798,(187, 201),69	9867,(195, 201),69	10005,(199, 201),69	10212,(179, 201),69	10281,(115, 201),69	
16,(2, 44),4	20,(2, 52),4	24,(2, 55),8	32,(2, 109),6	38,(2, 132),5	43,(2, 139),8	51,(2, 145),9	60,(2, 147),9	69,(2, 176),4	73,(2, 181),2	75,(2, 184),1	76,(2, 191),1	77,(2, 195),4	81,(2, 196),1	82,(2, 199),1	83,(6, 67),2	85,(6, 75),4	89,(6, 83),1	90,(6, 123),1	93,(6, 169),1	96,(10, 75),1	97,(6, 60),2	99,(6, 176),8	107,(10, 28),1	108,(10, 68),4	112,(10, 108),2	114,(14, 40),1	115,(14, 88),1	116,(10, 187),1	117,(14, 47),3	120,(14, 71),1	121,(2, 88),137	258,(6, 61),3	261,(6, 93),2	263,(6, 173),4	271,(6, 104),30	301,(6, 125),9	325,(14, 128),8	333,(14, 164),14	347,(14, 168),2	349,(14, 192),5	354,(18, 56),4	358,(18, 92),1	359,(18, 196),2	368,(10, 33),2	370,(10, 77),5	375,(10, 89),1	376,(14, 49),3	379,(14, 85),1	380,(14, 193),4	384,(18, 37),8	392,(2, 159),52	444,(10, 85),19	467,(6, 163),17	484,(14, 99),1	485,(14, 107),3	488,(18, 83),1	489,(18, 119),1	516,(10, 63),9	544,(6, 108),121	665,(10, 101),115	780,(10, 123),24	804,(14, 21),43	847,(14, 111),34	881,(18, 45),1	882,(18, 91),4	886,(18, 169),2	899,(14, 183),14	913,(18, 81),19	940,(18, 95),13	953,(18, 195),31	984,(34, 201),69	1092,(18, 40),57	1159,(10, 119),177	1336,(10, 192),169	1505,(138, 201),69	1574,(110, 201),69	1643,(38, 201),69	1863,(86, 201),69	2070,(50, 201),69	2277,(58, 201),69	2484,(122, 201),69	2622,(134, 201),69	2760,(78, 201),69	2898,(106, 201),69	3036,(190, 201),69	3174,(186, 201),69	3243,(90, 201),69	3312,(94, 201),69	3381,(142, 201),69	3450,(166, 201),69	3519,(30, 201),69	3588,(82, 201),69	3726,(130, 201),69	3864,(146, 201),69	4002,(66, 201),69	4140,(198, 201),69	4278,(178, 201),69	4554,(126, 201),69	4761,(150, 201),69	5244,(26, 201),69	5520,(22, 201),69	5658,(62, 201),69	6003,(102, 201),69	6141,(170, 201),69	6831,(162, 201),69	7107,(42, 201),69	7245,(46, 201),69	7452,(70, 201),69	7521,(74, 201),69	7866,(158, 201),69	8073,(174, 201),69	8280,(54, 201),69	8418,(98, 201),69	8556,(118, 201),69	8694,(154, 201),69	8832,(194, 201),69	9108,(114, 201),69	9315,(182, 201),69	
1,(0, 2),1	2,(0, 3),1	3,(0, 4),1	4,(0, 6),1	5,(0, 7),1	6,(0, 8),1	7,(0, 10),1	8,(0, 11),1	9,(0, 12),1	10,(0, 14),1	11,(0, 15),1	12,(0, 16),1	13,(0, 18),1	14,(0, 19),1	15,(0, 20),1	16,(5, 38),65	81,(5, 39),1	82,(5, 40),15	97,(5, 50),1	98,(5, 58),1	99,(5, 66),15	114,(5, 79),2	116,(5, 116),5	121,(5, 131),271	392,(5, 132),2	394,(5, 136),6	400,(5, 140),1	401,(5, 144),39	440,(5, 148),1	441,(5, 150),8	449,(5, 155),2	451,(5, 167),4	455,(5, 171),4	459,(5, 175),1	460,(5, 191),7	467,(1, 26),25	492,(1, 47),8	500,(1, 51),16	516,(1, 84),28	544,(1, 102),27	571,(1, 147),21	592,(1, 162),269	861,(1, 164),31	892,(1, 187),2	894,(1, 199),4	898,(13, 23),1	899,(13, 42),2	901,(13, 46),16	917,(13, 59),14	931,(13, 68),2	933,(13, 70),1	934,(13, 74),1	935,(13, 75),5	940,(13, 76),152	1092,(13, 87),1	1093,(13, 99),2	1095,(13, 119),11	1106,(13, 131),8	1114,(13, 147),15	1129,(13, 158),1	1130,(13, 171),19	1149,(13, 174),1	1150,(13, 183),4	1154,(13, 199),5	1159,(9, 54),1	1160,(9, 98),1	1161,(9, 104),1	1162,(9, 112),8	1170,(9, 116),82	1252,(9, 118),4	1256,(9, 154),4	1260,(9, 194),1	1261,(9, 200),1	1262,(17, 24),6	1268,(17, 28),10	1278,(17, 88),2	1280,(17, 96),42	1322,(17, 114),1	1323,(17, 120),1	1324,(17, 132),7	1331,(17, 182),5	1336,(9, 95),6	1342,(17, 63),64	1406,(17, 75),38	1444,(17, 131),18	1462,(17, 155),1	1463,(17, 187),4	1467,(17, 195),13	1480,(17, 199),6	1505,(17, 128),26	1531,(17, 160),9	1540,(17, 179),50	
