9589
# CPU
0,0,1	1,7,1	2,144,1	3,5,1	4,10,1	5,2,1	6,15,1	7,8,1	8,4,1	9,156,1	10,66,1	11,14,1	12,95,1	13,16,1	14,147,1	15,111,1	16,18,1	17,59,1	18,43,1	19,41,1	20,128,1	21,12,1	22,94,1	23,84,1	24,17,1	25,1,1	26,99,1	27,79,1	28,145,1	29,184,1	30,104,1	31,13,1	32,61,1	33,31,1	34,120,1	35,74,1	36,87,1	37,143,1	38,93,1	39,20,1	40,161,1	41,119,1	42,46,1	43,140,1	44,76,1	45,96,1	46,112,1	47,106,1	48,186,1	49,19,1	50,54,1	51,177,1	52,24,1	53,167,1	54,45,1	55,190,1	56,150,1	57,125,1	58,70,1	59,38,1	60,200,1	61,160,1	62,25,1	63,22,1	64,117,1	65,9,1	66,196,1	67,192,1	68,109,1	69,171,1	70,152,1	71,138,1	72,173,1	73,134,1	74,77,1	75,172,1	76,21,1	77,185,1	78,63,1	79,135,1	80,163,1	81,37,1	82,62,1	83,176,1	84,199,1	85,165,1	86,178,1	87,58,1	88,154,1	89,158,1	90,110,1	91,121,1	92,82,1	93,86,1	94,50,1	95,168,1	96,114,1	97,127,1	98,64,1	99,42,1	100,153,1	101,101,1	104,72,1	110,187,1	116,194,1	122,151,1	128,30,1	134,98,1	140,131,1	146,148,1	152,122,1	158,56,1	164,130,1	170,23,1	179,89,1	188,182,1	197,113,1	206,164,1	215,193,1	224,73,1	233,26,1	242,123,1	251,53,1	260,68,1	269,124,1	281,108,1	293,166,1	305,80,1	317,35,1	332,103,1	347,179,1	362,90,1	377,169,1	392,97,1	407,115,1	422,78,1	437,139,1	452,67,1	467,116,1	485,126,1	503,65,1	521,55,1	539,142,1	557,195,1	578,92,1	599,170,1	620,188,1	644,29,1	668,198,1	692,60,1	719,197,1	746,83,1	773,33,1	800,162,1	830,85,1	860,102,1	890,149,1	920,136,1	953,34,1	989,40,1	1028,174,1	1067,48,1	1109,180,1	1154,132,1	1199,81,1	1247,175,1	1298,159,1	1352,39,1	1412,105,1	1478,27,1	1547,191,1	1616,88,1	1691,36,1	1769,141,1	1847,69,1	1928,118,1	2012,155,1	2096,157,1	2183,146,1	2273,107,1	2390,91,1	2507,49,1	2630,47,1	2780,44,1	2936,183,1	3110,129,1	3287,133,1	3494,137,1	3743,32,1	4046,71,1	4472,189,1	5033,57,1	5684,52,1	7007,75,1	9587,51,1	9588,201,1	
16,3,1	31,11,1	43,100,1	58,6,1	73,181,1	94,28,1	

# Incoming
44,(100, 201),3	47,(11, 58),3	50,(3, 154),3	53,(11, 158),3	56,(11, 82),3	59,(6, 178),3	62,(6, 110),3	65,(6, 121),3	68,(3, 86),3	71,(3, 50),3	74,(181, 201),3	77,(3, 168),3	80,(3, 114),3	83,(6, 127),3	86,(11, 64),3	89,(6, 42),3	92,(6, 153),3	95,(28, 201),3	98,(11, 101),3	101,(11, 72),3	104,(3, 187),6	110,(3, 194),3	113,(11, 194),3	116,(6, 151),6	122,(11, 30),6	128,(11, 98),6	134,(3, 131),6	140,(3, 148),6	146,(3, 122),3	149,(6, 122),3	152,(3, 56),6	158,(11, 130),6	164,(11, 23),3	167,(6, 23),3	170,(3, 89),9	179,(6, 182),9	188,(3, 113),9	197,(11, 164),9	206,(11, 193),9	215,(11, 73),9	224,(3, 26),9	233,(11, 123),3	236,(6, 123),6	242,(11, 53),9	251,(3, 68),3	254,(6, 68),6	260,(3, 124),3	263,(6, 124),6	269,(3, 108),12	281,(11, 166),3	284,(6, 166),9	293,(11, 80),12	305,(11, 35),12	317,(6, 103),15	332,(11, 179),15	347,(11, 90),15	362,(3, 169),12	374,(6, 169),3	377,(6, 97),15	392,(3, 115),12	404,(11, 115),3	407,(3, 78),15	422,(11, 139),3	425,(6, 139),12	437,(3, 67),15	452,(6, 116),15	467,(6, 126),18	485,(3, 65),18	503,(6, 55),18	521,(6, 142),18	539,(3, 195),18	557,(3, 92),21	578,(3, 170),21	599,(3, 188),18	617,(11, 188),3	620,(6, 29),24	644,(6, 198),24	668,(11, 60),24	692,(11, 197),27	719,(6, 83),27	746,(11, 33),27	773,(3, 162),27	800,(3, 85),30	830,(3, 102),30	860,(3, 149),24	884,(6, 149),6	890,(6, 136),30	920,(3, 34),18	938,(6, 34),15	953,(3, 40),3	956,(6, 40),33	989,(6, 174),39	1028,(3, 48),36	1064,(11, 48),3	1067,(6, 180),42	1109,(11, 132),42	1151,(6, 132),3	1154,(3, 81),42	1196,(11, 81),3	1199,(11, 175),12	1211,(6, 175),36	1247,(11, 159),3	1250,(6, 159),48	1298,(3, 39),54	1352,(3, 105),60	1412,(3, 27),66	1478,(11, 191),45	1523,(6, 191),24	1547,(3, 88),69	1616,(3, 36),63	1679,(11, 36),12	1691,(11, 141),78	1769,(6, 69),78	1847,(11, 118),72	1919,(6, 118),9	1928,(6, 155),84	2012,(3, 157),84	2096,(3, 146),87	2183,(3, 107),60	2243,(11, 107),6	2249,(6, 107),24	2273,(3, 91),117	2390,(11, 49),117	2507,(6, 47),123	2630,(11, 44),150	2780,(3, 183),132	2912,(11, 183),15	2927,(6, 183),9	2936,(3, 129),174	3110,(11, 133),114	3224,(6, 133),63	3287,(3, 137),9	3296,(6, 137),198	3494,(6, 32),249	3743,(6, 71),303	4046,(6, 189),426	4472,(3, 57),558	5030,(11, 57),3	5033,(3, 52),588	5621,(11, 52),60	5681,(6, 52),3	5684,(3, 75),36	5720,(11, 75),1266	6986,(6, 75),21	7007,(6, 51),2580	
1,(0, 3),15	16,(0, 11),15	31,(16, 100),3	34,(13, 100),9	43,(0, 6),15	58,(16, 181),12	70,(18, 181),3	73,(18, 28),12	85,(1, 28),9	

# Outgoing
1,(0, 3),15	16,(0, 11),15	31,(16, 100),3	34,(13, 100),9	43,(0, 6),15	58,(16, 181),12	70,(18, 181),3	73,(18, 28),12	85,(1, 28),9	
44,(100, 201),3	47,(11, 58),3	50,(3, 154),3	53,(11, 158),3	56,(11, 82),3	59,(6, 178),3	62,(6, 110),3	65,(6, 121),3	68,(3, 86),3	71,(3, 50),3	74,(181, 201),3	77,(3, 168),3	80,(3, 114),3	83,(6, 127),3	86,(11, 64),3	89,(6, 42),3	92,(6, 153),3	95,(28, 201),3	98,(11, 101),3	101,(11, 72),3	104,(3, 187),6	110,(3, 194),3	113,(11, 194),3	116,(6, 151),6	122,(11, 30),6	128,(11, 98),6	134,(3, 131),6	140,(3, 148),6	146,(3, 122),3	149,(6, 122),3	152,(3, 56),6	158,(11, 130),6	164,(11, 23),3	167,(6, 23),3	170,(3, 89),9	179,(6, 182),9	188,(3, 113),9	197,(11, 164),9	206,(11, 193),9	215,(11, 73),9	224,(3, 26),9	233,(11, 123),3	236,(6, 123),6	242,(11, 53),9	251,(3, 68),3	254,(6, 68),6	260,(3, 124),3	263,(6, 124),6	269,(3, 108),12	281,(11, 166),3	284,(6, 166),9	293,(11, 80),12	305,(11, 35),12	317,(6, 103),15	332,(11, 179),15	347,(11, 90),15	362,(3, 169),12	374,(6, 169),3	377,(6, 97),15	392,(3, 115),12	404,(11, 115),3	407,(3, 78),15	422,(11, 139),3	425,(6, 139),12	437,(3, 67),15	452,(6, 116),15	467,(6, 126),18	485,(3, 65),18	503,(6, 55),18	521,(6, 142),18	539,(3, 195),18	557,(3, 92),21	578,(3, 170),21	599,(3, 188),18	617,(11, 188),3	620,(6, 29),24	644,(6, 198),24	668,(11, 60),24	692,(11, 197),27	719,(6, 83),27	746,(11, 33),27	773,(3, 162),27	800,(3, 85),30	830,(3, 102),30	860,(3, 149),24	884,(6, 149),6	890,(6, 136),30	920,(3, 34),18	938,(6, 34),15	953,(3, 40),3	956,(6, 40),33	989,(6, 174),39	1028,(3, 48),36	1064,(11, 48),3	1067,(6, 180),42	1109,(11, 132),42	1151,(6, 132),3	1154,(3, 81),42	1196,(11, 81),3	1199,(11, 175),12	1211,(6, 175),36	1247,(11, 159),3	1250,(6, 159),48	1298,(3, 39),54	1352,(3, 105),60	1412,(3, 27),66	1478,(11, 191),45	1523,(6, 191),24	1547,(3, 88),69	1616,(3, 36),63	1679,(11, 36),12	1691,(11, 141),78	1769,(6, 69),78	1847,(11, 118),72	1919,(6, 118),9	1928,(6, 155),84	2012,(3, 157),84	2096,(3, 146),87	2183,(3, 107),60	2243,(11, 107),6	2249,(6, 107),24	2273,(3, 91),117	2390,(11, 49),117	2507,(6, 47),123	2630,(11, 44),150	2780,(3, 183),132	2912,(11, 183),15	2927,(6, 183),9	2936,(3, 129),174	3110,(11, 133),114	3224,(6, 133),63	3287,(3, 137),9	3296,(6, 137),198	3494,(6, 32),249	3743,(6, 71),303	4046,(6, 189),426	4472,(3, 57),558	5030,(11, 57),3	5033,(3, 52),588	5621,(11, 52),60	5681,(6, 52),3	5684,(3, 75),36	5720,(11, 75),1266	6986,(6, 75),21	7007,(6, 51),2580	

