2987
# CPU
21,3,1	22,30,1	23,69,1	41,6,1	111,36,1	135,57,1	141,18,1	143,21,1	153,12,1	165,15,1	323,75,1	395,27,1	427,54,1	447,60,1	1571,39,1	1707,66,1	1735,9,1	1845,24,1	1867,33,1	2483,45,1	2497,48,1	2559,63,1	2569,78,1	2879,42,1	2903,51,1	2981,72,1	
11,2,1	12,14,1	13,80,1	31,5,1	32,17,1	33,65,1	51,8,1	52,29,1	161,11,1	1549,38,1	1575,47,1	1611,59,1	1665,41,1	1669,62,1	1709,68,1	1731,50,1	1827,23,1	2339,44,1	2465,35,1	2501,53,1	2549,56,1	2561,77,1	2587,20,1	2595,26,1	2597,32,1	2977,71,1	2983,74,1	
0,0,1	1,1,1	2,4,1	3,7,1	4,31,1	5,40,1	6,79,1	7,37,1	8,55,1	9,22,1	38,76,1	125,34,1	131,52,1	135,73,1	151,43,1	163,10,1	165,16,1	201,67,1	233,19,1	313,49,1	329,13,1	347,25,1	397,28,1	403,46,1	445,58,1	555,61,1	577,64,1	589,70,1	2986,81,1	
# Incoming
11,(0, 3),10	31,(0, 6),10	41,(2, 18),6	81,(2, 21),2	83,(2, 33),22	105,(2, 36),6	111,(2, 57),24	137,(5, 12),2	139,(5, 18),2	141,(5, 21),2	143,(5, 27),6	151,(1, 12),2	153,(1, 15),12	165,(2, 45),110	275,(5, 42),8	313,(5, 75),10	347,(8, 27),48	403,(8, 54),24	445,(8, 60),2	1549,(1, 39),22	1611,(1, 66),96	1709,(4, 9),26	1827,(4, 24),18	1855,(4, 33),12	2339,(4, 45),144	2483,(4, 48),14	2501,(4, 63),58	2561,(4, 78),8	2597,(7, 42),282	2879,(7, 51),24	2977,(7, 72),4	
1,(0, 2),10	21,(0, 5),10	41,(0, 8),10	51,(1, 11),100	151,(3, 11),10	161,(3, 26),2	163,(3, 35),2	165,(1, 23),10	175,(1, 32),1372	1547,(1, 38),2	1549,(3, 53),14	1563,(3, 59),8	1571,(1, 44),2	1573,(1, 47),2	1575,(1, 50),34	1609,(1, 59),2	1611,(3, 41),54	1665,(3, 62),4	1669,(3, 74),22	1691,(6, 23),2	1693,(6, 53),2	1707,(1, 68),2	1709,(6, 50),22	1735,(4, 23),92	1845,(4, 26),10	1867,(4, 44),472	2339,(6, 35),126	2497,(4, 53),4	2501,(6, 56),48	2559,(4, 77),2	2569,(7, 20),18	2587,(7, 26),8	2595,(7, 32),2	2903,(7, 71),74	2981,(7, 74),2	
12,(2, 13),20	32,(2, 28),2	34,(2, 67),2	36,(2, 76),2	38,(14, 81),2	40,(3, 10),2	42,(3, 16),2	44,(3, 64),2	47,(2, 19),34	81,(3, 58),22	103,(3, 61),8	111,(30, 81),2	113,(69, 81),2	115,(6, 13),2	117,(6, 34),8	125,(6, 52),6	131,(6, 73),4	135,(80, 81),2	137,(36, 81),2	139,(57, 81),2	142,(18, 81),2	144,(21, 81),2	149,(5, 43),2	151,(5, 61),6	157,(17, 81),2	159,(65, 81),2	161,(8, 10),2	163,(8, 16),2	165,(3, 67),36	201,(6, 19),32	233,(6, 49),24	257,(12, 81),2	259,(15, 81),2	283,(5, 49),30	323,(8, 13),6	329,(8, 25),18	347,(75, 81),2	395,(8, 28),2	397,(8, 46),6	403,(27, 81),2	427,(8, 58),18	445,(54, 81),2	447,(8, 61),108	555,(8, 64),22	577,(8, 70),12	589,(29, 81),2	591,(11, 81),2	593,(60, 81),2	1550,(38, 81),2	1572,(39, 81),2	1576,(47, 81),2	1612,(59, 81),2	1666,(41, 81),2	1670,(62, 81),2	1710,(68, 81),2	1731,(66, 81),2	1733,(50, 81),2	1736,(9, 81),2	1828,(23, 81),2	1846,(24, 81),2	1868,(33, 81),2	2340,(44, 81),2	2466,(35, 81),2	2484,(45, 81),2	2498,(48, 81),2	2502,(53, 81),2	2550,(56, 81),2	2560,(63, 81),2	2562,(77, 81),2	2570,(78, 81),2	2588,(20, 81),2	2596,(26, 81),2	2598,(32, 81),2	2880,(42, 81),2	2904,(51, 81),2	2978,(71, 81),2	2982,(72, 81),2	2984,(74, 81),2	
# Outgoing
40,(3, 10),2	42,(3, 16),2	44,(3, 64),2	81,(3, 58),22	103,(3, 61),8	111,(30, 81),2	113,(69, 81),2	115,(6, 13),2	117,(6, 34),8	125,(6, 52),6	131,(6, 73),4	137,(36, 81),2	139,(57, 81),2	142,(18, 81),2	144,(21, 81),2	151,(3, 11),10	161,(3, 26),2	163,(3, 35),2	165,(3, 67),36	201,(6, 19),32	233,(6, 49),24	257,(12, 81),2	259,(15, 81),2	347,(75, 81),2	403,(27, 81),2	445,(54, 81),2	593,(60, 81),2	1549,(3, 53),14	1563,(3, 59),8	1572,(39, 81),2	1611,(3, 41),54	1665,(3, 62),4	1669,(3, 74),22	1691,(6, 23),2	1693,(6, 53),2	1709,(6, 50),22	1731,(66, 81),2	1736,(9, 81),2	1846,(24, 81),2	1868,(33, 81),2	2339,(6, 35),126	2484,(45, 81),2	2498,(48, 81),2	2501,(6, 56),48	2560,(63, 81),2	2570,(78, 81),2	2880,(42, 81),2	2904,(51, 81),2	2982,(72, 81),2	
12,(2, 13),20	32,(2, 28),2	34,(2, 67),2	36,(2, 76),2	38,(14, 81),2	41,(2, 18),6	47,(2, 19),34	81,(2, 21),2	83,(2, 33),22	105,(2, 36),6	111,(2, 57),24	135,(80, 81),2	137,(5, 12),2	139,(5, 18),2	141,(5, 21),2	143,(5, 27),6	149,(5, 43),2	151,(5, 61),6	157,(17, 81),2	159,(65, 81),2	161,(8, 10),2	163,(8, 16),2	165,(2, 45),110	275,(5, 42),8	283,(5, 49),30	313,(5, 75),10	323,(8, 13),6	329,(8, 25),18	347,(8, 27),48	395,(8, 28),2	397,(8, 46),6	403,(8, 54),24	427,(8, 58),18	445,(8, 60),2	447,(8, 61),108	555,(8, 64),22	577,(8, 70),12	589,(29, 81),2	591,(11, 81),2	1550,(38, 81),2	1576,(47, 81),2	1612,(59, 81),2	1666,(41, 81),2	1670,(62, 81),2	1710,(68, 81),2	1733,(50, 81),2	1828,(23, 81),2	2340,(44, 81),2	2466,(35, 81),2	2502,(53, 81),2	2550,(56, 81),2	2562,(77, 81),2	2588,(20, 81),2	2596,(26, 81),2	2598,(32, 81),2	2978,(71, 81),2	2984,(74, 81),2	
1,(0, 2),10	11,(0, 3),10	21,(0, 5),10	31,(0, 6),10	41,(0, 8),10	51,(1, 11),100	151,(1, 12),2	153,(1, 15),12	165,(1, 23),10	175,(1, 32),1372	1547,(1, 38),2	1549,(1, 39),22	1571,(1, 44),2	1573,(1, 47),2	1575,(1, 50),34	1609,(1, 59),2	1611,(1, 66),96	1707,(1, 68),2	1709,(4, 9),26	1735,(4, 23),92	1827,(4, 24),18	1845,(4, 26),10	1855,(4, 33),12	1867,(4, 44),472	2339,(4, 45),144	2483,(4, 48),14	2497,(4, 53),4	2501,(4, 63),58	2559,(4, 77),2	2561,(4, 78),8	2569,(7, 20),18	2587,(7, 26),8	2595,(7, 32),2	2597,(7, 42),282	2879,(7, 51),24	2903,(7, 71),74	2977,(7, 72),4	2981,(7, 74),2	
