1201
# CPU
4,2,35	39,4,35	74,26,35	109,28,35	144,11,35	225,13,35	312,22,35	347,30,35	525,38,35	570,40,35	605,6,35	640,7,35	678,9,35	713,15,35	816,16,35	851,17,35	886,20,35	921,21,35	956,24,35	991,32,35	1026,34,35	1061,36,35	
0,0,1	1,3,35	36,1,35	71,23,35	106,31,35	141,12,35	176,14,35	211,5,35	246,8,35	281,10,35	316,18,35	579,19,35	614,25,35	649,27,35	684,29,35	719,33,35	754,35,35	789,37,35	824,39,35	1200,41,1	
# Incoming
1,(0, 2),3	4,(0, 4),3	36,(3, 7),27	63,(3, 9),12	75,(3, 11),6	81,(3, 13),144	225,(3, 17),30	255,(3, 22),57	312,(3, 24),3	315,(3, 30),9	324,(3, 34),24	348,(3, 36),156	504,(3, 38),21	525,(3, 40),45	570,(1, 6),3	573,(1, 7),12	585,(1, 9),93	678,(1, 15),12	690,(1, 16),126	816,(1, 17),27	843,(1, 20),3	846,(1, 21),24	870,(1, 24),6	876,(1, 32),9	885,(1, 34),39	924,(1, 36),81	
39,(2, 5),3	42,(2, 8),3	45,(2, 10),30	75,(2, 12),3	78,(2, 14),18	96,(2, 19),6	102,(2, 29),3	105,(2, 33),27	132,(2, 35),3	135,(2, 39),6	141,(4, 5),30	171,(4, 8),33	204,(4, 10),24	228,(4, 18),18	246,(4, 19),333	579,(4, 25),12	591,(4, 27),6	597,(4, 29),24	621,(4, 33),3	624,(4, 35),15	639,(4, 37),72	711,(4, 39),9	720,(26, 41),24	744,(28, 41),24	768,(11, 41),24	792,(13, 41),24	816,(22, 41),24	840,(30, 41),24	864,(38, 41),24	888,(40, 41),24	912,(6, 41),24	936,(7, 41),24	960,(9, 41),24	984,(15, 41),24	1008,(16, 41),24	1032,(17, 41),24	1056,(20, 41),24	1080,(21, 41),24	1104,(24, 41),24	1128,(32, 41),24	1152,(34, 41),24	1176,(36, 41),24	
# Outgoing
39,(2, 5),3	42,(2, 8),3	45,(2, 10),30	75,(2, 12),3	78,(2, 14),18	96,(2, 19),6	102,(2, 29),3	105,(2, 33),27	132,(2, 35),3	135,(2, 39),6	141,(4, 5),30	171,(4, 8),33	204,(4, 10),24	228,(4, 18),18	246,(4, 19),333	579,(4, 25),12	591,(4, 27),6	597,(4, 29),24	621,(4, 33),3	624,(4, 35),15	639,(4, 37),72	711,(4, 39),9	720,(26, 41),24	744,(28, 41),24	768,(11, 41),24	792,(13, 41),24	816,(22, 41),24	840,(30, 41),24	864,(38, 41),24	888,(40, 41),24	912,(6, 41),24	936,(7, 41),24	960,(9, 41),24	984,(15, 41),24	1008,(16, 41),24	1032,(17, 41),24	1056,(20, 41),24	1080,(21, 41),24	1104,(24, 41),24	1128,(32, 41),24	1152,(34, 41),24	1176,(36, 41),24	
1,(0, 2),3	4,(0, 4),3	36,(3, 7),27	63,(3, 9),12	75,(3, 11),6	81,(3, 13),144	225,(3, 17),30	255,(3, 22),57	312,(3, 24),3	315,(3, 30),9	324,(3, 34),24	348,(3, 36),156	504,(3, 38),21	525,(3, 40),45	570,(1, 6),3	573,(1, 7),12	585,(1, 9),93	678,(1, 15),12	690,(1, 16),126	816,(1, 17),27	843,(1, 20),3	846,(1, 21),24	870,(1, 24),6	876,(1, 32),9	885,(1, 34),39	924,(1, 36),81	
