998
# CPU
0,0,1	1,1,66	67,17,66	133,20,66	199,31,66	265,37,66	331,15,66	397,29,66	463,9,66	529,12,66	595,33,66	
5,3,66	71,13,66	137,24,66	203,39,66	269,25,66	335,8,66	401,35,66	467,14,66	533,34,66	599,30,66	997,41,1	
9,2,66	75,28,66	141,38,66	207,32,66	273,7,66	339,10,66	405,18,66	471,26,66	537,21,66	603,11,66	
13,4,66	79,5,66	145,27,66	211,6,66	277,16,66	343,36,66	409,22,66	475,23,66	541,19,66	607,40,66	
# Incoming
79,(4, 9),4	83,(4, 12),8	91,(3, 33),8	99,(4, 33),36	
1,(0, 3),4	133,(17, 41),32	165,(28, 41),32	197,(5, 41),32	229,(20, 41),32	261,(38, 41),32	293,(27, 41),32	325,(31, 41),32	357,(32, 41),32	389,(6, 41),32	421,(37, 41),32	453,(7, 41),32	485,(16, 41),32	517,(15, 41),32	549,(10, 41),32	581,(36, 41),32	613,(29, 41),32	645,(18, 41),32	677,(22, 41),32	709,(9, 41),32	741,(26, 41),32	773,(23, 41),32	805,(12, 41),32	837,(21, 41),32	869,(19, 41),32	901,(33, 41),32	933,(11, 41),32	965,(40, 41),32	
5,(0, 2),4	135,(4, 11),52	
9,(0, 4),4	67,(1, 40),8	99,(3, 40),28	
# Outgoing
1,(0, 3),4	5,(0, 2),4	9,(0, 4),4	67,(1, 40),8	133,(17, 41),32	229,(20, 41),32	325,(31, 41),32	421,(37, 41),32	517,(15, 41),32	613,(29, 41),32	709,(9, 41),32	805,(12, 41),32	901,(33, 41),32	
91,(3, 33),8	99,(3, 40),28	
165,(28, 41),32	261,(38, 41),32	357,(32, 41),32	453,(7, 41),32	549,(10, 41),32	645,(18, 41),32	741,(26, 41),32	837,(21, 41),32	933,(11, 41),32	
79,(4, 9),4	83,(4, 12),8	99,(4, 33),36	135,(4, 11),52	197,(5, 41),32	293,(27, 41),32	389,(6, 41),32	485,(16, 41),32	581,(36, 41),32	677,(22, 41),32	773,(23, 41),32	869,(19, 41),32	965,(40, 41),32	
