17638
# CPU
13,4,3	25,8,3	28,112,3	37,12,3	40,88,3	43,200,3	46,60,3	49,16,3	53,156,3	61,20,3	64,44,3	67,104,3	193,144,3	249,176,3	281,120,3	313,148,3	317,72,3	329,172,3	349,24,3	389,168,3	465,56,3	469,100,3	973,140,3	1285,164,3	1465,36,3	1569,48,3	1597,76,3	1621,96,3	1633,136,3	1669,84,3	1705,196,3	2069,132,3	2109,192,3	2461,28,3	2481,32,3	2629,108,3	5401,52,3	5429,80,3	9689,184,3	9693,188,3	9713,40,3	9745,68,3	9873,92,3	9925,116,3	10005,128,3	10173,180,3	10473,64,3	10609,124,3	10729,152,3	17577,160,3	
9,3,3	21,7,3	33,11,3	36,43,3	39,63,3	42,143,3	45,15,3	57,19,3	60,67,3	63,151,3	73,31,3	101,103,3	113,111,3	289,23,3	301,135,3	313,139,3	5353,199,3	5461,175,3	5513,51,3	5565,95,3	5737,87,3	5773,167,3	5781,171,3	5821,195,3	5825,55,3	6081,59,3	6169,75,3	6241,115,3	6377,27,3	6389,35,3	6429,83,3	6441,91,3	6497,107,3	6505,183,3	6725,79,3	6753,127,3	6761,131,3	7397,159,3	7669,187,3	7773,119,3	9525,123,3	9677,163,3	10553,71,3	10557,99,3	10613,147,3	10621,179,3	10645,191,3	10681,39,3	10685,47,3	10785,155,3	
5,2,3	17,6,3	25,66,3	29,10,3	32,86,3	35,158,3	41,14,3	44,42,3	47,122,3	50,130,3	53,18,3	56,166,3	59,194,3	65,22,3	73,62,3	77,58,3	189,102,3	253,178,3	285,186,3	325,38,3	337,46,3	405,114,3	409,82,3	473,126,3	637,134,3	641,26,3	781,198,3	961,34,3	989,110,3	1225,154,3	1657,74,3	1977,98,3	5365,30,3	5405,54,3	9465,94,3	9549,146,3	9665,162,3	9717,50,3	9757,78,3	9761,90,3	9881,106,3	9929,118,3	10017,138,3	10457,182,3	10617,170,3	10697,70,3	10701,142,3	10721,150,3	10801,174,3	10805,190,3	
0,0,1	1,13,3	4,1,3	7,9,3	10,17,3	13,5,3	16,161,3	19,157,3	22,193,3	25,133,3	28,85,3	31,81,3	34,29,3	81,89,3	97,113,3	197,117,3	213,45,3	217,141,3	241,165,3	249,181,3	473,121,3	493,49,3	497,77,3	605,97,3	673,149,3	697,69,3	817,65,3	821,109,3	853,129,3	885,173,3	921,189,3	937,21,3	965,57,3	1021,137,3	1073,33,3	1129,73,3	1133,41,3	1145,153,3	1153,185,3	1209,37,3	1213,145,3	1257,93,3	1425,25,3	1481,169,3	1489,197,3	1545,61,3	2001,125,3	2081,177,3	2405,53,3	2553,101,3	2573,105,3	17637,201,1	
# Incoming
9,(0, 4),4	13,(3, 28),8	21,(0, 8),4	33,(0, 12),4	37,(11, 60),4	45,(0, 16),4	49,(15, 156),4	57,(0, 20),4	61,(2, 28),12	73,(3, 40),28	101,(3, 124),20	165,(13, 144),28	193,(13, 176),56	249,(2, 152),4	253,(13, 184),4	257,(7, 120),24	281,(15, 52),20	301,(19, 56),4	305,(6, 84),4	309,(6, 148),4	313,(14, 72),4	321,(6, 172),8	329,(10, 24),20	349,(10, 168),40	389,(14, 40),56	445,(14, 56),20	465,(14, 100),4	473,(3, 140),500	973,(7, 36),100	1073,(10, 164),212	1285,(11, 36),180	1465,(11, 48),104	1569,(14, 76),28	1597,(14, 96),24	1621,(14, 136),12	1633,(18, 84),36	1669,(18, 192),12	1681,(18, 196),24	2001,(11, 132),68	2081,(11, 192),28	2433,(19, 28),28	2461,(19, 32),20	2573,(19, 108),56	5365,(1, 52),36	5405,(1, 64),4	5409,(1, 80),20	9677,(1, 184),12	9689,(1, 188),4	9693,(9, 40),20	9717,(9, 68),28	9761,(9, 92),112	9881,(9, 116),44	9929,(9, 128),76	10017,(9, 152),4	10093,(9, 180),80	10457,(17, 64),16	10557,(17, 124),52	10721,(5, 152),8	10729,(14, 160),6848	
5,(0, 3),4	17,(0, 7),4	29,(0, 11),4	41,(0, 15),4	53,(0, 19),4	65,(13, 31),8	77,(13, 103),24	101,(13, 111),12	113,(13, 135),52	197,(2, 127),16	213,(4, 23),76	289,(4, 135),12	301,(4, 139),12	313,(4, 175),4	317,(6, 99),4	321,(13, 199),5032	5353,(2, 175),108	5461,(4, 51),52	5513,(4, 87),36	5549,(6, 95),16	5565,(8, 87),172	5737,(10, 167),36	5773,(10, 171),8	5781,(10, 195),40	5821,(12, 55),4	5825,(12, 59),256	6081,(12, 75),88	6169,(12, 83),40	6209,(12, 115),32	6241,(12, 147),4	6245,(12, 179),20	6265,(14, 27),112	6377,(14, 35),12	6389,(14, 83),40	6429,(14, 91),12	6441,(14, 107),56	6497,(14, 183),8	6505,(14, 187),16	6521,(16, 79),204	6725,(16, 127),28	6753,(16, 131),8	6761,(16, 159),636	7397,(16, 187),272	7669,(18, 147),96	7765,(20, 119),8	9465,(1, 123),60	9549,(1, 155),68	9665,(1, 163),12	10473,(17, 71),80	10553,(17, 99),4	10609,(17, 147),4	10617,(17, 179),4	10621,(17, 191),24	10645,(5, 39),36	10681,(5, 47),4	10729,(5, 155),56	
1,(0, 2),4	13,(0, 6),4	21,(3, 66),4	25,(0, 10),4	29,(7, 58),4	37,(0, 14),4	41,(7, 146),8	49,(0, 18),4	53,(15, 74),8	61,(13, 22),4	65,(15, 118),4	69,(19, 62),4	73,(13, 58),4	121,(3, 150),12	133,(7, 102),56	189,(19, 118),4	249,(13, 178),4	257,(13, 186),28	285,(13, 190),36	321,(4, 38),4	325,(4, 46),12	337,(4, 114),68	405,(8, 82),4	409,(8, 90),36	445,(8, 98),16	461,(8, 110),8	469,(8, 126),4	621,(12, 134),16	637,(16, 26),4	641,(20, 78),8	673,(8, 182),44	729,(12, 198),52	781,(16, 174),24	933,(20, 34),28	961,(20, 110),28	989,(20, 150),32	1129,(7, 154),96	1257,(11, 162),20	1277,(20, 50),64	1569,(11, 74),88	1657,(12, 98),320	2405,(15, 94),12	2417,(15, 150),16	2481,(19, 90),48	5353,(1, 30),12	5401,(1, 54),4	5429,(1, 94),4036	9525,(1, 146),24	9617,(1, 162),48	9713,(9, 50),4	9745,(9, 78),12	9757,(9, 90),4	9873,(9, 106),8	9925,(9, 118),4	10005,(9, 138),12	10021,(9, 170),72	10173,(9, 182),284	10613,(17, 170),4	10685,(5, 70),12	10697,(5, 142),4	10701,(5, 150),20	10785,(5, 174),16	10801,(5, 190),4	
73,(2, 77),4	77,(2, 89),4	81,(2, 113),16	97,(2, 117),100	197,(3, 45),16	213,(2, 141),4	217,(3, 65),4	221,(3, 165),20	241,(6, 97),4	245,(6, 181),4	249,(11, 121),4	253,(2, 185),52	305,(3, 121),168	473,(4, 37),4	477,(4, 49),16	493,(4, 77),4	497,(4, 97),108	605,(4, 189),16	621,(6, 41),32	653,(8, 149),20	673,(66, 201),12	685,(10, 69),12	697,(10, 125),8	705,(86, 201),12	717,(112, 201),12	729,(10, 173),64	793,(158, 201),12	805,(12, 65),12	817,(12, 109),4	821,(12, 125),4	825,(12, 129),28	853,(12, 173),32	885,(12, 189),36	921,(88, 201),12	933,(14, 21),4	937,(14, 57),28	965,(14, 61),4	969,(14, 137),52	1021,(200, 201),12	1033,(42, 201),12	1045,(60, 201),12	1057,(122, 201),12	1069,(16, 33),4	1073,(7, 73),56	1129,(16, 41),4	1133,(16, 153),12	1145,(16, 185),8	1153,(156, 201),12	1165,(20, 37),44	1209,(20, 145),4	1213,(20, 169),4	1225,(7, 197),16	1241,(11, 93),16	1257,(44, 201),12	1285,(130, 201),12	1297,(18, 25),128	1425,(18, 169),56	1481,(18, 197),8	1489,(166, 201),12	1501,(194, 201),12	1513,(20, 61),32	1545,(20, 101),72	1617,(104, 201),12	1629,(144, 201),12	1641,(176, 201),12	1657,(11, 125),344	2001,(22, 201),12	2013,(62, 201),12	2025,(58, 201),12	2037,(102, 201),12	2049,(178, 201),12	2069,(11, 177),12	2081,(120, 201),12	2093,(186, 201),12	2109,(43, 201),12	2121,(63, 201),12	2133,(143, 201),12	2145,(15, 53),260	2405,(148, 201),12	2417,(72, 201),12	2429,(38, 201),12	2441,(172, 201),12	2453,(46, 201),12	2465,(24, 201),12	2477,(168, 201),12	2489,(114, 201),12	2501,(82, 201),12	2513,(56, 201),12	2529,(19, 101),24	2553,(19, 105),20	2573,(100, 201),12	2585,(126, 201),12	2597,(134, 201),12	2609,(26, 201),12	2629,(67, 201),12	2641,(151, 201),12	2653,(31, 201),12	2665,(103, 201),12	2677,(111, 201),12	2689,(23, 201),12	2701,(135, 201),12	2713,(139, 201),12	2725,(198, 201),12	2737,(34, 201),12	2749,(140, 201),12	2761,(110, 201),12	2773,(154, 201),12	2785,(164, 201),12	2797,(36, 201),12	2809,(48, 201),12	2821,(76, 201),12	2833,(96, 201),12	2845,(136, 201),12	2857,(74, 201),12	2869,(84, 201),12	2881,(196, 201),12	2893,(98, 201),12	2905,(132, 201),12	2917,(192, 201),12	2929,(28, 201),12	2941,(32, 201),12	2953,(108, 201),12	5356,(199, 201),12	5404,(52, 201),12	5432,(80, 201),12	5461,(30, 201),12	5473,(54, 201),12	5485,(175, 201),12	5516,(51, 201),12	5568,(95, 201),12	5740,(87, 201),12	5776,(167, 201),12	5788,(171, 201),12	5824,(195, 201),12	5836,(55, 201),12	6084,(59, 201),12	6172,(75, 201),12	6244,(115, 201),12	6380,(27, 201),12	6392,(35, 201),12	6432,(83, 201),12	6444,(91, 201),12	6500,(107, 201),12	6512,(183, 201),12	6728,(79, 201),12	6756,(127, 201),12	6768,(131, 201),12	7400,(159, 201),12	7672,(187, 201),12	7776,(119, 201),12	9468,(94, 201),12	9528,(123, 201),12	9552,(146, 201),12	9668,(162, 201),12	9680,(163, 201),12	9692,(184, 201),12	9704,(188, 201),12	9716,(40, 201),12	9728,(50, 201),12	9748,(68, 201),12	9760,(78, 201),12	9772,(90, 201),12	9876,(92, 201),12	9888,(106, 201),12	9928,(116, 201),12	9940,(118, 201),12	10008,(128, 201),12	10020,(138, 201),12	10176,(180, 201),12	10460,(182, 201),12	10476,(64, 201),12	10556,(71, 201),12	10568,(99, 201),12	10612,(124, 201),12	10624,(147, 201),12	10636,(170, 201),12	10648,(179, 201),12	10660,(191, 201),12	10684,(39, 201),12	10696,(47, 201),12	10708,(70, 201),12	10732,(152, 201),12	10788,(155, 201),12	17577,(142, 201),12	17589,(150, 201),12	17601,(174, 201),12	17613,(190, 201),12	17625,(160, 201),12	
# Outgoing
213,(4, 23),76	289,(4, 135),12	301,(4, 139),12	313,(4, 175),4	321,(4, 38),4	325,(4, 46),12	337,(4, 114),68	405,(8, 82),4	409,(8, 90),36	445,(8, 98),16	461,(8, 110),8	469,(8, 126),4	473,(4, 37),4	477,(4, 49),16	493,(4, 77),4	497,(4, 97),108	605,(4, 189),16	621,(12, 134),16	637,(16, 26),4	641,(20, 78),8	653,(8, 149),20	673,(8, 182),44	717,(112, 201),12	729,(12, 198),52	781,(16, 174),24	805,(12, 65),12	817,(12, 109),4	821,(12, 125),4	825,(12, 129),28	853,(12, 173),32	885,(12, 189),36	921,(88, 201),12	933,(20, 34),28	961,(20, 110),28	989,(20, 150),32	1021,(200, 201),12	1045,(60, 201),12	1069,(16, 33),4	1129,(16, 41),4	1133,(16, 153),12	1145,(16, 185),8	1153,(156, 201),12	1165,(20, 37),44	1209,(20, 145),4	1213,(20, 169),4	1257,(44, 201),12	1277,(20, 50),64	1513,(20, 61),32	1545,(20, 101),72	1617,(104, 201),12	1629,(144, 201),12	1641,(176, 201),12	1657,(12, 98),320	2081,(120, 201),12	2405,(148, 201),12	2417,(72, 201),12	2441,(172, 201),12	2465,(24, 201),12	2477,(168, 201),12	2513,(56, 201),12	2573,(100, 201),12	2749,(140, 201),12	2785,(164, 201),12	2797,(36, 201),12	2809,(48, 201),12	2821,(76, 201),12	2833,(96, 201),12	2845,(136, 201),12	2869,(84, 201),12	2881,(196, 201),12	2905,(132, 201),12	2917,(192, 201),12	2929,(28, 201),12	2941,(32, 201),12	2953,(108, 201),12	5404,(52, 201),12	5432,(80, 201),12	5461,(4, 51),52	5513,(4, 87),36	5565,(8, 87),172	5821,(12, 55),4	5825,(12, 59),256	6081,(12, 75),88	6169,(12, 83),40	6209,(12, 115),32	6241,(12, 147),4	6245,(12, 179),20	6521,(16, 79),204	6725,(16, 127),28	6753,(16, 131),8	6761,(16, 159),636	7397,(16, 187),272	7765,(20, 119),8	9692,(184, 201),12	9704,(188, 201),12	9716,(40, 201),12	9748,(68, 201),12	9876,(92, 201),12	9928,(116, 201),12	10008,(128, 201),12	10176,(180, 201),12	10476,(64, 201),12	10612,(124, 201),12	10732,(152, 201),12	17625,(160, 201),12	
13,(3, 28),8	21,(3, 66),4	29,(7, 58),4	37,(11, 60),4	41,(7, 146),8	49,(15, 156),4	53,(15, 74),8	65,(15, 118),4	69,(19, 62),4	73,(3, 40),28	101,(3, 124),20	121,(3, 150),12	133,(7, 102),56	189,(19, 118),4	197,(3, 45),16	217,(3, 65),4	221,(3, 165),20	249,(11, 121),4	257,(7, 120),24	281,(15, 52),20	301,(19, 56),4	305,(3, 121),168	473,(3, 140),500	973,(7, 36),100	1073,(7, 73),56	1129,(7, 154),96	1225,(7, 197),16	1241,(11, 93),16	1257,(11, 162),20	1285,(11, 36),180	1465,(11, 48),104	1569,(11, 74),88	1657,(11, 125),344	2001,(11, 132),68	2069,(11, 177),12	2081,(11, 192),28	2109,(43, 201),12	2121,(63, 201),12	2133,(143, 201),12	2145,(15, 53),260	2405,(15, 94),12	2417,(15, 150),16	2433,(19, 28),28	2461,(19, 32),20	2481,(19, 90),48	2529,(19, 101),24	2553,(19, 105),20	2573,(19, 108),56	2629,(67, 201),12	2641,(151, 201),12	2653,(31, 201),12	2665,(103, 201),12	2677,(111, 201),12	2689,(23, 201),12	2701,(135, 201),12	2713,(139, 201),12	5356,(199, 201),12	5485,(175, 201),12	5516,(51, 201),12	5568,(95, 201),12	5740,(87, 201),12	5776,(167, 201),12	5788,(171, 201),12	5824,(195, 201),12	5836,(55, 201),12	6084,(59, 201),12	6172,(75, 201),12	6244,(115, 201),12	6380,(27, 201),12	6392,(35, 201),12	6432,(83, 201),12	6444,(91, 201),12	6500,(107, 201),12	6512,(183, 201),12	6728,(79, 201),12	6756,(127, 201),12	6768,(131, 201),12	7400,(159, 201),12	7672,(187, 201),12	7776,(119, 201),12	9528,(123, 201),12	9680,(163, 201),12	10556,(71, 201),12	10568,(99, 201),12	10624,(147, 201),12	10648,(179, 201),12	10660,(191, 201),12	10684,(39, 201),12	10696,(47, 201),12	10788,(155, 201),12	
61,(2, 28),12	73,(2, 77),4	77,(2, 89),4	81,(2, 113),16	97,(2, 117),100	197,(2, 127),16	213,(2, 141),4	241,(6, 97),4	245,(6, 181),4	249,(2, 152),4	253,(2, 185),52	305,(6, 84),4	309,(6, 148),4	313,(14, 72),4	317,(6, 99),4	321,(6, 172),8	329,(10, 24),20	349,(10, 168),40	389,(14, 40),56	445,(14, 56),20	465,(14, 100),4	621,(6, 41),32	673,(66, 201),12	685,(10, 69),12	697,(10, 125),8	705,(86, 201),12	729,(10, 173),64	793,(158, 201),12	933,(14, 21),4	937,(14, 57),28	965,(14, 61),4	969,(14, 137),52	1033,(42, 201),12	1057,(122, 201),12	1073,(10, 164),212	1285,(130, 201),12	1297,(18, 25),128	1425,(18, 169),56	1481,(18, 197),8	1489,(166, 201),12	1501,(194, 201),12	1569,(14, 76),28	1597,(14, 96),24	1621,(14, 136),12	1633,(18, 84),36	1669,(18, 192),12	1681,(18, 196),24	2001,(22, 201),12	2013,(62, 201),12	2025,(58, 201),12	2037,(102, 201),12	2049,(178, 201),12	2093,(186, 201),12	2429,(38, 201),12	2453,(46, 201),12	2489,(114, 201),12	2501,(82, 201),12	2585,(126, 201),12	2597,(134, 201),12	2609,(26, 201),12	2725,(198, 201),12	2737,(34, 201),12	2761,(110, 201),12	2773,(154, 201),12	2857,(74, 201),12	2893,(98, 201),12	5353,(2, 175),108	5461,(30, 201),12	5473,(54, 201),12	5549,(6, 95),16	5737,(10, 167),36	5773,(10, 171),8	5781,(10, 195),40	6265,(14, 27),112	6377,(14, 35),12	6389,(14, 83),40	6429,(14, 91),12	6441,(14, 107),56	6497,(14, 183),8	6505,(14, 187),16	7669,(18, 147),96	9468,(94, 201),12	9552,(146, 201),12	9668,(162, 201),12	9728,(50, 201),12	9760,(78, 201),12	9772,(90, 201),12	9888,(106, 201),12	9940,(118, 201),12	10020,(138, 201),12	10460,(182, 201),12	10636,(170, 201),12	10708,(70, 201),12	10729,(14, 160),6848	17577,(142, 201),12	17589,(150, 201),12	17601,(174, 201),12	17613,(190, 201),12	
1,(0, 2),4	5,(0, 3),4	9,(0, 4),4	13,(0, 6),4	17,(0, 7),4	21,(0, 8),4	25,(0, 10),4	29,(0, 11),4	33,(0, 12),4	37,(0, 14),4	41,(0, 15),4	45,(0, 16),4	49,(0, 18),4	53,(0, 19),4	57,(0, 20),4	61,(13, 22),4	65,(13, 31),8	73,(13, 58),4	77,(13, 103),24	101,(13, 111),12	113,(13, 135),52	165,(13, 144),28	193,(13, 176),56	249,(13, 178),4	253,(13, 184),4	257,(13, 186),28	285,(13, 190),36	321,(13, 199),5032	5353,(1, 30),12	5365,(1, 52),36	5401,(1, 54),4	5405,(1, 64),4	5409,(1, 80),20	5429,(1, 94),4036	9465,(1, 123),60	9525,(1, 146),24	9549,(1, 155),68	9617,(1, 162),48	9665,(1, 163),12	9677,(1, 184),12	9689,(1, 188),4	9693,(9, 40),20	9713,(9, 50),4	9717,(9, 68),28	9745,(9, 78),12	9757,(9, 90),4	9761,(9, 92),112	9873,(9, 106),8	9881,(9, 116),44	9925,(9, 118),4	9929,(9, 128),76	10005,(9, 138),12	10017,(9, 152),4	10021,(9, 170),72	10093,(9, 180),80	10173,(9, 182),284	10457,(17, 64),16	10473,(17, 71),80	10553,(17, 99),4	10557,(17, 124),52	10609,(17, 147),4	10613,(17, 170),4	10617,(17, 179),4	10621,(17, 191),24	10645,(5, 39),36	10681,(5, 47),4	10685,(5, 70),12	10697,(5, 142),4	10701,(5, 150),20	10721,(5, 152),8	10729,(5, 155),56	10785,(5, 174),16	10801,(5, 190),4	
