3022
# CPU
61,3,2	81,36,2	121,6,2	123,111,2	181,9,2	183,63,2	185,120,2	241,12,2	243,21,2	245,27,2	247,48,2	249,72,2	253,24,2	317,54,2	473,45,2	475,57,2	491,90,2	495,102,2	759,87,2	863,18,2	967,93,2	973,15,2	977,60,2	1139,33,2	1175,42,2	1207,69,2	1243,78,2	1253,81,2	1501,30,2	1513,39,2	1519,51,2	1633,84,2	1643,96,2	1667,117,2	1689,66,2	1691,75,2	1717,99,2	1723,105,2	1763,108,2	1787,114,2	
31,2,2	91,5,2	93,56,2	151,8,2	173,68,2	211,11,2	213,101,2	215,26,2	217,47,2	235,65,2	239,53,2	303,41,2	349,74,2	369,83,2	689,32,2	705,89,2	749,113,2	753,77,2	757,92,2	823,14,2	941,119,2	1003,23,2	1037,20,2	1059,104,2	1153,35,2	1171,38,2	1177,59,2	1217,71,2	1251,80,2	1329,95,2	1439,107,2	1441,110,2	1487,17,2	1631,62,2	1635,86,2	1659,98,2	1665,116,2	1677,29,2	1683,44,2	1687,50,2	
0,0,1	1,4,2	3,1,2	5,7,2	7,10,2	9,103,2	11,88,2	13,97,2	15,73,2	17,40,2	19,106,2	21,46,2	429,79,2	451,49,2	459,52,2	461,58,2	569,109,2	583,115,2	809,25,2	855,19,2	867,61,2	869,64,2	967,85,2	989,91,2	1063,76,2	1265,112,2	1267,118,2	1347,13,2	1393,43,2	1525,16,2	1527,22,2	1545,28,2	1549,31,2	1635,34,2	1653,37,2	1655,55,2	1659,67,2	1883,70,2	1895,82,2	1921,94,2	1923,100,2	3021,121,1	
# Incoming
31,(0, 3),30	61,(2, 33),12	73,(2, 36),8	91,(0, 6),30	151,(0, 9),30	211,(0, 12),30	241,(4, 15),2	251,(4, 24),2	253,(4, 30),28	281,(4, 51),4	285,(4, 54),32	345,(4, 69),4	429,(2, 81),6	435,(2, 93),22	457,(2, 105),14	471,(5, 45),2	473,(5, 57),2	475,(5, 81),4	479,(5, 108),10	489,(8, 90),2	491,(8, 96),2	493,(8, 102),2	495,(4, 87),264	809,(4, 114),38	849,(8, 105),12	861,(11, 18),2	863,(4, 117),76	939,(5, 93),28	967,(11, 15),6	973,(11, 42),2	975,(11, 60),2	977,(11, 66),4	981,(11, 75),2	983,(11, 117),12	1003,(1, 33),136	1171,(1, 42),4	1177,(1, 69),30	1217,(1, 78),26	1251,(1, 81),2	1253,(1, 84),14	1499,(7, 30),2	1501,(7, 39),12	1513,(7, 51),6	1631,(7, 84),2	1635,(7, 96),8	1659,(7, 105),4	1665,(7, 117),2	1687,(10, 66),2	1689,(10, 75),2	1691,(10, 99),26	1717,(10, 105),6	1723,(10, 108),40	1763,(10, 114),24	
1,(0, 2),30	61,(0, 5),30	91,(3, 17),6	97,(3, 62),2	99,(3, 68),4	103,(3, 113),2	121,(0, 8),30	151,(6, 38),12	163,(6, 68),10	173,(6, 86),2	175,(6, 101),2	177,(6, 119),2	181,(0, 11),30	211,(6, 65),24	235,(9, 17),2	237,(9, 53),2	239,(9, 80),2	243,(4, 20),6	249,(4, 23),2	251,(3, 41),52	303,(6, 116),14	317,(4, 62),28	345,(12, 74),4	349,(4, 83),20	369,(4, 86),126	643,(6, 104),30	673,(9, 32),16	689,(9, 89),16	705,(9, 113),44	749,(12, 77),4	753,(12, 92),4	759,(4, 95),44	803,(4, 110),6	809,(12, 14),14	823,(12, 23),18	847,(4, 116),16	939,(4, 119),2	941,(1, 23),62	1007,(12, 20),30	1037,(12, 71),14	1051,(12, 104),8	1139,(1, 35),14	1153,(1, 38),18	1175,(1, 59),2	1207,(1, 71),10	1243,(1, 80),8	1267,(1, 86),60	1327,(1, 95),2	1329,(1, 98),2	1331,(1, 107),108	1439,(1, 110),2	1441,(7, 17),46	1487,(7, 29),12	1519,(7, 62),112	1633,(7, 86),2	1643,(7, 98),16	1663,(7, 116),2	1667,(10, 29),10	1677,(10, 44),6	1683,(10, 50),4	
33,(2, 22),4	37,(2, 82),2	81,(2, 55),294	375,(2, 79),54	429,(3, 31),6	435,(3, 49),16	451,(3, 52),8	459,(3, 58),2	461,(3, 61),2	463,(3, 76),56	519,(3, 82),48	567,(3, 109),2	569,(3, 115),14	583,(3, 118),42	625,(36, 121),18	643,(5, 22),164	807,(5, 25),2	809,(5, 37),10	819,(5, 61),12	831,(56, 121),18	849,(6, 19),6	855,(6, 28),2	857,(6, 61),10	867,(6, 64),2	869,(6, 76),2	871,(6, 85),96	967,(6, 91),22	989,(111, 121),18	1007,(8, 22),42	1049,(8, 37),4	1053,(8, 55),2	1055,(8, 76),8	1063,(68, 121),18	1081,(9, 100),108	1189,(9, 112),76	1265,(9, 118),2	1267,(63, 121),18	1285,(120, 121),18	1303,(11, 13),44	1347,(11, 37),2	1349,(11, 43),44	1393,(11, 94),6	1399,(101, 121),18	1417,(26, 121),18	1435,(47, 121),18	1453,(65, 121),18	1471,(53, 121),18	1489,(12, 16),36	1525,(12, 22),2	1527,(12, 28),18	1545,(12, 31),4	1549,(12, 34),86	1635,(12, 37),18	1653,(12, 55),2	1655,(12, 67),4	1659,(12, 70),224	1883,(12, 82),12	1895,(12, 94),26	1921,(12, 100),2	1923,(21, 121),18	1941,(27, 121),18	1959,(48, 121),18	1977,(72, 121),18	1995,(24, 121),18	2013,(41, 121),18	2031,(54, 121),18	2049,(74, 121),18	2067,(83, 121),18	2085,(45, 121),18	2103,(57, 121),18	2121,(90, 121),18	2139,(102, 121),18	2157,(32, 121),18	2175,(89, 121),18	2193,(113, 121),18	2211,(77, 121),18	2229,(92, 121),18	2247,(87, 121),18	2265,(14, 121),18	2283,(18, 121),18	2301,(119, 121),18	2319,(93, 121),18	2337,(15, 121),18	2355,(60, 121),18	2373,(23, 121),18	2391,(20, 121),18	2409,(104, 121),18	2427,(33, 121),18	2445,(35, 121),18	2463,(38, 121),18	2481,(42, 121),18	2499,(59, 121),18	2517,(69, 121),18	2535,(71, 121),18	2553,(78, 121),18	2571,(80, 121),18	2589,(81, 121),18	2607,(95, 121),18	2625,(107, 121),18	2643,(110, 121),18	2661,(17, 121),18	2679,(30, 121),18	2697,(39, 121),18	2715,(51, 121),18	2733,(62, 121),18	2751,(84, 121),18	2769,(86, 121),18	2787,(96, 121),18	2805,(98, 121),18	2823,(116, 121),18	2841,(117, 121),18	2859,(29, 121),18	2877,(44, 121),18	2895,(50, 121),18	2913,(66, 121),18	2931,(75, 121),18	2949,(99, 121),18	2967,(105, 121),18	2985,(108, 121),18	3003,(114, 121),18	
# Outgoing
91,(3, 17),6	97,(3, 62),2	99,(3, 68),4	103,(3, 113),2	151,(6, 38),12	163,(6, 68),10	173,(6, 86),2	175,(6, 101),2	177,(6, 119),2	211,(6, 65),24	235,(9, 17),2	237,(9, 53),2	239,(9, 80),2	251,(3, 41),52	303,(6, 116),14	345,(12, 74),4	429,(3, 31),6	435,(3, 49),16	451,(3, 52),8	459,(3, 58),2	461,(3, 61),2	463,(3, 76),56	519,(3, 82),48	567,(3, 109),2	569,(3, 115),14	583,(3, 118),42	625,(36, 121),18	643,(6, 104),30	673,(9, 32),16	689,(9, 89),16	705,(9, 113),44	749,(12, 77),4	753,(12, 92),4	809,(12, 14),14	823,(12, 23),18	849,(6, 19),6	855,(6, 28),2	857,(6, 61),10	867,(6, 64),2	869,(6, 76),2	871,(6, 85),96	967,(6, 91),22	989,(111, 121),18	1007,(12, 20),30	1037,(12, 71),14	1051,(12, 104),8	1081,(9, 100),108	1189,(9, 112),76	1265,(9, 118),2	1267,(63, 121),18	1285,(120, 121),18	1489,(12, 16),36	1525,(12, 22),2	1527,(12, 28),18	1545,(12, 31),4	1549,(12, 34),86	1635,(12, 37),18	1653,(12, 55),2	1655,(12, 67),4	1659,(12, 70),224	1883,(12, 82),12	1895,(12, 94),26	1921,(12, 100),2	1923,(21, 121),18	1941,(27, 121),18	1959,(48, 121),18	1977,(72, 121),18	1995,(24, 121),18	2031,(54, 121),18	2085,(45, 121),18	2103,(57, 121),18	2121,(90, 121),18	2139,(102, 121),18	2247,(87, 121),18	2283,(18, 121),18	2319,(93, 121),18	2337,(15, 121),18	2355,(60, 121),18	2427,(33, 121),18	2481,(42, 121),18	2517,(69, 121),18	2553,(78, 121),18	2589,(81, 121),18	2679,(30, 121),18	2697,(39, 121),18	2715,(51, 121),18	2751,(84, 121),18	2787,(96, 121),18	2841,(117, 121),18	2913,(66, 121),18	2931,(75, 121),18	2949,(99, 121),18	2967,(105, 121),18	2985,(108, 121),18	3003,(114, 121),18	
33,(2, 22),4	37,(2, 82),2	61,(2, 33),12	73,(2, 36),8	81,(2, 55),294	375,(2, 79),54	429,(2, 81),6	435,(2, 93),22	457,(2, 105),14	471,(5, 45),2	473,(5, 57),2	475,(5, 81),4	479,(5, 108),10	489,(8, 90),2	491,(8, 96),2	493,(8, 102),2	643,(5, 22),164	807,(5, 25),2	809,(5, 37),10	819,(5, 61),12	831,(56, 121),18	849,(8, 105),12	861,(11, 18),2	939,(5, 93),28	967,(11, 15),6	973,(11, 42),2	975,(11, 60),2	977,(11, 66),4	981,(11, 75),2	983,(11, 117),12	1007,(8, 22),42	1049,(8, 37),4	1053,(8, 55),2	1055,(8, 76),8	1063,(68, 121),18	1303,(11, 13),44	1347,(11, 37),2	1349,(11, 43),44	1393,(11, 94),6	1399,(101, 121),18	1417,(26, 121),18	1435,(47, 121),18	1453,(65, 121),18	1471,(53, 121),18	2013,(41, 121),18	2049,(74, 121),18	2067,(83, 121),18	2157,(32, 121),18	2175,(89, 121),18	2193,(113, 121),18	2211,(77, 121),18	2229,(92, 121),18	2265,(14, 121),18	2301,(119, 121),18	2373,(23, 121),18	2391,(20, 121),18	2409,(104, 121),18	2445,(35, 121),18	2463,(38, 121),18	2499,(59, 121),18	2535,(71, 121),18	2571,(80, 121),18	2607,(95, 121),18	2625,(107, 121),18	2643,(110, 121),18	2661,(17, 121),18	2733,(62, 121),18	2769,(86, 121),18	2805,(98, 121),18	2823,(116, 121),18	2859,(29, 121),18	2877,(44, 121),18	2895,(50, 121),18	
1,(0, 2),30	31,(0, 3),30	61,(0, 5),30	91,(0, 6),30	121,(0, 8),30	151,(0, 9),30	181,(0, 11),30	211,(0, 12),30	241,(4, 15),2	243,(4, 20),6	249,(4, 23),2	251,(4, 24),2	253,(4, 30),28	281,(4, 51),4	285,(4, 54),32	317,(4, 62),28	345,(4, 69),4	349,(4, 83),20	369,(4, 86),126	495,(4, 87),264	759,(4, 95),44	803,(4, 110),6	809,(4, 114),38	847,(4, 116),16	863,(4, 117),76	939,(4, 119),2	941,(1, 23),62	1003,(1, 33),136	1139,(1, 35),14	1153,(1, 38),18	1171,(1, 42),4	1175,(1, 59),2	1177,(1, 69),30	1207,(1, 71),10	1217,(1, 78),26	1243,(1, 80),8	1251,(1, 81),2	1253,(1, 84),14	1267,(1, 86),60	1327,(1, 95),2	1329,(1, 98),2	1331,(1, 107),108	1439,(1, 110),2	1441,(7, 17),46	1487,(7, 29),12	1499,(7, 30),2	1501,(7, 39),12	1513,(7, 51),6	1519,(7, 62),112	1631,(7, 84),2	1633,(7, 86),2	1635,(7, 96),8	1643,(7, 98),16	1659,(7, 105),4	1663,(7, 116),2	1665,(7, 117),2	1667,(10, 29),10	1677,(10, 44),6	1683,(10, 50),4	1687,(10, 66),2	1689,(10, 75),2	1691,(10, 99),26	1717,(10, 105),6	1723,(10, 108),40	1763,(10, 114),24	
