14866
# CPU
0,0,1	1,2,183	184,130,183	367,7,183	550,19,183	733,12,183	916,47,183	1099,20,183	1282,102,183	1465,95,183	1648,163,183	1831,157,183	2014,21,183	2197,155,183	2380,77,183	2563,179,183	2746,160,183	2929,110,183	3112,99,183	3295,79,183	3478,55,183	3661,187,183	3844,29,183	4027,70,183	4210,140,183	4393,185,183	4576,50,183	4759,59,183	5166,116,183	5550,136,183	5938,115,183	6330,87,183	6742,172,183	7158,41,183	7586,23,183	8034,51,183	8498,27,183	8962,126,183	9498,104,183	10046,64,183	10610,90,183	11730,122,183	14682,106,183	14865,201,1	
13,4,183	196,128,183	379,15,183	562,40,183	745,11,183	928,97,183	1111,1,183	1294,10,183	1477,66,183	1660,198,183	1843,80,183	2026,75,183	2209,117,183	2392,89,183	2575,177,183	2758,162,183	2941,91,183	3124,178,183	3307,82,183	3490,57,183	3673,189,183	3856,111,183	4039,44,183	4222,48,183	4405,107,183	4588,139,183	4771,197,183	4954,98,183	5137,134,183	5320,153,183	5503,52,183	5686,193,183	5869,145,183	6052,188,183	6235,62,183	6418,71,183	6601,183,183	6784,26,183	6967,42,183	7150,84,183	7333,169,183	7516,135,183	7699,60,183	7882,81,183	8065,143,183	8248,103,183	8431,137,183	8614,129,183	8797,119,183	8980,69,183	9163,46,183	9346,22,183	
25,18,183	208,13,183	391,6,183	574,5,183	757,3,183	940,164,183	1123,9,183	1306,67,183	1489,25,183	1672,191,183	1855,38,183	2038,168,183	2221,149,183	2404,85,183	2587,165,183	2770,123,183	2953,167,183	3136,154,183	3319,35,183	3502,65,183	3685,161,183	3868,152,183	4051,131,183	4234,138,183	4417,101,183	4600,192,183	4783,78,183	4966,133,183	5149,54,183	5332,32,183	5515,58,183	5698,141,183	5881,148,183	6064,31,183	6247,174,183	6430,170,183	6613,86,183	6796,142,183	6979,73,183	7162,94,183	7345,53,183	7528,173,183	7711,132,183	7894,83,183	8077,199,183	8260,195,183	8443,24,183	8626,88,183	8809,72,183	8992,118,183	9175,166,183	9358,184,183	9541,49,183	9724,92,183	9907,76,183	
37,17,183	220,16,183	403,14,183	586,144,183	769,125,183	952,8,183	1135,30,183	1318,156,183	1501,33,183	1684,74,183	1867,150,183	2050,158,183	2233,113,183	2416,194,183	2599,61,183	2782,37,183	2965,105,183	3148,151,183	3331,127,183	3514,196,183	3697,120,183	3880,181,183	4063,28,183	4246,93,183	4429,176,183	4612,109,183	4795,182,183	4978,68,183	5161,112,183	5344,146,183	5527,171,183	5710,43,183	5893,39,183	6076,114,183	6259,108,183	6442,200,183	6625,45,183	6808,34,183	6991,36,183	7174,190,183	7357,96,183	7540,56,183	7723,124,183	7906,100,183	8089,147,183	8272,159,183	8455,186,183	8638,180,183	8821,63,183	9004,175,183	9187,121,183	
# Incoming
208,(18, 102),8	224,(18, 77),4	248,(18, 110),12	280,(18, 55),4	284,(18, 50),36	379,(128, 201),56	435,(13, 102),8	443,(4, 95),4	447,(13, 155),12	459,(4, 77),4	463,(4, 179),4	467,(13, 179),12	479,(4, 99),4	483,(4, 55),8	523,(13, 140),4	531,(4, 185),8	539,(4, 115),8	547,(13, 116),20	567,(13, 87),4	574,(6, 102),20	594,(14, 102),4	598,(6, 95),4	602,(15, 77),4	606,(4, 172),4	610,(17, 110),4	614,(6, 157),4	618,(6, 110),4	622,(15, 50),32	654,(4, 51),8	662,(4, 104),4	666,(4, 90),4	670,(14, 160),8	686,(13, 115),8	694,(18, 126),16	710,(18, 90),4	722,(17, 79),8	730,(17, 55),4	734,(17, 29),4	745,(40, 201),56	801,(144, 201),56	857,(5, 70),20	877,(5, 59),36	913,(5, 136),8	921,(16, 55),12	933,(14, 29),4	940,(11, 99),4	944,(16, 140),4	948,(3, 179),4	952,(125, 201),56	1008,(3, 160),12	1020,(3, 99),4	1024,(11, 70),20	1044,(3, 70),4	1048,(3, 185),40	1088,(11, 59),16	1104,(11, 115),4	1111,(97, 201),56	1167,(164, 201),56	1223,(8, 157),4	1227,(8, 79),8	1235,(8, 140),36	1271,(3, 50),4	1275,(5, 41),16	1294,(1, 155),4	1298,(3, 27),4	1302,(1, 110),4	1310,(1, 99),4	1314,(16, 172),4	1318,(30, 201),56	1374,(1, 79),12	1386,(9, 79),12	1398,(9, 55),12	1410,(1, 187),20	1430,(1, 29),16	1446,(9, 29),20	1466,(1, 185),8	1474,(17, 59),12	1489,(67, 201),56	1545,(156, 201),56	1601,(10, 163),4	1605,(10, 21),16	1621,(10, 77),4	1625,(10, 99),12	1637,(10, 187),20	1660,(66, 201),56	1716,(25, 201),56	1772,(33, 201),56	1828,(14, 59),12	1843,(198, 201),56	1899,(191, 201),56	1955,(74, 201),56	2011,(10, 136),4	2015,(10, 41),8	2026,(80, 201),56	2082,(38, 201),56	2138,(150, 201),56	2194,(1, 115),12	2209,(75, 201),56	2265,(168, 201),56	2321,(158, 201),56	2377,(17, 41),12	2392,(117, 201),56	2448,(149, 201),56	2504,(113, 201),56	2568,(10, 126),4	2575,(89, 201),56	2631,(85, 201),56	2687,(194, 201),56	2743,(14, 51),4	2747,(8, 51),4	2751,(16, 106),4	2758,(177, 201),56	2814,(165, 201),56	2870,(61, 201),56	2926,(3, 51),8	2934,(10, 90),4	2941,(162, 201),56	2997,(123, 201),56	3053,(37, 201),56	3109,(14, 104),8	3117,(10, 122),4	3124,(91, 201),56	3180,(167, 201),56	3236,(105, 201),56	3292,(9, 106),4	3307,(178, 201),56	3363,(154, 201),56	3419,(151, 201),56	3490,(82, 201),56	3546,(35, 201),56	3602,(127, 201),56	3673,(57, 201),56	3729,(65, 201),56	3785,(196, 201),56	3856,(189, 201),56	3912,(161, 201),56	3968,(120, 201),56	4039,(111, 201),56	4095,(152, 201),56	4151,(181, 201),56	4222,(44, 201),56	4278,(131, 201),56	4334,(28, 201),56	4405,(48, 201),56	4461,(138, 201),56	4517,(93, 201),56	4588,(107, 201),56	4644,(101, 201),56	4700,(176, 201),56	4771,(139, 201),56	4827,(192, 201),56	4883,(109, 201),56	4954,(197, 201),56	5010,(78, 201),56	5066,(182, 201),56	5122,(9, 116),44	5166,(98, 201),56	5222,(133, 201),56	5278,(68, 201),56	5334,(134, 201),56	5390,(54, 201),56	5446,(112, 201),56	5502,(13, 136),48	5550,(153, 201),56	5606,(32, 201),56	5662,(146, 201),56	5718,(52, 201),56	5774,(58, 201),56	5830,(171, 201),56	5886,(16, 115),20	5906,(10, 115),32	5938,(193, 201),56	5994,(141, 201),56	6050,(43, 201),56	6106,(145, 201),56	6162,(148, 201),56	6218,(39, 201),56	6274,(4, 87),32	6306,(9, 87),24	6330,(188, 201),56	6386,(31, 201),56	6442,(114, 201),56	6498,(62, 201),56	6554,(174, 201),56	6610,(108, 201),56	6666,(5, 172),32	6698,(9, 172),44	6742,(71, 201),56	6798,(170, 201),56	6854,(200, 201),56	6910,(183, 201),56	6966,(86, 201),56	7022,(45, 201),56	7078,(13, 41),64	7142,(16, 41),16	7158,(26, 201),56	7214,(142, 201),56	7270,(34, 201),56	7326,(42, 201),56	7382,(73, 201),56	7438,(36, 201),56	7494,(16, 23),16	7510,(9, 23),76	7586,(84, 201),56	7642,(94, 201),56	7698,(190, 201),56	7754,(169, 201),56	7810,(53, 201),56	7866,(96, 201),56	7922,(10, 51),112	8034,(135, 201),56	8090,(173, 201),56	8146,(56, 201),56	8202,(60, 201),56	8258,(132, 201),56	8314,(124, 201),56	8370,(17, 27),44	8414,(1, 27),40	8454,(10, 27),44	8498,(81, 201),56	8554,(83, 201),56	8610,(100, 201),56	8666,(143, 201),56	8722,(199, 201),56	8778,(147, 201),56	8834,(4, 126),112	8946,(13, 126),16	8962,(103, 201),56	9018,(195, 201),56	9074,(159, 201),56	9130,(137, 201),56	9186,(24, 201),56	9242,(186, 201),56	9298,(13, 104),88	9386,(11, 104),84	9470,(10, 104),28	9498,(129, 201),56	9554,(88, 201),56	9610,(180, 201),56	9666,(119, 201),56	9722,(72, 201),56	9778,(63, 201),56	9834,(18, 64),56	9890,(10, 64),156	10046,(69, 201),56	10102,(118, 201),56	10158,(175, 201),56	10214,(46, 201),56	10270,(166, 201),56	10326,(121, 201),56	10382,(5, 90),160	10542,(8, 90),68	10610,(22, 201),56	10666,(184, 201),56	10722,(49, 201),56	10778,(92, 201),56	10834,(76, 201),56	10890,(16, 122),372	11262,(15, 122),44	11306,(3, 122),376	11682,(1, 122),48	11730,(13, 106),336	12066,(11, 106),20	12086,(8, 106),28	12114,(1, 106),160	12274,(10, 106),2408	
1,(0, 4),12	61,(0, 15),12	109,(0, 11),12	145,(0, 1),12	169,(0, 10),12	184,(2, 128),4	204,(2, 177),4	208,(2, 57),4	216,(18, 40),8	224,(2, 98),4	228,(18, 89),4	232,(2, 139),8	240,(2, 60),4	244,(18, 162),4	248,(2, 48),20	276,(18, 82),4	280,(2, 107),20	320,(18, 139),40	360,(2, 153),20	380,(2, 46),4	384,(18, 98),4	391,(13, 97),12	403,(13, 66),4	407,(2, 145),16	423,(2, 22),4	427,(13, 111),4	431,(13, 52),4	459,(13, 48),8	467,(2, 62),32	503,(13, 57),20	527,(13, 197),20	550,(7, 40),4	594,(7, 177),4	598,(17, 198),4	602,(6, 198),12	614,(17, 80),4	618,(7, 162),16	634,(16, 117),16	650,(17, 89),4	654,(6, 177),24	678,(6, 91),8	686,(17, 91),12	698,(7, 91),12	710,(7, 44),4	714,(6, 44),16	741,(19, 75),12	753,(16, 44),4	757,(5, 117),4	761,(5, 162),16	777,(16, 107),4	781,(5, 44),4	785,(5, 98),12	797,(19, 178),40	837,(19, 82),36	873,(7, 57),24	897,(19, 111),16	920,(12, 117),4	924,(12, 89),20	944,(12, 91),4	948,(17, 193),4	952,(3, 44),4	956,(3, 98),4	960,(13, 134),12	972,(12, 48),16	988,(7, 107),12	1000,(19, 153),4	1004,(3, 145),4	1016,(12, 107),12	1028,(19, 188),4	1032,(6, 188),4	1036,(14, 111),28	1064,(19, 98),12	1076,(7, 134),48	1124,(12, 188),4	1128,(14, 62),4	1135,(8, 75),8	1143,(7, 71),12	1155,(8, 189),44	1215,(7, 183),8	1223,(6, 197),44	1267,(5, 62),4	1271,(16, 139),16	1287,(8, 98),20	1310,(9, 66),4	1314,(9, 80),16	1334,(9, 189),4	1338,(9, 107),8	1354,(9, 44),20	1374,(9, 48),12	1386,(20, 98),12	1398,(19, 183),4	1402,(12, 81),4	1406,(7, 143),4	1410,(5, 134),16	1426,(5, 153),12	1438,(5, 193),8	1446,(17, 71),4	1450,(8, 183),4	1466,(18, 52),12	1478,(5, 183),4	1482,(3, 84),4	1486,(8, 52),40	1526,(16, 145),12	1538,(17, 42),4	1545,(13, 153),48	1593,(12, 52),28	1621,(18, 26),8	1629,(13, 26),8	1637,(14, 193),56	1693,(19, 193),20	1713,(19, 145),36	1749,(20, 145),20	1793,(7, 42),20	1816,(18, 188),24	1840,(6, 62),28	1868,(13, 135),8	1876,(6, 135),8	1884,(9, 60),4	1888,(5, 81),4	1892,(17, 188),20	1912,(7, 188),44	1956,(3, 62),40	1996,(6, 143),4	2000,(9, 143),4	2004,(13, 103),4	2011,(16, 71),28	2039,(16, 183),32	2071,(16, 26),64	2138,(3, 71),68	2206,(7, 103),16	2222,(8, 42),20	2242,(16, 84),4	2246,(17, 103),4	2250,(19, 26),36	2286,(2, 42),28	2314,(20, 22),4	2321,(6, 183),64	2385,(6, 42),44	2429,(7, 84),64	2493,(19, 84),20	2513,(12, 169),32	2545,(19, 137),8	2560,(14, 84),32	2592,(14, 169),52	2644,(8, 103),4	2648,(14, 129),24	2672,(17, 119),8	2680,(8, 119),4	2739,(9, 169),44	2783,(14, 60),48	2831,(17, 22),12	2870,(9, 135),44	2914,(6, 103),4	2918,(18, 69),4	2922,(6, 69),4	2934,(5, 143),16	2950,(13, 46),8	2958,(7, 135),76	3034,(19, 60),80	3125,(3, 143),48	3173,(20, 137),52	3225,(19, 129),36	3264,(3, 129),16	3280,(18, 46),12	3292,(8, 143),76	3368,(14, 119),36	3404,(19, 119),24	3428,(12, 46),20	3475,(17, 129),52	3527,(16, 46),44	3595,(12, 119),72	3667,(20, 119),48	3715,(18, 22),4	3735,(7, 69),72	3841,(16, 69),84	3925,(19, 46),104	4151,(5, 137),108	4517,(5, 129),64	4700,(5, 69),52	4752,(5, 46),52	4883,(9, 46),68	5122,(16, 22),152	5830,(3, 81),140	5970,(19, 22),580	7866,(3, 103),132	
13,(0, 18),12	37,(0, 13),12	73,(0, 6),12	97,(0, 5),12	121,(0, 3),12	157,(0, 9),12	200,(2, 25),4	216,(2, 161),4	220,(2, 58),4	268,(2, 141),12	300,(2, 192),40	352,(2, 49),4	439,(4, 164),4	467,(4, 148),4	475,(4, 166),4	491,(4, 152),40	547,(4, 142),8	562,(15, 164),4	566,(15, 168),20	586,(7, 85),8	594,(15, 165),4	598,(15, 65),4	602,(14, 191),4	606,(17, 149),4	610,(7, 123),4	614,(7, 173),4	618,(14, 38),16	654,(14, 165),16	670,(7, 92),4	678,(14, 123),8	698,(17, 167),4	702,(17, 154),16	718,(14, 154),4	733,(19, 191),8	741,(16, 35),4	745,(14, 65),8	753,(19, 123),16	769,(7, 167),28	797,(14, 161),4	857,(16, 154),24	881,(14, 35),40	921,(15, 76),4	932,(11, 25),4	937,(14, 54),4	944,(11, 141),4	948,(12, 65),8	956,(11, 199),4	960,(12, 152),8	968,(19, 131),4	984,(11, 161),24	1008,(16, 65),28	1036,(19, 138),24	1060,(19, 192),4	1064,(14, 131),48	1112,(16, 138),16	1128,(12, 78),4	1132,(19, 54),8	1143,(8, 85),12	1155,(19, 101),16	1171,(15, 192),12	1183,(15, 54),8	1191,(4, 199),8	1199,(8, 161),8	1207,(14, 138),16	1223,(19, 78),52	1275,(19, 148),4	1279,(11, 76),4	1290,(20, 149),16	1306,(1, 165),4	1310,(20, 101),40	1350,(20, 192),4	1354,(20, 78),4	1358,(19, 133),16	1374,(17, 133),44	1418,(17, 32),24	1442,(14, 58),4	1446,(1, 54),8	1454,(16, 32),12	1466,(8, 148),8	1477,(10, 25),4	1481,(19, 32),16	1497,(19, 141),8	1505,(10, 161),8	1513,(7, 54),32	1545,(20, 32),16	1561,(20, 58),24	1585,(12, 31),8	1593,(1, 58),4	1597,(10, 31),4	1601,(17, 58),36	1693,(17, 141),24	1717,(14, 141),28	1745,(14, 31),16	1761,(10, 174),4	1765,(14, 142),4	1769,(12, 148),24	1793,(10, 170),24	1817,(10, 86),16	1833,(1, 83),4	1840,(14, 148),52	1899,(4, 31),68	1967,(1, 142),20	1987,(10, 73),20	2007,(1, 88),4	2016,(7, 174),40	2082,(4, 174),52	2134,(19, 170),44	2178,(7, 94),16	2194,(16, 170),28	2222,(7, 86),28	2250,(8, 86),56	2306,(16, 142),8	2314,(17, 94),4	2318,(12, 173),8	2326,(12, 132),8	2334,(20, 195),4	2345,(10, 142),36	2381,(19, 76),8	2389,(17, 142),28	2417,(17, 73),52	2469,(8, 94),4	2473,(16, 199),20	2493,(14, 72),4	2497,(16, 118),4	2536,(1, 73),32	2568,(12, 94),28	2596,(7, 83),16	2631,(15, 94),32	2663,(10, 94),20	2683,(7, 53),108	2791,(12, 83),36	2827,(7, 199),24	2851,(8, 199),12	2866,(4, 83),56	2922,(10, 76),4	2926,(17, 24),20	2946,(14, 88),28	2974,(17, 118),24	2998,(16, 166),36	3034,(14, 166),4	3041,(15, 199),44	3085,(4, 49),28	3114,(19, 88),24	3138,(7, 72),32	3170,(14, 184),4	3174,(16, 92),4	3180,(4, 173),96	3276,(2, 88),84	3363,(15, 132),104	3467,(2, 195),128	3654,(15, 49),16	3715,(19, 72),20	3781,(15, 72),40	3821,(19, 118),80	3901,(19, 166),24	3968,(1, 49),40	4008,(15, 92),16	4029,(2, 166),116	4145,(19, 184),12	4157,(19, 49),12	4169,(12, 76),20	4207,(17, 92),48	4278,(1, 24),112	4390,(8, 49),84	4474,(7, 76),68	4644,(1, 72),80	4827,(1, 118),72	4941,(19, 92),228	5222,(10, 184),84	5502,(8, 92),124	5774,(10, 49),132	6966,(11, 184),152	7118,(2, 76),716	
25,(0, 17),12	49,(0, 16),12	85,(0, 14),12	133,(0, 8),12	188,(2, 144),8	196,(2, 30),4	212,(2, 196),4	228,(2, 114),4	232,(18, 61),12	244,(2, 124),4	260,(18, 151),16	340,(2, 68),8	348,(2, 159),4	360,(18, 182),24	384,(2, 36),16	407,(13, 158),8	415,(13, 194),12	435,(4, 125),4	443,(13, 108),4	447,(4, 74),4	451,(4, 37),4	455,(4, 196),4	471,(4, 108),4	479,(13, 127),24	503,(2, 147),44	554,(7, 144),4	558,(7, 74),8	566,(7, 158),8	574,(7, 194),12	586,(15, 113),8	594,(6, 125),4	598,(7, 61),12	610,(15, 196),8	618,(15, 120),4	622,(6, 120),4	626,(6, 181),4	630,(6, 114),4	634,(7, 105),12	646,(7, 120),20	666,(7, 181),4	670,(15, 181),12	682,(4, 28),28	710,(15, 171),4	714,(7, 176),4	718,(15, 109),12	730,(6, 171),20	750,(13, 190),4	777,(5, 196),4	797,(5, 146),4	801,(4, 93),52	853,(4, 112),40	893,(4, 45),8	901,(15, 45),4	905,(15, 34),8	916,(12, 150),4	921,(13, 96),4	928,(11, 30),4	932,(18, 124),4	936,(11, 150),4	940,(3, 150),8	948,(11, 113),8	956,(12, 194),4	960,(11, 37),24	984,(3, 105),12	996,(3, 196),8	1004,(12, 120),8	1012,(12, 93),4	1016,(11, 43),4	1020,(11, 200),4	1024,(3, 120),4	1028,(3, 28),4	1032,(7, 34),4	1036,(13, 124),4	1040,(3, 124),4	1044,(11, 176),28	1072,(11, 45),4	1076,(4, 180),8	1084,(11, 175),4	1088,(3, 176),24	1112,(3, 112),40	1152,(13, 100),4	1156,(13, 147),4	1167,(11, 121),4	1171,(7, 182),44	1215,(4, 146),24	1239,(11, 114),32	1271,(11, 180),8	1282,(20, 156),8	1298,(1, 113),4	1306,(9, 156),4	1314,(1, 151),12	1326,(1, 127),4	1330,(9, 127),4	1334,(1, 196),12	1346,(9, 181),8	1354,(1, 68),4	1358,(1, 146),4	1362,(1, 200),8	1370,(1, 45),4	1374,(19, 146),8	1382,(20, 146),4	1386,(1, 28),24	1410,(19, 68),64	1474,(19, 56),4	1481,(10, 33),12	1493,(10, 158),4	1497,(10, 61),4	1501,(10, 105),4	1505,(7, 171),8	1513,(10, 181),24	1537,(1, 109),52	1589,(10, 182),4	1593,(9, 146),28	1621,(19, 171),24	1645,(19, 43),32	1677,(20, 43),16	1693,(13, 39),16	1709,(9, 100),4	1716,(10, 146),12	1728,(10, 171),32	1765,(1, 36),4	1772,(3, 43),44	1816,(7, 39),8	1824,(20, 39),72	1896,(19, 108),12	1908,(19, 100),4	1956,(20, 114),60	2016,(18, 56),16	2032,(3, 100),24	2056,(7, 45),44	2100,(20, 34),24	2124,(7, 159),4	2128,(12, 159),4	2134,(11, 36),40	2174,(10, 96),8	2182,(1, 56),8	2190,(1, 63),4	2194,(19, 186),8	2202,(20, 121),4	2206,(3, 45),44	2250,(6, 186),8	2265,(1, 108),80	2345,(19, 96),24	2381,(1, 147),8	2389,(12, 186),40	2429,(18, 180),8	2448,(15, 200),88	2536,(6, 34),72	2612,(19, 180),56	2683,(10, 63),4	2687,(5, 36),52	2739,(15, 147),16	2783,(5, 147),24	2814,(4, 190),52	2866,(12, 190),92	2958,(6, 124),36	2997,(15, 96),44	3053,(9, 96),72	3236,(9, 186),28	3276,(4, 56),24	3300,(18, 147),44	3360,(2, 63),20	3419,(9, 56),120	3546,(15, 124),108	3654,(3, 147),60	3729,(1, 124),20	3749,(15, 180),32	3785,(5, 100),120	3912,(11, 100),40	3952,(1, 180),16	3968,(6, 159),100	4068,(3, 175),20	4095,(10, 159),124	4334,(5, 186),84	4418,(6, 63),32	4461,(15, 186),96	4581,(18, 63),48	4629,(19, 63),132	4761,(7, 175),180	5010,(1, 175),48	5058,(10, 175),52	5278,(13, 121),68	5390,(15, 63),160	5550,(12, 121),228	6554,(4, 121),148	8314,(5, 180),156	8778,(9, 175),128	
# Outgoing
1,(0, 4),12	13,(0, 18),12	25,(0, 17),12	37,(0, 13),12	49,(0, 16),12	61,(0, 15),12	73,(0, 6),12	85,(0, 14),12	97,(0, 5),12	109,(0, 11),12	121,(0, 3),12	133,(0, 8),12	145,(0, 1),12	157,(0, 9),12	169,(0, 10),12	184,(2, 128),4	188,(2, 144),8	196,(2, 30),4	200,(2, 25),4	204,(2, 177),4	208,(2, 57),4	212,(2, 196),4	216,(2, 161),4	220,(2, 58),4	224,(2, 98),4	228,(2, 114),4	232,(2, 139),8	240,(2, 60),4	244,(2, 124),4	248,(2, 48),20	268,(2, 141),12	280,(2, 107),20	300,(2, 192),40	340,(2, 68),8	348,(2, 159),4	352,(2, 49),4	360,(2, 153),20	380,(2, 46),4	384,(2, 36),16	407,(2, 145),16	423,(2, 22),4	467,(2, 62),32	503,(2, 147),44	550,(7, 40),4	554,(7, 144),4	558,(7, 74),8	566,(7, 158),8	574,(7, 194),12	586,(7, 85),8	594,(7, 177),4	598,(7, 61),12	610,(7, 123),4	614,(7, 173),4	618,(7, 162),16	634,(7, 105),12	646,(7, 120),20	666,(7, 181),4	670,(7, 92),4	698,(7, 91),12	710,(7, 44),4	714,(7, 176),4	733,(19, 191),8	741,(19, 75),12	753,(19, 123),16	769,(7, 167),28	797,(19, 178),40	837,(19, 82),36	873,(7, 57),24	897,(19, 111),16	916,(12, 150),4	920,(12, 117),4	924,(12, 89),20	944,(12, 91),4	948,(12, 65),8	956,(12, 194),4	960,(12, 152),8	968,(19, 131),4	972,(12, 48),16	988,(7, 107),12	1000,(19, 153),4	1004,(12, 120),8	1012,(12, 93),4	1016,(12, 107),12	1028,(19, 188),4	1032,(7, 34),4	1036,(19, 138),24	1060,(19, 192),4	1064,(19, 98),12	1076,(7, 134),48	1124,(12, 188),4	1128,(12, 78),4	1132,(19, 54),8	1143,(7, 71),12	1155,(19, 101),16	1171,(7, 182),44	1215,(7, 183),8	1223,(19, 78),52	1275,(19, 148),4	1282,(20, 156),8	1290,(20, 149),16	1310,(20, 101),40	1350,(20, 192),4	1354,(20, 78),4	1358,(19, 133),16	1374,(19, 146),8	1382,(20, 146),4	1386,(20, 98),12	1398,(19, 183),4	1402,(12, 81),4	1406,(7, 143),4	1410,(19, 68),64	1474,(19, 56),4	1481,(19, 32),16	1497,(19, 141),8	1505,(7, 171),8	1513,(7, 54),32	1545,(20, 32),16	1561,(20, 58),24	1585,(12, 31),8	1593,(12, 52),28	1621,(19, 171),24	1645,(19, 43),32	1677,(20, 43),16	1693,(19, 193),20	1713,(19, 145),36	1749,(20, 145),20	1769,(12, 148),24	1793,(7, 42),20	1816,(7, 39),8	1824,(20, 39),72	1896,(19, 108),12	1908,(19, 100),4	1912,(7, 188),44	1956,(20, 114),60	2016,(7, 174),40	2056,(7, 45),44	2100,(20, 34),24	2124,(7, 159),4	2128,(12, 159),4	2134,(19, 170),44	2178,(7, 94),16	2194,(19, 186),8	2202,(20, 121),4	2206,(7, 103),16	2222,(7, 86),28	2250,(19, 26),36	2286,(2, 42),28	2314,(20, 22),4	2318,(12, 173),8	2326,(12, 132),8	2334,(20, 195),4	2345,(19, 96),24	2381,(19, 76),8	2389,(12, 186),40	2429,(7, 84),64	2493,(19, 84),20	2513,(12, 169),32	2545,(19, 137),8	2568,(12, 94),28	2596,(7, 83),16	2612,(19, 180),56	2683,(7, 53),108	2791,(12, 83),36	2827,(7, 199),24	2866,(12, 190),92	2958,(7, 135),76	3034,(19, 60),80	3114,(19, 88),24	3138,(7, 72),32	3173,(20, 137),52	3225,(19, 129),36	3276,(2, 88),84	3360,(2, 63),20	3404,(19, 119),24	3428,(12, 46),20	3467,(2, 195),128	3595,(12, 119),72	3667,(20, 119),48	3715,(19, 72),20	3735,(7, 69),72	3821,(19, 118),80	3901,(19, 166),24	3925,(19, 46),104	4029,(2, 166),116	4145,(19, 184),12	4157,(19, 49),12	4169,(12, 76),20	4474,(7, 76),68	4629,(19, 63),132	4761,(7, 175),180	4941,(19, 92),228	5550,(12, 121),228	5970,(19, 22),580	7118,(2, 76),716	
379,(128, 201),56	435,(4, 125),4	439,(4, 164),4	443,(4, 95),4	447,(4, 74),4	451,(4, 37),4	455,(4, 196),4	459,(4, 77),4	463,(4, 179),4	467,(4, 148),4	471,(4, 108),4	475,(4, 166),4	479,(4, 99),4	483,(4, 55),8	491,(4, 152),40	531,(4, 185),8	539,(4, 115),8	547,(4, 142),8	562,(15, 164),4	566,(15, 168),20	586,(15, 113),8	594,(15, 165),4	598,(15, 65),4	602,(15, 77),4	606,(4, 172),4	610,(15, 196),8	618,(15, 120),4	622,(15, 50),32	654,(4, 51),8	662,(4, 104),4	666,(4, 90),4	670,(15, 181),12	682,(4, 28),28	710,(15, 171),4	718,(15, 109),12	745,(40, 201),56	801,(4, 93),52	853,(4, 112),40	893,(4, 45),8	901,(15, 45),4	905,(15, 34),8	921,(15, 76),4	928,(11, 30),4	932,(11, 25),4	936,(11, 150),4	940,(11, 99),4	944,(11, 141),4	948,(11, 113),8	956,(11, 199),4	960,(11, 37),24	984,(11, 161),24	1016,(11, 43),4	1020,(11, 200),4	1024,(11, 70),20	1044,(11, 176),28	1072,(11, 45),4	1076,(4, 180),8	1084,(11, 175),4	1088,(11, 59),16	1104,(11, 115),4	1111,(97, 201),56	1167,(11, 121),4	1171,(15, 192),12	1183,(15, 54),8	1191,(4, 199),8	1215,(4, 146),24	1239,(11, 114),32	1271,(11, 180),8	1279,(11, 76),4	1294,(1, 155),4	1298,(1, 113),4	1302,(1, 110),4	1306,(1, 165),4	1310,(1, 99),4	1314,(1, 151),12	1326,(1, 127),4	1334,(1, 196),12	1354,(1, 68),4	1358,(1, 146),4	1362,(1, 200),8	1370,(1, 45),4	1374,(1, 79),12	1386,(1, 28),24	1410,(1, 187),20	1430,(1, 29),16	1446,(1, 54),8	1466,(1, 185),8	1477,(10, 25),4	1481,(10, 33),12	1493,(10, 158),4	1497,(10, 61),4	1501,(10, 105),4	1505,(10, 161),8	1513,(10, 181),24	1537,(1, 109),52	1589,(10, 182),4	1593,(1, 58),4	1597,(10, 31),4	1601,(10, 163),4	1605,(10, 21),16	1621,(10, 77),4	1625,(10, 99),12	1637,(10, 187),20	1660,(66, 201),56	1716,(10, 146),12	1728,(10, 171),32	1761,(10, 174),4	1765,(1, 36),4	1793,(10, 170),24	1817,(10, 86),16	1833,(1, 83),4	1843,(198, 201),56	1899,(4, 31),68	1967,(1, 142),20	1987,(10, 73),20	2007,(1, 88),4	2011,(10, 136),4	2015,(10, 41),8	2026,(80, 201),56	2082,(4, 174),52	2134,(11, 36),40	2174,(10, 96),8	2182,(1, 56),8	2190,(1, 63),4	2194,(1, 115),12	2209,(75, 201),56	2265,(1, 108),80	2345,(10, 142),36	2381,(1, 147),8	2392,(117, 201),56	2448,(15, 200),88	2536,(1, 73),32	2568,(10, 126),4	2575,(89, 201),56	2631,(15, 94),32	2663,(10, 94),20	2683,(10, 63),4	2739,(15, 147),16	2758,(177, 201),56	2814,(4, 190),52	2866,(4, 83),56	2922,(10, 76),4	2934,(10, 90),4	2941,(162, 201),56	2997,(15, 96),44	3041,(15, 199),44	3085,(4, 49),28	3117,(10, 122),4	3124,(91, 201),56	3180,(4, 173),96	3276,(4, 56),24	3307,(178, 201),56	3363,(15, 132),104	3490,(82, 201),56	3546,(15, 124),108	3654,(15, 49),16	3673,(57, 201),56	3729,(1, 124),20	3749,(15, 180),32	3781,(15, 72),40	3856,(189, 201),56	3912,(11, 100),40	3952,(1, 180),16	3968,(1, 49),40	4008,(15, 92),16	4039,(111, 201),56	4095,(10, 159),124	4222,(44, 201),56	4278,(1, 24),112	4405,(48, 201),56	4461,(15, 186),96	4588,(107, 201),56	4644,(1, 72),80	4771,(139, 201),56	4827,(1, 118),72	4954,(197, 201),56	5010,(1, 175),48	5058,(10, 175),52	5166,(98, 201),56	5222,(10, 184),84	5334,(134, 201),56	5390,(15, 63),160	5550,(153, 201),56	5718,(52, 201),56	5774,(10, 49),132	5906,(10, 115),32	5938,(193, 201),56	6106,(145, 201),56	6274,(4, 87),32	6330,(188, 201),56	6498,(62, 201),56	6554,(4, 121),148	6742,(71, 201),56	6910,(183, 201),56	6966,(11, 184),152	7158,(26, 201),56	7326,(42, 201),56	7586,(84, 201),56	7754,(169, 201),56	7922,(10, 51),112	8034,(135, 201),56	8202,(60, 201),56	8414,(1, 27),40	8454,(10, 27),44	8498,(81, 201),56	8666,(143, 201),56	8834,(4, 126),112	8962,(103, 201),56	9130,(137, 201),56	9386,(11, 104),84	9470,(10, 104),28	9498,(129, 201),56	9666,(119, 201),56	9890,(10, 64),156	10046,(69, 201),56	10214,(46, 201),56	10610,(22, 201),56	11262,(15, 122),44	11682,(1, 122),48	12066,(11, 106),20	12114,(1, 106),160	12274,(10, 106),2408	
208,(18, 102),8	216,(18, 40),8	224,(18, 77),4	228,(18, 89),4	232,(18, 61),12	244,(18, 162),4	248,(18, 110),12	260,(18, 151),16	276,(18, 82),4	280,(18, 55),4	284,(18, 50),36	320,(18, 139),40	360,(18, 182),24	384,(18, 98),4	391,(13, 97),12	403,(13, 66),4	407,(13, 158),8	415,(13, 194),12	427,(13, 111),4	431,(13, 52),4	435,(13, 102),8	443,(13, 108),4	447,(13, 155),12	459,(13, 48),8	467,(13, 179),12	479,(13, 127),24	503,(13, 57),20	523,(13, 140),4	527,(13, 197),20	547,(13, 116),20	567,(13, 87),4	574,(6, 102),20	594,(6, 125),4	598,(6, 95),4	602,(6, 198),12	614,(6, 157),4	618,(6, 110),4	622,(6, 120),4	626,(6, 181),4	630,(6, 114),4	654,(6, 177),24	678,(6, 91),8	686,(13, 115),8	694,(18, 126),16	710,(18, 90),4	714,(6, 44),16	730,(6, 171),20	750,(13, 190),4	757,(5, 117),4	761,(5, 162),16	777,(5, 196),4	781,(5, 44),4	785,(5, 98),12	797,(5, 146),4	857,(5, 70),20	877,(5, 59),36	913,(5, 136),8	921,(13, 96),4	932,(18, 124),4	940,(3, 150),8	948,(3, 179),4	952,(3, 44),4	956,(3, 98),4	960,(13, 134),12	984,(3, 105),12	996,(3, 196),8	1004,(3, 145),4	1008,(3, 160),12	1020,(3, 99),4	1024,(3, 120),4	1028,(3, 28),4	1032,(6, 188),4	1036,(13, 124),4	1040,(3, 124),4	1044,(3, 70),4	1048,(3, 185),40	1088,(3, 176),24	1112,(3, 112),40	1152,(13, 100),4	1156,(13, 147),4	1167,(164, 201),56	1223,(6, 197),44	1267,(5, 62),4	1271,(3, 50),4	1275,(5, 41),16	1298,(3, 27),4	1306,(9, 156),4	1310,(9, 66),4	1314,(9, 80),16	1330,(9, 127),4	1334,(9, 189),4	1338,(9, 107),8	1346,(9, 181),8	1354,(9, 44),20	1374,(9, 48),12	1386,(9, 79),12	1398,(9, 55),12	1410,(5, 134),16	1426,(5, 153),12	1438,(5, 193),8	1446,(9, 29),20	1466,(18, 52),12	1478,(5, 183),4	1482,(3, 84),4	1489,(67, 201),56	1545,(13, 153),48	1593,(9, 146),28	1621,(18, 26),8	1629,(13, 26),8	1693,(13, 39),16	1709,(9, 100),4	1716,(25, 201),56	1772,(3, 43),44	1816,(18, 188),24	1840,(6, 62),28	1868,(13, 135),8	1876,(6, 135),8	1884,(9, 60),4	1888,(5, 81),4	1899,(191, 201),56	1956,(3, 62),40	1996,(6, 143),4	2000,(9, 143),4	2004,(13, 103),4	2016,(18, 56),16	2032,(3, 100),24	2082,(38, 201),56	2138,(3, 71),68	2206,(3, 45),44	2250,(6, 186),8	2265,(168, 201),56	2321,(6, 183),64	2385,(6, 42),44	2429,(18, 180),8	2448,(149, 201),56	2536,(6, 34),72	2631,(85, 201),56	2687,(5, 36),52	2739,(9, 169),44	2783,(5, 147),24	2814,(165, 201),56	2870,(9, 135),44	2914,(6, 103),4	2918,(18, 69),4	2922,(6, 69),4	2926,(3, 51),8	2934,(5, 143),16	2950,(13, 46),8	2958,(6, 124),36	2997,(123, 201),56	3053,(9, 96),72	3125,(3, 143),48	3180,(167, 201),56	3236,(9, 186),28	3264,(3, 129),16	3280,(18, 46),12	3292,(9, 106),4	3300,(18, 147),44	3363,(154, 201),56	3419,(9, 56),120	3546,(35, 201),56	3654,(3, 147),60	3715,(18, 22),4	3729,(65, 201),56	3785,(5, 100),120	3912,(161, 201),56	3968,(6, 159),100	4068,(3, 175),20	4095,(152, 201),56	4151,(5, 137),108	4278,(131, 201),56	4334,(5, 186),84	4418,(6, 63),32	4461,(138, 201),56	4517,(5, 129),64	4581,(18, 63),48	4644,(101, 201),56	4700,(5, 69),52	4752,(5, 46),52	4827,(192, 201),56	4883,(9, 46),68	5010,(78, 201),56	5122,(9, 116),44	5222,(133, 201),56	5278,(13, 121),68	5390,(54, 201),56	5502,(13, 136),48	5606,(32, 201),56	5774,(58, 201),56	5830,(3, 81),140	5994,(141, 201),56	6162,(148, 201),56	6306,(9, 87),24	6386,(31, 201),56	6554,(174, 201),56	6666,(5, 172),32	6698,(9, 172),44	6798,(170, 201),56	6966,(86, 201),56	7078,(13, 41),64	7214,(142, 201),56	7382,(73, 201),56	7510,(9, 23),76	7642,(94, 201),56	7810,(53, 201),56	7866,(3, 103),132	8090,(173, 201),56	8258,(132, 201),56	8314,(5, 180),156	8554,(83, 201),56	8722,(199, 201),56	8778,(9, 175),128	8946,(13, 126),16	9018,(195, 201),56	9186,(24, 201),56	9298,(13, 104),88	9554,(88, 201),56	9722,(72, 201),56	9834,(18, 64),56	10102,(118, 201),56	10270,(166, 201),56	10382,(5, 90),160	10666,(184, 201),56	10722,(49, 201),56	10778,(92, 201),56	10834,(76, 201),56	11306,(3, 122),376	11730,(13, 106),336	
594,(14, 102),4	598,(17, 198),4	602,(14, 191),4	606,(17, 149),4	610,(17, 110),4	614,(17, 80),4	618,(14, 38),16	634,(16, 117),16	650,(17, 89),4	654,(14, 165),16	670,(14, 160),8	678,(14, 123),8	686,(17, 91),12	698,(17, 167),4	702,(17, 154),16	718,(14, 154),4	722,(17, 79),8	730,(17, 55),4	734,(17, 29),4	741,(16, 35),4	745,(14, 65),8	753,(16, 44),4	777,(16, 107),4	797,(14, 161),4	801,(144, 201),56	857,(16, 154),24	881,(14, 35),40	921,(16, 55),12	933,(14, 29),4	937,(14, 54),4	944,(16, 140),4	948,(17, 193),4	952,(125, 201),56	1008,(16, 65),28	1036,(14, 111),28	1064,(14, 131),48	1112,(16, 138),16	1128,(14, 62),4	1135,(8, 75),8	1143,(8, 85),12	1155,(8, 189),44	1199,(8, 161),8	1207,(14, 138),16	1223,(8, 157),4	1227,(8, 79),8	1235,(8, 140),36	1271,(16, 139),16	1287,(8, 98),20	1314,(16, 172),4	1318,(30, 201),56	1374,(17, 133),44	1418,(17, 32),24	1442,(14, 58),4	1446,(17, 71),4	1450,(8, 183),4	1454,(16, 32),12	1466,(8, 148),8	1474,(17, 59),12	1486,(8, 52),40	1526,(16, 145),12	1538,(17, 42),4	1545,(156, 201),56	1601,(17, 58),36	1637,(14, 193),56	1693,(17, 141),24	1717,(14, 141),28	1745,(14, 31),16	1765,(14, 142),4	1772,(33, 201),56	1828,(14, 59),12	1840,(14, 148),52	1892,(17, 188),20	1955,(74, 201),56	2011,(16, 71),28	2039,(16, 183),32	2071,(16, 26),64	2138,(150, 201),56	2194,(16, 170),28	2222,(8, 42),20	2242,(16, 84),4	2246,(17, 103),4	2250,(8, 86),56	2306,(16, 142),8	2314,(17, 94),4	2321,(158, 201),56	2377,(17, 41),12	2389,(17, 142),28	2417,(17, 73),52	2469,(8, 94),4	2473,(16, 199),20	2493,(14, 72),4	2497,(16, 118),4	2504,(113, 201),56	2560,(14, 84),32	2592,(14, 169),52	2644,(8, 103),4	2648,(14, 129),24	2672,(17, 119),8	2680,(8, 119),4	2687,(194, 201),56	2743,(14, 51),4	2747,(8, 51),4	2751,(16, 106),4	2783,(14, 60),48	2831,(17, 22),12	2851,(8, 199),12	2870,(61, 201),56	2926,(17, 24),20	2946,(14, 88),28	2974,(17, 118),24	2998,(16, 166),36	3034,(14, 166),4	3053,(37, 201),56	3109,(14, 104),8	3170,(14, 184),4	3174,(16, 92),4	3236,(105, 201),56	3292,(8, 143),76	3368,(14, 119),36	3419,(151, 201),56	3475,(17, 129),52	3527,(16, 46),44	3602,(127, 201),56	3785,(196, 201),56	3841,(16, 69),84	3968,(120, 201),56	4151,(181, 201),56	4207,(17, 92),48	4334,(28, 201),56	4390,(8, 49),84	4517,(93, 201),56	4700,(176, 201),56	4883,(109, 201),56	5066,(182, 201),56	5122,(16, 22),152	5278,(68, 201),56	5446,(112, 201),56	5502,(8, 92),124	5662,(146, 201),56	5830,(171, 201),56	5886,(16, 115),20	6050,(43, 201),56	6218,(39, 201),56	6442,(114, 201),56	6610,(108, 201),56	6854,(200, 201),56	7022,(45, 201),56	7142,(16, 41),16	7270,(34, 201),56	7438,(36, 201),56	7494,(16, 23),16	7698,(190, 201),56	7866,(96, 201),56	8146,(56, 201),56	8314,(124, 201),56	8370,(17, 27),44	8610,(100, 201),56	8778,(147, 201),56	9074,(159, 201),56	9242,(186, 201),56	9610,(180, 201),56	9778,(63, 201),56	10158,(175, 201),56	10326,(121, 201),56	10542,(8, 90),68	10890,(16, 122),372	12086,(8, 106),28	
