2932
# CPU
45,5,1	46,39,1	47,84,1	48,46,1	49,57,1	50,63,1	61,82,1	66,61,1	67,80,1	69,86,1	89,10,1	90,101,1	101,21,1	103,24,1	125,51,1	144,65,1	147,92,1	188,64,1	189,76,1	191,105,1	192,110,1	208,120,1	209,18,1	228,33,1	231,69,1	240,97,1	241,89,1	250,54,1	251,37,1	254,116,1	255,67,1	279,43,1	302,72,1	314,78,1	316,70,1	318,74,1	336,71,1	413,66,1	435,73,1	457,113,1	
34,4,1	35,79,1	36,115,1	41,77,1	42,81,1	47,32,1	49,35,1	50,48,1	78,9,1	79,40,1	80,91,1	101,75,1	102,23,1	129,53,1	131,56,1	148,109,1	149,112,1	179,96,1	239,85,1	240,17,1	241,119,1	246,83,1	255,59,1	265,36,1	275,104,1	291,88,1	334,44,1	400,62,1	446,100,1	
23,3,1	24,16,1	25,38,1	26,28,1	36,13,1	38,99,1	52,114,1	67,8,1	68,103,1	114,31,1	115,47,1	206,118,1	212,20,1	233,41,1	239,107,1	246,52,1	254,55,1	256,117,1	334,111,1	501,68,1	1006,90,1	1105,60,1	1116,87,1	1156,30,1	1161,58,1	1164,95,1	2931,121,1	
12,2,1	13,26,1	56,7,1	57,98,1	58,15,1	59,27,1	60,108,1	67,106,1	100,12,1	101,102,1	145,50,1	186,45,1	224,29,1	313,34,1	375,94,1	
0,0,1	1,6,1	2,1,1	3,11,1	4,22,1	5,49,1	237,93,1	241,14,1	246,19,1	269,25,1	317,42,1	
# Incoming
34,(0, 5),11	45,(2, 82),16	61,(4, 61),5	66,(4, 80),1	67,(4, 86),2	78,(0, 10),11	100,(6, 21),1	102,(6, 24),1	115,(6, 51),10	131,(6, 65),13	144,(6, 92),3	186,(9, 64),2	188,(9, 76),1	189,(9, 105),2	191,(9, 110),1	206,(6, 120),2	208,(1, 18),1	224,(1, 33),4	228,(1, 69),3	239,(1, 97),1	240,(12, 89),1	246,(11, 54),4	250,(3, 37),1	251,(3, 116),3	254,(8, 67),1	265,(3, 43),14	279,(7, 72),23	302,(7, 78),12	314,(12, 70),2	316,(12, 74),2	334,(8, 71),2	400,(12, 66),13	413,(12, 73),22	446,(12, 113),11	
23,(0, 4),11	34,(2, 77),7	41,(2, 81),1	46,(5, 32),1	47,(5, 35),2	49,(5, 48),1	67,(0, 9),11	90,(10, 75),11	101,(6, 23),1	125,(6, 53),4	129,(6, 56),2	147,(6, 109),1	148,(6, 112),1	149,(10, 96),30	231,(1, 85),8	239,(7, 17),1	240,(1, 119),1	241,(7, 83),5	254,(11, 59),1	255,(3, 36),10	269,(12, 104),6	279,(3, 88),12	313,(8, 44),21	365,(12, 62),35	435,(12, 100),11	
12,(0, 3),11	35,(4, 13),1	36,(4, 99),2	50,(5, 114),2	56,(0, 8),11	69,(79, 121),31	103,(6, 31),11	114,(6, 47),1	115,(39, 121),31	149,(6, 118),57	209,(1, 20),3	212,(9, 41),21	237,(7, 107),2	241,(11, 52),5	250,(11, 55),4	255,(11, 117),1	256,(22, 121),31	287,(49, 121),31	318,(2, 111),16	334,(26, 121),31	365,(115, 121),31	396,(77, 121),31	427,(81, 121),31	458,(5, 68),43	501,(32, 121),31	532,(84, 121),31	563,(46, 121),31	594,(35, 121),31	625,(57, 121),31	656,(48, 121),31	687,(63, 121),31	718,(98, 121),31	749,(15, 121),31	780,(27, 121),31	811,(108, 121),31	842,(82, 121),31	873,(61, 121),31	904,(106, 121),31	935,(80, 121),31	966,(86, 121),31	997,(9, 90),9	1006,(40, 121),31	1037,(91, 121),31	1068,(10, 60),37	1105,(10, 87),11	1116,(101, 121),31	1147,(12, 30),9	1156,(12, 58),5	1161,(12, 95),3	1164,(75, 121),31	1195,(102, 121),31	1226,(21, 121),31	1257,(23, 121),31	1288,(24, 121),31	1319,(51, 121),31	1350,(53, 121),31	1381,(56, 121),31	1412,(65, 121),31	1443,(50, 121),31	1474,(92, 121),31	1505,(109, 121),31	1536,(112, 121),31	1567,(96, 121),31	1598,(45, 121),31	1629,(64, 121),31	1660,(76, 121),31	1691,(105, 121),31	1722,(110, 121),31	1753,(120, 121),31	1784,(18, 121),31	1815,(29, 121),31	1846,(33, 121),31	1877,(69, 121),31	1908,(93, 121),31	1939,(85, 121),31	1970,(17, 121),31	2001,(97, 121),31	2032,(14, 121),31	2063,(89, 121),31	2094,(119, 121),31	2125,(83, 121),31	2156,(19, 121),31	2187,(54, 121),31	2218,(37, 121),31	2249,(116, 121),31	2280,(67, 121),31	2311,(59, 121),31	2342,(36, 121),31	2373,(25, 121),31	2404,(104, 121),31	2435,(43, 121),31	2466,(88, 121),31	2497,(72, 121),31	2528,(34, 121),31	2559,(78, 121),31	2590,(70, 121),31	2621,(42, 121),31	2652,(74, 121),31	2683,(44, 121),31	2714,(71, 121),31	2745,(94, 121),31	2776,(62, 121),31	2807,(66, 121),31	2838,(73, 121),31	2869,(100, 121),31	2900,(113, 121),31	
1,(0, 2),11	45,(0, 7),11	56,(5, 98),1	57,(5, 106),10	89,(0, 12),11	100,(4, 50),45	145,(9, 45),41	212,(1, 29),12	291,(8, 34),22	336,(8, 94),39	
61,(2, 93),176	237,(3, 14),4	241,(3, 19),5	246,(7, 25),23	269,(10, 42),48	
# Outgoing
46,(5, 32),1	47,(5, 35),2	49,(5, 48),1	50,(5, 114),2	56,(5, 98),1	57,(5, 106),10	90,(10, 75),11	115,(39, 121),31	149,(10, 96),30	269,(10, 42),48	458,(5, 68),43	532,(84, 121),31	563,(46, 121),31	625,(57, 121),31	687,(63, 121),31	842,(82, 121),31	873,(61, 121),31	935,(80, 121),31	966,(86, 121),31	1068,(10, 60),37	1105,(10, 87),11	1116,(101, 121),31	1226,(21, 121),31	1288,(24, 121),31	1319,(51, 121),31	1412,(65, 121),31	1474,(92, 121),31	1629,(64, 121),31	1660,(76, 121),31	1691,(105, 121),31	1722,(110, 121),31	1753,(120, 121),31	1784,(18, 121),31	1846,(33, 121),31	1877,(69, 121),31	2001,(97, 121),31	2063,(89, 121),31	2187,(54, 121),31	2218,(37, 121),31	2249,(116, 121),31	2280,(67, 121),31	2435,(43, 121),31	2497,(72, 121),31	2559,(78, 121),31	2590,(70, 121),31	2652,(74, 121),31	2714,(71, 121),31	2807,(66, 121),31	2838,(73, 121),31	2900,(113, 121),31	
35,(4, 13),1	36,(4, 99),2	61,(4, 61),5	66,(4, 80),1	67,(4, 86),2	69,(79, 121),31	100,(4, 50),45	145,(9, 45),41	186,(9, 64),2	188,(9, 76),1	189,(9, 105),2	191,(9, 110),1	212,(9, 41),21	365,(115, 121),31	396,(77, 121),31	427,(81, 121),31	501,(32, 121),31	594,(35, 121),31	656,(48, 121),31	997,(9, 90),9	1006,(40, 121),31	1037,(91, 121),31	1164,(75, 121),31	1257,(23, 121),31	1350,(53, 121),31	1381,(56, 121),31	1505,(109, 121),31	1536,(112, 121),31	1567,(96, 121),31	1939,(85, 121),31	1970,(17, 121),31	2094,(119, 121),31	2125,(83, 121),31	2311,(59, 121),31	2342,(36, 121),31	2404,(104, 121),31	2466,(88, 121),31	2683,(44, 121),31	2776,(62, 121),31	2869,(100, 121),31	
237,(3, 14),4	241,(3, 19),5	250,(3, 37),1	251,(3, 116),3	254,(8, 67),1	255,(3, 36),10	265,(3, 43),14	279,(3, 88),12	291,(8, 34),22	313,(8, 44),21	334,(8, 71),2	336,(8, 94),39	
34,(2, 77),7	41,(2, 81),1	45,(2, 82),16	61,(2, 93),176	237,(7, 107),2	239,(7, 17),1	240,(12, 89),1	241,(7, 83),5	246,(7, 25),23	269,(12, 104),6	279,(7, 72),23	302,(7, 78),12	314,(12, 70),2	316,(12, 74),2	318,(2, 111),16	334,(26, 121),31	365,(12, 62),35	400,(12, 66),13	413,(12, 73),22	435,(12, 100),11	446,(12, 113),11	718,(98, 121),31	749,(15, 121),31	780,(27, 121),31	811,(108, 121),31	904,(106, 121),31	1147,(12, 30),9	1156,(12, 58),5	1161,(12, 95),3	1195,(102, 121),31	1443,(50, 121),31	1598,(45, 121),31	1815,(29, 121),31	2528,(34, 121),31	2745,(94, 121),31	
1,(0, 2),11	12,(0, 3),11	23,(0, 4),11	34,(0, 5),11	45,(0, 7),11	56,(0, 8),11	67,(0, 9),11	78,(0, 10),11	89,(0, 12),11	100,(6, 21),1	101,(6, 23),1	102,(6, 24),1	103,(6, 31),11	114,(6, 47),1	115,(6, 51),10	125,(6, 53),4	129,(6, 56),2	131,(6, 65),13	144,(6, 92),3	147,(6, 109),1	148,(6, 112),1	149,(6, 118),57	206,(6, 120),2	208,(1, 18),1	209,(1, 20),3	212,(1, 29),12	224,(1, 33),4	228,(1, 69),3	231,(1, 85),8	239,(1, 97),1	240,(1, 119),1	241,(11, 52),5	246,(11, 54),4	250,(11, 55),4	254,(11, 59),1	255,(11, 117),1	256,(22, 121),31	287,(49, 121),31	1908,(93, 121),31	2032,(14, 121),31	2156,(19, 121),31	2373,(25, 121),31	2621,(42, 121),31	
