7751
# CPU
730,10,1	731,49,1	732,56,1	733,111,1	734,119,1	735,82,1	736,83,1	737,95,1	739,46,1	742,99,1	769,101,1	787,67,1	808,93,1	814,61,1	817,45,1	835,97,1	838,71,1	850,90,1	853,113,1	856,63,1	859,77,1	868,105,1	871,84,1	896,104,1	910,86,1	1210,109,1	1313,66,1	1331,107,1	1337,108,1	1606,74,1	1816,117,1	
649,9,1	667,62,1	670,73,1	673,94,1	703,100,1	715,102,1	718,50,1	727,91,1	739,118,1	748,44,1	751,70,1	763,110,1	766,41,1	778,52,1	818,48,1	847,98,1	853,115,1	887,75,1	901,85,1	925,78,1	952,96,1	988,103,1	1651,89,1	1792,112,1	
568,8,1	569,43,1	577,35,1	607,65,1	640,81,1	799,55,1	830,53,1	1645,87,1	
487,7,1	502,37,1	523,54,1	556,59,1	743,33,1	844,80,1	868,57,1	1310,42,1	
406,6,1	437,39,1	527,64,1	763,22,1	775,30,1	875,40,1	920,79,1	1292,31,1	
325,5,1	326,76,1	328,20,1	376,38,1	457,120,1	524,26,1	575,23,1	842,34,1	
244,4,1	245,32,1	359,60,1	488,47,1	760,21,1	814,19,1	898,69,1	1642,51,1	1789,106,1	1810,29,1	7750,121,1	
163,3,1	164,18,1	165,92,1	806,27,1	1147,116,1	1264,28,1	1336,36,1	1453,68,1	1603,72,1	
82,2,1	413,17,1	416,16,1	811,12,1	1207,88,1	1477,58,1	1801,114,1	
0,0,1	1,1,1	2,11,1	287,15,1	290,13,1	509,14,1	779,24,1	1277,25,1	
# Incoming
649,(0, 10),81	730,(2, 46),9	739,(2, 99),3	742,(2, 101),27	769,(3, 67),18	787,(3, 93),21	808,(4, 61),6	814,(1, 45),3	817,(3, 97),18	835,(5, 71),3	838,(5, 90),12	850,(6, 113),3	853,(7, 63),3	856,(7, 77),3	859,(7, 105),9	868,(12, 84),3	887,(8, 104),9	901,(1, 86),9	1207,(1, 109),3	1310,(9, 66),3	1313,(9, 107),18	1331,(9, 108),6	1603,(11, 74),3	1792,(11, 117),24	
568,(0, 9),81	649,(2, 62),18	667,(2, 73),3	670,(2, 94),3	673,(2, 100),30	703,(2, 102),12	715,(3, 50),3	718,(3, 91),9	727,(3, 118),12	739,(4, 44),9	748,(5, 70),3	751,(5, 110),12	763,(10, 41),3	766,(10, 52),12	812,(12, 48),6	844,(10, 98),3	847,(10, 115),6	875,(8, 75),12	898,(1, 85),3	901,(8, 78),24	925,(8, 96),27	952,(10, 103),36	1645,(11, 89),6	1789,(11, 112),3	
487,(0, 8),81	568,(2, 35),9	577,(3, 65),30	607,(6, 81),33	778,(10, 55),21	818,(12, 53),12	1606,(11, 87),39	
406,(0, 7),81	487,(3, 37),15	502,(4, 54),21	523,(6, 59),33	731,(10, 33),12	799,(10, 80),45	844,(12, 57),24	1292,(9, 42),18	
325,(0, 6),81	416,(5, 39),21	488,(5, 64),39	760,(9, 22),3	763,(9, 30),12	842,(8, 40),33	875,(12, 79),45	1277,(9, 31),15	
244,(0, 5),81	325,(2, 20),3	328,(2, 38),48	376,(3, 120),81	509,(7, 26),15	569,(8, 23),6	806,(8, 34),36	
163,(0, 4),81	287,(3, 60),72	437,(5, 47),51	502,(18, 121),69	607,(92, 121),69	676,(76, 121),69	745,(9, 21),15	811,(1, 19),3	817,(1, 69),81	898,(20, 121),69	967,(38, 121),69	1036,(17, 121),69	1105,(16, 121),69	1174,(39, 121),69	1243,(120, 121),69	1312,(37, 121),69	1381,(54, 121),69	1450,(64, 121),69	1519,(59, 121),69	1588,(8, 51),54	1651,(11, 106),138	1789,(9, 29),21	1816,(15, 121),69	1885,(13, 121),69	1954,(14, 121),69	2023,(26, 121),69	2092,(43, 121),69	2161,(23, 121),69	2230,(35, 121),69	2299,(65, 121),69	2368,(81, 121),69	2437,(62, 121),69	2506,(73, 121),69	2575,(94, 121),69	2644,(100, 121),69	2713,(102, 121),69	2782,(50, 121),69	2851,(91, 121),69	2920,(49, 121),69	2989,(56, 121),69	3058,(111, 121),69	3127,(119, 121),69	3196,(82, 121),69	3265,(83, 121),69	3334,(95, 121),69	3403,(118, 121),69	3472,(46, 121),69	3541,(99, 121),69	3610,(33, 121),69	3679,(44, 121),69	3748,(70, 121),69	3817,(110, 121),69	3886,(22, 121),69	3955,(41, 121),69	4024,(101, 121),69	4093,(30, 121),69	4162,(52, 121),69	4231,(24, 121),69	4300,(67, 121),69	4369,(55, 121),69	4438,(27, 121),69	4507,(93, 121),69	4576,(61, 121),69	4645,(45, 121),69	4714,(48, 121),69	4783,(53, 121),69	4852,(97, 121),69	4921,(71, 121),69	4990,(34, 121),69	5059,(80, 121),69	5128,(98, 121),69	5197,(90, 121),69	5266,(115, 121),69	5335,(113, 121),69	5404,(63, 121),69	5473,(77, 121),69	5542,(57, 121),69	5611,(105, 121),69	5680,(84, 121),69	5749,(40, 121),69	5818,(75, 121),69	5887,(104, 121),69	5956,(85, 121),69	6025,(86, 121),69	6094,(79, 121),69	6163,(78, 121),69	6232,(96, 121),69	6301,(103, 121),69	6370,(116, 121),69	6439,(88, 121),69	6508,(109, 121),69	6577,(28, 121),69	6646,(25, 121),69	6715,(31, 121),69	6784,(42, 121),69	6853,(66, 121),69	6922,(107, 121),69	6991,(36, 121),69	7060,(108, 121),69	7129,(68, 121),69	7198,(58, 121),69	7267,(72, 121),69	7336,(74, 121),69	7405,(87, 121),69	7474,(89, 121),69	7543,(112, 121),69	7612,(114, 121),69	7681,(117, 121),69	
82,(0, 3),81	779,(8, 27),27	853,(6, 116),294	1210,(11, 28),54	1264,(11, 36),72	1336,(10, 68),117	1477,(11, 72),126	
1,(0, 2),81	290,(4, 17),123	413,(5, 16),3	730,(0, 12),81	910,(1, 88),297	1336,(11, 58),141	1477,(5, 114),324	
164,(3, 15),123	287,(4, 13),3	488,(7, 14),21	575,(8, 24),204	779,(9, 25),498	
# Outgoing
731,(10, 33),12	763,(10, 41),3	766,(10, 52),12	778,(10, 55),21	799,(10, 80),45	844,(10, 98),3	847,(10, 115),6	952,(10, 103),36	1336,(10, 68),117	2920,(49, 121),69	2989,(56, 121),69	3058,(111, 121),69	3127,(119, 121),69	3196,(82, 121),69	3265,(83, 121),69	3334,(95, 121),69	3472,(46, 121),69	3541,(99, 121),69	4024,(101, 121),69	4300,(67, 121),69	4507,(93, 121),69	4576,(61, 121),69	4645,(45, 121),69	4852,(97, 121),69	4921,(71, 121),69	5197,(90, 121),69	5335,(113, 121),69	5404,(63, 121),69	5473,(77, 121),69	5611,(105, 121),69	5680,(84, 121),69	5887,(104, 121),69	6025,(86, 121),69	6508,(109, 121),69	6853,(66, 121),69	6922,(107, 121),69	7060,(108, 121),69	7336,(74, 121),69	7681,(117, 121),69	
745,(9, 21),15	760,(9, 22),3	763,(9, 30),12	779,(9, 25),498	1277,(9, 31),15	1292,(9, 42),18	1310,(9, 66),3	1313,(9, 107),18	1331,(9, 108),6	1789,(9, 29),21	2437,(62, 121),69	2506,(73, 121),69	2575,(94, 121),69	2644,(100, 121),69	2713,(102, 121),69	2782,(50, 121),69	2851,(91, 121),69	3403,(118, 121),69	3679,(44, 121),69	3748,(70, 121),69	3817,(110, 121),69	3955,(41, 121),69	4162,(52, 121),69	4714,(48, 121),69	5128,(98, 121),69	5266,(115, 121),69	5818,(75, 121),69	5956,(85, 121),69	6163,(78, 121),69	6232,(96, 121),69	6301,(103, 121),69	7474,(89, 121),69	7543,(112, 121),69	
569,(8, 23),6	575,(8, 24),204	779,(8, 27),27	806,(8, 34),36	842,(8, 40),33	875,(8, 75),12	887,(8, 104),9	901,(8, 78),24	925,(8, 96),27	1588,(8, 51),54	2092,(43, 121),69	2230,(35, 121),69	2299,(65, 121),69	2368,(81, 121),69	4369,(55, 121),69	4783,(53, 121),69	7405,(87, 121),69	
488,(7, 14),21	509,(7, 26),15	853,(7, 63),3	856,(7, 77),3	859,(7, 105),9	1312,(37, 121),69	1381,(54, 121),69	1519,(59, 121),69	3610,(33, 121),69	5059,(80, 121),69	5542,(57, 121),69	6784,(42, 121),69	
523,(6, 59),33	607,(6, 81),33	850,(6, 113),3	853,(6, 116),294	1174,(39, 121),69	1450,(64, 121),69	3886,(22, 121),69	4093,(30, 121),69	5749,(40, 121),69	6094,(79, 121),69	6715,(31, 121),69	
413,(5, 16),3	416,(5, 39),21	437,(5, 47),51	488,(5, 64),39	676,(76, 121),69	748,(5, 70),3	751,(5, 110),12	835,(5, 71),3	838,(5, 90),12	898,(20, 121),69	967,(38, 121),69	1243,(120, 121),69	1477,(5, 114),324	2023,(26, 121),69	2161,(23, 121),69	4990,(34, 121),69	
287,(4, 13),3	290,(4, 17),123	502,(4, 54),21	739,(4, 44),9	808,(4, 61),6	
164,(3, 15),123	287,(3, 60),72	376,(3, 120),81	487,(3, 37),15	502,(18, 121),69	577,(3, 65),30	607,(92, 121),69	715,(3, 50),3	718,(3, 91),9	727,(3, 118),12	769,(3, 67),18	787,(3, 93),21	817,(3, 97),18	4438,(27, 121),69	6370,(116, 121),69	6577,(28, 121),69	6991,(36, 121),69	7129,(68, 121),69	7267,(72, 121),69	
325,(2, 20),3	328,(2, 38),48	568,(2, 35),9	649,(2, 62),18	667,(2, 73),3	670,(2, 94),3	673,(2, 100),30	703,(2, 102),12	730,(2, 46),9	739,(2, 99),3	742,(2, 101),27	812,(12, 48),6	818,(12, 53),12	844,(12, 57),24	868,(12, 84),3	875,(12, 79),45	1036,(17, 121),69	1105,(16, 121),69	6439,(88, 121),69	7198,(58, 121),69	7612,(114, 121),69	
1,(0, 2),81	82,(0, 3),81	163,(0, 4),81	244,(0, 5),81	325,(0, 6),81	406,(0, 7),81	487,(0, 8),81	568,(0, 9),81	649,(0, 10),81	730,(0, 12),81	811,(1, 19),3	814,(1, 45),3	817,(1, 69),81	898,(1, 85),3	901,(1, 86),9	910,(1, 88),297	1207,(1, 109),3	1210,(11, 28),54	1264,(11, 36),72	1336,(11, 58),141	1477,(11, 72),126	1603,(11, 74),3	1606,(11, 87),39	1645,(11, 89),6	1651,(11, 106),138	1789,(11, 112),3	1792,(11, 117),24	1816,(15, 121),69	1885,(13, 121),69	1954,(14, 121),69	4231,(24, 121),69	6646,(25, 121),69	
