14296
# CPU
19,4,6	37,8,6	55,12,6	541,16,6	941,80,6	1611,52,6	1655,68,6	1745,84,6	1757,96,6	1773,100,6	1785,120,6	1945,28,6	2017,32,6	2351,40,6	3221,76,6	3253,88,6	3467,20,6	3493,24,6	3511,36,6	3517,44,6	3671,56,6	3679,60,6	3715,64,6	3729,72,6	3767,92,6	3781,104,6	3815,108,6	3847,112,6	3957,116,6	5371,48,6	
13,3,6	31,7,6	49,11,6	1011,43,6	1019,47,6	1373,19,6	1729,15,6	2349,39,6	2799,71,6	2865,99,6	2933,59,6	3027,63,6	3125,27,6	3299,95,6	3411,115,6	3485,23,6	3495,31,6	3509,35,6	3563,51,6	3669,55,6	3737,75,6	3743,83,6	3749,87,6	3755,91,6	3771,103,6	3813,107,6	3845,111,6	4149,67,6	4341,79,6	14129,119,6	
7,2,6	25,6,6	43,10,6	937,18,6	2081,58,6	2839,30,6	2895,54,6	3189,74,6	3333,86,6	4553,34,6	4801,14,6	4807,22,6	4813,38,6	4891,62,6	4897,66,6	4903,70,6	5029,102,6	5035,106,6	5071,110,6	5447,42,6	5557,94,6	14143,26,6	14165,46,6	14191,50,6	14219,78,6	14225,82,6	14231,90,6	14245,98,6	14269,114,6	14275,118,6	
0,0,1	1,9,6	7,5,6	13,1,6	1367,93,6	2719,69,6	2841,57,6	2859,81,6	2899,109,6	2991,41,6	3013,61,6	3041,65,6	3189,97,6	3201,105,6	3219,113,6	3229,117,6	3277,17,6	3283,21,6	3289,25,6	3295,29,6	3301,33,6	3307,49,6	3313,85,6	3923,13,6	3945,37,6	3959,45,6	3965,101,6	4157,53,6	4169,73,6	4179,77,6	4345,89,6	14295,121,1	
# Incoming
13,(0, 4),6	31,(0, 8),6	49,(0, 12),6	65,(2, 24),6	75,(2, 32),2	77,(2, 52),2	79,(2, 56),2	81,(9, 20),2	83,(9, 24),14	103,(9, 40),2	153,(9, 48),54	207,(2, 44),32	239,(2, 64),14	253,(3, 28),2	255,(3, 32),2	257,(3, 40),2	259,(3, 44),6	265,(3, 56),2	267,(3, 60),2	269,(3, 68),4	273,(3, 88),12	285,(3, 108),2	287,(2, 72),8	295,(2, 76),42	347,(3, 92),4	351,(7, 24),2	353,(7, 44),4	357,(7, 56),6	363,(7, 60),4	367,(7, 92),2	369,(2, 100),2	375,(9, 56),12	387,(2, 84),14	423,(2, 104),12	435,(6, 24),2	437,(6, 44),2	439,(6, 56),8	447,(9, 64),50	497,(3, 16),44	545,(2, 96),28	573,(3, 84),46	619,(7, 100),2	621,(2, 108),16	637,(6, 48),32	669,(6, 52),18	693,(3, 112),56	749,(6, 60),4	753,(6, 68),4	777,(7, 104),2	779,(6, 76),16	795,(6, 84),22	817,(7, 76),8	825,(7, 116),6	831,(11, 64),2	833,(6, 92),2	835,(7, 108),10	845,(6, 100),20	865,(6, 104),2	867,(6, 116),4	871,(7, 32),48	919,(7, 88),14	933,(9, 80),8	941,(7, 120),8	949,(11, 24),8	957,(11, 104),2	989,(11, 52),26	1015,(11, 56),4	1019,(11, 108),2	1031,(9, 92),70	1101,(6, 108),74	1175,(11, 100),4	1179,(10, 20),2	1181,(9, 96),26	1207,(6, 112),64	1271,(6, 120),12	1283,(10, 24),8	1349,(10, 28),2	1351,(10, 36),6	1357,(10, 44),2	1359,(10, 48),2	1361,(10, 56),2	1365,(10, 40),20	1405,(11, 28),42	1447,(11, 88),22	1477,(9, 104),18	1511,(9, 108),2	1513,(9, 112),46	1559,(10, 72),12	1571,(10, 88),6	1577,(9, 120),8	1585,(10, 52),26	1611,(10, 68),44	1655,(10, 76),20	1675,(10, 84),70	1745,(10, 92),10	1755,(10, 96),2	1757,(10, 100),16	1773,(10, 108),2	1775,(10, 112),2	1777,(10, 120),8	1867,(5, 24),4	1943,(5, 28),2	1949,(5, 32),68	2025,(5, 36),304	2349,(5, 40),2	2351,(11, 36),190	2541,(11, 92),62	2699,(5, 44),14	2827,(5, 48),12	2897,(5, 56),32	2933,(5, 60),80	3173,(5, 72),6	3193,(5, 76),28	3251,(5, 88),2	3359,(5, 108),2	3461,(1, 20),6	3485,(1, 24),8	3509,(1, 36),2	3511,(1, 44),2	3513,(1, 48),46	3669,(1, 56),2	3671,(1, 60),8	3679,(1, 64),36	3715,(1, 72),14	3751,(1, 92),16	3771,(1, 104),10	3813,(1, 108),2	3845,(1, 112),2	3847,(1, 116),110	4553,(3, 48),818	
7,(0, 3),6	25,(0, 7),6	43,(0, 11),6	57,(9, 19),24	81,(2, 27),2	103,(2, 31),2	143,(9, 47),10	155,(2, 63),20	175,(2, 71),4	189,(2, 79),2	191,(2, 87),2	195,(2, 95),4	199,(2, 99),2	205,(6, 39),2	327,(9, 51),24	371,(2, 111),8	379,(6, 19),6	385,(6, 47),2	399,(9, 59),32	433,(9, 63),14	447,(2, 83),98	545,(4, 27),2	547,(4, 31),26	573,(4, 35),6	579,(4, 39),2	581,(4, 47),24	605,(4, 59),6	611,(4, 63),8	619,(4, 67),6	625,(4, 71),2	627,(4, 75),14	641,(4, 79),30	671,(4, 83),4	675,(4, 87),2	677,(4, 111),10	687,(6, 23),8	695,(6, 31),32	727,(6, 35),14	741,(6, 59),4	745,(6, 63),2	747,(6, 67),2	749,(4, 119),8	757,(6, 43),10	767,(6, 71),12	817,(6, 87),14	831,(6, 91),2	835,(6, 95),10	871,(8, 19),22	893,(8, 23),14	907,(8, 47),20	927,(8, 75),2	929,(8, 83),4	933,(12, 67),2	941,(8, 87),10	951,(8, 95),8	959,(9, 83),38	997,(8, 91),10	1007,(12, 43),4	1011,(9, 87),4	1015,(12, 47),4	1019,(12, 119),2	1021,(9, 91),10	1031,(4, 51),260	1291,(6, 103),14	1305,(6, 107),10	1315,(6, 115),16	1331,(6, 119),18	1349,(8, 99),14	1363,(10, 39),2	1365,(12, 19),8	1385,(10, 55),6	1391,(10, 59),6	1397,(10, 71),4	1401,(9, 99),4	1405,(8, 35),42	1447,(8, 39),30	1497,(9, 107),14	1539,(10, 87),8	1547,(10, 115),2	1565,(9, 119),12	1675,(5, 15),54	1731,(5, 23),136	1873,(5, 27),70	1945,(5, 31),4	1949,(10, 79),32	1981,(10, 99),34	2019,(5, 35),6	2025,(10, 27),128	2153,(10, 95),46	2199,(10, 103),22	2221,(10, 119),24	2333,(5, 39),16	2723,(8, 103),26	2749,(8, 107),28	2777,(12, 71),22	2799,(12, 75),6	2805,(12, 83),6	2811,(12, 103),6	2817,(12, 107),4	2821,(12, 111),4	2839,(12, 99),26	2895,(5, 55),2	2929,(5, 59),4	3019,(5, 63),8	3027,(12, 27),98	3189,(5, 75),4	3221,(5, 79),20	3297,(5, 95),2	3303,(5, 103),54	3357,(5, 107),2	3373,(5, 115),38	3467,(1, 23),18	3493,(1, 31),2	3495,(1, 35),14	3559,(1, 51),4	3563,(1, 55),106	3729,(1, 75),8	3737,(1, 83),4	3741,(1, 87),2	3743,(1, 91),8	3767,(1, 103),4	3781,(1, 107),32	3815,(1, 111),30	3957,(1, 119),4	3961,(8, 67),188	4179,(12, 79),162	5557,(8, 119),8572	
1,(0, 2),6	19,(0, 6),6	37,(0, 10),6	55,(9, 18),2	97,(9, 26),4	101,(9, 38),2	105,(9, 42),4	109,(9, 46),34	173,(3, 18),32	207,(9, 50),120	327,(3, 26),6	333,(3, 54),2	335,(3, 74),2	337,(3, 82),10	351,(9, 54),24	387,(9, 58),12	399,(3, 58),24	431,(9, 62),2	497,(9, 66),2	499,(9, 70),402	901,(9, 78),32	933,(3, 106),2	935,(4, 18),2	937,(4, 26),4	941,(9, 82),18	959,(3, 22),30	989,(4, 38),2	991,(4, 54),6	997,(9, 86),14	1011,(4, 62),2	1013,(4, 90),2	1015,(9, 90),6	1021,(3, 46),28	1049,(3, 62),28	1077,(3, 78),18	1095,(7, 30),2	1097,(7, 42),4	1101,(9, 94),80	1181,(3, 90),24	1205,(7, 46),2	1207,(9, 98),194	1401,(4, 98),2	1403,(7, 78),2	1405,(9, 102),72	1477,(4, 42),14	1491,(7, 102),2	1493,(8, 50),2	1495,(9, 106),2	1497,(4, 66),42	1539,(7, 26),20	1559,(9, 114),4	1563,(9, 118),2	1565,(7, 98),12	1577,(11, 22),2	1579,(11, 26),4	1583,(11, 46),2	1585,(5, 14),90	1675,(7, 66),28	1703,(7, 90),22	1725,(11, 78),2	1729,(5, 22),2	1731,(3, 14),86	1817,(7, 70),44	1861,(11, 34),10	1871,(5, 26),2	1873,(3, 42),110	1983,(7, 106),12	1995,(11, 42),6	2001,(11, 50),6	2007,(11, 62),6	2013,(11, 102),4	2017,(5, 34),2	2019,(7, 114),28	2047,(11, 58),34	2081,(11, 66),146	2227,(11, 70),6	2233,(11, 86),70	2303,(11, 94),6	2309,(11, 98),12	2329,(5, 38),4	2351,(5, 42),348	2713,(5, 46),114	2827,(4, 94),8	2835,(8, 98),2	2837,(12, 30),2	2839,(5, 50),48	2887,(5, 54),8	2895,(4, 74),14	2909,(4, 78),72	2981,(4, 82),14	2995,(4, 110),8	3003,(8, 14),6	3009,(12, 34),2	3011,(12, 70),2	3013,(5, 62),6	3019,(8, 22),6	3025,(12, 74),2	3027,(5, 66),30	3057,(5, 70),116	3173,(8, 26),6	3179,(5, 74),10	3189,(4, 106),26	3215,(4, 118),16	3231,(8, 34),6	3241,(5, 82),10	3253,(5, 90),26	3279,(5, 94),18	3299,(5, 102),4	3303,(8, 46),10	3313,(8, 70),8	3321,(8, 86),12	3333,(8, 114),14	3361,(5, 110),2	3363,(5, 114),10	3373,(11, 114),28	3411,(5, 118),50	3461,(3, 34),1092	4553,(1, 14),248	4801,(1, 22),2	4803,(1, 38),4	4807,(1, 42),4	4811,(1, 46),62	4873,(1, 62),18	4891,(1, 66),4	4895,(1, 70),2	4897,(1, 82),104	5001,(1, 90),20	5021,(1, 94),2	5023,(1, 98),4	5027,(1, 102),2	5029,(1, 106),2	5031,(1, 110),40	5071,(1, 114),4	5075,(1, 118),12	5087,(8, 42),360	5447,(8, 94),110	14129,(12, 26),14	14143,(12, 46),22	14165,(12, 50),26	14191,(12, 78),28	14219,(12, 82),6	14225,(12, 90),6	14231,(12, 98),14	14245,(12, 114),24	14269,(12, 118),2	
13,(2, 17),50	63,(2, 21),2	71,(2, 25),4	83,(2, 29),20	105,(2, 33),6	111,(2, 37),18	129,(2, 49),8	137,(2, 53),18	155,(3, 13),18	179,(2, 77),10	193,(2, 89),2	201,(2, 105),2	203,(2, 109),2	205,(3, 25),4	209,(3, 41),34	243,(3, 65),10	253,(2, 65),34	287,(3, 53),36	323,(3, 73),2	325,(3, 97),2	337,(2, 81),32	369,(3, 57),12	381,(3, 61),14	395,(7, 17),2	397,(7, 57),2	401,(2, 93),22	423,(3, 17),58	481,(3, 85),6	487,(3, 89),10	497,(4, 13),12	509,(4, 25),28	537,(4, 77),4	541,(3, 69),32	573,(2, 97),48	621,(3, 77),48	669,(3, 101),16	685,(3, 105),8	693,(4, 29),18	711,(4, 41),14	725,(4, 49),8	733,(4, 53),12	745,(4, 85),2	747,(4, 101),2	749,(3, 113),6	755,(3, 117),22	777,(4, 45),46	823,(4, 57),6	829,(4, 61),8	837,(4, 65),8	845,(4, 81),6	851,(4, 89),4	855,(4, 109),10	865,(4, 113),6	871,(6, 25),12	883,(6, 37),4	887,(6, 41),4	891,(6, 49),22	913,(6, 69),42	955,(6, 81),108	1063,(6, 89),4	1067,(6, 93),14	1081,(6, 105),20	1101,(7, 13),30	1131,(7, 37),6	1137,(7, 41),18	1155,(7, 49),14	1169,(7, 69),2	1171,(7, 73),2	1173,(7, 81),2	1175,(6, 117),4	1179,(7, 101),2	1181,(10, 13),10	1191,(10, 17),6	1197,(10, 29),6	1203,(10, 61),4	1207,(7, 61),116	1323,(7, 89),36	1359,(7, 93),8	1367,(7, 113),4	1371,(7, 117),2	1373,(8, 21),16	1389,(8, 29),2	1391,(8, 33),2	1393,(8, 61),2	1395,(8, 77),2	1397,(8, 81),2	1399,(8, 113),2	1401,(10, 21),26	1427,(10, 37),62	1489,(10, 49),36	1525,(10, 53),12	1537,(10, 69),2	1539,(4, 69),1180	2719,(8, 85),4	2723,(10, 41),88	2811,(10, 57),30	2841,(10, 81),18	2859,(10, 97),28	2887,(10, 101),6	2893,(10, 105),2	2895,(10, 109),4	2899,(10, 113),32	2931,(10, 117),38	2969,(11, 13),4	2973,(11, 33),8	2981,(11, 41),10	2991,(11, 45),2	2993,(11, 53),18	3011,(11, 61),2	3013,(11, 65),28	3041,(11, 73),28	3069,(11, 77),6	3075,(11, 85),52	3127,(11, 97),62	3189,(11, 101),2	3191,(11, 105),10	3201,(11, 113),18	3219,(11, 117),10	3229,(18, 121),8	3237,(12, 17),40	3277,(12, 21),6	3283,(12, 25),2	3285,(12, 29),6	3291,(12, 33),8	3299,(12, 49),2	3301,(12, 85),2	3303,(43, 121),8	3311,(47, 121),8	3319,(19, 121),8	3327,(15, 121),8	3335,(58, 121),8	3347,(12, 13),576	3923,(12, 37),22	3945,(12, 45),14	3959,(12, 101),2	3961,(30, 121),8	3969,(54, 121),8	3977,(74, 121),8	3985,(86, 121),8	4149,(12, 53),8	4157,(12, 73),12	4169,(12, 77),10	4341,(12, 89),4	4345,(16, 121),8	4353,(80, 121),8	4361,(52, 121),8	4369,(68, 121),8	4377,(84, 121),8	4385,(96, 121),8	4393,(100, 121),8	4401,(120, 121),8	4409,(28, 121),8	4417,(32, 121),8	4425,(40, 121),8	4433,(76, 121),8	4441,(88, 121),8	4449,(20, 121),8	4457,(24, 121),8	4465,(36, 121),8	4473,(44, 121),8	4481,(56, 121),8	4489,(60, 121),8	4497,(64, 121),8	4505,(72, 121),8	4513,(92, 121),8	4521,(104, 121),8	4529,(108, 121),8	4537,(112, 121),8	4545,(116, 121),8	4559,(34, 121),8	4807,(14, 121),8	4815,(22, 121),8	4823,(38, 121),8	4897,(62, 121),8	4905,(66, 121),8	4913,(70, 121),8	5035,(102, 121),8	5043,(106, 121),8	5077,(110, 121),8	5371,(39, 121),8	5379,(71, 121),8	5387,(99, 121),8	5395,(59, 121),8	5403,(63, 121),8	5411,(27, 121),8	5419,(95, 121),8	5427,(115, 121),8	5435,(23, 121),8	5443,(31, 121),8	5451,(35, 121),8	5459,(51, 121),8	5467,(55, 121),8	5475,(75, 121),8	5483,(83, 121),8	5491,(87, 121),8	5499,(91, 121),8	5507,(103, 121),8	5515,(107, 121),8	5523,(111, 121),8	5531,(67, 121),8	5539,(79, 121),8	5547,(42, 121),8	5563,(94, 121),8	14135,(119, 121),8	14149,(26, 121),8	14171,(46, 121),8	14197,(50, 121),8	14225,(78, 121),8	14233,(82, 121),8	14241,(90, 121),8	14251,(98, 121),8	14271,(48, 121),8	14279,(114, 121),8	14287,(118, 121),8	
# Outgoing
497,(4, 13),12	509,(4, 25),28	537,(4, 77),4	545,(4, 27),2	547,(4, 31),26	573,(4, 35),6	579,(4, 39),2	581,(4, 47),24	605,(4, 59),6	611,(4, 63),8	619,(4, 67),6	625,(4, 71),2	627,(4, 75),14	641,(4, 79),30	671,(4, 83),4	675,(4, 87),2	677,(4, 111),10	693,(4, 29),18	711,(4, 41),14	725,(4, 49),8	733,(4, 53),12	745,(4, 85),2	747,(4, 101),2	749,(4, 119),8	777,(4, 45),46	823,(4, 57),6	829,(4, 61),8	837,(4, 65),8	845,(4, 81),6	851,(4, 89),4	855,(4, 109),10	865,(4, 113),6	871,(8, 19),22	893,(8, 23),14	907,(8, 47),20	927,(8, 75),2	929,(8, 83),4	933,(12, 67),2	935,(4, 18),2	937,(4, 26),4	941,(8, 87),10	951,(8, 95),8	989,(4, 38),2	991,(4, 54),6	997,(8, 91),10	1007,(12, 43),4	1011,(4, 62),2	1013,(4, 90),2	1015,(12, 47),4	1019,(12, 119),2	1031,(4, 51),260	1349,(8, 99),14	1365,(12, 19),8	1373,(8, 21),16	1389,(8, 29),2	1391,(8, 33),2	1393,(8, 61),2	1395,(8, 77),2	1397,(8, 81),2	1399,(8, 113),2	1401,(4, 98),2	1405,(8, 35),42	1447,(8, 39),30	1477,(4, 42),14	1493,(8, 50),2	1497,(4, 66),42	1539,(4, 69),1180	2719,(8, 85),4	2723,(8, 103),26	2749,(8, 107),28	2777,(12, 71),22	2799,(12, 75),6	2805,(12, 83),6	2811,(12, 103),6	2817,(12, 107),4	2821,(12, 111),4	2827,(4, 94),8	2835,(8, 98),2	2837,(12, 30),2	2839,(12, 99),26	2895,(4, 74),14	2909,(4, 78),72	2981,(4, 82),14	2995,(4, 110),8	3003,(8, 14),6	3009,(12, 34),2	3011,(12, 70),2	3019,(8, 22),6	3025,(12, 74),2	3027,(12, 27),98	3173,(8, 26),6	3189,(4, 106),26	3215,(4, 118),16	3231,(8, 34),6	3237,(12, 17),40	3277,(12, 21),6	3283,(12, 25),2	3285,(12, 29),6	3291,(12, 33),8	3299,(12, 49),2	3301,(12, 85),2	3303,(8, 46),10	3313,(8, 70),8	3321,(8, 86),12	3333,(8, 114),14	3347,(12, 13),576	3923,(12, 37),22	3945,(12, 45),14	3959,(12, 101),2	3961,(8, 67),188	4149,(12, 53),8	4157,(12, 73),12	4169,(12, 77),10	4179,(12, 79),162	4341,(12, 89),4	4345,(16, 121),8	4353,(80, 121),8	4361,(52, 121),8	4369,(68, 121),8	4377,(84, 121),8	4385,(96, 121),8	4393,(100, 121),8	4401,(120, 121),8	4409,(28, 121),8	4417,(32, 121),8	4425,(40, 121),8	4433,(76, 121),8	4441,(88, 121),8	4449,(20, 121),8	4457,(24, 121),8	4465,(36, 121),8	4473,(44, 121),8	4481,(56, 121),8	4489,(60, 121),8	4497,(64, 121),8	4505,(72, 121),8	4513,(92, 121),8	4521,(104, 121),8	4529,(108, 121),8	4537,(112, 121),8	4545,(116, 121),8	5087,(8, 42),360	5447,(8, 94),110	5557,(8, 119),8572	14129,(12, 26),14	14143,(12, 46),22	14165,(12, 50),26	14191,(12, 78),28	14219,(12, 82),6	14225,(12, 90),6	14231,(12, 98),14	14245,(12, 114),24	14269,(12, 118),2	14271,(48, 121),8	
155,(3, 13),18	173,(3, 18),32	205,(3, 25),4	209,(3, 41),34	243,(3, 65),10	253,(3, 28),2	255,(3, 32),2	257,(3, 40),2	259,(3, 44),6	265,(3, 56),2	267,(3, 60),2	269,(3, 68),4	273,(3, 88),12	285,(3, 108),2	287,(3, 53),36	323,(3, 73),2	325,(3, 97),2	327,(3, 26),6	333,(3, 54),2	335,(3, 74),2	337,(3, 82),10	347,(3, 92),4	351,(7, 24),2	353,(7, 44),4	357,(7, 56),6	363,(7, 60),4	367,(7, 92),2	369,(3, 57),12	381,(3, 61),14	395,(7, 17),2	397,(7, 57),2	399,(3, 58),24	423,(3, 17),58	481,(3, 85),6	487,(3, 89),10	497,(3, 16),44	541,(3, 69),32	573,(3, 84),46	619,(7, 100),2	621,(3, 77),48	669,(3, 101),16	685,(3, 105),8	693,(3, 112),56	749,(3, 113),6	755,(3, 117),22	777,(7, 104),2	817,(7, 76),8	825,(7, 116),6	831,(11, 64),2	835,(7, 108),10	871,(7, 32),48	919,(7, 88),14	933,(3, 106),2	941,(7, 120),8	949,(11, 24),8	957,(11, 104),2	959,(3, 22),30	989,(11, 52),26	1015,(11, 56),4	1019,(11, 108),2	1021,(3, 46),28	1049,(3, 62),28	1077,(3, 78),18	1095,(7, 30),2	1097,(7, 42),4	1101,(7, 13),30	1131,(7, 37),6	1137,(7, 41),18	1155,(7, 49),14	1169,(7, 69),2	1171,(7, 73),2	1173,(7, 81),2	1175,(11, 100),4	1179,(7, 101),2	1181,(3, 90),24	1205,(7, 46),2	1207,(7, 61),116	1323,(7, 89),36	1359,(7, 93),8	1367,(7, 113),4	1371,(7, 117),2	1403,(7, 78),2	1405,(11, 28),42	1447,(11, 88),22	1491,(7, 102),2	1539,(7, 26),20	1565,(7, 98),12	1577,(11, 22),2	1579,(11, 26),4	1583,(11, 46),2	1675,(7, 66),28	1703,(7, 90),22	1725,(11, 78),2	1731,(3, 14),86	1817,(7, 70),44	1861,(11, 34),10	1873,(3, 42),110	1983,(7, 106),12	1995,(11, 42),6	2001,(11, 50),6	2007,(11, 62),6	2013,(11, 102),4	2019,(7, 114),28	2047,(11, 58),34	2081,(11, 66),146	2227,(11, 70),6	2233,(11, 86),70	2303,(11, 94),6	2309,(11, 98),12	2351,(11, 36),190	2541,(11, 92),62	2969,(11, 13),4	2973,(11, 33),8	2981,(11, 41),10	2991,(11, 45),2	2993,(11, 53),18	3011,(11, 61),2	3013,(11, 65),28	3041,(11, 73),28	3069,(11, 77),6	3075,(11, 85),52	3127,(11, 97),62	3189,(11, 101),2	3191,(11, 105),10	3201,(11, 113),18	3219,(11, 117),10	3303,(43, 121),8	3311,(47, 121),8	3319,(19, 121),8	3327,(15, 121),8	3373,(11, 114),28	3461,(3, 34),1092	4553,(3, 48),818	5371,(39, 121),8	5379,(71, 121),8	5387,(99, 121),8	5395,(59, 121),8	5403,(63, 121),8	5411,(27, 121),8	5419,(95, 121),8	5427,(115, 121),8	5435,(23, 121),8	5443,(31, 121),8	5451,(35, 121),8	5459,(51, 121),8	5467,(55, 121),8	5475,(75, 121),8	5483,(83, 121),8	5491,(87, 121),8	5499,(91, 121),8	5507,(103, 121),8	5515,(107, 121),8	5523,(111, 121),8	5531,(67, 121),8	5539,(79, 121),8	14135,(119, 121),8	
13,(2, 17),50	63,(2, 21),2	65,(2, 24),6	71,(2, 25),4	75,(2, 32),2	77,(2, 52),2	79,(2, 56),2	81,(2, 27),2	83,(2, 29),20	103,(2, 31),2	105,(2, 33),6	111,(2, 37),18	129,(2, 49),8	137,(2, 53),18	155,(2, 63),20	175,(2, 71),4	179,(2, 77),10	189,(2, 79),2	191,(2, 87),2	193,(2, 89),2	195,(2, 95),4	199,(2, 99),2	201,(2, 105),2	203,(2, 109),2	205,(6, 39),2	207,(2, 44),32	239,(2, 64),14	253,(2, 65),34	287,(2, 72),8	295,(2, 76),42	337,(2, 81),32	369,(2, 100),2	371,(2, 111),8	379,(6, 19),6	385,(6, 47),2	387,(2, 84),14	401,(2, 93),22	423,(2, 104),12	435,(6, 24),2	437,(6, 44),2	439,(6, 56),8	447,(2, 83),98	545,(2, 96),28	573,(2, 97),48	621,(2, 108),16	637,(6, 48),32	669,(6, 52),18	687,(6, 23),8	695,(6, 31),32	727,(6, 35),14	741,(6, 59),4	745,(6, 63),2	747,(6, 67),2	749,(6, 60),4	753,(6, 68),4	757,(6, 43),10	767,(6, 71),12	779,(6, 76),16	795,(6, 84),22	817,(6, 87),14	831,(6, 91),2	833,(6, 92),2	835,(6, 95),10	845,(6, 100),20	865,(6, 104),2	867,(6, 116),4	871,(6, 25),12	883,(6, 37),4	887,(6, 41),4	891,(6, 49),22	913,(6, 69),42	955,(6, 81),108	1063,(6, 89),4	1067,(6, 93),14	1081,(6, 105),20	1101,(6, 108),74	1175,(6, 117),4	1179,(10, 20),2	1181,(10, 13),10	1191,(10, 17),6	1197,(10, 29),6	1203,(10, 61),4	1207,(6, 112),64	1271,(6, 120),12	1283,(10, 24),8	1291,(6, 103),14	1305,(6, 107),10	1315,(6, 115),16	1331,(6, 119),18	1349,(10, 28),2	1351,(10, 36),6	1357,(10, 44),2	1359,(10, 48),2	1361,(10, 56),2	1363,(10, 39),2	1365,(10, 40),20	1385,(10, 55),6	1391,(10, 59),6	1397,(10, 71),4	1401,(10, 21),26	1427,(10, 37),62	1489,(10, 49),36	1525,(10, 53),12	1537,(10, 69),2	1539,(10, 87),8	1547,(10, 115),2	1559,(10, 72),12	1571,(10, 88),6	1585,(10, 52),26	1611,(10, 68),44	1655,(10, 76),20	1675,(10, 84),70	1745,(10, 92),10	1755,(10, 96),2	1757,(10, 100),16	1773,(10, 108),2	1775,(10, 112),2	1777,(10, 120),8	1949,(10, 79),32	1981,(10, 99),34	2025,(10, 27),128	2153,(10, 95),46	2199,(10, 103),22	2221,(10, 119),24	2723,(10, 41),88	2811,(10, 57),30	2841,(10, 81),18	2859,(10, 97),28	2887,(10, 101),6	2893,(10, 105),2	2895,(10, 109),4	2899,(10, 113),32	2931,(10, 117),38	3229,(18, 121),8	3335,(58, 121),8	3961,(30, 121),8	3969,(54, 121),8	3977,(74, 121),8	3985,(86, 121),8	4559,(34, 121),8	4807,(14, 121),8	4815,(22, 121),8	4823,(38, 121),8	4897,(62, 121),8	4905,(66, 121),8	4913,(70, 121),8	5035,(102, 121),8	5043,(106, 121),8	5077,(110, 121),8	5547,(42, 121),8	5563,(94, 121),8	14149,(26, 121),8	14171,(46, 121),8	14197,(50, 121),8	14225,(78, 121),8	14233,(82, 121),8	14241,(90, 121),8	14251,(98, 121),8	14279,(114, 121),8	14287,(118, 121),8	
1,(0, 2),6	7,(0, 3),6	13,(0, 4),6	19,(0, 6),6	25,(0, 7),6	31,(0, 8),6	37,(0, 10),6	43,(0, 11),6	49,(0, 12),6	55,(9, 18),2	57,(9, 19),24	81,(9, 20),2	83,(9, 24),14	97,(9, 26),4	101,(9, 38),2	103,(9, 40),2	105,(9, 42),4	109,(9, 46),34	143,(9, 47),10	153,(9, 48),54	207,(9, 50),120	327,(9, 51),24	351,(9, 54),24	375,(9, 56),12	387,(9, 58),12	399,(9, 59),32	431,(9, 62),2	433,(9, 63),14	447,(9, 64),50	497,(9, 66),2	499,(9, 70),402	901,(9, 78),32	933,(9, 80),8	941,(9, 82),18	959,(9, 83),38	997,(9, 86),14	1011,(9, 87),4	1015,(9, 90),6	1021,(9, 91),10	1031,(9, 92),70	1101,(9, 94),80	1181,(9, 96),26	1207,(9, 98),194	1401,(9, 99),4	1405,(9, 102),72	1477,(9, 104),18	1495,(9, 106),2	1497,(9, 107),14	1511,(9, 108),2	1513,(9, 112),46	1559,(9, 114),4	1563,(9, 118),2	1565,(9, 119),12	1577,(9, 120),8	1585,(5, 14),90	1675,(5, 15),54	1729,(5, 22),2	1731,(5, 23),136	1867,(5, 24),4	1871,(5, 26),2	1873,(5, 27),70	1943,(5, 28),2	1945,(5, 31),4	1949,(5, 32),68	2017,(5, 34),2	2019,(5, 35),6	2025,(5, 36),304	2329,(5, 38),4	2333,(5, 39),16	2349,(5, 40),2	2351,(5, 42),348	2699,(5, 44),14	2713,(5, 46),114	2827,(5, 48),12	2839,(5, 50),48	2887,(5, 54),8	2895,(5, 55),2	2897,(5, 56),32	2929,(5, 59),4	2933,(5, 60),80	3013,(5, 62),6	3019,(5, 63),8	3027,(5, 66),30	3057,(5, 70),116	3173,(5, 72),6	3179,(5, 74),10	3189,(5, 75),4	3193,(5, 76),28	3221,(5, 79),20	3241,(5, 82),10	3251,(5, 88),2	3253,(5, 90),26	3279,(5, 94),18	3297,(5, 95),2	3299,(5, 102),4	3303,(5, 103),54	3357,(5, 107),2	3359,(5, 108),2	3361,(5, 110),2	3363,(5, 114),10	3373,(5, 115),38	3411,(5, 118),50	3461,(1, 20),6	3467,(1, 23),18	3485,(1, 24),8	3493,(1, 31),2	3495,(1, 35),14	3509,(1, 36),2	3511,(1, 44),2	3513,(1, 48),46	3559,(1, 51),4	3563,(1, 55),106	3669,(1, 56),2	3671,(1, 60),8	3679,(1, 64),36	3715,(1, 72),14	3729,(1, 75),8	3737,(1, 83),4	3741,(1, 87),2	3743,(1, 91),8	3751,(1, 92),16	3767,(1, 103),4	3771,(1, 104),10	3781,(1, 107),32	3813,(1, 108),2	3815,(1, 111),30	3845,(1, 112),2	3847,(1, 116),110	3957,(1, 119),4	4553,(1, 14),248	4801,(1, 22),2	4803,(1, 38),4	4807,(1, 42),4	4811,(1, 46),62	4873,(1, 62),18	4891,(1, 66),4	4895,(1, 70),2	4897,(1, 82),104	5001,(1, 90),20	5021,(1, 94),2	5023,(1, 98),4	5027,(1, 102),2	5029,(1, 106),2	5031,(1, 110),40	5071,(1, 114),4	5075,(1, 118),12	
