4507
# CPU
5,2,5	10,4,5	15,58,5	20,79,5	25,6,5	30,34,5	35,63,5	40,98,5	45,84,5	50,8,5	55,10,5	60,12,5	65,107,5	70,115,5	75,117,5	80,111,5	85,37,5	90,71,5	95,51,5	100,74,5	105,36,5	110,87,5	115,92,5	120,30,5	125,68,5	130,89,5	135,94,5	140,81,5	145,85,5	150,45,5	185,31,5	193,40,5	369,86,5	1209,96,5	1237,16,5	1242,25,5	1277,43,5	1305,49,5	1633,75,5	1657,76,5	1773,97,5	1797,101,5	1821,104,5	1865,14,5	1945,20,5	2013,26,5	2049,39,5	2057,44,5	2105,53,5	2117,57,5	2122,62,5	2225,65,5	2281,80,5	2333,83,5	2433,103,5	2481,106,5	2793,113,5	2909,18,5	2941,19,5	2946,22,5	2957,32,5	3029,41,5	3045,42,5	3069,46,5	3081,47,5	3141,54,5	3153,56,5	3158,64,5	3205,66,5	3265,69,5	3313,70,5	3318,77,5	3341,88,5	3549,91,5	3645,93,5	3657,95,5	3662,99,5	3669,100,5	3705,102,5	3733,105,5	3829,108,5	3834,112,5	3925,15,5	3930,24,5	3953,27,5	3958,28,5	3963,33,5	3973,38,5	3981,52,5	3993,55,5	3998,59,5	4073,67,5	4177,73,5	4189,109,5	4213,110,5	4229,17,5	4237,21,5	4242,29,5	4293,48,5	4298,50,5	4313,60,5	4318,61,5	4393,72,5	4477,78,5	4482,82,5	4487,90,5	4497,119,5	
0,0,1	1,11,5	6,5,5	11,9,5	16,3,5	21,1,5	26,7,5	31,35,5	36,23,5	41,13,5	46,114,5	78,116,5	94,120,5	118,118,5	4506,121,1	
# Incoming
1,(0, 2),4	5,(0, 4),4	9,(0, 6),4	13,(0, 8),4	17,(0, 10),4	21,(0, 12),4	25,(11, 15),52	77,(11, 16),4	81,(11, 19),48	129,(11, 25),32	161,(11, 31),24	185,(11, 40),8	193,(11, 43),4	197,(11, 50),12	209,(11, 55),12	221,(11, 60),108	329,(11, 62),16	345,(11, 76),4	349,(11, 80),16	365,(11, 86),4	369,(11, 91),4	373,(11, 96),836	1209,(11, 100),20	1229,(11, 109),4	1233,(5, 16),4	1237,(5, 25),4	1241,(5, 27),24	1265,(5, 43),12	1277,(5, 49),28	1305,(5, 66),304	1609,(5, 75),24	1633,(5, 76),24	1657,(5, 97),116	1773,(5, 101),24	1797,(5, 104),24	1821,(5, 106),24	1845,(9, 14),20	1865,(9, 19),20	1885,(9, 20),60	1945,(9, 24),64	2009,(9, 26),4	2013,(9, 39),36	2049,(9, 41),4	2053,(9, 44),4	2057,(9, 53),48	2105,(9, 57),12	2117,(9, 62),4	2121,(9, 65),104	2225,(9, 66),28	2253,(9, 77),24	2277,(9, 80),4	2281,(9, 83),52	2333,(9, 88),88	2421,(9, 103),12	2433,(9, 106),48	2481,(9, 108),284	2765,(9, 113),28	2793,(3, 17),16	2809,(3, 18),100	2909,(3, 19),32	2941,(3, 22),4	2945,(3, 32),12	2957,(3, 33),28	2985,(3, 41),44	3029,(3, 42),16	3045,(3, 46),24	3069,(3, 47),12	3081,(3, 52),16	3097,(3, 54),44	3141,(3, 56),12	3153,(3, 64),4	3157,(3, 66),48	3205,(3, 69),60	3265,(3, 70),48	3313,(3, 77),4	3317,(3, 88),24	3341,(3, 91),208	3549,(3, 93),96	3645,(3, 95),12	3657,(3, 99),4	3661,(3, 100),8	3669,(3, 102),36	3705,(3, 105),28	3733,(3, 108),96	3829,(3, 112),4	3833,(1, 15),92	3925,(1, 24),4	3929,(1, 27),24	3953,(1, 28),4	3957,(1, 33),4	3961,(1, 38),12	3973,(1, 52),8	3981,(1, 55),12	3993,(1, 59),4	3997,(1, 67),76	4073,(1, 72),32	4105,(1, 73),72	4177,(1, 90),4	4181,(1, 109),8	4189,(1, 110),24	4213,(7, 17),16	4229,(7, 21),8	4237,(7, 29),4	4241,(7, 48),52	4293,(7, 50),4	4297,(7, 60),16	4313,(7, 61),4	4317,(7, 72),76	4393,(7, 78),84	4477,(7, 82),4	4481,(7, 90),4	4485,(7, 119),12	
10,(2, 23),12	22,(2, 114),16	38,(2, 116),40	78,(58, 121),4	82,(79, 121),4	86,(6, 118),4	90,(6, 120),4	94,(34, 121),4	98,(63, 121),4	102,(98, 121),4	106,(84, 121),4	110,(8, 118),8	118,(107, 121),4	122,(115, 121),4	126,(117, 121),4	130,(111, 121),4	134,(37, 121),4	138,(71, 121),4	142,(51, 121),4	146,(74, 121),4	150,(36, 121),4	154,(87, 121),4	158,(92, 121),4	162,(30, 121),4	166,(68, 121),4	170,(89, 121),4	174,(94, 121),4	178,(81, 121),4	182,(85, 121),4	186,(45, 121),4	190,(31, 121),4	198,(40, 121),4	374,(86, 121),4	1214,(96, 121),4	1242,(16, 121),4	1247,(25, 121),4	1282,(43, 121),4	1310,(49, 121),4	1638,(75, 121),4	1662,(76, 121),4	1778,(97, 121),4	1802,(101, 121),4	1826,(104, 121),4	1870,(14, 121),4	1950,(20, 121),4	2018,(26, 121),4	2054,(39, 121),4	2062,(44, 121),4	2110,(53, 121),4	2122,(57, 121),4	2127,(62, 121),4	2230,(65, 121),4	2286,(80, 121),4	2338,(83, 121),4	2438,(103, 121),4	2486,(106, 121),4	2798,(113, 121),4	2914,(18, 121),4	2946,(19, 121),4	2951,(22, 121),4	2962,(32, 121),4	3034,(41, 121),4	3050,(42, 121),4	3074,(46, 121),4	3086,(47, 121),4	3146,(54, 121),4	3158,(56, 121),4	3163,(64, 121),4	3210,(66, 121),4	3270,(69, 121),4	3318,(70, 121),4	3323,(77, 121),4	3346,(88, 121),4	3554,(91, 121),4	3650,(93, 121),4	3662,(95, 121),4	3667,(99, 121),4	3674,(100, 121),4	3710,(102, 121),4	3738,(105, 121),4	3834,(108, 121),4	3839,(112, 121),4	3930,(15, 121),4	3935,(24, 121),4	3958,(27, 121),4	3963,(28, 121),4	3968,(33, 121),4	3978,(38, 121),4	3986,(52, 121),4	3998,(55, 121),4	4003,(59, 121),4	4078,(67, 121),4	4182,(73, 121),4	4194,(109, 121),4	4218,(110, 121),4	4234,(17, 121),4	4242,(21, 121),4	4247,(29, 121),4	4298,(48, 121),4	4303,(50, 121),4	4318,(60, 121),4	4323,(61, 121),4	4398,(72, 121),4	4482,(78, 121),4	4487,(82, 121),4	4492,(90, 121),4	4502,(119, 121),4	
# Outgoing
10,(2, 23),12	22,(2, 114),16	38,(2, 116),40	78,(58, 121),4	82,(79, 121),4	86,(6, 118),4	90,(6, 120),4	94,(34, 121),4	98,(63, 121),4	102,(98, 121),4	106,(84, 121),4	110,(8, 118),8	118,(107, 121),4	122,(115, 121),4	126,(117, 121),4	130,(111, 121),4	134,(37, 121),4	138,(71, 121),4	142,(51, 121),4	146,(74, 121),4	150,(36, 121),4	154,(87, 121),4	158,(92, 121),4	162,(30, 121),4	166,(68, 121),4	170,(89, 121),4	174,(94, 121),4	178,(81, 121),4	182,(85, 121),4	186,(45, 121),4	190,(31, 121),4	198,(40, 121),4	374,(86, 121),4	1214,(96, 121),4	1242,(16, 121),4	1247,(25, 121),4	1282,(43, 121),4	1310,(49, 121),4	1638,(75, 121),4	1662,(76, 121),4	1778,(97, 121),4	1802,(101, 121),4	1826,(104, 121),4	1870,(14, 121),4	1950,(20, 121),4	2018,(26, 121),4	2054,(39, 121),4	2062,(44, 121),4	2110,(53, 121),4	2122,(57, 121),4	2127,(62, 121),4	2230,(65, 121),4	2286,(80, 121),4	2338,(83, 121),4	2438,(103, 121),4	2486,(106, 121),4	2798,(113, 121),4	2914,(18, 121),4	2946,(19, 121),4	2951,(22, 121),4	2962,(32, 121),4	3034,(41, 121),4	3050,(42, 121),4	3074,(46, 121),4	3086,(47, 121),4	3146,(54, 121),4	3158,(56, 121),4	3163,(64, 121),4	3210,(66, 121),4	3270,(69, 121),4	3318,(70, 121),4	3323,(77, 121),4	3346,(88, 121),4	3554,(91, 121),4	3650,(93, 121),4	3662,(95, 121),4	3667,(99, 121),4	3674,(100, 121),4	3710,(102, 121),4	3738,(105, 121),4	3834,(108, 121),4	3839,(112, 121),4	3930,(15, 121),4	3935,(24, 121),4	3958,(27, 121),4	3963,(28, 121),4	3968,(33, 121),4	3978,(38, 121),4	3986,(52, 121),4	3998,(55, 121),4	4003,(59, 121),4	4078,(67, 121),4	4182,(73, 121),4	4194,(109, 121),4	4218,(110, 121),4	4234,(17, 121),4	4242,(21, 121),4	4247,(29, 121),4	4298,(48, 121),4	4303,(50, 121),4	4318,(60, 121),4	4323,(61, 121),4	4398,(72, 121),4	4482,(78, 121),4	4487,(82, 121),4	4492,(90, 121),4	4502,(119, 121),4	
1,(0, 2),4	5,(0, 4),4	9,(0, 6),4	13,(0, 8),4	17,(0, 10),4	21,(0, 12),4	25,(11, 15),52	77,(11, 16),4	81,(11, 19),48	129,(11, 25),32	161,(11, 31),24	185,(11, 40),8	193,(11, 43),4	197,(11, 50),12	209,(11, 55),12	221,(11, 60),108	329,(11, 62),16	345,(11, 76),4	349,(11, 80),16	365,(11, 86),4	369,(11, 91),4	373,(11, 96),836	1209,(11, 100),20	1229,(11, 109),4	1233,(5, 16),4	1237,(5, 25),4	1241,(5, 27),24	1265,(5, 43),12	1277,(5, 49),28	1305,(5, 66),304	1609,(5, 75),24	1633,(5, 76),24	1657,(5, 97),116	1773,(5, 101),24	1797,(5, 104),24	1821,(5, 106),24	1845,(9, 14),20	1865,(9, 19),20	1885,(9, 20),60	1945,(9, 24),64	2009,(9, 26),4	2013,(9, 39),36	2049,(9, 41),4	2053,(9, 44),4	2057,(9, 53),48	2105,(9, 57),12	2117,(9, 62),4	2121,(9, 65),104	2225,(9, 66),28	2253,(9, 77),24	2277,(9, 80),4	2281,(9, 83),52	2333,(9, 88),88	2421,(9, 103),12	2433,(9, 106),48	2481,(9, 108),284	2765,(9, 113),28	2793,(3, 17),16	2809,(3, 18),100	2909,(3, 19),32	2941,(3, 22),4	2945,(3, 32),12	2957,(3, 33),28	2985,(3, 41),44	3029,(3, 42),16	3045,(3, 46),24	3069,(3, 47),12	3081,(3, 52),16	3097,(3, 54),44	3141,(3, 56),12	3153,(3, 64),4	3157,(3, 66),48	3205,(3, 69),60	3265,(3, 70),48	3313,(3, 77),4	3317,(3, 88),24	3341,(3, 91),208	3549,(3, 93),96	3645,(3, 95),12	3657,(3, 99),4	3661,(3, 100),8	3669,(3, 102),36	3705,(3, 105),28	3733,(3, 108),96	3829,(3, 112),4	3833,(1, 15),92	3925,(1, 24),4	3929,(1, 27),24	3953,(1, 28),4	3957,(1, 33),4	3961,(1, 38),12	3973,(1, 52),8	3981,(1, 55),12	3993,(1, 59),4	3997,(1, 67),76	4073,(1, 72),32	4105,(1, 73),72	4177,(1, 90),4	4181,(1, 109),8	4189,(1, 110),24	4213,(7, 17),16	4229,(7, 21),8	4237,(7, 29),4	4241,(7, 48),52	4293,(7, 50),4	4297,(7, 60),16	4313,(7, 61),4	4317,(7, 72),76	4393,(7, 78),84	4477,(7, 82),4	4481,(7, 90),4	4485,(7, 119),12	
