12150
# CPU
5509,40,7	5921,13,7	6077,36,7	6185,38,7	7065,14,7	7209,27,7	7929,66,7	8201,11,7	8341,24,7	8385,31,7	8425,41,7	8469,47,7	8549,62,7	8849,10,7	8861,16,7	9037,18,7	9061,22,7	9073,23,7	9080,26,7	9087,39,7	9201,44,7	9237,46,7	9261,51,7	9357,52,7	9449,56,7	9469,57,7	9501,59,7	9529,69,7	9545,71,7	9577,73,7	9597,80,7	12149,81,1	
0,0,1	1,8,7	8,2,7	15,7,7	22,4,7	29,43,7	36,34,7	43,61,7	50,48,7	57,67,7	64,12,7	71,21,7	78,15,7	729,19,7	741,49,7	749,75,7	756,55,7	763,60,7	770,78,7	777,29,7	784,50,7	791,9,7	798,58,7	805,65,7	812,79,7	
109,1,7	116,17,7	123,74,7	217,3,7	325,5,7	332,35,7	339,76,7	433,6,7	440,42,7	447,68,7	705,28,7	712,32,7	733,33,7	3953,53,7	3981,64,7	4025,77,7	5381,70,7	5389,20,7	5429,25,7	5441,30,7	5453,37,7	5553,54,7	5673,63,7	6229,45,7	6325,72,7	
# Incoming
433,(8, 18),264	697,(8, 27),4	701,(1, 10),8	709,(1, 13),12	729,(1, 26),4	733,(8, 36),1272	2005,(8, 38),28	2033,(8, 39),1248	3281,(8, 40),80	3361,(8, 46),584	3945,(1, 39),4	3949,(3, 18),4	3953,(8, 59),24	3977,(3, 39),4	3981,(8, 66),4	3985,(3, 26),12	3997,(8, 73),20	4017,(3, 40),4	4021,(3, 52),4	4025,(8, 80),4	4029,(2, 10),100	4129,(2, 11),112	4241,(2, 14),176	4417,(2, 16),108	4525,(2, 18),8	4533,(2, 24),28	4561,(2, 27),108	4669,(5, 13),4	4673,(2, 40),12	4685,(2, 41),404	5089,(2, 44),276	5365,(2, 46),4	5369,(2, 51),4	5373,(2, 59),4	5377,(3, 38),12	5389,(7, 22),24	5413,(7, 23),12	5425,(5, 38),4	5429,(7, 26),8	5437,(1, 46),16	5453,(7, 40),56	5509,(7, 41),32	5541,(3, 51),12	5553,(7, 56),44	5597,(7, 62),72	5669,(5, 52),4	5673,(7, 69),24	5697,(7, 80),136	5833,(4, 10),48	5881,(4, 13),40	5921,(4, 16),24	5945,(4, 22),16	5961,(4, 31),112	6073,(4, 36),4	6077,(4, 38),108	6185,(4, 44),36	6221,(3, 56),8	6229,(4, 47),20	6249,(4, 51),8	6257,(4, 71),60	6317,(3, 69),8	6325,(4, 80),16	6341,(43, 81),88	6429,(34, 81),88	6517,(61, 81),88	6605,(48, 81),88	6693,(67, 81),88	6781,(12, 81),88	6869,(21, 81),88	6957,(15, 81),88	7045,(1, 14),20	7065,(1, 16),84	7149,(1, 24),32	7181,(1, 27),28	7209,(1, 52),40	7249,(1, 59),20	7269,(1, 66),236	7505,(17, 81),88	7593,(74, 81),88	7681,(3, 23),92	7773,(3, 46),52	7825,(3, 59),12	7837,(3, 66),92	7929,(3, 73),192	8121,(5, 11),80	8201,(5, 18),112	8313,(5, 22),12	8325,(5, 24),16	8341,(5, 26),24	8365,(5, 31),20	8385,(5, 39),32	8417,(5, 41),8	8425,(5, 47),44	8469,(5, 57),60	8529,(5, 59),4	8533,(5, 62),16	8549,(5, 73),80	8629,(5, 80),4	8633,(35, 81),88	8721,(76, 81),88	8809,(6, 10),40	8849,(6, 16),12	8861,(6, 18),176	9037,(6, 22),24	9061,(6, 23),12	9073,(6, 26),4	9077,(6, 39),4	9081,(6, 44),120	9201,(6, 46),36	9237,(6, 51),24	9261,(6, 52),96	9357,(6, 56),92	9449,(6, 57),20	9469,(6, 59),32	9501,(6, 69),28	9529,(6, 71),16	9545,(6, 73),32	9577,(6, 80),20	9597,(42, 81),88	9685,(68, 81),88	9773,(28, 81),88	9861,(32, 81),88	9949,(19, 81),88	10037,(33, 81),88	10125,(49, 81),88	10213,(75, 81),88	10301,(55, 81),88	10389,(60, 81),88	10477,(78, 81),88	10565,(29, 81),88	10653,(50, 81),88	10741,(9, 81),88	10829,(58, 81),88	10917,(65, 81),88	11005,(79, 81),88	11093,(53, 81),88	11181,(64, 81),88	11269,(77, 81),88	11357,(70, 81),88	11445,(20, 81),88	11533,(25, 81),88	11621,(30, 81),88	11709,(37, 81),88	11797,(54, 81),88	11885,(63, 81),88	11973,(45, 81),88	12061,(72, 81),88	
721,(1, 19),8	733,(1, 49),8	741,(1, 75),8	749,(3, 55),4	753,(3, 60),8	761,(3, 78),4	765,(5, 29),12	777,(5, 50),4	781,(6, 9),4	785,(6, 58),8	793,(6, 65),8	801,(6, 79),4	
1,(0, 1),108	109,(0, 3),108	217,(0, 5),108	325,(0, 6),108	701,(8, 28),4	705,(8, 32),4	709,(8, 33),24	3945,(8, 53),8	3977,(8, 64),4	3985,(8, 70),8	3993,(8, 72),4	4017,(8, 77),8	4669,(2, 37),4	5377,(2, 70),4	5381,(7, 20),8	5425,(7, 25),4	5437,(7, 30),4	5441,(7, 37),12	5541,(7, 54),12	5669,(7, 63),4	6221,(4, 45),8	6317,(4, 72),8	
# Outgoing

1,(0, 1),108	109,(0, 3),108	217,(0, 5),108	325,(0, 6),108	433,(8, 18),264	697,(8, 27),4	701,(8, 28),4	705,(8, 32),4	709,(8, 33),24	733,(8, 36),1272	2005,(8, 38),28	2033,(8, 39),1248	3281,(8, 40),80	3361,(8, 46),584	3945,(8, 53),8	3953,(8, 59),24	3977,(8, 64),4	3981,(8, 66),4	3985,(8, 70),8	3993,(8, 72),4	3997,(8, 73),20	4017,(8, 77),8	4025,(8, 80),4	4029,(2, 10),100	4129,(2, 11),112	4241,(2, 14),176	4417,(2, 16),108	4525,(2, 18),8	4533,(2, 24),28	4561,(2, 27),108	4669,(2, 37),4	4673,(2, 40),12	4685,(2, 41),404	5089,(2, 44),276	5365,(2, 46),4	5369,(2, 51),4	5373,(2, 59),4	5377,(2, 70),4	5381,(7, 20),8	5389,(7, 22),24	5413,(7, 23),12	5425,(7, 25),4	5429,(7, 26),8	5437,(7, 30),4	5441,(7, 37),12	5453,(7, 40),56	5509,(7, 41),32	5541,(7, 54),12	5553,(7, 56),44	5597,(7, 62),72	5669,(7, 63),4	5673,(7, 69),24	5697,(7, 80),136	5833,(4, 10),48	5881,(4, 13),40	5921,(4, 16),24	5945,(4, 22),16	5961,(4, 31),112	6073,(4, 36),4	6077,(4, 38),108	6185,(4, 44),36	6221,(4, 45),8	6229,(4, 47),20	6249,(4, 51),8	6257,(4, 71),60	6317,(4, 72),8	6325,(4, 80),16	6341,(43, 81),88	6429,(34, 81),88	6517,(61, 81),88	6605,(48, 81),88	6693,(67, 81),88	6781,(12, 81),88	6869,(21, 81),88	6957,(15, 81),88	9949,(19, 81),88	10125,(49, 81),88	10213,(75, 81),88	10301,(55, 81),88	10389,(60, 81),88	10477,(78, 81),88	10565,(29, 81),88	10653,(50, 81),88	10741,(9, 81),88	10829,(58, 81),88	10917,(65, 81),88	11005,(79, 81),88	
701,(1, 10),8	709,(1, 13),12	721,(1, 19),8	729,(1, 26),4	733,(1, 49),8	741,(1, 75),8	749,(3, 55),4	753,(3, 60),8	761,(3, 78),4	765,(5, 29),12	777,(5, 50),4	781,(6, 9),4	785,(6, 58),8	793,(6, 65),8	801,(6, 79),4	3945,(1, 39),4	3949,(3, 18),4	3977,(3, 39),4	3985,(3, 26),12	4017,(3, 40),4	4021,(3, 52),4	4669,(5, 13),4	5377,(3, 38),12	5425,(5, 38),4	5437,(1, 46),16	5541,(3, 51),12	5669,(5, 52),4	6221,(3, 56),8	6317,(3, 69),8	7045,(1, 14),20	7065,(1, 16),84	7149,(1, 24),32	7181,(1, 27),28	7209,(1, 52),40	7249,(1, 59),20	7269,(1, 66),236	7505,(17, 81),88	7593,(74, 81),88	7681,(3, 23),92	7773,(3, 46),52	7825,(3, 59),12	7837,(3, 66),92	7929,(3, 73),192	8121,(5, 11),80	8201,(5, 18),112	8313,(5, 22),12	8325,(5, 24),16	8341,(5, 26),24	8365,(5, 31),20	8385,(5, 39),32	8417,(5, 41),8	8425,(5, 47),44	8469,(5, 57),60	8529,(5, 59),4	8533,(5, 62),16	8549,(5, 73),80	8629,(5, 80),4	8633,(35, 81),88	8721,(76, 81),88	8809,(6, 10),40	8849,(6, 16),12	8861,(6, 18),176	9037,(6, 22),24	9061,(6, 23),12	9073,(6, 26),4	9077,(6, 39),4	9081,(6, 44),120	9201,(6, 46),36	9237,(6, 51),24	9261,(6, 52),96	9357,(6, 56),92	9449,(6, 57),20	9469,(6, 59),32	9501,(6, 69),28	9529,(6, 71),16	9545,(6, 73),32	9577,(6, 80),20	9597,(42, 81),88	9685,(68, 81),88	9773,(28, 81),88	9861,(32, 81),88	10037,(33, 81),88	11093,(53, 81),88	11181,(64, 81),88	11269,(77, 81),88	11357,(70, 81),88	11445,(20, 81),88	11533,(25, 81),88	11621,(30, 81),88	11709,(37, 81),88	11797,(54, 81),88	11885,(63, 81),88	11973,(45, 81),88	12061,(72, 81),88	
