1472
# CPU
45,3,3	48,96,3	51,117,3	89,6,3	133,9,3	136,54,3	139,66,3	177,12,3	180,63,3	183,105,3	690,15,3	712,81,3	747,99,3	750,72,3	753,60,3	756,93,3	761,27,3	764,33,3	770,42,3	778,57,3	811,48,3	885,87,3	938,114,3	942,21,3	954,30,3	957,36,3	1004,51,3	1020,90,3	1049,108,3	1052,111,3	1096,24,3	1108,78,3	1118,84,3	1133,102,3	1333,45,3	1343,120,3	1369,18,3	1401,39,3	1417,69,3	1430,75,3	
23,2,3	26,77,3	67,5,3	70,86,3	73,92,3	111,8,3	114,17,3	155,11,3	158,65,3	161,104,3	164,119,3	167,71,3	183,35,3	718,95,3	741,14,3	760,20,3	765,29,3	842,74,3	857,113,3	867,32,3	881,53,3	889,101,3	911,50,3	920,59,3	923,47,3	931,110,3	940,68,3	944,26,3	959,89,3	1022,98,3	1038,107,3	1051,56,3	1065,116,3	1077,23,3	1092,80,3	1099,38,3	1103,41,3	1106,44,3	1109,62,3	1112,83,3	
0,0,1	1,10,3	4,1,3	7,4,3	10,7,3	13,55,3	16,82,3	19,106,3	22,91,3	25,103,3	28,49,3	31,13,3	34,31,3	683,67,3	691,16,3	704,46,3	734,52,3	737,64,3	740,79,3	759,34,3	763,40,3	766,85,3	770,109,3	773,115,3	776,118,3	786,37,3	789,76,3	798,70,3	802,97,3	810,112,3	835,19,3	842,22,3	917,58,3	935,61,3	963,73,3	971,88,3	1321,43,3	1381,25,3	1391,28,3	1431,94,3	1438,100,3	1471,121,1	
# Incoming
23,(0, 3),22	67,(0, 6),22	111,(0, 9),22	155,(0, 12),22	183,(10, 57),1	184,(2, 15),420	683,(2, 108),5	689,(5, 15),1	710,(10, 81),2	712,(10, 84),5	718,(10, 99),29	747,(5, 72),1	748,(8, 39),1	749,(8, 60),3	752,(8, 93),1	753,(11, 21),3	760,(1, 27),1	761,(1, 33),1	762,(1, 42),8	777,(1, 57),1	778,(2, 48),33	842,(1, 87),43	889,(1, 102),1	890,(1, 108),36	931,(1, 114),7	938,(4, 18),1	939,(4, 21),3	944,(4, 30),10	954,(4, 36),3	957,(4, 51),47	1004,(5, 90),16	1038,(4, 108),11	1049,(4, 111),2	1065,(7, 18),10	1077,(7, 24),19	1099,(7, 39),2	1105,(7, 78),3	1109,(7, 84),9	1118,(7, 102),15	1321,(8, 45),12	1333,(8, 120),10	1343,(11, 18),26	1391,(11, 39),10	1401,(11, 69),16	1417,(11, 75),13	
1,(0, 2),22	45,(0, 5),22	89,(0, 8),22	133,(0, 11),22	177,(10, 35),6	184,(10, 74),526	717,(10, 95),1	718,(3, 14),23	747,(10, 101),10	757,(1, 20),3	760,(3, 29),5	765,(3, 32),1	770,(1, 47),7	778,(1, 74),64	842,(3, 98),5	847,(3, 101),7	854,(3, 113),3	857,(6, 32),10	867,(6, 41),8	875,(6, 53),6	881,(6, 62),2	883,(9, 47),2	885,(1, 101),4	889,(6, 50),22	911,(6, 59),9	920,(12, 47),1	921,(12, 110),1	926,(1, 110),5	931,(12, 68),9	942,(4, 26),2	944,(9, 89),15	1004,(4, 83),14	1018,(4, 98),4	1022,(4, 107),16	1038,(12, 56),13	1051,(4, 116),14	1075,(7, 23),2	1077,(12, 80),15	1096,(7, 38),3	1101,(7, 41),2	1103,(7, 44),1	1104,(7, 62),1	1108,(7, 83),1	
604,(2, 40),78	682,(2, 67),1	688,(77, 121),1	690,(5, 16),1	691,(5, 46),13	704,(5, 52),30	734,(5, 64),1	735,(86, 121),1	736,(92, 121),1	737,(8, 79),3	740,(17, 121),1	741,(3, 19),15	756,(3, 34),3	759,(3, 97),1	760,(11, 40),3	763,(11, 85),3	766,(3, 100),1	767,(3, 109),3	770,(3, 115),1	771,(3, 118),2	773,(96, 121),1	774,(117, 121),1	775,(6, 25),1	776,(6, 37),10	786,(6, 76),2	788,(9, 88),6	794,(54, 121),1	795,(66, 121),1	796,(12, 28),1	797,(12, 70),1	798,(12, 97),4	802,(12, 112),8	810,(63, 121),1	811,(5, 58),16	827,(8, 19),8	835,(8, 22),7	842,(8, 58),75	917,(8, 61),18	935,(8, 73),28	963,(8, 88),8	971,(9, 25),40	1011,(105, 121),1	1012,(15, 121),1	1013,(81, 121),1	1014,(99, 121),1	1015,(72, 121),1	1016,(60, 121),1	1017,(93, 121),1	1018,(27, 121),1	1019,(33, 121),1	1020,(8, 43),301	1321,(42, 121),1	1322,(57, 121),1	1323,(48, 121),1	1324,(87, 121),1	1325,(114, 121),1	1326,(21, 121),1	1327,(30, 121),1	1328,(36, 121),1	1329,(51, 121),1	1330,(90, 121),1	1331,(108, 121),1	1332,(111, 121),1	1333,(24, 121),1	1334,(78, 121),1	1335,(84, 121),1	1336,(102, 121),1	1337,(45, 121),1	1346,(120, 121),1	1369,(11, 25),12	1381,(11, 28),10	1391,(18, 121),1	1404,(39, 121),1	1420,(69, 121),1	1430,(11, 94),1	1431,(11, 100),7	1438,(65, 121),1	1439,(104, 121),1	1440,(119, 121),1	1441,(71, 121),1	1442,(35, 121),1	1443,(95, 121),1	1444,(14, 121),1	1445,(20, 121),1	1446,(29, 121),1	1447,(74, 121),1	1448,(113, 121),1	1449,(32, 121),1	1450,(53, 121),1	1451,(101, 121),1	1452,(50, 121),1	1453,(59, 121),1	1454,(47, 121),1	1455,(110, 121),1	1456,(68, 121),1	1457,(26, 121),1	1458,(89, 121),1	1459,(98, 121),1	1460,(107, 121),1	1461,(56, 121),1	1462,(116, 121),1	1463,(23, 121),1	1464,(80, 121),1	1465,(38, 121),1	1466,(41, 121),1	1467,(44, 121),1	1468,(62, 121),1	1469,(83, 121),1	1470,(75, 121),1	
# Outgoing
718,(3, 14),23	741,(3, 19),15	756,(3, 34),3	759,(3, 97),1	760,(3, 29),5	765,(3, 32),1	766,(3, 100),1	767,(3, 109),3	770,(3, 115),1	771,(3, 118),2	773,(96, 121),1	774,(117, 121),1	775,(6, 25),1	776,(6, 37),10	786,(6, 76),2	788,(9, 88),6	794,(54, 121),1	795,(66, 121),1	796,(12, 28),1	797,(12, 70),1	798,(12, 97),4	802,(12, 112),8	810,(63, 121),1	842,(3, 98),5	847,(3, 101),7	854,(3, 113),3	857,(6, 32),10	867,(6, 41),8	875,(6, 53),6	881,(6, 62),2	883,(9, 47),2	889,(6, 50),22	911,(6, 59),9	920,(12, 47),1	921,(12, 110),1	931,(12, 68),9	944,(9, 89),15	971,(9, 25),40	1011,(105, 121),1	1012,(15, 121),1	1013,(81, 121),1	1014,(99, 121),1	1015,(72, 121),1	1016,(60, 121),1	1017,(93, 121),1	1018,(27, 121),1	1019,(33, 121),1	1038,(12, 56),13	1077,(12, 80),15	1321,(42, 121),1	1322,(57, 121),1	1323,(48, 121),1	1324,(87, 121),1	1325,(114, 121),1	1326,(21, 121),1	1327,(30, 121),1	1328,(36, 121),1	1329,(51, 121),1	1330,(90, 121),1	1331,(108, 121),1	1332,(111, 121),1	1333,(24, 121),1	1334,(78, 121),1	1335,(84, 121),1	1336,(102, 121),1	1337,(45, 121),1	1346,(120, 121),1	1391,(18, 121),1	1404,(39, 121),1	1420,(69, 121),1	1470,(75, 121),1	
184,(2, 15),420	604,(2, 40),78	682,(2, 67),1	683,(2, 108),5	688,(77, 121),1	689,(5, 15),1	690,(5, 16),1	691,(5, 46),13	704,(5, 52),30	734,(5, 64),1	735,(86, 121),1	736,(92, 121),1	737,(8, 79),3	740,(17, 121),1	747,(5, 72),1	748,(8, 39),1	749,(8, 60),3	752,(8, 93),1	753,(11, 21),3	760,(11, 40),3	763,(11, 85),3	778,(2, 48),33	811,(5, 58),16	827,(8, 19),8	835,(8, 22),7	842,(8, 58),75	917,(8, 61),18	935,(8, 73),28	963,(8, 88),8	1004,(5, 90),16	1020,(8, 43),301	1321,(8, 45),12	1333,(8, 120),10	1343,(11, 18),26	1369,(11, 25),12	1381,(11, 28),10	1391,(11, 39),10	1401,(11, 69),16	1417,(11, 75),13	1430,(11, 94),1	1431,(11, 100),7	1438,(65, 121),1	1439,(104, 121),1	1440,(119, 121),1	1441,(71, 121),1	1442,(35, 121),1	1443,(95, 121),1	1444,(14, 121),1	1445,(20, 121),1	1446,(29, 121),1	1447,(74, 121),1	1448,(113, 121),1	1449,(32, 121),1	1450,(53, 121),1	1451,(101, 121),1	1452,(50, 121),1	1453,(59, 121),1	1454,(47, 121),1	1455,(110, 121),1	1456,(68, 121),1	1457,(26, 121),1	1458,(89, 121),1	1459,(98, 121),1	1460,(107, 121),1	1461,(56, 121),1	1462,(116, 121),1	1463,(23, 121),1	1464,(80, 121),1	1465,(38, 121),1	1466,(41, 121),1	1467,(44, 121),1	1468,(62, 121),1	1469,(83, 121),1	
1,(0, 2),22	23,(0, 3),22	45,(0, 5),22	67,(0, 6),22	89,(0, 8),22	111,(0, 9),22	133,(0, 11),22	155,(0, 12),22	177,(10, 35),6	183,(10, 57),1	184,(10, 74),526	710,(10, 81),2	712,(10, 84),5	717,(10, 95),1	718,(10, 99),29	747,(10, 101),10	757,(1, 20),3	760,(1, 27),1	761,(1, 33),1	762,(1, 42),8	770,(1, 47),7	777,(1, 57),1	778,(1, 74),64	842,(1, 87),43	885,(1, 101),4	889,(1, 102),1	890,(1, 108),36	926,(1, 110),5	931,(1, 114),7	938,(4, 18),1	939,(4, 21),3	942,(4, 26),2	944,(4, 30),10	954,(4, 36),3	957,(4, 51),47	1004,(4, 83),14	1018,(4, 98),4	1022,(4, 107),16	1038,(4, 108),11	1049,(4, 111),2	1051,(4, 116),14	1065,(7, 18),10	1075,(7, 23),2	1077,(7, 24),19	1096,(7, 38),3	1099,(7, 39),2	1101,(7, 41),2	1103,(7, 44),1	1104,(7, 62),1	1105,(7, 78),3	1108,(7, 83),1	1109,(7, 84),9	1118,(7, 102),15	
