2268
# CPU
0,0,1	1,2,223	224,4,223	447,17,223	670,6,223	893,20,223	1116,15,223	1339,19,223	1562,3,223	1785,14,223	2008,13,223	
9,1,223	232,11,223	455,12,223	678,18,223	901,5,223	1124,9,223	1347,10,223	1570,8,223	1793,16,223	2016,7,223	2267,21,1	
# Incoming
232,(1, 3),2	234,(1, 14),4	238,(1, 13),4	
1,(0, 1),8	224,(2, 5),2	226,(2, 9),2	228,(2, 10),4	232,(2, 8),6	238,(2, 16),14	252,(2, 7),24	447,(4, 21),36	670,(17, 21),36	893,(6, 21),36	1116,(20, 21),36	1339,(15, 21),36	1562,(19, 21),36	1785,(3, 21),36	2008,(14, 21),36	2231,(13, 21),36	
# Outgoing
1,(0, 1),8	224,(2, 5),2	226,(2, 9),2	228,(2, 10),4	232,(2, 8),6	238,(2, 16),14	252,(2, 7),24	447,(4, 21),36	670,(17, 21),36	893,(6, 21),36	1116,(20, 21),36	1339,(15, 21),36	1562,(19, 21),36	1785,(3, 21),36	2008,(14, 21),36	2231,(13, 21),36	
232,(1, 3),2	234,(1, 14),4	238,(1, 13),4	
