10842
# CPU
1673,83,2	2569,88,2	5441,48,2	5505,77,2	5589,94,2	5649,20,2	5785,55,2	5821,92,2	5957,27,2	6073,63,2	6189,101,2	6249,104,2	7173,16,2	7213,19,2	7337,23,2	7373,38,2	7393,71,2	7397,79,2	7413,80,2	7569,95,2	7725,31,2	7893,76,2	7989,82,2	8041,87,2	8045,113,2	8277,14,2	8605,22,2	8625,37,2	8685,68,2	8693,81,2	8949,17,2	9085,34,2	9105,43,2	9201,51,2	9573,62,2	9577,84,2	9581,86,2	9625,91,2	9641,96,2	9661,100,2	9689,115,2	9697,117,2	9825,29,2	9845,46,2	9849,49,2	9873,58,2	9885,61,2	9905,105,2	9917,106,2	9997,108,2	10001,112,2	10049,114,2	10841,121,1	
61,1,2	63,35,2	65,97,2	67,78,2	121,3,2	123,52,2	181,5,2	183,25,2	185,45,2	187,56,2	189,57,2	241,7,2	243,39,2	245,40,2	247,98,2	301,10,2	303,44,2	305,99,2	333,33,2	349,36,2	1013,59,2	1337,93,2	1437,30,2	1533,54,2	1597,69,2	1629,73,2	2681,109,2	2693,110,2	3221,41,2	3317,50,2	4129,107,2	4969,118,2	5409,42,2	5877,102,2	
0,0,1	1,2,2	3,4,2	5,11,2	7,9,2	9,12,2	11,8,2	13,6,2	15,103,2	17,15,2	19,13,2	21,18,2	23,47,2	25,89,2	27,120,2	29,53,2	31,32,2	33,70,2	35,74,2	37,67,2	39,21,2	41,26,2	43,111,2	45,119,2	47,64,2	49,60,2	51,24,2	53,28,2	55,90,2	57,85,2	59,65,2	7781,72,2	9693,116,2	9889,66,2	9893,75,2	
# Incoming
301,(2, 22),8	349,(2, 38),40	389,(2, 55),588	1013,(2, 79),108	1121,(2, 81),12	1133,(2, 82),4	1137,(2, 83),152	1289,(2, 86),4	1337,(2, 105),28	1365,(4, 20),12	1377,(4, 23),4	1437,(4, 31),4	1441,(4, 46),20	1461,(4, 51),8	1533,(4, 62),56	1629,(4, 79),4	1633,(4, 83),40	1673,(4, 86),252	1925,(4, 87),528	2453,(4, 88),116	2569,(4, 94),4	2573,(4, 95),88	2693,(4, 112),4	2697,(4, 114),76	2773,(4, 117),152	2961,(11, 37),4	2965,(11, 38),252	3225,(11, 43),88	3317,(11, 62),144	3461,(11, 71),168	3629,(11, 77),148	3777,(11, 94),12	3789,(11, 95),16	3805,(11, 101),320	4129,(11, 117),24	4153,(9, 17),4	4157,(9, 48),264	4421,(9, 63),80	4501,(9, 80),4	4505,(9, 84),4	4509,(9, 100),216	4725,(9, 112),152	4877,(9, 113),88	4969,(12, 14),28	4997,(12, 16),72	5069,(12, 20),60	5129,(12, 22),4	5133,(12, 23),36	5169,(12, 27),20	5189,(12, 31),8	5197,(12, 34),172	5369,(12, 37),36	5409,(12, 48),32	5441,(12, 51),24	5465,(12, 55),4	5469,(12, 71),28	5497,(12, 77),8	5505,(12, 82),24	5529,(12, 92),8	5537,(12, 94),52	5589,(12, 100),4	5593,(12, 104),16	5609,(8, 14),24	5633,(8, 17),4	5637,(8, 20),12	5649,(8, 22),84	5733,(8, 23),36	5769,(8, 37),8	5777,(8, 38),4	5781,(8, 55),4	5785,(8, 76),16	5801,(8, 92),20	5821,(8, 96),4	5825,(8, 101),48	5877,(8, 105),24	5901,(6, 19),12	5913,(6, 27),44	5957,(6, 38),24	5981,(6, 61),20	6001,(6, 63),72	6073,(6, 68),20	6093,(6, 76),4	6097,(6, 86),4	6101,(6, 91),44	6145,(6, 96),40	6185,(6, 101),4	6189,(6, 104),60	6249,(103, 121),36	6285,(15, 121),36	6321,(13, 121),36	6357,(18, 121),36	6393,(47, 121),36	6429,(89, 121),36	6465,(120, 121),36	6501,(53, 121),36	6537,(32, 121),36	6573,(70, 121),36	6609,(74, 121),36	6645,(67, 121),36	6681,(21, 121),36	6717,(26, 121),36	6753,(111, 121),36	6789,(119, 121),36	6825,(64, 121),36	6861,(60, 121),36	6897,(24, 121),36	6933,(28, 121),36	6969,(90, 121),36	7005,(85, 121),36	7041,(65, 121),36	7077,(1, 16),96	7173,(1, 19),40	7213,(1, 23),124	7337,(1, 38),36	7373,(1, 71),20	7393,(1, 79),4	7397,(1, 80),16	7413,(1, 81),4	7417,(1, 84),28	7445,(1, 86),120	7565,(1, 95),4	7569,(1, 106),24	7593,(35, 121),36	7629,(97, 121),36	7665,(78, 121),36	7701,(3, 17),12	7713,(3, 31),12	7725,(3, 49),32	7757,(3, 58),4	7761,(3, 61),4	7765,(3, 62),4	7769,(3, 68),8	7781,(3, 76),112	7893,(3, 82),96	7989,(3, 87),52	8041,(3, 113),4	8045,(3, 115),28	8073,(52, 121),36	8109,(5, 14),168	8277,(5, 22),328	8605,(5, 37),20	8625,(5, 61),24	8649,(5, 68),36	8685,(5, 81),8	8693,(5, 108),20	8713,(25, 121),36	8749,(45, 121),36	8785,(56, 121),36	8821,(57, 121),36	8857,(7, 17),92	8949,(7, 29),24	8973,(7, 34),112	9085,(7, 43),20	9105,(7, 46),72	9177,(7, 49),12	9189,(7, 51),12	9201,(7, 58),148	9349,(7, 62),224	9573,(7, 84),4	9577,(7, 86),4	9581,(7, 91),44	9625,(7, 96),16	9641,(7, 100),20	9661,(7, 105),8	9669,(7, 115),20	9693,(7, 117),4	9697,(39, 121),36	9733,(40, 121),36	9769,(98, 121),36	9805,(10, 29),20	9825,(10, 46),20	9845,(10, 49),4	9849,(10, 58),24	9873,(10, 61),12	9893,(10, 105),12	9905,(10, 106),12	9917,(10, 108),80	9997,(10, 112),4	10001,(10, 114),48	10049,(44, 121),36	10085,(99, 121),36	10121,(33, 121),36	10157,(36, 121),36	10193,(59, 121),36	10229,(93, 121),36	10265,(30, 121),36	10301,(54, 121),36	10337,(69, 121),36	10373,(73, 121),36	10409,(109, 121),36	10445,(110, 121),36	10481,(41, 121),36	10517,(50, 121),36	10553,(107, 121),36	10589,(118, 121),36	10625,(42, 121),36	10661,(102, 121),36	10697,(72, 121),36	10733,(116, 121),36	10769,(66, 121),36	10805,(75, 121),36	
1,(0, 1),60	61,(0, 3),60	121,(0, 5),60	181,(0, 7),60	241,(0, 10),60	309,(2, 33),24	333,(2, 36),16	977,(2, 59),36	1293,(2, 93),44	1381,(4, 30),56	1469,(4, 54),64	1589,(4, 69),8	1597,(4, 73),32	2661,(4, 109),20	2681,(4, 110),12	2925,(4, 118),36	3217,(11, 41),4	3221,(11, 42),4	3313,(11, 50),4	4125,(11, 107),4	4965,(9, 118),4	5405,(12, 42),4	5873,(8, 102),4	
7777,(3, 72),4	9689,(7, 116),4	9885,(10, 66),4	9889,(10, 75),4	
# Outgoing

7077,(1, 16),96	7173,(1, 19),40	7213,(1, 23),124	7337,(1, 38),36	7373,(1, 71),20	7393,(1, 79),4	7397,(1, 80),16	7413,(1, 81),4	7417,(1, 84),28	7445,(1, 86),120	7565,(1, 95),4	7569,(1, 106),24	7593,(35, 121),36	7629,(97, 121),36	7665,(78, 121),36	7701,(3, 17),12	7713,(3, 31),12	7725,(3, 49),32	7757,(3, 58),4	7761,(3, 61),4	7765,(3, 62),4	7769,(3, 68),8	7777,(3, 72),4	7781,(3, 76),112	7893,(3, 82),96	7989,(3, 87),52	8041,(3, 113),4	8045,(3, 115),28	8073,(52, 121),36	8109,(5, 14),168	8277,(5, 22),328	8605,(5, 37),20	8625,(5, 61),24	8649,(5, 68),36	8685,(5, 81),8	8693,(5, 108),20	8713,(25, 121),36	8749,(45, 121),36	8785,(56, 121),36	8821,(57, 121),36	8857,(7, 17),92	8949,(7, 29),24	8973,(7, 34),112	9085,(7, 43),20	9105,(7, 46),72	9177,(7, 49),12	9189,(7, 51),12	9201,(7, 58),148	9349,(7, 62),224	9573,(7, 84),4	9577,(7, 86),4	9581,(7, 91),44	9625,(7, 96),16	9641,(7, 100),20	9661,(7, 105),8	9669,(7, 115),20	9689,(7, 116),4	9693,(7, 117),4	9697,(39, 121),36	9733,(40, 121),36	9769,(98, 121),36	9805,(10, 29),20	9825,(10, 46),20	9845,(10, 49),4	9849,(10, 58),24	9873,(10, 61),12	9885,(10, 66),4	9889,(10, 75),4	9893,(10, 105),12	9905,(10, 106),12	9917,(10, 108),80	9997,(10, 112),4	10001,(10, 114),48	10049,(44, 121),36	10085,(99, 121),36	10121,(33, 121),36	10157,(36, 121),36	10193,(59, 121),36	10229,(93, 121),36	10265,(30, 121),36	10301,(54, 121),36	10337,(69, 121),36	10373,(73, 121),36	10409,(109, 121),36	10445,(110, 121),36	10481,(41, 121),36	10517,(50, 121),36	10553,(107, 121),36	10589,(118, 121),36	10625,(42, 121),36	10661,(102, 121),36	
1,(0, 1),60	61,(0, 3),60	121,(0, 5),60	181,(0, 7),60	241,(0, 10),60	301,(2, 22),8	309,(2, 33),24	333,(2, 36),16	349,(2, 38),40	389,(2, 55),588	977,(2, 59),36	1013,(2, 79),108	1121,(2, 81),12	1133,(2, 82),4	1137,(2, 83),152	1289,(2, 86),4	1293,(2, 93),44	1337,(2, 105),28	1365,(4, 20),12	1377,(4, 23),4	1381,(4, 30),56	1437,(4, 31),4	1441,(4, 46),20	1461,(4, 51),8	1469,(4, 54),64	1533,(4, 62),56	1589,(4, 69),8	1597,(4, 73),32	1629,(4, 79),4	1633,(4, 83),40	1673,(4, 86),252	1925,(4, 87),528	2453,(4, 88),116	2569,(4, 94),4	2573,(4, 95),88	2661,(4, 109),20	2681,(4, 110),12	2693,(4, 112),4	2697,(4, 114),76	2773,(4, 117),152	2925,(4, 118),36	2961,(11, 37),4	2965,(11, 38),252	3217,(11, 41),4	3221,(11, 42),4	3225,(11, 43),88	3313,(11, 50),4	3317,(11, 62),144	3461,(11, 71),168	3629,(11, 77),148	3777,(11, 94),12	3789,(11, 95),16	3805,(11, 101),320	4125,(11, 107),4	4129,(11, 117),24	4153,(9, 17),4	4157,(9, 48),264	4421,(9, 63),80	4501,(9, 80),4	4505,(9, 84),4	4509,(9, 100),216	4725,(9, 112),152	4877,(9, 113),88	4965,(9, 118),4	4969,(12, 14),28	4997,(12, 16),72	5069,(12, 20),60	5129,(12, 22),4	5133,(12, 23),36	5169,(12, 27),20	5189,(12, 31),8	5197,(12, 34),172	5369,(12, 37),36	5405,(12, 42),4	5409,(12, 48),32	5441,(12, 51),24	5465,(12, 55),4	5469,(12, 71),28	5497,(12, 77),8	5505,(12, 82),24	5529,(12, 92),8	5537,(12, 94),52	5589,(12, 100),4	5593,(12, 104),16	5609,(8, 14),24	5633,(8, 17),4	5637,(8, 20),12	5649,(8, 22),84	5733,(8, 23),36	5769,(8, 37),8	5777,(8, 38),4	5781,(8, 55),4	5785,(8, 76),16	5801,(8, 92),20	5821,(8, 96),4	5825,(8, 101),48	5873,(8, 102),4	5877,(8, 105),24	5901,(6, 19),12	5913,(6, 27),44	5957,(6, 38),24	5981,(6, 61),20	6001,(6, 63),72	6073,(6, 68),20	6093,(6, 76),4	6097,(6, 86),4	6101,(6, 91),44	6145,(6, 96),40	6185,(6, 101),4	6189,(6, 104),60	6249,(103, 121),36	6285,(15, 121),36	6321,(13, 121),36	6357,(18, 121),36	6393,(47, 121),36	6429,(89, 121),36	6465,(120, 121),36	6501,(53, 121),36	6537,(32, 121),36	6573,(70, 121),36	6609,(74, 121),36	6645,(67, 121),36	6681,(21, 121),36	6717,(26, 121),36	6753,(111, 121),36	6789,(119, 121),36	6825,(64, 121),36	6861,(60, 121),36	6897,(24, 121),36	6933,(28, 121),36	6969,(90, 121),36	7005,(85, 121),36	7041,(65, 121),36	10697,(72, 121),36	10733,(116, 121),36	10769,(66, 121),36	10805,(75, 121),36	
