7954
# CPU
9,3,4	13,22,4	17,144,4	21,6,4	25,9,4	29,39,4	33,138,4	37,184,4	41,62,4	45,90,4	49,114,4	53,118,4	57,12,4	61,148,4	65,15,4	69,150,4	73,18,4	77,98,4	81,152,4	85,156,4	89,104,4	93,120,4	97,44,4	101,130,4	105,188,4	109,25,4	113,29,4	129,132,4	157,160,4	193,178,4	217,194,4	233,96,4	521,47,4	525,52,4	697,63,4	721,76,4	1281,180,4	1285,38,4	1289,74,4	1293,92,4	1369,100,4	1381,106,4	1397,59,4	1441,112,4	1469,162,4	1485,166,4	1489,181,4	1593,142,4	1601,37,4	1609,51,4	1673,35,4	1693,49,4	1753,168,4	1793,192,4	1853,68,4	1881,65,4	1885,122,4	2069,80,4	2177,86,4	2321,88,4	2933,42,4	2941,82,4	3049,182,4	3057,94,4	3065,134,4	3089,64,4	3125,67,4	3129,78,4	3173,36,4	3289,110,4	3325,60,4	3381,66,4	3537,158,4	3633,146,4	3665,57,4	3773,140,4	3909,53,4	3921,46,4	3929,136,4	4005,196,4	4021,26,4	4025,45,4	4109,48,4	4257,58,4	4281,70,4	4285,84,4	4297,108,4	4385,124,4	4465,126,4	4501,128,4	4525,69,4	4585,174,4	4641,172,4	4661,198,4	4665,33,4	4685,34,4	4809,55,4	4921,61,4	4949,72,4	4957,164,4	4965,170,4	4981,190,4	4993,30,4	5005,41,4	5089,43,4	5093,50,4	5121,116,4	5217,102,4	5381,176,4	5413,186,4	5417,200,4	5565,154,4	
5,2,4	13,5,4	17,119,4	21,149,4	25,155,4	29,169,4	33,8,4	37,11,4	41,14,4	45,91,4	49,147,4	53,109,4	57,123,4	61,131,4	65,77,4	69,81,4	73,189,4	77,17,4	81,195,4	85,27,4	89,20,4	93,161,4	97,197,4	101,24,4	105,99,4	109,71,4	113,105,4	593,107,4	597,121,4	609,125,4	625,75,4	897,113,4	945,115,4	949,135,4	1241,175,4	1273,87,4	1309,117,4	1325,79,4	1341,167,4	1381,177,4	1405,111,4	1413,193,4	1493,129,4	1573,185,4	1609,145,4	1613,159,4	2145,165,4	2237,54,4	2325,101,4	2329,141,4	2485,143,4	2521,153,4	2617,187,4	2937,199,4	2945,23,4	3065,32,4	3177,103,4	3297,137,4	3381,157,4	3541,163,4	3557,173,4	3565,183,4	3637,191,4	3925,93,4	3933,139,4	4289,85,4	4297,97,4	4605,133,4	4637,171,4	4825,40,4	4833,56,4	4953,95,4	5001,31,4	5113,73,4	5117,83,4	5261,127,4	5309,151,4	7493,89,4	7917,179,4	7953,201,1	
0,0,1	1,1,4	5,19,4	9,7,4	13,4,4	17,10,4	21,13,4	25,16,4	993,21,4	3077,28,4	
# Incoming
5,(0, 3),4	9,(2, 36),4	13,(0, 6),4	17,(5, 78),4	21,(0, 9),4	25,(5, 138),4	29,(0, 12),4	33,(5, 148),4	37,(0, 15),4	41,(5, 150),4	45,(0, 18),4	49,(2, 72),8	57,(2, 110),16	73,(2, 132),56	129,(2, 160),28	157,(2, 170),24	181,(2, 178),12	193,(2, 194),24	217,(5, 96),16	233,(5, 162),24	257,(8, 26),48	305,(8, 43),120	425,(11, 84),4	429,(1, 33),16	445,(1, 42),68	513,(1, 47),8	521,(1, 52),4	525,(1, 55),16	541,(1, 63),156	697,(1, 65),16	713,(1, 76),8	721,(1, 80),556	1277,(11, 180),4	1281,(14, 38),4	1285,(14, 74),4	1289,(14, 92),4	1293,(1, 88),72	1365,(1, 100),4	1369,(1, 106),12	1381,(14, 59),16	1397,(14, 172),4	1401,(14, 174),4	1405,(1, 112),36	1441,(8, 162),28	1469,(14, 166),16	1485,(14, 181),4	1489,(17, 46),4	1493,(1, 142),100	1593,(17, 37),8	1601,(17, 51),8	1609,(20, 33),4	1613,(1, 172),32	1645,(19, 35),28	1673,(19, 41),16	1689,(19, 49),4	1693,(8, 168),60	1753,(8, 192),40	1793,(11, 68),60	1853,(14, 65),28	1881,(20, 122),4	1885,(19, 80),184	2069,(19, 86),108	2177,(19, 88),144	2321,(11, 57),264	2585,(14, 186),28	2613,(20, 176),4	2617,(19, 190),296	2913,(19, 196),4	2917,(17, 42),16	2933,(17, 82),8	2945,(7, 26),32	2977,(11, 182),72	3049,(17, 94),8	3057,(17, 134),8	3065,(7, 64),24	3089,(7, 67),36	3125,(7, 78),4	3129,(14, 36),44	3177,(7, 108),4	3181,(7, 110),108	3289,(17, 60),36	3325,(17, 66),56	3381,(7, 158),156	3537,(14, 146),96	3637,(4, 50),20	3657,(4, 57),8	3665,(4, 69),4	3669,(14, 140),104	3773,(17, 53),136	3909,(20, 46),12	3925,(4, 136),4	3933,(4, 174),4	3937,(4, 196),68	4005,(10, 26),16	4021,(10, 45),4	4025,(10, 48),84	4109,(10, 58),148	4257,(10, 70),24	4281,(10, 84),4	4285,(20, 108),12	4297,(10, 124),88	4385,(10, 126),80	4465,(10, 128),36	4501,(17, 69),24	4525,(17, 176),40	4565,(20, 174),20	4637,(10, 172),4	4641,(10, 198),20	4661,(13, 33),4	4665,(13, 34),20	4685,(20, 55),124	4833,(13, 61),88	4921,(13, 72),28	4953,(13, 164),4	4957,(13, 170),8	4965,(13, 190),16	4981,(16, 30),12	5001,(16, 41),4	5005,(16, 43),84	5089,(16, 50),4	5117,(16, 116),4	5121,(20, 102),96	5309,(16, 176),72	5381,(16, 186),32	5413,(16, 200),4	5417,(20, 154),148	
1,(0, 2),4	9,(0, 5),4	17,(0, 8),4	25,(0, 11),4	33,(0, 14),4	41,(0, 17),4	49,(0, 20),4	53,(1, 23),8	61,(1, 31),368	429,(3, 107),164	593,(3, 121),4	597,(3, 125),12	609,(22, 201),4	613,(144, 201),4	617,(6, 75),8	625,(6, 113),272	897,(6, 115),48	945,(6, 135),4	949,(6, 191),12	961,(6, 193),12	977,(9, 79),208	1185,(9, 137),16	1201,(9, 167),36	1237,(9, 175),4	1241,(39, 201),4	1245,(138, 201),4	1249,(184, 201),4	1253,(62, 201),4	1257,(90, 201),4	1261,(114, 201),4	1265,(118, 201),4	1269,(12, 87),4	1273,(148, 201),4	1277,(1, 83),16	1293,(12, 117),16	1309,(15, 79),16	1325,(15, 167),16	1341,(15, 177),40	1381,(1, 111),24	1405,(150, 201),4	1409,(18, 193),4	1413,(98, 201),4	1417,(152, 201),4	1421,(156, 201),4	1425,(104, 201),4	1429,(120, 201),4	1433,(44, 201),4	1437,(130, 201),4	1441,(1, 129),52	1493,(12, 185),80	1573,(188, 201),4	1577,(25, 201),4	1581,(29, 201),4	1585,(132, 201),4	1589,(160, 201),4	1593,(1, 145),16	1609,(1, 159),4	1613,(178, 201),4	1617,(194, 201),4	1621,(96, 201),4	1625,(47, 201),4	1629,(52, 201),4	1633,(63, 201),4	1637,(76, 201),4	1641,(180, 201),4	1645,(38, 201),4	1649,(74, 201),4	1653,(92, 201),4	1657,(100, 201),4	1661,(106, 201),4	1665,(59, 201),4	1669,(112, 201),4	1673,(162, 201),4	1677,(166, 201),4	1681,(181, 201),4	1685,(142, 201),4	1689,(37, 201),4	1693,(19, 56),192	1885,(9, 93),124	2009,(9, 165),136	2145,(15, 54),92	2321,(19, 101),4	2325,(19, 141),4	2329,(19, 143),156	2485,(19, 153),36	2521,(19, 187),96	2917,(19, 199),20	2937,(7, 23),8	2977,(7, 32),88	3077,(51, 201),4	3081,(35, 201),4	3085,(49, 201),4	3089,(168, 201),4	3093,(192, 201),4	3097,(68, 201),4	3101,(65, 201),4	3105,(122, 201),4	3109,(80, 201),4	3113,(86, 201),4	3117,(88, 201),4	3121,(42, 201),4	3125,(82, 201),4	3129,(7, 103),48	3177,(18, 173),84	3261,(182, 201),4	3265,(94, 201),4	3269,(134, 201),4	3273,(64, 201),4	3277,(67, 201),4	3281,(78, 201),4	3285,(36, 201),4	3289,(7, 137),8	3297,(7, 157),84	3381,(110, 201),4	3385,(60, 201),4	3389,(66, 201),4	3537,(7, 163),4	3541,(7, 173),16	3557,(7, 183),8	3565,(7, 191),72	3637,(158, 201),4	3641,(146, 201),4	3669,(4, 73),156	3825,(4, 85),80	3905,(4, 89),12	3917,(4, 93),8	3925,(57, 201),4	3929,(4, 139),4	3933,(140, 201),4	3937,(53, 201),4	3941,(46, 201),4	3945,(136, 201),4	4009,(196, 201),4	4025,(26, 201),4	4029,(45, 201),4	4113,(48, 201),4	4261,(58, 201),4	4285,(10, 85),4	4289,(10, 97),8	4297,(70, 201),4	4301,(84, 201),4	4305,(108, 201),4	4389,(124, 201),4	4469,(126, 201),4	4501,(10, 133),104	4605,(10, 171),32	4637,(128, 201),4	4641,(69, 201),4	4645,(174, 201),4	4649,(172, 201),4	4665,(198, 201),4	4669,(33, 201),4	4685,(13, 40),140	4825,(13, 56),8	4833,(34, 201),4	4837,(55, 201),4	4925,(61, 201),4	4949,(13, 95),4	4953,(72, 201),4	4961,(164, 201),4	4969,(170, 201),4	4985,(190, 201),4	4993,(16, 31),8	5001,(30, 201),4	5009,(41, 201),4	5093,(16, 73),20	5113,(16, 83),4	5117,(43, 201),4	5121,(16, 127),140	5261,(16, 151),48	5309,(15, 89),2184	7493,(18, 179),424	7917,(21, 201),4	7921,(28, 201),4	7925,(50, 201),4	7929,(116, 201),4	7933,(102, 201),4	7937,(176, 201),4	7941,(186, 201),4	7945,(200, 201),4	7949,(154, 201),4	
973,(9, 21),4	977,(20, 21),16	2237,(18, 28),840	
# Outgoing
429,(3, 107),164	593,(3, 121),4	597,(3, 125),12	609,(22, 201),4	613,(144, 201),4	617,(6, 75),8	625,(6, 113),272	897,(6, 115),48	945,(6, 135),4	949,(6, 191),12	961,(6, 193),12	973,(9, 21),4	977,(9, 79),208	1185,(9, 137),16	1201,(9, 167),36	1237,(9, 175),4	1241,(39, 201),4	1245,(138, 201),4	1249,(184, 201),4	1253,(62, 201),4	1257,(90, 201),4	1261,(114, 201),4	1265,(118, 201),4	1269,(12, 87),4	1273,(148, 201),4	1293,(12, 117),16	1309,(15, 79),16	1325,(15, 167),16	1341,(15, 177),40	1405,(150, 201),4	1409,(18, 193),4	1413,(98, 201),4	1417,(152, 201),4	1421,(156, 201),4	1425,(104, 201),4	1429,(120, 201),4	1433,(44, 201),4	1437,(130, 201),4	1493,(12, 185),80	1573,(188, 201),4	1577,(25, 201),4	1581,(29, 201),4	1585,(132, 201),4	1589,(160, 201),4	1613,(178, 201),4	1617,(194, 201),4	1621,(96, 201),4	1625,(47, 201),4	1629,(52, 201),4	1633,(63, 201),4	1637,(76, 201),4	1641,(180, 201),4	1645,(38, 201),4	1649,(74, 201),4	1653,(92, 201),4	1657,(100, 201),4	1661,(106, 201),4	1665,(59, 201),4	1669,(112, 201),4	1673,(162, 201),4	1677,(166, 201),4	1681,(181, 201),4	1685,(142, 201),4	1689,(37, 201),4	1885,(9, 93),124	2009,(9, 165),136	2145,(15, 54),92	2237,(18, 28),840	3077,(51, 201),4	3081,(35, 201),4	3085,(49, 201),4	3089,(168, 201),4	3093,(192, 201),4	3097,(68, 201),4	3101,(65, 201),4	3105,(122, 201),4	3109,(80, 201),4	3113,(86, 201),4	3117,(88, 201),4	3121,(42, 201),4	3125,(82, 201),4	3177,(18, 173),84	3261,(182, 201),4	3265,(94, 201),4	3269,(134, 201),4	3273,(64, 201),4	3277,(67, 201),4	3281,(78, 201),4	3285,(36, 201),4	3381,(110, 201),4	3385,(60, 201),4	3389,(66, 201),4	3637,(158, 201),4	3641,(146, 201),4	3925,(57, 201),4	3933,(140, 201),4	3937,(53, 201),4	3941,(46, 201),4	3945,(136, 201),4	4009,(196, 201),4	4025,(26, 201),4	4029,(45, 201),4	4113,(48, 201),4	4261,(58, 201),4	4297,(70, 201),4	4301,(84, 201),4	4305,(108, 201),4	4389,(124, 201),4	4469,(126, 201),4	4637,(128, 201),4	4641,(69, 201),4	4645,(174, 201),4	4649,(172, 201),4	4665,(198, 201),4	4669,(33, 201),4	4833,(34, 201),4	4837,(55, 201),4	4925,(61, 201),4	4953,(72, 201),4	4961,(164, 201),4	4969,(170, 201),4	4985,(190, 201),4	5001,(30, 201),4	5009,(41, 201),4	5117,(43, 201),4	5309,(15, 89),2184	7493,(18, 179),424	7925,(50, 201),4	7929,(116, 201),4	7933,(102, 201),4	7937,(176, 201),4	7941,(186, 201),4	7945,(200, 201),4	7949,(154, 201),4	
9,(2, 36),4	17,(5, 78),4	25,(5, 138),4	33,(5, 148),4	41,(5, 150),4	49,(2, 72),8	57,(2, 110),16	73,(2, 132),56	129,(2, 160),28	157,(2, 170),24	181,(2, 178),12	193,(2, 194),24	217,(5, 96),16	233,(5, 162),24	257,(8, 26),48	305,(8, 43),120	425,(11, 84),4	977,(20, 21),16	1277,(11, 180),4	1281,(14, 38),4	1285,(14, 74),4	1289,(14, 92),4	1381,(14, 59),16	1397,(14, 172),4	1401,(14, 174),4	1441,(8, 162),28	1469,(14, 166),16	1485,(14, 181),4	1489,(17, 46),4	1593,(17, 37),8	1601,(17, 51),8	1609,(20, 33),4	1693,(8, 168),60	1753,(8, 192),40	1793,(11, 68),60	1853,(14, 65),28	1881,(20, 122),4	2321,(11, 57),264	2585,(14, 186),28	2613,(20, 176),4	2917,(17, 42),16	2933,(17, 82),8	2977,(11, 182),72	3049,(17, 94),8	3057,(17, 134),8	3129,(14, 36),44	3289,(17, 60),36	3325,(17, 66),56	3537,(14, 146),96	3669,(14, 140),104	3773,(17, 53),136	3909,(20, 46),12	4285,(20, 108),12	4501,(17, 69),24	4525,(17, 176),40	4565,(20, 174),20	4685,(20, 55),124	5121,(20, 102),96	5417,(20, 154),148	
1,(0, 2),4	5,(0, 3),4	9,(0, 5),4	13,(0, 6),4	17,(0, 8),4	21,(0, 9),4	25,(0, 11),4	29,(0, 12),4	33,(0, 14),4	37,(0, 15),4	41,(0, 17),4	45,(0, 18),4	49,(0, 20),4	53,(1, 23),8	61,(1, 31),368	429,(1, 33),16	445,(1, 42),68	513,(1, 47),8	521,(1, 52),4	525,(1, 55),16	541,(1, 63),156	697,(1, 65),16	713,(1, 76),8	721,(1, 80),556	1277,(1, 83),16	1293,(1, 88),72	1365,(1, 100),4	1369,(1, 106),12	1381,(1, 111),24	1405,(1, 112),36	1441,(1, 129),52	1493,(1, 142),100	1593,(1, 145),16	1609,(1, 159),4	1613,(1, 172),32	1645,(19, 35),28	1673,(19, 41),16	1689,(19, 49),4	1693,(19, 56),192	1885,(19, 80),184	2069,(19, 86),108	2177,(19, 88),144	2321,(19, 101),4	2325,(19, 141),4	2329,(19, 143),156	2485,(19, 153),36	2521,(19, 187),96	2617,(19, 190),296	2913,(19, 196),4	2917,(19, 199),20	2937,(7, 23),8	2945,(7, 26),32	2977,(7, 32),88	3065,(7, 64),24	3089,(7, 67),36	3125,(7, 78),4	3129,(7, 103),48	3177,(7, 108),4	3181,(7, 110),108	3289,(7, 137),8	3297,(7, 157),84	3381,(7, 158),156	3537,(7, 163),4	3541,(7, 173),16	3557,(7, 183),8	3565,(7, 191),72	3637,(4, 50),20	3657,(4, 57),8	3665,(4, 69),4	3669,(4, 73),156	3825,(4, 85),80	3905,(4, 89),12	3917,(4, 93),8	3925,(4, 136),4	3929,(4, 139),4	3933,(4, 174),4	3937,(4, 196),68	4005,(10, 26),16	4021,(10, 45),4	4025,(10, 48),84	4109,(10, 58),148	4257,(10, 70),24	4281,(10, 84),4	4285,(10, 85),4	4289,(10, 97),8	4297,(10, 124),88	4385,(10, 126),80	4465,(10, 128),36	4501,(10, 133),104	4605,(10, 171),32	4637,(10, 172),4	4641,(10, 198),20	4661,(13, 33),4	4665,(13, 34),20	4685,(13, 40),140	4825,(13, 56),8	4833,(13, 61),88	4921,(13, 72),28	4949,(13, 95),4	4953,(13, 164),4	4957,(13, 170),8	4965,(13, 190),16	4981,(16, 30),12	4993,(16, 31),8	5001,(16, 41),4	5005,(16, 43),84	5089,(16, 50),4	5093,(16, 73),20	5113,(16, 83),4	5117,(16, 116),4	5121,(16, 127),140	5261,(16, 151),48	5309,(16, 176),72	5381,(16, 186),32	5413,(16, 200),4	7917,(21, 201),4	7921,(28, 201),4	
