418
# CPU
0,41,1	1,29,14	15,32,14	29,40,14	43,34,14	57,30,14	71,27,14	85,20,14	99,19,14	113,9,14	127,8,14	141,38,14	155,24,14	169,12,14	183,13,14	197,26,14	211,36,14	225,16,14	239,37,14	253,31,14	267,39,14	281,7,14	295,10,14	309,2,14	323,1,14	403,3,14	417,0,1	
41,11,14	61,28,14	161,18,14	241,14,14	261,21,14	281,15,14	321,4,14	
121,5,14	141,6,14	
21,23,14	81,25,14	101,35,14	181,33,14	201,17,14	221,22,14	
# Incoming
115,(35, 2),8	123,(11, 1),4	127,(25, 1),4	131,(28, 3),4	155,(6, 1),20	195,(33, 3),28	235,(22, 1),48	283,(17, 3),44	335,(4, 0),8	343,(14, 3),60	
21,(41, 11),20	41,(41, 28),20	123,(23, 4),4	141,(41, 18),20	175,(5, 4),16	221,(41, 14),20	241,(41, 21),20	261,(41, 15),20	281,(40, 4),4	285,(27, 4),4	289,(19, 4),4	293,(9, 4),12	305,(8, 4),16	
101,(41, 5),20	121,(41, 6),20	
1,(41, 23),20	61,(41, 25),20	81,(41, 35),20	161,(41, 33),20	181,(41, 17),20	201,(41, 22),20	
# Outgoing
1,(41, 23),20	21,(41, 11),20	41,(41, 28),20	61,(41, 25),20	81,(41, 35),20	101,(41, 5),20	121,(41, 6),20	141,(41, 18),20	161,(41, 33),20	181,(41, 17),20	201,(41, 22),20	221,(41, 14),20	241,(41, 21),20	261,(41, 15),20	281,(40, 4),4	285,(27, 4),4	289,(19, 4),4	293,(9, 4),12	305,(8, 4),16	
123,(11, 1),4	131,(28, 3),4	335,(4, 0),8	343,(14, 3),60	
155,(6, 1),20	175,(5, 4),16	
115,(35, 2),8	123,(23, 4),4	127,(25, 1),4	195,(33, 3),28	235,(22, 1),48	283,(17, 3),44	
