540
# CPU
214,6,8	264,10,8	283,14,8	369,18,8	
195,5,8	248,9,8	281,13,8	297,17,8	
2,2,8	10,4,8	18,8,8	41,12,8	49,16,8	79,20,8	
0,0,1	1,1,8	170,3,8	247,7,8	280,11,8	294,15,8	531,19,8	539,21,1	
# Incoming
12,(1, 6),15	28,(1, 10),7	41,(1, 14),2	59,(1, 18),1	195,(2, 6),19	248,(2, 10),16	281,(2, 14),2	297,(2, 18),72	
9,(1, 5),3	27,(1, 9),1	49,(1, 17),10	170,(2, 5),25	247,(2, 9),1	280,(2, 13),1	294,(2, 17),3	
1,(0, 2),1	35,(1, 12),6	43,(1, 16),6	60,(1, 20),19	
10,(2, 3),160	203,(5, 21),1	214,(2, 7),33	247,(6, 21),1	256,(9, 21),1	264,(2, 11),16	280,(10, 21),1	283,(2, 15),11	294,(13, 21),1	295,(14, 21),1	305,(17, 21),1	369,(2, 19),162	531,(4, 21),1	532,(8, 21),1	533,(12, 21),1	534,(16, 21),1	535,(20, 21),1	536,(18, 21),1	
# Outgoing
247,(6, 21),1	280,(10, 21),1	295,(14, 21),1	536,(18, 21),1	
203,(5, 21),1	256,(9, 21),1	294,(13, 21),1	305,(17, 21),1	
10,(2, 3),160	170,(2, 5),25	195,(2, 6),19	214,(2, 7),33	247,(2, 9),1	248,(2, 10),16	264,(2, 11),16	280,(2, 13),1	281,(2, 14),2	283,(2, 15),11	294,(2, 17),3	297,(2, 18),72	369,(2, 19),162	531,(4, 21),1	532,(8, 21),1	533,(12, 21),1	534,(16, 21),1	535,(20, 21),1	
1,(0, 2),1	9,(1, 5),3	12,(1, 6),15	27,(1, 9),1	28,(1, 10),7	35,(1, 12),6	41,(1, 14),2	43,(1, 16),6	49,(1, 17),10	59,(1, 18),1	60,(1, 20),19	
