838
# CPU
0,121,1	1,40,6	7,87,6	13,103,6	19,96,6	25,24,6	31,82,6	37,38,6	43,81,6	49,22,6	55,94,6	61,46,6	67,93,6	73,48,6	79,72,6	85,28,6	91,109,6	97,49,6	103,114,6	109,76,6	115,16,6	121,17,6	127,70,6	133,13,6	139,61,6	145,18,6	151,111,6	157,104,6	163,92,6	169,58,6	175,57,6	181,39,6	187,54,6	193,15,6	199,120,6	205,68,6	211,47,6	217,27,6	223,75,6	229,23,6	235,98,6	241,106,6	247,95,6	253,83,6	259,97,6	265,65,6	271,31,6	277,86,6	283,60,6	289,53,6	295,45,6	301,116,6	307,112,6	313,20,6	319,29,6	325,34,6	331,21,6	337,14,6	343,99,6	349,73,6	355,56,6	361,105,6	367,100,6	373,32,6	379,80,6	385,101,6	391,26,6	397,43,6	403,71,6	409,108,6	415,90,6	421,44,6	427,74,6	433,30,6	439,67,6	445,52,6	451,64,6	457,117,6	463,69,6	469,89,6	475,118,6	481,79,6	487,102,6	493,12,6	499,35,6	505,42,6	511,9,6	517,1,6	523,2,6	529,4,6	535,6,6	541,11,6	547,5,6	553,10,6	593,7,6	687,3,6	831,8,6	837,0,1	
21,77,6	81,36,6	101,50,6	141,41,6	181,33,6	201,85,6	221,51,6	261,55,6	301,25,6	361,78,6	461,66,6	481,37,6	
61,63,6	401,19,6	
41,59,6	121,113,6	161,88,6	241,115,6	281,107,6	321,110,6	341,62,6	381,119,6	421,84,6	441,91,6	
# Incoming
87,(36, 12),2	89,(63, 1),2	91,(77, 2),2	93,(36, 2),2	107,(50, 6),2	147,(41, 7),4	187,(33, 7),4	207,(85, 12),2	209,(85, 6),6	227,(51, 2),6	267,(55, 9),10	287,(107, 1),12	299,(115, 2),8	307,(113, 3),2	309,(107, 3),6	315,(59, 8),2	317,(88, 8),4	327,(110, 4),18	347,(62, 6),22	369,(78, 10),26	407,(19, 4),2	409,(25, 3),18	427,(84, 11),36	463,(19, 5),34	497,(37, 5),2	499,(119, 10),28	527,(84, 7),4	531,(91, 7),44	575,(37, 7),18	593,(19, 3),24	617,(66, 3),70	687,(37, 8),144	
1,(121, 77),20	61,(121, 36),20	81,(121, 50),20	121,(121, 41),20	161,(121, 33),20	181,(121, 85),20	201,(121, 51),20	241,(121, 55),20	281,(121, 25),20	341,(121, 78),20	441,(121, 66),20	461,(121, 37),20	
41,(121, 63),20	381,(121, 19),20	
21,(121, 59),20	101,(121, 113),20	141,(121, 88),20	221,(121, 115),20	261,(121, 107),20	301,(121, 110),20	321,(121, 62),20	361,(121, 119),20	401,(121, 84),20	421,(121, 91),20	
# Outgoing
1,(121, 77),20	21,(121, 59),20	41,(121, 63),20	61,(121, 36),20	81,(121, 50),20	101,(121, 113),20	121,(121, 41),20	141,(121, 88),20	161,(121, 33),20	181,(121, 85),20	201,(121, 51),20	221,(121, 115),20	241,(121, 55),20	261,(121, 107),20	281,(121, 25),20	301,(121, 110),20	321,(121, 62),20	341,(121, 78),20	361,(121, 119),20	381,(121, 19),20	401,(121, 84),20	421,(121, 91),20	441,(121, 66),20	461,(121, 37),20	
87,(36, 12),2	91,(77, 2),2	93,(36, 2),2	107,(50, 6),2	147,(41, 7),4	187,(33, 7),4	207,(85, 12),2	209,(85, 6),6	227,(51, 2),6	267,(55, 9),10	369,(78, 10),26	409,(25, 3),18	497,(37, 5),2	575,(37, 7),18	617,(66, 3),70	687,(37, 8),144	
89,(63, 1),2	407,(19, 4),2	463,(19, 5),34	593,(19, 3),24	
287,(107, 1),12	299,(115, 2),8	307,(113, 3),2	309,(107, 3),6	315,(59, 8),2	317,(88, 8),4	327,(110, 4),18	347,(62, 6),22	427,(84, 11),36	499,(119, 10),28	527,(84, 7),4	531,(91, 7),44	
