18426
# CPU
1145,29,4	1149,39,4	
277,25,4	281,37,4	1165,40,4	
1141,22,4	1145,36,4	1153,38,4	1161,30,4	
313,33,4	937,21,4	1105,27,4	
257,23,4	745,16,4	1141,28,4	
137,13,4	157,14,4	165,12,4	205,34,4	273,24,4	1137,18,4	1189,35,4	
49,4,4	121,11,4	125,10,4	221,17,4	353,31,4	433,32,4	
33,3,4	89,9,4	225,19,4	1089,26,4	
17,2,4	89,7,4	173,15,4	661,6,4	737,8,4	933,20,4	18425,41,1	
0,0,1	1,1,4	653,5,4	
# Incoming
89,(2, 39),4	1141,(4, 29),4	1145,(4, 39),4	
273,(1, 25),4	277,(3, 37),4	1153,(2, 40),12	
353,(1, 36),68	433,(3, 36),16	449,(3, 38),20	1137,(2, 22),4	1141,(2, 36),4	1145,(2, 38),8	1153,(4, 30),8	
229,(1, 21),4	277,(1, 27),4	281,(3, 33),32	933,(4, 21),4	1089,(4, 27),16	
233,(1, 23),4	237,(3, 23),20	737,(4, 16),8	1105,(4, 28),36	
121,(1, 13),16	137,(1, 14),20	157,(2, 12),8	165,(2, 34),40	205,(3, 18),24	237,(1, 24),36	273,(2, 18),864	1137,(3, 35),52	
33,(0, 4),16	89,(1, 11),32	121,(2, 10),4	173,(1, 17),48	281,(1, 31),72	353,(3, 32),80	
17,(0, 3),16	33,(2, 9),56	221,(1, 19),4	937,(4, 26),152	
1,(0, 2),16	49,(1, 6),8	57,(1, 7),32	89,(3, 8),32	157,(1, 15),16	225,(1, 20),4	653,(4, 6),8	661,(4, 8),76	745,(4, 20),188	1189,(9, 41),556	1745,(11, 41),556	2301,(10, 41),556	2857,(13, 41),556	3413,(14, 41),556	3969,(12, 41),556	4525,(34, 41),556	5081,(17, 41),556	5637,(19, 41),556	6193,(23, 41),556	6749,(24, 41),556	7305,(25, 41),556	7861,(37, 41),556	8417,(33, 41),556	8973,(31, 41),556	9529,(32, 41),556	10085,(5, 41),556	10641,(16, 41),556	11197,(21, 41),556	11753,(26, 41),556	12309,(27, 41),556	12865,(18, 41),556	13421,(28, 41),556	13977,(22, 41),556	14533,(36, 41),556	15089,(29, 41),556	15645,(39, 41),556	16201,(38, 41),556	16757,(30, 41),556	17313,(40, 41),556	17869,(35, 41),556	
53,(4, 5),600	
# Outgoing
15089,(29, 41),556	15645,(39, 41),556	
7305,(25, 41),556	7861,(37, 41),556	17313,(40, 41),556	
13977,(22, 41),556	14533,(36, 41),556	16201,(38, 41),556	16757,(30, 41),556	
8417,(33, 41),556	11197,(21, 41),556	12309,(27, 41),556	
6193,(23, 41),556	10641,(16, 41),556	13421,(28, 41),556	
2857,(13, 41),556	3413,(14, 41),556	3969,(12, 41),556	4525,(34, 41),556	6749,(24, 41),556	12865,(18, 41),556	17869,(35, 41),556	
53,(4, 5),600	653,(4, 6),8	661,(4, 8),76	737,(4, 16),8	745,(4, 20),188	933,(4, 21),4	937,(4, 26),152	1089,(4, 27),16	1105,(4, 28),36	1141,(4, 29),4	1145,(4, 39),4	1153,(4, 30),8	1745,(11, 41),556	2301,(10, 41),556	5081,(17, 41),556	8973,(31, 41),556	9529,(32, 41),556	
89,(3, 8),32	205,(3, 18),24	237,(3, 23),20	277,(3, 37),4	281,(3, 33),32	353,(3, 32),80	433,(3, 36),16	449,(3, 38),20	1137,(3, 35),52	1189,(9, 41),556	5637,(19, 41),556	11753,(26, 41),556	
33,(2, 9),56	89,(2, 39),4	121,(2, 10),4	157,(2, 12),8	165,(2, 34),40	273,(2, 18),864	1137,(2, 22),4	1141,(2, 36),4	1145,(2, 38),8	1153,(2, 40),12	
1,(0, 2),16	17,(0, 3),16	33,(0, 4),16	49,(1, 6),8	57,(1, 7),32	89,(1, 11),32	121,(1, 13),16	137,(1, 14),20	157,(1, 15),16	173,(1, 17),48	221,(1, 19),4	225,(1, 20),4	229,(1, 21),4	233,(1, 23),4	237,(1, 24),36	273,(1, 25),4	277,(1, 27),4	281,(1, 31),72	353,(1, 36),68	10085,(5, 41),556	
