901
# CPU
43,22,13	105,37,13	122,17,13	135,27,13	148,32,13	161,10,13	174,13,13	
16,4,13	31,9,13	44,19,13	57,29,13	73,14,13	86,24,13	127,38,13	200,33,13	
11,3,13	24,7,13	37,20,13	50,12,13	63,25,13	76,34,13	89,15,13	102,30,13	115,39,13	
6,2,13	19,26,13	32,35,13	45,11,13	58,6,13	71,16,13	84,21,13	112,31,13	125,40,13	
0,0,1	1,1,13	14,8,13	32,23,13	45,5,13	58,36,13	71,18,13	127,28,13	900,41,1	
# Incoming
31,(1, 13),1	33,(1, 22),10	47,(1, 37),58	105,(2, 17),17	122,(2, 27),6	128,(3, 32),7	135,(4, 10),6	141,(4, 13),19	
11,(0, 4),5	19,(2, 9),12	32,(1, 19),1	43,(1, 33),4	47,(2, 29),6	53,(3, 14),20	73,(3, 24),8	112,(3, 38),15	135,(3, 33),65	
6,(0, 3),5	32,(2, 25),11	43,(2, 34),1	44,(4, 15),1	53,(2, 30),7	105,(1, 39),10	
1,(0, 2),5	16,(1, 11),15	31,(3, 6),2	33,(3, 16),1	34,(3, 21),14	81,(3, 31),31	115,(1, 40),1	
31,(2, 23),1	32,(4, 5),7	39,(4, 36),1	45,(4, 18),11	56,(4, 28),71	128,(26, 41),25	160,(9, 41),25	200,(7, 41),25	225,(35, 41),25	250,(20, 41),25	275,(22, 41),25	300,(19, 41),25	325,(11, 41),25	350,(12, 41),25	375,(29, 41),25	400,(6, 41),25	425,(25, 41),25	450,(16, 41),25	475,(14, 41),25	500,(34, 41),25	525,(21, 41),25	550,(24, 41),25	575,(15, 41),25	600,(30, 41),25	625,(37, 41),25	650,(31, 41),25	675,(39, 41),25	700,(17, 41),25	725,(40, 41),25	750,(38, 41),25	775,(27, 41),25	800,(32, 41),25	825,(10, 41),25	850,(13, 41),25	875,(33, 41),25	
# Outgoing
275,(22, 41),25	625,(37, 41),25	700,(17, 41),25	775,(27, 41),25	800,(32, 41),25	825,(10, 41),25	850,(13, 41),25	
32,(4, 5),7	39,(4, 36),1	44,(4, 15),1	45,(4, 18),11	56,(4, 28),71	135,(4, 10),6	141,(4, 13),19	160,(9, 41),25	300,(19, 41),25	375,(29, 41),25	475,(14, 41),25	550,(24, 41),25	750,(38, 41),25	875,(33, 41),25	
31,(3, 6),2	33,(3, 16),1	34,(3, 21),14	53,(3, 14),20	73,(3, 24),8	81,(3, 31),31	112,(3, 38),15	128,(3, 32),7	135,(3, 33),65	200,(7, 41),25	250,(20, 41),25	350,(12, 41),25	425,(25, 41),25	500,(34, 41),25	575,(15, 41),25	600,(30, 41),25	675,(39, 41),25	
19,(2, 9),12	31,(2, 23),1	32,(2, 25),11	43,(2, 34),1	47,(2, 29),6	53,(2, 30),7	105,(2, 17),17	122,(2, 27),6	128,(26, 41),25	225,(35, 41),25	325,(11, 41),25	400,(6, 41),25	450,(16, 41),25	525,(21, 41),25	650,(31, 41),25	725,(40, 41),25	
1,(0, 2),5	6,(0, 3),5	11,(0, 4),5	16,(1, 11),15	31,(1, 13),1	32,(1, 19),1	33,(1, 22),10	43,(1, 33),4	47,(1, 37),58	105,(1, 39),10	115,(1, 40),1	
