433
# CPU
35,6,24	59,10,24	83,14,24	107,18,24	
34,5,24	126,9,24	205,13,24	407,17,24	
11,2,24	35,4,24	59,8,24	83,12,24	107,16,24	131,20,24	
0,0,1	1,1,24	25,3,24	49,19,24	73,7,24	189,11,24	244,15,24	432,21,1	
# Incoming
34,(1, 6),1	36,(1, 10),1	66,(2, 14),4	74,(1, 18),19	
31,(1, 5),3	65,(1, 13),2	72,(1, 17),2	74,(2, 9),52	189,(2, 13),16	244,(2, 17),163	
1,(0, 2),10	25,(1, 4),6	35,(1, 8),1	37,(1, 12),28	67,(1, 16),5	93,(1, 20),8	
35,(2, 7),31	66,(5, 21),1	67,(6, 21),1	70,(4, 21),1	83,(10, 21),1	107,(14, 21),1	126,(2, 11),63	189,(18, 21),1	190,(9, 21),1	205,(2, 15),39	244,(13, 21),1	407,(8, 21),1	408,(12, 21),1	409,(16, 21),1	410,(20, 21),1	431,(17, 21),1	
# Outgoing
67,(6, 21),1	83,(10, 21),1	107,(14, 21),1	189,(18, 21),1	
66,(5, 21),1	190,(9, 21),1	244,(13, 21),1	431,(17, 21),1	
35,(2, 7),31	66,(2, 14),4	70,(4, 21),1	74,(2, 9),52	126,(2, 11),63	189,(2, 13),16	205,(2, 15),39	244,(2, 17),163	407,(8, 21),1	408,(12, 21),1	409,(16, 21),1	410,(20, 21),1	
1,(0, 2),10	25,(1, 4),6	31,(1, 5),3	34,(1, 6),1	35,(1, 8),1	36,(1, 10),1	37,(1, 12),28	65,(1, 13),2	67,(1, 16),5	72,(1, 17),2	74,(1, 18),19	93,(1, 20),8	
