324
# CPU
21,14,2	90,34,2	193,24,2	
29,23,2	52,33,2	181,13,2	
24,22,2	172,12,2	306,32,2	
48,21,2	89,31,2	166,11,2	
12,10,2	47,20,2	58,40,2	291,30,2	
37,19,2	90,9,2	288,29,2	311,39,2	
10,4,2	12,28,2	14,8,2	18,18,2	103,38,2	
7,3,2	15,17,2	50,27,2	52,37,2	89,7,2	
4,2,2	11,6,2	23,16,2	194,26,2	308,36,2	
0,0,1	1,1,2	7,15,2	51,25,2	87,5,2	307,35,2	323,41,1	
# Incoming
12,(1, 14),9	21,(2, 24),5	48,(1, 24),1	60,(3, 34),30	181,(4, 24),12	
24,(3, 23),5	51,(3, 33),1	172,(4, 13),9	
23,(3, 22),1	166,(4, 12),6	291,(4, 32),15	
47,(1, 21),1	48,(2, 31),41	90,(4, 11),76	
11,(1, 10),1	37,(1, 20),10	51,(1, 40),7	58,(3, 30),2	288,(4, 30),3	
21,(1, 19),16	37,(2, 29),1	56,(3, 39),1	89,(4, 9),1	194,(4, 29),94	308,(4, 39),3	
7,(0, 4),3	10,(3, 8),4	15,(2, 18),3	90,(3, 38),13	
4,(0, 3),3	7,(2, 17),8	49,(1, 27),1	50,(1, 37),1	87,(4, 7),2	
1,(0, 2),3	10,(1, 6),1	14,(3, 16),9	193,(4, 26),1	307,(4, 36),1	
6,(2, 15),1	9,(3, 5),1	14,(10, 41),2	18,(6, 41),2	23,(14, 41),2	26,(16, 41),2	29,(3, 25),22	52,(3, 35),4	56,(4, 5),31	87,(22, 41),2	89,(23, 41),2	91,(19, 41),2	93,(20, 41),2	95,(21, 41),2	97,(33, 41),2	99,(40, 41),2	101,(31, 41),2	103,(17, 41),2	105,(27, 41),2	107,(37, 41),2	109,(7, 41),2	111,(34, 41),2	113,(9, 41),2	168,(11, 41),2	174,(12, 41),2	183,(13, 41),2	195,(24, 41),2	197,(26, 41),2	290,(29, 41),2	293,(30, 41),2	306,(4, 35),1	308,(32, 41),2	311,(28, 41),2	313,(8, 41),2	315,(18, 41),2	317,(38, 41),2	319,(36, 41),2	321,(39, 41),2	
# Outgoing
23,(14, 41),2	111,(34, 41),2	195,(24, 41),2	
89,(23, 41),2	97,(33, 41),2	183,(13, 41),2	
87,(22, 41),2	174,(12, 41),2	308,(32, 41),2	
95,(21, 41),2	101,(31, 41),2	168,(11, 41),2	
14,(10, 41),2	93,(20, 41),2	99,(40, 41),2	293,(30, 41),2	
91,(19, 41),2	113,(9, 41),2	290,(29, 41),2	321,(39, 41),2	
56,(4, 5),31	87,(4, 7),2	89,(4, 9),1	90,(4, 11),76	166,(4, 12),6	172,(4, 13),9	181,(4, 24),12	193,(4, 26),1	194,(4, 29),94	288,(4, 30),3	291,(4, 32),15	306,(4, 35),1	307,(4, 36),1	308,(4, 39),3	311,(28, 41),2	313,(8, 41),2	315,(18, 41),2	317,(38, 41),2	
9,(3, 5),1	10,(3, 8),4	14,(3, 16),9	23,(3, 22),1	24,(3, 23),5	29,(3, 25),22	51,(3, 33),1	52,(3, 35),4	56,(3, 39),1	58,(3, 30),2	60,(3, 34),30	90,(3, 38),13	103,(17, 41),2	105,(27, 41),2	107,(37, 41),2	109,(7, 41),2	
6,(2, 15),1	7,(2, 17),8	15,(2, 18),3	18,(6, 41),2	21,(2, 24),5	26,(16, 41),2	37,(2, 29),1	48,(2, 31),41	197,(26, 41),2	319,(36, 41),2	
1,(0, 2),3	4,(0, 3),3	7,(0, 4),3	10,(1, 6),1	11,(1, 10),1	12,(1, 14),9	21,(1, 19),16	37,(1, 20),10	47,(1, 21),1	48,(1, 24),1	49,(1, 27),1	50,(1, 37),1	51,(1, 40),7	
