3240
# CPU
7,3,7	14,27,7	140,12,7	147,18,7	154,21,7	176,30,7	257,39,7	551,15,7	719,36,7	749,6,7	756,9,7	788,24,7	795,33,7	
4,2,7	11,8,7	18,23,7	25,29,7	32,11,7	39,14,7	47,5,7	77,32,7	84,38,7	110,17,7	173,26,7	206,35,7	293,20,7	
0,0,1	1,4,7	8,1,7	15,13,7	22,7,7	29,37,7	36,19,7	43,40,7	50,34,7	57,25,7	64,10,7	149,22,7	161,28,7	168,31,7	175,16,7	3239,41,1	
# Incoming
4,(0, 3),3	8,(4, 9),99	107,(2, 12),33	140,(2, 18),3	143,(2, 21),3	173,(4, 30),3	206,(4, 39),51	257,(2, 15),294	551,(2, 24),117	668,(2, 36),51	719,(1, 6),30	749,(1, 9),3	752,(1, 24),36	788,(1, 33),3	
1,(0, 2),3	14,(3, 5),33	47,(3, 17),9	56,(3, 32),21	77,(3, 38),3	107,(4, 17),3	110,(4, 20),3	113,(4, 26),60	176,(4, 35),30	257,(1, 20),36	
146,(2, 22),3	149,(2, 28),12	161,(2, 31),3	164,(3, 16),6	170,(27, 41),126	296,(12, 41),126	422,(18, 41),126	548,(21, 41),126	719,(8, 41),126	845,(23, 41),126	971,(29, 41),126	1097,(11, 41),126	1223,(14, 41),126	1349,(5, 41),126	1475,(32, 41),126	1601,(38, 41),126	1727,(17, 41),126	1853,(26, 41),126	1979,(30, 41),126	2105,(35, 41),126	2231,(39, 41),126	2357,(20, 41),126	2483,(15, 41),126	2609,(36, 41),126	2735,(6, 41),126	2861,(9, 41),126	2987,(24, 41),126	3113,(33, 41),126	
# Outgoing
14,(3, 5),33	47,(3, 17),9	56,(3, 32),21	77,(3, 38),3	164,(3, 16),6	170,(27, 41),126	296,(12, 41),126	422,(18, 41),126	548,(21, 41),126	1979,(30, 41),126	2231,(39, 41),126	2483,(15, 41),126	2609,(36, 41),126	2735,(6, 41),126	2861,(9, 41),126	2987,(24, 41),126	3113,(33, 41),126	
107,(2, 12),33	140,(2, 18),3	143,(2, 21),3	146,(2, 22),3	149,(2, 28),12	161,(2, 31),3	257,(2, 15),294	551,(2, 24),117	668,(2, 36),51	719,(8, 41),126	845,(23, 41),126	971,(29, 41),126	1097,(11, 41),126	1223,(14, 41),126	1349,(5, 41),126	1475,(32, 41),126	1601,(38, 41),126	1727,(17, 41),126	1853,(26, 41),126	2105,(35, 41),126	2357,(20, 41),126	
1,(0, 2),3	4,(0, 3),3	8,(4, 9),99	107,(4, 17),3	110,(4, 20),3	113,(4, 26),60	173,(4, 30),3	176,(4, 35),30	206,(4, 39),51	257,(1, 20),36	719,(1, 6),30	749,(1, 9),3	752,(1, 24),36	788,(1, 33),3	
