1510
# CPU
0,0,1	1,2,6	7,4,6	13,3,6	19,17,6	25,6,6	31,29,6	37,64,6	43,71,6	49,25,6	55,57,6	61,24,6	67,43,6	73,50,6	83,18,6	97,38,6	111,65,6	125,30,6	139,58,6	155,31,6	175,12,6	197,41,6	221,32,6	247,54,6	273,26,6	311,67,6	355,33,6	403,27,6	453,76,6	511,37,6	571,22,6	635,69,6	719,28,6	823,16,6	951,74,6	1105,40,6	1509,81,1	
9,1,6	15,49,6	21,21,6	31,78,6	47,20,6	59,23,6	79,36,6	193,60,6	259,59,6	497,55,6	551,56,6	
13,8,6	25,7,6	31,79,6	37,15,6	57,70,6	69,66,6	87,19,6	99,52,6	111,48,6	125,39,6	147,44,6	161,47,6	209,10,6	245,62,6	285,73,6	367,11,6	403,77,6	475,63,6	673,46,6	761,80,6	935,42,6	1501,9,6	
39,68,6	
5,5,6	17,51,6	33,72,6	51,61,6	137,45,6	177,13,6	227,53,6	307,75,6	335,14,6	435,34,6	611,35,6	
# Incoming
35,(7, 25),2	37,(5, 57),2	39,(8, 57),4	43,(5, 43),6	49,(1, 18),2	51,(1, 58),2	53,(7, 24),8	61,(7, 43),2	63,(5, 50),6	69,(8, 50),2	71,(7, 50),2	73,(8, 18),8	81,(7, 18),2	83,(5, 38),12	95,(7, 38),2	97,(5, 65),14	111,(1, 30),12	123,(7, 30),2	125,(8, 58),6	131,(7, 58),8	139,(5, 31),4	143,(1, 31),4	147,(7, 31),8	155,(5, 12),6	161,(8, 12),12	173,(7, 12),2	175,(5, 41),6	181,(8, 41),14	195,(7, 41),2	197,(1, 32),2	199,(8, 32),20	219,(7, 32),2	221,(1, 54),2	223,(5, 54),20	243,(7, 54),4	247,(5, 26),6	253,(1, 26),12	265,(7, 26),8	273,(5, 67),34	307,(8, 67),4	311,(5, 33),2	313,(7, 33),42	355,(7, 27),48	403,(8, 76),20	423,(7, 76),30	453,(7, 22),6	459,(7, 28),2	461,(5, 37),36	497,(7, 37),14	511,(5, 22),8	519,(1, 22),52	571,(5, 69),26	597,(1, 69),22	619,(8, 69),16	635,(1, 28),84	719,(5, 16),84	803,(8, 16),20	823,(8, 74),114	937,(7, 74),14	951,(5, 40),26	977,(1, 40),4	981,(8, 40),124	1105,(49, 81),2	1107,(51, 81),2	1109,(21, 81),2	1111,(79, 81),2	1113,(78, 81),2	1115,(72, 81),2	1117,(15, 81),2	1119,(68, 81),2	1121,(20, 81),2	1123,(61, 81),2	1125,(70, 81),2	1127,(23, 81),2	1129,(66, 81),2	1131,(36, 81),2	1133,(19, 81),2	1135,(52, 81),2	1137,(48, 81),2	1139,(39, 81),2	1141,(45, 81),2	1143,(44, 81),2	1145,(47, 81),2	1147,(13, 81),2	1149,(60, 81),2	1151,(10, 81),2	1153,(53, 81),2	1155,(62, 81),2	1157,(59, 81),2	1159,(73, 81),2	1161,(75, 81),2	1163,(14, 81),2	1165,(11, 81),2	1167,(77, 81),2	1169,(34, 81),2	1171,(63, 81),2	1173,(55, 81),2	1175,(56, 81),2	1177,(35, 81),2	1179,(46, 81),2	1181,(80, 81),2	1183,(42, 81),2	1507,(9, 81),2	
5,(0, 1),4	13,(4, 49),2	15,(5, 78),2	17,(2, 78),2	19,(3, 21),2	21,(8, 78),2	23,(8, 23),2	25,(3, 78),6	31,(5, 20),2	33,(5, 23),2	37,(7, 60),2	39,(3, 20),2	41,(6, 20),6	47,(7, 23),6	53,(5, 56),4	57,(2, 23),2	63,(7, 36),4	67,(7, 59),2	69,(2, 36),4	73,(4, 36),6	111,(5, 59),16	139,(7, 55),8	155,(8, 56),6	177,(2, 60),10	187,(3, 60),6	195,(6, 59),2	221,(8, 59),20	245,(4, 59),6	251,(3, 59),6	273,(7, 56),8	333,(5, 55),62	435,(2, 55),26	475,(4, 55),20	495,(3, 55),2	497,(2, 56),6	503,(4, 56),2	505,(3, 56),46	
9,(0, 8),4	13,(5, 79),2	15,(1, 79),4	21,(0, 7),4	27,(5, 47),2	29,(1, 15),2	31,(2, 15),4	35,(5, 80),2	39,(5, 70),4	43,(1, 70),2	45,(1, 19),4	51,(6, 70),6	59,(2, 66),8	67,(3, 66),2	69,(5, 19),10	79,(4, 19),6	85,(6, 19),2	87,(2, 52),2	89,(3, 52),10	99,(2, 48),8	107,(4, 48),2	109,(6, 48),2	111,(2, 39),2	113,(4, 39),10	123,(6, 39),2	125,(1, 11),8	133,(2, 44),14	147,(2, 47),2	149,(3, 47),12	161,(1, 10),12	181,(5, 10),16	197,(4, 10),2	199,(6, 10),10	209,(5, 62),14	227,(4, 62),16	243,(6, 62),2	257,(3, 73),2	259,(6, 73),26	285,(1, 46),28	313,(5, 11),20	335,(4, 11),10	345,(3, 11),10	355,(6, 11),12	367,(2, 77),34	401,(4, 77),2	403,(5, 63),58	461,(3, 63),10	471,(6, 63),4	475,(1, 42),16	491,(1, 9),24	611,(2, 46),38	649,(4, 46),6	655,(3, 46),16	671,(6, 46),2	673,(3, 80),10	683,(6, 80),78	761,(4, 42),26	787,(3, 42),36	823,(6, 42),112	935,(2, 9),2	937,(4, 9),22	959,(3, 9),2	961,(6, 9),540	
17,(5, 68),10	31,(1, 68),2	33,(7, 68),2	35,(4, 68),4	
1,(0, 5),4	15,(4, 51),2	19,(1, 72),10	29,(8, 53),2	31,(7, 72),2	33,(1, 61),10	43,(7, 45),2	47,(3, 61),2	49,(6, 61),2	53,(1, 13),2	55,(1, 75),22	83,(7, 53),4	87,(8, 14),8	97,(8, 45),18	125,(4, 45),6	131,(3, 45),2	161,(6, 13),16	193,(2, 53),2	209,(4, 53),4	213,(3, 53),14	247,(8, 75),14	285,(2, 75),12	297,(4, 75),8	305,(3, 75),2	307,(4, 14),14	321,(3, 14),14	335,(1, 34),40	375,(1, 35),22	403,(2, 34),26	429,(4, 34),2	431,(3, 34),2	433,(6, 34),2	551,(4, 35),26	577,(3, 35),30	607,(6, 35),4	
# Outgoing
1,(0, 5),4	5,(0, 1),4	9,(0, 8),4	13,(4, 49),2	15,(4, 51),2	17,(2, 78),2	19,(3, 21),2	21,(0, 7),4	25,(3, 78),6	31,(2, 15),4	35,(4, 68),4	39,(3, 20),2	41,(6, 20),6	47,(3, 61),2	49,(6, 61),2	51,(6, 70),6	57,(2, 23),2	59,(2, 66),8	67,(3, 66),2	69,(2, 36),4	73,(4, 36),6	79,(4, 19),6	85,(6, 19),2	87,(2, 52),2	89,(3, 52),10	99,(2, 48),8	107,(4, 48),2	109,(6, 48),2	111,(2, 39),2	113,(4, 39),10	123,(6, 39),2	125,(4, 45),6	131,(3, 45),2	133,(2, 44),14	147,(2, 47),2	149,(3, 47),12	161,(6, 13),16	177,(2, 60),10	187,(3, 60),6	193,(2, 53),2	195,(6, 59),2	197,(4, 10),2	199,(6, 10),10	209,(4, 53),4	213,(3, 53),14	227,(4, 62),16	243,(6, 62),2	245,(4, 59),6	251,(3, 59),6	257,(3, 73),2	259,(6, 73),26	285,(2, 75),12	297,(4, 75),8	305,(3, 75),2	307,(4, 14),14	321,(3, 14),14	335,(4, 11),10	345,(3, 11),10	355,(6, 11),12	367,(2, 77),34	401,(4, 77),2	403,(2, 34),26	429,(4, 34),2	431,(3, 34),2	433,(6, 34),2	435,(2, 55),26	461,(3, 63),10	471,(6, 63),4	475,(4, 55),20	495,(3, 55),2	497,(2, 56),6	503,(4, 56),2	505,(3, 56),46	551,(4, 35),26	577,(3, 35),30	607,(6, 35),4	611,(2, 46),38	649,(4, 46),6	655,(3, 46),16	671,(6, 46),2	673,(3, 80),10	683,(6, 80),78	761,(4, 42),26	787,(3, 42),36	823,(6, 42),112	935,(2, 9),2	937,(4, 9),22	959,(3, 9),2	961,(6, 9),540	
15,(1, 79),4	19,(1, 72),10	29,(1, 15),2	31,(1, 68),2	33,(1, 61),10	43,(1, 70),2	45,(1, 19),4	49,(1, 18),2	51,(1, 58),2	53,(1, 13),2	55,(1, 75),22	111,(1, 30),12	125,(1, 11),8	143,(1, 31),4	161,(1, 10),12	197,(1, 32),2	221,(1, 54),2	253,(1, 26),12	285,(1, 46),28	335,(1, 34),40	375,(1, 35),22	475,(1, 42),16	491,(1, 9),24	519,(1, 22),52	597,(1, 69),22	635,(1, 28),84	977,(1, 40),4	1105,(49, 81),2	1109,(21, 81),2	1113,(78, 81),2	1121,(20, 81),2	1127,(23, 81),2	1131,(36, 81),2	1149,(60, 81),2	1157,(59, 81),2	1173,(55, 81),2	1175,(56, 81),2	
21,(8, 78),2	23,(8, 23),2	29,(8, 53),2	31,(7, 72),2	33,(7, 68),2	35,(7, 25),2	37,(7, 60),2	39,(8, 57),4	43,(7, 45),2	47,(7, 23),6	53,(7, 24),8	61,(7, 43),2	63,(7, 36),4	67,(7, 59),2	69,(8, 50),2	71,(7, 50),2	73,(8, 18),8	81,(7, 18),2	83,(7, 53),4	87,(8, 14),8	95,(7, 38),2	97,(8, 45),18	123,(7, 30),2	125,(8, 58),6	131,(7, 58),8	139,(7, 55),8	147,(7, 31),8	155,(8, 56),6	161,(8, 12),12	173,(7, 12),2	181,(8, 41),14	195,(7, 41),2	199,(8, 32),20	219,(7, 32),2	221,(8, 59),20	243,(7, 54),4	247,(8, 75),14	265,(7, 26),8	273,(7, 56),8	307,(8, 67),4	313,(7, 33),42	355,(7, 27),48	403,(8, 76),20	423,(7, 76),30	453,(7, 22),6	459,(7, 28),2	497,(7, 37),14	619,(8, 69),16	803,(8, 16),20	823,(8, 74),114	937,(7, 74),14	981,(8, 40),124	1111,(79, 81),2	1117,(15, 81),2	1125,(70, 81),2	1129,(66, 81),2	1133,(19, 81),2	1135,(52, 81),2	1137,(48, 81),2	1139,(39, 81),2	1143,(44, 81),2	1145,(47, 81),2	1151,(10, 81),2	1155,(62, 81),2	1159,(73, 81),2	1165,(11, 81),2	1167,(77, 81),2	1171,(63, 81),2	1179,(46, 81),2	1181,(80, 81),2	1183,(42, 81),2	1507,(9, 81),2	
1119,(68, 81),2	
13,(5, 79),2	15,(5, 78),2	17,(5, 68),10	27,(5, 47),2	31,(5, 20),2	33,(5, 23),2	35,(5, 80),2	37,(5, 57),2	39,(5, 70),4	43,(5, 43),6	53,(5, 56),4	63,(5, 50),6	69,(5, 19),10	83,(5, 38),12	97,(5, 65),14	111,(5, 59),16	139,(5, 31),4	155,(5, 12),6	175,(5, 41),6	181,(5, 10),16	209,(5, 62),14	223,(5, 54),20	247,(5, 26),6	273,(5, 67),34	311,(5, 33),2	313,(5, 11),20	333,(5, 55),62	403,(5, 63),58	461,(5, 37),36	511,(5, 22),8	571,(5, 69),26	719,(5, 16),84	951,(5, 40),26	1107,(51, 81),2	1115,(72, 81),2	1123,(61, 81),2	1141,(45, 81),2	1147,(13, 81),2	1153,(53, 81),2	1161,(75, 81),2	1163,(14, 81),2	1169,(34, 81),2	1177,(35, 81),2	
