1426
# CPU
0,0,1	1,6,22	23,73,22	45,119,22	67,38,22	89,87,22	111,8,22	133,96,22	155,56,22	177,2,22	199,35,22	221,111,22	243,30,22	265,100,22	287,92,22	309,9,22	331,22,22	353,103,22	375,62,22	397,26,22	419,7,22	441,89,22	463,12,22	485,86,22	507,36,22	529,63,22	551,16,22	573,33,22	595,49,22	617,76,22	639,10,22	661,40,22	683,59,22	705,84,22	727,83,22	749,69,22	771,90,22	793,109,22	815,66,22	837,15,22	859,93,22	881,106,22	903,23,22	925,51,22	947,71,22	969,114,22	991,58,22	1013,31,22	1035,118,22	1057,75,22	1079,74,22	1101,13,22	1123,102,22	1145,85,22	1167,82,22	1189,19,22	1211,55,22	1233,47,22	1255,104,22	1277,43,22	1299,116,22	1321,54,22	
3,5,22	25,29,22	47,1,22	69,110,22	91,98,22	113,81,22	135,57,22	157,67,22	179,48,22	201,68,22	223,72,22	245,3,22	267,37,22	289,4,22	311,77,22	333,32,22	355,94,22	377,101,22	399,39,22	421,14,22	443,52,22	465,11,22	487,95,22	509,117,22	531,79,22	553,28,22	575,78,22	597,88,22	619,42,22	641,115,22	663,34,22	685,65,22	707,60,22	729,17,22	751,107,22	773,91,22	795,41,22	817,120,22	839,105,22	861,61,22	883,20,22	905,50,22	927,80,22	949,18,22	971,21,22	993,108,22	1015,97,22	1037,24,22	1059,99,22	1081,70,22	1103,113,22	1125,46,22	1147,44,22	1169,25,22	1191,27,22	1213,53,22	1235,45,22	1257,112,22	1279,64,22	1425,121,1	
# Incoming
311,(4, 58),2	313,(3, 118),2	315,(3, 75),2	317,(5, 74),2	319,(5, 13),2	321,(4, 102),2	323,(1, 85),2	325,(4, 82),4	329,(4, 19),8	337,(1, 55),8	345,(3, 47),10	355,(3, 104),32	387,(3, 43),2	389,(4, 43),30	419,(4, 116),44	463,(5, 54),6	487,(11, 31),2	489,(3, 54),20	509,(4, 54),32	
1,(0, 5),2	3,(0, 1),2	5,(0, 3),2	7,(0, 4),2	9,(0, 11),2	23,(6, 52),2	25,(6, 97),6	31,(6, 45),26	57,(73, 121),20	77,(119, 121),20	97,(38, 121),20	133,(8, 72),2	135,(8, 108),6	141,(8, 99),8	149,(8, 27),20	169,(87, 121),20	199,(2, 21),6	205,(2, 24),8	213,(2, 46),2	215,(2, 44),16	231,(2, 25),16	247,(2, 112),16	263,(2, 64),28	291,(96, 121),20	311,(56, 121),20	331,(9, 20),4	335,(9, 18),4	339,(35, 121),20	359,(111, 121),20	379,(30, 121),20	399,(100, 121),20	419,(92, 121),20	441,(7, 17),2	443,(7, 107),2	445,(7, 91),2	447,(7, 61),4	451,(7, 50),2	453,(7, 27),2	455,(22, 121),20	485,(12, 41),2	487,(12, 50),2	489,(12, 80),4	493,(12, 113),8	501,(12, 53),26	527,(103, 121),20	547,(62, 121),20	567,(26, 121),20	587,(89, 121),20	607,(86, 121),20	627,(36, 121),20	661,(10, 120),2	663,(10, 105),4	667,(10, 70),12	679,(10, 113),4	683,(10, 46),12	695,(10, 112),10	705,(63, 121),20	725,(16, 121),20	745,(33, 121),20	765,(49, 121),20	785,(76, 121),20	805,(40, 121),20	825,(59, 121),20	845,(84, 121),20	865,(83, 121),20	885,(69, 121),20	905,(90, 121),20	925,(109, 121),20	945,(66, 121),20	965,(15, 121),20	985,(93, 121),20	1005,(106, 121),20	1025,(23, 121),20	1045,(51, 121),20	1065,(71, 121),20	1085,(114, 121),20	1105,(58, 121),20	1125,(31, 121),20	1145,(118, 121),20	1165,(75, 121),20	1185,(74, 121),20	1205,(13, 121),20	1225,(102, 121),20	1245,(85, 121),20	1265,(82, 121),20	1285,(19, 121),20	1305,(55, 121),20	1325,(47, 121),20	1345,(104, 121),20	1365,(43, 121),20	1385,(116, 121),20	1405,(54, 121),20	
# Outgoing
1,(0, 5),2	3,(0, 1),2	5,(0, 3),2	7,(0, 4),2	9,(0, 11),2	23,(6, 52),2	25,(6, 97),6	31,(6, 45),26	57,(73, 121),20	77,(119, 121),20	97,(38, 121),20	133,(8, 72),2	135,(8, 108),6	141,(8, 99),8	149,(8, 27),20	169,(87, 121),20	199,(2, 21),6	205,(2, 24),8	213,(2, 46),2	215,(2, 44),16	231,(2, 25),16	247,(2, 112),16	263,(2, 64),28	291,(96, 121),20	311,(56, 121),20	331,(9, 20),4	335,(9, 18),4	339,(35, 121),20	359,(111, 121),20	379,(30, 121),20	399,(100, 121),20	419,(92, 121),20	441,(7, 17),2	443,(7, 107),2	445,(7, 91),2	447,(7, 61),4	451,(7, 50),2	453,(7, 27),2	455,(22, 121),20	485,(12, 41),2	487,(12, 50),2	489,(12, 80),4	493,(12, 113),8	501,(12, 53),26	527,(103, 121),20	547,(62, 121),20	567,(26, 121),20	587,(89, 121),20	607,(86, 121),20	627,(36, 121),20	661,(10, 120),2	663,(10, 105),4	667,(10, 70),12	679,(10, 113),4	683,(10, 46),12	695,(10, 112),10	705,(63, 121),20	725,(16, 121),20	745,(33, 121),20	765,(49, 121),20	785,(76, 121),20	805,(40, 121),20	825,(59, 121),20	845,(84, 121),20	865,(83, 121),20	885,(69, 121),20	905,(90, 121),20	925,(109, 121),20	945,(66, 121),20	965,(15, 121),20	985,(93, 121),20	1005,(106, 121),20	1025,(23, 121),20	1045,(51, 121),20	1065,(71, 121),20	1085,(114, 121),20	1105,(58, 121),20	1125,(31, 121),20	1145,(118, 121),20	1165,(75, 121),20	1185,(74, 121),20	1205,(13, 121),20	1225,(102, 121),20	1245,(85, 121),20	1265,(82, 121),20	1285,(19, 121),20	1305,(55, 121),20	1325,(47, 121),20	1345,(104, 121),20	1365,(43, 121),20	1385,(116, 121),20	1405,(54, 121),20	
311,(4, 58),2	313,(3, 118),2	315,(3, 75),2	317,(5, 74),2	319,(5, 13),2	321,(4, 102),2	323,(1, 85),2	325,(4, 82),4	329,(4, 19),8	337,(1, 55),8	345,(3, 47),10	355,(3, 104),32	387,(3, 43),2	389,(4, 43),30	419,(4, 116),44	463,(5, 54),6	487,(11, 31),2	489,(3, 54),20	509,(4, 54),32	
