5312
# CPU
0,201,1	1,125,27	28,123,27	55,126,27	82,120,27	109,68,27	136,130,27	163,115,27	190,114,27	217,55,27	244,165,27	271,102,27	298,64,27	325,101,27	352,133,27	379,36,27	406,177,27	433,174,27	460,40,27	487,21,27	514,75,27	541,71,27	568,82,27	595,156,27	622,189,27	649,54,27	676,185,27	703,87,27	730,173,27	757,96,27	784,180,27	811,85,27	838,146,27	865,197,27	892,105,27	919,77,27	946,46,27	973,169,27	1000,90,27	1027,44,27	1054,175,27	1081,176,27	1108,200,27	1135,195,27	1162,193,27	1189,57,27	1216,29,27	1243,93,27	1270,136,27	1297,22,27	1324,24,27	1351,25,27	1378,92,27	1405,47,27	1432,153,27	1459,79,27	1486,76,27	1513,42,27	1540,135,27	1567,106,27	1594,183,27	1621,108,27	1648,83,27	1675,168,27	1702,162,27	1729,122,27	1756,159,27	1783,65,27	1810,161,27	1837,99,27	1864,187,27	1891,118,27	1918,155,27	1945,171,27	1972,23,27	1999,179,27	2026,151,27	2053,58,27	2080,33,27	2107,52,27	2134,73,27	2161,109,27	2188,132,27	2215,139,27	2242,112,27	2269,143,27	2296,84,27	2323,128,27	2350,89,27	2377,67,27	2404,28,27	2431,145,27	2458,48,27	2485,148,27	2512,191,27	2539,184,27	2566,152,27	2593,111,27	2620,167,27	2647,63,27	2674,66,27	2701,134,27	2728,188,27	2755,190,27	2782,38,27	2809,119,27	2836,127,27	2863,181,27	2890,41,27	2917,31,27	2944,194,27	2971,72,27	2998,39,27	3025,196,27	3052,16,27	3079,160,27	3106,137,27	3133,13,27	3160,95,27	3187,107,27	3214,37,27	3241,88,27	3268,103,27	3295,18,27	3322,34,27	3349,150,27	3376,116,27	3403,138,27	3430,164,27	3457,124,27	3484,30,27	3511,91,27	3538,98,27	3565,27,27	3592,86,27	3619,14,27	3646,2,27	3673,17,27	3700,7,27	3727,19,27	3754,20,27	3781,9,27	3808,12,27	3835,6,27	3862,3,27	3889,11,27	3916,5,27	4216,15,27	
217,140,27	289,141,27	361,154,27	505,172,27	721,182,27	793,59,27	1153,35,27	1225,49,27	1369,149,27	1801,60,27	2017,70,27	2377,81,27	2737,117,27	2881,78,27	3529,129,27	3601,1,27	5284,4,27	5311,0,1	
433,100,27	649,51,27	1009,157,27	1513,61,27	1585,121,27	1657,32,27	1729,158,27	2089,50,27	2305,26,27	2521,43,27	2593,94,27	2665,192,27	3709,10,27	
73,56,27	145,53,27	577,97,27	865,199,27	937,144,27	1081,178,27	1297,186,27	1441,104,27	1873,163,27	1945,170,27	2161,166,27	2233,142,27	2449,69,27	2809,198,27	2953,80,27	3025,74,27	3097,62,27	3169,147,27	3241,110,27	3313,45,27	3385,131,27	3457,113,27	3885,8,27	
# Incoming
820,(59, 14),4	824,(172, 7),4	832,(140, 11),4	836,(141, 5),4	1044,(100, 7),4	1048,(51, 6),4	1180,(35, 20),8	1252,(49, 6),12	1381,(56, 2),4	1385,(144, 17),8	1393,(97, 9),4	1397,(178, 9),8	1405,(149, 6),12	1417,(53, 3),4	1421,(199, 11),4	1468,(104, 5),12	1540,(61, 3),16	1612,(121, 17),16	1684,(32, 3),16	1756,(158, 19),20	1828,(60, 19),20	1900,(163, 6),24	2044,(70, 7),28	2404,(81, 15),36	2476,(69, 6),44	2548,(43, 9),48	2620,(94, 20),48	2764,(117, 3),64	2836,(198, 5),68	2980,(80, 12),84	3064,(74, 11),100	3268,(110, 5),168	3436,(45, 5),228	3664,(62, 15),112	3776,(131, 15),440	
145,(201, 140),72	217,(201, 141),72	289,(201, 154),72	433,(201, 172),72	649,(201, 182),72	721,(201, 59),72	1036,(157, 1),8	1081,(201, 35),72	1153,(201, 49),72	1297,(201, 149),72	1369,(186, 1),12	1729,(201, 60),72	1945,(201, 70),72	2017,(170, 1),24	2305,(201, 81),72	2665,(201, 117),72	2809,(201, 78),72	3457,(201, 129),72	3529,(115, 1),4	3533,(82, 1),4	3537,(156, 1),4	3541,(195, 1),8	3549,(193, 1),8	3557,(148, 1),44	3736,(10, 0),4	3885,(77, 4),8	3893,(112, 4),36	3929,(128, 4),36	3965,(16, 0),4	3969,(13, 0),4	3973,(18, 0),4	3977,(14, 0),4	3981,(2, 0),4	3985,(17, 0),4	3989,(7, 0),4	3993,(19, 0),4	3997,(20, 0),4	4001,(9, 0),4	4005,(12, 0),4	4009,(6, 0),4	4013,(3, 0),4	4017,(11, 0),4	4021,(5, 0),4	4216,(113, 4),1068	5284,(8, 0),4	5288,(15, 0),4	
361,(201, 100),72	577,(201, 51),72	828,(154, 10),4	937,(201, 157),72	1441,(201, 61),72	1513,(201, 121),72	1585,(201, 32),72	1657,(201, 158),72	2017,(201, 50),72	2233,(201, 26),72	2305,(142, 10),32	2449,(201, 43),72	2521,(201, 94),72	2593,(201, 192),72	3601,(54, 10),4	3605,(180, 10),4	3609,(105, 10),8	3617,(179, 10),28	3645,(134, 10),64	
1,(201, 56),72	73,(201, 53),72	505,(201, 97),72	793,(201, 199),72	865,(201, 144),72	1009,(201, 178),72	1225,(201, 186),72	1369,(201, 104),72	1801,(201, 163),72	1873,(201, 170),72	2089,(201, 166),72	2161,(201, 142),72	2233,(50, 8),28	2377,(201, 69),72	2737,(201, 198),72	2881,(201, 80),72	2953,(201, 74),72	3025,(201, 62),72	3097,(201, 147),72	3169,(201, 110),72	3241,(201, 45),72	3313,(201, 131),72	3385,(201, 113),72	3709,(21, 8),4	3713,(75, 8),4	3717,(46, 8),8	3725,(93, 8),12	3737,(25, 8),12	3749,(167, 8),52	3801,(72, 8),84	
# Outgoing
1,(201, 56),72	73,(201, 53),72	145,(201, 140),72	217,(201, 141),72	289,(201, 154),72	361,(201, 100),72	433,(201, 172),72	505,(201, 97),72	577,(201, 51),72	649,(201, 182),72	721,(201, 59),72	793,(201, 199),72	865,(201, 144),72	937,(201, 157),72	1009,(201, 178),72	1081,(201, 35),72	1153,(201, 49),72	1225,(201, 186),72	1297,(201, 149),72	1369,(201, 104),72	1441,(201, 61),72	1513,(201, 121),72	1585,(201, 32),72	1657,(201, 158),72	1729,(201, 60),72	1801,(201, 163),72	1873,(201, 170),72	1945,(201, 70),72	2017,(201, 50),72	2089,(201, 166),72	2161,(201, 142),72	2233,(201, 26),72	2305,(201, 81),72	2377,(201, 69),72	2449,(201, 43),72	2521,(201, 94),72	2593,(201, 192),72	2665,(201, 117),72	2737,(201, 198),72	2809,(201, 78),72	2881,(201, 80),72	2953,(201, 74),72	3025,(201, 62),72	3097,(201, 147),72	3169,(201, 110),72	3241,(201, 45),72	3313,(201, 131),72	3385,(201, 113),72	3457,(201, 129),72	3529,(115, 1),4	3533,(82, 1),4	3537,(156, 1),4	3541,(195, 1),8	3549,(193, 1),8	3557,(148, 1),44	3601,(54, 10),4	3605,(180, 10),4	3609,(105, 10),8	3617,(179, 10),28	3645,(134, 10),64	3709,(21, 8),4	3713,(75, 8),4	3717,(46, 8),8	3725,(93, 8),12	3737,(25, 8),12	3749,(167, 8),52	3801,(72, 8),84	3885,(77, 4),8	3893,(112, 4),36	3929,(128, 4),36	3965,(16, 0),4	3969,(13, 0),4	3973,(18, 0),4	3977,(14, 0),4	3981,(2, 0),4	3985,(17, 0),4	3989,(7, 0),4	3993,(19, 0),4	3997,(20, 0),4	4001,(9, 0),4	4005,(12, 0),4	4009,(6, 0),4	4013,(3, 0),4	4017,(11, 0),4	4021,(5, 0),4	5288,(15, 0),4	
820,(59, 14),4	824,(172, 7),4	828,(154, 10),4	832,(140, 11),4	836,(141, 5),4	1180,(35, 20),8	1252,(49, 6),12	1405,(149, 6),12	1828,(60, 19),20	2044,(70, 7),28	2404,(81, 15),36	2764,(117, 3),64	
1036,(157, 1),8	1044,(100, 7),4	1048,(51, 6),4	1540,(61, 3),16	1612,(121, 17),16	1684,(32, 3),16	1756,(158, 19),20	2233,(50, 8),28	2548,(43, 9),48	2620,(94, 20),48	3736,(10, 0),4	
1369,(186, 1),12	1381,(56, 2),4	1385,(144, 17),8	1393,(97, 9),4	1397,(178, 9),8	1417,(53, 3),4	1421,(199, 11),4	1468,(104, 5),12	1900,(163, 6),24	2017,(170, 1),24	2305,(142, 10),32	2476,(69, 6),44	2836,(198, 5),68	2980,(80, 12),84	3064,(74, 11),100	3268,(110, 5),168	3436,(45, 5),228	3664,(62, 15),112	3776,(131, 15),440	4216,(113, 4),1068	5284,(8, 0),4	
