5804
# CPU
10,4,318	328,29,318	646,37,318	964,8,318	1282,13,318	1600,33,318	1918,9,318	2236,17,318	2554,21,318	2872,25,318	
7,3,318	325,7,318	643,10,318	961,34,318	1279,14,318	1597,18,318	1915,30,318	2233,38,318	2551,22,318	2869,26,318	
4,2,318	322,12,318	640,32,318	958,40,318	1276,6,318	1594,20,318	1912,28,318	2230,36,318	2548,24,318	2866,16,318	
0,0,1	1,1,318	319,39,318	637,5,318	955,15,318	1273,19,318	1591,23,318	1909,27,318	2227,31,318	2545,11,318	2863,35,318	5803,41,1	
# Incoming
7,(0, 4),3	373,(1, 8),3	376,(1, 13),3	379,(2, 33),3	382,(3, 9),252	739,(3, 17),3	742,(3, 21),21	763,(3, 25),36	
4,(0, 3),3	328,(4, 10),3	331,(4, 34),18	349,(2, 14),27	379,(1, 18),21	400,(2, 30),69	478,(1, 38),57	535,(2, 22),171	706,(2, 26),81	
1,(0, 2),3	319,(1, 6),54	400,(1, 20),18	418,(1, 28),18	436,(1, 36),42	478,(4, 24),36	706,(3, 16),33	
322,(2, 5),27	349,(4, 15),3	352,(4, 19),3	355,(4, 23),3	358,(4, 27),15	373,(4, 31),15	634,(3, 11),72	787,(2, 35),75	862,(12, 41),183	1045,(7, 41),183	1228,(29, 41),183	1411,(32, 41),183	1594,(10, 41),183	1777,(37, 41),183	1960,(40, 41),183	2143,(34, 41),183	2326,(8, 41),183	2509,(6, 41),183	2692,(14, 41),183	2875,(13, 41),183	3058,(20, 41),183	3241,(18, 41),183	3424,(33, 41),183	3607,(28, 41),183	3790,(30, 41),183	3973,(9, 41),183	4156,(36, 41),183	4339,(38, 41),183	4522,(17, 41),183	4705,(24, 41),183	4888,(22, 41),183	5071,(21, 41),183	5254,(16, 41),183	5437,(26, 41),183	5620,(25, 41),183	
# Outgoing
328,(4, 10),3	331,(4, 34),18	349,(4, 15),3	352,(4, 19),3	355,(4, 23),3	358,(4, 27),15	373,(4, 31),15	478,(4, 24),36	1228,(29, 41),183	1777,(37, 41),183	2326,(8, 41),183	2875,(13, 41),183	3424,(33, 41),183	3973,(9, 41),183	4522,(17, 41),183	5071,(21, 41),183	5620,(25, 41),183	
382,(3, 9),252	634,(3, 11),72	706,(3, 16),33	739,(3, 17),3	742,(3, 21),21	763,(3, 25),36	1045,(7, 41),183	1594,(10, 41),183	2143,(34, 41),183	2692,(14, 41),183	3241,(18, 41),183	3790,(30, 41),183	4339,(38, 41),183	4888,(22, 41),183	5437,(26, 41),183	
322,(2, 5),27	349,(2, 14),27	379,(2, 33),3	400,(2, 30),69	535,(2, 22),171	706,(2, 26),81	787,(2, 35),75	862,(12, 41),183	1411,(32, 41),183	1960,(40, 41),183	2509,(6, 41),183	3058,(20, 41),183	3607,(28, 41),183	4156,(36, 41),183	4705,(24, 41),183	5254,(16, 41),183	
1,(0, 2),3	4,(0, 3),3	7,(0, 4),3	319,(1, 6),54	373,(1, 8),3	376,(1, 13),3	379,(1, 18),21	400,(1, 20),18	418,(1, 28),18	436,(1, 36),42	478,(1, 38),57	
