1696
# CPU
7,3,35	42,11,35	77,30,35	678,27,35	713,28,35	843,5,35	878,8,35	913,10,35	948,12,35	983,13,35	1018,14,35	1053,17,35	1088,24,35	1123,38,35	
0,0,1	1,4,35	36,2,35	71,26,35	147,6,35	186,7,35	221,18,35	256,25,35	291,20,35	326,32,35	361,33,35	396,39,35	431,34,35	466,40,35	
4,1,35	39,21,35	74,31,35	144,16,35	636,9,35	671,23,35	861,22,35	1017,36,35	1152,37,35	1187,15,35	1222,19,35	1257,29,35	1292,35,35	1695,41,1	
# Incoming
4,(0, 3),3	36,(4, 5),30	66,(4, 8),33	99,(4, 10),24	123,(4, 13),12	135,(1, 5),9	159,(1, 8),3	162,(1, 10),6	168,(1, 17),27	198,(1, 24),6	204,(1, 27),3	624,(4, 24),48	672,(4, 27),6	678,(4, 28),12	804,(4, 38),36	840,(2, 5),3	843,(2, 8),3	846,(2, 10),30	876,(2, 12),3	879,(2, 13),12	891,(2, 14),18	909,(2, 17),3	912,(2, 24),3	915,(2, 38),3	
144,(1, 6),3	147,(1, 7),12	159,(3, 7),27	186,(3, 18),3	189,(3, 25),6	195,(1, 20),3	198,(3, 33),3	201,(3, 39),3	207,(1, 32),9	216,(1, 33),12	228,(1, 34),39	267,(1, 39),3	270,(3, 34),24	294,(3, 40),45	
1,(0, 1),3	135,(4, 16),9	144,(4, 19),333	477,(4, 22),147	624,(3, 9),12	636,(3, 23),3	639,(11, 41),24	663,(30, 41),24	690,(4, 29),24	714,(4, 35),15	729,(4, 36),3	732,(4, 37),72	804,(3, 22),57	861,(3, 36),156	1017,(3, 37),135	1152,(2, 15),3	1155,(2, 19),6	1161,(2, 29),3	1164,(2, 35),3	1167,(26, 41),24	1191,(6, 41),24	1215,(7, 41),24	1239,(18, 41),24	1263,(25, 41),24	1287,(20, 41),24	1311,(32, 41),24	1335,(33, 41),24	1359,(39, 41),24	1383,(34, 41),24	1407,(40, 41),24	1431,(27, 41),24	1455,(28, 41),24	1479,(5, 41),24	1503,(8, 41),24	1527,(10, 41),24	1551,(12, 41),24	1575,(13, 41),24	1599,(14, 41),24	1623,(17, 41),24	1647,(24, 41),24	1671,(38, 41),24	
# Outgoing
159,(3, 7),27	186,(3, 18),3	189,(3, 25),6	198,(3, 33),3	201,(3, 39),3	270,(3, 34),24	294,(3, 40),45	624,(3, 9),12	636,(3, 23),3	639,(11, 41),24	663,(30, 41),24	804,(3, 22),57	861,(3, 36),156	1017,(3, 37),135	1431,(27, 41),24	1455,(28, 41),24	1479,(5, 41),24	1503,(8, 41),24	1527,(10, 41),24	1551,(12, 41),24	1575,(13, 41),24	1599,(14, 41),24	1623,(17, 41),24	1647,(24, 41),24	1671,(38, 41),24	
1,(0, 1),3	4,(0, 3),3	36,(4, 5),30	66,(4, 8),33	99,(4, 10),24	123,(4, 13),12	135,(4, 16),9	144,(4, 19),333	477,(4, 22),147	624,(4, 24),48	672,(4, 27),6	678,(4, 28),12	690,(4, 29),24	714,(4, 35),15	729,(4, 36),3	732,(4, 37),72	804,(4, 38),36	840,(2, 5),3	843,(2, 8),3	846,(2, 10),30	876,(2, 12),3	879,(2, 13),12	891,(2, 14),18	909,(2, 17),3	912,(2, 24),3	915,(2, 38),3	1152,(2, 15),3	1155,(2, 19),6	1161,(2, 29),3	1164,(2, 35),3	1167,(26, 41),24	1191,(6, 41),24	1215,(7, 41),24	1239,(18, 41),24	1263,(25, 41),24	1287,(20, 41),24	1311,(32, 41),24	1335,(33, 41),24	1359,(39, 41),24	1383,(34, 41),24	1407,(40, 41),24	
135,(1, 5),9	144,(1, 6),3	147,(1, 7),12	159,(1, 8),3	162,(1, 10),6	168,(1, 17),27	195,(1, 20),3	198,(1, 24),6	204,(1, 27),3	207,(1, 32),9	216,(1, 33),12	228,(1, 34),39	267,(1, 39),3	
