3716
# CPU
406,10,2	952,25,2	955,45,2	961,24,2	982,115,2	1057,65,2	1075,75,2	1123,105,2	1291,85,2	1324,55,2	1828,35,2	2005,95,2	
361,9,2	433,54,2	526,44,2	856,114,2	1021,64,2	1261,74,2	1381,94,2	1603,23,2	1732,34,2	1744,104,2	2002,84,2	
316,8,2	393,53,2	457,73,2	727,43,2	799,103,2	865,113,2	1069,83,2	1102,93,2	1402,63,2	1435,22,2	1807,33,2	
271,7,2	325,52,2	390,32,2	769,102,2	886,62,2	1000,112,2	1126,21,2	1255,72,2	1267,92,2	1342,82,2	1861,42,2	
226,6,2	228,111,2	450,61,2	571,91,2	658,41,2	1132,31,2	1387,101,2	1432,20,2	1453,51,2	1510,19,2	1924,71,2	1981,81,2	
181,5,2	363,30,2	411,40,2	414,17,2	426,120,2	463,18,2	775,50,2	1084,90,2	1270,100,2	1579,60,2	1978,80,2	2218,110,2	2554,70,2	
136,4,2	381,39,2	417,89,2	432,29,2	489,99,2	526,49,2	1138,119,2	1480,16,2	1864,59,2	1909,69,2	1966,79,2	2215,109,2	
91,3,2	442,118,2	460,15,2	763,88,2	874,58,2	958,108,2	1072,68,2	1297,28,2	1321,48,2	1855,38,2	1963,78,2	2020,98,2	
46,2,2	327,57,2	451,12,2	453,14,2	455,67,2	466,37,2	772,47,2	994,27,2	1126,77,2	1408,117,2	1804,87,2	2017,97,2	2182,107,2	
0,0,1	1,11,2	3,1,2	5,13,2	352,36,2	397,56,2	829,46,2	841,106,2	1036,26,2	1078,76,2	1081,86,2	1114,96,2	1135,116,2	1582,66,2	3715,121,1	
# Incoming
361,(0, 10),45	406,(2, 55),441	847,(3, 45),12	859,(3, 115),21	880,(4, 24),3	883,(4, 95),66	949,(5, 25),3	952,(5, 45),3	955,(6, 24),6	961,(7, 105),6	967,(7, 115),15	1012,(11, 75),3	1021,(6, 65),36	1057,(8, 55),3	1072,(6, 75),3	1075,(8, 105),18	1102,(2, 105),21	1135,(11, 95),12	1147,(6, 85),144	1321,(12, 55),3	1807,(1, 35),21	2002,(1, 95),3	
316,(0, 9),45	361,(4, 23),3	379,(4, 94),3	382,(2, 74),3	385,(4, 54),48	433,(7, 34),84	517,(10, 44),9	535,(7, 84),3	538,(8, 23),27	565,(10, 114),36	799,(4, 114),57	1018,(6, 64),3	1126,(11, 94),9	1216,(12, 23),27	1255,(12, 74),6	1291,(6, 104),45	1342,(12, 94),39	1510,(1, 23),93	1603,(12, 34),129	1732,(12, 104),12	1981,(1, 84),21	
271,(0, 8),45	316,(2, 22),6	322,(2, 33),18	373,(3, 113),3	390,(9, 53),3	411,(7, 43),15	426,(7, 73),3	433,(4, 73),24	457,(4, 83),30	487,(5, 93),42	529,(9, 63),60	661,(11, 43),66	763,(4, 103),36	799,(9, 113),66	955,(2, 83),114	1069,(2, 93),33	1102,(5, 22),246	1348,(6, 63),54	1432,(12, 22),3	1603,(1, 33),204	
226,(0, 7),45	271,(4, 62),42	313,(3, 52),12	325,(4, 112),3	328,(3, 62),3	331,(3, 72),3	366,(9, 32),24	394,(2, 82),3	403,(8, 102),3	417,(8, 92),15	484,(3, 82),72	556,(10, 112),3	658,(11, 42),3	661,(3, 102),108	778,(11, 62),108	886,(9, 112),114	1123,(12, 21),3	1132,(12, 42),3	1243,(12, 72),12	1261,(12, 92),6	1324,(12, 82),18	1855,(1, 42),6	
181,(0, 6),45	226,(3, 31),9	235,(3, 41),78	313,(4, 20),9	322,(4, 31),3	325,(3, 61),3	328,(4, 51),6	334,(5, 61),18	352,(5, 81),6	385,(2, 81),9	394,(8, 20),9	441,(10, 61),9	487,(8, 101),36	526,(7, 51),9	538,(7, 91),33	655,(11, 41),3	886,(11, 71),126	1126,(12, 31),6	1147,(11, 101),240	1387,(12, 20),45	1435,(12, 51),18	1480,(1, 19),30	1582,(12, 71),21	1909,(1, 71),15	1978,(1, 81),3	
136,(0, 5),45	181,(3, 17),9	190,(4, 30),42	232,(4, 110),9	273,(7, 17),69	360,(7, 30),3	363,(9, 17),3	381,(7, 40),30	411,(8, 17),3	414,(8, 90),3	417,(9, 80),3	420,(9, 120),6	435,(10, 50),6	460,(11, 18),3	571,(7, 100),15	589,(9, 100),162	772,(11, 50),3	775,(11, 60),3	1015,(6, 60),3	1081,(6, 90),3	1267,(12, 100),3	1453,(12, 60),126	1966,(1, 80),12	2215,(1, 110),3	2218,(12, 70),336	
91,(0, 4),45	190,(3, 49),24	214,(3, 69),3	217,(3, 109),3	342,(7, 29),18	363,(7, 39),18	393,(9, 89),24	417,(10, 29),15	432,(10, 49),3	450,(10, 99),39	517,(7, 49),9	847,(2, 59),27	874,(2, 79),81	1135,(6, 119),3	1162,(12, 16),54	1408,(1, 16),72	1861,(1, 59),3	1864,(1, 69),45	1963,(1, 79),3	2182,(1, 109),33	
46,(0, 3),45	138,(4, 15),3	141,(4, 118),27	352,(2, 38),30	391,(8, 38),3	397,(5, 68),27	424,(5, 108),15	439,(9, 118),3	451,(11, 15),9	466,(11, 38),189	655,(10, 58),18	676,(4, 88),87	763,(7, 58),111	874,(7, 98),24	898,(10, 108),60	994,(6, 28),3	997,(6, 38),18	1057,(6, 68),15	1072,(9, 48),198	1270,(12, 28),27	1297,(12, 48),24	1828,(1, 38),27	1924,(1, 78),39	2017,(1, 98),3	
1,(0, 2),45	183,(5, 14),126	309,(5, 37),15	324,(5, 57),3	334,(3, 87),39	373,(8, 14),18	406,(0, 12),45	451,(8, 37),6	463,(11, 37),3	586,(7, 117),3	727,(11, 47),45	961,(6, 27),33	1015,(11, 77),111	1126,(4, 117),114	1387,(11, 107),3	1390,(11, 117),18	1408,(4, 87),396	2005,(1, 97),12	2020,(1, 107),162	
340,(2, 36),12	364,(4, 46),15	379,(5, 56),18	397,(2, 86),3	400,(3, 76),84	484,(8, 96),3	487,(4, 86),189	676,(7, 46),54	730,(7, 86),3	733,(7, 96),12	745,(7, 116),3	748,(8, 76),12	760,(30, 121),27	787,(53, 121),27	814,(10, 46),15	829,(10, 66),3	832,(10, 106),9	856,(4, 116),24	880,(8, 26),156	1036,(52, 121),27	1075,(6, 76),3	1078,(6, 86),3	1084,(6, 96),30	1114,(6, 116),21	1135,(57, 121),27	1162,(32, 121),27	1189,(118, 121),27	1240,(39, 121),27	1267,(89, 121),27	1294,(29, 121),27	1321,(54, 121),27	1348,(40, 121),27	1375,(17, 121),27	1402,(111, 121),27	1429,(120, 121),27	1456,(61, 121),27	1483,(73, 121),27	1510,(15, 121),27	1537,(18, 121),27	1579,(12, 66),3	1582,(44, 121),27	1609,(91, 121),27	1636,(41, 121),27	1663,(43, 121),27	1690,(88, 121),27	1717,(102, 121),27	1744,(14, 121),27	1771,(67, 121),27	1798,(37, 121),27	1825,(99, 121),27	1852,(49, 121),27	1879,(47, 121),27	1906,(50, 121),27	1933,(103, 121),27	1960,(114, 121),27	1987,(113, 121),27	2014,(58, 121),27	2041,(62, 121),27	2068,(25, 121),27	2095,(45, 121),27	2122,(108, 121),27	2149,(24, 121),27	2176,(115, 121),27	2203,(112, 121),27	2230,(64, 121),27	2257,(65, 121),27	2284,(83, 121),27	2311,(68, 121),27	2338,(75, 121),27	2365,(90, 121),27	2392,(93, 121),27	2419,(105, 121),27	2446,(21, 121),27	2473,(31, 121),27	2500,(119, 121),27	2527,(72, 121),27	2554,(27, 121),27	2581,(77, 121),27	2608,(74, 121),27	2635,(92, 121),27	2662,(100, 121),27	2689,(85, 121),27	2716,(28, 121),27	2743,(48, 121),27	2770,(55, 121),27	2797,(82, 121),27	2824,(94, 121),27	2851,(101, 121),27	2878,(63, 121),27	2905,(117, 121),27	2932,(20, 121),27	2959,(22, 121),27	2986,(51, 121),27	3013,(16, 121),27	3040,(19, 121),27	3067,(60, 121),27	3094,(23, 121),27	3121,(34, 121),27	3148,(104, 121),27	3175,(87, 121),27	3202,(33, 121),27	3229,(35, 121),27	3256,(38, 121),27	3283,(42, 121),27	3310,(59, 121),27	3337,(69, 121),27	3364,(71, 121),27	3391,(78, 121),27	3418,(79, 121),27	3445,(80, 121),27	3472,(81, 121),27	3499,(84, 121),27	3526,(95, 121),27	3553,(97, 121),27	3580,(98, 121),27	3607,(107, 121),27	3634,(109, 121),27	3661,(110, 121),27	3688,(70, 121),27	
# Outgoing
417,(10, 29),15	432,(10, 49),3	435,(10, 50),6	441,(10, 61),9	450,(10, 99),39	517,(10, 44),9	556,(10, 112),3	565,(10, 114),36	655,(10, 58),18	814,(10, 46),15	829,(10, 66),3	832,(10, 106),9	898,(10, 108),60	2068,(25, 121),27	2095,(45, 121),27	2149,(24, 121),27	2176,(115, 121),27	2257,(65, 121),27	2338,(75, 121),27	2419,(105, 121),27	2689,(85, 121),27	2770,(55, 121),27	3229,(35, 121),27	3526,(95, 121),27	
363,(9, 17),3	366,(9, 32),24	390,(9, 53),3	393,(9, 89),24	417,(9, 80),3	420,(9, 120),6	439,(9, 118),3	529,(9, 63),60	589,(9, 100),162	799,(9, 113),66	886,(9, 112),114	1072,(9, 48),198	1321,(54, 121),27	1582,(44, 121),27	1960,(114, 121),27	2230,(64, 121),27	2608,(74, 121),27	2824,(94, 121),27	3094,(23, 121),27	3121,(34, 121),27	3148,(104, 121),27	3499,(84, 121),27	
373,(8, 14),18	391,(8, 38),3	394,(8, 20),9	403,(8, 102),3	411,(8, 17),3	414,(8, 90),3	417,(8, 92),15	451,(8, 37),6	484,(8, 96),3	487,(8, 101),36	538,(8, 23),27	748,(8, 76),12	787,(53, 121),27	880,(8, 26),156	1057,(8, 55),3	1075,(8, 105),18	1483,(73, 121),27	1663,(43, 121),27	1933,(103, 121),27	1987,(113, 121),27	2284,(83, 121),27	2392,(93, 121),27	2878,(63, 121),27	2959,(22, 121),27	3202,(33, 121),27	
273,(7, 17),69	342,(7, 29),18	360,(7, 30),3	363,(7, 39),18	381,(7, 40),30	411,(7, 43),15	426,(7, 73),3	433,(7, 34),84	517,(7, 49),9	526,(7, 51),9	535,(7, 84),3	538,(7, 91),33	571,(7, 100),15	586,(7, 117),3	676,(7, 46),54	730,(7, 86),3	733,(7, 96),12	745,(7, 116),3	763,(7, 58),111	874,(7, 98),24	961,(7, 105),6	967,(7, 115),15	1036,(52, 121),27	1162,(32, 121),27	1717,(102, 121),27	2041,(62, 121),27	2203,(112, 121),27	2446,(21, 121),27	2527,(72, 121),27	2635,(92, 121),27	2797,(82, 121),27	3283,(42, 121),27	
955,(6, 24),6	961,(6, 27),33	994,(6, 28),3	997,(6, 38),18	1015,(6, 60),3	1018,(6, 64),3	1021,(6, 65),36	1057,(6, 68),15	1072,(6, 75),3	1075,(6, 76),3	1078,(6, 86),3	1081,(6, 90),3	1084,(6, 96),30	1114,(6, 116),21	1135,(6, 119),3	1147,(6, 85),144	1291,(6, 104),45	1348,(6, 63),54	1402,(111, 121),27	1456,(61, 121),27	1609,(91, 121),27	1636,(41, 121),27	2473,(31, 121),27	2851,(101, 121),27	2932,(20, 121),27	2986,(51, 121),27	3040,(19, 121),27	3364,(71, 121),27	3472,(81, 121),27	
183,(5, 14),126	309,(5, 37),15	324,(5, 57),3	334,(5, 61),18	352,(5, 81),6	379,(5, 56),18	397,(5, 68),27	424,(5, 108),15	487,(5, 93),42	760,(30, 121),27	949,(5, 25),3	952,(5, 45),3	1102,(5, 22),246	1348,(40, 121),27	1375,(17, 121),27	1429,(120, 121),27	1537,(18, 121),27	1906,(50, 121),27	2365,(90, 121),27	2662,(100, 121),27	3067,(60, 121),27	3445,(80, 121),27	3661,(110, 121),27	3688,(70, 121),27	
138,(4, 15),3	141,(4, 118),27	190,(4, 30),42	232,(4, 110),9	271,(4, 62),42	313,(4, 20),9	322,(4, 31),3	325,(4, 112),3	328,(4, 51),6	361,(4, 23),3	364,(4, 46),15	379,(4, 94),3	385,(4, 54),48	433,(4, 73),24	457,(4, 83),30	487,(4, 86),189	676,(4, 88),87	763,(4, 103),36	799,(4, 114),57	856,(4, 116),24	880,(4, 24),3	883,(4, 95),66	1126,(4, 117),114	1240,(39, 121),27	1267,(89, 121),27	1294,(29, 121),27	1408,(4, 87),396	1825,(99, 121),27	1852,(49, 121),27	2500,(119, 121),27	3013,(16, 121),27	3310,(59, 121),27	3337,(69, 121),27	3418,(79, 121),27	3634,(109, 121),27	
181,(3, 17),9	190,(3, 49),24	214,(3, 69),3	217,(3, 109),3	226,(3, 31),9	235,(3, 41),78	313,(3, 52),12	325,(3, 61),3	328,(3, 62),3	331,(3, 72),3	334,(3, 87),39	373,(3, 113),3	400,(3, 76),84	484,(3, 82),72	661,(3, 102),108	847,(3, 45),12	859,(3, 115),21	1189,(118, 121),27	1510,(15, 121),27	1690,(88, 121),27	2014,(58, 121),27	2122,(108, 121),27	2311,(68, 121),27	2716,(28, 121),27	2743,(48, 121),27	3256,(38, 121),27	3391,(78, 121),27	3580,(98, 121),27	
316,(2, 22),6	322,(2, 33),18	340,(2, 36),12	352,(2, 38),30	382,(2, 74),3	385,(2, 81),9	394,(2, 82),3	397,(2, 86),3	406,(2, 55),441	847,(2, 59),27	874,(2, 79),81	955,(2, 83),114	1069,(2, 93),33	1102,(2, 105),21	1123,(12, 21),3	1126,(12, 31),6	1132,(12, 42),3	1135,(57, 121),27	1162,(12, 16),54	1216,(12, 23),27	1243,(12, 72),12	1255,(12, 74),6	1261,(12, 92),6	1267,(12, 100),3	1270,(12, 28),27	1297,(12, 48),24	1321,(12, 55),3	1324,(12, 82),18	1342,(12, 94),39	1387,(12, 20),45	1432,(12, 22),3	1435,(12, 51),18	1453,(12, 60),126	1579,(12, 66),3	1582,(12, 71),21	1603,(12, 34),129	1732,(12, 104),12	1744,(14, 121),27	1771,(67, 121),27	1798,(37, 121),27	1879,(47, 121),27	2218,(12, 70),336	2554,(27, 121),27	2581,(77, 121),27	2905,(117, 121),27	3175,(87, 121),27	3553,(97, 121),27	3607,(107, 121),27	
1,(0, 2),45	46,(0, 3),45	91,(0, 4),45	136,(0, 5),45	181,(0, 6),45	226,(0, 7),45	271,(0, 8),45	316,(0, 9),45	361,(0, 10),45	406,(0, 12),45	451,(11, 15),9	460,(11, 18),3	463,(11, 37),3	466,(11, 38),189	655,(11, 41),3	658,(11, 42),3	661,(11, 43),66	727,(11, 47),45	772,(11, 50),3	775,(11, 60),3	778,(11, 62),108	886,(11, 71),126	1012,(11, 75),3	1015,(11, 77),111	1126,(11, 94),9	1135,(11, 95),12	1147,(11, 101),240	1387,(11, 107),3	1390,(11, 117),18	1408,(1, 16),72	1480,(1, 19),30	1510,(1, 23),93	1603,(1, 33),204	1807,(1, 35),21	1828,(1, 38),27	1855,(1, 42),6	1861,(1, 59),3	1864,(1, 69),45	1909,(1, 71),15	1924,(1, 78),39	1963,(1, 79),3	1966,(1, 80),12	1978,(1, 81),3	1981,(1, 84),21	2002,(1, 95),3	2005,(1, 97),12	2017,(1, 98),3	2020,(1, 107),162	2182,(1, 109),33	2215,(1, 110),3	
