38
# CPU
0,0,1	1,2,4	5,16,4	9,15,4	13,7,4	21,19,4	31,8,4	
2,1,4	6,3,4	10,10,4	14,6,4	18,18,4	22,11,4	26,5,4	30,4,4	37,21,1	
10,17,4	
9,9,4	
10,20,4	
8,12,4	12,13,4	


7,14,4	

# Incoming
12,(1, 19),9	21,(1, 8),10	
1,(0, 1),1	11,(16, 21),2	13,(14, 21),2	15,(12, 21),2	17,(15, 21),2	19,(9, 21),2	21,(17, 21),2	23,(20, 21),2	25,(13, 21),2	27,(7, 21),2	29,(19, 21),2	35,(8, 21),2	
9,(1, 17),1	
8,(1, 9),1	
5,(2, 20),5	
7,(1, 12),1	10,(2, 13),1	11,(1, 13),1	


6,(1, 14),1	

# Outgoing
1,(0, 1),1	5,(2, 20),5	10,(2, 13),1	11,(16, 21),2	17,(15, 21),2	27,(7, 21),2	29,(19, 21),2	35,(8, 21),2	
6,(1, 14),1	7,(1, 12),1	8,(1, 9),1	9,(1, 17),1	11,(1, 13),1	12,(1, 19),9	21,(1, 8),10	
21,(17, 21),2	
19,(9, 21),2	
23,(20, 21),2	
15,(12, 21),2	25,(13, 21),2	


13,(14, 21),2	

