20
# CPU
0,0,1	1,1,1	2,4,1	3,10,1	4,3,1	5,7,1	6,16,1	7,2,1	8,11,1	9,17,1	10,15,1	11,5,1	12,12,1	13,6,1	14,14,1	15,13,1	16,8,1	17,9,1	18,19,1	19,21,1	
3,18,1	9,20,1	
# Incoming
4,(18, 21),1	10,(20, 21),1	
2,(1, 18),1	8,(2, 20),1	
# Outgoing
2,(1, 18),1	8,(2, 20),1	
4,(18, 21),1	10,(20, 21),1	
