203
# CPU
0,0,1	1,5,1	2,13,1	3,2,1	4,33,1	5,34,1	6,4,1	7,80,1	8,42,1	9,9,1	10,3,1	11,64,1	12,58,1	13,19,1	14,32,1	15,45,1	16,63,1	17,6,1	18,18,1	19,70,1	20,22,1	21,24,1	22,26,1	23,62,1	24,28,1	25,7,1	26,17,1	27,30,1	28,23,1	29,52,1	30,37,1	31,44,1	32,25,1	33,35,1	34,1,1	35,41,1	36,47,1	37,79,1	38,65,1	39,39,1	40,75,1	41,57,1	42,76,1	43,59,1	44,43,1	45,53,1	46,61,1	47,72,1	48,69,1	49,11,1	50,48,1	51,16,1	52,77,1	53,40,1	54,31,1	55,60,1	56,49,1	57,66,1	65,71,1	86,15,1	202,81,1	
25,8,1	26,74,1	27,55,1	28,78,1	29,21,1	30,14,1	31,73,1	33,36,1	36,12,1	37,46,1	40,67,1	43,38,1	48,68,1	54,27,1	61,50,1	69,56,1	90,20,1	125,51,1	200,10,1	
27,54,1	
28,29,1	






# Incoming
28,(8, 59),1	29,(8, 43),1	30,(8, 53),1	31,(8, 61),1	32,(8, 72),1	33,(8, 69),1	34,(8, 11),1	35,(8, 48),1	36,(8, 16),2	38,(8, 77),2	40,(8, 40),3	43,(8, 31),3	46,(8, 60),3	49,(8, 49),3	52,(8, 66),4	56,(8, 71),9	65,(8, 15),21	86,(74, 81),1	87,(55, 81),1	88,(54, 81),1	89,(78, 81),1	90,(29, 81),1	91,(21, 81),1	92,(14, 81),1	93,(73, 81),1	94,(36, 81),1	95,(12, 81),1	96,(46, 81),1	97,(67, 81),1	98,(38, 81),1	99,(68, 81),1	100,(27, 81),1	101,(50, 81),1	102,(56, 81),1	103,(20, 81),1	126,(51, 81),1	201,(10, 81),1	
1,(0, 8),24	26,(2, 14),1	27,(2, 73),1	28,(4, 73),2	30,(4, 36),3	33,(3, 12),1	34,(5, 46),1	35,(1, 12),1	36,(1, 46),1	37,(3, 67),1	38,(6, 67),1	39,(1, 67),1	40,(7, 38),3	43,(1, 68),5	48,(4, 27),2	50,(3, 27),1	51,(1, 27),3	54,(3, 50),6	60,(7, 50),1	61,(2, 56),1	62,(7, 56),7	69,(2, 20),13	82,(4, 20),2	84,(3, 20),5	89,(7, 20),1	90,(5, 51),1	91,(4, 51),19	110,(3, 51),1	111,(1, 51),14	125,(4, 10),3	128,(3, 10),30	158,(6, 10),10	168,(1, 10),32	
26,(8, 54),1	
25,(6, 29),1	27,(8, 29),1	






# Outgoing
1,(0, 8),24	25,(6, 29),1	26,(2, 14),1	27,(2, 73),1	28,(4, 73),2	30,(4, 36),3	33,(3, 12),1	34,(5, 46),1	35,(1, 12),1	36,(1, 46),1	37,(3, 67),1	38,(6, 67),1	39,(1, 67),1	40,(7, 38),3	43,(1, 68),5	48,(4, 27),2	50,(3, 27),1	51,(1, 27),3	54,(3, 50),6	60,(7, 50),1	61,(2, 56),1	62,(7, 56),7	69,(2, 20),13	82,(4, 20),2	84,(3, 20),5	89,(7, 20),1	90,(5, 51),1	91,(4, 51),19	110,(3, 51),1	111,(1, 51),14	125,(4, 10),3	128,(3, 10),30	158,(6, 10),10	168,(1, 10),32	
26,(8, 54),1	27,(8, 29),1	28,(8, 59),1	29,(8, 43),1	30,(8, 53),1	31,(8, 61),1	32,(8, 72),1	33,(8, 69),1	34,(8, 11),1	35,(8, 48),1	36,(8, 16),2	38,(8, 77),2	40,(8, 40),3	43,(8, 31),3	46,(8, 60),3	49,(8, 49),3	52,(8, 66),4	56,(8, 71),9	65,(8, 15),21	86,(74, 81),1	87,(55, 81),1	89,(78, 81),1	91,(21, 81),1	92,(14, 81),1	93,(73, 81),1	94,(36, 81),1	95,(12, 81),1	96,(46, 81),1	97,(67, 81),1	98,(38, 81),1	99,(68, 81),1	100,(27, 81),1	101,(50, 81),1	102,(56, 81),1	103,(20, 81),1	126,(51, 81),1	201,(10, 81),1	
88,(54, 81),1	
90,(29, 81),1	






