2774
# CPU
169,24,21	268,34,21	337,14,21	
322,23,21	463,13,21	544,33,21	
262,12,21	529,22,21	1135,32,21	
115,11,21	136,21,21	2581,31,21	
163,20,21	241,30,21	340,10,21	1315,40,21	
310,9,21	484,19,21	550,39,21	1081,29,21	
100,4,21	121,8,21	142,18,21	436,38,21	508,28,21	
67,3,21	133,17,21	250,27,21	643,37,21	2392,7,21	
34,2,21	55,6,21	76,26,21	160,36,21	967,16,21	
0,0,1	1,1,21	22,25,21	160,5,21	181,15,21	271,35,21	2773,41,1	
# Incoming
163,(2, 24),6	250,(2, 34),18	268,(3, 14),69	
286,(1, 23),36	340,(4, 13),123	529,(4, 33),15	
115,(1, 12),54	169,(3, 12),57	226,(4, 12),36	484,(4, 22),45	1081,(3, 32),54	
100,(1, 11),15	115,(3, 21),3	2392,(4, 31),189	
133,(2, 20),30	226,(3, 30),15	271,(2, 40),3	274,(4, 10),66	1135,(3, 40),180	
283,(1, 19),3	286,(2, 9),24	463,(4, 19),21	544,(4, 39),6	967,(3, 29),114	
67,(0, 4),33	103,(3, 8),3	106,(3, 38),3	322,(1, 38),114	436,(2, 28),72	
34,(0, 3),33	100,(2, 17),33	169,(2, 27),81	508,(2, 37),135	643,(4, 7),1749	
1,(0, 2),33	118,(3, 36),42	169,(1, 16),114	337,(3, 16),630	
55,(2, 5),27	82,(2, 15),18	100,(3, 5),3	121,(4, 5),39	160,(4, 15),3	163,(11, 41),48	211,(21, 41),48	268,(2, 35),3	310,(6, 41),48	358,(26, 41),48	406,(20, 41),48	454,(24, 41),48	502,(30, 41),48	550,(8, 41),48	643,(36, 41),48	691,(12, 41),48	739,(34, 41),48	787,(9, 41),48	835,(23, 41),48	883,(14, 41),48	931,(10, 41),48	979,(13, 41),48	1027,(19, 41),48	1075,(22, 41),48	1123,(33, 41),48	1171,(39, 41),48	1219,(16, 41),48	1267,(29, 41),48	1315,(17, 41),48	1363,(27, 41),48	1411,(37, 41),48	1459,(32, 41),48	1507,(40, 41),48	2413,(7, 41),48	2581,(18, 41),48	2629,(38, 41),48	2677,(28, 41),48	2725,(31, 41),48	
# Outgoing
454,(24, 41),48	739,(34, 41),48	883,(14, 41),48	
835,(23, 41),48	979,(13, 41),48	1123,(33, 41),48	
691,(12, 41),48	1075,(22, 41),48	1459,(32, 41),48	
163,(11, 41),48	211,(21, 41),48	2725,(31, 41),48	
406,(20, 41),48	502,(30, 41),48	931,(10, 41),48	1507,(40, 41),48	
787,(9, 41),48	1027,(19, 41),48	1171,(39, 41),48	1267,(29, 41),48	
121,(4, 5),39	160,(4, 15),3	226,(4, 12),36	274,(4, 10),66	340,(4, 13),123	463,(4, 19),21	484,(4, 22),45	529,(4, 33),15	544,(4, 39),6	550,(8, 41),48	643,(4, 7),1749	2392,(4, 31),189	2581,(18, 41),48	2629,(38, 41),48	2677,(28, 41),48	
100,(3, 5),3	103,(3, 8),3	106,(3, 38),3	115,(3, 21),3	118,(3, 36),42	169,(3, 12),57	226,(3, 30),15	268,(3, 14),69	337,(3, 16),630	967,(3, 29),114	1081,(3, 32),54	1135,(3, 40),180	1315,(17, 41),48	1363,(27, 41),48	1411,(37, 41),48	2413,(7, 41),48	
55,(2, 5),27	82,(2, 15),18	100,(2, 17),33	133,(2, 20),30	163,(2, 24),6	169,(2, 27),81	250,(2, 34),18	268,(2, 35),3	271,(2, 40),3	286,(2, 9),24	310,(6, 41),48	358,(26, 41),48	436,(2, 28),72	508,(2, 37),135	643,(36, 41),48	1219,(16, 41),48	
1,(0, 2),33	34,(0, 3),33	67,(0, 4),33	100,(1, 11),15	115,(1, 12),54	169,(1, 16),114	283,(1, 19),3	286,(1, 23),36	322,(1, 38),114	
