1082
# CPU
73,5,1	74,65,1	97,35,1	109,70,1	137,11,1	141,60,1	185,20,1	201,30,1	305,55,1	315,40,1	317,45,1	319,50,1	407,75,1	409,15,1	411,25,1	535,80,1	
55,4,1	56,29,1	57,59,1	75,14,1	77,9,1	91,19,1	129,44,1	131,54,1	133,64,1	181,79,1	193,24,1	199,39,1	229,49,1	285,74,1	441,34,1	463,69,1	
37,3,1	81,13,1	109,8,1	110,48,1	111,73,1	112,43,1	113,18,1	117,33,1	205,53,1	397,58,1	405,23,1	407,63,1	427,28,1	433,68,1	461,38,1	521,78,1	
19,2,1	20,52,1	91,7,1	92,17,1	103,47,1	111,12,1	155,22,1	199,27,1	201,62,1	227,32,1	297,67,1	333,42,1	399,72,1	443,37,1	483,77,1	1077,57,1	
0,0,1	1,6,1	2,1,1	3,66,1	77,16,1	123,26,1	125,46,1	127,71,1	129,31,1	131,56,1	177,76,1	179,36,1	181,51,1	201,21,1	213,41,1	221,61,1	311,10,1	1081,81,1	
# Incoming
55,(0, 5),18	79,(2, 35),18	97,(2, 60),6	103,(2, 70),6	109,(4, 11),28	137,(8, 60),4	183,(7, 20),2	199,(6, 30),2	201,(2, 55),104	311,(7, 40),4	315,(7, 45),2	317,(7, 50),2	399,(6, 75),8	407,(1, 15),2	409,(1, 25),2	521,(1, 80),14	
37,(0, 4),18	55,(2, 14),20	75,(5, 9),2	77,(2, 24),2	81,(5, 19),10	111,(2, 44),18	129,(8, 54),2	131,(8, 64),2	177,(2, 79),4	185,(7, 24),8	193,(7, 39),6	227,(6, 49),2	229,(8, 74),56	427,(1, 34),14	461,(1, 69),2	
19,(0, 3),18	77,(5, 13),4	91,(0, 8),18	109,(2, 43),2	111,(6, 18),2	113,(5, 33),4	129,(2, 58),8	137,(5, 53),68	229,(6, 58),168	397,(7, 23),8	405,(7, 63),2	411,(1, 28),16	427,(7, 68),6	443,(1, 38),18	483,(1, 78),38	
1,(0, 2),18	73,(0, 7),18	91,(5, 12),6	97,(5, 47),6	109,(6, 12),2	113,(6, 22),42	155,(6, 27),44	199,(3, 62),2	201,(6, 32),26	227,(5, 67),70	297,(8, 42),36	397,(6, 72),2	441,(1, 37),2	463,(1, 77),20	483,(3, 57),594	
75,(2, 16),2	77,(3, 26),46	123,(3, 46),2	125,(3, 71),2	127,(5, 31),2	129,(5, 56),2	131,(65, 81),2	133,(13, 81),2	135,(35, 81),2	137,(2, 76),40	177,(4, 36),2	179,(4, 51),2	181,(52, 81),2	183,(4, 21),18	201,(29, 81),2	203,(59, 81),2	205,(14, 81),2	207,(9, 81),2	209,(19, 81),2	211,(8, 41),2	213,(8, 61),8	221,(70, 81),2	223,(48, 81),2	225,(73, 81),2	227,(43, 81),2	229,(44, 81),2	231,(54, 81),2	233,(64, 81),2	235,(79, 81),2	237,(24, 81),2	239,(39, 81),2	241,(49, 81),2	285,(18, 81),2	287,(33, 81),2	289,(53, 81),2	291,(74, 81),2	297,(11, 81),2	299,(60, 81),2	301,(20, 81),2	303,(30, 81),2	305,(7, 10),6	311,(55, 81),2	316,(40, 81),2	319,(17, 81),2	321,(47, 81),2	323,(12, 81),2	325,(22, 81),2	327,(27, 81),2	329,(62, 81),2	331,(32, 81),2	333,(67, 81),2	335,(45, 81),2	337,(50, 81),2	339,(42, 81),2	398,(58, 81),2	407,(72, 81),2	409,(23, 81),2	411,(63, 81),2	413,(75, 81),2	415,(15, 81),2	417,(25, 81),2	428,(28, 81),2	434,(68, 81),2	442,(34, 81),2	444,(37, 81),2	462,(38, 81),2	464,(69, 81),2	484,(77, 81),2	536,(80, 81),2	1077,(78, 81),2	1079,(57, 81),2	
# Outgoing
75,(5, 9),2	77,(5, 13),4	81,(5, 19),10	91,(5, 12),6	97,(5, 47),6	113,(5, 33),4	127,(5, 31),2	129,(5, 56),2	131,(65, 81),2	135,(35, 81),2	137,(5, 53),68	221,(70, 81),2	227,(5, 67),70	297,(11, 81),2	299,(60, 81),2	301,(20, 81),2	303,(30, 81),2	311,(55, 81),2	316,(40, 81),2	335,(45, 81),2	337,(50, 81),2	413,(75, 81),2	415,(15, 81),2	417,(25, 81),2	536,(80, 81),2	
109,(4, 11),28	177,(4, 36),2	179,(4, 51),2	183,(4, 21),18	201,(29, 81),2	203,(59, 81),2	205,(14, 81),2	207,(9, 81),2	209,(19, 81),2	229,(44, 81),2	231,(54, 81),2	233,(64, 81),2	235,(79, 81),2	237,(24, 81),2	239,(39, 81),2	241,(49, 81),2	291,(74, 81),2	442,(34, 81),2	464,(69, 81),2	
77,(3, 26),46	123,(3, 46),2	125,(3, 71),2	129,(8, 54),2	131,(8, 64),2	133,(13, 81),2	137,(8, 60),4	199,(3, 62),2	211,(8, 41),2	213,(8, 61),8	223,(48, 81),2	225,(73, 81),2	227,(43, 81),2	229,(8, 74),56	285,(18, 81),2	287,(33, 81),2	289,(53, 81),2	297,(8, 42),36	398,(58, 81),2	409,(23, 81),2	411,(63, 81),2	428,(28, 81),2	434,(68, 81),2	462,(38, 81),2	483,(3, 57),594	1077,(78, 81),2	
55,(2, 14),20	75,(2, 16),2	77,(2, 24),2	79,(2, 35),18	97,(2, 60),6	103,(2, 70),6	109,(2, 43),2	111,(2, 44),18	129,(2, 58),8	137,(2, 76),40	177,(2, 79),4	181,(52, 81),2	183,(7, 20),2	185,(7, 24),8	193,(7, 39),6	201,(2, 55),104	305,(7, 10),6	311,(7, 40),4	315,(7, 45),2	317,(7, 50),2	319,(17, 81),2	321,(47, 81),2	323,(12, 81),2	325,(22, 81),2	327,(27, 81),2	329,(62, 81),2	331,(32, 81),2	333,(67, 81),2	339,(42, 81),2	397,(7, 23),8	405,(7, 63),2	407,(72, 81),2	427,(7, 68),6	444,(37, 81),2	484,(77, 81),2	1079,(57, 81),2	
1,(0, 2),18	19,(0, 3),18	37,(0, 4),18	55,(0, 5),18	73,(0, 7),18	91,(0, 8),18	109,(6, 12),2	111,(6, 18),2	113,(6, 22),42	155,(6, 27),44	199,(6, 30),2	201,(6, 32),26	227,(6, 49),2	229,(6, 58),168	397,(6, 72),2	399,(6, 75),8	407,(1, 15),2	409,(1, 25),2	411,(1, 28),16	427,(1, 34),14	441,(1, 37),2	443,(1, 38),18	461,(1, 69),2	463,(1, 77),20	483,(1, 78),38	521,(1, 80),14	
