1553
# CPU
0,0,1	1,6,3	4,148,3	7,172,3	10,95,3	13,7,3	16,102,3	19,18,3	22,194,3	25,166,3	28,197,3	31,84,3	34,25,3	37,3,3	40,66,3	43,140,3	46,9,3	49,106,3	52,138,3	55,68,3	58,116,3	61,128,3	64,180,3	67,92,3	70,85,3	73,47,3	76,41,3	79,169,3	82,170,3	85,67,3	88,154,3	91,121,3	94,147,3	97,45,3	100,119,3	118,57,3	151,73,3	193,196,3	223,174,3	280,182,3	
4,19,3	7,151,3	10,62,3	13,105,3	16,32,3	19,108,3	31,15,3	34,156,3	37,53,3	40,16,3	43,33,3	46,153,3	49,131,3	52,159,3	55,118,3	58,55,3	61,139,3	64,100,3	88,127,3	103,28,3	133,187,3	163,90,3	211,79,3	
10,17,3	13,191,3	16,81,3	19,71,3	22,99,3	34,11,3	37,143,3	40,177,3	43,93,3	46,43,3	49,132,3	52,48,3	55,64,3	58,74,3	76,183,3	94,192,3	118,63,3	136,124,3	322,36,3	490,125,3	
16,2,3	19,141,3	22,89,3	25,113,3	28,175,3	43,60,3	46,26,3	52,14,3	55,21,3	58,72,3	61,42,3	64,91,3	67,35,3	70,136,3	73,122,3	76,76,3	79,137,3	82,107,3	85,27,3	88,56,3	91,160,3	94,96,3	97,185,3	100,117,3	187,83,3	247,40,3	
49,13,3	52,22,3	55,178,3	58,31,3	61,111,3	64,161,3	67,157,3	70,103,3	73,186,3	76,176,3	79,199,3	82,181,3	85,190,3	88,144,3	91,135,3	
46,1,3	49,163,3	52,30,3	55,80,3	58,193,3	61,123,3	64,133,3	67,94,3	73,146,3	88,162,3	112,52,3	247,155,3	
49,109,3	58,58,3	67,152,3	
43,12,3	46,88,3	49,134,3	52,115,3	55,198,3	58,59,3	61,65,3	64,179,3	67,75,3	73,189,3	85,98,3	106,44,3	133,129,3	154,120,3	
13,4,3	16,49,3	19,51,3	22,77,3	25,97,3	28,10,3	31,86,3	34,171,3	37,158,3	40,69,3	43,46,3	46,167,3	49,195,3	52,168,3	55,164,3	58,54,3	61,38,3	70,114,3	79,23,3	88,184,3	112,173,3	1552,201,1	
7,20,3	10,145,3	13,104,3	16,34,3	19,8,3	22,126,3	25,82,3	28,149,3	31,110,3	34,112,3	37,5,3	40,142,3	43,29,3	46,70,3	49,39,3	52,188,3	58,130,3	61,37,3	64,50,3	67,61,3	85,78,3	100,24,3	127,87,3	145,101,3	172,150,3	187,165,3	217,200,3	
# Incoming
40,(5, 47),3	43,(20, 169),3	49,(17, 170),3	52,(10, 154),3	55,(11, 121),3	58,(17, 147),3	61,(12, 147),3	64,(16, 41),3	67,(19, 67),3	70,(13, 45),6	85,(20, 119),6	94,(19, 119),3	97,(14, 57),21	118,(17, 73),15	133,(13, 73),18	160,(20, 196),33	193,(5, 174),12	205,(16, 174),18	247,(8, 182),33	
1,(0, 19),3	28,(0, 15),3	37,(0, 16),3	40,(4, 139),9	49,(12, 55),3	52,(9, 118),3	61,(14, 100),3	76,(2, 127),12	88,(2, 28),9	97,(3, 28),6	118,(3, 187),3	121,(14, 187),12	133,(8, 90),27	160,(9, 90),3	187,(7, 79),24	
7,(0, 17),3	19,(6, 99),3	31,(0, 11),3	34,(10, 125),6	46,(15, 74),6	52,(1, 64),3	55,(20, 124),3	64,(12, 125),3	70,(14, 183),6	85,(18, 192),9	103,(3, 63),15	121,(3, 124),15	247,(7, 36),75	322,(9, 125),168	
13,(0, 2),3	16,(4, 175),3	22,(8, 60),18	40,(11, 60),3	43,(16, 26),3	46,(20, 160),3	49,(0, 14),3	61,(1, 117),12	79,(19, 56),3	82,(16, 96),6	88,(16, 185),6	112,(12, 83),30	157,(15, 83),30	211,(3, 40),21	232,(9, 40),15	
46,(0, 13),3	49,(5, 190),3	52,(12, 144),9	73,(6, 181),3	76,(4, 135),9	
43,(0, 1),3	55,(15, 94),9	67,(7, 146),6	73,(11, 162),15	97,(15, 52),15	205,(5, 155),42	
43,(17, 109),3	46,(12, 109),3	49,(2, 152),3	52,(13, 58),3	55,(7, 58),3	58,(5, 152),6	64,(9, 152),3	
40,(0, 12),3	46,(17, 179),3	52,(19, 75),3	58,(3, 65),3	61,(4, 189),12	73,(8, 98),12	91,(20, 44),15	106,(5, 129),27	136,(7, 120),18	
10,(0, 4),3	19,(2, 77),3	22,(6, 97),3	25,(0, 10),3	28,(141, 201),9	37,(89, 201),9	55,(1, 54),3	58,(14, 38),3	61,(13, 184),3	67,(14, 114),3	70,(15, 23),9	79,(1, 184),9	88,(12, 173),24	112,(151, 201),9	121,(163, 201),9	133,(191, 201),9	142,(81, 201),9	151,(71, 201),9	160,(99, 201),9	169,(113, 201),9	178,(175, 201),9	187,(62, 201),9	196,(105, 201),9	205,(143, 201),9	214,(177, 201),9	223,(32, 201),9	232,(108, 201),9	241,(156, 201),9	250,(53, 201),9	259,(33, 201),9	268,(93, 201),9	280,(145, 201),9	289,(104, 201),9	298,(34, 201),9	307,(126, 201),9	316,(82, 201),9	325,(149, 201),9	334,(110, 201),9	343,(112, 201),9	352,(142, 201),9	361,(29, 201),9	370,(60, 201),9	379,(88, 201),9	388,(153, 201),9	397,(70, 201),9	406,(43, 201),9	415,(26, 201),9	424,(134, 201),9	433,(131, 201),9	442,(39, 201),9	451,(132, 201),9	460,(109, 201),9	469,(22, 201),9	478,(30, 201),9	490,(148, 201),9	499,(172, 201),9	508,(95, 201),9	517,(102, 201),9	526,(194, 201),9	535,(166, 201),9	544,(197, 201),9	553,(84, 201),9	562,(25, 201),9	571,(66, 201),9	580,(140, 201),9	589,(106, 201),9	598,(138, 201),9	607,(115, 201),9	616,(48, 201),9	625,(159, 201),9	634,(188, 201),9	643,(21, 201),9	652,(178, 201),9	661,(80, 201),9	670,(68, 201),9	679,(198, 201),9	688,(118, 201),9	697,(64, 201),9	706,(72, 201),9	715,(31, 201),9	724,(116, 201),9	733,(193, 201),9	742,(59, 201),9	751,(130, 201),9	760,(55, 201),9	769,(58, 201),9	778,(74, 201),9	787,(42, 201),9	796,(111, 201),9	805,(123, 201),9	814,(128, 201),9	823,(65, 201),9	832,(37, 201),9	841,(139, 201),9	850,(91, 201),9	859,(161, 201),9	868,(180, 201),9	877,(133, 201),9	886,(179, 201),9	895,(100, 201),9	904,(50, 201),9	913,(35, 201),9	922,(157, 201),9	931,(92, 201),9	940,(61, 201),9	949,(75, 201),9	958,(94, 201),9	967,(152, 201),9	976,(136, 201),9	985,(103, 201),9	994,(85, 201),9	1003,(122, 201),9	1012,(186, 201),9	1021,(47, 201),9	1030,(146, 201),9	1039,(189, 201),9	1048,(76, 201),9	1057,(176, 201),9	1066,(41, 201),9	1075,(183, 201),9	1084,(137, 201),9	1093,(199, 201),9	1102,(169, 201),9	1111,(107, 201),9	1120,(181, 201),9	1129,(170, 201),9	1138,(27, 201),9	1147,(190, 201),9	1156,(67, 201),9	1165,(78, 201),9	1174,(98, 201),9	1183,(56, 201),9	1192,(154, 201),9	1201,(144, 201),9	1210,(127, 201),9	1219,(162, 201),9	1228,(121, 201),9	1237,(160, 201),9	1246,(135, 201),9	1255,(96, 201),9	1264,(147, 201),9	1273,(192, 201),9	1282,(185, 201),9	1291,(45, 201),9	1300,(119, 201),9	1309,(117, 201),9	1318,(24, 201),9	1327,(28, 201),9	1336,(44, 201),9	1345,(52, 201),9	1354,(63, 201),9	1363,(57, 201),9	1372,(87, 201),9	1381,(187, 201),9	1390,(129, 201),9	1399,(124, 201),9	1408,(101, 201),9	1417,(73, 201),9	1426,(120, 201),9	1435,(90, 201),9	1444,(150, 201),9	1453,(165, 201),9	1462,(83, 201),9	1471,(196, 201),9	1480,(79, 201),9	1489,(200, 201),9	1498,(174, 201),9	1507,(40, 201),9	1516,(155, 201),9	1525,(182, 201),9	1534,(36, 201),9	1543,(125, 201),9	
4,(0, 20),3	16,(0, 8),3	19,(4, 37),3	34,(0, 5),3	49,(1, 188),3	55,(14, 130),3	58,(1, 37),3	61,(9, 50),3	64,(14, 61),3	76,(9, 78),9	85,(10, 24),15	100,(4, 87),27	127,(19, 101),18	145,(15, 150),12	163,(3, 150),9	172,(3, 165),15	187,(12, 200),30	
# Outgoing
1,(0, 19),3	4,(0, 20),3	7,(0, 17),3	10,(0, 4),3	13,(0, 2),3	16,(0, 8),3	19,(6, 99),3	22,(6, 97),3	25,(0, 10),3	28,(0, 15),3	31,(0, 11),3	34,(0, 5),3	37,(0, 16),3	40,(0, 12),3	43,(0, 1),3	46,(0, 13),3	49,(0, 14),3	52,(9, 118),3	55,(7, 58),3	58,(3, 65),3	61,(9, 50),3	64,(9, 152),3	67,(7, 146),6	73,(6, 181),3	76,(9, 78),9	85,(18, 192),9	97,(3, 28),6	103,(3, 63),15	118,(3, 187),3	121,(3, 124),15	136,(7, 120),18	160,(9, 90),3	163,(3, 150),9	172,(3, 165),15	187,(7, 79),24	211,(3, 40),21	232,(9, 40),15	247,(7, 36),75	322,(9, 125),168	490,(148, 201),9	499,(172, 201),9	508,(95, 201),9	517,(102, 201),9	526,(194, 201),9	535,(166, 201),9	544,(197, 201),9	553,(84, 201),9	562,(25, 201),9	571,(66, 201),9	580,(140, 201),9	589,(106, 201),9	598,(138, 201),9	670,(68, 201),9	724,(116, 201),9	814,(128, 201),9	868,(180, 201),9	931,(92, 201),9	994,(85, 201),9	1021,(47, 201),9	1066,(41, 201),9	1102,(169, 201),9	1129,(170, 201),9	1156,(67, 201),9	1192,(154, 201),9	1228,(121, 201),9	1264,(147, 201),9	1291,(45, 201),9	1300,(119, 201),9	1363,(57, 201),9	1417,(73, 201),9	1471,(196, 201),9	1498,(174, 201),9	1525,(182, 201),9	
43,(16, 26),3	46,(15, 74),6	52,(19, 75),3	55,(15, 94),9	64,(16, 41),3	67,(19, 67),3	70,(15, 23),9	79,(19, 56),3	82,(16, 96),6	88,(16, 185),6	94,(19, 119),3	97,(15, 52),15	112,(151, 201),9	127,(19, 101),18	145,(15, 150),12	157,(15, 83),30	187,(62, 201),9	196,(105, 201),9	205,(16, 174),18	223,(32, 201),9	232,(108, 201),9	241,(156, 201),9	250,(53, 201),9	259,(33, 201),9	388,(153, 201),9	433,(131, 201),9	625,(159, 201),9	688,(118, 201),9	760,(55, 201),9	841,(139, 201),9	895,(100, 201),9	1210,(127, 201),9	1327,(28, 201),9	1381,(187, 201),9	1435,(90, 201),9	1480,(79, 201),9	
40,(11, 60),3	43,(17, 109),3	46,(17, 179),3	49,(17, 170),3	55,(11, 121),3	58,(17, 147),3	73,(11, 162),15	118,(17, 73),15	133,(191, 201),9	142,(81, 201),9	151,(71, 201),9	160,(99, 201),9	205,(143, 201),9	214,(177, 201),9	268,(93, 201),9	406,(43, 201),9	451,(132, 201),9	616,(48, 201),9	697,(64, 201),9	778,(74, 201),9	1075,(183, 201),9	1273,(192, 201),9	1354,(63, 201),9	1399,(124, 201),9	1534,(36, 201),9	1543,(125, 201),9	
19,(2, 77),3	28,(141, 201),9	37,(89, 201),9	49,(2, 152),3	55,(14, 130),3	58,(14, 38),3	61,(14, 100),3	64,(14, 61),3	67,(14, 114),3	70,(14, 183),6	76,(2, 127),12	88,(2, 28),9	97,(14, 57),21	121,(14, 187),12	169,(113, 201),9	178,(175, 201),9	370,(60, 201),9	415,(26, 201),9	643,(21, 201),9	706,(72, 201),9	787,(42, 201),9	850,(91, 201),9	913,(35, 201),9	976,(136, 201),9	1003,(122, 201),9	1048,(76, 201),9	1084,(137, 201),9	1111,(107, 201),9	1138,(27, 201),9	1183,(56, 201),9	1237,(160, 201),9	1255,(96, 201),9	1282,(185, 201),9	1309,(117, 201),9	1462,(83, 201),9	1507,(40, 201),9	
52,(13, 58),3	61,(13, 184),3	70,(13, 45),6	133,(13, 73),18	469,(22, 201),9	652,(178, 201),9	715,(31, 201),9	796,(111, 201),9	859,(161, 201),9	922,(157, 201),9	985,(103, 201),9	1012,(186, 201),9	1057,(176, 201),9	1093,(199, 201),9	1120,(181, 201),9	1147,(190, 201),9	1201,(144, 201),9	1246,(135, 201),9	
49,(1, 188),3	52,(1, 64),3	55,(1, 54),3	58,(1, 37),3	61,(1, 117),12	79,(1, 184),9	121,(163, 201),9	478,(30, 201),9	661,(80, 201),9	733,(193, 201),9	805,(123, 201),9	877,(133, 201),9	958,(94, 201),9	1030,(146, 201),9	1219,(162, 201),9	1345,(52, 201),9	1516,(155, 201),9	
460,(109, 201),9	769,(58, 201),9	967,(152, 201),9	
46,(12, 109),3	49,(12, 55),3	52,(12, 144),9	61,(12, 147),3	64,(12, 125),3	88,(12, 173),24	112,(12, 83),30	187,(12, 200),30	379,(88, 201),9	424,(134, 201),9	607,(115, 201),9	679,(198, 201),9	742,(59, 201),9	823,(65, 201),9	886,(179, 201),9	949,(75, 201),9	1039,(189, 201),9	1174,(98, 201),9	1336,(44, 201),9	1390,(129, 201),9	1426,(120, 201),9	
16,(4, 175),3	19,(4, 37),3	34,(10, 125),6	40,(4, 139),9	52,(10, 154),3	61,(4, 189),12	76,(4, 135),9	85,(10, 24),15	100,(4, 87),27	
22,(8, 60),18	40,(5, 47),3	43,(20, 169),3	46,(20, 160),3	49,(5, 190),3	55,(20, 124),3	58,(5, 152),6	73,(8, 98),12	85,(20, 119),6	91,(20, 44),15	106,(5, 129),27	133,(8, 90),27	160,(20, 196),33	193,(5, 174),12	205,(5, 155),42	247,(8, 182),33	280,(145, 201),9	289,(104, 201),9	298,(34, 201),9	307,(126, 201),9	316,(82, 201),9	325,(149, 201),9	334,(110, 201),9	343,(112, 201),9	352,(142, 201),9	361,(29, 201),9	397,(70, 201),9	442,(39, 201),9	634,(188, 201),9	751,(130, 201),9	832,(37, 201),9	904,(50, 201),9	940,(61, 201),9	1165,(78, 201),9	1318,(24, 201),9	1372,(87, 201),9	1408,(101, 201),9	1444,(150, 201),9	1453,(165, 201),9	1489,(200, 201),9	
