2791
# CPU
0,0,1	1,7,37	38,4,37	75,3,37	112,1,37	149,6,37	186,18,37	223,64,37	260,25,37	297,52,37	334,23,37	371,62,37	408,35,37	445,37,37	482,27,37	519,59,37	556,28,37	593,70,37	630,53,37	667,80,37	704,40,37	741,63,37	778,73,37	815,29,37	852,56,37	889,22,37	926,48,37	963,47,37	1000,67,37	1037,34,37	1074,31,37	1111,39,37	1148,13,37	1185,77,37	1222,61,37	1259,46,37	1296,9,37	1333,54,37	1370,75,37	1454,44,37	1610,55,37	1770,10,37	1930,33,37	2094,12,37	2262,79,37	2790,81,1	
29,2,37	85,51,37	165,50,37	202,57,37	239,65,37	742,42,37	1066,45,37	1442,21,37	1738,20,37	
57,8,37	94,74,37	170,71,37	218,17,37	255,68,37	318,16,37	358,30,37	490,58,37	542,36,37	606,78,37	674,38,37	982,14,37	1158,41,37	1346,43,37	1542,19,37	1994,60,37	
121,5,37	158,11,37	195,15,37	232,26,37	286,72,37	402,24,37	446,32,37	822,49,37	902,69,37	1250,66,37	2270,76,37	
# Incoming
189,(5, 25),4	193,(8, 52),4	197,(8, 37),8	205,(8, 70),8	213,(8, 48),4	218,(2, 23),4	222,(2, 62),4	226,(2, 35),4	230,(2, 56),4	234,(2, 22),4	238,(5, 62),4	242,(5, 35),8	250,(5, 37),4	254,(2, 48),4	258,(2, 47),4	262,(5, 27),4	266,(5, 70),12	278,(2, 27),12	290,(2, 59),16	306,(5, 28),20	326,(5, 53),24	350,(5, 80),24	374,(8, 40),24	398,(2, 29),16	414,(8, 67),12	426,(2, 77),8	434,(5, 63),28	462,(8, 56),24	486,(2, 9),4	490,(8, 44),4	494,(5, 73),28	522,(5, 29),16	538,(5, 56),4	542,(5, 22),40	582,(5, 48),40	622,(8, 47),44	666,(5, 67),8	674,(8, 34),28	702,(2, 67),28	730,(2, 34),16	746,(2, 31),20	766,(8, 31),32	798,(8, 9),8	806,(8, 79),4	810,(5, 34),8	818,(5, 39),52	870,(2, 13),32	902,(5, 13),24	926,(5, 77),52	978,(8, 61),52	1030,(5, 61),12	1042,(8, 46),68	1110,(5, 46),4	1114,(5, 9),60	1174,(2, 54),68	1242,(5, 54),8	1250,(2, 75),92	1342,(8, 75),8	1350,(2, 44),104	1454,(2, 55),8	1462,(8, 55),52	1514,(5, 55),96	1610,(2, 10),64	1674,(8, 10),96	1770,(8, 33),160	1930,(2, 12),108	2038,(8, 12),56	2094,(2, 79),60	2154,(5, 79),108	2262,(51, 81),16	2278,(74, 81),16	2294,(11, 81),16	2310,(50, 81),16	2326,(71, 81),16	2342,(15, 81),16	2358,(57, 81),16	2374,(17, 81),16	2390,(26, 81),16	2406,(65, 81),16	2422,(68, 81),16	2438,(72, 81),16	2454,(16, 81),16	2470,(30, 81),16	2486,(24, 81),16	2502,(32, 81),16	2518,(58, 81),16	2534,(36, 81),16	2550,(78, 81),16	2566,(38, 81),16	2582,(42, 81),16	2598,(49, 81),16	2614,(69, 81),16	2630,(14, 81),16	2646,(45, 81),16	2662,(41, 81),16	2678,(66, 81),16	2694,(43, 81),16	2710,(21, 81),16	2726,(19, 81),16	2742,(20, 81),16	2758,(60, 81),16	2774,(76, 81),16	
1,(0, 2),28	57,(7, 51),24	81,(4, 51),4	125,(4, 50),4	153,(1, 50),12	169,(7, 57),12	181,(5, 57),4	190,(6, 57),8	198,(5, 65),40	298,(8, 21),56	462,(5, 42),32	674,(7, 42),12	686,(4, 42),56	982,(3, 45),4	986,(6, 45),80	1110,(8, 20),192	1346,(7, 21),8	1354,(6, 21),88	1542,(7, 20),32	1574,(3, 20),56	1630,(1, 20),108	
29,(0, 8),28	85,(4, 74),8	93,(2, 71),36	129,(3, 71),4	141,(3, 17),4	145,(2, 43),12	158,(5, 71),12	170,(5, 17),8	181,(4, 16),4	185,(5, 68),4	198,(1, 17),16	214,(6, 17),4	222,(3, 68),24	246,(1, 68),8	254,(5, 16),8	262,(2, 30),16	286,(6, 16),32	318,(4, 30),4	322,(1, 30),12	334,(6, 30),24	358,(2, 58),20	378,(5, 36),56	446,(7, 58),40	486,(3, 58),4	490,(4, 36),48	538,(1, 36),4	542,(3, 78),4	546,(1, 78),24	570,(6, 78),36	606,(7, 38),12	618,(4, 38),4	622,(1, 38),52	674,(2, 14),28	702,(5, 14),108	810,(2, 60),48	902,(7, 14),4	906,(1, 14),76	1066,(4, 41),28	1094,(3, 41),64	1250,(3, 43),40	1290,(1, 43),12	1302,(6, 43),44	1442,(7, 19),36	1478,(3, 19),16	1494,(1, 19),20	1514,(6, 19),28	1738,(4, 60),148	1886,(3, 60),108	
93,(0, 5),28	121,(7, 11),4	125,(8, 15),4	129,(2, 15),4	133,(4, 15),4	137,(3, 15),4	141,(8, 26),4	145,(3, 26),4	149,(1, 11),4	153,(8, 24),8	161,(2, 66),4	165,(1, 15),4	169,(2, 26),16	186,(6, 15),4	190,(2, 72),28	218,(1, 26),4	222,(8, 72),16	238,(8, 32),16	254,(7, 72),8	262,(4, 72),16	278,(3, 72),4	282,(6, 72),4	286,(8, 69),8	294,(8, 66),4	306,(2, 76),8	358,(7, 24),28	386,(1, 24),16	402,(1, 32),40	442,(6, 32),4	446,(8, 76),8	742,(7, 49),20	762,(4, 49),56	818,(1, 49),4	822,(4, 69),56	878,(3, 69),20	898,(6, 69),4	1158,(7, 66),56	1214,(4, 66),12	1226,(3, 66),20	1246,(6, 66),4	1994,(7, 76),12	2006,(1, 76),264	
# Outgoing
1,(0, 2),28	29,(0, 8),28	57,(7, 51),24	81,(4, 51),4	85,(4, 74),8	93,(0, 5),28	121,(7, 11),4	125,(4, 50),4	129,(3, 71),4	133,(4, 15),4	137,(3, 15),4	141,(3, 17),4	145,(3, 26),4	149,(1, 11),4	153,(1, 50),12	165,(1, 15),4	169,(7, 57),12	181,(4, 16),4	186,(6, 15),4	190,(6, 57),8	198,(1, 17),16	214,(6, 17),4	218,(1, 26),4	222,(3, 68),24	246,(1, 68),8	254,(7, 72),8	262,(4, 72),16	278,(3, 72),4	282,(6, 72),4	286,(6, 16),32	318,(4, 30),4	322,(1, 30),12	334,(6, 30),24	358,(7, 24),28	386,(1, 24),16	402,(1, 32),40	442,(6, 32),4	446,(7, 58),40	486,(3, 58),4	490,(4, 36),48	538,(1, 36),4	542,(3, 78),4	546,(1, 78),24	570,(6, 78),36	606,(7, 38),12	618,(4, 38),4	622,(1, 38),52	674,(7, 42),12	686,(4, 42),56	742,(7, 49),20	762,(4, 49),56	818,(1, 49),4	822,(4, 69),56	878,(3, 69),20	898,(6, 69),4	902,(7, 14),4	906,(1, 14),76	982,(3, 45),4	986,(6, 45),80	1066,(4, 41),28	1094,(3, 41),64	1158,(7, 66),56	1214,(4, 66),12	1226,(3, 66),20	1246,(6, 66),4	1250,(3, 43),40	1290,(1, 43),12	1302,(6, 43),44	1346,(7, 21),8	1354,(6, 21),88	1442,(7, 19),36	1478,(3, 19),16	1494,(1, 19),20	1514,(6, 19),28	1542,(7, 20),32	1574,(3, 20),56	1630,(1, 20),108	1738,(4, 60),148	1886,(3, 60),108	1994,(7, 76),12	2006,(1, 76),264	
93,(2, 71),36	129,(2, 15),4	145,(2, 43),12	161,(2, 66),4	169,(2, 26),16	190,(2, 72),28	218,(2, 23),4	222,(2, 62),4	226,(2, 35),4	230,(2, 56),4	234,(2, 22),4	254,(2, 48),4	258,(2, 47),4	262,(2, 30),16	278,(2, 27),12	290,(2, 59),16	306,(2, 76),8	358,(2, 58),20	398,(2, 29),16	426,(2, 77),8	486,(2, 9),4	674,(2, 14),28	702,(2, 67),28	730,(2, 34),16	746,(2, 31),20	810,(2, 60),48	870,(2, 13),32	1174,(2, 54),68	1250,(2, 75),92	1350,(2, 44),104	1454,(2, 55),8	1610,(2, 10),64	1930,(2, 12),108	2094,(2, 79),60	2262,(51, 81),16	2310,(50, 81),16	2358,(57, 81),16	2406,(65, 81),16	2582,(42, 81),16	2646,(45, 81),16	2710,(21, 81),16	2742,(20, 81),16	
125,(8, 15),4	141,(8, 26),4	153,(8, 24),8	193,(8, 52),4	197,(8, 37),8	205,(8, 70),8	213,(8, 48),4	222,(8, 72),16	238,(8, 32),16	286,(8, 69),8	294,(8, 66),4	298,(8, 21),56	374,(8, 40),24	414,(8, 67),12	446,(8, 76),8	462,(8, 56),24	490,(8, 44),4	622,(8, 47),44	674,(8, 34),28	766,(8, 31),32	798,(8, 9),8	806,(8, 79),4	978,(8, 61),52	1042,(8, 46),68	1110,(8, 20),192	1342,(8, 75),8	1462,(8, 55),52	1674,(8, 10),96	1770,(8, 33),160	2038,(8, 12),56	2278,(74, 81),16	2326,(71, 81),16	2374,(17, 81),16	2422,(68, 81),16	2454,(16, 81),16	2470,(30, 81),16	2518,(58, 81),16	2534,(36, 81),16	2550,(78, 81),16	2566,(38, 81),16	2630,(14, 81),16	2662,(41, 81),16	2694,(43, 81),16	2726,(19, 81),16	2758,(60, 81),16	
158,(5, 71),12	170,(5, 17),8	181,(5, 57),4	185,(5, 68),4	189,(5, 25),4	198,(5, 65),40	238,(5, 62),4	242,(5, 35),8	250,(5, 37),4	254,(5, 16),8	262,(5, 27),4	266,(5, 70),12	306,(5, 28),20	326,(5, 53),24	350,(5, 80),24	378,(5, 36),56	434,(5, 63),28	462,(5, 42),32	494,(5, 73),28	522,(5, 29),16	538,(5, 56),4	542,(5, 22),40	582,(5, 48),40	666,(5, 67),8	702,(5, 14),108	810,(5, 34),8	818,(5, 39),52	902,(5, 13),24	926,(5, 77),52	1030,(5, 61),12	1110,(5, 46),4	1114,(5, 9),60	1242,(5, 54),8	1514,(5, 55),96	2154,(5, 79),108	2294,(11, 81),16	2342,(15, 81),16	2390,(26, 81),16	2438,(72, 81),16	2486,(24, 81),16	2502,(32, 81),16	2598,(49, 81),16	2614,(69, 81),16	2678,(66, 81),16	2774,(76, 81),16	
