8148
# CPU
16,4,2	31,8,2	46,12,2	61,16,2	76,20,2	574,50,2	1963,52,2	2130,172,2	2511,106,2	2570,174,2	2625,51,2	2661,100,2	2945,37,2	2972,55,2	3442,78,2	3445,80,2	3447,82,2	3465,153,2	3467,103,2	3509,113,2	3616,34,2	3782,176,2	3850,70,2	3861,170,2	3884,138,2	3886,156,2	3889,159,2	3933,166,2	3951,117,2	3953,32,2	3966,33,2	3987,53,2	4012,192,2	4353,66,2	4367,38,2	4369,129,2	4371,182,2	4373,74,2	4388,91,2	4404,126,2	4428,109,2	4432,111,2	4434,115,2	4453,144,2	4457,168,2	4515,141,2	4521,162,2	4592,194,2	4594,186,2	4745,29,2	4747,35,2	4771,43,2	4773,46,2	4775,47,2	4783,49,2	4993,64,2	5048,97,2	5077,200,2	5131,119,2	5139,121,2	5209,135,2	5329,178,2	5343,184,2	5345,188,2	5390,24,2	5402,39,2	5528,54,2	5530,56,2	5615,57,2	5629,59,2	5647,61,2	5719,68,2	5727,72,2	5745,76,2	5747,84,2	5754,86,2	5756,88,2	5758,94,2	5860,123,2	5883,132,2	5951,147,2	5957,150,2	5999,180,2	6033,196,2	6042,198,2	7031,48,2	7257,44,2	7341,190,2	
11,3,2	26,7,2	41,11,2	56,15,2	71,19,2	3179,133,2	3426,104,2	3444,136,2	3685,31,2	3860,92,2	3995,148,2	4005,160,2	4010,175,2	4333,163,2	4362,69,2	4432,177,2	4441,122,2	4519,199,2	4589,167,2	4592,185,2	4594,127,2	4598,183,2	4600,197,2	4770,36,2	4946,83,2	4971,71,2	4977,112,2	4990,23,2	4992,60,2	4994,77,2	5006,81,2	5046,89,2	5048,95,2	5091,124,2	5114,107,2	5119,110,2	5126,114,2	5130,116,2	5138,120,2	5183,87,2	5185,169,2	5187,130,2	5221,28,2	5232,142,2	5258,65,2	5281,154,2	5297,67,2	5307,187,2	5328,171,2	5354,191,2	5356,195,2	5406,41,2	5488,79,2	5537,98,2	5572,101,2	5599,189,2	5625,58,2	5656,62,2	5739,73,2	5743,75,2	5753,85,2	5757,118,2	5856,157,2	5913,139,2	5947,145,2	5958,151,2	5967,173,2	5990,179,2	6017,181,2	7062,193,2	8147,201,1	
6,2,2	21,6,2	36,10,2	51,14,2	66,18,2	1399,108,2	1640,25,2	1642,90,2	1688,93,2	1708,155,2	3464,96,2	3632,131,2	3951,30,2	4534,146,2	4578,161,2	5055,99,2	5104,102,2	5112,105,2	5263,152,2	5282,158,2	5317,164,2	5321,165,2	5362,22,2	5391,27,2	5496,45,2	5882,128,2	5901,134,2	5914,137,2	5916,140,2	5922,143,2	5953,149,2	6813,125,2	
0,0,1	1,9,2	3,13,2	5,1,2	7,17,2	9,5,2	254,21,2	770,40,2	805,26,2	5877,42,2	8137,63,2	
# Incoming
11,(0, 4),5	16,(2, 24),1	17,(2, 33),1	18,(2, 35),7	25,(2, 74),1	26,(0, 8),5	31,(2, 43),8	39,(2, 115),2	41,(0, 12),5	46,(2, 59),6	52,(2, 72),3	55,(2, 126),1	56,(0, 16),5	61,(3, 34),1	62,(3, 38),1	63,(3, 39),1	64,(3, 48),1	65,(2, 117),3	68,(2, 132),3	71,(0, 20),5	76,(3, 55),1	77,(3, 72),1	78,(9, 29),33	111,(3, 121),1	112,(9, 32),67	179,(9, 33),10	189,(9, 34),69	258,(9, 35),11	269,(9, 44),1	270,(9, 51),2	272,(9, 52),91	363,(9, 53),1	364,(9, 54),1	365,(9, 55),8	373,(9, 56),41	414,(9, 57),1	415,(9, 59),1	416,(2, 32),75	491,(2, 44),31	522,(2, 48),38	560,(2, 50),14	574,(2, 86),28	602,(2, 91),12	614,(2, 129),63	677,(2, 135),15	692,(2, 144),3	695,(2, 150),21	716,(2, 153),42	758,(2, 162),12	770,(2, 166),13	783,(2, 170),4	787,(2, 178),1	788,(2, 196),2	790,(3, 57),15	805,(3, 68),59	864,(3, 94),9	873,(3, 100),5	878,(3, 115),5	883,(3, 123),1	884,(3, 144),4	888,(3, 166),1	889,(3, 168),1	890,(3, 174),5	895,(3, 176),1	896,(3, 178),1	897,(3, 182),1	898,(3, 188),1	899,(3, 192),2	901,(6, 35),1	902,(6, 38),74	976,(6, 44),7	983,(6, 46),7	990,(6, 48),1	991,(6, 52),13	1004,(6, 66),3	1007,(6, 72),10	1017,(6, 76),3	1020,(6, 84),79	1099,(6, 88),2	1101,(6, 106),4	1105,(6, 117),17	1122,(6, 126),52	1174,(6, 132),15	1189,(6, 135),15	1204,(6, 156),1	1205,(6, 178),8	1213,(6, 182),1	1214,(6, 184),1	1215,(6, 196),20	1235,(6, 200),4	1239,(7, 29),8	1247,(7, 33),54	1301,(7, 34),35	1336,(7, 39),6	1342,(7, 48),6	1348,(7, 51),3	1351,(7, 68),4	1355,(7, 74),46	1401,(7, 80),1	1402,(7, 94),3	1405,(7, 100),1	1406,(7, 103),2	1408,(7, 106),5	1413,(7, 111),5	1418,(7, 115),5	1423,(7, 117),1	1424,(7, 123),2	1426,(7, 138),13	1439,(7, 168),3	1442,(7, 180),121	1563,(7, 186),23	1586,(7, 196),2	1588,(7, 200),2	1590,(10, 24),56	1646,(10, 32),6	1652,(10, 35),167	1819,(10, 37),38	1857,(10, 44),5	1862,(10, 56),1	1863,(10, 66),11	1874,(10, 68),8	1882,(10, 84),2	1884,(10, 94),10	1894,(10, 97),4	1898,(10, 103),7	1905,(10, 132),1	1906,(10, 135),1	1907,(10, 147),6	1913,(10, 178),36	1949,(10, 186),1	1950,(11, 32),1	1951,(11, 37),1	1952,(11, 39),2	1954,(11, 43),1	1955,(11, 52),8	1963,(11, 53),10	1973,(11, 57),18	1991,(11, 74),9	2000,(11, 82),4	2004,(11, 94),9	2013,(11, 111),1	2014,(11, 119),1	2015,(11, 123),7	2022,(11, 129),4	2026,(11, 135),3	2029,(11, 141),1	2030,(11, 144),2	2032,(11, 150),23	2055,(9, 68),1	2056,(9, 74),1	2057,(9, 80),18	2075,(11, 156),2	2077,(11, 170),7	2084,(11, 190),1	2085,(9, 84),1	2086,(9, 94),11	2097,(11, 147),25	2122,(11, 172),8	2130,(9, 106),1	2131,(14, 56),1	2132,(14, 80),1	2133,(9, 109),1	2134,(9, 113),10	2144,(9, 115),8	2152,(9, 117),106	2258,(9, 121),1	2259,(11, 180),3	2262,(11, 182),4	2266,(9, 129),1	2267,(9, 135),19	2286,(11, 186),4	2290,(14, 182),1	2291,(9, 147),4	2295,(11, 103),136	2431,(11, 176),8	2439,(14, 39),7	2446,(14, 46),8	2454,(15, 29),1	2455,(9, 186),4	2459,(11, 106),52	2511,(11, 168),26	2537,(11, 174),33	2570,(14, 38),46	2616,(14, 47),3	2619,(14, 51),6	2625,(14, 66),4	2629,(14, 74),3	2632,(14, 76),3	2635,(14, 78),3	2638,(14, 100),23	2661,(14, 109),2	2663,(14, 115),49	2712,(14, 132),5	2717,(14, 144),2	2719,(14, 170),39	2758,(14, 184),11	2769,(14, 194),3	2772,(13, 29),171	2943,(15, 33),1	2944,(15, 37),1	2945,(15, 47),1	2946,(13, 34),7	2953,(13, 38),8	2961,(13, 55),11	2972,(14, 192),16	2988,(15, 35),3	2991,(15, 43),2	2993,(15, 72),1	2994,(15, 76),2	2996,(15, 78),2	2998,(13, 70),431	3429,(15, 56),6	3435,(15, 59),6	3441,(13, 78),1	3442,(13, 80),3	3445,(13, 82),1	3446,(15, 86),2	3448,(15, 88),3	3451,(15, 103),4	3455,(15, 109),6	3461,(15, 126),2	3463,(15, 135),1	3464,(15, 153),1	3465,(13, 103),2	3467,(15, 156),7	3474,(15, 188),2	3476,(15, 194),4	3480,(15, 198),1	3481,(18, 24),2	3483,(18, 34),1	3484,(18, 44),1	3485,(18, 54),1	3486,(18, 56),1	3487,(13, 113),22	3509,(15, 141),26	3535,(15, 182),36	3571,(19, 39),2	3573,(19, 48),1	3574,(13, 126),8	3582,(13, 129),1	3583,(14, 190),28	3611,(19, 34),5	3616,(19, 35),6	3622,(19, 44),6	3628,(19, 53),4	3632,(13, 132),60	3692,(13, 135),5	3697,(15, 176),85	3782,(15, 200),25	3807,(18, 35),18	3825,(18, 64),1	3826,(18, 68),19	3845,(18, 70),5	3850,(18, 117),4	3854,(19, 56),1	3855,(19, 59),1	3856,(13, 170),5	3861,(18, 91),10	3871,(18, 97),6	3877,(18, 121),6	3883,(18, 138),1	3884,(18, 144),1	3885,(18, 156),1	3886,(18, 159),3	3889,(13, 182),1	3890,(13, 184),31	3921,(18, 178),1	3922,(13, 192),1	3923,(19, 64),1	3924,(19, 91),1	3925,(18, 147),5	3930,(18, 166),3	3933,(18, 190),4	3937,(1, 29),6	3943,(19, 109),5	3948,(19, 117),3	3951,(1, 32),1	3952,(1, 33),14	3966,(1, 35),1	3967,(1, 43),17	3984,(1, 46),1	3985,(1, 53),2	3987,(1, 57),24	4011,(18, 192),1	4012,(18, 200),1	4013,(1, 59),1	4014,(1, 66),339	4353,(18, 198),3	4356,(19, 38),11	4367,(19, 129),1	4368,(19, 182),1	4369,(1, 74),1	4370,(1, 76),8	4378,(19, 119),3	4381,(19, 123),3	4384,(19, 180),2	4386,(1, 91),2	4388,(1, 94),8	4396,(19, 126),8	4404,(1, 109),24	4428,(1, 111),4	4432,(1, 115),1	4433,(19, 72),14	4447,(19, 132),3	4450,(19, 144),3	4453,(19, 168),4	4457,(19, 184),1	4458,(1, 135),28	4486,(1, 141),29	4515,(19, 162),6	4521,(19, 194),71	4592,(1, 186),2	4595,(1, 188),3	4600,(17, 24),140	4741,(17, 29),4	4745,(17, 35),1	4770,(17, 43),1	4771,(17, 46),1	4772,(17, 47),3	4775,(17, 48),7	4782,(17, 49),1	4783,(17, 54),198	4988,(17, 61),1	4989,(17, 64),4	5006,(17, 88),39	5047,(17, 97),1	5048,(19, 200),29	5130,(17, 119),1	5138,(17, 121),1	5139,(17, 123),14	5187,(17, 135),22	5232,(17, 150),28	5328,(17, 178),1	5332,(17, 180),1	5341,(17, 184),2	5343,(17, 188),1	5356,(17, 196),1	5362,(5, 24),28	5391,(5, 39),11	5406,(5, 44),83	5496,(5, 54),32	5528,(5, 56),2	5530,(5, 57),85	5625,(5, 59),4	5629,(5, 61),18	5656,(5, 68),63	5719,(5, 72),8	5743,(5, 76),2	5745,(5, 84),1	5753,(5, 86),1	5754,(5, 88),1	5755,(5, 94),1	5757,(5, 123),103	5882,(5, 132),1	5922,(5, 147),29	5953,(5, 150),4	5990,(5, 180),9	6017,(5, 196),16	6033,(5, 198),9	6042,(14, 48),989	7031,(15, 44),226	7257,(19, 190),84	
6,(0, 3),5	11,(2, 28),1	12,(2, 79),1	13,(2, 92),3	18,(4, 23),1	19,(4, 73),1	20,(4, 77),1	21,(0, 7),5	26,(2, 81),5	36,(0, 11),5	41,(2, 107),4	45,(2, 133),1	51,(0, 15),5	56,(2, 114),5	61,(2, 116),4	65,(4, 197),1	66,(0, 19),5	71,(2, 36),48	119,(2, 71),20	139,(2, 73),62	201,(2, 83),127	328,(2, 112),18	346,(2, 124),10	356,(2, 145),1	357,(2, 169),3	360,(2, 179),12	372,(2, 187),4	376,(2, 199),29	405,(4, 81),10	415,(6, 41),1	416,(9, 62),1639	2055,(4, 36),16	2071,(6, 23),4	2075,(9, 83),10	2085,(4, 104),10	2095,(6, 77),1	2096,(6, 104),1	2097,(9, 98),5	2102,(4, 98),15	2117,(9, 104),13	2130,(6, 157),1	2131,(9, 107),2	2133,(2, 120),74	2207,(4, 114),7	2214,(4, 139),42	2256,(6, 67),3	2259,(9, 127),7	2266,(6, 75),6	2272,(6, 79),10	2282,(6, 101),2	2284,(6, 145),2	2286,(9, 139),2	2288,(9, 145),3	2291,(6, 151),2	2293,(6, 187),4	2297,(6, 195),1	2298,(9, 160),64	2362,(9, 163),12	2374,(9, 167),4	2378,(9, 171),72	2450,(9, 181),5	2455,(6, 193),2	2457,(8, 31),1	2458,(8, 65),1	2459,(9, 195),313	2772,(2, 177),77	2849,(4, 148),26	2875,(6, 98),22	2897,(6, 107),12	2909,(6, 118),20	2929,(6, 130),16	2945,(6, 148),8	2953,(6, 154),18	2971,(8, 89),1	2972,(13, 60),3	2975,(13, 65),19	2994,(13, 67),4	2998,(6, 181),44	3042,(8, 28),23	3065,(8, 36),12	3077,(8, 60),46	3123,(8, 71),8	3131,(8, 81),17	3148,(8, 92),10	3158,(8, 124),20	3178,(8, 133),1	3179,(8, 169),4	3183,(8, 183),5	3188,(8, 185),51	3239,(8, 189),7	3246,(10, 23),40	3286,(10, 41),28	3314,(10, 58),1	3315,(10, 73),4	3319,(10, 79),8	3327,(10, 87),14	3341,(10, 89),4	3345,(10, 92),21	3366,(10, 104),60	3426,(10, 118),1	3427,(10, 148),1	3428,(10, 171),1	3429,(13, 71),10	3439,(13, 73),1	3440,(13, 75),1	3441,(10, 136),3	3444,(10, 160),2	3446,(13, 87),17	3463,(12, 69),1	3464,(13, 101),1	3465,(10, 179),3	3468,(12, 107),1	3469,(13, 112),18	3487,(10, 151),6	3493,(10, 157),10	3503,(12, 81),3	3506,(12, 112),2	3508,(12, 171),1	3509,(13, 114),14	3523,(10, 154),41	3564,(10, 167),15	3579,(12, 116),3	3582,(14, 71),1	3583,(13, 130),28	3611,(10, 181),26	3637,(10, 191),11	3648,(10, 195),17	3665,(12, 31),20	3685,(12, 71),7	3692,(12, 145),2	3694,(12, 193),4	3698,(13, 142),77	3775,(12, 73),14	3789,(12, 83),12	3801,(12, 189),7	3808,(13, 157),27	3835,(12, 87),19	3854,(14, 92),6	3860,(14, 95),1	3861,(13, 173),27	3888,(13, 179),1	3889,(12, 110),20	3909,(12, 124),12	3921,(13, 191),1	3922,(14, 142),2	3924,(14, 157),1	3925,(1, 23),3	3928,(1, 28),9	3937,(10, 199),49	3986,(12, 148),9	3995,(12, 160),10	4005,(14, 169),3	4008,(14, 173),1	4009,(14, 175),1	4010,(14, 181),1	4011,(1, 58),2	4013,(8, 79),302	4315,(12, 163),18	4333,(12, 195),12	4345,(14, 139),7	4352,(14, 183),1	4353,(1, 69),9	4362,(1, 71),7	4369,(14, 98),9	4378,(1, 79),6	4384,(1, 81),1	4385,(1, 87),1	4386,(12, 199),10	4396,(1, 95),8	4404,(12, 191),24	4428,(14, 177),4	4432,(16, 75),1	4433,(1, 122),8	4441,(1, 124),17	4458,(12, 62),46	4504,(14, 62),13	4517,(14, 199),2	4519,(16, 81),1	4520,(1, 145),13	4533,(12, 75),47	4580,(16, 85),1	4581,(16, 98),1	4582,(1, 167),7	4589,(1, 171),1	4590,(1, 185),2	4592,(16, 127),1	4593,(16, 130),1	4594,(1, 187),1	4595,(16, 145),1	4596,(16, 171),1	4597,(16, 183),1	4598,(1, 197),1	4599,(12, 95),60	4659,(14, 28),56	4715,(14, 114),9	4724,(14, 189),7	4731,(16, 36),5	4736,(16, 67),7	4743,(18, 58),1	4744,(18, 67),2	4746,(17, 36),24	4770,(14, 77),43	4813,(14, 195),56	4869,(16, 65),70	4939,(16, 83),7	4946,(16, 89),5	4951,(16, 151),5	4956,(16, 173),10	4966,(18, 71),5	4971,(18, 75),1	4972,(18, 85),3	4975,(18, 112),2	4977,(18, 187),4	4981,(17, 58),7	4988,(18, 191),1	4989,(20, 23),1	4990,(20, 60),1	4991,(20, 77),2	4993,(17, 73),10	5003,(17, 81),3	5006,(16, 142),36	5042,(20, 85),2	5044,(20, 145),1	5045,(17, 89),1	5046,(17, 95),1	5047,(16, 124),44	5091,(18, 189),9	5100,(20, 28),5	5105,(20, 75),4	5109,(20, 120),3	5112,(17, 107),2	5114,(17, 110),5	5119,(17, 114),7	5126,(17, 116),4	5130,(20, 151),1	5131,(17, 120),7	5138,(16, 187),38	5176,(20, 87),7	5183,(20, 169),1	5184,(17, 130),3	5187,(18, 28),34	5221,(20, 173),1	5222,(20, 179),1	5223,(50, 201),1	5224,(52, 201),1	5225,(172, 201),1	5226,(106, 201),1	5227,(17, 142),5	5232,(20, 65),26	5258,(174, 201),1	5259,(51, 201),1	5260,(100, 201),1	5261,(37, 201),1	5262,(55, 201),1	5263,(17, 154),18	5281,(20, 67),16	5297,(20, 187),10	5307,(78, 201),1	5308,(80, 201),1	5309,(82, 201),1	5310,(153, 201),1	5311,(103, 201),1	5312,(113, 201),1	5313,(34, 201),1	5314,(176, 201),1	5315,(70, 201),1	5316,(170, 201),1	5317,(138, 201),1	5318,(156, 201),1	5319,(159, 201),1	5320,(166, 201),1	5321,(17, 171),7	5328,(117, 201),1	5329,(17, 179),3	5332,(32, 201),1	5333,(17, 181),8	5341,(33, 201),1	5342,(53, 201),1	5343,(192, 201),1	5344,(17, 191),10	5354,(17, 195),2	5356,(20, 41),45	5401,(66, 201),1	5402,(5, 41),4	5406,(16, 181),57	5463,(20, 79),25	5488,(20, 98),49	5537,(20, 101),35	5572,(20, 189),27	5599,(38, 201),1	5600,(129, 201),1	5601,(182, 201),1	5602,(74, 201),1	5603,(91, 201),1	5604,(126, 201),1	5605,(109, 201),1	5606,(111, 201),1	5607,(115, 201),1	5608,(144, 201),1	5609,(168, 201),1	5610,(141, 201),1	5611,(162, 201),1	5612,(194, 201),1	5613,(186, 201),1	5614,(29, 201),1	5615,(5, 58),10	5625,(35, 201),1	5626,(43, 201),1	5627,(46, 201),1	5628,(47, 201),1	5629,(49, 201),1	5630,(64, 201),1	5631,(97, 201),1	5632,(200, 201),1	5633,(119, 201),1	5634,(121, 201),1	5635,(135, 201),1	5636,(178, 201),1	5637,(184, 201),1	5638,(188, 201),1	5639,(24, 201),1	5640,(39, 201),1	5641,(54, 201),1	5642,(56, 201),1	5643,(57, 201),1	5644,(59, 201),1	5647,(5, 62),9	5656,(61, 201),1	5721,(68, 201),1	5727,(5, 73),12	5739,(5, 75),4	5743,(72, 201),1	5746,(5, 85),7	5753,(76, 201),1	5754,(84, 201),1	5756,(5, 118),1	5757,(20, 157),99	5856,(86, 201),1	5857,(88, 201),1	5858,(94, 201),1	5862,(123, 201),1	5877,(18, 139),36	5913,(18, 145),34	5947,(108, 201),1	5948,(25, 201),1	5949,(90, 201),1	5950,(93, 201),1	5951,(155, 201),1	5952,(96, 201),1	5953,(131, 201),1	5954,(30, 201),1	5955,(146, 201),1	5956,(161, 201),1	5957,(5, 151),1	5958,(5, 173),9	5967,(5, 179),23	5990,(99, 201),1	5991,(102, 201),1	5992,(105, 201),1	5993,(152, 201),1	5994,(158, 201),1	5995,(164, 201),1	5996,(165, 201),1	5997,(22, 201),1	5998,(27, 201),1	5999,(5, 181),18	6017,(45, 201),1	6018,(128, 201),1	6019,(134, 201),1	6020,(137, 201),1	6021,(140, 201),1	6022,(143, 201),1	6023,(149, 201),1	6042,(21, 201),1	6043,(40, 201),1	6044,(26, 201),1	6045,(42, 201),1	7031,(18, 193),31	7062,(125, 201),1	8137,(132, 201),1	8138,(147, 201),1	8139,(150, 201),1	8140,(180, 201),1	8141,(196, 201),1	8142,(198, 201),1	8143,(48, 201),1	8144,(44, 201),1	8145,(190, 201),1	8146,(63, 201),1	
1,(0, 2),5	16,(0, 6),5	21,(4, 25),5	26,(4, 30),1	30,(3, 125),1	31,(0, 10),5	36,(3, 108),3	39,(3, 143),1	40,(7, 93),1	41,(7, 96),1	42,(7, 99),4	46,(0, 14),5	51,(7, 102),1	52,(7, 125),9	61,(0, 18),5	66,(4, 45),10	76,(9, 22),2	78,(3, 140),14	92,(4, 105),5	97,(4, 140),5	102,(4, 155),4	106,(7, 158),3	109,(7, 161),1	110,(8, 25),1	111,(9, 30),1	112,(3, 102),489	601,(4, 102),24	625,(4, 131),37	662,(4, 149),344	1006,(7, 30),80	1086,(7, 137),49	1135,(7, 152),14	1149,(7, 165),2	1151,(8, 45),82	1233,(8, 90),98	1331,(8, 93),64	1395,(8, 96),1	1396,(8, 105),2	1398,(8, 108),1	1399,(8, 134),19	1418,(8, 140),9	1427,(8, 146),7	1434,(8, 152),8	1442,(8, 155),3	1445,(8, 158),1	1446,(12, 93),11	1457,(12, 99),16	1473,(12, 137),1	1474,(12, 143),29	1503,(12, 146),6	1509,(12, 165),18	1527,(16, 22),5	1532,(16, 137),23	1555,(16, 143),15	1570,(16, 152),1	1571,(16, 165),12	1583,(20, 99),1	1584,(20, 105),1	1590,(11, 22),8	1598,(11, 25),16	1614,(11, 30),22	1636,(11, 128),2	1638,(11, 152),1	1639,(15, 25),1	1640,(15, 90),2	1642,(15, 96),3	1645,(15, 99),5	1650,(15, 149),3	1653,(15, 155),11	1664,(15, 165),5	1669,(19, 27),13	1682,(19, 93),6	1688,(19, 125),3	1691,(19, 128),10	1701,(19, 131),1	1702,(19, 137),3	1705,(19, 155),3	1708,(20, 134),40	1748,(20, 158),8	2102,(9, 102),15	2295,(9, 158),3	2943,(13, 30),3	3463,(13, 96),1	3467,(13, 105),2	3523,(13, 125),51	3611,(13, 131),21	3697,(13, 140),1	3775,(13, 146),27	3802,(13, 152),6	3835,(13, 161),20	3855,(13, 164),1	3923,(1, 22),2	3943,(1, 30),8	4515,(1, 143),5	4533,(1, 146),1	4534,(1, 149),41	4575,(1, 152),1	4576,(1, 161),2	4578,(1, 164),4	4599,(17, 22),1	4740,(17, 27),1	5048,(17, 99),7	5055,(17, 102),49	5104,(17, 105),8	5153,(17, 125),31	5209,(17, 137),18	5260,(17, 152),3	5281,(17, 158),1	5282,(17, 164),35	5317,(17, 165),4	5357,(5, 22),5	5390,(5, 27),1	5489,(5, 45),7	5860,(5, 125),1	5861,(5, 128),21	5883,(5, 134),18	5901,(5, 137),13	5914,(5, 140),1	5915,(5, 143),7	5951,(5, 149),2	5953,(16, 125),860	
8,(2, 21),1	9,(2, 42),1	13,(3, 21),15	28,(3, 63),2	30,(4, 40),18	48,(4, 42),13	61,(8, 42),1	65,(7, 40),7	72,(11, 26),1	73,(15, 21),1	76,(8, 63),12	92,(15, 42),10	111,(8, 40),23	134,(12, 42),33	167,(16, 21),28	195,(16, 26),54	249,(20, 21),5	254,(20, 26),62	405,(6, 42),8	413,(18, 40),2	601,(7, 26),75	676,(19, 40),94	770,(19, 63),5	790,(6, 26),15	805,(18, 63),20	5221,(18, 42),656	6813,(20, 63),1324	
# Outgoing
18,(4, 23),1	19,(4, 73),1	20,(4, 77),1	21,(4, 25),5	26,(4, 30),1	30,(4, 40),18	48,(4, 42),13	61,(8, 42),1	65,(4, 197),1	66,(4, 45),10	76,(8, 63),12	92,(4, 105),5	97,(4, 140),5	102,(4, 155),4	110,(8, 25),1	111,(8, 40),23	134,(12, 42),33	167,(16, 21),28	195,(16, 26),54	249,(20, 21),5	254,(20, 26),62	405,(4, 81),10	601,(4, 102),24	625,(4, 131),37	662,(4, 149),344	1151,(8, 45),82	1233,(8, 90),98	1331,(8, 93),64	1395,(8, 96),1	1396,(8, 105),2	1398,(8, 108),1	1399,(8, 134),19	1418,(8, 140),9	1427,(8, 146),7	1434,(8, 152),8	1442,(8, 155),3	1445,(8, 158),1	1446,(12, 93),11	1457,(12, 99),16	1473,(12, 137),1	1474,(12, 143),29	1503,(12, 146),6	1509,(12, 165),18	1527,(16, 22),5	1532,(16, 137),23	1555,(16, 143),15	1570,(16, 152),1	1571,(16, 165),12	1583,(20, 99),1	1584,(20, 105),1	1708,(20, 134),40	1748,(20, 158),8	2055,(4, 36),16	2085,(4, 104),10	2102,(4, 98),15	2207,(4, 114),7	2214,(4, 139),42	2457,(8, 31),1	2458,(8, 65),1	2849,(4, 148),26	2971,(8, 89),1	3042,(8, 28),23	3065,(8, 36),12	3077,(8, 60),46	3123,(8, 71),8	3131,(8, 81),17	3148,(8, 92),10	3158,(8, 124),20	3178,(8, 133),1	3179,(8, 169),4	3183,(8, 183),5	3188,(8, 185),51	3239,(8, 189),7	3463,(12, 69),1	3468,(12, 107),1	3503,(12, 81),3	3506,(12, 112),2	3508,(12, 171),1	3579,(12, 116),3	3665,(12, 31),20	3685,(12, 71),7	3692,(12, 145),2	3694,(12, 193),4	3775,(12, 73),14	3789,(12, 83),12	3801,(12, 189),7	3835,(12, 87),19	3889,(12, 110),20	3909,(12, 124),12	3986,(12, 148),9	3995,(12, 160),10	4013,(8, 79),302	4315,(12, 163),18	4333,(12, 195),12	4386,(12, 199),10	4404,(12, 191),24	4432,(16, 75),1	4458,(12, 62),46	4519,(16, 81),1	4533,(12, 75),47	4580,(16, 85),1	4581,(16, 98),1	4592,(16, 127),1	4593,(16, 130),1	4595,(16, 145),1	4596,(16, 171),1	4597,(16, 183),1	4599,(12, 95),60	4731,(16, 36),5	4736,(16, 67),7	4869,(16, 65),70	4939,(16, 83),7	4946,(16, 89),5	4951,(16, 151),5	4956,(16, 173),10	4989,(20, 23),1	4990,(20, 60),1	4991,(20, 77),2	5006,(16, 142),36	5042,(20, 85),2	5044,(20, 145),1	5047,(16, 124),44	5100,(20, 28),5	5105,(20, 75),4	5109,(20, 120),3	5130,(20, 151),1	5138,(16, 187),38	5176,(20, 87),7	5183,(20, 169),1	5221,(20, 173),1	5222,(20, 179),1	5223,(50, 201),1	5224,(52, 201),1	5225,(172, 201),1	5226,(106, 201),1	5232,(20, 65),26	5258,(174, 201),1	5259,(51, 201),1	5260,(100, 201),1	5261,(37, 201),1	5262,(55, 201),1	5281,(20, 67),16	5297,(20, 187),10	5307,(78, 201),1	5308,(80, 201),1	5309,(82, 201),1	5310,(153, 201),1	5311,(103, 201),1	5312,(113, 201),1	5313,(34, 201),1	5314,(176, 201),1	5315,(70, 201),1	5316,(170, 201),1	5317,(138, 201),1	5318,(156, 201),1	5319,(159, 201),1	5320,(166, 201),1	5328,(117, 201),1	5332,(32, 201),1	5341,(33, 201),1	5342,(53, 201),1	5343,(192, 201),1	5356,(20, 41),45	5401,(66, 201),1	5406,(16, 181),57	5463,(20, 79),25	5488,(20, 98),49	5537,(20, 101),35	5572,(20, 189),27	5599,(38, 201),1	5600,(129, 201),1	5601,(182, 201),1	5602,(74, 201),1	5603,(91, 201),1	5604,(126, 201),1	5605,(109, 201),1	5606,(111, 201),1	5607,(115, 201),1	5608,(144, 201),1	5609,(168, 201),1	5610,(141, 201),1	5611,(162, 201),1	5612,(194, 201),1	5613,(186, 201),1	5614,(29, 201),1	5625,(35, 201),1	5626,(43, 201),1	5627,(46, 201),1	5628,(47, 201),1	5629,(49, 201),1	5630,(64, 201),1	5631,(97, 201),1	5632,(200, 201),1	5633,(119, 201),1	5634,(121, 201),1	5635,(135, 201),1	5636,(178, 201),1	5637,(184, 201),1	5638,(188, 201),1	5639,(24, 201),1	5640,(39, 201),1	5641,(54, 201),1	5642,(56, 201),1	5643,(57, 201),1	5644,(59, 201),1	5656,(61, 201),1	5721,(68, 201),1	5743,(72, 201),1	5753,(76, 201),1	5754,(84, 201),1	5757,(20, 157),99	5856,(86, 201),1	5857,(88, 201),1	5858,(94, 201),1	5862,(123, 201),1	5953,(16, 125),860	6813,(20, 63),1324	8137,(132, 201),1	8138,(147, 201),1	8139,(150, 201),1	8140,(180, 201),1	8141,(196, 201),1	8142,(198, 201),1	8143,(48, 201),1	8144,(44, 201),1	8145,(190, 201),1	
13,(3, 21),15	28,(3, 63),2	30,(3, 125),1	36,(3, 108),3	39,(3, 143),1	40,(7, 93),1	41,(7, 96),1	42,(7, 99),4	51,(7, 102),1	52,(7, 125),9	61,(3, 34),1	62,(3, 38),1	63,(3, 39),1	64,(3, 48),1	65,(7, 40),7	72,(11, 26),1	73,(15, 21),1	76,(3, 55),1	77,(3, 72),1	78,(3, 140),14	92,(15, 42),10	106,(7, 158),3	109,(7, 161),1	111,(3, 121),1	112,(3, 102),489	601,(7, 26),75	676,(19, 40),94	770,(19, 63),5	790,(3, 57),15	805,(3, 68),59	864,(3, 94),9	873,(3, 100),5	878,(3, 115),5	883,(3, 123),1	884,(3, 144),4	888,(3, 166),1	889,(3, 168),1	890,(3, 174),5	895,(3, 176),1	896,(3, 178),1	897,(3, 182),1	898,(3, 188),1	899,(3, 192),2	1006,(7, 30),80	1086,(7, 137),49	1135,(7, 152),14	1149,(7, 165),2	1239,(7, 29),8	1247,(7, 33),54	1301,(7, 34),35	1336,(7, 39),6	1342,(7, 48),6	1348,(7, 51),3	1351,(7, 68),4	1355,(7, 74),46	1401,(7, 80),1	1402,(7, 94),3	1405,(7, 100),1	1406,(7, 103),2	1408,(7, 106),5	1413,(7, 111),5	1418,(7, 115),5	1423,(7, 117),1	1424,(7, 123),2	1426,(7, 138),13	1439,(7, 168),3	1442,(7, 180),121	1563,(7, 186),23	1586,(7, 196),2	1588,(7, 200),2	1590,(11, 22),8	1598,(11, 25),16	1614,(11, 30),22	1636,(11, 128),2	1638,(11, 152),1	1639,(15, 25),1	1640,(15, 90),2	1642,(15, 96),3	1645,(15, 99),5	1650,(15, 149),3	1653,(15, 155),11	1664,(15, 165),5	1669,(19, 27),13	1682,(19, 93),6	1688,(19, 125),3	1691,(19, 128),10	1701,(19, 131),1	1702,(19, 137),3	1705,(19, 155),3	1950,(11, 32),1	1951,(11, 37),1	1952,(11, 39),2	1954,(11, 43),1	1955,(11, 52),8	1963,(11, 53),10	1973,(11, 57),18	1991,(11, 74),9	2000,(11, 82),4	2004,(11, 94),9	2013,(11, 111),1	2014,(11, 119),1	2015,(11, 123),7	2022,(11, 129),4	2026,(11, 135),3	2029,(11, 141),1	2030,(11, 144),2	2032,(11, 150),23	2075,(11, 156),2	2077,(11, 170),7	2084,(11, 190),1	2097,(11, 147),25	2122,(11, 172),8	2259,(11, 180),3	2262,(11, 182),4	2286,(11, 186),4	2295,(11, 103),136	2431,(11, 176),8	2454,(15, 29),1	2459,(11, 106),52	2511,(11, 168),26	2537,(11, 174),33	2943,(15, 33),1	2944,(15, 37),1	2945,(15, 47),1	2988,(15, 35),3	2991,(15, 43),2	2993,(15, 72),1	2994,(15, 76),2	2996,(15, 78),2	3429,(15, 56),6	3435,(15, 59),6	3446,(15, 86),2	3448,(15, 88),3	3451,(15, 103),4	3455,(15, 109),6	3461,(15, 126),2	3463,(15, 135),1	3464,(15, 153),1	3467,(15, 156),7	3474,(15, 188),2	3476,(15, 194),4	3480,(15, 198),1	3509,(15, 141),26	3535,(15, 182),36	3571,(19, 39),2	3573,(19, 48),1	3611,(19, 34),5	3616,(19, 35),6	3622,(19, 44),6	3628,(19, 53),4	3697,(15, 176),85	3782,(15, 200),25	3854,(19, 56),1	3855,(19, 59),1	3923,(19, 64),1	3924,(19, 91),1	3943,(19, 109),5	3948,(19, 117),3	4356,(19, 38),11	4367,(19, 129),1	4368,(19, 182),1	4378,(19, 119),3	4381,(19, 123),3	4384,(19, 180),2	4396,(19, 126),8	4433,(19, 72),14	4447,(19, 132),3	4450,(19, 144),3	4453,(19, 168),4	4457,(19, 184),1	4515,(19, 162),6	4521,(19, 194),71	5048,(19, 200),29	7031,(15, 44),226	7257,(19, 190),84	
8,(2, 21),1	9,(2, 42),1	11,(2, 28),1	12,(2, 79),1	13,(2, 92),3	16,(2, 24),1	17,(2, 33),1	18,(2, 35),7	25,(2, 74),1	26,(2, 81),5	31,(2, 43),8	39,(2, 115),2	41,(2, 107),4	45,(2, 133),1	46,(2, 59),6	52,(2, 72),3	55,(2, 126),1	56,(2, 114),5	61,(2, 116),4	65,(2, 117),3	68,(2, 132),3	71,(2, 36),48	119,(2, 71),20	139,(2, 73),62	201,(2, 83),127	328,(2, 112),18	346,(2, 124),10	356,(2, 145),1	357,(2, 169),3	360,(2, 179),12	372,(2, 187),4	376,(2, 199),29	405,(6, 42),8	413,(18, 40),2	415,(6, 41),1	416,(2, 32),75	491,(2, 44),31	522,(2, 48),38	560,(2, 50),14	574,(2, 86),28	602,(2, 91),12	614,(2, 129),63	677,(2, 135),15	692,(2, 144),3	695,(2, 150),21	716,(2, 153),42	758,(2, 162),12	770,(2, 166),13	783,(2, 170),4	787,(2, 178),1	788,(2, 196),2	790,(6, 26),15	805,(18, 63),20	901,(6, 35),1	902,(6, 38),74	976,(6, 44),7	983,(6, 46),7	990,(6, 48),1	991,(6, 52),13	1004,(6, 66),3	1007,(6, 72),10	1017,(6, 76),3	1020,(6, 84),79	1099,(6, 88),2	1101,(6, 106),4	1105,(6, 117),17	1122,(6, 126),52	1174,(6, 132),15	1189,(6, 135),15	1204,(6, 156),1	1205,(6, 178),8	1213,(6, 182),1	1214,(6, 184),1	1215,(6, 196),20	1235,(6, 200),4	1590,(10, 24),56	1646,(10, 32),6	1652,(10, 35),167	1819,(10, 37),38	1857,(10, 44),5	1862,(10, 56),1	1863,(10, 66),11	1874,(10, 68),8	1882,(10, 84),2	1884,(10, 94),10	1894,(10, 97),4	1898,(10, 103),7	1905,(10, 132),1	1906,(10, 135),1	1907,(10, 147),6	1913,(10, 178),36	1949,(10, 186),1	2071,(6, 23),4	2095,(6, 77),1	2096,(6, 104),1	2130,(6, 157),1	2131,(14, 56),1	2132,(14, 80),1	2133,(2, 120),74	2256,(6, 67),3	2266,(6, 75),6	2272,(6, 79),10	2282,(6, 101),2	2284,(6, 145),2	2290,(14, 182),1	2291,(6, 151),2	2293,(6, 187),4	2297,(6, 195),1	2439,(14, 39),7	2446,(14, 46),8	2455,(6, 193),2	2570,(14, 38),46	2616,(14, 47),3	2619,(14, 51),6	2625,(14, 66),4	2629,(14, 74),3	2632,(14, 76),3	2635,(14, 78),3	2638,(14, 100),23	2661,(14, 109),2	2663,(14, 115),49	2712,(14, 132),5	2717,(14, 144),2	2719,(14, 170),39	2758,(14, 184),11	2769,(14, 194),3	2772,(2, 177),77	2875,(6, 98),22	2897,(6, 107),12	2909,(6, 118),20	2929,(6, 130),16	2945,(6, 148),8	2953,(6, 154),18	2972,(14, 192),16	2998,(6, 181),44	3246,(10, 23),40	3286,(10, 41),28	3314,(10, 58),1	3315,(10, 73),4	3319,(10, 79),8	3327,(10, 87),14	3341,(10, 89),4	3345,(10, 92),21	3366,(10, 104),60	3426,(10, 118),1	3427,(10, 148),1	3428,(10, 171),1	3441,(10, 136),3	3444,(10, 160),2	3465,(10, 179),3	3481,(18, 24),2	3483,(18, 34),1	3484,(18, 44),1	3485,(18, 54),1	3486,(18, 56),1	3487,(10, 151),6	3493,(10, 157),10	3523,(10, 154),41	3564,(10, 167),15	3582,(14, 71),1	3583,(14, 190),28	3611,(10, 181),26	3637,(10, 191),11	3648,(10, 195),17	3807,(18, 35),18	3825,(18, 64),1	3826,(18, 68),19	3845,(18, 70),5	3850,(18, 117),4	3854,(14, 92),6	3860,(14, 95),1	3861,(18, 91),10	3871,(18, 97),6	3877,(18, 121),6	3883,(18, 138),1	3884,(18, 144),1	3885,(18, 156),1	3886,(18, 159),3	3921,(18, 178),1	3922,(14, 142),2	3924,(14, 157),1	3925,(18, 147),5	3930,(18, 166),3	3933,(18, 190),4	3937,(10, 199),49	4005,(14, 169),3	4008,(14, 173),1	4009,(14, 175),1	4010,(14, 181),1	4011,(18, 192),1	4012,(18, 200),1	4345,(14, 139),7	4352,(14, 183),1	4353,(18, 198),3	4369,(14, 98),9	4428,(14, 177),4	4504,(14, 62),13	4517,(14, 199),2	4659,(14, 28),56	4715,(14, 114),9	4724,(14, 189),7	4743,(18, 58),1	4744,(18, 67),2	4770,(14, 77),43	4813,(14, 195),56	4966,(18, 71),5	4971,(18, 75),1	4972,(18, 85),3	4975,(18, 112),2	4977,(18, 187),4	4988,(18, 191),1	5091,(18, 189),9	5187,(18, 28),34	5221,(18, 42),656	5877,(18, 139),36	5913,(18, 145),34	5947,(108, 201),1	5948,(25, 201),1	5949,(90, 201),1	5950,(93, 201),1	5951,(155, 201),1	5952,(96, 201),1	5953,(131, 201),1	5954,(30, 201),1	5955,(146, 201),1	5956,(161, 201),1	5990,(99, 201),1	5991,(102, 201),1	5992,(105, 201),1	5993,(152, 201),1	5994,(158, 201),1	5995,(164, 201),1	5996,(165, 201),1	5997,(22, 201),1	5998,(27, 201),1	6017,(45, 201),1	6018,(128, 201),1	6019,(134, 201),1	6020,(137, 201),1	6021,(140, 201),1	6022,(143, 201),1	6023,(149, 201),1	6042,(14, 48),989	7031,(18, 193),31	7062,(125, 201),1	
1,(0, 2),5	6,(0, 3),5	11,(0, 4),5	16,(0, 6),5	21,(0, 7),5	26,(0, 8),5	31,(0, 10),5	36,(0, 11),5	41,(0, 12),5	46,(0, 14),5	51,(0, 15),5	56,(0, 16),5	61,(0, 18),5	66,(0, 19),5	71,(0, 20),5	76,(9, 22),2	78,(9, 29),33	111,(9, 30),1	112,(9, 32),67	179,(9, 33),10	189,(9, 34),69	258,(9, 35),11	269,(9, 44),1	270,(9, 51),2	272,(9, 52),91	363,(9, 53),1	364,(9, 54),1	365,(9, 55),8	373,(9, 56),41	414,(9, 57),1	415,(9, 59),1	416,(9, 62),1639	2055,(9, 68),1	2056,(9, 74),1	2057,(9, 80),18	2075,(9, 83),10	2085,(9, 84),1	2086,(9, 94),11	2097,(9, 98),5	2102,(9, 102),15	2117,(9, 104),13	2130,(9, 106),1	2131,(9, 107),2	2133,(9, 109),1	2134,(9, 113),10	2144,(9, 115),8	2152,(9, 117),106	2258,(9, 121),1	2259,(9, 127),7	2266,(9, 129),1	2267,(9, 135),19	2286,(9, 139),2	2288,(9, 145),3	2291,(9, 147),4	2295,(9, 158),3	2298,(9, 160),64	2362,(9, 163),12	2374,(9, 167),4	2378,(9, 171),72	2450,(9, 181),5	2455,(9, 186),4	2459,(9, 195),313	2772,(13, 29),171	2943,(13, 30),3	2946,(13, 34),7	2953,(13, 38),8	2961,(13, 55),11	2972,(13, 60),3	2975,(13, 65),19	2994,(13, 67),4	2998,(13, 70),431	3429,(13, 71),10	3439,(13, 73),1	3440,(13, 75),1	3441,(13, 78),1	3442,(13, 80),3	3445,(13, 82),1	3446,(13, 87),17	3463,(13, 96),1	3464,(13, 101),1	3465,(13, 103),2	3467,(13, 105),2	3469,(13, 112),18	3487,(13, 113),22	3509,(13, 114),14	3523,(13, 125),51	3574,(13, 126),8	3582,(13, 129),1	3583,(13, 130),28	3611,(13, 131),21	3632,(13, 132),60	3692,(13, 135),5	3697,(13, 140),1	3698,(13, 142),77	3775,(13, 146),27	3802,(13, 152),6	3808,(13, 157),27	3835,(13, 161),20	3855,(13, 164),1	3856,(13, 170),5	3861,(13, 173),27	3888,(13, 179),1	3889,(13, 182),1	3890,(13, 184),31	3921,(13, 191),1	3922,(13, 192),1	3923,(1, 22),2	3925,(1, 23),3	3928,(1, 28),9	3937,(1, 29),6	3943,(1, 30),8	3951,(1, 32),1	3952,(1, 33),14	3966,(1, 35),1	3967,(1, 43),17	3984,(1, 46),1	3985,(1, 53),2	3987,(1, 57),24	4011,(1, 58),2	4013,(1, 59),1	4014,(1, 66),339	4353,(1, 69),9	4362,(1, 71),7	4369,(1, 74),1	4370,(1, 76),8	4378,(1, 79),6	4384,(1, 81),1	4385,(1, 87),1	4386,(1, 91),2	4388,(1, 94),8	4396,(1, 95),8	4404,(1, 109),24	4428,(1, 111),4	4432,(1, 115),1	4433,(1, 122),8	4441,(1, 124),17	4458,(1, 135),28	4486,(1, 141),29	4515,(1, 143),5	4520,(1, 145),13	4533,(1, 146),1	4534,(1, 149),41	4575,(1, 152),1	4576,(1, 161),2	4578,(1, 164),4	4582,(1, 167),7	4589,(1, 171),1	4590,(1, 185),2	4592,(1, 186),2	4594,(1, 187),1	4595,(1, 188),3	4598,(1, 197),1	4599,(17, 22),1	4600,(17, 24),140	4740,(17, 27),1	4741,(17, 29),4	4745,(17, 35),1	4746,(17, 36),24	4770,(17, 43),1	4771,(17, 46),1	4772,(17, 47),3	4775,(17, 48),7	4782,(17, 49),1	4783,(17, 54),198	4981,(17, 58),7	4988,(17, 61),1	4989,(17, 64),4	4993,(17, 73),10	5003,(17, 81),3	5006,(17, 88),39	5045,(17, 89),1	5046,(17, 95),1	5047,(17, 97),1	5048,(17, 99),7	5055,(17, 102),49	5104,(17, 105),8	5112,(17, 107),2	5114,(17, 110),5	5119,(17, 114),7	5126,(17, 116),4	5130,(17, 119),1	5131,(17, 120),7	5138,(17, 121),1	5139,(17, 123),14	5153,(17, 125),31	5184,(17, 130),3	5187,(17, 135),22	5209,(17, 137),18	5227,(17, 142),5	5232,(17, 150),28	5260,(17, 152),3	5263,(17, 154),18	5281,(17, 158),1	5282,(17, 164),35	5317,(17, 165),4	5321,(17, 171),7	5328,(17, 178),1	5329,(17, 179),3	5332,(17, 180),1	5333,(17, 181),8	5341,(17, 184),2	5343,(17, 188),1	5344,(17, 191),10	5354,(17, 195),2	5356,(17, 196),1	5357,(5, 22),5	5362,(5, 24),28	5390,(5, 27),1	5391,(5, 39),11	5402,(5, 41),4	5406,(5, 44),83	5489,(5, 45),7	5496,(5, 54),32	5528,(5, 56),2	5530,(5, 57),85	5615,(5, 58),10	5625,(5, 59),4	5629,(5, 61),18	5647,(5, 62),9	5656,(5, 68),63	5719,(5, 72),8	5727,(5, 73),12	5739,(5, 75),4	5743,(5, 76),2	5745,(5, 84),1	5746,(5, 85),7	5753,(5, 86),1	5754,(5, 88),1	5755,(5, 94),1	5756,(5, 118),1	5757,(5, 123),103	5860,(5, 125),1	5861,(5, 128),21	5882,(5, 132),1	5883,(5, 134),18	5901,(5, 137),13	5914,(5, 140),1	5915,(5, 143),7	5922,(5, 147),29	5951,(5, 149),2	5953,(5, 150),4	5957,(5, 151),1	5958,(5, 173),9	5967,(5, 179),23	5990,(5, 180),9	5999,(5, 181),18	6017,(5, 196),16	6033,(5, 198),9	6042,(21, 201),1	6043,(40, 201),1	6044,(26, 201),1	6045,(42, 201),1	8146,(63, 201),1	
