6018
# CPU
145,3,1	146,23,1	147,37,1	148,43,1	149,47,1	150,19,1	153,27,1	157,41,1	165,52,1	177,67,1	289,6,1	290,20,1	291,28,1	292,34,1	293,42,1	294,55,1	295,57,1	296,61,1	357,49,1	381,22,1	385,35,1	389,36,1	393,77,1	453,24,1	457,29,1	633,30,1	637,46,1	673,63,1	697,69,1	701,21,1	705,26,1	709,18,1	837,32,1	869,40,1	885,44,1	889,65,1	893,71,1	1021,79,1	1037,16,1	1121,25,1	1129,31,1	1157,39,1	1185,50,1	1229,51,1	1261,73,1	1273,75,1	1277,33,1	1281,38,1	1385,45,1	1397,48,1	1401,53,1	1405,59,1	
73,2,1	74,68,1	217,5,1	221,12,1	237,64,1	253,66,1	361,8,1	362,17,1	363,72,1	364,74,1	365,56,1	393,14,1	509,54,1	669,62,1	701,70,1	705,78,1	1269,58,1	1369,60,1	1613,76,1	1617,80,1	
0,0,1	1,1,1	2,4,1	3,7,1	4,10,1	82,9,1	166,11,1	1581,15,1	2521,13,1	6017,81,1	
# Incoming
73,(0, 3),72	145,(2, 19),4	149,(2, 27),4	153,(2, 41),4	157,(2, 52),8	165,(2, 67),12	217,(0, 6),72	289,(2, 49),68	357,(5, 22),24	381,(5, 35),4	385,(5, 36),4	389,(5, 77),4	393,(1, 24),60	453,(1, 29),4	457,(1, 30),176	633,(1, 46),4	637,(1, 63),36	673,(5, 69),24	697,(8, 21),4	701,(8, 26),4	705,(4, 18),4	709,(4, 32),128	837,(4, 40),32	869,(4, 44),16	885,(4, 65),4	889,(4, 71),4	893,(4, 79),128	1021,(7, 16),16	1037,(7, 25),84	1121,(7, 31),8	1129,(7, 39),28	1157,(7, 50),28	1185,(7, 51),44	1229,(5, 73),32	1261,(5, 75),12	1273,(8, 33),4	1277,(8, 38),4	1281,(8, 45),104	1385,(8, 48),12	1397,(8, 53),4	1401,(8, 59),4	
1,(0, 2),72	145,(0, 5),72	217,(3, 12),4	221,(3, 64),16	237,(3, 66),16	289,(0, 8),72	361,(1, 14),32	393,(3, 54),116	509,(3, 62),160	673,(1, 70),28	701,(1, 78),4	1229,(7, 58),40	1269,(7, 60),100	1581,(6, 76),32	1613,(6, 80),4	
74,(2, 9),8	146,(3, 11),20	177,(68, 81),76	253,(23, 81),76	393,(12, 81),76	469,(64, 81),76	545,(66, 81),76	669,(37, 81),76	745,(43, 81),76	821,(47, 81),76	897,(19, 81),76	973,(27, 81),76	1049,(41, 81),76	1125,(52, 81),76	1201,(67, 81),76	1277,(6, 15),304	1617,(20, 81),76	1693,(28, 81),76	1769,(34, 81),76	1845,(42, 81),76	1921,(55, 81),76	1997,(57, 81),76	2073,(61, 81),76	2149,(49, 81),76	2225,(8, 13),296	2521,(17, 81),76	2597,(72, 81),76	2673,(74, 81),76	2749,(56, 81),76	2825,(22, 81),76	2901,(35, 81),76	2977,(36, 81),76	3053,(77, 81),76	3129,(14, 81),76	3205,(24, 81),76	3281,(29, 81),76	3357,(54, 81),76	3433,(30, 81),76	3509,(46, 81),76	3585,(62, 81),76	3661,(63, 81),76	3737,(69, 81),76	3813,(21, 81),76	3889,(70, 81),76	3965,(26, 81),76	4041,(78, 81),76	4117,(18, 81),76	4193,(32, 81),76	4269,(40, 81),76	4345,(44, 81),76	4421,(65, 81),76	4497,(71, 81),76	4573,(79, 81),76	4649,(16, 81),76	4725,(25, 81),76	4801,(31, 81),76	4877,(39, 81),76	4953,(50, 81),76	5029,(51, 81),76	5105,(73, 81),76	5181,(58, 81),76	5257,(75, 81),76	5333,(33, 81),76	5409,(38, 81),76	5485,(60, 81),76	5561,(45, 81),76	5637,(48, 81),76	5713,(53, 81),76	5789,(59, 81),76	5865,(76, 81),76	5941,(80, 81),76	
# Outgoing
146,(3, 11),20	217,(3, 12),4	221,(3, 64),16	237,(3, 66),16	253,(23, 81),76	393,(3, 54),116	509,(3, 62),160	669,(37, 81),76	745,(43, 81),76	821,(47, 81),76	897,(19, 81),76	973,(27, 81),76	1049,(41, 81),76	1125,(52, 81),76	1201,(67, 81),76	1277,(6, 15),304	1581,(6, 76),32	1613,(6, 80),4	1617,(20, 81),76	1693,(28, 81),76	1769,(34, 81),76	1845,(42, 81),76	1921,(55, 81),76	1997,(57, 81),76	2073,(61, 81),76	2149,(49, 81),76	2825,(22, 81),76	2901,(35, 81),76	2977,(36, 81),76	3053,(77, 81),76	3205,(24, 81),76	3281,(29, 81),76	3433,(30, 81),76	3509,(46, 81),76	3661,(63, 81),76	3737,(69, 81),76	3813,(21, 81),76	3965,(26, 81),76	4117,(18, 81),76	4193,(32, 81),76	4269,(40, 81),76	4345,(44, 81),76	4421,(65, 81),76	4497,(71, 81),76	4573,(79, 81),76	4649,(16, 81),76	4725,(25, 81),76	4801,(31, 81),76	4877,(39, 81),76	4953,(50, 81),76	5029,(51, 81),76	5105,(73, 81),76	5257,(75, 81),76	5333,(33, 81),76	5409,(38, 81),76	5561,(45, 81),76	5637,(48, 81),76	5713,(53, 81),76	5789,(59, 81),76	
74,(2, 9),8	145,(2, 19),4	149,(2, 27),4	153,(2, 41),4	157,(2, 52),8	165,(2, 67),12	177,(68, 81),76	289,(2, 49),68	357,(5, 22),24	381,(5, 35),4	385,(5, 36),4	389,(5, 77),4	393,(12, 81),76	469,(64, 81),76	545,(66, 81),76	673,(5, 69),24	697,(8, 21),4	701,(8, 26),4	1229,(5, 73),32	1261,(5, 75),12	1273,(8, 33),4	1277,(8, 38),4	1281,(8, 45),104	1385,(8, 48),12	1397,(8, 53),4	1401,(8, 59),4	2225,(8, 13),296	2521,(17, 81),76	2597,(72, 81),76	2673,(74, 81),76	2749,(56, 81),76	3129,(14, 81),76	3357,(54, 81),76	3585,(62, 81),76	3889,(70, 81),76	4041,(78, 81),76	5181,(58, 81),76	5485,(60, 81),76	5865,(76, 81),76	5941,(80, 81),76	
1,(0, 2),72	73,(0, 3),72	145,(0, 5),72	217,(0, 6),72	289,(0, 8),72	361,(1, 14),32	393,(1, 24),60	453,(1, 29),4	457,(1, 30),176	633,(1, 46),4	637,(1, 63),36	673,(1, 70),28	701,(1, 78),4	705,(4, 18),4	709,(4, 32),128	837,(4, 40),32	869,(4, 44),16	885,(4, 65),4	889,(4, 71),4	893,(4, 79),128	1021,(7, 16),16	1037,(7, 25),84	1121,(7, 31),8	1129,(7, 39),28	1157,(7, 50),28	1185,(7, 51),44	1229,(7, 58),40	1269,(7, 60),100	
