1580
# CPU
64,10,4	68,50,4	72,130,4	76,40,4	80,30,4	84,120,4	88,60,4	92,80,4	96,90,4	100,170,4	127,20,4	131,190,4	141,200,4	188,140,4	209,180,4	221,70,4	244,150,4	252,160,4	645,100,4	666,110,4	
57,9,4	61,139,4	65,149,4	69,179,4	79,169,4	111,39,4	115,199,4	120,19,4	124,79,4	132,119,4	213,59,4	219,69,4	283,99,4	287,189,4	325,129,4	434,29,4	612,159,4	626,49,4	663,109,4	881,89,4	
50,8,4	54,48,4	86,58,4	100,68,4	113,18,4	117,148,4	121,78,4	125,98,4	129,188,4	195,28,4	201,168,4	222,88,4	227,128,4	272,198,4	285,158,4	302,38,4	603,108,4	670,118,4	683,138,4	744,178,4	
43,7,4	47,77,4	53,177,4	72,27,4	76,97,4	84,47,4	106,17,4	110,87,4	114,117,4	118,157,4	122,137,4	215,67,4	285,167,4	304,37,4	326,187,4	378,147,4	434,127,4	496,197,4	572,57,4	656,107,4	
36,6,4	40,146,4	44,116,4	66,66,4	70,106,4	84,126,4	99,16,4	103,166,4	161,176,4	167,56,4	186,156,4	202,196,4	213,86,4	229,136,4	286,186,4	585,36,4	755,26,4	759,96,4	770,46,4	774,76,4	
29,5,4	45,175,4	73,125,4	77,155,4	92,15,4	96,55,4	181,165,4	237,45,4	241,195,4	245,185,4	262,85,4	301,25,4	305,65,4	341,105,4	391,145,4	403,75,4	412,115,4	422,35,4	426,135,4	586,95,4	
22,4,4	26,114,4	30,54,4	34,24,4	39,84,4	67,74,4	85,14,4	89,184,4	93,134,4	101,164,4	112,64,4	126,154,4	134,34,4	176,144,4	182,104,4	279,174,4	283,94,4	322,124,4	355,44,4	489,194,4	
15,3,4	51,23,4	78,13,4	83,113,4	87,183,4	105,103,4	109,153,4	116,93,4	120,193,4	206,173,4	212,33,4	230,123,4	237,63,4	250,73,4	272,43,4	294,143,4	384,53,4	548,83,4	608,133,4	1574,163,4	
8,2,4	37,72,4	52,62,4	63,22,4	71,12,4	75,122,4	79,42,4	180,102,4	185,32,4	190,52,4	227,82,4	236,172,4	245,182,4	275,162,4	284,152,4	390,92,4	430,112,4	434,142,4	479,192,4	484,132,4	
0,0,1	1,1,4	5,11,4	9,101,4	13,151,4	17,51,4	21,41,4	33,31,4	40,91,4	44,141,4	73,61,4	87,121,4	108,21,4	146,131,4	159,81,4	163,191,4	215,71,4	307,111,4	394,181,4	617,161,4	730,171,4	1579,201,1	
# Incoming
57,(0, 10),7	64,(2, 130),6	70,(3, 40),5	75,(7, 30),3	78,(9, 120),1	79,(7, 60),1	80,(8, 80),3	84,(12, 90),1	87,(12, 170),3	120,(0, 20),7	127,(13, 200),14	167,(19, 140),21	190,(17, 180),19	212,(15, 70),9	229,(15, 150),15	244,(18, 160),8	626,(14, 100),19	663,(14, 110),3	
50,(0, 9),7	57,(3, 139),1	58,(3, 149),3	61,(3, 179),5	70,(2, 169),9	79,(5, 39),32	111,(13, 199),2	113,(0, 19),7	120,(7, 79),4	124,(7, 119),8	204,(18, 59),9	215,(1, 69),4	262,(11, 99),21	283,(15, 189),1	322,(10, 129),3	325,(17, 29),109	608,(4, 159),4	622,(14, 49),4	656,(14, 109),7	663,(17, 89),218	
43,(0, 8),7	50,(2, 48),2	52,(6, 58),34	86,(6, 68),14	106,(0, 18),7	113,(13, 78),8	121,(16, 98),2	126,(13, 188),1	127,(1, 28),68	195,(19, 168),6	221,(15, 88),1	222,(15, 128),5	237,(6, 198),35	284,(11, 158),1	301,(10, 38),1	586,(4, 108),17	666,(14, 118),4	670,(14, 138),13	730,(14, 178),14	
36,(0, 7),7	45,(3, 177),8	63,(9, 27),9	73,(9, 97),3	80,(12, 47),4	99,(0, 17),7	106,(6, 117),6	112,(6, 157),5	118,(16, 137),1	195,(1, 67),20	215,(2, 167),70	285,(12, 37),19	325,(10, 187),1	326,(12, 147),52	430,(15, 127),4	489,(15, 197),7	496,(18, 57),76	645,(14, 107),11	
29,(0, 6),7	36,(2, 146),4	40,(3, 116),1	54,(8, 66),12	67,(8, 106),2	82,(13, 126),2	92,(0, 16),7	99,(7, 166),4	132,(7, 176),29	161,(19, 56),6	180,(8, 156),6	186,(8, 196),16	202,(12, 86),11	227,(15, 136),2	285,(11, 186),1	286,(4, 36),299	585,(9, 26),170	755,(10, 96),1	756,(14, 46),14	770,(14, 76),2	
22,(0, 5),7	42,(3, 175),3	69,(8, 125),4	73,(8, 155),4	85,(0, 15),7	92,(2, 165),89	181,(6, 45),56	237,(7, 195),2	239,(8, 185),4	250,(11, 85),12	262,(10, 25),39	301,(16, 65),1	302,(16, 105),39	341,(18, 145),50	391,(19, 75),12	403,(19, 115),9	412,(20, 35),10	422,(20, 135),1	585,(4, 95),1	
15,(0, 4),7	22,(2, 114),2	24,(3, 24),8	37,(3, 84),2	66,(8, 74),1	78,(0, 14),7	85,(7, 134),8	93,(9, 164),8	111,(5, 64),1	121,(13, 154),5	126,(19, 34),8	146,(5, 144),30	176,(17, 104),6	244,(15, 174),35	279,(18, 94),4	307,(10, 124),15	335,(20, 44),20	479,(15, 194),10	
8,(0, 3),7	40,(6, 23),11	71,(0, 13),7	80,(7, 113),3	83,(7, 183),1	100,(6, 103),5	105,(6, 153),1	110,(17, 93),6	117,(6, 193),1	176,(5, 173),30	209,(15, 33),3	219,(1, 123),11	230,(18, 63),7	245,(11, 73),5	250,(17, 43),22	283,(18, 143),11	355,(20, 53),29	434,(17, 83),114	603,(4, 133),5	881,(17, 163),693	
1,(0, 2),7	33,(3, 72),4	51,(6, 62),1	61,(9, 22),2	64,(0, 12),7	78,(7, 42),1	83,(8, 102),97	180,(13, 32),5	185,(17, 52),5	215,(18, 82),12	230,(1, 172),6	236,(1, 182),9	272,(16, 162),3	283,(11, 152),1	284,(15, 92),106	390,(15, 112),40	430,(20, 142),1	434,(15, 192),45	479,(20, 132),5	
12,(2, 41),1	32,(3, 31),1	39,(3, 91),1	41,(3, 141),1	42,(72, 201),1	55,(23, 201),1	56,(62, 201),1	72,(9, 61),1	76,(139, 201),1	77,(48, 201),1	79,(22, 201),1	80,(149, 201),1	81,(179, 201),1	83,(169, 201),1	84,(77, 201),1	85,(12, 121),2	87,(113, 201),1	90,(122, 201),1	91,(42, 201),1	92,(183, 201),1	93,(177, 201),1	94,(27, 201),1	95,(97, 201),1	96,(13, 21),12	108,(47, 201),1	109,(103, 201),1	112,(5, 131),34	146,(146, 201),1	147,(116, 201),1	148,(66, 201),1	149,(106, 201),1	150,(126, 201),1	151,(166, 201),1	152,(153, 201),1	153,(39, 201),1	154,(199, 201),1	155,(93, 201),1	156,(19, 81),3	159,(193, 201),1	160,(79, 201),1	161,(17, 191),2	163,(87, 201),1	164,(117, 201),1	165,(157, 201),1	166,(137, 201),1	167,(176, 201),1	171,(56, 201),1	184,(102, 201),1	188,(119, 201),1	189,(32, 201),1	194,(52, 201),1	202,(58, 201),1	203,(68, 201),1	206,(175, 201),1	207,(125, 201),1	208,(155, 201),1	210,(173, 201),1	213,(18, 71),2	216,(33, 201),1	217,(59, 201),1	219,(67, 201),1	223,(69, 201),1	227,(148, 201),1	228,(78, 201),1	229,(98, 201),1	234,(123, 201),1	237,(188, 201),1	238,(28, 201),1	241,(63, 201),1	243,(168, 201),1	252,(88, 201),1	253,(128, 201),1	254,(73, 201),1	275,(156, 201),1	276,(196, 201),1	277,(86, 201),1	278,(136, 201),1	279,(55, 201),1	280,(165, 201),1	281,(45, 201),1	282,(195, 201),1	283,(43, 201),1	287,(99, 201),1	289,(167, 201),1	290,(186, 201),1	291,(189, 201),1	294,(198, 201),1	295,(158, 201),1	298,(143, 201),1	302,(10, 111),5	307,(82, 201),1	308,(172, 201),1	309,(182, 201),1	310,(162, 201),1	311,(152, 201),1	312,(38, 201),1	313,(37, 201),1	326,(50, 201),1	327,(130, 201),1	328,(40, 201),1	329,(30, 201),1	330,(120, 201),1	331,(60, 201),1	332,(80, 201),1	333,(90, 201),1	334,(170, 201),1	335,(129, 201),1	384,(20, 181),10	394,(190, 201),1	395,(200, 201),1	396,(140, 201),1	397,(180, 201),1	398,(70, 201),1	399,(150, 201),1	400,(160, 201),1	401,(53, 201),1	402,(92, 201),1	434,(112, 201),1	438,(29, 201),1	439,(142, 201),1	483,(192, 201),1	488,(132, 201),1	496,(185, 201),1	497,(85, 201),1	498,(25, 201),1	499,(65, 201),1	500,(105, 201),1	501,(145, 201),1	502,(75, 201),1	503,(115, 201),1	504,(35, 201),1	505,(135, 201),1	548,(187, 201),1	549,(147, 201),1	550,(127, 201),1	551,(197, 201),1	552,(83, 201),1	576,(57, 201),1	589,(36, 201),1	590,(95, 201),1	607,(108, 201),1	612,(4, 161),5	617,(114, 201),1	618,(54, 201),1	619,(24, 201),1	620,(84, 201),1	621,(74, 201),1	622,(133, 201),1	649,(100, 201),1	660,(107, 201),1	670,(110, 201),1	674,(118, 201),1	683,(14, 171),47	730,(138, 201),1	744,(184, 201),1	745,(134, 201),1	746,(164, 201),1	747,(64, 201),1	748,(154, 201),1	749,(34, 201),1	750,(144, 201),1	751,(104, 201),1	752,(174, 201),1	753,(94, 201),1	754,(124, 201),1	755,(44, 201),1	756,(159, 201),1	757,(49, 201),1	758,(109, 201),1	759,(178, 201),1	760,(26, 201),1	763,(96, 201),1	772,(194, 201),1	774,(46, 201),1	778,(76, 201),1	885,(89, 201),1	1578,(163, 201),1	
# Outgoing
262,(10, 25),39	301,(10, 38),1	302,(10, 111),5	307,(10, 124),15	322,(10, 129),3	325,(10, 187),1	326,(50, 201),1	327,(130, 201),1	328,(40, 201),1	329,(30, 201),1	330,(120, 201),1	331,(60, 201),1	332,(80, 201),1	333,(90, 201),1	334,(170, 201),1	335,(20, 44),20	355,(20, 53),29	384,(20, 181),10	394,(190, 201),1	395,(200, 201),1	396,(140, 201),1	397,(180, 201),1	398,(70, 201),1	399,(150, 201),1	400,(160, 201),1	412,(20, 35),10	422,(20, 135),1	430,(20, 142),1	479,(20, 132),5	649,(100, 201),1	670,(110, 201),1	755,(10, 96),1	
61,(9, 22),2	63,(9, 27),9	72,(9, 61),1	73,(9, 97),3	76,(139, 201),1	78,(9, 120),1	80,(149, 201),1	81,(179, 201),1	83,(169, 201),1	93,(9, 164),8	126,(19, 34),8	153,(39, 201),1	154,(199, 201),1	156,(19, 81),3	160,(79, 201),1	161,(19, 56),6	167,(19, 140),21	188,(119, 201),1	195,(19, 168),6	217,(59, 201),1	223,(69, 201),1	287,(99, 201),1	291,(189, 201),1	335,(129, 201),1	391,(19, 75),12	403,(19, 115),9	438,(29, 201),1	585,(9, 26),170	756,(159, 201),1	757,(49, 201),1	758,(109, 201),1	885,(89, 201),1	
54,(8, 66),12	66,(8, 74),1	67,(8, 106),2	69,(8, 125),4	73,(8, 155),4	77,(48, 201),1	80,(8, 80),3	83,(8, 102),97	180,(8, 156),6	186,(8, 196),16	202,(58, 201),1	203,(68, 201),1	204,(18, 59),9	213,(18, 71),2	215,(18, 82),12	227,(148, 201),1	228,(78, 201),1	229,(98, 201),1	230,(18, 63),7	237,(188, 201),1	238,(28, 201),1	239,(8, 185),4	243,(168, 201),1	244,(18, 160),8	252,(88, 201),1	253,(128, 201),1	279,(18, 94),4	283,(18, 143),11	294,(198, 201),1	295,(158, 201),1	312,(38, 201),1	341,(18, 145),50	496,(18, 57),76	607,(108, 201),1	674,(118, 201),1	730,(138, 201),1	759,(178, 201),1	
75,(7, 30),3	78,(7, 42),1	79,(7, 60),1	80,(7, 113),3	83,(7, 183),1	84,(77, 201),1	85,(7, 134),8	93,(177, 201),1	94,(27, 201),1	95,(97, 201),1	99,(7, 166),4	108,(47, 201),1	110,(17, 93),6	120,(7, 79),4	124,(7, 119),8	132,(7, 176),29	161,(17, 191),2	163,(87, 201),1	164,(117, 201),1	165,(157, 201),1	166,(137, 201),1	176,(17, 104),6	185,(17, 52),5	190,(17, 180),19	219,(67, 201),1	237,(7, 195),2	250,(17, 43),22	289,(167, 201),1	313,(37, 201),1	325,(17, 29),109	434,(17, 83),114	548,(187, 201),1	549,(147, 201),1	550,(127, 201),1	551,(197, 201),1	576,(57, 201),1	660,(107, 201),1	663,(17, 89),218	881,(17, 163),693	
40,(6, 23),11	51,(6, 62),1	52,(6, 58),34	86,(6, 68),14	100,(6, 103),5	105,(6, 153),1	106,(6, 117),6	112,(6, 157),5	117,(6, 193),1	118,(16, 137),1	121,(16, 98),2	146,(146, 201),1	147,(116, 201),1	148,(66, 201),1	149,(106, 201),1	150,(126, 201),1	151,(166, 201),1	167,(176, 201),1	171,(56, 201),1	181,(6, 45),56	237,(6, 198),35	272,(16, 162),3	275,(156, 201),1	276,(196, 201),1	277,(86, 201),1	278,(136, 201),1	290,(186, 201),1	301,(16, 65),1	302,(16, 105),39	589,(36, 201),1	760,(26, 201),1	763,(96, 201),1	774,(46, 201),1	778,(76, 201),1	
79,(5, 39),32	111,(5, 64),1	112,(5, 131),34	146,(5, 144),30	176,(5, 173),30	206,(175, 201),1	207,(125, 201),1	208,(155, 201),1	209,(15, 33),3	212,(15, 70),9	221,(15, 88),1	222,(15, 128),5	227,(15, 136),2	229,(15, 150),15	244,(15, 174),35	279,(55, 201),1	280,(165, 201),1	281,(45, 201),1	282,(195, 201),1	283,(15, 189),1	284,(15, 92),106	390,(15, 112),40	430,(15, 127),4	434,(15, 192),45	479,(15, 194),10	489,(15, 197),7	496,(185, 201),1	497,(85, 201),1	498,(25, 201),1	499,(65, 201),1	500,(105, 201),1	501,(145, 201),1	502,(75, 201),1	503,(115, 201),1	504,(35, 201),1	505,(135, 201),1	590,(95, 201),1	
286,(4, 36),299	585,(4, 95),1	586,(4, 108),17	603,(4, 133),5	608,(4, 159),4	612,(4, 161),5	617,(114, 201),1	618,(54, 201),1	619,(24, 201),1	620,(84, 201),1	621,(74, 201),1	622,(14, 49),4	626,(14, 100),19	645,(14, 107),11	656,(14, 109),7	663,(14, 110),3	666,(14, 118),4	670,(14, 138),13	683,(14, 171),47	730,(14, 178),14	744,(184, 201),1	745,(134, 201),1	746,(164, 201),1	747,(64, 201),1	748,(154, 201),1	749,(34, 201),1	750,(144, 201),1	751,(104, 201),1	752,(174, 201),1	753,(94, 201),1	754,(124, 201),1	755,(44, 201),1	756,(14, 46),14	770,(14, 76),2	772,(194, 201),1	
24,(3, 24),8	32,(3, 31),1	33,(3, 72),4	37,(3, 84),2	39,(3, 91),1	40,(3, 116),1	41,(3, 141),1	42,(3, 175),3	45,(3, 177),8	55,(23, 201),1	57,(3, 139),1	58,(3, 149),3	61,(3, 179),5	70,(3, 40),5	82,(13, 126),2	87,(113, 201),1	92,(183, 201),1	96,(13, 21),12	109,(103, 201),1	111,(13, 199),2	113,(13, 78),8	121,(13, 154),5	126,(13, 188),1	127,(13, 200),14	152,(153, 201),1	155,(93, 201),1	159,(193, 201),1	180,(13, 32),5	210,(173, 201),1	216,(33, 201),1	234,(123, 201),1	241,(63, 201),1	254,(73, 201),1	283,(43, 201),1	298,(143, 201),1	401,(53, 201),1	552,(83, 201),1	622,(133, 201),1	1578,(163, 201),1	
12,(2, 41),1	22,(2, 114),2	36,(2, 146),4	42,(72, 201),1	50,(2, 48),2	56,(62, 201),1	64,(2, 130),6	70,(2, 169),9	79,(22, 201),1	80,(12, 47),4	84,(12, 90),1	85,(12, 121),2	87,(12, 170),3	90,(122, 201),1	91,(42, 201),1	92,(2, 165),89	184,(102, 201),1	189,(32, 201),1	194,(52, 201),1	202,(12, 86),11	215,(2, 167),70	285,(12, 37),19	307,(82, 201),1	308,(172, 201),1	309,(182, 201),1	310,(162, 201),1	311,(152, 201),1	326,(12, 147),52	402,(92, 201),1	434,(112, 201),1	439,(142, 201),1	483,(192, 201),1	488,(132, 201),1	
1,(0, 2),7	8,(0, 3),7	15,(0, 4),7	22,(0, 5),7	29,(0, 6),7	36,(0, 7),7	43,(0, 8),7	50,(0, 9),7	57,(0, 10),7	64,(0, 12),7	71,(0, 13),7	78,(0, 14),7	85,(0, 15),7	92,(0, 16),7	99,(0, 17),7	106,(0, 18),7	113,(0, 19),7	120,(0, 20),7	127,(1, 28),68	195,(1, 67),20	215,(1, 69),4	219,(1, 123),11	230,(1, 172),6	236,(1, 182),9	245,(11, 73),5	250,(11, 85),12	262,(11, 99),21	283,(11, 152),1	284,(11, 158),1	285,(11, 186),1	
