22205
# CPU
16,2,1	31,4,1	46,6,1	47,97,1	61,8,1	76,10,1	91,12,1	92,72,1	10963,30,1	13252,67,1	13315,80,1	13636,107,1	13984,20,1	14380,35,1	14560,44,1	14641,57,1	14710,59,1	14881,74,1	15235,98,1	15970,117,1	16003,118,1	16477,25,1	16771,55,1	16936,60,1	16966,65,1	17356,71,1	17440,87,1	17575,91,1	17830,105,1	18190,108,1	18205,109,1	18592,17,1	18616,19,1	18700,24,1	18916,38,1	19381,62,1	19513,69,1	19516,70,1	19531,73,1	19561,78,1	19564,81,1	19648,88,1	19798,93,1	19813,95,1	19984,101,1	20059,103,1	20326,111,1	20347,113,1	20542,14,1	20545,16,1	20548,21,1	20554,22,1	20569,23,1	20638,26,1	20647,27,1	20674,28,1	20677,29,1	20722,31,1	20764,32,1	20767,34,1	20800,37,1	20893,39,1	20920,40,1	20959,41,1	20983,42,1	20986,43,1	21013,46,1	21034,47,1	21037,48,1	21049,49,1	21052,50,1	21064,51,1	21070,52,1	21178,53,1	21283,54,1	21295,56,1	21328,58,1	21367,61,1	21445,63,1	21448,64,1	21514,66,1	21523,68,1	21553,76,1	21556,77,1	21565,79,1	21619,82,1	21643,83,1	21649,84,1	21652,85,1	21766,86,1	21874,89,1	21883,90,1	21910,92,1	21913,94,1	21946,96,1	21955,99,1	21961,100,1	21964,102,1	21973,104,1	21976,106,1	22012,110,1	22024,112,1	22030,114,1	22078,115,1	22114,119,1	22180,120,1	22204,121,1	
0,0,1	1,1,1	2,7,1	3,9,1	4,3,1	5,5,1	6,11,1	1718,75,1	2099,15,1	2255,13,1	2318,18,1	2471,33,1	2684,36,1	2930,45,1	3644,116,1	
# Incoming
1,(0, 2),15	16,(0, 4),15	31,(0, 6),15	46,(0, 8),15	61,(0, 10),15	76,(0, 12),15	91,(1, 14),27	118,(1, 16),24	142,(1, 17),33	175,(1, 19),15	190,(1, 20),3	193,(1, 22),9	202,(1, 23),18	220,(1, 26),6	226,(1, 27),9	235,(1, 29),3	238,(1, 30),21	259,(1, 31),9	268,(1, 32),18	286,(1, 34),75	361,(1, 35),24	385,(1, 37),9	394,(1, 39),51	445,(1, 42),3	448,(1, 43),12	460,(1, 46),18	478,(1, 47),12	490,(1, 48),6	496,(1, 50),3	499,(1, 51),3	502,(1, 52),9	511,(1, 53),3	514,(1, 54),3	517,(1, 58),9	526,(1, 59),3	529,(1, 61),21	550,(1, 62),6	556,(1, 63),9147	9703,(1, 64),21	9724,(1, 65),24	9748,(1, 69),48	9796,(1, 70),3	9799,(1, 71),27	9826,(1, 73),135	9961,(1, 77),3	9964,(1, 78),6	9970,(1, 79),63	10033,(1, 82),24	10057,(1, 83),21	10078,(1, 87),3	10081,(1, 88),33	10114,(1, 89),12	10126,(1, 90),24	10150,(1, 91),15	10165,(1, 92),36	10201,(1, 95),186	10387,(1, 96),27	10414,(1, 98),3	10417,(1, 99),123	10540,(1, 100),3	10543,(1, 101),24	10567,(1, 102),9	10576,(1, 103),3	10579,(1, 106),39	10618,(1, 107),3	10621,(1, 108),48	10669,(1, 109),12	10681,(1, 111),33	10714,(1, 113),36	10750,(1, 114),9	10759,(1, 118),9	10768,(1, 120),12	10780,(7, 14),30	10810,(7, 17),12	10822,(7, 20),3	10825,(7, 22),57	10882,(7, 23),3	10885,(7, 25),9	10894,(7, 27),42	10936,(7, 30),27	10963,(7, 31),3	10966,(7, 35),3	10969,(7, 37),327	11296,(7, 38),3	11299,(7, 39),3	11302,(7, 40),27	11329,(7, 44),1212	12541,(7, 47),351	12892,(7, 48),3	12895,(7, 49),15	12910,(7, 51),18	12928,(7, 53),87	13015,(7, 54),3	13018,(7, 56),3	13021,(7, 57),9	13030,(7, 58),45	13075,(7, 59),9	13084,(7, 61),27	13111,(7, 63),3	13114,(7, 65),12	13126,(7, 66),117	13243,(7, 67),9	13252,(7, 71),3	13255,(7, 73),36	13291,(7, 74),3	13294,(7, 76),12	13306,(7, 78),3	13309,(7, 80),6	13315,(7, 81),3	13318,(7, 84),3	13321,(7, 87),18	13339,(7, 91),3	13342,(7, 93),9	13351,(7, 96),3	13354,(7, 98),39	13393,(7, 99),9	13402,(7, 101),18	13420,(7, 102),9	13429,(7, 103),12	13441,(7, 104),33	13474,(7, 105),3	13477,(7, 107),159	13636,(7, 109),21	13657,(7, 110),171	13828,(7, 112),12	13840,(7, 113),120	13960,(7, 114),12	13972,(7, 115),3	13975,(7, 118),3	13978,(9, 20),6	13984,(9, 24),36	14020,(9, 32),117	14137,(9, 35),243	14380,(9, 37),9	14389,(9, 38),24	14413,(9, 40),36	14449,(9, 42),3	14452,(9, 44),108	14560,(9, 48),3	14563,(9, 50),3	14566,(9, 51),45	14611,(9, 52),6	14617,(9, 54),6	14623,(9, 55),15	14638,(9, 57),3	14641,(9, 58),3	14644,(9, 59),66	14710,(9, 62),27	14737,(9, 65),3	14740,(9, 68),129	14869,(9, 71),3	14872,(9, 74),9	14881,(9, 76),6	14887,(9, 77),237	15124,(9, 78),3	15127,(9, 81),21	15148,(9, 83),6	15154,(9, 86),3	15157,(9, 88),12	15169,(9, 91),18	15187,(9, 94),42	15229,(9, 96),3	15232,(9, 98),3	15235,(9, 99),27	15262,(9, 100),3	15265,(9, 101),15	15280,(9, 102),6	15286,(9, 103),9	15295,(9, 109),3	15298,(9, 111),147	15445,(9, 112),402	15847,(9, 113),6	15853,(9, 117),117	15970,(9, 118),33	16003,(9, 119),231	16234,(3, 14),12	16246,(3, 16),21	16267,(3, 17),15	16282,(3, 22),42	16324,(3, 23),3	16327,(3, 24),12	16339,(3, 25),138	16477,(3, 27),3	16480,(3, 29),45	16525,(3, 31),6	16531,(3, 37),3	16534,(3, 40),6	16540,(3, 41),3	16543,(3, 42),3	16546,(3, 43),72	16618,(3, 46),30	16648,(3, 49),57	16705,(3, 55),66	16771,(3, 58),132	16903,(3, 60),33	16936,(3, 61),3	16939,(3, 62),21	16960,(3, 65),6	16966,(3, 66),186	17152,(3, 68),3	17155,(3, 70),147	17302,(3, 71),54	17356,(3, 73),3	17359,(3, 76),3	17362,(3, 78),6	17368,(3, 79),9	17377,(3, 81),18	17395,(3, 82),3	17398,(3, 83),3	17401,(3, 84),9	17410,(3, 86),3	17413,(3, 87),27	17440,(3, 88),6	17446,(3, 90),126	17572,(3, 91),3	17575,(3, 93),177	17752,(3, 95),12	17764,(3, 96),6	17770,(3, 99),18	17788,(3, 101),12	17800,(3, 103),9	17809,(3, 104),12	17821,(3, 105),9	17830,(3, 106),267	18097,(3, 108),93	18190,(3, 109),15	18205,(3, 110),3	18208,(3, 113),3	18211,(3, 115),3	18214,(3, 119),351	18565,(5, 14),3	18568,(5, 16),3	18571,(5, 17),21	18592,(5, 19),24	18616,(5, 21),24	18640,(5, 22),3	18643,(5, 23),33	18676,(5, 24),24	18700,(5, 29),159	18859,(5, 32),3	18862,(5, 34),51	18913,(5, 38),3	18916,(5, 49),210	19126,(5, 50),3	19129,(5, 52),15	19144,(5, 53),9	19153,(5, 56),54	19207,(5, 58),15	19222,(5, 61),81	19303,(5, 62),78	19381,(5, 63),21	19402,(5, 69),111	19513,(5, 70),3	19516,(5, 73),15	19531,(5, 77),9	19540,(5, 78),21	19561,(5, 81),3	19564,(5, 82),18	19582,(5, 83),24	19606,(5, 88),42	19648,(5, 89),9	19657,(5, 90),123	19780,(5, 92),3	19783,(5, 93),15	19798,(5, 95),15	19813,(5, 96),12	19825,(5, 99),6	19831,(5, 100),3	19834,(5, 101),150	19984,(5, 102),42	20026,(5, 103),33	20059,(5, 104),30	20089,(5, 110),21	20110,(5, 111),216	20326,(5, 113),21	20347,(5, 114),126	20473,(5, 119),15	20488,(5, 120),51	20539,(11, 14),3	20542,(11, 16),3	20545,(11, 21),3	20548,(11, 22),6	20554,(11, 23),15	20569,(11, 26),69	20638,(11, 27),9	20647,(11, 28),27	20674,(11, 29),3	20677,(11, 31),45	20722,(11, 32),42	20764,(11, 34),3	20767,(11, 37),33	20800,(11, 39),93	20893,(11, 40),27	20920,(11, 41),39	20959,(11, 42),24	20983,(11, 43),3	20986,(11, 46),27	21013,(11, 47),21	21034,(11, 48),3	21037,(11, 49),12	21049,(11, 50),3	21052,(11, 51),12	21064,(11, 52),6	21070,(11, 53),108	21178,(11, 54),105	21283,(11, 56),12	21295,(11, 58),33	21328,(11, 61),39	21367,(11, 63),78	21445,(11, 64),3	21448,(11, 66),66	21514,(11, 68),9	21523,(11, 76),30	21553,(11, 77),3	21556,(11, 79),9	21565,(11, 82),54	21619,(11, 83),24	21643,(11, 84),6	21649,(11, 85),3	21652,(11, 86),114	21766,(11, 89),108	21874,(11, 90),9	21883,(11, 92),27	21910,(11, 94),3	21913,(11, 96),33	21946,(11, 99),9	21955,(11, 100),6	21961,(11, 102),3	21964,(11, 104),9	21973,(11, 106),3	21976,(11, 110),36	22012,(11, 112),12	22024,(11, 114),6	22030,(11, 115),48	22078,(11, 119),36	22114,(11, 120),66	22180,(75, 121),3	22183,(15, 121),3	22186,(13, 121),3	22189,(18, 121),3	22192,(33, 121),3	22195,(36, 121),3	22198,(45, 121),3	22201,(116, 121),3	
17,(2, 13),12	29,(2, 18),117	146,(2, 33),9	155,(2, 36),6	161,(2, 75),9	170,(2, 116),42	212,(4, 13),3	215,(4, 18),30	245,(4, 75),51	296,(4, 116),18	314,(6, 15),1296	1610,(6, 18),18	1628,(6, 33),63	1691,(6, 36),9	1700,(6, 75),18	1718,(6, 116),27	1745,(8, 15),21	1766,(8, 33),9	1775,(8, 45),168	1943,(8, 116),45	1988,(10, 13),81	2069,(10, 15),30	2099,(10, 18),3	2102,(10, 33),48	2150,(10, 36),3	2153,(10, 45),99	2252,(12, 13),3	2255,(12, 18),63	2318,(12, 33),153	2471,(12, 36),213	2684,(12, 45),246	2930,(12, 116),714	
# Outgoing
17,(2, 13),12	29,(2, 18),117	146,(2, 33),9	155,(2, 36),6	161,(2, 75),9	170,(2, 116),42	212,(4, 13),3	215,(4, 18),30	245,(4, 75),51	296,(4, 116),18	314,(6, 15),1296	1610,(6, 18),18	1628,(6, 33),63	1691,(6, 36),9	1700,(6, 75),18	1718,(6, 116),27	1745,(8, 15),21	1766,(8, 33),9	1775,(8, 45),168	1943,(8, 116),45	1988,(10, 13),81	2069,(10, 15),30	2099,(10, 18),3	2102,(10, 33),48	2150,(10, 36),3	2153,(10, 45),99	2252,(12, 13),3	2255,(12, 18),63	2318,(12, 33),153	2471,(12, 36),213	2684,(12, 45),246	2930,(12, 116),714	
1,(0, 2),15	16,(0, 4),15	31,(0, 6),15	46,(0, 8),15	61,(0, 10),15	76,(0, 12),15	91,(1, 14),27	118,(1, 16),24	142,(1, 17),33	175,(1, 19),15	190,(1, 20),3	193,(1, 22),9	202,(1, 23),18	220,(1, 26),6	226,(1, 27),9	235,(1, 29),3	238,(1, 30),21	259,(1, 31),9	268,(1, 32),18	286,(1, 34),75	361,(1, 35),24	385,(1, 37),9	394,(1, 39),51	445,(1, 42),3	448,(1, 43),12	460,(1, 46),18	478,(1, 47),12	490,(1, 48),6	496,(1, 50),3	499,(1, 51),3	502,(1, 52),9	511,(1, 53),3	514,(1, 54),3	517,(1, 58),9	526,(1, 59),3	529,(1, 61),21	550,(1, 62),6	556,(1, 63),9147	9703,(1, 64),21	9724,(1, 65),24	9748,(1, 69),48	9796,(1, 70),3	9799,(1, 71),27	9826,(1, 73),135	9961,(1, 77),3	9964,(1, 78),6	9970,(1, 79),63	10033,(1, 82),24	10057,(1, 83),21	10078,(1, 87),3	10081,(1, 88),33	10114,(1, 89),12	10126,(1, 90),24	10150,(1, 91),15	10165,(1, 92),36	10201,(1, 95),186	10387,(1, 96),27	10414,(1, 98),3	10417,(1, 99),123	10540,(1, 100),3	10543,(1, 101),24	10567,(1, 102),9	10576,(1, 103),3	10579,(1, 106),39	10618,(1, 107),3	10621,(1, 108),48	10669,(1, 109),12	10681,(1, 111),33	10714,(1, 113),36	10750,(1, 114),9	10759,(1, 118),9	10768,(1, 120),12	10780,(7, 14),30	10810,(7, 17),12	10822,(7, 20),3	10825,(7, 22),57	10882,(7, 23),3	10885,(7, 25),9	10894,(7, 27),42	10936,(7, 30),27	10963,(7, 31),3	10966,(7, 35),3	10969,(7, 37),327	11296,(7, 38),3	11299,(7, 39),3	11302,(7, 40),27	11329,(7, 44),1212	12541,(7, 47),351	12892,(7, 48),3	12895,(7, 49),15	12910,(7, 51),18	12928,(7, 53),87	13015,(7, 54),3	13018,(7, 56),3	13021,(7, 57),9	13030,(7, 58),45	13075,(7, 59),9	13084,(7, 61),27	13111,(7, 63),3	13114,(7, 65),12	13126,(7, 66),117	13243,(7, 67),9	13252,(7, 71),3	13255,(7, 73),36	13291,(7, 74),3	13294,(7, 76),12	13306,(7, 78),3	13309,(7, 80),6	13315,(7, 81),3	13318,(7, 84),3	13321,(7, 87),18	13339,(7, 91),3	13342,(7, 93),9	13351,(7, 96),3	13354,(7, 98),39	13393,(7, 99),9	13402,(7, 101),18	13420,(7, 102),9	13429,(7, 103),12	13441,(7, 104),33	13474,(7, 105),3	13477,(7, 107),159	13636,(7, 109),21	13657,(7, 110),171	13828,(7, 112),12	13840,(7, 113),120	13960,(7, 114),12	13972,(7, 115),3	13975,(7, 118),3	13978,(9, 20),6	13984,(9, 24),36	14020,(9, 32),117	14137,(9, 35),243	14380,(9, 37),9	14389,(9, 38),24	14413,(9, 40),36	14449,(9, 42),3	14452,(9, 44),108	14560,(9, 48),3	14563,(9, 50),3	14566,(9, 51),45	14611,(9, 52),6	14617,(9, 54),6	14623,(9, 55),15	14638,(9, 57),3	14641,(9, 58),3	14644,(9, 59),66	14710,(9, 62),27	14737,(9, 65),3	14740,(9, 68),129	14869,(9, 71),3	14872,(9, 74),9	14881,(9, 76),6	14887,(9, 77),237	15124,(9, 78),3	15127,(9, 81),21	15148,(9, 83),6	15154,(9, 86),3	15157,(9, 88),12	15169,(9, 91),18	15187,(9, 94),42	15229,(9, 96),3	15232,(9, 98),3	15235,(9, 99),27	15262,(9, 100),3	15265,(9, 101),15	15280,(9, 102),6	15286,(9, 103),9	15295,(9, 109),3	15298,(9, 111),147	15445,(9, 112),402	15847,(9, 113),6	15853,(9, 117),117	15970,(9, 118),33	16003,(9, 119),231	16234,(3, 14),12	16246,(3, 16),21	16267,(3, 17),15	16282,(3, 22),42	16324,(3, 23),3	16327,(3, 24),12	16339,(3, 25),138	16477,(3, 27),3	16480,(3, 29),45	16525,(3, 31),6	16531,(3, 37),3	16534,(3, 40),6	16540,(3, 41),3	16543,(3, 42),3	16546,(3, 43),72	16618,(3, 46),30	16648,(3, 49),57	16705,(3, 55),66	16771,(3, 58),132	16903,(3, 60),33	16936,(3, 61),3	16939,(3, 62),21	16960,(3, 65),6	16966,(3, 66),186	17152,(3, 68),3	17155,(3, 70),147	17302,(3, 71),54	17356,(3, 73),3	17359,(3, 76),3	17362,(3, 78),6	17368,(3, 79),9	17377,(3, 81),18	17395,(3, 82),3	17398,(3, 83),3	17401,(3, 84),9	17410,(3, 86),3	17413,(3, 87),27	17440,(3, 88),6	17446,(3, 90),126	17572,(3, 91),3	17575,(3, 93),177	17752,(3, 95),12	17764,(3, 96),6	17770,(3, 99),18	17788,(3, 101),12	17800,(3, 103),9	17809,(3, 104),12	17821,(3, 105),9	17830,(3, 106),267	18097,(3, 108),93	18190,(3, 109),15	18205,(3, 110),3	18208,(3, 113),3	18211,(3, 115),3	18214,(3, 119),351	18565,(5, 14),3	18568,(5, 16),3	18571,(5, 17),21	18592,(5, 19),24	18616,(5, 21),24	18640,(5, 22),3	18643,(5, 23),33	18676,(5, 24),24	18700,(5, 29),159	18859,(5, 32),3	18862,(5, 34),51	18913,(5, 38),3	18916,(5, 49),210	19126,(5, 50),3	19129,(5, 52),15	19144,(5, 53),9	19153,(5, 56),54	19207,(5, 58),15	19222,(5, 61),81	19303,(5, 62),78	19381,(5, 63),21	19402,(5, 69),111	19513,(5, 70),3	19516,(5, 73),15	19531,(5, 77),9	19540,(5, 78),21	19561,(5, 81),3	19564,(5, 82),18	19582,(5, 83),24	19606,(5, 88),42	19648,(5, 89),9	19657,(5, 90),123	19780,(5, 92),3	19783,(5, 93),15	19798,(5, 95),15	19813,(5, 96),12	19825,(5, 99),6	19831,(5, 100),3	19834,(5, 101),150	19984,(5, 102),42	20026,(5, 103),33	20059,(5, 104),30	20089,(5, 110),21	20110,(5, 111),216	20326,(5, 113),21	20347,(5, 114),126	20473,(5, 119),15	20488,(5, 120),51	20539,(11, 14),3	20542,(11, 16),3	20545,(11, 21),3	20548,(11, 22),6	20554,(11, 23),15	20569,(11, 26),69	20638,(11, 27),9	20647,(11, 28),27	20674,(11, 29),3	20677,(11, 31),45	20722,(11, 32),42	20764,(11, 34),3	20767,(11, 37),33	20800,(11, 39),93	20893,(11, 40),27	20920,(11, 41),39	20959,(11, 42),24	20983,(11, 43),3	20986,(11, 46),27	21013,(11, 47),21	21034,(11, 48),3	21037,(11, 49),12	21049,(11, 50),3	21052,(11, 51),12	21064,(11, 52),6	21070,(11, 53),108	21178,(11, 54),105	21283,(11, 56),12	21295,(11, 58),33	21328,(11, 61),39	21367,(11, 63),78	21445,(11, 64),3	21448,(11, 66),66	21514,(11, 68),9	21523,(11, 76),30	21553,(11, 77),3	21556,(11, 79),9	21565,(11, 82),54	21619,(11, 83),24	21643,(11, 84),6	21649,(11, 85),3	21652,(11, 86),114	21766,(11, 89),108	21874,(11, 90),9	21883,(11, 92),27	21910,(11, 94),3	21913,(11, 96),33	21946,(11, 99),9	21955,(11, 100),6	21961,(11, 102),3	21964,(11, 104),9	21973,(11, 106),3	21976,(11, 110),36	22012,(11, 112),12	22024,(11, 114),6	22030,(11, 115),48	22078,(11, 119),36	22114,(11, 120),66	22180,(75, 121),3	22183,(15, 121),3	22186,(13, 121),3	22189,(18, 121),3	22192,(33, 121),3	22195,(36, 121),3	22198,(45, 121),3	22201,(116, 121),3	
