256
# CPU
0,201,1	1,143,1	2,139,1	3,59,1	4,65,1	5,172,1	6,191,1	7,51,1	8,101,1	9,97,1	10,109,1	11,32,1	12,135,1	13,67,1	14,144,1	15,122,1	16,168,1	17,30,1	18,156,1	19,196,1	20,165,1	21,90,1	22,179,1	23,39,1	24,186,1	25,121,1	26,120,1	27,47,1	28,138,1	29,107,1	30,160,1	31,117,1	32,75,1	33,125,1	34,86,1	35,85,1	36,129,1	37,81,1	38,182,1	39,66,1	40,54,1	41,145,1	42,29,1	43,164,1	44,21,1	45,181,1	46,194,1	47,134,1	48,159,1	49,190,1	50,119,1	51,52,1	52,102,1	53,22,1	54,61,1	55,151,1	56,57,1	57,137,1	58,163,1	59,158,1	60,152,1	61,77,1	62,103,1	63,93,1	64,72,1	65,71,1	66,177,1	67,79,1	68,148,1	69,131,1	70,38,1	71,49,1	72,63,1	73,162,1	74,128,1	75,192,1	76,180,1	77,56,1	78,55,1	79,130,1	80,45,1	81,153,1	82,80,1	83,64,1	84,198,1	85,89,1	86,185,1	87,150,1	88,146,1	89,84,1	90,176,1	91,88,1	92,171,1	93,113,1	94,33,1	95,155,1	96,200,1	97,154,1	98,25,1	99,108,1	100,99,1	101,68,1	102,60,1	103,41,1	104,31,1	105,174,1	106,141,1	107,187,1	108,112,1	109,96,1	110,83,1	111,127,1	112,74,1	113,157,1	114,82,1	115,147,1	116,170,1	117,42,1	118,46,1	119,188,1	120,178,1	121,116,1	122,43,1	123,44,1	124,28,1	125,105,1	126,70,1	127,34,1	128,91,1	129,173,1	130,58,1	131,133,1	132,36,1	133,92,1	134,126,1	135,197,1	136,195,1	137,98,1	138,50,1	139,23,1	140,161,1	141,94,1	142,111,1	143,110,1	144,124,1	145,136,1	146,37,1	147,62,1	148,104,1	149,26,1	150,132,1	151,53,1	152,169,1	153,40,1	154,167,1	155,118,1	156,73,1	157,166,1	158,123,1	159,199,1	160,184,1	161,48,1	162,149,1	163,7,1	164,35,1	165,78,1	166,76,1	167,5,1	168,87,1	169,106,1	170,175,1	171,140,1	172,15,1	173,20,1	174,27,1	175,17,1	176,6,1	177,142,1	178,4,1	179,95,1	180,115,1	181,9,1	182,13,1	183,24,1	184,19,1	185,69,1	186,18,1	187,114,1	188,16,1	189,8,1	190,189,1	191,183,1	192,12,1	193,2,1	194,1,1	195,11,1	196,14,1	197,10,1	254,3,1	255,0,1	
70,193,1	

139,100,1	
# Incoming
71,(193, 1),3	74,(193, 14),18	140,(100, 11),6	146,(100, 10),33	179,(100, 3),75	
1,(201, 193),69	

70,(201, 100),69	
# Outgoing
1,(201, 193),69	70,(201, 100),69	
71,(193, 1),3	74,(193, 14),18	

140,(100, 11),6	146,(100, 10),33	179,(100, 3),75	
