821
# CPU
0,0,1	1,12,13	14,97,13	27,11,13	40,46,13	53,44,13	66,2,13	79,18,13	92,3,13	105,14,13	118,16,13	131,116,13	144,31,13	157,57,13	170,100,13	183,61,13	196,7,13	209,41,13	222,62,13	235,45,13	248,110,13	261,109,13	274,103,13	287,99,13	300,5,13	313,98,13	326,53,13	339,71,13	352,55,13	365,24,13	378,73,13	391,9,13	404,38,13	417,15,13	430,85,13	443,21,13	456,102,13	469,52,13	482,107,13	495,22,13	508,29,13	521,42,13	534,56,13	547,120,13	560,58,13	573,101,13	586,92,13	599,75,13	612,78,13	625,87,13	638,33,13	651,30,13	664,88,13	677,74,13	690,63,13	703,113,13	716,48,13	729,28,13	742,82,13	755,77,13	768,106,13	781,69,13	794,119,13	807,49,13	820,121,1	
5,1,13	18,60,13	31,84,13	44,47,13	57,93,13	70,4,13	83,76,13	96,65,13	109,32,13	122,80,13	135,8,13	148,51,13	161,35,13	174,19,13	187,37,13	200,118,13	213,91,13	226,105,13	239,70,13	252,13,13	265,6,13	278,89,13	291,27,13	304,17,13	317,39,13	330,114,13	343,108,13	356,90,13	369,10,13	382,40,13	395,111,13	408,43,13	421,79,13	434,72,13	447,26,13	460,112,13	473,68,13	486,67,13	499,94,13	512,96,13	525,59,13	538,25,13	551,104,13	564,23,13	577,66,13	590,50,13	603,86,13	616,64,13	629,20,13	642,81,13	655,34,13	668,54,13	681,36,13	694,117,13	707,115,13	720,95,13	736,83,13	
# Incoming
148,(8, 56),4	152,(1, 101),4	156,(1, 78),4	160,(4, 87),4	164,(8, 30),8	172,(1, 88),4	176,(8, 63),12	188,(1, 113),12	200,(4, 82),12	212,(8, 77),16	228,(4, 69),32	260,(60, 121),4	264,(84, 121),4	268,(47, 121),4	272,(93, 121),4	278,(6, 120),4	282,(6, 58),4	286,(6, 33),4	290,(6, 48),12	302,(1, 119),36	338,(76, 121),4	342,(65, 121),4	346,(32, 121),4	350,(80, 121),4	354,(51, 121),4	358,(35, 121),4	362,(19, 121),4	366,(37, 121),4	370,(118, 121),4	374,(91, 121),4	378,(105, 121),4	382,(10, 92),4	386,(10, 75),4	390,(10, 88),4	394,(10, 74),8	402,(10, 28),12	414,(10, 106),16	430,(10, 49),100	530,(70, 121),4	534,(13, 121),4	538,(89, 121),4	542,(27, 121),4	546,(17, 121),4	550,(39, 121),4	554,(114, 121),4	558,(108, 121),4	562,(90, 121),4	566,(40, 121),4	570,(111, 121),4	574,(43, 121),4	578,(79, 121),4	582,(72, 121),4	586,(26, 121),4	590,(112, 121),4	594,(68, 121),4	598,(67, 121),4	602,(94, 121),4	606,(96, 121),4	610,(59, 121),4	614,(25, 121),4	618,(104, 121),4	622,(23, 121),4	626,(66, 121),4	630,(50, 121),4	634,(86, 121),4	638,(64, 121),4	642,(20, 121),4	655,(81, 121),4	668,(34, 121),4	681,(54, 121),4	694,(36, 121),4	707,(117, 121),4	720,(115, 121),4	733,(95, 121),4	749,(83, 121),4	
1,(0, 1),4	5,(0, 4),4	9,(0, 8),4	14,(12, 47),4	18,(12, 93),4	22,(12, 118),4	26,(0, 6),4	30,(0, 10),4	34,(12, 26),4	40,(11, 91),4	44,(11, 105),4	48,(11, 112),4	52,(12, 94),4	56,(12, 104),12	68,(11, 86),4	79,(2, 13),4	83,(2, 90),4	87,(12, 66),12	105,(3, 25),12	117,(3, 50),16	133,(11, 54),36	169,(2, 117),40	209,(7, 70),4	213,(7, 94),4	217,(7, 96),8	225,(12, 95),60	285,(2, 95),20	313,(5, 108),4	317,(5, 59),12	329,(5, 20),24	353,(5, 115),12	404,(9, 68),8	412,(9, 67),8	420,(9, 96),4	424,(9, 23),12	436,(9, 86),12	448,(9, 64),20	468,(9, 81),28	496,(9, 34),28	524,(9, 36),40	564,(9, 117),8	572,(9, 115),56	628,(5, 83),108	
# Outgoing
1,(0, 1),4	5,(0, 4),4	9,(0, 8),4	14,(12, 47),4	18,(12, 93),4	22,(12, 118),4	26,(0, 6),4	30,(0, 10),4	34,(12, 26),4	40,(11, 91),4	44,(11, 105),4	48,(11, 112),4	52,(12, 94),4	56,(12, 104),12	68,(11, 86),4	79,(2, 13),4	83,(2, 90),4	87,(12, 66),12	105,(3, 25),12	117,(3, 50),16	133,(11, 54),36	169,(2, 117),40	209,(7, 70),4	213,(7, 94),4	217,(7, 96),8	225,(12, 95),60	285,(2, 95),20	313,(5, 108),4	317,(5, 59),12	329,(5, 20),24	353,(5, 115),12	404,(9, 68),8	412,(9, 67),8	420,(9, 96),4	424,(9, 23),12	436,(9, 86),12	448,(9, 64),20	468,(9, 81),28	496,(9, 34),28	524,(9, 36),40	564,(9, 117),8	572,(9, 115),56	628,(5, 83),108	
148,(8, 56),4	152,(1, 101),4	156,(1, 78),4	160,(4, 87),4	164,(8, 30),8	172,(1, 88),4	176,(8, 63),12	188,(1, 113),12	200,(4, 82),12	212,(8, 77),16	228,(4, 69),32	260,(60, 121),4	264,(84, 121),4	268,(47, 121),4	272,(93, 121),4	278,(6, 120),4	282,(6, 58),4	286,(6, 33),4	290,(6, 48),12	302,(1, 119),36	338,(76, 121),4	342,(65, 121),4	346,(32, 121),4	350,(80, 121),4	354,(51, 121),4	358,(35, 121),4	362,(19, 121),4	366,(37, 121),4	370,(118, 121),4	374,(91, 121),4	378,(105, 121),4	382,(10, 92),4	386,(10, 75),4	390,(10, 88),4	394,(10, 74),8	402,(10, 28),12	414,(10, 106),16	430,(10, 49),100	530,(70, 121),4	534,(13, 121),4	538,(89, 121),4	542,(27, 121),4	546,(17, 121),4	550,(39, 121),4	554,(114, 121),4	558,(108, 121),4	562,(90, 121),4	566,(40, 121),4	570,(111, 121),4	574,(43, 121),4	578,(79, 121),4	582,(72, 121),4	586,(26, 121),4	590,(112, 121),4	594,(68, 121),4	598,(67, 121),4	602,(94, 121),4	606,(96, 121),4	610,(59, 121),4	614,(25, 121),4	618,(104, 121),4	622,(23, 121),4	626,(66, 121),4	630,(50, 121),4	634,(86, 121),4	638,(64, 121),4	642,(20, 121),4	655,(81, 121),4	668,(34, 121),4	681,(54, 121),4	694,(36, 121),4	707,(117, 121),4	720,(115, 121),4	733,(95, 121),4	749,(83, 121),4	
