8966
# CPU
21,6,24	45,47,24	69,55,24	93,59,24	3357,60,24	3625,63,24	3649,68,24	3673,34,24	3697,87,24	7769,64,24	7797,44,24	7829,91,24	8001,42,24	8025,14,24	8049,25,24	8097,57,24	8121,48,24	8145,50,24	8169,53,24	8253,82,24	8277,96,24	8301,100,24	8965,121,1	
0,0,1	1,2,24	25,12,24	49,8,24	73,45,24	97,92,24	121,31,24	145,83,24	169,80,24	193,21,24	217,106,24	241,116,24	265,93,24	289,65,24	313,77,24	337,113,24	361,102,24	385,119,24	409,61,24	433,69,24	457,104,24	481,109,24	505,27,24	
29,9,24	53,10,24	77,11,24	101,74,24	125,23,24	149,95,24	173,98,24	197,29,24	221,90,24	245,94,24	269,89,24	293,43,24	317,54,24	341,19,24	365,40,24	389,62,24	413,46,24	437,16,24	461,73,24	485,110,24	3349,52,24	3669,72,24	3913,120,24	3937,58,24	3981,99,24	4013,36,24	4129,101,24	
13,4,24	37,7,24	61,56,24	85,30,24	109,17,24	133,75,24	157,66,24	181,20,24	205,35,24	229,71,24	253,86,24	309,37,24	353,70,24	393,108,24	417,33,24	441,38,24	3917,32,24	3989,15,24	4013,22,24	4077,39,24	4101,41,24	4153,115,24	4177,118,24	
5,1,24	29,3,24	53,5,24	77,28,24	101,105,24	125,13,24	149,18,24	173,114,24	197,85,24	221,111,24	245,88,24	269,49,24	293,81,24	317,117,24	341,79,24	365,103,24	389,26,24	413,107,24	3673,76,24	3921,51,24	4005,24,24	4105,67,24	4129,78,24	4153,84,24	4177,97,24	4201,112,24	
# Incoming
17,(0, 6),4	29,(1, 14),4	33,(1, 42),8	49,(2, 42),304	353,(4, 91),4	357,(2, 48),2988	3345,(3, 68),4	3349,(2, 60),8	3357,(2, 63),268	3625,(2, 68),12	3637,(4, 34),12	3649,(3, 87),20	3669,(7, 100),4	3673,(2, 87),16	3689,(2, 96),200	3889,(1, 44),60	3949,(1, 64),296	4245,(4, 48),1524	5769,(12, 64),648	6417,(12, 82),8	6425,(3, 14),280	6705,(9, 44),268	6973,(7, 14),128	7101,(7, 44),652	7753,(7, 64),16	7769,(8, 44),28	7797,(8, 53),28	7825,(8, 91),4	7829,(10, 42),172	8001,(10, 53),4	8005,(10, 96),4	8009,(5, 14),4	8013,(5, 25),24	8037,(5, 57),60	8097,(56, 121),8	8105,(45, 121),8	8113,(11, 48),8	8121,(11, 50),4	8125,(11, 53),4	8129,(11, 82),124	8253,(11, 96),24	8277,(11, 100),8	8285,(28, 121),8	8293,(30, 121),8	8301,(92, 121),8	8309,(74, 121),8	8317,(105, 121),8	8325,(17, 121),8	8333,(31, 121),8	8341,(13, 121),8	8349,(23, 121),8	8357,(75, 121),8	8365,(83, 121),8	8373,(95, 121),8	8381,(18, 121),8	8389,(66, 121),8	8397,(80, 121),8	8405,(98, 121),8	8413,(114, 121),8	8421,(20, 121),8	8429,(21, 121),8	8437,(29, 121),8	8445,(85, 121),8	8453,(35, 121),8	8461,(106, 121),8	8469,(90, 121),8	8477,(111, 121),8	8485,(71, 121),8	8493,(116, 121),8	8501,(94, 121),8	8509,(88, 121),8	8517,(86, 121),8	8525,(93, 121),8	8533,(49, 121),8	8541,(89, 121),8	8549,(65, 121),8	8557,(81, 121),8	8565,(43, 121),8	8573,(37, 121),8	8581,(77, 121),8	8589,(117, 121),8	8597,(54, 121),8	8605,(113, 121),8	8613,(19, 121),8	8621,(79, 121),8	8629,(70, 121),8	8637,(102, 121),8	8645,(40, 121),8	8653,(103, 121),8	8661,(119, 121),8	8669,(62, 121),8	8677,(26, 121),8	8685,(108, 121),8	8693,(61, 121),8	8701,(107, 121),8	8709,(46, 121),8	8717,(33, 121),8	8725,(69, 121),8	8733,(16, 121),8	8741,(38, 121),8	8749,(104, 121),8	8757,(73, 121),8	8765,(109, 121),8	8773,(110, 121),8	8781,(27, 121),8	8789,(52, 121),8	8797,(72, 121),8	8805,(76, 121),8	8813,(120, 121),8	8821,(32, 121),8	8829,(51, 121),8	8837,(58, 121),8	8845,(99, 121),8	8853,(15, 121),8	8861,(24, 121),8	8869,(36, 121),8	8877,(22, 121),8	8885,(39, 121),8	8893,(41, 121),8	8901,(67, 121),8	8909,(101, 121),8	8917,(78, 121),8	8925,(115, 121),8	8933,(84, 121),8	8941,(97, 121),8	8949,(118, 121),8	8957,(112, 121),8	
141,(1, 104),32	173,(1, 113),12	185,(6, 69),4	189,(6, 77),4	193,(6, 102),72	265,(6, 109),4	269,(7, 113),12	281,(10, 61),12	293,(10, 102),20	313,(10, 104),20	333,(10, 119),4	337,(11, 61),8	345,(3, 69),4	353,(3, 104),12	365,(10, 109),16	381,(11, 27),72	
25,(0, 9),4	29,(0, 10),4	33,(0, 11),4	41,(1, 52),4	45,(4, 16),28	73,(6, 52),12	85,(6, 73),8	109,(1, 46),12	121,(1, 62),20	141,(7, 99),4	185,(3, 19),8	309,(3, 40),28	337,(3, 46),4	341,(3, 62),4	353,(2, 46),4	393,(3, 110),4	397,(5, 16),16	421,(5, 73),12	433,(5, 110),8	3345,(2, 52),4	3637,(2, 72),32	3905,(2, 120),8	3921,(12, 58),4	3925,(12, 99),56	4005,(8, 36),8	4121,(8, 101),8	
9,(0, 4),4	21,(0, 7),4	37,(2, 22),4	41,(2, 30),8	49,(1, 38),60	109,(6, 33),4	113,(6, 38),4	117,(9, 37),20	137,(9, 71),4	141,(9, 86),4	145,(9, 115),12	193,(3, 37),116	349,(3, 70),4	365,(3, 108),28	413,(5, 33),4	417,(5, 38),4	3889,(2, 118),16	3913,(12, 32),4	3981,(12, 115),4	3985,(8, 15),4	3989,(8, 22),4	4013,(8, 39),64	4077,(8, 41),4	4149,(8, 115),4	4153,(8, 118),8	
1,(0, 1),4	5,(0, 3),4	13,(0, 5),4	45,(6, 13),4	49,(6, 24),4	53,(6, 26),16	73,(4, 107),4	77,(7, 49),20	97,(7, 81),16	117,(6, 107),20	137,(6, 117),24	161,(9, 79),4	165,(9, 103),24	189,(9, 112),8	197,(7, 97),16	213,(10, 97),4	217,(11, 26),20	237,(11, 107),28	3669,(2, 76),4	3917,(12, 51),4	3993,(8, 24),12	4081,(8, 67),24	4105,(8, 78),4	4109,(8, 84),4	4113,(8, 97),8	4129,(8, 112),20	
# Outgoing
45,(6, 13),4	49,(6, 24),4	53,(6, 26),16	73,(6, 52),12	85,(6, 73),8	109,(6, 33),4	113,(6, 38),4	117,(6, 107),20	137,(6, 117),24	185,(6, 69),4	189,(6, 77),4	193,(6, 102),72	265,(6, 109),4	
1,(0, 1),4	5,(0, 3),4	9,(0, 4),4	13,(0, 5),4	17,(0, 6),4	21,(0, 7),4	25,(0, 9),4	29,(0, 10),4	33,(0, 11),4	37,(2, 22),4	41,(2, 30),8	49,(2, 42),304	353,(2, 46),4	357,(2, 48),2988	3345,(2, 52),4	3349,(2, 60),8	3357,(2, 63),268	3625,(2, 68),12	3637,(2, 72),32	3669,(2, 76),4	3673,(2, 87),16	3689,(2, 96),200	3889,(2, 118),16	3905,(2, 120),8	3913,(12, 32),4	3917,(12, 51),4	3921,(12, 58),4	3925,(12, 99),56	3981,(12, 115),4	3985,(8, 15),4	3989,(8, 22),4	3993,(8, 24),12	4005,(8, 36),8	4013,(8, 39),64	4077,(8, 41),4	4081,(8, 67),24	4105,(8, 78),4	4109,(8, 84),4	4113,(8, 97),8	4121,(8, 101),8	4129,(8, 112),20	4149,(8, 115),4	4153,(8, 118),8	5769,(12, 64),648	6417,(12, 82),8	7769,(8, 44),28	7797,(8, 53),28	7825,(8, 91),4	8105,(45, 121),8	8301,(92, 121),8	8333,(31, 121),8	8365,(83, 121),8	8397,(80, 121),8	8429,(21, 121),8	8461,(106, 121),8	8493,(116, 121),8	8525,(93, 121),8	8549,(65, 121),8	8581,(77, 121),8	8605,(113, 121),8	8637,(102, 121),8	8661,(119, 121),8	8693,(61, 121),8	8725,(69, 121),8	8749,(104, 121),8	8765,(109, 121),8	8781,(27, 121),8	
117,(9, 37),20	137,(9, 71),4	141,(9, 86),4	145,(9, 115),12	161,(9, 79),4	165,(9, 103),24	189,(9, 112),8	213,(10, 97),4	217,(11, 26),20	237,(11, 107),28	281,(10, 61),12	293,(10, 102),20	313,(10, 104),20	333,(10, 119),4	337,(11, 61),8	365,(10, 109),16	381,(11, 27),72	6705,(9, 44),268	7829,(10, 42),172	8001,(10, 53),4	8005,(10, 96),4	8113,(11, 48),8	8121,(11, 50),4	8125,(11, 53),4	8129,(11, 82),124	8253,(11, 96),24	8277,(11, 100),8	8309,(74, 121),8	8349,(23, 121),8	8373,(95, 121),8	8405,(98, 121),8	8437,(29, 121),8	8469,(90, 121),8	8501,(94, 121),8	8541,(89, 121),8	8565,(43, 121),8	8597,(54, 121),8	8613,(19, 121),8	8645,(40, 121),8	8669,(62, 121),8	8709,(46, 121),8	8733,(16, 121),8	8757,(73, 121),8	8773,(110, 121),8	8789,(52, 121),8	8797,(72, 121),8	8813,(120, 121),8	8837,(58, 121),8	8845,(99, 121),8	8869,(36, 121),8	8909,(101, 121),8	
45,(4, 16),28	73,(4, 107),4	77,(7, 49),20	97,(7, 81),16	141,(7, 99),4	197,(7, 97),16	269,(7, 113),12	353,(4, 91),4	3637,(4, 34),12	3669,(7, 100),4	4245,(4, 48),1524	6973,(7, 14),128	7101,(7, 44),652	7753,(7, 64),16	8097,(56, 121),8	8293,(30, 121),8	8325,(17, 121),8	8357,(75, 121),8	8389,(66, 121),8	8421,(20, 121),8	8453,(35, 121),8	8485,(71, 121),8	8517,(86, 121),8	8573,(37, 121),8	8629,(70, 121),8	8685,(108, 121),8	8717,(33, 121),8	8741,(38, 121),8	8821,(32, 121),8	8853,(15, 121),8	8877,(22, 121),8	8885,(39, 121),8	8893,(41, 121),8	8925,(115, 121),8	8949,(118, 121),8	
29,(1, 14),4	33,(1, 42),8	41,(1, 52),4	49,(1, 38),60	109,(1, 46),12	121,(1, 62),20	141,(1, 104),32	173,(1, 113),12	185,(3, 19),8	193,(3, 37),116	309,(3, 40),28	337,(3, 46),4	341,(3, 62),4	345,(3, 69),4	349,(3, 70),4	353,(3, 104),12	365,(3, 108),28	393,(3, 110),4	397,(5, 16),16	413,(5, 33),4	417,(5, 38),4	421,(5, 73),12	433,(5, 110),8	3345,(3, 68),4	3649,(3, 87),20	3889,(1, 44),60	3949,(1, 64),296	6425,(3, 14),280	8009,(5, 14),4	8013,(5, 25),24	8037,(5, 57),60	8285,(28, 121),8	8317,(105, 121),8	8341,(13, 121),8	8381,(18, 121),8	8413,(114, 121),8	8445,(85, 121),8	8477,(111, 121),8	8509,(88, 121),8	8533,(49, 121),8	8557,(81, 121),8	8589,(117, 121),8	8621,(79, 121),8	8653,(103, 121),8	8677,(26, 121),8	8701,(107, 121),8	8805,(76, 121),8	8829,(51, 121),8	8861,(24, 121),8	8901,(67, 121),8	8917,(78, 121),8	8933,(84, 121),8	8941,(97, 121),8	8957,(112, 121),8	
