202
# CPU
0,201,1	1,126,1	2,76,1	3,142,1	4,144,1	5,133,1	6,72,1	7,122,1	8,123,1	9,68,1	10,121,1	11,131,1	12,132,1	13,135,1	14,136,1	15,119,1	16,137,1	17,62,1	18,140,1	19,117,1	20,152,1	21,156,1	22,158,1	23,165,1	24,112,1	25,50,1	26,48,1	27,172,1	28,109,1	29,173,1	30,21,1	31,40,1	32,41,1	33,96,1	34,97,1	35,89,1	36,176,1	37,83,1	38,182,1	39,98,1	40,189,1	41,178,1	42,78,1	43,36,1	44,179,1	45,24,1	46,26,1	47,27,1	48,190,1	49,174,1	50,44,1	51,88,1	52,30,1	53,39,1	54,34,1	55,67,1	56,25,1	57,71,1	58,141,1	59,153,1	60,77,1	61,198,1	62,37,1	63,162,1	64,166,1	65,200,1	66,155,1	67,22,1	68,28,1	69,148,1	70,31,1	71,146,1	72,35,1	73,187,1	74,94,1	75,183,1	76,45,1	77,124,1	78,55,1	79,54,1	80,120,1	81,29,1	82,85,1	83,114,1	84,102,1	85,116,1	86,197,1	87,75,1	88,161,1	89,154,1	90,69,1	91,169,1	92,167,1	93,111,1	94,56,1	95,95,1	96,185,1	97,104,1	98,65,1	99,160,1	100,177,1	101,81,1	102,73,1	103,63,1	104,191,1	105,115,1	106,128,1	107,139,1	108,149,1	109,74,1	110,108,1	111,90,1	112,57,1	113,157,1	114,23,1	115,192,1	116,151,1	117,130,1	118,91,1	119,51,1	120,194,1	121,107,1	122,100,1	123,84,1	124,196,1	125,66,1	126,193,1	127,175,1	128,168,1	129,127,1	130,64,1	131,188,1	132,186,1	133,138,1	134,103,1	135,53,1	136,113,1	137,181,1	138,38,1	139,59,1	140,106,1	141,43,1	142,164,1	143,11,1	144,86,1	145,150,1	146,118,1	147,101,1	148,93,1	149,170,1	150,52,1	151,1,1	152,195,1	153,32,1	154,42,1	155,171,1	156,125,1	157,159,1	158,8,1	159,180,1	160,143,1	161,99,1	162,17,1	163,82,1	164,92,1	165,7,1	166,61,1	167,80,1	168,129,1	169,14,1	170,33,1	171,163,1	172,18,1	173,47,1	174,20,1	175,184,1	176,10,1	177,199,1	178,13,1	179,49,1	180,60,1	181,15,1	182,110,1	183,16,1	184,105,1	185,3,1	186,46,1	187,6,1	188,79,1	189,4,1	190,145,1	191,5,1	192,147,1	193,70,1	194,2,1	195,134,1	196,9,1	197,87,1	198,12,1	199,58,1	200,19,1	201,0,1	
# Incoming

# Outgoing

