596
# CPU
0,0,1	1,2,89	90,26,89	179,5,89	268,15,89	357,17,89	
5,1,89	94,25,89	183,31,89	272,12,89	361,20,89	595,41,1	
7,3,89	96,28,89	185,18,89	274,16,89	363,37,89	
93,34,89	182,32,89	271,40,89	360,38,89	
94,39,89	183,14,89	272,6,89	361,7,89	
95,19,89	184,11,89	273,27,89	
96,24,89	185,35,89	274,21,89	
97,36,89	186,9,89	275,8,89	
97,30,89	186,23,89	275,29,89	
3,4,89	92,33,89	181,13,89	270,10,89	359,22,89	
# Incoming

3,(0, 1),2	179,(26, 41),13	192,(33, 41),13	205,(34, 41),13	218,(39, 41),13	231,(19, 41),13	244,(28, 41),13	257,(24, 41),13	270,(36, 41),13	283,(30, 41),13	296,(5, 41),13	309,(13, 41),13	322,(32, 41),13	335,(14, 41),13	348,(11, 41),13	361,(18, 41),13	374,(35, 41),13	387,(23, 41),13	400,(9, 41),13	413,(15, 41),13	426,(10, 41),13	439,(40, 41),13	452,(6, 41),13	465,(27, 41),13	478,(16, 41),13	491,(21, 41),13	504,(8, 41),13	517,(29, 41),13	530,(17, 41),13	543,(22, 41),13	556,(38, 41),13	569,(7, 41),13	582,(37, 41),13	
5,(0, 3),2	155,(4, 37),26	
92,(4, 34),1	97,(3, 32),2	100,(3, 40),10	110,(3, 38),3	117,(4, 38),30	
93,(4, 39),1	96,(2, 14),3	99,(3, 14),1	100,(2, 6),3	117,(1, 6),8	147,(4, 7),8	155,(1, 7),37	
94,(1, 19),1	97,(1, 27),2	99,(2, 11),1	100,(1, 11),3	103,(2, 27),10	
90,(2, 24),6	103,(1, 35),4	107,(4, 21),10	117,(3, 21),2	
96,(3, 36),1	112,(1, 9),5	117,(2, 8),5	122,(3, 8),16	
95,(1, 30),2	107,(1, 23),5	125,(1, 29),7	138,(3, 29),17	
1,(0, 4),2	
# Outgoing
1,(0, 4),2	3,(0, 1),2	5,(0, 3),2	90,(2, 24),6	96,(2, 14),3	99,(2, 11),1	100,(2, 6),3	103,(2, 27),10	117,(2, 8),5	179,(26, 41),13	296,(5, 41),13	413,(15, 41),13	530,(17, 41),13	
94,(1, 19),1	95,(1, 30),2	97,(1, 27),2	100,(1, 11),3	103,(1, 35),4	107,(1, 23),5	112,(1, 9),5	117,(1, 6),8	125,(1, 29),7	155,(1, 7),37	
96,(3, 36),1	97,(3, 32),2	99,(3, 14),1	100,(3, 40),10	110,(3, 38),3	117,(3, 21),2	122,(3, 8),16	138,(3, 29),17	244,(28, 41),13	361,(18, 41),13	478,(16, 41),13	582,(37, 41),13	
205,(34, 41),13	322,(32, 41),13	439,(40, 41),13	556,(38, 41),13	
218,(39, 41),13	335,(14, 41),13	452,(6, 41),13	569,(7, 41),13	
231,(19, 41),13	348,(11, 41),13	465,(27, 41),13	
257,(24, 41),13	374,(35, 41),13	491,(21, 41),13	
270,(36, 41),13	400,(9, 41),13	504,(8, 41),13	
283,(30, 41),13	387,(23, 41),13	517,(29, 41),13	
92,(4, 34),1	93,(4, 39),1	107,(4, 21),10	117,(4, 38),30	147,(4, 7),8	155,(4, 37),26	192,(33, 41),13	309,(13, 41),13	426,(10, 41),13	543,(22, 41),13	
