1450
# CPU
25,3,5	30,33,5	35,48,5	40,69,5	49,6,5	54,18,5	59,38,5	64,45,5	69,103,5	74,111,5	79,62,5	84,31,5	89,9,5	94,93,5	99,97,5	104,52,5	109,58,5	114,85,5	119,99,5	124,12,5	129,15,5	134,16,5	139,26,5	144,21,5	149,107,5	154,113,5	159,117,5	164,42,5	169,47,5	174,54,5	179,35,5	184,43,5	189,71,5	194,50,5	199,115,5	269,83,5	481,87,5	497,24,5	549,75,5	565,60,5	589,77,5	601,95,5	606,64,5	611,28,5	669,79,5	677,91,5	721,89,5	753,20,5	761,40,5	769,44,5	825,22,5	861,23,5	929,66,5	973,73,5	997,101,5	1073,109,5	1113,39,5	1125,41,5	1201,56,5	1241,81,5	1305,105,5	1409,119,5	
13,2,5	18,82,5	37,5,5	42,32,5	47,36,5	61,8,5	66,37,5	71,84,5	76,90,5	85,11,5	90,14,5	95,30,5	100,110,5	105,65,5	110,94,5	125,98,5	141,34,5	157,80,5	165,114,5	177,78,5	401,92,5	461,88,5	466,104,5	573,108,5	581,118,5	586,55,5	601,61,5	609,74,5	669,51,5	677,27,5	781,106,5	805,116,5	810,70,5	817,76,5	921,57,5	933,67,5	938,72,5	957,96,5	993,86,5	1037,19,5	1073,102,5	1097,112,5	1109,25,5	1153,53,5	1205,59,5	1221,63,5	1301,100,5	1329,120,5	1449,121,1	
0,0,1	1,7,5	6,4,5	11,1,5	16,10,5	21,17,5	26,46,5	31,68,5	54,13,5	305,29,5	1181,49,5	
# Incoming
13,(0, 3),12	37,(0, 6),12	54,(2, 31),4	61,(0, 9),12	73,(2, 93),4	77,(2, 97),8	85,(0, 12),12	97,(7, 15),12	109,(7, 16),8	117,(7, 26),8	125,(7, 35),4	129,(7, 43),32	161,(7, 71),4	165,(5, 50),8	173,(8, 115),4	177,(7, 83),92	269,(7, 87),212	481,(2, 24),16	497,(2, 75),52	549,(5, 60),16	565,(5, 77),24	589,(8, 95),12	601,(4, 64),4	605,(11, 28),4	609,(4, 79),60	669,(4, 91),8	677,(5, 89),44	721,(8, 20),32	753,(11, 40),8	761,(11, 44),8	781,(1, 22),44	825,(11, 23),36	921,(1, 66),8	937,(1, 73),36	993,(1, 101),4	997,(1, 109),76	1109,(10, 39),4	1113,(10, 41),12	1181,(11, 56),20	1221,(10, 81),20	1301,(10, 105),4	1305,(11, 119),104	
1,(0, 2),12	25,(0, 5),12	49,(0, 8),12	73,(0, 11),12	85,(3, 98),40	125,(33, 121),4	129,(48, 121),4	133,(69, 121),4	137,(6, 34),4	141,(6, 80),16	157,(6, 114),8	165,(7, 78),12	177,(6, 92),224	401,(18, 121),4	405,(38, 121),4	409,(45, 121),4	413,(103, 121),4	417,(111, 121),4	421,(62, 121),4	425,(31, 121),4	429,(9, 88),32	461,(9, 104),4	465,(93, 121),4	469,(97, 121),4	473,(52, 121),4	477,(58, 121),4	481,(7, 108),92	573,(7, 118),8	581,(4, 55),4	585,(4, 61),16	601,(85, 121),4	605,(4, 74),4	609,(9, 51),60	669,(99, 121),4	673,(12, 27),4	677,(4, 106),104	781,(9, 116),24	805,(12, 70),4	809,(12, 76),8	817,(15, 121),4	821,(16, 121),4	825,(1, 57),96	921,(26, 121),4	925,(21, 121),4	929,(1, 67),4	933,(1, 72),4	937,(12, 96),20	957,(107, 121),4	961,(113, 121),4	965,(117, 121),4	969,(42, 121),4	973,(1, 86),20	993,(12, 19),44	1037,(12, 102),36	1073,(1, 112),24	1097,(10, 25),12	1109,(47, 121),4	1113,(54, 121),4	1117,(35, 121),4	1121,(43, 121),4	1125,(10, 53),28	1153,(10, 59),52	1205,(10, 63),16	1221,(71, 121),4	1225,(50, 121),4	1229,(115, 121),4	1233,(83, 121),4	1237,(87, 121),4	1241,(10, 100),60	1301,(24, 121),4	1305,(10, 120),24	1329,(17, 121),4	1333,(46, 121),4	1337,(68, 121),4	1341,(13, 121),4	1345,(29, 121),4	1349,(75, 121),4	1353,(60, 121),4	1357,(77, 121),4	1361,(95, 121),4	1365,(64, 121),4	1369,(28, 121),4	1373,(79, 121),4	1377,(91, 121),4	1381,(89, 121),4	1385,(20, 121),4	1389,(40, 121),4	1393,(44, 121),4	1397,(22, 121),4	1401,(23, 121),4	1405,(66, 121),4	1409,(73, 121),4	1413,(101, 121),4	1417,(109, 121),4	1421,(39, 121),4	1425,(41, 121),4	1429,(49, 121),4	1433,(56, 121),4	1437,(81, 121),4	1441,(105, 121),4	1445,(119, 121),4	
18,(2, 13),36	177,(11, 29),128	861,(11, 49),320	
# Outgoing
85,(3, 98),40	125,(33, 121),4	129,(48, 121),4	133,(69, 121),4	137,(6, 34),4	141,(6, 80),16	157,(6, 114),8	177,(6, 92),224	401,(18, 121),4	405,(38, 121),4	409,(45, 121),4	413,(103, 121),4	417,(111, 121),4	421,(62, 121),4	425,(31, 121),4	429,(9, 88),32	461,(9, 104),4	465,(93, 121),4	469,(97, 121),4	473,(52, 121),4	477,(58, 121),4	601,(85, 121),4	609,(9, 51),60	669,(99, 121),4	673,(12, 27),4	781,(9, 116),24	805,(12, 70),4	809,(12, 76),8	817,(15, 121),4	821,(16, 121),4	921,(26, 121),4	925,(21, 121),4	937,(12, 96),20	957,(107, 121),4	961,(113, 121),4	965,(117, 121),4	969,(42, 121),4	993,(12, 19),44	1037,(12, 102),36	1109,(47, 121),4	1113,(54, 121),4	1117,(35, 121),4	1121,(43, 121),4	1221,(71, 121),4	1225,(50, 121),4	1229,(115, 121),4	1233,(83, 121),4	1237,(87, 121),4	1301,(24, 121),4	1349,(75, 121),4	1353,(60, 121),4	1357,(77, 121),4	1361,(95, 121),4	1365,(64, 121),4	1369,(28, 121),4	1373,(79, 121),4	1377,(91, 121),4	1381,(89, 121),4	1385,(20, 121),4	1389,(40, 121),4	1393,(44, 121),4	1397,(22, 121),4	1401,(23, 121),4	1405,(66, 121),4	1409,(73, 121),4	1413,(101, 121),4	1417,(109, 121),4	1421,(39, 121),4	1425,(41, 121),4	1433,(56, 121),4	1437,(81, 121),4	1441,(105, 121),4	1445,(119, 121),4	
18,(2, 13),36	54,(2, 31),4	73,(2, 93),4	77,(2, 97),8	165,(5, 50),8	173,(8, 115),4	177,(11, 29),128	481,(2, 24),16	497,(2, 75),52	549,(5, 60),16	565,(5, 77),24	589,(8, 95),12	605,(11, 28),4	677,(5, 89),44	721,(8, 20),32	753,(11, 40),8	761,(11, 44),8	825,(11, 23),36	861,(11, 49),320	1181,(11, 56),20	1305,(11, 119),104	
1,(0, 2),12	13,(0, 3),12	25,(0, 5),12	37,(0, 6),12	49,(0, 8),12	61,(0, 9),12	73,(0, 11),12	85,(0, 12),12	97,(7, 15),12	109,(7, 16),8	117,(7, 26),8	125,(7, 35),4	129,(7, 43),32	161,(7, 71),4	165,(7, 78),12	177,(7, 83),92	269,(7, 87),212	481,(7, 108),92	573,(7, 118),8	581,(4, 55),4	585,(4, 61),16	601,(4, 64),4	605,(4, 74),4	609,(4, 79),60	669,(4, 91),8	677,(4, 106),104	781,(1, 22),44	825,(1, 57),96	921,(1, 66),8	929,(1, 67),4	933,(1, 72),4	937,(1, 73),36	973,(1, 86),20	993,(1, 101),4	997,(1, 109),76	1073,(1, 112),24	1097,(10, 25),12	1109,(10, 39),4	1113,(10, 41),12	1125,(10, 53),28	1153,(10, 59),52	1205,(10, 63),16	1221,(10, 81),20	1241,(10, 100),60	1301,(10, 105),4	1305,(10, 120),24	1329,(17, 121),4	1333,(46, 121),4	1337,(68, 121),4	1341,(13, 121),4	1345,(29, 121),4	1429,(49, 121),4	
