8528
# CPU
217,4,1	218,80,1	433,8,1	434,36,1	435,78,1	436,54,1	437,74,1	438,55,1	454,16,1	508,73,1	847,33,1	1177,68,1	6913,34,1	7039,40,1	7099,59,1	7105,61,1	7108,43,1	7114,71,1	7168,29,1	7240,66,1	7354,76,1	7477,65,1	7600,41,1	7657,45,1	7681,47,1	7708,49,1	7738,58,1	7837,63,1	7855,64,1	7876,18,1	7894,24,1	7957,48,1	7960,67,1	8023,70,1	8032,75,1	8083,79,1	8098,25,1	8101,30,1	8104,31,1	8107,37,1	8119,39,1	8182,44,1	8185,50,1	8188,52,1	8191,53,1	8212,56,1	8299,57,1	8314,60,1	8383,69,1	8452,72,1	8473,77,1	8527,81,1	
145,3,1	193,19,1	196,32,1	361,7,1	400,17,1	442,23,1	499,27,1	2029,38,1	6919,13,1	6934,22,1	7105,42,1	7111,46,1	7114,51,1	7168,62,1	
73,2,1	289,6,1	290,28,1	337,26,1	1438,35,1	1648,12,1	1708,14,1	1771,15,1	1846,20,1	1978,21,1	6913,11,1	
0,0,1	1,1,1	2,5,1	320,9,1	1636,10,1	
# Incoming
145,(0, 4),72	217,(2, 25),129	346,(2, 30),9	355,(2, 39),3	358,(2, 45),3	361,(0, 8),72	433,(2, 56),3	436,(1, 16),18	454,(2, 59),3	457,(2, 66),6	463,(1, 39),36	499,(1, 41),6	505,(2, 73),3	508,(1, 47),3	511,(1, 49),312	823,(2, 33),24	847,(2, 43),18	865,(1, 53),33	898,(1, 57),9	907,(1, 59),18	925,(1, 60),156	1081,(1, 61),42	1123,(1, 65),36	1159,(1, 67),3	1162,(1, 68),15	1177,(1, 71),516	1693,(1, 75),84	1777,(1, 76),5067	6844,(1, 77),42	6886,(1, 79),3	6889,(2, 34),24	6913,(2, 75),15	6928,(2, 79),3	6931,(3, 57),3	6934,(5, 37),21	6955,(5, 39),60	7015,(5, 40),24	7039,(2, 37),45	7084,(3, 37),12	7096,(3, 59),3	7099,(3, 61),6	7105,(5, 43),3	7108,(3, 67),3	7111,(3, 71),3	7114,(5, 52),33	7147,(5, 53),3	7150,(5, 60),9	7159,(19, 81),3	7162,(32, 81),3	7165,(6, 29),3	7168,(5, 64),6	7174,(5, 65),57	7231,(5, 66),9	7240,(5, 72),3	7243,(5, 76),111	7354,(5, 77),18	7372,(2, 48),24	7396,(2, 49),27	7423,(2, 58),30	7453,(2, 65),24	7477,(3, 25),75	7552,(3, 31),30	7582,(3, 41),18	7600,(3, 45),57	7657,(3, 47),24	7681,(3, 49),27	7708,(3, 50),18	7726,(3, 58),12	7738,(3, 63),99	7837,(3, 64),18	7855,(3, 70),15	7870,(6, 18),6	7876,(6, 24),18	7894,(6, 37),3	7897,(6, 44),54	7951,(6, 48),6	7957,(6, 67),3	7960,(6, 69),57	8017,(6, 70),6	8023,(6, 75),9	8032,(6, 79),51	8083,(28, 81),3	8086,(9, 81),3	8089,(26, 81),3	8092,(7, 25),6	8098,(7, 30),3	8101,(7, 31),3	8104,(7, 37),3	8107,(7, 39),12	8119,(7, 44),63	8182,(7, 50),3	8185,(7, 52),3	8188,(7, 53),3	8191,(7, 56),21	8212,(7, 57),87	8299,(7, 60),15	8314,(7, 69),69	8383,(7, 72),69	8452,(7, 77),21	8473,(17, 81),3	8476,(23, 81),3	8479,(27, 81),3	8482,(35, 81),3	8485,(10, 81),3	8488,(12, 81),3	8491,(14, 81),3	8494,(15, 81),3	8497,(20, 81),3	8500,(21, 81),3	8503,(38, 81),3	8506,(11, 81),3	8509,(13, 81),3	8512,(22, 81),3	8515,(42, 81),3	8518,(46, 81),3	8521,(51, 81),3	8524,(62, 81),3	
73,(0, 3),72	145,(2, 17),3	148,(2, 19),45	193,(2, 32),3	196,(2, 42),9	205,(2, 62),3	289,(0, 7),72	391,(6, 17),9	400,(6, 22),18	424,(4, 22),3	427,(4, 23),15	442,(4, 27),6	454,(1, 27),9	463,(4, 42),12	475,(8, 27),24	505,(1, 46),3	508,(4, 51),57	565,(6, 62),198	823,(1, 51),42	1978,(8, 38),51	2029,(8, 46),93	2122,(8, 51),135	6913,(5, 13),6	6919,(5, 22),15	7039,(5, 42),66	7108,(5, 46),3	7111,(5, 51),3	7159,(5, 62),9	
1,(0, 2),72	217,(0, 6),72	289,(3, 11),27	316,(3, 12),3	319,(3, 20),15	334,(3, 26),3	337,(3, 35),6	343,(4, 11),75	418,(4, 20),6	424,(7, 15),3	427,(7, 20),3	433,(1, 12),3	436,(3, 15),213	649,(4, 15),36	685,(4, 35),156	841,(7, 35),597	1636,(8, 11),3	1639,(8, 12),9	1648,(8, 14),60	1708,(8, 15),63	1771,(8, 20),75	1846,(8, 21),132	6889,(5, 11),24	
146,(3, 10),90	236,(4, 9),84	320,(4, 10),9	361,(6, 10),30	841,(8, 10),795	
# Outgoing
236,(4, 9),84	320,(4, 10),9	343,(4, 11),75	418,(4, 20),6	424,(4, 22),3	427,(4, 23),15	442,(4, 27),6	463,(4, 42),12	475,(8, 27),24	508,(4, 51),57	649,(4, 15),36	685,(4, 35),156	841,(8, 10),795	1636,(8, 11),3	1639,(8, 12),9	1648,(8, 14),60	1708,(8, 15),63	1771,(8, 20),75	1846,(8, 21),132	1978,(8, 38),51	2029,(8, 46),93	2122,(8, 51),135	
146,(3, 10),90	289,(3, 11),27	316,(3, 12),3	319,(3, 20),15	334,(3, 26),3	337,(3, 35),6	424,(7, 15),3	427,(7, 20),3	436,(3, 15),213	841,(7, 35),597	6931,(3, 57),3	7084,(3, 37),12	7096,(3, 59),3	7099,(3, 61),6	7108,(3, 67),3	7111,(3, 71),3	7159,(19, 81),3	7162,(32, 81),3	7477,(3, 25),75	7552,(3, 31),30	7582,(3, 41),18	7600,(3, 45),57	7657,(3, 47),24	7681,(3, 49),27	7708,(3, 50),18	7726,(3, 58),12	7738,(3, 63),99	7837,(3, 64),18	7855,(3, 70),15	8092,(7, 25),6	8098,(7, 30),3	8101,(7, 31),3	8104,(7, 37),3	8107,(7, 39),12	8119,(7, 44),63	8182,(7, 50),3	8185,(7, 52),3	8188,(7, 53),3	8191,(7, 56),21	8212,(7, 57),87	8299,(7, 60),15	8314,(7, 69),69	8383,(7, 72),69	8452,(7, 77),21	8473,(17, 81),3	8476,(23, 81),3	8479,(27, 81),3	8503,(38, 81),3	8509,(13, 81),3	8512,(22, 81),3	8515,(42, 81),3	8518,(46, 81),3	8521,(51, 81),3	8524,(62, 81),3	
145,(2, 17),3	148,(2, 19),45	193,(2, 32),3	196,(2, 42),9	205,(2, 62),3	217,(2, 25),129	346,(2, 30),9	355,(2, 39),3	358,(2, 45),3	361,(6, 10),30	391,(6, 17),9	400,(6, 22),18	433,(2, 56),3	454,(2, 59),3	457,(2, 66),6	505,(2, 73),3	565,(6, 62),198	823,(2, 33),24	847,(2, 43),18	6889,(2, 34),24	6913,(2, 75),15	6928,(2, 79),3	7039,(2, 37),45	7165,(6, 29),3	7372,(2, 48),24	7396,(2, 49),27	7423,(2, 58),30	7453,(2, 65),24	7870,(6, 18),6	7876,(6, 24),18	7894,(6, 37),3	7897,(6, 44),54	7951,(6, 48),6	7957,(6, 67),3	7960,(6, 69),57	8017,(6, 70),6	8023,(6, 75),9	8032,(6, 79),51	8083,(28, 81),3	8089,(26, 81),3	8482,(35, 81),3	8488,(12, 81),3	8491,(14, 81),3	8494,(15, 81),3	8497,(20, 81),3	8500,(21, 81),3	8506,(11, 81),3	
1,(0, 2),72	73,(0, 3),72	145,(0, 4),72	217,(0, 6),72	289,(0, 7),72	361,(0, 8),72	433,(1, 12),3	436,(1, 16),18	454,(1, 27),9	463,(1, 39),36	499,(1, 41),6	505,(1, 46),3	508,(1, 47),3	511,(1, 49),312	823,(1, 51),42	865,(1, 53),33	898,(1, 57),9	907,(1, 59),18	925,(1, 60),156	1081,(1, 61),42	1123,(1, 65),36	1159,(1, 67),3	1162,(1, 68),15	1177,(1, 71),516	1693,(1, 75),84	1777,(1, 76),5067	6844,(1, 77),42	6886,(1, 79),3	6889,(5, 11),24	6913,(5, 13),6	6919,(5, 22),15	6934,(5, 37),21	6955,(5, 39),60	7015,(5, 40),24	7039,(5, 42),66	7105,(5, 43),3	7108,(5, 46),3	7111,(5, 51),3	7114,(5, 52),33	7147,(5, 53),3	7150,(5, 60),9	7159,(5, 62),9	7168,(5, 64),6	7174,(5, 65),57	7231,(5, 66),9	7240,(5, 72),3	7243,(5, 76),111	7354,(5, 77),18	8086,(9, 81),3	8485,(10, 81),3	
