609
# CPU
0,0,1	1,2,24	25,30,24	49,63,24	73,4,24	97,48,24	121,70,24	145,120,24	169,118,24	193,115,24	217,96,24	267,108,24	348,42,24	584,82,24	608,121,1	
8,6,24	32,55,24	56,47,24	80,59,24	104,13,24	128,50,24	152,91,24	176,60,24	200,34,24	224,100,24	248,53,24	
4,1,24	28,28,24	52,105,24	76,79,24	100,56,24	124,51,24	148,119,24	172,49,24	196,61,24	220,87,24	244,26,24	268,39,24	
5,5,24	29,88,24	53,111,24	77,85,24	101,114,24	125,18,24	149,78,24	173,22,24	197,67,24	221,112,24	245,57,24	269,27,24	
9,12,24	33,80,24	57,83,24	81,31,24	105,45,24	129,92,24	153,113,24	177,68,24	201,73,24	225,99,24	249,104,24	273,102,24	368,64,24	
10,7,24	34,35,24	58,20,24	82,66,24	106,41,24	130,86,24	154,17,24	178,75,24	202,52,24	226,97,24	250,38,24	342,44,24	
7,8,24	31,116,24	55,93,24	79,21,24	103,65,24	127,106,24	151,77,24	175,69,24	199,109,24	223,25,24	247,29,24	
6,9,24	30,74,24	54,23,24	78,95,24	102,58,24	126,71,24	150,19,24	174,36,24	198,110,24	222,40,24	246,46,24	
3,3,24	27,76,24	63,84,24	87,15,24	111,32,24	135,33,24	159,81,24	183,24,24	207,117,24	231,103,24	255,107,24	279,37,24	315,14,24	
2,10,24	26,98,24	50,11,24	74,89,24	98,90,24	122,43,24	146,54,24	170,94,24	194,101,24	218,62,24	242,72,24	266,16,24	
# Incoming
50,(98, 121),2	52,(76, 121),2	54,(28, 121),2	56,(88, 121),2	58,(74, 121),2	60,(116, 121),2	62,(55, 121),2	64,(80, 121),2	66,(35, 121),2	68,(3, 70),1	69,(10, 120),2	71,(8, 118),2	73,(12, 115),1	74,(11, 48),2	76,(105, 121),2	78,(111, 121),2	80,(23, 121),2	82,(93, 121),2	84,(47, 121),2	86,(83, 121),2	88,(20, 121),2	90,(84, 121),2	92,(9, 115),3	95,(8, 115),1	96,(10, 96),1	98,(89, 121),2	100,(79, 121),2	102,(85, 121),2	104,(95, 121),2	106,(21, 121),2	108,(59, 121),2	110,(31, 121),2	112,(66, 121),2	114,(15, 121),2	116,(11, 96),6	122,(90, 121),2	124,(56, 121),2	126,(114, 121),2	128,(58, 121),2	130,(65, 121),2	132,(13, 121),2	134,(45, 121),2	136,(41, 121),2	138,(32, 121),2	140,(12, 82),2	143,(1, 42),2	146,(43, 121),2	148,(51, 121),2	150,(18, 121),2	152,(71, 121),2	154,(106, 121),2	156,(50, 121),2	158,(92, 121),2	160,(86, 121),2	162,(33, 121),2	170,(54, 121),2	172,(119, 121),2	174,(78, 121),2	176,(19, 121),2	178,(77, 121),2	180,(91, 121),2	182,(113, 121),2	184,(17, 121),2	186,(81, 121),2	194,(94, 121),2	196,(49, 121),2	198,(22, 121),2	200,(36, 121),2	202,(69, 121),2	204,(60, 121),2	206,(68, 121),2	208,(75, 121),2	210,(24, 121),2	218,(101, 121),2	220,(61, 121),2	222,(67, 121),2	224,(110, 121),2	226,(109, 121),2	228,(34, 121),2	230,(73, 121),2	232,(52, 121),2	234,(117, 121),2	242,(62, 121),2	244,(87, 121),2	246,(112, 121),2	248,(40, 121),2	250,(25, 121),2	252,(100, 121),2	254,(99, 121),2	256,(97, 121),2	258,(103, 121),2	260,(3, 108),7	267,(72, 121),2	269,(26, 121),2	271,(57, 121),2	273,(46, 121),2	275,(29, 121),2	277,(53, 121),2	279,(104, 121),2	281,(38, 121),2	283,(107, 121),2	290,(16, 121),2	292,(39, 121),2	294,(27, 121),2	297,(102, 121),2	303,(37, 121),2	305,(10, 42),43	348,(14, 121),2	366,(44, 121),2	392,(64, 121),2	394,(6, 82),159	553,(11, 82),31	
7,(0, 6),1	29,(2, 60),2	57,(10, 53),1	58,(5, 13),1	68,(8, 91),1	76,(11, 50),1	86,(7, 100),1	91,(11, 100),2	93,(11, 53),1	101,(4, 91),1	110,(4, 34),3	113,(8, 53),7	
3,(0, 1),1	27,(2, 119),1	35,(2, 87),4	52,(10, 119),1	53,(10, 61),3	60,(9, 79),1	65,(8, 119),2	68,(12, 51),1	69,(3, 87),5	77,(7, 49),5	82,(11, 61),2	84,(8, 61),5	89,(5, 26),8	97,(4, 56),1	98,(6, 87),6	104,(6, 26),4	108,(11, 26),5	132,(8, 39),16	148,(4, 39),23	
4,(0, 5),1	28,(2, 22),1	54,(3, 18),1	62,(9, 112),2	67,(8, 78),1	69,(8, 22),1	70,(2, 27),11	82,(7, 22),4	89,(8, 67),6	96,(8, 112),5	101,(12, 27),2	134,(6, 57),16	156,(8, 27),18	174,(11, 27),18	
8,(0, 12),1	31,(2, 68),3	56,(1, 113),3	59,(3, 68),1	62,(5, 73),3	67,(6, 68),3	70,(7, 113),3	73,(6, 73),2	77,(11, 73),5	82,(3, 104),3	87,(7, 99),1	88,(1, 104),8	96,(7, 64),4	106,(9, 99),14	137,(10, 104),5	155,(10, 102),5	160,(6, 102),18	294,(1, 64),74	
9,(0, 7),1	34,(2, 52),1	56,(10, 97),1	59,(1, 52),1	61,(9, 86),1	64,(8, 41),1	66,(5, 38),1	72,(6, 38),1	75,(6, 52),3	80,(8, 97),2	84,(10, 52),7	102,(4, 17),1	103,(4, 75),7	116,(3, 97),12	128,(1, 38),15	150,(1, 44),15	180,(8, 44),7	275,(9, 44),67	
6,(0, 8),1	26,(2, 106),1	57,(3, 69),1	58,(10, 109),4	65,(6, 77),1	66,(6, 69),1	71,(6, 109),1	72,(5, 25),6	82,(9, 29),9	110,(6, 25),9	124,(10, 29),13	
5,(0, 9),1	47,(2, 46),1	55,(3, 19),2	58,(3, 110),1	60,(5, 110),2	62,(3, 46),1	66,(12, 58),1	69,(7, 71),1	70,(1, 46),3	73,(8, 36),2	75,(3, 40),7	99,(4, 71),1	100,(10, 46),7	
2,(0, 3),1	25,(2, 76),1	59,(5, 33),1	60,(1, 14),1	62,(8, 84),1	63,(8, 15),1	64,(6, 33),1	65,(5, 103),1	67,(12, 32),1	68,(7, 15),1	70,(6, 24),1	71,(5, 14),1	73,(7, 81),4	77,(8, 24),3	86,(6, 117),6	92,(6, 107),5	98,(4, 32),1	100,(4, 33),1	113,(4, 107),1	120,(9, 103),6	148,(11, 107),7	155,(9, 37),5	171,(4, 37),35	283,(7, 14),32	
1,(0, 10),1	10,(0, 11),1	39,(2, 72),8	60,(3, 62),1	61,(1, 62),5	67,(5, 16),4	75,(8, 101),2	114,(4, 16),7	130,(9, 16),18	
# Outgoing
1,(0, 10),1	2,(0, 3),1	3,(0, 1),1	4,(0, 5),1	5,(0, 9),1	6,(0, 8),1	7,(0, 6),1	8,(0, 12),1	9,(0, 7),1	10,(0, 11),1	25,(2, 76),1	26,(2, 106),1	27,(2, 119),1	28,(2, 22),1	29,(2, 60),2	31,(2, 68),3	34,(2, 52),1	35,(2, 87),4	39,(2, 72),8	47,(2, 46),1	70,(2, 27),11	97,(4, 56),1	98,(4, 32),1	99,(4, 71),1	100,(4, 33),1	101,(4, 91),1	102,(4, 17),1	103,(4, 75),7	110,(4, 34),3	113,(4, 107),1	114,(4, 16),7	148,(4, 39),23	171,(4, 37),35	
62,(55, 121),2	64,(6, 33),1	65,(6, 77),1	66,(6, 69),1	67,(6, 68),3	70,(6, 24),1	71,(6, 109),1	72,(6, 38),1	73,(6, 73),2	75,(6, 52),3	84,(47, 121),2	86,(6, 117),6	92,(6, 107),5	98,(6, 87),6	104,(6, 26),4	108,(59, 121),2	110,(6, 25),9	132,(13, 121),2	134,(6, 57),16	156,(50, 121),2	160,(6, 102),18	180,(91, 121),2	204,(60, 121),2	228,(34, 121),2	252,(100, 121),2	277,(53, 121),2	394,(6, 82),159	
54,(28, 121),2	56,(1, 113),3	59,(1, 52),1	60,(1, 14),1	61,(1, 62),5	70,(1, 46),3	76,(105, 121),2	88,(1, 104),8	100,(79, 121),2	124,(56, 121),2	128,(1, 38),15	143,(1, 42),2	148,(51, 121),2	150,(1, 44),15	172,(119, 121),2	196,(49, 121),2	220,(61, 121),2	244,(87, 121),2	269,(26, 121),2	292,(39, 121),2	294,(1, 64),74	
56,(88, 121),2	58,(5, 13),1	59,(5, 33),1	60,(5, 110),2	62,(5, 73),3	65,(5, 103),1	66,(5, 38),1	67,(5, 16),4	71,(5, 14),1	72,(5, 25),6	78,(111, 121),2	89,(5, 26),8	102,(85, 121),2	126,(114, 121),2	150,(18, 121),2	174,(78, 121),2	198,(22, 121),2	222,(67, 121),2	246,(112, 121),2	271,(57, 121),2	294,(27, 121),2	
64,(80, 121),2	66,(12, 58),1	67,(12, 32),1	68,(12, 51),1	73,(12, 115),1	86,(83, 121),2	101,(12, 27),2	110,(31, 121),2	134,(45, 121),2	140,(12, 82),2	158,(92, 121),2	182,(113, 121),2	206,(68, 121),2	230,(73, 121),2	254,(99, 121),2	279,(104, 121),2	297,(102, 121),2	392,(64, 121),2	
66,(35, 121),2	68,(7, 15),1	69,(7, 71),1	70,(7, 113),3	73,(7, 81),4	77,(7, 49),5	82,(7, 22),4	86,(7, 100),1	87,(7, 99),1	88,(20, 121),2	96,(7, 64),4	112,(66, 121),2	136,(41, 121),2	160,(86, 121),2	184,(17, 121),2	208,(75, 121),2	232,(52, 121),2	256,(97, 121),2	281,(38, 121),2	283,(7, 14),32	366,(44, 121),2	
60,(116, 121),2	62,(8, 84),1	63,(8, 15),1	64,(8, 41),1	65,(8, 119),2	67,(8, 78),1	68,(8, 91),1	69,(8, 22),1	71,(8, 118),2	73,(8, 36),2	75,(8, 101),2	77,(8, 24),3	80,(8, 97),2	82,(93, 121),2	84,(8, 61),5	89,(8, 67),6	95,(8, 115),1	96,(8, 112),5	106,(21, 121),2	113,(8, 53),7	130,(65, 121),2	132,(8, 39),16	154,(106, 121),2	156,(8, 27),18	178,(77, 121),2	180,(8, 44),7	202,(69, 121),2	226,(109, 121),2	250,(25, 121),2	275,(29, 121),2	
58,(74, 121),2	60,(9, 79),1	61,(9, 86),1	62,(9, 112),2	80,(23, 121),2	82,(9, 29),9	92,(9, 115),3	104,(95, 121),2	106,(9, 99),14	120,(9, 103),6	128,(58, 121),2	130,(9, 16),18	152,(71, 121),2	155,(9, 37),5	176,(19, 121),2	200,(36, 121),2	224,(110, 121),2	248,(40, 121),2	273,(46, 121),2	275,(9, 44),67	
52,(76, 121),2	54,(3, 18),1	55,(3, 19),2	57,(3, 69),1	58,(3, 110),1	59,(3, 68),1	60,(3, 62),1	62,(3, 46),1	68,(3, 70),1	69,(3, 87),5	75,(3, 40),7	82,(3, 104),3	90,(84, 121),2	114,(15, 121),2	116,(3, 97),12	138,(32, 121),2	162,(33, 121),2	186,(81, 121),2	210,(24, 121),2	234,(117, 121),2	258,(103, 121),2	260,(3, 108),7	283,(107, 121),2	303,(37, 121),2	348,(14, 121),2	
50,(98, 121),2	52,(10, 119),1	53,(10, 61),3	56,(10, 97),1	57,(10, 53),1	58,(10, 109),4	69,(10, 120),2	74,(11, 48),2	76,(11, 50),1	77,(11, 73),5	82,(11, 61),2	84,(10, 52),7	91,(11, 100),2	93,(11, 53),1	96,(10, 96),1	98,(89, 121),2	100,(10, 46),7	108,(11, 26),5	116,(11, 96),6	122,(90, 121),2	124,(10, 29),13	137,(10, 104),5	146,(43, 121),2	148,(11, 107),7	155,(10, 102),5	170,(54, 121),2	174,(11, 27),18	194,(94, 121),2	218,(101, 121),2	242,(62, 121),2	267,(72, 121),2	290,(16, 121),2	305,(10, 42),43	553,(11, 82),31	
