595
# CPU
0,0,1	1,12,6	7,11,6	13,5,6	19,4,6	25,8,6	31,3,6	37,2,6	43,47,6	49,93,6	55,114,6	61,27,6	67,116,6	73,109,6	79,108,6	85,78,6	91,74,6	97,22,6	103,19,6	109,48,6	115,89,6	121,68,6	127,62,6	133,45,6	139,21,6	145,88,6	151,79,6	157,58,6	163,56,6	169,112,6	175,51,6	181,24,6	187,17,6	193,86,6	199,71,6	205,52,6	211,35,6	217,103,6	223,18,6	229,107,6	235,59,6	241,98,6	247,102,6	253,97,6	259,90,6	265,75,6	271,49,6	277,46,6	283,95,6	289,99,6	295,25,6	301,94,6	307,104,6	313,54,6	319,57,6	325,37,6	331,38,6	337,66,6	343,60,6	349,83,6	355,113,6	
13,1,6	19,15,6	25,32,6	31,43,6	37,53,6	43,81,6	49,115,6	55,6,6	61,7,6	67,9,6	73,10,6	79,28,6	85,64,6	91,92,6	97,67,6	103,76,6	109,84,6	115,69,6	121,120,6	127,34,6	133,85,6	139,96,6	145,29,6	151,31,6	157,16,6	163,39,6	169,63,6	175,13,6	181,111,6	187,106,6	193,87,6	199,73,6	205,80,6	211,72,6	217,36,6	223,119,6	229,61,6	235,40,6	241,33,6	247,105,6	253,23,6	259,20,6	265,55,6	301,42,6	307,44,6	313,91,6	319,110,6	325,14,6	384,70,6	429,101,6	435,117,6	441,118,6	478,50,6	486,65,6	492,77,6	498,26,6	517,41,6	537,30,6	543,100,6	549,82,6	594,121,1	
# Incoming
19,(1, 48),1	61,(6, 57),3	67,(7, 83),2	73,(9, 37),1	74,(9, 38),13	87,(9, 66),1	88,(10, 60),2	90,(10, 83),3	93,(10, 113),3	
1,(0, 1),12	13,(0, 6),12	25,(0, 7),12	37,(0, 9),12	49,(0, 10),12	61,(12, 41),238	299,(12, 42),2	301,(12, 44),1	302,(12, 91),6	308,(12, 110),1	309,(11, 14),8	317,(11, 70),67	384,(11, 77),36	420,(11, 101),9	429,(11, 117),5	434,(11, 118),2	436,(5, 50),42	478,(5, 65),8	486,(5, 77),1	487,(4, 26),2	489,(4, 30),27	516,(4, 41),1	517,(8, 30),20	537,(8, 100),1	538,(3, 82),3	541,(47, 121),1	542,(93, 121),1	543,(114, 121),1	544,(27, 121),1	545,(116, 121),1	546,(109, 121),1	547,(108, 121),1	548,(78, 121),1	549,(74, 121),1	550,(22, 121),1	551,(19, 121),1	552,(48, 121),1	553,(89, 121),1	554,(68, 121),1	555,(62, 121),1	556,(45, 121),1	557,(21, 121),1	558,(88, 121),1	559,(79, 121),1	560,(58, 121),1	561,(56, 121),1	562,(112, 121),1	563,(51, 121),1	564,(24, 121),1	565,(17, 121),1	566,(86, 121),1	567,(71, 121),1	568,(52, 121),1	569,(35, 121),1	570,(103, 121),1	571,(18, 121),1	572,(107, 121),1	573,(59, 121),1	574,(98, 121),1	575,(102, 121),1	576,(97, 121),1	577,(90, 121),1	578,(75, 121),1	579,(49, 121),1	580,(46, 121),1	581,(95, 121),1	582,(99, 121),1	583,(25, 121),1	584,(94, 121),1	585,(104, 121),1	586,(54, 121),1	587,(57, 121),1	588,(37, 121),1	589,(38, 121),1	590,(66, 121),1	591,(60, 121),1	592,(83, 121),1	593,(113, 121),1	
# Outgoing
1,(0, 1),12	13,(0, 6),12	25,(0, 7),12	37,(0, 9),12	49,(0, 10),12	61,(12, 41),238	299,(12, 42),2	301,(12, 44),1	302,(12, 91),6	308,(12, 110),1	309,(11, 14),8	317,(11, 70),67	384,(11, 77),36	420,(11, 101),9	429,(11, 117),5	434,(11, 118),2	436,(5, 50),42	478,(5, 65),8	486,(5, 77),1	487,(4, 26),2	489,(4, 30),27	516,(4, 41),1	517,(8, 30),20	537,(8, 100),1	538,(3, 82),3	541,(47, 121),1	542,(93, 121),1	543,(114, 121),1	544,(27, 121),1	545,(116, 121),1	546,(109, 121),1	547,(108, 121),1	548,(78, 121),1	549,(74, 121),1	550,(22, 121),1	551,(19, 121),1	552,(48, 121),1	553,(89, 121),1	554,(68, 121),1	555,(62, 121),1	556,(45, 121),1	557,(21, 121),1	558,(88, 121),1	559,(79, 121),1	560,(58, 121),1	561,(56, 121),1	562,(112, 121),1	563,(51, 121),1	564,(24, 121),1	565,(17, 121),1	566,(86, 121),1	567,(71, 121),1	568,(52, 121),1	569,(35, 121),1	570,(103, 121),1	571,(18, 121),1	572,(107, 121),1	573,(59, 121),1	574,(98, 121),1	575,(102, 121),1	576,(97, 121),1	577,(90, 121),1	578,(75, 121),1	579,(49, 121),1	580,(46, 121),1	581,(95, 121),1	582,(99, 121),1	583,(25, 121),1	584,(94, 121),1	585,(104, 121),1	586,(54, 121),1	587,(57, 121),1	588,(37, 121),1	589,(38, 121),1	590,(66, 121),1	591,(60, 121),1	592,(83, 121),1	593,(113, 121),1	
19,(1, 48),1	61,(6, 57),3	67,(7, 83),2	73,(9, 37),1	74,(9, 38),13	87,(9, 66),1	88,(10, 60),2	90,(10, 83),3	93,(10, 113),3	
