199
# CPU
0,0,1	1,15,1	2,2,1	3,93,1	4,3,1	5,198,1	6,94,1	7,73,1	8,155,1	9,8,1	10,150,1	11,50,1	12,4,1	13,12,1	14,139,1	15,88,1	16,51,1	17,170,1	18,14,1	19,37,1	20,175,1	21,16,1	22,153,1	23,57,1	24,98,1	25,179,1	26,48,1	27,17,1	28,60,1	29,95,1	30,99,1	31,141,1	32,68,1	33,18,1	34,134,1	35,169,1	36,116,1	37,199,1	38,58,1	39,5,1	40,135,1	41,42,1	42,76,1	43,157,1	44,167,1	45,25,1	46,83,1	47,166,1	48,7,1	49,23,1	50,31,1	51,92,1	52,121,1	53,69,1	54,11,1	55,45,1	56,159,1	57,197,1	58,55,1	59,86,1	60,138,1	61,54,1	62,145,1	63,181,1	64,151,1	65,174,1	66,34,1	67,65,1	68,64,1	69,182,1	70,1,1	71,184,1	72,36,1	73,105,1	74,53,1	75,72,1	76,107,1	77,163,1	78,43,1	79,110,1	80,112,1	81,85,1	82,132,1	83,123,1	84,19,1	85,122,1	86,100,1	87,104,1	88,119,1	89,75,1	90,62,1	91,87,1	92,39,1	93,71,1	94,156,1	95,9,1	96,172,1	97,140,1	98,195,1	99,97,1	100,124,1	101,178,1	102,186,1	103,74,1	104,200,1	105,173,1	106,128,1	107,22,1	108,189,1	109,29,1	110,191,1	111,13,1	112,81,1	113,96,1	114,125,1	115,106,1	116,84,1	117,70,1	118,113,1	119,30,1	120,162,1	121,136,1	122,91,1	123,183,1	124,180,1	125,109,1	126,52,1	127,10,1	128,115,1	129,78,1	130,131,1	131,177,1	132,90,1	133,26,1	134,61,1	135,148,1	136,120,1	137,117,1	138,127,1	139,187,1	140,79,1	141,171,1	142,24,1	143,126,1	144,176,1	145,192,1	146,56,1	147,114,1	148,49,1	149,165,1	150,130,1	151,6,1	152,133,1	153,146,1	154,47,1	155,41,1	156,118,1	157,137,1	158,147,1	159,164,1	160,142,1	161,28,1	162,38,1	163,101,1	164,143,1	165,111,1	166,32,1	167,20,1	168,196,1	169,67,1	170,185,1	171,149,1	172,89,1	173,46,1	174,168,1	175,33,1	176,59,1	177,190,1	178,40,1	179,108,1	180,77,1	181,44,1	182,152,1	183,82,1	184,102,1	185,154,1	186,194,1	187,27,1	188,80,1	189,103,1	190,129,1	191,144,1	192,158,1	193,160,1	194,188,1	195,66,1	196,63,1	197,161,1	198,201,1	
88,193,1	131,35,1	


115,21,1	
# Incoming
89,(193, 201),15	116,(21, 201),15	132,(35, 201),15	
3,(2, 193),9	13,(4, 193),3	16,(3, 35),3	22,(16, 193),30	67,(7, 35),3	85,(19, 193),3	88,(8, 35),21	128,(10, 35),3	


52,(5, 21),12	64,(11, 21),3	112,(13, 21),3	
# Outgoing
3,(2, 193),9	13,(4, 193),3	16,(3, 35),3	22,(16, 193),30	52,(5, 21),12	64,(11, 21),3	67,(7, 35),3	85,(19, 193),3	88,(8, 35),21	112,(13, 21),3	128,(10, 35),3	
89,(193, 201),15	132,(35, 201),15	


116,(21, 201),15	
