834
# CPU
153,22,1	197,27,1	225,32,1	417,52,1	463,26,1	491,44,1	595,55,1	603,58,1	619,51,1	623,59,1	633,9,1	735,53,1	737,56,1	757,24,1	759,45,1	761,47,1	763,50,1	765,63,1	791,48,1	793,54,1	797,60,1	805,61,1	833,81,1	
19,1,1	20,15,1	21,28,1	22,69,1	23,80,1	24,78,1	25,38,1	26,77,1	27,37,1	28,25,1	29,34,1	
37,2,1	38,14,1	39,35,1	40,76,1	41,79,1	42,70,1	43,16,1	44,43,1	
73,5,1	74,13,1	75,19,1	76,65,1	77,67,1	78,33,1	79,31,1	111,12,1	
91,7,1	92,10,1	93,20,1	94,40,1	95,68,1	96,39,1	97,17,1	98,23,1	
109,8,1	110,41,1	111,64,1	112,74,1	113,42,1	114,73,1	
55,4,1	56,11,1	57,29,1	58,21,1	59,36,1	
0,0,1	1,6,1	2,3,1	3,18,1	4,57,1	
417,75,1	465,46,1	467,62,1	469,71,1	
199,30,1	227,49,1	407,66,1	409,72,1	
# Incoming
111,(6, 22),42	153,(6, 27),44	197,(1, 51),2	199,(6, 32),26	225,(15, 81),2	227,(6, 58),168	395,(28, 81),2	397,(69, 81),2	399,(80, 81),2	401,(78, 81),2	403,(38, 81),2	405,(77, 81),2	407,(37, 81),2	409,(25, 81),2	411,(34, 81),2	413,(2, 24),2	415,(2, 52),2	417,(3, 26),46	463,(2, 60),6	469,(18, 81),2	471,(57, 81),2	473,(2, 44),18	491,(2, 55),104	595,(2, 58),8	603,(14, 81),2	605,(35, 81),2	607,(76, 81),2	609,(79, 81),2	611,(70, 81),2	613,(16, 81),2	615,(43, 81),2	617,(4, 51),2	619,(4, 59),4	623,(11, 81),2	625,(29, 81),2	627,(21, 81),2	629,(36, 81),2	631,(5, 9),2	633,(5, 47),6	639,(5, 50),28	667,(5, 53),68	735,(5, 56),2	737,(13, 81),2	739,(19, 81),2	741,(65, 81),2	743,(67, 81),2	745,(33, 81),2	747,(31, 81),2	749,(7, 24),8	757,(7, 45),2	759,(7, 47),2	761,(7, 50),2	763,(7, 63),2	765,(10, 81),2	767,(20, 81),2	769,(40, 81),2	771,(68, 81),2	773,(39, 81),2	775,(17, 81),2	777,(23, 81),2	779,(8, 48),12	791,(8, 54),2	793,(8, 60),4	797,(8, 61),8	805,(41, 81),2	807,(12, 81),2	809,(64, 81),2	811,(74, 81),2	813,(42, 81),2	815,(73, 81),2	817,(30, 81),2	819,(49, 81),2	821,(66, 81),2	823,(72, 81),2	825,(75, 81),2	827,(46, 81),2	829,(62, 81),2	831,(71, 81),2	
1,(0, 1),18	
19,(0, 2),18	
55,(0, 5),18	109,(6, 12),2	
73,(0, 7),18	
91,(0, 8),18	
37,(0, 4),18	

409,(6, 75),8	463,(3, 46),2	465,(3, 62),2	467,(3, 71),2	
197,(6, 30),2	225,(6, 49),2	395,(6, 66),12	407,(6, 72),2	
# Outgoing

197,(1, 51),2	225,(15, 81),2	395,(28, 81),2	397,(69, 81),2	399,(80, 81),2	401,(78, 81),2	403,(38, 81),2	405,(77, 81),2	407,(37, 81),2	409,(25, 81),2	411,(34, 81),2	
413,(2, 24),2	415,(2, 52),2	463,(2, 60),6	473,(2, 44),18	491,(2, 55),104	595,(2, 58),8	603,(14, 81),2	605,(35, 81),2	607,(76, 81),2	609,(79, 81),2	611,(70, 81),2	613,(16, 81),2	615,(43, 81),2	
631,(5, 9),2	633,(5, 47),6	639,(5, 50),28	667,(5, 53),68	735,(5, 56),2	737,(13, 81),2	739,(19, 81),2	741,(65, 81),2	743,(67, 81),2	745,(33, 81),2	747,(31, 81),2	807,(12, 81),2	
749,(7, 24),8	757,(7, 45),2	759,(7, 47),2	761,(7, 50),2	763,(7, 63),2	765,(10, 81),2	767,(20, 81),2	769,(40, 81),2	771,(68, 81),2	773,(39, 81),2	775,(17, 81),2	777,(23, 81),2	
779,(8, 48),12	791,(8, 54),2	793,(8, 60),4	797,(8, 61),8	805,(41, 81),2	809,(64, 81),2	811,(74, 81),2	813,(42, 81),2	815,(73, 81),2	
617,(4, 51),2	619,(4, 59),4	623,(11, 81),2	625,(29, 81),2	627,(21, 81),2	629,(36, 81),2	
1,(0, 1),18	19,(0, 2),18	37,(0, 4),18	55,(0, 5),18	73,(0, 7),18	91,(0, 8),18	109,(6, 12),2	111,(6, 22),42	153,(6, 27),44	197,(6, 30),2	199,(6, 32),26	225,(6, 49),2	227,(6, 58),168	395,(6, 66),12	407,(6, 72),2	409,(6, 75),8	417,(3, 26),46	463,(3, 46),2	465,(3, 62),2	467,(3, 71),2	469,(18, 81),2	471,(57, 81),2	
825,(75, 81),2	827,(46, 81),2	829,(62, 81),2	831,(71, 81),2	
817,(30, 81),2	819,(49, 81),2	821,(66, 81),2	823,(72, 81),2	
