308
# CPU
147,7,8	167,12,8	235,17,8	
195,11,8	217,6,8	225,16,8	
139,5,8	149,10,8	201,15,8	297,20,8	
107,2,8	115,4,8	123,9,8	197,14,8	245,19,8	
0,0,1	1,1,8	9,8,8	17,13,8	147,3,8	169,18,8	307,21,1	
# Incoming
139,(1, 7),8	149,(2, 12),18	201,(1, 17),34	
147,(1, 11),48	195,(2, 6),22	217,(2, 16),2	
107,(1, 5),32	147,(2, 10),2	197,(1, 15),4	245,(1, 20),52	
1,(0, 2),106	195,(1, 14),2	235,(1, 19),10	
115,(2, 3),32	147,(5, 21),2	155,(7, 21),2	157,(10, 21),2	167,(2, 18),2	169,(4, 21),2	171,(9, 21),2	175,(12, 21),2	203,(11, 21),2	209,(15, 21),2	219,(14, 21),2	225,(6, 21),2	233,(16, 21),2	243,(17, 21),2	253,(19, 21),2	305,(20, 21),2	
# Outgoing
155,(7, 21),2	175,(12, 21),2	243,(17, 21),2	
203,(11, 21),2	225,(6, 21),2	233,(16, 21),2	
147,(5, 21),2	157,(10, 21),2	209,(15, 21),2	305,(20, 21),2	
115,(2, 3),32	147,(2, 10),2	149,(2, 12),18	167,(2, 18),2	169,(4, 21),2	171,(9, 21),2	195,(2, 6),22	217,(2, 16),2	219,(14, 21),2	253,(19, 21),2	
1,(0, 2),106	107,(1, 5),32	139,(1, 7),8	147,(1, 11),48	195,(1, 14),2	197,(1, 15),4	201,(1, 17),34	235,(1, 19),10	245,(1, 20),52	
