5171
# CPU
7,3,10	17,6,10	27,75,10	37,9,10	47,12,10	57,81,10	67,18,10	77,24,10	87,117,10	157,63,10	646,66,10	697,96,10	715,30,10	757,114,10	877,27,10	919,36,10	934,51,10	982,69,10	1093,108,10	1153,15,10	1163,84,10	1173,90,10	1231,99,10	1273,120,10	1333,39,10	1396,42,10	1411,48,10	1522,54,10	1532,57,10	1542,60,10	1552,72,10	1562,78,10	1572,102,10	1651,111,10	1661,33,10	1671,87,10	1744,93,10	1933,21,10	2014,45,10	2233,105,10	
4,2,10	14,5,10	24,89,10	34,8,10	44,11,10	54,29,10	64,41,10	74,110,10	84,98,10	94,101,10	247,68,10	679,92,10	787,20,10	797,26,10	811,107,10	859,62,10	1114,65,10	1174,71,10	1438,50,10	2002,59,10	2023,44,10	2128,86,10	2179,35,10	2248,14,10	2284,77,10	2497,17,10	2507,53,10	2517,74,10	2530,80,10	2540,95,10	2550,104,10	2560,113,10	2570,119,10	2581,23,10	2632,32,10	2671,38,10	2689,47,10	2740,56,10	2752,83,10	2764,116,10	
0,0,1	1,10,10	11,7,10	21,1,10	31,4,10	41,64,10	51,76,10	61,16,10	71,37,10	81,67,10	247,55,10	1525,40,10	1535,13,10	1552,49,10	1562,61,10	1603,85,10	1613,88,10	1699,46,10	1756,91,10	1766,100,10	2131,22,10	2141,28,10	2335,79,10	2353,82,10	2374,94,10	2437,97,10	2455,115,10	4240,112,10	4250,25,10	4300,31,10	4342,73,10	4352,106,10	4362,109,10	4372,118,10	4621,19,10	4696,43,10	4706,34,10	4726,52,10	4798,58,10	4981,70,10	4996,103,10	5170,121,1	
# Incoming
4,(0, 3),3	10,(0, 6),3	16,(0, 9),3	19,(2, 18),3	22,(0, 12),3	25,(2, 24),6	43,(10, 24),3	46,(10, 39),3	76,(10, 51),21	97,(10, 57),3	100,(10, 60),54	154,(10, 63),3	157,(10, 66),489	646,(2, 27),27	673,(2, 72),3	676,(5, 36),3	679,(5, 45),3	682,(10, 96),15	697,(10, 102),3	700,(2, 30),12	712,(8, 30),3	715,(10, 114),42	757,(2, 42),63	820,(2, 69),24	844,(2, 78),18	862,(7, 21),12	874,(7, 27),3	877,(7, 36),42	919,(5, 51),15	934,(5, 60),6	940,(5, 69),42	982,(5, 99),33	1015,(5, 102),60	1075,(5, 108),18	1093,(11, 15),60	1153,(11, 84),3	1156,(11, 87),3	1159,(11, 90),9	1174,(7, 99),57	1231,(7, 120),42	1273,(1, 33),45	1318,(1, 39),15	1333,(1, 42),63	1396,(1, 48),15	1438,(1, 54),84	1522,(1, 57),3	1525,(1, 60),3	1528,(1, 72),18	1546,(1, 78),6	1552,(1, 102),12	1564,(1, 111),87	1651,(4, 33),3	1654,(4, 45),3	1657,(4, 87),12	1669,(4, 93),75	1771,(11, 21),162	1933,(11, 45),81	2158,(11, 105),75	
1,(0, 2),3	7,(0, 5),3	13,(0, 8),3	19,(0, 11),3	22,(3, 17),3	25,(10, 23),18	43,(6, 116),3	49,(10, 44),15	64,(10, 47),12	76,(3, 20),18	94,(3, 62),15	109,(3, 68),138	247,(3, 71),60	307,(3, 77),12	319,(3, 80),30	349,(3, 107),93	442,(9, 26),3	445,(9, 35),3	448,(9, 44),3	646,(10, 71),30	676,(10, 92),3	679,(10, 95),3	700,(10, 104),15	757,(7, 20),30	787,(7, 26),3	790,(7, 44),15	805,(7, 107),6	811,(1, 38),9	820,(1, 47),33	853,(1, 74),3	856,(4, 62),3	919,(7, 65),195	1114,(7, 71),60	1411,(1, 50),27	1525,(3, 44),411	1936,(1, 59),66	2002,(4, 32),9	2011,(4, 44),12	2026,(3, 116),21	2047,(3, 119),15	2062,(1, 80),60	2122,(4, 86),6	2134,(6, 35),45	2179,(4, 14),69	2248,(4, 77),36	2374,(6, 95),24	2437,(6, 113),15	2458,(9, 17),39	2497,(9, 53),9	2506,(9, 74),3	2509,(9, 80),21	2530,(9, 95),3	2533,(9, 104),12	2545,(9, 113),9	2554,(9, 119),3	2557,(12, 23),24	2581,(12, 32),51	2632,(12, 38),39	2671,(12, 47),18	2689,(12, 56),51	2740,(12, 83),12	2752,(12, 116),12	
31,(2, 25),141	172,(2, 49),42	214,(2, 52),12	226,(2, 55),21	247,(2, 94),78	325,(2, 97),111	436,(2, 106),9	445,(2, 109),6	451,(3, 19),12	463,(3, 22),36	499,(3, 31),48	547,(3, 34),789	1336,(3, 40),189	1525,(5, 13),9	1534,(5, 43),15	1549,(5, 49),3	1552,(5, 61),6	1558,(5, 85),45	1603,(5, 88),3	1606,(89, 121),3	1609,(8, 31),24	1633,(8, 46),66	1699,(8, 58),45	1744,(8, 91),12	1756,(8, 100),3	1759,(8, 118),12	1936,(3, 73),69	2005,(3, 103),3	2008,(3, 112),18	2026,(11, 28),36	2062,(6, 22),69	2131,(6, 28),3	2134,(11, 34),6	2140,(11, 58),18	2179,(6, 70),3	2182,(6, 73),150	2332,(6, 79),3	2335,(6, 82),18	2353,(6, 94),21	2374,(11, 115),3	2377,(29, 121),3	2380,(41, 121),3	2383,(110, 121),3	2386,(98, 121),3	2389,(101, 121),3	2392,(68, 121),3	2395,(92, 121),3	2398,(6, 97),39	2437,(20, 121),3	2440,(26, 121),3	2443,(107, 121),3	2446,(62, 121),3	2449,(65, 121),3	2452,(6, 115),3	2455,(75, 121),3	2458,(8, 112),1782	4240,(9, 25),9	4249,(9, 31),51	4300,(9, 73),42	4342,(9, 106),3	4345,(9, 109),9	4354,(9, 118),15	4369,(11, 19),252	4621,(11, 43),75	4696,(12, 34),3	4699,(12, 52),27	4726,(12, 58),72	4798,(12, 70),183	4981,(12, 103),15	4996,(81, 121),3	4999,(18, 121),3	5002,(24, 121),3	5005,(117, 121),3	5008,(63, 121),3	5011,(66, 121),3	5014,(96, 121),3	5017,(30, 121),3	5020,(114, 121),3	5023,(27, 121),3	5026,(36, 121),3	5029,(51, 121),3	5032,(69, 121),3	5035,(108, 121),3	5038,(15, 121),3	5041,(84, 121),3	5044,(90, 121),3	5047,(71, 121),3	5050,(99, 121),3	5053,(120, 121),3	5056,(39, 121),3	5059,(42, 121),3	5062,(48, 121),3	5065,(50, 121),3	5068,(54, 121),3	5071,(57, 121),3	5074,(60, 121),3	5077,(72, 121),3	5080,(78, 121),3	5083,(102, 121),3	5086,(111, 121),3	5089,(33, 121),3	5092,(87, 121),3	5095,(93, 121),3	5098,(21, 121),3	5101,(59, 121),3	5104,(45, 121),3	5107,(44, 121),3	5110,(86, 121),3	5113,(35, 121),3	5116,(105, 121),3	5119,(14, 121),3	5122,(77, 121),3	5125,(17, 121),3	5128,(53, 121),3	5131,(74, 121),3	5134,(80, 121),3	5137,(95, 121),3	5140,(104, 121),3	5143,(113, 121),3	5146,(119, 121),3	5149,(23, 121),3	5152,(32, 121),3	5155,(38, 121),3	5158,(47, 121),3	5161,(56, 121),3	5164,(83, 121),3	5167,(116, 121),3	
# Outgoing
22,(3, 17),3	43,(6, 116),3	76,(3, 20),18	94,(3, 62),15	109,(3, 68),138	247,(3, 71),60	307,(3, 77),12	319,(3, 80),30	349,(3, 107),93	442,(9, 26),3	445,(9, 35),3	448,(9, 44),3	451,(3, 19),12	463,(3, 22),36	499,(3, 31),48	547,(3, 34),789	1336,(3, 40),189	1525,(3, 44),411	1936,(3, 73),69	2005,(3, 103),3	2008,(3, 112),18	2026,(3, 116),21	2047,(3, 119),15	2062,(6, 22),69	2131,(6, 28),3	2134,(6, 35),45	2179,(6, 70),3	2182,(6, 73),150	2332,(6, 79),3	2335,(6, 82),18	2353,(6, 94),21	2374,(6, 95),24	2398,(6, 97),39	2437,(6, 113),15	2452,(6, 115),3	2455,(75, 121),3	2458,(9, 17),39	2497,(9, 53),9	2506,(9, 74),3	2509,(9, 80),21	2530,(9, 95),3	2533,(9, 104),12	2545,(9, 113),9	2554,(9, 119),3	2557,(12, 23),24	2581,(12, 32),51	2632,(12, 38),39	2671,(12, 47),18	2689,(12, 56),51	2740,(12, 83),12	2752,(12, 116),12	4240,(9, 25),9	4249,(9, 31),51	4300,(9, 73),42	4342,(9, 106),3	4345,(9, 109),9	4354,(9, 118),15	4696,(12, 34),3	4699,(12, 52),27	4726,(12, 58),72	4798,(12, 70),183	4981,(12, 103),15	4996,(81, 121),3	4999,(18, 121),3	5002,(24, 121),3	5005,(117, 121),3	5008,(63, 121),3	5011,(66, 121),3	5014,(96, 121),3	5017,(30, 121),3	5020,(114, 121),3	5023,(27, 121),3	5026,(36, 121),3	5029,(51, 121),3	5032,(69, 121),3	5035,(108, 121),3	5038,(15, 121),3	5041,(84, 121),3	5044,(90, 121),3	5050,(99, 121),3	5053,(120, 121),3	5056,(39, 121),3	5059,(42, 121),3	5062,(48, 121),3	5068,(54, 121),3	5071,(57, 121),3	5074,(60, 121),3	5077,(72, 121),3	5080,(78, 121),3	5083,(102, 121),3	5086,(111, 121),3	5089,(33, 121),3	5092,(87, 121),3	5095,(93, 121),3	5098,(21, 121),3	5104,(45, 121),3	5116,(105, 121),3	
19,(2, 18),3	25,(2, 24),6	31,(2, 25),141	172,(2, 49),42	214,(2, 52),12	226,(2, 55),21	247,(2, 94),78	325,(2, 97),111	436,(2, 106),9	445,(2, 109),6	646,(2, 27),27	673,(2, 72),3	676,(5, 36),3	679,(5, 45),3	700,(2, 30),12	712,(8, 30),3	757,(2, 42),63	820,(2, 69),24	844,(2, 78),18	919,(5, 51),15	934,(5, 60),6	940,(5, 69),42	982,(5, 99),33	1015,(5, 102),60	1075,(5, 108),18	1093,(11, 15),60	1153,(11, 84),3	1156,(11, 87),3	1159,(11, 90),9	1525,(5, 13),9	1534,(5, 43),15	1549,(5, 49),3	1552,(5, 61),6	1558,(5, 85),45	1603,(5, 88),3	1606,(89, 121),3	1609,(8, 31),24	1633,(8, 46),66	1699,(8, 58),45	1744,(8, 91),12	1756,(8, 100),3	1759,(8, 118),12	1771,(11, 21),162	1933,(11, 45),81	2026,(11, 28),36	2134,(11, 34),6	2140,(11, 58),18	2158,(11, 105),75	2374,(11, 115),3	2377,(29, 121),3	2380,(41, 121),3	2383,(110, 121),3	2386,(98, 121),3	2389,(101, 121),3	2392,(68, 121),3	2395,(92, 121),3	2437,(20, 121),3	2440,(26, 121),3	2443,(107, 121),3	2446,(62, 121),3	2449,(65, 121),3	2458,(8, 112),1782	4369,(11, 19),252	4621,(11, 43),75	5047,(71, 121),3	5065,(50, 121),3	5101,(59, 121),3	5107,(44, 121),3	5110,(86, 121),3	5113,(35, 121),3	5119,(14, 121),3	5122,(77, 121),3	5125,(17, 121),3	5128,(53, 121),3	5131,(74, 121),3	5134,(80, 121),3	5137,(95, 121),3	5140,(104, 121),3	5143,(113, 121),3	5146,(119, 121),3	5149,(23, 121),3	5152,(32, 121),3	5155,(38, 121),3	5158,(47, 121),3	5161,(56, 121),3	5164,(83, 121),3	5167,(116, 121),3	
1,(0, 2),3	4,(0, 3),3	7,(0, 5),3	10,(0, 6),3	13,(0, 8),3	16,(0, 9),3	19,(0, 11),3	22,(0, 12),3	25,(10, 23),18	43,(10, 24),3	46,(10, 39),3	49,(10, 44),15	64,(10, 47),12	76,(10, 51),21	97,(10, 57),3	100,(10, 60),54	154,(10, 63),3	157,(10, 66),489	646,(10, 71),30	676,(10, 92),3	679,(10, 95),3	682,(10, 96),15	697,(10, 102),3	700,(10, 104),15	715,(10, 114),42	757,(7, 20),30	787,(7, 26),3	790,(7, 44),15	805,(7, 107),6	811,(1, 38),9	820,(1, 47),33	853,(1, 74),3	856,(4, 62),3	862,(7, 21),12	874,(7, 27),3	877,(7, 36),42	919,(7, 65),195	1114,(7, 71),60	1174,(7, 99),57	1231,(7, 120),42	1273,(1, 33),45	1318,(1, 39),15	1333,(1, 42),63	1396,(1, 48),15	1411,(1, 50),27	1438,(1, 54),84	1522,(1, 57),3	1525,(1, 60),3	1528,(1, 72),18	1546,(1, 78),6	1552,(1, 102),12	1564,(1, 111),87	1651,(4, 33),3	1654,(4, 45),3	1657,(4, 87),12	1669,(4, 93),75	1936,(1, 59),66	2002,(4, 32),9	2011,(4, 44),12	2062,(1, 80),60	2122,(4, 86),6	2179,(4, 14),69	2248,(4, 77),36	
