489
# CPU
0,0,1	1,1,1	2,38,1	3,68,1	4,15,1	5,39,1	6,40,1	7,3,1	8,30,1	9,62,1	10,69,1	11,66,1	12,11,1	13,8,1	14,10,1	15,16,1	16,60,1	17,46,1	18,70,1	19,58,1	20,64,1	21,54,1	22,6,1	23,52,1	24,56,1	25,7,1	26,32,1	27,22,1	28,55,1	29,20,1	30,74,1	31,51,1	32,73,1	33,71,1	34,72,1	35,5,1	36,65,1	37,12,1	38,59,1	39,75,1	40,17,1	41,49,1	42,50,1	43,27,1	44,41,1	45,61,1	46,42,1	47,47,1	48,4,1	49,78,1	50,34,1	51,26,1	52,53,1	53,79,1	54,24,1	55,25,1	56,9,1	57,37,1	58,48,1	59,63,1	60,43,1	61,23,1	62,44,1	63,31,1	64,67,1	67,35,1	107,13,1	151,33,1	199,57,1	267,19,1	487,45,1	488,81,1	

21,2,1	22,14,1	23,76,1	24,80,1	25,36,1	26,28,1	29,29,1	40,21,1	44,18,1	53,77,1	







# Incoming
23,(14, 81),4	27,(76, 81),4	31,(80, 81),4	35,(36, 81),4	39,(28, 81),4	43,(29, 81),4	47,(21, 81),4	51,(18, 81),4	55,(77, 81),4	59,(2, 67),4	63,(2, 35),4	67,(2, 13),40	107,(2, 33),44	151,(2, 57),48	199,(2, 19),68	267,(2, 45),220	

1,(0, 2),20	21,(8, 28),4	25,(8, 29),4	36,(5, 21),4	40,(5, 18),4	49,(4, 77),4	







# Outgoing
1,(0, 2),20	21,(8, 28),4	25,(8, 29),4	36,(5, 21),4	40,(5, 18),4	49,(4, 77),4	

23,(14, 81),4	27,(76, 81),4	31,(80, 81),4	35,(36, 81),4	39,(28, 81),4	43,(29, 81),4	47,(21, 81),4	51,(18, 81),4	55,(77, 81),4	59,(2, 67),4	63,(2, 35),4	67,(2, 13),40	107,(2, 33),44	151,(2, 57),48	199,(2, 19),68	267,(2, 45),220	







