16344
# CPU
37,7,6	11663,15,6	14511,35,6	14793,14,6	14965,55,6	15253,42,6	15259,61,6	15337,86,6	15421,92,6	15427,94,6	15489,19,6	15587,27,6	15593,34,6	15599,36,6	15615,46,6	15621,67,6	15627,70,6	15639,88,6	15653,98,6	15659,107,6	15665,111,6	15685,114,6	15691,119,6	16343,121,1	
19,4,6	25,5,6	12035,32,6	12119,51,6	12365,23,6	12571,39,6	12619,69,6	12659,76,6	12769,25,6	12831,72,6	12837,74,6	12863,109,6	12907,60,6	12921,24,6	12945,47,6	12951,75,6	12967,90,6	12973,118,6	12979,56,6	13013,103,6	13019,78,6	13115,113,6	13123,115,6	
7,1,6	43,10,6	49,11,6	555,110,6	11801,57,6	11813,58,6	12209,66,6	12333,97,6	12349,106,6	12407,38,6	12413,41,6	12635,84,6	12645,95,6	12713,116,6	12719,117,6	12759,20,6	12765,21,6	12771,40,6	12787,28,6	12809,37,6	12825,49,6	12885,52,6	12929,71,6	12941,73,6	12947,85,6	12957,82,6	12963,89,6	
13,2,6	31,6,6	55,12,6	441,93,6	11829,63,6	11983,31,6	12335,83,6	12523,29,6	12529,30,6	12535,44,6	12561,96,6	12617,68,6	12709,81,6	12865,112,6	12907,120,6	12913,13,6	12925,26,6	12935,43,6	12979,62,6	13009,65,6	13029,79,6	13035,87,6	13077,100,6	13095,105,6	13101,108,6	
0,0,1	1,8,6	7,3,6	13,9,6	19,16,6	12011,18,6	12357,54,6	12553,59,6	12757,17,6	12823,48,6	12899,80,6	12913,22,6	12933,33,6	12939,45,6	12951,50,6	12969,53,6	12981,64,6	13015,77,6	13033,91,6	13079,101,6	13085,102,6	13091,104,6	13111,99,6	
# Incoming
31,(0, 7),6	47,(4, 27),2	49,(4, 35),6	55,(8, 14),6	61,(8, 19),22	117,(4, 42),14	133,(8, 34),6	139,(8, 35),42	181,(4, 61),8	189,(4, 67),6	207,(4, 88),10	217,(4, 98),2	219,(8, 42),360	579,(5, 34),2	581,(5, 55),2	583,(5, 88),2	585,(8, 46),10	595,(4, 94),8	603,(4, 111),10	613,(5, 107),2	617,(8, 61),2	619,(8, 67),188	807,(8, 70),8	815,(4, 119),8	823,(5, 35),6	833,(8, 86),12	845,(5, 114),10	855,(8, 88),38	893,(8, 92),18	911,(8, 94),110	1031,(8, 98),2	1033,(5, 94),18	1065,(8, 107),28	1097,(8, 114),14	1111,(8, 119),8572	9701,(3, 14),86	9787,(3, 15),2	9789,(3, 19),34	9839,(3, 34),1092	10967,(3, 42),110	11083,(3, 46),28	11145,(3, 55),146	11331,(3, 61),14	11345,(4, 36),58	11403,(5, 14),90	11511,(3, 88),12	11557,(3, 92),4	11573,(3, 107),32	11607,(3, 111),2	11609,(5, 15),54	11701,(3, 119),2	11703,(1, 14),248	11951,(9, 19),24	11975,(9, 42),4	11979,(9, 114),4	11983,(1, 35),14	11997,(1, 36),2	11999,(1, 42),4	12003,(2, 27),2	12007,(1, 46),62	12069,(9, 46),34	12103,(9, 86),14	12117,(2, 42),2	12119,(2, 94),2	12123,(2, 114),2	12127,(1, 55),106	12233,(2, 111),8	12241,(6, 67),2	12243,(1, 61),2	12245,(9, 61),46	12291,(16, 121),8	12299,(1, 70),2	12301,(9, 107),14	12315,(9, 119),12	12327,(18, 121),8	12349,(6, 19),6	12355,(32, 121),8	12365,(1, 92),16	12381,(1, 94),2	12383,(1, 98),4	12387,(6, 34),12	12403,(1, 107),32	12439,(1, 111),30	12469,(51, 121),8	12477,(1, 114),4	12481,(6, 42),12	12493,(1, 119),4	12497,(9, 70),402	12899,(9, 92),70	12969,(9, 94),80	13049,(9, 98),194	13243,(2, 34),112	13355,(2, 98),190	13545,(5, 27),70	13615,(5, 36),304	13919,(5, 42),348	14267,(5, 46),114	14381,(5, 70),116	14497,(6, 35),14	14511,(6, 46),34	14545,(6, 70),28	14573,(6, 86),68	14641,(6, 92),2	14643,(6, 94),2	14645,(6, 98),90	14735,(6, 107),10	14745,(6, 114),2	14747,(6, 119),18	14765,(10, 14),28	14793,(10, 27),128	14921,(10, 36),6	14927,(10, 42),2	14929,(10, 46),30	14959,(10, 55),6	14965,(10, 61),4	14969,(10, 88),6	14975,(10, 92),10	14985,(10, 114),2	14987,(10, 119),24	15011,(11, 19),6	15017,(11, 27),30	15047,(11, 34),10	15057,(11, 36),190	15247,(11, 42),6	15253,(11, 46),2	15255,(11, 61),2	15257,(11, 67),4	15261,(11, 70),6	15267,(11, 86),70	15337,(11, 88),22	15359,(11, 92),62	15421,(11, 94),6	15427,(11, 98),12	15439,(11, 107),14	15453,(11, 114),28	15481,(12, 19),8	15489,(12, 27),98	15587,(12, 34),2	15589,(12, 36),4	15593,(12, 46),22	15615,(12, 67),2	15617,(12, 70),2	15619,(12, 88),20	15639,(12, 98),14	15653,(12, 107),4	15657,(12, 111),4	15661,(12, 114),24	15685,(12, 119),2	15687,(93, 121),8	15695,(110, 121),8	15703,(57, 121),8	15711,(58, 121),8	15719,(63, 121),8	15727,(31, 121),8	15735,(66, 121),8	15743,(97, 121),8	15751,(83, 121),8	15759,(106, 121),8	15767,(54, 121),8	15775,(23, 121),8	15783,(38, 121),8	15791,(41, 121),8	15799,(29, 121),8	15807,(30, 121),8	15815,(44, 121),8	15823,(59, 121),8	15831,(96, 121),8	15839,(39, 121),8	15847,(68, 121),8	15855,(69, 121),8	15863,(84, 121),8	15871,(95, 121),8	15879,(76, 121),8	15887,(81, 121),8	15895,(116, 121),8	15903,(117, 121),8	15911,(17, 121),8	15919,(20, 121),8	15927,(21, 121),8	15935,(25, 121),8	15943,(40, 121),8	15951,(28, 121),8	15959,(37, 121),8	15967,(48, 121),8	15975,(49, 121),8	15983,(72, 121),8	15991,(74, 121),8	15999,(109, 121),8	16007,(112, 121),8	16015,(52, 121),8	16023,(80, 121),8	16031,(60, 121),8	16039,(120, 121),8	16047,(13, 121),8	16055,(22, 121),8	16063,(24, 121),8	16071,(26, 121),8	16079,(71, 121),8	16087,(33, 121),8	16095,(43, 121),8	16103,(45, 121),8	16111,(73, 121),8	16119,(47, 121),8	16127,(85, 121),8	16135,(50, 121),8	16143,(75, 121),8	16151,(82, 121),8	16159,(89, 121),8	16167,(90, 121),8	16175,(53, 121),8	16183,(118, 121),8	16191,(62, 121),8	16199,(56, 121),8	16207,(64, 121),8	16215,(65, 121),8	16223,(103, 121),8	16231,(77, 121),8	16239,(78, 121),8	16247,(79, 121),8	16255,(91, 121),8	16263,(87, 121),8	16271,(100, 121),8	16279,(101, 121),8	16287,(102, 121),8	16295,(104, 121),8	16303,(105, 121),8	16311,(108, 121),8	16319,(99, 121),8	16327,(113, 121),8	16335,(115, 121),8	
13,(0, 4),6	19,(0, 5),6	99,(8, 23),14	181,(8, 39),30	237,(7, 23),8	245,(7, 24),2	249,(7, 32),48	297,(7, 39),4	305,(7, 56),6	331,(7, 60),4	335,(7, 69),2	343,(7, 75),4	347,(7, 78),2	383,(7, 51),12	403,(7, 76),8	419,(7, 113),4	429,(7, 115),4	471,(7, 90),22	595,(8, 47),20	815,(8, 75),2	1039,(8, 103),26	1095,(8, 113),2	9823,(3, 23),2	9825,(3, 25),4	9837,(3, 32),2	11111,(3, 47),20	11131,(3, 51),14	11291,(3, 56),2	11329,(3, 60),2	11391,(3, 69),32	11427,(3, 74),2	11429,(3, 75),2	11431,(3, 78),18	11533,(3, 90),24	11665,(3, 113),6	11671,(3, 115),8	11719,(9, 24),14	11745,(9, 47),10	11757,(9, 51),24	11781,(9, 56),12	11831,(9, 69),2	11835,(9, 78),32	11935,(9, 90),6	11947,(9, 113),4	11953,(1, 23),18	11971,(1, 24),8	11979,(1, 25),2	12021,(2, 24),6	12027,(2, 25),4	12031,(9, 118),2	12033,(2, 32),2	12067,(2, 56),2	12073,(2, 72),8	12081,(2, 78),12	12115,(1, 51),4	12121,(2, 109),2	12125,(2, 118),2	12233,(1, 56),2	12235,(1, 60),8	12243,(2, 76),42	12301,(1, 72),14	12315,(1, 75),8	12337,(1, 90),20	12357,(6, 23),8	12371,(6, 24),2	12373,(6, 25),12	12385,(6, 39),2	12389,(1, 103),4	12411,(6, 47),2	12437,(1, 109),2	12471,(1, 113),6	12477,(6, 60),4	12481,(1, 118),12	12511,(6, 56),8	12519,(6, 69),42	12561,(10, 24),8	12569,(10, 39),2	12571,(10, 56),2	12573,(6, 74),8	12581,(6, 76),16	12597,(6, 78),16	12617,(10, 69),2	12619,(10, 72),12	12631,(10, 74),8	12639,(10, 76),20	12677,(6, 103),14	12693,(6, 115),16	12709,(10, 78),58	12767,(12, 25),2	12817,(12, 47),4	12825,(12, 56),2	12827,(12, 72),4	12831,(12, 74),2	12833,(10, 103),22	12859,(10, 109),4	12865,(10, 113),32	12897,(10, 115),2	12899,(12, 60),8	12913,(11, 24),8	12937,(11, 47),8	12945,(12, 75),6	12961,(12, 90),6	12967,(12, 118),2	12969,(11, 56),4	12979,(12, 78),28	13007,(12, 103),6	13015,(11, 78),2	13097,(11, 113),18	13115,(11, 115),8	
1,(0, 1),6	37,(0, 10),6	43,(0, 11),6	83,(8, 21),16	99,(4, 38),2	101,(4, 40),16	119,(8, 28),12	131,(4, 41),14	145,(4, 49),8	153,(4, 57),6	177,(4, 71),2	179,(4, 85),2	211,(8, 40),8	219,(4, 66),42	291,(4, 82),14	305,(4, 89),4	311,(4, 106),26	337,(7, 37),6	343,(4, 110),8	351,(7, 41),18	369,(7, 49),14	395,(7, 57),2	397,(7, 71),4	401,(7, 73),2	411,(7, 95),8	423,(5, 21),2	425,(7, 117),2	427,(5, 28),2	433,(5, 37),2	435,(5, 38),4	439,(5, 40),2	441,(5, 41),2	443,(7, 66),28	473,(5, 66),30	503,(7, 106),12	515,(7, 116),6	523,(5, 82),10	533,(5, 85),6	539,(5, 89),10	549,(5, 95),2	553,(5, 110),2	555,(5, 117),2	557,(7, 89),36	615,(8, 52),2	823,(8, 84),6	829,(8, 85),4	1021,(8, 95),8	9835,(3, 28),2	10931,(3, 40),2	10933,(3, 41),34	11293,(3, 57),12	11305,(3, 58),24	11423,(3, 71),2	11425,(3, 73),2	11449,(3, 82),10	11459,(3, 84),46	11505,(3, 85),6	11523,(3, 89),10	11561,(3, 97),2	11571,(3, 106),2	11679,(3, 117),22	11703,(9, 20),2	11705,(9, 21),14	11737,(9, 37),2	11739,(9, 38),2	11741,(9, 40),2	11743,(9, 41),2	11755,(9, 49),2	11793,(9, 57),8	11801,(9, 58),12	11829,(9, 66),2	11833,(9, 73),2	11873,(9, 82),18	11933,(9, 89),2	11941,(9, 97),2	11943,(9, 106),2	11995,(9, 117),10	12005,(2, 21),2	12031,(2, 52),2	12041,(2, 37),18	12059,(2, 49),8	12069,(2, 71),4	12093,(2, 82),4	12097,(2, 84),14	12111,(2, 89),2	12113,(2, 95),4	12159,(2, 66),50	12285,(2, 97),48	12333,(2, 106),16	12399,(6, 37),4	12403,(6, 38),4	12407,(6, 41),4	12445,(6, 49),22	12471,(6, 89),4	12493,(6, 52),18	12561,(6, 71),12	12613,(6, 84),22	12635,(6, 95),10	12709,(6, 116),4	12713,(6, 117),4	12757,(12, 20),2	12759,(12, 21),6	12765,(12, 40),2	12769,(12, 28),18	12787,(12, 37),22	12823,(12, 49),2	12873,(12, 52),12	12907,(12, 71),22	12929,(12, 73),12	12941,(12, 85),2	12951,(12, 82),6	12957,(12, 89),4	
7,(0, 2),6	25,(0, 6),6	31,(4, 13),12	43,(4, 26),4	49,(0, 12),6	55,(4, 29),18	73,(4, 31),26	113,(8, 26),6	131,(8, 29),2	159,(4, 62),2	161,(4, 63),8	169,(4, 65),8	195,(4, 81),6	201,(4, 83),4	205,(4, 87),2	207,(7, 13),30	247,(7, 30),2	261,(4, 79),30	301,(7, 44),4	309,(4, 100),2	311,(7, 26),20	337,(4, 108),6	349,(7, 81),2	351,(4, 112),44	395,(5, 13),28	423,(7, 87),2	425,(5, 26),2	427,(7, 100),2	429,(5, 31),4	433,(7, 93),8	443,(5, 44),14	457,(5, 62),6	463,(5, 63),8	471,(5, 65),2	493,(7, 108),10	503,(5, 79),20	523,(7, 120),8	551,(5, 108),2	579,(8, 44),6	817,(8, 81),2	819,(8, 83),4	845,(8, 87),10	1029,(8, 96),2	1033,(8, 100),6	1093,(8, 112),2	9683,(3, 13),18	9829,(3, 26),6	11077,(3, 44),6	11345,(3, 62),28	11373,(3, 63),4	11377,(3, 65),10	11387,(3, 68),4	11563,(3, 105),8	11605,(3, 108),2	11609,(3, 112),56	11733,(9, 26),4	11813,(9, 62),2	11815,(9, 63),14	11867,(9, 81),6	11891,(9, 83),38	11929,(9, 87),4	11945,(9, 108),2	11981,(1, 31),2	11983,(9, 105),12	12003,(1, 44),2	12005,(9, 96),26	12033,(9, 120),8	12117,(9, 112),46	12245,(1, 62),18	12323,(1, 81),8	12331,(1, 83),4	12335,(1, 87),2	12435,(1, 108),2	12469,(1, 112),2	12497,(10, 13),10	12517,(10, 29),6	12523,(10, 30),2	12525,(10, 44),2	12553,(10, 62),6	12559,(10, 96),2	12573,(10, 68),44	12659,(10, 79),32	12691,(10, 81),18	12767,(10, 87),8	12809,(10, 100),16	12855,(10, 105),2	12857,(10, 108),2	12863,(10, 112),2	12899,(10, 120),8	12907,(11, 13),4	12921,(11, 26),4	12933,(11, 43),2	12973,(11, 62),6	12981,(11, 65),28	13017,(11, 79),12	13029,(11, 87),2	13073,(11, 100),4	13085,(11, 105),10	13095,(11, 108),2	
11951,(1, 22),2	11953,(2, 17),50	12003,(4, 18),2	12005,(1, 45),2	12007,(2, 18),4	12011,(2, 22),10	12021,(4, 53),12	12033,(4, 101),2	12035,(2, 33),6	12041,(4, 54),6	12047,(4, 59),6	12053,(4, 77),4	12057,(5, 17),4	12061,(5, 22),2	12063,(5, 33),2	12065,(5, 59),4	12069,(1, 48),46	12115,(5, 77),2	12117,(7, 17),2	12119,(1, 53),8	12127,(2, 53),18	12145,(2, 64),14	12159,(4, 45),46	12205,(5, 102),4	12209,(2, 77),10	12219,(2, 99),2	12221,(2, 104),12	12233,(5, 48),12	12245,(5, 53),8	12253,(5, 54),8	12261,(7, 99),2	12263,(1, 64),36	12299,(5, 50),48	12347,(5, 101),6	12353,(7, 101),2	12355,(6, 54),2	12357,(1, 91),8	12365,(6, 22),6	12371,(7, 102),2	12373,(7, 104),2	12387,(1, 102),2	12393,(1, 104),10	12413,(6, 48),32	12467,(6, 59),4	12475,(6, 91),2	12507,(10, 17),6	12513,(10, 22),4	12527,(10, 48),2	12529,(10, 50),6	12535,(10, 53),12	12547,(10, 59),6	12645,(6, 102),32	12691,(6, 104),2	12717,(12, 17),40	12775,(10, 99),34	12809,(12, 33),8	12821,(12, 48),2	12825,(10, 101),6	12831,(10, 102),2	12833,(12, 45),14	12847,(12, 50),26	12885,(12, 53),8	12893,(12, 80),6	12911,(11, 22),2	12925,(11, 33),8	12935,(11, 45),2	12943,(12, 101),2	12945,(11, 50),6	12951,(11, 53),18	12969,(12, 77),10	12979,(11, 64),2	13009,(11, 77),6	13031,(11, 91),2	13033,(11, 99),40	13077,(11, 101),2	13079,(11, 102),4	13083,(11, 104),2	13085,(12, 99),26	
# Outgoing
207,(7, 13),30	237,(7, 23),8	245,(7, 24),2	247,(7, 30),2	249,(7, 32),48	297,(7, 39),4	301,(7, 44),4	305,(7, 56),6	311,(7, 26),20	331,(7, 60),4	335,(7, 69),2	337,(7, 37),6	343,(7, 75),4	347,(7, 78),2	349,(7, 81),2	351,(7, 41),18	369,(7, 49),14	383,(7, 51),12	395,(7, 57),2	397,(7, 71),4	401,(7, 73),2	403,(7, 76),8	411,(7, 95),8	419,(7, 113),4	423,(7, 87),2	425,(7, 117),2	427,(7, 100),2	429,(7, 115),4	433,(7, 93),8	443,(7, 66),28	471,(7, 90),22	493,(7, 108),10	503,(7, 106),12	515,(7, 116),6	523,(7, 120),8	557,(7, 89),36	12117,(7, 17),2	12261,(7, 99),2	12353,(7, 101),2	12371,(7, 102),2	12373,(7, 104),2	
31,(4, 13),12	43,(4, 26),4	47,(4, 27),2	49,(4, 35),6	55,(4, 29),18	73,(4, 31),26	99,(4, 38),2	101,(4, 40),16	117,(4, 42),14	131,(4, 41),14	145,(4, 49),8	153,(4, 57),6	159,(4, 62),2	161,(4, 63),8	169,(4, 65),8	177,(4, 71),2	179,(4, 85),2	181,(4, 61),8	189,(4, 67),6	195,(4, 81),6	201,(4, 83),4	205,(4, 87),2	207,(4, 88),10	217,(4, 98),2	219,(4, 66),42	261,(4, 79),30	291,(4, 82),14	305,(4, 89),4	309,(4, 100),2	311,(4, 106),26	337,(4, 108),6	343,(4, 110),8	351,(4, 112),44	395,(5, 13),28	423,(5, 21),2	425,(5, 26),2	427,(5, 28),2	429,(5, 31),4	433,(5, 37),2	435,(5, 38),4	439,(5, 40),2	441,(5, 41),2	443,(5, 44),14	457,(5, 62),6	463,(5, 63),8	471,(5, 65),2	473,(5, 66),30	503,(5, 79),20	523,(5, 82),10	533,(5, 85),6	539,(5, 89),10	549,(5, 95),2	551,(5, 108),2	553,(5, 110),2	555,(5, 117),2	579,(5, 34),2	581,(5, 55),2	583,(5, 88),2	595,(4, 94),8	603,(4, 111),10	613,(5, 107),2	815,(4, 119),8	823,(5, 35),6	845,(5, 114),10	1033,(5, 94),18	11345,(4, 36),58	11403,(5, 14),90	11609,(5, 15),54	12003,(4, 18),2	12021,(4, 53),12	12033,(4, 101),2	12041,(4, 54),6	12047,(4, 59),6	12053,(4, 77),4	12057,(5, 17),4	12061,(5, 22),2	12063,(5, 33),2	12065,(5, 59),4	12115,(5, 77),2	12159,(4, 45),46	12205,(5, 102),4	12233,(5, 48),12	12245,(5, 53),8	12253,(5, 54),8	12299,(5, 50),48	12347,(5, 101),6	12355,(32, 121),8	12469,(51, 121),8	13545,(5, 27),70	13615,(5, 36),304	13919,(5, 42),348	14267,(5, 46),114	14381,(5, 70),116	15775,(23, 121),8	15839,(39, 121),8	15855,(69, 121),8	15879,(76, 121),8	15935,(25, 121),8	15983,(72, 121),8	15991,(74, 121),8	15999,(109, 121),8	16031,(60, 121),8	16063,(24, 121),8	16119,(47, 121),8	16143,(75, 121),8	16167,(90, 121),8	16183,(118, 121),8	16199,(56, 121),8	16223,(103, 121),8	16239,(78, 121),8	16327,(113, 121),8	16335,(115, 121),8	
11703,(1, 14),248	11951,(1, 22),2	11953,(1, 23),18	11971,(1, 24),8	11979,(1, 25),2	11981,(1, 31),2	11983,(1, 35),14	11997,(1, 36),2	11999,(1, 42),4	12003,(1, 44),2	12005,(1, 45),2	12007,(1, 46),62	12069,(1, 48),46	12115,(1, 51),4	12119,(1, 53),8	12127,(1, 55),106	12233,(1, 56),2	12235,(1, 60),8	12243,(1, 61),2	12245,(1, 62),18	12263,(1, 64),36	12299,(1, 70),2	12301,(1, 72),14	12315,(1, 75),8	12323,(1, 81),8	12331,(1, 83),4	12335,(1, 87),2	12337,(1, 90),20	12357,(1, 91),8	12365,(1, 92),16	12381,(1, 94),2	12383,(1, 98),4	12387,(1, 102),2	12389,(1, 103),4	12393,(1, 104),10	12403,(1, 107),32	12435,(1, 108),2	12437,(1, 109),2	12439,(1, 111),30	12469,(1, 112),2	12471,(1, 113),6	12477,(1, 114),4	12481,(1, 118),12	12493,(1, 119),4	12497,(10, 13),10	12507,(10, 17),6	12513,(10, 22),4	12517,(10, 29),6	12523,(10, 30),2	12525,(10, 44),2	12527,(10, 48),2	12529,(10, 50),6	12535,(10, 53),12	12547,(10, 59),6	12553,(10, 62),6	12559,(10, 96),2	12561,(10, 24),8	12569,(10, 39),2	12571,(10, 56),2	12573,(10, 68),44	12617,(10, 69),2	12619,(10, 72),12	12631,(10, 74),8	12639,(10, 76),20	12659,(10, 79),32	12691,(10, 81),18	12709,(10, 78),58	12767,(10, 87),8	12775,(10, 99),34	12809,(10, 100),16	12825,(10, 101),6	12831,(10, 102),2	12833,(10, 103),22	12855,(10, 105),2	12857,(10, 108),2	12859,(10, 109),4	12863,(10, 112),2	12865,(10, 113),32	12897,(10, 115),2	12899,(10, 120),8	12907,(11, 13),4	12911,(11, 22),2	12913,(11, 24),8	12921,(11, 26),4	12925,(11, 33),8	12933,(11, 43),2	12935,(11, 45),2	12937,(11, 47),8	12945,(11, 50),6	12951,(11, 53),18	12969,(11, 56),4	12973,(11, 62),6	12979,(11, 64),2	12981,(11, 65),28	13009,(11, 77),6	13015,(11, 78),2	13017,(11, 79),12	13029,(11, 87),2	13031,(11, 91),2	13033,(11, 99),40	13073,(11, 100),4	13077,(11, 101),2	13079,(11, 102),4	13083,(11, 104),2	13085,(11, 105),10	13095,(11, 108),2	13097,(11, 113),18	13115,(11, 115),8	14765,(10, 14),28	14793,(10, 27),128	14921,(10, 36),6	14927,(10, 42),2	14929,(10, 46),30	14959,(10, 55),6	14965,(10, 61),4	14969,(10, 88),6	14975,(10, 92),10	14985,(10, 114),2	14987,(10, 119),24	15011,(11, 19),6	15017,(11, 27),30	15047,(11, 34),10	15057,(11, 36),190	15247,(11, 42),6	15253,(11, 46),2	15255,(11, 61),2	15257,(11, 67),4	15261,(11, 70),6	15267,(11, 86),70	15337,(11, 88),22	15359,(11, 92),62	15421,(11, 94),6	15427,(11, 98),12	15439,(11, 107),14	15453,(11, 114),28	15695,(110, 121),8	15703,(57, 121),8	15711,(58, 121),8	15735,(66, 121),8	15743,(97, 121),8	15759,(106, 121),8	15783,(38, 121),8	15791,(41, 121),8	15863,(84, 121),8	15871,(95, 121),8	15895,(116, 121),8	15903,(117, 121),8	15919,(20, 121),8	15927,(21, 121),8	15943,(40, 121),8	15951,(28, 121),8	15959,(37, 121),8	15975,(49, 121),8	16015,(52, 121),8	16079,(71, 121),8	16111,(73, 121),8	16127,(85, 121),8	16151,(82, 121),8	16159,(89, 121),8	
11953,(2, 17),50	12003,(2, 27),2	12005,(2, 21),2	12007,(2, 18),4	12011,(2, 22),10	12021,(2, 24),6	12027,(2, 25),4	12031,(2, 52),2	12033,(2, 32),2	12035,(2, 33),6	12041,(2, 37),18	12059,(2, 49),8	12067,(2, 56),2	12069,(2, 71),4	12073,(2, 72),8	12081,(2, 78),12	12093,(2, 82),4	12097,(2, 84),14	12111,(2, 89),2	12113,(2, 95),4	12117,(2, 42),2	12119,(2, 94),2	12121,(2, 109),2	12123,(2, 114),2	12125,(2, 118),2	12127,(2, 53),18	12145,(2, 64),14	12159,(2, 66),50	12209,(2, 77),10	12219,(2, 99),2	12221,(2, 104),12	12233,(2, 111),8	12241,(6, 67),2	12243,(2, 76),42	12285,(2, 97),48	12333,(2, 106),16	12349,(6, 19),6	12355,(6, 54),2	12357,(6, 23),8	12365,(6, 22),6	12371,(6, 24),2	12373,(6, 25),12	12385,(6, 39),2	12387,(6, 34),12	12399,(6, 37),4	12403,(6, 38),4	12407,(6, 41),4	12411,(6, 47),2	12413,(6, 48),32	12445,(6, 49),22	12467,(6, 59),4	12471,(6, 89),4	12475,(6, 91),2	12477,(6, 60),4	12481,(6, 42),12	12493,(6, 52),18	12511,(6, 56),8	12519,(6, 69),42	12561,(6, 71),12	12573,(6, 74),8	12581,(6, 76),16	12597,(6, 78),16	12613,(6, 84),22	12635,(6, 95),10	12645,(6, 102),32	12677,(6, 103),14	12691,(6, 104),2	12693,(6, 115),16	12709,(6, 116),4	12713,(6, 117),4	12717,(12, 17),40	12757,(12, 20),2	12759,(12, 21),6	12765,(12, 40),2	12767,(12, 25),2	12769,(12, 28),18	12787,(12, 37),22	12809,(12, 33),8	12817,(12, 47),4	12821,(12, 48),2	12823,(12, 49),2	12825,(12, 56),2	12827,(12, 72),4	12831,(12, 74),2	12833,(12, 45),14	12847,(12, 50),26	12873,(12, 52),12	12885,(12, 53),8	12893,(12, 80),6	12899,(12, 60),8	12907,(12, 71),22	12929,(12, 73),12	12941,(12, 85),2	12943,(12, 101),2	12945,(12, 75),6	12951,(12, 82),6	12957,(12, 89),4	12961,(12, 90),6	12967,(12, 118),2	12969,(12, 77),10	12979,(12, 78),28	13007,(12, 103),6	13085,(12, 99),26	13243,(2, 34),112	13355,(2, 98),190	14497,(6, 35),14	14511,(6, 46),34	14545,(6, 70),28	14573,(6, 86),68	14641,(6, 92),2	14643,(6, 94),2	14645,(6, 98),90	14735,(6, 107),10	14745,(6, 114),2	14747,(6, 119),18	15481,(12, 19),8	15489,(12, 27),98	15587,(12, 34),2	15589,(12, 36),4	15593,(12, 46),22	15615,(12, 67),2	15617,(12, 70),2	15619,(12, 88),20	15639,(12, 98),14	15653,(12, 107),4	15657,(12, 111),4	15661,(12, 114),24	15685,(12, 119),2	15687,(93, 121),8	15719,(63, 121),8	15727,(31, 121),8	15751,(83, 121),8	15799,(29, 121),8	15807,(30, 121),8	15815,(44, 121),8	15831,(96, 121),8	15847,(68, 121),8	15887,(81, 121),8	16007,(112, 121),8	16039,(120, 121),8	16047,(13, 121),8	16071,(26, 121),8	16095,(43, 121),8	16191,(62, 121),8	16215,(65, 121),8	16247,(79, 121),8	16263,(87, 121),8	16271,(100, 121),8	16303,(105, 121),8	16311,(108, 121),8	
1,(0, 1),6	7,(0, 2),6	13,(0, 4),6	19,(0, 5),6	25,(0, 6),6	31,(0, 7),6	37,(0, 10),6	43,(0, 11),6	49,(0, 12),6	55,(8, 14),6	61,(8, 19),22	83,(8, 21),16	99,(8, 23),14	113,(8, 26),6	119,(8, 28),12	131,(8, 29),2	133,(8, 34),6	139,(8, 35),42	181,(8, 39),30	211,(8, 40),8	219,(8, 42),360	579,(8, 44),6	585,(8, 46),10	595,(8, 47),20	615,(8, 52),2	617,(8, 61),2	619,(8, 67),188	807,(8, 70),8	815,(8, 75),2	817,(8, 81),2	819,(8, 83),4	823,(8, 84),6	829,(8, 85),4	833,(8, 86),12	845,(8, 87),10	855,(8, 88),38	893,(8, 92),18	911,(8, 94),110	1021,(8, 95),8	1029,(8, 96),2	1031,(8, 98),2	1033,(8, 100),6	1039,(8, 103),26	1065,(8, 107),28	1093,(8, 112),2	1095,(8, 113),2	1097,(8, 114),14	1111,(8, 119),8572	9683,(3, 13),18	9701,(3, 14),86	9787,(3, 15),2	9789,(3, 19),34	9823,(3, 23),2	9825,(3, 25),4	9829,(3, 26),6	9835,(3, 28),2	9837,(3, 32),2	9839,(3, 34),1092	10931,(3, 40),2	10933,(3, 41),34	10967,(3, 42),110	11077,(3, 44),6	11083,(3, 46),28	11111,(3, 47),20	11131,(3, 51),14	11145,(3, 55),146	11291,(3, 56),2	11293,(3, 57),12	11305,(3, 58),24	11329,(3, 60),2	11331,(3, 61),14	11345,(3, 62),28	11373,(3, 63),4	11377,(3, 65),10	11387,(3, 68),4	11391,(3, 69),32	11423,(3, 71),2	11425,(3, 73),2	11427,(3, 74),2	11429,(3, 75),2	11431,(3, 78),18	11449,(3, 82),10	11459,(3, 84),46	11505,(3, 85),6	11511,(3, 88),12	11523,(3, 89),10	11533,(3, 90),24	11557,(3, 92),4	11561,(3, 97),2	11563,(3, 105),8	11571,(3, 106),2	11573,(3, 107),32	11605,(3, 108),2	11607,(3, 111),2	11609,(3, 112),56	11665,(3, 113),6	11671,(3, 115),8	11679,(3, 117),22	11701,(3, 119),2	11703,(9, 20),2	11705,(9, 21),14	11719,(9, 24),14	11733,(9, 26),4	11737,(9, 37),2	11739,(9, 38),2	11741,(9, 40),2	11743,(9, 41),2	11745,(9, 47),10	11755,(9, 49),2	11757,(9, 51),24	11781,(9, 56),12	11793,(9, 57),8	11801,(9, 58),12	11813,(9, 62),2	11815,(9, 63),14	11829,(9, 66),2	11831,(9, 69),2	11833,(9, 73),2	11835,(9, 78),32	11867,(9, 81),6	11873,(9, 82),18	11891,(9, 83),38	11929,(9, 87),4	11933,(9, 89),2	11935,(9, 90),6	11941,(9, 97),2	11943,(9, 106),2	11945,(9, 108),2	11947,(9, 113),4	11951,(9, 19),24	11975,(9, 42),4	11979,(9, 114),4	11983,(9, 105),12	11995,(9, 117),10	12005,(9, 96),26	12031,(9, 118),2	12033,(9, 120),8	12069,(9, 46),34	12103,(9, 86),14	12117,(9, 112),46	12245,(9, 61),46	12291,(16, 121),8	12301,(9, 107),14	12315,(9, 119),12	12327,(18, 121),8	12497,(9, 70),402	12899,(9, 92),70	12969,(9, 94),80	13049,(9, 98),194	15767,(54, 121),8	15823,(59, 121),8	15911,(17, 121),8	15967,(48, 121),8	16023,(80, 121),8	16055,(22, 121),8	16087,(33, 121),8	16103,(45, 121),8	16135,(50, 121),8	16175,(53, 121),8	16207,(64, 121),8	16231,(77, 121),8	16255,(91, 121),8	16279,(101, 121),8	16287,(102, 121),8	16295,(104, 121),8	16319,(99, 121),8	
