622
# CPU
0,121,1	1,96,6	7,63,6	13,103,6	19,50,6	25,49,6	31,38,6	37,81,6	43,72,6	49,76,6	55,109,6	61,48,6	67,93,6	73,87,6	79,16,6	85,36,6	91,113,6	97,28,6	103,39,6	109,70,6	115,18,6	121,92,6	127,104,6	133,61,6	139,58,6	145,54,6	151,33,6	157,47,6	163,51,6	169,85,6	175,68,6	181,75,6	187,115,6	193,106,6	199,55,6	205,83,6	211,31,6	217,97,6	223,107,6	229,53,6	235,45,6	241,110,6	247,112,6	253,29,6	259,116,6	265,21,6	271,56,6	277,73,6	283,62,6	289,105,6	295,100,6	301,80,6	307,101,6	313,26,6	319,43,6	325,108,6	331,19,6	337,74,6	343,84,6	349,30,6	355,91,6	361,52,6	367,117,6	373,69,6	379,89,6	385,1,6	391,79,6	397,102,6	403,42,6	409,40,6	415,5,6	421,2,6	427,7,6	433,4,6	439,11,6	445,10,6	451,9,6	484,12,6	589,6,6	621,0,1	
11,82,6	21,46,6	31,94,6	41,22,6	51,24,6	61,114,6	71,77,6	81,17,6	91,59,6	101,13,6	111,41,6	121,111,6	131,88,6	141,57,6	151,15,6	161,120,6	171,27,6	181,98,6	191,23,6	201,65,6	211,95,6	221,86,6	231,60,6	241,20,6	251,25,6	261,34,6	271,14,6	281,99,6	291,32,6	301,78,6	311,119,6	321,71,6	331,90,6	341,44,6	351,67,6	361,64,6	371,66,6	381,118,6	391,37,6	401,35,6	427,8,6	491,3,6	
# Incoming
147,(57, 5),2	149,(82, 2),1	150,(77, 2),1	151,(17, 2),1	152,(24, 7),1	153,(13, 7),2	155,(41, 7),2	157,(15, 4),3	160,(111, 10),2	162,(114, 9),1	167,(120, 2),1	168,(120, 10),1	169,(120, 6),3	177,(27, 2),3	187,(98, 2),4	197,(23, 9),3	200,(23, 6),4	207,(65, 2),4	211,(65, 11),5	217,(95, 2),5	222,(95, 7),2	227,(86, 7),6	237,(60, 4),7	247,(20, 11),9	267,(34, 11),5	277,(14, 9),11	288,(34, 12),9	297,(32, 5),13	310,(78, 10),13	323,(119, 10),14	337,(71, 10),16	357,(67, 4),21	378,(44, 11),18	397,(37, 5),1	398,(37, 7),9	407,(64, 9),34	441,(99, 12),11	452,(71, 12),15	467,(90, 12),17	484,(35, 6),105	589,(8, 0),16	605,(3, 0),16	
1,(121, 82),10	11,(121, 46),10	21,(121, 94),10	31,(121, 22),10	41,(121, 24),10	51,(121, 114),10	61,(121, 77),10	71,(121, 17),10	81,(121, 59),10	91,(121, 13),10	101,(121, 41),10	111,(121, 111),10	121,(121, 88),10	131,(121, 57),10	141,(121, 15),10	151,(121, 120),10	161,(121, 27),10	171,(121, 98),10	181,(121, 23),10	191,(121, 65),10	201,(121, 95),10	211,(121, 86),10	221,(121, 60),10	231,(121, 20),10	241,(121, 25),10	251,(121, 34),10	261,(121, 14),10	271,(121, 99),10	281,(121, 32),10	291,(121, 78),10	301,(121, 119),10	311,(121, 71),10	321,(121, 90),10	331,(121, 44),10	341,(121, 67),10	351,(121, 64),10	361,(121, 66),10	371,(121, 118),10	381,(121, 37),10	391,(121, 35),10	401,(61, 8),2	403,(75, 8),4	407,(53, 8),7	414,(100, 8),13	427,(113, 3),1	428,(39, 3),2	430,(54, 3),2	432,(107, 3),3	435,(53, 3),2	437,(45, 3),1	438,(116, 3),9	447,(43, 3),15	462,(108, 3),17	479,(19, 3),12	
# Outgoing
1,(121, 82),10	11,(121, 46),10	21,(121, 94),10	31,(121, 22),10	41,(121, 24),10	51,(121, 114),10	61,(121, 77),10	71,(121, 17),10	81,(121, 59),10	91,(121, 13),10	101,(121, 41),10	111,(121, 111),10	121,(121, 88),10	131,(121, 57),10	141,(121, 15),10	151,(121, 120),10	161,(121, 27),10	171,(121, 98),10	181,(121, 23),10	191,(121, 65),10	201,(121, 95),10	211,(121, 86),10	221,(121, 60),10	231,(121, 20),10	241,(121, 25),10	251,(121, 34),10	261,(121, 14),10	271,(121, 99),10	281,(121, 32),10	291,(121, 78),10	301,(121, 119),10	311,(121, 71),10	321,(121, 90),10	331,(121, 44),10	341,(121, 67),10	351,(121, 64),10	361,(121, 66),10	371,(121, 118),10	381,(121, 37),10	391,(121, 35),10	401,(61, 8),2	403,(75, 8),4	407,(53, 8),7	414,(100, 8),13	427,(113, 3),1	428,(39, 3),2	430,(54, 3),2	432,(107, 3),3	435,(53, 3),2	437,(45, 3),1	438,(116, 3),9	447,(43, 3),15	462,(108, 3),17	479,(19, 3),12	
147,(57, 5),2	149,(82, 2),1	150,(77, 2),1	151,(17, 2),1	152,(24, 7),1	153,(13, 7),2	155,(41, 7),2	157,(15, 4),3	160,(111, 10),2	162,(114, 9),1	167,(120, 2),1	168,(120, 10),1	169,(120, 6),3	177,(27, 2),3	187,(98, 2),4	197,(23, 9),3	200,(23, 6),4	207,(65, 2),4	211,(65, 11),5	217,(95, 2),5	222,(95, 7),2	227,(86, 7),6	237,(60, 4),7	247,(20, 11),9	267,(34, 11),5	277,(14, 9),11	288,(34, 12),9	297,(32, 5),13	310,(78, 10),13	323,(119, 10),14	337,(71, 10),16	357,(67, 4),21	378,(44, 11),18	397,(37, 5),1	398,(37, 7),9	407,(64, 9),34	441,(99, 12),11	452,(71, 12),15	467,(90, 12),17	484,(35, 6),105	589,(8, 0),16	605,(3, 0),16	
