21952
# CPU
41,5,2	81,10,2	121,15,2	161,20,2	5421,133,2	5717,37,2	6035,141,2	6507,174,2	6525,69,2	6699,153,2	6731,33,2	6771,176,2	7611,104,2	7633,186,2	7719,60,2	7723,151,2	11477,79,2	11685,172,2	12747,32,2	12929,52,2	16813,83,2	17137,163,2	17159,55,2	17197,65,2	17259,87,2	19591,51,2	19707,77,2	19755,100,2	19853,115,2	19997,161,2	20075,170,2	20195,43,2	20197,46,2	20203,47,2	20219,49,2	20657,89,2	20763,107,2	20911,135,2	20957,188,2	20959,196,2	20963,54,2	20967,58,2	20971,67,2	20981,71,2	21111,97,2	21163,102,2	21167,112,2	21187,121,2	21277,143,2	21345,145,2	21355,147,2	21357,149,2	21359,156,2	21365,159,2	21371,166,2	21373,178,2	21383,192,2	21389,198,2	21395,39,2	21407,44,2	21409,48,2	21417,53,2	21419,56,2	21427,62,2	21435,73,2	21441,75,2	21493,81,2	21501,85,2	21503,91,2	21515,93,2	21517,95,2	21525,110,2	21531,117,2	21537,119,2	21543,123,2	21549,125,2	21551,127,2	21553,129,2	21555,131,2	21561,137,2	21563,139,2	21571,168,2	21575,180,2	21577,182,2	21579,184,2	21747,190,2	21889,194,2	21947,200,2	
31,4,2	71,9,2	111,14,2	151,19,2	2343,177,2	3693,183,2	5121,80,2	5205,25,2	5297,57,2	5317,160,2	5349,74,2	5359,82,2	5403,92,2	5983,122,2	6035,34,2	6199,59,2	6329,96,2	6347,103,2	6355,167,2	6367,109,2	6381,124,2	6389,136,2	6539,140,2	6543,185,2	6551,144,2	6569,197,2	6571,199,2	6577,61,2	6729,38,2	6751,155,2	6807,175,2	6823,64,2	6843,66,2	6869,72,2	6877,116,2	6879,78,2	6887,76,2	7067,84,2	7073,90,2	7111,171,2	7113,86,2	7115,99,2	7123,169,2	7425,150,2	7427,173,2	7467,118,2	7571,126,2	7573,128,2	7605,130,2	7677,191,2	7689,179,2	7703,146,2	7719,148,2	7727,152,2	7761,94,2	7767,120,2	7791,113,2	7797,138,2	7885,181,2	7903,195,2	7981,88,2	8051,164,2	8099,50,2	9271,29,2	10133,70,2	10253,132,2	10407,142,2	10443,35,2	10481,68,2	10855,105,2	10925,101,2	11003,111,2	11099,158,2	11173,162,2	11193,187,2	11247,189,2	13963,134,2	14025,193,2	21951,201,1	
21,3,2	61,8,2	101,13,2	141,18,2	1153,114,2	1497,31,2	1611,36,2	3799,28,2	6579,23,2	6731,41,2	7117,98,2	7369,106,2	7763,154,2	7767,157,2	
11,2,2	51,7,2	91,12,2	131,17,2	321,27,2	683,24,2	895,108,2	2919,165,2	5139,22,2	5215,30,2	6795,45,2	
0,0,1	1,16,2	3,1,2	5,11,2	7,6,2	343,21,2	711,40,2	1457,26,2	10747,63,2	13925,42,2	
# Incoming
31,(0, 5),10	41,(2, 33),2	43,(4, 43),2	45,(4, 44),6	51,(4, 73),2	53,(3, 39),2	55,(3, 48),2	57,(2, 79),2	59,(2, 81),10	69,(2, 133),2	71,(0, 10),10	81,(2, 43),16	97,(2, 107),8	105,(2, 115),4	109,(2, 145),2	111,(0, 15),10	121,(3, 55),2	123,(3, 69),4	127,(3, 100),10	137,(3, 112),6	143,(3, 121),2	145,(3, 123),2	147,(3, 125),2	149,(3, 143),2	151,(0, 20),10	161,(2, 32),150	311,(2, 91),24	335,(2, 117),6	341,(16, 32),2	343,(2, 161),8	351,(3, 163),4	355,(3, 166),2	357,(2, 178),2	359,(4, 77),2	361,(16, 48),6	367,(16, 51),38	405,(16, 52),160	565,(16, 56),6	571,(2, 196),4	575,(16, 65),140	715,(2, 170),8	723,(3, 168),2	725,(3, 176),2	727,(16, 67),14	741,(2, 135),30	771,(16, 75),2	773,(16, 81),2	775,(16, 83),14	789,(16, 85),2	791,(16, 89),10	801,(3, 115),10	811,(3, 174),10	821,(3, 178),2	823,(16, 117),6	829,(16, 119),30	859,(2, 44),62	921,(2, 166),26	947,(16, 125),1720	2667,(16, 127),2	2669,(3, 182),2	2671,(16, 137),46	2717,(16, 141),4	2721,(2, 71),40	2761,(3, 188),2	2763,(3, 192),4	2767,(4, 39),24	2791,(4, 119),2	2793,(16, 143),30	2823,(16, 145),2	2825,(4, 81),20	2845,(4, 166),2	2847,(4, 176),6	2853,(7, 51),6	2859,(16, 151),10	2869,(7, 65),2	2871,(16, 159),24	2895,(4, 104),20	2915,(7, 71),2	2917,(7, 93),2	2919,(16, 166),2	2921,(16, 168),618	3539,(7, 100),2	3541,(16, 172),6	3547,(4, 182),18	3565,(7, 102),2	3567,(16, 174),8	3575,(16, 180),2	3577,(2, 48),76	3653,(2, 112),36	3689,(3, 81),66	3755,(7, 39),12	3767,(7, 117),2	3769,(16, 190),2	3771,(4, 100),50	3821,(7, 83),4	3825,(7, 161),2	3827,(1, 32),2	3829,(1, 33),28	3857,(8, 39),2	3859,(1, 43),34	3893,(1, 46),2	3895,(1, 53),4	3899,(4, 102),48	3947,(1, 58),4	3951,(2, 73),124	4075,(2, 83),254	4329,(2, 129),126	4455,(2, 153),84	4539,(4, 115),36	4575,(4, 135),50	4625,(7, 123),4	4629,(8, 65),2	4631,(1, 69),18	4649,(1, 71),14	4663,(7, 48),12	4675,(7, 168),6	4681,(1, 79),12	4693,(1, 81),2	4695,(1, 87),2	4697,(1, 91),4	4701,(7, 104),16	4717,(1, 95),16	4733,(4, 141),24	4757,(4, 170),26	4783,(7, 196),4	4787,(8, 89),2	4789,(1, 115),2	4791,(4, 159),42	4833,(7, 107),8	4841,(1, 135),56	4897,(1, 141),58	4955,(1, 143),10	4965,(1, 145),26	4991,(8, 91),2	4993,(1, 149),82	5075,(8, 123),2	5077,(1, 161),4	5081,(7, 58),22	5103,(7, 200),4	5107,(8, 133),2	5109,(1, 186),4	5113,(8, 168),2	5115,(1, 188),6	5121,(4, 131),74	5195,(7, 115),10	5205,(8, 32),4	5209,(8, 46),6	5215,(11, 32),2	5217,(11, 37),2	5219,(11, 39),4	5223,(11, 43),2	5225,(11, 52),16	5241,(11, 53),20	5261,(4, 172),32	5293,(8, 49),4	5297,(11, 60),6	5303,(11, 65),6	5309,(11, 71),22	5331,(7, 125),18	5349,(11, 79),2	5351,(7, 95),30	5381,(7, 133),40	5421,(11, 95),26	5447,(3, 71),132	5579,(4, 53),128	5707,(8, 37),10	5717,(8, 180),2	5719,(8, 198),2	5721,(11, 104),2	5723,(4, 139),84	5807,(8, 71),16	5823,(9, 44),2	5825,(9, 53),2	5827,(11, 107),2	5829,(9, 54),2	5831,(11, 119),2	5833,(4, 174),82	5915,(7, 151),28	5943,(8, 81),34	5977,(8, 129),6	5983,(11, 123),14	5997,(8, 147),16	6013,(9, 51),4	6017,(11, 129),8	6025,(11, 135),6	6031,(9, 121),2	6033,(11, 141),2	6035,(9, 107),4	6039,(11, 145),124	6163,(11, 147),50	6213,(7, 186),46	6259,(9, 129),2	6261,(12, 32),2	6263,(11, 156),4	6267,(9, 139),4	6271,(9, 145),6	6277,(11, 163),74	6351,(12, 33),2	6353,(12, 44),2	6355,(11, 168),52	6407,(12, 48),2	6409,(12, 51),2	6411,(11, 170),14	6425,(11, 172),16	6441,(11, 174),66	6507,(11, 176),16	6523,(12, 69),2	6525,(11, 180),6	6531,(11, 182),8	6539,(12, 107),2	6541,(12, 117),2	6543,(11, 186),8	6551,(11, 190),2	6553,(7, 33),108	6661,(8, 153),38	6699,(8, 166),12	6711,(9, 33),20	6731,(6, 44),14	6745,(8, 176),26	6771,(9, 55),16	6787,(9, 147),8	6795,(6, 46),14	6809,(6, 48),2	6811,(6, 52),26	6837,(12, 81),6	6843,(6, 67),6	6849,(9, 83),20	6869,(6, 75),12	6881,(12, 112),4	6885,(12, 137),2	6887,(6, 77),2	6889,(6, 79),20	6909,(7, 137),98	7007,(8, 60),92	7099,(9, 115),16	7115,(12, 145),4	7119,(12, 192),2	7121,(6, 104),2	7123,(7, 180),242	7365,(12, 198),4	7369,(6, 107),24	7393,(6, 117),34	7427,(8, 93),128	7555,(9, 102),30	7585,(9, 104),26	7611,(9, 127),14	7625,(9, 186),8	7633,(13, 73),2	7635,(6, 135),30	7665,(6, 137),20	7685,(6, 145),4	7689,(9, 163),24	7713,(13, 60),6	7719,(6, 151),4	7723,(9, 135),38	7761,(13, 75),2	7763,(6, 156),2	7765,(12, 52),8	7773,(13, 129),2	7775,(6, 161),6	7781,(6, 178),16	7797,(8, 156),88	7885,(6, 182),2	7887,(6, 184),2	7889,(12, 49),14	7903,(6, 196),40	7943,(6, 200),8	7951,(3, 102),978	8929,(4, 123),1256	10185,(4, 149),688	10873,(8, 79),604	11477,(8, 119),94	11571,(8, 172),114	11685,(8, 182),96	11781,(8, 194),832	12613,(9, 32),134	12747,(9, 52),182	12929,(9, 56),82	13011,(9, 62),3278	16289,(9, 117),212	16501,(12, 47),30	16531,(12, 53),30	16561,(12, 62),92	16653,(12, 71),14	16667,(12, 73),28	16695,(12, 75),94	16789,(12, 83),24	16813,(12, 87),38	16851,(12, 93),22	16873,(12, 95),120	16993,(12, 110),40	17033,(12, 129),10	17043,(12, 143),58	17101,(12, 163),36	17137,(13, 55),22	17159,(13, 65),38	17197,(13, 67),8	17205,(13, 71),20	17225,(13, 87),34	17259,(13, 112),36	17295,(13, 125),102	17397,(13, 131),42	17439,(13, 135),10	17449,(13, 161),40	17489,(13, 170),10	17499,(13, 182),2	17501,(13, 184),62	17563,(13, 192),2	17565,(14, 39),14	17579,(14, 46),16	17595,(14, 47),6	17601,(14, 48),1978	19579,(14, 51),12	19591,(14, 56),2	19593,(14, 62),26	19619,(14, 71),2	19621,(14, 77),86	19707,(14, 95),2	19709,(14, 100),46	19755,(14, 115),98	19853,(14, 125),2	19855,(14, 137),26	19881,(14, 139),14	19895,(14, 143),100	19995,(14, 161),2	19997,(14, 170),78	20075,(14, 182),2	20077,(14, 184),22	20099,(14, 190),56	20155,(14, 192),32	20187,(14, 194),6	20193,(17, 43),2	20195,(17, 46),2	20197,(17, 47),6	20203,(17, 48),14	20217,(17, 49),2	20219,(17, 54),396	20615,(17, 58),14	20629,(17, 73),20	20649,(17, 81),6	20655,(17, 89),2	20657,(17, 95),2	20659,(17, 97),2	20661,(17, 102),98	20759,(17, 107),4	20763,(17, 110),10	20773,(17, 119),2	20775,(17, 121),2	20777,(17, 123),28	20805,(17, 125),62	20867,(17, 135),44	20911,(17, 137),36	20947,(17, 178),2	20949,(17, 180),2	20951,(17, 184),4	20955,(17, 188),2	20957,(17, 196),2	20959,(18, 44),2	20961,(18, 54),2	20963,(18, 56),2	20965,(18, 58),2	20967,(18, 67),4	20971,(18, 71),10	20981,(18, 75),2	20983,(18, 85),6	20989,(18, 91),20	21009,(18, 93),90	21099,(18, 97),12	21111,(18, 102),52	21163,(18, 112),4	21167,(18, 117),8	21175,(18, 121),12	21187,(18, 139),72	21259,(18, 143),18	21277,(18, 145),68	21345,(18, 147),10	21355,(18, 149),2	21357,(18, 156),2	21359,(18, 159),6	21365,(18, 166),6	21371,(18, 178),2	21373,(18, 190),8	21381,(18, 192),2	21383,(18, 198),6	21389,(18, 200),2	21391,(19, 39),4	21395,(19, 44),12	21407,(19, 48),2	21409,(19, 53),8	21417,(19, 56),2	21419,(19, 62),8	21427,(19, 73),8	21435,(19, 75),6	21441,(19, 81),52	21493,(19, 85),8	21501,(19, 91),2	21503,(19, 93),12	21515,(19, 95),2	21517,(19, 110),8	21525,(19, 117),6	21531,(19, 119),6	21537,(19, 123),6	21543,(19, 125),6	21549,(19, 127),2	21551,(19, 129),2	21553,(19, 131),2	21555,(19, 137),6	21561,(19, 139),2	21563,(19, 168),8	21571,(19, 180),4	21575,(19, 182),2	21577,(19, 184),2	21579,(19, 190),168	21747,(19, 194),142	21889,(19, 200),58	
21,(0, 4),10	31,(2, 72),6	37,(2, 74),2	39,(2, 126),2	43,(2, 35),14	57,(3, 34),2	59,(3, 38),2	61,(0, 9),10	71,(2, 92),6	77,(2, 99),4	81,(3, 72),2	83,(3, 94),18	101,(0, 14),10	111,(2, 50),28	139,(2, 140),2	141,(0, 19),10	151,(2, 116),8	159,(3, 57),30	189,(3, 144),8	197,(3, 179),4	201,(3, 189),12	213,(3, 191),2	215,(16, 29),126	341,(3, 195),2	343,(16, 34),8	351,(2, 132),6	357,(3, 140),28	385,(5, 59),8	393,(5, 61),36	429,(5, 72),16	445,(5, 76),4	449,(5, 84),2	451,(5, 86),2	453,(5, 88),2	455,(5, 94),2	457,(2, 59),12	469,(2, 86),56	525,(2, 96),22	547,(2, 124),20	567,(5, 118),2	569,(5, 132),2	571,(16, 59),4	575,(2, 144),6	581,(2, 150),42	623,(2, 162),24	647,(2, 169),6	653,(2, 179),24	677,(2, 187),8	685,(5, 140),2	687,(5, 150),8	695,(5, 173),18	713,(7, 80),2	715,(16, 66),12	727,(8, 25),2	729,(8, 96),2	731,(7, 68),8	739,(7, 96),2	741,(16, 70),30	771,(7, 29),16	787,(7, 94),6	793,(7, 99),8	801,(16, 94),20	821,(5, 134),36	857,(7, 187),2	859,(16, 124),88	947,(2, 120),148	1095,(2, 177),154	1249,(2, 199),58	1307,(3, 68),118	1425,(5, 57),170	1595,(5, 68),126	1721,(5, 128),42	1763,(5, 179),46	1809,(5, 181),36	1845,(7, 34),70	1915,(7, 74),92	2007,(7, 101),32	2039,(7, 103),4	2043,(7, 111),10	2053,(7, 136),6	2059,(7, 138),26	2085,(7, 152),28	2113,(7, 158),6	2119,(7, 171),6	2125,(7, 175),196	2321,(7, 177),22	2343,(7, 183),10	2353,(7, 189),6	2359,(7, 191),2	2361,(7, 193),52	2413,(8, 76),20	2433,(8, 84),26	2459,(8, 90),196	2655,(8, 103),2	2657,(8, 105),4	2661,(8, 126),2	2663,(8, 155),6	2669,(16, 130),2	2671,(8, 92),20	2691,(8, 111),12	2703,(8, 132),14	2717,(8, 158),2	2719,(10, 118),2	2721,(16, 142),72	2793,(8, 140),18	2811,(8, 146),14	2825,(16, 150),34	2859,(8, 169),8	2867,(10, 132),2	2869,(16, 152),2	2871,(8, 109),48	2919,(8, 124),40	2959,(8, 134),38	2997,(8, 152),16	3013,(8, 183),10	3023,(8, 185),102	3125,(8, 189),14	3139,(10, 25),32	3171,(10, 35),334	3505,(10, 66),22	3527,(10, 84),4	3531,(10, 136),6	3537,(10, 146),2	3539,(16, 171),2	3541,(10, 148),2	3543,(10, 160),4	3547,(16, 173),20	3567,(10, 140),10	3577,(16, 181),114	3691,(16, 183),2	3693,(16, 187),76	3769,(10, 68),16	3785,(10, 103),14	3799,(1, 29),12	3811,(10, 92),42	3853,(10, 171),2	3855,(12, 82),2	3857,(1, 35),2	3859,(10, 94),20	3879,(10, 179),6	3885,(12, 50),4	3889,(12, 59),8	3897,(12, 171),2	3899,(1, 57),48	3947,(12, 86),4	3951,(1, 59),2	3953,(1, 66),678	4631,(10, 167),30	4661,(13, 78),2	4663,(1, 74),2	4665,(1, 76),16	4681,(12, 61),14	4695,(12, 64),6	4701,(1, 94),16	4717,(12, 68),8	4725,(12, 76),8	4733,(1, 109),48	4781,(1, 111),8	4789,(13, 82),2	4791,(1, 122),16	4807,(1, 124),34	4841,(10, 181),52	4893,(10, 191),22	4915,(10, 195),34	4949,(12, 38),24	4973,(12, 94),18	4991,(1, 146),2	4993,(12, 78),58	5051,(12, 103),14	5065,(12, 116),6	5071,(12, 150),4	5075,(1, 152),2	5077,(13, 96),2	5079,(13, 101),2	5081,(1, 164),8	5089,(1, 167),14	5103,(1, 171),2	5105,(1, 185),4	5109,(13, 103),4	5113,(1, 187),2	5115,(13, 80),6	5121,(1, 197),2	5123,(12, 146),12	5135,(13, 105),4	5139,(11, 25),32	5171,(12, 124),24	5195,(13, 140),2	5197,(13, 164),2	5199,(13, 179),2	5201,(13, 191),2	5203,(15, 25),2	5205,(12, 99),32	5237,(12, 148),18	5255,(15, 29),2	5257,(15, 72),2	5259,(15, 195),2	5261,(11, 57),36	5297,(12, 160),20	5317,(12, 189),14	5331,(11, 74),18	5349,(17, 35),2	5351,(11, 82),8	5359,(11, 92),44	5403,(11, 94),18	5421,(12, 193),8	5429,(12, 199),20	5449,(11, 103),272	5721,(10, 199),98	5819,(15, 35),6	5825,(15, 76),4	5829,(11, 111),2	5831,(17, 61),2	5833,(11, 122),150	5983,(13, 34),14	5997,(11, 124),16	6013,(11, 128),4	6017,(13, 152),12	6029,(17, 158),2	6031,(11, 136),2	6033,(18, 34),2	6035,(11, 144),4	6039,(12, 191),48	6087,(12, 195),24	6111,(13, 38),16	6127,(13, 113),44	6171,(13, 126),16	6187,(15, 59),12	6199,(15, 78),4	6203,(15, 86),4	6207,(15, 88),6	6213,(11, 148),2	6215,(11, 150),46	6261,(11, 152),2	6263,(13, 130),56	6319,(15, 90),4	6323,(15, 96),6	6329,(15, 99),10	6339,(15, 103),8	6347,(15, 126),4	6351,(11, 167),4	6355,(15, 109),12	6367,(15, 124),14	6381,(15, 136),8	6389,(15, 171),10	6399,(15, 187),4	6403,(17, 195),4	6407,(11, 169),4	6411,(13, 146),54	6465,(13, 173),54	6519,(18, 64),2	6521,(18, 138),2	6523,(11, 179),2	6525,(15, 191),10	6535,(18, 140),4	6539,(11, 185),4	6543,(15, 193),6	6549,(18, 144),2	6551,(18, 191),2	6553,(11, 191),4	6557,(11, 193),2	6559,(11, 197),10	6569,(11, 199),2	6571,(18, 146),4	6575,(20, 61),2	6577,(20, 70),2	6579,(6, 35),2	6581,(6, 38),148	6729,(15, 155),22	6751,(15, 169),22	6773,(15, 175),34	6807,(17, 29),8	6815,(17, 64),8	6823,(17, 99),14	6837,(6, 66),6	6843,(17, 130),6	6849,(6, 72),20	6869,(17, 116),8	6877,(20, 78),2	6879,(20, 84),2	6881,(6, 76),6	6887,(17, 105),16	6903,(17, 152),6	6909,(6, 84),158	7067,(6, 88),4	7071,(6, 90),2	7073,(17, 120),14	7087,(17, 142),10	7097,(17, 171),14	7111,(20, 86),2	7113,(20, 99),2	7115,(20, 105),2	7117,(6, 101),4	7121,(20, 169),2	7123,(6, 105),238	7361,(18, 187),8	7369,(17, 150),56	7425,(20, 173),2	7427,(6, 118),40	7467,(6, 126),104	7571,(6, 128),2	7573,(6, 130),32	7605,(6, 132),30	7635,(17, 179),6	7641,(17, 181),16	7657,(17, 191),20	7677,(18, 70),10	7687,(20, 179),2	7689,(6, 146),14	7703,(6, 148),16	7719,(27, 201),2	7721,(24, 201),2	7723,(6, 152),4	7727,(18, 189),18	7745,(20, 88),10	7755,(20, 94),6	7761,(20, 120),6	7767,(6, 158),8	7775,(20, 113),16	7791,(20, 138),6	7797,(6, 181),88	7885,(108, 201),2	7887,(114, 201),2	7889,(6, 187),8	7897,(6, 193),4	7901,(6, 195),2	7903,(17, 88),78	7981,(17, 164),70	8051,(20, 50),48	8099,(21, 201),2	8101,(40, 201),2	8103,(26, 201),2	8105,(165, 201),2	8107,(22, 201),2	8109,(30, 201),2	8111,(45, 201),2	8929,(13, 29),342	9271,(13, 70),862	10133,(13, 132),120	10253,(13, 142),154	10407,(18, 35),36	10443,(18, 68),38	10481,(18, 105),374	10855,(20, 101),70	10925,(20, 111),78	11003,(20, 134),80	11083,(20, 158),16	11099,(20, 162),74	11173,(20, 187),20	11193,(20, 189),54	11247,(133, 201),2	11249,(37, 201),2	11251,(141, 201),2	11253,(174, 201),2	11255,(69, 201),2	11257,(153, 201),2	11259,(33, 201),2	11261,(176, 201),2	11263,(104, 201),2	11265,(186, 201),2	11267,(60, 201),2	11269,(151, 201),2	11271,(63, 201),2	11479,(79, 201),2	11687,(172, 201),2	12749,(32, 201),2	12931,(52, 201),2	13925,(18, 134),38	13963,(18, 193),62	14025,(31, 201),2	14027,(36, 201),2	14029,(28, 201),2	14031,(23, 201),2	14033,(41, 201),2	14035,(98, 201),2	14037,(106, 201),2	14039,(154, 201),2	14041,(157, 201),2	14043,(42, 201),2	16815,(83, 201),2	17139,(163, 201),2	17161,(55, 201),2	17199,(65, 201),2	17261,(87, 201),2	19593,(51, 201),2	19709,(77, 201),2	19757,(100, 201),2	19855,(115, 201),2	19999,(161, 201),2	20077,(170, 201),2	20197,(43, 201),2	20199,(46, 201),2	20205,(47, 201),2	20221,(49, 201),2	20659,(89, 201),2	20765,(107, 201),2	20913,(135, 201),2	20959,(188, 201),2	20961,(196, 201),2	20965,(54, 201),2	20969,(58, 201),2	20973,(67, 201),2	20983,(71, 201),2	21113,(97, 201),2	21165,(102, 201),2	21169,(112, 201),2	21189,(121, 201),2	21279,(143, 201),2	21347,(145, 201),2	21357,(147, 201),2	21359,(149, 201),2	21361,(156, 201),2	21367,(159, 201),2	21373,(166, 201),2	21375,(178, 201),2	21385,(192, 201),2	21391,(198, 201),2	21397,(39, 201),2	21409,(44, 201),2	21411,(48, 201),2	21419,(53, 201),2	21421,(56, 201),2	21429,(62, 201),2	21437,(73, 201),2	21443,(75, 201),2	21495,(81, 201),2	21503,(85, 201),2	21505,(91, 201),2	21517,(93, 201),2	21519,(95, 201),2	21527,(110, 201),2	21533,(117, 201),2	21539,(119, 201),2	21545,(123, 201),2	21551,(125, 201),2	21553,(127, 201),2	21555,(129, 201),2	21557,(131, 201),2	21563,(137, 201),2	21565,(139, 201),2	21573,(168, 201),2	21577,(180, 201),2	21579,(182, 201),2	21581,(184, 201),2	21749,(190, 201),2	21891,(194, 201),2	21949,(200, 201),2	
11,(0, 3),10	21,(2, 28),2	33,(4, 23),2	51,(0, 8),10	63,(5, 41),8	91,(0, 13),10	123,(15, 114),2	127,(9, 106),2	129,(14, 157),2	131,(0, 18),10	141,(2, 114),10	151,(4, 36),32	183,(4, 98),30	213,(4, 106),8	221,(4, 114),14	235,(9, 98),10	245,(14, 98),18	263,(19, 28),2	277,(14, 114),18	341,(15, 36),8	351,(16, 36),10	361,(2, 36),96	457,(10, 23),80	537,(10, 157),20	557,(14, 28),112	683,(20, 23),2	685,(7, 28),12	713,(15, 157),8	723,(7, 41),8	731,(10, 41),56	787,(20, 28),10	801,(7, 106),10	811,(7, 154),10	821,(16, 98),2	823,(17, 114),14	857,(10, 154),82	939,(19, 31),24	963,(19, 36),50	1013,(19, 114),140	1153,(20, 41),90	1243,(20, 98),98	1457,(12, 31),40	1563,(17, 36),48	1611,(17, 154),36	1845,(20, 157),198	3775,(1, 23),6	3781,(1, 28),18	5447,(11, 98),2	5723,(11, 106),104	6267,(11, 157),10	6571,(6, 23),8	6729,(6, 41),2	7073,(6, 98),44	7361,(6, 106),8	7727,(6, 154),36	7765,(6, 157),2	
1,(0, 2),10	35,(4, 30),2	41,(0, 7),10	51,(5, 22),10	61,(5, 27),2	65,(3, 108),6	71,(8, 24),2	73,(8, 108),2	81,(0, 12),10	91,(5, 45),14	105,(10, 27),4	109,(13, 30),6	121,(0, 17),10	131,(4, 45),20	151,(18, 24),4	161,(16, 22),10	171,(16, 24),44	215,(5, 24),56	271,(9, 22),4	275,(9, 30),2	295,(19, 27),26	349,(15, 165),10	385,(8, 45),164	571,(10, 24),112	683,(14, 108),212	939,(10, 165),52	991,(18, 30),122	1425,(18, 165),342	2895,(16, 165),24	3771,(1, 22),4	3811,(1, 30),16	5123,(11, 22),16	5171,(11, 30),44	6745,(6, 45),50	
13,(2, 21),2	15,(2, 42),2	23,(3, 21),30	61,(3, 63),4	65,(4, 40),36	101,(4, 42),26	127,(5, 26),8	135,(5, 40),28	163,(15, 21),2	165,(15, 42),20	185,(20, 21),10	215,(8, 40),46	261,(8, 42),2	263,(13, 26),2	265,(13, 42),2	267,(18, 40),4	271,(5, 63),70	341,(17, 21),2	343,(19, 63),10	359,(17, 26),2	361,(19, 40),188	549,(8, 63),24	573,(18, 63),40	697,(7, 40),14	991,(20, 26),124	1307,(7, 26),150	1497,(12, 42),66	8099,(20, 63),2648	12613,(18, 42),1312	
# Outgoing
51,(5, 22),10	61,(5, 27),2	63,(5, 41),8	91,(5, 45),14	105,(10, 27),4	123,(15, 114),2	127,(5, 26),8	135,(5, 40),28	163,(15, 21),2	165,(15, 42),20	185,(20, 21),10	215,(5, 24),56	271,(5, 63),70	341,(15, 36),8	349,(15, 165),10	385,(5, 59),8	393,(5, 61),36	429,(5, 72),16	445,(5, 76),4	449,(5, 84),2	451,(5, 86),2	453,(5, 88),2	455,(5, 94),2	457,(10, 23),80	537,(10, 157),20	567,(5, 118),2	569,(5, 132),2	571,(10, 24),112	683,(20, 23),2	685,(5, 140),2	687,(5, 150),8	695,(5, 173),18	713,(15, 157),8	731,(10, 41),56	787,(20, 28),10	821,(5, 134),36	857,(10, 154),82	939,(10, 165),52	991,(20, 26),124	1153,(20, 41),90	1243,(20, 98),98	1425,(5, 57),170	1595,(5, 68),126	1721,(5, 128),42	1763,(5, 179),46	1809,(5, 181),36	1845,(20, 157),198	2719,(10, 118),2	2867,(10, 132),2	3139,(10, 25),32	3171,(10, 35),334	3505,(10, 66),22	3527,(10, 84),4	3531,(10, 136),6	3537,(10, 146),2	3541,(10, 148),2	3543,(10, 160),4	3567,(10, 140),10	3769,(10, 68),16	3785,(10, 103),14	3811,(10, 92),42	3853,(10, 171),2	3859,(10, 94),20	3879,(10, 179),6	4631,(10, 167),30	4841,(10, 181),52	4893,(10, 191),22	4915,(10, 195),34	5203,(15, 25),2	5255,(15, 29),2	5257,(15, 72),2	5259,(15, 195),2	5721,(10, 199),98	5819,(15, 35),6	5825,(15, 76),4	6187,(15, 59),12	6199,(15, 78),4	6203,(15, 86),4	6207,(15, 88),6	6319,(15, 90),4	6323,(15, 96),6	6329,(15, 99),10	6339,(15, 103),8	6347,(15, 126),4	6355,(15, 109),12	6367,(15, 124),14	6381,(15, 136),8	6389,(15, 171),10	6399,(15, 187),4	6525,(15, 191),10	6543,(15, 193),6	6575,(20, 61),2	6577,(20, 70),2	6729,(15, 155),22	6751,(15, 169),22	6773,(15, 175),34	6877,(20, 78),2	6879,(20, 84),2	7111,(20, 86),2	7113,(20, 99),2	7115,(20, 105),2	7121,(20, 169),2	7425,(20, 173),2	7687,(20, 179),2	7745,(20, 88),10	7755,(20, 94),6	7761,(20, 120),6	7775,(20, 113),16	7791,(20, 138),6	8051,(20, 50),48	8099,(20, 63),2648	10855,(20, 101),70	10925,(20, 111),78	11003,(20, 134),80	11083,(20, 158),16	11099,(20, 162),74	11173,(20, 187),20	11193,(20, 189),54	11247,(133, 201),2	11249,(37, 201),2	11251,(141, 201),2	11253,(174, 201),2	11255,(69, 201),2	11257,(153, 201),2	11259,(33, 201),2	11261,(176, 201),2	11263,(104, 201),2	11265,(186, 201),2	11267,(60, 201),2	11269,(151, 201),2	11479,(79, 201),2	11687,(172, 201),2	12749,(32, 201),2	12931,(52, 201),2	16815,(83, 201),2	17139,(163, 201),2	17161,(55, 201),2	17199,(65, 201),2	17261,(87, 201),2	19593,(51, 201),2	19709,(77, 201),2	19757,(100, 201),2	19855,(115, 201),2	19999,(161, 201),2	20077,(170, 201),2	20197,(43, 201),2	20199,(46, 201),2	20205,(47, 201),2	20221,(49, 201),2	20659,(89, 201),2	20765,(107, 201),2	20913,(135, 201),2	20959,(188, 201),2	20961,(196, 201),2	20965,(54, 201),2	20969,(58, 201),2	20973,(67, 201),2	20983,(71, 201),2	21113,(97, 201),2	21165,(102, 201),2	21169,(112, 201),2	21189,(121, 201),2	21279,(143, 201),2	21347,(145, 201),2	21357,(147, 201),2	21359,(149, 201),2	21361,(156, 201),2	21367,(159, 201),2	21373,(166, 201),2	21375,(178, 201),2	21385,(192, 201),2	21391,(198, 201),2	21397,(39, 201),2	21409,(44, 201),2	21411,(48, 201),2	21419,(53, 201),2	21421,(56, 201),2	21429,(62, 201),2	21437,(73, 201),2	21443,(75, 201),2	21495,(81, 201),2	21503,(85, 201),2	21505,(91, 201),2	21517,(93, 201),2	21519,(95, 201),2	21527,(110, 201),2	21533,(117, 201),2	21539,(119, 201),2	21545,(123, 201),2	21551,(125, 201),2	21553,(127, 201),2	21555,(129, 201),2	21557,(131, 201),2	21563,(137, 201),2	21565,(139, 201),2	21573,(168, 201),2	21577,(180, 201),2	21579,(182, 201),2	21581,(184, 201),2	21749,(190, 201),2	21891,(194, 201),2	21949,(200, 201),2	
33,(4, 23),2	35,(4, 30),2	43,(4, 43),2	45,(4, 44),6	51,(4, 73),2	65,(4, 40),36	101,(4, 42),26	127,(9, 106),2	129,(14, 157),2	131,(4, 45),20	151,(4, 36),32	183,(4, 98),30	213,(4, 106),8	221,(4, 114),14	235,(9, 98),10	245,(14, 98),18	263,(19, 28),2	271,(9, 22),4	275,(9, 30),2	277,(14, 114),18	295,(19, 27),26	343,(19, 63),10	359,(4, 77),2	361,(19, 40),188	557,(14, 28),112	683,(14, 108),212	939,(19, 31),24	963,(19, 36),50	1013,(19, 114),140	2767,(4, 39),24	2791,(4, 119),2	2825,(4, 81),20	2845,(4, 166),2	2847,(4, 176),6	2895,(4, 104),20	3547,(4, 182),18	3771,(4, 100),50	3899,(4, 102),48	4539,(4, 115),36	4575,(4, 135),50	4733,(4, 141),24	4757,(4, 170),26	4791,(4, 159),42	5121,(4, 131),74	5261,(4, 172),32	5579,(4, 53),128	5723,(4, 139),84	5823,(9, 44),2	5825,(9, 53),2	5829,(9, 54),2	5833,(4, 174),82	6013,(9, 51),4	6031,(9, 121),2	6035,(9, 107),4	6259,(9, 129),2	6267,(9, 139),4	6271,(9, 145),6	6711,(9, 33),20	6771,(9, 55),16	6787,(9, 147),8	6849,(9, 83),20	7099,(9, 115),16	7555,(9, 102),30	7585,(9, 104),26	7611,(9, 127),14	7625,(9, 186),8	7689,(9, 163),24	7723,(9, 135),38	8929,(4, 123),1256	10185,(4, 149),688	12613,(9, 32),134	12747,(9, 52),182	12929,(9, 56),82	13011,(9, 62),3278	16289,(9, 117),212	17565,(14, 39),14	17579,(14, 46),16	17595,(14, 47),6	17601,(14, 48),1978	19579,(14, 51),12	19591,(14, 56),2	19593,(14, 62),26	19619,(14, 71),2	19621,(14, 77),86	19707,(14, 95),2	19709,(14, 100),46	19755,(14, 115),98	19853,(14, 125),2	19855,(14, 137),26	19881,(14, 139),14	19895,(14, 143),100	19995,(14, 161),2	19997,(14, 170),78	20075,(14, 182),2	20077,(14, 184),22	20099,(14, 190),56	20155,(14, 192),32	20187,(14, 194),6	21391,(19, 39),4	21395,(19, 44),12	21407,(19, 48),2	21409,(19, 53),8	21417,(19, 56),2	21419,(19, 62),8	21427,(19, 73),8	21435,(19, 75),6	21441,(19, 81),52	21493,(19, 85),8	21501,(19, 91),2	21503,(19, 93),12	21515,(19, 95),2	21517,(19, 110),8	21525,(19, 117),6	21531,(19, 119),6	21537,(19, 123),6	21543,(19, 125),6	21549,(19, 127),2	21551,(19, 129),2	21553,(19, 131),2	21555,(19, 137),6	21561,(19, 139),2	21563,(19, 168),8	21571,(19, 180),4	21575,(19, 182),2	21577,(19, 184),2	21579,(19, 190),168	21747,(19, 194),142	21889,(19, 200),58	
23,(3, 21),30	53,(3, 39),2	55,(3, 48),2	57,(3, 34),2	59,(3, 38),2	61,(3, 63),4	65,(3, 108),6	71,(8, 24),2	73,(8, 108),2	81,(3, 72),2	83,(3, 94),18	109,(13, 30),6	121,(3, 55),2	123,(3, 69),4	127,(3, 100),10	137,(3, 112),6	143,(3, 121),2	145,(3, 123),2	147,(3, 125),2	149,(3, 143),2	151,(18, 24),4	159,(3, 57),30	189,(3, 144),8	197,(3, 179),4	201,(3, 189),12	213,(3, 191),2	215,(8, 40),46	261,(8, 42),2	263,(13, 26),2	265,(13, 42),2	267,(18, 40),4	341,(3, 195),2	351,(3, 163),4	355,(3, 166),2	357,(3, 140),28	385,(8, 45),164	549,(8, 63),24	573,(18, 63),40	723,(3, 168),2	725,(3, 176),2	727,(8, 25),2	729,(8, 96),2	801,(3, 115),10	811,(3, 174),10	821,(3, 178),2	991,(18, 30),122	1307,(3, 68),118	1425,(18, 165),342	2413,(8, 76),20	2433,(8, 84),26	2459,(8, 90),196	2655,(8, 103),2	2657,(8, 105),4	2661,(8, 126),2	2663,(8, 155),6	2669,(3, 182),2	2671,(8, 92),20	2691,(8, 111),12	2703,(8, 132),14	2717,(8, 158),2	2761,(3, 188),2	2763,(3, 192),4	2793,(8, 140),18	2811,(8, 146),14	2859,(8, 169),8	2871,(8, 109),48	2919,(8, 124),40	2959,(8, 134),38	2997,(8, 152),16	3013,(8, 183),10	3023,(8, 185),102	3125,(8, 189),14	3689,(3, 81),66	3857,(8, 39),2	4629,(8, 65),2	4661,(13, 78),2	4787,(8, 89),2	4789,(13, 82),2	4991,(8, 91),2	5075,(8, 123),2	5077,(13, 96),2	5079,(13, 101),2	5107,(8, 133),2	5109,(13, 103),4	5113,(8, 168),2	5115,(13, 80),6	5135,(13, 105),4	5195,(13, 140),2	5197,(13, 164),2	5199,(13, 179),2	5201,(13, 191),2	5205,(8, 32),4	5209,(8, 46),6	5293,(8, 49),4	5447,(3, 71),132	5707,(8, 37),10	5717,(8, 180),2	5719,(8, 198),2	5807,(8, 71),16	5943,(8, 81),34	5977,(8, 129),6	5983,(13, 34),14	5997,(8, 147),16	6017,(13, 152),12	6033,(18, 34),2	6111,(13, 38),16	6127,(13, 113),44	6171,(13, 126),16	6263,(13, 130),56	6411,(13, 146),54	6465,(13, 173),54	6519,(18, 64),2	6521,(18, 138),2	6535,(18, 140),4	6549,(18, 144),2	6551,(18, 191),2	6571,(18, 146),4	6661,(8, 153),38	6699,(8, 166),12	6745,(8, 176),26	7007,(8, 60),92	7361,(18, 187),8	7427,(8, 93),128	7633,(13, 73),2	7677,(18, 70),10	7713,(13, 60),6	7727,(18, 189),18	7761,(13, 75),2	7773,(13, 129),2	7797,(8, 156),88	7887,(114, 201),2	7951,(3, 102),978	8929,(13, 29),342	9271,(13, 70),862	10133,(13, 132),120	10253,(13, 142),154	10407,(18, 35),36	10443,(18, 68),38	10481,(18, 105),374	10873,(8, 79),604	11477,(8, 119),94	11571,(8, 172),114	11685,(8, 182),96	11781,(8, 194),832	12613,(18, 42),1312	13925,(18, 134),38	13963,(18, 193),62	14025,(31, 201),2	14027,(36, 201),2	14029,(28, 201),2	14031,(23, 201),2	14033,(41, 201),2	14035,(98, 201),2	14037,(106, 201),2	14039,(154, 201),2	14041,(157, 201),2	17137,(13, 55),22	17159,(13, 65),38	17197,(13, 67),8	17205,(13, 71),20	17225,(13, 87),34	17259,(13, 112),36	17295,(13, 125),102	17397,(13, 131),42	17439,(13, 135),10	17449,(13, 161),40	17489,(13, 170),10	17499,(13, 182),2	17501,(13, 184),62	17563,(13, 192),2	20959,(18, 44),2	20961,(18, 54),2	20963,(18, 56),2	20965,(18, 58),2	20967,(18, 67),4	20971,(18, 71),10	20981,(18, 75),2	20983,(18, 85),6	20989,(18, 91),20	21009,(18, 93),90	21099,(18, 97),12	21111,(18, 102),52	21163,(18, 112),4	21167,(18, 117),8	21175,(18, 121),12	21187,(18, 139),72	21259,(18, 143),18	21277,(18, 145),68	21345,(18, 147),10	21355,(18, 149),2	21357,(18, 156),2	21359,(18, 159),6	21365,(18, 166),6	21371,(18, 178),2	21373,(18, 190),8	21381,(18, 192),2	21383,(18, 198),6	21389,(18, 200),2	
13,(2, 21),2	15,(2, 42),2	21,(2, 28),2	31,(2, 72),6	37,(2, 74),2	39,(2, 126),2	41,(2, 33),2	43,(2, 35),14	57,(2, 79),2	59,(2, 81),10	69,(2, 133),2	71,(2, 92),6	77,(2, 99),4	81,(2, 43),16	97,(2, 107),8	105,(2, 115),4	109,(2, 145),2	111,(2, 50),28	139,(2, 140),2	141,(2, 114),10	151,(2, 116),8	161,(2, 32),150	311,(2, 91),24	335,(2, 117),6	341,(17, 21),2	343,(2, 161),8	351,(2, 132),6	357,(2, 178),2	359,(17, 26),2	361,(2, 36),96	457,(2, 59),12	469,(2, 86),56	525,(2, 96),22	547,(2, 124),20	571,(2, 196),4	575,(2, 144),6	581,(2, 150),42	623,(2, 162),24	647,(2, 169),6	653,(2, 179),24	677,(2, 187),8	685,(7, 28),12	697,(7, 40),14	713,(7, 80),2	715,(2, 170),8	723,(7, 41),8	731,(7, 68),8	739,(7, 96),2	741,(2, 135),30	771,(7, 29),16	787,(7, 94),6	793,(7, 99),8	801,(7, 106),10	811,(7, 154),10	823,(17, 114),14	857,(7, 187),2	859,(2, 44),62	921,(2, 166),26	947,(2, 120),148	1095,(2, 177),154	1249,(2, 199),58	1307,(7, 26),150	1457,(12, 31),40	1497,(12, 42),66	1563,(17, 36),48	1611,(17, 154),36	1845,(7, 34),70	1915,(7, 74),92	2007,(7, 101),32	2039,(7, 103),4	2043,(7, 111),10	2053,(7, 136),6	2059,(7, 138),26	2085,(7, 152),28	2113,(7, 158),6	2119,(7, 171),6	2125,(7, 175),196	2321,(7, 177),22	2343,(7, 183),10	2353,(7, 189),6	2359,(7, 191),2	2361,(7, 193),52	2721,(2, 71),40	2853,(7, 51),6	2869,(7, 65),2	2915,(7, 71),2	2917,(7, 93),2	3539,(7, 100),2	3565,(7, 102),2	3577,(2, 48),76	3653,(2, 112),36	3755,(7, 39),12	3767,(7, 117),2	3821,(7, 83),4	3825,(7, 161),2	3855,(12, 82),2	3885,(12, 50),4	3889,(12, 59),8	3897,(12, 171),2	3947,(12, 86),4	3951,(2, 73),124	4075,(2, 83),254	4329,(2, 129),126	4455,(2, 153),84	4625,(7, 123),4	4663,(7, 48),12	4675,(7, 168),6	4681,(12, 61),14	4695,(12, 64),6	4701,(7, 104),16	4717,(12, 68),8	4725,(12, 76),8	4783,(7, 196),4	4833,(7, 107),8	4949,(12, 38),24	4973,(12, 94),18	4993,(12, 78),58	5051,(12, 103),14	5065,(12, 116),6	5071,(12, 150),4	5081,(7, 58),22	5103,(7, 200),4	5123,(12, 146),12	5171,(12, 124),24	5195,(7, 115),10	5205,(12, 99),32	5237,(12, 148),18	5297,(12, 160),20	5317,(12, 189),14	5331,(7, 125),18	5349,(17, 35),2	5351,(7, 95),30	5381,(7, 133),40	5421,(12, 193),8	5429,(12, 199),20	5831,(17, 61),2	5915,(7, 151),28	6029,(17, 158),2	6039,(12, 191),48	6087,(12, 195),24	6213,(7, 186),46	6261,(12, 32),2	6351,(12, 33),2	6353,(12, 44),2	6403,(17, 195),4	6407,(12, 48),2	6409,(12, 51),2	6523,(12, 69),2	6539,(12, 107),2	6541,(12, 117),2	6553,(7, 33),108	6807,(17, 29),8	6815,(17, 64),8	6823,(17, 99),14	6837,(12, 81),6	6843,(17, 130),6	6869,(17, 116),8	6881,(12, 112),4	6885,(12, 137),2	6887,(17, 105),16	6903,(17, 152),6	6909,(7, 137),98	7073,(17, 120),14	7087,(17, 142),10	7097,(17, 171),14	7115,(12, 145),4	7119,(12, 192),2	7123,(7, 180),242	7365,(12, 198),4	7369,(17, 150),56	7635,(17, 179),6	7641,(17, 181),16	7657,(17, 191),20	7719,(27, 201),2	7721,(24, 201),2	7765,(12, 52),8	7885,(108, 201),2	7889,(12, 49),14	7903,(17, 88),78	7981,(17, 164),70	8105,(165, 201),2	8107,(22, 201),2	8109,(30, 201),2	8111,(45, 201),2	16501,(12, 47),30	16531,(12, 53),30	16561,(12, 62),92	16653,(12, 71),14	16667,(12, 73),28	16695,(12, 75),94	16789,(12, 83),24	16813,(12, 87),38	16851,(12, 93),22	16873,(12, 95),120	16993,(12, 110),40	17033,(12, 129),10	17043,(12, 143),58	17101,(12, 163),36	20193,(17, 43),2	20195,(17, 46),2	20197,(17, 47),6	20203,(17, 48),14	20217,(17, 49),2	20219,(17, 54),396	20615,(17, 58),14	20629,(17, 73),20	20649,(17, 81),6	20655,(17, 89),2	20657,(17, 95),2	20659,(17, 97),2	20661,(17, 102),98	20759,(17, 107),4	20763,(17, 110),10	20773,(17, 119),2	20775,(17, 121),2	20777,(17, 123),28	20805,(17, 125),62	20867,(17, 135),44	20911,(17, 137),36	20947,(17, 178),2	20949,(17, 180),2	20951,(17, 184),4	20955,(17, 188),2	20957,(17, 196),2	
1,(0, 2),10	11,(0, 3),10	21,(0, 4),10	31,(0, 5),10	41,(0, 7),10	51,(0, 8),10	61,(0, 9),10	71,(0, 10),10	81,(0, 12),10	91,(0, 13),10	101,(0, 14),10	111,(0, 15),10	121,(0, 17),10	131,(0, 18),10	141,(0, 19),10	151,(0, 20),10	161,(16, 22),10	171,(16, 24),44	215,(16, 29),126	341,(16, 32),2	343,(16, 34),8	351,(16, 36),10	361,(16, 48),6	367,(16, 51),38	405,(16, 52),160	565,(16, 56),6	571,(16, 59),4	575,(16, 65),140	715,(16, 66),12	727,(16, 67),14	741,(16, 70),30	771,(16, 75),2	773,(16, 81),2	775,(16, 83),14	789,(16, 85),2	791,(16, 89),10	801,(16, 94),20	821,(16, 98),2	823,(16, 117),6	829,(16, 119),30	859,(16, 124),88	947,(16, 125),1720	2667,(16, 127),2	2669,(16, 130),2	2671,(16, 137),46	2717,(16, 141),4	2721,(16, 142),72	2793,(16, 143),30	2823,(16, 145),2	2825,(16, 150),34	2859,(16, 151),10	2869,(16, 152),2	2871,(16, 159),24	2895,(16, 165),24	2919,(16, 166),2	2921,(16, 168),618	3539,(16, 171),2	3541,(16, 172),6	3547,(16, 173),20	3567,(16, 174),8	3575,(16, 180),2	3577,(16, 181),114	3691,(16, 183),2	3693,(16, 187),76	3769,(16, 190),2	3771,(1, 22),4	3775,(1, 23),6	3781,(1, 28),18	3799,(1, 29),12	3811,(1, 30),16	3827,(1, 32),2	3829,(1, 33),28	3857,(1, 35),2	3859,(1, 43),34	3893,(1, 46),2	3895,(1, 53),4	3899,(1, 57),48	3947,(1, 58),4	3951,(1, 59),2	3953,(1, 66),678	4631,(1, 69),18	4649,(1, 71),14	4663,(1, 74),2	4665,(1, 76),16	4681,(1, 79),12	4693,(1, 81),2	4695,(1, 87),2	4697,(1, 91),4	4701,(1, 94),16	4717,(1, 95),16	4733,(1, 109),48	4781,(1, 111),8	4789,(1, 115),2	4791,(1, 122),16	4807,(1, 124),34	4841,(1, 135),56	4897,(1, 141),58	4955,(1, 143),10	4965,(1, 145),26	4991,(1, 146),2	4993,(1, 149),82	5075,(1, 152),2	5077,(1, 161),4	5081,(1, 164),8	5089,(1, 167),14	5103,(1, 171),2	5105,(1, 185),4	5109,(1, 186),4	5113,(1, 187),2	5115,(1, 188),6	5121,(1, 197),2	5123,(11, 22),16	5139,(11, 25),32	5171,(11, 30),44	5215,(11, 32),2	5217,(11, 37),2	5219,(11, 39),4	5223,(11, 43),2	5225,(11, 52),16	5241,(11, 53),20	5261,(11, 57),36	5297,(11, 60),6	5303,(11, 65),6	5309,(11, 71),22	5331,(11, 74),18	5349,(11, 79),2	5351,(11, 82),8	5359,(11, 92),44	5403,(11, 94),18	5421,(11, 95),26	5447,(11, 98),2	5449,(11, 103),272	5721,(11, 104),2	5723,(11, 106),104	5827,(11, 107),2	5829,(11, 111),2	5831,(11, 119),2	5833,(11, 122),150	5983,(11, 123),14	5997,(11, 124),16	6013,(11, 128),4	6017,(11, 129),8	6025,(11, 135),6	6031,(11, 136),2	6033,(11, 141),2	6035,(11, 144),4	6039,(11, 145),124	6163,(11, 147),50	6213,(11, 148),2	6215,(11, 150),46	6261,(11, 152),2	6263,(11, 156),4	6267,(11, 157),10	6277,(11, 163),74	6351,(11, 167),4	6355,(11, 168),52	6407,(11, 169),4	6411,(11, 170),14	6425,(11, 172),16	6441,(11, 174),66	6507,(11, 176),16	6523,(11, 179),2	6525,(11, 180),6	6531,(11, 182),8	6539,(11, 185),4	6543,(11, 186),8	6551,(11, 190),2	6553,(11, 191),4	6557,(11, 193),2	6559,(11, 197),10	6569,(11, 199),2	6571,(6, 23),8	6579,(6, 35),2	6581,(6, 38),148	6729,(6, 41),2	6731,(6, 44),14	6745,(6, 45),50	6795,(6, 46),14	6809,(6, 48),2	6811,(6, 52),26	6837,(6, 66),6	6843,(6, 67),6	6849,(6, 72),20	6869,(6, 75),12	6881,(6, 76),6	6887,(6, 77),2	6889,(6, 79),20	6909,(6, 84),158	7067,(6, 88),4	7071,(6, 90),2	7073,(6, 98),44	7117,(6, 101),4	7121,(6, 104),2	7123,(6, 105),238	7361,(6, 106),8	7369,(6, 107),24	7393,(6, 117),34	7427,(6, 118),40	7467,(6, 126),104	7571,(6, 128),2	7573,(6, 130),32	7605,(6, 132),30	7635,(6, 135),30	7665,(6, 137),20	7685,(6, 145),4	7689,(6, 146),14	7703,(6, 148),16	7719,(6, 151),4	7723,(6, 152),4	7727,(6, 154),36	7763,(6, 156),2	7765,(6, 157),2	7767,(6, 158),8	7775,(6, 161),6	7781,(6, 178),16	7797,(6, 181),88	7885,(6, 182),2	7887,(6, 184),2	7889,(6, 187),8	7897,(6, 193),4	7901,(6, 195),2	7903,(6, 196),40	7943,(6, 200),8	8099,(21, 201),2	8101,(40, 201),2	8103,(26, 201),2	11271,(63, 201),2	14043,(42, 201),2	
