738
# CPU
325,14,2	327,6,2	335,18,2	707,16,2	713,20,2	737,21,1	
109,5,2	279,9,2	285,10,2	289,17,2	317,19,2	331,15,2	
103,2,2	105,7,2	107,4,2	157,8,2	229,11,2	319,12,2	
0,0,1	1,1,2	275,3,2	705,13,2	
# Incoming
319,(1, 14),6	325,(2, 6),2	327,(5, 21),4	331,(1, 18),4	335,(3, 21),4	339,(9, 21),4	343,(10, 21),4	347,(17, 21),4	351,(19, 21),4	355,(15, 21),4	705,(2, 16),2	707,(2, 20),6	713,(7, 21),4	717,(4, 21),4	721,(8, 21),4	725,(11, 21),4	729,(12, 21),4	733,(13, 21),4	
107,(1, 5),2	157,(1, 9),4	275,(2, 9),4	279,(2, 10),6	285,(2, 17),4	289,(2, 19),28	325,(1, 15),6	
1,(0, 2),102	103,(1, 4),4	109,(1, 8),48	161,(1, 11),68	229,(1, 12),90	
105,(2, 3),170	327,(2, 13),378	
# Outgoing

327,(5, 21),4	339,(9, 21),4	343,(10, 21),4	347,(17, 21),4	351,(19, 21),4	355,(15, 21),4	
105,(2, 3),170	275,(2, 9),4	279,(2, 10),6	285,(2, 17),4	289,(2, 19),28	325,(2, 6),2	327,(2, 13),378	705,(2, 16),2	707,(2, 20),6	713,(7, 21),4	717,(4, 21),4	721,(8, 21),4	725,(11, 21),4	729,(12, 21),4	
1,(0, 2),102	103,(1, 4),4	107,(1, 5),2	109,(1, 8),48	157,(1, 9),4	161,(1, 11),68	229,(1, 12),90	319,(1, 14),6	325,(1, 15),6	331,(1, 18),4	335,(3, 21),4	733,(13, 21),4	
