2106
# CPU
2,2,70	72,10,70	142,12,70	212,24,70	282,117,70	352,119,70	422,20,70	492,111,70	562,97,70	632,18,70	702,76,70	772,82,70	842,31,70	912,56,70	982,46,70	1052,72,70	1122,58,70	1192,73,70	1262,62,70	1332,113,70	1402,70,70	1472,60,70	1542,78,70	1612,118,70	1682,79,70	1752,98,70	1822,92,70	1892,30,70	1962,67,70	2032,66,70	
3,3,70	73,5,70	143,8,70	213,34,70	283,108,70	353,106,70	423,21,70	493,101,70	563,87,70	633,13,70	703,55,70	773,86,70	843,35,70	913,42,70	983,115,70	1053,39,70	1123,54,70	1193,114,70	1263,110,70	1333,85,70	1403,51,70	1473,77,70	1543,41,70	1613,50,70	1683,116,70	1753,94,70	1823,14,70	1893,99,70	1963,36,70	2033,33,70	
0,0,1	1,6,70	71,9,70	141,1,70	211,23,70	281,100,70	351,89,70	421,57,70	491,47,70	561,16,70	631,112,70	701,95,70	771,83,70	841,75,70	911,61,70	981,48,70	1051,27,70	1121,17,70	1191,120,70	1261,96,70	1331,105,70	1401,53,70	1471,15,70	1541,107,70	1611,59,70	1681,109,70	1751,71,70	1821,102,70	1891,91,70	1961,44,70	2031,80,70	2105,121,1	
4,4,70	74,7,70	144,11,70	214,26,70	284,25,70	354,88,70	424,22,70	494,19,70	564,81,70	634,28,70	704,65,70	774,49,70	844,63,70	914,52,70	984,45,70	1054,32,70	1124,64,70	1194,29,70	1264,104,70	1334,103,70	1404,90,70	1474,84,70	1544,93,70	1614,69,70	1684,68,70	1754,74,70	1824,38,70	1894,43,70	1964,40,70	2034,37,70	
# Incoming
1,(0, 2),1	7,(0, 10),1	9,(0, 12),1	74,(6, 30),1	76,(6, 46),1	85,(6, 72),8	143,(5, 60),1	
2,(0, 3),1	4,(0, 5),1	6,(0, 8),1	75,(6, 39),1	79,(6, 54),6	141,(9, 41),2	214,(11, 33),1	
72,(2, 53),1	73,(2, 57),3	76,(4, 47),2	144,(7, 15),1	145,(7, 96),4	149,(7, 105),1	218,(8, 80),1	282,(24, 121),1	283,(34, 121),1	284,(26, 121),1	352,(117, 121),1	353,(108, 121),1	354,(25, 121),1	422,(119, 121),1	423,(106, 121),1	424,(88, 121),1	492,(20, 121),1	493,(21, 121),1	494,(22, 121),1	562,(111, 121),1	563,(101, 121),1	564,(19, 121),1	632,(97, 121),1	633,(87, 121),1	634,(81, 121),1	702,(18, 121),1	703,(13, 121),1	704,(28, 121),1	772,(76, 121),1	773,(55, 121),1	774,(65, 121),1	842,(82, 121),1	843,(86, 121),1	844,(49, 121),1	912,(31, 121),1	913,(35, 121),1	914,(63, 121),1	982,(56, 121),1	983,(42, 121),1	984,(52, 121),1	1052,(46, 121),1	1053,(115, 121),1	1054,(45, 121),1	1122,(72, 121),1	1123,(39, 121),1	1124,(32, 121),1	1192,(58, 121),1	1193,(54, 121),1	1194,(64, 121),1	1262,(73, 121),1	1263,(114, 121),1	1264,(29, 121),1	1332,(62, 121),1	1333,(110, 121),1	1334,(104, 121),1	1402,(113, 121),1	1403,(85, 121),1	1404,(103, 121),1	1472,(70, 121),1	1473,(51, 121),1	1474,(90, 121),1	1542,(60, 121),1	1543,(77, 121),1	1544,(84, 121),1	1612,(78, 121),1	1613,(41, 121),1	1614,(93, 121),1	1682,(118, 121),1	1683,(50, 121),1	1684,(69, 121),1	1752,(79, 121),1	1753,(116, 121),1	1754,(68, 121),1	1822,(98, 121),1	1823,(94, 121),1	1824,(74, 121),1	1892,(92, 121),1	1893,(14, 121),1	1894,(38, 121),1	1962,(30, 121),1	1963,(99, 121),1	1964,(43, 121),1	2032,(67, 121),1	2033,(36, 121),1	2034,(40, 121),1	2102,(66, 121),1	2103,(33, 121),1	2104,(37, 121),1	
3,(0, 4),1	5,(0, 7),1	8,(0, 11),1	71,(6, 22),1	72,(6, 26),2	77,(6, 49),2	93,(6, 103),1	212,(12, 93),1	213,(8, 37),5	
# Outgoing
72,(2, 53),1	73,(2, 57),3	212,(12, 93),1	282,(24, 121),1	352,(117, 121),1	422,(119, 121),1	492,(20, 121),1	562,(111, 121),1	632,(97, 121),1	702,(18, 121),1	772,(76, 121),1	842,(82, 121),1	912,(31, 121),1	982,(56, 121),1	1052,(46, 121),1	1122,(72, 121),1	1192,(58, 121),1	1262,(73, 121),1	1332,(62, 121),1	1402,(113, 121),1	1472,(70, 121),1	1542,(60, 121),1	1612,(78, 121),1	1682,(118, 121),1	1752,(79, 121),1	1822,(98, 121),1	1892,(92, 121),1	1962,(30, 121),1	2032,(67, 121),1	2102,(66, 121),1	
143,(5, 60),1	213,(8, 37),5	218,(8, 80),1	283,(34, 121),1	353,(108, 121),1	423,(106, 121),1	493,(21, 121),1	563,(101, 121),1	633,(87, 121),1	703,(13, 121),1	773,(55, 121),1	843,(86, 121),1	913,(35, 121),1	983,(42, 121),1	1053,(115, 121),1	1123,(39, 121),1	1193,(54, 121),1	1263,(114, 121),1	1333,(110, 121),1	1403,(85, 121),1	1473,(51, 121),1	1543,(77, 121),1	1613,(41, 121),1	1683,(50, 121),1	1753,(116, 121),1	1823,(94, 121),1	1893,(14, 121),1	1963,(99, 121),1	2033,(36, 121),1	2103,(33, 121),1	
1,(0, 2),1	2,(0, 3),1	3,(0, 4),1	4,(0, 5),1	5,(0, 7),1	6,(0, 8),1	7,(0, 10),1	8,(0, 11),1	9,(0, 12),1	71,(6, 22),1	72,(6, 26),2	74,(6, 30),1	75,(6, 39),1	76,(6, 46),1	77,(6, 49),2	79,(6, 54),6	85,(6, 72),8	93,(6, 103),1	141,(9, 41),2	
76,(4, 47),2	144,(7, 15),1	145,(7, 96),4	149,(7, 105),1	214,(11, 33),1	284,(26, 121),1	354,(25, 121),1	424,(88, 121),1	494,(22, 121),1	564,(19, 121),1	634,(81, 121),1	704,(28, 121),1	774,(65, 121),1	844,(49, 121),1	914,(63, 121),1	984,(52, 121),1	1054,(45, 121),1	1124,(32, 121),1	1194,(64, 121),1	1264,(29, 121),1	1334,(104, 121),1	1404,(103, 121),1	1474,(90, 121),1	1544,(84, 121),1	1614,(93, 121),1	1684,(69, 121),1	1754,(68, 121),1	1824,(74, 121),1	1894,(38, 121),1	1964,(43, 121),1	2034,(40, 121),1	2104,(37, 121),1	
