3446
# CPU




153,17,1	157,15,1	165,16,1	
169,18,1	181,11,1	
77,10,1	85,9,1	101,14,1	261,20,1	
49,7,1	65,8,1	229,19,1	
17,2,1	18,5,1	45,6,1	113,12,1	141,13,1	
0,0,1	1,1,1	2,4,1	50,3,1	3445,21,1	
# Incoming




141,(1, 17),12	153,(2, 15),4	157,(2, 16),8	
153,(1, 18),16	169,(2, 11),12	
65,(1, 10),12	77,(2, 9),8	85,(2, 14),16	229,(1, 20),32	
45,(1, 7),4	49,(1, 8),16	169,(1, 19),60	
1,(0, 2),16	17,(1, 6),28	77,(1, 12),36	113,(1, 13),28	
18,(2, 3),32	181,(5, 21),204	385,(6, 21),204	589,(7, 21),204	793,(8, 21),204	997,(10, 21),204	1201,(9, 21),204	1405,(14, 21),204	1609,(12, 21),204	1813,(13, 21),204	2017,(17, 21),204	2221,(15, 21),204	2425,(16, 21),204	2629,(18, 21),204	2833,(11, 21),204	3037,(19, 21),204	3241,(20, 21),204	
# Outgoing




2017,(17, 21),204	2221,(15, 21),204	2425,(16, 21),204	
2629,(18, 21),204	2833,(11, 21),204	
997,(10, 21),204	1201,(9, 21),204	1405,(14, 21),204	3241,(20, 21),204	
589,(7, 21),204	793,(8, 21),204	3037,(19, 21),204	
18,(2, 3),32	77,(2, 9),8	85,(2, 14),16	153,(2, 15),4	157,(2, 16),8	169,(2, 11),12	181,(5, 21),204	385,(6, 21),204	1609,(12, 21),204	1813,(13, 21),204	
1,(0, 2),16	17,(1, 6),28	45,(1, 7),4	49,(1, 8),16	65,(1, 10),12	77,(1, 12),36	113,(1, 13),28	141,(1, 17),12	153,(1, 18),16	169,(1, 19),60	229,(1, 20),32	
