211
# CPU
0,0,1	1,1,4	5,37,4	9,25,4	13,49,4	17,42,4	21,50,4	25,5,4	29,80,4	33,47,4	37,34,4	41,21,4	45,19,4	49,73,4	53,53,4	57,63,4	61,27,4	65,29,4	69,11,4	73,56,4	93,65,4	
5,7,4	9,72,4	13,48,4	17,22,4	21,74,4	25,8,4	29,24,4	33,77,4	37,46,4	41,32,4	45,52,4	49,61,4	53,33,4	57,23,4	61,68,4	65,60,4	69,43,4	73,18,4	78,12,4	210,81,1	
7,2,4	11,54,4	15,26,4	19,38,4	23,35,4	27,20,4	31,17,4	35,45,4	39,4,4	43,62,4	47,55,4	51,40,4	55,31,4	59,14,4	63,76,4	67,41,4	71,66,4	75,9,4	79,13,4	
3,6,4	7,67,4	11,39,4	15,44,4	19,64,4	23,78,4	27,79,4	31,70,4	35,69,4	39,36,4	43,28,4	47,30,4	51,3,4	55,57,4	59,58,4	63,75,4	67,59,4	71,10,4	75,71,4	79,16,4	83,15,4	87,51,4	
# Incoming
31,(7, 27),1	32,(6, 11),6	44,(2, 29),1	45,(4, 56),1	67,(3, 56),6	78,(3, 65),15	
3,(0, 7),2	7,(6, 74),1	8,(0, 8),2	11,(67, 81),3	15,(39, 81),3	19,(1, 43),3	22,(37, 81),3	25,(25, 81),3	28,(44, 81),3	35,(5, 60),2	37,(49, 81),3	40,(42, 81),3	46,(2, 12),6	52,(64, 81),3	55,(3, 68),1	56,(54, 81),3	61,(3, 18),6	67,(26, 81),3	70,(38, 81),3	73,(3, 12),5	78,(50, 81),3	81,(35, 81),3	84,(20, 81),3	87,(80, 81),3	90,(17, 81),3	93,(78, 81),3	96,(79, 81),3	99,(70, 81),3	102,(47, 81),3	105,(45, 81),3	108,(69, 81),3	111,(34, 81),3	114,(36, 81),3	117,(21, 81),3	120,(62, 81),3	123,(28, 81),3	126,(19, 81),3	129,(55, 81),3	132,(30, 81),3	135,(73, 81),3	138,(40, 81),3	141,(53, 81),3	144,(57, 81),3	147,(31, 81),3	150,(63, 81),3	153,(58, 81),3	156,(14, 81),3	159,(27, 81),3	162,(75, 81),3	165,(76, 81),3	168,(29, 81),3	171,(59, 81),3	174,(41, 81),3	177,(11, 81),3	180,(10, 81),3	183,(66, 81),3	186,(56, 81),3	189,(71, 81),3	192,(9, 81),3	195,(16, 81),3	198,(13, 81),3	201,(15, 81),3	204,(51, 81),3	207,(65, 81),3	
5,(0, 2),2	10,(0, 4),2	14,(1, 14),2	16,(1, 76),3	19,(6, 9),7	29,(5, 45),1	32,(7, 66),6	38,(6, 13),13	51,(7, 13),4	56,(3, 41),5	61,(1, 13),13	
1,(0, 6),2	12,(0, 3),2	29,(8, 69),2	31,(5, 36),2	33,(5, 28),2	38,(7, 71),5	43,(4, 30),1	44,(5, 16),3	47,(8, 15),3	52,(2, 16),4	56,(7, 15),8	64,(8, 51),18	
# Outgoing
1,(0, 6),2	3,(0, 7),2	5,(0, 2),2	8,(0, 8),2	10,(0, 4),2	12,(0, 3),2	14,(1, 14),2	16,(1, 76),3	19,(1, 43),3	22,(37, 81),3	25,(25, 81),3	29,(5, 45),1	31,(5, 36),2	33,(5, 28),2	35,(5, 60),2	37,(49, 81),3	40,(42, 81),3	44,(5, 16),3	61,(1, 13),13	78,(50, 81),3	87,(80, 81),3	102,(47, 81),3	111,(34, 81),3	117,(21, 81),3	126,(19, 81),3	135,(73, 81),3	141,(53, 81),3	150,(63, 81),3	159,(27, 81),3	168,(29, 81),3	177,(11, 81),3	186,(56, 81),3	207,(65, 81),3	
29,(8, 69),2	31,(7, 27),1	32,(7, 66),6	38,(7, 71),5	47,(8, 15),3	51,(7, 13),4	56,(7, 15),8	64,(8, 51),18	
43,(4, 30),1	44,(2, 29),1	45,(4, 56),1	46,(2, 12),6	52,(2, 16),4	56,(54, 81),3	67,(26, 81),3	70,(38, 81),3	81,(35, 81),3	84,(20, 81),3	90,(17, 81),3	105,(45, 81),3	120,(62, 81),3	129,(55, 81),3	138,(40, 81),3	147,(31, 81),3	156,(14, 81),3	165,(76, 81),3	174,(41, 81),3	183,(66, 81),3	192,(9, 81),3	198,(13, 81),3	
7,(6, 74),1	11,(67, 81),3	15,(39, 81),3	19,(6, 9),7	28,(44, 81),3	32,(6, 11),6	38,(6, 13),13	52,(64, 81),3	55,(3, 68),1	56,(3, 41),5	61,(3, 18),6	67,(3, 56),6	73,(3, 12),5	78,(3, 65),15	93,(78, 81),3	96,(79, 81),3	99,(70, 81),3	108,(69, 81),3	114,(36, 81),3	123,(28, 81),3	132,(30, 81),3	144,(57, 81),3	153,(58, 81),3	162,(75, 81),3	171,(59, 81),3	180,(10, 81),3	189,(71, 81),3	195,(16, 81),3	201,(15, 81),3	204,(51, 81),3	
