2920
# CPU
0,0,1	1,11,24	25,4,24	49,8,24	73,3,24	97,7,24	121,6,24	145,9,24	169,112,24	193,95,24	217,57,24	241,18,24	265,93,24	289,83,24	313,111,24	337,94,24	361,41,24	385,42,24	409,50,24	433,106,24	457,71,24	481,68,24	505,82,24	529,27,24	553,34,24	577,55,24	601,109,24	625,43,24	649,19,24	673,53,24	697,76,24	721,81,24	745,56,24	769,58,24	793,117,24	817,47,24	841,49,24	865,54,24	889,25,24	913,29,24	948,62,24	990,96,24	1035,14,24	1086,107,24	1140,65,24	1198,63,24	1222,40,24	1267,75,24	1318,36,24	1373,37,24	1435,64,24	1496,114,24	1545,60,24	1603,22,24	1667,59,24	1740,16,24	1817,119,24	1899,90,24	1972,24,24	2046,26,24	2131,67,24	2239,88,24	2340,52,24	2454,28,24	2580,39,24	2709,51,24	2895,66,24	2919,121,1	
15,5,24	39,1,24	63,12,24	87,10,24	111,2,24	170,23,24	194,78,24	218,20,24	242,97,24	266,103,24	290,87,24	314,35,24	338,74,24	362,44,24	386,17,24	410,84,24	434,108,24	458,70,24	482,110,24	506,21,24	530,118,24	554,100,24	578,61,24	602,99,24	636,102,24	679,32,24	722,46,24	765,104,24	809,85,24	854,15,24	900,92,24	946,30,24	993,33,24	1041,80,24	1094,115,24	1150,91,24	1206,120,24	1263,101,24	1321,73,24	1381,89,24	1441,86,24	1501,48,24	1574,31,24	1653,69,24	1733,38,24	1816,105,24	1904,72,24	2013,98,24	2132,45,24	2265,13,24	2400,79,24	2539,113,24	2701,77,24	2874,116,24	
# Incoming
39,(5, 112),8	47,(5, 95),2	49,(5, 57),1	50,(5, 18),2	52,(5, 93),3	55,(5, 83),4	59,(5, 111),1	60,(5, 42),2	62,(5, 106),1	63,(1, 112),8	71,(1, 95),1	72,(1, 57),4	76,(1, 18),2	78,(1, 93),2	80,(1, 83),1	81,(5, 94),5	86,(1, 41),1	87,(12, 112),1	88,(12, 95),3	91,(12, 57),1	92,(12, 18),10	102,(12, 93),8	110,(12, 111),1	111,(10, 112),1	112,(10, 95),2	114,(10, 57),2	116,(10, 18),1	117,(10, 93),1	118,(12, 83),5	123,(10, 83),1	124,(10, 111),1	125,(1, 94),6	131,(12, 94),1	132,(10, 94),2	134,(10, 41),1	135,(2, 112),1	136,(2, 95),3	139,(2, 57),4	143,(2, 18),1	144,(2, 93),2	146,(2, 83),5	151,(1, 111),12	163,(2, 111),2	165,(2, 94),4	169,(5, 41),10	179,(12, 41),2	181,(2, 41),4	185,(1, 42),1	186,(10, 42),1	187,(2, 42),1	188,(5, 50),2	190,(1, 50),1	191,(12, 50),1	192,(2, 50),1	193,(12, 106),1	194,(23, 121),4	198,(12, 42),13	211,(10, 106),4	215,(2, 106),1	216,(5, 71),1	217,(2, 71),1	218,(78, 121),4	222,(10, 50),14	236,(1, 71),3	239,(12, 71),3	242,(20, 121),4	246,(1, 106),12	258,(5, 68),1	259,(1, 68),7	266,(97, 121),4	270,(10, 71),11	281,(12, 68),3	284,(10, 68),2	286,(5, 82),1	287,(1, 82),1	288,(5, 27),1	289,(12, 27),1	290,(103, 121),4	294,(2, 68),8	302,(12, 82),4	306,(2, 82),5	311,(10, 27),3	314,(87, 121),4	318,(10, 82),10	328,(1, 27),6	334,(5, 34),3	337,(1, 55),1	338,(35, 121),4	342,(2, 27),12	354,(1, 34),7	361,(1, 109),1	362,(74, 121),4	366,(12, 34),3	369,(10, 34),4	373,(2, 34),6	379,(5, 55),3	382,(10, 55),3	385,(5, 43),1	386,(44, 121),4	390,(12, 55),14	404,(2, 55),3	407,(1, 43),1	408,(2, 19),1	409,(1, 76),1	410,(17, 121),4	414,(5, 109),6	420,(12, 109),6	426,(10, 109),7	433,(10, 76),1	434,(84, 121),4	438,(2, 109),4	442,(12, 43),11	453,(2, 43),5	458,(108, 121),4	462,(10, 43),9	471,(5, 19),4	475,(12, 19),4	479,(12, 53),2	481,(2, 76),1	482,(70, 121),4	486,(1, 19),14	500,(10, 19),4	504,(5, 81),1	505,(12, 81),1	506,(110, 121),4	510,(5, 53),4	514,(1, 53),8	522,(10, 53),5	527,(10, 81),1	528,(1, 56),2	530,(21, 121),4	534,(2, 53),9	543,(12, 76),5	548,(10, 56),6	554,(118, 121),4	558,(1, 81),12	570,(5, 56),7	577,(1, 58),1	578,(100, 121),4	582,(2, 81),15	597,(12, 58),1	598,(1, 117),3	601,(12, 117),1	602,(61, 121),4	606,(12, 56),7	613,(2, 56),8	621,(10, 117),2	623,(2, 117),2	625,(12, 49),1	626,(99, 121),4	630,(5, 76),22	652,(5, 58),8	660,(102, 121),4	664,(10, 58),13	677,(2, 58),8	685,(5, 47),6	691,(1, 47),7	698,(12, 47),3	701,(5, 49),2	703,(32, 121),4	707,(5, 117),24	731,(10, 47),5	736,(2, 49),3	739,(5, 54),1	740,(12, 54),1	741,(5, 25),2	743,(1, 25),2	745,(10, 25),1	746,(46, 121),4	750,(2, 47),13	763,(1, 49),13	776,(1, 54),7	783,(5, 29),5	788,(5, 62),1	789,(104, 121),4	793,(10, 49),16	809,(10, 54),18	827,(1, 29),5	832,(12, 62),1	833,(85, 121),4	837,(2, 54),8	845,(12, 25),8	853,(2, 25),23	876,(12, 29),2	878,(15, 121),4	882,(10, 29),19	901,(2, 29),5	906,(1, 62),18	924,(92, 121),4	928,(10, 62),6	934,(2, 62),14	948,(5, 96),1	949,(1, 96),15	964,(12, 96),1	965,(10, 96),5	970,(30, 121),4	974,(2, 96),16	990,(5, 14),10	1000,(1, 14),14	1014,(10, 14),2	1016,(2, 14),1	1017,(33, 121),4	1021,(12, 14),14	1035,(5, 107),19	1054,(1, 107),1	1055,(12, 107),7	1062,(2, 65),3	1065,(80, 121),4	1069,(10, 107),9	1078,(2, 107),8	1086,(5, 65),21	1107,(1, 65),8	1115,(5, 63),1	1116,(2, 63),1	1117,(5, 40),1	1118,(115, 121),4	1122,(12, 65),4	1126,(10, 65),14	1140,(1, 63),11	1151,(12, 63),20	1171,(10, 40),1	1172,(2, 40),1	1173,(5, 75),1	1174,(91, 121),4	1178,(10, 63),8	1186,(1, 40),8	1194,(12, 40),26	1220,(1, 75),2	1222,(12, 75),2	1224,(2, 75),1	1225,(5, 36),5	1230,(120, 121),4	1234,(10, 75),33	1267,(12, 36),5	1272,(10, 36),4	1276,(2, 36),1	1277,(5, 37),6	1283,(1, 37),3	1286,(2, 37),1	1287,(101, 121),4	1291,(1, 36),27	1318,(12, 37),15	1333,(1, 64),2	1335,(10, 64),2	1337,(2, 64),8	1345,(73, 121),4	1349,(10, 37),24	1373,(5, 64),14	1387,(5, 114),8	1395,(1, 114),6	1401,(5, 60),2	1403,(12, 60),1	1404,(12, 22),1	1405,(89, 121),4	1409,(12, 64),26	1435,(12, 114),27	1462,(10, 60),2	1464,(5, 59),1	1465,(86, 121),4	1469,(10, 114),8	1477,(2, 114),6	1483,(1, 60),36	1519,(12, 59),1	1520,(10, 59),1	1521,(10, 16),1	1522,(5, 119),2	1524,(12, 119),1	1525,(48, 121),4	1529,(2, 60),16	1545,(5, 22),22	1567,(1, 22),11	1578,(10, 22),9	1587,(2, 22),16	1603,(31, 121),4	1607,(1, 59),13	1620,(2, 59),47	1667,(12, 16),5	1672,(5, 90),2	1674,(1, 90),1	1675,(12, 24),2	1677,(69, 121),4	1681,(5, 16),12	1693,(1, 16),37	1730,(2, 16),10	1740,(2, 119),9	1749,(10, 90),3	1752,(1, 24),3	1755,(10, 24),2	1757,(38, 121),4	1761,(1, 119),23	1784,(10, 119),33	1817,(2, 90),20	1837,(12, 26),1	1838,(2, 26),1	1839,(5, 67),1	1840,(105, 121),4	1844,(12, 90),55	1899,(2, 24),25	1924,(12, 67),2	1926,(2, 67),1	1927,(12, 88),1	1928,(72, 121),4	1932,(5, 24),40	1972,(5, 26),56	2028,(1, 26),8	2036,(10, 26),10	2046,(98, 121),4	2050,(1, 67),12	2062,(10, 67),69	2131,(5, 88),18	2149,(2, 88),1	2150,(12, 52),1	2151,(10, 52),5	2156,(45, 121),4	2160,(1, 88),60	2220,(10, 88),19	2239,(5, 52),26	2265,(1, 52),74	2339,(2, 52),1	2340,(13, 121),4	2344,(5, 28),1	2345,(1, 28),62	2407,(12, 28),30	2437,(10, 28),2	2439,(2, 28),15	2454,(79, 121),4	2458,(5, 39),15	2473,(1, 39),1	2474,(12, 39),39	2513,(10, 39),21	2534,(2, 39),46	2580,(113, 121),4	2584,(5, 51),10	2594,(1, 51),43	2637,(12, 51),33	2670,(10, 51),1	2671,(2, 51),38	2709,(5, 66),1	2710,(1, 66),1	2711,(10, 66),5	2725,(77, 121),4	2729,(12, 66),16	2745,(2, 66),150	2898,(116, 121),4	
1,(0, 5),14	15,(0, 1),14	29,(0, 12),14	43,(0, 10),14	57,(0, 2),14	71,(11, 23),3	74,(4, 23),5	79,(8, 23),2	81,(11, 78),1	82,(4, 78),2	84,(8, 78),1	85,(11, 20),4	89,(4, 20),1	90,(8, 20),4	94,(11, 97),1	95,(4, 97),2	97,(3, 23),4	101,(3, 78),1	102,(3, 20),1	103,(8, 97),1	104,(3, 97),10	114,(11, 103),1	115,(4, 103),2	117,(3, 103),1	118,(11, 87),2	120,(4, 87),1	121,(7, 23),1	122,(7, 78),1	123,(7, 20),1	124,(7, 97),1	125,(8, 103),5	130,(7, 103),2	132,(8, 87),13	145,(6, 23),2	147,(6, 78),1	148,(6, 20),1	149,(6, 97),5	154,(6, 103),3	157,(3, 87),1	158,(7, 87),1	159,(6, 87),1	160,(11, 35),1	161,(4, 35),1	162,(8, 35),2	164,(7, 35),4	168,(6, 35),1	169,(9, 23),1	170,(9, 78),6	176,(9, 20),4	180,(9, 97),1	181,(9, 103),9	190,(9, 87),5	195,(3, 35),14	209,(9, 35),2	211,(11, 74),1	212,(4, 74),1	213,(8, 74),5	218,(3, 74),2	220,(7, 74),13	233,(6, 74),3	236,(9, 74),1	237,(11, 44),1	238,(4, 44),3	241,(8, 44),2	243,(3, 44),5	248,(7, 44),5	253,(6, 44),11	264,(9, 44),1	265,(11, 17),7	272,(4, 17),5	277,(8, 17),2	279,(3, 17),1	280,(7, 17),2	282,(6, 17),8	290,(9, 17),3	293,(11, 84),1	294,(4, 84),1	295,(8, 84),1	296,(3, 84),1	297,(7, 84),23	320,(6, 84),1	321,(9, 84),1	322,(11, 108),2	324,(4, 108),1	325,(8, 108),2	327,(3, 108),1	328,(7, 108),14	342,(6, 108),2	344,(9, 108),7	351,(11, 70),2	353,(4, 70),1	354,(8, 70),1	355,(3, 70),1	356,(7, 70),23	379,(6, 70),1	380,(9, 70),1	381,(11, 110),1	382,(4, 110),3	385,(8, 110),4	389,(3, 110),15	404,(7, 110),7	411,(6, 110),1	412,(9, 110),1	413,(11, 21),19	432,(4, 21),1	433,(8, 21),4	437,(3, 21),1	438,(7, 21),6	444,(6, 21),1	445,(9, 21),1	446,(11, 118),7	453,(4, 118),1	454,(8, 118),1	455,(3, 118),1	456,(7, 118),2	458,(6, 118),17	475,(9, 118),4	479,(11, 100),20	499,(4, 100),1	500,(8, 100),4	504,(3, 100),1	505,(7, 100),1	506,(6, 100),1	507,(9, 100),8	515,(11, 61),1	516,(4, 61),5	521,(8, 61),9	530,(3, 61),5	535,(7, 61),1	536,(6, 61),15	551,(9, 61),3	554,(11, 99),3	557,(4, 99),17	574,(8, 99),2	576,(3, 99),2	578,(7, 99),8	586,(6, 99),8	594,(9, 99),1	595,(11, 102),22	617,(4, 102),2	619,(8, 102),4	623,(3, 102),1	624,(7, 102),2	626,(6, 102),7	633,(9, 102),3	636,(11, 32),4	640,(4, 32),27	667,(8, 32),1	668,(3, 32),4	672,(7, 32),1	673,(6, 32),5	678,(9, 32),1	679,(11, 46),21	700,(4, 46),1	701,(8, 46),2	703,(3, 46),1	704,(7, 46),9	713,(6, 46),1	714,(9, 46),8	722,(11, 104),17	739,(4, 104),1	740,(8, 104),16	756,(3, 104),1	757,(7, 104),2	759,(6, 104),5	764,(9, 104),1	765,(11, 85),2	767,(4, 85),1	768,(8, 85),12	780,(3, 85),16	796,(7, 85),4	800,(6, 85),5	805,(9, 85),4	809,(11, 15),2	811,(4, 15),3	814,(8, 15),5	819,(3, 15),1	820,(7, 15),9	829,(6, 15),10	839,(9, 15),15	854,(11, 92),1	855,(4, 92),20	875,(8, 92),1	876,(3, 92),5	881,(7, 92),6	887,(6, 92),2	889,(9, 92),11	900,(11, 30),1	901,(4, 30),2	903,(8, 30),3	906,(3, 30),15	921,(7, 30),6	927,(6, 30),14	941,(9, 30),5	946,(11, 33),2	948,(4, 33),1	949,(8, 33),1	950,(3, 33),11	961,(7, 33),3	964,(6, 33),25	989,(9, 33),4	993,(11, 80),3	996,(4, 80),26	1022,(8, 80),10	1032,(3, 80),4	1036,(7, 80),3	1039,(6, 80),1	1040,(9, 80),1	1041,(11, 115),38	1079,(4, 115),3	1082,(8, 115),1	1083,(3, 115),2	1085,(7, 115),3	1088,(6, 115),4	1092,(9, 115),2	1094,(11, 91),1	1095,(4, 91),5	1100,(8, 91),5	1105,(3, 91),1	1106,(7, 91),11	1117,(6, 91),7	1124,(9, 91),26	1150,(11, 120),6	1156,(4, 120),22	1178,(8, 120),3	1181,(3, 120),1	1182,(7, 120),3	1185,(6, 120),17	1202,(9, 120),4	1206,(11, 101),1	1207,(4, 101),1	1208,(8, 101),7	1215,(3, 101),1	1216,(7, 101),14	1230,(6, 101),22	1252,(9, 101),11	1263,(11, 73),11	1274,(4, 73),1	1275,(8, 73),25	1300,(3, 73),7	1307,(7, 73),6	1313,(6, 73),4	1317,(9, 73),4	1321,(11, 89),5	1326,(4, 89),3	1329,(8, 89),3	1332,(3, 89),13	1345,(7, 89),21	1366,(6, 89),8	1374,(9, 89),7	1381,(11, 86),1	1382,(4, 86),1	1383,(8, 86),4	1387,(3, 86),3	1390,(7, 86),12	1402,(6, 86),7	1409,(9, 86),32	1441,(11, 48),18	1459,(4, 48),1	1460,(8, 48),31	1491,(3, 48),1	1492,(7, 48),1	1493,(6, 48),2	1495,(9, 48),6	1501,(11, 31),1	1502,(4, 31),2	1504,(8, 31),1	1505,(3, 31),52	1557,(7, 31),7	1564,(6, 31),9	1573,(9, 31),1	1574,(11, 69),19	1593,(4, 69),2	1595,(8, 69),35	1630,(3, 69),4	1634,(7, 69),8	1642,(6, 69),1	1643,(9, 69),10	1653,(11, 38),5	1658,(4, 38),5	1663,(8, 38),1	1664,(3, 38),22	1686,(7, 38),44	1730,(6, 38),1	1731,(9, 38),2	1733,(11, 105),1	1734,(4, 105),56	1790,(8, 105),1	1791,(3, 105),1	1792,(7, 105),13	1805,(6, 105),1	1806,(9, 105),10	1816,(11, 72),23	1839,(4, 72),1	1840,(8, 72),17	1857,(3, 72),1	1858,(7, 72),8	1866,(6, 72),27	1893,(9, 72),11	1904,(11, 98),3	1907,(4, 98),3	1910,(8, 98),16	1926,(3, 98),64	1990,(7, 98),5	1995,(6, 98),6	2001,(9, 98),12	2013,(11, 45),12	2025,(4, 45),1	2026,(8, 45),37	2063,(3, 45),11	2074,(7, 45),1	2075,(6, 45),54	2129,(9, 45),3	2132,(11, 13),3	2135,(4, 13),13	2148,(8, 13),1	2149,(3, 13),84	2233,(7, 13),9	2242,(6, 13),22	2264,(9, 13),1	2265,(11, 79),1	2266,(4, 79),1	2267,(8, 79),3	2270,(3, 79),9	2279,(7, 79),33	2312,(6, 79),5	2317,(9, 79),83	2400,(11, 113),13	2413,(4, 113),1	2414,(8, 113),10	2424,(3, 113),73	2497,(7, 113),23	2520,(6, 113),18	2538,(9, 113),1	2539,(11, 77),8	2547,(4, 77),8	2555,(8, 77),16	2571,(3, 77),5	2576,(7, 77),74	2650,(6, 77),26	2676,(9, 77),25	2701,(11, 116),1	2702,(4, 116),2	2704,(8, 116),1	2705,(3, 116),1	2706,(7, 116),12	2718,(6, 116),141	2859,(9, 116),15	
# Outgoing
1,(0, 5),14	15,(0, 1),14	29,(0, 12),14	43,(0, 10),14	57,(0, 2),14	71,(11, 23),3	74,(4, 23),5	79,(8, 23),2	81,(11, 78),1	82,(4, 78),2	84,(8, 78),1	85,(11, 20),4	89,(4, 20),1	90,(8, 20),4	94,(11, 97),1	95,(4, 97),2	97,(3, 23),4	101,(3, 78),1	102,(3, 20),1	103,(8, 97),1	104,(3, 97),10	114,(11, 103),1	115,(4, 103),2	117,(3, 103),1	118,(11, 87),2	120,(4, 87),1	121,(7, 23),1	122,(7, 78),1	123,(7, 20),1	124,(7, 97),1	125,(8, 103),5	130,(7, 103),2	132,(8, 87),13	145,(6, 23),2	147,(6, 78),1	148,(6, 20),1	149,(6, 97),5	154,(6, 103),3	157,(3, 87),1	158,(7, 87),1	159,(6, 87),1	160,(11, 35),1	161,(4, 35),1	162,(8, 35),2	164,(7, 35),4	168,(6, 35),1	169,(9, 23),1	170,(9, 78),6	176,(9, 20),4	180,(9, 97),1	181,(9, 103),9	190,(9, 87),5	195,(3, 35),14	209,(9, 35),2	211,(11, 74),1	212,(4, 74),1	213,(8, 74),5	218,(3, 74),2	220,(7, 74),13	233,(6, 74),3	236,(9, 74),1	237,(11, 44),1	238,(4, 44),3	241,(8, 44),2	243,(3, 44),5	248,(7, 44),5	253,(6, 44),11	264,(9, 44),1	265,(11, 17),7	272,(4, 17),5	277,(8, 17),2	279,(3, 17),1	280,(7, 17),2	282,(6, 17),8	290,(9, 17),3	293,(11, 84),1	294,(4, 84),1	295,(8, 84),1	296,(3, 84),1	297,(7, 84),23	320,(6, 84),1	321,(9, 84),1	322,(11, 108),2	324,(4, 108),1	325,(8, 108),2	327,(3, 108),1	328,(7, 108),14	342,(6, 108),2	344,(9, 108),7	351,(11, 70),2	353,(4, 70),1	354,(8, 70),1	355,(3, 70),1	356,(7, 70),23	379,(6, 70),1	380,(9, 70),1	381,(11, 110),1	382,(4, 110),3	385,(8, 110),4	389,(3, 110),15	404,(7, 110),7	411,(6, 110),1	412,(9, 110),1	413,(11, 21),19	432,(4, 21),1	433,(8, 21),4	437,(3, 21),1	438,(7, 21),6	444,(6, 21),1	445,(9, 21),1	446,(11, 118),7	453,(4, 118),1	454,(8, 118),1	455,(3, 118),1	456,(7, 118),2	458,(6, 118),17	475,(9, 118),4	479,(11, 100),20	499,(4, 100),1	500,(8, 100),4	504,(3, 100),1	505,(7, 100),1	506,(6, 100),1	507,(9, 100),8	515,(11, 61),1	516,(4, 61),5	521,(8, 61),9	530,(3, 61),5	535,(7, 61),1	536,(6, 61),15	551,(9, 61),3	554,(11, 99),3	557,(4, 99),17	574,(8, 99),2	576,(3, 99),2	578,(7, 99),8	586,(6, 99),8	594,(9, 99),1	595,(11, 102),22	617,(4, 102),2	619,(8, 102),4	623,(3, 102),1	624,(7, 102),2	626,(6, 102),7	633,(9, 102),3	636,(11, 32),4	640,(4, 32),27	667,(8, 32),1	668,(3, 32),4	672,(7, 32),1	673,(6, 32),5	678,(9, 32),1	679,(11, 46),21	700,(4, 46),1	701,(8, 46),2	703,(3, 46),1	704,(7, 46),9	713,(6, 46),1	714,(9, 46),8	722,(11, 104),17	739,(4, 104),1	740,(8, 104),16	756,(3, 104),1	757,(7, 104),2	759,(6, 104),5	764,(9, 104),1	765,(11, 85),2	767,(4, 85),1	768,(8, 85),12	780,(3, 85),16	796,(7, 85),4	800,(6, 85),5	805,(9, 85),4	809,(11, 15),2	811,(4, 15),3	814,(8, 15),5	819,(3, 15),1	820,(7, 15),9	829,(6, 15),10	839,(9, 15),15	854,(11, 92),1	855,(4, 92),20	875,(8, 92),1	876,(3, 92),5	881,(7, 92),6	887,(6, 92),2	889,(9, 92),11	900,(11, 30),1	901,(4, 30),2	903,(8, 30),3	906,(3, 30),15	921,(7, 30),6	927,(6, 30),14	941,(9, 30),5	946,(11, 33),2	948,(4, 33),1	949,(8, 33),1	950,(3, 33),11	961,(7, 33),3	964,(6, 33),25	989,(9, 33),4	993,(11, 80),3	996,(4, 80),26	1022,(8, 80),10	1032,(3, 80),4	1036,(7, 80),3	1039,(6, 80),1	1040,(9, 80),1	1041,(11, 115),38	1079,(4, 115),3	1082,(8, 115),1	1083,(3, 115),2	1085,(7, 115),3	1088,(6, 115),4	1092,(9, 115),2	1094,(11, 91),1	1095,(4, 91),5	1100,(8, 91),5	1105,(3, 91),1	1106,(7, 91),11	1117,(6, 91),7	1124,(9, 91),26	1150,(11, 120),6	1156,(4, 120),22	1178,(8, 120),3	1181,(3, 120),1	1182,(7, 120),3	1185,(6, 120),17	1202,(9, 120),4	1206,(11, 101),1	1207,(4, 101),1	1208,(8, 101),7	1215,(3, 101),1	1216,(7, 101),14	1230,(6, 101),22	1252,(9, 101),11	1263,(11, 73),11	1274,(4, 73),1	1275,(8, 73),25	1300,(3, 73),7	1307,(7, 73),6	1313,(6, 73),4	1317,(9, 73),4	1321,(11, 89),5	1326,(4, 89),3	1329,(8, 89),3	1332,(3, 89),13	1345,(7, 89),21	1366,(6, 89),8	1374,(9, 89),7	1381,(11, 86),1	1382,(4, 86),1	1383,(8, 86),4	1387,(3, 86),3	1390,(7, 86),12	1402,(6, 86),7	1409,(9, 86),32	1441,(11, 48),18	1459,(4, 48),1	1460,(8, 48),31	1491,(3, 48),1	1492,(7, 48),1	1493,(6, 48),2	1495,(9, 48),6	1501,(11, 31),1	1502,(4, 31),2	1504,(8, 31),1	1505,(3, 31),52	1557,(7, 31),7	1564,(6, 31),9	1573,(9, 31),1	1574,(11, 69),19	1593,(4, 69),2	1595,(8, 69),35	1630,(3, 69),4	1634,(7, 69),8	1642,(6, 69),1	1643,(9, 69),10	1653,(11, 38),5	1658,(4, 38),5	1663,(8, 38),1	1664,(3, 38),22	1686,(7, 38),44	1730,(6, 38),1	1731,(9, 38),2	1733,(11, 105),1	1734,(4, 105),56	1790,(8, 105),1	1791,(3, 105),1	1792,(7, 105),13	1805,(6, 105),1	1806,(9, 105),10	1816,(11, 72),23	1839,(4, 72),1	1840,(8, 72),17	1857,(3, 72),1	1858,(7, 72),8	1866,(6, 72),27	1893,(9, 72),11	1904,(11, 98),3	1907,(4, 98),3	1910,(8, 98),16	1926,(3, 98),64	1990,(7, 98),5	1995,(6, 98),6	2001,(9, 98),12	2013,(11, 45),12	2025,(4, 45),1	2026,(8, 45),37	2063,(3, 45),11	2074,(7, 45),1	2075,(6, 45),54	2129,(9, 45),3	2132,(11, 13),3	2135,(4, 13),13	2148,(8, 13),1	2149,(3, 13),84	2233,(7, 13),9	2242,(6, 13),22	2264,(9, 13),1	2265,(11, 79),1	2266,(4, 79),1	2267,(8, 79),3	2270,(3, 79),9	2279,(7, 79),33	2312,(6, 79),5	2317,(9, 79),83	2400,(11, 113),13	2413,(4, 113),1	2414,(8, 113),10	2424,(3, 113),73	2497,(7, 113),23	2520,(6, 113),18	2538,(9, 113),1	2539,(11, 77),8	2547,(4, 77),8	2555,(8, 77),16	2571,(3, 77),5	2576,(7, 77),74	2650,(6, 77),26	2676,(9, 77),25	2701,(11, 116),1	2702,(4, 116),2	2704,(8, 116),1	2705,(3, 116),1	2706,(7, 116),12	2718,(6, 116),141	2859,(9, 116),15	
39,(5, 112),8	47,(5, 95),2	49,(5, 57),1	50,(5, 18),2	52,(5, 93),3	55,(5, 83),4	59,(5, 111),1	60,(5, 42),2	62,(5, 106),1	63,(1, 112),8	71,(1, 95),1	72,(1, 57),4	76,(1, 18),2	78,(1, 93),2	80,(1, 83),1	81,(5, 94),5	86,(1, 41),1	87,(12, 112),1	88,(12, 95),3	91,(12, 57),1	92,(12, 18),10	102,(12, 93),8	110,(12, 111),1	111,(10, 112),1	112,(10, 95),2	114,(10, 57),2	116,(10, 18),1	117,(10, 93),1	118,(12, 83),5	123,(10, 83),1	124,(10, 111),1	125,(1, 94),6	131,(12, 94),1	132,(10, 94),2	134,(10, 41),1	135,(2, 112),1	136,(2, 95),3	139,(2, 57),4	143,(2, 18),1	144,(2, 93),2	146,(2, 83),5	151,(1, 111),12	163,(2, 111),2	165,(2, 94),4	169,(5, 41),10	179,(12, 41),2	181,(2, 41),4	185,(1, 42),1	186,(10, 42),1	187,(2, 42),1	188,(5, 50),2	190,(1, 50),1	191,(12, 50),1	192,(2, 50),1	193,(12, 106),1	194,(23, 121),4	198,(12, 42),13	211,(10, 106),4	215,(2, 106),1	216,(5, 71),1	217,(2, 71),1	218,(78, 121),4	222,(10, 50),14	236,(1, 71),3	239,(12, 71),3	242,(20, 121),4	246,(1, 106),12	258,(5, 68),1	259,(1, 68),7	266,(97, 121),4	270,(10, 71),11	281,(12, 68),3	284,(10, 68),2	286,(5, 82),1	287,(1, 82),1	288,(5, 27),1	289,(12, 27),1	290,(103, 121),4	294,(2, 68),8	302,(12, 82),4	306,(2, 82),5	311,(10, 27),3	314,(87, 121),4	318,(10, 82),10	328,(1, 27),6	334,(5, 34),3	337,(1, 55),1	338,(35, 121),4	342,(2, 27),12	354,(1, 34),7	361,(1, 109),1	362,(74, 121),4	366,(12, 34),3	369,(10, 34),4	373,(2, 34),6	379,(5, 55),3	382,(10, 55),3	385,(5, 43),1	386,(44, 121),4	390,(12, 55),14	404,(2, 55),3	407,(1, 43),1	408,(2, 19),1	409,(1, 76),1	410,(17, 121),4	414,(5, 109),6	420,(12, 109),6	426,(10, 109),7	433,(10, 76),1	434,(84, 121),4	438,(2, 109),4	442,(12, 43),11	453,(2, 43),5	458,(108, 121),4	462,(10, 43),9	471,(5, 19),4	475,(12, 19),4	479,(12, 53),2	481,(2, 76),1	482,(70, 121),4	486,(1, 19),14	500,(10, 19),4	504,(5, 81),1	505,(12, 81),1	506,(110, 121),4	510,(5, 53),4	514,(1, 53),8	522,(10, 53),5	527,(10, 81),1	528,(1, 56),2	530,(21, 121),4	534,(2, 53),9	543,(12, 76),5	548,(10, 56),6	554,(118, 121),4	558,(1, 81),12	570,(5, 56),7	577,(1, 58),1	578,(100, 121),4	582,(2, 81),15	597,(12, 58),1	598,(1, 117),3	601,(12, 117),1	602,(61, 121),4	606,(12, 56),7	613,(2, 56),8	621,(10, 117),2	623,(2, 117),2	625,(12, 49),1	626,(99, 121),4	630,(5, 76),22	652,(5, 58),8	660,(102, 121),4	664,(10, 58),13	677,(2, 58),8	685,(5, 47),6	691,(1, 47),7	698,(12, 47),3	701,(5, 49),2	703,(32, 121),4	707,(5, 117),24	731,(10, 47),5	736,(2, 49),3	739,(5, 54),1	740,(12, 54),1	741,(5, 25),2	743,(1, 25),2	745,(10, 25),1	746,(46, 121),4	750,(2, 47),13	763,(1, 49),13	776,(1, 54),7	783,(5, 29),5	788,(5, 62),1	789,(104, 121),4	793,(10, 49),16	809,(10, 54),18	827,(1, 29),5	832,(12, 62),1	833,(85, 121),4	837,(2, 54),8	845,(12, 25),8	853,(2, 25),23	876,(12, 29),2	878,(15, 121),4	882,(10, 29),19	901,(2, 29),5	906,(1, 62),18	924,(92, 121),4	928,(10, 62),6	934,(2, 62),14	948,(5, 96),1	949,(1, 96),15	964,(12, 96),1	965,(10, 96),5	970,(30, 121),4	974,(2, 96),16	990,(5, 14),10	1000,(1, 14),14	1014,(10, 14),2	1016,(2, 14),1	1017,(33, 121),4	1021,(12, 14),14	1035,(5, 107),19	1054,(1, 107),1	1055,(12, 107),7	1062,(2, 65),3	1065,(80, 121),4	1069,(10, 107),9	1078,(2, 107),8	1086,(5, 65),21	1107,(1, 65),8	1115,(5, 63),1	1116,(2, 63),1	1117,(5, 40),1	1118,(115, 121),4	1122,(12, 65),4	1126,(10, 65),14	1140,(1, 63),11	1151,(12, 63),20	1171,(10, 40),1	1172,(2, 40),1	1173,(5, 75),1	1174,(91, 121),4	1178,(10, 63),8	1186,(1, 40),8	1194,(12, 40),26	1220,(1, 75),2	1222,(12, 75),2	1224,(2, 75),1	1225,(5, 36),5	1230,(120, 121),4	1234,(10, 75),33	1267,(12, 36),5	1272,(10, 36),4	1276,(2, 36),1	1277,(5, 37),6	1283,(1, 37),3	1286,(2, 37),1	1287,(101, 121),4	1291,(1, 36),27	1318,(12, 37),15	1333,(1, 64),2	1335,(10, 64),2	1337,(2, 64),8	1345,(73, 121),4	1349,(10, 37),24	1373,(5, 64),14	1387,(5, 114),8	1395,(1, 114),6	1401,(5, 60),2	1403,(12, 60),1	1404,(12, 22),1	1405,(89, 121),4	1409,(12, 64),26	1435,(12, 114),27	1462,(10, 60),2	1464,(5, 59),1	1465,(86, 121),4	1469,(10, 114),8	1477,(2, 114),6	1483,(1, 60),36	1519,(12, 59),1	1520,(10, 59),1	1521,(10, 16),1	1522,(5, 119),2	1524,(12, 119),1	1525,(48, 121),4	1529,(2, 60),16	1545,(5, 22),22	1567,(1, 22),11	1578,(10, 22),9	1587,(2, 22),16	1603,(31, 121),4	1607,(1, 59),13	1620,(2, 59),47	1667,(12, 16),5	1672,(5, 90),2	1674,(1, 90),1	1675,(12, 24),2	1677,(69, 121),4	1681,(5, 16),12	1693,(1, 16),37	1730,(2, 16),10	1740,(2, 119),9	1749,(10, 90),3	1752,(1, 24),3	1755,(10, 24),2	1757,(38, 121),4	1761,(1, 119),23	1784,(10, 119),33	1817,(2, 90),20	1837,(12, 26),1	1838,(2, 26),1	1839,(5, 67),1	1840,(105, 121),4	1844,(12, 90),55	1899,(2, 24),25	1924,(12, 67),2	1926,(2, 67),1	1927,(12, 88),1	1928,(72, 121),4	1932,(5, 24),40	1972,(5, 26),56	2028,(1, 26),8	2036,(10, 26),10	2046,(98, 121),4	2050,(1, 67),12	2062,(10, 67),69	2131,(5, 88),18	2149,(2, 88),1	2150,(12, 52),1	2151,(10, 52),5	2156,(45, 121),4	2160,(1, 88),60	2220,(10, 88),19	2239,(5, 52),26	2265,(1, 52),74	2339,(2, 52),1	2340,(13, 121),4	2344,(5, 28),1	2345,(1, 28),62	2407,(12, 28),30	2437,(10, 28),2	2439,(2, 28),15	2454,(79, 121),4	2458,(5, 39),15	2473,(1, 39),1	2474,(12, 39),39	2513,(10, 39),21	2534,(2, 39),46	2580,(113, 121),4	2584,(5, 51),10	2594,(1, 51),43	2637,(12, 51),33	2670,(10, 51),1	2671,(2, 51),38	2709,(5, 66),1	2710,(1, 66),1	2711,(10, 66),5	2725,(77, 121),4	2729,(12, 66),16	2745,(2, 66),150	2898,(116, 121),4	
