315
# CPU
0,0,1	1,4,5	6,78,5	11,18,5	16,13,5	21,6,5	26,55,5	31,52,5	36,23,5	41,19,5	46,12,5	51,60,5	56,41,5	61,2,5	66,76,5	71,31,5	76,5,5	81,63,5	86,73,5	91,9,5	96,20,5	101,33,5	106,51,5	111,57,5	116,37,5	121,62,5	126,15,5	131,3,5	136,75,5	141,65,5	146,77,5	151,48,5	156,16,5	161,49,5	166,42,5	171,28,5	176,58,5	181,47,5	186,64,5	191,69,5	196,44,5	201,17,5	206,72,5	211,27,5	216,68,5	221,34,5	226,53,5	234,36,5	255,46,5	279,80,5	309,21,5	314,81,1	
22,1,5	27,67,5	32,59,5	38,40,5	59,7,5	64,26,5	69,38,5	74,39,5	79,56,5	84,8,5	89,32,5	94,61,5	99,43,5	104,11,5	109,74,5	114,25,5	119,45,5	124,10,5	129,50,5	134,30,5	139,70,5	151,66,5	166,24,5	181,29,5	196,71,5	211,14,5	229,54,5	247,22,5	265,35,5	286,79,5	
# Incoming
32,(67, 81),3	37,(59, 81),3	40,(1, 69),3	43,(40, 81),3	46,(1, 44),3	49,(1, 17),6	55,(1, 72),6	69,(26, 81),3	74,(38, 81),3	79,(39, 81),3	84,(56, 81),3	94,(32, 81),3	99,(61, 81),3	104,(43, 81),3	109,(11, 81),3	114,(74, 81),3	119,(25, 81),3	124,(45, 81),3	129,(10, 81),3	134,(50, 81),3	139,(30, 81),3	144,(70, 81),3	147,(7, 27),9	156,(66, 81),3	159,(8, 68),9	171,(24, 81),3	174,(7, 34),9	186,(29, 81),3	189,(7, 53),9	201,(71, 81),3	216,(14, 81),3	219,(7, 36),15	234,(54, 81),3	237,(8, 46),18	255,(22, 81),3	258,(7, 80),21	279,(35, 81),3	282,(1, 21),27	309,(79, 81),3	
1,(0, 1),21	26,(6, 40),12	38,(0, 7),21	59,(0, 8),21	81,(5, 43),3	84,(6, 11),3	87,(5, 74),3	90,(5, 25),3	93,(5, 45),3	96,(2, 10),6	102,(2, 50),3	105,(5, 50),9	114,(2, 30),12	126,(2, 79),3	136,(3, 70),3	139,(3, 66),12	151,(2, 24),15	166,(3, 29),15	181,(3, 71),15	196,(2, 14),15	211,(3, 54),18	229,(6, 22),18	247,(5, 35),15	262,(3, 35),3	265,(4, 79),21	
# Outgoing
1,(0, 1),21	26,(6, 40),12	38,(0, 7),21	59,(0, 8),21	81,(5, 43),3	84,(6, 11),3	87,(5, 74),3	90,(5, 25),3	93,(5, 45),3	96,(2, 10),6	102,(2, 50),3	105,(5, 50),9	114,(2, 30),12	126,(2, 79),3	136,(3, 70),3	139,(3, 66),12	151,(2, 24),15	166,(3, 29),15	181,(3, 71),15	196,(2, 14),15	211,(3, 54),18	229,(6, 22),18	247,(5, 35),15	262,(3, 35),3	265,(4, 79),21	
32,(67, 81),3	37,(59, 81),3	40,(1, 69),3	43,(40, 81),3	46,(1, 44),3	49,(1, 17),6	55,(1, 72),6	69,(26, 81),3	74,(38, 81),3	79,(39, 81),3	84,(56, 81),3	94,(32, 81),3	99,(61, 81),3	104,(43, 81),3	109,(11, 81),3	114,(74, 81),3	119,(25, 81),3	124,(45, 81),3	129,(10, 81),3	134,(50, 81),3	139,(30, 81),3	144,(70, 81),3	147,(7, 27),9	156,(66, 81),3	159,(8, 68),9	171,(24, 81),3	174,(7, 34),9	186,(29, 81),3	189,(7, 53),9	201,(71, 81),3	216,(14, 81),3	219,(7, 36),15	234,(54, 81),3	237,(8, 46),18	255,(22, 81),3	258,(7, 80),21	279,(35, 81),3	282,(1, 21),27	309,(79, 81),3	
