2167
# CPU
98,28,31	129,48,31	195,18,31	226,68,31	257,38,31	403,58,31	442,78,31	
64,17,31	95,27,31	126,47,31	178,67,31	259,77,31	326,37,31	357,57,31	
29,8,31	77,36,31	108,26,31	139,46,31	170,56,31	324,16,31	416,66,31	447,76,31	
25,7,31	70,35,31	101,25,31	132,55,31	202,65,31	292,15,31	354,45,31	422,75,31	
21,6,31	76,34,31	107,24,31	138,44,31	169,14,31	200,64,31	347,74,31	402,54,31	
17,5,31	48,23,31	79,13,31	125,73,31	170,63,31	325,33,31	356,43,31	400,53,31	
13,4,31	75,22,31	106,12,31	137,62,31	168,42,31	399,52,31	430,72,31	541,32,31	
9,3,31	40,11,31	90,41,31	121,31,31	285,61,31	316,71,31	347,21,31	378,51,31	
5,2,31	57,10,31	88,20,31	119,80,31	150,50,31	181,40,31	212,30,31	243,60,31	274,70,31	
0,0,1	1,1,31	83,29,31	114,19,31	145,9,31	176,49,31	207,59,31	2056,39,31	2087,69,31	2118,79,31	2166,81,1	
# Incoming
70,(1, 38),26	96,(3, 28),2	98,(7, 48),2	106,(2, 38),1	107,(7, 38),15	122,(2, 48),6	128,(3, 68),22	150,(5, 18),45	202,(2, 68),3	205,(8, 38),21	355,(6, 58),11	402,(1, 58),1	426,(1, 78),16	
57,(1, 27),4	61,(7, 17),3	79,(3, 67),1	80,(7, 27),4	84,(7, 57),2	86,(2, 27),5	91,(8, 47),2	98,(4, 47),11	170,(7, 67),8	258,(2, 77),1	325,(6, 37),1	354,(6, 57),1	
25,(0, 8),4	66,(3, 36),11	83,(3, 46),6	97,(5, 26),1	107,(2, 46),15	122,(7, 56),9	150,(3, 76),23	292,(6, 16),32	403,(1, 66),13	422,(1, 76),4	
21,(0, 7),4	60,(3, 15),1	61,(3, 35),5	69,(1, 35),1	90,(4, 25),2	93,(8, 55),1	98,(3, 55),5	103,(8, 65),6	127,(4, 75),13	170,(2, 65),32	202,(6, 15),90	349,(6, 45),5	421,(1, 75),1	
17,(0, 6),4	56,(1, 24),1	62,(1, 34),7	75,(8, 34),1	84,(2, 24),2	86,(7, 44),7	93,(5, 14),4	110,(3, 74),1	116,(5, 54),11	158,(7, 64),12	205,(2, 74),53	307,(7, 74),40	400,(1, 54),2	
13,(0, 5),4	57,(3, 13),3	78,(3, 53),1	90,(8, 43),1	92,(2, 33),14	124,(8, 73),1	169,(2, 63),1	324,(6, 33),1	326,(6, 43),23	399,(1, 53),1	
9,(0, 4),4	60,(8, 22),15	77,(3, 52),1	80,(2, 12),4	91,(2, 32),1	103,(3, 62),4	107,(5, 42),9	116,(8, 72),8	128,(2, 52),41	279,(1, 52),120	416,(1, 72),5	421,(8, 32),120	
5,(0, 3),4	61,(1, 31),1	76,(8, 41),14	92,(4, 31),1	93,(7, 71),4	97,(1, 51),182	279,(4, 71),5	284,(5, 61),1	285,(5, 71),1	286,(7, 21),21	307,(8, 51),1	
1,(0, 2),4	32,(1, 20),24	56,(3, 10),1	64,(7, 20),14	78,(7, 30),1	79,(7, 80),1	89,(3, 50),7	96,(1, 40),1	97,(4, 30),1	98,(5, 60),3	109,(8, 70),7	
36,(2, 9),44	80,(3, 29),3	83,(4, 19),7	90,(5, 9),3	94,(8, 69),9	103,(23, 81),2	105,(17, 81),2	107,(3, 69),3	110,(4, 49),17	127,(36, 81),2	129,(13, 81),2	131,(7, 59),27	158,(22, 81),2	160,(27, 81),2	162,(28, 81),2	164,(12, 81),2	166,(26, 81),2	168,(47, 81),2	170,(48, 81),2	173,(11, 81),2	175,(41, 81),2	178,(35, 81),2	180,(25, 81),2	182,(31, 81),2	184,(55, 81),2	186,(62, 81),2	188,(46, 81),2	195,(73, 81),2	199,(42, 81),2	201,(56, 81),2	203,(63, 81),2	209,(67, 81),2	226,(18, 81),2	233,(65, 81),2	257,(68, 81),2	259,(10, 81),2	261,(20, 81),2	263,(80, 81),2	265,(50, 81),2	267,(40, 81),2	269,(30, 81),2	274,(60, 81),2	284,(4, 79),1611	1895,(5, 39),161	2056,(6, 69),1	2057,(6, 79),49	2106,(34, 81),2	2108,(24, 81),2	2110,(44, 81),2	2112,(14, 81),2	2114,(64, 81),2	2116,(38, 81),2	2118,(77, 81),2	2120,(70, 81),2	2122,(61, 81),2	2124,(15, 81),2	2126,(71, 81),2	2128,(16, 81),2	2130,(33, 81),2	2132,(37, 81),2	2134,(74, 81),2	2136,(21, 81),2	2138,(45, 81),2	2140,(43, 81),2	2142,(57, 81),2	2144,(51, 81),2	2146,(52, 81),2	2148,(53, 81),2	2150,(54, 81),2	2152,(58, 81),2	2154,(66, 81),2	2156,(75, 81),2	2158,(72, 81),2	2160,(78, 81),2	2162,(76, 81),2	2164,(32, 81),2	
# Outgoing
162,(28, 81),2	170,(48, 81),2	226,(18, 81),2	257,(68, 81),2	2116,(38, 81),2	2152,(58, 81),2	2160,(78, 81),2	
105,(17, 81),2	160,(27, 81),2	168,(47, 81),2	209,(67, 81),2	2118,(77, 81),2	2132,(37, 81),2	2142,(57, 81),2	
60,(8, 22),15	75,(8, 34),1	76,(8, 41),14	90,(8, 43),1	91,(8, 47),2	93,(8, 55),1	94,(8, 69),9	103,(8, 65),6	109,(8, 70),7	116,(8, 72),8	124,(8, 73),1	127,(36, 81),2	166,(26, 81),2	188,(46, 81),2	201,(56, 81),2	205,(8, 38),21	307,(8, 51),1	421,(8, 32),120	2128,(16, 81),2	2154,(66, 81),2	2162,(76, 81),2	
61,(7, 17),3	64,(7, 20),14	78,(7, 30),1	79,(7, 80),1	80,(7, 27),4	84,(7, 57),2	86,(7, 44),7	93,(7, 71),4	98,(7, 48),2	107,(7, 38),15	122,(7, 56),9	131,(7, 59),27	158,(7, 64),12	170,(7, 67),8	178,(35, 81),2	180,(25, 81),2	184,(55, 81),2	233,(65, 81),2	286,(7, 21),21	307,(7, 74),40	2124,(15, 81),2	2138,(45, 81),2	2156,(75, 81),2	
202,(6, 15),90	292,(6, 16),32	324,(6, 33),1	325,(6, 37),1	326,(6, 43),23	349,(6, 45),5	354,(6, 57),1	355,(6, 58),11	2056,(6, 69),1	2057,(6, 79),49	2106,(34, 81),2	2108,(24, 81),2	2110,(44, 81),2	2112,(14, 81),2	2114,(64, 81),2	2134,(74, 81),2	2150,(54, 81),2	
90,(5, 9),3	93,(5, 14),4	97,(5, 26),1	98,(5, 60),3	103,(23, 81),2	107,(5, 42),9	116,(5, 54),11	129,(13, 81),2	150,(5, 18),45	195,(73, 81),2	203,(63, 81),2	284,(5, 61),1	285,(5, 71),1	1895,(5, 39),161	2130,(33, 81),2	2140,(43, 81),2	2148,(53, 81),2	
83,(4, 19),7	90,(4, 25),2	92,(4, 31),1	97,(4, 30),1	98,(4, 47),11	110,(4, 49),17	127,(4, 75),13	158,(22, 81),2	164,(12, 81),2	186,(62, 81),2	199,(42, 81),2	279,(4, 71),5	284,(4, 79),1611	2146,(52, 81),2	2158,(72, 81),2	2164,(32, 81),2	
56,(3, 10),1	57,(3, 13),3	60,(3, 15),1	61,(3, 35),5	66,(3, 36),11	77,(3, 52),1	78,(3, 53),1	79,(3, 67),1	80,(3, 29),3	83,(3, 46),6	89,(3, 50),7	96,(3, 28),2	98,(3, 55),5	103,(3, 62),4	107,(3, 69),3	110,(3, 74),1	128,(3, 68),22	150,(3, 76),23	173,(11, 81),2	175,(41, 81),2	182,(31, 81),2	2122,(61, 81),2	2126,(71, 81),2	2136,(21, 81),2	2144,(51, 81),2	
36,(2, 9),44	80,(2, 12),4	84,(2, 24),2	86,(2, 27),5	91,(2, 32),1	92,(2, 33),14	106,(2, 38),1	107,(2, 46),15	122,(2, 48),6	128,(2, 52),41	169,(2, 63),1	170,(2, 65),32	202,(2, 68),3	205,(2, 74),53	258,(2, 77),1	259,(10, 81),2	261,(20, 81),2	263,(80, 81),2	265,(50, 81),2	267,(40, 81),2	269,(30, 81),2	274,(60, 81),2	2120,(70, 81),2	
1,(0, 2),4	5,(0, 3),4	9,(0, 4),4	13,(0, 5),4	17,(0, 6),4	21,(0, 7),4	25,(0, 8),4	32,(1, 20),24	56,(1, 24),1	57,(1, 27),4	61,(1, 31),1	62,(1, 34),7	69,(1, 35),1	70,(1, 38),26	96,(1, 40),1	97,(1, 51),182	279,(1, 52),120	399,(1, 53),1	400,(1, 54),2	402,(1, 58),1	403,(1, 66),13	416,(1, 72),5	421,(1, 75),1	422,(1, 76),4	426,(1, 78),16	
