1317
# CPU
56,2,41	97,15,41	138,26,41	179,88,41	220,89,41	261,57,41	302,86,41	343,35,41	384,50,41	425,55,41	466,42,41	507,108,41	548,109,41	589,34,41	630,73,41	671,82,41	712,119,41	753,14,41	794,78,41	835,27,41	876,48,41	917,91,41	958,101,41	999,59,41	
331,10,41	372,16,41	413,25,41	454,46,41	495,51,41	536,64,41	577,92,41	618,113,41	659,110,41	700,81,41	741,83,41	782,70,41	823,79,41	864,28,41	905,95,41	946,74,41	987,68,41	1028,111,41	1069,60,41	1110,103,41	1151,36,41	1192,53,41	1233,71,41	1274,84,41	
0,0,1	1,11,41	42,8,41	83,1,41	124,3,41	165,12,41	206,9,41	247,90,41	288,100,41	329,80,41	370,107,41	411,105,41	452,45,41	493,76,41	534,37,41	575,67,41	616,13,41	657,58,41	698,98,41	739,77,41	780,24,41	821,33,41	862,38,41	903,93,41	944,102,41	1316,121,1	
221,6,41	262,17,41	303,31,41	344,62,41	385,66,41	426,18,41	467,118,41	508,7,41	549,19,41	590,61,41	631,69,41	672,94,41	713,85,41	754,87,41	795,44,41	836,41,41	877,114,41	918,40,41	959,112,41	1000,63,41	1041,104,41	1082,54,41	1123,29,41	1164,97,41	
111,4,41	152,21,41	193,116,41	234,49,41	275,96,41	316,5,41	357,47,41	398,72,41	439,22,41	480,39,41	521,52,41	562,30,41	603,75,41	644,120,41	685,99,41	726,65,41	767,117,41	808,20,41	849,43,41	890,106,41	931,32,41	972,56,41	1013,115,41	1054,23,41	
# Incoming
1,(0, 2),55	521,(11, 109),2	528,(8, 34),56	600,(8, 73),13	616,(8, 82),1	619,(8, 119),1	620,(1, 14),13	672,(1, 78),1	689,(3, 27),4	703,(3, 48),22	732,(3, 91),7	739,(3, 101),6	785,(9, 59),1	
276,(0, 10),55	331,(11, 16),1	334,(11, 53),1	407,(11, 70),13	420,(11, 79),14	523,(8, 28),5	549,(7, 95),1	613,(8, 74),3	666,(1, 68),6	673,(1, 84),3	680,(1, 111),9	729,(3, 60),3	745,(3, 103),1	752,(12, 36),2	754,(12, 53),12	766,(12, 71),1	767,(12, 84),11	
138,(15, 121),1	179,(26, 121),1	193,(21, 121),1	220,(88, 121),1	234,(116, 121),1	261,(89, 121),1	262,(6, 38),1	275,(49, 121),1	302,(57, 121),1	303,(17, 121),1	316,(96, 121),1	343,(86, 121),1	344,(31, 121),1	357,(5, 93),1	358,(5, 102),1	384,(35, 121),1	385,(62, 121),1	398,(47, 121),1	413,(16, 121),1	425,(50, 121),1	426,(66, 121),1	439,(72, 121),1	454,(25, 121),1	466,(55, 121),1	467,(18, 121),1	480,(22, 121),1	495,(46, 121),1	507,(42, 121),1	508,(118, 121),1	521,(39, 121),1	536,(51, 121),1	548,(108, 121),1	562,(52, 121),1	577,(64, 121),1	589,(109, 121),1	590,(19, 121),1	603,(30, 121),1	618,(92, 121),1	630,(34, 121),1	631,(61, 121),1	644,(75, 121),1	659,(113, 121),1	671,(73, 121),1	672,(69, 121),1	685,(120, 121),1	700,(110, 121),1	712,(82, 121),1	713,(94, 121),1	726,(99, 121),1	741,(81, 121),1	753,(119, 121),1	754,(85, 121),1	767,(65, 121),1	782,(83, 121),1	794,(14, 121),1	795,(87, 121),1	808,(117, 121),1	823,(70, 121),1	835,(78, 121),1	836,(44, 121),1	849,(20, 121),1	864,(79, 121),1	876,(27, 121),1	877,(41, 121),1	890,(43, 121),1	905,(28, 121),1	917,(48, 121),1	918,(114, 121),1	931,(106, 121),1	946,(95, 121),1	958,(91, 121),1	959,(40, 121),1	972,(32, 121),1	987,(74, 121),1	999,(101, 121),1	1000,(112, 121),1	1013,(56, 121),1	1028,(68, 121),1	1040,(59, 121),1	1041,(63, 121),1	1054,(115, 121),1	1069,(111, 121),1	1082,(104, 121),1	1095,(23, 121),1	1110,(60, 121),1	1123,(54, 121),1	1151,(103, 121),1	1164,(29, 121),1	1192,(36, 121),1	1205,(97, 121),1	1233,(53, 121),1	1274,(71, 121),1	1315,(84, 121),1	
166,(0, 6),55	221,(0, 7),55	332,(11, 19),1	335,(11, 61),1	336,(11, 69),71	434,(11, 94),11	584,(8, 40),8	617,(8, 112),1	665,(1, 63),1	676,(1, 104),1	725,(3, 54),3	746,(12, 29),6	778,(12, 97),1	
56,(0, 4),55	111,(0, 5),55	263,(6, 72),7	333,(11, 47),1	445,(11, 99),76	592,(8, 65),8	618,(8, 117),1	633,(1, 20),7	640,(1, 43),25	677,(1, 106),3	693,(3, 32),10	728,(3, 56),1	779,(12, 115),3	782,(9, 23),3	
# Outgoing
138,(15, 121),1	179,(26, 121),1	220,(88, 121),1	261,(89, 121),1	302,(57, 121),1	343,(86, 121),1	384,(35, 121),1	425,(50, 121),1	466,(55, 121),1	507,(42, 121),1	548,(108, 121),1	589,(109, 121),1	630,(34, 121),1	671,(73, 121),1	712,(82, 121),1	753,(119, 121),1	794,(14, 121),1	835,(78, 121),1	876,(27, 121),1	917,(48, 121),1	958,(91, 121),1	999,(101, 121),1	1040,(59, 121),1	
413,(16, 121),1	454,(25, 121),1	495,(46, 121),1	536,(51, 121),1	577,(64, 121),1	618,(92, 121),1	659,(113, 121),1	700,(110, 121),1	741,(81, 121),1	782,(83, 121),1	823,(70, 121),1	864,(79, 121),1	905,(28, 121),1	946,(95, 121),1	987,(74, 121),1	1028,(68, 121),1	1069,(111, 121),1	1110,(60, 121),1	1151,(103, 121),1	1192,(36, 121),1	1233,(53, 121),1	1274,(71, 121),1	1315,(84, 121),1	
1,(0, 2),55	56,(0, 4),55	111,(0, 5),55	166,(0, 6),55	221,(0, 7),55	276,(0, 10),55	331,(11, 16),1	332,(11, 19),1	333,(11, 47),1	334,(11, 53),1	335,(11, 61),1	336,(11, 69),71	407,(11, 70),13	420,(11, 79),14	434,(11, 94),11	445,(11, 99),76	521,(11, 109),2	523,(8, 28),5	528,(8, 34),56	584,(8, 40),8	592,(8, 65),8	600,(8, 73),13	613,(8, 74),3	616,(8, 82),1	617,(8, 112),1	618,(8, 117),1	619,(8, 119),1	620,(1, 14),13	633,(1, 20),7	640,(1, 43),25	665,(1, 63),1	666,(1, 68),6	672,(1, 78),1	673,(1, 84),3	676,(1, 104),1	677,(1, 106),3	680,(1, 111),9	689,(3, 27),4	693,(3, 32),10	703,(3, 48),22	725,(3, 54),3	728,(3, 56),1	729,(3, 60),3	732,(3, 91),7	739,(3, 101),6	745,(3, 103),1	746,(12, 29),6	752,(12, 36),2	754,(12, 53),12	766,(12, 71),1	767,(12, 84),11	778,(12, 97),1	779,(12, 115),3	782,(9, 23),3	785,(9, 59),1	
262,(6, 38),1	263,(6, 72),7	303,(17, 121),1	344,(31, 121),1	385,(62, 121),1	426,(66, 121),1	467,(18, 121),1	508,(118, 121),1	549,(7, 95),1	590,(19, 121),1	631,(61, 121),1	672,(69, 121),1	713,(94, 121),1	754,(85, 121),1	795,(87, 121),1	836,(44, 121),1	877,(41, 121),1	918,(114, 121),1	959,(40, 121),1	1000,(112, 121),1	1041,(63, 121),1	1082,(104, 121),1	1123,(54, 121),1	1164,(29, 121),1	1205,(97, 121),1	
193,(21, 121),1	234,(116, 121),1	275,(49, 121),1	316,(96, 121),1	357,(5, 93),1	358,(5, 102),1	398,(47, 121),1	439,(72, 121),1	480,(22, 121),1	521,(39, 121),1	562,(52, 121),1	603,(30, 121),1	644,(75, 121),1	685,(120, 121),1	726,(99, 121),1	767,(65, 121),1	808,(117, 121),1	849,(20, 121),1	890,(43, 121),1	931,(106, 121),1	972,(32, 121),1	1013,(56, 121),1	1054,(115, 121),1	1095,(23, 121),1	
