20202
# CPU
31,4,2	61,8,2	91,12,2	121,16,2	151,20,2	5943,55,2	6919,50,2	7017,113,2	9565,49,2	10259,116,2	10633,164,2	10687,158,2	11293,61,2	11513,118,2	11761,133,2	11991,32,2	13721,84,2	15073,151,2	15357,52,2	15413,57,2	15419,60,2	15425,65,2	15473,82,2	15535,94,2	15539,104,2	15643,106,2	15645,111,2	15925,163,2	15929,167,2	15987,179,2	16007,197,2	16131,46,2	18127,51,2	18163,66,2	18171,74,2	18185,80,2	18197,92,2	18215,98,2	18261,100,2	18363,115,2	18507,161,2	18515,173,2	18527,181,2	18529,183,2	18659,199,2	18661,25,2	18663,29,2	18665,33,2	18673,37,2	18677,43,2	19131,47,2	19175,69,2	19181,76,2	19185,78,2	19189,86,2	19195,88,2	19199,90,2	19205,96,2	19277,135,2	19335,141,2	19343,153,2	19397,171,2	19431,175,2	19453,195,2	19495,54,2	19499,58,2	19505,67,2	19543,68,2	19553,70,2	19563,71,2	19615,102,2	19635,121,2	19725,143,2	19793,145,2	19803,147,2	19805,149,2	19811,159,2	19817,166,2	19825,187,2	19843,189,2	19907,193,2	19917,34,2	19929,35,2	19951,38,2	19955,39,2	19967,44,2	19969,48,2	19977,53,2	19979,56,2	19981,59,2	19989,62,2	19991,64,2	20019,72,2	20029,109,2	20035,117,2	20041,119,2	20047,123,2	20053,125,2	20055,127,2	20057,129,2	20059,131,2	20065,137,2	20067,139,2	20073,155,2	20077,160,2	20089,162,2	20097,168,2	20139,169,2	20171,177,2	20173,185,2	20197,191,2	
21,3,2	51,7,2	81,11,2	111,15,2	141,19,2	4219,136,2	4459,31,2	4947,148,2	5395,194,2	5423,83,2	5639,172,2	5837,93,2	6273,144,2	6279,156,2	6933,103,2	6973,112,2	7163,126,2	7721,170,2	7779,182,2	7855,23,2	7873,28,2	8775,91,2	8881,122,2	8915,124,2	9061,77,2	9067,146,2	9117,79,2	9131,87,2	9147,138,2	9149,176,2	9161,174,2	9181,190,2	9187,186,2	9265,101,2	9403,192,2	9419,200,2	9539,36,2	9737,157,2	10011,81,2	10091,89,2	10093,95,2	10095,97,2	10109,99,2	10223,105,2	10227,107,2	10237,110,2	10251,114,2	10275,120,2	10373,130,2	10463,142,2	10525,152,2	10561,154,2	10657,178,2	10685,184,2	10687,188,2	10811,41,2	11477,73,2	11485,75,2	11505,85,2	11763,128,2	11765,132,2	11801,134,2	11829,140,2	11913,150,2	11997,180,2	12065,196,2	12083,198,2	20201,201,1	
11,2,2	41,6,2	71,10,2	101,14,2	131,18,2	225,108,2	7901,30,2	10641,165,2	10723,22,2	10779,24,2	10781,27,2	10991,45,2	
0,0,1	1,9,2	3,13,2	5,1,2	7,17,2	9,5,2	505,21,2	1189,40,2	1327,26,2	3135,42,2	9049,63,2	
# Incoming
21,(0, 4),10	31,(2, 33),2	33,(2, 35),14	47,(2, 74),2	49,(2, 133),2	51,(0, 8),10	61,(2, 43),16	77,(2, 115),4	81,(0, 12),10	91,(2, 59),12	103,(2, 72),6	109,(2, 145),2	111,(0, 16),10	121,(2, 92),6	127,(2, 116),8	135,(2, 117),6	141,(0, 20),10	151,(3, 34),2	153,(3, 38),2	155,(9, 29),66	221,(3, 39),2	223,(9, 32),134	357,(9, 33),20	377,(9, 34),138	515,(9, 35),22	537,(9, 44),2	539,(9, 51),4	543,(9, 52),182	725,(9, 53),2	727,(9, 54),2	729,(9, 55),16	745,(9, 56),82	827,(9, 57),2	829,(9, 59),2	831,(9, 62),3278	4109,(9, 68),2	4111,(9, 74),2	4113,(9, 80),36	4149,(2, 161),8	4157,(2, 169),6	4163,(3, 48),2	4165,(3, 55),2	4167,(3, 72),2	4169,(9, 84),2	4171,(9, 94),22	4193,(9, 98),10	4203,(9, 102),30	4233,(9, 104),26	4259,(9, 106),2	4261,(3, 69),4	4265,(9, 109),2	4267,(9, 113),20	4287,(9, 115),16	4303,(9, 117),212	4515,(9, 121),2	4517,(9, 127),14	4531,(9, 129),2	4533,(9, 135),38	4571,(9, 139),4	4575,(9, 145),6	4581,(9, 147),8	4589,(9, 158),6	4595,(9, 160),128	4723,(9, 163),24	4747,(9, 167),8	4755,(9, 171),144	4899,(9, 181),10	4909,(2, 187),8	4917,(9, 195),626	5543,(13, 29),342	5885,(3, 98),4	5889,(3, 121),2	5891,(13, 34),14	5905,(13, 38),16	5921,(13, 55),22	5943,(13, 60),6	5949,(13, 65),38	5987,(13, 67),8	5995,(13, 70),862	6857,(13, 71),20	6877,(3, 123),2	6879,(3, 125),2	6881,(13, 78),2	6883,(13, 80),6	6889,(13, 82),2	6891,(2, 50),28	6919,(3, 143),2	6921,(3, 163),4	6925,(13, 96),2	6927,(2, 71),40	6967,(3, 166),2	6969,(3, 168),2	6971,(3, 191),2	6973,(13, 113),44	7017,(2, 96),22	7039,(3, 179),4	7043,(3, 195),2	7045,(13, 125),102	7147,(3, 100),10	7157,(6, 35),2	7159,(6, 48),2	7161,(6, 90),2	7163,(13, 129),2	7165,(2, 86),56	7221,(13, 131),42	7263,(2, 44),62	7325,(2, 135),30	7355,(2, 162),24	7379,(6, 88),4	7383,(13, 135),10	7393,(2, 32),150	7543,(2, 48),76	7619,(2, 166),26	7645,(2, 179),24	7669,(13, 161),40	7709,(13, 164),2	7711,(3, 115),10	7721,(13, 173),54	7775,(13, 179),2	7777,(2, 199),58	7835,(6, 66),6	7841,(13, 191),2	7843,(3, 57),30	7873,(1, 29),12	7885,(3, 189),12	7897,(6, 104),2	7899,(6, 195),2	7901,(1, 32),2	7903,(1, 33),28	7931,(1, 35),2	7933,(1, 43),34	7967,(1, 46),2	7969,(1, 53),4	7973,(1, 57),48	8021,(1, 58),4	8025,(1, 59),2	8027,(1, 66),678	8705,(1, 69),18	8723,(1, 71),14	8737,(1, 74),2	8739,(1, 76),16	8755,(3, 94),18	8773,(7, 65),2	8775,(1, 94),16	8791,(6, 44),14	8805,(7, 71),2	8807,(1, 109),48	8855,(1, 111),8	8863,(1, 115),2	8865,(6, 46),14	8879,(6, 52),26	8905,(6, 67),6	8911,(6, 145),4	8915,(1, 135),56	8971,(1, 141),58	9029,(1, 143),10	9039,(1, 145),26	9065,(7, 80),2	9067,(1, 149),82	9149,(7, 96),2	9151,(1, 161),4	9155,(1, 164),8	9163,(1, 167),14	9177,(1, 171),2	9179,(1, 185),4	9183,(6, 151),4	9187,(1, 187),2	9189,(6, 76),6	9195,(1, 197),2	9197,(2, 129),126	9323,(2, 153),84	9407,(6, 72),20	9427,(6, 98),44	9471,(6, 106),8	9479,(7, 100),2	9481,(17, 29),8	9489,(17, 35),2	9491,(6, 117),34	9525,(6, 158),8	9533,(6, 161),6	9539,(17, 43),2	9541,(17, 46),2	9543,(17, 47),6	9549,(17, 48),14	9563,(17, 49),2	9565,(17, 54),396	9961,(17, 58),14	9975,(17, 61),2	9977,(17, 64),8	9985,(6, 137),20	10005,(6, 193),4	10009,(7, 102),2	10011,(17, 88),78	10089,(6, 187),8	10097,(7, 39),12	10109,(17, 102),98	10207,(6, 118),40	10247,(7, 117),2	10249,(7, 161),2	10251,(17, 116),8	10259,(17, 119),2	10261,(7, 48),12	10273,(7, 187),2	10275,(17, 121),2	10277,(17, 123),28	10305,(17, 125),62	10367,(7, 51),6	10373,(17, 135),44	10417,(17, 137),36	10453,(6, 135),30	10483,(7, 29),16	10499,(7, 58),22	10521,(7, 68),8	10529,(7, 94),6	10535,(7, 104),16	10551,(7, 106),10	10561,(17, 158),2	10563,(17, 164),70	10633,(7, 123),4	10637,(7, 191),2	10639,(10, 56),2	10641,(17, 171),14	10655,(10, 58),2	10657,(17, 179),6	10663,(10, 102),2	10665,(17, 181),16	10681,(7, 158),6	10687,(17, 191),20	10707,(17, 195),4	10711,(7, 34),70	10781,(5, 39),22	10803,(7, 168),6	10809,(10, 118),2	10811,(5, 44),166	10977,(7, 111),10	10987,(10, 84),4	10991,(5, 54),64	11055,(5, 56),4	11059,(5, 57),170	11229,(5, 58),20	11249,(5, 59),8	11257,(5, 61),36	11293,(5, 62),18	11311,(5, 68),126	11437,(5, 72),16	11453,(7, 115),10	11463,(7, 125),18	11481,(10, 135),2	11483,(10, 171),2	11485,(5, 76),4	11489,(5, 84),2	11491,(7, 171),6	11497,(7, 189),6	11503,(11, 32),2	11505,(5, 86),2	11507,(5, 88),2	11509,(5, 94),2	11511,(5, 118),2	11513,(5, 123),206	11719,(5, 125),2	11721,(7, 133),40	11761,(7, 151),28	11789,(7, 183),10	11799,(11, 37),2	11801,(5, 137),26	11827,(11, 43),2	11829,(5, 143),14	11843,(5, 147),58	11901,(5, 149),4	11905,(10, 160),4	11909,(11, 39),4	11913,(5, 151),2	11915,(5, 173),18	11933,(5, 179),46	11979,(10, 32),12	11991,(10, 179),6	11997,(5, 181),36	12033,(2, 177),154	12187,(3, 68),118	12305,(3, 71),132	12437,(3, 102),978	13415,(6, 38),148	13563,(6, 84),158	13721,(6, 181),88	13809,(7, 33),108	13917,(7, 74),92	14009,(7, 137),98	14107,(7, 175),196	14303,(7, 177),22	14325,(7, 193),52	14377,(10, 25),32	14409,(10, 35),334	14743,(10, 37),76	14819,(10, 44),10	14829,(10, 66),22	14851,(10, 68),16	14867,(10, 92),42	14909,(10, 94),20	14929,(10, 104),120	15049,(10, 147),12	15061,(10, 151),12	15073,(10, 167),30	15103,(10, 181),52	15155,(10, 191),22	15177,(10, 195),34	15211,(10, 199),98	15309,(11, 25),32	15341,(11, 52),16	15357,(11, 53),20	15377,(11, 57),36	15413,(11, 60),6	15419,(11, 65),6	15425,(11, 71),22	15447,(11, 74),18	15465,(11, 82),8	15473,(11, 92),44	15517,(11, 94),18	15535,(11, 98),2	15537,(11, 104),2	15539,(11, 106),104	15643,(11, 111),2	15645,(11, 119),2	15647,(11, 123),14	15661,(11, 129),8	15669,(11, 135),6	15675,(11, 141),2	15677,(11, 145),124	15801,(11, 147),50	15851,(11, 163),74	15925,(11, 167),4	15929,(11, 168),52	15981,(11, 169),4	15985,(11, 179),2	15987,(11, 185),4	15991,(11, 191),4	15995,(11, 193),2	15997,(11, 197),10	16007,(11, 199),2	16009,(14, 38),92	16101,(14, 39),14	16115,(14, 46),16	16131,(14, 47),6	16137,(14, 48),1978	18115,(14, 51),12	18127,(14, 56),2	18129,(14, 62),26	18155,(14, 66),8	18163,(14, 71),2	18165,(14, 74),6	18171,(14, 76),6	18177,(14, 78),6	18183,(14, 80),2	18185,(14, 92),12	18197,(14, 98),18	18215,(14, 100),46	18261,(14, 109),4	18265,(14, 115),98	18363,(14, 125),2	18365,(14, 137),26	18391,(14, 139),14	18405,(14, 143),100	18505,(14, 161),2	18507,(14, 169),6	18513,(14, 173),2	18515,(14, 175),2	18517,(14, 177),8	18525,(14, 181),2	18527,(14, 183),2	18529,(14, 189),14	18543,(14, 195),112	18655,(14, 199),4	18659,(15, 25),2	18661,(15, 29),2	18663,(15, 33),2	18665,(15, 35),6	18671,(15, 37),2	18673,(15, 43),4	18677,(15, 44),452	19129,(15, 47),2	19131,(15, 56),12	19143,(15, 58),18	19161,(15, 59),12	19173,(15, 69),2	19175,(15, 72),2	19177,(15, 76),4	19181,(15, 78),4	19185,(15, 86),4	19189,(15, 88),6	19195,(15, 90),4	19199,(15, 96),6	19205,(15, 109),12	19217,(15, 127),58	19275,(15, 135),2	19277,(15, 139),6	19283,(15, 141),52	19335,(15, 149),6	19341,(15, 153),2	19343,(15, 155),22	19365,(15, 169),22	19387,(15, 171),10	19397,(15, 175),34	19431,(15, 187),4	19435,(15, 191),10	19445,(15, 193),6	19451,(15, 195),2	19453,(18, 34),2	19455,(18, 35),36	19491,(18, 44),2	19493,(18, 54),2	19495,(18, 56),2	19497,(18, 58),2	19499,(18, 64),2	19501,(18, 67),4	19505,(18, 68),38	19543,(18, 70),10	19553,(18, 71),10	19563,(18, 102),52	19615,(18, 117),8	19623,(18, 121),12	19635,(18, 139),72	19707,(18, 143),18	19725,(18, 145),68	19793,(18, 147),10	19803,(18, 149),2	19805,(18, 159),6	19811,(18, 166),6	19817,(18, 187),8	19825,(18, 189),18	19843,(18, 191),2	19845,(18, 193),62	19907,(19, 34),10	19917,(19, 35),12	19929,(19, 38),22	19951,(19, 39),4	19955,(19, 44),12	19967,(19, 48),2	19969,(19, 53),8	19977,(19, 56),2	19979,(19, 59),2	19981,(19, 62),8	19989,(19, 64),2	19991,(19, 72),28	20019,(19, 109),10	20029,(19, 117),6	20035,(19, 119),6	20041,(19, 123),6	20047,(19, 125),6	20053,(19, 127),2	20055,(19, 129),2	20057,(19, 131),2	20059,(19, 137),6	20065,(19, 139),2	20067,(19, 155),6	20073,(19, 160),4	20077,(19, 162),12	20089,(19, 168),8	20097,(19, 169),42	20139,(19, 177),32	20171,(19, 185),2	20173,(19, 191),24	
11,(0, 3),10	21,(2, 28),2	23,(2, 79),2	25,(2, 99),4	29,(2, 126),2	33,(4, 23),2	35,(4, 73),2	37,(4, 77),2	41,(0, 7),10	51,(2, 81),10	71,(0, 11),10	81,(2, 107),8	89,(2, 140),2	101,(0, 15),10	111,(2, 114),10	121,(4, 105),10	131,(0, 19),10	141,(2, 36),96	237,(2, 73),124	361,(2, 83),254	615,(2, 91),24	639,(2, 112),36	675,(2, 120),148	823,(2, 124),20	843,(2, 132),6	849,(2, 144),6	855,(2, 150),42	897,(2, 170),8	905,(2, 178),2	907,(2, 196),4	911,(4, 36),32	943,(4, 81),20	963,(4, 114),14	977,(4, 140),10	987,(4, 148),52	1039,(4, 170),26	1065,(4, 172),32	1097,(4, 174),82	1179,(4, 176),6	1185,(4, 182),18	1203,(6, 23),8	1211,(6, 41),2	1213,(6, 75),12	1225,(6, 77),2	1227,(6, 79),20	1247,(6, 101),4	1251,(6, 105),238	1489,(6, 107),24	1513,(6, 126),104	1617,(6, 128),2	1619,(6, 130),32	1651,(6, 132),30	1681,(6, 146),14	1695,(6, 148),16	1711,(6, 152),4	1715,(6, 154),36	1751,(6, 156),2	1753,(6, 157),2	1755,(6, 178),16	1771,(6, 182),2	1773,(6, 184),2	1775,(6, 196),40	1815,(6, 200),8	1823,(8, 28),46	1869,(8, 31),2	1871,(8, 36),24	1895,(8, 79),604	2499,(8, 81),34	2533,(8, 89),2	2535,(8, 91),2	2537,(8, 93),128	2665,(8, 103),2	2667,(8, 105),4	2671,(8, 124),40	2711,(8, 126),2	2713,(8, 132),14	2727,(8, 134),38	2765,(8, 140),18	2783,(8, 146),14	2797,(8, 152),16	2813,(8, 156),88	2901,(8, 172),114	3015,(8, 176),26	3041,(8, 180),2	3043,(8, 182),96	3139,(8, 194),832	3971,(8, 198),2	3973,(10, 23),80	4053,(10, 41),56	4109,(10, 73),8	4117,(10, 79),16	4133,(10, 89),8	4141,(10, 97),8	4149,(9, 83),20	4169,(10, 87),28	4197,(10, 103),14	4211,(10, 132),2	4213,(10, 136),6	4219,(10, 140),10	4229,(10, 146),2	4231,(10, 148),2	4233,(10, 157),20	4253,(10, 186),2	4255,(12, 81),6	4261,(9, 107),4	4265,(10, 154),82	4347,(10, 178),72	4419,(12, 31),40	4459,(12, 73),28	4487,(12, 75),94	4581,(12, 83),24	4605,(12, 87),38	4643,(12, 93),22	4665,(12, 95),120	4785,(12, 99),32	4817,(12, 103),14	4831,(12, 107),2	4833,(12, 110),40	4873,(12, 112),4	4877,(12, 124),24	4901,(12, 150),4	4905,(12, 192),2	4907,(14, 95),2	4909,(9, 186),8	4917,(12, 146),12	4929,(12, 148),18	4947,(12, 198),4	4951,(14, 28),112	5063,(14, 77),86	5149,(14, 114),18	5167,(14, 132),10	5177,(14, 134),2	5179,(14, 140),10	5189,(14, 142),4	5193,(14, 144),4	5197,(14, 157),2	5199,(14, 170),78	5277,(14, 182),2	5279,(14, 184),22	5301,(14, 190),56	5357,(14, 192),32	5389,(14, 194),6	5395,(16, 36),10	5405,(16, 75),2	5407,(16, 81),2	5409,(16, 83),14	5423,(16, 85),2	5425,(16, 89),10	5435,(16, 124),88	5523,(16, 130),2	5525,(16, 142),72	5597,(16, 150),34	5631,(16, 152),2	5633,(16, 172),6	5639,(16, 174),8	5647,(16, 180),2	5649,(16, 190),2	5651,(18, 28),68	5719,(18, 75),2	5721,(18, 85),6	5727,(18, 91),20	5747,(18, 93),90	5837,(18, 97),12	5849,(18, 105),374	6223,(18, 112),4	6227,(18, 134),38	6265,(18, 138),2	6267,(18, 140),4	6271,(18, 144),2	6273,(18, 146),4	6277,(18, 156),2	6279,(18, 178),2	6281,(18, 190),8	6289,(18, 192),2	6291,(18, 198),6	6297,(18, 200),2	6299,(20, 23),2	6301,(20, 28),10	6311,(20, 41),90	6401,(108, 201),2	6877,(13, 73),2	6879,(13, 75),2	6891,(13, 87),34	6927,(13, 101),2	6929,(13, 103),4	6933,(13, 105),4	6937,(13, 112),36	7017,(13, 114),28	7147,(13, 126),16	7165,(13, 130),56	7263,(13, 132),120	7393,(13, 140),2	7395,(13, 142),154	7549,(13, 146),54	7603,(13, 152),12	7615,(13, 157),54	7711,(13, 170),10	7777,(13, 182),2	7779,(13, 184),62	7843,(13, 192),2	7849,(1, 23),6	7855,(1, 28),18	7903,(30, 201),2	8755,(1, 79),12	8767,(1, 81),2	8769,(1, 87),2	8771,(1, 91),4	8791,(1, 95),16	8865,(1, 122),16	8881,(1, 124),34	9049,(20, 75),8	9057,(20, 77),4	9061,(20, 85),4	9065,(1, 146),2	9067,(20, 79),50	9117,(20, 87),14	9131,(20, 99),2	9133,(20, 105),2	9135,(20, 120),6	9141,(20, 138),6	9147,(20, 176),2	9149,(1, 152),2	9151,(20, 174),10	9161,(20, 178),8	9169,(20, 184),10	9179,(20, 190),2	9181,(55, 201),2	9183,(1, 186),4	9187,(50, 201),2	9189,(1, 188),6	9195,(20, 101),70	9265,(20, 134),80	9345,(20, 188),44	9389,(20, 192),14	9403,(20, 200),16	9419,(113, 201),2	9491,(17, 36),48	9539,(20, 157),198	9737,(49, 201),2	9985,(17, 73),20	10005,(17, 81),6	10089,(17, 89),2	10091,(17, 95),2	10093,(17, 97),2	10095,(17, 99),14	10207,(17, 105),16	10223,(17, 107),4	10227,(17, 110),10	10237,(17, 114),14	10261,(17, 120),14	10275,(116, 201),2	10367,(17, 130),6	10453,(17, 142),10	10463,(17, 150),56	10519,(17, 152),6	10525,(17, 154),36	10635,(164, 201),2	10643,(165, 201),2	10655,(17, 178),2	10663,(17, 180),2	10681,(17, 184),4	10685,(17, 188),2	10689,(158, 201),2	10711,(17, 196),2	10725,(22, 201),2	10781,(24, 201),2	10783,(27, 201),2	10803,(5, 41),8	10993,(45, 201),2	11295,(61, 201),2	11453,(5, 73),24	11477,(5, 75),8	11491,(5, 85),14	11515,(118, 201),2	11721,(5, 128),42	11763,(5, 132),2	11765,(5, 134),36	11801,(133, 201),2	11827,(5, 140),2	11905,(5, 150),8	11979,(5, 180),18	11997,(32, 201),2	12033,(5, 196),32	12065,(5, 198),18	12083,(21, 201),2	12085,(40, 201),2	12087,(26, 201),2	12089,(42, 201),2	12091,(63, 201),2	13723,(84, 201),2	15075,(151, 201),2	15359,(52, 201),2	15415,(57, 201),2	15421,(60, 201),2	15427,(65, 201),2	15475,(82, 201),2	15537,(94, 201),2	15541,(104, 201),2	15645,(106, 201),2	15647,(111, 201),2	15927,(163, 201),2	15931,(167, 201),2	15989,(179, 201),2	16009,(197, 201),2	16133,(46, 201),2	18129,(51, 201),2	18165,(66, 201),2	18173,(74, 201),2	18187,(80, 201),2	18199,(92, 201),2	18217,(98, 201),2	18263,(100, 201),2	18365,(115, 201),2	18509,(161, 201),2	18517,(173, 201),2	18529,(181, 201),2	18531,(183, 201),2	18661,(199, 201),2	18663,(25, 201),2	18665,(29, 201),2	18667,(33, 201),2	18675,(37, 201),2	18679,(43, 201),2	19133,(47, 201),2	19177,(69, 201),2	19183,(76, 201),2	19187,(78, 201),2	19191,(86, 201),2	19197,(88, 201),2	19201,(90, 201),2	19207,(96, 201),2	19279,(135, 201),2	19337,(141, 201),2	19345,(153, 201),2	19399,(171, 201),2	19433,(175, 201),2	19455,(195, 201),2	19497,(54, 201),2	19501,(58, 201),2	19507,(67, 201),2	19545,(68, 201),2	19555,(70, 201),2	19565,(71, 201),2	19617,(102, 201),2	19637,(121, 201),2	19727,(143, 201),2	19795,(145, 201),2	19805,(147, 201),2	19807,(149, 201),2	19813,(159, 201),2	19819,(166, 201),2	19827,(187, 201),2	19845,(189, 201),2	19909,(193, 201),2	19919,(34, 201),2	19931,(35, 201),2	19953,(38, 201),2	19957,(39, 201),2	19969,(44, 201),2	19971,(48, 201),2	19979,(53, 201),2	19981,(56, 201),2	19983,(59, 201),2	19991,(62, 201),2	19993,(64, 201),2	20021,(72, 201),2	20031,(109, 201),2	20037,(117, 201),2	20043,(119, 201),2	20049,(123, 201),2	20055,(125, 201),2	20057,(127, 201),2	20059,(129, 201),2	20061,(131, 201),2	20067,(137, 201),2	20069,(139, 201),2	20075,(155, 201),2	20079,(160, 201),2	20091,(162, 201),2	20099,(168, 201),2	20141,(169, 201),2	20173,(177, 201),2	20175,(185, 201),2	20199,(191, 201),2	
1,(0, 2),10	31,(0, 6),10	41,(4, 30),2	57,(7, 165),4	61,(0, 10),10	71,(3, 108),6	91,(0, 14),10	101,(11, 22),16	119,(8, 24),2	121,(0, 18),10	131,(4, 45),20	151,(9, 22),4	155,(11, 30),44	199,(15, 165),10	221,(9, 30),2	223,(8, 108),2	225,(12, 165),36	261,(16, 22),10	271,(16, 24),44	315,(16, 165),24	373,(7, 30),160	533,(8, 45),164	697,(19, 27),26	5885,(13, 30),6	7845,(1, 22),4	7885,(1, 30),16	9197,(17, 22),2	9199,(17, 24),280	9479,(17, 27),2	10633,(17, 165),8	10713,(5, 22),10	10723,(5, 24),56	10779,(5, 27),2	10977,(5, 45),14	
13,(2, 21),2	15,(2, 42),2	23,(3, 21),30	53,(3, 63),4	57,(4, 40),36	93,(4, 42),26	119,(7, 40),14	133,(11, 26),2	135,(15, 21),2	151,(8, 40),46	197,(8, 42),2	199,(8, 63),24	223,(7, 26),150	373,(12, 42),66	439,(16, 21),56	495,(20, 21),10	533,(15, 42),20	553,(19, 63),10	697,(16, 26),108	911,(6, 26),30	941,(6, 42),16	957,(18, 40),4	961,(18, 63),40	1001,(19, 40),188	1203,(20, 26),124	1823,(18, 42),1312	6401,(20, 63),2648	
# Outgoing
33,(4, 23),2	35,(4, 73),2	37,(4, 77),2	41,(4, 30),2	57,(4, 40),36	93,(4, 42),26	119,(8, 24),2	121,(4, 105),10	131,(4, 45),20	151,(8, 40),46	197,(8, 42),2	199,(8, 63),24	223,(8, 108),2	225,(12, 165),36	261,(16, 22),10	271,(16, 24),44	315,(16, 165),24	373,(12, 42),66	439,(16, 21),56	495,(20, 21),10	533,(8, 45),164	697,(16, 26),108	911,(4, 36),32	943,(4, 81),20	963,(4, 114),14	977,(4, 140),10	987,(4, 148),52	1039,(4, 170),26	1065,(4, 172),32	1097,(4, 174),82	1179,(4, 176),6	1185,(4, 182),18	1203,(20, 26),124	1823,(8, 28),46	1869,(8, 31),2	1871,(8, 36),24	1895,(8, 79),604	2499,(8, 81),34	2533,(8, 89),2	2535,(8, 91),2	2537,(8, 93),128	2665,(8, 103),2	2667,(8, 105),4	2671,(8, 124),40	2711,(8, 126),2	2713,(8, 132),14	2727,(8, 134),38	2765,(8, 140),18	2783,(8, 146),14	2797,(8, 152),16	2813,(8, 156),88	2901,(8, 172),114	3015,(8, 176),26	3041,(8, 180),2	3043,(8, 182),96	3139,(8, 194),832	3971,(8, 198),2	4255,(12, 81),6	4419,(12, 31),40	4459,(12, 73),28	4487,(12, 75),94	4581,(12, 83),24	4605,(12, 87),38	4643,(12, 93),22	4665,(12, 95),120	4785,(12, 99),32	4817,(12, 103),14	4831,(12, 107),2	4833,(12, 110),40	4873,(12, 112),4	4877,(12, 124),24	4901,(12, 150),4	4905,(12, 192),2	4917,(12, 146),12	4929,(12, 148),18	4947,(12, 198),4	5395,(16, 36),10	5405,(16, 75),2	5407,(16, 81),2	5409,(16, 83),14	5423,(16, 85),2	5425,(16, 89),10	5435,(16, 124),88	5523,(16, 130),2	5525,(16, 142),72	5597,(16, 150),34	5631,(16, 152),2	5633,(16, 172),6	5639,(16, 174),8	5647,(16, 180),2	5649,(16, 190),2	6299,(20, 23),2	6301,(20, 28),10	6311,(20, 41),90	6401,(20, 63),2648	9049,(20, 75),8	9057,(20, 77),4	9061,(20, 85),4	9067,(20, 79),50	9117,(20, 87),14	9131,(20, 99),2	9133,(20, 105),2	9135,(20, 120),6	9141,(20, 138),6	9147,(20, 176),2	9151,(20, 174),10	9161,(20, 178),8	9169,(20, 184),10	9179,(20, 190),2	9181,(55, 201),2	9187,(50, 201),2	9195,(20, 101),70	9265,(20, 134),80	9345,(20, 188),44	9389,(20, 192),14	9403,(20, 200),16	9419,(113, 201),2	9539,(20, 157),198	9737,(49, 201),2	10275,(116, 201),2	10635,(164, 201),2	10689,(158, 201),2	11295,(61, 201),2	11515,(118, 201),2	11801,(133, 201),2	11997,(32, 201),2	13723,(84, 201),2	15075,(151, 201),2	15359,(52, 201),2	15415,(57, 201),2	15421,(60, 201),2	15427,(65, 201),2	15475,(82, 201),2	15537,(94, 201),2	15541,(104, 201),2	15645,(106, 201),2	15647,(111, 201),2	15927,(163, 201),2	15931,(167, 201),2	15989,(179, 201),2	16009,(197, 201),2	16133,(46, 201),2	18129,(51, 201),2	18165,(66, 201),2	18173,(74, 201),2	18187,(80, 201),2	18199,(92, 201),2	18217,(98, 201),2	18263,(100, 201),2	18365,(115, 201),2	18509,(161, 201),2	18517,(173, 201),2	18529,(181, 201),2	18531,(183, 201),2	18661,(199, 201),2	18663,(25, 201),2	18665,(29, 201),2	18667,(33, 201),2	18675,(37, 201),2	18679,(43, 201),2	19133,(47, 201),2	19177,(69, 201),2	19183,(76, 201),2	19187,(78, 201),2	19191,(86, 201),2	19197,(88, 201),2	19201,(90, 201),2	19207,(96, 201),2	19279,(135, 201),2	19337,(141, 201),2	19345,(153, 201),2	19399,(171, 201),2	19433,(175, 201),2	19455,(195, 201),2	19497,(54, 201),2	19501,(58, 201),2	19507,(67, 201),2	19545,(68, 201),2	19555,(70, 201),2	19565,(71, 201),2	19617,(102, 201),2	19637,(121, 201),2	19727,(143, 201),2	19795,(145, 201),2	19805,(147, 201),2	19807,(149, 201),2	19813,(159, 201),2	19819,(166, 201),2	19827,(187, 201),2	19845,(189, 201),2	19909,(193, 201),2	19919,(34, 201),2	19931,(35, 201),2	19953,(38, 201),2	19957,(39, 201),2	19969,(44, 201),2	19971,(48, 201),2	19979,(53, 201),2	19981,(56, 201),2	19983,(59, 201),2	19991,(62, 201),2	19993,(64, 201),2	20021,(72, 201),2	20031,(109, 201),2	20037,(117, 201),2	20043,(119, 201),2	20049,(123, 201),2	20055,(125, 201),2	20057,(127, 201),2	20059,(129, 201),2	20061,(131, 201),2	20067,(137, 201),2	20069,(139, 201),2	20075,(155, 201),2	20079,(160, 201),2	20091,(162, 201),2	20099,(168, 201),2	20141,(169, 201),2	20173,(177, 201),2	20175,(185, 201),2	20199,(191, 201),2	
23,(3, 21),30	53,(3, 63),4	57,(7, 165),4	71,(3, 108),6	101,(11, 22),16	119,(7, 40),14	133,(11, 26),2	135,(15, 21),2	151,(3, 34),2	153,(3, 38),2	155,(11, 30),44	199,(15, 165),10	221,(3, 39),2	223,(7, 26),150	373,(7, 30),160	533,(15, 42),20	553,(19, 63),10	697,(19, 27),26	1001,(19, 40),188	4163,(3, 48),2	4165,(3, 55),2	4167,(3, 72),2	4261,(3, 69),4	5885,(3, 98),4	5889,(3, 121),2	6877,(3, 123),2	6879,(3, 125),2	6919,(3, 143),2	6921,(3, 163),4	6967,(3, 166),2	6969,(3, 168),2	6971,(3, 191),2	7039,(3, 179),4	7043,(3, 195),2	7147,(3, 100),10	7711,(3, 115),10	7843,(3, 57),30	7885,(3, 189),12	8755,(3, 94),18	8773,(7, 65),2	8805,(7, 71),2	9065,(7, 80),2	9149,(7, 96),2	9479,(7, 100),2	10009,(7, 102),2	10097,(7, 39),12	10247,(7, 117),2	10249,(7, 161),2	10261,(7, 48),12	10273,(7, 187),2	10367,(7, 51),6	10483,(7, 29),16	10499,(7, 58),22	10521,(7, 68),8	10529,(7, 94),6	10535,(7, 104),16	10551,(7, 106),10	10633,(7, 123),4	10637,(7, 191),2	10681,(7, 158),6	10711,(7, 34),70	10803,(7, 168),6	10977,(7, 111),10	11453,(7, 115),10	11463,(7, 125),18	11491,(7, 171),6	11497,(7, 189),6	11503,(11, 32),2	11721,(7, 133),40	11761,(7, 151),28	11789,(7, 183),10	11799,(11, 37),2	11827,(11, 43),2	11909,(11, 39),4	12187,(3, 68),118	12305,(3, 71),132	12437,(3, 102),978	13809,(7, 33),108	13917,(7, 74),92	14009,(7, 137),98	14107,(7, 175),196	14303,(7, 177),22	14325,(7, 193),52	15309,(11, 25),32	15341,(11, 52),16	15357,(11, 53),20	15377,(11, 57),36	15413,(11, 60),6	15419,(11, 65),6	15425,(11, 71),22	15447,(11, 74),18	15465,(11, 82),8	15473,(11, 92),44	15517,(11, 94),18	15535,(11, 98),2	15537,(11, 104),2	15539,(11, 106),104	15643,(11, 111),2	15645,(11, 119),2	15647,(11, 123),14	15661,(11, 129),8	15669,(11, 135),6	15675,(11, 141),2	15677,(11, 145),124	15801,(11, 147),50	15851,(11, 163),74	15925,(11, 167),4	15929,(11, 168),52	15981,(11, 169),4	15985,(11, 179),2	15987,(11, 185),4	15991,(11, 191),4	15995,(11, 193),2	15997,(11, 197),10	16007,(11, 199),2	18659,(15, 25),2	18661,(15, 29),2	18663,(15, 33),2	18665,(15, 35),6	18671,(15, 37),2	18673,(15, 43),4	18677,(15, 44),452	19129,(15, 47),2	19131,(15, 56),12	19143,(15, 58),18	19161,(15, 59),12	19173,(15, 69),2	19175,(15, 72),2	19177,(15, 76),4	19181,(15, 78),4	19185,(15, 86),4	19189,(15, 88),6	19195,(15, 90),4	19199,(15, 96),6	19205,(15, 109),12	19217,(15, 127),58	19275,(15, 135),2	19277,(15, 139),6	19283,(15, 141),52	19335,(15, 149),6	19341,(15, 153),2	19343,(15, 155),22	19365,(15, 169),22	19387,(15, 171),10	19397,(15, 175),34	19431,(15, 187),4	19435,(15, 191),10	19445,(15, 193),6	19451,(15, 195),2	19907,(19, 34),10	19917,(19, 35),12	19929,(19, 38),22	19951,(19, 39),4	19955,(19, 44),12	19967,(19, 48),2	19969,(19, 53),8	19977,(19, 56),2	19979,(19, 59),2	19981,(19, 62),8	19989,(19, 64),2	19991,(19, 72),28	20019,(19, 109),10	20029,(19, 117),6	20035,(19, 119),6	20041,(19, 123),6	20047,(19, 125),6	20053,(19, 127),2	20055,(19, 129),2	20057,(19, 131),2	20059,(19, 137),6	20065,(19, 139),2	20067,(19, 155),6	20073,(19, 160),4	20077,(19, 162),12	20089,(19, 168),8	20097,(19, 169),42	20139,(19, 177),32	20171,(19, 185),2	20173,(19, 191),24	
13,(2, 21),2	15,(2, 42),2	21,(2, 28),2	23,(2, 79),2	25,(2, 99),4	29,(2, 126),2	31,(2, 33),2	33,(2, 35),14	47,(2, 74),2	49,(2, 133),2	51,(2, 81),10	61,(2, 43),16	77,(2, 115),4	81,(2, 107),8	89,(2, 140),2	91,(2, 59),12	103,(2, 72),6	109,(2, 145),2	111,(2, 114),10	121,(2, 92),6	127,(2, 116),8	135,(2, 117),6	141,(2, 36),96	237,(2, 73),124	361,(2, 83),254	615,(2, 91),24	639,(2, 112),36	675,(2, 120),148	823,(2, 124),20	843,(2, 132),6	849,(2, 144),6	855,(2, 150),42	897,(2, 170),8	905,(2, 178),2	907,(2, 196),4	911,(6, 26),30	941,(6, 42),16	957,(18, 40),4	961,(18, 63),40	1203,(6, 23),8	1211,(6, 41),2	1213,(6, 75),12	1225,(6, 77),2	1227,(6, 79),20	1247,(6, 101),4	1251,(6, 105),238	1489,(6, 107),24	1513,(6, 126),104	1617,(6, 128),2	1619,(6, 130),32	1651,(6, 132),30	1681,(6, 146),14	1695,(6, 148),16	1711,(6, 152),4	1715,(6, 154),36	1751,(6, 156),2	1753,(6, 157),2	1755,(6, 178),16	1771,(6, 182),2	1773,(6, 184),2	1775,(6, 196),40	1815,(6, 200),8	1823,(18, 42),1312	3973,(10, 23),80	4053,(10, 41),56	4109,(10, 73),8	4117,(10, 79),16	4133,(10, 89),8	4141,(10, 97),8	4149,(2, 161),8	4157,(2, 169),6	4169,(10, 87),28	4197,(10, 103),14	4211,(10, 132),2	4213,(10, 136),6	4219,(10, 140),10	4229,(10, 146),2	4231,(10, 148),2	4233,(10, 157),20	4253,(10, 186),2	4265,(10, 154),82	4347,(10, 178),72	4907,(14, 95),2	4909,(2, 187),8	4951,(14, 28),112	5063,(14, 77),86	5149,(14, 114),18	5167,(14, 132),10	5177,(14, 134),2	5179,(14, 140),10	5189,(14, 142),4	5193,(14, 144),4	5197,(14, 157),2	5199,(14, 170),78	5277,(14, 182),2	5279,(14, 184),22	5301,(14, 190),56	5357,(14, 192),32	5389,(14, 194),6	5651,(18, 28),68	5719,(18, 75),2	5721,(18, 85),6	5727,(18, 91),20	5747,(18, 93),90	5837,(18, 97),12	5849,(18, 105),374	6223,(18, 112),4	6227,(18, 134),38	6265,(18, 138),2	6267,(18, 140),4	6271,(18, 144),2	6273,(18, 146),4	6277,(18, 156),2	6279,(18, 178),2	6281,(18, 190),8	6289,(18, 192),2	6291,(18, 198),6	6297,(18, 200),2	6401,(108, 201),2	6891,(2, 50),28	6927,(2, 71),40	7017,(2, 96),22	7157,(6, 35),2	7159,(6, 48),2	7161,(6, 90),2	7165,(2, 86),56	7263,(2, 44),62	7325,(2, 135),30	7355,(2, 162),24	7379,(6, 88),4	7393,(2, 32),150	7543,(2, 48),76	7619,(2, 166),26	7645,(2, 179),24	7777,(2, 199),58	7835,(6, 66),6	7897,(6, 104),2	7899,(6, 195),2	7903,(30, 201),2	8791,(6, 44),14	8865,(6, 46),14	8879,(6, 52),26	8905,(6, 67),6	8911,(6, 145),4	9183,(6, 151),4	9189,(6, 76),6	9197,(2, 129),126	9323,(2, 153),84	9407,(6, 72),20	9427,(6, 98),44	9471,(6, 106),8	9491,(6, 117),34	9525,(6, 158),8	9533,(6, 161),6	9985,(6, 137),20	10005,(6, 193),4	10089,(6, 187),8	10207,(6, 118),40	10453,(6, 135),30	10639,(10, 56),2	10643,(165, 201),2	10655,(10, 58),2	10663,(10, 102),2	10725,(22, 201),2	10781,(24, 201),2	10783,(27, 201),2	10809,(10, 118),2	10987,(10, 84),4	10993,(45, 201),2	11481,(10, 135),2	11483,(10, 171),2	11905,(10, 160),4	11979,(10, 32),12	11991,(10, 179),6	12033,(2, 177),154	13415,(6, 38),148	13563,(6, 84),158	13721,(6, 181),88	14377,(10, 25),32	14409,(10, 35),334	14743,(10, 37),76	14819,(10, 44),10	14829,(10, 66),22	14851,(10, 68),16	14867,(10, 92),42	14909,(10, 94),20	14929,(10, 104),120	15049,(10, 147),12	15061,(10, 151),12	15073,(10, 167),30	15103,(10, 181),52	15155,(10, 191),22	15177,(10, 195),34	15211,(10, 199),98	16009,(14, 38),92	16101,(14, 39),14	16115,(14, 46),16	16131,(14, 47),6	16137,(14, 48),1978	18115,(14, 51),12	18127,(14, 56),2	18129,(14, 62),26	18155,(14, 66),8	18163,(14, 71),2	18165,(14, 74),6	18171,(14, 76),6	18177,(14, 78),6	18183,(14, 80),2	18185,(14, 92),12	18197,(14, 98),18	18215,(14, 100),46	18261,(14, 109),4	18265,(14, 115),98	18363,(14, 125),2	18365,(14, 137),26	18391,(14, 139),14	18405,(14, 143),100	18505,(14, 161),2	18507,(14, 169),6	18513,(14, 173),2	18515,(14, 175),2	18517,(14, 177),8	18525,(14, 181),2	18527,(14, 183),2	18529,(14, 189),14	18543,(14, 195),112	18655,(14, 199),4	19453,(18, 34),2	19455,(18, 35),36	19491,(18, 44),2	19493,(18, 54),2	19495,(18, 56),2	19497,(18, 58),2	19499,(18, 64),2	19501,(18, 67),4	19505,(18, 68),38	19543,(18, 70),10	19553,(18, 71),10	19563,(18, 102),52	19615,(18, 117),8	19623,(18, 121),12	19635,(18, 139),72	19707,(18, 143),18	19725,(18, 145),68	19793,(18, 147),10	19803,(18, 149),2	19805,(18, 159),6	19811,(18, 166),6	19817,(18, 187),8	19825,(18, 189),18	19843,(18, 191),2	19845,(18, 193),62	
1,(0, 2),10	11,(0, 3),10	21,(0, 4),10	31,(0, 6),10	41,(0, 7),10	51,(0, 8),10	61,(0, 10),10	71,(0, 11),10	81,(0, 12),10	91,(0, 14),10	101,(0, 15),10	111,(0, 16),10	121,(0, 18),10	131,(0, 19),10	141,(0, 20),10	151,(9, 22),4	155,(9, 29),66	221,(9, 30),2	223,(9, 32),134	357,(9, 33),20	377,(9, 34),138	515,(9, 35),22	537,(9, 44),2	539,(9, 51),4	543,(9, 52),182	725,(9, 53),2	727,(9, 54),2	729,(9, 55),16	745,(9, 56),82	827,(9, 57),2	829,(9, 59),2	831,(9, 62),3278	4109,(9, 68),2	4111,(9, 74),2	4113,(9, 80),36	4149,(9, 83),20	4169,(9, 84),2	4171,(9, 94),22	4193,(9, 98),10	4203,(9, 102),30	4233,(9, 104),26	4259,(9, 106),2	4261,(9, 107),4	4265,(9, 109),2	4267,(9, 113),20	4287,(9, 115),16	4303,(9, 117),212	4515,(9, 121),2	4517,(9, 127),14	4531,(9, 129),2	4533,(9, 135),38	4571,(9, 139),4	4575,(9, 145),6	4581,(9, 147),8	4589,(9, 158),6	4595,(9, 160),128	4723,(9, 163),24	4747,(9, 167),8	4755,(9, 171),144	4899,(9, 181),10	4909,(9, 186),8	4917,(9, 195),626	5543,(13, 29),342	5885,(13, 30),6	5891,(13, 34),14	5905,(13, 38),16	5921,(13, 55),22	5943,(13, 60),6	5949,(13, 65),38	5987,(13, 67),8	5995,(13, 70),862	6857,(13, 71),20	6877,(13, 73),2	6879,(13, 75),2	6881,(13, 78),2	6883,(13, 80),6	6889,(13, 82),2	6891,(13, 87),34	6925,(13, 96),2	6927,(13, 101),2	6929,(13, 103),4	6933,(13, 105),4	6937,(13, 112),36	6973,(13, 113),44	7017,(13, 114),28	7045,(13, 125),102	7147,(13, 126),16	7163,(13, 129),2	7165,(13, 130),56	7221,(13, 131),42	7263,(13, 132),120	7383,(13, 135),10	7393,(13, 140),2	7395,(13, 142),154	7549,(13, 146),54	7603,(13, 152),12	7615,(13, 157),54	7669,(13, 161),40	7709,(13, 164),2	7711,(13, 170),10	7721,(13, 173),54	7775,(13, 179),2	7777,(13, 182),2	7779,(13, 184),62	7841,(13, 191),2	7843,(13, 192),2	7845,(1, 22),4	7849,(1, 23),6	7855,(1, 28),18	7873,(1, 29),12	7885,(1, 30),16	7901,(1, 32),2	7903,(1, 33),28	7931,(1, 35),2	7933,(1, 43),34	7967,(1, 46),2	7969,(1, 53),4	7973,(1, 57),48	8021,(1, 58),4	8025,(1, 59),2	8027,(1, 66),678	8705,(1, 69),18	8723,(1, 71),14	8737,(1, 74),2	8739,(1, 76),16	8755,(1, 79),12	8767,(1, 81),2	8769,(1, 87),2	8771,(1, 91),4	8775,(1, 94),16	8791,(1, 95),16	8807,(1, 109),48	8855,(1, 111),8	8863,(1, 115),2	8865,(1, 122),16	8881,(1, 124),34	8915,(1, 135),56	8971,(1, 141),58	9029,(1, 143),10	9039,(1, 145),26	9065,(1, 146),2	9067,(1, 149),82	9149,(1, 152),2	9151,(1, 161),4	9155,(1, 164),8	9163,(1, 167),14	9177,(1, 171),2	9179,(1, 185),4	9183,(1, 186),4	9187,(1, 187),2	9189,(1, 188),6	9195,(1, 197),2	9197,(17, 22),2	9199,(17, 24),280	9479,(17, 27),2	9481,(17, 29),8	9489,(17, 35),2	9491,(17, 36),48	9539,(17, 43),2	9541,(17, 46),2	9543,(17, 47),6	9549,(17, 48),14	9563,(17, 49),2	9565,(17, 54),396	9961,(17, 58),14	9975,(17, 61),2	9977,(17, 64),8	9985,(17, 73),20	10005,(17, 81),6	10011,(17, 88),78	10089,(17, 89),2	10091,(17, 95),2	10093,(17, 97),2	10095,(17, 99),14	10109,(17, 102),98	10207,(17, 105),16	10223,(17, 107),4	10227,(17, 110),10	10237,(17, 114),14	10251,(17, 116),8	10259,(17, 119),2	10261,(17, 120),14	10275,(17, 121),2	10277,(17, 123),28	10305,(17, 125),62	10367,(17, 130),6	10373,(17, 135),44	10417,(17, 137),36	10453,(17, 142),10	10463,(17, 150),56	10519,(17, 152),6	10525,(17, 154),36	10561,(17, 158),2	10563,(17, 164),70	10633,(17, 165),8	10641,(17, 171),14	10655,(17, 178),2	10657,(17, 179),6	10663,(17, 180),2	10665,(17, 181),16	10681,(17, 184),4	10685,(17, 188),2	10687,(17, 191),20	10707,(17, 195),4	10711,(17, 196),2	10713,(5, 22),10	10723,(5, 24),56	10779,(5, 27),2	10781,(5, 39),22	10803,(5, 41),8	10811,(5, 44),166	10977,(5, 45),14	10991,(5, 54),64	11055,(5, 56),4	11059,(5, 57),170	11229,(5, 58),20	11249,(5, 59),8	11257,(5, 61),36	11293,(5, 62),18	11311,(5, 68),126	11437,(5, 72),16	11453,(5, 73),24	11477,(5, 75),8	11485,(5, 76),4	11489,(5, 84),2	11491,(5, 85),14	11505,(5, 86),2	11507,(5, 88),2	11509,(5, 94),2	11511,(5, 118),2	11513,(5, 123),206	11719,(5, 125),2	11721,(5, 128),42	11763,(5, 132),2	11765,(5, 134),36	11801,(5, 137),26	11827,(5, 140),2	11829,(5, 143),14	11843,(5, 147),58	11901,(5, 149),4	11905,(5, 150),8	11913,(5, 151),2	11915,(5, 173),18	11933,(5, 179),46	11979,(5, 180),18	11997,(5, 181),36	12033,(5, 196),32	12065,(5, 198),18	12083,(21, 201),2	12085,(40, 201),2	12087,(26, 201),2	12089,(42, 201),2	12091,(63, 201),2	
