168
# CPU
0,21,1	1,19,8	9,9,8	17,14,8	25,4,8	33,15,8	41,10,8	49,11,8	57,6,8	65,5,8	73,7,8	81,18,8	89,3,8	97,2,8	159,1,8	167,0,1	
7,12,8	16,20,8	
4,8,8	13,16,8	
10,13,8	19,17,8	
# Incoming
12,(8, 2),3	18,(13, 2),3	27,(17, 2),9	36,(12, 1),18	54,(16, 1),18	72,(20, 1),57	129,(17, 1),30	
4,(21, 12),3	13,(21, 20),3	
1,(21, 8),3	10,(21, 16),3	
7,(21, 13),3	16,(21, 17),3	
# Outgoing
1,(21, 8),3	4,(21, 12),3	7,(21, 13),3	10,(21, 16),3	13,(21, 20),3	16,(21, 17),3	
36,(12, 1),18	72,(20, 1),57	
12,(8, 2),3	54,(16, 1),18	
18,(13, 2),3	27,(17, 2),9	129,(17, 1),30	
