2646
# CPU
49,9,3	112,5,3	377,16,3	381,17,3	413,18,3	449,19,3	469,10,3	473,13,3	485,15,3	
13,2,3	16,7,3	19,12,3	22,11,3	25,4,3	45,8,3	165,14,3	
0,0,1	1,1,3	108,3,3	408,6,3	785,20,3	2645,21,1	
# Incoming
45,(1, 9),4	108,(2, 5),4	165,(1, 15),192	357,(1, 16),20	377,(1, 17),4	381,(1, 18),32	413,(1, 19),36	449,(2, 10),20	469,(2, 13),4	473,(2, 15),12	
1,(0, 2),12	13,(1, 4),4	17,(1, 8),28	49,(1, 14),116	
16,(2, 3),92	112,(2, 6),296	485,(2, 20),300	785,(7, 21),124	909,(12, 21),124	1033,(11, 21),124	1157,(4, 21),124	1281,(8, 21),124	1405,(9, 21),124	1529,(5, 21),124	1653,(14, 21),124	1777,(16, 21),124	1901,(17, 21),124	2025,(18, 21),124	2149,(19, 21),124	2273,(10, 21),124	2397,(13, 21),124	2521,(15, 21),124	
# Outgoing
1405,(9, 21),124	1529,(5, 21),124	1777,(16, 21),124	1901,(17, 21),124	2025,(18, 21),124	2149,(19, 21),124	2273,(10, 21),124	2397,(13, 21),124	2521,(15, 21),124	
16,(2, 3),92	108,(2, 5),4	112,(2, 6),296	449,(2, 10),20	469,(2, 13),4	473,(2, 15),12	485,(2, 20),300	785,(7, 21),124	909,(12, 21),124	1033,(11, 21),124	1157,(4, 21),124	1281,(8, 21),124	1653,(14, 21),124	
1,(0, 2),12	13,(1, 4),4	17,(1, 8),28	45,(1, 9),4	49,(1, 14),116	165,(1, 15),192	357,(1, 16),20	377,(1, 17),4	381,(1, 18),32	413,(1, 19),36	
