22
# CPU
0,0,1	1,1,1	2,2,1	3,5,1	4,11,1	5,17,1	6,9,1	7,4,1	8,7,1	9,16,1	10,6,1	11,14,1	12,12,1	13,15,1	14,20,1	15,13,1	16,10,1	17,8,1	18,18,1	19,3,1	20,19,1	21,21,1	




# Incoming





# Outgoing





