444
# CPU
0,121,1	1,14,1	2,73,1	3,84,1	4,96,1	5,17,1	6,105,1	7,100,1	8,28,1	9,107,1	10,69,1	11,32,1	12,82,1	13,77,1	14,72,1	15,83,1	16,115,1	17,79,1	18,87,1	19,18,1	20,50,1	21,26,1	22,116,1	23,75,1	24,49,1	25,92,1	26,58,1	27,39,1	28,74,1	29,35,1	30,106,1	31,53,1	32,88,1	33,46,1	34,61,1	35,98,1	36,23,1	37,34,1	38,78,1	39,102,1	40,80,1	41,68,1	42,85,1	43,64,1	44,51,1	45,59,1	46,110,1	47,76,1	48,41,1	49,101,1	50,30,1	51,81,1	52,91,1	53,44,1	54,112,1	55,21,1	56,90,1	57,70,1	58,97,1	59,36,1	60,47,1	61,119,1	62,104,1	63,31,1	64,117,1	65,94,1	66,20,1	67,54,1	68,43,1	69,27,1	70,93,1	71,120,1	72,24,1	73,57,1	74,48,1	75,45,1	76,108,1	77,99,1	78,33,1	79,86,1	80,42,1	81,62,1	82,15,1	83,13,1	84,111,1	85,109,1	86,19,1	87,103,1	88,95,1	89,114,1	90,52,1	91,66,1	92,37,1	93,71,1	94,113,1	95,3,1	96,16,1	97,89,1	98,25,1	99,63,1	100,29,1	101,65,1	102,67,1	103,40,1	104,118,1	105,38,1	106,8,1	107,55,1	108,11,1	109,1,1	110,60,1	111,10,1	112,56,1	113,5,1	114,9,1	115,6,1	116,2,1	182,4,1	270,12,1	442,7,1	443,0,1	
93,22,1	


# Incoming
94,(22, 2),8	102,(22, 4),80	182,(22, 12),88	270,(22, 7),172	
1,(121, 22),92	


# Outgoing
1,(121, 22),92	
94,(22, 2),8	102,(22, 4),80	182,(22, 12),88	270,(22, 7),172	


