696
# CPU
0,0,1	1,11,10	11,21,10	21,12,10	31,113,10	41,108,10	51,64,10	61,2,10	71,119,10	81,103,10	91,60,10	101,54,10	111,24,10	121,4,10	131,83,10	141,23,10	151,82,10	161,102,10	171,40,10	181,14,10	191,38,10	201,8,10	211,50,10	221,19,10	231,88,10	241,41,10	251,31,10	261,6,10	271,28,10	281,91,10	291,89,10	301,30,10	311,61,10	321,55,10	331,118,10	341,10,10	351,111,10	361,115,10	371,85,10	381,68,10	391,86,10	401,74,10	411,27,10	421,63,10	431,76,10	441,13,10	451,39,10	461,52,10	491,57,10	521,22,10	685,35,10	695,121,1	
33,26,10	65,42,10	75,47,10	133,49,10	143,56,10	205,9,10	215,70,10	225,62,10	235,92,10	245,16,10	255,96,10	265,78,10	293,33,10	347,44,10	357,72,10	393,84,10	435,5,10	445,20,10	455,45,10	465,51,10	475,80,10	485,105,10	495,75,10	505,37,10	515,59,10	525,81,10	535,99,10	
41,117,10	77,43,10	121,1,10	131,104,10	141,94,10	151,98,10	161,18,10	171,66,10	181,107,10	191,29,10	213,95,10	227,100,10	269,7,10	279,109,10	289,77,10	299,15,10	309,48,10	319,53,10	329,116,10	361,90,10	463,87,10	
79,46,10	133,73,10	143,65,10	335,3,10	345,32,10	355,58,10	365,114,10	375,120,10	385,67,10	395,36,10	405,110,10	415,112,10	463,71,10	
141,17,10	151,69,10	285,101,10	361,25,10	
377,79,10	
73,97,10	

275,34,10	
163,93,10	281,106,10	
# Incoming
43,(26, 121),4	51,(117, 121),4	75,(42, 121),4	83,(97, 121),4	87,(47, 121),4	91,(43, 121),4	95,(46, 121),4	141,(104, 121),4	145,(49, 121),4	149,(73, 121),4	153,(94, 121),4	157,(17, 121),4	161,(65, 121),4	165,(56, 121),4	169,(98, 121),4	173,(69, 121),4	177,(18, 121),4	181,(93, 121),4	185,(66, 121),4	191,(107, 121),4	201,(29, 121),4	223,(95, 121),4	227,(70, 121),4	235,(62, 121),4	239,(100, 121),4	245,(92, 121),4	255,(16, 121),4	265,(96, 121),4	275,(78, 121),4	285,(34, 121),4	289,(109, 121),4	293,(106, 121),4	297,(101, 121),4	301,(77, 121),4	305,(33, 121),4	309,(15, 121),4	319,(48, 121),4	329,(53, 121),4	339,(116, 121),4	349,(3, 22),2	355,(32, 121),4	359,(44, 121),4	365,(58, 121),4	369,(72, 121),4	373,(90, 121),4	377,(25, 121),4	381,(114, 121),4	385,(120, 121),4	389,(79, 121),4	395,(67, 121),4	399,(3, 35),4	403,(84, 121),4	407,(36, 121),4	415,(110, 121),4	425,(112, 121),4	445,(5, 39),4	455,(20, 121),4	465,(45, 121),4	473,(87, 121),4	477,(5, 57),14	491,(71, 121),4	495,(51, 121),4	499,(80, 121),4	503,(105, 121),4	507,(5, 22),14	521,(75, 121),4	525,(37, 121),4	529,(59, 121),4	535,(81, 121),4	539,(5, 35),146	685,(99, 121),4	
31,(12, 26),2	41,(11, 42),24	65,(12, 96),2	67,(11, 72),4	73,(2, 47),2	121,(2, 44),2	131,(4, 49),2	137,(1, 56),4	163,(0, 9),42	205,(4, 78),6	285,(6, 33),8	345,(3, 44),2	347,(3, 72),2	361,(10, 84),32	393,(0, 5),42	
33,(12, 117),8	75,(2, 43),2	79,(0, 1),42	211,(8, 95),2	213,(8, 100),14	227,(0, 7),42	351,(10, 90),10	449,(5, 87),4	
77,(2, 46),2	131,(1, 73),2	133,(1, 65),4	269,(4, 112),2	293,(0, 3),42	377,(7, 71),52	459,(5, 71),4	
133,(4, 17),8	145,(1, 69),6	279,(6, 101),6	335,(2, 25),16	351,(3, 25),2	
343,(7, 79),20	369,(3, 79),8	
71,(2, 97),2	

271,(6, 34),4	
141,(4, 93),22	275,(11, 106),4	279,(7, 106),2	
# Outgoing
31,(12, 26),2	33,(12, 117),8	41,(11, 42),24	65,(12, 96),2	67,(11, 72),4	71,(2, 97),2	73,(2, 47),2	75,(2, 43),2	77,(2, 46),2	79,(0, 1),42	121,(2, 44),2	131,(4, 49),2	133,(4, 17),8	141,(4, 93),22	163,(0, 9),42	205,(4, 78),6	211,(8, 95),2	213,(8, 100),14	227,(0, 7),42	269,(4, 112),2	271,(6, 34),4	275,(11, 106),4	279,(6, 101),6	285,(6, 33),8	293,(0, 3),42	335,(2, 25),16	351,(10, 90),10	361,(10, 84),32	393,(0, 5),42	
43,(26, 121),4	75,(42, 121),4	87,(47, 121),4	145,(49, 121),4	165,(56, 121),4	227,(70, 121),4	235,(62, 121),4	245,(92, 121),4	255,(16, 121),4	265,(96, 121),4	275,(78, 121),4	305,(33, 121),4	359,(44, 121),4	369,(72, 121),4	403,(84, 121),4	445,(5, 39),4	449,(5, 87),4	455,(20, 121),4	459,(5, 71),4	465,(45, 121),4	477,(5, 57),14	495,(51, 121),4	499,(80, 121),4	503,(105, 121),4	507,(5, 22),14	521,(75, 121),4	525,(37, 121),4	529,(59, 121),4	535,(81, 121),4	539,(5, 35),146	685,(99, 121),4	
51,(117, 121),4	91,(43, 121),4	131,(1, 73),2	133,(1, 65),4	137,(1, 56),4	141,(104, 121),4	145,(1, 69),6	153,(94, 121),4	169,(98, 121),4	177,(18, 121),4	185,(66, 121),4	191,(107, 121),4	201,(29, 121),4	223,(95, 121),4	239,(100, 121),4	279,(7, 106),2	289,(109, 121),4	301,(77, 121),4	309,(15, 121),4	319,(48, 121),4	329,(53, 121),4	339,(116, 121),4	343,(7, 79),20	373,(90, 121),4	377,(7, 71),52	473,(87, 121),4	
95,(46, 121),4	149,(73, 121),4	161,(65, 121),4	345,(3, 44),2	347,(3, 72),2	349,(3, 22),2	351,(3, 25),2	355,(32, 121),4	365,(58, 121),4	369,(3, 79),8	381,(114, 121),4	385,(120, 121),4	395,(67, 121),4	399,(3, 35),4	407,(36, 121),4	415,(110, 121),4	425,(112, 121),4	491,(71, 121),4	
157,(17, 121),4	173,(69, 121),4	297,(101, 121),4	377,(25, 121),4	
389,(79, 121),4	
83,(97, 121),4	

285,(34, 121),4	
181,(93, 121),4	293,(106, 121),4	
