7925
# CPU
55,11,18	175,34,18	343,70,18	466,105,18	508,75,18	526,108,18	592,42,18	3172,65,18	3280,94,18	3319,103,18	3337,104,18	3406,119,18	
19,5,18	169,109,18	373,64,18	469,45,18	517,14,18	547,23,18	622,35,18	640,59,18	964,115,18	1012,83,18	3148,53,18	3286,102,18	
25,6,18	43,112,18	115,39,18	199,48,18	217,49,18	298,29,18	316,31,18	385,52,18	628,89,18	814,68,18	1039,97,18	1069,111,18	
43,9,18	223,13,18	247,90,18	355,84,18	541,20,18	622,76,18	640,87,18	658,117,18	868,78,18	3103,16,18	3139,24,18	3157,56,18	
61,12,18	259,19,18	349,62,18	367,98,18	424,101,18	442,50,18	619,74,18	754,73,18	1027,96,18	1078,114,18	3145,28,18	
13,4,18	178,15,18	289,91,18	463,107,18	544,22,18	562,27,18	664,57,18	688,61,18	1072,113,18	3130,21,18	3262,93,18	
31,7,18	49,51,18	67,54,18	565,32,18	595,44,18	820,118,18	910,100,18	1018,85,18	3184,66,18	3202,79,18	3220,80,18	
0,0,1	1,2,18	19,1,18	166,25,18	184,18,18	202,43,18	253,38,18	292,63,18	322,88,18	388,99,18	622,82,18	640,110,18	
49,10,18	433,95,18	469,37,18	820,72,18	838,47,18	4141,26,18	4921,67,18	4999,30,18	5719,40,18	6982,60,18	7312,86,18	7510,116,18	7615,41,18	7663,81,18	7924,121,1	
7,3,18	25,17,18	43,120,18	61,8,18	229,33,18	247,36,18	265,46,18	298,69,18	316,71,18	334,58,18	637,55,18	691,77,18	919,106,18	1021,92,18	
# Incoming
49,(0, 11),6	103,(4, 34),6	133,(4, 42),6	151,(4, 65),3	154,(4, 75),9	163,(4, 103),3	169,(3, 34),6	175,(6, 42),18	193,(3, 105),3	196,(9, 42),18	214,(9, 75),12	226,(12, 42),9	235,(3, 75),24	259,(4, 105),12	271,(5, 105),18	289,(5, 119),6	295,(9, 103),12	316,(7, 75),18	334,(12, 70),9	355,(2, 42),108	463,(6, 105),3	466,(6, 108),15	481,(7, 108),12	493,(12, 75),15	508,(12, 108),18	565,(10, 42),27	622,(8, 119),45	964,(10, 119),18	1039,(2, 103),27	3049,(2, 119),18	3151,(1, 65),21	3262,(1, 94),18	3286,(1, 103),33	3319,(1, 104),9	3328,(1, 119),78	
13,(0, 5),6	61,(4, 23),3	64,(9, 14),27	94,(9, 35),15	109,(4, 35),24	145,(6, 23),3	148,(2, 23),9	163,(9, 102),3	166,(4, 109),3	184,(3, 64),3	187,(12, 53),3	202,(6, 83),3	217,(2, 35),18	235,(4, 83),12	247,(6, 53),84	331,(6, 64),33	364,(7, 59),6	370,(7, 64),3	385,(7, 115),24	409,(9, 53),45	463,(2, 45),6	469,(8, 59),9	481,(6, 115),15	496,(10, 14),21	544,(10, 23),3	547,(11, 35),75	634,(2, 59),3	637,(11, 83),99	736,(11, 115),30	799,(10, 83),48	949,(10, 115),15	1009,(2, 83),3	3145,(1, 53),3	3280,(1, 102),6	
19,(0, 6),6	91,(9, 31),3	112,(9, 39),3	142,(9, 97),3	172,(2, 29),18	190,(2, 31),6	196,(3, 48),3	199,(3, 49),3	202,(3, 52),33	235,(7, 31),3	250,(5, 97),9	259,(5, 111),3	262,(7, 52),3	265,(7, 68),6	271,(9, 89),18	289,(8, 29),9	298,(8, 31),3	301,(12, 68),18	331,(11, 52),54	454,(9, 111),27	511,(11, 111),18	625,(10, 89),3	736,(2, 68),78	919,(10, 111),30	1027,(2, 97),12	1066,(2, 111),3	
37,(0, 9),6	43,(4, 16),18	61,(2, 13),6	67,(4, 24),3	70,(5, 13),12	82,(5, 20),6	88,(6, 13),12	100,(6, 16),39	139,(6, 20),6	145,(4, 56),6	151,(6, 24),3	157,(3, 24),6	163,(12, 13),9	175,(3, 56),3	190,(3, 84),3	193,(7, 13),30	223,(7, 24),3	229,(5, 90),18	259,(11, 20),6	271,(4, 117),51	322,(11, 24),9	331,(8, 24),3	334,(7, 76),15	349,(7, 84),6	355,(12, 78),24	442,(8, 78),3	454,(8, 56),15	517,(10, 20),24	541,(8, 76),24	595,(10, 56),21	619,(10, 76),3	622,(10, 87),3	631,(10, 117),3	820,(2, 78),48	3067,(1, 16),36	3130,(1, 24),9	3148,(1, 56),3	
55,(0, 12),6	67,(2, 19),48	115,(3, 19),42	157,(2, 28),15	172,(4, 62),3	178,(3, 62),6	187,(3, 74),3	190,(4, 28),15	205,(5, 62),24	229,(4, 96),3	232,(7, 28),3	235,(9, 101),6	247,(5, 96),3	250,(11, 19),9	259,(3, 98),9	268,(5, 98),3	271,(7, 62),15	292,(11, 74),3	313,(7, 73),3	316,(9, 62),33	355,(7, 98),3	379,(7, 114),6	388,(11, 114),6	418,(6, 101),6	424,(8, 50),18	478,(8, 73),45	616,(10, 74),3	718,(10, 73),36	1024,(2, 96),3	1072,(2, 114),6	3139,(1, 28),6	
7,(0, 4),6	88,(5, 21),24	115,(2, 22),33	148,(9, 113),3	154,(6, 27),9	172,(12, 15),6	178,(12, 22),9	202,(5, 107),3	205,(6, 61),33	238,(7, 22),3	241,(7, 27),3	259,(7, 93),3	265,(11, 27),15	280,(8, 21),3	283,(8, 57),3	286,(8, 91),3	301,(8, 107),15	316,(8, 113),3	364,(6, 93),54	424,(6, 113),6	451,(6, 107),12	541,(10, 22),3	547,(10, 27),15	637,(10, 57),27	664,(10, 61),24	688,(8, 93),87	847,(10, 93),54	1021,(2, 93),3	1069,(2, 113),3	3103,(1, 21),27	3199,(1, 93),63	
25,(0, 7),6	121,(5, 66),45	166,(6, 44),9	175,(4, 80),15	190,(9, 66),3	193,(12, 85),3	196,(2, 32),21	247,(4, 118),6	271,(3, 118),3	274,(8, 44),3	277,(8, 85),3	280,(11, 32),12	316,(11, 85),3	334,(8, 118),12	349,(9, 79),48	397,(11, 44),63	562,(10, 32),3	592,(10, 44),3	637,(2, 66),54	691,(10, 66),27	754,(10, 79),45	799,(11, 118),21	901,(10, 100),9	1012,(2, 85),6	3172,(1, 66),12	3184,(1, 79),3	3187,(1, 80),12	
163,(3, 25),3	166,(5, 18),3	169,(9, 43),3	178,(5, 82),24	202,(12, 38),3	238,(6, 88),3	241,(6, 99),3	244,(7, 38),9	268,(3, 110),3	286,(7, 63),6	295,(11, 82),18	319,(11, 88),3	322,(8, 110),9	358,(7, 99),6	373,(7, 110),6	385,(11, 99),3	565,(8, 82),57	628,(10, 110),3	
43,(0, 10),6	70,(4, 26),33	115,(9, 40),3	118,(9, 47),24	148,(6, 30),3	151,(9, 67),12	166,(3, 26),3	169,(5, 67),3	190,(12, 72),3	199,(6, 81),3	205,(4, 81),24	229,(7, 47),3	232,(15, 121),3	241,(13, 121),3	244,(2, 40),111	355,(3, 81),27	382,(3, 86),42	424,(5, 95),9	433,(6, 86),18	451,(17, 121),3	454,(7, 37),15	469,(2, 47),117	586,(4, 67),81	667,(6, 116),24	691,(2, 67),45	736,(5, 26),78	814,(2, 72),6	820,(112, 121),3	823,(120, 121),3	826,(51, 121),3	829,(11, 41),3	832,(11, 47),6	838,(11, 60),15	853,(11, 67),3	856,(8, 30),6	862,(54, 121),3	865,(39, 121),3	868,(2, 81),141	1009,(11, 40),69	1078,(2, 116),1971	3049,(3, 30),138	3187,(4, 86),945	4132,(1, 26),9	4141,(1, 30),750	4891,(1, 67),30	4921,(1, 116),3	4924,(5, 30),75	4999,(5, 41),567	5566,(6, 60),81	5647,(7, 40),72	5719,(7, 86),681	6400,(7, 116),180	6580,(9, 60),402	6982,(9, 116),153	7135,(11, 86),72	7207,(8, 86),105	7312,(8, 116),198	7510,(12, 41),105	7615,(12, 81),48	7663,(25, 121),3	7666,(109, 121),3	7669,(34, 121),3	7672,(18, 121),3	7675,(48, 121),3	7678,(43, 121),3	7681,(49, 121),3	7684,(33, 121),3	7687,(90, 121),3	7690,(36, 121),3	7693,(38, 121),3	7696,(19, 121),3	7699,(46, 121),3	7702,(91, 121),3	7705,(63, 121),3	7708,(29, 121),3	7711,(69, 121),3	7714,(71, 121),3	7717,(31, 121),3	7720,(88, 121),3	7723,(58, 121),3	7726,(70, 121),3	7729,(62, 121),3	7732,(84, 121),3	7735,(98, 121),3	7738,(64, 121),3	7741,(52, 121),3	7744,(99, 121),3	7747,(101, 121),3	7750,(50, 121),3	7753,(107, 121),3	7756,(105, 121),3	7759,(45, 121),3	7762,(75, 121),3	7765,(14, 121),3	7768,(108, 121),3	7771,(20, 121),3	7774,(22, 121),3	7777,(23, 121),3	7780,(27, 121),3	7783,(32, 121),3	7786,(42, 121),3	7789,(44, 121),3	7792,(74, 121),3	7795,(35, 121),3	7798,(82, 121),3	7801,(76, 121),3	7804,(89, 121),3	7807,(55, 121),3	7810,(59, 121),3	7813,(110, 121),3	7816,(87, 121),3	7819,(117, 121),3	7822,(57, 121),3	7825,(61, 121),3	7828,(77, 121),3	7831,(73, 121),3	7834,(68, 121),3	7837,(118, 121),3	7840,(78, 121),3	7843,(100, 121),3	7846,(106, 121),3	7849,(115, 121),3	7852,(83, 121),3	7855,(85, 121),3	7858,(92, 121),3	7861,(96, 121),3	7864,(97, 121),3	7867,(111, 121),3	7870,(113, 121),3	7873,(114, 121),3	7876,(16, 121),3	7879,(21, 121),3	7882,(24, 121),3	7885,(28, 121),3	7888,(53, 121),3	7891,(56, 121),3	7894,(65, 121),3	7897,(66, 121),3	7900,(79, 121),3	7903,(80, 121),3	7906,(93, 121),3	7909,(94, 121),3	7912,(102, 121),3	7915,(103, 121),3	7918,(104, 121),3	7921,(119, 121),3	
1,(0, 3),6	31,(0, 8),6	64,(4, 46),3	109,(9, 36),3	112,(5, 33),9	139,(4, 55),6	145,(9, 77),3	163,(6, 33),3	172,(5, 77),6	193,(6, 69),6	199,(12, 106),3	205,(12, 46),9	214,(12, 69),12	226,(7, 33),3	235,(2, 36),9	244,(6, 92),3	253,(7, 46),6	292,(7, 69),6	298,(7, 71),15	313,(11, 58),3	460,(11, 77),51	586,(2, 55),48	634,(10, 55),3	688,(10, 77),3	910,(10, 106),9	1018,(2, 92),3	
# Outgoing
250,(11, 19),9	259,(11, 20),6	265,(11, 27),15	280,(11, 32),12	292,(11, 74),3	295,(11, 82),18	313,(11, 58),3	316,(11, 85),3	319,(11, 88),3	322,(11, 24),9	331,(11, 52),54	385,(11, 99),3	388,(11, 114),6	397,(11, 44),63	460,(11, 77),51	511,(11, 111),18	547,(11, 35),75	637,(11, 83),99	736,(11, 115),30	799,(11, 118),21	829,(11, 41),3	832,(11, 47),6	838,(11, 60),15	853,(11, 67),3	1009,(11, 40),69	7135,(11, 86),72	7669,(34, 121),3	7726,(70, 121),3	7756,(105, 121),3	7762,(75, 121),3	7768,(108, 121),3	7786,(42, 121),3	7894,(65, 121),3	7909,(94, 121),3	7915,(103, 121),3	7918,(104, 121),3	7921,(119, 121),3	
70,(5, 13),12	82,(5, 20),6	88,(5, 21),24	112,(5, 33),9	121,(5, 66),45	166,(5, 18),3	169,(5, 67),3	172,(5, 77),6	178,(5, 82),24	202,(5, 107),3	205,(5, 62),24	229,(5, 90),18	247,(5, 96),3	250,(5, 97),9	259,(5, 111),3	268,(5, 98),3	271,(5, 105),18	289,(5, 119),6	424,(5, 95),9	736,(5, 26),78	4924,(5, 30),75	4999,(5, 41),567	7666,(109, 121),3	7738,(64, 121),3	7759,(45, 121),3	7765,(14, 121),3	7777,(23, 121),3	7795,(35, 121),3	7810,(59, 121),3	7849,(115, 121),3	7852,(83, 121),3	7888,(53, 121),3	7912,(102, 121),3	
88,(6, 13),12	100,(6, 16),39	139,(6, 20),6	145,(6, 23),3	148,(6, 30),3	151,(6, 24),3	154,(6, 27),9	163,(6, 33),3	166,(6, 44),9	175,(6, 42),18	193,(6, 69),6	199,(6, 81),3	202,(6, 83),3	205,(6, 61),33	238,(6, 88),3	241,(6, 99),3	244,(6, 92),3	247,(6, 53),84	331,(6, 64),33	364,(6, 93),54	418,(6, 101),6	424,(6, 113),6	433,(6, 86),18	451,(6, 107),12	463,(6, 105),3	466,(6, 108),15	481,(6, 115),15	667,(6, 116),24	820,(112, 121),3	865,(39, 121),3	5566,(6, 60),81	7675,(48, 121),3	7681,(49, 121),3	7708,(29, 121),3	7717,(31, 121),3	7741,(52, 121),3	7804,(89, 121),3	7834,(68, 121),3	7864,(97, 121),3	7867,(111, 121),3	
64,(9, 14),27	91,(9, 31),3	94,(9, 35),15	109,(9, 36),3	112,(9, 39),3	115,(9, 40),3	118,(9, 47),24	142,(9, 97),3	145,(9, 77),3	148,(9, 113),3	151,(9, 67),12	163,(9, 102),3	169,(9, 43),3	190,(9, 66),3	196,(9, 42),18	214,(9, 75),12	235,(9, 101),6	241,(13, 121),3	271,(9, 89),18	295,(9, 103),12	316,(9, 62),33	349,(9, 79),48	409,(9, 53),45	454,(9, 111),27	6580,(9, 60),402	6982,(9, 116),153	7687,(90, 121),3	7732,(84, 121),3	7771,(20, 121),3	7801,(76, 121),3	7816,(87, 121),3	7819,(117, 121),3	7840,(78, 121),3	7876,(16, 121),3	7882,(24, 121),3	7891,(56, 121),3	
163,(12, 13),9	172,(12, 15),6	178,(12, 22),9	187,(12, 53),3	190,(12, 72),3	193,(12, 85),3	199,(12, 106),3	202,(12, 38),3	205,(12, 46),9	214,(12, 69),12	226,(12, 42),9	301,(12, 68),18	334,(12, 70),9	355,(12, 78),24	493,(12, 75),15	508,(12, 108),18	7510,(12, 41),105	7615,(12, 81),48	7696,(19, 121),3	7729,(62, 121),3	7735,(98, 121),3	7747,(101, 121),3	7750,(50, 121),3	7792,(74, 121),3	7831,(73, 121),3	7861,(96, 121),3	7873,(114, 121),3	7885,(28, 121),3	
43,(4, 16),18	61,(4, 23),3	64,(4, 46),3	67,(4, 24),3	70,(4, 26),33	103,(4, 34),6	109,(4, 35),24	133,(4, 42),6	139,(4, 55),6	145,(4, 56),6	151,(4, 65),3	154,(4, 75),9	163,(4, 103),3	166,(4, 109),3	172,(4, 62),3	175,(4, 80),15	190,(4, 28),15	205,(4, 81),24	229,(4, 96),3	232,(15, 121),3	235,(4, 83),12	247,(4, 118),6	259,(4, 105),12	271,(4, 117),51	586,(4, 67),81	3187,(4, 86),945	7702,(91, 121),3	7753,(107, 121),3	7774,(22, 121),3	7780,(27, 121),3	7822,(57, 121),3	7825,(61, 121),3	7870,(113, 121),3	7879,(21, 121),3	7906,(93, 121),3	
193,(7, 13),30	223,(7, 24),3	226,(7, 33),3	229,(7, 47),3	232,(7, 28),3	235,(7, 31),3	238,(7, 22),3	241,(7, 27),3	244,(7, 38),9	253,(7, 46),6	259,(7, 93),3	262,(7, 52),3	265,(7, 68),6	271,(7, 62),15	286,(7, 63),6	292,(7, 69),6	298,(7, 71),15	313,(7, 73),3	316,(7, 75),18	334,(7, 76),15	349,(7, 84),6	355,(7, 98),3	358,(7, 99),6	364,(7, 59),6	370,(7, 64),3	373,(7, 110),6	379,(7, 114),6	385,(7, 115),24	454,(7, 37),15	481,(7, 108),12	826,(51, 121),3	862,(54, 121),3	5647,(7, 40),72	5719,(7, 86),681	6400,(7, 116),180	7783,(32, 121),3	7789,(44, 121),3	7837,(118, 121),3	7843,(100, 121),3	7855,(85, 121),3	7897,(66, 121),3	7900,(79, 121),3	7903,(80, 121),3	
1,(0, 3),6	7,(0, 4),6	13,(0, 5),6	19,(0, 6),6	25,(0, 7),6	31,(0, 8),6	37,(0, 9),6	43,(0, 10),6	49,(0, 11),6	55,(0, 12),6	61,(2, 13),6	67,(2, 19),48	115,(2, 22),33	148,(2, 23),9	157,(2, 28),15	172,(2, 29),18	190,(2, 31),6	196,(2, 32),21	217,(2, 35),18	235,(2, 36),9	244,(2, 40),111	355,(2, 42),108	463,(2, 45),6	469,(2, 47),117	586,(2, 55),48	634,(2, 59),3	637,(2, 66),54	691,(2, 67),45	736,(2, 68),78	814,(2, 72),6	820,(2, 78),48	868,(2, 81),141	1009,(2, 83),3	1012,(2, 85),6	1018,(2, 92),3	1021,(2, 93),3	1024,(2, 96),3	1027,(2, 97),12	1039,(2, 103),27	1066,(2, 111),3	1069,(2, 113),3	1072,(2, 114),6	1078,(2, 116),1971	3049,(2, 119),18	3067,(1, 16),36	3103,(1, 21),27	3130,(1, 24),9	3139,(1, 28),6	3145,(1, 53),3	3148,(1, 56),3	3151,(1, 65),21	3172,(1, 66),12	3184,(1, 79),3	3187,(1, 80),12	3199,(1, 93),63	3262,(1, 94),18	3280,(1, 102),6	3286,(1, 103),33	3319,(1, 104),9	3328,(1, 119),78	4132,(1, 26),9	4141,(1, 30),750	4891,(1, 67),30	4921,(1, 116),3	7663,(25, 121),3	7672,(18, 121),3	7678,(43, 121),3	7693,(38, 121),3	7705,(63, 121),3	7720,(88, 121),3	7744,(99, 121),3	7798,(82, 121),3	7813,(110, 121),3	
496,(10, 14),21	517,(10, 20),24	541,(10, 22),3	544,(10, 23),3	547,(10, 27),15	562,(10, 32),3	565,(10, 42),27	592,(10, 44),3	595,(10, 56),21	616,(10, 74),3	619,(10, 76),3	622,(10, 87),3	625,(10, 89),3	628,(10, 110),3	631,(10, 117),3	634,(10, 55),3	637,(10, 57),27	664,(10, 61),24	688,(10, 77),3	691,(10, 66),27	718,(10, 73),36	754,(10, 79),45	799,(10, 83),48	847,(10, 93),54	901,(10, 100),9	910,(10, 106),9	919,(10, 111),30	949,(10, 115),15	964,(10, 119),18	
115,(3, 19),42	157,(3, 24),6	163,(3, 25),3	166,(3, 26),3	169,(3, 34),6	175,(3, 56),3	178,(3, 62),6	184,(3, 64),3	187,(3, 74),3	190,(3, 84),3	193,(3, 105),3	196,(3, 48),3	199,(3, 49),3	202,(3, 52),33	235,(3, 75),24	259,(3, 98),9	268,(3, 110),3	271,(3, 118),3	274,(8, 44),3	277,(8, 85),3	280,(8, 21),3	283,(8, 57),3	286,(8, 91),3	289,(8, 29),9	298,(8, 31),3	301,(8, 107),15	316,(8, 113),3	322,(8, 110),9	331,(8, 24),3	334,(8, 118),12	355,(3, 81),27	382,(3, 86),42	424,(8, 50),18	442,(8, 78),3	451,(17, 121),3	454,(8, 56),15	469,(8, 59),9	478,(8, 73),45	541,(8, 76),24	565,(8, 82),57	622,(8, 119),45	688,(8, 93),87	823,(120, 121),3	856,(8, 30),6	3049,(3, 30),138	7207,(8, 86),105	7312,(8, 116),198	7684,(33, 121),3	7690,(36, 121),3	7699,(46, 121),3	7711,(69, 121),3	7714,(71, 121),3	7723,(58, 121),3	7807,(55, 121),3	7828,(77, 121),3	7846,(106, 121),3	7858,(92, 121),3	
