5368
# CPU
9,5,1	10,53,1	17,10,1	18,105,1	19,26,1	39,49,1	53,100,1	86,114,1	165,31,1	201,90,1	223,113,1	277,34,1	285,37,1	303,58,1	315,62,1	359,102,1	397,47,1	419,103,1	441,32,1	543,33,1	605,54,1	613,104,1	615,111,1	617,115,1	627,57,1	659,99,1	685,64,1	703,101,1	725,35,1	727,42,1	763,72,1	837,55,1	857,76,1	1069,98,1	1309,29,1	1335,116,1	1415,117,1	1433,87,1	1435,20,1	1453,30,1	1567,45,1	1571,52,1	1583,56,1	1621,68,1	1861,82,1	1993,89,1	1995,91,1	2073,95,1	2107,96,1	2117,109,1	2139,110,1	2141,112,1	2143,119,1	2157,120,1	2505,70,1	4873,60,1	4875,66,1	4909,86,1	5115,93,1	5191,94,1	5193,97,1	5347,106,1	5351,118,1	5367,121,1	
7,4,1	15,9,1	16,65,1	79,71,1	81,27,1	110,46,1	124,19,1	451,69,1	465,48,1	599,38,1	627,63,1	635,59,1	681,61,1	753,67,1	857,75,1	1063,108,1	1099,85,1	1123,50,1	1443,25,1	1505,44,1	1857,81,1	4891,84,1	5101,88,1	
5,3,1	13,8,1	60,17,1	72,22,1	111,24,1	305,43,1	349,79,1	489,28,1	499,77,1	757,51,1	1313,107,1	1641,74,1	1847,80,1	
3,2,1	4,39,1	11,7,1	12,92,1	19,12,1	509,78,1	529,15,1	555,23,1	921,83,1	1433,18,1	1497,41,1	1625,73,1	
0,0,1	1,11,1	2,1,1	3,6,1	4,13,1	78,16,1	216,36,1	469,14,1	471,21,1	4871,40,1	
# Incoming
7,(0, 5),2	15,(0, 10),2	17,(4, 26),2	19,(4, 35),2	21,(11, 30),6	27,(4, 34),10	37,(4, 49),2	39,(4, 52),2	41,(4, 62),2	43,(4, 89),4	47,(4, 100),6	53,(4, 115),12	66,(2, 33),8	74,(2, 68),2	76,(2, 109),2	78,(9, 52),2	80,(9, 114),6	87,(2, 37),8	95,(2, 47),32	127,(3, 20),20	147,(3, 29),2	149,(3, 30),12	161,(3, 31),4	165,(3, 33),4	169,(3, 76),18	187,(3, 82),6	193,(3, 90),8	201,(3, 104),10	211,(3, 112),8	219,(3, 113),4	223,(4, 102),52	275,(8, 34),2	277,(8, 37),8	285,(8, 57),10	295,(8, 58),8	303,(8, 60),10	313,(8, 62),2	315,(8, 68),10	325,(8, 76),4	329,(8, 86),24	353,(8, 101),2	355,(8, 102),4	359,(8, 103),2	361,(8, 110),2	363,(8, 115),2	365,(8, 118),20	385,(9, 47),12	397,(65, 121),2	399,(11, 82),2	401,(11, 101),16	417,(11, 103),2	419,(11, 117),18	437,(1, 20),2	439,(1, 32),2	441,(1, 33),102	543,(1, 42),56	599,(2, 54),6	605,(2, 104),8	613,(2, 111),2	615,(2, 115),2	617,(39, 121),2	619,(1, 56),2	621,(1, 57),6	627,(2, 95),16	643,(2, 99),16	659,(2, 110),20	679,(7, 93),2	681,(1, 64),4	685,(1, 66),4	689,(7, 55),4	693,(7, 68),8	701,(7, 101),2	703,(7, 110),18	721,(92, 121),2	723,(12, 35),2	725,(12, 42),2	727,(17, 121),2	729,(22, 121),2	731,(24, 121),2	733,(43, 121),2	735,(79, 121),2	737,(28, 121),2	739,(77, 121),2	753,(1, 72),10	763,(2, 55),74	837,(9, 76),20	857,(1, 82),192	1049,(1, 95),18	1067,(1, 98),2	1069,(4, 29),240	1309,(71, 121),2	1311,(27, 121),2	1313,(1, 110),14	1327,(1, 116),8	1335,(1, 117),80	1415,(9, 87),18	1433,(6, 20),2	1435,(46, 121),2	1437,(19, 121),2	1439,(69, 121),2	1441,(48, 121),2	1443,(6, 30),10	1453,(9, 95),10	1463,(9, 96),10	1473,(38, 121),2	1475,(63, 121),2	1477,(59, 121),2	1479,(61, 121),2	1481,(67, 121),2	1483,(51, 121),2	1485,(75, 121),2	1487,(108, 121),2	1489,(85, 121),2	1491,(50, 121),2	1493,(107, 121),2	1495,(25, 121),2	1505,(6, 45),62	1567,(6, 52),4	1571,(6, 56),12	1583,(6, 68),38	1621,(9, 119),40	1661,(44, 121),2	1663,(74, 121),2	1848,(80, 121),2	1857,(6, 82),4	1861,(6, 89),132	1993,(6, 91),2	1995,(6, 95),78	2073,(6, 96),34	2107,(6, 109),10	2117,(6, 110),22	2139,(6, 112),2	2141,(6, 119),2	2143,(6, 120),14	2157,(13, 121),2	2159,(9, 70),346	2505,(16, 121),2	2507,(36, 121),2	2509,(14, 121),2	2511,(21, 121),2	2513,(81, 121),2	4871,(12, 60),2	4873,(12, 66),2	4875,(40, 121),2	4891,(12, 86),18	4909,(84, 121),2	5101,(12, 93),14	5115,(12, 94),76	5191,(12, 97),2	5193,(12, 106),154	5347,(12, 118),4	5351,(78, 121),2	5353,(15, 121),2	5355,(23, 121),2	5357,(83, 121),2	5359,(18, 121),2	5361,(41, 121),2	5363,(73, 121),2	5365,(88, 121),2	
5,(0, 4),2	13,(0, 9),2	27,(11, 38),40	67,(11, 44),8	75,(11, 67),2	77,(11, 71),2	79,(2, 27),2	82,(3, 25),20	104,(3, 46),6	110,(3, 59),6	116,(3, 84),2	118,(5, 25),4	122,(8, 19),2	127,(2, 48),306	433,(2, 69),18	455,(2, 84),2	457,(2, 85),2	459,(5, 48),6	465,(5, 75),20	485,(5, 81),34	519,(7, 75),32	551,(7, 81),26	577,(8, 88),8	585,(10, 81),6	591,(12, 38),8	599,(1, 44),20	619,(12, 63),8	627,(1, 59),8	635,(1, 61),46	689,(1, 67),64	763,(1, 75),94	857,(7, 108),206	1063,(8, 85),36	1099,(10, 50),24	1435,(6, 25),8	1497,(6, 44),8	1847,(6, 81),10	4875,(12, 84),16	4909,(12, 88),192	
3,(0, 3),2	11,(0, 8),2	21,(9, 17),2	58,(2, 17),2	60,(2, 28),6	66,(9, 22),6	79,(11, 77),6	95,(5, 24),16	111,(5, 28),4	122,(5, 74),4	275,(9, 43),30	305,(9, 79),44	451,(2, 77),4	471,(7, 28),18	489,(7, 77),10	727,(12, 51),30	1069,(1, 107),244	1625,(6, 74),16	1641,(6, 80),206	
1,(0, 2),2	9,(0, 7),2	11,(4, 15),4	17,(0, 12),2	19,(11, 15),2	78,(3, 23),4	85,(11, 78),314	399,(5, 83),38	437,(8, 78),72	519,(10, 15),10	529,(10, 23),26	591,(10, 83),330	1415,(6, 18),18	1453,(6, 41),44	1621,(6, 73),4	
4,(2, 14),54	58,(3, 16),20	81,(2, 36),6	87,(5, 14),8	102,(3, 36),2	104,(9, 21),28	132,(9, 36),84	216,(10, 40),2	459,(7, 14),10	469,(7, 21),2	471,(9, 40),308	1063,(12, 40),3808	
# Outgoing
87,(5, 14),8	95,(5, 24),16	111,(5, 28),4	118,(5, 25),4	122,(5, 74),4	216,(10, 40),2	399,(5, 83),38	459,(5, 48),6	465,(5, 75),20	485,(5, 81),34	519,(10, 15),10	529,(10, 23),26	585,(10, 81),6	591,(10, 83),330	1099,(10, 50),24	
11,(4, 15),4	17,(4, 26),2	19,(4, 35),2	21,(9, 17),2	27,(4, 34),10	37,(4, 49),2	39,(4, 52),2	41,(4, 62),2	43,(4, 89),4	47,(4, 100),6	53,(4, 115),12	66,(9, 22),6	78,(9, 52),2	80,(9, 114),6	104,(9, 21),28	132,(9, 36),84	223,(4, 102),52	275,(9, 43),30	305,(9, 79),44	385,(9, 47),12	397,(65, 121),2	471,(9, 40),308	837,(9, 76),20	1069,(4, 29),240	1309,(71, 121),2	1311,(27, 121),2	1415,(9, 87),18	1435,(46, 121),2	1437,(19, 121),2	1439,(69, 121),2	1441,(48, 121),2	1453,(9, 95),10	1463,(9, 96),10	1473,(38, 121),2	1475,(63, 121),2	1477,(59, 121),2	1479,(61, 121),2	1481,(67, 121),2	1485,(75, 121),2	1487,(108, 121),2	1489,(85, 121),2	1491,(50, 121),2	1495,(25, 121),2	1621,(9, 119),40	1661,(44, 121),2	2159,(9, 70),346	2513,(81, 121),2	4909,(84, 121),2	5365,(88, 121),2	
58,(3, 16),20	78,(3, 23),4	82,(3, 25),20	102,(3, 36),2	104,(3, 46),6	110,(3, 59),6	116,(3, 84),2	122,(8, 19),2	127,(3, 20),20	147,(3, 29),2	149,(3, 30),12	161,(3, 31),4	165,(3, 33),4	169,(3, 76),18	187,(3, 82),6	193,(3, 90),8	201,(3, 104),10	211,(3, 112),8	219,(3, 113),4	275,(8, 34),2	277,(8, 37),8	285,(8, 57),10	295,(8, 58),8	303,(8, 60),10	313,(8, 62),2	315,(8, 68),10	325,(8, 76),4	329,(8, 86),24	353,(8, 101),2	355,(8, 102),4	359,(8, 103),2	361,(8, 110),2	363,(8, 115),2	365,(8, 118),20	437,(8, 78),72	577,(8, 88),8	727,(17, 121),2	729,(22, 121),2	731,(24, 121),2	733,(43, 121),2	735,(79, 121),2	737,(28, 121),2	739,(77, 121),2	1063,(8, 85),36	1483,(51, 121),2	1493,(107, 121),2	1663,(74, 121),2	1848,(80, 121),2	
4,(2, 14),54	58,(2, 17),2	60,(2, 28),6	66,(2, 33),8	74,(2, 68),2	76,(2, 109),2	79,(2, 27),2	81,(2, 36),6	87,(2, 37),8	95,(2, 47),32	127,(2, 48),306	433,(2, 69),18	451,(2, 77),4	455,(2, 84),2	457,(2, 85),2	459,(7, 14),10	469,(7, 21),2	471,(7, 28),18	489,(7, 77),10	519,(7, 75),32	551,(7, 81),26	591,(12, 38),8	599,(2, 54),6	605,(2, 104),8	613,(2, 111),2	615,(2, 115),2	617,(39, 121),2	619,(12, 63),8	627,(2, 95),16	643,(2, 99),16	659,(2, 110),20	679,(7, 93),2	689,(7, 55),4	693,(7, 68),8	701,(7, 101),2	703,(7, 110),18	721,(92, 121),2	723,(12, 35),2	725,(12, 42),2	727,(12, 51),30	763,(2, 55),74	857,(7, 108),206	1063,(12, 40),3808	4871,(12, 60),2	4873,(12, 66),2	4875,(12, 84),16	4891,(12, 86),18	4909,(12, 88),192	5101,(12, 93),14	5115,(12, 94),76	5191,(12, 97),2	5193,(12, 106),154	5347,(12, 118),4	5351,(78, 121),2	5353,(15, 121),2	5355,(23, 121),2	5357,(83, 121),2	5359,(18, 121),2	5361,(41, 121),2	5363,(73, 121),2	
1,(0, 2),2	3,(0, 3),2	5,(0, 4),2	7,(0, 5),2	9,(0, 7),2	11,(0, 8),2	13,(0, 9),2	15,(0, 10),2	17,(0, 12),2	19,(11, 15),2	21,(11, 30),6	27,(11, 38),40	67,(11, 44),8	75,(11, 67),2	77,(11, 71),2	79,(11, 77),6	85,(11, 78),314	399,(11, 82),2	401,(11, 101),16	417,(11, 103),2	419,(11, 117),18	437,(1, 20),2	439,(1, 32),2	441,(1, 33),102	543,(1, 42),56	599,(1, 44),20	619,(1, 56),2	621,(1, 57),6	627,(1, 59),8	635,(1, 61),46	681,(1, 64),4	685,(1, 66),4	689,(1, 67),64	753,(1, 72),10	763,(1, 75),94	857,(1, 82),192	1049,(1, 95),18	1067,(1, 98),2	1069,(1, 107),244	1313,(1, 110),14	1327,(1, 116),8	1335,(1, 117),80	1415,(6, 18),18	1433,(6, 20),2	1435,(6, 25),8	1443,(6, 30),10	1453,(6, 41),44	1497,(6, 44),8	1505,(6, 45),62	1567,(6, 52),4	1571,(6, 56),12	1583,(6, 68),38	1621,(6, 73),4	1625,(6, 74),16	1641,(6, 80),206	1847,(6, 81),10	1857,(6, 82),4	1861,(6, 89),132	1993,(6, 91),2	1995,(6, 95),78	2073,(6, 96),34	2107,(6, 109),10	2117,(6, 110),22	2139,(6, 112),2	2141,(6, 119),2	2143,(6, 120),14	2157,(13, 121),2	2505,(16, 121),2	2507,(36, 121),2	2509,(14, 121),2	2511,(21, 121),2	4875,(40, 121),2	
