5326
# CPU
385,19,1	386,21,1	387,53,1	388,64,1	389,148,1	390,77,1	585,97,1	589,103,1	2209,182,1	3285,112,1	3357,164,1	3373,127,1	3385,166,1	3389,190,1	3573,137,1	3621,179,1	3745,172,1	3893,133,1	4097,156,1	4129,62,1	4157,109,1	4189,161,1	4193,168,1	4197,189,1	4229,58,1	4249,81,1	4393,120,1	4397,146,1	4449,69,1	4509,71,1	4581,54,1	4605,82,1	4629,90,1	4633,197,1	4717,26,1	4877,132,1	4881,159,1	4901,175,1	4957,22,1	4961,63,1	4993,114,1	5005,119,1	5009,131,1	5045,178,1	5057,191,1	5101,94,1	5161,101,1	5165,107,1	5189,138,1	5273,115,1	5325,201,1	
97,5,1	98,25,1	99,28,1	100,89,1	101,194,1	102,78,1	103,60,1	104,74,1	105,61,1	161,9,1	162,29,1	163,34,1	164,46,1	165,79,1	166,144,1	167,128,1	225,12,1	226,35,1	227,50,1	228,73,1	229,185,1	230,171,1	231,134,1	232,40,1	233,116,1	234,105,1	235,86,1	289,14,1	290,24,1	291,139,1	292,152,1	293,72,1	294,187,1	321,15,1	322,38,1	323,118,1	324,149,1	325,76,1	326,106,1	353,18,1	354,27,1	355,83,1	356,99,1	357,180,1	358,153,1	359,41,1	360,75,1	361,104,1	2185,181,1	3649,174,1	
0,0,1	1,6,1	2,2,1	3,16,1	4,3,1	5,17,1	6,10,1	7,7,1	8,52,1	9,49,1	10,186,1	11,145,1	12,196,1	13,129,1	14,124,1	15,100,1	16,110,1	17,193,1	18,95,1	19,23,1	20,121,1	21,111,1	22,142,1	23,88,1	24,84,1	25,48,1	26,33,1	27,165,1	28,31,1	29,96,1	30,47,1	31,39,1	32,130,1	33,80,1	34,68,1	35,67,1	36,56,1	37,91,1	38,65,1	39,85,1	40,158,1	41,93,1	42,32,1	43,200,1	44,43,1	45,45,1	46,98,1	47,30,1	48,143,1	49,184,1	50,59,1	
33,1,1	34,70,1	35,117,1	36,195,1	37,135,1	65,4,1	66,51,1	67,126,1	68,199,1	69,173,1	70,183,1	71,169,1	72,160,1	73,163,1	74,162,1	129,8,1	130,42,1	131,87,1	132,108,1	133,136,1	134,176,1	135,157,1	193,11,1	194,44,1	195,102,1	196,122,1	197,66,1	198,198,1	257,13,1	258,37,1	259,151,1	260,154,1	261,188,1	262,170,1	263,167,1	264,140,1	265,147,1	266,155,1	417,20,1	418,36,1	419,113,1	420,125,1	421,192,1	422,150,1	423,57,1	424,177,1	425,141,1	426,55,1	427,92,1	429,123,1	
# Incoming
353,(0, 19),32	385,(5, 22),8	393,(5, 120),28	421,(6, 71),72	493,(6, 97),92	585,(6, 103),4	589,(6, 112),1584	2173,(5, 138),4	2177,(5, 179),8	2185,(6, 182),24	2209,(2, 69),180	2389,(2, 82),56	2445,(2, 107),232	2677,(2, 133),4	2681,(2, 137),88	2769,(2, 166),4	2773,(16, 81),8	2781,(16, 114),20	2801,(16, 166),200	3001,(16, 168),28	3029,(16, 172),16	3045,(3, 26),28	3073,(3, 62),96	3169,(3, 109),20	3189,(3, 127),4	3193,(3, 146),4	3197,(17, 112),88	3285,(17, 164),4	3289,(17, 168),4	3293,(17, 190),4	3297,(10, 58),12	3309,(10, 90),4	3313,(10, 161),12	3325,(10, 164),32	3357,(7, 127),16	3373,(7, 166),12	3385,(7, 190),4	3389,(52, 201),4	3393,(49, 201),4	3397,(186, 201),4	3401,(145, 201),4	3405,(196, 201),4	3409,(129, 201),4	3413,(124, 201),4	3417,(100, 201),4	3421,(110, 201),4	3425,(193, 201),4	3429,(95, 201),4	3433,(23, 201),4	3437,(121, 201),4	3441,(111, 201),4	3445,(142, 201),4	3449,(88, 201),4	3453,(84, 201),4	3457,(48, 201),4	3461,(33, 201),4	3465,(165, 201),4	3469,(31, 201),4	3473,(96, 201),4	3477,(47, 201),4	3481,(39, 201),4	3485,(130, 201),4	3489,(1, 54),44	3533,(1, 82),12	3545,(1, 137),28	3573,(1, 179),48	3621,(1, 189),24	3645,(80, 201),4	3649,(70, 201),4	3653,(68, 201),4	3657,(117, 201),4	3661,(67, 201),4	3665,(195, 201),4	3669,(56, 201),4	3673,(135, 201),4	3677,(91, 201),4	3681,(65, 201),4	3685,(85, 201),4	3689,(158, 201),4	3693,(93, 201),4	3697,(32, 201),4	3701,(200, 201),4	3705,(43, 201),4	3709,(45, 201),4	3713,(98, 201),4	3717,(30, 201),4	3721,(143, 201),4	3725,(184, 201),4	3729,(59, 201),4	3733,(4, 159),4	3737,(4, 172),8	3745,(4, 178),20	3765,(51, 201),4	3769,(126, 201),4	3773,(199, 201),4	3777,(173, 201),4	3781,(183, 201),4	3785,(169, 201),4	3789,(160, 201),4	3793,(163, 201),4	3797,(162, 201),4	3801,(5, 133),92	3893,(25, 201),4	3897,(28, 201),4	3901,(89, 201),4	3905,(194, 201),4	3909,(78, 201),4	3913,(60, 201),4	3917,(74, 201),4	3921,(61, 201),4	3925,(8, 115),148	4073,(8, 156),24	4097,(42, 201),4	4101,(87, 201),4	4105,(108, 201),4	4109,(136, 201),4	4113,(176, 201),4	4117,(157, 201),4	4121,(9, 58),4	4125,(9, 62),4	4129,(9, 63),16	4145,(9, 109),12	4157,(9, 132),4	4161,(9, 161),28	4189,(9, 168),4	4193,(9, 189),4	4197,(9, 197),4	4201,(29, 201),4	4205,(34, 201),4	4209,(46, 201),4	4213,(79, 201),4	4217,(144, 201),4	4221,(128, 201),4	4225,(11, 58),4	4229,(11, 81),20	4249,(11, 120),144	4393,(11, 146),4	4397,(44, 201),4	4401,(102, 201),4	4405,(122, 201),4	4409,(66, 201),4	4413,(198, 201),4	4417,(12, 69),32	4449,(12, 71),60	4509,(12, 101),4	4513,(35, 201),4	4517,(50, 201),4	4521,(73, 201),4	4525,(185, 201),4	4529,(171, 201),4	4533,(134, 201),4	4537,(40, 201),4	4541,(116, 201),4	4545,(105, 201),4	4549,(86, 201),4	4553,(13, 54),28	4581,(13, 82),24	4605,(13, 90),24	4629,(13, 197),4	4633,(37, 201),4	4637,(151, 201),4	4641,(154, 201),4	4645,(188, 201),4	4649,(170, 201),4	4653,(167, 201),4	4657,(140, 201),4	4661,(147, 201),4	4665,(155, 201),4	4669,(14, 26),48	4717,(14, 119),56	4773,(14, 132),104	4877,(14, 159),4	4881,(14, 175),20	4901,(14, 191),16	4917,(24, 201),4	4921,(139, 201),4	4925,(152, 201),4	4929,(72, 201),4	4933,(187, 201),4	4937,(15, 22),20	4957,(15, 63),4	4961,(15, 94),4	4965,(15, 114),28	4993,(15, 119),12	5005,(15, 131),4	5009,(15, 178),36	5045,(15, 191),12	5057,(38, 201),4	5061,(118, 201),4	5065,(149, 201),4	5069,(76, 201),4	5073,(106, 201),4	5077,(18, 94),24	5101,(18, 101),60	5161,(18, 107),4	5165,(18, 138),24	5189,(27, 201),4	5193,(83, 201),4	5197,(99, 201),4	5201,(180, 201),4	5205,(153, 201),4	5209,(41, 201),4	5213,(75, 201),4	5217,(104, 201),4	5221,(20, 115),52	5273,(36, 201),4	5277,(113, 201),4	5281,(125, 201),4	5285,(192, 201),4	5289,(150, 201),4	5293,(57, 201),4	5297,(177, 201),4	5301,(141, 201),4	5305,(55, 201),4	5309,(92, 201),4	5313,(123, 201),4	5317,(181, 201),4	5321,(174, 201),4	
65,(0, 5),32	129,(0, 9),32	193,(0, 12),32	257,(0, 14),32	289,(0, 15),32	321,(0, 18),32	2173,(6, 181),12	3645,(8, 174),4	

1,(0, 1),32	33,(0, 4),32	97,(0, 8),32	161,(0, 11),32	225,(0, 13),32	385,(0, 20),32	417,(6, 55),4	421,(15, 92),4	425,(15, 123),4	
# Outgoing

385,(5, 22),8	393,(5, 120),28	421,(15, 92),4	425,(15, 123),4	2173,(5, 138),4	2177,(5, 179),8	3801,(5, 133),92	3893,(25, 201),4	3897,(28, 201),4	3901,(89, 201),4	3905,(194, 201),4	3909,(78, 201),4	3913,(60, 201),4	3917,(74, 201),4	3921,(61, 201),4	4121,(9, 58),4	4125,(9, 62),4	4129,(9, 63),16	4145,(9, 109),12	4157,(9, 132),4	4161,(9, 161),28	4189,(9, 168),4	4193,(9, 189),4	4197,(9, 197),4	4201,(29, 201),4	4205,(34, 201),4	4209,(46, 201),4	4213,(79, 201),4	4217,(144, 201),4	4221,(128, 201),4	4417,(12, 69),32	4449,(12, 71),60	4509,(12, 101),4	4513,(35, 201),4	4517,(50, 201),4	4521,(73, 201),4	4525,(185, 201),4	4529,(171, 201),4	4533,(134, 201),4	4537,(40, 201),4	4541,(116, 201),4	4545,(105, 201),4	4549,(86, 201),4	4669,(14, 26),48	4717,(14, 119),56	4773,(14, 132),104	4877,(14, 159),4	4881,(14, 175),20	4901,(14, 191),16	4917,(24, 201),4	4921,(139, 201),4	4925,(152, 201),4	4929,(72, 201),4	4933,(187, 201),4	4937,(15, 22),20	4957,(15, 63),4	4961,(15, 94),4	4965,(15, 114),28	4993,(15, 119),12	5005,(15, 131),4	5009,(15, 178),36	5045,(15, 191),12	5057,(38, 201),4	5061,(118, 201),4	5065,(149, 201),4	5069,(76, 201),4	5073,(106, 201),4	5077,(18, 94),24	5101,(18, 101),60	5161,(18, 107),4	5165,(18, 138),24	5189,(27, 201),4	5193,(83, 201),4	5197,(99, 201),4	5201,(180, 201),4	5205,(153, 201),4	5209,(41, 201),4	5213,(75, 201),4	5217,(104, 201),4	5317,(181, 201),4	5321,(174, 201),4	
1,(0, 1),32	33,(0, 4),32	65,(0, 5),32	97,(0, 8),32	129,(0, 9),32	161,(0, 11),32	193,(0, 12),32	225,(0, 13),32	257,(0, 14),32	289,(0, 15),32	321,(0, 18),32	353,(0, 19),32	385,(0, 20),32	417,(6, 55),4	421,(6, 71),72	493,(6, 97),92	585,(6, 103),4	589,(6, 112),1584	2173,(6, 181),12	2185,(6, 182),24	2209,(2, 69),180	2389,(2, 82),56	2445,(2, 107),232	2677,(2, 133),4	2681,(2, 137),88	2769,(2, 166),4	2773,(16, 81),8	2781,(16, 114),20	2801,(16, 166),200	3001,(16, 168),28	3029,(16, 172),16	3045,(3, 26),28	3073,(3, 62),96	3169,(3, 109),20	3189,(3, 127),4	3193,(3, 146),4	3197,(17, 112),88	3285,(17, 164),4	3289,(17, 168),4	3293,(17, 190),4	3297,(10, 58),12	3309,(10, 90),4	3313,(10, 161),12	3325,(10, 164),32	3357,(7, 127),16	3373,(7, 166),12	3385,(7, 190),4	3389,(52, 201),4	3393,(49, 201),4	3397,(186, 201),4	3401,(145, 201),4	3405,(196, 201),4	3409,(129, 201),4	3413,(124, 201),4	3417,(100, 201),4	3421,(110, 201),4	3425,(193, 201),4	3429,(95, 201),4	3433,(23, 201),4	3437,(121, 201),4	3441,(111, 201),4	3445,(142, 201),4	3449,(88, 201),4	3453,(84, 201),4	3457,(48, 201),4	3461,(33, 201),4	3465,(165, 201),4	3469,(31, 201),4	3473,(96, 201),4	3477,(47, 201),4	3481,(39, 201),4	3485,(130, 201),4	3645,(80, 201),4	3653,(68, 201),4	3661,(67, 201),4	3669,(56, 201),4	3677,(91, 201),4	3681,(65, 201),4	3685,(85, 201),4	3689,(158, 201),4	3693,(93, 201),4	3697,(32, 201),4	3701,(200, 201),4	3705,(43, 201),4	3709,(45, 201),4	3713,(98, 201),4	3717,(30, 201),4	3721,(143, 201),4	3725,(184, 201),4	3729,(59, 201),4	
3489,(1, 54),44	3533,(1, 82),12	3545,(1, 137),28	3573,(1, 179),48	3621,(1, 189),24	3645,(8, 174),4	3649,(70, 201),4	3657,(117, 201),4	3665,(195, 201),4	3673,(135, 201),4	3733,(4, 159),4	3737,(4, 172),8	3745,(4, 178),20	3765,(51, 201),4	3769,(126, 201),4	3773,(199, 201),4	3777,(173, 201),4	3781,(183, 201),4	3785,(169, 201),4	3789,(160, 201),4	3793,(163, 201),4	3797,(162, 201),4	3925,(8, 115),148	4073,(8, 156),24	4097,(42, 201),4	4101,(87, 201),4	4105,(108, 201),4	4109,(136, 201),4	4113,(176, 201),4	4117,(157, 201),4	4225,(11, 58),4	4229,(11, 81),20	4249,(11, 120),144	4393,(11, 146),4	4397,(44, 201),4	4401,(102, 201),4	4405,(122, 201),4	4409,(66, 201),4	4413,(198, 201),4	4553,(13, 54),28	4581,(13, 82),24	4605,(13, 90),24	4629,(13, 197),4	4633,(37, 201),4	4637,(151, 201),4	4641,(154, 201),4	4645,(188, 201),4	4649,(170, 201),4	4653,(167, 201),4	4657,(140, 201),4	4661,(147, 201),4	4665,(155, 201),4	5221,(20, 115),52	5273,(36, 201),4	5277,(113, 201),4	5281,(125, 201),4	5285,(192, 201),4	5289,(150, 201),4	5293,(57, 201),4	5297,(177, 201),4	5301,(141, 201),4	5305,(55, 201),4	5309,(92, 201),4	5313,(123, 201),4	
