1930
# CPU
0,0,1	1,6,22	23,73,22	45,119,22	67,38,22	89,87,22	111,4,22	133,52,22	155,94,22	177,14,22	199,11,22	221,88,22	243,115,22	265,34,22	287,95,22	309,32,22	331,79,22	353,17,22	375,13,22	397,91,22	419,101,22	441,20,22	463,18,22	485,45,22	507,60,22	529,65,22	551,107,22	573,31,22	595,108,22	617,120,22	639,104,22	1929,121,1	
3,5,22	25,29,22	47,110,22	69,2,22	91,111,22	113,100,22	135,92,22	157,74,22	179,77,22	201,102,22	223,10,22	245,109,22	267,70,22	289,23,22	311,114,22	333,59,22	355,83,22	377,58,22	399,118,22	421,46,22	443,69,22	465,25,22	487,75,22	509,106,22	531,19,22	553,62,22	575,113,22	597,47,22	619,71,22	641,64,22	
7,8,22	29,96,22	51,56,22	73,3,22	95,35,22	117,9,22	139,22,22	161,103,22	183,26,22	205,36,22	227,63,22	249,33,22	271,89,22	293,85,22	315,37,22	337,50,22	359,82,22	381,80,22	403,84,22	425,21,22	447,44,22	469,90,22	491,24,22	513,97,22	535,78,22	557,41,22	579,112,22	601,27,22	623,116,22	729,43,22	
5,1,22	27,98,22	49,81,22	71,57,22	93,67,22	115,48,22	137,68,22	159,7,22	181,12,22	203,86,22	225,76,22	247,40,22	269,61,22	291,16,22	313,28,22	335,51,22	357,117,22	379,72,22	401,105,22	423,53,22	445,30,22	467,15,22	489,42,22	511,93,22	533,55,22	555,66,22	577,99,22	599,54,22	621,39,22	643,49,22	
# Incoming
99,(3, 95),2	101,(5, 32),2	103,(5, 79),2	105,(5, 13),2	107,(1, 101),2	109,(3, 45),6	115,(1, 65),12	127,(8, 108),6	133,(5, 60),6	147,(9, 20),4	155,(9, 18),4	161,(3, 107),12	185,(7, 17),2	187,(7, 91),2	189,(7, 107),2	191,(5, 108),16	207,(5, 120),20	227,(3, 104),32	259,(98, 121),20	279,(81, 121),20	299,(57, 121),20	319,(67, 121),20	341,(10, 31),18	359,(96, 121),20	379,(56, 121),20	411,(10, 120),2	413,(35, 121),20	433,(48, 121),20	453,(68, 121),20	473,(22, 121),20	493,(103, 121),20	513,(26, 121),20	533,(86, 121),20	553,(36, 121),20	573,(76, 121),20	593,(63, 121),20	613,(40, 121),20	633,(33, 121),20	653,(61, 121),20	673,(89, 121),20	693,(16, 121),20	729,(29, 121),20	749,(110, 121),20	769,(111, 121),20	789,(100, 121),20	809,(92, 121),20	829,(74, 121),20	849,(77, 121),20	869,(102, 121),20	889,(109, 121),20	909,(70, 121),20	929,(23, 121),20	949,(85, 121),20	969,(114, 121),20	989,(28, 121),20	1009,(37, 121),20	1029,(59, 121),20	1049,(51, 121),20	1069,(50, 121),20	1089,(83, 121),20	1109,(117, 121),20	1129,(82, 121),20	1149,(58, 121),20	1169,(72, 121),20	1189,(80, 121),20	1209,(118, 121),20	1229,(105, 121),20	1249,(84, 121),20	1269,(46, 121),20	1289,(53, 121),20	1309,(21, 121),20	1329,(69, 121),20	1349,(30, 121),20	1369,(44, 121),20	1389,(25, 121),20	1409,(15, 121),20	1429,(90, 121),20	1449,(75, 121),20	1469,(42, 121),20	1489,(24, 121),20	1509,(106, 121),20	1529,(93, 121),20	1549,(97, 121),20	1569,(19, 121),20	1589,(55, 121),20	1609,(78, 121),20	1629,(62, 121),20	1649,(66, 121),20	1669,(41, 121),20	1689,(113, 121),20	1709,(99, 121),20	1729,(112, 121),20	1749,(47, 121),20	1769,(54, 121),20	1789,(27, 121),20	1809,(71, 121),20	1829,(39, 121),20	1849,(116, 121),20	1869,(64, 121),20	1889,(49, 121),20	1909,(43, 121),20	
1,(0, 5),2	7,(0, 2),2	17,(0, 10),2	27,(1, 110),2	35,(1, 46),4	103,(3, 118),2	105,(3, 75),2	133,(4, 77),2	135,(4, 102),2	141,(4, 58),2	143,(9, 59),2	145,(9, 83),2	151,(9, 69),4	159,(9, 106),2	161,(4, 19),8	173,(9, 62),8	181,(3, 47),10	215,(12, 75),4	219,(12, 106),4	225,(12, 113),8	235,(11, 25),6	259,(3, 64),70	403,(6, 71),62	509,(11, 64),42	
5,(0, 8),2	9,(0, 3),2	11,(0, 9),2	29,(1, 85),2	31,(1, 37),4	39,(1, 24),6	45,(6, 97),6	91,(2, 35),2	95,(2, 21),6	117,(2, 44),16	137,(4, 82),4	141,(2, 24),8	149,(4, 21),6	155,(4, 78),2	163,(2, 112),16	181,(7, 89),2	183,(7, 50),2	185,(4, 41),18	203,(12, 36),2	205,(12, 63),2	207,(12, 33),2	209,(12, 50),2	211,(12, 80),4	223,(12, 41),2	233,(7, 27),2	235,(12, 43),2	243,(11, 24),2	245,(11, 97),10	255,(10, 84),10	279,(10, 90),16	295,(11, 78),16	311,(4, 43),30	359,(10, 112),10	369,(5, 27),42	465,(4, 116),44	611,(10, 43),118	
3,(0, 1),2	13,(0, 7),2	15,(0, 12),2	23,(6, 30),6	51,(6, 66),24	93,(5, 53),2	95,(3, 61),4	101,(8, 72),2	107,(5, 72),4	111,(2, 30),6	117,(8, 99),8	139,(9, 16),4	143,(4, 53),6	149,(5, 42),14	169,(4, 39),6	179,(5, 54),6	191,(3, 54),20	221,(11, 28),4	225,(11, 117),6	231,(11, 105),4	241,(11, 42),2	245,(10, 40),2	247,(10, 51),4	251,(10, 105),4	265,(10, 15),14	295,(10, 93),20	315,(10, 55),24	339,(10, 66),2	341,(4, 99),30	371,(4, 54),32	413,(5, 39),76	489,(2, 49),122	
# Outgoing
1,(0, 5),2	3,(0, 1),2	5,(0, 8),2	7,(0, 2),2	9,(0, 3),2	11,(0, 9),2	13,(0, 7),2	15,(0, 12),2	17,(0, 10),2	23,(6, 30),6	45,(6, 97),6	51,(6, 66),24	133,(4, 77),2	135,(4, 102),2	137,(4, 82),4	141,(4, 58),2	143,(4, 53),6	149,(4, 21),6	155,(4, 78),2	161,(4, 19),8	169,(4, 39),6	185,(4, 41),18	221,(11, 28),4	225,(11, 117),6	231,(11, 105),4	235,(11, 25),6	241,(11, 42),2	243,(11, 24),2	245,(11, 97),10	295,(11, 78),16	311,(4, 43),30	341,(4, 99),30	371,(4, 54),32	403,(6, 71),62	465,(4, 116),44	509,(11, 64),42	
91,(2, 35),2	93,(5, 53),2	95,(2, 21),6	101,(5, 32),2	103,(5, 79),2	105,(5, 13),2	107,(5, 72),4	111,(2, 30),6	117,(2, 44),16	133,(5, 60),6	141,(2, 24),8	149,(5, 42),14	163,(2, 112),16	179,(5, 54),6	191,(5, 108),16	207,(5, 120),20	245,(10, 40),2	247,(10, 51),4	251,(10, 105),4	255,(10, 84),10	265,(10, 15),14	279,(10, 90),16	295,(10, 93),20	315,(10, 55),24	339,(10, 66),2	341,(10, 31),18	359,(10, 112),10	369,(5, 27),42	411,(10, 120),2	413,(5, 39),76	489,(2, 49),122	611,(10, 43),118	729,(29, 121),20	749,(110, 121),20	769,(111, 121),20	789,(100, 121),20	809,(92, 121),20	829,(74, 121),20	849,(77, 121),20	869,(102, 121),20	889,(109, 121),20	909,(70, 121),20	929,(23, 121),20	969,(114, 121),20	1029,(59, 121),20	1089,(83, 121),20	1149,(58, 121),20	1209,(118, 121),20	1269,(46, 121),20	1329,(69, 121),20	1389,(25, 121),20	1449,(75, 121),20	1509,(106, 121),20	1569,(19, 121),20	1629,(62, 121),20	1689,(113, 121),20	1749,(47, 121),20	1809,(71, 121),20	1869,(64, 121),20	
95,(3, 61),4	99,(3, 95),2	101,(8, 72),2	103,(3, 118),2	105,(3, 75),2	109,(3, 45),6	117,(8, 99),8	127,(8, 108),6	139,(9, 16),4	143,(9, 59),2	145,(9, 83),2	147,(9, 20),4	151,(9, 69),4	155,(9, 18),4	159,(9, 106),2	161,(3, 107),12	173,(9, 62),8	181,(3, 47),10	191,(3, 54),20	227,(3, 104),32	259,(3, 64),70	359,(96, 121),20	379,(56, 121),20	413,(35, 121),20	473,(22, 121),20	493,(103, 121),20	513,(26, 121),20	553,(36, 121),20	593,(63, 121),20	633,(33, 121),20	673,(89, 121),20	949,(85, 121),20	1009,(37, 121),20	1069,(50, 121),20	1129,(82, 121),20	1189,(80, 121),20	1249,(84, 121),20	1309,(21, 121),20	1369,(44, 121),20	1429,(90, 121),20	1489,(24, 121),20	1549,(97, 121),20	1609,(78, 121),20	1669,(41, 121),20	1729,(112, 121),20	1789,(27, 121),20	1849,(116, 121),20	1909,(43, 121),20	
27,(1, 110),2	29,(1, 85),2	31,(1, 37),4	35,(1, 46),4	39,(1, 24),6	107,(1, 101),2	115,(1, 65),12	181,(7, 89),2	183,(7, 50),2	185,(7, 17),2	187,(7, 91),2	189,(7, 107),2	203,(12, 36),2	205,(12, 63),2	207,(12, 33),2	209,(12, 50),2	211,(12, 80),4	215,(12, 75),4	219,(12, 106),4	223,(12, 41),2	225,(12, 113),8	233,(7, 27),2	235,(12, 43),2	259,(98, 121),20	279,(81, 121),20	299,(57, 121),20	319,(67, 121),20	433,(48, 121),20	453,(68, 121),20	533,(86, 121),20	573,(76, 121),20	613,(40, 121),20	653,(61, 121),20	693,(16, 121),20	989,(28, 121),20	1049,(51, 121),20	1109,(117, 121),20	1169,(72, 121),20	1229,(105, 121),20	1289,(53, 121),20	1349,(30, 121),20	1409,(15, 121),20	1469,(42, 121),20	1529,(93, 121),20	1589,(55, 121),20	1649,(66, 121),20	1709,(99, 121),20	1769,(54, 121),20	1829,(39, 121),20	1889,(49, 121),20	
