167
# CPU
0,0,1	1,1,1	2,38,1	3,68,1	4,15,1	5,39,1	6,40,1	7,8,1	8,60,1	9,46,1	10,70,1	11,54,1	12,2,1	13,14,1	14,80,1	15,76,1	16,28,1	17,36,1	18,29,1	19,6,1	20,52,1	21,13,1	22,57,1	23,56,1	24,7,1	25,32,1	26,22,1	27,55,1	28,20,1	29,51,1	30,19,1	31,73,1	32,71,1	33,72,1	34,31,1	35,64,1	36,66,1	37,35,1	39,34,1	41,77,1	43,50,1	45,37,1	47,25,1	50,27,1	55,11,1	62,33,1	69,48,1	77,61,1	93,42,1	165,45,1	166,81,1	
6,3,1	7,30,1	8,62,1	9,69,1	10,10,1	11,16,1	14,67,1	19,5,1	20,65,1	21,17,1	22,41,1	23,21,1	24,59,1	25,4,1	26,78,1	27,79,1	28,24,1	29,9,1	30,63,1	31,43,1	32,75,1	33,53,1	34,74,1	35,47,1	36,44,1	37,26,1	41,23,1	50,58,1	62,49,1	
21,12,1	28,18,1	

# Incoming
8,(30, 81),1	9,(62, 81),1	10,(69, 81),1	11,(10, 81),1	12,(16, 81),1	13,(3, 64),1	14,(3, 66),1	15,(67, 81),1	16,(3, 35),1	17,(3, 33),1	21,(65, 81),1	22,(17, 81),1	23,(12, 81),1	24,(41, 81),1	25,(21, 81),1	26,(59, 81),1	27,(78, 81),1	28,(79, 81),1	29,(24, 81),1	30,(18, 81),1	31,(9, 81),1	32,(63, 81),1	33,(43, 81),1	34,(75, 81),1	35,(53, 81),1	36,(74, 81),1	37,(47, 81),1	38,(4, 34),1	39,(44, 81),1	40,(4, 77),1	41,(26, 81),1	42,(5, 50),1	43,(23, 81),1	44,(4, 37),1	45,(4, 25),2	47,(5, 27),3	50,(3, 11),5	55,(58, 81),1	56,(4, 33),6	62,(4, 48),7	69,(49, 81),1	70,(3, 61),4	74,(5, 61),3	77,(3, 42),12	89,(5, 42),4	93,(4, 45),72	
1,(0, 3),5	7,(1, 59),1	8,(8, 10),1	9,(8, 16),1	10,(1, 47),1	11,(1, 44),1	13,(2, 67),1	14,(0, 5),5	19,(2, 21),1	20,(0, 4),5	28,(6, 75),1	29,(6, 53),1	30,(7, 74),1	31,(7, 26),4	35,(1, 23),5	40,(6, 23),1	41,(8, 58),9	50,(6, 49),12	
6,(1, 12),1	20,(5, 12),1	23,(5, 18),1	25,(2, 18),3	

# Outgoing
1,(0, 3),5	6,(1, 12),1	7,(1, 59),1	8,(8, 10),1	9,(8, 16),1	10,(1, 47),1	11,(1, 44),1	13,(2, 67),1	14,(0, 5),5	19,(2, 21),1	20,(0, 4),5	25,(2, 18),3	28,(6, 75),1	29,(6, 53),1	30,(7, 74),1	31,(7, 26),4	35,(1, 23),5	40,(6, 23),1	41,(8, 58),9	50,(6, 49),12	
8,(30, 81),1	9,(62, 81),1	10,(69, 81),1	11,(10, 81),1	12,(16, 81),1	13,(3, 64),1	14,(3, 66),1	15,(67, 81),1	16,(3, 35),1	17,(3, 33),1	20,(5, 12),1	21,(65, 81),1	22,(17, 81),1	23,(5, 18),1	24,(41, 81),1	25,(21, 81),1	26,(59, 81),1	27,(78, 81),1	28,(79, 81),1	29,(24, 81),1	31,(9, 81),1	32,(63, 81),1	33,(43, 81),1	34,(75, 81),1	35,(53, 81),1	36,(74, 81),1	37,(47, 81),1	38,(4, 34),1	39,(44, 81),1	40,(4, 77),1	41,(26, 81),1	42,(5, 50),1	43,(23, 81),1	44,(4, 37),1	45,(4, 25),2	47,(5, 27),3	50,(3, 11),5	55,(58, 81),1	56,(4, 33),6	62,(4, 48),7	69,(49, 81),1	70,(3, 61),4	74,(5, 61),3	77,(3, 42),12	89,(5, 42),4	93,(4, 45),72	
23,(12, 81),1	30,(18, 81),1	

