829
# CPU
116,26,1	299,38,1	406,16,1	437,22,1	540,28,1	576,12,1	588,13,1	592,14,1	613,15,1	618,18,1	622,25,1	623,27,1	624,32,1	625,36,1	630,37,1	828,41,1	
2,1,1	3,9,1	4,17,1	5,33,1	6,30,1	7,5,1	8,6,1	9,10,1	110,20,1	
3,2,1	4,7,1	5,34,1	6,8,1	7,21,1	8,19,1	9,11,1	116,24,1	
4,3,1	5,29,1	6,40,1	115,23,1	300,39,1	
0,0,1	1,4,1	2,31,1	3,35,1	
# Incoming
4,(4, 13),28	32,(4, 14),2	34,(4, 15),10	44,(4, 16),24	68,(4, 18),41	109,(2, 26),1	110,(4, 22),3	113,(1, 37),2	115,(3, 26),1	116,(4, 28),151	267,(4, 32),8	275,(4, 36),6	281,(4, 37),8	289,(4, 38),10	299,(1, 14),6	305,(1, 16),66	371,(1, 28),15	386,(31, 41),11	397,(2, 12),7	404,(2, 16),2	406,(2, 22),31	437,(2, 25),12	449,(2, 27),32	481,(2, 28),59	540,(2, 36),6	546,(9, 41),11	557,(35, 41),11	568,(3, 12),8	576,(3, 13),12	588,(3, 14),4	592,(3, 15),21	613,(3, 18),5	618,(3, 25),4	622,(3, 27),1	623,(3, 32),1	624,(3, 36),1	625,(3, 37),5	630,(7, 41),11	641,(17, 41),11	652,(33, 41),11	663,(34, 41),11	674,(29, 41),11	685,(30, 41),11	696,(8, 41),11	707,(40, 41),11	718,(5, 41),11	729,(21, 41),11	740,(6, 41),11	751,(19, 41),11	762,(10, 41),11	773,(11, 41),11	784,(20, 41),11	795,(23, 41),11	806,(24, 41),11	817,(39, 41),11	
1,(0, 1),1	4,(2, 5),1	5,(3, 6),1	6,(3, 10),1	109,(4, 20),1	
2,(0, 2),1	3,(1, 7),1	4,(1, 11),1	115,(4, 24),1	
3,(0, 3),1	113,(4, 23),2	299,(4, 39),1	

# Outgoing

3,(1, 7),1	4,(1, 11),1	113,(1, 37),2	299,(1, 14),6	305,(1, 16),66	371,(1, 28),15	546,(9, 41),11	641,(17, 41),11	652,(33, 41),11	685,(30, 41),11	718,(5, 41),11	740,(6, 41),11	762,(10, 41),11	784,(20, 41),11	
4,(2, 5),1	109,(2, 26),1	397,(2, 12),7	404,(2, 16),2	406,(2, 22),31	437,(2, 25),12	449,(2, 27),32	481,(2, 28),59	540,(2, 36),6	630,(7, 41),11	663,(34, 41),11	696,(8, 41),11	729,(21, 41),11	751,(19, 41),11	773,(11, 41),11	806,(24, 41),11	
5,(3, 6),1	6,(3, 10),1	115,(3, 26),1	568,(3, 12),8	576,(3, 13),12	588,(3, 14),4	592,(3, 15),21	613,(3, 18),5	618,(3, 25),4	622,(3, 27),1	623,(3, 32),1	624,(3, 36),1	625,(3, 37),5	674,(29, 41),11	707,(40, 41),11	795,(23, 41),11	817,(39, 41),11	
1,(0, 1),1	2,(0, 2),1	3,(0, 3),1	4,(4, 13),28	32,(4, 14),2	34,(4, 15),10	44,(4, 16),24	68,(4, 18),41	109,(4, 20),1	110,(4, 22),3	113,(4, 23),2	115,(4, 24),1	116,(4, 28),151	267,(4, 32),8	275,(4, 36),6	281,(4, 37),8	289,(4, 38),10	299,(4, 39),1	386,(31, 41),11	557,(35, 41),11	
