1540
# CPU
25,5,3	384,38,3	387,44,3	412,65,3	575,53,3	736,74,3	782,15,3	785,19,3	790,23,3	799,27,3	828,31,3	908,42,3	916,46,3	921,49,3	956,56,3	998,59,3	1015,62,3	1044,68,3	1090,77,3	1099,79,3	1300,17,3	1398,71,3	
19,4,3	244,18,3	308,29,3	311,41,3	581,47,3	781,14,3	785,21,3	793,25,3	827,72,3	830,34,3	911,43,3	915,45,3	926,50,3	955,54,3	1010,60,3	1016,63,3	1023,66,3	1089,76,3	1098,78,3	1136,80,3	1387,69,3	1495,57,3	1539,81,1	
13,3,3	37,8,3	94,20,3	233,13,3	244,24,3	288,28,3	291,32,3	321,55,3	362,39,3	375,61,3	442,40,3	554,64,3	576,67,3	917,48,3	927,51,3	965,58,3	1078,70,3	1086,73,3	1089,75,3	
7,2,3	31,7,3	420,22,3	761,11,3	778,12,3	795,26,3	800,30,3	896,35,3	899,37,3	930,52,3	
0,0,1	1,1,3	4,6,3	81,10,3	91,16,3	229,9,3	545,36,3	597,33,3	
# Incoming
19,(0, 5),6	37,(1, 15),35	72,(1, 17),5	77,(2, 19),1	78,(2, 44),2	80,(2, 77),1	81,(3, 15),1	82,(3, 17),1	83,(3, 31),1	84,(3, 44),1	87,(1, 27),2	89,(2, 27),11	104,(1, 31),1	105,(3, 23),7	112,(3, 74),5	117,(8, 44),1	118,(1, 38),1	119,(8, 74),1	120,(7, 15),1	121,(7, 19),1	122,(8, 79),1	123,(1, 42),3	126,(1, 44),120	246,(2, 42),22	268,(2, 71),14	282,(3, 27),15	297,(4, 19),2	299,(4, 23),6	305,(4, 27),4	309,(4, 44),10	319,(4, 62),1	320,(4, 79),1	321,(1, 59),2	323,(4, 46),18	341,(4, 53),25	366,(4, 71),4	370,(4, 74),10	380,(7, 23),2	382,(7, 38),2	384,(7, 44),1	385,(7, 46),3	388,(7, 53),1	389,(7, 56),4	393,(7, 68),1	394,(3, 59),10	404,(3, 65),8	412,(7, 59),2	416,(1, 62),102	518,(3, 53),40	558,(3, 77),5	563,(3, 79),6	569,(8, 42),3	572,(8, 53),3	576,(1, 68),10	587,(1, 71),79	666,(4, 77),12	678,(7, 71),10	688,(8, 31),10	698,(8, 49),10	728,(1, 74),8	737,(1, 77),1	738,(8, 56),20	758,(8, 62),4	762,(8, 68),2	781,(6, 15),1	782,(6, 17),1	783,(6, 19),1	785,(6, 23),5	795,(6, 27),4	800,(6, 31),28	898,(6, 42),10	915,(6, 46),1	917,(6, 49),4	955,(6, 56),1	965,(6, 59),33	1010,(6, 62),5	1023,(6, 68),21	1078,(6, 71),2	1089,(6, 77),1	1098,(6, 79),1	1099,(2, 17),201	1300,(3, 71),98	
13,(0, 4),6	33,(2, 18),4	44,(2, 21),10	54,(2, 25),2	56,(2, 29),6	68,(2, 50),9	77,(1, 18),1	78,(1, 21),3	81,(2, 54),1	82,(2, 60),4	86,(2, 66),3	89,(1, 29),2	91,(3, 50),7	98,(3, 63),5	103,(3, 76),1	104,(3, 78),1	109,(1, 34),9	118,(2, 69),1	119,(2, 72),1	120,(8, 25),1	121,(8, 29),1	122,(1, 41),1	123,(3, 66),15	138,(3, 69),3	141,(3, 80),4	145,(5, 14),4	149,(8, 41),1	150,(2, 34),22	172,(2, 57),10	182,(3, 18),53	235,(5, 18),9	244,(7, 21),1	245,(7, 25),1	246,(1, 47),61	307,(7, 29),1	308,(7, 41),1	309,(1, 50),4	313,(5, 50),3	316,(5, 57),1	317,(1, 54),3	320,(5, 60),1	321,(7, 50),1	323,(1, 60),93	416,(5, 21),11	442,(7, 43),15	457,(7, 63),12	482,(7, 66),13	495,(7, 69),8	503,(7, 80),3	506,(22, 81),4	514,(8, 45),4	518,(1, 63),2	520,(7, 72),16	545,(5, 45),29	574,(5, 47),6	580,(8, 47),1	586,(1, 69),1	658,(38, 81),4	662,(44, 81),4	666,(1, 72),27	693,(5, 76),10	703,(65, 81),4	708,(8, 54),16	724,(8, 57),1	725,(8, 60),2	727,(8, 63),2	729,(8, 69),1	730,(20, 81),4	736,(1, 76),1	738,(1, 78),22	760,(53, 81),4	764,(13, 81),4	768,(24, 81),4	772,(28, 81),4	778,(6, 14),3	784,(6, 21),1	785,(32, 81),4	790,(6, 25),3	793,(8, 72),34	828,(6, 34),1	829,(8, 76),17	846,(8, 80),24	870,(55, 81),4	874,(39, 81),4	878,(61, 81),4	882,(40, 81),4	886,(64, 81),4	890,(67, 81),4	894,(74, 81),4	898,(11, 81),4	902,(12, 81),4	908,(6, 43),3	911,(6, 45),4	915,(15, 81),4	921,(6, 50),5	926,(19, 81),4	930,(6, 54),25	956,(6, 57),7	963,(23, 81),4	967,(26, 81),4	971,(27, 81),4	975,(30, 81),4	979,(31, 81),4	983,(35, 81),4	987,(37, 81),4	991,(42, 81),4	998,(6, 60),12	1010,(46, 81),4	1015,(6, 63),1	1016,(6, 66),7	1023,(48, 81),4	1027,(49, 81),4	1031,(51, 81),4	1035,(52, 81),4	1039,(56, 81),4	1044,(6, 69),22	1066,(58, 81),4	1070,(59, 81),4	1074,(62, 81),4	1078,(68, 81),4	1082,(70, 81),4	1087,(6, 76),2	1090,(6, 78),8	1099,(6, 80),37	1136,(5, 69),251	1387,(7, 57),108	1495,(10, 81),4	1499,(16, 81),4	1503,(9, 81),4	1507,(36, 81),4	1511,(33, 81),4	1515,(73, 81),4	1519,(75, 81),4	1523,(77, 81),4	1527,(79, 81),4	1531,(17, 81),4	1535,(71, 81),4	
7,(0, 3),6	31,(0, 8),6	37,(2, 13),6	43,(2, 20),1	62,(2, 48),6	81,(5, 13),1	82,(1, 24),5	91,(5, 20),3	94,(5, 24),4	98,(5, 28),2	100,(5, 48),2	102,(5, 64),2	105,(1, 32),4	119,(1, 40),3	122,(2, 32),28	154,(5, 70),2	177,(4, 24),1	182,(2, 58),16	198,(2, 61),13	211,(2, 73),12	223,(2, 75),2	225,(4, 13),8	233,(4, 28),6	239,(7, 24),5	244,(5, 40),7	251,(5, 58),11	272,(4, 40),1	282,(7, 28),6	288,(7, 32),1	289,(4, 64),1	290,(4, 67),3	293,(7, 39),1	294,(7, 48),2	296,(7, 51),1	297,(7, 70),1	298,(7, 75),1	307,(1, 48),2	313,(1, 51),4	320,(1, 55),1	321,(5, 39),41	362,(7, 61),13	380,(4, 75),34	414,(7, 40),28	469,(7, 64),13	520,(1, 64),34	554,(1, 67),22	580,(5, 51),78	693,(1, 73),35	728,(7, 73),42	916,(6, 48),1	926,(6, 51),1	963,(6, 58),2	1066,(6, 70),12	1080,(6, 73),6	1086,(6, 75),1	
1,(0, 2),6	25,(0, 7),6	65,(3, 12),8	73,(3, 22),1	74,(3, 26),1	75,(3, 30),1	76,(3, 35),5	81,(1, 22),1	85,(8, 11),1	86,(8, 30),2	88,(8, 35),1	91,(1, 30),13	104,(5, 11),18	122,(5, 12),13	135,(5, 22),5	140,(5, 26),3	149,(5, 35),5	159,(4, 11),9	168,(4, 12),7	175,(4, 22),2	178,(4, 26),9	187,(4, 30),31	219,(4, 35),1	220,(5, 52),6	235,(8, 12),7	246,(4, 37),26	273,(4, 52),16	289,(5, 37),24	412,(8, 22),8	420,(8, 37),94	581,(8, 52),97	760,(6, 11),1	761,(6, 12),17	793,(6, 26),2	799,(6, 30),1	829,(6, 35),67	896,(6, 37),2	927,(6, 52),3	
10,(2, 9),16	26,(2, 16),7	33,(3, 9),10	43,(3, 10),22	65,(5, 10),16	82,(5, 16),9	100,(2, 36),18	118,(4, 9),41	159,(5, 33),15	174,(8, 9),6	218,(4, 33),1	225,(7, 9),4	239,(4, 36),7	297,(3, 33),97	427,(5, 36),118	545,(7, 33),52	
# Outgoing
65,(5, 10),16	81,(5, 13),1	82,(5, 16),9	91,(5, 20),3	94,(5, 24),4	98,(5, 28),2	100,(5, 48),2	102,(5, 64),2	104,(5, 11),18	122,(5, 12),13	135,(5, 22),5	140,(5, 26),3	145,(5, 14),4	149,(5, 35),5	154,(5, 70),2	159,(5, 33),15	220,(5, 52),6	235,(5, 18),9	244,(5, 40),7	251,(5, 58),11	289,(5, 37),24	313,(5, 50),3	316,(5, 57),1	320,(5, 60),1	321,(5, 39),41	416,(5, 21),11	427,(5, 36),118	545,(5, 45),29	574,(5, 47),6	580,(5, 51),78	658,(38, 81),4	662,(44, 81),4	693,(5, 76),10	703,(65, 81),4	760,(53, 81),4	894,(74, 81),4	915,(15, 81),4	926,(19, 81),4	963,(23, 81),4	971,(27, 81),4	979,(31, 81),4	991,(42, 81),4	1010,(46, 81),4	1027,(49, 81),4	1039,(56, 81),4	1070,(59, 81),4	1074,(62, 81),4	1078,(68, 81),4	1136,(5, 69),251	1523,(77, 81),4	1527,(79, 81),4	1531,(17, 81),4	1535,(71, 81),4	
118,(4, 9),41	159,(4, 11),9	168,(4, 12),7	175,(4, 22),2	177,(4, 24),1	178,(4, 26),9	187,(4, 30),31	218,(4, 33),1	219,(4, 35),1	225,(4, 13),8	233,(4, 28),6	239,(4, 36),7	246,(4, 37),26	272,(4, 40),1	273,(4, 52),16	289,(4, 64),1	290,(4, 67),3	297,(4, 19),2	299,(4, 23),6	305,(4, 27),4	309,(4, 44),10	319,(4, 62),1	320,(4, 79),1	323,(4, 46),18	341,(4, 53),25	366,(4, 71),4	370,(4, 74),10	380,(4, 75),34	666,(4, 77),12	
33,(3, 9),10	43,(3, 10),22	65,(3, 12),8	73,(3, 22),1	74,(3, 26),1	75,(3, 30),1	76,(3, 35),5	81,(3, 15),1	82,(3, 17),1	83,(3, 31),1	84,(3, 44),1	85,(8, 11),1	86,(8, 30),2	88,(8, 35),1	91,(3, 50),7	98,(3, 63),5	103,(3, 76),1	104,(3, 78),1	105,(3, 23),7	112,(3, 74),5	117,(8, 44),1	119,(8, 74),1	120,(8, 25),1	121,(8, 29),1	122,(8, 79),1	123,(3, 66),15	138,(3, 69),3	141,(3, 80),4	149,(8, 41),1	174,(8, 9),6	182,(3, 18),53	235,(8, 12),7	282,(3, 27),15	297,(3, 33),97	394,(3, 59),10	404,(3, 65),8	412,(8, 22),8	420,(8, 37),94	514,(8, 45),4	518,(3, 53),40	558,(3, 77),5	563,(3, 79),6	569,(8, 42),3	572,(8, 53),3	580,(8, 47),1	581,(8, 52),97	688,(8, 31),10	698,(8, 49),10	708,(8, 54),16	724,(8, 57),1	725,(8, 60),2	727,(8, 63),2	729,(8, 69),1	730,(20, 81),4	738,(8, 56),20	758,(8, 62),4	762,(8, 68),2	764,(13, 81),4	768,(24, 81),4	772,(28, 81),4	785,(32, 81),4	793,(8, 72),34	829,(8, 76),17	846,(8, 80),24	870,(55, 81),4	874,(39, 81),4	878,(61, 81),4	882,(40, 81),4	886,(64, 81),4	890,(67, 81),4	1023,(48, 81),4	1031,(51, 81),4	1066,(58, 81),4	1082,(70, 81),4	1300,(3, 71),98	1515,(73, 81),4	1519,(75, 81),4	
10,(2, 9),16	26,(2, 16),7	33,(2, 18),4	37,(2, 13),6	43,(2, 20),1	44,(2, 21),10	54,(2, 25),2	56,(2, 29),6	62,(2, 48),6	68,(2, 50),9	77,(2, 19),1	78,(2, 44),2	80,(2, 77),1	81,(2, 54),1	82,(2, 60),4	86,(2, 66),3	89,(2, 27),11	100,(2, 36),18	118,(2, 69),1	119,(2, 72),1	120,(7, 15),1	121,(7, 19),1	122,(2, 32),28	150,(2, 34),22	172,(2, 57),10	182,(2, 58),16	198,(2, 61),13	211,(2, 73),12	223,(2, 75),2	225,(7, 9),4	239,(7, 24),5	244,(7, 21),1	245,(7, 25),1	246,(2, 42),22	268,(2, 71),14	282,(7, 28),6	288,(7, 32),1	293,(7, 39),1	294,(7, 48),2	296,(7, 51),1	297,(7, 70),1	298,(7, 75),1	307,(7, 29),1	308,(7, 41),1	321,(7, 50),1	362,(7, 61),13	380,(7, 23),2	382,(7, 38),2	384,(7, 44),1	385,(7, 46),3	388,(7, 53),1	389,(7, 56),4	393,(7, 68),1	412,(7, 59),2	414,(7, 40),28	442,(7, 43),15	457,(7, 63),12	469,(7, 64),13	482,(7, 66),13	495,(7, 69),8	503,(7, 80),3	506,(22, 81),4	520,(7, 72),16	545,(7, 33),52	678,(7, 71),10	728,(7, 73),42	898,(11, 81),4	902,(12, 81),4	967,(26, 81),4	975,(30, 81),4	983,(35, 81),4	987,(37, 81),4	1035,(52, 81),4	1099,(2, 17),201	1387,(7, 57),108	
1,(0, 2),6	7,(0, 3),6	13,(0, 4),6	19,(0, 5),6	25,(0, 7),6	31,(0, 8),6	37,(1, 15),35	72,(1, 17),5	77,(1, 18),1	78,(1, 21),3	81,(1, 22),1	82,(1, 24),5	87,(1, 27),2	89,(1, 29),2	91,(1, 30),13	104,(1, 31),1	105,(1, 32),4	109,(1, 34),9	118,(1, 38),1	119,(1, 40),3	122,(1, 41),1	123,(1, 42),3	126,(1, 44),120	246,(1, 47),61	307,(1, 48),2	309,(1, 50),4	313,(1, 51),4	317,(1, 54),3	320,(1, 55),1	321,(1, 59),2	323,(1, 60),93	416,(1, 62),102	518,(1, 63),2	520,(1, 64),34	554,(1, 67),22	576,(1, 68),10	586,(1, 69),1	587,(1, 71),79	666,(1, 72),27	693,(1, 73),35	728,(1, 74),8	736,(1, 76),1	737,(1, 77),1	738,(1, 78),22	760,(6, 11),1	761,(6, 12),17	778,(6, 14),3	781,(6, 15),1	782,(6, 17),1	783,(6, 19),1	784,(6, 21),1	785,(6, 23),5	790,(6, 25),3	793,(6, 26),2	795,(6, 27),4	799,(6, 30),1	800,(6, 31),28	828,(6, 34),1	829,(6, 35),67	896,(6, 37),2	898,(6, 42),10	908,(6, 43),3	911,(6, 45),4	915,(6, 46),1	916,(6, 48),1	917,(6, 49),4	921,(6, 50),5	926,(6, 51),1	927,(6, 52),3	930,(6, 54),25	955,(6, 56),1	956,(6, 57),7	963,(6, 58),2	965,(6, 59),33	998,(6, 60),12	1010,(6, 62),5	1015,(6, 63),1	1016,(6, 66),7	1023,(6, 68),21	1044,(6, 69),22	1066,(6, 70),12	1078,(6, 71),2	1080,(6, 73),6	1086,(6, 75),1	1087,(6, 76),2	1089,(6, 77),1	1090,(6, 78),8	1098,(6, 79),1	1099,(6, 80),37	1495,(10, 81),4	1499,(16, 81),4	1503,(9, 81),4	1507,(36, 81),4	1511,(33, 81),4	
