1449
# CPU
174,21,8	184,16,8	237,29,8	306,38,8	
69,28,8	93,20,8	117,15,8	162,37,8	
121,14,8	129,25,8	137,33,8	
113,13,8	121,30,8	129,23,8	137,39,8	
72,11,8	127,27,8	165,36,8	236,18,8	
68,10,8	128,32,8	136,24,8	
28,4,8	36,22,8	44,9,8	143,34,8	
19,3,8	27,8,8	35,26,8	43,35,8	118,17,8	
10,2,8	92,19,8	117,7,8	368,40,8	1448,41,1	
0,0,1	1,1,8	96,12,8	104,5,8	114,6,8	305,31,8	
# Incoming
162,(1, 38),5	167,(2, 21),7	174,(2, 29),1	175,(3, 16),7	182,(4, 16),2	236,(3, 29),1	305,(4, 38),1	
63,(1, 15),1	68,(2, 28),1	92,(1, 20),1	103,(3, 15),1	109,(2, 15),8	118,(4, 37),1	154,(1, 37),8	
98,(1, 25),17	115,(3, 14),6	121,(4, 25),1	126,(2, 33),1	127,(3, 33),7	
93,(1, 23),5	98,(2, 13),11	109,(3, 13),4	113,(3, 30),2	117,(2, 23),2	119,(4, 39),1	127,(2, 39),4	
64,(1, 18),7	71,(2, 11),1	104,(3, 36),1	115,(1, 27),12	132,(1, 36),22	154,(2, 36),11	165,(4, 18),7	182,(3, 18),54	
42,(1, 10),21	63,(2, 10),5	119,(2, 32),7	127,(1, 32),1	128,(4, 24),3	
19,(0, 4),9	37,(1, 9),5	128,(1, 34),4	132,(2, 34),11	
10,(0, 3),9	117,(4, 17),1	
1,(0, 2),9	28,(1, 7),9	71,(1, 19),21	105,(3, 40),2	114,(4, 7),3	117,(10, 41),36	167,(1, 40),1	168,(28, 41),36	237,(8, 41),36	306,(4, 40),62	368,(26, 41),36	404,(22, 41),36	440,(35, 41),36	476,(9, 41),36	512,(11, 41),36	548,(20, 41),36	584,(12, 41),36	620,(5, 41),36	656,(13, 41),36	692,(6, 41),36	728,(15, 41),36	764,(17, 41),36	800,(14, 41),36	836,(30, 41),36	872,(27, 41),36	908,(32, 41),36	944,(25, 41),36	980,(23, 41),36	1016,(24, 41),36	1052,(33, 41),36	1088,(39, 41),36	1124,(34, 41),36	1160,(37, 41),36	1196,(36, 41),36	1232,(21, 41),36	1268,(16, 41),36	1304,(18, 41),36	1340,(29, 41),36	1376,(31, 41),36	1412,(38, 41),36	
72,(2, 12),24	96,(3, 5),2	98,(3, 6),5	103,(4, 6),11	184,(4, 31),121	
# Outgoing
1232,(21, 41),36	1268,(16, 41),36	1340,(29, 41),36	1412,(38, 41),36	
168,(28, 41),36	548,(20, 41),36	728,(15, 41),36	1160,(37, 41),36	
800,(14, 41),36	944,(25, 41),36	1052,(33, 41),36	
656,(13, 41),36	836,(30, 41),36	980,(23, 41),36	1088,(39, 41),36	
512,(11, 41),36	872,(27, 41),36	1196,(36, 41),36	1304,(18, 41),36	
117,(10, 41),36	908,(32, 41),36	1016,(24, 41),36	
103,(4, 6),11	114,(4, 7),3	117,(4, 17),1	118,(4, 37),1	119,(4, 39),1	121,(4, 25),1	128,(4, 24),3	165,(4, 18),7	182,(4, 16),2	184,(4, 31),121	305,(4, 38),1	306,(4, 40),62	404,(22, 41),36	476,(9, 41),36	1124,(34, 41),36	
96,(3, 5),2	98,(3, 6),5	103,(3, 15),1	104,(3, 36),1	105,(3, 40),2	109,(3, 13),4	113,(3, 30),2	115,(3, 14),6	127,(3, 33),7	175,(3, 16),7	182,(3, 18),54	236,(3, 29),1	237,(8, 41),36	368,(26, 41),36	440,(35, 41),36	764,(17, 41),36	
63,(2, 10),5	68,(2, 28),1	71,(2, 11),1	72,(2, 12),24	98,(2, 13),11	109,(2, 15),8	117,(2, 23),2	119,(2, 32),7	126,(2, 33),1	127,(2, 39),4	132,(2, 34),11	154,(2, 36),11	167,(2, 21),7	174,(2, 29),1	
1,(0, 2),9	10,(0, 3),9	19,(0, 4),9	28,(1, 7),9	37,(1, 9),5	42,(1, 10),21	63,(1, 15),1	64,(1, 18),7	71,(1, 19),21	92,(1, 20),1	93,(1, 23),5	98,(1, 25),17	115,(1, 27),12	127,(1, 32),1	128,(1, 34),4	132,(1, 36),22	154,(1, 37),8	162,(1, 38),5	167,(1, 40),1	584,(12, 41),36	620,(5, 41),36	692,(6, 41),36	1376,(31, 41),36	
