1528
# CPU
0,0,1	1,20,14	15,150,14	29,5,14	43,43,14	57,4,14	71,60,14	85,14,14	99,96,14	113,1,14	127,188,14	141,196,14	155,145,14	169,8,14	183,21,14	197,68,14	211,15,14	225,182,14	239,174,14	253,9,14	267,113,14	281,97,14	295,7,14	309,129,14	323,136,14	337,16,14	351,154,14	365,61,14	379,172,14	393,87,14	407,32,14	421,153,14	435,12,14	449,115,14	463,168,14	477,82,14	491,148,14	505,2,14	519,39,14	533,49,14	547,110,14	561,79,14	575,101,14	589,66,14	603,11,14	617,173,14	631,76,14	645,63,14	659,114,14	673,111,14	687,19,14	701,165,14	715,100,14	729,134,14	743,152,14	757,124,14	771,69,14	785,166,14	799,6,14	813,162,14	827,26,14	841,125,14	855,86,14	869,185,14	883,181,14	897,149,14	911,195,14	925,17,14	939,199,14	953,160,14	967,118,14	981,46,14	995,72,14	1009,155,14	1023,171,14	1037,189,14	1051,18,14	1065,52,14	1079,191,14	1093,184,14	1107,54,14	1121,48,14	1135,169,14	1149,13,14	1163,22,14	1177,164,14	1191,175,14	1205,198,14	1219,40,14	1233,10,14	1247,177,14	1261,89,14	1275,121,14	1289,170,14	1303,92,14	1317,55,14	1331,38,14	1345,197,14	1359,75,14	1373,3,14	1387,157,14	1401,151,14	1415,59,14	1429,135,14	1443,200,14	1457,102,14	1471,74,14	1485,80,14	1499,37,14	1513,122,14	1527,201,1	
40,146,14	104,144,14	128,70,14	142,112,14	186,90,14	226,28,14	240,99,14	292,104,14	310,67,14	324,23,14	352,47,14	366,123,14	380,51,14	450,105,14	464,119,14	478,156,14	520,94,14	534,57,14	548,93,14	562,178,14	618,159,14	632,50,14	646,83,14	702,33,14	716,116,14	730,109,14	744,167,14	762,180,14	814,56,14	828,117,14	842,161,14	856,78,14	870,31,14	940,30,14	954,142,14	968,81,14	982,91,14	1068,133,14	1091,77,14	1164,45,14	1178,190,14	1193,163,14	1248,106,14	1262,179,14	1276,193,14	1290,58,14	1304,132,14	1388,35,14	1402,128,14	1416,88,14	1430,62,14	1444,98,14	1458,71,14	
46,29,14	130,176,14	145,85,14	190,34,14	227,139,14	316,44,14	353,95,14	367,25,14	451,147,14	465,141,14	521,192,14	535,140,14	549,53,14	563,131,14	619,158,14	633,143,14	703,137,14	717,41,14	731,183,14	745,120,14	815,127,14	829,64,14	843,138,14	857,65,14	941,187,14	955,24,14	969,42,14	1074,27,14	1165,126,14	1249,103,14	1263,108,14	1277,194,14	1291,130,14	1389,73,14	1403,36,14	1417,186,14	1431,84,14	1445,107,14	
# Incoming
54,(146, 201),2	60,(29, 201),2	118,(144, 201),2	142,(70, 201),2	144,(176, 201),2	156,(112, 201),2	159,(85, 201),2	200,(90, 201),2	204,(34, 201),2	240,(28, 201),2	242,(139, 201),2	254,(99, 201),2	306,(104, 201),2	324,(67, 201),2	330,(44, 201),2	338,(23, 201),2	366,(47, 201),2	368,(95, 201),2	380,(123, 201),2	382,(25, 201),2	394,(51, 201),2	464,(105, 201),2	466,(147, 201),2	478,(119, 201),2	480,(141, 201),2	492,(156, 201),2	534,(94, 201),2	536,(192, 201),2	548,(57, 201),2	550,(140, 201),2	562,(93, 201),2	564,(53, 201),2	576,(178, 201),2	578,(131, 201),2	632,(159, 201),2	634,(158, 201),2	646,(50, 201),2	648,(143, 201),2	660,(83, 201),2	716,(33, 201),2	718,(137, 201),2	730,(116, 201),2	732,(41, 201),2	744,(109, 201),2	746,(183, 201),2	758,(167, 201),2	760,(120, 201),2	776,(180, 201),2	828,(56, 201),2	830,(127, 201),2	842,(117, 201),2	844,(64, 201),2	856,(161, 201),2	858,(138, 201),2	870,(78, 201),2	872,(65, 201),2	884,(31, 201),2	954,(30, 201),2	956,(187, 201),2	968,(142, 201),2	970,(24, 201),2	982,(81, 201),2	984,(42, 201),2	996,(91, 201),2	1082,(133, 201),2	1088,(27, 201),2	1105,(77, 201),2	1178,(45, 201),2	1180,(126, 201),2	1192,(190, 201),2	1207,(163, 201),2	1262,(106, 201),2	1264,(103, 201),2	1276,(179, 201),2	1278,(108, 201),2	1290,(193, 201),2	1292,(194, 201),2	1304,(58, 201),2	1306,(130, 201),2	1318,(132, 201),2	1402,(35, 201),2	1404,(73, 201),2	1416,(128, 201),2	1418,(36, 201),2	1430,(88, 201),2	1432,(186, 201),2	1444,(62, 201),2	1446,(84, 201),2	1458,(98, 201),2	1460,(107, 201),2	1472,(71, 201),2	
15,(20, 146),25	40,(20, 109),1	46,(20, 112),6	54,(20, 99),5	59,(20, 104),6	65,(5, 104),1	66,(5, 23),11	83,(5, 156),4	87,(5, 93),1	99,(14, 144),5	127,(1, 70),1	130,(1, 112),3	145,(1, 99),35	180,(1, 51),2	183,(8, 90),3	190,(1, 67),5	196,(8, 156),23	220,(1, 50),5	225,(15, 28),1	227,(15, 99),2	247,(15, 93),1	248,(4, 178),13	262,(15, 180),2	264,(1, 161),1	267,(9, 104),25	304,(5, 78),4	309,(7, 67),1	316,(7, 23),7	323,(7, 123),1	324,(7, 119),7	331,(7, 57),1	351,(16, 47),1	353,(16, 123),3	360,(16, 51),10	370,(16, 93),7	402,(1, 178),23	446,(16, 159),2	448,(7, 161),1	449,(12, 105),1	451,(12, 119),1	461,(12, 156),5	466,(12, 178),1	503,(12, 159),9	512,(15, 83),7	519,(2, 94),1	521,(2, 57),8	531,(2, 93),10	543,(2, 178),8	553,(8, 83),38	616,(7, 30),1	617,(11, 159),1	619,(11, 50),3	632,(11, 83),4	636,(4, 167),16	652,(7, 167),17	695,(12, 180),4	699,(8, 81),1	700,(16, 91),1	701,(19, 33),1	703,(19, 116),4	712,(19, 109),5	729,(19, 167),4	736,(19, 180),26	771,(16, 78),9	800,(14, 31),7	813,(6, 56),1	815,(6, 117),3	823,(6, 161),7	832,(6, 78),7	841,(6, 31),23	864,(14, 91),33	897,(20, 133),25	922,(8, 133),6	928,(20, 77),3	932,(11, 190),4	936,(15, 163),1	937,(16, 163),1	939,(17, 30),1	941,(17, 142),4	947,(17, 81),7	962,(17, 91),10	985,(1, 77),38	1023,(6, 190),6	1037,(14, 193),5	1042,(17, 193),6	1050,(4, 58),6	1056,(8, 58),1	1057,(17, 58),1	1062,(5, 88),2	1064,(5, 62),1	1065,(18, 133),3	1074,(18, 77),17	1116,(15, 132),27	1143,(7, 62),7	1158,(12, 98),4	1163,(13, 45),1	1165,(13, 190),1	1166,(13, 163),27	1247,(10, 106),1	1249,(10, 179),4	1254,(10, 193),3	1270,(10, 58),13	1284,(10, 132),9	1293,(20, 71),48	1387,(3, 35),1	1389,(3, 128),2	1392,(3, 88),3	1399,(3, 62),1	1402,(3, 98),15	1420,(3, 71),5	
43,(5, 29),3	52,(5, 85),2	77,(5, 141),6	88,(5, 131),1	89,(20, 143),10	104,(14, 85),1	105,(14, 44),17	122,(20, 127),3	125,(14, 64),1	126,(5, 186),1	128,(1, 176),2	133,(1, 85),12	182,(1, 192),1	186,(8, 34),4	195,(8, 147),1	219,(1, 158),1	226,(15, 139),1	229,(15, 147),2	231,(15, 192),14	245,(15, 140),2	261,(1, 41),1	265,(20, 24),2	292,(9, 44),1	293,(8, 158),10	303,(9, 138),1	308,(15, 24),1	310,(7, 44),6	332,(7, 140),18	350,(7, 183),1	352,(16, 95),1	356,(16, 25),4	377,(1, 53),25	425,(1, 131),21	450,(12, 147),1	452,(12, 141),9	467,(9, 131),36	520,(2, 192),1	529,(2, 140),2	541,(2, 53),2	551,(2, 131),2	591,(14, 137),17	608,(15, 120),8	618,(11, 158),1	622,(11, 143),10	669,(4, 120),26	702,(19, 137),1	707,(19, 41),5	717,(19, 183),12	733,(19, 120),3	762,(19, 127),1	763,(7, 138),8	780,(15, 65),9	789,(2, 65),11	807,(2, 187),3	810,(7, 27),3	814,(6, 127),1	818,(6, 64),5	830,(6, 138),2	839,(6, 65),2	931,(11, 126),1	938,(2, 194),1	940,(17, 187),1	945,(17, 24),2	954,(17, 42),8	972,(20, 27),13	1029,(7, 103),2	1031,(16, 108),6	1048,(12, 194),2	1058,(7, 130),1	1059,(15, 36),2	1061,(2, 36),1	1068,(18, 27),6	1091,(18, 126),4	1095,(20, 130),21	1150,(7, 84),8	1162,(16, 107),1	1164,(13, 126),1	1193,(20, 107),15	1208,(12, 107),18	1248,(10, 103),1	1253,(10, 108),1	1257,(10, 194),13	1283,(10, 130),1	1388,(3, 73),1	1391,(3, 36),1	1395,(3, 186),4	1400,(3, 84),2	1417,(3, 107),3	
# Outgoing
15,(20, 146),25	40,(20, 109),1	43,(5, 29),3	46,(20, 112),6	52,(5, 85),2	54,(20, 99),5	59,(20, 104),6	65,(5, 104),1	66,(5, 23),11	77,(5, 141),6	83,(5, 156),4	87,(5, 93),1	88,(5, 131),1	89,(20, 143),10	99,(14, 144),5	104,(14, 85),1	105,(14, 44),17	122,(20, 127),3	125,(14, 64),1	126,(5, 186),1	127,(1, 70),1	128,(1, 176),2	130,(1, 112),3	133,(1, 85),12	145,(1, 99),35	180,(1, 51),2	182,(1, 192),1	183,(8, 90),3	186,(8, 34),4	190,(1, 67),5	195,(8, 147),1	196,(8, 156),23	219,(1, 158),1	220,(1, 50),5	225,(15, 28),1	226,(15, 139),1	227,(15, 99),2	229,(15, 147),2	231,(15, 192),14	245,(15, 140),2	247,(15, 93),1	248,(4, 178),13	261,(1, 41),1	262,(15, 180),2	264,(1, 161),1	265,(20, 24),2	267,(9, 104),25	292,(9, 44),1	293,(8, 158),10	303,(9, 138),1	304,(5, 78),4	308,(15, 24),1	309,(7, 67),1	310,(7, 44),6	316,(7, 23),7	323,(7, 123),1	324,(7, 119),7	331,(7, 57),1	332,(7, 140),18	350,(7, 183),1	351,(16, 47),1	352,(16, 95),1	353,(16, 123),3	356,(16, 25),4	360,(16, 51),10	370,(16, 93),7	377,(1, 53),25	402,(1, 178),23	425,(1, 131),21	446,(16, 159),2	448,(7, 161),1	449,(12, 105),1	450,(12, 147),1	451,(12, 119),1	452,(12, 141),9	461,(12, 156),5	466,(12, 178),1	467,(9, 131),36	503,(12, 159),9	512,(15, 83),7	519,(2, 94),1	520,(2, 192),1	521,(2, 57),8	529,(2, 140),2	531,(2, 93),10	541,(2, 53),2	543,(2, 178),8	551,(2, 131),2	553,(8, 83),38	591,(14, 137),17	608,(15, 120),8	616,(7, 30),1	617,(11, 159),1	618,(11, 158),1	619,(11, 50),3	622,(11, 143),10	632,(11, 83),4	636,(4, 167),16	652,(7, 167),17	669,(4, 120),26	695,(12, 180),4	699,(8, 81),1	700,(16, 91),1	701,(19, 33),1	702,(19, 137),1	703,(19, 116),4	707,(19, 41),5	712,(19, 109),5	717,(19, 183),12	729,(19, 167),4	733,(19, 120),3	736,(19, 180),26	762,(19, 127),1	763,(7, 138),8	771,(16, 78),9	780,(15, 65),9	789,(2, 65),11	800,(14, 31),7	807,(2, 187),3	810,(7, 27),3	813,(6, 56),1	814,(6, 127),1	815,(6, 117),3	818,(6, 64),5	823,(6, 161),7	830,(6, 138),2	832,(6, 78),7	839,(6, 65),2	841,(6, 31),23	864,(14, 91),33	897,(20, 133),25	922,(8, 133),6	928,(20, 77),3	931,(11, 126),1	932,(11, 190),4	936,(15, 163),1	937,(16, 163),1	938,(2, 194),1	939,(17, 30),1	940,(17, 187),1	941,(17, 142),4	945,(17, 24),2	947,(17, 81),7	954,(17, 42),8	962,(17, 91),10	972,(20, 27),13	985,(1, 77),38	1023,(6, 190),6	1029,(7, 103),2	1031,(16, 108),6	1037,(14, 193),5	1042,(17, 193),6	1048,(12, 194),2	1050,(4, 58),6	1056,(8, 58),1	1057,(17, 58),1	1058,(7, 130),1	1059,(15, 36),2	1061,(2, 36),1	1062,(5, 88),2	1064,(5, 62),1	1065,(18, 133),3	1068,(18, 27),6	1074,(18, 77),17	1091,(18, 126),4	1095,(20, 130),21	1116,(15, 132),27	1143,(7, 62),7	1150,(7, 84),8	1158,(12, 98),4	1162,(16, 107),1	1163,(13, 45),1	1164,(13, 126),1	1165,(13, 190),1	1166,(13, 163),27	1193,(20, 107),15	1208,(12, 107),18	1247,(10, 106),1	1248,(10, 103),1	1249,(10, 179),4	1253,(10, 108),1	1254,(10, 193),3	1257,(10, 194),13	1270,(10, 58),13	1283,(10, 130),1	1284,(10, 132),9	1293,(20, 71),48	1387,(3, 35),1	1388,(3, 73),1	1389,(3, 128),2	1391,(3, 36),1	1392,(3, 88),3	1395,(3, 186),4	1399,(3, 62),1	1400,(3, 84),2	1402,(3, 98),15	1417,(3, 107),3	1420,(3, 71),5	
54,(146, 201),2	118,(144, 201),2	142,(70, 201),2	156,(112, 201),2	200,(90, 201),2	240,(28, 201),2	254,(99, 201),2	306,(104, 201),2	324,(67, 201),2	338,(23, 201),2	366,(47, 201),2	380,(123, 201),2	394,(51, 201),2	464,(105, 201),2	478,(119, 201),2	492,(156, 201),2	534,(94, 201),2	548,(57, 201),2	562,(93, 201),2	576,(178, 201),2	632,(159, 201),2	646,(50, 201),2	660,(83, 201),2	716,(33, 201),2	730,(116, 201),2	744,(109, 201),2	758,(167, 201),2	776,(180, 201),2	828,(56, 201),2	842,(117, 201),2	856,(161, 201),2	870,(78, 201),2	884,(31, 201),2	954,(30, 201),2	968,(142, 201),2	982,(81, 201),2	996,(91, 201),2	1082,(133, 201),2	1105,(77, 201),2	1178,(45, 201),2	1192,(190, 201),2	1207,(163, 201),2	1262,(106, 201),2	1276,(179, 201),2	1290,(193, 201),2	1304,(58, 201),2	1318,(132, 201),2	1402,(35, 201),2	1416,(128, 201),2	1430,(88, 201),2	1444,(62, 201),2	1458,(98, 201),2	1472,(71, 201),2	
60,(29, 201),2	144,(176, 201),2	159,(85, 201),2	204,(34, 201),2	242,(139, 201),2	330,(44, 201),2	368,(95, 201),2	382,(25, 201),2	466,(147, 201),2	480,(141, 201),2	536,(192, 201),2	550,(140, 201),2	564,(53, 201),2	578,(131, 201),2	634,(158, 201),2	648,(143, 201),2	718,(137, 201),2	732,(41, 201),2	746,(183, 201),2	760,(120, 201),2	830,(127, 201),2	844,(64, 201),2	858,(138, 201),2	872,(65, 201),2	956,(187, 201),2	970,(24, 201),2	984,(42, 201),2	1088,(27, 201),2	1180,(126, 201),2	1264,(103, 201),2	1278,(108, 201),2	1292,(194, 201),2	1306,(130, 201),2	1404,(73, 201),2	1418,(36, 201),2	1432,(186, 201),2	1446,(84, 201),2	1460,(107, 201),2	
