4106
# CPU
57,15,1	67,27,1	68,18,1	79,19,1	80,24,1	127,32,1	138,21,1	148,31,1	150,33,1	160,35,1	175,37,1	533,13,1	537,16,1	538,22,1	546,23,1	549,25,1	563,26,1	565,28,1	567,29,1	569,39,1	
13,4,1	14,12,1	15,14,1	16,36,1	29,8,1	54,34,1	82,20,1	134,38,1	253,17,1	
9,3,1	16,7,1	103,40,1	497,9,1	525,11,1	
5,2,1	6,6,1	48,10,1	122,30,1	
0,0,1	1,1,1	495,5,1	4105,41,1	
# Incoming
48,(1, 13),5	53,(1, 15),4	57,(2, 21),1	58,(2, 22),1	59,(2, 24),4	63,(2, 27),4	67,(3, 18),1	68,(3, 19),11	79,(3, 24),1	82,(1, 29),30	112,(1, 32),15	127,(3, 21),11	138,(3, 31),10	148,(3, 33),2	150,(3, 35),10	160,(3, 37),15	175,(3, 39),4	253,(2, 28),83	525,(4, 13),8	533,(4, 16),4	537,(4, 22),1	538,(4, 23),8	546,(4, 25),3	549,(4, 26),14	563,(4, 28),2	565,(4, 29),2	567,(4, 39),2	
9,(0, 4),4	13,(2, 8),15	28,(3, 8),1	29,(3, 17),20	49,(3, 34),5	57,(1, 17),1	58,(1, 20),24	127,(1, 38),7	134,(2, 17),119	
5,(0, 3),4	9,(2, 7),1	13,(1, 7),3	28,(2, 11),5	67,(2, 40),36	495,(4, 9),2	497,(4, 11),28	
1,(0, 2),4	16,(1, 10),32	80,(3, 30),42	
336,(6, 41),104	440,(4, 5),55	569,(12, 41),104	673,(14, 41),104	777,(7, 41),104	881,(36, 41),104	985,(8, 41),104	1089,(10, 41),104	1193,(34, 41),104	1297,(15, 41),104	1401,(27, 41),104	1505,(18, 41),104	1609,(19, 41),104	1713,(24, 41),104	1817,(20, 41),104	1921,(40, 41),104	2025,(30, 41),104	2129,(32, 41),104	2233,(38, 41),104	2337,(21, 41),104	2441,(31, 41),104	2545,(33, 41),104	2649,(35, 41),104	2753,(37, 41),104	2857,(17, 41),104	2961,(9, 41),104	3065,(11, 41),104	3169,(13, 41),104	3273,(16, 41),104	3377,(22, 41),104	3481,(23, 41),104	3585,(25, 41),104	3689,(26, 41),104	3793,(28, 41),104	3897,(29, 41),104	4001,(39, 41),104	
# Outgoing
1297,(15, 41),104	1401,(27, 41),104	1505,(18, 41),104	1609,(19, 41),104	1713,(24, 41),104	2129,(32, 41),104	2337,(21, 41),104	2441,(31, 41),104	2545,(33, 41),104	2649,(35, 41),104	2753,(37, 41),104	3169,(13, 41),104	3273,(16, 41),104	3377,(22, 41),104	3481,(23, 41),104	3585,(25, 41),104	3689,(26, 41),104	3793,(28, 41),104	3897,(29, 41),104	4001,(39, 41),104	
440,(4, 5),55	495,(4, 9),2	497,(4, 11),28	525,(4, 13),8	533,(4, 16),4	537,(4, 22),1	538,(4, 23),8	546,(4, 25),3	549,(4, 26),14	563,(4, 28),2	565,(4, 29),2	567,(4, 39),2	569,(12, 41),104	673,(14, 41),104	881,(36, 41),104	985,(8, 41),104	1193,(34, 41),104	1817,(20, 41),104	2233,(38, 41),104	2857,(17, 41),104	
28,(3, 8),1	29,(3, 17),20	49,(3, 34),5	67,(3, 18),1	68,(3, 19),11	79,(3, 24),1	80,(3, 30),42	127,(3, 21),11	138,(3, 31),10	148,(3, 33),2	150,(3, 35),10	160,(3, 37),15	175,(3, 39),4	777,(7, 41),104	1921,(40, 41),104	2961,(9, 41),104	3065,(11, 41),104	
9,(2, 7),1	13,(2, 8),15	28,(2, 11),5	57,(2, 21),1	58,(2, 22),1	59,(2, 24),4	63,(2, 27),4	67,(2, 40),36	134,(2, 17),119	253,(2, 28),83	336,(6, 41),104	1089,(10, 41),104	2025,(30, 41),104	
1,(0, 2),4	5,(0, 3),4	9,(0, 4),4	13,(1, 7),3	16,(1, 10),32	48,(1, 13),5	53,(1, 15),4	57,(1, 17),1	58,(1, 20),24	82,(1, 29),30	112,(1, 32),15	127,(1, 38),7	
