1805
# CPU
10,4,1	11,31,1	12,35,1	13,38,1	14,39,1	139,10,1	178,19,1	181,21,1	274,22,1	298,24,1	343,34,1	385,12,1	412,23,1	421,20,1	433,30,1	445,33,1	559,25,1	562,26,1	565,27,1	580,29,1	583,32,1	586,36,1	601,37,1	607,40,1	
7,3,1	43,9,1	142,11,1	203,14,1	233,15,1	412,17,1	
4,2,1	5,8,1	40,6,1	430,16,1	1804,41,1	
0,0,1	1,1,1	8,5,1	62,7,1	197,13,1	356,18,1	1177,28,1	
# Incoming
7,(0, 4),3	40,(3, 10),3	43,(1, 10),96	139,(2, 12),21	160,(2, 19),18	178,(2, 21),3	181,(2, 22),93	274,(2, 24),24	298,(2, 25),36	334,(2, 26),3	337,(2, 34),6	343,(2, 36),18	361,(3, 12),24	385,(3, 23),27	412,(1, 20),9	421,(1, 30),12	433,(1, 33),12	445,(1, 37),6	451,(2, 27),96	547,(3, 25),12	559,(3, 26),3	562,(3, 27),3	565,(3, 29),15	580,(3, 32),3	583,(3, 36),3	586,(3, 37),15	601,(3, 40),6	
4,(0, 3),3	37,(1, 9),6	62,(2, 11),24	139,(1, 11),3	142,(1, 14),18	197,(4, 14),6	203,(4, 15),30	358,(1, 17),54	
1,(0, 2),3	10,(1, 6),27	37,(3, 6),3	113,(9, 41),33	160,(1, 16),198	358,(4, 16),72	451,(5, 41),33	484,(31, 41),33	517,(35, 41),33	550,(38, 41),33	583,(39, 41),33	616,(7, 41),33	649,(10, 41),33	682,(11, 41),33	715,(13, 41),33	748,(14, 41),33	781,(15, 41),33	814,(18, 41),33	847,(17, 41),33	1177,(19, 41),33	1210,(21, 41),33	1243,(22, 41),33	1276,(24, 41),33	1309,(34, 41),33	1342,(12, 41),33	1375,(23, 41),33	1408,(20, 41),33	1441,(30, 41),33	1474,(33, 41),33	1507,(25, 41),33	1540,(26, 41),33	1573,(27, 41),33	1606,(29, 41),33	1639,(32, 41),33	1672,(36, 41),33	1705,(37, 41),33	1738,(40, 41),33	1771,(28, 41),33	
5,(2, 5),3	8,(2, 7),54	62,(3, 13),36	98,(3, 18),15	113,(4, 13),84	233,(4, 18),123	547,(2, 28),177	724,(4, 28),453	
# Outgoing
113,(4, 13),84	197,(4, 14),6	203,(4, 15),30	233,(4, 18),123	358,(4, 16),72	484,(31, 41),33	517,(35, 41),33	550,(38, 41),33	583,(39, 41),33	649,(10, 41),33	724,(4, 28),453	1177,(19, 41),33	1210,(21, 41),33	1243,(22, 41),33	1276,(24, 41),33	1309,(34, 41),33	1342,(12, 41),33	1375,(23, 41),33	1408,(20, 41),33	1441,(30, 41),33	1474,(33, 41),33	1507,(25, 41),33	1540,(26, 41),33	1573,(27, 41),33	1606,(29, 41),33	1639,(32, 41),33	1672,(36, 41),33	1705,(37, 41),33	1738,(40, 41),33	
37,(3, 6),3	40,(3, 10),3	62,(3, 13),36	98,(3, 18),15	113,(9, 41),33	361,(3, 12),24	385,(3, 23),27	547,(3, 25),12	559,(3, 26),3	562,(3, 27),3	565,(3, 29),15	580,(3, 32),3	583,(3, 36),3	586,(3, 37),15	601,(3, 40),6	682,(11, 41),33	748,(14, 41),33	781,(15, 41),33	847,(17, 41),33	
5,(2, 5),3	8,(2, 7),54	62,(2, 11),24	139,(2, 12),21	160,(2, 19),18	178,(2, 21),3	181,(2, 22),93	274,(2, 24),24	298,(2, 25),36	334,(2, 26),3	337,(2, 34),6	343,(2, 36),18	451,(2, 27),96	547,(2, 28),177	
1,(0, 2),3	4,(0, 3),3	7,(0, 4),3	10,(1, 6),27	37,(1, 9),6	43,(1, 10),96	139,(1, 11),3	142,(1, 14),18	160,(1, 16),198	358,(1, 17),54	412,(1, 20),9	421,(1, 30),12	433,(1, 33),12	445,(1, 37),6	451,(5, 41),33	616,(7, 41),33	715,(13, 41),33	814,(18, 41),33	1771,(28, 41),33	
