3174
# CPU
25,3,5	30,30,5	35,78,5	49,6,5	54,27,5	59,60,5	64,63,5	93,18,5	98,21,5	121,9,5	201,45,5	249,39,5	254,42,5	317,54,5	329,57,5	334,72,5	421,12,5	445,33,5	450,36,5	455,24,5	505,51,5	510,66,5	1245,69,5	1250,75,5	1261,15,5	1277,48,5	
13,2,5	18,53,5	23,56,5	28,77,5	37,5,5	61,8,5	66,59,5	205,71,5	210,35,5	225,41,5	230,20,5	235,23,5	240,62,5	245,44,5	261,47,5	317,50,5	329,68,5	369,74,5	385,11,5	421,14,5	426,26,5	441,32,5	493,38,5	513,80,5	541,65,5	613,17,5	673,29,5	
0,0,1	1,4,5	6,1,5	11,7,5	16,31,5	21,73,5	26,22,5	31,40,5	36,37,5	41,79,5	46,34,5	149,28,5	193,43,5	201,70,5	313,46,5	417,13,5	449,49,5	481,58,5	697,67,5	1137,10,5	1257,76,5	1933,64,5	1985,16,5	2509,19,5	2529,25,5	2577,52,5	2582,55,5	2613,61,5	3173,81,1	
# Incoming
13,(0, 3),12	37,(0, 6),12	61,(4, 15),28	89,(4, 18),4	93,(4, 21),4	97,(2, 9),24	129,(2, 45),72	205,(4, 72),20	233,(1, 39),16	249,(1, 42),4	253,(2, 54),64	317,(2, 57),12	329,(1, 72),4	385,(7, 12),32	417,(5, 12),4	441,(7, 33),4	445,(7, 36),4	449,(5, 24),4	493,(7, 51),12	505,(7, 66),4	697,(5, 69),548	1245,(5, 75),4	1257,(8, 15),4	1261,(8, 48),16	
1,(0, 2),12	25,(0, 5),12	49,(0, 8),12	61,(3, 11),36	97,(4, 41),8	105,(4, 71),100	205,(3, 35),4	209,(3, 41),16	225,(1, 20),4	229,(1, 23),4	233,(3, 62),4	237,(6, 11),4	241,(6, 44),4	253,(1, 47),8	261,(1, 50),56	317,(1, 65),4	321,(1, 68),8	333,(1, 74),36	369,(7, 11),16	385,(3, 38),28	417,(7, 14),4	421,(7, 26),4	425,(7, 32),16	449,(7, 38),44	509,(7, 80),4	513,(3, 65),28	541,(6, 17),72	613,(6, 29),60	
121,(2, 16),4	125,(2, 28),4	129,(3, 28),20	149,(3, 43),44	193,(6, 70),8	201,(2, 49),36	237,(2, 61),16	253,(3, 46),16	269,(30, 81),16	285,(78, 81),16	301,(6, 46),12	313,(27, 81),16	329,(2, 76),36	365,(53, 81),16	381,(56, 81),16	397,(77, 81),16	413,(5, 13),4	421,(5, 19),24	445,(5, 49),4	453,(5, 58),28	481,(5, 67),216	697,(6, 10),440	1137,(60, 81),16	1153,(63, 81),16	1169,(18, 81),16	1185,(21, 81),16	1201,(9, 81),16	1217,(45, 81),16	1233,(39, 81),16	1249,(5, 76),8	1257,(6, 52),164	1421,(6, 64),512	1933,(8, 16),52	1985,(8, 19),524	2509,(8, 25),20	2529,(8, 52),48	2577,(8, 55),4	2581,(8, 61),32	2613,(59, 81),16	2629,(71, 81),16	2645,(35, 81),16	2661,(41, 81),16	2677,(20, 81),16	2693,(23, 81),16	2709,(62, 81),16	2725,(44, 81),16	2741,(42, 81),16	2757,(47, 81),16	2773,(54, 81),16	2789,(50, 81),16	2805,(57, 81),16	2821,(68, 81),16	2837,(72, 81),16	2853,(74, 81),16	2869,(11, 81),16	2885,(12, 81),16	2901,(14, 81),16	2917,(26, 81),16	2933,(32, 81),16	2949,(33, 81),16	2965,(36, 81),16	2981,(24, 81),16	2997,(38, 81),16	3013,(51, 81),16	3029,(66, 81),16	3045,(80, 81),16	3061,(65, 81),16	3077,(17, 81),16	3093,(29, 81),16	3109,(69, 81),16	3125,(75, 81),16	3141,(15, 81),16	3157,(48, 81),16	
# Outgoing
61,(3, 11),36	129,(3, 28),20	149,(3, 43),44	193,(6, 70),8	205,(3, 35),4	209,(3, 41),16	233,(3, 62),4	237,(6, 11),4	241,(6, 44),4	253,(3, 46),16	269,(30, 81),16	285,(78, 81),16	301,(6, 46),12	313,(27, 81),16	385,(3, 38),28	513,(3, 65),28	541,(6, 17),72	613,(6, 29),60	697,(6, 10),440	1137,(60, 81),16	1153,(63, 81),16	1169,(18, 81),16	1185,(21, 81),16	1201,(9, 81),16	1217,(45, 81),16	1233,(39, 81),16	1257,(6, 52),164	1421,(6, 64),512	2741,(42, 81),16	2773,(54, 81),16	2805,(57, 81),16	2837,(72, 81),16	2885,(12, 81),16	2949,(33, 81),16	2965,(36, 81),16	2981,(24, 81),16	3013,(51, 81),16	3029,(66, 81),16	3109,(69, 81),16	3125,(75, 81),16	3141,(15, 81),16	3157,(48, 81),16	
97,(2, 9),24	121,(2, 16),4	125,(2, 28),4	129,(2, 45),72	201,(2, 49),36	237,(2, 61),16	253,(2, 54),64	317,(2, 57),12	329,(2, 76),36	365,(53, 81),16	381,(56, 81),16	397,(77, 81),16	413,(5, 13),4	417,(5, 12),4	421,(5, 19),24	445,(5, 49),4	449,(5, 24),4	453,(5, 58),28	481,(5, 67),216	697,(5, 69),548	1245,(5, 75),4	1249,(5, 76),8	1257,(8, 15),4	1261,(8, 48),16	1933,(8, 16),52	1985,(8, 19),524	2509,(8, 25),20	2529,(8, 52),48	2577,(8, 55),4	2581,(8, 61),32	2613,(59, 81),16	2629,(71, 81),16	2645,(35, 81),16	2661,(41, 81),16	2677,(20, 81),16	2693,(23, 81),16	2709,(62, 81),16	2725,(44, 81),16	2757,(47, 81),16	2789,(50, 81),16	2821,(68, 81),16	2853,(74, 81),16	2869,(11, 81),16	2901,(14, 81),16	2917,(26, 81),16	2933,(32, 81),16	2997,(38, 81),16	3045,(80, 81),16	3061,(65, 81),16	3077,(17, 81),16	3093,(29, 81),16	
1,(0, 2),12	13,(0, 3),12	25,(0, 5),12	37,(0, 6),12	49,(0, 8),12	61,(4, 15),28	89,(4, 18),4	93,(4, 21),4	97,(4, 41),8	105,(4, 71),100	205,(4, 72),20	225,(1, 20),4	229,(1, 23),4	233,(1, 39),16	249,(1, 42),4	253,(1, 47),8	261,(1, 50),56	317,(1, 65),4	321,(1, 68),8	329,(1, 72),4	333,(1, 74),36	369,(7, 11),16	385,(7, 12),32	417,(7, 14),4	421,(7, 26),4	425,(7, 32),16	441,(7, 33),4	445,(7, 36),4	449,(7, 38),44	493,(7, 51),12	505,(7, 66),4	509,(7, 80),4	
