240
# CPU
0,0,1	1,6,5	6,52,5	11,23,5	16,60,5	21,1,5	26,67,5	31,40,5	36,44,5	41,59,5	46,5,5	51,63,5	56,20,5	61,33,5	66,51,5	71,37,5	76,72,5	81,62,5	86,4,5	91,55,5	96,78,5	101,9,5	106,18,5	111,19,5	116,13,5	121,12,5	126,57,5	131,41,5	136,15,5	141,21,5	146,79,5	151,42,5	156,58,5	161,46,5	166,34,5	173,75,5	239,81,1	
29,7,5	34,26,5	39,39,5	44,32,5	49,10,5	54,25,5	63,48,5	73,16,5	85,54,5	92,11,5	97,65,5	107,14,5	121,61,5	153,56,5	
36,38,5	50,3,5	55,77,5	60,66,5	65,28,5	70,64,5	75,49,5	80,36,5	85,8,5	90,71,5	95,43,5	100,74,5	105,45,5	110,29,5	115,30,5	120,47,5	127,35,5	139,22,5	155,80,5	171,69,5	
15,2,5	20,31,5	33,17,5	38,24,5	44,27,5	50,53,5	55,73,5	65,70,5	93,76,5	101,50,5	199,68,5	
# Incoming
85,(3, 21),2	87,(2, 79),2	89,(7, 34),6	95,(26, 81),2	97,(39, 81),2	99,(2, 75),10	109,(31, 81),2	111,(17, 81),2	113,(24, 81),2	115,(32, 81),2	117,(27, 81),2	119,(10, 81),2	121,(3, 42),6	127,(3, 58),10	137,(8, 46),12	149,(3, 34),6	155,(3, 75),18	173,(53, 81),2	175,(25, 81),2	177,(73, 81),2	179,(38, 81),2	181,(77, 81),2	183,(66, 81),2	185,(48, 81),2	187,(28, 81),2	189,(70, 81),2	191,(64, 81),2	193,(16, 81),2	195,(49, 81),2	197,(36, 81),2	199,(54, 81),2	201,(71, 81),2	203,(11, 81),2	205,(76, 81),2	207,(43, 81),2	209,(65, 81),2	211,(74, 81),2	213,(50, 81),2	215,(45, 81),2	217,(14, 81),2	219,(29, 81),2	221,(30, 81),2	223,(47, 81),2	225,(61, 81),2	227,(35, 81),2	229,(22, 81),2	231,(56, 81),2	233,(80, 81),2	235,(69, 81),2	237,(68, 81),2	
15,(0, 7),14	29,(2, 10),4	33,(6, 16),2	35,(2, 14),10	51,(5, 25),2	55,(3, 48),8	65,(3, 16),8	73,(3, 54),12	85,(6, 11),2	87,(3, 65),2	90,(8, 11),2	93,(4, 65),2	95,(8, 14),12	107,(8, 61),14	139,(1, 56),14	
34,(7, 38),2	36,(0, 3),14	50,(7, 36),10	60,(7, 22),2	63,(5, 49),8	71,(0, 8),14	87,(5, 43),2	89,(5, 74),2	91,(2, 30),8	101,(5, 45),2	103,(1, 29),4	107,(4, 47),10	117,(5, 35),10	127,(6, 22),12	139,(7, 80),14	153,(4, 80),2	155,(6, 69),14	169,(1, 69),2	
1,(0, 2),14	29,(1, 17),4	36,(7, 24),2	38,(7, 27),6	44,(7, 53),6	53,(5, 73),2	55,(1, 70),8	63,(3, 70),2	91,(4, 76),2	93,(8, 50),2	95,(5, 50),6	173,(8, 68),6	179,(4, 68),20	
# Outgoing
1,(0, 2),14	15,(0, 7),14	29,(1, 17),4	33,(6, 16),2	36,(0, 3),14	51,(5, 25),2	53,(5, 73),2	55,(1, 70),8	63,(5, 49),8	71,(0, 8),14	85,(6, 11),2	87,(5, 43),2	89,(5, 74),2	91,(4, 76),2	93,(4, 65),2	95,(5, 50),6	101,(5, 45),2	103,(1, 29),4	107,(4, 47),10	117,(5, 35),10	127,(6, 22),12	139,(1, 56),14	153,(4, 80),2	155,(6, 69),14	169,(1, 69),2	179,(4, 68),20	
34,(7, 38),2	36,(7, 24),2	38,(7, 27),6	44,(7, 53),6	50,(7, 36),10	60,(7, 22),2	89,(7, 34),6	95,(26, 81),2	97,(39, 81),2	115,(32, 81),2	119,(10, 81),2	139,(7, 80),14	175,(25, 81),2	185,(48, 81),2	193,(16, 81),2	199,(54, 81),2	203,(11, 81),2	209,(65, 81),2	217,(14, 81),2	225,(61, 81),2	231,(56, 81),2	
55,(3, 48),8	63,(3, 70),2	65,(3, 16),8	73,(3, 54),12	85,(3, 21),2	87,(3, 65),2	90,(8, 11),2	93,(8, 50),2	95,(8, 14),12	107,(8, 61),14	121,(3, 42),6	127,(3, 58),10	137,(8, 46),12	149,(3, 34),6	155,(3, 75),18	173,(8, 68),6	179,(38, 81),2	181,(77, 81),2	183,(66, 81),2	187,(28, 81),2	191,(64, 81),2	195,(49, 81),2	197,(36, 81),2	201,(71, 81),2	207,(43, 81),2	211,(74, 81),2	215,(45, 81),2	219,(29, 81),2	221,(30, 81),2	223,(47, 81),2	227,(35, 81),2	229,(22, 81),2	233,(80, 81),2	235,(69, 81),2	
29,(2, 10),4	35,(2, 14),10	87,(2, 79),2	91,(2, 30),8	99,(2, 75),10	109,(31, 81),2	111,(17, 81),2	113,(24, 81),2	117,(27, 81),2	173,(53, 81),2	177,(73, 81),2	189,(70, 81),2	205,(76, 81),2	213,(50, 81),2	237,(68, 81),2	
