796
# CPU
29,2,7	36,10,7	43,16,7	50,19,7	57,20,7	64,12,7	71,15,7	78,4,7	85,5,7	92,8,7	99,9,7	106,11,7	113,13,7	133,14,7	140,17,7	169,18,7	795,21,1	
0,0,1	1,1,7	64,3,7	76,6,7	784,7,7	
# Incoming
1,(0, 2),28	29,(1, 4),24	53,(1, 5),8	61,(1, 8),16	77,(1, 9),4	81,(1, 11),12	93,(1, 13),12	105,(1, 14),28	133,(1, 17),4	137,(1, 18),32	169,(3, 21),4	173,(6, 21),4	791,(7, 21),4	
36,(2, 3),28	64,(2, 6),12	76,(2, 7),708	
# Outgoing
36,(2, 3),28	64,(2, 6),12	76,(2, 7),708	
1,(0, 2),28	29,(1, 4),24	53,(1, 5),8	61,(1, 8),16	77,(1, 9),4	81,(1, 11),12	93,(1, 13),12	105,(1, 14),28	133,(1, 17),4	137,(1, 18),32	169,(3, 21),4	173,(6, 21),4	791,(7, 21),4	
