338
# CPU
0,0,1	1,4,14	15,80,14	29,66,14	43,26,14	57,8,14	71,40,14	85,77,14	99,15,14	113,20,14	127,64,14	141,7,14	155,52,14	169,33,14	183,57,14	197,61,14	211,1,14	225,28,14	239,13,14	253,74,14	267,73,14	281,14,14	295,48,14	309,43,14	323,51,14	337,81,1	
17,71,14	39,39,14	73,45,14	105,32,14	153,63,14	167,12,14	181,67,14	209,62,14	231,27,14	245,68,14	
19,65,14	81,79,14	111,5,14	125,17,14	139,23,14	153,36,14	167,60,14	221,54,14	235,10,14	249,22,14	
23,49,14	123,56,14	137,42,14	161,30,14	175,9,14	239,46,14	
29,76,14	157,47,14	
77,75,14	163,38,14	177,58,14	191,50,14	
127,34,14	159,31,14	

141,3,14	155,21,14	169,37,14	183,41,14	197,53,14	211,59,14	225,72,14	
69,6,14	83,16,14	97,35,14	111,44,14	125,69,14	139,18,14	153,19,14	205,2,14	219,24,14	233,11,14	247,29,14	261,55,14	275,70,14	289,25,14	303,78,14	
# Incoming
31,(71, 81),2	33,(65, 81),2	37,(49, 81),2	43,(76, 81),2	53,(39, 81),2	87,(45, 81),2	91,(75, 81),2	95,(79, 81),2	97,(16, 81),2	111,(35, 81),2	119,(32, 81),2	125,(44, 81),2	137,(56, 81),2	139,(17, 81),2	141,(69, 81),2	143,(34, 81),2	151,(42, 81),2	153,(23, 81),2	155,(18, 81),2	167,(36, 81),2	169,(19, 81),2	171,(63, 81),2	173,(21, 81),2	175,(47, 81),2	177,(31, 81),2	179,(30, 81),2	181,(38, 81),2	183,(60, 81),2	185,(12, 81),2	187,(37, 81),2	189,(9, 81),2	191,(58, 81),2	195,(67, 81),2	197,(41, 81),2	205,(50, 81),2	211,(53, 81),2	223,(62, 81),2	225,(59, 81),2	233,(24, 81),2	235,(54, 81),2	239,(72, 81),2	245,(27, 81),2	247,(11, 81),2	249,(10, 81),2	253,(46, 81),2	259,(68, 81),2	261,(29, 81),2	263,(22, 81),2	275,(55, 81),2	289,(70, 81),2	303,(25, 81),2	317,(78, 81),2	
15,(4, 71),2	29,(4, 39),10	71,(8, 45),2	99,(6, 32),6	141,(5, 63),12	163,(7, 12),4	177,(3, 67),2	199,(3, 62),10	225,(1, 27),6	235,(2, 68),10	
17,(4, 65),2	77,(8, 79),4	81,(0, 5),30	219,(2, 54),2	221,(2, 10),8	239,(1, 22),10	
19,(4, 49),4	113,(6, 56),10	127,(5, 42),2	159,(7, 30),2	167,(7, 9),8	231,(1, 46),8	
23,(4, 76),6	155,(7, 47),2	
73,(8, 75),4	161,(7, 38),2	175,(3, 58),2	179,(3, 50),6	
125,(5, 34),2	157,(7, 31),2	

111,(0, 3),30	
39,(0, 6),30	175,(0, 2),30	
# Outgoing
15,(4, 71),2	17,(4, 65),2	19,(4, 49),4	23,(4, 76),6	29,(4, 39),10	39,(0, 6),30	71,(8, 45),2	73,(8, 75),4	77,(8, 79),4	81,(0, 5),30	111,(0, 3),30	155,(7, 47),2	157,(7, 31),2	159,(7, 30),2	161,(7, 38),2	163,(7, 12),4	167,(7, 9),8	175,(0, 2),30	225,(1, 27),6	231,(1, 46),8	239,(1, 22),10	
31,(71, 81),2	53,(39, 81),2	87,(45, 81),2	119,(32, 81),2	171,(63, 81),2	185,(12, 81),2	195,(67, 81),2	223,(62, 81),2	245,(27, 81),2	259,(68, 81),2	
33,(65, 81),2	95,(79, 81),2	125,(5, 34),2	127,(5, 42),2	139,(17, 81),2	141,(5, 63),12	153,(23, 81),2	167,(36, 81),2	183,(60, 81),2	235,(54, 81),2	249,(10, 81),2	263,(22, 81),2	
37,(49, 81),2	137,(56, 81),2	151,(42, 81),2	179,(30, 81),2	189,(9, 81),2	253,(46, 81),2	
43,(76, 81),2	175,(47, 81),2	
91,(75, 81),2	181,(38, 81),2	191,(58, 81),2	205,(50, 81),2	
143,(34, 81),2	177,(31, 81),2	

173,(21, 81),2	175,(3, 58),2	177,(3, 67),2	179,(3, 50),6	187,(37, 81),2	197,(41, 81),2	199,(3, 62),10	211,(53, 81),2	225,(59, 81),2	239,(72, 81),2	
97,(16, 81),2	99,(6, 32),6	111,(35, 81),2	113,(6, 56),10	125,(44, 81),2	141,(69, 81),2	155,(18, 81),2	169,(19, 81),2	219,(2, 54),2	221,(2, 10),8	233,(24, 81),2	235,(2, 68),10	247,(11, 81),2	261,(29, 81),2	275,(55, 81),2	289,(70, 81),2	303,(25, 81),2	317,(78, 81),2	
