30260
# CPU
21,2,2	41,4,2	61,6,2	81,8,2	101,10,2	121,12,2	141,14,2	161,16,2	181,18,2	201,20,2	203,50,2	10681,108,2	10833,166,2	12697,70,2	13833,192,2	15285,66,2	15457,146,2	15553,42,2	16537,78,2	16565,90,2	16625,112,2	17989,46,2	19269,116,2	19297,120,2	19309,130,2	19329,142,2	19669,164,2	19673,178,2	19689,188,2	20777,80,2	20793,96,2	20797,100,2	20801,102,2	20917,138,2	20993,154,2	21005,158,2	21613,28,2	21633,34,2	21733,36,2	21777,38,2	22181,48,2	22205,64,2	22277,110,2	22557,114,2	22593,126,2	22665,160,2	22689,162,2	22721,184,2	23341,194,2	23457,200,2	23589,24,2	23661,40,2	23993,44,2	24121,54,2	24129,56,2	24169,58,2	24205,62,2	24457,68,2	24489,72,2	24497,76,2	24501,84,2	24505,86,2	24509,88,2	24517,118,2	24605,132,2	24677,134,2	24681,140,2	24797,196,2	24833,198,2	24865,22,2	24869,26,2	24957,30,2	24961,32,2	24993,52,2	25005,60,2	25041,74,2	25057,82,2	25145,92,2	25181,94,2	25185,98,2	25189,104,2	25397,106,2	25697,122,2	25729,124,2	25737,128,2	25741,136,2	25749,144,2	25753,148,2	25845,150,2	25849,152,2	25857,156,2	25961,168,2	25989,170,2	26021,172,2	26153,174,2	26185,176,2	26197,180,2	26213,182,2	26229,186,2	26233,190,2	
0,0,1	1,9,2	3,3,2	5,13,2	7,1,2	9,15,2	11,17,2	13,7,2	15,19,2	17,5,2	19,11,2	21,55,2	23,57,2	5251,131,2	7047,197,2	8547,45,2	10503,123,2	10519,133,2	10627,153,2	10639,155,2	10879,185,2	11131,25,2	11139,27,2	11959,37,2	12239,135,2	12491,167,2	12999,31,2	13003,33,2	13091,49,2	13155,53,2	13203,69,2	13287,73,2	13987,103,2	13991,107,2	14015,129,2	14215,163,2	14547,39,2	14559,47,2	14763,95,2	14771,109,2	15259,161,2	15279,175,2	15295,177,2	15555,195,2	15563,199,2	15927,29,2	16003,51,2	16011,59,2	16327,81,2	16355,83,2	16379,89,2	16451,119,2	19891,125,2	19895,127,2	19987,137,2	19995,141,2	20179,171,2	20447,181,2	20451,183,2	20675,35,2	20783,71,2	20839,91,2	21019,93,2	21043,97,2	21807,117,2	21975,139,2	22011,143,2	22167,147,2	22171,149,2	22867,165,2	22923,191,2	23047,193,2	23067,21,2	23071,23,2	23251,41,2	23255,43,2	23259,61,2	28555,63,2	28659,65,2	28723,67,2	28739,75,2	28747,77,2	28847,79,2	28855,85,2	28883,87,2	28887,99,2	29027,101,2	29031,105,2	29187,111,2	29219,113,2	29287,115,2	29315,121,2	29319,145,2	29323,151,2	29719,157,2	29739,159,2	29743,169,2	29747,173,2	29751,179,2	29791,187,2	29899,189,2	30259,201,1	
# Incoming
1,(0, 2),20	21,(0, 4),20	41,(0, 6),20	61,(0, 8),20	81,(0, 10),20	101,(0, 12),20	121,(0, 14),20	141,(0, 16),20	161,(0, 18),20	181,(0, 20),20	201,(9, 22),8	209,(9, 30),4	213,(9, 32),268	481,(9, 34),276	757,(9, 44),4	761,(9, 52),364	1125,(9, 54),4	1129,(9, 56),164	1293,(9, 62),6556	7849,(9, 68),4	7853,(9, 74),4	7857,(9, 80),72	7929,(9, 84),4	7933,(9, 94),44	7977,(9, 98),20	7997,(9, 102),60	8057,(9, 104),52	8109,(9, 106),4	8113,(9, 158),12	8125,(9, 160),256	8381,(9, 186),16	8397,(3, 34),4	8401,(3, 38),4	8405,(3, 48),4	8409,(3, 68),236	8645,(3, 72),4	8649,(3, 94),36	8685,(3, 98),8	8693,(3, 100),20	8713,(3, 102),1956	10669,(3, 108),12	10681,(3, 112),12	10693,(3, 140),56	10749,(3, 144),16	10765,(3, 154),64	10829,(3, 166),4	10833,(3, 168),4	10837,(3, 174),20	10857,(3, 176),4	10861,(3, 178),4	10865,(3, 182),4	10869,(3, 188),4	10873,(3, 192),8	10881,(13, 26),4	10885,(13, 30),12	10897,(13, 34),28	10925,(13, 38),32	10957,(13, 42),4	10961,(13, 60),12	10973,(13, 70),1724	12697,(13, 78),4	12701,(13, 80),12	12713,(13, 82),4	12717,(13, 96),4	12721,(13, 112),72	12793,(13, 114),56	12849,(13, 126),32	12881,(13, 130),112	12993,(13, 132),240	13233,(13, 140),4	13237,(13, 142),308	13545,(13, 146),108	13653,(13, 152),24	13677,(13, 164),4	13681,(13, 170),20	13701,(13, 182),4	13705,(13, 184),124	13829,(13, 192),4	13833,(1, 22),8	13841,(1, 26),4	13845,(1, 28),36	13881,(1, 30),32	13913,(1, 32),4	13917,(1, 46),4	13921,(1, 58),8	13929,(1, 66),1356	15285,(1, 74),4	15289,(1, 76),32	15321,(1, 94),32	15353,(1, 122),32	15385,(1, 124),68	15453,(1, 146),4	15457,(1, 152),4	15461,(1, 164),16	15477,(1, 186),8	15485,(1, 188),12	15497,(15, 36),16	15513,(15, 42),40	15553,(15, 44),904	16457,(15, 56),24	16481,(15, 58),36	16517,(15, 72),4	16521,(15, 76),8	16529,(15, 78),8	16537,(15, 86),8	16545,(15, 88),12	16557,(15, 90),8	16565,(15, 96),12	16577,(15, 112),48	16625,(15, 114),4	16629,(15, 124),28	16657,(15, 126),8	16665,(15, 136),16	16681,(15, 156),28	16709,(15, 176),340	17049,(15, 182),144	17193,(15, 188),8	17201,(15, 194),16	17217,(15, 198),4	17221,(15, 200),100	17321,(17, 22),4	17325,(17, 24),560	17885,(17, 26),4	17889,(17, 36),96	17985,(17, 46),4	17989,(17, 48),28	18017,(17, 54),792	18809,(17, 58),28	18837,(17, 64),16	18853,(17, 88),156	19009,(17, 102),196	19205,(17, 110),20	19225,(17, 114),28	19253,(17, 116),16	19269,(17, 120),28	19297,(17, 130),12	19309,(17, 142),20	19329,(17, 150),112	19441,(17, 152),12	19453,(17, 154),72	19525,(17, 158),4	19529,(17, 164),140	19669,(17, 178),4	19673,(17, 180),4	19677,(17, 184),8	19685,(17, 188),4	19689,(17, 196),4	19693,(7, 26),300	19993,(7, 28),24	20017,(7, 30),320	20337,(7, 34),140	20477,(7, 40),28	20505,(7, 48),24	20529,(7, 58),44	20573,(7, 68),16	20589,(7, 74),184	20773,(7, 80),4	20777,(7, 94),12	20789,(7, 96),4	20793,(7, 100),4	20797,(7, 102),4	20801,(7, 104),32	20833,(7, 106),20	20853,(7, 136),12	20865,(7, 138),52	20917,(7, 152),56	20973,(7, 154),20	20993,(7, 158),12	21005,(7, 168),12	21017,(7, 180),484	21501,(7, 186),92	21593,(7, 196),8	21601,(7, 200),8	21609,(19, 28),4	21613,(19, 34),20	21633,(19, 36),100	21733,(19, 38),44	21777,(19, 40),376	22153,(19, 44),24	22177,(19, 48),4	22181,(19, 56),4	22185,(19, 62),16	22201,(19, 64),4	22205,(19, 72),56	22261,(19, 110),16	22277,(19, 114),280	22557,(19, 122),4	22561,(19, 126),32	22593,(19, 128),40	22633,(19, 132),12	22645,(19, 144),12	22657,(19, 160),8	22665,(19, 162),24	22689,(19, 168),16	22705,(19, 180),8	22713,(19, 182),4	22717,(19, 184),4	22721,(19, 190),336	23057,(19, 194),284	23341,(19, 200),116	23457,(5, 22),20	23477,(5, 24),112	23589,(5, 26),16	23605,(5, 40),56	23661,(5, 44),332	23993,(5, 54),128	24121,(5, 56),8	24129,(5, 58),40	24169,(5, 62),36	24205,(5, 68),252	24457,(5, 72),32	24489,(5, 76),8	24497,(5, 84),4	24501,(5, 86),4	24505,(5, 88),4	24509,(5, 94),4	24513,(5, 118),4	24517,(5, 128),84	24601,(5, 132),4	24605,(5, 134),72	24677,(5, 140),4	24681,(5, 150),16	24697,(5, 180),36	24733,(5, 196),64	24797,(5, 198),36	24833,(11, 22),32	24865,(11, 26),4	24869,(11, 30),88	24957,(11, 32),4	24961,(11, 52),32	24993,(11, 60),12	25005,(11, 74),36	25041,(11, 82),16	25057,(11, 92),88	25145,(11, 94),36	25181,(11, 98),4	25185,(11, 104),4	25189,(11, 106),208	25397,(11, 122),300	25697,(11, 124),32	25729,(11, 128),8	25737,(11, 136),4	25741,(11, 144),8	25749,(11, 148),4	25753,(11, 150),92	25845,(11, 152),4	25849,(11, 156),8	25857,(11, 168),104	25961,(11, 170),28	25989,(11, 172),32	26021,(11, 174),132	26153,(11, 176),32	26185,(11, 180),12	26197,(11, 182),16	26213,(11, 186),16	26229,(11, 190),4	
23,(2, 21),4	27,(2, 33),4	31,(2, 35),28	59,(2, 43),32	91,(2, 59),24	115,(2, 71),80	195,(2, 73),248	443,(2, 79),4	447,(2, 81),20	467,(2, 83),508	975,(2, 91),48	1023,(2, 99),8	1031,(2, 107),16	1047,(2, 115),8	1055,(2, 117),12	1067,(2, 129),252	1319,(2, 133),4	1323,(2, 135),60	1383,(2, 145),4	1387,(2, 153),168	1555,(2, 161),16	1571,(2, 169),12	1583,(2, 177),308	1891,(2, 179),48	1939,(2, 187),16	1955,(2, 199),116	2071,(4, 23),4	2075,(4, 25),20	2095,(4, 39),48	2143,(4, 43),4	2147,(4, 45),40	2187,(4, 53),256	2443,(4, 61),4	2447,(4, 73),4	2451,(4, 77),4	2455,(4, 81),40	2495,(4, 105),20	2515,(4, 115),72	2587,(4, 119),4	2591,(4, 123),2512	5103,(4, 131),148	5251,(4, 135),100	5351,(4, 139),168	5519,(4, 141),48	5567,(4, 149),1376	6943,(4, 155),16	6959,(4, 159),84	7043,(4, 197),4	7047,(6, 23),16	7063,(6, 35),4	7067,(6, 41),4	7071,(6, 45),100	7171,(6, 67),12	7183,(6, 75),24	7207,(6, 77),4	7211,(6, 79),40	7251,(6, 101),8	7259,(6, 105),476	7735,(6, 107),48	7783,(6, 117),68	7851,(6, 135),60	7911,(6, 137),40	7951,(6, 145),8	7959,(6, 151),8	7967,(6, 157),4	7971,(6, 161),12	7983,(6, 181),176	8159,(6, 187),16	8175,(6, 193),8	8183,(6, 195),4	8187,(8, 25),4	8191,(8, 31),4	8195,(8, 37),20	8215,(8, 39),4	8219,(8, 45),328	8547,(8, 49),8	8555,(8, 63),48	8603,(8, 65),4	8607,(8, 71),32	8639,(8, 79),1208	9847,(8, 81),68	9915,(8, 89),4	9919,(8, 91),4	9923,(8, 93),256	10179,(8, 103),4	10183,(8, 105),8	10191,(8, 109),96	10287,(8, 111),24	10311,(8, 119),188	10499,(8, 123),4	10503,(8, 129),12	10515,(8, 133),4	10519,(8, 147),32	10551,(8, 153),76	10627,(8, 155),12	10639,(8, 169),16	10655,(8, 183),20	10675,(8, 185),204	10879,(8, 189),28	10907,(10, 23),160	11067,(10, 25),64	11131,(10, 27),8	11139,(10, 35),668	11807,(10, 37),152	11959,(10, 41),112	12071,(10, 73),16	12087,(10, 79),32	12119,(10, 87),56	12175,(10, 89),16	12191,(10, 97),16	12207,(10, 103),28	12235,(10, 135),4	12239,(10, 147),24	12263,(10, 151),24	12287,(10, 157),40	12327,(10, 165),104	12431,(10, 167),60	12491,(10, 171),4	12495,(10, 179),12	12507,(10, 181),104	12611,(10, 191),44	12655,(10, 195),68	12723,(10, 199),196	12919,(12, 31),80	12999,(12, 33),4	13003,(12, 47),60	13063,(12, 49),28	13091,(12, 51),4	13095,(12, 53),60	13155,(12, 59),16	13171,(12, 61),28	13199,(12, 69),4	13203,(12, 71),28	13231,(12, 73),56	13287,(12, 75),188	13475,(12, 81),12	13487,(12, 83),48	13535,(12, 87),76	13611,(12, 93),44	13655,(12, 95),240	13895,(12, 99),64	13959,(12, 103),28	13987,(12, 107),4	13991,(12, 117),4	13995,(12, 129),20	14015,(12, 137),4	14019,(12, 143),116	14135,(12, 145),8	14143,(12, 163),72	14215,(12, 165),72	14287,(12, 171),4	14291,(12, 189),28	14319,(12, 191),96	14415,(12, 193),16	14431,(12, 195),48	14479,(12, 199),40	14519,(14, 39),28	14547,(14, 47),12	14559,(14, 51),24	14583,(14, 71),4	14587,(14, 77),172	14759,(14, 95),4	14763,(14, 109),8	14771,(14, 115),196	14967,(14, 125),4	14971,(14, 137),52	15023,(14, 139),28	15051,(14, 143),200	15251,(14, 157),4	15255,(14, 161),4	15259,(14, 169),12	15271,(14, 173),4	15275,(14, 175),4	15279,(14, 177),16	15295,(14, 181),4	15299,(14, 183),4	15303,(14, 189),28	15331,(14, 195),224	15555,(14, 199),8	15563,(16, 21),112	15675,(16, 29),252	15927,(16, 51),76	16003,(16, 59),8	16011,(16, 65),280	16291,(16, 67),28	16319,(16, 75),4	16323,(16, 81),4	16327,(16, 83),28	16355,(16, 85),4	16359,(16, 89),20	16379,(16, 117),12	16391,(16, 119),60	16451,(16, 125),3440	19891,(16, 127),4	19895,(16, 137),92	19987,(16, 141),8	19995,(16, 143),60	20055,(16, 145),4	20059,(16, 151),20	20079,(16, 159),48	20127,(16, 165),48	20175,(16, 171),4	20179,(16, 173),40	20219,(16, 181),228	20447,(16, 183),4	20451,(16, 187),152	20603,(18, 35),72	20675,(18, 63),80	20755,(18, 67),8	20763,(18, 71),20	20783,(18, 75),4	20787,(18, 85),12	20799,(18, 91),40	20839,(18, 93),180	21019,(18, 97),24	21043,(18, 105),748	21791,(18, 117),16	21807,(18, 121),24	21831,(18, 139),144	21975,(18, 143),36	22011,(18, 145),136	22147,(18, 147),20	22167,(18, 149),4	22171,(18, 159),12	22183,(18, 165),684	22867,(18, 187),16	22883,(18, 189),36	22919,(18, 191),4	22923,(18, 193),124	23047,(20, 21),20	23067,(20, 23),4	23071,(20, 41),180	23251,(20, 43),4	23255,(20, 61),4	23259,(20, 63),5296	28555,(20, 65),104	28659,(20, 67),64	28723,(20, 75),16	28739,(20, 77),8	28747,(20, 79),100	28847,(20, 85),8	28855,(20, 87),28	28883,(20, 99),4	28887,(20, 101),140	29027,(20, 105),4	29031,(20, 111),156	29187,(20, 113),32	29219,(20, 115),68	29287,(20, 121),28	29315,(20, 145),4	29319,(20, 151),4	29323,(20, 157),396	29719,(20, 159),20	29739,(20, 169),4	29743,(20, 173),4	29747,(20, 179),4	29751,(20, 187),40	29791,(20, 189),108	29899,(50, 201),4	29903,(108, 201),4	29907,(166, 201),4	29911,(70, 201),4	29915,(192, 201),4	29919,(66, 201),4	29923,(146, 201),4	29927,(42, 201),4	29931,(78, 201),4	29935,(90, 201),4	29939,(112, 201),4	29943,(46, 201),4	29947,(116, 201),4	29951,(120, 201),4	29955,(130, 201),4	29959,(142, 201),4	29963,(164, 201),4	29967,(178, 201),4	29971,(188, 201),4	29975,(80, 201),4	29979,(96, 201),4	29983,(100, 201),4	29987,(102, 201),4	29991,(138, 201),4	29995,(154, 201),4	29999,(158, 201),4	30003,(28, 201),4	30007,(34, 201),4	30011,(36, 201),4	30015,(38, 201),4	30019,(48, 201),4	30023,(64, 201),4	30027,(110, 201),4	30031,(114, 201),4	30035,(126, 201),4	30039,(160, 201),4	30043,(162, 201),4	30047,(184, 201),4	30051,(194, 201),4	30055,(200, 201),4	30059,(24, 201),4	30063,(40, 201),4	30067,(44, 201),4	30071,(54, 201),4	30075,(56, 201),4	30079,(58, 201),4	30083,(62, 201),4	30087,(68, 201),4	30091,(72, 201),4	30095,(76, 201),4	30099,(84, 201),4	30103,(86, 201),4	30107,(88, 201),4	30111,(118, 201),4	30115,(132, 201),4	30119,(134, 201),4	30123,(140, 201),4	30127,(196, 201),4	30131,(198, 201),4	30135,(22, 201),4	30139,(26, 201),4	30143,(30, 201),4	30147,(32, 201),4	30151,(52, 201),4	30155,(60, 201),4	30159,(74, 201),4	30163,(82, 201),4	30167,(92, 201),4	30171,(94, 201),4	30175,(98, 201),4	30179,(104, 201),4	30183,(106, 201),4	30187,(122, 201),4	30191,(124, 201),4	30195,(128, 201),4	30199,(136, 201),4	30203,(144, 201),4	30207,(148, 201),4	30211,(150, 201),4	30215,(152, 201),4	30219,(156, 201),4	30223,(168, 201),4	30227,(170, 201),4	30231,(172, 201),4	30235,(174, 201),4	30239,(176, 201),4	30243,(180, 201),4	30247,(182, 201),4	30251,(186, 201),4	30255,(190, 201),4	
# Outgoing
23,(2, 21),4	27,(2, 33),4	31,(2, 35),28	59,(2, 43),32	91,(2, 59),24	115,(2, 71),80	195,(2, 73),248	443,(2, 79),4	447,(2, 81),20	467,(2, 83),508	975,(2, 91),48	1023,(2, 99),8	1031,(2, 107),16	1047,(2, 115),8	1055,(2, 117),12	1067,(2, 129),252	1319,(2, 133),4	1323,(2, 135),60	1383,(2, 145),4	1387,(2, 153),168	1555,(2, 161),16	1571,(2, 169),12	1583,(2, 177),308	1891,(2, 179),48	1939,(2, 187),16	1955,(2, 199),116	2071,(4, 23),4	2075,(4, 25),20	2095,(4, 39),48	2143,(4, 43),4	2147,(4, 45),40	2187,(4, 53),256	2443,(4, 61),4	2447,(4, 73),4	2451,(4, 77),4	2455,(4, 81),40	2495,(4, 105),20	2515,(4, 115),72	2587,(4, 119),4	2591,(4, 123),2512	5103,(4, 131),148	5251,(4, 135),100	5351,(4, 139),168	5519,(4, 141),48	5567,(4, 149),1376	6943,(4, 155),16	6959,(4, 159),84	7043,(4, 197),4	7047,(6, 23),16	7063,(6, 35),4	7067,(6, 41),4	7071,(6, 45),100	7171,(6, 67),12	7183,(6, 75),24	7207,(6, 77),4	7211,(6, 79),40	7251,(6, 101),8	7259,(6, 105),476	7735,(6, 107),48	7783,(6, 117),68	7851,(6, 135),60	7911,(6, 137),40	7951,(6, 145),8	7959,(6, 151),8	7967,(6, 157),4	7971,(6, 161),12	7983,(6, 181),176	8159,(6, 187),16	8175,(6, 193),8	8183,(6, 195),4	8187,(8, 25),4	8191,(8, 31),4	8195,(8, 37),20	8215,(8, 39),4	8219,(8, 45),328	8547,(8, 49),8	8555,(8, 63),48	8603,(8, 65),4	8607,(8, 71),32	8639,(8, 79),1208	9847,(8, 81),68	9915,(8, 89),4	9919,(8, 91),4	9923,(8, 93),256	10179,(8, 103),4	10183,(8, 105),8	10191,(8, 109),96	10287,(8, 111),24	10311,(8, 119),188	10499,(8, 123),4	10503,(8, 129),12	10515,(8, 133),4	10519,(8, 147),32	10551,(8, 153),76	10627,(8, 155),12	10639,(8, 169),16	10655,(8, 183),20	10675,(8, 185),204	10879,(8, 189),28	10907,(10, 23),160	11067,(10, 25),64	11131,(10, 27),8	11139,(10, 35),668	11807,(10, 37),152	11959,(10, 41),112	12071,(10, 73),16	12087,(10, 79),32	12119,(10, 87),56	12175,(10, 89),16	12191,(10, 97),16	12207,(10, 103),28	12235,(10, 135),4	12239,(10, 147),24	12263,(10, 151),24	12287,(10, 157),40	12327,(10, 165),104	12431,(10, 167),60	12491,(10, 171),4	12495,(10, 179),12	12507,(10, 181),104	12611,(10, 191),44	12655,(10, 195),68	12723,(10, 199),196	12919,(12, 31),80	12999,(12, 33),4	13003,(12, 47),60	13063,(12, 49),28	13091,(12, 51),4	13095,(12, 53),60	13155,(12, 59),16	13171,(12, 61),28	13199,(12, 69),4	13203,(12, 71),28	13231,(12, 73),56	13287,(12, 75),188	13475,(12, 81),12	13487,(12, 83),48	13535,(12, 87),76	13611,(12, 93),44	13655,(12, 95),240	13895,(12, 99),64	13959,(12, 103),28	13987,(12, 107),4	13991,(12, 117),4	13995,(12, 129),20	14015,(12, 137),4	14019,(12, 143),116	14135,(12, 145),8	14143,(12, 163),72	14215,(12, 165),72	14287,(12, 171),4	14291,(12, 189),28	14319,(12, 191),96	14415,(12, 193),16	14431,(12, 195),48	14479,(12, 199),40	14519,(14, 39),28	14547,(14, 47),12	14559,(14, 51),24	14583,(14, 71),4	14587,(14, 77),172	14759,(14, 95),4	14763,(14, 109),8	14771,(14, 115),196	14967,(14, 125),4	14971,(14, 137),52	15023,(14, 139),28	15051,(14, 143),200	15251,(14, 157),4	15255,(14, 161),4	15259,(14, 169),12	15271,(14, 173),4	15275,(14, 175),4	15279,(14, 177),16	15295,(14, 181),4	15299,(14, 183),4	15303,(14, 189),28	15331,(14, 195),224	15555,(14, 199),8	15563,(16, 21),112	15675,(16, 29),252	15927,(16, 51),76	16003,(16, 59),8	16011,(16, 65),280	16291,(16, 67),28	16319,(16, 75),4	16323,(16, 81),4	16327,(16, 83),28	16355,(16, 85),4	16359,(16, 89),20	16379,(16, 117),12	16391,(16, 119),60	16451,(16, 125),3440	19891,(16, 127),4	19895,(16, 137),92	19987,(16, 141),8	19995,(16, 143),60	20055,(16, 145),4	20059,(16, 151),20	20079,(16, 159),48	20127,(16, 165),48	20175,(16, 171),4	20179,(16, 173),40	20219,(16, 181),228	20447,(16, 183),4	20451,(16, 187),152	20603,(18, 35),72	20675,(18, 63),80	20755,(18, 67),8	20763,(18, 71),20	20783,(18, 75),4	20787,(18, 85),12	20799,(18, 91),40	20839,(18, 93),180	21019,(18, 97),24	21043,(18, 105),748	21791,(18, 117),16	21807,(18, 121),24	21831,(18, 139),144	21975,(18, 143),36	22011,(18, 145),136	22147,(18, 147),20	22167,(18, 149),4	22171,(18, 159),12	22183,(18, 165),684	22867,(18, 187),16	22883,(18, 189),36	22919,(18, 191),4	22923,(18, 193),124	23047,(20, 21),20	23067,(20, 23),4	23071,(20, 41),180	23251,(20, 43),4	23255,(20, 61),4	23259,(20, 63),5296	28555,(20, 65),104	28659,(20, 67),64	28723,(20, 75),16	28739,(20, 77),8	28747,(20, 79),100	28847,(20, 85),8	28855,(20, 87),28	28883,(20, 99),4	28887,(20, 101),140	29027,(20, 105),4	29031,(20, 111),156	29187,(20, 113),32	29219,(20, 115),68	29287,(20, 121),28	29315,(20, 145),4	29319,(20, 151),4	29323,(20, 157),396	29719,(20, 159),20	29739,(20, 169),4	29743,(20, 173),4	29747,(20, 179),4	29751,(20, 187),40	29791,(20, 189),108	29899,(50, 201),4	29903,(108, 201),4	29907,(166, 201),4	29911,(70, 201),4	29915,(192, 201),4	29919,(66, 201),4	29923,(146, 201),4	29927,(42, 201),4	29931,(78, 201),4	29935,(90, 201),4	29939,(112, 201),4	29943,(46, 201),4	29947,(116, 201),4	29951,(120, 201),4	29955,(130, 201),4	29959,(142, 201),4	29963,(164, 201),4	29967,(178, 201),4	29971,(188, 201),4	29975,(80, 201),4	29979,(96, 201),4	29983,(100, 201),4	29987,(102, 201),4	29991,(138, 201),4	29995,(154, 201),4	29999,(158, 201),4	30003,(28, 201),4	30007,(34, 201),4	30011,(36, 201),4	30015,(38, 201),4	30019,(48, 201),4	30023,(64, 201),4	30027,(110, 201),4	30031,(114, 201),4	30035,(126, 201),4	30039,(160, 201),4	30043,(162, 201),4	30047,(184, 201),4	30051,(194, 201),4	30055,(200, 201),4	30059,(24, 201),4	30063,(40, 201),4	30067,(44, 201),4	30071,(54, 201),4	30075,(56, 201),4	30079,(58, 201),4	30083,(62, 201),4	30087,(68, 201),4	30091,(72, 201),4	30095,(76, 201),4	30099,(84, 201),4	30103,(86, 201),4	30107,(88, 201),4	30111,(118, 201),4	30115,(132, 201),4	30119,(134, 201),4	30123,(140, 201),4	30127,(196, 201),4	30131,(198, 201),4	30135,(22, 201),4	30139,(26, 201),4	30143,(30, 201),4	30147,(32, 201),4	30151,(52, 201),4	30155,(60, 201),4	30159,(74, 201),4	30163,(82, 201),4	30167,(92, 201),4	30171,(94, 201),4	30175,(98, 201),4	30179,(104, 201),4	30183,(106, 201),4	30187,(122, 201),4	30191,(124, 201),4	30195,(128, 201),4	30199,(136, 201),4	30203,(144, 201),4	30207,(148, 201),4	30211,(150, 201),4	30215,(152, 201),4	30219,(156, 201),4	30223,(168, 201),4	30227,(170, 201),4	30231,(172, 201),4	30235,(174, 201),4	30239,(176, 201),4	30243,(180, 201),4	30247,(182, 201),4	30251,(186, 201),4	30255,(190, 201),4	
1,(0, 2),20	21,(0, 4),20	41,(0, 6),20	61,(0, 8),20	81,(0, 10),20	101,(0, 12),20	121,(0, 14),20	141,(0, 16),20	161,(0, 18),20	181,(0, 20),20	201,(9, 22),8	209,(9, 30),4	213,(9, 32),268	481,(9, 34),276	757,(9, 44),4	761,(9, 52),364	1125,(9, 54),4	1129,(9, 56),164	1293,(9, 62),6556	7849,(9, 68),4	7853,(9, 74),4	7857,(9, 80),72	7929,(9, 84),4	7933,(9, 94),44	7977,(9, 98),20	7997,(9, 102),60	8057,(9, 104),52	8109,(9, 106),4	8113,(9, 158),12	8125,(9, 160),256	8381,(9, 186),16	8397,(3, 34),4	8401,(3, 38),4	8405,(3, 48),4	8409,(3, 68),236	8645,(3, 72),4	8649,(3, 94),36	8685,(3, 98),8	8693,(3, 100),20	8713,(3, 102),1956	10669,(3, 108),12	10681,(3, 112),12	10693,(3, 140),56	10749,(3, 144),16	10765,(3, 154),64	10829,(3, 166),4	10833,(3, 168),4	10837,(3, 174),20	10857,(3, 176),4	10861,(3, 178),4	10865,(3, 182),4	10869,(3, 188),4	10873,(3, 192),8	10881,(13, 26),4	10885,(13, 30),12	10897,(13, 34),28	10925,(13, 38),32	10957,(13, 42),4	10961,(13, 60),12	10973,(13, 70),1724	12697,(13, 78),4	12701,(13, 80),12	12713,(13, 82),4	12717,(13, 96),4	12721,(13, 112),72	12793,(13, 114),56	12849,(13, 126),32	12881,(13, 130),112	12993,(13, 132),240	13233,(13, 140),4	13237,(13, 142),308	13545,(13, 146),108	13653,(13, 152),24	13677,(13, 164),4	13681,(13, 170),20	13701,(13, 182),4	13705,(13, 184),124	13829,(13, 192),4	13833,(1, 22),8	13841,(1, 26),4	13845,(1, 28),36	13881,(1, 30),32	13913,(1, 32),4	13917,(1, 46),4	13921,(1, 58),8	13929,(1, 66),1356	15285,(1, 74),4	15289,(1, 76),32	15321,(1, 94),32	15353,(1, 122),32	15385,(1, 124),68	15453,(1, 146),4	15457,(1, 152),4	15461,(1, 164),16	15477,(1, 186),8	15485,(1, 188),12	15497,(15, 36),16	15513,(15, 42),40	15553,(15, 44),904	16457,(15, 56),24	16481,(15, 58),36	16517,(15, 72),4	16521,(15, 76),8	16529,(15, 78),8	16537,(15, 86),8	16545,(15, 88),12	16557,(15, 90),8	16565,(15, 96),12	16577,(15, 112),48	16625,(15, 114),4	16629,(15, 124),28	16657,(15, 126),8	16665,(15, 136),16	16681,(15, 156),28	16709,(15, 176),340	17049,(15, 182),144	17193,(15, 188),8	17201,(15, 194),16	17217,(15, 198),4	17221,(15, 200),100	17321,(17, 22),4	17325,(17, 24),560	17885,(17, 26),4	17889,(17, 36),96	17985,(17, 46),4	17989,(17, 48),28	18017,(17, 54),792	18809,(17, 58),28	18837,(17, 64),16	18853,(17, 88),156	19009,(17, 102),196	19205,(17, 110),20	19225,(17, 114),28	19253,(17, 116),16	19269,(17, 120),28	19297,(17, 130),12	19309,(17, 142),20	19329,(17, 150),112	19441,(17, 152),12	19453,(17, 154),72	19525,(17, 158),4	19529,(17, 164),140	19669,(17, 178),4	19673,(17, 180),4	19677,(17, 184),8	19685,(17, 188),4	19689,(17, 196),4	19693,(7, 26),300	19993,(7, 28),24	20017,(7, 30),320	20337,(7, 34),140	20477,(7, 40),28	20505,(7, 48),24	20529,(7, 58),44	20573,(7, 68),16	20589,(7, 74),184	20773,(7, 80),4	20777,(7, 94),12	20789,(7, 96),4	20793,(7, 100),4	20797,(7, 102),4	20801,(7, 104),32	20833,(7, 106),20	20853,(7, 136),12	20865,(7, 138),52	20917,(7, 152),56	20973,(7, 154),20	20993,(7, 158),12	21005,(7, 168),12	21017,(7, 180),484	21501,(7, 186),92	21593,(7, 196),8	21601,(7, 200),8	21609,(19, 28),4	21613,(19, 34),20	21633,(19, 36),100	21733,(19, 38),44	21777,(19, 40),376	22153,(19, 44),24	22177,(19, 48),4	22181,(19, 56),4	22185,(19, 62),16	22201,(19, 64),4	22205,(19, 72),56	22261,(19, 110),16	22277,(19, 114),280	22557,(19, 122),4	22561,(19, 126),32	22593,(19, 128),40	22633,(19, 132),12	22645,(19, 144),12	22657,(19, 160),8	22665,(19, 162),24	22689,(19, 168),16	22705,(19, 180),8	22713,(19, 182),4	22717,(19, 184),4	22721,(19, 190),336	23057,(19, 194),284	23341,(19, 200),116	23457,(5, 22),20	23477,(5, 24),112	23589,(5, 26),16	23605,(5, 40),56	23661,(5, 44),332	23993,(5, 54),128	24121,(5, 56),8	24129,(5, 58),40	24169,(5, 62),36	24205,(5, 68),252	24457,(5, 72),32	24489,(5, 76),8	24497,(5, 84),4	24501,(5, 86),4	24505,(5, 88),4	24509,(5, 94),4	24513,(5, 118),4	24517,(5, 128),84	24601,(5, 132),4	24605,(5, 134),72	24677,(5, 140),4	24681,(5, 150),16	24697,(5, 180),36	24733,(5, 196),64	24797,(5, 198),36	24833,(11, 22),32	24865,(11, 26),4	24869,(11, 30),88	24957,(11, 32),4	24961,(11, 52),32	24993,(11, 60),12	25005,(11, 74),36	25041,(11, 82),16	25057,(11, 92),88	25145,(11, 94),36	25181,(11, 98),4	25185,(11, 104),4	25189,(11, 106),208	25397,(11, 122),300	25697,(11, 124),32	25729,(11, 128),8	25737,(11, 136),4	25741,(11, 144),8	25749,(11, 148),4	25753,(11, 150),92	25845,(11, 152),4	25849,(11, 156),8	25857,(11, 168),104	25961,(11, 170),28	25989,(11, 172),32	26021,(11, 174),132	26153,(11, 176),32	26185,(11, 180),12	26197,(11, 182),16	26213,(11, 186),16	26229,(11, 190),4	
