3667
# CPU
143,3,9	152,62,9	161,68,9	170,78,9	179,14,9	188,60,9	197,64,9	285,6,9	360,11,9	369,56,9	392,21,9	450,44,9	459,50,9	468,54,9	493,27,9	523,66,9	541,13,9	551,74,9	573,18,9	584,33,9	639,42,9	658,46,9	707,52,9	727,58,9	867,16,9	882,24,9	891,30,9	900,36,9	909,40,9	983,70,9	1007,72,9	1016,76,9	1043,80,9	3596,48,9	
72,2,9	214,5,9	223,29,9	232,35,9	356,8,9	532,10,9	626,39,9	868,17,9	883,26,9	976,63,9	1010,73,9	1040,79,9	1928,41,9	1994,47,9	2038,49,9	2047,53,9	2121,65,9	2130,69,9	2167,71,9	2177,75,9	2198,77,9	2321,15,9	2330,20,9	2371,23,9	2383,32,9	2475,43,9	2484,45,9	2493,51,9	2502,55,9	2511,57,9	2520,59,9	2529,61,9	2538,67,9	3666,81,1	
0,0,1	1,1,9	10,4,9	19,7,9	28,19,9	1927,38,9	2011,31,9	2320,9,9	2370,22,9	2381,25,9	2469,34,9	2478,37,9	3617,12,9	3626,28,9	
# Incoming
72,(0, 3),71	143,(2, 14),10	153,(2, 21),17	178,(2, 33),1	179,(2, 50),4	183,(2, 52),4	187,(2, 60),1	188,(2, 64),6	194,(2, 66),8	214,(0, 6),71	285,(5, 18),19	304,(5, 21),4	308,(5, 33),1	309,(5, 40),1	310,(5, 46),1	311,(5, 66),11	322,(5, 80),5	358,(1, 11),2	360,(1, 16),3	365,(8, 18),2	367,(8, 56),1	368,(8, 70),2	370,(8, 72),4	378,(1, 21),14	397,(1, 24),4	401,(1, 33),8	413,(1, 44),37	453,(1, 50),4	460,(1, 54),7	467,(8, 27),26	493,(8, 33),15	508,(8, 48),13	521,(1, 66),2	532,(4, 13),9	541,(8, 74),10	551,(4, 18),22	573,(4, 33),11	584,(4, 36),2	586,(8, 36),30	626,(4, 40),11	637,(4, 42),2	639,(8, 58),14	656,(4, 46),2	705,(4, 48),1	706,(4, 52),1	726,(4, 58),1	849,(4, 72),13	862,(7, 16),5	868,(7, 24),14	883,(7, 30),1	884,(7, 36),9	893,(7, 40),1	979,(7, 70),4	983,(7, 72),24	1010,(7, 76),3	1040,(7, 80),3	2013,(5, 48),1583	
1,(0, 2),71	143,(0, 5),71	214,(3, 10),2	216,(3, 29),2	218,(3, 35),4	285,(0, 8),71	356,(1, 10),2	363,(1, 20),15	392,(1, 23),5	409,(1, 41),4	450,(1, 47),3	457,(1, 51),3	467,(1, 55),47	514,(1, 59),7	523,(1, 71),1	524,(4, 10),8	541,(4, 15),10	586,(4, 39),40	639,(4, 43),14	653,(4, 45),3	658,(4, 47),47	707,(4, 53),19	727,(4, 59),35	762,(4, 63),17	779,(4, 65),51	830,(4, 67),8	838,(4, 71),11	867,(7, 17),1	882,(7, 26),1	894,(7, 41),9	903,(7, 45),10	913,(7, 47),13	926,(7, 49),5	931,(7, 53),44	975,(7, 63),1	976,(7, 67),3	1007,(7, 73),3	1013,(7, 79),27	1043,(19, 81),20	1927,(3, 41),1	1928,(3, 47),66	1994,(3, 49),44	2038,(3, 51),1	2039,(3, 53),2	2041,(3, 59),10	2051,(3, 65),70	2121,(3, 69),3	2124,(3, 71),43	2167,(3, 75),10	2177,(3, 77),21	2198,(62, 81),20	2218,(68, 81),20	2238,(78, 81),20	2258,(14, 81),20	2278,(60, 81),20	2298,(64, 81),20	2320,(6, 15),1	2321,(6, 20),5	2326,(38, 81),20	2346,(31, 81),20	2370,(6, 23),1	2381,(6, 32),2	2383,(9, 81),20	2403,(22, 81),20	2423,(25, 81),20	2473,(6, 43),2	2475,(6, 45),8	2483,(6, 51),1	2484,(6, 55),1	2485,(6, 57),15	2500,(6, 59),17	2517,(6, 61),7	2524,(6, 67),1	2525,(11, 81),20	2545,(56, 81),20	2565,(21, 81),20	2585,(44, 81),20	2605,(50, 81),20	2625,(54, 81),20	2645,(27, 81),20	2665,(66, 81),20	2685,(13, 81),20	2705,(74, 81),20	2725,(18, 81),20	2745,(33, 81),20	2765,(42, 81),20	2785,(46, 81),20	2805,(52, 81),20	2825,(58, 81),20	2845,(16, 81),20	2865,(24, 81),20	2885,(30, 81),20	2905,(36, 81),20	2925,(40, 81),20	2945,(70, 81),20	2965,(72, 81),20	2985,(76, 81),20	3005,(80, 81),20	3025,(34, 81),20	3045,(37, 81),20	3605,(48, 81),20	3626,(12, 81),20	3646,(28, 81),20	
170,(2, 28),6	176,(2, 31),2	178,(3, 9),1	179,(3, 34),1	222,(3, 38),1705	1927,(5, 9),9	1936,(5, 12),1	1937,(5, 22),72	2009,(5, 25),1	2010,(5, 31),1	2011,(5, 34),1	2012,(5, 37),1	2318,(6, 9),2	2326,(6, 22),44	2371,(6, 25),10	2383,(6, 34),86	2469,(6, 37),4	3596,(8, 12),21	3617,(8, 28),1	
# Outgoing
178,(3, 9),1	179,(3, 34),1	214,(3, 10),2	216,(3, 29),2	218,(3, 35),4	222,(3, 38),1705	1927,(3, 41),1	1928,(3, 47),66	1994,(3, 49),44	2038,(3, 51),1	2039,(3, 53),2	2041,(3, 59),10	2051,(3, 65),70	2121,(3, 69),3	2124,(3, 71),43	2167,(3, 75),10	2177,(3, 77),21	2198,(62, 81),20	2218,(68, 81),20	2238,(78, 81),20	2258,(14, 81),20	2278,(60, 81),20	2298,(64, 81),20	2318,(6, 9),2	2320,(6, 15),1	2321,(6, 20),5	2326,(6, 22),44	2370,(6, 23),1	2371,(6, 25),10	2381,(6, 32),2	2383,(6, 34),86	2469,(6, 37),4	2473,(6, 43),2	2475,(6, 45),8	2483,(6, 51),1	2484,(6, 55),1	2485,(6, 57),15	2500,(6, 59),17	2517,(6, 61),7	2524,(6, 67),1	2525,(11, 81),20	2545,(56, 81),20	2565,(21, 81),20	2585,(44, 81),20	2605,(50, 81),20	2625,(54, 81),20	2645,(27, 81),20	2665,(66, 81),20	2685,(13, 81),20	2705,(74, 81),20	2725,(18, 81),20	2745,(33, 81),20	2765,(42, 81),20	2785,(46, 81),20	2805,(52, 81),20	2825,(58, 81),20	2845,(16, 81),20	2865,(24, 81),20	2885,(30, 81),20	2905,(36, 81),20	2925,(40, 81),20	2945,(70, 81),20	2965,(72, 81),20	2985,(76, 81),20	3005,(80, 81),20	3605,(48, 81),20	
143,(2, 14),10	153,(2, 21),17	170,(2, 28),6	176,(2, 31),2	178,(2, 33),1	179,(2, 50),4	183,(2, 52),4	187,(2, 60),1	188,(2, 64),6	194,(2, 66),8	285,(5, 18),19	304,(5, 21),4	308,(5, 33),1	309,(5, 40),1	310,(5, 46),1	311,(5, 66),11	322,(5, 80),5	365,(8, 18),2	367,(8, 56),1	368,(8, 70),2	370,(8, 72),4	467,(8, 27),26	493,(8, 33),15	508,(8, 48),13	541,(8, 74),10	586,(8, 36),30	639,(8, 58),14	1927,(5, 9),9	1936,(5, 12),1	1937,(5, 22),72	2009,(5, 25),1	2010,(5, 31),1	2011,(5, 34),1	2012,(5, 37),1	2013,(5, 48),1583	3596,(8, 12),21	3617,(8, 28),1	
1,(0, 2),71	72,(0, 3),71	143,(0, 5),71	214,(0, 6),71	285,(0, 8),71	356,(1, 10),2	358,(1, 11),2	360,(1, 16),3	363,(1, 20),15	378,(1, 21),14	392,(1, 23),5	397,(1, 24),4	401,(1, 33),8	409,(1, 41),4	413,(1, 44),37	450,(1, 47),3	453,(1, 50),4	457,(1, 51),3	460,(1, 54),7	467,(1, 55),47	514,(1, 59),7	521,(1, 66),2	523,(1, 71),1	524,(4, 10),8	532,(4, 13),9	541,(4, 15),10	551,(4, 18),22	573,(4, 33),11	584,(4, 36),2	586,(4, 39),40	626,(4, 40),11	637,(4, 42),2	639,(4, 43),14	653,(4, 45),3	656,(4, 46),2	658,(4, 47),47	705,(4, 48),1	706,(4, 52),1	707,(4, 53),19	726,(4, 58),1	727,(4, 59),35	762,(4, 63),17	779,(4, 65),51	830,(4, 67),8	838,(4, 71),11	849,(4, 72),13	862,(7, 16),5	867,(7, 17),1	868,(7, 24),14	882,(7, 26),1	883,(7, 30),1	884,(7, 36),9	893,(7, 40),1	894,(7, 41),9	903,(7, 45),10	913,(7, 47),13	926,(7, 49),5	931,(7, 53),44	975,(7, 63),1	976,(7, 67),3	979,(7, 70),4	983,(7, 72),24	1007,(7, 73),3	1010,(7, 76),3	1013,(7, 79),27	1040,(7, 80),3	1043,(19, 81),20	2326,(38, 81),20	2346,(31, 81),20	2383,(9, 81),20	2403,(22, 81),20	2423,(25, 81),20	3025,(34, 81),20	3045,(37, 81),20	3626,(12, 81),20	3646,(28, 81),20	
