7808
# CPU
9,2,18	27,4,18	45,6,18	63,45,18	81,8,18	99,10,18	117,12,18	135,91,18	153,29,18	171,57,18	189,61,18	207,15,18	225,72,18	321,23,18	2261,95,18	2301,107,18	2319,109,18	2409,37,18	2485,51,18	2503,59,18	2593,68,18	2625,73,18	3745,27,18	3849,41,18	3941,70,18	4265,83,18	4283,85,18	4565,115,18	4809,14,18	4827,31,18	4845,35,18	4863,39,18	4881,47,18	5109,76,18	5129,78,18	5341,87,18	5365,89,18	5383,97,18	5401,101,18	5429,111,18	5447,113,18	5521,117,18	5557,21,18	5575,43,18	5593,53,18	5611,63,18	5637,65,18	5655,66,18	5693,67,18	5711,79,18	5729,80,18	5849,82,18	5933,93,18	5951,99,18	5989,103,18	6093,119,18	6113,17,18	6169,19,18	6187,25,18	6205,33,18	6223,49,18	6309,55,18	6327,64,18	6349,69,18	6377,71,18	6395,74,18	6413,75,18	6493,77,18	6529,81,18	6547,84,18	6565,105,18	
0,0,1	1,5,18	19,7,18	37,11,18	55,9,18	73,1,18	91,3,18	109,54,18	127,90,18	145,18,18	163,102,18	181,104,18	199,94,18	217,120,18	383,40,18	3271,34,18	4635,16,18	4699,48,18	5035,52,18	5171,88,18	5199,112,18	5239,24,18	5257,30,18	5279,36,18	5331,58,18	5471,86,18	5495,92,18	5787,116,18	5805,118,18	5835,20,18	5947,26,18	5965,32,18	5991,44,18	6019,56,18	6203,60,18	6221,100,18	6239,110,18	6257,13,18	6275,22,18	6319,28,18	6337,38,18	6355,42,18	6373,46,18	6495,50,18	7335,62,18	7353,96,18	7379,98,18	7397,106,18	7415,108,18	7551,114,18	7807,121,1	
# Incoming
1,(0, 2),8	9,(0, 4),8	17,(0, 6),8	25,(0, 8),8	33,(0, 10),8	41,(0, 12),8	49,(5, 14),48	97,(5, 21),32	129,(5, 23),192	321,(5, 33),12	333,(5, 35),156	489,(5, 41),756	1245,(5, 53),512	1757,(5, 59),20	1777,(5, 64),76	1853,(5, 66),60	1913,(5, 67),4	1917,(5, 77),8	1925,(5, 82),32	1957,(5, 83),292	2249,(5, 95),12	2261,(5, 97),12	2273,(5, 105),24	2297,(5, 107),4	2301,(5, 109),8	2309,(5, 111),4	2313,(5, 115),56	2369,(5, 119),8	2377,(7, 27),4	2381,(7, 31),4	2385,(7, 33),4	2389,(7, 37),20	2409,(7, 47),4	2413,(7, 51),72	2485,(7, 59),8	2493,(7, 63),8	2501,(7, 64),4	2505,(7, 66),80	2585,(7, 68),8	2593,(7, 69),8	2601,(7, 71),20	2621,(7, 73),4	2625,(7, 75),24	2649,(7, 76),20	2669,(7, 79),108	2777,(7, 80),136	2913,(7, 84),8	2921,(7, 85),748	3669,(7, 93),4	3673,(7, 99),8	3681,(7, 115),32	3713,(11, 19),12	3725,(11, 27),20	3745,(11, 35),100	3845,(11, 41),4	3849,(11, 47),8	3857,(11, 65),60	3917,(11, 67),4	3921,(11, 70),20	3941,(11, 74),4	3945,(11, 75),96	4041,(11, 77),68	4109,(11, 82),24	4133,(11, 83),132	4265,(11, 85),4	4269,(11, 99),4	4273,(11, 103),192	4465,(11, 105),36	4501,(11, 111),24	4525,(11, 115),40	4565,(11, 119),208	4773,(9, 14),36	4809,(9, 31),4	4813,(9, 35),20	4833,(9, 39),4	4837,(9, 43),4	4841,(9, 47),32	4873,(9, 53),60	4933,(9, 66),4	4937,(9, 67),16	4953,(9, 75),16	4969,(9, 76),140	5109,(9, 77),4	5113,(9, 78),16	5129,(9, 79),64	5193,(9, 84),132	5325,(9, 87),16	5341,(9, 89),24	5365,(9, 97),4	5369,(9, 101),8	5377,(9, 103),16	5393,(9, 111),36	5429,(9, 113),4	5433,(9, 117),88	5521,(1, 21),36	5557,(1, 25),4	5561,(1, 43),4	5565,(1, 53),4	5569,(1, 63),40	5609,(1, 65),28	5637,(1, 66),16	5653,(1, 67),40	5693,(1, 79),4	5697,(1, 80),16	5713,(1, 82),136	5849,(1, 93),84	5933,(1, 99),12	5945,(1, 103),44	5989,(1, 119),104	6093,(3, 17),20	6113,(3, 19),56	6169,(3, 25),4	6173,(3, 33),20	6193,(3, 49),4	6197,(3, 55),112	6309,(3, 64),4	6313,(3, 69),36	6349,(3, 71),28	6377,(3, 74),4	6381,(3, 75),32	6413,(3, 77),80	6493,(3, 81),36	6529,(3, 84),4	6533,(3, 105),4	
27,(2, 13),8	35,(2, 22),44	79,(2, 28),20	99,(2, 32),28	127,(2, 36),12	139,(2, 38),96	235,(2, 40),148	383,(2, 42),144	527,(2, 92),4	531,(2, 96),4	535,(2, 114),8	543,(2, 116),2628	3171,(4, 16),24	3195,(4, 24),4	3199,(4, 26),44	3243,(4, 28),20	3263,(4, 34),8	3271,(4, 42),8	3279,(4, 46),4	3283,(4, 56),8	3291,(4, 62),4	3295,(4, 86),1260	4555,(4, 96),4	4559,(4, 118),8	4567,(6, 13),16	4583,(6, 16),52	4635,(6, 20),8	4643,(6, 24),4	4647,(6, 30),4	4651,(6, 42),24	4675,(6, 44),12	4687,(6, 48),12	4699,(6, 52),336	5035,(6, 60),108	5143,(6, 86),24	5167,(6, 88),4	5171,(6, 92),4	5175,(6, 108),20	5195,(6, 112),4	5199,(6, 116),32	5231,(45, 121),4	5235,(8, 24),4	5239,(8, 30),8	5247,(8, 36),32	5279,(8, 44),4	5283,(8, 50),24	5307,(8, 56),20	5327,(8, 58),4	5331,(8, 86),140	5471,(8, 92),24	5495,(8, 106),16	5511,(8, 110),12	5523,(8, 116),264	5787,(8, 118),16	5803,(10, 20),32	5835,(10, 22),4	5839,(10, 26),108	5947,(10, 32),4	5951,(10, 42),36	5987,(10, 44),4	5991,(10, 56),28	6019,(10, 60),184	6203,(10, 100),12	6215,(10, 106),12	6227,(10, 110),4	6231,(12, 13),12	6243,(12, 22),12	6255,(12, 28),64	6319,(12, 38),4	6323,(12, 42),12	6335,(12, 46),12	6347,(12, 50),148	6495,(12, 62),840	7335,(12, 96),8	7343,(12, 98),36	7379,(12, 106),4	7383,(12, 108),24	7407,(12, 114),144	7551,(91, 121),4	7555,(29, 121),4	7559,(57, 121),4	7563,(61, 121),4	7567,(15, 121),4	7571,(72, 121),4	7575,(23, 121),4	7579,(95, 121),4	7583,(107, 121),4	7587,(109, 121),4	7591,(37, 121),4	7595,(51, 121),4	7599,(59, 121),4	7603,(68, 121),4	7607,(73, 121),4	7611,(27, 121),4	7615,(41, 121),4	7619,(70, 121),4	7623,(83, 121),4	7627,(85, 121),4	7631,(115, 121),4	7635,(14, 121),4	7639,(31, 121),4	7643,(35, 121),4	7647,(39, 121),4	7651,(47, 121),4	7655,(76, 121),4	7659,(78, 121),4	7663,(87, 121),4	7667,(89, 121),4	7671,(97, 121),4	7675,(101, 121),4	7679,(111, 121),4	7683,(113, 121),4	7687,(117, 121),4	7691,(21, 121),4	7695,(43, 121),4	7699,(53, 121),4	7703,(63, 121),4	7707,(65, 121),4	7711,(66, 121),4	7715,(67, 121),4	7719,(79, 121),4	7723,(80, 121),4	7727,(82, 121),4	7731,(93, 121),4	7735,(99, 121),4	7739,(103, 121),4	7743,(119, 121),4	7747,(17, 121),4	7751,(19, 121),4	7755,(25, 121),4	7759,(33, 121),4	7763,(49, 121),4	7767,(55, 121),4	7771,(64, 121),4	7775,(69, 121),4	7779,(71, 121),4	7783,(74, 121),4	7787,(75, 121),4	7791,(77, 121),4	7795,(81, 121),4	7799,(84, 121),4	7803,(105, 121),4	
# Outgoing
27,(2, 13),8	35,(2, 22),44	79,(2, 28),20	99,(2, 32),28	127,(2, 36),12	139,(2, 38),96	235,(2, 40),148	383,(2, 42),144	527,(2, 92),4	531,(2, 96),4	535,(2, 114),8	543,(2, 116),2628	3171,(4, 16),24	3195,(4, 24),4	3199,(4, 26),44	3243,(4, 28),20	3263,(4, 34),8	3271,(4, 42),8	3279,(4, 46),4	3283,(4, 56),8	3291,(4, 62),4	3295,(4, 86),1260	4555,(4, 96),4	4559,(4, 118),8	4567,(6, 13),16	4583,(6, 16),52	4635,(6, 20),8	4643,(6, 24),4	4647,(6, 30),4	4651,(6, 42),24	4675,(6, 44),12	4687,(6, 48),12	4699,(6, 52),336	5035,(6, 60),108	5143,(6, 86),24	5167,(6, 88),4	5171,(6, 92),4	5175,(6, 108),20	5195,(6, 112),4	5199,(6, 116),32	5231,(45, 121),4	5235,(8, 24),4	5239,(8, 30),8	5247,(8, 36),32	5279,(8, 44),4	5283,(8, 50),24	5307,(8, 56),20	5327,(8, 58),4	5331,(8, 86),140	5471,(8, 92),24	5495,(8, 106),16	5511,(8, 110),12	5523,(8, 116),264	5787,(8, 118),16	5803,(10, 20),32	5835,(10, 22),4	5839,(10, 26),108	5947,(10, 32),4	5951,(10, 42),36	5987,(10, 44),4	5991,(10, 56),28	6019,(10, 60),184	6203,(10, 100),12	6215,(10, 106),12	6227,(10, 110),4	6231,(12, 13),12	6243,(12, 22),12	6255,(12, 28),64	6319,(12, 38),4	6323,(12, 42),12	6335,(12, 46),12	6347,(12, 50),148	6495,(12, 62),840	7335,(12, 96),8	7343,(12, 98),36	7379,(12, 106),4	7383,(12, 108),24	7407,(12, 114),144	7551,(91, 121),4	7555,(29, 121),4	7559,(57, 121),4	7563,(61, 121),4	7567,(15, 121),4	7571,(72, 121),4	7575,(23, 121),4	7579,(95, 121),4	7583,(107, 121),4	7587,(109, 121),4	7591,(37, 121),4	7595,(51, 121),4	7599,(59, 121),4	7603,(68, 121),4	7607,(73, 121),4	7611,(27, 121),4	7615,(41, 121),4	7619,(70, 121),4	7623,(83, 121),4	7627,(85, 121),4	7631,(115, 121),4	7635,(14, 121),4	7639,(31, 121),4	7643,(35, 121),4	7647,(39, 121),4	7651,(47, 121),4	7655,(76, 121),4	7659,(78, 121),4	7663,(87, 121),4	7667,(89, 121),4	7671,(97, 121),4	7675,(101, 121),4	7679,(111, 121),4	7683,(113, 121),4	7687,(117, 121),4	7691,(21, 121),4	7695,(43, 121),4	7699,(53, 121),4	7703,(63, 121),4	7707,(65, 121),4	7711,(66, 121),4	7715,(67, 121),4	7719,(79, 121),4	7723,(80, 121),4	7727,(82, 121),4	7731,(93, 121),4	7735,(99, 121),4	7739,(103, 121),4	7743,(119, 121),4	7747,(17, 121),4	7751,(19, 121),4	7755,(25, 121),4	7759,(33, 121),4	7763,(49, 121),4	7767,(55, 121),4	7771,(64, 121),4	7775,(69, 121),4	7779,(71, 121),4	7783,(74, 121),4	7787,(75, 121),4	7791,(77, 121),4	7795,(81, 121),4	7799,(84, 121),4	7803,(105, 121),4	
1,(0, 2),8	9,(0, 4),8	17,(0, 6),8	25,(0, 8),8	33,(0, 10),8	41,(0, 12),8	49,(5, 14),48	97,(5, 21),32	129,(5, 23),192	321,(5, 33),12	333,(5, 35),156	489,(5, 41),756	1245,(5, 53),512	1757,(5, 59),20	1777,(5, 64),76	1853,(5, 66),60	1913,(5, 67),4	1917,(5, 77),8	1925,(5, 82),32	1957,(5, 83),292	2249,(5, 95),12	2261,(5, 97),12	2273,(5, 105),24	2297,(5, 107),4	2301,(5, 109),8	2309,(5, 111),4	2313,(5, 115),56	2369,(5, 119),8	2377,(7, 27),4	2381,(7, 31),4	2385,(7, 33),4	2389,(7, 37),20	2409,(7, 47),4	2413,(7, 51),72	2485,(7, 59),8	2493,(7, 63),8	2501,(7, 64),4	2505,(7, 66),80	2585,(7, 68),8	2593,(7, 69),8	2601,(7, 71),20	2621,(7, 73),4	2625,(7, 75),24	2649,(7, 76),20	2669,(7, 79),108	2777,(7, 80),136	2913,(7, 84),8	2921,(7, 85),748	3669,(7, 93),4	3673,(7, 99),8	3681,(7, 115),32	3713,(11, 19),12	3725,(11, 27),20	3745,(11, 35),100	3845,(11, 41),4	3849,(11, 47),8	3857,(11, 65),60	3917,(11, 67),4	3921,(11, 70),20	3941,(11, 74),4	3945,(11, 75),96	4041,(11, 77),68	4109,(11, 82),24	4133,(11, 83),132	4265,(11, 85),4	4269,(11, 99),4	4273,(11, 103),192	4465,(11, 105),36	4501,(11, 111),24	4525,(11, 115),40	4565,(11, 119),208	4773,(9, 14),36	4809,(9, 31),4	4813,(9, 35),20	4833,(9, 39),4	4837,(9, 43),4	4841,(9, 47),32	4873,(9, 53),60	4933,(9, 66),4	4937,(9, 67),16	4953,(9, 75),16	4969,(9, 76),140	5109,(9, 77),4	5113,(9, 78),16	5129,(9, 79),64	5193,(9, 84),132	5325,(9, 87),16	5341,(9, 89),24	5365,(9, 97),4	5369,(9, 101),8	5377,(9, 103),16	5393,(9, 111),36	5429,(9, 113),4	5433,(9, 117),88	5521,(1, 21),36	5557,(1, 25),4	5561,(1, 43),4	5565,(1, 53),4	5569,(1, 63),40	5609,(1, 65),28	5637,(1, 66),16	5653,(1, 67),40	5693,(1, 79),4	5697,(1, 80),16	5713,(1, 82),136	5849,(1, 93),84	5933,(1, 99),12	5945,(1, 103),44	5989,(1, 119),104	6093,(3, 17),20	6113,(3, 19),56	6169,(3, 25),4	6173,(3, 33),20	6193,(3, 49),4	6197,(3, 55),112	6309,(3, 64),4	6313,(3, 69),36	6349,(3, 71),28	6377,(3, 74),4	6381,(3, 75),32	6413,(3, 77),80	6493,(3, 81),36	6529,(3, 84),4	6533,(3, 105),4	
