12978
# CPU
89,5,1	90,47,1	91,108,1	92,193,1	177,10,1	178,161,1	179,172,1	207,53,1	213,84,1	229,190,1	239,164,1	265,15,1	279,133,1	319,185,1	325,101,1	353,20,1	354,142,1	355,91,1	581,49,1	583,57,1	741,106,1	765,123,1	907,196,1	991,52,1	1011,54,1	1285,109,1	1307,90,1	1379,42,1	1477,168,1	1689,141,1	1765,191,1	1773,200,1	1787,147,1	1789,50,1	1913,88,1	1923,94,1	1925,110,1	1929,120,1	1947,139,1	1955,186,1	1997,194,1	2011,174,1	2013,46,1	2043,181,1	2081,87,1	2099,92,1	2101,93,1	2121,107,1	2235,138,1	2313,151,1	2317,45,1	2319,166,1	2343,74,1	2397,99,1	2481,189,1	4885,182,1	4961,119,1	4977,145,1	5065,159,1	5083,51,1	5121,103,1	5141,188,1	5247,199,1	5253,41,1	5259,61,1	5279,97,1	5305,105,1	5307,111,1	5309,121,1	5323,149,1	5365,157,1	5389,170,1	5543,197,1	5611,59,1	5627,68,1	5629,78,1	5631,86,1	5679,95,1	5681,127,1	5689,143,1	5695,144,1	5705,155,1	5717,198,1	5719,35,1	5725,66,1	5743,89,1	5763,96,1	5795,116,1	5797,117,1	5821,118,1	5833,129,1	5841,131,1	5853,176,1	5875,179,1	5899,192,1	5921,195,1	5923,28,1	5935,40,1	5949,43,1	6009,83,1	6017,114,1	6019,135,1	6021,148,1	6023,153,1	6053,183,1	6055,37,1	6057,39,1	6069,55,1	6081,56,1	6089,64,1	6091,71,1	6099,98,1	6105,100,1	6107,102,1	6127,112,1	6133,113,1	6181,115,1	6223,125,1	6225,140,1	6231,184,1	6235,187,1	
67,4,1	155,9,1	156,177,1	165,27,1	180,150,1	243,14,1	244,44,1	331,19,1	332,175,1	339,128,1	359,36,1	579,169,1	583,76,1	695,171,1	837,134,1	871,154,1	995,48,1	1007,34,1	1033,70,1	1053,67,1	1085,73,1	1183,82,1	1273,58,1	1285,130,1	1291,173,1	1293,156,1	1307,132,1	1343,136,1	1373,152,1	1403,162,1	1519,137,1	1535,126,1	1691,180,1	1799,65,1	1911,81,1	1923,124,1	2021,60,1	2049,63,1	2173,165,1	2181,122,1	2343,167,1	2709,158,1	3399,160,1	
45,3,1	133,8,1	221,13,1	309,18,1	336,38,1	355,24,1	553,69,1	885,25,1	1055,72,1	1205,163,1	1383,29,1	1925,104,1	2011,32,1	2049,79,1	2057,75,1	2511,80,1	3567,178,1	12977,201,1	
23,2,1	111,7,1	199,12,1	200,77,1	287,17,1	288,23,1	451,26,1	767,33,1	1787,31,1	2667,85,1	3167,146,1	
0,0,1	1,6,1	2,11,1	3,1,1	4,16,1	523,21,1	643,22,1	1191,30,1	1829,62,1	
# Incoming
67,(0, 5),22	92,(2, 46),12	104,(3, 28),10	122,(3, 83),2	124,(2, 50),2	126,(2, 51),2	128,(2, 71),2	130,(2, 144),2	132,(3, 61),14	146,(3, 94),8	155,(0, 10),22	177,(3, 100),4	181,(3, 107),2	183,(3, 139),2	185,(3, 144),2	187,(2, 53),20	207,(2, 84),6	213,(2, 90),6	219,(2, 147),2	221,(3, 149),6	227,(3, 190),2	229,(3, 192),2	231,(8, 103),4	235,(8, 131),2	237,(8, 164),2	239,(7, 28),2	241,(7, 55),2	243,(0, 15),22	265,(2, 133),14	279,(2, 142),10	289,(2, 149),24	313,(2, 185),6	319,(7, 96),2	321,(7, 97),2	323,(7, 101),2	326,(4, 68),2	328,(7, 106),2	331,(0, 20),22	353,(7, 120),2	355,(6, 28),2	357,(7, 131),2	359,(6, 46),18	377,(6, 49),204	581,(6, 57),2	583,(2, 35),78	661,(2, 151),34	695,(4, 88),18	713,(4, 153),4	717,(6, 106),24	741,(6, 111),18	759,(6, 112),2	761,(6, 118),2	763,(6, 123),2	765,(2, 194),40	805,(4, 125),18	823,(4, 127),6	829,(7, 50),8	837,(6, 135),8	845,(2, 196),50	895,(4, 196),12	907,(7, 110),10	917,(6, 166),14	931,(6, 199),2	933,(11, 37),6	939,(11, 40),26	965,(7, 52),26	991,(7, 183),2	993,(7, 184),2	995,(11, 50),4	999,(11, 51),10	1009,(11, 54),2	1011,(7, 197),6	1017,(9, 43),2	1019,(9, 83),6	1025,(9, 96),4	1029,(11, 66),2	1031,(4, 192),40	1071,(8, 39),10	1081,(8, 168),2	1083,(8, 179),2	1085,(11, 86),178	1263,(11, 96),2	1265,(11, 109),4	1269,(11, 115),2	1271,(11, 116),2	1273,(8, 119),8	1281,(8, 199),2	1283,(9, 109),2	1285,(11, 131),16	1301,(9, 90),6	1307,(11, 135),10	1317,(11, 143),22	1339,(9, 168),2	1341,(11, 147),2	1343,(7, 114),22	1365,(8, 42),14	1379,(8, 92),14	1393,(9, 148),6	1399,(12, 96),4	1403,(11, 168),74	1477,(11, 174),64	1541,(4, 99),78	1619,(7, 119),58	1677,(8, 141),12	1689,(12, 97),2	1691,(11, 182),40	1731,(11, 188),30	1761,(11, 191),4	1765,(11, 200),8	1773,(8, 147),14	1787,(1, 50),2	1789,(1, 64),6	1795,(7, 179),50	1845,(8, 112),32	1877,(8, 114),20	1897,(8, 151),14	1911,(1, 88),2	1913,(1, 94),10	1923,(12, 110),2	1925,(1, 116),2	1927,(1, 120),2	1929,(1, 127),16	1945,(1, 139),2	1947,(1, 149),2	1949,(1, 151),2	1951,(1, 186),4	1955,(1, 194),42	1997,(1, 197),2	1999,(8, 174),12	2011,(16, 46),2	2013,(16, 55),4	2017,(8, 181),26	2043,(9, 35),14	2057,(9, 37),20	2077,(16, 86),2	2079,(16, 87),2	2081,(16, 92),18	2099,(16, 93),2	2101,(16, 96),2	2103,(16, 102),12	2115,(16, 107),6	2121,(16, 112),44	2165,(16, 117),8	2173,(9, 198),8	2181,(16, 131),2	2183,(16, 138),52	2235,(16, 140),2	2237,(16, 143),10	2247,(16, 144),10	2257,(16, 151),56	2313,(16, 155),2	2315,(13, 45),2	2317,(16, 166),2	2319,(9, 41),22	2341,(13, 74),2	2343,(16, 176),6	2349,(9, 97),22	2371,(9, 103),20	2391,(12, 99),6	2397,(16, 184),18	2415,(16, 189),66	2481,(16, 199),2	2483,(2, 182),628	3111,(7, 98),1722	4833,(8, 182),52	4885,(9, 119),76	4961,(9, 145),16	4977,(9, 159),88	5065,(12, 51),18	5083,(12, 89),8	5091,(12, 103),30	5121,(12, 117),12	5133,(12, 118),4	5137,(12, 188),4	5141,(12, 195),28	5169,(12, 199),78	5247,(13, 41),6	5253,(13, 61),6	5259,(13, 86),14	5273,(13, 97),6	5279,(13, 105),26	5305,(13, 111),2	5307,(13, 121),2	5309,(13, 125),12	5321,(13, 149),2	5323,(13, 153),36	5359,(13, 155),4	5363,(13, 157),2	5365,(13, 170),24	5389,(13, 195),128	5517,(13, 197),26	5543,(14, 43),4	5547,(14, 56),48	5595,(14, 59),16	5611,(14, 68),16	5627,(14, 78),2	5629,(14, 86),2	5631,(14, 95),48	5679,(14, 127),2	5681,(14, 143),8	5689,(14, 144),6	5695,(14, 155),10	5705,(14, 198),12	5717,(17, 35),2	5719,(17, 43),4	5723,(17, 66),2	5725,(17, 83),16	5741,(17, 89),2	5743,(17, 96),20	5763,(17, 98),18	5781,(17, 115),2	5783,(17, 116),12	5795,(17, 117),2	5797,(17, 118),24	5821,(17, 129),12	5833,(17, 131),8	5841,(17, 176),12	5853,(17, 179),22	5875,(17, 192),24	5899,(17, 195),22	5921,(18, 28),2	5923,(18, 39),8	5931,(18, 40),4	5935,(18, 43),14	5949,(18, 83),60	6009,(18, 114),8	6017,(18, 135),2	6019,(18, 148),2	6021,(18, 153),2	6023,(18, 183),30	6053,(19, 37),2	6055,(19, 39),2	6057,(19, 55),12	6069,(19, 56),12	6081,(19, 64),8	6089,(19, 71),2	6091,(19, 98),8	6099,(19, 100),6	6105,(19, 102),2	6107,(19, 112),20	6127,(19, 113),6	6133,(19, 115),48	6181,(19, 125),42	6223,(19, 140),2	6225,(19, 184),6	6231,(19, 187),4	
45,(0, 4),22	82,(2, 34),10	104,(2, 48),20	124,(3, 36),2	126,(3, 76),2	128,(3, 130),2	130,(5, 82),2	133,(0, 9),22	155,(5, 136),2	157,(5, 152),6	163,(8, 27),2	165,(8, 44),8	173,(8, 70),2	175,(8, 130),2	178,(10, 150),2	187,(3, 152),30	217,(8, 160),2	221,(0, 14),22	243,(7, 81),10	253,(7, 128),6	259,(8, 34),38	297,(10, 122),10	309,(0, 19),22	331,(12, 63),2	333,(12, 81),4	337,(12, 128),2	339,(12, 136),2	341,(12, 156),6	350,(15, 60),4	354,(20, 134),2	357,(6, 36),2	359,(2, 82),132	491,(5, 162),74	565,(8, 169),14	579,(13, 76),4	583,(6, 67),8	591,(3, 160),94	685,(15, 67),4	689,(15, 134),4	693,(20, 171),2	695,(7, 154),44	739,(17, 156),20	765,(6, 130),52	817,(6, 134),20	845,(6, 137),18	863,(6, 154),8	871,(6, 160),22	893,(10, 81),20	913,(20, 73),4	917,(12, 73),34	965,(11, 48),30	995,(15, 34),12	1007,(20, 158),4	1011,(11, 58),4	1015,(11, 60),6	1021,(11, 65),8	1031,(11, 70),2	1033,(15, 122),8	1045,(13, 152),4	1049,(13, 165),2	1051,(18, 67),2	1053,(18, 122),2	1055,(11, 73),30	1085,(8, 82),98	1183,(10, 58),62	1245,(13, 58),28	1273,(11, 124),4	1277,(11, 130),8	1285,(13, 173),6	1291,(18, 156),2	1301,(11, 132),6	1307,(13, 63),22	1329,(18, 136),14	1343,(11, 152),30	1373,(11, 162),30	1403,(8, 137),116	1519,(18, 126),16	1541,(11, 180),150	1691,(18, 158),14	1795,(1, 65),4	1801,(1, 81),110	1911,(20, 124),12	2017,(16, 60),4	2021,(16, 63),28	2049,(8, 165),124	2173,(16, 122),8	2315,(16, 158),2	2319,(16, 167),24	2343,(10, 158),366	3365,(20, 160),34	
23,(0, 3),22	111,(0, 8),22	133,(2, 29),54	187,(10, 25),2	189,(10, 29),4	199,(0, 13),22	221,(2, 79),18	239,(10, 69),44	287,(0, 18),22	309,(10, 75),14	328,(9, 38),8	336,(10, 79),14	353,(6, 24),2	355,(4, 75),90	445,(9, 80),30	475,(177, 201),66	541,(12, 69),12	553,(12, 80),16	569,(14, 29),22	591,(6, 104),126	717,(47, 201),66	783,(108, 201),66	849,(19, 25),32	881,(20, 25),4	893,(6, 163),24	917,(193, 201),66	983,(19, 32),22	1033,(11, 72),22	1055,(7, 163),150	1205,(27, 201),66	1271,(77, 201),66	1365,(17, 29),18	1399,(150, 201),66	1465,(14, 79),62	1527,(17, 75),36	1619,(44, 201),66	1691,(23, 201),66	1799,(1, 79),2	1829,(161, 201),66	1923,(1, 104),2	1925,(172, 201),66	1999,(16, 32),12	2011,(20, 79),38	2049,(16, 75),8	2057,(53, 201),66	2123,(84, 201),66	2189,(190, 201),66	2255,(164, 201),66	2349,(16, 178),48	2397,(19, 80),114	2511,(19, 178),72	2583,(175, 201),66	2649,(128, 201),66	2715,(36, 201),66	2781,(21, 201),66	2847,(169, 201),66	2913,(76, 201),66	2979,(22, 201),66	3045,(171, 201),66	3167,(133, 201),66	3233,(185, 201),66	3299,(101, 201),66	3399,(20, 178),168	3567,(142, 201),66	3633,(91, 201),66	3699,(49, 201),66	3765,(57, 201),66	3831,(106, 201),66	3897,(123, 201),66	3963,(134, 201),66	4029,(154, 201),66	4095,(196, 201),66	4161,(52, 201),66	4227,(48, 201),66	4293,(34, 201),66	4359,(54, 201),66	4425,(70, 201),66	4491,(67, 201),66	4557,(73, 201),66	4623,(82, 201),66	4689,(30, 201),66	4755,(58, 201),66	4833,(26, 201),66	4899,(33, 201),66	4965,(109, 201),66	5065,(130, 201),66	5131,(173, 201),66	5197,(156, 201),66	5263,(90, 201),66	5329,(132, 201),66	5395,(136, 201),66	5461,(152, 201),66	5527,(42, 201),66	5593,(168, 201),66	5717,(162, 201),66	5783,(137, 201),66	5849,(126, 201),66	5915,(141, 201),66	5981,(180, 201),66	6047,(191, 201),66	6113,(200, 201),66	6179,(31, 201),66	6245,(147, 201),66	6311,(50, 201),66	6377,(65, 201),66	6443,(62, 201),66	6509,(81, 201),66	6575,(88, 201),66	6641,(124, 201),66	6707,(94, 201),66	6773,(110, 201),66	6839,(120, 201),66	6905,(139, 201),66	6971,(186, 201),66	7037,(194, 201),66	7103,(174, 201),66	7169,(46, 201),66	7235,(60, 201),66	7301,(181, 201),66	7367,(63, 201),66	7433,(87, 201),66	7499,(92, 201),66	7565,(93, 201),66	7631,(107, 201),66	7697,(165, 201),66	7763,(122, 201),66	7829,(138, 201),66	7895,(151, 201),66	7961,(45, 201),66	8027,(166, 201),66	8093,(74, 201),66	8159,(167, 201),66	8225,(99, 201),66	8291,(189, 201),66	8357,(85, 201),66	8423,(158, 201),66	8489,(146, 201),66	8555,(160, 201),66	8621,(182, 201),66	8687,(119, 201),66	8753,(145, 201),66	8819,(159, 201),66	8885,(51, 201),66	8951,(103, 201),66	9017,(188, 201),66	9083,(199, 201),66	9149,(41, 201),66	9215,(61, 201),66	9281,(97, 201),66	9347,(105, 201),66	9413,(111, 201),66	9479,(121, 201),66	9545,(149, 201),66	9611,(157, 201),66	9677,(170, 201),66	9743,(197, 201),66	9809,(59, 201),66	9875,(68, 201),66	9941,(78, 201),66	10007,(86, 201),66	10073,(95, 201),66	10139,(127, 201),66	10205,(143, 201),66	10271,(144, 201),66	10337,(155, 201),66	10403,(198, 201),66	10469,(35, 201),66	10535,(66, 201),66	10601,(89, 201),66	10667,(96, 201),66	10733,(116, 201),66	10799,(117, 201),66	10865,(118, 201),66	10931,(129, 201),66	10997,(131, 201),66	11063,(176, 201),66	11129,(179, 201),66	11195,(192, 201),66	11261,(195, 201),66	11327,(28, 201),66	11393,(40, 201),66	11459,(43, 201),66	11525,(83, 201),66	11591,(114, 201),66	11657,(135, 201),66	11723,(148, 201),66	11789,(153, 201),66	11855,(183, 201),66	11921,(37, 201),66	11987,(39, 201),66	12053,(55, 201),66	12119,(56, 201),66	12185,(64, 201),66	12251,(71, 201),66	12317,(98, 201),66	12383,(100, 201),66	12449,(102, 201),66	12515,(112, 201),66	12581,(113, 201),66	12647,(115, 201),66	12713,(125, 201),66	12779,(140, 201),66	12845,(184, 201),66	12911,(187, 201),66	
1,(0, 2),22	89,(0, 7),22	111,(5, 26),2	114,(3, 77),8	122,(4, 33),34	156,(8, 146),2	177,(0, 12),22	199,(10, 23),2	201,(10, 33),14	239,(13, 23),8	265,(0, 17),22	287,(15, 33),2	297,(8, 85),56	359,(13, 31),48	407,(13, 85),22	429,(18, 26),22	565,(15, 85),86	717,(19, 33),50	1339,(11, 146),2	1773,(1, 31),14	2057,(16, 85),20	2343,(18, 85),324	2709,(15, 146),458	
24,(2, 21),46	70,(2, 30),12	113,(5, 62),2	156,(4, 62),170	326,(15, 30),2	336,(14, 30),6	353,(13, 22),6	451,(18, 30),2	491,(17, 21),32	591,(19, 22),52	685,(8, 30),360	1071,(19, 30),120	1245,(10, 62),584	
# Outgoing
111,(5, 26),2	113,(5, 62),2	130,(5, 82),2	155,(5, 136),2	157,(5, 152),6	178,(10, 150),2	187,(10, 25),2	189,(10, 29),4	199,(10, 23),2	201,(10, 33),14	239,(10, 69),44	287,(15, 33),2	297,(10, 122),10	309,(10, 75),14	326,(15, 30),2	336,(10, 79),14	350,(15, 60),4	354,(20, 134),2	491,(5, 162),74	565,(15, 85),86	685,(15, 67),4	689,(15, 134),4	693,(20, 171),2	717,(47, 201),66	783,(108, 201),66	881,(20, 25),4	893,(10, 81),20	913,(20, 73),4	917,(193, 201),66	995,(15, 34),12	1007,(20, 158),4	1033,(15, 122),8	1183,(10, 58),62	1245,(10, 62),584	1829,(161, 201),66	1911,(20, 124),12	1925,(172, 201),66	2011,(20, 79),38	2057,(53, 201),66	2123,(84, 201),66	2189,(190, 201),66	2255,(164, 201),66	2343,(10, 158),366	2709,(15, 146),458	3167,(133, 201),66	3233,(185, 201),66	3299,(101, 201),66	3365,(20, 160),34	3399,(20, 178),168	3567,(142, 201),66	3633,(91, 201),66	3699,(49, 201),66	3765,(57, 201),66	3831,(106, 201),66	3897,(123, 201),66	4095,(196, 201),66	4161,(52, 201),66	4359,(54, 201),66	4965,(109, 201),66	5263,(90, 201),66	5527,(42, 201),66	5593,(168, 201),66	5915,(141, 201),66	6047,(191, 201),66	6113,(200, 201),66	6245,(147, 201),66	6311,(50, 201),66	6575,(88, 201),66	6707,(94, 201),66	6773,(110, 201),66	6839,(120, 201),66	6905,(139, 201),66	6971,(186, 201),66	7037,(194, 201),66	7103,(174, 201),66	7169,(46, 201),66	7301,(181, 201),66	7433,(87, 201),66	7499,(92, 201),66	7565,(93, 201),66	7631,(107, 201),66	7829,(138, 201),66	7895,(151, 201),66	7961,(45, 201),66	8027,(166, 201),66	8093,(74, 201),66	8225,(99, 201),66	8291,(189, 201),66	8621,(182, 201),66	8687,(119, 201),66	8753,(145, 201),66	8819,(159, 201),66	8885,(51, 201),66	8951,(103, 201),66	9017,(188, 201),66	9083,(199, 201),66	9149,(41, 201),66	9215,(61, 201),66	9281,(97, 201),66	9347,(105, 201),66	9413,(111, 201),66	9479,(121, 201),66	9545,(149, 201),66	9611,(157, 201),66	9677,(170, 201),66	9743,(197, 201),66	9809,(59, 201),66	9875,(68, 201),66	9941,(78, 201),66	10007,(86, 201),66	10073,(95, 201),66	10139,(127, 201),66	10205,(143, 201),66	10271,(144, 201),66	10337,(155, 201),66	10403,(198, 201),66	10469,(35, 201),66	10535,(66, 201),66	10601,(89, 201),66	10667,(96, 201),66	10733,(116, 201),66	10799,(117, 201),66	10865,(118, 201),66	10931,(129, 201),66	10997,(131, 201),66	11063,(176, 201),66	11129,(179, 201),66	11195,(192, 201),66	11261,(195, 201),66	11327,(28, 201),66	11393,(40, 201),66	11459,(43, 201),66	11525,(83, 201),66	11591,(114, 201),66	11657,(135, 201),66	11723,(148, 201),66	11789,(153, 201),66	11855,(183, 201),66	11921,(37, 201),66	11987,(39, 201),66	12053,(55, 201),66	12119,(56, 201),66	12185,(64, 201),66	12251,(71, 201),66	12317,(98, 201),66	12383,(100, 201),66	12449,(102, 201),66	12515,(112, 201),66	12581,(113, 201),66	12647,(115, 201),66	12713,(125, 201),66	12779,(140, 201),66	12845,(184, 201),66	12911,(187, 201),66	
122,(4, 33),34	156,(4, 62),170	326,(4, 68),2	328,(9, 38),8	336,(14, 30),6	355,(4, 75),90	445,(9, 80),30	475,(177, 201),66	569,(14, 29),22	591,(19, 22),52	695,(4, 88),18	713,(4, 153),4	717,(19, 33),50	805,(4, 125),18	823,(4, 127),6	849,(19, 25),32	895,(4, 196),12	983,(19, 32),22	1017,(9, 43),2	1019,(9, 83),6	1025,(9, 96),4	1031,(4, 192),40	1071,(19, 30),120	1205,(27, 201),66	1283,(9, 109),2	1301,(9, 90),6	1339,(9, 168),2	1393,(9, 148),6	1399,(150, 201),66	1465,(14, 79),62	1541,(4, 99),78	1619,(44, 201),66	2043,(9, 35),14	2057,(9, 37),20	2173,(9, 198),8	2319,(9, 41),22	2349,(9, 97),22	2371,(9, 103),20	2397,(19, 80),114	2511,(19, 178),72	2583,(175, 201),66	2649,(128, 201),66	2715,(36, 201),66	2847,(169, 201),66	2913,(76, 201),66	3045,(171, 201),66	3963,(134, 201),66	4029,(154, 201),66	4227,(48, 201),66	4293,(34, 201),66	4425,(70, 201),66	4491,(67, 201),66	4557,(73, 201),66	4623,(82, 201),66	4755,(58, 201),66	4885,(9, 119),76	4961,(9, 145),16	4977,(9, 159),88	5065,(130, 201),66	5131,(173, 201),66	5197,(156, 201),66	5329,(132, 201),66	5395,(136, 201),66	5461,(152, 201),66	5543,(14, 43),4	5547,(14, 56),48	5595,(14, 59),16	5611,(14, 68),16	5627,(14, 78),2	5629,(14, 86),2	5631,(14, 95),48	5679,(14, 127),2	5681,(14, 143),8	5689,(14, 144),6	5695,(14, 155),10	5705,(14, 198),12	5717,(162, 201),66	5783,(137, 201),66	5849,(126, 201),66	5981,(180, 201),66	6053,(19, 37),2	6055,(19, 39),2	6057,(19, 55),12	6069,(19, 56),12	6081,(19, 64),8	6089,(19, 71),2	6091,(19, 98),8	6099,(19, 100),6	6105,(19, 102),2	6107,(19, 112),20	6127,(19, 113),6	6133,(19, 115),48	6181,(19, 125),42	6223,(19, 140),2	6225,(19, 184),6	6231,(19, 187),4	6377,(65, 201),66	6509,(81, 201),66	6641,(124, 201),66	7235,(60, 201),66	7367,(63, 201),66	7697,(165, 201),66	7763,(122, 201),66	8159,(167, 201),66	8423,(158, 201),66	8555,(160, 201),66	
104,(3, 28),10	114,(3, 77),8	122,(3, 83),2	124,(3, 36),2	126,(3, 76),2	128,(3, 130),2	132,(3, 61),14	146,(3, 94),8	156,(8, 146),2	163,(8, 27),2	165,(8, 44),8	173,(8, 70),2	175,(8, 130),2	177,(3, 100),4	181,(3, 107),2	183,(3, 139),2	185,(3, 144),2	187,(3, 152),30	217,(8, 160),2	221,(3, 149),6	227,(3, 190),2	229,(3, 192),2	231,(8, 103),4	235,(8, 131),2	237,(8, 164),2	239,(13, 23),8	259,(8, 34),38	297,(8, 85),56	353,(13, 22),6	359,(13, 31),48	407,(13, 85),22	429,(18, 26),22	451,(18, 30),2	565,(8, 169),14	579,(13, 76),4	591,(3, 160),94	685,(8, 30),360	1045,(13, 152),4	1049,(13, 165),2	1051,(18, 67),2	1053,(18, 122),2	1071,(8, 39),10	1081,(8, 168),2	1083,(8, 179),2	1085,(8, 82),98	1245,(13, 58),28	1273,(8, 119),8	1281,(8, 199),2	1285,(13, 173),6	1291,(18, 156),2	1307,(13, 63),22	1329,(18, 136),14	1365,(8, 42),14	1379,(8, 92),14	1403,(8, 137),116	1519,(18, 126),16	1677,(8, 141),12	1691,(18, 158),14	1773,(8, 147),14	1845,(8, 112),32	1877,(8, 114),20	1897,(8, 151),14	1999,(8, 174),12	2017,(8, 181),26	2049,(8, 165),124	2315,(13, 45),2	2341,(13, 74),2	2343,(18, 85),324	4833,(8, 182),52	5247,(13, 41),6	5253,(13, 61),6	5259,(13, 86),14	5273,(13, 97),6	5279,(13, 105),26	5305,(13, 111),2	5307,(13, 121),2	5309,(13, 125),12	5321,(13, 149),2	5323,(13, 153),36	5359,(13, 155),4	5363,(13, 157),2	5365,(13, 170),24	5389,(13, 195),128	5517,(13, 197),26	5921,(18, 28),2	5923,(18, 39),8	5931,(18, 40),4	5935,(18, 43),14	5949,(18, 83),60	6009,(18, 114),8	6017,(18, 135),2	6019,(18, 148),2	6021,(18, 153),2	6023,(18, 183),30	
24,(2, 21),46	70,(2, 30),12	82,(2, 34),10	92,(2, 46),12	104,(2, 48),20	124,(2, 50),2	126,(2, 51),2	128,(2, 71),2	130,(2, 144),2	133,(2, 29),54	187,(2, 53),20	207,(2, 84),6	213,(2, 90),6	219,(2, 147),2	221,(2, 79),18	239,(7, 28),2	241,(7, 55),2	243,(7, 81),10	253,(7, 128),6	265,(2, 133),14	279,(2, 142),10	289,(2, 149),24	313,(2, 185),6	319,(7, 96),2	321,(7, 97),2	323,(7, 101),2	328,(7, 106),2	331,(12, 63),2	333,(12, 81),4	337,(12, 128),2	339,(12, 136),2	341,(12, 156),6	353,(7, 120),2	357,(7, 131),2	359,(2, 82),132	491,(17, 21),32	541,(12, 69),12	553,(12, 80),16	583,(2, 35),78	661,(2, 151),34	695,(7, 154),44	739,(17, 156),20	765,(2, 194),40	829,(7, 50),8	845,(2, 196),50	907,(7, 110),10	917,(12, 73),34	965,(7, 52),26	991,(7, 183),2	993,(7, 184),2	1011,(7, 197),6	1055,(7, 163),150	1271,(77, 201),66	1343,(7, 114),22	1365,(17, 29),18	1399,(12, 96),4	1527,(17, 75),36	1619,(7, 119),58	1689,(12, 97),2	1691,(23, 201),66	1795,(7, 179),50	1923,(12, 110),2	2391,(12, 99),6	2483,(2, 182),628	3111,(7, 98),1722	4833,(26, 201),66	4899,(33, 201),66	5065,(12, 51),18	5083,(12, 89),8	5091,(12, 103),30	5121,(12, 117),12	5133,(12, 118),4	5137,(12, 188),4	5141,(12, 195),28	5169,(12, 199),78	5717,(17, 35),2	5719,(17, 43),4	5723,(17, 66),2	5725,(17, 83),16	5741,(17, 89),2	5743,(17, 96),20	5763,(17, 98),18	5781,(17, 115),2	5783,(17, 116),12	5795,(17, 117),2	5797,(17, 118),24	5821,(17, 129),12	5833,(17, 131),8	5841,(17, 176),12	5853,(17, 179),22	5875,(17, 192),24	5899,(17, 195),22	6179,(31, 201),66	8357,(85, 201),66	8489,(146, 201),66	
1,(0, 2),22	23,(0, 3),22	45,(0, 4),22	67,(0, 5),22	89,(0, 7),22	111,(0, 8),22	133,(0, 9),22	155,(0, 10),22	177,(0, 12),22	199,(0, 13),22	221,(0, 14),22	243,(0, 15),22	265,(0, 17),22	287,(0, 18),22	309,(0, 19),22	331,(0, 20),22	353,(6, 24),2	355,(6, 28),2	357,(6, 36),2	359,(6, 46),18	377,(6, 49),204	581,(6, 57),2	583,(6, 67),8	591,(6, 104),126	717,(6, 106),24	741,(6, 111),18	759,(6, 112),2	761,(6, 118),2	763,(6, 123),2	765,(6, 130),52	817,(6, 134),20	837,(6, 135),8	845,(6, 137),18	863,(6, 154),8	871,(6, 160),22	893,(6, 163),24	917,(6, 166),14	931,(6, 199),2	933,(11, 37),6	939,(11, 40),26	965,(11, 48),30	995,(11, 50),4	999,(11, 51),10	1009,(11, 54),2	1011,(11, 58),4	1015,(11, 60),6	1021,(11, 65),8	1029,(11, 66),2	1031,(11, 70),2	1033,(11, 72),22	1055,(11, 73),30	1085,(11, 86),178	1263,(11, 96),2	1265,(11, 109),4	1269,(11, 115),2	1271,(11, 116),2	1273,(11, 124),4	1277,(11, 130),8	1285,(11, 131),16	1301,(11, 132),6	1307,(11, 135),10	1317,(11, 143),22	1339,(11, 146),2	1341,(11, 147),2	1343,(11, 152),30	1373,(11, 162),30	1403,(11, 168),74	1477,(11, 174),64	1541,(11, 180),150	1691,(11, 182),40	1731,(11, 188),30	1761,(11, 191),4	1765,(11, 200),8	1773,(1, 31),14	1787,(1, 50),2	1789,(1, 64),6	1795,(1, 65),4	1799,(1, 79),2	1801,(1, 81),110	1911,(1, 88),2	1913,(1, 94),10	1923,(1, 104),2	1925,(1, 116),2	1927,(1, 120),2	1929,(1, 127),16	1945,(1, 139),2	1947,(1, 149),2	1949,(1, 151),2	1951,(1, 186),4	1955,(1, 194),42	1997,(1, 197),2	1999,(16, 32),12	2011,(16, 46),2	2013,(16, 55),4	2017,(16, 60),4	2021,(16, 63),28	2049,(16, 75),8	2057,(16, 85),20	2077,(16, 86),2	2079,(16, 87),2	2081,(16, 92),18	2099,(16, 93),2	2101,(16, 96),2	2103,(16, 102),12	2115,(16, 107),6	2121,(16, 112),44	2165,(16, 117),8	2173,(16, 122),8	2181,(16, 131),2	2183,(16, 138),52	2235,(16, 140),2	2237,(16, 143),10	2247,(16, 144),10	2257,(16, 151),56	2313,(16, 155),2	2315,(16, 158),2	2317,(16, 166),2	2319,(16, 167),24	2343,(16, 176),6	2349,(16, 178),48	2397,(16, 184),18	2415,(16, 189),66	2481,(16, 199),2	2781,(21, 201),66	2979,(22, 201),66	4689,(30, 201),66	6443,(62, 201),66	
