415
# CPU
0,0,1	1,2,17	18,30,17	35,3,17	52,9,17	69,26,17	86,34,17	103,1,17	120,38,17	137,24,17	154,27,17	171,32,17	188,40,17	205,36,17	222,29,17	239,15,17	414,41,1	
51,4,17	68,16,17	85,33,17	102,20,17	119,17,17	136,37,17	153,5,17	170,23,17	187,39,17	204,12,17	
64,7,17	81,21,17	98,6,17	122,14,17	139,18,17	156,19,17	173,35,17	194,10,17	
70,13,17	90,22,17	114,31,17	131,25,17	148,11,17	165,28,17	188,8,17	
# Incoming
90,(4, 29),6	96,(7, 41),12	118,(4, 15),10	128,(13, 41),12	140,(21, 41),12	152,(22, 41),12	164,(6, 41),12	186,(16, 41),12	198,(33, 41),12	210,(20, 41),12	222,(31, 41),12	234,(17, 41),12	246,(14, 41),12	258,(25, 41),12	270,(37, 41),12	282,(18, 41),12	294,(11, 41),12	306,(5, 41),12	318,(19, 41),12	330,(28, 41),12	342,(23, 41),12	354,(35, 41),12	366,(39, 41),12	378,(8, 41),12	390,(10, 41),12	402,(12, 41),12	
1,(0, 4),50	96,(2, 5),2	112,(2, 39),2	116,(3, 12),2	124,(1, 37),2	160,(1, 23),2	
52,(3, 7),12	68,(2, 14),2	70,(4, 21),4	74,(2, 6),22	96,(4, 6),2	98,(2, 35),14	114,(4, 14),2	116,(4, 18),2	120,(1, 14),2	126,(1, 18),6	132,(4, 10),10	142,(1, 19),14	156,(4, 35),12	168,(3, 10),16	188,(1, 10),6	
64,(2, 13),2	66,(3, 31),2	68,(4, 13),2	70,(2, 25),4	74,(4, 22),16	98,(4, 31),16	114,(2, 28),2	122,(1, 25),2	132,(2, 11),8	140,(1, 11),2	142,(4, 28),10	156,(1, 28),4	162,(2, 8),6	168,(4, 8),18	186,(1, 8),2	
# Outgoing
1,(0, 4),50	52,(3, 7),12	64,(2, 13),2	66,(3, 31),2	68,(2, 14),2	70,(2, 25),4	74,(2, 6),22	96,(2, 5),2	98,(2, 35),14	112,(2, 39),2	114,(2, 28),2	116,(3, 12),2	120,(1, 14),2	122,(1, 25),2	124,(1, 37),2	126,(1, 18),6	132,(2, 11),8	140,(1, 11),2	142,(1, 19),14	156,(1, 28),4	160,(1, 23),2	162,(2, 8),6	168,(3, 10),16	186,(1, 8),2	188,(1, 10),6	
68,(4, 13),2	70,(4, 21),4	74,(4, 22),16	90,(4, 29),6	96,(4, 6),2	98,(4, 31),16	114,(4, 14),2	116,(4, 18),2	118,(4, 15),10	132,(4, 10),10	142,(4, 28),10	156,(4, 35),12	168,(4, 8),18	186,(16, 41),12	198,(33, 41),12	210,(20, 41),12	234,(17, 41),12	270,(37, 41),12	306,(5, 41),12	342,(23, 41),12	366,(39, 41),12	402,(12, 41),12	
96,(7, 41),12	140,(21, 41),12	164,(6, 41),12	246,(14, 41),12	282,(18, 41),12	318,(19, 41),12	354,(35, 41),12	390,(10, 41),12	
128,(13, 41),12	152,(22, 41),12	222,(31, 41),12	258,(25, 41),12	294,(11, 41),12	330,(28, 41),12	378,(8, 41),12	
