466
# CPU
93,6,1	135,10,1	147,18,1	175,14,1	
83,5,1	118,9,1	126,13,1	333,17,1	
3,2,1	4,4,1	5,12,1	6,20,1	105,8,1	139,16,1	
0,0,1	1,1,1	8,3,1	86,7,1	122,11,1	140,15,1	146,19,1	465,21,1	
# Incoming
83,(1, 6),10	105,(1, 10),30	139,(1, 18),8	147,(2, 14),28	
3,(1, 5),80	86,(2, 9),32	122,(2, 13),4	175,(2, 17),158	
1,(0, 2),2	93,(1, 8),12	135,(1, 16),4	
4,(2, 3),4	8,(2, 7),78	86,(5, 21),22	118,(2, 11),4	126,(2, 15),14	140,(2, 19),6	146,(6, 21),22	168,(9, 21),22	190,(13, 21),22	212,(10, 21),22	234,(18, 21),22	256,(14, 21),22	333,(4, 21),22	355,(12, 21),22	377,(20, 21),22	399,(8, 21),22	421,(16, 21),22	443,(17, 21),22	
# Outgoing
146,(6, 21),22	212,(10, 21),22	234,(18, 21),22	256,(14, 21),22	
86,(5, 21),22	168,(9, 21),22	190,(13, 21),22	443,(17, 21),22	
4,(2, 3),4	8,(2, 7),78	86,(2, 9),32	118,(2, 11),4	122,(2, 13),4	126,(2, 15),14	140,(2, 19),6	147,(2, 14),28	175,(2, 17),158	333,(4, 21),22	355,(12, 21),22	377,(20, 21),22	399,(8, 21),22	421,(16, 21),22	
1,(0, 2),2	3,(1, 5),80	83,(1, 6),10	93,(1, 8),12	105,(1, 10),30	135,(1, 16),4	139,(1, 18),8	
