10622
# CPU
67,4,1	133,8,1	134,181,1	177,190,1	199,12,1	200,99,1	213,133,1	265,16,1	266,107,1	267,189,1	331,20,1	332,91,1	333,92,1	485,42,1	509,150,1	513,186,1	557,172,1	563,27,1	601,106,1	605,50,1	681,90,1	933,54,1	963,47,1	1009,84,1	1027,87,1	1029,88,1	1091,108,1	1117,78,1	1123,123,1	1141,141,1	1157,145,1	1249,164,1	1281,185,1	1347,196,1	1351,109,1	1353,127,1	1359,41,1	1361,45,1	1395,93,1	1417,63,1	1549,82,1	1569,97,1	1595,105,1	1597,111,1	1599,121,1	1635,137,1	1685,170,1	1779,160,1	1793,166,1	1819,52,1	1829,110,1	1887,119,1	1889,35,1	1949,89,1	1969,96,1	1997,46,1	2003,117,1	2017,75,1	2079,176,1	2125,192,1	2957,49,1	4773,179,1	4879,69,1	4957,101,1	5043,139,1	5957,194,1	6013,48,1	6021,65,1	6051,73,1	6229,86,1	6245,131,1	6255,135,1	6307,152,1	6337,162,1	6411,168,1	6475,174,1	6625,180,1	6665,182,1	6695,188,1	6703,200,1	6729,44,1	6845,81,1	6893,95,1	6901,143,1	6913,198,1	6925,34,1	6929,60,1	6933,67,1	6965,94,1	6981,129,1	6989,191,1	7001,40,1	7015,43,1	7075,83,1	7077,148,1	7079,156,1	7093,158,1	7123,183,1	7145,36,1	7147,39,1	7159,56,1	7165,58,1	7167,71,1	7175,98,1	7181,100,1	7183,102,1	7203,112,1	7209,113,1	7257,115,1	7299,125,1	7365,154,1	7371,184,1	7375,187,1	
45,3,1	111,7,1	133,53,1	177,11,1	178,132,1	243,15,1	309,19,1	353,64,1	467,24,1	487,120,1	503,28,1	553,163,1	597,37,1	629,161,1	707,59,1	795,68,1	829,70,1	919,130,1	923,177,1	1049,104,1	1073,114,1	1087,147,1	1115,169,1	1141,80,1	1273,128,1	1281,140,1	1295,193,1	1379,51,1	1387,122,1	1417,144,1	1521,72,1	1523,74,1	1527,76,1	1533,25,1	1535,55,1	1537,57,1	1547,61,1	1549,134,1	1611,126,1	1613,149,1	1653,153,1	1657,155,1	1661,165,1	1675,136,1	1691,173,1	1857,197,1	1869,124,1	1887,29,1	1889,171,1	1895,66,1	2001,116,1	2027,118,1	2057,103,1	2147,195,1	2225,199,1	2343,138,1	2399,151,1	2423,167,1	2715,142,1	2745,157,1	2757,159,1	2925,178,1	3603,79,1	3649,175,1	3719,32,1	3753,38,1	10621,201,1	
23,2,1	89,6,1	155,10,1	221,14,1	287,18,1	549,33,1	933,26,1	1353,31,1	1549,85,1	1857,77,1	1869,23,1	2345,146,1	
0,0,1	1,1,1	2,9,1	3,5,1	4,13,1	5,17,1	305,21,1	411,22,1	1053,30,1	3541,62,1	
# Incoming
45,(0, 4),22	67,(3, 36),2	69,(3, 83),2	71,(3, 94),8	79,(3, 107),2	82,(2, 34),10	92,(2, 46),12	104,(2, 50),2	106,(2, 71),2	108,(3, 139),2	111,(0, 8),22	133,(2, 48),20	153,(2, 84),6	159,(2, 90),6	165,(2, 185),6	171,(3, 100),4	175,(3, 190),2	177,(0, 12),22	199,(2, 133),14	213,(3, 152),30	243,(0, 16),22	265,(3, 192),2	267,(7, 50),8	275,(7, 96),2	277,(6, 36),2	279,(6, 46),18	297,(6, 67),8	305,(6, 112),2	307,(6, 123),2	309,(0, 20),22	331,(7, 81),10	341,(7, 97),2	343,(7, 101),2	345,(1, 50),2	347,(7, 106),2	349,(7, 131),2	351,(7, 183),2	353,(1, 65),4	357,(7, 184),2	359,(1, 81),110	469,(1, 88),2	471,(1, 94),10	481,(10, 40),2	483,(10, 42),2	485,(10, 49),2	487,(1, 127),16	503,(1, 139),2	505,(10, 131),2	507,(10, 150),2	509,(1, 186),4	513,(1, 194),42	555,(10, 172),2	557,(9, 27),6	563,(9, 35),14	577,(6, 106),24	601,(11, 50),4	605,(9, 41),22	627,(9, 43),2	629,(2, 194),40	669,(9, 83),6	675,(9, 90),6	681,(9, 96),4	685,(9, 97),22	707,(6, 111),18	725,(11, 54),2	727,(9, 109),2	729,(9, 119),76	805,(11, 96),2	807,(9, 145),16	823,(9, 148),6	829,(2, 35),78	907,(6, 135),8	915,(11, 115),2	917,(9, 168),2	919,(11, 58),4	923,(9, 198),8	931,(15, 54),2	933,(5, 41),12	945,(5, 45),16	961,(5, 47),2	963,(5, 56),8	971,(5, 82),2	973,(5, 84),36	1009,(5, 87),18	1027,(5, 88),2	1029,(5, 100),60	1089,(5, 108),2	1091,(5, 111),24	1115,(14, 78),2	1117,(5, 123),6	1123,(14, 86),2	1125,(5, 141),16	1141,(10, 71),6	1147,(5, 145),10	1157,(5, 152),6	1163,(5, 162),74	1237,(5, 164),12	1249,(5, 168),6	1255,(5, 174),22	1277,(5, 176),2	1279,(5, 185),2	1281,(6, 154),8	1289,(11, 60),6	1295,(5, 198),2	1297,(2, 196),50	1347,(11, 109),4	1351,(14, 127),2	1353,(13, 41),6	1359,(13, 45),2	1361,(13, 58),28	1389,(11, 191),4	1393,(15, 93),2	1395,(13, 63),22	1417,(2, 82),132	1549,(13, 86),14	1563,(13, 97),6	1569,(13, 105),26	1595,(13, 111),2	1597,(13, 121),2	1599,(13, 125),12	1611,(15, 194),2	1613,(13, 152),4	1617,(6, 137),18	1635,(6, 160),22	1657,(14, 43),4	1661,(13, 170),24	1685,(3, 160),94	1779,(6, 166),14	1793,(7, 52),26	1819,(7, 110),10	1829,(7, 119),58	1887,(17, 35),2	1889,(17, 43),4	1893,(18, 67),2	1895,(17, 75),36	1931,(17, 83),16	1947,(17, 89),2	1949,(17, 96),20	1969,(17, 98),18	1987,(17, 115),2	1989,(10, 46),8	1997,(14, 65),4	2001,(17, 117),2	2003,(10, 75),14	2017,(10, 183),8	2025,(18, 135),2	2027,(17, 129),12	2039,(17, 131),8	2047,(17, 156),20	2067,(17, 176),12	2079,(17, 179),22	2101,(17, 192),24	2125,(2, 182),628	2753,(6, 49),204	2957,(7, 98),1722	4679,(7, 154),44	4723,(7, 179),50	4773,(10, 58),62	4835,(10, 69),44	4879,(10, 81),20	4899,(10, 101),58	4957,(10, 102),26	4983,(10, 139),60	5043,(10, 148),30	5073,(10, 158),366	5439,(10, 187),30	5469,(10, 194),488	5957,(11, 40),26	5983,(11, 48),30	6013,(11, 65),8	6021,(11, 73),30	6051,(11, 86),178	6229,(11, 131),16	6245,(11, 135),10	6255,(11, 143),22	6277,(11, 152),30	6307,(11, 162),30	6337,(11, 168),74	6411,(11, 174),64	6475,(11, 180),150	6625,(11, 182),40	6665,(11, 188),30	6695,(11, 200),8	6703,(14, 44),26	6729,(14, 56),48	6777,(14, 58),64	6841,(14, 81),4	6845,(14, 95),48	6893,(14, 143),8	6901,(14, 198),12	6913,(15, 34),12	6925,(15, 60),4	6929,(15, 67),4	6933,(15, 83),28	6961,(15, 94),4	6965,(15, 102),8	6973,(15, 129),8	6981,(15, 191),8	6989,(18, 39),8	6997,(18, 40),4	7001,(18, 43),14	7015,(18, 83),60	7075,(18, 148),2	7077,(18, 156),2	7079,(18, 158),14	7093,(18, 183),30	7123,(19, 36),22	7145,(19, 39),2	7147,(19, 56),12	7159,(19, 58),6	7165,(19, 71),2	7167,(19, 98),8	7175,(19, 100),6	7181,(19, 102),2	7183,(19, 112),20	7203,(19, 113),6	7209,(19, 115),48	7257,(19, 125),42	7299,(19, 154),66	7365,(19, 184),6	7371,(19, 187),4	
23,(0, 3),22	89,(0, 7),22	111,(2, 51),2	113,(2, 53),20	155,(0, 11),22	177,(2, 79),18	195,(2, 144),2	197,(2, 147),2	213,(6, 24),2	215,(6, 28),2	217,(6, 57),2	219,(6, 118),2	221,(0, 15),22	243,(2, 142),10	253,(2, 149),24	287,(0, 19),22	309,(2, 151),34	343,(4, 68),2	345,(6, 199),2	347,(1, 64),6	353,(4, 153),4	357,(1, 79),2	359,(2, 29),54	413,(4, 167),44	457,(4, 175),6	463,(8, 24),4	467,(10, 25),2	469,(10, 29),4	473,(10, 59),2	475,(10, 159),2	477,(14, 169),4	481,(1, 104),2	483,(1, 116),2	485,(1, 120),2	487,(10, 79),14	501,(18, 28),2	503,(18, 72),2	505,(1, 149),2	507,(1, 151),2	509,(6, 134),20	529,(6, 163),24	553,(18, 122),2	555,(1, 197),2	557,(10, 118),20	577,(9, 37),20	597,(9, 38),8	605,(10, 122),10	615,(10, 161),14	629,(9, 70),10	639,(9, 80),30	669,(14, 29),22	691,(14, 59),16	707,(9, 103),20	727,(6, 130),52	779,(14, 68),16	795,(14, 144),6	801,(18, 153),2	805,(9, 134),2	807,(14, 155),10	817,(18, 114),8	827,(8, 70),2	829,(9, 159),88	917,(8, 130),2	919,(9, 177),4	923,(6, 104),126	1049,(8, 103),4	1053,(8, 114),20	1073,(8, 147),14	1087,(8, 151),14	1101,(8, 169),14	1115,(5, 116),2	1117,(8, 199),2	1119,(12, 118),4	1123,(5, 136),2	1125,(12, 80),16	1141,(5, 144),6	1147,(8, 165),124	1271,(12, 128),2	1273,(12, 136),2	1275,(16, 55),4	1279,(16, 140),2	1281,(5, 193),14	1295,(181, 201),66	1361,(12, 51),18	1379,(16, 122),8	1387,(16, 155),2	1389,(13, 61),6	1395,(16, 32),12	1407,(16, 144),10	1417,(13, 72),104	1521,(13, 74),2	1523,(13, 76),4	1527,(16, 199),2	1529,(20, 25),4	1533,(20, 55),2	1535,(20, 57),2	1537,(20, 61),10	1547,(20, 134),2	1549,(10, 157),46	1595,(18, 126),16	1611,(13, 149),2	1617,(13, 153),36	1653,(13, 155),4	1657,(13, 157),2	1659,(13, 165),2	1661,(18, 136),14	1685,(13, 173),6	1691,(13, 178),12	1703,(13, 195),128	1831,(13, 197),26	1857,(20, 124),12	1869,(17, 29),18	1887,(20, 171),2	1893,(17, 66),2	1895,(190, 201),66	1961,(12, 195),28	1989,(17, 116),12	2003,(17, 118),24	2027,(12, 103),30	2057,(99, 201),66	2125,(17, 195),22	2147,(12, 199),78	2225,(133, 201),66	2291,(16, 138),52	2343,(16, 151),56	2399,(16, 167),24	2423,(16, 178),48	2471,(107, 201),66	2537,(189, 201),66	2603,(21, 201),66	2669,(20, 79),38	2707,(20, 142),8	2715,(20, 157),30	2745,(20, 159),12	2757,(20, 178),168	2925,(91, 201),66	2991,(92, 201),66	3057,(22, 201),66	3123,(42, 201),66	3189,(150, 201),66	3255,(186, 201),66	3321,(172, 201),66	3387,(27, 201),66	3453,(106, 201),66	3541,(14, 79),62	3603,(14, 175),46	3649,(18, 32),70	3719,(18, 38),34	3753,(33, 201),66	3819,(50, 201),66	3885,(90, 201),66	3951,(54, 201),66	4017,(26, 201),66	4083,(47, 201),66	4149,(84, 201),66	4215,(87, 201),66	4281,(88, 201),66	4347,(30, 201),66	4413,(108, 201),66	4479,(78, 201),66	4545,(123, 201),66	4611,(141, 201),66	4677,(145, 201),66	4743,(164, 201),66	4809,(185, 201),66	4875,(196, 201),66	4941,(109, 201),66	5007,(127, 201),66	5073,(41, 201),66	5139,(45, 201),66	5205,(93, 201),66	5271,(63, 201),66	5337,(82, 201),66	5403,(97, 201),66	5469,(105, 201),66	5535,(111, 201),66	5601,(121, 201),66	5667,(137, 201),66	5733,(170, 201),66	5799,(160, 201),66	5865,(166, 201),66	5957,(31, 201),66	6023,(85, 201),66	6089,(52, 201),66	6155,(110, 201),66	6221,(77, 201),66	6287,(23, 201),66	6353,(119, 201),66	6419,(35, 201),66	6485,(89, 201),66	6551,(96, 201),66	6617,(46, 201),66	6683,(117, 201),66	6749,(75, 201),66	6815,(176, 201),66	6881,(192, 201),66	6947,(49, 201),66	7013,(62, 201),66	7123,(146, 201),66	7189,(179, 201),66	7255,(69, 201),66	7321,(101, 201),66	7387,(139, 201),66	7453,(194, 201),66	7519,(48, 201),66	7585,(65, 201),66	7651,(73, 201),66	7717,(86, 201),66	7783,(131, 201),66	7849,(135, 201),66	7915,(152, 201),66	7981,(162, 201),66	8047,(168, 201),66	8113,(174, 201),66	8179,(180, 201),66	8245,(182, 201),66	8311,(188, 201),66	8377,(200, 201),66	8443,(44, 201),66	8509,(81, 201),66	8575,(95, 201),66	8641,(143, 201),66	8707,(198, 201),66	8773,(34, 201),66	8839,(60, 201),66	8905,(67, 201),66	8971,(94, 201),66	9037,(129, 201),66	9103,(191, 201),66	9169,(40, 201),66	9235,(43, 201),66	9301,(83, 201),66	9367,(148, 201),66	9433,(156, 201),66	9499,(158, 201),66	9565,(183, 201),66	9631,(36, 201),66	9697,(39, 201),66	9763,(56, 201),66	9829,(58, 201),66	9895,(71, 201),66	9961,(98, 201),66	10027,(100, 201),66	10093,(102, 201),66	10159,(112, 201),66	10225,(113, 201),66	10291,(115, 201),66	10357,(125, 201),66	10423,(154, 201),66	10489,(184, 201),66	10555,(187, 201),66	
1,(0, 2),22	67,(0, 6),22	89,(3, 77),8	97,(4, 33),34	133,(0, 10),22	155,(7, 23),16	178,(11, 146),2	199,(0, 14),22	244,(15, 33),2	265,(0, 18),22	301,(8, 146),2	305,(16, 85),20	331,(1, 31),14	357,(8, 85),56	413,(15, 85),86	499,(19, 33),50	931,(5, 26),2	1297,(13, 23),8	1305,(13, 31),48	1527,(13, 85),22	1549,(12, 77),308	1857,(17, 23),12	1887,(15, 146),458	
24,(2, 21),46	70,(2, 30),12	131,(4, 62),170	301,(15, 30),2	303,(16, 21),2	343,(18, 30),2	347,(14, 30),6	359,(19, 22),52	467,(8, 30),360	933,(19, 30),120	2957,(10, 62),584	
# Outgoing
97,(4, 33),34	131,(4, 62),170	301,(8, 146),2	303,(16, 21),2	305,(16, 85),20	343,(4, 68),2	353,(4, 153),4	357,(8, 85),56	413,(4, 167),44	457,(4, 175),6	463,(8, 24),4	467,(8, 30),360	827,(8, 70),2	917,(8, 130),2	1049,(8, 103),4	1053,(8, 114),20	1073,(8, 147),14	1087,(8, 151),14	1101,(8, 169),14	1117,(8, 199),2	1119,(12, 118),4	1125,(12, 80),16	1147,(8, 165),124	1271,(12, 128),2	1273,(12, 136),2	1275,(16, 55),4	1279,(16, 140),2	1295,(181, 201),66	1361,(12, 51),18	1379,(16, 122),8	1387,(16, 155),2	1395,(16, 32),12	1407,(16, 144),10	1527,(16, 199),2	1529,(20, 25),4	1533,(20, 55),2	1535,(20, 57),2	1537,(20, 61),10	1547,(20, 134),2	1549,(12, 77),308	1857,(20, 124),12	1887,(20, 171),2	1895,(190, 201),66	1961,(12, 195),28	2027,(12, 103),30	2057,(99, 201),66	2147,(12, 199),78	2225,(133, 201),66	2291,(16, 138),52	2343,(16, 151),56	2399,(16, 167),24	2423,(16, 178),48	2471,(107, 201),66	2537,(189, 201),66	2669,(20, 79),38	2707,(20, 142),8	2715,(20, 157),30	2745,(20, 159),12	2757,(20, 178),168	2925,(91, 201),66	2991,(92, 201),66	3123,(42, 201),66	3189,(150, 201),66	3255,(186, 201),66	3321,(172, 201),66	3387,(27, 201),66	3453,(106, 201),66	3819,(50, 201),66	3885,(90, 201),66	3951,(54, 201),66	4083,(47, 201),66	4149,(84, 201),66	4215,(87, 201),66	4281,(88, 201),66	4413,(108, 201),66	4479,(78, 201),66	4545,(123, 201),66	4611,(141, 201),66	4677,(145, 201),66	4743,(164, 201),66	4809,(185, 201),66	4875,(196, 201),66	4941,(109, 201),66	5007,(127, 201),66	5073,(41, 201),66	5139,(45, 201),66	5205,(93, 201),66	5271,(63, 201),66	5337,(82, 201),66	5403,(97, 201),66	5469,(105, 201),66	5535,(111, 201),66	5601,(121, 201),66	5667,(137, 201),66	5733,(170, 201),66	5799,(160, 201),66	5865,(166, 201),66	6089,(52, 201),66	6155,(110, 201),66	6353,(119, 201),66	6419,(35, 201),66	6485,(89, 201),66	6551,(96, 201),66	6617,(46, 201),66	6683,(117, 201),66	6749,(75, 201),66	6815,(176, 201),66	6881,(192, 201),66	6947,(49, 201),66	7189,(179, 201),66	7255,(69, 201),66	7321,(101, 201),66	7387,(139, 201),66	7453,(194, 201),66	7519,(48, 201),66	7585,(65, 201),66	7651,(73, 201),66	7717,(86, 201),66	7783,(131, 201),66	7849,(135, 201),66	7915,(152, 201),66	7981,(162, 201),66	8047,(168, 201),66	8113,(174, 201),66	8179,(180, 201),66	8245,(182, 201),66	8311,(188, 201),66	8377,(200, 201),66	8443,(44, 201),66	8509,(81, 201),66	8575,(95, 201),66	8641,(143, 201),66	8707,(198, 201),66	8773,(34, 201),66	8839,(60, 201),66	8905,(67, 201),66	8971,(94, 201),66	9037,(129, 201),66	9103,(191, 201),66	9169,(40, 201),66	9235,(43, 201),66	9301,(83, 201),66	9367,(148, 201),66	9433,(156, 201),66	9499,(158, 201),66	9565,(183, 201),66	9631,(36, 201),66	9697,(39, 201),66	9763,(56, 201),66	9829,(58, 201),66	9895,(71, 201),66	9961,(98, 201),66	10027,(100, 201),66	10093,(102, 201),66	10159,(112, 201),66	10225,(113, 201),66	10291,(115, 201),66	10357,(125, 201),66	10423,(154, 201),66	10489,(184, 201),66	10555,(187, 201),66	
67,(3, 36),2	69,(3, 83),2	71,(3, 94),8	79,(3, 107),2	89,(3, 77),8	108,(3, 139),2	155,(7, 23),16	171,(3, 100),4	175,(3, 190),2	178,(11, 146),2	213,(3, 152),30	244,(15, 33),2	265,(3, 192),2	267,(7, 50),8	275,(7, 96),2	301,(15, 30),2	331,(7, 81),10	341,(7, 97),2	343,(7, 101),2	347,(7, 106),2	349,(7, 131),2	351,(7, 183),2	357,(7, 184),2	359,(19, 22),52	413,(15, 85),86	499,(19, 33),50	601,(11, 50),4	725,(11, 54),2	805,(11, 96),2	915,(11, 115),2	919,(11, 58),4	931,(15, 54),2	933,(19, 30),120	1289,(11, 60),6	1347,(11, 109),4	1389,(11, 191),4	1393,(15, 93),2	1611,(15, 194),2	1685,(3, 160),94	1793,(7, 52),26	1819,(7, 110),10	1829,(7, 119),58	1887,(15, 146),458	2957,(7, 98),1722	4679,(7, 154),44	4723,(7, 179),50	5957,(11, 40),26	5983,(11, 48),30	6013,(11, 65),8	6021,(11, 73),30	6051,(11, 86),178	6229,(11, 131),16	6245,(11, 135),10	6255,(11, 143),22	6277,(11, 152),30	6307,(11, 162),30	6337,(11, 168),74	6411,(11, 174),64	6475,(11, 180),150	6625,(11, 182),40	6665,(11, 188),30	6695,(11, 200),8	6913,(15, 34),12	6925,(15, 60),4	6929,(15, 67),4	6933,(15, 83),28	6961,(15, 94),4	6965,(15, 102),8	6973,(15, 129),8	6981,(15, 191),8	7123,(19, 36),22	7145,(19, 39),2	7147,(19, 56),12	7159,(19, 58),6	7165,(19, 71),2	7167,(19, 98),8	7175,(19, 100),6	7181,(19, 102),2	7183,(19, 112),20	7203,(19, 113),6	7209,(19, 115),48	7257,(19, 125),42	7299,(19, 154),66	7365,(19, 184),6	7371,(19, 187),4	
24,(2, 21),46	70,(2, 30),12	82,(2, 34),10	92,(2, 46),12	104,(2, 50),2	106,(2, 71),2	111,(2, 51),2	113,(2, 53),20	133,(2, 48),20	153,(2, 84),6	159,(2, 90),6	165,(2, 185),6	177,(2, 79),18	195,(2, 144),2	197,(2, 147),2	199,(2, 133),14	213,(6, 24),2	215,(6, 28),2	217,(6, 57),2	219,(6, 118),2	243,(2, 142),10	253,(2, 149),24	277,(6, 36),2	279,(6, 46),18	297,(6, 67),8	305,(6, 112),2	307,(6, 123),2	309,(2, 151),34	343,(18, 30),2	345,(6, 199),2	347,(14, 30),6	359,(2, 29),54	467,(10, 25),2	469,(10, 29),4	473,(10, 59),2	475,(10, 159),2	477,(14, 169),4	481,(10, 40),2	483,(10, 42),2	485,(10, 49),2	487,(10, 79),14	501,(18, 28),2	503,(18, 72),2	505,(10, 131),2	507,(10, 150),2	509,(6, 134),20	529,(6, 163),24	553,(18, 122),2	555,(10, 172),2	557,(10, 118),20	577,(6, 106),24	605,(10, 122),10	615,(10, 161),14	629,(2, 194),40	669,(14, 29),22	691,(14, 59),16	707,(6, 111),18	727,(6, 130),52	779,(14, 68),16	795,(14, 144),6	801,(18, 153),2	807,(14, 155),10	817,(18, 114),8	829,(2, 35),78	907,(6, 135),8	923,(6, 104),126	1115,(14, 78),2	1123,(14, 86),2	1141,(10, 71),6	1281,(6, 154),8	1297,(2, 196),50	1351,(14, 127),2	1417,(2, 82),132	1549,(10, 157),46	1595,(18, 126),16	1617,(6, 137),18	1635,(6, 160),22	1657,(14, 43),4	1661,(18, 136),14	1779,(6, 166),14	1893,(18, 67),2	1989,(10, 46),8	1997,(14, 65),4	2003,(10, 75),14	2017,(10, 183),8	2025,(18, 135),2	2125,(2, 182),628	2753,(6, 49),204	2957,(10, 62),584	3541,(14, 79),62	3603,(14, 175),46	3649,(18, 32),70	3719,(18, 38),34	3753,(33, 201),66	4017,(26, 201),66	4773,(10, 58),62	4835,(10, 69),44	4879,(10, 81),20	4899,(10, 101),58	4957,(10, 102),26	4983,(10, 139),60	5043,(10, 148),30	5073,(10, 158),366	5439,(10, 187),30	5469,(10, 194),488	5957,(31, 201),66	6023,(85, 201),66	6221,(77, 201),66	6287,(23, 201),66	6703,(14, 44),26	6729,(14, 56),48	6777,(14, 58),64	6841,(14, 81),4	6845,(14, 95),48	6893,(14, 143),8	6901,(14, 198),12	6989,(18, 39),8	6997,(18, 40),4	7001,(18, 43),14	7015,(18, 83),60	7075,(18, 148),2	7077,(18, 156),2	7079,(18, 158),14	7093,(18, 183),30	7123,(146, 201),66	
1,(0, 2),22	23,(0, 3),22	45,(0, 4),22	67,(0, 6),22	89,(0, 7),22	111,(0, 8),22	133,(0, 10),22	155,(0, 11),22	177,(0, 12),22	199,(0, 14),22	221,(0, 15),22	243,(0, 16),22	265,(0, 18),22	287,(0, 19),22	309,(0, 20),22	331,(1, 31),14	345,(1, 50),2	347,(1, 64),6	353,(1, 65),4	357,(1, 79),2	359,(1, 81),110	469,(1, 88),2	471,(1, 94),10	481,(1, 104),2	483,(1, 116),2	485,(1, 120),2	487,(1, 127),16	503,(1, 139),2	505,(1, 149),2	507,(1, 151),2	509,(1, 186),4	513,(1, 194),42	555,(1, 197),2	557,(9, 27),6	563,(9, 35),14	577,(9, 37),20	597,(9, 38),8	605,(9, 41),22	627,(9, 43),2	629,(9, 70),10	639,(9, 80),30	669,(9, 83),6	675,(9, 90),6	681,(9, 96),4	685,(9, 97),22	707,(9, 103),20	727,(9, 109),2	729,(9, 119),76	805,(9, 134),2	807,(9, 145),16	823,(9, 148),6	829,(9, 159),88	917,(9, 168),2	919,(9, 177),4	923,(9, 198),8	931,(5, 26),2	933,(5, 41),12	945,(5, 45),16	961,(5, 47),2	963,(5, 56),8	971,(5, 82),2	973,(5, 84),36	1009,(5, 87),18	1027,(5, 88),2	1029,(5, 100),60	1089,(5, 108),2	1091,(5, 111),24	1115,(5, 116),2	1117,(5, 123),6	1123,(5, 136),2	1125,(5, 141),16	1141,(5, 144),6	1147,(5, 145),10	1157,(5, 152),6	1163,(5, 162),74	1237,(5, 164),12	1249,(5, 168),6	1255,(5, 174),22	1277,(5, 176),2	1279,(5, 185),2	1281,(5, 193),14	1295,(5, 198),2	1297,(13, 23),8	1305,(13, 31),48	1353,(13, 41),6	1359,(13, 45),2	1361,(13, 58),28	1389,(13, 61),6	1395,(13, 63),22	1417,(13, 72),104	1521,(13, 74),2	1523,(13, 76),4	1527,(13, 85),22	1549,(13, 86),14	1563,(13, 97),6	1569,(13, 105),26	1595,(13, 111),2	1597,(13, 121),2	1599,(13, 125),12	1611,(13, 149),2	1613,(13, 152),4	1617,(13, 153),36	1653,(13, 155),4	1657,(13, 157),2	1659,(13, 165),2	1661,(13, 170),24	1685,(13, 173),6	1691,(13, 178),12	1703,(13, 195),128	1831,(13, 197),26	1857,(17, 23),12	1869,(17, 29),18	1887,(17, 35),2	1889,(17, 43),4	1893,(17, 66),2	1895,(17, 75),36	1931,(17, 83),16	1947,(17, 89),2	1949,(17, 96),20	1969,(17, 98),18	1987,(17, 115),2	1989,(17, 116),12	2001,(17, 117),2	2003,(17, 118),24	2027,(17, 129),12	2039,(17, 131),8	2047,(17, 156),20	2067,(17, 176),12	2079,(17, 179),22	2101,(17, 192),24	2125,(17, 195),22	2603,(21, 201),66	3057,(22, 201),66	4347,(30, 201),66	7013,(62, 201),66	
