8894
# CPU
0,0,1	1,11,22	23,10,22	45,2,22	67,6,22	89,8,22	111,115,22	133,114,22	155,100,22	177,92,22	199,25,22	221,35,22	243,111,22	265,55,22	287,119,22	309,87,22	331,73,22	353,38,22	375,30,22	397,44,22	419,45,22	441,96,22	463,56,22	485,104,22	507,82,22	529,91,22	551,19,22	573,21,22	595,102,22	617,116,22	639,66,22	661,107,22	683,13,22	705,74,22	727,62,22	749,69,22	771,83,22	793,103,22	815,33,22	837,63,22	859,75,22	
5,1,22	27,4,22	49,5,22	71,57,22	93,48,22	115,110,22	137,67,22	159,81,22	181,98,22	203,68,22	225,12,22	247,14,22	269,101,22	291,94,22	313,77,22	335,32,22	357,29,22	379,28,22	401,42,22	423,18,22	445,20,22	467,16,22	489,53,22	511,76,22	2941,79,22	2997,88,22	3045,117,22	3605,51,22	3633,58,22	3657,70,22	3697,93,22	3719,105,22	3741,113,22	3763,46,22	3785,52,22	3807,72,22	4853,109,22	4961,27,22	4983,99,22	5005,108,22	
9,3,22	31,7,22	53,9,22	75,17,22	97,61,22	119,37,22	141,89,22	163,22,22	185,26,22	209,34,22	231,85,22	2953,65,22	2975,78,22	2997,60,22	3019,36,22	3041,95,22	3063,50,22	3085,80,22	3761,15,22	3905,23,22	3945,40,22	4257,59,22	4681,90,22	4841,41,22	4863,86,22	4885,106,22	4917,118,22	4981,43,22	5045,54,22	5067,24,22	5089,47,22	5401,112,22	5553,39,22	5613,64,22	5653,120,22	5675,31,22	5793,71,22	5815,97,22	5849,84,22	6573,49,22	8893,121,1	
# Incoming
65,(1, 55),16	81,(3, 44),16	97,(3, 45),12	109,(3, 75),4	113,(3, 104),64	177,(3, 107),24	201,(4, 82),8	209,(7, 91),4	213,(4, 19),16	229,(4, 21),12	241,(4, 102),4	245,(4, 116),88	333,(7, 66),24	357,(7, 107),4	361,(5, 13),4	365,(5, 74),4	369,(9, 62),16	385,(9, 69),8	393,(9, 83),4	397,(9, 103),4	401,(12, 33),4	405,(12, 63),4	409,(12, 75),8	
1,(0, 1),4	9,(0, 4),4	13,(0, 5),4	25,(0, 12),4	45,(11, 20),24	73,(11, 28),8	201,(7, 27),4	209,(11, 42),4	213,(9, 16),8	221,(9, 18),8	229,(9, 20),8	2929,(11, 79),12	2941,(11, 88),56	3025,(11, 105),8	3033,(11, 117),12	3573,(10, 46),24	3597,(10, 51),8	3605,(10, 58),28	3633,(10, 70),24	3657,(10, 93),40	3697,(10, 105),8	3705,(10, 113),8	3713,(2, 46),4	3717,(6, 52),4	3721,(8, 72),4	4805,(10, 109),48	4921,(8, 27),40	4961,(8, 99),16	4977,(8, 108),12	
5,(0, 3),4	17,(0, 7),4	21,(0, 9),4	29,(11, 17),16	45,(1, 24),12	57,(1, 37),8	69,(11, 24),4	81,(11, 31),4	85,(11, 34),124	209,(1, 85),4	213,(11, 60),2108	2321,(11, 64),84	2405,(11, 65),492	2897,(11, 78),32	2929,(1, 65),24	2953,(4, 39),12	2965,(4, 78),4	2969,(5, 54),12	2981,(5, 60),12	2993,(12, 36),4	2997,(11, 95),8	3005,(11, 97),20	3025,(12, 41),4	3029,(12, 43),4	3033,(12, 50),4	3037,(12, 80),8	3045,(11, 120),528	3573,(1, 39),160	3733,(10, 15),28	3761,(10, 23),144	3905,(10, 31),36	3941,(10, 40),4	3945,(10, 43),236	4181,(10, 47),56	4237,(10, 59),20	4257,(10, 71),372	4629,(10, 84),20	4649,(10, 90),32	4681,(10, 106),124	4805,(4, 41),36	4841,(12, 86),4	4845,(12, 106),8	4853,(10, 112),20	4873,(10, 118),44	4917,(10, 120),4	4921,(4, 43),60	4981,(4, 54),64	5045,(2, 24),16	5061,(2, 47),8	5069,(2, 49),244	5313,(2, 64),56	5369,(2, 112),32	5401,(5, 39),152	5553,(5, 64),60	5613,(5, 120),40	5653,(6, 31),16	5669,(6, 71),124	5793,(6, 97),12	5805,(57, 121),40	5845,(8, 84),4	5849,(48, 121),40	5889,(115, 121),40	5929,(110, 121),40	5969,(114, 121),40	6009,(67, 121),40	6049,(100, 121),40	6089,(81, 121),40	6129,(92, 121),40	6169,(98, 121),40	6209,(25, 121),40	6249,(68, 121),40	6289,(35, 121),40	6329,(12, 49),244	6573,(111, 121),40	6613,(14, 121),40	6653,(55, 121),40	6693,(101, 121),40	6733,(119, 121),40	6773,(94, 121),40	6813,(87, 121),40	6853,(77, 121),40	6893,(73, 121),40	6933,(32, 121),40	6973,(38, 121),40	7013,(29, 121),40	7053,(30, 121),40	7093,(28, 121),40	7133,(44, 121),40	7173,(42, 121),40	7213,(45, 121),40	7253,(18, 121),40	7293,(96, 121),40	7333,(20, 121),40	7373,(56, 121),40	7413,(16, 121),40	7453,(104, 121),40	7493,(53, 121),40	7533,(82, 121),40	7573,(76, 121),40	7613,(91, 121),40	7653,(19, 121),40	7693,(21, 121),40	7733,(102, 121),40	7773,(116, 121),40	7813,(66, 121),40	7853,(107, 121),40	7893,(13, 121),40	7933,(74, 121),40	7973,(62, 121),40	8013,(69, 121),40	8053,(83, 121),40	8093,(103, 121),40	8133,(33, 121),40	8173,(63, 121),40	8213,(75, 121),40	8253,(79, 121),40	8293,(88, 121),40	8333,(117, 121),40	8373,(51, 121),40	8413,(58, 121),40	8453,(70, 121),40	8493,(93, 121),40	8533,(105, 121),40	8573,(113, 121),40	8613,(46, 121),40	8653,(52, 121),40	8693,(72, 121),40	8733,(109, 121),40	8773,(27, 121),40	8813,(99, 121),40	8853,(108, 121),40	
# Outgoing
1,(0, 1),4	5,(0, 3),4	9,(0, 4),4	13,(0, 5),4	17,(0, 7),4	21,(0, 9),4	25,(0, 12),4	29,(11, 17),16	45,(11, 20),24	69,(11, 24),4	73,(11, 28),8	81,(11, 31),4	85,(11, 34),124	209,(11, 42),4	213,(11, 60),2108	2321,(11, 64),84	2405,(11, 65),492	2897,(11, 78),32	2929,(11, 79),12	2941,(11, 88),56	2997,(11, 95),8	3005,(11, 97),20	3025,(11, 105),8	3033,(11, 117),12	3045,(11, 120),528	3573,(10, 46),24	3597,(10, 51),8	3605,(10, 58),28	3633,(10, 70),24	3657,(10, 93),40	3697,(10, 105),8	3705,(10, 113),8	3713,(2, 46),4	3717,(6, 52),4	3721,(8, 72),4	3733,(10, 15),28	3761,(10, 23),144	3905,(10, 31),36	3941,(10, 40),4	3945,(10, 43),236	4181,(10, 47),56	4237,(10, 59),20	4257,(10, 71),372	4629,(10, 84),20	4649,(10, 90),32	4681,(10, 106),124	4805,(10, 109),48	4853,(10, 112),20	4873,(10, 118),44	4917,(10, 120),4	4921,(8, 27),40	4961,(8, 99),16	4977,(8, 108),12	5045,(2, 24),16	5061,(2, 47),8	5069,(2, 49),244	5313,(2, 64),56	5369,(2, 112),32	5653,(6, 31),16	5669,(6, 71),124	5793,(6, 97),12	5845,(8, 84),4	5889,(115, 121),40	5969,(114, 121),40	6049,(100, 121),40	6129,(92, 121),40	6209,(25, 121),40	6289,(35, 121),40	6573,(111, 121),40	6653,(55, 121),40	6733,(119, 121),40	6813,(87, 121),40	6893,(73, 121),40	6973,(38, 121),40	7053,(30, 121),40	7133,(44, 121),40	7213,(45, 121),40	7293,(96, 121),40	7373,(56, 121),40	7453,(104, 121),40	7533,(82, 121),40	7613,(91, 121),40	7653,(19, 121),40	7693,(21, 121),40	7733,(102, 121),40	7773,(116, 121),40	7813,(66, 121),40	7853,(107, 121),40	7893,(13, 121),40	7933,(74, 121),40	7973,(62, 121),40	8013,(69, 121),40	8053,(83, 121),40	8093,(103, 121),40	8133,(33, 121),40	8173,(63, 121),40	8213,(75, 121),40	
45,(1, 24),12	57,(1, 37),8	65,(1, 55),16	201,(4, 82),8	209,(1, 85),4	213,(4, 19),16	229,(4, 21),12	241,(4, 102),4	245,(4, 116),88	361,(5, 13),4	365,(5, 74),4	401,(12, 33),4	405,(12, 63),4	409,(12, 75),8	2929,(1, 65),24	2953,(4, 39),12	2965,(4, 78),4	2969,(5, 54),12	2981,(5, 60),12	2993,(12, 36),4	3025,(12, 41),4	3029,(12, 43),4	3033,(12, 50),4	3037,(12, 80),8	3573,(1, 39),160	4805,(4, 41),36	4841,(12, 86),4	4845,(12, 106),8	4921,(4, 43),60	4981,(4, 54),64	5401,(5, 39),152	5553,(5, 64),60	5613,(5, 120),40	5805,(57, 121),40	5849,(48, 121),40	5929,(110, 121),40	6009,(67, 121),40	6089,(81, 121),40	6169,(98, 121),40	6249,(68, 121),40	6329,(12, 49),244	6613,(14, 121),40	6693,(101, 121),40	6773,(94, 121),40	6853,(77, 121),40	6933,(32, 121),40	7013,(29, 121),40	7093,(28, 121),40	7173,(42, 121),40	7253,(18, 121),40	7333,(20, 121),40	7413,(16, 121),40	7493,(53, 121),40	7573,(76, 121),40	8253,(79, 121),40	8293,(88, 121),40	8333,(117, 121),40	8373,(51, 121),40	8413,(58, 121),40	8453,(70, 121),40	8493,(93, 121),40	8533,(105, 121),40	8573,(113, 121),40	8613,(46, 121),40	8653,(52, 121),40	8693,(72, 121),40	8733,(109, 121),40	8773,(27, 121),40	8813,(99, 121),40	8853,(108, 121),40	
81,(3, 44),16	97,(3, 45),12	109,(3, 75),4	113,(3, 104),64	177,(3, 107),24	201,(7, 27),4	209,(7, 91),4	213,(9, 16),8	221,(9, 18),8	229,(9, 20),8	333,(7, 66),24	357,(7, 107),4	369,(9, 62),16	385,(9, 69),8	393,(9, 83),4	397,(9, 103),4	
