682
# CPU
7,1,2	9,10,2	11,19,2	13,21,2	15,20,2	17,14,2	19,37,2	21,40,2	221,11,2	233,12,2	251,13,2	281,28,2	499,32,2	563,5,2	565,27,2	573,35,2	599,38,2	601,15,2	611,24,2	613,29,2	681,41,1	
0,0,1	1,4,2	3,3,2	5,2,2	7,7,2	9,9,2	11,36,2	13,22,2	15,39,2	17,16,2	19,34,2	21,8,2	23,33,2	25,30,2	27,25,2	29,23,2	31,18,2	33,26,2	35,17,2	37,31,2	39,6,2	
# Incoming
1,(0, 1),6	7,(4, 5),62	69,(4, 11),152	221,(4, 12),12	233,(4, 13),18	251,(4, 24),24	275,(4, 28),6	281,(4, 29),188	469,(4, 32),30	499,(4, 35),2	501,(4, 38),60	561,(3, 5),2	563,(3, 27),2	565,(3, 35),8	573,(3, 38),26	599,(2, 15),2	601,(2, 24),10	611,(2, 29),2	613,(7, 41),4	617,(9, 41),4	621,(36, 41),4	625,(22, 41),4	629,(39, 41),4	633,(16, 41),4	637,(34, 41),4	641,(8, 41),4	645,(33, 41),4	649,(30, 41),4	653,(25, 41),4	657,(23, 41),4	661,(18, 41),4	665,(26, 41),4	669,(17, 41),4	673,(31, 41),4	677,(6, 41),4	
9,(1, 6),2	
# Outgoing
9,(1, 6),2	
1,(0, 1),6	7,(4, 5),62	69,(4, 11),152	221,(4, 12),12	233,(4, 13),18	251,(4, 24),24	275,(4, 28),6	281,(4, 29),188	469,(4, 32),30	499,(4, 35),2	501,(4, 38),60	561,(3, 5),2	563,(3, 27),2	565,(3, 35),8	573,(3, 38),26	599,(2, 15),2	601,(2, 24),10	611,(2, 29),2	613,(7, 41),4	617,(9, 41),4	621,(36, 41),4	625,(22, 41),4	629,(39, 41),4	633,(16, 41),4	637,(34, 41),4	641,(8, 41),4	645,(33, 41),4	649,(30, 41),4	653,(25, 41),4	657,(23, 41),4	661,(18, 41),4	665,(26, 41),4	669,(17, 41),4	673,(31, 41),4	677,(6, 41),4	
