2882
# CPU
0,121,1	1,23,24	25,18,24	49,44,24	73,58,24	97,74,24	121,94,24	145,103,24	169,93,24	193,99,24	217,27,24	241,50,24	265,62,24	289,65,24	313,53,24	337,100,24	361,70,24	385,84,24	409,83,24	433,55,24	457,35,24	481,108,24	505,76,24	529,107,24	553,32,24	577,20,24	601,73,24	625,17,24	649,15,24	673,91,24	697,33,24	721,41,24	745,89,24	769,75,24	793,47,24	817,72,24	841,60,24	865,95,24	889,80,24	913,21,24	937,117,24	961,92,24	985,87,24	1009,14,24	1033,81,24	1057,69,24	1081,97,24	1105,68,24	1129,36,24	1153,96,24	1177,85,24	1201,115,24	1225,101,24	1249,49,24	1273,86,24	1297,90,24	1321,106,24	1345,25,24	1369,88,24	1393,61,24	1417,105,24	1441,51,24	1465,67,24	1489,31,24	1513,120,24	1537,37,24	1561,78,24	1585,52,24	1609,43,24	1633,22,24	1657,34,24	1681,48,24	1705,119,24	1729,102,24	1753,26,24	1777,79,24	1801,71,24	1825,109,24	1849,24,24	1873,54,24	1897,46,24	1921,118,24	1945,40,24	1969,16,24	1993,113,24	2017,77,24	2041,104,24	2065,42,24	2089,30,24	2113,59,24	2137,116,24	2161,114,24	2185,57,24	2209,64,24	2233,63,24	2257,19,24	2281,66,24	2305,28,24	2329,98,24	2353,82,24	2377,45,24	2401,38,24	2425,29,24	2449,39,24	2473,13,24	2497,110,24	2521,56,24	2545,111,24	2569,112,24	2593,4,24	2617,5,24	2641,1,24	2665,8,24	2689,12,24	2713,3,24	2737,10,24	2761,7,24	2785,2,24	2809,6,24	2833,9,24	2857,11,24	2881,0,1	
# Incoming

# Outgoing

