133
# CPU
0,0,1	1,2,1	2,119,1	3,95,1	4,41,1	5,32,1	6,74,1	7,86,1	8,108,1	9,39,1	10,63,1	11,7,1	12,15,1	13,48,1	14,17,1	15,3,1	16,51,1	17,78,1	18,89,1	19,81,1	20,85,1	21,6,1	22,111,1	23,110,1	24,102,1	25,84,1	26,80,1	27,79,1	28,18,1	29,45,1	30,14,1	31,115,1	32,68,1	33,8,1	34,72,1	35,73,1	36,112,1	37,96,1	38,16,1	39,88,1	40,12,1	41,105,1	42,35,1	43,56,1	44,23,1	45,77,1	46,70,1	47,76,1	48,33,1	49,26,1	50,40,1	51,97,1	52,4,1	53,13,1	54,36,1	55,118,1	56,116,1	57,61,1	58,106,1	59,92,1	60,67,1	61,31,1	62,71,1	63,91,1	64,9,1	65,64,1	66,60,1	67,37,1	68,101,1	69,107,1	70,28,1	71,27,1	72,38,1	73,10,1	74,114,1	75,62,1	76,30,1	77,93,1	78,19,1	79,100,1	80,1,1	81,47,1	82,82,1	83,21,1	84,58,1	85,49,1	86,65,1	87,99,1	88,29,1	89,52,1	90,103,1	91,44,1	132,121,1	
5,20,1	25,46,1	85,5,1	86,50,1	87,69,1	88,113,1	89,53,1	90,54,1	91,55,1	92,94,1	93,43,1	94,120,1	95,22,1	


55,11,1	56,66,1	57,42,1	58,83,1	59,90,1	60,109,1	61,24,1	62,87,1	63,98,1	64,57,1	65,104,1	66,25,1	67,59,1	68,34,1	69,117,1	70,75,1	
# Incoming
6,(20, 121),3	26,(46, 121),3	57,(66, 121),3	60,(42, 121),3	63,(83, 121),3	66,(90, 121),3	69,(109, 121),3	72,(24, 121),3	75,(87, 121),3	78,(98, 121),3	81,(57, 121),3	84,(104, 121),3	87,(25, 121),3	90,(59, 121),3	93,(34, 121),3	96,(117, 121),3	99,(75, 121),3	102,(50, 121),3	105,(69, 121),3	108,(113, 121),3	111,(53, 121),3	114,(54, 121),3	117,(55, 121),3	120,(94, 121),3	123,(43, 121),3	126,(120, 121),3	129,(22, 121),3	
2,(2, 20),3	22,(6, 46),3	55,(0, 5),30	


25,(0, 11),30	
# Outgoing
2,(2, 20),3	22,(6, 46),3	25,(0, 11),30	55,(0, 5),30	
6,(20, 121),3	26,(46, 121),3	102,(50, 121),3	105,(69, 121),3	108,(113, 121),3	111,(53, 121),3	114,(54, 121),3	117,(55, 121),3	120,(94, 121),3	123,(43, 121),3	126,(120, 121),3	129,(22, 121),3	


57,(66, 121),3	60,(42, 121),3	63,(83, 121),3	66,(90, 121),3	69,(109, 121),3	72,(24, 121),3	75,(87, 121),3	78,(98, 121),3	81,(57, 121),3	84,(104, 121),3	87,(25, 121),3	90,(59, 121),3	93,(34, 121),3	96,(117, 121),3	99,(75, 121),3	
