2073
# CPU
67,4,21	88,24,21	109,18,21	130,22,21	151,9,21	172,15,21	193,20,21	214,28,21	235,34,21	256,30,21	321,38,21	491,26,21	529,12,21	985,32,21	1013,36,21	1133,40,21	
45,3,21	66,8,21	87,14,21	108,21,21	129,29,21	150,11,21	171,17,21	215,23,21	236,25,21	257,35,21	299,27,21	581,37,21	1420,19,21	1546,31,21	1567,33,21	1588,39,21	2072,41,1	
23,2,21	44,6,21	949,16,21	1324,10,21	1406,13,21	
0,0,1	1,1,21	114,5,21	1280,7,21	
# Incoming
45,(0, 4),22	67,(2, 24),4	71,(2, 40),2	73,(3, 38),2	77,(1, 12),36	113,(2, 9),16	129,(2, 15),12	141,(2, 20),20	161,(2, 28),48	209,(2, 34),12	221,(3, 30),10	245,(1, 38),76	321,(2, 26),170	491,(3, 12),38	949,(3, 32),36	985,(3, 36),28	1013,(3, 40),120	
23,(0, 3),22	62,(2, 35),2	67,(1, 11),10	77,(2, 17),22	189,(1, 19),2	191,(1, 23),24	215,(1, 25),2	217,(1, 35),28	245,(2, 27),54	321,(5, 41),32	491,(2, 37),90	581,(6, 41),32	970,(16, 41),32	1301,(7, 41),32	1345,(10, 41),32	1406,(4, 19),14	1420,(4, 31),126	1546,(4, 33),10	1556,(4, 39),4	1560,(24, 41),32	1592,(18, 41),32	1624,(22, 41),32	1656,(9, 41),32	1688,(15, 41),32	1720,(20, 41),32	1752,(28, 41),32	1784,(34, 41),32	1816,(30, 41),32	1848,(38, 41),32	1880,(26, 41),32	1912,(12, 41),32	1944,(32, 41),32	1976,(36, 41),32	2008,(40, 41),32	2040,(13, 41),32	
1,(0, 2),22	113,(1, 16),76	529,(3, 16),420	1280,(4, 10),44	1324,(4, 13),82	
44,(2, 5),18	66,(3, 5),2	88,(4, 5),26	114,(4, 7),1166	
# Outgoing
88,(4, 5),26	114,(4, 7),1166	1280,(4, 10),44	1324,(4, 13),82	1406,(4, 19),14	1420,(4, 31),126	1546,(4, 33),10	1556,(4, 39),4	1560,(24, 41),32	1592,(18, 41),32	1624,(22, 41),32	1656,(9, 41),32	1688,(15, 41),32	1720,(20, 41),32	1752,(28, 41),32	1784,(34, 41),32	1816,(30, 41),32	1848,(38, 41),32	1880,(26, 41),32	1912,(12, 41),32	1944,(32, 41),32	1976,(36, 41),32	2008,(40, 41),32	
66,(3, 5),2	73,(3, 38),2	221,(3, 30),10	491,(3, 12),38	529,(3, 16),420	949,(3, 32),36	985,(3, 36),28	1013,(3, 40),120	
44,(2, 5),18	62,(2, 35),2	67,(2, 24),4	71,(2, 40),2	77,(2, 17),22	113,(2, 9),16	129,(2, 15),12	141,(2, 20),20	161,(2, 28),48	209,(2, 34),12	245,(2, 27),54	321,(2, 26),170	491,(2, 37),90	581,(6, 41),32	970,(16, 41),32	1345,(10, 41),32	2040,(13, 41),32	
1,(0, 2),22	23,(0, 3),22	45,(0, 4),22	67,(1, 11),10	77,(1, 12),36	113,(1, 16),76	189,(1, 19),2	191,(1, 23),24	215,(1, 25),2	217,(1, 35),28	245,(1, 38),76	321,(5, 41),32	1301,(7, 41),32	
