402
# CPU
0,41,1	1,15,10	11,32,10	21,22,10	31,40,10	41,35,10	51,36,10	61,31,10	71,28,10	81,20,10	91,12,10	101,19,10	111,11,10	121,13,10	131,7,10	141,29,10	151,37,10	161,34,10	171,23,10	181,25,10	191,5,10	201,21,10	211,10,10	221,26,10	231,8,10	241,3,10	251,1,10	261,4,10	391,2,10	401,0,1	
73,27,10	91,18,10	109,30,10	145,17,10	163,38,10	181,14,10	
19,33,10	



55,9,10	

37,24,10	
127,6,10	199,16,10	217,39,10	
# Incoming
47,(24, 3),2	49,(33, 1),2	65,(9, 4),2	101,(18, 3),4	105,(27, 2),2	107,(18, 2),4	119,(30, 1),6	125,(30, 2),6	137,(6, 4),12	155,(17, 4),32	187,(38, 4),34	221,(14, 4),38	259,(16, 2),52	311,(39, 2),80	
55,(41, 27),18	73,(41, 18),18	91,(41, 30),18	127,(41, 17),18	145,(41, 38),18	163,(41, 14),18	
1,(41, 33),18	



37,(41, 9),18	

19,(41, 24),18	
109,(41, 6),18	181,(41, 16),18	199,(41, 39),18	
# Outgoing
1,(41, 33),18	19,(41, 24),18	37,(41, 9),18	55,(41, 27),18	73,(41, 18),18	91,(41, 30),18	109,(41, 6),18	127,(41, 17),18	145,(41, 38),18	163,(41, 14),18	181,(41, 16),18	199,(41, 39),18	
101,(18, 3),4	105,(27, 2),2	107,(18, 2),4	119,(30, 1),6	125,(30, 2),6	155,(17, 4),32	187,(38, 4),34	221,(14, 4),38	
49,(33, 1),2	



65,(9, 4),2	

47,(24, 3),2	
137,(6, 4),12	259,(16, 2),52	311,(39, 2),80	
