1462
# CPU
9,3,9	18,6,9	27,41,9	36,44,9	45,13,9	54,19,9	63,65,9	72,24,9	81,29,9	189,31,9	198,33,9	225,53,9	273,22,9	282,23,9	345,50,9	365,68,9	389,12,9	433,71,9	565,80,9	693,26,9	761,35,9	770,74,9	779,11,9	788,18,9	825,27,9	845,17,9	901,21,9	913,59,9	1269,78,9	1293,20,9	1309,38,9	1318,47,9	1329,56,9	1369,62,9	1378,76,9	
5,2,9	14,5,9	23,52,9	32,77,9	41,30,9	50,8,9	59,75,9	68,67,9	77,73,9	86,61,9	95,32,9	104,55,9	113,28,9	122,37,9	131,43,9	155,79,9	213,49,9	361,64,9	409,16,9	418,34,9	705,58,9	773,10,9	782,14,9	793,40,9	817,46,9	937,70,9	
0,0,1	1,4,9	10,1,9	19,7,9	28,15,9	37,66,9	46,51,9	55,42,9	64,25,9	73,69,9	82,60,9	91,48,9	100,39,9	109,36,9	118,54,9	429,57,9	745,9,9	761,63,9	1229,72,9	1313,45,9	1461,81,1	
# Incoming
5,(0, 3),4	13,(0, 6),4	21,(4, 31),168	189,(4, 33),4	213,(4, 53),12	225,(2, 22),48	273,(2, 23),4	277,(2, 50),68	361,(4, 68),4	365,(1, 12),24	429,(2, 71),4	433,(2, 80),132	565,(1, 17),64	629,(1, 26),64	693,(1, 35),68	761,(1, 74),4	765,(5, 11),4	769,(5, 18),4	773,(5, 27),52	825,(7, 17),20	845,(7, 21),56	901,(7, 59),12	1229,(5, 78),40	1277,(8, 20),16	1293,(8, 38),16	1313,(8, 47),4	1317,(8, 56),12	1329,(8, 62),40	1369,(8, 76),4	
1,(0, 2),4	9,(0, 5),4	17,(0, 8),4	21,(3, 61),4	27,(6, 10),16	43,(6, 32),12	55,(6, 40),8	63,(6, 43),44	107,(6, 70),4	111,(6, 79),44	193,(4, 49),20	225,(4, 64),136	389,(1, 16),20	409,(1, 34),4	413,(1, 70),48	461,(6, 58),244	765,(7, 10),8	773,(7, 14),8	781,(7, 40),12	793,(7, 46),24	913,(7, 70),24	
345,(2, 57),84	429,(41, 81),4	433,(44, 81),4	437,(13, 81),4	441,(19, 81),4	445,(65, 81),4	449,(24, 81),4	453,(29, 81),4	457,(31, 81),4	565,(5, 9),180	745,(5, 63),16	761,(52, 81),4	765,(33, 81),4	769,(53, 81),4	773,(22, 81),4	777,(23, 81),4	781,(50, 81),4	785,(68, 81),4	789,(12, 81),4	793,(71, 81),4	797,(80, 81),4	801,(26, 81),4	805,(35, 81),4	809,(74, 81),4	813,(11, 81),4	817,(18, 81),4	825,(5, 72),404	1229,(27, 81),4	1233,(17, 81),4	1237,(21, 81),4	1241,(59, 81),4	1269,(77, 81),4	1273,(30, 81),4	1278,(78, 81),4	1302,(20, 81),4	1309,(8, 45),4	1318,(38, 81),4	1327,(47, 81),4	1338,(56, 81),4	1373,(75, 81),4	1377,(67, 81),4	1381,(73, 81),4	1385,(61, 81),4	1389,(32, 81),4	1393,(55, 81),4	1397,(28, 81),4	1401,(37, 81),4	1405,(43, 81),4	1409,(79, 81),4	1413,(49, 81),4	1417,(64, 81),4	1421,(16, 81),4	1425,(34, 81),4	1429,(58, 81),4	1433,(10, 81),4	1437,(14, 81),4	1441,(40, 81),4	1445,(46, 81),4	1449,(70, 81),4	1453,(62, 81),4	1457,(76, 81),4	
# Outgoing
21,(3, 61),4	27,(6, 10),16	43,(6, 32),12	55,(6, 40),8	63,(6, 43),44	107,(6, 70),4	111,(6, 79),44	429,(41, 81),4	433,(44, 81),4	437,(13, 81),4	441,(19, 81),4	445,(65, 81),4	449,(24, 81),4	453,(29, 81),4	457,(31, 81),4	461,(6, 58),244	765,(33, 81),4	769,(53, 81),4	773,(22, 81),4	777,(23, 81),4	781,(50, 81),4	785,(68, 81),4	789,(12, 81),4	793,(71, 81),4	797,(80, 81),4	801,(26, 81),4	805,(35, 81),4	809,(74, 81),4	813,(11, 81),4	817,(18, 81),4	1229,(27, 81),4	1233,(17, 81),4	1237,(21, 81),4	1241,(59, 81),4	1278,(78, 81),4	1302,(20, 81),4	1318,(38, 81),4	1327,(47, 81),4	1338,(56, 81),4	1453,(62, 81),4	1457,(76, 81),4	
225,(2, 22),48	273,(2, 23),4	277,(2, 50),68	345,(2, 57),84	429,(2, 71),4	433,(2, 80),132	565,(5, 9),180	745,(5, 63),16	761,(52, 81),4	765,(5, 11),4	769,(5, 18),4	773,(5, 27),52	825,(5, 72),404	1229,(5, 78),40	1269,(77, 81),4	1273,(30, 81),4	1277,(8, 20),16	1293,(8, 38),16	1309,(8, 45),4	1313,(8, 47),4	1317,(8, 56),12	1329,(8, 62),40	1369,(8, 76),4	1373,(75, 81),4	1377,(67, 81),4	1381,(73, 81),4	1385,(61, 81),4	1389,(32, 81),4	1393,(55, 81),4	1397,(28, 81),4	1401,(37, 81),4	1405,(43, 81),4	1409,(79, 81),4	1413,(49, 81),4	1417,(64, 81),4	1421,(16, 81),4	1425,(34, 81),4	1429,(58, 81),4	1433,(10, 81),4	1437,(14, 81),4	1441,(40, 81),4	1445,(46, 81),4	1449,(70, 81),4	
1,(0, 2),4	5,(0, 3),4	9,(0, 5),4	13,(0, 6),4	17,(0, 8),4	21,(4, 31),168	189,(4, 33),4	193,(4, 49),20	213,(4, 53),12	225,(4, 64),136	361,(4, 68),4	365,(1, 12),24	389,(1, 16),20	409,(1, 34),4	413,(1, 70),48	565,(1, 17),64	629,(1, 26),64	693,(1, 35),68	761,(1, 74),4	765,(7, 10),8	773,(7, 14),8	781,(7, 40),12	793,(7, 46),24	825,(7, 17),20	845,(7, 21),56	901,(7, 59),12	913,(7, 70),24	
