55445
# CPU
541,10,4	1720,33,4	1819,38,4	2536,67,4	2569,79,4	2695,87,4	32932,69,4	33238,71,4	33250,73,4	34951,43,4	34966,48,4	35047,54,4	35051,57,4	35155,62,4	36565,95,4	36700,102,4	36769,109,4	36820,115,4	
481,9,4	1900,42,4	2911,86,4	4477,65,4	32839,55,4	32929,68,4	33604,101,4	33778,107,4	33964,114,4	34696,120,4	34756,30,4	34960,47,4	34984,52,4	35131,61,4	35311,70,4	35338,72,4	36253,78,4	36409,94,4	
421,8,4	1588,91,4	2026,60,4	2152,40,4	2263,77,4	34693,119,4	34753,29,4	34957,46,4	34972,49,4	35194,63,4	36379,85,4	36658,100,4	36748,105,4	36814,112,4	
361,7,4	826,26,4	34936,41,4	35005,53,4	35101,59,4	36250,76,4	36295,83,4	36385,89,4	36643,99,4	36703,104,4	36787,111,4	37354,118,4	
301,6,4	2920,110,4	32644,45,4	32701,50,4	32716,51,4	33652,103,4	34714,24,4	34855,37,4	36247,75,4	36262,82,4	36382,88,4	36622,96,4	37351,117,4	
241,5,4	2146,80,4	32029,22,4	32125,36,4	33520,93,4	34843,34,4	36388,92,4	36751,106,4	36817,113,4	36823,116,4	
181,4,4	33466,90,4	33781,108,4	34708,21,4	34759,31,4	35098,58,4	36355,84,4	55444,121,1	
121,3,4	1192,15,4	1315,35,4	1666,97,4	1711,27,4	33568,98,4	34705,20,4	34750,25,4	34954,44,4	
61,2,4	601,12,4	32089,14,4	32626,32,4	33100,23,4	33289,81,4	34699,17,4	34703,19,4	34930,39,4	35287,64,4	
0,0,1	1,1,4	5,11,4	1618,16,4	1726,66,4	1825,56,4	1843,13,4	1891,18,4	2035,28,4	3592,74,4	
# Incoming
481,(0, 10),60	541,(2, 33),15	556,(2, 38),6	562,(2, 43),6	568,(2, 54),9	577,(4, 33),3	580,(4, 38),6	586,(6, 33),3	589,(3, 33),30	619,(7, 48),21	640,(7, 57),9	649,(9, 38),3	652,(9, 48),3	655,(9, 54),6	661,(9, 102),3	664,(7, 62),9	673,(4, 54),21	694,(7, 67),6	700,(8, 54),3	703,(8, 67),3	706,(8, 69),3	709,(6, 57),3	715,(7, 79),15	731,(5, 33),72	803,(6, 67),21	824,(6, 73),6	830,(5, 79),3	833,(7, 87),21	854,(8, 87),3	857,(8, 102),9	866,(6, 115),21	887,(8, 109),3	895,(3, 38),78	973,(4, 87),6	979,(4, 95),3	982,(4, 115),3	994,(2, 67),27	1021,(2, 69),9	1030,(2, 71),3	1033,(3, 57),15	1048,(3, 71),6	1054,(3, 73),3	1057,(3, 79),12	1069,(3, 109),3	1072,(9, 57),15	1093,(4, 67),57	1150,(8, 43),15	1177,(5, 62),18	1195,(5, 67),9	1204,(5, 69),30	1234,(5, 71),12	1246,(5, 95),3	1249,(2, 95),3	1252,(6, 38),84	1336,(9, 33),30	1390,(3, 67),36	1426,(8, 115),6	1438,(2, 109),18	1492,(5, 109),57	1549,(7, 71),36	1600,(5, 115),18	1621,(3, 69),39	1660,(7, 33),60	1720,(7, 38),99	1819,(7, 69),81	1900,(8, 48),57	1957,(8, 71),234	2191,(9, 62),153	2344,(9, 71),45	2389,(9, 95),90	2479,(12, 43),6	2485,(12, 48),12	2497,(12, 54),9	2506,(12, 57),21	2527,(12, 62),6	2533,(12, 67),3	2536,(12, 69),18	2554,(12, 79),15	2578,(12, 95),3	2581,(12, 102),15	2596,(12, 109),12	2614,(3, 87),42	2656,(12, 87),39	2971,(3, 115),15	2986,(7, 109),327	32149,(1, 43),144	32821,(1, 54),3	32902,(1, 62),3	32929,(1, 69),3	33223,(1, 71),15	33241,(1, 73),9	33520,(1, 95),21	33604,(1, 102),45	33781,(1, 109),3	34936,(11, 43),15	34960,(11, 48),6	35005,(11, 54),42	35047,(11, 57),3	35131,(11, 62),24	36409,(11, 95),156	36658,(11, 102),42	36751,(11, 109),18	36817,(11, 115),3	
421,(0, 9),60	481,(2, 47),27	508,(3, 30),15	523,(3, 65),6	529,(3, 86),6	535,(2, 78),3	538,(2, 86),3	541,(4, 30),9	550,(4, 42),12	562,(4, 47),9	571,(4, 61),3	574,(4, 101),3	577,(7, 30),3	581,(6, 78),3	584,(10, 52),18	607,(7, 47),3	610,(7, 55),3	613,(10, 55),9	622,(10, 78),9	634,(10, 86),9	649,(7, 61),15	673,(7, 72),9	688,(10, 101),6	694,(4, 55),141	835,(5, 42),63	898,(6, 55),9	907,(8, 68),3	910,(4, 114),6	916,(6, 65),9	925,(6, 70),18	943,(8, 30),6	949,(8, 47),6	967,(10, 107),3	973,(3, 42),27	1000,(3, 94),3	1003,(3, 101),3	1012,(5, 47),9	1021,(6, 94),15	1054,(5, 52),15	1069,(6, 120),24	1093,(5, 55),9	1102,(8, 61),12	1114,(8, 107),9	1123,(8, 120),3	1126,(5, 70),3	1132,(5, 86),3	1135,(6, 30),108	1243,(7, 107),30	1273,(7, 114),18	1300,(5, 72),21	1336,(6, 72),54	1405,(2, 107),33	1438,(3, 68),183	1621,(5, 107),12	1660,(3, 72),42	1702,(6, 61),90	1792,(6, 68),102	1894,(12, 42),6	1900,(7, 70),396	2296,(7, 120),162	2458,(8, 52),51	2509,(8, 72),99	2608,(8, 86),45	2653,(10, 65),72	2725,(10, 68),36	2761,(12, 52),12	2773,(12, 61),3	2776,(12, 65),3	2779,(12, 70),3	2782,(12, 78),3	2785,(12, 94),3	2872,(12, 86),39	2911,(12, 107),33	2944,(12, 120),63	3040,(3, 120),15	4081,(8, 65),396	32059,(1, 30),3	32665,(1, 47),27	32716,(1, 52),48	32824,(1, 55),15	32917,(1, 68),12	32932,(1, 70),291	33238,(1, 72),3	33598,(1, 101),6	33727,(1, 107),51	33958,(1, 114),6	34693,(1, 120),3	34753,(11, 30),3	34957,(11, 47),3	34972,(11, 52),12	35101,(11, 61),30	35287,(11, 70),24	35311,(11, 72),27	36250,(11, 78),3	36388,(11, 94),21	
361,(0, 8),60	421,(2, 29),24	445,(2, 40),3	448,(2, 46),12	460,(3, 49),12	472,(3, 85),3	475,(3, 112),3	478,(4, 29),9	487,(3, 91),12	499,(3, 100),9	508,(2, 77),27	535,(3, 29),54	589,(6, 29),3	592,(6, 40),24	616,(6, 46),33	649,(6, 49),60	709,(7, 40),6	715,(9, 85),3	718,(9, 100),3	721,(9, 119),3	724,(6, 63),30	754,(6, 77),3	757,(7, 85),9	766,(7, 105),6	772,(6, 112),6	778,(7, 63),21	799,(7, 112),3	802,(10, 29),12	814,(10, 46),3	824,(5, 40),3	835,(4, 63),24	859,(4, 77),36	895,(4, 100),3	898,(4, 105),9	907,(4, 112),3	910,(9, 40),39	949,(4, 119),3	952,(7, 77),51	1006,(5, 46),6	1012,(10, 40),6	1021,(5, 49),33	1054,(10, 60),15	1075,(2, 85),126	1201,(2, 91),48	1249,(5, 60),51	1300,(7, 46),57	1363,(2, 100),27	1390,(10, 91),12	1402,(2, 105),3	1405,(10, 119),9	1414,(5, 77),9	1447,(5, 91),36	1504,(2, 112),6	1510,(6, 91),78	1591,(2, 119),75	1666,(5, 63),324	1990,(9, 60),36	2026,(9, 105),81	2107,(10, 63),39	2146,(12, 29),3	2149,(12, 40),3	2152,(12, 49),18	2170,(12, 77),15	2185,(3, 77),78	2263,(10, 100),291	2569,(12, 85),9	2722,(3, 105),96	32644,(1, 46),21	32905,(1, 63),12	33346,(1, 85),3	33580,(1, 100),18	33652,(1, 105),15	33793,(1, 112),3	33976,(1, 119),717	34750,(11, 29),3	34954,(11, 46),3	34966,(11, 49),6	35155,(11, 63),39	36355,(11, 85),24	36643,(11, 100),15	36703,(11, 105),45	36787,(11, 112),27	
301,(0, 7),60	361,(2, 41),6	367,(2, 59),24	391,(2, 83),30	421,(4, 53),6	427,(3, 53),3	430,(3, 83),6	436,(4, 99),9	445,(4, 104),12	460,(2, 89),12	472,(2, 99),9	481,(3, 89),6	515,(6, 41),9	569,(6, 53),9	578,(8, 53),3	581,(10, 118),3	586,(4, 41),87	673,(9, 53),3	676,(9, 89),6	686,(8, 26),12	698,(9, 104),9	712,(6, 59),12	724,(8, 111),6	730,(9, 76),15	745,(9, 111),21	769,(6, 111),3	772,(9, 26),45	817,(10, 26),9	827,(5, 41),3	830,(8, 76),18	848,(9, 118),18	916,(4, 118),33	949,(10, 76),18	970,(10, 111),21	1069,(5, 53),24	1135,(5, 104),3	1165,(8, 59),39	1204,(8, 89),24	1321,(5, 76),93	1423,(5, 83),24	1456,(2, 111),48	1558,(2, 118),33	1633,(5, 111),30	1750,(12, 41),15	1879,(3, 76),306	2185,(12, 59),39	2224,(12, 76),6	2230,(12, 83),30	2260,(12, 99),12	2656,(3, 104),66	2722,(5, 118),12	2920,(3, 111),51	2986,(3, 118),54	3592,(10, 104),285	4477,(8, 99),1950	32137,(1, 41),12	32764,(1, 53),57	32839,(1, 59),63	33250,(1, 76),3	33289,(1, 83),57	33568,(1, 99),12	33784,(1, 111),9	33967,(1, 118),9	34930,(11, 41),6	34984,(11, 53),21	35098,(11, 59),3	36247,(11, 76),3	36262,(11, 83),33	36382,(11, 89),3	36622,(11, 99),21	36700,(11, 104),3	36769,(11, 111),18	37351,(11, 118),3	
241,(0, 6),60	301,(2, 37),18	319,(2, 45),6	325,(2, 75),24	349,(2, 88),3	352,(3, 24),42	394,(3, 37),27	421,(3, 45),6	427,(4, 37),3	430,(4, 50),3	433,(4, 88),3	436,(3, 88),21	457,(4, 82),15	472,(4, 103),6	487,(4, 51),24	511,(4, 96),9	520,(4, 110),3	545,(7, 37),3	548,(7, 51),3	551,(7, 82),9	560,(7, 96),3	563,(7, 117),3	566,(5, 24),3	569,(9, 96),3	572,(8, 37),3	575,(10, 24),3	580,(7, 45),27	607,(9, 37),12	619,(9, 103),3	622,(9, 110),9	631,(10, 75),3	643,(10, 88),30	673,(10, 96),15	709,(8, 75),6	730,(7, 103),18	748,(10, 110),36	803,(5, 37),21	955,(8, 51),42	1006,(3, 103),27	1033,(2, 82),42	1075,(3, 50),63	1138,(5, 50),9	1147,(5, 51),30	1252,(2, 96),111	1390,(2, 103),12	1426,(3, 117),9	1435,(8, 103),33	1489,(5, 103),3	1549,(5, 110),51	1702,(3, 75),177	1879,(9, 50),105	1990,(5, 82),699	2689,(7, 110),114	2803,(12, 50),33	2836,(12, 75),33	2869,(12, 82),3	2893,(3, 110),27	2920,(9, 88),144	3064,(12, 96),6	3457,(12, 103),9	3466,(12, 117),3	32047,(1, 24),9	32125,(1, 37),12	32605,(1, 45),39	32692,(1, 50),9	32701,(1, 51),15	33349,(1, 88),90	33649,(1, 103),3	33964,(1, 117),3	34708,(11, 24),6	34843,(11, 37),12	35338,(11, 75),909	36253,(11, 82),9	36379,(11, 88),3	36565,(11, 96),57	36823,(11, 117),528	
181,(0, 5),60	241,(2, 22),6	247,(2, 34),12	259,(2, 113),6	265,(3, 22),18	283,(3, 106),6	289,(3, 113),12	301,(4, 22),18	319,(4, 34),3	322,(4, 36),6	328,(4, 106),3	416,(7, 22),9	446,(6, 34),27	476,(6, 36),30	506,(7, 34),6	512,(7, 36),33	569,(7, 113),6	575,(9, 36),12	587,(9, 80),3	590,(9, 116),3	602,(10, 80),6	619,(3, 36),276	895,(6, 92),3	898,(8, 116),9	907,(6, 106),3	910,(8, 36),30	943,(6, 80),30	1003,(7, 92),81	1129,(8, 113),18	1150,(4, 113),156	1306,(8, 22),81	1387,(9, 34),63	1450,(10, 93),60	1510,(2, 116),48	1558,(4, 80),402	1960,(12, 22),3	2035,(12, 34),21	2056,(12, 36),42	2098,(12, 80),48	2272,(12, 113),48	2320,(12, 116),141	3877,(10, 106),156	32023,(1, 22),6	32116,(1, 34),6	32122,(1, 36),3	33466,(1, 93),54	33667,(1, 106),60	33796,(1, 113),162	34759,(11, 34),84	36385,(11, 92),3	36748,(11, 106),3	36814,(11, 113),3	36820,(11, 116),3	
121,(0, 4),60	181,(2, 21),3	184,(2, 84),24	208,(2, 108),30	238,(3, 31),6	413,(7, 21),3	434,(7, 31),3	440,(7, 58),3	530,(9, 21),39	578,(6, 58),3	581,(8, 21),105	686,(9, 84),12	698,(10, 84),39	737,(10, 90),3	757,(6, 84),9	766,(6, 90),3	826,(10, 31),96	1102,(5, 58),12	1129,(5, 84),3	1666,(12, 21),3	1711,(12, 31),39	2263,(3, 84),351	2695,(12, 90),66	2818,(3, 108),75	2893,(8, 31),1188	4081,(26, 121),270	4351,(15, 121),270	4621,(35, 121),270	4891,(97, 121),270	5161,(27, 121),270	5431,(33, 121),270	5701,(38, 121),270	5971,(42, 121),270	6427,(91, 121),270	6697,(60, 121),270	6967,(80, 121),270	7237,(40, 121),270	7507,(77, 121),270	7777,(67, 121),270	8047,(79, 121),270	8317,(87, 121),270	8587,(86, 121),270	8857,(110, 121),270	9127,(65, 121),270	32062,(1, 31),27	32314,(22, 121),270	32584,(14, 121),270	32854,(36, 121),270	33124,(32, 121),270	33439,(1, 90),27	33466,(45, 121),270	33778,(1, 108),3	33781,(50, 121),270	34051,(51, 121),270	34321,(55, 121),270	34705,(11, 21),3	34756,(11, 31),3	34759,(68, 121),270	35050,(11, 58),48	35098,(69, 121),270	35368,(23, 121),270	35638,(71, 121),270	35908,(73, 121),270	36295,(11, 84),60	36355,(81, 121),270	36625,(93, 121),270	36895,(98, 121),270	37354,(16, 121),270	37624,(66, 121),270	37894,(56, 121),270	38164,(13, 121),270	38434,(18, 121),270	38704,(28, 121),270	38974,(74, 121),270	39244,(101, 121),270	39514,(103, 121),270	39784,(107, 121),270	40054,(114, 121),270	40324,(119, 121),270	40594,(120, 121),270	40864,(17, 121),270	41134,(19, 121),270	41404,(20, 121),270	41674,(24, 121),270	41944,(25, 121),270	42214,(29, 121),270	42484,(30, 121),270	42754,(34, 121),270	43024,(37, 121),270	43294,(39, 121),270	43564,(41, 121),270	43834,(43, 121),270	44104,(44, 121),270	44374,(46, 121),270	44644,(47, 121),270	44914,(48, 121),270	45184,(49, 121),270	45454,(52, 121),270	45724,(53, 121),270	45994,(54, 121),270	46264,(57, 121),270	46534,(59, 121),270	46804,(61, 121),270	47074,(62, 121),270	47344,(63, 121),270	47614,(64, 121),270	47884,(70, 121),270	48154,(72, 121),270	48424,(75, 121),270	48694,(76, 121),270	48964,(78, 121),270	49234,(82, 121),270	49504,(83, 121),270	49774,(85, 121),270	50044,(88, 121),270	50314,(89, 121),270	50584,(92, 121),270	50854,(94, 121),270	51124,(95, 121),270	51394,(96, 121),270	51664,(99, 121),270	51934,(100, 121),270	52204,(102, 121),270	52474,(104, 121),270	52744,(105, 121),270	53014,(106, 121),270	53284,(109, 121),270	53554,(111, 121),270	53824,(112, 121),270	54094,(113, 121),270	54364,(115, 121),270	54634,(116, 121),270	54904,(117, 121),270	55174,(118, 121),270	
61,(0, 3),60	121,(2, 20),6	127,(2, 25),42	169,(2, 35),3	172,(2, 44),3	197,(4, 15),3	206,(4, 20),3	209,(4, 25),3	212,(4, 27),3	215,(4, 97),6	383,(6, 25),3	386,(6, 27),57	443,(7, 15),9	452,(7, 20),15	467,(7, 98),3	473,(6, 35),3	476,(7, 25),12	488,(7, 44),12	500,(9, 15),18	524,(6, 44),45	569,(5, 27),162	731,(8, 15),93	824,(8, 27),6	830,(6, 98),36	866,(8, 25),12	878,(8, 35),6	884,(9, 35),12	898,(5, 44),108	1006,(8, 20),96	1102,(9, 27),69	1171,(9, 44),18	1189,(10, 15),3	1192,(10, 20),3	1195,(10, 27),27	1228,(8, 98),30	1258,(10, 35),57	1483,(5, 98),6	1510,(10, 97),156	1669,(12, 27),42	1765,(12, 44),75	3070,(12, 98),387	32020,(1, 20),3	32056,(1, 25),3	32293,(1, 44),312	33541,(1, 98),27	34702,(11, 20),3	34714,(11, 25),36	34951,(11, 44),3	
1,(0, 2),60	137,(3, 17),66	203,(4, 19),3	206,(3, 32),6	212,(3, 39),9	221,(3, 64),3	224,(4, 23),3	227,(4, 64),9	305,(6, 14),78	383,(7, 14),27	410,(7, 17),3	425,(7, 23),9	437,(7, 32),3	443,(6, 32),3	485,(9, 14),3	488,(9, 17),6	494,(9, 23),6	506,(6, 39),9	518,(9, 19),12	541,(0, 12),60	601,(1, 14),27	628,(1, 19),31392	32020,(5, 17),3	32023,(5, 19),3	32026,(6, 64),3	32029,(1, 23),18	32047,(5, 64),15	32062,(8, 14),3	32065,(8, 32),15	32080,(8, 64),3	32083,(10, 14),6	32089,(1, 32),27	32116,(5, 32),198	32314,(7, 19),180	32494,(8, 17),36	32530,(8, 19),36	32566,(9, 32),60	32626,(9, 81),447	33073,(10, 17),3	33076,(10, 19),6	33082,(10, 23),18	33253,(1, 81),36	34696,(11, 17),3	34699,(11, 19),3	34855,(11, 39),75	35194,(11, 64),93	
65,(2, 16),27	92,(2, 18),3	125,(3, 13),12	185,(4, 13),12	200,(4, 16),3	203,(3, 28),3	236,(4, 74),54	290,(5, 16),276	566,(7, 56),3	569,(8, 13),3	572,(10, 13),3	577,(2, 66),417	994,(4, 56),99	1093,(6, 66),12	1105,(7, 66),9	1114,(5, 66),12	1126,(8, 74),3	1129,(10, 16),6	1138,(3, 56),252	1390,(6, 16),39	1429,(6, 74),36	1465,(7, 28),51	1516,(7, 74),15	1531,(8, 16),87	1618,(8, 66),108	1726,(9, 56),99	1825,(10, 18),15	1840,(12, 13),3	1843,(12, 18),48	1963,(12, 28),72	2761,(10, 74),831	
# Outgoing
572,(10, 13),3	575,(10, 24),3	581,(10, 118),3	584,(10, 52),18	602,(10, 80),6	613,(10, 55),9	622,(10, 78),9	631,(10, 75),3	634,(10, 86),9	643,(10, 88),30	673,(10, 96),15	688,(10, 101),6	698,(10, 84),39	737,(10, 90),3	748,(10, 110),36	802,(10, 29),12	814,(10, 46),3	817,(10, 26),9	826,(10, 31),96	949,(10, 76),18	967,(10, 107),3	970,(10, 111),21	1012,(10, 40),6	1054,(10, 60),15	1129,(10, 16),6	1189,(10, 15),3	1192,(10, 20),3	1195,(10, 27),27	1258,(10, 35),57	1390,(10, 91),12	1405,(10, 119),9	1450,(10, 93),60	1510,(10, 97),156	1825,(10, 18),15	2107,(10, 63),39	2263,(10, 100),291	2653,(10, 65),72	2725,(10, 68),36	2761,(10, 74),831	3592,(10, 104),285	3877,(10, 106),156	5431,(33, 121),270	5701,(38, 121),270	7777,(67, 121),270	8047,(79, 121),270	8317,(87, 121),270	32083,(10, 14),6	33073,(10, 17),3	33076,(10, 19),6	33082,(10, 23),18	35098,(69, 121),270	35638,(71, 121),270	35908,(73, 121),270	43834,(43, 121),270	44914,(48, 121),270	45994,(54, 121),270	46264,(57, 121),270	47074,(62, 121),270	51124,(95, 121),270	52204,(102, 121),270	53284,(109, 121),270	54364,(115, 121),270	
485,(9, 14),3	488,(9, 17),6	494,(9, 23),6	500,(9, 15),18	518,(9, 19),12	530,(9, 21),39	569,(9, 96),3	575,(9, 36),12	587,(9, 80),3	590,(9, 116),3	607,(9, 37),12	619,(9, 103),3	622,(9, 110),9	649,(9, 38),3	652,(9, 48),3	655,(9, 54),6	661,(9, 102),3	673,(9, 53),3	676,(9, 89),6	686,(9, 84),12	698,(9, 104),9	715,(9, 85),3	718,(9, 100),3	721,(9, 119),3	730,(9, 76),15	745,(9, 111),21	772,(9, 26),45	848,(9, 118),18	884,(9, 35),12	910,(9, 40),39	1072,(9, 57),15	1102,(9, 27),69	1171,(9, 44),18	1336,(9, 33),30	1387,(9, 34),63	1726,(9, 56),99	1879,(9, 50),105	1990,(9, 60),36	2026,(9, 105),81	2191,(9, 62),153	2344,(9, 71),45	2389,(9, 95),90	2920,(9, 88),144	5971,(42, 121),270	8587,(86, 121),270	9127,(65, 121),270	32566,(9, 32),60	32626,(9, 81),447	34321,(55, 121),270	34759,(68, 121),270	39244,(101, 121),270	39784,(107, 121),270	40054,(114, 121),270	40594,(120, 121),270	42484,(30, 121),270	44644,(47, 121),270	45454,(52, 121),270	46804,(61, 121),270	47884,(70, 121),270	48154,(72, 121),270	48964,(78, 121),270	50854,(94, 121),270	
569,(8, 13),3	572,(8, 37),3	578,(8, 53),3	581,(8, 21),105	686,(8, 26),12	700,(8, 54),3	703,(8, 67),3	706,(8, 69),3	709,(8, 75),6	724,(8, 111),6	731,(8, 15),93	824,(8, 27),6	830,(8, 76),18	854,(8, 87),3	857,(8, 102),9	866,(8, 25),12	878,(8, 35),6	887,(8, 109),3	898,(8, 116),9	907,(8, 68),3	910,(8, 36),30	943,(8, 30),6	949,(8, 47),6	955,(8, 51),42	1006,(8, 20),96	1102,(8, 61),12	1114,(8, 107),9	1123,(8, 120),3	1126,(8, 74),3	1129,(8, 113),18	1150,(8, 43),15	1165,(8, 59),39	1204,(8, 89),24	1228,(8, 98),30	1306,(8, 22),81	1426,(8, 115),6	1435,(8, 103),33	1531,(8, 16),87	1618,(8, 66),108	1900,(8, 48),57	1957,(8, 71),234	2458,(8, 52),51	2509,(8, 72),99	2608,(8, 86),45	2893,(8, 31),1188	4081,(8, 65),396	4477,(8, 99),1950	6427,(91, 121),270	6697,(60, 121),270	7237,(40, 121),270	7507,(77, 121),270	32062,(8, 14),3	32065,(8, 32),15	32080,(8, 64),3	32494,(8, 17),36	32530,(8, 19),36	40324,(119, 121),270	42214,(29, 121),270	44374,(46, 121),270	45184,(49, 121),270	47344,(63, 121),270	49774,(85, 121),270	51934,(100, 121),270	52744,(105, 121),270	53824,(112, 121),270	
383,(7, 14),27	410,(7, 17),3	413,(7, 21),3	416,(7, 22),9	425,(7, 23),9	434,(7, 31),3	437,(7, 32),3	440,(7, 58),3	443,(7, 15),9	452,(7, 20),15	467,(7, 98),3	476,(7, 25),12	488,(7, 44),12	506,(7, 34),6	512,(7, 36),33	545,(7, 37),3	548,(7, 51),3	551,(7, 82),9	560,(7, 96),3	563,(7, 117),3	566,(7, 56),3	569,(7, 113),6	577,(7, 30),3	580,(7, 45),27	607,(7, 47),3	610,(7, 55),3	619,(7, 48),21	640,(7, 57),9	649,(7, 61),15	664,(7, 62),9	673,(7, 72),9	694,(7, 67),6	709,(7, 40),6	715,(7, 79),15	730,(7, 103),18	757,(7, 85),9	766,(7, 105),6	778,(7, 63),21	799,(7, 112),3	833,(7, 87),21	952,(7, 77),51	1003,(7, 92),81	1105,(7, 66),9	1243,(7, 107),30	1273,(7, 114),18	1300,(7, 46),57	1465,(7, 28),51	1516,(7, 74),15	1549,(7, 71),36	1660,(7, 33),60	1720,(7, 38),99	1819,(7, 69),81	1900,(7, 70),396	2296,(7, 120),162	2689,(7, 110),114	2986,(7, 109),327	4081,(26, 121),270	32314,(7, 19),180	43564,(41, 121),270	45724,(53, 121),270	46534,(59, 121),270	48694,(76, 121),270	49504,(83, 121),270	50314,(89, 121),270	51664,(99, 121),270	52474,(104, 121),270	53554,(111, 121),270	55174,(118, 121),270	
305,(6, 14),78	383,(6, 25),3	386,(6, 27),57	443,(6, 32),3	446,(6, 34),27	473,(6, 35),3	476,(6, 36),30	506,(6, 39),9	515,(6, 41),9	524,(6, 44),45	569,(6, 53),9	578,(6, 58),3	581,(6, 78),3	586,(6, 33),3	589,(6, 29),3	592,(6, 40),24	616,(6, 46),33	649,(6, 49),60	709,(6, 57),3	712,(6, 59),12	724,(6, 63),30	754,(6, 77),3	757,(6, 84),9	766,(6, 90),3	769,(6, 111),3	772,(6, 112),6	803,(6, 67),21	824,(6, 73),6	830,(6, 98),36	866,(6, 115),21	895,(6, 92),3	898,(6, 55),9	907,(6, 106),3	916,(6, 65),9	925,(6, 70),18	943,(6, 80),30	1021,(6, 94),15	1069,(6, 120),24	1093,(6, 66),12	1135,(6, 30),108	1252,(6, 38),84	1336,(6, 72),54	1390,(6, 16),39	1429,(6, 74),36	1510,(6, 91),78	1702,(6, 61),90	1792,(6, 68),102	8857,(110, 121),270	32026,(6, 64),3	33466,(45, 121),270	33781,(50, 121),270	34051,(51, 121),270	39514,(103, 121),270	41674,(24, 121),270	43024,(37, 121),270	48424,(75, 121),270	49234,(82, 121),270	50044,(88, 121),270	51394,(96, 121),270	54904,(117, 121),270	
290,(5, 16),276	566,(5, 24),3	569,(5, 27),162	731,(5, 33),72	803,(5, 37),21	824,(5, 40),3	827,(5, 41),3	830,(5, 79),3	835,(5, 42),63	898,(5, 44),108	1006,(5, 46),6	1012,(5, 47),9	1021,(5, 49),33	1054,(5, 52),15	1069,(5, 53),24	1093,(5, 55),9	1102,(5, 58),12	1114,(5, 66),12	1126,(5, 70),3	1129,(5, 84),3	1132,(5, 86),3	1135,(5, 104),3	1138,(5, 50),9	1147,(5, 51),30	1177,(5, 62),18	1195,(5, 67),9	1204,(5, 69),30	1234,(5, 71),12	1246,(5, 95),3	1249,(5, 60),51	1300,(5, 72),21	1321,(5, 76),93	1414,(5, 77),9	1423,(5, 83),24	1447,(5, 91),36	1483,(5, 98),6	1489,(5, 103),3	1492,(5, 109),57	1549,(5, 110),51	1600,(5, 115),18	1621,(5, 107),12	1633,(5, 111),30	1666,(5, 63),324	1990,(5, 82),699	2722,(5, 118),12	6967,(80, 121),270	32020,(5, 17),3	32023,(5, 19),3	32047,(5, 64),15	32116,(5, 32),198	32314,(22, 121),270	32854,(36, 121),270	36625,(93, 121),270	42754,(34, 121),270	50584,(92, 121),270	53014,(106, 121),270	54094,(113, 121),270	54634,(116, 121),270	
185,(4, 13),12	197,(4, 15),3	200,(4, 16),3	203,(4, 19),3	206,(4, 20),3	209,(4, 25),3	212,(4, 27),3	215,(4, 97),6	224,(4, 23),3	227,(4, 64),9	236,(4, 74),54	301,(4, 22),18	319,(4, 34),3	322,(4, 36),6	328,(4, 106),3	421,(4, 53),6	427,(4, 37),3	430,(4, 50),3	433,(4, 88),3	436,(4, 99),9	445,(4, 104),12	457,(4, 82),15	472,(4, 103),6	478,(4, 29),9	487,(4, 51),24	511,(4, 96),9	520,(4, 110),3	541,(4, 30),9	550,(4, 42),12	562,(4, 47),9	571,(4, 61),3	574,(4, 101),3	577,(4, 33),3	580,(4, 38),6	586,(4, 41),87	673,(4, 54),21	694,(4, 55),141	835,(4, 63),24	859,(4, 77),36	895,(4, 100),3	898,(4, 105),9	907,(4, 112),3	910,(4, 114),6	916,(4, 118),33	949,(4, 119),3	973,(4, 87),6	979,(4, 95),3	982,(4, 115),3	994,(4, 56),99	1093,(4, 67),57	1150,(4, 113),156	1558,(4, 80),402	
125,(3, 13),12	137,(3, 17),66	203,(3, 28),3	206,(3, 32),6	212,(3, 39),9	221,(3, 64),3	238,(3, 31),6	265,(3, 22),18	283,(3, 106),6	289,(3, 113),12	352,(3, 24),42	394,(3, 37),27	421,(3, 45),6	427,(3, 53),3	430,(3, 83),6	436,(3, 88),21	460,(3, 49),12	472,(3, 85),3	475,(3, 112),3	481,(3, 89),6	487,(3, 91),12	499,(3, 100),9	508,(3, 30),15	523,(3, 65),6	529,(3, 86),6	535,(3, 29),54	589,(3, 33),30	619,(3, 36),276	895,(3, 38),78	973,(3, 42),27	1000,(3, 94),3	1003,(3, 101),3	1006,(3, 103),27	1033,(3, 57),15	1048,(3, 71),6	1054,(3, 73),3	1057,(3, 79),12	1069,(3, 109),3	1075,(3, 50),63	1138,(3, 56),252	1390,(3, 67),36	1426,(3, 117),9	1438,(3, 68),183	1621,(3, 69),39	1660,(3, 72),42	1702,(3, 75),177	1879,(3, 76),306	2185,(3, 77),78	2263,(3, 84),351	2614,(3, 87),42	2656,(3, 104),66	2722,(3, 105),96	2818,(3, 108),75	2893,(3, 110),27	2920,(3, 111),51	2971,(3, 115),15	2986,(3, 118),54	3040,(3, 120),15	4351,(15, 121),270	4621,(35, 121),270	4891,(97, 121),270	5161,(27, 121),270	36895,(98, 121),270	41404,(20, 121),270	41944,(25, 121),270	44104,(44, 121),270	
65,(2, 16),27	92,(2, 18),3	121,(2, 20),6	127,(2, 25),42	169,(2, 35),3	172,(2, 44),3	181,(2, 21),3	184,(2, 84),24	208,(2, 108),30	241,(2, 22),6	247,(2, 34),12	259,(2, 113),6	301,(2, 37),18	319,(2, 45),6	325,(2, 75),24	349,(2, 88),3	361,(2, 41),6	367,(2, 59),24	391,(2, 83),30	421,(2, 29),24	445,(2, 40),3	448,(2, 46),12	460,(2, 89),12	472,(2, 99),9	481,(2, 47),27	508,(2, 77),27	535,(2, 78),3	538,(2, 86),3	541,(2, 33),15	556,(2, 38),6	562,(2, 43),6	568,(2, 54),9	577,(2, 66),417	994,(2, 67),27	1021,(2, 69),9	1030,(2, 71),3	1033,(2, 82),42	1075,(2, 85),126	1201,(2, 91),48	1249,(2, 95),3	1252,(2, 96),111	1363,(2, 100),27	1390,(2, 103),12	1402,(2, 105),3	1405,(2, 107),33	1438,(2, 109),18	1456,(2, 111),48	1504,(2, 112),6	1510,(2, 116),48	1558,(2, 118),33	1591,(2, 119),75	1666,(12, 21),3	1669,(12, 27),42	1711,(12, 31),39	1750,(12, 41),15	1765,(12, 44),75	1840,(12, 13),3	1843,(12, 18),48	1894,(12, 42),6	1960,(12, 22),3	1963,(12, 28),72	2035,(12, 34),21	2056,(12, 36),42	2098,(12, 80),48	2146,(12, 29),3	2149,(12, 40),3	2152,(12, 49),18	2170,(12, 77),15	2185,(12, 59),39	2224,(12, 76),6	2230,(12, 83),30	2260,(12, 99),12	2272,(12, 113),48	2320,(12, 116),141	2479,(12, 43),6	2485,(12, 48),12	2497,(12, 54),9	2506,(12, 57),21	2527,(12, 62),6	2533,(12, 67),3	2536,(12, 69),18	2554,(12, 79),15	2569,(12, 85),9	2578,(12, 95),3	2581,(12, 102),15	2596,(12, 109),12	2656,(12, 87),39	2695,(12, 90),66	2761,(12, 52),12	2773,(12, 61),3	2776,(12, 65),3	2779,(12, 70),3	2782,(12, 78),3	2785,(12, 94),3	2803,(12, 50),33	2836,(12, 75),33	2869,(12, 82),3	2872,(12, 86),39	2911,(12, 107),33	2944,(12, 120),63	3064,(12, 96),6	3070,(12, 98),387	3457,(12, 103),9	3466,(12, 117),3	32584,(14, 121),270	33124,(32, 121),270	35368,(23, 121),270	36355,(81, 121),270	40864,(17, 121),270	41134,(19, 121),270	43294,(39, 121),270	47614,(64, 121),270	
1,(0, 2),60	61,(0, 3),60	121,(0, 4),60	181,(0, 5),60	241,(0, 6),60	301,(0, 7),60	361,(0, 8),60	421,(0, 9),60	481,(0, 10),60	541,(0, 12),60	601,(1, 14),27	628,(1, 19),31392	32020,(1, 20),3	32023,(1, 22),6	32029,(1, 23),18	32047,(1, 24),9	32056,(1, 25),3	32059,(1, 30),3	32062,(1, 31),27	32089,(1, 32),27	32116,(1, 34),6	32122,(1, 36),3	32125,(1, 37),12	32137,(1, 41),12	32149,(1, 43),144	32293,(1, 44),312	32605,(1, 45),39	32644,(1, 46),21	32665,(1, 47),27	32692,(1, 50),9	32701,(1, 51),15	32716,(1, 52),48	32764,(1, 53),57	32821,(1, 54),3	32824,(1, 55),15	32839,(1, 59),63	32902,(1, 62),3	32905,(1, 63),12	32917,(1, 68),12	32929,(1, 69),3	32932,(1, 70),291	33223,(1, 71),15	33238,(1, 72),3	33241,(1, 73),9	33250,(1, 76),3	33253,(1, 81),36	33289,(1, 83),57	33346,(1, 85),3	33349,(1, 88),90	33439,(1, 90),27	33466,(1, 93),54	33520,(1, 95),21	33541,(1, 98),27	33568,(1, 99),12	33580,(1, 100),18	33598,(1, 101),6	33604,(1, 102),45	33649,(1, 103),3	33652,(1, 105),15	33667,(1, 106),60	33727,(1, 107),51	33778,(1, 108),3	33781,(1, 109),3	33784,(1, 111),9	33793,(1, 112),3	33796,(1, 113),162	33958,(1, 114),6	33964,(1, 117),3	33967,(1, 118),9	33976,(1, 119),717	34693,(1, 120),3	34696,(11, 17),3	34699,(11, 19),3	34702,(11, 20),3	34705,(11, 21),3	34708,(11, 24),6	34714,(11, 25),36	34750,(11, 29),3	34753,(11, 30),3	34756,(11, 31),3	34759,(11, 34),84	34843,(11, 37),12	34855,(11, 39),75	34930,(11, 41),6	34936,(11, 43),15	34951,(11, 44),3	34954,(11, 46),3	34957,(11, 47),3	34960,(11, 48),6	34966,(11, 49),6	34972,(11, 52),12	34984,(11, 53),21	35005,(11, 54),42	35047,(11, 57),3	35050,(11, 58),48	35098,(11, 59),3	35101,(11, 61),30	35131,(11, 62),24	35155,(11, 63),39	35194,(11, 64),93	35287,(11, 70),24	35311,(11, 72),27	35338,(11, 75),909	36247,(11, 76),3	36250,(11, 78),3	36253,(11, 82),9	36262,(11, 83),33	36295,(11, 84),60	36355,(11, 85),24	36379,(11, 88),3	36382,(11, 89),3	36385,(11, 92),3	36388,(11, 94),21	36409,(11, 95),156	36565,(11, 96),57	36622,(11, 99),21	36643,(11, 100),15	36658,(11, 102),42	36700,(11, 104),3	36703,(11, 105),45	36748,(11, 106),3	36751,(11, 109),18	36769,(11, 111),18	36787,(11, 112),27	36814,(11, 113),3	36817,(11, 115),3	36820,(11, 116),3	36823,(11, 117),528	37351,(11, 118),3	37354,(16, 121),270	37624,(66, 121),270	37894,(56, 121),270	38164,(13, 121),270	38434,(18, 121),270	38704,(28, 121),270	38974,(74, 121),270	
