700
# CPU
0,201,1	1,150,3	4,90,3	7,99,3	10,89,3	13,88,3	16,100,3	19,63,3	22,131,3	25,65,3	28,135,3	31,141,3	34,154,3	37,147,3	40,145,3	43,160,3	46,134,3	49,128,3	52,115,3	55,117,3	58,123,3	61,190,3	64,76,3	67,38,3	70,178,3	73,173,3	76,36,3	79,167,3	82,164,3	85,166,3	88,163,3	91,179,3	94,112,3	97,34,3	100,111,3	103,31,3	106,110,3	109,61,3	112,30,3	115,29,3	118,60,3	121,25,3	124,42,3	127,80,3	130,81,3	133,185,3	136,83,3	139,51,3	142,50,3	145,184,3	148,162,3	151,27,3	154,199,3	157,86,3	160,82,3	163,95,3	166,105,3	169,191,3	172,70,3	175,187,3	178,64,3	181,120,3	184,28,3	187,142,3	190,22,3	193,97,3	196,44,3	199,77,3	202,121,3	205,113,3	208,58,3	211,53,3	214,92,3	217,143,3	220,35,3	223,37,3	226,153,3	229,26,3	232,98,3	235,137,3	238,155,3	241,168,3	244,157,3	247,180,3	250,107,3	253,116,3	256,91,3	259,21,3	262,93,3	265,69,3	268,138,3	271,49,3	274,193,3	277,198,3	280,194,3	283,84,3	286,172,3	289,197,3	292,109,3	295,78,3	298,148,3	301,140,3	304,71,3	307,122,3	310,67,3	313,125,3	316,192,3	319,183,3	322,182,3	325,188,3	328,127,3	331,106,3	334,102,3	337,87,3	340,126,3	343,48,3	346,119,3	349,130,3	352,59,3	355,169,3	358,24,3	361,23,3	364,132,3	367,158,3	370,175,3	373,54,3	376,171,3	379,161,3	382,39,3	385,133,3	388,55,3	391,32,3	394,43,3	397,181,3	400,85,3	403,108,3	406,144,3	409,52,3	412,159,3	415,1,3	418,94,3	421,47,3	424,152,3	427,74,3	430,66,3	433,156,3	436,195,3	439,165,3	442,149,3	445,101,3	448,79,3	451,46,3	454,57,3	457,104,3	460,151,3	463,75,3	466,136,3	469,170,3	472,41,3	475,189,3	478,56,3	481,20,3	484,177,3	487,5,3	490,73,3	493,12,3	496,72,3	499,139,3	502,62,3	505,17,3	508,33,3	511,103,3	514,3,3	517,96,3	520,174,3	523,118,3	526,176,3	529,9,3	532,7,3	535,114,3	538,14,3	541,45,3	544,10,3	547,15,3	550,11,3	553,2,3	556,13,3	559,16,3	562,4,3	565,19,3	568,6,3	571,8,3	696,18,3	699,0,1	
61,200,3	121,186,3	181,129,3	241,40,3	301,146,3	361,124,3	421,196,3	481,68,3	
# Incoming
244,(40, 15),4	248,(186, 11),4	252,(200, 16),4	256,(129, 16),8	264,(40, 18),16	304,(146, 16),4	308,(146, 4),20	328,(146, 19),32	364,(124, 6),44	424,(196, 13),4	484,(68, 2),4	488,(196, 8),64	552,(68, 18),144	
1,(201, 200),60	61,(201, 186),60	121,(201, 129),60	181,(201, 40),60	241,(201, 146),60	301,(201, 124),60	361,(201, 196),60	421,(201, 68),60	
# Outgoing
1,(201, 200),60	61,(201, 186),60	121,(201, 129),60	181,(201, 40),60	241,(201, 146),60	301,(201, 124),60	361,(201, 196),60	421,(201, 68),60	
244,(40, 15),4	248,(186, 11),4	252,(200, 16),4	256,(129, 16),8	264,(40, 18),16	304,(146, 16),4	308,(146, 4),20	328,(146, 19),32	364,(124, 6),44	424,(196, 13),4	484,(68, 2),4	488,(196, 8),64	552,(68, 18),144	
