13263
# CPU
7921,16,1	8128,21,1	8518,54,1	8521,55,1	8632,68,1	8671,74,1	8704,78,1	8710,14,1	8962,33,1	8986,34,1	9343,12,1	9568,19,1	9739,32,1	9832,45,1	9883,49,1	9919,58,1	9922,59,1	9928,61,1	10027,63,1	10066,71,1	10150,9,1	10318,27,1	10483,36,1	10504,41,1	10558,47,1	10873,73,1	10879,80,1	10909,13,1	11029,40,1	11095,42,1	11098,43,1	11101,46,1	11104,51,1	11164,64,1	11221,65,1	11230,66,1	11344,76,1	11392,10,1	11395,11,1	11410,18,1	11428,22,1	11446,24,1	11581,26,1	11851,28,1	11854,29,1	11917,48,1	12115,62,1	12118,67,1	12181,70,1	12190,75,1	12241,79,1	12244,15,1	12250,17,1	12253,20,1	12274,23,1	12280,25,1	12283,30,1	12286,31,1	12883,35,1	12886,37,1	12895,38,1	12907,39,1	12970,44,1	12973,50,1	12976,52,1	12979,53,1	13000,56,1	13087,57,1	13102,60,1	13171,69,1	13240,72,1	13261,77,1	13262,81,1	
0,0,1	1,1,1	2,8,1	
73,2,1	289,5,1	
145,3,1	361,6,1	
217,4,1	433,7,1	
# Incoming
433,(1, 10),96	529,(1, 12),3	532,(1, 16),18	550,(1, 27),9	559,(1, 39),36	595,(1, 41),6	601,(1, 46),3	604,(1, 47),3	607,(1, 49),312	919,(1, 51),42	961,(1, 53),33	994,(1, 57),9	1003,(1, 59),18	1021,(1, 60),156	1177,(1, 61),42	1219,(1, 65),36	1255,(1, 67),3	1258,(1, 68),15	1273,(1, 71),516	1789,(1, 75),84	1873,(1, 76),5067	6940,(1, 77),42	6982,(1, 79),3	6985,(8, 10),795	7780,(8, 11),3	7783,(8, 12),9	7792,(8, 14),60	7852,(8, 15),63	7915,(8, 16),6	7921,(8, 20),75	7996,(8, 21),132	8128,(8, 27),24	8152,(8, 29),3	8155,(8, 31),9	8164,(8, 36),3	8167,(8, 38),51	8218,(8, 40),9	8227,(8, 43),3	8230,(8, 46),93	8323,(8, 48),3	8326,(8, 49),9	8335,(8, 50),42	8377,(8, 51),135	8512,(8, 53),3	8515,(8, 54),3	8518,(8, 55),3	8521,(8, 56),39	8560,(8, 59),3	8563,(8, 60),9	8572,(8, 61),3	8575,(8, 66),12	8587,(8, 67),6	8593,(8, 68),39	8632,(8, 69),3	8635,(8, 71),27	8662,(8, 72),3	8665,(8, 73),3	8668,(8, 74),3	8671,(8, 77),6	8677,(8, 78),27	8704,(2, 11),3	8707,(2, 14),3	8710,(2, 17),3	8713,(2, 19),45	8758,(2, 20),39	8797,(2, 25),129	8926,(2, 30),9	8935,(2, 32),3	8938,(2, 33),24	8962,(2, 34),24	8986,(2, 35),18	9004,(2, 37),45	9049,(2, 39),3	9052,(2, 42),9	9061,(2, 43),18	9079,(2, 45),3	9082,(2, 48),24	9106,(2, 49),27	9133,(2, 56),3	9136,(2, 58),30	9166,(2, 59),3	9169,(2, 62),3	9172,(2, 65),24	9196,(2, 66),6	9202,(2, 73),3	9205,(2, 75),15	9220,(2, 79),3	9223,(3, 10),90	9313,(3, 11),27	9340,(3, 12),3	9343,(3, 15),213	9556,(3, 19),12	9568,(3, 20),15	9583,(3, 25),75	9658,(3, 26),3	9661,(3, 27),3	9664,(3, 31),30	9694,(3, 32),45	9739,(3, 35),6	9745,(3, 37),12	9757,(3, 41),18	9775,(3, 45),57	9832,(3, 47),24	9856,(3, 49),27	9883,(3, 50),18	9901,(3, 51),3	9904,(3, 57),3	9907,(3, 58),12	9919,(3, 59),3	9922,(3, 61),6	9928,(3, 63),99	10027,(3, 64),18	10045,(3, 67),3	10048,(3, 70),15	10063,(3, 71),3	10066,(4, 9),84	10150,(4, 10),9	10159,(4, 11),75	10234,(4, 15),36	10270,(4, 20),6	10276,(4, 22),3	10279,(4, 23),15	10294,(4, 24),3	10297,(4, 25),15	10312,(4, 27),6	10318,(4, 35),156	10474,(4, 36),9	10483,(4, 40),3	10486,(4, 41),18	10504,(4, 42),12	10516,(4, 47),42	10558,(4, 48),198	10756,(4, 51),57	10813,(4, 60),21	10834,(4, 66),21	10855,(4, 70),9	10864,(4, 72),3	10867,(4, 73),6	10873,(4, 80),6	10879,(5, 11),24	10903,(5, 13),6	10909,(5, 22),15	10924,(5, 37),21	10945,(5, 39),60	11005,(5, 40),24	11029,(5, 42),66	11095,(5, 43),3	11098,(5, 46),3	11101,(5, 51),3	11104,(5, 52),33	11137,(5, 53),3	11140,(5, 60),9	11149,(5, 62),9	11158,(5, 64),6	11164,(5, 65),57	11221,(5, 66),9	11230,(5, 72),3	11233,(5, 76),111	11344,(5, 77),18	11362,(6, 10),30	11392,(6, 11),3	11395,(6, 17),9	11404,(6, 18),6	11410,(6, 22),18	11428,(6, 24),18	11446,(6, 26),135	11581,(6, 28),270	11851,(6, 29),3	11854,(6, 37),3	11857,(6, 44),54	11911,(6, 48),6	11917,(6, 62),198	12115,(6, 67),3	12118,(6, 69),57	12175,(6, 70),6	12181,(6, 75),9	12190,(6, 79),51	12241,(7, 15),3	12244,(7, 17),6	12250,(7, 20),3	12253,(7, 23),21	12274,(7, 25),6	12280,(7, 30),3	12283,(7, 31),3	12286,(7, 35),597	12883,(7, 37),3	12886,(7, 38),9	12895,(7, 39),12	12907,(7, 44),63	12970,(7, 50),3	12973,(7, 52),3	12976,(7, 53),3	12979,(7, 56),21	13000,(7, 57),87	13087,(7, 60),15	13102,(7, 69),69	13171,(7, 72),69	13240,(7, 77),21	

1,(0, 2),72	217,(0, 5),72	
73,(0, 3),72	289,(0, 6),72	
145,(0, 4),72	361,(0, 7),72	
# Outgoing

1,(0, 2),72	73,(0, 3),72	145,(0, 4),72	217,(0, 5),72	289,(0, 6),72	361,(0, 7),72	433,(1, 10),96	529,(1, 12),3	532,(1, 16),18	550,(1, 27),9	559,(1, 39),36	595,(1, 41),6	601,(1, 46),3	604,(1, 47),3	607,(1, 49),312	919,(1, 51),42	961,(1, 53),33	994,(1, 57),9	1003,(1, 59),18	1021,(1, 60),156	1177,(1, 61),42	1219,(1, 65),36	1255,(1, 67),3	1258,(1, 68),15	1273,(1, 71),516	1789,(1, 75),84	1873,(1, 76),5067	6940,(1, 77),42	6982,(1, 79),3	6985,(8, 10),795	7780,(8, 11),3	7783,(8, 12),9	7792,(8, 14),60	7852,(8, 15),63	7915,(8, 16),6	7921,(8, 20),75	7996,(8, 21),132	8128,(8, 27),24	8152,(8, 29),3	8155,(8, 31),9	8164,(8, 36),3	8167,(8, 38),51	8218,(8, 40),9	8227,(8, 43),3	8230,(8, 46),93	8323,(8, 48),3	8326,(8, 49),9	8335,(8, 50),42	8377,(8, 51),135	8512,(8, 53),3	8515,(8, 54),3	8518,(8, 55),3	8521,(8, 56),39	8560,(8, 59),3	8563,(8, 60),9	8572,(8, 61),3	8575,(8, 66),12	8587,(8, 67),6	8593,(8, 68),39	8632,(8, 69),3	8635,(8, 71),27	8662,(8, 72),3	8665,(8, 73),3	8668,(8, 74),3	8671,(8, 77),6	8677,(8, 78),27	
8704,(2, 11),3	8707,(2, 14),3	8710,(2, 17),3	8713,(2, 19),45	8758,(2, 20),39	8797,(2, 25),129	8926,(2, 30),9	8935,(2, 32),3	8938,(2, 33),24	8962,(2, 34),24	8986,(2, 35),18	9004,(2, 37),45	9049,(2, 39),3	9052,(2, 42),9	9061,(2, 43),18	9079,(2, 45),3	9082,(2, 48),24	9106,(2, 49),27	9133,(2, 56),3	9136,(2, 58),30	9166,(2, 59),3	9169,(2, 62),3	9172,(2, 65),24	9196,(2, 66),6	9202,(2, 73),3	9205,(2, 75),15	9220,(2, 79),3	10879,(5, 11),24	10903,(5, 13),6	10909,(5, 22),15	10924,(5, 37),21	10945,(5, 39),60	11005,(5, 40),24	11029,(5, 42),66	11095,(5, 43),3	11098,(5, 46),3	11101,(5, 51),3	11104,(5, 52),33	11137,(5, 53),3	11140,(5, 60),9	11149,(5, 62),9	11158,(5, 64),6	11164,(5, 65),57	11221,(5, 66),9	11230,(5, 72),3	11233,(5, 76),111	11344,(5, 77),18	
9223,(3, 10),90	9313,(3, 11),27	9340,(3, 12),3	9343,(3, 15),213	9556,(3, 19),12	9568,(3, 20),15	9583,(3, 25),75	9658,(3, 26),3	9661,(3, 27),3	9664,(3, 31),30	9694,(3, 32),45	9739,(3, 35),6	9745,(3, 37),12	9757,(3, 41),18	9775,(3, 45),57	9832,(3, 47),24	9856,(3, 49),27	9883,(3, 50),18	9901,(3, 51),3	9904,(3, 57),3	9907,(3, 58),12	9919,(3, 59),3	9922,(3, 61),6	9928,(3, 63),99	10027,(3, 64),18	10045,(3, 67),3	10048,(3, 70),15	10063,(3, 71),3	11362,(6, 10),30	11392,(6, 11),3	11395,(6, 17),9	11404,(6, 18),6	11410,(6, 22),18	11428,(6, 24),18	11446,(6, 26),135	11581,(6, 28),270	11851,(6, 29),3	11854,(6, 37),3	11857,(6, 44),54	11911,(6, 48),6	11917,(6, 62),198	12115,(6, 67),3	12118,(6, 69),57	12175,(6, 70),6	12181,(6, 75),9	12190,(6, 79),51	
10066,(4, 9),84	10150,(4, 10),9	10159,(4, 11),75	10234,(4, 15),36	10270,(4, 20),6	10276,(4, 22),3	10279,(4, 23),15	10294,(4, 24),3	10297,(4, 25),15	10312,(4, 27),6	10318,(4, 35),156	10474,(4, 36),9	10483,(4, 40),3	10486,(4, 41),18	10504,(4, 42),12	10516,(4, 47),42	10558,(4, 48),198	10756,(4, 51),57	10813,(4, 60),21	10834,(4, 66),21	10855,(4, 70),9	10864,(4, 72),3	10867,(4, 73),6	10873,(4, 80),6	12241,(7, 15),3	12244,(7, 17),6	12250,(7, 20),3	12253,(7, 23),21	12274,(7, 25),6	12280,(7, 30),3	12283,(7, 31),3	12286,(7, 35),597	12883,(7, 37),3	12886,(7, 38),9	12895,(7, 39),12	12907,(7, 44),63	12970,(7, 50),3	12973,(7, 52),3	12976,(7, 53),3	12979,(7, 56),21	13000,(7, 57),87	13087,(7, 60),15	13102,(7, 69),69	13171,(7, 72),69	13240,(7, 77),21	
