2313
# CPU
13,4,3	16,17,3	19,27,3	22,49,3	25,51,3	28,37,3	31,8,3	34,34,3	37,79,3	40,38,3	43,45,3	46,64,3	49,72,3	52,77,3	55,56,3	58,58,3	65,29,3	121,35,3	125,46,3	133,48,3	205,50,3	365,54,3	413,30,3	485,39,3	489,59,3	497,70,3	545,73,3	552,21,3	556,36,3	612,40,3	632,41,3	649,61,3	653,63,3	657,66,3	785,67,3	817,75,3	829,22,3	933,26,3	937,28,3	953,55,3	1093,62,3	1097,52,3	1105,53,3	1109,68,3	1117,69,3	1125,71,3	1157,76,3	1197,74,3	1229,33,3	1233,42,3	1249,44,3	1253,47,3	1265,57,3	1345,60,3	1465,65,3	
9,3,3	12,24,3	15,80,3	21,7,3	645,32,3	689,15,3	744,25,3	825,12,3	2312,81,1	
5,2,3	17,6,3	20,23,3	373,31,3	409,18,3	1016,43,3	1020,11,3	1076,14,3	
0,0,1	1,5,3	4,1,3	16,9,3	548,20,3	704,16,3	716,10,3	1048,13,3	1420,19,3	2248,78,3	
# Incoming
9,(0, 4),4	13,(2, 37),4	17,(2, 44),4	21,(0, 8),4	25,(2, 29),40	65,(2, 35),56	121,(2, 46),4	125,(2, 48),8	133,(2, 50),72	205,(2, 52),124	329,(2, 54),36	365,(2, 57),20	385,(2, 66),4	389,(6, 26),16	405,(6, 30),8	413,(6, 39),72	485,(6, 59),4	489,(6, 70),8	497,(6, 71),12	509,(6, 73),36	548,(3, 21),4	552,(3, 36),4	556,(3, 40),56	612,(3, 41),20	645,(5, 61),4	649,(5, 63),4	653,(5, 66),4	657,(5, 67),128	785,(5, 75),32	825,(1, 22),4	829,(1, 26),104	933,(1, 28),4	937,(1, 55),16	953,(1, 60),4	957,(1, 62),136	1093,(3, 52),4	1097,(3, 53),8	1105,(3, 68),4	1109,(3, 69),8	1117,(3, 71),8	1125,(3, 76),32	1157,(6, 74),40	1197,(7, 33),32	1229,(7, 42),4	1233,(7, 44),16	1249,(7, 47),4	1253,(7, 57),12	1265,(7, 60),80	1345,(7, 65),120	
5,(0, 3),4	17,(0, 7),4	373,(5, 32),272	645,(17, 81),4	649,(27, 81),4	653,(49, 81),4	657,(51, 81),4	661,(37, 81),4	665,(8, 15),24	689,(34, 81),4	693,(79, 81),4	697,(38, 81),4	704,(6, 25),40	744,(23, 81),4	748,(45, 81),4	752,(64, 81),4	756,(72, 81),4	760,(77, 81),4	764,(56, 81),4	768,(58, 81),4	772,(29, 81),4	776,(35, 81),4	780,(46, 81),4	784,(48, 81),4	788,(50, 81),4	792,(54, 81),4	796,(31, 81),4	800,(18, 81),4	804,(30, 81),4	808,(39, 81),4	812,(59, 81),4	817,(1, 12),8	825,(70, 81),4	829,(73, 81),4	833,(21, 81),4	837,(36, 81),4	841,(40, 81),4	845,(41, 81),4	849,(61, 81),4	853,(63, 81),4	857,(66, 81),4	861,(67, 81),4	865,(75, 81),4	869,(22, 81),4	936,(26, 81),4	940,(28, 81),4	956,(55, 81),4	1019,(43, 81),4	1023,(11, 81),4	1079,(14, 81),4	1093,(9, 81),4	1097,(20, 81),4	1101,(16, 81),4	1105,(10, 81),4	1109,(13, 81),4	1423,(19, 81),4	2248,(62, 81),4	2252,(52, 81),4	2256,(53, 81),4	2260,(68, 81),4	2264,(69, 81),4	2268,(71, 81),4	2272,(76, 81),4	2276,(74, 81),4	2280,(33, 81),4	2284,(42, 81),4	2288,(44, 81),4	2292,(47, 81),4	2296,(57, 81),4	2300,(60, 81),4	2304,(65, 81),4	2308,(78, 81),4	
1,(0, 2),4	13,(0, 6),4	25,(5, 31),348	373,(4, 18),36	632,(3, 43),384	1016,(7, 11),4	1048,(7, 14),28	
8,(2, 16),4	12,(3, 9),4	16,(3, 20),532	548,(6, 16),156	704,(8, 10),12	1020,(7, 13),28	1048,(8, 19),372	1420,(8, 78),828	
# Outgoing
373,(4, 18),36	645,(17, 81),4	649,(27, 81),4	653,(49, 81),4	657,(51, 81),4	661,(37, 81),4	665,(8, 15),24	689,(34, 81),4	693,(79, 81),4	697,(38, 81),4	704,(8, 10),12	748,(45, 81),4	752,(64, 81),4	756,(72, 81),4	760,(77, 81),4	764,(56, 81),4	768,(58, 81),4	772,(29, 81),4	776,(35, 81),4	780,(46, 81),4	784,(48, 81),4	788,(50, 81),4	792,(54, 81),4	804,(30, 81),4	808,(39, 81),4	812,(59, 81),4	825,(70, 81),4	829,(73, 81),4	833,(21, 81),4	837,(36, 81),4	841,(40, 81),4	845,(41, 81),4	849,(61, 81),4	853,(63, 81),4	857,(66, 81),4	861,(67, 81),4	865,(75, 81),4	869,(22, 81),4	936,(26, 81),4	940,(28, 81),4	956,(55, 81),4	1048,(8, 19),372	1420,(8, 78),828	2248,(62, 81),4	2252,(52, 81),4	2256,(53, 81),4	2260,(68, 81),4	2264,(69, 81),4	2268,(71, 81),4	2272,(76, 81),4	2276,(74, 81),4	2280,(33, 81),4	2284,(42, 81),4	2288,(44, 81),4	2292,(47, 81),4	2296,(57, 81),4	2300,(60, 81),4	2304,(65, 81),4	
12,(3, 9),4	16,(3, 20),532	548,(3, 21),4	552,(3, 36),4	556,(3, 40),56	612,(3, 41),20	632,(3, 43),384	1016,(7, 11),4	1020,(7, 13),28	1048,(7, 14),28	1093,(3, 52),4	1097,(3, 53),8	1105,(3, 68),4	1109,(3, 69),8	1117,(3, 71),8	1125,(3, 76),32	1197,(7, 33),32	1229,(7, 42),4	1233,(7, 44),16	1249,(7, 47),4	1253,(7, 57),12	1265,(7, 60),80	1345,(7, 65),120	
8,(2, 16),4	13,(2, 37),4	17,(2, 44),4	25,(2, 29),40	65,(2, 35),56	121,(2, 46),4	125,(2, 48),8	133,(2, 50),72	205,(2, 52),124	329,(2, 54),36	365,(2, 57),20	385,(2, 66),4	389,(6, 26),16	405,(6, 30),8	413,(6, 39),72	485,(6, 59),4	489,(6, 70),8	497,(6, 71),12	509,(6, 73),36	548,(6, 16),156	704,(6, 25),40	744,(23, 81),4	796,(31, 81),4	800,(18, 81),4	1019,(43, 81),4	1023,(11, 81),4	1079,(14, 81),4	1157,(6, 74),40	
1,(0, 2),4	5,(0, 3),4	9,(0, 4),4	13,(0, 6),4	17,(0, 7),4	21,(0, 8),4	25,(5, 31),348	373,(5, 32),272	645,(5, 61),4	649,(5, 63),4	653,(5, 66),4	657,(5, 67),128	785,(5, 75),32	817,(1, 12),8	825,(1, 22),4	829,(1, 26),104	933,(1, 28),4	937,(1, 55),16	953,(1, 60),4	957,(1, 62),136	1093,(9, 81),4	1097,(20, 81),4	1101,(16, 81),4	1105,(10, 81),4	1109,(13, 81),4	1423,(19, 81),4	2308,(78, 81),4	
