2444
# CPU
67,4,3	70,116,3	133,8,3	136,60,3	139,120,3	142,96,3	160,24,3	199,12,3	202,112,3	205,56,3	208,68,3	274,28,3	280,80,3	287,100,3	313,88,3	317,20,3	541,16,3	544,44,3	585,52,3	602,64,3	639,92,3	646,104,3	1185,48,3	1266,108,3	1278,32,3	1362,36,3	1400,72,3	1403,76,3	1409,40,3	1417,84,3	
45,3,3	48,115,3	111,7,3	114,23,3	151,91,3	154,103,3	157,111,3	177,11,3	180,39,3	183,71,3	186,75,3	201,19,3	204,79,3	266,51,3	300,63,3	318,27,3	324,31,3	339,47,3	353,55,3	483,87,3	1074,15,3	1186,67,3	1203,83,3	1261,107,3	1267,119,3	1395,59,3	1696,43,3	1702,35,3	1705,95,3	1732,99,3	
23,2,3	89,6,3	92,50,3	115,34,3	127,118,3	130,26,3	155,10,3	165,30,3	169,98,3	180,62,3	183,78,3	199,94,3	219,14,3	293,54,3	307,66,3	310,38,3	313,70,3	321,22,3	332,42,3	428,74,3	440,82,3	466,18,3	484,102,3	491,106,3	532,110,3	539,114,3	555,46,3	621,86,3	712,58,3	849,90,3	
0,0,1	1,9,3	4,1,3	7,5,3	10,33,3	1191,77,3	1196,29,3	1213,109,3	1216,113,3	1222,117,3	1235,49,3	1239,13,3	1251,17,3	1263,45,3	1286,61,3	1314,73,3	1321,21,3	1333,25,3	1348,65,3	1351,85,3	1354,89,3	1360,105,3	1372,37,3	1380,41,3	1386,53,3	1402,69,3	1410,57,3	1413,81,3	1496,97,3	1506,101,3	2418,93,3	2443,121,1	
# Incoming
45,(0, 4),22	111,(0, 8),22	133,(3, 24),5	138,(3, 32),1	139,(3, 96),1	140,(3, 100),1	141,(7, 24),19	160,(7, 44),1	161,(7, 112),6	177,(0, 12),22	199,(7, 52),56	255,(7, 84),9	264,(11, 28),10	274,(11, 40),3	277,(11, 80),3	280,(11, 100),7	307,(9, 88),6	314,(1, 20),3	317,(11, 104),35	491,(1, 108),36	540,(5, 16),1	541,(5, 44),1	555,(5, 52),30	601,(5, 64),1	602,(5, 72),1	637,(5, 92),2	645,(5, 104),1	1074,(2, 40),78	1152,(2, 48),33	1261,(2, 108),5	1268,(6, 32),10	1278,(6, 36),84	1395,(6, 72),5	1400,(6, 76),2	1402,(6, 84),1	1407,(10, 40),2	1412,(10, 84),5	
23,(0, 3),22	89,(0, 7),22	130,(4, 83),14	144,(4, 91),7	151,(4, 103),1	152,(4, 111),2	154,(8, 39),1	155,(0, 11),22	177,(4, 107),16	193,(8, 19),8	201,(8, 79),3	204,(12, 15),9	213,(12, 47),1	217,(9, 47),2	219,(4, 51),47	266,(12, 63),34	317,(1, 27),1	318,(1, 31),6	332,(1, 47),7	339,(1, 55),14	440,(1, 87),43	539,(5, 15),1	639,(5, 95),6	646,(5, 107),8	654,(2, 15),420	1185,(2, 67),1	1191,(2, 83),12	1203,(2, 107),58	1266,(2, 119),1	1386,(6, 59),9	1395,(8, 43),301	1696,(10, 35),6	1702,(10, 95),1	1703,(10, 99),29	
1,(0, 2),22	67,(0, 6),22	89,(3, 14),23	112,(3, 34),3	115,(3, 42),5	120,(3, 98),5	125,(3, 118),2	127,(4, 18),1	128,(4, 26),2	130,(7, 38),3	133,(0, 10),22	155,(4, 30),10	165,(4, 98),4	169,(7, 18),10	179,(7, 62),1	180,(7, 78),3	183,(7, 102),15	198,(11, 94),1	199,(9, 42),18	217,(8, 14),2	219,(9, 54),74	293,(9, 66),14	307,(11, 38),3	310,(12, 70),1	311,(12, 110),1	313,(9, 102),1	314,(8, 22),7	324,(1, 42),8	353,(1, 58),11	364,(1, 74),64	428,(1, 82),12	440,(11, 18),26	483,(1, 102),1	484,(1, 106),7	527,(1, 110),5	532,(1, 114),7	542,(5, 46),13	585,(5, 58),16	603,(5, 86),18	621,(5, 90),16	637,(8, 58),75	712,(12, 90),137	
1186,(2, 77),5	1191,(3, 29),5	1196,(3, 45),6	1202,(3, 97),1	1203,(3, 101),7	1210,(3, 109),3	1213,(3, 113),3	1216,(3, 117),6	1222,(115, 121),1	1223,(4, 21),3	1226,(4, 49),9	1235,(116, 121),1	1236,(7, 13),3	1239,(7, 37),8	1247,(7, 41),2	1249,(23, 121),1	1250,(8, 17),1	1251,(8, 45),12	1263,(8, 93),1	1264,(60, 121),1	1265,(120, 121),1	1266,(96, 121),1	1267,(6, 25),1	1268,(8, 61),18	1286,(8, 73),28	1314,(91, 121),1	1315,(103, 121),1	1316,(111, 121),1	1317,(24, 121),1	1318,(11, 21),3	1321,(11, 25),12	1333,(11, 41),12	1345,(11, 65),3	1348,(11, 85),3	1351,(11, 89),1	1352,(39, 121),1	1353,(71, 121),1	1354,(75, 121),1	1355,(12, 97),4	1359,(12, 105),1	1360,(19, 121),1	1361,(112, 121),1	1362,(6, 37),10	1372,(6, 41),8	1380,(6, 53),6	1386,(11, 69),16	1402,(79, 121),1	1403,(50, 121),1	1404,(34, 121),1	1405,(118, 121),1	1406,(26, 121),1	1407,(51, 121),1	1408,(63, 121),1	1409,(10, 57),1	1410,(10, 81),2	1412,(27, 121),1	1413,(31, 121),1	1414,(47, 121),1	1415,(55, 121),1	1416,(87, 121),1	1417,(10, 97),79	1496,(10, 101),10	1506,(30, 121),1	1507,(98, 121),1	1508,(62, 121),1	1509,(78, 121),1	1510,(94, 121),1	1511,(14, 121),1	1512,(54, 121),1	1513,(66, 121),1	1514,(38, 121),1	1515,(70, 121),1	1516,(22, 121),1	1517,(42, 121),1	1518,(74, 121),1	1519,(82, 121),1	1520,(18, 121),1	1521,(102, 121),1	1522,(106, 121),1	1523,(110, 121),1	1524,(114, 121),1	1525,(46, 121),1	1526,(86, 121),1	1527,(58, 121),1	1528,(90, 121),1	1529,(15, 121),1	1530,(67, 121),1	1531,(83, 121),1	1532,(107, 121),1	1533,(119, 121),1	1534,(59, 121),1	1696,(12, 93),722	2418,(56, 121),1	2419,(68, 121),1	2420,(28, 121),1	2421,(80, 121),1	2422,(100, 121),1	2423,(88, 121),1	2424,(20, 121),1	2425,(16, 121),1	2426,(44, 121),1	2427,(52, 121),1	2428,(64, 121),1	2429,(92, 121),1	2430,(104, 121),1	2431,(48, 121),1	2432,(108, 121),1	2433,(32, 121),1	2434,(36, 121),1	2435,(72, 121),1	2436,(76, 121),1	2437,(40, 121),1	2438,(84, 121),1	2439,(43, 121),1	2440,(35, 121),1	2441,(95, 121),1	2442,(99, 121),1	
# Outgoing
127,(4, 18),1	128,(4, 26),2	130,(4, 83),14	144,(4, 91),7	151,(4, 103),1	152,(4, 111),2	154,(8, 39),1	155,(4, 30),10	165,(4, 98),4	177,(4, 107),16	193,(8, 19),8	201,(8, 79),3	204,(12, 15),9	213,(12, 47),1	217,(8, 14),2	219,(4, 51),47	266,(12, 63),34	310,(12, 70),1	311,(12, 110),1	314,(8, 22),7	637,(8, 58),75	712,(12, 90),137	1223,(4, 21),3	1226,(4, 49),9	1235,(116, 121),1	1250,(8, 17),1	1251,(8, 45),12	1263,(8, 93),1	1264,(60, 121),1	1265,(120, 121),1	1266,(96, 121),1	1268,(8, 61),18	1286,(8, 73),28	1317,(24, 121),1	1355,(12, 97),4	1359,(12, 105),1	1361,(112, 121),1	1395,(8, 43),301	1696,(12, 93),722	2418,(56, 121),1	2419,(68, 121),1	2420,(28, 121),1	2421,(80, 121),1	2422,(100, 121),1	2423,(88, 121),1	2424,(20, 121),1	2425,(16, 121),1	2426,(44, 121),1	2427,(52, 121),1	2428,(64, 121),1	2429,(92, 121),1	2430,(104, 121),1	2431,(48, 121),1	2432,(108, 121),1	2433,(32, 121),1	2434,(36, 121),1	2435,(72, 121),1	2436,(76, 121),1	2437,(40, 121),1	2438,(84, 121),1	
89,(3, 14),23	112,(3, 34),3	115,(3, 42),5	120,(3, 98),5	125,(3, 118),2	130,(7, 38),3	133,(3, 24),5	138,(3, 32),1	139,(3, 96),1	140,(3, 100),1	141,(7, 24),19	160,(7, 44),1	161,(7, 112),6	169,(7, 18),10	179,(7, 62),1	180,(7, 78),3	183,(7, 102),15	198,(11, 94),1	199,(7, 52),56	255,(7, 84),9	264,(11, 28),10	274,(11, 40),3	277,(11, 80),3	280,(11, 100),7	307,(11, 38),3	317,(11, 104),35	440,(11, 18),26	1191,(3, 29),5	1196,(3, 45),6	1202,(3, 97),1	1203,(3, 101),7	1210,(3, 109),3	1213,(3, 113),3	1216,(3, 117),6	1222,(115, 121),1	1236,(7, 13),3	1239,(7, 37),8	1247,(7, 41),2	1249,(23, 121),1	1314,(91, 121),1	1315,(103, 121),1	1316,(111, 121),1	1318,(11, 21),3	1321,(11, 25),12	1333,(11, 41),12	1345,(11, 65),3	1348,(11, 85),3	1351,(11, 89),1	1352,(39, 121),1	1353,(71, 121),1	1354,(75, 121),1	1360,(19, 121),1	1386,(11, 69),16	1402,(79, 121),1	1407,(51, 121),1	1408,(63, 121),1	1412,(27, 121),1	1413,(31, 121),1	1414,(47, 121),1	1415,(55, 121),1	1416,(87, 121),1	1529,(15, 121),1	1530,(67, 121),1	1531,(83, 121),1	1532,(107, 121),1	1533,(119, 121),1	1534,(59, 121),1	2439,(43, 121),1	2440,(35, 121),1	2441,(95, 121),1	2442,(99, 121),1	
654,(2, 15),420	1074,(2, 40),78	1152,(2, 48),33	1185,(2, 67),1	1186,(2, 77),5	1191,(2, 83),12	1203,(2, 107),58	1261,(2, 108),5	1266,(2, 119),1	1267,(6, 25),1	1268,(6, 32),10	1278,(6, 36),84	1362,(6, 37),10	1372,(6, 41),8	1380,(6, 53),6	1386,(6, 59),9	1395,(6, 72),5	1400,(6, 76),2	1402,(6, 84),1	1403,(50, 121),1	1404,(34, 121),1	1405,(118, 121),1	1406,(26, 121),1	1407,(10, 40),2	1409,(10, 57),1	1410,(10, 81),2	1412,(10, 84),5	1417,(10, 97),79	1496,(10, 101),10	1506,(30, 121),1	1507,(98, 121),1	1508,(62, 121),1	1509,(78, 121),1	1510,(94, 121),1	1511,(14, 121),1	1512,(54, 121),1	1513,(66, 121),1	1514,(38, 121),1	1515,(70, 121),1	1516,(22, 121),1	1517,(42, 121),1	1518,(74, 121),1	1519,(82, 121),1	1520,(18, 121),1	1521,(102, 121),1	1522,(106, 121),1	1523,(110, 121),1	1524,(114, 121),1	1525,(46, 121),1	1526,(86, 121),1	1527,(58, 121),1	1528,(90, 121),1	1696,(10, 35),6	1702,(10, 95),1	1703,(10, 99),29	
1,(0, 2),22	23,(0, 3),22	45,(0, 4),22	67,(0, 6),22	89,(0, 7),22	111,(0, 8),22	133,(0, 10),22	155,(0, 11),22	177,(0, 12),22	199,(9, 42),18	217,(9, 47),2	219,(9, 54),74	293,(9, 66),14	307,(9, 88),6	313,(9, 102),1	314,(1, 20),3	317,(1, 27),1	318,(1, 31),6	324,(1, 42),8	332,(1, 47),7	339,(1, 55),14	353,(1, 58),11	364,(1, 74),64	428,(1, 82),12	440,(1, 87),43	483,(1, 102),1	484,(1, 106),7	491,(1, 108),36	527,(1, 110),5	532,(1, 114),7	539,(5, 15),1	540,(5, 16),1	541,(5, 44),1	542,(5, 46),13	555,(5, 52),30	585,(5, 58),16	601,(5, 64),1	602,(5, 72),1	603,(5, 86),18	621,(5, 90),16	637,(5, 92),2	639,(5, 95),6	645,(5, 104),1	646,(5, 107),8	
