4098
# CPU
433,10,6	465,21,6	841,40,6	921,120,6	927,100,6	1029,60,6	1109,30,6	1217,80,6	1757,50,6	1805,110,6	2281,70,6	2485,90,6	
385,9,6	391,29,6	397,39,6	913,49,6	925,20,6	953,59,6	1081,69,6	1133,79,6	1245,89,6	1305,109,6	1421,119,6	1741,99,6	
337,8,6	343,19,6	349,58,6	355,28,6	393,78,6	473,38,6	745,68,6	1705,98,6	1801,108,6	2449,88,6	2649,118,6	2973,48,6	
289,7,6	295,18,6	385,67,6	469,37,6	2013,27,6	2045,97,6	2081,57,6	2189,87,6	2257,47,6	2425,77,6	2525,107,6	2641,117,6	
241,6,6	247,76,6	417,46,6	541,116,6	677,96,6	721,17,6	733,106,6	761,56,6	767,86,6	1057,66,6	1117,26,6	1153,36,6	
193,5,6	217,35,6	297,25,6	303,16,6	365,85,6	533,65,6	613,45,6	1049,105,6	1061,75,6	1217,55,6	1693,95,6	3017,115,6	
145,4,6	385,74,6	401,64,6	421,84,6	497,34,6	753,24,6	929,54,6	1601,94,6	1745,104,6	1753,44,6	2621,114,6	2741,15,6	
97,3,6	103,103,6	395,13,6	415,63,6	621,73,6	997,23,6	1033,33,6	1285,113,6	1757,93,6	2429,83,6	2969,43,6	3005,53,6	
49,2,6	55,102,6	345,22,6	419,72,6	425,92,6	481,12,6	487,42,6	1193,62,6	1199,52,6	1205,112,6	1233,82,6	2745,32,6	
0,0,1	1,11,6	7,1,6	13,14,6	19,101,6	25,81,6	1757,71,6	2701,31,6	2745,51,6	2773,111,6	2825,61,6	3789,41,6	3813,91,6	4097,121,1	
# Incoming
385,(0, 10),48	433,(4, 21),32	465,(6, 110),4	489,(4, 30),108	597,(6, 50),236	833,(7, 40),8	841,(7, 70),12	853,(7, 100),24	877,(7, 120),44	921,(8, 100),4	953,(2, 60),76	1029,(8, 30),80	1109,(9, 80),108	1273,(2, 90),316	1589,(5, 50),168	1801,(12, 110),4	2013,(11, 70),268	2449,(11, 90),36	
337,(0, 9),48	385,(7, 29),4	417,(2, 49),496	913,(4, 99),8	921,(10, 20),4	929,(2, 59),24	953,(6, 69),128	1109,(8, 79),24	1193,(4, 89),52	1245,(5, 109),60	1417,(10, 119),4	1705,(2, 99),36	
289,(0, 8),48	337,(5, 19),4	341,(6, 28),4	389,(5, 78),4	393,(5, 108),28	421,(9, 38),52	613,(4, 68),132	745,(5, 48),476	1285,(10, 118),132	1693,(2, 98),12	1757,(12, 108),44	2429,(11, 88),20	2641,(11, 118),8	2969,(1, 48),4	
241,(0, 7),48	289,(2, 18),4	293,(3, 37),8	345,(6, 57),12	357,(6, 67),28	385,(5, 77),4	395,(9, 37),4	465,(4, 37),4	481,(11, 27),1532	2013,(2, 97),32	2045,(2, 107),4	2049,(4, 57),32	2081,(9, 87),108	2189,(12, 47),68	2281,(11, 77),144	2485,(11, 107),40	2621,(11, 117),20	
193,(0, 6),48	297,(2, 46),120	417,(3, 86),64	481,(4, 26),8	489,(5, 116),52	541,(7, 96),136	677,(7, 106),4	681,(8, 17),40	721,(9, 66),4	725,(9, 106),8	753,(8, 56),8	761,(8, 86),4	765,(9, 26),176	941,(9, 36),84	1029,(2, 66),28	1057,(10, 26),60	1117,(10, 36),36	
145,(0, 5),48	193,(3, 35),24	229,(3, 95),4	293,(2, 25),4	297,(7, 16),4	309,(7, 85),56	473,(9, 65),60	597,(4, 45),16	1045,(10, 105),4	1057,(2, 75),4	1153,(10, 55),64	1601,(2, 95),92	3005,(1, 115),12	
97,(0, 4),48	345,(5, 74),40	385,(6, 64),16	401,(6, 84),20	421,(7, 34),76	721,(8, 24),32	913,(2, 54),16	1589,(2, 94),12	1741,(2, 104),4	1749,(12, 44),4	1805,(12, 114),8	2525,(11, 114),96	2649,(1, 15),92	
49,(0, 3),48	301,(7, 83),8	391,(9, 13),4	399,(9, 63),16	533,(9, 73),88	925,(10, 23),72	997,(10, 33),36	1033,(10, 83),12	1061,(2, 83),212	1273,(10, 113),12	1753,(12, 93),4	2425,(11, 83),4	2745,(1, 43),224	2973,(1, 53),32	
1,(0, 2),48	217,(3, 82),12	341,(5, 22),4	415,(9, 72),4	421,(6, 92),4	433,(0, 12),48	481,(3, 52),484	965,(4, 62),228	1193,(8, 52),4	1197,(8, 112),4	1217,(9, 82),16	2741,(1, 32),4	
1745,(102, 121),4	1749,(3, 71),8	1757,(103, 121),4	1761,(4, 41),4	1765,(5, 51),852	2617,(35, 121),4	2621,(76, 121),4	2625,(7, 31),76	2701,(7, 61),28	2729,(18, 121),4	2733,(25, 121),4	2737,(16, 121),4	2741,(8, 51),4	2745,(19, 121),4	2749,(22, 121),4	2753,(58, 121),4	2757,(28, 121),4	2761,(85, 121),4	2765,(9, 111),8	2773,(74, 121),4	2777,(67, 121),4	2781,(29, 121),4	2785,(78, 121),4	2789,(13, 121),4	2793,(39, 121),4	2797,(64, 121),4	2801,(63, 121),4	2805,(46, 121),4	2809,(72, 121),4	2813,(84, 121),4	2817,(92, 121),4	2821,(10, 61),4	2825,(21, 121),4	2829,(37, 121),4	2833,(38, 121),4	2837,(12, 41),952	3789,(12, 91),24	3813,(42, 121),4	3817,(34, 121),4	3821,(65, 121),4	3825,(116, 121),4	3829,(45, 121),4	3833,(73, 121),4	3837,(96, 121),4	3841,(17, 121),4	3845,(106, 121),4	3849,(68, 121),4	3853,(24, 121),4	3857,(56, 121),4	3861,(86, 121),4	3865,(40, 121),4	3869,(49, 121),4	3873,(120, 121),4	3877,(20, 121),4	3881,(100, 121),4	3885,(54, 121),4	3889,(59, 121),4	3893,(23, 121),4	3897,(60, 121),4	3901,(33, 121),4	3905,(105, 121),4	3909,(66, 121),4	3913,(75, 121),4	3917,(69, 121),4	3921,(30, 121),4	3925,(26, 121),4	3929,(79, 121),4	3933,(36, 121),4	3937,(62, 121),4	3941,(52, 121),4	3945,(112, 121),4	3949,(80, 121),4	3953,(55, 121),4	3957,(82, 121),4	3961,(89, 121),4	3965,(113, 121),4	3969,(109, 121),4	3973,(119, 121),4	3977,(94, 121),4	3981,(95, 121),4	3985,(98, 121),4	3989,(99, 121),4	3993,(104, 121),4	3997,(44, 121),4	4001,(50, 121),4	4005,(93, 121),4	4009,(108, 121),4	4013,(110, 121),4	4017,(27, 121),4	4021,(97, 121),4	4025,(57, 121),4	4029,(87, 121),4	4033,(47, 121),4	4037,(70, 121),4	4041,(77, 121),4	4045,(83, 121),4	4049,(88, 121),4	4053,(90, 121),4	4057,(107, 121),4	4061,(114, 121),4	4065,(117, 121),4	4069,(118, 121),4	4073,(15, 121),4	4077,(32, 121),4	4081,(43, 121),4	4085,(48, 121),4	4089,(53, 121),4	4093,(115, 121),4	
# Outgoing
921,(10, 20),4	925,(10, 23),72	997,(10, 33),36	1033,(10, 83),12	1045,(10, 105),4	1057,(10, 26),60	1117,(10, 36),36	1153,(10, 55),64	1273,(10, 113),12	1285,(10, 118),132	1417,(10, 119),4	2821,(10, 61),4	2825,(21, 121),4	3865,(40, 121),4	3873,(120, 121),4	3881,(100, 121),4	3897,(60, 121),4	3921,(30, 121),4	3949,(80, 121),4	4001,(50, 121),4	4013,(110, 121),4	4037,(70, 121),4	4053,(90, 121),4	
391,(9, 13),4	395,(9, 37),4	399,(9, 63),16	415,(9, 72),4	421,(9, 38),52	473,(9, 65),60	533,(9, 73),88	721,(9, 66),4	725,(9, 106),8	765,(9, 26),176	941,(9, 36),84	1109,(9, 80),108	1217,(9, 82),16	2081,(9, 87),108	2765,(9, 111),8	2781,(29, 121),4	2793,(39, 121),4	3869,(49, 121),4	3877,(20, 121),4	3889,(59, 121),4	3917,(69, 121),4	3929,(79, 121),4	3961,(89, 121),4	3969,(109, 121),4	3973,(119, 121),4	3989,(99, 121),4	
681,(8, 17),40	721,(8, 24),32	753,(8, 56),8	761,(8, 86),4	921,(8, 100),4	1029,(8, 30),80	1109,(8, 79),24	1193,(8, 52),4	1197,(8, 112),4	2741,(8, 51),4	2745,(19, 121),4	2753,(58, 121),4	2757,(28, 121),4	2785,(78, 121),4	2833,(38, 121),4	3849,(68, 121),4	3985,(98, 121),4	4009,(108, 121),4	4049,(88, 121),4	4069,(118, 121),4	4085,(48, 121),4	
297,(7, 16),4	301,(7, 83),8	309,(7, 85),56	385,(7, 29),4	421,(7, 34),76	541,(7, 96),136	677,(7, 106),4	833,(7, 40),8	841,(7, 70),12	853,(7, 100),24	877,(7, 120),44	2625,(7, 31),76	2701,(7, 61),28	2729,(18, 121),4	2777,(67, 121),4	2829,(37, 121),4	4017,(27, 121),4	4021,(97, 121),4	4025,(57, 121),4	4029,(87, 121),4	4033,(47, 121),4	4041,(77, 121),4	4057,(107, 121),4	4065,(117, 121),4	
341,(6, 28),4	345,(6, 57),12	357,(6, 67),28	385,(6, 64),16	401,(6, 84),20	421,(6, 92),4	465,(6, 110),4	597,(6, 50),236	953,(6, 69),128	2621,(76, 121),4	2805,(46, 121),4	3825,(116, 121),4	3837,(96, 121),4	3841,(17, 121),4	3845,(106, 121),4	3857,(56, 121),4	3861,(86, 121),4	3909,(66, 121),4	3925,(26, 121),4	3933,(36, 121),4	
337,(5, 19),4	341,(5, 22),4	345,(5, 74),40	385,(5, 77),4	389,(5, 78),4	393,(5, 108),28	489,(5, 116),52	745,(5, 48),476	1245,(5, 109),60	1589,(5, 50),168	1765,(5, 51),852	2617,(35, 121),4	2733,(25, 121),4	2737,(16, 121),4	2761,(85, 121),4	3821,(65, 121),4	3829,(45, 121),4	3905,(105, 121),4	3913,(75, 121),4	3953,(55, 121),4	3981,(95, 121),4	4093,(115, 121),4	
433,(4, 21),32	465,(4, 37),4	481,(4, 26),8	489,(4, 30),108	597,(4, 45),16	613,(4, 68),132	913,(4, 99),8	965,(4, 62),228	1193,(4, 89),52	1761,(4, 41),4	2049,(4, 57),32	2773,(74, 121),4	2797,(64, 121),4	2813,(84, 121),4	3817,(34, 121),4	3853,(24, 121),4	3885,(54, 121),4	3977,(94, 121),4	3993,(104, 121),4	3997,(44, 121),4	4061,(114, 121),4	4073,(15, 121),4	
193,(3, 35),24	217,(3, 82),12	229,(3, 95),4	293,(3, 37),8	417,(3, 86),64	481,(3, 52),484	1749,(3, 71),8	1757,(103, 121),4	2789,(13, 121),4	2801,(63, 121),4	3833,(73, 121),4	3893,(23, 121),4	3901,(33, 121),4	3965,(113, 121),4	4005,(93, 121),4	4045,(83, 121),4	4081,(43, 121),4	4089,(53, 121),4	
289,(2, 18),4	293,(2, 25),4	297,(2, 46),120	417,(2, 49),496	913,(2, 54),16	929,(2, 59),24	953,(2, 60),76	1029,(2, 66),28	1057,(2, 75),4	1061,(2, 83),212	1273,(2, 90),316	1589,(2, 94),12	1601,(2, 95),92	1693,(2, 98),12	1705,(2, 99),36	1741,(2, 104),4	1745,(102, 121),4	1749,(12, 44),4	1753,(12, 93),4	1757,(12, 108),44	1801,(12, 110),4	1805,(12, 114),8	2013,(2, 97),32	2045,(2, 107),4	2189,(12, 47),68	2749,(22, 121),4	2809,(72, 121),4	2817,(92, 121),4	2837,(12, 41),952	3789,(12, 91),24	3813,(42, 121),4	3937,(62, 121),4	3941,(52, 121),4	3945,(112, 121),4	3957,(82, 121),4	4077,(32, 121),4	
1,(0, 2),48	49,(0, 3),48	97,(0, 4),48	145,(0, 5),48	193,(0, 6),48	241,(0, 7),48	289,(0, 8),48	337,(0, 9),48	385,(0, 10),48	433,(0, 12),48	481,(11, 27),1532	2013,(11, 70),268	2281,(11, 77),144	2425,(11, 83),4	2429,(11, 88),20	2449,(11, 90),36	2485,(11, 107),40	2525,(11, 114),96	2621,(11, 117),20	2641,(11, 118),8	2649,(1, 15),92	2741,(1, 32),4	2745,(1, 43),224	2969,(1, 48),4	2973,(1, 53),32	3005,(1, 115),12	
