1630
# CPU
0,0,1	1,15,4	5,120,4	9,177,4	13,17,4	17,197,4	21,24,4	25,82,4	29,94,4	33,51,4	37,37,4	41,161,4	45,60,4	49,66,4	53,99,4	57,4,4	61,89,4	65,139,4	69,136,4	73,69,4	77,49,4	81,45,4	85,92,4	89,50,4	97,196,4	105,85,4	111,53,4	121,76,4	129,183,4	139,188,4	151,134,4	163,46,4	177,96,4	191,145,4	207,73,4	223,174,4	243,54,4	265,171,4	289,77,4	313,167,4	341,71,4	373,162,4	407,109,4	445,44,4	485,199,4	525,168,4	565,42,4	615,67,4	663,191,4	717,26,4	781,100,4	847,176,4	915,93,4	995,58,4	1079,143,4	1167,107,4	1277,79,4	1401,43,4	1625,104,4	1629,201,1	
3,2,4	7,13,4	11,14,4	15,16,4	19,10,4	23,20,4	27,7,4	31,9,4	35,5,4	39,11,4	43,6,4	47,19,4	51,3,4	55,12,4	59,1,4	63,18,4	67,175,4	71,38,4	75,78,4	79,150,4	83,87,4	87,84,4	91,25,4	95,141,4	99,47,4	103,39,4	107,75,4	111,144,4	115,23,4	119,97,4	123,178,4	127,193,4	131,108,4	135,125,4	139,83,4	143,166,4	147,59,4	151,117,4	155,21,4	159,137,4	163,33,4	167,122,4	171,189,4	175,27,4	179,194,4	183,64,4	187,90,4	191,170,4	195,118,4	199,111,4	203,70,4	207,34,4	211,72,4	215,35,4	219,65,4	223,172,4	227,186,4	231,128,4	235,41,4	239,112,4	243,106,4	247,153,4	251,62,4	255,105,4	259,36,4	263,115,4	267,151,4	271,169,4	275,160,4	279,129,4	283,132,4	287,68,4	291,198,4	295,182,4	299,123,4	303,126,4	307,130,4	311,185,4	315,131,4	319,195,4	323,48,4	327,173,4	331,157,4	335,103,4	339,61,4	343,32,4	347,124,4	351,146,4	355,102,4	359,187,4	363,142,4	367,133,4	371,140,4	375,110,4	379,86,4	383,55,4	387,155,4	391,98,4	395,165,4	399,114,4	403,127,4	407,121,4	411,40,4	415,88,4	419,154,4	423,63,4	427,158,4	431,149,4	435,81,4	439,56,4	443,119,4	447,113,4	451,190,4	455,30,4	459,179,4	463,80,4	467,28,4	471,57,4	475,31,4	
5,8,4	9,147,4	13,91,4	17,192,4	21,95,4	25,164,4	29,181,4	33,163,4	37,74,4	41,148,4	45,138,4	49,135,4	53,101,4	57,22,4	61,156,4	65,159,4	69,116,4	73,184,4	77,29,4	81,200,4	85,52,4	89,152,4	93,180,4	
# Incoming
13,(147, 201),2	15,(8, 191),2	17,(91, 201),2	21,(192, 201),2	23,(10, 45),2	25,(95, 201),2	27,(14, 92),2	29,(164, 201),2	33,(181, 201),2	37,(163, 201),2	41,(74, 201),2	43,(16, 50),2	45,(148, 201),2	49,(138, 201),2	53,(135, 201),2	57,(101, 201),2	61,(22, 201),2	65,(156, 201),2	67,(19, 49),2	69,(159, 201),2	71,(175, 201),2	73,(116, 201),2	75,(38, 201),2	77,(184, 201),2	79,(78, 201),2	81,(29, 201),2	83,(150, 201),2	85,(200, 201),2	87,(87, 201),2	89,(52, 201),2	91,(84, 201),2	93,(152, 201),2	95,(19, 196),2	97,(25, 201),2	99,(180, 201),2	101,(141, 201),2	103,(10, 85),2	105,(47, 201),2	107,(39, 201),2	109,(6, 53),2	111,(75, 201),2	113,(14, 174),2	115,(144, 201),2	117,(1, 76),4	121,(23, 201),2	123,(97, 201),2	125,(7, 183),4	129,(178, 201),2	131,(193, 201),2	133,(18, 188),6	139,(108, 201),2	141,(125, 201),2	143,(83, 201),2	145,(3, 134),6	151,(166, 201),2	153,(59, 201),2	155,(117, 201),2	157,(20, 46),6	163,(21, 201),2	165,(137, 201),2	167,(33, 201),2	169,(5, 96),8	177,(122, 201),2	179,(189, 201),2	181,(27, 201),2	183,(1, 145),8	191,(194, 201),2	193,(64, 201),2	195,(90, 201),2	197,(16, 73),10	207,(170, 201),2	209,(118, 201),2	211,(111, 201),2	213,(20, 174),10	223,(70, 201),2	225,(34, 201),2	227,(72, 201),2	229,(11, 54),14	243,(35, 201),2	245,(65, 201),2	247,(172, 201),2	249,(10, 171),16	265,(186, 201),2	267,(128, 201),2	269,(41, 201),2	271,(8, 77),10	281,(11, 77),8	289,(112, 201),2	291,(106, 201),2	293,(153, 201),2	295,(9, 167),18	313,(62, 201),2	315,(105, 201),2	317,(36, 201),2	319,(20, 71),22	341,(115, 201),2	343,(151, 201),2	345,(169, 201),2	347,(8, 162),14	361,(5, 162),12	373,(160, 201),2	375,(129, 201),2	377,(132, 201),2	379,(11, 109),28	407,(68, 201),2	409,(198, 201),2	411,(182, 201),2	413,(9, 44),18	431,(12, 44),14	445,(123, 201),2	447,(126, 201),2	449,(130, 201),2	451,(8, 199),24	475,(19, 199),10	485,(185, 201),2	487,(131, 201),2	489,(195, 201),2	491,(8, 168),30	521,(9, 168),4	525,(48, 201),2	527,(173, 201),2	529,(157, 201),2	531,(1, 42),34	565,(103, 201),2	567,(61, 201),2	569,(32, 201),2	571,(7, 67),18	589,(3, 67),16	605,(12, 67),10	615,(124, 201),2	617,(146, 201),2	619,(102, 201),2	621,(7, 191),36	657,(6, 191),6	663,(187, 201),2	665,(142, 201),2	667,(133, 201),2	669,(8, 26),24	693,(10, 26),8	701,(7, 26),16	717,(140, 201),2	719,(110, 201),2	721,(86, 201),2	723,(6, 100),56	779,(1, 100),2	781,(55, 201),2	783,(155, 201),2	785,(98, 201),2	787,(16, 176),36	823,(20, 176),2	825,(6, 176),22	847,(165, 201),2	849,(114, 201),2	851,(127, 201),2	853,(9, 93),62	915,(121, 201),2	917,(40, 201),2	919,(88, 201),2	921,(10, 58),74	995,(154, 201),2	997,(63, 201),2	999,(158, 201),2	1001,(19, 143),78	1079,(149, 201),2	1081,(81, 201),2	1083,(56, 201),2	1085,(3, 107),82	1167,(119, 201),2	1169,(113, 201),2	1171,(190, 201),2	1173,(9, 79),104	1277,(30, 201),2	1279,(179, 201),2	1281,(80, 201),2	1283,(8, 43),60	1343,(16, 43),42	1385,(9, 43),16	1401,(28, 201),2	1403,(57, 201),2	1405,(31, 201),2	1407,(12, 104),218	
1,(0, 2),2	5,(0, 13),2	7,(0, 14),2	9,(0, 16),2	11,(0, 10),2	13,(0, 20),2	15,(0, 7),2	17,(0, 9),2	19,(0, 5),2	21,(0, 11),2	23,(0, 6),2	25,(0, 19),2	27,(0, 3),2	29,(0, 12),2	31,(0, 1),2	33,(0, 18),2	35,(17, 31),12	61,(4, 57),4	
3,(0, 8),2	11,(13, 95),2	13,(13, 164),2	15,(14, 181),2	17,(14, 74),2	19,(16, 116),2	21,(16, 200),2	31,(7, 163),2	35,(9, 184),2	39,(5, 148),2	41,(5, 138),2	45,(11, 180),2	47,(6, 135),2	51,(19, 101),2	55,(3, 22),2	57,(3, 180),2	59,(12, 156),2	61,(12, 152),2	63,(1, 159),2	65,(1, 52),2	69,(18, 29),2	
# Outgoing
1,(0, 2),2	3,(0, 8),2	5,(0, 13),2	7,(0, 14),2	9,(0, 16),2	11,(0, 10),2	13,(0, 20),2	15,(0, 7),2	17,(0, 9),2	19,(0, 5),2	21,(0, 11),2	23,(0, 6),2	25,(0, 19),2	27,(0, 3),2	29,(0, 12),2	31,(0, 1),2	33,(0, 18),2	35,(17, 31),12	61,(4, 57),4	
11,(13, 95),2	13,(13, 164),2	15,(14, 181),2	17,(14, 74),2	19,(16, 116),2	21,(16, 200),2	23,(10, 45),2	27,(14, 92),2	31,(7, 163),2	35,(9, 184),2	39,(5, 148),2	41,(5, 138),2	43,(16, 50),2	45,(11, 180),2	47,(6, 135),2	51,(19, 101),2	55,(3, 22),2	57,(3, 180),2	59,(12, 156),2	61,(12, 152),2	63,(1, 159),2	65,(1, 52),2	67,(19, 49),2	69,(18, 29),2	71,(175, 201),2	75,(38, 201),2	79,(78, 201),2	83,(150, 201),2	87,(87, 201),2	91,(84, 201),2	95,(19, 196),2	97,(25, 201),2	101,(141, 201),2	103,(10, 85),2	105,(47, 201),2	107,(39, 201),2	109,(6, 53),2	111,(75, 201),2	113,(14, 174),2	115,(144, 201),2	117,(1, 76),4	121,(23, 201),2	123,(97, 201),2	125,(7, 183),4	129,(178, 201),2	131,(193, 201),2	133,(18, 188),6	139,(108, 201),2	141,(125, 201),2	143,(83, 201),2	145,(3, 134),6	151,(166, 201),2	153,(59, 201),2	155,(117, 201),2	157,(20, 46),6	163,(21, 201),2	165,(137, 201),2	167,(33, 201),2	169,(5, 96),8	177,(122, 201),2	179,(189, 201),2	181,(27, 201),2	183,(1, 145),8	191,(194, 201),2	193,(64, 201),2	195,(90, 201),2	197,(16, 73),10	207,(170, 201),2	209,(118, 201),2	211,(111, 201),2	213,(20, 174),10	223,(70, 201),2	225,(34, 201),2	227,(72, 201),2	229,(11, 54),14	243,(35, 201),2	245,(65, 201),2	247,(172, 201),2	249,(10, 171),16	265,(186, 201),2	267,(128, 201),2	269,(41, 201),2	281,(11, 77),8	289,(112, 201),2	291,(106, 201),2	293,(153, 201),2	295,(9, 167),18	313,(62, 201),2	315,(105, 201),2	317,(36, 201),2	319,(20, 71),22	341,(115, 201),2	343,(151, 201),2	345,(169, 201),2	361,(5, 162),12	373,(160, 201),2	375,(129, 201),2	377,(132, 201),2	379,(11, 109),28	407,(68, 201),2	409,(198, 201),2	411,(182, 201),2	413,(9, 44),18	431,(12, 44),14	445,(123, 201),2	447,(126, 201),2	449,(130, 201),2	475,(19, 199),10	485,(185, 201),2	487,(131, 201),2	489,(195, 201),2	521,(9, 168),4	525,(48, 201),2	527,(173, 201),2	529,(157, 201),2	531,(1, 42),34	565,(103, 201),2	567,(61, 201),2	569,(32, 201),2	571,(7, 67),18	589,(3, 67),16	605,(12, 67),10	615,(124, 201),2	617,(146, 201),2	619,(102, 201),2	621,(7, 191),36	657,(6, 191),6	663,(187, 201),2	665,(142, 201),2	667,(133, 201),2	693,(10, 26),8	701,(7, 26),16	717,(140, 201),2	719,(110, 201),2	721,(86, 201),2	723,(6, 100),56	779,(1, 100),2	781,(55, 201),2	783,(155, 201),2	785,(98, 201),2	787,(16, 176),36	823,(20, 176),2	825,(6, 176),22	847,(165, 201),2	849,(114, 201),2	851,(127, 201),2	853,(9, 93),62	915,(121, 201),2	917,(40, 201),2	919,(88, 201),2	921,(10, 58),74	995,(154, 201),2	997,(63, 201),2	999,(158, 201),2	1001,(19, 143),78	1079,(149, 201),2	1081,(81, 201),2	1083,(56, 201),2	1085,(3, 107),82	1167,(119, 201),2	1169,(113, 201),2	1171,(190, 201),2	1173,(9, 79),104	1277,(30, 201),2	1279,(179, 201),2	1281,(80, 201),2	1343,(16, 43),42	1385,(9, 43),16	1401,(28, 201),2	1403,(57, 201),2	1405,(31, 201),2	1407,(12, 104),218	
13,(147, 201),2	15,(8, 191),2	17,(91, 201),2	21,(192, 201),2	25,(95, 201),2	29,(164, 201),2	33,(181, 201),2	37,(163, 201),2	41,(74, 201),2	45,(148, 201),2	49,(138, 201),2	53,(135, 201),2	57,(101, 201),2	61,(22, 201),2	65,(156, 201),2	69,(159, 201),2	73,(116, 201),2	77,(184, 201),2	81,(29, 201),2	85,(200, 201),2	89,(52, 201),2	93,(152, 201),2	99,(180, 201),2	271,(8, 77),10	347,(8, 162),14	451,(8, 199),24	491,(8, 168),30	669,(8, 26),24	1283,(8, 43),60	
