4442
# CPU
13,5,18	113,109,18	257,64,18	329,14,18	347,23,18	425,59,18	475,35,18	631,41,18	673,115,18	691,83,18	2105,53,18	2217,102,18	
37,11,18	125,34,18	147,70,18	311,105,18	359,40,18	407,75,18	425,108,18	2121,65,18	2213,94,18	2239,103,18	2257,104,18	2297,119,18	
17,6,18	35,112,18	127,29,18	145,48,18	163,49,18	181,31,18	199,39,18	393,52,18	437,42,18	521,89,18	693,97,18	713,111,18	
29,9,18	147,13,18	175,90,18	193,84,18	313,45,18	345,20,18	363,76,18	381,87,18	543,117,18	2069,16,18	2093,24,18	2111,56,18	
41,12,18	175,50,18	207,19,18	245,101,18	309,98,18	331,62,18	349,74,18	543,68,18	587,73,18	685,96,18	719,114,18	2103,28,18	
9,4,18	101,91,18	167,15,18	189,107,18	355,22,18	373,27,18	455,57,18	473,61,18	579,78,18	715,113,18	2087,21,18	2201,93,18	
21,7,18	39,51,18	57,54,18	367,32,18	385,44,18	403,100,18	421,118,18	679,85,18	2129,66,18	2151,79,18	2169,80,18	
0,0,1	1,2,18	19,1,18	111,25,18	129,18,18	147,43,18	169,38,18	187,63,18	231,88,18	249,99,18	279,82,18	391,110,18	
5,3,18	23,17,18	41,120,18	59,10,18	125,95,18	243,37,18	261,58,18	297,77,18	315,46,18	333,69,18	423,55,18	547,72,18	2099,26,18	2149,67,18	
25,8,18	155,33,18	173,36,18	561,71,18	579,47,18	681,92,18	699,106,18	3163,30,18	4109,116,18	4157,86,18	4189,81,18	4281,60,18	4441,121,1	
# Incoming
9,(0, 5),4	41,(4, 23),2	57,(8, 59),6	73,(4, 35),16	97,(6, 23),2	99,(2, 23),6	111,(4, 109),2	117,(6, 83),2	119,(9, 14),18	137,(12, 53),2	143,(9, 102),2	145,(2, 35),12	157,(3, 64),2	159,(6, 64),22	181,(7, 59),4	191,(4, 83),8	199,(6, 53),56	255,(7, 64),2	257,(9, 35),10	267,(9, 53),30	297,(11, 41),2	305,(6, 115),10	315,(10, 14),14	345,(10, 23),2	359,(7, 115),16	423,(2, 59),2	425,(11, 35),50	475,(11, 83),66	541,(11, 115),20	561,(12, 41),70	631,(10, 83),32	663,(10, 115),10	673,(2, 83),2	2103,(1, 53),2	2213,(1, 102),4	
33,(0, 11),4	69,(4, 34),4	101,(4, 65),2	103,(4, 75),6	109,(4, 103),2	121,(3, 34),4	127,(5, 119),4	139,(9, 40),2	141,(12, 70),6	147,(9, 75),8	155,(6, 105),2	163,(2, 40),74	237,(4, 105),8	245,(5, 105),12	257,(7, 75),12	269,(3, 75),16	285,(7, 108),8	295,(6, 108),10	309,(3, 105),2	311,(7, 40),48	359,(8, 119),30	389,(9, 103),8	397,(12, 75),10	407,(12, 108),12	543,(10, 119),12	693,(2, 103),18	2033,(2, 119),12	2107,(1, 65),14	2201,(1, 94),12	2217,(1, 103),22	2239,(1, 104),6	2245,(1, 119),52	
13,(0, 6),4	45,(8, 29),6	51,(8, 31),2	89,(4, 42),4	115,(2, 29),12	127,(2, 31),4	131,(3, 48),2	133,(3, 49),2	135,(3, 52),22	157,(7, 31),2	159,(7, 52),2	161,(9, 31),2	163,(9, 39),2	165,(9, 42),12	177,(9, 97),2	179,(5, 111),2	181,(9, 89),12	193,(12, 42),6	237,(2, 42),72	309,(5, 97),6	331,(9, 111),18	357,(11, 52),36	393,(11, 111),12	419,(10, 42),18	519,(10, 89),2	521,(10, 111),20	685,(2, 97),8	711,(2, 111),2	
25,(0, 9),4	29,(4, 16),12	41,(2, 13),4	45,(4, 24),2	47,(5, 13),8	55,(5, 20),4	59,(6, 13),8	67,(6, 16),26	93,(6, 20),4	97,(4, 56),4	101,(6, 24),2	103,(8, 24),2	105,(3, 24),4	109,(8, 56),10	119,(12, 13),6	125,(3, 56),2	127,(7, 13),20	147,(7, 24),2	161,(3, 84),2	163,(5, 90),12	175,(7, 84),4	179,(8, 76),16	201,(4, 117),34	235,(11, 20),4	239,(11, 24),6	269,(7, 76),10	309,(2, 45),4	329,(10, 20),16	349,(10, 76),2	351,(10, 87),2	369,(10, 56),14	541,(10, 117),2	2045,(1, 16),24	2087,(1, 24),6	2105,(1, 56),2	
37,(0, 12),4	45,(2, 19),32	77,(3, 19),28	105,(2, 28),10	115,(4, 28),10	125,(4, 62),2	127,(3, 62),4	131,(5, 62),16	149,(6, 68),2	151,(6, 101),4	155,(7, 28),2	159,(3, 74),2	161,(7, 73),2	163,(8, 50),12	175,(5, 96),2	177,(5, 98),2	179,(7, 98),2	185,(7, 62),10	195,(7, 68),4	199,(4, 96),2	201,(11, 19),6	207,(7, 114),4	211,(8, 73),30	241,(9, 101),4	245,(11, 74),2	299,(11, 114),4	303,(3, 98),6	309,(9, 62),22	347,(10, 74),2	491,(2, 68),52	563,(10, 73),24	683,(2, 96),2	715,(2, 114),4	2099,(1, 28),4	
5,(0, 4),4	43,(8, 21),2	55,(8, 57),2	59,(5, 21),16	75,(8, 78),2	77,(2, 22),22	99,(8, 91),2	101,(8, 113),2	103,(6, 27),6	125,(5, 107),2	127,(6, 61),22	149,(7, 22),2	151,(7, 27),2	153,(8, 107),10	163,(12, 15),4	167,(12, 22),6	173,(7, 93),2	179,(9, 113),2	181,(6, 107),8	189,(6, 113),4	193,(9, 78),8	207,(11, 27),10	217,(12, 78),16	259,(6, 93),36	295,(8, 93),58	353,(10, 22),2	355,(10, 27),10	437,(10, 57),18	455,(10, 61),16	547,(2, 78),32	587,(10, 93),36	681,(2, 93),2	713,(2, 113),2	2069,(1, 21),18	2159,(1, 93),42	
17,(0, 7),4	53,(8, 44),2	63,(8, 85),2	81,(5, 66),30	111,(6, 44),6	119,(8, 118),8	127,(12, 85),2	131,(2, 32),14	145,(9, 66),2	181,(4, 80),10	201,(9, 79),32	233,(11, 85),2	245,(4, 118),4	249,(11, 32),8	313,(3, 118),2	315,(11, 44),42	365,(10, 32),2	367,(10, 44),2	383,(10, 100),6	405,(11, 118),14	425,(2, 66),36	471,(10, 66),18	489,(10, 79),30	675,(2, 85),4	2121,(1, 66),8	2149,(1, 79),2	2151,(1, 80),8	
109,(3, 25),2	111,(5, 18),2	119,(6, 88),2	125,(6, 99),2	127,(8, 110),6	133,(12, 38),2	141,(9, 43),2	147,(5, 82),16	163,(7, 38),6	169,(7, 63),4	199,(7, 99),4	203,(7, 110),4	217,(11, 82),12	229,(11, 88),2	231,(11, 99),2	241,(8, 82),38	311,(3, 110),2	389,(10, 110),2	
1,(0, 3),4	29,(0, 10),4	43,(4, 46),2	47,(4, 26),22	69,(8, 58),2	93,(4, 55),4	113,(5, 67),2	115,(5, 77),4	119,(5, 95),6	125,(12, 72),2	127,(4, 67),54	181,(5, 26),52	233,(7, 37),10	243,(7, 46),4	247,(7, 69),4	251,(9, 77),2	255,(6, 69),4	259,(11, 58),2	261,(11, 67),2	263,(11, 77),34	297,(9, 67),8	305,(12, 46),6	311,(12, 69),8	391,(2, 55),32	461,(2, 67),30	543,(2, 72),4	2093,(1, 26),6	2129,(1, 67),20	
21,(0, 8),4	75,(5, 33),6	99,(6, 30),2	109,(6, 33),2	111,(3, 33),10	121,(6, 81),2	123,(6, 92),2	129,(12, 106),2	137,(9, 36),2	153,(7, 33),2	157,(2, 36),6	163,(3, 30),92	255,(3, 71),14	269,(4, 81),16	285,(3, 81),18	303,(7, 47),2	305,(11, 47),4	309,(51, 121),2	311,(91, 121),2	313,(2, 47),78	391,(3, 86),28	419,(5, 30),50	469,(6, 60),54	523,(6, 86),12	535,(6, 116),16	551,(7, 71),10	561,(17, 121),2	563,(9, 47),16	579,(2, 81),94	673,(112, 121),2	675,(120, 121),2	677,(54, 121),2	679,(2, 92),2	681,(11, 60),10	691,(10, 106),6	697,(109, 121),2	699,(95, 121),2	701,(34, 121),2	703,(29, 121),2	705,(48, 121),2	707,(13, 121),2	709,(70, 121),2	711,(49, 121),2	713,(15, 121),2	715,(90, 121),2	717,(50, 121),2	719,(2, 116),1314	2033,(4, 86),630	2663,(1, 30),500	3163,(1, 116),2	3165,(7, 86),454	3619,(7, 116),120	3739,(9, 60),268	4007,(9, 116),102	4109,(11, 86),48	4157,(12, 81),32	4189,(10, 60),92	4281,(25, 121),2	4283,(18, 121),2	4285,(43, 121),2	4287,(38, 121),2	4289,(31, 121),2	4291,(63, 121),2	4293,(107, 121),2	4295,(84, 121),2	4297,(39, 121),2	4299,(19, 121),2	4301,(88, 121),2	4303,(37, 121),2	4305,(101, 121),2	4307,(99, 121),2	4309,(64, 121),2	4311,(58, 121),2	4313,(82, 121),2	4315,(77, 121),2	4317,(98, 121),2	4319,(105, 121),2	4321,(45, 121),2	4323,(46, 121),2	4325,(14, 121),2	4327,(62, 121),2	4329,(69, 121),2	4331,(20, 121),2	4333,(23, 121),2	4335,(74, 121),2	4337,(22, 121),2	4339,(40, 121),2	4341,(76, 121),2	4343,(32, 121),2	4345,(27, 121),2	4347,(87, 121),2	4349,(44, 121),2	4351,(110, 121),2	4353,(52, 121),2	4355,(100, 121),2	4357,(75, 121),2	4359,(118, 121),2	4361,(55, 121),2	4363,(108, 121),2	4365,(59, 121),2	4367,(42, 121),2	4369,(57, 121),2	4371,(61, 121),2	4373,(35, 121),2	4375,(89, 121),2	4377,(68, 121),2	4379,(117, 121),2	4381,(72, 121),2	4383,(78, 121),2	4385,(73, 121),2	4387,(41, 121),2	4389,(115, 121),2	4391,(85, 121),2	4393,(96, 121),2	4395,(83, 121),2	4397,(97, 121),2	4399,(111, 121),2	4401,(113, 121),2	4403,(114, 121),2	4405,(16, 121),2	4407,(21, 121),2	4409,(24, 121),2	4411,(26, 121),2	4413,(28, 121),2	4415,(53, 121),2	4417,(56, 121),2	4419,(65, 121),2	4421,(66, 121),2	4423,(67, 121),2	4425,(79, 121),2	4427,(80, 121),2	4429,(93, 121),2	4431,(94, 121),2	4433,(102, 121),2	4435,(103, 121),2	4437,(104, 121),2	4439,(119, 121),2	
# Outgoing
47,(5, 13),8	55,(5, 20),4	59,(5, 21),16	75,(5, 33),6	81,(5, 66),30	111,(5, 18),2	113,(5, 67),2	115,(5, 77),4	119,(5, 95),6	125,(5, 107),2	127,(5, 119),4	131,(5, 62),16	147,(5, 82),16	163,(5, 90),12	175,(5, 96),2	177,(5, 98),2	179,(5, 111),2	181,(5, 26),52	245,(5, 105),12	309,(5, 97),6	419,(5, 30),50	697,(109, 121),2	4309,(64, 121),2	4325,(14, 121),2	4333,(23, 121),2	4365,(59, 121),2	4373,(35, 121),2	4387,(41, 121),2	4389,(115, 121),2	4395,(83, 121),2	4415,(53, 121),2	4433,(102, 121),2	
201,(11, 19),6	207,(11, 27),10	217,(11, 82),12	229,(11, 88),2	231,(11, 99),2	233,(11, 85),2	235,(11, 20),4	239,(11, 24),6	245,(11, 74),2	249,(11, 32),8	259,(11, 58),2	261,(11, 67),2	263,(11, 77),34	297,(11, 41),2	299,(11, 114),4	305,(11, 47),4	315,(11, 44),42	357,(11, 52),36	393,(11, 111),12	405,(11, 118),14	425,(11, 35),50	475,(11, 83),66	541,(11, 115),20	681,(11, 60),10	701,(34, 121),2	709,(70, 121),2	4109,(11, 86),48	4319,(105, 121),2	4339,(40, 121),2	4357,(75, 121),2	4363,(108, 121),2	4419,(65, 121),2	4431,(94, 121),2	4435,(103, 121),2	4437,(104, 121),2	4439,(119, 121),2	
59,(6, 13),8	67,(6, 16),26	93,(6, 20),4	97,(6, 23),2	99,(6, 30),2	101,(6, 24),2	103,(6, 27),6	109,(6, 33),2	111,(6, 44),6	117,(6, 83),2	119,(6, 88),2	121,(6, 81),2	123,(6, 92),2	125,(6, 99),2	127,(6, 61),22	149,(6, 68),2	151,(6, 101),4	155,(6, 105),2	159,(6, 64),22	181,(6, 107),8	189,(6, 113),4	199,(6, 53),56	255,(6, 69),4	259,(6, 93),36	295,(6, 108),10	305,(6, 115),10	469,(6, 60),54	523,(6, 86),12	535,(6, 116),16	673,(112, 121),2	703,(29, 121),2	705,(48, 121),2	711,(49, 121),2	4289,(31, 121),2	4297,(39, 121),2	4353,(52, 121),2	4367,(42, 121),2	4375,(89, 121),2	4397,(97, 121),2	4399,(111, 121),2	
119,(9, 14),18	137,(9, 36),2	139,(9, 40),2	141,(9, 43),2	143,(9, 102),2	145,(9, 66),2	147,(9, 75),8	161,(9, 31),2	163,(9, 39),2	165,(9, 42),12	177,(9, 97),2	179,(9, 113),2	181,(9, 89),12	193,(9, 78),8	201,(9, 79),32	241,(9, 101),4	251,(9, 77),2	257,(9, 35),10	267,(9, 53),30	297,(9, 67),8	309,(9, 62),22	331,(9, 111),18	389,(9, 103),8	563,(9, 47),16	707,(13, 121),2	715,(90, 121),2	3739,(9, 60),268	4007,(9, 116),102	4295,(84, 121),2	4321,(45, 121),2	4331,(20, 121),2	4341,(76, 121),2	4347,(87, 121),2	4379,(117, 121),2	4405,(16, 121),2	4409,(24, 121),2	4417,(56, 121),2	
119,(12, 13),6	125,(12, 72),2	127,(12, 85),2	129,(12, 106),2	133,(12, 38),2	137,(12, 53),2	141,(12, 70),6	163,(12, 15),4	167,(12, 22),6	193,(12, 42),6	217,(12, 78),16	305,(12, 46),6	311,(12, 69),8	397,(12, 75),10	407,(12, 108),12	561,(12, 41),70	717,(50, 121),2	4157,(12, 81),32	4299,(19, 121),2	4305,(101, 121),2	4317,(98, 121),2	4327,(62, 121),2	4335,(74, 121),2	4377,(68, 121),2	4385,(73, 121),2	4393,(96, 121),2	4403,(114, 121),2	4413,(28, 121),2	
29,(4, 16),12	41,(4, 23),2	43,(4, 46),2	45,(4, 24),2	47,(4, 26),22	69,(4, 34),4	73,(4, 35),16	89,(4, 42),4	93,(4, 55),4	97,(4, 56),4	101,(4, 65),2	103,(4, 75),6	109,(4, 103),2	111,(4, 109),2	115,(4, 28),10	125,(4, 62),2	127,(4, 67),54	181,(4, 80),10	191,(4, 83),8	199,(4, 96),2	201,(4, 117),34	237,(4, 105),8	245,(4, 118),4	269,(4, 81),16	311,(91, 121),2	713,(15, 121),2	2033,(4, 86),630	4293,(107, 121),2	4337,(22, 121),2	4345,(27, 121),2	4369,(57, 121),2	4371,(61, 121),2	4383,(78, 121),2	4401,(113, 121),2	4407,(21, 121),2	4429,(93, 121),2	
127,(7, 13),20	147,(7, 24),2	149,(7, 22),2	151,(7, 27),2	153,(7, 33),2	155,(7, 28),2	157,(7, 31),2	159,(7, 52),2	161,(7, 73),2	163,(7, 38),6	169,(7, 63),4	173,(7, 93),2	175,(7, 84),4	179,(7, 98),2	181,(7, 59),4	185,(7, 62),10	195,(7, 68),4	199,(7, 99),4	203,(7, 110),4	207,(7, 114),4	233,(7, 37),10	243,(7, 46),4	247,(7, 69),4	255,(7, 64),2	257,(7, 75),12	269,(7, 76),10	285,(7, 108),8	303,(7, 47),2	309,(51, 121),2	311,(7, 40),48	359,(7, 115),16	551,(7, 71),10	677,(54, 121),2	3165,(7, 86),454	3619,(7, 116),120	4343,(32, 121),2	4349,(44, 121),2	4355,(100, 121),2	4359,(118, 121),2	4391,(85, 121),2	4421,(66, 121),2	4425,(79, 121),2	4427,(80, 121),2	
1,(0, 3),4	5,(0, 4),4	9,(0, 5),4	13,(0, 6),4	17,(0, 7),4	21,(0, 8),4	25,(0, 9),4	29,(0, 10),4	33,(0, 11),4	37,(0, 12),4	41,(2, 13),4	45,(2, 19),32	77,(2, 22),22	99,(2, 23),6	105,(2, 28),10	115,(2, 29),12	127,(2, 31),4	131,(2, 32),14	145,(2, 35),12	157,(2, 36),6	163,(2, 40),74	237,(2, 42),72	309,(2, 45),4	313,(2, 47),78	391,(2, 55),32	423,(2, 59),2	425,(2, 66),36	461,(2, 67),30	491,(2, 68),52	543,(2, 72),4	547,(2, 78),32	579,(2, 81),94	673,(2, 83),2	675,(2, 85),4	679,(2, 92),2	681,(2, 93),2	683,(2, 96),2	685,(2, 97),8	693,(2, 103),18	711,(2, 111),2	713,(2, 113),2	715,(2, 114),4	719,(2, 116),1314	2033,(2, 119),12	2045,(1, 16),24	2069,(1, 21),18	2087,(1, 24),6	2093,(1, 26),6	2099,(1, 28),4	2103,(1, 53),2	2105,(1, 56),2	2107,(1, 65),14	2121,(1, 66),8	2129,(1, 67),20	2149,(1, 79),2	2151,(1, 80),8	2159,(1, 93),42	2201,(1, 94),12	2213,(1, 102),4	2217,(1, 103),22	2239,(1, 104),6	2245,(1, 119),52	2663,(1, 30),500	3163,(1, 116),2	4281,(25, 121),2	4283,(18, 121),2	4285,(43, 121),2	4287,(38, 121),2	4291,(63, 121),2	4301,(88, 121),2	4307,(99, 121),2	4313,(82, 121),2	4351,(110, 121),2	
77,(3, 19),28	105,(3, 24),4	109,(3, 25),2	111,(3, 33),10	121,(3, 34),4	125,(3, 56),2	127,(3, 62),4	131,(3, 48),2	133,(3, 49),2	135,(3, 52),22	157,(3, 64),2	159,(3, 74),2	161,(3, 84),2	163,(3, 30),92	255,(3, 71),14	269,(3, 75),16	285,(3, 81),18	303,(3, 98),6	309,(3, 105),2	311,(3, 110),2	313,(3, 118),2	315,(10, 14),14	329,(10, 20),16	345,(10, 23),2	347,(10, 74),2	349,(10, 76),2	351,(10, 87),2	353,(10, 22),2	355,(10, 27),10	365,(10, 32),2	367,(10, 44),2	369,(10, 56),14	383,(10, 100),6	389,(10, 110),2	391,(3, 86),28	419,(10, 42),18	437,(10, 57),18	455,(10, 61),16	471,(10, 66),18	489,(10, 79),30	519,(10, 89),2	521,(10, 111),20	541,(10, 117),2	543,(10, 119),12	561,(17, 121),2	563,(10, 73),24	587,(10, 93),36	631,(10, 83),32	663,(10, 115),10	675,(120, 121),2	691,(10, 106),6	699,(95, 121),2	4189,(10, 60),92	4303,(37, 121),2	4311,(58, 121),2	4315,(77, 121),2	4323,(46, 121),2	4329,(69, 121),2	4361,(55, 121),2	4381,(72, 121),2	4411,(26, 121),2	4423,(67, 121),2	
43,(8, 21),2	45,(8, 29),6	51,(8, 31),2	53,(8, 44),2	55,(8, 57),2	57,(8, 59),6	63,(8, 85),2	69,(8, 58),2	75,(8, 78),2	99,(8, 91),2	101,(8, 113),2	103,(8, 24),2	109,(8, 56),10	119,(8, 118),8	127,(8, 110),6	153,(8, 107),10	163,(8, 50),12	179,(8, 76),16	211,(8, 73),30	241,(8, 82),38	295,(8, 93),58	359,(8, 119),30	
