16961
# CPU
10,4,3	19,8,3	22,48,3	28,12,3	31,65,3	34,162,3	37,166,3	40,16,3	46,20,3	49,75,3	52,191,3	55,131,3	724,34,3	745,56,3	1138,63,3	1525,182,3	1645,189,3	1813,167,3	1903,134,3	1912,44,3	2143,49,3	2155,78,3	2455,55,3	2752,158,3	3142,92,3	3337,72,3	6331,61,3	6394,173,3	7021,90,3	7063,106,3	7507,180,3	7525,195,3	7528,197,3	7783,30,3	7963,114,3	8014,141,3	8023,174,3	8524,98,3	8545,128,3	8632,177,3	8650,178,3	8923,185,3	8977,199,3	8980,32,3	8998,41,3	9013,81,3	9085,104,3	9166,183,3	9232,200,3	9250,28,3	9253,33,3	9262,36,3	9439,84,3	9505,116,3	9520,156,3	10477,175,3	10480,176,3	10483,190,3	10486,192,3	10687,59,3	10843,69,3	10849,86,3	10990,171,3	11014,179,3	11080,196,3	11293,198,3	11311,52,3	11317,102,3	11347,147,3	11491,150,3	11506,169,3	11509,170,3	11515,172,3	11518,184,3	11566,186,3	11578,187,3	11665,35,3	11674,38,3	11686,43,3	11707,46,3	11728,50,3	11731,53,3	11884,54,3	11902,88,3	11968,100,3	11971,108,3	11974,110,3	11992,112,3	11995,118,3	12007,120,3	12043,122,3	12076,144,3	12130,168,3	12133,188,3	12154,29,3	12178,40,3	12187,45,3	12193,47,3	12292,51,3	12481,57,3	12484,67,3	12517,94,3	12529,96,3	12532,125,3	12535,137,3	15364,154,3	15409,160,3	15553,164,3	15556,181,3	15712,193,3	16960,201,1	
7,3,3	16,7,3	25,11,3	34,15,3	37,113,3	43,19,3	46,95,3	559,74,3	697,37,3	772,121,3	796,85,3	901,143,3	1186,99,3	1240,149,3	1423,93,3	1921,68,3	2746,91,3	3340,165,3	3412,31,3	3667,58,3	3823,60,3	3928,77,3	3934,103,3	3937,111,3	3940,115,3	3943,66,3	4009,124,3	4117,27,3	4168,105,3	4174,87,3	4291,109,3	4324,127,3	4408,146,3	4645,139,3	4864,117,3	5287,130,3	5293,26,3	5434,89,3	5437,119,3	5440,153,3	5683,161,3	5716,39,3	5758,97,3	5782,101,3	5794,136,3	6631,194,3	6682,83,3	6709,155,3	6712,159,3	6733,62,3	6736,64,3	6751,71,3	6778,80,3	6781,107,3	7060,133,3	7066,157,3	7069,163,3	
4,2,3	13,6,3	22,10,3	25,151,3	31,14,3	40,18,3	100,76,3	448,148,3	478,24,3	520,73,3	733,135,3	1189,142,3	1549,82,3	2317,132,3	3472,23,3	3943,123,3	4171,79,3	4318,126,3	4678,25,3	4774,70,3	4828,129,3	4831,138,3	4849,145,3	7180,152,3	
0,0,1	1,17,3	4,13,3	7,9,3	10,1,3	13,5,3	490,21,3	3865,42,3	4639,22,3	15331,140,3	
# Incoming
7,(0, 4),3	16,(0, 8),3	25,(0, 12),3	34,(0, 16),3	43,(0, 20),3	46,(3, 40),27	82,(17, 28),3	85,(17, 36),3	88,(17, 54),627	715,(2, 34),9	724,(2, 35),3	727,(2, 49),3	730,(2, 56),15	745,(2, 59),3	748,(2, 61),9	757,(2, 81),3	760,(2, 116),3	763,(17, 59),3	766,(17, 72),6	772,(2, 47),45	817,(2, 72),33	850,(17, 94),9	859,(2, 84),45	904,(2, 94),102	1006,(2, 104),9	1015,(2, 112),9	1024,(2, 150),3	1027,(2, 173),39	1066,(2, 176),3	1069,(2, 182),21	1090,(3, 53),36	1126,(3, 63),12	1138,(3, 108),6	1144,(3, 116),6	1150,(3, 137),3	1153,(17, 141),33	1186,(2, 200),81	1267,(3, 188),3	1270,(6, 29),3	1273,(17, 176),156	1429,(17, 182),96	1525,(17, 185),9	1534,(17, 188),6	1540,(17, 189),105	1645,(6, 45),3	1648,(17, 195),33	1681,(3, 118),9	1690,(3, 128),27	1717,(3, 150),12	1729,(3, 154),57	1786,(3, 167),27	1813,(3, 174),18	1831,(6, 40),15	1846,(6, 43),24	1870,(6, 46),3	1873,(6, 84),18	1891,(6, 88),6	1897,(6, 94),3	1900,(6, 134),3	1903,(6, 170),3	1906,(6, 183),3	1909,(13, 44),3	1912,(13, 45),6	1918,(13, 46),3	1921,(6, 49),222	2143,(6, 187),6	2149,(7, 69),3	2152,(7, 78),3	2155,(7, 92),3	2158,(13, 110),6	2164,(13, 112),39	2203,(13, 116),75	2278,(13, 125),3	2281,(13, 128),3	2284,(6, 51),87	2371,(6, 55),84	2455,(6, 137),18	2473,(6, 141),24	2497,(6, 190),33	2530,(7, 94),6	2536,(13, 158),216	2752,(2, 92),390	3142,(6, 98),135	3277,(7, 29),15	3292,(7, 36),15	3307,(7, 40),21	3328,(7, 72),9	3337,(7, 120),3	3340,(13, 170),42	3382,(13, 187),66	3448,(3, 100),2004	5452,(3, 193),630	6082,(9, 32),42	6124,(9, 45),12	6136,(9, 50),3	6139,(9, 57),180	6319,(9, 61),12	6331,(9, 84),12	6343,(9, 100),3	6346,(9, 102),6	6352,(9, 154),3	6355,(9, 160),33	6388,(9, 173),6	6394,(9, 175),36	6430,(9, 184),24	6454,(9, 192),3	6457,(9, 196),507	6964,(1, 47),9	6973,(1, 69),18	6991,(1, 90),30	7021,(1, 94),6	7027,(1, 96),3	7030,(1, 98),24	7054,(1, 106),9	7063,(1, 112),3	7066,(1, 120),3	7069,(1, 147),15	7084,(1, 156),3	7087,(1, 171),57	7144,(1, 177),15	7159,(1, 180),348	7507,(1, 187),3	7510,(1, 193),12	7522,(1, 195),3	7525,(1, 197),3	7528,(6, 164),69	7597,(5, 29),183	7780,(5, 30),3	7783,(5, 38),39	7822,(5, 46),9	7831,(5, 67),42	7873,(5, 86),27	7900,(5, 98),3	7903,(5, 100),6	7909,(5, 108),3	7912,(5, 110),6	7918,(5, 114),45	7963,(5, 122),6	7969,(5, 141),45	8014,(5, 174),9	8023,(5, 179),36	8059,(5, 188),3	8062,(5, 192),198	8260,(5, 198),177	8437,(7, 98),87	8524,(7, 102),9	8533,(7, 112),9	8542,(7, 128),3	8545,(7, 150),3	8548,(7, 156),3	8551,(7, 168),39	8590,(7, 169),27	8617,(7, 175),12	8629,(7, 177),3	8632,(7, 178),18	8650,(7, 179),90	8740,(7, 181),6	8746,(7, 185),177	8923,(7, 186),3	8926,(7, 192),6	8932,(7, 198),3	8935,(7, 199),42	8977,(10, 32),3	8980,(10, 41),18	8998,(10, 43),3	9001,(10, 50),3	9004,(10, 67),3	9007,(10, 69),3	9010,(10, 81),3	9013,(10, 84),39	9052,(10, 88),30	9082,(10, 104),3	9085,(10, 110),27	9112,(10, 122),51	9163,(10, 183),3	9166,(10, 184),39	9205,(10, 193),9	9214,(10, 200),18	9232,(11, 28),18	9250,(11, 33),3	9253,(11, 35),6	9259,(11, 36),3	9262,(11, 50),39	9301,(11, 51),75	9376,(11, 53),12	9388,(11, 54),42	9430,(11, 84),9	9439,(11, 110),18	9457,(11, 116),48	9505,(11, 118),12	9517,(11, 156),3	9520,(11, 169),9	9529,(11, 170),930	10459,(11, 175),18	10477,(11, 176),3	10480,(11, 190),3	10483,(11, 192),3	10486,(151, 201),24	10510,(14, 29),162	10672,(14, 54),9	10681,(14, 59),6	10687,(14, 69),156	10843,(14, 86),6	10849,(14, 96),33	10882,(14, 137),81	10963,(14, 171),27	10990,(14, 179),24	11014,(14, 188),63	11077,(14, 196),3	11080,(14, 198),213	11293,(15, 29),3	11296,(15, 52),15	11311,(15, 94),3	11314,(15, 102),3	11317,(15, 125),9	11326,(15, 147),21	11347,(15, 150),144	11491,(15, 168),3	11494,(15, 169),12	11506,(15, 170),3	11509,(15, 172),6	11515,(15, 184),3	11518,(15, 186),48	11566,(15, 187),12	11578,(15, 188),15	11593,(113, 201),24	11617,(18, 35),48	11665,(18, 38),9	11674,(18, 43),12	11686,(18, 46),21	11707,(18, 50),21	11728,(18, 53),3	11731,(18, 54),153	11884,(18, 88),18	11902,(18, 96),54	11956,(18, 100),12	11968,(18, 108),3	11971,(18, 110),3	11974,(18, 112),18	11992,(18, 118),3	11995,(18, 120),12	12007,(18, 122),36	12043,(18, 125),6	12049,(18, 144),27	12076,(18, 154),36	12112,(18, 164),3	12115,(18, 168),15	12130,(18, 188),3	12133,(19, 29),21	12154,(19, 40),24	12178,(19, 45),9	12187,(19, 47),6	12193,(19, 51),99	12292,(19, 57),189	12481,(19, 67),3	12484,(19, 94),33	12517,(19, 96),12	12529,(19, 125),3	12532,(19, 137),3	12535,(76, 201),24	12559,(148, 201),24	12583,(24, 201),24	12607,(21, 201),24	12631,(73, 201),24	12655,(135, 201),24	12679,(142, 201),24	12703,(82, 201),24	12727,(132, 201),24	12751,(23, 201),24	12775,(42, 201),24	12799,(123, 201),24	12823,(79, 201),24	12847,(126, 201),24	12871,(22, 201),24	12895,(25, 201),24	12919,(70, 201),24	12943,(129, 201),24	12967,(138, 201),24	12991,(145, 201),24	13015,(152, 201),24	15331,(19, 154),33	15364,(19, 160),45	15409,(19, 164),144	15553,(19, 181),3	15556,(19, 193),156	15712,(95, 201),24	15736,(74, 201),24	15760,(37, 201),24	15784,(121, 201),24	15808,(85, 201),24	15832,(143, 201),24	15856,(99, 201),24	15880,(149, 201),24	15904,(93, 201),24	15928,(68, 201),24	15952,(91, 201),24	15976,(165, 201),24	16000,(31, 201),24	16024,(58, 201),24	16048,(60, 201),24	16072,(77, 201),24	16096,(103, 201),24	16120,(111, 201),24	16144,(115, 201),24	16168,(66, 201),24	16192,(124, 201),24	16216,(27, 201),24	16240,(105, 201),24	16264,(87, 201),24	16288,(109, 201),24	16312,(127, 201),24	16336,(146, 201),24	16360,(139, 201),24	16384,(117, 201),24	16408,(130, 201),24	16432,(26, 201),24	16456,(89, 201),24	16480,(119, 201),24	16504,(153, 201),24	16528,(161, 201),24	16552,(39, 201),24	16576,(97, 201),24	16600,(101, 201),24	16624,(136, 201),24	16648,(194, 201),24	16672,(83, 201),24	16696,(155, 201),24	16720,(159, 201),24	16744,(62, 201),24	16768,(64, 201),24	16792,(71, 201),24	16816,(80, 201),24	16840,(107, 201),24	16864,(133, 201),24	16888,(157, 201),24	16912,(163, 201),24	16936,(140, 201),24	
4,(0, 3),3	13,(0, 7),3	22,(0, 11),3	31,(0, 15),3	40,(0, 19),3	46,(17, 27),36	454,(2, 26),24	478,(2, 74),81	559,(2, 83),48	607,(2, 89),3	610,(2, 111),15	625,(2, 119),6	631,(4, 31),27	658,(4, 39),21	679,(4, 60),15	694,(6, 37),3	697,(6, 62),3	700,(8, 71),6	706,(8, 103),9	715,(17, 58),48	763,(8, 117),6	769,(8, 121),3	772,(17, 85),24	796,(17, 91),33	829,(17, 93),21	850,(8, 133),3	853,(10, 39),3	856,(10, 77),3	859,(17, 99),9	868,(17, 103),3	871,(8, 80),24	895,(12, 58),3	898,(12, 143),3	901,(12, 146),3	904,(17, 130),180	1084,(17, 139),69	1153,(6, 68),21	1174,(10, 80),3	1177,(10, 99),9	1186,(12, 149),3	1189,(17, 149),51	1240,(17, 165),33	1273,(2, 93),150	1423,(2, 97),150	1573,(6, 39),45	1618,(8, 115),18	1636,(10, 107),3	1639,(10, 133),3	1642,(12, 163),3	1645,(17, 194),3	1648,(4, 91),120	1768,(8, 26),54	1822,(8, 87),69	1891,(13, 39),18	1909,(12, 68),12	1921,(13, 71),198	2119,(13, 80),39	2158,(8, 89),75	2233,(8, 101),81	2314,(12, 165),3	2317,(13, 146),9	2326,(13, 155),210	2536,(4, 133),165	2701,(10, 26),21	2722,(10, 157),21	2743,(14, 91),3	2746,(14, 111),3	2749,(18, 26),3	2752,(13, 161),6	2758,(13, 165),582	3340,(10, 31),72	3412,(10, 111),57	3469,(16, 130),3	3472,(9, 27),141	3613,(9, 58),54	3667,(9, 60),156	3823,(9, 64),6	3829,(9, 66),12	3841,(9, 71),84	3925,(9, 77),3	3928,(9, 80),3	3931,(9, 103),3	3934,(9, 111),3	3937,(9, 115),3	3940,(18, 66),3	3943,(9, 124),66	4009,(9, 127),75	4084,(9, 153),3	4087,(9, 163),27	4114,(1, 27),3	4117,(1, 62),6	4123,(1, 71),6	4129,(12, 101),18	4147,(14, 105),21	4168,(18, 146),3	4171,(1, 87),3	4174,(1, 109),117	4291,(14, 139),12	4303,(14, 157),12	4315,(16, 136),3	4318,(1, 127),6	4324,(1, 133),75	4399,(1, 146),9	4408,(1, 153),6	4414,(4, 139),231	4645,(6, 117),219	4864,(6, 130),423	5287,(5, 26),6	5293,(5, 62),48	5341,(5, 71),51	5392,(5, 89),42	5434,(5, 119),3	5437,(5, 153),3	5440,(5, 163),9	5449,(12, 107),198	5647,(14, 161),36	5683,(14, 194),15	5698,(18, 39),18	5716,(18, 97),42	5758,(18, 101),24	5782,(18, 136),12	5794,(18, 194),837	6631,(16, 71),36	6667,(16, 83),15	6682,(16, 155),27	6709,(16, 159),3	6712,(20, 62),21	6733,(20, 64),3	6736,(20, 71),15	6751,(20, 80),27	6778,(20, 107),3	6781,(20, 133),279	7060,(20, 157),6	7066,(20, 163),3	
1,(0, 2),3	10,(0, 6),3	19,(0, 10),3	28,(0, 14),3	37,(0, 18),3	73,(3, 76),27	100,(3, 126),27	127,(3, 135),3	130,(3, 142),3	133,(7, 70),3	136,(11, 23),3	139,(11, 25),3	142,(11, 129),84	226,(15, 24),87	313,(15, 73),3	316,(19, 70),18	334,(19, 73),111	445,(19, 148),3	457,(4, 24),21	478,(4, 82),3	481,(4, 126),3	484,(12, 73),21	505,(12, 138),3	508,(16, 79),3	511,(16, 132),3	514,(20, 73),6	559,(16, 145),45	604,(20, 123),18	715,(20, 135),18	733,(20, 142),24	871,(17, 123),15	886,(17, 129),18	1186,(17, 142),3	1270,(19, 82),279	1681,(13, 25),210	2284,(13, 132),33	3448,(9, 23),24	3940,(9, 123),3	4129,(1, 79),42	4291,(1, 126),27	4414,(5, 25),264	4678,(5, 70),96	4774,(5, 129),54	4828,(5, 138),3	4831,(5, 145),18	4849,(5, 152),186	6082,(15, 152),1098	
7,(2, 22),447	454,(4, 22),3	457,(7, 21),3	460,(11, 21),30	490,(11, 42),15	505,(15, 22),15	520,(16, 22),39	631,(6, 22),3	634,(6, 42),3	637,(10, 42),57	1090,(18, 140),33	3469,(14, 42),396	4315,(18, 22),324	12535,(19, 140),2796	
# Outgoing
454,(4, 22),3	457,(4, 24),21	478,(4, 82),3	481,(4, 126),3	484,(12, 73),21	505,(12, 138),3	508,(16, 79),3	511,(16, 132),3	514,(20, 73),6	520,(16, 22),39	559,(16, 145),45	604,(20, 123),18	631,(4, 31),27	658,(4, 39),21	679,(4, 60),15	700,(8, 71),6	706,(8, 103),9	715,(20, 135),18	733,(20, 142),24	763,(8, 117),6	769,(8, 121),3	850,(8, 133),3	871,(8, 80),24	895,(12, 58),3	898,(12, 143),3	901,(12, 146),3	1186,(12, 149),3	1618,(8, 115),18	1642,(12, 163),3	1648,(4, 91),120	1768,(8, 26),54	1822,(8, 87),69	1909,(12, 68),12	2158,(8, 89),75	2233,(8, 101),81	2314,(12, 165),3	2536,(4, 133),165	3469,(16, 130),3	4129,(12, 101),18	4315,(16, 136),3	4414,(4, 139),231	5449,(12, 107),198	6631,(16, 71),36	6667,(16, 83),15	6682,(16, 155),27	6709,(16, 159),3	6712,(20, 62),21	6733,(20, 64),3	6736,(20, 71),15	6751,(20, 80),27	6778,(20, 107),3	6781,(20, 133),279	7060,(20, 157),6	7066,(20, 163),3	
46,(3, 40),27	73,(3, 76),27	100,(3, 126),27	127,(3, 135),3	130,(3, 142),3	133,(7, 70),3	136,(11, 23),3	139,(11, 25),3	142,(11, 129),84	226,(15, 24),87	313,(15, 73),3	316,(19, 70),18	334,(19, 73),111	445,(19, 148),3	457,(7, 21),3	460,(11, 21),30	490,(11, 42),15	505,(15, 22),15	1090,(3, 53),36	1126,(3, 63),12	1138,(3, 108),6	1144,(3, 116),6	1150,(3, 137),3	1267,(3, 188),3	1270,(19, 82),279	1681,(3, 118),9	1690,(3, 128),27	1717,(3, 150),12	1729,(3, 154),57	1786,(3, 167),27	1813,(3, 174),18	2149,(7, 69),3	2152,(7, 78),3	2155,(7, 92),3	2530,(7, 94),6	3277,(7, 29),15	3292,(7, 36),15	3307,(7, 40),21	3328,(7, 72),9	3337,(7, 120),3	3448,(3, 100),2004	5452,(3, 193),630	6082,(15, 152),1098	8437,(7, 98),87	8524,(7, 102),9	8533,(7, 112),9	8542,(7, 128),3	8545,(7, 150),3	8548,(7, 156),3	8551,(7, 168),39	8590,(7, 169),27	8617,(7, 175),12	8629,(7, 177),3	8632,(7, 178),18	8650,(7, 179),90	8740,(7, 181),6	8746,(7, 185),177	8923,(7, 186),3	8926,(7, 192),6	8932,(7, 198),3	8935,(7, 199),42	9232,(11, 28),18	9250,(11, 33),3	9253,(11, 35),6	9259,(11, 36),3	9262,(11, 50),39	9301,(11, 51),75	9376,(11, 53),12	9388,(11, 54),42	9430,(11, 84),9	9439,(11, 110),18	9457,(11, 116),48	9505,(11, 118),12	9517,(11, 156),3	9520,(11, 169),9	9529,(11, 170),930	10459,(11, 175),18	10477,(11, 176),3	10480,(11, 190),3	10483,(11, 192),3	11293,(15, 29),3	11296,(15, 52),15	11311,(15, 94),3	11314,(15, 102),3	11317,(15, 125),9	11326,(15, 147),21	11347,(15, 150),144	11491,(15, 168),3	11494,(15, 169),12	11506,(15, 170),3	11509,(15, 172),6	11515,(15, 184),3	11518,(15, 186),48	11566,(15, 187),12	11578,(15, 188),15	11593,(113, 201),24	12133,(19, 29),21	12154,(19, 40),24	12178,(19, 45),9	12187,(19, 47),6	12193,(19, 51),99	12292,(19, 57),189	12481,(19, 67),3	12484,(19, 94),33	12517,(19, 96),12	12529,(19, 125),3	12532,(19, 137),3	12535,(19, 140),2796	15331,(19, 154),33	15364,(19, 160),45	15409,(19, 164),144	15553,(19, 181),3	15556,(19, 193),156	15712,(95, 201),24	15736,(74, 201),24	15760,(37, 201),24	15784,(121, 201),24	15808,(85, 201),24	15832,(143, 201),24	15856,(99, 201),24	15880,(149, 201),24	15904,(93, 201),24	15928,(68, 201),24	15952,(91, 201),24	15976,(165, 201),24	16000,(31, 201),24	16024,(58, 201),24	16048,(60, 201),24	16072,(77, 201),24	16096,(103, 201),24	16120,(111, 201),24	16144,(115, 201),24	16168,(66, 201),24	16192,(124, 201),24	16216,(27, 201),24	16240,(105, 201),24	16264,(87, 201),24	16288,(109, 201),24	16312,(127, 201),24	16336,(146, 201),24	16360,(139, 201),24	16384,(117, 201),24	16408,(130, 201),24	16432,(26, 201),24	16456,(89, 201),24	16480,(119, 201),24	16504,(153, 201),24	16528,(161, 201),24	16552,(39, 201),24	16576,(97, 201),24	16600,(101, 201),24	16624,(136, 201),24	16648,(194, 201),24	16672,(83, 201),24	16696,(155, 201),24	16720,(159, 201),24	16744,(62, 201),24	16768,(64, 201),24	16792,(71, 201),24	16816,(80, 201),24	16840,(107, 201),24	16864,(133, 201),24	16888,(157, 201),24	16912,(163, 201),24	
7,(2, 22),447	454,(2, 26),24	478,(2, 74),81	559,(2, 83),48	607,(2, 89),3	610,(2, 111),15	625,(2, 119),6	631,(6, 22),3	634,(6, 42),3	637,(10, 42),57	694,(6, 37),3	697,(6, 62),3	715,(2, 34),9	724,(2, 35),3	727,(2, 49),3	730,(2, 56),15	745,(2, 59),3	748,(2, 61),9	757,(2, 81),3	760,(2, 116),3	772,(2, 47),45	817,(2, 72),33	853,(10, 39),3	856,(10, 77),3	859,(2, 84),45	904,(2, 94),102	1006,(2, 104),9	1015,(2, 112),9	1024,(2, 150),3	1027,(2, 173),39	1066,(2, 176),3	1069,(2, 182),21	1090,(18, 140),33	1153,(6, 68),21	1174,(10, 80),3	1177,(10, 99),9	1186,(2, 200),81	1270,(6, 29),3	1273,(2, 93),150	1423,(2, 97),150	1573,(6, 39),45	1636,(10, 107),3	1639,(10, 133),3	1645,(6, 45),3	1831,(6, 40),15	1846,(6, 43),24	1870,(6, 46),3	1873,(6, 84),18	1891,(6, 88),6	1897,(6, 94),3	1900,(6, 134),3	1903,(6, 170),3	1906,(6, 183),3	1921,(6, 49),222	2143,(6, 187),6	2284,(6, 51),87	2371,(6, 55),84	2455,(6, 137),18	2473,(6, 141),24	2497,(6, 190),33	2701,(10, 26),21	2722,(10, 157),21	2743,(14, 91),3	2746,(14, 111),3	2749,(18, 26),3	2752,(2, 92),390	3142,(6, 98),135	3340,(10, 31),72	3412,(10, 111),57	3469,(14, 42),396	3940,(18, 66),3	4147,(14, 105),21	4168,(18, 146),3	4291,(14, 139),12	4303,(14, 157),12	4315,(18, 22),324	4645,(6, 117),219	4864,(6, 130),423	5647,(14, 161),36	5683,(14, 194),15	5698,(18, 39),18	5716,(18, 97),42	5758,(18, 101),24	5782,(18, 136),12	5794,(18, 194),837	7528,(6, 164),69	8977,(10, 32),3	8980,(10, 41),18	8998,(10, 43),3	9001,(10, 50),3	9004,(10, 67),3	9007,(10, 69),3	9010,(10, 81),3	9013,(10, 84),39	9052,(10, 88),30	9082,(10, 104),3	9085,(10, 110),27	9112,(10, 122),51	9163,(10, 183),3	9166,(10, 184),39	9205,(10, 193),9	9214,(10, 200),18	10486,(151, 201),24	10510,(14, 29),162	10672,(14, 54),9	10681,(14, 59),6	10687,(14, 69),156	10843,(14, 86),6	10849,(14, 96),33	10882,(14, 137),81	10963,(14, 171),27	10990,(14, 179),24	11014,(14, 188),63	11077,(14, 196),3	11080,(14, 198),213	11617,(18, 35),48	11665,(18, 38),9	11674,(18, 43),12	11686,(18, 46),21	11707,(18, 50),21	11728,(18, 53),3	11731,(18, 54),153	11884,(18, 88),18	11902,(18, 96),54	11956,(18, 100),12	11968,(18, 108),3	11971,(18, 110),3	11974,(18, 112),18	11992,(18, 118),3	11995,(18, 120),12	12007,(18, 122),36	12043,(18, 125),6	12049,(18, 144),27	12076,(18, 154),36	12112,(18, 164),3	12115,(18, 168),15	12130,(18, 188),3	12535,(76, 201),24	12559,(148, 201),24	12583,(24, 201),24	12631,(73, 201),24	12655,(135, 201),24	12679,(142, 201),24	12703,(82, 201),24	12727,(132, 201),24	12751,(23, 201),24	12799,(123, 201),24	12823,(79, 201),24	12847,(126, 201),24	12895,(25, 201),24	12919,(70, 201),24	12943,(129, 201),24	12967,(138, 201),24	12991,(145, 201),24	13015,(152, 201),24	
1,(0, 2),3	4,(0, 3),3	7,(0, 4),3	10,(0, 6),3	13,(0, 7),3	16,(0, 8),3	19,(0, 10),3	22,(0, 11),3	25,(0, 12),3	28,(0, 14),3	31,(0, 15),3	34,(0, 16),3	37,(0, 18),3	40,(0, 19),3	43,(0, 20),3	46,(17, 27),36	82,(17, 28),3	85,(17, 36),3	88,(17, 54),627	715,(17, 58),48	763,(17, 59),3	766,(17, 72),6	772,(17, 85),24	796,(17, 91),33	829,(17, 93),21	850,(17, 94),9	859,(17, 99),9	868,(17, 103),3	871,(17, 123),15	886,(17, 129),18	904,(17, 130),180	1084,(17, 139),69	1153,(17, 141),33	1186,(17, 142),3	1189,(17, 149),51	1240,(17, 165),33	1273,(17, 176),156	1429,(17, 182),96	1525,(17, 185),9	1534,(17, 188),6	1540,(17, 189),105	1645,(17, 194),3	1648,(17, 195),33	1681,(13, 25),210	1891,(13, 39),18	1909,(13, 44),3	1912,(13, 45),6	1918,(13, 46),3	1921,(13, 71),198	2119,(13, 80),39	2158,(13, 110),6	2164,(13, 112),39	2203,(13, 116),75	2278,(13, 125),3	2281,(13, 128),3	2284,(13, 132),33	2317,(13, 146),9	2326,(13, 155),210	2536,(13, 158),216	2752,(13, 161),6	2758,(13, 165),582	3340,(13, 170),42	3382,(13, 187),66	3448,(9, 23),24	3472,(9, 27),141	3613,(9, 58),54	3667,(9, 60),156	3823,(9, 64),6	3829,(9, 66),12	3841,(9, 71),84	3925,(9, 77),3	3928,(9, 80),3	3931,(9, 103),3	3934,(9, 111),3	3937,(9, 115),3	3940,(9, 123),3	3943,(9, 124),66	4009,(9, 127),75	4084,(9, 153),3	4087,(9, 163),27	4114,(1, 27),3	4117,(1, 62),6	4123,(1, 71),6	4129,(1, 79),42	4171,(1, 87),3	4174,(1, 109),117	4291,(1, 126),27	4318,(1, 127),6	4324,(1, 133),75	4399,(1, 146),9	4408,(1, 153),6	4414,(5, 25),264	4678,(5, 70),96	4774,(5, 129),54	4828,(5, 138),3	4831,(5, 145),18	4849,(5, 152),186	5287,(5, 26),6	5293,(5, 62),48	5341,(5, 71),51	5392,(5, 89),42	5434,(5, 119),3	5437,(5, 153),3	5440,(5, 163),9	6082,(9, 32),42	6124,(9, 45),12	6136,(9, 50),3	6139,(9, 57),180	6319,(9, 61),12	6331,(9, 84),12	6343,(9, 100),3	6346,(9, 102),6	6352,(9, 154),3	6355,(9, 160),33	6388,(9, 173),6	6394,(9, 175),36	6430,(9, 184),24	6454,(9, 192),3	6457,(9, 196),507	6964,(1, 47),9	6973,(1, 69),18	6991,(1, 90),30	7021,(1, 94),6	7027,(1, 96),3	7030,(1, 98),24	7054,(1, 106),9	7063,(1, 112),3	7066,(1, 120),3	7069,(1, 147),15	7084,(1, 156),3	7087,(1, 171),57	7144,(1, 177),15	7159,(1, 180),348	7507,(1, 187),3	7510,(1, 193),12	7522,(1, 195),3	7525,(1, 197),3	7597,(5, 29),183	7780,(5, 30),3	7783,(5, 38),39	7822,(5, 46),9	7831,(5, 67),42	7873,(5, 86),27	7900,(5, 98),3	7903,(5, 100),6	7909,(5, 108),3	7912,(5, 110),6	7918,(5, 114),45	7963,(5, 122),6	7969,(5, 141),45	8014,(5, 174),9	8023,(5, 179),36	8059,(5, 188),3	8062,(5, 192),198	8260,(5, 198),177	12607,(21, 201),24	12775,(42, 201),24	12871,(22, 201),24	16936,(140, 201),24	
