198
# CPU
0,0,1	1,10,1	2,163,1	3,7,1	4,14,1	5,173,1	6,191,1	7,15,1	8,196,1	9,113,1	10,161,1	11,9,1	12,123,1	13,6,1	14,117,1	15,4,1	16,93,1	17,68,1	18,33,1	19,198,1	20,90,1	21,125,1	22,20,1	23,96,1	24,60,1	25,197,1	26,36,1	27,115,1	28,13,1	29,64,1	30,58,1	31,175,1	32,83,1	33,177,1	34,85,1	35,8,1	36,1,1	37,168,1	38,80,1	39,28,1	40,2,1	41,151,1	42,122,1	43,88,1	44,71,1	45,160,1	46,164,1	47,86,1	48,51,1	49,81,1	50,127,1	51,16,1	52,188,1	53,100,1	54,187,1	55,181,1	56,54,1	57,194,1	58,84,1	59,78,1	60,89,1	61,70,1	62,97,1	63,29,1	64,48,1	65,5,1	66,31,1	67,172,1	68,162,1	69,124,1	70,38,1	71,73,1	72,139,1	73,25,1	74,101,1	75,185,1	76,62,1	77,94,1	78,42,1	79,152,1	80,119,1	81,11,1	82,141,1	83,41,1	84,65,1	85,199,1	86,112,1	87,66,1	88,103,1	89,140,1	90,32,1	91,45,1	92,76,1	93,12,1	94,154,1	95,133,1	96,179,1	97,102,1	98,99,1	99,107,1	100,170,1	101,180,1	102,92,1	103,3,1	104,157,1	105,135,1	106,146,1	107,155,1	108,49,1	109,137,1	110,200,1	111,98,1	112,34,1	113,22,1	114,142,1	115,17,1	116,183,1	117,145,1	118,190,1	119,91,1	120,174,1	121,37,1	122,26,1	123,126,1	124,43,1	125,118,1	126,52,1	127,132,1	128,147,1	129,87,1	130,171,1	131,193,1	132,108,1	133,120,1	134,53,1	135,95,1	136,50,1	137,148,1	138,19,1	139,189,1	140,131,1	141,57,1	142,40,1	143,106,1	144,61,1	145,184,1	146,39,1	147,116,1	148,75,1	149,79,1	150,67,1	151,72,1	152,192,1	153,134,1	154,195,1	155,47,1	156,110,1	157,136,1	158,153,1	159,104,1	160,166,1	161,111,1	162,159,1	163,74,1	164,18,1	165,82,1	166,24,1	167,150,1	168,149,1	169,176,1	170,46,1	171,114,1	172,56,1	173,165,1	174,63,1	175,30,1	176,69,1	177,178,1	178,129,1	179,77,1	180,138,1	181,23,1	182,121,1	183,130,1	184,144,1	185,59,1	186,105,1	187,21,1	188,55,1	189,182,1	190,167,1	191,128,1	192,158,1	193,35,1	194,44,1	195,186,1	196,143,1	197,201,1	
107,27,1	119,109,1	171,156,1	

168,169,1	
# Incoming
108,(27, 201),6	120,(109, 201),6	169,(169, 201),6	175,(156, 201),6	
8,(15, 27),9	17,(9, 27),24	41,(1, 27),3	44,(10, 109),33	97,(4, 156),3	100,(2, 156),3	104,(3, 27),3	107,(6, 156),9	116,(17, 109),3	119,(20, 156),18	168,(18, 156),3	

77,(4, 169),15	94,(12, 169),3	165,(18, 169),3	
# Outgoing
8,(15, 27),9	17,(9, 27),24	41,(1, 27),3	44,(10, 109),33	77,(4, 169),15	94,(12, 169),3	97,(4, 156),3	100,(2, 156),3	104,(3, 27),3	107,(6, 156),9	116,(17, 109),3	119,(20, 156),18	165,(18, 169),3	168,(18, 156),3	
108,(27, 201),6	120,(109, 201),6	175,(156, 201),6	

169,(169, 201),6	
