4955
# CPU
0,0,1	1,12,3	4,9,3	7,3,3	10,6,3	13,2,3	16,63,3	19,56,3	22,70,3	25,54,3	28,105,3	31,66,3	34,117,3	37,115,3	40,109,3	43,96,3	46,118,3	49,34,3	52,29,3	55,32,3	58,76,3	61,50,3	64,59,3	67,53,3	70,48,3	73,67,3	76,77,3	112,42,3	544,30,3	553,36,3	667,98,3	748,108,3	772,15,3	952,72,3	1000,90,3	1027,107,3	1789,113,3	1888,24,3	2236,31,3	2260,37,3	2434,52,3	2437,62,3	2485,14,3	2509,19,3	2545,45,3	2770,58,3	2794,88,3	2797,93,3	2959,46,3	4537,74,3	4558,82,3	4573,84,3	4603,101,3	4696,18,3	4732,25,3	4741,40,3	4777,41,3	4789,83,3	4792,89,3	4897,104,3	4900,119,3	4954,121,1	
67,1,3	70,27,3	73,87,3	76,114,3	79,106,3	82,33,3	85,55,3	133,4,3	136,26,3	139,91,3	142,111,3	145,116,3	148,103,3	151,49,3	154,51,3	199,5,3	202,16,3	205,64,3	208,86,3	211,92,3	265,7,3	268,13,3	271,23,3	274,78,3	277,44,3	331,8,3	334,17,3	337,60,3	340,73,3	343,79,3	346,61,3	349,20,3	352,22,3	355,43,3	358,120,3	397,10,3	400,35,3	403,99,3	406,57,3	409,95,3	412,81,3	463,11,3	466,21,3	469,69,3	472,75,3	475,71,3	478,94,3	481,28,3	484,39,3	487,65,3	490,38,3	493,85,3	496,68,3	541,80,3	556,110,3	580,112,3	586,47,3	589,102,3	592,97,3	595,100,3	
# Incoming
70,(1, 31),18	88,(1, 42),24	112,(1, 58),33	145,(1, 74),192	337,(1, 82),36	373,(1, 101),12	385,(1, 108),108	493,(27, 121),3	496,(87, 121),3	499,(114, 121),3	502,(106, 121),3	505,(33, 121),3	508,(55, 121),3	511,(4, 18),3	514,(4, 30),30	544,(4, 36),9	553,(4, 52),60	613,(4, 83),42	655,(4, 98),12	667,(4, 107),48	715,(4, 108),33	748,(26, 121),3	751,(91, 121),3	754,(111, 121),3	757,(116, 121),3	760,(103, 121),3	763,(49, 121),3	766,(51, 121),3	769,(5, 15),3	772,(5, 46),39	811,(5, 52),90	901,(5, 58),48	949,(5, 72),3	952,(5, 90),48	1000,(5, 104),3	1003,(5, 107),24	1027,(5, 113),762	1789,(16, 121),3	1792,(64, 121),3	1795,(86, 121),3	1798,(92, 121),3	1801,(7, 18),30	1831,(7, 24),57	1888,(7, 31),348	2236,(7, 37),24	2260,(7, 41),6	2266,(7, 52),168	2434,(7, 62),3	2437,(7, 83),3	2440,(7, 84),27	2467,(13, 121),3	2470,(23, 121),3	2473,(78, 121),3	2476,(44, 121),3	2479,(8, 14),6	2485,(8, 19),24	2509,(8, 45),36	2545,(8, 58),225	2770,(8, 88),24	2794,(8, 93),3	2797,(8, 104),66	2863,(17, 121),3	2866,(60, 121),3	2869,(73, 121),3	2872,(79, 121),3	2875,(61, 121),3	2878,(20, 121),3	2881,(22, 121),3	2884,(43, 121),3	2887,(120, 121),3	2890,(10, 40),6	2896,(10, 46),63	2959,(10, 74),1578	4537,(10, 82),21	4558,(10, 84),15	4573,(10, 101),30	4603,(35, 121),3	4606,(99, 121),3	4609,(57, 121),3	4612,(95, 121),3	4615,(81, 121),3	4618,(11, 18),78	4696,(11, 25),36	4732,(11, 40),9	4741,(11, 41),36	4777,(11, 83),12	4789,(11, 89),3	4792,(11, 104),105	4897,(11, 119),3	4900,(21, 121),3	4903,(69, 121),3	4906,(75, 121),3	4909,(71, 121),3	4912,(94, 121),3	4915,(28, 121),3	4918,(39, 121),3	4921,(65, 121),3	4924,(38, 121),3	4927,(85, 121),3	4930,(68, 121),3	4933,(80, 121),3	4936,(110, 121),3	4939,(112, 121),3	4942,(47, 121),3	4945,(102, 121),3	4948,(97, 121),3	4951,(100, 121),3	
1,(0, 1),66	67,(0, 4),66	133,(0, 5),66	199,(0, 7),66	265,(0, 8),66	331,(0, 10),66	397,(0, 11),66	463,(12, 28),3	466,(12, 47),3	469,(12, 68),27	496,(12, 80),45	541,(12, 97),12	553,(12, 110),3	556,(12, 112),24	580,(9, 47),6	586,(9, 102),3	589,(3, 97),3	592,(3, 100),3	
# Outgoing
1,(0, 1),66	67,(0, 4),66	133,(0, 5),66	199,(0, 7),66	265,(0, 8),66	331,(0, 10),66	397,(0, 11),66	463,(12, 28),3	466,(12, 47),3	469,(12, 68),27	496,(12, 80),45	541,(12, 97),12	553,(12, 110),3	556,(12, 112),24	580,(9, 47),6	586,(9, 102),3	589,(3, 97),3	592,(3, 100),3	
70,(1, 31),18	88,(1, 42),24	112,(1, 58),33	145,(1, 74),192	337,(1, 82),36	373,(1, 101),12	385,(1, 108),108	493,(27, 121),3	496,(87, 121),3	499,(114, 121),3	502,(106, 121),3	505,(33, 121),3	508,(55, 121),3	511,(4, 18),3	514,(4, 30),30	544,(4, 36),9	553,(4, 52),60	613,(4, 83),42	655,(4, 98),12	667,(4, 107),48	715,(4, 108),33	748,(26, 121),3	751,(91, 121),3	754,(111, 121),3	757,(116, 121),3	760,(103, 121),3	763,(49, 121),3	766,(51, 121),3	769,(5, 15),3	772,(5, 46),39	811,(5, 52),90	901,(5, 58),48	949,(5, 72),3	952,(5, 90),48	1000,(5, 104),3	1003,(5, 107),24	1027,(5, 113),762	1789,(16, 121),3	1792,(64, 121),3	1795,(86, 121),3	1798,(92, 121),3	1801,(7, 18),30	1831,(7, 24),57	1888,(7, 31),348	2236,(7, 37),24	2260,(7, 41),6	2266,(7, 52),168	2434,(7, 62),3	2437,(7, 83),3	2440,(7, 84),27	2467,(13, 121),3	2470,(23, 121),3	2473,(78, 121),3	2476,(44, 121),3	2479,(8, 14),6	2485,(8, 19),24	2509,(8, 45),36	2545,(8, 58),225	2770,(8, 88),24	2794,(8, 93),3	2797,(8, 104),66	2863,(17, 121),3	2866,(60, 121),3	2869,(73, 121),3	2872,(79, 121),3	2875,(61, 121),3	2878,(20, 121),3	2881,(22, 121),3	2884,(43, 121),3	2887,(120, 121),3	2890,(10, 40),6	2896,(10, 46),63	2959,(10, 74),1578	4537,(10, 82),21	4558,(10, 84),15	4573,(10, 101),30	4603,(35, 121),3	4606,(99, 121),3	4609,(57, 121),3	4612,(95, 121),3	4615,(81, 121),3	4618,(11, 18),78	4696,(11, 25),36	4732,(11, 40),9	4741,(11, 41),36	4777,(11, 83),12	4789,(11, 89),3	4792,(11, 104),105	4897,(11, 119),3	4900,(21, 121),3	4903,(69, 121),3	4906,(75, 121),3	4909,(71, 121),3	4912,(94, 121),3	4915,(28, 121),3	4918,(39, 121),3	4921,(65, 121),3	4924,(38, 121),3	4927,(85, 121),3	4930,(68, 121),3	4933,(80, 121),3	4936,(110, 121),3	4939,(112, 121),3	4942,(47, 121),3	4945,(102, 121),3	4948,(97, 121),3	4951,(100, 121),3	
