1813
# CPU
2,2,18	20,3,18	38,5,18	56,7,18	74,8,18	92,10,18	110,16,18	128,17,18	146,18,18	164,20,18	182,112,18	200,109,18	218,200,18	236,85,18	254,48,18	272,38,18	290,95,18	308,159,18	326,137,18	344,136,18	362,99,18	380,179,18	398,115,18	416,50,18	434,47,18	452,23,18	470,91,18	488,86,18	506,65,18	524,185,18	542,39,18	560,37,18	578,157,18	596,110,18	614,199,18	632,87,18	650,67,18	668,155,18	686,144,18	704,63,18	722,42,18	740,121,18	758,78,18	776,74,18	794,75,18	812,41,18	830,181,18	848,92,18	866,27,18	884,24,18	902,141,18	920,147,18	938,158,18	956,172,18	974,166,18	992,120,18	1010,98,18	1028,93,18	1046,32,18	1064,151,18	1082,113,18	1100,111,18	1118,59,18	1136,183,18	1154,117,18	1172,160,18	1190,43,18	1208,72,18	1226,96,18	1244,49,18	1262,30,18	1280,56,18	1298,106,18	1316,40,18	1334,71,18	1352,116,18	1370,55,18	1388,171,18	1406,180,18	1424,51,18	1442,131,18	1460,190,18	1478,194,18	1496,35,18	1514,80,18	1532,105,18	1550,119,18	1568,28,18	1586,69,18	1604,149,18	1622,154,18	1640,175,18	1658,176,18	1676,102,18	1694,161,18	1712,177,18	1730,156,18	1748,163,18	1766,44,18	1784,133,18	
0,0,1	1,9,18	19,13,18	37,1,18	55,4,18	73,14,18	91,11,18	109,19,18	127,6,18	145,12,18	163,15,18	181,122,18	199,45,18	217,34,18	235,188,18	253,104,18	271,68,18	289,26,18	307,164,18	325,100,18	343,89,18	361,140,18	379,125,18	397,107,18	415,108,18	433,88,18	451,73,18	469,61,18	487,31,18	505,153,18	523,135,18	541,130,18	559,128,18	577,97,18	595,83,18	613,60,18	631,167,18	649,150,18	667,142,18	685,76,18	703,173,18	721,170,18	739,132,18	757,129,18	775,118,18	793,82,18	811,25,18	829,197,18	847,178,18	865,145,18	883,101,18	901,58,18	919,114,18	937,64,18	955,191,18	973,62,18	991,46,18	1009,21,18	1027,90,18	1045,103,18	1063,168,18	1081,196,18	1099,52,18	1117,81,18	1135,186,18	1153,165,18	1171,169,18	1189,184,18	1207,22,18	1225,152,18	1243,187,18	1261,189,18	1279,33,18	1297,54,18	1315,70,18	1333,123,18	1351,126,18	1369,174,18	1387,77,18	1405,138,18	1423,143,18	1441,182,18	1459,29,18	1477,66,18	1495,79,18	1513,134,18	1531,139,18	1549,148,18	1567,84,18	1585,124,18	1603,127,18	1621,162,18	1639,192,18	1657,195,18	1675,36,18	1693,53,18	1711,57,18	1729,94,18	1747,146,18	1765,193,18	1783,198,18	1812,201,1	
# Incoming
1,(0, 2),1	2,(0, 3),1	3,(0, 5),1	4,(0, 7),1	5,(0, 8),1	6,(0, 10),1	7,(0, 16),1	8,(0, 17),1	9,(0, 18),1	10,(0, 20),1	19,(9, 44),3	22,(9, 65),1	23,(9, 86),1	24,(9, 93),2	26,(9, 133),8	34,(9, 166),43	77,(13, 41),29	106,(13, 42),19	125,(13, 98),12	137,(13, 120),22	159,(13, 141),1	160,(13, 147),1	161,(13, 158),1	162,(13, 172),1	163,(13, 180),18	181,(1, 40),13	194,(1, 71),2	196,(1, 102),1	197,(1, 116),3	200,(4, 55),2	202,(4, 171),4	206,(4, 176),1	207,(4, 180),13	220,(14, 51),1	221,(14, 131),11	232,(14, 175),1	233,(14, 176),1	234,(14, 190),9	243,(14, 194),3	246,(11, 35),2	248,(11, 80),8	256,(11, 105),3	259,(11, 119),1	260,(11, 163),7	267,(19, 28),2	269,(19, 69),7	276,(19, 149),1	277,(19, 154),1	278,(19, 156),3	281,(19, 175),4	285,(19, 176),1	286,(6, 102),1	287,(6, 161),1	288,(6, 177),4	292,(12, 156),1	293,(12, 163),3	296,(15, 44),2	298,(15, 133),1	
20,(2, 52),1	21,(2, 54),1	22,(2, 79),157	179,(2, 90),16	195,(2, 103),2	197,(2, 168),1	198,(2, 196),1	199,(3, 52),1	200,(3, 66),2	202,(5, 81),26	228,(5, 138),1	229,(5, 143),4	233,(5, 186),1	234,(7, 70),6	240,(7, 138),7	247,(7, 165),1	248,(7, 169),1	249,(7, 184),1	250,(7, 187),5	255,(8, 22),4	259,(8, 123),9	268,(8, 152),8	276,(8, 187),1	277,(8, 189),10	287,(8, 192),1	288,(8, 198),3	291,(10, 33),2	293,(10, 54),2	295,(10, 70),1	296,(10, 84),1	297,(10, 123),1	298,(10, 126),1	299,(10, 148),3	302,(10, 174),2	304,(16, 36),1	305,(16, 53),1	306,(16, 77),1	307,(16, 138),3	310,(16, 143),3	313,(16, 182),10	323,(16, 192),49	372,(17, 29),2	374,(17, 66),1	375,(17, 79),72	447,(17, 84),4	451,(17, 134),1	452,(17, 139),1	453,(17, 148),1	454,(18, 84),1	455,(18, 124),1	456,(18, 127),13	469,(18, 162),1	470,(18, 192),8	478,(18, 195),11	489,(20, 36),3	492,(20, 53),1	493,(20, 57),4	497,(20, 94),1	498,(20, 146),4	502,(20, 193),5	507,(20, 198),3	510,(112, 201),10	520,(109, 201),10	530,(200, 201),10	540,(85, 201),10	550,(48, 201),10	560,(38, 201),10	570,(95, 201),10	580,(159, 201),10	590,(137, 201),10	600,(136, 201),10	610,(99, 201),10	620,(179, 201),10	630,(115, 201),10	640,(50, 201),10	650,(47, 201),10	660,(23, 201),10	670,(91, 201),10	680,(86, 201),10	690,(65, 201),10	700,(185, 201),10	710,(39, 201),10	720,(37, 201),10	730,(157, 201),10	740,(110, 201),10	750,(199, 201),10	760,(87, 201),10	770,(67, 201),10	780,(155, 201),10	790,(144, 201),10	800,(63, 201),10	810,(42, 201),10	820,(121, 201),10	830,(78, 201),10	840,(74, 201),10	850,(75, 201),10	860,(41, 201),10	870,(181, 201),10	880,(92, 201),10	890,(27, 201),10	902,(24, 201),10	920,(141, 201),10	938,(147, 201),10	956,(158, 201),10	974,(172, 201),10	992,(166, 201),10	1010,(120, 201),10	1028,(98, 201),10	1046,(93, 201),10	1064,(32, 201),10	1082,(151, 201),10	1100,(113, 201),10	1118,(111, 201),10	1136,(59, 201),10	1154,(183, 201),10	1172,(117, 201),10	1190,(160, 201),10	1208,(43, 201),10	1226,(72, 201),10	1244,(96, 201),10	1262,(49, 201),10	1280,(30, 201),10	1298,(56, 201),10	1316,(106, 201),10	1334,(40, 201),10	1352,(71, 201),10	1370,(116, 201),10	1388,(55, 201),10	1406,(171, 201),10	1424,(180, 201),10	1442,(51, 201),10	1460,(131, 201),10	1478,(190, 201),10	1496,(194, 201),10	1514,(35, 201),10	1532,(80, 201),10	1550,(105, 201),10	1568,(119, 201),10	1586,(28, 201),10	1604,(69, 201),10	1622,(149, 201),10	1640,(154, 201),10	1658,(175, 201),10	1676,(176, 201),10	1694,(102, 201),10	1712,(161, 201),10	1730,(177, 201),10	1748,(156, 201),10	1766,(163, 201),10	1784,(44, 201),10	1802,(133, 201),10	
# Outgoing
20,(2, 52),1	21,(2, 54),1	22,(2, 79),157	179,(2, 90),16	195,(2, 103),2	197,(2, 168),1	198,(2, 196),1	199,(3, 52),1	200,(3, 66),2	202,(5, 81),26	228,(5, 138),1	229,(5, 143),4	233,(5, 186),1	234,(7, 70),6	240,(7, 138),7	247,(7, 165),1	248,(7, 169),1	249,(7, 184),1	250,(7, 187),5	255,(8, 22),4	259,(8, 123),9	268,(8, 152),8	276,(8, 187),1	277,(8, 189),10	287,(8, 192),1	288,(8, 198),3	291,(10, 33),2	293,(10, 54),2	295,(10, 70),1	296,(10, 84),1	297,(10, 123),1	298,(10, 126),1	299,(10, 148),3	302,(10, 174),2	304,(16, 36),1	305,(16, 53),1	306,(16, 77),1	307,(16, 138),3	310,(16, 143),3	313,(16, 182),10	323,(16, 192),49	372,(17, 29),2	374,(17, 66),1	375,(17, 79),72	447,(17, 84),4	451,(17, 134),1	452,(17, 139),1	453,(17, 148),1	454,(18, 84),1	455,(18, 124),1	456,(18, 127),13	469,(18, 162),1	470,(18, 192),8	478,(18, 195),11	489,(20, 36),3	492,(20, 53),1	493,(20, 57),4	497,(20, 94),1	498,(20, 146),4	502,(20, 193),5	507,(20, 198),3	510,(112, 201),10	520,(109, 201),10	530,(200, 201),10	540,(85, 201),10	550,(48, 201),10	560,(38, 201),10	570,(95, 201),10	580,(159, 201),10	590,(137, 201),10	600,(136, 201),10	610,(99, 201),10	620,(179, 201),10	630,(115, 201),10	640,(50, 201),10	650,(47, 201),10	660,(23, 201),10	670,(91, 201),10	680,(86, 201),10	690,(65, 201),10	700,(185, 201),10	710,(39, 201),10	720,(37, 201),10	730,(157, 201),10	740,(110, 201),10	750,(199, 201),10	760,(87, 201),10	770,(67, 201),10	780,(155, 201),10	790,(144, 201),10	800,(63, 201),10	810,(42, 201),10	820,(121, 201),10	830,(78, 201),10	840,(74, 201),10	850,(75, 201),10	860,(41, 201),10	870,(181, 201),10	880,(92, 201),10	890,(27, 201),10	902,(24, 201),10	920,(141, 201),10	938,(147, 201),10	956,(158, 201),10	974,(172, 201),10	992,(166, 201),10	1010,(120, 201),10	1028,(98, 201),10	1046,(93, 201),10	1064,(32, 201),10	1082,(151, 201),10	1100,(113, 201),10	1118,(111, 201),10	1136,(59, 201),10	1154,(183, 201),10	1172,(117, 201),10	1190,(160, 201),10	1208,(43, 201),10	1226,(72, 201),10	1244,(96, 201),10	1262,(49, 201),10	1280,(30, 201),10	1298,(56, 201),10	1316,(106, 201),10	1334,(40, 201),10	1352,(71, 201),10	1370,(116, 201),10	1388,(55, 201),10	1406,(171, 201),10	1424,(180, 201),10	1442,(51, 201),10	1460,(131, 201),10	1478,(190, 201),10	1496,(194, 201),10	1514,(35, 201),10	1532,(80, 201),10	1550,(105, 201),10	1568,(119, 201),10	1586,(28, 201),10	1604,(69, 201),10	1622,(149, 201),10	1640,(154, 201),10	1658,(175, 201),10	1676,(176, 201),10	1694,(102, 201),10	1712,(161, 201),10	1730,(177, 201),10	1748,(156, 201),10	1766,(163, 201),10	1784,(44, 201),10	1802,(133, 201),10	
1,(0, 2),1	2,(0, 3),1	3,(0, 5),1	4,(0, 7),1	5,(0, 8),1	6,(0, 10),1	7,(0, 16),1	8,(0, 17),1	9,(0, 18),1	10,(0, 20),1	19,(9, 44),3	22,(9, 65),1	23,(9, 86),1	24,(9, 93),2	26,(9, 133),8	34,(9, 166),43	77,(13, 41),29	106,(13, 42),19	125,(13, 98),12	137,(13, 120),22	159,(13, 141),1	160,(13, 147),1	161,(13, 158),1	162,(13, 172),1	163,(13, 180),18	181,(1, 40),13	194,(1, 71),2	196,(1, 102),1	197,(1, 116),3	200,(4, 55),2	202,(4, 171),4	206,(4, 176),1	207,(4, 180),13	220,(14, 51),1	221,(14, 131),11	232,(14, 175),1	233,(14, 176),1	234,(14, 190),9	243,(14, 194),3	246,(11, 35),2	248,(11, 80),8	256,(11, 105),3	259,(11, 119),1	260,(11, 163),7	267,(19, 28),2	269,(19, 69),7	276,(19, 149),1	277,(19, 154),1	278,(19, 156),3	281,(19, 175),4	285,(19, 176),1	286,(6, 102),1	287,(6, 161),1	288,(6, 177),4	292,(12, 156),1	293,(12, 163),3	296,(15, 44),2	298,(15, 133),1	
