7318
# CPU
61,8,7	68,15,7	75,26,7	82,50,7	1649,33,7	1656,18,7	1729,41,7	1737,23,7	2441,75,7	2789,79,7	3241,16,7	3421,71,7	3437,72,7	3901,27,7	3929,29,7	4125,38,7	4189,43,7	4321,49,7	4417,56,7	5369,17,7	5376,46,7	7317,81,1	
13,1,7	20,9,7	27,67,7	34,77,7	41,25,7	48,34,7	55,3,7	62,28,7	69,40,7	76,44,7	83,30,7	90,35,7	97,62,7	104,64,7	111,61,7	118,57,7	125,37,7	1757,73,7	2473,70,7	2557,11,7	
37,5,7	44,13,7	51,24,7	58,59,7	65,20,7	72,22,7	79,68,7	86,7,7	93,31,7	100,14,7	107,53,7	114,80,7	121,74,7	128,63,7	135,42,7	142,69,7	149,54,7	1665,36,7	1741,52,7	2445,78,7	
0,0,1	1,6,7	8,4,7	15,2,7	22,60,7	29,39,7	36,55,7	43,76,7	50,32,7	57,66,7	64,58,7	71,65,7	78,47,7	85,21,7	92,10,7	99,51,7	106,48,7	113,12,7	120,45,7	3441,19,7	
# Incoming
49,(0, 8),12	61,(6, 16),1396	1457,(6, 17),96	1553,(6, 18),72	1625,(6, 33),24	1649,(1, 18),4	1653,(1, 72),12	1665,(6, 38),40	1705,(6, 41),24	1729,(6, 49),4	1733,(3, 23),4	1737,(3, 75),4	1741,(6, 72),12	1757,(6, 75),684	2445,(4, 29),24	2473,(4, 79),80	2553,(1, 43),192	2745,(1, 49),16	2761,(1, 79),28	2789,(9, 81),72	2861,(60, 81),72	2933,(67, 81),72	3005,(39, 81),72	3077,(77, 81),72	3149,(55, 81),72	3221,(5, 16),20	3241,(5, 27),88	3329,(5, 56),52	3381,(5, 71),40	3421,(5, 72),16	3437,(25, 81),72	3509,(76, 81),72	3581,(13, 81),72	3653,(34, 81),72	3725,(32, 81),72	3797,(24, 81),72	3869,(3, 27),32	3901,(3, 29),28	3929,(3, 38),196	4125,(3, 43),64	4189,(3, 49),132	4321,(3, 56),96	4417,(66, 81),72	4489,(59, 81),72	4561,(28, 81),72	4633,(58, 81),72	4705,(20, 81),72	4777,(40, 81),72	4849,(65, 81),72	4921,(22, 81),72	4993,(44, 81),72	5065,(47, 81),72	5137,(68, 81),72	5209,(30, 81),72	5281,(21, 81),72	5353,(7, 17),16	5369,(7, 46),4	5373,(35, 81),72	5445,(10, 81),72	5517,(31, 81),72	5589,(62, 81),72	5661,(51, 81),72	5733,(14, 81),72	5805,(64, 81),72	5877,(48, 81),72	5949,(53, 81),72	6021,(61, 81),72	6093,(12, 81),72	6165,(80, 81),72	6237,(57, 81),72	6309,(45, 81),72	6381,(74, 81),72	6453,(37, 81),72	6525,(63, 81),72	6597,(42, 81),72	6669,(69, 81),72	6741,(54, 81),72	6813,(36, 81),72	6885,(52, 81),72	6957,(73, 81),72	7029,(78, 81),72	7101,(70, 81),72	7173,(11, 81),72	7245,(19, 81),72	
1,(0, 1),12	13,(0, 3),12	76,(8, 37),8	1753,(6, 73),4	2469,(4, 70),4	2553,(2, 11),4	
25,(0, 5),12	37,(0, 7),12	62,(3, 31),8	1649,(6, 36),16	1733,(6, 52),8	2441,(6, 78),4	
20,(1, 12),4	68,(8, 12),8	84,(8, 45),4	3437,(7, 19),4	
# Outgoing
68,(8, 12),8	76,(8, 37),8	84,(8, 45),4	
20,(1, 12),4	62,(3, 31),8	1649,(1, 18),4	1653,(1, 72),12	1733,(3, 23),4	1737,(3, 75),4	2553,(1, 43),192	2745,(1, 49),16	2761,(1, 79),28	2789,(9, 81),72	2933,(67, 81),72	3077,(77, 81),72	3437,(25, 81),72	3653,(34, 81),72	3869,(3, 27),32	3901,(3, 29),28	3929,(3, 38),196	4125,(3, 43),64	4189,(3, 49),132	4321,(3, 56),96	4561,(28, 81),72	4777,(40, 81),72	4993,(44, 81),72	5209,(30, 81),72	5373,(35, 81),72	5589,(62, 81),72	5805,(64, 81),72	6021,(61, 81),72	6237,(57, 81),72	6453,(37, 81),72	6957,(73, 81),72	7101,(70, 81),72	7173,(11, 81),72	
3221,(5, 16),20	3241,(5, 27),88	3329,(5, 56),52	3381,(5, 71),40	3421,(5, 72),16	3437,(7, 19),4	3581,(13, 81),72	3797,(24, 81),72	4489,(59, 81),72	4705,(20, 81),72	4921,(22, 81),72	5137,(68, 81),72	5353,(7, 17),16	5369,(7, 46),4	5517,(31, 81),72	5733,(14, 81),72	5949,(53, 81),72	6165,(80, 81),72	6381,(74, 81),72	6525,(63, 81),72	6597,(42, 81),72	6669,(69, 81),72	6741,(54, 81),72	6813,(36, 81),72	6885,(52, 81),72	7029,(78, 81),72	
1,(0, 1),12	13,(0, 3),12	25,(0, 5),12	37,(0, 7),12	49,(0, 8),12	61,(6, 16),1396	1457,(6, 17),96	1553,(6, 18),72	1625,(6, 33),24	1649,(6, 36),16	1665,(6, 38),40	1705,(6, 41),24	1729,(6, 49),4	1733,(6, 52),8	1741,(6, 72),12	1753,(6, 73),4	1757,(6, 75),684	2441,(6, 78),4	2445,(4, 29),24	2469,(4, 70),4	2473,(4, 79),80	2553,(2, 11),4	2861,(60, 81),72	3005,(39, 81),72	3149,(55, 81),72	3509,(76, 81),72	3725,(32, 81),72	4417,(66, 81),72	4633,(58, 81),72	4849,(65, 81),72	5065,(47, 81),72	5281,(21, 81),72	5445,(10, 81),72	5661,(51, 81),72	5877,(48, 81),72	6093,(12, 81),72	6309,(45, 81),72	7245,(19, 81),72	
