118
# CPU
4,2,11	15,6,11	26,4,11	37,8,11	48,14,11	59,18,11	70,10,11	81,12,11	92,16,11	103,20,11	
0,0,1	1,1,11	12,3,11	23,11,11	34,19,11	45,7,11	56,17,11	67,15,11	78,5,11	89,9,11	100,13,11	117,21,1	
# Incoming
1,(0, 2),3	12,(1, 6),3	15,(1, 10),19	34,(1, 12),25	59,(1, 16),1	60,(1, 20),8	
15,(2, 5),3	18,(2, 9),6	24,(2, 13),1	26,(6, 21),3	37,(4, 21),3	48,(8, 21),3	59,(14, 21),3	70,(18, 21),3	81,(10, 21),3	92,(12, 21),3	103,(16, 21),3	114,(20, 21),3	
# Outgoing
15,(2, 5),3	18,(2, 9),6	24,(2, 13),1	26,(6, 21),3	37,(4, 21),3	48,(8, 21),3	59,(14, 21),3	70,(18, 21),3	81,(10, 21),3	92,(12, 21),3	103,(16, 21),3	114,(20, 21),3	
1,(0, 2),3	12,(1, 6),3	15,(1, 10),19	34,(1, 12),25	59,(1, 16),1	60,(1, 20),8	
