16886
# CPU
145,8,38	183,11,38	241,14,38	12281,73,38	12565,132,38	12717,59,38	12813,186,38	15141,56,38	15179,83,38	15251,50,38	15295,157,38	15341,99,38	15379,146,38	15419,162,38	15495,145,38	15687,43,38	15725,58,38	15763,46,38	16023,76,38	16079,130,38	16117,142,38	16155,60,38	16193,189,38	16239,32,38	16277,123,38	16315,126,38	16353,127,38	16391,151,38	16429,183,38	16467,196,38	16505,47,38	16543,48,38	16581,71,38	16619,90,38	16657,105,38	16695,152,38	16733,163,38	16771,164,38	16809,184,38	16847,192,38	16885,201,1	
25,1,38	63,93,38	265,15,38	303,17,38	341,19,38	379,75,38	945,26,38	1005,133,38	1057,64,38	1095,147,38	1681,185,38	10577,116,38	12223,155,38	12405,72,38	12839,29,38	13027,114,38	13065,117,38	13103,171,38	13141,182,38	13179,21,38	13217,37,38	13255,41,38	13293,55,38	13331,78,38	13369,85,38	13407,88,38	13445,96,38	13483,168,38	13521,176,38	13559,178,38	13643,52,38	13691,92,38	13729,101,38	13767,103,38	13805,122,38	13843,139,38	13881,144,38	13919,165,38	13957,166,38	13995,167,38	
49,2,38	97,4,38	135,7,38	193,12,38	481,111,38	519,140,38	557,44,38	1195,31,38	1233,38,38	1271,198,38	1309,45,38	1347,170,38	10383,53,38	12281,30,38	12325,61,38	12503,104,38	12639,119,38	12837,25,38	12875,36,38	12913,70,38	13069,158,38	13201,51,38	13261,81,38	13299,91,38	13355,98,38	13393,136,38	13467,173,38	13505,180,38	13543,188,38	13621,35,38	13659,69,38	13697,79,38	13735,102,38	13773,112,38	13811,115,38	13849,125,38	13887,134,38	13925,138,38	13963,195,38	14001,200,38	
73,3,38	217,13,38	313,18,38	361,20,38	399,23,38	437,108,38	613,191,38	651,49,38	701,110,38	739,124,38	971,153,38	1309,150,38	1541,121,38	12473,82,38	12521,107,38	12559,109,38	12683,131,38	12833,197,38	12883,42,38	12943,80,38	12981,84,38	13019,95,38	13057,128,38	13095,137,38	13133,174,38	13245,57,38	13295,89,38	13359,135,38	13397,149,38	13451,159,38	13617,22,38	13663,77,38	13701,97,38	13739,106,38	13777,143,38	13815,160,38	13853,169,38	13891,172,38	13929,194,38	13967,199,38	
0,0,1	1,6,38	39,9,38	77,10,38	115,16,38	153,5,38	191,67,38	373,74,38	411,68,38	879,33,38	1027,34,38	1065,187,38	1103,65,38	1141,66,38	1179,40,38	1217,27,38	1255,54,38	1293,118,38	1331,86,38	1369,28,38	1407,39,38	1445,179,38	1483,62,38	1521,190,38	1559,148,38	1597,24,38	1635,87,38	1673,63,38	1711,181,38	1749,141,38	1787,100,38	1825,94,38	1863,175,38	1901,177,38	1939,193,38	1977,154,38	2015,161,38	2053,120,38	2091,156,38	2129,113,38	2167,129,38	
# Incoming
121,(0, 8),24	145,(0, 11),24	169,(1, 32),10	179,(1, 50),2	181,(2, 47),6	187,(2, 50),24	211,(3, 59),6	217,(0, 14),24	241,(1, 60),40	281,(1, 71),26	307,(2, 60),2	309,(2, 73),2	311,(2, 105),2	313,(2, 130),2	315,(2, 132),18	333,(1, 99),16	349,(1, 127),2	351,(1, 142),18	369,(1, 145),6	375,(2, 146),2	377,(3, 60),2	379,(1, 157),6	385,(2, 151),40	425,(3, 90),2	427,(6, 50),9954	10381,(93, 201),2	10383,(6, 56),2	10385,(1, 164),38	10423,(2, 183),8	10431,(2, 184),4	10435,(2, 189),8	10443,(3, 105),2	10445,(3, 189),2	10447,(6, 58),28	10475,(6, 59),10	10485,(3, 56),14	10499,(4, 56),4	10503,(4, 105),2	10505,(6, 73),6	10511,(3, 126),10	10521,(6, 105),4	10525,(1, 196),30	10555,(3, 46),26	10581,(4, 152),2	10583,(6, 142),4	10587,(4, 71),4	10591,(6, 145),378	10969,(6, 151),1222	12191,(6, 152),24	12215,(3, 142),8	12223,(6, 157),2	12225,(3, 130),38	12263,(4, 73),18	12281,(9, 32),16	12297,(4, 99),6	12303,(9, 46),2	12305,(3, 132),96	12401,(4, 47),32	12433,(4, 146),4	12437,(4, 151),60	12497,(4, 157),2	12499,(4, 162),6	12505,(4, 163),24	12529,(4, 186),2	12531,(7, 50),24	12555,(7, 132),10	12565,(7, 184),2	12567,(12, 32),2	12569,(12, 47),28	12597,(12, 48),2	12599,(12, 50),106	12705,(12, 59),12	12717,(12, 90),8	12725,(9, 151),78	12803,(12, 130),8	12811,(12, 186),2	12813,(9, 163),10	12823,(2, 192),1948	14771,(3, 192),364	15135,(10, 43),2	15137,(10, 48),2	15139,(10, 56),2	15141,(10, 58),2	15143,(10, 83),2	15145,(10, 105),6	15151,(10, 130),4	15155,(10, 142),2	15157,(10, 146),2	15159,(10, 162),2	15161,(10, 164),78	15239,(10, 184),2	15241,(16, 46),4	15245,(16, 47),2	15247,(16, 48),2	15249,(16, 50),2	15251,(16, 90),2	15253,(16, 126),8	15261,(16, 142),18	15279,(16, 152),14	15293,(16, 157),2	15295,(16, 162),2	15297,(16, 163),4	15301,(5, 58),38	15339,(5, 99),2	15341,(5, 105),20	15361,(5, 145),10	15371,(5, 146),2	15373,(5, 151),44	15417,(5, 162),2	15419,(5, 184),16	15435,(67, 201),2	15437,(12, 76),36	15473,(12, 126),18	15491,(12, 145),4	15495,(12, 164),38	15533,(12, 183),12	15545,(12, 189),8	15553,(12, 192),2	15555,(13, 105),10	15565,(13, 130),2	15567,(13, 142),20	15587,(13, 152),70	15657,(13, 196),28	15685,(15, 43),2	15687,(15, 58),2	15689,(15, 60),22	15711,(15, 126),14	15725,(15, 127),2	15727,(15, 164),2	15729,(15, 192),22	15751,(17, 46),10	15761,(17, 60),8	15769,(17, 71),8	15777,(17, 76),246	16023,(17, 90),4	16027,(17, 127),38	16065,(17, 130),14	16079,(17, 142),12	16091,(18, 60),6	16097,(18, 123),22	16119,(18, 127),2	16121,(18, 151),2	16123,(18, 152),10	16133,(18, 164),8	16141,(18, 184),2	16143,(18, 189),2	16145,(19, 32),94	16239,(19, 48),2	16241,(19, 71),10	16251,(19, 123),6	16257,(19, 126),6	16263,(19, 127),6	16269,(19, 151),10	16279,(19, 163),12	16291,(19, 183),32	16323,(19, 196),12	16335,(20, 47),2	16337,(20, 48),2	16339,(20, 71),6	16345,(20, 90),2	16347,(20, 105),4	16351,(20, 152),4	16355,(20, 163),2	16357,(20, 164),22	16379,(20, 184),18	16397,(20, 192),4	16401,(74, 201),2	16403,(75, 201),2	16405,(23, 201),2	16407,(68, 201),2	16409,(108, 201),2	16411,(111, 201),2	16413,(140, 201),2	16415,(44, 201),2	16417,(191, 201),2	16419,(49, 201),2	16421,(110, 201),2	16423,(124, 201),2	16425,(33, 201),2	16427,(26, 201),2	16429,(153, 201),2	16431,(133, 201),2	16433,(34, 201),2	16435,(64, 201),2	16437,(187, 201),2	16439,(147, 201),2	16441,(65, 201),2	16443,(66, 201),2	16445,(40, 201),2	16447,(31, 201),2	16449,(27, 201),2	16451,(38, 201),2	16453,(54, 201),2	16455,(198, 201),2	16457,(118, 201),2	16459,(45, 201),2	16461,(150, 201),2	16463,(86, 201),2	16465,(170, 201),2	16467,(28, 201),2	16469,(39, 201),2	16471,(179, 201),2	16473,(62, 201),2	16475,(190, 201),2	16477,(121, 201),2	16479,(148, 201),2	16481,(24, 201),2	16483,(87, 201),2	16485,(63, 201),2	16487,(185, 201),2	16489,(181, 201),2	16491,(141, 201),2	16493,(100, 201),2	16495,(94, 201),2	16497,(175, 201),2	16499,(177, 201),2	16501,(193, 201),2	16503,(154, 201),2	16505,(161, 201),2	16507,(120, 201),2	16509,(156, 201),2	16511,(113, 201),2	16513,(129, 201),2	16515,(53, 201),2	16517,(116, 201),2	16519,(155, 201),2	16521,(30, 201),2	16523,(61, 201),2	16525,(72, 201),2	16527,(82, 201),2	16529,(104, 201),2	16531,(107, 201),2	16533,(109, 201),2	16535,(119, 201),2	16537,(131, 201),2	16539,(197, 201),2	16541,(25, 201),2	16543,(29, 201),2	16545,(36, 201),2	16547,(42, 201),2	16549,(70, 201),2	16551,(80, 201),2	16553,(84, 201),2	16555,(95, 201),2	16557,(114, 201),2	16559,(128, 201),2	16561,(117, 201),2	16563,(158, 201),2	16565,(137, 201),2	16567,(171, 201),2	16569,(174, 201),2	16571,(182, 201),2	16573,(21, 201),2	16575,(51, 201),2	16577,(37, 201),2	16579,(57, 201),2	16581,(41, 201),2	16583,(81, 201),2	16585,(55, 201),2	16587,(89, 201),2	16589,(91, 201),2	16591,(78, 201),2	16593,(98, 201),2	16595,(135, 201),2	16597,(85, 201),2	16599,(136, 201),2	16601,(149, 201),2	16603,(88, 201),2	16605,(96, 201),2	16607,(159, 201),2	16609,(173, 201),2	16611,(168, 201),2	16613,(180, 201),2	16615,(176, 201),2	16617,(188, 201),2	16619,(178, 201),2	16621,(22, 201),2	16623,(35, 201),2	16625,(52, 201),2	16627,(69, 201),2	16629,(77, 201),2	16631,(92, 201),2	16633,(79, 201),2	16635,(97, 201),2	16637,(101, 201),2	16639,(102, 201),2	16641,(106, 201),2	16643,(103, 201),2	16645,(112, 201),2	16647,(143, 201),2	16649,(122, 201),2	16651,(115, 201),2	16653,(160, 201),2	16655,(139, 201),2	16657,(125, 201),2	16659,(169, 201),2	16661,(144, 201),2	16663,(134, 201),2	16665,(172, 201),2	16667,(165, 201),2	16669,(138, 201),2	16671,(194, 201),2	16673,(166, 201),2	16675,(195, 201),2	16677,(199, 201),2	16679,(167, 201),2	16681,(200, 201),2	
1,(0, 1),24	87,(2, 26),2	89,(2, 52),4	93,(2, 103),16	109,(2, 117),24	133,(2, 144),6	139,(2, 147),2	141,(3, 52),8	149,(2, 155),2	151,(3, 117),2	153,(3, 155),2	231,(2, 122),10	241,(0, 15),24	265,(0, 17),24	289,(2, 176),4	293,(4, 21),4	297,(4, 55),6	303,(4, 88),2	305,(4, 114),2	313,(0, 19),24	337,(2, 133),20	357,(4, 85),8	365,(13, 26),6	371,(4, 144),2	373,(13, 55),2	383,(7, 101),2	387,(6, 26),8	401,(6, 37),26	427,(3, 64),86	513,(4, 117),16	529,(4, 139),18	547,(8, 52),2	549,(8, 55),4	553,(8, 85),6	559,(8, 116),2	561,(8, 117),16	577,(8, 165),2	579,(8, 182),2	581,(7, 64),6	587,(7, 117),2	589,(8, 176),8	597,(11, 29),2	599,(11, 41),2	601,(11, 72),4	605,(7, 147),2	607,(7, 155),2	609,(7, 176),2	611,(11, 117),2	613,(11, 176),2	615,(7, 185),6	621,(8, 185),16	637,(11, 52),6	643,(11, 133),8	651,(14, 41),2	655,(4, 167),84	743,(4, 182),110	853,(13, 85),12	865,(13, 96),4	869,(13, 101),14	883,(13, 144),14	897,(13, 147),4	901,(13, 155),4	905,(13, 167),2	907,(13, 176),6	913,(13, 178),26	939,(18, 26),6	945,(18, 64),4	949,(18, 72),24	973,(18, 114),6	979,(18, 155),6	985,(18, 182),4	989,(18, 185),2	991,(20, 21),2	993,(20, 72),2	995,(20, 92),4	999,(20, 114),2	1001,(20, 133),4	1005,(20, 144),4	1009,(11, 147),6	1015,(14, 92),4	1041,(11, 64),16	1057,(14, 147),2	1059,(20, 78),20	1079,(20, 155),2	1087,(20, 96),20	1107,(20, 122),16	1123,(12, 37),2	1127,(12, 72),4	1135,(12, 101),4	1139,(12, 139),2	1141,(12, 176),2	1143,(12, 178),14	1167,(11, 139),38	1205,(12, 103),40	1251,(20, 178),28	1279,(20, 185),12	1419,(14, 21),10	1445,(14, 78),14	1473,(14, 96),8	1495,(14, 114),6	1501,(14, 117),14	1607,(14, 167),2	1609,(14, 171),14	1679,(14, 185),2	10487,(6, 72),18	10511,(6, 78),2	10563,(6, 114),12	10575,(6, 116),2	10577,(6, 122),2	12215,(6, 155),8	12225,(6, 178),6	12297,(9, 41),6	12307,(9, 55),8	12387,(9, 72),18	12407,(9, 78),42	12475,(9, 85),12	12487,(9, 96),2	12545,(9, 117),68	12639,(9, 122),6	12721,(9, 144),2	12823,(9, 171),2	12837,(10, 29),2	12963,(10, 92),22	12987,(10, 101),2	13023,(10, 103),2	13025,(10, 114),2	13031,(10, 117),2	13065,(10, 144),2	13069,(10, 165),20	13089,(10, 171),2	13101,(10, 182),4	13143,(16, 21),10	13153,(16, 37),4	13157,(16, 41),2	13201,(16, 55),10	13247,(16, 78),2	13261,(16, 85),2	13263,(16, 88),6	13299,(16, 96),2	13369,(16, 139),2	13463,(16, 168),2	13467,(16, 176),2	13469,(16, 178),6	13621,(5, 52),22	13675,(5, 92),16	13695,(5, 101),12	13723,(5, 103),2	13731,(5, 122),2	13747,(5, 139),2	13751,(5, 144),8	13765,(5, 165),14	13779,(5, 166),4	13783,(5, 167),6	
25,(0, 2),24	73,(0, 4),24	97,(0, 7),24	121,(3, 25),2	123,(3, 30),8	131,(3, 53),2	133,(3, 102),2	135,(3, 138),2	145,(1, 44),2	147,(1, 45),2	155,(1, 69),8	167,(1, 112),2	169,(0, 12),24	193,(1, 31),38	231,(3, 51),36	267,(3, 69),28	307,(1, 98),26	333,(3, 70),24	357,(13, 25),2	361,(6, 25),26	387,(1, 180),8	395,(6, 30),6	401,(1, 104),14	415,(8, 30),14	429,(8, 53),10	439,(8, 79),4	443,(8, 115),8	451,(8, 134),6	457,(8, 195),20	477,(11, 98),2	479,(11, 111),2	481,(11, 136),2	483,(11, 140),2	485,(11, 173),2	487,(11, 198),4	491,(14, 44),2	493,(14, 53),2	495,(14, 91),2	497,(14, 134),6	503,(14, 138),2	505,(14, 173),2	507,(14, 180),6	513,(13, 44),4	517,(13, 51),28	545,(13, 61),8	553,(13, 112),22	575,(13, 119),2	577,(1, 188),28	613,(1, 195),4	617,(15, 38),8	625,(15, 115),2	629,(3, 119),124	753,(13, 136),2	755,(13, 195),2	757,(15, 61),6	763,(15, 112),4	767,(15, 119),2	769,(15, 134),4	773,(15, 170),14	787,(17, 79),2	789,(17, 104),8	797,(18, 31),6	803,(18, 69),2	805,(18, 81),4	809,(11, 30),124	933,(11, 36),76	1009,(13, 198),26	1035,(13, 200),20	1055,(17, 45),18	1073,(17, 115),6	1079,(17, 180),2	1081,(18, 98),2	1083,(18, 200),4	1087,(19, 61),2	1089,(11, 119),38	1127,(19, 25),14	1141,(19, 31),4	1145,(18, 115),10	1155,(18, 134),12	1167,(18, 180),10	1177,(18, 198),14	1191,(20, 31),4	1195,(20, 35),8	1203,(20, 36),14	1217,(20, 38),2	1219,(20, 61),18	1237,(20, 81),2	1239,(20, 104),2	1241,(20, 198),2	1245,(19, 45),18	1263,(19, 53),12	1275,(19, 69),2	1277,(19, 81),8	1285,(19, 115),12	1297,(19, 119),4	1301,(19, 138),6	1307,(19, 158),6	1313,(19, 170),4	1317,(19, 173),2	1319,(19, 180),2	1321,(19, 195),34	1355,(20, 79),12	1367,(20, 115),6	1373,(20, 119),32	1405,(20, 180),10	10381,(6, 53),2	10485,(6, 70),2	10513,(6, 91),2	10579,(6, 134),4	12231,(6, 180),22	12273,(9, 30),8	12305,(9, 51),2	12315,(9, 61),10	12325,(9, 69),62	12449,(9, 79),2	12489,(9, 104),14	12523,(9, 112),18	12541,(9, 115),4	12613,(9, 119),26	12645,(9, 125),22	12683,(9, 134),26	12709,(9, 136),6	12715,(9, 138),4	12825,(9, 180),2	12833,(9, 200),2	12835,(10, 25),2	12839,(10, 36),36	12883,(10, 51),2	12885,(10, 70),10	12943,(10, 81),8	12989,(10, 102),34	13027,(10, 115),4	13055,(10, 136),8	13067,(10, 158),2	13105,(10, 200),38	13159,(16, 51),42	13245,(16, 69),2	13249,(16, 81),12	13295,(16, 91),4	13301,(16, 98),54	13359,(16, 136),2	13361,(16, 138),8	13465,(16, 173),2	13475,(16, 180),4	13479,(16, 188),2	13483,(16, 195),56	13539,(16, 200),12	13617,(5, 35),4	13643,(5, 69),2	13663,(5, 79),12	13707,(5, 102),16	13727,(5, 112),2	13729,(5, 115),2	13733,(5, 125),8	13741,(5, 134),2	13743,(5, 138),4	13803,(5, 195),2	13821,(5, 200),2	
49,(0, 3),24	73,(1, 22),68	141,(2, 80),2	143,(2, 84),2	145,(2, 109),2	149,(1, 57),2	151,(2, 124),2	153,(2, 159),2	163,(1, 77),2	165,(1, 108),2	169,(2, 77),12	189,(1, 121),2	191,(1, 124),2	193,(0, 13),24	231,(1, 110),6	237,(1, 128),2	257,(2, 128),4	263,(4, 23),2	289,(0, 18),24	333,(4, 135),2	337,(0, 20),24	365,(4, 109),6	375,(1, 149),4	379,(4, 159),4	385,(1, 199),2	395,(15, 80),2	397,(15, 131),2	399,(15, 135),2	425,(4, 131),18	443,(4, 194),56	499,(7, 128),8	507,(7, 137),4	511,(7, 160),2	513,(8, 84),6	519,(8, 109),6	525,(8, 124),2	527,(8, 150),14	541,(8, 169),2	543,(11, 77),2	545,(11, 82),2	547,(4, 199),34	581,(11, 84),6	587,(11, 89),2	589,(7, 135),16	605,(1, 191),8	613,(7, 174),2	615,(11, 106),4	619,(11, 153),2	621,(7, 199),2	623,(12, 22),2	625,(12, 107),2	627,(15, 49),8	635,(15, 137),2	637,(15, 159),8	645,(15, 169),2	647,(15, 174),2	649,(17, 22),2	651,(17, 80),2	653,(14, 57),2	655,(15, 89),22	677,(17, 82),4	681,(17, 84),16	697,(17, 110),4	701,(17, 124),2	703,(19, 131),2	705,(8, 153),46	751,(17, 159),4	755,(19, 194),2	775,(11, 22),24	799,(17, 42),58	857,(17, 107),16	873,(19, 159),4	879,(7, 42),28	907,(17, 143),28	935,(17, 172),8	943,(19, 22),10	953,(19, 153),18	1019,(7, 169),40	1059,(11, 149),10	1069,(7, 197),44	1127,(11, 135),40	1167,(12, 42),12	1179,(12, 82),12	1191,(12, 84),8	1199,(12, 106),6	1205,(11, 150),10	1215,(11, 159),20	1235,(11, 174),18	1253,(12, 89),16	1269,(12, 95),16	1285,(12, 121),14	1299,(12, 137),4	1303,(12, 150),6	1309,(12, 172),6	1459,(14, 84),14	1481,(14, 97),8	1515,(14, 121),26	1559,(14, 135),2	1565,(14, 159),42	1725,(14, 199),4	10385,(6, 57),62	10515,(6, 97),6	10525,(6, 106),38	10587,(6, 143),4	12253,(9, 22),20	12405,(9, 77),2	12451,(9, 80),6	12457,(9, 82),16	12473,(9, 84),2	12503,(9, 107),18	12521,(9, 109),2	12667,(9, 128),2	12669,(9, 131),14	12719,(9, 143),2	12723,(9, 149),2	12803,(9, 159),10	12827,(9, 197),6	12875,(10, 42),8	12895,(10, 77),42	12937,(10, 80),6	12951,(10, 84),12	12985,(10, 95),2	13033,(10, 128),22	13063,(10, 137),2	13091,(10, 174),10	13211,(16, 57),34	13269,(16, 89),26	13355,(16, 135),4	13371,(16, 149),6	13377,(16, 159),74	13451,(16, 160),12	13481,(16, 194),2	13551,(5, 22),66	13645,(5, 77),18	13691,(5, 97),4	13725,(5, 106),2	13749,(5, 143),2	13759,(5, 160),6	13789,(5, 169),8	13797,(5, 172),2	13799,(5, 194),4	13805,(5, 199),16	
141,(1, 28),2	143,(1, 40),2	147,(2, 120),2	149,(3, 148),2	151,(1, 66),4	155,(2, 33),14	169,(3, 65),12	181,(1, 100),8	189,(3, 120),6	195,(3, 187),4	211,(2, 54),20	239,(1, 148),2	241,(2, 118),16	261,(2, 177),2	265,(4, 27),2	267,(4, 34),2	269,(4, 66),16	285,(4, 100),2	287,(4, 129),2	295,(3, 87),36	331,(13, 39),2	335,(7, 62),2	359,(13, 54),6	371,(13, 74),2	373,(7, 68),2	375,(13, 113),2	377,(7, 86),2	379,(3, 177),24	403,(13, 62),4	407,(13, 120),2	409,(13, 148),6	415,(1, 113),54	469,(1, 154),86	555,(1, 177),22	577,(3, 118),52	629,(4, 62),26	655,(8, 40),16	671,(8, 66),14	685,(8, 129),12	697,(8, 148),8	705,(15, 24),2	707,(15, 28),6	713,(15, 40),8	721,(15, 65),4	725,(15, 118),12	737,(15, 175),2	739,(4, 181),4	743,(17, 40),2	745,(17, 100),6	751,(8, 156),18	769,(8, 175),2	771,(8, 177),4	775,(13, 63),10	785,(13, 156),2	787,(13, 181),10	797,(17, 177),2	799,(11, 24),10	809,(13, 65),18	827,(13, 190),18	845,(18, 62),2	847,(18, 87),2	849,(18, 113),2	851,(20, 27),2	853,(7, 33),26	879,(15, 120),12	891,(17, 179),16	907,(7, 54),86	993,(7, 118),6	999,(7, 141),2	1001,(7, 156),18	1019,(11, 34),8	1027,(11, 39),14	1041,(17, 187),2	1043,(17, 190),6	1049,(19, 27),2	1051,(19, 28),2	1053,(19, 62),2	1055,(20, 65),2	1057,(20, 66),2	1059,(7, 190),10	1069,(11, 62),20	1089,(17, 148),20	1109,(19, 40),4	1113,(12, 27),4	1117,(12, 28),6	1123,(19, 181),2	1125,(12, 54),2	1127,(20, 118),2	1129,(20, 161),2	1131,(12, 86),2	1133,(12, 100),2	1135,(18, 28),10	1145,(19, 39),6	1157,(12, 179),2	1159,(15, 62),30	1189,(15, 94),56	1245,(20, 87),6	1253,(11, 190),118	1371,(11, 193),48	1419,(18, 148),10	1429,(14, 24),4	1433,(14, 63),12	1445,(17, 87),30	1475,(20, 63),10	1485,(20, 181),2	1489,(14, 100),6	1495,(17, 141),28	1523,(18, 177),16	1541,(14, 129),18	1561,(14, 156),4	1565,(15, 100),48	1613,(20, 94),10	1623,(14, 175),24	1647,(14, 177),32	1681,(14, 193),44	1725,(17, 154),56	1781,(17, 161),54	1835,(19, 120),28	1863,(19, 156),24	1887,(20, 113),6	1893,(20, 129),6	
# Outgoing
415,(8, 30),14	429,(8, 53),10	439,(8, 79),4	443,(8, 115),8	451,(8, 134),6	457,(8, 195),20	477,(11, 98),2	479,(11, 111),2	481,(11, 136),2	483,(11, 140),2	485,(11, 173),2	487,(11, 198),4	491,(14, 44),2	493,(14, 53),2	495,(14, 91),2	497,(14, 134),6	503,(14, 138),2	505,(14, 173),2	507,(14, 180),6	513,(8, 84),6	519,(8, 109),6	525,(8, 124),2	527,(8, 150),14	541,(8, 169),2	543,(11, 77),2	545,(11, 82),2	547,(8, 52),2	549,(8, 55),4	553,(8, 85),6	559,(8, 116),2	561,(8, 117),16	577,(8, 165),2	579,(8, 182),2	581,(11, 84),6	587,(11, 89),2	589,(8, 176),8	597,(11, 29),2	599,(11, 41),2	601,(11, 72),4	611,(11, 117),2	613,(11, 176),2	615,(11, 106),4	619,(11, 153),2	621,(8, 185),16	637,(11, 52),6	643,(11, 133),8	651,(14, 41),2	653,(14, 57),2	655,(8, 40),16	671,(8, 66),14	685,(8, 129),12	697,(8, 148),8	705,(8, 153),46	751,(8, 156),18	769,(8, 175),2	771,(8, 177),4	775,(11, 22),24	799,(11, 24),10	809,(11, 30),124	933,(11, 36),76	1009,(11, 147),6	1015,(14, 92),4	1019,(11, 34),8	1027,(11, 39),14	1041,(11, 64),16	1057,(14, 147),2	1059,(11, 149),10	1069,(11, 62),20	1089,(11, 119),38	1127,(11, 135),40	1167,(11, 139),38	1205,(11, 150),10	1215,(11, 159),20	1235,(11, 174),18	1253,(11, 190),118	1371,(11, 193),48	1419,(14, 21),10	1429,(14, 24),4	1433,(14, 63),12	1445,(14, 78),14	1459,(14, 84),14	1473,(14, 96),8	1481,(14, 97),8	1489,(14, 100),6	1495,(14, 114),6	1501,(14, 117),14	1515,(14, 121),26	1541,(14, 129),18	1559,(14, 135),2	1561,(14, 156),4	1565,(14, 159),42	1607,(14, 167),2	1609,(14, 171),14	1623,(14, 175),24	1647,(14, 177),32	1679,(14, 185),2	1681,(14, 193),44	1725,(14, 199),4	
73,(1, 22),68	141,(1, 28),2	143,(1, 40),2	145,(1, 44),2	147,(1, 45),2	149,(1, 57),2	151,(1, 66),4	155,(1, 69),8	163,(1, 77),2	165,(1, 108),2	167,(1, 112),2	169,(1, 32),10	179,(1, 50),2	181,(1, 100),8	189,(1, 121),2	191,(1, 124),2	193,(1, 31),38	231,(1, 110),6	237,(1, 128),2	239,(1, 148),2	241,(1, 60),40	281,(1, 71),26	307,(1, 98),26	333,(1, 99),16	349,(1, 127),2	351,(1, 142),18	369,(1, 145),6	375,(1, 149),4	379,(1, 157),6	385,(1, 199),2	387,(1, 180),8	395,(15, 80),2	397,(15, 131),2	399,(15, 135),2	401,(1, 104),14	415,(1, 113),54	469,(1, 154),86	555,(1, 177),22	577,(1, 188),28	605,(1, 191),8	613,(1, 195),4	617,(15, 38),8	625,(15, 115),2	627,(15, 49),8	635,(15, 137),2	637,(15, 159),8	645,(15, 169),2	647,(15, 174),2	649,(17, 22),2	651,(17, 80),2	655,(15, 89),22	677,(17, 82),4	681,(17, 84),16	697,(17, 110),4	701,(17, 124),2	703,(19, 131),2	705,(15, 24),2	707,(15, 28),6	713,(15, 40),8	721,(15, 65),4	725,(15, 118),12	737,(15, 175),2	743,(17, 40),2	745,(17, 100),6	751,(17, 159),4	755,(19, 194),2	757,(15, 61),6	763,(15, 112),4	767,(15, 119),2	769,(15, 134),4	773,(15, 170),14	787,(17, 79),2	789,(17, 104),8	797,(17, 177),2	799,(17, 42),58	857,(17, 107),16	873,(19, 159),4	879,(15, 120),12	891,(17, 179),16	907,(17, 143),28	935,(17, 172),8	943,(19, 22),10	953,(19, 153),18	1041,(17, 187),2	1043,(17, 190),6	1049,(19, 27),2	1051,(19, 28),2	1053,(19, 62),2	1055,(17, 45),18	1073,(17, 115),6	1079,(17, 180),2	1087,(19, 61),2	1089,(17, 148),20	1109,(19, 40),4	1123,(19, 181),2	1127,(19, 25),14	1141,(19, 31),4	1145,(19, 39),6	1159,(15, 62),30	1189,(15, 94),56	1245,(19, 45),18	1263,(19, 53),12	1275,(19, 69),2	1277,(19, 81),8	1285,(19, 115),12	1297,(19, 119),4	1301,(19, 138),6	1307,(19, 158),6	1313,(19, 170),4	1317,(19, 173),2	1319,(19, 180),2	1321,(19, 195),34	1445,(17, 87),30	1495,(17, 141),28	1565,(15, 100),48	1725,(17, 154),56	1781,(17, 161),54	1835,(19, 120),28	1863,(19, 156),24	10381,(93, 201),2	10385,(1, 164),38	10525,(1, 196),30	15685,(15, 43),2	15687,(15, 58),2	15689,(15, 60),22	15711,(15, 126),14	15725,(15, 127),2	15727,(15, 164),2	15729,(15, 192),22	15751,(17, 46),10	15761,(17, 60),8	15769,(17, 71),8	15777,(17, 76),246	16023,(17, 90),4	16027,(17, 127),38	16065,(17, 130),14	16079,(17, 142),12	16145,(19, 32),94	16239,(19, 48),2	16241,(19, 71),10	16251,(19, 123),6	16257,(19, 126),6	16263,(19, 127),6	16269,(19, 151),10	16279,(19, 163),12	16291,(19, 183),32	16323,(19, 196),12	16403,(75, 201),2	16427,(26, 201),2	16431,(133, 201),2	16435,(64, 201),2	16439,(147, 201),2	16487,(185, 201),2	16517,(116, 201),2	16519,(155, 201),2	16525,(72, 201),2	16543,(29, 201),2	16557,(114, 201),2	16561,(117, 201),2	16567,(171, 201),2	16571,(182, 201),2	16573,(21, 201),2	16577,(37, 201),2	16581,(41, 201),2	16585,(55, 201),2	16591,(78, 201),2	16597,(85, 201),2	16603,(88, 201),2	16605,(96, 201),2	16611,(168, 201),2	16615,(176, 201),2	16619,(178, 201),2	16625,(52, 201),2	16631,(92, 201),2	16637,(101, 201),2	16643,(103, 201),2	16649,(122, 201),2	16655,(139, 201),2	16661,(144, 201),2	16667,(165, 201),2	16673,(166, 201),2	16679,(167, 201),2	
87,(2, 26),2	89,(2, 52),4	93,(2, 103),16	109,(2, 117),24	133,(2, 144),6	139,(2, 147),2	141,(2, 80),2	143,(2, 84),2	145,(2, 109),2	147,(2, 120),2	149,(2, 155),2	151,(2, 124),2	153,(2, 159),2	155,(2, 33),14	169,(2, 77),12	181,(2, 47),6	187,(2, 50),24	211,(2, 54),20	231,(2, 122),10	241,(2, 118),16	257,(2, 128),4	261,(2, 177),2	263,(4, 23),2	265,(4, 27),2	267,(4, 34),2	269,(4, 66),16	285,(4, 100),2	287,(4, 129),2	289,(2, 176),4	293,(4, 21),4	297,(4, 55),6	303,(4, 88),2	305,(4, 114),2	307,(2, 60),2	309,(2, 73),2	311,(2, 105),2	313,(2, 130),2	315,(2, 132),18	333,(4, 135),2	335,(7, 62),2	337,(2, 133),20	357,(4, 85),8	365,(4, 109),6	371,(4, 144),2	373,(7, 68),2	375,(2, 146),2	377,(7, 86),2	379,(4, 159),4	383,(7, 101),2	385,(2, 151),40	425,(4, 131),18	443,(4, 194),56	499,(7, 128),8	507,(7, 137),4	511,(7, 160),2	513,(4, 117),16	529,(4, 139),18	547,(4, 199),34	581,(7, 64),6	587,(7, 117),2	589,(7, 135),16	605,(7, 147),2	607,(7, 155),2	609,(7, 176),2	613,(7, 174),2	615,(7, 185),6	621,(7, 199),2	623,(12, 22),2	625,(12, 107),2	629,(4, 62),26	655,(4, 167),84	739,(4, 181),4	743,(4, 182),110	853,(7, 33),26	879,(7, 42),28	907,(7, 54),86	993,(7, 118),6	999,(7, 141),2	1001,(7, 156),18	1019,(7, 169),40	1059,(7, 190),10	1069,(7, 197),44	1113,(12, 27),4	1117,(12, 28),6	1123,(12, 37),2	1125,(12, 54),2	1127,(12, 72),4	1131,(12, 86),2	1133,(12, 100),2	1135,(12, 101),4	1139,(12, 139),2	1141,(12, 176),2	1143,(12, 178),14	1157,(12, 179),2	1167,(12, 42),12	1179,(12, 82),12	1191,(12, 84),8	1199,(12, 106),6	1205,(12, 103),40	1253,(12, 89),16	1269,(12, 95),16	1285,(12, 121),14	1299,(12, 137),4	1303,(12, 150),6	1309,(12, 172),6	10423,(2, 183),8	10431,(2, 184),4	10435,(2, 189),8	10499,(4, 56),4	10503,(4, 105),2	10581,(4, 152),2	10587,(4, 71),4	12263,(4, 73),18	12297,(4, 99),6	12401,(4, 47),32	12433,(4, 146),4	12437,(4, 151),60	12497,(4, 157),2	12499,(4, 162),6	12505,(4, 163),24	12529,(4, 186),2	12531,(7, 50),24	12555,(7, 132),10	12565,(7, 184),2	12567,(12, 32),2	12569,(12, 47),28	12597,(12, 48),2	12599,(12, 50),106	12705,(12, 59),12	12717,(12, 90),8	12803,(12, 130),8	12811,(12, 186),2	12823,(2, 192),1948	15437,(12, 76),36	15473,(12, 126),18	15491,(12, 145),4	15495,(12, 164),38	15533,(12, 183),12	15545,(12, 189),8	15553,(12, 192),2	16411,(111, 201),2	16413,(140, 201),2	16415,(44, 201),2	16447,(31, 201),2	16451,(38, 201),2	16455,(198, 201),2	16459,(45, 201),2	16465,(170, 201),2	16515,(53, 201),2	16521,(30, 201),2	16523,(61, 201),2	16529,(104, 201),2	16535,(119, 201),2	16541,(25, 201),2	16545,(36, 201),2	16549,(70, 201),2	16563,(158, 201),2	16575,(51, 201),2	16583,(81, 201),2	16589,(91, 201),2	16593,(98, 201),2	16599,(136, 201),2	16609,(173, 201),2	16613,(180, 201),2	16617,(188, 201),2	16623,(35, 201),2	16627,(69, 201),2	16633,(79, 201),2	16639,(102, 201),2	16645,(112, 201),2	16651,(115, 201),2	16657,(125, 201),2	16663,(134, 201),2	16669,(138, 201),2	16675,(195, 201),2	16681,(200, 201),2	
121,(3, 25),2	123,(3, 30),8	131,(3, 53),2	133,(3, 102),2	135,(3, 138),2	141,(3, 52),8	149,(3, 148),2	151,(3, 117),2	153,(3, 155),2	169,(3, 65),12	189,(3, 120),6	195,(3, 187),4	211,(3, 59),6	231,(3, 51),36	267,(3, 69),28	295,(3, 87),36	331,(13, 39),2	333,(3, 70),24	357,(13, 25),2	359,(13, 54),6	365,(13, 26),6	371,(13, 74),2	373,(13, 55),2	375,(13, 113),2	377,(3, 60),2	379,(3, 177),24	403,(13, 62),4	407,(13, 120),2	409,(13, 148),6	425,(3, 90),2	427,(3, 64),86	513,(13, 44),4	517,(13, 51),28	545,(13, 61),8	553,(13, 112),22	575,(13, 119),2	577,(3, 118),52	629,(3, 119),124	753,(13, 136),2	755,(13, 195),2	775,(13, 63),10	785,(13, 156),2	787,(13, 181),10	797,(18, 31),6	803,(18, 69),2	805,(18, 81),4	809,(13, 65),18	827,(13, 190),18	845,(18, 62),2	847,(18, 87),2	849,(18, 113),2	851,(20, 27),2	853,(13, 85),12	865,(13, 96),4	869,(13, 101),14	883,(13, 144),14	897,(13, 147),4	901,(13, 155),4	905,(13, 167),2	907,(13, 176),6	913,(13, 178),26	939,(18, 26),6	945,(18, 64),4	949,(18, 72),24	973,(18, 114),6	979,(18, 155),6	985,(18, 182),4	989,(18, 185),2	991,(20, 21),2	993,(20, 72),2	995,(20, 92),4	999,(20, 114),2	1001,(20, 133),4	1005,(20, 144),4	1009,(13, 198),26	1035,(13, 200),20	1055,(20, 65),2	1057,(20, 66),2	1059,(20, 78),20	1079,(20, 155),2	1081,(18, 98),2	1083,(18, 200),4	1087,(20, 96),20	1107,(20, 122),16	1127,(20, 118),2	1129,(20, 161),2	1135,(18, 28),10	1145,(18, 115),10	1155,(18, 134),12	1167,(18, 180),10	1177,(18, 198),14	1191,(20, 31),4	1195,(20, 35),8	1203,(20, 36),14	1217,(20, 38),2	1219,(20, 61),18	1237,(20, 81),2	1239,(20, 104),2	1241,(20, 198),2	1245,(20, 87),6	1251,(20, 178),28	1279,(20, 185),12	1355,(20, 79),12	1367,(20, 115),6	1373,(20, 119),32	1405,(20, 180),10	1419,(18, 148),10	1475,(20, 63),10	1485,(20, 181),2	1523,(18, 177),16	1613,(20, 94),10	1887,(20, 113),6	1893,(20, 129),6	10443,(3, 105),2	10445,(3, 189),2	10485,(3, 56),14	10511,(3, 126),10	10555,(3, 46),26	12215,(3, 142),8	12225,(3, 130),38	12305,(3, 132),96	14771,(3, 192),364	15555,(13, 105),10	15565,(13, 130),2	15567,(13, 142),20	15587,(13, 152),70	15657,(13, 196),28	16091,(18, 60),6	16097,(18, 123),22	16119,(18, 127),2	16121,(18, 151),2	16123,(18, 152),10	16133,(18, 164),8	16141,(18, 184),2	16143,(18, 189),2	16335,(20, 47),2	16337,(20, 48),2	16339,(20, 71),6	16345,(20, 90),2	16347,(20, 105),4	16351,(20, 152),4	16355,(20, 163),2	16357,(20, 164),22	16379,(20, 184),18	16397,(20, 192),4	16405,(23, 201),2	16409,(108, 201),2	16417,(191, 201),2	16419,(49, 201),2	16421,(110, 201),2	16423,(124, 201),2	16429,(153, 201),2	16461,(150, 201),2	16477,(121, 201),2	16527,(82, 201),2	16531,(107, 201),2	16533,(109, 201),2	16537,(131, 201),2	16539,(197, 201),2	16547,(42, 201),2	16551,(80, 201),2	16553,(84, 201),2	16555,(95, 201),2	16559,(128, 201),2	16565,(137, 201),2	16569,(174, 201),2	16579,(57, 201),2	16587,(89, 201),2	16595,(135, 201),2	16601,(149, 201),2	16607,(159, 201),2	16621,(22, 201),2	16629,(77, 201),2	16635,(97, 201),2	16641,(106, 201),2	16647,(143, 201),2	16653,(160, 201),2	16659,(169, 201),2	16665,(172, 201),2	16671,(194, 201),2	16677,(199, 201),2	
1,(0, 1),24	25,(0, 2),24	49,(0, 3),24	73,(0, 4),24	97,(0, 7),24	121,(0, 8),24	145,(0, 11),24	169,(0, 12),24	193,(0, 13),24	217,(0, 14),24	241,(0, 15),24	265,(0, 17),24	289,(0, 18),24	313,(0, 19),24	337,(0, 20),24	361,(6, 25),26	387,(6, 26),8	395,(6, 30),6	401,(6, 37),26	427,(6, 50),9954	10381,(6, 53),2	10383,(6, 56),2	10385,(6, 57),62	10447,(6, 58),28	10475,(6, 59),10	10485,(6, 70),2	10487,(6, 72),18	10505,(6, 73),6	10511,(6, 78),2	10513,(6, 91),2	10515,(6, 97),6	10521,(6, 105),4	10525,(6, 106),38	10563,(6, 114),12	10575,(6, 116),2	10577,(6, 122),2	10579,(6, 134),4	10583,(6, 142),4	10587,(6, 143),4	10591,(6, 145),378	10969,(6, 151),1222	12191,(6, 152),24	12215,(6, 155),8	12223,(6, 157),2	12225,(6, 178),6	12231,(6, 180),22	12253,(9, 22),20	12273,(9, 30),8	12281,(9, 32),16	12297,(9, 41),6	12303,(9, 46),2	12305,(9, 51),2	12307,(9, 55),8	12315,(9, 61),10	12325,(9, 69),62	12387,(9, 72),18	12405,(9, 77),2	12407,(9, 78),42	12449,(9, 79),2	12451,(9, 80),6	12457,(9, 82),16	12473,(9, 84),2	12475,(9, 85),12	12487,(9, 96),2	12489,(9, 104),14	12503,(9, 107),18	12521,(9, 109),2	12523,(9, 112),18	12541,(9, 115),4	12545,(9, 117),68	12613,(9, 119),26	12639,(9, 122),6	12645,(9, 125),22	12667,(9, 128),2	12669,(9, 131),14	12683,(9, 134),26	12709,(9, 136),6	12715,(9, 138),4	12719,(9, 143),2	12721,(9, 144),2	12723,(9, 149),2	12725,(9, 151),78	12803,(9, 159),10	12813,(9, 163),10	12823,(9, 171),2	12825,(9, 180),2	12827,(9, 197),6	12833,(9, 200),2	12835,(10, 25),2	12837,(10, 29),2	12839,(10, 36),36	12875,(10, 42),8	12883,(10, 51),2	12885,(10, 70),10	12895,(10, 77),42	12937,(10, 80),6	12943,(10, 81),8	12951,(10, 84),12	12963,(10, 92),22	12985,(10, 95),2	12987,(10, 101),2	12989,(10, 102),34	13023,(10, 103),2	13025,(10, 114),2	13027,(10, 115),4	13031,(10, 117),2	13033,(10, 128),22	13055,(10, 136),8	13063,(10, 137),2	13065,(10, 144),2	13067,(10, 158),2	13069,(10, 165),20	13089,(10, 171),2	13091,(10, 174),10	13101,(10, 182),4	13105,(10, 200),38	13143,(16, 21),10	13153,(16, 37),4	13157,(16, 41),2	13159,(16, 51),42	13201,(16, 55),10	13211,(16, 57),34	13245,(16, 69),2	13247,(16, 78),2	13249,(16, 81),12	13261,(16, 85),2	13263,(16, 88),6	13269,(16, 89),26	13295,(16, 91),4	13299,(16, 96),2	13301,(16, 98),54	13355,(16, 135),4	13359,(16, 136),2	13361,(16, 138),8	13369,(16, 139),2	13371,(16, 149),6	13377,(16, 159),74	13451,(16, 160),12	13463,(16, 168),2	13465,(16, 173),2	13467,(16, 176),2	13469,(16, 178),6	13475,(16, 180),4	13479,(16, 188),2	13481,(16, 194),2	13483,(16, 195),56	13539,(16, 200),12	13551,(5, 22),66	13617,(5, 35),4	13621,(5, 52),22	13643,(5, 69),2	13645,(5, 77),18	13663,(5, 79),12	13675,(5, 92),16	13691,(5, 97),4	13695,(5, 101),12	13707,(5, 102),16	13723,(5, 103),2	13725,(5, 106),2	13727,(5, 112),2	13729,(5, 115),2	13731,(5, 122),2	13733,(5, 125),8	13741,(5, 134),2	13743,(5, 138),4	13747,(5, 139),2	13749,(5, 143),2	13751,(5, 144),8	13759,(5, 160),6	13765,(5, 165),14	13779,(5, 166),4	13783,(5, 167),6	13789,(5, 169),8	13797,(5, 172),2	13799,(5, 194),4	13803,(5, 195),2	13805,(5, 199),16	13821,(5, 200),2	15135,(10, 43),2	15137,(10, 48),2	15139,(10, 56),2	15141,(10, 58),2	15143,(10, 83),2	15145,(10, 105),6	15151,(10, 130),4	15155,(10, 142),2	15157,(10, 146),2	15159,(10, 162),2	15161,(10, 164),78	15239,(10, 184),2	15241,(16, 46),4	15245,(16, 47),2	15247,(16, 48),2	15249,(16, 50),2	15251,(16, 90),2	15253,(16, 126),8	15261,(16, 142),18	15279,(16, 152),14	15293,(16, 157),2	15295,(16, 162),2	15297,(16, 163),4	15301,(5, 58),38	15339,(5, 99),2	15341,(5, 105),20	15361,(5, 145),10	15371,(5, 146),2	15373,(5, 151),44	15417,(5, 162),2	15419,(5, 184),16	15435,(67, 201),2	16401,(74, 201),2	16407,(68, 201),2	16425,(33, 201),2	16433,(34, 201),2	16437,(187, 201),2	16441,(65, 201),2	16443,(66, 201),2	16445,(40, 201),2	16449,(27, 201),2	16453,(54, 201),2	16457,(118, 201),2	16463,(86, 201),2	16467,(28, 201),2	16469,(39, 201),2	16471,(179, 201),2	16473,(62, 201),2	16475,(190, 201),2	16479,(148, 201),2	16481,(24, 201),2	16483,(87, 201),2	16485,(63, 201),2	16489,(181, 201),2	16491,(141, 201),2	16493,(100, 201),2	16495,(94, 201),2	16497,(175, 201),2	16499,(177, 201),2	16501,(193, 201),2	16503,(154, 201),2	16505,(161, 201),2	16507,(120, 201),2	16509,(156, 201),2	16511,(113, 201),2	16513,(129, 201),2	
