1523
# CPU
0,121,1	1,67,13	14,76,13	27,98,13	40,42,13	53,113,13	66,81,13	79,93,13	92,33,13	105,46,13	118,118,13	131,116,13	144,99,13	157,20,13	170,61,13	183,53,13	196,54,13	209,109,13	222,79,13	235,58,13	248,24,13	261,108,13	274,112,13	287,27,13	300,104,13	313,84,13	326,68,13	339,64,13	352,13,13	365,119,13	378,88,13	391,16,13	404,45,13	417,55,13	430,90,13	443,38,13	456,19,13	469,21,13	482,73,13	495,34,13	508,51,13	521,49,13	534,65,13	547,30,13	560,83,13	573,74,13	586,85,13	599,22,13	612,97,13	625,44,13	638,105,13	651,56,13	664,94,13	677,25,13	690,91,13	703,41,13	716,72,13	729,115,13	742,86,13	755,66,13	768,47,13	781,110,13	794,96,13	807,23,13	820,31,13	833,43,13	846,106,13	859,35,13	872,52,13	885,114,13	898,18,13	911,89,13	924,77,13	937,60,13	950,59,13	963,75,13	976,63,13	989,57,13	1002,120,13	1015,29,13	1028,111,13	1041,36,13	1054,37,13	1067,101,13	1080,95,13	1093,70,13	1106,17,13	1119,39,13	1132,71,13	1145,92,13	1158,62,13	1171,107,13	1184,80,13	1197,40,13	1210,7,13	1223,103,13	1236,87,13	1249,5,13	1262,14,13	1275,28,13	1288,82,13	1301,100,13	1314,50,13	1327,69,13	1340,4,13	1353,117,13	1366,15,13	1379,10,13	1392,12,13	1405,26,13	1418,3,13	1431,6,13	1444,78,13	1457,48,13	1470,1,13	1483,11,13	1496,2,13	1509,8,13	1522,0,1	
511,32,13	1021,102,13	1429,9,13	
# Incoming
524,(32, 1),2	526,(32, 11),10	1034,(102, 11),2	1036,(102, 2),20	1056,(102, 8),42	1442,(9, 0),2	
1,(121, 32),510	511,(121, 102),510	1021,(113, 9),2	1023,(24, 9),4	1027,(112, 9),4	1031,(27, 9),2	1033,(84, 9),6	1039,(45, 9),8	1047,(51, 9),10	1057,(85, 9),14	1071,(97, 9),14	1085,(91, 9),18	1103,(41, 9),20	1123,(60, 9),36	1159,(71, 9),12	1327,(50, 9),102	
# Outgoing
1,(121, 32),510	511,(121, 102),510	1021,(113, 9),2	1023,(24, 9),4	1027,(112, 9),4	1031,(27, 9),2	1033,(84, 9),6	1039,(45, 9),8	1047,(51, 9),10	1057,(85, 9),14	1071,(97, 9),14	1085,(91, 9),18	1103,(41, 9),20	1123,(60, 9),36	1159,(71, 9),12	1327,(50, 9),102	
524,(32, 1),2	526,(32, 11),10	1034,(102, 11),2	1036,(102, 2),20	1056,(102, 8),42	1442,(9, 0),2	
