142
# CPU
0,0,1	1,1,7	8,2,7	15,5,7	22,14,7	29,17,7	36,4,7	43,11,7	50,8,7	57,3,7	64,16,7	71,20,7	78,12,7	85,15,7	92,9,7	99,19,7	106,13,7	113,6,7	120,18,7	127,10,7	134,7,7	141,21,1	
# Incoming

# Outgoing

