2888
# CPU
0,0,1	1,5,5	6,17,5	11,188,5	16,183,5	21,13,5	26,112,5	31,139,5	36,12,5	41,171,5	46,19,5	51,72,5	56,20,5	61,73,5	66,197,5	71,16,5	76,39,5	81,110,5	86,125,5	91,101,5	96,1,5	101,42,5	106,79,5	111,52,5	116,8,5	121,103,5	126,57,5	131,92,5	136,121,5	141,9,5	146,54,5	151,200,5	156,153,5	161,198,5	166,3,5	171,21,5	176,114,5	181,51,5	186,10,5	191,38,5	196,187,5	201,159,5	206,127,5	211,152,5	216,199,5	221,15,5	226,123,5	231,62,5	236,60,5	241,24,5	246,64,5	251,80,5	256,50,5	261,14,5	266,161,5	271,144,5	276,130,5	281,154,5	286,120,5	291,58,5	296,4,5	301,122,5	306,82,5	311,97,5	316,104,5	321,179,5	326,185,5	331,43,5	336,36,5	341,93,5	346,129,5	351,136,5	356,178,5	361,88,5	366,172,5	371,76,5	376,116,5	381,46,5	386,34,5	391,11,5	396,186,5	401,96,5	406,94,5	411,29,5	416,190,5	421,191,5	426,147,5	431,148,5	436,102,5	441,131,5	446,49,5	451,196,5	456,108,5	461,126,5	466,180,5	471,2,5	476,164,5	481,55,5	486,95,5	491,83,5	496,23,5	501,31,5	506,53,5	511,137,5	516,192,5	521,98,5	526,78,5	531,47,5	536,133,5	541,22,5	546,106,5	551,48,5	556,99,5	561,40,5	566,194,5	571,124,5	576,68,5	581,173,5	586,162,5	591,119,5	596,117,5	601,166,5	606,184,5	611,77,5	616,63,5	621,146,5	626,165,5	631,115,5	636,111,5	641,70,5	646,89,5	651,181,5	656,33,5	661,195,5	666,158,5	671,90,5	676,128,5	681,86,5	686,151,5	691,59,5	696,189,5	703,41,5	731,107,5	759,30,5	791,26,5	823,28,5	859,37,5	907,84,5	955,56,5	1003,87,5	1055,160,5	1111,150,5	1171,170,5	1235,35,5	1303,135,5	1371,65,5	1447,177,5	1591,156,5	1807,74,5	2127,134,5	2887,201,1	
30,45,5	74,6,5	102,193,5	125,149,5	150,163,5	194,168,5	238,18,5	243,142,5	250,140,5	270,67,5	302,81,5	334,71,5	378,7,5	383,175,5	388,61,5	393,143,5	398,182,5	403,25,5	408,109,5	420,157,5	432,66,5	448,155,5	472,169,5	480,145,5	504,118,5	528,75,5	552,132,5	580,44,5	616,113,5	660,138,5	716,176,5	776,91,5	844,105,5	920,167,5	1020,141,5	1128,69,5	1248,100,5	1404,27,5	1560,85,5	1732,32,5	1928,174,5	
# Incoming
383,(7, 124),4	387,(7, 68),4	391,(6, 173),4	395,(6, 162),4	399,(18, 119),4	403,(6, 117),4	407,(18, 166),4	411,(7, 184),4	415,(7, 77),4	419,(6, 63),4	423,(7, 146),8	431,(7, 165),8	439,(18, 115),8	447,(7, 111),12	459,(6, 70),12	471,(6, 89),12	483,(7, 181),16	499,(7, 33),16	515,(6, 195),16	531,(6, 158),20	551,(7, 90),20	571,(6, 128),20	591,(18, 86),20	611,(7, 151),20	631,(18, 59),20	651,(7, 189),24	675,(6, 41),28	703,(6, 107),28	731,(6, 30),28	759,(6, 26),16	775,(18, 26),16	791,(7, 28),32	823,(18, 37),36	859,(7, 84),48	907,(6, 56),48	955,(18, 87),32	987,(7, 87),16	1003,(7, 160),52	1055,(6, 150),56	1111,(6, 170),60	1171,(18, 35),12	1183,(7, 35),52	1235,(6, 135),24	1259,(18, 135),20	1279,(7, 135),24	1303,(6, 65),68	1371,(7, 177),76	1447,(6, 156),144	1591,(7, 74),216	1807,(7, 134),320	2127,(45, 201),20	2147,(193, 201),20	2167,(149, 201),20	2187,(163, 201),20	2207,(168, 201),20	2227,(142, 201),20	2247,(140, 201),20	2267,(67, 201),20	2287,(81, 201),20	2307,(71, 201),20	2327,(175, 201),20	2347,(61, 201),20	2367,(143, 201),20	2387,(182, 201),20	2407,(25, 201),20	2427,(109, 201),20	2447,(157, 201),20	2467,(66, 201),20	2487,(155, 201),20	2507,(169, 201),20	2527,(145, 201),20	2547,(118, 201),20	2567,(75, 201),20	2587,(132, 201),20	2607,(44, 201),20	2627,(113, 201),20	2647,(138, 201),20	2667,(176, 201),20	2687,(91, 201),20	2707,(105, 201),20	2727,(167, 201),20	2747,(141, 201),20	2767,(69, 201),20	2787,(100, 201),20	2807,(27, 201),20	2827,(85, 201),20	2847,(32, 201),20	2867,(174, 201),20	
6,(5, 45),4	10,(5, 193),8	18,(5, 149),4	22,(17, 149),4	26,(13, 45),4	30,(0, 6),44	74,(20, 193),28	102,(13, 149),16	121,(8, 149),4	125,(8, 163),12	137,(19, 142),8	146,(9, 163),4	150,(17, 168),44	194,(0, 18),44	238,(19, 140),12	250,(15, 67),20	270,(8, 81),32	302,(16, 71),32	334,(0, 7),44	378,(19, 182),8	386,(1, 25),4	390,(9, 109),4	396,(11, 25),4	400,(16, 109),8	408,(16, 157),12	420,(16, 66),4	424,(9, 66),8	432,(17, 155),4	436,(14, 155),12	448,(16, 169),4	452,(9, 169),16	468,(10, 169),4	472,(4, 145),4	476,(2, 145),4	480,(16, 118),20	500,(2, 118),4	504,(17, 75),8	512,(13, 75),4	516,(8, 75),4	520,(4, 75),4	524,(2, 75),4	528,(9, 132),20	548,(2, 132),4	552,(4, 44),28	580,(5, 113),8	588,(9, 113),8	596,(14, 113),4	600,(4, 113),4	604,(11, 113),12	616,(5, 138),4	620,(9, 138),8	628,(4, 138),24	652,(11, 138),8	660,(1, 176),24	684,(9, 176),32	716,(10, 91),4	720,(4, 91),56	776,(20, 105),4	780,(1, 105),20	800,(8, 105),8	808,(14, 105),36	844,(20, 167),76	920,(17, 141),16	936,(9, 141),76	1012,(3, 141),4	1016,(4, 141),4	1020,(17, 69),8	1028,(15, 69),100	1128,(12, 100),36	1164,(20, 100),4	1168,(16, 100),12	1180,(8, 100),56	1236,(3, 100),4	1240,(14, 100),8	1248,(17, 27),36	1284,(16, 27),4	1288,(8, 27),72	1360,(9, 27),8	1368,(3, 27),16	1384,(4, 27),20	1404,(5, 85),4	1408,(20, 85),12	1420,(16, 85),108	1528,(15, 85),20	1548,(4, 85),12	1560,(5, 32),16	1576,(13, 32),28	1604,(19, 32),112	1716,(15, 32),16	1732,(13, 174),4	1736,(12, 174),20	1756,(1, 174),4	1760,(3, 174),20	1780,(2, 174),148	
# Outgoing
6,(5, 45),4	10,(5, 193),8	18,(5, 149),4	22,(17, 149),4	26,(13, 45),4	30,(0, 6),44	74,(20, 193),28	102,(13, 149),16	121,(8, 149),4	125,(8, 163),12	137,(19, 142),8	146,(9, 163),4	150,(17, 168),44	194,(0, 18),44	238,(19, 140),12	250,(15, 67),20	270,(8, 81),32	302,(16, 71),32	334,(0, 7),44	378,(19, 182),8	386,(1, 25),4	390,(9, 109),4	396,(11, 25),4	400,(16, 109),8	408,(16, 157),12	420,(16, 66),4	424,(9, 66),8	432,(17, 155),4	436,(14, 155),12	448,(16, 169),4	452,(9, 169),16	468,(10, 169),4	472,(4, 145),4	476,(2, 145),4	480,(16, 118),20	500,(2, 118),4	504,(17, 75),8	512,(13, 75),4	516,(8, 75),4	520,(4, 75),4	524,(2, 75),4	528,(9, 132),20	548,(2, 132),4	552,(4, 44),28	580,(5, 113),8	588,(9, 113),8	596,(14, 113),4	600,(4, 113),4	604,(11, 113),12	616,(5, 138),4	620,(9, 138),8	628,(4, 138),24	652,(11, 138),8	660,(1, 176),24	684,(9, 176),32	716,(10, 91),4	720,(4, 91),56	776,(20, 105),4	780,(1, 105),20	800,(8, 105),8	808,(14, 105),36	844,(20, 167),76	920,(17, 141),16	936,(9, 141),76	1012,(3, 141),4	1016,(4, 141),4	1020,(17, 69),8	1028,(15, 69),100	1128,(12, 100),36	1164,(20, 100),4	1168,(16, 100),12	1180,(8, 100),56	1236,(3, 100),4	1240,(14, 100),8	1248,(17, 27),36	1284,(16, 27),4	1288,(8, 27),72	1360,(9, 27),8	1368,(3, 27),16	1384,(4, 27),20	1404,(5, 85),4	1408,(20, 85),12	1420,(16, 85),108	1528,(15, 85),20	1548,(4, 85),12	1560,(5, 32),16	1576,(13, 32),28	1604,(19, 32),112	1716,(15, 32),16	1732,(13, 174),4	1736,(12, 174),20	1756,(1, 174),4	1760,(3, 174),20	1780,(2, 174),148	
383,(7, 124),4	387,(7, 68),4	391,(6, 173),4	395,(6, 162),4	399,(18, 119),4	403,(6, 117),4	407,(18, 166),4	411,(7, 184),4	415,(7, 77),4	419,(6, 63),4	423,(7, 146),8	431,(7, 165),8	439,(18, 115),8	447,(7, 111),12	459,(6, 70),12	471,(6, 89),12	483,(7, 181),16	499,(7, 33),16	515,(6, 195),16	531,(6, 158),20	551,(7, 90),20	571,(6, 128),20	591,(18, 86),20	611,(7, 151),20	631,(18, 59),20	651,(7, 189),24	675,(6, 41),28	703,(6, 107),28	731,(6, 30),28	759,(6, 26),16	775,(18, 26),16	791,(7, 28),32	823,(18, 37),36	859,(7, 84),48	907,(6, 56),48	955,(18, 87),32	987,(7, 87),16	1003,(7, 160),52	1055,(6, 150),56	1111,(6, 170),60	1171,(18, 35),12	1183,(7, 35),52	1235,(6, 135),24	1259,(18, 135),20	1279,(7, 135),24	1303,(6, 65),68	1371,(7, 177),76	1447,(6, 156),144	1591,(7, 74),216	1807,(7, 134),320	2127,(45, 201),20	2147,(193, 201),20	2167,(149, 201),20	2187,(163, 201),20	2207,(168, 201),20	2227,(142, 201),20	2247,(140, 201),20	2267,(67, 201),20	2287,(81, 201),20	2307,(71, 201),20	2327,(175, 201),20	2347,(61, 201),20	2367,(143, 201),20	2387,(182, 201),20	2407,(25, 201),20	2427,(109, 201),20	2447,(157, 201),20	2467,(66, 201),20	2487,(155, 201),20	2507,(169, 201),20	2527,(145, 201),20	2547,(118, 201),20	2567,(75, 201),20	2587,(132, 201),20	2607,(44, 201),20	2627,(113, 201),20	2647,(138, 201),20	2667,(176, 201),20	2687,(91, 201),20	2707,(105, 201),20	2727,(167, 201),20	2747,(141, 201),20	2767,(69, 201),20	2787,(100, 201),20	2807,(27, 201),20	2827,(85, 201),20	2847,(32, 201),20	2867,(174, 201),20	
