268
# CPU
0,0,1	1,8,14	15,40,14	29,15,14	43,20,14	57,5,14	71,42,14	85,34,14	99,23,14	113,36,14	127,60,14	141,4,14	155,71,14	169,65,14	183,49,14	197,39,14	211,26,14	225,64,14	239,80,14	
18,75,14	42,6,14	56,16,14	70,44,14	84,69,14	98,18,14	112,19,14	126,3,14	140,21,14	154,58,14	168,41,14	182,50,14	196,62,14	210,59,14	224,72,14	238,70,14	
20,79,14	57,7,14	71,30,14	85,52,14	99,47,14	113,9,14	127,61,14	141,37,14	155,67,14	169,66,14	183,76,14	197,53,14	211,74,14	225,14,14	239,43,14	
27,77,14	60,32,14	74,17,14	88,33,14	102,12,14	116,57,14	130,1,14	144,28,14	158,27,14	172,46,14	186,13,14	200,22,14	214,73,14	228,48,14	242,51,14	
16,45,14	57,35,14	71,56,14	85,31,14	99,38,14	113,63,14	127,2,14	141,54,14	155,24,14	169,11,14	183,10,14	197,68,14	211,29,14	225,55,14	239,25,14	253,78,14	267,81,1	
# Incoming

16,(8, 75),2	27,(0, 6),15	80,(0, 3),15	141,(2, 70),24	
18,(8, 79),2	42,(0, 7),15	140,(3, 37),1	141,(3, 67),1	142,(3, 53),5	147,(1, 74),6	155,(4, 66),2	157,(4, 76),3	160,(1, 14),15	175,(1, 43),29	
20,(8, 77),7	57,(6, 32),3	71,(5, 17),1	72,(7, 33),1	74,(7, 12),2	76,(7, 57),10	110,(0, 1),15	
15,(8, 45),1	56,(6, 35),1	57,(40, 81),1	58,(15, 81),1	59,(20, 81),1	60,(6, 56),5	65,(75, 81),1	70,(16, 81),1	71,(7, 31),1	73,(7, 38),1	74,(5, 63),6	84,(44, 81),1	86,(79, 81),1	87,(30, 81),1	95,(0, 2),15	110,(69, 81),1	111,(52, 81),1	112,(18, 81),1	113,(47, 81),1	125,(42, 81),1	126,(34, 81),1	127,(23, 81),1	128,(19, 81),1	129,(9, 81),1	130,(36, 81),1	141,(60, 81),1	142,(61, 81),1	153,(77, 81),1	154,(32, 81),1	155,(17, 81),1	156,(33, 81),1	157,(12, 81),1	158,(57, 81),1	159,(21, 81),1	160,(37, 81),1	168,(58, 81),1	169,(71, 81),1	170,(67, 81),1	182,(41, 81),1	183,(65, 81),1	184,(66, 81),1	196,(50, 81),1	197,(49, 81),1	198,(76, 81),1	204,(28, 81),1	205,(27, 81),1	206,(46, 81),1	207,(13, 81),1	210,(62, 81),1	211,(39, 81),1	212,(53, 81),1	214,(22, 81),1	224,(59, 81),1	225,(26, 81),1	226,(74, 81),1	228,(73, 81),1	238,(72, 81),1	239,(64, 81),1	240,(14, 81),1	242,(48, 81),1	252,(70, 81),1	253,(80, 81),1	254,(43, 81),1	256,(51, 81),1	
# Outgoing
15,(8, 45),1	16,(8, 75),2	18,(8, 79),2	20,(8, 77),7	27,(0, 6),15	42,(0, 7),15	57,(40, 81),1	58,(15, 81),1	59,(20, 81),1	71,(5, 17),1	74,(5, 63),6	80,(0, 3),15	95,(0, 2),15	110,(0, 1),15	125,(42, 81),1	126,(34, 81),1	127,(23, 81),1	130,(36, 81),1	141,(60, 81),1	155,(4, 66),2	157,(4, 76),3	169,(71, 81),1	183,(65, 81),1	197,(49, 81),1	211,(39, 81),1	225,(26, 81),1	239,(64, 81),1	253,(80, 81),1	
56,(6, 35),1	57,(6, 32),3	60,(6, 56),5	65,(75, 81),1	70,(16, 81),1	84,(44, 81),1	110,(69, 81),1	112,(18, 81),1	128,(19, 81),1	140,(3, 37),1	141,(3, 67),1	142,(3, 53),5	159,(21, 81),1	168,(58, 81),1	182,(41, 81),1	196,(50, 81),1	210,(62, 81),1	224,(59, 81),1	238,(72, 81),1	252,(70, 81),1	
71,(7, 31),1	72,(7, 33),1	73,(7, 38),1	74,(7, 12),2	76,(7, 57),10	86,(79, 81),1	87,(30, 81),1	111,(52, 81),1	113,(47, 81),1	129,(9, 81),1	142,(61, 81),1	160,(37, 81),1	170,(67, 81),1	184,(66, 81),1	198,(76, 81),1	212,(53, 81),1	226,(74, 81),1	240,(14, 81),1	254,(43, 81),1	
147,(1, 74),6	153,(77, 81),1	154,(32, 81),1	155,(17, 81),1	156,(33, 81),1	157,(12, 81),1	158,(57, 81),1	160,(1, 14),15	175,(1, 43),29	204,(28, 81),1	205,(27, 81),1	206,(46, 81),1	207,(13, 81),1	214,(22, 81),1	228,(73, 81),1	242,(48, 81),1	256,(51, 81),1	
141,(2, 70),24	
