4991
# CPU
45,3,5	50,21,5	59,31,5	89,6,5	133,9,5	138,54,5	143,200,5	177,12,5	182,83,5	221,15,5	226,80,5	265,18,5	297,164,5	685,143,5	939,146,5	1415,26,5	1773,34,5	1783,33,5	1788,48,5	1799,44,5	1807,68,5	1813,56,5	1831,155,5	1839,113,5	1857,122,5	1881,119,5	1886,161,5	1985,179,5	2001,42,5	2009,141,5	2049,52,5	2125,135,5	2137,176,5	2237,185,5	2401,194,5	2431,30,5	2563,46,5	2689,62,5	2733,71,5	2879,92,5	2887,95,5	2911,101,5	2919,104,5	2924,110,5	2929,125,5	2975,188,5	3013,167,5	3023,131,5	3137,38,5	3317,116,5	3322,137,5	3347,152,5	3359,158,5	4283,59,5	4289,39,5	4294,86,5	4299,98,5	4391,107,5	4396,173,5	4401,182,5	4406,197,5	4411,24,5	4491,35,5	4513,36,5	4605,40,5	4615,50,5	4641,74,5	4646,77,5	4651,89,5	4715,128,5	4773,139,5	4781,149,5	4801,170,5	4806,191,5	4975,65,5	
23,2,5	67,5,5	111,8,5	116,192,5	121,55,5	133,114,5	155,11,5	160,186,5	199,14,5	243,17,5	248,183,5	263,168,5	287,20,5	341,198,5	1307,90,5	1393,96,5	1417,132,5	1427,144,5	1463,147,5	1469,153,5	1679,23,5	1695,57,5	1775,171,5	1835,47,5	1840,111,5	1849,120,5	1993,117,5	1999,25,5	2097,93,5	2113,81,5	2121,162,5	2235,177,5	2275,129,5	2341,69,5	2409,87,5	2563,105,5	2568,49,5	2657,60,5	2671,138,5	2717,66,5	2757,84,5	2899,195,5	2923,123,5	3021,126,5	3026,136,5	3165,41,5	3211,99,5	3321,150,5	3351,156,5	3361,159,5	3366,189,5	3389,29,5	3505,63,5	3510,72,5	3585,108,5	3591,140,5	3596,142,5	3601,180,5	3621,43,5	3626,45,5	3685,51,5	3690,53,5	3695,75,5	3700,78,5	3735,102,5	3763,165,5	3768,174,5	4047,32,5	
0,0,1	1,7,5	6,4,5	11,1,5	16,16,5	21,10,5	26,19,5	31,13,5	36,61,5	41,175,5	46,79,5	51,157,5	56,91,5	61,151,5	66,134,5	71,112,5	76,145,5	81,22,5	293,109,5	298,160,5	563,169,5	568,97,5	639,103,5	675,163,5	805,76,5	947,115,5	1209,28,5	1253,70,5	1269,124,5	1301,184,5	1331,196,5	1347,154,5	1352,181,5	1357,82,5	1362,73,5	1387,166,5	1393,94,5	1431,130,5	1457,88,5	1465,172,5	1667,199,5	1753,58,5	1801,190,5	1829,67,5	1851,193,5	1913,85,5	2001,106,5	2061,118,5	2123,187,5	2165,27,5	2361,37,5	2393,64,5	2497,100,5	2535,121,5	2683,127,5	2715,133,5	2753,148,5	2805,178,5	4990,201,1	
# Incoming
23,(0, 3),22	45,(2, 31),14	59,(2, 40),8	67,(0, 6),22	89,(2, 77),4	93,(2, 83),10	103,(2, 95),6	111,(0, 9),22	133,(2, 98),20	155,(0, 12),22	177,(2, 137),14	191,(2, 164),4	195,(2, 194),2	197,(5, 34),2	199,(0, 15),22	221,(5, 30),10	231,(5, 65),2	233,(5, 74),2	235,(5, 113),4	239,(5, 116),2	243,(0, 18),22	265,(5, 52),28	293,(5, 149),2	295,(5, 164),2	297,(7, 33),8	305,(7, 35),26	331,(7, 44),10	343,(7, 68),2	345,(7, 74),108	453,(7, 77),2	455,(2, 48),44	499,(5, 40),44	543,(5, 146),16	559,(8, 26),6	583,(7, 135),12	595,(7, 143),90	685,(7, 146),4	689,(7, 155),2	691,(8, 56),68	759,(8, 74),172	931,(8, 92),4	935,(8, 116),2	937,(8, 146),2	939,(8, 149),2	941,(8, 170),6	1079,(11, 40),4	1083,(11, 68),2	1085,(11, 113),6	1091,(11, 119),2	1093,(11, 191),2	1095,(14, 34),2	1097,(14, 113),2	1191,(7, 176),162	1353,(11, 128),28	1381,(11, 131),8	1389,(14, 194),2	1391,(7, 182),4	1395,(14, 30),10	1405,(17, 46),2	1407,(4, 26),8	1415,(4, 34),358	1773,(4, 36),2	1775,(14, 33),8	1783,(17, 48),2	1785,(4, 44),14	1799,(4, 46),6	1805,(17, 68),2	1807,(4, 56),6	1813,(17, 149),2	1815,(4, 86),2	1817,(14, 65),6	1823,(14, 155),6	1829,(17, 155),2	1831,(4, 104),4	1835,(20, 38),2	1837,(4, 113),2	1839,(4, 116),14	1853,(20, 40),2	1855,(4, 122),2	1857,(14, 119),24	1881,(14, 161),4	1885,(17, 30),6	1891,(4, 141),2	1893,(11, 77),52	1945,(17, 92),18	1969,(4, 173),6	1975,(4, 179),10	1985,(4, 185),12	1999,(1, 42),2	2001,(17, 141),8	2009,(17, 173),10	2019,(20, 50),4	2023,(1, 50),22	2045,(20, 104),2	2047,(1, 52),2	2049,(14, 191),32	2107,(1, 107),6	2121,(1, 170),2	2123,(20, 135),2	2125,(1, 176),12	2137,(11, 89),66	2235,(1, 185),2	2237,(1, 191),2	2239,(1, 194),162	2401,(16, 30),4	2405,(16, 35),4	2409,(16, 39),2	2411,(20, 30),20	2435,(16, 46),128	2563,(17, 65),88	2657,(16, 62),32	2711,(16, 65),4	2717,(16, 71),16	2757,(16, 86),90	2847,(16, 89),6	2853,(16, 92),26	2879,(16, 95),8	2887,(16, 101),24	2911,(16, 104),8	2919,(16, 110),2	2923,(16, 125),6	2929,(17, 188),46	2975,(20, 167),38	3021,(16, 131),2	3025,(16, 158),28	3053,(20, 191),14	3073,(10, 24),36	3109,(10, 38),28	3137,(10, 40),6	3143,(20, 197),12	3165,(10, 77),28	3199,(10, 89),2	3211,(10, 116),106	3317,(10, 137),2	3321,(10, 152),26	3351,(10, 158),8	3359,(2, 59),924	4283,(19, 24),2	4285,(19, 39),4	4289,(19, 65),2	4291,(19, 86),2	4293,(19, 98),2	4295,(19, 107),96	4391,(19, 173),4	4395,(19, 182),4	4399,(19, 197),4	4403,(13, 24),2	4405,(13, 35),86	4491,(13, 36),22	4513,(13, 40),92	4605,(13, 50),10	4615,(13, 74),26	4641,(13, 77),4	4645,(13, 89),2	4647,(13, 128),68	4715,(13, 139),58	4773,(13, 149),8	4781,(13, 170),20	4801,(13, 191),2	4803,(11, 65),172	
1,(0, 2),22	45,(0, 5),22	67,(3, 43),6	73,(3, 47),4	77,(3, 51),8	89,(0, 8),22	111,(3, 55),8	119,(3, 114),14	133,(0, 11),22	155,(3, 174),10	165,(6, 63),2	167,(6, 117),2	169,(6, 162),2	177,(0, 14),22	211,(9, 43),4	221,(0, 17),22	243,(6, 41),14	257,(6, 168),6	263,(9, 123),2	265,(0, 20),22	287,(7, 25),10	297,(3, 120),30	327,(6, 195),8	335,(9, 66),4	339,(9, 198),2	341,(7, 66),2	343,(6, 25),28	371,(6, 69),26	397,(6, 150),28	455,(7, 84),24	479,(7, 87),8	487,(7, 90),10	497,(7, 111),6	503,(7, 132),80	583,(6, 75),70	653,(9, 60),26	679,(9, 138),4	683,(12, 47),2	691,(7, 165),4	695,(7, 174),496	1191,(6, 156),72	1263,(9, 90),44	1307,(9, 99),10	1317,(9, 102),34	1351,(12, 72),2	1353,(7, 177),38	1391,(12, 96),2	1395,(7, 189),12	1407,(9, 132),10	1417,(9, 144),10	1427,(9, 147),36	1463,(9, 153),6	1667,(12, 23),12	1679,(12, 57),16	1753,(12, 78),20	1773,(12, 171),2	1775,(4, 43),10	1785,(12, 87),16	1805,(4, 49),2	1813,(4, 75),2	1817,(4, 93),14	1831,(15, 47),4	1835,(4, 111),2	1837,(12, 120),12	1849,(15, 60),2	1853,(4, 117),2	1857,(4, 129),8	1865,(4, 136),14	1879,(4, 138),12	1893,(4, 150),2	1895,(4, 156),72	1967,(4, 162),2	1969,(12, 117),24	1993,(15, 102),4	1997,(1, 25),2	1999,(15, 150),2	2001,(1, 43),22	2023,(12, 174),10	2033,(15, 32),8	2041,(15, 162),2	2043,(18, 69),2	2045,(1, 51),2	2049,(1, 60),34	2083,(1, 84),12	2095,(1, 93),2	2097,(1, 105),10	2107,(18, 81),6	2113,(1, 129),2	2115,(1, 162),6	2123,(1, 174),2	2137,(1, 177),98	2235,(12, 129),40	2275,(15, 49),16	2291,(15, 69),50	2341,(15, 123),16	2357,(18, 66),36	2393,(18, 87),16	2411,(16, 41),24	2435,(18, 75),22	2497,(18, 105),66	2563,(16, 49),2	2565,(16, 51),90	2655,(16, 60),2	2657,(18, 138),14	2671,(18, 140),16	2689,(16, 63),22	2715,(16, 66),2	2733,(16, 84),24	2757,(15, 195),142	2899,(18, 142),18	2921,(16, 123),2	2929,(16, 126),92	3023,(16, 136),2	3053,(16, 189),20	3143,(10, 41),22	3193,(10, 78),6	3201,(10, 99),10	3319,(10, 150),2	3347,(10, 156),4	3359,(10, 159),2	3361,(10, 189),2	3363,(19, 29),26	3389,(19, 32),56	3445,(19, 53),2	3447,(19, 63),58	3505,(19, 72),2	3507,(19, 108),78	3585,(19, 140),6	3591,(19, 142),4	3595,(19, 180),2	3597,(13, 32),14	3611,(13, 43),10	3621,(13, 45),2	3623,(13, 51),62	3685,(13, 53),2	3687,(13, 75),2	3689,(13, 78),2	3691,(13, 102),44	3735,(13, 165),28	3763,(13, 174),2	3765,(18, 32),282	
28,(2, 22),6	34,(2, 118),2	36,(2, 133),6	42,(2, 145),2	50,(3, 22),6	56,(3, 27),8	64,(3, 100),2	67,(2, 70),12	79,(2, 160),6	85,(3, 58),24	109,(2, 106),12	121,(5, 82),4	125,(5, 85),2	127,(5, 103),4	131,(5, 133),2	133,(3, 172),14	147,(6, 67),2	149,(9, 27),4	153,(2, 181),18	171,(3, 196),20	191,(21, 201),10	201,(31, 201),10	211,(5, 193),4	215,(6, 70),6	221,(6, 163),20	241,(5, 127),20	261,(8, 76),4	265,(9, 37),8	273,(9, 88),2	275,(9, 106),16	291,(9, 109),2	293,(9, 160),2	295,(9, 163),2	297,(5, 196),72	369,(5, 199),24	393,(8, 28),14	407,(8, 64),8	415,(8, 97),6	421,(11, 148),4	425,(6, 193),130	555,(9, 169),8	563,(15, 97),2	565,(8, 27),36	601,(8, 100),28	629,(8, 103),10	639,(8, 115),12	651,(8, 121),10	661,(8, 124),8	669,(8, 163),6	675,(192, 201),10	685,(9, 58),26	711,(9, 76),94	805,(9, 115),130	935,(9, 190),4	939,(12, 190),4	943,(18, 115),4	947,(8, 172),20	967,(8, 199),92	1059,(55, 201),10	1069,(114, 201),10	1079,(54, 201),10	1089,(200, 201),10	1099,(11, 28),110	1209,(11, 70),44	1253,(11, 94),10	1263,(11, 124),6	1269,(11, 184),32	1301,(11, 190),28	1329,(11, 196),2	1331,(186, 201),10	1341,(14, 100),4	1345,(14, 154),2	1347,(14, 181),2	1349,(17, 82),2	1351,(20, 73),2	1353,(12, 88),32	1385,(18, 166),2	1391,(20, 94),2	1393,(12, 121),14	1407,(14, 58),14	1421,(14, 130),10	1431,(17, 27),18	1449,(17, 88),8	1457,(17, 172),8	1465,(20, 100),2	1469,(9, 199),198	1667,(183, 201),10	1677,(168, 201),10	1687,(20, 85),6	1695,(12, 58),58	1753,(20, 106),18	1775,(83, 201),10	1785,(20, 190),16	1801,(12, 100),18	1819,(15, 67),10	1837,(20, 193),14	1851,(15, 64),52	1903,(15, 85),10	1913,(15, 148),38	1951,(80, 201),10	1963,(17, 106),38	2001,(18, 37),18	2023,(198, 201),10	2033,(90, 201),10	2045,(18, 118),16	2061,(164, 201),10	2071,(143, 201),10	2081,(17, 187),42	2123,(18, 27),42	2165,(146, 201),10	2175,(26, 201),10	2185,(34, 201),10	2203,(17, 127),58	2261,(20, 37),100	2361,(20, 64),32	2393,(96, 201),10	2409,(33, 201),10	2419,(48, 201),10	2431,(132, 201),10	2441,(144, 201),10	2457,(18, 100),40	2497,(20, 121),38	2535,(147, 201),10	2545,(153, 201),10	2563,(44, 201),10	2573,(68, 201),10	2583,(56, 201),10	2593,(155, 201),10	2603,(113, 201),10	2613,(122, 201),10	2623,(119, 201),10	2633,(161, 201),10	2651,(20, 127),32	2683,(20, 133),32	2715,(20, 148),38	2753,(20, 178),52	2805,(23, 201),10	2815,(57, 201),10	2825,(171, 201),10	2835,(47, 201),10	2845,(111, 201),10	2855,(120, 201),10	2865,(117, 201),10	2875,(25, 201),10	2885,(93, 201),10	2895,(81, 201),10	2905,(162, 201),10	2917,(179, 201),10	2927,(42, 201),10	2937,(141, 201),10	2947,(52, 201),10	2957,(135, 201),10	2967,(176, 201),10	2977,(185, 201),10	2987,(194, 201),10	2997,(30, 201),10	3013,(177, 201),10	3023,(129, 201),10	3033,(69, 201),10	3043,(87, 201),10	3053,(46, 201),10	3067,(105, 201),10	3077,(49, 201),10	3087,(60, 201),10	3097,(138, 201),10	3107,(62, 201),10	3117,(66, 201),10	3127,(71, 201),10	3137,(92, 201),10	3155,(84, 201),10	3165,(95, 201),10	3175,(195, 201),10	3185,(101, 201),10	3195,(104, 201),10	3205,(123, 201),10	3215,(110, 201),10	3225,(125, 201),10	3235,(188, 201),10	3245,(167, 201),10	3255,(126, 201),10	3265,(131, 201),10	3275,(136, 201),10	3285,(38, 201),10	3295,(41, 201),10	3305,(99, 201),10	3322,(116, 201),10	3332,(150, 201),10	3342,(137, 201),10	3352,(152, 201),10	3364,(158, 201),10	4283,(156, 201),10	4293,(159, 201),10	4303,(189, 201),10	4313,(29, 201),10	4323,(63, 201),10	4333,(72, 201),10	4343,(108, 201),10	4353,(140, 201),10	4363,(142, 201),10	4373,(180, 201),10	4383,(43, 201),10	4393,(45, 201),10	4403,(51, 201),10	4413,(53, 201),10	4423,(75, 201),10	4433,(78, 201),10	4443,(102, 201),10	4453,(165, 201),10	4463,(174, 201),10	4473,(32, 201),10	4483,(59, 201),10	4493,(39, 201),10	4503,(86, 201),10	4513,(98, 201),10	4523,(107, 201),10	4533,(173, 201),10	4543,(182, 201),10	4553,(197, 201),10	4563,(24, 201),10	4573,(35, 201),10	4583,(36, 201),10	4610,(40, 201),10	4620,(50, 201),10	4646,(74, 201),10	4656,(77, 201),10	4666,(89, 201),10	4720,(128, 201),10	4778,(139, 201),10	4788,(149, 201),10	4806,(170, 201),10	4816,(191, 201),10	4980,(65, 201),10	
# Outgoing
50,(3, 22),6	56,(3, 27),8	64,(3, 100),2	67,(3, 43),6	73,(3, 47),4	77,(3, 51),8	85,(3, 58),24	111,(3, 55),8	119,(3, 114),14	133,(3, 172),14	147,(6, 67),2	149,(9, 27),4	155,(3, 174),10	165,(6, 63),2	167,(6, 117),2	169,(6, 162),2	171,(3, 196),20	191,(21, 201),10	201,(31, 201),10	211,(9, 43),4	215,(6, 70),6	221,(6, 163),20	243,(6, 41),14	257,(6, 168),6	263,(9, 123),2	265,(9, 37),8	273,(9, 88),2	275,(9, 106),16	291,(9, 109),2	293,(9, 160),2	295,(9, 163),2	297,(3, 120),30	327,(6, 195),8	335,(9, 66),4	339,(9, 198),2	343,(6, 25),28	371,(6, 69),26	397,(6, 150),28	425,(6, 193),130	555,(9, 169),8	563,(15, 97),2	583,(6, 75),70	653,(9, 60),26	679,(9, 138),4	683,(12, 47),2	685,(9, 58),26	711,(9, 76),94	805,(9, 115),130	935,(9, 190),4	939,(12, 190),4	943,(18, 115),4	1079,(54, 201),10	1089,(200, 201),10	1191,(6, 156),72	1263,(9, 90),44	1307,(9, 99),10	1317,(9, 102),34	1351,(12, 72),2	1353,(12, 88),32	1385,(18, 166),2	1391,(12, 96),2	1393,(12, 121),14	1407,(9, 132),10	1417,(9, 144),10	1427,(9, 147),36	1463,(9, 153),6	1469,(9, 199),198	1667,(12, 23),12	1679,(12, 57),16	1695,(12, 58),58	1753,(12, 78),20	1773,(12, 171),2	1775,(83, 201),10	1785,(12, 87),16	1801,(12, 100),18	1819,(15, 67),10	1831,(15, 47),4	1837,(12, 120),12	1849,(15, 60),2	1851,(15, 64),52	1903,(15, 85),10	1913,(15, 148),38	1951,(80, 201),10	1969,(12, 117),24	1993,(15, 102),4	1999,(15, 150),2	2001,(18, 37),18	2023,(12, 174),10	2033,(15, 32),8	2041,(15, 162),2	2043,(18, 69),2	2045,(18, 118),16	2061,(164, 201),10	2071,(143, 201),10	2107,(18, 81),6	2123,(18, 27),42	2165,(146, 201),10	2175,(26, 201),10	2185,(34, 201),10	2235,(12, 129),40	2275,(15, 49),16	2291,(15, 69),50	2341,(15, 123),16	2357,(18, 66),36	2393,(18, 87),16	2409,(33, 201),10	2419,(48, 201),10	2435,(18, 75),22	2457,(18, 100),40	2497,(18, 105),66	2563,(44, 201),10	2573,(68, 201),10	2583,(56, 201),10	2593,(155, 201),10	2603,(113, 201),10	2613,(122, 201),10	2623,(119, 201),10	2633,(161, 201),10	2657,(18, 138),14	2671,(18, 140),16	2757,(15, 195),142	2899,(18, 142),18	2917,(179, 201),10	2927,(42, 201),10	2937,(141, 201),10	2947,(52, 201),10	2957,(135, 201),10	2967,(176, 201),10	2977,(185, 201),10	2987,(194, 201),10	2997,(30, 201),10	3053,(46, 201),10	3107,(62, 201),10	3127,(71, 201),10	3137,(92, 201),10	3165,(95, 201),10	3185,(101, 201),10	3195,(104, 201),10	3215,(110, 201),10	3225,(125, 201),10	3235,(188, 201),10	3245,(167, 201),10	3265,(131, 201),10	3285,(38, 201),10	3322,(116, 201),10	3342,(137, 201),10	3352,(152, 201),10	3364,(158, 201),10	3765,(18, 32),282	4483,(59, 201),10	4493,(39, 201),10	4503,(86, 201),10	4513,(98, 201),10	4523,(107, 201),10	4533,(173, 201),10	4543,(182, 201),10	4553,(197, 201),10	4563,(24, 201),10	4573,(35, 201),10	4583,(36, 201),10	4610,(40, 201),10	4620,(50, 201),10	4646,(74, 201),10	4656,(77, 201),10	4666,(89, 201),10	4720,(128, 201),10	4778,(139, 201),10	4788,(149, 201),10	4806,(170, 201),10	4816,(191, 201),10	4980,(65, 201),10	
28,(2, 22),6	34,(2, 118),2	36,(2, 133),6	42,(2, 145),2	45,(2, 31),14	59,(2, 40),8	67,(2, 70),12	79,(2, 160),6	89,(2, 77),4	93,(2, 83),10	103,(2, 95),6	109,(2, 106),12	121,(5, 82),4	125,(5, 85),2	127,(5, 103),4	131,(5, 133),2	133,(2, 98),20	153,(2, 181),18	177,(2, 137),14	191,(2, 164),4	195,(2, 194),2	197,(5, 34),2	211,(5, 193),4	221,(5, 30),10	231,(5, 65),2	233,(5, 74),2	235,(5, 113),4	239,(5, 116),2	241,(5, 127),20	261,(8, 76),4	265,(5, 52),28	293,(5, 149),2	295,(5, 164),2	297,(5, 196),72	369,(5, 199),24	393,(8, 28),14	407,(8, 64),8	415,(8, 97),6	421,(11, 148),4	455,(2, 48),44	499,(5, 40),44	543,(5, 146),16	559,(8, 26),6	565,(8, 27),36	601,(8, 100),28	629,(8, 103),10	639,(8, 115),12	651,(8, 121),10	661,(8, 124),8	669,(8, 163),6	675,(192, 201),10	691,(8, 56),68	759,(8, 74),172	931,(8, 92),4	935,(8, 116),2	937,(8, 146),2	939,(8, 149),2	941,(8, 170),6	947,(8, 172),20	967,(8, 199),92	1059,(55, 201),10	1069,(114, 201),10	1079,(11, 40),4	1083,(11, 68),2	1085,(11, 113),6	1091,(11, 119),2	1093,(11, 191),2	1095,(14, 34),2	1097,(14, 113),2	1099,(11, 28),110	1209,(11, 70),44	1253,(11, 94),10	1263,(11, 124),6	1269,(11, 184),32	1301,(11, 190),28	1329,(11, 196),2	1331,(186, 201),10	1341,(14, 100),4	1345,(14, 154),2	1347,(14, 181),2	1349,(17, 82),2	1351,(20, 73),2	1353,(11, 128),28	1381,(11, 131),8	1389,(14, 194),2	1391,(20, 94),2	1395,(14, 30),10	1405,(17, 46),2	1407,(14, 58),14	1421,(14, 130),10	1431,(17, 27),18	1449,(17, 88),8	1457,(17, 172),8	1465,(20, 100),2	1667,(183, 201),10	1677,(168, 201),10	1687,(20, 85),6	1753,(20, 106),18	1775,(14, 33),8	1783,(17, 48),2	1785,(20, 190),16	1805,(17, 68),2	1813,(17, 149),2	1817,(14, 65),6	1823,(14, 155),6	1829,(17, 155),2	1835,(20, 38),2	1837,(20, 193),14	1853,(20, 40),2	1857,(14, 119),24	1881,(14, 161),4	1885,(17, 30),6	1893,(11, 77),52	1945,(17, 92),18	1963,(17, 106),38	2001,(17, 141),8	2009,(17, 173),10	2019,(20, 50),4	2023,(198, 201),10	2033,(90, 201),10	2045,(20, 104),2	2049,(14, 191),32	2081,(17, 187),42	2123,(20, 135),2	2137,(11, 89),66	2203,(17, 127),58	2261,(20, 37),100	2361,(20, 64),32	2393,(96, 201),10	2411,(20, 30),20	2431,(132, 201),10	2441,(144, 201),10	2497,(20, 121),38	2535,(147, 201),10	2545,(153, 201),10	2563,(17, 65),88	2651,(20, 127),32	2683,(20, 133),32	2715,(20, 148),38	2753,(20, 178),52	2805,(23, 201),10	2815,(57, 201),10	2825,(171, 201),10	2835,(47, 201),10	2845,(111, 201),10	2855,(120, 201),10	2865,(117, 201),10	2875,(25, 201),10	2885,(93, 201),10	2895,(81, 201),10	2905,(162, 201),10	2929,(17, 188),46	2975,(20, 167),38	3013,(177, 201),10	3023,(129, 201),10	3033,(69, 201),10	3043,(87, 201),10	3053,(20, 191),14	3067,(105, 201),10	3077,(49, 201),10	3087,(60, 201),10	3097,(138, 201),10	3117,(66, 201),10	3143,(20, 197),12	3155,(84, 201),10	3175,(195, 201),10	3205,(123, 201),10	3255,(126, 201),10	3275,(136, 201),10	3295,(41, 201),10	3305,(99, 201),10	3332,(150, 201),10	3359,(2, 59),924	4283,(156, 201),10	4293,(159, 201),10	4303,(189, 201),10	4313,(29, 201),10	4323,(63, 201),10	4333,(72, 201),10	4343,(108, 201),10	4353,(140, 201),10	4363,(142, 201),10	4373,(180, 201),10	4383,(43, 201),10	4393,(45, 201),10	4403,(51, 201),10	4413,(53, 201),10	4423,(75, 201),10	4433,(78, 201),10	4443,(102, 201),10	4453,(165, 201),10	4463,(174, 201),10	4473,(32, 201),10	4803,(11, 65),172	
1,(0, 2),22	23,(0, 3),22	45,(0, 5),22	67,(0, 6),22	89,(0, 8),22	111,(0, 9),22	133,(0, 11),22	155,(0, 12),22	177,(0, 14),22	199,(0, 15),22	221,(0, 17),22	243,(0, 18),22	265,(0, 20),22	287,(7, 25),10	297,(7, 33),8	305,(7, 35),26	331,(7, 44),10	341,(7, 66),2	343,(7, 68),2	345,(7, 74),108	453,(7, 77),2	455,(7, 84),24	479,(7, 87),8	487,(7, 90),10	497,(7, 111),6	503,(7, 132),80	583,(7, 135),12	595,(7, 143),90	685,(7, 146),4	689,(7, 155),2	691,(7, 165),4	695,(7, 174),496	1191,(7, 176),162	1353,(7, 177),38	1391,(7, 182),4	1395,(7, 189),12	1407,(4, 26),8	1415,(4, 34),358	1773,(4, 36),2	1775,(4, 43),10	1785,(4, 44),14	1799,(4, 46),6	1805,(4, 49),2	1807,(4, 56),6	1813,(4, 75),2	1815,(4, 86),2	1817,(4, 93),14	1831,(4, 104),4	1835,(4, 111),2	1837,(4, 113),2	1839,(4, 116),14	1853,(4, 117),2	1855,(4, 122),2	1857,(4, 129),8	1865,(4, 136),14	1879,(4, 138),12	1891,(4, 141),2	1893,(4, 150),2	1895,(4, 156),72	1967,(4, 162),2	1969,(4, 173),6	1975,(4, 179),10	1985,(4, 185),12	1997,(1, 25),2	1999,(1, 42),2	2001,(1, 43),22	2023,(1, 50),22	2045,(1, 51),2	2047,(1, 52),2	2049,(1, 60),34	2083,(1, 84),12	2095,(1, 93),2	2097,(1, 105),10	2107,(1, 107),6	2113,(1, 129),2	2115,(1, 162),6	2121,(1, 170),2	2123,(1, 174),2	2125,(1, 176),12	2137,(1, 177),98	2235,(1, 185),2	2237,(1, 191),2	2239,(1, 194),162	2401,(16, 30),4	2405,(16, 35),4	2409,(16, 39),2	2411,(16, 41),24	2435,(16, 46),128	2563,(16, 49),2	2565,(16, 51),90	2655,(16, 60),2	2657,(16, 62),32	2689,(16, 63),22	2711,(16, 65),4	2715,(16, 66),2	2717,(16, 71),16	2733,(16, 84),24	2757,(16, 86),90	2847,(16, 89),6	2853,(16, 92),26	2879,(16, 95),8	2887,(16, 101),24	2911,(16, 104),8	2919,(16, 110),2	2921,(16, 123),2	2923,(16, 125),6	2929,(16, 126),92	3021,(16, 131),2	3023,(16, 136),2	3025,(16, 158),28	3053,(16, 189),20	3073,(10, 24),36	3109,(10, 38),28	3137,(10, 40),6	3143,(10, 41),22	3165,(10, 77),28	3193,(10, 78),6	3199,(10, 89),2	3201,(10, 99),10	3211,(10, 116),106	3317,(10, 137),2	3319,(10, 150),2	3321,(10, 152),26	3347,(10, 156),4	3351,(10, 158),8	3359,(10, 159),2	3361,(10, 189),2	3363,(19, 29),26	3389,(19, 32),56	3445,(19, 53),2	3447,(19, 63),58	3505,(19, 72),2	3507,(19, 108),78	3585,(19, 140),6	3591,(19, 142),4	3595,(19, 180),2	3597,(13, 32),14	3611,(13, 43),10	3621,(13, 45),2	3623,(13, 51),62	3685,(13, 53),2	3687,(13, 75),2	3689,(13, 78),2	3691,(13, 102),44	3735,(13, 165),28	3763,(13, 174),2	4283,(19, 24),2	4285,(19, 39),4	4289,(19, 65),2	4291,(19, 86),2	4293,(19, 98),2	4295,(19, 107),96	4391,(19, 173),4	4395,(19, 182),4	4399,(19, 197),4	4403,(13, 24),2	4405,(13, 35),86	4491,(13, 36),22	4513,(13, 40),92	4605,(13, 50),10	4615,(13, 74),26	4641,(13, 77),4	4645,(13, 89),2	4647,(13, 128),68	4715,(13, 139),58	4773,(13, 149),8	4781,(13, 170),20	4801,(13, 191),2	
