6714
# CPU
0,0,1	1,19,2	3,2,2	5,87,2	7,135,2	9,17,2	11,1,2	13,146,2	15,16,2	17,33,2	19,84,2	21,98,2	23,5,2	25,80,2	27,54,2	29,9,2	31,152,2	33,178,2	35,4,2	37,189,2	39,69,2	41,132,2	43,8,2	45,40,2	47,65,2	49,165,2	51,185,2	53,24,2	55,3,2	57,53,2	59,157,2	61,96,2	63,34,2	65,136,2	67,171,2	69,100,2	71,150,2	73,12,2	75,122,2	77,120,2	79,72,2	81,126,2	83,144,2	85,161,2	87,192,2	89,94,2	91,18,2	93,45,2	95,78,2	97,149,2	99,116,2	101,39,2	103,193,2	105,30,2	107,20,2	109,194,2	111,186,2	113,155,2	115,27,2	117,86,2	119,43,2	121,109,2	123,198,2	125,7,2	127,92,2	129,59,2	131,106,2	133,112,2	135,115,2	137,133,2	139,64,2	141,49,2	143,159,2	145,125,2	147,25,2	149,48,2	151,190,2	155,174,2	159,196,2	163,197,2	167,181,2	171,183,2	175,139,2	179,113,2	183,46,2	187,47,2	195,51,2	203,88,2	211,89,2	219,164,2	227,200,2	235,142,2	247,127,2	259,195,2	271,26,2	283,74,2	295,42,2	307,68,2	319,179,2	331,95,2	343,66,2	355,35,2	371,199,2	387,128,2	403,29,2	419,176,2	435,170,2	451,107,2	467,148,2	483,61,2	499,99,2	519,117,2	539,93,2	559,63,2	579,76,2	599,175,2	619,50,2	643,162,2	667,21,2	691,67,2	715,104,2	743,129,2	771,156,2	799,191,2	827,91,2	855,97,2	883,70,2	915,177,2	947,71,2	979,134,2	1011,38,2	1043,60,2	1079,32,2	1115,56,2	1159,153,2	1203,90,2	1247,28,2	1291,22,2	1339,160,2	1387,79,2	1435,82,2	1487,58,2	1539,131,2	1591,169,2	1647,188,2	1703,110,2	1763,187,2	1827,73,2	1895,44,2	1967,57,2	2039,75,2	2111,55,2	2183,108,2	2259,158,2	2343,119,2	2435,103,2	2531,173,2	2643,130,2	2755,168,2	2875,182,2	3007,163,2	3143,137,2	3291,23,2	3447,37,2	3607,101,2	3767,114,2	3943,172,2	4131,121,2	4379,31,2	4723,36,2	5151,151,2	5731,180,2	6711,143,2	6713,201,1	
13,11,2	41,147,2	61,13,2	63,184,2	65,52,2	67,111,2	73,15,2	75,123,2	77,167,2	79,77,2	81,166,2	83,81,2	85,140,2	93,10,2	95,154,2	97,102,2	99,85,2	109,41,2	113,118,2	117,83,2	121,105,2	129,141,2	141,62,2	

25,6,2	37,14,2	39,138,2	49,124,2	133,145,2	
# Incoming
41,(138, 201),4	45,(147, 201),4	51,(124, 201),4	55,(11, 125),4	59,(11, 48),4	65,(184, 201),4	69,(52, 201),4	73,(111, 201),4	77,(123, 201),4	81,(167, 201),4	85,(77, 201),4	89,(166, 201),4	93,(81, 201),4	97,(140, 201),4	101,(154, 201),4	105,(102, 201),4	109,(85, 201),4	113,(41, 201),4	117,(118, 201),4	121,(83, 201),4	125,(105, 201),4	131,(141, 201),4	135,(145, 201),4	139,(13, 25),4	143,(62, 201),4	147,(14, 190),4	151,(15, 174),4	155,(15, 196),4	159,(10, 197),4	163,(15, 181),4	167,(6, 183),4	171,(13, 139),4	175,(13, 113),4	179,(11, 46),4	183,(15, 47),4	187,(15, 51),8	195,(15, 88),8	203,(13, 89),8	211,(6, 164),4	215,(14, 164),4	219,(11, 200),4	223,(15, 200),4	227,(13, 142),8	235,(11, 127),12	247,(6, 195),12	259,(15, 26),4	263,(10, 26),8	271,(14, 74),4	275,(15, 74),8	283,(14, 42),12	295,(15, 68),4	299,(10, 68),8	307,(11, 179),8	315,(13, 179),4	319,(6, 95),12	331,(10, 66),12	343,(11, 35),12	355,(14, 199),16	371,(14, 128),16	387,(10, 29),16	403,(13, 176),8	411,(15, 176),8	419,(6, 170),16	435,(6, 107),16	451,(13, 148),16	467,(15, 61),16	483,(15, 99),16	499,(11, 117),16	515,(14, 117),4	519,(14, 93),20	539,(13, 63),16	555,(15, 63),4	559,(11, 76),20	579,(15, 175),20	599,(15, 50),20	619,(14, 162),4	623,(13, 162),20	643,(14, 21),8	651,(10, 21),16	667,(11, 67),20	687,(14, 67),4	691,(15, 104),24	715,(6, 129),4	719,(10, 129),24	743,(13, 156),28	771,(6, 191),24	795,(10, 191),4	799,(10, 91),28	827,(11, 97),28	855,(6, 70),28	883,(11, 177),28	911,(14, 177),4	915,(6, 71),4	919,(13, 71),28	947,(13, 134),28	975,(10, 134),4	979,(15, 38),32	1011,(14, 60),28	1039,(10, 60),4	1043,(10, 32),36	1079,(10, 56),36	1115,(11, 153),4	1119,(14, 153),40	1159,(14, 90),44	1203,(14, 28),44	1247,(15, 22),44	1291,(6, 160),44	1335,(15, 160),4	1339,(6, 79),28	1367,(14, 79),20	1387,(14, 82),44	1431,(15, 82),4	1435,(11, 58),36	1471,(14, 58),16	1487,(13, 131),52	1539,(11, 169),4	1543,(14, 169),8	1551,(15, 169),40	1591,(6, 188),40	1631,(14, 188),8	1639,(13, 188),4	1643,(10, 188),4	1647,(11, 110),56	1703,(6, 187),28	1731,(14, 187),4	1735,(10, 187),28	1763,(13, 73),4	1767,(15, 73),60	1827,(11, 44),64	1891,(13, 44),4	1895,(6, 57),32	1927,(15, 57),40	1967,(10, 75),72	2039,(6, 55),36	2075,(10, 55),36	2111,(14, 108),8	2119,(15, 108),64	2183,(6, 158),76	2259,(11, 119),84	2343,(11, 103),92	2435,(6, 173),4	2439,(15, 173),92	2531,(14, 130),88	2619,(15, 130),24	2643,(11, 168),112	2755,(6, 182),120	2875,(11, 163),128	3003,(6, 163),4	3007,(6, 137),40	3047,(14, 137),96	3143,(15, 23),148	3291,(13, 37),156	3447,(14, 101),64	3511,(13, 101),4	3515,(15, 101),92	3607,(11, 114),4	3611,(14, 114),12	3623,(13, 114),40	3663,(10, 114),104	3767,(6, 172),56	3823,(13, 172),44	3867,(15, 172),76	3943,(11, 121),188	4131,(6, 31),248	4379,(14, 36),20	4399,(15, 36),324	4723,(14, 151),428	5151,(6, 180),52	5203,(13, 180),528	5731,(14, 143),132	5863,(10, 143),848	
1,(0, 11),12	37,(4, 147),4	45,(6, 166),4	49,(0, 13),12	61,(0, 15),12	73,(16, 81),4	77,(8, 140),4	81,(0, 10),12	93,(4, 85),4	97,(9, 41),4	101,(12, 41),8	109,(20, 118),4	113,(20, 83),4	117,(20, 105),4	121,(16, 141),4	125,(20, 141),4	133,(7, 62),8	

13,(0, 6),12	25,(0, 14),12	41,(19, 124),4	45,(16, 124),4	129,(7, 145),4	
# Outgoing
1,(0, 11),12	13,(0, 6),12	25,(0, 14),12	37,(4, 147),4	41,(19, 124),4	45,(16, 124),4	49,(0, 13),12	61,(0, 15),12	73,(16, 81),4	77,(8, 140),4	81,(0, 10),12	93,(4, 85),4	97,(9, 41),4	101,(12, 41),8	109,(20, 118),4	113,(20, 83),4	117,(20, 105),4	121,(16, 141),4	125,(20, 141),4	129,(7, 145),4	133,(7, 62),8	
45,(147, 201),4	55,(11, 125),4	59,(11, 48),4	65,(184, 201),4	69,(52, 201),4	73,(111, 201),4	77,(123, 201),4	81,(167, 201),4	85,(77, 201),4	89,(166, 201),4	93,(81, 201),4	97,(140, 201),4	101,(154, 201),4	105,(102, 201),4	109,(85, 201),4	113,(41, 201),4	117,(118, 201),4	121,(83, 201),4	125,(105, 201),4	131,(141, 201),4	139,(13, 25),4	143,(62, 201),4	151,(15, 174),4	155,(15, 196),4	159,(10, 197),4	163,(15, 181),4	171,(13, 139),4	175,(13, 113),4	179,(11, 46),4	183,(15, 47),4	187,(15, 51),8	195,(15, 88),8	203,(13, 89),8	219,(11, 200),4	223,(15, 200),4	227,(13, 142),8	235,(11, 127),12	259,(15, 26),4	263,(10, 26),8	275,(15, 74),8	295,(15, 68),4	299,(10, 68),8	307,(11, 179),8	315,(13, 179),4	331,(10, 66),12	343,(11, 35),12	387,(10, 29),16	403,(13, 176),8	411,(15, 176),8	451,(13, 148),16	467,(15, 61),16	483,(15, 99),16	499,(11, 117),16	539,(13, 63),16	555,(15, 63),4	559,(11, 76),20	579,(15, 175),20	599,(15, 50),20	623,(13, 162),20	651,(10, 21),16	667,(11, 67),20	691,(15, 104),24	719,(10, 129),24	743,(13, 156),28	795,(10, 191),4	799,(10, 91),28	827,(11, 97),28	883,(11, 177),28	919,(13, 71),28	947,(13, 134),28	975,(10, 134),4	979,(15, 38),32	1039,(10, 60),4	1043,(10, 32),36	1079,(10, 56),36	1115,(11, 153),4	1247,(15, 22),44	1335,(15, 160),4	1431,(15, 82),4	1435,(11, 58),36	1487,(13, 131),52	1539,(11, 169),4	1551,(15, 169),40	1639,(13, 188),4	1643,(10, 188),4	1647,(11, 110),56	1735,(10, 187),28	1763,(13, 73),4	1767,(15, 73),60	1827,(11, 44),64	1891,(13, 44),4	1927,(15, 57),40	1967,(10, 75),72	2075,(10, 55),36	2119,(15, 108),64	2259,(11, 119),84	2343,(11, 103),92	2439,(15, 173),92	2619,(15, 130),24	2643,(11, 168),112	2875,(11, 163),128	3143,(15, 23),148	3291,(13, 37),156	3511,(13, 101),4	3515,(15, 101),92	3607,(11, 114),4	3623,(13, 114),40	3663,(10, 114),104	3823,(13, 172),44	3867,(15, 172),76	3943,(11, 121),188	4399,(15, 36),324	5203,(13, 180),528	5863,(10, 143),848	

41,(138, 201),4	45,(6, 166),4	51,(124, 201),4	135,(145, 201),4	147,(14, 190),4	167,(6, 183),4	211,(6, 164),4	215,(14, 164),4	247,(6, 195),12	271,(14, 74),4	283,(14, 42),12	319,(6, 95),12	355,(14, 199),16	371,(14, 128),16	419,(6, 170),16	435,(6, 107),16	515,(14, 117),4	519,(14, 93),20	619,(14, 162),4	643,(14, 21),8	687,(14, 67),4	715,(6, 129),4	771,(6, 191),24	855,(6, 70),28	911,(14, 177),4	915,(6, 71),4	1011,(14, 60),28	1119,(14, 153),40	1159,(14, 90),44	1203,(14, 28),44	1291,(6, 160),44	1339,(6, 79),28	1367,(14, 79),20	1387,(14, 82),44	1471,(14, 58),16	1543,(14, 169),8	1591,(6, 188),40	1631,(14, 188),8	1703,(6, 187),28	1731,(14, 187),4	1895,(6, 57),32	2039,(6, 55),36	2111,(14, 108),8	2183,(6, 158),76	2435,(6, 173),4	2531,(14, 130),88	2755,(6, 182),120	3003,(6, 163),4	3007,(6, 137),40	3047,(14, 137),96	3447,(14, 101),64	3611,(14, 114),12	3767,(6, 172),56	4131,(6, 31),248	4379,(14, 36),20	4723,(14, 151),428	5151,(6, 180),52	5731,(14, 143),132	
