602
# CPU
0,201,1	1,167,2	3,69,2	5,168,2	7,98,2	9,47,2	11,157,2	13,191,2	15,46,2	17,165,2	19,118,2	21,95,2	23,81,2	25,93,2	27,79,2	29,150,2	31,128,2	33,45,2	35,124,2	37,117,2	39,114,2	41,148,2	43,160,2	45,178,2	47,86,2	49,119,2	51,113,2	53,106,2	55,200,2	57,181,2	59,199,2	61,132,2	63,121,2	65,76,2	67,185,2	69,35,2	71,99,2	73,182,2	75,32,2	77,23,2	79,155,2	81,194,2	83,198,2	85,174,2	87,70,2	89,137,2	91,82,2	93,133,2	95,116,2	97,71,2	99,129,2	101,169,2	103,115,2	105,44,2	107,75,2	109,36,2	111,147,2	113,126,2	115,27,2	117,38,2	119,175,2	121,51,2	123,65,2	125,50,2	127,145,2	129,173,2	131,109,2	133,37,2	135,73,2	137,57,2	139,190,2	141,146,2	143,110,2	145,42,2	147,48,2	149,187,2	151,85,2	153,161,2	155,112,2	157,30,2	159,64,2	161,22,2	163,183,2	165,140,2	167,24,2	169,59,2	171,195,2	173,111,2	175,188,2	177,108,2	179,97,2	181,66,2	183,26,2	185,43,2	187,180,2	189,84,2	191,151,2	193,102,2	195,91,2	197,25,2	199,74,2	201,154,2	203,162,2	205,177,2	207,34,2	209,171,2	211,184,2	213,31,2	215,54,2	217,134,2	219,40,2	221,189,2	223,166,2	225,88,2	227,172,2	229,41,2	231,163,2	233,152,2	235,107,2	237,78,2	239,72,2	241,120,2	243,193,2	245,13,2	247,83,2	249,131,2	251,122,2	253,125,2	255,58,2	257,77,2	259,90,2	261,92,2	263,197,2	265,49,2	267,105,2	269,53,2	271,103,2	273,11,2	275,14,2	277,18,2	279,2,2	281,6,2	283,4,2	285,12,2	287,9,2	289,3,2	291,8,2	293,17,2	295,16,2	357,1,2	449,7,2	601,0,1	
25,153,2	127,29,2	157,28,2	175,127,2	181,164,2	199,55,2	217,139,2	223,80,2	229,186,2	235,143,2	247,138,2	253,135,2	259,156,2	289,19,2	
103,159,2	115,100,2	133,149,2	163,96,2	187,21,2	271,101,2	597,15,2	
37,67,2	55,170,2	61,56,2	121,62,2	
31,144,2	109,176,2	
73,136,2	211,104,2	
19,141,2	
67,39,2	97,68,2	151,142,2	
7,87,2	85,33,2	91,60,2	169,196,2	241,63,2	307,10,2	
13,158,2	43,192,2	49,179,2	79,89,2	139,52,2	145,123,2	193,130,2	205,61,2	265,94,2	333,5,2	365,20,2	
# Incoming
63,(56, 11),2	65,(87, 14),2	67,(141, 18),2	69,(179, 2),2	71,(192, 12),2	73,(158, 17),2	75,(136, 12),2	77,(144, 17),2	81,(89, 16),2	93,(60, 8),4	105,(159, 12),6	111,(176, 1),6	117,(100, 1),6	123,(62, 1),6	129,(29, 6),6	141,(52, 3),8	153,(142, 4),10	163,(39, 8),2	171,(196, 9),12	183,(96, 3),12	195,(149, 8),8	203,(127, 8),14	217,(123, 17),8	225,(21, 17),18	243,(139, 16),30	273,(135, 1),84	357,(164, 7),16	373,(104, 7),30	403,(143, 7),46	449,(19, 0),2	451,(10, 0),2	453,(5, 0),2	455,(20, 0),2	599,(15, 0),2	
19,(201, 153),6	121,(201, 29),6	151,(201, 28),6	169,(201, 127),6	175,(201, 164),6	193,(201, 55),6	211,(201, 139),6	217,(201, 80),6	223,(201, 186),6	229,(201, 143),6	241,(201, 138),6	247,(201, 135),6	253,(201, 156),6	271,(95, 19),2	273,(178, 19),2	275,(199, 19),2	277,(75, 19),6	283,(50, 19),6	
97,(201, 159),6	109,(201, 100),6	127,(201, 149),6	157,(201, 96),6	181,(201, 21),6	265,(201, 101),6	365,(128, 15),2	367,(117, 15),2	369,(188, 15),12	381,(97, 15),14	395,(189, 15),32	427,(41, 15),36	463,(186, 15),36	499,(152, 15),40	539,(122, 15),58	
31,(201, 67),6	49,(201, 170),6	55,(201, 56),6	115,(201, 62),6	
25,(201, 144),6	103,(201, 176),6	
67,(201, 136),6	205,(201, 104),6	
13,(201, 141),6	
61,(201, 39),6	91,(201, 68),6	145,(201, 142),6	
1,(201, 87),6	65,(170, 10),2	79,(201, 33),6	85,(201, 60),6	163,(201, 196),6	169,(68, 10),4	235,(201, 63),6	289,(69, 10),2	291,(168, 10),2	293,(98, 10),2	295,(45, 10),2	297,(185, 10),2	299,(71, 10),4	303,(115, 10),4	
7,(201, 158),6	37,(201, 192),6	43,(201, 179),6	67,(67, 5),2	73,(201, 89),6	87,(33, 5),4	133,(201, 52),6	139,(201, 123),6	145,(153, 20),2	159,(28, 5),10	187,(201, 130),6	199,(201, 61),6	217,(55, 5),26	259,(201, 94),6	307,(181, 5),2	309,(173, 5),6	315,(37, 5),8	323,(64, 5),10	333,(27, 20),6	339,(177, 20),26	
# Outgoing
1,(201, 87),6	7,(201, 158),6	13,(201, 141),6	19,(201, 153),6	25,(201, 144),6	31,(201, 67),6	37,(201, 192),6	43,(201, 179),6	49,(201, 170),6	55,(201, 56),6	61,(201, 39),6	67,(201, 136),6	73,(201, 89),6	79,(201, 33),6	85,(201, 60),6	91,(201, 68),6	97,(201, 159),6	103,(201, 176),6	109,(201, 100),6	115,(201, 62),6	121,(201, 29),6	127,(201, 149),6	133,(201, 52),6	139,(201, 123),6	145,(201, 142),6	151,(201, 28),6	157,(201, 96),6	163,(201, 196),6	169,(201, 127),6	175,(201, 164),6	181,(201, 21),6	187,(201, 130),6	193,(201, 55),6	199,(201, 61),6	205,(201, 104),6	211,(201, 139),6	217,(201, 80),6	223,(201, 186),6	229,(201, 143),6	235,(201, 63),6	241,(201, 138),6	247,(201, 135),6	253,(201, 156),6	259,(201, 94),6	265,(201, 101),6	271,(95, 19),2	273,(178, 19),2	275,(199, 19),2	277,(75, 19),6	283,(50, 19),6	289,(69, 10),2	291,(168, 10),2	293,(98, 10),2	295,(45, 10),2	297,(185, 10),2	299,(71, 10),4	303,(115, 10),4	307,(181, 5),2	309,(173, 5),6	315,(37, 5),8	323,(64, 5),10	333,(27, 20),6	339,(177, 20),26	365,(128, 15),2	367,(117, 15),2	369,(188, 15),12	381,(97, 15),14	395,(189, 15),32	427,(41, 15),36	499,(152, 15),40	539,(122, 15),58	
129,(29, 6),6	145,(153, 20),2	159,(28, 5),10	203,(127, 8),14	217,(55, 5),26	243,(139, 16),30	273,(135, 1),84	357,(164, 7),16	403,(143, 7),46	449,(19, 0),2	463,(186, 15),36	
105,(159, 12),6	117,(100, 1),6	183,(96, 3),12	195,(149, 8),8	225,(21, 17),18	599,(15, 0),2	
63,(56, 11),2	65,(170, 10),2	67,(67, 5),2	123,(62, 1),6	
77,(144, 17),2	111,(176, 1),6	
75,(136, 12),2	373,(104, 7),30	
67,(141, 18),2	
153,(142, 4),10	163,(39, 8),2	169,(68, 10),4	
65,(87, 14),2	87,(33, 5),4	93,(60, 8),4	171,(196, 9),12	451,(10, 0),2	
69,(179, 2),2	71,(192, 12),2	73,(158, 17),2	81,(89, 16),2	141,(52, 3),8	217,(123, 17),8	453,(5, 0),2	455,(20, 0),2	
