1202
# CPU
7,3,15	22,8,15	37,13,15	52,22,15	67,28,15	82,17,15	97,34,15	112,14,15	127,18,15	142,19,15	157,24,15	172,31,15	187,15,15	202,20,15	217,21,15	307,39,15	439,37,15	454,12,15	469,16,15	484,26,15	
4,2,15	19,23,15	34,32,15	49,36,15	64,6,15	79,9,15	136,10,15	199,27,15	262,29,15	370,40,15	538,11,15	553,25,15	568,38,15	1201,41,1	
0,0,1	1,4,15	16,1,15	31,5,15	46,7,15	157,33,15	697,30,15	1141,35,15	
# Incoming
4,(0, 3),3	19,(2, 14),21	40,(2, 18),12	52,(2, 19),39	91,(2, 24),9	100,(2, 31),24	136,(4, 15),9	145,(4, 20),3	148,(4, 21),3	262,(4, 39),45	307,(2, 37),132	439,(1, 12),12	451,(1, 16),15	466,(1, 26),3	
1,(0, 2),3	16,(4, 6),12	28,(4, 9),33	61,(4, 10),75	151,(4, 27),48	199,(4, 29),63	307,(4, 40),63	370,(3, 11),168	538,(3, 25),3	541,(1, 38),6	547,(5, 41),3	550,(7, 41),3	553,(33, 41),3	712,(30, 41),3	1141,(8, 41),3	1144,(13, 41),3	1147,(22, 41),3	1150,(28, 41),3	1153,(17, 41),3	1156,(34, 41),3	1159,(14, 41),3	1162,(18, 41),3	1165,(19, 41),3	1168,(24, 41),3	1171,(31, 41),3	1174,(15, 41),3	1177,(20, 41),3	1180,(21, 41),3	1183,(39, 41),3	1186,(37, 41),3	1189,(12, 41),3	1192,(16, 41),3	1195,(26, 41),3	1198,(35, 41),3	
124,(2, 33),33	157,(2, 35),48	541,(3, 30),156	697,(3, 35),444	
# Outgoing
370,(3, 11),168	538,(3, 25),3	541,(3, 30),156	697,(3, 35),444	1141,(8, 41),3	1144,(13, 41),3	1147,(22, 41),3	1150,(28, 41),3	1153,(17, 41),3	1156,(34, 41),3	1159,(14, 41),3	1162,(18, 41),3	1165,(19, 41),3	1168,(24, 41),3	1171,(31, 41),3	1174,(15, 41),3	1177,(20, 41),3	1180,(21, 41),3	1183,(39, 41),3	1186,(37, 41),3	1189,(12, 41),3	1192,(16, 41),3	1195,(26, 41),3	
19,(2, 14),21	40,(2, 18),12	52,(2, 19),39	91,(2, 24),9	100,(2, 31),24	124,(2, 33),33	157,(2, 35),48	307,(2, 37),132	
1,(0, 2),3	4,(0, 3),3	16,(4, 6),12	28,(4, 9),33	61,(4, 10),75	136,(4, 15),9	145,(4, 20),3	148,(4, 21),3	151,(4, 27),48	199,(4, 29),63	262,(4, 39),45	307,(4, 40),63	439,(1, 12),12	451,(1, 16),15	466,(1, 26),3	541,(1, 38),6	547,(5, 41),3	550,(7, 41),3	553,(33, 41),3	712,(30, 41),3	1198,(35, 41),3	
