3066
# CPU
9,5,1	10,15,1	11,25,1	12,75,1	99,20,1	101,30,1	103,35,1	113,70,1	117,40,1	145,55,1	179,45,1	185,80,1	193,50,1	221,10,1	283,65,1	327,60,1	
7,4,1	8,24,1	9,49,1	10,59,1	11,79,1	79,19,1	87,54,1	99,14,1	111,39,1	115,29,1	143,69,1	149,34,1	193,9,1	317,74,1	431,64,1	453,44,1	
5,3,1	6,13,1	7,18,1	13,8,1	14,43,1	107,28,1	111,58,1	113,38,1	115,63,1	137,53,1	183,73,1	223,23,1	273,78,1	293,33,1	301,48,1	455,68,1	
3,2,1	4,52,1	11,7,1	35,12,1	101,22,1	111,27,1	119,32,1	133,57,1	167,77,1	187,72,1	193,67,1	213,17,1	217,62,1	247,47,1	3001,42,1	3007,37,1	
0,0,1	1,6,1	2,1,1	3,36,1	4,61,1	5,26,1	6,66,1	7,51,1	8,46,1	97,11,1	109,76,1	287,16,1	289,21,1	327,31,1	359,41,1	375,56,1	673,71,1	3065,81,1	
# Incoming
7,(0, 5),2	79,(6, 20),20	99,(7, 30),2	101,(7, 35),2	111,(4, 70),2	115,(6, 40),2	117,(2, 55),28	145,(7, 45),34	183,(7, 80),2	187,(8, 50),6	193,(1, 10),28	221,(3, 65),62	317,(8, 60),10	
5,(0, 4),2	13,(6, 19),66	79,(2, 54),8	97,(3, 14),2	103,(7, 39),8	111,(6, 29),4	119,(3, 69),24	143,(8, 34),6	167,(1, 9),26	283,(3, 74),34	317,(5, 64),114	431,(8, 44),22	
3,(0, 3),2	11,(0, 8),2	35,(4, 28),72	107,(4, 58),4	111,(7, 38),2	113,(7, 63),2	117,(6, 53),20	179,(7, 73),4	221,(1, 23),2	247,(1, 78),26	289,(5, 33),4	293,(5, 48),8	431,(5, 68),24	
1,(0, 2),2	9,(0, 7),2	11,(4, 12),24	99,(6, 22),2	101,(6, 27),10	111,(3, 32),8	119,(4, 57),14	137,(6, 77),30	167,(3, 72),20	187,(4, 67),6	193,(8, 17),20	213,(8, 62),4	223,(1, 47),24	247,(4, 42),2754	3001,(5, 37),6	
87,(52, 81),4	91,(3, 11),6	99,(13, 81),4	103,(18, 81),4	107,(8, 76),2	113,(24, 81),4	117,(5, 16),170	287,(5, 21),2	289,(12, 81),4	293,(22, 81),4	297,(27, 81),4	301,(15, 81),4	305,(7, 31),22	327,(7, 41),32	359,(7, 56),16	375,(43, 81),4	379,(28, 81),4	383,(58, 81),4	387,(38, 81),4	391,(63, 81),4	395,(32, 81),4	399,(57, 81),4	403,(53, 81),4	407,(77, 81),4	411,(73, 81),4	415,(72, 81),4	419,(67, 81),4	423,(17, 81),4	427,(62, 81),4	431,(47, 81),4	455,(5, 71),218	673,(25, 81),4	677,(75, 81),4	681,(20, 81),4	685,(30, 81),4	689,(35, 81),4	693,(70, 81),4	697,(40, 81),4	701,(55, 81),4	705,(45, 81),4	709,(80, 81),4	713,(50, 81),4	717,(10, 81),4	721,(23, 81),4	725,(78, 81),4	729,(65, 81),4	733,(33, 81),4	737,(48, 81),4	741,(60, 81),4	745,(68, 81),4	3001,(49, 81),4	3005,(59, 81),4	3009,(79, 81),4	3013,(19, 81),4	3017,(54, 81),4	3021,(14, 81),4	3025,(39, 81),4	3029,(29, 81),4	3033,(69, 81),4	3037,(34, 81),4	3041,(9, 81),4	3045,(74, 81),4	3049,(64, 81),4	3053,(44, 81),4	3057,(42, 81),4	3061,(37, 81),4	
# Outgoing
117,(5, 16),170	287,(5, 21),2	289,(5, 33),4	293,(5, 48),8	301,(15, 81),4	317,(5, 64),114	431,(5, 68),24	455,(5, 71),218	673,(25, 81),4	677,(75, 81),4	681,(20, 81),4	685,(30, 81),4	689,(35, 81),4	693,(70, 81),4	697,(40, 81),4	701,(55, 81),4	705,(45, 81),4	709,(80, 81),4	713,(50, 81),4	717,(10, 81),4	729,(65, 81),4	741,(60, 81),4	3001,(5, 37),6	
11,(4, 12),24	35,(4, 28),72	107,(4, 58),4	111,(4, 70),2	113,(24, 81),4	119,(4, 57),14	187,(4, 67),6	247,(4, 42),2754	3001,(49, 81),4	3005,(59, 81),4	3009,(79, 81),4	3013,(19, 81),4	3017,(54, 81),4	3021,(14, 81),4	3025,(39, 81),4	3029,(29, 81),4	3033,(69, 81),4	3037,(34, 81),4	3041,(9, 81),4	3045,(74, 81),4	3049,(64, 81),4	3053,(44, 81),4	
91,(3, 11),6	97,(3, 14),2	99,(13, 81),4	103,(18, 81),4	107,(8, 76),2	111,(3, 32),8	119,(3, 69),24	143,(8, 34),6	167,(3, 72),20	187,(8, 50),6	193,(8, 17),20	213,(8, 62),4	221,(3, 65),62	283,(3, 74),34	317,(8, 60),10	375,(43, 81),4	379,(28, 81),4	383,(58, 81),4	387,(38, 81),4	391,(63, 81),4	403,(53, 81),4	411,(73, 81),4	431,(8, 44),22	721,(23, 81),4	725,(78, 81),4	733,(33, 81),4	737,(48, 81),4	745,(68, 81),4	
79,(2, 54),8	87,(52, 81),4	99,(7, 30),2	101,(7, 35),2	103,(7, 39),8	111,(7, 38),2	113,(7, 63),2	117,(2, 55),28	145,(7, 45),34	179,(7, 73),4	183,(7, 80),2	289,(12, 81),4	293,(22, 81),4	297,(27, 81),4	305,(7, 31),22	327,(7, 41),32	359,(7, 56),16	395,(32, 81),4	399,(57, 81),4	407,(77, 81),4	415,(72, 81),4	419,(67, 81),4	423,(17, 81),4	427,(62, 81),4	431,(47, 81),4	3057,(42, 81),4	3061,(37, 81),4	
1,(0, 2),2	3,(0, 3),2	5,(0, 4),2	7,(0, 5),2	9,(0, 7),2	11,(0, 8),2	13,(6, 19),66	79,(6, 20),20	99,(6, 22),2	101,(6, 27),10	111,(6, 29),4	115,(6, 40),2	117,(6, 53),20	137,(6, 77),30	167,(1, 9),26	193,(1, 10),28	221,(1, 23),2	223,(1, 47),24	247,(1, 78),26	
