31762
# CPU
269,3,9	278,9,9	383,11,9	403,12,9	519,13,9	31205,24,9	31285,28,9	31455,36,9	31483,10,9	31492,14,9	31545,16,9	31554,18,9	31563,20,9	31575,22,9	31585,26,9	31597,30,9	31606,32,9	31615,34,9	31643,38,9	31731,40,9	
135,2,9	144,8,9	302,6,9	31039,17,9	31065,37,9	31163,21,9	31181,23,9	31223,27,9	31287,29,9	31403,33,9	31501,15,9	31553,19,9	31577,25,9	31599,31,9	31608,35,9	31695,39,9	31761,41,1	
0,0,1	1,1,9	10,4,9	288,5,9	318,7,9	
# Incoming
135,(0, 3),134	269,(2, 12),2	271,(1, 9),2	273,(1, 10),6	279,(1, 11),104	383,(1, 12),20	403,(1, 16),6	409,(2, 10),108	517,(2, 13),2	519,(2, 14),8	527,(2, 18),18	545,(2, 24),52	597,(2, 28),28	625,(2, 34),350	975,(2, 38),4	31039,(1, 18),2	31041,(1, 20),120	31163,(1, 22),6	31181,(1, 24),24	31217,(1, 26),4	31223,(1, 28),62	31403,(1, 34),10	31413,(1, 36),42	31455,(1, 40),18	31473,(4, 10),10	31483,(4, 14),2	31501,(4, 16),44	31545,(4, 18),6	31553,(4, 20),2	31555,(4, 22),20	31577,(4, 26),8	31585,(4, 30),12	31599,(4, 32),4	31603,(4, 34),2	31607,(4, 38),36	31695,(4, 40),36	
1,(0, 2),134	269,(1, 6),2	288,(3, 6),14	318,(3, 15),4	322,(3, 17),56	378,(3, 19),20	398,(3, 21),2	400,(3, 25),2	402,(3, 29),4	409,(1, 17),30630	31039,(3, 31),8	31047,(3, 33),10	31057,(3, 37),8	31065,(3, 39),26	31091,(9, 41),10	31101,(11, 41),10	31111,(12, 41),10	31121,(13, 41),10	31161,(1, 21),2	31169,(1, 23),12	31205,(1, 25),12	31221,(1, 27),2	31223,(24, 41),10	31285,(1, 29),2	31287,(1, 31),2	31289,(1, 33),114	31403,(28, 41),10	31464,(36, 41),10	31485,(4, 15),16	31501,(10, 41),10	31511,(14, 41),10	31551,(4, 19),2	31554,(16, 41),10	31564,(18, 41),10	31575,(4, 25),2	31577,(20, 41),10	31587,(22, 41),10	31597,(4, 31),2	31605,(4, 35),2	31607,(26, 41),10	31617,(30, 41),10	31627,(32, 41),10	31643,(4, 39),52	31695,(34, 41),10	31705,(38, 41),10	31731,(5, 41),10	31741,(7, 41),10	31751,(40, 41),10	
144,(2, 7),12	278,(3, 5),10	302,(3, 7),16	
# Outgoing
278,(3, 5),10	288,(3, 6),14	302,(3, 7),16	318,(3, 15),4	322,(3, 17),56	378,(3, 19),20	398,(3, 21),2	400,(3, 25),2	402,(3, 29),4	31039,(3, 31),8	31047,(3, 33),10	31057,(3, 37),8	31065,(3, 39),26	31091,(9, 41),10	31101,(11, 41),10	31111,(12, 41),10	31121,(13, 41),10	31223,(24, 41),10	31403,(28, 41),10	31464,(36, 41),10	31501,(10, 41),10	31511,(14, 41),10	31554,(16, 41),10	31564,(18, 41),10	31577,(20, 41),10	31587,(22, 41),10	31607,(26, 41),10	31617,(30, 41),10	31627,(32, 41),10	31695,(34, 41),10	31705,(38, 41),10	31751,(40, 41),10	
144,(2, 7),12	269,(2, 12),2	409,(2, 10),108	517,(2, 13),2	519,(2, 14),8	527,(2, 18),18	545,(2, 24),52	597,(2, 28),28	625,(2, 34),350	975,(2, 38),4	
1,(0, 2),134	135,(0, 3),134	269,(1, 6),2	271,(1, 9),2	273,(1, 10),6	279,(1, 11),104	383,(1, 12),20	403,(1, 16),6	409,(1, 17),30630	31039,(1, 18),2	31041,(1, 20),120	31161,(1, 21),2	31163,(1, 22),6	31169,(1, 23),12	31181,(1, 24),24	31205,(1, 25),12	31217,(1, 26),4	31221,(1, 27),2	31223,(1, 28),62	31285,(1, 29),2	31287,(1, 31),2	31289,(1, 33),114	31403,(1, 34),10	31413,(1, 36),42	31455,(1, 40),18	31473,(4, 10),10	31483,(4, 14),2	31485,(4, 15),16	31501,(4, 16),44	31545,(4, 18),6	31551,(4, 19),2	31553,(4, 20),2	31555,(4, 22),20	31575,(4, 25),2	31577,(4, 26),8	31585,(4, 30),12	31597,(4, 31),2	31599,(4, 32),4	31603,(4, 34),2	31605,(4, 35),2	31607,(4, 38),36	31643,(4, 39),52	31695,(4, 40),36	31731,(5, 41),10	31741,(7, 41),10	
