358
# CPU
217,14,8	250,6,8	258,10,8	266,18,8	
208,5,8	216,13,8	268,17,8	277,9,8	
160,2,8	168,4,8	176,12,8	184,16,8	211,8,8	346,20,8	
0,0,1	1,1,8	9,7,8	17,15,8	25,11,8	33,19,8	216,3,8	357,21,1	
# Incoming
214,(1, 14),3	217,(2, 6),33	250,(2, 10),3	253,(2, 18),3	
160,(1, 5),48	211,(1, 13),3	217,(1, 17),51	268,(2, 9),9	
1,(0, 2),159	208,(1, 8),3	268,(1, 20),78	
168,(2, 3),48	216,(5, 21),3	224,(13, 21),3	227,(14, 21),3	256,(4, 21),3	259,(12, 21),3	262,(16, 21),3	265,(8, 21),3	268,(6, 21),3	271,(10, 21),3	274,(18, 21),3	277,(17, 21),3	285,(9, 21),3	354,(20, 21),3	
# Outgoing
227,(14, 21),3	268,(6, 21),3	271,(10, 21),3	274,(18, 21),3	
216,(5, 21),3	224,(13, 21),3	277,(17, 21),3	285,(9, 21),3	
168,(2, 3),48	217,(2, 6),33	250,(2, 10),3	253,(2, 18),3	256,(4, 21),3	259,(12, 21),3	262,(16, 21),3	265,(8, 21),3	268,(2, 9),9	354,(20, 21),3	
1,(0, 2),159	160,(1, 5),48	208,(1, 8),3	211,(1, 13),3	214,(1, 14),3	217,(1, 17),51	268,(1, 20),78	
