5242
# CPU
109,4,1	110,12,1	111,20,1	112,28,1	117,8,1	121,16,1	129,40,1	245,24,1	1077,32,1	2865,36,1	
73,3,1	74,11,1	75,19,1	76,23,1	77,27,1	89,15,1	249,31,1	1321,35,1	1681,7,1	2877,39,1	
37,2,1	38,6,1	39,26,1	40,38,1	106,22,1	149,14,1	1081,34,1	1697,10,1	1773,18,1	1957,30,1	
0,0,1	1,1,1	2,17,1	42,13,1	86,9,1	613,29,1	629,37,1	1665,5,1	1885,21,1	1889,25,1	2145,33,1	5241,41,1	
# Incoming
73,(0, 4),36	109,(1, 8),8	117,(3, 16),4	121,(3, 40),8	149,(1, 24),96	249,(1, 32),828	1321,(1, 36),1544	
37,(0, 3),36	73,(2, 15),16	245,(1, 31),4	1081,(1, 35),240	1665,(4, 7),16	2865,(1, 39),12	
1,(0, 2),36	86,(3, 22),20	117,(1, 14),32	1077,(1, 34),4	1681,(4, 10),16	1697,(4, 18),76	1889,(4, 30),68	
38,(2, 13),4	74,(3, 9),12	89,(6, 41),172	261,(26, 41),172	433,(38, 41),172	605,(3, 29),8	613,(3, 37),16	629,(11, 41),172	801,(19, 41),172	973,(23, 41),172	1145,(27, 41),172	1317,(15, 41),172	1489,(22, 41),172	1661,(4, 5),4	1773,(4, 21),112	1885,(4, 25),4	1957,(4, 33),188	2145,(12, 41),172	2317,(20, 41),172	2489,(28, 41),172	2661,(8, 41),172	2833,(16, 41),172	3005,(40, 41),172	3177,(14, 41),172	3349,(24, 41),172	3521,(31, 41),172	3693,(32, 41),172	3865,(34, 41),172	4037,(35, 41),172	4209,(7, 41),172	4381,(10, 41),172	4553,(18, 41),172	4725,(30, 41),172	4897,(36, 41),172	5069,(39, 41),172	
# Outgoing
1661,(4, 5),4	1665,(4, 7),16	1681,(4, 10),16	1697,(4, 18),76	1773,(4, 21),112	1885,(4, 25),4	1889,(4, 30),68	1957,(4, 33),188	2145,(12, 41),172	2317,(20, 41),172	2489,(28, 41),172	2661,(8, 41),172	2833,(16, 41),172	3005,(40, 41),172	3349,(24, 41),172	3693,(32, 41),172	4897,(36, 41),172	
74,(3, 9),12	86,(3, 22),20	117,(3, 16),4	121,(3, 40),8	605,(3, 29),8	613,(3, 37),16	629,(11, 41),172	801,(19, 41),172	973,(23, 41),172	1145,(27, 41),172	1317,(15, 41),172	3521,(31, 41),172	4037,(35, 41),172	4209,(7, 41),172	5069,(39, 41),172	
38,(2, 13),4	73,(2, 15),16	89,(6, 41),172	261,(26, 41),172	433,(38, 41),172	1489,(22, 41),172	3177,(14, 41),172	3865,(34, 41),172	4381,(10, 41),172	4553,(18, 41),172	4725,(30, 41),172	
1,(0, 2),36	37,(0, 3),36	73,(0, 4),36	109,(1, 8),8	117,(1, 14),32	149,(1, 24),96	245,(1, 31),4	249,(1, 32),828	1077,(1, 34),4	1081,(1, 35),240	1321,(1, 36),1544	2865,(1, 39),12	
