483
# CPU
10,4,1	11,15,1	12,16,1	13,39,1	14,27,1	28,13,1	37,20,1	55,14,1	76,21,1	85,22,1	88,17,1	97,19,1	244,25,1	247,31,1	268,38,1	274,30,1	277,32,1	286,33,1	289,36,1	343,40,1	379,37,1	482,41,1	
7,3,1	13,9,1	16,12,1	40,23,1	88,26,1	193,29,1	292,35,1	391,28,1	
4,2,1	97,24,1	145,11,1	151,6,1	475,34,1	
0,0,1	1,1,1	2,7,1	3,8,1	23,5,1	95,10,1	388,18,1	
# Incoming
7,(0, 4),3	16,(1, 13),12	28,(1, 20),9	37,(2, 14),18	55,(2, 21),21	76,(2, 22),9	85,(3, 17),3	88,(3, 19),9	97,(1, 32),123	220,(2, 25),24	244,(2, 31),3	247,(2, 33),3	250,(2, 38),18	268,(2, 40),3	271,(3, 30),3	274,(3, 32),3	277,(3, 33),9	286,(3, 36),3	292,(1, 40),51	343,(7, 41),6	349,(8, 41),6	355,(3, 37),24	379,(9, 41),6	385,(12, 41),6	391,(5, 41),6	397,(23, 41),6	403,(26, 41),6	409,(10, 41),6	415,(24, 41),6	421,(11, 41),6	427,(6, 41),6	433,(29, 41),6	439,(35, 41),6	445,(18, 41),6	451,(28, 41),6	476,(34, 41),6	
4,(0, 3),3	10,(1, 9),3	13,(1, 12),3	37,(1, 23),3	85,(2, 26),3	88,(2, 28),48	136,(2, 29),57	220,(1, 35),72	388,(4, 28),3	
1,(0, 2),3	17,(3, 34),18	40,(1, 24),57	97,(3, 11),48	145,(4, 6),6	391,(4, 34),84	
8,(3, 10),9	17,(4, 5),6	23,(4, 10),72	151,(4, 18),237	
# Outgoing
17,(4, 5),6	23,(4, 10),72	145,(4, 6),6	151,(4, 18),237	388,(4, 28),3	391,(4, 34),84	
8,(3, 10),9	17,(3, 34),18	85,(3, 17),3	88,(3, 19),9	97,(3, 11),48	271,(3, 30),3	274,(3, 32),3	277,(3, 33),9	286,(3, 36),3	355,(3, 37),24	379,(9, 41),6	385,(12, 41),6	397,(23, 41),6	403,(26, 41),6	433,(29, 41),6	439,(35, 41),6	451,(28, 41),6	
37,(2, 14),18	55,(2, 21),21	76,(2, 22),9	85,(2, 26),3	88,(2, 28),48	136,(2, 29),57	220,(2, 25),24	244,(2, 31),3	247,(2, 33),3	250,(2, 38),18	268,(2, 40),3	415,(24, 41),6	421,(11, 41),6	427,(6, 41),6	476,(34, 41),6	
1,(0, 2),3	4,(0, 3),3	7,(0, 4),3	10,(1, 9),3	13,(1, 12),3	16,(1, 13),12	28,(1, 20),9	37,(1, 23),3	40,(1, 24),57	97,(1, 32),123	220,(1, 35),72	292,(1, 40),51	343,(7, 41),6	349,(8, 41),6	391,(5, 41),6	409,(10, 41),6	445,(18, 41),6	
