196
# CPU
0,0,1	1,10,1	2,163,1	3,7,1	4,14,1	5,173,1	6,191,1	7,15,1	8,196,1	9,113,1	10,161,1	11,9,1	12,123,1	13,6,1	14,117,1	15,4,1	16,93,1	17,68,1	18,33,1	19,198,1	20,90,1	21,125,1	22,20,1	23,96,1	24,60,1	25,197,1	26,36,1	27,115,1	28,13,1	29,64,1	30,58,1	31,175,1	32,83,1	33,177,1	34,85,1	35,8,1	36,1,1	37,168,1	38,80,1	39,28,1	40,2,1	41,151,1	42,122,1	43,88,1	44,71,1	45,160,1	46,164,1	47,86,1	48,51,1	49,81,1	50,127,1	51,16,1	52,188,1	53,100,1	54,187,1	55,181,1	56,54,1	57,194,1	58,84,1	59,78,1	60,70,1	61,97,1	62,29,1	63,48,1	64,5,1	65,31,1	66,172,1	67,162,1	68,124,1	69,38,1	70,73,1	71,139,1	72,25,1	73,101,1	74,185,1	75,62,1	76,94,1	77,42,1	78,152,1	79,119,1	80,11,1	81,141,1	82,41,1	83,65,1	84,199,1	85,112,1	86,66,1	87,103,1	88,140,1	89,32,1	90,45,1	91,76,1	92,12,1	93,154,1	94,133,1	95,179,1	96,102,1	97,99,1	98,107,1	99,170,1	100,180,1	101,92,1	102,3,1	103,157,1	104,135,1	105,146,1	106,155,1	107,49,1	108,137,1	109,200,1	110,98,1	111,34,1	112,22,1	113,142,1	114,17,1	115,183,1	116,145,1	117,190,1	118,174,1	119,91,1	120,37,1	121,26,1	122,126,1	123,43,1	124,118,1	125,52,1	126,132,1	127,147,1	128,87,1	129,171,1	130,193,1	131,108,1	132,120,1	133,53,1	134,95,1	135,50,1	136,148,1	137,19,1	138,189,1	139,131,1	140,57,1	141,106,1	142,61,1	143,184,1	144,39,1	145,116,1	146,75,1	147,79,1	148,67,1	149,72,1	150,192,1	151,134,1	152,195,1	153,47,1	154,110,1	155,136,1	156,153,1	157,104,1	158,166,1	159,111,1	160,159,1	161,74,1	162,18,1	163,82,1	164,24,1	165,150,1	166,149,1	167,176,1	168,46,1	169,56,1	170,114,1	171,165,1	172,63,1	173,30,1	174,69,1	175,178,1	176,129,1	177,77,1	178,138,1	179,23,1	180,121,1	181,130,1	182,144,1	183,59,1	184,105,1	185,21,1	186,55,1	187,182,1	188,167,1	189,128,1	190,158,1	191,35,1	192,44,1	193,186,1	194,143,1	195,201,1	
58,89,1	105,27,1	117,109,1	140,40,1	165,169,1	167,156,1	
# Incoming
59,(89, 201),4	106,(27, 201),4	118,(109, 201),4	141,(40, 201),4	166,(169, 201),4	170,(156, 201),4	
5,(14, 89),2	8,(15, 27),6	14,(6, 89),42	56,(16, 89),2	58,(9, 27),16	74,(1, 27),2	76,(10, 109),22	98,(15, 40),2	100,(12, 169),2	103,(3, 27),2	105,(4, 169),10	115,(17, 109),2	117,(12, 40),14	131,(6, 156),6	138,(19, 40),2	140,(4, 156),2	142,(20, 156),12	154,(2, 156),2	163,(18, 169),2	165,(18, 156),2	
# Outgoing
5,(14, 89),2	8,(15, 27),6	14,(6, 89),42	56,(16, 89),2	58,(9, 27),16	74,(1, 27),2	76,(10, 109),22	98,(15, 40),2	100,(12, 169),2	103,(3, 27),2	105,(4, 169),10	115,(17, 109),2	117,(12, 40),14	131,(6, 156),6	138,(19, 40),2	140,(4, 156),2	142,(20, 156),12	154,(2, 156),2	163,(18, 169),2	165,(18, 156),2	
59,(89, 201),4	106,(27, 201),4	118,(109, 201),4	141,(40, 201),4	166,(169, 201),4	170,(156, 201),4	
