5123
# CPU
7,3,318	325,15,318	643,9,318	961,21,318	1279,24,318	1597,27,318	1915,12,318	2233,30,318	2551,33,318	2869,6,318	3187,18,318	3505,36,318	3823,39,318	
4,2,318	322,5,318	640,32,318	958,35,318	1276,14,318	1594,26,318	1912,23,318	2230,29,318	2548,11,318	2866,17,318	3184,8,318	3502,20,318	3820,38,318	
0,0,1	1,4,318	319,1,318	637,19,318	955,37,318	1273,10,318	1591,34,318	1909,31,318	2227,22,318	2545,7,318	2863,28,318	3181,13,318	3499,40,318	3817,16,318	4135,25,318	5122,41,1	
# Incoming
4,(0, 3),3	319,(4, 15),3	325,(4, 24),36	361,(4, 27),15	376,(2, 12),12	559,(2, 30),69	628,(2, 33),3	637,(1, 6),54	694,(1, 18),21	733,(1, 36),42	832,(1, 39),15	
1,(0, 2),3	322,(4, 23),3	376,(4, 29),60	565,(3, 11),72	637,(3, 17),3	691,(1, 8),3	715,(1, 20),18	775,(1, 38),57	
388,(2, 22),171	559,(3, 7),6	631,(2, 40),30	661,(3, 16),33	694,(3, 25),36	730,(5, 41),183	913,(15, 41),183	1096,(32, 41),183	1279,(9, 41),183	1462,(35, 41),183	1645,(21, 41),183	1828,(14, 41),183	2011,(24, 41),183	2194,(26, 41),183	2377,(27, 41),183	2560,(23, 41),183	2743,(12, 41),183	2926,(29, 41),183	3109,(30, 41),183	3292,(11, 41),183	3475,(33, 41),183	3658,(17, 41),183	3841,(6, 41),183	4024,(8, 41),183	4207,(18, 41),183	4390,(20, 41),183	4573,(36, 41),183	4756,(38, 41),183	4939,(39, 41),183	
# Outgoing
559,(3, 7),6	565,(3, 11),72	637,(3, 17),3	661,(3, 16),33	694,(3, 25),36	913,(15, 41),183	1279,(9, 41),183	1645,(21, 41),183	2011,(24, 41),183	2377,(27, 41),183	2743,(12, 41),183	3109,(30, 41),183	3475,(33, 41),183	3841,(6, 41),183	4207,(18, 41),183	4573,(36, 41),183	4939,(39, 41),183	
376,(2, 12),12	388,(2, 22),171	559,(2, 30),69	628,(2, 33),3	631,(2, 40),30	730,(5, 41),183	1096,(32, 41),183	1462,(35, 41),183	1828,(14, 41),183	2194,(26, 41),183	2560,(23, 41),183	2926,(29, 41),183	3292,(11, 41),183	3658,(17, 41),183	4024,(8, 41),183	4390,(20, 41),183	4756,(38, 41),183	
1,(0, 2),3	4,(0, 3),3	319,(4, 15),3	322,(4, 23),3	325,(4, 24),36	361,(4, 27),15	376,(4, 29),60	637,(1, 6),54	691,(1, 8),3	694,(1, 18),21	715,(1, 20),18	733,(1, 36),42	775,(1, 38),57	832,(1, 39),15	
