161
# CPU
0,0,1	1,1,12	13,9,12	25,3,12	37,19,12	49,6,12	61,14,12	79,10,12	91,16,12	118,4,12	
16,12,12	64,2,12	76,7,12	88,15,12	100,5,12	112,11,12	124,8,12	136,20,12	148,18,12	160,21,1	
19,13,12	82,17,12	
# Incoming
76,(2, 10),3	82,(2, 16),6	88,(2, 4),30	
13,(1, 12),3	19,(0, 2),45	64,(1, 18),6	70,(9, 21),3	73,(13, 21),3	76,(3, 21),3	79,(19, 21),3	82,(6, 21),3	85,(14, 21),3	91,(10, 21),3	94,(17, 21),3	103,(16, 21),3	130,(4, 21),3	
16,(1, 13),3	79,(2, 17),3	
# Outgoing
13,(1, 12),3	16,(1, 13),3	19,(0, 2),45	64,(1, 18),6	70,(9, 21),3	76,(3, 21),3	79,(19, 21),3	82,(6, 21),3	85,(14, 21),3	91,(10, 21),3	103,(16, 21),3	130,(4, 21),3	
76,(2, 10),3	79,(2, 17),3	82,(2, 16),6	88,(2, 4),30	
73,(13, 21),3	94,(17, 21),3	
