1777
# CPU
85,5,5	133,13,5	181,50,5	190,65,5	286,70,5	430,15,5	451,20,5	529,30,5	553,40,5	640,55,5	670,60,5	778,25,5	1048,80,5	1345,75,5	1498,35,5	1768,45,5	
64,4,5	121,9,5	148,29,5	154,24,5	268,59,5	340,79,5	412,34,5	433,19,5	457,49,5	514,39,5	532,54,5	550,14,5	628,44,5	691,69,5	880,64,5	1108,74,5	
43,3,5	48,28,5	53,48,5	96,18,5	127,8,5	169,33,5	174,43,5	179,63,5	184,73,5	316,38,5	325,53,5	340,78,5	373,12,5	433,58,5	463,68,5	487,23,5	
22,2,5	106,7,5	111,27,5	116,32,5	127,77,5	133,17,5	271,67,5	343,11,5	433,47,5	469,22,5	541,37,5	568,42,5	622,57,5	637,52,5	760,62,5	862,72,5	
0,0,1	1,1,5	6,6,5	60,16,5	65,21,5	84,66,5	99,76,5	148,31,5	328,41,5	355,10,5	360,26,5	373,36,5	406,56,5	469,51,5	604,46,5	625,61,5	631,71,5	1776,81,1	
# Incoming
64,(0, 5),21	85,(3, 35),3	88,(3, 65),3	91,(3, 70),3	94,(2, 30),12	106,(4, 13),27	133,(4, 15),3	136,(8, 50),3	139,(1, 40),39	178,(2, 50),3	184,(4, 55),3	187,(4, 65),3	190,(4, 80),3	220,(3, 75),27	274,(1, 70),12	298,(2, 75),15	373,(6, 15),57	433,(6, 20),18	451,(7, 80),21	496,(8, 30),33	541,(6, 40),12	637,(6, 55),3	640,(6, 60),30	670,(7, 25),108	880,(3, 80),168	1048,(4, 75),297	1345,(8, 35),153	1498,(8, 45),270	
43,(0, 4),21	64,(2, 14),15	79,(2, 24),15	94,(3, 29),15	109,(3, 34),9	118,(5, 9),3	121,(5, 74),3	133,(1, 29),6	139,(8, 29),9	148,(2, 79),3	151,(7, 24),3	154,(7, 34),9	178,(1, 44),3	181,(1, 59),87	271,(1, 69),3	274,(3, 54),18	292,(1, 79),48	340,(5, 34),72	412,(5, 49),12	430,(6, 19),3	433,(3, 49),24	457,(3, 69),39	496,(7, 39),18	514,(7, 54),18	532,(8, 14),18	568,(6, 44),60	670,(6, 69),21	691,(3, 64),189	1048,(8, 74),60	
22,(0, 3),21	43,(2, 73),9	69,(4, 12),9	78,(4, 18),18	106,(0, 8),21	127,(5, 33),42	169,(5, 43),3	172,(5, 63),3	175,(5, 73),3	181,(2, 53),81	262,(2, 68),36	313,(7, 38),3	316,(7, 53),9	328,(4, 78),12	343,(6, 12),30	373,(4, 58),60	433,(4, 68),30	469,(6, 23),18	
1,(0, 2),21	63,(3, 42),9	85,(0, 7),21	118,(3, 77),9	127,(1, 17),6	133,(8, 11),3	136,(4, 42),33	169,(4, 47),15	184,(5, 37),6	190,(5, 57),12	268,(1, 67),3	286,(1, 72),6	292,(8, 22),30	340,(6, 11),3	343,(3, 47),90	451,(6, 22),18	487,(6, 37),54	553,(6, 42),15	568,(4, 57),54	628,(6, 52),9	637,(5, 62),123	760,(5, 72),102	
27,(2, 10),6	33,(2, 76),3	48,(3, 16),12	60,(3, 21),3	72,(3, 66),12	96,(4, 76),3	106,(2, 31),42	148,(3, 36),57	205,(3, 71),15	220,(4, 46),24	244,(9, 81),3	247,(28, 81),3	250,(48, 81),3	253,(4, 41),75	328,(18, 81),3	331,(7, 10),24	355,(7, 26),3	358,(7, 36),15	373,(7, 56),33	406,(27, 81),3	409,(32, 81),3	412,(77, 81),3	415,(17, 81),3	418,(67, 81),3	421,(11, 81),3	424,(5, 51),45	469,(13, 81),3	472,(29, 81),3	475,(24, 81),3	478,(50, 81),3	481,(65, 81),3	484,(59, 81),3	487,(70, 81),3	490,(79, 81),3	493,(34, 81),3	496,(15, 81),3	499,(19, 81),3	502,(20, 81),3	505,(49, 81),3	519,(39, 81),3	529,(33, 81),3	532,(7, 61),54	586,(8, 46),18	604,(8, 61),21	625,(8, 71),6	631,(43, 81),3	634,(63, 81),3	637,(73, 81),3	640,(38, 81),3	643,(53, 81),3	646,(78, 81),3	649,(12, 81),3	652,(47, 81),3	655,(58, 81),3	658,(68, 81),3	661,(22, 81),3	664,(23, 81),3	667,(54, 81),3	670,(14, 81),3	673,(44, 81),3	696,(69, 81),3	778,(37, 81),3	781,(42, 81),3	784,(57, 81),3	787,(52, 81),3	790,(62, 81),3	862,(30, 81),3	865,(40, 81),3	868,(55, 81),3	871,(60, 81),3	874,(25, 81),3	877,(72, 81),3	885,(64, 81),3	1053,(80, 81),3	1345,(74, 81),3	1350,(75, 81),3	1503,(35, 81),3	1773,(45, 81),3	
# Outgoing
118,(5, 9),3	121,(5, 74),3	127,(5, 33),42	169,(5, 43),3	172,(5, 63),3	175,(5, 73),3	184,(5, 37),6	190,(5, 57),12	340,(5, 34),72	412,(5, 49),12	424,(5, 51),45	469,(13, 81),3	478,(50, 81),3	481,(65, 81),3	487,(70, 81),3	496,(15, 81),3	502,(20, 81),3	637,(5, 62),123	760,(5, 72),102	862,(30, 81),3	865,(40, 81),3	868,(55, 81),3	871,(60, 81),3	874,(25, 81),3	1053,(80, 81),3	1350,(75, 81),3	1503,(35, 81),3	1773,(45, 81),3	
69,(4, 12),9	78,(4, 18),18	96,(4, 76),3	106,(4, 13),27	133,(4, 15),3	136,(4, 42),33	169,(4, 47),15	184,(4, 55),3	187,(4, 65),3	190,(4, 80),3	220,(4, 46),24	244,(9, 81),3	253,(4, 41),75	328,(4, 78),12	373,(4, 58),60	433,(4, 68),30	472,(29, 81),3	475,(24, 81),3	484,(59, 81),3	490,(79, 81),3	493,(34, 81),3	499,(19, 81),3	505,(49, 81),3	519,(39, 81),3	568,(4, 57),54	667,(54, 81),3	670,(14, 81),3	673,(44, 81),3	696,(69, 81),3	885,(64, 81),3	1048,(4, 75),297	1345,(74, 81),3	
48,(3, 16),12	60,(3, 21),3	63,(3, 42),9	72,(3, 66),12	85,(3, 35),3	88,(3, 65),3	91,(3, 70),3	94,(3, 29),15	109,(3, 34),9	118,(3, 77),9	133,(8, 11),3	136,(8, 50),3	139,(8, 29),9	148,(3, 36),57	205,(3, 71),15	220,(3, 75),27	247,(28, 81),3	250,(48, 81),3	274,(3, 54),18	292,(8, 22),30	328,(18, 81),3	343,(3, 47),90	433,(3, 49),24	457,(3, 69),39	496,(8, 30),33	529,(33, 81),3	532,(8, 14),18	586,(8, 46),18	604,(8, 61),21	625,(8, 71),6	631,(43, 81),3	634,(63, 81),3	637,(73, 81),3	640,(38, 81),3	643,(53, 81),3	646,(78, 81),3	649,(12, 81),3	655,(58, 81),3	658,(68, 81),3	664,(23, 81),3	691,(3, 64),189	880,(3, 80),168	1048,(8, 74),60	1345,(8, 35),153	1498,(8, 45),270	
27,(2, 10),6	33,(2, 76),3	43,(2, 73),9	64,(2, 14),15	79,(2, 24),15	94,(2, 30),12	106,(2, 31),42	148,(2, 79),3	151,(7, 24),3	154,(7, 34),9	178,(2, 50),3	181,(2, 53),81	262,(2, 68),36	298,(2, 75),15	313,(7, 38),3	316,(7, 53),9	331,(7, 10),24	355,(7, 26),3	358,(7, 36),15	373,(7, 56),33	406,(27, 81),3	409,(32, 81),3	412,(77, 81),3	415,(17, 81),3	418,(67, 81),3	421,(11, 81),3	451,(7, 80),21	496,(7, 39),18	514,(7, 54),18	532,(7, 61),54	652,(47, 81),3	661,(22, 81),3	670,(7, 25),108	778,(37, 81),3	781,(42, 81),3	784,(57, 81),3	787,(52, 81),3	790,(62, 81),3	877,(72, 81),3	
1,(0, 2),21	22,(0, 3),21	43,(0, 4),21	64,(0, 5),21	85,(0, 7),21	106,(0, 8),21	127,(1, 17),6	133,(1, 29),6	139,(1, 40),39	178,(1, 44),3	181,(1, 59),87	268,(1, 67),3	271,(1, 69),3	274,(1, 70),12	286,(1, 72),6	292,(1, 79),48	340,(6, 11),3	343,(6, 12),30	373,(6, 15),57	430,(6, 19),3	433,(6, 20),18	451,(6, 22),18	469,(6, 23),18	487,(6, 37),54	541,(6, 40),12	553,(6, 42),15	568,(6, 44),60	628,(6, 52),9	637,(6, 55),3	640,(6, 60),30	670,(6, 69),21	
