73
# CPU
0,0,1	1,2,5	6,5,5	11,10,5	16,3,5	21,17,5	26,7,5	31,4,5	36,18,5	41,11,5	
8,13,5	14,12,5	24,1,5	29,19,5	34,9,5	39,8,5	44,20,5	49,15,5	54,6,5	72,21,1	
37,14,5	
43,16,5	

# Incoming

6,(2, 13),2	8,(2, 12),6	14,(0, 1),10	32,(5, 21),4	36,(10, 21),4	40,(3, 21),4	44,(17, 21),4	48,(7, 21),4	52,(4, 21),4	56,(18, 21),4	60,(14, 21),4	64,(11, 21),4	68,(16, 21),4	
29,(1, 14),8	
24,(2, 16),8	37,(1, 16),6	

# Outgoing
6,(2, 13),2	8,(2, 12),6	14,(0, 1),10	24,(2, 16),8	32,(5, 21),4	36,(10, 21),4	40,(3, 21),4	44,(17, 21),4	48,(7, 21),4	52,(4, 21),4	56,(18, 21),4	64,(11, 21),4	
29,(1, 14),8	37,(1, 16),6	
60,(14, 21),4	
68,(16, 21),4	

