38
# CPU
0,0,1	1,1,2	3,5,2	5,4,2	7,18,2	9,14,2	11,8,2	13,11,2	15,12,2	17,2,2	19,6,2	21,16,2	23,9,2	25,10,2	27,20,2	29,19,2	31,7,2	33,3,2	35,13,2	37,21,1	
9,15,2	23,17,2	

# Incoming
11,(15, 21),4	25,(17, 21),4	
3,(1, 15),6	19,(2, 17),4	

# Outgoing
3,(1, 15),6	19,(2, 17),4	
11,(15, 21),4	25,(17, 21),4	

