16646
# CPU
529,5,3	3478,22,3	3736,28,3	5251,62,3	5347,66,3	5680,44,3	5689,21,3	5692,24,3	5923,31,3	5986,34,3	6013,27,3	6043,23,3	6085,38,3	6100,46,3	6196,68,3	6232,30,3	6331,58,3	6403,26,3	6418,64,3	6433,42,3	6448,70,3	6478,29,3	6493,72,3	6553,32,3	6787,49,3	6946,56,3	7075,60,3	7906,52,3	7975,77,3	8032,18,3	9190,36,3	9244,40,3	9349,79,3	9427,74,3	
397,4,3	2341,19,3	2938,25,3	3424,33,3	3598,45,3	3739,51,3	5359,67,3	5557,80,3	5596,15,3	5680,20,3	6013,35,3	6040,37,3	6055,39,3	6085,41,3	6097,43,3	6109,48,3	6205,55,3	6232,57,3	6340,59,3	6370,61,3	6415,63,3	6439,65,3	6445,69,3	6490,71,3	6535,73,3	6562,76,3	6628,78,3	16645,81,1	
265,3,3	793,8,3	1804,47,3	3700,50,3	5566,12,3	5620,17,3	6148,53,3	6151,54,3	
133,2,3	661,7,3	832,11,3	913,14,3	1489,16,3	
0,0,1	1,6,3	4,1,3	565,10,3	826,9,3	1282,13,3	16636,75,3	
# Incoming
397,(0, 5),132	529,(3, 22),48	577,(3, 23),18	595,(2, 18),27	622,(3, 27),3	625,(3, 28),3	628,(2, 21),153	781,(2, 22),3	784,(2, 24),21	805,(2, 26),9	814,(2, 29),60	874,(2, 31),24	898,(6, 18),12	910,(2, 46),9	919,(2, 58),21	940,(2, 64),3	943,(3, 30),3	946,(3, 31),6	952,(6, 21),27	979,(6, 24),15	994,(6, 26),153	1147,(6, 27),27	1174,(6, 31),12	1186,(6, 32),2235	3421,(3, 58),3	3424,(6, 36),6	3430,(3, 26),12	3442,(3, 29),12	3454,(3, 49),6	3460,(3, 64),3	3463,(3, 77),3	3466,(4, 26),3	3469,(6, 40),3	3472,(4, 22),6	3478,(4, 30),3	3481,(4, 31),3	3484,(6, 42),12	3496,(2, 36),48	3544,(3, 36),27	3571,(3, 52),21	3592,(4, 34),6	3598,(6, 46),3	3601,(6, 49),27	3628,(2, 79),60	3688,(3, 46),39	3727,(4, 28),9	3736,(4, 42),3	3739,(6, 52),1317	5056,(3, 42),60	5116,(3, 60),15	5131,(4, 60),3	5134,(4, 62),3	5137,(6, 56),81	5218,(7, 32),3	5221,(6, 58),3	5224,(4, 49),9	5233,(7, 38),3	5236,(6, 62),15	5251,(7, 52),3	5254,(6, 64),9	5263,(6, 66),84	5347,(4, 56),9	5356,(7, 70),3	5359,(6, 70),63	5422,(7, 72),6	5428,(8, 18),3	5431,(6, 74),3	5434,(6, 77),81	5515,(4, 70),21	5536,(8, 21),3	5539,(6, 79),3	5542,(3, 72),54	5596,(4, 79),12	5608,(7, 23),12	5620,(1, 18),12	5632,(4, 38),30	5662,(7, 34),15	5677,(8, 44),3	5680,(1, 21),9	5689,(1, 24),3	5692,(1, 26),3	5695,(1, 27),174	5869,(1, 29),3	5872,(1, 30),48	5920,(1, 31),3	5923,(1, 32),39	5962,(1, 34),24	5986,(7, 60),18	6004,(8, 27),9	6013,(1, 36),18	6031,(8, 23),12	6043,(8, 32),12	6055,(1, 40),24	6079,(8, 38),6	6085,(1, 42),9	6094,(8, 77),3	6097,(1, 46),3	6100,(3, 68),96	6196,(8, 49),9	6205,(1, 56),6	6211,(8, 30),21	6232,(1, 58),99	6340,(1, 60),27	6367,(8, 26),36	6403,(8, 36),12	6415,(1, 64),3	6418,(8, 42),15	6433,(8, 72),12	6445,(1, 70),3	6448,(8, 29),30	6478,(8, 79),12	6490,(1, 72),3	6493,(4, 32),60	6562,(1, 77),63	6625,(2, 49),162	6787,(2, 56),159	6946,(2, 60),129	7075,(3, 40),588	7663,(3, 74),141	7804,(4, 36),51	7855,(4, 52),51	7906,(4, 77),69	7975,(7, 18),57	8032,(7, 36),1158	9190,(7, 40),54	9244,(7, 79),105	9349,(8, 74),78	
265,(0, 4),132	397,(2, 15),15	412,(3, 25),9	421,(3, 33),12	433,(3, 37),6	439,(3, 43),3	442,(3, 51),36	478,(3, 55),3	481,(3, 63),9	490,(3, 67),12	502,(3, 71),9	565,(5, 20),15	580,(5, 37),6	586,(5, 43),6	592,(5, 69),3	595,(5, 73),6	622,(2, 20),6	628,(3, 41),195	826,(8, 19),3	829,(6, 15),3	832,(5, 15),45	877,(5, 57),21	898,(2, 37),12	910,(6, 19),3	913,(6, 20),39	952,(2, 35),33	985,(2, 39),78	1063,(2, 48),24	1087,(2, 51),378	1465,(2, 55),3	1468,(2, 59),12	1480,(2, 61),3	1483,(2, 65),93	1576,(2, 67),6	1582,(2, 71),15	1597,(2, 76),9	1606,(2, 78),192	1798,(2, 80),3	1801,(3, 57),258	2059,(3, 65),105	2164,(5, 25),27	2191,(5, 41),39	2230,(5, 51),39	2269,(5, 61),12	2281,(5, 67),15	2296,(5, 78),12	2308,(7, 19),33	2341,(7, 25),9	2350,(7, 37),3	2353,(7, 43),12	2365,(7, 45),3	2368,(7, 51),15	2383,(7, 55),45	2428,(7, 57),81	2509,(7, 59),3	2512,(7, 63),15	2527,(7, 65),3	2530,(7, 67),3	2533,(7, 69),336	2869,(7, 76),3	2872,(7, 78),9	2881,(7, 80),3	2884,(8, 25),54	2938,(8, 35),9	2947,(8, 39),60	3007,(8, 43),6	3013,(8, 48),39	3052,(8, 51),36	3088,(8, 55),51	3139,(8, 59),6	3145,(8, 61),6	3151,(8, 65),33	3184,(8, 69),3	3187,(8, 78),9	3196,(11, 81),6	3202,(14, 81),6	3208,(16, 81),6	3214,(47, 81),6	3421,(6, 33),3	3430,(6, 37),39	3472,(6, 41),12	3484,(22, 81),6	3496,(6, 45),102	3700,(6, 51),39	3739,(50, 81),6	3745,(28, 81),6	5218,(6, 57),3	5224,(6, 59),9	5233,(6, 61),3	5251,(6, 63),3	5254,(62, 81),6	5347,(6, 67),12	5359,(66, 81),6	5422,(6, 71),3	5425,(6, 73),6	5515,(6, 78),24	5542,(6, 80),15	5566,(1, 15),30	5596,(12, 81),6	5623,(17, 81),6	5632,(1, 20),48	5683,(44, 81),6	5692,(21, 81),6	5698,(24, 81),6	5926,(31, 81),6	5986,(1, 35),27	6013,(34, 81),6	6019,(27, 81),6	6031,(1, 37),9	6040,(1, 39),15	6055,(23, 81),6	6079,(1, 41),6	6088,(38, 81),6	6094,(1, 43),3	6100,(1, 48),9	6109,(46, 81),6	6151,(1, 55),54	6205,(53, 81),6	6211,(1, 57),21	6232,(54, 81),6	6238,(68, 81),6	6244,(30, 81),6	6331,(1, 59),9	6340,(58, 81),6	6367,(1, 61),3	6370,(1, 63),45	6418,(1, 65),21	6439,(1, 69),6	6448,(1, 71),42	6493,(1, 73),42	6535,(1, 76),27	6562,(26, 81),6	6568,(64, 81),6	6574,(42, 81),6	6580,(70, 81),6	6586,(29, 81),6	6592,(72, 81),6	6598,(32, 81),6	6625,(1, 78),3	6628,(10, 81),6	6634,(9, 81),6	6640,(13, 81),6	6790,(49, 81),6	6949,(56, 81),6	7078,(60, 81),6	7909,(52, 81),6	7978,(77, 81),6	8035,(18, 81),6	9193,(36, 81),6	9247,(40, 81),6	9352,(79, 81),6	9430,(74, 81),6	16639,(75, 81),6	
133,(0, 3),132	304,(2, 47),3	412,(2, 17),183	595,(4, 53),3	598,(4, 54),3	601,(5, 12),6	652,(5, 54),3	661,(0, 8),132	793,(6, 12),3	796,(4, 17),78	874,(4, 50),69	943,(5, 50),48	1801,(7, 47),3	1804,(7, 50),30	1834,(7, 53),3	1837,(7, 54),3	3628,(6, 50),72	5056,(6, 53),39	5095,(6, 54),42	5557,(1, 12),9	5596,(1, 17),24	6109,(1, 53),39	6148,(1, 54),3	
1,(0, 2),132	307,(3, 11),3	310,(3, 14),3	313,(3, 16),3	430,(4, 11),3	433,(4, 14),30	463,(4, 16),6	529,(0, 7),132	661,(5, 11),15	796,(6, 14),33	829,(8, 11),3	832,(6, 16),66	898,(8, 14),15	1282,(8, 16),207	
136,(2, 9),6	142,(2, 13),162	304,(3, 10),3	316,(3, 75),39	400,(4, 10),30	469,(4, 75),9	532,(5, 10),33	607,(5, 13),45	823,(8, 9),3	943,(7, 13),3	946,(7, 75),6	952,(8, 13),330	9427,(8, 75),7209	
# Outgoing
532,(5, 10),33	565,(5, 20),15	580,(5, 37),6	586,(5, 43),6	592,(5, 69),3	595,(5, 73),6	601,(5, 12),6	607,(5, 13),45	652,(5, 54),3	661,(5, 11),15	832,(5, 15),45	877,(5, 57),21	943,(5, 50),48	2164,(5, 25),27	2191,(5, 41),39	2230,(5, 51),39	2269,(5, 61),12	2281,(5, 67),15	2296,(5, 78),12	3484,(22, 81),6	3745,(28, 81),6	5254,(62, 81),6	5359,(66, 81),6	5683,(44, 81),6	5692,(21, 81),6	5698,(24, 81),6	5926,(31, 81),6	6013,(34, 81),6	6019,(27, 81),6	6055,(23, 81),6	6088,(38, 81),6	6109,(46, 81),6	6238,(68, 81),6	6244,(30, 81),6	6340,(58, 81),6	6562,(26, 81),6	6568,(64, 81),6	6574,(42, 81),6	6580,(70, 81),6	6586,(29, 81),6	6592,(72, 81),6	6598,(32, 81),6	6790,(49, 81),6	6949,(56, 81),6	7078,(60, 81),6	7909,(52, 81),6	7978,(77, 81),6	8035,(18, 81),6	9193,(36, 81),6	9247,(40, 81),6	9352,(79, 81),6	9430,(74, 81),6	
400,(4, 10),30	430,(4, 11),3	433,(4, 14),30	463,(4, 16),6	469,(4, 75),9	595,(4, 53),3	598,(4, 54),3	796,(4, 17),78	874,(4, 50),69	3466,(4, 26),3	3472,(4, 22),6	3478,(4, 30),3	3481,(4, 31),3	3592,(4, 34),6	3727,(4, 28),9	3736,(4, 42),3	5131,(4, 60),3	5134,(4, 62),3	5224,(4, 49),9	5347,(4, 56),9	5515,(4, 70),21	5596,(4, 79),12	5632,(4, 38),30	6493,(4, 32),60	7804,(4, 36),51	7855,(4, 52),51	7906,(4, 77),69	
304,(3, 10),3	307,(3, 11),3	310,(3, 14),3	313,(3, 16),3	316,(3, 75),39	412,(3, 25),9	421,(3, 33),12	433,(3, 37),6	439,(3, 43),3	442,(3, 51),36	478,(3, 55),3	481,(3, 63),9	490,(3, 67),12	502,(3, 71),9	529,(3, 22),48	577,(3, 23),18	622,(3, 27),3	625,(3, 28),3	628,(3, 41),195	823,(8, 9),3	826,(8, 19),3	829,(8, 11),3	898,(8, 14),15	943,(3, 30),3	946,(3, 31),6	952,(8, 13),330	1282,(8, 16),207	1801,(3, 57),258	2059,(3, 65),105	2884,(8, 25),54	2938,(8, 35),9	2947,(8, 39),60	3007,(8, 43),6	3013,(8, 48),39	3052,(8, 51),36	3088,(8, 55),51	3139,(8, 59),6	3145,(8, 61),6	3151,(8, 65),33	3184,(8, 69),3	3187,(8, 78),9	3214,(47, 81),6	3421,(3, 58),3	3430,(3, 26),12	3442,(3, 29),12	3454,(3, 49),6	3460,(3, 64),3	3463,(3, 77),3	3544,(3, 36),27	3571,(3, 52),21	3688,(3, 46),39	3739,(50, 81),6	5056,(3, 42),60	5116,(3, 60),15	5428,(8, 18),3	5536,(8, 21),3	5542,(3, 72),54	5596,(12, 81),6	5623,(17, 81),6	5677,(8, 44),3	6004,(8, 27),9	6031,(8, 23),12	6043,(8, 32),12	6079,(8, 38),6	6094,(8, 77),3	6100,(3, 68),96	6196,(8, 49),9	6205,(53, 81),6	6211,(8, 30),21	6232,(54, 81),6	6367,(8, 26),36	6403,(8, 36),12	6418,(8, 42),15	6433,(8, 72),12	6448,(8, 29),30	6478,(8, 79),12	7075,(3, 40),588	7663,(3, 74),141	9349,(8, 74),78	9427,(8, 75),7209	
136,(2, 9),6	142,(2, 13),162	304,(2, 47),3	397,(2, 15),15	412,(2, 17),183	595,(2, 18),27	622,(2, 20),6	628,(2, 21),153	781,(2, 22),3	784,(2, 24),21	805,(2, 26),9	814,(2, 29),60	874,(2, 31),24	898,(2, 37),12	910,(2, 46),9	919,(2, 58),21	940,(2, 64),3	943,(7, 13),3	946,(7, 75),6	952,(2, 35),33	985,(2, 39),78	1063,(2, 48),24	1087,(2, 51),378	1465,(2, 55),3	1468,(2, 59),12	1480,(2, 61),3	1483,(2, 65),93	1576,(2, 67),6	1582,(2, 71),15	1597,(2, 76),9	1606,(2, 78),192	1798,(2, 80),3	1801,(7, 47),3	1804,(7, 50),30	1834,(7, 53),3	1837,(7, 54),3	2308,(7, 19),33	2341,(7, 25),9	2350,(7, 37),3	2353,(7, 43),12	2365,(7, 45),3	2368,(7, 51),15	2383,(7, 55),45	2428,(7, 57),81	2509,(7, 59),3	2512,(7, 63),15	2527,(7, 65),3	2530,(7, 67),3	2533,(7, 69),336	2869,(7, 76),3	2872,(7, 78),9	2881,(7, 80),3	3196,(11, 81),6	3202,(14, 81),6	3208,(16, 81),6	3496,(2, 36),48	3628,(2, 79),60	5218,(7, 32),3	5233,(7, 38),3	5251,(7, 52),3	5356,(7, 70),3	5422,(7, 72),6	5608,(7, 23),12	5662,(7, 34),15	5986,(7, 60),18	6625,(2, 49),162	6787,(2, 56),159	6946,(2, 60),129	7975,(7, 18),57	8032,(7, 36),1158	9190,(7, 40),54	9244,(7, 79),105	
1,(0, 2),132	133,(0, 3),132	265,(0, 4),132	397,(0, 5),132	529,(0, 7),132	661,(0, 8),132	793,(6, 12),3	796,(6, 14),33	829,(6, 15),3	832,(6, 16),66	898,(6, 18),12	910,(6, 19),3	913,(6, 20),39	952,(6, 21),27	979,(6, 24),15	994,(6, 26),153	1147,(6, 27),27	1174,(6, 31),12	1186,(6, 32),2235	3421,(6, 33),3	3424,(6, 36),6	3430,(6, 37),39	3469,(6, 40),3	3472,(6, 41),12	3484,(6, 42),12	3496,(6, 45),102	3598,(6, 46),3	3601,(6, 49),27	3628,(6, 50),72	3700,(6, 51),39	3739,(6, 52),1317	5056,(6, 53),39	5095,(6, 54),42	5137,(6, 56),81	5218,(6, 57),3	5221,(6, 58),3	5224,(6, 59),9	5233,(6, 61),3	5236,(6, 62),15	5251,(6, 63),3	5254,(6, 64),9	5263,(6, 66),84	5347,(6, 67),12	5359,(6, 70),63	5422,(6, 71),3	5425,(6, 73),6	5431,(6, 74),3	5434,(6, 77),81	5515,(6, 78),24	5539,(6, 79),3	5542,(6, 80),15	5557,(1, 12),9	5566,(1, 15),30	5596,(1, 17),24	5620,(1, 18),12	5632,(1, 20),48	5680,(1, 21),9	5689,(1, 24),3	5692,(1, 26),3	5695,(1, 27),174	5869,(1, 29),3	5872,(1, 30),48	5920,(1, 31),3	5923,(1, 32),39	5962,(1, 34),24	5986,(1, 35),27	6013,(1, 36),18	6031,(1, 37),9	6040,(1, 39),15	6055,(1, 40),24	6079,(1, 41),6	6085,(1, 42),9	6094,(1, 43),3	6097,(1, 46),3	6100,(1, 48),9	6109,(1, 53),39	6148,(1, 54),3	6151,(1, 55),54	6205,(1, 56),6	6211,(1, 57),21	6232,(1, 58),99	6331,(1, 59),9	6340,(1, 60),27	6367,(1, 61),3	6370,(1, 63),45	6415,(1, 64),3	6418,(1, 65),21	6439,(1, 69),6	6445,(1, 70),3	6448,(1, 71),42	6490,(1, 72),3	6493,(1, 73),42	6535,(1, 76),27	6562,(1, 77),63	6625,(1, 78),3	6628,(10, 81),6	6634,(9, 81),6	6640,(13, 81),6	16639,(75, 81),6	
