314
# CPU
0,21,1	1,4,26	27,5,26	53,7,26	79,18,26	105,20,26	131,16,26	157,15,26	183,9,26	209,11,26	235,14,26	261,13,26	287,2,26	313,0,1	
31,3,26	61,8,26	91,19,26	121,10,26	151,12,26	181,6,26	211,17,26	237,1,26	
# Incoming
117,(19, 2),1	147,(10, 2),2	177,(12, 2),3	207,(6, 2),5	263,(1, 0),1	
1,(21, 3),30	31,(21, 8),30	61,(21, 19),30	91,(21, 10),30	121,(21, 12),30	151,(21, 6),30	181,(21, 17),30	211,(7, 1),1	212,(16, 1),2	
# Outgoing
1,(21, 3),30	31,(21, 8),30	61,(21, 19),30	91,(21, 10),30	121,(21, 12),30	151,(21, 6),30	181,(21, 17),30	211,(7, 1),1	212,(16, 1),2	
117,(19, 2),1	147,(10, 2),2	177,(12, 2),3	207,(6, 2),5	263,(1, 0),1	
