5368
# CPU
11,3,80	91,6,80	171,9,80	251,12,80	331,15,80	411,18,80	491,129,80	571,24,80	651,135,80	731,111,80	811,45,80	891,138,80	971,72,80	1051,66,80	1131,195,80	1211,159,80	1291,198,80	1371,63,80	1451,144,80	1531,33,80	1611,162,80	1691,177,80	1771,174,80	1851,120,80	1931,156,80	2011,36,80	2091,57,80	2171,78,80	2251,93,80	2331,105,80	2411,141,80	2491,150,80	2571,22,80	2651,30,80	2731,39,80	2811,75,80	2891,84,80	2971,87,80	3051,123,80	3131,132,80	3211,192,80	3291,27,80	3371,42,80	3451,48,80	3531,54,80	3611,81,80	3691,108,80	3771,180,80	3851,153,80	3931,168,80	4011,171,80	4091,186,80	4171,60,80	4251,96,80	4331,114,80	4411,165,80	4491,90,80	4571,183,80	4651,99,80	4731,117,80	4811,126,80	4891,189,80	4971,102,80	5051,51,80	5131,69,80	5211,147,80	
6,2,80	86,5,80	166,8,80	246,11,80	326,14,80	406,17,80	486,20,80	566,164,80	646,173,80	726,44,80	806,83,80	886,131,80	966,188,80	1046,197,80	1126,56,80	1206,149,80	1286,155,80	1366,68,80	1446,119,80	1526,143,80	1606,161,80	1686,167,80	1766,179,80	1846,38,80	1926,23,80	2006,26,80	2086,53,80	2166,65,80	2246,89,80	2326,95,80	2406,137,80	2486,182,80	2566,29,80	2646,134,80	2726,80,80	2806,74,80	2886,32,80	2966,98,80	3046,176,80	3126,50,80	3206,59,80	3286,77,80	3366,86,80	3446,101,80	3526,104,80	3606,110,80	3686,107,80	3766,152,80	3846,200,80	3926,128,80	4006,116,80	4086,140,80	4166,146,80	4246,194,80	4326,170,80	4406,35,80	4486,41,80	4566,47,80	4646,62,80	4726,71,80	4806,92,80	4886,113,80	4966,122,80	5046,125,80	5126,158,80	5206,185,80	5286,191,80	
0,0,1	1,1,80	81,13,80	161,4,80	241,10,80	321,16,80	401,7,80	481,19,80	561,58,80	641,70,80	721,175,80	801,121,80	881,88,80	961,31,80	1041,169,80	1121,91,80	1201,97,80	1281,163,80	1361,61,80	1441,85,80	1521,115,80	1601,43,80	1681,34,80	1761,25,80	1841,193,80	1921,49,80	2001,109,80	2081,130,80	2161,37,80	2241,187,80	2321,46,80	2401,118,80	2481,52,80	2561,76,80	2641,199,80	2721,154,80	2801,21,80	2881,64,80	2961,67,80	3041,124,80	3121,28,80	3201,40,80	3281,127,80	3361,55,80	3441,160,80	3521,136,80	3601,82,80	3681,196,80	3761,94,80	3841,103,80	3921,172,80	4001,133,80	4081,73,80	4161,151,80	4241,157,80	4321,79,80	4401,100,80	4481,106,80	4561,112,80	4641,139,80	4721,142,80	4801,145,80	4881,148,80	4961,166,80	5041,178,80	5121,181,80	5201,184,80	5281,190,80	5367,201,1	
# Incoming
6,(0, 3),5	16,(0, 6),5	26,(0, 9),5	36,(0, 12),5	46,(0, 15),5	56,(0, 18),5	82,(1, 27),1	92,(1, 135),1	93,(2, 42),9	102,(2, 48),5	107,(2, 54),1	108,(2, 66),14	122,(2, 69),1	124,(2, 105),1	129,(2, 117),1	131,(1, 153),9	140,(2, 72),48	188,(2, 99),10	198,(2, 132),3	207,(2, 156),1	224,(2, 183),11	235,(5, 24),1	244,(5, 102),1	245,(1, 168),1	246,(2, 198),22	268,(13, 42),5	273,(13, 63),14	287,(5, 57),14	301,(5, 75),7	308,(5, 147),4	312,(5, 162),1	313,(8, 51),4	317,(8, 69),3	320,(8, 72),1	321,(8, 78),7	328,(8, 87),2	330,(11, 33),2	332,(11, 138),1	335,(13, 195),1	336,(4, 36),9	349,(4, 66),2	351,(11, 126),5	356,(4, 96),23	379,(4, 102),1	380,(4, 159),2	382,(10, 51),1	383,(8, 126),36	419,(14, 69),1	420,(4, 168),4	424,(10, 22),7	431,(10, 30),38	469,(10, 114),1	470,(5, 144),100	582,(10, 33),7	589,(10, 36),18	607,(10, 39),2	609,(10, 117),1	610,(10, 147),5	615,(10, 162),6	621,(10, 171),9	630,(10, 177),39	669,(11, 75),115	784,(11, 99),6	790,(14, 174),1	791,(10, 192),21	812,(11, 84),11	823,(11, 120),10	833,(11, 156),24	857,(16, 36),5	862,(16, 57),2	864,(16, 78),1	865,(16, 93),1	866,(16, 102),12	878,(16, 105),13	891,(16, 141),10	901,(16, 150),11	912,(16, 180),2	914,(14, 22),8	922,(14, 30),8	930,(14, 39),7	937,(14, 84),12	949,(14, 99),3	952,(14, 189),1	953,(17, 75),7	960,(17, 84),5	965,(17, 87),2	967,(20, 123),1	988,(16, 132),27	1015,(16, 189),21	1036,(14, 192),258	1294,(7, 27),3	1297,(7, 42),1	1298,(7, 48),1	1299,(7, 54),12	1311,(7, 81),5	1316,(7, 90),3	1319,(20, 108),3	1322,(20, 180),1	1325,(7, 99),9	1334,(7, 153),1	1335,(7, 165),6	1341,(7, 168),4	1345,(7, 171),1	1346,(7, 186),1	1347,(17, 60),18	1365,(17, 96),8	1373,(17, 114),30	1403,(17, 165),15	1418,(19, 90),7	1425,(19, 183),1	1426,(20, 99),7	1433,(20, 117),5	1438,(20, 126),21	1459,(20, 189),6	1465,(19, 102),5	1476,(19, 51),10	1486,(19, 147),5	1491,(20, 69),144	1648,(20, 147),18	
1,(0, 2),5	11,(0, 5),5	21,(0, 8),5	31,(0, 11),5	41,(0, 14),5	51,(0, 17),5	61,(0, 20),5	81,(1, 23),1	83,(1, 80),8	91,(1, 125),1	93,(1, 140),1	94,(1, 143),24	118,(1, 149),13	140,(1, 161),105	245,(3, 83),1	246,(1, 179),1	247,(1, 182),2	249,(1, 185),2	251,(1, 194),2	253,(3, 50),2	255,(13, 77),1	256,(13, 86),1	257,(13, 101),2	259,(13, 197),1	260,(4, 32),7	267,(4, 44),1	287,(13, 89),37	324,(13, 107),11	345,(4, 59),4	351,(4, 80),5	374,(3, 65),3	377,(3, 98),5	382,(3, 104),3	385,(4, 122),2	387,(4, 146),2	389,(4, 155),31	453,(3, 116),14	467,(3, 143),2	469,(3, 167),13	482,(3, 173),2	484,(3, 179),1	485,(13, 134),97	582,(6, 29),7	589,(6, 47),5	594,(6, 122),18	612,(6, 131),4	616,(6, 146),1	617,(6, 158),1	618,(6, 188),6	624,(6, 197),50	674,(4, 176),47	721,(9, 26),6	727,(9, 41),3	730,(10, 53),3	733,(10, 56),1	734,(10, 65),20	754,(10, 107),2	756,(10, 119),1	757,(10, 137),30	787,(10, 149),3	790,(10, 155),1	794,(9, 68),2	796,(9, 80),6	802,(9, 86),1	803,(9, 110),5	808,(9, 119),1	809,(9, 137),2	811,(9, 146),12	823,(9, 176),78	901,(9, 179),12	913,(9, 194),1	914,(10, 143),9	923,(10, 161),14	937,(10, 167),13	950,(10, 179),13	963,(10, 182),25	988,(12, 29),149	1137,(12, 35),1	1138,(12, 38),1	1139,(16, 23),3	1142,(16, 26),2	1144,(16, 29),24	1168,(16, 35),1	1169,(16, 53),2	1171,(16, 62),7	1178,(16, 65),2	1180,(16, 80),6	1186,(16, 89),5	1191,(16, 95),22	1213,(16, 107),27	1240,(16, 113),1	1241,(16, 137),1	1242,(16, 182),3	1245,(7, 29),3	1248,(7, 134),1	1249,(19, 80),1	1250,(12, 50),1	1251,(12, 77),2	1253,(12, 104),5	1258,(16, 122),15	1273,(7, 41),6	1279,(7, 74),4	1283,(19, 32),2	1285,(19, 98),1	1288,(12, 176),4	1302,(15, 50),1	1319,(7, 92),6	1328,(15, 59),2	1330,(15, 77),6	1342,(15, 86),6	1349,(15, 101),17	1366,(19, 128),3	1370,(15, 104),1	1371,(15, 107),2	1373,(15, 110),15	1388,(7, 107),10	1398,(7, 152),8	1406,(7, 200),8	1416,(15, 116),2	1418,(15, 128),8	1426,(7, 116),26	1452,(7, 170),13	1468,(15, 140),3	1471,(19, 41),5	1479,(15, 146),171	1650,(7, 194),22	1687,(15, 158),5	1698,(15, 170),1	1699,(18, 35),1	1700,(18, 41),1	1701,(18, 47),1	1702,(18, 62),1	1703,(18, 71),1	1707,(18, 92),5	1719,(18, 113),10	1729,(18, 122),5	1734,(18, 125),11	1780,(18, 158),1	1940,(18, 185),317	2294,(18, 191),129	
123,(2, 73),1	125,(2, 112),3	128,(2, 115),1	130,(2, 127),9	139,(2, 178),1	140,(3, 28),5	145,(3, 49),30	175,(3, 70),1	176,(3, 76),11	187,(3, 88),6	193,(3, 115),1	194,(3, 124),1	195,(3, 187),1	196,(6, 25),2	198,(6, 43),1	199,(6, 166),1	200,(6, 178),1	201,(2, 142),6	208,(2, 157),5	213,(2, 169),11	224,(3, 193),7	231,(6, 61),4	236,(5, 28),1	237,(5, 46),6	243,(5, 76),1	245,(5, 109),1	246,(6, 37),7	255,(3, 61),119	374,(5, 85),3	377,(5, 154),3	380,(5, 172),1	381,(8, 52),1	382,(8, 73),1	385,(3, 106),68	453,(5, 21),17	485,(6, 64),14	499,(6, 190),5	504,(9, 40),5	509,(9, 49),9	518,(9, 61),1	519,(9, 64),2	521,(9, 130),5	526,(9, 133),24	550,(9, 163),4	554,(9, 184),15	569,(12, 130),1	570,(5, 190),33	603,(8, 25),17	620,(8, 100),5	625,(8, 127),7	632,(8, 157),12	644,(8, 160),1	645,(8, 172),1	646,(8, 193),3	649,(11, 21),2	651,(11, 40),2	653,(11, 49),4	657,(11, 55),3	660,(11, 109),1	661,(11, 130),1	662,(11, 142),1	663,(14, 37),1	664,(14, 46),4	668,(14, 100),1	674,(9, 187),3	677,(12, 46),4	681,(12, 73),36	717,(12, 118),3	720,(15, 52),1	730,(9, 55),64	794,(14, 112),6	800,(17, 52),1	801,(17, 67),5	806,(17, 94),4	810,(17, 127),2	857,(14, 133),16	873,(14, 184),41	914,(12, 76),52	966,(12, 190),2	968,(14, 199),42	1010,(17, 100),8	1018,(17, 133),1	1019,(17, 136),13	1032,(17, 154),1	1033,(20, 21),1	1034,(20, 64),1	1035,(20, 67),1	1139,(12, 40),111	1258,(12, 124),30	1292,(15, 28),3	1295,(15, 40),7	1302,(20, 127),1	1303,(15, 55),25	1328,(17, 160),6	1334,(20, 136),2	1336,(15, 82),6	1342,(20, 151),1	1343,(20, 172),1	1344,(20, 196),1	1345,(164, 201),1	1346,(173, 201),1	1348,(15, 94),1	1366,(15, 103),4	1388,(15, 112),28	1418,(17, 172),8	1426,(15, 133),42	1468,(44, 201),1	1469,(83, 201),1	1470,(131, 201),1	1471,(15, 145),8	1479,(188, 201),1	1480,(197, 201),1	1481,(56, 201),1	1482,(149, 201),1	1483,(155, 201),1	1484,(68, 201),1	1635,(20, 73),13	1650,(15, 151),19	1669,(15, 157),18	1687,(119, 201),1	1688,(143, 201),1	1689,(161, 201),1	1692,(15, 166),6	1704,(18, 79),3	1712,(18, 100),4	1716,(18, 106),1	1717,(18, 112),2	1745,(18, 139),1	1746,(18, 142),1	1747,(18, 145),29	1776,(18, 148),4	1780,(167, 201),1	1781,(18, 166),36	1817,(18, 178),63	1880,(18, 181),56	1936,(18, 184),4	1940,(179, 201),1	1941,(38, 201),1	2006,(23, 201),1	2086,(26, 201),1	2166,(53, 201),1	2246,(65, 201),1	2257,(18, 190),37	2326,(89, 201),1	2406,(95, 201),1	2423,(129, 201),1	2424,(24, 201),1	2425,(135, 201),1	2426,(111, 201),1	2427,(45, 201),1	2428,(138, 201),1	2429,(72, 201),1	2430,(66, 201),1	2431,(195, 201),1	2432,(159, 201),1	2433,(198, 201),1	2434,(63, 201),1	2435,(144, 201),1	2436,(33, 201),1	2437,(162, 201),1	2438,(177, 201),1	2439,(174, 201),1	2440,(120, 201),1	2441,(156, 201),1	2442,(36, 201),1	2443,(57, 201),1	2444,(78, 201),1	2445,(93, 201),1	2446,(105, 201),1	2486,(137, 201),1	2491,(141, 201),1	2566,(182, 201),1	2571,(150, 201),1	2646,(29, 201),1	2651,(22, 201),1	2726,(134, 201),1	2731,(30, 201),1	2806,(80, 201),1	2811,(39, 201),1	2886,(74, 201),1	2891,(75, 201),1	2966,(32, 201),1	2971,(84, 201),1	3046,(98, 201),1	3051,(87, 201),1	3126,(176, 201),1	3131,(123, 201),1	3206,(50, 201),1	3211,(132, 201),1	3286,(59, 201),1	3291,(192, 201),1	3366,(77, 201),1	3371,(27, 201),1	3446,(86, 201),1	3451,(42, 201),1	3526,(101, 201),1	3531,(48, 201),1	3606,(104, 201),1	3611,(54, 201),1	3686,(110, 201),1	3691,(81, 201),1	3766,(107, 201),1	3771,(108, 201),1	3846,(152, 201),1	3851,(180, 201),1	3926,(200, 201),1	3931,(153, 201),1	4006,(128, 201),1	4011,(168, 201),1	4086,(116, 201),1	4091,(171, 201),1	4166,(140, 201),1	4171,(186, 201),1	4246,(146, 201),1	4251,(60, 201),1	4326,(194, 201),1	4331,(96, 201),1	4406,(170, 201),1	4411,(114, 201),1	4486,(35, 201),1	4491,(165, 201),1	4566,(41, 201),1	4571,(90, 201),1	4646,(47, 201),1	4651,(183, 201),1	4726,(62, 201),1	4731,(99, 201),1	4806,(71, 201),1	4811,(117, 201),1	4886,(92, 201),1	4891,(126, 201),1	4966,(113, 201),1	4971,(189, 201),1	5046,(122, 201),1	5051,(102, 201),1	5126,(125, 201),1	5131,(51, 201),1	5206,(158, 201),1	5211,(69, 201),1	5286,(185, 201),1	5291,(147, 201),1	5366,(191, 201),1	
# Outgoing
140,(3, 28),5	145,(3, 49),30	175,(3, 70),1	176,(3, 76),11	187,(3, 88),6	193,(3, 115),1	194,(3, 124),1	195,(3, 187),1	196,(6, 25),2	198,(6, 43),1	199,(6, 166),1	200,(6, 178),1	224,(3, 193),7	231,(6, 61),4	245,(3, 83),1	246,(6, 37),7	253,(3, 50),2	255,(3, 61),119	374,(3, 65),3	377,(3, 98),5	382,(3, 104),3	385,(3, 106),68	453,(3, 116),14	467,(3, 143),2	469,(3, 167),13	482,(3, 173),2	484,(3, 179),1	485,(6, 64),14	499,(6, 190),5	504,(9, 40),5	509,(9, 49),9	518,(9, 61),1	519,(9, 64),2	521,(9, 130),5	526,(9, 133),24	550,(9, 163),4	554,(9, 184),15	569,(12, 130),1	582,(6, 29),7	589,(6, 47),5	594,(6, 122),18	612,(6, 131),4	616,(6, 146),1	617,(6, 158),1	618,(6, 188),6	624,(6, 197),50	674,(9, 187),3	677,(12, 46),4	681,(12, 73),36	717,(12, 118),3	720,(15, 52),1	721,(9, 26),6	727,(9, 41),3	730,(9, 55),64	794,(9, 68),2	796,(9, 80),6	802,(9, 86),1	803,(9, 110),5	808,(9, 119),1	809,(9, 137),2	811,(9, 146),12	823,(9, 176),78	901,(9, 179),12	913,(9, 194),1	914,(12, 76),52	966,(12, 190),2	988,(12, 29),149	1137,(12, 35),1	1138,(12, 38),1	1139,(12, 40),111	1250,(12, 50),1	1251,(12, 77),2	1253,(12, 104),5	1258,(12, 124),30	1288,(12, 176),4	1292,(15, 28),3	1295,(15, 40),7	1302,(15, 50),1	1303,(15, 55),25	1328,(15, 59),2	1330,(15, 77),6	1336,(15, 82),6	1342,(15, 86),6	1348,(15, 94),1	1349,(15, 101),17	1366,(15, 103),4	1370,(15, 104),1	1371,(15, 107),2	1373,(15, 110),15	1388,(15, 112),28	1416,(15, 116),2	1418,(15, 128),8	1426,(15, 133),42	1468,(15, 140),3	1471,(15, 145),8	1479,(15, 146),171	1650,(15, 151),19	1669,(15, 157),18	1687,(15, 158),5	1692,(15, 166),6	1698,(15, 170),1	1699,(18, 35),1	1700,(18, 41),1	1701,(18, 47),1	1702,(18, 62),1	1703,(18, 71),1	1704,(18, 79),3	1707,(18, 92),5	1712,(18, 100),4	1716,(18, 106),1	1717,(18, 112),2	1719,(18, 113),10	1729,(18, 122),5	1734,(18, 125),11	1745,(18, 139),1	1746,(18, 142),1	1747,(18, 145),29	1776,(18, 148),4	1780,(18, 158),1	1781,(18, 166),36	1817,(18, 178),63	1880,(18, 181),56	1936,(18, 184),4	1940,(18, 185),317	2257,(18, 190),37	2294,(18, 191),129	2423,(129, 201),1	2424,(24, 201),1	2425,(135, 201),1	2426,(111, 201),1	2427,(45, 201),1	2428,(138, 201),1	2429,(72, 201),1	2430,(66, 201),1	2431,(195, 201),1	2432,(159, 201),1	2433,(198, 201),1	2434,(63, 201),1	2435,(144, 201),1	2436,(33, 201),1	2437,(162, 201),1	2438,(177, 201),1	2439,(174, 201),1	2440,(120, 201),1	2441,(156, 201),1	2442,(36, 201),1	2443,(57, 201),1	2444,(78, 201),1	2445,(93, 201),1	2446,(105, 201),1	2491,(141, 201),1	2571,(150, 201),1	2651,(22, 201),1	2731,(30, 201),1	2811,(39, 201),1	2891,(75, 201),1	2971,(84, 201),1	3051,(87, 201),1	3131,(123, 201),1	3211,(132, 201),1	3291,(192, 201),1	3371,(27, 201),1	3451,(42, 201),1	3531,(48, 201),1	3611,(54, 201),1	3691,(81, 201),1	3771,(108, 201),1	3851,(180, 201),1	3931,(153, 201),1	4011,(168, 201),1	4091,(171, 201),1	4171,(186, 201),1	4251,(60, 201),1	4331,(96, 201),1	4411,(114, 201),1	4491,(165, 201),1	4571,(90, 201),1	4651,(183, 201),1	4731,(99, 201),1	4811,(117, 201),1	4891,(126, 201),1	4971,(189, 201),1	5051,(102, 201),1	5131,(51, 201),1	5211,(69, 201),1	5291,(147, 201),1	
93,(2, 42),9	102,(2, 48),5	107,(2, 54),1	108,(2, 66),14	122,(2, 69),1	123,(2, 73),1	124,(2, 105),1	125,(2, 112),3	128,(2, 115),1	129,(2, 117),1	130,(2, 127),9	139,(2, 178),1	140,(2, 72),48	188,(2, 99),10	198,(2, 132),3	201,(2, 142),6	207,(2, 156),1	208,(2, 157),5	213,(2, 169),11	224,(2, 183),11	235,(5, 24),1	236,(5, 28),1	237,(5, 46),6	243,(5, 76),1	244,(5, 102),1	245,(5, 109),1	246,(2, 198),22	287,(5, 57),14	301,(5, 75),7	308,(5, 147),4	312,(5, 162),1	313,(8, 51),4	317,(8, 69),3	320,(8, 72),1	321,(8, 78),7	328,(8, 87),2	330,(11, 33),2	332,(11, 138),1	351,(11, 126),5	374,(5, 85),3	377,(5, 154),3	380,(5, 172),1	381,(8, 52),1	382,(8, 73),1	383,(8, 126),36	419,(14, 69),1	453,(5, 21),17	470,(5, 144),100	570,(5, 190),33	603,(8, 25),17	620,(8, 100),5	625,(8, 127),7	632,(8, 157),12	644,(8, 160),1	645,(8, 172),1	646,(8, 193),3	649,(11, 21),2	651,(11, 40),2	653,(11, 49),4	657,(11, 55),3	660,(11, 109),1	661,(11, 130),1	662,(11, 142),1	663,(14, 37),1	664,(14, 46),4	668,(14, 100),1	669,(11, 75),115	784,(11, 99),6	790,(14, 174),1	794,(14, 112),6	800,(17, 52),1	801,(17, 67),5	806,(17, 94),4	810,(17, 127),2	812,(11, 84),11	823,(11, 120),10	833,(11, 156),24	857,(14, 133),16	873,(14, 184),41	914,(14, 22),8	922,(14, 30),8	930,(14, 39),7	937,(14, 84),12	949,(14, 99),3	952,(14, 189),1	953,(17, 75),7	960,(17, 84),5	965,(17, 87),2	967,(20, 123),1	968,(14, 199),42	1010,(17, 100),8	1018,(17, 133),1	1019,(17, 136),13	1032,(17, 154),1	1033,(20, 21),1	1034,(20, 64),1	1035,(20, 67),1	1036,(14, 192),258	1302,(20, 127),1	1319,(20, 108),3	1322,(20, 180),1	1328,(17, 160),6	1334,(20, 136),2	1342,(20, 151),1	1343,(20, 172),1	1344,(20, 196),1	1345,(164, 201),1	1346,(173, 201),1	1347,(17, 60),18	1365,(17, 96),8	1373,(17, 114),30	1403,(17, 165),15	1418,(17, 172),8	1426,(20, 99),7	1433,(20, 117),5	1438,(20, 126),21	1459,(20, 189),6	1468,(44, 201),1	1469,(83, 201),1	1470,(131, 201),1	1479,(188, 201),1	1480,(197, 201),1	1481,(56, 201),1	1482,(149, 201),1	1483,(155, 201),1	1484,(68, 201),1	1491,(20, 69),144	1635,(20, 73),13	1648,(20, 147),18	1687,(119, 201),1	1688,(143, 201),1	1689,(161, 201),1	1780,(167, 201),1	1940,(179, 201),1	1941,(38, 201),1	2006,(23, 201),1	2086,(26, 201),1	2166,(53, 201),1	2246,(65, 201),1	2326,(89, 201),1	2406,(95, 201),1	2486,(137, 201),1	2566,(182, 201),1	2646,(29, 201),1	2726,(134, 201),1	2806,(80, 201),1	2886,(74, 201),1	2966,(32, 201),1	3046,(98, 201),1	3126,(176, 201),1	3206,(50, 201),1	3286,(59, 201),1	3366,(77, 201),1	3446,(86, 201),1	3526,(101, 201),1	3606,(104, 201),1	3686,(110, 201),1	3766,(107, 201),1	3846,(152, 201),1	3926,(200, 201),1	4006,(128, 201),1	4086,(116, 201),1	4166,(140, 201),1	4246,(146, 201),1	4326,(194, 201),1	4406,(170, 201),1	4486,(35, 201),1	4566,(41, 201),1	4646,(47, 201),1	4726,(62, 201),1	4806,(71, 201),1	4886,(92, 201),1	4966,(113, 201),1	5046,(122, 201),1	5126,(125, 201),1	5206,(158, 201),1	5286,(185, 201),1	5366,(191, 201),1	
1,(0, 2),5	6,(0, 3),5	11,(0, 5),5	16,(0, 6),5	21,(0, 8),5	26,(0, 9),5	31,(0, 11),5	36,(0, 12),5	41,(0, 14),5	46,(0, 15),5	51,(0, 17),5	56,(0, 18),5	61,(0, 20),5	81,(1, 23),1	82,(1, 27),1	83,(1, 80),8	91,(1, 125),1	92,(1, 135),1	93,(1, 140),1	94,(1, 143),24	118,(1, 149),13	131,(1, 153),9	140,(1, 161),105	245,(1, 168),1	246,(1, 179),1	247,(1, 182),2	249,(1, 185),2	251,(1, 194),2	255,(13, 77),1	256,(13, 86),1	257,(13, 101),2	259,(13, 197),1	260,(4, 32),7	267,(4, 44),1	268,(13, 42),5	273,(13, 63),14	287,(13, 89),37	324,(13, 107),11	335,(13, 195),1	336,(4, 36),9	345,(4, 59),4	349,(4, 66),2	351,(4, 80),5	356,(4, 96),23	379,(4, 102),1	380,(4, 159),2	382,(10, 51),1	385,(4, 122),2	387,(4, 146),2	389,(4, 155),31	420,(4, 168),4	424,(10, 22),7	431,(10, 30),38	469,(10, 114),1	485,(13, 134),97	582,(10, 33),7	589,(10, 36),18	607,(10, 39),2	609,(10, 117),1	610,(10, 147),5	615,(10, 162),6	621,(10, 171),9	630,(10, 177),39	674,(4, 176),47	730,(10, 53),3	733,(10, 56),1	734,(10, 65),20	754,(10, 107),2	756,(10, 119),1	757,(10, 137),30	787,(10, 149),3	790,(10, 155),1	791,(10, 192),21	857,(16, 36),5	862,(16, 57),2	864,(16, 78),1	865,(16, 93),1	866,(16, 102),12	878,(16, 105),13	891,(16, 141),10	901,(16, 150),11	912,(16, 180),2	914,(10, 143),9	923,(10, 161),14	937,(10, 167),13	950,(10, 179),13	963,(10, 182),25	988,(16, 132),27	1015,(16, 189),21	1139,(16, 23),3	1142,(16, 26),2	1144,(16, 29),24	1168,(16, 35),1	1169,(16, 53),2	1171,(16, 62),7	1178,(16, 65),2	1180,(16, 80),6	1186,(16, 89),5	1191,(16, 95),22	1213,(16, 107),27	1240,(16, 113),1	1241,(16, 137),1	1242,(16, 182),3	1245,(7, 29),3	1248,(7, 134),1	1249,(19, 80),1	1258,(16, 122),15	1273,(7, 41),6	1279,(7, 74),4	1283,(19, 32),2	1285,(19, 98),1	1294,(7, 27),3	1297,(7, 42),1	1298,(7, 48),1	1299,(7, 54),12	1311,(7, 81),5	1316,(7, 90),3	1319,(7, 92),6	1325,(7, 99),9	1334,(7, 153),1	1335,(7, 165),6	1341,(7, 168),4	1345,(7, 171),1	1346,(7, 186),1	1366,(19, 128),3	1388,(7, 107),10	1398,(7, 152),8	1406,(7, 200),8	1418,(19, 90),7	1425,(19, 183),1	1426,(7, 116),26	1452,(7, 170),13	1465,(19, 102),5	1471,(19, 41),5	1476,(19, 51),10	1486,(19, 147),5	1650,(7, 194),22	
