510
# CPU
99,38,1	101,26,1	104,17,1	106,29,1	109,15,1	118,20,1	124,21,1	130,22,1	141,23,1	147,35,1	161,24,1	168,32,1	
13,4,1	14,28,1	30,13,1	64,34,1	87,31,1	95,37,1	101,16,1	121,18,1	150,40,1	
9,3,1	10,27,1	23,8,1	27,11,1	57,30,1	89,36,1	99,33,1	105,39,1	189,12,1	204,14,1	509,41,1	
5,2,1	69,10,1	98,7,1	
0,0,1	1,1,1	86,9,1	87,5,1	93,6,1	256,19,1	507,25,1	
# Incoming
75,(1, 15),1	76,(2, 23),1	77,(1, 24),1	78,(2, 15),3	81,(2, 17),13	95,(1, 38),4	99,(2, 26),2	101,(3, 17),3	104,(3, 29),2	106,(4, 15),3	109,(4, 20),9	121,(3, 21),3	124,(3, 22),6	130,(3, 23),11	141,(3, 35),6	147,(4, 24),14	161,(4, 32),7	
9,(0, 4),4	27,(2, 13),3	44,(2, 16),1	57,(2, 34),7	65,(2, 37),9	76,(1, 18),1	86,(3, 31),1	89,(1, 37),6	95,(3, 16),6	105,(1, 40),1	106,(3, 18),15	147,(3, 40),3	
5,(0, 3),4	13,(1, 8),10	23,(2, 11),4	30,(2, 14),14	45,(2, 30),12	64,(2, 36),1	69,(1, 12),6	75,(10, 41),1	78,(1, 33),1	79,(1, 36),10	98,(4, 33),1	99,(1, 39),6	105,(2, 12),84	189,(4, 14),15	204,(28, 41),1	205,(13, 41),1	206,(34, 41),1	207,(9, 41),1	208,(5, 41),1	209,(31, 41),1	210,(6, 41),1	211,(37, 41),1	212,(38, 41),1	213,(16, 41),1	214,(26, 41),1	215,(17, 41),1	216,(29, 41),1	217,(15, 41),1	218,(20, 41),1	219,(18, 41),1	220,(21, 41),1	221,(22, 41),1	222,(23, 41),1	223,(35, 41),1	224,(40, 41),1	225,(24, 41),1	226,(32, 41),1	256,(7, 41),1	257,(19, 41),1	508,(25, 41),1	
1,(0, 2),4	23,(1, 10),46	93,(4, 7),5	
6,(2, 5),8	14,(2, 6),2	16,(2, 9),7	23,(3, 6),1	24,(3, 9),62	86,(4, 5),1	87,(4, 6),6	189,(2, 19),67	256,(4, 25),251	
# Outgoing
212,(38, 41),1	214,(26, 41),1	215,(17, 41),1	216,(29, 41),1	217,(15, 41),1	218,(20, 41),1	220,(21, 41),1	221,(22, 41),1	222,(23, 41),1	223,(35, 41),1	225,(24, 41),1	226,(32, 41),1	
86,(4, 5),1	87,(4, 6),6	93,(4, 7),5	98,(4, 33),1	106,(4, 15),3	109,(4, 20),9	147,(4, 24),14	161,(4, 32),7	189,(4, 14),15	204,(28, 41),1	205,(13, 41),1	206,(34, 41),1	209,(31, 41),1	211,(37, 41),1	213,(16, 41),1	219,(18, 41),1	224,(40, 41),1	256,(4, 25),251	
23,(3, 6),1	24,(3, 9),62	86,(3, 31),1	95,(3, 16),6	101,(3, 17),3	104,(3, 29),2	106,(3, 18),15	121,(3, 21),3	124,(3, 22),6	130,(3, 23),11	141,(3, 35),6	147,(3, 40),3	
6,(2, 5),8	14,(2, 6),2	16,(2, 9),7	23,(2, 11),4	27,(2, 13),3	30,(2, 14),14	44,(2, 16),1	45,(2, 30),12	57,(2, 34),7	64,(2, 36),1	65,(2, 37),9	75,(10, 41),1	76,(2, 23),1	78,(2, 15),3	81,(2, 17),13	99,(2, 26),2	105,(2, 12),84	189,(2, 19),67	256,(7, 41),1	
1,(0, 2),4	5,(0, 3),4	9,(0, 4),4	13,(1, 8),10	23,(1, 10),46	69,(1, 12),6	75,(1, 15),1	76,(1, 18),1	77,(1, 24),1	78,(1, 33),1	79,(1, 36),10	89,(1, 37),6	95,(1, 38),4	99,(1, 39),6	105,(1, 40),1	207,(9, 41),1	208,(5, 41),1	210,(6, 41),1	257,(19, 41),1	508,(25, 41),1	
