678
# CPU
0,0,1	1,7,8	9,52,8	17,117,8	25,10,8	33,30,8	41,40,8	49,5,8	57,46,8	65,45,8	73,18,8	81,72,8	89,62,8	97,118,8	105,98,8	113,108,8	121,77,8	129,83,8	137,43,8	145,15,8	153,44,8	161,104,8	169,39,8	177,64,8	185,90,8	246,50,8	
4,3,8	12,114,8	20,19,8	28,28,8	36,92,8	44,61,8	52,88,8	60,16,8	68,8,8	76,25,8	84,33,8	92,93,8	100,97,8	108,48,8	116,36,8	124,17,8	132,60,8	140,22,8	148,109,8	156,70,8	164,85,8	172,79,8	180,24,8	677,121,1	
5,4,8	13,37,8	21,47,8	29,101,8	37,27,8	45,111,8	53,63,8	61,9,8	69,74,8	77,41,8	85,31,8	93,75,8	101,89,8	109,66,8	117,49,8	125,103,8	133,55,8	141,99,8	149,26,8	157,71,8	165,35,8	173,51,8	181,113,8	
3,12,8	11,95,8	19,38,8	27,21,8	35,1,8	43,54,8	51,81,8	59,11,8	67,58,8	75,29,8	83,80,8	91,56,8	99,86,8	107,57,8	115,73,8	123,112,8	131,42,8	139,96,8	147,34,8	155,67,8	163,84,8	171,59,8	179,102,8	187,53,8	195,107,8	269,94,8	
2,6,8	10,20,8	18,120,8	26,13,8	34,2,8	42,115,8	50,14,8	58,100,8	66,110,8	74,68,8	82,32,8	90,65,8	98,106,8	106,116,8	114,69,8	122,105,8	130,91,8	138,82,8	146,78,8	154,119,8	162,23,8	170,76,8	189,87,8	
# Incoming
70,(9, 72),1	71,(2, 62),1	72,(2, 118),2	74,(9, 98),2	76,(12, 108),3	79,(6, 77),1	80,(11, 77),2	82,(9, 83),2	84,(2, 43),3	87,(8, 83),1	88,(6, 15),1	89,(4, 15),1	90,(11, 15),2	92,(6, 44),1	93,(4, 44),9	102,(6, 104),1	103,(8, 104),11	114,(3, 39),7	121,(6, 64),2	123,(9, 64),1	124,(11, 104),1	125,(9, 90),13	147,(1, 39),6	165,(12, 64),10	181,(1, 90),3	184,(6, 50),40	224,(12, 50),22	
3,(0, 3),1	9,(0, 8),1	10,(7, 93),1	12,(12, 16),1	14,(7, 17),1	15,(12, 85),1	20,(12, 70),7	35,(10, 36),2	37,(10, 22),3	42,(2, 61),1	43,(2, 88),1	46,(6, 97),1	47,(6, 48),1	49,(2, 17),1	54,(2, 60),2	65,(2, 79),6	72,(11, 17),1	73,(52, 121),6	80,(4, 60),1	82,(1, 79),2	85,(4, 109),4	93,(10, 85),10	103,(117, 121),6	112,(9, 24),9	121,(7, 24),13	134,(20, 121),6	140,(37, 121),6	146,(120, 121),6	153,(12, 79),12	165,(13, 121),6	175,(1, 24),3	178,(30, 121),6	189,(95, 121),6	195,(38, 121),6	201,(21, 121),6	208,(47, 121),6	214,(101, 121),6	220,(27, 121),6	226,(115, 121),6	232,(111, 121),6	238,(14, 121),6	246,(54, 121),6	252,(81, 121),6	258,(63, 121),6	269,(40, 121),6	275,(46, 121),6	281,(100, 121),6	287,(45, 121),6	293,(110, 121),6	299,(58, 121),6	305,(74, 121),6	311,(18, 121),6	317,(68, 121),6	323,(29, 121),6	329,(41, 121),6	335,(72, 121),6	341,(32, 121),6	347,(80, 121),6	353,(31, 121),6	359,(62, 121),6	365,(65, 121),6	371,(56, 121),6	377,(75, 121),6	383,(118, 121),6	389,(106, 121),6	395,(86, 121),6	401,(89, 121),6	407,(98, 121),6	413,(116, 121),6	419,(57, 121),6	425,(66, 121),6	431,(108, 121),6	437,(69, 121),6	443,(73, 121),6	449,(49, 121),6	455,(77, 121),6	461,(105, 121),6	467,(112, 121),6	473,(103, 121),6	479,(83, 121),6	485,(91, 121),6	491,(42, 121),6	497,(55, 121),6	503,(43, 121),6	509,(82, 121),6	515,(96, 121),6	521,(99, 121),6	527,(15, 121),6	533,(78, 121),6	539,(34, 121),6	545,(26, 121),6	551,(44, 121),6	557,(119, 121),6	563,(67, 121),6	569,(71, 121),6	575,(104, 121),6	581,(23, 121),6	587,(84, 121),6	593,(35, 121),6	599,(39, 121),6	605,(76, 121),6	611,(59, 121),6	617,(51, 121),6	623,(64, 121),6	629,(102, 121),6	635,(113, 121),6	641,(90, 121),6	647,(53, 121),6	653,(87, 121),6	659,(107, 121),6	665,(50, 121),6	671,(94, 121),6	
4,(0, 4),1	8,(0, 9),1	11,(7, 75),1	12,(7, 99),1	13,(12, 103),1	14,(12, 26),1	15,(7, 55),6	21,(7, 26),4	25,(3, 26),5	33,(10, 89),2	35,(3, 35),5	43,(1, 111),1	44,(2, 63),1	45,(6, 31),1	46,(1, 31),1	50,(2, 103),4	57,(5, 41),1	58,(5, 75),1	59,(5, 49),1	60,(2, 113),1	64,(1, 35),1	65,(5, 71),4	69,(11, 66),1	73,(11, 26),2	77,(8, 66),1	81,(8, 49),4	85,(5, 99),8	93,(3, 51),7	103,(2, 51),8	115,(12, 71),9	124,(8, 51),5	139,(11, 35),8	154,(10, 113),19	178,(1, 113),3	
2,(0, 12),1	6,(0, 1),1	7,(0, 11),1	13,(3, 21),1	16,(3, 107),1	25,(7, 59),8	48,(6, 112),1	56,(6, 96),1	57,(2, 34),1	58,(2, 67),2	60,(5, 42),1	61,(6, 84),4	71,(4, 56),1	72,(9, 86),1	74,(2, 94),1	76,(9, 57),1	78,(8, 73),1	102,(4, 102),10	129,(3, 53),23	152,(9, 107),24	176,(4, 94),32	208,(5, 94),61	
1,(0, 6),1	5,(0, 2),1	11,(12, 13),1	12,(3, 120),1	13,(7, 69),1	14,(3, 110),1	15,(3, 106),1	16,(12, 91),4	20,(3, 91),1	21,(3, 78),1	27,(12, 87),12	40,(10, 119),2	42,(10, 87),1	44,(1, 100),1	45,(1, 69),1	47,(1, 116),4	51,(1, 105),4	55,(1, 82),9	64,(5, 82),1	67,(11, 65),2	69,(9, 68),1	70,(11, 106),2	73,(4, 116),1	76,(8, 32),1	77,(4, 69),3	80,(8, 69),1	81,(9, 91),1	84,(9, 82),1	85,(8, 105),2	88,(8, 23),3	92,(11, 78),10	102,(11, 119),13	115,(10, 76),6	125,(1, 23),14	139,(5, 76),15	154,(8, 87),16	184,(1, 87),5	
# Outgoing
1,(0, 6),1	2,(0, 12),1	3,(0, 3),1	4,(0, 4),1	5,(0, 2),1	6,(0, 1),1	7,(0, 11),1	8,(0, 9),1	9,(0, 8),1	10,(7, 93),1	11,(7, 75),1	12,(7, 99),1	13,(7, 69),1	14,(7, 17),1	15,(7, 55),6	21,(7, 26),4	25,(7, 59),8	33,(10, 89),2	35,(10, 36),2	37,(10, 22),3	40,(10, 119),2	42,(10, 87),1	57,(5, 41),1	58,(5, 75),1	59,(5, 49),1	60,(5, 42),1	64,(5, 82),1	65,(5, 71),4	73,(52, 121),6	85,(5, 99),8	93,(10, 85),10	103,(117, 121),6	115,(10, 76),6	121,(7, 24),13	139,(5, 76),15	154,(10, 113),19	178,(30, 121),6	208,(5, 94),61	269,(40, 121),6	275,(46, 121),6	287,(45, 121),6	311,(18, 121),6	335,(72, 121),6	359,(62, 121),6	383,(118, 121),6	407,(98, 121),6	431,(108, 121),6	455,(77, 121),6	479,(83, 121),6	503,(43, 121),6	527,(15, 121),6	551,(44, 121),6	575,(104, 121),6	599,(39, 121),6	623,(64, 121),6	641,(90, 121),6	665,(50, 121),6	
12,(3, 120),1	13,(3, 21),1	14,(3, 110),1	15,(3, 106),1	16,(3, 107),1	20,(3, 91),1	21,(3, 78),1	25,(3, 26),5	35,(3, 35),5	76,(8, 32),1	77,(8, 66),1	78,(8, 73),1	80,(8, 69),1	81,(8, 49),4	85,(8, 105),2	87,(8, 83),1	88,(8, 23),3	93,(3, 51),7	103,(8, 104),11	114,(3, 39),7	124,(8, 51),5	129,(3, 53),23	154,(8, 87),16	
69,(9, 68),1	70,(9, 72),1	71,(4, 56),1	72,(9, 86),1	73,(4, 116),1	74,(9, 98),2	76,(9, 57),1	77,(4, 69),3	80,(4, 60),1	81,(9, 91),1	82,(9, 83),2	84,(9, 82),1	85,(4, 109),4	89,(4, 15),1	93,(4, 44),9	102,(4, 102),10	112,(9, 24),9	123,(9, 64),1	125,(9, 90),13	140,(37, 121),6	152,(9, 107),24	176,(4, 94),32	208,(47, 121),6	214,(101, 121),6	220,(27, 121),6	232,(111, 121),6	258,(63, 121),6	305,(74, 121),6	329,(41, 121),6	353,(31, 121),6	377,(75, 121),6	401,(89, 121),6	425,(66, 121),6	449,(49, 121),6	473,(103, 121),6	497,(55, 121),6	521,(99, 121),6	545,(26, 121),6	569,(71, 121),6	593,(35, 121),6	617,(51, 121),6	635,(113, 121),6	
11,(12, 13),1	12,(12, 16),1	13,(12, 103),1	14,(12, 26),1	15,(12, 85),1	16,(12, 91),4	20,(12, 70),7	27,(12, 87),12	43,(1, 111),1	44,(1, 100),1	45,(1, 69),1	46,(1, 31),1	47,(1, 116),4	51,(1, 105),4	55,(1, 82),9	64,(1, 35),1	67,(11, 65),2	69,(11, 66),1	70,(11, 106),2	72,(11, 17),1	73,(11, 26),2	76,(12, 108),3	80,(11, 77),2	82,(1, 79),2	90,(11, 15),2	92,(11, 78),10	102,(11, 119),13	115,(12, 71),9	124,(11, 104),1	125,(1, 23),14	139,(11, 35),8	147,(1, 39),6	153,(12, 79),12	165,(12, 64),10	175,(1, 24),3	178,(1, 113),3	181,(1, 90),3	184,(1, 87),5	189,(95, 121),6	195,(38, 121),6	201,(21, 121),6	224,(12, 50),22	246,(54, 121),6	252,(81, 121),6	299,(58, 121),6	323,(29, 121),6	347,(80, 121),6	371,(56, 121),6	395,(86, 121),6	419,(57, 121),6	443,(73, 121),6	467,(112, 121),6	491,(42, 121),6	515,(96, 121),6	539,(34, 121),6	563,(67, 121),6	587,(84, 121),6	611,(59, 121),6	629,(102, 121),6	647,(53, 121),6	659,(107, 121),6	671,(94, 121),6	
42,(2, 61),1	43,(2, 88),1	44,(2, 63),1	45,(6, 31),1	46,(6, 97),1	47,(6, 48),1	48,(6, 112),1	49,(2, 17),1	50,(2, 103),4	54,(2, 60),2	56,(6, 96),1	57,(2, 34),1	58,(2, 67),2	60,(2, 113),1	61,(6, 84),4	65,(2, 79),6	71,(2, 62),1	72,(2, 118),2	74,(2, 94),1	79,(6, 77),1	84,(2, 43),3	88,(6, 15),1	92,(6, 44),1	102,(6, 104),1	103,(2, 51),8	121,(6, 64),2	134,(20, 121),6	146,(120, 121),6	165,(13, 121),6	184,(6, 50),40	226,(115, 121),6	238,(14, 121),6	281,(100, 121),6	293,(110, 121),6	317,(68, 121),6	341,(32, 121),6	365,(65, 121),6	389,(106, 121),6	413,(116, 121),6	437,(69, 121),6	461,(105, 121),6	485,(91, 121),6	509,(82, 121),6	533,(78, 121),6	557,(119, 121),6	581,(23, 121),6	605,(76, 121),6	653,(87, 121),6	
