936
# CPU
268,13,15	296,14,15	336,18,15	628,6,15	643,8,15	660,9,15	704,10,15	720,11,15	772,12,15	787,16,15	908,20,15	
5,2,15	20,4,15	35,15,15	208,7,15	332,17,15	348,19,15	935,21,1	
0,0,1	1,1,15	292,3,15	624,5,15	
# Incoming
16,(1, 6),140	208,(1, 8),16	224,(1, 11),32	256,(1, 12),4	260,(1, 13),8	268,(1, 14),28	296,(1, 16),12	332,(1, 18),4	348,(1, 20),4	624,(2, 6),4	628,(2, 8),12	640,(2, 9),20	660,(2, 10),44	704,(2, 11),16	720,(2, 12),52	772,(2, 16),4	776,(2, 20),132	
1,(0, 2),4	156,(1, 7),52	283,(13, 21),12	308,(1, 17),24	336,(1, 19),12	352,(3, 21),12	364,(14, 21),12	376,(18, 21),12	639,(5, 21),12	651,(6, 21),12	663,(8, 21),12	675,(9, 21),12	719,(10, 21),12	735,(11, 21),12	787,(12, 21),12	802,(16, 21),12	923,(20, 21),12	
20,(2, 3),272	292,(2, 5),332	
# Outgoing
283,(13, 21),12	364,(14, 21),12	376,(18, 21),12	651,(6, 21),12	663,(8, 21),12	675,(9, 21),12	719,(10, 21),12	735,(11, 21),12	787,(12, 21),12	802,(16, 21),12	923,(20, 21),12	
20,(2, 3),272	292,(2, 5),332	624,(2, 6),4	628,(2, 8),12	640,(2, 9),20	660,(2, 10),44	704,(2, 11),16	720,(2, 12),52	772,(2, 16),4	776,(2, 20),132	
1,(0, 2),4	16,(1, 6),140	156,(1, 7),52	208,(1, 8),16	224,(1, 11),32	256,(1, 12),4	260,(1, 13),8	268,(1, 14),28	296,(1, 16),12	308,(1, 17),24	332,(1, 18),4	336,(1, 19),12	348,(1, 20),4	352,(3, 21),12	639,(5, 21),12	
