7002
# CPU
577,26,22	1300,16,22	1354,11,22	1384,22,22	1406,39,22	6298,30,22	6937,34,22	
64,4,22	280,9,22	305,21,22	327,29,22	349,15,22	412,10,22	460,25,22	6931,33,22	6953,38,22	
43,3,22	331,13,22	353,18,22	375,40,22	6076,8,22	6098,23,22	6120,27,22	6142,31,22	6940,35,22	
22,2,22	292,32,22	316,36,22	338,6,22	367,7,22	421,14,22	443,20,22	465,24,22	6253,28,22	
0,0,1	1,1,22	62,5,22	302,19,22	364,37,22	386,12,22	433,17,22	7001,41,1	
# Incoming
283,(1, 11),48	331,(3, 30),3	334,(4, 34),3	346,(1, 16),9	355,(1, 22),3	358,(2, 39),12	373,(1, 26),3	376,(2, 22),117	493,(2, 26),84	577,(3, 11),687	1264,(3, 16),36	1300,(3, 34),15	1315,(4, 11),39	1354,(4, 22),30	1384,(4, 39),3	6253,(1, 30),45	6931,(1, 34),6	
43,(0, 4),21	104,(2, 9),30	134,(2, 10),3	143,(2, 15),3	250,(1, 9),30	280,(1, 10),3	283,(3, 15),3	302,(2, 21),3	305,(2, 25),3	311,(2, 29),3	332,(2, 38),3	337,(1, 15),9	358,(1, 25),15	373,(3, 10),39	412,(3, 25),48	460,(3, 33),30	6298,(1, 33),633	6940,(1, 38),3	
22,(0, 3),21	62,(2, 8),42	140,(2, 13),3	149,(2, 18),12	247,(1, 8),3	308,(2, 27),3	314,(2, 31),6	322,(4, 13),9	331,(4, 18),3	335,(2, 40),15	376,(1, 27),5679	6055,(4, 8),21	6076,(4, 23),12	6088,(4, 27),3	6091,(4, 31),12	6103,(4, 35),12	6937,(1, 35),3	
1,(0, 2),21	64,(1, 7),183	247,(3, 6),3	250,(3, 14),9	259,(3, 20),15	274,(3, 24),9	286,(3, 32),6	292,(3, 36),24	316,(4, 6),6	331,(1, 14),6	337,(4, 7),30	373,(4, 14),48	433,(4, 20),3	436,(4, 24),3	6055,(1, 28),198	
44,(2, 5),18	137,(2, 12),3	146,(2, 17),3	161,(2, 19),141	320,(2, 37),12	334,(3, 37),30	367,(4, 12),6	421,(4, 17),12	439,(9, 41),12	451,(21, 41),12	463,(29, 41),12	475,(15, 41),12	490,(13, 41),12	502,(18, 41),12	514,(40, 41),12	526,(10, 41),12	538,(25, 41),12	577,(32, 41),12	589,(36, 41),12	601,(6, 41),12	613,(7, 41),12	625,(14, 41),12	637,(20, 41),12	649,(24, 41),12	661,(26, 41),12	1322,(16, 41),12	1376,(11, 41),12	1406,(22, 41),12	1428,(39, 41),12	6098,(8, 41),12	6120,(23, 41),12	6142,(27, 41),12	6164,(31, 41),12	6275,(28, 41),12	6320,(30, 41),12	6953,(33, 41),12	6965,(34, 41),12	6977,(35, 41),12	6989,(38, 41),12	
# Outgoing
661,(26, 41),12	1322,(16, 41),12	1376,(11, 41),12	1406,(22, 41),12	1428,(39, 41),12	6320,(30, 41),12	6965,(34, 41),12	
316,(4, 6),6	322,(4, 13),9	331,(4, 18),3	334,(4, 34),3	337,(4, 7),30	367,(4, 12),6	373,(4, 14),48	421,(4, 17),12	433,(4, 20),3	436,(4, 24),3	439,(9, 41),12	451,(21, 41),12	463,(29, 41),12	475,(15, 41),12	526,(10, 41),12	538,(25, 41),12	1315,(4, 11),39	1354,(4, 22),30	1384,(4, 39),3	6055,(4, 8),21	6076,(4, 23),12	6088,(4, 27),3	6091,(4, 31),12	6103,(4, 35),12	6953,(33, 41),12	6989,(38, 41),12	
247,(3, 6),3	250,(3, 14),9	259,(3, 20),15	274,(3, 24),9	283,(3, 15),3	286,(3, 32),6	292,(3, 36),24	331,(3, 30),3	334,(3, 37),30	373,(3, 10),39	412,(3, 25),48	460,(3, 33),30	490,(13, 41),12	502,(18, 41),12	514,(40, 41),12	577,(3, 11),687	1264,(3, 16),36	1300,(3, 34),15	6098,(8, 41),12	6120,(23, 41),12	6142,(27, 41),12	6164,(31, 41),12	6977,(35, 41),12	
44,(2, 5),18	62,(2, 8),42	104,(2, 9),30	134,(2, 10),3	137,(2, 12),3	140,(2, 13),3	143,(2, 15),3	146,(2, 17),3	149,(2, 18),12	161,(2, 19),141	302,(2, 21),3	305,(2, 25),3	308,(2, 27),3	311,(2, 29),3	314,(2, 31),6	320,(2, 37),12	332,(2, 38),3	335,(2, 40),15	358,(2, 39),12	376,(2, 22),117	493,(2, 26),84	577,(32, 41),12	589,(36, 41),12	601,(6, 41),12	613,(7, 41),12	625,(14, 41),12	637,(20, 41),12	649,(24, 41),12	6275,(28, 41),12	
1,(0, 2),21	22,(0, 3),21	43,(0, 4),21	64,(1, 7),183	247,(1, 8),3	250,(1, 9),30	280,(1, 10),3	283,(1, 11),48	331,(1, 14),6	337,(1, 15),9	346,(1, 16),9	355,(1, 22),3	358,(1, 25),15	373,(1, 26),3	376,(1, 27),5679	6055,(1, 28),198	6253,(1, 30),45	6298,(1, 33),633	6931,(1, 34),6	6937,(1, 35),3	6940,(1, 38),3	
