2462
# CPU
0,0,1	1,5,41	42,120,41	83,52,41	124,7,41	165,44,41	206,114,41	247,4,41	288,49,41	329,21,41	370,116,41	411,6,41	452,17,41	493,66,41	534,31,41	575,10,41	616,110,41	657,51,41	698,81,41	739,95,41	780,46,41	821,2,41	862,50,41	903,15,41	944,26,41	985,108,41	1026,35,41	1067,88,41	1108,57,41	1149,11,41	1190,90,41	1231,47,41	1272,94,41	1313,79,41	1354,61,41	1395,100,41	1436,69,41	1477,99,41	1518,38,41	1559,3,41	1600,103,41	1641,60,41	1682,101,41	1723,32,41	1764,48,41	1805,102,41	1846,13,41	1887,12,41	1928,71,41	1969,29,41	2010,53,41	2051,98,41	2092,8,41	2133,82,41	2174,119,41	2215,65,41	2256,73,41	2297,34,41	2338,105,41	2379,24,41	2420,77,41	2461,121,1	
46,30,41	87,22,41	169,87,41	316,96,41	460,118,41	520,72,41	620,92,41	668,83,41	752,113,41	874,89,41	942,42,41	1162,9,41	1203,59,41	1244,33,41	1478,1,41	1519,63,41	1560,106,41	1601,20,41	1642,111,41	1683,76,41	1724,43,41	1765,93,41	1932,97,41	1996,84,41	2092,58,41	2137,107,41	2178,74,41	2229,40,41	
50,39,41	177,85,41	472,18,41	632,64,41	890,55,41	1194,16,41	1235,109,41	1276,70,41	1523,78,41	1564,45,41	1605,56,41	1646,27,41	1687,91,41	1752,37,41	1940,36,41	2141,112,41	2182,28,41	
54,75,41	197,41,41	492,62,41	648,25,41	914,86,41	1198,19,41	1239,23,41	1527,104,41	1575,68,41	1616,54,41	1657,67,41	1708,14,41	1952,115,41	2145,117,41	2197,80,41	
# Incoming
1215,(9, 24),8	1223,(30, 121),4	1227,(39, 121),4	1231,(75, 121),4	1235,(22, 121),4	1239,(87, 121),4	1243,(85, 121),4	1247,(41, 121),4	1251,(96, 121),4	1255,(118, 121),4	1259,(18, 121),4	1263,(62, 121),4	1267,(72, 121),4	1271,(92, 121),4	1275,(64, 121),4	1279,(25, 121),4	1283,(83, 121),4	1287,(113, 121),4	1291,(89, 121),4	1295,(55, 121),4	1299,(86, 121),4	1303,(42, 121),4	1307,(16, 121),4	1311,(19, 121),4	1315,(59, 121),4	1319,(109, 121),4	1323,(23, 121),4	1327,(33, 121),4	1331,(70, 121),4	1564,(78, 121),4	1568,(104, 121),4	1575,(63, 121),4	1601,(106, 121),4	1605,(45, 121),4	1616,(68, 121),4	1642,(20, 121),4	1646,(56, 121),4	1657,(54, 121),4	1687,(27, 121),4	1698,(67, 121),4	1708,(9, 77),548	2256,(111, 121),4	2260,(76, 121),4	2264,(91, 121),4	2268,(14, 121),4	2272,(43, 121),4	2276,(37, 121),4	2280,(93, 121),4	2284,(97, 121),4	2288,(36, 121),4	2292,(115, 121),4	2296,(84, 121),4	2300,(58, 121),4	2304,(107, 121),4	2308,(112, 121),4	2312,(117, 121),4	2316,(74, 121),4	2320,(28, 121),4	2324,(80, 121),4	2328,(40, 121),4	
42,(5, 30),4	54,(5, 22),20	74,(5, 72),76	150,(5, 93),4	165,(7, 87),4	288,(4, 96),28	452,(6, 118),8	492,(6, 72),28	520,(6, 97),24	616,(10, 92),4	648,(10, 83),20	668,(10, 113),84	862,(2, 89),12	914,(2, 42),28	942,(0, 9),220	1258,(0, 1),220	1752,(7, 40),124	1928,(12, 97),4	1952,(12, 84),44	1996,(12, 58),96	2133,(8, 107),4	2145,(8, 74),12	2197,(8, 40),32	
46,(5, 39),4	169,(7, 85),8	460,(6, 18),12	620,(10, 64),12	874,(2, 55),16	1190,(11, 16),4	1198,(11, 109),8	1206,(11, 70),52	1519,(1, 78),4	1527,(1, 45),24	1600,(3, 56),4	1616,(3, 27),16	1656,(3, 91),28	1684,(3, 37),68	1932,(12, 36),8	2137,(8, 112),4	2157,(8, 28),20	
50,(5, 75),4	177,(7, 41),20	316,(4, 23),36	352,(4, 115),12	472,(6, 62),20	632,(10, 25),16	752,(10, 68),12	890,(2, 86),24	1194,(11, 19),4	1203,(9, 23),12	1523,(1, 104),4	1551,(1, 68),24	1604,(3, 54),12	1632,(3, 67),24	1656,(1, 14),52	1940,(12, 115),12	2141,(8, 117),4	2177,(8, 80),20	
# Outgoing
42,(5, 30),4	46,(5, 39),4	50,(5, 75),4	54,(5, 22),20	74,(5, 72),76	150,(5, 93),4	165,(7, 87),4	169,(7, 85),8	177,(7, 41),20	288,(4, 96),28	316,(4, 23),36	352,(4, 115),12	452,(6, 118),8	460,(6, 18),12	472,(6, 62),20	492,(6, 72),28	520,(6, 97),24	616,(10, 92),4	620,(10, 64),12	632,(10, 25),16	648,(10, 83),20	668,(10, 113),84	752,(10, 68),12	862,(2, 89),12	874,(2, 55),16	890,(2, 86),24	914,(2, 42),28	942,(0, 9),220	1190,(11, 16),4	1194,(11, 19),4	1198,(11, 109),8	1206,(11, 70),52	1258,(0, 1),220	1600,(3, 56),4	1604,(3, 54),12	1616,(3, 27),16	1632,(3, 67),24	1656,(3, 91),28	1684,(3, 37),68	1752,(7, 40),124	1928,(12, 97),4	1932,(12, 36),8	1940,(12, 115),12	1952,(12, 84),44	1996,(12, 58),96	2133,(8, 107),4	2137,(8, 112),4	2141,(8, 117),4	2145,(8, 74),12	2157,(8, 28),20	2177,(8, 80),20	2197,(8, 40),32	
1203,(9, 23),12	1215,(9, 24),8	1223,(30, 121),4	1235,(22, 121),4	1239,(87, 121),4	1251,(96, 121),4	1255,(118, 121),4	1267,(72, 121),4	1271,(92, 121),4	1283,(83, 121),4	1287,(113, 121),4	1291,(89, 121),4	1303,(42, 121),4	1315,(59, 121),4	1327,(33, 121),4	1519,(1, 78),4	1523,(1, 104),4	1527,(1, 45),24	1551,(1, 68),24	1575,(63, 121),4	1601,(106, 121),4	1642,(20, 121),4	1656,(1, 14),52	1708,(9, 77),548	2256,(111, 121),4	2260,(76, 121),4	2272,(43, 121),4	2280,(93, 121),4	2284,(97, 121),4	2296,(84, 121),4	2300,(58, 121),4	2304,(107, 121),4	2316,(74, 121),4	2328,(40, 121),4	
1227,(39, 121),4	1243,(85, 121),4	1259,(18, 121),4	1275,(64, 121),4	1295,(55, 121),4	1307,(16, 121),4	1319,(109, 121),4	1331,(70, 121),4	1564,(78, 121),4	1605,(45, 121),4	1646,(56, 121),4	1687,(27, 121),4	2264,(91, 121),4	2276,(37, 121),4	2288,(36, 121),4	2308,(112, 121),4	2320,(28, 121),4	
1231,(75, 121),4	1247,(41, 121),4	1263,(62, 121),4	1279,(25, 121),4	1299,(86, 121),4	1311,(19, 121),4	1323,(23, 121),4	1568,(104, 121),4	1616,(68, 121),4	1657,(54, 121),4	1698,(67, 121),4	2268,(14, 121),4	2292,(115, 121),4	2312,(117, 121),4	2324,(80, 121),4	
