1763
# CPU
0,0,1	1,6,31	32,38,31	63,72,31	94,77,31	125,1,31	156,10,31	187,78,31	218,3,31	249,9,31	280,60,31	311,70,31	342,8,31	373,25,31	404,14,31	435,28,31	466,48,31	497,79,31	528,31,31	559,7,31	590,68,31	621,45,31	652,29,31	683,5,31	714,63,31	745,32,31	776,55,31	807,51,31	838,75,31	869,42,31	900,22,31	931,21,31	962,53,31	993,52,31	1024,18,31	1055,56,31	1155,30,31	1731,62,31	1762,81,1	
38,67,31	80,64,31	171,74,31	252,43,31	387,80,31	458,11,31	602,59,31	717,50,31	798,44,31	903,4,31	934,24,31	965,26,31	996,16,31	1027,20,31	1058,76,31	1089,34,31	
47,13,31	255,27,31	375,2,31	406,17,31	437,12,31	468,35,31	513,15,31	617,19,31	720,33,31	759,39,31	971,71,31	1048,73,31	1079,46,31	
261,37,31	408,69,31	439,66,31	726,49,31	937,36,31	968,61,31	999,23,31	
270,58,31	732,41,31	971,65,31	
409,40,31	974,57,31	
977,54,31	
1014,47,31	


# Incoming
69,(67, 81),3	78,(13, 81),3	111,(64, 81),3	202,(74, 81),3	283,(43, 81),3	286,(27, 81),3	292,(37, 81),3	301,(58, 81),3	418,(80, 81),3	437,(17, 81),3	440,(69, 81),3	443,(40, 81),3	468,(12, 81),3	471,(66, 81),3	489,(11, 81),3	499,(35, 81),3	544,(15, 81),3	633,(59, 81),3	648,(19, 81),3	651,(2, 18),63	748,(50, 81),3	751,(33, 81),3	757,(49, 81),3	763,(41, 81),3	790,(39, 81),3	829,(44, 81),3	832,(2, 56),87	937,(4, 53),3	958,(4, 52),3	965,(24, 81),3	968,(36, 81),3	996,(26, 81),3	999,(61, 81),3	1002,(71, 81),3	1005,(65, 81),3	1008,(57, 81),3	1011,(54, 81),3	1027,(16, 81),3	1030,(23, 81),3	1045,(47, 81),3	1058,(20, 81),3	1079,(73, 81),3	1089,(76, 81),3	1110,(46, 81),3	1113,(4, 30),42	1155,(34, 81),3	1158,(4, 62),573	
32,(6, 67),6	47,(6, 64),33	80,(6, 80),36	134,(6, 11),3	156,(1, 74),15	234,(1, 34),9	249,(3, 43),3	375,(8, 80),12	440,(2, 11),18	471,(2, 76),27	513,(3, 50),3	549,(3, 44),3	590,(7, 59),12	714,(5, 50),3	759,(5, 44),39	798,(0, 4),105	919,(2, 34),69	
38,(6, 13),9	137,(6, 33),15	180,(1, 39),30	210,(6, 71),15	252,(3, 27),3	270,(0, 2),105	411,(8, 35),3	414,(6, 15),99	602,(7, 19),15	617,(7, 33),87	717,(5, 33),3	732,(5, 39),27	903,(5, 71),6	909,(7, 73),18	927,(5, 46),3	946,(4, 71),3	949,(1, 46),75	1030,(4, 73),18	1061,(4, 46),18	
255,(3, 37),6	387,(8, 69),21	408,(6, 66),3	411,(2, 66),12	516,(8, 49),9	720,(5, 49),6	934,(4, 36),3	940,(4, 61),6	977,(4, 23),18	
261,(3, 58),9	423,(2, 41),9	525,(3, 41),24	552,(3, 65),27	726,(5, 41),6	949,(4, 65),3	
116,(6, 40),18	171,(1, 40),9	406,(2, 40),3	704,(7, 57),9	952,(4, 57),6	
225,(6, 54),9	547,(2, 54),48	968,(4, 54),9	
579,(3, 47),6	595,(2, 47),15	999,(4, 47),15	


# Outgoing
32,(6, 67),6	38,(6, 13),9	47,(6, 64),33	80,(6, 80),36	116,(6, 40),18	134,(6, 11),3	137,(6, 33),15	156,(1, 74),15	171,(1, 40),9	180,(1, 39),30	210,(6, 71),15	225,(6, 54),9	234,(1, 34),9	249,(3, 43),3	252,(3, 27),3	255,(3, 37),6	261,(3, 58),9	270,(0, 2),105	375,(8, 80),12	387,(8, 69),21	408,(6, 66),3	411,(8, 35),3	414,(6, 15),99	513,(3, 50),3	516,(8, 49),9	525,(3, 41),24	549,(3, 44),3	552,(3, 65),27	579,(3, 47),6	590,(7, 59),12	602,(7, 19),15	617,(7, 33),87	704,(7, 57),9	714,(5, 50),3	717,(5, 33),3	720,(5, 49),6	726,(5, 41),6	732,(5, 39),27	759,(5, 44),39	798,(0, 4),105	903,(5, 71),6	909,(7, 73),18	927,(5, 46),3	949,(1, 46),75	
69,(67, 81),3	111,(64, 81),3	202,(74, 81),3	283,(43, 81),3	418,(80, 81),3	489,(11, 81),3	633,(59, 81),3	748,(50, 81),3	829,(44, 81),3	934,(4, 36),3	937,(4, 53),3	940,(4, 61),6	946,(4, 71),3	949,(4, 65),3	952,(4, 57),6	958,(4, 52),3	965,(24, 81),3	968,(4, 54),9	977,(4, 23),18	996,(26, 81),3	999,(4, 47),15	1027,(16, 81),3	1030,(4, 73),18	1058,(20, 81),3	1061,(4, 46),18	1089,(76, 81),3	1113,(4, 30),42	1155,(34, 81),3	1158,(4, 62),573	
78,(13, 81),3	286,(27, 81),3	406,(2, 40),3	411,(2, 66),12	423,(2, 41),9	437,(17, 81),3	440,(2, 11),18	468,(12, 81),3	471,(2, 76),27	499,(35, 81),3	544,(15, 81),3	547,(2, 54),48	595,(2, 47),15	648,(19, 81),3	651,(2, 18),63	751,(33, 81),3	790,(39, 81),3	832,(2, 56),87	919,(2, 34),69	1002,(71, 81),3	1079,(73, 81),3	1110,(46, 81),3	
292,(37, 81),3	440,(69, 81),3	471,(66, 81),3	757,(49, 81),3	968,(36, 81),3	999,(61, 81),3	1030,(23, 81),3	
301,(58, 81),3	763,(41, 81),3	1005,(65, 81),3	
443,(40, 81),3	1008,(57, 81),3	
1011,(54, 81),3	
1045,(47, 81),3	


