3670
# CPU
57,3,24	81,26,24	105,42,24	129,46,24	153,52,24	177,68,24	201,58,24	225,48,24	249,6,24	273,15,24	297,62,24	321,17,24	345,40,24	369,50,24	393,23,24	417,56,24	441,36,24	465,66,24	489,70,24	513,30,24	537,80,24	561,12,24	585,21,24	609,28,24	685,19,24	721,72,24	745,74,24	769,78,24	829,9,24	857,32,24	881,34,24	905,38,24	929,44,24	1009,60,24	1041,64,24	1181,76,24	1313,54,24	
29,2,24	53,18,24	77,63,24	101,5,24	125,37,24	149,55,24	173,65,24	197,8,24	221,16,24	245,33,24	269,41,24	293,11,24	389,51,24	553,22,24	713,39,24	797,79,24	853,14,24	877,35,24	1129,69,24	1153,71,24	1901,31,24	2405,43,24	2429,47,24	2453,57,24	2477,59,24	2501,73,24	2641,20,24	2665,24,24	2689,27,24	2713,29,24	2737,45,24	2761,49,24	2785,53,24	2809,61,24	2833,67,24	2857,75,24	2973,77,24	
0,0,1	1,7,24	25,4,24	49,1,24	945,13,24	1873,25,24	2621,10,24	3669,81,1	
# Incoming
29,(0, 3),28	57,(2, 26),8	65,(2, 42),12	77,(2, 46),4	81,(2, 48),4	85,(0, 6),28	133,(5, 15),4	141,(7, 15),4	145,(2, 62),56	205,(7, 50),128	333,(5, 23),56	389,(7, 56),12	401,(5, 36),12	413,(5, 66),8	421,(5, 70),16	437,(8, 30),4	441,(8, 80),12	453,(4, 12),24	477,(4, 21),72	553,(4, 28),36	589,(8, 19),96	713,(4, 72),8	721,(4, 74),20	741,(4, 78),12	797,(1, 9),32	853,(1, 32),4	857,(1, 34),4	873,(1, 38),4	877,(1, 44),4	989,(1, 60),20	1009,(1, 64),32	1133,(1, 76),48	1181,(8, 54),132	
1,(0, 2),28	57,(0, 5),28	113,(0, 8),28	145,(7, 16),20	165,(7, 27),28	193,(7, 33),12	205,(3, 11),52	333,(7, 51),56	401,(7, 57),24	425,(7, 71),24	449,(7, 77),4	549,(4, 22),4	589,(4, 39),124	753,(4, 79),44	829,(1, 14),24	861,(1, 35),12	881,(1, 53),108	989,(3, 24),28	1041,(1, 69),88	1129,(1, 71),4	1873,(3, 31),28	1901,(3, 43),504	2405,(3, 47),4	2409,(3, 57),4	2413,(3, 59),48	2461,(3, 73),12	2621,(6, 20),20	2641,(6, 24),4	2645,(6, 27),24	2669,(6, 29),4	2673,(6, 45),28	2701,(6, 49),52	2753,(6, 53),8	2761,(6, 61),4	2765,(6, 67),4	2769,(6, 75),20	2789,(6, 77),184	
85,(18, 81),24	109,(63, 81),24	201,(37, 81),24	225,(55, 81),24	257,(3, 13),688	945,(26, 81),24	969,(65, 81),24	993,(16, 81),24	1017,(3, 25),856	1873,(33, 81),24	1897,(41, 81),24	1921,(11, 81),24	1945,(51, 81),24	1969,(22, 81),24	1993,(39, 81),24	2017,(79, 81),24	2041,(14, 81),24	2065,(35, 81),24	2089,(69, 81),24	2113,(71, 81),24	2137,(31, 81),24	2429,(43, 81),24	2473,(42, 81),24	2497,(46, 81),24	2521,(52, 81),24	2545,(68, 81),24	2569,(58, 81),24	2593,(48, 81),24	2617,(6, 10),4	2621,(47, 81),24	2645,(57, 81),24	2669,(59, 81),24	2693,(73, 81),24	2717,(20, 81),24	2741,(24, 81),24	2765,(27, 81),24	2789,(29, 81),24	2813,(45, 81),24	2837,(49, 81),24	2861,(53, 81),24	2885,(61, 81),24	2909,(67, 81),24	2933,(75, 81),24	2973,(15, 81),24	2997,(62, 81),24	3021,(17, 81),24	3045,(40, 81),24	3069,(50, 81),24	3093,(23, 81),24	3117,(56, 81),24	3141,(36, 81),24	3165,(66, 81),24	3189,(70, 81),24	3213,(30, 81),24	3237,(80, 81),24	3261,(12, 81),24	3285,(21, 81),24	3309,(28, 81),24	3333,(19, 81),24	3357,(72, 81),24	3381,(74, 81),24	3405,(78, 81),24	3429,(9, 81),24	3453,(32, 81),24	3477,(34, 81),24	3501,(38, 81),24	3525,(44, 81),24	3549,(60, 81),24	3573,(64, 81),24	3597,(76, 81),24	3621,(54, 81),24	3645,(77, 81),24	
# Outgoing
205,(3, 11),52	257,(3, 13),688	945,(26, 81),24	989,(3, 24),28	1017,(3, 25),856	1873,(3, 31),28	1901,(3, 43),504	2405,(3, 47),4	2409,(3, 57),4	2413,(3, 59),48	2461,(3, 73),12	2473,(42, 81),24	2497,(46, 81),24	2521,(52, 81),24	2545,(68, 81),24	2569,(58, 81),24	2593,(48, 81),24	2617,(6, 10),4	2621,(6, 20),20	2641,(6, 24),4	2645,(6, 27),24	2669,(6, 29),4	2673,(6, 45),28	2701,(6, 49),52	2753,(6, 53),8	2761,(6, 61),4	2765,(6, 67),4	2769,(6, 75),20	2789,(6, 77),184	2973,(15, 81),24	2997,(62, 81),24	3021,(17, 81),24	3045,(40, 81),24	3069,(50, 81),24	3093,(23, 81),24	3117,(56, 81),24	3141,(36, 81),24	3165,(66, 81),24	3189,(70, 81),24	3213,(30, 81),24	3237,(80, 81),24	3261,(12, 81),24	3285,(21, 81),24	3309,(28, 81),24	3333,(19, 81),24	3357,(72, 81),24	3381,(74, 81),24	3405,(78, 81),24	3429,(9, 81),24	3453,(32, 81),24	3477,(34, 81),24	3501,(38, 81),24	3525,(44, 81),24	3549,(60, 81),24	3573,(64, 81),24	3597,(76, 81),24	3621,(54, 81),24	
57,(2, 26),8	65,(2, 42),12	77,(2, 46),4	81,(2, 48),4	85,(18, 81),24	109,(63, 81),24	133,(5, 15),4	145,(2, 62),56	201,(37, 81),24	225,(55, 81),24	333,(5, 23),56	401,(5, 36),12	413,(5, 66),8	421,(5, 70),16	437,(8, 30),4	441,(8, 80),12	589,(8, 19),96	969,(65, 81),24	993,(16, 81),24	1181,(8, 54),132	1873,(33, 81),24	1897,(41, 81),24	1921,(11, 81),24	1945,(51, 81),24	1969,(22, 81),24	1993,(39, 81),24	2017,(79, 81),24	2041,(14, 81),24	2065,(35, 81),24	2089,(69, 81),24	2113,(71, 81),24	2137,(31, 81),24	2429,(43, 81),24	2621,(47, 81),24	2645,(57, 81),24	2669,(59, 81),24	2693,(73, 81),24	2717,(20, 81),24	2741,(24, 81),24	2765,(27, 81),24	2789,(29, 81),24	2813,(45, 81),24	2837,(49, 81),24	2861,(53, 81),24	2885,(61, 81),24	2909,(67, 81),24	2933,(75, 81),24	3645,(77, 81),24	
1,(0, 2),28	29,(0, 3),28	57,(0, 5),28	85,(0, 6),28	113,(0, 8),28	141,(7, 15),4	145,(7, 16),20	165,(7, 27),28	193,(7, 33),12	205,(7, 50),128	333,(7, 51),56	389,(7, 56),12	401,(7, 57),24	425,(7, 71),24	449,(7, 77),4	453,(4, 12),24	477,(4, 21),72	549,(4, 22),4	553,(4, 28),36	589,(4, 39),124	713,(4, 72),8	721,(4, 74),20	741,(4, 78),12	753,(4, 79),44	797,(1, 9),32	829,(1, 14),24	853,(1, 32),4	857,(1, 34),4	861,(1, 35),12	873,(1, 38),4	877,(1, 44),4	881,(1, 53),108	989,(1, 60),20	1009,(1, 64),32	1041,(1, 69),88	1129,(1, 71),4	1133,(1, 76),48	
