1415
# CPU
0,0,1	1,1,31	32,10,31	63,3,31	94,27,31	125,37,31	156,60,31	187,70,31	218,8,31	249,25,31	280,14,31	311,69,31	342,28,31	373,48,31	404,79,31	435,31,31	466,5,31	497,50,31	528,63,31	559,49,31	590,32,31	621,44,31	652,51,31	683,75,31	714,42,31	745,22,31	776,6,31	807,9,31	838,67,31	869,13,31	900,72,31	931,64,31	962,80,31	993,77,31	1024,78,31	1055,21,31	1086,38,31	1117,71,31	1148,40,31	1179,65,31	1210,46,31	1241,52,31	1272,30,31	1303,15,31	1414,81,1	
52,74,31	98,43,31	129,58,31	250,2,31	281,17,31	312,12,31	343,35,31	394,7,31	425,59,31	456,19,31	487,45,31	518,18,31	549,68,31	580,41,31	611,55,31	642,39,31	725,4,31	756,24,31	787,36,31	818,53,31	849,26,31	880,61,31	911,57,31	942,16,31	973,23,31	1004,73,31	1035,76,31	1066,20,31	1097,66,31	1128,11,31	1159,47,31	1190,54,31	1221,29,31	1252,34,31	1283,33,31	1314,56,31	1379,62,31	
# Incoming
756,(4, 71),4	760,(2, 40),4	764,(4, 65),4	768,(4, 46),24	792,(7, 52),36	828,(4, 52),4	832,(4, 30),56	888,(2, 15),96	984,(74, 81),4	988,(43, 81),4	992,(58, 81),4	996,(17, 81),4	1000,(12, 81),4	1004,(35, 81),4	1008,(59, 81),4	1012,(19, 81),4	1016,(45, 81),4	1020,(18, 81),4	1024,(68, 81),4	1028,(41, 81),4	1032,(55, 81),4	1036,(39, 81),4	1040,(24, 81),4	1044,(36, 81),4	1048,(53, 81),4	1052,(26, 81),4	1056,(61, 81),4	1060,(57, 81),4	1064,(16, 81),4	1068,(23, 81),4	1072,(73, 81),4	1076,(76, 81),4	1097,(20, 81),4	1128,(66, 81),4	1159,(11, 81),4	1190,(47, 81),4	1221,(54, 81),4	1252,(29, 81),4	1283,(34, 81),4	1314,(33, 81),4	1345,(56, 81),4	1410,(62, 81),4	
32,(1, 74),20	52,(1, 55),12	64,(1, 34),12	94,(3, 43),4	98,(3, 58),12	110,(0, 2),140	250,(8, 35),4	254,(0, 7),140	394,(3, 68),4	398,(3, 41),32	430,(1, 39),40	470,(3, 47),8	497,(5, 41),8	505,(5, 55),44	549,(5, 39),36	585,(0, 4),140	725,(5, 33),4	807,(6, 66),4	811,(6, 11),4	815,(6, 54),12	827,(6, 29),12	839,(6, 33),20	859,(6, 56),180	1039,(5, 62),340	
# Outgoing
32,(1, 74),20	52,(1, 55),12	64,(1, 34),12	94,(3, 43),4	98,(3, 58),12	110,(0, 2),140	250,(8, 35),4	254,(0, 7),140	394,(3, 68),4	398,(3, 41),32	430,(1, 39),40	470,(3, 47),8	497,(5, 41),8	505,(5, 55),44	549,(5, 39),36	585,(0, 4),140	725,(5, 33),4	807,(6, 66),4	811,(6, 11),4	815,(6, 54),12	827,(6, 29),12	839,(6, 33),20	859,(6, 56),180	1039,(5, 62),340	
756,(4, 71),4	760,(2, 40),4	764,(4, 65),4	768,(4, 46),24	792,(7, 52),36	828,(4, 52),4	832,(4, 30),56	888,(2, 15),96	984,(74, 81),4	988,(43, 81),4	992,(58, 81),4	996,(17, 81),4	1000,(12, 81),4	1004,(35, 81),4	1008,(59, 81),4	1012,(19, 81),4	1016,(45, 81),4	1020,(18, 81),4	1024,(68, 81),4	1028,(41, 81),4	1032,(55, 81),4	1036,(39, 81),4	1040,(24, 81),4	1044,(36, 81),4	1048,(53, 81),4	1052,(26, 81),4	1056,(61, 81),4	1060,(57, 81),4	1064,(16, 81),4	1068,(23, 81),4	1072,(73, 81),4	1076,(76, 81),4	1097,(20, 81),4	1128,(66, 81),4	1159,(11, 81),4	1190,(47, 81),4	1221,(54, 81),4	1252,(29, 81),4	1283,(34, 81),4	1314,(33, 81),4	1345,(56, 81),4	1410,(62, 81),4	
