12500
# CPU
0,0,1	1,1,18	19,15,18	37,19,18	55,20,18	73,5,18	91,13,18	109,16,18	127,172,18	166,131,18	223,91,18	295,94,18	370,63,18	463,157,18	550,78,18	652,89,18	751,65,18	850,95,18	946,136,18	1054,60,18	1156,96,18	1252,79,18	1357,140,18	1465,56,18	1576,112,18	1693,174,18	1807,26,18	1927,156,18	2044,152,18	2161,28,18	2284,158,18	2407,44,18	2533,200,18	2662,153,18	2794,51,18	2935,113,18	3064,111,18	3205,87,18	3352,122,18	3484,159,18	3628,61,18	3772,189,18	3925,171,18	4081,59,18	4243,192,18	4402,167,18	4576,130,18	4753,84,18	4936,117,18	5119,138,18	5308,69,18	5506,121,18	5698,101,18	5899,170,18	6106,104,18	6331,21,18	6553,64,18	6799,67,18	7030,161,18	7264,71,18	7522,105,18	7801,182,18	8083,38,18	8425,62,18	8776,80,18	9139,98,18	9571,128,18	10033,127,18	10612,185,18	12481,183,18	12499,201,1	
7,12,18	25,3,18	178,188,18	337,160,18	418,35,18	577,88,18	1717,42,18	2176,148,18	3061,100,18	3877,199,18	4516,31,18	5683,173,18	5818,141,18	6247,166,18	7258,132,18	7696,90,18	
13,10,18	31,18,18	73,70,18	169,107,18	439,52,18	1522,37,18	1579,23,18	2005,116,18	2977,29,18	3577,97,18	3775,169,18	4084,181,18	4405,144,18	4963,194,18	5080,43,18	5557,48,18	6397,150,18	8329,114,18	9094,58,18	
19,9,18	37,6,18	112,168,18	280,190,18	502,142,18	679,198,18	841,106,18	1090,155,18	1192,197,18	1438,32,18	1747,137,18	2131,177,18	2299,92,18	2893,186,18	3127,46,18	3211,22,18	3478,109,18	4189,108,18	4297,123,18	5314,164,18	
28,2,18	226,143,18	364,77,18	511,129,18	643,154,18	931,178,18	1246,27,18	1864,50,18	2068,145,18	2368,146,18	2506,126,18	2641,85,18	2722,99,18	3979,151,18	5197,120,18	6715,195,18	7321,147,18	
34,4,18	127,39,18	253,125,18	892,134,18	1009,149,18	1657,74,18	2569,115,18	2803,187,18	4738,66,18	5434,135,18	5959,30,18	6553,47,18	
40,8,18	313,33,18	529,82,18	1393,83,18	3295,25,18	3385,163,18	3676,196,18	7072,133,18	7507,57,18	8641,34,18	
16,11,18	208,45,18	346,75,18	718,93,18	955,76,18	1360,110,18	
10,17,18	100,49,18	151,162,18	394,86,18	751,191,18	1138,139,18	1477,81,18	
4,14,18	22,7,18	139,68,18	238,36,18	325,119,18	478,124,18	598,55,18	790,72,18	1063,118,18	1303,40,18	1639,176,18	1807,41,18	1912,24,18	1975,102,18	2236,175,18	2437,165,18	2839,103,18	4627,193,18	4849,180,18	6103,179,18	6892,54,18	7891,73,18	8104,184,18	9754,53,18	
# Incoming
28,(17, 172),3	31,(17, 157),3	34,(17, 156),3	37,(9, 172),3	43,(3, 172),3	46,(7, 131),3	49,(9, 91),3	55,(4, 91),3	58,(8, 172),18	76,(11, 131),6	82,(2, 91),3	85,(6, 91),3	88,(9, 94),3	91,(70, 201),6	97,(3, 131),15	112,(8, 94),6	118,(49, 201),6	124,(18, 131),3	127,(6, 63),3	130,(168, 201),6	136,(12, 91),6	142,(10, 91),3	145,(39, 201),6	151,(6, 131),15	166,(68, 201),6	172,(162, 201),6	178,(18, 94),9	187,(107, 201),6	193,(14, 91),12	205,(18, 91),18	223,(188, 201),6	229,(45, 201),6	235,(3, 63),3	238,(4, 157),3	241,(12, 78),3	244,(143, 201),6	250,(10, 94),24	274,(4, 94),21	295,(36, 201),6	301,(125, 201),6	307,(190, 201),6	313,(9, 63),18	331,(18, 63),3	334,(8, 63),36	370,(33, 201),6	376,(119, 201),6	382,(160, 201),6	388,(75, 201),6	394,(77, 201),6	400,(9, 157),27	427,(7, 157),3	430,(2, 157),15	445,(6, 157),18	463,(86, 201),6	469,(35, 201),6	475,(52, 201),6	481,(14, 78),48	529,(10, 78),12	541,(9, 78),3	544,(2, 78),3	547,(4, 78),3	550,(124, 201),6	556,(142, 201),6	562,(129, 201),6	568,(82, 201),6	574,(12, 89),3	577,(17, 89),15	592,(10, 89),12	604,(9, 89),15	619,(2, 89),30	649,(4, 89),3	652,(88, 201),6	658,(55, 201),6	664,(154, 201),6	670,(10, 65),12	682,(11, 65),3	685,(9, 65),6	691,(3, 65),3	694,(2, 65),3	697,(4, 65),15	712,(6, 65),3	715,(8, 65),36	751,(198, 201),6	757,(93, 201),6	763,(17, 95),6	769,(191, 201),6	775,(12, 95),42	817,(10, 95),12	829,(9, 95),3	832,(3, 95),3	835,(4, 95),15	850,(72, 201),6	856,(11, 136),3	859,(106, 201),6	865,(14, 136),12	877,(12, 136),27	904,(10, 136),30	934,(9, 136),3	937,(18, 136),9	946,(134, 201),6	952,(178, 201),6	958,(10, 60),15	973,(76, 201),6	979,(11, 60),3	982,(9, 60),3	985,(3, 60),3	988,(2, 60),3	991,(18, 60),3	994,(6, 60),3	997,(8, 60),57	1054,(149, 201),6	1060,(14, 96),18	1078,(6, 96),3	1081,(118, 201),6	1087,(12, 96),27	1114,(17, 96),9	1123,(18, 96),33	1156,(155, 201),6	1162,(139, 201),6	1168,(9, 79),24	1192,(7, 79),3	1195,(3, 79),33	1228,(6, 79),24	1252,(197, 201),6	1258,(10, 140),3	1261,(2, 140),3	1264,(27, 201),6	1270,(14, 140),15	1285,(9, 140),15	1300,(7, 140),24	1324,(4, 140),3	1327,(6, 140),30	1357,(40, 201),6	1363,(12, 56),3	1366,(10, 56),12	1378,(110, 201),6	1384,(17, 56),27	1411,(7, 56),3	1414,(3, 56),18	1432,(18, 56),12	1444,(6, 56),18	1462,(8, 56),3	1465,(83, 201),6	1471,(32, 201),6	1477,(10, 112),3	1480,(3, 112),81	1561,(18, 112),6	1567,(6, 112),9	1576,(81, 201),6	1582,(37, 201),6	1588,(17, 174),9	1597,(23, 201),6	1603,(10, 174),3	1606,(9, 174),3	1609,(7, 174),21	1630,(4, 174),6	1636,(6, 174),57	1693,(176, 201),6	1699,(74, 201),6	1705,(14, 26),3	1708,(12, 26),54	1762,(17, 26),9	1771,(11, 26),18	1789,(9, 26),12	1801,(3, 26),3	1804,(18, 26),3	1807,(42, 201),6	1813,(137, 201),6	1819,(12, 156),3	1822,(7, 156),3	1825,(41, 201),6	1831,(14, 156),48	1879,(9, 156),33	1912,(2, 156),6	1918,(4, 156),3	1921,(6, 156),6	1927,(50, 201),6	1933,(24, 201),6	1939,(11, 152),45	1984,(9, 152),3	1987,(7, 152),9	1996,(2, 152),24	2020,(8, 152),24	2044,(102, 201),6	2050,(116, 201),6	2056,(12, 28),12	2068,(10, 28),3	2071,(7, 28),12	2083,(4, 28),18	2101,(6, 28),60	2161,(145, 201),6	2167,(177, 201),6	2173,(14, 158),3	2176,(10, 158),3	2179,(11, 158),54	2233,(7, 158),9	2242,(3, 158),9	2251,(4, 158),15	2266,(8, 158),18	2284,(148, 201),6	2290,(175, 201),6	2296,(12, 44),3	2299,(9, 44),3	2302,(2, 44),12	2314,(18, 44),78	2392,(4, 44),9	2401,(6, 44),6	2407,(92, 201),6	2413,(146, 201),6	2419,(14, 200),33	2452,(17, 200),12	2464,(10, 200),6	2470,(2, 200),15	2485,(6, 200),48	2533,(165, 201),6	2539,(126, 201),6	2545,(17, 153),9	2554,(3, 153),75	2629,(18, 153),33	2662,(115, 201),6	2668,(85, 201),6	2674,(14, 51),21	2695,(17, 51),30	2725,(9, 51),30	2755,(2, 51),12	2767,(18, 51),18	2785,(8, 51),9	2794,(99, 201),6	2800,(17, 113),15	2815,(12, 111),3	2818,(11, 111),3	2821,(187, 201),6	2827,(14, 113),54	2881,(4, 113),42	2923,(8, 113),12	2935,(103, 201),6	2941,(186, 201),6	2947,(10, 111),6	2953,(9, 111),78	3031,(18, 111),3	3034,(4, 111),15	3049,(6, 111),15	3064,(29, 201),6	3070,(3, 87),9	3079,(100, 201),6	3085,(2, 87),9	3094,(18, 87),105	3199,(4, 87),3	3202,(8, 87),3	3205,(46, 201),6	3211,(12, 122),6	3217,(17, 122),6	3223,(7, 122),3	3226,(17, 159),3	3229,(22, 201),6	3235,(10, 122),9	3244,(9, 122),30	3274,(2, 122),9	3283,(18, 122),27	3310,(4, 122),9	3319,(6, 122),12	3331,(8, 122),21	3352,(25, 201),6	3358,(9, 159),39	3397,(7, 159),18	3415,(6, 159),69	3484,(163, 201),6	3490,(14, 61),3	3493,(17, 61),3	3496,(109, 201),6	3502,(11, 61),3	3505,(7, 61),93	3598,(2, 61),21	3619,(18, 61),3	3622,(4, 61),3	3625,(8, 61),3	3628,(97, 201),6	3634,(14, 189),27	3661,(12, 189),3	3664,(10, 189),90	3754,(9, 189),3	3757,(18, 189),12	3769,(6, 189),3	3772,(196, 201),6	3778,(14, 171),6	3784,(17, 171),3	3787,(10, 171),3	3790,(3, 171),3	3793,(169, 201),6	3799,(7, 171),21	3820,(2, 171),6	3826,(18, 171),51	3877,(4, 171),6	3883,(6, 171),42	3925,(199, 201),6	3931,(14, 59),3	3934,(7, 59),12	3946,(3, 59),15	3961,(2, 59),30	3991,(18, 59),81	4072,(4, 59),3	4075,(6, 59),3	4078,(8, 59),3	4081,(151, 201),6	4087,(14, 192),9	4096,(12, 192),3	4099,(8, 192),3	4102,(181, 201),6	4108,(10, 192),24	4132,(11, 192),21	4153,(9, 192),15	4168,(7, 192),15	4183,(4, 192),60	4243,(108, 201),6	4249,(12, 167),6	4255,(17, 167),9	4264,(11, 167),30	4294,(9, 167),12	4306,(7, 167),27	4333,(2, 167),6	4339,(4, 167),12	4351,(6, 167),51	4402,(123, 201),6	4408,(14, 130),12	4420,(12, 130),3	4423,(144, 201),6	4429,(17, 130),132	4561,(7, 130),12	4573,(3, 130),3	4576,(31, 201),6	4582,(12, 84),9	4591,(11, 84),21	4612,(9, 84),3	4615,(7, 84),6	4621,(3, 84),24	4645,(18, 84),3	4648,(4, 84),54	4702,(6, 84),33	4735,(8, 84),18	4753,(193, 201),6	4759,(66, 201),6	4765,(12, 117),3	4768,(11, 117),24	4792,(3, 117),108	4900,(2, 117),3	4903,(4, 117),15	4918,(6, 117),18	4936,(180, 201),6	4942,(12, 138),15	4957,(7, 138),6	4963,(3, 138),3	4966,(2, 138),18	4984,(4, 138),18	5002,(6, 138),117	5119,(194, 201),6	5125,(43, 201),6	5131,(17, 69),84	5215,(10, 69),30	5245,(18, 69),42	5287,(6, 69),21	5308,(120, 201),6	5314,(12, 121),3	5317,(2, 121),6	5323,(8, 121),6	5329,(3, 101),3	5332,(164, 201),6	5338,(14, 121),36	5374,(17, 121),21	5395,(7, 121),60	5455,(3, 121),30	5485,(4, 121),21	5506,(135, 201),6	5512,(12, 101),45	5557,(10, 101),9	5566,(7, 101),69	5635,(18, 101),3	5638,(4, 101),9	5647,(6, 101),48	5695,(8, 101),3	5698,(48, 201),6	5704,(173, 201),6	5710,(10, 170),21	5731,(3, 170),108	5839,(18, 170),6	5845,(4, 170),3	5848,(6, 170),45	5893,(8, 170),6	5899,(141, 201),6	5905,(12, 104),3	5908,(17, 104),24	5932,(10, 104),3	5935,(11, 104),27	5962,(9, 104),6	5968,(2, 104),126	6094,(18, 104),12	6106,(30, 201),6	6112,(10, 21),3	6115,(7, 21),6	6121,(179, 201),6	6127,(11, 21),30	6157,(3, 21),3	6160,(2, 21),3	6163,(4, 21),147	6310,(6, 21),21	6331,(166, 201),6	6337,(17, 64),3	6340,(10, 64),3	6343,(11, 64),3	6346,(7, 64),12	6358,(18, 64),90	6448,(4, 64),42	6490,(6, 64),63	6553,(150, 201),6	6559,(4, 67),6	6565,(10, 161),3	6568,(17, 71),3	6571,(47, 201),6	6577,(14, 67),132	6709,(3, 67),21	6730,(2, 67),15	6745,(18, 67),54	6799,(195, 201),6	6805,(17, 161),15	6820,(7, 161),24	6844,(2, 161),168	7012,(4, 161),18	7030,(54, 201),6	7036,(14, 71),30	7066,(12, 71),12	7078,(11, 71),6	7084,(3, 71),144	7228,(2, 71),33	7261,(6, 71),3	7264,(133, 201),6	7270,(12, 105),3	7273,(3, 105),3	7276,(132, 201),6	7282,(14, 105),18	7300,(17, 105),51	7351,(10, 105),6	7357,(11, 105),12	7369,(7, 105),6	7375,(2, 105),72	7447,(18, 105),51	7498,(4, 105),9	7507,(6, 105),3	7510,(8, 105),12	7522,(147, 201),6	7528,(57, 201),6	7534,(14, 182),48	7582,(10, 182),6	7588,(11, 182),30	7618,(9, 182),111	7729,(7, 182),12	7741,(2, 182),42	7783,(18, 182),3	7786,(4, 182),12	7798,(8, 182),3	7801,(90, 201),6	7807,(14, 38),24	7831,(17, 38),123	7954,(11, 38),111	8065,(3, 38),3	8068,(2, 38),3	8071,(4, 38),3	8074,(6, 38),6	8080,(8, 38),3	8083,(73, 201),6	8089,(14, 62),126	8215,(12, 62),30	8245,(11, 62),27	8272,(3, 62),15	8287,(6, 62),138	8425,(184, 201),6	8431,(114, 201),6	8437,(14, 80),3	8440,(12, 80),6	8446,(17, 80),123	8569,(11, 80),3	8572,(2, 80),87	8659,(18, 80),18	8677,(4, 80),33	8710,(6, 80),21	8731,(8, 80),45	8776,(34, 201),6	8782,(14, 98),216	8998,(12, 98),72	9070,(10, 98),6	9076,(9, 98),18	9094,(7, 98),27	9121,(2, 98),9	9130,(18, 98),3	9133,(8, 98),6	9139,(58, 201),6	9145,(14, 128),9	9154,(12, 128),3	9157,(11, 128),33	9190,(9, 128),237	9427,(3, 128),3	9430,(2, 128),9	9439,(4, 128),3	9442,(6, 128),30	9472,(8, 128),99	9571,(14, 127),24	9595,(12, 127),117	9712,(17, 127),6	9718,(11, 127),144	9862,(9, 127),27	9889,(3, 127),138	10027,(6, 127),3	10030,(8, 127),3	10033,(53, 201),6	10039,(12, 185),51	10090,(9, 185),420	10510,(2, 185),21	10531,(18, 185),12	10543,(4, 185),66	10609,(6, 185),3	10612,(12, 183),6	10618,(11, 183),30	10648,(3, 183),84	10732,(2, 183),1263	11995,(18, 183),18	12013,(4, 183),12	12025,(6, 183),456	
4,(0, 12),3	22,(0, 3),3	31,(14, 35),3	40,(11, 35),3	43,(9, 188),3	55,(15, 188),6	61,(4, 160),3	64,(11, 188),9	73,(2, 188),6	79,(7, 188),9	88,(4, 188),12	100,(4, 100),3	103,(4, 132),3	106,(14, 188),42	148,(10, 188),18	166,(18, 188),6	172,(19, 188),6	178,(17, 35),18	196,(8, 88),12	208,(11, 160),15	223,(2, 148),3	226,(17, 199),3	229,(17, 166),3	232,(17, 132),3	238,(9, 160),60	298,(6, 35),3	301,(11, 199),3	304,(8, 199),3	307,(8, 90),12	325,(15, 160),12	337,(4, 35),51	388,(2, 173),3	394,(15, 35),3	397,(19, 35),9	406,(20, 35),9	415,(11, 31),3	418,(18, 100),3	430,(14, 88),48	478,(11, 88),51	529,(1, 88),3	532,(15, 88),6	538,(20, 88),9	547,(11, 42),36	583,(6, 148),6	589,(18, 166),3	601,(6, 173),3	613,(11, 100),36	652,(4, 199),30	697,(10, 199),6	703,(18, 199),9	733,(14, 100),3	736,(18, 31),12	748,(18, 132),9	775,(17, 42),33	808,(7, 42),15	832,(9, 31),21	856,(14, 31),6	877,(7, 148),15	892,(9, 141),18	910,(9, 166),18	931,(8, 173),36	994,(11, 166),15	1012,(7, 31),21	1033,(14, 166),27	1078,(14, 90),3	1081,(9, 148),69	1168,(7, 166),18	1213,(11, 132),42	1261,(18, 148),72	1336,(8, 166),51	1462,(10, 90),12	1480,(10, 141),36	1525,(4, 31),66	1657,(19, 42),3	1660,(20, 42),6	1666,(16, 42),51	1717,(10, 100),81	1807,(10, 148),171	2017,(18, 141),21	2071,(18, 173),51	2131,(1, 148),12	2143,(20, 148),3	2146,(5, 148),3	2149,(13, 148),27	2176,(6, 132),39	2266,(4, 173),99	2821,(11, 90),138	2977,(1, 100),3	2980,(15, 100),3	2983,(19, 100),3	2986,(13, 100),75	3319,(4, 90),243	3775,(1, 199),9	3784,(15, 199),66	3850,(5, 199),27	4405,(19, 31),81	4486,(20, 31),18	4504,(13, 31),12	5557,(15, 173),120	5677,(19, 173),3	5680,(5, 173),3	5683,(1, 141),36	5719,(15, 141),3	5722,(19, 141),9	5731,(13, 141),87	6103,(1, 166),3	6106,(20, 166),48	6154,(5, 166),24	6178,(13, 166),69	7072,(1, 132),3	7075,(20, 132),3	7078,(5, 132),18	7096,(13, 132),162	7507,(1, 90),63	7570,(19, 90),24	7594,(5, 90),90	7684,(16, 90),12	
10,(0, 10),3	22,(14, 70),3	28,(0, 18),3	34,(11, 70),6	40,(15, 70),12	52,(7, 70),3	55,(2, 70),15	70,(19, 70),3	73,(14, 107),6	79,(9, 37),3	82,(12, 107),6	88,(17, 107),6	94,(17, 23),3	97,(17, 97),3	100,(1, 107),3	103,(19, 107),3	106,(4, 52),6	112,(3, 107),9	121,(4, 107),15	136,(2, 52),6	142,(8, 48),3	145,(17, 181),3	148,(2, 116),3	151,(5, 107),18	169,(8, 23),21	190,(2, 181),3	193,(2, 48),3	196,(17, 48),3	199,(17, 150),3	202,(4, 181),3	205,(4, 144),3	208,(4, 194),3	211,(4, 48),3	214,(4, 114),9	223,(11, 37),3	226,(2, 144),15	241,(2, 114),3	244,(8, 52),51	301,(14, 52),57	358,(9, 52),30	397,(6, 97),3	400,(11, 169),15	415,(15, 52),3	418,(20, 52),9	427,(13, 52),3	430,(16, 52),9	439,(11, 116),36	475,(2, 150),51	535,(9, 48),3	547,(9, 144),9	556,(8, 114),3	559,(8, 58),3	562,(6, 37),12	577,(6, 58),3	592,(12, 114),12	607,(8, 116),21	652,(14, 23),3	655,(7, 23),3	658,(12, 58),18	691,(9, 29),15	724,(14, 116),3	727,(7, 116),6	745,(14, 97),3	748,(14, 181),3	757,(6, 48),15	772,(9, 150),9	784,(7, 37),15	802,(7, 144),3	805,(7, 43),3	835,(12, 37),39	874,(8, 169),39	928,(7, 29),21	952,(4, 29),69	1021,(11, 144),78	1099,(7, 194),9	1108,(14, 43),12	1120,(14, 48),3	1147,(14, 150),3	1153,(7, 150),9	1195,(7, 58),9	1234,(8, 144),69	1393,(1, 37),15	1408,(5, 37),3	1411,(1, 23),3	1414,(4, 169),42	1477,(20, 37),15	1492,(13, 37),30	1522,(5, 23),3	1525,(13, 23),54	1630,(7, 114),48	1705,(4, 116),114	1822,(3, 116),126	1975,(1, 116),3	1978,(15, 116),18	1996,(5, 116),6	2002,(13, 116),3	2005,(6, 144),39	2044,(17, 43),69	2323,(3, 144),24	2347,(3, 194),72	2419,(6, 194),66	2485,(3, 114),24	2533,(9, 43),72	2605,(14, 58),69	2674,(4, 58),87	2893,(1, 29),6	2899,(19, 29),3	2902,(20, 29),18	2920,(5, 29),54	2974,(16, 29),3	3478,(15, 97),18	3496,(19, 97),12	3508,(20, 97),6	3514,(5, 97),3	3517,(13, 97),60	3676,(1, 169),78	3754,(15, 169),9	3763,(19, 169),3	3766,(5, 169),9	3979,(1, 181),75	4054,(15, 181),3	4057,(19, 181),3	4060,(20, 181),18	4078,(16, 181),6	4297,(19, 144),3	4300,(13, 144),105	4849,(1, 194),30	4879,(5, 194),45	4924,(13, 194),39	4963,(1, 43),3	4966,(15, 43),15	4981,(20, 43),36	5017,(13, 43),63	5434,(19, 48),3	5437,(20, 48),105	5542,(5, 48),3	5545,(13, 48),6	5551,(16, 48),6	6247,(15, 150),15	6262,(20, 150),132	6394,(16, 150),3	8104,(19, 114),75	8179,(20, 114),3	8182,(5, 114),135	8317,(13, 114),12	8641,(15, 58),372	9013,(19, 58),45	9058,(20, 58),24	9082,(16, 58),12	
16,(0, 9),3	25,(14, 168),6	34,(0, 6),3	37,(17, 168),6	43,(11, 168),3	49,(12, 168),3	52,(4, 168),3	55,(7, 190),3	58,(14, 142),3	61,(14, 198),6	67,(19, 190),3	70,(14, 106),3	73,(11, 106),3	76,(4, 142),3	79,(8, 155),3	82,(4, 46),3	85,(8, 92),3	88,(3, 190),6	94,(20, 168),3	97,(5, 168),3	100,(2, 155),3	103,(2, 137),3	106,(17, 32),3	109,(13, 168),3	118,(2, 123),3	121,(8, 123),3	130,(3, 106),3	142,(2, 32),6	148,(17, 22),3	151,(17, 108),3	154,(12, 190),21	175,(10, 190),3	178,(4, 190),24	202,(2, 142),21	223,(18, 190),21	244,(10, 198),3	247,(18, 198),3	253,(1, 190),27	280,(17, 142),24	310,(11, 142),12	328,(10, 197),3	331,(2, 177),6	337,(18, 177),3	340,(12, 197),3	343,(11, 197),3	346,(17, 198),18	364,(11, 177),6	370,(11, 46),3	373,(14, 197),3	382,(7, 142),21	403,(3, 197),12	415,(3, 137),3	418,(8, 142),60	478,(20, 142),3	481,(5, 142),18	499,(16, 142),3	502,(3, 198),72	574,(4, 198),27	601,(17, 155),12	613,(17, 197),12	625,(18, 197),9	634,(12, 177),3	637,(12, 46),3	640,(12, 22),3	643,(1, 198),24	667,(13, 198),9	676,(2, 186),18	694,(12, 109),3	697,(2, 106),81	778,(4, 186),9	790,(20, 106),15	805,(13, 106),36	841,(18, 32),18	859,(11, 155),36	895,(14, 137),3	898,(18, 22),3	901,(10, 109),3	904,(3, 155),78	982,(10, 108),9	991,(11, 108),3	994,(18, 155),78	1072,(20, 155),3	1075,(13, 155),3	1078,(16, 155),12	1090,(8, 197),33	1123,(14, 32),15	1138,(1, 197),39	1177,(19, 197),15	1192,(11, 137),21	1213,(7, 177),15	1228,(12, 32),60	1288,(3, 32),66	1354,(4, 32),60	1414,(19, 32),9	1423,(16, 32),15	1438,(12, 137),12	1450,(17, 137),63	1513,(7, 137),24	1537,(17, 177),39	1576,(7, 186),3	1579,(14, 46),3	1582,(7, 46),6	1588,(2, 22),18	1606,(18, 137),54	1660,(4, 177),33	1693,(12, 92),15	1708,(7, 109),6	1714,(11, 164),3	1717,(15, 137),18	1735,(19, 137),6	1741,(20, 137),3	1744,(5, 137),3	1747,(7, 108),15	1762,(7, 164),3	1771,(17, 92),33	1804,(17, 186),42	1846,(2, 108),15	1861,(4, 123),18	1879,(7, 92),42	1921,(8, 186),42	1978,(18, 92),39	2023,(3, 186),21	2044,(12, 108),6	2068,(19, 177),54	2122,(13, 177),9	2140,(7, 22),27	2167,(3, 22),66	2236,(1, 92),3	2239,(19, 92),42	2281,(5, 92),9	2290,(16, 92),9	2299,(14, 22),66	2365,(14, 108),51	2416,(8, 108),27	2443,(12, 123),9	2458,(11, 186),78	2536,(11, 109),39	2662,(18, 123),24	2695,(14, 164),102	2812,(1, 186),3	2815,(19, 186),9	2824,(5, 186),42	2866,(13, 186),27	2893,(2, 46),126	3061,(1, 46),3	3064,(15, 46),12	3076,(19, 46),30	3106,(20, 46),3	3109,(16, 46),18	3127,(5, 22),51	3178,(13, 22),33	3217,(3, 164),48	3385,(1, 109),24	3409,(15, 109),9	3418,(13, 109),60	4084,(1, 108),3	4087,(19, 108),81	4168,(20, 108),6	4174,(13, 108),3	4177,(16, 108),12	4189,(1, 123),45	4234,(15, 123),12	4246,(5, 123),48	4294,(16, 123),3	4429,(10, 164),201	5197,(1, 164),3	5200,(19, 164),45	5245,(20, 164),48	5293,(5, 164),3	5296,(16, 164),18	
25,(0, 2),3	46,(9, 50),3	52,(3, 143),3	58,(4, 154),3	61,(1, 143),3	64,(6, 143),6	73,(6, 77),3	79,(17, 77),9	88,(8, 126),3	91,(6, 146),3	94,(3, 77),3	97,(9, 143),15	112,(17, 129),6	118,(6, 126),3	121,(11, 143),78	199,(18, 143),3	202,(17, 154),6	208,(5, 143),6	214,(8, 77),30	244,(12, 145),3	247,(4, 146),6	253,(11, 145),3	256,(17, 50),3	259,(11, 50),15	274,(18, 27),3	277,(10, 145),6	283,(10, 146),3	286,(11, 146),9	295,(8, 146),6	304,(18, 77),24	328,(4, 85),9	337,(19, 77),6	346,(15, 77),9	355,(5, 77),6	361,(13, 77),3	364,(18, 151),3	367,(3, 178),6	373,(11, 126),6	379,(11, 99),9	388,(4, 129),15	403,(7, 129),24	427,(9, 129),15	442,(3, 129),21	463,(6, 129),24	487,(8, 129),12	499,(17, 151),3	502,(5, 129),3	505,(16, 129),6	511,(8, 27),15	526,(18, 120),3	529,(7, 154),12	541,(18, 154),27	568,(17, 145),6	574,(6, 85),3	577,(3, 27),15	592,(17, 195),3	598,(1, 154),3	601,(5, 154),42	643,(8, 178),18	661,(11, 195),3	664,(14, 178),57	721,(14, 27),3	724,(12, 27),33	757,(18, 85),6	763,(11, 178),54	817,(9, 99),3	820,(9, 151),3	823,(7, 50),3	826,(7, 145),15	841,(14, 146),9	850,(4, 178),75	925,(20, 178),3	928,(16, 178),3	931,(17, 27),36	967,(14, 50),30	997,(9, 27),75	1072,(4, 27),66	1138,(7, 146),9	1147,(8, 85),15	1162,(14, 99),3	1165,(14, 151),3	1168,(17, 85),18	1186,(7, 99),6	1192,(20, 27),18	1210,(13, 27),27	1237,(16, 27),9	1246,(17, 126),75	1321,(9, 147),3	1324,(7, 120),3	1327,(4, 126),18	1345,(10, 99),21	1378,(10, 195),6	1384,(3, 145),21	1414,(7, 85),33	1450,(12, 146),27	1477,(11, 151),36	1513,(8, 195),24	1537,(7, 151),21	1561,(12, 50),72	1633,(3, 50),60	1693,(18, 147),3	1714,(7, 147),12	1729,(9, 85),9	1738,(6, 99),12	1762,(12, 126),36	1807,(1, 50),3	1810,(15, 50),9	1819,(13, 50),9	1828,(16, 50),24	1870,(6, 120),9	1879,(4, 195),24	1912,(6, 195),9	1939,(14, 147),18	1972,(3, 85),27	2005,(1, 145),60	2065,(19, 145),3	2083,(7, 126),57	2140,(4, 147),30	2176,(14, 120),39	2299,(1, 146),42	2341,(20, 146),18	2359,(5, 146),3	2362,(13, 146),3	2365,(16, 146),3	2437,(15, 126),6	2443,(19, 126),3	2446,(20, 126),9	2455,(5, 126),45	2500,(13, 126),3	2503,(16, 126),3	2569,(1, 85),21	2590,(15, 85),9	2599,(20, 85),9	2608,(5, 85),3	2611,(16, 85),30	2641,(15, 99),78	2719,(20, 99),3	2755,(9, 120),72	2893,(3, 120),81	2974,(11, 147),81	3310,(18, 195),123	3877,(15, 151),33	3910,(20, 151),48	3958,(5, 151),3	3961,(16, 151),18	5080,(15, 120),117	6553,(15, 195),18	6571,(19, 195),126	6697,(20, 195),3	6700,(13, 195),12	6712,(16, 195),3	6715,(6, 147),510	7258,(15, 147),45	7303,(5, 147),12	7315,(13, 147),3	7318,(16, 147),3	
31,(0, 4),3	34,(14, 39),12	46,(11, 39),18	64,(19, 39),3	67,(14, 74),3	70,(2, 39),3	73,(3, 39),3	76,(8, 125),3	82,(8, 74),3	88,(14, 125),12	100,(18, 39),24	124,(20, 39),3	127,(12, 125),3	130,(17, 125),15	145,(18, 125),3	148,(7, 125),9	157,(17, 149),12	169,(13, 125),3	172,(10, 134),3	175,(2, 149),3	178,(2, 74),3	181,(2, 115),3	190,(8, 115),6	196,(18, 74),3	199,(11, 125),9	208,(17, 187),3	214,(15, 125),6	220,(9, 125),18	238,(5, 125),15	256,(11, 66),3	280,(11, 47),6	286,(10, 115),3	289,(10, 47),3	301,(9, 134),6	325,(12, 134),12	337,(3, 149),3	343,(3, 74),3	346,(6, 134),9	355,(6, 187),3	388,(6, 149),9	406,(17, 134),30	436,(12, 187),3	439,(3, 187),3	442,(9, 66),3	463,(12, 47),3	481,(18, 134),42	538,(9, 30),3	568,(18, 115),21	589,(9, 115),12	610,(7, 134),18	637,(7, 149),15	655,(10, 187),12	679,(6, 30),3	685,(11, 135),60	763,(18, 187),45	841,(1, 134),3	844,(15, 134),45	889,(16, 134),3	892,(14, 66),3	898,(14, 115),30	949,(7, 66),3	952,(7, 135),3	955,(1, 149),9	964,(15, 149),3	967,(19, 149),3	970,(5, 149),3	973,(16, 149),36	1009,(12, 115),33	1042,(17, 115),48	1090,(2, 135),60	1150,(14, 30),3	1186,(17, 66),51	1258,(6, 135),24	1318,(11, 30),54	1372,(7, 30),30	1444,(18, 66),18	1477,(9, 74),78	1576,(6, 47),21	1639,(1, 74),15	1654,(19, 74),3	1657,(8, 47),63	1750,(6, 66),33	1948,(3, 115),24	2233,(11, 115),225	2458,(12, 135),27	2506,(1, 115),48	2554,(15, 115),3	2557,(5, 115),9	2566,(13, 115),3	2722,(15, 187),9	2731,(19, 187),27	2758,(20, 187),6	2764,(16, 187),39	2818,(3, 66),75	2974,(3, 30),39	3778,(8, 135),279	4627,(1, 66),27	4654,(13, 66),6	4660,(16, 66),78	5314,(1, 135),15	5329,(20, 135),99	5428,(13, 135),6	5818,(1, 30),3	5821,(15, 30),54	5875,(20, 30),33	5908,(13, 30),51	6397,(1, 47),3	6400,(15, 47),36	6436,(19, 47),63	6499,(20, 47),6	6505,(5, 47),48	
37,(0, 8),3	70,(17, 33),9	79,(4, 163),3	85,(4, 133),3	91,(2, 33),9	100,(17, 82),6	112,(6, 57),3	118,(1, 33),3	121,(12, 82),3	124,(3, 82),3	127,(2, 82),3	130,(2, 83),6	136,(9, 33),12	172,(7, 33),21	193,(18, 83),3	202,(10, 163),3	205,(14, 33),42	247,(12, 33),48	295,(10, 33),9	304,(11, 33),6	310,(16, 33),3	313,(17, 133),6	322,(11, 82),21	343,(18, 82),9	355,(11, 133),3	358,(7, 82),15	373,(12, 83),9	382,(10, 82),36	421,(3, 25),3	424,(11, 163),9	433,(12, 196),3	445,(2, 25),18	466,(10, 196),3	469,(17, 163),15	487,(9, 82),24	511,(19, 82),6	517,(20, 82),6	523,(13, 82),6	550,(4, 196),24	583,(11, 196),15	604,(18, 163),9	619,(10, 133),3	625,(17, 83),138	799,(14, 25),3	802,(2, 196),42	844,(2, 34),18	862,(14, 57),3	877,(10, 34),6	883,(18, 34),6	895,(11, 83),72	997,(7, 25),15	1138,(4, 83),174	1327,(7, 133),21	1360,(1, 83),3	1363,(5, 83),30	1393,(18, 25),39	1447,(7, 57),15	1462,(14, 34),48	1597,(17, 57),42	1819,(9, 163),51	1927,(6, 133),54	2251,(12, 25),27	2299,(3, 163),24	2470,(10, 25),159	2689,(12, 133),36	2725,(3, 57),90	2941,(7, 34),90	3085,(12, 34),69	3211,(20, 25),24	3235,(5, 25),3	3238,(16, 25),57	3295,(1, 163),6	3301,(15, 163),27	3328,(20, 163),36	3364,(16, 163),21	3577,(16, 196),99	4792,(11, 34),780	6892,(19, 133),150	7042,(20, 133),12	7054,(13, 133),18	7321,(19, 57),6	7327,(20, 57),117	7444,(13, 57),63	8329,(15, 34),294	8623,(19, 34),6	8629,(16, 34),12	
13,(0, 11),3	52,(9, 45),12	64,(4, 45),12	76,(6, 45),3	79,(2, 75),3	82,(6, 75),3	85,(2, 45),6	91,(8, 45),15	106,(5, 45),3	112,(15, 45),6	124,(17, 110),6	130,(18, 45),12	142,(4, 76),3	157,(14, 75),9	166,(4, 75),9	178,(1, 45),12	190,(16, 45),18	214,(3, 93),6	220,(12, 110),3	247,(7, 75),42	289,(14, 76),6	295,(12, 75),30	331,(9, 75),12	343,(19, 75),3	346,(3, 110),9	364,(17, 93),42	427,(10, 76),6	445,(10, 110),21	541,(8, 110),12	556,(14, 93),54	628,(7, 76),9	676,(1, 93),3	679,(15, 93),9	688,(16, 93),18	715,(9, 76),21	736,(7, 110),9	763,(14, 110),21	784,(9, 110),12	892,(1, 76),3	895,(20, 76),9	904,(5, 76),6	910,(13, 76),15	931,(16, 76),24	1303,(15, 110),51	1354,(19, 110),3	1357,(20, 110),3	
7,(0, 17),3	40,(9, 162),3	46,(3, 49),3	49,(7, 191),3	52,(1, 49),3	55,(12, 49),18	73,(15, 49),18	91,(19, 49),3	94,(6, 49),3	97,(10, 49),3	100,(7, 162),6	106,(2, 162),12	118,(4, 162),3	121,(13, 162),3	124,(6, 86),3	127,(10, 162),3	130,(8, 139),3	133,(3, 139),3	139,(19, 162),12	151,(4, 191),9	175,(12, 86),39	229,(12, 81),3	235,(11, 86),18	253,(2, 86),72	343,(6, 191),3	352,(10, 191),12	364,(15, 86),6	370,(20, 86),9	379,(5, 86),6	385,(13, 86),3	388,(16, 86),6	394,(12, 139),9	433,(18, 139),12	478,(7, 139),3	481,(4, 81),45	526,(9, 139),6	532,(6, 81),3	541,(14, 191),6	547,(14, 81),3	574,(8, 191),33	607,(3, 81),18	634,(10, 81),21	706,(19, 191),27	733,(20, 191),3	736,(16, 191),15	751,(14, 139),12	1063,(15, 139),9	1090,(20, 139),21	1111,(5, 139),6	1117,(13, 139),3	1120,(16, 139),18	1156,(18, 81),78	1357,(9, 81),81	1438,(19, 81),21	1459,(5, 81),12	1471,(16, 81),6	
1,(0, 14),3	19,(0, 7),3	43,(17, 68),27	70,(6, 68),3	76,(12, 68),6	82,(11, 68),39	121,(2, 36),3	124,(2, 119),3	127,(13, 68),9	136,(16, 68),3	139,(4, 55),3	142,(3, 36),12	154,(8, 72),3	157,(2, 118),6	163,(2, 41),3	166,(9, 36),54	220,(20, 36),3	223,(13, 36),15	238,(17, 119),18	256,(4, 119),18	274,(11, 55),6	280,(1, 119),27	307,(15, 119),3	310,(4, 41),3	313,(19, 119),3	316,(5, 119),3	319,(13, 119),3	322,(16, 119),3	325,(17, 124),21	346,(11, 124),9	355,(3, 124),12	367,(18, 124),15	382,(8, 124),36	418,(12, 55),3	421,(18, 55),3	424,(10, 72),3	427,(4, 72),9	436,(11, 118),3	439,(1, 124),24	463,(13, 124),12	475,(16, 124),3	478,(12, 118),6	484,(12, 40),3	487,(17, 40),12	499,(8, 118),6	505,(17, 102),3	508,(17, 180),3	511,(6, 55),15	526,(8, 55),15	541,(11, 176),3	544,(6, 72),3	547,(1, 55),3	550,(19, 55),3	553,(20, 55),3	556,(5, 55),36	592,(16, 55),6	598,(11, 72),15	613,(18, 118),6	619,(9, 72),42	661,(9, 118),15	676,(9, 40),3	679,(12, 176),3	682,(10, 118),12	694,(10, 40),3	697,(3, 40),6	703,(8, 40),12	715,(10, 176),9	724,(18, 102),3	727,(18, 175),9	736,(6, 40),15	751,(1, 72),6	757,(15, 72),3	760,(19, 72),6	766,(13, 72),3	769,(16, 72),21	790,(4, 179),3	793,(2, 54),3	796,(9, 176),9	805,(6, 41),9	814,(9, 102),3	817,(3, 176),6	823,(8, 176),36	859,(10, 41),18	877,(2, 24),45	922,(8, 24),9	931,(6, 102),3	934,(10, 179),3	937,(6, 24),24	961,(2, 73),3	964,(2, 184),3	967,(17, 165),6	973,(2, 165),9	982,(3, 102),3	985,(11, 103),3	988,(12, 41),21	1009,(15, 118),27	1036,(20, 118),3	1039,(13, 118),24	1063,(3, 24),12	1075,(18, 24),33	1108,(11, 193),3	1111,(17, 179),3	1114,(3, 41),30	1144,(12, 24),48	1192,(8, 175),42	1234,(10, 103),9	1243,(18, 54),3	1246,(1, 40),30	1276,(20, 40),3	1279,(5, 40),18	1297,(16, 40),6	1303,(11, 165),15	1318,(2, 103),9	1327,(8, 103),9	1336,(10, 184),9	1345,(4, 184),3	1348,(17, 53),6	1354,(12, 165),3	1357,(3, 165),6	1363,(2, 53),3	1366,(12, 102),18	1384,(2, 175),105	1489,(4, 165),36	1525,(18, 103),21	1546,(18, 193),15	1561,(8, 73),18	1579,(15, 176),6	1585,(5, 176),54	1639,(17, 193),51	1693,(9, 165),18	1711,(6, 165),18	1729,(8, 53),9	1747,(19, 41),51	1798,(5, 41),6	1804,(13, 41),3	1813,(3, 103),3	1816,(12, 193),3	1819,(11, 180),21	1840,(4, 53),3	1852,(1, 24),3	1855,(15, 24),24	1879,(20, 24),9	1888,(16, 24),24	1912,(20, 102),24	1936,(5, 102),39	1975,(4, 180),21	1999,(12, 103),24	2023,(11, 73),39	2068,(12, 175),84	2152,(3, 180),15	2176,(1, 175),51	2227,(19, 175),6	2233,(5, 175),3	2236,(9, 180),27	2263,(18, 53),12	2278,(3, 53),3	2284,(8, 179),27	2311,(6, 73),42	2368,(1, 165),3	2371,(20, 165),12	2383,(5, 165),36	2419,(13, 165),12	2431,(16, 165),6	2437,(4, 103),171	2608,(11, 184),21	2629,(3, 193),60	2689,(11, 54),60	2803,(15, 103),6	2809,(16, 103),3	2812,(10, 180),123	3013,(12, 184),24	3037,(12, 53),27	3064,(9, 184),24	3094,(2, 179),75	3169,(3, 184),30	3274,(9, 53),39	3433,(10, 53),78	4516,(5, 193),3	4519,(13, 193),108	4738,(1, 180),6	4744,(19, 180),30	4774,(20, 180),39	4813,(5, 180),12	4825,(13, 180),24	5959,(1, 179),117	6076,(19, 179),6	6082,(16, 179),21	6715,(15, 54),3	6718,(19, 54),18	6736,(20, 54),150	6886,(5, 54),3	6889,(16, 54),3	7696,(15, 73),6	7702,(20, 73),78	7780,(5, 73),3	7783,(16, 73),108	7891,(1, 184),21	7912,(20, 184),3	7915,(13, 184),3	7918,(16, 184),186	9094,(1, 53),6	9100,(19, 53),45	9145,(20, 53),246	9391,(13, 53),27	9418,(16, 53),336	
# Outgoing
1,(0, 14),3	4,(0, 12),3	7,(0, 17),3	10,(0, 10),3	13,(0, 11),3	16,(0, 9),3	19,(0, 7),3	22,(0, 3),3	25,(0, 2),3	28,(0, 18),3	31,(0, 4),3	34,(0, 6),3	37,(0, 8),3	40,(15, 70),12	52,(1, 49),3	55,(15, 188),6	61,(1, 143),3	64,(19, 39),3	67,(19, 190),3	70,(19, 70),3	73,(15, 49),18	91,(19, 49),3	94,(20, 168),3	97,(5, 168),3	100,(1, 107),3	103,(19, 107),3	106,(5, 45),3	109,(13, 168),3	112,(15, 45),6	118,(1, 33),3	121,(13, 162),3	124,(20, 39),3	127,(13, 68),9	136,(16, 68),3	139,(19, 162),12	151,(5, 107),18	169,(13, 125),3	172,(19, 188),6	178,(1, 45),12	190,(16, 45),18	208,(5, 143),6	214,(15, 125),6	220,(20, 36),3	223,(13, 36),15	238,(5, 125),15	253,(1, 190),27	280,(1, 119),27	307,(15, 119),3	310,(16, 33),3	313,(19, 119),3	316,(5, 119),3	319,(13, 119),3	322,(16, 119),3	325,(15, 160),12	337,(19, 77),6	343,(19, 75),3	346,(15, 77),9	355,(5, 77),6	361,(13, 77),3	364,(15, 86),6	370,(20, 86),9	379,(5, 86),6	385,(13, 86),3	388,(16, 86),6	394,(15, 35),3	397,(19, 35),9	406,(20, 35),9	415,(15, 52),3	418,(20, 52),9	427,(13, 52),3	430,(16, 52),9	439,(1, 124),24	463,(13, 124),12	475,(16, 124),3	478,(20, 142),3	481,(5, 142),18	499,(16, 142),3	502,(5, 129),3	505,(16, 129),6	511,(19, 82),6	517,(20, 82),6	523,(13, 82),6	529,(1, 88),3	532,(15, 88),6	538,(20, 88),9	547,(1, 55),3	550,(19, 55),3	553,(20, 55),3	556,(5, 55),36	592,(16, 55),6	598,(1, 154),3	601,(5, 154),42	643,(1, 198),24	667,(13, 198),9	676,(1, 93),3	679,(15, 93),9	688,(16, 93),18	706,(19, 191),27	733,(20, 191),3	736,(16, 191),15	751,(1, 72),6	757,(15, 72),3	760,(19, 72),6	766,(13, 72),3	769,(16, 72),21	790,(20, 106),15	805,(13, 106),36	841,(1, 134),3	844,(15, 134),45	889,(16, 134),3	892,(1, 76),3	895,(20, 76),9	904,(5, 76),6	910,(13, 76),15	925,(20, 178),3	928,(16, 178),3	931,(16, 76),24	955,(1, 149),9	964,(15, 149),3	967,(19, 149),3	970,(5, 149),3	973,(16, 149),36	1009,(15, 118),27	1036,(20, 118),3	1039,(13, 118),24	1063,(15, 139),9	1072,(20, 155),3	1075,(13, 155),3	1078,(16, 155),12	1090,(20, 139),21	1111,(5, 139),6	1117,(13, 139),3	1120,(16, 139),18	1138,(1, 197),39	1177,(19, 197),15	1192,(20, 27),18	1210,(13, 27),27	1237,(16, 27),9	1246,(1, 40),30	1276,(20, 40),3	1279,(5, 40),18	1297,(16, 40),6	1303,(15, 110),51	1354,(19, 110),3	1357,(20, 110),3	1360,(1, 83),3	1363,(5, 83),30	1393,(1, 37),15	1408,(5, 37),3	1411,(1, 23),3	1414,(19, 32),9	1423,(16, 32),15	1438,(19, 81),21	1459,(5, 81),12	1471,(16, 81),6	1477,(20, 37),15	1492,(13, 37),30	1522,(5, 23),3	1525,(13, 23),54	1579,(15, 176),6	1585,(5, 176),54	1639,(1, 74),15	1654,(19, 74),3	1657,(19, 42),3	1660,(20, 42),6	1666,(16, 42),51	1717,(15, 137),18	1735,(19, 137),6	1741,(20, 137),3	1744,(5, 137),3	1747,(19, 41),51	1798,(5, 41),6	1804,(13, 41),3	1807,(1, 50),3	1810,(15, 50),9	1819,(13, 50),9	1828,(16, 50),24	1852,(1, 24),3	1855,(15, 24),24	1879,(20, 24),9	1888,(16, 24),24	1912,(20, 102),24	1936,(5, 102),39	1975,(1, 116),3	1978,(15, 116),18	1996,(5, 116),6	2002,(13, 116),3	2005,(1, 145),60	2065,(19, 145),3	2068,(19, 177),54	2122,(13, 177),9	2131,(1, 148),12	2143,(20, 148),3	2146,(5, 148),3	2149,(13, 148),27	2176,(1, 175),51	2227,(19, 175),6	2233,(5, 175),3	2236,(1, 92),3	2239,(19, 92),42	2281,(5, 92),9	2290,(16, 92),9	2299,(1, 146),42	2341,(20, 146),18	2359,(5, 146),3	2362,(13, 146),3	2365,(16, 146),3	2368,(1, 165),3	2371,(20, 165),12	2383,(5, 165),36	2419,(13, 165),12	2431,(16, 165),6	2437,(15, 126),6	2443,(19, 126),3	2446,(20, 126),9	2455,(5, 126),45	2500,(13, 126),3	2503,(16, 126),3	2506,(1, 115),48	2554,(15, 115),3	2557,(5, 115),9	2566,(13, 115),3	2569,(1, 85),21	2590,(15, 85),9	2599,(20, 85),9	2608,(5, 85),3	2611,(16, 85),30	2641,(15, 99),78	2719,(20, 99),3	2722,(15, 187),9	2731,(19, 187),27	2758,(20, 187),6	2764,(16, 187),39	2803,(15, 103),6	2809,(16, 103),3	2812,(1, 186),3	2815,(19, 186),9	2824,(5, 186),42	2866,(13, 186),27	2893,(1, 29),6	2899,(19, 29),3	2902,(20, 29),18	2920,(5, 29),54	2974,(16, 29),3	2977,(1, 100),3	2980,(15, 100),3	2983,(19, 100),3	2986,(13, 100),75	3061,(1, 46),3	3064,(15, 46),12	3076,(19, 46),30	3106,(20, 46),3	3109,(16, 46),18	3127,(5, 22),51	3178,(13, 22),33	3211,(20, 25),24	3235,(5, 25),3	3238,(16, 25),57	3295,(1, 163),6	3301,(15, 163),27	3328,(20, 163),36	3364,(16, 163),21	3385,(1, 109),24	3409,(15, 109),9	3418,(13, 109),60	3478,(15, 97),18	3496,(19, 97),12	3508,(20, 97),6	3514,(5, 97),3	3517,(13, 97),60	3577,(16, 196),99	3676,(1, 169),78	3754,(15, 169),9	3763,(19, 169),3	3766,(5, 169),9	3775,(1, 199),9	3784,(15, 199),66	3850,(5, 199),27	3877,(15, 151),33	3910,(20, 151),48	3958,(5, 151),3	3961,(16, 151),18	3979,(1, 181),75	4054,(15, 181),3	4057,(19, 181),3	4060,(20, 181),18	4078,(16, 181),6	4084,(1, 108),3	4087,(19, 108),81	4168,(20, 108),6	4174,(13, 108),3	4177,(16, 108),12	4189,(1, 123),45	4234,(15, 123),12	4246,(5, 123),48	4294,(16, 123),3	4297,(19, 144),3	4300,(13, 144),105	4405,(19, 31),81	4486,(20, 31),18	4504,(13, 31),12	4516,(5, 193),3	4519,(13, 193),108	4627,(1, 66),27	4654,(13, 66),6	4660,(16, 66),78	4738,(1, 180),6	4744,(19, 180),30	4774,(20, 180),39	4813,(5, 180),12	4825,(13, 180),24	4849,(1, 194),30	4879,(5, 194),45	4924,(13, 194),39	4963,(1, 43),3	4966,(15, 43),15	4981,(20, 43),36	5017,(13, 43),63	5080,(15, 120),117	5197,(1, 164),3	5200,(19, 164),45	5245,(20, 164),48	5293,(5, 164),3	5296,(16, 164),18	5314,(1, 135),15	5329,(20, 135),99	5428,(13, 135),6	5434,(19, 48),3	5437,(20, 48),105	5542,(5, 48),3	5545,(13, 48),6	5551,(16, 48),6	5557,(15, 173),120	5677,(19, 173),3	5680,(5, 173),3	5683,(1, 141),36	5719,(15, 141),3	5722,(19, 141),9	5731,(13, 141),87	5818,(1, 30),3	5821,(15, 30),54	5875,(20, 30),33	5908,(13, 30),51	5959,(1, 179),117	6076,(19, 179),6	6082,(16, 179),21	6103,(1, 166),3	6106,(20, 166),48	6154,(5, 166),24	6178,(13, 166),69	6247,(15, 150),15	6262,(20, 150),132	6394,(16, 150),3	6397,(1, 47),3	6400,(15, 47),36	6436,(19, 47),63	6499,(20, 47),6	6505,(5, 47),48	6553,(15, 195),18	6571,(19, 195),126	6697,(20, 195),3	6700,(13, 195),12	6712,(16, 195),3	6715,(15, 54),3	6718,(19, 54),18	6736,(20, 54),150	6886,(5, 54),3	6889,(16, 54),3	6892,(19, 133),150	7042,(20, 133),12	7054,(13, 133),18	7072,(1, 132),3	7075,(20, 132),3	7078,(5, 132),18	7096,(13, 132),162	7258,(15, 147),45	7303,(5, 147),12	7315,(13, 147),3	7318,(16, 147),3	7321,(19, 57),6	7327,(20, 57),117	7444,(13, 57),63	7507,(1, 90),63	7570,(19, 90),24	7594,(5, 90),90	7684,(16, 90),12	7696,(15, 73),6	7702,(20, 73),78	7780,(5, 73),3	7783,(16, 73),108	7891,(1, 184),21	7912,(20, 184),3	7915,(13, 184),3	7918,(16, 184),186	8104,(19, 114),75	8179,(20, 114),3	8182,(5, 114),135	8317,(13, 114),12	8329,(15, 34),294	8623,(19, 34),6	8629,(16, 34),12	8641,(15, 58),372	9013,(19, 58),45	9058,(20, 58),24	9082,(16, 58),12	9094,(1, 53),6	9100,(19, 53),45	9145,(20, 53),246	9391,(13, 53),27	9418,(16, 53),336	
43,(3, 172),3	46,(3, 49),3	49,(12, 168),3	52,(3, 143),3	55,(12, 49),18	73,(3, 39),3	76,(12, 68),6	82,(12, 107),6	88,(3, 190),6	94,(3, 77),3	97,(3, 131),15	112,(3, 107),9	121,(12, 82),3	124,(3, 82),3	127,(12, 125),3	130,(3, 106),3	133,(3, 139),3	136,(12, 91),6	142,(3, 36),12	154,(12, 190),21	175,(12, 86),39	214,(3, 93),6	220,(12, 110),3	223,(188, 201),6	229,(12, 81),3	235,(3, 63),3	241,(12, 78),3	244,(12, 145),3	247,(12, 33),48	295,(12, 75),30	325,(12, 134),12	337,(3, 149),3	340,(12, 197),3	343,(3, 74),3	346,(3, 110),9	355,(3, 124),12	367,(3, 178),6	373,(12, 83),9	382,(160, 201),6	394,(12, 139),9	403,(3, 197),12	415,(3, 137),3	418,(12, 55),3	421,(3, 25),3	433,(12, 196),3	436,(12, 187),3	439,(3, 187),3	442,(3, 129),21	463,(12, 47),3	469,(35, 201),6	478,(12, 118),6	484,(12, 40),3	502,(3, 198),72	574,(12, 89),3	577,(3, 27),15	592,(12, 114),12	607,(3, 81),18	634,(12, 177),3	637,(12, 46),3	640,(12, 22),3	652,(88, 201),6	658,(12, 58),18	679,(12, 176),3	691,(3, 65),3	694,(12, 109),3	697,(3, 40),6	724,(12, 27),33	775,(12, 95),42	817,(3, 176),6	832,(3, 95),3	835,(12, 37),39	877,(12, 136),27	904,(3, 155),78	982,(3, 102),3	985,(3, 60),3	988,(12, 41),21	1009,(12, 115),33	1063,(3, 24),12	1087,(12, 96),27	1114,(3, 41),30	1144,(12, 24),48	1195,(3, 79),33	1228,(12, 32),60	1288,(3, 32),66	1354,(12, 165),3	1357,(3, 165),6	1363,(12, 56),3	1366,(12, 102),18	1384,(3, 145),21	1414,(3, 56),18	1438,(12, 137),12	1450,(12, 146),27	1480,(3, 112),81	1561,(12, 50),72	1633,(3, 50),60	1693,(12, 92),15	1708,(12, 26),54	1762,(12, 126),36	1801,(3, 26),3	1807,(42, 201),6	1813,(3, 103),3	1816,(12, 193),3	1819,(12, 156),3	1822,(3, 116),126	1948,(3, 115),24	1972,(3, 85),27	1999,(12, 103),24	2023,(3, 186),21	2044,(12, 108),6	2056,(12, 28),12	2068,(12, 175),84	2152,(3, 180),15	2167,(3, 22),66	2242,(3, 158),9	2251,(12, 25),27	2278,(3, 53),3	2284,(148, 201),6	2296,(12, 44),3	2299,(3, 163),24	2323,(3, 144),24	2347,(3, 194),72	2443,(12, 123),9	2458,(12, 135),27	2485,(3, 114),24	2554,(3, 153),75	2629,(3, 193),60	2689,(12, 133),36	2725,(3, 57),90	2815,(12, 111),3	2818,(3, 66),75	2893,(3, 120),81	2974,(3, 30),39	3013,(12, 184),24	3037,(12, 53),27	3070,(3, 87),9	3079,(100, 201),6	3085,(12, 34),69	3169,(3, 184),30	3211,(12, 122),6	3217,(3, 164),48	3661,(12, 189),3	3790,(3, 171),3	3925,(199, 201),6	3946,(3, 59),15	4096,(12, 192),3	4249,(12, 167),6	4420,(12, 130),3	4573,(3, 130),3	4576,(31, 201),6	4582,(12, 84),9	4621,(3, 84),24	4765,(12, 117),3	4792,(3, 117),108	4942,(12, 138),15	4963,(3, 138),3	5314,(12, 121),3	5329,(3, 101),3	5455,(3, 121),30	5512,(12, 101),45	5704,(173, 201),6	5731,(3, 170),108	5899,(141, 201),6	5905,(12, 104),3	6157,(3, 21),3	6331,(166, 201),6	6709,(3, 67),21	7066,(12, 71),12	7084,(3, 71),144	7270,(12, 105),3	7273,(3, 105),3	7276,(132, 201),6	7801,(90, 201),6	8065,(3, 38),3	8215,(12, 62),30	8272,(3, 62),15	8440,(12, 80),6	8998,(12, 98),72	9154,(12, 128),3	9427,(3, 128),3	9595,(12, 127),117	9889,(3, 127),138	10039,(12, 185),51	10612,(12, 183),6	10648,(3, 183),84	
91,(70, 201),6	97,(10, 49),3	100,(18, 39),24	124,(18, 131),3	127,(10, 162),3	130,(18, 45),12	142,(10, 91),3	145,(18, 125),3	148,(10, 188),18	166,(18, 188),6	172,(10, 134),3	175,(10, 190),3	178,(18, 94),9	187,(107, 201),6	193,(18, 83),3	196,(18, 74),3	199,(18, 143),3	202,(10, 163),3	205,(18, 91),18	223,(18, 190),21	244,(10, 198),3	247,(18, 198),3	250,(10, 94),24	274,(18, 27),3	277,(10, 145),6	283,(10, 146),3	286,(10, 115),3	289,(10, 47),3	295,(10, 33),9	304,(18, 77),24	328,(10, 197),3	331,(18, 63),3	337,(18, 177),3	343,(18, 82),9	352,(10, 191),12	364,(18, 151),3	367,(18, 124),15	382,(10, 82),36	418,(18, 100),3	421,(18, 55),3	424,(10, 72),3	427,(10, 76),6	433,(18, 139),12	445,(10, 110),21	466,(10, 196),3	475,(52, 201),6	481,(18, 134),42	526,(18, 120),3	529,(10, 78),12	541,(18, 154),27	568,(18, 115),21	589,(18, 166),3	592,(10, 89),12	604,(18, 163),9	613,(18, 118),6	619,(10, 133),3	625,(18, 197),9	634,(10, 81),21	655,(10, 187),12	670,(10, 65),12	682,(10, 118),12	694,(10, 40),3	697,(10, 199),6	703,(18, 199),9	715,(10, 176),9	724,(18, 102),3	727,(18, 175),9	736,(18, 31),12	748,(18, 132),9	757,(18, 85),6	763,(18, 187),45	817,(10, 95),12	841,(18, 32),18	859,(10, 41),18	877,(10, 34),6	883,(18, 34),6	898,(18, 22),3	901,(10, 109),3	904,(10, 136),30	934,(10, 179),3	937,(18, 136),9	958,(10, 60),15	982,(10, 108),9	991,(18, 60),3	994,(18, 155),78	1075,(18, 24),33	1123,(18, 96),33	1156,(18, 81),78	1234,(10, 103),9	1243,(18, 54),3	1258,(10, 140),3	1261,(18, 148),72	1336,(10, 184),9	1345,(10, 99),21	1366,(10, 56),12	1378,(10, 195),6	1393,(18, 25),39	1432,(18, 56),12	1444,(18, 66),18	1462,(10, 90),12	1477,(10, 112),3	1480,(10, 141),36	1525,(18, 103),21	1546,(18, 193),15	1561,(18, 112),6	1582,(37, 201),6	1597,(23, 201),6	1603,(10, 174),3	1606,(18, 137),54	1693,(18, 147),3	1717,(10, 100),81	1804,(18, 26),3	1807,(10, 148),171	1978,(18, 92),39	2017,(18, 141),21	2050,(116, 201),6	2068,(10, 28),3	2071,(18, 173),51	2176,(10, 158),3	2263,(18, 53),12	2314,(18, 44),78	2464,(10, 200),6	2470,(10, 25),159	2629,(18, 153),33	2662,(18, 123),24	2767,(18, 51),18	2812,(10, 180),123	2947,(10, 111),6	3031,(18, 111),3	3064,(29, 201),6	3094,(18, 87),105	3235,(10, 122),9	3283,(18, 122),27	3310,(18, 195),123	3433,(10, 53),78	3619,(18, 61),3	3628,(97, 201),6	3664,(10, 189),90	3757,(18, 189),12	3787,(10, 171),3	3793,(169, 201),6	3826,(18, 171),51	3991,(18, 59),81	4102,(181, 201),6	4108,(10, 192),24	4423,(144, 201),6	4429,(10, 164),201	4645,(18, 84),3	5119,(194, 201),6	5125,(43, 201),6	5215,(10, 69),30	5245,(18, 69),42	5557,(10, 101),9	5635,(18, 101),3	5698,(48, 201),6	5710,(10, 170),21	5839,(18, 170),6	5932,(10, 104),3	6094,(18, 104),12	6112,(10, 21),3	6340,(10, 64),3	6358,(18, 64),90	6553,(150, 201),6	6565,(10, 161),3	6745,(18, 67),54	7351,(10, 105),6	7447,(18, 105),51	7582,(10, 182),6	7783,(18, 182),3	8431,(114, 201),6	8659,(18, 80),18	9070,(10, 98),6	9130,(18, 98),3	9139,(58, 201),6	10531,(18, 185),12	11995,(18, 183),18	
37,(9, 172),3	40,(9, 162),3	43,(9, 188),3	46,(9, 50),3	49,(9, 91),3	52,(9, 45),12	64,(6, 143),6	70,(6, 68),3	73,(6, 77),3	76,(6, 45),3	79,(9, 37),3	82,(6, 75),3	85,(6, 91),3	88,(9, 94),3	91,(6, 146),3	94,(6, 49),3	97,(9, 143),15	112,(6, 57),3	118,(6, 126),3	124,(6, 86),3	127,(6, 63),3	130,(168, 201),6	136,(9, 33),12	151,(6, 131),15	166,(9, 36),54	220,(9, 125),18	238,(9, 160),60	298,(6, 35),3	301,(9, 134),6	307,(190, 201),6	313,(9, 63),18	331,(9, 75),12	343,(6, 191),3	346,(6, 134),9	355,(6, 187),3	358,(9, 52),30	388,(6, 149),9	397,(6, 97),3	400,(9, 157),27	427,(9, 129),15	442,(9, 66),3	445,(6, 157),18	463,(6, 129),24	487,(9, 82),24	511,(6, 55),15	526,(9, 139),6	532,(6, 81),3	535,(9, 48),3	538,(9, 30),3	541,(9, 78),3	544,(6, 72),3	547,(9, 144),9	556,(142, 201),6	562,(6, 37),12	574,(6, 85),3	577,(6, 58),3	583,(6, 148),6	589,(9, 115),12	601,(6, 173),3	604,(9, 89),15	619,(9, 72),42	661,(9, 118),15	676,(9, 40),3	679,(6, 30),3	685,(9, 65),6	691,(9, 29),15	712,(6, 65),3	715,(9, 76),21	736,(6, 40),15	751,(198, 201),6	757,(6, 48),15	772,(9, 150),9	784,(9, 110),12	796,(9, 176),9	805,(6, 41),9	814,(9, 102),3	817,(9, 99),3	820,(9, 151),3	829,(9, 95),3	832,(9, 31),21	859,(106, 201),6	892,(9, 141),18	910,(9, 166),18	931,(6, 102),3	934,(9, 136),3	937,(6, 24),24	982,(9, 60),3	994,(6, 60),3	997,(9, 27),75	1078,(6, 96),3	1081,(9, 148),69	1156,(155, 201),6	1168,(9, 79),24	1228,(6, 79),24	1252,(197, 201),6	1258,(6, 135),24	1285,(9, 140),15	1321,(9, 147),3	1327,(6, 140),30	1357,(9, 81),81	1444,(6, 56),18	1471,(32, 201),6	1477,(9, 74),78	1567,(6, 112),9	1576,(6, 47),21	1606,(9, 174),3	1636,(6, 174),57	1693,(9, 165),18	1711,(6, 165),18	1729,(9, 85),9	1738,(6, 99),12	1750,(6, 66),33	1789,(9, 26),12	1813,(137, 201),6	1819,(9, 163),51	1870,(6, 120),9	1879,(9, 156),33	1912,(6, 195),9	1921,(6, 156),6	1927,(6, 133),54	1984,(9, 152),3	2005,(6, 144),39	2101,(6, 28),60	2167,(177, 201),6	2176,(6, 132),39	2236,(9, 180),27	2299,(9, 44),3	2311,(6, 73),42	2401,(6, 44),6	2407,(92, 201),6	2419,(6, 194),66	2485,(6, 200),48	2533,(9, 43),72	2725,(9, 51),30	2755,(9, 120),72	2941,(186, 201),6	2953,(9, 111),78	3049,(6, 111),15	3064,(9, 184),24	3205,(46, 201),6	3229,(22, 201),6	3244,(9, 122),30	3274,(9, 53),39	3319,(6, 122),12	3358,(9, 159),39	3415,(6, 159),69	3496,(109, 201),6	3754,(9, 189),3	3769,(6, 189),3	3883,(6, 171),42	4075,(6, 59),3	4153,(9, 192),15	4243,(108, 201),6	4294,(9, 167),12	4351,(6, 167),51	4402,(123, 201),6	4612,(9, 84),3	4702,(6, 84),33	4918,(6, 117),18	5002,(6, 138),117	5287,(6, 69),21	5332,(164, 201),6	5647,(6, 101),48	5848,(6, 170),45	5962,(9, 104),6	6310,(6, 21),21	6490,(6, 64),63	6715,(6, 147),510	7261,(6, 71),3	7507,(6, 105),3	7618,(9, 182),111	8074,(6, 38),6	8287,(6, 62),138	8710,(6, 80),21	9076,(9, 98),18	9190,(9, 128),237	9442,(6, 128),30	9862,(9, 127),27	10027,(6, 127),3	10090,(9, 185),420	10609,(6, 185),3	12025,(6, 183),456	
55,(2, 70),15	70,(2, 39),3	73,(2, 188),6	79,(2, 75),3	82,(2, 91),3	85,(2, 45),6	91,(2, 33),9	100,(2, 155),3	103,(2, 137),3	106,(2, 162),12	118,(2, 123),3	121,(2, 36),3	124,(2, 119),3	127,(2, 82),3	130,(2, 83),6	136,(2, 52),6	142,(2, 32),6	148,(2, 116),3	157,(2, 118),6	163,(2, 41),3	175,(2, 149),3	178,(2, 74),3	181,(2, 115),3	190,(2, 181),3	193,(2, 48),3	202,(2, 142),21	223,(2, 148),3	226,(2, 144),15	241,(2, 114),3	244,(143, 201),6	253,(2, 86),72	331,(2, 177),6	388,(2, 173),3	394,(77, 201),6	430,(2, 157),15	445,(2, 25),18	475,(2, 150),51	544,(2, 78),3	562,(129, 201),6	619,(2, 89),30	664,(154, 201),6	676,(2, 186),18	694,(2, 65),3	697,(2, 106),81	793,(2, 54),3	802,(2, 196),42	844,(2, 34),18	877,(2, 24),45	952,(178, 201),6	961,(2, 73),3	964,(2, 184),3	973,(2, 165),9	988,(2, 60),3	1090,(2, 135),60	1261,(2, 140),3	1264,(27, 201),6	1318,(2, 103),9	1363,(2, 53),3	1384,(2, 175),105	1588,(2, 22),18	1846,(2, 108),15	1912,(2, 156),6	1927,(50, 201),6	1996,(2, 152),24	2161,(145, 201),6	2302,(2, 44),12	2413,(146, 201),6	2470,(2, 200),15	2539,(126, 201),6	2668,(85, 201),6	2755,(2, 51),12	2794,(99, 201),6	2893,(2, 46),126	3085,(2, 87),9	3094,(2, 179),75	3274,(2, 122),9	3598,(2, 61),21	3820,(2, 171),6	3961,(2, 59),30	4081,(151, 201),6	4333,(2, 167),6	4900,(2, 117),3	4966,(2, 138),18	5308,(120, 201),6	5317,(2, 121),6	5968,(2, 104),126	6160,(2, 21),3	6730,(2, 67),15	6799,(195, 201),6	6844,(2, 161),168	7228,(2, 71),33	7375,(2, 105),72	7522,(147, 201),6	7741,(2, 182),42	8068,(2, 38),3	8572,(2, 80),87	9121,(2, 98),9	9430,(2, 128),9	10510,(2, 185),21	10732,(2, 183),1263	
52,(4, 168),3	55,(4, 91),3	58,(4, 154),3	61,(4, 160),3	64,(4, 45),12	76,(4, 142),3	79,(4, 163),3	82,(4, 46),3	85,(4, 133),3	88,(4, 188),12	100,(4, 100),3	103,(4, 132),3	106,(4, 52),6	118,(4, 162),3	121,(4, 107),15	139,(4, 55),3	142,(4, 76),3	145,(39, 201),6	151,(4, 191),9	166,(4, 75),9	178,(4, 190),24	202,(4, 181),3	205,(4, 144),3	208,(4, 194),3	211,(4, 48),3	214,(4, 114),9	238,(4, 157),3	247,(4, 146),6	256,(4, 119),18	274,(4, 94),21	301,(125, 201),6	310,(4, 41),3	328,(4, 85),9	337,(4, 35),51	388,(4, 129),15	427,(4, 72),9	481,(4, 81),45	547,(4, 78),3	550,(4, 196),24	574,(4, 198),27	649,(4, 89),3	652,(4, 199),30	697,(4, 65),15	778,(4, 186),9	790,(4, 179),3	835,(4, 95),15	850,(4, 178),75	946,(134, 201),6	952,(4, 29),69	1054,(149, 201),6	1072,(4, 27),66	1138,(4, 83),174	1324,(4, 140),3	1327,(4, 126),18	1345,(4, 184),3	1354,(4, 32),60	1414,(4, 169),42	1489,(4, 165),36	1525,(4, 31),66	1630,(4, 174),6	1660,(4, 177),33	1699,(74, 201),6	1705,(4, 116),114	1840,(4, 53),3	1861,(4, 123),18	1879,(4, 195),24	1918,(4, 156),3	1975,(4, 180),21	2083,(4, 28),18	2140,(4, 147),30	2251,(4, 158),15	2266,(4, 173),99	2392,(4, 44),9	2437,(4, 103),171	2662,(115, 201),6	2674,(4, 58),87	2821,(187, 201),6	2881,(4, 113),42	3034,(4, 111),15	3199,(4, 87),3	3310,(4, 122),9	3319,(4, 90),243	3622,(4, 61),3	3877,(4, 171),6	4072,(4, 59),3	4183,(4, 192),60	4339,(4, 167),12	4648,(4, 84),54	4759,(66, 201),6	4903,(4, 117),15	4984,(4, 138),18	5485,(4, 121),21	5506,(135, 201),6	5638,(4, 101),9	5845,(4, 170),3	6106,(30, 201),6	6163,(4, 21),147	6448,(4, 64),42	6559,(4, 67),6	6571,(47, 201),6	7012,(4, 161),18	7498,(4, 105),9	7786,(4, 182),12	8071,(4, 38),3	8677,(4, 80),33	9439,(4, 128),3	10543,(4, 185),66	12013,(4, 183),12	
58,(8, 172),18	76,(8, 125),3	79,(8, 155),3	82,(8, 74),3	85,(8, 92),3	88,(8, 126),3	91,(8, 45),15	112,(8, 94),6	121,(8, 123),3	130,(8, 139),3	142,(8, 48),3	154,(8, 72),3	169,(8, 23),21	190,(8, 115),6	196,(8, 88),12	214,(8, 77),30	244,(8, 52),51	295,(8, 146),6	304,(8, 199),3	307,(8, 90),12	334,(8, 63),36	370,(33, 201),6	382,(8, 124),36	418,(8, 142),60	487,(8, 129),12	499,(8, 118),6	511,(8, 27),15	526,(8, 55),15	541,(8, 110),12	556,(8, 114),3	559,(8, 58),3	568,(82, 201),6	574,(8, 191),33	607,(8, 116),21	643,(8, 178),18	703,(8, 40),12	715,(8, 65),36	823,(8, 176),36	874,(8, 169),39	922,(8, 24),9	931,(8, 173),36	997,(8, 60),57	1090,(8, 197),33	1147,(8, 85),15	1192,(8, 175),42	1234,(8, 144),69	1327,(8, 103),9	1336,(8, 166),51	1462,(8, 56),3	1465,(83, 201),6	1513,(8, 195),24	1561,(8, 73),18	1657,(8, 47),63	1729,(8, 53),9	1921,(8, 186),42	2020,(8, 152),24	2266,(8, 158),18	2284,(8, 179),27	2416,(8, 108),27	2785,(8, 51),9	2923,(8, 113),12	3202,(8, 87),3	3331,(8, 122),21	3352,(25, 201),6	3484,(163, 201),6	3625,(8, 61),3	3772,(196, 201),6	3778,(8, 135),279	4078,(8, 59),3	4099,(8, 192),3	4735,(8, 84),18	5323,(8, 121),6	5695,(8, 101),3	5893,(8, 170),6	7264,(133, 201),6	7510,(8, 105),12	7528,(57, 201),6	7798,(8, 182),3	8080,(8, 38),3	8731,(8, 80),45	8776,(34, 201),6	9133,(8, 98),6	9472,(8, 128),99	10030,(8, 127),3	
34,(11, 70),6	40,(11, 35),3	43,(11, 168),3	46,(11, 39),18	64,(11, 188),9	73,(11, 106),3	76,(11, 131),6	82,(11, 68),39	121,(11, 143),78	199,(11, 125),9	208,(11, 160),15	223,(11, 37),3	229,(45, 201),6	235,(11, 86),18	253,(11, 145),3	256,(11, 66),3	259,(11, 50),15	274,(11, 55),6	280,(11, 47),6	286,(11, 146),9	301,(11, 199),3	304,(11, 33),6	310,(11, 142),12	322,(11, 82),21	343,(11, 197),3	346,(11, 124),9	355,(11, 133),3	364,(11, 177),6	370,(11, 46),3	373,(11, 126),6	379,(11, 99),9	388,(75, 201),6	400,(11, 169),15	415,(11, 31),3	424,(11, 163),9	436,(11, 118),3	439,(11, 116),36	478,(11, 88),51	541,(11, 176),3	547,(11, 42),36	583,(11, 196),15	598,(11, 72),15	613,(11, 100),36	661,(11, 195),3	682,(11, 65),3	685,(11, 135),60	757,(93, 201),6	763,(11, 178),54	856,(11, 136),3	859,(11, 155),36	895,(11, 83),72	973,(76, 201),6	979,(11, 60),3	985,(11, 103),3	991,(11, 108),3	994,(11, 166),15	1021,(11, 144),78	1108,(11, 193),3	1192,(11, 137),21	1213,(11, 132),42	1303,(11, 165),15	1318,(11, 30),54	1378,(110, 201),6	1477,(11, 151),36	1714,(11, 164),3	1771,(11, 26),18	1819,(11, 180),21	1939,(11, 152),45	2023,(11, 73),39	2179,(11, 158),54	2233,(11, 115),225	2458,(11, 186),78	2536,(11, 109),39	2608,(11, 184),21	2689,(11, 54),60	2818,(11, 111),3	2821,(11, 90),138	2974,(11, 147),81	3502,(11, 61),3	4132,(11, 192),21	4264,(11, 167),30	4591,(11, 84),21	4768,(11, 117),24	4792,(11, 34),780	5935,(11, 104),27	6127,(11, 21),30	6343,(11, 64),3	7078,(11, 71),6	7357,(11, 105),12	7588,(11, 182),30	7954,(11, 38),111	8245,(11, 62),27	8569,(11, 80),3	9157,(11, 128),33	9718,(11, 127),144	10618,(11, 183),30	
28,(17, 172),3	31,(17, 157),3	34,(17, 156),3	37,(17, 168),6	43,(17, 68),27	70,(17, 33),9	79,(17, 77),9	88,(17, 107),6	94,(17, 23),3	97,(17, 97),3	100,(17, 82),6	106,(17, 32),3	112,(17, 129),6	118,(49, 201),6	124,(17, 110),6	130,(17, 125),15	145,(17, 181),3	148,(17, 22),3	151,(17, 108),3	157,(17, 149),12	172,(162, 201),6	178,(17, 35),18	196,(17, 48),3	199,(17, 150),3	202,(17, 154),6	208,(17, 187),3	226,(17, 199),3	229,(17, 166),3	232,(17, 132),3	238,(17, 119),18	256,(17, 50),3	280,(17, 142),24	313,(17, 133),6	325,(17, 124),21	346,(17, 198),18	364,(17, 93),42	406,(17, 134),30	463,(86, 201),6	469,(17, 163),15	487,(17, 40),12	499,(17, 151),3	505,(17, 102),3	508,(17, 180),3	568,(17, 145),6	577,(17, 89),15	592,(17, 195),3	601,(17, 155),12	613,(17, 197),12	625,(17, 83),138	763,(17, 95),6	769,(191, 201),6	775,(17, 42),33	931,(17, 27),36	967,(17, 165),6	1042,(17, 115),48	1111,(17, 179),3	1114,(17, 96),9	1162,(139, 201),6	1168,(17, 85),18	1186,(17, 66),51	1246,(17, 126),75	1348,(17, 53),6	1384,(17, 56),27	1450,(17, 137),63	1537,(17, 177),39	1576,(81, 201),6	1588,(17, 174),9	1597,(17, 57),42	1639,(17, 193),51	1762,(17, 26),9	1771,(17, 92),33	1804,(17, 186),42	2044,(17, 43),69	2452,(17, 200),12	2545,(17, 153),9	2695,(17, 51),30	2800,(17, 113),15	3217,(17, 122),6	3226,(17, 159),3	3493,(17, 61),3	3784,(17, 171),3	4255,(17, 167),9	4429,(17, 130),132	5131,(17, 69),84	5374,(17, 121),21	5908,(17, 104),24	6337,(17, 64),3	6568,(17, 71),3	6805,(17, 161),15	7300,(17, 105),51	7831,(17, 38),123	8446,(17, 80),123	9712,(17, 127),6	
22,(14, 70),3	25,(14, 168),6	31,(14, 35),3	34,(14, 39),12	46,(7, 131),3	49,(7, 191),3	52,(7, 70),3	55,(7, 190),3	58,(14, 142),3	61,(14, 198),6	67,(14, 74),3	70,(14, 106),3	73,(14, 107),6	79,(7, 188),9	88,(14, 125),12	100,(7, 162),6	106,(14, 188),42	148,(7, 125),9	157,(14, 75),9	166,(68, 201),6	172,(7, 33),21	193,(14, 91),12	205,(14, 33),42	247,(7, 75),42	289,(14, 76),6	295,(36, 201),6	301,(14, 52),57	358,(7, 82),15	373,(14, 197),3	376,(119, 201),6	382,(7, 142),21	403,(7, 129),24	427,(7, 157),3	430,(14, 88),48	478,(7, 139),3	481,(14, 78),48	529,(7, 154),12	541,(14, 191),6	547,(14, 81),3	550,(124, 201),6	556,(14, 93),54	610,(7, 134),18	628,(7, 76),9	637,(7, 149),15	652,(14, 23),3	655,(7, 23),3	658,(55, 201),6	664,(14, 178),57	721,(14, 27),3	724,(14, 116),3	727,(7, 116),6	733,(14, 100),3	736,(7, 110),9	745,(14, 97),3	748,(14, 181),3	751,(14, 139),12	763,(14, 110),21	784,(7, 37),15	799,(14, 25),3	802,(7, 144),3	805,(7, 43),3	808,(7, 42),15	823,(7, 50),3	826,(7, 145),15	841,(14, 146),9	850,(72, 201),6	856,(14, 31),6	862,(14, 57),3	865,(14, 136),12	877,(7, 148),15	892,(14, 66),3	895,(14, 137),3	898,(14, 115),30	928,(7, 29),21	949,(7, 66),3	952,(7, 135),3	967,(14, 50),30	997,(7, 25),15	1012,(7, 31),21	1033,(14, 166),27	1060,(14, 96),18	1078,(14, 90),3	1081,(118, 201),6	1099,(7, 194),9	1108,(14, 43),12	1120,(14, 48),3	1123,(14, 32),15	1138,(7, 146),9	1147,(14, 150),3	1150,(14, 30),3	1153,(7, 150),9	1162,(14, 99),3	1165,(14, 151),3	1168,(7, 166),18	1186,(7, 99),6	1192,(7, 79),3	1195,(7, 58),9	1213,(7, 177),15	1270,(14, 140),15	1300,(7, 140),24	1324,(7, 120),3	1327,(7, 133),21	1357,(40, 201),6	1372,(7, 30),30	1411,(7, 56),3	1414,(7, 85),33	1447,(7, 57),15	1462,(14, 34),48	1513,(7, 137),24	1537,(7, 151),21	1576,(7, 186),3	1579,(14, 46),3	1582,(7, 46),6	1609,(7, 174),21	1630,(7, 114),48	1693,(176, 201),6	1705,(14, 26),3	1708,(7, 109),6	1714,(7, 147),12	1747,(7, 108),15	1762,(7, 164),3	1822,(7, 156),3	1825,(41, 201),6	1831,(14, 156),48	1879,(7, 92),42	1933,(24, 201),6	1939,(14, 147),18	1987,(7, 152),9	2044,(102, 201),6	2071,(7, 28),12	2083,(7, 126),57	2140,(7, 22),27	2173,(14, 158),3	2176,(14, 120),39	2233,(7, 158),9	2290,(175, 201),6	2299,(14, 22),66	2365,(14, 108),51	2419,(14, 200),33	2533,(165, 201),6	2605,(14, 58),69	2674,(14, 51),21	2695,(14, 164),102	2827,(14, 113),54	2935,(103, 201),6	2941,(7, 34),90	3223,(7, 122),3	3397,(7, 159),18	3490,(14, 61),3	3505,(7, 61),93	3634,(14, 189),27	3778,(14, 171),6	3799,(7, 171),21	3931,(14, 59),3	3934,(7, 59),12	4087,(14, 192),9	4168,(7, 192),15	4306,(7, 167),27	4408,(14, 130),12	4561,(7, 130),12	4615,(7, 84),6	4753,(193, 201),6	4936,(180, 201),6	4957,(7, 138),6	5338,(14, 121),36	5395,(7, 121),60	5566,(7, 101),69	6115,(7, 21),6	6121,(179, 201),6	6346,(7, 64),12	6577,(14, 67),132	6820,(7, 161),24	7030,(54, 201),6	7036,(14, 71),30	7282,(14, 105),18	7369,(7, 105),6	7534,(14, 182),48	7729,(7, 182),12	7807,(14, 38),24	8083,(73, 201),6	8089,(14, 62),126	8425,(184, 201),6	8437,(14, 80),3	8782,(14, 98),216	9094,(7, 98),27	9145,(14, 128),9	9571,(14, 127),24	10033,(53, 201),6	
