1490
# CPU
0,0,1	1,6,3	4,148,3	7,172,3	10,95,3	13,7,3	16,102,3	19,4,3	22,49,3	25,51,3	28,97,3	31,10,3	34,86,3	37,158,3	40,171,3	43,69,3	46,46,3	49,167,3	52,168,3	55,195,3	58,154,3	61,164,3	64,14,3	67,21,3	70,130,3	73,38,3	76,42,3	79,72,3	82,35,3	85,91,3	88,136,3	91,122,3	94,76,3	97,137,3	100,107,3	103,114,3	106,27,3	109,56,3	112,41,3	115,47,3	118,54,3	121,160,3	124,96,3	127,23,3	133,184,3	163,174,3	184,57,3	208,173,3	241,73,3	277,40,3	1489,201,1	
13,2,3	16,141,3	19,89,3	22,113,3	25,77,3	28,175,3	34,11,3	37,143,3	40,177,3	43,93,3	46,43,3	49,132,3	52,48,3	55,26,3	58,12,3	61,88,3	64,134,3	67,115,3	70,198,3	73,59,3	76,109,3	79,65,3	82,179,3	85,75,3	88,58,3	91,183,3	94,185,3	97,74,3	100,192,3	103,117,3	109,98,3	124,44,3	136,189,3	151,63,3	178,129,3	196,120,3	352,36,3	526,125,3	
10,17,3	13,191,3	16,81,3	19,71,3	22,99,3	31,15,3	34,156,3	37,53,3	40,3,3	43,66,3	46,140,3	49,124,3	52,67,3	55,121,3	58,9,3	61,106,3	64,138,3	67,68,3	70,116,3	73,170,3	76,128,3	79,180,3	82,92,3	85,85,3	88,118,3	91,64,3	94,78,3	97,45,3	100,139,3	103,119,3	142,182,3	277,83,3	
7,20,3	10,145,3	13,104,3	16,34,3	19,18,3	22,194,3	25,166,3	28,196,3	31,169,3	34,25,3	37,84,3	40,110,3	43,5,3	46,142,3	49,29,3	52,70,3	55,39,3	58,1,3	61,188,3	64,163,3	67,30,3	70,80,3	73,193,3	76,123,3	79,155,3	82,133,3	85,61,3	88,37,3	91,50,3	94,152,3	97,146,3	100,147,3	103,94,3	106,197,3	121,52,3	136,165,3	151,162,3	166,24,3	184,101,3	205,150,3	
4,19,3	7,151,3	10,62,3	13,32,3	16,105,3	19,108,3	22,8,3	25,126,3	28,82,3	31,149,3	34,112,3	40,60,3	46,16,3	49,33,3	52,153,3	55,131,3	58,159,3	61,13,3	64,22,3	67,178,3	70,31,3	73,111,3	76,161,3	79,157,3	82,103,3	85,186,3	88,176,3	91,199,3	94,55,3	97,100,3	100,181,3	103,190,3	106,90,3	109,144,3	112,127,3	115,135,3	124,28,3	148,187,3	181,200,3	220,79,3	247,87,3	
# Incoming
37,(19, 56),3	40,(20, 160),3	49,(5, 47),3	58,(16, 41),3	64,(1, 54),3	73,(16, 96),6	79,(13, 184),3	82,(151, 201),9	94,(15, 23),9	103,(141, 201),9	124,(1, 184),9	133,(5, 174),12	145,(16, 174),18	163,(9, 57),21	184,(12, 173),24	208,(17, 73),15	223,(13, 73),18	241,(3, 40),21	262,(9, 40),15	277,(145, 201),9	286,(62, 201),9	295,(104, 201),9	304,(32, 201),9	313,(191, 201),9	322,(105, 201),9	331,(34, 201),9	340,(81, 201),9	349,(89, 201),9	358,(108, 201),9	367,(194, 201),9	376,(113, 201),9	385,(126, 201),9	394,(166, 201),9	403,(77, 201),9	412,(82, 201),9	421,(196, 201),9	430,(175, 201),9	439,(149, 201),9	448,(169, 201),9	457,(112, 201),9	466,(25, 201),9	475,(143, 201),9	484,(84, 201),9	493,(177, 201),9	502,(60, 201),9	511,(110, 201),9	526,(71, 201),9	535,(99, 201),9	544,(156, 201),9	553,(53, 201),9	562,(66, 201),9	571,(93, 201),9	580,(142, 201),9	589,(43, 201),9	598,(140, 201),9	607,(33, 201),9	616,(29, 201),9	625,(132, 201),9	634,(124, 201),9	643,(153, 201),9	652,(70, 201),9	661,(48, 201),9	670,(67, 201),9	679,(131, 201),9	688,(39, 201),9	697,(26, 201),9	706,(121, 201),9	715,(159, 201),9	724,(188, 201),9	733,(88, 201),9	742,(106, 201),9	751,(22, 201),9	760,(163, 201),9	769,(138, 201),9	778,(134, 201),9	787,(178, 201),9	796,(30, 201),9	805,(68, 201),9	814,(115, 201),9	823,(31, 201),9	832,(80, 201),9	841,(116, 201),9	850,(198, 201),9	859,(111, 201),9	868,(193, 201),9	877,(170, 201),9	886,(59, 201),9	895,(161, 201),9	904,(123, 201),9	913,(128, 201),9	922,(109, 201),9	931,(157, 201),9	940,(155, 201),9	949,(180, 201),9	958,(65, 201),9	967,(103, 201),9	976,(133, 201),9	985,(92, 201),9	994,(179, 201),9	1003,(186, 201),9	1012,(85, 201),9	1021,(61, 201),9	1030,(75, 201),9	1039,(176, 201),9	1048,(118, 201),9	1057,(37, 201),9	1066,(58, 201),9	1075,(199, 201),9	1084,(64, 201),9	1093,(50, 201),9	1102,(183, 201),9	1111,(55, 201),9	1120,(152, 201),9	1129,(78, 201),9	1138,(185, 201),9	1147,(100, 201),9	1156,(146, 201),9	1165,(74, 201),9	1174,(45, 201),9	1183,(181, 201),9	1192,(147, 201),9	1201,(139, 201),9	1210,(192, 201),9	1219,(190, 201),9	1228,(119, 201),9	1237,(94, 201),9	1246,(117, 201),9	1255,(90, 201),9	1264,(197, 201),9	1273,(144, 201),9	1282,(98, 201),9	1291,(127, 201),9	1300,(135, 201),9	1309,(52, 201),9	1318,(28, 201),9	1327,(44, 201),9	1336,(189, 201),9	1345,(165, 201),9	1354,(182, 201),9	1363,(187, 201),9	1372,(63, 201),9	1381,(162, 201),9	1390,(24, 201),9	1399,(129, 201),9	1408,(200, 201),9	1417,(101, 201),9	1426,(120, 201),9	1435,(150, 201),9	1444,(79, 201),9	1453,(87, 201),9	1462,(83, 201),9	1471,(36, 201),9	1480,(125, 201),9	
10,(0, 2),3	13,(17, 109),3	16,(17, 179),3	22,(4, 77),3	25,(4, 175),3	31,(0, 11),3	34,(19, 75),3	37,(15, 74),6	43,(3, 65),3	46,(0, 12),3	49,(16, 26),3	52,(16, 185),6	61,(7, 58),3	64,(13, 58),3	70,(14, 183),6	76,(18, 192),9	85,(1, 117),12	97,(8, 98),12	109,(20, 44),15	124,(4, 189),12	136,(3, 63),15	151,(5, 129),27	178,(7, 120),18	277,(7, 36),75	352,(10, 125),6	358,(9, 125),168	
7,(0, 17),3	10,(20, 124),3	16,(6, 99),3	19,(20, 78),6	28,(0, 15),3	31,(19, 67),3	37,(0, 3),3	40,(11, 121),3	43,(19, 118),3	46,(19, 119),3	49,(0, 9),3	52,(20, 119),6	61,(1, 64),3	67,(13, 45),6	85,(4, 139),9	109,(8, 182),33	208,(12, 83),30	247,(14, 83),30	
4,(0, 20),3	13,(0, 18),3	19,(17, 147),3	25,(8, 110),6	34,(6, 84),3	40,(0, 5),3	43,(2, 152),3	52,(0, 1),3	58,(4, 37),3	61,(9, 50),3	64,(9, 152),3	67,(14, 61),3	70,(12, 147),3	79,(7, 146),6	85,(15, 94),9	94,(7, 197),12	106,(15, 52),15	121,(3, 165),15	136,(11, 162),15	151,(10, 24),15	166,(19, 101),18	184,(15, 150),12	196,(3, 150),9	
1,(0, 19),3	19,(0, 8),3	37,(11, 60),3	43,(0, 16),3	46,(5, 190),3	49,(3, 28),6	55,(0, 13),3	58,(3, 187),3	61,(12, 55),3	64,(6, 181),3	67,(9, 90),3	76,(14, 100),3	79,(12, 144),9	88,(2, 127),12	106,(4, 135),9	115,(2, 28),9	136,(14, 187),12	151,(12, 200),30	196,(7, 79),24	220,(4, 87),27	
# Outgoing
1,(0, 19),3	4,(0, 20),3	7,(0, 17),3	10,(0, 2),3	13,(0, 18),3	16,(6, 99),3	19,(0, 8),3	22,(4, 77),3	25,(4, 175),3	28,(0, 15),3	31,(0, 11),3	34,(6, 84),3	37,(0, 3),3	40,(0, 5),3	43,(0, 16),3	46,(0, 12),3	49,(0, 9),3	52,(0, 1),3	55,(0, 13),3	58,(4, 37),3	61,(7, 58),3	64,(6, 181),3	67,(14, 61),3	70,(14, 183),6	76,(14, 100),3	79,(7, 146),6	85,(4, 139),9	94,(7, 197),12	106,(4, 135),9	124,(4, 189),12	136,(14, 187),12	151,(10, 24),15	178,(7, 120),18	196,(7, 79),24	220,(4, 87),27	247,(14, 83),30	277,(7, 36),75	352,(10, 125),6	
37,(11, 60),3	40,(11, 121),3	43,(2, 152),3	61,(12, 55),3	70,(12, 147),3	79,(12, 144),9	88,(2, 127),12	103,(141, 201),9	115,(2, 28),9	136,(11, 162),15	151,(12, 200),30	184,(12, 173),24	208,(12, 83),30	349,(89, 201),9	376,(113, 201),9	403,(77, 201),9	430,(175, 201),9	475,(143, 201),9	493,(177, 201),9	571,(93, 201),9	589,(43, 201),9	625,(132, 201),9	661,(48, 201),9	697,(26, 201),9	733,(88, 201),9	778,(134, 201),9	814,(115, 201),9	850,(198, 201),9	886,(59, 201),9	922,(109, 201),9	958,(65, 201),9	994,(179, 201),9	1030,(75, 201),9	1066,(58, 201),9	1102,(183, 201),9	1138,(185, 201),9	1165,(74, 201),9	1210,(192, 201),9	1246,(117, 201),9	1282,(98, 201),9	1327,(44, 201),9	1336,(189, 201),9	1372,(63, 201),9	1399,(129, 201),9	1426,(120, 201),9	1471,(36, 201),9	1480,(125, 201),9	
13,(17, 109),3	16,(17, 179),3	19,(17, 147),3	37,(15, 74),6	43,(3, 65),3	49,(3, 28),6	58,(3, 187),3	61,(9, 50),3	64,(9, 152),3	67,(9, 90),3	85,(15, 94),9	94,(15, 23),9	106,(15, 52),15	121,(3, 165),15	136,(3, 63),15	163,(9, 57),21	184,(15, 150),12	196,(3, 150),9	208,(17, 73),15	241,(3, 40),21	262,(9, 40),15	313,(191, 201),9	340,(81, 201),9	358,(9, 125),168	526,(71, 201),9	535,(99, 201),9	544,(156, 201),9	553,(53, 201),9	562,(66, 201),9	598,(140, 201),9	634,(124, 201),9	670,(67, 201),9	706,(121, 201),9	742,(106, 201),9	769,(138, 201),9	805,(68, 201),9	841,(116, 201),9	877,(170, 201),9	913,(128, 201),9	949,(180, 201),9	985,(92, 201),9	1012,(85, 201),9	1048,(118, 201),9	1084,(64, 201),9	1129,(78, 201),9	1174,(45, 201),9	1201,(139, 201),9	1228,(119, 201),9	1354,(182, 201),9	1462,(83, 201),9	
10,(20, 124),3	19,(20, 78),6	40,(20, 160),3	46,(5, 190),3	49,(5, 47),3	52,(20, 119),6	61,(1, 64),3	64,(1, 54),3	76,(18, 192),9	85,(1, 117),12	109,(20, 44),15	124,(1, 184),9	133,(5, 174),12	151,(5, 129),27	277,(145, 201),9	295,(104, 201),9	331,(34, 201),9	367,(194, 201),9	394,(166, 201),9	421,(196, 201),9	448,(169, 201),9	466,(25, 201),9	484,(84, 201),9	511,(110, 201),9	580,(142, 201),9	616,(29, 201),9	652,(70, 201),9	688,(39, 201),9	724,(188, 201),9	760,(163, 201),9	796,(30, 201),9	832,(80, 201),9	868,(193, 201),9	904,(123, 201),9	940,(155, 201),9	976,(133, 201),9	1021,(61, 201),9	1057,(37, 201),9	1093,(50, 201),9	1120,(152, 201),9	1156,(146, 201),9	1192,(147, 201),9	1237,(94, 201),9	1264,(197, 201),9	1309,(52, 201),9	1345,(165, 201),9	1381,(162, 201),9	1390,(24, 201),9	1417,(101, 201),9	1435,(150, 201),9	
25,(8, 110),6	31,(19, 67),3	34,(19, 75),3	37,(19, 56),3	43,(19, 118),3	46,(19, 119),3	49,(16, 26),3	52,(16, 185),6	58,(16, 41),3	64,(13, 58),3	67,(13, 45),6	73,(16, 96),6	79,(13, 184),3	82,(151, 201),9	97,(8, 98),12	109,(8, 182),33	145,(16, 174),18	166,(19, 101),18	223,(13, 73),18	286,(62, 201),9	304,(32, 201),9	322,(105, 201),9	358,(108, 201),9	385,(126, 201),9	412,(82, 201),9	439,(149, 201),9	457,(112, 201),9	502,(60, 201),9	607,(33, 201),9	643,(153, 201),9	679,(131, 201),9	715,(159, 201),9	751,(22, 201),9	787,(178, 201),9	823,(31, 201),9	859,(111, 201),9	895,(161, 201),9	931,(157, 201),9	967,(103, 201),9	1003,(186, 201),9	1039,(176, 201),9	1075,(199, 201),9	1111,(55, 201),9	1147,(100, 201),9	1183,(181, 201),9	1219,(190, 201),9	1255,(90, 201),9	1273,(144, 201),9	1291,(127, 201),9	1300,(135, 201),9	1318,(28, 201),9	1363,(187, 201),9	1408,(200, 201),9	1444,(79, 201),9	1453,(87, 201),9	
