2420
# CPU
0,0,1	1,6,39	40,113,39	79,71,39	118,2,39	157,109,39	196,58,39	235,111,39	274,5,39	313,45,39	352,18,39	391,55,39	430,48,39	469,4,39	508,81,39	547,23,39	586,118,39	625,116,39	664,77,39	703,72,39	742,100,39	781,49,39	820,98,39	859,11,39	898,27,39	937,41,39	976,115,39	1015,73,39	1054,63,39	1093,114,39	1132,19,39	1171,10,39	1210,14,39	1249,88,39	1288,65,39	1327,50,39	1366,40,39	1405,82,39	1444,52,39	1483,94,39	1522,9,39	1561,96,39	1600,84,39	1639,60,39	1678,15,39	1717,20,39	1756,75,39	1795,103,39	1834,47,39	1873,32,39	1912,57,39	1951,61,39	1990,64,39	2029,7,39	2068,38,39	2107,89,39	2146,74,39	2185,37,39	2224,80,39	2263,117,39	2302,106,39	2341,67,39	2380,30,39	2419,121,1	
52,107,39	145,3,39	184,97,39	223,69,39	262,112,39	301,104,39	340,21,39	379,13,39	418,29,39	457,8,39	496,108,39	535,22,39	574,44,39	613,92,39	652,86,39	691,42,39	730,39,39	769,70,39	808,59,39	847,119,39	886,1,39	925,87,39	964,16,39	1003,26,39	1042,56,39	1081,17,39	1120,24,39	1159,91,39	1198,46,39	1237,36,39	1276,95,39	1315,34,39	1354,51,39	1393,35,39	1432,68,39	1471,43,39	1510,12,39	1549,85,39	1588,79,39	1627,76,39	1666,31,39	1705,25,39	1744,28,39	1783,54,39	1822,53,39	1861,83,39	1900,99,39	1939,120,39	1978,33,39	2017,90,39	2056,110,39	2095,78,39	2134,101,39	2173,105,39	2212,62,39	2251,93,39	2290,102,39	2332,66,39	
# Incoming
184,(3, 67),1	185,(107, 121),1	223,(97, 121),1	262,(69, 121),1	301,(112, 121),1	340,(104, 121),1	379,(21, 121),1	418,(13, 121),1	457,(29, 121),1	535,(108, 121),1	574,(22, 121),1	613,(44, 121),1	652,(92, 121),1	691,(86, 121),1	730,(42, 121),1	769,(39, 121),1	808,(70, 121),1	847,(59, 121),1	886,(119, 121),1	925,(1, 30),23	964,(87, 121),1	1003,(16, 121),1	1042,(26, 121),1	1081,(56, 121),1	1120,(17, 121),1	1159,(24, 121),1	1198,(91, 121),1	1237,(46, 121),1	1276,(36, 121),1	1315,(95, 121),1	1354,(34, 121),1	1393,(51, 121),1	1432,(35, 121),1	1471,(68, 121),1	1510,(43, 121),1	1588,(85, 121),1	1627,(79, 121),1	1666,(76, 121),1	1705,(31, 121),1	1744,(25, 121),1	1783,(28, 121),1	1822,(54, 121),1	1861,(53, 121),1	1900,(83, 121),1	1939,(99, 121),1	1978,(120, 121),1	2017,(33, 121),1	2056,(90, 121),1	2095,(110, 121),1	2134,(78, 121),1	2173,(101, 121),1	2212,(105, 121),1	2251,(62, 121),1	2290,(93, 121),1	2329,(102, 121),1	2371,(66, 121),1	
40,(6, 107),12	52,(0, 3),93	145,(6, 39),1	146,(6, 70),3	149,(6, 24),6	157,(2, 112),5	162,(2, 104),8	170,(2, 21),11	181,(0, 8),93	274,(2, 59),9	283,(2, 56),5	288,(2, 95),3	291,(2, 68),14	305,(2, 25),2	307,(2, 93),2	313,(5, 13),19	332,(5, 29),27	359,(5, 119),15	374,(0, 1),93	467,(5, 46),15	482,(5, 43),13	495,(5, 54),5	508,(4, 86),1	509,(4, 42),1	510,(4, 59),4	514,(4, 46),1	515,(4, 68),15	530,(0, 12),93	623,(4, 53),6	629,(6, 33),13	642,(6, 93),18	898,(11, 26),1	899,(11, 17),5	904,(11, 91),14	918,(11, 35),18	936,(11, 43),21	957,(11, 120),10	967,(11, 110),40	1007,(11, 102),3	1210,(10, 36),1	1211,(10, 95),1	1212,(10, 34),4	1216,(10, 51),17	1233,(10, 120),1	1561,(9, 31),2	1563,(9, 28),4	1567,(9, 83),11	1578,(9, 99),11	1589,(9, 120),3	1592,(9, 33),1	1593,(9, 90),20	2068,(7, 78),1	2069,(7, 101),1	2070,(7, 105),4	2074,(7, 62),9	2083,(7, 93),6	2089,(7, 102),93	2182,(7, 66),150	
# Outgoing
40,(6, 107),12	52,(0, 3),93	145,(6, 39),1	146,(6, 70),3	149,(6, 24),6	157,(2, 112),5	162,(2, 104),8	170,(2, 21),11	181,(0, 8),93	274,(2, 59),9	283,(2, 56),5	288,(2, 95),3	291,(2, 68),14	305,(2, 25),2	307,(2, 93),2	313,(5, 13),19	332,(5, 29),27	359,(5, 119),15	374,(0, 1),93	467,(5, 46),15	482,(5, 43),13	495,(5, 54),5	508,(4, 86),1	509,(4, 42),1	510,(4, 59),4	514,(4, 46),1	515,(4, 68),15	530,(0, 12),93	623,(4, 53),6	629,(6, 33),13	642,(6, 93),18	898,(11, 26),1	899,(11, 17),5	904,(11, 91),14	918,(11, 35),18	936,(11, 43),21	957,(11, 120),10	967,(11, 110),40	1007,(11, 102),3	1210,(10, 36),1	1211,(10, 95),1	1212,(10, 34),4	1216,(10, 51),17	1233,(10, 120),1	1561,(9, 31),2	1563,(9, 28),4	1567,(9, 83),11	1578,(9, 99),11	1589,(9, 120),3	1592,(9, 33),1	1593,(9, 90),20	2068,(7, 78),1	2069,(7, 101),1	2070,(7, 105),4	2074,(7, 62),9	2083,(7, 93),6	2089,(7, 102),93	2182,(7, 66),150	
184,(3, 67),1	185,(107, 121),1	223,(97, 121),1	262,(69, 121),1	301,(112, 121),1	340,(104, 121),1	379,(21, 121),1	418,(13, 121),1	457,(29, 121),1	535,(108, 121),1	574,(22, 121),1	613,(44, 121),1	652,(92, 121),1	691,(86, 121),1	730,(42, 121),1	769,(39, 121),1	808,(70, 121),1	847,(59, 121),1	886,(119, 121),1	925,(1, 30),23	964,(87, 121),1	1003,(16, 121),1	1042,(26, 121),1	1081,(56, 121),1	1120,(17, 121),1	1159,(24, 121),1	1198,(91, 121),1	1237,(46, 121),1	1276,(36, 121),1	1315,(95, 121),1	1354,(34, 121),1	1393,(51, 121),1	1432,(35, 121),1	1471,(68, 121),1	1510,(43, 121),1	1588,(85, 121),1	1627,(79, 121),1	1666,(76, 121),1	1705,(31, 121),1	1744,(25, 121),1	1783,(28, 121),1	1822,(54, 121),1	1861,(53, 121),1	1900,(83, 121),1	1939,(99, 121),1	1978,(120, 121),1	2017,(33, 121),1	2056,(90, 121),1	2095,(110, 121),1	2134,(78, 121),1	2173,(101, 121),1	2212,(105, 121),1	2251,(62, 121),1	2290,(93, 121),1	2329,(102, 121),1	2371,(66, 121),1	
