21439
# CPU
7,2,183	190,4,183	373,6,183	556,8,183	739,10,183	922,12,183	1105,14,183	1288,16,183	1471,18,183	1654,20,183	1837,130,183	2020,128,183	2203,156,183	2934,28,183	3898,152,183	5706,68,183	5928,98,183	6111,138,183	6294,50,183	6568,62,183	6751,122,183	6934,132,183	7136,192,183	7319,196,183	7502,34,183	7685,40,183	7868,44,183	8051,64,183	8234,74,183	8417,84,183	8600,86,183	8783,90,183	8966,160,183	9149,172,183	9332,174,183	9515,182,183	9698,38,183	9881,52,183	10064,54,183	10247,66,183	10430,72,183	10613,78,183	10796,88,183	10979,96,183	11162,102,183	11345,108,183	11528,116,183	11711,124,183	11894,126,183	12077,134,183	12260,136,183	12443,140,183	12626,148,183	12809,164,183	12992,166,183	13175,168,183	13358,170,183	13541,26,183	13724,30,183	13907,46,183	14090,48,183	14273,60,183	14456,70,183	14639,76,183	14822,82,183	15005,104,183	15188,106,183	15371,114,183	15554,150,183	15737,162,183	15920,176,183	16103,178,183	16286,180,183	16469,184,183	16652,200,183	16835,22,183	17018,24,183	17201,32,183	17384,36,183	17567,42,183	17750,56,183	17933,58,183	18116,80,183	18299,92,183	18482,94,183	18665,100,183	18848,110,183	19031,112,183	19214,118,183	19397,120,183	19580,142,183	19763,144,183	19946,146,183	20129,154,183	20312,158,183	20495,186,183	20678,188,183	20861,190,183	21044,194,183	21227,198,183	
0,0,1	1,9,183	184,1,183	367,3,183	550,5,183	733,19,183	916,15,183	1099,7,183	1282,13,183	1465,11,183	1648,17,183	1831,53,183	2014,135,183	2197,75,183	2380,85,183	2563,153,183	2746,97,183	2929,157,183	3112,127,183	3295,189,183	3478,25,183	3661,33,183	3844,57,183	4027,73,183	4210,99,183	4393,103,183	4576,143,183	4759,171,183	4942,175,183	5125,177,183	5308,197,183	5491,47,183	5674,79,183	5857,81,183	6040,83,183	6223,87,183	6406,91,183	6589,163,183	6772,173,183	6955,187,183	7138,29,183	7321,31,183	7504,51,183	7687,59,183	7870,109,183	8053,111,183	8236,113,183	8419,123,183	8602,129,183	8785,141,183	8968,161,183	9151,165,183	9334,169,183	9517,181,183	9700,193,183	9883,23,183	10066,37,183	10249,41,183	10432,45,183	10615,71,183	10798,93,183	10981,105,183	11164,107,183	11347,117,183	11530,125,183	11713,159,183	11896,183,183	12079,199,183	12262,35,183	12445,49,183	12628,55,183	12811,61,183	12994,63,183	13177,65,183	13360,67,183	13543,69,183	13726,77,183	13909,89,183	14092,131,183	14275,133,183	14458,139,183	14641,147,183	14824,151,183	15007,167,183	15190,191,183	15373,21,183	15556,27,183	15739,39,183	15922,43,183	16105,95,183	16288,101,183	16471,115,183	16654,119,183	16837,121,183	17020,137,183	17203,145,183	17386,149,183	17569,155,183	17752,179,183	17935,185,183	18118,195,183	21438,201,1	
# Incoming
1,(0, 2),6	7,(0, 4),6	13,(0, 6),6	19,(0, 8),6	25,(0, 10),6	31,(0, 12),6	37,(0, 14),6	43,(0, 16),6	49,(0, 18),6	55,(0, 20),6	184,(9, 32),788	972,(9, 44),10	982,(9, 46),34	1016,(9, 48),6	1022,(9, 56),60	1082,(9, 60),2	1084,(9, 66),2	1086,(9, 80),8	1094,(9, 94),20	1114,(9, 96),36	1150,(9, 100),2	1152,(9, 106),2	1154,(9, 116),22	1176,(9, 132),18	1194,(9, 138),16	1210,(9, 146),14	1224,(9, 148),158	1382,(9, 156),2	1384,(9, 168),2	1386,(9, 170),244	1630,(9, 172),22	1652,(9, 186),14	1666,(1, 24),56	1722,(1, 26),676	2398,(1, 28),12	2410,(1, 36),2	2412,(1, 48),4	2416,(1, 52),2	2418,(1, 54),4	2422,(1, 56),4	2426,(1, 58),2	2428,(1, 66),84	2512,(1, 68),2	2514,(1, 72),40	2554,(1, 82),2	2556,(1, 88),2	2558,(1, 98),14	2572,(1, 106),80	2652,(1, 108),40	2692,(1, 110),2	2694,(1, 118),36	2730,(1, 122),24	2754,(1, 124),10	2764,(1, 142),10	2774,(1, 146),2	2776,(1, 180),8	2784,(1, 188),2	2786,(1, 196),6	2792,(1, 200),4	2796,(3, 24),136	2932,(3, 28),2	2934,(3, 38),14	2948,(3, 44),2	2950,(3, 50),2	2952,(3, 58),18	2970,(3, 62),20	2990,(3, 70),2	2992,(3, 76),392	3384,(3, 84),2	3386,(3, 86),22	3408,(3, 88),92	3500,(3, 98),2	3502,(3, 100),12	3514,(3, 112),20	3534,(3, 120),2	3536,(3, 122),188	3724,(3, 124),2	3726,(3, 132),102	3828,(3, 150),4	3832,(3, 152),66	3898,(3, 160),6	3904,(3, 164),2	3906,(3, 176),12	3918,(3, 192),18	3936,(3, 196),4	3940,(5, 32),42	3982,(5, 36),26	4008,(5, 44),2	4010,(5, 46),26	4036,(5, 54),98	4134,(5, 62),2	4136,(5, 70),10	4146,(5, 72),2	4148,(5, 78),54	4202,(5, 86),24	4226,(5, 90),80	4306,(5, 92),292	4598,(5, 94),40	4638,(5, 98),6	4644,(5, 100),60	4704,(5, 118),124	4828,(5, 134),8	4836,(5, 136),4	4840,(5, 138),32	4872,(5, 142),42	4914,(5, 146),2	4916,(5, 148),132	5048,(5, 162),8	5056,(5, 166),16	5072,(5, 172),16	5088,(5, 174),50	5138,(5, 180),78	5216,(5, 186),42	5258,(5, 196),2	5260,(19, 22),290	5550,(19, 26),18	5568,(19, 32),8	5576,(19, 46),52	5628,(19, 54),4	5632,(19, 56),2	5634,(19, 60),40	5674,(19, 68),32	5706,(19, 70),10	5716,(19, 72),10	5726,(19, 76),4	5730,(19, 78),26	5756,(19, 82),18	5774,(19, 84),10	5784,(19, 88),12	5796,(19, 92),114	5910,(19, 96),12	5922,(19, 98),6	5928,(19, 100),2	5930,(19, 104),30	5960,(19, 108),6	5966,(19, 110),14	5980,(19, 118),40	6020,(19, 122),6	6026,(19, 138),12	6038,(19, 146),4	6042,(19, 148),2	6044,(19, 166),12	6056,(19, 170),22	6078,(19, 178),20	6098,(19, 180),28	6126,(19, 184),6	6132,(19, 186),4	6136,(19, 188),2	6138,(19, 192),2	6140,(15, 34),4	6144,(15, 48),28	6172,(15, 50),16	6188,(15, 52),198	6386,(15, 54),4	6390,(15, 62),178	6568,(15, 66),16	6584,(15, 72),20	6604,(15, 76),2	6606,(15, 80),8	6614,(15, 84),34	6648,(15, 92),8	6656,(15, 94),16	6672,(15, 96),22	6694,(15, 120),2	6696,(15, 122),22	6718,(15, 124),54	6772,(15, 132),52	6824,(15, 134),208	7032,(15, 162),22	7054,(15, 164),2	7056,(15, 168),10	7066,(15, 180),16	7082,(15, 186),48	7130,(15, 192),6	7136,(15, 196),4	7140,(15, 198),104	7244,(15, 200),44	7288,(7, 34),2	7290,(7, 40),2	7292,(7, 42),10	7302,(7, 44),2	7304,(7, 54),16	7320,(7, 64),70	7390,(7, 70),82	7472,(7, 72),16	7488,(7, 74),4	7492,(7, 76),34	7526,(7, 84),32	7558,(7, 86),14	7572,(7, 90),2	7574,(7, 92),2	7576,(7, 94),8	7584,(7, 102),2	7586,(7, 106),22	7608,(7, 120),10	7618,(7, 126),50	7668,(7, 134),24	7692,(7, 136),172	7864,(7, 140),192	8056,(7, 144),2	8058,(7, 158),4	8062,(7, 160),92	8154,(7, 162),8	8162,(7, 172),6	8168,(7, 174),20	8188,(7, 176),2	8190,(7, 182),22	8212,(7, 188),22	8234,(7, 194),6	8240,(13, 26),4	8244,(13, 38),18	8262,(13, 46),4	8266,(13, 48),4	8270,(13, 52),2	8272,(13, 54),14	8286,(13, 58),30	8316,(13, 66),2	8318,(13, 72),80	8398,(13, 78),34	8432,(13, 88),64	8496,(13, 92),14	8510,(13, 96),2	8512,(13, 100),2	8514,(13, 102),4	8518,(13, 104),44	8562,(13, 106),168	8730,(13, 108),2	8732,(13, 116),10	8742,(13, 118),8	8750,(13, 124),2	8752,(13, 126),8	8760,(13, 134),6	8766,(13, 136),24	8790,(13, 140),2	8792,(13, 148),4	8796,(13, 154),14	8810,(13, 158),4	8814,(13, 164),8	8822,(13, 166),96	8918,(13, 168),6	8924,(13, 170),2	8926,(13, 184),134	9060,(13, 190),2	9062,(13, 194),6	9068,(11, 26),10	9078,(11, 30),2	9080,(11, 36),20	9100,(11, 42),12	9112,(11, 46),48	9160,(11, 48),6	9166,(11, 60),104	9270,(11, 70),10	9280,(11, 76),2	9282,(11, 82),66	9348,(11, 100),20	9368,(11, 104),42	9410,(11, 106),10	9420,(11, 114),16	9436,(11, 150),2	9438,(11, 162),8	9446,(11, 176),14	9460,(11, 178),48	9508,(11, 180),4	9512,(11, 184),76	9588,(11, 188),20	9608,(11, 198),18	9626,(11, 200),2	9628,(17, 22),6	9634,(17, 24),10	9644,(17, 32),12	9656,(17, 36),74	9730,(17, 42),2	9732,(17, 56),56	9788,(17, 58),18	9806,(17, 80),2	9808,(17, 92),24	9832,(17, 94),2	9834,(17, 100),8	9842,(17, 110),2	9844,(17, 112),2	9846,(17, 118),12	9858,(17, 120),2	9860,(17, 142),14	9874,(17, 144),2	9876,(17, 146),38	9914,(17, 154),8	9922,(17, 158),18	9940,(17, 186),14	9954,(17, 188),10	9964,(17, 190),36	10000,(17, 194),4	10004,(17, 198),2	
190,(2, 23),36	226,(2, 25),2	228,(2, 27),30	258,(2, 29),28	286,(2, 49),2	288,(2, 57),2	290,(2, 59),116	406,(2, 63),10	416,(2, 77),2	418,(2, 79),2	420,(2, 107),10	430,(2, 115),14	444,(2, 139),4	448,(2, 141),6	454,(2, 145),8	462,(2, 147),22	484,(2, 153),10	494,(2, 157),54	548,(2, 159),2	550,(2, 161),2	552,(2, 163),2	554,(2, 177),2	556,(2, 187),2	558,(2, 195),64	622,(4, 31),34	656,(4, 37),2	658,(4, 45),4	662,(4, 49),14	676,(4, 51),4	680,(4, 55),4	684,(4, 77),2	686,(4, 83),28	714,(4, 87),16	730,(4, 93),26	756,(4, 95),2	758,(4, 99),2	760,(4, 103),42	802,(4, 111),2	804,(4, 115),4	808,(4, 121),74	882,(4, 125),2	884,(4, 129),4	888,(4, 145),6	894,(4, 169),48	942,(4, 173),48	990,(4, 177),8	998,(4, 179),2	1000,(4, 185),4	1004,(4, 199),4	1008,(6, 53),84	1092,(6, 63),16	1108,(6, 65),2	1110,(6, 69),2	1112,(6, 91),4	1116,(6, 95),2	1118,(6, 103),2	1120,(6, 123),20	1140,(6, 125),2	1142,(6, 135),4	1146,(6, 143),2	1148,(6, 157),2	1150,(6, 159),50	1200,(6, 165),14	1214,(6, 167),16	1230,(6, 171),10	1240,(6, 173),2	1242,(6, 177),12	1254,(6, 181),2	1256,(6, 183),32	1288,(6, 191),2	1290,(6, 197),22	1312,(6, 199),230	1542,(8, 33),4	1546,(8, 37),6	1552,(8, 39),14	1566,(8, 49),42	1608,(8, 51),2	1610,(8, 75),4	1614,(8, 79),4	1618,(8, 85),6	1624,(8, 93),6	1630,(8, 103),2	1632,(8, 105),22	1654,(8, 119),2	1656,(8, 127),42	1698,(8, 143),38	1736,(8, 147),2	1738,(8, 151),4	1742,(8, 157),2	1744,(8, 159),2	1746,(8, 161),4	1750,(8, 171),42	1792,(8, 181),108	1900,(8, 183),2	1902,(8, 189),22	1924,(8, 199),6	1930,(10, 21),8	1938,(10, 25),2	1940,(10, 27),22	1962,(10, 31),2	1964,(10, 33),6	1970,(10, 41),4	1974,(10, 49),66	2040,(10, 51),56	2096,(10, 57),8	2104,(10, 61),2	2106,(10, 63),2	2108,(10, 69),12	2120,(10, 71),32	2152,(10, 73),10	2162,(10, 77),2	2164,(10, 81),24	2188,(10, 91),22	2210,(10, 99),6	2216,(10, 103),10	2226,(10, 105),2	2228,(10, 107),50	2278,(10, 115),16	2294,(10, 129),90	2384,(10, 137),58	2442,(10, 139),10	2452,(10, 143),134	2586,(10, 145),210	2796,(10, 159),62	2858,(10, 161),4	2862,(10, 163),2	2864,(10, 171),16	2880,(10, 175),26	2906,(10, 177),2	2908,(10, 181),12	2920,(10, 183),2	2922,(10, 187),10	2932,(10, 193),56	2988,(10, 197),100	3088,(12, 21),4	3092,(12, 23),32	3124,(12, 31),4	3128,(12, 47),6	3134,(12, 51),44	3178,(12, 55),2	3180,(12, 65),4	3184,(12, 77),74	3258,(12, 79),18	3276,(12, 81),2	3278,(12, 83),18	3296,(12, 87),4	3300,(12, 89),10	3310,(12, 91),2	3312,(12, 93),2	3314,(12, 107),6	3320,(12, 117),2	3322,(12, 119),36	3358,(12, 121),114	3472,(12, 155),8	3480,(12, 159),2	3482,(12, 163),10	3492,(12, 169),16	3508,(12, 173),4	3512,(12, 185),40	3552,(12, 187),2	3554,(14, 29),2	3556,(14, 31),8	3564,(14, 35),20	3584,(14, 37),22	3606,(14, 43),36	3642,(14, 45),4	3646,(14, 51),2	3648,(14, 59),6	3654,(14, 63),40	3694,(14, 65),4	3698,(14, 93),8	3706,(14, 105),40	3746,(14, 109),44	3790,(14, 111),14	3804,(14, 113),46	3850,(14, 119),18	3868,(14, 123),4	3872,(14, 125),16	3888,(14, 129),12	3900,(14, 131),24	3924,(14, 141),14	3938,(14, 151),22	3960,(14, 161),2	3962,(14, 165),8	3970,(14, 169),26	3996,(14, 181),2	3998,(14, 191),2	4000,(14, 193),28	4028,(16, 23),8	4036,(16, 35),2	4038,(16, 37),2	4040,(16, 41),8	4048,(16, 45),20	4068,(16, 55),6	4074,(16, 65),14	4088,(16, 69),42	4130,(16, 71),14	4144,(16, 93),88	4232,(16, 105),2	4234,(16, 107),2	4236,(16, 115),10	4246,(16, 117),8	4254,(16, 121),8	4262,(16, 125),46	4308,(16, 139),8	4316,(16, 145),6	4322,(16, 151),68	4390,(16, 159),80	4470,(16, 183),16	4486,(16, 199),10	4496,(18, 35),4	4500,(18, 49),96	4596,(18, 55),2	4598,(18, 61),6	4604,(18, 63),24	4628,(18, 65),4	4632,(18, 67),16	4648,(18, 69),2	4650,(18, 77),2	4652,(18, 89),2	4654,(18, 101),66	4720,(18, 131),128	4848,(18, 133),64	4912,(18, 139),20	4932,(18, 147),22	4954,(18, 151),8	4962,(18, 167),2	4964,(18, 191),24	4988,(18, 195),2	4990,(20, 21),8	4998,(20, 27),22	5020,(20, 39),36	5056,(20, 43),8	5064,(20, 95),18	5082,(20, 101),20	5102,(20, 115),518	5620,(20, 119),24	5644,(20, 121),2	5646,(20, 137),26	5672,(20, 145),10	5682,(20, 149),8	5690,(20, 155),26	5716,(20, 179),14	5730,(20, 185),2	5732,(20, 195),2	5734,(130, 201),28	5762,(128, 201),28	5790,(156, 201),28	5818,(28, 201),28	5846,(152, 201),28	5889,(68, 201),28	6111,(98, 201),28	6294,(138, 201),28	6477,(50, 201),28	6751,(62, 201),28	6934,(122, 201),28	7117,(132, 201),28	7319,(192, 201),28	7502,(196, 201),28	7685,(34, 201),28	7868,(40, 201),28	8051,(44, 201),28	8234,(64, 201),28	8417,(74, 201),28	8600,(84, 201),28	8783,(86, 201),28	8966,(90, 201),28	9149,(160, 201),28	9332,(172, 201),28	9515,(174, 201),28	9698,(182, 201),28	9881,(38, 201),28	10064,(52, 201),28	10247,(54, 201),28	10430,(66, 201),28	10613,(72, 201),28	10796,(78, 201),28	10979,(88, 201),28	11162,(96, 201),28	11345,(102, 201),28	11528,(108, 201),28	11711,(116, 201),28	11894,(124, 201),28	12077,(126, 201),28	12260,(134, 201),28	12443,(136, 201),28	12626,(140, 201),28	12809,(148, 201),28	12992,(164, 201),28	13175,(166, 201),28	13358,(168, 201),28	13541,(170, 201),28	13724,(26, 201),28	13907,(30, 201),28	14090,(46, 201),28	14273,(48, 201),28	14456,(60, 201),28	14639,(70, 201),28	14822,(76, 201),28	15005,(82, 201),28	15188,(104, 201),28	15371,(106, 201),28	15554,(114, 201),28	15737,(150, 201),28	15920,(162, 201),28	16103,(176, 201),28	16286,(178, 201),28	16469,(180, 201),28	16652,(184, 201),28	16835,(200, 201),28	17018,(22, 201),28	17201,(24, 201),28	17384,(32, 201),28	17567,(36, 201),28	17750,(42, 201),28	17933,(56, 201),28	18116,(58, 201),28	18299,(80, 201),28	18482,(92, 201),28	18665,(94, 201),28	18848,(100, 201),28	19031,(110, 201),28	19214,(112, 201),28	19397,(118, 201),28	19580,(120, 201),28	19763,(142, 201),28	19946,(144, 201),28	20129,(146, 201),28	20312,(154, 201),28	20495,(158, 201),28	20678,(186, 201),28	20861,(188, 201),28	21044,(190, 201),28	21227,(194, 201),28	21410,(198, 201),28	
# Outgoing
190,(2, 23),36	226,(2, 25),2	228,(2, 27),30	258,(2, 29),28	286,(2, 49),2	288,(2, 57),2	290,(2, 59),116	406,(2, 63),10	416,(2, 77),2	418,(2, 79),2	420,(2, 107),10	430,(2, 115),14	444,(2, 139),4	448,(2, 141),6	454,(2, 145),8	462,(2, 147),22	484,(2, 153),10	494,(2, 157),54	548,(2, 159),2	550,(2, 161),2	552,(2, 163),2	554,(2, 177),2	556,(2, 187),2	558,(2, 195),64	622,(4, 31),34	656,(4, 37),2	658,(4, 45),4	662,(4, 49),14	676,(4, 51),4	680,(4, 55),4	684,(4, 77),2	686,(4, 83),28	714,(4, 87),16	730,(4, 93),26	756,(4, 95),2	758,(4, 99),2	760,(4, 103),42	802,(4, 111),2	804,(4, 115),4	808,(4, 121),74	882,(4, 125),2	884,(4, 129),4	888,(4, 145),6	894,(4, 169),48	942,(4, 173),48	990,(4, 177),8	998,(4, 179),2	1000,(4, 185),4	1004,(4, 199),4	1008,(6, 53),84	1092,(6, 63),16	1108,(6, 65),2	1110,(6, 69),2	1112,(6, 91),4	1116,(6, 95),2	1118,(6, 103),2	1120,(6, 123),20	1140,(6, 125),2	1142,(6, 135),4	1146,(6, 143),2	1148,(6, 157),2	1150,(6, 159),50	1200,(6, 165),14	1214,(6, 167),16	1230,(6, 171),10	1240,(6, 173),2	1242,(6, 177),12	1254,(6, 181),2	1256,(6, 183),32	1288,(6, 191),2	1290,(6, 197),22	1312,(6, 199),230	1542,(8, 33),4	1546,(8, 37),6	1552,(8, 39),14	1566,(8, 49),42	1608,(8, 51),2	1610,(8, 75),4	1614,(8, 79),4	1618,(8, 85),6	1624,(8, 93),6	1630,(8, 103),2	1632,(8, 105),22	1654,(8, 119),2	1656,(8, 127),42	1698,(8, 143),38	1736,(8, 147),2	1738,(8, 151),4	1742,(8, 157),2	1744,(8, 159),2	1746,(8, 161),4	1750,(8, 171),42	1792,(8, 181),108	1900,(8, 183),2	1902,(8, 189),22	1924,(8, 199),6	1930,(10, 21),8	1938,(10, 25),2	1940,(10, 27),22	1962,(10, 31),2	1964,(10, 33),6	1970,(10, 41),4	1974,(10, 49),66	2040,(10, 51),56	2096,(10, 57),8	2104,(10, 61),2	2106,(10, 63),2	2108,(10, 69),12	2120,(10, 71),32	2152,(10, 73),10	2162,(10, 77),2	2164,(10, 81),24	2188,(10, 91),22	2210,(10, 99),6	2216,(10, 103),10	2226,(10, 105),2	2228,(10, 107),50	2278,(10, 115),16	2294,(10, 129),90	2384,(10, 137),58	2442,(10, 139),10	2452,(10, 143),134	2586,(10, 145),210	2796,(10, 159),62	2858,(10, 161),4	2862,(10, 163),2	2864,(10, 171),16	2880,(10, 175),26	2906,(10, 177),2	2908,(10, 181),12	2920,(10, 183),2	2922,(10, 187),10	2932,(10, 193),56	2988,(10, 197),100	3088,(12, 21),4	3092,(12, 23),32	3124,(12, 31),4	3128,(12, 47),6	3134,(12, 51),44	3178,(12, 55),2	3180,(12, 65),4	3184,(12, 77),74	3258,(12, 79),18	3276,(12, 81),2	3278,(12, 83),18	3296,(12, 87),4	3300,(12, 89),10	3310,(12, 91),2	3312,(12, 93),2	3314,(12, 107),6	3320,(12, 117),2	3322,(12, 119),36	3358,(12, 121),114	3472,(12, 155),8	3480,(12, 159),2	3482,(12, 163),10	3492,(12, 169),16	3508,(12, 173),4	3512,(12, 185),40	3552,(12, 187),2	3554,(14, 29),2	3556,(14, 31),8	3564,(14, 35),20	3584,(14, 37),22	3606,(14, 43),36	3642,(14, 45),4	3646,(14, 51),2	3648,(14, 59),6	3654,(14, 63),40	3694,(14, 65),4	3698,(14, 93),8	3706,(14, 105),40	3746,(14, 109),44	3790,(14, 111),14	3804,(14, 113),46	3850,(14, 119),18	3868,(14, 123),4	3872,(14, 125),16	3888,(14, 129),12	3900,(14, 131),24	3924,(14, 141),14	3938,(14, 151),22	3960,(14, 161),2	3962,(14, 165),8	3970,(14, 169),26	3996,(14, 181),2	3998,(14, 191),2	4000,(14, 193),28	4028,(16, 23),8	4036,(16, 35),2	4038,(16, 37),2	4040,(16, 41),8	4048,(16, 45),20	4068,(16, 55),6	4074,(16, 65),14	4088,(16, 69),42	4130,(16, 71),14	4144,(16, 93),88	4232,(16, 105),2	4234,(16, 107),2	4236,(16, 115),10	4246,(16, 117),8	4254,(16, 121),8	4262,(16, 125),46	4308,(16, 139),8	4316,(16, 145),6	4322,(16, 151),68	4390,(16, 159),80	4470,(16, 183),16	4486,(16, 199),10	4496,(18, 35),4	4500,(18, 49),96	4596,(18, 55),2	4598,(18, 61),6	4604,(18, 63),24	4628,(18, 65),4	4632,(18, 67),16	4648,(18, 69),2	4650,(18, 77),2	4652,(18, 89),2	4654,(18, 101),66	4720,(18, 131),128	4848,(18, 133),64	4912,(18, 139),20	4932,(18, 147),22	4954,(18, 151),8	4962,(18, 167),2	4964,(18, 191),24	4988,(18, 195),2	4990,(20, 21),8	4998,(20, 27),22	5020,(20, 39),36	5056,(20, 43),8	5064,(20, 95),18	5082,(20, 101),20	5102,(20, 115),518	5620,(20, 119),24	5644,(20, 121),2	5646,(20, 137),26	5672,(20, 145),10	5682,(20, 149),8	5690,(20, 155),26	5716,(20, 179),14	5730,(20, 185),2	5732,(20, 195),2	5734,(130, 201),28	5762,(128, 201),28	5790,(156, 201),28	5818,(28, 201),28	5846,(152, 201),28	5889,(68, 201),28	6111,(98, 201),28	6294,(138, 201),28	6477,(50, 201),28	6751,(62, 201),28	6934,(122, 201),28	7117,(132, 201),28	7319,(192, 201),28	7502,(196, 201),28	7685,(34, 201),28	7868,(40, 201),28	8051,(44, 201),28	8234,(64, 201),28	8417,(74, 201),28	8600,(84, 201),28	8783,(86, 201),28	8966,(90, 201),28	9149,(160, 201),28	9332,(172, 201),28	9515,(174, 201),28	9698,(182, 201),28	9881,(38, 201),28	10064,(52, 201),28	10247,(54, 201),28	10430,(66, 201),28	10613,(72, 201),28	10796,(78, 201),28	10979,(88, 201),28	11162,(96, 201),28	11345,(102, 201),28	11528,(108, 201),28	11711,(116, 201),28	11894,(124, 201),28	12077,(126, 201),28	12260,(134, 201),28	12443,(136, 201),28	12626,(140, 201),28	12809,(148, 201),28	12992,(164, 201),28	13175,(166, 201),28	13358,(168, 201),28	13541,(170, 201),28	13724,(26, 201),28	13907,(30, 201),28	14090,(46, 201),28	14273,(48, 201),28	14456,(60, 201),28	14639,(70, 201),28	14822,(76, 201),28	15005,(82, 201),28	15188,(104, 201),28	15371,(106, 201),28	15554,(114, 201),28	15737,(150, 201),28	15920,(162, 201),28	16103,(176, 201),28	16286,(178, 201),28	16469,(180, 201),28	16652,(184, 201),28	16835,(200, 201),28	17018,(22, 201),28	17201,(24, 201),28	17384,(32, 201),28	17567,(36, 201),28	17750,(42, 201),28	17933,(56, 201),28	18116,(58, 201),28	18299,(80, 201),28	18482,(92, 201),28	18665,(94, 201),28	18848,(100, 201),28	19031,(110, 201),28	19214,(112, 201),28	19397,(118, 201),28	19580,(120, 201),28	19763,(142, 201),28	19946,(144, 201),28	20129,(146, 201),28	20312,(154, 201),28	20495,(158, 201),28	20678,(186, 201),28	20861,(188, 201),28	21044,(190, 201),28	21227,(194, 201),28	21410,(198, 201),28	
1,(0, 2),6	7,(0, 4),6	13,(0, 6),6	19,(0, 8),6	25,(0, 10),6	31,(0, 12),6	37,(0, 14),6	43,(0, 16),6	49,(0, 18),6	55,(0, 20),6	184,(9, 32),788	972,(9, 44),10	982,(9, 46),34	1016,(9, 48),6	1022,(9, 56),60	1082,(9, 60),2	1084,(9, 66),2	1086,(9, 80),8	1094,(9, 94),20	1114,(9, 96),36	1150,(9, 100),2	1152,(9, 106),2	1154,(9, 116),22	1176,(9, 132),18	1194,(9, 138),16	1210,(9, 146),14	1224,(9, 148),158	1382,(9, 156),2	1384,(9, 168),2	1386,(9, 170),244	1630,(9, 172),22	1652,(9, 186),14	1666,(1, 24),56	1722,(1, 26),676	2398,(1, 28),12	2410,(1, 36),2	2412,(1, 48),4	2416,(1, 52),2	2418,(1, 54),4	2422,(1, 56),4	2426,(1, 58),2	2428,(1, 66),84	2512,(1, 68),2	2514,(1, 72),40	2554,(1, 82),2	2556,(1, 88),2	2558,(1, 98),14	2572,(1, 106),80	2652,(1, 108),40	2692,(1, 110),2	2694,(1, 118),36	2730,(1, 122),24	2754,(1, 124),10	2764,(1, 142),10	2774,(1, 146),2	2776,(1, 180),8	2784,(1, 188),2	2786,(1, 196),6	2792,(1, 200),4	2796,(3, 24),136	2932,(3, 28),2	2934,(3, 38),14	2948,(3, 44),2	2950,(3, 50),2	2952,(3, 58),18	2970,(3, 62),20	2990,(3, 70),2	2992,(3, 76),392	3384,(3, 84),2	3386,(3, 86),22	3408,(3, 88),92	3500,(3, 98),2	3502,(3, 100),12	3514,(3, 112),20	3534,(3, 120),2	3536,(3, 122),188	3724,(3, 124),2	3726,(3, 132),102	3828,(3, 150),4	3832,(3, 152),66	3898,(3, 160),6	3904,(3, 164),2	3906,(3, 176),12	3918,(3, 192),18	3936,(3, 196),4	3940,(5, 32),42	3982,(5, 36),26	4008,(5, 44),2	4010,(5, 46),26	4036,(5, 54),98	4134,(5, 62),2	4136,(5, 70),10	4146,(5, 72),2	4148,(5, 78),54	4202,(5, 86),24	4226,(5, 90),80	4306,(5, 92),292	4598,(5, 94),40	4638,(5, 98),6	4644,(5, 100),60	4704,(5, 118),124	4828,(5, 134),8	4836,(5, 136),4	4840,(5, 138),32	4872,(5, 142),42	4914,(5, 146),2	4916,(5, 148),132	5048,(5, 162),8	5056,(5, 166),16	5072,(5, 172),16	5088,(5, 174),50	5138,(5, 180),78	5216,(5, 186),42	5258,(5, 196),2	5260,(19, 22),290	5550,(19, 26),18	5568,(19, 32),8	5576,(19, 46),52	5628,(19, 54),4	5632,(19, 56),2	5634,(19, 60),40	5674,(19, 68),32	5706,(19, 70),10	5716,(19, 72),10	5726,(19, 76),4	5730,(19, 78),26	5756,(19, 82),18	5774,(19, 84),10	5784,(19, 88),12	5796,(19, 92),114	5910,(19, 96),12	5922,(19, 98),6	5928,(19, 100),2	5930,(19, 104),30	5960,(19, 108),6	5966,(19, 110),14	5980,(19, 118),40	6020,(19, 122),6	6026,(19, 138),12	6038,(19, 146),4	6042,(19, 148),2	6044,(19, 166),12	6056,(19, 170),22	6078,(19, 178),20	6098,(19, 180),28	6126,(19, 184),6	6132,(19, 186),4	6136,(19, 188),2	6138,(19, 192),2	6140,(15, 34),4	6144,(15, 48),28	6172,(15, 50),16	6188,(15, 52),198	6386,(15, 54),4	6390,(15, 62),178	6568,(15, 66),16	6584,(15, 72),20	6604,(15, 76),2	6606,(15, 80),8	6614,(15, 84),34	6648,(15, 92),8	6656,(15, 94),16	6672,(15, 96),22	6694,(15, 120),2	6696,(15, 122),22	6718,(15, 124),54	6772,(15, 132),52	6824,(15, 134),208	7032,(15, 162),22	7054,(15, 164),2	7056,(15, 168),10	7066,(15, 180),16	7082,(15, 186),48	7130,(15, 192),6	7136,(15, 196),4	7140,(15, 198),104	7244,(15, 200),44	7288,(7, 34),2	7290,(7, 40),2	7292,(7, 42),10	7302,(7, 44),2	7304,(7, 54),16	7320,(7, 64),70	7390,(7, 70),82	7472,(7, 72),16	7488,(7, 74),4	7492,(7, 76),34	7526,(7, 84),32	7558,(7, 86),14	7572,(7, 90),2	7574,(7, 92),2	7576,(7, 94),8	7584,(7, 102),2	7586,(7, 106),22	7608,(7, 120),10	7618,(7, 126),50	7668,(7, 134),24	7692,(7, 136),172	7864,(7, 140),192	8056,(7, 144),2	8058,(7, 158),4	8062,(7, 160),92	8154,(7, 162),8	8162,(7, 172),6	8168,(7, 174),20	8188,(7, 176),2	8190,(7, 182),22	8212,(7, 188),22	8234,(7, 194),6	8240,(13, 26),4	8244,(13, 38),18	8262,(13, 46),4	8266,(13, 48),4	8270,(13, 52),2	8272,(13, 54),14	8286,(13, 58),30	8316,(13, 66),2	8318,(13, 72),80	8398,(13, 78),34	8432,(13, 88),64	8496,(13, 92),14	8510,(13, 96),2	8512,(13, 100),2	8514,(13, 102),4	8518,(13, 104),44	8562,(13, 106),168	8730,(13, 108),2	8732,(13, 116),10	8742,(13, 118),8	8750,(13, 124),2	8752,(13, 126),8	8760,(13, 134),6	8766,(13, 136),24	8790,(13, 140),2	8792,(13, 148),4	8796,(13, 154),14	8810,(13, 158),4	8814,(13, 164),8	8822,(13, 166),96	8918,(13, 168),6	8924,(13, 170),2	8926,(13, 184),134	9060,(13, 190),2	9062,(13, 194),6	9068,(11, 26),10	9078,(11, 30),2	9080,(11, 36),20	9100,(11, 42),12	9112,(11, 46),48	9160,(11, 48),6	9166,(11, 60),104	9270,(11, 70),10	9280,(11, 76),2	9282,(11, 82),66	9348,(11, 100),20	9368,(11, 104),42	9410,(11, 106),10	9420,(11, 114),16	9436,(11, 150),2	9438,(11, 162),8	9446,(11, 176),14	9460,(11, 178),48	9508,(11, 180),4	9512,(11, 184),76	9588,(11, 188),20	9608,(11, 198),18	9626,(11, 200),2	9628,(17, 22),6	9634,(17, 24),10	9644,(17, 32),12	9656,(17, 36),74	9730,(17, 42),2	9732,(17, 56),56	9788,(17, 58),18	9806,(17, 80),2	9808,(17, 92),24	9832,(17, 94),2	9834,(17, 100),8	9842,(17, 110),2	9844,(17, 112),2	9846,(17, 118),12	9858,(17, 120),2	9860,(17, 142),14	9874,(17, 144),2	9876,(17, 146),38	9914,(17, 154),8	9922,(17, 158),18	9940,(17, 186),14	9954,(17, 188),10	9964,(17, 190),36	10000,(17, 194),4	10004,(17, 198),2	
