32129
# CPU
145,4,22	167,52,22	241,44,22	289,8,22	311,40,22	333,56,22	355,12,22	377,36,22	399,64,22	745,28,22	946,68,22	1024,32,22	1048,72,22	1070,76,22	1092,80,22	1174,16,22	1196,20,22	1246,24,22	1268,60,22	1576,48,22	
97,3,22	119,19,22	241,7,22	263,55,22	285,63,22	307,39,22	329,15,22	351,43,22	373,51,22	395,11,22	417,59,22	439,67,22	461,23,22	622,27,22	907,31,22	1012,35,22	1045,47,22	1264,71,22	1286,75,22	1308,79,22	
49,2,22	71,22,22	193,6,22	217,46,22	239,70,22	349,66,22	418,14,22	448,62,22	470,26,22	907,30,22	931,34,22	1036,42,22	1058,58,22	1168,10,22	1234,74,22	1256,38,22	1471,78,22	1501,54,22	1528,18,22	1615,50,22	
0,0,1	1,5,22	23,1,22	112,25,22	134,61,22	156,13,22	200,45,22	346,69,22	368,17,22	415,37,22	437,53,22	459,9,22	481,33,22	503,65,22	604,77,22	676,21,22	698,29,22	910,49,22	932,57,22	3040,41,22	3670,73,22	32128,81,1	
# Incoming
97,(0, 4),48	145,(2, 32),9	154,(2, 40),18	172,(2, 44),69	241,(0, 8),48	289,(2, 48),6	295,(3, 56),21	316,(3, 72),33	349,(5, 12),3	352,(6, 36),6	370,(6, 60),3	373,(6, 64),3	385,(7, 28),33	427,(5, 24),21	448,(2, 28),297	745,(2, 68),201	1000,(7, 32),24	1045,(5, 72),3	1048,(5, 76),9	1057,(5, 80),3	1168,(1, 16),6	1174,(1, 20),3	1177,(1, 24),69	1255,(1, 60),3	1258,(7, 48),207	1504,(6, 48),72	
49,(0, 3),48	97,(2, 11),3	103,(2, 19),3	106,(2, 23),3	193,(0, 7),48	241,(4, 31),3	244,(4, 51),3	247,(4, 55),9	256,(6, 15),18	274,(6, 43),3	277,(6, 51),3	289,(5, 11),60	349,(8, 11),6	355,(8, 59),3	358,(6, 59),12	376,(6, 67),12	388,(6, 71),18	418,(5, 23),9	604,(8, 27),18	679,(8, 31),228	931,(5, 35),81	1012,(8, 47),33	1258,(1, 71),6	1264,(1, 75),12	1276,(1, 79),21	
1,(0, 2),48	119,(3, 10),3	131,(3, 30),3	134,(3, 38),3	145,(0, 6),48	193,(3, 18),21	214,(4, 46),3	217,(4, 66),9	226,(4, 70),6	283,(7, 26),12	346,(8, 66),3	352,(5, 14),66	418,(4, 62),30	448,(5, 26),3	451,(5, 30),456	907,(5, 34),24	931,(3, 58),69	1000,(8, 42),9	1012,(5, 42),24	1036,(5, 58),9	1045,(8, 78),12	1060,(1, 10),108	1168,(3, 74),66	1246,(1, 38),3	1249,(1, 54),6	1255,(4, 54),105	1360,(4, 78),111	1471,(7, 54),30	1501,(8, 18),27	1528,(8, 50),87	
100,(2, 13),3	109,(2, 25),3	112,(2, 61),3	122,(3, 13),9	137,(3, 69),3	140,(3, 73),27	167,(4, 17),30	197,(4, 45),3	200,(4, 53),6	214,(3, 49),69	283,(4, 33),45	328,(4, 69),18	346,(6, 17),3	349,(3, 77),36	385,(4, 37),30	415,(6, 53),3	418,(7, 9),3	421,(7, 33),9	448,(4, 65),24	472,(4, 77),132	604,(7, 49),45	649,(8, 21),27	676,(8, 29),3	907,(8, 49),3	910,(8, 57),12	946,(22, 81),558	1504,(19, 81),558	2062,(4, 41),978	3040,(52, 81),558	3598,(6, 73),72	3670,(46, 81),558	4228,(70, 81),558	4786,(44, 81),558	5344,(55, 81),558	5902,(63, 81),558	6460,(39, 81),558	7018,(40, 81),558	7576,(15, 81),558	8134,(56, 81),558	8692,(66, 81),558	9250,(43, 81),558	9808,(12, 81),558	10366,(51, 81),558	10924,(36, 81),558	11482,(11, 81),558	12040,(64, 81),558	12598,(59, 81),558	13156,(14, 81),558	13714,(67, 81),558	14272,(62, 81),558	14830,(23, 81),558	15388,(26, 81),558	15946,(27, 81),558	16504,(28, 81),558	17062,(30, 81),558	17620,(31, 81),558	18178,(34, 81),558	18736,(68, 81),558	19294,(35, 81),558	19852,(32, 81),558	20410,(42, 81),558	20968,(47, 81),558	21526,(72, 81),558	22084,(58, 81),558	22642,(76, 81),558	23200,(80, 81),558	23758,(10, 81),558	24316,(16, 81),558	24874,(20, 81),558	25432,(74, 81),558	25990,(24, 81),558	26548,(38, 81),558	27106,(71, 81),558	27664,(60, 81),558	28222,(75, 81),558	28780,(79, 81),558	29338,(78, 81),558	29896,(54, 81),558	30454,(18, 81),558	31012,(48, 81),558	31570,(50, 81),558	
# Outgoing
167,(4, 17),30	197,(4, 45),3	200,(4, 53),6	214,(4, 46),3	217,(4, 66),9	226,(4, 70),6	241,(4, 31),3	244,(4, 51),3	247,(4, 55),9	283,(4, 33),45	328,(4, 69),18	346,(8, 66),3	349,(8, 11),6	355,(8, 59),3	385,(4, 37),30	418,(4, 62),30	448,(4, 65),24	472,(4, 77),132	604,(8, 27),18	649,(8, 21),27	676,(8, 29),3	679,(8, 31),228	907,(8, 49),3	910,(8, 57),12	1000,(8, 42),9	1012,(8, 47),33	1045,(8, 78),12	1255,(4, 54),105	1360,(4, 78),111	1501,(8, 18),27	1528,(8, 50),87	2062,(4, 41),978	3040,(52, 81),558	4786,(44, 81),558	7018,(40, 81),558	8134,(56, 81),558	9808,(12, 81),558	10924,(36, 81),558	12040,(64, 81),558	16504,(28, 81),558	18736,(68, 81),558	19852,(32, 81),558	21526,(72, 81),558	22642,(76, 81),558	23200,(80, 81),558	24316,(16, 81),558	24874,(20, 81),558	25990,(24, 81),558	27664,(60, 81),558	31012,(48, 81),558	
119,(3, 10),3	122,(3, 13),9	131,(3, 30),3	134,(3, 38),3	137,(3, 69),3	140,(3, 73),27	193,(3, 18),21	214,(3, 49),69	283,(7, 26),12	295,(3, 56),21	316,(3, 72),33	349,(3, 77),36	385,(7, 28),33	418,(7, 9),3	421,(7, 33),9	604,(7, 49),45	931,(3, 58),69	1000,(7, 32),24	1168,(3, 74),66	1258,(7, 48),207	1471,(7, 54),30	1504,(19, 81),558	5344,(55, 81),558	5902,(63, 81),558	6460,(39, 81),558	7576,(15, 81),558	9250,(43, 81),558	10366,(51, 81),558	11482,(11, 81),558	12598,(59, 81),558	13714,(67, 81),558	14830,(23, 81),558	15946,(27, 81),558	17620,(31, 81),558	19294,(35, 81),558	20968,(47, 81),558	27106,(71, 81),558	28222,(75, 81),558	28780,(79, 81),558	
97,(2, 11),3	100,(2, 13),3	103,(2, 19),3	106,(2, 23),3	109,(2, 25),3	112,(2, 61),3	145,(2, 32),9	154,(2, 40),18	172,(2, 44),69	256,(6, 15),18	274,(6, 43),3	277,(6, 51),3	289,(2, 48),6	346,(6, 17),3	352,(6, 36),6	358,(6, 59),12	370,(6, 60),3	373,(6, 64),3	376,(6, 67),12	388,(6, 71),18	415,(6, 53),3	448,(2, 28),297	745,(2, 68),201	946,(22, 81),558	1504,(6, 48),72	3598,(6, 73),72	3670,(46, 81),558	4228,(70, 81),558	8692,(66, 81),558	13156,(14, 81),558	14272,(62, 81),558	15388,(26, 81),558	17062,(30, 81),558	18178,(34, 81),558	20410,(42, 81),558	22084,(58, 81),558	23758,(10, 81),558	25432,(74, 81),558	26548,(38, 81),558	29338,(78, 81),558	29896,(54, 81),558	30454,(18, 81),558	31570,(50, 81),558	
1,(0, 2),48	49,(0, 3),48	97,(0, 4),48	145,(0, 6),48	193,(0, 7),48	241,(0, 8),48	289,(5, 11),60	349,(5, 12),3	352,(5, 14),66	418,(5, 23),9	427,(5, 24),21	448,(5, 26),3	451,(5, 30),456	907,(5, 34),24	931,(5, 35),81	1012,(5, 42),24	1036,(5, 58),9	1045,(5, 72),3	1048,(5, 76),9	1057,(5, 80),3	1060,(1, 10),108	1168,(1, 16),6	1174,(1, 20),3	1177,(1, 24),69	1246,(1, 38),3	1249,(1, 54),6	1255,(1, 60),3	1258,(1, 71),6	1264,(1, 75),12	1276,(1, 79),21	
