5730
# CPU
361,10,28	597,57,28	625,31,28	913,33,28	1045,49,28	1393,40,28	1753,72,28	1781,105,28	1981,113,28	2937,65,28	3845,88,28	3873,96,28	4725,80,28	
321,9,28	413,26,28	477,36,28	701,90,28	1429,67,28	1533,83,28	1561,59,28	1633,29,28	1685,51,28	1821,107,28	2641,43,28	3001,74,28	3865,98,28	5689,115,28	
281,8,28	629,21,28	821,45,28	917,53,28	1053,100,28	1089,62,28	1421,69,28	1773,85,28	1957,109,28	2253,32,28	2617,35,28	3017,76,28	3849,92,28	4913,117,28	
241,7,28	493,20,28	521,28,28	649,44,28	1409,61,28	1669,84,28	1805,91,28	1901,52,28	1953,108,28	1981,99,28	2249,30,28	2953,68,28	3693,75,28	3909,116,28	
201,6,28	681,55,28	709,95,28	845,24,28	1253,71,28	1385,18,28	1465,104,28	1609,79,28	1645,47,28	2637,38,28	2865,64,28	3841,87,28	3901,112,28	
161,5,28	437,17,28	621,42,28	749,66,28	1397,50,28	1777,89,28	2061,114,28	2245,25,28	2689,58,28	2997,73,28	3837,82,28	3865,97,28	3897,106,28	
121,4,28	357,16,28	489,37,28	605,46,28	825,94,28	873,86,28	1413,63,28	1441,22,28	1737,54,28	1785,111,28	2985,70,28	3325,78,28	3893,103,28	3929,119,28	
81,3,28	429,14,28	657,56,28	1785,120,28	1813,39,28	1841,93,28	1901,102,28	2085,110,28	2225,19,28	2673,48,28	2865,118,28	3229,77,28	4573,60,28	5729,121,1	
41,2,28	401,12,28	429,15,28	925,23,28	1441,41,28	2577,34,28	3833,81,28	
0,0,1	1,1,28	29,11,28	1389,13,28	4397,27,28	5541,101,28	
# Incoming
321,(0, 10),40	361,(2, 33),64	425,(3, 31),4	429,(3, 49),28	457,(3, 65),4	461,(4, 40),20	481,(4, 57),4	485,(4, 105),8	493,(2, 72),4	497,(6, 88),4	501,(1, 33),44	545,(5, 65),4	549,(5, 105),8	557,(6, 113),4	561,(1, 40),20	581,(6, 57),16	597,(7, 31),8	605,(1, 49),48	653,(2, 40),172	825,(6, 65),32	857,(6, 96),24	881,(7, 33),32	913,(7, 40),76	989,(9, 40),4	993,(9, 80),4	1005,(7, 65),4	1009,(7, 80),12	1021,(9, 49),24	1053,(2, 105),64	1389,(12, 40),4	1421,(4, 113),60	1609,(1, 80),52	1737,(12, 72),16	1777,(12, 105),4	1821,(1, 96),60	1957,(1, 113),24	1981,(2, 65),840	2865,(11, 65),72	3325,(11, 80),4	3841,(11, 88),4	3849,(11, 96),8	4573,(12, 80),152	
281,(0, 9),40	321,(2, 29),20	341,(2, 43),4	345,(2, 98),16	361,(5, 29),8	369,(7, 26),4	373,(7, 29),8	381,(7, 67),4	385,(5, 67),4	389,(3, 26),24	413,(5, 43),12	425,(6, 36),52	477,(10, 29),8	485,(8, 90),4	489,(10, 83),8	517,(3, 83),52	581,(1, 43),8	589,(5, 59),40	629,(5, 74),28	657,(5, 90),44	701,(8, 107),4	725,(7, 74),8	749,(1, 67),680	1429,(2, 59),52	1481,(4, 83),52	1533,(10, 59),24	1557,(10, 74),72	1629,(12, 29),4	1645,(12, 51),40	1753,(12, 74),16	1813,(12, 107),8	1881,(1, 98),4	2637,(11, 43),4	2997,(11, 74),4	3861,(11, 98),4	3901,(11, 115),4	5541,(12, 115),148	
241,(0, 8),40	281,(3, 76),8	289,(2, 32),8	297,(3, 21),92	389,(4, 21),24	413,(4, 92),4	417,(6, 53),8	425,(2, 45),68	493,(4, 100),4	497,(1, 32),4	501,(3, 35),16	517,(4, 45),24	541,(4, 109),8	549,(1, 35),12	561,(5, 45),4	565,(5, 53),8	573,(5, 69),4	577,(5, 85),4	581,(5, 92),4	585,(5, 109),4	589,(1, 45),12	601,(6, 76),4	605,(6, 109),8	613,(6, 117),4	617,(7, 21),12	629,(7, 35),20	649,(7, 53),4	657,(1, 62),44	701,(5, 62),44	745,(9, 35),36	781,(10, 45),40	825,(2, 69),76	901,(9, 53),16	917,(9, 100),4	921,(10, 100),4	925,(4, 35),40	965,(10, 69),16	989,(7, 62),16	1021,(7, 109),4	1041,(2, 100),12	1053,(10, 62),36	1117,(2, 109),248	1365,(4, 69),56	1429,(1, 76),44	1481,(2, 117),72	1553,(9, 85),68	1629,(10, 117),32	1769,(12, 85),4	1953,(1, 109),4	2249,(11, 32),4	2577,(11, 35),40	3001,(11, 76),16	3845,(11, 92),4	3849,(7, 117),1064	
201,(0, 7),40	241,(2, 20),40	281,(2, 30),8	289,(3, 28),4	293,(3, 44),4	297,(2, 68),4	301,(2, 84),16	317,(4, 30),4	321,(4, 44),36	357,(4, 91),8	365,(4, 116),4	369,(5, 20),12	381,(5, 28),4	389,(5, 116),4	393,(6, 28),12	405,(9, 68),4	409,(10, 20),4	413,(3, 108),4	417,(4, 61),36	453,(9, 75),4	457,(9, 84),8	465,(9, 91),4	473,(1, 20),20	493,(1, 28),4	497,(2, 44),152	649,(3, 68),32	681,(3, 84),196	877,(5, 99),40	917,(8, 68),24	941,(8, 91),188	1129,(10, 30),12	1229,(6, 75),16	1253,(4, 75),56	1365,(2, 116),12	1405,(12, 61),4	1585,(12, 30),40	1665,(1, 84),4	1669,(1, 91),136	1805,(12, 68),8	1849,(12, 52),52	1901,(1, 108),52	1953,(12, 99),12	2061,(1, 116),60	2245,(11, 30),4	2937,(11, 68),16	2953,(2, 75),740	3905,(11, 116),4	
161,(0, 6),40	201,(2, 71),36	237,(3, 71),4	241,(3, 79),4	245,(4, 24),28	273,(5, 24),16	289,(5, 38),28	317,(5, 47),24	341,(5, 64),4	345,(7, 18),8	353,(7, 87),4	357,(9, 24),4	377,(8, 47),4	381,(9, 18),24	409,(8, 24),20	433,(8, 87),4	437,(1, 18),4	441,(5, 55),96	537,(8, 38),28	565,(10, 24),52	617,(10, 47),24	649,(12, 95),4	653,(7, 55),28	681,(10, 95),20	709,(1, 64),32	741,(7, 24),104	877,(3, 87),112	989,(4, 64),96	1085,(4, 71),168	1253,(8, 18),132	1385,(9, 79),40	1425,(9, 104),40	1605,(1, 79),4	1633,(12, 47),12	2617,(11, 38),20	2777,(11, 64),88	3837,(11, 87),4	3897,(11, 112),4	
121,(0, 5),40	161,(2, 50),8	169,(2, 66),12	181,(4, 17),24	209,(3, 114),12	221,(4, 42),12	249,(6, 42),8	297,(7, 25),4	313,(6, 58),16	329,(7, 89),12	341,(8, 89),4	345,(6, 97),36	381,(8, 17),28	409,(9, 25),4	413,(9, 50),8	421,(9, 82),4	425,(9, 97),4	429,(1, 17),8	437,(8, 50),28	465,(8, 82),20	485,(10, 89),4	489,(7, 50),52	541,(10, 42),8	549,(10, 58),12	565,(8, 97),4	569,(9, 42),52	629,(8, 114),12	641,(10, 82),12	653,(10, 97),16	681,(7, 66),44	741,(1, 66),8	821,(10, 73),48	901,(2, 89),96	1393,(12, 50),4	1397,(12, 58),8	1409,(12, 73),4	1553,(12, 25),32	1773,(12, 89),4	1901,(12, 97),36	1981,(1, 114),80	2225,(11, 25),20	2673,(11, 58),16	2985,(11, 73),12	3833,(11, 82),4	3857,(11, 97),4	3893,(11, 106),4	
81,(0, 4),40	121,(2, 46),8	129,(2, 54),20	149,(2, 111),4	153,(2, 119),4	157,(3, 16),20	205,(3, 86),4	241,(5, 46),12	253,(5, 54),12	265,(6, 103),4	273,(7, 22),24	305,(7, 94),4	329,(6, 63),16	345,(5, 111),8	353,(9, 16),4	413,(10, 46),4	429,(8, 63),4	433,(7, 37),56	489,(8, 46),8	497,(10, 22),20	517,(8, 78),16	541,(7, 54),52	601,(1, 46),4	617,(8, 103),12	641,(8, 119),12	653,(9, 54),36	701,(1, 63),8	745,(5, 94),80	845,(7, 86),28	989,(3, 103),48	1097,(6, 54),132	1301,(7, 63),112	1413,(12, 22),16	1473,(1, 78),132	1625,(12, 70),4	1685,(12, 54),52	1781,(12, 111),4	1937,(12, 119),16	2821,(12, 103),20	2953,(11, 70),32	3229,(11, 78),96	3865,(11, 103),28	3909,(11, 119),20	
41,(0, 3),40	81,(2, 14),16	97,(2, 56),4	101,(2, 60),16	165,(4, 56),12	205,(4, 118),12	257,(6, 48),4	261,(6, 102),4	265,(5, 56),4	269,(5, 110),4	273,(6, 56),40	313,(7, 19),8	321,(7, 77),8	337,(8, 56),4	341,(7, 120),4	345,(8, 19),32	377,(9, 19),4	385,(7, 110),8	401,(1, 14),28	429,(9, 48),4	441,(1, 19),32	473,(9, 56),20	497,(8, 60),20	517,(10, 93),16	533,(8, 110),4	537,(26, 121),12	549,(36, 121),12	605,(8, 102),12	653,(1, 56),4	657,(6, 120),68	725,(10, 118),24	749,(57, 121),12	761,(31, 121),12	781,(9, 39),84	865,(17, 121),12	877,(21, 121),12	889,(55, 121),12	901,(95, 121),12	917,(42, 121),12	929,(90, 121),12	941,(66, 121),12	953,(33, 121),12	965,(16, 121),12	977,(37, 121),12	997,(2, 93),44	1041,(7, 39),260	1309,(46, 121),12	1321,(94, 121),12	1333,(24, 121),12	1345,(86, 121),12	1357,(71, 121),12	1385,(8, 120),400	1785,(12, 39),20	1805,(1, 93),16	1821,(12, 19),28	1849,(20, 121),12	1861,(28, 121),12	1873,(44, 121),12	1885,(1, 102),16	1901,(9, 110),184	2085,(45, 121),12	2097,(53, 121),12	2109,(49, 121),12	2121,(1, 118),92	2213,(11, 19),12	2225,(10, 60),204	2429,(100, 121),12	2441,(62, 121),12	2453,(18, 121),12	2465,(40, 121),12	2477,(50, 121),12	2489,(61, 121),12	2501,(63, 121),12	2513,(69, 121),12	2525,(67, 121),12	2537,(22, 121),12	2549,(104, 121),12	2561,(83, 121),12	2573,(59, 121),12	2585,(79, 121),12	2597,(29, 121),12	2609,(47, 121),12	2621,(84, 121),12	2641,(11, 48),32	2673,(51, 121),12	2689,(11, 60),88	2777,(54, 121),12	2789,(72, 121),12	2801,(85, 121),12	2813,(89, 121),12	2825,(105, 121),12	2841,(12, 118),24	2865,(15, 121),12	2877,(23, 121),12	2889,(41, 121),12	2901,(111, 121),12	2913,(91, 121),12	2925,(107, 121),12	2937,(52, 121),12	2949,(108, 121),12	2961,(109, 121),12	2973,(113, 121),12	2985,(99, 121),12	2997,(114, 121),12	3017,(11, 77),212	3229,(25, 121),12	3241,(30, 121),12	3253,(32, 121),12	3265,(35, 121),12	3277,(38, 121),12	3289,(43, 121),12	3301,(58, 121),12	3313,(64, 121),12	3325,(65, 121),12	3337,(68, 121),12	3349,(70, 121),12	3361,(73, 121),12	3373,(74, 121),12	3385,(76, 121),12	3397,(78, 121),12	3721,(75, 121),12	3865,(82, 121),12	3877,(87, 121),12	3889,(88, 121),12	3901,(92, 121),12	3913,(97, 121),12	3929,(13, 121),12	3941,(98, 121),12	3953,(96, 121),12	3965,(103, 121),12	3977,(106, 121),12	3989,(112, 121),12	4001,(119, 121),12	4397,(12, 60),176	4573,(27, 121),12	4753,(80, 121),12	4913,(116, 121),12	4941,(117, 121),12	5569,(101, 121),12	5689,(34, 121),12	5701,(81, 121),12	5717,(115, 121),12	
1,(0, 2),40	149,(4, 15),16	177,(3, 34),28	229,(5, 15),12	241,(6, 15),8	301,(7, 41),4	313,(8, 15),24	361,(0, 12),40	401,(7, 23),32	433,(10, 34),4	545,(1, 34),4	549,(4, 23),376	925,(6, 41),172	1141,(10, 41),300	1661,(1, 81),4	2253,(11, 34),324	3329,(11, 81),504	
69,(2, 13),8	189,(5, 13),40	269,(7, 13),4	309,(8, 13),4	357,(7, 101),8	493,(9, 101),44	569,(8, 101),36	1377,(12, 13),12	3693,(12, 27),704	4725,(12, 101),816	
# Outgoing
409,(10, 20),4	413,(10, 46),4	433,(10, 34),4	477,(10, 29),8	485,(10, 89),4	489,(10, 83),8	497,(10, 22),20	517,(10, 93),16	541,(10, 42),8	549,(10, 58),12	565,(10, 24),52	617,(10, 47),24	641,(10, 82),12	653,(10, 97),16	681,(10, 95),20	725,(10, 118),24	749,(57, 121),12	761,(31, 121),12	781,(10, 45),40	821,(10, 73),48	921,(10, 100),4	953,(33, 121),12	965,(10, 69),16	1053,(10, 62),36	1129,(10, 30),12	1141,(10, 41),300	1533,(10, 59),24	1557,(10, 74),72	1629,(10, 117),32	2109,(49, 121),12	2225,(10, 60),204	2465,(40, 121),12	2789,(72, 121),12	2825,(105, 121),12	2973,(113, 121),12	3325,(65, 121),12	3889,(88, 121),12	3953,(96, 121),12	4753,(80, 121),12	
353,(9, 16),4	357,(9, 24),4	377,(9, 19),4	381,(9, 18),24	405,(9, 68),4	409,(9, 25),4	413,(9, 50),8	421,(9, 82),4	425,(9, 97),4	429,(9, 48),4	453,(9, 75),4	457,(9, 84),8	465,(9, 91),4	473,(9, 56),20	493,(9, 101),44	537,(26, 121),12	549,(36, 121),12	569,(9, 42),52	653,(9, 54),36	745,(9, 35),36	781,(9, 39),84	901,(9, 53),16	917,(9, 100),4	929,(90, 121),12	989,(9, 40),4	993,(9, 80),4	1021,(9, 49),24	1385,(9, 79),40	1425,(9, 104),40	1553,(9, 85),68	1901,(9, 110),184	2525,(67, 121),12	2561,(83, 121),12	2573,(59, 121),12	2597,(29, 121),12	2673,(51, 121),12	2925,(107, 121),12	3289,(43, 121),12	3373,(74, 121),12	3941,(98, 121),12	5717,(115, 121),12	
309,(8, 13),4	313,(8, 15),24	337,(8, 56),4	341,(8, 89),4	345,(8, 19),32	377,(8, 47),4	381,(8, 17),28	409,(8, 24),20	429,(8, 63),4	433,(8, 87),4	437,(8, 50),28	465,(8, 82),20	485,(8, 90),4	489,(8, 46),8	497,(8, 60),20	517,(8, 78),16	533,(8, 110),4	537,(8, 38),28	565,(8, 97),4	569,(8, 101),36	605,(8, 102),12	617,(8, 103),12	629,(8, 114),12	641,(8, 119),12	701,(8, 107),4	877,(21, 121),12	917,(8, 68),24	941,(8, 91),188	1253,(8, 18),132	1385,(8, 120),400	2085,(45, 121),12	2097,(53, 121),12	2429,(100, 121),12	2441,(62, 121),12	2513,(69, 121),12	2801,(85, 121),12	2961,(109, 121),12	3253,(32, 121),12	3265,(35, 121),12	3385,(76, 121),12	3901,(92, 121),12	4941,(117, 121),12	
269,(7, 13),4	273,(7, 22),24	297,(7, 25),4	301,(7, 41),4	305,(7, 94),4	313,(7, 19),8	321,(7, 77),8	329,(7, 89),12	341,(7, 120),4	345,(7, 18),8	353,(7, 87),4	357,(7, 101),8	369,(7, 26),4	373,(7, 29),8	381,(7, 67),4	385,(7, 110),8	401,(7, 23),32	433,(7, 37),56	489,(7, 50),52	541,(7, 54),52	597,(7, 31),8	617,(7, 21),12	629,(7, 35),20	649,(7, 53),4	653,(7, 55),28	681,(7, 66),44	725,(7, 74),8	741,(7, 24),104	845,(7, 86),28	881,(7, 33),32	913,(7, 40),76	989,(7, 62),16	1005,(7, 65),4	1009,(7, 80),12	1021,(7, 109),4	1041,(7, 39),260	1301,(7, 63),112	1849,(20, 121),12	1861,(28, 121),12	1873,(44, 121),12	2489,(61, 121),12	2621,(84, 121),12	2913,(91, 121),12	2937,(52, 121),12	2949,(108, 121),12	2985,(99, 121),12	3241,(30, 121),12	3337,(68, 121),12	3721,(75, 121),12	3849,(7, 117),1064	4913,(116, 121),12	
241,(6, 15),8	249,(6, 42),8	257,(6, 48),4	261,(6, 102),4	265,(6, 103),4	273,(6, 56),40	313,(6, 58),16	329,(6, 63),16	345,(6, 97),36	393,(6, 28),12	417,(6, 53),8	425,(6, 36),52	497,(6, 88),4	557,(6, 113),4	581,(6, 57),16	601,(6, 76),4	605,(6, 109),8	613,(6, 117),4	657,(6, 120),68	825,(6, 65),32	857,(6, 96),24	889,(55, 121),12	901,(95, 121),12	925,(6, 41),172	1097,(6, 54),132	1229,(6, 75),16	1333,(24, 121),12	1357,(71, 121),12	2453,(18, 121),12	2549,(104, 121),12	2585,(79, 121),12	2609,(47, 121),12	3277,(38, 121),12	3313,(64, 121),12	3877,(87, 121),12	3989,(112, 121),12	
189,(5, 13),40	229,(5, 15),12	241,(5, 46),12	253,(5, 54),12	265,(5, 56),4	269,(5, 110),4	273,(5, 24),16	289,(5, 38),28	317,(5, 47),24	341,(5, 64),4	345,(5, 111),8	361,(5, 29),8	369,(5, 20),12	381,(5, 28),4	385,(5, 67),4	389,(5, 116),4	413,(5, 43),12	441,(5, 55),96	545,(5, 65),4	549,(5, 105),8	561,(5, 45),4	565,(5, 53),8	573,(5, 69),4	577,(5, 85),4	581,(5, 92),4	585,(5, 109),4	589,(5, 59),40	629,(5, 74),28	657,(5, 90),44	701,(5, 62),44	745,(5, 94),80	865,(17, 121),12	877,(5, 99),40	917,(42, 121),12	941,(66, 121),12	2477,(50, 121),12	2813,(89, 121),12	2997,(114, 121),12	3229,(25, 121),12	3301,(58, 121),12	3361,(73, 121),12	3865,(82, 121),12	3913,(97, 121),12	3977,(106, 121),12	
149,(4, 15),16	165,(4, 56),12	181,(4, 17),24	205,(4, 118),12	221,(4, 42),12	245,(4, 24),28	317,(4, 30),4	321,(4, 44),36	357,(4, 91),8	365,(4, 116),4	389,(4, 21),24	413,(4, 92),4	417,(4, 61),36	461,(4, 40),20	481,(4, 57),4	485,(4, 105),8	493,(4, 100),4	517,(4, 45),24	541,(4, 109),8	549,(4, 23),376	925,(4, 35),40	965,(16, 121),12	977,(37, 121),12	989,(4, 64),96	1085,(4, 71),168	1253,(4, 75),56	1309,(46, 121),12	1321,(94, 121),12	1345,(86, 121),12	1365,(4, 69),56	1421,(4, 113),60	1481,(4, 83),52	2501,(63, 121),12	2537,(22, 121),12	2777,(54, 121),12	2901,(111, 121),12	3349,(70, 121),12	3397,(78, 121),12	3965,(103, 121),12	4001,(119, 121),12	
157,(3, 16),20	177,(3, 34),28	205,(3, 86),4	209,(3, 114),12	237,(3, 71),4	241,(3, 79),4	281,(3, 76),8	289,(3, 28),4	293,(3, 44),4	297,(3, 21),92	389,(3, 26),24	413,(3, 108),4	425,(3, 31),4	429,(3, 49),28	457,(3, 65),4	501,(3, 35),16	517,(3, 83),52	649,(3, 68),32	681,(3, 84),196	877,(3, 87),112	989,(3, 103),48	
69,(2, 13),8	81,(2, 14),16	97,(2, 56),4	101,(2, 60),16	121,(2, 46),8	129,(2, 54),20	149,(2, 111),4	153,(2, 119),4	161,(2, 50),8	169,(2, 66),12	201,(2, 71),36	241,(2, 20),40	281,(2, 30),8	289,(2, 32),8	297,(2, 68),4	301,(2, 84),16	321,(2, 29),20	341,(2, 43),4	345,(2, 98),16	361,(2, 33),64	425,(2, 45),68	493,(2, 72),4	497,(2, 44),152	649,(12, 95),4	653,(2, 40),172	825,(2, 69),76	901,(2, 89),96	997,(2, 93),44	1041,(2, 100),12	1053,(2, 105),64	1117,(2, 109),248	1365,(2, 116),12	1377,(12, 13),12	1389,(12, 40),4	1393,(12, 50),4	1397,(12, 58),8	1405,(12, 61),4	1409,(12, 73),4	1413,(12, 22),16	1429,(2, 59),52	1481,(2, 117),72	1553,(12, 25),32	1585,(12, 30),40	1625,(12, 70),4	1629,(12, 29),4	1633,(12, 47),12	1645,(12, 51),40	1685,(12, 54),52	1737,(12, 72),16	1753,(12, 74),16	1769,(12, 85),4	1773,(12, 89),4	1777,(12, 105),4	1781,(12, 111),4	1785,(12, 39),20	1805,(12, 68),8	1813,(12, 107),8	1821,(12, 19),28	1849,(12, 52),52	1901,(12, 97),36	1937,(12, 119),16	1953,(12, 99),12	1981,(2, 65),840	2821,(12, 103),20	2841,(12, 118),24	2865,(15, 121),12	2877,(23, 121),12	2889,(41, 121),12	2953,(2, 75),740	3693,(12, 27),704	4397,(12, 60),176	4573,(12, 80),152	4725,(12, 101),816	5541,(12, 115),148	5689,(34, 121),12	5701,(81, 121),12	
1,(0, 2),40	41,(0, 3),40	81,(0, 4),40	121,(0, 5),40	161,(0, 6),40	201,(0, 7),40	241,(0, 8),40	281,(0, 9),40	321,(0, 10),40	361,(0, 12),40	401,(1, 14),28	429,(1, 17),8	437,(1, 18),4	441,(1, 19),32	473,(1, 20),20	493,(1, 28),4	497,(1, 32),4	501,(1, 33),44	545,(1, 34),4	549,(1, 35),12	561,(1, 40),20	581,(1, 43),8	589,(1, 45),12	601,(1, 46),4	605,(1, 49),48	653,(1, 56),4	657,(1, 62),44	701,(1, 63),8	709,(1, 64),32	741,(1, 66),8	749,(1, 67),680	1429,(1, 76),44	1473,(1, 78),132	1605,(1, 79),4	1609,(1, 80),52	1661,(1, 81),4	1665,(1, 84),4	1669,(1, 91),136	1805,(1, 93),16	1821,(1, 96),60	1881,(1, 98),4	1885,(1, 102),16	1901,(1, 108),52	1953,(1, 109),4	1957,(1, 113),24	1981,(1, 114),80	2061,(1, 116),60	2121,(1, 118),92	2213,(11, 19),12	2225,(11, 25),20	2245,(11, 30),4	2249,(11, 32),4	2253,(11, 34),324	2577,(11, 35),40	2617,(11, 38),20	2637,(11, 43),4	2641,(11, 48),32	2673,(11, 58),16	2689,(11, 60),88	2777,(11, 64),88	2865,(11, 65),72	2937,(11, 68),16	2953,(11, 70),32	2985,(11, 73),12	2997,(11, 74),4	3001,(11, 76),16	3017,(11, 77),212	3229,(11, 78),96	3325,(11, 80),4	3329,(11, 81),504	3833,(11, 82),4	3837,(11, 87),4	3841,(11, 88),4	3845,(11, 92),4	3849,(11, 96),8	3857,(11, 97),4	3861,(11, 98),4	3865,(11, 103),28	3893,(11, 106),4	3897,(11, 112),4	3901,(11, 115),4	3905,(11, 116),4	3909,(11, 119),20	3929,(13, 121),12	4573,(27, 121),12	5569,(101, 121),12	
