454
# CPU
148,17,1	215,19,1	228,30,1	272,14,1	293,20,1	316,28,1	322,16,1	334,34,1	373,12,1	375,24,1	381,37,1	446,9,1	453,41,1	
9,3,1	10,21,1	11,22,1	12,29,1	13,27,1	14,35,1	216,23,1	317,31,1	374,18,1	382,40,1	
5,1,1	6,10,1	7,38,1	12,8,1	16,39,1	236,36,1	252,6,1	275,15,1	325,33,1	
0,0,1	1,2,1	2,4,1	3,26,1	4,25,1	
30,11,1	117,13,1	246,5,1	257,7,1	324,32,1	
# Incoming
19,(2, 9),7	26,(3, 14),1	27,(3, 17),3	30,(2, 12),84	114,(21, 41),1	115,(22, 41),1	116,(29, 41),1	117,(2, 14),14	131,(27, 41),1	132,(35, 41),1	133,(11, 41),1	134,(2, 16),1	135,(2, 17),13	148,(2, 19),67	215,(13, 41),1	216,(2, 30),12	228,(2, 34),7	235,(23, 41),1	236,(2, 37),9	245,(3, 12),7	252,(5, 41),1	257,(4, 14),15	272,(7, 41),1	275,(4, 16),9	284,(4, 20),9	293,(4, 24),14	307,(4, 28),9	316,(3, 16),6	322,(31, 41),1	325,(4, 34),9	334,(32, 41),1	338,(26, 41),1	339,(25, 41),1	340,(1, 9),27	367,(1, 12),6	374,(1, 24),1	375,(1, 37),6	381,(18, 41),1	382,(10, 41),1	383,(38, 41),1	384,(3, 9),62	446,(8, 41),1	447,(39, 41),1	448,(36, 41),1	449,(6, 41),1	450,(15, 41),1	451,(33, 41),1	452,(40, 41),1	
5,(0, 3),4	215,(2, 23),1	316,(4, 31),1	334,(4, 40),4	373,(1, 18),1	381,(1, 40),1	
1,(0, 1),4	10,(3, 6),1	11,(3, 8),1	12,(3, 39),4	17,(2, 6),2	131,(2, 15),3	235,(2, 36),1	246,(4, 6),6	272,(4, 15),3	324,(4, 33),1	

9,(2, 5),8	26,(2, 11),4	114,(2, 13),3	245,(4, 5),1	252,(4, 7),5	317,(4, 32),7	
# Outgoing

10,(3, 6),1	11,(3, 8),1	12,(3, 39),4	26,(3, 14),1	27,(3, 17),3	114,(21, 41),1	115,(22, 41),1	116,(29, 41),1	131,(27, 41),1	132,(35, 41),1	235,(23, 41),1	245,(3, 12),7	316,(3, 16),6	322,(31, 41),1	381,(18, 41),1	384,(3, 9),62	452,(40, 41),1	
340,(1, 9),27	367,(1, 12),6	373,(1, 18),1	374,(1, 24),1	375,(1, 37),6	381,(1, 40),1	382,(10, 41),1	383,(38, 41),1	446,(8, 41),1	447,(39, 41),1	448,(36, 41),1	449,(6, 41),1	450,(15, 41),1	451,(33, 41),1	
1,(0, 1),4	5,(0, 3),4	9,(2, 5),8	17,(2, 6),2	19,(2, 9),7	26,(2, 11),4	30,(2, 12),84	114,(2, 13),3	117,(2, 14),14	131,(2, 15),3	134,(2, 16),1	135,(2, 17),13	148,(2, 19),67	215,(2, 23),1	216,(2, 30),12	228,(2, 34),7	235,(2, 36),1	236,(2, 37),9	245,(4, 5),1	246,(4, 6),6	252,(4, 7),5	257,(4, 14),15	272,(4, 15),3	275,(4, 16),9	284,(4, 20),9	293,(4, 24),14	307,(4, 28),9	316,(4, 31),1	317,(4, 32),7	324,(4, 33),1	325,(4, 34),9	334,(4, 40),4	338,(26, 41),1	339,(25, 41),1	
133,(11, 41),1	215,(13, 41),1	252,(5, 41),1	272,(7, 41),1	334,(32, 41),1	
