132
# CPU
0,81,1	1,67,1	2,52,1	3,62,1	4,44,1	5,36,1	6,35,1	7,65,1	8,54,1	9,68,1	10,26,1	11,61,1	12,73,1	13,63,1	14,37,1	15,33,1	16,66,1	17,74,1	18,19,1	19,69,1	20,40,1	21,53,1	22,55,1	23,41,1	24,20,1	25,15,1	26,70,1	27,60,1	28,38,1	29,42,1	30,21,1	31,31,1	32,28,1	33,51,1	34,12,1	35,78,1	36,71,1	37,45,1	38,14,1	39,32,1	40,49,1	41,56,1	42,79,1	43,57,1	44,43,1	45,30,1	46,39,1	47,17,1	48,24,1	49,64,1	50,11,1	51,16,1	52,23,1	53,27,1	54,77,1	55,76,1	56,46,1	57,59,1	58,48,1	59,50,1	60,34,1	61,80,1	62,9,1	63,25,1	64,58,1	65,22,1	66,29,1	67,72,1	68,2,1	69,7,1	70,1,1	71,3,1	72,8,1	73,5,1	86,4,1	130,6,1	131,0,1	
12,18,1	23,13,1	34,75,1	45,10,1	56,47,1	
# Incoming
35,(75, 2),1	36,(18, 7),1	37,(18, 3),2	39,(13, 8),4	43,(13, 5),1	46,(10, 1),1	47,(75, 8),5	52,(10, 5),16	68,(10, 4),18	86,(75, 6),9	95,(47, 6),35	
1,(81, 18),11	12,(81, 13),11	23,(81, 75),11	34,(81, 10),11	45,(81, 47),11	
# Outgoing
1,(81, 18),11	12,(81, 13),11	23,(81, 75),11	34,(81, 10),11	45,(81, 47),11	
35,(75, 2),1	36,(18, 7),1	37,(18, 3),2	39,(13, 8),4	43,(13, 5),1	46,(10, 1),1	47,(75, 8),5	52,(10, 5),16	68,(10, 4),18	86,(75, 6),9	95,(47, 6),35	
