30647
# CPU
11,6,6	23,16,6	29,20,6	14506,77,6	16932,124,6	16956,155,6	16983,164,6	18190,44,6	18303,131,6	18423,183,6	18542,29,6	18550,55,6	18577,61,6	18583,63,6	18682,82,6	18692,102,6	18698,114,6	18745,120,6	18751,141,6	18833,142,6	18839,157,6	18981,187,6	19062,72,6	19080,75,6	19102,95,6	19108,101,6	19153,162,6	19159,165,6	19360,186,6	19366,197,6	19389,40,6	19411,69,6	19458,78,6	19573,85,6	19579,92,6	19585,112,6	19591,116,6	19661,118,6	19667,130,6	19673,134,6	19679,136,6	19705,139,6	19711,159,6	19717,178,6	19723,180,6	19729,184,6	19735,185,6	19741,189,6	19747,199,6	19753,200,6	30646,201,1	
3,1,6	9,2,6	15,3,6	21,8,6	27,10,6	1542,26,6	1710,153,6	7962,53,6	8062,105,6	8221,24,6	8387,138,6	8396,154,6	8435,177,6	8467,32,6	8522,71,6	8528,81,6	8543,94,6	8549,96,6	8566,110,6	8678,170,6	8696,182,6	8728,28,6	8773,43,6	8818,80,6	8824,86,6	8887,119,6	8944,144,6	8973,156,6	11956,172,6	12015,190,6	12028,27,6	12034,34,6	12040,35,6	12052,41,6	12062,45,6	12071,51,6	12079,54,6	12087,56,6	12093,57,6	12099,65,6	12118,103,6	12129,107,6	12146,111,6	12153,125,6	12180,128,6	12186,140,6	12219,176,6	12239,188,6	12245,194,6	12251,195,6	
0,0,1	1,11,6	7,17,6	13,12,6	19,5,6	25,7,6	31,13,6	435,88,6	1026,21,6	1075,68,6	1106,83,6	1361,76,6	1412,25,6	1561,48,6	1567,33,6	1573,66,6	1579,62,6	1585,39,6	1602,60,6	1743,148,6	1749,169,6	1766,31,6	1801,158,6	1812,64,6	1867,122,6	1873,36,6	1950,47,6	1956,59,6	1962,67,6	1968,74,6	1974,79,6	1980,91,6	2008,117,6	2030,126,6	2040,145,6	2055,146,6	2069,149,6	2085,151,6	2108,196,6	2117,73,6	2123,93,6	2129,97,6	2135,98,6	2141,100,6	2147,133,6	2153,135,6	2159,152,6	2165,160,6	2206,191,6	2212,192,6	
9,4,6	15,9,6	21,14,6	27,15,6	33,18,6	39,19,6	514,22,6	8044,89,6	8182,181,6	8386,132,6	8469,38,6	8521,58,6	8541,90,6	8691,171,6	8799,49,6	8819,84,6	8851,104,6	8857,106,6	8886,115,6	8892,121,6	8898,123,6	8911,137,6	8951,147,6	8957,150,6	8980,163,6	11963,173,6	11969,174,6	12017,198,6	12023,23,6	12030,30,6	12050,37,6	12056,42,6	12069,46,6	12075,50,6	12081,52,6	12093,70,6	12099,87,6	12105,99,6	12130,108,6	12137,109,6	12149,113,6	12178,127,6	12184,129,6	12190,143,6	12196,161,6	12202,166,6	12208,167,6	12214,168,6	12220,175,6	12238,179,6	12244,193,6	
# Incoming
9,(0, 6),2	19,(1, 55),1	21,(0, 16),2	27,(0, 20),2	29,(1, 72),1	36,(11, 29),91	127,(1, 40),12	139,(1, 78),8	147,(11, 40),8	155,(1, 92),1	156,(11, 44),4	160,(1, 82),4	164,(4, 92),1	165,(11, 55),2	167,(4, 44),2	169,(11, 61),5	174,(11, 63),179	353,(11, 69),6	359,(1, 77),18	377,(1, 85),5	382,(1, 112),4	386,(1, 114),1	387,(1, 130),1	388,(11, 72),65	453,(11, 75),3	456,(11, 77),196	652,(11, 78),1	653,(1, 118),3	656,(11, 82),21	677,(1, 116),11	688,(1, 120),3	691,(1, 131),1	692,(1, 134),2	694,(1, 162),1	695,(11, 85),5	700,(1, 124),8	708,(11, 92),3	711,(11, 95),1	712,(1, 136),6	718,(1, 183),1	719,(1, 187),1	720,(11, 112),1	721,(11, 114),68	789,(11, 116),154	943,(11, 118),1	944,(1, 197),1	945,(11, 130),1	946,(11, 134),287	1233,(11, 136),59	1292,(1, 139),6	1298,(1, 155),25	1323,(1, 164),24	1347,(1, 178),13	1360,(1, 199),1	1361,(1, 200),1	1362,(2, 55),2	1364,(11, 139),1	1365,(11, 141),2	1367,(1, 189),13	1380,(2, 75),1	1381,(2, 78),2	1383,(2, 92),1	1384,(2, 101),1	1385,(11, 155),1	1386,(11, 159),1	1387,(11, 162),2	1389,(11, 164),11	1400,(2, 61),8	1408,(2, 85),3	1411,(2, 112),1	1412,(2, 131),1	1413,(2, 141),2	1415,(2, 157),1	1416,(2, 164),1	1417,(2, 165),1	1418,(2, 178),3	1421,(11, 183),105	1526,(11, 184),17	1543,(11, 185),1	1544,(11, 186),17	1561,(2, 184),1	1562,(2, 185),1	1563,(2, 187),1	1564,(2, 200),1	1565,(11, 189),4	1569,(2, 69),33	1602,(2, 134),17	1619,(11, 197),6203	7822,(2, 189),3	7825,(11, 199),42	7867,(1, 159),1122	8989,(17, 29),15	9004,(17, 63),3	9007,(17, 69),11	9018,(17, 75),13	9031,(17, 77),30	9061,(17, 78),1	9062,(17, 82),14	9076,(17, 92),1	9077,(17, 101),1	9078,(17, 112),1	9079,(17, 118),13	9092,(17, 131),1	9093,(17, 136),2770	11863,(17, 139),1	11864,(17, 141),10	11874,(17, 142),1	11875,(17, 157),1	11876,(17, 162),1	11877,(17, 164),1	11878,(17, 165),7	11885,(17, 185),39	11924,(17, 186),28	11952,(17, 197),1	11953,(17, 199),1	11954,(2, 95),20	11974,(2, 142),8	11982,(2, 162),15	11997,(2, 183),812	12809,(2, 197),3	12812,(2, 199),5	12817,(4, 69),3	12820,(4, 78),5	12825,(4, 82),7	12832,(4, 85),22	12854,(4, 102),23	12877,(4, 114),10	12887,(4, 116),330	13217,(4, 118),9	13226,(4, 124),2	13228,(4, 130),24	13252,(4, 139),42	13294,(4, 142),3	13297,(4, 157),1	13298,(4, 159),1	13299,(4, 164),2	13301,(4, 165),14	13315,(4, 178),2	13317,(4, 180),1	13318,(4, 183),3	13321,(4, 185),14	13335,(4, 197),12	13347,(4, 199),5	13352,(12, 29),10	13362,(12, 40),2	13364,(12, 44),4	13368,(12, 55),2	13370,(12, 61),41	13411,(12, 63),4	13415,(12, 69),36	13451,(12, 75),38	13489,(12, 77),12	13501,(12, 78),51	13552,(12, 112),2	13554,(12, 114),336	13890,(12, 120),309	14199,(12, 131),1	14200,(12, 141),5	14205,(12, 142),1	14206,(12, 155),3	14209,(12, 157),22	14231,(12, 159),2	14233,(12, 180),3	14236,(12, 187),5	14241,(12, 189),60	14301,(9, 29),39	14340,(9, 44),162	14502,(9, 69),1	14503,(9, 72),1	14504,(9, 75),1	14505,(9, 77),1	14506,(9, 82),3	14509,(9, 85),20	14529,(9, 114),2	14531,(9, 118),1	14532,(9, 120),176	14708,(9, 124),7	14715,(9, 134),3	14718,(9, 136),112	14830,(9, 142),5	14835,(9, 155),2	14837,(9, 162),10	14847,(9, 178),30	14877,(9, 183),1	14878,(9, 184),6	14884,(9, 185),61	14945,(9, 186),1	14946,(9, 187),3	14949,(9, 200),5	14954,(3, 29),3	14957,(3, 40),10	14967,(3, 55),16	14983,(3, 61),1	14984,(3, 72),11	14995,(3, 75),6	15001,(3, 82),3	15004,(3, 85),98	15102,(3, 92),8	15110,(3, 101),5	15115,(3, 102),15	15130,(3, 112),1	15131,(3, 114),3	15134,(3, 120),1	15135,(3, 124),7	15142,(3, 131),10	15152,(3, 134),33	15185,(3, 139),10	15195,(3, 142),1	15196,(3, 155),12	15208,(3, 159),1	15209,(3, 178),5	15214,(3, 180),24	15238,(3, 183),33	15271,(3, 184),101	15372,(3, 186),90	15462,(3, 189),1	15463,(3, 199),16	15479,(5, 44),10	15489,(5, 61),1	15490,(5, 69),4	15494,(5, 72),3	15497,(5, 75),13	15510,(5, 82),1	15511,(5, 85),9	15520,(5, 95),1	15521,(5, 101),2	15523,(5, 102),26	15549,(5, 114),6	15555,(5, 116),1	15556,(5, 118),80	15636,(5, 120),48	15684,(5, 130),1	15685,(5, 136),8	15693,(5, 141),1	15694,(5, 142),10	15704,(5, 155),1	15705,(5, 157),65	15770,(5, 165),2	15772,(5, 180),242	16014,(5, 185),2	16016,(5, 197),3	16019,(5, 200),6	16025,(14, 29),3	16028,(14, 44),12	16040,(14, 61),1	16041,(14, 63),1	16042,(14, 69),1	16043,(14, 75),3	16046,(14, 82),1	16047,(14, 85),4	16051,(14, 95),6	16057,(14, 102),2	16059,(14, 112),3	16062,(14, 114),1	16063,(14, 120),1	16064,(14, 131),3	16067,(14, 141),1	16068,(14, 157),27	16095,(14, 164),4	16099,(14, 165),4	16103,(14, 185),99	16202,(14, 189),1	16203,(14, 200),13	16216,(8, 61),17	16233,(8, 72),1	16234,(8, 82),2	16236,(8, 92),4	16240,(8, 120),1	16241,(8, 131),1	16242,(8, 136),9	16251,(8, 139),1	16252,(8, 155),9	16261,(8, 159),2	16263,(8, 165),3	16266,(8, 180),1	16267,(8, 183),3	16270,(8, 184),12	16282,(8, 186),4	16286,(8, 187),9	16295,(8, 189),1	16296,(8, 199),26	16322,(8, 200),3	16325,(7, 29),1	16326,(7, 40),1	16327,(7, 55),9	16336,(7, 63),1	16337,(7, 82),3	16340,(7, 92),2	16342,(7, 95),128	16470,(7, 112),1	16471,(7, 118),2	16473,(7, 120),4	16477,(7, 130),26	16503,(7, 141),43	16546,(7, 159),169	16715,(7, 183),1	16716,(7, 184),55	16771,(7, 186),11	16782,(7, 197),3	16785,(7, 200),1	16786,(10, 29),3	16789,(10, 40),7	16796,(10, 55),8	16804,(10, 63),2	16806,(10, 69),5	16811,(10, 75),75	16886,(10, 82),1	16887,(10, 85),14	16901,(10, 92),6	16907,(10, 101),6	16913,(10, 102),7	16920,(10, 112),10	16930,(10, 120),1	16931,(10, 124),1	16932,(10, 134),1	16933,(10, 139),5	16938,(10, 155),18	16956,(10, 157),26	16982,(10, 164),1	16983,(10, 165),37	17020,(10, 178),84	17104,(10, 183),6	17110,(10, 185),18	17128,(10, 189),894	18022,(10, 200),1	18023,(15, 29),20	18043,(15, 40),2	18045,(15, 44),145	18190,(15, 61),13	18203,(15, 69),1	18204,(15, 75),7	18211,(15, 78),1	18212,(15, 102),7	18219,(15, 112),1	18220,(15, 116),3	18223,(15, 118),55	18278,(15, 131),25	18303,(15, 139),6	18309,(15, 141),21	18330,(15, 142),16	18346,(15, 157),1	18347,(15, 159),6	18353,(15, 178),32	18385,(15, 180),33	18418,(15, 183),5	18423,(15, 184),1	18424,(15, 185),42	18466,(15, 186),2	18468,(15, 197),46	18514,(15, 200),25	18539,(13, 29),3	18542,(13, 55),8	18550,(13, 61),27	18577,(13, 63),2	18579,(13, 72),1	18580,(13, 75),91	18671,(13, 78),5	18676,(13, 82),6	18682,(13, 92),5	18687,(13, 95),4	18691,(13, 102),1	18692,(13, 114),6	18698,(13, 118),46	18744,(13, 120),1	18745,(13, 130),1	18746,(13, 136),1	18747,(13, 141),1	18748,(13, 142),85	18833,(13, 157),4	18837,(13, 159),21	18858,(13, 178),22	18880,(13, 180),99	18979,(13, 186),1	18980,(13, 187),1	18981,(13, 197),32	19013,(13, 199),15	19028,(13, 200),4	19032,(18, 40),18	19050,(18, 69),2	19052,(18, 72),10	19062,(18, 75),18	19080,(18, 78),1	19081,(18, 85),7	19088,(18, 92),5	19093,(18, 95),9	19102,(18, 101),5	19107,(18, 112),6	19113,(18, 118),1	19114,(18, 136),1	19115,(18, 162),38	19153,(18, 165),6	19159,(18, 178),96	19255,(18, 180),1	19256,(18, 184),103	19359,(18, 186),1	19360,(18, 197),1	19361,(18, 200),12	19373,(19, 40),16	19389,(19, 69),22	19411,(19, 78),47	19458,(19, 85),115	19573,(19, 92),1	19574,(19, 112),4	19578,(19, 116),1	19579,(19, 118),82	19661,(19, 130),6	19667,(19, 134),1	19668,(19, 136),7	19675,(19, 139),30	19705,(19, 159),1	19706,(19, 178),4	19710,(19, 180),8	19718,(19, 184),5	19723,(19, 185),1	19724,(19, 189),9	19733,(19, 199),1	19734,(19, 200),6	19740,(88, 201),82	19822,(22, 201),82	19904,(21, 201),82	19986,(68, 201),82	20068,(83, 201),82	20150,(76, 201),82	20232,(25, 201),82	20314,(26, 201),82	20396,(48, 201),82	20478,(33, 201),82	20560,(66, 201),82	20642,(62, 201),82	20724,(39, 201),82	20806,(60, 201),82	20888,(153, 201),82	20970,(148, 201),82	21052,(169, 201),82	21134,(31, 201),82	21216,(158, 201),82	21298,(64, 201),82	21380,(122, 201),82	21462,(36, 201),82	21544,(47, 201),82	21626,(59, 201),82	21708,(67, 201),82	21790,(74, 201),82	21872,(79, 201),82	21954,(91, 201),82	22036,(117, 201),82	22118,(126, 201),82	22200,(145, 201),82	22282,(146, 201),82	22364,(149, 201),82	22446,(151, 201),82	22528,(196, 201),82	22610,(73, 201),82	22692,(93, 201),82	22774,(97, 201),82	22856,(98, 201),82	22938,(100, 201),82	23020,(133, 201),82	23102,(135, 201),82	23184,(152, 201),82	23266,(160, 201),82	23348,(191, 201),82	23430,(192, 201),82	23512,(53, 201),82	23594,(89, 201),82	23676,(105, 201),82	23758,(181, 201),82	23840,(24, 201),82	23922,(132, 201),82	24004,(138, 201),82	24086,(154, 201),82	24168,(177, 201),82	24250,(32, 201),82	24332,(38, 201),82	24414,(58, 201),82	24496,(71, 201),82	24578,(81, 201),82	24660,(90, 201),82	24742,(94, 201),82	24824,(96, 201),82	24906,(110, 201),82	24988,(170, 201),82	25070,(171, 201),82	25152,(182, 201),82	25234,(28, 201),82	25316,(43, 201),82	25398,(49, 201),82	25480,(80, 201),82	25562,(84, 201),82	25644,(86, 201),82	25726,(104, 201),82	25808,(106, 201),82	25890,(115, 201),82	25972,(119, 201),82	26054,(121, 201),82	26136,(123, 201),82	26218,(137, 201),82	26300,(144, 201),82	26382,(147, 201),82	26464,(150, 201),82	26546,(156, 201),82	26628,(163, 201),82	26710,(172, 201),82	26792,(173, 201),82	26874,(174, 201),82	26956,(190, 201),82	27038,(198, 201),82	27120,(23, 201),82	27202,(27, 201),82	27284,(30, 201),82	27366,(34, 201),82	27448,(35, 201),82	27530,(37, 201),82	27612,(41, 201),82	27694,(42, 201),82	27776,(45, 201),82	27858,(46, 201),82	27940,(51, 201),82	28022,(50, 201),82	28104,(54, 201),82	28186,(52, 201),82	28268,(56, 201),82	28350,(70, 201),82	28432,(57, 201),82	28514,(87, 201),82	28596,(65, 201),82	28678,(99, 201),82	28760,(103, 201),82	28842,(107, 201),82	28924,(108, 201),82	29006,(109, 201),82	29088,(111, 201),82	29170,(113, 201),82	29252,(125, 201),82	29334,(127, 201),82	29416,(128, 201),82	29498,(129, 201),82	29580,(140, 201),82	29662,(143, 201),82	29744,(161, 201),82	29826,(166, 201),82	29908,(167, 201),82	29990,(168, 201),82	30072,(176, 201),82	30154,(175, 201),82	30236,(179, 201),82	30318,(188, 201),82	30400,(193, 201),82	30482,(194, 201),82	30564,(195, 201),82	
1,(0, 1),2	3,(0, 2),2	5,(0, 3),2	11,(0, 8),2	15,(0, 10),2	32,(11, 24),3	35,(11, 26),1	46,(4, 24),10	56,(4, 26),1	57,(4, 27),4	61,(4, 28),3	64,(4, 32),1	65,(4, 34),2	67,(4, 35),1	68,(4, 41),7	75,(4, 45),1	76,(4, 53),15	91,(4, 56),4	95,(4, 57),1	96,(4, 71),2	98,(4, 80),1	99,(4, 81),6	105,(4, 94),3	108,(4, 103),1	109,(4, 107),1	110,(4, 144),1	111,(6, 28),4	115,(6, 34),2	117,(6, 35),6	123,(6, 41),2	125,(6, 56),1	126,(4, 153),1	127,(11, 32),9	136,(11, 34),1	137,(11, 35),4	141,(6, 43),11	152,(4, 110),3	155,(6, 65),1	156,(4, 154),2	158,(4, 182),1	159,(6, 71),1	160,(11, 53),5	165,(4, 195),2	167,(11, 56),2	169,(4, 96),9	178,(4, 177),9	187,(4, 188),11	198,(6, 27),35	233,(6, 45),14	247,(6, 94),3	250,(4, 170),28	278,(6, 54),12	290,(6, 96),1	291,(6, 103),1	292,(6, 110),1	293,(6, 119),19	312,(6, 138),2	314,(6, 154),5	319,(6, 156),1	320,(6, 170),20	340,(6, 176),1	341,(6, 177),6	347,(9, 32),1	348,(9, 35),1	349,(9, 56),1	350,(6, 182),1	351,(6, 188),1	352,(9, 27),7	359,(16, 41),4	363,(11, 71),25	388,(6, 190),15	403,(6, 194),20	423,(9, 41),11	434,(9, 43),2	436,(9, 51),12	448,(9, 65),1	449,(16, 28),8	457,(16, 35),10	467,(16, 43),1	468,(16, 71),1	469,(9, 45),16	485,(9, 53),5	490,(9, 54),12	502,(9, 57),5	507,(9, 80),1	508,(16, 56),5	513,(16, 57),9	522,(16, 65),19	541,(9, 96),40	581,(9, 105),1	582,(9, 111),1	583,(9, 128),23	606,(9, 138),10	616,(9, 140),10	626,(9, 144),2	628,(9, 156),1	629,(9, 176),1	630,(9, 182),2	632,(9, 190),7	639,(9, 194),12	651,(14, 27),2	653,(11, 80),3	656,(9, 195),6	662,(14, 28),1	663,(14, 34),2	665,(16, 80),1	666,(16, 81),7	673,(16, 96),1	674,(16, 103),1	675,(16, 105),11	686,(16, 110),8	694,(16, 119),9	703,(16, 128),1	704,(16, 140),1	705,(16, 154),3	708,(16, 156),1	709,(20, 24),1	710,(20, 71),1	711,(20, 81),1	712,(11, 96),4	716,(11, 107),4	720,(16, 188),6	726,(16, 190),8	734,(16, 194),13	747,(20, 26),7	754,(20, 32),3	757,(20, 41),41	798,(20, 43),3	801,(20, 57),9	810,(20, 86),1	811,(20, 105),7	818,(20, 119),1	819,(20, 128),17	883,(14, 26),4	887,(14, 32),15	902,(14, 35),47	949,(14, 45),4	953,(14, 51),1	954,(14, 81),3	957,(14, 96),8	965,(14, 103),7	972,(14, 105),1	973,(14, 107),2	975,(14, 111),4	979,(20, 140),14	993,(20, 144),6	999,(20, 156),1	1000,(20, 190),2	1002,(20, 195),1	1009,(14, 53),26	1035,(20, 107),33	1068,(20, 176),10	1078,(20, 182),13	1091,(20, 194),12	1111,(14, 110),5	1117,(14, 119),1	1125,(14, 128),1	1132,(14, 140),5	1138,(14, 153),5	1143,(14, 156),1	1146,(14, 170),11	1157,(14, 172),3	1160,(14, 176),12	1172,(14, 188),12	1184,(14, 190),10	1194,(14, 195),12	1208,(15, 24),7	1215,(15, 27),36	1251,(15, 32),1	1252,(15, 45),11	1263,(15, 51),1	1264,(15, 53),7	1271,(15, 57),5	1276,(15, 71),6	1282,(15, 80),4	1286,(15, 81),2	1288,(15, 94),3	1291,(15, 110),12	1303,(15, 140),3	1306,(15, 154),1	1307,(15, 190),1	1308,(11, 138),56	1364,(15, 194),1	1365,(18, 27),1	1366,(18, 45),1	1367,(11, 144),16	1383,(11, 153),2	1385,(15, 125),6	1391,(15, 170),4	1395,(18, 43),3	1398,(18, 57),1	1399,(18, 65),1	1400,(18, 80),1	1401,(18, 86),1	1402,(18, 94),1	1403,(18, 105),1	1404,(18, 119),1	1405,(18, 144),1	1420,(11, 177),1	1421,(15, 153),19	1440,(18, 26),13	1453,(18, 56),9	1462,(18, 107),6	1468,(18, 125),26	1494,(18, 138),4	1498,(18, 156),2	1500,(18, 172),1	1501,(18, 176),8	1509,(18, 177),2	1511,(18, 195),3	1514,(19, 24),26	1540,(19, 26),2	1542,(19, 27),1	1543,(19, 28),8	1551,(19, 34),3	1554,(19, 45),4	1558,(19, 57),3	1561,(11, 188),4	1565,(19, 71),3	1568,(19, 110),1	1569,(11, 190),46	1617,(11, 194),2	1619,(19, 56),5	1624,(19, 81),28	1652,(19, 86),4	1656,(19, 94),6	1662,(19, 96),41	1703,(19, 105),2	1705,(19, 111),1	1706,(19, 125),3	1709,(19, 153),1	1710,(19, 172),2	1712,(19, 182),7	1719,(19, 188),2	1750,(19, 195),8	7913,(17, 32),3	7916,(17, 35),5	7934,(17, 45),14	7954,(17, 53),8	7962,(17, 54),3	7965,(17, 57),5	7970,(17, 65),40	8040,(17, 86),3	8044,(17, 94),1	8050,(17, 103),1	8053,(17, 105),9	8070,(17, 119),2	8073,(17, 125),2	8075,(17, 128),15	8090,(17, 140),10	8166,(17, 176),11	8182,(17, 188),9	8191,(17, 190),8	8199,(17, 194),1	8200,(17, 195),1	8216,(12, 24),5	8221,(12, 28),2	8226,(12, 32),1	8236,(12, 41),13	8249,(12, 43),1	8288,(12, 51),1	8295,(12, 54),3	8298,(12, 57),9	8307,(12, 65),1	8309,(12, 103),1	8335,(12, 107),4	8351,(12, 111),2	8363,(12, 128),21	8386,(12, 138),1	8389,(12, 144),2	8391,(12, 154),5	8398,(12, 170),27	8433,(12, 176),1	8434,(12, 177),1	8437,(12, 182),4	8441,(12, 188),2	8443,(12, 190),8	8451,(12, 195),1	8464,(5, 27),1	8466,(5, 32),1	8467,(5, 35),1	8469,(5, 41),13	8483,(5, 45),1	8485,(5, 51),32	8517,(5, 54),2	8519,(5, 56),1	8521,(5, 71),1	8522,(5, 81),4	8526,(5, 86),1	8541,(5, 94),2	8543,(5, 96),6	8552,(5, 103),1	8565,(5, 110),1	8584,(5, 119),22	8614,(5, 128),14	8652,(5, 156),12	8677,(5, 170),1	8691,(5, 172),1	8693,(5, 176),1	8694,(5, 182),2	8696,(5, 188),9	8705,(5, 194),7	8712,(7, 27),5	8717,(7, 28),11	8728,(7, 35),8	8736,(7, 41),10	8772,(7, 43),1	8804,(7, 54),6	8810,(7, 65),1	8811,(7, 80),7	8819,(7, 86),1	8837,(7, 103),4	8853,(7, 111),4	8886,(7, 119),1	8903,(7, 128),7	8911,(7, 140),9	8922,(7, 144),22	8952,(7, 156),21	11954,(7, 172),2	11986,(7, 188),2	11988,(7, 190),27	12019,(13, 27),9	12030,(13, 34),4	12034,(13, 35),4	12050,(13, 41),2	12053,(13, 45),9	12070,(13, 51),1	12072,(13, 54),7	12079,(13, 56),8	12087,(13, 57),3	12090,(13, 65),2	12105,(13, 103),13	12118,(13, 107),11	12137,(13, 111),9	12149,(13, 125),4	12178,(13, 128),2	12181,(13, 140),2	12202,(13, 176),17	12238,(13, 188),1	12241,(13, 194),1	12242,(13, 195),1	
9,(1, 21),1	13,(1, 47),3	16,(1, 48),3	20,(1, 59),9	30,(1, 79),2	32,(4, 21),14	46,(6, 21),4	50,(6, 31),1	51,(6, 33),3	54,(6, 36),2	56,(6, 62),3	59,(1, 73),20	79,(1, 76),10	89,(1, 83),22	111,(4, 36),3	114,(4, 47),7	121,(4, 48),2	123,(4, 67),1	124,(4, 93),1	125,(4, 97),1	126,(1, 133),1	127,(4, 33),20	147,(4, 64),4	151,(4, 100),1	152,(6, 68),1	153,(6, 73),1	154,(1, 135),1	155,(4, 145),1	156,(6, 76),1	157,(1, 149),1	158,(1, 152),1	159,(4, 83),5	164,(6, 47),7	171,(6, 98),2	173,(6, 135),1	174,(6, 151),1	175,(1, 122),7	182,(1, 126),14	196,(1, 148),7	203,(4, 60),13	216,(4, 76),15	231,(4, 79),10	241,(4, 98),9	250,(6, 145),5	255,(6, 146),2	257,(1, 196),1	258,(6, 196),1	259,(2, 25),7	266,(6, 148),5	271,(16, 36),2	273,(2, 33),1	274,(16, 21),4	278,(9, 39),1	279,(9, 48),1	280,(9, 93),1	281,(9, 100),1	282,(9, 151),1	283,(2, 39),10	293,(2, 47),1	294,(4, 122),23	317,(4, 158),10	327,(9, 47),5	332,(2, 68),25	357,(2, 73),2	359,(4, 151),29	388,(2, 74),1	389,(2, 79),3	392,(2, 83),6	398,(2, 91),4	402,(2, 97),3	405,(2, 98),13	418,(9, 62),4	422,(9, 191),1	423,(16, 59),2	425,(16, 62),1	426,(16, 68),1	427,(2, 117),4	431,(16, 91),1	432,(2, 122),1	433,(16, 88),2	435,(2, 133),1	436,(6, 93),11	447,(16, 97),1	448,(2, 149),1	449,(4, 169),20	469,(2, 158),6	475,(16, 64),4	479,(16, 135),1	480,(2, 169),6	486,(16, 67),6	492,(20, 76),1	493,(20, 79),1	494,(2, 196),14	508,(4, 192),33	541,(6, 25),13	554,(6, 60),15	569,(6, 122),31	600,(6, 126),11	611,(6, 149),10	621,(6, 152),19	640,(6, 169),13	653,(6, 191),12	665,(9, 33),19	684,(9, 60),34	718,(9, 64),18	736,(9, 76),8	744,(9, 79),25	769,(9, 98),6	775,(9, 126),3	778,(9, 135),3	781,(9, 145),30	811,(9, 146),7	818,(9, 148),23	841,(9, 158),27	868,(9, 169),15	883,(3, 21),2	885,(3, 25),3	888,(3, 31),1	889,(3, 36),3	892,(3, 59),31	923,(3, 62),1	924,(3, 64),1	925,(3, 67),8	933,(3, 73),1	934,(3, 79),2	936,(3, 83),2	938,(3, 97),1	939,(3, 117),4	943,(3, 126),1	944,(20, 133),1	945,(3, 133),7	952,(3, 135),2	954,(3, 146),1	955,(3, 149),6	961,(3, 152),1	962,(3, 158),7	969,(3, 160),10	979,(14, 21),8	987,(14, 31),11	998,(14, 33),2	1000,(14, 39),8	1008,(14, 47),1	1009,(8, 21),17	1026,(8, 25),5	1031,(8, 36),1	1032,(8, 39),1	1033,(8, 60),1	1034,(8, 67),1	1035,(14, 66),5	1040,(14, 68),35	1075,(14, 73),1	1076,(14, 76),1	1077,(14, 79),9	1086,(14, 83),20	1106,(14, 91),3	1109,(14, 97),1	1110,(14, 98),1	1111,(8, 62),5	1116,(14, 117),1	1117,(8, 73),1	1118,(14, 122),7	1125,(8, 97),1	1126,(14, 135),6	1132,(8, 98),5	1137,(14, 149),1	1138,(8, 117),1	1139,(8, 126),1	1140,(8, 133),1	1141,(8, 146),1	1142,(10, 39),1	1143,(10, 64),1	1144,(14, 160),2	1146,(8, 47),8	1154,(8, 48),21	1175,(8, 79),26	1201,(8, 145),5	1206,(14, 196),2	1208,(8, 74),35	1243,(8, 100),11	1254,(8, 152),14	1268,(8, 158),3	1271,(16, 39),11	1282,(16, 47),10	1292,(16, 60),19	1311,(16, 66),20	1331,(16, 74),4	1335,(16, 76),26	1361,(16, 98),6	1367,(16, 100),6	1373,(16, 126),3	1376,(16, 133),4	1380,(16, 146),5	1385,(16, 151),14	1399,(16, 152),4	1403,(16, 160),3	1406,(15, 25),6	1412,(15, 31),9	1421,(8, 191),27	1448,(8, 192),35	1483,(16, 169),33	1516,(16, 192),38	1554,(10, 48),7	1561,(15, 33),1	1562,(15, 62),1	1563,(15, 66),2	1565,(10, 62),2	1567,(10, 67),1	1568,(10, 74),1	1569,(15, 36),6	1575,(15, 39),4	1579,(15, 47),5	1584,(15, 60),18	1602,(15, 67),6	1608,(15, 73),1	1609,(15, 117),7	1616,(15, 146),3	1619,(10, 47),29	1648,(10, 59),6	1654,(10, 73),25	1679,(10, 93),1	1680,(10, 98),11	1691,(10, 100),34	1725,(10, 117),1	1726,(15, 122),11	1737,(15, 145),5	1742,(15, 148),1	1743,(15, 158),1	1744,(15, 169),4	1748,(15, 191),2	1750,(20, 31),16	1766,(20, 135),1	1767,(10, 145),1	1768,(10, 149),5	1773,(20, 36),4	1777,(20, 59),5	1782,(20, 158),1	1783,(20, 160),1	1784,(20, 192),1	1785,(10, 152),9	1794,(10, 158),7	1801,(20, 64),11	1812,(20, 74),5	1817,(20, 100),4	1821,(20, 117),8	1829,(20, 122),38	1867,(20, 191),2	1869,(20, 196),1	1870,(18, 36),1	1871,(10, 191),5	1876,(10, 192),16	1892,(20, 126),8	1900,(20, 145),7	1907,(20, 146),5	1912,(18, 47),38	1950,(18, 59),4	1954,(18, 67),2	1956,(18, 74),11	1967,(18, 79),1	1968,(18, 91),1	1969,(18, 98),3	1972,(18, 117),36	2008,(18, 126),22	2030,(18, 133),5	2035,(18, 135),4	2039,(18, 145),1	2040,(18, 146),15	2055,(18, 149),14	2069,(18, 151),16	2085,(18, 160),3	2088,(18, 191),15	2103,(18, 196),5	2108,(19, 73),9	2117,(19, 93),1	2118,(19, 97),1	2119,(19, 98),6	2125,(19, 100),9	2134,(19, 133),12	2146,(19, 135),1	2147,(19, 152),7	2154,(19, 160),1	2155,(19, 191),51	2206,(19, 192),1	
7,(0, 4),2	10,(1, 30),1	11,(1, 38),1	12,(1, 46),1	13,(0, 9),2	17,(0, 14),2	19,(0, 15),2	23,(0, 18),2	25,(0, 19),2	29,(11, 22),3	32,(1, 22),18	50,(1, 37),4	54,(1, 49),5	59,(6, 23),2	61,(6, 30),1	62,(6, 37),5	67,(6, 46),1	68,(6, 49),7	75,(6, 58),3	78,(6, 70),2	80,(6, 84),1	81,(6, 106),1	82,(6, 108),1	83,(6, 109),2	85,(6, 113),5	90,(6, 123),15	105,(6, 137),1	106,(6, 167),3	109,(6, 179),2	111,(1, 84),8	119,(1, 87),1	120,(1, 106),3	123,(1, 108),1	124,(1, 113),1	125,(1, 123),1	126,(6, 163),6	132,(6, 168),7	139,(16, 22),1	140,(16, 49),1	141,(11, 38),6	147,(1, 109),5	152,(1, 129),2	154,(16, 90),1	155,(11, 42),1	156,(1, 147),1	157,(16, 109),1	158,(16, 163),1	159,(1, 163),1	160,(6, 175),3	163,(16, 166),1	164,(1, 99),11	175,(6, 129),23	203,(1, 161),4	207,(1, 166),1	208,(1, 167),2	210,(1, 174),1	211,(1, 179),15	226,(1, 181),31	257,(16, 171),1	258,(2, 23),1	259,(6, 171),6	265,(16, 174),1	266,(2, 30),7	273,(16, 179),1	274,(2, 37),1	275,(2, 38),8	294,(2, 49),2	296,(2, 50),15	311,(2, 58),21	347,(6, 181),3	352,(16, 58),7	359,(11, 70),4	363,(16, 37),13	376,(16, 70),6	382,(16, 84),4	386,(16, 137),2	418,(2, 104),1	419,(2, 113),2	421,(2, 115),6	427,(16, 106),4	431,(2, 121),1	432,(20, 42),1	433,(2, 123),1	434,(2, 127),1	435,(20, 50),1	436,(2, 137),6	442,(2, 143),6	448,(20, 87),1	449,(2, 150),20	469,(16, 115),6	475,(2, 161),1	476,(2, 163),1	477,(2, 167),2	479,(2, 168),1	480,(16, 121),4	484,(16, 147),2	486,(2, 173),1	487,(2, 174),2	489,(2, 179),5	494,(16, 161),6	500,(16, 167),2	502,(20, 22),2	504,(20, 30),2	506,(20, 108),1	507,(20, 109),1	508,(2, 198),3	511,(3, 22),3	514,(3, 37),5	519,(3, 38),1	520,(3, 42),4	524,(3, 46),7	531,(3, 50),1	532,(3, 58),7	539,(3, 87),1	540,(3, 89),4	544,(3, 104),2	546,(3, 108),2	548,(3, 113),9	557,(3, 115),9	566,(3, 121),4	570,(3, 127),1	571,(3, 129),4	575,(3, 132),1	576,(3, 166),8	584,(3, 167),23	607,(3, 173),1	608,(3, 175),16	624,(3, 193),1	625,(8, 23),25	650,(8, 38),3	656,(8, 30),8	664,(8, 46),1	665,(8, 49),1	666,(8, 70),4	670,(8, 84),5	675,(8, 87),2	677,(11, 84),18	695,(8, 106),1	696,(8, 127),2	698,(8, 137),2	700,(11, 89),8	708,(8, 143),1	709,(8, 147),1	710,(8, 150),1	711,(8, 168),1	712,(20, 52),3	715,(20, 58),4	719,(20, 163),1	720,(8, 50),40	760,(8, 99),10	770,(8, 109),20	790,(8, 113),8	798,(8, 121),16	814,(8, 163),2	816,(8, 166),2	818,(8, 167),2	820,(8, 173),14	834,(8, 174),1	835,(8, 198),1	836,(16, 50),24	860,(16, 127),16	876,(16, 181),12	888,(16, 193),11	899,(20, 38),25	924,(20, 84),3	927,(20, 89),16	943,(20, 168),1	944,(11, 121),1	945,(20, 113),3	948,(20, 115),3	951,(20, 121),6	957,(20, 123),10	967,(20, 127),12	979,(10, 23),2	981,(10, 30),2	983,(10, 37),1	984,(10, 42),21	1005,(10, 89),1	1006,(10, 90),2	1008,(10, 109),1	1009,(20, 143),3	1012,(20, 167),7	1019,(20, 173),15	1034,(20, 179),1	1035,(10, 46),24	1059,(10, 50),19	1078,(10, 70),27	1105,(10, 104),6	1111,(20, 174),5	1116,(10, 115),1	1117,(20, 181),1	1118,(10, 121),7	1125,(20, 193),1	1126,(10, 137),1	1127,(10, 143),1	1128,(10, 166),3	1131,(10, 171),1	1132,(20, 161),37	1169,(20, 198),13	1271,(10, 99),13	1292,(11, 137),16	1385,(10, 147),14	1400,(11, 168),4	1404,(11, 173),5	1409,(11, 174),1	1410,(11, 175),10	1483,(10, 87),43	1526,(10, 113),27	1615,(11, 193),2	1726,(10, 129),41	1773,(10, 150),12	1801,(10, 163),9	1810,(10, 175),44	1854,(10, 181),17	7822,(11, 198),3	7867,(17, 23),1	7868,(17, 30),45	7921,(17, 37),1	7922,(17, 38),12	7948,(17, 46),2	7950,(17, 49),1	7951,(17, 50),3	8010,(17, 70),30	8043,(17, 89),1	8045,(17, 99),5	8051,(17, 104),2	8062,(17, 108),6	8068,(17, 115),2	8072,(17, 121),1	8100,(17, 147),33	8133,(17, 150),16	8149,(17, 161),1	8150,(17, 166),5	8155,(17, 167),2	8157,(17, 168),1	8158,(17, 173),8	8177,(17, 179),1	8178,(17, 181),4	8201,(17, 198),14	8215,(12, 23),1	8223,(12, 30),3	8227,(12, 37),8	8235,(12, 38),1	8250,(12, 46),1	8251,(12, 49),37	8289,(12, 52),6	8308,(12, 84),1	8310,(12, 104),22	8332,(12, 106),3	8339,(12, 108),3	8342,(12, 109),9	8353,(12, 115),1	8354,(12, 123),1	8355,(12, 127),8	8384,(12, 129),1	8385,(12, 132),1	8387,(12, 143),2	8396,(12, 161),2	8425,(12, 171),6	8431,(12, 173),2	8435,(12, 179),2	8452,(5, 23),12	8465,(5, 30),1	8468,(5, 38),1	8482,(5, 42),1	8484,(5, 50),1	8520,(5, 58),1	8527,(5, 87),1	8528,(5, 90),13	8549,(5, 99),3	8553,(5, 104),2	8555,(5, 106),8	8563,(5, 109),2	8566,(5, 113),6	8572,(5, 115),12	8606,(5, 123),6	8612,(5, 127),2	8628,(5, 129),5	8633,(5, 147),1	8634,(5, 150),18	8664,(5, 166),5	8669,(5, 167),8	8678,(5, 171),13	8692,(5, 174),1	8746,(7, 42),26	8773,(7, 49),26	8799,(7, 52),5	8818,(7, 84),1	8820,(7, 87),3	8823,(7, 99),14	8841,(7, 104),10	8851,(7, 106),1	8852,(7, 108),1	8857,(7, 115),29	8887,(7, 121),3	8890,(7, 123),3	8893,(7, 127),10	8910,(7, 137),1	8920,(7, 143),2	8944,(7, 147),7	8951,(7, 150),1	8973,(7, 161),6	8979,(7, 163),1	8980,(7, 166),1	8981,(7, 167),7	8988,(7, 193),1	11956,(7, 173),7	11963,(7, 174),4	11967,(7, 179),19	12015,(7, 198),2	12017,(13, 23),2	12028,(13, 30),2	12038,(13, 37),12	12052,(13, 42),1	12062,(13, 46),7	12069,(13, 50),1	12071,(13, 52),1	12092,(13, 70),1	12093,(13, 87),4	12097,(13, 99),8	12129,(13, 108),1	12130,(13, 109),7	12146,(13, 113),3	12153,(13, 127),25	12180,(13, 129),1	12183,(13, 143),1	12184,(13, 161),4	12188,(13, 166),1	12189,(13, 167),9	12198,(13, 168),2	12200,(13, 175),2	12219,(13, 179),19	12239,(13, 193),2	
# Outgoing
46,(6, 21),4	50,(6, 31),1	51,(6, 33),3	54,(6, 36),2	56,(6, 62),3	59,(6, 23),2	61,(6, 30),1	62,(6, 37),5	67,(6, 46),1	68,(6, 49),7	75,(6, 58),3	78,(6, 70),2	80,(6, 84),1	81,(6, 106),1	82,(6, 108),1	83,(6, 109),2	85,(6, 113),5	90,(6, 123),15	105,(6, 137),1	106,(6, 167),3	109,(6, 179),2	111,(6, 28),4	115,(6, 34),2	117,(6, 35),6	123,(6, 41),2	125,(6, 56),1	126,(6, 163),6	132,(6, 168),7	139,(16, 22),1	140,(16, 49),1	141,(6, 43),11	152,(6, 68),1	153,(6, 73),1	154,(16, 90),1	155,(6, 65),1	156,(6, 76),1	157,(16, 109),1	158,(16, 163),1	159,(6, 71),1	160,(6, 175),3	163,(16, 166),1	164,(6, 47),7	171,(6, 98),2	173,(6, 135),1	174,(6, 151),1	175,(6, 129),23	198,(6, 27),35	233,(6, 45),14	247,(6, 94),3	250,(6, 145),5	255,(6, 146),2	257,(16, 171),1	258,(6, 196),1	259,(6, 171),6	265,(16, 174),1	266,(6, 148),5	271,(16, 36),2	273,(16, 179),1	274,(16, 21),4	278,(6, 54),12	290,(6, 96),1	291,(6, 103),1	292,(6, 110),1	293,(6, 119),19	312,(6, 138),2	314,(6, 154),5	319,(6, 156),1	320,(6, 170),20	340,(6, 176),1	341,(6, 177),6	347,(6, 181),3	350,(6, 182),1	351,(6, 188),1	352,(16, 58),7	359,(16, 41),4	363,(16, 37),13	376,(16, 70),6	382,(16, 84),4	386,(16, 137),2	388,(6, 190),15	403,(6, 194),20	423,(16, 59),2	425,(16, 62),1	426,(16, 68),1	427,(16, 106),4	431,(16, 91),1	432,(20, 42),1	433,(16, 88),2	435,(20, 50),1	436,(6, 93),11	447,(16, 97),1	448,(20, 87),1	449,(16, 28),8	457,(16, 35),10	467,(16, 43),1	468,(16, 71),1	469,(16, 115),6	475,(16, 64),4	479,(16, 135),1	480,(16, 121),4	484,(16, 147),2	486,(16, 67),6	492,(20, 76),1	493,(20, 79),1	494,(16, 161),6	500,(16, 167),2	502,(20, 22),2	504,(20, 30),2	506,(20, 108),1	507,(20, 109),1	508,(16, 56),5	513,(16, 57),9	522,(16, 65),19	541,(6, 25),13	554,(6, 60),15	569,(6, 122),31	600,(6, 126),11	611,(6, 149),10	621,(6, 152),19	640,(6, 169),13	653,(6, 191),12	665,(16, 80),1	666,(16, 81),7	673,(16, 96),1	674,(16, 103),1	675,(16, 105),11	686,(16, 110),8	694,(16, 119),9	703,(16, 128),1	704,(16, 140),1	705,(16, 154),3	708,(16, 156),1	709,(20, 24),1	710,(20, 71),1	711,(20, 81),1	712,(20, 52),3	715,(20, 58),4	719,(20, 163),1	720,(16, 188),6	726,(16, 190),8	734,(16, 194),13	747,(20, 26),7	754,(20, 32),3	757,(20, 41),41	798,(20, 43),3	801,(20, 57),9	810,(20, 86),1	811,(20, 105),7	818,(20, 119),1	819,(20, 128),17	836,(16, 50),24	860,(16, 127),16	876,(16, 181),12	888,(16, 193),11	899,(20, 38),25	924,(20, 84),3	927,(20, 89),16	943,(20, 168),1	944,(20, 133),1	945,(20, 113),3	948,(20, 115),3	951,(20, 121),6	957,(20, 123),10	967,(20, 127),12	979,(20, 140),14	993,(20, 144),6	999,(20, 156),1	1000,(20, 190),2	1002,(20, 195),1	1009,(20, 143),3	1012,(20, 167),7	1019,(20, 173),15	1034,(20, 179),1	1035,(20, 107),33	1068,(20, 176),10	1078,(20, 182),13	1091,(20, 194),12	1111,(20, 174),5	1117,(20, 181),1	1125,(20, 193),1	1132,(20, 161),37	1169,(20, 198),13	1271,(16, 39),11	1282,(16, 47),10	1292,(16, 60),19	1311,(16, 66),20	1331,(16, 74),4	1335,(16, 76),26	1361,(16, 98),6	1367,(16, 100),6	1373,(16, 126),3	1376,(16, 133),4	1380,(16, 146),5	1385,(16, 151),14	1399,(16, 152),4	1403,(16, 160),3	1483,(16, 169),33	1516,(16, 192),38	1750,(20, 31),16	1766,(20, 135),1	1773,(20, 36),4	1777,(20, 59),5	1782,(20, 158),1	1783,(20, 160),1	1784,(20, 192),1	1801,(20, 64),11	1812,(20, 74),5	1817,(20, 100),4	1821,(20, 117),8	1829,(20, 122),38	1867,(20, 191),2	1869,(20, 196),1	1892,(20, 126),8	1900,(20, 145),7	1907,(20, 146),5	
9,(1, 21),1	10,(1, 30),1	11,(1, 38),1	12,(1, 46),1	13,(1, 47),3	16,(1, 48),3	19,(1, 55),1	20,(1, 59),9	29,(1, 72),1	30,(1, 79),2	32,(1, 22),18	50,(1, 37),4	54,(1, 49),5	59,(1, 73),20	79,(1, 76),10	89,(1, 83),22	111,(1, 84),8	119,(1, 87),1	120,(1, 106),3	123,(1, 108),1	124,(1, 113),1	125,(1, 123),1	126,(1, 133),1	127,(1, 40),12	139,(1, 78),8	147,(1, 109),5	152,(1, 129),2	154,(1, 135),1	155,(1, 92),1	156,(1, 147),1	157,(1, 149),1	158,(1, 152),1	159,(1, 163),1	160,(1, 82),4	164,(1, 99),11	175,(1, 122),7	182,(1, 126),14	196,(1, 148),7	203,(1, 161),4	207,(1, 166),1	208,(1, 167),2	210,(1, 174),1	211,(1, 179),15	226,(1, 181),31	257,(1, 196),1	258,(2, 23),1	259,(2, 25),7	266,(2, 30),7	273,(2, 33),1	274,(2, 37),1	275,(2, 38),8	283,(2, 39),10	293,(2, 47),1	294,(2, 49),2	296,(2, 50),15	311,(2, 58),21	332,(2, 68),25	357,(2, 73),2	359,(1, 77),18	377,(1, 85),5	382,(1, 112),4	386,(1, 114),1	387,(1, 130),1	388,(2, 74),1	389,(2, 79),3	392,(2, 83),6	398,(2, 91),4	402,(2, 97),3	405,(2, 98),13	418,(2, 104),1	419,(2, 113),2	421,(2, 115),6	427,(2, 117),4	431,(2, 121),1	432,(2, 122),1	433,(2, 123),1	434,(2, 127),1	435,(2, 133),1	436,(2, 137),6	442,(2, 143),6	448,(2, 149),1	449,(2, 150),20	469,(2, 158),6	475,(2, 161),1	476,(2, 163),1	477,(2, 167),2	479,(2, 168),1	480,(2, 169),6	486,(2, 173),1	487,(2, 174),2	489,(2, 179),5	494,(2, 196),14	508,(2, 198),3	511,(3, 22),3	514,(3, 37),5	519,(3, 38),1	520,(3, 42),4	524,(3, 46),7	531,(3, 50),1	532,(3, 58),7	539,(3, 87),1	540,(3, 89),4	544,(3, 104),2	546,(3, 108),2	548,(3, 113),9	557,(3, 115),9	566,(3, 121),4	570,(3, 127),1	571,(3, 129),4	575,(3, 132),1	576,(3, 166),8	584,(3, 167),23	607,(3, 173),1	608,(3, 175),16	624,(3, 193),1	625,(8, 23),25	650,(8, 38),3	653,(1, 118),3	656,(8, 30),8	664,(8, 46),1	665,(8, 49),1	666,(8, 70),4	670,(8, 84),5	675,(8, 87),2	677,(1, 116),11	688,(1, 120),3	691,(1, 131),1	692,(1, 134),2	694,(1, 162),1	695,(8, 106),1	696,(8, 127),2	698,(8, 137),2	700,(1, 124),8	708,(8, 143),1	709,(8, 147),1	710,(8, 150),1	711,(8, 168),1	712,(1, 136),6	718,(1, 183),1	719,(1, 187),1	720,(8, 50),40	760,(8, 99),10	770,(8, 109),20	790,(8, 113),8	798,(8, 121),16	814,(8, 163),2	816,(8, 166),2	818,(8, 167),2	820,(8, 173),14	834,(8, 174),1	835,(8, 198),1	883,(3, 21),2	885,(3, 25),3	888,(3, 31),1	889,(3, 36),3	892,(3, 59),31	923,(3, 62),1	924,(3, 64),1	925,(3, 67),8	933,(3, 73),1	934,(3, 79),2	936,(3, 83),2	938,(3, 97),1	939,(3, 117),4	943,(3, 126),1	944,(1, 197),1	945,(3, 133),7	952,(3, 135),2	954,(3, 146),1	955,(3, 149),6	961,(3, 152),1	962,(3, 158),7	969,(3, 160),10	979,(10, 23),2	981,(10, 30),2	983,(10, 37),1	984,(10, 42),21	1005,(10, 89),1	1006,(10, 90),2	1008,(10, 109),1	1009,(8, 21),17	1026,(8, 25),5	1031,(8, 36),1	1032,(8, 39),1	1033,(8, 60),1	1034,(8, 67),1	1035,(10, 46),24	1059,(10, 50),19	1078,(10, 70),27	1105,(10, 104),6	1111,(8, 62),5	1116,(10, 115),1	1117,(8, 73),1	1118,(10, 121),7	1125,(8, 97),1	1126,(10, 137),1	1127,(10, 143),1	1128,(10, 166),3	1131,(10, 171),1	1132,(8, 98),5	1138,(8, 117),1	1139,(8, 126),1	1140,(8, 133),1	1141,(8, 146),1	1142,(10, 39),1	1143,(10, 64),1	1146,(8, 47),8	1154,(8, 48),21	1175,(8, 79),26	1201,(8, 145),5	1208,(8, 74),35	1243,(8, 100),11	1254,(8, 152),14	1268,(8, 158),3	1271,(10, 99),13	1292,(1, 139),6	1298,(1, 155),25	1323,(1, 164),24	1347,(1, 178),13	1360,(1, 199),1	1361,(1, 200),1	1362,(2, 55),2	1367,(1, 189),13	1380,(2, 75),1	1381,(2, 78),2	1383,(2, 92),1	1384,(2, 101),1	1385,(10, 147),14	1400,(2, 61),8	1408,(2, 85),3	1411,(2, 112),1	1412,(2, 131),1	1413,(2, 141),2	1415,(2, 157),1	1416,(2, 164),1	1417,(2, 165),1	1418,(2, 178),3	1421,(8, 191),27	1448,(8, 192),35	1483,(10, 87),43	1526,(10, 113),27	1554,(10, 48),7	1561,(2, 184),1	1562,(2, 185),1	1563,(2, 187),1	1564,(2, 200),1	1565,(10, 62),2	1567,(10, 67),1	1568,(10, 74),1	1569,(2, 69),33	1602,(2, 134),17	1619,(10, 47),29	1648,(10, 59),6	1654,(10, 73),25	1679,(10, 93),1	1680,(10, 98),11	1691,(10, 100),34	1725,(10, 117),1	1726,(10, 129),41	1767,(10, 145),1	1768,(10, 149),5	1773,(10, 150),12	1785,(10, 152),9	1794,(10, 158),7	1801,(10, 163),9	1810,(10, 175),44	1854,(10, 181),17	1871,(10, 191),5	1876,(10, 192),16	7822,(2, 189),3	7867,(1, 159),1122	11954,(2, 95),20	11974,(2, 142),8	11982,(2, 162),15	11997,(2, 183),812	12809,(2, 197),3	12812,(2, 199),5	14954,(3, 29),3	14957,(3, 40),10	14967,(3, 55),16	14983,(3, 61),1	14984,(3, 72),11	14995,(3, 75),6	15001,(3, 82),3	15004,(3, 85),98	15102,(3, 92),8	15110,(3, 101),5	15115,(3, 102),15	15130,(3, 112),1	15131,(3, 114),3	15134,(3, 120),1	15135,(3, 124),7	15142,(3, 131),10	15152,(3, 134),33	15185,(3, 139),10	15195,(3, 142),1	15196,(3, 155),12	15208,(3, 159),1	15209,(3, 178),5	15214,(3, 180),24	15238,(3, 183),33	15271,(3, 184),101	15372,(3, 186),90	15462,(3, 189),1	15463,(3, 199),16	16216,(8, 61),17	16233,(8, 72),1	16234,(8, 82),2	16236,(8, 92),4	16240,(8, 120),1	16241,(8, 131),1	16242,(8, 136),9	16251,(8, 139),1	16252,(8, 155),9	16261,(8, 159),2	16263,(8, 165),3	16266,(8, 180),1	16267,(8, 183),3	16270,(8, 184),12	16282,(8, 186),4	16286,(8, 187),9	16295,(8, 189),1	16296,(8, 199),26	16322,(8, 200),3	16786,(10, 29),3	16789,(10, 40),7	16796,(10, 55),8	16804,(10, 63),2	16806,(10, 69),5	16811,(10, 75),75	16886,(10, 82),1	16887,(10, 85),14	16901,(10, 92),6	16907,(10, 101),6	16913,(10, 102),7	16920,(10, 112),10	16930,(10, 120),1	16931,(10, 124),1	16932,(10, 134),1	16933,(10, 139),5	16938,(10, 155),18	16956,(10, 157),26	16982,(10, 164),1	16983,(10, 165),37	17020,(10, 178),84	17104,(10, 183),6	17110,(10, 185),18	17128,(10, 189),894	18022,(10, 200),1	20314,(26, 201),82	20888,(153, 201),82	23512,(53, 201),82	23676,(105, 201),82	23840,(24, 201),82	24004,(138, 201),82	24086,(154, 201),82	24168,(177, 201),82	24250,(32, 201),82	24496,(71, 201),82	24578,(81, 201),82	24742,(94, 201),82	24824,(96, 201),82	24906,(110, 201),82	24988,(170, 201),82	25152,(182, 201),82	25234,(28, 201),82	25316,(43, 201),82	25480,(80, 201),82	25644,(86, 201),82	25972,(119, 201),82	26300,(144, 201),82	26546,(156, 201),82	26710,(172, 201),82	26956,(190, 201),82	27202,(27, 201),82	27366,(34, 201),82	27448,(35, 201),82	27612,(41, 201),82	27776,(45, 201),82	27940,(51, 201),82	28104,(54, 201),82	28268,(56, 201),82	28432,(57, 201),82	28596,(65, 201),82	28760,(103, 201),82	28842,(107, 201),82	29088,(111, 201),82	29252,(125, 201),82	29416,(128, 201),82	29580,(140, 201),82	30072,(176, 201),82	30318,(188, 201),82	30482,(194, 201),82	30564,(195, 201),82	
1,(0, 1),2	3,(0, 2),2	5,(0, 3),2	7,(0, 4),2	9,(0, 6),2	11,(0, 8),2	13,(0, 9),2	15,(0, 10),2	17,(0, 14),2	19,(0, 15),2	21,(0, 16),2	23,(0, 18),2	25,(0, 19),2	27,(0, 20),2	29,(11, 22),3	32,(11, 24),3	35,(11, 26),1	36,(11, 29),91	127,(11, 32),9	136,(11, 34),1	137,(11, 35),4	141,(11, 38),6	147,(11, 40),8	155,(11, 42),1	156,(11, 44),4	160,(11, 53),5	165,(11, 55),2	167,(11, 56),2	169,(11, 61),5	174,(11, 63),179	353,(11, 69),6	359,(11, 70),4	363,(11, 71),25	388,(11, 72),65	453,(11, 75),3	456,(11, 77),196	652,(11, 78),1	653,(11, 80),3	656,(11, 82),21	677,(11, 84),18	695,(11, 85),5	700,(11, 89),8	708,(11, 92),3	711,(11, 95),1	712,(11, 96),4	716,(11, 107),4	720,(11, 112),1	721,(11, 114),68	789,(11, 116),154	943,(11, 118),1	944,(11, 121),1	945,(11, 130),1	946,(11, 134),287	1233,(11, 136),59	1292,(11, 137),16	1308,(11, 138),56	1364,(11, 139),1	1365,(11, 141),2	1367,(11, 144),16	1383,(11, 153),2	1385,(11, 155),1	1386,(11, 159),1	1387,(11, 162),2	1389,(11, 164),11	1400,(11, 168),4	1404,(11, 173),5	1409,(11, 174),1	1410,(11, 175),10	1420,(11, 177),1	1421,(11, 183),105	1526,(11, 184),17	1543,(11, 185),1	1544,(11, 186),17	1561,(11, 188),4	1565,(11, 189),4	1569,(11, 190),46	1615,(11, 193),2	1617,(11, 194),2	1619,(11, 197),6203	7822,(11, 198),3	7825,(11, 199),42	7867,(17, 23),1	7868,(17, 30),45	7913,(17, 32),3	7916,(17, 35),5	7921,(17, 37),1	7922,(17, 38),12	7934,(17, 45),14	7948,(17, 46),2	7950,(17, 49),1	7951,(17, 50),3	7954,(17, 53),8	7962,(17, 54),3	7965,(17, 57),5	7970,(17, 65),40	8010,(17, 70),30	8040,(17, 86),3	8043,(17, 89),1	8044,(17, 94),1	8045,(17, 99),5	8050,(17, 103),1	8051,(17, 104),2	8053,(17, 105),9	8062,(17, 108),6	8068,(17, 115),2	8070,(17, 119),2	8072,(17, 121),1	8073,(17, 125),2	8075,(17, 128),15	8090,(17, 140),10	8100,(17, 147),33	8133,(17, 150),16	8149,(17, 161),1	8150,(17, 166),5	8155,(17, 167),2	8157,(17, 168),1	8158,(17, 173),8	8166,(17, 176),11	8177,(17, 179),1	8178,(17, 181),4	8182,(17, 188),9	8191,(17, 190),8	8199,(17, 194),1	8200,(17, 195),1	8201,(17, 198),14	8215,(12, 23),1	8216,(12, 24),5	8221,(12, 28),2	8223,(12, 30),3	8226,(12, 32),1	8227,(12, 37),8	8235,(12, 38),1	8236,(12, 41),13	8249,(12, 43),1	8250,(12, 46),1	8251,(12, 49),37	8288,(12, 51),1	8289,(12, 52),6	8295,(12, 54),3	8298,(12, 57),9	8307,(12, 65),1	8308,(12, 84),1	8309,(12, 103),1	8310,(12, 104),22	8332,(12, 106),3	8335,(12, 107),4	8339,(12, 108),3	8342,(12, 109),9	8351,(12, 111),2	8353,(12, 115),1	8354,(12, 123),1	8355,(12, 127),8	8363,(12, 128),21	8384,(12, 129),1	8385,(12, 132),1	8386,(12, 138),1	8387,(12, 143),2	8389,(12, 144),2	8391,(12, 154),5	8396,(12, 161),2	8398,(12, 170),27	8425,(12, 171),6	8431,(12, 173),2	8433,(12, 176),1	8434,(12, 177),1	8435,(12, 179),2	8437,(12, 182),4	8441,(12, 188),2	8443,(12, 190),8	8451,(12, 195),1	8452,(5, 23),12	8464,(5, 27),1	8465,(5, 30),1	8466,(5, 32),1	8467,(5, 35),1	8468,(5, 38),1	8469,(5, 41),13	8482,(5, 42),1	8483,(5, 45),1	8484,(5, 50),1	8485,(5, 51),32	8517,(5, 54),2	8519,(5, 56),1	8520,(5, 58),1	8521,(5, 71),1	8522,(5, 81),4	8526,(5, 86),1	8527,(5, 87),1	8528,(5, 90),13	8541,(5, 94),2	8543,(5, 96),6	8549,(5, 99),3	8552,(5, 103),1	8553,(5, 104),2	8555,(5, 106),8	8563,(5, 109),2	8565,(5, 110),1	8566,(5, 113),6	8572,(5, 115),12	8584,(5, 119),22	8606,(5, 123),6	8612,(5, 127),2	8614,(5, 128),14	8628,(5, 129),5	8633,(5, 147),1	8634,(5, 150),18	8652,(5, 156),12	8664,(5, 166),5	8669,(5, 167),8	8677,(5, 170),1	8678,(5, 171),13	8691,(5, 172),1	8692,(5, 174),1	8693,(5, 176),1	8694,(5, 182),2	8696,(5, 188),9	8705,(5, 194),7	8712,(7, 27),5	8717,(7, 28),11	8728,(7, 35),8	8736,(7, 41),10	8746,(7, 42),26	8772,(7, 43),1	8773,(7, 49),26	8799,(7, 52),5	8804,(7, 54),6	8810,(7, 65),1	8811,(7, 80),7	8818,(7, 84),1	8819,(7, 86),1	8820,(7, 87),3	8823,(7, 99),14	8837,(7, 103),4	8841,(7, 104),10	8851,(7, 106),1	8852,(7, 108),1	8853,(7, 111),4	8857,(7, 115),29	8886,(7, 119),1	8887,(7, 121),3	8890,(7, 123),3	8893,(7, 127),10	8903,(7, 128),7	8910,(7, 137),1	8911,(7, 140),9	8920,(7, 143),2	8922,(7, 144),22	8944,(7, 147),7	8951,(7, 150),1	8952,(7, 156),21	8973,(7, 161),6	8979,(7, 163),1	8980,(7, 166),1	8981,(7, 167),7	8988,(7, 193),1	8989,(17, 29),15	9004,(17, 63),3	9007,(17, 69),11	9018,(17, 75),13	9031,(17, 77),30	9061,(17, 78),1	9062,(17, 82),14	9076,(17, 92),1	9077,(17, 101),1	9078,(17, 112),1	9079,(17, 118),13	9092,(17, 131),1	9093,(17, 136),2770	11863,(17, 139),1	11864,(17, 141),10	11874,(17, 142),1	11875,(17, 157),1	11876,(17, 162),1	11877,(17, 164),1	11878,(17, 165),7	11885,(17, 185),39	11924,(17, 186),28	11952,(17, 197),1	11953,(17, 199),1	11954,(7, 172),2	11956,(7, 173),7	11963,(7, 174),4	11967,(7, 179),19	11986,(7, 188),2	11988,(7, 190),27	12015,(7, 198),2	12017,(13, 23),2	12019,(13, 27),9	12028,(13, 30),2	12030,(13, 34),4	12034,(13, 35),4	12038,(13, 37),12	12050,(13, 41),2	12052,(13, 42),1	12053,(13, 45),9	12062,(13, 46),7	12069,(13, 50),1	12070,(13, 51),1	12071,(13, 52),1	12072,(13, 54),7	12079,(13, 56),8	12087,(13, 57),3	12090,(13, 65),2	12092,(13, 70),1	12093,(13, 87),4	12097,(13, 99),8	12105,(13, 103),13	12118,(13, 107),11	12129,(13, 108),1	12130,(13, 109),7	12137,(13, 111),9	12146,(13, 113),3	12149,(13, 125),4	12153,(13, 127),25	12178,(13, 128),2	12180,(13, 129),1	12181,(13, 140),2	12183,(13, 143),1	12184,(13, 161),4	12188,(13, 166),1	12189,(13, 167),9	12198,(13, 168),2	12200,(13, 175),2	12202,(13, 176),17	12219,(13, 179),19	12238,(13, 188),1	12239,(13, 193),2	12241,(13, 194),1	12242,(13, 195),1	13352,(12, 29),10	13362,(12, 40),2	13364,(12, 44),4	13368,(12, 55),2	13370,(12, 61),41	13411,(12, 63),4	13415,(12, 69),36	13451,(12, 75),38	13489,(12, 77),12	13501,(12, 78),51	13552,(12, 112),2	13554,(12, 114),336	13890,(12, 120),309	14199,(12, 131),1	14200,(12, 141),5	14205,(12, 142),1	14206,(12, 155),3	14209,(12, 157),22	14231,(12, 159),2	14233,(12, 180),3	14236,(12, 187),5	14241,(12, 189),60	15479,(5, 44),10	15489,(5, 61),1	15490,(5, 69),4	15494,(5, 72),3	15497,(5, 75),13	15510,(5, 82),1	15511,(5, 85),9	15520,(5, 95),1	15521,(5, 101),2	15523,(5, 102),26	15549,(5, 114),6	15555,(5, 116),1	15556,(5, 118),80	15636,(5, 120),48	15684,(5, 130),1	15685,(5, 136),8	15693,(5, 141),1	15694,(5, 142),10	15704,(5, 155),1	15705,(5, 157),65	15770,(5, 165),2	15772,(5, 180),242	16014,(5, 185),2	16016,(5, 197),3	16019,(5, 200),6	16325,(7, 29),1	16326,(7, 40),1	16327,(7, 55),9	16336,(7, 63),1	16337,(7, 82),3	16340,(7, 92),2	16342,(7, 95),128	16470,(7, 112),1	16471,(7, 118),2	16473,(7, 120),4	16477,(7, 130),26	16503,(7, 141),43	16546,(7, 159),169	16715,(7, 183),1	16716,(7, 184),55	16771,(7, 186),11	16782,(7, 197),3	16785,(7, 200),1	18539,(13, 29),3	18542,(13, 55),8	18550,(13, 61),27	18577,(13, 63),2	18579,(13, 72),1	18580,(13, 75),91	18671,(13, 78),5	18676,(13, 82),6	18682,(13, 92),5	18687,(13, 95),4	18691,(13, 102),1	18692,(13, 114),6	18698,(13, 118),46	18744,(13, 120),1	18745,(13, 130),1	18746,(13, 136),1	18747,(13, 141),1	18748,(13, 142),85	18833,(13, 157),4	18837,(13, 159),21	18858,(13, 178),22	18880,(13, 180),99	18979,(13, 186),1	18980,(13, 187),1	18981,(13, 197),32	19013,(13, 199),15	19028,(13, 200),4	19740,(88, 201),82	19904,(21, 201),82	19986,(68, 201),82	20068,(83, 201),82	20150,(76, 201),82	20232,(25, 201),82	20396,(48, 201),82	20478,(33, 201),82	20560,(66, 201),82	20642,(62, 201),82	20724,(39, 201),82	20806,(60, 201),82	20970,(148, 201),82	21052,(169, 201),82	21134,(31, 201),82	21216,(158, 201),82	21298,(64, 201),82	21380,(122, 201),82	21462,(36, 201),82	21544,(47, 201),82	21626,(59, 201),82	21708,(67, 201),82	21790,(74, 201),82	21872,(79, 201),82	21954,(91, 201),82	22036,(117, 201),82	22118,(126, 201),82	22200,(145, 201),82	22282,(146, 201),82	22364,(149, 201),82	22446,(151, 201),82	22528,(196, 201),82	22610,(73, 201),82	22692,(93, 201),82	22774,(97, 201),82	22856,(98, 201),82	22938,(100, 201),82	23020,(133, 201),82	23102,(135, 201),82	23184,(152, 201),82	23266,(160, 201),82	23348,(191, 201),82	23430,(192, 201),82	
32,(4, 21),14	46,(4, 24),10	56,(4, 26),1	57,(4, 27),4	61,(4, 28),3	64,(4, 32),1	65,(4, 34),2	67,(4, 35),1	68,(4, 41),7	75,(4, 45),1	76,(4, 53),15	91,(4, 56),4	95,(4, 57),1	96,(4, 71),2	98,(4, 80),1	99,(4, 81),6	105,(4, 94),3	108,(4, 103),1	109,(4, 107),1	110,(4, 144),1	111,(4, 36),3	114,(4, 47),7	121,(4, 48),2	123,(4, 67),1	124,(4, 93),1	125,(4, 97),1	126,(4, 153),1	127,(4, 33),20	147,(4, 64),4	151,(4, 100),1	152,(4, 110),3	155,(4, 145),1	156,(4, 154),2	158,(4, 182),1	159,(4, 83),5	164,(4, 92),1	165,(4, 195),2	167,(4, 44),2	169,(4, 96),9	178,(4, 177),9	187,(4, 188),11	203,(4, 60),13	216,(4, 76),15	231,(4, 79),10	241,(4, 98),9	250,(4, 170),28	278,(9, 39),1	279,(9, 48),1	280,(9, 93),1	281,(9, 100),1	282,(9, 151),1	294,(4, 122),23	317,(4, 158),10	327,(9, 47),5	347,(9, 32),1	348,(9, 35),1	349,(9, 56),1	352,(9, 27),7	359,(4, 151),29	418,(9, 62),4	422,(9, 191),1	423,(9, 41),11	434,(9, 43),2	436,(9, 51),12	448,(9, 65),1	449,(4, 169),20	469,(9, 45),16	485,(9, 53),5	490,(9, 54),12	502,(9, 57),5	507,(9, 80),1	508,(4, 192),33	541,(9, 96),40	581,(9, 105),1	582,(9, 111),1	583,(9, 128),23	606,(9, 138),10	616,(9, 140),10	626,(9, 144),2	628,(9, 156),1	629,(9, 176),1	630,(9, 182),2	632,(9, 190),7	639,(9, 194),12	651,(14, 27),2	656,(9, 195),6	662,(14, 28),1	663,(14, 34),2	665,(9, 33),19	684,(9, 60),34	718,(9, 64),18	736,(9, 76),8	744,(9, 79),25	769,(9, 98),6	775,(9, 126),3	778,(9, 135),3	781,(9, 145),30	811,(9, 146),7	818,(9, 148),23	841,(9, 158),27	868,(9, 169),15	883,(14, 26),4	887,(14, 32),15	902,(14, 35),47	949,(14, 45),4	953,(14, 51),1	954,(14, 81),3	957,(14, 96),8	965,(14, 103),7	972,(14, 105),1	973,(14, 107),2	975,(14, 111),4	979,(14, 21),8	987,(14, 31),11	998,(14, 33),2	1000,(14, 39),8	1008,(14, 47),1	1009,(14, 53),26	1035,(14, 66),5	1040,(14, 68),35	1075,(14, 73),1	1076,(14, 76),1	1077,(14, 79),9	1086,(14, 83),20	1106,(14, 91),3	1109,(14, 97),1	1110,(14, 98),1	1111,(14, 110),5	1116,(14, 117),1	1117,(14, 119),1	1118,(14, 122),7	1125,(14, 128),1	1126,(14, 135),6	1132,(14, 140),5	1137,(14, 149),1	1138,(14, 153),5	1143,(14, 156),1	1144,(14, 160),2	1146,(14, 170),11	1157,(14, 172),3	1160,(14, 176),12	1172,(14, 188),12	1184,(14, 190),10	1194,(14, 195),12	1206,(14, 196),2	1208,(15, 24),7	1215,(15, 27),36	1251,(15, 32),1	1252,(15, 45),11	1263,(15, 51),1	1264,(15, 53),7	1271,(15, 57),5	1276,(15, 71),6	1282,(15, 80),4	1286,(15, 81),2	1288,(15, 94),3	1291,(15, 110),12	1303,(15, 140),3	1306,(15, 154),1	1307,(15, 190),1	1364,(15, 194),1	1365,(18, 27),1	1366,(18, 45),1	1385,(15, 125),6	1391,(15, 170),4	1395,(18, 43),3	1398,(18, 57),1	1399,(18, 65),1	1400,(18, 80),1	1401,(18, 86),1	1402,(18, 94),1	1403,(18, 105),1	1404,(18, 119),1	1405,(18, 144),1	1406,(15, 25),6	1412,(15, 31),9	1421,(15, 153),19	1440,(18, 26),13	1453,(18, 56),9	1462,(18, 107),6	1468,(18, 125),26	1494,(18, 138),4	1498,(18, 156),2	1500,(18, 172),1	1501,(18, 176),8	1509,(18, 177),2	1511,(18, 195),3	1514,(19, 24),26	1540,(19, 26),2	1542,(19, 27),1	1543,(19, 28),8	1551,(19, 34),3	1554,(19, 45),4	1558,(19, 57),3	1561,(15, 33),1	1562,(15, 62),1	1563,(15, 66),2	1565,(19, 71),3	1568,(19, 110),1	1569,(15, 36),6	1575,(15, 39),4	1579,(15, 47),5	1584,(15, 60),18	1602,(15, 67),6	1608,(15, 73),1	1609,(15, 117),7	1616,(15, 146),3	1619,(19, 56),5	1624,(19, 81),28	1652,(19, 86),4	1656,(19, 94),6	1662,(19, 96),41	1703,(19, 105),2	1705,(19, 111),1	1706,(19, 125),3	1709,(19, 153),1	1710,(19, 172),2	1712,(19, 182),7	1719,(19, 188),2	1726,(15, 122),11	1737,(15, 145),5	1742,(15, 148),1	1743,(15, 158),1	1744,(15, 169),4	1748,(15, 191),2	1750,(19, 195),8	1870,(18, 36),1	1912,(18, 47),38	1950,(18, 59),4	1954,(18, 67),2	1956,(18, 74),11	1967,(18, 79),1	1968,(18, 91),1	1969,(18, 98),3	1972,(18, 117),36	2008,(18, 126),22	2030,(18, 133),5	2035,(18, 135),4	2039,(18, 145),1	2040,(18, 146),15	2055,(18, 149),14	2069,(18, 151),16	2085,(18, 160),3	2088,(18, 191),15	2103,(18, 196),5	2108,(19, 73),9	2117,(19, 93),1	2118,(19, 97),1	2119,(19, 98),6	2125,(19, 100),9	2134,(19, 133),12	2146,(19, 135),1	2147,(19, 152),7	2154,(19, 160),1	2155,(19, 191),51	2206,(19, 192),1	12817,(4, 69),3	12820,(4, 78),5	12825,(4, 82),7	12832,(4, 85),22	12854,(4, 102),23	12877,(4, 114),10	12887,(4, 116),330	13217,(4, 118),9	13226,(4, 124),2	13228,(4, 130),24	13252,(4, 139),42	13294,(4, 142),3	13297,(4, 157),1	13298,(4, 159),1	13299,(4, 164),2	13301,(4, 165),14	13315,(4, 178),2	13317,(4, 180),1	13318,(4, 183),3	13321,(4, 185),14	13335,(4, 197),12	13347,(4, 199),5	14301,(9, 29),39	14340,(9, 44),162	14502,(9, 69),1	14503,(9, 72),1	14504,(9, 75),1	14505,(9, 77),1	14506,(9, 82),3	14509,(9, 85),20	14529,(9, 114),2	14531,(9, 118),1	14532,(9, 120),176	14708,(9, 124),7	14715,(9, 134),3	14718,(9, 136),112	14830,(9, 142),5	14835,(9, 155),2	14837,(9, 162),10	14847,(9, 178),30	14877,(9, 183),1	14878,(9, 184),6	14884,(9, 185),61	14945,(9, 186),1	14946,(9, 187),3	14949,(9, 200),5	16025,(14, 29),3	16028,(14, 44),12	16040,(14, 61),1	16041,(14, 63),1	16042,(14, 69),1	16043,(14, 75),3	16046,(14, 82),1	16047,(14, 85),4	16051,(14, 95),6	16057,(14, 102),2	16059,(14, 112),3	16062,(14, 114),1	16063,(14, 120),1	16064,(14, 131),3	16067,(14, 141),1	16068,(14, 157),27	16095,(14, 164),4	16099,(14, 165),4	16103,(14, 185),99	16202,(14, 189),1	16203,(14, 200),13	18023,(15, 29),20	18043,(15, 40),2	18045,(15, 44),145	18190,(15, 61),13	18203,(15, 69),1	18204,(15, 75),7	18211,(15, 78),1	18212,(15, 102),7	18219,(15, 112),1	18220,(15, 116),3	18223,(15, 118),55	18278,(15, 131),25	18303,(15, 139),6	18309,(15, 141),21	18330,(15, 142),16	18346,(15, 157),1	18347,(15, 159),6	18353,(15, 178),32	18385,(15, 180),33	18418,(15, 183),5	18423,(15, 184),1	18424,(15, 185),42	18466,(15, 186),2	18468,(15, 197),46	18514,(15, 200),25	19032,(18, 40),18	19050,(18, 69),2	19052,(18, 72),10	19062,(18, 75),18	19080,(18, 78),1	19081,(18, 85),7	19088,(18, 92),5	19093,(18, 95),9	19102,(18, 101),5	19107,(18, 112),6	19113,(18, 118),1	19114,(18, 136),1	19115,(18, 162),38	19153,(18, 165),6	19159,(18, 178),96	19255,(18, 180),1	19256,(18, 184),103	19359,(18, 186),1	19360,(18, 197),1	19361,(18, 200),12	19373,(19, 40),16	19389,(19, 69),22	19411,(19, 78),47	19458,(19, 85),115	19573,(19, 92),1	19574,(19, 112),4	19578,(19, 116),1	19579,(19, 118),82	19661,(19, 130),6	19667,(19, 134),1	19668,(19, 136),7	19675,(19, 139),30	19705,(19, 159),1	19706,(19, 178),4	19710,(19, 180),8	19718,(19, 184),5	19723,(19, 185),1	19724,(19, 189),9	19733,(19, 199),1	19734,(19, 200),6	19822,(22, 201),82	23594,(89, 201),82	23758,(181, 201),82	23922,(132, 201),82	24332,(38, 201),82	24414,(58, 201),82	24660,(90, 201),82	25070,(171, 201),82	25398,(49, 201),82	25562,(84, 201),82	25726,(104, 201),82	25808,(106, 201),82	25890,(115, 201),82	26054,(121, 201),82	26136,(123, 201),82	26218,(137, 201),82	26382,(147, 201),82	26464,(150, 201),82	26628,(163, 201),82	26792,(173, 201),82	26874,(174, 201),82	27038,(198, 201),82	27120,(23, 201),82	27284,(30, 201),82	27530,(37, 201),82	27694,(42, 201),82	27858,(46, 201),82	28022,(50, 201),82	28186,(52, 201),82	28350,(70, 201),82	28514,(87, 201),82	28678,(99, 201),82	28924,(108, 201),82	29006,(109, 201),82	29170,(113, 201),82	29334,(127, 201),82	29498,(129, 201),82	29662,(143, 201),82	29744,(161, 201),82	29826,(166, 201),82	29908,(167, 201),82	29990,(168, 201),82	30154,(175, 201),82	30236,(179, 201),82	30400,(193, 201),82	
