218
# CPU
0,81,1	1,14,3	4,64,3	7,28,3	10,47,3	13,11,3	16,74,3	19,76,3	22,41,3	25,45,3	28,71,3	31,31,3	34,78,3	37,77,3	40,69,3	43,37,3	46,34,3	49,50,3	52,62,3	55,30,3	58,12,3	61,68,3	64,24,3	67,79,3	70,75,3	73,54,3	76,9,3	79,56,3	82,61,3	85,16,3	88,80,3	91,25,3	94,72,3	97,43,3	100,21,3	103,17,3	106,19,3	109,38,3	112,35,3	115,58,3	118,73,3	121,59,3	124,52,3	127,33,3	130,48,3	133,22,3	136,65,3	139,18,3	142,49,3	145,36,3	148,29,3	151,42,3	154,27,3	157,70,3	160,7,3	163,5,3	166,1,3	169,6,3	172,8,3	188,3,3	214,2,3	217,0,1	
9,55,3	33,13,3	41,63,3	57,32,3	65,66,3	73,44,3	113,53,3	137,26,3	153,51,3	209,4,3	
17,40,3	49,60,3	81,10,3	145,20,3	
25,15,3	89,39,3	97,23,3	105,46,3	121,67,3	129,57,3	
# Incoming
52,(60, 5),3	55,(15, 1),1	56,(63, 1),1	57,(40, 6),1	58,(63, 6),1	59,(13, 8),1	60,(32, 1),3	63,(60, 8),1	64,(55, 3),1	68,(66, 8),4	72,(66, 3),1	84,(10, 1),2	86,(10, 8),7	93,(39, 8),7	100,(23, 1),10	110,(46, 8),11	121,(23, 3),2	123,(53, 3),1	132,(57, 6),18	150,(53, 8),13	163,(51, 3),25	188,(57, 2),1	189,(20, 2),25	214,(4, 0),1	
1,(81, 55),8	25,(81, 13),8	33,(81, 63),8	49,(81, 32),8	57,(81, 66),8	65,(81, 44),8	105,(81, 53),8	129,(81, 26),8	145,(81, 51),8	153,(68, 4),3	156,(61, 4),1	157,(80, 4),7	164,(21, 4),10	174,(35, 4),12	186,(70, 4),1	189,(67, 4),16	205,(52, 4),4	
9,(81, 40),8	41,(81, 60),8	73,(81, 10),8	137,(81, 20),8	
17,(81, 15),8	81,(81, 39),8	89,(81, 23),8	97,(81, 46),8	113,(81, 67),8	121,(81, 57),8	
# Outgoing
1,(81, 55),8	9,(81, 40),8	17,(81, 15),8	25,(81, 13),8	33,(81, 63),8	41,(81, 60),8	49,(81, 32),8	57,(81, 66),8	65,(81, 44),8	73,(81, 10),8	81,(81, 39),8	89,(81, 23),8	97,(81, 46),8	105,(81, 53),8	113,(81, 67),8	121,(81, 57),8	129,(81, 26),8	137,(81, 20),8	145,(81, 51),8	153,(68, 4),3	156,(61, 4),1	157,(80, 4),7	164,(21, 4),10	174,(35, 4),12	186,(70, 4),1	205,(52, 4),4	
56,(63, 1),1	58,(63, 6),1	59,(13, 8),1	60,(32, 1),3	64,(55, 3),1	68,(66, 8),4	72,(66, 3),1	123,(53, 3),1	150,(53, 8),13	163,(51, 3),25	214,(4, 0),1	
52,(60, 5),3	57,(40, 6),1	63,(60, 8),1	84,(10, 1),2	86,(10, 8),7	189,(20, 2),25	
55,(15, 1),1	93,(39, 8),7	100,(23, 1),10	110,(46, 8),11	121,(23, 3),2	132,(57, 6),18	188,(57, 2),1	189,(67, 4),16	
