1113
# CPU
0,81,1	1,37,14	15,9,14	29,30,14	43,14,14	57,26,14	71,60,14	85,51,14	99,22,14	113,45,14	127,17,14	141,47,14	155,35,14	169,29,14	183,68,14	197,24,14	211,23,14	225,48,14	239,72,14	253,33,14	267,55,14	281,66,14	295,25,14	309,10,14	323,43,14	337,15,14	351,31,14	365,46,14	379,16,14	393,64,14	407,79,14	421,54,14	435,65,14	449,11,14	463,77,14	477,62,14	491,27,14	505,42,14	519,19,14	533,61,14	547,50,14	561,20,14	575,38,14	589,34,14	603,41,14	617,67,14	631,18,14	645,75,14	659,28,14	673,52,14	687,40,14	701,21,14	715,13,14	729,71,14	743,49,14	757,56,14	771,59,14	785,36,14	799,76,14	813,44,14	827,4,14	841,53,14	855,2,14	869,3,14	883,7,14	897,6,14	911,8,14	987,1,14	1098,5,14	1112,0,1	
135,70,14	269,58,14	336,69,14	403,78,14	537,32,14	604,73,14	805,57,14	
470,39,14	738,12,14	
68,63,14	202,74,14	671,80,14	
# Incoming
82,(63, 4),1	83,(63, 2),1	84,(63, 1),1	216,(74, 6),1	217,(74, 8),6	685,(80, 7),17	702,(80, 6),1	703,(80, 8),40	743,(80, 5),1	752,(12, 4),1	753,(39, 3),3	756,(39, 7),2	758,(39, 6),19	777,(12, 6),16	793,(12, 8),23	819,(57, 4),1	820,(70, 2),5	825,(58, 2),3	828,(69, 2),6	834,(57, 2),2	836,(70, 3),1	837,(69, 3),9	846,(32, 3),8	854,(70, 7),5	859,(78, 7),11	870,(58, 6),8	878,(58, 8),1	879,(32, 8),25	904,(73, 1),30	934,(12, 1),48	982,(57, 1),5	987,(70, 5),1	988,(69, 5),1	989,(57, 5),109	
68,(81, 70),67	202,(81, 58),67	269,(81, 69),67	336,(81, 78),67	470,(81, 32),67	537,(81, 73),67	738,(81, 57),67	
403,(81, 39),67	671,(81, 12),67	
1,(81, 63),67	135,(81, 74),67	604,(81, 80),67	
# Outgoing
1,(81, 63),67	68,(81, 70),67	135,(81, 74),67	202,(81, 58),67	269,(81, 69),67	336,(81, 78),67	403,(81, 39),67	470,(81, 32),67	537,(81, 73),67	604,(81, 80),67	671,(81, 12),67	738,(81, 57),67	
819,(57, 4),1	820,(70, 2),5	825,(58, 2),3	828,(69, 2),6	834,(57, 2),2	836,(70, 3),1	837,(69, 3),9	846,(32, 3),8	854,(70, 7),5	859,(78, 7),11	870,(58, 6),8	878,(58, 8),1	879,(32, 8),25	904,(73, 1),30	982,(57, 1),5	987,(70, 5),1	988,(69, 5),1	989,(57, 5),109	
752,(12, 4),1	753,(39, 3),3	756,(39, 7),2	758,(39, 6),19	777,(12, 6),16	793,(12, 8),23	934,(12, 1),48	
82,(63, 4),1	83,(63, 2),1	84,(63, 1),1	216,(74, 6),1	217,(74, 8),6	685,(80, 7),17	702,(80, 6),1	703,(80, 8),40	743,(80, 5),1	
