3012
# CPU
4,1,2	7,2,2	9,87,2	11,5,2	13,54,2	15,80,2	19,10,2	21,102,2	23,12,2	25,13,2	27,72,2	29,94,2	31,161,2	33,192,2	35,184,2	37,111,2	906,63,2	908,154,2	918,146,2	962,178,2	1126,91,2	1220,33,2	1236,73,2	1238,156,2	1474,85,2	1478,88,2	1496,37,2	1503,134,2	1550,189,2	1566,44,2	1568,48,2	1570,52,2	1578,26,2	1588,66,2	1590,118,2	1592,151,2	1618,105,2	1626,67,2	1641,126,2	1709,169,2	1721,55,2	1739,95,2	1744,129,2	1751,170,2	1960,168,2	2105,96,2	2107,131,2	2110,142,2	2117,143,2	2119,150,2	2259,113,2	2276,114,2	2289,193,2	2401,47,2	2406,49,2	2421,75,2	2430,89,2	2437,103,2	2475,104,2	2542,108,2	2547,36,2	2785,163,2	2792,164,2	2796,179,2	2885,180,2	2888,182,2	2918,187,2	3011,201,1	
13,8,2	15,40,2	17,65,2	19,9,2	28,15,2	30,22,2	32,167,2	34,99,2	36,123,2	38,16,2	40,17,2	42,18,2	44,20,2	46,165,2	48,24,2	50,185,2	52,30,2	54,116,2	56,186,2	58,198,2	60,23,2	62,45,2	162,152,2	176,32,2	185,56,2	188,68,2	191,29,2	197,155,2	214,176,2	699,39,2	714,43,2	846,84,2	896,98,2	922,148,2	969,196,2	977,197,2	1119,62,2	1121,64,2	1209,42,2	1237,101,2	1383,162,2	1388,190,2	1477,86,2	1497,109,2	1502,132,2	1549,175,2	1578,58,2	1588,76,2	1590,77,2	1592,81,2	1632,110,2	1648,140,2	1712,200,2	1729,57,2	1736,70,2	1743,107,2	1747,166,2	1765,172,2	1810,183,2	1826,195,2	1842,60,2	1844,78,2	1847,100,2	1849,136,2	1851,149,2	1853,157,2	1855,173,2	1861,191,2	
0,0,1	1,19,2	3,7,2	5,14,2	7,4,2	9,11,2	11,6,2	13,3,2	15,135,2	17,92,2	19,28,2	21,138,2	23,69,2	25,147,2	27,177,2	29,97,2	31,145,2	33,53,2	35,158,2	37,31,2	44,35,2	46,59,2	67,93,2	73,46,2	179,171,2	205,115,2	220,21,2	259,25,2	261,41,2	268,71,2	279,74,2	281,188,2	285,61,2	293,174,2	295,181,2	297,34,2	308,112,2	313,120,2	315,124,2	319,153,2	322,160,2	326,90,2	328,106,2	330,117,2	332,119,2	334,122,2	338,144,2	343,38,2	353,79,2	355,125,2	358,128,2	360,130,2	362,133,2	369,137,2	380,139,2	384,159,2	386,27,2	394,50,2	396,51,2	400,82,2	402,83,2	404,121,2	406,127,2	408,141,2	410,194,2	412,199,2	
# Incoming
1,(0, 1),3	4,(0, 2),3	7,(0, 5),3	16,(0, 10),3	19,(0, 12),3	22,(0, 13),3	40,(19, 26),5	45,(19, 33),652	697,(8, 37),2	699,(8, 66),8	707,(8, 67),6	713,(8, 89),1	714,(19, 47),5	719,(8, 113),3	722,(8, 134),13	735,(19, 73),109	844,(40, 201),1	845,(65, 201),1	846,(19, 91),32	878,(8, 142),5	883,(9, 49),11	894,(9, 89),1	895,(9, 178),1	896,(19, 104),1	897,(19, 113),2	899,(19, 114),1	900,(19, 131),1	901,(9, 187),2	903,(15, 26),1	904,(15, 47),1	905,(15, 63),1	906,(15, 154),1	907,(19, 142),8	915,(19, 146),3	918,(15, 88),2	920,(22, 201),1	921,(167, 201),1	922,(19, 151),37	959,(19, 164),1	960,(99, 201),1	961,(19, 178),1	962,(19, 180),1	963,(9, 150),7	970,(15, 104),6	976,(123, 201),1	977,(7, 36),26	1003,(7, 37),4	1007,(7, 49),109	1116,(7, 55),1	1117,(16, 48),2	1119,(16, 49),1	1120,(7, 91),6	1126,(7, 95),7	1133,(7, 113),49	1182,(7, 129),1	1183,(7, 151),15	1198,(7, 156),3	1201,(14, 36),5	1206,(9, 182),10	1216,(16, 33),4	1220,(14, 67),1	1221,(15, 73),15	1236,(16, 156),1	1237,(14, 108),2	1239,(14, 114),3	1242,(14, 143),33	1275,(14, 151),107	1382,(17, 37),1	1383,(14, 164),1	1384,(14, 169),2	1386,(14, 187),1	1387,(17, 47),1	1388,(4, 49),74	1462,(4, 67),11	1473,(4, 85),1	1474,(16, 104),2	1476,(17, 89),1	1477,(4, 88),1	1478,(9, 134),17	1495,(18, 37),1	1496,(18, 134),1	1497,(4, 129),4	1501,(18, 193),1	1502,(4, 134),1	1503,(4, 150),26	1529,(4, 168),9	1538,(15, 169),10	1548,(20, 105),1	1549,(4, 189),1	1550,(11, 44),16	1566,(11, 48),1	1567,(11, 52),2	1569,(16, 47),7	1576,(20, 26),2	1578,(11, 67),5	1583,(16, 66),5	1588,(20, 118),1	1589,(20, 151),1	1590,(11, 103),23	1613,(11, 105),5	1618,(16, 67),8	1626,(16, 180),5	1631,(165, 201),1	1632,(11, 114),1	1633,(16, 126),8	1641,(16, 187),5	1646,(24, 201),1	1647,(185, 201),1	1648,(11, 163),32	1680,(11, 168),28	1708,(11, 169),1	1709,(11, 179),2	1711,(30, 201),1	1712,(6, 55),9	1721,(17, 108),14	1735,(116, 201),1	1736,(6, 95),3	1739,(17, 164),3	1742,(186, 201),1	1743,(6, 129),1	1744,(6, 163),1	1745,(6, 164),1	1746,(198, 201),1	1747,(6, 170),4	1751,(17, 150),7	1758,(17, 187),8	1766,(6, 180),13	1779,(6, 182),30	1809,(23, 201),1	1810,(6, 187),7	1817,(8, 150),110	1927,(8, 168),33	1960,(8, 182),92	2052,(8, 187),50	2102,(3, 75),1	2103,(3, 89),1	2104,(3, 96),1	2105,(3, 131),1	2106,(3, 142),4	2110,(3, 143),7	2117,(3, 150),1	2118,(135, 201),1	2119,(92, 201),1	2120,(28, 201),1	2121,(138, 201),1	2122,(69, 201),1	2123,(147, 201),1	2124,(177, 201),1	2125,(15, 36),81	2206,(15, 108),16	2222,(97, 201),1	2223,(145, 201),1	2224,(53, 201),1	2225,(158, 201),1	2226,(31, 201),1	2227,(16, 113),32	2259,(16, 114),17	2276,(17, 193),13	2289,(18, 47),112	2401,(18, 49),5	2406,(18, 75),15	2421,(18, 89),9	2430,(18, 103),7	2437,(18, 104),38	2475,(18, 108),67	2542,(20, 36),5	2547,(20, 163),238	2785,(20, 164),7	2792,(20, 179),4	2796,(20, 180),89	2885,(20, 182),3	2888,(20, 187),30	2918,(35, 201),1	2919,(59, 201),1	2920,(45, 201),1	2921,(93, 201),1	2922,(46, 201),1	2923,(152, 201),1	2924,(32, 201),1	2925,(171, 201),1	2926,(56, 201),1	2927,(68, 201),1	2928,(29, 201),1	2929,(155, 201),1	2930,(115, 201),1	2931,(176, 201),1	2932,(21, 201),1	2933,(25, 201),1	2934,(41, 201),1	2935,(71, 201),1	2936,(74, 201),1	2937,(188, 201),1	2938,(61, 201),1	2939,(174, 201),1	2940,(181, 201),1	2941,(34, 201),1	2942,(112, 201),1	2943,(120, 201),1	2944,(124, 201),1	2945,(153, 201),1	2946,(160, 201),1	2947,(90, 201),1	2948,(106, 201),1	2949,(117, 201),1	2950,(119, 201),1	2951,(122, 201),1	2952,(144, 201),1	2953,(38, 201),1	2954,(79, 201),1	2955,(125, 201),1	2956,(128, 201),1	2957,(130, 201),1	2958,(133, 201),1	2959,(137, 201),1	2960,(139, 201),1	2961,(159, 201),1	2962,(27, 201),1	2963,(50, 201),1	2964,(51, 201),1	2965,(82, 201),1	2966,(83, 201),1	2967,(121, 201),1	2968,(127, 201),1	2969,(141, 201),1	2970,(194, 201),1	2971,(199, 201),1	2972,(39, 201),1	2973,(43, 201),1	2974,(84, 201),1	2975,(98, 201),1	2976,(148, 201),1	2977,(196, 201),1	2978,(197, 201),1	2979,(62, 201),1	2980,(64, 201),1	2981,(42, 201),1	2982,(101, 201),1	2983,(162, 201),1	2984,(190, 201),1	2985,(86, 201),1	2986,(109, 201),1	2987,(132, 201),1	2988,(175, 201),1	2989,(58, 201),1	2990,(76, 201),1	2991,(77, 201),1	2992,(81, 201),1	2993,(110, 201),1	2994,(140, 201),1	2995,(200, 201),1	2996,(57, 201),1	2997,(70, 201),1	2998,(107, 201),1	2999,(166, 201),1	3000,(172, 201),1	3001,(183, 201),1	3002,(195, 201),1	3003,(60, 201),1	3004,(78, 201),1	3005,(100, 201),1	3006,(136, 201),1	3007,(149, 201),1	3008,(157, 201),1	3009,(173, 201),1	3010,(191, 201),1	
10,(0, 8),3	13,(0, 9),3	23,(1, 32),1	25,(0, 15),3	28,(0, 16),3	31,(0, 17),3	34,(0, 18),3	37,(0, 20),3	40,(1, 57),3	43,(1, 84),7	50,(1, 136),1	51,(1, 149),1	52,(2, 45),1	53,(2, 56),1	67,(2, 98),5	72,(2, 100),1	88,(2, 155),4	92,(5, 57),3	95,(5, 60),5	155,(5, 152),7	162,(5, 183),1	163,(10, 29),4	167,(10, 32),9	176,(10, 56),9	185,(10, 60),1	186,(10, 68),2	188,(10, 191),1	189,(10, 197),1	190,(12, 29),1	191,(12, 42),2	193,(12, 149),1	194,(12, 155),3	197,(12, 196),5	202,(13, 101),1	203,(13, 148),4	207,(13, 162),5	212,(13, 176),2	269,(13, 172),11	697,(19, 39),2	699,(19, 43),15	719,(19, 70),16	844,(19, 84),2	878,(19, 98),18	901,(19, 132),6	918,(19, 148),4	960,(19, 175),1	963,(19, 183),5	968,(19, 196),1	969,(19, 197),8	1117,(7, 62),2	1119,(7, 64),1	1206,(14, 42),3	1209,(14, 58),4	1213,(14, 60),7	1221,(14, 101),16	1382,(14, 162),1	1387,(14, 190),1	1474,(4, 86),3	1478,(4, 107),9	1487,(4, 109),10	1501,(4, 132),1	1538,(4, 175),11	1569,(11, 58),9	1583,(11, 76),5	1588,(11, 77),1	1589,(11, 81),1	1618,(11, 110),14	1633,(11, 140),15	1711,(11, 200),1	1721,(6, 57),8	1729,(6, 70),7	1739,(6, 107),4	1746,(6, 166),1	1751,(6, 172),14	1765,(6, 173),1	1809,(6, 183),1	1817,(6, 191),6	1823,(6, 195),3	1826,(3, 60),16	1842,(3, 78),1	1843,(3, 100),4	1847,(3, 136),1	1848,(3, 149),1	1849,(3, 157),1	1850,(3, 173),4	1854,(3, 191),7	
6,(1, 31),17	24,(1, 61),2	26,(1, 121),1	27,(1, 137),1	28,(1, 153),1	29,(2, 61),11	40,(8, 21),2	42,(8, 34),1	43,(8, 35),1	44,(8, 59),1	45,(8, 127),1	46,(8, 139),3	49,(9, 41),1	50,(9, 51),1	51,(9, 119),1	52,(15, 51),2	54,(2, 79),9	63,(2, 93),4	67,(9, 46),6	73,(2, 115),12	85,(2, 128),2	87,(2, 137),1	88,(9, 27),7	95,(15, 50),5	100,(5, 61),25	125,(5, 119),6	131,(5, 122),1	132,(5, 137),23	155,(8, 171),24	179,(9, 112),17	196,(9, 115),9	205,(9, 181),11	216,(10, 21),4	220,(10, 41),1	221,(10, 188),1	222,(12, 41),2	224,(12, 61),4	228,(12, 117),3	231,(12, 120),1	232,(12, 122),2	234,(12, 139),21	255,(12, 144),1	256,(12, 194),2	258,(13, 25),1	259,(13, 41),2	261,(13, 71),7	268,(13, 139),1	269,(15, 38),8	277,(15, 74),2	279,(15, 82),1	280,(13, 188),1	281,(15, 61),4	285,(15, 130),6	291,(15, 160),1	292,(15, 174),1	293,(15, 181),1	294,(16, 34),1	295,(16, 112),13	308,(16, 119),3	311,(16, 120),2	313,(16, 124),1	314,(16, 141),1	315,(16, 153),4	319,(16, 160),3	322,(17, 90),4	326,(17, 106),1	327,(17, 117),2	329,(17, 119),1	330,(17, 122),1	331,(17, 133),2	333,(17, 139),4	337,(17, 144),1	338,(18, 38),5	343,(18, 79),10	353,(18, 125),1	354,(18, 128),4	358,(18, 130),1	359,(18, 133),1	360,(18, 137),9	369,(18, 139),11	380,(18, 159),4	384,(20, 27),1	385,(20, 50),9	394,(20, 51),1	395,(20, 82),5	400,(20, 83),1	401,(20, 121),1	402,(20, 127),2	404,(20, 141),1	405,(20, 194),1	406,(20, 199),3	
# Outgoing
6,(1, 31),17	23,(1, 32),1	24,(1, 61),2	26,(1, 121),1	27,(1, 137),1	28,(1, 153),1	29,(2, 61),11	40,(1, 57),3	43,(1, 84),7	50,(1, 136),1	51,(1, 149),1	52,(2, 45),1	53,(2, 56),1	54,(2, 79),9	63,(2, 93),4	67,(2, 98),5	72,(2, 100),1	73,(2, 115),12	85,(2, 128),2	87,(2, 137),1	88,(2, 155),4	92,(5, 57),3	95,(5, 60),5	100,(5, 61),25	125,(5, 119),6	131,(5, 122),1	132,(5, 137),23	155,(5, 152),7	162,(5, 183),1	163,(10, 29),4	167,(10, 32),9	176,(10, 56),9	185,(10, 60),1	186,(10, 68),2	188,(10, 191),1	189,(10, 197),1	190,(12, 29),1	191,(12, 42),2	193,(12, 149),1	194,(12, 155),3	197,(12, 196),5	202,(13, 101),1	203,(13, 148),4	207,(13, 162),5	212,(13, 176),2	216,(10, 21),4	220,(10, 41),1	221,(10, 188),1	222,(12, 41),2	224,(12, 61),4	228,(12, 117),3	231,(12, 120),1	232,(12, 122),2	234,(12, 139),21	255,(12, 144),1	256,(12, 194),2	258,(13, 25),1	259,(13, 41),2	261,(13, 71),7	268,(13, 139),1	269,(13, 172),11	280,(13, 188),1	
40,(8, 21),2	42,(8, 34),1	43,(8, 35),1	44,(8, 59),1	45,(8, 127),1	46,(8, 139),3	49,(9, 41),1	50,(9, 51),1	51,(9, 119),1	52,(15, 51),2	67,(9, 46),6	88,(9, 27),7	95,(15, 50),5	155,(8, 171),24	179,(9, 112),17	196,(9, 115),9	205,(9, 181),11	269,(15, 38),8	277,(15, 74),2	279,(15, 82),1	281,(15, 61),4	285,(15, 130),6	291,(15, 160),1	292,(15, 174),1	293,(15, 181),1	294,(16, 34),1	295,(16, 112),13	308,(16, 119),3	311,(16, 120),2	313,(16, 124),1	314,(16, 141),1	315,(16, 153),4	319,(16, 160),3	322,(17, 90),4	326,(17, 106),1	327,(17, 117),2	329,(17, 119),1	330,(17, 122),1	331,(17, 133),2	333,(17, 139),4	337,(17, 144),1	338,(18, 38),5	343,(18, 79),10	353,(18, 125),1	354,(18, 128),4	358,(18, 130),1	359,(18, 133),1	360,(18, 137),9	369,(18, 139),11	380,(18, 159),4	384,(20, 27),1	385,(20, 50),9	394,(20, 51),1	395,(20, 82),5	400,(20, 83),1	401,(20, 121),1	402,(20, 127),2	404,(20, 141),1	405,(20, 194),1	406,(20, 199),3	697,(8, 37),2	699,(8, 66),8	707,(8, 67),6	713,(8, 89),1	719,(8, 113),3	722,(8, 134),13	844,(40, 201),1	845,(65, 201),1	878,(8, 142),5	883,(9, 49),11	894,(9, 89),1	895,(9, 178),1	901,(9, 187),2	903,(15, 26),1	904,(15, 47),1	905,(15, 63),1	906,(15, 154),1	918,(15, 88),2	920,(22, 201),1	921,(167, 201),1	960,(99, 201),1	963,(9, 150),7	970,(15, 104),6	976,(123, 201),1	1117,(16, 48),2	1119,(16, 49),1	1206,(9, 182),10	1216,(16, 33),4	1221,(15, 73),15	1236,(16, 156),1	1382,(17, 37),1	1387,(17, 47),1	1474,(16, 104),2	1476,(17, 89),1	1478,(9, 134),17	1495,(18, 37),1	1496,(18, 134),1	1501,(18, 193),1	1538,(15, 169),10	1548,(20, 105),1	1569,(16, 47),7	1576,(20, 26),2	1583,(16, 66),5	1588,(20, 118),1	1589,(20, 151),1	1618,(16, 67),8	1626,(16, 180),5	1631,(165, 201),1	1633,(16, 126),8	1641,(16, 187),5	1646,(24, 201),1	1647,(185, 201),1	1711,(30, 201),1	1721,(17, 108),14	1735,(116, 201),1	1739,(17, 164),3	1742,(186, 201),1	1746,(198, 201),1	1751,(17, 150),7	1758,(17, 187),8	1809,(23, 201),1	1817,(8, 150),110	1927,(8, 168),33	1960,(8, 182),92	2052,(8, 187),50	2125,(15, 36),81	2206,(15, 108),16	2227,(16, 113),32	2259,(16, 114),17	2276,(17, 193),13	2289,(18, 47),112	2401,(18, 49),5	2406,(18, 75),15	2421,(18, 89),9	2430,(18, 103),7	2437,(18, 104),38	2475,(18, 108),67	2542,(20, 36),5	2547,(20, 163),238	2785,(20, 164),7	2792,(20, 179),4	2796,(20, 180),89	2885,(20, 182),3	2888,(20, 187),30	2920,(45, 201),1	2923,(152, 201),1	2924,(32, 201),1	2926,(56, 201),1	2927,(68, 201),1	2928,(29, 201),1	2929,(155, 201),1	2931,(176, 201),1	2972,(39, 201),1	2973,(43, 201),1	2974,(84, 201),1	2975,(98, 201),1	2976,(148, 201),1	2977,(196, 201),1	2978,(197, 201),1	2979,(62, 201),1	2980,(64, 201),1	2981,(42, 201),1	2982,(101, 201),1	2983,(162, 201),1	2984,(190, 201),1	2985,(86, 201),1	2986,(109, 201),1	2987,(132, 201),1	2988,(175, 201),1	2989,(58, 201),1	2990,(76, 201),1	2991,(77, 201),1	2992,(81, 201),1	2993,(110, 201),1	2994,(140, 201),1	2995,(200, 201),1	2996,(57, 201),1	2997,(70, 201),1	2998,(107, 201),1	2999,(166, 201),1	3000,(172, 201),1	3001,(183, 201),1	3002,(195, 201),1	3003,(60, 201),1	3004,(78, 201),1	3005,(100, 201),1	3006,(136, 201),1	3007,(149, 201),1	3008,(157, 201),1	3009,(173, 201),1	3010,(191, 201),1	
1,(0, 1),3	4,(0, 2),3	7,(0, 5),3	10,(0, 8),3	13,(0, 9),3	16,(0, 10),3	19,(0, 12),3	22,(0, 13),3	25,(0, 15),3	28,(0, 16),3	31,(0, 17),3	34,(0, 18),3	37,(0, 20),3	40,(19, 26),5	45,(19, 33),652	697,(19, 39),2	699,(19, 43),15	714,(19, 47),5	719,(19, 70),16	735,(19, 73),109	844,(19, 84),2	846,(19, 91),32	878,(19, 98),18	896,(19, 104),1	897,(19, 113),2	899,(19, 114),1	900,(19, 131),1	901,(19, 132),6	907,(19, 142),8	915,(19, 146),3	918,(19, 148),4	922,(19, 151),37	959,(19, 164),1	960,(19, 175),1	961,(19, 178),1	962,(19, 180),1	963,(19, 183),5	968,(19, 196),1	969,(19, 197),8	977,(7, 36),26	1003,(7, 37),4	1007,(7, 49),109	1116,(7, 55),1	1117,(7, 62),2	1119,(7, 64),1	1120,(7, 91),6	1126,(7, 95),7	1133,(7, 113),49	1182,(7, 129),1	1183,(7, 151),15	1198,(7, 156),3	1201,(14, 36),5	1206,(14, 42),3	1209,(14, 58),4	1213,(14, 60),7	1220,(14, 67),1	1221,(14, 101),16	1237,(14, 108),2	1239,(14, 114),3	1242,(14, 143),33	1275,(14, 151),107	1382,(14, 162),1	1383,(14, 164),1	1384,(14, 169),2	1386,(14, 187),1	1387,(14, 190),1	1388,(4, 49),74	1462,(4, 67),11	1473,(4, 85),1	1474,(4, 86),3	1477,(4, 88),1	1478,(4, 107),9	1487,(4, 109),10	1497,(4, 129),4	1501,(4, 132),1	1502,(4, 134),1	1503,(4, 150),26	1529,(4, 168),9	1538,(4, 175),11	1549,(4, 189),1	1550,(11, 44),16	1566,(11, 48),1	1567,(11, 52),2	1569,(11, 58),9	1578,(11, 67),5	1583,(11, 76),5	1588,(11, 77),1	1589,(11, 81),1	1590,(11, 103),23	1613,(11, 105),5	1618,(11, 110),14	1632,(11, 114),1	1633,(11, 140),15	1648,(11, 163),32	1680,(11, 168),28	1708,(11, 169),1	1709,(11, 179),2	1711,(11, 200),1	1712,(6, 55),9	1721,(6, 57),8	1729,(6, 70),7	1736,(6, 95),3	1739,(6, 107),4	1743,(6, 129),1	1744,(6, 163),1	1745,(6, 164),1	1746,(6, 166),1	1747,(6, 170),4	1751,(6, 172),14	1765,(6, 173),1	1766,(6, 180),13	1779,(6, 182),30	1809,(6, 183),1	1810,(6, 187),7	1817,(6, 191),6	1823,(6, 195),3	1826,(3, 60),16	1842,(3, 78),1	1843,(3, 100),4	1847,(3, 136),1	1848,(3, 149),1	1849,(3, 157),1	1850,(3, 173),4	1854,(3, 191),7	2102,(3, 75),1	2103,(3, 89),1	2104,(3, 96),1	2105,(3, 131),1	2106,(3, 142),4	2110,(3, 143),7	2117,(3, 150),1	2118,(135, 201),1	2119,(92, 201),1	2120,(28, 201),1	2121,(138, 201),1	2122,(69, 201),1	2123,(147, 201),1	2124,(177, 201),1	2222,(97, 201),1	2223,(145, 201),1	2224,(53, 201),1	2225,(158, 201),1	2226,(31, 201),1	2918,(35, 201),1	2919,(59, 201),1	2921,(93, 201),1	2922,(46, 201),1	2925,(171, 201),1	2930,(115, 201),1	2932,(21, 201),1	2933,(25, 201),1	2934,(41, 201),1	2935,(71, 201),1	2936,(74, 201),1	2937,(188, 201),1	2938,(61, 201),1	2939,(174, 201),1	2940,(181, 201),1	2941,(34, 201),1	2942,(112, 201),1	2943,(120, 201),1	2944,(124, 201),1	2945,(153, 201),1	2946,(160, 201),1	2947,(90, 201),1	2948,(106, 201),1	2949,(117, 201),1	2950,(119, 201),1	2951,(122, 201),1	2952,(144, 201),1	2953,(38, 201),1	2954,(79, 201),1	2955,(125, 201),1	2956,(128, 201),1	2957,(130, 201),1	2958,(133, 201),1	2959,(137, 201),1	2960,(139, 201),1	2961,(159, 201),1	2962,(27, 201),1	2963,(50, 201),1	2964,(51, 201),1	2965,(82, 201),1	2966,(83, 201),1	2967,(121, 201),1	2968,(127, 201),1	2969,(141, 201),1	2970,(194, 201),1	2971,(199, 201),1	
