313
# CPU
0,0,1	1,2,2	3,112,2	5,118,2	7,11,2	9,33,2	11,90,2	13,59,2	15,3,2	17,69,2	19,95,2	21,18,2	23,31,2	25,1,2	27,93,2	29,117,2	31,37,2	33,12,2	35,34,2	37,67,2	39,48,2	41,74,2	43,38,2	45,7,2	47,88,2	49,107,2	51,82,2	53,42,2	55,92,2	57,102,2	59,23,2	61,9,2	63,91,2	65,66,2	67,113,2	69,60,2	71,36,2	73,111,2	75,19,2	77,71,2	79,115,2	81,87,2	83,81,2	85,16,2	87,5,2	89,26,2	91,40,2	93,75,2	95,86,2	97,94,2	99,53,2	101,99,2	103,51,2	105,80,2	107,83,2	109,105,2	111,6,2	113,50,2	115,109,2	117,55,2	119,61,2	121,25,2	123,106,2	125,104,2	127,96,2	129,72,2	131,78,2	133,8,2	135,28,2	137,47,2	139,20,2	141,101,2	143,35,2	145,103,2	147,43,2	149,22,2	151,57,2	153,63,2	155,29,2	157,97,2	159,10,2	161,13,2	163,120,2	165,84,2	167,54,2	169,24,2	171,100,2	173,17,2	175,39,2	177,70,2	179,30,2	181,56,2	183,77,2	185,119,2	187,85,2	189,79,2	191,62,2	193,114,2	195,98,2	197,116,2	199,46,2	201,73,2	203,76,2	205,44,2	207,52,2	312,121,1	
22,4,2	24,110,2	26,32,2	31,64,2	50,14,2	62,68,2	74,108,2	86,45,2	92,65,2	98,58,2	116,21,2	134,89,2	138,41,2	141,27,2	153,49,2	189,15,2	



# Incoming
24,(4, 85),3	27,(4, 79),3	30,(4, 62),6	36,(4, 114),9	45,(4, 98),9	54,(4, 116),9	63,(4, 46),9	72,(4, 73),21	93,(4, 76),24	117,(4, 44),30	147,(4, 52),30	177,(110, 121),9	186,(32, 121),9	195,(64, 121),9	204,(14, 121),9	213,(68, 121),9	222,(108, 121),9	231,(45, 121),9	240,(65, 121),9	249,(58, 121),9	258,(21, 121),9	267,(89, 121),9	276,(41, 121),9	285,(27, 121),9	294,(49, 121),9	303,(15, 121),9	
1,(0, 4),21	22,(3, 32),3	25,(2, 64),6	31,(1, 45),3	35,(12, 68),3	38,(1, 21),6	47,(7, 14),3	50,(7, 68),12	62,(7, 108),3	65,(9, 108),9	74,(9, 45),12	86,(7, 89),3	89,(5, 65),3	92,(5, 58),6	98,(5, 27),15	113,(6, 21),3	116,(6, 89),18	135,(8, 41),3	138,(8, 27),3	141,(8, 49),12	153,(3, 15),6	159,(12, 15),27	186,(6, 15),3	



# Outgoing
1,(0, 4),21	22,(3, 32),3	25,(2, 64),6	31,(1, 45),3	35,(12, 68),3	38,(1, 21),6	47,(7, 14),3	50,(7, 68),12	62,(7, 108),3	65,(9, 108),9	74,(9, 45),12	86,(7, 89),3	89,(5, 65),3	92,(5, 58),6	98,(5, 27),15	113,(6, 21),3	116,(6, 89),18	135,(8, 41),3	138,(8, 27),3	141,(8, 49),12	153,(3, 15),6	159,(12, 15),27	186,(6, 15),3	
24,(4, 85),3	27,(4, 79),3	30,(4, 62),6	36,(4, 114),9	45,(4, 98),9	54,(4, 116),9	63,(4, 46),9	72,(4, 73),21	93,(4, 76),24	117,(4, 44),30	147,(4, 52),30	177,(110, 121),9	186,(32, 121),9	195,(64, 121),9	204,(14, 121),9	213,(68, 121),9	222,(108, 121),9	231,(45, 121),9	240,(65, 121),9	249,(58, 121),9	258,(21, 121),9	267,(89, 121),9	276,(41, 121),9	285,(27, 121),9	294,(49, 121),9	303,(15, 121),9	



