6050
# CPU
1791,36,7	2659,18,7	2666,22,7	2673,24,7	2707,39,7	2715,52,7	2727,69,7	3259,11,7	3313,16,7	3367,27,7	3707,44,7	3821,46,7	3867,66,7	3963,73,7	3987,10,7	4047,41,7	4069,56,7	6049,81,1	
271,7,7	285,12,7	441,78,7	448,15,7	455,60,7	462,49,7	1767,40,7	2085,48,7	2155,67,7	2189,9,7	2505,58,7	2512,65,7	2679,29,7	2713,50,7	2727,62,7	2771,80,7	
0,0,1	1,8,7	8,6,7	15,5,7	22,42,7	29,68,7	36,35,7	43,57,7	50,76,7	457,28,7	487,51,7	494,70,7	501,59,7	508,47,7	515,26,7	522,37,7	
55,1,7	62,17,7	69,74,7	109,2,7	116,14,7	123,61,7	280,19,7	439,33,7	453,34,7	460,21,7	1791,43,7	2101,55,7	2171,77,7	2327,30,7	2507,63,7	2729,64,7	
163,3,7	217,4,7	224,45,7	284,20,7	427,32,7	475,75,7	2089,53,7	2157,72,7	2321,23,7	2328,25,7	2533,71,7	2551,79,7	2603,13,7	2689,31,7	2696,38,7	2719,54,7	
# Incoming
291,(8, 18),132	423,(8, 27),2	425,(1, 10),4	429,(3, 18),2	431,(3, 39),2	435,(1, 24),16	451,(3, 52),2	453,(8, 36),636	1089,(1, 27),14	1103,(8, 39),624	1727,(1, 16),42	1769,(1, 39),2	1771,(1, 46),8	1779,(2, 18),4	1783,(2, 46),2	1785,(3, 56),4	1789,(4, 36),2	1791,(8, 46),292	2083,(1, 52),20	2103,(8, 66),2	2105,(17, 81),44	2149,(3, 69),4	2157,(8, 73),10	2167,(2, 24),14	2181,(4, 22),8	2189,(6, 10),20	2209,(6, 16),6	2215,(6, 18),88	2303,(6, 22),12	2315,(4, 16),12	2327,(6, 39),2	2329,(6, 44),60	2389,(6, 46),18	2407,(6, 52),48	2455,(6, 56),46	2511,(6, 69),14	2533,(6, 73),16	2549,(7, 22),12	2561,(5, 11),40	2603,(5, 18),56	2659,(5, 22),6	2665,(5, 24),8	2673,(4, 44),18	2691,(5, 39),16	2707,(5, 41),4	2713,(5, 52),2	2715,(7, 69),12	2729,(5, 73),40	2771,(42, 81),44	2815,(68, 81),44	2859,(35, 81),44	2903,(57, 81),44	2947,(76, 81),44	2991,(1, 66),118	3109,(74, 81),44	3153,(2, 10),50	3203,(2, 11),56	3259,(2, 16),54	3313,(2, 27),54	3367,(2, 41),202	3569,(2, 44),138	3707,(14, 81),44	3751,(61, 81),44	3795,(3, 46),26	3821,(3, 66),46	3867,(3, 73),96	3963,(4, 10),24	3987,(45, 81),44	4031,(7, 41),16	4047,(7, 56),22	4069,(19, 81),44	4113,(20, 81),44	4157,(12, 81),44	4201,(32, 81),44	4245,(33, 81),44	4289,(78, 81),44	4333,(15, 81),44	4377,(34, 81),44	4421,(60, 81),44	4465,(28, 81),44	4509,(21, 81),44	4553,(49, 81),44	4597,(75, 81),44	4641,(51, 81),44	4685,(70, 81),44	4729,(59, 81),44	4773,(47, 81),44	4817,(26, 81),44	4861,(37, 81),44	4905,(40, 81),44	4949,(43, 81),44	4993,(48, 81),44	5037,(53, 81),44	5081,(55, 81),44	5125,(67, 81),44	5169,(72, 81),44	5213,(77, 81),44	5257,(9, 81),44	5301,(23, 81),44	5345,(30, 81),44	5389,(25, 81),44	5433,(58, 81),44	5477,(63, 81),44	5521,(65, 81),44	5565,(71, 81),44	5609,(79, 81),44	5653,(13, 81),44	5697,(29, 81),44	5741,(31, 81),44	5785,(38, 81),44	5829,(50, 81),44	5873,(54, 81),44	5917,(62, 81),44	5961,(64, 81),44	6005,(80, 81),44	
217,(0, 7),54	271,(8, 9),8	279,(8, 12),6	285,(8, 15),6	433,(3, 40),2	435,(3, 60),4	439,(3, 78),2	441,(4, 15),2	443,(4, 60),4	447,(4, 65),2	457,(1, 49),4	463,(4, 80),8	475,(2, 9),2	479,(2, 40),6	1727,(8, 40),40	2083,(8, 48),2	2105,(8, 67),50	2185,(8, 80),2	2187,(6, 9),2	2501,(6, 58),4	2507,(6, 65),4	2551,(6, 80),10	2673,(5, 29),6	2711,(5, 50),2	2719,(5, 62),8	2769,(5, 80),2	
451,(1, 26),2	453,(1, 28),4	457,(4, 51),4	461,(1, 59),10	471,(3, 26),6	477,(2, 37),2	479,(3, 51),6	485,(2, 51),2	487,(2, 59),2	489,(2, 70),2	491,(3, 59),6	497,(4, 47),10	507,(7, 26),4	511,(7, 37),6	
1,(0, 1),54	55,(0, 2),54	278,(7, 19),2	292,(7, 30),2	300,(7, 63),2	427,(8, 33),12	439,(8, 34),14	453,(3, 55),2	455,(4, 21),2	461,(4, 55),2	1767,(8, 43),24	2089,(8, 55),12	2101,(8, 64),2	2167,(8, 77),4	2325,(6, 30),2	2505,(6, 63),2	2727,(5, 64),2	
109,(0, 3),54	163,(0, 4),54	280,(7, 20),4	284,(7, 23),6	290,(7, 25),2	294,(7, 54),6	302,(7, 75),2	425,(8, 32),2	429,(1, 13),6	471,(1, 75),4	1089,(8, 38),14	2085,(8, 53),4	2155,(8, 72),2	2171,(8, 79),14	2315,(6, 23),6	2321,(6, 25),4	2525,(6, 71),8	2549,(6, 79),2	2601,(5, 13),2	2679,(5, 31),10	2689,(5, 38),2	2715,(5, 54),4	
# Outgoing

278,(7, 19),2	280,(7, 20),4	284,(7, 23),6	290,(7, 25),2	292,(7, 30),2	294,(7, 54),6	300,(7, 63),2	302,(7, 75),2	507,(7, 26),4	511,(7, 37),6	2549,(7, 22),12	2715,(7, 69),12	4031,(7, 41),16	4047,(7, 56),22	4157,(12, 81),44	4289,(78, 81),44	4333,(15, 81),44	4421,(60, 81),44	4553,(49, 81),44	4905,(40, 81),44	4993,(48, 81),44	5125,(67, 81),44	5257,(9, 81),44	5433,(58, 81),44	5521,(65, 81),44	5697,(29, 81),44	5829,(50, 81),44	5917,(62, 81),44	6005,(80, 81),44	
1,(0, 1),54	55,(0, 2),54	109,(0, 3),54	163,(0, 4),54	217,(0, 7),54	271,(8, 9),8	279,(8, 12),6	285,(8, 15),6	291,(8, 18),132	423,(8, 27),2	425,(8, 32),2	427,(8, 33),12	439,(8, 34),14	453,(8, 36),636	1089,(8, 38),14	1103,(8, 39),624	1727,(8, 40),40	1767,(8, 43),24	1791,(8, 46),292	2083,(8, 48),2	2085,(8, 53),4	2089,(8, 55),12	2101,(8, 64),2	2103,(8, 66),2	2105,(8, 67),50	2155,(8, 72),2	2157,(8, 73),10	2167,(8, 77),4	2171,(8, 79),14	2185,(8, 80),2	2187,(6, 9),2	2189,(6, 10),20	2209,(6, 16),6	2215,(6, 18),88	2303,(6, 22),12	2315,(6, 23),6	2321,(6, 25),4	2325,(6, 30),2	2327,(6, 39),2	2329,(6, 44),60	2389,(6, 46),18	2407,(6, 52),48	2455,(6, 56),46	2501,(6, 58),4	2505,(6, 63),2	2507,(6, 65),4	2511,(6, 69),14	2525,(6, 71),8	2533,(6, 73),16	2549,(6, 79),2	2551,(6, 80),10	2561,(5, 11),40	2601,(5, 13),2	2603,(5, 18),56	2659,(5, 22),6	2665,(5, 24),8	2673,(5, 29),6	2679,(5, 31),10	2689,(5, 38),2	2691,(5, 39),16	2707,(5, 41),4	2711,(5, 50),2	2713,(5, 52),2	2715,(5, 54),4	2719,(5, 62),8	2727,(5, 64),2	2729,(5, 73),40	2769,(5, 80),2	2771,(42, 81),44	2815,(68, 81),44	2859,(35, 81),44	2903,(57, 81),44	2947,(76, 81),44	4465,(28, 81),44	4641,(51, 81),44	4685,(70, 81),44	4729,(59, 81),44	4773,(47, 81),44	4817,(26, 81),44	4861,(37, 81),44	
425,(1, 10),4	429,(1, 13),6	435,(1, 24),16	451,(1, 26),2	453,(1, 28),4	457,(1, 49),4	461,(1, 59),10	471,(1, 75),4	475,(2, 9),2	477,(2, 37),2	479,(2, 40),6	485,(2, 51),2	487,(2, 59),2	489,(2, 70),2	1089,(1, 27),14	1727,(1, 16),42	1769,(1, 39),2	1771,(1, 46),8	1779,(2, 18),4	1783,(2, 46),2	2083,(1, 52),20	2105,(17, 81),44	2167,(2, 24),14	2991,(1, 66),118	3109,(74, 81),44	3153,(2, 10),50	3203,(2, 11),56	3259,(2, 16),54	3313,(2, 27),54	3367,(2, 41),202	3569,(2, 44),138	3707,(14, 81),44	3751,(61, 81),44	4069,(19, 81),44	4245,(33, 81),44	4377,(34, 81),44	4509,(21, 81),44	4949,(43, 81),44	5081,(55, 81),44	5213,(77, 81),44	5345,(30, 81),44	5477,(63, 81),44	5961,(64, 81),44	
429,(3, 18),2	431,(3, 39),2	433,(3, 40),2	435,(3, 60),4	439,(3, 78),2	441,(4, 15),2	443,(4, 60),4	447,(4, 65),2	451,(3, 52),2	453,(3, 55),2	455,(4, 21),2	457,(4, 51),4	461,(4, 55),2	463,(4, 80),8	471,(3, 26),6	479,(3, 51),6	491,(3, 59),6	497,(4, 47),10	1785,(3, 56),4	1789,(4, 36),2	2149,(3, 69),4	2181,(4, 22),8	2315,(4, 16),12	2673,(4, 44),18	3795,(3, 46),26	3821,(3, 66),46	3867,(3, 73),96	3963,(4, 10),24	3987,(45, 81),44	4113,(20, 81),44	4201,(32, 81),44	4597,(75, 81),44	5037,(53, 81),44	5169,(72, 81),44	5301,(23, 81),44	5389,(25, 81),44	5565,(71, 81),44	5609,(79, 81),44	5653,(13, 81),44	5741,(31, 81),44	5785,(38, 81),44	5873,(54, 81),44	
