1421
# CPU
0,0,1	1,6,21	22,2,21	43,62,21	64,12,21	85,87,21	106,61,21	127,25,21	148,7,21	169,5,21	190,64,21	211,60,21	232,9,21	253,105,21	274,103,21	295,63,21	316,98,21	337,118,21	358,23,21	379,97,21	400,10,21	421,82,21	442,85,21	463,51,21	484,80,21	505,100,21	526,65,21	547,57,21	568,109,21	589,20,21	610,91,21	631,29,21	652,104,21	673,42,21	694,44,21	715,35,21	736,74,21	757,111,21	778,68,21	799,101,21	820,66,21	841,95,21	862,83,21	883,43,21	904,110,21	925,96,21	946,47,21	967,52,21	988,17,21	1009,89,21	1030,114,21	1051,77,21	1072,37,21	1093,81,21	1114,120,21	1135,13,21	1156,79,21	1177,119,21	1198,56,21	1219,107,21	1240,31,21	1261,117,21	
7,4,21	28,11,21	49,3,21	70,28,21	91,53,21	112,36,21	133,8,21	154,67,21	175,46,21	196,15,21	217,38,21	238,32,21	259,112,21	280,88,21	301,84,21	322,26,21	343,1,21	364,108,21	385,75,21	406,45,21	427,34,21	448,27,21	469,86,21	490,39,21	511,49,21	532,113,21	553,69,21	574,54,21	595,102,21	616,93,21	637,30,21	658,90,21	679,59,21	700,16,21	721,116,21	742,22,21	763,24,21	784,115,21	805,106,21	826,94,21	847,48,21	868,92,21	889,33,21	910,72,21	931,41,21	952,21,21	973,78,21	994,14,21	1015,18,21	1036,76,21	1057,55,21	1078,19,21	1099,99,21	1120,58,21	1141,40,21	1162,71,21	1183,70,21	1204,73,21	1225,50,21	1420,121,1	
# Incoming
364,(1, 57),1	365,(3, 109),1	366,(1, 20),1	367,(3, 91),1	368,(11, 29),1	369,(8, 104),1	370,(11, 42),1	371,(3, 44),1	372,(11, 35),1	373,(8, 74),2	375,(11, 111),2	377,(3, 68),2	379,(11, 101),2	381,(3, 101),1	382,(11, 66),1	383,(1, 66),2	385,(4, 95),2	387,(1, 95),1	388,(4, 83),3	391,(4, 43),1	392,(3, 43),2	394,(1, 110),3	397,(4, 96),2	399,(11, 96),2	401,(11, 47),5	406,(11, 52),5	411,(8, 17),6	417,(4, 89),7	424,(8, 89),1	425,(1, 89),1	426,(4, 114),5	431,(8, 114),4	435,(8, 77),3	438,(1, 77),6	444,(4, 37),2	446,(3, 37),7	453,(8, 37),1	454,(8, 81),14	468,(11, 120),1	469,(3, 120),2	471,(8, 120),8	479,(1, 120),12	491,(3, 13),10	501,(8, 13),6	507,(1, 13),8	515,(3, 79),2	517,(8, 79),18	535,(1, 79),6	541,(4, 119),1	542,(1, 119),25	567,(11, 56),24	591,(8, 56),9	600,(8, 107),36	636,(1, 107),7	643,(3, 31),69	712,(11, 117),1	713,(8, 117),114	
1,(0, 4),6	7,(0, 11),6	13,(0, 3),6	22,(6, 53),1	23,(0, 8),6	29,(6, 26),3	32,(0, 1),6	38,(6, 49),1	39,(6, 30),1	40,(6, 116),2	42,(6, 14),1	43,(2, 38),2	45,(2, 88),4	49,(2, 59),4	53,(6, 22),5	58,(6, 24),2	60,(6, 106),6	66,(2, 94),8	74,(6, 92),8	82,(6, 18),1	83,(6, 76),1	85,(12, 36),5	90,(12, 84),2	92,(12, 113),1	93,(12, 90),4	97,(12, 59),1	98,(12, 16),4	102,(12, 116),1	103,(2, 33),4	107,(6, 41),9	116,(2, 14),12	128,(2, 76),5	133,(2, 55),10	143,(2, 19),11	154,(2, 99),4	158,(6, 58),2	160,(12, 58),9	169,(7, 15),2	171,(7, 38),1	172,(7, 32),5	177,(7, 84),4	181,(7, 93),3	184,(7, 30),4	188,(7, 22),1	189,(7, 94),1	190,(5, 26),3	193,(5, 49),1	194,(5, 54),1	195,(5, 93),1	196,(7, 116),3	199,(7, 24),3	202,(5, 24),2	204,(5, 106),1	205,(5, 92),1	206,(7, 72),4	210,(5, 72),6	216,(7, 41),1	217,(5, 21),11	228,(7, 78),2	230,(5, 18),12	242,(5, 19),7	249,(12, 71),1	250,(7, 71),2	253,(9, 112),2	255,(9, 88),1	256,(9, 86),1	257,(9, 69),2	259,(9, 54),1	260,(9, 16),2	262,(9, 116),1	263,(9, 22),1	264,(9, 115),5	269,(9, 48),9	278,(9, 76),1	279,(9, 19),1	280,(7, 99),17	297,(2, 58),12	309,(2, 40),13	322,(5, 40),8	330,(2, 71),25	355,(12, 70),37	392,(7, 70),9	401,(6, 73),4	405,(5, 73),8	413,(12, 50),7	421,(10, 39),1	422,(10, 113),1	423,(10, 54),1	424,(10, 102),4	428,(10, 90),1	429,(10, 24),1	430,(10, 115),3	433,(10, 106),1	434,(10, 33),5	439,(10, 78),10	449,(10, 76),9	458,(10, 55),9	467,(10, 19),1	468,(10, 40),9	477,(10, 71),5	482,(2, 73),55	537,(2, 50),30	567,(5, 50),97	664,(62, 121),14	678,(87, 121),14	692,(61, 121),14	706,(25, 121),14	720,(64, 121),14	734,(60, 121),14	748,(105, 121),14	762,(103, 121),14	776,(63, 121),14	790,(98, 121),14	804,(118, 121),14	818,(23, 121),14	832,(97, 121),14	846,(82, 121),14	860,(85, 121),14	874,(51, 121),14	888,(80, 121),14	902,(100, 121),14	916,(65, 121),14	930,(57, 121),14	944,(109, 121),14	958,(20, 121),14	972,(91, 121),14	986,(29, 121),14	1000,(104, 121),14	1014,(42, 121),14	1028,(44, 121),14	1042,(35, 121),14	1056,(74, 121),14	1070,(111, 121),14	1084,(68, 121),14	1098,(101, 121),14	1112,(66, 121),14	1126,(95, 121),14	1140,(83, 121),14	1154,(43, 121),14	1168,(110, 121),14	1182,(96, 121),14	1196,(47, 121),14	1210,(52, 121),14	1224,(17, 121),14	1238,(89, 121),14	1252,(114, 121),14	1266,(77, 121),14	1280,(37, 121),14	1294,(81, 121),14	1308,(120, 121),14	1322,(13, 121),14	1336,(79, 121),14	1350,(119, 121),14	1364,(56, 121),14	1378,(107, 121),14	1392,(31, 121),14	1406,(117, 121),14	
# Outgoing
1,(0, 4),6	7,(0, 11),6	13,(0, 3),6	22,(6, 53),1	23,(0, 8),6	29,(6, 26),3	32,(0, 1),6	38,(6, 49),1	39,(6, 30),1	40,(6, 116),2	42,(6, 14),1	43,(2, 38),2	45,(2, 88),4	49,(2, 59),4	53,(6, 22),5	58,(6, 24),2	60,(6, 106),6	66,(2, 94),8	74,(6, 92),8	82,(6, 18),1	83,(6, 76),1	85,(12, 36),5	90,(12, 84),2	92,(12, 113),1	93,(12, 90),4	97,(12, 59),1	98,(12, 16),4	102,(12, 116),1	103,(2, 33),4	107,(6, 41),9	116,(2, 14),12	128,(2, 76),5	133,(2, 55),10	143,(2, 19),11	154,(2, 99),4	158,(6, 58),2	160,(12, 58),9	169,(7, 15),2	171,(7, 38),1	172,(7, 32),5	177,(7, 84),4	181,(7, 93),3	184,(7, 30),4	188,(7, 22),1	189,(7, 94),1	190,(5, 26),3	193,(5, 49),1	194,(5, 54),1	195,(5, 93),1	196,(7, 116),3	199,(7, 24),3	202,(5, 24),2	204,(5, 106),1	205,(5, 92),1	206,(7, 72),4	210,(5, 72),6	216,(7, 41),1	217,(5, 21),11	228,(7, 78),2	230,(5, 18),12	242,(5, 19),7	249,(12, 71),1	250,(7, 71),2	253,(9, 112),2	255,(9, 88),1	256,(9, 86),1	257,(9, 69),2	259,(9, 54),1	260,(9, 16),2	262,(9, 116),1	263,(9, 22),1	264,(9, 115),5	269,(9, 48),9	278,(9, 76),1	279,(9, 19),1	280,(7, 99),17	297,(2, 58),12	309,(2, 40),13	322,(5, 40),8	330,(2, 71),25	355,(12, 70),37	392,(7, 70),9	401,(6, 73),4	405,(5, 73),8	413,(12, 50),7	421,(10, 39),1	422,(10, 113),1	423,(10, 54),1	424,(10, 102),4	428,(10, 90),1	429,(10, 24),1	430,(10, 115),3	433,(10, 106),1	434,(10, 33),5	439,(10, 78),10	449,(10, 76),9	458,(10, 55),9	467,(10, 19),1	468,(10, 40),9	477,(10, 71),5	482,(2, 73),55	537,(2, 50),30	567,(5, 50),97	664,(62, 121),14	678,(87, 121),14	692,(61, 121),14	706,(25, 121),14	720,(64, 121),14	734,(60, 121),14	748,(105, 121),14	762,(103, 121),14	776,(63, 121),14	790,(98, 121),14	804,(118, 121),14	818,(23, 121),14	832,(97, 121),14	846,(82, 121),14	860,(85, 121),14	874,(51, 121),14	888,(80, 121),14	902,(100, 121),14	916,(65, 121),14	930,(57, 121),14	944,(109, 121),14	958,(20, 121),14	972,(91, 121),14	986,(29, 121),14	1000,(104, 121),14	1014,(42, 121),14	1028,(44, 121),14	1042,(35, 121),14	1056,(74, 121),14	1070,(111, 121),14	1084,(68, 121),14	1098,(101, 121),14	1112,(66, 121),14	1126,(95, 121),14	1140,(83, 121),14	1154,(43, 121),14	1168,(110, 121),14	1182,(96, 121),14	1196,(47, 121),14	1210,(52, 121),14	1224,(17, 121),14	1238,(89, 121),14	1252,(114, 121),14	1266,(77, 121),14	1280,(37, 121),14	1294,(81, 121),14	1308,(120, 121),14	1322,(13, 121),14	1336,(79, 121),14	1350,(119, 121),14	1364,(56, 121),14	1378,(107, 121),14	1392,(31, 121),14	1406,(117, 121),14	
364,(1, 57),1	365,(3, 109),1	366,(1, 20),1	367,(3, 91),1	368,(11, 29),1	369,(8, 104),1	370,(11, 42),1	371,(3, 44),1	372,(11, 35),1	373,(8, 74),2	375,(11, 111),2	377,(3, 68),2	379,(11, 101),2	381,(3, 101),1	382,(11, 66),1	383,(1, 66),2	385,(4, 95),2	387,(1, 95),1	388,(4, 83),3	391,(4, 43),1	392,(3, 43),2	394,(1, 110),3	397,(4, 96),2	399,(11, 96),2	401,(11, 47),5	406,(11, 52),5	411,(8, 17),6	417,(4, 89),7	424,(8, 89),1	425,(1, 89),1	426,(4, 114),5	431,(8, 114),4	435,(8, 77),3	438,(1, 77),6	444,(4, 37),2	446,(3, 37),7	453,(8, 37),1	454,(8, 81),14	468,(11, 120),1	469,(3, 120),2	471,(8, 120),8	479,(1, 120),12	491,(3, 13),10	501,(8, 13),6	507,(1, 13),8	515,(3, 79),2	517,(8, 79),18	535,(1, 79),6	541,(4, 119),1	542,(1, 119),25	567,(11, 56),24	591,(8, 56),9	600,(8, 107),36	636,(1, 107),7	643,(3, 31),69	712,(11, 117),1	713,(8, 117),114	
