8119
# CPU
1429,2,2	1431,36,2	1433,38,2	1435,40,2	2857,4,2	2859,50,2	2861,54,2	2863,64,2	4285,6,2	4287,18,2	4289,24,2	4291,32,2	5713,8,2	5715,12,2	5717,60,2	5719,62,2	5721,70,2	5723,80,2	5725,20,2	5727,26,2	5740,16,2	5767,28,2	6040,48,2	6073,66,2	6106,68,2	6109,76,2	6118,22,2	6382,56,2	6421,72,2	6424,30,2	6469,34,2	6475,44,2	6481,58,2	6604,74,2	6607,78,2	6610,10,2	6640,14,2	6688,42,2	6703,46,2	6706,52,2	
0,0,1	1,7,2	3,1,2	5,5,2	7,3,2	9,73,2	11,69,2	13,9,2	15,51,2	17,23,2	19,79,2	21,11,2	23,65,2	25,57,2	27,31,2	29,45,2	31,75,2	33,49,2	35,77,2	2871,17,2	2880,19,2	2889,21,2	2922,25,2	3048,35,2	3294,47,2	3432,67,2	4296,13,2	4332,37,2	4380,39,2	4386,59,2	4389,61,2	5733,15,2	5751,27,2	5766,29,2	5769,33,2	5772,41,2	5814,43,2	5817,53,2	5820,55,2	6171,63,2	6174,71,2	8118,81,1	
# Incoming
1,(0, 2),1428	1429,(0, 4),1428	2857,(0, 6),1428	4285,(0, 8),1428	5713,(7, 16),27	5740,(7, 28),27	5767,(7, 48),273	6040,(7, 66),33	6073,(7, 68),33	6106,(7, 76),3	6109,(1, 22),9	6118,(1, 44),180	6298,(1, 56),84	6382,(1, 72),39	6421,(5, 30),3	6424,(5, 34),45	6469,(5, 44),6	6475,(5, 58),6	6481,(5, 74),123	6604,(5, 78),3	6607,(3, 10),3	6610,(3, 14),30	6640,(3, 42),48	6688,(3, 46),15	6703,(3, 52),3	
1431,(2, 53),21	1452,(2, 71),6	1458,(36, 81),72	1530,(38, 81),72	1602,(40, 81),72	2859,(4, 15),9	2868,(4, 17),3	2871,(4, 19),9	2880,(4, 21),9	2889,(4, 25),33	2922,(4, 35),126	3048,(4, 39),3	3051,(4, 43),3	3054,(4, 47),240	3294,(4, 53),108	3402,(4, 63),3	3405,(4, 67),27	3432,(50, 81),72	3504,(54, 81),72	3576,(64, 81),72	4287,(6, 13),9	4296,(6, 15),30	4326,(6, 37),6	4332,(6, 39),48	4380,(6, 59),6	4386,(6, 61),3	4389,(18, 81),72	4461,(24, 81),72	4533,(32, 81),72	5715,(8, 15),18	5733,(8, 27),18	5751,(8, 29),15	5766,(8, 33),3	5769,(8, 41),3	5772,(8, 43),42	5814,(8, 53),3	5817,(8, 55),3	5820,(8, 63),351	6171,(8, 71),3	6174,(12, 81),72	6246,(60, 81),72	6318,(62, 81),72	6390,(70, 81),72	6462,(80, 81),72	6534,(20, 81),72	6606,(26, 81),72	6678,(16, 81),72	6750,(28, 81),72	6822,(48, 81),72	6894,(66, 81),72	6966,(68, 81),72	7038,(76, 81),72	7110,(22, 81),72	7182,(56, 81),72	7254,(72, 81),72	7326,(30, 81),72	7398,(34, 81),72	7470,(44, 81),72	7542,(58, 81),72	7614,(74, 81),72	7686,(78, 81),72	7758,(10, 81),72	7830,(14, 81),72	7902,(42, 81),72	7974,(46, 81),72	8046,(52, 81),72	
# Outgoing
1431,(2, 53),21	1452,(2, 71),6	1458,(36, 81),72	1530,(38, 81),72	1602,(40, 81),72	2859,(4, 15),9	2868,(4, 17),3	2871,(4, 19),9	2880,(4, 21),9	2889,(4, 25),33	2922,(4, 35),126	3048,(4, 39),3	3051,(4, 43),3	3054,(4, 47),240	3294,(4, 53),108	3402,(4, 63),3	3405,(4, 67),27	3432,(50, 81),72	3504,(54, 81),72	3576,(64, 81),72	4287,(6, 13),9	4296,(6, 15),30	4326,(6, 37),6	4332,(6, 39),48	4380,(6, 59),6	4386,(6, 61),3	4389,(18, 81),72	4461,(24, 81),72	4533,(32, 81),72	5715,(8, 15),18	5733,(8, 27),18	5751,(8, 29),15	5766,(8, 33),3	5769,(8, 41),3	5772,(8, 43),42	5814,(8, 53),3	5817,(8, 55),3	5820,(8, 63),351	6171,(8, 71),3	6174,(12, 81),72	6246,(60, 81),72	6318,(62, 81),72	6390,(70, 81),72	6462,(80, 81),72	6534,(20, 81),72	6606,(26, 81),72	6678,(16, 81),72	6750,(28, 81),72	6822,(48, 81),72	6894,(66, 81),72	6966,(68, 81),72	7038,(76, 81),72	7110,(22, 81),72	7182,(56, 81),72	7254,(72, 81),72	7326,(30, 81),72	7398,(34, 81),72	7470,(44, 81),72	7542,(58, 81),72	7614,(74, 81),72	7686,(78, 81),72	7758,(10, 81),72	7830,(14, 81),72	7902,(42, 81),72	7974,(46, 81),72	8046,(52, 81),72	
1,(0, 2),1428	1429,(0, 4),1428	2857,(0, 6),1428	4285,(0, 8),1428	5713,(7, 16),27	5740,(7, 28),27	5767,(7, 48),273	6040,(7, 66),33	6073,(7, 68),33	6106,(7, 76),3	6109,(1, 22),9	6118,(1, 44),180	6298,(1, 56),84	6382,(1, 72),39	6421,(5, 30),3	6424,(5, 34),45	6469,(5, 44),6	6475,(5, 58),6	6481,(5, 74),123	6604,(5, 78),3	6607,(3, 10),3	6610,(3, 14),30	6640,(3, 42),48	6688,(3, 46),15	6703,(3, 52),3	
