249
# CPU
0,0,1	1,4,1	2,18,1	3,27,1	4,39,1	5,5,1	6,16,1	7,15,1	8,2,1	9,26,1	10,31,1	11,22,1	12,14,1	13,38,1	14,21,1	15,6,1	16,25,1	17,29,1	18,1,1	19,9,1	20,23,1	21,7,1	22,20,1	23,13,1	24,8,1	25,40,1	26,24,1	27,35,1	28,30,1	31,28,1	35,32,1	47,19,1	59,33,1	71,10,1	95,34,1	127,37,1	183,12,1	247,11,1	248,41,1	
5,3,1	6,17,1	7,36,1	

# Incoming
7,(17, 41),8	15,(36, 41),8	23,(3, 30),4	27,(3, 28),4	31,(3, 32),4	35,(3, 19),12	47,(3, 33),12	59,(3, 10),12	71,(3, 34),24	95,(3, 37),32	127,(3, 12),56	183,(3, 11),64	
1,(0, 3),4	

# Outgoing
1,(0, 3),4	
7,(17, 41),8	15,(36, 41),8	23,(3, 30),4	27,(3, 28),4	31,(3, 32),4	35,(3, 19),12	47,(3, 33),12	59,(3, 10),12	71,(3, 34),24	95,(3, 37),32	127,(3, 12),56	183,(3, 11),64	

