24824
# CPU
109,10,6	1937,39,6	2077,49,6	2217,109,6	2705,59,6	3773,55,6	4197,76,6	4513,71,6	4525,82,6	4537,90,6	4577,103,6	4837,61,6	4869,115,6	5477,36,6	6893,42,6	7269,67,6	24413,119,6	24801,98,6	
97,9,6	745,38,6	1953,40,6	2197,83,6	2297,110,6	2601,116,6	2761,60,6	3301,47,6	3401,53,6	3409,56,6	3997,77,6	4321,91,6	4333,120,6	4709,104,6	7309,62,6	9493,34,6	9957,99,6	12317,69,6	13693,72,6	
85,8,6	817,44,6	1697,54,6	1873,30,6	2033,74,6	2045,80,6	2841,33,6	3365,52,6	3497,64,6	4273,87,6	4457,94,6	4697,101,6	4757,107,6	4797,113,6	4889,117,6	5693,70,6	
73,7,6	821,63,6	2109,25,6	2125,29,6	2141,75,6	2205,89,6	2365,96,6	2597,81,6	2633,118,6	3153,51,6	3553,65,6	3873,41,6	4705,102,6	4761,108,6	4853,114,6	6489,48,6	
61,6,6	1197,93,6	2481,57,6	2657,22,6	2673,24,6	3757,43,6	3785,45,6	3829,46,6	4025,73,6	4129,85,6	4185,78,6	4193,111,6	4309,112,6	4693,100,6	4729,105,6	24823,121,1	
49,5,6	1209,95,6	1785,20,6	1797,21,6	1933,37,6	3313,50,6	3477,58,6	4317,88,6	4581,97,6	
37,4,6	633,18,6	829,31,6	1029,23,6	1137,35,6	2653,19,6	2681,26,6	2825,28,6	4445,92,6	
25,3,6	133,16,6	761,32,6	1633,84,6	1765,17,6	3029,106,6	3929,68,6	4269,86,6	
13,2,6	121,12,6	1717,15,6	1829,14,6	2741,27,6	3845,66,6	4025,79,6	
0,0,1	1,1,6	7,11,6	3749,13,6	
# Incoming
97,(0, 10),12	119,(8, 61),4	133,(8, 98),4	139,(6, 39),4	155,(4, 39),4	163,(4, 71),4	175,(5, 39),32	207,(6, 67),4	211,(5, 55),4	215,(6, 42),24	241,(7, 67),4	245,(5, 59),8	253,(6, 59),8	261,(6, 71),24	285,(4, 42),28	313,(5, 82),20	333,(9, 42),8	341,(9, 49),4	345,(5, 109),4	349,(7, 39),8	361,(4, 90),4	365,(3, 42),220	585,(7, 42),8	593,(2, 42),4	597,(2, 49),16	613,(7, 71),8	621,(2, 71),8	629,(4, 49),16	645,(7, 76),16	661,(7, 115),8	669,(4, 59),12	693,(4, 61),16	709,(4, 67),12	721,(1, 36),4	729,(2, 82),8	737,(9, 90),12	757,(4, 98),4	761,(1, 42),8	769,(7, 49),28	797,(7, 98),24	829,(6, 76),32	865,(2, 76),84	957,(3, 61),28	985,(3, 71),4	989,(3, 119),4	993,(1, 49),20	1013,(4, 109),20	1037,(1, 55),212	1249,(3, 82),20	1269,(4, 82),28	1305,(1, 61),4	1309,(3, 90),48	1357,(4, 119),16	1373,(6, 103),28	1413,(3, 115),16	1429,(2, 109),4	1433,(4, 36),116	1549,(1, 82),208	1757,(6, 49),44	1801,(6, 115),32	1833,(7, 90),44	1877,(8, 39),60	1937,(12, 36),8	1957,(1, 90),40	1997,(8, 103),52	2049,(9, 119),24	2073,(12, 49),4	2097,(12, 67),4	2101,(1, 98),8	2109,(12, 119),4	2113,(1, 103),8	2121,(5, 76),56	2177,(6, 119),36	2213,(1, 109),4	2217,(2, 98),380	2597,(9, 82),36	2633,(1, 119),8	2641,(9, 59),64	2761,(5, 90),52	2861,(11, 36),380	3261,(11, 42),12	3273,(5, 103),108	3381,(5, 115),76	3477,(11, 61),4	3481,(3, 55),292	3845,(11, 67),8	3865,(11, 71),64	3929,(4, 76),268	4197,(6, 98),180	4377,(9, 61),92	4469,(12, 71),44	4513,(12, 82),12	4525,(12, 90),12	4537,(12, 98),28	4565,(12, 103),12	4581,(11, 98),24	4605,(7, 61),232	4853,(11, 115),16	4869,(5, 36),608	5477,(5, 42),696	6173,(8, 42),720	6893,(8, 67),376	7269,(8, 119),17144	24413,(9, 98),388	
85,(0, 9),12	99,(6, 34),24	131,(6, 38),8	151,(4, 38),4	155,(6, 47),4	159,(4, 62),4	163,(5, 34),4	167,(5, 38),8	175,(8, 34),12	187,(8, 77),4	191,(8, 83),8	199,(6, 60),8	207,(5, 40),4	211,(6, 62),4	223,(8, 104),4	229,(5, 53),16	247,(6, 91),4	253,(4, 40),32	285,(6, 104),4	289,(5, 77),4	293,(3, 40),4	297,(6, 56),16	313,(4, 47),48	361,(6, 116),8	369,(2, 34),224	593,(7, 60),8	601,(3, 56),4	605,(3, 60),4	609,(4, 77),8	617,(2, 56),4	621,(4, 83),8	629,(7, 56),12	641,(7, 69),4	645,(4, 53),24	669,(10, 56),4	673,(10, 69),4	681,(4, 60),12	693,(6, 120),24	717,(7, 99),4	721,(7, 104),4	725,(7, 116),12	737,(1, 38),8	745,(2, 53),36	781,(5, 110),4	789,(3, 47),40	829,(5, 62),12	849,(2, 72),16	865,(5, 72),12	885,(3, 91),12	897,(8, 40),16	913,(8, 91),20	933,(10, 62),12	949,(2, 77),20	969,(7, 120),16	989,(4, 110),16	1021,(1, 53),16	1037,(3, 53),72	1109,(10, 40),40	1157,(3, 62),56	1213,(8, 99),28	1249,(1, 56),4	1253,(10, 53),24	1289,(1, 60),16	1309,(1, 62),36	1345,(10, 120),16	1361,(2, 99),4	1369,(2, 104),24	1393,(10, 72),24	1429,(1, 72),28	1457,(2, 83),196	1653,(3, 69),64	1717,(8, 47),40	1757,(1, 83),8	1765,(3, 77),96	1861,(6, 69),84	1945,(12, 34),4	1949,(12, 40),4	1953,(12, 47),8	1997,(1, 91),16	2013,(5, 56),64	2077,(12, 53),16	2093,(12, 56),4	2121,(1, 104),20	2141,(12, 60),16	2157,(12, 72),8	2165,(12, 77),20	2185,(12, 83),12	2217,(1, 110),80	2381,(1, 116),220	2601,(5, 60),160	2761,(10, 99),68	2841,(11, 34),20	3285,(11, 47),16	3365,(11, 53),36	3401,(11, 56),8	3481,(11, 62),12	3985,(11, 77),12	4025,(12, 99),52	4317,(11, 91),4	4321,(12, 120),12	4605,(11, 99),80	4705,(11, 104),4	4709,(2, 62),2600	7309,(3, 34),2184	9493,(3, 99),464	9957,(4, 69),2360	12317,(4, 72),1376	
73,(0, 8),12	95,(6, 30),4	143,(6, 44),4	147,(5, 33),4	159,(6, 52),36	195,(6, 54),4	211,(7, 30),4	217,(2, 30),132	349,(5, 107),4	353,(6, 94),4	357,(2, 33),12	369,(6, 74),16	385,(6, 117),8	393,(7, 44),8	401,(7, 87),4	405,(9, 80),16	421,(7, 101),4	425,(9, 87),8	433,(9, 113),8	449,(7, 113),8	457,(7, 117),4	485,(4, 54),12	497,(9, 33),36	533,(10, 30),4	537,(10, 44),4	541,(4, 74),28	569,(10, 74),16	585,(3, 44),12	597,(3, 54),4	601,(10, 101),12	613,(2, 52),4	617,(4, 87),4	621,(6, 87),28	649,(10, 87),16	665,(2, 44),64	733,(4, 101),4	737,(2, 87),4	761,(5, 117),4	769,(1, 44),4	773,(4, 94),16	789,(5, 44),28	821,(2, 64),28	849,(5, 54),16	877,(3, 74),4	881,(5, 74),20	901,(5, 94),36	937,(6, 70),56	993,(6, 107),20	1013,(7, 70),88	1101,(9, 107),28	1145,(4, 113),12	1197,(2, 94),4	1201,(7, 107),108	1345,(1, 64),72	1425,(1, 70),4	1429,(3, 101),32	1461,(3, 107),64	1525,(5, 101),12	1537,(5, 113),100	1637,(3, 113),12	1649,(9, 54),48	1717,(3, 117),44	1765,(1, 87),4	1769,(9, 64),100	1869,(12, 30),4	1873,(12, 33),16	1933,(12, 70),4	2009,(9, 117),20	2029,(12, 74),4	2033,(12, 80),12	2045,(1, 94),4	2049,(12, 52),24	2085,(10, 52),52	2145,(1, 107),64	2209,(10, 113),64	2273,(10, 117),76	2361,(1, 113),12	2373,(9, 94),160	2601,(1, 117),8	2825,(11, 33),16	2841,(5, 70),232	3313,(11, 52),52	3493,(11, 64),4	3853,(11, 70),12	3969,(12, 101),4	3973,(12, 107),8	4269,(11, 87),4	4445,(11, 94),12	4693,(11, 101),4	4729,(11, 107),28	4761,(11, 113),36	4869,(11, 117),20	4889,(9, 70),804	
61,(0, 7),12	91,(4, 25),56	147,(6, 41),8	159,(5, 41),4	169,(2, 25),8	177,(2, 29),40	217,(4, 29),36	253,(5, 63),16	269,(3, 25),8	277,(5, 65),4	281,(5, 75),8	289,(6, 63),4	293,(6, 114),4	297,(3, 41),68	365,(4, 41),28	393,(6, 25),24	417,(6, 48),64	481,(8, 29),4	485,(8, 48),12	497,(8, 75),4	501,(8, 81),4	505,(8, 96),4	509,(4, 63),16	525,(4, 65),16	541,(6, 89),8	549,(9, 41),4	553,(10, 29),12	565,(10, 48),4	569,(4, 75),28	597,(4, 81),12	609,(3, 63),8	617,(8, 114),28	645,(9, 63),28	673,(9, 81),12	685,(1, 25),4	689,(9, 89),4	693,(10, 96),4	697,(10, 102),4	701,(10, 108),4	705,(10, 114),4	717,(9, 108),4	721,(4, 89),8	729,(9, 114),8	741,(2, 89),4	745,(1, 41),16	761,(4, 108),12	773,(5, 102),8	781,(2, 63),40	821,(5, 108),4	825,(9, 118),4	829,(3, 51),28	857,(3, 65),20	881,(3, 75),4	901,(1, 48),92	1013,(1, 51),8	1021,(2, 65),68	1089,(2, 81),64	1157,(4, 118),32	1209,(2, 96),56	1269,(3, 89),20	1297,(3, 108),4	1301,(6, 102),64	1365,(5, 48),24	1389,(5, 89),20	1449,(2, 114),4	1453,(2, 118),4	1457,(10, 81),36	1517,(1, 75),16	1533,(1, 81),16	1653,(2, 108),32	1685,(5, 114),20	1705,(9, 51),48	1769,(1, 89),188	1957,(6, 108),148	2105,(12, 25),4	2109,(1, 102),4	2113,(12, 29),12	2125,(12, 48),4	2129,(12, 75),12	2197,(12, 89),8	2205,(12, 118),4	2209,(1, 108),4	2213,(5, 118),100	2313,(9, 96),52	2373,(1, 114),8	2381,(6, 81),216	2609,(1, 118),24	2633,(4, 51),520	3241,(11, 41),20	3261,(9, 48),108	3497,(11, 65),56	3553,(9, 102),144	3697,(10, 41),176	4077,(12, 114),48	4697,(11, 102),8	4757,(11, 108),4	4797,(11, 114),56	4853,(3, 48),1636	
49,(0, 6),12	71,(3, 22),60	137,(2, 22),20	157,(2, 24),12	169,(4, 24),44	213,(4, 85),4	217,(5, 22),4	221,(5, 24),8	229,(7, 24),4	233,(7, 46),4	237,(7, 57),4	241,(8, 22),12	253,(8, 46),20	273,(8, 85),8	281,(9, 24),28	309,(9, 57),16	325,(9, 73),4	329,(10, 105),4	333,(5, 85),12	345,(10, 22),8	353,(10, 112),4	357,(7, 73),4	361,(7, 78),4	365,(10, 24),16	381,(8, 100),12	393,(4, 45),92	485,(7, 100),4	497,(4, 57),12	509,(7, 93),16	525,(8, 112),4	553,(9, 46),68	629,(1, 22),4	669,(1, 24),16	693,(9, 105),24	729,(4, 100),4	751,(38, 121),16	773,(1, 45),4	777,(1, 46),124	901,(3, 46),56	969,(2, 78),24	993,(3, 57),24	1017,(3, 73),4	1021,(3, 85),12	1033,(3, 111),4	1037,(4, 111),20	1057,(4, 112),88	1153,(2, 93),44	1197,(18, 121),16	1213,(3, 78),36	1253,(1, 57),36	1289,(9, 78),64	1365,(2, 100),4	1369,(44, 121),16	1393,(2, 105),4	1397,(3, 105),16	1413,(63, 121),16	1433,(2, 111),16	1457,(1, 73),60	1525,(3, 112),112	1637,(4, 78),144	1781,(5, 46),228	2009,(7, 111),68	2077,(9, 45),104	2181,(9, 112),92	2273,(16, 121),16	2297,(1, 111),60	2357,(1, 112),4	2361,(10, 46),60	2421,(10, 57),60	2481,(10, 78),116	2597,(10, 100),32	2629,(32, 121),16	2653,(11, 22),4	2657,(11, 24),16	2673,(84, 121),16	2689,(54, 121),16	2705,(17, 121),16	2721,(30, 121),16	2737,(39, 121),16	2753,(40, 121),16	2769,(74, 121),16	2785,(80, 121),16	2813,(95, 121),16	2829,(25, 121),16	2845,(29, 121),16	2861,(75, 121),16	2877,(83, 121),16	2893,(89, 121),16	2909,(110, 121),16	2925,(96, 121),16	2941,(81, 121),16	2957,(116, 121),16	2973,(118, 121),16	2989,(60, 121),16	3005,(33, 121),16	3029,(49, 121),16	3045,(109, 121),16	3073,(20, 121),16	3089,(21, 121),16	3105,(37, 121),16	3121,(59, 121),16	3137,(106, 121),16	3153,(31, 121),16	3169,(23, 121),16	3185,(35, 121),16	3201,(19, 121),16	3217,(26, 121),16	3233,(28, 121),16	3249,(51, 121),16	3273,(11, 43),4	3277,(11, 45),4	3281,(11, 46),4	3369,(47, 121),16	3385,(52, 121),16	3407,(53, 121),16	3423,(56, 121),16	3457,(50, 121),16	3483,(58, 121),16	3503,(64, 121),16	3559,(65, 121),16	3749,(12, 43),8	3757,(12, 45),28	3785,(12, 46),44	3873,(55, 121),16	3889,(41, 121),16	3929,(11, 73),56	3985,(12, 85),4	3989,(12, 100),4	3997,(11, 78),4	4001,(12, 73),24	4025,(11, 85),104	4129,(12, 78),56	4185,(12, 111),8	4193,(12, 112),116	4309,(68, 121),16	4333,(15, 121),16	4349,(14, 121),16	4365,(27, 121),16	4381,(66, 121),16	4397,(79, 121),16	4413,(76, 121),16	4429,(86, 121),16	4445,(87, 121),16	4469,(77, 121),16	4485,(88, 121),16	4501,(91, 121),16	4517,(120, 121),16	4533,(92, 121),16	4549,(94, 121),16	4565,(71, 121),16	4581,(82, 121),16	4597,(90, 121),16	4613,(103, 121),16	4629,(97, 121),16	4685,(11, 100),8	4709,(11, 105),20	4729,(101, 121),16	4745,(104, 121),16	4763,(107, 121),16	4803,(113, 121),16	4837,(102, 121),16	4853,(108, 121),16	4869,(61, 121),16	4889,(13, 121),16	4905,(114, 121),16	4921,(115, 121),16	4937,(117, 121),16	5483,(36, 121),16	5699,(70, 121),16	6495,(48, 121),16	6899,(42, 121),16	7275,(67, 121),16	7315,(62, 121),16	9499,(34, 121),16	9963,(99, 121),16	12323,(69, 121),16	13699,(72, 121),16	24419,(119, 121),16	24807,(98, 121),16	
37,(0, 5),12	115,(8, 50),4	123,(6, 37),8	133,(2, 21),4	137,(8, 21),32	179,(9, 20),4	183,(9, 21),28	211,(9, 37),4	215,(7, 37),12	227,(9, 58),24	251,(9, 97),4	255,(10, 20),4	259,(10, 50),12	271,(10, 58),8	281,(8, 88),76	365,(7, 88),28	393,(10, 88),12	405,(7, 95),16	421,(8, 95),16	437,(10, 21),52	549,(6, 95),20	617,(1, 20),12	629,(2, 37),36	725,(1, 37),12	737,(4, 88),20	757,(10, 37),124	897,(3, 97),4	945,(10, 95),92	1037,(10, 97),56	1109,(3, 58),48	1201,(2, 95),8	1265,(2, 97),96	1361,(3, 88),24	1385,(9, 50),240	1781,(12, 20),4	1785,(12, 21),12	1889,(12, 37),44	1961,(12, 50),52	2049,(1, 97),52	3301,(11, 50),12	3409,(11, 58),68	3929,(12, 88),40	4273,(11, 88),44	4457,(11, 97),124	
25,(0, 4),12	67,(6, 19),12	79,(6, 23),16	103,(8, 26),12	125,(2, 18),8	133,(3, 18),64	197,(3, 19),68	265,(3, 23),4	269,(5, 26),4	273,(5, 28),4	277,(3, 26),12	289,(3, 28),4	293,(5, 31),8	301,(5, 35),12	313,(6, 35),28	341,(6, 92),4	345,(7, 35),4	349,(2, 31),4	353,(5, 23),272	625,(7, 92),4	629,(9, 18),4	633,(1, 23),36	669,(7, 23),16	685,(10, 28),4	689,(1, 31),4	693,(1, 35),28	721,(6, 26),44	765,(6, 31),64	829,(7, 19),88	917,(7, 26),40	957,(8, 19),44	1001,(8, 23),28	1029,(8, 28),24	1053,(8, 35),84	1137,(8, 92),36	1173,(9, 19),48	1221,(9, 26),8	1289,(3, 92),8	1297,(10, 92),20	1765,(12, 19),16	1797,(12, 26),28	1825,(12, 28),36	1869,(9, 92),140	2013,(1, 92),32	2641,(11, 19),12	2673,(11, 26),8	2741,(11, 28),84	4321,(11, 92),124	
13,(0, 3),12	25,(2, 17),100	125,(8, 16),8	147,(4, 32),4	151,(5, 17),8	159,(9, 17),20	207,(7, 17),4	211,(8, 84),12	223,(9, 106),4	227,(10, 17),12	239,(6, 68),8	247,(7, 32),96	353,(2, 32),4	357,(8, 86),24	425,(7, 106),24	449,(9, 86),28	481,(6, 84),44	625,(5, 32),136	937,(4, 106),52	993,(2, 84),28	1021,(6, 86),136	1157,(10, 68),88	1397,(2, 106),32	1493,(10, 84),140	1685,(12, 17),80	2141,(1, 106),4	2829,(10, 106),200	3829,(12, 68),100	4129,(11, 86),140	
1,(0, 2),12	67,(3, 15),4	91,(8, 14),12	109,(0, 12),12	121,(1, 14),496	617,(3, 14),172	789,(4, 27),4	793,(4, 66),84	877,(4, 79),60	937,(5, 14),180	1117,(5, 15),108	1225,(5, 27),140	1365,(9, 66),4	1417,(1, 66),8	1425,(5, 66),60	1485,(5, 79),40	1525,(7, 15),192	1717,(7, 66),56	1773,(10, 14),56	1829,(10, 27),256	2137,(10, 79),64	2681,(11, 27),60	3553,(11, 66),292	4001,(11, 79),24	
31,(3, 13),36	67,(4, 13),24	91,(5, 13),56	147,(7, 13),60	207,(10, 13),20	2597,(12, 13),1152	
# Outgoing
207,(10, 13),20	227,(10, 17),12	255,(10, 20),4	259,(10, 50),12	271,(10, 58),8	329,(10, 105),4	345,(10, 22),8	353,(10, 112),4	365,(10, 24),16	393,(10, 88),12	437,(10, 21),52	533,(10, 30),4	537,(10, 44),4	553,(10, 29),12	565,(10, 48),4	569,(10, 74),16	601,(10, 101),12	649,(10, 87),16	669,(10, 56),4	673,(10, 69),4	685,(10, 28),4	693,(10, 96),4	697,(10, 102),4	701,(10, 108),4	705,(10, 114),4	757,(10, 37),124	933,(10, 62),12	945,(10, 95),92	1037,(10, 97),56	1109,(10, 40),40	1157,(10, 68),88	1253,(10, 53),24	1297,(10, 92),20	1345,(10, 120),16	1393,(10, 72),24	1457,(10, 81),36	1493,(10, 84),140	1773,(10, 14),56	1829,(10, 27),256	2085,(10, 52),52	2137,(10, 79),64	2209,(10, 113),64	2273,(10, 117),76	2361,(10, 46),60	2421,(10, 57),60	2481,(10, 78),116	2597,(10, 100),32	2737,(39, 121),16	2761,(10, 99),68	2829,(10, 106),200	3029,(49, 121),16	3045,(109, 121),16	3121,(59, 121),16	3697,(10, 41),176	3873,(55, 121),16	4413,(76, 121),16	4565,(71, 121),16	4581,(82, 121),16	4597,(90, 121),16	4613,(103, 121),16	4869,(61, 121),16	4921,(115, 121),16	5483,(36, 121),16	6899,(42, 121),16	7275,(67, 121),16	24419,(119, 121),16	24807,(98, 121),16	
159,(9, 17),20	179,(9, 20),4	183,(9, 21),28	211,(9, 37),4	223,(9, 106),4	227,(9, 58),24	251,(9, 97),4	281,(9, 24),28	309,(9, 57),16	325,(9, 73),4	333,(9, 42),8	341,(9, 49),4	405,(9, 80),16	425,(9, 87),8	433,(9, 113),8	449,(9, 86),28	497,(9, 33),36	549,(9, 41),4	553,(9, 46),68	629,(9, 18),4	645,(9, 63),28	673,(9, 81),12	689,(9, 89),4	693,(9, 105),24	717,(9, 108),4	729,(9, 114),8	737,(9, 90),12	751,(38, 121),16	825,(9, 118),4	1101,(9, 107),28	1173,(9, 19),48	1221,(9, 26),8	1289,(9, 78),64	1365,(9, 66),4	1385,(9, 50),240	1649,(9, 54),48	1705,(9, 51),48	1769,(9, 64),100	1869,(9, 92),140	2009,(9, 117),20	2049,(9, 119),24	2077,(9, 45),104	2181,(9, 112),92	2313,(9, 96),52	2373,(9, 94),160	2597,(9, 82),36	2641,(9, 59),64	2753,(40, 121),16	2877,(83, 121),16	2909,(110, 121),16	2957,(116, 121),16	2989,(60, 121),16	3261,(9, 48),108	3369,(47, 121),16	3407,(53, 121),16	3423,(56, 121),16	3553,(9, 102),144	4377,(9, 61),92	4469,(77, 121),16	4501,(91, 121),16	4517,(120, 121),16	4745,(104, 121),16	4889,(9, 70),804	7315,(62, 121),16	9499,(34, 121),16	9963,(99, 121),16	12323,(69, 121),16	13699,(72, 121),16	24413,(9, 98),388	
91,(8, 14),12	103,(8, 26),12	115,(8, 50),4	119,(8, 61),4	125,(8, 16),8	133,(8, 98),4	137,(8, 21),32	175,(8, 34),12	187,(8, 77),4	191,(8, 83),8	211,(8, 84),12	223,(8, 104),4	241,(8, 22),12	253,(8, 46),20	273,(8, 85),8	281,(8, 88),76	357,(8, 86),24	381,(8, 100),12	421,(8, 95),16	481,(8, 29),4	485,(8, 48),12	497,(8, 75),4	501,(8, 81),4	505,(8, 96),4	525,(8, 112),4	617,(8, 114),28	897,(8, 40),16	913,(8, 91),20	957,(8, 19),44	1001,(8, 23),28	1029,(8, 28),24	1053,(8, 35),84	1137,(8, 92),36	1213,(8, 99),28	1369,(44, 121),16	1717,(8, 47),40	1877,(8, 39),60	1997,(8, 103),52	2689,(54, 121),16	2721,(30, 121),16	2769,(74, 121),16	2785,(80, 121),16	3005,(33, 121),16	3385,(52, 121),16	3503,(64, 121),16	4445,(87, 121),16	4549,(94, 121),16	4729,(101, 121),16	4763,(107, 121),16	4803,(113, 121),16	4937,(117, 121),16	5699,(70, 121),16	6173,(8, 42),720	6893,(8, 67),376	7269,(8, 119),17144	
147,(7, 13),60	207,(7, 17),4	211,(7, 30),4	215,(7, 37),12	229,(7, 24),4	233,(7, 46),4	237,(7, 57),4	241,(7, 67),4	247,(7, 32),96	345,(7, 35),4	349,(7, 39),8	357,(7, 73),4	361,(7, 78),4	365,(7, 88),28	393,(7, 44),8	401,(7, 87),4	405,(7, 95),16	421,(7, 101),4	425,(7, 106),24	449,(7, 113),8	457,(7, 117),4	485,(7, 100),4	509,(7, 93),16	585,(7, 42),8	593,(7, 60),8	613,(7, 71),8	625,(7, 92),4	629,(7, 56),12	641,(7, 69),4	645,(7, 76),16	661,(7, 115),8	669,(7, 23),16	717,(7, 99),4	721,(7, 104),4	725,(7, 116),12	769,(7, 49),28	797,(7, 98),24	829,(7, 19),88	917,(7, 26),40	969,(7, 120),16	1013,(7, 70),88	1201,(7, 107),108	1413,(63, 121),16	1525,(7, 15),192	1717,(7, 66),56	1833,(7, 90),44	2009,(7, 111),68	2829,(25, 121),16	2845,(29, 121),16	2861,(75, 121),16	2893,(89, 121),16	2925,(96, 121),16	2941,(81, 121),16	2973,(118, 121),16	3249,(51, 121),16	3559,(65, 121),16	3889,(41, 121),16	4605,(7, 61),232	4837,(102, 121),16	4853,(108, 121),16	4905,(114, 121),16	6495,(48, 121),16	
67,(6, 19),12	79,(6, 23),16	95,(6, 30),4	99,(6, 34),24	123,(6, 37),8	131,(6, 38),8	139,(6, 39),4	143,(6, 44),4	147,(6, 41),8	155,(6, 47),4	159,(6, 52),36	195,(6, 54),4	199,(6, 60),8	207,(6, 67),4	211,(6, 62),4	215,(6, 42),24	239,(6, 68),8	247,(6, 91),4	253,(6, 59),8	261,(6, 71),24	285,(6, 104),4	289,(6, 63),4	293,(6, 114),4	297,(6, 56),16	313,(6, 35),28	341,(6, 92),4	353,(6, 94),4	361,(6, 116),8	369,(6, 74),16	385,(6, 117),8	393,(6, 25),24	417,(6, 48),64	481,(6, 84),44	541,(6, 89),8	549,(6, 95),20	621,(6, 87),28	693,(6, 120),24	721,(6, 26),44	765,(6, 31),64	829,(6, 76),32	937,(6, 70),56	993,(6, 107),20	1021,(6, 86),136	1301,(6, 102),64	1373,(6, 103),28	1757,(6, 49),44	1801,(6, 115),32	1861,(6, 69),84	1957,(6, 108),148	2177,(6, 119),36	2381,(6, 81),216	4197,(6, 98),180	
91,(5, 13),56	147,(5, 33),4	151,(5, 17),8	159,(5, 41),4	163,(5, 34),4	167,(5, 38),8	175,(5, 39),32	207,(5, 40),4	211,(5, 55),4	217,(5, 22),4	221,(5, 24),8	229,(5, 53),16	245,(5, 59),8	253,(5, 63),16	269,(5, 26),4	273,(5, 28),4	277,(5, 65),4	281,(5, 75),8	289,(5, 77),4	293,(5, 31),8	301,(5, 35),12	313,(5, 82),20	333,(5, 85),12	345,(5, 109),4	349,(5, 107),4	353,(5, 23),272	625,(5, 32),136	761,(5, 117),4	773,(5, 102),8	781,(5, 110),4	789,(5, 44),28	821,(5, 108),4	829,(5, 62),12	849,(5, 54),16	865,(5, 72),12	881,(5, 74),20	901,(5, 94),36	937,(5, 14),180	1117,(5, 15),108	1225,(5, 27),140	1365,(5, 48),24	1389,(5, 89),20	1425,(5, 66),60	1485,(5, 79),40	1525,(5, 101),12	1537,(5, 113),100	1685,(5, 114),20	1781,(5, 46),228	2013,(5, 56),64	2121,(5, 76),56	2213,(5, 118),100	2601,(5, 60),160	2761,(5, 90),52	2813,(95, 121),16	2841,(5, 70),232	3073,(20, 121),16	3089,(21, 121),16	3105,(37, 121),16	3273,(5, 103),108	3381,(5, 115),76	3457,(50, 121),16	3483,(58, 121),16	4485,(88, 121),16	4629,(97, 121),16	4869,(5, 36),608	5477,(5, 42),696	
67,(4, 13),24	91,(4, 25),56	147,(4, 32),4	151,(4, 38),4	155,(4, 39),4	159,(4, 62),4	163,(4, 71),4	169,(4, 24),44	213,(4, 85),4	217,(4, 29),36	253,(4, 40),32	285,(4, 42),28	313,(4, 47),48	361,(4, 90),4	365,(4, 41),28	393,(4, 45),92	485,(4, 54),12	497,(4, 57),12	509,(4, 63),16	525,(4, 65),16	541,(4, 74),28	569,(4, 75),28	597,(4, 81),12	609,(4, 77),8	617,(4, 87),4	621,(4, 83),8	629,(4, 49),16	645,(4, 53),24	669,(4, 59),12	681,(4, 60),12	693,(4, 61),16	709,(4, 67),12	721,(4, 89),8	729,(4, 100),4	733,(4, 101),4	737,(4, 88),20	757,(4, 98),4	761,(4, 108),12	773,(4, 94),16	789,(4, 27),4	793,(4, 66),84	877,(4, 79),60	937,(4, 106),52	989,(4, 110),16	1013,(4, 109),20	1037,(4, 111),20	1057,(4, 112),88	1145,(4, 113),12	1157,(4, 118),32	1197,(18, 121),16	1269,(4, 82),28	1357,(4, 119),16	1433,(4, 36),116	1637,(4, 78),144	2633,(4, 51),520	3153,(31, 121),16	3169,(23, 121),16	3185,(35, 121),16	3201,(19, 121),16	3217,(26, 121),16	3233,(28, 121),16	3929,(4, 76),268	4533,(92, 121),16	9957,(4, 69),2360	12317,(4, 72),1376	
31,(3, 13),36	67,(3, 15),4	71,(3, 22),60	133,(3, 18),64	197,(3, 19),68	265,(3, 23),4	269,(3, 25),8	277,(3, 26),12	289,(3, 28),4	293,(3, 40),4	297,(3, 41),68	365,(3, 42),220	585,(3, 44),12	597,(3, 54),4	601,(3, 56),4	605,(3, 60),4	609,(3, 63),8	617,(3, 14),172	789,(3, 47),40	829,(3, 51),28	857,(3, 65),20	877,(3, 74),4	881,(3, 75),4	885,(3, 91),12	897,(3, 97),4	901,(3, 46),56	957,(3, 61),28	985,(3, 71),4	989,(3, 119),4	993,(3, 57),24	1017,(3, 73),4	1021,(3, 85),12	1033,(3, 111),4	1037,(3, 53),72	1109,(3, 58),48	1157,(3, 62),56	1213,(3, 78),36	1249,(3, 82),20	1269,(3, 89),20	1289,(3, 92),8	1297,(3, 108),4	1309,(3, 90),48	1361,(3, 88),24	1397,(3, 105),16	1413,(3, 115),16	1429,(3, 101),32	1461,(3, 107),64	1525,(3, 112),112	1637,(3, 113),12	1653,(3, 69),64	1717,(3, 117),44	1765,(3, 77),96	2273,(16, 121),16	2629,(32, 121),16	2673,(84, 121),16	2705,(17, 121),16	3137,(106, 121),16	3481,(3, 55),292	4309,(68, 121),16	4429,(86, 121),16	4853,(3, 48),1636	7309,(3, 34),2184	9493,(3, 99),464	
25,(2, 17),100	125,(2, 18),8	133,(2, 21),4	137,(2, 22),20	157,(2, 24),12	169,(2, 25),8	177,(2, 29),40	217,(2, 30),132	349,(2, 31),4	353,(2, 32),4	357,(2, 33),12	369,(2, 34),224	593,(2, 42),4	597,(2, 49),16	613,(2, 52),4	617,(2, 56),4	621,(2, 71),8	629,(2, 37),36	665,(2, 44),64	729,(2, 82),8	737,(2, 87),4	741,(2, 89),4	745,(2, 53),36	781,(2, 63),40	821,(2, 64),28	849,(2, 72),16	865,(2, 76),84	949,(2, 77),20	969,(2, 78),24	993,(2, 84),28	1021,(2, 65),68	1089,(2, 81),64	1153,(2, 93),44	1197,(2, 94),4	1201,(2, 95),8	1209,(2, 96),56	1265,(2, 97),96	1361,(2, 99),4	1365,(2, 100),4	1369,(2, 104),24	1393,(2, 105),4	1397,(2, 106),32	1429,(2, 109),4	1433,(2, 111),16	1449,(2, 114),4	1453,(2, 118),4	1457,(2, 83),196	1653,(2, 108),32	1685,(12, 17),80	1765,(12, 19),16	1781,(12, 20),4	1785,(12, 21),12	1797,(12, 26),28	1825,(12, 28),36	1869,(12, 30),4	1873,(12, 33),16	1889,(12, 37),44	1933,(12, 70),4	1937,(12, 36),8	1945,(12, 34),4	1949,(12, 40),4	1953,(12, 47),8	1961,(12, 50),52	2029,(12, 74),4	2033,(12, 80),12	2049,(12, 52),24	2073,(12, 49),4	2077,(12, 53),16	2093,(12, 56),4	2097,(12, 67),4	2105,(12, 25),4	2109,(12, 119),4	2113,(12, 29),12	2125,(12, 48),4	2129,(12, 75),12	2141,(12, 60),16	2157,(12, 72),8	2165,(12, 77),20	2185,(12, 83),12	2197,(12, 89),8	2205,(12, 118),4	2217,(2, 98),380	2597,(12, 13),1152	3749,(12, 43),8	3757,(12, 45),28	3785,(12, 46),44	3829,(12, 68),100	3929,(12, 88),40	3969,(12, 101),4	3973,(12, 107),8	3985,(12, 85),4	3989,(12, 100),4	4001,(12, 73),24	4025,(12, 99),52	4077,(12, 114),48	4129,(12, 78),56	4185,(12, 111),8	4193,(12, 112),116	4321,(12, 120),12	4333,(15, 121),16	4349,(14, 121),16	4365,(27, 121),16	4381,(66, 121),16	4397,(79, 121),16	4469,(12, 71),44	4513,(12, 82),12	4525,(12, 90),12	4537,(12, 98),28	4565,(12, 103),12	4709,(2, 62),2600	
1,(0, 2),12	13,(0, 3),12	25,(0, 4),12	37,(0, 5),12	49,(0, 6),12	61,(0, 7),12	73,(0, 8),12	85,(0, 9),12	97,(0, 10),12	109,(0, 12),12	121,(1, 14),496	617,(1, 20),12	629,(1, 22),4	633,(1, 23),36	669,(1, 24),16	685,(1, 25),4	689,(1, 31),4	693,(1, 35),28	721,(1, 36),4	725,(1, 37),12	737,(1, 38),8	745,(1, 41),16	761,(1, 42),8	769,(1, 44),4	773,(1, 45),4	777,(1, 46),124	901,(1, 48),92	993,(1, 49),20	1013,(1, 51),8	1021,(1, 53),16	1037,(1, 55),212	1249,(1, 56),4	1253,(1, 57),36	1289,(1, 60),16	1305,(1, 61),4	1309,(1, 62),36	1345,(1, 64),72	1417,(1, 66),8	1425,(1, 70),4	1429,(1, 72),28	1457,(1, 73),60	1517,(1, 75),16	1533,(1, 81),16	1549,(1, 82),208	1757,(1, 83),8	1765,(1, 87),4	1769,(1, 89),188	1957,(1, 90),40	1997,(1, 91),16	2013,(1, 92),32	2045,(1, 94),4	2049,(1, 97),52	2101,(1, 98),8	2109,(1, 102),4	2113,(1, 103),8	2121,(1, 104),20	2141,(1, 106),4	2145,(1, 107),64	2209,(1, 108),4	2213,(1, 109),4	2217,(1, 110),80	2297,(1, 111),60	2357,(1, 112),4	2361,(1, 113),12	2373,(1, 114),8	2381,(1, 116),220	2601,(1, 117),8	2609,(1, 118),24	2633,(1, 119),8	2641,(11, 19),12	2653,(11, 22),4	2657,(11, 24),16	2673,(11, 26),8	2681,(11, 27),60	2741,(11, 28),84	2825,(11, 33),16	2841,(11, 34),20	2861,(11, 36),380	3241,(11, 41),20	3261,(11, 42),12	3273,(11, 43),4	3277,(11, 45),4	3281,(11, 46),4	3285,(11, 47),16	3301,(11, 50),12	3313,(11, 52),52	3365,(11, 53),36	3401,(11, 56),8	3409,(11, 58),68	3477,(11, 61),4	3481,(11, 62),12	3493,(11, 64),4	3497,(11, 65),56	3553,(11, 66),292	3845,(11, 67),8	3853,(11, 70),12	3865,(11, 71),64	3929,(11, 73),56	3985,(11, 77),12	3997,(11, 78),4	4001,(11, 79),24	4025,(11, 85),104	4129,(11, 86),140	4269,(11, 87),4	4273,(11, 88),44	4317,(11, 91),4	4321,(11, 92),124	4445,(11, 94),12	4457,(11, 97),124	4581,(11, 98),24	4605,(11, 99),80	4685,(11, 100),8	4693,(11, 101),4	4697,(11, 102),8	4705,(11, 104),4	4709,(11, 105),20	4729,(11, 107),28	4757,(11, 108),4	4761,(11, 113),36	4797,(11, 114),56	4853,(11, 115),16	4869,(11, 117),20	4889,(13, 121),16	
