128
# CPU
0,0,1	1,1,7	8,17,7	15,5,7	22,8,7	29,4,7	36,14,7	43,2,7	50,16,7	57,12,7	64,13,7	71,15,7	78,3,7	85,10,7	92,9,7	99,18,7	106,19,7	113,20,7	120,7,7	127,21,1	
20,11,7	62,6,7	


# Incoming
27,(11, 21),4	69,(6, 21),4	
8,(1, 11),12	50,(2, 6),12	


# Outgoing
8,(1, 11),12	50,(2, 6),12	
27,(11, 21),4	69,(6, 21),4	


