18106
# CPU
9507,73,1	10573,15,1	11108,17,1	11181,36,1	11206,49,1	11258,55,1	11415,95,1	11554,13,1	12566,31,1	12619,37,1	12637,47,1	12732,56,1	12787,77,1	12907,79,1	12987,94,1	13109,118,1	13119,119,1	13250,24,1	13272,29,1	13664,52,1	13737,62,1	14473,68,1	14521,75,1	15533,101,1	15867,120,1	15901,21,1	15907,27,1	15926,32,1	15933,33,1	16638,35,1	16674,39,1	16691,40,1	16775,44,1	16786,46,1	16904,57,1	16915,58,1	16993,65,1	16994,66,1	17034,74,1	17035,78,1	17036,80,1	17038,82,1	17099,84,1	17106,88,1	17109,89,1	17153,93,1	17154,96,1	17366,104,1	17434,107,1	17465,112,1	17473,113,1	17485,14,1	17487,16,1	17519,18,1	17520,19,1	17584,20,1	17593,22,1	17594,23,1	17642,25,1	17652,26,1	17653,28,1	17689,30,1	17692,34,1	17693,38,1	17703,41,1	17704,42,1	17719,43,1	17740,45,1	17758,48,1	17781,50,1	17782,51,1	17785,53,1	17787,54,1	17798,59,1	17801,60,1	17804,61,1	17832,63,1	17834,64,1	17837,67,1	17838,69,1	17841,70,1	17842,71,1	17843,72,1	17863,76,1	17874,81,1	17876,83,1	17891,85,1	17892,86,1	17893,87,1	17898,90,1	17913,91,1	17933,92,1	17936,97,1	17958,98,1	17962,99,1	17973,100,1	17976,102,1	17977,103,1	18009,105,1	18013,106,1	18014,108,1	18016,109,1	18017,110,1	18018,111,1	18021,114,1	18096,115,1	18099,116,1	18104,117,1	18105,121,1	
0,0,1	1,2,1	2,12,1	3,8,1	
197,1,1	785,5,1	1373,9,1	
393,3,1	981,6,1	1569,10,1	
589,4,1	1177,7,1	1765,11,1	
# Incoming
1765,(2, 13),5	1770,(2, 15),4	1774,(2, 17),1	1775,(2, 18),2	1777,(2, 19),1	1778,(2, 20),2	1780,(2, 22),1	1781,(2, 24),1	1782,(2, 27),1	1783,(2, 29),4	1787,(2, 32),1	1788,(2, 33),3	1791,(2, 34),1	1792,(2, 36),20	1812,(2, 37),1	1813,(2, 38),7	1820,(2, 40),5	1825,(2, 41),7	1832,(2, 43),17	1849,(2, 44),2	1851,(2, 45),22	1873,(2, 48),2	1875,(2, 51),1	1876,(2, 54),1510	3386,(2, 56),3	3389,(2, 58),13	3402,(2, 59),4	3406,(2, 60),10	3416,(2, 61),20	3436,(2, 62),4	3440,(2, 64),1	3441,(2, 65),15	3456,(2, 66),1	3457,(2, 68),35	3492,(2, 69),2	3494,(2, 72),26	3520,(2, 73),2	3522,(2, 74),1	3523,(2, 76),8	3531,(2, 77),1	3532,(2, 80),22	3554,(2, 81),10	3564,(2, 85),4	3568,(2, 86),1	3569,(2, 87),3	3572,(2, 88),9	3581,(2, 90),4	3585,(2, 91),1	3586,(2, 93),2	3588,(2, 95),6	3594,(2, 97),1	3595,(2, 102),1	3596,(2, 103),5	3601,(2, 105),5	3606,(2, 106),46	3652,(2, 107),2	3654,(2, 109),1	3655,(2, 110),4	3659,(2, 111),7	3666,(2, 114),1	3667,(2, 115),3	3670,(2, 117),211	3881,(2, 119),5	3886,(12, 13),1	3887,(12, 14),32	3919,(12, 15),3	3922,(12, 16),8	3930,(12, 18),6	3936,(12, 19),4	3940,(12, 21),6	3946,(12, 23),5	3951,(12, 25),1	3952,(12, 26),5	3957,(12, 28),5	3962,(12, 29),12	3974,(12, 31),1	3975,(12, 32),5	3980,(12, 34),9	3989,(12, 35),1	3990,(12, 36),55	4045,(12, 37),257	4302,(12, 38),46	4348,(12, 40),3	4351,(12, 42),8	4359,(12, 44),9	4368,(12, 45),2	4370,(12, 48),1	4371,(12, 50),172	4543,(12, 51),2	4545,(12, 52),41	4586,(12, 54),85	4671,(12, 55),1	4672,(12, 56),221	4893,(12, 59),4	4897,(12, 61),10	4907,(12, 62),718	5625,(12, 64),15	5640,(12, 66),11	5651,(12, 69),104	5755,(12, 71),2	5757,(12, 72),23	5780,(12, 75),17	5797,(12, 76),5	5802,(12, 77),1	5803,(12, 78),28	5831,(12, 79),3	5834,(12, 81),41	5875,(12, 84),4	5879,(12, 86),1	5880,(12, 88),1	5881,(12, 90),1	5882,(12, 94),3	5885,(12, 95),49	5934,(12, 96),10	5944,(12, 97),10	5954,(12, 98),1	5955,(12, 99),123	6078,(12, 101),9	6087,(12, 105),8	6095,(12, 108),54	6149,(12, 109),5	6154,(12, 111),3	6157,(12, 112),14	6171,(12, 113),21	6192,(12, 114),5	6197,(12, 116),1	6198,(12, 118),8	6206,(8, 13),13	6219,(8, 14),7	6226,(8, 15),146	6372,(8, 16),17	6389,(8, 17),24	6413,(8, 18),1	6414,(8, 19),1	6415,(8, 22),6	6421,(8, 24),20	6441,(8, 25),14	6455,(8, 29),75	6530,(8, 31),48	6578,(8, 32),1	6579,(8, 33),8	6587,(8, 37),137	6724,(8, 41),2	6726,(8, 42),1	6727,(8, 44),1	6728,(8, 47),1	6729,(8, 48),4	6733,(8, 49),1	6734,(8, 50),3	6737,(8, 52),368	7105,(8, 53),92	7197,(8, 55),4	7201,(8, 58),2	7203,(8, 60),1	7204,(8, 63),1	7205,(8, 64),1	7206,(8, 65),41	7247,(8, 66),1	7248,(8, 70),3	7251,(8, 71),2	7253,(8, 72),1	7254,(8, 73),4	7258,(8, 77),8	7266,(8, 78),1	7267,(8, 79),1	7268,(8, 80),1	7269,(8, 82),51	7320,(8, 83),1	7321,(8, 86),1	7322,(8, 87),1	7323,(8, 88),1	7324,(8, 93),1	7325,(8, 94),2	7327,(8, 98),13	7340,(8, 99),158	7498,(8, 100),1	7499,(8, 101),15	7514,(8, 103),1	7515,(8, 104),8	7523,(8, 105),29	7552,(8, 108),1	7553,(8, 110),7	7560,(8, 111),18	7578,(8, 112),7	7585,(8, 113),7	7592,(8, 114),4	7596,(8, 115),1	7597,(8, 118),4	7601,(8, 120),5	7606,(1, 13),13	7619,(1, 15),1	7620,(1, 16),1	7621,(1, 17),8	7629,(1, 18),3	7632,(1, 20),47	7679,(1, 21),5	7684,(1, 22),4	7688,(1, 23),1	7689,(1, 25),1	7690,(1, 26),16	7706,(1, 27),6	7712,(1, 30),1	7713,(1, 35),2	7715,(1, 37),7	7722,(1, 40),4	7726,(1, 45),2	7728,(1, 48),3	7731,(1, 49),14	7745,(1, 52),15	7760,(1, 53),26	7786,(1, 57),90	7876,(1, 58),267	8143,(1, 59),1	8144,(1, 60),1	8145,(1, 61),10	8155,(1, 65),26	8181,(1, 71),1	8182,(1, 72),9	8191,(1, 73),7	8198,(1, 74),185	8383,(1, 75),4	8387,(1, 76),25	8412,(1, 78),11	8423,(1, 79),34	8457,(1, 80),19	8476,(1, 81),1	8477,(1, 82),1	8478,(1, 85),35	8513,(1, 86),20	8533,(1, 89),1	8534,(1, 90),8	8542,(1, 91),42	8584,(1, 95),1	8585,(1, 99),1	8586,(1, 103),5	8591,(1, 104),12	8603,(1, 105),1	8604,(1, 108),7	8611,(1, 115),1	8612,(1, 116),4	8616,(1, 117),8	8624,(1, 118),3	8627,(1, 120),6	8633,(3, 14),8	8641,(3, 16),7	8648,(3, 18),8	8656,(3, 19),9	8665,(3, 20),1	8666,(3, 21),8	8674,(3, 24),4	8678,(3, 27),15	8693,(3, 29),1	8694,(3, 32),1	8695,(3, 33),8	8703,(3, 34),15	8718,(3, 35),1	8719,(3, 36),2	8721,(3, 37),130	8851,(3, 39),1	8852,(3, 40),3	8855,(3, 41),5	8860,(3, 43),12	8872,(3, 49),11	8883,(3, 50),10	8893,(3, 53),2	8895,(3, 55),30	8925,(3, 56),1	8926,(3, 61),6	8932,(3, 63),5	8937,(3, 64),3	8940,(3, 65),3	8943,(3, 66),1	8944,(3, 67),1	8945,(3, 72),24	8969,(3, 77),1	8970,(3, 78),12	8982,(3, 79),20	9002,(3, 80),1	9003,(3, 82),19	9022,(3, 83),1	9023,(3, 85),9	9032,(3, 86),85	9117,(3, 88),6	9123,(3, 90),1	9124,(3, 92),32	9156,(3, 94),1	9157,(3, 96),1	9158,(3, 97),9	9167,(3, 98),8	9175,(3, 99),5	9180,(3, 102),5	9185,(3, 104),1	9186,(3, 107),3	9189,(3, 108),5	9194,(3, 109),6	9200,(3, 111),28	9228,(3, 112),26	9254,(3, 113),1	9255,(3, 114),7	9262,(3, 115),16	9278,(3, 118),1	9279,(3, 119),17	9296,(3, 120),7	9303,(4, 14),4	9307,(4, 16),3	9310,(4, 17),1	9311,(4, 18),3	9314,(4, 19),1	9315,(4, 21),1	9316,(4, 27),8	9324,(4, 28),1	9325,(4, 29),4	9329,(4, 30),7	9336,(4, 31),14	9350,(4, 32),1	9351,(4, 34),1	9352,(4, 35),36	9388,(4, 37),7	9395,(4, 38),7	9402,(4, 40),1	9403,(4, 41),2	9405,(4, 45),12	9417,(4, 46),3	9420,(4, 47),3	9423,(4, 53),1	9424,(4, 55),1	9425,(4, 56),12	9437,(4, 57),14	9451,(4, 59),39	9490,(4, 68),3	9493,(4, 69),6	9499,(4, 70),4	9503,(4, 71),2	9505,(4, 72),1	9506,(4, 73),1	9507,(4, 77),1	9508,(4, 79),4	9512,(4, 82),10	9522,(4, 87),2	9524,(4, 88),9	9533,(4, 89),1	9534,(4, 90),1	9535,(4, 91),2	9537,(4, 92),6	9543,(4, 93),2	9545,(4, 94),1	9546,(4, 96),6	9552,(4, 100),6	9558,(4, 101),696	10254,(4, 104),5	10259,(4, 105),1	10260,(4, 106),1	10261,(4, 107),1	10262,(4, 108),8	10270,(4, 109),20	10290,(4, 113),6	10296,(4, 115),1	10297,(4, 116),1	10298,(4, 120),1	10299,(5, 13),273	10572,(5, 15),1	10573,(5, 19),1	10574,(5, 20),6	10580,(5, 21),1	10581,(5, 23),5	10586,(5, 25),2	10588,(5, 26),5	10593,(5, 28),1	10594,(5, 29),3	10597,(5, 30),82	10679,(5, 31),17	10696,(5, 32),1	10697,(5, 33),16	10713,(5, 34),1	10714,(5, 37),1	10715,(5, 38),1	10716,(5, 40),5	10721,(5, 43),3	10724,(5, 44),62	10786,(5, 45),25	10811,(5, 47),5	10816,(5, 50),25	10841,(5, 52),6	10847,(5, 53),18	10865,(5, 54),2	10867,(5, 55),2	10869,(5, 62),4	10873,(5, 63),14	10887,(5, 66),3	10890,(5, 68),24	10914,(5, 71),21	10935,(5, 74),1	10936,(5, 77),14	10950,(5, 80),9	10959,(5, 82),1	10960,(5, 84),1	10961,(5, 87),11	10972,(5, 89),14	10986,(5, 91),1	10987,(5, 92),4	10991,(5, 93),5	10996,(5, 94),14	11010,(5, 96),1	11011,(5, 97),3	11014,(5, 98),27	11041,(5, 99),1	11042,(5, 101),7	11049,(5, 102),1	11050,(5, 104),1	11051,(5, 105),2	11053,(5, 107),20	11073,(5, 109),4	11077,(5, 110),1	11078,(5, 111),1	11079,(5, 114),17	11096,(5, 120),3	11099,(6, 14),3	11102,(6, 16),2	11104,(6, 17),4	11108,(6, 18),1	11109,(6, 19),1	11110,(6, 21),6	11116,(6, 22),1	11117,(6, 24),16	11133,(6, 25),4	11137,(6, 28),5	11142,(6, 30),33	11175,(6, 32),2	11177,(6, 35),2	11179,(6, 36),2	11181,(6, 38),3	11184,(6, 39),1	11185,(6, 40),4	11189,(6, 43),1	11190,(6, 45),4	11194,(6, 47),8	11202,(6, 49),4	11206,(6, 50),11	11217,(6, 51),20	11237,(6, 52),9	11246,(6, 54),5	11251,(6, 55),7	11258,(6, 60),10	11268,(6, 62),2	11270,(6, 64),1	11271,(6, 67),24	11295,(6, 68),12	11307,(6, 79),12	11319,(6, 80),3	11322,(6, 81),2	11324,(6, 83),27	11351,(6, 84),2	11353,(6, 90),53	11406,(6, 91),1	11407,(6, 92),1	11408,(6, 93),2	11410,(6, 95),5	11415,(6, 97),1	11416,(6, 98),3	11419,(6, 100),2	11421,(6, 101),104	11525,(6, 103),1	11526,(6, 109),1	11527,(6, 112),1	11528,(6, 113),1	11529,(6, 115),18	11547,(6, 117),3	11550,(6, 120),3	11553,(7, 13),1	11554,(7, 16),6	11560,(7, 18),9	11569,(7, 23),3	11572,(7, 24),691	12263,(7, 25),55	12318,(7, 26),25	12343,(7, 27),2	12345,(7, 28),203	12548,(7, 29),1	12549,(7, 30),1	12550,(7, 31),16	12566,(7, 32),1	12567,(7, 35),50	12617,(7, 37),2	12619,(7, 39),2	12621,(7, 41),4	12625,(7, 43),1	12626,(7, 44),9	12635,(7, 46),1	12636,(7, 47),1	12637,(7, 48),3	12640,(7, 50),2	12642,(7, 52),10	12652,(7, 53),74	12726,(7, 56),6	12732,(7, 57),3	12735,(7, 59),2	12737,(7, 60),2	12739,(7, 62),4	12743,(7, 64),10	12753,(7, 66),11	12764,(7, 67),1	12765,(7, 68),1	12766,(7, 69),4	12770,(7, 71),1	12771,(7, 75),5	12776,(7, 76),7	12783,(7, 77),4	12787,(7, 78),22	12809,(7, 79),98	12907,(7, 80),10	12917,(7, 81),26	12943,(7, 82),2	12945,(7, 84),15	12960,(7, 90),8	12968,(7, 93),2	12970,(7, 94),17	12987,(7, 98),14	13001,(7, 100),12	13013,(7, 101),2	13015,(7, 102),1	13016,(7, 103),9	13025,(7, 104),17	13042,(7, 105),3	13045,(7, 106),2	13047,(7, 108),3	13050,(7, 110),4	13054,(7, 111),6	13060,(7, 112),8	13068,(7, 113),7	13075,(7, 114),10	13085,(7, 117),20	13105,(7, 118),4	13109,(7, 119),10	13119,(7, 120),10	13129,(9, 16),8	13137,(9, 18),1	13138,(9, 19),1	13139,(9, 20),7	13146,(9, 21),93	13239,(9, 24),11	13250,(9, 25),16	13266,(9, 27),1	13267,(9, 29),5	13272,(9, 32),157	13429,(9, 33),18	13447,(9, 38),56	13503,(9, 39),24	13527,(9, 40),1	13528,(9, 41),5	13533,(9, 42),3	13536,(9, 43),26	13562,(9, 46),46	13608,(9, 48),10	13618,(9, 50),2	13620,(9, 51),3	13623,(9, 52),41	13664,(9, 53),1	13665,(9, 61),71	13736,(9, 62),1	13737,(9, 66),4	13741,(9, 67),3	13744,(9, 68),729	14473,(9, 69),2	14475,(9, 70),1	14476,(9, 74),43	14519,(9, 75),2	14521,(9, 76),907	15428,(9, 78),30	15458,(9, 81),2	15460,(9, 83),16	15476,(9, 87),12	15488,(9, 88),19	15507,(9, 89),1	15508,(9, 91),6	15514,(9, 93),1	15515,(9, 97),13	15528,(9, 98),1	15529,(9, 100),1	15530,(9, 101),3	15533,(9, 103),1	15534,(9, 105),3	15537,(9, 108),31	15568,(9, 109),191	15759,(9, 110),1	15760,(9, 111),3	15763,(9, 112),20	15783,(9, 115),68	15851,(9, 116),3	15854,(9, 117),3	15857,(9, 120),10	15867,(10, 16),4	15871,(10, 20),23	15894,(10, 21),7	15901,(10, 23),1	15902,(10, 27),5	15907,(10, 28),1	15908,(10, 32),18	15926,(10, 33),7	15933,(10, 34),702	16635,(10, 35),3	16638,(10, 39),36	16674,(10, 40),17	16691,(10, 41),19	16710,(10, 42),9	16719,(10, 43),6	16725,(10, 44),50	16775,(10, 46),11	16786,(10, 48),12	16798,(10, 50),42	16840,(10, 51),20	16860,(10, 53),1	16861,(10, 57),43	16904,(10, 58),11	16915,(10, 61),3	16918,(10, 63),65	16983,(10, 65),10	16993,(10, 66),1	16994,(10, 67),1	16995,(10, 70),21	17016,(10, 72),17	17033,(10, 74),1	17034,(10, 78),1	17035,(10, 80),1	17036,(10, 81),1	17037,(10, 82),1	17038,(10, 83),57	17095,(10, 84),4	17099,(10, 86),3	17102,(10, 88),4	17106,(10, 89),3	17109,(10, 90),29	17138,(10, 92),8	17146,(10, 93),7	17153,(10, 96),1	17154,(10, 99),5	17159,(10, 102),201	17360,(10, 104),6	17366,(10, 105),65	17431,(10, 107),3	17434,(10, 108),4	17438,(10, 110),21	17459,(10, 112),6	17465,(10, 113),8	17473,(10, 114),6	17479,(10, 115),1	17480,(11, 14),5	17485,(11, 16),2	17487,(11, 18),32	17519,(11, 19),1	17520,(11, 20),64	17584,(11, 22),9	17593,(11, 23),1	17594,(11, 25),48	17642,(11, 26),10	17652,(11, 28),1	17653,(11, 30),36	17689,(11, 34),3	17692,(11, 38),1	17693,(11, 41),10	17703,(11, 42),1	17704,(11, 43),15	17719,(11, 45),21	17740,(11, 48),18	17758,(11, 50),23	17781,(11, 51),1	17782,(11, 53),3	17785,(11, 54),2	17787,(11, 59),11	17798,(11, 60),3	17801,(11, 61),3	17804,(11, 63),28	17832,(11, 64),2	17834,(11, 67),3	17837,(11, 69),1	17838,(11, 70),3	17841,(11, 71),1	17842,(11, 72),1	17843,(11, 76),20	17863,(11, 81),11	17874,(11, 83),2	17876,(11, 85),15	17891,(11, 86),1	17892,(11, 87),1	17893,(11, 90),5	17898,(11, 91),15	17913,(11, 92),20	17933,(11, 97),3	17936,(11, 98),22	17958,(11, 99),4	17962,(11, 100),11	17973,(11, 102),3	17976,(11, 103),1	17977,(11, 105),32	18009,(11, 106),4	18013,(11, 108),1	18014,(11, 109),2	18016,(11, 110),1	18017,(11, 111),1	18018,(11, 114),3	18021,(11, 115),75	18096,(11, 116),3	18099,(11, 117),5	

1,(0, 1),196	589,(0, 5),196	1177,(0, 9),196	
197,(0, 3),196	785,(0, 6),196	1373,(0, 10),196	
393,(0, 4),196	981,(0, 7),196	1569,(0, 11),196	
# Outgoing

1,(0, 1),196	197,(0, 3),196	393,(0, 4),196	589,(0, 5),196	785,(0, 6),196	981,(0, 7),196	1177,(0, 9),196	1373,(0, 10),196	1569,(0, 11),196	1765,(2, 13),5	1770,(2, 15),4	1774,(2, 17),1	1775,(2, 18),2	1777,(2, 19),1	1778,(2, 20),2	1780,(2, 22),1	1781,(2, 24),1	1782,(2, 27),1	1783,(2, 29),4	1787,(2, 32),1	1788,(2, 33),3	1791,(2, 34),1	1792,(2, 36),20	1812,(2, 37),1	1813,(2, 38),7	1820,(2, 40),5	1825,(2, 41),7	1832,(2, 43),17	1849,(2, 44),2	1851,(2, 45),22	1873,(2, 48),2	1875,(2, 51),1	1876,(2, 54),1510	3386,(2, 56),3	3389,(2, 58),13	3402,(2, 59),4	3406,(2, 60),10	3416,(2, 61),20	3436,(2, 62),4	3440,(2, 64),1	3441,(2, 65),15	3456,(2, 66),1	3457,(2, 68),35	3492,(2, 69),2	3494,(2, 72),26	3520,(2, 73),2	3522,(2, 74),1	3523,(2, 76),8	3531,(2, 77),1	3532,(2, 80),22	3554,(2, 81),10	3564,(2, 85),4	3568,(2, 86),1	3569,(2, 87),3	3572,(2, 88),9	3581,(2, 90),4	3585,(2, 91),1	3586,(2, 93),2	3588,(2, 95),6	3594,(2, 97),1	3595,(2, 102),1	3596,(2, 103),5	3601,(2, 105),5	3606,(2, 106),46	3652,(2, 107),2	3654,(2, 109),1	3655,(2, 110),4	3659,(2, 111),7	3666,(2, 114),1	3667,(2, 115),3	3670,(2, 117),211	3881,(2, 119),5	3886,(12, 13),1	3887,(12, 14),32	3919,(12, 15),3	3922,(12, 16),8	3930,(12, 18),6	3936,(12, 19),4	3940,(12, 21),6	3946,(12, 23),5	3951,(12, 25),1	3952,(12, 26),5	3957,(12, 28),5	3962,(12, 29),12	3974,(12, 31),1	3975,(12, 32),5	3980,(12, 34),9	3989,(12, 35),1	3990,(12, 36),55	4045,(12, 37),257	4302,(12, 38),46	4348,(12, 40),3	4351,(12, 42),8	4359,(12, 44),9	4368,(12, 45),2	4370,(12, 48),1	4371,(12, 50),172	4543,(12, 51),2	4545,(12, 52),41	4586,(12, 54),85	4671,(12, 55),1	4672,(12, 56),221	4893,(12, 59),4	4897,(12, 61),10	4907,(12, 62),718	5625,(12, 64),15	5640,(12, 66),11	5651,(12, 69),104	5755,(12, 71),2	5757,(12, 72),23	5780,(12, 75),17	5797,(12, 76),5	5802,(12, 77),1	5803,(12, 78),28	5831,(12, 79),3	5834,(12, 81),41	5875,(12, 84),4	5879,(12, 86),1	5880,(12, 88),1	5881,(12, 90),1	5882,(12, 94),3	5885,(12, 95),49	5934,(12, 96),10	5944,(12, 97),10	5954,(12, 98),1	5955,(12, 99),123	6078,(12, 101),9	6087,(12, 105),8	6095,(12, 108),54	6149,(12, 109),5	6154,(12, 111),3	6157,(12, 112),14	6171,(12, 113),21	6192,(12, 114),5	6197,(12, 116),1	6198,(12, 118),8	6206,(8, 13),13	6219,(8, 14),7	6226,(8, 15),146	6372,(8, 16),17	6389,(8, 17),24	6413,(8, 18),1	6414,(8, 19),1	6415,(8, 22),6	6421,(8, 24),20	6441,(8, 25),14	6455,(8, 29),75	6530,(8, 31),48	6578,(8, 32),1	6579,(8, 33),8	6587,(8, 37),137	6724,(8, 41),2	6726,(8, 42),1	6727,(8, 44),1	6728,(8, 47),1	6729,(8, 48),4	6733,(8, 49),1	6734,(8, 50),3	6737,(8, 52),368	7105,(8, 53),92	7197,(8, 55),4	7201,(8, 58),2	7203,(8, 60),1	7204,(8, 63),1	7205,(8, 64),1	7206,(8, 65),41	7247,(8, 66),1	7248,(8, 70),3	7251,(8, 71),2	7253,(8, 72),1	7254,(8, 73),4	7258,(8, 77),8	7266,(8, 78),1	7267,(8, 79),1	7268,(8, 80),1	7269,(8, 82),51	7320,(8, 83),1	7321,(8, 86),1	7322,(8, 87),1	7323,(8, 88),1	7324,(8, 93),1	7325,(8, 94),2	7327,(8, 98),13	7340,(8, 99),158	7498,(8, 100),1	7499,(8, 101),15	7514,(8, 103),1	7515,(8, 104),8	7523,(8, 105),29	7552,(8, 108),1	7553,(8, 110),7	7560,(8, 111),18	7578,(8, 112),7	7585,(8, 113),7	7592,(8, 114),4	7596,(8, 115),1	7597,(8, 118),4	7601,(8, 120),5	
7606,(1, 13),13	7619,(1, 15),1	7620,(1, 16),1	7621,(1, 17),8	7629,(1, 18),3	7632,(1, 20),47	7679,(1, 21),5	7684,(1, 22),4	7688,(1, 23),1	7689,(1, 25),1	7690,(1, 26),16	7706,(1, 27),6	7712,(1, 30),1	7713,(1, 35),2	7715,(1, 37),7	7722,(1, 40),4	7726,(1, 45),2	7728,(1, 48),3	7731,(1, 49),14	7745,(1, 52),15	7760,(1, 53),26	7786,(1, 57),90	7876,(1, 58),267	8143,(1, 59),1	8144,(1, 60),1	8145,(1, 61),10	8155,(1, 65),26	8181,(1, 71),1	8182,(1, 72),9	8191,(1, 73),7	8198,(1, 74),185	8383,(1, 75),4	8387,(1, 76),25	8412,(1, 78),11	8423,(1, 79),34	8457,(1, 80),19	8476,(1, 81),1	8477,(1, 82),1	8478,(1, 85),35	8513,(1, 86),20	8533,(1, 89),1	8534,(1, 90),8	8542,(1, 91),42	8584,(1, 95),1	8585,(1, 99),1	8586,(1, 103),5	8591,(1, 104),12	8603,(1, 105),1	8604,(1, 108),7	8611,(1, 115),1	8612,(1, 116),4	8616,(1, 117),8	8624,(1, 118),3	8627,(1, 120),6	10299,(5, 13),273	10572,(5, 15),1	10573,(5, 19),1	10574,(5, 20),6	10580,(5, 21),1	10581,(5, 23),5	10586,(5, 25),2	10588,(5, 26),5	10593,(5, 28),1	10594,(5, 29),3	10597,(5, 30),82	10679,(5, 31),17	10696,(5, 32),1	10697,(5, 33),16	10713,(5, 34),1	10714,(5, 37),1	10715,(5, 38),1	10716,(5, 40),5	10721,(5, 43),3	10724,(5, 44),62	10786,(5, 45),25	10811,(5, 47),5	10816,(5, 50),25	10841,(5, 52),6	10847,(5, 53),18	10865,(5, 54),2	10867,(5, 55),2	10869,(5, 62),4	10873,(5, 63),14	10887,(5, 66),3	10890,(5, 68),24	10914,(5, 71),21	10935,(5, 74),1	10936,(5, 77),14	10950,(5, 80),9	10959,(5, 82),1	10960,(5, 84),1	10961,(5, 87),11	10972,(5, 89),14	10986,(5, 91),1	10987,(5, 92),4	10991,(5, 93),5	10996,(5, 94),14	11010,(5, 96),1	11011,(5, 97),3	11014,(5, 98),27	11041,(5, 99),1	11042,(5, 101),7	11049,(5, 102),1	11050,(5, 104),1	11051,(5, 105),2	11053,(5, 107),20	11073,(5, 109),4	11077,(5, 110),1	11078,(5, 111),1	11079,(5, 114),17	11096,(5, 120),3	13129,(9, 16),8	13137,(9, 18),1	13138,(9, 19),1	13139,(9, 20),7	13146,(9, 21),93	13239,(9, 24),11	13250,(9, 25),16	13266,(9, 27),1	13267,(9, 29),5	13272,(9, 32),157	13429,(9, 33),18	13447,(9, 38),56	13503,(9, 39),24	13527,(9, 40),1	13528,(9, 41),5	13533,(9, 42),3	13536,(9, 43),26	13562,(9, 46),46	13608,(9, 48),10	13618,(9, 50),2	13620,(9, 51),3	13623,(9, 52),41	13664,(9, 53),1	13665,(9, 61),71	13736,(9, 62),1	13737,(9, 66),4	13741,(9, 67),3	13744,(9, 68),729	14473,(9, 69),2	14475,(9, 70),1	14476,(9, 74),43	14519,(9, 75),2	14521,(9, 76),907	15428,(9, 78),30	15458,(9, 81),2	15460,(9, 83),16	15476,(9, 87),12	15488,(9, 88),19	15507,(9, 89),1	15508,(9, 91),6	15514,(9, 93),1	15515,(9, 97),13	15528,(9, 98),1	15529,(9, 100),1	15530,(9, 101),3	15533,(9, 103),1	15534,(9, 105),3	15537,(9, 108),31	15568,(9, 109),191	15759,(9, 110),1	15760,(9, 111),3	15763,(9, 112),20	15783,(9, 115),68	15851,(9, 116),3	15854,(9, 117),3	15857,(9, 120),10	
8633,(3, 14),8	8641,(3, 16),7	8648,(3, 18),8	8656,(3, 19),9	8665,(3, 20),1	8666,(3, 21),8	8674,(3, 24),4	8678,(3, 27),15	8693,(3, 29),1	8694,(3, 32),1	8695,(3, 33),8	8703,(3, 34),15	8718,(3, 35),1	8719,(3, 36),2	8721,(3, 37),130	8851,(3, 39),1	8852,(3, 40),3	8855,(3, 41),5	8860,(3, 43),12	8872,(3, 49),11	8883,(3, 50),10	8893,(3, 53),2	8895,(3, 55),30	8925,(3, 56),1	8926,(3, 61),6	8932,(3, 63),5	8937,(3, 64),3	8940,(3, 65),3	8943,(3, 66),1	8944,(3, 67),1	8945,(3, 72),24	8969,(3, 77),1	8970,(3, 78),12	8982,(3, 79),20	9002,(3, 80),1	9003,(3, 82),19	9022,(3, 83),1	9023,(3, 85),9	9032,(3, 86),85	9117,(3, 88),6	9123,(3, 90),1	9124,(3, 92),32	9156,(3, 94),1	9157,(3, 96),1	9158,(3, 97),9	9167,(3, 98),8	9175,(3, 99),5	9180,(3, 102),5	9185,(3, 104),1	9186,(3, 107),3	9189,(3, 108),5	9194,(3, 109),6	9200,(3, 111),28	9228,(3, 112),26	9254,(3, 113),1	9255,(3, 114),7	9262,(3, 115),16	9278,(3, 118),1	9279,(3, 119),17	9296,(3, 120),7	11099,(6, 14),3	11102,(6, 16),2	11104,(6, 17),4	11108,(6, 18),1	11109,(6, 19),1	11110,(6, 21),6	11116,(6, 22),1	11117,(6, 24),16	11133,(6, 25),4	11137,(6, 28),5	11142,(6, 30),33	11175,(6, 32),2	11177,(6, 35),2	11179,(6, 36),2	11181,(6, 38),3	11184,(6, 39),1	11185,(6, 40),4	11189,(6, 43),1	11190,(6, 45),4	11194,(6, 47),8	11202,(6, 49),4	11206,(6, 50),11	11217,(6, 51),20	11237,(6, 52),9	11246,(6, 54),5	11251,(6, 55),7	11258,(6, 60),10	11268,(6, 62),2	11270,(6, 64),1	11271,(6, 67),24	11295,(6, 68),12	11307,(6, 79),12	11319,(6, 80),3	11322,(6, 81),2	11324,(6, 83),27	11351,(6, 84),2	11353,(6, 90),53	11406,(6, 91),1	11407,(6, 92),1	11408,(6, 93),2	11410,(6, 95),5	11415,(6, 97),1	11416,(6, 98),3	11419,(6, 100),2	11421,(6, 101),104	11525,(6, 103),1	11526,(6, 109),1	11527,(6, 112),1	11528,(6, 113),1	11529,(6, 115),18	11547,(6, 117),3	11550,(6, 120),3	15867,(10, 16),4	15871,(10, 20),23	15894,(10, 21),7	15901,(10, 23),1	15902,(10, 27),5	15907,(10, 28),1	15908,(10, 32),18	15926,(10, 33),7	15933,(10, 34),702	16635,(10, 35),3	16638,(10, 39),36	16674,(10, 40),17	16691,(10, 41),19	16710,(10, 42),9	16719,(10, 43),6	16725,(10, 44),50	16775,(10, 46),11	16786,(10, 48),12	16798,(10, 50),42	16840,(10, 51),20	16860,(10, 53),1	16861,(10, 57),43	16904,(10, 58),11	16915,(10, 61),3	16918,(10, 63),65	16983,(10, 65),10	16993,(10, 66),1	16994,(10, 67),1	16995,(10, 70),21	17016,(10, 72),17	17033,(10, 74),1	17034,(10, 78),1	17035,(10, 80),1	17036,(10, 81),1	17037,(10, 82),1	17038,(10, 83),57	17095,(10, 84),4	17099,(10, 86),3	17102,(10, 88),4	17106,(10, 89),3	17109,(10, 90),29	17138,(10, 92),8	17146,(10, 93),7	17153,(10, 96),1	17154,(10, 99),5	17159,(10, 102),201	17360,(10, 104),6	17366,(10, 105),65	17431,(10, 107),3	17434,(10, 108),4	17438,(10, 110),21	17459,(10, 112),6	17465,(10, 113),8	17473,(10, 114),6	17479,(10, 115),1	
9303,(4, 14),4	9307,(4, 16),3	9310,(4, 17),1	9311,(4, 18),3	9314,(4, 19),1	9315,(4, 21),1	9316,(4, 27),8	9324,(4, 28),1	9325,(4, 29),4	9329,(4, 30),7	9336,(4, 31),14	9350,(4, 32),1	9351,(4, 34),1	9352,(4, 35),36	9388,(4, 37),7	9395,(4, 38),7	9402,(4, 40),1	9403,(4, 41),2	9405,(4, 45),12	9417,(4, 46),3	9420,(4, 47),3	9423,(4, 53),1	9424,(4, 55),1	9425,(4, 56),12	9437,(4, 57),14	9451,(4, 59),39	9490,(4, 68),3	9493,(4, 69),6	9499,(4, 70),4	9503,(4, 71),2	9505,(4, 72),1	9506,(4, 73),1	9507,(4, 77),1	9508,(4, 79),4	9512,(4, 82),10	9522,(4, 87),2	9524,(4, 88),9	9533,(4, 89),1	9534,(4, 90),1	9535,(4, 91),2	9537,(4, 92),6	9543,(4, 93),2	9545,(4, 94),1	9546,(4, 96),6	9552,(4, 100),6	9558,(4, 101),696	10254,(4, 104),5	10259,(4, 105),1	10260,(4, 106),1	10261,(4, 107),1	10262,(4, 108),8	10270,(4, 109),20	10290,(4, 113),6	10296,(4, 115),1	10297,(4, 116),1	10298,(4, 120),1	11553,(7, 13),1	11554,(7, 16),6	11560,(7, 18),9	11569,(7, 23),3	11572,(7, 24),691	12263,(7, 25),55	12318,(7, 26),25	12343,(7, 27),2	12345,(7, 28),203	12548,(7, 29),1	12549,(7, 30),1	12550,(7, 31),16	12566,(7, 32),1	12567,(7, 35),50	12617,(7, 37),2	12619,(7, 39),2	12621,(7, 41),4	12625,(7, 43),1	12626,(7, 44),9	12635,(7, 46),1	12636,(7, 47),1	12637,(7, 48),3	12640,(7, 50),2	12642,(7, 52),10	12652,(7, 53),74	12726,(7, 56),6	12732,(7, 57),3	12735,(7, 59),2	12737,(7, 60),2	12739,(7, 62),4	12743,(7, 64),10	12753,(7, 66),11	12764,(7, 67),1	12765,(7, 68),1	12766,(7, 69),4	12770,(7, 71),1	12771,(7, 75),5	12776,(7, 76),7	12783,(7, 77),4	12787,(7, 78),22	12809,(7, 79),98	12907,(7, 80),10	12917,(7, 81),26	12943,(7, 82),2	12945,(7, 84),15	12960,(7, 90),8	12968,(7, 93),2	12970,(7, 94),17	12987,(7, 98),14	13001,(7, 100),12	13013,(7, 101),2	13015,(7, 102),1	13016,(7, 103),9	13025,(7, 104),17	13042,(7, 105),3	13045,(7, 106),2	13047,(7, 108),3	13050,(7, 110),4	13054,(7, 111),6	13060,(7, 112),8	13068,(7, 113),7	13075,(7, 114),10	13085,(7, 117),20	13105,(7, 118),4	13109,(7, 119),10	13119,(7, 120),10	17480,(11, 14),5	17485,(11, 16),2	17487,(11, 18),32	17519,(11, 19),1	17520,(11, 20),64	17584,(11, 22),9	17593,(11, 23),1	17594,(11, 25),48	17642,(11, 26),10	17652,(11, 28),1	17653,(11, 30),36	17689,(11, 34),3	17692,(11, 38),1	17693,(11, 41),10	17703,(11, 42),1	17704,(11, 43),15	17719,(11, 45),21	17740,(11, 48),18	17758,(11, 50),23	17781,(11, 51),1	17782,(11, 53),3	17785,(11, 54),2	17787,(11, 59),11	17798,(11, 60),3	17801,(11, 61),3	17804,(11, 63),28	17832,(11, 64),2	17834,(11, 67),3	17837,(11, 69),1	17838,(11, 70),3	17841,(11, 71),1	17842,(11, 72),1	17843,(11, 76),20	17863,(11, 81),11	17874,(11, 83),2	17876,(11, 85),15	17891,(11, 86),1	17892,(11, 87),1	17893,(11, 90),5	17898,(11, 91),15	17913,(11, 92),20	17933,(11, 97),3	17936,(11, 98),22	17958,(11, 99),4	17962,(11, 100),11	17973,(11, 102),3	17976,(11, 103),1	17977,(11, 105),32	18009,(11, 106),4	18013,(11, 108),1	18014,(11, 109),2	18016,(11, 110),1	18017,(11, 111),1	18018,(11, 114),3	18021,(11, 115),75	18096,(11, 116),3	18099,(11, 117),5	
