10666
# CPU
1809,49,2	1857,83,2	2637,87,2	2753,88,2	3537,43,2	4381,117,2	4609,31,2	4877,51,2	4917,77,2	5001,94,2	5441,16,2	5661,71,2	5665,79,2	5837,95,2	6181,82,2	6769,81,2	6909,19,2	6953,27,2	6957,80,2	6985,84,2	7005,61,2	7097,68,2	7105,86,2	7149,91,2	7253,104,2	7601,34,2	8045,62,2	8065,115,2	8161,14,2	8165,17,2	8177,20,2	8261,22,2	8297,23,2	8305,37,2	8309,38,2	8313,55,2	8329,76,2	8349,92,2	8353,96,2	8401,101,2	8725,48,2	8805,63,2	9021,100,2	9173,112,2	9261,113,2	9425,29,2	9445,46,2	9469,58,2	9481,105,2	9493,106,2	9573,108,2	9621,114,2	10665,121,1	
61,1,2	63,35,2	65,78,2	67,97,2	421,9,2	423,32,2	425,120,2	427,53,2	429,89,2	513,33,2	529,36,2	1193,59,2	1781,69,2	2865,109,2	2877,110,2	4357,107,2	4821,42,2	
181,5,2	183,25,2	185,56,2	187,57,2	241,6,2	243,64,2	245,85,2	247,111,2	249,65,2	361,8,2	363,90,2	1517,93,2	1565,24,2	2989,116,2	3181,119,2	3185,26,2	3857,75,2	
0,0,1	1,2,2	3,4,2	5,11,2	7,12,2	9,103,2	11,13,2	13,18,2	15,47,2	17,15,2	19,67,2	21,21,2	23,70,2	25,74,2	529,72,2	545,66,2	6957,28,2	6985,60,2	
121,3,2	123,52,2	301,7,2	303,39,2	305,40,2	481,10,2	483,44,2	485,99,2	1621,30,2	1717,54,2	1813,73,2	3445,41,2	3541,50,2	5841,98,2	5977,118,2	6701,45,2	7401,102,2	
# Incoming
481,(2, 22),8	489,(3, 17),12	501,(3, 31),12	513,(3, 58),4	517,(3, 61),4	521,(3, 62),4	529,(2, 38),40	569,(2, 55),588	1157,(3, 49),32	1189,(3, 113),4	1193,(2, 79),108	1301,(2, 81),12	1313,(2, 82),4	1317,(2, 83),152	1469,(2, 86),4	1473,(3, 68),8	1481,(3, 115),28	1509,(7, 84),4	1513,(7, 86),4	1517,(2, 105),28	1545,(4, 20),12	1557,(4, 23),4	1561,(3, 87),52	1613,(7, 105),8	1621,(4, 31),4	1625,(4, 46),20	1645,(4, 51),8	1653,(52, 121),36	1689,(7, 29),24	1713,(7, 117),4	1717,(4, 62),56	1773,(7, 43),20	1793,(7, 49),12	1805,(10, 49),4	1809,(10, 112),4	1813,(4, 79),4	1817,(4, 83),40	1857,(4, 86),252	2109,(4, 87),528	2637,(4, 88),116	2753,(4, 94),4	2757,(4, 95),88	2845,(7, 51),12	2857,(7, 96),16	2877,(4, 112),4	2881,(4, 114),76	2957,(7, 100),20	2977,(10, 61),12	2989,(4, 117),152	3141,(7, 91),44	3185,(11, 37),4	3189,(11, 38),252	3449,(11, 43),88	3541,(11, 62),144	3685,(11, 71),168	3857,(11, 77),148	4005,(11, 94),12	4017,(11, 95),16	4033,(11, 101),320	4357,(11, 117),24	4381,(12, 14),28	4409,(12, 16),72	4481,(12, 20),60	4541,(12, 22),4	4545,(12, 23),36	4581,(12, 27),20	4601,(12, 31),8	4609,(12, 34),172	4781,(12, 37),36	4821,(12, 48),32	4853,(12, 51),24	4877,(12, 55),4	4881,(12, 71),28	4909,(12, 77),8	4917,(12, 82),24	4941,(12, 92),8	4949,(12, 94),52	5001,(12, 100),4	5005,(12, 104),16	5021,(103, 121),36	5057,(13, 121),36	5093,(18, 121),36	5129,(47, 121),36	5165,(15, 121),36	5201,(67, 121),36	5237,(21, 121),36	5273,(70, 121),36	5309,(74, 121),36	5345,(1, 16),96	5441,(1, 19),40	5481,(1, 23),124	5605,(1, 38),36	5641,(1, 71),20	5661,(1, 79),4	5665,(1, 80),16	5681,(1, 81),4	5685,(1, 84),28	5713,(1, 86),120	5833,(1, 95),4	5841,(1, 106),24	5865,(35, 121),36	5901,(78, 121),36	5937,(97, 121),36	5973,(3, 76),112	6085,(3, 82),96	6181,(5, 14),168	6349,(5, 22),328	6677,(5, 37),20	6697,(9, 17),4	6701,(5, 61),24	6725,(5, 68),36	6761,(5, 81),8	6769,(5, 108),20	6789,(25, 121),36	6825,(56, 121),36	6861,(57, 121),36	6897,(6, 19),12	6909,(6, 27),44	6953,(9, 80),4	6957,(6, 38),24	6981,(9, 84),4	6985,(6, 61),20	7005,(6, 63),72	7077,(6, 68),20	7097,(6, 76),4	7101,(6, 86),4	7105,(6, 91),44	7149,(6, 96),40	7189,(6, 101),4	7193,(6, 104),60	7253,(64, 121),36	7289,(85, 121),36	7325,(111, 121),36	7361,(65, 121),36	7397,(7, 17),92	7489,(7, 34),112	7601,(7, 46),72	7673,(7, 58),148	7821,(7, 62),224	8045,(7, 115),20	8065,(39, 121),36	8101,(40, 121),36	8137,(8, 14),24	8161,(8, 17),4	8165,(8, 20),12	8177,(8, 22),84	8261,(8, 23),36	8297,(8, 37),8	8305,(8, 38),4	8309,(8, 55),4	8313,(8, 76),16	8329,(8, 92),20	8349,(8, 96),4	8353,(8, 101),48	8401,(8, 105),24	8425,(90, 121),36	8461,(9, 48),264	8725,(9, 63),80	8805,(9, 100),216	9021,(9, 112),152	9173,(9, 113),88	9261,(32, 121),36	9297,(120, 121),36	9333,(53, 121),36	9369,(89, 121),36	9405,(10, 29),20	9425,(10, 46),20	9445,(10, 58),24	9469,(10, 105),12	9481,(10, 106),12	9493,(10, 108),80	9573,(10, 114),48	9621,(44, 121),36	9657,(99, 121),36	9693,(33, 121),36	9729,(72, 121),36	9765,(36, 121),36	9801,(66, 121),36	9837,(59, 121),36	9873,(93, 121),36	9909,(24, 121),36	9945,(30, 121),36	9981,(54, 121),36	10017,(69, 121),36	10053,(73, 121),36	10089,(109, 121),36	10125,(110, 121),36	10161,(116, 121),36	10197,(119, 121),36	10233,(26, 121),36	10269,(41, 121),36	10305,(50, 121),36	10341,(75, 121),36	10377,(107, 121),36	10413,(42, 121),36	10449,(98, 121),36	10485,(118, 121),36	10521,(45, 121),36	10557,(28, 121),36	10593,(60, 121),36	10629,(102, 121),36	
1,(0, 1),60	361,(0, 9),60	489,(2, 33),24	513,(2, 36),16	529,(3, 69),4	533,(3, 109),4	1157,(2, 59),36	1773,(4, 69),8	2845,(4, 109),20	2865,(4, 110),12	3445,(11, 42),4	4353,(11, 107),4	4817,(12, 42),4	
121,(0, 5),60	181,(0, 6),60	301,(0, 8),60	537,(7, 116),4	545,(10, 75),4	1473,(2, 93),44	1561,(4, 24),4	2957,(4, 116),32	3177,(4, 119),4	3181,(11, 26),4	3853,(11, 75),4	
525,(3, 72),4	541,(10, 66),4	6953,(6, 28),4	6981,(6, 60),4	
61,(0, 3),60	241,(0, 7),60	421,(0, 10),60	1565,(4, 30),56	1653,(4, 54),64	1781,(4, 73),32	3141,(4, 118),36	3441,(11, 41),4	3537,(11, 50),4	5837,(1, 98),4	5973,(9, 118),4	6697,(5, 45),4	7397,(8, 102),4	
# Outgoing

5345,(1, 16),96	5441,(1, 19),40	5481,(1, 23),124	5605,(1, 38),36	5641,(1, 71),20	5661,(1, 79),4	5665,(1, 80),16	5681,(1, 81),4	5685,(1, 84),28	5713,(1, 86),120	5833,(1, 95),4	5837,(1, 98),4	5841,(1, 106),24	5865,(35, 121),36	5901,(78, 121),36	5937,(97, 121),36	5973,(9, 118),4	6697,(9, 17),4	6953,(9, 80),4	6981,(9, 84),4	8461,(9, 48),264	8725,(9, 63),80	8805,(9, 100),216	9021,(9, 112),152	9173,(9, 113),88	9261,(32, 121),36	9297,(120, 121),36	9333,(53, 121),36	9369,(89, 121),36	9693,(33, 121),36	9765,(36, 121),36	9837,(59, 121),36	10017,(69, 121),36	10089,(109, 121),36	10125,(110, 121),36	10377,(107, 121),36	10413,(42, 121),36	
6181,(5, 14),168	6349,(5, 22),328	6677,(5, 37),20	6697,(5, 45),4	6701,(5, 61),24	6725,(5, 68),36	6761,(5, 81),8	6769,(5, 108),20	6789,(25, 121),36	6825,(56, 121),36	6861,(57, 121),36	6897,(6, 19),12	6909,(6, 27),44	6953,(6, 28),4	6957,(6, 38),24	6981,(6, 60),4	6985,(6, 61),20	7005,(6, 63),72	7077,(6, 68),20	7097,(6, 76),4	7101,(6, 86),4	7105,(6, 91),44	7149,(6, 96),40	7189,(6, 101),4	7193,(6, 104),60	7253,(64, 121),36	7289,(85, 121),36	7325,(111, 121),36	7361,(65, 121),36	7397,(8, 102),4	8137,(8, 14),24	8161,(8, 17),4	8165,(8, 20),12	8177,(8, 22),84	8261,(8, 23),36	8297,(8, 37),8	8305,(8, 38),4	8309,(8, 55),4	8313,(8, 76),16	8329,(8, 92),20	8349,(8, 96),4	8353,(8, 101),48	8401,(8, 105),24	8425,(90, 121),36	9873,(93, 121),36	9909,(24, 121),36	10161,(116, 121),36	10197,(119, 121),36	10233,(26, 121),36	10341,(75, 121),36	
1,(0, 1),60	61,(0, 3),60	121,(0, 5),60	181,(0, 6),60	241,(0, 7),60	301,(0, 8),60	361,(0, 9),60	421,(0, 10),60	481,(2, 22),8	489,(2, 33),24	513,(2, 36),16	529,(2, 38),40	569,(2, 55),588	1157,(2, 59),36	1193,(2, 79),108	1301,(2, 81),12	1313,(2, 82),4	1317,(2, 83),152	1469,(2, 86),4	1473,(2, 93),44	1517,(2, 105),28	1545,(4, 20),12	1557,(4, 23),4	1561,(4, 24),4	1565,(4, 30),56	1621,(4, 31),4	1625,(4, 46),20	1645,(4, 51),8	1653,(4, 54),64	1717,(4, 62),56	1773,(4, 69),8	1781,(4, 73),32	1813,(4, 79),4	1817,(4, 83),40	1857,(4, 86),252	2109,(4, 87),528	2637,(4, 88),116	2753,(4, 94),4	2757,(4, 95),88	2845,(4, 109),20	2865,(4, 110),12	2877,(4, 112),4	2881,(4, 114),76	2957,(4, 116),32	2989,(4, 117),152	3141,(4, 118),36	3177,(4, 119),4	3181,(11, 26),4	3185,(11, 37),4	3189,(11, 38),252	3441,(11, 41),4	3445,(11, 42),4	3449,(11, 43),88	3537,(11, 50),4	3541,(11, 62),144	3685,(11, 71),168	3853,(11, 75),4	3857,(11, 77),148	4005,(11, 94),12	4017,(11, 95),16	4033,(11, 101),320	4353,(11, 107),4	4357,(11, 117),24	4381,(12, 14),28	4409,(12, 16),72	4481,(12, 20),60	4541,(12, 22),4	4545,(12, 23),36	4581,(12, 27),20	4601,(12, 31),8	4609,(12, 34),172	4781,(12, 37),36	4817,(12, 42),4	4821,(12, 48),32	4853,(12, 51),24	4877,(12, 55),4	4881,(12, 71),28	4909,(12, 77),8	4917,(12, 82),24	4941,(12, 92),8	4949,(12, 94),52	5001,(12, 100),4	5005,(12, 104),16	5021,(103, 121),36	5057,(13, 121),36	5093,(18, 121),36	5129,(47, 121),36	5165,(15, 121),36	5201,(67, 121),36	5237,(21, 121),36	5273,(70, 121),36	5309,(74, 121),36	9729,(72, 121),36	9801,(66, 121),36	10557,(28, 121),36	10593,(60, 121),36	
489,(3, 17),12	501,(3, 31),12	513,(3, 58),4	517,(3, 61),4	521,(3, 62),4	525,(3, 72),4	529,(3, 69),4	533,(3, 109),4	537,(7, 116),4	541,(10, 66),4	545,(10, 75),4	1157,(3, 49),32	1189,(3, 113),4	1473,(3, 68),8	1481,(3, 115),28	1509,(7, 84),4	1513,(7, 86),4	1561,(3, 87),52	1613,(7, 105),8	1653,(52, 121),36	1689,(7, 29),24	1713,(7, 117),4	1773,(7, 43),20	1793,(7, 49),12	1805,(10, 49),4	1809,(10, 112),4	2845,(7, 51),12	2857,(7, 96),16	2957,(7, 100),20	2977,(10, 61),12	3141,(7, 91),44	5973,(3, 76),112	6085,(3, 82),96	7397,(7, 17),92	7489,(7, 34),112	7601,(7, 46),72	7673,(7, 58),148	7821,(7, 62),224	8045,(7, 115),20	8065,(39, 121),36	8101,(40, 121),36	9405,(10, 29),20	9425,(10, 46),20	9445,(10, 58),24	9469,(10, 105),12	9481,(10, 106),12	9493,(10, 108),80	9573,(10, 114),48	9621,(44, 121),36	9657,(99, 121),36	9945,(30, 121),36	9981,(54, 121),36	10053,(73, 121),36	10269,(41, 121),36	10305,(50, 121),36	10449,(98, 121),36	10485,(118, 121),36	10521,(45, 121),36	10629,(102, 121),36	
