302
# CPU
0,41,1	1,31,8	9,8,8	17,20,8	25,28,8	33,11,8	41,29,8	49,30,8	57,26,8	65,24,8	73,5,8	81,38,8	89,9,8	97,35,8	105,23,8	113,14,8	121,33,8	129,16,8	137,32,8	145,21,8	153,15,8	161,7,8	169,13,8	177,34,8	185,27,8	193,22,8	201,25,8	209,10,8	217,19,8	225,12,8	233,6,8	241,18,8	249,40,8	257,17,8	265,4,8	273,3,8	281,2,8	293,1,8	301,0,1	
217,36,8	

73,39,8	145,37,8	
# Incoming
81,(39, 4),2	83,(39, 2),8	153,(37, 4),2	155,(37, 1),16	225,(36, 3),2	227,(36, 2),22	249,(36, 1),44	
145,(41, 36),72	

1,(41, 39),72	73,(41, 37),72	
# Outgoing
1,(41, 39),72	73,(41, 37),72	145,(41, 36),72	
225,(36, 3),2	227,(36, 2),22	249,(36, 1),44	

81,(39, 4),2	83,(39, 2),8	153,(37, 4),2	155,(37, 1),16	
