5444
# CPU
16,5,1	17,17,1	18,65,1	31,8,1	32,27,1	33,46,1	34,54,1	35,60,1	36,70,1	184,12,1	202,15,1	1135,31,1	3247,38,1	3280,39,1	3328,40,1	3331,47,1	3580,32,1	4123,71,1	4162,25,1	4198,37,1	4720,45,1	4759,13,1	4807,19,1	4867,48,1	4903,49,1	4936,50,1	4975,57,1	5116,72,1	5119,75,1	5134,11,1	5146,24,1	5149,26,1	5152,33,1	5233,41,1	5269,42,1	5290,53,1	5323,58,1	5335,61,1	5338,64,1	5341,66,1	5443,81,1	
0,0,1	1,1,1	2,7,1	3,4,1	4,2,1	5,6,1	6,3,1	7,68,1	8,22,1	9,20,1	10,55,1	11,51,1	12,78,1	13,63,1	14,44,1	15,9,1	16,79,1	17,76,1	18,80,1	19,36,1	20,14,1	21,77,1	22,73,1	23,56,1	24,52,1	25,34,1	26,23,1	27,35,1	28,74,1	29,69,1	30,67,1	31,30,1	32,62,1	33,18,1	34,21,1	35,43,1	36,59,1	37,10,1	38,16,1	41,28,1	44,29,1	
# Incoming
1,(0, 5),15	16,(0, 8),15	31,(1, 11),150	181,(1, 12),3	184,(1, 15),18	202,(1, 31),933	1135,(1, 32),2058	3193,(1, 37),51	3244,(1, 38),3	3247,(1, 39),33	3280,(1, 40),48	3328,(1, 47),3	3331,(1, 50),51	3382,(1, 66),144	3526,(7, 19),39	3565,(7, 26),12	3577,(7, 32),3	3580,(7, 42),423	4003,(7, 61),9	4012,(7, 71),111	4123,(7, 72),6	4129,(4, 24),27	4156,(4, 25),6	4162,(4, 26),15	4177,(4, 33),18	4195,(4, 37),3	4198,(4, 45),216	4414,(4, 48),21	4435,(4, 53),6	4441,(2, 13),30	4471,(2, 19),51	4522,(2, 33),33	4555,(2, 45),165	4720,(2, 57),36	4756,(6, 13),3	4759,(6, 19),48	4807,(6, 48),60	4867,(6, 49),36	4903,(6, 50),33	4936,(6, 53),3	4939,(6, 57),36	4975,(6, 72),141	5116,(6, 75),3	5119,(3, 11),15	5134,(3, 24),12	5146,(3, 26),3	5149,(3, 33),3	5152,(3, 41),81	5233,(3, 42),36	5269,(3, 53),21	5290,(3, 58),33	5323,(3, 61),12	5335,(3, 64),3	5338,(3, 66),3	5341,(68, 81),3	5344,(22, 81),3	5347,(20, 81),3	5350,(55, 81),3	5353,(51, 81),3	5356,(78, 81),3	5359,(63, 81),3	5362,(44, 81),3	5365,(9, 81),3	5368,(79, 81),3	5371,(76, 81),3	5374,(80, 81),3	5377,(36, 81),3	5380,(14, 81),3	5383,(77, 81),3	5386,(73, 81),3	5389,(56, 81),3	5392,(52, 81),3	5395,(34, 81),3	5398,(23, 81),3	5401,(35, 81),3	5404,(74, 81),3	5407,(69, 81),3	5410,(67, 81),3	5413,(30, 81),3	5416,(62, 81),3	5419,(18, 81),3	5422,(21, 81),3	5425,(43, 81),3	5428,(59, 81),3	5431,(10, 81),3	5434,(16, 81),3	5437,(28, 81),3	5440,(29, 81),3	
17,(5, 18),3	20,(5, 21),3	23,(5, 43),3	26,(5, 59),3	32,(8, 10),3	35,(8, 16),3	38,(8, 28),3	41,(8, 29),3	
# Outgoing
17,(5, 18),3	20,(5, 21),3	23,(5, 43),3	26,(5, 59),3	32,(8, 10),3	35,(8, 16),3	38,(8, 28),3	41,(8, 29),3	
1,(0, 5),15	16,(0, 8),15	31,(1, 11),150	181,(1, 12),3	184,(1, 15),18	202,(1, 31),933	1135,(1, 32),2058	3193,(1, 37),51	3244,(1, 38),3	3247,(1, 39),33	3280,(1, 40),48	3328,(1, 47),3	3331,(1, 50),51	3382,(1, 66),144	3526,(7, 19),39	3565,(7, 26),12	3577,(7, 32),3	3580,(7, 42),423	4003,(7, 61),9	4012,(7, 71),111	4123,(7, 72),6	4129,(4, 24),27	4156,(4, 25),6	4162,(4, 26),15	4177,(4, 33),18	4195,(4, 37),3	4198,(4, 45),216	4414,(4, 48),21	4435,(4, 53),6	4441,(2, 13),30	4471,(2, 19),51	4522,(2, 33),33	4555,(2, 45),165	4720,(2, 57),36	4756,(6, 13),3	4759,(6, 19),48	4807,(6, 48),60	4867,(6, 49),36	4903,(6, 50),33	4936,(6, 53),3	4939,(6, 57),36	4975,(6, 72),141	5116,(6, 75),3	5119,(3, 11),15	5134,(3, 24),12	5146,(3, 26),3	5149,(3, 33),3	5152,(3, 41),81	5233,(3, 42),36	5269,(3, 53),21	5290,(3, 58),33	5323,(3, 61),12	5335,(3, 64),3	5338,(3, 66),3	5341,(68, 81),3	5344,(22, 81),3	5347,(20, 81),3	5350,(55, 81),3	5353,(51, 81),3	5356,(78, 81),3	5359,(63, 81),3	5362,(44, 81),3	5365,(9, 81),3	5368,(79, 81),3	5371,(76, 81),3	5374,(80, 81),3	5377,(36, 81),3	5380,(14, 81),3	5383,(77, 81),3	5386,(73, 81),3	5389,(56, 81),3	5392,(52, 81),3	5395,(34, 81),3	5398,(23, 81),3	5401,(35, 81),3	5404,(74, 81),3	5407,(69, 81),3	5410,(67, 81),3	5413,(30, 81),3	5416,(62, 81),3	5419,(18, 81),3	5422,(21, 81),3	5425,(43, 81),3	5428,(59, 81),3	5431,(10, 81),3	5434,(16, 81),3	5437,(28, 81),3	5440,(29, 81),3	
