4318
# CPU
9,3,7	16,27,7	185,12,7	192,18,7	199,21,7	233,30,7	341,39,7	733,15,7	957,36,7	997,6,7	1004,9,7	1049,24,7	1056,33,7	
5,2,7	12,8,7	19,23,7	26,29,7	33,11,7	40,14,7	60,5,7	100,32,7	107,38,7	145,17,7	229,26,7	273,35,7	389,20,7	
0,0,1	1,4,7	8,1,7	15,13,7	22,7,7	29,37,7	36,19,7	43,40,7	50,34,7	57,25,7	64,10,7	197,22,7	213,28,7	220,31,7	227,16,7	4317,41,1	
# Incoming
5,(0, 3),4	9,(4, 9),132	141,(2, 12),44	185,(2, 18),4	189,(2, 21),4	229,(4, 30),4	273,(4, 39),68	341,(2, 15),392	733,(2, 24),156	889,(2, 36),68	957,(1, 6),40	997,(1, 9),4	1001,(1, 24),48	1049,(1, 33),4	
1,(0, 2),4	16,(3, 5),44	60,(3, 17),12	72,(3, 32),28	100,(3, 38),4	141,(4, 17),4	145,(4, 20),4	149,(4, 26),80	233,(4, 35),40	341,(1, 20),48	
193,(2, 22),4	197,(2, 28),16	213,(2, 31),4	217,(3, 16),8	225,(27, 41),168	393,(12, 41),168	561,(18, 41),168	729,(21, 41),168	957,(8, 41),168	1125,(23, 41),168	1293,(29, 41),168	1461,(11, 41),168	1629,(14, 41),168	1797,(5, 41),168	1965,(32, 41),168	2133,(38, 41),168	2301,(17, 41),168	2469,(26, 41),168	2637,(30, 41),168	2805,(35, 41),168	2973,(39, 41),168	3141,(20, 41),168	3309,(15, 41),168	3477,(36, 41),168	3645,(6, 41),168	3813,(9, 41),168	3981,(24, 41),168	4149,(33, 41),168	
# Outgoing
16,(3, 5),44	60,(3, 17),12	72,(3, 32),28	100,(3, 38),4	217,(3, 16),8	225,(27, 41),168	393,(12, 41),168	561,(18, 41),168	729,(21, 41),168	2637,(30, 41),168	2973,(39, 41),168	3309,(15, 41),168	3477,(36, 41),168	3645,(6, 41),168	3813,(9, 41),168	3981,(24, 41),168	4149,(33, 41),168	
141,(2, 12),44	185,(2, 18),4	189,(2, 21),4	193,(2, 22),4	197,(2, 28),16	213,(2, 31),4	341,(2, 15),392	733,(2, 24),156	889,(2, 36),68	957,(8, 41),168	1125,(23, 41),168	1293,(29, 41),168	1461,(11, 41),168	1629,(14, 41),168	1797,(5, 41),168	1965,(32, 41),168	2133,(38, 41),168	2301,(17, 41),168	2469,(26, 41),168	2805,(35, 41),168	3141,(20, 41),168	
1,(0, 2),4	5,(0, 3),4	9,(4, 9),132	141,(4, 17),4	145,(4, 20),4	149,(4, 26),80	229,(4, 30),4	233,(4, 35),40	273,(4, 39),68	341,(1, 20),48	957,(1, 6),40	997,(1, 9),4	1001,(1, 24),48	1049,(1, 33),4	
