1468
# CPU
846,11,8	1356,3,8	1365,5,8	1410,6,8	1419,7,8	1440,10,8	1448,18,8	1467,21,1	
4,1,8	12,12,8	20,20,8	28,16,8	750,9,8	855,14,8	897,17,8	
0,0,1	1,2,8	9,19,8	
513,4,8	849,13,8	
747,8,8	888,15,8	
# Incoming
9,(2, 3),480	513,(2, 5),75	588,(2, 6),57	645,(2, 7),99	744,(4, 21),3	750,(2, 10),48	798,(2, 11),48	846,(8, 21),3	857,(13, 21),3	897,(2, 18),216	1113,(1, 3),243	1356,(1, 5),9	1365,(1, 6),45	1410,(1, 7),9	1419,(1, 10),21	1440,(1, 18),3	1443,(19, 21),3	1446,(12, 21),3	1449,(20, 21),3	1452,(16, 21),3	1455,(9, 21),3	1458,(14, 21),3	1461,(15, 21),3	1464,(17, 21),3	
1,(0, 1),3	747,(2, 9),3	849,(2, 14),6	888,(2, 17),9	

489,(2, 4),24	846,(2, 13),3	
744,(2, 8),3	855,(2, 15),33	
# Outgoing

1113,(1, 3),243	1356,(1, 5),9	1365,(1, 6),45	1410,(1, 7),9	1419,(1, 10),21	1440,(1, 18),3	1446,(12, 21),3	1449,(20, 21),3	1452,(16, 21),3	1455,(9, 21),3	1458,(14, 21),3	1464,(17, 21),3	
1,(0, 1),3	9,(2, 3),480	489,(2, 4),24	513,(2, 5),75	588,(2, 6),57	645,(2, 7),99	744,(2, 8),3	747,(2, 9),3	750,(2, 10),48	798,(2, 11),48	846,(2, 13),3	849,(2, 14),6	855,(2, 15),33	888,(2, 17),9	897,(2, 18),216	1443,(19, 21),3	
744,(4, 21),3	857,(13, 21),3	
846,(8, 21),3	1461,(15, 21),3	
