1399
# CPU
40,14,1	66,24,1	69,9,1	97,19,1	122,29,1	275,34,1	664,39,1	
28,4,1	29,18,1	30,28,1	31,33,1	32,8,1	33,13,1	36,38,1	120,23,1	
19,3,1	20,22,1	21,27,1	22,37,1	42,17,1	46,7,1	47,12,1	274,32,1	
10,2,1	11,6,1	12,26,1	67,31,1	95,11,1	96,16,1	124,21,1	661,36,1	
0,0,1	1,1,1	2,35,1	35,15,1	36,5,1	40,10,1	128,40,1	391,20,1	392,25,1	409,30,1	1398,41,1	
# Incoming
30,(1, 14),8	38,(2, 14),2	42,(1, 24),24	66,(3, 9),3	96,(3, 19),1	120,(3, 29),2	274,(1, 34),1	661,(1, 39),3	
19,(0, 4),9	28,(1, 8),2	30,(2, 13),1	35,(2, 38),1	97,(3, 23),23	
10,(0, 3),9	38,(1, 17),4	42,(4, 7),4	46,(4, 12),1	67,(1, 32),207	
1,(0, 2),9	66,(1, 31),1	69,(3, 11),26	95,(3, 16),1	96,(4, 21),28	275,(1, 36),386	
31,(2, 15),4	35,(4, 5),1	36,(4, 10),4	40,(6, 41),43	83,(26, 41),43	126,(3, 40),2	128,(22, 41),43	171,(27, 41),43	214,(37, 41),43	257,(4, 20),134	391,(4, 25),1	392,(4, 30),17	409,(18, 41),43	452,(28, 41),43	495,(33, 41),43	538,(8, 41),43	581,(13, 41),43	624,(38, 41),43	667,(14, 41),43	710,(17, 41),43	753,(7, 41),43	796,(12, 41),43	839,(24, 41),43	882,(31, 41),43	925,(9, 41),43	968,(11, 41),43	1011,(16, 41),43	1054,(19, 41),43	1097,(23, 41),43	1140,(29, 41),43	1183,(21, 41),43	1226,(32, 41),43	1269,(34, 41),43	1312,(36, 41),43	1355,(39, 41),43	
# Outgoing
667,(14, 41),43	839,(24, 41),43	925,(9, 41),43	1054,(19, 41),43	1140,(29, 41),43	1269,(34, 41),43	1355,(39, 41),43	
35,(4, 5),1	36,(4, 10),4	42,(4, 7),4	46,(4, 12),1	96,(4, 21),28	257,(4, 20),134	391,(4, 25),1	392,(4, 30),17	409,(18, 41),43	452,(28, 41),43	495,(33, 41),43	538,(8, 41),43	581,(13, 41),43	624,(38, 41),43	1097,(23, 41),43	
66,(3, 9),3	69,(3, 11),26	95,(3, 16),1	96,(3, 19),1	97,(3, 23),23	120,(3, 29),2	126,(3, 40),2	128,(22, 41),43	171,(27, 41),43	214,(37, 41),43	710,(17, 41),43	753,(7, 41),43	796,(12, 41),43	1226,(32, 41),43	
30,(2, 13),1	31,(2, 15),4	35,(2, 38),1	38,(2, 14),2	40,(6, 41),43	83,(26, 41),43	882,(31, 41),43	968,(11, 41),43	1011,(16, 41),43	1183,(21, 41),43	1312,(36, 41),43	
1,(0, 2),9	10,(0, 3),9	19,(0, 4),9	28,(1, 8),2	30,(1, 14),8	38,(1, 17),4	42,(1, 24),24	66,(1, 31),1	67,(1, 32),207	274,(1, 34),1	275,(1, 36),386	661,(1, 39),3	
