803
# CPU
0,0,1	1,12,13	14,97,13	27,2,13	40,18,13	53,3,13	66,14,13	79,31,13	92,57,13	105,100,13	118,6,13	131,90,13	144,89,13	157,17,13	170,39,13	183,120,13	196,114,13	209,5,13	222,98,13	235,71,13	248,55,13	261,24,13	274,56,13	287,15,13	300,107,13	313,109,13	326,58,13	339,61,13	352,68,13	365,50,13	378,20,13	391,28,13	404,33,13	417,63,13	430,106,13	443,53,13	456,83,13	469,119,13	482,79,13	495,92,13	508,95,13	590,49,13	
9,11,13	22,46,13	35,4,13	48,76,13	61,65,13	74,32,13	87,80,13	100,116,13	113,7,13	126,41,13	139,62,13	152,110,13	165,70,13	178,103,13	191,82,13	204,87,13	217,99,13	230,69,13	243,94,13	256,101,13	269,9,13	282,38,13	295,21,13	308,102,13	321,52,13	334,22,13	347,29,13	360,86,13	373,81,13	386,74,13	399,45,13	412,30,13	425,88,13	438,75,13	451,44,13	464,115,13	477,78,13	490,42,13	503,48,13	516,77,13	546,113,13	658,73,13	
5,1,13	18,60,13	31,84,13	44,47,13	57,93,13	70,16,13	83,8,13	96,51,13	109,35,13	122,19,13	135,37,13	148,27,13	161,118,13	174,105,13	187,91,13	200,13,13	213,10,13	226,40,13	239,43,13	252,108,13	265,112,13	278,72,13	291,85,13	304,26,13	317,67,13	330,96,13	343,59,13	356,25,13	369,104,13	382,23,13	395,66,13	408,111,13	421,64,13	434,34,13	447,117,13	460,54,13	473,36,13	802,121,1	
# Incoming
96,(8, 56),4	100,(11, 61),4	104,(1, 50),12	126,(7, 109),4	147,(4, 20),12	159,(11, 33),12	171,(8, 63),12	183,(11, 53),20	203,(8, 83),20	234,(10, 28),12	250,(10, 106),16	270,(10, 92),4	282,(9, 15),4	290,(9, 107),4	302,(9, 58),4	310,(9, 68),8	330,(9, 63),4	334,(1, 119),36	370,(10, 79),20	390,(4, 79),16	406,(10, 95),40	454,(11, 92),36	490,(10, 49),100	
5,(0, 11),4	9,(0, 4),4	18,(1, 101),4	22,(1, 88),4	26,(0, 7),4	30,(1, 78),4	34,(12, 94),4	38,(1, 115),8	48,(0, 9),4	56,(2, 45),8	70,(3, 116),4	74,(1, 113),12	110,(3, 45),4	116,(8, 81),8	124,(3, 30),4	128,(8, 30),8	139,(12, 88),4	143,(8, 77),16	203,(12, 44),12	226,(10, 74),8	246,(10, 88),4	250,(5, 75),8	266,(10, 75),4	270,(5, 115),12	282,(12, 78),20	302,(3, 42),40	342,(3, 48),32	374,(6, 48),12	414,(12, 77),60	474,(12, 113),72	546,(2, 73),28	574,(5, 73),84	
1,(0, 1),4	14,(12, 47),4	18,(12, 93),4	22,(0, 8),4	26,(11, 105),4	30,(12, 118),4	34,(11, 91),4	40,(2, 13),4	44,(0, 10),4	48,(11, 112),4	52,(12, 26),4	56,(4, 26),4	60,(46, 121),4	66,(3, 16),4	70,(76, 121),4	74,(3, 25),12	86,(12, 104),12	98,(12, 66),12	110,(4, 54),12	122,(65, 121),4	131,(6, 27),4	135,(6, 72),4	139,(7, 96),8	147,(6, 111),16	163,(2, 117),40	203,(32, 121),4	207,(80, 121),4	211,(116, 121),4	215,(97, 121),4	222,(5, 108),4	226,(5, 85),4	230,(5, 59),12	242,(11, 54),36	278,(41, 121),4	286,(9, 85),4	294,(9, 67),8	306,(9, 96),4	318,(9, 23),12	334,(9, 64),20	354,(9, 34),28	382,(9, 117),8	390,(6, 36),24	414,(9, 36),40	490,(62, 121),4	494,(110, 121),4	498,(70, 121),4	502,(103, 121),4	506,(82, 121),4	510,(87, 121),4	514,(99, 121),4	518,(69, 121),4	522,(94, 121),4	526,(101, 121),4	530,(38, 121),4	534,(21, 121),4	538,(102, 121),4	542,(52, 121),4	546,(22, 121),4	550,(29, 121),4	554,(86, 121),4	558,(81, 121),4	562,(74, 121),4	566,(45, 121),4	570,(30, 121),4	574,(88, 121),4	578,(75, 121),4	582,(44, 121),4	586,(115, 121),4	590,(78, 121),4	594,(42, 121),4	598,(48, 121),4	602,(77, 121),4	606,(113, 121),4	658,(18, 121),4	662,(14, 121),4	666,(31, 121),4	670,(57, 121),4	674,(100, 121),4	678,(90, 121),4	682,(89, 121),4	686,(17, 121),4	690,(39, 121),4	694,(120, 121),4	698,(114, 121),4	702,(98, 121),4	706,(71, 121),4	710,(55, 121),4	714,(24, 121),4	718,(56, 121),4	722,(15, 121),4	726,(107, 121),4	730,(109, 121),4	734,(58, 121),4	738,(61, 121),4	742,(68, 121),4	746,(50, 121),4	750,(20, 121),4	754,(28, 121),4	758,(33, 121),4	762,(63, 121),4	766,(106, 121),4	770,(53, 121),4	774,(83, 121),4	778,(119, 121),4	782,(79, 121),4	786,(92, 121),4	790,(95, 121),4	794,(49, 121),4	798,(73, 121),4	
# Outgoing
1,(0, 1),4	5,(0, 11),4	9,(0, 4),4	14,(12, 47),4	18,(12, 93),4	22,(0, 8),4	26,(0, 7),4	30,(12, 118),4	34,(12, 94),4	40,(2, 13),4	44,(0, 10),4	48,(0, 9),4	52,(12, 26),4	56,(2, 45),8	66,(3, 16),4	70,(3, 116),4	74,(3, 25),12	86,(12, 104),12	98,(12, 66),12	110,(3, 45),4	124,(3, 30),4	131,(6, 27),4	135,(6, 72),4	139,(12, 88),4	147,(6, 111),16	163,(2, 117),40	203,(12, 44),12	215,(97, 121),4	222,(5, 108),4	226,(5, 85),4	230,(5, 59),12	250,(5, 75),8	270,(5, 115),12	282,(12, 78),20	302,(3, 42),40	342,(3, 48),32	374,(6, 48),12	390,(6, 36),24	414,(12, 77),60	474,(12, 113),72	546,(2, 73),28	574,(5, 73),84	658,(18, 121),4	662,(14, 121),4	666,(31, 121),4	670,(57, 121),4	674,(100, 121),4	678,(90, 121),4	682,(89, 121),4	686,(17, 121),4	690,(39, 121),4	694,(120, 121),4	698,(114, 121),4	702,(98, 121),4	706,(71, 121),4	710,(55, 121),4	714,(24, 121),4	718,(56, 121),4	722,(15, 121),4	726,(107, 121),4	730,(109, 121),4	734,(58, 121),4	738,(61, 121),4	742,(68, 121),4	746,(50, 121),4	750,(20, 121),4	754,(28, 121),4	758,(33, 121),4	762,(63, 121),4	766,(106, 121),4	770,(53, 121),4	774,(83, 121),4	778,(119, 121),4	782,(79, 121),4	786,(92, 121),4	790,(95, 121),4	794,(49, 121),4	
26,(11, 105),4	34,(11, 91),4	48,(11, 112),4	56,(4, 26),4	60,(46, 121),4	70,(76, 121),4	100,(11, 61),4	110,(4, 54),12	122,(65, 121),4	126,(7, 109),4	139,(7, 96),8	147,(4, 20),12	159,(11, 33),12	183,(11, 53),20	203,(32, 121),4	207,(80, 121),4	211,(116, 121),4	242,(11, 54),36	278,(41, 121),4	282,(9, 15),4	286,(9, 85),4	290,(9, 107),4	294,(9, 67),8	302,(9, 58),4	306,(9, 96),4	310,(9, 68),8	318,(9, 23),12	330,(9, 63),4	334,(9, 64),20	354,(9, 34),28	382,(9, 117),8	390,(4, 79),16	414,(9, 36),40	454,(11, 92),36	490,(62, 121),4	494,(110, 121),4	498,(70, 121),4	502,(103, 121),4	506,(82, 121),4	510,(87, 121),4	514,(99, 121),4	518,(69, 121),4	522,(94, 121),4	526,(101, 121),4	530,(38, 121),4	534,(21, 121),4	538,(102, 121),4	542,(52, 121),4	546,(22, 121),4	550,(29, 121),4	554,(86, 121),4	558,(81, 121),4	562,(74, 121),4	566,(45, 121),4	570,(30, 121),4	574,(88, 121),4	578,(75, 121),4	582,(44, 121),4	586,(115, 121),4	590,(78, 121),4	594,(42, 121),4	598,(48, 121),4	602,(77, 121),4	606,(113, 121),4	798,(73, 121),4	
18,(1, 101),4	22,(1, 88),4	30,(1, 78),4	38,(1, 115),8	74,(1, 113),12	96,(8, 56),4	104,(1, 50),12	116,(8, 81),8	128,(8, 30),8	143,(8, 77),16	171,(8, 63),12	203,(8, 83),20	226,(10, 74),8	234,(10, 28),12	246,(10, 88),4	250,(10, 106),16	266,(10, 75),4	270,(10, 92),4	334,(1, 119),36	370,(10, 79),20	406,(10, 95),40	490,(10, 49),100	
