3435
# CPU
0,0,1	1,5,1	2,10,1	3,2,1	4,15,1	5,8,1	6,4,1	7,66,1	8,14,1	9,16,1	10,147,1	11,111,1	12,18,1	13,43,1	14,59,1	15,3,1	16,157,1	17,12,1	18,94,1	19,129,1	20,17,1	21,148,1	22,13,1	23,100,1	24,61,1	25,86,1	26,195,1	27,88,1	28,11,1	29,181,1	30,158,1	31,197,1	32,82,1	33,36,1	34,193,1	35,90,1	36,44,1	37,115,1	38,64,1	39,20,1	40,119,1	41,102,1	42,140,1	43,81,1	44,76,1	45,106,1	46,56,1	47,186,1	48,146,1	49,19,1	50,187,1	51,54,1	52,30,1	53,177,1	54,164,1	55,167,1	56,45,1	57,150,1	58,38,1	59,160,1	60,25,1	61,22,1	62,67,1	63,35,1	64,9,1	65,192,1	66,109,1	67,171,1	68,173,1	69,134,1	70,105,1	71,50,1	72,27,1	73,172,1	74,141,1	75,26,1	76,33,1	77,170,1	78,135,1	79,37,1	80,60,1	81,62,1	82,49,1	83,199,1	84,161,1	85,110,1	86,113,1	90,120,1	94,73,1	98,168,1	102,24,1	106,91,1	110,48,1	114,84,1	118,200,1	122,163,1	126,127,1	130,42,1	134,52,1	138,117,1	146,79,1	154,179,1	162,152,1	170,121,1	178,132,1	186,125,1	194,188,1	202,124,1	214,58,1	226,194,1	238,151,1	254,108,1	270,154,1	286,92,1	302,185,1	318,112,1	334,139,1	350,23,1	370,39,1	390,97,1	410,96,1	430,63,1	450,68,1	470,57,1	494,190,1	518,70,1	542,176,1	566,116,1	590,165,1	614,149,1	638,72,1	666,21,1	694,101,1	726,29,1	758,85,1	790,34,1	822,191,1	854,107,1	886,128,1	918,198,1	958,93,1	1002,40,1	1050,95,1	1098,175,1	1150,126,1	1202,143,1	1258,180,1	1322,41,1	1386,98,1	1450,53,1	1514,159,1	1582,77,1	1650,183,1	1718,130,1	1806,133,1	1906,46,1	2026,169,1	2162,78,1	2310,123,1	2466,75,1	2726,136,1	3434,201,1	
53,6,1	73,7,1	74,144,1	97,178,1	141,83,1	173,156,1	229,65,1	289,174,1	365,103,1	417,114,1	461,31,1	593,32,1	641,89,1	689,80,1	741,55,1	801,47,1	1037,189,1	1137,122,1	1369,137,1	1501,162,1	1645,142,1	1945,155,1	2121,51,1	2317,71,1	2845,196,1	3429,118,1	
21,1,1	33,104,1	113,28,1	197,145,1	257,166,1	325,99,1	405,184,1	505,131,1	549,87,1	869,138,1	949,74,1	1245,182,1	1789,153,1	2537,69,1	


# Incoming
74,(7, 161),4	78,(6, 110),4	82,(1, 113),4	86,(1, 120),4	90,(1, 73),4	94,(7, 168),4	98,(1, 24),4	102,(1, 91),4	106,(7, 48),4	110,(7, 84),4	114,(1, 200),4	118,(7, 163),4	122,(6, 127),4	126,(6, 42),4	130,(6, 52),4	134,(7, 117),4	138,(1, 79),8	146,(1, 179),8	154,(1, 152),8	162,(1, 121),4	166,(6, 121),4	170,(1, 132),4	174,(6, 132),4	178,(1, 125),8	186,(1, 188),4	190,(7, 188),4	194,(6, 124),8	202,(1, 58),12	214,(1, 194),12	226,(6, 151),8	234,(7, 151),4	238,(1, 108),12	250,(7, 108),4	254,(7, 154),16	270,(7, 92),16	286,(7, 185),16	302,(1, 112),16	318,(6, 139),16	334,(1, 23),12	346,(6, 23),4	350,(1, 39),20	370,(6, 97),20	390,(7, 96),20	410,(1, 63),4	414,(7, 63),16	430,(1, 68),12	442,(6, 68),8	450,(1, 57),20	470,(1, 190),24	494,(1, 70),20	514,(7, 70),4	518,(1, 176),24	542,(1, 116),4	546,(6, 116),20	566,(1, 165),4	570,(7, 165),20	590,(1, 149),16	606,(6, 149),8	614,(1, 72),24	638,(7, 21),28	666,(1, 101),28	694,(6, 29),32	726,(7, 85),32	758,(6, 34),20	778,(7, 34),12	790,(6, 191),32	822,(6, 107),32	854,(7, 128),32	886,(6, 198),32	918,(1, 93),8	926,(7, 93),32	958,(6, 40),44	1002,(7, 95),48	1050,(6, 175),48	1098,(1, 126),28	1126,(6, 126),24	1150,(1, 143),52	1202,(6, 180),56	1258,(7, 41),64	1322,(1, 98),28	1350,(7, 98),36	1386,(7, 53),64	1450,(6, 159),64	1514,(1, 77),4	1518,(7, 77),64	1582,(1, 183),56	1638,(6, 183),12	1650,(1, 130),60	1710,(7, 130),8	1718,(1, 133),4	1722,(6, 133),84	1806,(1, 46),100	1906,(6, 169),4	1910,(7, 169),116	2026,(7, 78),136	2162,(1, 123),140	2302,(6, 123),8	2310,(1, 75),128	2438,(6, 75),28	2466,(6, 136),40	2506,(7, 136),220	2726,(104, 201),4	2730,(144, 201),4	2734,(178, 201),4	2738,(28, 201),4	2742,(83, 201),4	2746,(156, 201),4	2750,(145, 201),4	2754,(65, 201),4	2758,(166, 201),4	2762,(174, 201),4	2766,(99, 201),4	2770,(103, 201),4	2774,(184, 201),4	2778,(114, 201),4	2782,(31, 201),4	2786,(131, 201),4	2790,(87, 201),4	2794,(32, 201),4	2798,(89, 201),4	2802,(80, 201),4	2806,(55, 201),4	2810,(47, 201),4	2814,(138, 201),4	2818,(74, 201),4	2822,(189, 201),4	2826,(122, 201),4	2830,(182, 201),4	2834,(137, 201),4	2838,(162, 201),4	2842,(142, 201),4	2846,(153, 201),4	2850,(155, 201),4	2854,(51, 201),4	2858,(71, 201),4	2862,(69, 201),4	2866,(196, 201),4	3430,(118, 201),4	
33,(0, 6),20	53,(0, 7),20	73,(5, 178),12	85,(10, 178),4	89,(17, 178),8	113,(5, 83),4	117,(15, 83),4	121,(13, 83),20	141,(10, 156),4	145,(2, 156),4	149,(4, 156),24	197,(8, 65),4	201,(18, 65),4	205,(3, 65),24	257,(10, 174),4	261,(8, 174),4	265,(14, 174),4	269,(18, 174),4	273,(12, 174),16	325,(2, 103),28	353,(15, 103),4	357,(17, 103),8	370,(1, 114),32	405,(3, 114),4	409,(17, 114),8	417,(5, 31),28	445,(4, 31),4	449,(13, 31),12	549,(5, 32),4	553,(15, 32),24	577,(12, 32),12	589,(20, 32),4	593,(3, 89),12	605,(13, 89),32	637,(20, 89),4	641,(17, 80),4	645,(11, 80),16	661,(19, 80),4	665,(9, 80),24	689,(5, 55),28	717,(8, 55),20	737,(18, 55),4	741,(10, 47),4	745,(2, 47),4	749,(17, 47),40	789,(20, 47),4	793,(19, 47),8	801,(1, 137),24	825,(1, 51),20	949,(10, 189),4	953,(8, 189),24	977,(18, 189),24	1001,(17, 189),12	1013,(13, 189),24	1037,(2, 122),60	1097,(15, 122),16	1113,(16, 122),8	1121,(3, 122),4	1125,(17, 122),4	1129,(13, 122),8	1245,(18, 137),88	1333,(3, 137),12	1345,(13, 137),20	1365,(9, 137),4	1369,(2, 162),4	1373,(18, 162),80	1453,(3, 162),36	1489,(9, 162),12	1501,(2, 142),44	1545,(18, 142),60	1605,(19, 142),40	1789,(15, 155),32	1821,(4, 155),4	1825,(14, 155),44	1869,(18, 155),12	1881,(17, 155),64	1945,(8, 51),8	1953,(4, 51),92	2045,(18, 51),64	2109,(12, 51),8	2117,(13, 51),4	2121,(14, 71),16	2137,(18, 71),4	2141,(13, 71),104	2245,(19, 71),12	2257,(9, 71),60	2537,(8, 196),24	2561,(4, 196),12	2573,(18, 196),16	2589,(12, 196),32	2621,(20, 196),4	2625,(19, 196),180	2805,(9, 196),40	2845,(10, 118),116	2961,(2, 118),52	3013,(8, 118),64	3077,(4, 118),12	3089,(12, 118),180	3269,(13, 118),16	3285,(11, 118),96	3381,(20, 118),40	3421,(9, 118),8	
1,(0, 1),20	21,(4, 104),12	82,(6, 28),12	97,(18, 28),16	114,(7, 182),4	138,(7, 145),28	173,(12, 145),24	202,(6, 166),12	214,(6, 182),12	229,(10, 166),24	253,(11, 166),4	289,(2, 99),20	309,(14, 99),8	317,(16, 99),4	321,(17, 99),4	334,(6, 153),4	365,(15, 184),8	373,(18, 184),24	397,(12, 184),4	401,(17, 184),4	461,(5, 131),12	473,(15, 131),4	477,(3, 131),8	485,(20, 131),20	505,(15, 87),24	529,(8, 87),8	537,(4, 87),4	541,(17, 87),4	545,(13, 87),4	801,(2, 138),4	805,(8, 138),24	829,(17, 138),4	833,(13, 138),4	837,(20, 138),12	849,(9, 138),20	869,(16, 74),32	901,(17, 74),44	945,(13, 74),4	1137,(8, 182),8	1145,(4, 182),4	1149,(16, 182),16	1165,(18, 182),36	1201,(12, 182),8	1209,(17, 182),32	1241,(19, 182),4	1645,(10, 153),84	1729,(14, 153),8	1737,(16, 153),36	1773,(18, 153),8	1781,(17, 153),4	1785,(9, 153),4	2162,(6, 69),104	2317,(8, 69),84	2401,(14, 69),20	2421,(12, 69),4	2425,(17, 69),96	2521,(13, 69),4	2525,(19, 69),12	


# Outgoing
1,(0, 1),20	21,(4, 104),12	33,(0, 6),20	53,(0, 7),20	73,(5, 178),12	85,(10, 178),4	89,(17, 178),8	97,(18, 28),16	113,(5, 83),4	117,(15, 83),4	121,(13, 83),20	141,(10, 156),4	145,(2, 156),4	149,(4, 156),24	173,(12, 145),24	197,(8, 65),4	201,(18, 65),4	205,(3, 65),24	229,(10, 166),24	253,(11, 166),4	257,(10, 174),4	261,(8, 174),4	265,(14, 174),4	269,(18, 174),4	273,(12, 174),16	289,(2, 99),20	309,(14, 99),8	317,(16, 99),4	321,(17, 99),4	325,(2, 103),28	353,(15, 103),4	357,(17, 103),8	365,(15, 184),8	373,(18, 184),24	397,(12, 184),4	401,(17, 184),4	405,(3, 114),4	409,(17, 114),8	417,(5, 31),28	445,(4, 31),4	449,(13, 31),12	461,(5, 131),12	473,(15, 131),4	477,(3, 131),8	485,(20, 131),20	505,(15, 87),24	529,(8, 87),8	537,(4, 87),4	541,(17, 87),4	545,(13, 87),4	549,(5, 32),4	553,(15, 32),24	577,(12, 32),12	589,(20, 32),4	593,(3, 89),12	605,(13, 89),32	637,(20, 89),4	641,(17, 80),4	645,(11, 80),16	661,(19, 80),4	665,(9, 80),24	689,(5, 55),28	717,(8, 55),20	737,(18, 55),4	741,(10, 47),4	745,(2, 47),4	749,(17, 47),40	789,(20, 47),4	793,(19, 47),8	801,(2, 138),4	805,(8, 138),24	829,(17, 138),4	833,(13, 138),4	837,(20, 138),12	849,(9, 138),20	869,(16, 74),32	901,(17, 74),44	945,(13, 74),4	949,(10, 189),4	953,(8, 189),24	977,(18, 189),24	1001,(17, 189),12	1013,(13, 189),24	1037,(2, 122),60	1097,(15, 122),16	1113,(16, 122),8	1121,(3, 122),4	1125,(17, 122),4	1129,(13, 122),8	1137,(8, 182),8	1145,(4, 182),4	1149,(16, 182),16	1165,(18, 182),36	1201,(12, 182),8	1209,(17, 182),32	1241,(19, 182),4	1245,(18, 137),88	1333,(3, 137),12	1345,(13, 137),20	1365,(9, 137),4	1369,(2, 162),4	1373,(18, 162),80	1453,(3, 162),36	1489,(9, 162),12	1501,(2, 142),44	1545,(18, 142),60	1605,(19, 142),40	1645,(10, 153),84	1729,(14, 153),8	1737,(16, 153),36	1773,(18, 153),8	1781,(17, 153),4	1785,(9, 153),4	1789,(15, 155),32	1821,(4, 155),4	1825,(14, 155),44	1869,(18, 155),12	1881,(17, 155),64	1945,(8, 51),8	1953,(4, 51),92	2045,(18, 51),64	2109,(12, 51),8	2117,(13, 51),4	2121,(14, 71),16	2137,(18, 71),4	2141,(13, 71),104	2245,(19, 71),12	2257,(9, 71),60	2317,(8, 69),84	2401,(14, 69),20	2421,(12, 69),4	2425,(17, 69),96	2521,(13, 69),4	2525,(19, 69),12	2537,(8, 196),24	2561,(4, 196),12	2573,(18, 196),16	2589,(12, 196),32	2621,(20, 196),4	2625,(19, 196),180	2805,(9, 196),40	2845,(10, 118),116	2961,(2, 118),52	3013,(8, 118),64	3077,(4, 118),12	3089,(12, 118),180	3269,(13, 118),16	3285,(11, 118),96	3381,(20, 118),40	3421,(9, 118),8	
74,(7, 161),4	78,(6, 110),4	82,(6, 28),12	94,(7, 168),4	106,(7, 48),4	110,(7, 84),4	114,(7, 182),4	118,(7, 163),4	122,(6, 127),4	126,(6, 42),4	130,(6, 52),4	134,(7, 117),4	138,(7, 145),28	166,(6, 121),4	174,(6, 132),4	190,(7, 188),4	194,(6, 124),8	202,(6, 166),12	214,(6, 182),12	226,(6, 151),8	234,(7, 151),4	250,(7, 108),4	254,(7, 154),16	270,(7, 92),16	286,(7, 185),16	318,(6, 139),16	334,(6, 153),4	346,(6, 23),4	370,(6, 97),20	390,(7, 96),20	414,(7, 63),16	442,(6, 68),8	514,(7, 70),4	546,(6, 116),20	570,(7, 165),20	606,(6, 149),8	638,(7, 21),28	694,(6, 29),32	726,(7, 85),32	758,(6, 34),20	778,(7, 34),12	790,(6, 191),32	822,(6, 107),32	854,(7, 128),32	886,(6, 198),32	926,(7, 93),32	958,(6, 40),44	1002,(7, 95),48	1050,(6, 175),48	1126,(6, 126),24	1202,(6, 180),56	1258,(7, 41),64	1350,(7, 98),36	1386,(7, 53),64	1450,(6, 159),64	1518,(7, 77),64	1638,(6, 183),12	1710,(7, 130),8	1722,(6, 133),84	1906,(6, 169),4	1910,(7, 169),116	2026,(7, 78),136	2162,(6, 69),104	2302,(6, 123),8	2438,(6, 75),28	2466,(6, 136),40	2506,(7, 136),220	2730,(144, 201),4	2734,(178, 201),4	2742,(83, 201),4	2746,(156, 201),4	2754,(65, 201),4	2762,(174, 201),4	2770,(103, 201),4	2778,(114, 201),4	2782,(31, 201),4	2794,(32, 201),4	2798,(89, 201),4	2802,(80, 201),4	2806,(55, 201),4	2810,(47, 201),4	2822,(189, 201),4	2826,(122, 201),4	2834,(137, 201),4	2838,(162, 201),4	2842,(142, 201),4	2850,(155, 201),4	2854,(51, 201),4	2858,(71, 201),4	2866,(196, 201),4	3430,(118, 201),4	
82,(1, 113),4	86,(1, 120),4	90,(1, 73),4	98,(1, 24),4	102,(1, 91),4	114,(1, 200),4	138,(1, 79),8	146,(1, 179),8	154,(1, 152),8	162,(1, 121),4	170,(1, 132),4	178,(1, 125),8	186,(1, 188),4	202,(1, 58),12	214,(1, 194),12	238,(1, 108),12	302,(1, 112),16	334,(1, 23),12	350,(1, 39),20	370,(1, 114),32	410,(1, 63),4	430,(1, 68),12	450,(1, 57),20	470,(1, 190),24	494,(1, 70),20	518,(1, 176),24	542,(1, 116),4	566,(1, 165),4	590,(1, 149),16	614,(1, 72),24	666,(1, 101),28	801,(1, 137),24	825,(1, 51),20	918,(1, 93),8	1098,(1, 126),28	1150,(1, 143),52	1322,(1, 98),28	1514,(1, 77),4	1582,(1, 183),56	1650,(1, 130),60	1718,(1, 133),4	1806,(1, 46),100	2162,(1, 123),140	2310,(1, 75),128	2726,(104, 201),4	2738,(28, 201),4	2750,(145, 201),4	2758,(166, 201),4	2766,(99, 201),4	2774,(184, 201),4	2786,(131, 201),4	2790,(87, 201),4	2814,(138, 201),4	2818,(74, 201),4	2830,(182, 201),4	2846,(153, 201),4	2862,(69, 201),4	


