1424
# CPU
179,5,176	355,12,176	531,8,176	707,10,176	883,15,176	1059,17,176	1235,20,176	
7,2,176	183,4,176	359,16,176	535,6,176	711,9,176	887,11,176	1063,14,176	1239,19,176	
0,0,1	1,1,176	177,3,176	353,18,176	529,7,176	977,13,176	1423,21,1	
# Incoming
177,(1, 5),2	183,(2, 12),6	247,(1, 8),14	353,(1, 10),54	455,(1, 15),38	493,(1, 17),14	583,(1, 20),12	977,(2, 20),16	
1,(0, 2),6	179,(1, 6),68	261,(1, 9),92	407,(1, 11),18	425,(1, 14),30	507,(1, 19),76	
189,(2, 13),788	977,(5, 21),6	983,(12, 21),6	993,(4, 21),6	999,(16, 21),6	1005,(8, 21),6	1011,(6, 21),6	1017,(10, 21),6	1023,(9, 21),6	1059,(15, 21),6	1065,(11, 21),6	1235,(17, 21),6	1241,(14, 21),6	1411,(20, 21),6	1417,(19, 21),6	
# Outgoing
977,(5, 21),6	983,(12, 21),6	1005,(8, 21),6	1017,(10, 21),6	1059,(15, 21),6	1235,(17, 21),6	1411,(20, 21),6	
183,(2, 12),6	189,(2, 13),788	977,(2, 20),16	993,(4, 21),6	999,(16, 21),6	1011,(6, 21),6	1023,(9, 21),6	1065,(11, 21),6	1241,(14, 21),6	1417,(19, 21),6	
1,(0, 2),6	177,(1, 5),2	179,(1, 6),68	247,(1, 8),14	261,(1, 9),92	353,(1, 10),54	407,(1, 11),18	425,(1, 14),30	455,(1, 15),38	493,(1, 17),14	507,(1, 19),76	583,(1, 20),12	
