162
# CPU
0,41,1	1,18,4	5,39,4	9,37,4	13,29,4	17,25,4	21,22,4	25,21,4	29,10,4	33,6,4	37,30,4	41,16,4	45,12,4	49,40,4	53,27,4	57,13,4	61,23,4	65,38,4	69,14,4	73,7,4	77,11,4	81,33,4	85,24,4	89,28,4	93,34,4	97,17,4	101,35,4	105,9,4	109,36,4	113,31,4	117,8,4	121,32,4	125,19,4	129,3,4	133,15,4	137,2,4	141,26,4	145,20,4	149,1,4	153,5,4	157,4,4	161,0,1	




# Incoming





# Outgoing





