3790
# CPU
5,5,1	6,35,1	7,27,1	8,57,1	9,69,1	10,71,1	11,42,1	12,31,1	23,37,1	40,39,1	42,41,1	44,46,1	96,47,1	174,56,1	185,63,1	243,65,1	261,72,1	263,75,1	268,26,1	272,59,1	286,67,1	290,45,1	291,80,1	292,29,1	294,25,1	295,28,1	332,55,1	338,60,1	339,79,1	340,38,1	361,32,1	401,43,1	406,44,1	438,48,1	440,49,1	504,54,1	505,61,1	506,62,1	508,66,1	509,76,1	519,77,1	556,30,1	574,36,1	591,53,1	592,40,1	1458,51,1	1461,52,1	1511,58,1	1512,64,1	1513,68,1	1554,70,1	1662,73,1	1665,74,1	
4,4,1	8,13,1	15,23,1	51,24,1	269,34,1	3789,81,1	
3,3,1	4,15,1	5,33,1	6,12,1	7,8,1	8,17,1	9,22,1	2493,18,1	
2,2,1	6,7,1	57,20,1	65,14,1	135,11,1	145,16,1	292,19,1	523,21,1	1997,78,1	
0,0,1	1,1,1	2,6,1	3,9,1	1455,50,1	2484,10,1	
# Incoming
4,(0, 5),1	5,(2, 35),1	6,(2, 42),1	7,(2, 60),1	10,(1, 31),1	11,(1, 37),12	23,(1, 39),17	40,(1, 41),2	42,(1, 46),2	44,(1, 47),52	96,(1, 56),78	174,(1, 63),11	185,(1, 65),58	243,(1, 72),18	261,(1, 75),2	263,(2, 26),5	268,(2, 59),4	272,(2, 64),1	273,(2, 67),13	286,(3, 45),4	290,(3, 80),1	291,(4, 29),1	292,(6, 25),2	294,(6, 28),1	295,(6, 48),3	298,(6, 55),34	332,(6, 60),6	338,(6, 79),1	339,(4, 38),1	340,(7, 30),20	360,(7, 32),1	361,(7, 43),40	401,(7, 44),5	406,(7, 48),32	438,(7, 49),2	440,(7, 54),64	504,(7, 61),1	505,(7, 62),1	506,(7, 66),2	508,(7, 76),1	509,(7, 77),10	523,(3, 30),33	556,(3, 36),18	574,(3, 53),17	591,(8, 40),1	1455,(4, 51),3	1458,(4, 52),3	1461,(4, 58),50	1511,(4, 64),1	1512,(4, 68),1	1513,(4, 70),41	1554,(4, 73),108	1662,(4, 74),3	
3,(0, 4),1	7,(1, 13),1	8,(2, 23),7	15,(2, 24),36	57,(15, 81),24	81,(33, 81),24	105,(12, 81),24	145,(8, 34),124	286,(20, 81),24	310,(14, 81),24	339,(9, 81),24	519,(11, 81),24	543,(16, 81),24	567,(19, 81),24	592,(17, 81),24	616,(22, 81),24	640,(21, 81),24	1456,(50, 81),24	1998,(78, 81),24	2493,(35, 81),24	2517,(27, 81),24	2541,(57, 81),24	2565,(69, 81),24	2589,(71, 81),24	2613,(42, 81),24	2637,(31, 81),24	2661,(37, 81),24	2685,(39, 81),24	2709,(41, 81),24	2733,(46, 81),24	2757,(47, 81),24	2781,(56, 81),24	2805,(63, 81),24	2829,(65, 81),24	2853,(72, 81),24	2877,(75, 81),24	2901,(26, 81),24	2925,(59, 81),24	2949,(67, 81),24	2973,(45, 81),24	2997,(80, 81),24	3021,(29, 81),24	3045,(25, 81),24	3069,(28, 81),24	3093,(55, 81),24	3117,(60, 81),24	3141,(79, 81),24	3165,(38, 81),24	3189,(32, 81),24	3213,(43, 81),24	3237,(44, 81),24	3261,(48, 81),24	3285,(49, 81),24	3309,(54, 81),24	3333,(61, 81),24	3357,(62, 81),24	3381,(66, 81),24	3405,(76, 81),24	3429,(77, 81),24	3453,(30, 81),24	3477,(36, 81),24	3501,(53, 81),24	3525,(40, 81),24	3549,(51, 81),24	3573,(52, 81),24	3597,(58, 81),24	3621,(64, 81),24	3645,(68, 81),24	3669,(70, 81),24	3693,(73, 81),24	3717,(74, 81),24	3741,(10, 81),24	3765,(18, 81),24	
2,(0, 3),1	3,(2, 12),2	6,(0, 8),1	2484,(5, 18),9	
1,(0, 2),1	5,(0, 7),1	8,(1, 20),2	10,(3, 20),47	57,(4, 14),8	129,(8, 11),6	135,(8, 16),10	263,(6, 19),29	292,(3, 21),231	1665,(4, 78),332	
340,(4, 50),1115	1455,(5, 10),1029	
# Outgoing
1455,(5, 10),1029	2484,(5, 18),9	2493,(35, 81),24	2517,(27, 81),24	2541,(57, 81),24	2565,(69, 81),24	2589,(71, 81),24	2613,(42, 81),24	2637,(31, 81),24	2661,(37, 81),24	2685,(39, 81),24	2709,(41, 81),24	2733,(46, 81),24	2757,(47, 81),24	2781,(56, 81),24	2805,(63, 81),24	2829,(65, 81),24	2853,(72, 81),24	2877,(75, 81),24	2901,(26, 81),24	2925,(59, 81),24	2949,(67, 81),24	2973,(45, 81),24	2997,(80, 81),24	3021,(29, 81),24	3045,(25, 81),24	3069,(28, 81),24	3093,(55, 81),24	3117,(60, 81),24	3141,(79, 81),24	3165,(38, 81),24	3189,(32, 81),24	3213,(43, 81),24	3237,(44, 81),24	3261,(48, 81),24	3285,(49, 81),24	3309,(54, 81),24	3333,(61, 81),24	3357,(62, 81),24	3381,(66, 81),24	3405,(76, 81),24	3429,(77, 81),24	3453,(30, 81),24	3477,(36, 81),24	3501,(53, 81),24	3525,(40, 81),24	3549,(51, 81),24	3573,(52, 81),24	3597,(58, 81),24	3621,(64, 81),24	3645,(68, 81),24	3669,(70, 81),24	3693,(73, 81),24	3717,(74, 81),24	
57,(4, 14),8	291,(4, 29),1	339,(4, 38),1	340,(4, 50),1115	1455,(4, 51),3	1458,(4, 52),3	1461,(4, 58),50	1511,(4, 64),1	1512,(4, 68),1	1513,(4, 70),41	1554,(4, 73),108	1662,(4, 74),3	1665,(4, 78),332	
10,(3, 20),47	57,(15, 81),24	81,(33, 81),24	105,(12, 81),24	129,(8, 11),6	135,(8, 16),10	145,(8, 34),124	286,(3, 45),4	290,(3, 80),1	292,(3, 21),231	523,(3, 30),33	556,(3, 36),18	574,(3, 53),17	591,(8, 40),1	592,(17, 81),24	616,(22, 81),24	3765,(18, 81),24	
3,(2, 12),2	5,(2, 35),1	6,(2, 42),1	7,(2, 60),1	8,(2, 23),7	15,(2, 24),36	263,(2, 26),5	268,(2, 59),4	272,(2, 64),1	273,(2, 67),13	286,(20, 81),24	310,(14, 81),24	340,(7, 30),20	360,(7, 32),1	361,(7, 43),40	401,(7, 44),5	406,(7, 48),32	438,(7, 49),2	440,(7, 54),64	504,(7, 61),1	505,(7, 62),1	506,(7, 66),2	508,(7, 76),1	509,(7, 77),10	519,(11, 81),24	543,(16, 81),24	567,(19, 81),24	640,(21, 81),24	1998,(78, 81),24	
1,(0, 2),1	2,(0, 3),1	3,(0, 4),1	4,(0, 5),1	5,(0, 7),1	6,(0, 8),1	7,(1, 13),1	8,(1, 20),2	10,(1, 31),1	11,(1, 37),12	23,(1, 39),17	40,(1, 41),2	42,(1, 46),2	44,(1, 47),52	96,(1, 56),78	174,(1, 63),11	185,(1, 65),58	243,(1, 72),18	261,(1, 75),2	263,(6, 19),29	292,(6, 25),2	294,(6, 28),1	295,(6, 48),3	298,(6, 55),34	332,(6, 60),6	338,(6, 79),1	339,(9, 81),24	1456,(50, 81),24	3741,(10, 81),24	
