5831
# CPU
0,0,1	1,2,1	2,8,1	3,5,1	4,80,1	5,85,1	6,64,1	7,155,1	33,77,1	216,50,1	229,88,1	274,81,1	368,60,1	947,26,1	1138,126,1	1502,73,1	1504,100,1	1942,141,1	1946,183,1	2008,199,1	2141,48,1	2164,98,1	2336,136,1	2693,115,1	2725,188,1	3027,37,1	3028,78,1	3048,133,1	3057,149,1	3072,187,1	3192,114,1	3193,118,1	3205,142,1	3232,161,1	3452,27,1	3523,76,1	3539,127,1	3540,147,1	3892,45,1	4169,69,1	4183,74,1	4225,24,1	4226,34,1	4274,157,1	4351,62,1	4378,94,1	4379,129,1	4419,169,1	4427,170,1	5830,201,1	
13,4,1	25,9,1	26,87,1	27,109,1	28,145,1	29,135,1	32,23,1	37,12,1	38,39,1	39,165,1	40,174,1	41,172,1	42,52,1	43,159,1	47,30,1	48,75,1	53,16,1	54,144,1	55,166,1	59,96,1	63,130,1	64,179,1	69,20,1	70,40,1	71,198,1	72,21,1	73,33,1	85,43,1	87,151,1	102,164,1	104,171,1	113,191,1	127,200,1	133,49,1	134,59,1	328,79,1	331,110,1	336,178,1	340,36,1	343,53,1	344,66,1	348,104,1	349,117,1	350,124,1	352,153,1	355,31,1	357,163,1	360,93,1	361,140,1	
21,7,1	22,44,1	23,47,1	24,150,1	29,10,1	30,32,1	31,67,1	32,92,1	33,189,1	45,14,1	46,175,1	47,193,1	48,101,1	49,25,1	50,180,1	51,160,1	52,91,1	57,17,1	58,61,1	59,128,1	60,154,1	61,173,1	62,121,1	63,196,1	64,18,1	65,19,1	66,84,1	67,105,1	68,156,1	69,194,1	70,148,1	71,82,1	72,131,1	73,146,1	74,112,1	75,28,1	84,63,1	100,132,1	118,195,1	119,197,1	121,182,1	138,192,1	186,42,1	274,181,1	327,55,1	334,177,1	342,46,1	346,70,1	347,99,1	356,38,1	358,68,1	359,89,1	
5,1,1	6,29,1	7,95,1	9,3,1	10,113,1	11,186,1	17,6,1	18,51,1	19,120,1	20,152,1	21,168,1	22,134,1	33,11,1	34,58,1	35,123,1	36,139,1	41,13,1	42,176,1	43,65,1	44,116,1	45,190,1	46,122,1	47,107,1	48,108,1	49,106,1	50,15,1	51,83,1	52,102,1	53,22,1	54,119,1	55,72,1	56,56,1	57,137,1	58,185,1	59,138,1	60,54,1	61,41,1	62,125,1	63,143,1	70,35,1	74,86,1	76,162,1	83,57,1	85,71,1	94,90,1	99,103,1	101,158,1	112,184,1	120,111,1	135,97,1	136,167,1	
# Incoming
6,(1, 26),9	17,(1, 34),5	22,(1, 73),10	32,(1, 77),1	33,(7, 126),1	34,(1, 127),1	35,(4, 149),2	37,(10, 37),1	38,(1, 118),56	94,(1, 136),31	125,(1, 161),6	131,(1, 188),8	139,(29, 201),23	162,(95, 201),23	185,(4, 187),1	186,(3, 45),7	193,(3, 50),23	216,(3, 73),1	217,(3, 76),8	225,(3, 88),4	229,(3, 100),25	254,(3, 114),15	269,(3, 115),1	270,(3, 147),3	273,(9, 81),1	274,(113, 201),23	297,(186, 201),23	320,(4, 48),38	358,(4, 60),10	368,(4, 62),4	372,(4, 127),14	386,(4, 133),13	399,(4, 142),125	524,(4, 199),36	560,(6, 27),123	683,(6, 161),1	684,(6, 170),1	685,(51, 201),23	708,(120, 201),23	731,(152, 201),23	754,(7, 98),6	760,(7, 149),66	826,(7, 187),3	829,(168, 201),23	852,(44, 201),23	875,(134, 201),23	898,(47, 201),23	921,(150, 201),23	944,(9, 26),3	947,(9, 34),19	966,(9, 73),57	1023,(9, 76),3	1026,(9, 115),2	1028,(9, 129),2	1030,(9, 188),15	1045,(87, 201),23	1068,(109, 201),23	1091,(145, 201),23	1114,(10, 100),11	1125,(10, 118),11	1136,(10, 126),2	1138,(10, 170),1	1139,(10, 199),31	1170,(135, 201),23	1193,(32, 201),23	1216,(67, 201),23	1239,(23, 201),23	1262,(92, 201),23	1285,(11, 24),200	1485,(11, 37),16	1501,(11, 73),1	1502,(11, 100),2	1504,(11, 115),11	1515,(11, 136),25	1540,(11, 169),7	1547,(11, 170),16	1563,(189, 201),23	1586,(58, 201),23	1609,(123, 201),23	1632,(139, 201),23	1655,(12, 24),257	1912,(12, 76),12	1924,(12, 94),6	1930,(12, 141),12	1942,(12, 157),3	1945,(12, 183),1	1946,(12, 199),62	2008,(39, 201),23	2031,(165, 201),23	2054,(174, 201),23	2077,(13, 48),64	2141,(13, 98),23	2164,(13, 115),160	2324,(13, 118),11	2335,(13, 136),1	2336,(13, 169),4	2340,(172, 201),23	2363,(176, 201),23	2386,(52, 201),23	2409,(159, 201),23	2432,(65, 201),23	2455,(116, 201),23	2478,(14, 69),214	2692,(14, 115),1	2693,(14, 142),16	2709,(14, 188),16	2725,(190, 201),23	2748,(175, 201),23	2771,(122, 201),23	2794,(30, 201),23	2817,(193, 201),23	2840,(107, 201),23	2863,(75, 201),23	2886,(101, 201),23	2909,(108, 201),23	2932,(106, 201),23	2955,(25, 201),23	2978,(15, 34),15	2993,(15, 37),34	3027,(15, 78),1	3028,(15, 133),20	3048,(15, 149),9	3057,(15, 157),3	3060,(15, 187),12	3072,(180, 201),23	3095,(83, 201),23	3118,(160, 201),23	3141,(91, 201),23	3164,(102, 201),23	3187,(16, 114),5	3192,(16, 118),1	3193,(16, 142),12	3205,(16, 161),27	3232,(22, 201),23	3255,(144, 201),23	3278,(119, 201),23	3301,(166, 201),23	3324,(72, 201),23	3347,(56, 201),23	3370,(17, 27),82	3452,(17, 76),71	3523,(17, 94),7	3530,(17, 127),9	3539,(17, 147),1	3540,(137, 201),23	3563,(61, 201),23	3586,(185, 201),23	3609,(96, 201),23	3632,(128, 201),23	3655,(138, 201),23	3678,(54, 201),23	3701,(154, 201),23	3724,(41, 201),23	3747,(173, 201),23	3770,(125, 201),23	3793,(121, 201),23	3816,(130, 201),23	3839,(143, 201),23	3862,(196, 201),23	3885,(18, 45),7	3892,(18, 69),277	4169,(18, 74),14	4183,(18, 157),15	4198,(179, 201),23	4221,(19, 24),4	4225,(19, 34),1	4226,(19, 62),34	4260,(19, 157),14	4274,(84, 201),23	4297,(105, 201),23	4320,(156, 201),23	4343,(20, 62),8	4351,(20, 94),27	4378,(20, 129),1	4379,(20, 169),40	4419,(20, 170),8	4427,(194, 201),23	4450,(40, 201),23	4473,(148, 201),23	4496,(35, 201),23	4519,(198, 201),23	4542,(82, 201),23	4565,(21, 201),23	4588,(131, 201),23	4611,(33, 201),23	4634,(146, 201),23	4657,(112, 201),23	4680,(86, 201),23	4703,(28, 201),23	4726,(162, 201),23	4749,(57, 201),23	4772,(63, 201),23	4795,(43, 201),23	4818,(71, 201),23	4841,(151, 201),23	4864,(90, 201),23	4887,(103, 201),23	4910,(132, 201),23	4933,(158, 201),23	4956,(164, 201),23	4979,(171, 201),23	5002,(184, 201),23	5025,(191, 201),23	5048,(195, 201),23	5071,(197, 201),23	5094,(111, 201),23	5117,(182, 201),23	5140,(200, 201),23	5163,(49, 201),23	5186,(59, 201),23	5209,(97, 201),23	5232,(167, 201),23	5255,(192, 201),23	5278,(42, 201),23	5301,(181, 201),23	5324,(55, 201),23	5347,(79, 201),23	5370,(110, 201),23	5393,(177, 201),23	5416,(178, 201),23	5439,(36, 201),23	5462,(46, 201),23	5485,(53, 201),23	5508,(66, 201),23	5531,(70, 201),23	5554,(99, 201),23	5577,(104, 201),23	5600,(117, 201),23	5623,(124, 201),23	5646,(153, 201),23	5669,(31, 201),23	5692,(38, 201),23	5715,(163, 201),23	5738,(68, 201),23	5761,(89, 201),23	5784,(93, 201),23	5807,(140, 201),23	
9,(0, 4),4	15,(1, 31),2	21,(0, 9),4	25,(7, 43),2	27,(7, 110),2	29,(7, 164),1	30,(10, 23),2	32,(10, 178),1	33,(0, 12),4	37,(1, 110),1	46,(14, 30),1	47,(14, 75),1	48,(14, 178),1	49,(0, 16),4	58,(17, 96),1	59,(17, 130),4	63,(17, 179),1	65,(0, 20),4	69,(18, 40),1	70,(2, 43),9	79,(17, 171),4	83,(18, 124),1	84,(19, 43),1	85,(2, 79),1	86,(19, 151),1	101,(2, 164),1	102,(2, 171),2	112,(2, 191),1	121,(8, 200),6	127,(5, 31),1	128,(5, 49),5	133,(5, 59),1	327,(6, 79),1	328,(6, 110),3	334,(6, 178),2	336,(11, 36),4	342,(11, 53),1	343,(11, 66),1	347,(11, 104),1	348,(11, 117),1	349,(11, 124),1	350,(11, 140),1	351,(11, 153),1	352,(13, 31),3	356,(13, 163),1	359,(15, 93),1	360,(15, 140),1	
17,(0, 7),4	21,(4, 46),1	25,(0, 10),4	29,(4, 61),3	33,(1, 112),1	35,(1, 175),1	36,(1, 193),1	37,(4, 112),4	41,(0, 14),4	45,(12, 91),3	53,(0, 17),4	57,(0, 18),4	61,(0, 19),4	65,(16, 112),2	70,(20, 28),2	83,(2, 63),1	86,(2, 89),7	99,(2, 132),1	113,(2, 195),5	118,(2, 197),1	120,(8, 182),1	136,(5, 177),1	137,(5, 192),1	185,(3, 42),1	273,(3, 181),1	320,(6, 38),1	321,(6, 46),5	326,(6, 55),1	331,(6, 177),3	340,(11, 38),1	341,(11, 46),1	344,(11, 70),2	346,(11, 99),1	355,(13, 38),1	357,(15, 68),1	358,(15, 89),1	
1,(0, 1),4	5,(0, 3),4	13,(0, 6),4	22,(4, 58),4	26,(4, 83),3	29,(0, 11),4	33,(4, 125),2	35,(7, 158),2	37,(0, 13),4	41,(4, 176),1	42,(9, 106),3	45,(0, 15),4	49,(10, 102),1	50,(14, 41),1	51,(14, 54),1	52,(14, 184),1	54,(16, 41),1	55,(16, 125),1	56,(16, 143),1	65,(18, 167),1	66,(19, 86),1	69,(2, 35),1	72,(20, 86),2	74,(20, 162),2	79,(2, 57),4	84,(2, 71),1	93,(2, 90),1	94,(2, 103),5	100,(2, 158),1	104,(2, 184),8	119,(8, 111),1	134,(5, 97),1	135,(5, 167),1	
# Outgoing
1,(0, 1),4	5,(0, 3),4	9,(0, 4),4	13,(0, 6),4	17,(0, 7),4	21,(0, 9),4	25,(0, 10),4	29,(0, 11),4	33,(0, 12),4	37,(0, 13),4	41,(0, 14),4	45,(0, 15),4	49,(0, 16),4	53,(0, 17),4	57,(0, 18),4	61,(0, 19),4	65,(0, 20),4	69,(2, 35),1	70,(2, 43),9	79,(2, 57),4	83,(2, 63),1	84,(2, 71),1	85,(2, 79),1	86,(2, 89),7	93,(2, 90),1	94,(2, 103),5	99,(2, 132),1	100,(2, 158),1	101,(2, 164),1	102,(2, 171),2	104,(2, 184),8	112,(2, 191),1	113,(2, 195),5	118,(2, 197),1	119,(8, 111),1	120,(8, 182),1	121,(8, 200),6	127,(5, 31),1	128,(5, 49),5	133,(5, 59),1	134,(5, 97),1	135,(5, 167),1	136,(5, 177),1	137,(5, 192),1	
21,(4, 46),1	22,(4, 58),4	26,(4, 83),3	29,(4, 61),3	33,(4, 125),2	35,(4, 149),2	37,(4, 112),4	41,(4, 176),1	42,(9, 106),3	45,(12, 91),3	54,(16, 41),1	55,(16, 125),1	56,(16, 143),1	65,(16, 112),2	70,(20, 28),2	72,(20, 86),2	74,(20, 162),2	185,(4, 187),1	273,(9, 81),1	320,(4, 48),38	358,(4, 60),10	368,(4, 62),4	372,(4, 127),14	386,(4, 133),13	399,(4, 142),125	524,(4, 199),36	944,(9, 26),3	947,(9, 34),19	966,(9, 73),57	1023,(9, 76),3	1026,(9, 115),2	1028,(9, 129),2	1030,(9, 188),15	1045,(87, 201),23	1068,(109, 201),23	1091,(145, 201),23	1170,(135, 201),23	1239,(23, 201),23	1655,(12, 24),257	1912,(12, 76),12	1924,(12, 94),6	1930,(12, 141),12	1942,(12, 157),3	1945,(12, 183),1	1946,(12, 199),62	2008,(39, 201),23	2031,(165, 201),23	2054,(174, 201),23	2340,(172, 201),23	2386,(52, 201),23	2409,(159, 201),23	2794,(30, 201),23	2863,(75, 201),23	3187,(16, 114),5	3192,(16, 118),1	3193,(16, 142),12	3205,(16, 161),27	3255,(144, 201),23	3301,(166, 201),23	3609,(96, 201),23	3816,(130, 201),23	4198,(179, 201),23	4343,(20, 62),8	4351,(20, 94),27	4378,(20, 129),1	4379,(20, 169),40	4419,(20, 170),8	4450,(40, 201),23	4519,(198, 201),23	4565,(21, 201),23	4611,(33, 201),23	4795,(43, 201),23	4841,(151, 201),23	4956,(164, 201),23	4979,(171, 201),23	5025,(191, 201),23	5140,(200, 201),23	5163,(49, 201),23	5186,(59, 201),23	5347,(79, 201),23	5370,(110, 201),23	5416,(178, 201),23	5439,(36, 201),23	5485,(53, 201),23	5508,(66, 201),23	5577,(104, 201),23	5600,(117, 201),23	5623,(124, 201),23	5646,(153, 201),23	5669,(31, 201),23	5715,(163, 201),23	5784,(93, 201),23	5807,(140, 201),23	
25,(7, 43),2	27,(7, 110),2	29,(7, 164),1	30,(10, 23),2	32,(10, 178),1	33,(7, 126),1	35,(7, 158),2	37,(10, 37),1	46,(14, 30),1	47,(14, 75),1	48,(14, 178),1	49,(10, 102),1	50,(14, 41),1	51,(14, 54),1	52,(14, 184),1	58,(17, 96),1	59,(17, 130),4	63,(17, 179),1	65,(18, 167),1	66,(19, 86),1	69,(18, 40),1	79,(17, 171),4	83,(18, 124),1	84,(19, 43),1	86,(19, 151),1	754,(7, 98),6	760,(7, 149),66	826,(7, 187),3	852,(44, 201),23	898,(47, 201),23	921,(150, 201),23	1114,(10, 100),11	1125,(10, 118),11	1136,(10, 126),2	1138,(10, 170),1	1139,(10, 199),31	1193,(32, 201),23	1216,(67, 201),23	1262,(92, 201),23	1563,(189, 201),23	2478,(14, 69),214	2692,(14, 115),1	2693,(14, 142),16	2709,(14, 188),16	2748,(175, 201),23	2817,(193, 201),23	2886,(101, 201),23	2955,(25, 201),23	3072,(180, 201),23	3118,(160, 201),23	3141,(91, 201),23	3370,(17, 27),82	3452,(17, 76),71	3523,(17, 94),7	3530,(17, 127),9	3539,(17, 147),1	3563,(61, 201),23	3632,(128, 201),23	3701,(154, 201),23	3747,(173, 201),23	3793,(121, 201),23	3862,(196, 201),23	3885,(18, 45),7	3892,(18, 69),277	4169,(18, 74),14	4183,(18, 157),15	4221,(19, 24),4	4225,(19, 34),1	4226,(19, 62),34	4260,(19, 157),14	4274,(84, 201),23	4297,(105, 201),23	4320,(156, 201),23	4427,(194, 201),23	4473,(148, 201),23	4542,(82, 201),23	4588,(131, 201),23	4634,(146, 201),23	4657,(112, 201),23	4703,(28, 201),23	4772,(63, 201),23	4910,(132, 201),23	5048,(195, 201),23	5071,(197, 201),23	5117,(182, 201),23	5255,(192, 201),23	5278,(42, 201),23	5301,(181, 201),23	5324,(55, 201),23	5393,(177, 201),23	5462,(46, 201),23	5531,(70, 201),23	5554,(99, 201),23	5692,(38, 201),23	5738,(68, 201),23	5761,(89, 201),23	
6,(1, 26),9	15,(1, 31),2	17,(1, 34),5	22,(1, 73),10	32,(1, 77),1	33,(1, 112),1	34,(1, 127),1	35,(1, 175),1	36,(1, 193),1	37,(1, 110),1	38,(1, 118),56	94,(1, 136),31	125,(1, 161),6	131,(1, 188),8	139,(29, 201),23	162,(95, 201),23	185,(3, 42),1	186,(3, 45),7	193,(3, 50),23	216,(3, 73),1	217,(3, 76),8	225,(3, 88),4	229,(3, 100),25	254,(3, 114),15	269,(3, 115),1	270,(3, 147),3	273,(3, 181),1	274,(113, 201),23	297,(186, 201),23	320,(6, 38),1	321,(6, 46),5	326,(6, 55),1	327,(6, 79),1	328,(6, 110),3	331,(6, 177),3	334,(6, 178),2	336,(11, 36),4	340,(11, 38),1	341,(11, 46),1	342,(11, 53),1	343,(11, 66),1	344,(11, 70),2	346,(11, 99),1	347,(11, 104),1	348,(11, 117),1	349,(11, 124),1	350,(11, 140),1	351,(11, 153),1	352,(13, 31),3	355,(13, 38),1	356,(13, 163),1	357,(15, 68),1	358,(15, 89),1	359,(15, 93),1	360,(15, 140),1	560,(6, 27),123	683,(6, 161),1	684,(6, 170),1	685,(51, 201),23	708,(120, 201),23	731,(152, 201),23	829,(168, 201),23	875,(134, 201),23	1285,(11, 24),200	1485,(11, 37),16	1501,(11, 73),1	1502,(11, 100),2	1504,(11, 115),11	1515,(11, 136),25	1540,(11, 169),7	1547,(11, 170),16	1586,(58, 201),23	1609,(123, 201),23	1632,(139, 201),23	2077,(13, 48),64	2141,(13, 98),23	2164,(13, 115),160	2324,(13, 118),11	2335,(13, 136),1	2336,(13, 169),4	2363,(176, 201),23	2432,(65, 201),23	2455,(116, 201),23	2725,(190, 201),23	2771,(122, 201),23	2840,(107, 201),23	2909,(108, 201),23	2932,(106, 201),23	2978,(15, 34),15	2993,(15, 37),34	3027,(15, 78),1	3028,(15, 133),20	3048,(15, 149),9	3057,(15, 157),3	3060,(15, 187),12	3095,(83, 201),23	3164,(102, 201),23	3232,(22, 201),23	3278,(119, 201),23	3324,(72, 201),23	3347,(56, 201),23	3540,(137, 201),23	3586,(185, 201),23	3655,(138, 201),23	3678,(54, 201),23	3724,(41, 201),23	3770,(125, 201),23	3839,(143, 201),23	4496,(35, 201),23	4680,(86, 201),23	4726,(162, 201),23	4749,(57, 201),23	4818,(71, 201),23	4864,(90, 201),23	4887,(103, 201),23	4933,(158, 201),23	5002,(184, 201),23	5094,(111, 201),23	5209,(97, 201),23	5232,(167, 201),23	
