12274
# CPU
97,8,22	119,27,22	141,47,22	163,29,22	185,50,22	207,21,22	319,18,22	352,42,22	374,57,22	396,76,22	418,20,22	468,66,22	1466,60,22	
384,30,22	408,35,22	518,77,22	555,78,22	1438,10,22	1490,73,22	2059,28,22	2128,48,22	2150,49,22	2172,54,22	2601,31,22	12273,81,1	
33,2,22	55,19,22	77,61,22	99,68,22	121,22,22	143,44,22	165,40,22	187,25,22	209,26,22	320,23,22	375,46,22	
65,6,22	87,15,22	109,64,22	131,67,22	153,43,22	175,59,22	372,17,22	394,36,22	416,51,22	438,71,22	
49,3,22	71,56,22	114,39,22	136,63,22	158,13,22	358,72,22	474,69,22	1465,58,22	1495,74,22	
17,1,22	39,16,22	61,75,22	83,79,22	152,24,22	321,38,22	1463,53,22	
81,7,22	103,9,22	125,32,22	396,33,22	465,65,22	
0,0,1	1,5,22	23,4,22	45,41,22	67,62,22	
140,14,22	162,11,22	380,70,22	406,37,22	428,52,22	
118,12,22	317,34,22	362,80,22	384,45,22	457,55,22	
# Incoming
81,(0, 8),16	140,(5, 21),2	312,(3, 18),7	344,(5, 42),8	353,(5, 57),1	358,(5, 76),3	380,(1, 20),1	383,(1, 60),1	465,(4, 66),3	1465,(6, 60),1	
157,(5, 30),152	309,(2, 48),2	311,(3, 10),1	312,(8, 28),1	313,(8, 49),1	317,(5, 35),27	344,(1, 10),36	380,(4, 31),1	381,(1, 54),2	383,(3, 30),1	384,(3, 31),17	401,(3, 35),7	408,(3, 73),9	419,(4, 54),35	454,(3, 77),12	466,(8, 78),4	474,(4, 77),44	518,(4, 78),37	555,(2, 28),99	654,(16, 81),186	840,(41, 81),186	1026,(3, 49),23	1049,(19, 81),186	1235,(75, 81),186	1421,(6, 10),17	1438,(6, 48),24	1466,(6, 73),24	1490,(62, 81),186	1676,(56, 81),186	1862,(61, 81),186	2048,(7, 28),11	2059,(7, 48),69	2128,(7, 49),15	2143,(7, 54),10	2153,(79, 81),186	2339,(15, 81),186	2525,(8, 31),76	2601,(68, 81),186	2787,(9, 81),186	2973,(64, 81),186	3159,(39, 81),186	3345,(12, 81),186	3531,(27, 81),186	3717,(22, 81),186	3903,(32, 81),186	4089,(67, 81),186	4275,(63, 81),186	4461,(14, 81),186	4647,(47, 81),186	4833,(44, 81),186	5019,(24, 81),186	5205,(43, 81),186	5391,(13, 81),186	5577,(11, 81),186	5763,(29, 81),186	5949,(40, 81),186	6135,(59, 81),186	6321,(50, 81),186	6507,(25, 81),186	6693,(21, 81),186	6879,(26, 81),186	7065,(34, 81),186	7251,(18, 81),186	7437,(23, 81),186	7623,(38, 81),186	7809,(42, 81),186	7995,(72, 81),186	8181,(80, 81),186	8367,(17, 81),186	8553,(57, 81),186	8739,(46, 81),186	8925,(70, 81),186	9111,(45, 81),186	9297,(36, 81),186	9483,(76, 81),186	9669,(33, 81),186	9855,(37, 81),186	10041,(51, 81),186	10227,(20, 81),186	10413,(52, 81),186	10599,(71, 81),186	10785,(55, 81),186	10971,(65, 81),186	11157,(66, 81),186	11343,(69, 81),186	11529,(53, 81),186	11715,(58, 81),186	11901,(60, 81),186	12087,(74, 81),186	
17,(0, 2),16	103,(7, 26),4	142,(5, 23),3	145,(8, 40),2	152,(5, 25),4	156,(5, 26),1	319,(3, 23),1	374,(4, 46),1	
49,(0, 6),16	142,(8, 59),1	362,(4, 17),10	372,(4, 36),1	375,(4, 51),1	384,(1, 71),2	
33,(0, 3),16	107,(7, 39),7	114,(7, 63),1	118,(2, 13),1	354,(5, 58),3	357,(5, 72),1	468,(4, 69),6	1463,(6, 58),2	1490,(6, 74),5	
1,(0, 1),16	145,(5, 24),7	320,(3, 38),1	376,(4, 53),2	1462,(6, 53),1	
65,(0, 7),16	119,(2, 32),3	381,(4, 33),15	457,(4, 65),8	

97,(5, 11),20	117,(2, 11),1	118,(5, 14),22	140,(8, 11),2	378,(4, 70),2	396,(4, 37),10	406,(4, 52),13	
117,(5, 12),1	309,(5, 34),8	352,(5, 45),1	361,(5, 80),1	373,(4, 45),1	454,(4, 55),3	
# Outgoing
140,(8, 11),2	142,(8, 59),1	145,(8, 40),2	312,(8, 28),1	313,(8, 49),1	466,(8, 78),4	2525,(8, 31),76	3531,(27, 81),186	4647,(47, 81),186	5763,(29, 81),186	6321,(50, 81),186	6693,(21, 81),186	7251,(18, 81),186	7809,(42, 81),186	8553,(57, 81),186	9483,(76, 81),186	10227,(20, 81),186	11157,(66, 81),186	11901,(60, 81),186	

117,(2, 11),1	118,(2, 13),1	119,(2, 32),3	309,(2, 48),2	555,(2, 28),99	1049,(19, 81),186	1862,(61, 81),186	2601,(68, 81),186	3717,(22, 81),186	4833,(44, 81),186	5949,(40, 81),186	6507,(25, 81),186	6879,(26, 81),186	7437,(23, 81),186	8739,(46, 81),186	
1421,(6, 10),17	1438,(6, 48),24	1462,(6, 53),1	1463,(6, 58),2	1465,(6, 60),1	1466,(6, 73),24	1490,(6, 74),5	2339,(15, 81),186	2973,(64, 81),186	4089,(67, 81),186	5205,(43, 81),186	6135,(59, 81),186	8367,(17, 81),186	9297,(36, 81),186	10041,(51, 81),186	10599,(71, 81),186	
311,(3, 10),1	312,(3, 18),7	319,(3, 23),1	320,(3, 38),1	383,(3, 30),1	384,(3, 31),17	401,(3, 35),7	408,(3, 73),9	454,(3, 77),12	1026,(3, 49),23	1676,(56, 81),186	3159,(39, 81),186	4275,(63, 81),186	5391,(13, 81),186	7995,(72, 81),186	11343,(69, 81),186	11715,(58, 81),186	12087,(74, 81),186	
344,(1, 10),36	380,(1, 20),1	381,(1, 54),2	383,(1, 60),1	384,(1, 71),2	654,(16, 81),186	1235,(75, 81),186	2153,(79, 81),186	5019,(24, 81),186	7623,(38, 81),186	11529,(53, 81),186	
103,(7, 26),4	107,(7, 39),7	114,(7, 63),1	2048,(7, 28),11	2059,(7, 48),69	2128,(7, 49),15	2143,(7, 54),10	2787,(9, 81),186	3903,(32, 81),186	9669,(33, 81),186	10971,(65, 81),186	
1,(0, 1),16	17,(0, 2),16	33,(0, 3),16	49,(0, 6),16	65,(0, 7),16	81,(0, 8),16	97,(5, 11),20	117,(5, 12),1	118,(5, 14),22	140,(5, 21),2	142,(5, 23),3	145,(5, 24),7	152,(5, 25),4	156,(5, 26),1	157,(5, 30),152	309,(5, 34),8	317,(5, 35),27	344,(5, 42),8	352,(5, 45),1	353,(5, 57),1	354,(5, 58),3	357,(5, 72),1	358,(5, 76),3	361,(5, 80),1	362,(4, 17),10	372,(4, 36),1	373,(4, 45),1	374,(4, 46),1	375,(4, 51),1	376,(4, 53),2	378,(4, 70),2	380,(4, 31),1	381,(4, 33),15	396,(4, 37),10	406,(4, 52),13	419,(4, 54),35	454,(4, 55),3	457,(4, 65),8	465,(4, 66),3	468,(4, 69),6	474,(4, 77),44	518,(4, 78),37	840,(41, 81),186	1490,(62, 81),186	
4461,(14, 81),186	5577,(11, 81),186	8925,(70, 81),186	9855,(37, 81),186	10413,(52, 81),186	
3345,(12, 81),186	7065,(34, 81),186	8181,(80, 81),186	9111,(45, 81),186	10785,(55, 81),186	
