23894
# CPU
0,0,1	1,4,33	34,3,33	67,9,33	100,5,33	133,6,33	166,10,33	199,8,33	6102,16,33	6162,19,33	6195,20,33	6228,21,33	6261,22,33	6294,23,33	6327,24,33	6360,25,33	6393,28,33	6426,31,33	6459,33,33	6492,34,33	6525,37,33	6558,40,33	6591,42,33	6624,44,33	6657,46,33	6690,48,33	6723,49,33	6756,50,33	6789,54,33	6822,55,33	6855,56,33	6888,57,33	6921,60,33	6954,61,33	6987,66,33	7020,69,33	7053,73,33	7086,75,33	7119,77,33	7152,78,33	7185,79,33	7218,81,33	7282,82,33	7315,84,33	7348,86,33	7381,92,33	7434,93,33	7478,95,33	7546,96,33	7622,97,33	7655,99,33	7688,104,33	7721,105,33	7754,107,33	7787,109,33	7820,110,33	7853,111,33	7886,112,33	7919,113,33	7952,115,33	7985,118,33	
57,1,33	113,2,33	169,7,33	225,11,33	281,12,33	21561,13,33	21594,14,33	21627,15,33	21660,17,33	21693,18,33	21726,26,33	21759,27,33	21792,29,33	21825,30,33	21858,32,33	21891,35,33	21924,36,33	21957,38,33	21990,39,33	22023,41,33	22056,43,33	22089,45,33	22122,47,33	22155,51,33	22188,52,33	22221,53,33	22254,58,33	22287,59,33	22320,62,33	22353,63,33	22386,64,33	22419,65,33	22452,67,33	22485,68,33	22518,70,33	22551,71,33	22584,72,33	22617,74,33	22650,76,33	22683,80,33	22716,83,33	22749,85,33	22782,87,33	22815,88,33	22848,89,33	22881,90,33	22914,91,33	22947,94,33	22980,98,33	23013,100,33	23046,101,33	23079,102,33	23112,103,33	23145,106,33	23178,108,33	23211,114,33	23285,116,33	23333,117,33	23461,119,33	23494,120,33	23893,121,1	
# Incoming
90,(1, 16),24	114,(1, 19),4	118,(1, 20),40	158,(1, 21),4	162,(1, 22),24	186,(1, 23),32	218,(1, 24),4	222,(1, 25),8	230,(1, 28),12	242,(1, 31),16	258,(1, 33),20	278,(1, 34),112	390,(1, 37),16	406,(1, 40),8	414,(1, 42),44	458,(1, 44),44	502,(1, 46),4	506,(1, 48),52	558,(1, 49),4	562,(1, 50),4	566,(1, 54),56	622,(1, 55),56	678,(1, 56),8	686,(1, 57),28	714,(1, 60),4	718,(1, 61),36	754,(1, 66),16	770,(1, 69),16	786,(1, 73),44	830,(1, 75),4	834,(1, 77),16	850,(1, 78),56	906,(1, 79),4	910,(1, 81),12	922,(1, 82),112	1034,(1, 84),40	1074,(1, 86),64	1138,(1, 92),4	1142,(1, 93),4	1146,(1, 95),4	1150,(1, 96),4	1154,(1, 97),24	1178,(1, 99),52	1230,(1, 104),20	1250,(1, 105),4	1254,(1, 107),20	1274,(1, 109),32	1306,(1, 110),4	1310,(1, 111),24	1334,(1, 112),28	1362,(1, 113),8	1370,(1, 115),12	1382,(1, 118),24	1406,(2, 16),20	1426,(2, 19),28	1454,(2, 20),52	1506,(2, 21),4	1510,(2, 22),4	1514,(2, 23),12	1526,(2, 24),12	1538,(2, 25),8	1546,(2, 28),40	1586,(2, 31),4	1590,(2, 33),8	1598,(2, 34),236	1834,(2, 37),44	1878,(2, 40),104	1982,(2, 42),44	2026,(2, 44),4	2030,(2, 46),4	2034,(2, 48),4	2038,(2, 49),12	2050,(2, 50),92	2142,(2, 54),24	2166,(2, 55),64	2230,(2, 56),8	2238,(2, 57),4	2242,(2, 60),4	2246,(2, 61),4	2250,(2, 66),4	2254,(2, 69),32	2286,(2, 73),8	2294,(2, 75),80	2374,(2, 77),4	2378,(2, 78),20	2398,(2, 79),148	2546,(2, 81),8	2554,(2, 82),36	2590,(2, 84),4	2594,(2, 86),4	2598,(2, 92),8	2606,(2, 93),56	2662,(2, 95),68	2730,(2, 96),16	2746,(2, 97),16	2762,(2, 99),4	2766,(2, 104),16	2782,(2, 105),44	2826,(2, 107),4	2830,(2, 109),4	2834,(2, 110),8	2842,(2, 111),44	2886,(2, 112),24	2910,(2, 113),4	2914,(2, 115),4	2918,(2, 118),8	2926,(7, 16),160	3086,(7, 19),8	3094,(7, 20),4	3098,(7, 21),4	3102,(7, 22),8	3110,(7, 23),32	3142,(7, 24),4	3146,(7, 25),32	3178,(7, 28),4	3182,(7, 31),4	3186,(7, 33),12	3198,(7, 34),232	3430,(7, 37),92	3522,(7, 40),4	3526,(7, 42),96	3622,(7, 44),36	3658,(7, 46),12	3670,(7, 48),16	3686,(7, 49),52	3738,(7, 50),20	3758,(7, 54),4	3762,(7, 55),44	3806,(7, 56),52	3858,(7, 57),64	3922,(7, 60),4	3926,(7, 61),4	3930,(7, 66),8	3938,(7, 69),20	3958,(7, 73),52	4010,(7, 75),80	4090,(7, 77),12	4102,(7, 78),4	4106,(7, 79),72	4178,(7, 81),16	4194,(7, 82),4	4198,(7, 84),24	4222,(7, 86),36	4258,(7, 92),24	4282,(7, 93),20	4302,(7, 95),4	4306,(7, 96),4	4310,(7, 97),4	4314,(7, 99),4	4318,(7, 104),48	4366,(7, 105),4	4370,(7, 107),24	4394,(7, 109),4	4398,(7, 110),28	4426,(7, 111),4	4430,(7, 112),24	4454,(7, 113),112	4566,(7, 115),24	4590,(7, 118),52	4642,(11, 16),8	4650,(11, 19),76	4726,(11, 20),4	4730,(11, 21),4	4734,(11, 22),4	4738,(11, 23),8	4746,(11, 24),156	4902,(11, 25),4	4906,(11, 28),44	4950,(11, 31),8	4958,(11, 33),12	4970,(11, 34),20	4990,(11, 37),68	5058,(11, 40),12	5070,(11, 42),4	5074,(11, 44),4	5078,(11, 46),8	5086,(11, 48),4	5090,(11, 49),4	5094,(11, 50),24	5118,(11, 54),24	5142,(11, 55),12	5154,(11, 56),4	5158,(11, 57),4	5162,(11, 60),48	5210,(11, 61),8	5218,(11, 66),4	5222,(11, 69),8	5230,(11, 73),4	5234,(11, 75),152	5386,(11, 77),4	5390,(11, 78),24	5414,(11, 79),128	5542,(11, 81),48	5590,(11, 82),188	5778,(11, 84),8	5786,(11, 86),8	5794,(11, 92),4	5798,(11, 93),4	5802,(11, 95),8	5810,(11, 96),80	5890,(11, 97),16	5906,(11, 99),4	5910,(11, 104),4	5914,(11, 105),28	5942,(11, 107),12	5954,(11, 109),4	5958,(11, 110),48	6006,(11, 111),8	6014,(11, 112),4	6018,(11, 113),24	6042,(11, 115),4	6046,(11, 118),4	6050,(12, 16),52	6102,(12, 19),60	6162,(12, 20),8	6170,(12, 21),36	6206,(12, 22),40	6246,(12, 23),4	6250,(12, 24),24	6274,(12, 25),20	6294,(12, 28),96	6390,(12, 31),4	6394,(12, 33),4	6398,(12, 34),4	6402,(12, 37),4	6406,(12, 40),4	6410,(12, 42),36	6446,(12, 44),8	6454,(12, 46),8	6462,(12, 48),8	6470,(12, 49),36	6506,(12, 50),4	6510,(12, 54),12	6522,(12, 55),28	6550,(12, 56),4	6554,(12, 57),4	6558,(12, 60),4	6562,(12, 61),12	6574,(12, 66),4	6578,(12, 69),296	6874,(12, 73),4	6878,(12, 75),188	7066,(12, 77),4	7070,(12, 78),4	7074,(12, 79),48	7122,(12, 81),12	7134,(12, 82),148	7282,(12, 84),16	7298,(12, 86),4	7302,(12, 92),72	7374,(12, 93),60	7434,(12, 95),44	7478,(12, 96),68	7546,(12, 97),76	7622,(12, 99),4	7626,(12, 104),4	7630,(12, 105),8	7638,(12, 107),8	7646,(12, 109),4	7650,(12, 110),40	7690,(12, 111),36	7726,(12, 112),4	7730,(12, 113),68	7798,(12, 115),48	7846,(12, 118),4	
1,(0, 1),56	57,(0, 2),56	113,(0, 7),56	169,(0, 11),56	225,(0, 12),56	281,(4, 13),4	285,(4, 14),124	409,(4, 15),36	445,(4, 17),4	449,(4, 18),4	453,(4, 26),28	481,(4, 27),20	501,(4, 29),8	509,(4, 30),12	521,(4, 32),4	525,(4, 35),4	529,(4, 36),236	765,(4, 38),696	1461,(4, 39),4	1465,(4, 41),32	1497,(4, 43),104	1601,(4, 45),8	1609,(4, 47),24	1633,(4, 51),148	1781,(4, 52),112	1893,(4, 53),16	1909,(4, 58),2512	4421,(4, 59),4	4425,(4, 62),12	4437,(4, 63),4	4441,(4, 64),4	4445,(4, 65),180	4625,(4, 67),12	4637,(4, 68),304	4941,(4, 70),32	4973,(4, 71),56	5029,(4, 72),4	5033,(4, 74),28	5061,(4, 76),48	5109,(4, 80),16	5125,(4, 83),8	5133,(4, 85),12	5145,(4, 87),16	5161,(4, 88),52	5213,(4, 89),4	5217,(4, 90),56	5273,(4, 91),76	5349,(4, 94),4	5353,(4, 98),436	5789,(4, 100),948	6737,(4, 101),4	6741,(4, 102),4	6745,(4, 103),88	6833,(4, 106),4	6837,(4, 108),4	6841,(4, 114),16	6857,(4, 116),4	6861,(4, 117),4	6865,(4, 119),8	6873,(4, 120),4	6877,(3, 13),4	6881,(3, 14),60	6941,(3, 15),24	6965,(3, 17),4	6969,(3, 18),124	7093,(3, 26),20	7113,(3, 27),24	7137,(3, 29),12	7149,(3, 30),8	7157,(3, 32),20	7177,(3, 35),52	7229,(3, 36),16	7245,(3, 38),4	7249,(3, 39),36	7285,(3, 41),16	7301,(3, 43),4	7305,(3, 45),520	7825,(3, 47),8	7833,(3, 51),4	7837,(3, 52),48	7885,(3, 53),28	7913,(3, 58),4	7917,(3, 59),8	7925,(3, 62),16	7941,(3, 63),84	8025,(3, 64),20	8045,(3, 65),20	8065,(3, 67),4	8069,(3, 68),1588	9657,(3, 70),20	9677,(3, 71),16	9693,(3, 72),16	9709,(3, 74),20	9729,(3, 76),4	9733,(3, 80),4	9737,(3, 83),112	9849,(3, 85),348	10197,(3, 87),4	10201,(3, 88),36	10237,(3, 89),4	10241,(3, 90),12	10253,(3, 91),4	10257,(3, 94),4	10261,(3, 98),8	10269,(3, 100),12	10281,(3, 101),16	10297,(3, 102),20	10317,(3, 103),44	10361,(3, 106),4	10365,(3, 108),8	10373,(3, 114),120	10493,(3, 116),228	10721,(3, 117),36	10757,(3, 119),52	10809,(3, 120),20	10829,(9, 13),4	10833,(9, 14),44	10877,(9, 15),4	10881,(9, 17),4	10885,(9, 18),64	10949,(9, 26),4	10953,(9, 27),4	10957,(9, 29),16	10973,(9, 30),16	10989,(9, 32),16	11005,(9, 35),12	11017,(9, 36),12	11029,(9, 38),40	11069,(9, 39),316	11385,(9, 41),32	11417,(9, 43),32	11449,(9, 45),852	12301,(9, 47),16	12317,(9, 51),496	12813,(9, 52),12	12825,(9, 53),12	12837,(9, 58),4	12841,(9, 59),4	12845,(9, 62),28	12873,(9, 63),4	12877,(9, 64),16	12893,(9, 65),4	12897,(9, 67),4	12901,(9, 68),4	12905,(9, 70),32	12937,(9, 71),52	12989,(9, 72),452	13441,(9, 74),84	13525,(9, 76),4	13529,(9, 80),16	13545,(9, 83),4	13549,(9, 85),4	13553,(9, 87),36	13589,(9, 88),4	13593,(9, 89),12	13605,(9, 90),4	13609,(9, 91),4	13613,(9, 94),16	13629,(9, 98),4	13633,(9, 100),64	13697,(9, 101),4	13701,(9, 102),48	13749,(9, 103),4	13753,(9, 106),8	13761,(9, 108),12	13773,(9, 114),48	13821,(9, 116),280	14101,(9, 117),32	14133,(9, 119),20	14153,(9, 120),12	14165,(5, 13),32	14197,(5, 14),24	14221,(5, 15),8	14229,(5, 17),32	14261,(5, 18),16	14277,(5, 26),28	14305,(5, 27),40	14345,(5, 29),12	14357,(5, 30),32	14389,(5, 32),176	14565,(5, 35),176	14741,(5, 36),4	14745,(5, 38),104	14849,(5, 39),200	15049,(5, 41),4	15053,(5, 43),4	15057,(5, 45),4	15061,(5, 47),12	15073,(5, 51),52	15125,(5, 52),16	15141,(5, 53),4	15145,(5, 58),4	15149,(5, 59),108	15257,(5, 62),64	15321,(5, 63),24	15345,(5, 64),36	15381,(5, 65),28	15409,(5, 67),48	15457,(5, 68),4	15461,(5, 70),40	15501,(5, 71),76	15577,(5, 72),16	15593,(5, 74),68	15661,(5, 76),4	15665,(5, 80),24	15689,(5, 83),20	15709,(5, 85),772	16481,(5, 87),16	16497,(5, 88),8	16505,(5, 89),4	16509,(5, 90),28	16537,(5, 91),4	16541,(5, 94),4	16545,(5, 98),4	16549,(5, 100),28	16577,(5, 101),12	16589,(5, 102),24	16613,(5, 103),4	16617,(5, 106),16	16633,(5, 108),48	16681,(5, 114),4	16685,(5, 116),4	16689,(5, 117),20	16709,(5, 119),8	16717,(5, 120),4	16721,(6, 13),4	16725,(6, 14),4	16729,(6, 15),20	16749,(6, 17),4	16753,(6, 18),76	16829,(6, 26),12	16841,(6, 27),12	16853,(6, 29),4	16857,(6, 30),8	16865,(6, 32),8	16873,(6, 35),40	16913,(6, 36),44	16957,(6, 38),32	16989,(6, 39),12	17001,(6, 41),44	17045,(6, 43),8	17053,(6, 45),76	17129,(6, 47),4	17133,(6, 51),44	17177,(6, 52),16	17193,(6, 53),24	17217,(6, 58),120	17337,(6, 59),16	17353,(6, 62),68	17421,(6, 63),8	17429,(6, 64),60	17489,(6, 65),16	17505,(6, 67),4	17509,(6, 68),4	17513,(6, 70),4	17517,(6, 71),4	17521,(6, 72),12	17533,(6, 74),36	17569,(6, 76),16	17585,(6, 80),240	17825,(6, 83),8	17833,(6, 85),752	18585,(6, 87),100	18685,(6, 88),12	18697,(6, 89),4	18701,(6, 90),4	18705,(6, 91),8	18713,(6, 94),36	18749,(6, 98),8	18757,(6, 100),4	18761,(6, 101),8	18769,(6, 102),16	18785,(6, 103),12	18797,(6, 106),8	18805,(6, 108),4	18809,(6, 114),136	18945,(6, 116),108	19053,(6, 117),4	19057,(6, 119),4	19061,(6, 120),92	19153,(10, 13),12	19165,(10, 14),100	19265,(10, 15),8	19273,(10, 17),40	19313,(10, 18),20	19333,(10, 26),20	19353,(10, 27),16	19369,(10, 29),104	19473,(10, 30),92	19565,(10, 32),4	19569,(10, 35),44	19613,(10, 36),4	19617,(10, 38),56	19673,(10, 39),12	19685,(10, 41),136	19821,(10, 43),16	19837,(10, 45),4	19841,(10, 47),8	19849,(10, 51),4	19853,(10, 52),4	19857,(10, 53),4	19861,(10, 58),152	20013,(10, 59),160	20173,(10, 62),8	20181,(10, 63),4	20185,(10, 64),28	20213,(10, 65),308	20521,(10, 67),16	20537,(10, 68),108	20645,(10, 70),4	20649,(10, 71),4	20653,(10, 72),56	20709,(10, 74),12	20721,(10, 76),4	20725,(10, 80),20	20745,(10, 83),4	20749,(10, 85),444	21193,(10, 87),4	21197,(10, 88),12	21209,(10, 89),16	21225,(10, 90),8	21233,(10, 91),20	21253,(10, 94),4	21257,(10, 98),4	21261,(10, 100),4	21265,(10, 101),20	21285,(10, 102),28	21313,(10, 103),24	21337,(10, 106),8	21345,(10, 108),56	21401,(10, 114),40	21441,(10, 116),4	21445,(10, 117),72	21517,(10, 119),4	21521,(10, 120),20	21541,(8, 13),20	21561,(8, 14),24	21585,(8, 15),8	21593,(8, 17),4	21597,(8, 18),80	21677,(8, 26),4	21681,(8, 27),4	21685,(8, 29),4	21689,(8, 30),96	21785,(8, 32),12	21797,(8, 35),20	21817,(8, 36),84	21901,(8, 38),4	21905,(8, 39),44	21949,(8, 41),4	21953,(8, 43),16	21969,(8, 45),40	22009,(8, 47),4	22013,(8, 51),36	22049,(8, 52),4	22053,(8, 53),4	22057,(8, 58),12	22069,(8, 59),44	22113,(8, 62),4	22117,(8, 63),4	22121,(8, 64),4	22125,(8, 65),56	22181,(8, 67),36	22217,(8, 68),56	22273,(8, 70),4	22277,(8, 71),28	22305,(8, 72),4	22309,(8, 74),12	22321,(8, 76),20	22341,(8, 80),4	22345,(8, 83),56	22401,(8, 85),44	22445,(8, 87),4	22449,(8, 88),12	22461,(8, 89),12	22473,(8, 90),4	22477,(8, 91),12	22489,(8, 94),40	22529,(8, 98),20	22549,(8, 100),28	22577,(8, 101),4	22581,(8, 102),16	22597,(8, 103),4	22601,(8, 106),200	22801,(8, 108),88	22889,(8, 114),4	22893,(8, 116),392	23285,(8, 117),48	23333,(8, 119),128	23461,(8, 120),8	23469,(16, 121),8	23477,(19, 121),8	23485,(20, 121),8	23493,(21, 121),8	23501,(22, 121),8	23509,(23, 121),8	23517,(24, 121),8	23525,(25, 121),8	23533,(28, 121),8	23541,(31, 121),8	23549,(33, 121),8	23557,(34, 121),8	23565,(37, 121),8	23573,(40, 121),8	23581,(42, 121),8	23589,(44, 121),8	23597,(46, 121),8	23605,(48, 121),8	23613,(49, 121),8	23621,(50, 121),8	23629,(54, 121),8	23637,(55, 121),8	23645,(56, 121),8	23653,(57, 121),8	23661,(60, 121),8	23669,(61, 121),8	23677,(66, 121),8	23685,(69, 121),8	23693,(73, 121),8	23701,(75, 121),8	23709,(77, 121),8	23717,(78, 121),8	23725,(79, 121),8	23733,(81, 121),8	23741,(82, 121),8	23749,(84, 121),8	23757,(86, 121),8	23765,(92, 121),8	23773,(93, 121),8	23781,(95, 121),8	23789,(96, 121),8	23797,(97, 121),8	23805,(99, 121),8	23813,(104, 121),8	23821,(105, 121),8	23829,(107, 121),8	23837,(109, 121),8	23845,(110, 121),8	23853,(111, 121),8	23861,(112, 121),8	23869,(113, 121),8	23877,(115, 121),8	23885,(118, 121),8	
# Outgoing
1,(0, 1),56	57,(0, 2),56	113,(0, 7),56	169,(0, 11),56	225,(0, 12),56	281,(4, 13),4	285,(4, 14),124	409,(4, 15),36	445,(4, 17),4	449,(4, 18),4	453,(4, 26),28	481,(4, 27),20	501,(4, 29),8	509,(4, 30),12	521,(4, 32),4	525,(4, 35),4	529,(4, 36),236	765,(4, 38),696	1461,(4, 39),4	1465,(4, 41),32	1497,(4, 43),104	1601,(4, 45),8	1609,(4, 47),24	1633,(4, 51),148	1781,(4, 52),112	1893,(4, 53),16	1909,(4, 58),2512	4421,(4, 59),4	4425,(4, 62),12	4437,(4, 63),4	4441,(4, 64),4	4445,(4, 65),180	4625,(4, 67),12	4637,(4, 68),304	4941,(4, 70),32	4973,(4, 71),56	5029,(4, 72),4	5033,(4, 74),28	5061,(4, 76),48	5109,(4, 80),16	5125,(4, 83),8	5133,(4, 85),12	5145,(4, 87),16	5161,(4, 88),52	5213,(4, 89),4	5217,(4, 90),56	5273,(4, 91),76	5349,(4, 94),4	5353,(4, 98),436	5789,(4, 100),948	6737,(4, 101),4	6741,(4, 102),4	6745,(4, 103),88	6833,(4, 106),4	6837,(4, 108),4	6841,(4, 114),16	6857,(4, 116),4	6861,(4, 117),4	6865,(4, 119),8	6873,(4, 120),4	6877,(3, 13),4	6881,(3, 14),60	6941,(3, 15),24	6965,(3, 17),4	6969,(3, 18),124	7093,(3, 26),20	7113,(3, 27),24	7137,(3, 29),12	7149,(3, 30),8	7157,(3, 32),20	7177,(3, 35),52	7229,(3, 36),16	7245,(3, 38),4	7249,(3, 39),36	7285,(3, 41),16	7301,(3, 43),4	7305,(3, 45),520	7825,(3, 47),8	7833,(3, 51),4	7837,(3, 52),48	7885,(3, 53),28	7913,(3, 58),4	7917,(3, 59),8	7925,(3, 62),16	7941,(3, 63),84	8025,(3, 64),20	8045,(3, 65),20	8065,(3, 67),4	8069,(3, 68),1588	9657,(3, 70),20	9677,(3, 71),16	9693,(3, 72),16	9709,(3, 74),20	9729,(3, 76),4	9733,(3, 80),4	9737,(3, 83),112	9849,(3, 85),348	10197,(3, 87),4	10201,(3, 88),36	10237,(3, 89),4	10241,(3, 90),12	10253,(3, 91),4	10257,(3, 94),4	10261,(3, 98),8	10269,(3, 100),12	10281,(3, 101),16	10297,(3, 102),20	10317,(3, 103),44	10361,(3, 106),4	10365,(3, 108),8	10373,(3, 114),120	10493,(3, 116),228	10721,(3, 117),36	10757,(3, 119),52	10809,(3, 120),20	10829,(9, 13),4	10833,(9, 14),44	10877,(9, 15),4	10881,(9, 17),4	10885,(9, 18),64	10949,(9, 26),4	10953,(9, 27),4	10957,(9, 29),16	10973,(9, 30),16	10989,(9, 32),16	11005,(9, 35),12	11017,(9, 36),12	11029,(9, 38),40	11069,(9, 39),316	11385,(9, 41),32	11417,(9, 43),32	11449,(9, 45),852	12301,(9, 47),16	12317,(9, 51),496	12813,(9, 52),12	12825,(9, 53),12	12837,(9, 58),4	12841,(9, 59),4	12845,(9, 62),28	12873,(9, 63),4	12877,(9, 64),16	12893,(9, 65),4	12897,(9, 67),4	12901,(9, 68),4	12905,(9, 70),32	12937,(9, 71),52	12989,(9, 72),452	13441,(9, 74),84	13525,(9, 76),4	13529,(9, 80),16	13545,(9, 83),4	13549,(9, 85),4	13553,(9, 87),36	13589,(9, 88),4	13593,(9, 89),12	13605,(9, 90),4	13609,(9, 91),4	13613,(9, 94),16	13629,(9, 98),4	13633,(9, 100),64	13697,(9, 101),4	13701,(9, 102),48	13749,(9, 103),4	13753,(9, 106),8	13761,(9, 108),12	13773,(9, 114),48	13821,(9, 116),280	14101,(9, 117),32	14133,(9, 119),20	14153,(9, 120),12	14165,(5, 13),32	14197,(5, 14),24	14221,(5, 15),8	14229,(5, 17),32	14261,(5, 18),16	14277,(5, 26),28	14305,(5, 27),40	14345,(5, 29),12	14357,(5, 30),32	14389,(5, 32),176	14565,(5, 35),176	14741,(5, 36),4	14745,(5, 38),104	14849,(5, 39),200	15049,(5, 41),4	15053,(5, 43),4	15057,(5, 45),4	15061,(5, 47),12	15073,(5, 51),52	15125,(5, 52),16	15141,(5, 53),4	15145,(5, 58),4	15149,(5, 59),108	15257,(5, 62),64	15321,(5, 63),24	15345,(5, 64),36	15381,(5, 65),28	15409,(5, 67),48	15457,(5, 68),4	15461,(5, 70),40	15501,(5, 71),76	15577,(5, 72),16	15593,(5, 74),68	15661,(5, 76),4	15665,(5, 80),24	15689,(5, 83),20	15709,(5, 85),772	16481,(5, 87),16	16497,(5, 88),8	16505,(5, 89),4	16509,(5, 90),28	16537,(5, 91),4	16541,(5, 94),4	16545,(5, 98),4	16549,(5, 100),28	16577,(5, 101),12	16589,(5, 102),24	16613,(5, 103),4	16617,(5, 106),16	16633,(5, 108),48	16681,(5, 114),4	16685,(5, 116),4	16689,(5, 117),20	16709,(5, 119),8	16717,(5, 120),4	16721,(6, 13),4	16725,(6, 14),4	16729,(6, 15),20	16749,(6, 17),4	16753,(6, 18),76	16829,(6, 26),12	16841,(6, 27),12	16853,(6, 29),4	16857,(6, 30),8	16865,(6, 32),8	16873,(6, 35),40	16913,(6, 36),44	16957,(6, 38),32	16989,(6, 39),12	17001,(6, 41),44	17045,(6, 43),8	17053,(6, 45),76	17129,(6, 47),4	17133,(6, 51),44	17177,(6, 52),16	17193,(6, 53),24	17217,(6, 58),120	17337,(6, 59),16	17353,(6, 62),68	17421,(6, 63),8	17429,(6, 64),60	17489,(6, 65),16	17505,(6, 67),4	17509,(6, 68),4	17513,(6, 70),4	17517,(6, 71),4	17521,(6, 72),12	17533,(6, 74),36	17569,(6, 76),16	17585,(6, 80),240	17825,(6, 83),8	17833,(6, 85),752	18585,(6, 87),100	18685,(6, 88),12	18697,(6, 89),4	18701,(6, 90),4	18705,(6, 91),8	18713,(6, 94),36	18749,(6, 98),8	18757,(6, 100),4	18761,(6, 101),8	18769,(6, 102),16	18785,(6, 103),12	18797,(6, 106),8	18805,(6, 108),4	18809,(6, 114),136	18945,(6, 116),108	19053,(6, 117),4	19057,(6, 119),4	19061,(6, 120),92	19153,(10, 13),12	19165,(10, 14),100	19265,(10, 15),8	19273,(10, 17),40	19313,(10, 18),20	19333,(10, 26),20	19353,(10, 27),16	19369,(10, 29),104	19473,(10, 30),92	19565,(10, 32),4	19569,(10, 35),44	19613,(10, 36),4	19617,(10, 38),56	19673,(10, 39),12	19685,(10, 41),136	19821,(10, 43),16	19837,(10, 45),4	19841,(10, 47),8	19849,(10, 51),4	19853,(10, 52),4	19857,(10, 53),4	19861,(10, 58),152	20013,(10, 59),160	20173,(10, 62),8	20181,(10, 63),4	20185,(10, 64),28	20213,(10, 65),308	20521,(10, 67),16	20537,(10, 68),108	20645,(10, 70),4	20649,(10, 71),4	20653,(10, 72),56	20709,(10, 74),12	20721,(10, 76),4	20725,(10, 80),20	20745,(10, 83),4	20749,(10, 85),444	21193,(10, 87),4	21197,(10, 88),12	21209,(10, 89),16	21225,(10, 90),8	21233,(10, 91),20	21253,(10, 94),4	21257,(10, 98),4	21261,(10, 100),4	21265,(10, 101),20	21285,(10, 102),28	21313,(10, 103),24	21337,(10, 106),8	21345,(10, 108),56	21401,(10, 114),40	21441,(10, 116),4	21445,(10, 117),72	21517,(10, 119),4	21521,(10, 120),20	21541,(8, 13),20	21561,(8, 14),24	21585,(8, 15),8	21593,(8, 17),4	21597,(8, 18),80	21677,(8, 26),4	21681,(8, 27),4	21685,(8, 29),4	21689,(8, 30),96	21785,(8, 32),12	21797,(8, 35),20	21817,(8, 36),84	21901,(8, 38),4	21905,(8, 39),44	21949,(8, 41),4	21953,(8, 43),16	21969,(8, 45),40	22009,(8, 47),4	22013,(8, 51),36	22049,(8, 52),4	22053,(8, 53),4	22057,(8, 58),12	22069,(8, 59),44	22113,(8, 62),4	22117,(8, 63),4	22121,(8, 64),4	22125,(8, 65),56	22181,(8, 67),36	22217,(8, 68),56	22273,(8, 70),4	22277,(8, 71),28	22305,(8, 72),4	22309,(8, 74),12	22321,(8, 76),20	22341,(8, 80),4	22345,(8, 83),56	22401,(8, 85),44	22445,(8, 87),4	22449,(8, 88),12	22461,(8, 89),12	22473,(8, 90),4	22477,(8, 91),12	22489,(8, 94),40	22529,(8, 98),20	22549,(8, 100),28	22577,(8, 101),4	22581,(8, 102),16	22597,(8, 103),4	22601,(8, 106),200	22801,(8, 108),88	22889,(8, 114),4	22893,(8, 116),392	23285,(8, 117),48	23333,(8, 119),128	23461,(8, 120),8	23469,(16, 121),8	23477,(19, 121),8	23485,(20, 121),8	23493,(21, 121),8	23501,(22, 121),8	23509,(23, 121),8	23517,(24, 121),8	23525,(25, 121),8	23533,(28, 121),8	23541,(31, 121),8	23549,(33, 121),8	23557,(34, 121),8	23565,(37, 121),8	23573,(40, 121),8	23581,(42, 121),8	23589,(44, 121),8	23597,(46, 121),8	23605,(48, 121),8	23613,(49, 121),8	23621,(50, 121),8	23629,(54, 121),8	23637,(55, 121),8	23645,(56, 121),8	23653,(57, 121),8	23661,(60, 121),8	23669,(61, 121),8	23677,(66, 121),8	23685,(69, 121),8	23693,(73, 121),8	23701,(75, 121),8	23709,(77, 121),8	23717,(78, 121),8	23725,(79, 121),8	23733,(81, 121),8	23741,(82, 121),8	23749,(84, 121),8	23757,(86, 121),8	23765,(92, 121),8	23773,(93, 121),8	23781,(95, 121),8	23789,(96, 121),8	23797,(97, 121),8	23805,(99, 121),8	23813,(104, 121),8	23821,(105, 121),8	23829,(107, 121),8	23837,(109, 121),8	23845,(110, 121),8	23853,(111, 121),8	23861,(112, 121),8	23869,(113, 121),8	23877,(115, 121),8	23885,(118, 121),8	
90,(1, 16),24	114,(1, 19),4	118,(1, 20),40	158,(1, 21),4	162,(1, 22),24	186,(1, 23),32	218,(1, 24),4	222,(1, 25),8	230,(1, 28),12	242,(1, 31),16	258,(1, 33),20	278,(1, 34),112	390,(1, 37),16	406,(1, 40),8	414,(1, 42),44	458,(1, 44),44	502,(1, 46),4	506,(1, 48),52	558,(1, 49),4	562,(1, 50),4	566,(1, 54),56	622,(1, 55),56	678,(1, 56),8	686,(1, 57),28	714,(1, 60),4	718,(1, 61),36	754,(1, 66),16	770,(1, 69),16	786,(1, 73),44	830,(1, 75),4	834,(1, 77),16	850,(1, 78),56	906,(1, 79),4	910,(1, 81),12	922,(1, 82),112	1034,(1, 84),40	1074,(1, 86),64	1138,(1, 92),4	1142,(1, 93),4	1146,(1, 95),4	1150,(1, 96),4	1154,(1, 97),24	1178,(1, 99),52	1230,(1, 104),20	1250,(1, 105),4	1254,(1, 107),20	1274,(1, 109),32	1306,(1, 110),4	1310,(1, 111),24	1334,(1, 112),28	1362,(1, 113),8	1370,(1, 115),12	1382,(1, 118),24	1406,(2, 16),20	1426,(2, 19),28	1454,(2, 20),52	1506,(2, 21),4	1510,(2, 22),4	1514,(2, 23),12	1526,(2, 24),12	1538,(2, 25),8	1546,(2, 28),40	1586,(2, 31),4	1590,(2, 33),8	1598,(2, 34),236	1834,(2, 37),44	1878,(2, 40),104	1982,(2, 42),44	2026,(2, 44),4	2030,(2, 46),4	2034,(2, 48),4	2038,(2, 49),12	2050,(2, 50),92	2142,(2, 54),24	2166,(2, 55),64	2230,(2, 56),8	2238,(2, 57),4	2242,(2, 60),4	2246,(2, 61),4	2250,(2, 66),4	2254,(2, 69),32	2286,(2, 73),8	2294,(2, 75),80	2374,(2, 77),4	2378,(2, 78),20	2398,(2, 79),148	2546,(2, 81),8	2554,(2, 82),36	2590,(2, 84),4	2594,(2, 86),4	2598,(2, 92),8	2606,(2, 93),56	2662,(2, 95),68	2730,(2, 96),16	2746,(2, 97),16	2762,(2, 99),4	2766,(2, 104),16	2782,(2, 105),44	2826,(2, 107),4	2830,(2, 109),4	2834,(2, 110),8	2842,(2, 111),44	2886,(2, 112),24	2910,(2, 113),4	2914,(2, 115),4	2918,(2, 118),8	2926,(7, 16),160	3086,(7, 19),8	3094,(7, 20),4	3098,(7, 21),4	3102,(7, 22),8	3110,(7, 23),32	3142,(7, 24),4	3146,(7, 25),32	3178,(7, 28),4	3182,(7, 31),4	3186,(7, 33),12	3198,(7, 34),232	3430,(7, 37),92	3522,(7, 40),4	3526,(7, 42),96	3622,(7, 44),36	3658,(7, 46),12	3670,(7, 48),16	3686,(7, 49),52	3738,(7, 50),20	3758,(7, 54),4	3762,(7, 55),44	3806,(7, 56),52	3858,(7, 57),64	3922,(7, 60),4	3926,(7, 61),4	3930,(7, 66),8	3938,(7, 69),20	3958,(7, 73),52	4010,(7, 75),80	4090,(7, 77),12	4102,(7, 78),4	4106,(7, 79),72	4178,(7, 81),16	4194,(7, 82),4	4198,(7, 84),24	4222,(7, 86),36	4258,(7, 92),24	4282,(7, 93),20	4302,(7, 95),4	4306,(7, 96),4	4310,(7, 97),4	4314,(7, 99),4	4318,(7, 104),48	4366,(7, 105),4	4370,(7, 107),24	4394,(7, 109),4	4398,(7, 110),28	4426,(7, 111),4	4430,(7, 112),24	4454,(7, 113),112	4566,(7, 115),24	4590,(7, 118),52	4642,(11, 16),8	4650,(11, 19),76	4726,(11, 20),4	4730,(11, 21),4	4734,(11, 22),4	4738,(11, 23),8	4746,(11, 24),156	4902,(11, 25),4	4906,(11, 28),44	4950,(11, 31),8	4958,(11, 33),12	4970,(11, 34),20	4990,(11, 37),68	5058,(11, 40),12	5070,(11, 42),4	5074,(11, 44),4	5078,(11, 46),8	5086,(11, 48),4	5090,(11, 49),4	5094,(11, 50),24	5118,(11, 54),24	5142,(11, 55),12	5154,(11, 56),4	5158,(11, 57),4	5162,(11, 60),48	5210,(11, 61),8	5218,(11, 66),4	5222,(11, 69),8	5230,(11, 73),4	5234,(11, 75),152	5386,(11, 77),4	5390,(11, 78),24	5414,(11, 79),128	5542,(11, 81),48	5590,(11, 82),188	5778,(11, 84),8	5786,(11, 86),8	5794,(11, 92),4	5798,(11, 93),4	5802,(11, 95),8	5810,(11, 96),80	5890,(11, 97),16	5906,(11, 99),4	5910,(11, 104),4	5914,(11, 105),28	5942,(11, 107),12	5954,(11, 109),4	5958,(11, 110),48	6006,(11, 111),8	6014,(11, 112),4	6018,(11, 113),24	6042,(11, 115),4	6046,(11, 118),4	6050,(12, 16),52	6102,(12, 19),60	6162,(12, 20),8	6170,(12, 21),36	6206,(12, 22),40	6246,(12, 23),4	6250,(12, 24),24	6274,(12, 25),20	6294,(12, 28),96	6390,(12, 31),4	6394,(12, 33),4	6398,(12, 34),4	6402,(12, 37),4	6406,(12, 40),4	6410,(12, 42),36	6446,(12, 44),8	6454,(12, 46),8	6462,(12, 48),8	6470,(12, 49),36	6506,(12, 50),4	6510,(12, 54),12	6522,(12, 55),28	6550,(12, 56),4	6554,(12, 57),4	6558,(12, 60),4	6562,(12, 61),12	6574,(12, 66),4	6578,(12, 69),296	6874,(12, 73),4	6878,(12, 75),188	7066,(12, 77),4	7070,(12, 78),4	7074,(12, 79),48	7122,(12, 81),12	7134,(12, 82),148	7282,(12, 84),16	7298,(12, 86),4	7302,(12, 92),72	7374,(12, 93),60	7434,(12, 95),44	7478,(12, 96),68	7546,(12, 97),76	7622,(12, 99),4	7626,(12, 104),4	7630,(12, 105),8	7638,(12, 107),8	7646,(12, 109),4	7650,(12, 110),40	7690,(12, 111),36	7726,(12, 112),4	7730,(12, 113),68	7798,(12, 115),48	7846,(12, 118),4	
