7970
# CPU
13,4,1	14,96,1	17,44,1	25,8,1	26,48,1	29,112,1	33,36,1	37,12,1	41,72,1	45,172,1	49,16,1	50,116,1	53,176,1	61,20,1	62,200,1	65,76,1	73,40,1	117,192,1	149,84,1	169,160,1	181,88,1	201,104,1	205,132,1	333,80,1	417,32,1	421,136,1	425,68,1	461,100,1	477,120,1	489,28,1	513,128,1	605,144,1	653,196,1	765,92,1	845,164,1	869,108,1	881,124,1	949,188,1	1121,24,1	1173,64,1	1381,184,1	1421,56,1	1525,156,1	1561,168,1	1633,52,1	1749,140,1	1761,148,1	1765,152,1	1953,180,1	2113,60,1	
9,3,1	10,71,1	21,7,1	22,55,1	23,183,1	33,11,1	34,51,1	35,67,1	36,115,1	37,151,1	38,175,1	39,179,1	40,27,1	45,15,1	46,119,1	57,19,1	58,75,1	89,107,1	301,79,1	329,91,1	345,111,1	357,155,1	373,167,1	429,43,1	521,159,1	541,63,1	561,95,1	601,127,1	953,147,1	957,135,1	1041,171,1	1117,195,1	1133,35,1	1233,143,1	1245,31,1	1397,199,1	1401,39,1	1413,187,1	1521,99,1	1541,191,1	1593,59,1	1621,23,1	1637,83,1	1681,103,1	1705,139,1	1713,123,1	1745,131,1	2193,87,1	2333,163,1	3017,47,1	
5,2,1	6,42,1	7,70,1	8,174,1	17,6,1	18,34,1	19,46,1	20,50,1	21,66,1	29,10,1	30,138,1	31,186,1	41,14,1	42,74,1	53,18,1	54,54,1	55,90,1	61,166,1	65,26,1	69,30,1	73,182,1	177,82,1	601,134,1	613,146,1	617,98,1	621,126,1	725,154,1	769,142,1	773,190,1	785,94,1	789,122,1	849,162,1	901,38,1	905,62,1	909,178,1	925,114,1	957,158,1	1013,150,1	1041,194,1	1053,22,1	1109,86,1	1169,118,1	1177,78,1	1193,102,1	1245,106,1	1709,170,1	1741,130,1	1773,198,1	2777,110,1	3385,58,1	
0,0,1	1,9,1	2,13,1	3,17,1	4,1,1	5,5,1	6,113,1	7,121,1	8,21,1	9,117,1	10,65,1	11,137,1	12,157,1	13,189,1	14,41,1	15,145,1	25,77,1	33,25,1	53,81,1	57,89,1	69,97,1	105,193,1	117,45,1	169,133,1	329,197,1	621,105,1	709,125,1	725,169,1	745,185,1	1053,73,1	1057,109,1	1065,153,1	1397,53,1	1401,173,1	1409,37,1	1413,165,1	1717,85,1	1849,129,1	1857,141,1	1881,57,1	1945,161,1	2001,181,1	2065,69,1	2129,101,1	2149,177,1	2401,49,1	2465,29,1	2605,33,1	2765,93,1	3041,149,1	3505,61,1	7969,201,1	
# Incoming
9,(0, 4),4	13,(2, 44),4	21,(0, 8),4	25,(2, 112),4	29,(6, 36),4	33,(0, 12),4	37,(6, 72),4	41,(10, 172),4	45,(0, 16),4	49,(10, 176),4	57,(0, 20),4	61,(11, 76),4	69,(9, 40),4	89,(2, 192),28	117,(3, 84),32	149,(3, 160),20	177,(9, 88),4	181,(9, 104),20	201,(9, 132),4	205,(2, 80),128	333,(3, 32),84	417,(11, 136),4	421,(19, 68),4	429,(6, 100),32	461,(14, 120),16	477,(18, 28),12	489,(18, 128),24	601,(9, 144),4	621,(3, 196),32	653,(7, 92),112	789,(11, 164),56	845,(15, 108),24	869,(19, 124),12	909,(15, 188),40	1117,(13, 24),4	1133,(13, 64),40	1233,(10, 184),148	1401,(17, 56),20	1521,(17, 156),4	1525,(17, 168),36	1561,(1, 52),72	1745,(5, 140),4	1749,(5, 148),12	1761,(5, 152),4	1857,(14, 180),96	1953,(19, 60),160	
5,(0, 3),4	17,(0, 7),4	29,(0, 11),4	33,(6, 27),4	41,(0, 15),4	53,(0, 19),4	57,(2, 107),32	89,(4, 79),212	301,(4, 91),28	329,(4, 111),16	345,(4, 155),12	357,(4, 167),16	373,(8, 43),56	429,(8, 159),92	521,(10, 63),20	541,(10, 95),20	561,(10, 127),40	605,(9, 147),348	953,(12, 135),4	957,(9, 171),84	1041,(9, 195),76	1121,(13, 35),12	1133,(10, 143),100	1233,(20, 31),12	1245,(13, 199),152	1397,(17, 39),4	1401,(10, 187),12	1421,(17, 99),100	1521,(10, 191),20	1541,(12, 59),52	1593,(16, 23),28	1633,(1, 83),4	1637,(14, 103),44	1681,(20, 139),24	1709,(5, 123),4	1741,(5, 131),4	1745,(12, 87),448	2193,(18, 163),140	2873,(20, 47),144	
1,(0, 2),4	13,(0, 6),4	25,(0, 10),4	37,(0, 14),4	49,(0, 18),4	53,(3, 166),8	61,(9, 26),4	65,(9, 30),4	69,(3, 182),4	73,(9, 82),104	205,(9, 134),396	601,(4, 146),12	613,(8, 98),4	617,(8, 126),4	709,(4, 154),16	765,(7, 142),4	769,(7, 190),4	773,(11, 94),12	785,(11, 122),4	841,(8, 162),8	849,(12, 38),52	901,(15, 62),4	905,(15, 178),4	909,(16, 114),16	953,(9, 158),4	957,(15, 150),56	1013,(15, 194),28	1041,(19, 22),12	1053,(19, 86),56	1109,(19, 118),60	1173,(13, 78),4	1177,(13, 102),16	1193,(13, 106),52	1637,(1, 170),72	1713,(5, 130),28	1765,(5, 198),8	2605,(16, 110),172	2777,(19, 58),608	
17,(2, 77),8	25,(3, 25),8	33,(3, 81),20	53,(6, 89),4	65,(11, 97),4	73,(3, 193),32	105,(15, 45),12	117,(42, 201),48	165,(6, 133),4	169,(71, 201),48	217,(55, 201),48	265,(183, 201),48	313,(15, 197),16	333,(70, 201),48	381,(174, 201),48	429,(3, 105),192	621,(4, 125),88	709,(6, 169),16	725,(4, 185),20	745,(96, 201),48	793,(44, 201),48	841,(34, 201),48	889,(46, 201),48	937,(50, 201),48	985,(66, 201),48	1033,(8, 73),20	1053,(8, 109),4	1057,(8, 153),8	1065,(48, 201),48	1113,(112, 201),48	1161,(36, 201),48	1209,(51, 201),48	1257,(67, 201),48	1305,(115, 201),48	1353,(12, 53),44	1397,(12, 173),4	1401,(16, 37),8	1409,(20, 165),4	1413,(138, 201),48	1461,(186, 201),48	1509,(151, 201),48	1557,(175, 201),48	1605,(179, 201),48	1653,(27, 201),48	1701,(14, 85),16	1717,(14, 129),132	1849,(14, 141),8	1857,(15, 57),24	1881,(119, 201),48	1929,(19, 161),16	1953,(14, 181),48	2001,(74, 201),48	2049,(18, 69),16	2065,(18, 101),64	2129,(18, 177),20	2193,(72, 201),48	2241,(15, 49),160	2401,(172, 201),48	2449,(16, 29),16	2465,(16, 33),140	2605,(54, 201),48	2653,(90, 201),48	2701,(19, 93),64	2777,(116, 201),48	2825,(176, 201),48	2873,(166, 201),48	2921,(26, 201),48	2969,(30, 201),48	3017,(20, 149),24	3041,(200, 201),48	3089,(76, 201),48	3137,(182, 201),48	3185,(40, 201),48	3233,(192, 201),48	3281,(84, 201),48	3329,(160, 201),48	3385,(19, 61),120	3505,(75, 201),48	3553,(107, 201),48	3601,(82, 201),48	3649,(88, 201),48	3697,(104, 201),48	3745,(132, 201),48	3793,(79, 201),48	3841,(91, 201),48	3889,(80, 201),48	3937,(111, 201),48	3985,(155, 201),48	4033,(167, 201),48	4081,(32, 201),48	4129,(136, 201),48	4177,(68, 201),48	4225,(43, 201),48	4273,(100, 201),48	4321,(120, 201),48	4369,(28, 201),48	4417,(128, 201),48	4465,(159, 201),48	4513,(63, 201),48	4561,(95, 201),48	4609,(134, 201),48	4657,(127, 201),48	4705,(144, 201),48	4753,(146, 201),48	4801,(98, 201),48	4849,(126, 201),48	4897,(196, 201),48	4945,(154, 201),48	4993,(92, 201),48	5041,(142, 201),48	5089,(190, 201),48	5137,(94, 201),48	5185,(122, 201),48	5233,(164, 201),48	5281,(162, 201),48	5329,(108, 201),48	5377,(124, 201),48	5425,(38, 201),48	5473,(62, 201),48	5521,(178, 201),48	5569,(114, 201),48	5617,(188, 201),48	5665,(147, 201),48	5713,(135, 201),48	5761,(158, 201),48	5809,(150, 201),48	5857,(171, 201),48	5905,(194, 201),48	5953,(22, 201),48	6001,(86, 201),48	6049,(195, 201),48	6097,(24, 201),48	6145,(35, 201),48	6193,(118, 201),48	6241,(64, 201),48	6289,(78, 201),48	6337,(102, 201),48	6385,(143, 201),48	6433,(106, 201),48	6481,(31, 201),48	6529,(184, 201),48	6577,(199, 201),48	6625,(39, 201),48	6673,(187, 201),48	6721,(56, 201),48	6769,(99, 201),48	6817,(156, 201),48	6865,(191, 201),48	6913,(168, 201),48	6961,(59, 201),48	7009,(23, 201),48	7057,(52, 201),48	7105,(83, 201),48	7153,(103, 201),48	7201,(139, 201),48	7249,(170, 201),48	7297,(123, 201),48	7345,(130, 201),48	7393,(131, 201),48	7441,(140, 201),48	7489,(148, 201),48	7537,(152, 201),48	7585,(198, 201),48	7633,(180, 201),48	7681,(60, 201),48	7729,(87, 201),48	7777,(163, 201),48	7825,(110, 201),48	7873,(47, 201),48	7921,(58, 201),48	
# Outgoing
89,(4, 79),212	301,(4, 91),28	329,(4, 111),16	345,(4, 155),12	357,(4, 167),16	373,(8, 43),56	429,(8, 159),92	601,(4, 146),12	613,(8, 98),4	617,(8, 126),4	621,(4, 125),88	709,(4, 154),16	725,(4, 185),20	745,(96, 201),48	793,(44, 201),48	841,(8, 162),8	849,(12, 38),52	909,(16, 114),16	953,(12, 135),4	1033,(8, 73),20	1053,(8, 109),4	1057,(8, 153),8	1065,(48, 201),48	1113,(112, 201),48	1161,(36, 201),48	1233,(20, 31),12	1353,(12, 53),44	1397,(12, 173),4	1401,(16, 37),8	1409,(20, 165),4	1541,(12, 59),52	1593,(16, 23),28	1681,(20, 139),24	1745,(12, 87),448	2193,(72, 201),48	2401,(172, 201),48	2449,(16, 29),16	2465,(16, 33),140	2605,(16, 110),172	2777,(116, 201),48	2825,(176, 201),48	2873,(20, 47),144	3017,(20, 149),24	3041,(200, 201),48	3089,(76, 201),48	3185,(40, 201),48	3233,(192, 201),48	3281,(84, 201),48	3329,(160, 201),48	3649,(88, 201),48	3697,(104, 201),48	3745,(132, 201),48	3889,(80, 201),48	4081,(32, 201),48	4129,(136, 201),48	4177,(68, 201),48	4273,(100, 201),48	4321,(120, 201),48	4369,(28, 201),48	4417,(128, 201),48	4705,(144, 201),48	4897,(196, 201),48	4993,(92, 201),48	5233,(164, 201),48	5329,(108, 201),48	5377,(124, 201),48	5617,(188, 201),48	6097,(24, 201),48	6241,(64, 201),48	6529,(184, 201),48	6721,(56, 201),48	6817,(156, 201),48	6913,(168, 201),48	7057,(52, 201),48	7441,(140, 201),48	7489,(148, 201),48	7537,(152, 201),48	7633,(180, 201),48	7681,(60, 201),48	
25,(3, 25),8	33,(3, 81),20	53,(3, 166),8	61,(11, 76),4	65,(11, 97),4	69,(3, 182),4	73,(3, 193),32	105,(15, 45),12	117,(3, 84),32	149,(3, 160),20	169,(71, 201),48	217,(55, 201),48	265,(183, 201),48	313,(15, 197),16	333,(3, 32),84	417,(11, 136),4	421,(19, 68),4	429,(3, 105),192	621,(3, 196),32	653,(7, 92),112	765,(7, 142),4	769,(7, 190),4	773,(11, 94),12	785,(11, 122),4	789,(11, 164),56	845,(15, 108),24	869,(19, 124),12	901,(15, 62),4	905,(15, 178),4	909,(15, 188),40	957,(15, 150),56	1013,(15, 194),28	1041,(19, 22),12	1053,(19, 86),56	1109,(19, 118),60	1209,(51, 201),48	1257,(67, 201),48	1305,(115, 201),48	1509,(151, 201),48	1557,(175, 201),48	1605,(179, 201),48	1653,(27, 201),48	1857,(15, 57),24	1881,(119, 201),48	1929,(19, 161),16	1953,(19, 60),160	2241,(15, 49),160	2701,(19, 93),64	2777,(19, 58),608	3385,(19, 61),120	3505,(75, 201),48	3553,(107, 201),48	3793,(79, 201),48	3841,(91, 201),48	3937,(111, 201),48	3985,(155, 201),48	4033,(167, 201),48	4225,(43, 201),48	4465,(159, 201),48	4513,(63, 201),48	4561,(95, 201),48	4657,(127, 201),48	5665,(147, 201),48	5713,(135, 201),48	5857,(171, 201),48	6049,(195, 201),48	6145,(35, 201),48	6385,(143, 201),48	6481,(31, 201),48	6577,(199, 201),48	6625,(39, 201),48	6673,(187, 201),48	6769,(99, 201),48	6865,(191, 201),48	6961,(59, 201),48	7009,(23, 201),48	7105,(83, 201),48	7153,(103, 201),48	7201,(139, 201),48	7297,(123, 201),48	7393,(131, 201),48	7729,(87, 201),48	7777,(163, 201),48	7873,(47, 201),48	
13,(2, 44),4	17,(2, 77),8	25,(2, 112),4	29,(6, 36),4	33,(6, 27),4	37,(6, 72),4	41,(10, 172),4	49,(10, 176),4	53,(6, 89),4	57,(2, 107),32	89,(2, 192),28	117,(42, 201),48	165,(6, 133),4	205,(2, 80),128	333,(70, 201),48	381,(174, 201),48	429,(6, 100),32	461,(14, 120),16	477,(18, 28),12	489,(18, 128),24	521,(10, 63),20	541,(10, 95),20	561,(10, 127),40	709,(6, 169),16	841,(34, 201),48	889,(46, 201),48	937,(50, 201),48	985,(66, 201),48	1133,(10, 143),100	1233,(10, 184),148	1401,(10, 187),12	1413,(138, 201),48	1461,(186, 201),48	1521,(10, 191),20	1637,(14, 103),44	1701,(14, 85),16	1717,(14, 129),132	1849,(14, 141),8	1857,(14, 180),96	1953,(14, 181),48	2001,(74, 201),48	2049,(18, 69),16	2065,(18, 101),64	2129,(18, 177),20	2193,(18, 163),140	2605,(54, 201),48	2653,(90, 201),48	2873,(166, 201),48	2921,(26, 201),48	2969,(30, 201),48	3137,(182, 201),48	3601,(82, 201),48	4609,(134, 201),48	4753,(146, 201),48	4801,(98, 201),48	4849,(126, 201),48	4945,(154, 201),48	5041,(142, 201),48	5089,(190, 201),48	5137,(94, 201),48	5185,(122, 201),48	5281,(162, 201),48	5425,(38, 201),48	5473,(62, 201),48	5521,(178, 201),48	5569,(114, 201),48	5761,(158, 201),48	5809,(150, 201),48	5905,(194, 201),48	5953,(22, 201),48	6001,(86, 201),48	6193,(118, 201),48	6289,(78, 201),48	6337,(102, 201),48	6433,(106, 201),48	7249,(170, 201),48	7345,(130, 201),48	7585,(198, 201),48	7825,(110, 201),48	7921,(58, 201),48	
1,(0, 2),4	5,(0, 3),4	9,(0, 4),4	13,(0, 6),4	17,(0, 7),4	21,(0, 8),4	25,(0, 10),4	29,(0, 11),4	33,(0, 12),4	37,(0, 14),4	41,(0, 15),4	45,(0, 16),4	49,(0, 18),4	53,(0, 19),4	57,(0, 20),4	61,(9, 26),4	65,(9, 30),4	69,(9, 40),4	73,(9, 82),104	177,(9, 88),4	181,(9, 104),20	201,(9, 132),4	205,(9, 134),396	601,(9, 144),4	605,(9, 147),348	953,(9, 158),4	957,(9, 171),84	1041,(9, 195),76	1117,(13, 24),4	1121,(13, 35),12	1133,(13, 64),40	1173,(13, 78),4	1177,(13, 102),16	1193,(13, 106),52	1245,(13, 199),152	1397,(17, 39),4	1401,(17, 56),20	1421,(17, 99),100	1521,(17, 156),4	1525,(17, 168),36	1561,(1, 52),72	1633,(1, 83),4	1637,(1, 170),72	1709,(5, 123),4	1713,(5, 130),28	1741,(5, 131),4	1745,(5, 140),4	1749,(5, 148),12	1761,(5, 152),4	1765,(5, 198),8	
