1108
# CPU
89,8,1	93,14,1	119,5,1	141,11,1	171,17,1	195,20,1	
11,2,1	12,4,1	13,13,1	14,7,1	91,10,1	101,16,1	115,19,1	
0,0,1	1,1,1	2,3,1	3,9,1	4,15,1	133,6,1	143,12,1	173,18,1	1107,21,1	
# Incoming
11,(1, 8),78	91,(1, 14),2	93,(2, 5),26	133,(2, 11),8	143,(2, 17),28	173,(2, 20),22	
1,(0, 2),10	89,(1, 10),2	93,(1, 16),8	101,(1, 19),14	
119,(2, 6),14	141,(2, 12),2	171,(2, 18),2	195,(4, 21),76	271,(13, 21),76	347,(7, 21),76	423,(8, 21),76	499,(10, 21),76	575,(14, 21),76	651,(16, 21),76	727,(19, 21),76	803,(5, 21),76	879,(11, 21),76	955,(17, 21),76	1031,(20, 21),76	
# Outgoing
423,(8, 21),76	575,(14, 21),76	803,(5, 21),76	879,(11, 21),76	955,(17, 21),76	1031,(20, 21),76	
93,(2, 5),26	119,(2, 6),14	133,(2, 11),8	141,(2, 12),2	143,(2, 17),28	171,(2, 18),2	173,(2, 20),22	195,(4, 21),76	271,(13, 21),76	347,(7, 21),76	499,(10, 21),76	651,(16, 21),76	727,(19, 21),76	
1,(0, 2),10	11,(1, 8),78	89,(1, 10),2	91,(1, 14),2	93,(1, 16),8	101,(1, 19),14	
