1346
# CPU
0,201,1	1,160,3	4,72,3	7,66,3	10,141,3	13,126,3	16,22,3	19,77,3	22,148,3	25,130,3	28,109,3	31,21,3	34,151,3	37,42,3	40,58,3	43,89,3	46,188,3	49,33,3	52,86,3	55,156,3	58,143,3	61,29,3	64,183,3	67,172,3	70,152,3	73,171,3	76,31,3	79,194,3	82,177,3	85,65,3	88,30,3	91,35,3	94,78,3	97,70,3	100,136,3	103,111,3	106,91,3	109,93,3	112,55,3	115,95,3	118,122,3	121,134,3	124,49,3	127,139,3	130,161,3	133,46,3	136,80,3	139,56,3	142,100,3	145,181,3	148,157,3	151,105,3	154,96,3	157,191,3	160,103,3	163,146,3	166,192,3	169,28,3	172,57,3	175,144,3	178,127,3	181,34,3	184,76,3	187,61,3	190,115,3	193,47,3	196,184,3	199,190,3	202,167,3	205,43,3	208,84,3	211,52,3	214,168,3	217,195,3	220,83,3	223,24,3	226,174,3	229,196,3	232,116,3	235,90,3	238,162,3	241,185,3	244,193,3	247,51,3	250,135,3	253,137,3	256,176,3	259,169,3	262,54,3	265,107,3	268,40,3	271,123,3	274,50,3	277,114,3	280,132,3	283,101,3	286,170,3	289,23,3	292,128,3	295,71,3	298,67,3	301,74,3	304,147,3	307,154,3	310,48,3	313,97,3	316,175,3	319,27,3	322,25,3	325,121,3	328,36,3	331,79,3	334,59,3	337,53,3	340,187,3	343,14,3	346,98,3	349,125,3	352,165,3	355,159,3	358,45,3	361,94,3	364,18,3	367,15,3	370,16,3	373,6,3	376,11,3	379,4,3	382,19,3	385,20,3	418,2,3	488,7,3	564,5,3	664,1,3	958,3,3	1342,9,3	1345,0,1	
25,118,3	43,99,3	49,178,3	55,142,3	61,26,3	79,69,3	91,138,3	115,113,3	151,32,3	163,68,3	193,63,3	199,129,3	211,39,3	229,37,3	235,119,3	337,85,3	349,140,3	355,120,3	361,199,3	709,13,3	1187,12,3	
7,88,3	13,145,3	19,62,3	31,38,3	37,82,3	67,158,3	73,106,3	85,153,3	97,163,3	103,166,3	109,104,3	121,64,3	127,131,3	133,197,3	139,179,3	145,149,3	157,60,3	169,186,3	175,110,3	181,41,3	187,150,3	205,189,3	217,44,3	223,112,3	241,124,3	247,198,3	253,102,3	259,73,3	265,108,3	271,173,3	277,155,3	283,200,3	289,81,3	295,180,3	301,75,3	307,117,3	313,133,3	319,92,3	325,87,3	331,164,3	343,182,3	389,8,3	447,17,3	563,10,3	
# Incoming
34,(38, 14),2	36,(118, 15),2	38,(38, 4),2	40,(62, 19),2	42,(118, 19),2	44,(145, 20),2	46,(99, 6),2	50,(118, 9),2	58,(142, 5),2	64,(26, 16),2	66,(26, 2),2	76,(106, 9),4	88,(153, 16),6	94,(138, 9),6	100,(163, 1),6	106,(166, 18),6	112,(104, 20),8	120,(113, 2),8	128,(64, 1),2	130,(131, 16),4	136,(197, 18),4	140,(131, 19),8	148,(197, 7),8	160,(60, 11),2	162,(32, 19),10	184,(41, 16),2	190,(150, 15),8	198,(41, 6),16	214,(63, 11),16	230,(189, 4),8	238,(37, 4),2	240,(119, 19),2	242,(110, 20),14	256,(44, 20),10	266,(124, 20),2	268,(108, 19),28	296,(119, 20),4	300,(37, 1),2	304,(75, 19),2	306,(150, 20),16	322,(150, 3),6	328,(87, 4),18	346,(37, 20),22	368,(117, 2),50	418,(8, 0),2	420,(102, 7),28	448,(73, 7),28	476,(120, 7),12	488,(17, 0),2	490,(150, 5),10	500,(129, 5),18	518,(39, 5),18	536,(155, 5),28	566,(10, 0),2	568,(155, 1),34	602,(117, 1),8	610,(133, 1),54	664,(63, 3),10	674,(119, 3),24	698,(124, 3),10	708,(140, 3),250	958,(13, 0),2	960,(68, 9),14	974,(180, 9),40	1014,(92, 9),56	1070,(85, 9),130	1200,(182, 9),142	1342,(12, 0),2	
19,(201, 118),6	37,(201, 99),6	43,(201, 178),6	49,(201, 142),6	55,(201, 26),6	61,(88, 12),2	73,(201, 69),6	85,(201, 138),6	109,(201, 113),6	145,(201, 32),6	157,(201, 68),6	163,(179, 12),10	187,(201, 63),6	193,(201, 129),6	205,(201, 39),6	223,(201, 37),6	229,(201, 119),6	331,(201, 85),6	343,(201, 140),6	349,(201, 120),6	355,(201, 199),6	476,(73, 13),12	500,(186, 13),14	514,(189, 12),18	563,(22, 13),2	565,(58, 13),2	567,(31, 13),4	571,(111, 13),6	577,(161, 13),8	585,(181, 13),10	595,(157, 13),10	605,(103, 13),12	617,(144, 13),14	631,(184, 13),2	633,(190, 13),18	651,(135, 13),26	677,(176, 13),28	705,(45, 13),4	709,(109, 12),2	711,(65, 12),6	717,(55, 12),2	719,(134, 12),8	727,(144, 12),6	733,(115, 12),16	749,(44, 12),20	769,(83, 12),20	789,(198, 12),26	815,(173, 12),16	831,(200, 12),20	851,(75, 12),44	895,(147, 12),2	897,(59, 12),128	1025,(98, 12),160	1185,(125, 12),2	
1,(201, 88),6	7,(201, 145),6	13,(201, 62),6	25,(201, 38),6	31,(201, 82),6	48,(99, 17),2	61,(201, 158),6	67,(201, 106),6	79,(201, 153),6	85,(69, 10),6	91,(201, 163),6	97,(201, 166),6	103,(201, 104),6	115,(201, 64),6	121,(201, 131),6	127,(201, 197),6	133,(201, 179),6	139,(201, 149),6	151,(201, 60),6	163,(201, 186),6	169,(201, 110),6	175,(201, 41),6	181,(201, 150),6	199,(201, 189),6	211,(201, 44),6	217,(201, 112),6	235,(201, 124),6	241,(201, 198),6	247,(201, 102),6	253,(201, 73),6	259,(201, 108),6	265,(201, 173),6	271,(201, 155),6	277,(201, 200),6	283,(201, 81),6	289,(201, 180),6	295,(201, 75),6	301,(201, 117),6	307,(201, 133),6	313,(201, 92),6	319,(201, 87),6	325,(201, 164),6	337,(201, 182),6	361,(126, 8),2	363,(90, 8),18	381,(98, 8),8	389,(109, 17),2	391,(191, 17),12	403,(170, 17),2	405,(71, 17),40	445,(147, 17),2	447,(86, 10),2	449,(171, 10),4	453,(46, 10),8	461,(167, 10),18	479,(168, 10),20	499,(195, 10),20	519,(24, 10),10	529,(54, 10),28	557,(154, 10),2	559,(125, 10),4	
# Outgoing
1,(201, 88),6	7,(201, 145),6	13,(201, 62),6	19,(201, 118),6	25,(201, 38),6	31,(201, 82),6	37,(201, 99),6	43,(201, 178),6	49,(201, 142),6	55,(201, 26),6	61,(201, 158),6	67,(201, 106),6	73,(201, 69),6	79,(201, 153),6	85,(201, 138),6	91,(201, 163),6	97,(201, 166),6	103,(201, 104),6	109,(201, 113),6	115,(201, 64),6	121,(201, 131),6	127,(201, 197),6	133,(201, 179),6	139,(201, 149),6	145,(201, 32),6	151,(201, 60),6	157,(201, 68),6	163,(201, 186),6	169,(201, 110),6	175,(201, 41),6	181,(201, 150),6	187,(201, 63),6	193,(201, 129),6	199,(201, 189),6	205,(201, 39),6	211,(201, 44),6	217,(201, 112),6	223,(201, 37),6	229,(201, 119),6	235,(201, 124),6	241,(201, 198),6	247,(201, 102),6	253,(201, 73),6	259,(201, 108),6	265,(201, 173),6	271,(201, 155),6	277,(201, 200),6	283,(201, 81),6	289,(201, 180),6	295,(201, 75),6	301,(201, 117),6	307,(201, 133),6	313,(201, 92),6	319,(201, 87),6	325,(201, 164),6	331,(201, 85),6	337,(201, 182),6	343,(201, 140),6	349,(201, 120),6	355,(201, 199),6	361,(126, 8),2	363,(90, 8),18	381,(98, 8),8	389,(109, 17),2	391,(191, 17),12	403,(170, 17),2	405,(71, 17),40	445,(147, 17),2	447,(86, 10),2	449,(171, 10),4	453,(46, 10),8	461,(167, 10),18	479,(168, 10),20	499,(195, 10),20	519,(24, 10),10	529,(54, 10),28	557,(154, 10),2	559,(125, 10),4	563,(22, 13),2	565,(58, 13),2	567,(31, 13),4	571,(111, 13),6	577,(161, 13),8	585,(181, 13),10	595,(157, 13),10	605,(103, 13),12	617,(144, 13),14	631,(184, 13),2	633,(190, 13),18	651,(135, 13),26	677,(176, 13),28	705,(45, 13),4	709,(109, 12),2	711,(65, 12),6	717,(55, 12),2	719,(134, 12),8	727,(144, 12),6	733,(115, 12),16	769,(83, 12),20	895,(147, 12),2	897,(59, 12),128	1025,(98, 12),160	1185,(125, 12),2	
36,(118, 15),2	42,(118, 19),2	46,(99, 6),2	48,(99, 17),2	50,(118, 9),2	58,(142, 5),2	64,(26, 16),2	66,(26, 2),2	85,(69, 10),6	94,(138, 9),6	120,(113, 2),8	162,(32, 19),10	214,(63, 11),16	238,(37, 4),2	240,(119, 19),2	296,(119, 20),4	300,(37, 1),2	346,(37, 20),22	476,(120, 7),12	500,(129, 5),18	518,(39, 5),18	664,(63, 3),10	674,(119, 3),24	708,(140, 3),250	958,(13, 0),2	960,(68, 9),14	1070,(85, 9),130	1342,(12, 0),2	
34,(38, 14),2	38,(38, 4),2	40,(62, 19),2	44,(145, 20),2	61,(88, 12),2	76,(106, 9),4	88,(153, 16),6	100,(163, 1),6	106,(166, 18),6	112,(104, 20),8	128,(64, 1),2	130,(131, 16),4	136,(197, 18),4	140,(131, 19),8	148,(197, 7),8	160,(60, 11),2	163,(179, 12),10	184,(41, 16),2	190,(150, 15),8	198,(41, 6),16	230,(189, 4),8	242,(110, 20),14	256,(44, 20),10	266,(124, 20),2	268,(108, 19),28	304,(75, 19),2	306,(150, 20),16	322,(150, 3),6	328,(87, 4),18	368,(117, 2),50	418,(8, 0),2	420,(102, 7),28	448,(73, 7),28	476,(73, 13),12	488,(17, 0),2	490,(150, 5),10	500,(186, 13),14	514,(189, 12),18	536,(155, 5),28	566,(10, 0),2	568,(155, 1),34	602,(117, 1),8	610,(133, 1),54	698,(124, 3),10	749,(44, 12),20	789,(198, 12),26	815,(173, 12),16	831,(200, 12),20	851,(75, 12),44	974,(180, 9),40	1014,(92, 9),56	1200,(182, 9),142	
