2490
# CPU
317,6,176	637,10,176	813,14,176	989,18,176	
181,5,176	529,9,176	725,17,176	2301,13,176	
13,2,176	189,4,176	365,12,176	541,16,176	717,8,176	893,20,176	
0,0,1	1,1,176	177,3,176	353,11,176	529,19,176	705,7,176	881,15,176	2489,21,1	
# Incoming
181,(1, 6),136	529,(1, 10),108	637,(1, 14),60	725,(1, 18),4	
177,(1, 5),4	345,(1, 9),184	697,(1, 17),28	725,(2, 13),1576	
1,(0, 2),12	317,(1, 8),28	729,(1, 20),24	
357,(5, 21),12	493,(6, 21),12	705,(9, 21),12	813,(10, 21),12	901,(17, 21),12	989,(14, 21),12	1165,(18, 21),12	2301,(4, 21),12	2313,(12, 21),12	2325,(16, 21),12	2337,(8, 21),12	2349,(20, 21),12	2477,(13, 21),12	
# Outgoing
493,(6, 21),12	813,(10, 21),12	989,(14, 21),12	1165,(18, 21),12	
357,(5, 21),12	705,(9, 21),12	901,(17, 21),12	2477,(13, 21),12	
725,(2, 13),1576	2301,(4, 21),12	2313,(12, 21),12	2325,(16, 21),12	2337,(8, 21),12	2349,(20, 21),12	
1,(0, 2),12	177,(1, 5),4	181,(1, 6),136	317,(1, 8),28	345,(1, 9),184	529,(1, 10),108	637,(1, 14),60	697,(1, 17),28	725,(1, 18),4	729,(1, 20),24	
