3167
# CPU
169,5,5	174,16,5	179,51,5	184,34,5	190,30,5	202,38,5	208,48,5	268,72,5	307,78,5	319,21,5	324,25,5	337,28,5	343,24,5	348,26,5	358,45,5	433,40,5	481,75,5	553,42,5	559,54,5	565,19,5	577,20,5	601,32,5	643,36,5	676,57,5	703,60,5	727,63,5	732,69,5	748,66,5	
127,4,5	132,27,5	137,15,5	142,23,5	147,35,5	152,18,5	157,53,5	162,80,5	167,33,5	175,29,5	193,44,5	198,9,5	205,50,5	253,68,5	274,47,5	325,39,5	330,41,5	337,77,5	349,31,5	373,37,5	385,56,5	436,65,5	457,71,5	562,62,5	745,59,5	751,74,5	
85,3,5	90,13,5	95,49,5	100,73,5	105,61,5	110,67,5	115,64,5	141,46,5	253,8,5	258,14,5	263,70,5	322,17,5	343,52,5	361,58,5	562,76,5	655,55,5	760,79,5	
43,2,5	114,11,5	211,7,5	216,43,5	298,12,5	982,22,5	3166,81,1	
0,0,1	1,6,5	6,1,5	11,10,5	
# Incoming
127,(0, 5),42	169,(2, 16),3	172,(3, 34),3	175,(2, 30),15	190,(2, 38),12	202,(3, 48),6	253,(2, 69),3	256,(2, 72),12	268,(2, 78),39	307,(7, 21),12	319,(7, 25),3	322,(6, 20),3	325,(6, 28),12	337,(7, 24),6	343,(7, 26),3	346,(7, 40),9	355,(7, 45),3	373,(6, 40),60	433,(4, 75),48	550,(8, 42),3	553,(8, 54),6	562,(1, 19),3	565,(1, 20),12	577,(1, 32),24	601,(1, 36),42	655,(1, 57),21	676,(8, 60),27	703,(8, 63),24	727,(8, 69),3	745,(1, 66),3	
85,(0, 4),42	127,(3, 27),3	130,(3, 33),27	172,(2, 29),3	175,(3, 44),18	193,(5, 9),3	202,(2, 50),3	205,(2, 68),48	253,(5, 47),21	322,(7, 39),3	325,(7, 41),3	328,(7, 77),9	337,(6, 31),12	349,(6, 37),24	373,(7, 56),12	433,(6, 65),3	436,(6, 71),21	559,(8, 62),3	676,(1, 59),69	748,(1, 74),3	
43,(0, 3),42	132,(4, 46),9	211,(0, 8),42	253,(6, 17),69	322,(5, 52),21	358,(7, 58),3	457,(6, 76),105	643,(1, 55),12	751,(1, 79),9	
1,(0, 2),42	90,(3, 11),24	169,(0, 7),42	211,(3, 12),87	298,(13, 81),42	340,(49, 81),42	382,(73, 81),42	424,(61, 81),42	466,(67, 81),42	508,(64, 81),42	550,(27, 81),42	592,(15, 81),42	634,(46, 81),42	676,(23, 81),42	718,(35, 81),42	760,(10, 81),42	802,(18, 81),42	844,(53, 81),42	886,(80, 81),42	928,(33, 81),42	970,(5, 22),12	982,(16, 81),42	1024,(29, 81),42	1066,(51, 81),42	1108,(34, 81),42	1150,(30, 81),42	1192,(44, 81),42	1234,(9, 81),42	1276,(38, 81),42	1318,(50, 81),42	1360,(48, 81),42	1402,(68, 81),42	1444,(14, 81),42	1486,(70, 81),42	1528,(72, 81),42	1570,(47, 81),42	1612,(78, 81),42	1654,(21, 81),42	1696,(17, 81),42	1738,(25, 81),42	1780,(39, 81),42	1822,(41, 81),42	1864,(77, 81),42	1906,(28, 81),42	1948,(52, 81),42	1990,(24, 81),42	2032,(26, 81),42	2074,(31, 81),42	2116,(45, 81),42	2158,(58, 81),42	2200,(37, 81),42	2242,(56, 81),42	2284,(40, 81),42	2326,(65, 81),42	2368,(71, 81),42	2410,(75, 81),42	2452,(42, 81),42	2494,(54, 81),42	2536,(76, 81),42	2578,(62, 81),42	2620,(19, 81),42	2662,(20, 81),42	2704,(32, 81),42	2746,(36, 81),42	2788,(55, 81),42	2830,(57, 81),42	2872,(60, 81),42	2914,(63, 81),42	2956,(69, 81),42	2998,(59, 81),42	3040,(66, 81),42	3082,(74, 81),42	3124,(79, 81),42	

# Outgoing
193,(5, 9),3	253,(5, 47),21	322,(5, 52),21	970,(5, 22),12	982,(16, 81),42	1066,(51, 81),42	1108,(34, 81),42	1150,(30, 81),42	1276,(38, 81),42	1360,(48, 81),42	1528,(72, 81),42	1612,(78, 81),42	1654,(21, 81),42	1738,(25, 81),42	1906,(28, 81),42	1990,(24, 81),42	2032,(26, 81),42	2116,(45, 81),42	2284,(40, 81),42	2410,(75, 81),42	2452,(42, 81),42	2494,(54, 81),42	2620,(19, 81),42	2662,(20, 81),42	2704,(32, 81),42	2746,(36, 81),42	2830,(57, 81),42	2872,(60, 81),42	2914,(63, 81),42	2956,(69, 81),42	3040,(66, 81),42	
132,(4, 46),9	433,(4, 75),48	550,(27, 81),42	592,(15, 81),42	676,(23, 81),42	718,(35, 81),42	802,(18, 81),42	844,(53, 81),42	886,(80, 81),42	928,(33, 81),42	1024,(29, 81),42	1192,(44, 81),42	1234,(9, 81),42	1318,(50, 81),42	1402,(68, 81),42	1570,(47, 81),42	1780,(39, 81),42	1822,(41, 81),42	1864,(77, 81),42	2074,(31, 81),42	2200,(37, 81),42	2242,(56, 81),42	2326,(65, 81),42	2368,(71, 81),42	2578,(62, 81),42	2998,(59, 81),42	3082,(74, 81),42	
90,(3, 11),24	127,(3, 27),3	130,(3, 33),27	172,(3, 34),3	175,(3, 44),18	202,(3, 48),6	211,(3, 12),87	298,(13, 81),42	340,(49, 81),42	382,(73, 81),42	424,(61, 81),42	466,(67, 81),42	508,(64, 81),42	550,(8, 42),3	553,(8, 54),6	559,(8, 62),3	634,(46, 81),42	676,(8, 60),27	703,(8, 63),24	727,(8, 69),3	1444,(14, 81),42	1486,(70, 81),42	1696,(17, 81),42	1948,(52, 81),42	2158,(58, 81),42	2536,(76, 81),42	2788,(55, 81),42	3124,(79, 81),42	
169,(2, 16),3	172,(2, 29),3	175,(2, 30),15	190,(2, 38),12	202,(2, 50),3	205,(2, 68),48	253,(2, 69),3	256,(2, 72),12	268,(2, 78),39	307,(7, 21),12	319,(7, 25),3	322,(7, 39),3	325,(7, 41),3	328,(7, 77),9	337,(7, 24),6	343,(7, 26),3	346,(7, 40),9	355,(7, 45),3	358,(7, 58),3	373,(7, 56),12	
1,(0, 2),42	43,(0, 3),42	85,(0, 4),42	127,(0, 5),42	169,(0, 7),42	211,(0, 8),42	253,(6, 17),69	322,(6, 20),3	325,(6, 28),12	337,(6, 31),12	349,(6, 37),24	373,(6, 40),60	433,(6, 65),3	436,(6, 71),21	457,(6, 76),105	562,(1, 19),3	565,(1, 20),12	577,(1, 32),24	601,(1, 36),42	643,(1, 55),12	655,(1, 57),21	676,(1, 59),69	745,(1, 66),3	748,(1, 74),3	751,(1, 79),9	760,(10, 81),42	
