11908
# CPU
0,121,1	1,13,143	144,72,143	287,50,143	430,80,143	573,37,143	716,45,143	859,46,143	1002,64,143	1145,82,143	1288,60,143	1431,44,143	1574,57,143	1717,35,143	1860,113,143	2003,41,143	2146,17,143	2289,87,143	2432,65,143	2575,47,143	2718,16,143	2861,51,143	3004,78,143	3147,116,143	3290,101,143	3433,38,143	3576,54,143	3719,18,143	3862,114,143	4005,62,143	4148,66,143	4291,56,143	4434,23,143	4577,58,143	4720,98,143	4863,92,143	5006,83,143	5149,70,143	5292,73,143	5435,103,143	5578,24,143	5721,99,143	5864,111,143	6007,104,143	6150,100,143	6293,96,143	6436,77,143	6579,63,143	6722,88,143	6865,91,143	7008,118,143	7151,21,143	7294,61,143	7437,26,143	7580,49,143	7723,20,143	7866,14,143	8009,106,143	8152,107,143	8295,79,143	8438,108,143	8581,5,143	8724,9,143	8867,7,143	9010,6,143	9153,3,143	9296,1,143	9627,12,143	10359,10,143	11907,0,1	
175,95,143	523,31,143	871,109,143	1045,71,143	1393,84,143	1915,22,143	2611,43,143	2785,97,143	3307,85,143	3481,55,143	3829,93,143	4177,112,143	4351,27,143	5395,15,143	5569,67,143	5743,69,143	6439,81,143	6787,105,143	8179,19,143	8353,42,143	10267,4,143	
1567,90,143	3133,30,143	5221,39,143	
349,89,143	697,52,143	1219,115,143	1741,34,143	2089,75,143	2263,74,143	2437,53,143	2959,25,143	3655,36,143	4003,68,143	4525,119,143	4699,28,143	4873,40,143	5047,33,143	5917,29,143	6091,48,143	6265,32,143	6613,110,143	6961,120,143	7135,102,143	7309,86,143	7483,59,143	7657,94,143	7831,76,143	8005,117,143	8599,11,143	8980,8,143	11134,2,143	
# Incoming
492,(89, 5),6	498,(89, 1),3	840,(52, 7),9	849,(52, 6),3	852,(52, 1),3	855,(52, 12),3	1362,(115, 5),3	1365,(115, 7),15	1380,(115, 3),3	1536,(84, 5),3	1539,(109, 7),12	1551,(71, 7),12	1563,(84, 6),6	1569,(31, 3),6	1575,(109, 3),3	1578,(71, 3),3	1581,(84, 3),12	1593,(95, 1),3	1596,(71, 10),6	2058,(22, 7),6	2064,(22, 6),12	2232,(75, 5),6	2238,(75, 9),3	2241,(75, 7),15	2256,(75, 6),30	2406,(74, 6),12	2580,(53, 7),42	2622,(53, 3),3	2754,(43, 9),42	2796,(43, 1),3	2799,(43, 12),3	2928,(97, 9),30	2962,(97, 7),45	3010,(97, 1),6	3102,(25, 5),15	3117,(25, 9),12	3129,(25, 3),45	3174,(25, 10),6	3276,(30, 5),48	3327,(90, 9),15	3342,(30, 7),18	3366,(90, 6),3	3369,(30, 10),15	3450,(85, 5),45	3495,(85, 1),15	3510,(85, 12),42	3624,(55, 3),27	3798,(36, 7),9	3807,(36, 6),6	3813,(36, 3),9	3822,(36, 1),12	3834,(36, 12),9	3843,(36, 10),54	3972,(93, 3),15	3987,(93, 12),3	4063,(93, 10),15	4146,(68, 5),21	4167,(68, 6),15	4182,(68, 12),9	4320,(112, 9),63	4383,(112, 3),69	4452,(112, 1),3	4494,(27, 6),72	4566,(27, 10),6	4668,(119, 9),48	4716,(119, 6),3	4719,(119, 3),78	4797,(119, 10),6	4842,(28, 3),3	5016,(40, 5),3	5019,(40, 6),9	5190,(33, 5),3	5193,(33, 9),6	5199,(33, 7),15	5214,(33, 6),96	5310,(33, 3),3	5367,(39, 1),42	5409,(39, 12),99	5562,(15, 6),6	5568,(15, 3),12	5580,(15, 1),102	5712,(67, 9),57	5769,(67, 1),114	5886,(69, 6),18	5904,(67, 12),15	5919,(69, 10),3	6060,(29, 5),27	6087,(29, 1),129	6216,(29, 12),3	6408,(32, 9),3	6411,(32, 12),111	6582,(81, 5),3	6616,(81, 3),42	6756,(110, 5),9	6765,(110, 7),3	6930,(105, 3),57	6987,(105, 1),93	7080,(81, 12),171	7251,(120, 12),3	7278,(102, 9),9	7287,(102, 1),21	7452,(86, 9),3	7455,(86, 12),15	7626,(59, 9),12	7638,(59, 7),24	7662,(59, 1),99	7761,(59, 10),15	7800,(94, 5),6	7806,(94, 7),165	7974,(76, 5),48	8022,(94, 1),6	8148,(117, 5),6	8154,(117, 9),9	8163,(117, 6),12	8175,(102, 3),234	8409,(19, 1),3	8412,(19, 12),15	8496,(42, 5),3	8499,(42, 6),318	8817,(42, 3),3	8820,(86, 1),255	9075,(117, 12),552	9627,(102, 10),222	9849,(94, 10),384	10233,(19, 10),123	10356,(42, 10),3	10359,(11, 0),387	10746,(8, 0),387	11133,(4, 0),387	11520,(2, 0),387	
1,(121, 95),174	349,(121, 31),174	697,(121, 109),174	871,(121, 71),174	1045,(52, 4),3	1219,(121, 84),174	1393,(115, 4),6	1741,(121, 22),174	2418,(74, 4),3	2437,(121, 43),174	2611,(121, 97),174	3133,(121, 85),174	3307,(121, 55),174	3481,(90, 4),24	3655,(121, 93),174	4003,(121, 112),174	4177,(121, 27),174	4351,(68, 4),63	4845,(28, 4),84	5221,(121, 15),174	5395,(121, 67),174	5569,(121, 69),174	6265,(121, 81),174	6613,(121, 105),174	6787,(32, 4),159	6946,(110, 4),3	8005,(121, 19),174	8179,(121, 42),174	8409,(59, 4),348	8757,(94, 4),6	8763,(117, 4),33	8980,(57, 4),6	8986,(113, 4),24	9010,(41, 4),3	9013,(47, 4),24	9037,(78, 4),3	9040,(38, 4),24	9064,(62, 4),3	9067,(56, 4),6	9073,(58, 4),78	9151,(98, 4),84	9235,(73, 4),99	9334,(103, 4),6	9340,(88, 4),3	9343,(91, 4),216	9559,(107, 4),708	
1393,(121, 90),174	2959,(121, 30),174	5047,(121, 39),174	
175,(121, 89),174	523,(121, 52),174	1045,(121, 115),174	1567,(121, 34),174	1741,(84, 8),21	1762,(109, 2),12	1915,(121, 75),174	2089,(121, 74),174	2263,(121, 53),174	2437,(22, 2),9	2785,(121, 25),174	2959,(97, 11),3	3007,(43, 8),3	3324,(90, 11),3	3360,(90, 8),6	3384,(90, 2),3	3481,(121, 36),174	3655,(55, 11),54	3709,(55, 8),3	3712,(85, 2),51	3763,(55, 2),45	3829,(121, 68),174	4003,(93, 11),60	4351,(121, 119),174	4525,(121, 28),174	4699,(121, 40),174	4873,(121, 33),174	5047,(27, 8),3	5364,(39, 8),3	5538,(15, 11),24	5682,(15, 2),12	5743,(121, 29),174	5917,(121, 48),174	6091,(121, 32),174	6265,(67, 8),21	6286,(67, 2),3	6289,(69, 2),126	6439,(121, 110),174	6613,(81, 8),3	6787,(121, 120),174	6961,(121, 102),174	7135,(121, 86),174	7309,(121, 59),174	7483,(121, 94),174	7657,(121, 76),174	7831,(121, 117),174	8353,(72, 11),3	8356,(45, 11),6	8362,(46, 11),3	8365,(60, 11),3	8368,(44, 11),21	8389,(57, 11),3	8392,(41, 11),3	8395,(65, 11),3	8398,(78, 11),3	8401,(116, 11),30	8431,(18, 11),3	8434,(62, 11),3	8437,(66, 11),66	8503,(23, 11),21	8524,(98, 11),6	8530,(103, 11),3	8533,(24, 11),3	8536,(21, 11),3	8539,(61, 11),33	8572,(49, 11),18	8590,(14, 11),3	8593,(79, 11),6	8599,(72, 8),3	8602,(50, 8),3	8605,(82, 8),6	8611,(87, 8),36	8647,(54, 8),3	8650,(56, 8),3	8653,(98, 8),9	8662,(24, 8),30	8692,(77, 8),165	8857,(118, 8),84	8941,(26, 8),24	8965,(20, 8),3	8968,(108, 8),12	8980,(19, 2),1239	10267,(72, 2),3	10270,(80, 2),3	10273,(46, 2),12	10285,(60, 2),18	10303,(17, 2),3	10306,(87, 2),3	10309,(65, 2),3	10312,(78, 2),48	10360,(101, 2),18	10378,(62, 2),3	10381,(98, 2),12	10393,(92, 2),87	10480,(70, 2),99	10579,(103, 2),3	10582,(63, 2),18	10600,(88, 2),3	10603,(14, 2),531	
# Outgoing
1,(121, 95),174	175,(121, 89),174	349,(121, 31),174	523,(121, 52),174	697,(121, 109),174	871,(121, 71),174	1045,(121, 115),174	1219,(121, 84),174	1393,(121, 90),174	1567,(121, 34),174	1741,(121, 22),174	1915,(121, 75),174	2089,(121, 74),174	2263,(121, 53),174	2437,(121, 43),174	2611,(121, 97),174	2785,(121, 25),174	2959,(121, 30),174	3133,(121, 85),174	3307,(121, 55),174	3481,(121, 36),174	3655,(121, 93),174	3829,(121, 68),174	4003,(121, 112),174	4177,(121, 27),174	4351,(121, 119),174	4525,(121, 28),174	4699,(121, 40),174	4873,(121, 33),174	5047,(121, 39),174	5221,(121, 15),174	5395,(121, 67),174	5569,(121, 69),174	5743,(121, 29),174	5917,(121, 48),174	6091,(121, 32),174	6265,(121, 81),174	6439,(121, 110),174	6613,(121, 105),174	6787,(121, 120),174	6961,(121, 102),174	7135,(121, 86),174	7309,(121, 59),174	7483,(121, 94),174	7657,(121, 76),174	7831,(121, 117),174	8005,(121, 19),174	8179,(121, 42),174	8353,(72, 11),3	8356,(45, 11),6	8362,(46, 11),3	8365,(60, 11),3	8368,(44, 11),21	8389,(57, 11),3	8392,(41, 11),3	8395,(65, 11),3	8398,(78, 11),3	8401,(116, 11),30	8431,(18, 11),3	8434,(62, 11),3	8437,(66, 11),66	8503,(23, 11),21	8524,(98, 11),6	8530,(103, 11),3	8533,(24, 11),3	8536,(21, 11),3	8539,(61, 11),33	8572,(49, 11),18	8590,(14, 11),3	8593,(79, 11),6	8599,(72, 8),3	8602,(50, 8),3	8605,(82, 8),6	8611,(87, 8),36	8647,(54, 8),3	8650,(56, 8),3	8653,(98, 8),9	8662,(24, 8),30	8692,(77, 8),165	8857,(118, 8),84	8941,(26, 8),24	8965,(20, 8),3	8968,(108, 8),12	8980,(57, 4),6	8986,(113, 4),24	9010,(41, 4),3	9013,(47, 4),24	9037,(78, 4),3	9040,(38, 4),24	9064,(62, 4),3	9067,(56, 4),6	9073,(58, 4),78	9151,(98, 4),84	9235,(73, 4),99	9334,(103, 4),6	9340,(88, 4),3	9343,(91, 4),216	9559,(107, 4),708	10267,(72, 2),3	10270,(80, 2),3	10273,(46, 2),12	10285,(60, 2),18	10303,(17, 2),3	10306,(87, 2),3	10309,(65, 2),3	10312,(78, 2),48	10360,(101, 2),18	10378,(62, 2),3	10381,(98, 2),12	10393,(92, 2),87	10480,(70, 2),99	10579,(103, 2),3	10582,(63, 2),18	10600,(88, 2),3	10603,(14, 2),531	
1536,(84, 5),3	1539,(109, 7),12	1551,(71, 7),12	1563,(84, 6),6	1569,(31, 3),6	1575,(109, 3),3	1578,(71, 3),3	1581,(84, 3),12	1593,(95, 1),3	1596,(71, 10),6	1741,(84, 8),21	1762,(109, 2),12	2058,(22, 7),6	2064,(22, 6),12	2437,(22, 2),9	2754,(43, 9),42	2796,(43, 1),3	2799,(43, 12),3	2928,(97, 9),30	2959,(97, 11),3	2962,(97, 7),45	3007,(43, 8),3	3010,(97, 1),6	3450,(85, 5),45	3495,(85, 1),15	3510,(85, 12),42	3624,(55, 3),27	3655,(55, 11),54	3709,(55, 8),3	3712,(85, 2),51	3763,(55, 2),45	3972,(93, 3),15	3987,(93, 12),3	4003,(93, 11),60	4063,(93, 10),15	4320,(112, 9),63	4383,(112, 3),69	4452,(112, 1),3	4494,(27, 6),72	4566,(27, 10),6	5047,(27, 8),3	5538,(15, 11),24	5562,(15, 6),6	5568,(15, 3),12	5580,(15, 1),102	5682,(15, 2),12	5712,(67, 9),57	5769,(67, 1),114	5886,(69, 6),18	5904,(67, 12),15	5919,(69, 10),3	6265,(67, 8),21	6286,(67, 2),3	6289,(69, 2),126	6582,(81, 5),3	6613,(81, 8),3	6616,(81, 3),42	6930,(105, 3),57	6987,(105, 1),93	7080,(81, 12),171	8409,(19, 1),3	8412,(19, 12),15	8496,(42, 5),3	8499,(42, 6),318	8817,(42, 3),3	8980,(19, 2),1239	10233,(19, 10),123	10356,(42, 10),3	11133,(4, 0),387	
3276,(30, 5),48	3324,(90, 11),3	3327,(90, 9),15	3342,(30, 7),18	3360,(90, 8),6	3366,(90, 6),3	3369,(30, 10),15	3384,(90, 2),3	3481,(90, 4),24	5364,(39, 8),3	5367,(39, 1),42	5409,(39, 12),99	
492,(89, 5),6	498,(89, 1),3	840,(52, 7),9	849,(52, 6),3	852,(52, 1),3	855,(52, 12),3	1045,(52, 4),3	1362,(115, 5),3	1365,(115, 7),15	1380,(115, 3),3	1393,(115, 4),6	2232,(75, 5),6	2238,(75, 9),3	2241,(75, 7),15	2256,(75, 6),30	2406,(74, 6),12	2418,(74, 4),3	2580,(53, 7),42	2622,(53, 3),3	3102,(25, 5),15	3117,(25, 9),12	3129,(25, 3),45	3174,(25, 10),6	3798,(36, 7),9	3807,(36, 6),6	3813,(36, 3),9	3822,(36, 1),12	3834,(36, 12),9	3843,(36, 10),54	4146,(68, 5),21	4167,(68, 6),15	4182,(68, 12),9	4351,(68, 4),63	4668,(119, 9),48	4716,(119, 6),3	4719,(119, 3),78	4797,(119, 10),6	4842,(28, 3),3	4845,(28, 4),84	5016,(40, 5),3	5019,(40, 6),9	5190,(33, 5),3	5193,(33, 9),6	5199,(33, 7),15	5214,(33, 6),96	5310,(33, 3),3	6060,(29, 5),27	6087,(29, 1),129	6216,(29, 12),3	6408,(32, 9),3	6411,(32, 12),111	6756,(110, 5),9	6765,(110, 7),3	6787,(32, 4),159	6946,(110, 4),3	7251,(120, 12),3	7278,(102, 9),9	7287,(102, 1),21	7452,(86, 9),3	7455,(86, 12),15	7626,(59, 9),12	7638,(59, 7),24	7662,(59, 1),99	7761,(59, 10),15	7800,(94, 5),6	7806,(94, 7),165	7974,(76, 5),48	8022,(94, 1),6	8148,(117, 5),6	8154,(117, 9),9	8163,(117, 6),12	8175,(102, 3),234	8409,(59, 4),348	8757,(94, 4),6	8763,(117, 4),33	8820,(86, 1),255	9075,(117, 12),552	9627,(102, 10),222	9849,(94, 10),384	10359,(11, 0),387	10746,(8, 0),387	11520,(2, 0),387	
