45
# CPU
0,21,1	1,20,1	2,4,1	3,18,1	4,14,1	5,3,1	6,19,1	7,10,1	8,5,1	9,13,1	10,15,1	11,8,1	12,2,1	43,1,1	44,0,1	
2,9,1	4,12,1	5,17,1	8,16,1	



3,6,1	



6,11,1	7,7,1	
# Incoming
3,(9, 1),1	4,(6, 1),1	5,(12, 1),2	7,(17, 1),5	12,(11, 1),5	17,(7, 1),6	23,(16, 1),20	
1,(21, 9),1	3,(21, 12),1	4,(21, 17),1	7,(21, 16),1	



2,(21, 6),1	



5,(21, 11),1	6,(21, 7),1	
# Outgoing
1,(21, 9),1	2,(21, 6),1	3,(21, 12),1	4,(21, 17),1	5,(21, 11),1	6,(21, 7),1	7,(21, 16),1	
3,(9, 1),1	5,(12, 1),2	7,(17, 1),5	23,(16, 1),20	



4,(6, 1),1	



12,(11, 1),5	17,(7, 1),6	
