1605
# CPU
68,6,10	78,10,10	88,14,10	98,18,10	
20,5,10	80,13,10	90,17,10	101,9,10	
4,2,10	14,4,10	24,12,10	34,20,10	62,8,10	86,16,10	
0,0,1	1,1,10	11,3,10	21,15,10	71,7,10	134,11,10	161,19,10	1604,21,1	
# Incoming
62,(1, 10),3	65,(2, 6),3	71,(2, 10),3	80,(1, 14),3	89,(1, 18),9	
11,(1, 5),9	65,(1, 13),15	86,(1, 17),3	89,(2, 9),12	
1,(0, 2),3	20,(1, 8),42	83,(1, 16),3	
68,(2, 7),3	101,(2, 11),33	134,(2, 19),27	161,(4, 21),111	272,(5, 21),111	383,(12, 21),111	494,(20, 21),111	605,(8, 21),111	716,(6, 21),111	827,(10, 21),111	938,(13, 21),111	1049,(16, 21),111	1160,(14, 21),111	1271,(17, 21),111	1382,(18, 21),111	1493,(9, 21),111	
# Outgoing
716,(6, 21),111	827,(10, 21),111	1160,(14, 21),111	1382,(18, 21),111	
272,(5, 21),111	938,(13, 21),111	1271,(17, 21),111	1493,(9, 21),111	
65,(2, 6),3	68,(2, 7),3	71,(2, 10),3	89,(2, 9),12	101,(2, 11),33	134,(2, 19),27	161,(4, 21),111	383,(12, 21),111	494,(20, 21),111	605,(8, 21),111	1049,(16, 21),111	
1,(0, 2),3	11,(1, 5),9	20,(1, 8),42	62,(1, 10),3	65,(1, 13),15	80,(1, 14),3	83,(1, 16),3	86,(1, 17),3	89,(1, 18),9	
