738
# CPU


169,20,1	
145,16,1	
141,14,1	
49,9,1	
141,7,1	165,13,1	329,18,1	737,21,1	
21,5,1	197,17,1	221,10,1	261,15,1	
13,2,1	17,4,1	45,8,1	133,12,1	
0,0,1	1,1,1	2,3,1	3,6,1	4,11,1	609,19,1	
# Incoming


165,(2, 20),4	
141,(1, 16),4	
137,(1, 14),4	
45,(1, 9),4	
133,(1, 13),4	137,(2, 7),4	141,(2, 13),24	165,(5, 21),32	197,(3, 21),32	229,(6, 21),32	261,(11, 21),32	293,(2, 18),36	329,(9, 21),32	361,(14, 21),32	393,(16, 21),32	425,(20, 21),32	457,(17, 21),32	489,(10, 21),32	521,(15, 21),32	609,(4, 21),32	641,(8, 21),32	673,(12, 21),32	705,(19, 21),32	
17,(1, 5),4	49,(1, 10),20	145,(1, 17),52	197,(2, 10),24	221,(2, 15),40	
1,(0, 2),12	13,(1, 4),4	21,(1, 8),24	69,(1, 12),64	
329,(2, 19),280	
# Outgoing


425,(20, 21),32	
393,(16, 21),32	
361,(14, 21),32	
329,(9, 21),32	

165,(5, 21),32	457,(17, 21),32	489,(10, 21),32	521,(15, 21),32	
137,(2, 7),4	141,(2, 13),24	165,(2, 20),4	197,(2, 10),24	221,(2, 15),40	293,(2, 18),36	329,(2, 19),280	609,(4, 21),32	641,(8, 21),32	673,(12, 21),32	
1,(0, 2),12	13,(1, 4),4	17,(1, 5),4	21,(1, 8),24	45,(1, 9),4	49,(1, 10),20	69,(1, 12),64	133,(1, 13),4	137,(1, 14),4	141,(1, 16),4	145,(1, 17),52	197,(3, 21),32	229,(6, 21),32	261,(11, 21),32	705,(19, 21),32	
