820
# CPU
3,1,13	16,4,13	29,7,13	42,84,13	55,60,13	68,11,13	81,21,13	94,80,13	107,76,13	120,65,13	133,32,13	146,62,13	159,41,13	172,110,13	185,103,13	198,101,13	211,99,13	224,87,13	237,82,13	250,69,13	263,70,13	276,36,13	289,54,13	302,46,13	315,52,13	328,64,13	341,86,13	354,96,13	367,102,13	380,59,13	393,75,13	406,108,13	419,45,13	432,26,13	445,44,13	458,47,13	471,78,13	484,88,13	497,93,13	510,94,13	
5,2,13	18,6,13	31,8,13	44,10,13	57,18,13	70,17,13	83,27,13	96,114,13	109,90,13	122,89,13	135,39,13	148,23,13	161,13,13	174,51,13	187,37,13	200,35,13	213,19,13	226,34,13	239,43,13	252,40,13	265,111,13	278,72,13	291,38,13	304,79,13	317,63,13	330,22,13	343,109,13	356,91,13	369,105,13	382,67,13	395,68,13	408,81,13	421,117,13	434,28,13	447,107,13	460,25,13	473,100,13	486,66,13	499,104,13	512,118,13	
0,0,1	1,9,13	14,5,13	27,3,13	40,12,13	53,29,13	66,85,13	79,71,13	92,55,13	105,15,13	118,98,13	131,50,13	144,31,13	157,16,13	170,14,13	183,57,13	196,119,13	209,97,13	222,24,13	235,20,13	248,58,13	261,115,13	274,120,13	287,56,13	300,83,13	313,49,13	326,74,13	339,95,13	352,106,13	461,30,13	474,33,13	545,42,13	558,48,13	571,53,13	584,61,13	619,73,13	632,77,13	645,92,13	658,112,13	679,113,13	692,116,13	819,121,1	
# Incoming
1,(0, 1),2	5,(0, 4),2	9,(0, 7),2	15,(0, 11),2	17,(9, 21),4	21,(2, 45),4	31,(6, 36),12	44,(8, 26),2	57,(9, 36),20	77,(10, 26),2	79,(9, 52),12	91,(10, 75),2	93,(9, 64),10	111,(10, 88),2	113,(10, 96),4	125,(9, 86),6	131,(9, 96),2	133,(9, 102),8	149,(5, 59),6	155,(5, 75),4	173,(5, 108),2	181,(3, 45),2	195,(12, 26),2	197,(12, 44),6	203,(12, 47),2	211,(12, 78),10	221,(12, 88),2	223,(12, 93),2	225,(12, 94),2	
3,(0, 2),2	7,(0, 6),2	11,(0, 8),2	13,(0, 10),2	21,(9, 22),16	37,(9, 23),6	43,(9, 34),14	57,(1, 72),14	71,(1, 104),2	73,(1, 105),4	77,(9, 38),2	83,(4, 79),8	91,(9, 63),2	95,(7, 22),2	97,(7, 109),2	99,(11, 91),2	101,(11, 105),2	103,(9, 67),4	107,(9, 68),4	111,(9, 81),14	141,(9, 107),2	143,(9, 117),4	147,(5, 28),2	159,(5, 107),14	175,(3, 25),6	183,(3, 100),12	205,(12, 66),6	227,(12, 104),6	233,(12, 118),2	
16,(1, 50),6	22,(1, 113),6	28,(1, 115),4	32,(1, 119),18	50,(2, 73),14	64,(2, 95),10	74,(6, 33),2	77,(4, 20),6	83,(6, 48),6	89,(6, 58),2	91,(4, 115),4	95,(6, 95),14	109,(6, 120),2	111,(7, 73),104	215,(7, 113),16	231,(8, 30),4	235,(8, 56),2	237,(8, 77),8	245,(8, 83),10	255,(84, 121),2	257,(10, 49),50	307,(10, 74),4	311,(10, 92),2	313,(10, 95),20	333,(10, 106),8	341,(10, 112),108	449,(60, 121),2	451,(18, 121),2	453,(11, 30),8	461,(11, 33),6	467,(11, 42),78	545,(11, 48),2	547,(11, 53),10	557,(11, 61),2	559,(11, 73),60	619,(11, 77),6	625,(11, 92),18	643,(11, 112),2	645,(11, 113),34	679,(11, 116),2	681,(17, 121),2	683,(21, 121),2	685,(27, 121),2	687,(80, 121),2	689,(114, 121),2	691,(76, 121),2	693,(90, 121),2	695,(65, 121),2	697,(89, 121),2	699,(32, 121),2	701,(39, 121),2	703,(62, 121),2	705,(23, 121),2	707,(41, 121),2	709,(13, 121),2	711,(110, 121),2	713,(51, 121),2	715,(103, 121),2	717,(37, 121),2	719,(101, 121),2	721,(35, 121),2	723,(99, 121),2	725,(19, 121),2	727,(87, 121),2	729,(34, 121),2	731,(82, 121),2	733,(43, 121),2	735,(69, 121),2	737,(40, 121),2	739,(70, 121),2	741,(111, 121),2	743,(36, 121),2	745,(72, 121),2	747,(54, 121),2	749,(38, 121),2	751,(46, 121),2	753,(79, 121),2	755,(52, 121),2	757,(63, 121),2	759,(64, 121),2	761,(22, 121),2	763,(86, 121),2	765,(109, 121),2	767,(96, 121),2	769,(91, 121),2	771,(102, 121),2	773,(105, 121),2	775,(59, 121),2	777,(67, 121),2	779,(75, 121),2	781,(68, 121),2	783,(108, 121),2	785,(81, 121),2	787,(45, 121),2	789,(117, 121),2	791,(26, 121),2	793,(28, 121),2	795,(44, 121),2	797,(107, 121),2	799,(47, 121),2	801,(25, 121),2	803,(78, 121),2	805,(100, 121),2	807,(88, 121),2	809,(66, 121),2	811,(93, 121),2	813,(104, 121),2	815,(94, 121),2	817,(118, 121),2	
# Outgoing
16,(1, 50),6	22,(1, 113),6	28,(1, 115),4	32,(1, 119),18	57,(1, 72),14	71,(1, 104),2	73,(1, 105),4	77,(4, 20),6	83,(4, 79),8	91,(4, 115),4	95,(7, 22),2	97,(7, 109),2	99,(11, 91),2	101,(11, 105),2	111,(7, 73),104	215,(7, 113),16	255,(84, 121),2	449,(60, 121),2	453,(11, 30),8	461,(11, 33),6	467,(11, 42),78	545,(11, 48),2	547,(11, 53),10	557,(11, 61),2	559,(11, 73),60	619,(11, 77),6	625,(11, 92),18	643,(11, 112),2	645,(11, 113),34	679,(11, 116),2	683,(21, 121),2	687,(80, 121),2	691,(76, 121),2	695,(65, 121),2	699,(32, 121),2	703,(62, 121),2	707,(41, 121),2	711,(110, 121),2	715,(103, 121),2	719,(101, 121),2	723,(99, 121),2	727,(87, 121),2	731,(82, 121),2	735,(69, 121),2	739,(70, 121),2	743,(36, 121),2	747,(54, 121),2	751,(46, 121),2	755,(52, 121),2	759,(64, 121),2	763,(86, 121),2	767,(96, 121),2	771,(102, 121),2	775,(59, 121),2	779,(75, 121),2	783,(108, 121),2	787,(45, 121),2	791,(26, 121),2	795,(44, 121),2	799,(47, 121),2	803,(78, 121),2	807,(88, 121),2	811,(93, 121),2	815,(94, 121),2	
21,(2, 45),4	31,(6, 36),12	44,(8, 26),2	50,(2, 73),14	64,(2, 95),10	74,(6, 33),2	77,(10, 26),2	83,(6, 48),6	89,(6, 58),2	91,(10, 75),2	95,(6, 95),14	109,(6, 120),2	111,(10, 88),2	113,(10, 96),4	231,(8, 30),4	235,(8, 56),2	237,(8, 77),8	245,(8, 83),10	257,(10, 49),50	307,(10, 74),4	311,(10, 92),2	313,(10, 95),20	333,(10, 106),8	341,(10, 112),108	451,(18, 121),2	681,(17, 121),2	685,(27, 121),2	689,(114, 121),2	693,(90, 121),2	697,(89, 121),2	701,(39, 121),2	705,(23, 121),2	709,(13, 121),2	713,(51, 121),2	717,(37, 121),2	721,(35, 121),2	725,(19, 121),2	729,(34, 121),2	733,(43, 121),2	737,(40, 121),2	741,(111, 121),2	745,(72, 121),2	749,(38, 121),2	753,(79, 121),2	757,(63, 121),2	761,(22, 121),2	765,(109, 121),2	769,(91, 121),2	773,(105, 121),2	777,(67, 121),2	781,(68, 121),2	785,(81, 121),2	789,(117, 121),2	793,(28, 121),2	797,(107, 121),2	801,(25, 121),2	805,(100, 121),2	809,(66, 121),2	813,(104, 121),2	817,(118, 121),2	
1,(0, 1),2	3,(0, 2),2	5,(0, 4),2	7,(0, 6),2	9,(0, 7),2	11,(0, 8),2	13,(0, 10),2	15,(0, 11),2	17,(9, 21),4	21,(9, 22),16	37,(9, 23),6	43,(9, 34),14	57,(9, 36),20	77,(9, 38),2	79,(9, 52),12	91,(9, 63),2	93,(9, 64),10	103,(9, 67),4	107,(9, 68),4	111,(9, 81),14	125,(9, 86),6	131,(9, 96),2	133,(9, 102),8	141,(9, 107),2	143,(9, 117),4	147,(5, 28),2	149,(5, 59),6	155,(5, 75),4	159,(5, 107),14	173,(5, 108),2	175,(3, 25),6	181,(3, 45),2	183,(3, 100),12	195,(12, 26),2	197,(12, 44),6	203,(12, 47),2	205,(12, 66),6	211,(12, 78),10	221,(12, 88),2	223,(12, 93),2	225,(12, 94),2	227,(12, 104),6	233,(12, 118),2	
