603
# CPU
0,201,1	1,150,3	4,90,3	7,99,3	10,89,3	13,88,3	16,81,3	19,80,3	22,131,3	25,110,3	28,141,3	31,185,3	34,179,3	37,147,3	40,128,3	43,117,3	46,167,3	49,76,3	52,135,3	55,134,3	58,51,3	61,83,3	64,145,3	67,178,3	70,164,3	73,36,3	76,65,3	79,27,3	82,184,3	85,163,3	88,34,3	91,60,3	94,190,3	97,42,3	100,200,3	103,162,3	106,154,3	109,100,3	112,25,3	115,63,3	118,186,3	121,50,3	124,38,3	127,30,3	130,112,3	133,31,3	136,129,3	139,95,3	142,82,3	145,86,3	148,70,3	151,28,3	154,187,3	157,105,3	160,64,3	163,191,3	166,58,3	169,53,3	172,22,3	175,143,3	178,142,3	181,44,3	184,77,3	187,113,3	190,153,3	193,97,3	196,35,3	199,137,3	202,26,3	205,98,3	208,155,3	211,40,3	214,157,3	217,180,3	220,107,3	223,116,3	226,91,3	229,69,3	232,193,3	235,93,3	238,138,3	241,49,3	244,84,3	247,194,3	250,172,3	253,197,3	256,183,3	259,122,3	262,78,3	265,182,3	268,71,3	271,140,3	274,146,3	277,109,3	280,125,3	283,148,3	286,48,3	289,87,3	292,188,3	295,102,3	298,126,3	301,127,3	304,130,3	307,119,3	310,59,3	313,24,3	316,175,3	319,54,3	322,124,3	325,132,3	328,158,3	331,133,3	334,161,3	337,171,3	340,39,3	343,32,3	346,43,3	349,85,3	352,108,3	355,144,3	358,52,3	361,159,3	364,47,3	367,196,3	370,74,3	373,152,3	376,66,3	379,195,3	382,149,3	385,165,3	388,101,3	391,79,3	394,57,3	397,104,3	400,4,3	403,151,3	406,136,3	409,170,3	412,41,3	415,189,3	418,56,3	421,68,3	424,73,3	427,72,3	430,139,3	433,62,3	436,19,3	439,103,3	442,96,3	445,2,3	448,174,3	451,118,3	454,176,3	457,9,3	460,45,3	463,1,3	466,10,3	469,18,3	472,11,3	475,8,3	478,13,3	481,12,3	484,17,3	487,7,3	490,16,3	493,20,3	496,6,3	499,15,3	531,5,3	599,3,3	602,0,1	
31,111,3	61,166,3	76,61,3	91,160,3	106,115,3	271,67,3	286,106,3	346,181,3	361,94,3	391,46,3	436,33,3	451,114,3	506,14,3	
16,123,3	46,173,3	121,29,3	136,199,3	151,120,3	166,121,3	181,92,3	196,37,3	211,168,3	226,21,3	241,198,3	256,192,3	301,169,3	316,23,3	331,55,3	376,156,3	406,75,3	421,177,3	
# Incoming
124,(29, 9),1	125,(123, 10),1	126,(173, 18),1	127,(166, 17),1	128,(115, 6),1	129,(61, 15),1	130,(111, 5),1	131,(160, 5),1	132,(61, 3),1	133,(115, 3),1	139,(199, 6),2	154,(120, 5),2	169,(121, 1),1	170,(121, 12),3	184,(92, 17),3	199,(37, 11),3	214,(168, 3),4	229,(21, 8),4	233,(21, 13),6	244,(198, 11),1	245,(198, 20),7	259,(192, 15),8	274,(67, 17),8	289,(106, 16),9	304,(169, 12),10	314,(169, 5),3	319,(23, 15),11	334,(55, 17),3	337,(55, 15),12	349,(181, 16),13	362,(181, 3),1	379,(156, 5),6	394,(46, 7),20	414,(156, 20),17	431,(75, 6),22	453,(177, 15),27	480,(177, 5),51	531,(14, 0),1	532,(33, 3),67	
16,(201, 111),15	46,(201, 166),15	61,(201, 61),15	76,(201, 160),15	91,(201, 115),15	256,(201, 67),15	271,(201, 106),15	331,(201, 181),15	346,(201, 94),15	376,(201, 46),15	421,(201, 33),15	436,(201, 114),15	451,(88, 14),1	452,(112, 14),1	453,(143, 14),3	456,(142, 14),3	459,(97, 14),3	462,(197, 14),4	466,(171, 14),12	478,(170, 14),27	505,(73, 14),1	
1,(201, 123),15	31,(201, 173),15	106,(201, 29),15	121,(201, 199),15	136,(201, 120),15	151,(201, 121),15	166,(201, 92),15	181,(201, 37),15	196,(201, 168),15	211,(201, 21),15	226,(201, 198),15	241,(201, 192),15	286,(201, 169),15	301,(201, 23),15	316,(201, 55),15	361,(201, 156),15	391,(201, 75),15	406,(201, 177),15	
# Outgoing
1,(201, 123),15	16,(201, 111),15	31,(201, 173),15	46,(201, 166),15	61,(201, 61),15	76,(201, 160),15	91,(201, 115),15	106,(201, 29),15	121,(201, 199),15	136,(201, 120),15	151,(201, 121),15	166,(201, 92),15	181,(201, 37),15	196,(201, 168),15	211,(201, 21),15	226,(201, 198),15	241,(201, 192),15	256,(201, 67),15	271,(201, 106),15	286,(201, 169),15	301,(201, 23),15	316,(201, 55),15	331,(201, 181),15	346,(201, 94),15	361,(201, 156),15	376,(201, 46),15	391,(201, 75),15	406,(201, 177),15	421,(201, 33),15	436,(201, 114),15	451,(88, 14),1	452,(112, 14),1	453,(143, 14),3	456,(142, 14),3	459,(97, 14),3	462,(197, 14),4	466,(171, 14),12	478,(170, 14),27	505,(73, 14),1	
127,(166, 17),1	128,(115, 6),1	129,(61, 15),1	130,(111, 5),1	131,(160, 5),1	132,(61, 3),1	133,(115, 3),1	274,(67, 17),8	289,(106, 16),9	349,(181, 16),13	362,(181, 3),1	394,(46, 7),20	531,(14, 0),1	532,(33, 3),67	
124,(29, 9),1	125,(123, 10),1	126,(173, 18),1	139,(199, 6),2	154,(120, 5),2	169,(121, 1),1	170,(121, 12),3	184,(92, 17),3	199,(37, 11),3	214,(168, 3),4	229,(21, 8),4	233,(21, 13),6	244,(198, 11),1	245,(198, 20),7	259,(192, 15),8	304,(169, 12),10	314,(169, 5),3	319,(23, 15),11	334,(55, 17),3	337,(55, 15),12	379,(156, 5),6	414,(156, 20),17	431,(75, 6),22	453,(177, 15),27	480,(177, 5),51	
