1745
# CPU
0,0,1	1,4,23	24,21,23	47,19,23	70,3,23	93,115,23	116,44,23	139,16,23	162,9,23	185,27,23	208,77,23	231,107,23	254,112,23	277,7,23	300,65,23	323,46,23	346,5,23	369,91,23	392,84,23	415,86,23	438,93,23	461,98,23	484,45,23	507,15,23	530,54,23	553,1,23	576,80,23	599,18,23	622,30,23	645,42,23	668,83,23	691,47,23	714,38,23	737,85,23	760,90,23	783,73,23	806,74,23	829,69,23	852,20,23	875,33,23	898,105,23	921,82,23	944,52,23	1744,121,1	
40,64,23	84,2,23	107,14,23	130,110,23	157,6,23	180,49,23	203,68,23	226,13,23	249,51,23	272,24,23	295,36,23	318,97,23	341,26,23	373,17,23	396,32,23	419,67,23	442,106,23	477,118,23	525,8,23	548,109,23	571,25,23	594,34,23	617,92,23	640,108,23	680,76,23	716,114,23	
113,100,23	184,70,23	207,71,23	279,81,23	315,37,23	338,111,23	367,10,23	390,87,23	413,29,23	436,88,23	459,75,23	482,63,23	511,94,23	552,89,23	575,43,23	598,60,23	621,116,23	644,95,23	667,53,23	
188,119,23	224,104,23	288,11,23	311,66,23	334,101,23	357,102,23	380,62,23	403,79,23	426,28,23	449,57,23	472,39,23	556,96,23	579,117,23	602,78,23	625,120,23	660,50,23	772,22,23	828,61,23	
200,23,23	244,12,23	267,31,23	290,72,23	313,40,23	336,99,23	359,35,23	382,41,23	405,59,23	428,58,23	481,103,23	560,113,23	583,55,23	606,56,23	629,48,23	
# Incoming
287,(12, 90),4	291,(12, 73),4	295,(12, 105),40	340,(2, 69),16	356,(12, 82),64	420,(11, 82),4	424,(119, 121),16	440,(23, 121),16	456,(104, 121),16	472,(31, 121),16	488,(72, 121),16	505,(10, 74),12	517,(64, 121),16	533,(100, 121),16	549,(70, 121),16	576,(8, 69),4	580,(71, 121),16	596,(81, 121),16	612,(66, 121),16	636,(8, 20),24	660,(8, 33),32	692,(10, 52),76	768,(14, 121),16	784,(110, 121),16	800,(49, 121),16	816,(68, 121),16	832,(13, 121),16	848,(51, 121),16	864,(24, 121),16	880,(36, 121),16	896,(40, 121),16	912,(37, 121),16	928,(97, 121),16	944,(101, 121),16	960,(99, 121),16	976,(111, 121),16	992,(26, 121),16	1008,(102, 121),16	1024,(35, 121),16	1040,(17, 121),16	1056,(62, 121),16	1072,(41, 121),16	1088,(87, 121),16	1104,(32, 121),16	1120,(79, 121),16	1136,(59, 121),16	1152,(29, 121),16	1168,(67, 121),16	1184,(28, 121),16	1200,(58, 121),16	1216,(88, 121),16	1232,(106, 121),16	1248,(57, 121),16	1264,(75, 121),16	1280,(39, 121),16	1296,(118, 121),16	1312,(103, 121),16	1328,(63, 121),16	1344,(94, 121),16	1360,(109, 121),16	1376,(89, 121),16	1392,(96, 121),16	1408,(113, 121),16	1424,(25, 121),16	1440,(43, 121),16	1456,(117, 121),16	1472,(55, 121),16	1488,(34, 121),16	1504,(60, 121),16	1520,(78, 121),16	1536,(56, 121),16	1552,(92, 121),16	1568,(116, 121),16	1584,(120, 121),16	1600,(48, 121),16	1616,(108, 121),16	1632,(95, 121),16	1648,(50, 121),16	1664,(53, 121),16	1680,(76, 121),16	1696,(114, 121),16	1712,(22, 121),16	1728,(61, 121),16	
24,(4, 64),16	40,(0, 2),44	84,(4, 32),4	113,(0, 6),44	165,(3, 108),20	279,(12, 36),4	292,(9, 97),4	296,(9, 26),4	323,(11, 26),12	369,(5, 17),4	377,(5, 32),4	397,(5, 67),4	401,(10, 67),16	417,(10, 106),24	449,(5, 118),4	453,(10, 118),24	481,(0, 8),44	525,(12, 76),56	660,(7, 76),20	680,(7, 114),36	
93,(3, 100),20	157,(4, 116),8	180,(6, 70),4	185,(9, 71),12	200,(2, 71),4	267,(12, 81),12	283,(12, 111),4	288,(9, 37),4	311,(11, 37),4	319,(11, 111),4	323,(0, 10),44	367,(6, 94),144	511,(11, 60),4	515,(11, 53),4	548,(8, 89),4	552,(9, 53),8	560,(8, 43),12	580,(1, 60),4	596,(1, 116),4	600,(1, 95),24	624,(8, 53),12	
184,(6, 119),4	204,(6, 104),20	224,(6, 78),4	228,(6, 120),4	232,(6, 50),8	244,(0, 11),44	288,(6, 39),52	340,(12, 117),4	344,(12, 50),4	390,(10, 79),4	394,(10, 57),4	401,(5, 28),20	421,(5, 57),28	525,(9, 96),4	529,(5, 50),12	552,(8, 96),4	560,(4, 61),12	572,(8, 117),4	584,(1, 78),8	592,(8, 120),12	624,(9, 50),36	716,(9, 22),56	772,(7, 61),56	
188,(6, 23),12	200,(0, 12),44	244,(2, 59),4	300,(9, 35),4	315,(11, 99),4	335,(11, 35),16	351,(11, 58),20	373,(5, 41),4	377,(11, 103),4	381,(5, 59),16	441,(10, 48),4	453,(9, 103),28	481,(10, 113),24	556,(8, 113),4	576,(1, 55),4	592,(1, 56),4	604,(8, 48),20	
# Outgoing
24,(4, 64),16	40,(0, 2),44	84,(4, 32),4	93,(3, 100),20	113,(0, 6),44	157,(4, 116),8	165,(3, 108),20	185,(9, 71),12	200,(0, 12),44	244,(0, 11),44	288,(9, 37),4	292,(9, 97),4	296,(9, 26),4	300,(9, 35),4	323,(0, 10),44	369,(5, 17),4	373,(5, 41),4	377,(5, 32),4	381,(5, 59),16	397,(5, 67),4	401,(5, 28),20	421,(5, 57),28	449,(5, 118),4	453,(9, 103),28	481,(0, 8),44	525,(9, 96),4	529,(5, 50),12	552,(9, 53),8	560,(4, 61),12	576,(1, 55),4	580,(1, 60),4	584,(1, 78),8	592,(1, 56),4	596,(1, 116),4	600,(1, 95),24	624,(9, 50),36	660,(7, 76),20	680,(7, 114),36	716,(9, 22),56	772,(7, 61),56	
180,(6, 70),4	184,(6, 119),4	188,(6, 23),12	200,(2, 71),4	204,(6, 104),20	224,(6, 78),4	228,(6, 120),4	232,(6, 50),8	244,(2, 59),4	288,(6, 39),52	340,(2, 69),16	367,(6, 94),144	517,(64, 121),16	548,(8, 89),4	552,(8, 96),4	556,(8, 113),4	560,(8, 43),12	572,(8, 117),4	576,(8, 69),4	592,(8, 120),12	604,(8, 48),20	624,(8, 53),12	636,(8, 20),24	660,(8, 33),32	768,(14, 121),16	784,(110, 121),16	800,(49, 121),16	816,(68, 121),16	832,(13, 121),16	848,(51, 121),16	864,(24, 121),16	880,(36, 121),16	928,(97, 121),16	992,(26, 121),16	1040,(17, 121),16	1104,(32, 121),16	1168,(67, 121),16	1232,(106, 121),16	1296,(118, 121),16	1360,(109, 121),16	1424,(25, 121),16	1488,(34, 121),16	1552,(92, 121),16	1616,(108, 121),16	1680,(76, 121),16	1696,(114, 121),16	
390,(10, 79),4	394,(10, 57),4	401,(10, 67),16	417,(10, 106),24	441,(10, 48),4	453,(10, 118),24	481,(10, 113),24	505,(10, 74),12	533,(100, 121),16	549,(70, 121),16	580,(71, 121),16	596,(81, 121),16	692,(10, 52),76	912,(37, 121),16	976,(111, 121),16	1088,(87, 121),16	1152,(29, 121),16	1216,(88, 121),16	1264,(75, 121),16	1328,(63, 121),16	1344,(94, 121),16	1376,(89, 121),16	1440,(43, 121),16	1504,(60, 121),16	1568,(116, 121),16	1632,(95, 121),16	1664,(53, 121),16	
311,(11, 37),4	315,(11, 99),4	319,(11, 111),4	323,(11, 26),12	335,(11, 35),16	351,(11, 58),20	377,(11, 103),4	420,(11, 82),4	424,(119, 121),16	456,(104, 121),16	511,(11, 60),4	515,(11, 53),4	612,(66, 121),16	944,(101, 121),16	1008,(102, 121),16	1056,(62, 121),16	1120,(79, 121),16	1184,(28, 121),16	1248,(57, 121),16	1280,(39, 121),16	1392,(96, 121),16	1456,(117, 121),16	1520,(78, 121),16	1584,(120, 121),16	1648,(50, 121),16	1712,(22, 121),16	1728,(61, 121),16	
267,(12, 81),12	279,(12, 36),4	283,(12, 111),4	287,(12, 90),4	291,(12, 73),4	295,(12, 105),40	340,(12, 117),4	344,(12, 50),4	356,(12, 82),64	440,(23, 121),16	472,(31, 121),16	488,(72, 121),16	525,(12, 76),56	896,(40, 121),16	960,(99, 121),16	1024,(35, 121),16	1072,(41, 121),16	1136,(59, 121),16	1200,(58, 121),16	1312,(103, 121),16	1408,(113, 121),16	1472,(55, 121),16	1536,(56, 121),16	1600,(48, 121),16	
