11806
# CPU
45,3,1	89,6,1	105,134,1	133,9,1	134,83,1	135,84,1	177,12,1	178,37,1	221,15,1	222,51,1	223,154,1	265,18,1	266,80,1	267,117,1	268,163,1	315,36,1	477,74,1	801,31,1	813,38,1	905,129,1	947,148,1	1069,191,1	1217,33,1	1443,144,1	1457,43,1	1527,65,1	1621,96,1	1993,179,1	1995,40,1	1997,50,1	2033,66,1	2179,72,1	2191,92,1	2247,97,1	2381,123,1	2399,133,1	2621,189,1	3123,104,1	3139,67,1	3141,68,1	3143,78,1	3153,111,1	3559,167,1	3945,26,1	3957,59,1	4025,94,1	4143,86,1	4153,102,1	4263,114,1	4285,151,1	4293,158,1	4491,178,1	4609,183,1	4657,27,1	4659,175,1	4665,32,1	4687,53,1	4717,57,1	4733,115,1	4751,166,1	4829,85,1	4985,90,1	5025,105,1	5031,106,1	5033,110,1	5063,124,1	5103,147,1	5117,161,1	5119,165,1	5183,52,1	5239,41,1	5241,45,1	5265,47,1	5323,81,1	5351,121,1	5359,149,1	5365,162,1	5387,173,1	5389,176,1	5481,196,1	5483,199,1	5711,187,1	6135,95,1	6197,98,1	6443,100,1	9061,125,1	9105,126,1	9181,188,1	9219,44,1	9241,48,1	9277,55,1	9291,73,1	9311,75,1	9317,118,1	9487,136,1	9551,169,1	9573,170,1	9593,171,1	9613,177,1	9683,180,1	9701,181,1	9801,49,1	9859,93,1	9865,116,1	9875,135,1	9943,138,1	10161,141,1	10175,145,1	10183,184,1	10185,190,1	10223,46,1	10231,70,1	10235,76,1	10237,77,1	10239,89,1	10259,101,1	10269,103,1	10275,109,1	10299,112,1	10307,119,1	10465,120,1	10467,122,1	10619,130,1	10631,131,1	10645,137,1	10681,146,1	10713,157,1	10715,164,1	10835,174,1	10853,185,1	10863,186,1	10871,192,1	10877,193,1	10911,194,1	11145,198,1	11147,200,1	11175,34,1	11187,35,1	11229,39,1	11255,42,1	11259,61,1	11273,79,1	11333,88,1	11345,91,1	11347,99,1	11387,107,1	11409,108,1	11411,113,1	11421,127,1	11437,128,1	11441,132,1	11453,139,1	11455,140,1	11457,142,1	11509,143,1	11527,152,1	11565,153,1	11567,155,1	11569,156,1	11571,159,1	11575,160,1	11577,168,1	11619,172,1	11629,182,1	11633,195,1	11635,197,1	11805,201,1	
23,2,1	67,5,1	111,8,1	155,11,1	156,82,1	199,14,1	243,17,1	287,20,1	453,54,1	873,87,1	1109,29,1	1457,62,1	2953,24,1	3951,56,1	3973,60,1	4025,64,1	4659,30,1	4747,58,1	4751,71,1	5107,150,1	5185,25,1	
0,0,1	1,10,1	2,16,1	3,7,1	4,19,1	5,4,1	6,1,1	7,13,1	140,28,1	241,21,1	355,23,1	389,22,1	587,63,1	2845,69,1	
# Incoming
23,(0, 3),22	45,(2, 32),8	53,(2, 37),2	55,(2, 42),2	57,(2, 44),2	59,(2, 49),2	61,(2, 105),2	63,(2, 120),4	67,(0, 6),22	89,(2, 83),8	97,(2, 110),6	103,(2, 134),2	105,(2, 135),4	109,(2, 174),2	111,(0, 9),22	133,(2, 136),6	139,(2, 141),4	143,(2, 180),2	145,(2, 199),2	147,(5, 35),2	149,(5, 100),2	151,(5, 112),2	153,(5, 121),2	155,(0, 12),22	177,(2, 139),20	197,(5, 129),2	199,(0, 15),22	221,(2, 189),12	233,(5, 41),8	241,(8, 40),2	243,(0, 18),22	265,(2, 46),26	291,(10, 31),12	303,(10, 36),12	315,(10, 38),4	319,(10, 44),22	341,(10, 53),4	345,(10, 59),2	347,(2, 94),48	395,(10, 72),80	475,(10, 74),2	477,(10, 79),14	491,(10, 86),16	507,(2, 45),184	691,(2, 144),26	717,(2, 162),48	765,(5, 31),36	801,(5, 38),12	813,(5, 93),44	857,(5, 99),12	869,(5, 158),4	873,(10, 104),2	875,(10, 114),2	877,(10, 129),28	905,(10, 131),2	907,(10, 133),14	921,(10, 148),26	947,(10, 156),14	961,(10, 160),2	963,(10, 161),12	975,(10, 172),38	1013,(10, 184),2	1015,(10, 185),24	1039,(10, 191),30	1069,(5, 92),68	1137,(5, 104),64	1201,(16, 33),16	1217,(16, 42),6	1223,(16, 53),10	1233,(5, 106),104	1337,(5, 107),62	1399,(5, 113),8	1407,(5, 124),6	1413,(5, 140),8	1421,(5, 142),8	1429,(5, 144),14	1443,(5, 175),4	1447,(5, 177),8	1455,(8, 43),2	1457,(16, 65),70	1527,(16, 75),38	1565,(16, 79),34	1599,(16, 86),2	1601,(16, 96),20	1621,(16, 98),2	1623,(16, 100),8	1631,(16, 113),52	1683,(16, 119),4	1687,(16, 133),2	1689,(16, 135),4	1693,(16, 139),4	1697,(16, 174),14	1711,(16, 179),282	1993,(7, 40),2	1995,(7, 50),2	1997,(7, 53),2	1999,(7, 57),12	2011,(8, 49),2	2013,(8, 88),2	2015,(7, 66),18	2033,(7, 72),146	2179,(7, 78),8	2187,(7, 91),2	2189,(7, 92),2	2191,(7, 93),6	2197,(7, 97),50	2247,(7, 99),2	2249,(7, 108),2	2251,(7, 111),114	2365,(7, 121),14	2379,(7, 123),2	2381,(7, 125),16	2397,(7, 133),2	2399,(7, 158),34	2433,(7, 170),26	2459,(7, 175),132	2591,(7, 188),14	2605,(7, 189),16	2621,(7, 190),232	2853,(7, 197),2	2855,(19, 34),6	2861,(19, 35),16	2877,(19, 52),90	2967,(19, 53),4	2971,(5, 153),44	3015,(5, 156),42	3057,(5, 159),22	3079,(5, 164),20	3099,(5, 181),22	3121,(8, 104),2	3123,(8, 158),2	3125,(19, 67),14	3139,(19, 68),2	3141,(19, 78),2	3143,(19, 111),10	3153,(19, 112),2	3155,(19, 115),118	3273,(19, 124),6	3279,(19, 136),86	3365,(19, 143),2	3367,(19, 145),10	3377,(19, 146),2	3379,(19, 153),2	3381,(19, 157),2	3383,(19, 158),12	3395,(19, 164),162	3557,(19, 167),2	3559,(19, 176),58	3617,(19, 181),18	3635,(19, 184),184	3819,(4, 34),30	3849,(4, 41),6	3855,(4, 42),10	3865,(4, 44),2	3867,(4, 45),28	3895,(5, 174),36	3931,(5, 187),8	3939,(8, 26),6	3945,(8, 81),6	3951,(4, 59),6	3957,(8, 27),8	3965,(8, 85),36	4001,(8, 94),24	4025,(4, 73),94	4119,(4, 86),24	4143,(4, 98),2	4145,(4, 102),8	4153,(4, 107),4	4157,(4, 110),90	4247,(4, 114),16	4263,(4, 121),2	4265,(4, 151),20	4285,(4, 153),4	4289,(4, 158),4	4293,(4, 168),70	4363,(4, 173),2	4365,(4, 176),100	4465,(4, 178),26	4491,(4, 183),118	4609,(4, 186),36	4645,(4, 197),2	4647,(4, 199),4	4651,(1, 27),6	4657,(8, 175),2	4659,(1, 32),6	4665,(1, 35),10	4675,(1, 53),12	4687,(1, 57),30	4717,(8, 115),16	4733,(8, 116),4	4737,(8, 152),8	4745,(8, 166),6	4751,(1, 85),78	4829,(1, 89),116	4945,(1, 90),40	4985,(1, 105),40	5025,(1, 106),6	5031,(1, 110),2	5033,(1, 119),10	5043,(1, 124),20	5063,(1, 130),4	5067,(1, 132),18	5085,(1, 136),14	5099,(1, 147),4	5103,(8, 186),4	5107,(1, 161),10	5117,(1, 165),2	5119,(1, 174),28	5147,(1, 177),2	5149,(1, 181),2	5151,(1, 182),24	5175,(1, 200),2	5177,(8, 194),4	5181,(11, 52),2	5183,(11, 81),2	5185,(13, 34),4	5189,(13, 41),50	5239,(13, 45),2	5241,(13, 47),24	5265,(13, 77),32	5297,(13, 81),26	5323,(13, 93),4	5327,(13, 95),8	5335,(13, 109),14	5349,(13, 121),2	5351,(13, 138),2	5353,(13, 149),6	5359,(13, 162),6	5365,(13, 168),16	5381,(13, 172),4	5385,(13, 173),2	5387,(13, 176),2	5389,(13, 180),18	5407,(13, 185),40	5447,(13, 196),34	5481,(13, 199),2	5483,(2, 187),228	5711,(5, 88),374	6085,(8, 95),50	6135,(8, 98),62	6197,(8, 100),246	6443,(8, 120),18	6461,(8, 125),2600	9061,(8, 126),44	9105,(8, 170),26	9131,(8, 188),50	9181,(8, 198),6	9187,(28, 201),10	9197,(11, 44),22	9219,(11, 48),22	9241,(11, 55),36	9277,(11, 73),14	9291,(11, 75),20	9311,(11, 118),6	9317,(11, 127),88	9405,(11, 128),10	9415,(11, 131),6	9421,(11, 136),66	9487,(11, 138),4	9491,(11, 157),58	9549,(11, 169),2	9551,(11, 170),22	9573,(11, 171),20	9593,(11, 177),20	9613,(11, 180),70	9683,(11, 181),18	9701,(11, 190),8	9709,(11, 193),68	9777,(11, 195),6	9783,(82, 201),10	9793,(14, 49),8	9801,(14, 70),20	9821,(14, 76),14	9835,(14, 93),24	9859,(14, 116),6	9865,(14, 135),10	9875,(14, 138),68	9943,(14, 139),2	9945,(14, 141),216	10161,(14, 145),14	10175,(14, 184),8	10183,(14, 190),2	10185,(14, 193),14	10199,(14, 200),12	10211,(21, 201),10	10221,(17, 46),2	10223,(17, 70),8	10231,(17, 76),4	10235,(17, 77),2	10237,(17, 89),2	10239,(17, 99),18	10257,(17, 101),2	10259,(17, 103),10	10269,(17, 109),6	10275,(17, 112),24	10299,(17, 119),8	10307,(17, 120),158	10465,(17, 122),2	10467,(17, 130),152	10619,(17, 131),12	10631,(17, 137),14	10645,(17, 146),36	10681,(17, 152),2	10683,(17, 157),30	10713,(17, 164),2	10715,(17, 168),4	10719,(17, 172),54	10773,(17, 174),62	10835,(17, 182),16	10851,(17, 185),2	10853,(17, 186),10	10863,(17, 192),8	10871,(17, 193),6	10877,(17, 194),34	10911,(17, 195),78	10989,(17, 198),156	11145,(17, 200),2	11147,(20, 34),28	11175,(20, 35),12	11187,(20, 39),42	11229,(20, 42),26	11255,(20, 61),4	11259,(20, 79),14	11273,(20, 88),60	11333,(20, 91),12	11345,(20, 99),2	11347,(20, 107),40	11387,(20, 108),22	11409,(20, 113),2	11411,(20, 127),10	11421,(20, 128),16	11437,(20, 132),4	11441,(20, 139),12	11453,(20, 140),2	11455,(20, 142),2	11457,(20, 143),52	11509,(20, 152),18	11527,(20, 153),38	11565,(20, 155),2	11567,(20, 156),2	11569,(20, 159),2	11571,(20, 160),4	11575,(20, 168),2	11577,(20, 172),42	11619,(20, 182),10	11629,(20, 195),4	11633,(20, 197),2	11635,(23, 201),10	11645,(22, 201),10	11655,(54, 201),10	11665,(63, 201),10	11675,(87, 201),10	11685,(29, 201),10	11695,(62, 201),10	11705,(69, 201),10	11715,(24, 201),10	11725,(56, 201),10	11735,(60, 201),10	11745,(64, 201),10	11755,(30, 201),10	11765,(58, 201),10	11775,(71, 201),10	11785,(150, 201),10	11795,(25, 201),10	
1,(0, 2),22	45,(0, 5),22	89,(0, 8),22	111,(6, 58),2	133,(0, 11),22	155,(9, 24),2	157,(9, 62),8	177,(0, 14),22	221,(0, 17),22	243,(12, 29),12	265,(0, 20),22	287,(10, 29),4	291,(3, 150),34	347,(10, 64),48	395,(12, 25),48	443,(12, 54),10	453,(15, 25),8	507,(10, 87),366	873,(15, 64),98	971,(18, 24),2	1069,(16, 25),24	1093,(16, 29),16	1109,(16, 30),92	1233,(16, 62),224	1457,(9, 71),250	2011,(7, 58),4	2015,(6, 24),938	2971,(19, 56),8	2979,(19, 60),42	3021,(19, 64),104	3895,(4, 56),56	3957,(4, 60),16	3973,(4, 64),52	4657,(1, 30),2	4717,(1, 58),30	4747,(1, 71),4	5103,(1, 150),4	5177,(13, 25),8	
46,(3, 28),8	54,(3, 63),2	90,(6, 23),14	112,(8, 23),2	134,(9, 28),6	156,(11, 23),6	162,(11, 63),2	165,(9, 63),72	237,(12, 63),2	239,(15, 21),2	243,(11, 22),16	259,(12, 22),18	291,(17, 23),14	325,(12, 23),30	355,(18, 22),34	461,(15, 63),126	873,(14, 69),176	2015,(17, 69),830	
# Outgoing
46,(3, 28),8	54,(3, 63),2	90,(6, 23),14	111,(6, 58),2	134,(9, 28),6	155,(9, 24),2	157,(9, 62),8	165,(9, 63),72	237,(12, 63),2	239,(15, 21),2	243,(12, 29),12	259,(12, 22),18	291,(3, 150),34	325,(12, 23),30	355,(18, 22),34	395,(12, 25),48	443,(12, 54),10	453,(15, 25),8	461,(15, 63),126	873,(15, 64),98	971,(18, 24),2	1457,(9, 71),250	2015,(6, 24),938	
45,(2, 32),8	53,(2, 37),2	55,(2, 42),2	57,(2, 44),2	59,(2, 49),2	61,(2, 105),2	63,(2, 120),4	89,(2, 83),8	97,(2, 110),6	103,(2, 134),2	105,(2, 135),4	109,(2, 174),2	112,(8, 23),2	133,(2, 136),6	139,(2, 141),4	143,(2, 180),2	145,(2, 199),2	147,(5, 35),2	149,(5, 100),2	151,(5, 112),2	153,(5, 121),2	156,(11, 23),6	162,(11, 63),2	177,(2, 139),20	197,(5, 129),2	221,(2, 189),12	233,(5, 41),8	241,(8, 40),2	243,(11, 22),16	265,(2, 46),26	291,(17, 23),14	347,(2, 94),48	507,(2, 45),184	691,(2, 144),26	717,(2, 162),48	765,(5, 31),36	801,(5, 38),12	813,(5, 93),44	857,(5, 99),12	869,(5, 158),4	873,(14, 69),176	1069,(5, 92),68	1137,(5, 104),64	1233,(5, 106),104	1337,(5, 107),62	1399,(5, 113),8	1407,(5, 124),6	1413,(5, 140),8	1421,(5, 142),8	1429,(5, 144),14	1443,(5, 175),4	1447,(5, 177),8	1455,(8, 43),2	2011,(8, 49),2	2013,(8, 88),2	2015,(17, 69),830	2971,(5, 153),44	3015,(5, 156),42	3057,(5, 159),22	3079,(5, 164),20	3099,(5, 181),22	3121,(8, 104),2	3123,(8, 158),2	3895,(5, 174),36	3931,(5, 187),8	3939,(8, 26),6	3945,(8, 81),6	3957,(8, 27),8	3965,(8, 85),36	4001,(8, 94),24	4657,(8, 175),2	4717,(8, 115),16	4733,(8, 116),4	4737,(8, 152),8	4745,(8, 166),6	5103,(8, 186),4	5177,(8, 194),4	5181,(11, 52),2	5183,(11, 81),2	5483,(2, 187),228	5711,(5, 88),374	6085,(8, 95),50	6135,(8, 98),62	6197,(8, 100),246	6443,(8, 120),18	6461,(8, 125),2600	9061,(8, 126),44	9105,(8, 170),26	9131,(8, 188),50	9181,(8, 198),6	9197,(11, 44),22	9219,(11, 48),22	9241,(11, 55),36	9277,(11, 73),14	9291,(11, 75),20	9311,(11, 118),6	9317,(11, 127),88	9405,(11, 128),10	9415,(11, 131),6	9421,(11, 136),66	9487,(11, 138),4	9491,(11, 157),58	9549,(11, 169),2	9551,(11, 170),22	9573,(11, 171),20	9593,(11, 177),20	9613,(11, 180),70	9683,(11, 181),18	9701,(11, 190),8	9709,(11, 193),68	9777,(11, 195),6	9783,(82, 201),10	9793,(14, 49),8	9801,(14, 70),20	9821,(14, 76),14	9835,(14, 93),24	9859,(14, 116),6	9865,(14, 135),10	9875,(14, 138),68	9943,(14, 139),2	9945,(14, 141),216	10161,(14, 145),14	10175,(14, 184),8	10183,(14, 190),2	10185,(14, 193),14	10199,(14, 200),12	10221,(17, 46),2	10223,(17, 70),8	10231,(17, 76),4	10235,(17, 77),2	10237,(17, 89),2	10239,(17, 99),18	10257,(17, 101),2	10259,(17, 103),10	10269,(17, 109),6	10275,(17, 112),24	10299,(17, 119),8	10307,(17, 120),158	10465,(17, 122),2	10467,(17, 130),152	10619,(17, 131),12	10631,(17, 137),14	10645,(17, 146),36	10681,(17, 152),2	10683,(17, 157),30	10713,(17, 164),2	10715,(17, 168),4	10719,(17, 172),54	10773,(17, 174),62	10835,(17, 182),16	10851,(17, 185),2	10853,(17, 186),10	10863,(17, 192),8	10871,(17, 193),6	10877,(17, 194),34	10911,(17, 195),78	10989,(17, 198),156	11145,(17, 200),2	11147,(20, 34),28	11175,(20, 35),12	11187,(20, 39),42	11229,(20, 42),26	11255,(20, 61),4	11259,(20, 79),14	11273,(20, 88),60	11333,(20, 91),12	11345,(20, 99),2	11347,(20, 107),40	11387,(20, 108),22	11409,(20, 113),2	11411,(20, 127),10	11421,(20, 128),16	11437,(20, 132),4	11441,(20, 139),12	11453,(20, 140),2	11455,(20, 142),2	11457,(20, 143),52	11509,(20, 152),18	11527,(20, 153),38	11565,(20, 155),2	11567,(20, 156),2	11569,(20, 159),2	11571,(20, 160),4	11575,(20, 168),2	11577,(20, 172),42	11619,(20, 182),10	11629,(20, 195),4	11633,(20, 197),2	11655,(54, 201),10	11675,(87, 201),10	11685,(29, 201),10	11695,(62, 201),10	11715,(24, 201),10	11725,(56, 201),10	11735,(60, 201),10	11745,(64, 201),10	11755,(30, 201),10	11765,(58, 201),10	11775,(71, 201),10	11785,(150, 201),10	11795,(25, 201),10	
1,(0, 2),22	23,(0, 3),22	45,(0, 5),22	67,(0, 6),22	89,(0, 8),22	111,(0, 9),22	133,(0, 11),22	155,(0, 12),22	177,(0, 14),22	199,(0, 15),22	221,(0, 17),22	243,(0, 18),22	265,(0, 20),22	287,(10, 29),4	291,(10, 31),12	303,(10, 36),12	315,(10, 38),4	319,(10, 44),22	341,(10, 53),4	345,(10, 59),2	347,(10, 64),48	395,(10, 72),80	475,(10, 74),2	477,(10, 79),14	491,(10, 86),16	507,(10, 87),366	873,(10, 104),2	875,(10, 114),2	877,(10, 129),28	905,(10, 131),2	907,(10, 133),14	921,(10, 148),26	947,(10, 156),14	961,(10, 160),2	963,(10, 161),12	975,(10, 172),38	1013,(10, 184),2	1015,(10, 185),24	1039,(10, 191),30	1069,(16, 25),24	1093,(16, 29),16	1109,(16, 30),92	1201,(16, 33),16	1217,(16, 42),6	1223,(16, 53),10	1233,(16, 62),224	1457,(16, 65),70	1527,(16, 75),38	1565,(16, 79),34	1599,(16, 86),2	1601,(16, 96),20	1621,(16, 98),2	1623,(16, 100),8	1631,(16, 113),52	1683,(16, 119),4	1687,(16, 133),2	1689,(16, 135),4	1693,(16, 139),4	1697,(16, 174),14	1711,(16, 179),282	1993,(7, 40),2	1995,(7, 50),2	1997,(7, 53),2	1999,(7, 57),12	2011,(7, 58),4	2015,(7, 66),18	2033,(7, 72),146	2179,(7, 78),8	2187,(7, 91),2	2189,(7, 92),2	2191,(7, 93),6	2197,(7, 97),50	2247,(7, 99),2	2249,(7, 108),2	2251,(7, 111),114	2365,(7, 121),14	2379,(7, 123),2	2381,(7, 125),16	2397,(7, 133),2	2399,(7, 158),34	2433,(7, 170),26	2459,(7, 175),132	2591,(7, 188),14	2605,(7, 189),16	2621,(7, 190),232	2853,(7, 197),2	2855,(19, 34),6	2861,(19, 35),16	2877,(19, 52),90	2967,(19, 53),4	2971,(19, 56),8	2979,(19, 60),42	3021,(19, 64),104	3125,(19, 67),14	3139,(19, 68),2	3141,(19, 78),2	3143,(19, 111),10	3153,(19, 112),2	3155,(19, 115),118	3273,(19, 124),6	3279,(19, 136),86	3365,(19, 143),2	3367,(19, 145),10	3377,(19, 146),2	3379,(19, 153),2	3381,(19, 157),2	3383,(19, 158),12	3395,(19, 164),162	3557,(19, 167),2	3559,(19, 176),58	3617,(19, 181),18	3635,(19, 184),184	3819,(4, 34),30	3849,(4, 41),6	3855,(4, 42),10	3865,(4, 44),2	3867,(4, 45),28	3895,(4, 56),56	3951,(4, 59),6	3957,(4, 60),16	3973,(4, 64),52	4025,(4, 73),94	4119,(4, 86),24	4143,(4, 98),2	4145,(4, 102),8	4153,(4, 107),4	4157,(4, 110),90	4247,(4, 114),16	4263,(4, 121),2	4265,(4, 151),20	4285,(4, 153),4	4289,(4, 158),4	4293,(4, 168),70	4363,(4, 173),2	4365,(4, 176),100	4465,(4, 178),26	4491,(4, 183),118	4609,(4, 186),36	4645,(4, 197),2	4647,(4, 199),4	4651,(1, 27),6	4657,(1, 30),2	4659,(1, 32),6	4665,(1, 35),10	4675,(1, 53),12	4687,(1, 57),30	4717,(1, 58),30	4747,(1, 71),4	4751,(1, 85),78	4829,(1, 89),116	4945,(1, 90),40	4985,(1, 105),40	5025,(1, 106),6	5031,(1, 110),2	5033,(1, 119),10	5043,(1, 124),20	5063,(1, 130),4	5067,(1, 132),18	5085,(1, 136),14	5099,(1, 147),4	5103,(1, 150),4	5107,(1, 161),10	5117,(1, 165),2	5119,(1, 174),28	5147,(1, 177),2	5149,(1, 181),2	5151,(1, 182),24	5175,(1, 200),2	5177,(13, 25),8	5185,(13, 34),4	5189,(13, 41),50	5239,(13, 45),2	5241,(13, 47),24	5265,(13, 77),32	5297,(13, 81),26	5323,(13, 93),4	5327,(13, 95),8	5335,(13, 109),14	5349,(13, 121),2	5351,(13, 138),2	5353,(13, 149),6	5359,(13, 162),6	5365,(13, 168),16	5381,(13, 172),4	5385,(13, 173),2	5387,(13, 176),2	5389,(13, 180),18	5407,(13, 185),40	5447,(13, 196),34	5481,(13, 199),2	9187,(28, 201),10	10211,(21, 201),10	11635,(23, 201),10	11645,(22, 201),10	11665,(63, 201),10	11705,(69, 201),10	
