2393
# CPU
241,18,1	244,23,1	247,36,1	280,27,1	349,30,1	418,34,1	553,25,1	592,26,1	682,37,1	691,38,1	703,39,1	718,15,1	724,19,1	736,22,1	805,32,1	835,20,1	838,24,1	910,29,1	964,31,1	967,33,1	1765,40,1	
19,4,1	20,28,1	37,10,1	103,17,1	253,16,1	
13,3,1	16,8,1	25,12,1	127,14,1	133,11,1	154,13,1	
7,2,1	47,7,1	296,9,1	595,21,1	2392,41,1	
0,0,1	1,1,1	2,5,1	185,6,1	1720,35,1	
# Incoming
127,(1, 15),105	232,(2, 18),9	241,(2, 23),3	244,(2, 36),3	247,(4, 15),3	250,(4, 19),3	253,(1, 20),9	262,(1, 25),9	271,(1, 26),3	274,(1, 27),6	280,(1, 30),69	349,(1, 33),42	391,(1, 34),27	418,(2, 24),75	493,(2, 25),60	553,(2, 26),39	592,(2, 32),15	607,(2, 37),75	682,(2, 38),9	691,(2, 39),12	703,(3, 15),15	718,(3, 19),6	724,(3, 22),12	736,(3, 29),42	778,(3, 32),27	805,(4, 20),30	835,(4, 24),3	838,(4, 29),72	910,(4, 31),54	964,(4, 33),3	1720,(4, 40),45	
13,(0, 4),6	19,(1, 10),18	37,(2, 17),66	232,(1, 16),21	
7,(0, 3),6	13,(2, 8),3	16,(2, 12),9	37,(1, 14),90	127,(4, 11),6	133,(4, 13),21	
1,(0, 2),6	20,(4, 7),27	47,(28, 41),57	185,(3, 9),111	296,(3, 21),12	308,(8, 41),57	418,(5, 41),57	475,(4, 21),120	595,(12, 41),57	652,(10, 41),57	709,(17, 41),57	805,(14, 41),57	862,(11, 41),57	919,(13, 41),57	976,(6, 41),57	1033,(18, 41),57	1090,(23, 41),57	1147,(36, 41),57	1204,(27, 41),57	1261,(30, 41),57	1318,(34, 41),57	1375,(25, 41),57	1432,(26, 41),57	1489,(37, 41),57	1546,(38, 41),57	1603,(39, 41),57	1660,(15, 41),57	1765,(16, 41),57	1822,(19, 41),57	1879,(22, 41),57	1936,(32, 41),57	1993,(20, 41),57	2050,(24, 41),57	2107,(29, 41),57	2164,(31, 41),57	2221,(33, 41),57	2278,(35, 41),57	2335,(40, 41),57	
14,(3, 6),171	967,(4, 35),753	
# Outgoing
1033,(18, 41),57	1090,(23, 41),57	1147,(36, 41),57	1204,(27, 41),57	1261,(30, 41),57	1318,(34, 41),57	1375,(25, 41),57	1432,(26, 41),57	1489,(37, 41),57	1546,(38, 41),57	1603,(39, 41),57	1660,(15, 41),57	1822,(19, 41),57	1879,(22, 41),57	1936,(32, 41),57	1993,(20, 41),57	2050,(24, 41),57	2107,(29, 41),57	2164,(31, 41),57	2221,(33, 41),57	2335,(40, 41),57	
20,(4, 7),27	47,(28, 41),57	127,(4, 11),6	133,(4, 13),21	247,(4, 15),3	250,(4, 19),3	475,(4, 21),120	652,(10, 41),57	709,(17, 41),57	805,(4, 20),30	835,(4, 24),3	838,(4, 29),72	910,(4, 31),54	964,(4, 33),3	967,(4, 35),753	1720,(4, 40),45	1765,(16, 41),57	
14,(3, 6),171	185,(3, 9),111	296,(3, 21),12	308,(8, 41),57	595,(12, 41),57	703,(3, 15),15	718,(3, 19),6	724,(3, 22),12	736,(3, 29),42	778,(3, 32),27	805,(14, 41),57	862,(11, 41),57	919,(13, 41),57	
13,(2, 8),3	16,(2, 12),9	37,(2, 17),66	232,(2, 18),9	241,(2, 23),3	244,(2, 36),3	418,(2, 24),75	493,(2, 25),60	553,(2, 26),39	592,(2, 32),15	607,(2, 37),75	682,(2, 38),9	691,(2, 39),12	
1,(0, 2),6	7,(0, 3),6	13,(0, 4),6	19,(1, 10),18	37,(1, 14),90	127,(1, 15),105	232,(1, 16),21	253,(1, 20),9	262,(1, 25),9	271,(1, 26),3	274,(1, 27),6	280,(1, 30),69	349,(1, 33),42	391,(1, 34),27	418,(5, 41),57	976,(6, 41),57	2278,(35, 41),57	
