219
# CPU
0,0,1	1,3,5	6,35,5	11,30,5	16,78,5	21,43,5	26,2,5	31,56,5	36,9,5	41,77,5	46,54,5	51,45,5	56,53,5	61,8,5	66,55,5	71,25,5	76,59,5	81,16,5	86,5,5	91,75,5	96,62,5	101,24,5	106,58,5	111,49,5	116,76,5	121,67,5	126,19,5	131,69,5	218,81,1	
4,1,5	9,23,5	14,42,5	19,47,5	24,68,5	29,39,5	34,73,5	39,74,5	44,14,5	49,33,5	54,20,5	59,6,5	64,44,5	69,70,5	74,60,5	79,63,5	84,29,5	89,17,5	94,27,5	99,10,5	104,50,5	109,66,5	114,64,5	119,41,5	124,52,5	129,11,5	134,65,5	
7,4,5	12,18,5	17,21,5	22,31,5	27,71,5	32,72,5	37,7,5	42,79,5	47,26,5	52,36,5	57,51,5	62,32,5	67,40,5	72,22,5	77,34,5	82,37,5	87,80,5	92,13,5	97,15,5	102,12,5	107,48,5	112,28,5	117,57,5	122,46,5	127,38,5	132,61,5	
# Incoming
14,(23, 81),4	19,(42, 81),4	24,(47, 81),4	29,(68, 81),4	34,(39, 81),4	39,(73, 81),4	44,(74, 81),4	49,(18, 81),4	53,(21, 81),4	57,(14, 81),4	62,(31, 81),4	66,(71, 81),4	70,(72, 81),4	74,(79, 81),4	78,(26, 81),4	82,(33, 81),4	86,(36, 81),4	90,(20, 81),4	94,(51, 81),4	98,(32, 81),4	102,(44, 81),4	106,(40, 81),4	110,(70, 81),4	114,(22, 81),4	118,(60, 81),4	122,(34, 81),4	126,(63, 81),4	130,(37, 81),4	134,(29, 81),4	138,(80, 81),4	142,(17, 81),4	146,(13, 81),4	150,(27, 81),4	154,(15, 81),4	158,(10, 81),4	162,(12, 81),4	166,(50, 81),4	170,(48, 81),4	174,(66, 81),4	178,(28, 81),4	182,(64, 81),4	186,(57, 81),4	190,(41, 81),4	194,(46, 81),4	198,(52, 81),4	202,(38, 81),4	206,(11, 81),4	210,(61, 81),4	214,(65, 81),4	
1,(0, 1),3	7,(0, 6),3	13,(3, 66),1	19,(3, 41),4	31,(2, 20),3	42,(7, 14),1	43,(7, 33),1	44,(7, 66),1	45,(4, 64),2	47,(4, 41),2	49,(3, 11),9	58,(7, 11),4	72,(8, 52),12	84,(3, 65),7	93,(5, 50),1	94,(5, 41),6	108,(2, 65),24	
4,(0, 4),3	9,(1, 72),1	10,(0, 7),3	14,(3, 28),5	23,(3, 46),4	34,(2, 28),1	35,(2, 57),3	38,(3, 38),7	45,(2, 61),4	64,(6, 48),1	66,(8, 80),1	67,(8, 15),1	68,(8, 48),4	72,(6, 57),4	76,(6, 46),3	91,(5, 13),1	92,(5, 12),1	100,(8, 61),8	
# Outgoing
1,(0, 1),3	4,(0, 4),3	7,(0, 6),3	10,(0, 7),3	13,(3, 66),1	14,(3, 28),5	19,(3, 41),4	23,(3, 46),4	31,(2, 20),3	34,(2, 28),1	35,(2, 57),3	38,(3, 38),7	45,(2, 61),4	49,(3, 11),9	66,(8, 80),1	67,(8, 15),1	68,(8, 48),4	72,(8, 52),12	84,(3, 65),7	91,(5, 13),1	92,(5, 12),1	93,(5, 50),1	94,(5, 41),6	100,(8, 61),8	108,(2, 65),24	
9,(1, 72),1	14,(23, 81),4	19,(42, 81),4	24,(47, 81),4	29,(68, 81),4	34,(39, 81),4	39,(73, 81),4	44,(74, 81),4	57,(14, 81),4	64,(6, 48),1	72,(6, 57),4	76,(6, 46),3	82,(33, 81),4	90,(20, 81),4	102,(44, 81),4	110,(70, 81),4	118,(60, 81),4	126,(63, 81),4	134,(29, 81),4	142,(17, 81),4	150,(27, 81),4	158,(10, 81),4	166,(50, 81),4	174,(66, 81),4	182,(64, 81),4	190,(41, 81),4	198,(52, 81),4	206,(11, 81),4	214,(65, 81),4	
42,(7, 14),1	43,(7, 33),1	44,(7, 66),1	45,(4, 64),2	47,(4, 41),2	49,(18, 81),4	53,(21, 81),4	58,(7, 11),4	62,(31, 81),4	66,(71, 81),4	70,(72, 81),4	74,(79, 81),4	78,(26, 81),4	86,(36, 81),4	94,(51, 81),4	98,(32, 81),4	106,(40, 81),4	114,(22, 81),4	122,(34, 81),4	130,(37, 81),4	138,(80, 81),4	146,(13, 81),4	154,(15, 81),4	162,(12, 81),4	170,(48, 81),4	178,(28, 81),4	186,(57, 81),4	194,(46, 81),4	202,(38, 81),4	210,(61, 81),4	
