3154
# CPU
71,10,6	77,15,6	83,31,6	89,79,6	95,83,6	101,106,6	107,81,6	113,61,6	119,53,6	125,119,6	131,16,6	153,18,6	164,29,6	216,59,6	224,58,6	230,98,6	1539,105,6	2304,113,6	2452,117,6	2582,39,6	2864,74,6	2874,86,6	2933,97,6	3153,121,1	
41,6,6	47,103,6	61,9,6	67,35,6	73,120,6	79,78,6	85,92,6	91,70,6	97,12,6	103,56,6	109,14,6	115,42,6	121,48,6	127,89,6	133,108,6	139,19,6	145,23,6	151,73,6	157,104,6	1544,37,6	1550,52,6	1556,71,6	1565,107,6	1571,50,6	1577,66,6	1584,68,6	
11,3,6	17,67,6	23,82,6	31,5,6	37,13,6	43,51,6	49,55,6	55,96,6	61,8,6	67,36,6	73,111,6	79,33,6	85,94,6	91,34,6	97,99,6	103,110,6	109,40,6	115,38,6	121,75,6	159,24,6	225,77,6	1519,90,6	1525,102,6	1543,32,6	1562,80,6	
21,4,6	27,22,6	33,85,6	39,25,6	45,93,6	68,21,6	81,11,6	87,69,6	93,72,6	99,101,6	105,112,6	111,47,6	117,95,6	123,41,6	129,20,6	135,91,6	149,115,6	174,43,6	180,44,6	196,57,6	1518,87,6	1542,118,6	1567,60,6	
0,0,1	1,1,6	7,2,6	13,7,6	19,62,6	25,17,6	31,30,6	37,114,6	43,54,6	49,46,6	55,76,6	101,26,6	107,100,6	113,27,6	119,28,6	125,45,6	131,65,6	137,49,6	143,64,6	149,84,6	155,109,6	161,116,6	167,63,6	173,88,6	
# Incoming
61,(0, 10),10	71,(3, 31),1	72,(4, 15),1	73,(4, 29),2	75,(6, 113),1	76,(3, 98),1	77,(67, 121),4	81,(82, 121),4	85,(5, 16),3	88,(6, 119),1	89,(5, 29),2	91,(1, 16),17	108,(1, 18),45	153,(4, 86),3	156,(4, 117),3	159,(1, 29),5	164,(3, 74),17	181,(4, 97),12	193,(9, 39),1	194,(9, 59),1	195,(11, 74),1	196,(1, 59),20	216,(22, 121),4	220,(5, 58),4	224,(12, 98),1	225,(1, 86),1276	1501,(85, 121),4	1505,(13, 121),4	1509,(25, 121),4	1513,(51, 121),4	1520,(1, 105),19	1540,(1, 113),1	1541,(3, 117),756	2297,(7, 113),7	2304,(62, 121),4	2308,(17, 121),4	2312,(30, 121),4	2316,(114, 121),4	2320,(6, 117),132	2452,(54, 121),4	2456,(93, 121),4	2460,(103, 121),4	2464,(55, 121),4	2468,(46, 121),4	2472,(96, 121),4	2476,(76, 121),4	2480,(8, 39),21	2501,(36, 121),4	2505,(35, 121),4	2509,(21, 121),4	2513,(111, 121),4	2517,(120, 121),4	2521,(78, 121),4	2525,(33, 121),4	2529,(92, 121),4	2533,(94, 121),4	2537,(69, 121),4	2541,(70, 121),4	2545,(34, 121),4	2549,(72, 121),4	2553,(12, 39),29	2582,(12, 74),282	2864,(12, 86),10	2874,(12, 97),59	2933,(99, 121),4	2937,(101, 121),4	2941,(26, 121),4	2945,(56, 121),4	2949,(110, 121),4	2953,(112, 121),4	2957,(100, 121),4	2961,(40, 121),4	2965,(14, 121),4	2969,(47, 121),4	2973,(27, 121),4	2977,(38, 121),4	2981,(42, 121),4	2985,(95, 121),4	2989,(28, 121),4	2993,(75, 121),4	2997,(48, 121),4	3001,(41, 121),4	3005,(45, 121),4	3009,(89, 121),4	3013,(20, 121),4	3017,(65, 121),4	3021,(108, 121),4	3025,(91, 121),4	3029,(49, 121),4	3033,(19, 121),4	3037,(64, 121),4	3041,(23, 121),4	3045,(115, 121),4	3049,(84, 121),4	3053,(73, 121),4	3057,(109, 121),4	3061,(104, 121),4	3065,(24, 121),4	3069,(116, 121),4	3073,(63, 121),4	3077,(88, 121),4	3081,(43, 121),4	3085,(44, 121),4	3089,(57, 121),4	3093,(77, 121),4	3097,(87, 121),4	3101,(90, 121),4	3105,(102, 121),4	3109,(118, 121),4	3113,(32, 121),4	3117,(37, 121),4	3121,(52, 121),4	3125,(71, 121),4	3129,(80, 121),4	3133,(107, 121),4	3137,(60, 121),4	3141,(50, 121),4	3145,(66, 121),4	3149,(68, 121),4	
31,(0, 6),10	51,(0, 9),10	72,(3, 70),4	76,(4, 23),1	81,(0, 12),10	91,(10, 56),1	97,(4, 66),6	103,(8, 19),5	108,(11, 23),1	109,(11, 37),1	111,(11, 104),5	121,(8, 66),7	128,(8, 73),1	130,(8, 104),7	1539,(1, 107),1	1543,(2, 37),1	1544,(2, 52),1	1545,(2, 71),11	1562,(2, 107),3	1565,(7, 50),1	1567,(7, 66),7	1574,(7, 68),10	
1,(0, 3),10	21,(0, 5),10	41,(0, 8),10	51,(6, 36),1	54,(6, 111),1	68,(9, 24),1	70,(9, 99),2	72,(9, 110),1	75,(4, 40),1	77,(4, 38),8	85,(10, 38),1	89,(9, 90),6	103,(4, 75),1	110,(11, 90),1	119,(12, 75),1	153,(1, 24),6	216,(1, 77),9	1518,(1, 90),1	1519,(1, 102),1	1542,(2, 32),1	1556,(2, 80),6	
11,(0, 4),10	52,(6, 69),1	53,(6, 72),1	67,(9, 21),1	69,(9, 41),1	71,(0, 11),10	81,(9, 69),3	88,(5, 20),1	91,(5, 95),5	96,(8, 41),1	104,(9, 20),12	116,(12, 44),3	120,(12, 115),1	129,(8, 91),1	130,(9, 115),7	137,(8, 115),12	164,(1, 43),10	174,(1, 44),1	175,(1, 57),21	1501,(1, 87),17	1541,(1, 118),1	1566,(7, 60),1	
85,(4, 45),3	88,(4, 65),9	97,(5, 26),4	101,(5, 100),2	103,(6, 63),1	104,(4, 100),2	106,(4, 109),2	108,(5, 27),5	113,(8, 28),2	115,(8, 45),5	120,(8, 65),1	121,(9, 49),1	122,(9, 64),3	125,(11, 84),5	130,(11, 109),2	132,(11, 116),3	137,(12, 63),1	138,(12, 88),3	
# Outgoing
85,(10, 38),1	91,(10, 56),1	
51,(6, 36),1	52,(6, 69),1	53,(6, 72),1	54,(6, 111),1	67,(9, 21),1	68,(9, 24),1	69,(9, 41),1	70,(9, 99),2	72,(9, 110),1	75,(6, 113),1	81,(9, 69),3	88,(6, 119),1	89,(9, 90),6	103,(6, 63),1	104,(9, 20),12	116,(12, 44),3	119,(12, 75),1	120,(12, 115),1	121,(9, 49),1	122,(9, 64),3	130,(9, 115),7	137,(12, 63),1	138,(12, 88),3	193,(9, 39),1	194,(9, 59),1	224,(12, 98),1	2320,(6, 117),132	2460,(103, 121),4	2505,(35, 121),4	2517,(120, 121),4	2521,(78, 121),4	2529,(92, 121),4	2541,(70, 121),4	2553,(12, 39),29	2582,(12, 74),282	2864,(12, 86),10	2874,(12, 97),59	2945,(56, 121),4	2965,(14, 121),4	2981,(42, 121),4	2997,(48, 121),4	3009,(89, 121),4	3021,(108, 121),4	3033,(19, 121),4	3041,(23, 121),4	3053,(73, 121),4	3061,(104, 121),4	3117,(37, 121),4	3121,(52, 121),4	3125,(71, 121),4	3133,(107, 121),4	3141,(50, 121),4	3145,(66, 121),4	3149,(68, 121),4	
71,(3, 31),1	72,(3, 70),4	76,(3, 98),1	77,(67, 121),4	81,(82, 121),4	85,(5, 16),3	88,(5, 20),1	89,(5, 29),2	91,(5, 95),5	96,(8, 41),1	97,(5, 26),4	101,(5, 100),2	103,(8, 19),5	108,(5, 27),5	113,(8, 28),2	115,(8, 45),5	120,(8, 65),1	121,(8, 66),7	128,(8, 73),1	129,(8, 91),1	130,(8, 104),7	137,(8, 115),12	164,(3, 74),17	220,(5, 58),4	1505,(13, 121),4	1513,(51, 121),4	1541,(3, 117),756	2464,(55, 121),4	2472,(96, 121),4	2480,(8, 39),21	2501,(36, 121),4	2513,(111, 121),4	2525,(33, 121),4	2533,(94, 121),4	2545,(34, 121),4	2933,(99, 121),4	2949,(110, 121),4	2961,(40, 121),4	2977,(38, 121),4	2993,(75, 121),4	3065,(24, 121),4	3093,(77, 121),4	3101,(90, 121),4	3105,(102, 121),4	3113,(32, 121),4	3129,(80, 121),4	
72,(4, 15),1	73,(4, 29),2	75,(4, 40),1	76,(4, 23),1	77,(4, 38),8	85,(4, 45),3	88,(4, 65),9	97,(4, 66),6	103,(4, 75),1	104,(4, 100),2	106,(4, 109),2	108,(11, 23),1	109,(11, 37),1	110,(11, 90),1	111,(11, 104),5	125,(11, 84),5	130,(11, 109),2	132,(11, 116),3	153,(4, 86),3	156,(4, 117),3	181,(4, 97),12	195,(11, 74),1	216,(22, 121),4	1501,(85, 121),4	1509,(25, 121),4	2456,(93, 121),4	2509,(21, 121),4	2537,(69, 121),4	2549,(72, 121),4	2937,(101, 121),4	2953,(112, 121),4	2969,(47, 121),4	2985,(95, 121),4	3001,(41, 121),4	3013,(20, 121),4	3025,(91, 121),4	3045,(115, 121),4	3081,(43, 121),4	3085,(44, 121),4	3089,(57, 121),4	3097,(87, 121),4	3109,(118, 121),4	3137,(60, 121),4	
1,(0, 3),10	11,(0, 4),10	21,(0, 5),10	31,(0, 6),10	41,(0, 8),10	51,(0, 9),10	61,(0, 10),10	71,(0, 11),10	81,(0, 12),10	91,(1, 16),17	108,(1, 18),45	153,(1, 24),6	159,(1, 29),5	164,(1, 43),10	174,(1, 44),1	175,(1, 57),21	196,(1, 59),20	216,(1, 77),9	225,(1, 86),1276	1501,(1, 87),17	1518,(1, 90),1	1519,(1, 102),1	1520,(1, 105),19	1539,(1, 107),1	1540,(1, 113),1	1541,(1, 118),1	1542,(2, 32),1	1543,(2, 37),1	1544,(2, 52),1	1545,(2, 71),11	1556,(2, 80),6	1562,(2, 107),3	1565,(7, 50),1	1566,(7, 60),1	1567,(7, 66),7	1574,(7, 68),10	2297,(7, 113),7	2304,(62, 121),4	2308,(17, 121),4	2312,(30, 121),4	2316,(114, 121),4	2452,(54, 121),4	2468,(46, 121),4	2476,(76, 121),4	2941,(26, 121),4	2957,(100, 121),4	2973,(27, 121),4	2989,(28, 121),4	3005,(45, 121),4	3017,(65, 121),4	3029,(49, 121),4	3037,(64, 121),4	3049,(84, 121),4	3057,(109, 121),4	3069,(116, 121),4	3073,(63, 121),4	3077,(88, 121),4	
