4097
# CPU
0,0,1	1,7,28	29,2,28	57,4,28	85,9,28	113,3,28	141,104,28	169,84,28	197,16,28	225,21,28	253,26,28	281,86,28	309,71,28	337,66,28	365,113,28	393,53,28	421,109,28	449,63,28	477,110,28	505,20,28	533,33,28	561,42,28	589,59,28	617,83,28	645,29,28	673,45,28	701,69,28	729,93,28	757,32,28	785,35,28	813,23,28	841,40,28	869,61,28	897,68,28	925,70,28	953,87,28	981,98,28	1009,85,28	1037,103,28	1065,105,28	1093,65,28	
31,1,28	61,5,28	121,8,28	181,11,28	209,38,28	237,106,28	265,78,28	293,81,28	397,37,28	463,47,28	694,55,28	722,62,28	750,67,28	778,77,28	806,94,28	834,99,28	1582,13,28	1610,14,28	1638,43,28	1723,46,28	2401,111,28	2479,15,28	2507,17,28	2535,92,28	2563,116,28	2591,118,28	2619,119,28	2647,18,28	2675,19,28	2703,48,28	2731,50,28	2759,82,28	2787,90,28	2815,100,28	2843,34,28	2871,76,28	2899,102,28	2927,108,28	2955,114,28	2983,120,28	
91,6,28	119,36,28	151,10,28	211,12,28	239,27,28	267,52,28	295,95,28	323,22,28	595,41,28	1729,58,28	1762,72,28	2389,89,28	2417,88,28	2464,117,28	2674,30,28	2713,57,28	2836,24,28	2935,51,28	2963,54,28	2991,56,28	3019,74,28	3047,75,28	3075,80,28	3103,107,28	3131,28,28	3159,31,28	3187,39,28	3215,44,28	3243,49,28	3271,79,28	3299,91,28	3327,101,28	3355,25,28	3385,60,28	3451,64,28	3479,73,28	3507,96,28	3535,97,28	3563,112,28	3591,115,28	4096,121,1	
# Incoming
59,(1, 20),15	74,(1, 32),3	77,(1, 35),9	86,(1, 84),3	94,(1, 33),33	127,(1, 40),15	142,(1, 45),9	151,(6, 103),3	154,(1, 63),6	160,(1, 66),6	166,(6, 113),3	169,(1, 93),12	181,(1, 98),3	184,(1, 109),3	187,(1, 113),18	205,(5, 20),9	214,(6, 42),6	220,(6, 53),6	226,(5, 29),6	232,(5, 45),3	235,(5, 53),6	241,(5, 59),30	271,(5, 65),3	274,(5, 69),3	277,(5, 85),3	280,(5, 105),6	286,(5, 109),3	289,(5, 110),3	292,(6, 63),12	304,(6, 65),24	328,(6, 109),6	334,(8, 32),6	340,(8, 45),3	343,(8, 63),3	346,(8, 87),3	349,(8, 110),3	352,(10, 20),3	355,(10, 29),6	361,(10, 33),3	364,(10, 42),6	370,(10, 59),18	388,(10, 83),6	394,(12, 29),3	397,(8, 68),18	415,(8, 69),27	442,(8, 85),21	463,(8, 103),9	472,(10, 45),30	502,(10, 69),12	514,(10, 93),12	526,(11, 32),3	529,(11, 35),30	559,(11, 68),12	571,(11, 70),24	595,(12, 23),24	619,(12, 40),3	622,(12, 61),3	625,(12, 68),6	631,(12, 70),3	634,(11, 87),3	637,(11, 98),3	640,(11, 103),21	661,(12, 85),3	664,(12, 103),15	679,(12, 105),3	763,(11, 65),54	
1,(0, 1),30	31,(0, 5),30	91,(0, 8),30	121,(6, 15),6	127,(6, 48),3	130,(6, 76),3	133,(6, 102),3	151,(0, 11),30	181,(10, 34),3	184,(10, 46),3	187,(10, 47),18	205,(10, 100),3	211,(7, 13),3	214,(7, 18),6	220,(7, 19),6	226,(6, 120),51	277,(10, 82),9	286,(12, 15),3	289,(12, 50),3	334,(10, 118),18	355,(7, 37),42	397,(10, 62),27	424,(12, 13),9	433,(12, 19),21	454,(12, 47),9	463,(12, 99),9	526,(12, 111),3	529,(12, 118),18	547,(12, 119),12	595,(7, 50),39	673,(7, 55),21	694,(7, 62),12	706,(7, 67),3	715,(7, 77),6	739,(7, 94),3	742,(7, 99),27	1573,(7, 120),3	1576,(2, 13),6	1582,(2, 14),12	1600,(2, 43),3	1717,(2, 46),6	1723,(2, 50),6	2389,(2, 100),9	2398,(2, 111),3	2401,(2, 116),9	2464,(2, 119),3	2467,(4, 15),12	2479,(4, 17),18	2497,(4, 92),3	2500,(4, 100),3	2503,(4, 116),3	2506,(4, 118),9	2515,(4, 119),3	2518,(9, 18),18	2536,(9, 19),3	2539,(9, 48),3	2542,(9, 50),6	2548,(9, 82),3	2551,(9, 90),9	2560,(9, 100),3	2563,(3, 34),21	2584,(3, 76),6	2590,(3, 102),3	2593,(3, 108),3	2596,(3, 114),9	2605,(3, 120),3	
61,(0, 6),30	91,(1, 28),3	121,(0, 10),30	151,(1, 56),3	166,(1, 79),3	181,(0, 12),30	214,(5, 24),12	226,(7, 22),18	244,(7, 24),78	322,(7, 25),3	325,(7, 28),24	349,(7, 31),6	355,(1, 49),36	391,(5, 28),3	394,(5, 56),3	397,(7, 39),195	592,(7, 41),3	595,(1, 64),24	619,(5, 54),9	628,(5, 64),3	631,(8, 56),3	634,(7, 54),39	673,(1, 101),18	691,(8, 24),15	706,(8, 89),3	709,(7, 74),6	715,(8, 97),3	718,(8, 107),3	721,(7, 80),9	730,(7, 89),9	739,(5, 74),21	760,(11, 30),3	769,(7, 101),6	775,(7, 117),798	1573,(5, 97),21	1594,(2, 30),6	1600,(11, 74),3	1603,(2, 44),114	1717,(11, 58),12	1729,(2, 54),15	1744,(2, 56),3	1747,(2, 60),12	1759,(2, 72),3	1762,(2, 75),555	2317,(2, 89),72	2389,(8, 60),15	2404,(11, 80),3	2407,(11, 88),3	2410,(2, 117),54	2464,(1, 80),39	2503,(1, 91),102	2605,(1, 96),45	2650,(4, 24),21	2671,(4, 30),3	2674,(4, 44),27	2701,(4, 56),9	2710,(4, 57),3	2713,(4, 64),72	2785,(4, 75),42	2827,(4, 91),6	2833,(9, 24),3	2836,(9, 25),3	2839,(9, 39),63	2902,(9, 49),18	2920,(9, 51),15	2935,(9, 54),27	2962,(9, 56),15	2977,(9, 74),27	3004,(9, 75),3	3007,(9, 79),30	3037,(9, 80),3	3040,(9, 91),3	3043,(9, 97),3	3046,(9, 101),33	3079,(9, 107),3	3082,(3, 28),3	3085,(3, 31),3	3088,(3, 39),3	3091,(3, 44),3	3094,(3, 49),21	3115,(3, 79),3	3118,(8, 91),141	3259,(8, 101),27	3286,(104, 121),9	3295,(84, 121),9	3304,(11, 25),15	3319,(11, 60),66	3385,(11, 64),66	3451,(11, 73),9	3460,(11, 96),6	3466,(11, 97),3	3469,(11, 112),3	3472,(11, 115),3	3475,(16, 121),9	3484,(38, 121),9	3493,(21, 121),9	3502,(106, 121),9	3511,(26, 121),9	3520,(78, 121),9	3529,(86, 121),9	3538,(81, 121),9	3547,(71, 121),9	3556,(66, 121),9	3565,(113, 121),9	3574,(53, 121),9	3583,(37, 121),9	3592,(109, 121),9	3601,(63, 121),9	3610,(47, 121),9	3619,(110, 121),9	3628,(20, 121),9	3637,(33, 121),9	3646,(42, 121),9	3655,(59, 121),9	3664,(83, 121),9	3673,(29, 121),9	3682,(45, 121),9	3691,(55, 121),9	3700,(69, 121),9	3709,(62, 121),9	3718,(93, 121),9	3727,(67, 121),9	3736,(32, 121),9	3745,(77, 121),9	3754,(35, 121),9	3763,(94, 121),9	3772,(23, 121),9	3781,(99, 121),9	3790,(40, 121),9	3799,(61, 121),9	3808,(68, 121),9	3817,(70, 121),9	3826,(87, 121),9	3835,(98, 121),9	3844,(85, 121),9	3853,(103, 121),9	3862,(105, 121),9	3871,(65, 121),9	3880,(13, 121),9	3889,(14, 121),9	3898,(43, 121),9	3907,(46, 121),9	3916,(111, 121),9	3925,(15, 121),9	3934,(17, 121),9	3943,(92, 121),9	3952,(116, 121),9	3961,(118, 121),9	3970,(119, 121),9	3979,(18, 121),9	3988,(19, 121),9	3997,(48, 121),9	4006,(50, 121),9	4015,(82, 121),9	4024,(90, 121),9	4033,(100, 121),9	4042,(34, 121),9	4051,(76, 121),9	4060,(102, 121),9	4069,(108, 121),9	4078,(114, 121),9	4087,(120, 121),9	
# Outgoing
1,(0, 1),30	31,(0, 5),30	61,(0, 6),30	91,(0, 8),30	121,(0, 10),30	151,(0, 11),30	181,(0, 12),30	211,(7, 13),3	214,(7, 18),6	220,(7, 19),6	226,(7, 22),18	244,(7, 24),78	322,(7, 25),3	325,(7, 28),24	349,(7, 31),6	355,(7, 37),42	397,(7, 39),195	592,(7, 41),3	595,(7, 50),39	634,(7, 54),39	673,(7, 55),21	694,(7, 62),12	706,(7, 67),3	709,(7, 74),6	715,(7, 77),6	721,(7, 80),9	730,(7, 89),9	739,(7, 94),3	742,(7, 99),27	769,(7, 101),6	775,(7, 117),798	1573,(7, 120),3	1576,(2, 13),6	1582,(2, 14),12	1594,(2, 30),6	1600,(2, 43),3	1603,(2, 44),114	1717,(2, 46),6	1723,(2, 50),6	1729,(2, 54),15	1744,(2, 56),3	1747,(2, 60),12	1759,(2, 72),3	1762,(2, 75),555	2317,(2, 89),72	2389,(2, 100),9	2398,(2, 111),3	2401,(2, 116),9	2410,(2, 117),54	2464,(2, 119),3	2467,(4, 15),12	2479,(4, 17),18	2497,(4, 92),3	2500,(4, 100),3	2503,(4, 116),3	2506,(4, 118),9	2515,(4, 119),3	2518,(9, 18),18	2536,(9, 19),3	2539,(9, 48),3	2542,(9, 50),6	2548,(9, 82),3	2551,(9, 90),9	2560,(9, 100),3	2563,(3, 34),21	2584,(3, 76),6	2590,(3, 102),3	2593,(3, 108),3	2596,(3, 114),9	2605,(3, 120),3	2650,(4, 24),21	2671,(4, 30),3	2674,(4, 44),27	2701,(4, 56),9	2710,(4, 57),3	2713,(4, 64),72	2785,(4, 75),42	2827,(4, 91),6	2833,(9, 24),3	2836,(9, 25),3	2839,(9, 39),63	2902,(9, 49),18	2920,(9, 51),15	2935,(9, 54),27	2962,(9, 56),15	2977,(9, 74),27	3004,(9, 75),3	3007,(9, 79),30	3037,(9, 80),3	3040,(9, 91),3	3043,(9, 97),3	3046,(9, 101),33	3079,(9, 107),3	3082,(3, 28),3	3085,(3, 31),3	3088,(3, 39),3	3091,(3, 44),3	3094,(3, 49),21	3115,(3, 79),3	3286,(104, 121),9	3295,(84, 121),9	3475,(16, 121),9	3493,(21, 121),9	3511,(26, 121),9	3529,(86, 121),9	3547,(71, 121),9	3556,(66, 121),9	3565,(113, 121),9	3574,(53, 121),9	3592,(109, 121),9	3601,(63, 121),9	3619,(110, 121),9	3628,(20, 121),9	3637,(33, 121),9	3646,(42, 121),9	3655,(59, 121),9	3664,(83, 121),9	3673,(29, 121),9	3682,(45, 121),9	3700,(69, 121),9	3718,(93, 121),9	3736,(32, 121),9	3754,(35, 121),9	3772,(23, 121),9	3790,(40, 121),9	3799,(61, 121),9	3808,(68, 121),9	3817,(70, 121),9	3826,(87, 121),9	3835,(98, 121),9	3844,(85, 121),9	3853,(103, 121),9	3862,(105, 121),9	3871,(65, 121),9	
59,(1, 20),15	74,(1, 32),3	77,(1, 35),9	86,(1, 84),3	91,(1, 28),3	94,(1, 33),33	127,(1, 40),15	142,(1, 45),9	151,(1, 56),3	154,(1, 63),6	160,(1, 66),6	166,(1, 79),3	169,(1, 93),12	181,(1, 98),3	184,(1, 109),3	187,(1, 113),18	205,(5, 20),9	214,(5, 24),12	226,(5, 29),6	232,(5, 45),3	235,(5, 53),6	241,(5, 59),30	271,(5, 65),3	274,(5, 69),3	277,(5, 85),3	280,(5, 105),6	286,(5, 109),3	289,(5, 110),3	334,(8, 32),6	340,(8, 45),3	343,(8, 63),3	346,(8, 87),3	349,(8, 110),3	355,(1, 49),36	391,(5, 28),3	394,(5, 56),3	397,(8, 68),18	415,(8, 69),27	442,(8, 85),21	463,(8, 103),9	526,(11, 32),3	529,(11, 35),30	559,(11, 68),12	571,(11, 70),24	595,(1, 64),24	619,(5, 54),9	628,(5, 64),3	631,(8, 56),3	634,(11, 87),3	637,(11, 98),3	640,(11, 103),21	673,(1, 101),18	691,(8, 24),15	706,(8, 89),3	715,(8, 97),3	718,(8, 107),3	739,(5, 74),21	760,(11, 30),3	763,(11, 65),54	1573,(5, 97),21	1600,(11, 74),3	1717,(11, 58),12	2389,(8, 60),15	2404,(11, 80),3	2407,(11, 88),3	2464,(1, 80),39	2503,(1, 91),102	2605,(1, 96),45	3118,(8, 91),141	3259,(8, 101),27	3304,(11, 25),15	3319,(11, 60),66	3385,(11, 64),66	3451,(11, 73),9	3460,(11, 96),6	3466,(11, 97),3	3469,(11, 112),3	3472,(11, 115),3	3484,(38, 121),9	3502,(106, 121),9	3520,(78, 121),9	3538,(81, 121),9	3583,(37, 121),9	3610,(47, 121),9	3691,(55, 121),9	3709,(62, 121),9	3727,(67, 121),9	3745,(77, 121),9	3763,(94, 121),9	3781,(99, 121),9	3880,(13, 121),9	3889,(14, 121),9	3898,(43, 121),9	3907,(46, 121),9	3916,(111, 121),9	3925,(15, 121),9	3934,(17, 121),9	3943,(92, 121),9	3952,(116, 121),9	3961,(118, 121),9	3970,(119, 121),9	3979,(18, 121),9	3988,(19, 121),9	3997,(48, 121),9	4006,(50, 121),9	4015,(82, 121),9	4024,(90, 121),9	4033,(100, 121),9	4042,(34, 121),9	4051,(76, 121),9	4060,(102, 121),9	4069,(108, 121),9	4078,(114, 121),9	4087,(120, 121),9	
121,(6, 15),6	127,(6, 48),3	130,(6, 76),3	133,(6, 102),3	151,(6, 103),3	166,(6, 113),3	181,(10, 34),3	184,(10, 46),3	187,(10, 47),18	205,(10, 100),3	214,(6, 42),6	220,(6, 53),6	226,(6, 120),51	277,(10, 82),9	286,(12, 15),3	289,(12, 50),3	292,(6, 63),12	304,(6, 65),24	328,(6, 109),6	334,(10, 118),18	352,(10, 20),3	355,(10, 29),6	361,(10, 33),3	364,(10, 42),6	370,(10, 59),18	388,(10, 83),6	394,(12, 29),3	397,(10, 62),27	424,(12, 13),9	433,(12, 19),21	454,(12, 47),9	463,(12, 99),9	472,(10, 45),30	502,(10, 69),12	514,(10, 93),12	526,(12, 111),3	529,(12, 118),18	547,(12, 119),12	595,(12, 23),24	619,(12, 40),3	622,(12, 61),3	625,(12, 68),6	631,(12, 70),3	661,(12, 85),3	664,(12, 103),15	679,(12, 105),3	
