522
# CPU
8,2,1	9,14,1	10,57,1	11,59,1	12,78,1	13,15,1	14,32,1	15,4,1	16,11,1	17,41,1	18,60,1	19,72,1	20,63,1	21,51,1	22,54,1	23,16,1	24,19,1	25,33,1	26,6,1	27,10,1	28,39,1	29,64,1	30,74,1	31,65,1	32,43,1	33,46,1	34,26,1	35,31,1	36,38,1	37,8,1	38,20,1	39,23,1	40,34,1	41,44,1	42,36,1	43,24,1	44,53,1	45,56,1	46,68,1	47,76,1	48,58,1	49,61,1	50,22,1	51,25,1	130,48,1	174,62,1	177,66,1	190,17,1	197,18,1	209,27,1	217,30,1	220,37,1	222,49,1	224,52,1	233,21,1	246,40,1	247,45,1	256,50,1	266,12,1	267,13,1	275,28,1	276,35,1	277,42,1	279,47,1	280,55,1	285,70,1	293,80,1	
0,0,1	1,3,1	2,7,1	3,1,1	4,5,1	5,79,1	6,69,1	7,75,1	11,9,1	201,29,1	202,71,1	228,77,1	285,67,1	336,73,1	521,81,1	
# Incoming
1,(0, 2),7	8,(0, 4),7	15,(0, 6),7	22,(0, 8),7	29,(3, 20),3	32,(3, 22),10	42,(3, 25),7	49,(3, 30),4	53,(3, 40),1	54,(3, 42),6	60,(3, 45),7	67,(3, 48),63	130,(3, 62),44	174,(3, 66),3	177,(7, 17),13	190,(7, 18),7	197,(7, 21),11	208,(7, 27),1	209,(7, 30),8	217,(7, 37),3	220,(7, 47),1	221,(7, 49),1	222,(7, 52),2	224,(7, 55),6	230,(7, 70),2	232,(1, 21),1	233,(1, 35),11	244,(1, 40),2	246,(1, 45),1	247,(1, 50),9	256,(5, 12),10	266,(5, 13),1	267,(5, 28),8	275,(5, 35),1	276,(5, 42),1	277,(5, 47),2	279,(5, 55),1	280,(5, 70),5	285,(5, 80),8	
9,(2, 9),2	11,(14, 81),5	16,(57, 81),5	21,(59, 81),5	26,(78, 81),5	31,(15, 81),5	36,(32, 81),5	41,(4, 29),160	201,(4, 71),1	202,(4, 77),26	228,(11, 81),5	233,(41, 81),5	238,(60, 81),5	243,(72, 81),5	248,(63, 81),5	253,(51, 81),5	258,(54, 81),5	263,(16, 81),5	268,(19, 81),5	273,(33, 81),5	278,(6, 67),7	285,(10, 81),5	290,(39, 81),5	295,(64, 81),5	300,(74, 81),5	305,(65, 81),5	310,(43, 81),5	315,(46, 81),5	320,(26, 81),5	325,(31, 81),5	330,(38, 81),5	335,(8, 73),1	336,(20, 81),5	341,(23, 81),5	346,(34, 81),5	351,(44, 81),5	356,(36, 81),5	361,(24, 81),5	366,(53, 81),5	371,(56, 81),5	376,(68, 81),5	381,(76, 81),5	386,(58, 81),5	391,(61, 81),5	396,(22, 81),5	401,(25, 81),5	406,(48, 81),5	411,(62, 81),5	416,(66, 81),5	421,(17, 81),5	426,(18, 81),5	431,(27, 81),5	436,(30, 81),5	441,(37, 81),5	446,(49, 81),5	451,(52, 81),5	456,(21, 81),5	461,(40, 81),5	466,(45, 81),5	471,(50, 81),5	476,(12, 81),5	481,(13, 81),5	486,(28, 81),5	491,(35, 81),5	496,(42, 81),5	501,(47, 81),5	506,(55, 81),5	511,(70, 81),5	516,(80, 81),5	
# Outgoing
9,(2, 9),2	11,(14, 81),5	16,(57, 81),5	21,(59, 81),5	26,(78, 81),5	31,(15, 81),5	36,(32, 81),5	41,(4, 29),160	201,(4, 71),1	202,(4, 77),26	228,(11, 81),5	233,(41, 81),5	238,(60, 81),5	243,(72, 81),5	248,(63, 81),5	253,(51, 81),5	258,(54, 81),5	263,(16, 81),5	268,(19, 81),5	273,(33, 81),5	278,(6, 67),7	285,(10, 81),5	290,(39, 81),5	295,(64, 81),5	300,(74, 81),5	305,(65, 81),5	310,(43, 81),5	315,(46, 81),5	320,(26, 81),5	325,(31, 81),5	330,(38, 81),5	335,(8, 73),1	336,(20, 81),5	341,(23, 81),5	346,(34, 81),5	351,(44, 81),5	356,(36, 81),5	361,(24, 81),5	366,(53, 81),5	371,(56, 81),5	376,(68, 81),5	381,(76, 81),5	386,(58, 81),5	391,(61, 81),5	396,(22, 81),5	401,(25, 81),5	406,(48, 81),5	411,(62, 81),5	416,(66, 81),5	421,(17, 81),5	426,(18, 81),5	431,(27, 81),5	436,(30, 81),5	441,(37, 81),5	446,(49, 81),5	451,(52, 81),5	456,(21, 81),5	461,(40, 81),5	466,(45, 81),5	471,(50, 81),5	476,(12, 81),5	481,(13, 81),5	486,(28, 81),5	491,(35, 81),5	496,(42, 81),5	501,(47, 81),5	506,(55, 81),5	511,(70, 81),5	516,(80, 81),5	
1,(0, 2),7	8,(0, 4),7	15,(0, 6),7	22,(0, 8),7	29,(3, 20),3	32,(3, 22),10	42,(3, 25),7	49,(3, 30),4	53,(3, 40),1	54,(3, 42),6	60,(3, 45),7	67,(3, 48),63	130,(3, 62),44	174,(3, 66),3	177,(7, 17),13	190,(7, 18),7	197,(7, 21),11	208,(7, 27),1	209,(7, 30),8	217,(7, 37),3	220,(7, 47),1	221,(7, 49),1	222,(7, 52),2	224,(7, 55),6	230,(7, 70),2	232,(1, 21),1	233,(1, 35),11	244,(1, 40),2	246,(1, 45),1	247,(1, 50),9	256,(5, 12),10	266,(5, 13),1	267,(5, 28),8	275,(5, 35),1	276,(5, 42),1	277,(5, 47),2	279,(5, 55),1	280,(5, 70),5	285,(5, 80),8	
