55
# CPU
0,21,1	1,15,3	4,4,3	7,7,3	10,9,3	13,18,3	16,12,3	19,5,3	22,20,3	25,16,3	28,10,3	31,17,3	34,6,3	37,13,3	40,3,3	43,8,3	46,2,3	51,1,3	54,0,1	
37,11,3	



13,14,3	



25,19,3	
# Incoming
16,(14, 1),1	28,(19, 1),4	40,(11, 1),11	
25,(21, 11),12	



1,(21, 14),12	



13,(21, 19),12	
# Outgoing
1,(21, 14),12	13,(21, 19),12	25,(21, 11),12	
40,(11, 1),11	



16,(14, 1),1	



28,(19, 1),4	
