7446
# CPU
57,3,37	113,6,37	545,23,37	1637,59,37	2345,65,37	3113,68,37	4053,17,37	4097,26,37	4134,32,37	4171,44,37	4208,56,37	4273,47,37	4310,71,37	4347,50,37	4617,62,37	4669,74,37	4706,11,37	4743,14,37	4785,29,37	4822,35,37	4859,53,37	4896,77,37	4973,80,37	5165,20,37	5293,41,37	6433,38,37	
29,2,37	85,5,37	141,8,37	4193,46,37	4230,10,37	4267,16,37	4685,79,37	5213,28,37	5250,31,37	5287,34,37	5365,37,37	5402,49,37	5453,55,37	5493,58,37	5530,61,37	5685,64,37	5722,73,37	5759,76,37	5845,13,37	5882,19,37	6397,22,37	6434,25,37	6701,40,37	6745,43,37	6782,52,37	6819,67,37	7045,70,37	
0,0,1	1,1,37	38,4,37	75,7,37	390,27,37	817,51,37	2673,39,37	2710,42,37	4201,9,37	4238,15,37	4275,24,37	4312,48,37	4349,66,37	4386,57,37	4423,63,37	4460,69,37	4497,72,37	4534,12,37	4571,21,37	4608,45,37	4645,54,37	4682,75,37	4719,30,37	4849,33,37	4886,78,37	5437,18,37	6153,36,37	6637,60,37	7445,81,1	
# Incoming
29,(0, 3),28	85,(0, 6),28	141,(1, 11),4	178,(2, 14),28	282,(2, 23),4	286,(2, 26),16	313,(1, 14),76	389,(1, 17),16	405,(2, 29),16	421,(2, 35),4	425,(1, 20),108	533,(1, 23),12	545,(1, 26),4	549,(1, 29),4	553,(2, 47),4	557,(1, 32),40	597,(2, 44),104	701,(2, 50),4	773,(1, 38),52	837,(1, 44),228	1065,(1, 47),148	1213,(2, 56),4	1217,(1, 50),12	1229,(1, 56),4	1233,(2, 20),388	1621,(2, 59),16	1637,(2, 62),4	1641,(2, 65),80	1721,(2, 71),36	1757,(2, 77),8	1765,(5, 11),52	1817,(5, 14),108	1925,(5, 17),8	1933,(5, 26),80	2013,(5, 29),16	2029,(5, 32),236	2265,(5, 35),8	2273,(5, 53),24	2297,(5, 56),4	2301,(5, 62),4	2305,(5, 65),40	2345,(5, 68),4	2349,(5, 71),12	2361,(5, 80),24	3105,(1, 68),8	3897,(4, 29),4	3961,(5, 77),52	4013,(4, 38),4	4017,(8, 17),36	4053,(4, 41),28	4081,(4, 44),12	4093,(8, 26),4	4097,(8, 32),16	4113,(8, 44),4	4117,(8, 47),44	4161,(8, 56),24	4193,(4, 47),80	4273,(8, 71),32	4329,(4, 50),4	4333,(4, 53),112	4445,(8, 14),152	4601,(4, 62),16	4617,(8, 74),20	4661,(4, 74),8	4685,(4, 80),4	4689,(7, 11),4	4693,(7, 14),4	4697,(7, 20),32	4729,(7, 29),56	4785,(7, 35),4	4789,(7, 38),12	4801,(7, 53),12	4813,(7, 77),32	4845,(7, 80),128	4973,(8, 20),192	5165,(8, 41),128	6153,(8, 38),280	
1,(0, 2),28	57,(0, 5),28	94,(3, 10),4	98,(3, 46),4	102,(3, 58),4	113,(0, 8),28	145,(1, 13),168	313,(3, 19),16	329,(3, 34),28	357,(3, 43),40	405,(1, 19),20	425,(3, 28),100	525,(3, 70),16	541,(6, 31),4	545,(6, 55),4	553,(1, 31),4	597,(1, 37),176	773,(3, 52),40	813,(6, 61),8	821,(6, 64),4	825,(1, 43),12	837,(3, 31),104	941,(3, 61),68	1213,(1, 49),4	1233,(1, 61),12	1245,(1, 64),952	2197,(1, 67),908	3113,(1, 70),4	3117,(1, 73),16	3133,(1, 76),264	3397,(1, 79),264	3661,(4, 10),168	3829,(4, 13),48	3877,(4, 16),4	3881,(4, 25),16	3901,(4, 31),12	3913,(4, 34),100	4017,(4, 40),36	4093,(4, 46),100	4193,(6, 10),28	4221,(6, 16),32	4273,(4, 49),56	4329,(3, 37),104	4445,(4, 55),88	4533,(4, 61),68	4617,(4, 64),12	4629,(4, 70),32	4669,(4, 79),16	4685,(3, 73),468	5153,(7, 19),36	5189,(7, 22),8	5197,(7, 28),16	5213,(7, 31),8	5221,(7, 34),12	5233,(7, 37),132	5365,(7, 49),20	5385,(7, 55),68	5453,(7, 58),40	5493,(7, 61),28	5521,(7, 64),164	5685,(7, 73),20	5705,(7, 76),12	5717,(6, 13),128	5845,(6, 19),28	5873,(6, 22),524	6397,(6, 25),24	6421,(6, 40),280	6701,(6, 43),44	6745,(6, 52),36	6781,(6, 67),20	6801,(6, 70),244	
66,(2, 9),4	70,(2, 12),108	178,(3, 15),4	182,(3, 27),4	186,(3, 45),4	190,(3, 54),4	194,(3, 72),4	198,(3, 78),4	202,(6, 15),4	206,(2, 15),4	210,(2, 21),72	282,(3, 63),20	302,(2, 27),12	314,(2, 30),16	330,(2, 42),44	374,(2, 48),4	378,(2, 57),4	382,(2, 66),4	386,(5, 27),4	390,(5, 57),4	397,(3, 66),20	417,(6, 39),4	421,(6, 66),4	425,(2, 45),96	521,(2, 72),28	549,(3, 39),124	673,(3, 69),20	693,(6, 48),12	705,(2, 51),112	817,(2, 54),68	885,(2, 60),48	933,(2, 75),92	1025,(3, 33),356	1381,(3, 60),108	1489,(3, 75),896	2385,(5, 9),60	2445,(5, 24),120	2565,(5, 36),56	2621,(5, 39),52	2673,(5, 42),32	2705,(5, 48),40	2745,(5, 54),8	2753,(5, 63),28	2781,(5, 66),96	2877,(5, 69),56	2933,(5, 72),1028	3961,(6, 9),144	4105,(6, 21),88	4193,(8, 9),8	4201,(8, 15),4	4205,(8, 24),8	4213,(8, 48),4	4217,(8, 66),4	4221,(8, 69),8	4229,(8, 72),16	4245,(8, 75),8	4253,(6, 30),24	4277,(6, 57),8	4285,(6, 63),24	4309,(6, 69),4	4313,(6, 72),4	4317,(8, 12),56	4373,(8, 21),56	4433,(6, 45),80	4513,(6, 54),76	4589,(6, 75),20	4609,(6, 78),36	4645,(8, 30),44	4689,(8, 33),160	4849,(8, 78),28	4877,(46, 81),16	4893,(10, 81),16	4909,(16, 81),16	4925,(79, 81),16	5153,(6, 18),284	5437,(8, 36),716	6433,(8, 60),204	6637,(28, 81),16	6653,(31, 81),16	6669,(34, 81),16	6685,(37, 81),16	6701,(49, 81),16	6717,(55, 81),16	6733,(58, 81),16	6749,(61, 81),16	6765,(64, 81),16	6781,(73, 81),16	6797,(76, 81),16	6813,(13, 81),16	6829,(19, 81),16	6845,(22, 81),16	6861,(25, 81),16	6877,(40, 81),16	6893,(43, 81),16	6909,(52, 81),16	6925,(67, 81),16	7045,(23, 81),16	7061,(59, 81),16	7077,(65, 81),16	7093,(68, 81),16	7109,(17, 81),16	7125,(26, 81),16	7141,(32, 81),16	7157,(44, 81),16	7173,(56, 81),16	7189,(47, 81),16	7205,(71, 81),16	7221,(50, 81),16	7237,(62, 81),16	7253,(74, 81),16	7269,(11, 81),16	7285,(14, 81),16	7301,(29, 81),16	7317,(35, 81),16	7333,(53, 81),16	7349,(77, 81),16	7365,(80, 81),16	7381,(20, 81),16	7397,(41, 81),16	7413,(38, 81),16	7429,(70, 81),16	
# Outgoing
94,(3, 10),4	98,(3, 46),4	102,(3, 58),4	178,(3, 15),4	182,(3, 27),4	186,(3, 45),4	190,(3, 54),4	194,(3, 72),4	198,(3, 78),4	202,(6, 15),4	282,(3, 63),20	313,(3, 19),16	329,(3, 34),28	357,(3, 43),40	397,(3, 66),20	417,(6, 39),4	421,(6, 66),4	425,(3, 28),100	525,(3, 70),16	541,(6, 31),4	545,(6, 55),4	549,(3, 39),124	673,(3, 69),20	693,(6, 48),12	773,(3, 52),40	813,(6, 61),8	821,(6, 64),4	837,(3, 31),104	941,(3, 61),68	1025,(3, 33),356	1381,(3, 60),108	1489,(3, 75),896	3961,(6, 9),144	4105,(6, 21),88	4193,(6, 10),28	4221,(6, 16),32	4253,(6, 30),24	4277,(6, 57),8	4285,(6, 63),24	4309,(6, 69),4	4313,(6, 72),4	4329,(3, 37),104	4433,(6, 45),80	4513,(6, 54),76	4589,(6, 75),20	4609,(6, 78),36	4685,(3, 73),468	5153,(6, 18),284	5717,(6, 13),128	5845,(6, 19),28	5873,(6, 22),524	6397,(6, 25),24	6421,(6, 40),280	6701,(6, 43),44	6745,(6, 52),36	6781,(6, 67),20	6801,(6, 70),244	7045,(23, 81),16	7061,(59, 81),16	7077,(65, 81),16	7093,(68, 81),16	7109,(17, 81),16	7125,(26, 81),16	7141,(32, 81),16	7157,(44, 81),16	7173,(56, 81),16	7189,(47, 81),16	7205,(71, 81),16	7221,(50, 81),16	7237,(62, 81),16	7253,(74, 81),16	7269,(11, 81),16	7285,(14, 81),16	7301,(29, 81),16	7317,(35, 81),16	7333,(53, 81),16	7349,(77, 81),16	7365,(80, 81),16	7381,(20, 81),16	7397,(41, 81),16	7413,(38, 81),16	
66,(2, 9),4	70,(2, 12),108	178,(2, 14),28	206,(2, 15),4	210,(2, 21),72	282,(2, 23),4	286,(2, 26),16	302,(2, 27),12	314,(2, 30),16	330,(2, 42),44	374,(2, 48),4	378,(2, 57),4	382,(2, 66),4	386,(5, 27),4	390,(5, 57),4	405,(2, 29),16	421,(2, 35),4	425,(2, 45),96	521,(2, 72),28	553,(2, 47),4	597,(2, 44),104	701,(2, 50),4	705,(2, 51),112	817,(2, 54),68	885,(2, 60),48	933,(2, 75),92	1213,(2, 56),4	1233,(2, 20),388	1621,(2, 59),16	1637,(2, 62),4	1641,(2, 65),80	1721,(2, 71),36	1757,(2, 77),8	1765,(5, 11),52	1817,(5, 14),108	1925,(5, 17),8	1933,(5, 26),80	2013,(5, 29),16	2029,(5, 32),236	2265,(5, 35),8	2273,(5, 53),24	2297,(5, 56),4	2301,(5, 62),4	2305,(5, 65),40	2345,(5, 68),4	2349,(5, 71),12	2361,(5, 80),24	2385,(5, 9),60	2445,(5, 24),120	2565,(5, 36),56	2621,(5, 39),52	2673,(5, 42),32	2705,(5, 48),40	2745,(5, 54),8	2753,(5, 63),28	2781,(5, 66),96	2877,(5, 69),56	2933,(5, 72),1028	3961,(5, 77),52	4017,(8, 17),36	4093,(8, 26),4	4097,(8, 32),16	4113,(8, 44),4	4117,(8, 47),44	4161,(8, 56),24	4193,(8, 9),8	4201,(8, 15),4	4205,(8, 24),8	4213,(8, 48),4	4217,(8, 66),4	4221,(8, 69),8	4229,(8, 72),16	4245,(8, 75),8	4273,(8, 71),32	4317,(8, 12),56	4373,(8, 21),56	4445,(8, 14),152	4617,(8, 74),20	4645,(8, 30),44	4689,(8, 33),160	4849,(8, 78),28	4877,(46, 81),16	4893,(10, 81),16	4909,(16, 81),16	4925,(79, 81),16	4973,(8, 20),192	5165,(8, 41),128	5437,(8, 36),716	6153,(8, 38),280	6433,(8, 60),204	6637,(28, 81),16	6653,(31, 81),16	6669,(34, 81),16	6685,(37, 81),16	6701,(49, 81),16	6717,(55, 81),16	6733,(58, 81),16	6749,(61, 81),16	6765,(64, 81),16	6781,(73, 81),16	6797,(76, 81),16	6813,(13, 81),16	6829,(19, 81),16	6845,(22, 81),16	6861,(25, 81),16	6877,(40, 81),16	6893,(43, 81),16	6909,(52, 81),16	6925,(67, 81),16	7429,(70, 81),16	
1,(0, 2),28	29,(0, 3),28	57,(0, 5),28	85,(0, 6),28	113,(0, 8),28	141,(1, 11),4	145,(1, 13),168	313,(1, 14),76	389,(1, 17),16	405,(1, 19),20	425,(1, 20),108	533,(1, 23),12	545,(1, 26),4	549,(1, 29),4	553,(1, 31),4	557,(1, 32),40	597,(1, 37),176	773,(1, 38),52	825,(1, 43),12	837,(1, 44),228	1065,(1, 47),148	1213,(1, 49),4	1217,(1, 50),12	1229,(1, 56),4	1233,(1, 61),12	1245,(1, 64),952	2197,(1, 67),908	3105,(1, 68),8	3113,(1, 70),4	3117,(1, 73),16	3133,(1, 76),264	3397,(1, 79),264	3661,(4, 10),168	3829,(4, 13),48	3877,(4, 16),4	3881,(4, 25),16	3897,(4, 29),4	3901,(4, 31),12	3913,(4, 34),100	4013,(4, 38),4	4017,(4, 40),36	4053,(4, 41),28	4081,(4, 44),12	4093,(4, 46),100	4193,(4, 47),80	4273,(4, 49),56	4329,(4, 50),4	4333,(4, 53),112	4445,(4, 55),88	4533,(4, 61),68	4601,(4, 62),16	4617,(4, 64),12	4629,(4, 70),32	4661,(4, 74),8	4669,(4, 79),16	4685,(4, 80),4	4689,(7, 11),4	4693,(7, 14),4	4697,(7, 20),32	4729,(7, 29),56	4785,(7, 35),4	4789,(7, 38),12	4801,(7, 53),12	4813,(7, 77),32	4845,(7, 80),128	5153,(7, 19),36	5189,(7, 22),8	5197,(7, 28),16	5213,(7, 31),8	5221,(7, 34),12	5233,(7, 37),132	5365,(7, 49),20	5385,(7, 55),68	5453,(7, 58),40	5493,(7, 61),28	5521,(7, 64),164	5685,(7, 73),20	5705,(7, 76),12	
