795
# CPU
0,121,1	1,68,5	6,27,5	11,64,5	16,69,5	21,71,5	26,103,5	31,104,5	36,74,5	41,31,5	46,18,5	51,39,5	56,35,5	61,84,5	66,105,5	71,118,5	76,114,5	81,26,5	86,66,5	91,97,5	96,91,5	101,95,5	106,48,5	111,78,5	116,41,5	121,25,5	126,60,5	131,63,5	136,81,5	141,58,5	146,54,5	151,120,5	156,52,5	161,112,5	166,116,5	171,53,5	176,42,5	181,20,5	186,88,5	191,13,5	196,102,5	201,94,5	206,22,5	211,75,5	216,59,5	221,51,5	226,100,5	231,45,5	236,83,5	241,57,5	246,106,5	251,107,5	256,37,5	261,46,5	266,10,5	271,49,5	276,9,5	281,3,5	342,8,5	396,4,5	447,12,5	540,1,5	789,11,5	794,0,1	
4,36,5	9,28,5	14,55,5	19,67,5	24,115,5	29,101,5	34,99,5	39,70,5	44,72,5	49,113,5	54,93,5	59,34,5	64,85,5	69,40,5	74,50,5	79,110,5	84,16,5	89,44,5	94,76,5	99,30,5	104,15,5	109,47,5	114,21,5	119,14,5	124,80,5	129,61,5	134,24,5	139,86,5	144,96,5	149,56,5	154,77,5	159,111,5	164,32,5	169,38,5	174,65,5	179,33,5	184,43,5	189,23,5	194,73,5	199,98,5	204,19,5	209,89,5	214,117,5	219,17,5	224,79,5	229,90,5	234,109,5	239,108,5	244,62,5	249,119,5	254,29,5	259,82,5	264,87,5	269,92,5	274,5,5	279,2,5	319,6,5	415,7,5	
# Incoming
39,(99, 9),3	42,(115, 8),3	45,(55, 4),3	48,(70, 12),3	51,(67, 1),3	54,(113, 12),3	57,(101, 1),3	60,(72, 1),3	63,(28, 11),3	69,(85, 9),3	74,(40, 11),6	84,(110, 11),6	99,(76, 12),6	105,(44, 11),6	114,(47, 12),9	123,(21, 12),9	134,(61, 4),12	149,(96, 12),15	164,(86, 1),15	184,(33, 3),21	205,(98, 3),30	235,(19, 12),33	268,(30, 11),6	279,(5, 0),9	288,(90, 8),54	342,(2, 0),9	351,(79, 4),45	396,(6, 0),9	405,(117, 12),42	447,(7, 0),9	456,(73, 1),27	483,(109, 1),57	540,(14, 11),12	552,(56, 11),15	567,(65, 11),21	588,(23, 11),27	615,(119, 11),78	693,(29, 11),96	
1,(121, 36),3	4,(121, 28),3	7,(121, 55),3	10,(121, 67),3	13,(121, 115),3	16,(121, 101),3	19,(121, 99),3	22,(121, 70),3	25,(121, 72),3	28,(121, 113),3	31,(121, 93),3	34,(121, 34),3	37,(121, 85),3	40,(121, 40),3	43,(121, 50),3	46,(121, 110),3	49,(121, 16),3	52,(121, 44),3	55,(121, 76),3	58,(121, 30),3	61,(121, 15),3	64,(121, 47),3	67,(121, 21),3	70,(121, 14),3	73,(121, 80),3	76,(121, 61),3	79,(121, 24),3	82,(121, 86),3	85,(121, 96),3	88,(121, 56),3	91,(121, 77),3	94,(121, 111),3	97,(121, 32),3	100,(121, 38),3	103,(121, 65),3	106,(121, 33),3	109,(121, 43),3	112,(121, 23),3	115,(121, 73),3	118,(121, 98),3	121,(121, 19),3	124,(121, 89),3	127,(121, 117),3	130,(121, 17),3	133,(121, 79),3	136,(121, 90),3	139,(121, 109),3	142,(121, 108),3	145,(121, 62),3	148,(121, 119),3	151,(121, 29),3	154,(121, 82),3	157,(121, 87),3	160,(121, 92),3	163,(60, 5),12	175,(31, 2),3	178,(97, 2),6	184,(103, 6),3	187,(18, 6),3	190,(114, 6),6	196,(13, 2),27	223,(75, 2),39	262,(45, 6),57	319,(71, 7),3	322,(35, 7),3	325,(118, 7),6	331,(26, 7),6	337,(78, 7),9	346,(83, 7),69	
# Outgoing
1,(121, 36),3	4,(121, 28),3	7,(121, 55),3	10,(121, 67),3	13,(121, 115),3	16,(121, 101),3	19,(121, 99),3	22,(121, 70),3	25,(121, 72),3	28,(121, 113),3	31,(121, 93),3	34,(121, 34),3	37,(121, 85),3	40,(121, 40),3	43,(121, 50),3	46,(121, 110),3	49,(121, 16),3	52,(121, 44),3	55,(121, 76),3	58,(121, 30),3	61,(121, 15),3	64,(121, 47),3	67,(121, 21),3	70,(121, 14),3	73,(121, 80),3	76,(121, 61),3	79,(121, 24),3	82,(121, 86),3	85,(121, 96),3	88,(121, 56),3	91,(121, 77),3	94,(121, 111),3	97,(121, 32),3	100,(121, 38),3	103,(121, 65),3	106,(121, 33),3	109,(121, 43),3	112,(121, 23),3	115,(121, 73),3	118,(121, 98),3	121,(121, 19),3	124,(121, 89),3	127,(121, 117),3	130,(121, 17),3	133,(121, 79),3	136,(121, 90),3	139,(121, 109),3	142,(121, 108),3	145,(121, 62),3	148,(121, 119),3	151,(121, 29),3	154,(121, 82),3	157,(121, 87),3	160,(121, 92),3	163,(60, 5),12	175,(31, 2),3	178,(97, 2),6	184,(103, 6),3	187,(18, 6),3	190,(114, 6),6	196,(13, 2),27	223,(75, 2),39	262,(45, 6),57	319,(71, 7),3	322,(35, 7),3	325,(118, 7),6	331,(26, 7),6	337,(78, 7),9	346,(83, 7),69	
39,(99, 9),3	42,(115, 8),3	45,(55, 4),3	48,(70, 12),3	51,(67, 1),3	54,(113, 12),3	57,(101, 1),3	60,(72, 1),3	63,(28, 11),3	69,(85, 9),3	74,(40, 11),6	84,(110, 11),6	99,(76, 12),6	105,(44, 11),6	114,(47, 12),9	123,(21, 12),9	134,(61, 4),12	149,(96, 12),15	164,(86, 1),15	184,(33, 3),21	205,(98, 3),30	235,(19, 12),33	268,(30, 11),6	279,(5, 0),9	288,(90, 8),54	342,(2, 0),9	351,(79, 4),45	396,(6, 0),9	405,(117, 12),42	447,(7, 0),9	456,(73, 1),27	483,(109, 1),57	540,(14, 11),12	552,(56, 11),15	567,(65, 11),21	588,(23, 11),27	615,(119, 11),78	693,(29, 11),96	
