340
# CPU
0,0,1	1,2,13	14,39,13	27,14,13	40,22,13	53,8,13	66,13,13	79,1,13	92,16,13	105,32,13	118,40,13	131,19,13	144,28,13	157,10,13	170,25,13	183,4,13	196,33,13	209,17,13	222,20,13	235,24,13	248,11,13	261,15,13	274,7,13	287,6,13	300,34,13	313,21,13	326,31,13	339,41,1	
29,23,13	80,3,13	93,5,13	106,9,13	119,18,13	132,36,13	145,38,13	158,35,13	171,12,13	
96,30,13	109,37,13	122,26,13	
104,29,13	130,27,13	






# Incoming
42,(23, 41),18	106,(5, 41),18	124,(30, 41),18	142,(29, 41),18	160,(9, 41),18	178,(37, 41),18	196,(18, 41),18	214,(26, 41),18	232,(27, 41),18	250,(36, 41),18	268,(38, 41),18	286,(35, 41),18	304,(12, 41),18	
14,(2, 23),15	29,(0, 3),51	107,(1, 12),12	
93,(3, 30),3	96,(3, 37),3	99,(3, 26),3	104,(1, 26),3	
80,(2, 29),3	92,(1, 29),12	124,(3, 27),6	






# Outgoing
14,(2, 23),15	29,(0, 3),51	80,(2, 29),3	92,(1, 29),12	104,(1, 26),3	107,(1, 12),12	
42,(23, 41),18	93,(3, 30),3	96,(3, 37),3	99,(3, 26),3	106,(5, 41),18	124,(3, 27),6	160,(9, 41),18	196,(18, 41),18	250,(36, 41),18	268,(38, 41),18	286,(35, 41),18	304,(12, 41),18	
124,(30, 41),18	178,(37, 41),18	214,(26, 41),18	
142,(29, 41),18	232,(27, 41),18	






