1740
# CPU
0,201,1	1,148,5	6,32,5	11,117,5	16,171,5	21,175,5	26,190,5	31,65,5	36,85,5	41,157,5	46,130,5	51,121,5	56,31,5	61,28,5	66,183,5	71,143,5	76,89,5	81,140,5	86,199,5	91,33,5	96,90,5	101,138,5	106,75,5	111,87,5	116,182,5	121,124,5	126,185,5	131,82,5	136,64,5	141,29,5	146,46,5	151,161,5	156,88,5	161,170,5	166,145,5	171,136,5	176,184,5	181,197,5	186,83,5	191,115,5	196,78,5	201,93,5	206,68,5	211,193,5	216,102,5	221,41,5	226,98,5	231,132,5	236,74,5	241,34,5	246,133,5	251,142,5	256,151,5	261,25,5	266,155,5	271,188,5	276,104,5	281,125,5	286,156,5	291,191,5	296,153,5	301,91,5	306,147,5	311,66,5	316,55,5	321,186,5	326,111,5	331,71,5	336,146,5	341,107,5	346,173,5	351,195,5	356,22,5	361,42,5	366,122,5	371,150,5	376,127,5	381,131,5	386,160,5	391,73,5	396,36,5	401,38,5	406,168,5	411,162,5	416,177,5	421,50,5	426,80,5	431,70,5	436,113,5	441,99,5	446,119,5	451,187,5	456,101,5	461,26,5	466,139,5	471,43,5	476,158,5	481,35,5	486,72,5	491,97,5	496,172,5	501,180,5	506,181,5	511,163,5	516,167,5	521,63,5	526,47,5	531,189,5	536,49,5	541,100,5	546,23,5	551,53,5	556,126,5	561,67,5	566,92,5	571,176,5	576,196,5	581,120,5	586,128,5	591,51,5	596,58,5	601,94,5	606,11,5	611,16,5	616,12,5	621,10,5	655,6,5	704,14,5	768,4,5	863,3,5	961,1,5	1069,7,5	1188,9,5	1312,5,5	1471,2,5	1733,13,5	1739,0,1	
61,44,5	221,24,5	231,154,5	251,57,5	331,81,5	361,52,5	391,118,5	401,149,5	431,106,5	521,69,5	531,112,5	561,116,5	571,109,5	901,19,5	1061,18,5	1271,8,5	1575,15,5	
81,165,5	141,105,5	191,129,5	261,134,5	351,123,5	451,103,5	471,96,5	481,21,5	551,144,5	665,20,5	
111,62,5	161,61,5	171,48,5	271,141,5	381,45,5	
31,77,5	101,79,5	121,108,5	211,178,5	
21,114,5	41,59,5	91,179,5	181,164,5	
71,192,5	
131,54,5	241,27,5	281,30,5	301,56,5	311,137,5	441,194,5	461,86,5	
11,40,5	321,60,5	341,84,5	501,166,5	
51,159,5	151,95,5	201,37,5	291,152,5	371,200,5	411,198,5	421,110,5	491,39,5	511,76,5	541,169,5	581,135,5	591,174,5	741,17,5	
# Incoming
16,(40, 11),1	17,(40, 14),1	36,(77, 16),1	79,(192, 4),1	116,(62, 12),3	121,(62, 1),2	126,(108, 10),5	173,(61, 4),1	176,(48, 14),7	186,(164, 16),7	193,(164, 6),7	200,(114, 14),1	202,(59, 4),1	203,(164, 3),1	204,(164, 1),6	210,(179, 9),4	214,(164, 9),2	216,(178, 4),8	224,(178, 5),1	225,(164, 13),1	266,(134, 16),3	287,(134, 2),1	288,(134, 13),3	291,(141, 4),10	301,(141, 1),4	306,(56, 11),1	307,(30, 16),8	315,(27, 10),10	326,(60, 12),1	327,(54, 6),6	333,(60, 6),18	351,(54, 14),4	355,(56, 4),1	356,(84, 4),4	360,(60, 3),3	363,(60, 1),6	369,(123, 9),1	370,(84, 9),1	371,(141, 5),2	376,(200, 11),22	398,(159, 16),1	399,(200, 16),2	401,(200, 12),4	405,(95, 10),1	406,(37, 10),8	415,(200, 3),1	416,(198, 11),4	420,(198, 3),6	426,(110, 16),30	456,(110, 12),9	465,(194, 1),1	466,(86, 12),40	506,(166, 11),3	509,(166, 10),9	518,(86, 14),1	519,(76, 14),3	522,(96, 4),3	525,(86, 7),1	526,(69, 11),7	533,(118, 10),1	534,(154, 6),2	536,(112, 11),13	549,(57, 16),10	559,(52, 12),5	564,(144, 12),3	567,(52, 6),2	569,(149, 6),1	570,(144, 6),1	571,(81, 14),7	578,(57, 4),8	586,(135, 11),1	587,(194, 10),33	620,(106, 6),31	651,(135, 6),4	655,(52, 14),20	675,(149, 14),14	689,(112, 14),15	704,(52, 4),3	707,(21, 4),6	713,(166, 4),55	768,(44, 3),2	770,(152, 3),11	781,(149, 3),12	793,(106, 3),17	810,(103, 3),36	846,(86, 3),8	854,(109, 3),9	863,(44, 1),1	864,(152, 1),2	866,(39, 1),2	868,(69, 1),5	873,(112, 1),1	874,(109, 1),84	958,(135, 1),3	961,(24, 7),4	965,(45, 7),11	976,(21, 7),31	1007,(39, 7),50	1057,(166, 7),7	1064,(174, 7),5	1069,(76, 9),58	1127,(69, 9),61	1188,(129, 5),7	1195,(152, 5),15	1210,(86, 5),1	1211,(96, 5),12	1223,(166, 5),12	1235,(169, 5),77	1312,(84, 2),6	1318,(45, 2),9	1327,(118, 2),11	1338,(110, 2),7	1345,(103, 2),6	1351,(76, 2),9	1360,(144, 2),102	1462,(174, 2),9	1471,(154, 13),5	1476,(57, 13),11	1487,(30, 13),15	1502,(137, 13),17	1519,(81, 13),9	1528,(194, 13),16	1544,(96, 13),8	1552,(21, 13),7	1559,(112, 13),6	1565,(135, 13),168	1733,(20, 0),1	1734,(17, 0),1	1735,(19, 0),1	1736,(18, 0),1	1737,(8, 0),1	1738,(15, 0),1	
51,(201, 44),10	61,(40, 15),1	106,(79, 18),4	123,(62, 15),4	131,(108, 15),1	211,(201, 24),10	221,(201, 154),10	241,(201, 57),10	272,(105, 19),6	278,(165, 18),2	280,(105, 18),4	284,(134, 18),1	285,(165, 8),2	305,(141, 8),2	321,(201, 81),10	333,(56, 8),2	335,(27, 15),1	351,(201, 52),10	361,(123, 19),8	369,(84, 18),1	381,(201, 118),10	391,(201, 149),10	401,(56, 15),16	421,(201, 106),10	446,(194, 8),7	456,(103, 19),1	465,(95, 18),6	486,(21, 19),17	503,(39, 18),2	506,(86, 8),1	507,(86, 15),1	511,(201, 69),10	521,(201, 112),10	546,(169, 18),1	551,(201, 116),10	561,(201, 109),10	587,(198, 18),28	615,(96, 8),41	656,(84, 15),19	675,(123, 15),20	695,(45, 15),23	741,(182, 19),4	745,(82, 19),1	746,(46, 19),6	752,(188, 19),3	755,(153, 19),16	771,(66, 19),16	787,(186, 19),1	788,(73, 19),24	812,(168, 19),3	815,(50, 19),29	844,(49, 19),8	852,(67, 19),35	887,(120, 19),14	901,(28, 18),2	903,(138, 18),1	904,(75, 18),1	905,(182, 18),1	906,(82, 18),1	907,(29, 18),1	908,(161, 18),2	910,(145, 18),7	917,(125, 18),6	923,(66, 18),1	924,(146, 18),2	926,(107, 18),18	944,(22, 18),12	956,(42, 18),20	976,(122, 18),21	997,(70, 18),1	998,(119, 18),1	999,(101, 18),39	1038,(35, 18),2	1040,(97, 18),6	1046,(58, 18),15	1061,(31, 8),2	1063,(143, 8),1	1064,(199, 8),3	1067,(145, 8),2	1069,(136, 8),3	1072,(93, 8),4	1076,(193, 8),8	1084,(74, 8),8	1092,(155, 8),1	1093,(191, 8),5	1098,(22, 8),11	1109,(127, 8),7	1116,(119, 8),36	1152,(43, 8),4	1156,(47, 8),5	1161,(126, 8),110	1271,(85, 15),1	1272,(133, 15),4	1276,(142, 15),1	1277,(188, 15),1	1278,(104, 15),15	1293,(191, 15),6	1299,(147, 15),2	1301,(146, 15),2	1303,(195, 15),7	1310,(122, 15),9	1319,(150, 15),6	1325,(160, 15),23	1348,(36, 15),7	1355,(187, 15),10	1365,(139, 15),4	1369,(158, 15),42	1411,(35, 15),15	1426,(100, 15),73	1499,(67, 15),73	1572,(94, 15),3	
71,(201, 165),10	119,(62, 20),2	131,(201, 105),10	181,(201, 129),10	251,(201, 134),10	276,(141, 20),15	325,(27, 20),1	341,(201, 123),10	414,(200, 20),1	441,(201, 103),10	461,(201, 96),10	471,(201, 21),10	518,(166, 20),11	541,(201, 144),10	564,(149, 20),1	591,(31, 20),2	593,(183, 20),2	595,(143, 20),3	598,(182, 20),2	600,(124, 20),3	603,(82, 20),5	608,(136, 20),5	613,(78, 20),1	614,(193, 20),1	615,(132, 20),2	617,(25, 20),11	628,(188, 20),2	630,(191, 20),1	631,(186, 20),6	637,(111, 20),1	638,(113, 20),1	639,(35, 20),1	640,(63, 20),12	652,(53, 20),9	661,(92, 20),1	662,(120, 20),1	663,(51, 20),2	
101,(201, 62),10	151,(201, 61),10	161,(201, 48),10	261,(201, 141),10	371,(201, 45),10	
21,(201, 77),10	91,(201, 79),10	111,(201, 108),10	201,(201, 178),10	
11,(201, 114),10	31,(201, 59),10	81,(201, 179),10	171,(201, 164),10	
61,(201, 192),10	
121,(201, 54),10	231,(201, 27),10	271,(201, 30),10	291,(201, 56),10	301,(201, 137),10	431,(201, 194),10	451,(201, 86),10	
1,(201, 40),10	311,(201, 60),10	331,(201, 84),10	491,(201, 166),10	
41,(201, 159),10	76,(192, 17),3	141,(201, 95),10	166,(61, 17),7	191,(201, 37),10	201,(114, 17),1	269,(165, 17),3	281,(201, 152),10	291,(134, 17),13	361,(201, 200),10	371,(123, 17),9	386,(45, 17),5	401,(201, 198),10	411,(201, 110),10	481,(201, 39),10	501,(201, 76),10	531,(201, 169),10	571,(201, 135),10	581,(201, 174),10	591,(57, 17),11	665,(185, 17),1	666,(46, 17),4	670,(170, 17),7	677,(136, 17),1	678,(184, 17),7	685,(78, 17),7	692,(133, 17),1	693,(150, 17),1	694,(177, 17),29	723,(187, 17),6	729,(139, 17),1	730,(43, 17),4	734,(126, 17),7	
# Outgoing
1,(201, 40),10	11,(201, 114),10	21,(201, 77),10	31,(201, 59),10	41,(201, 159),10	51,(201, 44),10	61,(201, 192),10	71,(201, 165),10	81,(201, 179),10	91,(201, 79),10	101,(201, 62),10	111,(201, 108),10	121,(201, 54),10	131,(201, 105),10	141,(201, 95),10	151,(201, 61),10	161,(201, 48),10	171,(201, 164),10	181,(201, 129),10	191,(201, 37),10	201,(201, 178),10	211,(201, 24),10	221,(201, 154),10	231,(201, 27),10	241,(201, 57),10	251,(201, 134),10	261,(201, 141),10	271,(201, 30),10	281,(201, 152),10	291,(201, 56),10	301,(201, 137),10	311,(201, 60),10	321,(201, 81),10	331,(201, 84),10	341,(201, 123),10	351,(201, 52),10	361,(201, 200),10	371,(201, 45),10	381,(201, 118),10	391,(201, 149),10	401,(201, 198),10	411,(201, 110),10	421,(201, 106),10	431,(201, 194),10	441,(201, 103),10	451,(201, 86),10	461,(201, 96),10	471,(201, 21),10	481,(201, 39),10	491,(201, 166),10	501,(201, 76),10	511,(201, 69),10	521,(201, 112),10	531,(201, 169),10	541,(201, 144),10	551,(201, 116),10	561,(201, 109),10	571,(201, 135),10	581,(201, 174),10	591,(31, 20),2	593,(183, 20),2	595,(143, 20),3	598,(182, 20),2	600,(124, 20),3	603,(82, 20),5	608,(136, 20),5	613,(78, 20),1	614,(193, 20),1	615,(132, 20),2	617,(25, 20),11	628,(188, 20),2	630,(191, 20),1	631,(186, 20),6	637,(111, 20),1	638,(113, 20),1	639,(35, 20),1	640,(63, 20),12	652,(53, 20),9	661,(92, 20),1	662,(120, 20),1	663,(51, 20),2	665,(185, 17),1	666,(46, 17),4	670,(170, 17),7	677,(136, 17),1	678,(184, 17),7	685,(78, 17),7	692,(133, 17),1	693,(150, 17),1	694,(177, 17),29	723,(187, 17),6	729,(139, 17),1	730,(43, 17),4	734,(126, 17),7	741,(182, 19),4	745,(82, 19),1	746,(46, 19),6	752,(188, 19),3	755,(153, 19),16	771,(66, 19),16	787,(186, 19),1	788,(73, 19),24	812,(168, 19),3	815,(50, 19),29	844,(49, 19),8	852,(67, 19),35	887,(120, 19),14	901,(28, 18),2	903,(138, 18),1	904,(75, 18),1	905,(182, 18),1	906,(82, 18),1	907,(29, 18),1	908,(161, 18),2	910,(145, 18),7	917,(125, 18),6	923,(66, 18),1	924,(146, 18),2	926,(107, 18),18	944,(22, 18),12	956,(42, 18),20	976,(122, 18),21	997,(70, 18),1	998,(119, 18),1	999,(101, 18),39	1038,(35, 18),2	1040,(97, 18),6	1046,(58, 18),15	1061,(31, 8),2	1063,(143, 8),1	1064,(199, 8),3	1067,(145, 8),2	1069,(136, 8),3	1072,(93, 8),4	1076,(193, 8),8	1084,(74, 8),8	1092,(155, 8),1	1093,(191, 8),5	1098,(22, 8),11	1109,(127, 8),7	1116,(119, 8),36	1152,(43, 8),4	1156,(47, 8),5	1161,(126, 8),110	1271,(85, 15),1	1272,(133, 15),4	1276,(142, 15),1	1277,(188, 15),1	1278,(104, 15),15	1293,(191, 15),6	1299,(147, 15),2	1301,(146, 15),2	1303,(195, 15),7	1310,(122, 15),9	1319,(150, 15),6	1325,(160, 15),23	1348,(36, 15),7	1355,(187, 15),10	1365,(139, 15),4	1369,(158, 15),42	1411,(35, 15),15	1426,(100, 15),73	1499,(67, 15),73	1572,(94, 15),3	
526,(69, 11),7	533,(118, 10),1	534,(154, 6),2	536,(112, 11),13	549,(57, 16),10	559,(52, 12),5	564,(149, 20),1	567,(52, 6),2	569,(149, 6),1	571,(81, 14),7	578,(57, 4),8	591,(57, 17),11	620,(106, 6),31	655,(52, 14),20	675,(149, 14),14	689,(112, 14),15	704,(52, 4),3	768,(44, 3),2	781,(149, 3),12	793,(106, 3),17	854,(109, 3),9	863,(44, 1),1	868,(69, 1),5	873,(112, 1),1	874,(109, 1),84	961,(24, 7),4	1127,(69, 9),61	1327,(118, 2),11	1471,(154, 13),5	1476,(57, 13),11	1519,(81, 13),9	1559,(112, 13),6	1735,(19, 0),1	1736,(18, 0),1	1737,(8, 0),1	1738,(15, 0),1	
266,(134, 16),3	269,(165, 17),3	272,(105, 19),6	278,(165, 18),2	280,(105, 18),4	284,(134, 18),1	285,(165, 8),2	287,(134, 2),1	288,(134, 13),3	291,(134, 17),13	361,(123, 19),8	369,(123, 9),1	371,(123, 17),9	456,(103, 19),1	486,(21, 19),17	522,(96, 4),3	564,(144, 12),3	570,(144, 6),1	615,(96, 8),41	675,(123, 15),20	707,(21, 4),6	810,(103, 3),36	976,(21, 7),31	1188,(129, 5),7	1211,(96, 5),12	1345,(103, 2),6	1360,(144, 2),102	1544,(96, 13),8	1552,(21, 13),7	1733,(20, 0),1	
116,(62, 12),3	119,(62, 20),2	121,(62, 1),2	123,(62, 15),4	166,(61, 17),7	173,(61, 4),1	176,(48, 14),7	276,(141, 20),15	291,(141, 4),10	301,(141, 1),4	305,(141, 8),2	371,(141, 5),2	386,(45, 17),5	695,(45, 15),23	965,(45, 7),11	1318,(45, 2),9	
36,(77, 16),1	106,(79, 18),4	126,(108, 10),5	131,(108, 15),1	216,(178, 4),8	224,(178, 5),1	
186,(164, 16),7	193,(164, 6),7	200,(114, 14),1	201,(114, 17),1	202,(59, 4),1	203,(164, 3),1	204,(164, 1),6	210,(179, 9),4	214,(164, 9),2	225,(164, 13),1	
76,(192, 17),3	79,(192, 4),1	
306,(56, 11),1	307,(30, 16),8	315,(27, 10),10	325,(27, 20),1	327,(54, 6),6	333,(56, 8),2	335,(27, 15),1	351,(54, 14),4	355,(56, 4),1	401,(56, 15),16	446,(194, 8),7	465,(194, 1),1	466,(86, 12),40	506,(86, 8),1	507,(86, 15),1	518,(86, 14),1	525,(86, 7),1	587,(194, 10),33	846,(86, 3),8	1210,(86, 5),1	1487,(30, 13),15	1502,(137, 13),17	1528,(194, 13),16	
16,(40, 11),1	17,(40, 14),1	61,(40, 15),1	326,(60, 12),1	333,(60, 6),18	356,(84, 4),4	360,(60, 3),3	363,(60, 1),6	369,(84, 18),1	370,(84, 9),1	506,(166, 11),3	509,(166, 10),9	518,(166, 20),11	656,(84, 15),19	713,(166, 4),55	1057,(166, 7),7	1223,(166, 5),12	1312,(84, 2),6	
376,(200, 11),22	398,(159, 16),1	399,(200, 16),2	401,(200, 12),4	405,(95, 10),1	406,(37, 10),8	414,(200, 20),1	415,(200, 3),1	416,(198, 11),4	420,(198, 3),6	426,(110, 16),30	456,(110, 12),9	465,(95, 18),6	503,(39, 18),2	519,(76, 14),3	546,(169, 18),1	586,(135, 11),1	587,(198, 18),28	651,(135, 6),4	770,(152, 3),11	864,(152, 1),2	866,(39, 1),2	958,(135, 1),3	1007,(39, 7),50	1064,(174, 7),5	1069,(76, 9),58	1195,(152, 5),15	1235,(169, 5),77	1338,(110, 2),7	1351,(76, 2),9	1462,(174, 2),9	1565,(135, 13),168	1734,(17, 0),1	
