80
# CPU
0,0,1	1,4,3	4,23,3	7,8,3	10,7,3	13,12,3	16,9,3	19,3,3	22,28,3	25,30,3	28,31,3	31,33,3	34,11,3	37,17,3	40,26,3	43,38,3	46,1,3	49,21,3	52,25,3	55,36,3	58,10,3	61,19,3	64,18,3	67,14,3	70,22,3	73,34,3	76,35,3	79,41,1	
5,27,3	9,5,3	22,2,3	25,40,3	28,37,3	31,24,3	34,15,3	37,29,3	40,13,3	43,16,3	46,6,3	49,20,3	52,32,3	55,39,3	
# Incoming
8,(27, 41),2	12,(5, 41),2	28,(40, 41),2	31,(37, 41),2	34,(24, 41),2	37,(15, 41),2	40,(29, 41),2	43,(13, 41),2	46,(16, 41),2	49,(6, 41),2	52,(20, 41),2	55,(32, 41),2	58,(39, 41),2	
4,(4, 27),1	5,(4, 5),4	9,(0, 2),13	22,(4, 20),3	25,(3, 39),18	49,(1, 32),3	52,(1, 39),1	
# Outgoing
4,(4, 27),1	5,(4, 5),4	9,(0, 2),13	22,(4, 20),3	25,(3, 39),18	49,(1, 32),3	52,(1, 39),1	
8,(27, 41),2	12,(5, 41),2	28,(40, 41),2	31,(37, 41),2	34,(24, 41),2	37,(15, 41),2	40,(29, 41),2	43,(13, 41),2	46,(16, 41),2	49,(6, 41),2	52,(20, 41),2	55,(32, 41),2	58,(39, 41),2	
