20946
# CPU
253,10,24	425,160,24	449,150,24	505,20,24	529,190,24	553,130,24	757,110,24	825,50,24	937,60,24	989,90,24	1441,30,24	1481,40,24	1509,120,24	1945,170,24	1981,180,24	2293,200,24	2457,80,24	2853,100,24	2977,140,24	3237,70,24	
225,9,24	397,99,24	477,19,24	645,69,24	689,119,24	713,129,24	737,189,24	785,139,24	813,89,24	1073,109,24	1345,169,24	1385,29,24	1409,59,24	1745,79,24	1793,159,24	1977,179,24	2001,199,24	6017,49,24	6053,39,24	6333,149,24	
197,8,24	449,18,24	473,68,24	537,158,24	561,188,24	585,178,24	609,108,24	669,78,24	785,148,24	861,38,24	885,48,24	1065,118,24	1345,138,24	1433,28,24	1585,98,24	1817,88,24	2241,198,24	3217,128,24	3249,168,24	19677,58,24	
169,7,24	193,87,24	309,77,24	421,17,24	445,127,24	549,47,24	601,137,24	657,97,24	1609,187,24	1633,27,24	1657,37,24	1693,107,24	1797,167,24	1913,157,24	2389,57,24	2525,117,24	2641,197,24	2757,67,24	19989,147,24	20237,177,24	
141,6,24	165,26,24	301,76,24	393,16,24	417,66,24	441,136,24	485,46,24	545,36,24	581,56,24	605,126,24	685,196,24	753,146,24	857,96,24	1773,86,24	1869,156,24	1965,166,24	1989,176,24	2161,116,24	2925,106,24	19453,186,24	
113,5,24	137,175,24	365,15,24	389,65,24	413,115,24	517,35,24	541,85,24	565,45,24	589,95,24	625,75,24	701,25,24	725,105,24	913,195,24	1185,185,24	1481,135,24	1953,165,24	2389,55,24	3009,145,24	3033,155,24	3649,125,24	
85,4,24	337,14,24	361,34,24	385,154,24	409,64,24	565,84,24	589,54,24	669,194,24	721,74,24	749,144,24	1113,114,24	1289,134,24	1409,174,24	1789,164,24	2177,184,24	2277,124,24	2617,104,24	2725,24,24	2805,94,24	4549,44,24	
57,3,24	253,53,24	309,13,24	333,73,24	513,23,24	553,133,24	629,193,24	749,103,24	1017,153,24	1329,33,24	1353,63,24	1385,173,24	1417,113,24	1441,183,24	1829,93,24	1853,123,24	1941,163,24	2097,43,24	2777,83,24	19905,143,24	
29,2,24	281,12,24	413,132,24	617,62,24	641,152,24	669,192,24	693,52,24	1469,122,24	1493,42,24	1593,102,24	1617,22,24	1641,182,24	1685,82,24	1741,92,24	1797,32,24	1837,142,24	3405,72,24	3429,162,24	5349,172,24	19737,112,24	
0,0,1	1,11,24	25,1,24	469,81,24	517,91,24	545,51,24	573,171,24	597,71,24	829,151,24	1577,31,24	1601,181,24	1761,141,24	2137,161,24	2253,21,24	2921,61,24	2945,111,24	3129,41,24	3429,131,24	4597,101,24	5289,121,24	20333,191,24	20945,201,1	
# Incoming
225,(0, 10),28	253,(6, 30),12	289,(6, 110),12	365,(3, 140),28	393,(4, 160),32	425,(14, 150),4	441,(8, 80),4	457,(17, 60),4	477,(0, 20),28	505,(9, 190),20	525,(19, 100),4	529,(11, 30),16	545,(5, 60),12	565,(2, 180),12	577,(6, 170),36	617,(5, 100),92	709,(14, 80),8	717,(14, 110),40	797,(5, 170),4	813,(15, 50),12	825,(15, 70),4	921,(13, 60),16	937,(13, 90),52	1041,(5, 140),144	1349,(15, 170),8	1433,(1, 30),8	1441,(1, 40),40	1481,(12, 120),28	1713,(1, 70),24	1793,(7, 170),152	1977,(1, 180),4	2241,(7, 200),52	2409,(17, 80),48	2805,(17, 100),48	2953,(17, 140),24	2977,(19, 70),260	
197,(0, 9),28	229,(3, 59),136	365,(6, 99),32	397,(10, 79),4	401,(2, 119),8	409,(7, 29),36	445,(10, 149),4	449,(0, 19),28	477,(8, 49),28	529,(20, 59),4	537,(2, 159),16	553,(4, 169),12	581,(11, 69),64	645,(6, 189),32	677,(18, 159),4	681,(17, 189),4	685,(11, 119),4	697,(14, 89),4	701,(14, 129),4	721,(18, 189),4	725,(16, 109),48	773,(18, 139),12	785,(5, 149),4	789,(18, 89),24	857,(18, 169),8	913,(13, 49),8	997,(13, 109),76	1273,(11, 169),72	1353,(12, 29),32	1401,(12, 59),4	1405,(12, 79),56	1485,(1, 49),216	1737,(1, 79),8	1761,(7, 159),32	1969,(1, 179),8	1981,(1, 199),4	1985,(2, 49),4032	6017,(17, 39),36	6053,(18, 149),280	
169,(0, 8),28	317,(10, 158),36	421,(0, 18),28	449,(9, 108),8	461,(9, 168),8	505,(11, 28),24	529,(19, 88),4	533,(2, 158),4	537,(20, 48),4	541,(19, 188),4	553,(2, 178),12	565,(5, 78),4	569,(5, 108),32	601,(7, 78),68	669,(14, 38),28	705,(14, 168),4	709,(5, 128),40	753,(5, 148),32	801,(5, 198),12	813,(14, 118),20	833,(16, 38),28	861,(16, 48),20	1017,(20, 98),24	1041,(20, 118),24	1333,(15, 138),12	1345,(15, 168),4	1409,(1, 28),24	1525,(15, 98),60	1593,(12, 198),12	1745,(1, 88),72	2177,(7, 198),64	2617,(13, 128),600	3217,(17, 168),32	19453,(15, 58),224	
141,(0, 7),28	169,(2, 27),36	205,(3, 27),24	229,(4, 77),4	233,(4, 117),20	253,(4, 137),4	265,(6, 37),20	285,(6, 107),4	289,(10, 37),4	301,(10, 77),8	309,(10, 117),8	393,(0, 17),28	421,(8, 47),20	441,(9, 127),4	489,(16, 107),8	497,(2, 147),36	533,(19, 107),4	537,(18, 47),12	557,(5, 67),4	561,(16, 57),16	577,(20, 97),12	589,(14, 67),8	597,(20, 137),4	605,(18, 177),12	645,(11, 97),12	657,(20, 147),12	673,(11, 117),12	685,(2, 107),668	1353,(4, 187),92	1445,(5, 187),12	1457,(5, 197),68	1525,(9, 187),84	1609,(13, 27),16	1625,(13, 37),20	1645,(15, 37),4	1649,(15, 107),44	1701,(1, 57),12	1713,(15, 67),64	1777,(16, 167),20	1869,(1, 157),44	1913,(3, 57),476	2389,(16, 117),136	2525,(16, 197),116	2641,(18, 67),116	2921,(19, 147),48	19905,(15, 147),84	19989,(15, 177),248	
113,(0, 6),28	141,(3, 26),8	149,(4, 56),4	157,(4, 66),4	169,(4, 86),4	173,(4, 126),44	285,(10, 166),4	293,(10, 76),8	365,(0, 16),28	393,(8, 66),4	397,(13, 86),4	409,(3, 86),56	465,(7, 46),20	505,(8, 186),4	517,(7, 36),28	545,(11, 56),36	581,(7, 126),8	589,(18, 86),16	605,(20, 86),32	637,(20, 106),4	665,(11, 116),8	673,(2, 196),12	685,(7, 86),24	749,(5, 146),4	789,(5, 166),8	813,(18, 96),44	865,(18, 176),36	989,(13, 106),8	1113,(7, 116),596	1709,(12, 86),64	1837,(1, 156),32	1953,(1, 166),12	1965,(1, 176),4	1969,(14, 116),192	2853,(17, 106),72	3061,(5, 186),16392	
85,(0, 5),28	161,(3, 125),4	217,(4, 165),4	281,(10, 45),4	301,(6, 135),4	337,(0, 15),28	381,(8, 55),4	393,(13, 115),4	401,(6, 145),88	489,(7, 35),28	517,(8, 135),20	537,(9, 85),4	545,(7, 45),12	557,(8, 95),32	589,(9, 75),36	625,(14, 195),20	645,(19, 155),16	677,(16, 25),24	701,(16, 105),24	725,(18, 145),16	773,(16, 155),16	789,(16, 185),12	829,(3, 195),84	913,(4, 185),272	1461,(12, 135),20	1509,(12, 165),80	1941,(1, 165),12	2365,(17, 55),24	2977,(17, 145),32	3009,(17, 155),4	3237,(19, 125),412	
57,(0, 4),28	149,(3, 34),4	153,(3, 74),8	165,(3, 174),12	253,(2, 74),52	305,(6, 164),4	309,(0, 14),28	337,(8, 44),44	381,(10, 74),4	397,(8, 134),24	429,(2, 134),68	497,(6, 174),60	557,(7, 194),4	561,(5, 84),4	565,(7, 54),12	577,(2, 184),80	657,(11, 114),8	665,(2, 194),4	669,(7, 174),12	681,(8, 74),40	721,(9, 44),16	737,(19, 144),12	749,(7, 114),364	1113,(10, 134),176	1289,(10, 174),64	1353,(19, 164),4	1377,(11, 174),32	1409,(8, 104),372	1781,(12, 164),8	1797,(19, 44),136	1945,(7, 184),232	2177,(16, 124),100	2277,(19, 94),32	2389,(13, 104),228	2617,(20, 24),108	2777,(17, 94),28	3129,(20, 44),1420	
29,(0, 3),28	161,(4, 73),8	205,(2, 53),48	257,(4, 143),20	277,(10, 33),4	281,(0, 13),28	309,(6, 73),20	329,(6, 113),4	385,(8, 113),4	409,(2, 123),4	413,(9, 43),8	421,(9, 63),20	453,(7, 93),4	457,(8, 143),20	485,(17, 43),4	501,(19, 63),4	509,(18, 23),4	513,(18, 43),4	517,(4, 133),36	553,(18, 183),4	565,(14, 43),24	617,(18, 193),12	657,(12, 83),8	709,(7, 103),40	749,(10, 153),268	1017,(16, 113),24	1185,(5, 143),104	1325,(15, 33),4	1329,(15, 63),4	1345,(11, 173),32	1377,(15, 173),8	1385,(12, 43),16	1401,(15, 113),16	1417,(15, 183),12	1817,(1, 93),12	1829,(1, 123),4	1913,(1, 163),28	1941,(20, 43),156	2457,(17, 83),320	19737,(15, 143),168	
1,(0, 2),28	153,(4, 62),4	177,(3, 192),4	253,(0, 12),28	281,(4, 92),84	365,(4, 132),28	393,(10, 172),4	397,(6, 112),4	401,(10, 132),12	445,(7, 52),8	457,(9, 152),4	465,(3, 92),136	601,(5, 52),12	613,(5, 62),4	617,(6, 152),8	625,(16, 42),4	629,(18, 82),28	657,(18, 92),8	665,(18, 192),4	669,(19, 52),4	673,(20, 52),4	689,(11, 122),584	1273,(6, 182),168	1441,(13, 122),28	1481,(1, 42),4	1485,(10, 102),108	1593,(15, 22),16	1609,(15, 182),28	1637,(16, 82),48	1685,(16, 92),56	1741,(19, 32),56	1833,(1, 142),4	1837,(5, 162),1224	3061,(14, 72),344	3405,(17, 162),16	5289,(20, 172),60	19677,(15, 112),60	
305,(2, 111),96	401,(3, 71),8	409,(9, 31),4	413,(2, 131),16	429,(4, 81),40	469,(4, 91),48	517,(5, 51),28	545,(10, 191),20	565,(19, 161),4	569,(19, 171),4	577,(17, 181),4	589,(17, 71),8	597,(14, 141),4	601,(3, 151),228	829,(5, 61),92	921,(5, 111),4	925,(5, 121),116	1041,(6, 41),104	1145,(26, 201),36	1181,(53, 201),36	1217,(76, 201),36	1253,(13, 111),16	1289,(175, 201),36	1325,(73, 201),36	1361,(15, 31),4	1365,(15, 111),12	1377,(99, 201),36	1413,(20, 21),16	1445,(34, 201),36	1481,(154, 201),36	1517,(16, 31),60	1589,(12, 181),4	1593,(64, 201),36	1629,(132, 201),36	1665,(160, 201),36	1709,(7, 141),52	1777,(65, 201),36	1813,(16, 21),212	2025,(66, 201),36	2061,(136, 201),36	2097,(18, 161),40	2137,(150, 201),36	2173,(68, 201),36	2209,(19, 21),44	2253,(190, 201),36	2293,(87, 201),36	2329,(77, 201),36	2389,(17, 61),20	2409,(19, 61),512	2925,(17, 111),12	2937,(17, 131),16	2953,(46, 201),36	3013,(127, 201),36	3049,(20, 41),80	3129,(158, 201),36	3165,(36, 201),36	3217,(13, 131),212	3429,(23, 201),36	3465,(47, 201),36	3501,(133, 201),36	3537,(188, 201),36	3573,(84, 201),36	3609,(56, 201),36	3649,(19, 191),40	3689,(178, 201),36	3725,(54, 201),36	3761,(137, 201),36	3797,(126, 201),36	3833,(108, 201),36	3869,(193, 201),36	3905,(69, 201),36	3941,(97, 201),36	3977,(78, 201),36	4013,(194, 201),36	4049,(196, 201),36	4085,(119, 201),36	4121,(129, 201),36	4157,(74, 201),36	4193,(189, 201),36	4229,(103, 201),36	4265,(144, 201),36	4301,(146, 201),36	4337,(148, 201),36	4373,(139, 201),36	4409,(89, 201),36	4445,(96, 201),36	4481,(38, 201),36	4549,(20, 101),48	4597,(20, 121),692	5289,(48, 201),36	5349,(130, 201),36	5385,(110, 201),36	5421,(50, 201),36	5457,(60, 201),36	5493,(90, 201),36	5529,(153, 201),36	5565,(118, 201),36	5601,(109, 201),36	5637,(114, 201),36	5673,(134, 201),36	5709,(33, 201),36	5745,(169, 201),36	5781,(138, 201),36	5817,(63, 201),36	5853,(29, 201),36	5889,(173, 201),36	5925,(59, 201),36	5961,(174, 201),36	6017,(62, 201),36	6053,(152, 201),36	6089,(192, 201),36	6125,(52, 201),36	6161,(113, 201),36	6197,(30, 201),36	6233,(183, 201),36	6269,(122, 201),36	6333,(28, 201),36	6369,(40, 201),36	6405,(42, 201),36	6441,(120, 201),36	6477,(98, 201),36	6513,(102, 201),36	6549,(187, 201),36	6585,(22, 201),36	6621,(27, 201),36	6657,(182, 201),36	6693,(37, 201),36	6729,(82, 201),36	6765,(107, 201),36	6801,(92, 201),36	6837,(79, 201),36	6873,(86, 201),36	6909,(164, 201),36	6945,(159, 201),36	6981,(32, 201),36	7017,(167, 201),36	7053,(88, 201),36	7089,(93, 201),36	7125,(142, 201),36	7161,(123, 201),36	7197,(156, 201),36	7233,(157, 201),36	7269,(163, 201),36	7305,(170, 201),36	7341,(166, 201),36	7377,(179, 201),36	7413,(180, 201),36	7449,(176, 201),36	7485,(199, 201),36	7521,(43, 201),36	7557,(116, 201),36	7593,(184, 201),36	7629,(198, 201),36	7665,(124, 201),36	7701,(200, 201),36	7737,(57, 201),36	7773,(80, 201),36	7809,(117, 201),36	7845,(104, 201),36	7881,(197, 201),36	7917,(24, 201),36	7953,(67, 201),36	7989,(83, 201),36	8025,(94, 201),36	8061,(100, 201),36	8097,(106, 201),36	8133,(140, 201),36	8169,(128, 201),36	8205,(70, 201),36	8241,(168, 201),36	8277,(72, 201),36	8313,(162, 201),36	8349,(44, 201),36	8385,(172, 201),36	8421,(49, 201),36	8457,(39, 201),36	8493,(149, 201),36	19477,(186, 201),36	19701,(58, 201),36	19761,(112, 201),36	19929,(143, 201),36	20013,(147, 201),36	20237,(15, 191),96	20333,(115, 201),36	20369,(35, 201),36	20405,(85, 201),36	20441,(45, 201),36	20477,(95, 201),36	20513,(75, 201),36	20549,(25, 201),36	20585,(105, 201),36	20621,(195, 201),36	20657,(185, 201),36	20693,(135, 201),36	20729,(165, 201),36	20765,(55, 201),36	20801,(145, 201),36	20837,(155, 201),36	20873,(125, 201),36	20909,(177, 201),36	
# Outgoing
277,(10, 33),4	281,(10, 45),4	285,(10, 166),4	289,(10, 37),4	293,(10, 76),8	301,(10, 77),8	309,(10, 117),8	317,(10, 158),36	381,(10, 74),4	393,(10, 172),4	397,(10, 79),4	401,(10, 132),12	445,(10, 149),4	529,(20, 59),4	537,(20, 48),4	545,(10, 191),20	577,(20, 97),12	597,(20, 137),4	605,(20, 86),32	637,(20, 106),4	657,(20, 147),12	673,(20, 52),4	749,(10, 153),268	1017,(20, 98),24	1041,(20, 118),24	1113,(10, 134),176	1289,(10, 174),64	1413,(20, 21),16	1485,(10, 102),108	1665,(160, 201),36	1941,(20, 43),156	2137,(150, 201),36	2253,(190, 201),36	2617,(20, 24),108	3049,(20, 41),80	3129,(20, 44),1420	4549,(20, 101),48	4597,(20, 121),692	5289,(20, 172),60	5349,(130, 201),36	5385,(110, 201),36	5421,(50, 201),36	5457,(60, 201),36	5493,(90, 201),36	6197,(30, 201),36	6369,(40, 201),36	6441,(120, 201),36	7305,(170, 201),36	7413,(180, 201),36	7701,(200, 201),36	7773,(80, 201),36	8061,(100, 201),36	8133,(140, 201),36	8205,(70, 201),36	
409,(9, 31),4	413,(9, 43),8	421,(9, 63),20	441,(9, 127),4	449,(9, 108),8	457,(9, 152),4	461,(9, 168),8	501,(19, 63),4	505,(9, 190),20	525,(19, 100),4	529,(19, 88),4	533,(19, 107),4	537,(9, 85),4	541,(19, 188),4	565,(19, 161),4	569,(19, 171),4	589,(9, 75),36	645,(19, 155),16	669,(19, 52),4	721,(9, 44),16	737,(19, 144),12	1353,(19, 164),4	1377,(99, 201),36	1525,(9, 187),84	1741,(19, 32),56	1797,(19, 44),136	2209,(19, 21),44	2277,(19, 94),32	2409,(19, 61),512	2921,(19, 147),48	2977,(19, 70),260	3237,(19, 125),412	3649,(19, 191),40	3905,(69, 201),36	4085,(119, 201),36	4121,(129, 201),36	4193,(189, 201),36	4373,(139, 201),36	4409,(89, 201),36	5601,(109, 201),36	5745,(169, 201),36	5853,(29, 201),36	5925,(59, 201),36	6837,(79, 201),36	6945,(159, 201),36	7377,(179, 201),36	7485,(199, 201),36	8421,(49, 201),36	8457,(39, 201),36	8493,(149, 201),36	
337,(8, 44),44	381,(8, 55),4	385,(8, 113),4	393,(8, 66),4	397,(8, 134),24	421,(8, 47),20	441,(8, 80),4	457,(8, 143),20	477,(8, 49),28	505,(8, 186),4	509,(18, 23),4	513,(18, 43),4	517,(8, 135),20	537,(18, 47),12	553,(18, 183),4	557,(8, 95),32	589,(18, 86),16	605,(18, 177),12	617,(18, 193),12	629,(18, 82),28	657,(18, 92),8	665,(18, 192),4	677,(18, 159),4	681,(8, 74),40	721,(18, 189),4	725,(18, 145),16	773,(18, 139),12	789,(18, 89),24	813,(18, 96),44	857,(18, 169),8	865,(18, 176),36	1409,(8, 104),372	2097,(18, 161),40	2173,(68, 201),36	2641,(18, 67),116	3129,(158, 201),36	3537,(188, 201),36	3689,(178, 201),36	3833,(108, 201),36	3977,(78, 201),36	4337,(148, 201),36	4481,(38, 201),36	5289,(48, 201),36	5565,(118, 201),36	5781,(138, 201),36	6053,(18, 149),280	6333,(28, 201),36	6477,(98, 201),36	7053,(88, 201),36	7629,(198, 201),36	8169,(128, 201),36	8241,(168, 201),36	19701,(58, 201),36	
409,(7, 29),36	445,(7, 52),8	453,(7, 93),4	457,(17, 60),4	465,(7, 46),20	485,(17, 43),4	489,(7, 35),28	517,(7, 36),28	545,(7, 45),12	557,(7, 194),4	565,(7, 54),12	577,(17, 181),4	581,(7, 126),8	589,(17, 71),8	601,(7, 78),68	669,(7, 174),12	681,(17, 189),4	685,(7, 86),24	709,(7, 103),40	749,(7, 114),364	1113,(7, 116),596	1709,(7, 141),52	1761,(7, 159),32	1793,(7, 170),152	1945,(7, 184),232	2177,(7, 198),64	2241,(7, 200),52	2293,(87, 201),36	2329,(77, 201),36	2365,(17, 55),24	2389,(17, 61),20	2409,(17, 80),48	2457,(17, 83),320	2777,(17, 94),28	2805,(17, 100),48	2853,(17, 106),72	2925,(17, 111),12	2937,(17, 131),16	2953,(17, 140),24	2977,(17, 145),32	3009,(17, 155),4	3013,(127, 201),36	3217,(17, 168),32	3405,(17, 162),16	3465,(47, 201),36	3761,(137, 201),36	3941,(97, 201),36	6017,(17, 39),36	6549,(187, 201),36	6621,(27, 201),36	6693,(37, 201),36	6765,(107, 201),36	7017,(167, 201),36	7233,(157, 201),36	7737,(57, 201),36	7809,(117, 201),36	7881,(197, 201),36	7953,(67, 201),36	20013,(147, 201),36	20909,(177, 201),36	
253,(6, 30),12	265,(6, 37),20	285,(6, 107),4	289,(6, 110),12	301,(6, 135),4	305,(6, 164),4	309,(6, 73),20	329,(6, 113),4	365,(6, 99),32	397,(6, 112),4	401,(6, 145),88	489,(16, 107),8	497,(6, 174),60	561,(16, 57),16	577,(6, 170),36	617,(6, 152),8	625,(16, 42),4	645,(6, 189),32	677,(16, 25),24	701,(16, 105),24	725,(16, 109),48	773,(16, 155),16	789,(16, 185),12	833,(16, 38),28	861,(16, 48),20	1017,(16, 113),24	1041,(6, 41),104	1145,(26, 201),36	1217,(76, 201),36	1273,(6, 182),168	1517,(16, 31),60	1637,(16, 82),48	1685,(16, 92),56	1777,(16, 167),20	1813,(16, 21),212	2025,(66, 201),36	2061,(136, 201),36	2177,(16, 124),100	2389,(16, 117),136	2525,(16, 197),116	2953,(46, 201),36	3165,(36, 201),36	3609,(56, 201),36	3797,(126, 201),36	4049,(196, 201),36	4301,(146, 201),36	4445,(96, 201),36	6873,(86, 201),36	7197,(156, 201),36	7341,(166, 201),36	7449,(176, 201),36	7557,(116, 201),36	8097,(106, 201),36	19477,(186, 201),36	
517,(5, 51),28	545,(5, 60),12	557,(5, 67),4	561,(5, 84),4	565,(5, 78),4	569,(5, 108),32	601,(5, 52),12	613,(5, 62),4	617,(5, 100),92	709,(5, 128),40	749,(5, 146),4	753,(5, 148),32	785,(5, 149),4	789,(5, 166),8	797,(5, 170),4	801,(5, 198),12	813,(15, 50),12	825,(15, 70),4	829,(5, 61),92	921,(5, 111),4	925,(5, 121),116	1041,(5, 140),144	1185,(5, 143),104	1289,(175, 201),36	1325,(15, 33),4	1329,(15, 63),4	1333,(15, 138),12	1345,(15, 168),4	1349,(15, 170),8	1361,(15, 31),4	1365,(15, 111),12	1377,(15, 173),8	1401,(15, 113),16	1417,(15, 183),12	1445,(5, 187),12	1457,(5, 197),68	1525,(15, 98),60	1593,(15, 22),16	1609,(15, 182),28	1645,(15, 37),4	1649,(15, 107),44	1713,(15, 67),64	1777,(65, 201),36	1837,(5, 162),1224	3061,(5, 186),16392	19453,(15, 58),224	19677,(15, 112),60	19737,(15, 143),168	19905,(15, 147),84	19989,(15, 177),248	20237,(15, 191),96	20333,(115, 201),36	20369,(35, 201),36	20405,(85, 201),36	20441,(45, 201),36	20477,(95, 201),36	20513,(75, 201),36	20549,(25, 201),36	20585,(105, 201),36	20621,(195, 201),36	20657,(185, 201),36	20693,(135, 201),36	20729,(165, 201),36	20765,(55, 201),36	20801,(145, 201),36	20837,(155, 201),36	20873,(125, 201),36	
149,(4, 56),4	153,(4, 62),4	157,(4, 66),4	161,(4, 73),8	169,(4, 86),4	173,(4, 126),44	217,(4, 165),4	229,(4, 77),4	233,(4, 117),20	253,(4, 137),4	257,(4, 143),20	281,(4, 92),84	365,(4, 132),28	393,(4, 160),32	425,(14, 150),4	429,(4, 81),40	469,(4, 91),48	517,(4, 133),36	553,(4, 169),12	565,(14, 43),24	589,(14, 67),8	597,(14, 141),4	625,(14, 195),20	669,(14, 38),28	697,(14, 89),4	701,(14, 129),4	705,(14, 168),4	709,(14, 80),8	717,(14, 110),40	813,(14, 118),20	913,(4, 185),272	1353,(4, 187),92	1445,(34, 201),36	1481,(154, 201),36	1593,(64, 201),36	1969,(14, 116),192	3061,(14, 72),344	3573,(84, 201),36	3725,(54, 201),36	4013,(194, 201),36	4157,(74, 201),36	4265,(144, 201),36	5637,(114, 201),36	5673,(134, 201),36	5961,(174, 201),36	6909,(164, 201),36	7593,(184, 201),36	7665,(124, 201),36	7845,(104, 201),36	7917,(24, 201),36	8025,(94, 201),36	8349,(44, 201),36	
141,(3, 26),8	149,(3, 34),4	153,(3, 74),8	161,(3, 125),4	165,(3, 174),12	177,(3, 192),4	205,(3, 27),24	229,(3, 59),136	365,(3, 140),28	393,(13, 115),4	397,(13, 86),4	401,(3, 71),8	409,(3, 86),56	465,(3, 92),136	601,(3, 151),228	829,(3, 195),84	913,(13, 49),8	921,(13, 60),16	937,(13, 90),52	989,(13, 106),8	997,(13, 109),76	1181,(53, 201),36	1253,(13, 111),16	1325,(73, 201),36	1441,(13, 122),28	1609,(13, 27),16	1625,(13, 37),20	1913,(3, 57),476	2389,(13, 104),228	2617,(13, 128),600	3217,(13, 131),212	3429,(23, 201),36	3501,(133, 201),36	3869,(193, 201),36	4229,(103, 201),36	5529,(153, 201),36	5709,(33, 201),36	5817,(63, 201),36	5889,(173, 201),36	6161,(113, 201),36	6233,(183, 201),36	7089,(93, 201),36	7161,(123, 201),36	7269,(163, 201),36	7521,(43, 201),36	7989,(83, 201),36	19929,(143, 201),36	
169,(2, 27),36	205,(2, 53),48	253,(2, 74),52	305,(2, 111),96	401,(2, 119),8	409,(2, 123),4	413,(2, 131),16	429,(2, 134),68	497,(2, 147),36	533,(2, 158),4	537,(2, 159),16	553,(2, 178),12	565,(2, 180),12	577,(2, 184),80	657,(12, 83),8	665,(2, 194),4	673,(2, 196),12	685,(2, 107),668	1353,(12, 29),32	1385,(12, 43),16	1401,(12, 59),4	1405,(12, 79),56	1461,(12, 135),20	1481,(12, 120),28	1509,(12, 165),80	1589,(12, 181),4	1593,(12, 198),12	1629,(132, 201),36	1709,(12, 86),64	1781,(12, 164),8	1985,(2, 49),4032	6017,(62, 201),36	6053,(152, 201),36	6089,(192, 201),36	6125,(52, 201),36	6269,(122, 201),36	6405,(42, 201),36	6513,(102, 201),36	6585,(22, 201),36	6657,(182, 201),36	6729,(82, 201),36	6801,(92, 201),36	6981,(32, 201),36	7125,(142, 201),36	8277,(72, 201),36	8313,(162, 201),36	8385,(172, 201),36	19761,(112, 201),36	
1,(0, 2),28	29,(0, 3),28	57,(0, 4),28	85,(0, 5),28	113,(0, 6),28	141,(0, 7),28	169,(0, 8),28	197,(0, 9),28	225,(0, 10),28	253,(0, 12),28	281,(0, 13),28	309,(0, 14),28	337,(0, 15),28	365,(0, 16),28	393,(0, 17),28	421,(0, 18),28	449,(0, 19),28	477,(0, 20),28	505,(11, 28),24	529,(11, 30),16	545,(11, 56),36	581,(11, 69),64	645,(11, 97),12	657,(11, 114),8	665,(11, 116),8	673,(11, 117),12	685,(11, 119),4	689,(11, 122),584	1273,(11, 169),72	1345,(11, 173),32	1377,(11, 174),32	1409,(1, 28),24	1433,(1, 30),8	1441,(1, 40),40	1481,(1, 42),4	1485,(1, 49),216	1701,(1, 57),12	1713,(1, 70),24	1737,(1, 79),8	1745,(1, 88),72	1817,(1, 93),12	1829,(1, 123),4	1833,(1, 142),4	1837,(1, 156),32	1869,(1, 157),44	1913,(1, 163),28	1941,(1, 165),12	1953,(1, 166),12	1965,(1, 176),4	1969,(1, 179),8	1977,(1, 180),4	1981,(1, 199),4	
