2434
# CPU
0,0,1	1,5,28	29,6,28	57,36,28	85,3,28	113,4,28	141,11,28	169,88,28	197,112,28	225,1,28	253,76,28	281,108,28	309,113,28	337,64,28	365,81,28	393,12,28	421,52,28	449,70,28	477,115,28	505,27,28	533,7,28	561,26,28	589,86,28	617,28,28	645,61,28	673,99,28	701,37,28	729,94,28	757,21,28	785,55,28	813,77,28	841,23,28	869,67,28	897,43,28	925,25,28	953,63,28	981,87,28	1009,80,28	1037,34,28	1065,83,28	1093,66,28	1121,13,28	1149,116,28	1177,103,28	1205,114,28	1233,90,28	1261,78,28	1289,30,28	1317,97,28	1345,118,28	1373,84,28	1401,19,28	1429,35,28	1457,62,28	1485,71,28	1513,54,28	1541,33,28	1569,24,28	1597,96,28	1625,101,28	1653,39,28	1681,117,28	1709,40,28	1737,91,28	1949,60,28	2249,41,28	
41,9,28	69,104,28	97,10,28	125,8,28	153,16,28	181,106,28	209,82,28	237,92,28	265,42,28	293,57,28	321,102,28	349,17,28	377,48,28	405,2,28	433,95,28	461,100,28	489,32,28	517,107,28	545,98,28	573,85,28	601,111,28	629,31,28	657,18,28	685,110,28	713,46,28	741,72,28	769,73,28	797,89,28	825,53,28	853,29,28	881,105,28	909,93,28	937,14,28	965,109,28	993,20,28	1021,47,28	1049,58,28	1077,119,28	1105,22,28	1133,15,28	1161,51,28	1189,59,28	1217,45,28	1245,44,28	1273,38,28	1301,68,28	1329,50,28	1357,74,28	1385,56,28	1413,79,28	1441,69,28	1481,75,28	1557,49,28	1633,120,28	1749,65,28	2433,121,1	
# Incoming
433,(2, 43),4	437,(9, 25),4	441,(8, 63),4	445,(8, 87),4	449,(9, 80),4	453,(10, 34),4	457,(10, 83),8	465,(2, 66),12	477,(8, 13),4	481,(2, 13),8	489,(2, 116),12	501,(8, 103),12	513,(8, 114),12	525,(9, 90),12	537,(8, 90),4	541,(8, 78),16	557,(10, 30),12	569,(2, 30),8	577,(9, 97),4	581,(10, 97),16	597,(8, 97),4	601,(10, 118),24	625,(9, 84),8	633,(2, 84),16	649,(9, 19),4	653,(8, 19),32	685,(9, 35),36	721,(10, 62),36	757,(2, 71),36	793,(9, 54),36	829,(2, 54),20	849,(10, 33),4	853,(2, 33),64	917,(9, 24),4	921,(10, 24),52	973,(8, 24),20	993,(10, 96),80	1073,(9, 101),44	1117,(8, 101),36	1153,(9, 39),84	1237,(10, 117),32	1269,(2, 117),72	1341,(9, 40),4	1345,(2, 40),172	1517,(9, 91),4	1521,(8, 91),188	1709,(10, 60),204	1913,(8, 60),20	1933,(2, 60),16	1949,(10, 41),300	
1,(0, 9),40	41,(0, 10),40	81,(0, 8),40	121,(3, 16),20	141,(5, 92),4	145,(4, 92),4	149,(6, 42),8	157,(4, 42),12	169,(11, 106),4	173,(11, 82),4	177,(11, 92),4	181,(6, 57),16	197,(4, 57),4	201,(6, 102),4	205,(3, 102),4	209,(4, 17),24	233,(6, 48),4	237,(4, 100),4	241,(11, 32),4	245,(11, 98),4	249,(5, 85),4	253,(1, 102),16	269,(1, 17),8	277,(11, 48),32	309,(0, 2),40	349,(1, 32),4	353,(1, 98),4	357,(5, 111),8	365,(3, 31),4	369,(1, 18),4	373,(5, 110),4	377,(5, 46),12	389,(1, 46),4	393,(11, 73),12	405,(5, 53),8	413,(6, 53),8	421,(12, 95),4	425,(12, 107),8	433,(12, 85),4	437,(12, 111),4	441,(12, 72),16	457,(12, 73),4	461,(12, 89),4	465,(5, 29),8	473,(12, 29),4	477,(5, 105),8	485,(4, 105),8	493,(12, 105),4	497,(3, 93),8	505,(1, 93),16	521,(1, 14),28	549,(5, 109),4	553,(6, 109),8	561,(7, 31),8	569,(7, 18),8	577,(7, 110),8	585,(7, 89),12	597,(7, 53),4	601,(7, 29),8	609,(4, 109),8	617,(1, 109),4	621,(7, 109),4	625,(5, 20),12	637,(1, 20),20	657,(5, 47),24	681,(12, 47),12	693,(6, 58),16	709,(11, 58),16	725,(12, 58),8	733,(4, 119),4	737,(11, 119),20	757,(12, 119),16	773,(12, 22),16	789,(7, 22),24	813,(5, 15),12	825,(6, 15),8	833,(4, 15),16	849,(12, 15),4	853,(12, 51),40	893,(5, 59),40	933,(5, 45),4	937,(4, 45),24	961,(1, 45),12	973,(3, 44),4	977,(4, 44),36	1013,(5, 38),28	1041,(11, 38),20	1061,(3, 68),32	1093,(11, 68),16	1109,(12, 68),8	1117,(12, 50),4	1121,(7, 50),52	1173,(5, 74),28	1201,(11, 74),4	1205,(12, 74),16	1221,(7, 74),8	1229,(5, 56),4	1233,(6, 56),40	1273,(4, 56),12	1285,(1, 56),4	1289,(6, 79),52	1341,(3, 79),4	1345,(1, 79),4	1349,(5, 69),4	1353,(4, 69),56	1409,(6, 75),16	1425,(4, 75),56	1481,(3, 49),28	1509,(1, 49),48	1557,(6, 120),68	1625,(3, 120),4	1629,(7, 120),4	1633,(5, 65),4	1637,(6, 65),32	1669,(3, 65),4	1673,(11, 65),72	1745,(7, 65),4	1749,(36, 121),12	1761,(88, 121),12	1773,(112, 121),12	1785,(76, 121),12	1797,(108, 121),12	1809,(113, 121),12	1821,(64, 121),12	1833,(81, 121),12	1845,(52, 121),12	1857,(70, 121),12	1869,(115, 121),12	1881,(27, 121),12	1893,(26, 121),12	1905,(86, 121),12	1917,(28, 121),12	1929,(61, 121),12	1941,(99, 121),12	1953,(37, 121),12	1965,(94, 121),12	1977,(21, 121),12	1989,(55, 121),12	2001,(77, 121),12	2013,(23, 121),12	2025,(67, 121),12	2037,(43, 121),12	2049,(25, 121),12	2061,(63, 121),12	2073,(87, 121),12	2085,(80, 121),12	2097,(34, 121),12	2109,(83, 121),12	2121,(66, 121),12	2133,(13, 121),12	2145,(116, 121),12	2157,(103, 121),12	2169,(114, 121),12	2181,(90, 121),12	2193,(78, 121),12	2205,(30, 121),12	2217,(97, 121),12	2229,(118, 121),12	2241,(84, 121),12	2253,(19, 121),12	2265,(35, 121),12	2277,(62, 121),12	2289,(71, 121),12	2301,(54, 121),12	2313,(33, 121),12	2325,(24, 121),12	2337,(96, 121),12	2349,(101, 121),12	2361,(39, 121),12	2373,(117, 121),12	2385,(40, 121),12	2397,(91, 121),12	2409,(60, 121),12	2421,(41, 121),12	
# Outgoing
1,(0, 9),40	41,(0, 10),40	81,(0, 8),40	121,(3, 16),20	141,(5, 92),4	145,(4, 92),4	149,(6, 42),8	157,(4, 42),12	169,(11, 106),4	173,(11, 82),4	177,(11, 92),4	181,(6, 57),16	197,(4, 57),4	201,(6, 102),4	205,(3, 102),4	209,(4, 17),24	233,(6, 48),4	237,(4, 100),4	241,(11, 32),4	245,(11, 98),4	249,(5, 85),4	253,(1, 102),16	269,(1, 17),8	277,(11, 48),32	309,(0, 2),40	349,(1, 32),4	353,(1, 98),4	357,(5, 111),8	365,(3, 31),4	369,(1, 18),4	373,(5, 110),4	377,(5, 46),12	389,(1, 46),4	393,(11, 73),12	405,(5, 53),8	413,(6, 53),8	421,(12, 95),4	425,(12, 107),8	433,(12, 85),4	437,(12, 111),4	441,(12, 72),16	457,(12, 73),4	461,(12, 89),4	465,(5, 29),8	473,(12, 29),4	477,(5, 105),8	485,(4, 105),8	493,(12, 105),4	497,(3, 93),8	505,(1, 93),16	521,(1, 14),28	549,(5, 109),4	553,(6, 109),8	561,(7, 31),8	569,(7, 18),8	577,(7, 110),8	585,(7, 89),12	597,(7, 53),4	601,(7, 29),8	609,(4, 109),8	617,(1, 109),4	621,(7, 109),4	625,(5, 20),12	637,(1, 20),20	657,(5, 47),24	681,(12, 47),12	693,(6, 58),16	709,(11, 58),16	725,(12, 58),8	733,(4, 119),4	737,(11, 119),20	757,(12, 119),16	773,(12, 22),16	789,(7, 22),24	813,(5, 15),12	825,(6, 15),8	833,(4, 15),16	849,(12, 15),4	853,(12, 51),40	893,(5, 59),40	933,(5, 45),4	937,(4, 45),24	961,(1, 45),12	973,(3, 44),4	977,(4, 44),36	1013,(5, 38),28	1041,(11, 38),20	1061,(3, 68),32	1093,(11, 68),16	1109,(12, 68),8	1117,(12, 50),4	1121,(7, 50),52	1173,(5, 74),28	1201,(11, 74),4	1205,(12, 74),16	1221,(7, 74),8	1229,(5, 56),4	1233,(6, 56),40	1273,(4, 56),12	1285,(1, 56),4	1289,(6, 79),52	1341,(3, 79),4	1345,(1, 79),4	1349,(5, 69),4	1353,(4, 69),56	1409,(6, 75),16	1425,(4, 75),56	1481,(3, 49),28	1509,(1, 49),48	1557,(6, 120),68	1625,(3, 120),4	1629,(7, 120),4	1633,(5, 65),4	1637,(6, 65),32	1669,(3, 65),4	1673,(11, 65),72	1745,(7, 65),4	1749,(36, 121),12	1761,(88, 121),12	1773,(112, 121),12	1785,(76, 121),12	1797,(108, 121),12	1809,(113, 121),12	1821,(64, 121),12	1833,(81, 121),12	1845,(52, 121),12	1857,(70, 121),12	1869,(115, 121),12	1881,(27, 121),12	1893,(26, 121),12	1905,(86, 121),12	1917,(28, 121),12	1929,(61, 121),12	1941,(99, 121),12	1953,(37, 121),12	1965,(94, 121),12	1977,(21, 121),12	1989,(55, 121),12	2001,(77, 121),12	2013,(23, 121),12	2025,(67, 121),12	2037,(43, 121),12	2049,(25, 121),12	2061,(63, 121),12	2073,(87, 121),12	2085,(80, 121),12	2097,(34, 121),12	2109,(83, 121),12	2121,(66, 121),12	2133,(13, 121),12	2145,(116, 121),12	2157,(103, 121),12	2169,(114, 121),12	2181,(90, 121),12	2193,(78, 121),12	2205,(30, 121),12	2217,(97, 121),12	2229,(118, 121),12	2241,(84, 121),12	2253,(19, 121),12	2265,(35, 121),12	2277,(62, 121),12	2289,(71, 121),12	2301,(54, 121),12	2313,(33, 121),12	2325,(24, 121),12	2337,(96, 121),12	2349,(101, 121),12	2361,(39, 121),12	2373,(117, 121),12	2385,(40, 121),12	2397,(91, 121),12	2409,(60, 121),12	2421,(41, 121),12	
433,(2, 43),4	437,(9, 25),4	441,(8, 63),4	445,(8, 87),4	449,(9, 80),4	453,(10, 34),4	457,(10, 83),8	465,(2, 66),12	477,(8, 13),4	481,(2, 13),8	489,(2, 116),12	501,(8, 103),12	513,(8, 114),12	525,(9, 90),12	537,(8, 90),4	541,(8, 78),16	557,(10, 30),12	569,(2, 30),8	577,(9, 97),4	581,(10, 97),16	597,(8, 97),4	601,(10, 118),24	625,(9, 84),8	633,(2, 84),16	649,(9, 19),4	653,(8, 19),32	685,(9, 35),36	721,(10, 62),36	757,(2, 71),36	793,(9, 54),36	829,(2, 54),20	849,(10, 33),4	853,(2, 33),64	917,(9, 24),4	921,(10, 24),52	973,(8, 24),20	993,(10, 96),80	1073,(9, 101),44	1117,(8, 101),36	1153,(9, 39),84	1237,(10, 117),32	1269,(2, 117),72	1341,(9, 40),4	1345,(2, 40),172	1517,(9, 91),4	1521,(8, 91),188	1709,(10, 60),204	1913,(8, 60),20	1933,(2, 60),16	1949,(10, 41),300	
