1523
# CPU
0,121,1	1,48,13	14,61,13	27,93,13	40,67,13	53,113,13	66,42,13	79,46,13	92,118,13	105,99,13	118,33,13	131,116,13	144,81,13	157,76,13	170,98,13	183,20,13	196,54,13	209,53,13	222,108,13	235,109,13	248,79,13	261,58,13	274,112,13	287,24,13	300,27,13	313,68,13	326,84,13	339,64,13	352,104,13	365,13,13	378,119,13	391,38,13	404,45,13	417,16,13	430,19,13	443,55,13	456,88,13	469,90,13	482,21,13	495,73,13	508,51,13	521,32,13	534,49,13	547,65,13	560,30,13	573,83,13	586,97,13	599,85,13	612,22,13	625,74,13	638,105,13	651,44,13	664,94,13	677,56,13	690,91,13	703,25,13	716,115,13	729,41,13	742,72,13	755,66,13	768,86,13	781,47,13	794,23,13	807,110,13	820,31,13	833,43,13	846,96,13	859,106,13	872,35,13	885,52,13	898,114,13	911,18,13	924,89,13	937,77,13	950,59,13	963,60,13	976,75,13	989,63,13	1002,57,13	1015,120,13	1028,102,13	1041,111,13	1054,36,13	1067,37,13	1080,101,13	1093,95,13	1106,70,13	1119,17,13	1132,39,13	1145,71,13	1158,92,13	1171,62,13	1184,107,13	1197,80,13	1210,40,13	1223,103,13	1236,2,13	1249,1,13	1262,87,13	1275,5,13	1288,14,13	1301,28,13	1314,82,13	1327,100,13	1340,50,13	1353,9,13	1366,69,13	1379,117,13	1392,15,13	1405,10,13	1418,12,13	1431,26,13	1444,6,13	1457,78,13	1470,11,13	1483,3,13	1496,8,13	1509,4,13	1522,0,1	
511,34,13	1021,29,13	1417,7,13	
# Incoming
524,(34, 2),4	528,(34, 8),10	1034,(29, 3),2	1036,(29, 4),40	1430,(7, 0),2	
1,(121, 34),510	511,(121, 29),510	1021,(113, 7),2	1023,(42, 7),2	1025,(33, 7),2	1027,(76, 7),2	1029,(108, 7),4	1033,(13, 7),6	1039,(119, 7),2	1041,(44, 7),14	1055,(56, 7),16	1071,(66, 7),6	1077,(86, 7),6	1083,(31, 7),26	1109,(35, 7),28	1137,(75, 7),8	1145,(36, 7),42	1187,(37, 7),44	1231,(39, 7),52	1283,(71, 7),52	1335,(107, 7),66	1401,(40, 7),16	
# Outgoing
1,(121, 34),510	511,(121, 29),510	1021,(113, 7),2	1023,(42, 7),2	1025,(33, 7),2	1027,(76, 7),2	1029,(108, 7),4	1033,(13, 7),6	1039,(119, 7),2	1041,(44, 7),14	1055,(56, 7),16	1071,(66, 7),6	1077,(86, 7),6	1083,(31, 7),26	1109,(35, 7),28	1137,(75, 7),8	1145,(36, 7),42	1187,(37, 7),44	1231,(39, 7),52	1283,(71, 7),52	1335,(107, 7),66	1401,(40, 7),16	
524,(34, 2),4	528,(34, 8),10	1034,(29, 3),2	1036,(29, 4),40	1430,(7, 0),2	
