47
# CPU
0,0,1	1,2,3	4,3,3	7,11,3	10,12,3	13,5,3	16,1,3	19,19,3	22,16,3	25,4,3	28,14,3	31,15,3	34,6,3	37,17,3	40,18,3	43,20,3	46,21,1	
5,7,3	8,10,3	21,8,3	24,13,3	32,9,3	
# Incoming
8,(7, 21),1	11,(10, 21),1	24,(8, 21),1	27,(13, 21),1	35,(9, 21),1	
4,(2, 7),1	5,(2, 10),2	19,(1, 8),2	21,(1, 13),3	24,(1, 9),8	
# Outgoing
4,(2, 7),1	5,(2, 10),2	19,(1, 8),2	21,(1, 13),3	24,(1, 9),8	
8,(7, 21),1	11,(10, 21),1	24,(8, 21),1	27,(13, 21),1	35,(9, 21),1	
