255
# CPU
98,11,1	119,12,1	143,13,1	144,16,1	149,17,1	152,19,1	240,14,1	245,18,1	246,20,1	254,21,1	
39,6,1	42,7,1	67,10,1	97,9,1	129,15,1	
4,2,1	37,5,1	84,8,1	
0,0,1	1,1,1	2,4,1	14,3,1	
# Incoming
97,(1, 11),1	98,(1, 12),21	119,(1, 13),24	143,(1, 16),1	144,(1, 17),5	149,(1, 19),3	152,(1, 20),79	231,(4, 21),1	232,(2, 14),8	240,(2, 18),5	245,(2, 20),1	246,(3, 21),1	247,(5, 21),1	248,(6, 21),1	249,(7, 21),1	250,(10, 21),1	251,(8, 21),1	252,(9, 21),1	253,(15, 21),1	
37,(1, 6),2	39,(2, 7),3	42,(2, 10),25	84,(1, 9),13	97,(2, 15),32	
1,(0, 2),3	4,(1, 5),33	39,(1, 8),45	
5,(2, 3),9	
# Outgoing

248,(6, 21),1	249,(7, 21),1	250,(10, 21),1	252,(9, 21),1	253,(15, 21),1	
5,(2, 3),9	39,(2, 7),3	42,(2, 10),25	97,(2, 15),32	232,(2, 14),8	240,(2, 18),5	245,(2, 20),1	247,(5, 21),1	251,(8, 21),1	
1,(0, 2),3	4,(1, 5),33	37,(1, 6),2	39,(1, 8),45	84,(1, 9),13	97,(1, 11),1	98,(1, 12),21	119,(1, 13),24	143,(1, 16),1	144,(1, 17),5	149,(1, 19),3	152,(1, 20),79	231,(4, 21),1	246,(3, 21),1	
