748
# CPU
37,3,1	38,57,1	73,6,1	74,18,1	75,27,1	76,75,1	77,30,1	78,66,1	79,72,1	93,15,1	115,69,1	173,78,1	221,9,1	227,12,1	231,33,1	239,24,1	245,39,1	247,45,1	253,63,1	305,21,1	319,48,1	321,54,1	325,60,1	327,36,1	329,51,1	365,42,1	
19,2,1	20,14,1	21,35,1	22,44,1	55,5,1	56,53,1	57,56,1	58,65,1	91,8,1	92,41,1	93,74,1	111,38,1	135,77,1	187,80,1	221,17,1	223,20,1	231,23,1	249,47,1	251,50,1	259,68,1	287,11,1	325,29,1	333,59,1	379,26,1	383,62,1	385,71,1	455,32,1	
0,0,1	1,1,1	2,7,1	3,4,1	4,25,1	5,34,1	6,37,1	7,28,1	8,40,1	9,10,1	22,16,1	24,43,1	26,52,1	143,55,1	149,70,1	153,79,1	161,13,1	171,19,1	173,31,1	219,76,1	301,67,1	327,64,1	373,61,1	381,46,1	429,22,1	457,49,1	625,58,1	711,73,1	747,81,1	
# Incoming
19,(0, 3),18	37,(2, 24),2	55,(0, 6),18	91,(1, 15),2	111,(1, 51),2	113,(1, 69),2	135,(1, 78),38	173,(2, 60),6	219,(5, 9),2	221,(5, 12),6	227,(5, 33),4	231,(7, 24),8	239,(7, 39),6	245,(7, 45),2	251,(7, 63),2	287,(4, 21),18	307,(8, 48),12	319,(8, 54),2	321,(8, 60),4	325,(4, 36),2	327,(4, 51),2	329,(8, 42),36	
1,(0, 2),18	37,(0, 5),18	73,(0, 8),18	93,(1, 38),18	115,(1, 77),20	173,(1, 80),14	187,(7, 17),34	221,(7, 20),2	223,(7, 23),8	247,(7, 47),2	249,(7, 50),2	253,(7, 68),6	259,(4, 11),28	305,(4, 29),20	329,(4, 59),4	333,(3, 26),46	381,(3, 62),2	383,(3, 71),2	429,(6, 32),26	
20,(2, 16),2	22,(2, 43),2	24,(2, 52),2	26,(2, 58),8	34,(14, 81),2	39,(2, 55),104	143,(2, 70),6	149,(2, 79),4	153,(35, 81),2	155,(44, 81),2	157,(5, 13),4	161,(5, 19),10	171,(5, 31),2	179,(2, 76),40	231,(5, 67),70	301,(53, 81),2	303,(56, 81),2	305,(65, 81),2	325,(8, 64),2	327,(41, 81),2	365,(8, 61),8	373,(74, 81),2	375,(38, 81),2	377,(77, 81),2	379,(3, 46),2	381,(80, 81),2	383,(17, 81),2	385,(57, 81),2	387,(6, 22),42	429,(20, 81),2	431,(23, 81),2	433,(47, 81),2	435,(50, 81),2	437,(68, 81),2	439,(11, 81),2	441,(29, 81),2	443,(59, 81),2	445,(26, 81),2	447,(62, 81),2	449,(71, 81),2	455,(6, 49),2	457,(6, 58),168	625,(18, 81),2	627,(27, 81),2	629,(75, 81),2	631,(30, 81),2	633,(66, 81),2	635,(72, 81),2	637,(8, 73),74	711,(15, 81),2	713,(69, 81),2	715,(78, 81),2	717,(9, 81),2	719,(12, 81),2	721,(33, 81),2	723,(24, 81),2	725,(39, 81),2	727,(45, 81),2	729,(63, 81),2	731,(21, 81),2	733,(48, 81),2	735,(54, 81),2	737,(60, 81),2	739,(36, 81),2	741,(51, 81),2	743,(42, 81),2	745,(32, 81),2	
# Outgoing
333,(3, 26),46	379,(3, 46),2	381,(3, 62),2	383,(3, 71),2	385,(57, 81),2	387,(6, 22),42	429,(6, 32),26	455,(6, 49),2	457,(6, 58),168	625,(18, 81),2	627,(27, 81),2	629,(75, 81),2	631,(30, 81),2	633,(66, 81),2	635,(72, 81),2	711,(15, 81),2	713,(69, 81),2	715,(78, 81),2	717,(9, 81),2	719,(12, 81),2	721,(33, 81),2	723,(24, 81),2	725,(39, 81),2	727,(45, 81),2	729,(63, 81),2	731,(21, 81),2	733,(48, 81),2	735,(54, 81),2	737,(60, 81),2	739,(36, 81),2	741,(51, 81),2	743,(42, 81),2	
20,(2, 16),2	22,(2, 43),2	24,(2, 52),2	26,(2, 58),8	34,(14, 81),2	37,(2, 24),2	39,(2, 55),104	143,(2, 70),6	149,(2, 79),4	153,(35, 81),2	155,(44, 81),2	157,(5, 13),4	161,(5, 19),10	171,(5, 31),2	173,(2, 60),6	179,(2, 76),40	219,(5, 9),2	221,(5, 12),6	227,(5, 33),4	231,(5, 67),70	301,(53, 81),2	303,(56, 81),2	305,(65, 81),2	307,(8, 48),12	319,(8, 54),2	321,(8, 60),4	325,(8, 64),2	327,(41, 81),2	329,(8, 42),36	365,(8, 61),8	373,(74, 81),2	375,(38, 81),2	377,(77, 81),2	381,(80, 81),2	383,(17, 81),2	429,(20, 81),2	431,(23, 81),2	433,(47, 81),2	435,(50, 81),2	437,(68, 81),2	439,(11, 81),2	441,(29, 81),2	443,(59, 81),2	445,(26, 81),2	447,(62, 81),2	449,(71, 81),2	637,(8, 73),74	745,(32, 81),2	
1,(0, 2),18	19,(0, 3),18	37,(0, 5),18	55,(0, 6),18	73,(0, 8),18	91,(1, 15),2	93,(1, 38),18	111,(1, 51),2	113,(1, 69),2	115,(1, 77),20	135,(1, 78),38	173,(1, 80),14	187,(7, 17),34	221,(7, 20),2	223,(7, 23),8	231,(7, 24),8	239,(7, 39),6	245,(7, 45),2	247,(7, 47),2	249,(7, 50),2	251,(7, 63),2	253,(7, 68),6	259,(4, 11),28	287,(4, 21),18	305,(4, 29),20	325,(4, 36),2	327,(4, 51),2	329,(4, 59),4	
