1089
# CPU
21,6,8	114,13,8	122,10,8	130,16,8	150,17,8	192,8,8	984,18,8	1074,20,8	
4,2,8	12,4,8	20,5,8	28,12,8	36,15,8	57,7,8	66,9,8	141,14,8	153,19,8	1088,21,1	
0,0,1	1,1,8	75,3,8	957,11,8	
# Incoming
9,(1, 6),12	66,(1, 13),48	114,(2, 10),3	117,(2, 16),6	141,(1, 17),9	150,(2, 8),42	957,(2, 18),27	984,(2, 20),90	
1,(0, 2),3	21,(1, 7),36	57,(1, 9),9	66,(6, 21),6	114,(1, 14),27	141,(13, 21),6	150,(1, 19),3	153,(3, 21),6	159,(10, 21),6	165,(16, 21),6	171,(17, 21),6	200,(8, 21),6	965,(11, 21),6	992,(18, 21),6	1082,(20, 21),6	
12,(2, 3),63	192,(2, 11),765	
# Outgoing
66,(6, 21),6	141,(13, 21),6	159,(10, 21),6	165,(16, 21),6	171,(17, 21),6	200,(8, 21),6	992,(18, 21),6	1082,(20, 21),6	
12,(2, 3),63	114,(2, 10),3	117,(2, 16),6	150,(2, 8),42	192,(2, 11),765	957,(2, 18),27	984,(2, 20),90	
1,(0, 2),3	9,(1, 6),12	21,(1, 7),36	57,(1, 9),9	66,(1, 13),48	114,(1, 14),27	141,(1, 17),9	150,(1, 19),3	153,(3, 21),6	965,(11, 21),6	
