192
# CPU
0,0,1	1,2,10	11,12,10	21,6,10	31,7,10	41,20,10	51,9,10	61,4,10	71,19,10	81,11,10	91,10,10	101,14,10	111,15,10	121,16,10	131,17,10	141,5,10	151,18,10	161,13,10	171,3,10	181,8,10	191,21,1	
5,1,10	

# Incoming
15,(1, 10),4	19,(1, 14),4	23,(1, 15),4	27,(1, 16),4	31,(1, 17),4	35,(1, 5),12	47,(1, 18),12	59,(1, 13),20	79,(1, 3),32	111,(1, 8),56	
1,(0, 1),4	

# Outgoing
1,(0, 1),4	
15,(1, 10),4	19,(1, 14),4	23,(1, 15),4	27,(1, 16),4	31,(1, 17),4	35,(1, 5),12	47,(1, 18),12	59,(1, 13),20	79,(1, 3),32	111,(1, 8),56	

