39206
# CPU
31375,5,9	31389,6,9	31469,14,9	31521,19,9	31943,29,9	37149,31,9	37499,34,9	37757,17,9	38423,37,9	38861,7,9	38871,10,9	38887,15,9	38931,16,9	38940,18,9	38949,32,9	38977,38,9	39029,39,9	39065,40,9	39205,41,1	
135,2,9	144,8,9	153,13,9	537,12,9	31315,23,9	31339,24,9	31419,21,9	31428,25,9	31523,28,9	
269,3,9	407,9,9	517,11,9	31295,20,9	31535,33,9	
403,4,9	412,30,9	421,35,9	31303,22,9	31411,26,9	
0,0,1	1,1,9	10,27,9	19,36,9	
# Incoming
403,(1, 6),2	407,(1, 10),6	413,(2, 6),30	443,(2, 7),12	455,(2, 14),8	463,(2, 15),6	469,(2, 17),4	473,(2, 18),18	491,(2, 19),28	519,(2, 38),4	523,(8, 41),10	533,(4, 5),2	535,(4, 14),2	537,(1, 16),6	543,(1, 17),30630	31173,(1, 18),2	31175,(2, 10),108	31283,(2, 37),72	31355,(13, 41),10	31365,(3, 5),10	31375,(3, 6),14	31389,(3, 7),16	31405,(3, 15),4	31409,(4, 19),2	31411,(3, 29),4	31415,(4, 31),2	31417,(1, 29),2	31419,(1, 31),2	31421,(3, 10),24	31445,(3, 14),24	31469,(3, 16),32	31501,(3, 19),20	31521,(4, 34),2	31523,(3, 31),8	31531,(3, 34),4	31535,(1, 34),10	31545,(1, 40),18	31563,(27, 41),10	31573,(36, 41),10	31583,(2, 29),360	31943,(2, 31),5206	37149,(2, 34),350	37499,(2, 39),202	37701,(3, 17),56	37757,(3, 18),632	38389,(3, 32),26	38415,(3, 37),8	38423,(3, 39),26	38449,(3, 40),54	38503,(4, 7),358	38861,(4, 10),10	38871,(4, 15),16	38887,(4, 16),44	38931,(4, 18),6	38937,(4, 32),4	38941,(4, 38),36	38977,(4, 39),52	39029,(4, 40),36	39065,(9, 41),10	39075,(30, 41),10	39085,(35, 41),10	39095,(11, 41),10	39105,(12, 41),10	39115,(20, 41),10	39125,(22, 41),10	39135,(23, 41),10	39145,(24, 41),10	39155,(26, 41),10	39165,(21, 41),10	39175,(25, 41),10	39185,(28, 41),10	39195,(33, 41),10	
1,(0, 2),134	517,(1, 12),20	539,(4, 25),2	31295,(1, 21),2	31303,(1, 23),12	31315,(1, 24),24	31339,(1, 25),12	31355,(1, 28),62	31417,(3, 21),2	31419,(3, 25),2	31521,(3, 28),2	
135,(0, 3),134	405,(1, 9),2	413,(1, 11),104	537,(4, 20),2	31175,(1, 20),120	31421,(1, 33),114	
269,(0, 4),134	31297,(1, 22),6	31351,(1, 26),4	31409,(3, 26),2	

# Outgoing

413,(2, 6),30	443,(2, 7),12	455,(2, 14),8	463,(2, 15),6	469,(2, 17),4	473,(2, 18),18	491,(2, 19),28	519,(2, 38),4	523,(8, 41),10	31175,(2, 10),108	31283,(2, 37),72	31355,(13, 41),10	31583,(2, 29),360	31943,(2, 31),5206	37149,(2, 34),350	37499,(2, 39),202	39105,(12, 41),10	39135,(23, 41),10	39145,(24, 41),10	39165,(21, 41),10	39175,(25, 41),10	39185,(28, 41),10	
31365,(3, 5),10	31375,(3, 6),14	31389,(3, 7),16	31405,(3, 15),4	31409,(3, 26),2	31411,(3, 29),4	31417,(3, 21),2	31419,(3, 25),2	31421,(3, 10),24	31445,(3, 14),24	31469,(3, 16),32	31501,(3, 19),20	31521,(3, 28),2	31523,(3, 31),8	31531,(3, 34),4	37701,(3, 17),56	37757,(3, 18),632	38389,(3, 32),26	38415,(3, 37),8	38423,(3, 39),26	38449,(3, 40),54	39065,(9, 41),10	39095,(11, 41),10	39115,(20, 41),10	39195,(33, 41),10	
533,(4, 5),2	535,(4, 14),2	537,(4, 20),2	539,(4, 25),2	31409,(4, 19),2	31415,(4, 31),2	31521,(4, 34),2	38503,(4, 7),358	38861,(4, 10),10	38871,(4, 15),16	38887,(4, 16),44	38931,(4, 18),6	38937,(4, 32),4	38941,(4, 38),36	38977,(4, 39),52	39029,(4, 40),36	39075,(30, 41),10	39085,(35, 41),10	39125,(22, 41),10	39155,(26, 41),10	
1,(0, 2),134	135,(0, 3),134	269,(0, 4),134	403,(1, 6),2	405,(1, 9),2	407,(1, 10),6	413,(1, 11),104	517,(1, 12),20	537,(1, 16),6	543,(1, 17),30630	31173,(1, 18),2	31175,(1, 20),120	31295,(1, 21),2	31297,(1, 22),6	31303,(1, 23),12	31315,(1, 24),24	31339,(1, 25),12	31351,(1, 26),4	31355,(1, 28),62	31417,(1, 29),2	31419,(1, 31),2	31421,(1, 33),114	31535,(1, 34),10	31545,(1, 40),18	31563,(27, 41),10	31573,(36, 41),10	
