2078
# CPU
0,0,1	1,20,8	9,137,8	17,14,8	25,188,8	33,3,8	41,177,8	49,196,8	57,15,8	65,132,8	73,10,8	81,194,8	89,42,8	97,46,8	105,130,8	113,12,8	121,127,8	129,75,8	137,161,8	145,60,8	153,136,8	161,30,8	169,91,8	177,133,8	185,82,8	193,22,8	201,165,8	209,157,8	217,112,8	225,50,8	233,86,8	241,148,8	249,24,8	257,118,8	265,110,8	273,76,8	285,125,8	317,172,8	361,69,8	401,85,8	453,164,8	501,108,8	549,117,8	609,128,8	673,153,8	781,155,8	1129,186,8	1473,70,8	
9,2,8	17,74,8	25,185,8	33,9,8	41,116,8	49,184,8	57,17,8	65,53,8	73,72,8	81,135,8	89,11,8	97,150,8	105,67,8	113,152,8	121,43,8	129,173,8	137,141,8	145,179,8	153,38,8	161,126,8	169,32,8	177,115,8	185,92,8	193,84,8	201,96,8	209,52,8	217,65,8	225,122,8	233,56,8	269,156,8	305,40,8	341,45,8	377,146,8	437,48,8	477,29,8	521,105,8	573,61,8	645,106,8	749,111,8	841,103,8	957,104,8	1077,193,8	1233,31,8	
13,18,8	21,120,8	29,36,8	37,16,8	45,192,8	53,4,8	61,134,8	69,195,8	77,34,8	85,162,8	93,7,8	101,176,8	109,143,8	117,142,8	125,197,8	133,113,8	141,95,8	149,39,8	157,27,8	165,114,8	173,26,8	181,109,8	189,139,8	197,79,8	205,80,8	213,49,8	241,23,8	261,83,8	285,171,8	321,54,8	369,100,8	393,107,8	417,174,8	481,191,8	569,140,8	641,98,8	705,99,8	785,88,8	937,151,8	2065,138,8	
17,6,8	25,41,8	33,89,8	41,77,8	49,19,8	57,21,8	65,187,8	73,8,8	81,182,8	89,178,8	97,129,8	105,93,8	113,167,8	121,59,8	129,168,8	137,180,8	145,119,8	153,47,8	161,78,8	169,73,8	177,131,8	189,71,8	209,51,8	237,90,8	265,170,8	293,190,8	329,169,8	361,166,8	437,87,8	465,183,8	597,62,8	721,199,8	877,198,8	1021,55,8	1325,97,8	1445,44,8	
5,13,8	13,124,8	21,123,8	29,66,8	37,37,8	45,5,8	53,175,8	61,28,8	69,1,8	77,149,8	85,58,8	93,101,8	101,68,8	109,154,8	117,57,8	125,144,8	133,159,8	141,160,8	149,189,8	157,64,8	165,81,8	173,147,8	181,35,8	189,102,8	229,200,8	253,25,8	313,33,8	337,94,8	497,145,8	529,121,8	777,181,8	873,163,8	1061,158,8	1225,63,8	2077,201,1	
# Incoming
65,(6, 136),4	69,(16, 30),4	73,(9, 133),4	77,(6, 24),4	81,(18, 165),4	85,(16, 157),12	97,(18, 172),4	101,(2, 82),4	105,(13, 91),4	109,(11, 165),4	113,(8, 110),8	121,(7, 22),4	125,(16, 86),12	137,(11, 112),12	149,(7, 125),4	153,(2, 148),12	165,(16, 128),4	169,(19, 24),12	189,(7, 110),12	209,(5, 50),12	221,(13, 125),16	237,(2, 118),20	257,(16, 76),16	273,(11, 125),12	285,(2, 172),4	289,(17, 172),28	317,(11, 128),4	321,(6, 69),12	333,(1, 69),28	361,(4, 85),40	401,(6, 164),16	417,(1, 164),12	429,(11, 164),24	453,(17, 108),48	501,(2, 117),24	525,(6, 117),24	549,(6, 128),28	577,(9, 128),20	597,(1, 128),12	609,(9, 153),20	629,(17, 153),8	645,(18, 153),24	669,(4, 153),4	673,(5, 155),108	833,(4, 186),124	1021,(2, 186),36	1057,(17, 186),64	1121,(11, 186),8	1129,(9, 70),196	1325,(17, 70),148	
5,(0, 2),4	17,(0, 9),4	21,(18, 185),4	33,(18, 115),4	37,(18, 92),4	41,(3, 184),4	45,(18, 122),4	53,(0, 17),4	57,(19, 72),4	61,(4, 84),4	65,(4, 156),4	69,(0, 11),4	73,(6, 45),4	77,(1, 135),4	81,(8, 92),4	85,(15, 179),4	89,(3, 56),4	101,(5, 38),4	105,(20, 193),4	109,(7, 126),4	113,(1, 56),4	117,(7, 115),4	121,(8, 65),16	137,(18, 106),4	141,(10, 32),8	149,(8, 56),20	173,(13, 84),8	181,(10, 96),12	193,(13, 52),16	213,(12, 122),12	225,(6, 156),44	273,(13, 29),12	285,(20, 40),20	313,(3, 45),12	325,(12, 45),16	341,(18, 146),20	361,(13, 193),4	365,(8, 146),12	377,(13, 103),24	401,(7, 48),36	437,(4, 29),40	477,(7, 105),44	521,(18, 61),36	561,(10, 61),12	577,(14, 193),8	585,(16, 106),44	629,(7, 106),16	645,(5, 193),16	661,(10, 111),88	749,(15, 103),64	813,(10, 103),28	841,(13, 104),116	957,(6, 193),112	1069,(15, 193),8	1077,(13, 31),16	1093,(10, 31),140	
9,(0, 18),4	21,(0, 16),4	49,(0, 4),4	61,(19, 162),4	65,(17, 34),4	73,(0, 7),4	77,(3, 113),4	81,(5, 143),4	85,(8, 142),4	89,(1, 95),8	97,(5, 39),4	101,(15, 39),4	105,(6, 27),8	113,(2, 114),4	117,(3, 114),4	121,(12, 197),4	125,(9, 26),12	137,(1, 109),12	149,(13, 54),4	153,(20, 139),12	165,(2, 79),8	173,(3, 79),4	177,(12, 79),4	181,(1, 80),12	193,(10, 80),4	197,(3, 49),4	201,(12, 49),12	213,(19, 23),4	217,(8, 99),4	225,(3, 23),8	233,(9, 23),4	237,(12, 23),4	241,(12, 83),20	261,(12, 171),24	285,(5, 54),16	305,(19, 54),16	321,(11, 100),4	325,(1, 107),4	329,(1, 174),4	333,(6, 100),32	365,(10, 100),4	369,(12, 107),24	393,(15, 174),24	417,(6, 191),64	489,(5, 151),4	501,(13, 138),28	529,(15, 140),32	561,(11, 140),8	573,(15, 98),4	597,(3, 98),44	641,(17, 99),64	705,(9, 88),80	785,(19, 151),152	937,(19, 138),16	1473,(9, 138),28	1501,(5, 138),564	
13,(0, 6),4	25,(18, 89),4	29,(18, 47),4	33,(20, 77),4	45,(0, 19),4	49,(16, 187),4	53,(16, 169),8	61,(0, 8),4	65,(3, 178),4	69,(17, 129),4	73,(4, 168),8	81,(2, 78),4	85,(1, 59),4	89,(17, 180),8	97,(11, 167),4	101,(7, 93),4	105,(11, 59),4	109,(5, 119),4	113,(7, 119),4	117,(13, 47),4	121,(1, 47),4	125,(1, 78),4	129,(5, 73),4	133,(10, 78),8	141,(4, 73),8	149,(17, 73),4	153,(5, 131),16	169,(13, 71),4	173,(4, 71),12	185,(7, 71),4	189,(11, 51),12	201,(7, 51),8	209,(18, 90),28	237,(1, 170),28	265,(5, 190),4	269,(5, 169),4	273,(4, 190),20	293,(7, 166),8	301,(13, 169),24	325,(17, 169),4	329,(2, 166),20	349,(12, 166),12	361,(17, 87),56	417,(12, 87),20	437,(14, 183),24	461,(12, 183),4	465,(1, 62),20	485,(5, 198),4	493,(5, 97),4	497,(5, 44),4	525,(2, 62),4	529,(2, 198),16	545,(9, 97),8	553,(11, 44),4	557,(18, 62),28	585,(10, 62),12	641,(3, 199),20	673,(4, 199),48	785,(9, 198),92	877,(20, 55),28	905,(17, 55),116	1021,(7, 97),100	1121,(18, 44),24	1145,(1, 44),56	1233,(15, 97),48	1281,(12, 97),24	1305,(14, 44),20	1325,(10, 44),120	
1,(0, 13),4	25,(14, 66),4	29,(14, 37),4	37,(0, 5),4	41,(18, 63),4	57,(0, 1),4	69,(6, 147),4	77,(9, 35),4	81,(10, 144),4	85,(17, 35),4	89,(8, 159),4	93,(15, 189),8	101,(41, 201),4	105,(7, 160),4	109,(14, 81),4	113,(3, 81),4	117,(11, 147),8	125,(12, 64),8	137,(89, 201),4	141,(77, 201),4	145,(21, 201),4	149,(15, 35),4	153,(7, 33),12	165,(3, 102),8	173,(11, 102),16	189,(187, 201),4	193,(182, 201),4	197,(178, 201),4	201,(9, 200),28	229,(2, 181),4	233,(20, 25),4	237,(16, 25),16	253,(120, 201),4	257,(2, 163),4	261,(9, 163),4	265,(74, 201),4	269,(6, 33),36	305,(14, 33),4	309,(15, 33),4	313,(16, 94),24	337,(36, 201),4	341,(10, 121),8	349,(17, 158),8	357,(185, 201),4	361,(137, 201),4	377,(129, 201),4	381,(93, 201),4	385,(167, 201),4	389,(59, 201),4	393,(168, 201),4	397,(180, 201),4	417,(116, 201),4	421,(184, 201),4	425,(53, 201),4	465,(20, 145),32	497,(15, 121),32	557,(72, 201),4	569,(135, 201),4	573,(150, 201),4	577,(6, 181),148	725,(4, 181),28	753,(7, 181),24	777,(4, 163),56	841,(10, 163),32	873,(188, 201),4	877,(67, 201),4	881,(152, 201),4	885,(43, 201),4	889,(173, 201),4	893,(141, 201),4	897,(179, 201),4	901,(38, 201),4	905,(3, 158),100	1005,(12, 158),56	1061,(177, 201),4	1065,(196, 201),4	1069,(19, 63),80	1149,(7, 63),76	1225,(192, 201),4	1229,(134, 201),4	1233,(195, 201),4	1237,(34, 201),4	1241,(162, 201),4	1245,(176, 201),4	1249,(143, 201),4	1253,(142, 201),4	1257,(197, 201),4	1261,(113, 201),4	1265,(95, 201),4	1269,(119, 201),4	1273,(39, 201),4	1277,(47, 201),4	1281,(27, 201),4	1285,(78, 201),4	1289,(114, 201),4	1293,(73, 201),4	1297,(26, 201),4	1301,(131, 201),4	1305,(109, 201),4	1309,(139, 201),4	1313,(71, 201),4	1317,(79, 201),4	1321,(80, 201),4	1325,(51, 201),4	1329,(49, 201),4	1333,(90, 201),4	1337,(23, 201),4	1341,(83, 201),4	1345,(170, 201),4	1349,(171, 201),4	1353,(190, 201),4	1357,(54, 201),4	1361,(169, 201),4	1365,(166, 201),4	1369,(100, 201),4	1373,(107, 201),4	1377,(174, 201),4	1381,(87, 201),4	1385,(183, 201),4	1389,(191, 201),4	1393,(140, 201),4	1397,(62, 201),4	1401,(98, 201),4	1405,(99, 201),4	1409,(199, 201),4	1413,(88, 201),4	1417,(198, 201),4	1421,(151, 201),4	1425,(55, 201),4	1429,(97, 201),4	1445,(132, 201),4	1449,(194, 201),4	1453,(42, 201),4	1457,(46, 201),4	1461,(130, 201),4	1465,(127, 201),4	1469,(75, 201),4	1473,(161, 201),4	1477,(60, 201),4	1481,(136, 201),4	1485,(30, 201),4	1489,(91, 201),4	1493,(133, 201),4	1497,(82, 201),4	1501,(126, 201),4	1505,(32, 201),4	1509,(115, 201),4	1513,(92, 201),4	1517,(22, 201),4	1521,(84, 201),4	1525,(165, 201),4	1529,(96, 201),4	1533,(157, 201),4	1537,(52, 201),4	1541,(112, 201),4	1545,(65, 201),4	1549,(50, 201),4	1553,(122, 201),4	1557,(86, 201),4	1561,(56, 201),4	1565,(148, 201),4	1569,(24, 201),4	1573,(118, 201),4	1577,(110, 201),4	1581,(156, 201),4	1585,(76, 201),4	1589,(125, 201),4	1593,(40, 201),4	1597,(172, 201),4	1601,(45, 201),4	1605,(69, 201),4	1609,(146, 201),4	1613,(85, 201),4	1617,(48, 201),4	1621,(164, 201),4	1625,(29, 201),4	1629,(108, 201),4	1633,(105, 201),4	1637,(117, 201),4	1641,(61, 201),4	1645,(128, 201),4	1649,(106, 201),4	1653,(153, 201),4	1657,(111, 201),4	1661,(155, 201),4	1665,(103, 201),4	1669,(104, 201),4	1673,(193, 201),4	1677,(186, 201),4	1681,(31, 201),4	1685,(44, 201),4	1689,(70, 201),4	2073,(138, 201),4	
# Outgoing
1,(0, 13),4	5,(0, 2),4	9,(0, 18),4	13,(0, 6),4	17,(0, 9),4	21,(0, 16),4	25,(14, 66),4	29,(14, 37),4	33,(20, 77),4	37,(0, 5),4	41,(3, 184),4	45,(0, 19),4	49,(0, 4),4	53,(0, 17),4	57,(0, 1),4	61,(0, 8),4	65,(3, 178),4	69,(0, 11),4	73,(0, 7),4	77,(3, 113),4	81,(10, 144),4	85,(15, 179),4	89,(3, 56),4	93,(15, 189),8	101,(15, 39),4	105,(20, 193),4	109,(14, 81),4	113,(3, 81),4	117,(3, 114),4	121,(12, 197),4	125,(12, 64),8	133,(10, 78),8	141,(10, 32),8	149,(15, 35),4	153,(20, 139),12	165,(3, 102),8	173,(3, 79),4	177,(12, 79),4	181,(10, 96),12	193,(10, 80),4	197,(3, 49),4	201,(12, 49),12	213,(12, 122),12	225,(3, 23),8	233,(20, 25),4	237,(12, 23),4	241,(12, 83),20	261,(12, 171),24	285,(20, 40),20	305,(14, 33),4	309,(15, 33),4	313,(3, 45),12	325,(12, 45),16	341,(10, 121),8	349,(12, 166),12	361,(137, 201),4	365,(10, 100),4	369,(12, 107),24	393,(15, 174),24	417,(12, 87),20	437,(14, 183),24	461,(12, 183),4	465,(20, 145),32	497,(15, 121),32	529,(15, 140),32	561,(10, 61),12	573,(15, 98),4	577,(14, 193),8	585,(10, 62),12	597,(3, 98),44	641,(3, 199),20	661,(10, 111),88	749,(15, 103),64	813,(10, 103),28	841,(10, 163),32	873,(188, 201),4	877,(20, 55),28	905,(3, 158),100	1005,(12, 158),56	1061,(177, 201),4	1065,(196, 201),4	1069,(15, 193),8	1093,(10, 31),140	1233,(15, 97),48	1281,(12, 97),24	1305,(14, 44),20	1325,(10, 44),120	1445,(132, 201),4	1449,(194, 201),4	1453,(42, 201),4	1457,(46, 201),4	1461,(130, 201),4	1465,(127, 201),4	1469,(75, 201),4	1473,(161, 201),4	1477,(60, 201),4	1481,(136, 201),4	1485,(30, 201),4	1489,(91, 201),4	1493,(133, 201),4	1497,(82, 201),4	1517,(22, 201),4	1525,(165, 201),4	1533,(157, 201),4	1541,(112, 201),4	1549,(50, 201),4	1557,(86, 201),4	1565,(148, 201),4	1569,(24, 201),4	1573,(118, 201),4	1577,(110, 201),4	1585,(76, 201),4	1589,(125, 201),4	1597,(172, 201),4	1605,(69, 201),4	1613,(85, 201),4	1621,(164, 201),4	1629,(108, 201),4	1637,(117, 201),4	1645,(128, 201),4	1653,(153, 201),4	1661,(155, 201),4	1677,(186, 201),4	1689,(70, 201),4	
65,(17, 34),4	69,(17, 129),4	73,(9, 133),4	77,(9, 35),4	81,(2, 78),4	85,(17, 35),4	89,(17, 180),8	97,(11, 167),4	101,(2, 82),4	105,(11, 59),4	109,(11, 165),4	113,(2, 114),4	117,(11, 147),8	125,(9, 26),12	137,(11, 112),12	149,(17, 73),4	153,(2, 148),12	165,(2, 79),8	173,(11, 102),16	189,(11, 51),12	201,(9, 200),28	229,(2, 181),4	233,(9, 23),4	237,(2, 118),20	257,(2, 163),4	261,(9, 163),4	265,(74, 201),4	273,(11, 125),12	285,(2, 172),4	289,(17, 172),28	317,(11, 128),4	321,(11, 100),4	325,(17, 169),4	329,(2, 166),20	349,(17, 158),8	357,(185, 201),4	361,(17, 87),56	417,(116, 201),4	421,(184, 201),4	425,(53, 201),4	429,(11, 164),24	453,(17, 108),48	501,(2, 117),24	525,(2, 62),4	529,(2, 198),16	545,(9, 97),8	553,(11, 44),4	557,(72, 201),4	561,(11, 140),8	569,(135, 201),4	573,(150, 201),4	577,(9, 128),20	609,(9, 153),20	629,(17, 153),8	641,(17, 99),64	705,(9, 88),80	785,(9, 198),92	877,(67, 201),4	881,(152, 201),4	885,(43, 201),4	889,(173, 201),4	893,(141, 201),4	897,(179, 201),4	901,(38, 201),4	905,(17, 55),116	1021,(2, 186),36	1057,(17, 186),64	1121,(11, 186),8	1129,(9, 70),196	1325,(17, 70),148	1473,(9, 138),28	1501,(126, 201),4	1505,(32, 201),4	1509,(115, 201),4	1513,(92, 201),4	1521,(84, 201),4	1529,(96, 201),4	1537,(52, 201),4	1545,(65, 201),4	1553,(122, 201),4	1561,(56, 201),4	1581,(156, 201),4	1593,(40, 201),4	1601,(45, 201),4	1609,(146, 201),4	1617,(48, 201),4	1625,(29, 201),4	1633,(105, 201),4	1641,(61, 201),4	1649,(106, 201),4	1657,(111, 201),4	1665,(103, 201),4	1669,(104, 201),4	1673,(193, 201),4	1681,(31, 201),4	
21,(18, 185),4	25,(18, 89),4	29,(18, 47),4	33,(18, 115),4	37,(18, 92),4	41,(18, 63),4	45,(18, 122),4	49,(16, 187),4	53,(16, 169),8	61,(4, 84),4	65,(4, 156),4	69,(16, 30),4	73,(4, 168),8	81,(18, 165),4	85,(16, 157),12	97,(18, 172),4	101,(7, 93),4	105,(7, 160),4	109,(7, 126),4	113,(7, 119),4	117,(7, 115),4	121,(7, 22),4	125,(16, 86),12	137,(18, 106),4	141,(4, 73),8	149,(7, 125),4	153,(7, 33),12	165,(16, 128),4	173,(4, 71),12	185,(7, 71),4	189,(7, 110),12	201,(7, 51),8	209,(18, 90),28	237,(16, 25),16	253,(120, 201),4	257,(16, 76),16	273,(4, 190),20	293,(7, 166),8	313,(16, 94),24	337,(36, 201),4	341,(18, 146),20	361,(4, 85),40	401,(7, 48),36	437,(4, 29),40	477,(7, 105),44	521,(18, 61),36	557,(18, 62),28	585,(16, 106),44	629,(7, 106),16	645,(18, 153),24	669,(4, 153),4	673,(4, 199),48	725,(4, 181),28	753,(7, 181),24	777,(4, 163),56	833,(4, 186),124	1021,(7, 97),100	1121,(18, 44),24	1149,(7, 63),76	1225,(192, 201),4	1229,(134, 201),4	1233,(195, 201),4	1237,(34, 201),4	1241,(162, 201),4	1245,(176, 201),4	1249,(143, 201),4	1253,(142, 201),4	1257,(197, 201),4	1261,(113, 201),4	1265,(95, 201),4	1273,(39, 201),4	1281,(27, 201),4	1289,(114, 201),4	1297,(26, 201),4	1305,(109, 201),4	1309,(139, 201),4	1317,(79, 201),4	1321,(80, 201),4	1329,(49, 201),4	1337,(23, 201),4	1341,(83, 201),4	1349,(171, 201),4	1357,(54, 201),4	1369,(100, 201),4	1373,(107, 201),4	1377,(174, 201),4	1389,(191, 201),4	1393,(140, 201),4	1401,(98, 201),4	1405,(99, 201),4	1413,(88, 201),4	1421,(151, 201),4	2073,(138, 201),4	
57,(19, 72),4	61,(19, 162),4	65,(6, 136),4	69,(6, 147),4	73,(6, 45),4	77,(6, 24),4	81,(8, 92),4	85,(8, 142),4	89,(8, 159),4	101,(41, 201),4	105,(6, 27),8	113,(8, 110),8	121,(8, 65),16	137,(89, 201),4	141,(77, 201),4	145,(21, 201),4	149,(8, 56),20	169,(19, 24),12	189,(187, 201),4	193,(182, 201),4	197,(178, 201),4	213,(19, 23),4	217,(8, 99),4	225,(6, 156),44	269,(6, 33),36	305,(19, 54),16	321,(6, 69),12	333,(6, 100),32	365,(8, 146),12	377,(129, 201),4	381,(93, 201),4	385,(167, 201),4	389,(59, 201),4	393,(168, 201),4	397,(180, 201),4	401,(6, 164),16	417,(6, 191),64	525,(6, 117),24	549,(6, 128),28	577,(6, 181),148	785,(19, 151),152	937,(19, 138),16	957,(6, 193),112	1069,(19, 63),80	1269,(119, 201),4	1277,(47, 201),4	1285,(78, 201),4	1293,(73, 201),4	1301,(131, 201),4	1313,(71, 201),4	1325,(51, 201),4	1333,(90, 201),4	1345,(170, 201),4	1353,(190, 201),4	1361,(169, 201),4	1365,(166, 201),4	1381,(87, 201),4	1385,(183, 201),4	1397,(62, 201),4	1409,(199, 201),4	1417,(198, 201),4	1425,(55, 201),4	1429,(97, 201),4	1685,(44, 201),4	
77,(1, 135),4	81,(5, 143),4	85,(1, 59),4	89,(1, 95),8	97,(5, 39),4	101,(5, 38),4	105,(13, 91),4	109,(5, 119),4	113,(1, 56),4	117,(13, 47),4	121,(1, 47),4	125,(1, 78),4	129,(5, 73),4	137,(1, 109),12	149,(13, 54),4	153,(5, 131),16	169,(13, 71),4	173,(13, 84),8	181,(1, 80),12	193,(13, 52),16	209,(5, 50),12	221,(13, 125),16	237,(1, 170),28	265,(5, 190),4	269,(5, 169),4	273,(13, 29),12	285,(5, 54),16	301,(13, 169),24	325,(1, 107),4	329,(1, 174),4	333,(1, 69),28	361,(13, 193),4	377,(13, 103),24	417,(1, 164),12	465,(1, 62),20	485,(5, 198),4	489,(5, 151),4	493,(5, 97),4	497,(5, 44),4	501,(13, 138),28	597,(1, 128),12	645,(5, 193),16	673,(5, 155),108	841,(13, 104),116	1077,(13, 31),16	1145,(1, 44),56	1501,(5, 138),564	
