275
# CPU
0,41,1	1,6,7	8,38,7	15,34,7	22,31,7	29,30,7	36,22,7	43,21,7	50,14,7	57,11,7	64,7,7	71,16,7	78,19,7	85,17,7	92,8,7	99,28,7	106,10,7	113,18,7	120,23,7	127,27,7	134,32,7	141,25,7	148,35,7	155,5,7	162,12,7	169,40,7	176,39,7	183,36,7	190,26,7	197,33,7	204,3,7	211,29,7	218,9,7	225,24,7	232,13,7	239,15,7	246,2,7	253,37,7	260,4,7	267,1,7	274,0,1	
169,20,7	
# Incoming
176,(20, 4),4	180,(20, 1),48	
1,(41, 20),168	
# Outgoing
1,(41, 20),168	
176,(20, 4),4	180,(20, 1),48	
