746
# CPU
0,121,1	1,87,2	3,120,2	5,99,2	7,36,2	9,48,2	11,105,2	13,109,2	15,15,2	17,108,2	19,94,2	21,81,2	23,86,2	25,113,2	27,69,2	29,25,2	31,23,2	33,51,2	35,57,2	37,61,2	39,90,2	41,38,2	43,49,2	45,97,2	47,68,2	49,101,2	51,60,2	53,79,2	55,34,2	57,115,2	59,29,2	61,41,2	63,82,2	65,116,2	67,78,2	69,76,2	71,75,2	73,118,2	75,16,2	77,106,2	79,84,2	81,107,2	83,43,2	85,19,2	87,74,2	89,104,2	91,39,2	93,80,2	95,56,2	97,63,2	99,54,2	101,73,2	103,22,2	105,40,2	107,72,2	109,35,2	111,24,2	113,32,2	115,112,2	117,55,2	119,62,2	121,92,2	123,31,2	125,17,2	127,59,2	129,114,2	131,18,2	133,44,2	135,102,2	137,111,2	139,103,2	141,65,2	143,58,2	145,91,2	147,96,2	149,64,2	151,70,2	153,20,2	155,119,2	157,37,2	159,71,2	161,21,2	163,83,2	165,8,2	167,5,2	169,2,2	171,1,2	173,11,2	207,12,2	239,9,2	313,7,2	407,6,2	507,3,2	743,10,2	745,0,1	
25,93,2	49,66,2	97,50,2	109,27,2	133,85,2	139,98,2	157,30,2	303,4,2	
13,77,2	73,46,2	103,13,2	115,14,2	

43,89,2	
55,88,2	61,26,2	85,53,2	
67,28,2	
7,110,2	
127,117,2	
19,47,2	31,52,2	37,67,2	79,33,2	91,100,2	121,95,2	145,42,2	151,45,2	
# Incoming
51,(66, 5),5	56,(110, 2),1	57,(88, 5),2	59,(93, 12),1	60,(93, 7),1	63,(26, 2),1	64,(88, 1),6	70,(26, 1),6	76,(28, 11),6	82,(28, 12),3	87,(53, 9),10	99,(50, 11),12	111,(13, 12),4	115,(46, 9),5	120,(50, 9),1	121,(13, 9),2	123,(14, 9),4	127,(77, 6),1	129,(117, 2),13	142,(85, 11),5	147,(14, 7),3	150,(117, 6),1	153,(45, 5),6	159,(95, 2),3	162,(95, 1),6	168,(52, 11),1	169,(30, 11),4	173,(52, 12),1	174,(100, 12),1	175,(27, 12),16	191,(98, 12),15	206,(45, 12),1	207,(67, 9),1	208,(33, 9),9	217,(100, 9),10	227,(85, 9),12	239,(33, 7),2	241,(100, 7),1	242,(117, 7),26	268,(98, 7),40	308,(30, 7),5	313,(4, 0),1	314,(52, 6),3	317,(53, 6),8	325,(100, 6),11	336,(13, 6),4	340,(42, 6),61	401,(30, 6),6	407,(88, 3),4	411,(26, 3),6	417,(100, 3),5	422,(13, 3),14	436,(45, 3),71	507,(47, 10),1	508,(67, 10),3	511,(46, 10),8	519,(98, 10),27	546,(30, 10),197	
19,(121, 93),6	43,(121, 66),6	49,(89, 4),5	91,(121, 50),6	103,(121, 27),6	127,(121, 85),6	133,(121, 98),6	142,(117, 4),5	151,(121, 30),6	157,(48, 4),1	158,(86, 4),2	160,(38, 4),4	164,(34, 4),1	165,(82, 4),5	170,(76, 4),1	171,(107, 4),10	181,(104, 4),1	182,(80, 4),3	185,(73, 4),13	198,(40, 4),8	206,(35, 4),5	211,(14, 4),18	229,(62, 4),7	236,(17, 4),1	237,(103, 4),1	238,(58, 4),1	239,(91, 4),2	242,(95, 4),21	263,(31, 4),16	279,(59, 4),7	286,(44, 4),17	
7,(121, 77),6	67,(121, 46),6	97,(121, 13),6	109,(121, 14),6	

37,(121, 89),6	
49,(121, 88),6	55,(121, 26),6	79,(121, 53),6	
61,(121, 28),6	
1,(121, 110),6	
121,(121, 117),6	
13,(121, 47),6	25,(121, 52),6	31,(121, 67),6	73,(121, 33),6	85,(121, 100),6	115,(121, 95),6	139,(121, 42),6	145,(121, 45),6	
# Outgoing
1,(121, 110),6	7,(121, 77),6	13,(121, 47),6	19,(121, 93),6	25,(121, 52),6	31,(121, 67),6	37,(121, 89),6	43,(121, 66),6	49,(121, 88),6	55,(121, 26),6	61,(121, 28),6	67,(121, 46),6	73,(121, 33),6	79,(121, 53),6	85,(121, 100),6	91,(121, 50),6	97,(121, 13),6	103,(121, 27),6	109,(121, 14),6	115,(121, 95),6	121,(121, 117),6	127,(121, 85),6	133,(121, 98),6	139,(121, 42),6	145,(121, 45),6	151,(121, 30),6	157,(48, 4),1	158,(86, 4),2	160,(38, 4),4	164,(34, 4),1	165,(82, 4),5	170,(76, 4),1	171,(107, 4),10	181,(104, 4),1	182,(80, 4),3	185,(73, 4),13	198,(40, 4),8	206,(35, 4),5	229,(62, 4),7	236,(17, 4),1	237,(103, 4),1	238,(58, 4),1	239,(91, 4),2	263,(31, 4),16	279,(59, 4),7	286,(44, 4),17	
51,(66, 5),5	59,(93, 12),1	60,(93, 7),1	99,(50, 11),12	120,(50, 9),1	142,(85, 11),5	169,(30, 11),4	175,(27, 12),16	191,(98, 12),15	227,(85, 9),12	268,(98, 7),40	308,(30, 7),5	313,(4, 0),1	401,(30, 6),6	519,(98, 10),27	546,(30, 10),197	
111,(13, 12),4	115,(46, 9),5	121,(13, 9),2	123,(14, 9),4	127,(77, 6),1	147,(14, 7),3	211,(14, 4),18	336,(13, 6),4	422,(13, 3),14	511,(46, 10),8	

49,(89, 4),5	
57,(88, 5),2	63,(26, 2),1	64,(88, 1),6	70,(26, 1),6	87,(53, 9),10	317,(53, 6),8	407,(88, 3),4	411,(26, 3),6	
76,(28, 11),6	82,(28, 12),3	
56,(110, 2),1	
129,(117, 2),13	142,(117, 4),5	150,(117, 6),1	242,(117, 7),26	
153,(45, 5),6	159,(95, 2),3	162,(95, 1),6	168,(52, 11),1	173,(52, 12),1	174,(100, 12),1	206,(45, 12),1	207,(67, 9),1	208,(33, 9),9	217,(100, 9),10	239,(33, 7),2	241,(100, 7),1	242,(95, 4),21	314,(52, 6),3	325,(100, 6),11	340,(42, 6),61	417,(100, 3),5	436,(45, 3),71	507,(47, 10),1	508,(67, 10),3	
