4354
# CPU
0,0,1	1,11,80	81,7,80	161,81,80	241,200,80	321,97,80	401,13,80	481,58,80	561,1,80	641,27,80	721,91,80	801,12,80	881,45,80	961,118,80	1041,6,80	1121,188,80	1201,129,80	1281,197,80	1361,186,80	1441,18,80	1521,71,80	1601,79,80	1681,47,80	1761,125,80	1841,63,80	1921,181,80	2001,14,80	2081,170,80	2161,37,80	2241,199,80	2321,54,80	2401,156,80	2481,124,80	2561,121,80	2641,178,80	2721,185,80	2801,152,80	2881,135,80	2961,149,80	3041,163,80	3121,191,80	3201,84,80	3281,89,80	3361,166,80	3441,145,80	3521,42,80	3601,194,80	3681,26,80	3761,161,80	3841,40,80	3921,75,80	4273,176,80	4353,201,1	
31,10,80	111,177,80	191,2,80	271,48,80	351,183,80	431,169,80	511,109,80	591,137,80	671,182,80	751,20,80	831,56,80	911,119,80	991,83,80	1071,162,80	1151,43,80	1231,196,80	1311,50,80	1391,117,80	1471,65,80	1551,198,80	1631,148,80	1711,8,80	1791,164,80	1871,72,80	1951,25,80	2031,23,80	2111,126,80	2191,87,80	2271,66,80	2351,39,80	2431,158,80	2511,127,80	2591,78,80	2671,22,80	2751,147,80	2831,30,80	2911,74,80	2991,33,80	3071,59,80	3151,167,80	3231,131,80	3311,36,80	3391,64,80	3471,99,80	3551,69,80	3631,143,80	3711,73,80	3791,184,80	3871,134,80	
21,16,80	101,93,80	181,31,80	261,95,80	341,9,80	421,5,80	501,24,80	581,57,80	661,154,80	741,3,80	821,70,80	901,111,80	981,138,80	1061,115,80	1141,180,80	1221,98,80	1301,159,80	1381,108,80	1461,105,80	1541,62,80	1621,106,80	1701,144,80	1781,123,80	1861,193,80	1941,150,80	2021,49,80	2101,173,80	2181,88,80	2261,102,80	2341,21,80	2421,38,80	2501,61,80	2581,46,80	2661,141,80	2741,35,80	2821,53,80	2901,153,80	2981,132,80	3061,80,80	3141,41,80	3221,179,80	3301,172,80	3381,189,80	3461,130,80	3541,107,80	3621,55,80	3701,113,80	3781,122,80	3861,190,80	3941,192,80	
11,19,80	91,4,80	171,34,80	251,90,80	331,17,80	411,114,80	491,175,80	571,68,80	651,85,80	731,168,80	811,15,80	891,82,80	971,128,80	1051,195,80	1131,140,80	1211,103,80	1291,67,80	1371,86,80	1451,136,80	1531,139,80	1611,101,80	1691,60,80	1771,96,80	1851,52,80	1931,160,80	2011,32,80	2091,174,80	2171,77,80	2251,28,80	2331,165,80	2411,151,80	2491,110,80	2571,104,80	2651,142,80	2731,44,80	2811,94,80	2891,155,80	2971,120,80	3051,171,80	3131,92,80	3211,112,80	3291,146,80	3371,51,80	3451,100,80	3531,157,80	3611,187,80	3691,133,80	3771,116,80	3851,76,80	3931,29,80	
# Incoming
181,(93, 201),2	191,(177, 201),2	197,(10, 121),2	205,(10, 149),6	211,(10, 40),2	223,(16, 89),10	243,(16, 26),4	251,(34, 201),2	261,(31, 201),2	273,(19, 166),2	275,(2, 54),2	277,(2, 156),2	279,(2, 178),2	311,(19, 40),2	331,(90, 201),2	341,(95, 201),2	351,(48, 201),2	379,(2, 42),18	397,(10, 161),28	425,(17, 194),2	431,(183, 201),2	433,(17, 191),8	443,(9, 135),4	447,(9, 163),8	455,(17, 84),10	479,(9, 194),2	491,(114, 201),2	511,(169, 201),2	515,(5, 185),2	517,(17, 176),8	525,(5, 152),6	531,(17, 75),14	571,(175, 201),2	581,(24, 201),2	591,(109, 201),2	593,(9, 26),12	635,(9, 40),10	651,(68, 201),2	661,(57, 201),2	671,(137, 201),2	711,(5, 75),14	731,(85, 201),2	741,(154, 201),2	751,(182, 201),2	811,(168, 201),2	833,(3, 124),2	841,(3, 135),2	873,(20, 194),16	891,(15, 170),2	893,(20, 26),4	901,(70, 201),2	911,(56, 201),2	947,(15, 166),12	971,(82, 201),2	981,(111, 201),2	991,(119, 201),2	993,(15, 145),16	1013,(15, 40),14	1051,(128, 201),2	1061,(138, 201),2	1071,(83, 201),2	1131,(195, 201),2	1141,(115, 201),2	1151,(162, 201),2	1211,(140, 201),2	1221,(180, 201),2	1231,(43, 201),2	1291,(103, 201),2	1301,(98, 201),2	1311,(196, 201),2	1371,(67, 201),2	1381,(159, 201),2	1391,(50, 201),2	1451,(86, 201),2	1461,(108, 201),2	1471,(117, 201),2	1531,(136, 201),2	1541,(105, 201),2	1551,(65, 201),2	1611,(139, 201),2	1621,(62, 201),2	1631,(198, 201),2	1691,(101, 201),2	1701,(106, 201),2	1711,(148, 201),2	1771,(60, 201),2	1781,(144, 201),2	1851,(96, 201),2	1861,(123, 201),2	1871,(164, 201),2	1931,(52, 201),2	1941,(193, 201),2	1951,(72, 201),2	2011,(160, 201),2	2021,(150, 201),2	2031,(25, 201),2	2091,(32, 201),2	2101,(49, 201),2	2111,(23, 201),2	2171,(174, 201),2	2181,(173, 201),2	2191,(126, 201),2	2251,(77, 201),2	2261,(88, 201),2	2271,(87, 201),2	2331,(28, 201),2	2341,(102, 201),2	2351,(66, 201),2	2411,(165, 201),2	2421,(21, 201),2	2431,(39, 201),2	2491,(151, 201),2	2501,(38, 201),2	2511,(158, 201),2	2571,(110, 201),2	2581,(61, 201),2	2591,(127, 201),2	2651,(104, 201),2	2661,(46, 201),2	2671,(78, 201),2	2731,(142, 201),2	2741,(141, 201),2	2751,(22, 201),2	2811,(44, 201),2	2821,(35, 201),2	2831,(147, 201),2	2891,(94, 201),2	2901,(53, 201),2	2911,(30, 201),2	2971,(155, 201),2	2981,(153, 201),2	2991,(74, 201),2	3051,(120, 201),2	3061,(132, 201),2	3071,(33, 201),2	3131,(171, 201),2	3141,(80, 201),2	3151,(59, 201),2	3211,(92, 201),2	3221,(41, 201),2	3231,(167, 201),2	3291,(112, 201),2	3301,(179, 201),2	3311,(131, 201),2	3371,(146, 201),2	3381,(172, 201),2	3391,(36, 201),2	3451,(51, 201),2	3461,(189, 201),2	3471,(64, 201),2	3531,(100, 201),2	3541,(130, 201),2	3551,(99, 201),2	3611,(157, 201),2	3621,(107, 201),2	3631,(69, 201),2	3691,(187, 201),2	3701,(55, 201),2	3711,(143, 201),2	3771,(133, 201),2	3781,(113, 201),2	3791,(73, 201),2	3851,(116, 201),2	3861,(122, 201),2	3871,(184, 201),2	3931,(76, 201),2	3941,(190, 201),2	3951,(134, 201),2	4011,(29, 201),2	4021,(192, 201),2	4023,(4, 176),94	4117,(9, 176),156	
21,(0, 10),10	41,(0, 2),10	81,(11, 109),2	93,(0, 20),10	115,(0, 8),10	133,(11, 126),10	149,(11, 74),2	151,(11, 33),4	167,(7, 48),2	169,(7, 169),2	183,(16, 137),2	185,(16, 182),6	191,(16, 43),2	193,(7, 196),8	201,(16, 65),4	205,(16, 23),6	211,(16, 78),2	215,(7, 74),8	223,(7, 134),2	233,(16, 36),10	253,(19, 183),2	257,(19, 43),4	269,(4, 66),4	277,(11, 99),12	289,(7, 184),6	301,(19, 147),10	311,(16, 184),20	333,(4, 59),8	351,(4, 36),18	369,(7, 99),18	411,(17, 137),4	417,(17, 87),4	421,(17, 127),4	425,(9, 137),4	429,(9, 119),2	431,(11, 134),24	465,(17, 131),20	485,(9, 64),4	489,(17, 134),2	493,(13, 127),2	501,(5, 109),2	511,(5, 162),2	517,(5, 147),8	541,(5, 74),10	551,(5, 59),14	605,(9, 184),30	641,(1, 182),4	649,(1, 23),2	651,(1, 127),8	771,(1, 143),48	821,(3, 83),2	823,(3, 50),4	827,(3, 65),6	835,(3, 30),2	843,(3, 143),4	857,(3, 33),6	863,(1, 184),14	881,(12, 50),2	893,(15, 162),4	899,(15, 50),2	901,(15, 117),10	911,(15, 72),2	913,(15, 66),8	921,(15, 158),10	931,(15, 78),14	945,(12, 33),14	959,(15, 59),4	983,(3, 167),26	1009,(3, 69),34	1043,(12, 73),72	1123,(6, 43),2	1133,(6, 25),4	1137,(6, 158),2	1147,(6, 131),8	1157,(6, 64),28	1525,(18, 198),2	1529,(18, 148),8	1545,(18, 87),8	1553,(18, 158),2	1633,(18, 69),14	1677,(18, 184),8	1759,(13, 134),194	2097,(14, 39),14	2131,(14, 22),16	2163,(14, 30),16	2201,(14, 99),6	2207,(14, 69),2	2311,(14, 184),82	
11,(0, 16),10	61,(0, 9),10	71,(0, 5),10	83,(0, 3),10	113,(11, 138),2	125,(11, 49),8	143,(11, 21),4	155,(11, 179),4	159,(11, 130),2	185,(7, 21),6	191,(7, 61),2	195,(10, 154),2	199,(10, 53),6	213,(7, 153),2	215,(10, 107),4	225,(10, 130),14	245,(11, 55),6	255,(19, 115),2	261,(19, 98),2	263,(4, 159),4	267,(4, 102),2	271,(2, 115),2	273,(2, 105),2	275,(4, 88),12	287,(19, 102),10	297,(19, 61),4	301,(2, 35),10	311,(2, 132),6	317,(19, 80),2	319,(4, 80),10	329,(7, 41),12	341,(19, 41),10	353,(10, 179),26	379,(4, 122),4	383,(19, 190),4	387,(7, 107),20	415,(17, 154),2	433,(10, 192),42	493,(17, 172),16	531,(13, 172),26	557,(13, 107),22	659,(1, 153),18	677,(1, 80),16	693,(1, 179),2	695,(1, 130),32	819,(1, 190),8	831,(20, 180),2	833,(20, 98),2	837,(20, 108),6	847,(20, 123),2	849,(20, 21),2	851,(20, 35),4	855,(20, 41),2	863,(20, 172),2	865,(20, 107),2	883,(12, 105),4	897,(15, 159),2	899,(12, 150),8	911,(12, 38),2	923,(12, 46),8	931,(12, 35),2	933,(20, 189),12	945,(15, 141),2	959,(12, 189),32	991,(12, 130),2	1009,(15, 107),4	1013,(20, 122),24	1037,(12, 190),4	1041,(15, 192),10	1053,(15, 55),50	1121,(6, 180),2	1139,(6, 61),8	1185,(6, 122),36	1325,(6, 190),10	1523,(18, 62),2	1527,(18, 106),2	1537,(18, 144),2	1539,(18, 123),6	1557,(18, 141),16	1573,(18, 35),2	1575,(18, 132),16	1601,(18, 41),2	1647,(18, 113),20	1667,(18, 122),10	1685,(18, 190),74	1793,(8, 193),6	1803,(8, 53),12	1817,(8, 172),2	2083,(14, 173),12	2111,(14, 38),12	2123,(14, 46),8	2179,(14, 41),6	2197,(14, 189),2	2241,(14, 113),48	2289,(14, 122),22	2719,(14, 192),516	
1,(0, 19),10	31,(0, 4),10	51,(0, 17),10	103,(0, 15),10	147,(11, 142),2	161,(7, 90),6	171,(7, 168),8	179,(7, 103),4	183,(7, 67),2	193,(10, 114),2	195,(16, 94),2	201,(7, 165),12	213,(16, 151),10	223,(10, 155),2	225,(11, 120),20	245,(10, 171),18	263,(7, 171),2	265,(7, 92),12	281,(2, 142),12	293,(2, 112),6	299,(10, 51),2	301,(7, 100),12	317,(2, 157),10	343,(16, 29),48	407,(7, 29),6	421,(9, 68),4	431,(9, 86),2	433,(9, 110),10	455,(9, 146),24	481,(13, 175),2	483,(13, 195),2	485,(13, 86),2	487,(13, 101),4	491,(13, 77),2	493,(9, 187),6	503,(5, 68),2	505,(5, 85),6	513,(5, 28),2	515,(13, 94),16	531,(5, 155),10	565,(5, 76),2	579,(7, 116),52	645,(1, 168),2	647,(1, 140),2	663,(9, 133),48	727,(1, 187),44	835,(20, 67),2	837,(3, 174),4	843,(20, 136),4	847,(3, 28),10	857,(20, 151),2	859,(20, 110),4	863,(3, 104),6	869,(20, 155),4	873,(3, 187),2	887,(12, 60),2	889,(12, 96),10	907,(12, 77),4	913,(12, 104),10	923,(3, 116),28	951,(3, 76),22	993,(1, 133),18	1011,(1, 76),18	1125,(6, 60),8	1155,(6, 146),2	1221,(12, 76),104	1335,(6, 29),14	1521,(18, 139),2	1555,(18, 142),2	1591,(18, 92),10	1603,(18, 112),4	1607,(18, 51),18	1625,(18, 100),8	1791,(8, 52),2	1799,(8, 160),2	1801,(8, 32),2	1815,(8, 155),2	1819,(8, 51),8	1827,(8, 100),10	1837,(8, 157),24	1873,(8, 116),24	2081,(14, 174),2	2095,(14, 77),2	2147,(14, 44),16	2185,(14, 112),12	2199,(14, 100),2	2209,(14, 133),32	2393,(12, 29),298	2691,(14, 29),28	
# Outgoing
1,(0, 19),10	11,(0, 16),10	21,(0, 10),10	31,(0, 4),10	41,(0, 2),10	51,(0, 17),10	61,(0, 9),10	71,(0, 5),10	81,(11, 109),2	83,(0, 3),10	93,(0, 20),10	103,(0, 15),10	113,(11, 138),2	115,(0, 8),10	125,(11, 49),8	133,(11, 126),10	143,(11, 21),4	147,(11, 142),2	149,(11, 74),2	151,(11, 33),4	155,(11, 179),4	159,(11, 130),2	161,(7, 90),6	167,(7, 48),2	169,(7, 169),2	171,(7, 168),8	179,(7, 103),4	183,(7, 67),2	185,(7, 21),6	191,(7, 61),2	193,(7, 196),8	201,(7, 165),12	213,(7, 153),2	215,(7, 74),8	223,(7, 134),2	225,(11, 120),20	245,(11, 55),6	263,(7, 171),2	265,(7, 92),12	277,(11, 99),12	289,(7, 184),6	301,(7, 100),12	329,(7, 41),12	369,(7, 99),18	387,(7, 107),20	407,(7, 29),6	431,(11, 134),24	481,(13, 175),2	483,(13, 195),2	485,(13, 86),2	487,(13, 101),4	491,(13, 77),2	493,(13, 127),2	515,(13, 94),16	531,(13, 172),26	557,(13, 107),22	579,(7, 116),52	641,(1, 182),4	645,(1, 168),2	647,(1, 140),2	649,(1, 23),2	651,(1, 127),8	659,(1, 153),18	677,(1, 80),16	693,(1, 179),2	695,(1, 130),32	727,(1, 187),44	771,(1, 143),48	819,(1, 190),8	863,(1, 184),14	881,(12, 50),2	883,(12, 105),4	887,(12, 60),2	889,(12, 96),10	899,(12, 150),8	907,(12, 77),4	911,(12, 38),2	913,(12, 104),10	923,(12, 46),8	931,(12, 35),2	945,(12, 33),14	959,(12, 189),32	991,(12, 130),2	993,(1, 133),18	1011,(1, 76),18	1037,(12, 190),4	1043,(12, 73),72	1121,(6, 180),2	1123,(6, 43),2	1125,(6, 60),8	1133,(6, 25),4	1137,(6, 158),2	1139,(6, 61),8	1147,(6, 131),8	1155,(6, 146),2	1157,(6, 64),28	1185,(6, 122),36	1221,(12, 76),104	1325,(6, 190),10	1335,(6, 29),14	1521,(18, 139),2	1523,(18, 62),2	1525,(18, 198),2	1527,(18, 106),2	1529,(18, 148),8	1537,(18, 144),2	1539,(18, 123),6	1545,(18, 87),8	1553,(18, 158),2	1555,(18, 142),2	1557,(18, 141),16	1573,(18, 35),2	1575,(18, 132),16	1591,(18, 92),10	1601,(18, 41),2	1603,(18, 112),4	1607,(18, 51),18	1625,(18, 100),8	1633,(18, 69),14	1647,(18, 113),20	1667,(18, 122),10	1677,(18, 184),8	1685,(18, 190),74	1759,(13, 134),194	2081,(14, 174),2	2083,(14, 173),12	2095,(14, 77),2	2097,(14, 39),14	2111,(14, 38),12	2123,(14, 46),8	2131,(14, 22),16	2147,(14, 44),16	2163,(14, 30),16	2179,(14, 41),6	2185,(14, 112),12	2197,(14, 189),2	2199,(14, 100),2	2201,(14, 99),6	2207,(14, 69),2	2209,(14, 133),32	2241,(14, 113),48	2289,(14, 122),22	2311,(14, 184),82	2393,(12, 29),298	2691,(14, 29),28	2719,(14, 192),516	
191,(177, 201),2	193,(10, 114),2	195,(10, 154),2	197,(10, 121),2	199,(10, 53),6	205,(10, 149),6	211,(10, 40),2	215,(10, 107),4	223,(10, 155),2	225,(10, 130),14	245,(10, 171),18	271,(2, 115),2	273,(2, 105),2	275,(2, 54),2	277,(2, 156),2	279,(2, 178),2	281,(2, 142),12	293,(2, 112),6	299,(10, 51),2	301,(2, 35),10	311,(2, 132),6	317,(2, 157),10	351,(48, 201),2	353,(10, 179),26	379,(2, 42),18	397,(10, 161),28	431,(183, 201),2	433,(10, 192),42	511,(169, 201),2	591,(109, 201),2	671,(137, 201),2	751,(182, 201),2	831,(20, 180),2	833,(20, 98),2	835,(20, 67),2	837,(20, 108),6	843,(20, 136),4	847,(20, 123),2	849,(20, 21),2	851,(20, 35),4	855,(20, 41),2	857,(20, 151),2	859,(20, 110),4	863,(20, 172),2	865,(20, 107),2	869,(20, 155),4	873,(20, 194),16	893,(20, 26),4	911,(56, 201),2	933,(20, 189),12	991,(119, 201),2	1013,(20, 122),24	1071,(83, 201),2	1151,(162, 201),2	1231,(43, 201),2	1311,(196, 201),2	1391,(50, 201),2	1471,(117, 201),2	1551,(65, 201),2	1631,(198, 201),2	1711,(148, 201),2	1791,(8, 52),2	1793,(8, 193),6	1799,(8, 160),2	1801,(8, 32),2	1803,(8, 53),12	1815,(8, 155),2	1817,(8, 172),2	1819,(8, 51),8	1827,(8, 100),10	1837,(8, 157),24	1871,(164, 201),2	1873,(8, 116),24	1951,(72, 201),2	2031,(25, 201),2	2111,(23, 201),2	2191,(126, 201),2	2271,(87, 201),2	2351,(66, 201),2	2431,(39, 201),2	2511,(158, 201),2	2591,(127, 201),2	2671,(78, 201),2	2751,(22, 201),2	2831,(147, 201),2	2911,(30, 201),2	2991,(74, 201),2	3071,(33, 201),2	3151,(59, 201),2	3231,(167, 201),2	3311,(131, 201),2	3391,(36, 201),2	3471,(64, 201),2	3551,(99, 201),2	3631,(69, 201),2	3711,(143, 201),2	3791,(73, 201),2	3871,(184, 201),2	3951,(134, 201),2	
181,(93, 201),2	183,(16, 137),2	185,(16, 182),6	191,(16, 43),2	195,(16, 94),2	201,(16, 65),4	205,(16, 23),6	211,(16, 78),2	213,(16, 151),10	223,(16, 89),10	233,(16, 36),10	243,(16, 26),4	261,(31, 201),2	311,(16, 184),20	341,(95, 201),2	343,(16, 29),48	421,(9, 68),4	425,(9, 137),4	429,(9, 119),2	431,(9, 86),2	433,(9, 110),10	443,(9, 135),4	447,(9, 163),8	455,(9, 146),24	479,(9, 194),2	485,(9, 64),4	493,(9, 187),6	501,(5, 109),2	503,(5, 68),2	505,(5, 85),6	511,(5, 162),2	513,(5, 28),2	515,(5, 185),2	517,(5, 147),8	525,(5, 152),6	531,(5, 155),10	541,(5, 74),10	551,(5, 59),14	565,(5, 76),2	581,(24, 201),2	593,(9, 26),12	605,(9, 184),30	635,(9, 40),10	661,(57, 201),2	663,(9, 133),48	711,(5, 75),14	741,(154, 201),2	821,(3, 83),2	823,(3, 50),4	827,(3, 65),6	833,(3, 124),2	835,(3, 30),2	837,(3, 174),4	841,(3, 135),2	843,(3, 143),4	847,(3, 28),10	857,(3, 33),6	863,(3, 104),6	873,(3, 187),2	901,(70, 201),2	923,(3, 116),28	951,(3, 76),22	981,(111, 201),2	983,(3, 167),26	1009,(3, 69),34	1061,(138, 201),2	1141,(115, 201),2	1221,(180, 201),2	1301,(98, 201),2	1381,(159, 201),2	1461,(108, 201),2	1541,(105, 201),2	1621,(62, 201),2	1701,(106, 201),2	1781,(144, 201),2	1861,(123, 201),2	1941,(193, 201),2	2021,(150, 201),2	2101,(49, 201),2	2181,(173, 201),2	2261,(88, 201),2	2341,(102, 201),2	2421,(21, 201),2	2501,(38, 201),2	2581,(61, 201),2	2661,(46, 201),2	2741,(141, 201),2	2821,(35, 201),2	2901,(53, 201),2	2981,(153, 201),2	3061,(132, 201),2	3141,(80, 201),2	3221,(41, 201),2	3301,(179, 201),2	3381,(172, 201),2	3461,(189, 201),2	3541,(130, 201),2	3621,(107, 201),2	3701,(55, 201),2	3781,(113, 201),2	3861,(122, 201),2	3941,(190, 201),2	4021,(192, 201),2	4117,(9, 176),156	
251,(34, 201),2	253,(19, 183),2	255,(19, 115),2	257,(19, 43),4	261,(19, 98),2	263,(4, 159),4	267,(4, 102),2	269,(4, 66),4	273,(19, 166),2	275,(4, 88),12	287,(19, 102),10	297,(19, 61),4	301,(19, 147),10	311,(19, 40),2	317,(19, 80),2	319,(4, 80),10	331,(90, 201),2	333,(4, 59),8	341,(19, 41),10	351,(4, 36),18	379,(4, 122),4	383,(19, 190),4	411,(17, 137),4	415,(17, 154),2	417,(17, 87),4	421,(17, 127),4	425,(17, 194),2	433,(17, 191),8	455,(17, 84),10	465,(17, 131),20	489,(17, 134),2	491,(114, 201),2	493,(17, 172),16	517,(17, 176),8	531,(17, 75),14	571,(175, 201),2	651,(68, 201),2	731,(85, 201),2	811,(168, 201),2	891,(15, 170),2	893,(15, 162),4	897,(15, 159),2	899,(15, 50),2	901,(15, 117),10	911,(15, 72),2	913,(15, 66),8	921,(15, 158),10	931,(15, 78),14	945,(15, 141),2	947,(15, 166),12	959,(15, 59),4	971,(82, 201),2	993,(15, 145),16	1009,(15, 107),4	1013,(15, 40),14	1041,(15, 192),10	1051,(128, 201),2	1053,(15, 55),50	1131,(195, 201),2	1211,(140, 201),2	1291,(103, 201),2	1371,(67, 201),2	1451,(86, 201),2	1531,(136, 201),2	1611,(139, 201),2	1691,(101, 201),2	1771,(60, 201),2	1851,(96, 201),2	1931,(52, 201),2	2011,(160, 201),2	2091,(32, 201),2	2171,(174, 201),2	2251,(77, 201),2	2331,(28, 201),2	2411,(165, 201),2	2491,(151, 201),2	2571,(110, 201),2	2651,(104, 201),2	2731,(142, 201),2	2811,(44, 201),2	2891,(94, 201),2	2971,(155, 201),2	3051,(120, 201),2	3131,(171, 201),2	3211,(92, 201),2	3291,(112, 201),2	3371,(146, 201),2	3451,(51, 201),2	3531,(100, 201),2	3611,(157, 201),2	3691,(187, 201),2	3771,(133, 201),2	3851,(116, 201),2	3931,(76, 201),2	4011,(29, 201),2	4023,(4, 176),94	
