492
# CPU
5,5,9	14,18,9	23,12,9	32,44,9	41,28,9	50,23,9	59,30,9	88,21,9	97,39,9	106,59,9	119,26,9	128,34,9	137,54,9	154,69,9	167,74,9	176,49,9	206,64,9	217,79,9	
4,4,9	13,33,9	22,53,9	31,68,9	49,22,9	60,20,9	69,38,9	78,17,9	144,48,9	175,24,9	184,29,9	193,43,9	253,11,9	266,27,9	277,63,9	338,58,9	418,73,9	473,78,9	
3,3,9	12,8,9	21,13,9	30,19,9	39,45,9	48,55,9	103,25,9	120,50,9	137,35,9	146,60,9	199,80,9	208,65,9	217,70,9	267,40,9	463,75,9	
2,2,9	11,7,9	20,52,9	29,77,9	38,16,9	47,14,9	56,37,9	65,47,9	77,62,9	138,42,9	167,57,9	176,10,9	185,32,9	283,67,9	384,72,9	
0,0,1	1,1,9	10,6,9	61,71,9	70,41,9	79,61,9	121,15,9	163,31,9	172,51,9	181,56,9	190,76,9	202,36,9	211,66,9	252,9,9	261,46,9	491,81,1	
# Incoming
4,(0, 5),1	10,(1, 12),6	16,(3, 44),2	32,(8, 28),1	49,(2, 23),1	50,(2, 30),9	61,(2, 79),8	74,(7, 21),14	88,(7, 39),7	95,(7, 59),3	103,(1, 26),16	119,(1, 34),1	120,(7, 54),16	146,(1, 69),8	166,(1, 74),1	167,(4, 49),5	172,(4, 64),34	206,(6, 79),11	
3,(0, 4),1	12,(3, 22),1	21,(1, 17),16	37,(2, 22),12	49,(3, 78),7	56,(8, 20),4	63,(8, 38),4	69,(7, 17),5	138,(1, 48),6	171,(6, 24),4	175,(6, 29),1	179,(6, 43),11	252,(5, 11),1	253,(5, 27),13	267,(5, 58),6	273,(5, 63),4	277,(6, 58),61	384,(5, 73),34	463,(5, 78),10	
2,(0, 3),1	6,(0, 8),1	37,(1, 25),66	103,(2, 50),17	120,(1, 35),17	137,(7, 40),3	144,(1, 60),2	146,(7, 70),6	154,(1, 70),12	166,(2, 80),33	199,(6, 40),2	201,(6, 65),4	205,(6, 70),1	266,(5, 40),1	418,(5, 75),45	
1,(0, 2),1	5,(0, 7),1	16,(1, 16),5	21,(8, 14),11	33,(8, 37),15	48,(8, 47),1	67,(8, 62),10	137,(1, 42),1	164,(4, 57),3	167,(6, 10),4	176,(6, 32),3	277,(5, 67),6	283,(5, 72),101	
59,(2, 46),1	60,(2, 71),1	61,(3, 41),1	62,(3, 61),1	63,(4, 15),58	121,(4, 31),42	163,(4, 51),1	164,(8, 56),3	167,(8, 76),1	168,(13, 81),1	169,(19, 81),1	170,(45, 81),1	171,(55, 81),1	172,(25, 81),1	173,(50, 81),1	174,(35, 81),1	175,(60, 81),1	199,(7, 36),3	202,(52, 81),1	203,(77, 81),1	204,(16, 81),1	205,(14, 81),1	206,(4, 66),1	207,(5, 9),45	252,(7, 46),6	258,(33, 81),1	259,(53, 81),1	260,(68, 81),1	261,(22, 81),1	262,(37, 81),1	263,(20, 81),1	264,(47, 81),1	265,(38, 81),1	266,(62, 81),1	267,(17, 81),1	268,(42, 81),1	269,(48, 81),1	270,(57, 81),1	271,(24, 81),1	272,(10, 81),1	273,(29, 81),1	274,(32, 81),1	275,(43, 81),1	276,(80, 81),1	277,(65, 81),1	278,(70, 81),1	279,(11, 81),1	280,(27, 81),1	281,(40, 81),1	286,(63, 81),1	292,(67, 81),1	347,(58, 81),1	393,(72, 81),1	427,(73, 81),1	472,(75, 81),1	473,(18, 81),1	474,(12, 81),1	475,(44, 81),1	476,(28, 81),1	477,(23, 81),1	478,(30, 81),1	479,(21, 81),1	480,(39, 81),1	481,(59, 81),1	482,(26, 81),1	483,(34, 81),1	484,(54, 81),1	485,(69, 81),1	486,(74, 81),1	487,(49, 81),1	488,(64, 81),1	489,(79, 81),1	490,(78, 81),1	
# Outgoing
207,(5, 9),45	252,(5, 11),1	253,(5, 27),13	266,(5, 40),1	267,(5, 58),6	273,(5, 63),4	277,(5, 67),6	283,(5, 72),101	384,(5, 73),34	418,(5, 75),45	463,(5, 78),10	473,(18, 81),1	474,(12, 81),1	475,(44, 81),1	476,(28, 81),1	477,(23, 81),1	478,(30, 81),1	479,(21, 81),1	480,(39, 81),1	481,(59, 81),1	482,(26, 81),1	483,(34, 81),1	484,(54, 81),1	485,(69, 81),1	486,(74, 81),1	487,(49, 81),1	488,(64, 81),1	489,(79, 81),1	
63,(4, 15),58	121,(4, 31),42	163,(4, 51),1	164,(4, 57),3	167,(4, 49),5	172,(4, 64),34	206,(4, 66),1	258,(33, 81),1	259,(53, 81),1	260,(68, 81),1	261,(22, 81),1	263,(20, 81),1	265,(38, 81),1	267,(17, 81),1	269,(48, 81),1	271,(24, 81),1	273,(29, 81),1	275,(43, 81),1	279,(11, 81),1	280,(27, 81),1	286,(63, 81),1	347,(58, 81),1	427,(73, 81),1	490,(78, 81),1	
12,(3, 22),1	16,(3, 44),2	21,(8, 14),11	32,(8, 28),1	33,(8, 37),15	48,(8, 47),1	49,(3, 78),7	56,(8, 20),4	61,(3, 41),1	62,(3, 61),1	63,(8, 38),4	67,(8, 62),10	164,(8, 56),3	167,(8, 76),1	168,(13, 81),1	169,(19, 81),1	170,(45, 81),1	171,(55, 81),1	172,(25, 81),1	173,(50, 81),1	174,(35, 81),1	175,(60, 81),1	276,(80, 81),1	277,(65, 81),1	278,(70, 81),1	281,(40, 81),1	472,(75, 81),1	
37,(2, 22),12	49,(2, 23),1	50,(2, 30),9	59,(2, 46),1	60,(2, 71),1	61,(2, 79),8	69,(7, 17),5	74,(7, 21),14	88,(7, 39),7	95,(7, 59),3	103,(2, 50),17	120,(7, 54),16	137,(7, 40),3	146,(7, 70),6	166,(2, 80),33	199,(7, 36),3	202,(52, 81),1	203,(77, 81),1	204,(16, 81),1	205,(14, 81),1	252,(7, 46),6	262,(37, 81),1	264,(47, 81),1	266,(62, 81),1	268,(42, 81),1	270,(57, 81),1	272,(10, 81),1	274,(32, 81),1	292,(67, 81),1	393,(72, 81),1	
1,(0, 2),1	2,(0, 3),1	3,(0, 4),1	4,(0, 5),1	5,(0, 7),1	6,(0, 8),1	10,(1, 12),6	16,(1, 16),5	21,(1, 17),16	37,(1, 25),66	103,(1, 26),16	119,(1, 34),1	120,(1, 35),17	137,(1, 42),1	138,(1, 48),6	144,(1, 60),2	146,(1, 69),8	154,(1, 70),12	166,(1, 74),1	167,(6, 10),4	171,(6, 24),4	175,(6, 29),1	176,(6, 32),3	179,(6, 43),11	199,(6, 40),2	201,(6, 65),4	205,(6, 70),1	206,(6, 79),11	277,(6, 58),61	
