354
# CPU
0,41,1	1,23,13	14,40,13	27,7,13	40,36,13	53,12,13	66,15,13	79,6,13	92,20,13	105,10,13	118,29,13	131,32,13	144,24,13	157,22,13	170,25,13	183,9,13	196,21,13	209,11,13	222,30,13	235,17,13	248,13,13	261,8,13	274,31,13	287,37,13	300,33,13	313,1,13	326,3,13	340,2,13	353,0,1	
76,19,13	101,27,13	176,18,13	201,35,13	251,14,13	276,26,13	301,28,13	328,4,13	
126,5,13	
26,34,13	51,16,13	
151,39,13	226,38,13	
# Incoming
89,(19, 1),1	90,(16, 3),1	91,(34, 2),1	114,(27, 2),6	164,(39, 1),10	214,(35, 2),14	239,(38, 3),15	264,(14, 3),20	289,(26, 2),51	341,(4, 0),5	
51,(41, 19),25	76,(41, 27),25	139,(5, 4),7	151,(41, 18),25	176,(41, 35),25	226,(41, 14),25	251,(41, 26),25	276,(41, 28),25	301,(36, 4),1	302,(15, 4),1	303,(10, 4),6	309,(13, 4),19	
101,(41, 5),25	
1,(41, 34),25	26,(41, 16),25	
126,(41, 39),25	201,(41, 38),25	
# Outgoing
1,(41, 34),25	26,(41, 16),25	51,(41, 19),25	76,(41, 27),25	101,(41, 5),25	126,(41, 39),25	151,(41, 18),25	176,(41, 35),25	201,(41, 38),25	226,(41, 14),25	251,(41, 26),25	276,(41, 28),25	301,(36, 4),1	302,(15, 4),1	303,(10, 4),6	309,(13, 4),19	
89,(19, 1),1	114,(27, 2),6	214,(35, 2),14	264,(14, 3),20	289,(26, 2),51	341,(4, 0),5	
139,(5, 4),7	
90,(16, 3),1	91,(34, 2),1	
164,(39, 1),10	239,(38, 3),15	
