532
# CPU
77,6,1	83,7,1	133,10,1	149,14,1	159,18,1	193,9,1	195,11,1	237,12,1	285,13,1	287,16,1	297,17,1	303,19,1	461,20,1	527,15,1	531,21,1	
7,2,1	73,5,1	167,8,1	
0,0,1	1,1,1	2,4,1	26,3,1	
# Incoming
73,(1, 6),4	77,(2, 7),6	83,(2, 10),50	133,(2, 14),16	149,(2, 18),10	159,(2, 20),2	161,(5, 21),2	167,(1, 9),26	193,(1, 11),2	195,(1, 12),42	237,(1, 13),48	285,(1, 16),2	287,(1, 17),10	297,(1, 19),6	303,(1, 20),158	461,(4, 21),2	463,(2, 15),64	527,(3, 21),2	529,(8, 21),2	
1,(0, 2),6	7,(1, 5),66	77,(1, 8),90	
8,(2, 3),18	
# Outgoing

8,(2, 3),18	77,(2, 7),6	83,(2, 10),50	133,(2, 14),16	149,(2, 18),10	159,(2, 20),2	161,(5, 21),2	463,(2, 15),64	529,(8, 21),2	
1,(0, 2),6	7,(1, 5),66	73,(1, 6),4	77,(1, 8),90	167,(1, 9),26	193,(1, 11),2	195,(1, 12),42	237,(1, 13),48	285,(1, 16),2	287,(1, 17),10	297,(1, 19),6	303,(1, 20),158	461,(4, 21),2	527,(3, 21),2	
