1379
# CPU
0,0,1	1,3,9	10,38,9	19,29,9	28,78,9	37,69,9	46,68,9	55,8,9	64,74,9	73,27,9	82,7,9	91,17,9	100,76,9	109,70,9	118,73,9	127,79,9	136,1,9	145,11,9	154,54,9	163,41,9	172,16,9	181,24,9	190,44,9	199,4,9	208,42,9	217,10,9	226,13,9	235,19,9	244,58,9	253,72,9	262,65,9	271,62,9	280,2,9	289,60,9	298,26,9	307,50,9	316,52,9	325,64,9	334,14,9	343,39,9	352,28,9	361,49,9	370,5,9	379,31,9	388,80,9	397,35,9	406,66,9	415,63,9	424,21,9	433,77,9	442,12,9	451,33,9	460,18,9	469,71,9	478,75,9	487,47,9	496,53,9	505,48,9	514,51,9	523,15,9	541,40,9	550,23,9	559,67,9	568,55,9	577,32,9	586,9,9	595,43,9	604,37,9	613,25,9	655,57,9	706,59,9	799,36,9	931,22,9	1111,46,9	1369,34,9	1378,81,1	
214,6,9	223,61,9	232,30,9	241,56,9	259,45,9	325,20,9	
# Incoming
232,(61, 81),60	292,(30, 81),60	352,(56, 81),60	412,(45, 81),60	472,(6, 51),3	475,(6, 15),3	478,(20, 81),60	538,(6, 40),3	541,(6, 23),3	544,(6, 67),3	547,(6, 55),3	550,(6, 32),6	556,(6, 9),6	562,(6, 43),6	568,(6, 37),12	580,(6, 25),30	610,(6, 57),45	655,(6, 59),51	706,(6, 36),93	799,(6, 22),132	931,(6, 46),180	1111,(6, 34),258	
1,(0, 6),213	214,(7, 30),3	217,(8, 56),3	220,(7, 45),30	250,(4, 45),9	259,(8, 20),21	280,(1, 20),45	
# Outgoing
1,(0, 6),213	214,(7, 30),3	217,(8, 56),3	220,(7, 45),30	250,(4, 45),9	259,(8, 20),21	280,(1, 20),45	
232,(61, 81),60	292,(30, 81),60	352,(56, 81),60	412,(45, 81),60	472,(6, 51),3	475,(6, 15),3	478,(20, 81),60	538,(6, 40),3	541,(6, 23),3	544,(6, 67),3	547,(6, 55),3	550,(6, 32),6	556,(6, 9),6	562,(6, 43),6	568,(6, 37),12	580,(6, 25),30	610,(6, 57),45	655,(6, 59),51	706,(6, 36),93	799,(6, 22),132	931,(6, 46),180	1111,(6, 34),258	
