990
# CPU
0,0,1	1,7,5	6,29,5	11,3,5	16,32,5	21,17,5	26,42,5	31,102,5	36,54,5	41,70,5	46,12,5	51,68,5	56,94,5	61,64,5	66,81,5	71,33,5	76,56,5	81,41,5	86,69,5	91,93,5	96,91,5	107,52,5	119,48,5	167,47,5	211,85,5	236,101,5	268,18,5	336,72,5	412,78,5	980,55,5	
13,9,5	18,26,5	23,44,5	28,57,5	33,14,5	38,113,5	43,39,5	48,83,5	53,120,5	58,4,5	63,84,5	68,34,5	73,98,5	78,65,5	83,74,5	88,89,5	93,103,5	99,99,5	131,20,5	164,100,5	188,53,5	232,88,5	264,22,5	304,24,5	340,106,5	444,13,5	540,108,5	664,38,5	
5,1,5	10,28,5	15,110,5	20,73,5	25,67,5	30,2,5	35,58,5	40,114,5	45,79,5	50,90,5	55,61,5	60,16,5	67,63,5	79,111,5	99,62,5	123,104,5	143,80,5	172,105,5	228,116,5	284,15,5	392,30,5	989,121,1	
17,5,5	22,49,5	27,6,5	32,37,5	37,107,5	42,51,5	47,117,5	52,112,5	57,82,5	64,43,5	72,40,5	84,95,5	96,119,5	112,115,5	136,46,5	176,77,5	212,97,5	276,27,5	352,21,5	588,66,5	
9,8,5	21,10,5	26,36,5	31,87,5	36,71,5	41,118,5	46,59,5	51,11,5	56,31,5	61,86,5	66,96,5	71,92,5	76,50,5	81,25,5	86,109,5	91,23,5	112,60,5	147,76,5	212,75,5	252,45,5	308,19,5	584,35,5	
# Incoming
14,(1, 33),4	35,(2, 69),4	39,(1, 52),8	52,(6, 93),4	56,(6, 78),4	71,(4, 56),4	75,(9, 41),4	79,(11, 91),4	99,(8, 52),8	107,(2, 48),12	131,(2, 47),36	167,(10, 85),44	212,(5, 101),24	236,(6, 18),32	268,(6, 72),20	288,(11, 55),12	304,(1, 72),32	336,(2, 78),76	412,(1, 55),12	424,(2, 55),24	608,(10, 55),372	
9,(0, 9),4	29,(1, 24),4	40,(6, 120),4	52,(0, 4),4	64,(12, 89),4	68,(3, 99),4	72,(8, 74),4	79,(6, 103),12	91,(2, 99),8	107,(10, 20),8	119,(2, 20),12	136,(3, 100),8	144,(11, 100),20	164,(6, 53),24	188,(3, 88),24	212,(10, 88),20	232,(3, 22),4	236,(2, 22),28	264,(2, 24),40	304,(8, 106),12	316,(5, 106),24	352,(3, 13),4	392,(7, 13),52	444,(3, 108),96	540,(1, 38),12	552,(8, 38),56	608,(6, 38),56	
1,(0, 1),4	25,(0, 2),4	29,(7, 90),4	44,(7, 61),4	48,(5, 16),4	56,(11, 16),4	63,(4, 63),4	67,(6, 111),12	79,(9, 62),4	83,(11, 62),16	99,(5, 104),24	123,(9, 80),4	127,(11, 80),16	144,(3, 105),28	176,(7, 116),4	180,(29, 121),4	184,(9, 116),44	228,(32, 121),4	232,(11, 15),52	284,(10, 30),4	288,(49, 121),4	292,(37, 121),4	296,(107, 121),4	300,(36, 121),4	304,(26, 121),4	308,(44, 121),4	312,(57, 121),4	316,(8, 30),48	364,(12, 30),28	392,(14, 121),4	396,(113, 121),4	400,(39, 121),4	404,(83, 121),4	408,(120, 121),4	412,(84, 121),4	416,(34, 121),4	420,(98, 121),4	424,(65, 121),4	428,(74, 121),4	432,(89, 121),4	436,(103, 121),4	440,(99, 121),4	444,(20, 121),4	448,(100, 121),4	452,(53, 121),4	456,(88, 121),4	460,(22, 121),4	464,(87, 121),4	468,(71, 121),4	472,(118, 121),4	476,(59, 121),4	480,(31, 121),4	484,(86, 121),4	488,(96, 121),4	492,(92, 121),4	496,(50, 121),4	500,(25, 121),4	504,(109, 121),4	508,(23, 121),4	512,(60, 121),4	516,(76, 121),4	520,(75, 121),4	524,(45, 121),4	528,(24, 121),4	532,(19, 121),4	536,(106, 121),4	540,(13, 121),4	545,(108, 121),4	584,(51, 121),4	588,(17, 121),4	592,(42, 121),4	596,(102, 121),4	600,(54, 121),4	604,(70, 121),4	608,(68, 121),4	612,(94, 121),4	616,(64, 121),4	620,(81, 121),4	624,(33, 121),4	628,(56, 121),4	632,(41, 121),4	636,(69, 121),4	640,(93, 121),4	644,(91, 121),4	648,(52, 121),4	652,(48, 121),4	656,(47, 121),4	660,(85, 121),4	664,(117, 121),4	668,(112, 121),4	672,(82, 121),4	676,(43, 121),4	680,(40, 121),4	684,(95, 121),4	688,(119, 121),4	692,(115, 121),4	696,(46, 121),4	700,(77, 121),4	704,(97, 121),4	708,(101, 121),4	712,(18, 121),4	716,(27, 121),4	720,(72, 121),4	724,(21, 121),4	728,(78, 121),4	732,(66, 121),4	736,(38, 121),4	980,(35, 121),4	985,(55, 121),4	
13,(0, 5),4	21,(0, 6),4	33,(3, 112),4	48,(7, 82),4	56,(12, 40),4	60,(11, 43),4	64,(11, 40),8	72,(3, 95),12	84,(7, 119),12	96,(4, 115),16	112,(3, 46),24	136,(9, 77),24	167,(2, 66),4	172,(3, 77),4	176,(2, 97),36	212,(1, 27),24	236,(12, 27),40	276,(9, 66),28	308,(7, 21),8	316,(12, 21),36	364,(10, 66),100	540,(3, 66),48	
5,(0, 8),4	10,(1, 59),4	17,(0, 10),4	21,(1, 109),8	32,(6, 71),4	36,(6, 118),4	40,(0, 11),4	44,(5, 25),4	48,(2, 23),12	60,(7, 50),4	67,(4, 92),4	96,(7, 60),16	123,(5, 76),24	160,(4, 75),24	188,(5, 75),24	212,(12, 45),16	228,(4, 45),24	252,(9, 19),20	276,(3, 19),32	340,(5, 35),244	
# Outgoing
1,(0, 1),4	5,(0, 8),4	9,(0, 9),4	13,(0, 5),4	17,(0, 10),4	21,(0, 6),4	25,(0, 2),4	29,(7, 90),4	33,(3, 112),4	40,(0, 11),4	44,(7, 61),4	48,(7, 82),4	52,(0, 4),4	56,(12, 40),4	60,(7, 50),4	64,(12, 89),4	68,(3, 99),4	72,(3, 95),12	84,(7, 119),12	96,(7, 60),16	112,(3, 46),24	136,(3, 100),8	144,(3, 105),28	172,(3, 77),4	176,(7, 116),4	180,(29, 121),4	188,(3, 88),24	212,(12, 45),16	228,(32, 121),4	232,(3, 22),4	236,(12, 27),40	276,(3, 19),32	308,(7, 21),8	316,(12, 21),36	352,(3, 13),4	364,(12, 30),28	392,(7, 13),52	444,(3, 108),96	540,(3, 66),48	588,(17, 121),4	592,(42, 121),4	596,(102, 121),4	600,(54, 121),4	604,(70, 121),4	608,(68, 121),4	612,(94, 121),4	616,(64, 121),4	620,(81, 121),4	624,(33, 121),4	628,(56, 121),4	632,(41, 121),4	636,(69, 121),4	640,(93, 121),4	644,(91, 121),4	648,(52, 121),4	652,(48, 121),4	656,(47, 121),4	660,(85, 121),4	708,(101, 121),4	712,(18, 121),4	720,(72, 121),4	728,(78, 121),4	985,(55, 121),4	
63,(4, 63),4	67,(4, 92),4	71,(4, 56),4	75,(9, 41),4	79,(9, 62),4	96,(4, 115),16	123,(9, 80),4	136,(9, 77),24	160,(4, 75),24	184,(9, 116),44	228,(4, 45),24	252,(9, 19),20	276,(9, 66),28	304,(26, 121),4	308,(44, 121),4	312,(57, 121),4	392,(14, 121),4	396,(113, 121),4	400,(39, 121),4	404,(83, 121),4	408,(120, 121),4	412,(84, 121),4	416,(34, 121),4	420,(98, 121),4	424,(65, 121),4	428,(74, 121),4	432,(89, 121),4	436,(103, 121),4	440,(99, 121),4	444,(20, 121),4	448,(100, 121),4	452,(53, 121),4	456,(88, 121),4	460,(22, 121),4	528,(24, 121),4	536,(106, 121),4	540,(13, 121),4	545,(108, 121),4	736,(38, 121),4	
10,(1, 59),4	14,(1, 33),4	21,(1, 109),8	29,(1, 24),4	35,(2, 69),4	39,(1, 52),8	48,(2, 23),12	91,(2, 99),8	107,(2, 48),12	119,(2, 20),12	131,(2, 47),36	167,(2, 66),4	176,(2, 97),36	212,(1, 27),24	236,(2, 22),28	264,(2, 24),40	304,(1, 72),32	336,(2, 78),76	412,(1, 55),12	424,(2, 55),24	540,(1, 38),12	
32,(6, 71),4	36,(6, 118),4	40,(6, 120),4	44,(5, 25),4	48,(5, 16),4	52,(6, 93),4	56,(6, 78),4	67,(6, 111),12	79,(6, 103),12	99,(5, 104),24	123,(5, 76),24	164,(6, 53),24	188,(5, 75),24	212,(5, 101),24	236,(6, 18),32	268,(6, 72),20	288,(49, 121),4	292,(37, 121),4	296,(107, 121),4	316,(5, 106),24	340,(5, 35),244	584,(51, 121),4	608,(6, 38),56	664,(117, 121),4	668,(112, 121),4	672,(82, 121),4	676,(43, 121),4	680,(40, 121),4	684,(95, 121),4	688,(119, 121),4	692,(115, 121),4	696,(46, 121),4	700,(77, 121),4	704,(97, 121),4	716,(27, 121),4	724,(21, 121),4	732,(66, 121),4	
56,(11, 16),4	60,(11, 43),4	64,(11, 40),8	72,(8, 74),4	79,(11, 91),4	83,(11, 62),16	99,(8, 52),8	107,(10, 20),8	127,(11, 80),16	144,(11, 100),20	167,(10, 85),44	212,(10, 88),20	232,(11, 15),52	284,(10, 30),4	288,(11, 55),12	300,(36, 121),4	304,(8, 106),12	316,(8, 30),48	364,(10, 66),100	464,(87, 121),4	468,(71, 121),4	472,(118, 121),4	476,(59, 121),4	480,(31, 121),4	484,(86, 121),4	488,(96, 121),4	492,(92, 121),4	496,(50, 121),4	500,(25, 121),4	504,(109, 121),4	508,(23, 121),4	512,(60, 121),4	516,(76, 121),4	520,(75, 121),4	524,(45, 121),4	532,(19, 121),4	552,(8, 38),56	608,(10, 55),372	980,(35, 121),4	
