590
# CPU
0,121,1	1,55,2	3,119,2	5,90,2	7,75,2	9,64,2	11,57,2	13,53,2	15,18,2	17,21,2	19,25,2	21,120,2	23,67,2	25,50,2	27,24,2	29,42,2	31,74,2	33,66,2	35,15,2	37,44,2	39,31,2	41,81,2	43,80,2	45,52,2	47,72,2	49,111,2	51,97,2	53,36,2	55,45,2	57,92,2	59,56,2	61,51,2	63,39,2	65,106,2	67,61,2	69,29,2	71,115,2	73,35,2	75,105,2	77,89,2	79,49,2	81,98,2	83,73,2	85,116,2	87,32,2	89,59,2	91,68,2	93,37,2	95,28,2	97,19,2	99,96,2	101,40,2	103,91,2	105,109,2	107,27,2	109,103,2	111,94,2	113,78,2	115,99,2	117,93,2	119,30,2	121,69,2	123,104,2	125,20,2	127,47,2	129,54,2	131,46,2	133,114,2	135,108,2	137,63,2	139,118,2	141,113,2	143,13,2	145,43,2	147,17,2	149,16,2	151,82,2	153,41,2	155,79,2	157,76,2	159,88,2	161,23,2	163,102,2	165,77,2	167,58,2	169,117,2	171,83,2	173,112,2	175,10,2	177,71,2	179,14,2	181,60,2	183,85,2	185,26,2	187,100,2	189,107,2	191,62,2	193,38,2	195,86,2	197,48,2	199,33,2	201,101,2	203,22,2	205,2,2	207,8,2	209,5,2	211,70,2	213,87,2	215,3,2	217,9,2	219,11,2	221,1,2	223,6,2	303,4,2	415,7,2	587,12,2	589,0,1	
73,84,2	109,65,2	145,95,2	181,34,2	
37,110,2	
# Incoming
75,(84, 9),4	79,(110, 1),4	83,(84, 1),28	111,(110, 4),12	123,(84, 7),4	147,(95, 11),16	163,(95, 1),4	167,(65, 6),48	215,(95, 4),88	303,(34, 7),112	415,(34, 12),172	
37,(121, 84),36	73,(121, 65),36	109,(121, 95),36	145,(121, 34),36	
1,(121, 110),36	
# Outgoing
1,(121, 110),36	37,(121, 84),36	73,(121, 65),36	109,(121, 95),36	145,(121, 34),36	
75,(84, 9),4	83,(84, 1),28	123,(84, 7),4	147,(95, 11),16	163,(95, 1),4	167,(65, 6),48	215,(95, 4),88	303,(34, 7),112	415,(34, 12),172	
79,(110, 1),4	111,(110, 4),12	
