6495
# CPU
0,0,1	1,11,14	15,2,14	29,3,14	43,15,14	57,5,14	71,19,14	85,17,14	99,16,14	113,12,14	127,1,14	2159,46,14	3235,138,14	3344,23,14	3358,24,14	3628,137,14	3806,143,14	3826,149,14	3910,196,14	4038,87,14	4057,93,14	4071,98,14	4106,111,14	4120,119,14	4134,125,14	4148,139,14	4162,154,14	4176,163,14	4190,176,14	4204,177,14	4218,183,14	4232,187,14	4246,29,14	4262,36,14	4276,42,14	4290,48,14	4350,52,14	4382,80,14	4396,81,14	4410,82,14	4424,114,14	4438,115,14	4452,127,14	4466,132,14	4480,136,14	4494,141,14	4521,147,14	4547,156,14	4561,157,14	4575,158,14	4589,160,14	4603,167,14	4617,172,14	4631,175,14	4645,178,14	4659,182,14	4673,189,14	4687,193,14	4701,194,14	4715,197,14	4729,198,14	4743,199,14	4757,27,14	4771,30,14	4785,34,14	4799,38,14	4813,39,14	4827,44,14	4841,50,14	4855,53,14	4869,55,14	4883,58,14	4897,62,14	4911,69,14	4925,72,14	4939,74,14	4953,75,14	4967,77,14	4981,79,14	4995,83,14	5009,84,14	5023,89,14	5037,95,14	5051,100,14	5065,110,14	5079,121,14	5093,122,14	5107,126,14	5121,129,14	5135,133,14	5149,144,14	5163,151,14	5177,152,14	5191,159,14	5205,162,14	5219,164,14	5233,166,14	5247,168,14	5261,169,14	5275,174,14	5289,180,14	6494,201,1	
19,4,14	37,6,14	55,7,14	73,8,14	91,9,14	109,10,14	127,13,14	145,14,14	163,18,14	181,20,14	1633,51,14	1709,85,14	1987,33,14	2130,96,14	2245,135,14	2274,173,14	2388,21,14	2413,57,14	2430,70,14	2496,117,14	2539,161,14	2631,22,14	2645,40,14	2686,56,14	2700,61,14	2714,64,14	2752,97,14	2766,106,14	2780,108,14	2844,146,14	2918,181,14	2969,26,14	2983,28,14	2997,32,14	3011,41,14	3057,63,14	3071,65,14	3131,78,14	3145,86,14	3159,88,14	3185,91,14	3199,94,14	3213,101,14	3227,103,14	3241,120,14	3255,128,14	3269,130,14	3283,140,14	3297,165,14	3311,170,14	3325,171,14	3339,25,14	3353,31,14	3367,35,14	3381,37,14	3395,43,14	3409,45,14	3423,47,14	3437,49,14	3451,54,14	3465,59,14	3479,60,14	3493,66,14	3507,67,14	3521,68,14	3535,71,14	3549,73,14	3563,76,14	3577,90,14	3591,92,14	3605,99,14	3619,102,14	3633,104,14	3647,105,14	3661,107,14	3675,109,14	3689,112,14	3703,113,14	3717,116,14	3731,118,14	3745,123,14	3759,124,14	3773,131,14	3787,134,14	3801,142,14	3815,145,14	3829,148,14	3843,150,14	3857,153,14	3871,155,14	3885,179,14	3899,184,14	3913,185,14	3927,186,14	3941,188,14	3955,190,14	3969,191,14	3983,192,14	3997,195,14	4011,200,14	
# Incoming
33,(4, 24),6	39,(4, 27),10	49,(4, 29),11	60,(4, 36),10	70,(4, 38),18	88,(4, 46),24	112,(4, 50),6	118,(4, 52),24	142,(4, 53),16	158,(4, 55),2	160,(4, 58),6	166,(4, 62),1	167,(4, 69),1	168,(4, 72),35	203,(4, 74),166	369,(4, 77),12	381,(4, 80),12	393,(4, 82),3	396,(4, 83),11	407,(4, 89),7	414,(4, 110),1	415,(4, 114),1	416,(4, 115),6	422,(4, 119),3	425,(4, 122),8	433,(4, 126),7	440,(4, 127),5	445,(4, 129),1	446,(4, 132),2	448,(4, 133),1	449,(4, 136),17	466,(4, 143),1	467,(4, 147),1	468,(4, 149),1	469,(4, 151),1	470,(4, 156),3	473,(4, 159),10	483,(4, 164),11	494,(4, 166),6	500,(4, 168),9	509,(4, 172),1	510,(4, 174),1	511,(4, 175),18	529,(4, 176),1	530,(4, 180),19	549,(4, 187),2	551,(4, 189),1	552,(4, 193),3	555,(4, 194),4	559,(4, 196),2	561,(4, 199),34	595,(6, 23),2	597,(6, 29),6	603,(6, 38),1	604,(6, 42),10	614,(6, 44),6	620,(6, 50),6	626,(6, 53),1	627,(6, 55),1	628,(6, 74),5	633,(6, 77),8	641,(6, 81),4	645,(6, 84),2	647,(6, 87),1	648,(6, 95),1	649,(6, 100),17	666,(6, 110),1	667,(6, 115),9	676,(6, 119),25	701,(6, 125),19	720,(6, 126),1	721,(6, 129),1	722,(6, 137),1	723,(6, 139),1	724,(6, 141),10	734,(6, 149),23	757,(6, 152),11	768,(6, 157),6	774,(6, 162),1	775,(6, 163),5	780,(6, 164),4	784,(6, 166),1	785,(6, 177),2	787,(6, 180),27	814,(6, 182),2	816,(6, 187),1	817,(6, 196),3	820,(6, 197),3	823,(6, 198),1	824,(7, 23),2	826,(7, 24),21	847,(7, 27),5	852,(7, 52),30	882,(7, 72),1	883,(7, 74),1	884,(7, 75),1	885,(7, 77),8	893,(7, 81),12	905,(7, 82),1	906,(7, 110),3	909,(7, 114),14	923,(7, 119),4	927,(7, 121),1	928,(7, 122),5	933,(7, 132),1	934,(7, 133),30	964,(7, 136),1	965,(7, 138),6	971,(7, 147),1	972,(7, 151),1	973,(7, 152),2	975,(7, 156),1	976,(7, 157),10	986,(7, 158),1	987,(7, 162),1	988,(7, 164),4	992,(7, 166),10	1002,(7, 168),1	1003,(7, 177),2	1005,(7, 183),39	1044,(7, 189),1	1045,(7, 193),23	1068,(7, 194),1	1069,(7, 196),4	1073,(7, 198),6	1079,(8, 24),3	1082,(8, 27),3	1085,(8, 29),1	1086,(8, 34),1	1087,(8, 38),4	1091,(8, 46),15	1106,(8, 50),1	1107,(8, 58),7	1114,(8, 69),5	1119,(8, 74),188	1307,(8, 75),1	1308,(8, 77),1	1309,(8, 80),2	1311,(8, 89),13	1324,(8, 93),1	1325,(8, 98),6	1331,(8, 119),34	1365,(8, 121),20	1385,(8, 126),4	1389,(8, 127),9	1398,(8, 132),7	1405,(8, 137),4	1409,(8, 141),313	1722,(8, 143),6	1728,(8, 151),51	1779,(8, 156),1	1780,(8, 157),4	1784,(8, 158),25	1809,(8, 160),1	1810,(8, 162),25	1835,(8, 163),1	1836,(8, 167),199	2035,(8, 168),6	2041,(8, 172),18	2059,(8, 174),4	2063,(8, 175),1	2064,(8, 176),1	2065,(8, 177),1	2066,(8, 182),6	2072,(8, 193),2	2074,(8, 194),1	2075,(8, 199),1	2076,(9, 23),19	2095,(9, 24),28	2123,(9, 34),5	2128,(9, 36),22	2150,(9, 38),1	2151,(9, 39),4	2155,(9, 46),4	2159,(9, 48),1	2160,(9, 50),2	2162,(9, 53),5	2167,(9, 58),1	2168,(9, 69),3	2171,(9, 72),2	2173,(9, 74),3	2176,(9, 75),12	2188,(9, 77),2	2190,(9, 81),13	2203,(9, 83),1	2204,(9, 87),3	2207,(9, 89),1	2208,(9, 95),184	2392,(9, 100),1	2393,(9, 110),2	2395,(9, 111),9	2404,(9, 114),8	2412,(9, 122),2	2414,(9, 125),18	2432,(9, 127),4	2436,(9, 129),8	2444,(9, 132),8	2452,(9, 133),5	2457,(9, 139),1	2458,(9, 147),2	2460,(9, 152),1	2461,(9, 154),4	2465,(9, 158),17	2482,(9, 159),1	2483,(9, 160),1	2484,(9, 174),1	2485,(9, 175),6	2491,(9, 176),1	2492,(9, 177),1	2493,(9, 178),9	2502,(9, 180),1	2503,(9, 187),15	2518,(9, 189),4	2522,(9, 193),7	2529,(9, 197),8	2537,(9, 199),5	2542,(10, 24),33	2575,(10, 27),1	2576,(10, 30),16	2592,(10, 36),1	2593,(10, 38),7	2600,(10, 42),17	2617,(10, 48),1	2618,(10, 50),5	2623,(10, 52),5	2628,(10, 58),2	2630,(10, 62),513	3143,(10, 69),8	3151,(10, 72),1	3152,(10, 75),4	3156,(10, 77),8	3164,(10, 82),11	3175,(10, 95),3	3178,(10, 110),30	3208,(10, 111),7	3215,(10, 115),4	3219,(10, 121),2	3221,(10, 125),1	3222,(10, 133),12	3234,(10, 138),1	3235,(10, 141),7	3242,(10, 143),1	3243,(10, 149),5	3248,(10, 151),2	3250,(10, 154),10	3260,(10, 156),3	3263,(10, 158),10	3273,(10, 163),1	3274,(10, 166),7	3281,(10, 167),4	3285,(10, 174),1	3286,(10, 175),14	3300,(10, 176),1	3301,(10, 178),2	3303,(10, 183),2	3305,(10, 187),5	3310,(10, 189),1	3311,(10, 194),16	3327,(13, 23),17	3344,(13, 24),5	3349,(13, 27),10	3359,(13, 36),12	3371,(13, 39),3	3374,(13, 44),5	3379,(13, 50),24	3403,(13, 53),15	3418,(13, 55),1	3419,(13, 58),1	3420,(13, 62),17	3437,(13, 69),34	3471,(13, 72),25	3496,(13, 75),4	3500,(13, 77),4	3504,(13, 80),10	3514,(13, 81),1	3515,(13, 83),1	3516,(13, 84),2	3518,(13, 110),9	3527,(13, 114),39	3566,(13, 115),1	3567,(13, 125),5	3572,(13, 126),4	3576,(13, 127),2	3578,(13, 133),8	3586,(13, 136),1	3587,(13, 137),41	3628,(13, 141),175	3803,(13, 143),3	3806,(13, 144),5	3811,(13, 149),15	3826,(13, 151),3	3829,(13, 156),4	3833,(13, 157),18	3851,(13, 159),1	3852,(13, 162),7	3859,(13, 164),9	3868,(13, 166),1	3869,(13, 167),1	3870,(13, 168),5	3875,(13, 169),2	3877,(13, 172),1	3878,(13, 174),4	3882,(13, 175),1	3883,(13, 177),6	3889,(13, 178),4	3893,(13, 182),10	3903,(13, 187),3	3906,(13, 193),3	3909,(13, 196),1	3910,(13, 198),47	3957,(14, 27),5	3962,(14, 38),3	3965,(14, 39),1	3966,(14, 42),2	3968,(14, 44),4	3972,(14, 48),2	3974,(14, 50),2	3976,(14, 72),25	4001,(14, 75),1	4002,(14, 77),25	4027,(14, 79),1	4028,(14, 84),1	4029,(14, 87),9	4038,(14, 89),1	4039,(14, 93),18	4057,(14, 95),2	4059,(14, 98),1	4060,(14, 110),42	4102,(14, 111),4	4106,(14, 115),1	4107,(14, 119),3	4110,(14, 125),5	4115,(14, 126),2	4117,(14, 133),1	4118,(14, 139),2	4120,(14, 141),2	4122,(14, 147),3	4125,(14, 151),4	4129,(14, 154),1	4130,(14, 156),1	4131,(14, 159),8	4139,(14, 160),3	4142,(14, 163),2	4144,(14, 164),4	4148,(14, 168),1	4149,(14, 169),7	4156,(14, 174),1	4157,(14, 175),17	4174,(14, 176),5	4179,(14, 177),4	4183,(14, 178),3	4186,(14, 183),1	4187,(14, 187),7	4194,(14, 193),1	4195,(14, 197),4	4199,(14, 198),5	4204,(14, 199),1	4205,(18, 29),3	4208,(18, 36),54	4262,(18, 38),2	4264,(18, 42),9	4273,(18, 44),3	4276,(18, 48),1	4277,(18, 52),73	4350,(18, 55),1	4351,(18, 58),22	4373,(18, 69),2	4375,(18, 77),2	4377,(18, 79),3	4380,(18, 80),2	4382,(18, 81),5	4387,(18, 82),4	4391,(18, 83),1	4392,(18, 89),4	4396,(18, 110),3	4399,(18, 114),1	4400,(18, 115),1	4401,(18, 121),2	4403,(18, 122),1	4404,(18, 126),1	4405,(18, 127),1	4406,(18, 132),1	4407,(18, 136),1	4408,(18, 141),5	4413,(18, 144),1	4414,(18, 147),107	4521,(18, 151),3	4524,(18, 156),23	4547,(18, 157),2	4549,(18, 158),1	4550,(18, 159),10	4560,(18, 160),1	4561,(18, 166),4	4565,(18, 167),11	4576,(18, 168),13	4589,(18, 172),1	4590,(18, 175),2	4592,(18, 178),3	4595,(18, 182),18	4613,(18, 189),3	4616,(18, 193),10	4626,(18, 194),17	4643,(18, 197),1	4644,(18, 198),49	4693,(18, 199),4	4697,(20, 27),2	4699,(20, 30),1	4700,(20, 34),1	4701,(20, 38),17	4718,(20, 39),1	4719,(20, 44),1	4720,(20, 50),1	4721,(20, 53),1	4722,(20, 55),1	4723,(20, 58),2	4725,(20, 62),29	4754,(20, 69),2	4756,(20, 72),5	4761,(20, 74),21	4782,(20, 75),3	4785,(20, 77),1	4786,(20, 79),2	4788,(20, 83),1	4789,(20, 84),1	4790,(20, 89),8	4798,(20, 95),33	4831,(20, 100),4	4835,(20, 110),16	4851,(20, 121),21	4872,(20, 122),15	4887,(20, 126),8	4895,(20, 129),2	4897,(20, 133),8	4905,(20, 144),1	4906,(20, 151),25	4931,(20, 152),5	4936,(20, 159),2	4938,(20, 162),2	4940,(20, 164),1	4941,(20, 166),1	4942,(20, 168),12	4954,(20, 169),4	4958,(20, 174),4	4962,(20, 180),2	4964,(51, 201),17	4981,(85, 201),17	4998,(33, 201),17	5015,(96, 201),17	5032,(135, 201),17	5049,(173, 201),17	5066,(21, 201),17	5083,(57, 201),17	5100,(70, 201),17	5117,(117, 201),17	5134,(161, 201),17	5151,(22, 201),17	5168,(40, 201),17	5185,(56, 201),17	5202,(61, 201),17	5219,(64, 201),17	5236,(97, 201),17	5253,(106, 201),17	5270,(108, 201),17	5287,(146, 201),17	5304,(181, 201),17	5321,(26, 201),17	5338,(28, 201),17	5355,(32, 201),17	5372,(41, 201),17	5389,(63, 201),17	5406,(65, 201),17	5423,(78, 201),17	5440,(86, 201),17	5457,(88, 201),17	5474,(91, 201),17	5491,(94, 201),17	5508,(101, 201),17	5525,(103, 201),17	5542,(120, 201),17	5559,(128, 201),17	5576,(130, 201),17	5593,(140, 201),17	5610,(165, 201),17	5627,(170, 201),17	5644,(171, 201),17	5661,(25, 201),17	5678,(31, 201),17	5695,(35, 201),17	5712,(37, 201),17	5729,(43, 201),17	5746,(45, 201),17	5763,(47, 201),17	5780,(49, 201),17	5797,(54, 201),17	5814,(59, 201),17	5831,(60, 201),17	5848,(66, 201),17	5865,(67, 201),17	5882,(68, 201),17	5899,(71, 201),17	5916,(73, 201),17	5933,(76, 201),17	5950,(90, 201),17	5967,(92, 201),17	5984,(99, 201),17	6001,(102, 201),17	6018,(104, 201),17	6035,(105, 201),17	6052,(107, 201),17	6069,(109, 201),17	6086,(112, 201),17	6103,(113, 201),17	6120,(116, 201),17	6137,(118, 201),17	6154,(123, 201),17	6171,(124, 201),17	6188,(131, 201),17	6205,(134, 201),17	6222,(142, 201),17	6239,(145, 201),17	6256,(148, 201),17	6273,(150, 201),17	6290,(153, 201),17	6307,(155, 201),17	6324,(179, 201),17	6341,(184, 201),17	6358,(185, 201),17	6375,(186, 201),17	6392,(188, 201),17	6409,(190, 201),17	6426,(191, 201),17	6443,(192, 201),17	6460,(195, 201),17	6477,(200, 201),17	
1,(0, 4),18	19,(0, 6),18	37,(0, 7),18	55,(0, 8),18	73,(0, 9),18	91,(0, 10),18	109,(0, 13),18	127,(0, 14),18	145,(0, 18),18	163,(0, 20),18	181,(11, 25),17	198,(11, 28),1	199,(11, 31),6	205,(11, 33),6	211,(11, 37),1	212,(11, 40),1	213,(11, 43),2	215,(11, 45),1	216,(11, 47),3	219,(11, 51),1	220,(11, 54),3	223,(11, 57),5	228,(11, 65),6	234,(11, 66),1	235,(11, 68),16	251,(11, 73),18	269,(11, 78),2	271,(11, 85),15	286,(11, 97),66	352,(11, 99),1	353,(11, 101),52	405,(11, 103),9	414,(11, 105),5	419,(11, 109),6	425,(11, 117),7	432,(11, 123),1	433,(11, 124),14	447,(11, 130),24	471,(11, 145),3	474,(11, 148),86	560,(11, 155),2	562,(11, 165),12	574,(11, 173),1	575,(11, 179),9	584,(11, 181),10	594,(11, 184),12	606,(11, 185),8	614,(11, 186),2	616,(11, 192),6	622,(11, 195),1	623,(11, 200),35	658,(2, 21),5	663,(2, 22),24	687,(2, 25),3	690,(2, 26),1	691,(2, 31),10	701,(2, 32),12	713,(2, 33),5	718,(2, 40),10	728,(2, 41),6	734,(2, 43),1	735,(2, 45),1	736,(2, 56),1	737,(2, 57),2	739,(2, 60),7	746,(2, 61),2	748,(2, 63),9	757,(2, 65),1	758,(2, 67),2	760,(2, 68),1	761,(2, 85),1	762,(2, 90),5	767,(2, 94),5	772,(2, 96),2	774,(2, 102),5	779,(2, 103),1	780,(2, 105),1	781,(2, 106),2	783,(2, 109),1	784,(2, 116),1	785,(2, 124),11	796,(2, 128),1	797,(2, 131),9	806,(2, 135),3	809,(2, 142),6	815,(2, 145),13	828,(2, 148),2	830,(2, 150),64	894,(2, 155),1	895,(2, 170),15	910,(2, 171),1	911,(2, 181),3	914,(2, 185),4	918,(2, 186),3	921,(2, 190),11	932,(2, 191),10	942,(2, 195),1	943,(3, 21),20	963,(3, 22),9	972,(3, 25),7	979,(3, 26),3	982,(3, 28),4	986,(3, 33),3	989,(3, 41),1	990,(3, 45),1	991,(3, 47),57	1048,(3, 49),1	1049,(3, 51),5	1054,(3, 54),11	1065,(3, 56),1	1066,(3, 57),18	1084,(3, 59),1	1085,(3, 60),19	1104,(3, 61),7	1111,(3, 63),1	1112,(3, 64),1	1113,(3, 66),1	1114,(3, 68),12	1126,(3, 70),13	1139,(3, 76),1	1140,(3, 78),6	1146,(3, 86),18	1164,(3, 97),2	1166,(3, 101),4	1170,(3, 102),1	1171,(3, 103),1	1172,(3, 106),2	1174,(3, 113),1	1175,(3, 118),1	1176,(3, 120),1	1177,(3, 130),1	1178,(3, 131),5	1183,(3, 145),1	1184,(3, 150),1	1185,(3, 153),5	1190,(3, 161),3	1193,(3, 170),1	1194,(3, 181),3	1197,(3, 188),8	1205,(3, 195),4	1209,(3, 200),1	1210,(15, 21),1	1211,(15, 22),47	1258,(15, 25),10	1268,(15, 28),1	1269,(15, 33),1	1270,(15, 37),1	1271,(15, 41),5	1276,(15, 43),4	1280,(15, 45),6	1286,(15, 51),3	1289,(15, 54),18	1307,(15, 59),5	1312,(15, 61),1	1313,(15, 63),9	1322,(15, 67),6	1328,(15, 68),11	1339,(15, 70),1	1340,(15, 73),1	1341,(15, 76),10	1351,(15, 85),1	1352,(15, 91),17	1369,(15, 92),5	1374,(15, 94),1	1375,(15, 96),7	1382,(15, 104),20	1402,(15, 106),1	1403,(15, 108),13	1416,(15, 113),1	1417,(15, 120),10	1427,(15, 131),2	1429,(15, 140),1	1430,(15, 142),1	1431,(15, 145),3	1434,(15, 153),34	1468,(15, 155),13	1481,(15, 165),2	1483,(15, 170),4	1487,(15, 181),1	1488,(15, 188),2	1490,(15, 192),25	1515,(15, 195),32	1547,(5, 21),1	1548,(5, 25),1	1549,(5, 26),1	1550,(5, 28),46	1596,(5, 31),1	1597,(5, 32),8	1605,(5, 33),1	1606,(5, 40),19	1625,(5, 45),5	1630,(5, 51),3	1633,(5, 54),8	1641,(5, 56),11	1652,(5, 57),2	1654,(5, 59),7	1661,(5, 63),5	1666,(5, 64),12	1678,(5, 68),2	1680,(5, 70),10	1690,(5, 71),5	1695,(5, 76),3	1698,(5, 85),11	1709,(5, 88),1	1710,(5, 91),11	1721,(5, 94),2	1723,(5, 99),1	1724,(5, 102),3	1727,(5, 103),1	1728,(5, 104),5	1733,(5, 106),6	1739,(5, 107),4	1743,(5, 113),14	1757,(5, 117),1	1758,(5, 118),37	1795,(5, 123),10	1805,(5, 134),20	1825,(5, 140),4	1829,(5, 145),6	1835,(5, 148),4	1839,(5, 150),31	1870,(5, 153),10	1880,(5, 155),3	1883,(5, 165),1	1884,(5, 171),1	1885,(5, 181),2	1887,(5, 185),8	1895,(5, 186),2	1897,(5, 191),4	1901,(5, 192),7	1908,(5, 195),42	1950,(19, 25),3	1953,(19, 26),4	1957,(19, 28),22	1979,(19, 31),7	1986,(19, 33),1	1987,(19, 37),1	1988,(19, 40),2	1990,(19, 41),32	2022,(19, 56),22	2044,(19, 60),3	2047,(19, 68),1	2048,(19, 70),44	2092,(19, 88),1	2093,(19, 90),11	2104,(19, 92),5	2109,(19, 94),15	2124,(19, 96),6	2130,(19, 99),4	2134,(19, 102),46	2180,(19, 105),41	2221,(19, 109),1	2222,(19, 124),5	2227,(19, 131),14	2241,(19, 134),1	2242,(19, 135),3	2245,(19, 148),1	2246,(19, 153),1	2247,(19, 155),1	2248,(19, 161),10	2258,(19, 171),5	2263,(19, 173),11	2274,(19, 181),22	2296,(19, 185),14	2310,(19, 186),21	2331,(19, 188),7	2338,(19, 190),2	2340,(19, 191),5	2345,(19, 192),42	2387,(17, 21),1	2388,(17, 26),8	2396,(17, 31),1	2397,(17, 37),1	2398,(17, 40),1	2399,(17, 45),10	2409,(17, 47),2	2411,(17, 57),2	2413,(17, 59),1	2414,(17, 61),10	2424,(17, 65),1	2425,(17, 67),2	2427,(17, 70),3	2430,(17, 86),2	2432,(17, 94),2	2434,(17, 97),14	2448,(17, 105),6	2454,(17, 106),19	2473,(17, 113),9	2482,(17, 117),14	2496,(17, 118),2	2498,(17, 120),9	2507,(17, 124),9	2516,(17, 128),1	2517,(17, 134),6	2523,(17, 146),14	2537,(17, 153),1	2538,(17, 161),1	2539,(17, 170),21	2560,(17, 171),13	2573,(17, 184),1	2574,(17, 186),1	2575,(17, 188),1	2576,(17, 200),36	2612,(16, 22),19	2631,(16, 28),1	2632,(16, 31),3	2635,(16, 37),1	2636,(16, 40),8	2644,(16, 41),5	2649,(16, 45),2	2651,(16, 49),1	2652,(16, 56),34	2686,(16, 61),3	2689,(16, 63),1	2690,(16, 64),16	2706,(16, 65),1	2707,(16, 67),25	2732,(16, 68),1	2733,(16, 71),16	2749,(16, 92),1	2750,(16, 97),2	2752,(16, 99),1	2753,(16, 101),9	2762,(16, 106),3	2765,(16, 107),8	2773,(16, 108),3	2776,(16, 109),3	2779,(16, 112),3	2782,(16, 113),3	2785,(16, 116),3	2788,(16, 118),1	2789,(16, 123),13	2802,(16, 130),1	2803,(16, 142),10	2813,(16, 145),13	2826,(16, 146),18	2844,(16, 150),5	2849,(16, 155),5	2854,(16, 165),24	2878,(16, 170),8	2886,(16, 179),31	2917,(16, 181),1	2918,(16, 184),1	2919,(16, 186),2	2921,(16, 190),29	2950,(16, 191),2	2952,(16, 200),1	2953,(12, 25),7	2960,(12, 26),9	2969,(12, 28),1	2970,(12, 31),4	2974,(12, 32),9	2983,(12, 35),4	2987,(12, 41),2	2989,(12, 43),5	2994,(12, 45),10	3004,(12, 47),4	3008,(12, 59),31	3039,(12, 60),5	3044,(12, 63),13	3057,(12, 65),5	3062,(12, 66),2	3064,(12, 67),28	3092,(12, 68),18	3110,(12, 71),10	3120,(12, 73),2	3122,(12, 78),9	3131,(12, 86),8	3139,(12, 88),13	3152,(12, 90),4	3156,(12, 91),29	3185,(12, 94),1	3186,(12, 99),1	3187,(12, 101),7	3194,(12, 102),1	3195,(12, 103),1	3196,(12, 104),16	3212,(12, 120),4	3216,(12, 123),1	3217,(12, 128),1	3218,(12, 130),1	3219,(12, 134),4	3223,(12, 140),2	3225,(12, 142),14	3239,(12, 145),4	3243,(12, 165),7	3250,(12, 170),2	3252,(12, 171),1	3253,(12, 184),17	3270,(12, 186),1	3271,(12, 190),5	3276,(12, 191),2	3278,(12, 192),6	3284,(12, 200),1	3285,(1, 25),1	3286,(1, 31),7	3293,(1, 35),2	3295,(1, 37),1	3296,(1, 43),2	3298,(1, 45),12	3310,(1, 47),13	3323,(1, 49),3	3326,(1, 54),24	3350,(1, 59),1	3351,(1, 60),12	3363,(1, 66),1	3364,(1, 67),24	3388,(1, 68),7	3395,(1, 71),6	3401,(1, 73),1	3402,(1, 76),10	3412,(1, 90),1	3413,(1, 92),3	3416,(1, 99),10	3426,(1, 102),3	3429,(1, 104),1	3430,(1, 105),9	3439,(1, 107),29	3468,(1, 109),1	3469,(1, 112),4	3473,(1, 113),3	3476,(1, 116),13	3489,(1, 118),3	3492,(1, 123),6	3498,(1, 124),5	3503,(1, 131),1	3504,(1, 134),3	3507,(1, 142),6	3513,(1, 145),6	3519,(1, 148),1	3520,(1, 150),5	3525,(1, 153),1	3526,(1, 155),18	3544,(1, 179),2	3546,(1, 184),2	3548,(1, 185),2	3550,(1, 186),9	3559,(1, 188),3	3562,(1, 190),3	3565,(1, 191),10	3575,(1, 192),1	3576,(1, 195),1	3577,(1, 200),14	
# Outgoing
1,(0, 4),18	19,(0, 6),18	37,(0, 7),18	55,(0, 8),18	73,(0, 9),18	91,(0, 10),18	109,(0, 13),18	127,(0, 14),18	145,(0, 18),18	163,(0, 20),18	181,(11, 25),17	198,(11, 28),1	199,(11, 31),6	205,(11, 33),6	211,(11, 37),1	212,(11, 40),1	213,(11, 43),2	215,(11, 45),1	216,(11, 47),3	219,(11, 51),1	220,(11, 54),3	223,(11, 57),5	228,(11, 65),6	234,(11, 66),1	235,(11, 68),16	251,(11, 73),18	269,(11, 78),2	271,(11, 85),15	286,(11, 97),66	352,(11, 99),1	353,(11, 101),52	405,(11, 103),9	414,(11, 105),5	419,(11, 109),6	425,(11, 117),7	432,(11, 123),1	433,(11, 124),14	447,(11, 130),24	471,(11, 145),3	474,(11, 148),86	560,(11, 155),2	562,(11, 165),12	574,(11, 173),1	575,(11, 179),9	584,(11, 181),10	594,(11, 184),12	606,(11, 185),8	614,(11, 186),2	616,(11, 192),6	622,(11, 195),1	623,(11, 200),35	658,(2, 21),5	663,(2, 22),24	687,(2, 25),3	690,(2, 26),1	691,(2, 31),10	701,(2, 32),12	713,(2, 33),5	718,(2, 40),10	728,(2, 41),6	734,(2, 43),1	735,(2, 45),1	736,(2, 56),1	737,(2, 57),2	739,(2, 60),7	746,(2, 61),2	748,(2, 63),9	757,(2, 65),1	758,(2, 67),2	760,(2, 68),1	761,(2, 85),1	762,(2, 90),5	767,(2, 94),5	772,(2, 96),2	774,(2, 102),5	779,(2, 103),1	780,(2, 105),1	781,(2, 106),2	783,(2, 109),1	784,(2, 116),1	785,(2, 124),11	796,(2, 128),1	797,(2, 131),9	806,(2, 135),3	809,(2, 142),6	815,(2, 145),13	828,(2, 148),2	830,(2, 150),64	894,(2, 155),1	895,(2, 170),15	910,(2, 171),1	911,(2, 181),3	914,(2, 185),4	918,(2, 186),3	921,(2, 190),11	932,(2, 191),10	942,(2, 195),1	943,(3, 21),20	963,(3, 22),9	972,(3, 25),7	979,(3, 26),3	982,(3, 28),4	986,(3, 33),3	989,(3, 41),1	990,(3, 45),1	991,(3, 47),57	1048,(3, 49),1	1049,(3, 51),5	1054,(3, 54),11	1065,(3, 56),1	1066,(3, 57),18	1084,(3, 59),1	1085,(3, 60),19	1104,(3, 61),7	1111,(3, 63),1	1112,(3, 64),1	1113,(3, 66),1	1114,(3, 68),12	1126,(3, 70),13	1139,(3, 76),1	1140,(3, 78),6	1146,(3, 86),18	1164,(3, 97),2	1166,(3, 101),4	1170,(3, 102),1	1171,(3, 103),1	1172,(3, 106),2	1174,(3, 113),1	1175,(3, 118),1	1176,(3, 120),1	1177,(3, 130),1	1178,(3, 131),5	1183,(3, 145),1	1184,(3, 150),1	1185,(3, 153),5	1190,(3, 161),3	1193,(3, 170),1	1194,(3, 181),3	1197,(3, 188),8	1205,(3, 195),4	1209,(3, 200),1	1210,(15, 21),1	1211,(15, 22),47	1258,(15, 25),10	1268,(15, 28),1	1269,(15, 33),1	1270,(15, 37),1	1271,(15, 41),5	1276,(15, 43),4	1280,(15, 45),6	1286,(15, 51),3	1289,(15, 54),18	1307,(15, 59),5	1312,(15, 61),1	1313,(15, 63),9	1322,(15, 67),6	1328,(15, 68),11	1339,(15, 70),1	1340,(15, 73),1	1341,(15, 76),10	1351,(15, 85),1	1352,(15, 91),17	1369,(15, 92),5	1374,(15, 94),1	1375,(15, 96),7	1382,(15, 104),20	1402,(15, 106),1	1403,(15, 108),13	1416,(15, 113),1	1417,(15, 120),10	1427,(15, 131),2	1429,(15, 140),1	1430,(15, 142),1	1431,(15, 145),3	1434,(15, 153),34	1468,(15, 155),13	1481,(15, 165),2	1483,(15, 170),4	1487,(15, 181),1	1488,(15, 188),2	1490,(15, 192),25	1515,(15, 195),32	1547,(5, 21),1	1548,(5, 25),1	1549,(5, 26),1	1550,(5, 28),46	1596,(5, 31),1	1597,(5, 32),8	1605,(5, 33),1	1606,(5, 40),19	1625,(5, 45),5	1630,(5, 51),3	1633,(5, 54),8	1641,(5, 56),11	1652,(5, 57),2	1654,(5, 59),7	1661,(5, 63),5	1666,(5, 64),12	1678,(5, 68),2	1680,(5, 70),10	1690,(5, 71),5	1695,(5, 76),3	1698,(5, 85),11	1709,(5, 88),1	1710,(5, 91),11	1721,(5, 94),2	1723,(5, 99),1	1724,(5, 102),3	1727,(5, 103),1	1728,(5, 104),5	1733,(5, 106),6	1739,(5, 107),4	1743,(5, 113),14	1757,(5, 117),1	1758,(5, 118),37	1795,(5, 123),10	1805,(5, 134),20	1825,(5, 140),4	1829,(5, 145),6	1835,(5, 148),4	1839,(5, 150),31	1870,(5, 153),10	1880,(5, 155),3	1883,(5, 165),1	1884,(5, 171),1	1885,(5, 181),2	1887,(5, 185),8	1895,(5, 186),2	1897,(5, 191),4	1901,(5, 192),7	1908,(5, 195),42	1950,(19, 25),3	1953,(19, 26),4	1957,(19, 28),22	1979,(19, 31),7	1986,(19, 33),1	1987,(19, 37),1	1988,(19, 40),2	1990,(19, 41),32	2022,(19, 56),22	2044,(19, 60),3	2047,(19, 68),1	2048,(19, 70),44	2092,(19, 88),1	2093,(19, 90),11	2104,(19, 92),5	2109,(19, 94),15	2124,(19, 96),6	2130,(19, 99),4	2134,(19, 102),46	2180,(19, 105),41	2221,(19, 109),1	2222,(19, 124),5	2227,(19, 131),14	2241,(19, 134),1	2242,(19, 135),3	2245,(19, 148),1	2246,(19, 153),1	2247,(19, 155),1	2248,(19, 161),10	2258,(19, 171),5	2263,(19, 173),11	2274,(19, 181),22	2296,(19, 185),14	2310,(19, 186),21	2331,(19, 188),7	2338,(19, 190),2	2340,(19, 191),5	2345,(19, 192),42	2387,(17, 21),1	2388,(17, 26),8	2396,(17, 31),1	2397,(17, 37),1	2398,(17, 40),1	2399,(17, 45),10	2409,(17, 47),2	2411,(17, 57),2	2413,(17, 59),1	2414,(17, 61),10	2424,(17, 65),1	2425,(17, 67),2	2427,(17, 70),3	2430,(17, 86),2	2432,(17, 94),2	2434,(17, 97),14	2448,(17, 105),6	2454,(17, 106),19	2473,(17, 113),9	2482,(17, 117),14	2496,(17, 118),2	2498,(17, 120),9	2507,(17, 124),9	2516,(17, 128),1	2517,(17, 134),6	2523,(17, 146),14	2537,(17, 153),1	2538,(17, 161),1	2539,(17, 170),21	2560,(17, 171),13	2573,(17, 184),1	2574,(17, 186),1	2575,(17, 188),1	2576,(17, 200),36	2612,(16, 22),19	2631,(16, 28),1	2632,(16, 31),3	2635,(16, 37),1	2636,(16, 40),8	2644,(16, 41),5	2649,(16, 45),2	2651,(16, 49),1	2652,(16, 56),34	2686,(16, 61),3	2689,(16, 63),1	2690,(16, 64),16	2706,(16, 65),1	2707,(16, 67),25	2732,(16, 68),1	2733,(16, 71),16	2749,(16, 92),1	2750,(16, 97),2	2752,(16, 99),1	2753,(16, 101),9	2762,(16, 106),3	2765,(16, 107),8	2773,(16, 108),3	2776,(16, 109),3	2779,(16, 112),3	2782,(16, 113),3	2785,(16, 116),3	2788,(16, 118),1	2789,(16, 123),13	2802,(16, 130),1	2803,(16, 142),10	2813,(16, 145),13	2826,(16, 146),18	2844,(16, 150),5	2849,(16, 155),5	2854,(16, 165),24	2878,(16, 170),8	2886,(16, 179),31	2917,(16, 181),1	2918,(16, 184),1	2919,(16, 186),2	2921,(16, 190),29	2950,(16, 191),2	2952,(16, 200),1	2953,(12, 25),7	2960,(12, 26),9	2969,(12, 28),1	2970,(12, 31),4	2974,(12, 32),9	2983,(12, 35),4	2987,(12, 41),2	2989,(12, 43),5	2994,(12, 45),10	3004,(12, 47),4	3008,(12, 59),31	3039,(12, 60),5	3044,(12, 63),13	3057,(12, 65),5	3062,(12, 66),2	3064,(12, 67),28	3092,(12, 68),18	3110,(12, 71),10	3120,(12, 73),2	3122,(12, 78),9	3131,(12, 86),8	3139,(12, 88),13	3152,(12, 90),4	3156,(12, 91),29	3185,(12, 94),1	3186,(12, 99),1	3187,(12, 101),7	3194,(12, 102),1	3195,(12, 103),1	3196,(12, 104),16	3212,(12, 120),4	3216,(12, 123),1	3217,(12, 128),1	3218,(12, 130),1	3219,(12, 134),4	3223,(12, 140),2	3225,(12, 142),14	3239,(12, 145),4	3243,(12, 165),7	3250,(12, 170),2	3252,(12, 171),1	3253,(12, 184),17	3270,(12, 186),1	3271,(12, 190),5	3276,(12, 191),2	3278,(12, 192),6	3284,(12, 200),1	3285,(1, 25),1	3286,(1, 31),7	3293,(1, 35),2	3295,(1, 37),1	3296,(1, 43),2	3298,(1, 45),12	3310,(1, 47),13	3323,(1, 49),3	3326,(1, 54),24	3350,(1, 59),1	3351,(1, 60),12	3363,(1, 66),1	3364,(1, 67),24	3388,(1, 68),7	3395,(1, 71),6	3401,(1, 73),1	3402,(1, 76),10	3412,(1, 90),1	3413,(1, 92),3	3416,(1, 99),10	3426,(1, 102),3	3429,(1, 104),1	3430,(1, 105),9	3439,(1, 107),29	3468,(1, 109),1	3469,(1, 112),4	3473,(1, 113),3	3476,(1, 116),13	3489,(1, 118),3	3492,(1, 123),6	3498,(1, 124),5	3503,(1, 131),1	3504,(1, 134),3	3507,(1, 142),6	3513,(1, 145),6	3519,(1, 148),1	3520,(1, 150),5	3525,(1, 153),1	3526,(1, 155),18	3544,(1, 179),2	3546,(1, 184),2	3548,(1, 185),2	3550,(1, 186),9	3559,(1, 188),3	3562,(1, 190),3	3565,(1, 191),10	3575,(1, 192),1	3576,(1, 195),1	3577,(1, 200),14	
33,(4, 24),6	39,(4, 27),10	49,(4, 29),11	60,(4, 36),10	70,(4, 38),18	88,(4, 46),24	112,(4, 50),6	118,(4, 52),24	142,(4, 53),16	158,(4, 55),2	160,(4, 58),6	166,(4, 62),1	167,(4, 69),1	168,(4, 72),35	203,(4, 74),166	369,(4, 77),12	381,(4, 80),12	393,(4, 82),3	396,(4, 83),11	407,(4, 89),7	414,(4, 110),1	415,(4, 114),1	416,(4, 115),6	422,(4, 119),3	425,(4, 122),8	433,(4, 126),7	440,(4, 127),5	445,(4, 129),1	446,(4, 132),2	448,(4, 133),1	449,(4, 136),17	466,(4, 143),1	467,(4, 147),1	468,(4, 149),1	469,(4, 151),1	470,(4, 156),3	473,(4, 159),10	483,(4, 164),11	494,(4, 166),6	500,(4, 168),9	509,(4, 172),1	510,(4, 174),1	511,(4, 175),18	529,(4, 176),1	530,(4, 180),19	549,(4, 187),2	551,(4, 189),1	552,(4, 193),3	555,(4, 194),4	559,(4, 196),2	561,(4, 199),34	595,(6, 23),2	597,(6, 29),6	603,(6, 38),1	604,(6, 42),10	614,(6, 44),6	620,(6, 50),6	626,(6, 53),1	627,(6, 55),1	628,(6, 74),5	633,(6, 77),8	641,(6, 81),4	645,(6, 84),2	647,(6, 87),1	648,(6, 95),1	649,(6, 100),17	666,(6, 110),1	667,(6, 115),9	676,(6, 119),25	701,(6, 125),19	720,(6, 126),1	721,(6, 129),1	722,(6, 137),1	723,(6, 139),1	724,(6, 141),10	734,(6, 149),23	757,(6, 152),11	768,(6, 157),6	774,(6, 162),1	775,(6, 163),5	780,(6, 164),4	784,(6, 166),1	785,(6, 177),2	787,(6, 180),27	814,(6, 182),2	816,(6, 187),1	817,(6, 196),3	820,(6, 197),3	823,(6, 198),1	824,(7, 23),2	826,(7, 24),21	847,(7, 27),5	852,(7, 52),30	882,(7, 72),1	883,(7, 74),1	884,(7, 75),1	885,(7, 77),8	893,(7, 81),12	905,(7, 82),1	906,(7, 110),3	909,(7, 114),14	923,(7, 119),4	927,(7, 121),1	928,(7, 122),5	933,(7, 132),1	934,(7, 133),30	964,(7, 136),1	965,(7, 138),6	971,(7, 147),1	972,(7, 151),1	973,(7, 152),2	975,(7, 156),1	976,(7, 157),10	986,(7, 158),1	987,(7, 162),1	988,(7, 164),4	992,(7, 166),10	1002,(7, 168),1	1003,(7, 177),2	1005,(7, 183),39	1044,(7, 189),1	1045,(7, 193),23	1068,(7, 194),1	1069,(7, 196),4	1073,(7, 198),6	1079,(8, 24),3	1082,(8, 27),3	1085,(8, 29),1	1086,(8, 34),1	1087,(8, 38),4	1091,(8, 46),15	1106,(8, 50),1	1107,(8, 58),7	1114,(8, 69),5	1119,(8, 74),188	1307,(8, 75),1	1308,(8, 77),1	1309,(8, 80),2	1311,(8, 89),13	1324,(8, 93),1	1325,(8, 98),6	1331,(8, 119),34	1365,(8, 121),20	1385,(8, 126),4	1389,(8, 127),9	1398,(8, 132),7	1405,(8, 137),4	1409,(8, 141),313	1722,(8, 143),6	1728,(8, 151),51	1779,(8, 156),1	1780,(8, 157),4	1784,(8, 158),25	1809,(8, 160),1	1810,(8, 162),25	1835,(8, 163),1	1836,(8, 167),199	2035,(8, 168),6	2041,(8, 172),18	2059,(8, 174),4	2063,(8, 175),1	2064,(8, 176),1	2065,(8, 177),1	2066,(8, 182),6	2072,(8, 193),2	2074,(8, 194),1	2075,(8, 199),1	2076,(9, 23),19	2095,(9, 24),28	2123,(9, 34),5	2128,(9, 36),22	2150,(9, 38),1	2151,(9, 39),4	2155,(9, 46),4	2159,(9, 48),1	2160,(9, 50),2	2162,(9, 53),5	2167,(9, 58),1	2168,(9, 69),3	2171,(9, 72),2	2173,(9, 74),3	2176,(9, 75),12	2188,(9, 77),2	2190,(9, 81),13	2203,(9, 83),1	2204,(9, 87),3	2207,(9, 89),1	2208,(9, 95),184	2392,(9, 100),1	2393,(9, 110),2	2395,(9, 111),9	2404,(9, 114),8	2412,(9, 122),2	2414,(9, 125),18	2432,(9, 127),4	2436,(9, 129),8	2444,(9, 132),8	2452,(9, 133),5	2457,(9, 139),1	2458,(9, 147),2	2460,(9, 152),1	2461,(9, 154),4	2465,(9, 158),17	2482,(9, 159),1	2483,(9, 160),1	2484,(9, 174),1	2485,(9, 175),6	2491,(9, 176),1	2492,(9, 177),1	2493,(9, 178),9	2502,(9, 180),1	2503,(9, 187),15	2518,(9, 189),4	2522,(9, 193),7	2529,(9, 197),8	2537,(9, 199),5	2542,(10, 24),33	2575,(10, 27),1	2576,(10, 30),16	2592,(10, 36),1	2593,(10, 38),7	2600,(10, 42),17	2617,(10, 48),1	2618,(10, 50),5	2623,(10, 52),5	2628,(10, 58),2	2630,(10, 62),513	3143,(10, 69),8	3151,(10, 72),1	3152,(10, 75),4	3156,(10, 77),8	3164,(10, 82),11	3175,(10, 95),3	3178,(10, 110),30	3208,(10, 111),7	3215,(10, 115),4	3219,(10, 121),2	3221,(10, 125),1	3222,(10, 133),12	3234,(10, 138),1	3235,(10, 141),7	3242,(10, 143),1	3243,(10, 149),5	3248,(10, 151),2	3250,(10, 154),10	3260,(10, 156),3	3263,(10, 158),10	3273,(10, 163),1	3274,(10, 166),7	3281,(10, 167),4	3285,(10, 174),1	3286,(10, 175),14	3300,(10, 176),1	3301,(10, 178),2	3303,(10, 183),2	3305,(10, 187),5	3310,(10, 189),1	3311,(10, 194),16	3327,(13, 23),17	3344,(13, 24),5	3349,(13, 27),10	3359,(13, 36),12	3371,(13, 39),3	3374,(13, 44),5	3379,(13, 50),24	3403,(13, 53),15	3418,(13, 55),1	3419,(13, 58),1	3420,(13, 62),17	3437,(13, 69),34	3471,(13, 72),25	3496,(13, 75),4	3500,(13, 77),4	3504,(13, 80),10	3514,(13, 81),1	3515,(13, 83),1	3516,(13, 84),2	3518,(13, 110),9	3527,(13, 114),39	3566,(13, 115),1	3567,(13, 125),5	3572,(13, 126),4	3576,(13, 127),2	3578,(13, 133),8	3586,(13, 136),1	3587,(13, 137),41	3628,(13, 141),175	3803,(13, 143),3	3806,(13, 144),5	3811,(13, 149),15	3826,(13, 151),3	3829,(13, 156),4	3833,(13, 157),18	3851,(13, 159),1	3852,(13, 162),7	3859,(13, 164),9	3868,(13, 166),1	3869,(13, 167),1	3870,(13, 168),5	3875,(13, 169),2	3877,(13, 172),1	3878,(13, 174),4	3882,(13, 175),1	3883,(13, 177),6	3889,(13, 178),4	3893,(13, 182),10	3903,(13, 187),3	3906,(13, 193),3	3909,(13, 196),1	3910,(13, 198),47	3957,(14, 27),5	3962,(14, 38),3	3965,(14, 39),1	3966,(14, 42),2	3968,(14, 44),4	3972,(14, 48),2	3974,(14, 50),2	3976,(14, 72),25	4001,(14, 75),1	4002,(14, 77),25	4027,(14, 79),1	4028,(14, 84),1	4029,(14, 87),9	4038,(14, 89),1	4039,(14, 93),18	4057,(14, 95),2	4059,(14, 98),1	4060,(14, 110),42	4102,(14, 111),4	4106,(14, 115),1	4107,(14, 119),3	4110,(14, 125),5	4115,(14, 126),2	4117,(14, 133),1	4118,(14, 139),2	4120,(14, 141),2	4122,(14, 147),3	4125,(14, 151),4	4129,(14, 154),1	4130,(14, 156),1	4131,(14, 159),8	4139,(14, 160),3	4142,(14, 163),2	4144,(14, 164),4	4148,(14, 168),1	4149,(14, 169),7	4156,(14, 174),1	4157,(14, 175),17	4174,(14, 176),5	4179,(14, 177),4	4183,(14, 178),3	4186,(14, 183),1	4187,(14, 187),7	4194,(14, 193),1	4195,(14, 197),4	4199,(14, 198),5	4204,(14, 199),1	4205,(18, 29),3	4208,(18, 36),54	4262,(18, 38),2	4264,(18, 42),9	4273,(18, 44),3	4276,(18, 48),1	4277,(18, 52),73	4350,(18, 55),1	4351,(18, 58),22	4373,(18, 69),2	4375,(18, 77),2	4377,(18, 79),3	4380,(18, 80),2	4382,(18, 81),5	4387,(18, 82),4	4391,(18, 83),1	4392,(18, 89),4	4396,(18, 110),3	4399,(18, 114),1	4400,(18, 115),1	4401,(18, 121),2	4403,(18, 122),1	4404,(18, 126),1	4405,(18, 127),1	4406,(18, 132),1	4407,(18, 136),1	4408,(18, 141),5	4413,(18, 144),1	4414,(18, 147),107	4521,(18, 151),3	4524,(18, 156),23	4547,(18, 157),2	4549,(18, 158),1	4550,(18, 159),10	4560,(18, 160),1	4561,(18, 166),4	4565,(18, 167),11	4576,(18, 168),13	4589,(18, 172),1	4590,(18, 175),2	4592,(18, 178),3	4595,(18, 182),18	4613,(18, 189),3	4616,(18, 193),10	4626,(18, 194),17	4643,(18, 197),1	4644,(18, 198),49	4693,(18, 199),4	4697,(20, 27),2	4699,(20, 30),1	4700,(20, 34),1	4701,(20, 38),17	4718,(20, 39),1	4719,(20, 44),1	4720,(20, 50),1	4721,(20, 53),1	4722,(20, 55),1	4723,(20, 58),2	4725,(20, 62),29	4754,(20, 69),2	4756,(20, 72),5	4761,(20, 74),21	4782,(20, 75),3	4785,(20, 77),1	4786,(20, 79),2	4788,(20, 83),1	4789,(20, 84),1	4790,(20, 89),8	4798,(20, 95),33	4831,(20, 100),4	4835,(20, 110),16	4851,(20, 121),21	4872,(20, 122),15	4887,(20, 126),8	4895,(20, 129),2	4897,(20, 133),8	4905,(20, 144),1	4906,(20, 151),25	4931,(20, 152),5	4936,(20, 159),2	4938,(20, 162),2	4940,(20, 164),1	4941,(20, 166),1	4942,(20, 168),12	4954,(20, 169),4	4958,(20, 174),4	4962,(20, 180),2	4964,(51, 201),17	4981,(85, 201),17	4998,(33, 201),17	5015,(96, 201),17	5032,(135, 201),17	5049,(173, 201),17	5066,(21, 201),17	5083,(57, 201),17	5100,(70, 201),17	5117,(117, 201),17	5134,(161, 201),17	5151,(22, 201),17	5168,(40, 201),17	5185,(56, 201),17	5202,(61, 201),17	5219,(64, 201),17	5236,(97, 201),17	5253,(106, 201),17	5270,(108, 201),17	5287,(146, 201),17	5304,(181, 201),17	5321,(26, 201),17	5338,(28, 201),17	5355,(32, 201),17	5372,(41, 201),17	5389,(63, 201),17	5406,(65, 201),17	5423,(78, 201),17	5440,(86, 201),17	5457,(88, 201),17	5474,(91, 201),17	5491,(94, 201),17	5508,(101, 201),17	5525,(103, 201),17	5542,(120, 201),17	5559,(128, 201),17	5576,(130, 201),17	5593,(140, 201),17	5610,(165, 201),17	5627,(170, 201),17	5644,(171, 201),17	5661,(25, 201),17	5678,(31, 201),17	5695,(35, 201),17	5712,(37, 201),17	5729,(43, 201),17	5746,(45, 201),17	5763,(47, 201),17	5780,(49, 201),17	5797,(54, 201),17	5814,(59, 201),17	5831,(60, 201),17	5848,(66, 201),17	5865,(67, 201),17	5882,(68, 201),17	5899,(71, 201),17	5916,(73, 201),17	5933,(76, 201),17	5950,(90, 201),17	5967,(92, 201),17	5984,(99, 201),17	6001,(102, 201),17	6018,(104, 201),17	6035,(105, 201),17	6052,(107, 201),17	6069,(109, 201),17	6086,(112, 201),17	6103,(113, 201),17	6120,(116, 201),17	6137,(118, 201),17	6154,(123, 201),17	6171,(124, 201),17	6188,(131, 201),17	6205,(134, 201),17	6222,(142, 201),17	6239,(145, 201),17	6256,(148, 201),17	6273,(150, 201),17	6290,(153, 201),17	6307,(155, 201),17	6324,(179, 201),17	6341,(184, 201),17	6358,(185, 201),17	6375,(186, 201),17	6392,(188, 201),17	6409,(190, 201),17	6426,(191, 201),17	6443,(192, 201),17	6460,(195, 201),17	6477,(200, 201),17	
