2144
# CPU
0,0,1	1,20,14	15,150,14	29,5,14	43,43,14	57,29,14	71,146,14	85,4,14	99,60,14	113,14,14	127,96,14	141,144,14	155,1,14	169,188,14	183,176,14	197,196,14	211,112,14	225,85,14	239,145,14	253,8,14	267,21,14	281,90,14	295,68,14	309,15,14	323,182,14	337,139,14	351,99,14	365,9,14	379,113,14	393,97,14	407,104,14	421,7,14	435,129,14	449,136,14	463,23,14	477,16,14	491,154,14	505,95,14	519,123,14	533,172,14	547,51,14	561,87,14	575,32,14	589,153,14	603,12,14	617,115,14	631,147,14	645,168,14	659,141,14	673,82,14	687,148,14	701,2,14	715,39,14	729,49,14	743,110,14	757,57,14	771,93,14	785,140,14	799,79,14	813,178,14	827,53,14	841,131,14	855,66,14	869,11,14	883,173,14	897,76,14	911,50,14	925,143,14	939,63,14	953,114,14	967,83,14	981,111,14	995,19,14	1009,165,14	1023,100,14	1037,134,14	1051,41,14	1065,183,14	1079,152,14	1093,167,14	1107,120,14	1121,124,14	1135,180,14	1149,69,14	1163,166,14	1177,6,14	1191,162,14	1205,26,14	1219,117,14	1233,64,14	1247,161,14	1261,86,14	1275,185,14	1289,31,14	1303,181,14	1317,149,14	1331,195,14	1345,17,14	1359,199,14	1373,160,14	1387,24,14	1401,118,14	1415,81,14	1429,46,14	1443,91,14	1457,72,14	1471,155,14	1485,171,14	1499,189,14	1513,18,14	1527,52,14	1541,191,14	1555,27,14	1569,184,14	1583,54,14	1597,48,14	1611,77,14	1625,169,14	1639,13,14	1653,22,14	1667,126,14	1681,164,14	1695,175,14	1709,163,14	1723,198,14	1737,40,14	1751,10,14	1765,177,14	1779,89,14	1793,121,14	1807,179,14	1821,170,14	1835,58,14	1849,194,14	1863,132,14	1877,55,14	1891,38,14	1905,197,14	1919,75,14	1933,3,14	1947,157,14	1961,73,14	1975,36,14	1989,128,14	2003,88,14	2017,200,14	2031,98,14	2045,107,14	2059,102,14	2073,71,14	2087,74,14	2101,80,14	2115,37,14	2129,122,14	2143,201,1	
173,70,14	283,34,14	327,28,14	439,67,14	463,44,14	495,47,14	519,25,14	621,105,14	645,156,14	719,94,14	831,101,14	887,159,14	1013,33,14	1033,116,14	1053,109,14	1195,56,14	1211,138,14	1247,78,14	1363,30,14	1383,142,14	1415,42,14	1539,133,14	1657,45,14	1773,103,14	1793,193,14	1809,92,14	1959,59,14	1979,84,14	1995,186,14	
335,174,14	503,61,14	625,119,14	723,192,14	891,158,14	1017,137,14	1199,127,14	1219,65,14	1367,187,14	1661,190,14	1777,108,14	1951,35,14	1971,135,14	
1203,125,14	1781,130,14	1963,62,14	
1769,106,14	1955,151,14	
# Incoming
187,(70, 201),8	297,(34, 201),8	341,(28, 201),8	349,(174, 201),8	453,(67, 201),8	477,(44, 201),8	509,(47, 201),8	517,(61, 201),8	533,(25, 201),8	635,(105, 201),8	643,(119, 201),8	659,(156, 201),8	733,(94, 201),8	741,(192, 201),8	845,(101, 201),8	901,(159, 201),8	909,(158, 201),8	1027,(33, 201),8	1035,(137, 201),8	1047,(116, 201),8	1067,(109, 201),8	1209,(56, 201),8	1217,(127, 201),8	1225,(125, 201),8	1233,(138, 201),8	1241,(65, 201),8	1261,(78, 201),8	1377,(30, 201),8	1385,(187, 201),8	1397,(142, 201),8	1429,(42, 201),8	1553,(133, 201),8	1671,(45, 201),8	1679,(190, 201),8	1783,(106, 201),8	1791,(103, 201),8	1799,(108, 201),8	1807,(130, 201),8	1815,(193, 201),8	1823,(92, 201),8	1965,(35, 201),8	1973,(151, 201),8	1981,(59, 201),8	1989,(62, 201),8	1997,(135, 201),8	2005,(84, 201),8	2013,(186, 201),8	
169,(1, 70),4	173,(1, 67),20	193,(14, 44),68	261,(20, 109),4	267,(8, 34),16	287,(5, 156),16	323,(15, 28),4	375,(5, 186),4	379,(9, 44),4	383,(9, 101),12	395,(9, 138),4	435,(7, 67),4	439,(7, 44),24	491,(16, 47),4	503,(16, 25),16	519,(8, 156),92	611,(7, 30),4	617,(12, 105),4	625,(12, 156),20	701,(16, 159),8	715,(2, 94),4	723,(2, 101),108	831,(12, 159),36	883,(11, 159),4	971,(7, 138),32	1009,(19, 33),4	1017,(19, 116),16	1033,(19, 109),20	1101,(5, 78),16	1117,(16, 78),36	1165,(8, 133),24	1191,(6, 56),4	1203,(6, 138),8	1219,(6, 78),28	1247,(20, 133),100	1347,(7, 103),8	1359,(17, 30),4	1367,(17, 142),16	1383,(17, 42),32	1479,(14, 193),20	1499,(17, 193),24	1527,(18, 133),12	1623,(4, 59),8	1631,(1, 59),12	1653,(13, 45),4	1661,(5, 92),52	1713,(12, 92),40	1753,(13, 59),8	1769,(10, 103),4	1781,(10, 193),12	1793,(10, 92),16	1865,(7, 84),32	1955,(3, 59),4	1971,(3, 84),8	1979,(3, 186),16	
283,(8, 174),4	303,(1, 192),4	307,(1, 158),4	311,(20, 127),12	327,(15, 174),8	335,(8, 158),40	399,(15, 65),36	463,(7, 119),28	495,(16, 61),8	621,(12, 119),4	645,(15, 192),56	719,(2, 192),4	887,(11, 158),4	891,(14, 137),68	1013,(19, 137),4	1053,(19, 127),4	1057,(2, 65),44	1153,(2, 187),12	1195,(6, 127),4	1211,(6, 65),8	1363,(17, 187),4	1415,(11, 190),16	1431,(6, 190),24	1455,(16, 108),24	1657,(13, 190),4	1773,(10, 108),4	1841,(17, 135),24	1947,(3, 35),4	1963,(3, 135),8	
867,(7, 125),12	879,(7, 130),4	959,(11, 125),12	1003,(5, 62),4	1199,(6, 125),4	1539,(20, 130),84	1777,(10, 130),4	1813,(7, 62),28	1959,(3, 62),4	
1765,(10, 106),4	1809,(6, 151),4	1951,(3, 151),4	
# Outgoing
169,(1, 70),4	173,(1, 67),20	193,(14, 44),68	261,(20, 109),4	267,(8, 34),16	283,(8, 174),4	287,(5, 156),16	303,(1, 192),4	307,(1, 158),4	311,(20, 127),12	323,(15, 28),4	327,(15, 174),8	335,(8, 158),40	375,(5, 186),4	379,(9, 44),4	383,(9, 101),12	395,(9, 138),4	399,(15, 65),36	435,(7, 67),4	439,(7, 44),24	463,(7, 119),28	491,(16, 47),4	495,(16, 61),8	503,(16, 25),16	519,(8, 156),92	611,(7, 30),4	617,(12, 105),4	621,(12, 119),4	625,(12, 156),20	645,(15, 192),56	701,(16, 159),8	715,(2, 94),4	719,(2, 192),4	723,(2, 101),108	831,(12, 159),36	867,(7, 125),12	879,(7, 130),4	883,(11, 159),4	887,(11, 158),4	891,(14, 137),68	959,(11, 125),12	971,(7, 138),32	1003,(5, 62),4	1009,(19, 33),4	1013,(19, 137),4	1017,(19, 116),16	1033,(19, 109),20	1053,(19, 127),4	1057,(2, 65),44	1101,(5, 78),16	1117,(16, 78),36	1153,(2, 187),12	1165,(8, 133),24	1191,(6, 56),4	1195,(6, 127),4	1199,(6, 125),4	1203,(6, 138),8	1211,(6, 65),8	1219,(6, 78),28	1247,(20, 133),100	1347,(7, 103),8	1359,(17, 30),4	1363,(17, 187),4	1367,(17, 142),16	1383,(17, 42),32	1415,(11, 190),16	1431,(6, 190),24	1455,(16, 108),24	1479,(14, 193),20	1499,(17, 193),24	1527,(18, 133),12	1539,(20, 130),84	1623,(4, 59),8	1631,(1, 59),12	1653,(13, 45),4	1657,(13, 190),4	1661,(5, 92),52	1713,(12, 92),40	1753,(13, 59),8	1765,(10, 106),4	1769,(10, 103),4	1773,(10, 108),4	1777,(10, 130),4	1781,(10, 193),12	1793,(10, 92),16	1809,(6, 151),4	1813,(7, 62),28	1841,(17, 135),24	1865,(7, 84),32	1947,(3, 35),4	1951,(3, 151),4	1955,(3, 59),4	1959,(3, 62),4	1963,(3, 135),8	1971,(3, 84),8	1979,(3, 186),16	
187,(70, 201),8	297,(34, 201),8	341,(28, 201),8	453,(67, 201),8	477,(44, 201),8	509,(47, 201),8	533,(25, 201),8	635,(105, 201),8	659,(156, 201),8	733,(94, 201),8	845,(101, 201),8	901,(159, 201),8	1027,(33, 201),8	1047,(116, 201),8	1067,(109, 201),8	1209,(56, 201),8	1233,(138, 201),8	1261,(78, 201),8	1377,(30, 201),8	1397,(142, 201),8	1429,(42, 201),8	1553,(133, 201),8	1671,(45, 201),8	1791,(103, 201),8	1815,(193, 201),8	1823,(92, 201),8	1981,(59, 201),8	2005,(84, 201),8	2013,(186, 201),8	
349,(174, 201),8	517,(61, 201),8	643,(119, 201),8	741,(192, 201),8	909,(158, 201),8	1035,(137, 201),8	1217,(127, 201),8	1241,(65, 201),8	1385,(187, 201),8	1679,(190, 201),8	1799,(108, 201),8	1965,(35, 201),8	1997,(135, 201),8	
1225,(125, 201),8	1807,(130, 201),8	1989,(62, 201),8	
1783,(106, 201),8	1973,(151, 201),8	
