3639
# CPU
344,38,151	495,58,151	646,28,151	797,78,151	948,18,151	1099,48,151	1250,68,151	
389,47,151	605,37,151	756,57,151	907,77,151	1058,17,151	1209,27,151	1360,67,151	
22,8,151	173,26,151	324,56,151	475,36,151	626,16,151	777,46,151	928,66,151	1079,76,151	
19,7,151	170,15,151	321,75,151	472,35,151	623,25,151	774,55,151	925,65,151	1076,45,151	
16,6,151	179,24,151	330,14,151	481,34,151	632,44,151	783,64,151	934,54,151	1085,74,151	
13,5,151	164,13,151	315,73,151	466,63,151	617,23,151	768,33,151	919,53,151	1070,43,151	
10,4,151	161,12,151	312,52,151	463,72,151	614,32,151	765,22,151	916,62,151	1067,42,151	
7,3,151	161,11,151	312,21,151	463,31,151	614,71,151	765,41,151	916,61,151	1067,51,151	
4,2,151	155,10,151	306,40,151	457,20,151	608,60,151	759,50,151	910,70,151	1061,30,151	1212,80,151	
0,0,1	1,1,151	152,19,151	303,59,151	454,49,151	605,29,151	756,9,151	907,39,151	1058,69,151	1209,79,151	3638,81,1	
# Incoming
329,(1, 38),15	344,(1, 58),6	350,(5, 28),12	362,(5, 78),3	365,(8, 18),15	530,(7, 48),96	986,(6, 68),51	
224,(1, 37),105	344,(2, 67),3	386,(8, 47),3	425,(3, 37),180	605,(8, 57),39	695,(3, 77),18	713,(6, 17),129	842,(6, 27),66	953,(6, 67),33	
19,(0, 8),3	152,(1, 26),3	224,(2, 36),36	260,(7, 16),72	332,(7, 46),6	377,(1, 66),3	647,(3, 76),48	
16,(0, 7),3	227,(5, 75),69	380,(8, 35),6	410,(4, 25),3	446,(2, 55),51	497,(2, 65),42	539,(4, 45),9	
13,(0, 6),3	164,(5, 24),15	179,(7, 14),30	209,(1, 34),15	230,(7, 44),12	371,(1, 64),6	377,(2, 54),69	626,(7, 74),39	
10,(0, 5),3	245,(7, 73),12	353,(1, 63),18	407,(4, 23),3	410,(7, 33),120	608,(3, 53),39	923,(6, 43),21	
7,(0, 4),3	155,(1, 32),54	227,(7, 22),3	242,(7, 62),3	260,(2, 42),48	
4,(0, 3),3	155,(2, 11),6	161,(2, 21),63	224,(5, 31),3	380,(1, 71),3	452,(4, 41),21	473,(4, 61),12	944,(6, 51),9	
1,(0, 2),3	179,(5, 40),3	209,(7, 20),18	350,(1, 60),3	353,(7, 80),24	404,(3, 30),21	605,(3, 50),3	608,(4, 70),60	908,(6, 30),15	1037,(6, 80),9	
308,(2, 49),36	344,(3, 29),60	404,(4, 9),3	413,(4, 39),39	452,(5, 69),30	485,(4, 79),3	488,(12, 81),48	539,(10, 81),48	587,(13, 81),48	665,(15, 81),48	713,(11, 81),48	761,(26, 81),48	809,(40, 81),48	857,(21, 81),48	905,(52, 81),48	953,(73, 81),48	1046,(24, 81),48	1094,(75, 81),48	1142,(56, 81),48	1190,(14, 81),48	1238,(38, 81),48	1286,(47, 81),48	1334,(20, 81),48	1382,(31, 81),48	1430,(72, 81),48	1478,(63, 81),48	1526,(35, 81),48	1574,(36, 81),48	1622,(34, 81),48	1670,(58, 81),48	1718,(37, 81),48	1766,(60, 81),48	1814,(32, 81),48	1862,(71, 81),48	1910,(23, 81),48	1958,(25, 81),48	2006,(16, 81),48	2054,(44, 81),48	2102,(28, 81),48	2150,(57, 81),48	2198,(50, 81),48	2246,(41, 81),48	2294,(22, 81),48	2342,(33, 81),48	2390,(55, 81),48	2438,(46, 81),48	2486,(64, 81),48	2534,(78, 81),48	2582,(77, 81),48	2630,(70, 81),48	2678,(61, 81),48	2726,(62, 81),48	2774,(53, 81),48	2822,(65, 81),48	2870,(66, 81),48	2918,(54, 81),48	2966,(18, 81),48	3014,(17, 81),48	3062,(30, 81),48	3110,(42, 81),48	3158,(51, 81),48	3206,(43, 81),48	3254,(45, 81),48	3302,(76, 81),48	3350,(74, 81),48	3398,(48, 81),48	3446,(27, 81),48	3494,(80, 81),48	3542,(68, 81),48	3590,(67, 81),48	
# Outgoing
1238,(38, 81),48	1670,(58, 81),48	2102,(28, 81),48	2534,(78, 81),48	2966,(18, 81),48	3398,(48, 81),48	3542,(68, 81),48	
1286,(47, 81),48	1718,(37, 81),48	2150,(57, 81),48	2582,(77, 81),48	3014,(17, 81),48	3446,(27, 81),48	3590,(67, 81),48	
365,(8, 18),15	380,(8, 35),6	386,(8, 47),3	605,(8, 57),39	761,(26, 81),48	1142,(56, 81),48	1574,(36, 81),48	2006,(16, 81),48	2438,(46, 81),48	2870,(66, 81),48	3302,(76, 81),48	
179,(7, 14),30	209,(7, 20),18	227,(7, 22),3	230,(7, 44),12	242,(7, 62),3	245,(7, 73),12	260,(7, 16),72	332,(7, 46),6	353,(7, 80),24	410,(7, 33),120	530,(7, 48),96	626,(7, 74),39	665,(15, 81),48	1094,(75, 81),48	1526,(35, 81),48	1958,(25, 81),48	2390,(55, 81),48	2822,(65, 81),48	3254,(45, 81),48	
713,(6, 17),129	842,(6, 27),66	908,(6, 30),15	923,(6, 43),21	944,(6, 51),9	953,(6, 67),33	986,(6, 68),51	1037,(6, 80),9	1046,(24, 81),48	1190,(14, 81),48	1622,(34, 81),48	2054,(44, 81),48	2486,(64, 81),48	2918,(54, 81),48	3350,(74, 81),48	
164,(5, 24),15	179,(5, 40),3	224,(5, 31),3	227,(5, 75),69	350,(5, 28),12	362,(5, 78),3	452,(5, 69),30	587,(13, 81),48	953,(73, 81),48	1478,(63, 81),48	1910,(23, 81),48	2342,(33, 81),48	2774,(53, 81),48	3206,(43, 81),48	
404,(4, 9),3	407,(4, 23),3	410,(4, 25),3	413,(4, 39),39	452,(4, 41),21	473,(4, 61),12	485,(4, 79),3	488,(12, 81),48	539,(4, 45),9	608,(4, 70),60	905,(52, 81),48	1430,(72, 81),48	1814,(32, 81),48	2294,(22, 81),48	2726,(62, 81),48	3110,(42, 81),48	
344,(3, 29),60	404,(3, 30),21	425,(3, 37),180	605,(3, 50),3	608,(3, 53),39	647,(3, 76),48	695,(3, 77),18	713,(11, 81),48	857,(21, 81),48	1382,(31, 81),48	1862,(71, 81),48	2246,(41, 81),48	2678,(61, 81),48	3158,(51, 81),48	
155,(2, 11),6	161,(2, 21),63	224,(2, 36),36	260,(2, 42),48	308,(2, 49),36	344,(2, 67),3	377,(2, 54),69	446,(2, 55),51	497,(2, 65),42	539,(10, 81),48	809,(40, 81),48	1334,(20, 81),48	1766,(60, 81),48	2198,(50, 81),48	2630,(70, 81),48	3062,(30, 81),48	3494,(80, 81),48	
1,(0, 2),3	4,(0, 3),3	7,(0, 4),3	10,(0, 5),3	13,(0, 6),3	16,(0, 7),3	19,(0, 8),3	152,(1, 26),3	155,(1, 32),54	209,(1, 34),15	224,(1, 37),105	329,(1, 38),15	344,(1, 58),6	350,(1, 60),3	353,(1, 63),18	371,(1, 64),6	377,(1, 66),3	380,(1, 71),3	
