2042
# CPU
0,0,1	1,5,51	52,36,51	103,6,51	154,64,51	205,56,51	256,8,51	307,10,51	358,80,51	409,2,51	460,43,51	511,69,51	562,22,51	613,45,51	664,7,51	715,33,51	766,66,51	817,49,51	868,77,51	919,3,51	970,46,51	1021,17,51	1072,34,51	1123,58,51	1174,76,51	1225,4,51	1276,74,51	1327,39,51	1378,62,51	1429,15,51	1480,20,51	1531,19,51	1582,23,51	1633,68,51	1684,1,51	1735,9,51	1786,11,51	1837,25,51	1888,40,51	1939,79,51	1990,21,51	2041,81,1	
160,73,51	214,38,51	309,30,51	360,18,51	466,52,51	517,41,51	568,14,51	717,57,51	768,27,51	972,42,51	1023,48,51	1074,12,51	1156,67,51	1278,60,51	1329,28,51	1380,75,51	1431,61,51	1482,78,51	1737,54,51	1788,13,51	1839,31,51	1890,71,51	
168,53,51	311,44,51	397,55,51	472,50,51	523,47,51	719,35,51	770,72,51	974,65,51	1025,24,51	1280,32,51	1331,37,51	1382,70,51	1433,16,51	1484,29,51	1739,51,51	1790,26,51	1841,63,51	1913,59,51	
# Incoming
211,(73, 81),2	219,(53, 81),2	265,(38, 81),2	360,(30, 81),2	362,(44, 81),2	411,(18, 81),2	448,(55, 81),2	517,(52, 81),2	523,(50, 81),2	568,(41, 81),2	574,(47, 81),2	619,(14, 81),2	768,(57, 81),2	770,(35, 81),2	819,(27, 81),2	821,(72, 81),2	1023,(42, 81),2	1025,(65, 81),2	1074,(48, 81),2	1076,(24, 81),2	1125,(12, 81),2	1207,(67, 81),2	1329,(60, 81),2	1331,(32, 81),2	1380,(28, 81),2	1382,(37, 81),2	1431,(75, 81),2	1433,(70, 81),2	1482,(61, 81),2	1484,(16, 81),2	1533,(78, 81),2	1535,(29, 81),2	1788,(54, 81),2	1790,(51, 81),2	1839,(13, 81),2	1841,(26, 81),2	1890,(31, 81),2	1892,(63, 81),2	1941,(71, 81),2	1964,(59, 81),2	
154,(6, 73),6	168,(6, 38),46	238,(5, 41),10	302,(6, 67),4	307,(8, 30),2	311,(8, 18),20	397,(8, 52),4	401,(5, 14),42	443,(8, 42),6	449,(6, 12),10	460,(2, 52),6	472,(2, 41),16	500,(2, 14),12	634,(2, 48),16	664,(2, 67),2	668,(5, 28),4	686,(6, 61),2	688,(5, 54),18	708,(8, 13),6	715,(7, 57),2	719,(7, 27),12	815,(7, 31),10	839,(5, 71),6	845,(6, 71),84	970,(3, 42),2	974,(3, 48),6	1006,(3, 12),58	1064,(3, 67),92	1160,(3, 54),14	1276,(4, 60),2	1280,(4, 28),2	1286,(4, 75),8	1304,(4, 61),26	1358,(4, 78),28	1735,(1, 54),2	1739,(1, 13),12	1769,(1, 31),46	1833,(1, 71),4	
160,(6, 53),8	214,(5, 55),2	216,(6, 55),16	232,(5, 50),6	248,(5, 47),22	270,(6, 35),2	272,(6, 72),30	309,(8, 44),2	331,(8, 55),66	466,(2, 50),6	488,(2, 47),12	512,(8, 65),122	650,(2, 24),14	666,(2, 32),2	672,(8, 37),4	676,(8, 70),10	706,(5, 51),2	717,(7, 35),2	731,(7, 72),24	755,(7, 29),50	805,(5, 26),10	825,(5, 63),14	972,(3, 65),2	980,(3, 24),26	1156,(3, 29),4	1278,(4, 32),2	1282,(4, 37),4	1294,(4, 70),10	1330,(4, 16),28	1386,(4, 29),6	1392,(4, 51),90	1482,(4, 63),34	1737,(1, 51),2	1751,(1, 26),18	1815,(1, 63),18	1837,(1, 59),76	
# Outgoing
154,(6, 73),6	160,(6, 53),8	168,(6, 38),46	214,(5, 55),2	216,(6, 55),16	232,(5, 50),6	238,(5, 41),10	248,(5, 47),22	270,(6, 35),2	272,(6, 72),30	302,(6, 67),4	307,(8, 30),2	309,(8, 44),2	311,(8, 18),20	331,(8, 55),66	397,(8, 52),4	401,(5, 14),42	443,(8, 42),6	449,(6, 12),10	460,(2, 52),6	466,(2, 50),6	472,(2, 41),16	488,(2, 47),12	500,(2, 14),12	512,(8, 65),122	634,(2, 48),16	650,(2, 24),14	664,(2, 67),2	666,(2, 32),2	668,(5, 28),4	672,(8, 37),4	676,(8, 70),10	686,(6, 61),2	688,(5, 54),18	706,(5, 51),2	708,(8, 13),6	715,(7, 57),2	717,(7, 35),2	719,(7, 27),12	731,(7, 72),24	755,(7, 29),50	805,(5, 26),10	815,(7, 31),10	825,(5, 63),14	839,(5, 71),6	845,(6, 71),84	970,(3, 42),2	972,(3, 65),2	974,(3, 48),6	980,(3, 24),26	1006,(3, 12),58	1064,(3, 67),92	1156,(3, 29),4	1160,(3, 54),14	1276,(4, 60),2	1278,(4, 32),2	1280,(4, 28),2	1282,(4, 37),4	1286,(4, 75),8	1294,(4, 70),10	1304,(4, 61),26	1330,(4, 16),28	1358,(4, 78),28	1386,(4, 29),6	1392,(4, 51),90	1482,(4, 63),34	1735,(1, 54),2	1737,(1, 51),2	1739,(1, 13),12	1751,(1, 26),18	1769,(1, 31),46	1815,(1, 63),18	1833,(1, 71),4	1837,(1, 59),76	
211,(73, 81),2	265,(38, 81),2	360,(30, 81),2	411,(18, 81),2	517,(52, 81),2	568,(41, 81),2	619,(14, 81),2	768,(57, 81),2	819,(27, 81),2	1023,(42, 81),2	1074,(48, 81),2	1125,(12, 81),2	1207,(67, 81),2	1329,(60, 81),2	1380,(28, 81),2	1431,(75, 81),2	1482,(61, 81),2	1533,(78, 81),2	1788,(54, 81),2	1839,(13, 81),2	1890,(31, 81),2	1941,(71, 81),2	
219,(53, 81),2	362,(44, 81),2	448,(55, 81),2	523,(50, 81),2	574,(47, 81),2	770,(35, 81),2	821,(72, 81),2	1025,(65, 81),2	1076,(24, 81),2	1331,(32, 81),2	1382,(37, 81),2	1433,(70, 81),2	1484,(16, 81),2	1535,(29, 81),2	1790,(51, 81),2	1841,(26, 81),2	1892,(63, 81),2	1964,(59, 81),2	
