40894
# CPU
973,10,20	993,190,20	1063,170,20	1240,90,20	1260,130,20	1405,70,20	1660,180,20	1680,140,20	1700,40,20	1795,110,20	1945,20,20	1965,30,20	1987,80,20	2047,160,20	2067,60,20	2087,50,20	2215,200,20	2374,100,20	2476,120,20	2496,150,20	
865,9,20	885,29,20	905,69,20	925,39,20	945,99,20	965,89,20	1081,59,20	1252,129,20	1543,169,20	1570,179,20	1654,189,20	1837,19,20	1857,49,20	1877,199,20	1897,109,20	1917,159,20	2056,79,20	2452,149,20	2472,119,20	2518,139,20	
757,8,20	777,38,20	829,148,20	1201,28,20	1282,158,20	1405,198,20	1471,78,20	1501,98,20	1528,108,20	1564,138,20	1584,168,20	1729,18,20	1749,48,20	2065,118,20	2128,128,20	2148,178,20	2362,68,20	2572,58,20	2707,88,20	2727,188,20	
649,7,20	811,127,20	940,107,20	1132,97,20	1215,137,20	1621,17,20	1641,157,20	1849,57,20	1873,177,20	1990,37,20	2011,27,20	2047,47,20	2068,167,20	2125,77,20	2170,197,20	2305,187,20	2371,87,20	40363,147,20	40651,117,20	40870,67,20	
541,6,20	844,116,20	1237,126,20	1258,146,20	1513,16,20	1533,106,20	1567,156,20	1693,56,20	1789,186,20	1809,46,20	1876,166,20	1968,26,20	1988,136,20	2059,96,20	2149,196,20	2233,76,20	2253,36,20	2308,66,20	2407,86,20	2497,176,20	
433,5,20	802,145,20	822,135,20	1405,15,20	1429,65,20	1492,155,20	1539,95,20	1559,85,20	1647,35,20	1780,125,20	1813,195,20	1867,55,20	2104,105,20	2125,175,20	2323,75,20	2449,25,20	2494,165,20	3574,185,20	4354,45,20	4657,115,20	
325,4,20	345,174,20	781,94,20	1297,14,20	1363,104,20	1444,74,20	1471,54,20	1555,134,20	1644,24,20	1780,184,20	1858,84,20	2080,34,20	2110,124,20	2164,64,20	2239,144,20	2259,44,20	2464,114,20	2512,194,20	3685,164,20	4126,154,20	
217,3,20	237,183,20	796,113,20	816,123,20	850,143,20	1189,13,20	1209,163,20	1229,173,20	1264,103,20	1330,73,20	1431,153,20	1519,93,20	1627,83,20	1656,193,20	2047,43,20	2077,33,20	2128,53,20	2152,63,20	2236,23,20	2533,133,20	
109,2,20	817,142,20	1081,12,20	1372,82,20	1486,182,20	1561,152,20	1669,32,20	1789,22,20	1809,62,20	1829,122,20	1849,132,20	1876,172,20	1921,162,20	1977,92,20	1997,192,20	2044,42,20	2209,72,20	2229,102,20	2263,52,20	2401,112,20	
0,0,1	1,1,20	21,11,20	41,121,20	871,51,20	910,61,20	1138,91,20	1441,101,20	1461,171,20	1525,31,20	1570,21,20	1590,131,20	1610,151,20	1945,71,20	2020,141,20	2040,161,20	2062,191,20	2218,81,20	2245,181,20	2569,41,20	3271,111,20	40893,201,1	
# Incoming
865,(0, 10),108	973,(2, 30),21	994,(3, 70),42	1036,(6, 100),6	1042,(6, 170),21	1201,(12, 50),24	1225,(13, 90),15	1240,(13, 130),15	1381,(14, 70),24	1426,(14, 200),3	1447,(15, 50),21	1570,(8, 180),90	1660,(17, 140),6	1669,(9, 40),3	1792,(18, 110),3	1837,(0, 20),108	1945,(16, 80),42	2011,(18, 160),36	2047,(1, 60),3	2080,(19, 50),3	2212,(19, 200),3	2371,(11, 100),3	2467,(11, 120),9	2476,(11, 150),3	
757,(0, 9),108	865,(2, 29),3	868,(3, 69),3	871,(4, 39),9	898,(2, 99),3	904,(4, 89),27	940,(2, 119),21	1000,(5, 59),81	1147,(5, 79),72	1246,(12, 129),6	1252,(12, 159),3	1342,(10, 149),12	1414,(14, 149),12	1525,(8, 49),15	1540,(16, 169),3	1567,(8, 179),3	1594,(12, 189),60	1729,(0, 19),108	1843,(16, 109),15	1858,(17, 159),9	2053,(1, 79),3	2056,(15, 149),396	2464,(11, 119),3	2467,(20, 139),51	
649,(0, 8),108	757,(3, 38),9	766,(4, 28),3	769,(6, 38),3	802,(3, 148),27	1138,(2, 138),18	1195,(12, 28),6	1225,(12, 88),21	1267,(5, 158),15	1282,(13, 168),15	1330,(7, 78),36	1375,(7, 188),24	1399,(7, 198),6	1405,(10, 78),66	1471,(12, 98),30	1501,(14, 108),27	1528,(14, 118),3	1531,(14, 138),33	1564,(14, 168),6	1621,(0, 18),108	1849,(9, 118),216	2065,(20, 68),6	2110,(1, 128),18	2128,(1, 178),3	2131,(17, 68),231	2569,(19, 58),3	2572,(19, 88),135	2707,(19, 188),3	
541,(0, 7),108	808,(6, 127),3	817,(6, 177),33	901,(2, 107),39	988,(5, 37),12	1120,(5, 97),12	1156,(2, 177),24	1212,(13, 137),3	1258,(5, 147),9	1354,(10, 187),3	1357,(12, 177),84	1441,(14, 37),36	1513,(0, 17),108	1621,(6, 87),201	1822,(9, 57),27	1849,(14, 177),24	1873,(15, 37),117	1990,(16, 47),18	2008,(18, 27),3	2038,(1, 47),9	2047,(20, 197),12	2065,(9, 167),3	2068,(16, 77),57	2149,(1, 197),21	2233,(20, 187),72	2329,(11, 87),42	2371,(6, 117),37767	40138,(9, 147),225	40363,(15, 117),288	40651,(18, 67),219	
433,(0, 6),108	796,(4, 116),48	1209,(13, 126),3	1219,(5, 126),18	1255,(5, 146),3	1264,(12, 176),9	1273,(12, 186),24	1297,(13, 156),21	1324,(12, 196),3	1330,(10, 86),12	1405,(0, 16),108	1561,(8, 156),6	1627,(15, 186),12	1672,(9, 56),21	1780,(9, 136),3	1783,(9, 186),6	1789,(18, 46),3	1798,(17, 176),9	1867,(18, 166),9	1945,(1, 26),12	1965,(20, 26),3	1981,(20, 136),3	2050,(1, 76),3	2056,(1, 96),3	2131,(1, 196),18	2149,(20, 76),84	2236,(11, 36),12	2248,(19, 66),60	2323,(11, 86),6	2329,(20, 86),78	2407,(20, 176),42	2494,(11, 176),3	
325,(0, 5),108	772,(3, 145),30	811,(6, 135),3	829,(3, 165),12	841,(3, 185),3	871,(2, 55),15	1215,(13, 155),6	1297,(0, 15),108	1405,(7, 65),24	1477,(14, 155),15	1533,(16, 95),6	1540,(8, 85),6	1546,(16, 45),42	1644,(17, 35),3	1723,(9, 125),57	1807,(17, 195),6	1822,(16, 105),21	1843,(18, 55),24	1921,(18, 165),18	1966,(18, 185),15	2059,(1, 105),45	2104,(20, 175),21	2263,(11, 75),60	2323,(19, 25),126	2479,(11, 165),15	2494,(7, 185),1080	3574,(13, 45),780	4354,(13, 115),303	
217,(0, 4),108	766,(3, 114),6	772,(6, 64),3	775,(6, 94),6	1132,(5, 134),6	1189,(0, 14),108	1297,(2, 194),27	1324,(5, 154),33	1360,(13, 104),3	1372,(7, 124),3	1375,(13, 74),69	1444,(15, 24),3	1468,(15, 54),3	1486,(13, 184),27	1549,(8, 134),6	1641,(17, 24),3	1647,(17, 164),6	1660,(8, 184),120	1780,(15, 84),78	2077,(19, 34),3	2104,(1, 124),6	2152,(19, 64),12	2230,(19, 144),9	2248,(11, 44),9	2401,(11, 114),63	2497,(11, 194),15	2512,(12, 164),1173	3685,(15, 154),441	
109,(0, 3),108	769,(4, 63),24	793,(4, 113),3	802,(6, 123),6	844,(4, 143),6	850,(6, 153),36	1081,(0, 13),108	1237,(5, 133),18	1255,(12, 103),9	1327,(7, 73),3	1366,(14, 63),15	1428,(15, 153),3	1471,(15, 93),48	1537,(15, 83),90	1653,(17, 193),3	1957,(1, 43),81	2044,(20, 43),3	2071,(19, 33),6	2086,(19, 53),42	2128,(19, 63),24	2170,(11, 23),66	2236,(18, 133),297	
1,(0, 2),108	781,(6, 102),21	814,(6, 142),3	973,(0, 12),108	1081,(5, 92),39	1120,(7, 32),207	1327,(10, 52),3	1330,(13, 52),30	1366,(7, 82),6	1405,(14, 72),9	1425,(15, 72),3	1444,(13, 182),42	1546,(8, 112),3	1555,(8, 152),6	1570,(9, 32),99	1669,(17, 22),120	1789,(17, 62),9	1798,(18, 42),3	1801,(18, 122),3	1804,(18, 132),33	1858,(16, 172),18	1876,(18, 162),45	1968,(20, 92),9	1981,(18, 192),9	1990,(20, 42),54	2083,(19, 52),3	2164,(19, 72),45	2209,(19, 102),3	2257,(11, 52),6	2374,(11, 112),27	
868,(2, 51),3	871,(3, 111),12	883,(183, 201),3	886,(2, 61),12	898,(4, 71),6	904,(6, 61),6	910,(6, 111),18	928,(113, 201),3	931,(4, 181),3	934,(174, 201),3	937,(5, 21),51	988,(94, 201),3	991,(123, 201),3	994,(2, 91),144	1138,(5, 41),9	1147,(116, 201),3	1150,(143, 201),3	1180,(2, 181),15	1195,(4, 161),171	1366,(6, 71),66	1432,(7, 101),9	1441,(7, 171),12	1453,(7, 181),3	1456,(8, 31),69	1525,(145, 201),3	1528,(127, 201),3	1531,(142, 201),3	1534,(135, 201),3	1537,(9, 21),33	1570,(107, 201),3	1573,(10, 131),3	1576,(190, 201),3	1579,(170, 201),3	1582,(12, 151),12	1594,(97, 201),3	1597,(163, 201),3	1600,(137, 201),3	1603,(173, 201),3	1606,(126, 201),3	1609,(90, 201),3	1612,(146, 201),3	1615,(130, 201),3	1618,(103, 201),3	1621,(73, 201),3	1624,(104, 201),3	1627,(70, 201),3	1630,(153, 201),3	1633,(74, 201),3	1636,(54, 201),3	1639,(15, 191),3	1642,(65, 201),3	1645,(155, 201),3	1648,(93, 201),3	1651,(95, 201),3	1654,(82, 201),3	1657,(182, 201),3	1660,(134, 201),3	1663,(85, 201),3	1666,(152, 201),3	1669,(83, 201),3	1672,(24, 201),3	1675,(35, 201),3	1678,(193, 201),3	1681,(180, 201),3	1689,(32, 201),3	1693,(9, 81),3	1696,(9, 111),27	1723,(140, 201),3	1726,(40, 201),3	1780,(38, 201),3	1783,(148, 201),3	1786,(28, 201),3	1789,(29, 201),3	1792,(69, 201),3	1795,(39, 201),3	1798,(99, 201),3	1801,(89, 201),3	1804,(12, 71),141	1945,(158, 201),3	1948,(198, 201),3	1951,(78, 201),3	1954,(98, 201),3	1957,(108, 201),3	1960,(138, 201),3	1963,(168, 201),3	1966,(17, 111),3	1969,(157, 201),3	1972,(184, 201),3	1975,(22, 201),3	1978,(110, 201),3	1981,(62, 201),3	1984,(122, 201),3	1987,(106, 201),3	1990,(48, 201),3	1993,(125, 201),3	1996,(195, 201),3	1999,(132, 201),3	2002,(57, 201),3	2005,(84, 201),3	2008,(16, 141),12	2020,(16, 161),12	2032,(156, 201),3	2035,(17, 191),27	2062,(56, 201),3	2065,(186, 201),3	2068,(59, 201),3	2071,(13, 81),147	2218,(129, 201),3	2221,(169, 201),3	2224,(179, 201),3	2227,(189, 201),3	2230,(46, 201),3	2233,(172, 201),3	2236,(166, 201),3	2239,(19, 181),6	2245,(49, 201),3	2248,(162, 201),3	2251,(26, 201),3	2254,(92, 201),3	2257,(136, 201),3	2260,(192, 201),3	2263,(42, 201),3	2266,(43, 201),3	2269,(96, 201),3	2272,(33, 201),3	2275,(34, 201),3	2278,(124, 201),3	2281,(53, 201),3	2284,(196, 201),3	2287,(63, 201),3	2290,(64, 201),3	2293,(72, 201),3	2296,(102, 201),3	2299,(76, 201),3	2302,(23, 201),3	2305,(30, 201),3	2308,(199, 201),3	2311,(109, 201),3	2314,(159, 201),3	2317,(80, 201),3	2320,(160, 201),3	2323,(60, 201),3	2326,(50, 201),3	2329,(144, 201),3	2332,(36, 201),3	2335,(44, 201),3	2338,(52, 201),3	2341,(66, 201),3	2362,(177, 201),3	2365,(37, 201),3	2368,(27, 201),3	2371,(47, 201),3	2374,(167, 201),3	2377,(77, 201),3	2380,(197, 201),3	2383,(187, 201),3	2391,(87, 201),3	2421,(112, 201),3	2449,(19, 41),120	2569,(55, 201),3	2572,(20, 111),699	3271,(79, 201),3	3274,(118, 201),3	3277,(105, 201),3	3280,(175, 201),3	3283,(128, 201),3	3286,(178, 201),3	3289,(200, 201),3	3292,(75, 201),3	3295,(68, 201),3	3298,(100, 201),3	3301,(25, 201),3	3304,(149, 201),3	3307,(114, 201),3	3310,(119, 201),3	3313,(120, 201),3	3316,(165, 201),3	3319,(150, 201),3	3322,(194, 201),3	3325,(139, 201),3	3328,(133, 201),3	3331,(58, 201),3	3334,(88, 201),3	3337,(188, 201),3	3594,(185, 201),3	3705,(164, 201),3	4146,(154, 201),3	4374,(45, 201),3	4677,(115, 201),3	40138,(86, 201),3	40141,(176, 201),3	40383,(147, 201),3	40671,(117, 201),3	40890,(67, 201),3	
# Outgoing
1327,(10, 52),3	1330,(10, 86),12	1342,(10, 149),12	1354,(10, 187),3	1405,(10, 78),66	1573,(10, 131),3	1576,(190, 201),3	1579,(170, 201),3	1609,(90, 201),3	1615,(130, 201),3	1627,(70, 201),3	1681,(180, 201),3	1723,(140, 201),3	1726,(40, 201),3	1965,(20, 26),3	1968,(20, 92),9	1978,(110, 201),3	1981,(20, 136),3	1990,(20, 42),54	2044,(20, 43),3	2047,(20, 197),12	2065,(20, 68),6	2104,(20, 175),21	2149,(20, 76),84	2233,(20, 187),72	2305,(30, 201),3	2317,(80, 201),3	2320,(160, 201),3	2323,(60, 201),3	2326,(50, 201),3	2329,(20, 86),78	2407,(20, 176),42	2467,(20, 139),51	2572,(20, 111),699	3289,(200, 201),3	3298,(100, 201),3	3313,(120, 201),3	3319,(150, 201),3	
1537,(9, 21),33	1570,(9, 32),99	1669,(9, 40),3	1672,(9, 56),21	1693,(9, 81),3	1696,(9, 111),27	1723,(9, 125),57	1780,(9, 136),3	1783,(9, 186),6	1789,(29, 201),3	1792,(69, 201),3	1795,(39, 201),3	1798,(99, 201),3	1801,(89, 201),3	1822,(9, 57),27	1849,(9, 118),216	2065,(9, 167),3	2068,(59, 201),3	2071,(19, 33),6	2077,(19, 34),3	2080,(19, 50),3	2083,(19, 52),3	2086,(19, 53),42	2128,(19, 63),24	2152,(19, 64),12	2164,(19, 72),45	2209,(19, 102),3	2212,(19, 200),3	2218,(129, 201),3	2221,(169, 201),3	2224,(179, 201),3	2227,(189, 201),3	2230,(19, 144),9	2239,(19, 181),6	2245,(49, 201),3	2248,(19, 66),60	2308,(199, 201),3	2311,(109, 201),3	2314,(159, 201),3	2323,(19, 25),126	2449,(19, 41),120	2569,(19, 58),3	2572,(19, 88),135	2707,(19, 188),3	3271,(79, 201),3	3304,(149, 201),3	3310,(119, 201),3	3325,(139, 201),3	40138,(9, 147),225	
1456,(8, 31),69	1525,(8, 49),15	1540,(8, 85),6	1546,(8, 112),3	1549,(8, 134),6	1555,(8, 152),6	1561,(8, 156),6	1567,(8, 179),3	1570,(8, 180),90	1660,(8, 184),120	1780,(38, 201),3	1783,(148, 201),3	1786,(28, 201),3	1789,(18, 46),3	1792,(18, 110),3	1798,(18, 42),3	1801,(18, 122),3	1804,(18, 132),33	1843,(18, 55),24	1867,(18, 166),9	1876,(18, 162),45	1921,(18, 165),18	1945,(158, 201),3	1948,(198, 201),3	1951,(78, 201),3	1954,(98, 201),3	1957,(108, 201),3	1960,(138, 201),3	1963,(168, 201),3	1966,(18, 185),15	1981,(18, 192),9	1990,(48, 201),3	2008,(18, 27),3	2011,(18, 160),36	2236,(18, 133),297	3274,(118, 201),3	3283,(128, 201),3	3286,(178, 201),3	3295,(68, 201),3	3331,(58, 201),3	3334,(88, 201),3	3337,(188, 201),3	40651,(18, 67),219	
1120,(7, 32),207	1327,(7, 73),3	1330,(7, 78),36	1366,(7, 82),6	1372,(7, 124),3	1375,(7, 188),24	1399,(7, 198),6	1405,(7, 65),24	1432,(7, 101),9	1441,(7, 171),12	1453,(7, 181),3	1528,(127, 201),3	1570,(107, 201),3	1594,(97, 201),3	1600,(137, 201),3	1641,(17, 24),3	1644,(17, 35),3	1647,(17, 164),6	1653,(17, 193),3	1660,(17, 140),6	1669,(17, 22),120	1789,(17, 62),9	1798,(17, 176),9	1807,(17, 195),6	1858,(17, 159),9	1966,(17, 111),3	1969,(157, 201),3	2002,(57, 201),3	2035,(17, 191),27	2131,(17, 68),231	2362,(177, 201),3	2365,(37, 201),3	2368,(27, 201),3	2371,(47, 201),3	2374,(167, 201),3	2377,(77, 201),3	2380,(197, 201),3	2383,(187, 201),3	2391,(87, 201),3	2494,(7, 185),1080	40383,(147, 201),3	40671,(117, 201),3	40890,(67, 201),3	
769,(6, 38),3	772,(6, 64),3	775,(6, 94),6	781,(6, 102),21	802,(6, 123),6	808,(6, 127),3	811,(6, 135),3	814,(6, 142),3	817,(6, 177),33	850,(6, 153),36	904,(6, 61),6	910,(6, 111),18	1036,(6, 100),6	1042,(6, 170),21	1147,(116, 201),3	1366,(6, 71),66	1533,(16, 95),6	1540,(16, 169),3	1546,(16, 45),42	1606,(126, 201),3	1612,(146, 201),3	1621,(6, 87),201	1822,(16, 105),21	1843,(16, 109),15	1858,(16, 172),18	1945,(16, 80),42	1987,(106, 201),3	1990,(16, 47),18	2008,(16, 141),12	2020,(16, 161),12	2032,(156, 201),3	2062,(56, 201),3	2065,(186, 201),3	2068,(16, 77),57	2230,(46, 201),3	2236,(166, 201),3	2251,(26, 201),3	2257,(136, 201),3	2269,(96, 201),3	2284,(196, 201),3	2299,(76, 201),3	2332,(36, 201),3	2341,(66, 201),3	2371,(6, 117),37767	40138,(86, 201),3	40141,(176, 201),3	
937,(5, 21),51	988,(5, 37),12	1000,(5, 59),81	1081,(5, 92),39	1120,(5, 97),12	1132,(5, 134),6	1138,(5, 41),9	1147,(5, 79),72	1219,(5, 126),18	1237,(5, 133),18	1255,(5, 146),3	1258,(5, 147),9	1267,(5, 158),15	1324,(5, 154),33	1425,(15, 72),3	1428,(15, 153),3	1444,(15, 24),3	1447,(15, 50),21	1468,(15, 54),3	1471,(15, 93),48	1525,(145, 201),3	1534,(135, 201),3	1537,(15, 83),90	1627,(15, 186),12	1639,(15, 191),3	1642,(65, 201),3	1645,(155, 201),3	1651,(95, 201),3	1663,(85, 201),3	1675,(35, 201),3	1780,(15, 84),78	1873,(15, 37),117	1993,(125, 201),3	1996,(195, 201),3	2056,(15, 149),396	2569,(55, 201),3	3277,(105, 201),3	3280,(175, 201),3	3292,(75, 201),3	3301,(25, 201),3	3316,(165, 201),3	3594,(185, 201),3	3685,(15, 154),441	4374,(45, 201),3	4677,(115, 201),3	40363,(15, 117),288	
766,(4, 28),3	769,(4, 63),24	793,(4, 113),3	796,(4, 116),48	844,(4, 143),6	871,(4, 39),9	898,(4, 71),6	904,(4, 89),27	931,(4, 181),3	934,(174, 201),3	988,(94, 201),3	1195,(4, 161),171	1366,(14, 63),15	1381,(14, 70),24	1405,(14, 72),9	1414,(14, 149),12	1426,(14, 200),3	1441,(14, 37),36	1477,(14, 155),15	1501,(14, 108),27	1528,(14, 118),3	1531,(14, 138),33	1564,(14, 168),6	1624,(104, 201),3	1633,(74, 201),3	1636,(54, 201),3	1660,(134, 201),3	1672,(24, 201),3	1849,(14, 177),24	1972,(184, 201),3	2005,(84, 201),3	2275,(34, 201),3	2278,(124, 201),3	2290,(64, 201),3	2329,(144, 201),3	2335,(44, 201),3	3307,(114, 201),3	3322,(194, 201),3	3705,(164, 201),3	4146,(154, 201),3	
757,(3, 38),9	766,(3, 114),6	772,(3, 145),30	802,(3, 148),27	829,(3, 165),12	841,(3, 185),3	868,(3, 69),3	871,(3, 111),12	883,(183, 201),3	928,(113, 201),3	991,(123, 201),3	994,(3, 70),42	1150,(143, 201),3	1209,(13, 126),3	1212,(13, 137),3	1215,(13, 155),6	1225,(13, 90),15	1240,(13, 130),15	1282,(13, 168),15	1297,(13, 156),21	1330,(13, 52),30	1360,(13, 104),3	1375,(13, 74),69	1444,(13, 182),42	1486,(13, 184),27	1597,(163, 201),3	1603,(173, 201),3	1618,(103, 201),3	1621,(73, 201),3	1630,(153, 201),3	1648,(93, 201),3	1669,(83, 201),3	1678,(193, 201),3	2071,(13, 81),147	2266,(43, 201),3	2272,(33, 201),3	2281,(53, 201),3	2287,(63, 201),3	2302,(23, 201),3	3328,(133, 201),3	3574,(13, 45),780	4354,(13, 115),303	
865,(2, 29),3	868,(2, 51),3	871,(2, 55),15	886,(2, 61),12	898,(2, 99),3	901,(2, 107),39	940,(2, 119),21	973,(2, 30),21	994,(2, 91),144	1138,(2, 138),18	1156,(2, 177),24	1180,(2, 181),15	1195,(12, 28),6	1201,(12, 50),24	1225,(12, 88),21	1246,(12, 129),6	1252,(12, 159),3	1255,(12, 103),9	1264,(12, 176),9	1273,(12, 186),24	1297,(2, 194),27	1324,(12, 196),3	1357,(12, 177),84	1471,(12, 98),30	1531,(142, 201),3	1582,(12, 151),12	1594,(12, 189),60	1654,(82, 201),3	1657,(182, 201),3	1666,(152, 201),3	1689,(32, 201),3	1804,(12, 71),141	1975,(22, 201),3	1981,(62, 201),3	1984,(122, 201),3	1999,(132, 201),3	2233,(172, 201),3	2248,(162, 201),3	2254,(92, 201),3	2260,(192, 201),3	2263,(42, 201),3	2293,(72, 201),3	2296,(102, 201),3	2338,(52, 201),3	2421,(112, 201),3	2512,(12, 164),1173	
1,(0, 2),108	109,(0, 3),108	217,(0, 4),108	325,(0, 5),108	433,(0, 6),108	541,(0, 7),108	649,(0, 8),108	757,(0, 9),108	865,(0, 10),108	973,(0, 12),108	1081,(0, 13),108	1189,(0, 14),108	1297,(0, 15),108	1405,(0, 16),108	1513,(0, 17),108	1621,(0, 18),108	1729,(0, 19),108	1837,(0, 20),108	1945,(1, 26),12	1957,(1, 43),81	2038,(1, 47),9	2047,(1, 60),3	2050,(1, 76),3	2053,(1, 79),3	2056,(1, 96),3	2059,(1, 105),45	2104,(1, 124),6	2110,(1, 128),18	2128,(1, 178),3	2131,(1, 196),18	2149,(1, 197),21	2170,(11, 23),66	2236,(11, 36),12	2248,(11, 44),9	2257,(11, 52),6	2263,(11, 75),60	2323,(11, 86),6	2329,(11, 87),42	2371,(11, 100),3	2374,(11, 112),27	2401,(11, 114),63	2464,(11, 119),3	2467,(11, 120),9	2476,(11, 150),3	2479,(11, 165),15	2494,(11, 176),3	2497,(11, 194),15	
