1446
# CPU
0,0,1	1,10,24	25,98,24	49,5,24	73,88,24	97,111,24	121,85,24	145,114,24	169,8,24	193,116,24	217,93,24	241,67,24	265,78,24	289,21,24	313,65,24	337,12,24	361,80,24	385,83,24	409,31,24	433,45,24	457,92,24	481,7,24	505,41,24	529,15,24	553,20,24	577,66,24	601,4,24	625,32,24	649,56,24	673,75,24	697,17,24	721,39,24	745,2,24	769,120,24	793,119,24	817,30,24	841,118,24	865,22,24	889,106,24	913,72,24	937,63,24	961,86,24	985,109,24	1009,18,24	1033,70,24	1057,77,24	1081,61,24	1105,112,24	1129,42,24	1153,48,24	1177,113,24	1201,115,24	1225,62,24	1249,96,24	1273,108,24	1297,29,24	1321,104,24	1345,57,24	1369,27,24	1393,102,24	1417,64,24	
3,3,24	27,1,24	51,28,24	75,105,24	99,9,24	123,74,24	147,19,24	171,79,24	195,23,24	219,40,24	243,95,24	267,84,24	291,103,24	315,6,24	339,55,24	363,47,24	387,59,24	411,117,24	435,13,24	459,58,24	483,51,24	507,35,24	531,11,24	555,89,24	579,90,24	603,54,24	627,50,24	651,43,24	675,100,24	699,107,24	723,94,24	747,71,24	771,76,24	795,33,24	819,36,24	843,110,24	867,91,24	891,60,24	915,82,24	939,101,24	963,68,24	987,73,24	1011,34,24	1035,24,24	1059,69,24	1083,87,24	1107,81,24	1131,49,24	1155,25,24	1179,97,24	1203,52,24	1227,26,24	1251,46,24	1275,53,24	1299,16,24	1323,99,24	1347,38,24	1371,14,24	1395,37,24	1419,44,24	1445,121,1	
# Incoming
123,(9, 86),2	125,(3, 18),2	127,(3, 70),2	129,(9, 112),4	133,(1, 42),4	137,(1, 113),6	143,(9, 115),6	149,(3, 62),2	151,(1, 62),10	161,(3, 108),14	175,(9, 29),18	193,(3, 104),6	199,(1, 104),16	339,(6, 109),2	341,(6, 77),2	343,(6, 57),32	375,(6, 102),36	555,(11, 61),4	559,(11, 48),4	563,(11, 96),12	575,(11, 27),36	611,(1, 64),148	
1,(0, 3),2	3,(0, 1),2	5,(0, 9),2	7,(0, 6),2	9,(0, 11),2	25,(10, 43),2	27,(10, 94),2	29,(10, 97),2	31,(10, 52),14	45,(10, 46),14	59,(10, 53),2	61,(98, 121),4	73,(5, 103),2	75,(5, 13),2	77,(5, 33),2	79,(5, 110),4	83,(5, 73),6	89,(5, 25),12	101,(5, 26),16	117,(5, 16),8	125,(5, 38),2	127,(5, 14),2	129,(88, 121),4	133,(111, 121),4	145,(85, 121),4	169,(114, 121),4	193,(8, 84),2	195,(8, 36),4	199,(8, 91),2	201,(8, 101),4	205,(8, 24),6	211,(8, 69),8	219,(8, 97),4	223,(8, 53),14	237,(8, 44),14	251,(116, 121),4	255,(93, 121),4	265,(67, 121),4	289,(78, 121),4	313,(21, 121),4	337,(65, 121),4	361,(12, 58),2	363,(12, 51),2	365,(12, 82),4	369,(12, 99),28	397,(80, 121),4	409,(83, 121),4	433,(31, 121),4	457,(45, 121),4	481,(92, 121),4	505,(7, 35),2	507,(7, 100),2	509,(7, 71),2	511,(7, 81),8	519,(7, 49),10	529,(7, 97),8	537,(7, 99),2	539,(7, 38),38	577,(41, 121),4	581,(15, 121),4	585,(20, 121),4	601,(66, 121),4	625,(4, 107),2	627,(4, 71),2	629,(4, 33),2	631,(4, 91),2	633,(4, 34),6	639,(4, 16),14	653,(7, 14),64	717,(32, 121),4	721,(56, 121),4	725,(75, 121),4	729,(17, 121),4	745,(39, 121),4	769,(2, 76),2	771,(2, 60),4	775,(2, 68),6	781,(2, 87),8	789,(2, 52),2	791,(2, 46),2	793,(4, 37),70	863,(7, 44),326	1189,(120, 121),4	1193,(119, 121),4	1197,(30, 121),4	1201,(118, 121),4	1205,(22, 121),4	1209,(106, 121),4	1213,(72, 121),4	1217,(63, 121),4	1221,(86, 121),4	1225,(109, 121),4	1229,(18, 121),4	1233,(70, 121),4	1237,(77, 121),4	1241,(61, 121),4	1245,(112, 121),4	1249,(42, 121),4	1253,(48, 121),4	1257,(113, 121),4	1261,(115, 121),4	1265,(62, 121),4	1273,(96, 121),4	1297,(108, 121),4	1321,(29, 121),4	1345,(104, 121),4	1369,(57, 121),4	1393,(27, 121),4	1417,(102, 121),4	1441,(64, 121),4	
# Outgoing
1,(0, 3),2	3,(0, 1),2	5,(0, 9),2	7,(0, 6),2	9,(0, 11),2	25,(10, 43),2	27,(10, 94),2	29,(10, 97),2	31,(10, 52),14	45,(10, 46),14	59,(10, 53),2	61,(98, 121),4	73,(5, 103),2	75,(5, 13),2	77,(5, 33),2	79,(5, 110),4	83,(5, 73),6	89,(5, 25),12	101,(5, 26),16	117,(5, 16),8	125,(5, 38),2	127,(5, 14),2	129,(88, 121),4	133,(111, 121),4	145,(85, 121),4	169,(114, 121),4	193,(8, 84),2	195,(8, 36),4	199,(8, 91),2	201,(8, 101),4	205,(8, 24),6	211,(8, 69),8	219,(8, 97),4	223,(8, 53),14	237,(8, 44),14	251,(116, 121),4	255,(93, 121),4	265,(67, 121),4	289,(78, 121),4	313,(21, 121),4	337,(65, 121),4	361,(12, 58),2	363,(12, 51),2	365,(12, 82),4	369,(12, 99),28	397,(80, 121),4	409,(83, 121),4	433,(31, 121),4	457,(45, 121),4	481,(92, 121),4	505,(7, 35),2	507,(7, 100),2	509,(7, 71),2	511,(7, 81),8	519,(7, 49),10	529,(7, 97),8	537,(7, 99),2	539,(7, 38),38	577,(41, 121),4	581,(15, 121),4	585,(20, 121),4	601,(66, 121),4	625,(4, 107),2	627,(4, 71),2	629,(4, 33),2	631,(4, 91),2	633,(4, 34),6	639,(4, 16),14	653,(7, 14),64	717,(32, 121),4	721,(56, 121),4	725,(75, 121),4	729,(17, 121),4	745,(39, 121),4	769,(2, 76),2	771,(2, 60),4	775,(2, 68),6	781,(2, 87),8	789,(2, 52),2	791,(2, 46),2	793,(4, 37),70	863,(7, 44),326	1189,(120, 121),4	1193,(119, 121),4	1197,(30, 121),4	1201,(118, 121),4	1205,(22, 121),4	1209,(106, 121),4	1213,(72, 121),4	1217,(63, 121),4	1221,(86, 121),4	1225,(109, 121),4	1229,(18, 121),4	1233,(70, 121),4	1237,(77, 121),4	1241,(61, 121),4	1245,(112, 121),4	1249,(42, 121),4	1253,(48, 121),4	1257,(113, 121),4	1261,(115, 121),4	1265,(62, 121),4	1273,(96, 121),4	1297,(108, 121),4	1321,(29, 121),4	1345,(104, 121),4	1369,(57, 121),4	1393,(27, 121),4	1417,(102, 121),4	1441,(64, 121),4	
123,(9, 86),2	125,(3, 18),2	127,(3, 70),2	129,(9, 112),4	133,(1, 42),4	137,(1, 113),6	143,(9, 115),6	149,(3, 62),2	151,(1, 62),10	161,(3, 108),14	175,(9, 29),18	193,(3, 104),6	199,(1, 104),16	339,(6, 109),2	341,(6, 77),2	343,(6, 57),32	375,(6, 102),36	555,(11, 61),4	559,(11, 48),4	563,(11, 96),12	575,(11, 27),36	611,(1, 64),148	
