4346
# CPU
241,5,1	242,25,1	243,35,1	244,80,1	280,30,1	304,65,1	334,45,1	361,12,1	379,20,1	433,70,1	439,40,1	499,75,1	559,50,1	634,15,1	745,60,1	748,55,1	
181,4,1	182,19,1	193,49,1	211,64,1	289,44,1	298,59,1	370,10,1	373,14,1	433,24,1	436,39,1	451,34,1	736,74,1	739,79,1	745,29,1	1537,54,1	4111,69,1	
121,3,1	361,8,1	362,23,1	363,38,1	364,58,1	365,33,1	421,48,1	466,68,1	544,28,1	547,73,1	550,43,1	562,53,1	742,18,1	757,63,1	838,78,1	1834,13,1	
61,2,1	62,67,1	146,32,1	164,42,1	301,7,1	302,11,1	303,17,1	365,37,1	421,22,1	499,47,1	544,52,1	604,27,1	613,57,1	751,62,1	754,72,1	787,77,1	
0,0,1	1,1,1	2,6,1	3,51,1	4,56,1	286,41,1	289,21,1	298,61,1	364,66,1	517,76,1	562,46,1	616,16,1	622,31,1	769,9,1	811,26,1	1882,36,1	1933,71,1	4345,81,1	
# Incoming
181,(0, 5),60	241,(2, 30),39	298,(2, 65),6	304,(3, 45),30	334,(4, 12),27	370,(1, 20),9	379,(3, 70),54	436,(1, 40),3	451,(8, 75),48	550,(7, 50),9	598,(7, 15),36	634,(7, 60),111	745,(6, 55),3	
121,(0, 4),60	181,(3, 49),12	193,(3, 64),18	286,(2, 44),3	289,(2, 59),9	361,(1, 10),9	370,(8, 14),3	421,(1, 24),12	433,(1, 39),3	436,(8, 34),15	547,(1, 74),189	736,(1, 79),3	742,(6, 29),3	745,(5, 54),792	1537,(5, 69),2574	
61,(0, 3),60	301,(0, 8),60	361,(4, 33),3	364,(5, 48),57	421,(5, 68),45	535,(7, 28),9	544,(1, 73),3	547,(7, 43),3	559,(7, 53),3	739,(6, 18),3	745,(7, 63),12	787,(6, 78),51	838,(7, 13),996	
1,(0, 2),60	122,(3, 32),24	146,(3, 42),18	241,(0, 7),60	362,(8, 37),3	379,(1, 22),42	439,(1, 47),60	499,(1, 52),45	562,(8, 27),42	604,(8, 57),9	748,(6, 62),3	751,(6, 72),3	754,(6, 77),33	
280,(2, 41),6	286,(5, 21),3	289,(5, 61),9	304,(2, 66),60	364,(2, 76),153	517,(67, 81),18	535,(3, 46),27	562,(32, 81),18	580,(42, 81),18	598,(4, 16),18	616,(4, 31),6	622,(19, 81),18	640,(49, 81),18	658,(64, 81),18	676,(25, 81),18	694,(35, 81),18	712,(80, 81),18	730,(44, 81),18	748,(59, 81),18	766,(7, 9),3	769,(7, 26),42	811,(11, 81),18	829,(23, 81),18	847,(38, 81),18	865,(58, 81),18	883,(33, 81),18	901,(10, 81),18	919,(14, 81),18	937,(48, 81),18	955,(24, 81),18	973,(39, 81),18	991,(34, 81),18	1009,(68, 81),18	1027,(28, 81),18	1045,(73, 81),18	1063,(43, 81),18	1081,(53, 81),18	1099,(74, 81),18	1117,(79, 81),18	1135,(18, 81),18	1153,(29, 81),18	1171,(63, 81),18	1189,(78, 81),18	1538,(54, 81),18	1834,(7, 36),48	1882,(7, 71),51	1933,(17, 81),18	1951,(37, 81),18	1969,(22, 81),18	1987,(47, 81),18	2005,(52, 81),18	2023,(27, 81),18	2041,(57, 81),18	2059,(62, 81),18	2077,(72, 81),18	2095,(77, 81),18	2113,(13, 81),18	4111,(30, 81),18	4129,(65, 81),18	4147,(45, 81),18	4165,(12, 81),18	4183,(20, 81),18	4201,(70, 81),18	4219,(40, 81),18	4237,(75, 81),18	4255,(50, 81),18	4273,(15, 81),18	4291,(60, 81),18	4309,(55, 81),18	4327,(69, 81),18	
# Outgoing
286,(5, 21),3	289,(5, 61),9	364,(5, 48),57	421,(5, 68),45	676,(25, 81),18	694,(35, 81),18	712,(80, 81),18	745,(5, 54),792	1537,(5, 69),2574	4111,(30, 81),18	4129,(65, 81),18	4147,(45, 81),18	4165,(12, 81),18	4183,(20, 81),18	4201,(70, 81),18	4219,(40, 81),18	4237,(75, 81),18	4255,(50, 81),18	4273,(15, 81),18	4291,(60, 81),18	4309,(55, 81),18	
334,(4, 12),27	361,(4, 33),3	598,(4, 16),18	616,(4, 31),6	622,(19, 81),18	640,(49, 81),18	658,(64, 81),18	730,(44, 81),18	748,(59, 81),18	901,(10, 81),18	919,(14, 81),18	955,(24, 81),18	973,(39, 81),18	991,(34, 81),18	1099,(74, 81),18	1117,(79, 81),18	1153,(29, 81),18	1538,(54, 81),18	4327,(69, 81),18	
122,(3, 32),24	146,(3, 42),18	181,(3, 49),12	193,(3, 64),18	304,(3, 45),30	362,(8, 37),3	370,(8, 14),3	379,(3, 70),54	436,(8, 34),15	451,(8, 75),48	535,(3, 46),27	562,(8, 27),42	604,(8, 57),9	829,(23, 81),18	847,(38, 81),18	865,(58, 81),18	883,(33, 81),18	937,(48, 81),18	1009,(68, 81),18	1027,(28, 81),18	1045,(73, 81),18	1063,(43, 81),18	1081,(53, 81),18	1135,(18, 81),18	1171,(63, 81),18	1189,(78, 81),18	2113,(13, 81),18	
241,(2, 30),39	280,(2, 41),6	286,(2, 44),3	289,(2, 59),9	298,(2, 65),6	304,(2, 66),60	364,(2, 76),153	517,(67, 81),18	535,(7, 28),9	547,(7, 43),3	550,(7, 50),9	559,(7, 53),3	562,(32, 81),18	580,(42, 81),18	598,(7, 15),36	634,(7, 60),111	745,(7, 63),12	766,(7, 9),3	769,(7, 26),42	811,(11, 81),18	838,(7, 13),996	1834,(7, 36),48	1882,(7, 71),51	1933,(17, 81),18	1951,(37, 81),18	1969,(22, 81),18	1987,(47, 81),18	2005,(52, 81),18	2023,(27, 81),18	2041,(57, 81),18	2059,(62, 81),18	2077,(72, 81),18	2095,(77, 81),18	
1,(0, 2),60	61,(0, 3),60	121,(0, 4),60	181,(0, 5),60	241,(0, 7),60	301,(0, 8),60	361,(1, 10),9	370,(1, 20),9	379,(1, 22),42	421,(1, 24),12	433,(1, 39),3	436,(1, 40),3	439,(1, 47),60	499,(1, 52),45	544,(1, 73),3	547,(1, 74),189	736,(1, 79),3	739,(6, 18),3	742,(6, 29),3	745,(6, 55),3	748,(6, 62),3	751,(6, 72),3	754,(6, 77),33	787,(6, 78),51	
