192
# CPU
0,0,1	1,15,1	2,2,1	3,93,1	4,3,1	5,198,1	6,94,1	7,73,1	8,155,1	9,8,1	10,150,1	11,50,1	12,4,1	13,12,1	14,139,1	15,88,1	16,51,1	17,170,1	18,14,1	19,37,1	20,175,1	21,16,1	22,153,1	23,57,1	24,179,1	25,48,1	26,17,1	27,60,1	28,95,1	29,99,1	30,141,1	31,68,1	32,18,1	33,134,1	34,169,1	35,116,1	36,199,1	37,58,1	38,5,1	39,135,1	40,42,1	41,76,1	42,157,1	43,167,1	44,25,1	45,83,1	46,166,1	47,7,1	48,23,1	49,31,1	50,92,1	51,121,1	52,69,1	53,11,1	54,45,1	55,159,1	56,197,1	57,86,1	58,138,1	59,54,1	60,145,1	61,181,1	62,151,1	63,174,1	64,34,1	65,65,1	66,64,1	67,182,1	68,1,1	69,184,1	70,36,1	71,53,1	72,72,1	73,107,1	74,163,1	75,43,1	76,110,1	77,112,1	78,85,1	79,132,1	80,123,1	81,19,1	82,122,1	83,100,1	84,104,1	85,75,1	86,119,1	87,62,1	88,87,1	89,39,1	90,71,1	91,156,1	92,9,1	93,172,1	94,140,1	95,195,1	96,97,1	97,124,1	98,186,1	99,74,1	100,200,1	101,173,1	102,128,1	103,22,1	104,189,1	105,29,1	106,191,1	107,13,1	108,81,1	109,96,1	110,125,1	111,106,1	112,70,1	113,30,1	114,162,1	115,136,1	116,91,1	117,183,1	118,180,1	119,109,1	120,52,1	121,10,1	122,115,1	123,78,1	124,177,1	125,90,1	126,131,1	127,26,1	128,61,1	129,148,1	130,120,1	131,117,1	132,127,1	133,187,1	134,79,1	135,171,1	136,24,1	137,126,1	138,176,1	139,192,1	140,56,1	141,114,1	142,49,1	143,165,1	144,130,1	145,6,1	146,133,1	147,146,1	148,47,1	149,41,1	150,118,1	151,137,1	152,147,1	153,164,1	154,142,1	155,28,1	156,38,1	157,101,1	158,143,1	159,111,1	160,32,1	161,20,1	162,196,1	163,67,1	164,185,1	165,149,1	166,89,1	167,46,1	168,33,1	169,59,1	170,190,1	171,40,1	172,108,1	173,77,1	174,44,1	175,152,1	176,82,1	177,102,1	178,154,1	179,194,1	180,27,1	181,80,1	182,103,1	183,129,1	184,144,1	185,158,1	186,160,1	187,188,1	188,66,1	189,63,1	190,161,1	191,201,1	
24,98,1	56,55,1	70,105,1	83,193,1	96,178,1	109,21,1	110,113,1	111,84,1	123,35,1	
163,168,1	
# Incoming
25,(98, 201),5	57,(55, 201),5	71,(105, 201),5	84,(193, 201),5	97,(178, 201),5	110,(21, 201),5	115,(113, 201),5	120,(84, 201),5	125,(35, 201),5	164,(168, 201),5	
13,(4, 98),1	14,(8, 55),1	15,(2, 193),3	18,(4, 193),1	19,(2, 178),1	20,(4, 84),2	22,(16, 98),2	24,(4, 55),13	37,(16, 55),12	49,(5, 21),4	53,(3, 35),1	54,(11, 55),2	56,(18, 105),7	63,(11, 105),1	64,(11, 21),1	65,(8, 84),3	68,(7, 35),1	69,(1, 105),1	70,(16, 193),10	82,(19, 193),1	83,(1, 178),8	91,(19, 84),1	93,(9, 178),3	96,(17, 113),6	102,(9, 113),1	103,(17, 84),3	108,(13, 21),1	109,(13, 113),1	110,(13, 84),1	111,(8, 35),7	122,(10, 35),1	
123,(2, 168),10	146,(6, 168),6	162,(20, 168),1	
# Outgoing
13,(4, 98),1	14,(8, 55),1	15,(2, 193),3	18,(4, 193),1	19,(2, 178),1	20,(4, 84),2	22,(16, 98),2	24,(4, 55),13	37,(16, 55),12	49,(5, 21),4	53,(3, 35),1	54,(11, 55),2	56,(18, 105),7	63,(11, 105),1	64,(11, 21),1	65,(8, 84),3	68,(7, 35),1	69,(1, 105),1	70,(16, 193),10	82,(19, 193),1	83,(1, 178),8	91,(19, 84),1	93,(9, 178),3	96,(17, 113),6	102,(9, 113),1	103,(17, 84),3	108,(13, 21),1	109,(13, 113),1	110,(13, 84),1	111,(8, 35),7	122,(10, 35),1	123,(2, 168),10	146,(6, 168),6	162,(20, 168),1	
25,(98, 201),5	57,(55, 201),5	71,(105, 201),5	84,(193, 201),5	97,(178, 201),5	110,(21, 201),5	115,(113, 201),5	120,(84, 201),5	125,(35, 201),5	
164,(168, 201),5	
