808
# CPU
73,10,1	74,51,1	75,65,1	76,158,1	77,60,1	78,78,1	80,55,1	82,100,1	95,142,1	100,74,1	112,134,1	117,43,1	118,45,1	131,182,1	132,111,1	137,114,1	145,20,1	146,108,1	147,125,1	148,150,1	149,177,1	150,136,1	151,121,1	155,172,1	159,127,1	160,83,1	166,90,1	172,193,1	183,164,1	189,94,1	205,138,1	212,146,1	233,198,1	281,117,1	446,154,1	467,188,1	
65,9,1	66,49,1	67,52,1	86,109,1	95,126,1	99,93,1	101,89,1	102,197,1	103,145,1	118,162,1	128,63,1	137,19,1	138,187,1	139,77,1	142,131,1	144,157,1	147,73,1	151,116,1	152,113,1	153,58,1	183,176,1	197,119,1	198,41,1	205,149,1	207,153,1	208,192,1	217,99,1	230,141,1	260,181,1	279,82,1	295,123,1	297,135,1	304,137,1	362,107,1	460,170,1	
57,8,1	74,48,1	77,88,1	101,124,1	104,68,1	111,186,1	129,18,1	130,104,1	131,180,1	153,62,1	155,98,1	164,92,1	165,102,1	174,169,1	175,152,1	194,196,1	199,76,1	201,81,1	210,122,1	233,133,1	245,143,1	254,128,1	261,161,1	272,118,1	273,39,1	274,47,1	276,148,1	278,156,1	285,57,1	303,103,1	316,115,1	354,175,1	358,191,1	
49,7,1	50,200,1	51,61,1	75,56,1	84,160,1	89,80,1	94,85,1	97,91,1	98,147,1	101,151,1	121,17,1	122,96,1	123,190,1	145,129,1	149,46,1	151,36,1	153,174,1	158,66,1	166,75,1	204,168,1	232,101,1	298,185,1	316,179,1	326,195,1	722,112,1	738,155,1	
41,6,1	42,97,1	62,194,1	75,84,1	81,165,1	97,173,1	113,16,1	114,35,1	129,199,1	132,79,1	143,159,1	149,38,1	174,184,1	191,178,1	223,132,1	244,54,1	261,86,1	286,105,1	290,53,1	322,189,1	807,201,1	
33,5,1	70,33,1	105,15,1	152,44,1	201,120,1	291,163,1	349,183,1	375,87,1	436,69,1	451,71,1	755,95,1	805,166,1	
25,4,1	41,28,1	85,67,1	97,14,1	98,72,1	118,34,1	203,144,1	276,70,1	323,106,1	513,171,1	
17,3,1	37,25,1	89,13,1	90,37,1	91,167,1	116,32,1	152,59,1	155,27,1	381,64,1	
9,2,1	66,31,1	81,12,1	82,50,1	100,30,1	143,42,1	148,24,1	149,23,1	427,140,1	501,139,1	
0,0,1	1,11,1	2,1,1	110,29,1	115,22,1	160,26,1	325,110,1	328,21,1	428,40,1	730,130,1	
# Incoming
65,(0, 10),8	73,(4, 51),1	74,(5, 60),1	75,(5, 78),1	76,(5, 138),1	77,(3, 127),1	78,(3, 146),1	79,(6, 55),1	81,(2, 100),1	84,(4, 172),2	86,(3, 142),9	95,(5, 74),5	100,(6, 45),7	107,(15, 94),1	111,(12, 134),1	116,(7, 43),1	117,(7, 45),1	118,(15, 114),7	125,(6, 182),6	131,(16, 111),1	132,(16, 114),5	137,(0, 20),8	145,(8, 108),1	146,(8, 136),3	149,(16, 121),2	151,(16, 172),4	155,(7, 127),4	159,(18, 83),1	160,(13, 90),6	166,(16, 193),6	182,(17, 164),1	183,(18, 94),6	199,(18, 138),6	211,(11, 146),1	212,(11, 198),21	279,(1, 117),2	427,(13, 154),19	460,(13, 188),7	
57,(0, 9),8	65,(2, 49),1	66,(2, 52),1	67,(2, 82),14	81,(3, 109),5	86,(4, 126),9	95,(6, 181),3	98,(10, 93),1	100,(5, 89),1	101,(13, 197),1	102,(2, 145),1	103,(4, 162),15	118,(10, 58),3	121,(13, 82),6	127,(15, 63),1	128,(15, 123),1	129,(0, 19),8	137,(14, 187),1	138,(15, 119),3	141,(15, 131),1	143,(8, 157),1	145,(12, 73),2	147,(12, 116),4	151,(20, 113),1	152,(11, 58),1	153,(2, 137),22	175,(8, 176),8	183,(14, 119),14	197,(18, 41),1	198,(18, 107),1	199,(15, 149),6	205,(18, 153),2	207,(20, 192),1	210,(11, 123),1	211,(18, 99),6	217,(20, 141),13	233,(15, 181),27	276,(1, 82),3	281,(1, 123),14	295,(1, 135),2	297,(1, 137),7	304,(2, 107),58	446,(13, 170),14	
49,(0, 8),8	57,(6, 39),1	58,(6, 103),1	70,(3, 48),4	75,(3, 88),2	82,(2, 124),19	101,(2, 133),1	102,(10, 68),2	106,(2, 186),5	111,(10, 161),3	115,(15, 92),1	118,(9, 62),1	121,(0, 18),8	129,(3, 62),24	153,(7, 98),2	155,(15, 191),3	158,(11, 81),5	163,(11, 92),1	164,(11, 102),1	165,(4, 169),9	174,(14, 152),1	175,(2, 196),19	194,(15, 76),5	199,(16, 81),2	201,(11, 122),9	210,(5, 133),23	233,(7, 143),12	245,(9, 128),9	254,(9, 161),7	261,(15, 118),11	272,(17, 39),1	273,(17, 47),1	274,(19, 148),2	276,(19, 156),2	278,(19, 175),4	282,(20, 57),3	290,(19, 103),13	303,(20, 115),13	349,(14, 175),5	354,(14, 191),4	
41,(0, 7),8	49,(5, 61),2	51,(5, 179),2	74,(10, 56),1	76,(4, 160),8	85,(10, 80),4	89,(10, 85),5	94,(10, 91),3	97,(13, 147),1	98,(13, 151),3	104,(12, 101),1	113,(0, 17),8	121,(2, 129),24	145,(9, 46),4	149,(8, 174),1	150,(20, 36),1	151,(12, 174),2	153,(11, 66),5	158,(16, 168),7	165,(18, 75),1	203,(9, 168),1	217,(18, 101),15	286,(12, 185),12	304,(1, 179),12	322,(1, 195),4	326,(6, 112),396	722,(13, 155),16	
33,(0, 6),8	53,(5, 194),9	71,(33, 201),1	74,(3, 84),1	75,(4, 159),1	79,(3, 165),2	95,(4, 173),2	97,(4, 178),5	102,(25, 201),1	103,(31, 201),1	104,(51, 201),1	105,(0, 16),8	113,(12, 35),1	114,(65, 201),1	115,(158, 201),1	116,(60, 201),1	117,(78, 201),1	118,(4, 199),11	129,(28, 201),1	130,(9, 79),2	132,(9, 132),1	133,(9, 189),1	134,(49, 201),1	135,(52, 201),1	136,(55, 201),1	137,(100, 201),1	138,(67, 201),1	139,(109, 201),1	140,(142, 201),1	141,(126, 201),1	142,(14, 159),1	143,(93, 201),1	144,(48, 201),1	145,(74, 201),1	146,(15, 38),3	149,(134, 201),1	150,(88, 201),1	151,(124, 201),1	152,(200, 201),1	153,(13, 54),7	160,(72, 201),1	161,(68, 201),1	162,(7, 184),12	174,(61, 201),1	175,(56, 201),1	176,(160, 201),1	177,(80, 201),1	178,(85, 201),1	179,(91, 201),1	180,(147, 201),1	181,(151, 201),1	182,(15, 178),9	191,(186, 201),1	192,(43, 201),1	193,(45, 201),1	194,(50, 201),1	195,(30, 201),1	196,(96, 201),1	197,(14, 132),26	223,(89, 201),1	224,(197, 201),1	225,(145, 201),1	226,(162, 201),1	227,(34, 201),1	228,(190, 201),1	229,(63, 201),1	230,(182, 201),1	231,(111, 201),1	232,(104, 201),1	233,(1, 54),11	244,(180, 201),1	245,(114, 201),1	246,(12, 86),15	261,(12, 105),25	286,(19, 53),4	290,(129, 201),1	291,(108, 201),1	292,(125, 201),1	293,(150, 201),1	294,(46, 201),1	295,(177, 201),1	296,(136, 201),1	297,(121, 201),1	298,(42, 201),1	299,(24, 201),1	300,(23, 201),1	301,(36, 201),1	302,(62, 201),1	303,(187, 201),1	304,(77, 201),1	305,(131, 201),1	306,(157, 201),1	307,(73, 201),1	308,(116, 201),1	309,(113, 201),1	310,(58, 201),1	311,(174, 201),1	312,(98, 201),1	313,(66, 201),1	314,(92, 201),1	315,(102, 201),1	316,(1, 189),6	322,(172, 201),1	323,(44, 201),1	324,(127, 201),1	325,(83, 201),1	326,(29, 201),1	327,(22, 201),1	328,(26, 201),1	329,(90, 201),1	330,(75, 201),1	331,(193, 201),1	332,(169, 201),1	333,(152, 201),1	334,(164, 201),1	335,(94, 201),1	336,(196, 201),1	337,(76, 201),1	338,(120, 201),1	339,(81, 201),1	340,(168, 201),1	341,(138, 201),1	342,(122, 201),1	343,(146, 201),1	344,(101, 201),1	345,(133, 201),1	346,(198, 201),1	347,(143, 201),1	348,(128, 201),1	349,(117, 201),1	350,(163, 201),1	351,(185, 201),1	352,(179, 201),1	353,(110, 201),1	354,(195, 201),1	355,(21, 201),1	356,(183, 201),1	358,(144, 201),1	359,(70, 201),1	360,(106, 201),1	375,(161, 201),1	376,(118, 201),1	377,(39, 201),1	378,(47, 201),1	379,(148, 201),1	380,(156, 201),1	381,(176, 201),1	382,(119, 201),1	383,(41, 201),1	384,(149, 201),1	385,(153, 201),1	386,(192, 201),1	387,(99, 201),1	388,(141, 201),1	389,(181, 201),1	390,(82, 201),1	391,(57, 201),1	392,(123, 201),1	393,(135, 201),1	394,(103, 201),1	395,(137, 201),1	396,(115, 201),1	397,(175, 201),1	398,(191, 201),1	399,(107, 201),1	400,(87, 201),1	429,(40, 201),1	437,(69, 201),1	447,(154, 201),1	452,(71, 201),1	461,(170, 201),1	467,(37, 201),1	468,(167, 201),1	469,(32, 201),1	470,(59, 201),1	471,(27, 201),1	472,(64, 201),1	473,(188, 201),1	513,(140, 201),1	514,(139, 201),1	515,(171, 201),1	730,(112, 201),1	731,(130, 201),1	739,(155, 201),1	756,(95, 201),1	806,(166, 201),1	
25,(0, 5),8	66,(3, 33),4	97,(0, 15),8	105,(2, 166),1	107,(6, 71),18	145,(11, 44),7	159,(7, 166),3	165,(11, 120),36	201,(2, 69),45	246,(4, 163),45	291,(4, 183),58	349,(8, 87),26	428,(12, 69),8	436,(12, 71),15	722,(16, 95),33	755,(16, 166),50	
17,(0, 4),8	37,(5, 28),4	75,(10, 67),10	89,(0, 14),8	110,(9, 34),8	149,(9, 144),54	244,(1, 70),32	276,(15, 106),47	451,(12, 171),62	
9,(0, 3),8	36,(5, 25),1	81,(0, 13),8	100,(7, 32),16	118,(7, 59),34	152,(18, 27),3	328,(19, 64),53	
1,(0, 2),8	25,(3, 31),41	73,(0, 12),8	81,(7, 30),19	100,(8, 42),43	143,(14, 24),5	148,(16, 23),1	166,(13, 140),261	427,(14, 139),74	
18,(3, 26),7	34,(5, 22),2	66,(9, 29),44	110,(15, 22),5	148,(14, 26),12	201,(16, 110),124	325,(19, 21),3	362,(12, 40),66	428,(17, 130),302	
# Outgoing
74,(10, 56),1	75,(10, 67),10	85,(10, 80),4	89,(10, 85),5	94,(10, 91),3	98,(10, 93),1	102,(10, 68),2	104,(51, 201),1	111,(10, 161),3	114,(65, 201),1	115,(158, 201),1	116,(60, 201),1	117,(78, 201),1	118,(10, 58),3	136,(55, 201),1	137,(100, 201),1	140,(142, 201),1	145,(74, 201),1	149,(134, 201),1	150,(20, 36),1	151,(20, 113),1	192,(43, 201),1	193,(45, 201),1	207,(20, 192),1	217,(20, 141),13	230,(182, 201),1	231,(111, 201),1	245,(114, 201),1	282,(20, 57),3	291,(108, 201),1	292,(125, 201),1	293,(150, 201),1	295,(177, 201),1	296,(136, 201),1	297,(121, 201),1	303,(20, 115),13	322,(172, 201),1	324,(127, 201),1	325,(83, 201),1	329,(90, 201),1	331,(193, 201),1	334,(164, 201),1	335,(94, 201),1	341,(138, 201),1	343,(146, 201),1	346,(198, 201),1	349,(117, 201),1	447,(154, 201),1	473,(188, 201),1	
66,(9, 29),44	110,(9, 34),8	118,(9, 62),1	130,(9, 79),2	132,(9, 132),1	133,(9, 189),1	134,(49, 201),1	135,(52, 201),1	139,(109, 201),1	141,(126, 201),1	143,(93, 201),1	145,(9, 46),4	149,(9, 144),54	203,(9, 168),1	223,(89, 201),1	224,(197, 201),1	225,(145, 201),1	226,(162, 201),1	229,(63, 201),1	245,(9, 128),9	254,(9, 161),7	274,(19, 148),2	276,(19, 156),2	278,(19, 175),4	286,(19, 53),4	290,(19, 103),13	303,(187, 201),1	304,(77, 201),1	305,(131, 201),1	306,(157, 201),1	307,(73, 201),1	308,(116, 201),1	309,(113, 201),1	310,(58, 201),1	325,(19, 21),3	328,(19, 64),53	381,(176, 201),1	382,(119, 201),1	383,(41, 201),1	384,(149, 201),1	385,(153, 201),1	386,(192, 201),1	387,(99, 201),1	388,(141, 201),1	389,(181, 201),1	390,(82, 201),1	392,(123, 201),1	393,(135, 201),1	395,(137, 201),1	399,(107, 201),1	461,(170, 201),1	
100,(8, 42),43	143,(8, 157),1	144,(48, 201),1	145,(8, 108),1	146,(8, 136),3	149,(8, 174),1	150,(88, 201),1	151,(124, 201),1	152,(18, 27),3	159,(18, 83),1	161,(68, 201),1	165,(18, 75),1	175,(8, 176),8	183,(18, 94),6	191,(186, 201),1	197,(18, 41),1	198,(18, 107),1	199,(18, 138),6	205,(18, 153),2	211,(18, 99),6	217,(18, 101),15	232,(104, 201),1	244,(180, 201),1	302,(62, 201),1	312,(98, 201),1	314,(92, 201),1	315,(102, 201),1	332,(169, 201),1	333,(152, 201),1	336,(196, 201),1	337,(76, 201),1	339,(81, 201),1	342,(122, 201),1	345,(133, 201),1	347,(143, 201),1	348,(128, 201),1	349,(8, 87),26	375,(161, 201),1	376,(118, 201),1	377,(39, 201),1	378,(47, 201),1	379,(148, 201),1	380,(156, 201),1	391,(57, 201),1	394,(103, 201),1	396,(115, 201),1	397,(175, 201),1	398,(191, 201),1	
81,(7, 30),19	100,(7, 32),16	116,(7, 43),1	117,(7, 45),1	118,(7, 59),34	152,(200, 201),1	153,(7, 98),2	155,(7, 127),4	159,(7, 166),3	162,(7, 184),12	174,(61, 201),1	175,(56, 201),1	176,(160, 201),1	177,(80, 201),1	178,(85, 201),1	179,(91, 201),1	180,(147, 201),1	181,(151, 201),1	182,(17, 164),1	196,(96, 201),1	228,(190, 201),1	233,(7, 143),12	272,(17, 39),1	273,(17, 47),1	290,(129, 201),1	294,(46, 201),1	301,(36, 201),1	311,(174, 201),1	313,(66, 201),1	330,(75, 201),1	340,(168, 201),1	344,(101, 201),1	351,(185, 201),1	352,(179, 201),1	354,(195, 201),1	428,(17, 130),302	730,(112, 201),1	739,(155, 201),1	
57,(6, 39),1	58,(6, 103),1	79,(6, 55),1	95,(6, 181),3	100,(6, 45),7	107,(6, 71),18	125,(6, 182),6	131,(16, 111),1	132,(16, 114),5	148,(16, 23),1	149,(16, 121),2	151,(16, 172),4	158,(16, 168),7	166,(16, 193),6	199,(16, 81),2	201,(16, 110),124	326,(6, 112),396	722,(16, 95),33	755,(16, 166),50	
34,(5, 22),2	36,(5, 25),1	37,(5, 28),4	49,(5, 61),2	51,(5, 179),2	53,(5, 194),9	71,(33, 201),1	74,(5, 60),1	75,(5, 78),1	76,(5, 138),1	95,(5, 74),5	100,(5, 89),1	107,(15, 94),1	110,(15, 22),5	115,(15, 92),1	118,(15, 114),7	127,(15, 63),1	128,(15, 123),1	138,(15, 119),3	141,(15, 131),1	146,(15, 38),3	155,(15, 191),3	182,(15, 178),9	194,(15, 76),5	199,(15, 149),6	210,(5, 133),23	233,(15, 181),27	261,(15, 118),11	276,(15, 106),47	323,(44, 201),1	338,(120, 201),1	350,(163, 201),1	356,(183, 201),1	400,(87, 201),1	437,(69, 201),1	452,(71, 201),1	756,(95, 201),1	806,(166, 201),1	
73,(4, 51),1	75,(4, 159),1	76,(4, 160),8	84,(4, 172),2	86,(4, 126),9	95,(4, 173),2	97,(4, 178),5	103,(4, 162),15	118,(4, 199),11	129,(28, 201),1	137,(14, 187),1	138,(67, 201),1	142,(14, 159),1	143,(14, 24),5	148,(14, 26),12	160,(72, 201),1	165,(4, 169),9	174,(14, 152),1	183,(14, 119),14	197,(14, 132),26	227,(34, 201),1	246,(4, 163),45	291,(4, 183),58	349,(14, 175),5	354,(14, 191),4	358,(144, 201),1	359,(70, 201),1	360,(106, 201),1	427,(14, 139),74	515,(171, 201),1	
18,(3, 26),7	25,(3, 31),41	66,(3, 33),4	70,(3, 48),4	74,(3, 84),1	75,(3, 88),2	77,(3, 127),1	78,(3, 146),1	79,(3, 165),2	81,(3, 109),5	86,(3, 142),9	97,(13, 147),1	98,(13, 151),3	101,(13, 197),1	102,(25, 201),1	121,(13, 82),6	129,(3, 62),24	153,(13, 54),7	160,(13, 90),6	166,(13, 140),261	427,(13, 154),19	446,(13, 170),14	460,(13, 188),7	467,(37, 201),1	468,(167, 201),1	469,(32, 201),1	470,(59, 201),1	471,(27, 201),1	472,(64, 201),1	722,(13, 155),16	
65,(2, 49),1	66,(2, 52),1	67,(2, 82),14	81,(2, 100),1	82,(2, 124),19	101,(2, 133),1	102,(2, 145),1	103,(31, 201),1	104,(12, 101),1	105,(2, 166),1	106,(2, 186),5	111,(12, 134),1	113,(12, 35),1	121,(2, 129),24	145,(12, 73),2	147,(12, 116),4	151,(12, 174),2	153,(2, 137),22	175,(2, 196),19	194,(50, 201),1	195,(30, 201),1	201,(2, 69),45	246,(12, 86),15	261,(12, 105),25	286,(12, 185),12	298,(42, 201),1	299,(24, 201),1	300,(23, 201),1	304,(2, 107),58	362,(12, 40),66	428,(12, 69),8	436,(12, 71),15	451,(12, 171),62	513,(140, 201),1	514,(139, 201),1	
1,(0, 2),8	9,(0, 3),8	17,(0, 4),8	25,(0, 5),8	33,(0, 6),8	41,(0, 7),8	49,(0, 8),8	57,(0, 9),8	65,(0, 10),8	73,(0, 12),8	81,(0, 13),8	89,(0, 14),8	97,(0, 15),8	105,(0, 16),8	113,(0, 17),8	121,(0, 18),8	129,(0, 19),8	137,(0, 20),8	145,(11, 44),7	152,(11, 58),1	153,(11, 66),5	158,(11, 81),5	163,(11, 92),1	164,(11, 102),1	165,(11, 120),36	201,(11, 122),9	210,(11, 123),1	211,(11, 146),1	212,(11, 198),21	233,(1, 54),11	244,(1, 70),32	276,(1, 82),3	279,(1, 117),2	281,(1, 123),14	295,(1, 135),2	297,(1, 137),7	304,(1, 179),12	316,(1, 189),6	322,(1, 195),4	326,(29, 201),1	327,(22, 201),1	328,(26, 201),1	353,(110, 201),1	355,(21, 201),1	429,(40, 201),1	731,(130, 201),1	
