1768
# CPU
3,3,5	8,5,5	13,10,5	18,32,5	23,54,5	28,42,5	33,70,5	38,102,5	43,33,5	48,49,5	53,17,5	58,41,5	63,59,5	68,36,5	73,18,5	78,93,5	83,95,5	88,112,5	93,85,5	722,45,5	727,56,5	739,75,5	873,92,5	940,16,5	945,43,5	950,91,5	955,69,5	960,74,5	1195,97,5	1200,87,5	
6,7,5	11,9,5	16,29,5	21,13,5	26,39,5	31,57,5	36,44,5	41,26,5	46,14,5	51,113,5	56,83,5	61,34,5	724,65,5	878,98,5	946,108,5	1199,53,5	1260,35,5	1345,20,5	1355,24,5	1360,48,5	1384,78,5	1389,99,5	1396,116,5	1514,66,5	1519,88,5	1533,38,5	1538,106,5	1691,55,5	1696,72,5	1701,89,5	1767,121,1	
0,0,1	1,4,5	6,11,5	11,2,5	16,8,5	21,31,5	26,96,5	31,79,5	36,63,5	41,23,5	46,58,5	51,114,5	56,86,5	61,109,5	66,50,5	71,60,5	76,61,5	81,90,5	86,111,5	91,118,5	96,62,5	101,80,5	106,100,5	111,105,5	116,25,5	121,19,5	126,40,5	131,76,5	136,104,5	141,30,5	146,47,5	
2,1,5	7,6,5	12,73,5	17,110,5	22,28,5	27,67,5	32,12,5	37,117,5	42,107,5	47,71,5	52,51,5	57,37,5	62,82,5	67,119,5	72,120,5	77,21,5	82,94,5	87,68,5	92,81,5	97,46,5	102,103,5	107,64,5	112,77,5	117,27,5	122,101,5	741,84,5	926,115,5	939,15,5	945,52,5	1186,22,5	
# Incoming
2,(0, 3),1	3,(0, 5),1	7,(0, 10),1	8,(1, 33),1	11,(7, 17),4	15,(1, 59),1	16,(9, 41),1	27,(6, 18),8	35,(6, 93),1	36,(6, 95),2	38,(6, 112),1	39,(12, 45),4	43,(12, 91),1	49,(12, 85),9	716,(4, 45),6	722,(4, 56),1	724,(4, 74),9	733,(4, 75),6	872,(4, 92),1	939,(11, 16),1	940,(11, 43),1	941,(11, 91),1	942,(2, 69),1	945,(8, 74),1	1186,(2, 97),9	1195,(8, 87),2	
5,(0, 7),1	6,(0, 9),1	7,(1, 24),1	8,(3, 13),1	9,(1, 38),3	12,(1, 55),3	15,(3, 99),1	16,(1, 72),8	24,(10, 20),2	26,(32, 121),1	28,(4, 34),2	30,(4, 38),686	716,(3, 88),6	722,(6, 78),1	723,(4, 65),1	724,(3, 66),12	736,(6, 72),5	741,(4, 89),131	872,(73, 121),1	873,(4, 98),5	878,(4, 99),43	921,(4, 106),1	922,(3, 108),24	946,(11, 35),230	1176,(11, 55),3	1179,(6, 38),14	1193,(6, 53),6	1199,(5, 35),61	1260,(5, 66),76	1336,(5, 106),6	1342,(2, 20),3	1345,(2, 24),10	1355,(2, 48),3	1358,(2, 55),6	1364,(2, 66),1	1365,(2, 78),19	1384,(2, 99),2	1386,(2, 116),10	1396,(10, 55),93	1489,(10, 66),25	1514,(10, 88),5	1519,(8, 38),14	1533,(8, 106),3	1536,(110, 121),1	1537,(31, 121),1	1538,(28, 121),1	1539,(54, 121),1	1540,(96, 121),1	1541,(67, 121),1	1542,(42, 121),1	1543,(79, 121),1	1544,(12, 55),147	1691,(12, 72),5	1696,(12, 89),1	1697,(70, 121),1	1698,(63, 121),1	1699,(117, 121),1	1700,(102, 121),1	1701,(23, 121),1	1702,(107, 121),1	1703,(33, 121),1	1704,(58, 121),1	1705,(71, 121),1	1706,(49, 121),1	1707,(114, 121),1	1708,(51, 121),1	1709,(17, 121),1	1710,(86, 121),1	1711,(37, 121),1	1712,(41, 121),1	1713,(109, 121),1	1714,(82, 121),1	1715,(59, 121),1	1716,(50, 121),1	1717,(119, 121),1	1718,(36, 121),1	1719,(60, 121),1	1720,(120, 121),1	1721,(18, 121),1	1722,(61, 121),1	1723,(21, 121),1	1724,(93, 121),1	1725,(90, 121),1	1726,(94, 121),1	1727,(95, 121),1	1728,(111, 121),1	1729,(68, 121),1	1730,(112, 121),1	1731,(118, 121),1	1732,(81, 121),1	1733,(85, 121),1	1734,(62, 121),1	1735,(46, 121),1	1736,(80, 121),1	1737,(103, 121),1	1738,(100, 121),1	1739,(64, 121),1	1740,(105, 121),1	1741,(77, 121),1	1742,(25, 121),1	1743,(27, 121),1	1744,(19, 121),1	1745,(101, 121),1	1746,(40, 121),1	1747,(76, 121),1	1748,(104, 121),1	1749,(30, 121),1	1750,(47, 121),1	1751,(45, 121),1	1752,(56, 121),1	1753,(75, 121),1	1754,(84, 121),1	1755,(92, 121),1	1756,(115, 121),1	1757,(15, 121),1	1758,(16, 121),1	1759,(52, 121),1	1760,(43, 121),1	1761,(91, 121),1	1762,(69, 121),1	1763,(74, 121),1	1764,(22, 121),1	1765,(97, 121),1	1766,(87, 121),1	
24,(1, 90),1	25,(1, 109),2	27,(3, 19),8	35,(7, 50),1	36,(7, 60),4	40,(7, 61),1	41,(7, 90),1	42,(3, 47),3	45,(6, 111),3	48,(6, 118),1	49,(9, 62),1	50,(9, 80),1	51,(3, 100),2	53,(3, 105),7	60,(5, 25),1	61,(9, 19),5	66,(12, 40),1	67,(5, 76),6	79,(5, 104),6	85,(10, 30),1	86,(12, 30),7	93,(12, 47),7	
1,(0, 1),1	4,(0, 6),1	8,(0, 12),1	9,(4, 22),19	28,(7, 21),2	30,(7, 82),1	31,(7, 119),3	34,(9, 120),1	35,(3, 22),1	36,(3, 46),6	42,(9, 103),3	45,(3, 52),4	49,(3, 64),1	50,(3, 77),1	51,(9, 77),6	61,(5, 27),6	73,(5, 101),6	739,(4, 84),2	922,(4, 115),4	926,(11, 15),13	943,(8, 52),2	1179,(2, 22),7	
# Outgoing
8,(3, 13),1	15,(3, 99),1	24,(10, 20),2	26,(32, 121),1	27,(3, 19),8	35,(3, 22),1	36,(3, 46),6	42,(3, 47),3	45,(3, 52),4	49,(3, 64),1	50,(3, 77),1	51,(3, 100),2	53,(3, 105),7	60,(5, 25),1	61,(5, 27),6	67,(5, 76),6	73,(5, 101),6	79,(5, 104),6	85,(10, 30),1	716,(3, 88),6	724,(3, 66),12	922,(3, 108),24	1199,(5, 35),61	1260,(5, 66),76	1336,(5, 106),6	1396,(10, 55),93	1489,(10, 66),25	1514,(10, 88),5	1539,(54, 121),1	1542,(42, 121),1	1697,(70, 121),1	1700,(102, 121),1	1703,(33, 121),1	1706,(49, 121),1	1709,(17, 121),1	1712,(41, 121),1	1715,(59, 121),1	1718,(36, 121),1	1721,(18, 121),1	1724,(93, 121),1	1727,(95, 121),1	1730,(112, 121),1	1733,(85, 121),1	1751,(45, 121),1	1752,(56, 121),1	1753,(75, 121),1	1755,(92, 121),1	1758,(16, 121),1	1760,(43, 121),1	1761,(91, 121),1	1762,(69, 121),1	1763,(74, 121),1	1765,(97, 121),1	1766,(87, 121),1	
11,(7, 17),4	16,(9, 41),1	28,(7, 21),2	30,(7, 82),1	31,(7, 119),3	34,(9, 120),1	35,(7, 50),1	36,(7, 60),4	40,(7, 61),1	41,(7, 90),1	42,(9, 103),3	49,(9, 62),1	50,(9, 80),1	51,(9, 77),6	61,(9, 19),5	
1,(0, 1),1	2,(0, 3),1	3,(0, 5),1	4,(0, 6),1	5,(0, 7),1	6,(0, 9),1	7,(0, 10),1	8,(0, 12),1	9,(4, 22),19	28,(4, 34),2	30,(4, 38),686	716,(4, 45),6	722,(4, 56),1	723,(4, 65),1	724,(4, 74),9	733,(4, 75),6	739,(4, 84),2	741,(4, 89),131	872,(4, 92),1	873,(4, 98),5	878,(4, 99),43	921,(4, 106),1	922,(4, 115),4	926,(11, 15),13	939,(11, 16),1	940,(11, 43),1	941,(11, 91),1	942,(2, 69),1	943,(8, 52),2	945,(8, 74),1	946,(11, 35),230	1176,(11, 55),3	1179,(2, 22),7	1186,(2, 97),9	1195,(8, 87),2	1342,(2, 20),3	1345,(2, 24),10	1355,(2, 48),3	1358,(2, 55),6	1364,(2, 66),1	1365,(2, 78),19	1384,(2, 99),2	1386,(2, 116),10	1519,(8, 38),14	1533,(8, 106),3	1537,(31, 121),1	1540,(96, 121),1	1543,(79, 121),1	1698,(63, 121),1	1701,(23, 121),1	1704,(58, 121),1	1707,(114, 121),1	1710,(86, 121),1	1713,(109, 121),1	1716,(50, 121),1	1719,(60, 121),1	1722,(61, 121),1	1725,(90, 121),1	1728,(111, 121),1	1731,(118, 121),1	1734,(62, 121),1	1736,(80, 121),1	1738,(100, 121),1	1740,(105, 121),1	1742,(25, 121),1	1744,(19, 121),1	1746,(40, 121),1	1747,(76, 121),1	1748,(104, 121),1	1749,(30, 121),1	1750,(47, 121),1	
7,(1, 24),1	8,(1, 33),1	9,(1, 38),3	12,(1, 55),3	15,(1, 59),1	16,(1, 72),8	24,(1, 90),1	25,(1, 109),2	27,(6, 18),8	35,(6, 93),1	36,(6, 95),2	38,(6, 112),1	39,(12, 45),4	43,(12, 91),1	45,(6, 111),3	48,(6, 118),1	49,(12, 85),9	66,(12, 40),1	86,(12, 30),7	93,(12, 47),7	722,(6, 78),1	736,(6, 72),5	872,(73, 121),1	1179,(6, 38),14	1193,(6, 53),6	1536,(110, 121),1	1538,(28, 121),1	1541,(67, 121),1	1544,(12, 55),147	1691,(12, 72),5	1696,(12, 89),1	1699,(117, 121),1	1702,(107, 121),1	1705,(71, 121),1	1708,(51, 121),1	1711,(37, 121),1	1714,(82, 121),1	1717,(119, 121),1	1720,(120, 121),1	1723,(21, 121),1	1726,(94, 121),1	1729,(68, 121),1	1732,(81, 121),1	1735,(46, 121),1	1737,(103, 121),1	1739,(64, 121),1	1741,(77, 121),1	1743,(27, 121),1	1745,(101, 121),1	1754,(84, 121),1	1756,(115, 121),1	1757,(15, 121),1	1759,(52, 121),1	1764,(22, 121),1	
