97
# CPU
0,0,1	1,1,1	2,38,1	3,10,1	4,3,1	5,29,1	6,21,1	7,27,1	8,22,1	9,35,1	10,39,1	11,8,1	12,18,1	13,4,1	14,31,1	15,33,1	16,40,1	17,7,1	18,32,1	19,20,1	20,28,1	21,24,1	22,25,1	23,16,1	24,36,1	25,23,1	26,6,1	34,34,1	48,9,1	76,14,1	96,41,1	
9,2,1	10,26,1	11,13,1	12,11,1	13,30,1	14,19,1	15,17,1	17,5,1	25,15,1	37,37,1	63,12,1	


# Incoming
10,(2, 16),2	12,(2, 36),2	14,(2, 23),2	16,(2, 6),4	20,(2, 34),14	34,(2, 9),14	48,(2, 14),28	76,(26, 41),2	78,(13, 41),2	80,(11, 41),2	82,(30, 41),2	84,(19, 41),2	86,(17, 41),2	88,(5, 41),2	90,(15, 41),2	92,(37, 41),2	94,(12, 41),2	
1,(0, 2),8	9,(3, 17),6	15,(4, 5),2	17,(1, 15),2	19,(4, 15),6	25,(1, 37),12	37,(1, 12),12	49,(3, 12),14	


# Outgoing
1,(0, 2),8	9,(3, 17),6	15,(4, 5),2	17,(1, 15),2	19,(4, 15),6	25,(1, 37),12	37,(1, 12),12	49,(3, 12),14	
10,(2, 16),2	12,(2, 36),2	14,(2, 23),2	16,(2, 6),4	20,(2, 34),14	34,(2, 9),14	48,(2, 14),28	76,(26, 41),2	78,(13, 41),2	80,(11, 41),2	82,(30, 41),2	84,(19, 41),2	86,(17, 41),2	88,(5, 41),2	90,(15, 41),2	92,(37, 41),2	94,(12, 41),2	


