7328
# CPU
199,4,3	202,116,3	397,8,3	400,60,3	403,120,3	418,96,3	478,24,3	595,12,3	598,112,3	601,56,3	604,68,3	820,28,3	838,80,3	859,100,3	937,88,3	949,20,3	1621,16,3	1624,44,3	1753,52,3	1804,64,3	1915,92,3	1936,104,3	3553,48,3	3796,108,3	3832,32,3	4084,36,3	4198,72,3	4204,76,3	4225,40,3	4249,84,3	
133,3,3	136,115,3	331,7,3	334,23,3	451,91,3	454,103,3	460,111,3	529,11,3	532,39,3	535,71,3	538,75,3	601,19,3	610,79,3	796,51,3	898,63,3	952,27,3	970,31,3	1015,47,3	1057,55,3	1447,87,3	3220,15,3	3556,67,3	3607,83,3	3781,107,3	3799,119,3	4183,59,3	5086,43,3	5104,35,3	5107,95,3	5194,99,3	
67,2,3	265,6,3	268,50,3	343,34,3	379,118,3	388,26,3	463,10,3	493,30,3	505,98,3	538,62,3	547,78,3	595,94,3	655,14,3	877,54,3	919,66,3	928,38,3	931,70,3	961,22,3	994,42,3	1282,74,3	1318,82,3	1396,18,3	1450,102,3	1471,106,3	1594,110,3	1615,114,3	1663,46,3	1861,86,3	2134,58,3	2545,90,3	
0,0,1	1,9,3	4,1,3	7,5,3	10,33,3	3571,77,3	3586,29,3	3637,109,3	3646,113,3	3664,117,3	3703,49,3	3715,13,3	3751,17,3	3787,45,3	3856,61,3	3940,73,3	3961,21,3	3997,25,3	4042,65,3	4051,85,3	4054,89,3	4078,105,3	4114,37,3	4138,41,3	4156,53,3	4204,69,3	4228,57,3	4234,81,3	4486,97,3	4516,101,3	7252,93,3	7327,121,1	
# Incoming
133,(0, 4),66	331,(0, 8),66	397,(3, 24),15	412,(3, 32),3	415,(3, 96),3	418,(3, 100),3	421,(7, 24),57	478,(7, 44),3	481,(7, 112),18	529,(0, 12),66	595,(7, 52),168	763,(7, 84),27	790,(11, 28),30	820,(11, 40),9	829,(11, 80),9	838,(11, 100),21	919,(9, 88),18	940,(1, 20),9	949,(11, 104),105	1471,(1, 108),108	1618,(5, 16),3	1621,(5, 44),3	1663,(5, 52),90	1801,(5, 64),3	1804,(5, 72),3	1909,(5, 92),6	1933,(5, 104),3	3220,(2, 40),234	3454,(2, 48),99	3781,(2, 108),15	3802,(6, 32),30	3832,(6, 36),252	4183,(6, 72),15	4198,(6, 76),6	4204,(6, 84),3	4219,(10, 40),6	4234,(10, 84),15	
67,(0, 3),66	265,(0, 7),66	388,(4, 83),42	430,(4, 91),21	451,(4, 103),3	454,(4, 111),6	460,(8, 39),3	463,(0, 11),66	529,(4, 107),48	577,(8, 19),24	601,(8, 79),9	610,(12, 15),27	637,(12, 47),3	649,(9, 47),6	655,(4, 51),141	796,(12, 63),102	949,(1, 27),3	952,(1, 31),18	994,(1, 47),21	1015,(1, 55),42	1318,(1, 87),129	1615,(5, 15),3	1915,(5, 95),18	1936,(5, 107),24	1960,(2, 15),1260	3553,(2, 67),3	3571,(2, 83),36	3607,(2, 107),174	3796,(2, 119),3	4156,(6, 59),27	4183,(8, 43),903	5086,(10, 35),18	5104,(10, 95),3	5107,(10, 99),87	
1,(0, 2),66	199,(0, 6),66	265,(3, 14),69	334,(3, 34),9	343,(3, 42),15	358,(3, 98),15	373,(3, 118),6	379,(4, 18),3	382,(4, 26),6	388,(7, 38),9	397,(0, 10),66	463,(4, 30),30	493,(4, 98),12	505,(7, 18),30	535,(7, 62),3	538,(7, 78),9	547,(7, 102),45	592,(11, 94),3	595,(9, 42),54	649,(8, 14),6	655,(9, 54),222	877,(9, 66),42	919,(11, 38),9	928,(12, 70),3	931,(12, 110),3	937,(9, 102),3	940,(8, 22),21	970,(1, 42),24	1057,(1, 58),33	1090,(1, 74),192	1282,(1, 82),36	1318,(11, 18),78	1447,(1, 102),3	1450,(1, 106),21	1579,(1, 110),15	1594,(1, 114),21	1624,(5, 46),39	1753,(5, 58),48	1807,(5, 86),54	1861,(5, 90),48	1909,(8, 58),225	2134,(12, 90),411	
3556,(2, 77),15	3571,(3, 29),15	3586,(3, 45),18	3604,(3, 97),3	3607,(3, 101),21	3628,(3, 109),9	3637,(3, 113),9	3646,(3, 117),18	3664,(115, 121),3	3667,(4, 21),9	3676,(4, 49),27	3703,(116, 121),3	3706,(7, 13),9	3715,(7, 37),24	3739,(7, 41),6	3745,(23, 121),3	3748,(8, 17),3	3751,(8, 45),36	3787,(8, 93),3	3790,(60, 121),3	3793,(120, 121),3	3796,(96, 121),3	3799,(6, 25),3	3802,(8, 61),54	3856,(8, 73),84	3940,(91, 121),3	3943,(103, 121),3	3946,(111, 121),3	3949,(24, 121),3	3952,(11, 21),9	3961,(11, 25),36	3997,(11, 41),36	4033,(11, 65),9	4042,(11, 85),9	4051,(11, 89),3	4054,(39, 121),3	4057,(71, 121),3	4060,(75, 121),3	4063,(12, 97),12	4075,(12, 105),3	4078,(112, 121),3	4081,(19, 121),3	4084,(6, 37),30	4114,(6, 41),24	4138,(6, 53),18	4156,(11, 69),48	4204,(79, 121),3	4207,(50, 121),3	4210,(34, 121),3	4213,(118, 121),3	4216,(26, 121),3	4219,(51, 121),3	4222,(63, 121),3	4225,(10, 57),3	4228,(10, 81),6	4234,(27, 121),3	4237,(31, 121),3	4240,(47, 121),3	4243,(55, 121),3	4246,(87, 121),3	4249,(10, 97),237	4486,(10, 101),30	4516,(30, 121),3	4519,(98, 121),3	4522,(62, 121),3	4525,(78, 121),3	4528,(94, 121),3	4531,(14, 121),3	4534,(54, 121),3	4537,(66, 121),3	4540,(38, 121),3	4543,(70, 121),3	4546,(22, 121),3	4549,(42, 121),3	4552,(74, 121),3	4555,(82, 121),3	4558,(18, 121),3	4561,(102, 121),3	4564,(106, 121),3	4567,(110, 121),3	4570,(114, 121),3	4573,(46, 121),3	4576,(86, 121),3	4579,(58, 121),3	4582,(90, 121),3	4585,(15, 121),3	4588,(67, 121),3	4591,(83, 121),3	4594,(107, 121),3	4597,(119, 121),3	4600,(59, 121),3	5086,(12, 93),2166	7252,(56, 121),3	7255,(68, 121),3	7258,(28, 121),3	7261,(80, 121),3	7264,(100, 121),3	7267,(88, 121),3	7270,(20, 121),3	7273,(16, 121),3	7276,(44, 121),3	7279,(52, 121),3	7282,(64, 121),3	7285,(92, 121),3	7288,(104, 121),3	7291,(48, 121),3	7294,(108, 121),3	7297,(32, 121),3	7300,(36, 121),3	7303,(72, 121),3	7306,(76, 121),3	7309,(40, 121),3	7312,(84, 121),3	7315,(43, 121),3	7318,(35, 121),3	7321,(95, 121),3	7324,(99, 121),3	
# Outgoing
379,(4, 18),3	382,(4, 26),6	388,(4, 83),42	430,(4, 91),21	451,(4, 103),3	454,(4, 111),6	460,(8, 39),3	463,(4, 30),30	493,(4, 98),12	529,(4, 107),48	577,(8, 19),24	601,(8, 79),9	610,(12, 15),27	637,(12, 47),3	649,(8, 14),6	655,(4, 51),141	796,(12, 63),102	928,(12, 70),3	931,(12, 110),3	940,(8, 22),21	1909,(8, 58),225	2134,(12, 90),411	3667,(4, 21),9	3676,(4, 49),27	3703,(116, 121),3	3748,(8, 17),3	3751,(8, 45),36	3787,(8, 93),3	3790,(60, 121),3	3793,(120, 121),3	3796,(96, 121),3	3802,(8, 61),54	3856,(8, 73),84	3949,(24, 121),3	4063,(12, 97),12	4075,(12, 105),3	4078,(112, 121),3	4183,(8, 43),903	5086,(12, 93),2166	7252,(56, 121),3	7255,(68, 121),3	7258,(28, 121),3	7261,(80, 121),3	7264,(100, 121),3	7267,(88, 121),3	7270,(20, 121),3	7273,(16, 121),3	7276,(44, 121),3	7279,(52, 121),3	7282,(64, 121),3	7285,(92, 121),3	7288,(104, 121),3	7291,(48, 121),3	7294,(108, 121),3	7297,(32, 121),3	7300,(36, 121),3	7303,(72, 121),3	7306,(76, 121),3	7309,(40, 121),3	7312,(84, 121),3	
265,(3, 14),69	334,(3, 34),9	343,(3, 42),15	358,(3, 98),15	373,(3, 118),6	388,(7, 38),9	397,(3, 24),15	412,(3, 32),3	415,(3, 96),3	418,(3, 100),3	421,(7, 24),57	478,(7, 44),3	481,(7, 112),18	505,(7, 18),30	535,(7, 62),3	538,(7, 78),9	547,(7, 102),45	592,(11, 94),3	595,(7, 52),168	763,(7, 84),27	790,(11, 28),30	820,(11, 40),9	829,(11, 80),9	838,(11, 100),21	919,(11, 38),9	949,(11, 104),105	1318,(11, 18),78	3571,(3, 29),15	3586,(3, 45),18	3604,(3, 97),3	3607,(3, 101),21	3628,(3, 109),9	3637,(3, 113),9	3646,(3, 117),18	3664,(115, 121),3	3706,(7, 13),9	3715,(7, 37),24	3739,(7, 41),6	3745,(23, 121),3	3940,(91, 121),3	3943,(103, 121),3	3946,(111, 121),3	3952,(11, 21),9	3961,(11, 25),36	3997,(11, 41),36	4033,(11, 65),9	4042,(11, 85),9	4051,(11, 89),3	4054,(39, 121),3	4057,(71, 121),3	4060,(75, 121),3	4081,(19, 121),3	4156,(11, 69),48	4204,(79, 121),3	4219,(51, 121),3	4222,(63, 121),3	4234,(27, 121),3	4237,(31, 121),3	4240,(47, 121),3	4243,(55, 121),3	4246,(87, 121),3	4585,(15, 121),3	4588,(67, 121),3	4591,(83, 121),3	4594,(107, 121),3	4597,(119, 121),3	4600,(59, 121),3	7315,(43, 121),3	7318,(35, 121),3	7321,(95, 121),3	7324,(99, 121),3	
1960,(2, 15),1260	3220,(2, 40),234	3454,(2, 48),99	3553,(2, 67),3	3556,(2, 77),15	3571,(2, 83),36	3607,(2, 107),174	3781,(2, 108),15	3796,(2, 119),3	3799,(6, 25),3	3802,(6, 32),30	3832,(6, 36),252	4084,(6, 37),30	4114,(6, 41),24	4138,(6, 53),18	4156,(6, 59),27	4183,(6, 72),15	4198,(6, 76),6	4204,(6, 84),3	4207,(50, 121),3	4210,(34, 121),3	4213,(118, 121),3	4216,(26, 121),3	4219,(10, 40),6	4225,(10, 57),3	4228,(10, 81),6	4234,(10, 84),15	4249,(10, 97),237	4486,(10, 101),30	4516,(30, 121),3	4519,(98, 121),3	4522,(62, 121),3	4525,(78, 121),3	4528,(94, 121),3	4531,(14, 121),3	4534,(54, 121),3	4537,(66, 121),3	4540,(38, 121),3	4543,(70, 121),3	4546,(22, 121),3	4549,(42, 121),3	4552,(74, 121),3	4555,(82, 121),3	4558,(18, 121),3	4561,(102, 121),3	4564,(106, 121),3	4567,(110, 121),3	4570,(114, 121),3	4573,(46, 121),3	4576,(86, 121),3	4579,(58, 121),3	4582,(90, 121),3	5086,(10, 35),18	5104,(10, 95),3	5107,(10, 99),87	
1,(0, 2),66	67,(0, 3),66	133,(0, 4),66	199,(0, 6),66	265,(0, 7),66	331,(0, 8),66	397,(0, 10),66	463,(0, 11),66	529,(0, 12),66	595,(9, 42),54	649,(9, 47),6	655,(9, 54),222	877,(9, 66),42	919,(9, 88),18	937,(9, 102),3	940,(1, 20),9	949,(1, 27),3	952,(1, 31),18	970,(1, 42),24	994,(1, 47),21	1015,(1, 55),42	1057,(1, 58),33	1090,(1, 74),192	1282,(1, 82),36	1318,(1, 87),129	1447,(1, 102),3	1450,(1, 106),21	1471,(1, 108),108	1579,(1, 110),15	1594,(1, 114),21	1615,(5, 15),3	1618,(5, 16),3	1621,(5, 44),3	1624,(5, 46),39	1663,(5, 52),90	1753,(5, 58),48	1801,(5, 64),3	1804,(5, 72),3	1807,(5, 86),54	1861,(5, 90),48	1909,(5, 92),6	1915,(5, 95),18	1933,(5, 104),3	1936,(5, 107),24	
