609
# CPU
56,8,46	102,13,46	148,19,46	359,16,46	
53,7,46	99,11,46	326,15,46	372,18,46	
65,10,46	111,6,46	157,20,46	287,14,46	365,17,46	
4,2,46	50,4,46	96,9,46	233,12,46	608,21,1	
0,0,1	1,1,46	47,5,46	93,3,46	
# Incoming
53,(1, 8),3	80,(2, 13),18	98,(2, 19),3	326,(1, 16),33	
50,(1, 7),3	77,(2, 11),3	287,(1, 15),39	365,(1, 18),3	
59,(1, 10),6	74,(2, 6),3	101,(2, 20),21	233,(1, 14),54	359,(1, 17),6	
1,(0, 2),3	47,(1, 4),3	56,(1, 9),3	65,(1, 12),168	233,(7, 21),24	257,(8, 21),24	281,(10, 21),24	305,(11, 21),24	329,(13, 21),24	368,(5, 21),24	392,(3, 21),24	416,(6, 21),24	440,(19, 21),24	464,(20, 21),24	488,(14, 21),24	512,(15, 21),24	536,(16, 21),24	560,(17, 21),24	584,(18, 21),24	
50,(2, 3),24	
# Outgoing
257,(8, 21),24	329,(13, 21),24	440,(19, 21),24	536,(16, 21),24	
233,(7, 21),24	305,(11, 21),24	512,(15, 21),24	584,(18, 21),24	
281,(10, 21),24	416,(6, 21),24	464,(20, 21),24	488,(14, 21),24	560,(17, 21),24	
50,(2, 3),24	74,(2, 6),3	77,(2, 11),3	80,(2, 13),18	98,(2, 19),3	101,(2, 20),21	
1,(0, 2),3	47,(1, 4),3	50,(1, 7),3	53,(1, 8),3	56,(1, 9),3	59,(1, 10),6	65,(1, 12),168	233,(1, 14),54	287,(1, 15),39	326,(1, 16),33	359,(1, 17),6	365,(1, 18),3	368,(5, 21),24	392,(3, 21),24	
