1673
# CPU
4,4,1	5,24,1	6,67,1	7,70,1	8,79,1	9,49,1	10,57,1	11,59,1	12,8,1	13,14,1	14,34,1	15,44,1	16,50,1	17,76,1	18,43,1	19,18,1	23,32,1	33,72,1	47,55,1	59,69,1	69,20,1	70,22,1	72,29,1	73,40,1	74,30,1	76,33,1	79,37,1	83,48,1	114,65,1	131,74,1	136,27,1	137,35,1	138,38,1	139,63,1	140,80,1	152,68,1	169,36,1	179,53,1	186,61,1	201,77,1	212,31,1	216,39,1	232,41,1	249,45,1	251,73,1	273,75,1	285,46,1	297,47,1	300,51,1	305,66,1	318,78,1	
3,3,1	4,13,1	6,7,1	7,56,1	16,15,1	17,21,1	29,52,1	33,54,1	140,64,1	176,28,1	274,23,1	276,26,1	1555,58,1	1579,17,1	1584,60,1	1586,62,1	1672,81,1	
2,2,1	5,6,1	6,19,1	8,11,1	74,25,1	86,12,1	261,71,1	
0,0,1	1,5,1	2,1,1	3,16,1	4,9,1	5,10,1	1553,42,1	
# Incoming
3,(0, 4),1	6,(0, 8),1	8,(3, 14),1	9,(3, 18),10	19,(3, 32),4	23,(3, 72),10	33,(2, 55),14	47,(3, 69),12	59,(6, 20),10	69,(6, 22),1	70,(6, 29),2	72,(6, 40),1	73,(7, 30),1	74,(5, 33),2	76,(5, 37),3	79,(5, 48),4	83,(3, 65),31	114,(3, 74),17	131,(6, 27),5	136,(7, 35),1	137,(7, 38),1	138,(7, 63),1	139,(7, 80),1	140,(5, 68),12	152,(6, 36),17	169,(6, 53),10	179,(6, 61),7	186,(6, 77),15	201,(7, 31),11	212,(7, 39),4	216,(7, 41),16	232,(7, 45),17	249,(7, 73),2	261,(5, 75),12	276,(1, 46),9	285,(1, 47),12	297,(1, 51),3	300,(1, 66),5	305,(1, 78),13	
2,(0, 3),1	5,(0, 7),1	7,(5, 15),9	16,(5, 21),1	17,(2, 52),12	29,(2, 54),4	47,(19, 81),2	49,(11, 81),2	75,(25, 81),2	83,(5, 64),57	140,(4, 28),36	201,(12, 81),2	262,(71, 81),2	273,(1, 23),1	274,(1, 26),2	318,(16, 81),2	320,(9, 81),2	322,(10, 81),2	1553,(4, 58),2	1555,(24, 81),2	1557,(67, 81),2	1559,(70, 81),2	1561,(79, 81),2	1563,(49, 81),2	1565,(57, 81),2	1567,(59, 81),2	1569,(8, 17),10	1579,(8, 60),5	1584,(8, 62),2	1586,(14, 81),2	1588,(34, 81),2	1590,(44, 81),2	1592,(50, 81),2	1594,(76, 81),2	1596,(43, 81),2	1598,(18, 81),2	1600,(32, 81),2	1602,(72, 81),2	1604,(55, 81),2	1606,(69, 81),2	1608,(20, 81),2	1610,(22, 81),2	1612,(29, 81),2	1614,(40, 81),2	1616,(30, 81),2	1618,(33, 81),2	1620,(37, 81),2	1622,(48, 81),2	1624,(65, 81),2	1626,(74, 81),2	1628,(27, 81),2	1630,(35, 81),2	1632,(38, 81),2	1634,(63, 81),2	1636,(80, 81),2	1638,(68, 81),2	1640,(36, 81),2	1642,(53, 81),2	1644,(61, 81),2	1646,(77, 81),2	1648,(31, 81),2	1650,(39, 81),2	1652,(41, 81),2	1654,(45, 81),2	1656,(73, 81),2	1658,(75, 81),2	1660,(46, 81),2	1662,(47, 81),2	1664,(51, 81),2	1666,(66, 81),2	1668,(78, 81),2	1670,(42, 81),2	
1,(0, 2),1	4,(0, 6),1	5,(3, 11),3	17,(5, 25),57	74,(4, 12),12	152,(5, 71),109	
176,(4, 42),1377	
# Outgoing
74,(4, 12),12	140,(4, 28),36	176,(4, 42),1377	1553,(4, 58),2	1555,(24, 81),2	1557,(67, 81),2	1559,(70, 81),2	1561,(79, 81),2	1563,(49, 81),2	1565,(57, 81),2	1567,(59, 81),2	1569,(8, 17),10	1579,(8, 60),5	1584,(8, 62),2	1586,(14, 81),2	1588,(34, 81),2	1590,(44, 81),2	1592,(50, 81),2	1594,(76, 81),2	1596,(43, 81),2	1598,(18, 81),2	1600,(32, 81),2	1602,(72, 81),2	1604,(55, 81),2	1606,(69, 81),2	1608,(20, 81),2	1610,(22, 81),2	1612,(29, 81),2	1614,(40, 81),2	1616,(30, 81),2	1618,(33, 81),2	1620,(37, 81),2	1622,(48, 81),2	1624,(65, 81),2	1626,(74, 81),2	1628,(27, 81),2	1630,(35, 81),2	1632,(38, 81),2	1634,(63, 81),2	1636,(80, 81),2	1638,(68, 81),2	1640,(36, 81),2	1642,(53, 81),2	1644,(61, 81),2	1646,(77, 81),2	1648,(31, 81),2	1650,(39, 81),2	1652,(41, 81),2	1654,(45, 81),2	1656,(73, 81),2	1658,(75, 81),2	1660,(46, 81),2	1662,(47, 81),2	1664,(51, 81),2	1666,(66, 81),2	1668,(78, 81),2	
5,(3, 11),3	8,(3, 14),1	9,(3, 18),10	19,(3, 32),4	23,(3, 72),10	47,(3, 69),12	73,(7, 30),1	83,(3, 65),31	114,(3, 74),17	136,(7, 35),1	137,(7, 38),1	138,(7, 63),1	139,(7, 80),1	201,(7, 31),11	212,(7, 39),4	216,(7, 41),16	232,(7, 45),17	249,(7, 73),2	
17,(2, 52),12	29,(2, 54),4	33,(2, 55),14	47,(19, 81),2	49,(11, 81),2	59,(6, 20),10	69,(6, 22),1	70,(6, 29),2	72,(6, 40),1	75,(25, 81),2	131,(6, 27),5	152,(6, 36),17	169,(6, 53),10	179,(6, 61),7	186,(6, 77),15	201,(12, 81),2	262,(71, 81),2	
1,(0, 2),1	2,(0, 3),1	3,(0, 4),1	4,(0, 6),1	5,(0, 7),1	6,(0, 8),1	7,(5, 15),9	16,(5, 21),1	17,(5, 25),57	74,(5, 33),2	76,(5, 37),3	79,(5, 48),4	83,(5, 64),57	140,(5, 68),12	152,(5, 71),109	261,(5, 75),12	273,(1, 23),1	274,(1, 26),2	276,(1, 46),9	285,(1, 47),12	297,(1, 51),3	300,(1, 66),5	305,(1, 78),13	318,(16, 81),2	320,(9, 81),2	322,(10, 81),2	1670,(42, 81),2	
