121
# CPU
0,121,1	1,115,1	2,32,1	3,117,1	4,87,1	5,30,1	6,114,1	7,57,1	8,24,1	9,47,1	10,41,1	11,96,1	12,28,1	13,70,1	14,54,1	15,72,1	16,56,1	17,67,1	18,99,1	19,15,1	20,35,1	21,34,1	22,107,1	23,104,1	24,61,1	25,103,1	26,75,1	27,23,1	28,26,1	29,113,1	30,97,1	31,66,1	32,42,1	33,93,1	34,38,1	35,92,1	36,14,1	37,102,1	38,58,1	39,80,1	40,36,1	41,16,1	42,55,1	43,69,1	44,21,1	45,25,1	46,22,1	47,86,1	48,81,1	49,73,1	50,63,1	51,18,1	52,19,1	53,20,1	54,88,1	55,65,1	56,53,1	57,33,1	58,68,1	59,90,1	60,77,1	61,51,1	62,94,1	63,84,1	64,82,1	65,13,1	66,49,1	67,116,1	68,111,1	69,44,1	70,60,1	71,105,1	72,95,1	73,119,1	74,43,1	75,27,1	76,112,1	77,71,1	78,120,1	79,85,1	80,110,1	81,79,1	82,64,1	83,106,1	84,62,1	85,83,1	86,76,1	87,108,1	88,59,1	89,9,1	90,29,1	91,46,1	92,78,1	93,100,1	94,40,1	95,89,1	96,45,1	97,11,1	98,39,1	99,37,1	100,1,1	101,118,1	102,12,1	103,17,1	104,101,1	105,10,1	106,31,1	107,52,1	108,48,1	109,7,1	110,74,1	111,8,1	112,109,1	113,6,1	114,5,1	115,91,1	116,4,1	117,98,1	118,2,1	119,3,1	120,0,1	








69,50,1	
# Incoming
70,(50, 3),36	








1,(121, 50),68	
# Outgoing
1,(121, 50),68	








70,(50, 3),36	
