297
# CPU
0,0,1	1,2,26	27,13,26	53,5,26	79,4,26	105,19,26	131,10,26	157,12,26	183,6,26	209,11,26	235,14,26	266,16,26	296,21,1	
2,1,26	28,8,26	54,7,26	80,3,26	106,17,26	
28,18,26	54,15,26	
29,20,26	55,9,26	
# Incoming
54,(8, 21),30	84,(18, 21),30	114,(20, 21),30	144,(7, 21),30	174,(15, 21),30	204,(9, 21),30	234,(3, 21),30	264,(1, 16),2	266,(17, 21),30	
1,(0, 1),1	
27,(2, 18),1	29,(2, 15),4	
28,(2, 20),1	33,(2, 9),6	
# Outgoing
1,(0, 1),1	27,(2, 18),1	28,(2, 20),1	29,(2, 15),4	33,(2, 9),6	
54,(8, 21),30	144,(7, 21),30	234,(3, 21),30	264,(1, 16),2	266,(17, 21),30	
84,(18, 21),30	174,(15, 21),30	
114,(20, 21),30	204,(9, 21),30	
