5104
# CPU
63,4,41	104,27,41	145,40,41	186,54,41	227,162,41	268,174,41	309,170,41	350,69,41	391,95,41	432,107,41	473,124,41	514,102,41	555,76,41	596,79,41	637,82,41	678,7,41	719,10,41	760,11,41	801,13,41	842,16,41	883,17,41	924,18,41	965,20,41	1006,81,41	1047,136,41	1088,154,41	1129,48,41	1170,196,41	1211,173,41	1252,189,41	1293,153,41	1334,141,41	1375,119,41	1416,111,41	1457,106,41	1498,61,41	1539,97,41	1580,126,41	1621,74,41	1662,47,41	1703,70,41	1744,36,41	1785,26,41	1826,166,41	1867,164,41	1908,177,41	1949,85,41	1990,21,41	2031,192,41	2072,32,41	2113,187,41	2154,135,41	2195,158,41	2236,134,41	2277,133,41	2318,123,41	2359,72,41	2400,68,41	2441,35,41	2482,194,41	2523,180,41	2564,157,41	2605,96,41	2646,149,41	2687,77,41	2728,25,41	2769,197,41	2810,178,41	2851,86,41	2892,51,41	2933,29,41	2974,89,41	3015,186,41	3056,163,41	3097,110,41	3138,114,41	3179,103,41	3220,108,41	3261,66,41	3302,84,41	3343,75,41	3384,156,41	3425,41,41	3466,99,41	3507,44,41	3548,175,41	3589,118,41	3630,127,41	3671,185,41	3712,73,41	3753,49,41	3794,43,41	3835,58,41	3876,122,41	3917,59,41	3958,30,41	3999,143,41	4040,198,41	4081,56,41	4122,167,41	5103,201,1	
0,0,1	1,14,41	42,9,41	83,1,41	124,2,41	165,3,41	206,8,41	247,6,41	288,15,41	329,5,41	370,19,41	411,12,41	452,148,41	493,94,41	534,67,41	575,193,41	616,91,41	657,62,41	698,28,41	739,183,41	780,171,41	821,161,41	862,92,41	903,63,41	944,31,41	985,87,41	1026,169,41	1067,159,41	1108,90,41	1149,53,41	1190,52,41	1231,50,41	1272,37,41	1313,121,41	1354,105,41	1395,42,41	1436,22,41	1477,181,41	1518,34,41	1559,191,41	1600,188,41	1641,155,41	1682,147,41	1723,146,41	1764,139,41	1805,131,41	1846,129,41	1887,116,41	1928,200,41	1969,101,41	2010,98,41	2051,83,41	2092,184,41	2133,160,41	2174,152,41	2215,150,41	2256,144,41	2297,120,41	2338,38,41	2379,33,41	2420,23,41	2461,199,41	2502,190,41	2543,151,41	2584,137,41	2625,125,41	2666,117,41	2707,93,41	2748,71,41	2789,24,41	2830,195,41	2871,113,41	2912,64,41	2953,130,41	2994,78,41	3035,46,41	3076,88,41	3117,138,41	3158,132,41	3199,45,41	3240,55,41	3281,115,41	3322,39,41	3363,109,41	3404,182,41	3445,104,41	3486,65,41	3527,142,41	3568,145,41	3609,57,41	3650,165,41	3691,176,41	3732,60,41	3773,80,41	3814,168,41	3855,172,41	3896,100,41	3937,112,41	3978,179,41	4019,140,41	4060,128,41	
# Incoming
1,(0, 4),62	63,(0, 7),62	125,(0, 10),62	187,(0, 11),62	249,(0, 13),62	311,(0, 16),62	373,(0, 17),62	435,(0, 18),62	497,(0, 20),62	559,(14, 49),2	561,(14, 81),6	567,(14, 106),10	577,(14, 136),26	603,(14, 154),2	605,(14, 175),612	1217,(14, 185),286	1503,(9, 59),608	2111,(9, 118),200	2311,(9, 127),14	2325,(1, 185),104	2429,(2, 49),50	2479,(2, 73),14	2493,(3, 49),46	2539,(8, 43),2	2541,(8, 58),12	2553,(8, 122),2	2555,(6, 59),18	2573,(15, 30),2	2575,(5, 143),12	2587,(5, 198),8	2595,(19, 56),2	2597,(19, 167),14	2611,(148, 201),28	2639,(94, 201),28	2667,(67, 201),28	2695,(193, 201),28	2723,(91, 201),28	2751,(62, 201),28	2779,(28, 201),28	2807,(183, 201),28	2835,(171, 201),28	2863,(161, 201),28	2891,(92, 201),28	2919,(63, 201),28	2947,(31, 201),28	2975,(87, 201),28	3003,(169, 201),28	3031,(159, 201),28	3059,(90, 201),28	3087,(53, 201),28	3115,(52, 201),28	3143,(50, 201),28	3171,(37, 201),28	3199,(121, 201),28	3227,(105, 201),28	3255,(42, 201),28	3283,(22, 201),28	3311,(181, 201),28	3339,(34, 201),28	3367,(191, 201),28	3395,(188, 201),28	3423,(155, 201),28	3451,(147, 201),28	3479,(146, 201),28	3507,(139, 201),28	3535,(131, 201),28	3563,(129, 201),28	3591,(116, 201),28	3619,(200, 201),28	3647,(101, 201),28	3675,(98, 201),28	3703,(83, 201),28	3731,(184, 201),28	3759,(160, 201),28	3787,(152, 201),28	3815,(150, 201),28	3843,(144, 201),28	3871,(120, 201),28	3899,(38, 201),28	3927,(33, 201),28	3955,(23, 201),28	3983,(199, 201),28	4011,(190, 201),28	4039,(151, 201),28	4067,(137, 201),28	4095,(125, 201),28	4123,(117, 201),28	4151,(93, 201),28	4179,(71, 201),28	4207,(24, 201),28	4235,(195, 201),28	4263,(113, 201),28	4291,(64, 201),28	4319,(130, 201),28	4347,(78, 201),28	4375,(46, 201),28	4403,(88, 201),28	4431,(138, 201),28	4459,(132, 201),28	4487,(45, 201),28	4515,(55, 201),28	4543,(115, 201),28	4571,(39, 201),28	4599,(109, 201),28	4627,(182, 201),28	4655,(104, 201),28	4683,(65, 201),28	4711,(142, 201),28	4739,(145, 201),28	4767,(57, 201),28	4795,(165, 201),28	4823,(176, 201),28	4851,(60, 201),28	4879,(80, 201),28	4907,(168, 201),28	4935,(172, 201),28	4963,(100, 201),28	4991,(112, 201),28	5019,(179, 201),28	5047,(140, 201),28	5075,(128, 201),28	
104,(4, 87),4	108,(4, 169),2	719,(7, 165),2	721,(7, 176),2	760,(10, 60),4	801,(11, 80),2	803,(11, 168),2	842,(13, 172),18	883,(16, 100),2	924,(17, 112),4	928,(17, 179),2	965,(18, 140),20	1006,(20, 128),2	
# Outgoing
104,(4, 87),4	108,(4, 169),2	719,(7, 165),2	721,(7, 176),2	760,(10, 60),4	801,(11, 80),2	803,(11, 168),2	842,(13, 172),18	883,(16, 100),2	924,(17, 112),4	928,(17, 179),2	965,(18, 140),20	1006,(20, 128),2	
1,(0, 4),62	63,(0, 7),62	125,(0, 10),62	187,(0, 11),62	249,(0, 13),62	311,(0, 16),62	373,(0, 17),62	435,(0, 18),62	497,(0, 20),62	559,(14, 49),2	561,(14, 81),6	567,(14, 106),10	577,(14, 136),26	603,(14, 154),2	605,(14, 175),612	1217,(14, 185),286	1503,(9, 59),608	2111,(9, 118),200	2311,(9, 127),14	2325,(1, 185),104	2429,(2, 49),50	2479,(2, 73),14	2493,(3, 49),46	2539,(8, 43),2	2541,(8, 58),12	2553,(8, 122),2	2555,(6, 59),18	2573,(15, 30),2	2575,(5, 143),12	2587,(5, 198),8	2595,(19, 56),2	2597,(19, 167),14	2611,(148, 201),28	2639,(94, 201),28	2667,(67, 201),28	2695,(193, 201),28	2723,(91, 201),28	2751,(62, 201),28	2779,(28, 201),28	2807,(183, 201),28	2835,(171, 201),28	2863,(161, 201),28	2891,(92, 201),28	2919,(63, 201),28	2947,(31, 201),28	2975,(87, 201),28	3003,(169, 201),28	3031,(159, 201),28	3059,(90, 201),28	3087,(53, 201),28	3115,(52, 201),28	3143,(50, 201),28	3171,(37, 201),28	3199,(121, 201),28	3227,(105, 201),28	3255,(42, 201),28	3283,(22, 201),28	3311,(181, 201),28	3339,(34, 201),28	3367,(191, 201),28	3395,(188, 201),28	3423,(155, 201),28	3451,(147, 201),28	3479,(146, 201),28	3507,(139, 201),28	3535,(131, 201),28	3563,(129, 201),28	3591,(116, 201),28	3619,(200, 201),28	3647,(101, 201),28	3675,(98, 201),28	3703,(83, 201),28	3731,(184, 201),28	3759,(160, 201),28	3787,(152, 201),28	3815,(150, 201),28	3843,(144, 201),28	3871,(120, 201),28	3899,(38, 201),28	3927,(33, 201),28	3955,(23, 201),28	3983,(199, 201),28	4011,(190, 201),28	4039,(151, 201),28	4067,(137, 201),28	4095,(125, 201),28	4123,(117, 201),28	4151,(93, 201),28	4179,(71, 201),28	4207,(24, 201),28	4235,(195, 201),28	4263,(113, 201),28	4291,(64, 201),28	4319,(130, 201),28	4347,(78, 201),28	4375,(46, 201),28	4403,(88, 201),28	4431,(138, 201),28	4459,(132, 201),28	4487,(45, 201),28	4515,(55, 201),28	4543,(115, 201),28	4571,(39, 201),28	4599,(109, 201),28	4627,(182, 201),28	4655,(104, 201),28	4683,(65, 201),28	4711,(142, 201),28	4739,(145, 201),28	4767,(57, 201),28	4795,(165, 201),28	4823,(176, 201),28	4851,(60, 201),28	4879,(80, 201),28	4907,(168, 201),28	4935,(172, 201),28	4963,(100, 201),28	4991,(112, 201),28	5019,(179, 201),28	5047,(140, 201),28	5075,(128, 201),28	
