2367
# CPU
113,5,5	177,13,5	241,50,5	253,65,5	381,70,5	573,15,5	601,20,5	705,30,5	737,40,5	853,55,5	893,60,5	1037,25,5	1397,80,5	1793,75,5	1997,35,5	2357,45,5	
85,4,5	161,9,5	197,29,5	205,24,5	357,59,5	453,79,5	549,34,5	577,19,5	609,49,5	685,39,5	709,54,5	733,14,5	837,44,5	921,69,5	1173,64,5	1477,74,5	
57,3,5	62,28,5	67,48,5	126,18,5	169,8,5	225,33,5	230,43,5	235,63,5	240,73,5	421,38,5	433,53,5	453,78,5	497,12,5	577,58,5	617,68,5	649,23,5	
29,2,5	141,7,5	146,27,5	151,32,5	169,77,5	177,17,5	361,67,5	457,11,5	577,47,5	625,22,5	721,37,5	757,42,5	829,57,5	849,52,5	1013,62,5	1149,72,5	
0,0,1	1,1,5	6,6,5	78,16,5	83,21,5	110,66,5	130,76,5	197,31,5	437,41,5	473,10,5	478,26,5	497,36,5	541,56,5	625,51,5	805,46,5	833,61,5	841,71,5	2366,81,1	
# Incoming
85,(0, 5),28	113,(3, 35),4	117,(3, 65),4	121,(3, 70),4	125,(2, 30),16	141,(4, 13),36	177,(4, 15),4	181,(8, 50),4	185,(1, 40),52	237,(2, 50),4	245,(4, 55),4	249,(4, 65),4	253,(4, 80),4	293,(3, 75),36	365,(1, 70),16	397,(2, 75),20	497,(6, 15),76	577,(6, 20),24	601,(7, 80),28	661,(8, 30),44	721,(6, 40),16	849,(6, 55),4	853,(6, 60),40	893,(7, 25),144	1173,(3, 80),224	1397,(4, 75),396	1793,(8, 35),204	1997,(8, 45),360	
57,(0, 4),28	85,(2, 14),20	105,(2, 24),20	125,(3, 29),20	145,(3, 34),12	157,(5, 9),4	161,(5, 74),4	177,(1, 29),8	185,(8, 29),12	197,(2, 79),4	201,(7, 24),4	205,(7, 34),12	237,(1, 44),4	241,(1, 59),116	361,(1, 69),4	365,(3, 54),24	389,(1, 79),64	453,(5, 34),96	549,(5, 49),16	573,(6, 19),4	577,(3, 49),32	609,(3, 69),52	661,(7, 39),24	685,(7, 54),24	709,(8, 14),24	757,(6, 44),80	893,(6, 69),28	921,(3, 64),252	1397,(8, 74),80	
29,(0, 3),28	57,(2, 73),12	90,(4, 12),12	102,(4, 18),24	141,(0, 8),28	169,(5, 33),56	225,(5, 43),4	229,(5, 63),4	233,(5, 73),4	241,(2, 53),108	349,(2, 68),48	417,(7, 38),4	421,(7, 53),12	437,(4, 78),16	457,(6, 12),40	497,(4, 58),80	577,(4, 68),40	625,(6, 23),24	
1,(0, 2),28	82,(3, 42),12	113,(0, 7),28	157,(3, 77),12	169,(1, 17),8	177,(8, 11),4	181,(4, 42),44	225,(4, 47),20	245,(5, 37),8	253,(5, 57),16	357,(1, 67),4	381,(1, 72),8	389,(8, 22),40	453,(6, 11),4	457,(3, 47),120	601,(6, 22),24	649,(6, 37),72	737,(6, 42),20	757,(4, 57),72	837,(6, 52),12	849,(5, 62),164	1013,(5, 72),136	
34,(2, 10),8	42,(2, 76),4	62,(3, 16),16	78,(3, 21),4	94,(3, 66),16	126,(4, 76),4	141,(2, 31),56	197,(3, 36),76	273,(3, 71),20	293,(4, 46),32	325,(9, 81),4	329,(28, 81),4	333,(48, 81),4	337,(4, 41),100	437,(18, 81),4	441,(7, 10),32	473,(7, 26),4	477,(7, 36),20	497,(7, 56),44	541,(27, 81),4	545,(32, 81),4	549,(77, 81),4	553,(17, 81),4	557,(67, 81),4	561,(11, 81),4	565,(5, 51),60	625,(13, 81),4	629,(29, 81),4	633,(24, 81),4	637,(50, 81),4	641,(65, 81),4	645,(59, 81),4	649,(70, 81),4	653,(79, 81),4	657,(34, 81),4	661,(15, 81),4	665,(19, 81),4	669,(20, 81),4	673,(49, 81),4	690,(39, 81),4	705,(33, 81),4	709,(7, 61),72	781,(8, 46),24	805,(8, 61),28	833,(8, 71),8	841,(43, 81),4	845,(63, 81),4	849,(73, 81),4	853,(38, 81),4	857,(53, 81),4	861,(78, 81),4	865,(12, 81),4	869,(47, 81),4	873,(58, 81),4	877,(68, 81),4	881,(22, 81),4	885,(23, 81),4	889,(54, 81),4	893,(14, 81),4	897,(44, 81),4	926,(69, 81),4	1037,(37, 81),4	1041,(42, 81),4	1045,(57, 81),4	1049,(52, 81),4	1053,(62, 81),4	1149,(30, 81),4	1153,(40, 81),4	1157,(55, 81),4	1161,(60, 81),4	1165,(25, 81),4	1169,(72, 81),4	1178,(64, 81),4	1402,(80, 81),4	1793,(74, 81),4	1798,(75, 81),4	2002,(35, 81),4	2362,(45, 81),4	
# Outgoing
157,(5, 9),4	161,(5, 74),4	169,(5, 33),56	225,(5, 43),4	229,(5, 63),4	233,(5, 73),4	245,(5, 37),8	253,(5, 57),16	453,(5, 34),96	549,(5, 49),16	565,(5, 51),60	625,(13, 81),4	637,(50, 81),4	641,(65, 81),4	649,(70, 81),4	661,(15, 81),4	669,(20, 81),4	849,(5, 62),164	1013,(5, 72),136	1149,(30, 81),4	1153,(40, 81),4	1157,(55, 81),4	1161,(60, 81),4	1165,(25, 81),4	1402,(80, 81),4	1798,(75, 81),4	2002,(35, 81),4	2362,(45, 81),4	
90,(4, 12),12	102,(4, 18),24	126,(4, 76),4	141,(4, 13),36	177,(4, 15),4	181,(4, 42),44	225,(4, 47),20	245,(4, 55),4	249,(4, 65),4	253,(4, 80),4	293,(4, 46),32	325,(9, 81),4	337,(4, 41),100	437,(4, 78),16	497,(4, 58),80	577,(4, 68),40	629,(29, 81),4	633,(24, 81),4	645,(59, 81),4	653,(79, 81),4	657,(34, 81),4	665,(19, 81),4	673,(49, 81),4	690,(39, 81),4	757,(4, 57),72	889,(54, 81),4	893,(14, 81),4	897,(44, 81),4	926,(69, 81),4	1178,(64, 81),4	1397,(4, 75),396	1793,(74, 81),4	
62,(3, 16),16	78,(3, 21),4	82,(3, 42),12	94,(3, 66),16	113,(3, 35),4	117,(3, 65),4	121,(3, 70),4	125,(3, 29),20	145,(3, 34),12	157,(3, 77),12	177,(8, 11),4	181,(8, 50),4	185,(8, 29),12	197,(3, 36),76	273,(3, 71),20	293,(3, 75),36	329,(28, 81),4	333,(48, 81),4	365,(3, 54),24	389,(8, 22),40	437,(18, 81),4	457,(3, 47),120	577,(3, 49),32	609,(3, 69),52	661,(8, 30),44	705,(33, 81),4	709,(8, 14),24	781,(8, 46),24	805,(8, 61),28	833,(8, 71),8	841,(43, 81),4	845,(63, 81),4	849,(73, 81),4	853,(38, 81),4	857,(53, 81),4	861,(78, 81),4	865,(12, 81),4	873,(58, 81),4	877,(68, 81),4	885,(23, 81),4	921,(3, 64),252	1173,(3, 80),224	1397,(8, 74),80	1793,(8, 35),204	1997,(8, 45),360	
34,(2, 10),8	42,(2, 76),4	57,(2, 73),12	85,(2, 14),20	105,(2, 24),20	125,(2, 30),16	141,(2, 31),56	197,(2, 79),4	201,(7, 24),4	205,(7, 34),12	237,(2, 50),4	241,(2, 53),108	349,(2, 68),48	397,(2, 75),20	417,(7, 38),4	421,(7, 53),12	441,(7, 10),32	473,(7, 26),4	477,(7, 36),20	497,(7, 56),44	541,(27, 81),4	545,(32, 81),4	549,(77, 81),4	553,(17, 81),4	557,(67, 81),4	561,(11, 81),4	601,(7, 80),28	661,(7, 39),24	685,(7, 54),24	709,(7, 61),72	869,(47, 81),4	881,(22, 81),4	893,(7, 25),144	1037,(37, 81),4	1041,(42, 81),4	1045,(57, 81),4	1049,(52, 81),4	1053,(62, 81),4	1169,(72, 81),4	
1,(0, 2),28	29,(0, 3),28	57,(0, 4),28	85,(0, 5),28	113,(0, 7),28	141,(0, 8),28	169,(1, 17),8	177,(1, 29),8	185,(1, 40),52	237,(1, 44),4	241,(1, 59),116	357,(1, 67),4	361,(1, 69),4	365,(1, 70),16	381,(1, 72),8	389,(1, 79),64	453,(6, 11),4	457,(6, 12),40	497,(6, 15),76	573,(6, 19),4	577,(6, 20),24	601,(6, 22),24	625,(6, 23),24	649,(6, 37),72	721,(6, 40),16	737,(6, 42),20	757,(6, 44),80	837,(6, 52),12	849,(6, 55),4	853,(6, 60),40	893,(6, 69),28	
