268
# CPU
16,4,5	21,9,5	26,11,5	31,24,5	36,30,5	41,17,5	46,21,5	51,27,5	58,33,5	108,39,5	146,14,5	183,36,5	
11,3,5	16,26,5	21,32,5	26,35,5	31,19,5	36,10,5	41,16,5	46,7,5	51,23,5	56,12,5	61,29,5	66,38,5	
6,2,5	11,6,5	16,15,5	21,8,5	37,22,5	42,28,5	47,18,5	68,37,5	73,40,5	152,25,5	157,31,5	162,34,5	267,41,1	
0,0,1	1,1,5	107,20,5	123,5,5	145,13,5	
# Incoming
11,(0, 4),5	16,(1, 9),2	34,(1, 17),1	35,(1, 21),2	41,(1, 27),7	48,(1, 33),10	59,(1, 39),10	107,(2, 39),1	145,(3, 14),1	156,(3, 36),27	
6,(0, 3),5	11,(2, 19),6	18,(1, 10),1	19,(1, 16),15	34,(4, 7),2	37,(1, 23),2	39,(4, 12),2	46,(4, 29),5	58,(1, 38),1	
1,(0, 2),5	36,(4, 22),1	37,(4, 28),1	39,(1, 25),2	41,(4, 18),5	51,(4, 37),17	68,(4, 40),5	73,(9, 41),7	80,(11, 41),7	87,(24, 41),7	94,(30, 41),7	101,(17, 41),7	108,(21, 41),7	115,(27, 41),7	122,(33, 41),7	129,(20, 41),7	136,(39, 41),7	146,(3, 25),6	152,(3, 31),3	155,(3, 34),1	156,(5, 41),7	163,(13, 41),7	170,(14, 41),7	183,(26, 41),7	190,(32, 41),7	197,(35, 41),7	204,(19, 41),7	211,(10, 41),7	218,(16, 41),7	225,(7, 41),7	232,(23, 41),7	239,(12, 41),7	246,(29, 41),7	253,(38, 41),7	260,(36, 41),7	
17,(2, 20),90	107,(3, 5),16	123,(3, 13),22	
# Outgoing
34,(4, 7),2	36,(4, 22),1	37,(4, 28),1	39,(4, 12),2	41,(4, 18),5	46,(4, 29),5	51,(4, 37),17	68,(4, 40),5	73,(9, 41),7	80,(11, 41),7	87,(24, 41),7	94,(30, 41),7	101,(17, 41),7	108,(21, 41),7	115,(27, 41),7	122,(33, 41),7	136,(39, 41),7	170,(14, 41),7	260,(36, 41),7	
107,(3, 5),16	123,(3, 13),22	145,(3, 14),1	146,(3, 25),6	152,(3, 31),3	155,(3, 34),1	156,(3, 36),27	183,(26, 41),7	190,(32, 41),7	197,(35, 41),7	204,(19, 41),7	211,(10, 41),7	218,(16, 41),7	225,(7, 41),7	232,(23, 41),7	239,(12, 41),7	246,(29, 41),7	253,(38, 41),7	
11,(2, 19),6	17,(2, 20),90	107,(2, 39),1	
1,(0, 2),5	6,(0, 3),5	11,(0, 4),5	16,(1, 9),2	18,(1, 10),1	19,(1, 16),15	34,(1, 17),1	35,(1, 21),2	37,(1, 23),2	39,(1, 25),2	41,(1, 27),7	48,(1, 33),10	58,(1, 38),1	59,(1, 39),10	129,(20, 41),7	156,(5, 41),7	163,(13, 41),7	
