5828
# CPU
352,10,5	367,25,5	382,60,5	409,80,5	415,90,5	724,30,5	739,70,5	805,40,5	928,120,5	933,100,5	1018,50,5	1426,110,5	
313,9,5	318,29,5	331,39,5	340,59,5	400,99,5	409,119,5	502,24,5	811,79,5	1003,49,5	1375,89,5	1408,109,5	5722,69,5	
274,8,5	279,68,5	284,48,5	289,118,5	310,38,5	454,22,5	670,98,5	763,58,5	768,78,5	826,88,5	985,28,5	1393,108,5	
235,7,5	240,20,5	245,87,5	298,37,5	376,57,5	451,97,5	715,27,5	727,67,5	733,107,5	811,77,5	871,117,5	1000,47,5	
196,6,5	201,26,5	206,36,5	211,46,5	216,56,5	256,116,5	337,19,5	346,96,5	376,76,5	406,86,5	454,106,5	700,66,5	
157,5,5	162,45,5	207,55,5	243,18,5	400,65,5	454,75,5	496,115,5	529,35,5	646,105,5	682,23,5	883,95,5	1372,85,5	
118,4,5	123,94,5	228,64,5	376,44,5	381,104,5	397,16,5	640,54,5	673,114,5	697,21,5	838,84,5	988,34,5	1036,74,5	
79,3,5	84,43,5	204,13,5	250,103,5	360,53,5	369,73,5	379,113,5	466,93,5	688,17,5	736,33,5	973,63,5	1084,83,5	
40,2,5	45,32,5	50,102,5	55,82,5	211,92,5	391,12,5	421,62,5	426,42,5	442,112,5	643,72,5	676,15,5	898,52,5	
0,0,1	1,1,5	6,11,5	11,14,5	511,91,5	544,71,5	667,81,5	754,31,5	808,51,5	958,111,5	1078,61,5	1207,41,5	1234,101,5	5827,121,1	
# Incoming
313,(0, 10),39	352,(9, 25),15	376,(2, 60),6	382,(6, 80),27	409,(9, 90),6	715,(11, 30),9	736,(11, 70),3	754,(8, 40),51	871,(11, 120),57	928,(8, 100),3	1003,(3, 50),15	1408,(3, 110),18	
274,(0, 9),39	313,(6, 39),18	331,(7, 59),9	376,(7, 99),24	400,(7, 119),9	454,(1, 24),48	808,(8, 79),3	1000,(3, 49),3	1372,(3, 89),3	1375,(3, 109),33	1408,(8, 69),4314	
235,(0, 8),39	274,(4, 68),3	298,(6, 38),12	397,(1, 22),57	454,(2, 98),216	670,(10, 58),93	763,(12, 78),3	811,(11, 88),15	826,(3, 28),159	1078,(9, 108),315	
196,(0, 7),39	235,(2, 20),3	238,(6, 37),60	367,(9, 57),9	376,(10, 97),75	682,(11, 27),33	715,(12, 67),12	727,(12, 107),6	739,(11, 77),72	826,(11, 117),45	988,(3, 47),12	
157,(0, 6),39	196,(4, 26),3	199,(4, 56),3	250,(4, 116),6	256,(5, 19),81	337,(5, 96),9	346,(7, 76),30	400,(2, 86),6	451,(10, 106),3	697,(12, 66),3	
118,(0, 5),39	204,(6, 55),3	240,(7, 18),3	382,(2, 65),18	451,(12, 75),3	454,(10, 115),42	502,(1, 35),27	643,(1, 105),3	676,(11, 23),6	838,(8, 95),45	1036,(3, 85),336	
79,(0, 4),39	207,(6, 64),21	238,(2, 44),138	376,(5, 104),3	391,(1, 16),6	529,(1, 54),111	646,(1, 114),27	688,(12, 21),9	811,(8, 84),27	985,(3, 34),3	1018,(3, 74),18	
40,(0, 3),39	201,(6, 13),3	211,(4, 103),39	357,(10, 53),3	360,(10, 73),9	376,(9, 113),3	409,(6, 93),57	685,(12, 17),3	724,(11, 33),12	763,(10, 63),210	973,(12, 83),111	
1,(0, 2),39	202,(4, 92),9	352,(0, 12),39	391,(5, 62),30	421,(9, 42),3	424,(9, 112),18	640,(1, 72),3	673,(11, 15),3	676,(6, 52),222	
406,(32, 121),15	421,(102, 121),15	436,(82, 121),15	451,(4, 91),60	511,(94, 121),15	526,(5, 71),18	544,(45, 121),15	559,(26, 121),15	574,(36, 121),15	589,(55, 121),15	604,(46, 121),15	619,(56, 121),15	634,(64, 121),15	649,(20, 121),15	664,(10, 81),3	670,(92, 121),15	685,(18, 121),15	700,(87, 121),15	715,(8, 31),39	754,(37, 121),15	769,(29, 121),15	784,(39, 121),15	805,(8, 51),3	808,(59, 121),15	823,(44, 121),15	838,(57, 121),15	853,(104, 121),15	868,(16, 121),15	883,(68, 121),15	898,(116, 121),15	913,(48, 121),15	931,(8, 111),27	958,(118, 121),15	973,(38, 121),15	988,(9, 61),90	1078,(19, 121),15	1093,(96, 121),15	1108,(25, 121),15	1123,(76, 121),15	1138,(60, 121),15	1153,(12, 41),54	1207,(12, 101),27	1234,(65, 121),15	1249,(86, 121),15	1264,(80, 121),15	1279,(90, 121),15	1294,(62, 121),15	1309,(42, 121),15	1324,(112, 121),15	1339,(97, 121),15	1354,(22, 121),15	1369,(106, 121),15	1393,(99, 121),15	1408,(119, 121),15	1426,(43, 121),15	1441,(13, 121),15	1456,(103, 121),15	1471,(53, 121),15	1486,(73, 121),15	1501,(113, 121),15	1516,(75, 121),15	1531,(93, 121),15	1546,(115, 121),15	1561,(24, 121),15	1576,(35, 121),15	1591,(54, 121),15	1606,(72, 121),15	1621,(105, 121),15	1636,(114, 121),15	1651,(15, 121),15	1666,(23, 121),15	1681,(17, 121),15	1696,(21, 121),15	1711,(66, 121),15	1726,(27, 121),15	1741,(30, 121),15	1756,(67, 121),15	1771,(107, 121),15	1786,(33, 121),15	1801,(70, 121),15	1816,(40, 121),15	1831,(77, 121),15	1846,(79, 121),15	1861,(84, 121),15	1876,(117, 121),15	1891,(95, 121),15	1906,(52, 121),15	1921,(120, 121),15	1936,(100, 121),15	1951,(63, 121),15	1966,(34, 121),15	1981,(47, 121),15	1996,(49, 121),15	2011,(50, 121),15	2026,(74, 121),15	2041,(83, 121),15	2056,(85, 121),15	2071,(89, 121),15	2086,(109, 121),15	2101,(110, 121),15	5722,(98, 121),15	5737,(58, 121),15	5752,(78, 121),15	5767,(88, 121),15	5782,(28, 121),15	5797,(108, 121),15	5812,(69, 121),15	
# Outgoing
357,(10, 53),3	360,(10, 73),9	376,(10, 97),75	451,(10, 106),3	454,(10, 115),42	664,(10, 81),3	670,(10, 58),93	763,(10, 63),210	1108,(25, 121),15	1138,(60, 121),15	1264,(80, 121),15	1279,(90, 121),15	1741,(30, 121),15	1801,(70, 121),15	1816,(40, 121),15	1921,(120, 121),15	1936,(100, 121),15	2011,(50, 121),15	2101,(110, 121),15	
352,(9, 25),15	367,(9, 57),9	376,(9, 113),3	409,(9, 90),6	421,(9, 42),3	424,(9, 112),18	769,(29, 121),15	784,(39, 121),15	808,(59, 121),15	988,(9, 61),90	1078,(9, 108),315	1393,(99, 121),15	1408,(119, 121),15	1561,(24, 121),15	1846,(79, 121),15	1996,(49, 121),15	2071,(89, 121),15	2086,(109, 121),15	5812,(69, 121),15	
715,(8, 31),39	754,(8, 40),51	805,(8, 51),3	808,(8, 79),3	811,(8, 84),27	838,(8, 95),45	883,(68, 121),15	913,(48, 121),15	928,(8, 100),3	931,(8, 111),27	958,(118, 121),15	973,(38, 121),15	1354,(22, 121),15	1408,(8, 69),4314	5722,(98, 121),15	5737,(58, 121),15	5752,(78, 121),15	5767,(88, 121),15	5782,(28, 121),15	5797,(108, 121),15	
240,(7, 18),3	331,(7, 59),9	346,(7, 76),30	376,(7, 99),24	400,(7, 119),9	649,(20, 121),15	700,(87, 121),15	754,(37, 121),15	838,(57, 121),15	1339,(97, 121),15	1726,(27, 121),15	1756,(67, 121),15	1771,(107, 121),15	1831,(77, 121),15	1876,(117, 121),15	1981,(47, 121),15	
201,(6, 13),3	204,(6, 55),3	207,(6, 64),21	238,(6, 37),60	298,(6, 38),12	313,(6, 39),18	382,(6, 80),27	409,(6, 93),57	559,(26, 121),15	574,(36, 121),15	604,(46, 121),15	619,(56, 121),15	676,(6, 52),222	898,(116, 121),15	1078,(19, 121),15	1093,(96, 121),15	1123,(76, 121),15	1249,(86, 121),15	1369,(106, 121),15	1711,(66, 121),15	
256,(5, 19),81	337,(5, 96),9	376,(5, 104),3	391,(5, 62),30	526,(5, 71),18	544,(45, 121),15	589,(55, 121),15	685,(18, 121),15	1234,(65, 121),15	1516,(75, 121),15	1546,(115, 121),15	1576,(35, 121),15	1621,(105, 121),15	1666,(23, 121),15	1891,(95, 121),15	2056,(85, 121),15	
196,(4, 26),3	199,(4, 56),3	202,(4, 92),9	211,(4, 103),39	250,(4, 116),6	274,(4, 68),3	451,(4, 91),60	511,(94, 121),15	634,(64, 121),15	823,(44, 121),15	853,(104, 121),15	868,(16, 121),15	1591,(54, 121),15	1636,(114, 121),15	1696,(21, 121),15	1861,(84, 121),15	1966,(34, 121),15	2026,(74, 121),15	
826,(3, 28),159	985,(3, 34),3	988,(3, 47),12	1000,(3, 49),3	1003,(3, 50),15	1018,(3, 74),18	1036,(3, 85),336	1372,(3, 89),3	1375,(3, 109),33	1408,(3, 110),18	1426,(43, 121),15	1441,(13, 121),15	1456,(103, 121),15	1471,(53, 121),15	1486,(73, 121),15	1501,(113, 121),15	1531,(93, 121),15	1681,(17, 121),15	1786,(33, 121),15	1951,(63, 121),15	2041,(83, 121),15	
235,(2, 20),3	238,(2, 44),138	376,(2, 60),6	382,(2, 65),18	400,(2, 86),6	406,(32, 121),15	421,(102, 121),15	436,(82, 121),15	451,(12, 75),3	454,(2, 98),216	670,(92, 121),15	685,(12, 17),3	688,(12, 21),9	697,(12, 66),3	715,(12, 67),12	727,(12, 107),6	763,(12, 78),3	973,(12, 83),111	1153,(12, 41),54	1207,(12, 101),27	1294,(62, 121),15	1309,(42, 121),15	1324,(112, 121),15	1606,(72, 121),15	1651,(15, 121),15	1906,(52, 121),15	
1,(0, 2),39	40,(0, 3),39	79,(0, 4),39	118,(0, 5),39	157,(0, 6),39	196,(0, 7),39	235,(0, 8),39	274,(0, 9),39	313,(0, 10),39	352,(0, 12),39	391,(1, 16),6	397,(1, 22),57	454,(1, 24),48	502,(1, 35),27	529,(1, 54),111	640,(1, 72),3	643,(1, 105),3	646,(1, 114),27	673,(11, 15),3	676,(11, 23),6	682,(11, 27),33	715,(11, 30),9	724,(11, 33),12	736,(11, 70),3	739,(11, 77),72	811,(11, 88),15	826,(11, 117),45	871,(11, 120),57	
