1734
# CPU
0,0,1	1,2,24	25,30,24	49,63,24	73,9,24	97,74,24	121,23,24	145,95,24	169,8,24	193,116,24	217,118,24	241,36,24	265,93,24	289,106,24	313,21,24	337,65,24	361,11,24	385,89,24	409,90,24	433,54,24	457,101,24	481,4,24	505,48,24	529,39,24	553,71,24	577,43,24	601,115,24	625,70,24	649,94,24	673,96,24	697,77,24	721,27,24	745,75,24	769,110,24	793,16,24	817,109,24	841,40,24	865,108,24	927,99,24	1029,57,24	1233,14,24	1709,64,24	1733,121,1	
5,3,24	29,76,24	53,5,24	77,88,24	101,111,24	125,18,24	149,85,24	173,114,24	197,13,24	221,84,24	245,78,24	269,12,24	293,80,24	317,83,24	341,31,24	365,45,24	389,92,24	413,15,24	437,58,24	461,120,24	485,119,24	509,32,24	533,33,24	557,19,24	581,81,24	605,24,24	629,69,24	653,68,24	677,113,24	701,103,24	725,67,24	749,117,24	773,112,24	797,97,24	821,26,24	845,104,24	869,107,24	893,37,24	1065,102,24	
3,10,24	27,98,24	51,1,24	75,28,24	99,105,24	123,79,24	147,62,24	171,6,24	195,55,24	219,47,24	243,59,24	267,52,24	291,7,24	315,35,24	339,20,24	363,49,24	387,66,24	411,41,24	435,86,24	459,51,24	483,38,24	507,56,24	531,17,24	555,50,24	579,22,24	603,91,24	627,100,24	651,60,24	675,34,24	699,25,24	723,61,24	747,73,24	771,53,24	795,72,24	819,87,24	843,29,24	867,46,24	891,82,24	915,44,24	939,42,24	
# Incoming
51,(98, 121),4	55,(76, 121),4	61,(10, 43),2	63,(3, 70),2	65,(10, 94),2	67,(10, 96),2	69,(3, 110),2	81,(10, 109),8	97,(5, 14),2	99,(28, 121),4	103,(88, 121),4	107,(5, 110),4	111,(5, 16),8	119,(1, 14),2	123,(105, 121),4	127,(111, 121),4	147,(79, 121),4	151,(18, 121),4	155,(3, 40),14	171,(62, 121),4	175,(85, 121),4	179,(3, 108),14	197,(114, 121),4	201,(6, 77),2	203,(6, 109),2	219,(55, 121),4	223,(13, 121),4	243,(47, 121),4	247,(84, 121),4	267,(59, 121),4	271,(78, 121),4	291,(52, 121),4	295,(12, 115),2	297,(12, 27),4	317,(80, 121),4	321,(7, 71),2	337,(7, 99),2	339,(35, 121),4	343,(83, 121),4	347,(7, 75),6	363,(20, 121),4	367,(31, 121),4	371,(7, 64),8	387,(49, 121),4	391,(45, 121),4	411,(66, 121),4	415,(92, 121),4	435,(41, 121),4	439,(15, 121),4	459,(86, 121),4	463,(58, 121),4	483,(51, 121),4	487,(120, 121),4	507,(38, 121),4	511,(119, 121),4	531,(56, 121),4	535,(32, 121),4	555,(17, 121),4	559,(33, 121),4	579,(50, 121),4	583,(19, 121),4	603,(22, 121),4	607,(81, 121),4	627,(91, 121),4	631,(24, 121),4	651,(100, 121),4	655,(69, 121),4	675,(60, 121),4	679,(68, 121),4	699,(34, 121),4	703,(113, 121),4	723,(25, 121),4	727,(103, 121),4	747,(61, 121),4	751,(67, 121),4	771,(73, 121),4	775,(117, 121),4	795,(53, 121),4	799,(112, 121),4	819,(72, 121),4	823,(97, 121),4	843,(87, 121),4	847,(26, 121),4	867,(29, 121),4	871,(104, 121),4	891,(46, 121),4	895,(107, 121),4	899,(12, 99),28	927,(82, 121),4	931,(37, 121),4	939,(44, 121),4	963,(42, 121),4	967,(5, 57),30	997,(6, 57),32	1029,(3, 14),140	1169,(7, 14),64	1233,(102, 121),4	1237,(1, 64),148	1385,(12, 64),324	
3,(0, 3),2	7,(0, 5),2	11,(0, 12),2	25,(2, 76),2	29,(2, 120),4	33,(2, 119),2	41,(2, 68),6	55,(10, 120),4	59,(10, 119),2	63,(10, 97),2	75,(1, 113),6	89,(10, 104),10	101,(9, 58),4	105,(9, 19),8	113,(9, 103),12	125,(9, 112),4	129,(1, 104),16	159,(9, 37),10	175,(10, 102),10	193,(8, 84),2	195,(6, 13),2	197,(8, 78),2	199,(8, 15),2	201,(8, 119),4	205,(6, 33),2	207,(6, 24),2	209,(8, 24),6	215,(8, 69),8	223,(6, 69),2	225,(6, 68),6	233,(8, 67),12	247,(6, 117),12	259,(8, 112),10	269,(8, 97),4	273,(6, 26),8	281,(6, 107),10	315,(7, 15),2	323,(7, 81),8	331,(7, 113),6	353,(7, 97),8	407,(11, 26),10	417,(11, 107),14	507,(4, 32),2	511,(4, 33),2	521,(4, 107),2	523,(4, 37),70	1029,(6, 102),36	
1,(0, 10),2	5,(0, 1),2	9,(0, 6),2	13,(0, 7),2	27,(2, 52),2	35,(2, 22),2	37,(2, 60),4	47,(2, 87),8	55,(2, 46),2	59,(3, 62),2	61,(2, 72),16	77,(5, 38),2	79,(5, 25),12	91,(5, 73),6	97,(9, 79),2	99,(9, 86),2	101,(3, 46),2	131,(3, 87),10	141,(9, 29),18	195,(8, 41),2	205,(8, 22),2	207,(8, 91),2	223,(8, 61),10	245,(8, 53),14	273,(8, 44),14	293,(12, 51),2	295,(9, 46),44	339,(12, 82),4	385,(11, 50),2	387,(11, 100),4	391,(11, 61),4	395,(11, 73),10	405,(11, 53),2	431,(11, 82),62	505,(4, 56),2	509,(4, 17),2	513,(4, 91),2	515,(4, 34),6	593,(9, 44),134	727,(2, 42),152	
# Outgoing
1,(0, 10),2	3,(0, 3),2	5,(0, 1),2	7,(0, 5),2	9,(0, 6),2	11,(0, 12),2	13,(0, 7),2	25,(2, 76),2	27,(2, 52),2	29,(2, 120),4	33,(2, 119),2	35,(2, 22),2	37,(2, 60),4	41,(2, 68),6	47,(2, 87),8	55,(2, 46),2	61,(2, 72),16	97,(9, 79),2	99,(9, 86),2	101,(9, 58),4	105,(9, 19),8	113,(9, 103),12	125,(9, 112),4	141,(9, 29),18	159,(9, 37),10	193,(8, 84),2	195,(8, 41),2	197,(8, 78),2	199,(8, 15),2	201,(8, 119),4	205,(8, 22),2	207,(8, 91),2	209,(8, 24),6	215,(8, 69),8	223,(8, 61),10	233,(8, 67),12	245,(8, 53),14	259,(8, 112),10	269,(8, 97),4	273,(8, 44),14	295,(9, 46),44	385,(11, 50),2	387,(11, 100),4	391,(11, 61),4	395,(11, 73),10	405,(11, 53),2	407,(11, 26),10	417,(11, 107),14	431,(11, 82),62	505,(4, 56),2	507,(4, 32),2	509,(4, 17),2	511,(4, 33),2	513,(4, 91),2	515,(4, 34),6	521,(4, 107),2	523,(4, 37),70	593,(9, 44),134	727,(2, 42),152	
55,(76, 121),4	59,(3, 62),2	63,(3, 70),2	69,(3, 110),2	77,(5, 38),2	79,(5, 25),12	91,(5, 73),6	97,(5, 14),2	101,(3, 46),2	103,(88, 121),4	107,(5, 110),4	111,(5, 16),8	127,(111, 121),4	131,(3, 87),10	151,(18, 121),4	155,(3, 40),14	175,(85, 121),4	179,(3, 108),14	197,(114, 121),4	223,(13, 121),4	247,(84, 121),4	271,(78, 121),4	293,(12, 51),2	295,(12, 115),2	297,(12, 27),4	317,(80, 121),4	339,(12, 82),4	343,(83, 121),4	367,(31, 121),4	391,(45, 121),4	415,(92, 121),4	439,(15, 121),4	463,(58, 121),4	487,(120, 121),4	511,(119, 121),4	535,(32, 121),4	559,(33, 121),4	583,(19, 121),4	607,(81, 121),4	631,(24, 121),4	655,(69, 121),4	679,(68, 121),4	703,(113, 121),4	727,(103, 121),4	751,(67, 121),4	775,(117, 121),4	799,(112, 121),4	823,(97, 121),4	847,(26, 121),4	871,(104, 121),4	895,(107, 121),4	899,(12, 99),28	931,(37, 121),4	967,(5, 57),30	1029,(3, 14),140	1233,(102, 121),4	1385,(12, 64),324	
51,(98, 121),4	55,(10, 120),4	59,(10, 119),2	61,(10, 43),2	63,(10, 97),2	65,(10, 94),2	67,(10, 96),2	75,(1, 113),6	81,(10, 109),8	89,(10, 104),10	99,(28, 121),4	119,(1, 14),2	123,(105, 121),4	129,(1, 104),16	147,(79, 121),4	171,(62, 121),4	175,(10, 102),10	195,(6, 13),2	201,(6, 77),2	203,(6, 109),2	205,(6, 33),2	207,(6, 24),2	219,(55, 121),4	223,(6, 69),2	225,(6, 68),6	243,(47, 121),4	247,(6, 117),12	267,(59, 121),4	273,(6, 26),8	281,(6, 107),10	291,(52, 121),4	315,(7, 15),2	321,(7, 71),2	323,(7, 81),8	331,(7, 113),6	337,(7, 99),2	339,(35, 121),4	347,(7, 75),6	353,(7, 97),8	363,(20, 121),4	371,(7, 64),8	387,(49, 121),4	411,(66, 121),4	435,(41, 121),4	459,(86, 121),4	483,(51, 121),4	507,(38, 121),4	531,(56, 121),4	555,(17, 121),4	579,(50, 121),4	603,(22, 121),4	627,(91, 121),4	651,(100, 121),4	675,(60, 121),4	699,(34, 121),4	723,(25, 121),4	747,(61, 121),4	771,(73, 121),4	795,(53, 121),4	819,(72, 121),4	843,(87, 121),4	867,(29, 121),4	891,(46, 121),4	927,(82, 121),4	939,(44, 121),4	963,(42, 121),4	997,(6, 57),32	1029,(6, 102),36	1169,(7, 14),64	1237,(1, 64),148	
