232
# CPU
0,0,1	1,1,8	9,12,8	17,16,8	25,20,8	33,17,8	57,10,8	231,21,1	
3,2,8	11,8,8	19,4,8	27,15,8	35,11,8	43,19,8	51,18,8	59,5,8	67,7,8	75,6,8	221,3,8	
13,13,8	
15,9,8	
19,14,8	





# Incoming
19,(2, 17),6	25,(2, 10),32	57,(8, 21),2	59,(13, 21),2	61,(9, 21),2	63,(4, 21),2	65,(14, 21),2	67,(15, 21),2	69,(11, 21),2	71,(19, 21),2	73,(18, 21),2	75,(5, 21),2	77,(7, 21),2	83,(6, 21),2	229,(3, 21),2	
1,(0, 2),2	15,(1, 18),2	17,(1, 5),6	23,(1, 7),6	29,(1, 6),30	59,(1, 3),162	
11,(2, 13),2	
9,(1, 9),2	13,(2, 9),2	
11,(1, 14),4	15,(2, 14),4	





# Outgoing
1,(0, 2),2	9,(1, 9),2	11,(1, 14),4	15,(1, 18),2	17,(1, 5),6	23,(1, 7),6	29,(1, 6),30	59,(1, 3),162	
11,(2, 13),2	13,(2, 9),2	15,(2, 14),4	19,(2, 17),6	25,(2, 10),32	57,(8, 21),2	63,(4, 21),2	67,(15, 21),2	69,(11, 21),2	71,(19, 21),2	73,(18, 21),2	75,(5, 21),2	77,(7, 21),2	83,(6, 21),2	229,(3, 21),2	
59,(13, 21),2	
61,(9, 21),2	
65,(14, 21),2	





