11654
# CPU
32,23,7	216,19,7	10860,32,7	
20,21,7	40,28,7	10822,17,7	10910,38,7	
116,22,7	220,30,7	766,40,7	10816,16,7	
48,14,7	218,20,7	240,35,7	10846,27,7	10912,39,7	
86,25,7	93,34,7	290,36,7	10812,12,7	
90,11,7	256,31,7	10834,18,7	10908,33,7	
7,4,7	14,26,7	22,10,7	254,29,7	
5,3,7	18,8,7	194,24,7	11653,41,1	
3,2,7	10,15,7	18,7,7	84,9,7	210,13,7	730,37,7	
0,0,1	1,1,7	34,5,7	10806,6,7	
# Incoming
20,(2, 23),12	40,(2, 32),2	212,(4, 19),4	10846,(3, 32),14	
18,(2, 21),2	32,(2, 28),8	210,(4, 17),2	10816,(3, 17),6	10908,(3, 38),2	
90,(1, 40),22	114,(2, 22),2	218,(4, 30),2	764,(4, 40),2	10812,(3, 16),4	
22,(1, 20),24	46,(2, 14),2	216,(4, 20),2	220,(4, 35),20	730,(4, 39),34	10834,(3, 27),12	10910,(3, 39),2	
70,(1, 25),16	88,(1, 34),2	90,(2, 12),22	256,(2, 36),34	10806,(3, 12),6	
86,(1, 33),2	88,(2, 11),2	112,(2, 18),2	254,(2, 31),2	10822,(3, 18),12	10860,(3, 33),48	
5,(0, 4),2	10,(1, 10),12	194,(2, 29),60	
3,(0, 3),2	10,(2, 8),8	46,(1, 24),24	116,(2, 24),78	194,(21, 41),84	290,(15, 41),84	374,(7, 41),84	458,(23, 41),84	542,(5, 41),84	626,(28, 41),84	766,(26, 41),84	850,(10, 41),84	934,(14, 41),84	1018,(9, 41),84	1102,(25, 41),84	1186,(11, 41),84	1270,(34, 41),84	1354,(22, 41),84	1438,(13, 41),84	1522,(19, 41),84	1606,(20, 41),84	1690,(30, 41),84	1774,(35, 41),84	1858,(29, 41),84	1942,(31, 41),84	2026,(36, 41),84	2110,(37, 41),84	2194,(40, 41),84	10813,(6, 41),84	10897,(12, 41),84	10981,(16, 41),84	11065,(17, 41),84	11149,(18, 41),84	11233,(27, 41),84	11317,(32, 41),84	11401,(33, 41),84	11485,(38, 41),84	11569,(39, 41),84	
1,(0, 2),2	8,(1, 9),2	14,(4, 7),4	18,(4, 9),66	84,(4, 13),126	240,(4, 37),490	
12,(3, 5),22	34,(3, 6),10772	
# Outgoing
458,(23, 41),84	1522,(19, 41),84	11317,(32, 41),84	
194,(21, 41),84	626,(28, 41),84	11065,(17, 41),84	11485,(38, 41),84	
1354,(22, 41),84	1690,(30, 41),84	2194,(40, 41),84	10981,(16, 41),84	
934,(14, 41),84	1606,(20, 41),84	1774,(35, 41),84	11233,(27, 41),84	11569,(39, 41),84	
1102,(25, 41),84	1270,(34, 41),84	2026,(36, 41),84	10897,(12, 41),84	
1186,(11, 41),84	1942,(31, 41),84	11149,(18, 41),84	11401,(33, 41),84	
14,(4, 7),4	18,(4, 9),66	84,(4, 13),126	210,(4, 17),2	212,(4, 19),4	216,(4, 20),2	218,(4, 30),2	220,(4, 35),20	240,(4, 37),490	730,(4, 39),34	764,(4, 40),2	766,(26, 41),84	850,(10, 41),84	1858,(29, 41),84	
12,(3, 5),22	34,(3, 6),10772	10806,(3, 12),6	10812,(3, 16),4	10816,(3, 17),6	10822,(3, 18),12	10834,(3, 27),12	10846,(3, 32),14	10860,(3, 33),48	10908,(3, 38),2	10910,(3, 39),2	
10,(2, 8),8	18,(2, 21),2	20,(2, 23),12	32,(2, 28),8	40,(2, 32),2	46,(2, 14),2	88,(2, 11),2	90,(2, 12),22	112,(2, 18),2	114,(2, 22),2	116,(2, 24),78	194,(2, 29),60	254,(2, 31),2	256,(2, 36),34	290,(15, 41),84	374,(7, 41),84	1018,(9, 41),84	1438,(13, 41),84	2110,(37, 41),84	
1,(0, 2),2	3,(0, 3),2	5,(0, 4),2	8,(1, 9),2	10,(1, 10),12	22,(1, 20),24	46,(1, 24),24	70,(1, 25),16	86,(1, 33),2	88,(1, 34),2	90,(1, 40),22	542,(5, 41),84	10813,(6, 41),84	
