722
# CPU
0,121,1	1,86,6	7,62,6	13,78,6	19,101,6	25,92,6	31,30,6	37,47,6	43,67,6	49,114,6	55,46,6	61,50,6	67,103,6	73,85,6	79,36,6	85,89,6	91,56,6	97,96,6	103,53,6	109,37,6	115,31,6	121,99,6	127,49,6	133,119,6	139,51,6	145,108,6	151,22,6	157,48,6	163,35,6	169,100,6	175,64,6	181,94,6	187,60,6	193,76,6	199,72,6	205,13,6	211,52,6	217,116,6	223,69,6	229,95,6	235,120,6	241,21,6	247,111,6	253,82,6	259,102,6	265,107,6	271,106,6	277,104,6	283,77,6	289,91,6	295,43,6	301,75,6	307,19,6	313,84,6	319,93,6	325,65,6	331,54,6	337,71,6	343,44,6	349,73,6	355,109,6	361,15,6	367,63,6	373,41,6	379,14,6	385,80,6	391,66,6	397,16,6	403,83,6	409,87,6	415,29,6	421,115,6	427,17,6	433,105,6	439,45,6	445,113,6	451,112,6	457,59,6	463,57,6	469,90,6	475,110,6	481,68,6	487,24,6	493,40,6	499,118,6	505,81,6	511,39,6	517,32,6	523,61,6	529,58,6	535,27,6	541,33,6	547,42,6	553,18,6	559,1,6	565,34,6	571,55,6	577,23,6	583,88,6	589,2,6	595,98,6	601,70,6	607,97,6	613,38,6	619,20,6	625,9,6	631,26,6	637,5,6	643,25,6	649,79,6	655,10,6	661,74,6	667,11,6	673,12,6	679,28,6	685,8,6	691,7,6	697,117,6	703,4,6	709,6,6	715,3,6	721,0,1	
# Incoming

# Outgoing

