2815
# CPU
280,10,41	321,40,41	362,170,41	403,50,41	444,90,41	485,70,41	526,190,41	567,60,41	608,120,41	649,150,41	690,20,41	731,160,41	772,110,41	813,200,41	854,140,41	895,180,41	936,30,41	977,100,41	1018,80,41	1410,130,41	
249,9,41	303,69,41	344,79,41	385,129,41	426,139,41	467,189,41	508,119,41	549,109,41	590,199,41	631,159,41	672,169,41	713,59,41	754,19,41	795,39,41	836,29,41	877,89,41	918,179,41	959,49,41	1000,149,41	1041,99,41	
218,8,41	259,48,41	300,98,41	341,58,41	382,188,41	423,118,41	464,38,41	505,18,41	546,108,41	587,28,41	628,148,41	691,178,41	740,68,41	781,158,41	822,168,41	863,78,41	904,128,41	945,198,41	986,138,41	1316,88,41	
187,7,41	228,37,41	269,97,41	310,27,41	351,87,41	392,107,41	433,117,41	474,67,41	515,137,41	556,47,41	597,57,41	638,17,41	679,147,41	720,197,41	761,157,41	802,77,41	843,127,41	884,177,41	925,187,41	966,167,41	
156,6,41	197,146,41	253,76,41	294,196,41	335,176,41	376,26,41	417,36,41	458,126,41	499,166,41	540,16,41	597,186,41	638,106,41	679,116,41	720,136,41	761,86,41	802,156,41	843,66,41	884,46,41	925,56,41	1329,96,41	
125,5,41	166,125,41	230,165,41	271,95,41	404,15,41	565,105,41	606,45,41	647,115,41	688,145,41	729,155,41	770,195,41	811,65,41	852,35,41	893,75,41	934,85,41	975,55,41	1016,135,41	1057,25,41	1126,175,41	1269,185,41	
94,4,41	135,54,41	176,124,41	217,174,41	258,24,41	299,34,41	342,74,41	383,14,41	424,164,41	465,104,41	506,94,41	547,154,41	588,144,41	629,184,41	670,114,41	711,194,41	752,84,41	793,134,41	834,44,41	875,64,41	
63,3,41	104,63,41	145,53,41	237,153,41	278,173,41	319,83,41	360,93,41	401,113,41	442,13,41	483,193,41	524,33,41	565,23,41	606,103,41	661,183,41	702,163,41	743,73,41	784,43,41	825,123,41	866,133,41	907,143,41	
32,2,41	73,92,41	193,52,41	254,82,41	295,162,41	336,12,41	377,102,41	418,142,41	459,182,41	500,22,41	541,42,41	582,122,41	623,32,41	664,192,41	705,62,41	746,152,41	787,172,41	828,112,41	869,72,41	910,132,41	
0,0,1	1,1,41	42,11,41	83,91,41	124,31,41	165,21,41	206,161,41	247,171,41	288,61,41	329,111,41	370,141,41	411,71,41	452,101,41	493,131,41	534,191,41	575,151,41	616,121,41	657,181,41	698,81,41	1439,51,41	1862,41,41	2814,201,1	
# Incoming
249,(0, 10),31	280,(4, 30),4	284,(4, 40),1	285,(4, 170),2	297,(3, 50),6	303,(3, 90),1	304,(3, 100),4	308,(3, 140),164	472,(5, 190),12	484,(8, 60),6	490,(12, 80),2	508,(15, 30),1	509,(15, 120),5	514,(15, 150),11	528,(0, 20),31	559,(15, 160),13	592,(18, 110),3	650,(6, 200),16	666,(18, 140),10	692,(17, 180),10	745,(16, 100),1	757,(11, 80),1	1316,(19, 130),94	
218,(0, 9),31	249,(2, 49),25	274,(3, 49),23	297,(4, 69),6	303,(4, 79),8	311,(6, 59),9	320,(6, 129),27	347,(6, 139),4	351,(6, 179),1	352,(7, 119),3	355,(7, 189),11	372,(4, 119),11	383,(4, 169),1	384,(12, 39),7	403,(12, 109),4	460,(15, 199),9	472,(3, 159),1	473,(3, 169),11	485,(13, 59),1	497,(0, 19),31	562,(1, 39),4	566,(18, 29),17	599,(14, 49),1	600,(18, 89),18	691,(17, 179),1	694,(16, 49),41	750,(17, 149),5	825,(20, 99),15	
187,(0, 8),31	218,(2, 168),5	228,(7, 48),1	230,(4, 58),11	245,(6, 98),1	246,(6, 188),15	314,(5, 198),4	318,(9, 118),100	452,(15, 38),2	466,(0, 18),31	559,(1, 28),3	569,(1, 88),1	624,(14, 148),1	690,(17, 178),1	733,(20, 128),1	735,(16, 68),5	761,(16, 158),5	772,(11, 168),1	798,(19, 78),4	802,(19, 128),2	806,(16, 198),21	856,(19, 138),18	1198,(19, 88),118	
156,(0, 7),31	187,(3, 37),2	193,(3, 87),22	215,(4, 27),15	254,(4, 87),2	260,(4, 107),7	278,(5, 117),5	283,(5, 137),7	290,(9, 67),6	296,(9, 127),7	303,(9, 137),1	329,(10, 47),1	358,(10, 197),2	391,(12, 57),8	435,(0, 17),31	466,(6, 147),114	580,(13, 167),10	761,(11, 127),4	773,(11, 177),23	796,(16, 187),10	806,(19, 167),7	
125,(0, 6),31	156,(2, 176),4	231,(7, 106),2	241,(4, 76),12	255,(7, 176),1	256,(7, 196),2	259,(4, 106),1	296,(5, 176),18	321,(10, 26),7	328,(10, 36),1	342,(10, 126),7	349,(10, 166),9	404,(0, 16),31	583,(18, 56),9	595,(18, 186),2	600,(14, 106),5	605,(14, 116),6	611,(14, 136),13	624,(18, 86),16	731,(20, 66),1	734,(20, 156),1	751,(11, 66),6	795,(19, 46),2	797,(19, 56),1	1212,(17, 96),117	
94,(0, 5),31	229,(7, 165),1	256,(4, 95),3	373,(0, 15),31	404,(4, 175),139	543,(8, 65),4	547,(8, 105),18	565,(12, 45),8	573,(12, 55),3	576,(12, 115),1	577,(12, 145),1	580,(6, 155),70	650,(14, 195),1	661,(1, 185),52	713,(12, 65),28	741,(16, 35),4	745,(20, 75),3	758,(11, 85),3	761,(14, 55),23	792,(16, 135),2	794,(17, 25),18	820,(14, 175),306	1126,(14, 185),143	
63,(0, 4),31	166,(5, 24),76	242,(6, 34),1	243,(7, 74),12	330,(10, 74),12	342,(0, 14),31	373,(10, 164),23	399,(12, 104),4	454,(15, 144),1	456,(15, 184),4	640,(18, 114),8	702,(17, 194),1	732,(20, 84),1	738,(11, 44),13	760,(16, 134),1	778,(20, 44),47	834,(19, 64),22	
32,(0, 3),31	75,(2, 63),1	76,(2, 73),7	235,(7, 153),2	237,(7, 173),6	243,(6, 83),2	260,(5, 93),6	266,(5, 113),1	290,(5, 143),6	311,(0, 13),31	435,(8, 43),1	436,(9, 193),33	469,(15, 33),1	499,(15, 23),9	565,(18, 103),1	587,(1, 183),74	661,(18, 163),1	679,(17, 73),9	713,(11, 43),25	746,(16, 123),7	753,(16, 133),7	765,(11, 143),7	
1,(0, 2),31	189,(3, 52),4	253,(4, 82),1	267,(4, 162),1	268,(5, 112),10	280,(0, 12),31	311,(4, 102),61	372,(5, 142),1	373,(7, 122),45	418,(8, 22),16	434,(8, 42),1	436,(8, 122),1	455,(15, 152),1	484,(13, 32),1	486,(13, 172),9	513,(13, 192),5	566,(1, 62),3	570,(1, 152),4	574,(1, 172),13	688,(17, 112),2	740,(16, 72),1	804,(19, 132),1	
73,(2, 31),2	83,(2, 161),8	91,(2, 171),39	130,(2, 181),6	136,(92, 201),14	215,(3, 151),1	216,(63, 201),14	230,(7, 61),1	233,(7, 111),1	234,(7, 141),1	242,(5, 71),18	260,(53, 201),14	274,(6, 101),2	276,(6, 131),7	283,(6, 191),24	318,(125, 201),14	332,(52, 201),14	352,(146, 201),14	373,(5, 151),79	452,(8, 121),1	453,(8, 181),18	471,(37, 201),14	485,(165, 201),14	499,(153, 201),14	513,(82, 201),14	527,(48, 201),14	543,(54, 201),14	557,(124, 201),14	571,(174, 201),14	585,(24, 201),14	599,(97, 201),14	613,(95, 201),14	627,(173, 201),14	641,(162, 201),14	655,(14, 81),3	666,(76, 201),14	680,(196, 201),14	694,(34, 201),14	708,(98, 201),14	722,(69, 201),14	736,(27, 201),14	750,(83, 201),14	764,(40, 201),14	778,(176, 201),14	792,(58, 201),14	806,(74, 201),14	820,(79, 201),14	834,(87, 201),14	848,(93, 201),14	862,(170, 201),14	876,(26, 201),14	890,(102, 201),14	904,(188, 201),14	918,(129, 201),14	932,(107, 201),14	946,(113, 201),14	960,(50, 201),14	974,(36, 201),14	988,(142, 201),14	1002,(118, 201),14	1016,(139, 201),14	1030,(117, 201),14	1044,(90, 201),14	1058,(126, 201),14	1072,(182, 201),14	1086,(38, 201),14	1100,(189, 201),14	1114,(67, 201),14	1128,(193, 201),14	1142,(70, 201),14	1156,(166, 201),14	1170,(22, 201),14	1184,(119, 201),14	1198,(137, 201),14	1212,(33, 201),14	1226,(190, 201),14	1240,(42, 201),14	1254,(108, 201),14	1269,(164, 201),14	1283,(104, 201),14	1297,(18, 51),142	1439,(94, 201),14	1453,(154, 201),14	1467,(109, 201),14	1481,(47, 201),14	1495,(105, 201),14	1509,(23, 201),14	1523,(60, 201),14	1537,(122, 201),14	1551,(28, 201),14	1565,(144, 201),14	1579,(199, 201),14	1593,(57, 201),14	1607,(186, 201),14	1621,(45, 201),14	1635,(103, 201),14	1649,(120, 201),14	1663,(32, 201),14	1677,(148, 201),14	1691,(184, 201),14	1705,(159, 201),14	1719,(106, 201),14	1733,(115, 201),14	1747,(150, 201),14	1761,(183, 201),14	1775,(192, 201),14	1789,(114, 201),14	1803,(169, 201),14	1817,(147, 201),14	1831,(116, 201),14	1845,(145, 201),14	1859,(20, 41),3	1862,(178, 201),14	1876,(163, 201),14	1890,(62, 201),14	1904,(194, 201),14	1918,(59, 201),14	1932,(136, 201),14	1946,(197, 201),14	1960,(155, 201),14	1974,(160, 201),14	1988,(68, 201),14	2002,(73, 201),14	2016,(152, 201),14	2030,(84, 201),14	2044,(86, 201),14	2058,(157, 201),14	2072,(195, 201),14	2086,(110, 201),14	2100,(158, 201),14	2114,(43, 201),14	2128,(172, 201),14	2142,(134, 201),14	2156,(39, 201),14	2170,(156, 201),14	2184,(77, 201),14	2198,(65, 201),14	2212,(200, 201),14	2226,(168, 201),14	2240,(123, 201),14	2254,(112, 201),14	2268,(44, 201),14	2282,(29, 201),14	2296,(127, 201),14	2310,(66, 201),14	2324,(35, 201),14	2338,(140, 201),14	2352,(78, 201),14	2366,(133, 201),14	2380,(72, 201),14	2394,(64, 201),14	2408,(89, 201),14	2422,(46, 201),14	2436,(177, 201),14	2450,(75, 201),14	2464,(180, 201),14	2478,(128, 201),14	2492,(143, 201),14	2506,(132, 201),14	2520,(179, 201),14	2534,(187, 201),14	2548,(56, 201),14	2562,(85, 201),14	2576,(30, 201),14	2590,(198, 201),14	2604,(49, 201),14	2618,(167, 201),14	2632,(55, 201),14	2646,(100, 201),14	2660,(138, 201),14	2674,(149, 201),14	2688,(135, 201),14	2702,(80, 201),14	2716,(99, 201),14	2730,(25, 201),14	2744,(175, 201),14	2758,(185, 201),14	2772,(88, 201),14	2786,(96, 201),14	2800,(130, 201),14	
# Outgoing
321,(10, 26),7	328,(10, 36),1	329,(10, 47),1	330,(10, 74),12	342,(10, 126),7	349,(10, 166),9	358,(10, 197),2	373,(10, 164),23	731,(20, 66),1	732,(20, 84),1	733,(20, 128),1	734,(20, 156),1	745,(20, 75),3	764,(40, 201),14	778,(20, 44),47	825,(20, 99),15	862,(170, 201),14	960,(50, 201),14	1044,(90, 201),14	1142,(70, 201),14	1226,(190, 201),14	1523,(60, 201),14	1649,(120, 201),14	1747,(150, 201),14	1859,(20, 41),3	1974,(160, 201),14	2086,(110, 201),14	2212,(200, 201),14	2338,(140, 201),14	2464,(180, 201),14	2576,(30, 201),14	2646,(100, 201),14	2702,(80, 201),14	2800,(130, 201),14	
290,(9, 67),6	296,(9, 127),7	303,(9, 137),1	318,(9, 118),100	436,(9, 193),33	722,(69, 201),14	795,(19, 46),2	797,(19, 56),1	798,(19, 78),4	802,(19, 128),2	804,(19, 132),1	806,(19, 167),7	820,(79, 201),14	834,(19, 64),22	856,(19, 138),18	918,(129, 201),14	1016,(139, 201),14	1100,(189, 201),14	1184,(119, 201),14	1198,(19, 88),118	1316,(19, 130),94	1467,(109, 201),14	1579,(199, 201),14	1705,(159, 201),14	1803,(169, 201),14	1918,(59, 201),14	2156,(39, 201),14	2282,(29, 201),14	2408,(89, 201),14	2520,(179, 201),14	2604,(49, 201),14	2674,(149, 201),14	2716,(99, 201),14	
418,(8, 22),16	434,(8, 42),1	435,(8, 43),1	436,(8, 122),1	452,(8, 121),1	453,(8, 181),18	484,(8, 60),6	527,(48, 201),14	543,(8, 65),4	547,(8, 105),18	565,(18, 103),1	566,(18, 29),17	583,(18, 56),9	592,(18, 110),3	595,(18, 186),2	600,(18, 89),18	624,(18, 86),16	640,(18, 114),8	661,(18, 163),1	666,(18, 140),10	708,(98, 201),14	792,(58, 201),14	904,(188, 201),14	1002,(118, 201),14	1086,(38, 201),14	1254,(108, 201),14	1297,(18, 51),142	1551,(28, 201),14	1677,(148, 201),14	1862,(178, 201),14	1988,(68, 201),14	2100,(158, 201),14	2226,(168, 201),14	2352,(78, 201),14	2478,(128, 201),14	2590,(198, 201),14	2660,(138, 201),14	2772,(88, 201),14	
228,(7, 48),1	229,(7, 165),1	230,(7, 61),1	231,(7, 106),2	233,(7, 111),1	234,(7, 141),1	235,(7, 153),2	237,(7, 173),6	243,(7, 74),12	255,(7, 176),1	256,(7, 196),2	352,(7, 119),3	355,(7, 189),11	373,(7, 122),45	471,(37, 201),14	599,(97, 201),14	679,(17, 73),9	688,(17, 112),2	690,(17, 178),1	691,(17, 179),1	692,(17, 180),10	702,(17, 194),1	736,(27, 201),14	750,(17, 149),5	794,(17, 25),18	834,(87, 201),14	932,(107, 201),14	1030,(117, 201),14	1114,(67, 201),14	1198,(137, 201),14	1212,(17, 96),117	1481,(47, 201),14	1593,(57, 201),14	1817,(147, 201),14	1946,(197, 201),14	2058,(157, 201),14	2184,(77, 201),14	2296,(127, 201),14	2436,(177, 201),14	2534,(187, 201),14	2618,(167, 201),14	
242,(6, 34),1	243,(6, 83),2	245,(6, 98),1	246,(6, 188),15	274,(6, 101),2	276,(6, 131),7	283,(6, 191),24	311,(6, 59),9	320,(6, 129),27	347,(6, 139),4	351,(6, 179),1	352,(146, 201),14	466,(6, 147),114	580,(6, 155),70	650,(6, 200),16	666,(76, 201),14	680,(196, 201),14	694,(16, 49),41	735,(16, 68),5	740,(16, 72),1	741,(16, 35),4	745,(16, 100),1	746,(16, 123),7	753,(16, 133),7	760,(16, 134),1	761,(16, 158),5	778,(176, 201),14	792,(16, 135),2	796,(16, 187),10	806,(16, 198),21	876,(26, 201),14	974,(36, 201),14	1058,(126, 201),14	1156,(166, 201),14	1607,(186, 201),14	1719,(106, 201),14	1831,(116, 201),14	1932,(136, 201),14	2044,(86, 201),14	2170,(156, 201),14	2310,(66, 201),14	2422,(46, 201),14	2548,(56, 201),14	2786,(96, 201),14	
166,(5, 24),76	242,(5, 71),18	260,(5, 93),6	266,(5, 113),1	268,(5, 112),10	278,(5, 117),5	283,(5, 137),7	290,(5, 143),6	296,(5, 176),18	314,(5, 198),4	318,(125, 201),14	372,(5, 142),1	373,(5, 151),79	452,(15, 38),2	454,(15, 144),1	455,(15, 152),1	456,(15, 184),4	460,(15, 199),9	469,(15, 33),1	472,(5, 190),12	485,(165, 201),14	499,(15, 23),9	508,(15, 30),1	509,(15, 120),5	514,(15, 150),11	559,(15, 160),13	613,(95, 201),14	1495,(105, 201),14	1621,(45, 201),14	1733,(115, 201),14	1845,(145, 201),14	1960,(155, 201),14	2072,(195, 201),14	2198,(65, 201),14	2324,(35, 201),14	2450,(75, 201),14	2562,(85, 201),14	2632,(55, 201),14	2688,(135, 201),14	2730,(25, 201),14	2744,(175, 201),14	2758,(185, 201),14	
215,(4, 27),15	230,(4, 58),11	241,(4, 76),12	253,(4, 82),1	254,(4, 87),2	256,(4, 95),3	259,(4, 106),1	260,(4, 107),7	267,(4, 162),1	280,(4, 30),4	284,(4, 40),1	285,(4, 170),2	297,(4, 69),6	303,(4, 79),8	311,(4, 102),61	372,(4, 119),11	383,(4, 169),1	404,(4, 175),139	543,(54, 201),14	557,(124, 201),14	571,(174, 201),14	585,(24, 201),14	599,(14, 49),1	600,(14, 106),5	605,(14, 116),6	611,(14, 136),13	624,(14, 148),1	650,(14, 195),1	655,(14, 81),3	694,(34, 201),14	761,(14, 55),23	806,(74, 201),14	820,(14, 175),306	1126,(14, 185),143	1269,(164, 201),14	1283,(104, 201),14	1439,(94, 201),14	1453,(154, 201),14	1565,(144, 201),14	1691,(184, 201),14	1789,(114, 201),14	1904,(194, 201),14	2030,(84, 201),14	2142,(134, 201),14	2268,(44, 201),14	2394,(64, 201),14	
187,(3, 37),2	189,(3, 52),4	193,(3, 87),22	215,(3, 151),1	216,(63, 201),14	260,(53, 201),14	274,(3, 49),23	297,(3, 50),6	303,(3, 90),1	304,(3, 100),4	308,(3, 140),164	472,(3, 159),1	473,(3, 169),11	484,(13, 32),1	485,(13, 59),1	486,(13, 172),9	499,(153, 201),14	513,(13, 192),5	580,(13, 167),10	627,(173, 201),14	750,(83, 201),14	848,(93, 201),14	946,(113, 201),14	1128,(193, 201),14	1212,(33, 201),14	1509,(23, 201),14	1635,(103, 201),14	1761,(183, 201),14	1876,(163, 201),14	2002,(73, 201),14	2114,(43, 201),14	2240,(123, 201),14	2366,(133, 201),14	2492,(143, 201),14	
73,(2, 31),2	75,(2, 63),1	76,(2, 73),7	83,(2, 161),8	91,(2, 171),39	130,(2, 181),6	136,(92, 201),14	156,(2, 176),4	218,(2, 168),5	249,(2, 49),25	332,(52, 201),14	384,(12, 39),7	391,(12, 57),8	399,(12, 104),4	403,(12, 109),4	490,(12, 80),2	513,(82, 201),14	565,(12, 45),8	573,(12, 55),3	576,(12, 115),1	577,(12, 145),1	641,(162, 201),14	713,(12, 65),28	890,(102, 201),14	988,(142, 201),14	1072,(182, 201),14	1170,(22, 201),14	1240,(42, 201),14	1537,(122, 201),14	1663,(32, 201),14	1775,(192, 201),14	1890,(62, 201),14	2016,(152, 201),14	2128,(172, 201),14	2254,(112, 201),14	2380,(72, 201),14	2506,(132, 201),14	
1,(0, 2),31	32,(0, 3),31	63,(0, 4),31	94,(0, 5),31	125,(0, 6),31	156,(0, 7),31	187,(0, 8),31	218,(0, 9),31	249,(0, 10),31	280,(0, 12),31	311,(0, 13),31	342,(0, 14),31	373,(0, 15),31	404,(0, 16),31	435,(0, 17),31	466,(0, 18),31	497,(0, 19),31	528,(0, 20),31	559,(1, 28),3	562,(1, 39),4	566,(1, 62),3	569,(1, 88),1	570,(1, 152),4	574,(1, 172),13	587,(1, 183),74	661,(1, 185),52	713,(11, 43),25	738,(11, 44),13	751,(11, 66),6	757,(11, 80),1	758,(11, 85),3	761,(11, 127),4	765,(11, 143),7	772,(11, 168),1	773,(11, 177),23	
