2459
# CPU
0,0,1	1,3,9	10,38,9	19,29,9	28,78,9	37,68,9	46,8,9	55,74,9	64,27,9	73,7,9	82,17,9	91,76,9	100,70,9	109,73,9	118,79,9	127,4,9	136,42,9	145,13,9	154,19,9	163,58,9	172,72,9	181,65,9	190,62,9	199,2,9	208,60,9	217,26,9	226,52,9	235,64,9	244,14,9	253,39,9	262,28,9	271,49,9	280,31,9	289,15,9	298,63,9	307,12,9	316,53,9	325,10,9	334,40,9	343,16,9	352,43,9	361,51,9	370,50,9	379,41,9	391,24,9	400,35,9	421,77,9	430,71,9	451,23,9	460,45,9	469,33,9	478,9,9	490,66,9	508,21,9	527,18,9	550,67,9	574,59,9	601,57,9	632,36,9	718,75,9	866,47,9	2449,48,9	2458,81,1	
13,69,9	84,1,9	93,54,9	102,11,9	111,44,9	157,6,9	166,61,9	175,55,9	184,30,9	229,5,9	238,25,9	247,37,9	256,22,9	265,32,9	274,56,9	283,34,9	292,46,9	301,80,9	310,20,9	
# Incoming
22,(69, 81),20	93,(1, 10),2	95,(1, 16),3	98,(1, 51),3	101,(1, 71),1	102,(54, 81),20	122,(11, 81),20	142,(44, 81),20	162,(1, 50),4	166,(6, 15),1	167,(6, 40),1	168,(6, 43),2	170,(6, 51),1	171,(1, 41),4	175,(61, 81),20	195,(55, 81),20	215,(30, 81),20	235,(6, 23),1	236,(6, 9),2	238,(5, 31),1	239,(5, 63),1	240,(5, 12),1	241,(5, 53),1	242,(5, 40),1	243,(5, 43),1	244,(5, 23),3	247,(25, 81),20	267,(37, 81),20	287,(22, 81),20	307,(32, 81),20	327,(56, 81),20	347,(34, 81),20	367,(46, 81),20	387,(1, 24),4	391,(5, 35),5	396,(80, 81),20	416,(5, 77),5	421,(5, 71),5	426,(20, 81),20	446,(1, 23),5	451,(6, 45),8	459,(1, 33),8	467,(5, 33),1	468,(5, 9),9	477,(1, 66),2	479,(5, 66),11	490,(1, 21),14	504,(5, 21),4	508,(5, 18),19	527,(6, 67),1	528,(5, 67),22	550,(1, 59),7	557,(6, 59),17	574,(6, 57),15	589,(5, 57),12	601,(6, 36),31	632,(5, 75),86	718,(1, 47),3	721,(5, 47),145	866,(5, 48),1583	
10,(3, 69),3	13,(0, 1),71	84,(3, 11),1	85,(3, 44),1	86,(0, 6),71	157,(7, 30),1	158,(0, 5),71	229,(2, 32),1	230,(8, 56),1	231,(3, 34),1	232,(4, 46),2	234,(7, 80),3	237,(8, 20),7	
# Outgoing
10,(3, 69),3	13,(0, 1),71	84,(3, 11),1	85,(3, 44),1	86,(0, 6),71	157,(7, 30),1	158,(0, 5),71	229,(2, 32),1	230,(8, 56),1	231,(3, 34),1	232,(4, 46),2	234,(7, 80),3	237,(8, 20),7	
22,(69, 81),20	93,(1, 10),2	95,(1, 16),3	98,(1, 51),3	101,(1, 71),1	102,(54, 81),20	122,(11, 81),20	142,(44, 81),20	162,(1, 50),4	166,(6, 15),1	167,(6, 40),1	168,(6, 43),2	170,(6, 51),1	171,(1, 41),4	175,(61, 81),20	195,(55, 81),20	215,(30, 81),20	235,(6, 23),1	236,(6, 9),2	238,(5, 31),1	239,(5, 63),1	240,(5, 12),1	241,(5, 53),1	242,(5, 40),1	243,(5, 43),1	244,(5, 23),3	247,(25, 81),20	267,(37, 81),20	287,(22, 81),20	307,(32, 81),20	327,(56, 81),20	347,(34, 81),20	367,(46, 81),20	387,(1, 24),4	391,(5, 35),5	396,(80, 81),20	416,(5, 77),5	421,(5, 71),5	426,(20, 81),20	446,(1, 23),5	451,(6, 45),8	459,(1, 33),8	467,(5, 33),1	468,(5, 9),9	477,(1, 66),2	479,(5, 66),11	490,(1, 21),14	504,(5, 21),4	508,(5, 18),19	527,(6, 67),1	528,(5, 67),22	550,(1, 59),7	557,(6, 59),17	574,(6, 57),15	589,(5, 57),12	601,(6, 36),31	632,(5, 75),86	718,(1, 47),3	721,(5, 47),145	866,(5, 48),1583	
