34
# CPU
0,0,1	1,1,2	3,5,2	5,4,2	7,14,2	9,8,2	11,11,2	13,12,2	15,2,2	17,6,2	19,9,2	21,10,2	23,20,2	25,19,2	27,7,2	29,3,2	31,13,2	33,21,1	
5,18,2	8,15,2	18,16,2	20,17,2	

# Incoming
7,(18, 21),2	10,(15, 21),2	20,(16, 21),2	22,(17, 21),2	
3,(1, 18),2	5,(1, 15),3	17,(2, 16),1	18,(2, 17),2	

# Outgoing
3,(1, 18),2	5,(1, 15),3	17,(2, 16),1	18,(2, 17),2	
7,(18, 21),2	10,(15, 21),2	20,(16, 21),2	22,(17, 21),2	

