888
# CPU
0,0,1	1,1,176	177,5,176	353,8,176	529,14,176	705,19,176	
4,2,176	180,4,176	356,16,176	532,13,176	708,7,176	887,21,1	
178,18,176	354,17,176	530,15,176	706,9,176	
180,3,176	356,11,176	532,10,176	
183,12,176	359,20,176	535,6,176	
# Incoming

1,(0, 2),3	328,(1, 7),284	612,(5, 21),3	615,(18, 21),3	618,(3, 21),3	621,(12, 21),3	624,(8, 21),3	627,(17, 21),3	630,(11, 21),3	633,(20, 21),3	705,(14, 21),3	708,(15, 21),3	711,(10, 21),3	714,(6, 21),3	881,(19, 21),3	884,(9, 21),3	
177,(1, 18),1	180,(1, 17),7	202,(1, 15),19	282,(1, 9),46	
178,(1, 3),2	187,(1, 11),9	221,(1, 10),27	
180,(2, 12),3	183,(2, 20),8	196,(1, 20),6	248,(1, 6),34	
# Outgoing
1,(0, 2),3	177,(1, 18),1	178,(1, 3),2	180,(1, 17),7	187,(1, 11),9	196,(1, 20),6	202,(1, 15),19	221,(1, 10),27	248,(1, 6),34	282,(1, 9),46	328,(1, 7),284	612,(5, 21),3	624,(8, 21),3	705,(14, 21),3	881,(19, 21),3	
180,(2, 12),3	183,(2, 20),8	
615,(18, 21),3	627,(17, 21),3	708,(15, 21),3	884,(9, 21),3	
618,(3, 21),3	630,(11, 21),3	711,(10, 21),3	
621,(12, 21),3	633,(20, 21),3	714,(6, 21),3	
