2237
# CPU
537,5,1	538,37,1	539,80,1	540,57,1	541,64,1	542,70,1	543,72,1	544,62,1	545,46,1	553,73,1	559,35,1	577,42,1	593,50,1	621,66,1	678,33,1	690,40,1	696,44,1	710,61,1	808,29,1	810,32,1	812,48,1	814,71,1	829,25,1	855,52,1	913,65,1	951,76,1	965,77,1	967,22,1	975,23,1	977,26,1	1007,55,1	1013,67,1	1029,74,1	1053,79,1	1069,60,1	1115,75,1	1143,78,1	2236,81,1	
403,4,1	404,31,1	405,54,1	406,58,1	463,59,1	658,30,1	680,38,1	809,18,1	821,20,1	825,49,1	857,51,1	920,41,1	922,45,1	926,47,1	967,16,1	987,43,1	1413,56,1	2219,69,1	
269,3,1	270,13,1	271,24,1	272,68,1	805,8,1	806,36,1	807,53,1	918,28,1	981,19,1	
135,2,1	136,11,1	294,12,1	671,7,1	771,27,1	943,34,1	971,17,1	
0,0,1	1,1,1	2,6,1	170,10,1	638,21,1	674,9,1	896,15,1	1393,39,1	2111,63,1	2233,14,1	
# Incoming
403,(0, 5),134	537,(2, 46),2	539,(2, 52),8	547,(2, 73),6	553,(11, 81),2	555,(12, 81),2	557,(4, 35),2	559,(4, 40),2	561,(4, 42),16	577,(4, 50),16	593,(4, 66),28	621,(31, 81),2	623,(54, 81),2	625,(58, 81),2	627,(59, 81),2	658,(3, 33),20	678,(30, 81),2	680,(3, 40),10	690,(3, 44),6	696,(38, 81),2	702,(3, 61),8	710,(13, 81),2	712,(24, 81),2	714,(68, 81),2	806,(8, 29),2	808,(8, 32),2	810,(8, 48),2	812,(8, 71),2	814,(36, 81),2	816,(53, 81),2	818,(18, 81),2	821,(1, 25),8	829,(8, 52),26	855,(20, 81),2	857,(1, 65),56	913,(1, 76),38	951,(1, 77),14	965,(7, 22),2	967,(7, 23),8	975,(7, 26),2	977,(7, 74),6	983,(27, 81),2	985,(49, 81),2	987,(6, 55),20	1007,(6, 67),6	1013,(6, 74),16	1029,(6, 79),24	1053,(10, 81),2	1055,(21, 81),2	1057,(9, 81),2	1059,(8, 60),10	1069,(8, 75),46	1115,(8, 78),28	1143,(51, 81),2	1145,(15, 81),2	1147,(28, 81),2	1149,(41, 81),2	1151,(45, 81),2	1153,(47, 81),2	1155,(34, 81),2	1157,(16, 81),2	1159,(17, 81),2	1161,(19, 81),2	1163,(43, 81),2	1394,(39, 81),2	1414,(56, 81),2	2112,(63, 81),2	2220,(69, 81),2	2234,(14, 81),2	
269,(0, 4),134	403,(2, 59),60	638,(3, 30),20	678,(3, 38),2	696,(3, 49),6	805,(1, 18),4	809,(1, 20),12	821,(8, 41),2	823,(8, 49),2	829,(1, 47),10	839,(1, 51),18	857,(8, 47),26	918,(7, 41),2	920,(7, 45),2	922,(7, 47),4	965,(6, 16),2	981,(6, 43),6	1393,(5, 56),20	2111,(5, 69),108	
135,(0, 3),134	671,(0, 8),134	896,(7, 28),22	967,(6, 19),14	
1,(0, 2),134	270,(3, 12),24	404,(4, 27),10	537,(0, 7),134	671,(5, 27),100	771,(5, 34),172	943,(8, 17),28	
136,(2, 10),34	294,(3, 21),344	672,(7, 9),2	674,(7, 15),222	943,(5, 39),450	1413,(5, 63),698	2111,(8, 14),122	
# Outgoing
671,(5, 27),100	771,(5, 34),172	943,(5, 39),450	1393,(5, 56),20	1413,(5, 63),698	2111,(5, 69),108	
404,(4, 27),10	557,(4, 35),2	559,(4, 40),2	561,(4, 42),16	577,(4, 50),16	593,(4, 66),28	621,(31, 81),2	623,(54, 81),2	625,(58, 81),2	627,(59, 81),2	678,(30, 81),2	696,(38, 81),2	818,(18, 81),2	855,(20, 81),2	985,(49, 81),2	1143,(51, 81),2	1149,(41, 81),2	1151,(45, 81),2	1153,(47, 81),2	1157,(16, 81),2	1163,(43, 81),2	1414,(56, 81),2	2220,(69, 81),2	
270,(3, 12),24	294,(3, 21),344	638,(3, 30),20	658,(3, 33),20	678,(3, 38),2	680,(3, 40),10	690,(3, 44),6	696,(3, 49),6	702,(3, 61),8	710,(13, 81),2	712,(24, 81),2	714,(68, 81),2	806,(8, 29),2	808,(8, 32),2	810,(8, 48),2	812,(8, 71),2	814,(36, 81),2	816,(53, 81),2	821,(8, 41),2	823,(8, 49),2	829,(8, 52),26	857,(8, 47),26	943,(8, 17),28	1059,(8, 60),10	1069,(8, 75),46	1115,(8, 78),28	1147,(28, 81),2	1161,(19, 81),2	2111,(8, 14),122	
136,(2, 10),34	403,(2, 59),60	537,(2, 46),2	539,(2, 52),8	547,(2, 73),6	553,(11, 81),2	555,(12, 81),2	672,(7, 9),2	674,(7, 15),222	896,(7, 28),22	918,(7, 41),2	920,(7, 45),2	922,(7, 47),4	965,(7, 22),2	967,(7, 23),8	975,(7, 26),2	977,(7, 74),6	983,(27, 81),2	1155,(34, 81),2	1159,(17, 81),2	
1,(0, 2),134	135,(0, 3),134	269,(0, 4),134	403,(0, 5),134	537,(0, 7),134	671,(0, 8),134	805,(1, 18),4	809,(1, 20),12	821,(1, 25),8	829,(1, 47),10	839,(1, 51),18	857,(1, 65),56	913,(1, 76),38	951,(1, 77),14	965,(6, 16),2	967,(6, 19),14	981,(6, 43),6	987,(6, 55),20	1007,(6, 67),6	1013,(6, 74),16	1029,(6, 79),24	1053,(10, 81),2	1055,(21, 81),2	1057,(9, 81),2	1145,(15, 81),2	1394,(39, 81),2	2112,(63, 81),2	2234,(14, 81),2	
