400
# CPU
0,201,1	1,146,2	3,82,2	5,29,2	7,80,2	9,197,2	11,38,2	13,192,2	15,161,2	17,136,2	19,116,2	21,58,2	23,57,2	25,186,2	27,55,2	29,65,2	31,121,2	33,198,2	35,56,2	37,130,2	39,24,2	41,149,2	43,54,2	45,52,2	47,165,2	49,115,2	51,23,2	53,123,2	55,125,2	57,166,2	59,35,2	61,143,2	63,60,2	65,142,2	67,99,2	69,49,2	71,89,2	73,62,2	75,179,2	77,34,2	79,75,2	81,96,2	83,53,2	85,98,2	87,27,2	89,51,2	91,141,2	93,41,2	95,131,2	97,193,2	99,71,2	101,43,2	103,164,2	105,112,2	107,59,2	109,113,2	111,97,2	113,66,2	115,178,2	117,158,2	119,118,2	121,127,2	123,69,2	125,45,2	127,74,2	129,72,2	131,184,2	133,103,2	135,107,2	137,132,2	139,172,2	141,39,2	143,22,2	145,114,2	147,86,2	149,30,2	151,157,2	153,163,2	155,33,2	157,162,2	159,21,2	161,177,2	163,94,2	165,170,2	167,111,2	169,160,2	171,187,2	173,129,2	175,31,2	177,84,2	179,83,2	181,168,2	183,156,2	185,176,2	187,139,2	189,48,2	191,40,2	193,185,2	195,124,2	197,128,2	199,28,2	201,174,2	203,150,2	205,81,2	207,138,2	209,50,2	211,133,2	213,200,2	215,140,2	217,108,2	219,152,2	221,87,2	223,73,2	225,148,2	227,175,2	229,61,2	231,32,2	233,182,2	235,88,2	237,77,2	239,171,2	241,195,2	243,154,2	245,194,2	247,90,2	249,109,2	251,137,2	253,36,2	255,135,2	257,68,2	259,122,2	261,167,2	263,91,2	265,79,2	267,188,2	269,134,2	271,183,2	273,173,2	275,78,2	277,106,2	279,196,2	281,117,2	283,44,2	285,155,2	287,100,2	289,76,2	291,147,2	293,190,2	295,126,2	297,189,2	299,63,2	301,47,2	303,37,2	305,110,2	307,95,2	309,104,2	311,159,2	313,145,2	315,144,2	317,70,2	319,181,2	321,26,2	323,199,2	325,102,2	327,92,2	329,169,2	331,85,2	333,93,2	335,101,2	337,46,2	339,119,2	341,25,2	343,120,2	345,6,2	347,180,2	349,7,2	351,153,2	353,14,2	355,5,2	357,105,2	359,3,2	361,11,2	363,67,2	365,17,2	367,13,2	369,151,2	371,4,2	373,191,2	375,10,2	377,9,2	379,19,2	381,64,2	383,2,2	385,12,2	387,20,2	389,15,2	391,16,2	393,18,2	395,8,2	397,1,2	399,0,1	
247,42,2	


# Incoming
249,(42, 16),1	250,(42, 18),4	254,(42, 8),9	263,(42, 1),47	
1,(201, 42),246	


# Outgoing
1,(201, 42),246	
249,(42, 16),1	250,(42, 18),4	254,(42, 8),9	263,(42, 1),47	


