3970
# CPU
141,3,31	172,27,31	203,70,31	234,37,31	265,58,31	296,60,31	327,43,31	358,7,31	389,16,31	420,23,31	451,26,31	482,36,31	513,61,31	544,68,31	575,57,31	606,59,31	637,45,31	668,19,31	1121,65,31	1152,73,31	2169,22,31	2269,44,31	2300,50,31	2433,52,31	2773,62,31	2865,18,31	3097,41,31	3217,9,31	3248,29,31	3279,33,31	3433,56,31	3477,64,31	3508,71,31	3573,77,31	3604,25,31	3635,28,31	3773,31,31	3804,79,31	3835,21,31	3866,39,31	3969,81,1	
0,0,1	1,4,31	32,5,31	63,2,31	94,6,31	125,8,31	156,1,31	187,24,31	218,53,31	249,20,31	280,63,31	311,32,31	342,17,31	373,12,31	404,76,31	435,54,31	466,38,31	497,15,31	528,13,31	559,11,31	590,72,31	621,67,31	652,66,31	683,80,31	714,69,31	745,51,31	776,48,31	807,49,31	838,35,31	869,30,31	900,47,31	931,78,31	962,14,31	993,10,31	1024,55,31	1055,42,31	1086,34,31	1117,46,31	1148,75,31	1179,40,31	1210,74,31	
# Incoming
1,(0, 3),140	141,(0, 7),140	281,(4, 16),16	297,(4, 23),24	321,(4, 26),8	329,(4, 36),4	333,(4, 52),4	337,(4, 57),8	345,(4, 61),8	353,(4, 62),764	1117,(4, 65),4	1121,(4, 71),4	1125,(4, 73),24	1149,(5, 21),732	1881,(5, 22),288	2169,(5, 33),4	2173,(5, 39),36	2209,(5, 41),8	2217,(5, 44),52	2269,(5, 50),4	2273,(5, 52),160	2433,(5, 62),340	2773,(5, 71),8	2781,(2, 18),84	2865,(2, 33),12	2877,(2, 39),208	3085,(2, 41),12	3097,(2, 56),116	3213,(6, 9),4	3217,(6, 21),4	3221,(6, 29),12	3233,(6, 33),20	3253,(6, 56),180	3433,(6, 64),44	3477,(6, 71),20	3497,(6, 77),76	3573,(8, 25),4	3577,(8, 28),36	3613,(8, 31),160	3773,(8, 79),4	3777,(1, 21),16	3793,(1, 39),40	3833,(24, 81),4	3837,(53, 81),4	3841,(20, 81),4	3845,(63, 81),4	3849,(32, 81),4	3853,(17, 81),4	3857,(12, 81),4	3861,(76, 81),4	3865,(54, 81),4	3869,(38, 81),4	3873,(15, 81),4	3877,(13, 81),4	3881,(11, 81),4	3885,(72, 81),4	3889,(67, 81),4	3893,(66, 81),4	3897,(80, 81),4	3901,(69, 81),4	3905,(51, 81),4	3909,(48, 81),4	3913,(49, 81),4	3917,(35, 81),4	3921,(30, 81),4	3925,(47, 81),4	3929,(78, 81),4	3933,(14, 81),4	3937,(10, 81),4	3941,(55, 81),4	3945,(42, 81),4	3949,(34, 81),4	3953,(46, 81),4	3957,(75, 81),4	3961,(40, 81),4	3965,(74, 81),4	
172,(3, 47),8	
# Outgoing
172,(3, 47),8	
1,(0, 3),140	141,(0, 7),140	281,(4, 16),16	297,(4, 23),24	321,(4, 26),8	329,(4, 36),4	333,(4, 52),4	337,(4, 57),8	345,(4, 61),8	353,(4, 62),764	1117,(4, 65),4	1121,(4, 71),4	1125,(4, 73),24	1149,(5, 21),732	1881,(5, 22),288	2169,(5, 33),4	2173,(5, 39),36	2209,(5, 41),8	2217,(5, 44),52	2269,(5, 50),4	2273,(5, 52),160	2433,(5, 62),340	2773,(5, 71),8	2781,(2, 18),84	2865,(2, 33),12	2877,(2, 39),208	3085,(2, 41),12	3097,(2, 56),116	3213,(6, 9),4	3217,(6, 21),4	3221,(6, 29),12	3233,(6, 33),20	3253,(6, 56),180	3433,(6, 64),44	3477,(6, 71),20	3497,(6, 77),76	3573,(8, 25),4	3577,(8, 28),36	3613,(8, 31),160	3773,(8, 79),4	3777,(1, 21),16	3793,(1, 39),40	3833,(24, 81),4	3837,(53, 81),4	3841,(20, 81),4	3845,(63, 81),4	3849,(32, 81),4	3853,(17, 81),4	3857,(12, 81),4	3861,(76, 81),4	3865,(54, 81),4	3869,(38, 81),4	3873,(15, 81),4	3877,(13, 81),4	3881,(11, 81),4	3885,(72, 81),4	3889,(67, 81),4	3893,(66, 81),4	3897,(80, 81),4	3901,(69, 81),4	3905,(51, 81),4	3909,(48, 81),4	3913,(49, 81),4	3917,(35, 81),4	3921,(30, 81),4	3925,(47, 81),4	3929,(78, 81),4	3933,(14, 81),4	3937,(10, 81),4	3941,(55, 81),4	3945,(42, 81),4	3949,(34, 81),4	3953,(46, 81),4	3957,(75, 81),4	3961,(40, 81),4	3965,(74, 81),4	
