436
# CPU
0,0,1	1,12,1	2,97,1	3,51,1	4,6,1	5,120,1	6,41,1	7,80,1	8,11,1	9,71,1	10,38,1	11,10,1	12,45,1	13,105,1	14,9,1	15,40,1	16,65,1	17,22,1	18,87,1	19,50,1	20,114,1	21,96,1	22,79,1	23,70,1	25,17,1	27,35,1	29,52,1	31,63,1	33,109,1	35,56,1	37,93,1	39,18,1	41,21,1	43,103,1	46,64,1	49,15,1	52,74,1	55,101,1	58,84,1	61,62,1	64,23,1	67,89,1	71,100,1	76,36,1	82,60,1	88,88,1	99,44,1	110,68,1	121,119,1	133,113,1	145,76,1	157,43,1	170,25,1	184,94,1	204,83,1	228,95,1	256,110,1	295,78,1	434,34,1	435,121,1	
2,3,1	3,31,1	4,4,1	5,26,1	6,49,1	7,2,1	8,111,1	9,46,1	10,54,1	11,90,1	12,104,1	13,27,1	14,99,1	15,69,1	16,16,1	17,39,1	18,112,1	19,115,1	20,29,1	21,20,1	22,37,1	37,30,1	61,55,1	62,48,1	66,47,1	175,14,1	202,102,1	
5,1,1	6,5,1	7,98,1	8,7,1	9,32,1	10,13,1	11,116,1	12,72,1	13,53,1	14,24,1	15,75,1	16,107,1	17,42,1	18,67,1	19,108,1	20,73,1	23,77,1	29,61,1	47,81,1	67,28,1	80,117,1	157,106,1	171,82,1	232,33,1	265,92,1	
13,91,1	14,66,1	43,59,1	
3,8,1	4,58,1	6,19,1	9,85,1	11,118,1	25,57,1	56,86,1	
# Incoming
4,(31, 121),1	5,(58, 121),1	6,(26, 121),1	7,(49, 121),1	8,(19, 121),1	9,(98, 121),1	10,(111, 121),1	11,(32, 121),1	12,(46, 121),1	13,(85, 121),1	14,(13, 121),1	15,(54, 121),1	16,(90, 121),1	17,(116, 121),1	18,(118, 121),1	19,(72, 121),1	20,(104, 121),1	21,(53, 121),1	22,(27, 121),1	23,(91, 121),1	24,(2, 17),1	25,(24, 121),1	26,(4, 35),1	27,(99, 121),1	28,(4, 52),1	29,(66, 121),1	30,(4, 63),1	31,(69, 121),1	32,(2, 109),1	33,(75, 121),1	34,(1, 56),1	35,(16, 121),1	36,(7, 93),1	37,(107, 121),1	38,(2, 18),1	39,(39, 121),1	40,(7, 21),1	41,(42, 121),1	42,(8, 103),1	43,(112, 121),1	44,(1, 64),2	46,(67, 121),1	47,(4, 15),2	49,(115, 121),1	50,(5, 74),2	52,(108, 121),1	53,(8, 101),1	54,(7, 101),1	55,(29, 121),1	56,(3, 84),1	57,(2, 84),1	58,(73, 121),1	59,(8, 62),1	60,(4, 62),1	61,(20, 121),1	62,(3, 23),2	64,(37, 121),1	65,(4, 89),2	67,(77, 121),1	68,(4, 100),3	71,(57, 121),1	72,(3, 36),1	73,(2, 36),3	76,(61, 121),1	77,(8, 60),5	82,(30, 121),1	83,(8, 88),4	87,(4, 88),1	88,(59, 121),1	89,(1, 44),10	99,(81, 121),1	100,(8, 68),5	105,(2, 68),1	106,(7, 68),4	110,(86, 121),1	111,(5, 119),10	121,(55, 121),1	122,(3, 113),2	124,(5, 113),9	133,(48, 121),1	134,(3, 76),9	143,(8, 76),2	145,(47, 121),1	146,(3, 43),1	147,(8, 43),10	157,(28, 121),1	158,(3, 25),10	168,(5, 25),2	170,(117, 121),1	171,(5, 94),13	184,(106, 121),1	185,(5, 83),19	204,(82, 121),1	205,(1, 95),9	214,(5, 95),6	220,(2, 95),8	228,(14, 121),1	229,(8, 110),1	230,(1, 110),7	237,(2, 110),10	247,(7, 110),9	256,(102, 121),1	257,(8, 78),36	293,(2, 78),2	295,(33, 121),1	296,(8, 34),1	297,(4, 34),5	302,(5, 34),132	434,(92, 121),1	
1,(0, 3),1	3,(0, 4),1	6,(0, 2),1	7,(8, 115),1	9,(8, 37),4	13,(6, 112),1	15,(10, 29),1	16,(1, 20),1	18,(6, 20),1	19,(8, 102),2	29,(6, 30),5	34,(11, 30),3	38,(7, 55),2	47,(5, 48),3	56,(10, 47),4	60,(9, 47),6	68,(5, 14),4	77,(7, 14),5	133,(5, 102),18	
4,(0, 1),1	5,(0, 5),1	7,(0, 7),1	9,(4, 108),1	12,(12, 42),1	14,(11, 67),1	16,(6, 73),2	18,(2, 77),2	20,(11, 77),3	23,(9, 61),6	33,(3, 33),2	39,(6, 81),5	44,(10, 81),3	50,(2, 28),3	66,(11, 117),9	75,(10, 117),5	80,(12, 106),77	157,(6, 82),2	159,(11, 82),1	168,(3, 82),3	171,(2, 33),4	175,(2, 92),18	
8,(6, 91),1	10,(5, 91),1	11,(12, 66),1	12,(1, 66),2	26,(1, 59),4	37,(9, 59),2	40,(3, 59),3	
2,(0, 8),1	5,(4, 19),1	8,(2, 85),1	9,(12, 118),2	15,(5, 86),1	19,(10, 57),1	22,(1, 57),3	47,(12, 86),9	
# Outgoing
1,(0, 3),1	2,(0, 8),1	3,(0, 4),1	4,(0, 1),1	5,(0, 5),1	6,(0, 2),1	7,(0, 7),1	8,(6, 91),1	9,(12, 118),2	11,(12, 66),1	12,(12, 42),1	13,(6, 112),1	14,(11, 67),1	15,(10, 29),1	16,(6, 73),2	18,(6, 20),1	19,(10, 57),1	20,(11, 77),3	23,(9, 61),6	29,(6, 30),5	34,(11, 30),3	37,(9, 59),2	39,(6, 81),5	44,(10, 81),3	47,(12, 86),9	56,(10, 47),4	60,(9, 47),6	66,(11, 117),9	75,(10, 117),5	80,(12, 106),77	157,(6, 82),2	159,(11, 82),1	
4,(31, 121),1	5,(4, 19),1	6,(26, 121),1	7,(49, 121),1	8,(2, 85),1	9,(4, 108),1	10,(111, 121),1	12,(46, 121),1	15,(54, 121),1	16,(90, 121),1	18,(2, 77),2	20,(104, 121),1	22,(27, 121),1	24,(2, 17),1	26,(4, 35),1	27,(99, 121),1	28,(4, 52),1	30,(4, 63),1	31,(69, 121),1	32,(2, 109),1	33,(3, 33),2	35,(16, 121),1	38,(2, 18),1	39,(39, 121),1	40,(3, 59),3	43,(112, 121),1	47,(4, 15),2	49,(115, 121),1	50,(2, 28),3	55,(29, 121),1	56,(3, 84),1	57,(2, 84),1	60,(4, 62),1	61,(20, 121),1	62,(3, 23),2	64,(37, 121),1	65,(4, 89),2	68,(4, 100),3	72,(3, 36),1	73,(2, 36),3	82,(30, 121),1	87,(4, 88),1	105,(2, 68),1	121,(55, 121),1	122,(3, 113),2	133,(48, 121),1	134,(3, 76),9	145,(47, 121),1	146,(3, 43),1	158,(3, 25),10	168,(3, 82),3	171,(2, 33),4	175,(2, 92),18	220,(2, 95),8	228,(14, 121),1	237,(2, 110),10	256,(102, 121),1	293,(2, 78),2	297,(4, 34),5	
9,(98, 121),1	10,(5, 91),1	11,(32, 121),1	12,(1, 66),2	14,(13, 121),1	15,(5, 86),1	16,(1, 20),1	17,(116, 121),1	19,(72, 121),1	21,(53, 121),1	22,(1, 57),3	25,(24, 121),1	26,(1, 59),4	33,(75, 121),1	34,(1, 56),1	36,(7, 93),1	37,(107, 121),1	38,(7, 55),2	40,(7, 21),1	41,(42, 121),1	44,(1, 64),2	46,(67, 121),1	47,(5, 48),3	50,(5, 74),2	52,(108, 121),1	54,(7, 101),1	58,(73, 121),1	67,(77, 121),1	68,(5, 14),4	76,(61, 121),1	77,(7, 14),5	89,(1, 44),10	99,(81, 121),1	106,(7, 68),4	111,(5, 119),10	124,(5, 113),9	133,(5, 102),18	157,(28, 121),1	168,(5, 25),2	170,(117, 121),1	171,(5, 94),13	184,(106, 121),1	185,(5, 83),19	204,(82, 121),1	205,(1, 95),9	214,(5, 95),6	230,(1, 110),7	247,(7, 110),9	295,(33, 121),1	302,(5, 34),132	434,(92, 121),1	
23,(91, 121),1	29,(66, 121),1	88,(59, 121),1	
5,(58, 121),1	7,(8, 115),1	8,(19, 121),1	9,(8, 37),4	13,(85, 121),1	18,(118, 121),1	19,(8, 102),2	42,(8, 103),1	53,(8, 101),1	59,(8, 62),1	71,(57, 121),1	77,(8, 60),5	83,(8, 88),4	100,(8, 68),5	110,(86, 121),1	143,(8, 76),2	147,(8, 43),10	229,(8, 110),1	257,(8, 78),36	296,(8, 34),1	
