860
# CPU
0,0,1	1,12,10	11,83,10	21,4,10	31,86,10	41,67,10	51,37,10	61,14,10	71,8,10	81,100,10	91,91,10	101,41,10	111,46,10	121,29,10	131,103,10	141,63,10	151,56,10	161,32,10	171,93,10	181,70,10	191,61,10	201,38,10	211,52,10	221,77,10	231,118,10	241,112,10	251,58,10	303,23,10	555,22,10	
10,1,10	20,50,10	30,59,10	40,76,10	50,5,10	60,2,10	70,72,10	80,89,10	90,74,10	100,106,10	110,27,10	120,49,10	130,42,10	140,30,10	150,108,10	160,55,10	170,115,10	180,85,10	190,88,10	200,25,10	210,16,10	220,54,10	230,113,10	240,111,10	250,47,10	270,101,10	303,98,10	348,94,10	408,97,10	591,31,10	
7,11,10	17,84,10	27,110,10	37,15,10	47,6,10	57,81,10	67,82,10	77,9,10	87,35,10	97,105,10	107,117,10	117,64,10	127,95,10	137,18,10	147,17,10	157,53,10	167,109,10	177,57,10	187,45,10	197,90,10	207,28,10	217,21,10	227,19,10	237,43,10	247,62,10	257,39,10	276,78,10	309,24,10	390,114,10	450,120,10	540,99,10	639,69,10	859,121,1	
4,7,10	14,65,10	24,3,10	34,75,10	44,20,10	54,68,10	64,40,10	74,79,10	84,36,10	94,26,10	104,10,10	114,92,10	124,96,10	134,66,10	144,13,10	154,119,10	164,60,10	174,34,10	184,104,10	194,51,10	204,116,10	214,48,10	224,44,10	234,71,10	244,107,10	354,33,10	414,80,10	486,102,10	654,87,10	846,73,10	
# Incoming
34,(3, 103),3	40,(3, 93),3	46,(3, 77),12	63,(11, 56),3	66,(5, 32),3	72,(6, 70),3	111,(5, 61),6	120,(10, 63),3	141,(1, 38),9	159,(2, 52),12	186,(9, 118),15	201,(3, 112),18	225,(11, 58),18	243,(10, 23),18	276,(5, 23),18	294,(2, 23),9	387,(6, 22),69	507,(3, 22),36	
7,(0, 1),3	14,(7, 27),3	19,(0, 5),3	22,(0, 2),3	25,(7, 88),9	37,(4, 49),3	40,(12, 30),3	43,(3, 108),3	46,(4, 85),6	60,(6, 108),3	63,(7, 94),3	66,(11, 115),3	69,(6, 115),3	75,(11, 101),3	81,(8, 30),3	84,(8, 98),3	87,(9, 74),3	93,(9, 106),3	96,(9, 42),3	99,(7, 16),12	123,(10, 55),6	129,(9, 25),9	144,(3, 54),12	156,(9, 113),9	171,(6, 113),15	186,(10, 47),12	201,(6, 111),24	225,(12, 47),18	243,(8, 101),27	270,(11, 98),33	303,(6, 94),21	324,(10, 94),24	348,(6, 97),39	390,(7, 97),18	408,(8, 31),24	456,(9, 31),51	543,(3, 31),48	
4,(0, 11),3	13,(12, 15),3	16,(0, 6),3	25,(0, 9),3	31,(4, 82),3	34,(12, 117),3	37,(3, 17),3	52,(4, 45),3	55,(4, 62),3	58,(12, 99),3	63,(5, 53),3	66,(83, 121),3	70,(2, 18),3	73,(3, 90),9	82,(65, 121),3	85,(75, 121),3	88,(1, 57),3	91,(86, 121),3	96,(2, 109),6	102,(67, 121),3	105,(37, 121),3	108,(5, 45),3	111,(20, 121),3	114,(10, 64),3	117,(10, 95),3	120,(5, 62),6	126,(14, 121),3	129,(10, 57),3	132,(7, 21),12	150,(1, 28),9	159,(3, 19),12	171,(3, 62),15	186,(100, 121),3	189,(91, 121),3	192,(41, 121),3	195,(46, 121),3	198,(10, 39),3	201,(29, 121),3	204,(5, 43),15	219,(10, 24),3	222,(68, 121),3	225,(40, 121),3	228,(79, 121),3	231,(36, 121),3	234,(26, 121),3	237,(1, 39),15	252,(1, 78),6	258,(2, 78),18	276,(12, 24),24	300,(92, 121),3	303,(2, 24),6	309,(12, 69),15	324,(103, 121),3	327,(63, 121),3	330,(56, 121),3	333,(32, 121),3	336,(93, 121),3	339,(70, 121),3	342,(61, 121),3	345,(38, 121),3	348,(10, 114),42	390,(52, 121),3	393,(77, 121),3	396,(118, 121),3	399,(112, 121),3	402,(58, 121),3	405,(23, 121),3	408,(7, 120),42	450,(7, 99),57	507,(5, 99),33	540,(5, 69),42	582,(50, 121),3	585,(59, 121),3	588,(76, 121),3	591,(3, 69),24	615,(2, 69),24	639,(72, 121),3	642,(89, 121),3	645,(74, 121),3	648,(106, 121),3	651,(27, 121),3	654,(49, 121),3	657,(96, 121),3	660,(42, 121),3	663,(66, 121),3	666,(30, 121),3	669,(13, 121),3	672,(108, 121),3	675,(119, 121),3	678,(55, 121),3	681,(60, 121),3	684,(115, 121),3	687,(34, 121),3	690,(85, 121),3	693,(104, 121),3	696,(88, 121),3	699,(51, 121),3	702,(25, 121),3	705,(116, 121),3	708,(16, 121),3	711,(48, 121),3	714,(54, 121),3	717,(44, 121),3	720,(113, 121),3	723,(71, 121),3	726,(111, 121),3	729,(107, 121),3	732,(47, 121),3	735,(101, 121),3	738,(98, 121),3	741,(94, 121),3	744,(33, 121),3	747,(97, 121),3	750,(80, 121),3	753,(102, 121),3	756,(22, 121),3	759,(31, 121),3	762,(87, 121),3	856,(73, 121),3	
1,(0, 7),3	10,(0, 3),3	28,(0, 10),3	43,(12, 34),3	57,(6, 79),3	60,(5, 36),3	63,(4, 33),3	73,(5, 13),9	82,(2, 119),6	90,(9, 26),3	93,(1, 60),3	99,(9, 119),3	102,(5, 60),6	108,(11, 34),6	114,(9, 104),12	126,(5, 51),15	141,(12, 116),12	153,(6, 116),3	156,(4, 44),12	168,(9, 44),3	171,(1, 48),15	186,(5, 71),18	204,(4, 87),12	219,(2, 107),18	243,(9, 80),21	264,(11, 87),3	309,(1, 33),45	354,(1, 80),60	414,(1, 102),12	426,(5, 102),60	486,(12, 87),153	639,(6, 87),15	654,(6, 73),150	804,(9, 73),42	
# Outgoing
1,(0, 7),3	4,(0, 11),3	7,(0, 1),3	10,(0, 3),3	13,(12, 15),3	16,(0, 6),3	19,(0, 5),3	22,(0, 2),3	25,(0, 9),3	28,(0, 10),3	31,(4, 82),3	34,(12, 117),3	37,(4, 49),3	40,(12, 30),3	43,(12, 34),3	46,(4, 85),6	52,(4, 45),3	55,(4, 62),3	58,(12, 99),3	63,(4, 33),3	66,(83, 121),3	81,(8, 30),3	84,(8, 98),3	91,(86, 121),3	102,(67, 121),3	105,(37, 121),3	126,(14, 121),3	141,(12, 116),12	156,(4, 44),12	186,(100, 121),3	189,(91, 121),3	192,(41, 121),3	195,(46, 121),3	201,(29, 121),3	204,(4, 87),12	225,(12, 47),18	243,(8, 101),27	276,(12, 24),24	309,(12, 69),15	324,(103, 121),3	327,(63, 121),3	330,(56, 121),3	333,(32, 121),3	336,(93, 121),3	339,(70, 121),3	342,(61, 121),3	345,(38, 121),3	390,(52, 121),3	393,(77, 121),3	396,(118, 121),3	399,(112, 121),3	402,(58, 121),3	405,(23, 121),3	408,(8, 31),24	486,(12, 87),153	756,(22, 121),3	
60,(5, 36),3	63,(5, 53),3	66,(5, 32),3	70,(2, 18),3	73,(5, 13),9	82,(2, 119),6	88,(1, 57),3	93,(1, 60),3	96,(2, 109),6	102,(5, 60),6	108,(5, 45),3	111,(5, 61),6	120,(5, 62),6	126,(5, 51),15	141,(1, 38),9	150,(1, 28),9	159,(2, 52),12	171,(1, 48),15	186,(5, 71),18	204,(5, 43),15	219,(2, 107),18	237,(1, 39),15	252,(1, 78),6	258,(2, 78),18	276,(5, 23),18	294,(2, 23),9	303,(2, 24),6	309,(1, 33),45	354,(1, 80),60	414,(1, 102),12	426,(5, 102),60	507,(5, 99),33	540,(5, 69),42	582,(50, 121),3	585,(59, 121),3	588,(76, 121),3	615,(2, 69),24	639,(72, 121),3	642,(89, 121),3	645,(74, 121),3	648,(106, 121),3	651,(27, 121),3	654,(49, 121),3	660,(42, 121),3	666,(30, 121),3	672,(108, 121),3	678,(55, 121),3	684,(115, 121),3	690,(85, 121),3	696,(88, 121),3	702,(25, 121),3	708,(16, 121),3	714,(54, 121),3	720,(113, 121),3	726,(111, 121),3	732,(47, 121),3	735,(101, 121),3	738,(98, 121),3	741,(94, 121),3	747,(97, 121),3	759,(31, 121),3	
57,(6, 79),3	60,(6, 108),3	63,(11, 56),3	66,(11, 115),3	69,(6, 115),3	72,(6, 70),3	75,(11, 101),3	87,(9, 74),3	90,(9, 26),3	93,(9, 106),3	96,(9, 42),3	99,(9, 119),3	108,(11, 34),6	114,(9, 104),12	129,(9, 25),9	153,(6, 116),3	156,(9, 113),9	168,(9, 44),3	171,(6, 113),15	186,(9, 118),15	201,(6, 111),24	225,(11, 58),18	243,(9, 80),21	264,(11, 87),3	270,(11, 98),33	303,(6, 94),21	348,(6, 97),39	387,(6, 22),69	456,(9, 31),51	639,(6, 87),15	654,(6, 73),150	804,(9, 73),42	
14,(7, 27),3	25,(7, 88),9	34,(3, 103),3	37,(3, 17),3	40,(3, 93),3	43,(3, 108),3	46,(3, 77),12	63,(7, 94),3	73,(3, 90),9	82,(65, 121),3	85,(75, 121),3	99,(7, 16),12	111,(20, 121),3	114,(10, 64),3	117,(10, 95),3	120,(10, 63),3	123,(10, 55),6	129,(10, 57),3	132,(7, 21),12	144,(3, 54),12	159,(3, 19),12	171,(3, 62),15	186,(10, 47),12	198,(10, 39),3	201,(3, 112),18	219,(10, 24),3	222,(68, 121),3	225,(40, 121),3	228,(79, 121),3	231,(36, 121),3	234,(26, 121),3	243,(10, 23),18	300,(92, 121),3	324,(10, 94),24	348,(10, 114),42	390,(7, 97),18	408,(7, 120),42	450,(7, 99),57	507,(3, 22),36	543,(3, 31),48	591,(3, 69),24	657,(96, 121),3	663,(66, 121),3	669,(13, 121),3	675,(119, 121),3	681,(60, 121),3	687,(34, 121),3	693,(104, 121),3	699,(51, 121),3	705,(116, 121),3	711,(48, 121),3	717,(44, 121),3	723,(71, 121),3	729,(107, 121),3	744,(33, 121),3	750,(80, 121),3	753,(102, 121),3	762,(87, 121),3	856,(73, 121),3	
