8843
# CPU
145,4,41	186,37,41	227,13,41	268,112,41	309,26,41	350,99,41	391,105,41	531,14,41	5653,114,41	7558,51,41	7627,101,41	7831,78,41	7872,91,41	
193,5,41	234,27,41	275,61,41	316,108,41	357,120,41	398,52,41	439,83,41	480,81,41	521,80,41	7558,64,41	7599,87,41	7640,85,41	7822,49,41	
337,8,41	378,19,41	419,65,41	460,71,41	501,115,41	542,54,41	583,89,41	624,16,41	665,32,41	706,59,41	7636,119,41	7810,47,41	7900,113,41	
49,1,41	90,30,41	131,36,41	172,110,41	213,88,41	254,102,41	363,73,41	541,60,41	5467,82,41	6199,75,41	6265,118,41	7561,68,41	
97,3,41	138,45,41	179,111,41	330,70,41	371,22,41	412,35,41	529,28,41	5512,98,41	7609,74,41	7650,90,41	7837,86,41	
241,6,41	282,104,41	323,29,41	364,97,41	405,38,41	446,96,41	487,24,41	528,15,41	569,33,41	610,95,41	7633,117,41	
385,9,41	426,56,41	467,84,41	508,63,41	549,31,41	5449,57,41	5509,94,41	6205,79,41	7588,92,41	7629,69,41	7670,116,41	
0,0,1	1,2,41	42,12,41	83,53,41	124,72,41	165,21,41	526,107,41	567,23,41	608,66,41	7549,34,41	7807,46,41	7848,76,41	
289,7,41	330,67,41	433,10,41	474,58,41	515,20,41	556,93,41	597,39,41	638,40,41	679,55,41	5671,43,41	6202,77,41	7576,109,41	7768,25,41	
481,11,41	522,50,41	563,44,41	5647,100,41	6373,62,41	6469,106,41	7552,48,41	7681,18,41	7801,41,41	7879,103,41	8011,17,41	8158,42,41	8842,121,1	
# Incoming
97,(0, 4),48	145,(3, 37),3	148,(3, 51),3	364,(6, 51),6	487,(1, 51),3	522,(11, 14),9	540,(11, 91),3	5452,(2, 78),3	5647,(2, 114),6	7549,(7, 51),9	7621,(10, 91),3	7624,(10, 101),3	7828,(9, 78),3	7837,(9, 91),24	
145,(0, 5),48	370,(6, 80),12	534,(11, 85),6	6148,(12, 64),6	7552,(8, 64),6	7582,(7, 87),3	7609,(10, 85),9	7810,(9, 49),12	
289,(0, 8),48	337,(6, 16),3	493,(2, 16),9	538,(2, 32),6	544,(1, 119),24	568,(4, 59),9	607,(4, 119),18	7627,(10, 119),9	7807,(9, 47),3	7879,(9, 113),21	
1,(0, 1),48	330,(5, 73),33	363,(5, 75),12	538,(4, 60),3	577,(4, 68),18	5458,(2, 82),9	6157,(12, 75),42	6217,(12, 118),48	7558,(7, 68),3	
49,(0, 3),48	234,(5, 22),48	318,(5, 70),12	340,(6, 22),3	358,(6, 28),3	361,(6, 35),3	375,(5, 98),30	502,(2, 28),27	574,(11, 86),54	5509,(2, 98),3	6154,(12, 74),3	6205,(12, 86),12	7558,(8, 86),3	7600,(10, 74),9	7618,(10, 90),3	7831,(9, 86),6	
193,(0, 6),48	241,(3, 104),6	282,(5, 24),6	288,(5, 33),27	481,(2, 15),12	493,(1, 33),3	531,(11, 33),3	543,(11, 95),3	7618,(8, 117),15	
337,(0, 9),48	385,(3, 79),81	466,(3, 116),15	529,(2, 31),9	541,(4, 79),6	562,(11, 79),12	5425,(2, 57),24	5455,(2, 79),3	5467,(2, 94),42	6202,(12, 79),3	7561,(7, 69),21	7585,(7, 92),3	7588,(8, 69),12	7600,(8, 116),18	
523,(1, 107),3	526,(4, 23),12	538,(5, 23),6	544,(6, 46),3	547,(11, 66),12	559,(11, 76),3	595,(4, 76),12	607,(5, 34),66	7483,(7, 34),66	7804,(9, 46),3	7822,(9, 76),6	
241,(0, 7),48	315,(5, 58),3	343,(6, 25),15	385,(0, 10),48	544,(2, 39),3	547,(2, 40),3	550,(4, 55),12	5665,(12, 43),6	6199,(12, 77),3	7561,(8, 109),15	7681,(9, 25),87	
433,(0, 11),48	481,(1, 17),6	490,(1, 106),3	496,(1, 44),27	526,(30, 121),12	538,(3, 48),6	550,(2, 42),4875	5425,(36, 121),12	5437,(45, 121),12	5449,(2, 62),3	5452,(110, 121),12	5464,(111, 121),12	5476,(37, 121),12	5488,(88, 121),12	5500,(13, 121),12	5512,(2, 100),135	5653,(12, 41),12	5671,(12, 48),165	5836,(12, 62),312	6148,(1, 62),225	6373,(53, 121),12	6385,(72, 121),12	6397,(4, 106),72	6469,(21, 121),12	6481,(5, 48),99	6580,(27, 121),12	6592,(6, 48),21	6613,(102, 121),12	6625,(112, 121),12	6637,(61, 121),12	6649,(104, 121),12	6661,(7, 17),822	7483,(26, 121),12	7495,(108, 121),12	7507,(29, 121),12	7519,(70, 121),12	7531,(8, 41),15	7546,(8, 48),6	7552,(99, 121),12	7564,(120, 121),12	7576,(73, 121),12	7588,(67, 121),12	7600,(97, 121),12	7612,(22, 121),12	7633,(19, 121),12	7645,(9, 18),36	7681,(105, 121),12	7693,(52, 121),12	7705,(38, 121),12	7717,(35, 121),12	7729,(65, 121),12	7741,(83, 121),12	7753,(96, 121),12	7768,(9, 41),33	7801,(9, 42),3	7804,(71, 121),12	7816,(58, 121),12	7828,(81, 121),12	7840,(24, 121),12	7861,(9, 103),18	7879,(115, 121),12	7900,(56, 121),12	7912,(10, 17),99	8011,(10, 42),147	8158,(84, 121),12	8170,(63, 121),12	8182,(20, 121),12	8194,(80, 121),12	8206,(107, 121),12	8218,(15, 121),12	8230,(28, 121),12	8242,(14, 121),12	8254,(60, 121),12	8266,(54, 121),12	8278,(31, 121),12	8290,(93, 121),12	8302,(23, 121),12	8314,(33, 121),12	8326,(89, 121),12	8338,(39, 121),12	8350,(66, 121),12	8362,(95, 121),12	8374,(16, 121),12	8386,(40, 121),12	8398,(32, 121),12	8410,(55, 121),12	8422,(59, 121),12	8434,(57, 121),12	8446,(82, 121),12	8458,(94, 121),12	8470,(98, 121),12	8482,(114, 121),12	8494,(43, 121),12	8506,(75, 121),12	8518,(77, 121),12	8530,(79, 121),12	8542,(118, 121),12	8554,(34, 121),12	8566,(51, 121),12	8578,(64, 121),12	8590,(68, 121),12	8602,(109, 121),12	8614,(92, 121),12	8626,(87, 121),12	8638,(74, 121),12	8650,(101, 121),12	8662,(69, 121),12	8674,(117, 121),12	8686,(119, 121),12	8698,(85, 121),12	8710,(90, 121),12	8722,(116, 121),12	8734,(25, 121),12	8746,(46, 121),12	8758,(47, 121),12	8770,(49, 121),12	8782,(78, 121),12	8794,(86, 121),12	8806,(76, 121),12	8818,(91, 121),12	8830,(113, 121),12	
# Outgoing
526,(4, 23),12	538,(4, 60),3	541,(4, 79),6	550,(4, 55),12	568,(4, 59),9	577,(4, 68),18	595,(4, 76),12	607,(4, 119),18	5476,(37, 121),12	5500,(13, 121),12	6397,(4, 106),72	6625,(112, 121),12	7483,(26, 121),12	7552,(99, 121),12	7681,(105, 121),12	8242,(14, 121),12	8482,(114, 121),12	8566,(51, 121),12	8650,(101, 121),12	8782,(78, 121),12	8818,(91, 121),12	
234,(5, 22),48	282,(5, 24),6	288,(5, 33),27	315,(5, 58),3	318,(5, 70),12	330,(5, 73),33	363,(5, 75),12	375,(5, 98),30	538,(5, 23),6	607,(5, 34),66	6481,(5, 48),99	6580,(27, 121),12	6637,(61, 121),12	7495,(108, 121),12	7564,(120, 121),12	7693,(52, 121),12	7741,(83, 121),12	7828,(81, 121),12	8194,(80, 121),12	8578,(64, 121),12	8626,(87, 121),12	8698,(85, 121),12	8770,(49, 121),12	
7531,(8, 41),15	7546,(8, 48),6	7552,(8, 64),6	7558,(8, 86),3	7561,(8, 109),15	7588,(8, 69),12	7600,(8, 116),18	7618,(8, 117),15	7633,(19, 121),12	7729,(65, 121),12	7804,(71, 121),12	7879,(115, 121),12	8266,(54, 121),12	8326,(89, 121),12	8374,(16, 121),12	8398,(32, 121),12	8422,(59, 121),12	8686,(119, 121),12	8758,(47, 121),12	8830,(113, 121),12	
481,(1, 17),6	487,(1, 51),3	490,(1, 106),3	493,(1, 33),3	496,(1, 44),27	523,(1, 107),3	526,(30, 121),12	544,(1, 119),24	5425,(36, 121),12	5452,(110, 121),12	5488,(88, 121),12	6148,(1, 62),225	6613,(102, 121),12	7576,(73, 121),12	8254,(60, 121),12	8446,(82, 121),12	8506,(75, 121),12	8542,(118, 121),12	8590,(68, 121),12	
145,(3, 37),3	148,(3, 51),3	241,(3, 104),6	385,(3, 79),81	466,(3, 116),15	538,(3, 48),6	5437,(45, 121),12	5464,(111, 121),12	7519,(70, 121),12	7612,(22, 121),12	7717,(35, 121),12	8230,(28, 121),12	8470,(98, 121),12	8638,(74, 121),12	8710,(90, 121),12	8794,(86, 121),12	
337,(6, 16),3	340,(6, 22),3	343,(6, 25),15	358,(6, 28),3	361,(6, 35),3	364,(6, 51),6	370,(6, 80),12	544,(6, 46),3	6592,(6, 48),21	6649,(104, 121),12	7507,(29, 121),12	7600,(97, 121),12	7705,(38, 121),12	7753,(96, 121),12	7840,(24, 121),12	8218,(15, 121),12	8314,(33, 121),12	8362,(95, 121),12	8674,(117, 121),12	
7645,(9, 18),36	7681,(9, 25),87	7768,(9, 41),33	7801,(9, 42),3	7804,(9, 46),3	7807,(9, 47),3	7810,(9, 49),12	7822,(9, 76),6	7828,(9, 78),3	7831,(9, 86),6	7837,(9, 91),24	7861,(9, 103),18	7879,(9, 113),21	7900,(56, 121),12	8158,(84, 121),12	8170,(63, 121),12	8278,(31, 121),12	8434,(57, 121),12	8458,(94, 121),12	8530,(79, 121),12	8614,(92, 121),12	8662,(69, 121),12	8722,(116, 121),12	
1,(0, 1),48	49,(0, 3),48	97,(0, 4),48	145,(0, 5),48	193,(0, 6),48	241,(0, 7),48	289,(0, 8),48	337,(0, 9),48	385,(0, 10),48	433,(0, 11),48	481,(2, 15),12	493,(2, 16),9	502,(2, 28),27	529,(2, 31),9	538,(2, 32),6	544,(2, 39),3	547,(2, 40),3	550,(2, 42),4875	5425,(2, 57),24	5449,(2, 62),3	5452,(2, 78),3	5455,(2, 79),3	5458,(2, 82),9	5467,(2, 94),42	5509,(2, 98),3	5512,(2, 100),135	5647,(2, 114),6	5653,(12, 41),12	5665,(12, 43),6	5671,(12, 48),165	5836,(12, 62),312	6148,(12, 64),6	6154,(12, 74),3	6157,(12, 75),42	6199,(12, 77),3	6202,(12, 79),3	6205,(12, 86),12	6217,(12, 118),48	6373,(53, 121),12	6385,(72, 121),12	6469,(21, 121),12	8206,(107, 121),12	8302,(23, 121),12	8350,(66, 121),12	8554,(34, 121),12	8746,(46, 121),12	8806,(76, 121),12	
6661,(7, 17),822	7483,(7, 34),66	7549,(7, 51),9	7558,(7, 68),3	7561,(7, 69),21	7582,(7, 87),3	7585,(7, 92),3	7588,(67, 121),12	7600,(10, 74),9	7609,(10, 85),9	7618,(10, 90),3	7621,(10, 91),3	7624,(10, 101),3	7627,(10, 119),9	7816,(58, 121),12	7912,(10, 17),99	8011,(10, 42),147	8182,(20, 121),12	8290,(93, 121),12	8338,(39, 121),12	8386,(40, 121),12	8410,(55, 121),12	8494,(43, 121),12	8518,(77, 121),12	8602,(109, 121),12	8734,(25, 121),12	
522,(11, 14),9	531,(11, 33),3	534,(11, 85),6	540,(11, 91),3	543,(11, 95),3	547,(11, 66),12	559,(11, 76),3	562,(11, 79),12	574,(11, 86),54	
