10742
# CPU
241,38,1	265,68,1	677,28,1	817,48,1	5113,58,1	7037,78,1	9429,18,1	
93,37,1	317,47,1	369,67,1	389,17,1	1113,77,1	9441,27,1	9477,57,1	
29,8,1	30,16,1	109,46,1	225,26,1	629,56,1	645,66,1	649,76,1	1433,36,1	
25,7,1	29,35,1	45,15,1	381,45,1	673,25,1	905,65,1	985,75,1	1121,55,1	
21,6,1	205,24,1	237,14,1	261,64,1	277,74,1	629,44,1	1073,54,1	1913,34,1	
17,5,1	33,13,1	61,23,1	449,53,1	609,43,1	673,63,1	1361,33,1	5709,73,1	
13,4,1	14,52,1	21,12,1	25,42,1	449,32,1	637,62,1	977,72,1	1417,22,1	
9,3,1	10,21,1	45,31,1	69,11,1	101,41,1	257,51,1	633,61,1	9493,71,1	
5,2,1	233,20,1	445,30,1	453,80,1	4913,50,1	4937,60,1	5277,70,1	9393,10,1	9457,40,1	
0,0,1	1,1,1	2,9,1	3,39,1	241,59,1	665,19,1	673,49,1	693,79,1	9445,29,1	9489,69,1	10741,81,1	
# Incoming
237,(4, 38),4	261,(4, 68),4	673,(6, 28),4	677,(6, 48),12	689,(7, 48),128	4913,(4, 58),200	5709,(4, 78),1328	9393,(5, 18),36	
45,(1, 37),48	109,(1, 47),208	317,(2, 67),52	369,(8, 17),20	1073,(7, 77),40	9429,(5, 27),12	9457,(5, 57),20	
25,(0, 8),4	101,(1, 46),8	205,(2, 26),20	317,(1, 56),312	637,(7, 66),8	645,(7, 76),4	1361,(3, 36),72	
21,(0, 7),4	25,(2, 35),4	29,(3, 15),16	365,(3, 45),16	665,(6, 25),8	673,(1, 65),232	977,(1, 75),8	985,(6, 55),136	
17,(0, 6),4	29,(2, 64),4	61,(2, 24),144	205,(4, 14),32	257,(4, 64),4	265,(4, 74),12	609,(7, 44),20	817,(7, 54),256	1417,(8, 34),496	
13,(0, 5),4	29,(1, 13),4	33,(2, 23),28	381,(3, 53),68	449,(7, 43),160	629,(1, 63),44	673,(3, 33),688	5277,(4, 73),432	
9,(0, 4),4	13,(2, 12),8	21,(2, 42),4	445,(7, 32),4	633,(7, 62),4	905,(1, 72),72	977,(8, 22),440	
5,(0, 3),4	41,(1, 31),4	45,(8, 11),24	93,(1, 41),8	245,(4, 51),12	629,(7, 61),4	9489,(5, 71),4	
1,(0, 2),4	33,(1, 20),8	45,(3, 20),188	233,(3, 30),132	365,(7, 30),80	445,(8, 40),4	449,(3, 80),4	453,(4, 50),4460	4913,(6, 60),24	5113,(4, 70),164	5277,(5, 10),4116	9445,(5, 40),12	
225,(2, 59),16	241,(4, 29),4	277,(52, 81),96	453,(21, 81),96	549,(6, 19),116	665,(7, 49),8	689,(6, 79),4	693,(16, 81),96	789,(37, 81),96	885,(24, 81),96	981,(20, 81),96	1113,(35, 81),96	1209,(15, 81),96	1305,(14, 81),96	1433,(31, 81),96	1529,(11, 81),96	1625,(41, 81),96	1721,(38, 81),96	1817,(51, 81),96	1913,(46, 81),96	2009,(26, 81),96	2105,(64, 81),96	2201,(68, 81),96	2297,(74, 81),96	2393,(47, 81),96	2489,(67, 81),96	2585,(45, 81),96	2681,(17, 81),96	2777,(30, 81),96	2873,(80, 81),96	2969,(56, 81),96	3065,(44, 81),96	3161,(61, 81),96	3257,(66, 81),96	3353,(76, 81),96	3449,(25, 81),96	3545,(28, 81),96	3641,(48, 81),96	3737,(65, 81),96	3833,(75, 81),96	3929,(54, 81),96	4025,(77, 81),96	4121,(55, 81),96	4217,(36, 81),96	4313,(34, 81),96	4914,(50, 81),96	5010,(60, 81),96	5114,(58, 81),96	5278,(70, 81),96	7037,(12, 81),96	7133,(42, 81),96	7229,(32, 81),96	7325,(62, 81),96	7421,(72, 81),96	7517,(22, 81),96	7613,(78, 81),96	9441,(5, 29),4	9477,(5, 69),12	9493,(13, 81),96	9589,(23, 81),96	9685,(53, 81),96	9781,(43, 81),96	9877,(63, 81),96	9973,(33, 81),96	10069,(73, 81),96	10165,(10, 81),96	10261,(18, 81),96	10357,(27, 81),96	10453,(40, 81),96	10549,(57, 81),96	10645,(71, 81),96	
# Outgoing
1721,(38, 81),96	2201,(68, 81),96	3545,(28, 81),96	3641,(48, 81),96	5114,(58, 81),96	7613,(78, 81),96	10261,(18, 81),96	
789,(37, 81),96	2393,(47, 81),96	2489,(67, 81),96	2681,(17, 81),96	4025,(77, 81),96	10357,(27, 81),96	10549,(57, 81),96	
45,(8, 11),24	369,(8, 17),20	445,(8, 40),4	693,(16, 81),96	977,(8, 22),440	1417,(8, 34),496	1913,(46, 81),96	2009,(26, 81),96	2969,(56, 81),96	3257,(66, 81),96	3353,(76, 81),96	4217,(36, 81),96	
365,(7, 30),80	445,(7, 32),4	449,(7, 43),160	609,(7, 44),20	629,(7, 61),4	633,(7, 62),4	637,(7, 66),8	645,(7, 76),4	665,(7, 49),8	689,(7, 48),128	817,(7, 54),256	1073,(7, 77),40	1113,(35, 81),96	1209,(15, 81),96	2585,(45, 81),96	3449,(25, 81),96	3737,(65, 81),96	3833,(75, 81),96	4121,(55, 81),96	
549,(6, 19),116	665,(6, 25),8	673,(6, 28),4	677,(6, 48),12	689,(6, 79),4	885,(24, 81),96	985,(6, 55),136	1305,(14, 81),96	2105,(64, 81),96	2297,(74, 81),96	3065,(44, 81),96	3929,(54, 81),96	4313,(34, 81),96	4913,(6, 60),24	
5277,(5, 10),4116	9393,(5, 18),36	9429,(5, 27),12	9441,(5, 29),4	9445,(5, 40),12	9457,(5, 57),20	9477,(5, 69),12	9489,(5, 71),4	9493,(13, 81),96	9589,(23, 81),96	9685,(53, 81),96	9781,(43, 81),96	9877,(63, 81),96	9973,(33, 81),96	10069,(73, 81),96	
205,(4, 14),32	237,(4, 38),4	241,(4, 29),4	245,(4, 51),12	257,(4, 64),4	261,(4, 68),4	265,(4, 74),12	277,(52, 81),96	453,(4, 50),4460	4913,(4, 58),200	5113,(4, 70),164	5277,(4, 73),432	5709,(4, 78),1328	7037,(12, 81),96	7133,(42, 81),96	7229,(32, 81),96	7325,(62, 81),96	7421,(72, 81),96	7517,(22, 81),96	
29,(3, 15),16	45,(3, 20),188	233,(3, 30),132	365,(3, 45),16	381,(3, 53),68	449,(3, 80),4	453,(21, 81),96	673,(3, 33),688	1361,(3, 36),72	1433,(31, 81),96	1529,(11, 81),96	1625,(41, 81),96	1817,(51, 81),96	3161,(61, 81),96	10645,(71, 81),96	
13,(2, 12),8	21,(2, 42),4	25,(2, 35),4	29,(2, 64),4	33,(2, 23),28	61,(2, 24),144	205,(2, 26),20	225,(2, 59),16	317,(2, 67),52	981,(20, 81),96	2777,(30, 81),96	2873,(80, 81),96	4914,(50, 81),96	5010,(60, 81),96	5278,(70, 81),96	10165,(10, 81),96	10453,(40, 81),96	
1,(0, 2),4	5,(0, 3),4	9,(0, 4),4	13,(0, 5),4	17,(0, 6),4	21,(0, 7),4	25,(0, 8),4	29,(1, 13),4	33,(1, 20),8	41,(1, 31),4	45,(1, 37),48	93,(1, 41),8	101,(1, 46),8	109,(1, 47),208	317,(1, 56),312	629,(1, 63),44	673,(1, 65),232	905,(1, 72),72	977,(1, 75),8	
