262
# CPU
0,0,1	1,1,9	10,27,9	19,36,9	28,4,9	37,35,9	46,30,9	55,3,9	64,9,9	73,5,9	82,32,9	91,16,9	100,40,9	109,11,9	118,33,9	127,20,9	143,17,9	152,25,9	161,12,9	170,38,9	190,14,9	206,7,9	227,18,9	251,28,9	261,41,1	
47,22,9	65,26,9	132,2,9	141,13,9	150,8,9	159,21,9	168,29,9	177,37,9	186,31,9	195,6,9	204,34,9	213,19,9	222,24,9	231,10,9	240,39,9	
157,23,9	
158,15,9	

# Incoming
56,(22, 41),5	74,(26, 41),5	141,(2, 17),2	143,(2, 25),1	144,(2, 12),1	150,(13, 41),5	155,(2, 38),2	159,(8, 41),5	166,(23, 41),5	171,(15, 41),5	176,(21, 41),5	181,(29, 41),5	186,(2, 14),4	190,(37, 41),5	195,(31, 41),5	200,(2, 7),6	206,(6, 41),5	213,(34, 41),5	218,(2, 18),9	227,(19, 41),5	232,(24, 41),5	237,(2, 28),14	251,(10, 41),5	256,(39, 41),5	
10,(1, 22),3	13,(1, 26),2	21,(1, 21),1	22,(1, 29),1	23,(1, 31),1	24,(1, 6),1	25,(1, 34),5	30,(1, 10),3	37,(4, 22),10	47,(4, 26),4	59,(4, 31),1	60,(4, 34),1	61,(4, 19),1	64,(3, 26),1	65,(0, 2),67	134,(3, 21),1	135,(3, 29),2	137,(3, 37),4	141,(3, 31),4	145,(3, 6),7	152,(3, 34),2	154,(3, 19),10	164,(1, 24),12	176,(4, 10),5	181,(3, 10),12	193,(4, 39),26	219,(3, 39),13	
15,(1, 23),6	145,(2, 23),2	
51,(4, 15),8	132,(3, 15),2	147,(2, 15),3	

# Outgoing
10,(1, 22),3	13,(1, 26),2	15,(1, 23),6	21,(1, 21),1	22,(1, 29),1	23,(1, 31),1	24,(1, 6),1	25,(1, 34),5	30,(1, 10),3	37,(4, 22),10	47,(4, 26),4	51,(4, 15),8	59,(4, 31),1	60,(4, 34),1	61,(4, 19),1	64,(3, 26),1	65,(0, 2),67	132,(3, 15),2	134,(3, 21),1	135,(3, 29),2	137,(3, 37),4	141,(3, 31),4	145,(3, 6),7	152,(3, 34),2	154,(3, 19),10	164,(1, 24),12	176,(4, 10),5	181,(3, 10),12	193,(4, 39),26	219,(3, 39),13	
56,(22, 41),5	74,(26, 41),5	141,(2, 17),2	143,(2, 25),1	144,(2, 12),1	145,(2, 23),2	147,(2, 15),3	150,(13, 41),5	155,(2, 38),2	159,(8, 41),5	176,(21, 41),5	181,(29, 41),5	186,(2, 14),4	190,(37, 41),5	195,(31, 41),5	200,(2, 7),6	206,(6, 41),5	213,(34, 41),5	218,(2, 18),9	227,(19, 41),5	232,(24, 41),5	237,(2, 28),14	251,(10, 41),5	256,(39, 41),5	
166,(23, 41),5	
171,(15, 41),5	

