988
# CPU
3,2,10	13,4,10	23,16,10	33,22,10	43,12,10	53,6,10	63,14,10	73,26,10	83,40,10	93,34,10	257,24,10	657,28,10	667,36,10	829,8,10	845,10,10	855,18,10	945,20,10	955,30,10	965,32,10	975,38,10	
0,0,1	1,1,10	11,3,10	21,11,10	31,33,10	41,7,10	51,29,10	61,15,10	71,39,10	81,21,10	91,5,10	101,13,10	111,31,10	121,9,10	131,17,10	141,19,10	151,23,10	161,25,10	195,27,10	205,35,10	223,37,10	987,41,1	
# Incoming
1,(0, 2),2	3,(0, 4),2	11,(1, 24),246	257,(1, 28),400	657,(1, 36),2	659,(3, 8),170	829,(3, 10),16	845,(3, 18),6	851,(3, 20),94	945,(3, 30),4	949,(3, 32),10	959,(3, 38),2	
13,(2, 13),74	87,(2, 31),2	89,(4, 9),2	91,(4, 17),22	113,(4, 19),10	123,(4, 23),20	143,(4, 25),16	159,(4, 27),36	195,(4, 35),10	205,(4, 37),18	223,(16, 41),2	225,(22, 41),2	227,(12, 41),2	229,(6, 41),2	231,(14, 41),2	233,(26, 41),2	235,(40, 41),2	237,(34, 41),2	267,(24, 41),2	667,(28, 41),2	677,(36, 41),2	839,(8, 41),2	855,(10, 41),2	865,(18, 41),2	955,(20, 41),2	965,(30, 41),2	975,(32, 41),2	985,(38, 41),2	
# Outgoing
13,(2, 13),74	87,(2, 31),2	89,(4, 9),2	91,(4, 17),22	113,(4, 19),10	123,(4, 23),20	143,(4, 25),16	159,(4, 27),36	195,(4, 35),10	205,(4, 37),18	223,(16, 41),2	225,(22, 41),2	227,(12, 41),2	229,(6, 41),2	231,(14, 41),2	233,(26, 41),2	235,(40, 41),2	237,(34, 41),2	267,(24, 41),2	667,(28, 41),2	677,(36, 41),2	839,(8, 41),2	855,(10, 41),2	865,(18, 41),2	955,(20, 41),2	965,(30, 41),2	975,(32, 41),2	985,(38, 41),2	
1,(0, 2),2	3,(0, 4),2	11,(1, 24),246	257,(1, 28),400	657,(1, 36),2	659,(3, 8),170	829,(3, 10),16	845,(3, 18),6	851,(3, 20),94	945,(3, 30),4	949,(3, 32),10	959,(3, 38),2	
