328
# CPU
51,7,5	60,12,5	78,17,5	
181,6,5	253,11,5	280,16,5	
256,15,5	261,5,5	268,10,5	316,20,5	
16,2,5	21,4,5	190,9,5	202,14,5	268,19,5	
0,0,1	1,1,5	6,8,5	33,3,5	63,13,5	105,18,5	327,21,1	
# Incoming
33,(2, 7),18	51,(2, 12),9	63,(2, 17),15	
16,(1, 6),165	181,(2, 11),72	256,(1, 16),9	268,(2, 16),12	
202,(1, 15),54	256,(2, 5),3	259,(2, 10),9	268,(1, 20),48	
1,(0, 2),15	181,(1, 9),9	190,(1, 14),12	265,(1, 19),3	
21,(2, 3),12	60,(2, 13),3	63,(7, 21),6	69,(12, 21),6	78,(2, 18),27	105,(4, 21),6	111,(17, 21),6	186,(6, 21),6	258,(11, 21),6	264,(15, 21),6	270,(5, 21),6	280,(9, 21),6	286,(14, 21),6	292,(10, 21),6	298,(19, 21),6	304,(16, 21),6	321,(20, 21),6	
# Outgoing
63,(7, 21),6	69,(12, 21),6	111,(17, 21),6	
186,(6, 21),6	258,(11, 21),6	304,(16, 21),6	
264,(15, 21),6	270,(5, 21),6	292,(10, 21),6	321,(20, 21),6	
21,(2, 3),12	33,(2, 7),18	51,(2, 12),9	60,(2, 13),3	63,(2, 17),15	78,(2, 18),27	105,(4, 21),6	181,(2, 11),72	256,(2, 5),3	259,(2, 10),9	268,(2, 16),12	280,(9, 21),6	286,(14, 21),6	298,(19, 21),6	
1,(0, 2),15	16,(1, 6),165	181,(1, 9),9	190,(1, 14),12	202,(1, 15),54	256,(1, 16),9	265,(1, 19),3	268,(1, 20),48	
