4304
# CPU
193,5,6	202,27,6	220,22,6	226,94,6	238,113,6	265,116,6	328,67,6	334,81,6	340,72,6	385,10,6	391,70,6	397,119,6	403,78,6	412,110,6	418,33,6	424,41,6	430,61,6	436,88,6	466,31,6	556,52,6	622,91,6	649,23,6	655,36,6	664,85,6	739,55,6	892,28,6	970,47,6	976,49,6	982,58,6	994,65,6	1195,45,6	1201,75,6	1249,97,6	1255,100,6	1261,104,6	1279,107,6	1312,83,6	
145,4,6	151,17,6	157,60,6	163,87,6	169,51,6	175,77,6	181,82,6	190,25,6	196,39,6	202,46,6	208,54,6	271,74,6	283,115,6	289,57,6	337,9,6	343,48,6	382,43,6	430,32,6	436,24,6	442,18,6	544,66,6	655,118,6	676,103,6	685,68,6	778,93,6	823,109,6	907,34,6	1033,80,6	1087,84,6	1183,29,6	1198,63,6	1246,96,6	1297,71,6	1363,90,6	1396,99,6	1408,106,6	1414,112,6	
97,3,6	103,108,6	160,15,6	190,98,6	289,8,6	295,53,6	301,59,6	370,92,6	376,76,6	391,86,6	397,95,6	481,50,6	514,56,6	547,62,6	655,69,6	661,38,6	778,114,6	895,111,6	901,120,6	961,44,6	1126,101,6	1156,21,6	1243,89,6	1261,105,6	1453,79,6	1876,42,6	2425,64,6	2617,117,6	2890,30,6	2923,73,6	4303,121,1	
49,2,6	241,7,6	433,12,6	439,102,6	478,26,6	862,16,6	889,20,6	1105,37,6	
0,0,1	1,6,6	7,11,6	13,1,6	19,35,6	250,19,6	289,13,6	475,14,6	1252,40,6	
# Incoming
145,(0, 5),48	193,(2, 27),9	202,(2, 36),3	205,(2, 65),12	217,(3, 22),3	220,(3, 45),3	223,(3, 94),3	226,(3, 107),9	235,(3, 113),3	238,(3, 116),27	265,(4, 67),63	328,(4, 81),3	334,(7, 72),3	337,(0, 10),48	385,(4, 110),27	412,(7, 33),6	418,(7, 41),6	424,(8, 61),6	430,(8, 88),6	439,(6, 23),12	451,(6, 31),15	466,(7, 45),21	487,(7, 52),69	556,(7, 91),66	622,(7, 100),18	640,(9, 23),9	649,(12, 36),3	652,(12, 85),3	655,(6, 85),9	664,(8, 75),12	676,(8, 100),39	715,(9, 45),9	724,(9, 55),15	889,(11, 28),3	961,(11, 47),9	970,(11, 49),3	973,(11, 58),6	979,(11, 65),15	1087,(11, 97),15	1183,(1, 45),12	1198,(1, 75),3	1201,(1, 83),12	1246,(1, 97),3	1249,(1, 100),3	1252,(1, 104),6	1261,(1, 107),18	1297,(12, 83),15	
97,(0, 4),48	145,(2, 17),3	148,(2, 51),9	157,(2, 77),3	160,(2, 82),3	163,(3, 25),27	190,(3, 39),6	196,(3, 46),3	199,(3, 54),6	217,(2, 74),54	271,(2, 115),12	283,(5, 57),6	289,(0, 9),48	337,(3, 43),45	382,(5, 29),9	391,(5, 32),39	430,(7, 24),3	433,(6, 18),6	439,(3, 66),105	544,(3, 118),111	655,(7, 29),12	667,(7, 84),6	673,(7, 103),3	676,(10, 68),9	685,(10, 71),48	733,(12, 34),27	775,(6, 93),3	820,(6, 109),3	823,(6, 112),27	892,(11, 34),15	994,(11, 80),39	1033,(11, 84),54	1156,(1, 29),27	1195,(1, 63),3	1243,(1, 96),3	1252,(12, 71),45	1312,(12, 90),51	1363,(12, 99),33	1396,(12, 106),12	1408,(12, 112),3	
49,(0, 3),48	151,(4, 15),9	163,(2, 95),15	178,(2, 98),12	190,(2, 120),3	193,(17, 121),30	241,(0, 8),48	289,(2, 117),45	334,(60, 121),30	364,(5, 92),6	370,(7, 76),3	373,(7, 86),18	391,(7, 95),6	412,(87, 121),30	466,(6, 42),12	478,(6, 50),3	481,(6, 56),33	514,(6, 62),33	547,(6, 69),108	655,(9, 38),3	658,(9, 42),6	664,(6, 89),111	775,(9, 114),3	778,(6, 101),42	820,(51, 121),30	850,(6, 120),9	859,(77, 121),30	889,(10, 111),6	895,(10, 120),3	907,(11, 44),54	961,(82, 121),30	991,(25, 121),30	1021,(5, 105),36	1057,(39, 121),30	1102,(11, 101),24	1126,(1, 21),30	1156,(27, 121),30	1213,(1, 89),30	1258,(1, 105),3	1279,(35, 121),30	1309,(4, 79),144	1453,(5, 42),423	1876,(46, 121),30	1906,(54, 121),30	1936,(22, 121),30	1966,(94, 121),30	1996,(113, 121),30	2026,(19, 121),30	2056,(116, 121),30	2086,(74, 121),30	2116,(115, 121),30	2146,(57, 121),30	2176,(13, 121),30	2206,(67, 121),30	2236,(81, 121),30	2266,(9, 30),57	2323,(9, 64),102	2425,(72, 121),30	2455,(48, 121),30	2485,(43, 121),30	2515,(10, 117),102	2617,(70, 121),30	2647,(119, 121),30	2677,(78, 121),30	2707,(110, 121),30	2737,(33, 121),30	2767,(41, 121),30	2797,(32, 121),30	2827,(61, 121),30	2857,(12, 30),33	2890,(12, 73),33	2923,(88, 121),30	2953,(24, 121),30	2983,(102, 121),30	3013,(18, 121),30	3043,(31, 121),30	3073,(14, 121),30	3103,(26, 121),30	3133,(66, 121),30	3163,(52, 121),30	3193,(91, 121),30	3223,(23, 121),30	3253,(118, 121),30	3283,(36, 121),30	3313,(85, 121),30	3343,(103, 121),30	3373,(68, 121),30	3403,(55, 121),30	3433,(93, 121),30	3463,(109, 121),30	3493,(16, 121),30	3523,(20, 121),30	3553,(28, 121),30	3583,(34, 121),30	3613,(47, 121),30	3643,(49, 121),30	3673,(58, 121),30	3703,(65, 121),30	3733,(80, 121),30	3763,(84, 121),30	3793,(37, 121),30	3823,(29, 121),30	3853,(45, 121),30	3883,(63, 121),30	3913,(75, 121),30	3943,(96, 121),30	3973,(97, 121),30	4003,(40, 121),30	4033,(100, 121),30	4063,(104, 121),30	4093,(107, 121),30	4123,(71, 121),30	4153,(83, 121),30	4183,(90, 121),30	4213,(99, 121),30	4243,(106, 121),30	4273,(112, 121),30	
1,(0, 2),48	193,(0, 7),48	250,(5, 37),3	295,(8, 20),3	364,(9, 102),15	385,(0, 12),48	433,(10, 26),45	859,(11, 16),3	862,(11, 20),27	889,(8, 37),216	
103,(3, 19),36	160,(4, 19),3	199,(5, 19),51	283,(7, 13),6	442,(9, 14),33	760,(12, 40),492	
# Outgoing
199,(5, 19),51	250,(5, 37),3	283,(5, 57),6	364,(5, 92),6	382,(5, 29),9	391,(5, 32),39	433,(10, 26),45	676,(10, 68),9	685,(10, 71),48	889,(10, 111),6	895,(10, 120),3	1021,(5, 105),36	1156,(27, 121),30	1453,(5, 42),423	1936,(22, 121),30	1966,(94, 121),30	1996,(113, 121),30	2056,(116, 121),30	2206,(67, 121),30	2236,(81, 121),30	2425,(72, 121),30	2515,(10, 117),102	2617,(70, 121),30	2647,(119, 121),30	2677,(78, 121),30	2707,(110, 121),30	2737,(33, 121),30	2767,(41, 121),30	2827,(61, 121),30	2923,(88, 121),30	3043,(31, 121),30	3163,(52, 121),30	3193,(91, 121),30	3223,(23, 121),30	3283,(36, 121),30	3313,(85, 121),30	3403,(55, 121),30	3553,(28, 121),30	3613,(47, 121),30	3643,(49, 121),30	3673,(58, 121),30	3703,(65, 121),30	3853,(45, 121),30	3913,(75, 121),30	3973,(97, 121),30	4033,(100, 121),30	4063,(104, 121),30	4093,(107, 121),30	4153,(83, 121),30	
151,(4, 15),9	160,(4, 19),3	193,(17, 121),30	265,(4, 67),63	328,(4, 81),3	334,(60, 121),30	364,(9, 102),15	385,(4, 110),27	412,(87, 121),30	442,(9, 14),33	640,(9, 23),9	655,(9, 38),3	658,(9, 42),6	715,(9, 45),9	724,(9, 55),15	775,(9, 114),3	820,(51, 121),30	859,(77, 121),30	961,(82, 121),30	991,(25, 121),30	1057,(39, 121),30	1309,(4, 79),144	1876,(46, 121),30	1906,(54, 121),30	2086,(74, 121),30	2116,(115, 121),30	2146,(57, 121),30	2266,(9, 30),57	2323,(9, 64),102	2455,(48, 121),30	2485,(43, 121),30	2797,(32, 121),30	2953,(24, 121),30	3013,(18, 121),30	3133,(66, 121),30	3253,(118, 121),30	3343,(103, 121),30	3373,(68, 121),30	3433,(93, 121),30	3463,(109, 121),30	3583,(34, 121),30	3733,(80, 121),30	3763,(84, 121),30	3823,(29, 121),30	3883,(63, 121),30	3943,(96, 121),30	4123,(71, 121),30	4183,(90, 121),30	4213,(99, 121),30	4243,(106, 121),30	4273,(112, 121),30	
103,(3, 19),36	163,(3, 25),27	190,(3, 39),6	196,(3, 46),3	199,(3, 54),6	217,(3, 22),3	220,(3, 45),3	223,(3, 94),3	226,(3, 107),9	235,(3, 113),3	238,(3, 116),27	295,(8, 20),3	337,(3, 43),45	424,(8, 61),6	430,(8, 88),6	439,(3, 66),105	544,(3, 118),111	664,(8, 75),12	676,(8, 100),39	889,(8, 37),216	
145,(2, 17),3	148,(2, 51),9	157,(2, 77),3	160,(2, 82),3	163,(2, 95),15	178,(2, 98),12	190,(2, 120),3	193,(2, 27),9	202,(2, 36),3	205,(2, 65),12	217,(2, 74),54	271,(2, 115),12	283,(7, 13),6	289,(2, 117),45	334,(7, 72),3	370,(7, 76),3	373,(7, 86),18	391,(7, 95),6	412,(7, 33),6	418,(7, 41),6	430,(7, 24),3	466,(7, 45),21	487,(7, 52),69	556,(7, 91),66	622,(7, 100),18	649,(12, 36),3	652,(12, 85),3	655,(7, 29),12	667,(7, 84),6	673,(7, 103),3	733,(12, 34),27	760,(12, 40),492	1252,(12, 71),45	1297,(12, 83),15	1312,(12, 90),51	1363,(12, 99),33	1396,(12, 106),12	1408,(12, 112),3	2857,(12, 30),33	2890,(12, 73),33	2983,(102, 121),30	3103,(26, 121),30	3493,(16, 121),30	3523,(20, 121),30	3793,(37, 121),30	
1,(0, 2),48	49,(0, 3),48	97,(0, 4),48	145,(0, 5),48	193,(0, 7),48	241,(0, 8),48	289,(0, 9),48	337,(0, 10),48	385,(0, 12),48	433,(6, 18),6	439,(6, 23),12	451,(6, 31),15	466,(6, 42),12	478,(6, 50),3	481,(6, 56),33	514,(6, 62),33	547,(6, 69),108	655,(6, 85),9	664,(6, 89),111	775,(6, 93),3	778,(6, 101),42	820,(6, 109),3	823,(6, 112),27	850,(6, 120),9	859,(11, 16),3	862,(11, 20),27	889,(11, 28),3	892,(11, 34),15	907,(11, 44),54	961,(11, 47),9	970,(11, 49),3	973,(11, 58),6	979,(11, 65),15	994,(11, 80),39	1033,(11, 84),54	1087,(11, 97),15	1102,(11, 101),24	1126,(1, 21),30	1156,(1, 29),27	1183,(1, 45),12	1195,(1, 63),3	1198,(1, 75),3	1201,(1, 83),12	1213,(1, 89),30	1243,(1, 96),3	1246,(1, 97),3	1249,(1, 100),3	1252,(1, 104),6	1258,(1, 105),3	1261,(1, 107),18	1279,(35, 121),30	2026,(19, 121),30	2176,(13, 121),30	3073,(14, 121),30	4003,(40, 121),30	
