23882
# CPU
6082,158,1	10675,161,1	10705,168,1	12040,147,1	12235,33,1	12301,53,1	12631,196,1	13297,154,1	13303,171,1	13306,172,1	13318,178,1	13477,188,1	13711,189,1	14548,45,1	14629,59,1	14953,65,1	14962,72,1	15457,110,1	15469,124,1	15637,138,1	15640,145,1	15667,148,1	15844,174,1	16165,181,1	16399,32,1	16534,61,1	16549,92,1	16600,112,1	16639,126,1	16648,137,1	16966,30,1	17461,52,1	18034,131,1	18244,180,1	18310,26,1	18397,27,1	18466,37,1	18508,38,1	18715,121,1	18730,128,1	18892,164,1	18904,166,1	18973,175,1	19102,22,1	19126,43,1	19138,51,1	19234,79,1	19255,103,1	19261,106,1	19444,132,1	19543,150,1	19546,160,1	19549,170,1	19675,197,1	19687,44,1	19690,47,1	19702,48,1	19867,49,1	19903,55,1	19906,56,1	19909,57,1	19996,64,1	20056,74,1	20095,98,1	20272,123,1	20284,127,1	20317,130,1	20326,143,1	20419,151,1	20488,163,1	20494,179,1	20497,184,1	20617,194,1	20644,34,1	20647,42,1	20680,54,1	20770,68,1	20773,70,1	20842,91,1	20848,95,1	20863,97,1	20869,99,1	20881,101,1	20884,108,1	21067,118,1	21100,120,1	21136,141,1	21151,152,1	21163,159,1	21373,165,1	21454,24,1	21490,28,1	21520,63,1	21523,69,1	21544,76,1	21607,80,1	21643,82,1	21727,83,1	21730,86,1	21745,90,1	21748,107,1	21760,109,1	21799,111,1	21817,114,1	21859,116,1	21895,136,1	21970,162,1	21973,173,1	22012,182,1	22039,191,1	22048,192,1	22063,199,1	22075,200,1	22591,29,1	22606,39,1	22615,40,1	22645,41,1	22669,62,1	22702,66,1	22753,71,1	22774,75,1	22777,84,1	22780,87,1	22792,104,1	22795,117,1	22813,119,1	22876,142,1	22879,144,1	23281,156,1	23368,176,1	23377,177,1	23491,183,1	23503,187,1	23506,193,1	23881,201,1	
0,0,1	1,20,1	2,6,1	3,10,1	4,7,1	5,5,1	6,133,1	7,78,1	8,31,1	9,167,1	10,157,1	11,25,1	2215,115,1	2224,67,1	2227,146,1	2233,21,1	2236,96,1	
115,1,1	229,2,1	230,93,1	685,9,1	686,195,1	799,11,1	1027,13,1	1028,81,1	1029,125,1	1030,186,1	1601,140,1	1780,73,1	1783,155,1	1786,36,1	1789,122,1	2044,77,1	2065,89,1	
343,3,1	344,94,1	345,198,1	457,4,1	571,8,1	572,50,1	1255,15,1	1711,19,1	2197,129,1	2203,102,1	2212,88,1	2335,149,1	7390,23,1	7393,35,1	8314,85,1	8317,100,1	8788,135,1	
913,12,1	914,139,1	1141,14,1	1369,16,1	1370,153,1	1483,17,1	1484,60,1	1597,18,1	1598,58,1	1599,134,1	1600,169,1	2230,105,1	2239,113,1	4183,185,1	4255,190,1	6310,46,1	
# Incoming
1711,(20, 27),18	1729,(20, 33),3	1732,(20, 40),15	1747,(20, 44),3	1750,(3, 40),6	1756,(3, 44),18	1774,(3, 47),3	1777,(20, 59),45	1822,(20, 63),12	1834,(20, 66),207	2041,(3, 72),3	2044,(20, 80),3	2047,(20, 82),3	2050,(3, 51),12	2062,(3, 90),3	2065,(3, 104),3	2068,(20, 103),3	2071,(20, 108),12	2083,(1, 39),48	2131,(1, 43),48	2179,(1, 49),3	2182,(1, 52),9	2191,(1, 72),6	2197,(20, 144),126	2323,(1, 101),3	2326,(1, 104),3	2329,(1, 109),6	2335,(20, 152),3	2338,(20, 154),27	2365,(20, 158),126	2491,(20, 160),18	2509,(20, 161),1665	4174,(20, 168),3	4177,(1, 156),3	4180,(1, 161),3	4183,(20, 188),30	4213,(1, 53),27	4240,(1, 142),9	4249,(1, 171),3	4252,(2, 42),3	4255,(20, 194),9	4264,(20, 196),3	4267,(6, 28),3	4270,(6, 32),1029	5299,(6, 38),3	5302,(6, 41),24	5326,(6, 47),15	5341,(6, 101),9	5350,(6, 111),408	5758,(6, 118),3	5761,(6, 137),57	5818,(6, 142),12	5830,(6, 143),192	6022,(6, 147),57	6079,(6, 158),3	6082,(6, 164),96	6178,(6, 168),18	6196,(10, 24),21	6217,(10, 26),18	6235,(10, 33),6	6241,(2, 74),3	6244,(10, 44),63	6307,(2, 101),3	6310,(10, 49),3	6313,(10, 56),15	6328,(10, 61),27	6355,(10, 79),27	6382,(10, 90),9	6391,(10, 108),57	6448,(10, 114),21	6469,(10, 117),12	6481,(10, 120),27	6508,(10, 126),69	6577,(10, 127),36	6613,(10, 130),552	7165,(10, 131),6	7171,(10, 144),21	7192,(10, 148),12	7204,(10, 154),75	7279,(10, 161),3	7282,(10, 165),3	7285,(10, 171),54	7339,(10, 176),18	7357,(10, 177),15	7372,(10, 187),3	7375,(10, 192),12	7387,(1, 194),6	7393,(7, 39),12	7405,(7, 52),336	7741,(7, 69),42	7783,(7, 80),108	7891,(7, 82),72	7963,(7, 92),24	7987,(7, 104),9	7996,(7, 107),30	8026,(7, 117),12	8038,(7, 121),30	8068,(7, 123),15	8083,(7, 143),9	8092,(7, 164),18	8110,(7, 173),12	8122,(7, 187),12	8134,(7, 200),3	8137,(5, 42),21	8158,(5, 49),27	8185,(5, 52),15	8200,(5, 59),12	8212,(5, 63),6	8218,(5, 65),24	8242,(5, 71),36	8278,(5, 74),12	8290,(5, 76),9	8299,(5, 79),9	8308,(5, 83),3	8311,(2, 34),6	8317,(5, 101),27	8344,(5, 103),108	8452,(5, 107),6	8458,(5, 110),18	8476,(5, 112),81	8557,(5, 126),36	8593,(5, 131),15	8608,(5, 132),177	8785,(2, 178),3	8788,(5, 145),81	8869,(5, 166),177	9046,(5, 181),30	9076,(5, 182),294	9370,(5, 184),6	9376,(5, 188),78	9454,(5, 194),3	9457,(5, 200),3	9460,(133, 201),15	9475,(78, 201),15	9490,(31, 201),15	9505,(167, 201),15	9520,(157, 201),15	9535,(25, 201),15	9550,(1, 59),21	9571,(1, 74),54	9625,(1, 87),30	9655,(1, 107),21	9676,(1, 110),18	9694,(1, 112),48	9742,(1, 123),387	10129,(1, 128),27	10156,(1, 132),84	10240,(1, 152),24	10264,(1, 163),45	10309,(1, 164),12	10321,(1, 178),24	10345,(1, 184),15	10360,(1, 200),66	10426,(2, 38),15	10441,(2, 86),15	10456,(2, 87),24	10480,(2, 91),21	10501,(2, 95),15	10516,(2, 116),9	10525,(2, 119),18	10543,(2, 137),15	10558,(2, 141),15	10573,(2, 145),24	10597,(2, 152),66	10663,(2, 161),12	10675,(2, 168),30	10705,(2, 180),3	10708,(2, 182),18	10726,(2, 189),108	10834,(2, 193),9	10843,(2, 197),9	10852,(2, 200),15	10867,(93, 201),15	10882,(3, 69),9	10891,(3, 74),15	10906,(3, 83),12	10918,(3, 138),24	10942,(3, 141),15	10957,(3, 142),117	11074,(3, 143),24	11098,(3, 147),84	11182,(3, 148),3	11185,(3, 162),87	11272,(3, 166),15	11287,(3, 174),99	11386,(3, 176),18	11404,(3, 189),9	11413,(94, 201),15	11428,(198, 201),15	11443,(4, 28),132	11575,(4, 32),24	11599,(4, 34),99	11698,(4, 39),9	11707,(4, 40),15	11722,(4, 45),3	11725,(4, 55),39	11764,(4, 59),12	11776,(4, 61),3	11779,(4, 72),27	11806,(4, 79),54	11860,(4, 84),6	11866,(4, 98),3	11869,(4, 99),27	11896,(4, 136),99	11995,(4, 142),42	12037,(4, 147),3	12040,(4, 148),15	12055,(4, 164),12	12067,(4, 165),45	12112,(4, 171),45	12157,(4, 174),3	12160,(4, 181),3	12163,(4, 189),21	12184,(4, 193),3	12187,(4, 196),3	12190,(8, 33),45	12235,(8, 37),9	12244,(8, 39),3	12247,(8, 40),51	12298,(8, 53),3	12301,(8, 55),3	12304,(8, 84),9	12313,(8, 99),3	12316,(8, 103),75	12391,(8, 108),6	12397,(8, 150),6	12403,(8, 151),42	12445,(8, 163),12	12457,(8, 171),3	12460,(8, 172),6	12466,(8, 173),129	12595,(8, 175),3	12598,(8, 176),18	12616,(8, 184),9	12625,(8, 191),3	12628,(8, 196),3	12631,(50, 201),15	12646,(9, 22),207	12853,(9, 26),18	12871,(9, 29),129	13000,(9, 30),63	13063,(9, 70),15	13078,(9, 74),9	13087,(9, 91),12	13099,(9, 97),12	13111,(9, 124),24	13135,(9, 128),153	13288,(9, 154),9	13297,(9, 171),6	13303,(9, 172),3	13306,(9, 173),3	13309,(9, 178),9	13318,(9, 188),159	13477,(9, 189),234	13711,(9, 191),462	14173,(9, 200),27	14200,(195, 201),15	14215,(11, 22),12	14227,(11, 29),24	14251,(11, 34),126	14377,(11, 38),144	14521,(11, 40),24	14545,(11, 45),3	14548,(11, 47),3	14551,(11, 49),3	14554,(11, 54),63	14617,(11, 55),6	14623,(11, 59),6	14629,(11, 61),6	14635,(11, 64),192	14827,(11, 65),126	14953,(11, 71),3	14956,(11, 72),6	14962,(11, 82),24	14986,(11, 86),45	15031,(11, 109),357	15388,(11, 110),69	15457,(11, 124),12	15469,(11, 132),111	15580,(11, 138),57	15637,(11, 145),3	15640,(11, 148),27	15667,(11, 151),30	15697,(11, 159),3	15700,(11, 160),90	15790,(11, 174),54	15844,(11, 180),237	16081,(11, 181),84	16165,(11, 182),150	16315,(11, 197),12	16327,(12, 27),9	16336,(12, 32),63	16399,(12, 51),21	16420,(12, 56),108	16528,(12, 61),6	16534,(12, 69),3	16537,(12, 92),12	16549,(12, 95),12	16561,(12, 112),39	16600,(12, 119),18	16618,(12, 121),18	16636,(12, 126),3	16639,(12, 137),9	16648,(12, 170),138	16786,(12, 176),18	16804,(12, 179),3	16807,(12, 187),36	16843,(12, 199),99	16942,(139, 201),15	16957,(13, 24),3	16960,(13, 28),3	16963,(13, 30),3	16966,(13, 52),495	17461,(13, 56),45	17506,(13, 63),375	17881,(13, 70),18	17899,(13, 84),3	17902,(13, 91),111	18013,(13, 106),9	18022,(13, 109),3	18025,(13, 127),3	18028,(13, 131),6	18034,(13, 136),27	18061,(13, 162),24	18085,(13, 165),66	18151,(13, 180),93	18244,(13, 183),3	18247,(81, 201),15	18262,(125, 201),15	18277,(186, 201),15	18292,(14, 26),18	18310,(14, 27),87	18397,(14, 28),60	18457,(14, 37),9	18466,(14, 38),42	18508,(14, 43),3	18511,(14, 48),105	18616,(14, 62),15	18631,(14, 117),30	18661,(14, 118),51	18712,(14, 121),3	18715,(14, 128),15	18730,(14, 156),12	18742,(14, 159),3	18745,(14, 160),144	18889,(14, 164),3	18892,(14, 166),12	18904,(14, 175),69	18973,(14, 176),3	18976,(14, 200),117	19093,(15, 22),9	19102,(15, 29),3	19105,(15, 40),3	19108,(15, 43),18	19126,(15, 48),9	19135,(15, 51),3	19138,(15, 57),3	19141,(15, 62),18	19159,(15, 68),27	19186,(15, 74),9	19195,(15, 75),3	19198,(15, 79),36	19234,(15, 103),21	19255,(15, 106),6	19261,(15, 108),3	19264,(15, 111),66	19330,(15, 114),3	19333,(15, 116),48	19381,(15, 132),63	19444,(15, 141),15	19459,(15, 143),51	19510,(15, 150),33	19543,(15, 160),3	19546,(15, 170),3	19549,(15, 192),99	19648,(15, 197),27	19675,(16, 39),6	19681,(16, 40),3	19684,(16, 44),3	19687,(16, 47),3	19690,(16, 48),12	19702,(16, 49),165	19867,(16, 55),36	19903,(16, 56),3	19906,(16, 57),3	19909,(16, 64),87	19996,(16, 66),48	20044,(16, 74),12	20056,(16, 87),3	20059,(16, 91),30	20089,(16, 98),6	20095,(16, 101),174	20269,(16, 123),3	20272,(16, 127),12	20284,(16, 130),33	20317,(16, 142),6	20323,(16, 143),3	20326,(16, 151),93	20419,(16, 152),24	20443,(16, 163),45	20488,(16, 179),6	20494,(16, 184),3	20497,(16, 191),15	20512,(16, 193),30	20542,(16, 194),75	20617,(153, 201),15	20632,(17, 34),12	20644,(17, 42),3	20647,(17, 54),33	20680,(17, 68),90	20770,(17, 70),3	20773,(17, 75),9	20782,(17, 80),9	20791,(17, 84),9	20800,(17, 91),42	20842,(17, 95),6	20848,(17, 97),15	20863,(17, 99),6	20869,(17, 101),12	20881,(17, 108),3	20884,(17, 114),147	21031,(17, 118),36	21067,(17, 119),21	21088,(17, 120),12	21100,(17, 136),3	21103,(17, 141),33	21136,(17, 152),15	21151,(17, 159),12	21163,(17, 165),210	21373,(60, 201),15	21388,(18, 24),66	21454,(18, 28),36	21490,(18, 63),30	21520,(18, 69),3	21523,(18, 76),21	21544,(18, 80),63	21607,(18, 82),36	21643,(18, 83),84	21727,(18, 86),3	21730,(18, 90),15	21745,(18, 107),3	21748,(18, 109),12	21760,(18, 111),39	21799,(18, 114),18	21817,(18, 116),42	21859,(18, 136),36	21895,(18, 162),75	21970,(18, 173),3	21973,(18, 176),9	21982,(18, 182),30	22012,(18, 183),24	22036,(18, 191),3	22039,(18, 192),9	22048,(18, 199),15	22063,(18, 200),12	22075,(58, 201),15	22090,(134, 201),15	22105,(169, 201),15	22120,(140, 201),15	22135,(19, 29),456	22591,(19, 39),15	22606,(19, 40),9	22615,(19, 41),30	22645,(19, 62),24	22669,(19, 66),33	22702,(19, 71),51	22753,(19, 75),21	22774,(19, 84),3	22777,(19, 87),3	22780,(19, 104),12	22792,(19, 117),3	22795,(19, 119),18	22813,(19, 142),63	22876,(19, 144),3	22879,(19, 156),402	23281,(19, 176),87	23368,(19, 177),9	23377,(19, 183),114	23491,(19, 187),12	23503,(19, 193),3	23506,(73, 201),15	23521,(155, 201),15	23536,(36, 201),15	23551,(122, 201),15	23566,(77, 201),15	23581,(89, 201),15	23596,(129, 201),15	23611,(102, 201),15	23626,(88, 201),15	23641,(115, 201),15	23656,(67, 201),15	23671,(146, 201),15	23686,(105, 201),15	23701,(21, 201),15	23716,(96, 201),15	23731,(113, 201),15	23746,(149, 201),15	23761,(185, 201),15	23776,(190, 201),15	23791,(46, 201),15	23806,(23, 201),15	23821,(35, 201),15	23836,(85, 201),15	23851,(100, 201),15	23866,(135, 201),15	
2206,(1, 146),3	2209,(12, 96),3	2212,(12, 115),3	2215,(16, 146),3	2218,(11, 21),3	2221,(11, 67),3	2224,(19, 146),3	2230,(13, 21),3	2233,(13, 96),3	
1,(0, 1),114	115,(0, 2),114	571,(0, 9),114	685,(0, 11),114	913,(0, 13),114	1027,(12, 186),3	1598,(18, 140),3	1777,(3, 73),3	1780,(3, 155),3	1783,(8, 36),3	1786,(19, 122),3	2041,(20, 77),3	2050,(20, 89),15	
229,(0, 3),114	343,(0, 4),114	457,(0, 8),114	914,(12, 23),3	917,(12, 88),3	1141,(0, 15),114	1255,(14, 129),3	1597,(0, 19),114	1711,(18, 129),3	2065,(20, 102),3	2083,(20, 129),114	2197,(1, 85),3	2200,(1, 102),3	2209,(2, 88),3	2224,(11, 85),3	2323,(20, 149),12	6241,(10, 35),3	7387,(7, 23),3	7390,(7, 35),3	8311,(5, 85),3	8314,(5, 100),3	8785,(5, 135),3	
799,(0, 12),114	1027,(0, 14),114	1255,(0, 16),114	1369,(0, 17),114	1483,(0, 18),114	1750,(20, 46),27	2203,(1, 105),3	2212,(2, 185),3	2215,(9, 113),3	2227,(11, 105),3	2236,(13, 113),3	4177,(20, 185),6	4213,(20, 190),42	6307,(10, 46),3	
# Outgoing

1,(0, 1),114	115,(0, 2),114	229,(0, 3),114	343,(0, 4),114	457,(0, 8),114	571,(0, 9),114	685,(0, 11),114	799,(0, 12),114	913,(0, 13),114	1027,(0, 14),114	1141,(0, 15),114	1255,(0, 16),114	1369,(0, 17),114	1483,(0, 18),114	1597,(0, 19),114	1711,(20, 27),18	1729,(20, 33),3	1732,(20, 40),15	1747,(20, 44),3	1750,(20, 46),27	1777,(20, 59),45	1822,(20, 63),12	1834,(20, 66),207	2041,(20, 77),3	2044,(20, 80),3	2047,(20, 82),3	2050,(20, 89),15	2065,(20, 102),3	2068,(20, 103),3	2071,(20, 108),12	2083,(20, 129),114	2197,(20, 144),126	2323,(20, 149),12	2335,(20, 152),3	2338,(20, 154),27	2365,(20, 158),126	2491,(20, 160),18	2509,(20, 161),1665	4174,(20, 168),3	4177,(20, 185),6	4183,(20, 188),30	4213,(20, 190),42	4255,(20, 194),9	4264,(20, 196),3	4267,(6, 28),3	4270,(6, 32),1029	5299,(6, 38),3	5302,(6, 41),24	5326,(6, 47),15	5341,(6, 101),9	5350,(6, 111),408	5758,(6, 118),3	5761,(6, 137),57	5818,(6, 142),12	5830,(6, 143),192	6022,(6, 147),57	6079,(6, 158),3	6082,(6, 164),96	6178,(6, 168),18	6196,(10, 24),21	6217,(10, 26),18	6235,(10, 33),6	6241,(10, 35),3	6244,(10, 44),63	6307,(10, 46),3	6310,(10, 49),3	6313,(10, 56),15	6328,(10, 61),27	6355,(10, 79),27	6382,(10, 90),9	6391,(10, 108),57	6448,(10, 114),21	6469,(10, 117),12	6481,(10, 120),27	6508,(10, 126),69	6577,(10, 127),36	6613,(10, 130),552	7165,(10, 131),6	7171,(10, 144),21	7192,(10, 148),12	7204,(10, 154),75	7279,(10, 161),3	7282,(10, 165),3	7285,(10, 171),54	7339,(10, 176),18	7357,(10, 177),15	7372,(10, 187),3	7375,(10, 192),12	7387,(7, 23),3	7390,(7, 35),3	7393,(7, 39),12	7405,(7, 52),336	7741,(7, 69),42	7783,(7, 80),108	7891,(7, 82),72	7963,(7, 92),24	7987,(7, 104),9	7996,(7, 107),30	8026,(7, 117),12	8038,(7, 121),30	8068,(7, 123),15	8083,(7, 143),9	8092,(7, 164),18	8110,(7, 173),12	8122,(7, 187),12	8134,(7, 200),3	8137,(5, 42),21	8158,(5, 49),27	8185,(5, 52),15	8200,(5, 59),12	8212,(5, 63),6	8218,(5, 65),24	8242,(5, 71),36	8278,(5, 74),12	8290,(5, 76),9	8299,(5, 79),9	8308,(5, 83),3	8311,(5, 85),3	8314,(5, 100),3	8317,(5, 101),27	8344,(5, 103),108	8452,(5, 107),6	8458,(5, 110),18	8476,(5, 112),81	8557,(5, 126),36	8593,(5, 131),15	8608,(5, 132),177	8785,(5, 135),3	8788,(5, 145),81	8869,(5, 166),177	9046,(5, 181),30	9076,(5, 182),294	9370,(5, 184),6	9376,(5, 188),78	9454,(5, 194),3	9457,(5, 200),3	9460,(133, 201),15	9475,(78, 201),15	9490,(31, 201),15	9505,(167, 201),15	9520,(157, 201),15	9535,(25, 201),15	23641,(115, 201),15	23656,(67, 201),15	23671,(146, 201),15	23701,(21, 201),15	23716,(96, 201),15	
2083,(1, 39),48	2131,(1, 43),48	2179,(1, 49),3	2182,(1, 52),9	2191,(1, 72),6	2197,(1, 85),3	2200,(1, 102),3	2203,(1, 105),3	2206,(1, 146),3	2209,(2, 88),3	2212,(2, 185),3	2215,(9, 113),3	2218,(11, 21),3	2221,(11, 67),3	2224,(11, 85),3	2227,(11, 105),3	2230,(13, 21),3	2233,(13, 96),3	2236,(13, 113),3	2323,(1, 101),3	2326,(1, 104),3	2329,(1, 109),6	4177,(1, 156),3	4180,(1, 161),3	4213,(1, 53),27	4240,(1, 142),9	4249,(1, 171),3	4252,(2, 42),3	6241,(2, 74),3	6307,(2, 101),3	7387,(1, 194),6	8311,(2, 34),6	8785,(2, 178),3	9550,(1, 59),21	9571,(1, 74),54	9625,(1, 87),30	9655,(1, 107),21	9676,(1, 110),18	9694,(1, 112),48	9742,(1, 123),387	10129,(1, 128),27	10156,(1, 132),84	10240,(1, 152),24	10264,(1, 163),45	10309,(1, 164),12	10321,(1, 178),24	10345,(1, 184),15	10360,(1, 200),66	10426,(2, 38),15	10441,(2, 86),15	10456,(2, 87),24	10480,(2, 91),21	10501,(2, 95),15	10516,(2, 116),9	10525,(2, 119),18	10543,(2, 137),15	10558,(2, 141),15	10573,(2, 145),24	10597,(2, 152),66	10663,(2, 161),12	10675,(2, 168),30	10705,(2, 180),3	10708,(2, 182),18	10726,(2, 189),108	10834,(2, 193),9	10843,(2, 197),9	10852,(2, 200),15	10867,(93, 201),15	12646,(9, 22),207	12853,(9, 26),18	12871,(9, 29),129	13000,(9, 30),63	13063,(9, 70),15	13078,(9, 74),9	13087,(9, 91),12	13099,(9, 97),12	13111,(9, 124),24	13135,(9, 128),153	13288,(9, 154),9	13297,(9, 171),6	13303,(9, 172),3	13306,(9, 173),3	13309,(9, 178),9	13318,(9, 188),159	13477,(9, 189),234	13711,(9, 191),462	14173,(9, 200),27	14200,(195, 201),15	14215,(11, 22),12	14227,(11, 29),24	14251,(11, 34),126	14377,(11, 38),144	14521,(11, 40),24	14545,(11, 45),3	14548,(11, 47),3	14551,(11, 49),3	14554,(11, 54),63	14617,(11, 55),6	14623,(11, 59),6	14629,(11, 61),6	14635,(11, 64),192	14827,(11, 65),126	14953,(11, 71),3	14956,(11, 72),6	14962,(11, 82),24	14986,(11, 86),45	15031,(11, 109),357	15388,(11, 110),69	15457,(11, 124),12	15469,(11, 132),111	15580,(11, 138),57	15637,(11, 145),3	15640,(11, 148),27	15667,(11, 151),30	15697,(11, 159),3	15700,(11, 160),90	15790,(11, 174),54	15844,(11, 180),237	16081,(11, 181),84	16165,(11, 182),150	16315,(11, 197),12	16957,(13, 24),3	16960,(13, 28),3	16963,(13, 30),3	16966,(13, 52),495	17461,(13, 56),45	17506,(13, 63),375	17881,(13, 70),18	17899,(13, 84),3	17902,(13, 91),111	18013,(13, 106),9	18022,(13, 109),3	18025,(13, 127),3	18028,(13, 131),6	18034,(13, 136),27	18061,(13, 162),24	18085,(13, 165),66	18151,(13, 180),93	18244,(13, 183),3	18247,(81, 201),15	18262,(125, 201),15	18277,(186, 201),15	22120,(140, 201),15	23506,(73, 201),15	23521,(155, 201),15	23536,(36, 201),15	23551,(122, 201),15	23566,(77, 201),15	23581,(89, 201),15	
1750,(3, 40),6	1756,(3, 44),18	1774,(3, 47),3	1777,(3, 73),3	1780,(3, 155),3	1783,(8, 36),3	1786,(19, 122),3	2041,(3, 72),3	2050,(3, 51),12	2062,(3, 90),3	2065,(3, 104),3	2224,(19, 146),3	10882,(3, 69),9	10891,(3, 74),15	10906,(3, 83),12	10918,(3, 138),24	10942,(3, 141),15	10957,(3, 142),117	11074,(3, 143),24	11098,(3, 147),84	11182,(3, 148),3	11185,(3, 162),87	11272,(3, 166),15	11287,(3, 174),99	11386,(3, 176),18	11404,(3, 189),9	11413,(94, 201),15	11428,(198, 201),15	11443,(4, 28),132	11575,(4, 32),24	11599,(4, 34),99	11698,(4, 39),9	11707,(4, 40),15	11722,(4, 45),3	11725,(4, 55),39	11764,(4, 59),12	11776,(4, 61),3	11779,(4, 72),27	11806,(4, 79),54	11860,(4, 84),6	11866,(4, 98),3	11869,(4, 99),27	11896,(4, 136),99	11995,(4, 142),42	12037,(4, 147),3	12040,(4, 148),15	12055,(4, 164),12	12067,(4, 165),45	12112,(4, 171),45	12157,(4, 174),3	12160,(4, 181),3	12163,(4, 189),21	12184,(4, 193),3	12187,(4, 196),3	12190,(8, 33),45	12235,(8, 37),9	12244,(8, 39),3	12247,(8, 40),51	12298,(8, 53),3	12301,(8, 55),3	12304,(8, 84),9	12313,(8, 99),3	12316,(8, 103),75	12391,(8, 108),6	12397,(8, 150),6	12403,(8, 151),42	12445,(8, 163),12	12457,(8, 171),3	12460,(8, 172),6	12466,(8, 173),129	12595,(8, 175),3	12598,(8, 176),18	12616,(8, 184),9	12625,(8, 191),3	12628,(8, 196),3	12631,(50, 201),15	19093,(15, 22),9	19102,(15, 29),3	19105,(15, 40),3	19108,(15, 43),18	19126,(15, 48),9	19135,(15, 51),3	19138,(15, 57),3	19141,(15, 62),18	19159,(15, 68),27	19186,(15, 74),9	19195,(15, 75),3	19198,(15, 79),36	19234,(15, 103),21	19255,(15, 106),6	19261,(15, 108),3	19264,(15, 111),66	19330,(15, 114),3	19333,(15, 116),48	19381,(15, 132),63	19444,(15, 141),15	19459,(15, 143),51	19510,(15, 150),33	19543,(15, 160),3	19546,(15, 170),3	19549,(15, 192),99	19648,(15, 197),27	22135,(19, 29),456	22591,(19, 39),15	22606,(19, 40),9	22615,(19, 41),30	22645,(19, 62),24	22669,(19, 66),33	22702,(19, 71),51	22753,(19, 75),21	22774,(19, 84),3	22777,(19, 87),3	22780,(19, 104),12	22792,(19, 117),3	22795,(19, 119),18	22813,(19, 142),63	22876,(19, 144),3	22879,(19, 156),402	23281,(19, 176),87	23368,(19, 177),9	23377,(19, 183),114	23491,(19, 187),12	23503,(19, 193),3	23596,(129, 201),15	23611,(102, 201),15	23626,(88, 201),15	23746,(149, 201),15	23806,(23, 201),15	23821,(35, 201),15	23836,(85, 201),15	23851,(100, 201),15	23866,(135, 201),15	
914,(12, 23),3	917,(12, 88),3	1027,(12, 186),3	1255,(14, 129),3	1598,(18, 140),3	1711,(18, 129),3	2209,(12, 96),3	2212,(12, 115),3	2215,(16, 146),3	16327,(12, 27),9	16336,(12, 32),63	16399,(12, 51),21	16420,(12, 56),108	16528,(12, 61),6	16534,(12, 69),3	16537,(12, 92),12	16549,(12, 95),12	16561,(12, 112),39	16600,(12, 119),18	16618,(12, 121),18	16636,(12, 126),3	16639,(12, 137),9	16648,(12, 170),138	16786,(12, 176),18	16804,(12, 179),3	16807,(12, 187),36	16843,(12, 199),99	16942,(139, 201),15	18292,(14, 26),18	18310,(14, 27),87	18397,(14, 28),60	18457,(14, 37),9	18466,(14, 38),42	18508,(14, 43),3	18511,(14, 48),105	18616,(14, 62),15	18631,(14, 117),30	18661,(14, 118),51	18712,(14, 121),3	18715,(14, 128),15	18730,(14, 156),12	18742,(14, 159),3	18745,(14, 160),144	18889,(14, 164),3	18892,(14, 166),12	18904,(14, 175),69	18973,(14, 176),3	18976,(14, 200),117	19675,(16, 39),6	19681,(16, 40),3	19684,(16, 44),3	19687,(16, 47),3	19690,(16, 48),12	19702,(16, 49),165	19867,(16, 55),36	19903,(16, 56),3	19906,(16, 57),3	19909,(16, 64),87	19996,(16, 66),48	20044,(16, 74),12	20056,(16, 87),3	20059,(16, 91),30	20089,(16, 98),6	20095,(16, 101),174	20269,(16, 123),3	20272,(16, 127),12	20284,(16, 130),33	20317,(16, 142),6	20323,(16, 143),3	20326,(16, 151),93	20419,(16, 152),24	20443,(16, 163),45	20488,(16, 179),6	20494,(16, 184),3	20497,(16, 191),15	20512,(16, 193),30	20542,(16, 194),75	20617,(153, 201),15	20632,(17, 34),12	20644,(17, 42),3	20647,(17, 54),33	20680,(17, 68),90	20770,(17, 70),3	20773,(17, 75),9	20782,(17, 80),9	20791,(17, 84),9	20800,(17, 91),42	20842,(17, 95),6	20848,(17, 97),15	20863,(17, 99),6	20869,(17, 101),12	20881,(17, 108),3	20884,(17, 114),147	21031,(17, 118),36	21067,(17, 119),21	21088,(17, 120),12	21100,(17, 136),3	21103,(17, 141),33	21136,(17, 152),15	21151,(17, 159),12	21163,(17, 165),210	21373,(60, 201),15	21388,(18, 24),66	21454,(18, 28),36	21490,(18, 63),30	21520,(18, 69),3	21523,(18, 76),21	21544,(18, 80),63	21607,(18, 82),36	21643,(18, 83),84	21727,(18, 86),3	21730,(18, 90),15	21745,(18, 107),3	21748,(18, 109),12	21760,(18, 111),39	21799,(18, 114),18	21817,(18, 116),42	21859,(18, 136),36	21895,(18, 162),75	21970,(18, 173),3	21973,(18, 176),9	21982,(18, 182),30	22012,(18, 183),24	22036,(18, 191),3	22039,(18, 192),9	22048,(18, 199),15	22063,(18, 200),12	22075,(58, 201),15	22090,(134, 201),15	22105,(169, 201),15	23686,(105, 201),15	23731,(113, 201),15	23761,(185, 201),15	23776,(190, 201),15	23791,(46, 201),15	
