3934
# CPU
17,5,1	18,155,1	33,10,1	41,80,1	43,85,1	49,15,1	50,185,1	59,65,1	60,90,1	65,20,1	99,50,1	104,195,1	170,40,1	180,60,1	188,165,1	202,150,1	213,135,1	216,145,1	217,30,1	218,75,1	226,130,1	237,25,1	286,45,1	301,160,1	310,100,1	359,105,1	387,140,1	412,190,1	423,180,1	566,95,1	640,35,1	847,115,1	872,70,1	883,55,1	894,120,1	911,170,1	963,110,1	972,125,1	998,200,1	1107,175,1	
13,4,1	29,9,1	30,109,1	45,14,1	61,19,1	62,59,1	63,194,1	281,164,1	282,39,1	307,54,1	310,129,1	311,104,1	319,64,1	358,44,1	384,119,1	385,124,1	386,139,1	388,84,1	409,89,1	415,29,1	520,159,1	532,174,1	594,199,1	609,34,1	618,149,1	636,99,1	647,154,1	662,74,1	668,49,1	749,184,1	803,94,1	879,169,1	886,79,1	897,134,1	986,144,1	987,179,1	1277,114,1	2088,189,1	2345,24,1	2622,69,1	
9,3,1	10,113,1	25,8,1	41,13,1	42,108,1	57,18,1	86,88,1	124,48,1	196,78,1	216,98,1	272,23,1	273,138,1	277,158,1	279,28,1	304,58,1	384,123,1	419,63,1	452,133,1	456,33,1	486,163,1	515,128,1	522,93,1	530,153,1	563,198,1	726,73,1	758,193,1	774,188,1	793,173,1	804,68,1	810,148,1	882,38,1	888,83,1	889,103,1	910,168,1	916,178,1	933,43,1	934,53,1	971,118,1	985,143,1	1871,183,1	
5,2,1	21,7,1	22,47,1	37,12,1	38,52,1	39,172,1	53,17,1	54,132,1	58,122,1	63,107,1	75,32,1	100,147,1	198,67,1	219,92,1	252,22,1	265,102,1	285,137,1	304,182,1	323,117,1	335,187,1	416,87,1	421,57,1	430,192,1	433,77,1	567,97,1	614,42,1	631,127,1	720,37,1	881,27,1	885,72,1	902,152,1	908,162,1	909,167,1	914,177,1	936,197,1	965,112,1	984,142,1	998,157,1	1141,62,1	1157,82,1	
0,0,1	1,11,1	2,1,1	3,6,1	4,16,1	5,51,1	6,166,1	7,161,1	53,186,1	54,71,1	70,136,1	79,21,1	86,26,1	99,191,1	127,66,1	128,81,1	270,126,1	284,31,1	290,106,1	295,176,1	343,36,1	365,181,1	382,91,1	413,141,1	442,111,1	459,116,1	582,101,1	593,41,1	625,56,1	650,61,1	721,76,1	722,96,1	723,121,1	729,171,1	730,196,1	777,86,1	783,131,1	791,146,1	792,151,1	793,156,1	863,46,1	3933,201,1	
# Incoming
13,(0, 5),4	17,(3, 45),7	24,(3, 65),1	25,(3, 115),1	26,(3, 125),2	29,(0, 10),4	33,(8, 80),8	41,(8, 85),2	43,(2, 35),1	45,(0, 15),4	56,(2, 90),1	57,(4, 30),1	58,(13, 65),1	59,(13, 90),1	60,(18, 40),1	61,(0, 20),4	65,(2, 60),11	76,(3, 50),23	99,(2, 195),5	104,(3, 100),25	129,(4, 40),41	170,(4, 60),10	180,(4, 75),1	181,(4, 125),2	183,(7, 110),2	185,(12, 75),2	187,(12, 165),1	188,(17, 130),4	194,(7, 150),8	210,(9, 115),2	212,(9, 135),1	213,(9, 145),3	216,(14, 30),1	217,(14, 75),1	219,(9, 130),7	226,(14, 25),11	237,(14, 115),1	270,(8, 200),6	276,(13, 190),3	279,(18, 45),7	286,(18, 70),2	299,(14, 160),2	304,(11, 70),2	308,(11, 100),2	311,(11, 115),11	341,(18, 105),18	386,(11, 140),1	395,(11, 170),16	411,(11, 190),1	416,(14, 180),7	433,(1, 95),133	572,(1, 110),1	573,(13, 35),67	686,(1, 175),1	687,(13, 115),160	847,(19, 55),7	854,(19, 70),18	882,(6, 55),1	889,(6, 110),3	892,(6, 120),2	910,(6, 170),1	934,(16, 110),29	971,(16, 125),1	987,(16, 200),11	998,(14, 175),109	
9,(0, 4),4	25,(0, 9),4	29,(8, 129),2	41,(0, 14),4	55,(2, 79),1	57,(0, 19),4	61,(5, 59),1	62,(5, 129),1	63,(18, 124),1	64,(2, 164),1	65,(11, 24),200	265,(2, 74),14	279,(5, 169),1	280,(7, 164),1	281,(12, 39),1	282,(12, 124),1	283,(11, 54),1	284,(2, 89),7	291,(2, 184),8	299,(5, 49),5	304,(13, 54),3	307,(11, 99),1	308,(15, 89),1	309,(20, 129),1	310,(11, 104),1	311,(5, 64),8	319,(13, 169),4	323,(11, 119),3	326,(3, 114),15	341,(7, 44),17	358,(7, 84),9	367,(8, 69),13	380,(15, 119),4	384,(11, 124),1	385,(11, 139),1	386,(18, 84),2	388,(11, 169),7	395,(12, 94),6	401,(18, 89),8	412,(1, 29),3	415,(1, 34),5	420,(7, 149),66	486,(10, 199),31	517,(12, 159),3	520,(12, 174),12	532,(12, 199),62	594,(15, 34),15	609,(15, 149),9	618,(17, 94),7	625,(17, 99),11	636,(17, 154),11	647,(17, 179),1	648,(18, 74),14	662,(20, 49),6	668,(20, 79),6	687,(1, 184),62	776,(20, 94),27	839,(20, 169),40	885,(6, 79),1	894,(6, 134),3	965,(16, 114),5	985,(16, 144),1	986,(16, 179),1	987,(8, 114),290	1277,(10, 189),811	2088,(12, 24),257	2345,(18, 69),277	
5,(0, 3),4	21,(0, 8),4	37,(0, 13),4	44,(2, 43),9	53,(0, 18),4	57,(2, 63),1	58,(2, 103),5	63,(2, 158),1	64,(4, 58),4	68,(10, 23),2	72,(4, 83),3	75,(10, 178),1	76,(2, 88),10	86,(4, 48),38	124,(5, 78),68	192,(7, 43),2	194,(15, 68),1	195,(15, 78),1	196,(15, 93),1	197,(4, 133),13	210,(7, 98),6	216,(7, 158),2	218,(9, 33),1	219,(10, 28),18	237,(12, 33),10	247,(12, 183),1	248,(9, 23),24	272,(15, 138),1	273,(15, 158),4	277,(20, 28),2	281,(11, 38),1	282,(11, 53),1	284,(11, 58),20	304,(14, 178),1	305,(19, 43),1	306,(11, 73),1	307,(9, 188),15	326,(11, 123),58	387,(11, 153),1	388,(10, 118),11	399,(15, 83),13	413,(17, 63),6	422,(1, 73),10	432,(15, 133),20	452,(20, 33),4	482,(20, 163),4	509,(17, 128),6	517,(20, 93),5	522,(20, 153),8	555,(20, 198),8	567,(1, 103),5	574,(1, 118),56	630,(9, 53),39	669,(9, 73),57	726,(9, 178),17	743,(14, 193),6	749,(1, 188),8	757,(1, 193),1	758,(14, 188),16	774,(17, 173),19	793,(19, 68),11	804,(19, 148),6	881,(6, 38),1	886,(6, 83),2	888,(6, 103),1	897,(6, 143),1	909,(6, 168),1	914,(6, 178),2	916,(16, 43),17	933,(16, 53),1	970,(16, 118),1	984,(16, 143),1	985,(2, 183),886	
1,(0, 2),4	10,(3, 42),1	11,(3, 147),3	17,(0, 7),4	28,(8, 182),1	33,(0, 12),4	49,(0, 17),4	53,(13, 22),4	57,(13, 122),1	58,(5, 62),1	59,(5, 97),1	60,(5, 167),1	61,(13, 107),2	63,(4, 187),1	64,(18, 167),1	65,(18, 177),1	68,(4, 62),4	72,(5, 177),1	73,(5, 192),1	74,(10, 32),1	75,(4, 112),4	79,(5, 77),5	84,(5, 147),16	123,(10, 37),1	183,(4, 127),14	197,(10, 67),1	198,(10, 92),21	237,(10, 102),1	238,(8, 187),9	247,(10, 177),4	251,(15, 22),1	252,(15, 57),4	256,(15, 72),5	261,(15, 102),4	265,(11, 37),16	281,(15, 137),4	285,(15, 157),3	288,(20, 117),1	290,(14, 82),4	294,(20, 162),2	301,(14, 182),3	322,(11, 117),1	323,(15, 187),12	335,(20, 62),8	343,(9, 87),73	420,(1, 57),1	421,(1, 72),1	423,(14, 192),7	432,(1, 77),1	433,(4, 142),125	566,(1, 97),1	573,(1, 112),1	582,(14, 142),16	598,(19, 42),16	630,(1, 127),1	631,(1, 167),55	686,(15, 37),34	758,(6, 27),123	883,(6, 72),2	898,(6, 152),4	902,(6, 162),6	908,(6, 167),1	911,(6, 177),3	914,(14, 197),22	936,(18, 157),15	963,(16, 112),2	972,(16, 142),12	984,(19, 157),14	1107,(19, 62),34	1141,(19, 82),16	
6,(2, 26),37	43,(3, 76),8	51,(3, 181),1	52,(3, 186),1	53,(2, 71),1	54,(2, 76),1	55,(4, 21),1	56,(4, 36),1	57,(5, 31),1	58,(4, 46),1	59,(4, 61),3	62,(4, 176),1	63,(5, 76),3	66,(5, 81),2	68,(8, 111),1	69,(13, 136),1	70,(10, 126),2	72,(13, 31),3	76,(20, 21),3	79,(4, 151),4	83,(9, 26),3	86,(2, 141),10	96,(2, 171),2	98,(2, 191),1	100,(155, 201),23	123,(7, 126),1	124,(9, 66),3	127,(9, 81),1	128,(14, 41),1	129,(3, 106),86	215,(113, 201),23	238,(4, 171),10	248,(8, 126),22	270,(20, 86),2	272,(9, 31),12	284,(9, 76),3	287,(9, 106),3	290,(13, 176),5	295,(14, 61),4	299,(47, 201),23	322,(9, 36),21	343,(10, 91),19	362,(18, 181),3	367,(12, 76),12	379,(12, 91),3	382,(12, 96),13	401,(12, 141),12	413,(13, 111),29	442,(13, 116),17	459,(80, 201),23	486,(52, 201),23	509,(108, 201),23	532,(85, 201),23	558,(109, 201),23	581,(14, 101),1	582,(15, 41),11	594,(172, 201),23	617,(14, 196),1	618,(15, 56),7	625,(185, 201),23	648,(17, 61),2	650,(17, 76),71	721,(17, 96),1	722,(17, 121),1	723,(17, 131),2	725,(17, 171),4	729,(17, 196),1	730,(132, 201),23	753,(65, 201),23	776,(19, 86),1	777,(19, 131),6	783,(19, 146),8	791,(19, 151),1	792,(19, 156),1	793,(122, 201),23	816,(90, 201),23	847,(18, 46),16	872,(59, 201),23	895,(107, 201),23	936,(194, 201),23	959,(32, 201),23	982,(50, 201),23	1005,(195, 201),23	1028,(40, 201),23	1051,(60, 201),23	1074,(165, 201),23	1097,(150, 201),23	1120,(135, 201),23	1143,(145, 201),23	1166,(30, 201),23	1189,(75, 201),23	1212,(130, 201),23	1235,(25, 201),23	1277,(88, 201),23	1300,(48, 201),23	1323,(78, 201),23	1346,(98, 201),23	1369,(23, 201),23	1392,(138, 201),23	1415,(158, 201),23	1438,(28, 201),23	1461,(164, 201),23	1484,(39, 201),23	1507,(58, 201),23	1530,(54, 201),23	1553,(129, 201),23	1576,(104, 201),23	1599,(64, 201),23	1622,(44, 201),23	1645,(123, 201),23	1668,(119, 201),23	1691,(124, 201),23	1714,(139, 201),23	1737,(84, 201),23	1760,(89, 201),23	1783,(29, 201),23	1806,(63, 201),23	1829,(133, 201),23	1871,(147, 201),23	1894,(67, 201),23	1917,(92, 201),23	1940,(22, 201),23	1963,(102, 201),23	1986,(137, 201),23	2009,(182, 201),23	2032,(117, 201),23	2055,(187, 201),23	2088,(45, 201),23	2111,(160, 201),23	2134,(100, 201),23	2157,(105, 201),23	2180,(140, 201),23	2203,(190, 201),23	2226,(180, 201),23	2249,(33, 201),23	2272,(163, 201),23	2295,(128, 201),23	2318,(159, 201),23	2345,(87, 201),23	2368,(57, 201),23	2391,(192, 201),23	2414,(77, 201),23	2437,(174, 201),23	2460,(95, 201),23	2483,(97, 201),23	2506,(199, 201),23	2529,(34, 201),23	2552,(42, 201),23	2575,(149, 201),23	2598,(127, 201),23	2622,(93, 201),23	2645,(153, 201),23	2668,(198, 201),23	2691,(99, 201),23	2714,(35, 201),23	2737,(154, 201),23	2760,(74, 201),23	2783,(49, 201),23	2806,(37, 201),23	2829,(73, 201),23	2852,(184, 201),23	2875,(193, 201),23	2898,(188, 201),23	2921,(173, 201),23	2944,(94, 201),23	2967,(68, 201),23	2990,(148, 201),23	3013,(115, 201),23	3036,(70, 201),23	3059,(169, 201),23	3082,(27, 201),23	3105,(38, 201),23	3128,(55, 201),23	3151,(72, 201),23	3174,(79, 201),23	3197,(83, 201),23	3220,(103, 201),23	3243,(120, 201),23	3266,(134, 201),23	3289,(152, 201),23	3312,(162, 201),23	3335,(167, 201),23	3358,(168, 201),23	3381,(170, 201),23	3404,(177, 201),23	3427,(178, 201),23	3450,(43, 201),23	3473,(53, 201),23	3496,(197, 201),23	3519,(110, 201),23	3542,(112, 201),23	3565,(118, 201),23	3588,(125, 201),23	3611,(142, 201),23	3634,(143, 201),23	3657,(144, 201),23	3680,(179, 201),23	3703,(157, 201),23	3726,(200, 201),23	3749,(175, 201),23	3772,(62, 201),23	3795,(82, 201),23	3818,(114, 201),23	3841,(183, 201),23	3864,(189, 201),23	3887,(24, 201),23	3910,(69, 201),23	
# Outgoing
57,(5, 31),1	58,(5, 62),1	59,(5, 97),1	60,(5, 167),1	61,(5, 59),1	62,(5, 129),1	63,(5, 76),3	66,(5, 81),2	68,(10, 23),2	70,(10, 126),2	72,(5, 177),1	73,(5, 192),1	74,(10, 32),1	75,(10, 178),1	76,(20, 21),3	79,(5, 77),5	84,(5, 147),16	100,(155, 201),23	123,(10, 37),1	124,(5, 78),68	194,(15, 68),1	195,(15, 78),1	196,(15, 93),1	197,(10, 67),1	198,(10, 92),21	219,(10, 28),18	237,(10, 102),1	247,(10, 177),4	251,(15, 22),1	252,(15, 57),4	256,(15, 72),5	261,(15, 102),4	270,(20, 86),2	272,(15, 138),1	273,(15, 158),4	277,(20, 28),2	279,(5, 169),1	281,(15, 137),4	285,(15, 157),3	288,(20, 117),1	294,(20, 162),2	299,(5, 49),5	308,(15, 89),1	309,(20, 129),1	311,(5, 64),8	323,(15, 187),12	335,(20, 62),8	343,(10, 91),19	380,(15, 119),4	388,(10, 118),11	399,(15, 83),13	432,(15, 133),20	452,(20, 33),4	459,(80, 201),23	482,(20, 163),4	486,(10, 199),31	517,(20, 93),5	522,(20, 153),8	532,(85, 201),23	555,(20, 198),8	582,(15, 41),11	594,(15, 34),15	609,(15, 149),9	618,(15, 56),7	625,(185, 201),23	662,(20, 49),6	668,(20, 79),6	686,(15, 37),34	753,(65, 201),23	776,(20, 94),27	816,(90, 201),23	839,(20, 169),40	982,(50, 201),23	1005,(195, 201),23	1028,(40, 201),23	1051,(60, 201),23	1074,(165, 201),23	1097,(150, 201),23	1120,(135, 201),23	1143,(145, 201),23	1166,(30, 201),23	1189,(75, 201),23	1212,(130, 201),23	1235,(25, 201),23	1277,(10, 189),811	2088,(45, 201),23	2111,(160, 201),23	2134,(100, 201),23	2157,(105, 201),23	2180,(140, 201),23	2203,(190, 201),23	2226,(180, 201),23	2460,(95, 201),23	2714,(35, 201),23	3013,(115, 201),23	3036,(70, 201),23	3128,(55, 201),23	3243,(120, 201),23	3381,(170, 201),23	3519,(110, 201),23	3588,(125, 201),23	3726,(200, 201),23	3749,(175, 201),23	
55,(4, 21),1	56,(4, 36),1	57,(4, 30),1	58,(4, 46),1	59,(4, 61),3	62,(4, 176),1	63,(4, 187),1	64,(4, 58),4	68,(4, 62),4	72,(4, 83),3	75,(4, 112),4	79,(4, 151),4	83,(9, 26),3	86,(4, 48),38	124,(9, 66),3	127,(9, 81),1	128,(14, 41),1	129,(4, 40),41	170,(4, 60),10	180,(4, 75),1	181,(4, 125),2	183,(4, 127),14	197,(4, 133),13	210,(9, 115),2	212,(9, 135),1	213,(9, 145),3	216,(14, 30),1	217,(14, 75),1	218,(9, 33),1	219,(9, 130),7	226,(14, 25),11	237,(14, 115),1	238,(4, 171),10	248,(9, 23),24	272,(9, 31),12	284,(9, 76),3	287,(9, 106),3	290,(14, 82),4	295,(14, 61),4	299,(14, 160),2	301,(14, 182),3	304,(14, 178),1	305,(19, 43),1	307,(9, 188),15	322,(9, 36),21	343,(9, 87),73	416,(14, 180),7	423,(14, 192),7	433,(4, 142),125	558,(109, 201),23	581,(14, 101),1	582,(14, 142),16	598,(19, 42),16	617,(14, 196),1	630,(9, 53),39	669,(9, 73),57	726,(9, 178),17	743,(14, 193),6	758,(14, 188),16	776,(19, 86),1	777,(19, 131),6	783,(19, 146),8	791,(19, 151),1	792,(19, 156),1	793,(19, 68),11	804,(19, 148),6	847,(19, 55),7	854,(19, 70),18	872,(59, 201),23	914,(14, 197),22	936,(194, 201),23	984,(19, 157),14	998,(14, 175),109	1107,(19, 62),34	1141,(19, 82),16	1461,(164, 201),23	1484,(39, 201),23	1530,(54, 201),23	1553,(129, 201),23	1576,(104, 201),23	1599,(64, 201),23	1622,(44, 201),23	1668,(119, 201),23	1691,(124, 201),23	1714,(139, 201),23	1737,(84, 201),23	1760,(89, 201),23	1783,(29, 201),23	2318,(159, 201),23	2437,(174, 201),23	2506,(199, 201),23	2529,(34, 201),23	2575,(149, 201),23	2691,(99, 201),23	2737,(154, 201),23	2760,(74, 201),23	2783,(49, 201),23	2852,(184, 201),23	2944,(94, 201),23	3059,(169, 201),23	3174,(79, 201),23	3266,(134, 201),23	3657,(144, 201),23	3680,(179, 201),23	3818,(114, 201),23	3864,(189, 201),23	3887,(24, 201),23	3910,(69, 201),23	
10,(3, 42),1	11,(3, 147),3	17,(3, 45),7	24,(3, 65),1	25,(3, 115),1	26,(3, 125),2	28,(8, 182),1	29,(8, 129),2	33,(8, 80),8	41,(8, 85),2	43,(3, 76),8	51,(3, 181),1	52,(3, 186),1	53,(13, 22),4	57,(13, 122),1	58,(13, 65),1	59,(13, 90),1	60,(18, 40),1	61,(13, 107),2	63,(18, 124),1	64,(18, 167),1	65,(18, 177),1	68,(8, 111),1	69,(13, 136),1	72,(13, 31),3	76,(3, 50),23	104,(3, 100),25	129,(3, 106),86	215,(113, 201),23	238,(8, 187),9	248,(8, 126),22	270,(8, 200),6	276,(13, 190),3	279,(18, 45),7	286,(18, 70),2	290,(13, 176),5	304,(13, 54),3	319,(13, 169),4	326,(3, 114),15	341,(18, 105),18	362,(18, 181),3	367,(8, 69),13	386,(18, 84),2	401,(18, 89),8	413,(13, 111),29	442,(13, 116),17	509,(108, 201),23	573,(13, 35),67	648,(18, 74),14	687,(13, 115),160	847,(18, 46),16	936,(18, 157),15	987,(8, 114),290	1277,(88, 201),23	1300,(48, 201),23	1323,(78, 201),23	1346,(98, 201),23	1369,(23, 201),23	1392,(138, 201),23	1415,(158, 201),23	1438,(28, 201),23	1507,(58, 201),23	1645,(123, 201),23	1806,(63, 201),23	1829,(133, 201),23	2249,(33, 201),23	2272,(163, 201),23	2295,(128, 201),23	2345,(18, 69),277	2622,(93, 201),23	2645,(153, 201),23	2668,(198, 201),23	2829,(73, 201),23	2875,(193, 201),23	2898,(188, 201),23	2921,(173, 201),23	2967,(68, 201),23	2990,(148, 201),23	3105,(38, 201),23	3197,(83, 201),23	3220,(103, 201),23	3358,(168, 201),23	3427,(178, 201),23	3450,(43, 201),23	3473,(53, 201),23	3565,(118, 201),23	3634,(143, 201),23	3841,(183, 201),23	
6,(2, 26),37	43,(2, 35),1	44,(2, 43),9	53,(2, 71),1	54,(2, 76),1	55,(2, 79),1	56,(2, 90),1	57,(2, 63),1	58,(2, 103),5	63,(2, 158),1	64,(2, 164),1	65,(2, 60),11	76,(2, 88),10	86,(2, 141),10	96,(2, 171),2	98,(2, 191),1	99,(2, 195),5	123,(7, 126),1	183,(7, 110),2	185,(12, 75),2	187,(12, 165),1	188,(17, 130),4	192,(7, 43),2	194,(7, 150),8	210,(7, 98),6	216,(7, 158),2	237,(12, 33),10	247,(12, 183),1	265,(2, 74),14	280,(7, 164),1	281,(12, 39),1	282,(12, 124),1	284,(2, 89),7	291,(2, 184),8	299,(47, 201),23	341,(7, 44),17	358,(7, 84),9	367,(12, 76),12	379,(12, 91),3	382,(12, 96),13	395,(12, 94),6	401,(12, 141),12	413,(17, 63),6	420,(7, 149),66	486,(52, 201),23	509,(17, 128),6	517,(12, 159),3	520,(12, 174),12	532,(12, 199),62	594,(172, 201),23	618,(17, 94),7	625,(17, 99),11	636,(17, 154),11	647,(17, 179),1	648,(17, 61),2	650,(17, 76),71	721,(17, 96),1	722,(17, 121),1	723,(17, 131),2	725,(17, 171),4	729,(17, 196),1	730,(132, 201),23	774,(17, 173),19	793,(122, 201),23	895,(107, 201),23	959,(32, 201),23	985,(2, 183),886	1871,(147, 201),23	1894,(67, 201),23	1917,(92, 201),23	1940,(22, 201),23	1963,(102, 201),23	1986,(137, 201),23	2009,(182, 201),23	2032,(117, 201),23	2055,(187, 201),23	2088,(12, 24),257	2345,(87, 201),23	2368,(57, 201),23	2391,(192, 201),23	2414,(77, 201),23	2483,(97, 201),23	2552,(42, 201),23	2598,(127, 201),23	2806,(37, 201),23	3082,(27, 201),23	3151,(72, 201),23	3289,(152, 201),23	3312,(162, 201),23	3335,(167, 201),23	3404,(177, 201),23	3496,(197, 201),23	3542,(112, 201),23	3611,(142, 201),23	3703,(157, 201),23	3772,(62, 201),23	3795,(82, 201),23	
1,(0, 2),4	5,(0, 3),4	9,(0, 4),4	13,(0, 5),4	17,(0, 7),4	21,(0, 8),4	25,(0, 9),4	29,(0, 10),4	33,(0, 12),4	37,(0, 13),4	41,(0, 14),4	45,(0, 15),4	49,(0, 17),4	53,(0, 18),4	57,(0, 19),4	61,(0, 20),4	65,(11, 24),200	265,(11, 37),16	281,(11, 38),1	282,(11, 53),1	283,(11, 54),1	284,(11, 58),20	304,(11, 70),2	306,(11, 73),1	307,(11, 99),1	308,(11, 100),2	310,(11, 104),1	311,(11, 115),11	322,(11, 117),1	323,(11, 119),3	326,(11, 123),58	384,(11, 124),1	385,(11, 139),1	386,(11, 140),1	387,(11, 153),1	388,(11, 169),7	395,(11, 170),16	411,(11, 190),1	412,(1, 29),3	415,(1, 34),5	420,(1, 57),1	421,(1, 72),1	422,(1, 73),10	432,(1, 77),1	433,(1, 95),133	566,(1, 97),1	567,(1, 103),5	572,(1, 110),1	573,(1, 112),1	574,(1, 118),56	630,(1, 127),1	631,(1, 167),55	686,(1, 175),1	687,(1, 184),62	749,(1, 188),8	757,(1, 193),1	758,(6, 27),123	881,(6, 38),1	882,(6, 55),1	883,(6, 72),2	885,(6, 79),1	886,(6, 83),2	888,(6, 103),1	889,(6, 110),3	892,(6, 120),2	894,(6, 134),3	897,(6, 143),1	898,(6, 152),4	902,(6, 162),6	908,(6, 167),1	909,(6, 168),1	910,(6, 170),1	911,(6, 177),3	914,(6, 178),2	916,(16, 43),17	933,(16, 53),1	934,(16, 110),29	963,(16, 112),2	965,(16, 114),5	970,(16, 118),1	971,(16, 125),1	972,(16, 142),12	984,(16, 143),1	985,(16, 144),1	986,(16, 179),1	987,(16, 200),11	
