22
# CPU
0,21,1	1,11,1	2,4,1	3,3,1	4,13,1	5,14,1	6,15,1	7,17,1	8,20,1	9,10,1	10,5,1	11,6,1	12,12,1	13,19,1	14,7,1	15,16,1	16,9,1	17,8,1	18,1,1	19,18,1	20,2,1	21,0,1	




# Incoming





# Outgoing





