809
# CPU
0,0,1	1,4,35	36,28,35	71,1,35	106,19,35	141,31,35	176,21,35	211,16,35	246,15,35	281,5,35	316,29,35	368,18,35	422,24,35	482,9,35	554,34,35	659,22,35	773,10,35	808,41,1	
4,2,35	51,35,35	87,26,35	122,6,35	157,20,35	192,32,35	227,39,35	262,33,35	297,38,35	473,7,35	
7,3,35	42,11,35	77,30,35	112,12,35	147,27,35	182,25,35	217,23,35	252,14,35	287,13,35	322,17,35	357,8,35	392,37,35	442,36,35	515,40,35	
# Incoming
39,(2, 19),6	48,(2, 15),3	51,(2, 5),3	54,(2, 29),3	77,(11, 41),24	101,(35, 41),24	125,(30, 41),24	149,(26, 41),24	173,(12, 41),24	197,(6, 41),24	221,(27, 41),24	245,(20, 41),24	269,(25, 41),24	293,(32, 41),24	317,(23, 41),24	341,(39, 41),24	365,(3, 18),3	368,(14, 41),24	392,(33, 41),24	416,(2, 24),3	419,(3, 24),3	422,(13, 41),24	446,(38, 41),24	470,(3, 9),12	482,(17, 41),24	506,(8, 41),24	530,(3, 34),24	554,(37, 41),24	578,(36, 41),24	602,(3, 22),57	659,(7, 41),24	683,(40, 41),24	707,(2, 10),30	737,(3, 10),36	
1,(0, 2),3	36,(4, 35),15	51,(4, 26),36	87,(4, 6),3	96,(4, 20),3	99,(4, 32),3	102,(3, 39),3	106,(1, 6),3	109,(3, 33),3	112,(1, 20),3	127,(1, 32),9	151,(4, 39),9	160,(1, 39),3	163,(4, 33),3	166,(1, 33),12	190,(4, 38),36	245,(3, 38),21	392,(3, 7),27	442,(1, 7),12	
4,(0, 3),3	45,(2, 12),3	57,(2, 14),18	75,(2, 13),12	87,(2, 17),3	90,(4, 27),6	96,(2, 8),3	102,(4, 36),3	109,(1, 27),3	115,(4, 25),12	136,(1, 23),15	178,(4, 13),12	226,(1, 17),27	253,(4, 8),33	286,(1, 8),3	289,(4, 37),72	361,(1, 36),81	470,(2, 40),45	
# Outgoing
1,(0, 2),3	4,(0, 3),3	36,(4, 35),15	51,(4, 26),36	87,(4, 6),3	90,(4, 27),6	96,(4, 20),3	99,(4, 32),3	102,(4, 36),3	106,(1, 6),3	109,(1, 27),3	112,(1, 20),3	115,(4, 25),12	127,(1, 32),9	136,(1, 23),15	151,(4, 39),9	160,(1, 39),3	163,(4, 33),3	166,(1, 33),12	178,(4, 13),12	190,(4, 38),36	226,(1, 17),27	253,(4, 8),33	286,(1, 8),3	289,(4, 37),72	361,(1, 36),81	442,(1, 7),12	
39,(2, 19),6	45,(2, 12),3	48,(2, 15),3	51,(2, 5),3	54,(2, 29),3	57,(2, 14),18	75,(2, 13),12	87,(2, 17),3	96,(2, 8),3	101,(35, 41),24	149,(26, 41),24	197,(6, 41),24	245,(20, 41),24	293,(32, 41),24	341,(39, 41),24	392,(33, 41),24	416,(2, 24),3	446,(38, 41),24	470,(2, 40),45	659,(7, 41),24	707,(2, 10),30	
77,(11, 41),24	102,(3, 39),3	109,(3, 33),3	125,(30, 41),24	173,(12, 41),24	221,(27, 41),24	245,(3, 38),21	269,(25, 41),24	317,(23, 41),24	365,(3, 18),3	368,(14, 41),24	392,(3, 7),27	419,(3, 24),3	422,(13, 41),24	470,(3, 9),12	482,(17, 41),24	506,(8, 41),24	530,(3, 34),24	554,(37, 41),24	578,(36, 41),24	602,(3, 22),57	683,(40, 41),24	737,(3, 10),36	
