2684
# CPU
0,201,1	1,174,14	15,41,14	29,98,14	43,120,14	57,73,14	71,175,14	85,64,14	99,90,14	113,135,14	127,106,14	141,148,14	155,186,14	169,194,14	183,86,14	197,45,14	211,158,14	225,58,14	239,156,14	253,181,14	267,89,14	281,79,14	295,42,14	309,99,14	323,122,14	337,169,14	351,155,14	365,196,14	379,33,14	393,138,14	407,190,14	421,57,14	435,48,14	449,151,14	463,92,14	477,32,14	491,161,14	505,35,14	519,193,14	533,200,14	547,167,14	561,50,14	575,56,14	589,91,14	603,143,14	617,74,14	631,173,14	645,197,14	659,149,14	673,82,14	687,118,14	701,83,14	715,165,14	729,136,14	743,72,14	757,110,14	771,62,14	785,132,14	799,25,14	813,52,14	827,191,14	841,170,14	855,139,14	869,176,14	883,172,14	897,47,14	911,150,14	925,154,14	939,55,14	953,60,14	967,30,14	981,160,14	995,168,14	1009,125,14	1023,114,14	1037,140,14	1051,145,14	1065,180,14	1079,182,14	1093,39,14	1107,77,14	1121,198,14	1135,133,14	1149,28,14	1163,130,14	1177,31,14	1191,109,14	1205,24,14	1219,27,14	1233,100,14	1247,34,14	1261,95,14	1275,183,14	1289,126,14	1303,124,14	1317,59,14	1331,87,14	1345,66,14	1359,153,14	1373,54,14	1387,51,14	1401,46,14	1415,177,14	1429,163,14	1443,152,14	1457,189,14	1471,53,14	1485,171,14	1499,81,14	1513,166,14	1527,85,14	1541,147,14	1555,43,14	1569,105,14	1583,97,14	1597,37,14	1611,71,14	1625,22,14	1639,123,14	1653,26,14	1667,128,14	1681,134,14	1695,102,14	1709,199,14	1723,187,14	1737,84,14	1751,49,14	1765,44,14	1779,117,14	1793,104,14	1807,164,14	1821,121,14	1835,103,14	1849,111,14	1863,127,14	1877,129,14	1891,75,14	1905,144,14	1919,78,14	1933,96,14	1947,184,14	1961,188,14	1975,36,14	1989,137,14	2003,179,14	2017,142,14	2031,159,14	2045,157,14	2059,23,14	2073,40,14	2087,63,14	2101,69,14	2115,16,14	2129,116,14	2143,107,14	2157,101,14	2171,108,14	2185,88,14	2199,113,14	2213,76,14	2227,192,14	2241,119,14	2255,67,14	2269,115,14	2283,162,14	2297,1,14	2311,131,14	2325,3,14	2339,13,14	2353,10,14	2367,11,14	2381,12,14	2395,20,14	2409,4,14	2423,6,14	2437,17,14	2451,2,14	2465,9,14	2479,15,14	2493,8,14	2507,19,14	2521,7,14	2535,5,14	2669,18,14	2683,0,1	
691,80,14	829,146,14	967,61,14	1519,112,14	
415,94,14	1243,185,14	1933,21,14	2209,38,14	2467,14,14	
553,68,14	1381,93,14	


1105,65,14	
139,70,14	277,29,14	

1657,141,14	1795,195,14	2071,178,14	
# Incoming
291,(29, 3),4	295,(70, 13),2	429,(94, 11),6	435,(94, 15),6	567,(68, 13),4	571,(68, 10),8	579,(68, 20),8	587,(68, 7),2	981,(61, 11),2	983,(80, 12),10	993,(146, 12),2	995,(61, 20),10	1005,(146, 6),14	1019,(61, 6),6	1027,(61, 7),18	1045,(61, 5),2	1119,(65, 9),20	1257,(185, 11),2	1259,(185, 17),4	1263,(185, 5),24	1395,(93, 6),4	1399,(93, 15),32	1431,(93, 19),2	1533,(112, 4),22	1555,(112, 9),16	1571,(112, 8),38	1809,(195, 17),26	1835,(195, 2),8	1843,(141, 19),50	1893,(195, 18),62	2085,(178, 7),110	2223,(38, 6),2	2225,(38, 2),26	2251,(38, 8),4	2255,(38, 5),130	2385,(38, 18),284	2669,(14, 0),2	
553,(201, 80),138	691,(201, 146),138	829,(201, 61),138	1381,(201, 112),138	
277,(201, 94),138	1025,(146, 14),2	1105,(201, 185),138	1795,(201, 21),138	2071,(201, 38),138	2209,(90, 14),2	2211,(99, 14),2	2213,(190, 14),6	2219,(193, 14),8	2227,(110, 14),12	2239,(47, 14),6	2245,(150, 14),2	2247,(168, 14),4	2251,(182, 14),16	2267,(183, 14),28	2295,(54, 14),2	2297,(85, 14),2	2299,(71, 14),2	2301,(128, 14),16	2317,(102, 14),28	2345,(49, 14),6	2351,(164, 14),28	2379,(111, 14),68	2447,(40, 14),2	2449,(107, 14),6	2455,(88, 14),2	2457,(192, 14),10	
415,(201, 68),138	1243,(201, 93),138	


967,(201, 65),138	
1,(201, 70),138	139,(201, 29),138	

1519,(201, 141),138	1657,(201, 195),138	1933,(201, 178),138	
# Outgoing
1,(201, 70),138	139,(201, 29),138	277,(201, 94),138	415,(201, 68),138	553,(201, 80),138	691,(201, 146),138	829,(201, 61),138	967,(201, 65),138	1105,(201, 185),138	1243,(201, 93),138	1381,(201, 112),138	1519,(201, 141),138	1657,(201, 195),138	1795,(201, 21),138	1933,(201, 178),138	2071,(201, 38),138	2209,(90, 14),2	2211,(99, 14),2	2213,(190, 14),6	2219,(193, 14),8	2227,(110, 14),12	2239,(47, 14),6	2245,(150, 14),2	2247,(168, 14),4	2251,(182, 14),16	2267,(183, 14),28	2295,(54, 14),2	2297,(85, 14),2	2299,(71, 14),2	2301,(128, 14),16	2317,(102, 14),28	2345,(49, 14),6	2351,(164, 14),28	2379,(111, 14),68	2447,(40, 14),2	2449,(107, 14),6	2455,(88, 14),2	2457,(192, 14),10	
981,(61, 11),2	983,(80, 12),10	993,(146, 12),2	995,(61, 20),10	1005,(146, 6),14	1019,(61, 6),6	1025,(146, 14),2	1027,(61, 7),18	1045,(61, 5),2	1533,(112, 4),22	1555,(112, 9),16	1571,(112, 8),38	
429,(94, 11),6	435,(94, 15),6	1257,(185, 11),2	1259,(185, 17),4	1263,(185, 5),24	2223,(38, 6),2	2225,(38, 2),26	2251,(38, 8),4	2255,(38, 5),130	2385,(38, 18),284	2669,(14, 0),2	
567,(68, 13),4	571,(68, 10),8	579,(68, 20),8	587,(68, 7),2	1395,(93, 6),4	1399,(93, 15),32	1431,(93, 19),2	


1119,(65, 9),20	
291,(29, 3),4	295,(70, 13),2	

1809,(195, 17),26	1835,(195, 2),8	1843,(141, 19),50	1893,(195, 18),62	2085,(178, 7),110	
