314
# CPU
206,12,76	
164,11,76	
110,10,76	236,20,76	
109,9,76	235,19,76	
111,18,76	187,8,76	
100,7,76	218,17,76	
131,6,76	209,16,76	
93,5,76	208,15,76	
39,2,76	115,4,76	191,14,76	
0,0,1	1,1,76	77,3,76	153,13,76	313,21,1	
# Incoming
164,(2, 12),42	
161,(2, 11),3	
109,(1, 10),1	235,(2, 20),1	
100,(1, 9),9	111,(1, 19),5	218,(2, 19),17	
110,(1, 18),1	131,(2, 8),30	
93,(1, 7),7	209,(2, 17),9	
115,(2, 6),16	208,(2, 16),1	
77,(1, 5),16	206,(2, 15),2	
1,(0, 2),38	
169,(5, 21),1	176,(7, 21),1	185,(9, 21),1	186,(10, 21),1	187,(18, 21),1	207,(6, 21),1	236,(4, 21),1	240,(11, 21),1	263,(8, 21),1	267,(14, 21),1	282,(12, 21),1	284,(15, 21),1	285,(16, 21),1	294,(17, 21),1	311,(19, 21),1	312,(20, 21),1	
# Outgoing
282,(12, 21),1	
240,(11, 21),1	
186,(10, 21),1	312,(20, 21),1	
185,(9, 21),1	311,(19, 21),1	
187,(18, 21),1	263,(8, 21),1	
176,(7, 21),1	294,(17, 21),1	
207,(6, 21),1	285,(16, 21),1	
169,(5, 21),1	284,(15, 21),1	
115,(2, 6),16	131,(2, 8),30	161,(2, 11),3	164,(2, 12),42	206,(2, 15),2	208,(2, 16),1	209,(2, 17),9	218,(2, 19),17	235,(2, 20),1	236,(4, 21),1	267,(14, 21),1	
1,(0, 2),38	77,(1, 5),16	93,(1, 7),7	100,(1, 9),9	109,(1, 10),1	110,(1, 18),1	111,(1, 19),5	
