636
# CPU
0,81,1	1,53,5	6,39,5	11,61,5	16,29,5	21,45,5	26,80,5	31,50,5	36,66,5	41,34,5	46,35,5	51,9,5	56,42,5	61,41,5	66,62,5	71,74,5	76,70,5	81,27,5	86,69,5	91,26,5	96,67,5	101,16,5	106,25,5	111,13,5	116,65,5	121,54,5	126,24,5	131,46,5	136,79,5	141,77,5	146,31,5	151,72,5	156,55,5	161,14,5	166,20,5	171,21,5	176,56,5	181,28,5	186,15,5	191,30,5	196,58,5	201,44,5	206,71,5	211,57,5	216,52,5	221,47,5	226,11,5	231,18,5	236,37,5	241,63,5	246,51,5	251,33,5	256,60,5	261,8,5	266,23,5	271,78,5	276,36,5	281,68,5	286,49,5	291,40,5	296,17,5	301,59,5	306,64,5	311,12,5	316,76,5	321,6,5	326,73,5	331,22,5	336,43,5	341,7,5	346,5,5	351,3,5	356,2,5	361,4,5	635,0,1	
113,48,5	169,38,5	225,32,5	337,10,5	574,1,5	
57,19,5	281,75,5	
# Incoming
230,(32, 5),8	238,(48, 3),8	246,(38, 2),16	286,(75, 4),64	579,(1, 0),56	
57,(81, 48),56	113,(81, 38),56	169,(81, 32),56	281,(81, 10),56	337,(66, 1),4	341,(74, 1),4	350,(19, 1),4	354,(79, 1),12	366,(55, 1),16	382,(20, 1),16	398,(57, 1),28	426,(36, 1),56	482,(59, 1),92	
1,(81, 19),56	225,(81, 75),56	
# Outgoing
1,(81, 19),56	57,(81, 48),56	113,(81, 38),56	169,(81, 32),56	225,(81, 75),56	281,(81, 10),56	337,(66, 1),4	341,(74, 1),4	354,(79, 1),12	366,(55, 1),16	382,(20, 1),16	398,(57, 1),28	426,(36, 1),56	482,(59, 1),92	
230,(32, 5),8	238,(48, 3),8	246,(38, 2),16	579,(1, 0),56	
286,(75, 4),64	350,(19, 1),4	
