212
# CPU
0,0,1	1,3,15	16,22,15	31,34,15	46,13,15	61,17,15	76,2,15	91,35,15	106,32,15	121,36,15	136,31,15	151,19,15	166,37,15	181,30,15	196,11,15	211,41,1	
3,4,15	18,20,15	33,21,15	48,15,15	63,6,15	78,5,15	93,9,15	108,39,15	123,27,15	138,29,15	153,10,15	168,40,15	
5,1,15	20,26,15	35,38,15	50,12,15	65,7,15	93,23,15	108,24,15	123,14,15	145,33,15	
20,28,15	35,8,15	50,16,15	95,25,15	110,18,15	
# Incoming
33,(20, 41),2	35,(26, 41),2	37,(28, 41),2	48,(21, 41),2	50,(38, 41),2	52,(8, 41),2	63,(15, 41),2	65,(12, 41),2	67,(16, 41),2	78,(6, 41),2	80,(7, 41),2	93,(5, 41),2	108,(9, 41),2	110,(23, 41),2	112,(25, 41),2	123,(39, 41),2	125,(24, 41),2	127,(18, 41),2	138,(27, 41),2	140,(14, 41),2	153,(29, 41),2	160,(33, 41),2	168,(10, 41),2	183,(40, 41),2	
1,(0, 4),2	145,(2, 40),10	
3,(0, 1),2	91,(2, 23),2	95,(2, 24),6	109,(2, 14),14	123,(2, 33),22	
16,(3, 28),4	20,(3, 8),10	30,(3, 25),2	37,(1, 16),10	93,(2, 25),2	101,(2, 18),8	
# Outgoing
1,(0, 4),2	3,(0, 1),2	16,(3, 28),4	20,(3, 8),10	30,(3, 25),2	91,(2, 23),2	93,(2, 25),2	95,(2, 24),6	101,(2, 18),8	109,(2, 14),14	123,(2, 33),22	145,(2, 40),10	
33,(20, 41),2	48,(21, 41),2	63,(15, 41),2	78,(6, 41),2	93,(5, 41),2	108,(9, 41),2	123,(39, 41),2	138,(27, 41),2	153,(29, 41),2	168,(10, 41),2	183,(40, 41),2	
35,(26, 41),2	37,(1, 16),10	50,(38, 41),2	65,(12, 41),2	80,(7, 41),2	110,(23, 41),2	125,(24, 41),2	140,(14, 41),2	160,(33, 41),2	
37,(28, 41),2	52,(8, 41),2	67,(16, 41),2	112,(25, 41),2	127,(18, 41),2	
