7156
# CPU
127,10,2	179,23,2	193,50,2	195,60,2	215,70,2	219,100,2	245,30,2	249,40,2	273,80,2	329,110,2	589,120,2	979,90,2	
113,9,2	115,39,2	117,79,2	119,99,2	121,49,2	123,119,2	193,29,2	271,69,2	391,59,2	483,89,2	895,22,2	1067,109,2	
99,8,2	101,28,2	103,98,2	143,118,2	187,38,2	191,58,2	217,68,2	233,78,2	325,88,2	341,21,2	1361,48,2	1425,108,2	
85,7,2	87,97,2	95,27,2	147,107,2	195,19,2	211,67,2	289,117,2	353,47,2	383,57,2	401,77,2	481,87,2	965,37,2	
71,6,2	73,26,2	75,66,2	139,36,2	205,46,2	207,106,2	217,96,2	321,116,2	333,18,2	471,86,2	755,56,2	1387,76,2	
57,5,2	59,17,2	61,115,2	105,35,2	321,55,2	325,85,2	333,25,2	335,65,2	337,75,2	339,95,2	501,105,2	1359,45,2	
43,4,2	45,104,2	51,14,2	127,34,2	137,24,2	139,114,2	197,94,2	199,54,2	295,64,2	463,74,2	1321,44,2	1419,84,2	
29,3,2	31,113,2	145,20,2	161,93,2	195,43,2	197,53,2	207,83,2	329,13,2	347,63,2	533,103,2	897,33,2	1375,73,2	
15,2,2	17,62,2	19,92,2	21,82,2	81,42,2	141,12,2	143,16,2	153,32,2	219,72,2	297,112,2	503,102,2	977,52,2	
0,0,1	1,11,2	3,1,2	5,71,2	7,111,2	129,51,2	135,91,2	189,41,2	195,31,2	217,81,2	325,61,2	1131,101,2	2629,15,2	7155,121,1	
# Incoming
113,(0, 10),14	127,(3, 23),52	179,(5, 90),2	181,(5, 100),6	187,(6, 50),6	193,(8, 60),2	195,(3, 70),20	217,(3, 100),2	219,(7, 30),26	245,(8, 40),4	271,(6, 80),2	325,(2, 110),4	533,(1, 120),56	977,(4, 90),2	
99,(0, 9),14	113,(8, 49),6	121,(5, 119),2	123,(8, 89),10	179,(3, 29),14	193,(6, 69),78	383,(1, 59),8	481,(1, 89),2	483,(4, 22),412	895,(10, 109),172	
85,(0, 8),14	135,(5, 118),8	145,(11, 38),42	189,(10, 58),2	211,(11, 68),6	219,(11, 78),14	233,(11, 88),92	333,(1, 21),8	1359,(12, 48),2	1419,(12, 108),6	
71,(0, 7),14	85,(5, 27),10	95,(5, 47),22	135,(8, 107),12	147,(9, 19),48	205,(11, 67),6	217,(9, 117),72	341,(1, 47),12	353,(1, 57),30	383,(10, 77),18	471,(1, 87),10	897,(4, 37),68	
57,(0, 6),14	71,(5, 26),2	119,(8, 86),4	129,(10, 36),10	195,(11, 46),10	205,(10, 106),2	207,(9, 96),10	245,(7, 56),14	259,(8, 116),62	329,(1, 18),4	463,(1, 86),8	471,(8, 56),284	1375,(12, 76),12	
43,(0, 5),14	57,(2, 17),2	101,(8, 35),4	105,(8, 65),8	129,(2, 55),192	321,(2, 85),4	325,(3, 25),8	333,(3, 65),2	335,(7, 75),2	337,(9, 95),2	401,(10, 105),100	1321,(12, 45),38	
29,(0, 4),14	43,(2, 14),8	73,(2, 24),38	111,(2, 34),16	127,(5, 114),8	135,(6, 24),2	137,(6, 114),2	191,(10, 94),6	197,(9, 54),2	259,(7, 64),36	391,(1, 74),72	1317,(12, 44),4	1387,(12, 84),32	
15,(0, 3),14	59,(2, 20),14	117,(5, 83),4	141,(11, 20),4	153,(6, 93),8	187,(11, 43),8	195,(9, 53),2	197,(10, 73),2	199,(9, 83),8	325,(1, 13),4	329,(2, 63),18	503,(1, 103),30	895,(4, 33),2	1361,(12, 73),14	
1,(0, 2),14	73,(5, 42),8	81,(5, 52),2	127,(0, 12),14	141,(6, 32),12	217,(11, 72),2	219,(3, 112),14	295,(7, 112),2	483,(1, 102),20	965,(4, 52),12	
51,(2, 15),6	127,(2, 51),2	133,(8, 91),2	139,(10, 41),50	193,(3, 31),2	215,(3, 81),2	233,(113, 121),62	295,(10, 61),30	347,(2, 101),784	1131,(62, 121),62	1193,(92, 121),62	1255,(82, 121),62	1317,(104, 121),62	1379,(14, 121),62	1441,(17, 121),62	1503,(115, 121),62	1565,(26, 121),62	1627,(66, 121),62	1689,(42, 121),62	1751,(97, 121),62	1813,(27, 121),62	1875,(28, 121),62	1937,(98, 121),62	1999,(35, 121),62	2061,(39, 121),62	2123,(79, 121),62	2185,(99, 121),62	2247,(49, 121),62	2309,(119, 121),62	2371,(34, 121),62	2433,(24, 121),62	2495,(36, 121),62	2557,(114, 121),62	2619,(12, 15),10	2629,(118, 121),62	2691,(16, 121),62	2753,(20, 121),62	2815,(107, 121),62	2877,(32, 121),62	2939,(93, 121),62	3001,(23, 121),62	3063,(38, 121),62	3125,(58, 121),62	3187,(29, 121),62	3249,(50, 121),62	3311,(19, 121),62	3373,(60, 121),62	3435,(43, 121),62	3497,(94, 121),62	3559,(53, 121),62	3621,(54, 121),62	3683,(46, 121),62	3745,(83, 121),62	3807,(106, 121),62	3869,(67, 121),62	3931,(70, 121),62	3993,(96, 121),62	4055,(68, 121),62	4117,(100, 121),62	4179,(72, 121),62	4241,(78, 121),62	4303,(30, 121),62	4365,(40, 121),62	4427,(69, 121),62	4489,(80, 121),62	4551,(117, 121),62	4613,(64, 121),62	4675,(112, 121),62	4737,(55, 121),62	4799,(116, 121),62	4861,(88, 121),62	4923,(85, 121),62	4985,(110, 121),62	5047,(13, 121),62	5109,(25, 121),62	5171,(18, 121),62	5233,(65, 121),62	5295,(75, 121),62	5357,(95, 121),62	5419,(21, 121),62	5481,(63, 121),62	5543,(47, 121),62	5605,(57, 121),62	5667,(59, 121),62	5729,(77, 121),62	5791,(74, 121),62	5853,(86, 121),62	5915,(87, 121),62	5977,(89, 121),62	6039,(105, 121),62	6101,(102, 121),62	6163,(103, 121),62	6225,(120, 121),62	6287,(56, 121),62	6349,(22, 121),62	6411,(33, 121),62	6473,(37, 121),62	6535,(52, 121),62	6597,(90, 121),62	6659,(109, 121),62	6721,(44, 121),62	6783,(45, 121),62	6845,(48, 121),62	6907,(73, 121),62	6969,(76, 121),62	7031,(84, 121),62	7093,(108, 121),62	
# Outgoing
129,(10, 36),10	139,(10, 41),50	189,(10, 58),2	191,(10, 94),6	197,(10, 73),2	205,(10, 106),2	295,(10, 61),30	383,(10, 77),18	401,(10, 105),100	895,(10, 109),172	3001,(23, 121),62	3249,(50, 121),62	3373,(60, 121),62	3931,(70, 121),62	4117,(100, 121),62	4303,(30, 121),62	4365,(40, 121),62	4489,(80, 121),62	4985,(110, 121),62	6225,(120, 121),62	6597,(90, 121),62	
147,(9, 19),48	195,(9, 53),2	197,(9, 54),2	199,(9, 83),8	207,(9, 96),10	217,(9, 117),72	337,(9, 95),2	2061,(39, 121),62	2123,(79, 121),62	2185,(99, 121),62	2247,(49, 121),62	2309,(119, 121),62	3187,(29, 121),62	4427,(69, 121),62	5667,(59, 121),62	5977,(89, 121),62	6349,(22, 121),62	6659,(109, 121),62	
101,(8, 35),4	105,(8, 65),8	113,(8, 49),6	119,(8, 86),4	123,(8, 89),10	133,(8, 91),2	135,(8, 107),12	193,(8, 60),2	245,(8, 40),4	259,(8, 116),62	471,(8, 56),284	1875,(28, 121),62	1937,(98, 121),62	2629,(118, 121),62	3063,(38, 121),62	3125,(58, 121),62	4055,(68, 121),62	4241,(78, 121),62	4861,(88, 121),62	5419,(21, 121),62	6845,(48, 121),62	7093,(108, 121),62	
219,(7, 30),26	245,(7, 56),14	259,(7, 64),36	295,(7, 112),2	335,(7, 75),2	1751,(97, 121),62	1813,(27, 121),62	2815,(107, 121),62	3311,(19, 121),62	3869,(67, 121),62	4551,(117, 121),62	5543,(47, 121),62	5605,(57, 121),62	5729,(77, 121),62	5915,(87, 121),62	6473,(37, 121),62	
135,(6, 24),2	137,(6, 114),2	141,(6, 32),12	153,(6, 93),8	187,(6, 50),6	193,(6, 69),78	271,(6, 80),2	1565,(26, 121),62	1627,(66, 121),62	2495,(36, 121),62	3683,(46, 121),62	3807,(106, 121),62	3993,(96, 121),62	4799,(116, 121),62	5171,(18, 121),62	5853,(86, 121),62	6287,(56, 121),62	6969,(76, 121),62	
71,(5, 26),2	73,(5, 42),8	81,(5, 52),2	85,(5, 27),10	95,(5, 47),22	117,(5, 83),4	121,(5, 119),2	127,(5, 114),8	135,(5, 118),8	179,(5, 90),2	181,(5, 100),6	1441,(17, 121),62	1503,(115, 121),62	1999,(35, 121),62	4737,(55, 121),62	4923,(85, 121),62	5109,(25, 121),62	5233,(65, 121),62	5295,(75, 121),62	5357,(95, 121),62	6039,(105, 121),62	6783,(45, 121),62	
483,(4, 22),412	895,(4, 33),2	897,(4, 37),68	965,(4, 52),12	977,(4, 90),2	1317,(104, 121),62	1379,(14, 121),62	2371,(34, 121),62	2433,(24, 121),62	2557,(114, 121),62	3497,(94, 121),62	3621,(54, 121),62	4613,(64, 121),62	5791,(74, 121),62	6721,(44, 121),62	7031,(84, 121),62	
127,(3, 23),52	179,(3, 29),14	193,(3, 31),2	195,(3, 70),20	215,(3, 81),2	217,(3, 100),2	219,(3, 112),14	233,(113, 121),62	325,(3, 25),8	333,(3, 65),2	2753,(20, 121),62	2939,(93, 121),62	3435,(43, 121),62	3559,(53, 121),62	3745,(83, 121),62	5047,(13, 121),62	5481,(63, 121),62	6163,(103, 121),62	6411,(33, 121),62	6907,(73, 121),62	
43,(2, 14),8	51,(2, 15),6	57,(2, 17),2	59,(2, 20),14	73,(2, 24),38	111,(2, 34),16	127,(2, 51),2	129,(2, 55),192	321,(2, 85),4	325,(2, 110),4	329,(2, 63),18	347,(2, 101),784	1131,(62, 121),62	1193,(92, 121),62	1255,(82, 121),62	1317,(12, 44),4	1321,(12, 45),38	1359,(12, 48),2	1361,(12, 73),14	1375,(12, 76),12	1387,(12, 84),32	1419,(12, 108),6	1689,(42, 121),62	2619,(12, 15),10	2691,(16, 121),62	2877,(32, 121),62	4179,(72, 121),62	4675,(112, 121),62	6101,(102, 121),62	6535,(52, 121),62	
1,(0, 2),14	15,(0, 3),14	29,(0, 4),14	43,(0, 5),14	57,(0, 6),14	71,(0, 7),14	85,(0, 8),14	99,(0, 9),14	113,(0, 10),14	127,(0, 12),14	141,(11, 20),4	145,(11, 38),42	187,(11, 43),8	195,(11, 46),10	205,(11, 67),6	211,(11, 68),6	217,(11, 72),2	219,(11, 78),14	233,(11, 88),92	325,(1, 13),4	329,(1, 18),4	333,(1, 21),8	341,(1, 47),12	353,(1, 57),30	383,(1, 59),8	391,(1, 74),72	463,(1, 86),8	471,(1, 87),10	481,(1, 89),2	483,(1, 102),20	503,(1, 103),30	533,(1, 120),56	
