30332
# CPU
13,4,10	23,86,10	33,8,10	43,12,10	53,91,10	63,41,10	101,30,10	121,70,10	261,55,10	3545,75,10	3589,93,10	3599,103,10	3609,26,10	3619,27,10	3669,84,10	3681,109,10	3709,116,10	3729,118,10	5397,34,10	5581,68,10	5705,107,10	5733,32,10	5829,49,10	7173,101,10	7209,25,10	7233,38,10	7369,59,10	7393,72,10	7481,80,10	7505,88,10	7661,20,10	7717,36,10	7977,65,10	8133,120,10	8229,24,10	8261,57,10	8393,78,10	8417,82,10	8501,97,10	8561,99,10	8593,111,10	8749,28,10	8849,43,10	8957,45,10	9049,53,10	9149,105,10	9173,23,10	9189,47,10	9217,51,10	9227,63,10	30261,95,10	30317,114,10	
9,3,10	21,7,10	33,11,10	43,110,10	125,18,10	1133,37,10	1213,67,10	1261,77,10	1381,22,10	1441,35,10	2533,79,10	2857,81,10	2917,90,10	3073,29,10	3193,46,10	3261,100,10	3285,44,10	3295,64,10	3333,92,10	3365,94,10	3385,96,10	3445,52,10	3481,83,10	3661,104,10	3671,106,10	3693,113,10	3709,117,10	3733,119,10	3801,56,10	3897,58,10	4025,61,10	4089,69,10	4113,71,10	4173,85,10	4249,98,10	4353,108,10	4425,16,10	4633,31,10	4693,33,10	4713,39,10	4797,42,10	4817,48,10	4853,50,10	4965,54,10	4975,74,10	5177,87,10	5425,102,10	5461,115,10	30331,121,1	
5,2,10	15,89,10	25,6,10	35,10,10	89,17,10	341,40,10	589,15,10	1309,21,10	4033,62,10	4969,60,10	5409,76,10	7785,112,10	
0,0,1	1,9,10	11,5,10	21,1,10	131,14,10	493,13,10	1093,19,10	4997,66,10	30257,73,10	
# Incoming
9,(0, 4),4	21,(0, 8),4	25,(2, 24),8	33,(0, 12),4	37,(2, 23),12	49,(2, 27),36	85,(2, 30),16	101,(2, 72),4	105,(2, 109),8	113,(6, 28),4	117,(6, 70),4	121,(6, 116),4	125,(9, 25),12	137,(9, 26),4	141,(2, 49),56	197,(2, 55),28	225,(2, 78),24	249,(10, 24),4	253,(10, 55),8	261,(10, 57),4	265,(9, 45),3212	3477,(9, 53),12	3489,(2, 107),24	3513,(3, 20),24	3537,(3, 75),8	3545,(3, 80),40	3585,(3, 93),4	3589,(3, 103),4	3593,(7, 26),4	3597,(7, 27),4	3601,(7, 88),12	3613,(9, 80),28	3641,(9, 95),4	3645,(7, 107),8	3653,(11, 34),8	3661,(9, 105),4	3665,(11, 84),4	3669,(9, 109),12	3681,(3, 116),28	3709,(9, 118),20	3729,(11, 101),4	3733,(9, 120),276	4009,(2, 25),188	4197,(2, 97),148	4345,(3, 34),1052	5397,(3, 68),184	5581,(3, 107),124	5705,(5, 23),24	5729,(5, 32),4	5733,(5, 36),4	5737,(5, 43),20	5757,(5, 45),4	5761,(5, 47),64	5825,(5, 49),4	5829,(5, 51),20	5849,(5, 53),4	5853,(5, 88),4	5857,(5, 99),44	5901,(5, 101),1272	7173,(1, 25),36	7209,(1, 28),12	7221,(1, 38),12	7233,(1, 47),44	7277,(1, 57),4	7281,(1, 59),88	7369,(1, 72),24	7393,(1, 78),8	7401,(1, 80),80	7481,(1, 88),24	7505,(1, 111),116	7621,(7, 20),40	7661,(7, 36),56	7717,(7, 65),260	7977,(7, 97),24	8001,(7, 99),76	8077,(7, 120),56	8133,(6, 24),96	8229,(6, 57),32	8261,(6, 78),132	8393,(6, 82),24	8417,(6, 95),32	8449,(6, 97),52	8501,(6, 99),60	8561,(6, 111),32	8593,(6, 114),108	8701,(11, 28),48	8749,(11, 43),100	8849,(11, 45),108	8957,(11, 53),92	9049,(11, 105),100	9149,(10, 23),24	9173,(10, 47),16	9189,(10, 51),28	9217,(10, 63),4	30257,(10, 95),4	30261,(10, 114),56	
5,(0, 3),4	17,(0, 7),4	21,(2, 18),4	29,(0, 11),4	33,(89, 121),4	89,(9, 18),36	125,(2, 52),16	141,(9, 31),68	209,(9, 35),4	213,(9, 39),44	257,(9, 42),4	261,(9, 44),4	265,(2, 42),84	349,(2, 69),32	381,(2, 94),104	485,(2, 106),12	497,(2, 113),52	549,(2, 119),8	557,(4, 22),532	1089,(4, 33),4	1093,(4, 37),40	1133,(4, 44),16	1149,(4, 46),4	1153,(4, 61),44	1197,(4, 67),16	1213,(4, 77),48	1261,(4, 85),8	1269,(4, 87),16	1285,(86, 121),4	1289,(6, 22),92	1381,(6, 35),60	1441,(6, 69),1088	2529,(6, 79),4	2533,(6, 81),324	2857,(6, 87),20	2877,(6, 90),40	2917,(6, 94),28	2945,(6, 108),4	2949,(6, 113),20	2969,(6, 115),4	2973,(8, 29),100	3073,(8, 31),32	3105,(8, 46),88	3193,(8, 58),60	3253,(8, 98),4	3257,(8, 100),4	3261,(10, 39),4	3265,(10, 44),20	3285,(10, 64),4	3289,(10, 71),40	3329,(10, 92),4	3333,(10, 94),32	3365,(10, 96),20	3385,(10, 102),4	3389,(10, 104),20	3409,(12, 52),36	3445,(12, 69),20	3465,(12, 83),16	3481,(12, 117),4	3485,(91, 121),4	3489,(9, 69),120	3609,(9, 74),4	3613,(41, 121),4	3617,(17, 121),4	3621,(30, 121),4	3625,(70, 121),4	3629,(55, 121),4	3633,(40, 121),4	3637,(15, 121),4	3641,(21, 121),4	3645,(9, 104),16	3661,(75, 121),4	3665,(9, 106),4	3669,(93, 121),4	3673,(103, 121),4	3677,(26, 121),4	3681,(9, 113),12	3693,(9, 117),16	3709,(27, 121),4	3713,(84, 121),4	3717,(109, 121),4	3721,(116, 121),4	3729,(9, 119),4	3733,(12, 56),68	3801,(12, 58),96	3897,(118, 121),4	4017,(5, 61),8	4033,(5, 69),56	4089,(5, 71),24	4113,(5, 85),60	4173,(5, 98),76	4249,(5, 102),80	4329,(5, 108),24	4353,(1, 16),72	4425,(1, 31),208	4633,(1, 33),60	4693,(1, 39),20	4713,(1, 42),84	4797,(1, 48),20	4817,(1, 50),36	4853,(1, 54),112	4969,(1, 74),4	4973,(12, 87),204	5177,(62, 121),4	5181,(60, 121),4	5409,(1, 102),16	5425,(1, 115),36	5461,(14, 121),4	5465,(13, 121),4	5469,(19, 121),4	5473,(66, 121),4	5477,(76, 121),4	7785,(34, 121),4	7789,(68, 121),4	7793,(107, 121),4	7797,(32, 121),4	7801,(49, 121),4	7805,(101, 121),4	7809,(25, 121),4	7813,(38, 121),4	7817,(59, 121),4	7821,(72, 121),4	7825,(80, 121),4	7829,(88, 121),4	7833,(20, 121),4	7837,(36, 121),4	7841,(112, 121),4	7987,(65, 121),4	8143,(120, 121),4	8239,(24, 121),4	8271,(57, 121),4	8403,(78, 121),4	8427,(82, 121),4	8511,(97, 121),4	8571,(99, 121),4	8603,(111, 121),4	8759,(28, 121),4	8859,(43, 121),4	8967,(45, 121),4	9059,(53, 121),4	9159,(105, 121),4	9183,(23, 121),4	9199,(47, 121),4	9227,(51, 121),4	9237,(63, 121),4	30267,(73, 121),4	30271,(95, 121),4	30327,(114, 121),4	
1,(0, 2),4	13,(0, 6),4	19,(3, 17),4	25,(0, 10),4	37,(9, 17),52	89,(3, 40),252	341,(3, 60),4	345,(3, 62),20	365,(4, 62),4	369,(4, 112),8	377,(12, 15),4	457,(3, 112),24	493,(7, 21),16	509,(11, 15),80	1093,(11, 21),216	1309,(11, 62),328	4009,(5, 60),8	4025,(5, 62),8	4965,(1, 60),4	4973,(1, 76),436	5409,(8, 112),2376	
23,(3, 19),16	39,(4, 14),92	365,(3, 73),92	481,(7, 13),12	557,(6, 73),200	757,(11, 19),336	4345,(10, 66),652	9221,(10, 73),21036	
# Outgoing
39,(4, 14),92	365,(4, 62),4	369,(4, 112),8	377,(12, 15),4	557,(4, 22),532	1089,(4, 33),4	1093,(4, 37),40	1133,(4, 44),16	1149,(4, 46),4	1153,(4, 61),44	1197,(4, 67),16	1213,(4, 77),48	1261,(4, 85),8	1269,(4, 87),16	1285,(86, 121),4	2973,(8, 29),100	3073,(8, 31),32	3105,(8, 46),88	3193,(8, 58),60	3253,(8, 98),4	3257,(8, 100),4	3409,(12, 52),36	3445,(12, 69),20	3465,(12, 83),16	3481,(12, 117),4	3485,(91, 121),4	3613,(41, 121),4	3621,(30, 121),4	3625,(70, 121),4	3629,(55, 121),4	3661,(75, 121),4	3669,(93, 121),4	3673,(103, 121),4	3677,(26, 121),4	3709,(27, 121),4	3713,(84, 121),4	3717,(109, 121),4	3721,(116, 121),4	3733,(12, 56),68	3801,(12, 58),96	3897,(118, 121),4	4973,(12, 87),204	5409,(8, 112),2376	7785,(34, 121),4	7789,(68, 121),4	7793,(107, 121),4	7797,(32, 121),4	7801,(49, 121),4	7805,(101, 121),4	7809,(25, 121),4	7813,(38, 121),4	7817,(59, 121),4	7821,(72, 121),4	7825,(80, 121),4	7829,(88, 121),4	7833,(20, 121),4	7837,(36, 121),4	7987,(65, 121),4	8143,(120, 121),4	8239,(24, 121),4	8271,(57, 121),4	8403,(78, 121),4	8427,(82, 121),4	8511,(97, 121),4	8571,(99, 121),4	8603,(111, 121),4	8759,(28, 121),4	8859,(43, 121),4	8967,(45, 121),4	9059,(53, 121),4	9159,(105, 121),4	9183,(23, 121),4	9199,(47, 121),4	9227,(51, 121),4	9237,(63, 121),4	30271,(95, 121),4	30327,(114, 121),4	
19,(3, 17),4	23,(3, 19),16	89,(3, 40),252	341,(3, 60),4	345,(3, 62),20	365,(3, 73),92	457,(3, 112),24	481,(7, 13),12	493,(7, 21),16	509,(11, 15),80	757,(11, 19),336	1093,(11, 21),216	1309,(11, 62),328	3513,(3, 20),24	3537,(3, 75),8	3545,(3, 80),40	3585,(3, 93),4	3589,(3, 103),4	3593,(7, 26),4	3597,(7, 27),4	3601,(7, 88),12	3645,(7, 107),8	3653,(11, 34),8	3665,(11, 84),4	3681,(3, 116),28	3729,(11, 101),4	4345,(3, 34),1052	5397,(3, 68),184	5581,(3, 107),124	7621,(7, 20),40	7661,(7, 36),56	7717,(7, 65),260	7977,(7, 97),24	8001,(7, 99),76	8077,(7, 120),56	8701,(11, 28),48	8749,(11, 43),100	8849,(11, 45),108	8957,(11, 53),92	9049,(11, 105),100	
21,(2, 18),4	25,(2, 24),8	33,(89, 121),4	37,(2, 23),12	49,(2, 27),36	85,(2, 30),16	101,(2, 72),4	105,(2, 109),8	113,(6, 28),4	117,(6, 70),4	121,(6, 116),4	125,(2, 52),16	141,(2, 49),56	197,(2, 55),28	225,(2, 78),24	249,(10, 24),4	253,(10, 55),8	261,(10, 57),4	265,(2, 42),84	349,(2, 69),32	381,(2, 94),104	485,(2, 106),12	497,(2, 113),52	549,(2, 119),8	557,(6, 73),200	1289,(6, 22),92	1381,(6, 35),60	1441,(6, 69),1088	2529,(6, 79),4	2533,(6, 81),324	2857,(6, 87),20	2877,(6, 90),40	2917,(6, 94),28	2945,(6, 108),4	2949,(6, 113),20	2969,(6, 115),4	3261,(10, 39),4	3265,(10, 44),20	3285,(10, 64),4	3289,(10, 71),40	3329,(10, 92),4	3333,(10, 94),32	3365,(10, 96),20	3385,(10, 102),4	3389,(10, 104),20	3489,(2, 107),24	3617,(17, 121),4	3633,(40, 121),4	3637,(15, 121),4	3641,(21, 121),4	4009,(2, 25),188	4197,(2, 97),148	4345,(10, 66),652	5177,(62, 121),4	5181,(60, 121),4	5477,(76, 121),4	7841,(112, 121),4	8133,(6, 24),96	8229,(6, 57),32	8261,(6, 78),132	8393,(6, 82),24	8417,(6, 95),32	8449,(6, 97),52	8501,(6, 99),60	8561,(6, 111),32	8593,(6, 114),108	9149,(10, 23),24	9173,(10, 47),16	9189,(10, 51),28	9217,(10, 63),4	9221,(10, 73),21036	30257,(10, 95),4	30261,(10, 114),56	
1,(0, 2),4	5,(0, 3),4	9,(0, 4),4	13,(0, 6),4	17,(0, 7),4	21,(0, 8),4	25,(0, 10),4	29,(0, 11),4	33,(0, 12),4	37,(9, 17),52	89,(9, 18),36	125,(9, 25),12	137,(9, 26),4	141,(9, 31),68	209,(9, 35),4	213,(9, 39),44	257,(9, 42),4	261,(9, 44),4	265,(9, 45),3212	3477,(9, 53),12	3489,(9, 69),120	3609,(9, 74),4	3613,(9, 80),28	3641,(9, 95),4	3645,(9, 104),16	3661,(9, 105),4	3665,(9, 106),4	3669,(9, 109),12	3681,(9, 113),12	3693,(9, 117),16	3709,(9, 118),20	3729,(9, 119),4	3733,(9, 120),276	4009,(5, 60),8	4017,(5, 61),8	4025,(5, 62),8	4033,(5, 69),56	4089,(5, 71),24	4113,(5, 85),60	4173,(5, 98),76	4249,(5, 102),80	4329,(5, 108),24	4353,(1, 16),72	4425,(1, 31),208	4633,(1, 33),60	4693,(1, 39),20	4713,(1, 42),84	4797,(1, 48),20	4817,(1, 50),36	4853,(1, 54),112	4965,(1, 60),4	4969,(1, 74),4	4973,(1, 76),436	5409,(1, 102),16	5425,(1, 115),36	5461,(14, 121),4	5465,(13, 121),4	5469,(19, 121),4	5473,(66, 121),4	5705,(5, 23),24	5729,(5, 32),4	5733,(5, 36),4	5737,(5, 43),20	5757,(5, 45),4	5761,(5, 47),64	5825,(5, 49),4	5829,(5, 51),20	5849,(5, 53),4	5853,(5, 88),4	5857,(5, 99),44	5901,(5, 101),1272	7173,(1, 25),36	7209,(1, 28),12	7221,(1, 38),12	7233,(1, 47),44	7277,(1, 57),4	7281,(1, 59),88	7369,(1, 72),24	7393,(1, 78),8	7401,(1, 80),80	7481,(1, 88),24	7505,(1, 111),116	30267,(73, 121),4	
