5532
# CPU
10,4,4	19,8,4	23,192,4	28,12,4	32,98,4	36,152,4	40,16,4	44,39,4	48,50,4	52,116,4	56,200,4	60,20,4	64,122,4	68,125,4	94,64,4	151,180,4	178,101,4	182,196,4	202,194,4	328,45,4	397,47,4	401,52,4	412,55,4	532,110,4	536,38,4	540,74,4	544,92,4	548,76,4	976,83,4	1174,70,4	1237,186,4	1241,25,4	1245,78,4	1447,119,4	1453,29,4	1579,149,4	1696,155,4	1807,58,4	1852,48,4	1882,62,4	2125,68,4	2251,114,4	2281,104,4	2302,128,4	2314,137,4	2389,158,4	2452,131,4	2479,41,4	2491,57,4	2521,167,4	2530,188,4	2534,184,4	2538,33,4	2590,182,4	2668,140,4	2716,44,4	2749,72,4	2753,95,4	2757,164,4	2761,170,4	2803,37,4	2815,42,4	2819,46,4	2890,146,4	2953,60,4	2995,66,4	3097,107,4	3103,134,4	3115,161,4	3145,176,4	3214,54,4	4852,89,4	4915,173,4	4966,198,4	5104,80,4	5185,86,4	5302,143,4	5524,190,4	
7,3,4	16,7,4	20,157,4	24,163,4	28,136,4	32,11,4	36,139,4	40,15,4	44,109,4	48,19,4	52,23,4	56,49,4	60,187,4	115,103,4	127,35,4	157,160,4	172,77,4	184,178,4	361,85,4	412,75,4	529,63,4	691,191,4	844,91,4	880,199,4	895,67,4	955,185,4	967,26,4	973,97,4	1030,88,4	1034,100,4	1042,106,4	1054,59,4	1060,181,4	1087,112,4	1096,30,4	1111,73,4	1201,142,4	1240,172,4	1306,124,4	1384,133,4	1417,36,4	1438,65,4	1453,148,4	1489,115,4	1594,121,4	1657,195,4	1693,151,4	1697,193,4	1753,169,4	1768,189,4	1873,43,4	2038,79,4	2143,127,4	2176,71,4	2269,118,4	2380,154,4	2494,166,4	2530,175,4	2551,34,4	2728,61,4	2788,130,4	2824,51,4	2926,53,4	3013,69,4	3019,82,4	3052,94,4	3109,145,4	3148,183,4	3152,197,4	
4,2,4	8,132,4	13,6,4	17,22,4	21,113,4	25,135,4	29,10,4	33,144,4	37,14,4	41,171,4	45,18,4	49,27,4	53,147,4	57,179,4	394,32,4	466,87,4	478,117,4	482,156,4	514,108,4	529,174,4	676,81,4	680,84,4	736,123,4	745,120,4	775,177,4	925,141,4	1030,102,4	1060,111,4	1126,129,4	1156,105,4	1216,159,4	1255,96,4	1450,138,4	1600,153,4	1714,162,4	2056,90,4	2149,93,4	2296,126,4	2317,150,4	2491,165,4	2527,168,4	2656,40,4	2662,56,4	2779,24,4	2797,31,4	3094,99,4	5531,201,1	
0,0,1	1,1,4	5,5,4	9,9,4	13,13,4	17,17,4	2437,28,4	2449,21,4	
# Incoming
7,(0, 4),3	16,(0, 8),3	19,(2, 72),6	25,(0, 12),3	28,(3, 25),3	31,(3, 180),3	34,(0, 16),3	37,(6, 39),6	43,(0, 20),3	46,(3, 122),12	58,(3, 125),9	67,(3, 134),9	76,(7, 64),18	94,(7, 78),3	97,(7, 137),6	103,(7, 173),12	115,(2, 110),12	127,(11, 54),21	148,(11, 180),3	151,(15, 92),3	154,(15, 134),3	157,(2, 170),18	175,(19, 101),3	178,(19, 196),3	184,(2, 194),18	202,(3, 107),123	325,(10, 45),3	328,(1, 33),12	340,(1, 42),51	391,(1, 47),6	397,(1, 52),3	400,(1, 55),12	412,(6, 68),6	418,(6, 176),33	451,(7, 110),81	532,(14, 38),3	535,(14, 74),3	538,(14, 92),3	541,(1, 76),6	547,(1, 80),417	964,(1, 83),12	976,(7, 158),117	1093,(10, 48),63	1156,(10, 70),18	1174,(10, 128),27	1201,(10, 198),15	1216,(14, 186),21	1237,(18, 25),3	1240,(5, 78),3	1243,(15, 167),12	1255,(5, 119),192	1450,(18, 29),3	1453,(5, 149),126	1579,(19, 41),12	1600,(5, 155),96	1696,(10, 58),111	1810,(9, 44),27	1837,(9, 48),15	1852,(9, 62),30	1882,(11, 57),198	2080,(11, 68),45	2149,(9, 114),102	2251,(15, 104),30	2296,(9, 128),6	2302,(9, 137),12	2317,(9, 158),72	2389,(11, 131),63	2452,(18, 41),27	2479,(18, 57),12	2494,(9, 167),27	2521,(18, 188),9	2530,(9, 184),3	2533,(13, 33),3	2536,(11, 182),54	2590,(14, 140),78	2668,(15, 44),48	2728,(13, 72),21	2749,(13, 95),3	2752,(13, 164),3	2755,(13, 170),6	2761,(13, 190),12	2797,(17, 37),6	2803,(17, 42),12	2815,(17, 46),3	2818,(14, 146),72	2926,(17, 60),27	2953,(17, 66),42	3019,(17, 89),27	3094,(17, 107),3	3097,(17, 134),6	3103,(17, 143),3	3109,(17, 161),6	3115,(17, 176),30	3145,(15, 54),69	3214,(15, 89),1638	4852,(18, 173),63	4915,(18, 198),51	4966,(19, 80),138	5104,(19, 86),81	5185,(19, 143),117	5302,(19, 190),222	
4,(0, 3),3	8,(2, 36),3	13,(0, 7),3	16,(4, 69),3	19,(4, 136),3	22,(0, 11),3	25,(4, 139),3	28,(6, 53),3	31,(0, 15),3	34,(6, 59),3	37,(8, 191),3	40,(0, 19),3	43,(10, 85),3	46,(1, 23),6	52,(2, 103),63	115,(12, 35),12	127,(2, 133),9	136,(2, 160),21	157,(8, 77),15	172,(20, 175),3	175,(2, 178),9	184,(4, 73),117	301,(4, 85),60	361,(6, 30),45	406,(6, 75),6	412,(1, 63),117	529,(1, 65),12	541,(6, 34),21	562,(6, 100),84	646,(6, 115),36	682,(6, 191),9	691,(6, 193),9	700,(8, 26),36	736,(8, 43),90	826,(8, 91),18	844,(8, 199),36	880,(12, 67),15	895,(12, 185),60	955,(10, 26),12	967,(10, 97),6	973,(10, 172),3	976,(1, 88),54	1030,(1, 100),3	1033,(1, 106),9	1042,(14, 59),12	1054,(14, 172),3	1057,(14, 181),3	1060,(1, 112),27	1087,(16, 30),9	1096,(16, 73),15	1126,(1, 142),75	1201,(1, 145),12	1216,(1, 172),24	1240,(10, 124),66	1306,(10, 133),78	1384,(14, 36),33	1417,(14, 65),21	1438,(14, 166),12	1450,(5, 148),3	1453,(14, 115),36	1489,(14, 121),105	1594,(14, 195),63	1657,(16, 151),36	1693,(18, 193),3	1714,(5, 169),39	1753,(5, 189),15	1768,(9, 34),18	1786,(9, 43),24	1810,(16, 43),63	1882,(9, 79),156	2038,(16, 127),105	2143,(20, 71),33	2251,(9, 118),18	2269,(20, 154),111	2491,(9, 166),3	2527,(9, 175),3	2536,(13, 34),15	2662,(13, 61),66	2728,(18, 130),60	2818,(17, 51),6	2824,(17, 53),102	2995,(17, 69),18	3013,(17, 82),6	3046,(17, 94),6	3106,(17, 145),3	3145,(17, 183),3	3148,(17, 197),3	
1,(0, 2),3	10,(0, 6),3	13,(3, 22),3	19,(0, 10),3	22,(3, 144),6	28,(0, 14),3	31,(4, 93),6	37,(0, 18),3	40,(4, 174),3	43,(7, 108),3	46,(8, 147),3	49,(8, 159),3	52,(1, 31),276	328,(7, 32),66	394,(8, 162),21	415,(8, 168),45	460,(192, 201),3	463,(12, 87),3	466,(12, 117),12	478,(12, 156),3	481,(98, 201),3	484,(152, 201),3	487,(16, 31),6	493,(39, 201),3	496,(50, 201),3	499,(116, 201),3	502,(200, 201),3	505,(20, 108),9	514,(20, 174),15	529,(122, 201),3	532,(157, 201),3	535,(163, 201),3	538,(136, 201),3	541,(11, 81),135	676,(11, 84),3	679,(11, 123),57	736,(139, 201),3	739,(15, 120),6	745,(15, 177),30	775,(109, 201),3	778,(19, 56),144	922,(19, 141),3	925,(19, 153),27	952,(23, 201),3	955,(49, 201),3	958,(20, 102),72	1030,(125, 201),3	1033,(64, 201),3	1036,(180, 201),3	1039,(101, 201),3	1042,(1, 111),18	1060,(196, 201),3	1063,(194, 201),3	1066,(45, 201),3	1069,(47, 201),3	1072,(52, 201),3	1075,(55, 201),3	1078,(110, 201),3	1081,(38, 201),3	1084,(74, 201),3	1087,(1, 129),39	1126,(20, 105),30	1156,(187, 201),3	1159,(103, 201),3	1162,(35, 201),3	1165,(160, 201),3	1168,(77, 201),3	1171,(178, 201),3	1174,(85, 201),3	1177,(75, 201),3	1180,(63, 201),3	1183,(92, 201),3	1186,(76, 201),3	1189,(191, 201),3	1192,(91, 201),3	1195,(199, 201),3	1198,(67, 201),3	1201,(185, 201),3	1204,(26, 201),3	1207,(97, 201),3	1210,(83, 201),3	1213,(1, 159),3	1216,(88, 201),3	1219,(100, 201),3	1222,(106, 201),3	1225,(59, 201),3	1228,(181, 201),3	1231,(112, 201),3	1234,(30, 201),3	1237,(73, 201),3	1240,(70, 201),3	1243,(5, 96),12	1255,(142, 201),3	1258,(186, 201),3	1261,(172, 201),3	1264,(25, 201),3	1267,(78, 201),3	1310,(124, 201),3	1388,(133, 201),3	1421,(36, 201),3	1442,(65, 201),3	1447,(5, 138),3	1451,(119, 201),3	1457,(29, 201),3	1460,(148, 201),3	1493,(115, 201),3	1579,(5, 150),3	1582,(5, 153),18	1600,(149, 201),3	1603,(121, 201),3	1661,(195, 201),3	1696,(5, 162),18	1714,(151, 201),3	1717,(155, 201),3	1720,(193, 201),3	1757,(169, 201),3	1772,(189, 201),3	1873,(58, 201),3	1876,(48, 201),3	1879,(43, 201),3	1886,(62, 201),3	2038,(9, 90),18	2056,(9, 93),93	2149,(79, 201),3	2152,(127, 201),3	2176,(68, 201),3	2180,(71, 201),3	2255,(114, 201),3	2269,(9, 126),27	2296,(118, 201),3	2314,(9, 150),3	2380,(104, 201),3	2383,(128, 201),3	2386,(137, 201),3	2389,(9, 165),102	2491,(154, 201),3	2494,(158, 201),3	2497,(131, 201),3	2500,(41, 201),3	2503,(57, 201),3	2506,(166, 201),3	2521,(9, 168),6	2527,(167, 201),3	2534,(188, 201),3	2538,(184, 201),3	2542,(33, 201),3	2551,(13, 40),105	2656,(13, 56),6	2662,(175, 201),3	2665,(34, 201),3	2668,(182, 201),3	2672,(140, 201),3	2720,(44, 201),3	2732,(61, 201),3	2753,(72, 201),3	2757,(95, 201),3	2761,(164, 201),3	2765,(170, 201),3	2773,(17, 24),6	2779,(17, 31),18	2797,(130, 201),3	2807,(37, 201),3	2819,(42, 201),3	2823,(46, 201),3	2828,(51, 201),3	2894,(146, 201),3	2930,(53, 201),3	2957,(60, 201),3	2999,(66, 201),3	3017,(69, 201),3	3023,(82, 201),3	3052,(17, 99),42	3094,(94, 201),3	3101,(107, 201),3	3107,(134, 201),3	3113,(145, 201),3	3119,(161, 201),3	3151,(28, 201),3	3154,(21, 201),3	3157,(176, 201),3	3218,(54, 201),3	4852,(183, 201),3	4855,(197, 201),3	4858,(89, 201),3	4919,(173, 201),3	4970,(198, 201),3	5108,(80, 201),3	5189,(86, 201),3	5306,(143, 201),3	5528,(190, 201),3	
1807,(18, 28),630	2437,(20, 21),12	
# Outgoing
16,(4, 69),3	19,(4, 136),3	25,(4, 139),3	31,(4, 93),6	37,(8, 191),3	40,(4, 174),3	46,(8, 147),3	49,(8, 159),3	115,(12, 35),12	157,(8, 77),15	172,(20, 175),3	184,(4, 73),117	301,(4, 85),60	394,(8, 162),21	415,(8, 168),45	460,(192, 201),3	463,(12, 87),3	466,(12, 117),12	478,(12, 156),3	481,(98, 201),3	484,(152, 201),3	487,(16, 31),6	493,(39, 201),3	496,(50, 201),3	499,(116, 201),3	502,(200, 201),3	505,(20, 108),9	514,(20, 174),15	529,(122, 201),3	700,(8, 26),36	736,(8, 43),90	826,(8, 91),18	844,(8, 199),36	880,(12, 67),15	895,(12, 185),60	958,(20, 102),72	1030,(125, 201),3	1033,(64, 201),3	1036,(180, 201),3	1039,(101, 201),3	1060,(196, 201),3	1063,(194, 201),3	1066,(45, 201),3	1069,(47, 201),3	1072,(52, 201),3	1075,(55, 201),3	1078,(110, 201),3	1081,(38, 201),3	1084,(74, 201),3	1087,(16, 30),9	1096,(16, 73),15	1126,(20, 105),30	1183,(92, 201),3	1186,(76, 201),3	1210,(83, 201),3	1240,(70, 201),3	1258,(186, 201),3	1264,(25, 201),3	1267,(78, 201),3	1451,(119, 201),3	1457,(29, 201),3	1600,(149, 201),3	1657,(16, 151),36	1717,(155, 201),3	1810,(16, 43),63	1873,(58, 201),3	1876,(48, 201),3	1886,(62, 201),3	2038,(16, 127),105	2143,(20, 71),33	2176,(68, 201),3	2255,(114, 201),3	2269,(20, 154),111	2380,(104, 201),3	2383,(128, 201),3	2386,(137, 201),3	2437,(20, 21),12	2494,(158, 201),3	2497,(131, 201),3	2500,(41, 201),3	2503,(57, 201),3	2527,(167, 201),3	2534,(188, 201),3	2538,(184, 201),3	2542,(33, 201),3	2668,(182, 201),3	2672,(140, 201),3	2720,(44, 201),3	2753,(72, 201),3	2757,(95, 201),3	2761,(164, 201),3	2765,(170, 201),3	2807,(37, 201),3	2819,(42, 201),3	2823,(46, 201),3	2894,(146, 201),3	2957,(60, 201),3	2999,(66, 201),3	3101,(107, 201),3	3107,(134, 201),3	3119,(161, 201),3	3157,(176, 201),3	3218,(54, 201),3	4858,(89, 201),3	4919,(173, 201),3	4970,(198, 201),3	5108,(80, 201),3	5189,(86, 201),3	5306,(143, 201),3	5528,(190, 201),3	
13,(3, 22),3	22,(3, 144),6	28,(3, 25),3	31,(3, 180),3	43,(7, 108),3	46,(3, 122),12	58,(3, 125),9	67,(3, 134),9	76,(7, 64),18	94,(7, 78),3	97,(7, 137),6	103,(7, 173),12	127,(11, 54),21	148,(11, 180),3	151,(15, 92),3	154,(15, 134),3	175,(19, 101),3	178,(19, 196),3	202,(3, 107),123	328,(7, 32),66	451,(7, 110),81	532,(157, 201),3	535,(163, 201),3	538,(136, 201),3	541,(11, 81),135	676,(11, 84),3	679,(11, 123),57	736,(139, 201),3	739,(15, 120),6	745,(15, 177),30	775,(109, 201),3	778,(19, 56),144	922,(19, 141),3	925,(19, 153),27	952,(23, 201),3	955,(49, 201),3	976,(7, 158),117	1156,(187, 201),3	1159,(103, 201),3	1162,(35, 201),3	1165,(160, 201),3	1168,(77, 201),3	1171,(178, 201),3	1174,(85, 201),3	1177,(75, 201),3	1180,(63, 201),3	1189,(191, 201),3	1192,(91, 201),3	1195,(199, 201),3	1198,(67, 201),3	1201,(185, 201),3	1204,(26, 201),3	1207,(97, 201),3	1216,(88, 201),3	1219,(100, 201),3	1222,(106, 201),3	1225,(59, 201),3	1228,(181, 201),3	1231,(112, 201),3	1234,(30, 201),3	1237,(73, 201),3	1243,(15, 167),12	1255,(142, 201),3	1261,(172, 201),3	1310,(124, 201),3	1388,(133, 201),3	1421,(36, 201),3	1442,(65, 201),3	1460,(148, 201),3	1493,(115, 201),3	1579,(19, 41),12	1603,(121, 201),3	1661,(195, 201),3	1714,(151, 201),3	1720,(193, 201),3	1757,(169, 201),3	1772,(189, 201),3	1879,(43, 201),3	1882,(11, 57),198	2080,(11, 68),45	2149,(79, 201),3	2152,(127, 201),3	2180,(71, 201),3	2251,(15, 104),30	2296,(118, 201),3	2389,(11, 131),63	2491,(154, 201),3	2506,(166, 201),3	2536,(11, 182),54	2662,(175, 201),3	2665,(34, 201),3	2668,(15, 44),48	2732,(61, 201),3	2797,(130, 201),3	2828,(51, 201),3	2930,(53, 201),3	3017,(69, 201),3	3023,(82, 201),3	3094,(94, 201),3	3113,(145, 201),3	3145,(15, 54),69	3214,(15, 89),1638	4852,(183, 201),3	4855,(197, 201),3	4966,(19, 80),138	5104,(19, 86),81	5185,(19, 143),117	5302,(19, 190),222	
8,(2, 36),3	19,(2, 72),6	28,(6, 53),3	34,(6, 59),3	37,(6, 39),6	43,(10, 85),3	52,(2, 103),63	115,(2, 110),12	127,(2, 133),9	136,(2, 160),21	157,(2, 170),18	175,(2, 178),9	184,(2, 194),18	325,(10, 45),3	361,(6, 30),45	406,(6, 75),6	412,(6, 68),6	418,(6, 176),33	532,(14, 38),3	535,(14, 74),3	538,(14, 92),3	541,(6, 34),21	562,(6, 100),84	646,(6, 115),36	682,(6, 191),9	691,(6, 193),9	955,(10, 26),12	967,(10, 97),6	973,(10, 172),3	1042,(14, 59),12	1054,(14, 172),3	1057,(14, 181),3	1093,(10, 48),63	1156,(10, 70),18	1174,(10, 128),27	1201,(10, 198),15	1216,(14, 186),21	1237,(18, 25),3	1240,(10, 124),66	1306,(10, 133),78	1384,(14, 36),33	1417,(14, 65),21	1438,(14, 166),12	1450,(18, 29),3	1453,(14, 115),36	1489,(14, 121),105	1594,(14, 195),63	1693,(18, 193),3	1696,(10, 58),111	1807,(18, 28),630	2452,(18, 41),27	2479,(18, 57),12	2521,(18, 188),9	2590,(14, 140),78	2728,(18, 130),60	2818,(14, 146),72	4852,(18, 173),63	4915,(18, 198),51	
1,(0, 2),3	4,(0, 3),3	7,(0, 4),3	10,(0, 6),3	13,(0, 7),3	16,(0, 8),3	19,(0, 10),3	22,(0, 11),3	25,(0, 12),3	28,(0, 14),3	31,(0, 15),3	34,(0, 16),3	37,(0, 18),3	40,(0, 19),3	43,(0, 20),3	46,(1, 23),6	52,(1, 31),276	328,(1, 33),12	340,(1, 42),51	391,(1, 47),6	397,(1, 52),3	400,(1, 55),12	412,(1, 63),117	529,(1, 65),12	541,(1, 76),6	547,(1, 80),417	964,(1, 83),12	976,(1, 88),54	1030,(1, 100),3	1033,(1, 106),9	1042,(1, 111),18	1060,(1, 112),27	1087,(1, 129),39	1126,(1, 142),75	1201,(1, 145),12	1213,(1, 159),3	1216,(1, 172),24	1240,(5, 78),3	1243,(5, 96),12	1255,(5, 119),192	1447,(5, 138),3	1450,(5, 148),3	1453,(5, 149),126	1579,(5, 150),3	1582,(5, 153),18	1600,(5, 155),96	1696,(5, 162),18	1714,(5, 169),39	1753,(5, 189),15	1768,(9, 34),18	1786,(9, 43),24	1810,(9, 44),27	1837,(9, 48),15	1852,(9, 62),30	1882,(9, 79),156	2038,(9, 90),18	2056,(9, 93),93	2149,(9, 114),102	2251,(9, 118),18	2269,(9, 126),27	2296,(9, 128),6	2302,(9, 137),12	2314,(9, 150),3	2317,(9, 158),72	2389,(9, 165),102	2491,(9, 166),3	2494,(9, 167),27	2521,(9, 168),6	2527,(9, 175),3	2530,(9, 184),3	2533,(13, 33),3	2536,(13, 34),15	2551,(13, 40),105	2656,(13, 56),6	2662,(13, 61),66	2728,(13, 72),21	2749,(13, 95),3	2752,(13, 164),3	2755,(13, 170),6	2761,(13, 190),12	2773,(17, 24),6	2779,(17, 31),18	2797,(17, 37),6	2803,(17, 42),12	2815,(17, 46),3	2818,(17, 51),6	2824,(17, 53),102	2926,(17, 60),27	2953,(17, 66),42	2995,(17, 69),18	3013,(17, 82),6	3019,(17, 89),27	3046,(17, 94),6	3052,(17, 99),42	3094,(17, 107),3	3097,(17, 134),6	3103,(17, 143),3	3106,(17, 145),3	3109,(17, 161),6	3115,(17, 176),30	3145,(17, 183),3	3148,(17, 197),3	3151,(28, 201),3	3154,(21, 201),3	
