27922
# CPU
57,3,24	113,6,24	137,99,24	169,9,24	193,75,24	225,12,24	249,120,24	281,15,24	305,22,24	329,138,24	353,18,24	377,96,24	401,177,24	425,183,24	449,192,24	473,90,24	1541,27,24	1633,36,24	1693,54,24	1801,87,24	3337,63,24	3765,144,24	3841,171,24	3941,81,24	4093,126,24	4445,33,24	4469,45,24	4493,132,24	4673,159,24	4805,102,24	4853,51,24	4877,78,24	4901,84,24	4925,108,24	4949,198,24	5189,153,24	5373,105,24	6641,42,24	6665,123,24	6689,180,24	23189,57,24	23213,93,24	23237,156,24	23261,165,24	23285,66,24	23309,135,24	23333,186,24	23357,30,24	23381,69,24	23405,117,24	23493,174,24	23933,72,24	23957,114,24	23981,129,24	24005,141,24	24029,150,24	24053,195,24	24113,39,24	24145,60,24	24329,111,24	24457,162,24	24489,168,24	24545,189,24	24849,24,24	25009,48,24	25773,147,24	
29,2,24	53,53,24	85,5,24	109,26,24	133,146,24	157,8,24	181,95,24	205,11,24	229,119,24	253,14,24	277,110,24	301,152,24	325,17,24	349,50,24	373,140,24	397,71,24	421,83,24	445,80,24	469,20,24	493,65,24	517,23,24	541,101,24	681,104,24	725,122,24	1325,128,24	1537,131,24	1577,29,24	1605,35,24	1629,173,24	1693,47,24	1929,59,24	2169,41,24	2765,116,24	3009,170,24	3033,194,24	3085,98,24	3197,32,24	3333,44,24	3753,125,24	3837,164,24	3861,188,24	3889,56,24	3913,62,24	3937,89,24	3961,86,24	4069,161,24	4125,137,24	4453,74,24	4477,77,24	4657,134,24	4697,158,24	4841,191,24	4865,200,24	4889,38,24	4913,107,24	4937,113,24	4961,155,24	5221,182,24	5349,92,24	5397,167,24	5421,185,24	5525,197,24	5549,176,24	5573,179,24	6285,143,24	6797,68,24	7133,149,24	
0,0,1	1,13,24	25,7,24	49,19,24	73,4,24	97,10,24	121,16,24	145,1,24	169,115,24	193,133,24	217,160,24	241,91,24	265,76,24	289,46,24	313,109,24	337,25,24	361,136,24	385,124,24	409,163,24	433,157,24	457,88,24	481,142,24	505,40,24	4581,103,24	4621,73,24	4685,178,24	4709,199,24	4777,184,24	4801,196,24	5053,151,24	5165,85,24	5609,190,24	5717,79,24	5761,31,24	5785,37,24	5989,58,24	6057,70,24	6117,112,24	6637,166,24	6661,175,24	6825,82,24	6849,139,24	7153,193,24	23153,49,24	23181,148,24	23241,28,24	23461,169,24	23533,34,24	23581,64,24	23981,154,24	24141,55,24	24165,61,24	24189,67,24	24213,94,24	24245,100,24	24409,127,24	24441,145,24	24493,181,24	24541,187,24	24741,21,24	25005,43,24	25029,52,24	25053,97,24	25077,106,24	25101,118,24	25745,121,24	25769,130,24	25833,172,24	27921,201,1	
# Incoming
29,(0, 3),28	85,(0, 6),28	141,(0, 9),28	197,(0, 12),28	253,(0, 15),28	309,(0, 18),28	365,(13, 27),16	381,(13, 60),16	401,(13, 90),52	453,(2, 27),36	681,(13, 111),16	1537,(7, 27),4	1605,(7, 36),28	1633,(7, 45),12	1681,(7, 54),12	1701,(7, 78),68	1793,(7, 87),8	1801,(7, 93),4	1805,(7, 114),364	2765,(7, 126),8	2773,(7, 141),52	2825,(7, 159),32	3009,(7, 174),12	3025,(7, 198),64	3333,(19, 63),4	3753,(19, 144),12	3765,(19, 147),48	3837,(19, 171),4	3893,(4, 66),4	3901,(4, 81),40	4029,(4, 117),20	4049,(4, 126),44	4093,(4, 132),28	4145,(4, 165),4	4149,(4, 174),20	4441,(10, 33),4	4445,(10, 45),4	4461,(10, 117),8	4469,(10, 132),12	4521,(2, 111),96	4617,(2, 123),4	4621,(2, 147),36	4657,(2, 159),16	4685,(2, 180),12	4697,(10, 102),108	4805,(10, 150),16	4825,(5, 51),28	4853,(5, 60),12	4865,(5, 78),4	4869,(5, 84),4	4873,(5, 108),32	4905,(5, 111),4	4909,(5, 198),12	4921,(10, 153),268	5189,(10, 174),64	5253,(16, 42),4	5257,(16, 48),20	5277,(16, 57),16	5349,(16, 105),24	5373,(16, 156),4	5405,(5, 162),1224	6629,(1, 30),8	6637,(1, 42),4	6641,(1, 123),4	6645,(1, 180),4	6649,(5, 186),16392	23041,(16, 117),136	23177,(1, 57),12	23189,(1, 93),12	23201,(1, 156),32	23233,(1, 165),12	23245,(8, 66),4	23249,(8, 135),20	23269,(8, 186),4	23273,(11, 30),16	23289,(11, 69),64	23365,(11, 114),8	23373,(11, 117),12	23385,(11, 141),4	23461,(11, 174),32	23589,(14, 72),344	23933,(14, 114),12	23965,(14, 129),4	23969,(14, 141),4	23973,(14, 150),4	23981,(14, 168),4	23985,(14, 195),20	24077,(17, 39),36	24141,(17, 60),4	24317,(17, 111),12	24441,(17, 162),16	24457,(17, 168),32	24541,(17, 189),4	24741,(20, 24),108	25005,(20, 48),4	25761,(20, 147),12	
1,(0, 2),28	57,(0, 5),28	85,(3, 26),8	93,(3, 71),8	101,(3, 74),8	109,(3, 125),4	113,(0, 8),28	141,(3, 140),28	169,(0, 11),28	197,(6, 107),4	201,(6, 110),12	213,(6, 113),4	217,(6, 152),8	225,(0, 14),28	253,(6, 164),4	257,(9, 44),16	273,(9, 152),4	277,(12, 59),4	281,(0, 17),28	309,(12, 83),8	317,(12, 164),8	325,(15, 50),12	337,(0, 20),28	365,(12, 29),32	397,(13, 86),4	401,(6, 170),36	437,(15, 65),4	441,(15, 170),8	449,(18, 23),4	453,(13, 104),228	681,(15, 113),16	697,(13, 122),28	725,(13, 128),600	1325,(13, 131),212	1541,(7, 29),36	1577,(7, 35),28	1605,(15, 173),8	1613,(15, 182),28	1645,(7, 47),36	1681,(18, 47),12	1693,(7, 77),8	1701,(3, 86),56	1757,(18, 92),8	1769,(7, 86),24	1793,(3, 59),136	1929,(3, 92),136	2065,(6, 41),104	2169,(7, 116),596	2765,(12, 86),64	2829,(18, 86),16	2857,(7, 170),152	3021,(7, 194),4	3025,(15, 98),60	3089,(7, 200),52	3141,(19, 32),56	3197,(19, 44),136	3337,(19, 107),4	3341,(19, 125),412	3753,(15, 107),44	3813,(19, 155),16	3829,(19, 161),4	3833,(19, 164),4	3841,(19, 188),4	3845,(19, 191),40	3885,(4, 56),4	3889,(4, 62),4	3897,(4, 77),4	3901,(18, 89),24	3941,(4, 86),4	3945,(4, 92),84	4029,(18, 161),40	4069,(18, 176),36	4121,(4, 137),4	4125,(4, 143),20	4169,(4, 185),272	4449,(10, 74),4	4453,(10, 77),8	4481,(10, 134),176	4657,(10, 149),4	4661,(10, 158),36	4697,(15, 191),96	4821,(10, 191),20	4841,(10, 200),4	4845,(16, 38),28	4873,(16, 107),8	4881,(16, 113),24	4905,(16, 155),16	5053,(6, 182),168	5293,(16, 92),56	5377,(16, 167),20	5397,(16, 185),12	5409,(16, 197),116	5525,(1, 176),4	5529,(1, 179),8	6117,(15, 143),168	6477,(18, 68),320	6853,(18, 149),280	
489,(2, 49),4032	4521,(3, 34),4	4525,(3, 103),56	4581,(6, 37),20	4601,(6, 73),20	4621,(6, 112),4	4625,(99, 201),36	4661,(9, 31),4	4665,(9, 43),8	4673,(2, 178),12	4685,(9, 85),4	4689,(9, 127),4	4693,(9, 199),4	4697,(2, 184),80	4777,(2, 196),12	4789,(53, 201),36	4825,(3, 151),228	5053,(5, 52),12	5065,(5, 61),92	5157,(5, 67),4	5161,(5, 85),4	5165,(5, 100),92	5257,(5, 121),116	5373,(5, 148),32	5405,(6, 145),88	5493,(9, 169),12	5505,(9, 187),84	5589,(9, 190),20	5609,(75, 201),36	5645,(12, 43),16	5661,(12, 79),56	5717,(12, 181),4	5721,(120, 201),36	5757,(15, 31),4	5761,(15, 37),4	5765,(15, 58),224	5989,(15, 67),64	6053,(15, 70),4	6057,(15, 112),60	6285,(22, 201),36	6321,(138, 201),36	6357,(18, 43),4	6361,(18, 67),116	6629,(5, 166),8	6637,(5, 175),12	6797,(18, 82),28	6825,(18, 139),12	6837,(18, 145),16	7133,(18, 169),8	7141,(18, 193),12	7153,(96, 201),36	7189,(177, 201),36	7225,(183, 201),36	7261,(192, 201),36	7297,(90, 201),36	7333,(27, 201),36	7369,(36, 201),36	7405,(54, 201),36	7441,(87, 201),36	7477,(63, 201),36	7513,(144, 201),36	7549,(171, 201),36	7585,(81, 201),36	7621,(126, 201),36	7657,(33, 201),36	7693,(45, 201),36	7729,(132, 201),36	7765,(159, 201),36	7801,(102, 201),36	7837,(51, 201),36	7873,(78, 201),36	7909,(84, 201),36	7945,(108, 201),36	7981,(198, 201),36	8017,(153, 201),36	8053,(105, 201),36	8089,(42, 201),36	8125,(123, 201),36	8161,(180, 201),36	23041,(5, 187),12	23053,(26, 201),36	23089,(146, 201),36	23125,(8, 49),28	23153,(8, 55),4	23157,(8, 148),24	23181,(95, 201),36	23217,(11, 28),24	23241,(11, 181),4	23245,(57, 201),36	23281,(93, 201),36	23317,(156, 201),36	23353,(11, 97),12	23389,(11, 169),72	23493,(119, 201),36	23529,(14, 34),4	23533,(14, 43),24	23557,(14, 64),24	23581,(14, 67),8	23589,(165, 201),36	23625,(66, 201),36	23661,(135, 201),36	23697,(186, 201),36	23733,(30, 201),36	23769,(69, 201),36	23805,(117, 201),36	23841,(174, 201),36	23945,(14, 118),20	23977,(14, 154),4	24005,(110, 201),36	24041,(152, 201),36	24077,(72, 201),36	24113,(17, 43),4	24117,(17, 55),24	24145,(17, 61),20	24165,(17, 67),4	24169,(17, 94),28	24197,(17, 100),48	24245,(17, 106),72	24329,(17, 127),80	24409,(17, 145),32	24441,(114, 201),36	24489,(17, 181),4	24493,(17, 187),48	24545,(50, 201),36	24581,(140, 201),36	24617,(71, 201),36	24653,(83, 201),36	24689,(80, 201),36	24725,(20, 21),16	24741,(129, 201),36	24777,(141, 201),36	24813,(150, 201),36	24849,(20, 43),156	25009,(20, 52),4	25013,(20, 97),12	25025,(20, 106),4	25029,(20, 118),24	25053,(20, 121),692	25745,(20, 130),16	25773,(20, 172),60	25833,(65, 201),36	25869,(23, 201),36	25905,(101, 201),36	25941,(104, 201),36	25977,(122, 201),36	26013,(128, 201),36	26049,(131, 201),36	26085,(29, 201),36	26121,(35, 201),36	26157,(173, 201),36	26193,(47, 201),36	26229,(59, 201),36	26265,(41, 201),36	26301,(116, 201),36	26337,(170, 201),36	26373,(194, 201),36	26409,(98, 201),36	26445,(32, 201),36	26481,(44, 201),36	26517,(125, 201),36	26553,(164, 201),36	26589,(188, 201),36	26625,(56, 201),36	26661,(62, 201),36	26697,(89, 201),36	26733,(86, 201),36	26769,(161, 201),36	26805,(137, 201),36	26841,(74, 201),36	26877,(77, 201),36	26913,(134, 201),36	26949,(158, 201),36	26985,(191, 201),36	27021,(200, 201),36	27057,(38, 201),36	27093,(107, 201),36	27129,(113, 201),36	27165,(155, 201),36	27201,(182, 201),36	27237,(92, 201),36	27273,(167, 201),36	27309,(185, 201),36	27345,(197, 201),36	27381,(176, 201),36	27417,(179, 201),36	27453,(143, 201),36	27489,(68, 201),36	27525,(149, 201),36	27561,(195, 201),36	27597,(39, 201),36	27633,(60, 201),36	27669,(111, 201),36	27705,(162, 201),36	27741,(168, 201),36	27777,(189, 201),36	27813,(24, 201),36	27849,(48, 201),36	27885,(147, 201),36	
# Outgoing
85,(3, 26),8	93,(3, 71),8	101,(3, 74),8	109,(3, 125),4	141,(3, 140),28	197,(6, 107),4	201,(6, 110),12	213,(6, 113),4	217,(6, 152),8	253,(6, 164),4	257,(9, 44),16	273,(9, 152),4	277,(12, 59),4	309,(12, 83),8	317,(12, 164),8	325,(15, 50),12	365,(12, 29),32	401,(6, 170),36	437,(15, 65),4	441,(15, 170),8	449,(18, 23),4	681,(15, 113),16	1605,(15, 173),8	1613,(15, 182),28	1681,(18, 47),12	1701,(3, 86),56	1757,(18, 92),8	1793,(3, 59),136	1929,(3, 92),136	2065,(6, 41),104	2765,(12, 86),64	2829,(18, 86),16	3025,(15, 98),60	3753,(15, 107),44	3901,(18, 89),24	4029,(18, 161),40	4069,(18, 176),36	4521,(3, 34),4	4525,(3, 103),56	4581,(6, 37),20	4601,(6, 73),20	4621,(6, 112),4	4625,(99, 201),36	4661,(9, 31),4	4665,(9, 43),8	4685,(9, 85),4	4689,(9, 127),4	4693,(9, 199),4	4697,(15, 191),96	4825,(3, 151),228	5053,(6, 182),168	5405,(6, 145),88	5493,(9, 169),12	5505,(9, 187),84	5589,(9, 190),20	5609,(75, 201),36	5645,(12, 43),16	5661,(12, 79),56	5717,(12, 181),4	5721,(120, 201),36	5757,(15, 31),4	5761,(15, 37),4	5765,(15, 58),224	5989,(15, 67),64	6053,(15, 70),4	6057,(15, 112),60	6117,(15, 143),168	6285,(22, 201),36	6321,(138, 201),36	6357,(18, 43),4	6361,(18, 67),116	6477,(18, 68),320	6797,(18, 82),28	6825,(18, 139),12	6837,(18, 145),16	6853,(18, 149),280	7133,(18, 169),8	7141,(18, 193),12	7153,(96, 201),36	7189,(177, 201),36	7225,(183, 201),36	7261,(192, 201),36	7297,(90, 201),36	7333,(27, 201),36	7369,(36, 201),36	7405,(54, 201),36	7441,(87, 201),36	7477,(63, 201),36	7513,(144, 201),36	7549,(171, 201),36	7585,(81, 201),36	7621,(126, 201),36	7657,(33, 201),36	7693,(45, 201),36	7729,(132, 201),36	7765,(159, 201),36	7801,(102, 201),36	7837,(51, 201),36	7873,(78, 201),36	7909,(84, 201),36	7945,(108, 201),36	7981,(198, 201),36	8017,(153, 201),36	8053,(105, 201),36	8089,(42, 201),36	8125,(123, 201),36	8161,(180, 201),36	23245,(57, 201),36	23281,(93, 201),36	23317,(156, 201),36	23589,(165, 201),36	23625,(66, 201),36	23661,(135, 201),36	23697,(186, 201),36	23733,(30, 201),36	23769,(69, 201),36	23805,(117, 201),36	23841,(174, 201),36	24077,(72, 201),36	24441,(114, 201),36	24741,(129, 201),36	24777,(141, 201),36	24813,(150, 201),36	27561,(195, 201),36	27597,(39, 201),36	27633,(60, 201),36	27669,(111, 201),36	27705,(162, 201),36	27741,(168, 201),36	27777,(189, 201),36	27813,(24, 201),36	27849,(48, 201),36	27885,(147, 201),36	
453,(2, 27),36	489,(2, 49),4032	4521,(2, 111),96	4617,(2, 123),4	4621,(2, 147),36	4657,(2, 159),16	4673,(2, 178),12	4685,(2, 180),12	4697,(2, 184),80	4777,(2, 196),12	4789,(53, 201),36	4825,(5, 51),28	4853,(5, 60),12	4865,(5, 78),4	4869,(5, 84),4	4873,(5, 108),32	4905,(5, 111),4	4909,(5, 198),12	5053,(5, 52),12	5065,(5, 61),92	5157,(5, 67),4	5161,(5, 85),4	5165,(5, 100),92	5257,(5, 121),116	5373,(5, 148),32	5405,(5, 162),1224	6629,(5, 166),8	6637,(5, 175),12	6649,(5, 186),16392	23041,(5, 187),12	23053,(26, 201),36	23089,(146, 201),36	23125,(8, 49),28	23153,(8, 55),4	23157,(8, 148),24	23181,(95, 201),36	23217,(11, 28),24	23241,(11, 181),4	23245,(8, 66),4	23249,(8, 135),20	23269,(8, 186),4	23273,(11, 30),16	23289,(11, 69),64	23353,(11, 97),12	23365,(11, 114),8	23373,(11, 117),12	23385,(11, 141),4	23389,(11, 169),72	23461,(11, 174),32	23493,(119, 201),36	23529,(14, 34),4	23533,(14, 43),24	23557,(14, 64),24	23581,(14, 67),8	23589,(14, 72),344	23933,(14, 114),12	23945,(14, 118),20	23965,(14, 129),4	23969,(14, 141),4	23973,(14, 150),4	23977,(14, 154),4	23981,(14, 168),4	23985,(14, 195),20	24005,(110, 201),36	24041,(152, 201),36	24077,(17, 39),36	24113,(17, 43),4	24117,(17, 55),24	24141,(17, 60),4	24145,(17, 61),20	24165,(17, 67),4	24169,(17, 94),28	24197,(17, 100),48	24245,(17, 106),72	24317,(17, 111),12	24329,(17, 127),80	24409,(17, 145),32	24441,(17, 162),16	24457,(17, 168),32	24489,(17, 181),4	24493,(17, 187),48	24541,(17, 189),4	24545,(50, 201),36	24581,(140, 201),36	24617,(71, 201),36	24653,(83, 201),36	24689,(80, 201),36	24725,(20, 21),16	24741,(20, 24),108	24849,(20, 43),156	25005,(20, 48),4	25009,(20, 52),4	25013,(20, 97),12	25025,(20, 106),4	25029,(20, 118),24	25053,(20, 121),692	25745,(20, 130),16	25761,(20, 147),12	25773,(20, 172),60	25833,(65, 201),36	25869,(23, 201),36	25905,(101, 201),36	25941,(104, 201),36	25977,(122, 201),36	26013,(128, 201),36	26049,(131, 201),36	26085,(29, 201),36	26121,(35, 201),36	26157,(173, 201),36	26193,(47, 201),36	26229,(59, 201),36	26265,(41, 201),36	26301,(116, 201),36	26337,(170, 201),36	26373,(194, 201),36	26409,(98, 201),36	26445,(32, 201),36	26481,(44, 201),36	26517,(125, 201),36	26553,(164, 201),36	26589,(188, 201),36	26625,(56, 201),36	26661,(62, 201),36	26697,(89, 201),36	26733,(86, 201),36	26769,(161, 201),36	26805,(137, 201),36	26841,(74, 201),36	26877,(77, 201),36	26913,(134, 201),36	26949,(158, 201),36	26985,(191, 201),36	27021,(200, 201),36	27057,(38, 201),36	27093,(107, 201),36	27129,(113, 201),36	27165,(155, 201),36	27201,(182, 201),36	27237,(92, 201),36	27273,(167, 201),36	27309,(185, 201),36	27345,(197, 201),36	27381,(176, 201),36	27417,(179, 201),36	27453,(143, 201),36	27489,(68, 201),36	27525,(149, 201),36	
1,(0, 2),28	29,(0, 3),28	57,(0, 5),28	85,(0, 6),28	113,(0, 8),28	141,(0, 9),28	169,(0, 11),28	197,(0, 12),28	225,(0, 14),28	253,(0, 15),28	281,(0, 17),28	309,(0, 18),28	337,(0, 20),28	365,(13, 27),16	381,(13, 60),16	397,(13, 86),4	401,(13, 90),52	453,(13, 104),228	681,(13, 111),16	697,(13, 122),28	725,(13, 128),600	1325,(13, 131),212	1537,(7, 27),4	1541,(7, 29),36	1577,(7, 35),28	1605,(7, 36),28	1633,(7, 45),12	1645,(7, 47),36	1681,(7, 54),12	1693,(7, 77),8	1701,(7, 78),68	1769,(7, 86),24	1793,(7, 87),8	1801,(7, 93),4	1805,(7, 114),364	2169,(7, 116),596	2765,(7, 126),8	2773,(7, 141),52	2825,(7, 159),32	2857,(7, 170),152	3009,(7, 174),12	3021,(7, 194),4	3025,(7, 198),64	3089,(7, 200),52	3141,(19, 32),56	3197,(19, 44),136	3333,(19, 63),4	3337,(19, 107),4	3341,(19, 125),412	3753,(19, 144),12	3765,(19, 147),48	3813,(19, 155),16	3829,(19, 161),4	3833,(19, 164),4	3837,(19, 171),4	3841,(19, 188),4	3845,(19, 191),40	3885,(4, 56),4	3889,(4, 62),4	3893,(4, 66),4	3897,(4, 77),4	3901,(4, 81),40	3941,(4, 86),4	3945,(4, 92),84	4029,(4, 117),20	4049,(4, 126),44	4093,(4, 132),28	4121,(4, 137),4	4125,(4, 143),20	4145,(4, 165),4	4149,(4, 174),20	4169,(4, 185),272	4441,(10, 33),4	4445,(10, 45),4	4449,(10, 74),4	4453,(10, 77),8	4461,(10, 117),8	4469,(10, 132),12	4481,(10, 134),176	4657,(10, 149),4	4661,(10, 158),36	4697,(10, 102),108	4805,(10, 150),16	4821,(10, 191),20	4841,(10, 200),4	4845,(16, 38),28	4873,(16, 107),8	4881,(16, 113),24	4905,(16, 155),16	4921,(10, 153),268	5189,(10, 174),64	5253,(16, 42),4	5257,(16, 48),20	5277,(16, 57),16	5293,(16, 92),56	5349,(16, 105),24	5373,(16, 156),4	5377,(16, 167),20	5397,(16, 185),12	5409,(16, 197),116	5525,(1, 176),4	5529,(1, 179),8	6629,(1, 30),8	6637,(1, 42),4	6641,(1, 123),4	6645,(1, 180),4	23041,(16, 117),136	23177,(1, 57),12	23189,(1, 93),12	23201,(1, 156),32	23233,(1, 165),12	
