344
# CPU
0,0,1	1,4,9	10,35,9	19,30,9	28,3,9	37,5,9	46,32,9	55,2,9	64,13,9	73,15,9	82,14,9	91,19,9	100,8,9	109,37,9	118,39,9	127,7,9	136,1,9	145,27,9	154,26,9	163,25,9	172,23,9	181,12,9	190,22,9	199,6,9	208,36,9	217,16,9	226,24,9	235,40,9	244,28,9	253,21,9	262,11,9	271,10,9	280,33,9	289,20,9	298,34,9	307,29,9	316,18,9	325,31,9	334,17,9	343,41,1	
90,38,9	149,9,9	
# Incoming
99,(38, 41),20	158,(9, 41),20	
10,(4, 38),72	82,(2, 38),8	90,(3, 9),16	145,(1, 9),4	
# Outgoing
10,(4, 38),72	82,(2, 38),8	90,(3, 9),16	145,(1, 9),4	
99,(38, 41),20	158,(9, 41),20	
