60534
# CPU
17,5,18	35,9,18	53,12,18	53985,28,18	55037,160,18	55055,169,18	55317,173,18	56001,186,18	56021,199,18	56041,32,18	56097,33,18	56161,34,18	56333,90,18	56621,98,18	56639,100,18	56737,115,18	56785,121,18	56825,147,18	56901,189,18	56919,197,18	56937,44,18	56955,46,18	57245,53,18	57277,58,18	57295,61,18	57313,80,18	57331,88,18	57349,106,18	57367,108,18	57417,111,18	57435,128,18	57553,135,18	57571,137,18	57589,148,18	57673,152,18	58221,158,18	58285,166,18	58393,172,18	58411,183,18	59389,185,18	60533,201,1	
5,2,18	23,6,18	41,10,18	59,19,18	29969,65,18	32085,77,18	32445,112,18	32517,123,18	32653,143,18	32841,155,18	33217,195,18	33317,29,18	33405,37,18	33661,84,18	33705,85,18	33761,92,18	33877,109,18	33905,122,18	33993,126,18	34025,129,18	34173,144,18	34269,154,18	34457,177,18	34585,22,18	34603,23,18	34621,27,18	34665,43,18	34705,50,18	35093,70,18	35293,99,18	35421,116,18	35473,120,18	35593,142,18	35611,146,18	35629,151,18	35809,164,18	35827,168,18	35845,171,18	35901,178,18	35919,181,18	
13,4,18	49,16,18	67,17,18	85,20,18	4913,49,18	5013,95,18	29901,47,18	30217,86,18	32305,94,18	32369,104,18	33033,187,18	33229,21,18	33425,42,18	33443,56,18	33489,64,18	34097,134,18	34193,145,18	34225,149,18	34301,159,18	34333,161,18	34351,162,18	34605,30,18	34623,35,18	34733,51,18	34751,59,18	34909,62,18	34927,66,18	35089,67,18	35241,73,18	35259,74,18	35277,81,18	35295,91,18	35313,96,18	35489,125,18	35521,127,18	35539,130,18	35569,139,18	35589,140,18	35977,191,18	36133,200,18	
0,0,1	1,1,18	19,11,18	37,18,18	55,7,18	73,14,18	3549,45,18	3589,68,18	3617,36,18	3677,40,18	3809,52,18	3909,124,18	3927,76,18	4009,87,18	4137,165,18	4353,194,18	4717,102,18	4753,24,18	4841,93,18	4889,39,18	4993,176,18	5221,103,18	5293,41,18	5325,55,18	5343,75,18	5365,72,18	5401,78,18	5419,97,18	5437,107,18	5455,119,18	5473,179,18	5493,184,18	5541,190,18	5641,114,18	5677,118,18	5813,175,18	5885,188,18	6557,48,18	7237,54,18	7725,150,18	8041,180,18	
9,3,18	27,8,18	45,13,18	63,15,18	7429,89,18	30453,117,18	31309,196,18	31753,60,18	31771,63,18	32029,69,18	32205,83,18	32537,132,18	32649,141,18	32701,153,18	32853,163,18	32871,170,18	33633,79,18	33653,82,18	33861,101,18	34045,131,18	34073,133,18	34105,138,18	34277,157,18	34381,167,18	34437,174,18	34593,25,18	34611,26,18	34629,31,18	34649,38,18	34737,57,18	35133,71,18	35317,105,18	35345,110,18	35417,113,18	35553,136,18	35673,156,18	35969,182,18	35989,192,18	36081,193,18	36099,198,18	
# Incoming
13,(0, 5),4	25,(0, 9),4	33,(0, 12),4	57,(3, 53),4	87,(2, 32),8	95,(2, 33),12	107,(2, 34),24	149,(1, 28),3524	3673,(2, 53),4	3677,(2, 115),4	3681,(2, 137),4	3685,(1, 33),4	3689,(2, 44),16	3705,(2, 98),12	3717,(2, 121),8	3725,(1, 44),92	3817,(1, 46),4	3821,(2, 128),12	3833,(1, 53),8	3841,(1, 61),372	4213,(2, 46),168	4381,(2, 61),28	4409,(2, 108),20	4429,(2, 148),4	4433,(2, 152),32	4465,(2, 173),4	4469,(3, 106),4	4473,(3, 128),4	4477,(3, 137),4	4481,(3, 166),4	4485,(1, 88),4	4489,(3, 172),4	4493,(1, 90),84	4577,(3, 199),4	4581,(1, 100),4	4585,(2, 80),116	4701,(2, 135),80	4781,(2, 186),24	4805,(1, 108),4	4809,(2, 185),28	4837,(4, 46),4	4841,(1, 111),48	4889,(2, 106),108	4997,(3, 158),12	5009,(1, 115),64	5073,(3, 32),88	5161,(3, 115),32	5193,(1, 121),20	5213,(3, 121),40	5253,(3, 160),8	5261,(3, 197),16	5277,(1, 128),4	5281,(4, 44),12	5293,(1, 135),20	5313,(3, 100),68	5381,(3, 183),112	5493,(4, 28),24	5517,(1, 148),16	5533,(4, 53),4	5537,(4, 61),4	5541,(4, 100),4	5545,(1, 152),444	5989,(3, 186),28	6017,(4, 80),44	6061,(4, 111),20	6081,(4, 128),4	6085,(4, 160),4	6089,(1, 158),12	6101,(4, 183),16	6117,(1, 166),4	6121,(1, 169),104	6225,(4, 158),20	6245,(1, 172),22820	29065,(4, 32),80	29145,(4, 186),12	29157,(6, 44),8	29165,(1, 183),4	29169,(1, 185),4	29173,(1, 186),4	29177,(1, 189),276	29453,(1, 197),52	29505,(4, 121),28	29533,(6, 58),4	29537,(1, 199),12	29549,(2, 147),1244	30793,(2, 183),1684	32477,(3, 90),344	32821,(3, 148),184	33005,(3, 173),140	33145,(4, 58),116	33261,(4, 90),324	33585,(4, 115),528	34113,(4, 135),3160	37273,(4, 147),40	37313,(4, 169),56	37369,(4, 173),132	37501,(4, 185),88	37589,(4, 199),40	37629,(11, 33),8	37637,(11, 34),1040	38677,(11, 46),4	38681,(11, 61),4	38685,(11, 80),4	38689,(11, 88),68	38757,(11, 90),184	38941,(11, 100),48	38989,(11, 106),4	38993,(11, 108),4	38997,(11, 111),4	39001,(11, 115),300	39301,(11, 128),44	39345,(11, 135),80	39425,(11, 137),28	39453,(11, 147),108	39561,(11, 152),60	39621,(11, 158),72	39693,(11, 160),20	39713,(11, 166),20	39733,(11, 169),20	39753,(11, 183),40	39793,(11, 186),104	39897,(11, 197),4	39901,(11, 199),4	39905,(6, 28),80	39985,(6, 80),28	40013,(6, 106),16	40029,(6, 108),32	40061,(6, 111),20	40081,(6, 128),40	40121,(6, 135),32	40153,(6, 147),680	40833,(6, 148),8	40841,(6, 173),4	40845,(6, 183),608	41453,(6, 185),4	41457,(6, 186),88	41545,(6, 189),4	41549,(8, 34),1204	42753,(8, 53),12	42765,(8, 58),4	42769,(8, 61),4	42773,(8, 80),60	42833,(8, 88),16	42849,(8, 90),16	42865,(8, 98),8	42873,(8, 108),36	42909,(8, 115),8	42917,(8, 121),8	42925,(8, 128),132	43057,(8, 135),372	43429,(8, 152),32	43461,(8, 158),24	43485,(8, 166),68	43553,(8, 169),52	43605,(8, 172),24	43629,(8, 173),48	43677,(8, 186),56	43733,(8, 197),44	43777,(8, 199),4	43781,(18, 32),24	43805,(18, 34),8	43813,(18, 44),104	43917,(18, 53),16	43933,(18, 58),896	44829,(18, 61),4	44833,(18, 80),24	44857,(18, 98),4	44861,(18, 100),4	44865,(18, 111),4	44869,(18, 115),28	44897,(18, 137),72	44969,(18, 147),4	44973,(18, 148),96	45069,(18, 166),4	45073,(18, 169),8	45081,(18, 173),68	45149,(18, 183),24	45173,(18, 185),16	45189,(18, 189),16	45205,(18, 197),12	45217,(18, 199),12	45229,(10, 28),4	45233,(10, 33),12	45245,(10, 34),8	45253,(10, 53),104	45357,(10, 58),220	45577,(10, 90),16	45593,(10, 98),8	45601,(10, 100),108	45709,(10, 108),12	45721,(10, 111),8	45729,(10, 115),4	45733,(10, 148),228	45961,(10, 158),4	45965,(10, 169),72	46037,(10, 189),120	46157,(10, 197),4	46161,(10, 199),8	46169,(13, 28),12	46181,(13, 44),12	46193,(13, 53),36	46229,(13, 100),100	46329,(13, 106),48	46377,(13, 108),4	46381,(13, 115),4	46385,(13, 121),28	46413,(13, 128),2772	49185,(13, 135),8	49193,(13, 147),4	49197,(13, 148),36	49233,(13, 158),896	50129,(13, 166),92	50221,(13, 172),56	50277,(13, 183),24	50301,(13, 186),36	50337,(13, 189),20	50357,(16, 32),20	50377,(16, 33),4	50381,(16, 34),16	50397,(16, 46),24	50421,(16, 53),448	50869,(16, 58),16	50885,(16, 61),36	50921,(16, 80),4	50925,(16, 90),16	50941,(16, 108),16	50957,(16, 128),88	51045,(16, 147),4	51049,(16, 158),208	51257,(16, 172),136	51393,(16, 185),4	51397,(7, 28),16	51413,(7, 33),28	51441,(7, 34),120	51561,(7, 46),8	51569,(7, 53),536	52105,(7, 58),12	52117,(7, 61),124	52241,(7, 98),36	52277,(7, 108),20	52297,(7, 121),80	52377,(7, 135),4	52381,(7, 137),32	52413,(7, 147),16	52429,(7, 148),20	52449,(7, 152),12	52461,(7, 158),12	52473,(7, 166),24	52497,(7, 186),4	52501,(19, 32),12	52513,(19, 34),8	52521,(19, 46),40	52561,(19, 53),60	52621,(19, 58),60	52681,(19, 61),24	52705,(19, 90),32	52737,(19, 98),768	53505,(19, 100),4	53509,(19, 108),108	53617,(19, 111),60	53677,(19, 128),76	53753,(19, 137),8	53761,(19, 158),32	53793,(19, 169),4	53797,(19, 172),132	53929,(19, 173),4	53933,(19, 183),4	53937,(19, 185),8	53945,(19, 186),12	53957,(19, 189),4	53961,(19, 197),20	53981,(15, 28),4	53985,(15, 34),392	54377,(15, 46),16	54393,(15, 58),496	54889,(15, 88),8	54897,(15, 100),4	54901,(15, 111),4	54905,(15, 115),4	54909,(15, 128),28	54937,(15, 137),24	54961,(15, 147),60	55021,(15, 160),16	55037,(15, 169),12	55049,(15, 172),108	55157,(15, 173),160	55317,(15, 183),160	55477,(15, 199),88	55565,(17, 32),4	55569,(17, 33),12	55581,(17, 53),8	55589,(17, 61),4	55593,(17, 80),164	55757,(17, 108),4	55761,(17, 115),64	55825,(17, 121),28	55853,(17, 137),84	55937,(17, 166),4	55941,(17, 172),4	55945,(17, 186),56	56001,(17, 197),16	56017,(17, 199),4	56021,(14, 32),20	56041,(14, 33),56	56097,(14, 34),64	56161,(14, 46),4	56165,(14, 58),92	56257,(14, 61),4	56261,(14, 80),4	56265,(14, 88),64	56329,(14, 90),4	56333,(14, 98),288	56621,(14, 100),4	56625,(14, 106),4	56629,(14, 108),68	56697,(14, 115),40	56737,(14, 121),48	56785,(14, 128),12	56797,(14, 137),4	56801,(14, 147),24	56825,(14, 158),4	56829,(14, 166),36	56865,(14, 189),36	56901,(14, 197),4	56905,(20, 44),8	56913,(20, 46),4	56917,(20, 53),328	57245,(20, 58),32	57277,(20, 61),8	57285,(20, 80),12	57297,(20, 88),12	57309,(20, 106),20	57329,(20, 108),8	57337,(20, 111),80	57417,(20, 128),4	57421,(20, 135),132	57553,(20, 137),4	57557,(20, 148),4	57561,(20, 152),112	57673,(20, 158),548	58221,(20, 166),64	58285,(20, 172),108	58393,(20, 183),4	58397,(20, 185),992	59389,(45, 201),8	59397,(68, 201),8	59405,(36, 201),8	59413,(40, 201),8	59421,(52, 201),8	59429,(124, 201),8	59437,(76, 201),8	59445,(87, 201),8	59453,(165, 201),8	59461,(194, 201),8	59469,(102, 201),8	59477,(24, 201),8	59485,(93, 201),8	59493,(39, 201),8	59501,(49, 201),8	59509,(176, 201),8	59517,(95, 201),8	59525,(103, 201),8	59533,(41, 201),8	59541,(55, 201),8	59549,(75, 201),8	59557,(72, 201),8	59565,(78, 201),8	59573,(97, 201),8	59581,(107, 201),8	59589,(119, 201),8	59597,(179, 201),8	59605,(184, 201),8	59613,(190, 201),8	59621,(114, 201),8	59629,(118, 201),8	59637,(175, 201),8	59645,(188, 201),8	59653,(48, 201),8	59661,(54, 201),8	59669,(89, 201),8	59677,(150, 201),8	59685,(180, 201),8	59693,(47, 201),8	59701,(65, 201),8	59709,(86, 201),8	59717,(117, 201),8	59725,(196, 201),8	59733,(60, 201),8	59741,(63, 201),8	59749,(69, 201),8	59757,(77, 201),8	59765,(83, 201),8	59773,(94, 201),8	59781,(104, 201),8	59789,(112, 201),8	59797,(123, 201),8	59805,(132, 201),8	59813,(141, 201),8	59821,(143, 201),8	59829,(153, 201),8	59837,(155, 201),8	59845,(163, 201),8	59853,(170, 201),8	59861,(187, 201),8	59869,(195, 201),8	59877,(21, 201),8	59885,(29, 201),8	59893,(37, 201),8	59901,(42, 201),8	59909,(56, 201),8	59917,(64, 201),8	59925,(79, 201),8	59933,(82, 201),8	59941,(84, 201),8	59949,(85, 201),8	59957,(92, 201),8	59965,(101, 201),8	59973,(109, 201),8	59981,(122, 201),8	59989,(126, 201),8	59997,(129, 201),8	60005,(131, 201),8	60013,(133, 201),8	60021,(134, 201),8	60029,(138, 201),8	60037,(144, 201),8	60045,(145, 201),8	60053,(149, 201),8	60061,(154, 201),8	60069,(157, 201),8	60077,(159, 201),8	60085,(161, 201),8	60093,(162, 201),8	60101,(167, 201),8	60109,(174, 201),8	60117,(177, 201),8	60125,(22, 201),8	60133,(25, 201),8	60141,(23, 201),8	60149,(30, 201),8	60157,(26, 201),8	60165,(27, 201),8	60173,(35, 201),8	60181,(31, 201),8	60189,(38, 201),8	60197,(43, 201),8	60205,(50, 201),8	60213,(51, 201),8	60221,(57, 201),8	60229,(59, 201),8	60237,(62, 201),8	60245,(66, 201),8	60253,(67, 201),8	60261,(70, 201),8	60269,(71, 201),8	60277,(73, 201),8	60285,(74, 201),8	60293,(81, 201),8	60301,(99, 201),8	60309,(91, 201),8	60317,(96, 201),8	60325,(105, 201),8	60333,(110, 201),8	60341,(113, 201),8	60349,(116, 201),8	60357,(120, 201),8	60365,(125, 201),8	60373,(127, 201),8	60381,(130, 201),8	60389,(136, 201),8	60397,(139, 201),8	60405,(140, 201),8	60413,(142, 201),8	60421,(146, 201),8	60429,(151, 201),8	60437,(156, 201),8	60445,(164, 201),8	60453,(168, 201),8	60461,(171, 201),8	60469,(178, 201),8	60477,(181, 201),8	60485,(182, 201),8	60493,(191, 201),8	60501,(192, 201),8	60509,(193, 201),8	60517,(198, 201),8	60525,(200, 201),8	
1,(0, 2),4	17,(0, 6),4	29,(0, 10),4	33,(3, 27),20	53,(0, 19),4	57,(5, 23),4	61,(3, 65),4	65,(3, 77),4	69,(1, 23),4	73,(3, 22),88	161,(5, 37),4	165,(5, 65),8	173,(5, 85),4	205,(3, 143),4	209,(4, 27),88	297,(5, 77),8	305,(5, 122),4	309,(3, 50),80	389,(3, 84),32	421,(5, 92),12	433,(5, 129),4	437,(4, 65),20	457,(5, 116),8	465,(5, 142),24	489,(5, 143),8	497,(3, 85),36	533,(4, 85),12	545,(3, 112),108	653,(5, 146),4	657,(5, 151),4	661,(5, 164),4	665,(4, 142),4	669,(3, 171),4	673,(4, 29),92	765,(4, 84),72	837,(3, 129),28	865,(3, 144),32	897,(4, 122),12	909,(4, 123),24	933,(4, 129),20	953,(3, 116),168	1121,(3, 120),108	1229,(3, 178),8	1237,(4, 116),152	1389,(4, 126),24	1413,(4, 144),4	1417,(4, 146),8	1425,(4, 154),4	1429,(4, 168),4	1433,(4, 171),8	1441,(4, 177),44	1485,(4, 181),4	1489,(5, 84),60	1549,(3, 155),104	1653,(3, 164),64	1717,(4, 178),100	1817,(4, 195),32	1849,(5, 22),68	1917,(5, 29),72	1989,(5, 123),64	2053,(5, 126),60	2113,(5, 154),56	2169,(8, 23),28	2197,(16, 27),12	2209,(8, 27),20	2229,(16, 29),4	2233,(16, 50),32	2265,(16, 123),4	2269,(16, 126),4	2273,(8, 92),4	2277,(16, 129),8	2285,(8, 123),4	2289,(8, 126),4	2293,(16, 92),12	2305,(16, 142),4	2309,(16, 146),4	2313,(8, 84),24	2337,(16, 178),4	2341,(16, 195),4	2345,(5, 168),4	2349,(8, 65),48	2397,(8, 77),40	2437,(8, 85),20	2457,(16, 112),12	2469,(16, 181),8	2477,(8, 146),8	2485,(9, 22),36	2521,(9, 27),100	2621,(9, 37),4	2625,(9, 50),4	2629,(9, 65),8	2637,(8, 116),28	2665,(9, 84),4	2669,(9, 99),4	2673,(8, 122),28	2701,(9, 29),20	2721,(9, 85),12	2733,(9, 123),12	2745,(9, 151),4	2749,(8, 129),16	2765,(8, 142),80	2845,(8, 144),92	2937,(8, 155),4	2941,(9, 43),96	3037,(17, 22),4	3041,(17, 23),4	3045,(17, 50),4	3049,(8, 178),24	3073,(16, 122),16	3089,(16, 155),16	3105,(17, 151),4	3109,(8, 195),32	3141,(9, 109),28	3169,(9, 129),20	3189,(9, 144),12	3201,(13, 22),44	3245,(13, 27),36	3281,(16, 151),24	3305,(17, 171),4	3309,(9, 120),96	3405,(9, 122),40	3445,(13, 37),40	3485,(13, 50),12	3497,(13, 65),8	3505,(9, 142),24	3529,(9, 143),20	3549,(9, 155),4	3553,(13, 23),72	3625,(13, 77),4	3629,(13, 84),8	3637,(13, 112),16	3653,(13, 116),4	3657,(13, 126),4	3661,(13, 146),4	3665,(13, 155),4	3669,(17, 181),4	3673,(1, 29),8	3681,(13, 168),4	3685,(13, 171),4	3689,(1, 37),20	3709,(17, 77),12	3721,(1, 43),4	3725,(13, 43),84	3809,(12, 22),4	3813,(12, 84),12	3825,(12, 109),4	3829,(1, 50),4	3833,(9, 164),148	3981,(9, 177),104	4085,(13, 122),52	4137,(13, 177),12	4149,(16, 85),40	4189,(16, 164),24	4213,(17, 85),24	4237,(17, 195),4	4241,(13, 195),16	4257,(15, 43),20	4277,(15, 50),12	4289,(15, 181),4	4293,(1, 65),60	4353,(12, 27),44	4397,(15, 70),16	4413,(15, 126),8	4421,(1, 84),36	4457,(1, 85),28	4493,(13, 109),80	4577,(1, 92),4	4581,(13, 144),140	4721,(12, 37),52	4773,(17, 122),8	4781,(17, 129),8	4789,(17, 154),8	4797,(17, 168),8	4805,(20, 99),4	4809,(1, 109),32	4841,(12, 92),20	4861,(12, 122),8	4869,(12, 123),12	4881,(12, 168),4	4885,(20, 142),4	4889,(1, 112),120	5009,(15, 77),12	5021,(15, 85),12	5033,(15, 109),12	5045,(15, 116),24	5069,(12, 177),4	5073,(1, 116),4	5077,(12, 50),96	5173,(17, 155),16	5189,(20, 155),4	5193,(15, 123),16	5209,(20, 168),4	5213,(1, 122),4	5217,(1, 123),60	5277,(20, 171),4	5285,(12, 126),48	5333,(12, 146),36	5369,(20, 178),4	5373,(20, 195),4	5377,(1, 143),4	5381,(17, 27),48	5429,(17, 142),32	5461,(1, 146),56	5517,(15, 99),104	5677,(15, 120),156	5833,(15, 151),44	5877,(17, 43),92	5969,(20, 37),20	5989,(1, 154),4	5993,(20, 27),24	6017,(15, 195),24	6089,(20, 84),12	6113,(1, 164),4	6117,(17, 92),44	6161,(17, 177),52	6213,(20, 85),12	6245,(17, 126),100	6345,(20, 29),24	6369,(20, 43),48	6557,(20, 65),20	7429,(20, 112),20	7477,(20, 126),12	7525,(20, 146),24	7725,(20, 151),64	7877,(20, 164),64	8041,(20, 181),24	29065,(1, 181),100	29693,(11, 37),4	29901,(11, 50),20	29965,(11, 65),4	29973,(11, 70),8	30165,(11, 84),28	30217,(11, 99),12	30281,(11, 109),52	30373,(11, 116),48	30465,(11, 126),8	30737,(11, 142),16	30753,(11, 143),104	30857,(11, 144),104	30965,(11, 146),12	30977,(11, 151),48	31025,(11, 155),48	31085,(11, 164),4	31129,(11, 168),4	31133,(11, 177),8	31141,(11, 178),72	31285,(11, 195),4	31309,(18, 22),4	31313,(18, 23),4	31373,(18, 27),4	31393,(18, 43),208	32029,(18, 70),20	32053,(18, 77),32	32205,(18, 84),4	32209,(18, 85),8	32241,(18, 92),52	32437,(18, 112),8	32445,(18, 120),4	32449,(18, 122),36	32485,(18, 123),32	32649,(18, 143),4	32653,(18, 151),4	32701,(18, 154),36	32737,(18, 155),104	32861,(18, 171),68	32929,(18, 177),4	32933,(18, 181),36	33053,(18, 195),164	33229,(7, 22),36	33265,(7, 23),4	33289,(7, 29),28	33385,(7, 37),20	33425,(7, 43),4	33429,(7, 50),4	33493,(7, 70),4	33653,(7, 84),8	33661,(7, 85),44	33705,(7, 92),56	33761,(7, 99),8	33869,(7, 109),8	33889,(7, 116),8	33897,(7, 120),4	33901,(7, 122),4	33917,(7, 126),76	33993,(7, 129),32	34141,(7, 142),28	34169,(7, 144),4	34193,(7, 146),12	34225,(7, 151),28	34253,(7, 154),16	34341,(7, 164),4	34381,(7, 171),28	34437,(7, 177),20	34497,(14, 22),88	34585,(14, 23),4	34597,(14, 27),4	34649,(14, 43),16	34665,(14, 50),40	35089,(14, 70),4	35289,(14, 99),4	35417,(14, 116),4	35421,(14, 120),52	35589,(14, 142),4	35593,(14, 146),12	35605,(14, 151),4	35673,(14, 164),136	35809,(14, 168),8	35817,(14, 171),8	35825,(14, 178),76	35901,(14, 181),4	
9,(0, 4),4	23,(2, 21),4	27,(3, 21),4	35,(5, 21),4	39,(5, 73),4	45,(0, 16),4	49,(0, 17),4	53,(3, 49),4	57,(0, 20),4	61,(1, 21),8	69,(3, 74),4	73,(5, 64),12	131,(5, 81),16	155,(5, 94),4	177,(3, 95),4	181,(3, 130),4	185,(2, 51),16	201,(3, 139),4	209,(3, 149),4	213,(2, 59),40	253,(5, 95),4	257,(2, 67),20	277,(3, 42),32	309,(5, 86),8	317,(5, 149),4	321,(2, 73),4	325,(2, 74),4	329,(5, 125),20	349,(2, 86),96	445,(3, 30),52	497,(2, 91),4	501,(5, 139),8	509,(5, 161),4	513,(2, 104),168	681,(3, 35),60	741,(3, 56),24	765,(3, 59),20	785,(3, 62),20	805,(5, 200),4	809,(9, 30),4	813,(9, 66),4	817,(9, 91),4	821,(2, 140),4	825,(2, 145),72	897,(2, 149),4	901,(3, 67),28	929,(3, 81),24	953,(9, 51),40	993,(9, 94),4	997,(2, 161),224	1221,(2, 162),16	1237,(3, 66),100	1337,(3, 127),184	1521,(3, 145),28	1549,(5, 47),64	1621,(2, 200),20	1641,(5, 51),52	1693,(5, 62),56	1749,(6, 21),28	1777,(3, 187),4	1781,(5, 91),48	1829,(6, 30),4	1833,(6, 35),4	1837,(6, 47),28	1865,(6, 49),4	1869,(6, 56),24	1893,(6, 59),4	1897,(6, 62),184	2081,(6, 66),44	2125,(8, 51),12	2137,(8, 56),4	2141,(8, 59),4	2145,(8, 73),24	2197,(6, 64),84	2281,(8, 74),4	2285,(5, 159),60	2345,(6, 73),56	2401,(6, 81),4	2405,(6, 86),4	2409,(6, 91),4	2413,(6, 96),4	2457,(8, 94),8	2465,(8, 125),4	2469,(8, 127),4	2473,(8, 139),4	2481,(6, 127),4	2485,(8, 47),84	2609,(6, 134),12	2637,(9, 95),4	2641,(9, 104),8	2649,(9, 134),8	2657,(9, 139),8	2693,(9, 162),4	2697,(12, 47),4	2777,(6, 140),40	2817,(6, 149),12	2829,(6, 159),92	2921,(9, 140),20	2941,(13, 67),4	3037,(9, 74),104	3141,(13, 21),8	3149,(6, 187),4	3153,(6, 191),4	3157,(8, 191),44	3201,(9, 81),108	3309,(6, 200),64	3373,(10, 21),4	3377,(13, 66),8	3385,(13, 86),4	3389,(13, 91),16	3405,(10, 47),4	3409,(10, 49),4	3413,(13, 94),16	3429,(13, 104),12	3441,(13, 125),4	3445,(9, 125),24	3469,(9, 127),36	3505,(10, 56),16	3521,(10, 64),4	3525,(13, 130),4	3529,(13, 139),4	3533,(13, 159),4	3537,(13, 161),4	3541,(10, 81),28	3569,(10, 91),4	3573,(10, 94),32	3605,(10, 95),16	3649,(10, 104),4	3653,(10, 134),4	3669,(13, 162),4	3673,(15, 35),4	3677,(12, 56),4	3681,(1, 30),4	3685,(9, 159),52	3745,(10, 140),4	3749,(10, 145),8	3757,(10, 161),4	3761,(10, 162),4	3797,(10, 200),8	3805,(12, 81),4	3821,(1, 47),4	3825,(1, 49),4	3829,(13, 30),68	3897,(13, 51),52	3949,(13, 96),60	4041,(15, 21),36	4077,(15, 56),4	4081,(15, 67),4	4121,(10, 187),16	4149,(15, 64),12	4161,(10, 191),16	4177,(19, 35),12	4189,(19, 42),4	4193,(19, 49),4	4197,(19, 64),4	4201,(19, 74),4	4205,(19, 94),4	4209,(19, 127),4	4213,(1, 62),28	4241,(1, 64),52	4293,(15, 73),8	4337,(12, 42),16	4353,(1, 66),36	4389,(15, 149),4	4393,(1, 74),20	4413,(12, 35),36	4449,(12, 49),24	4473,(12, 62),40	4513,(12, 86),52	4565,(12, 91),8	4573,(12, 104),4	4577,(12, 125),4	4581,(12, 130),4	4585,(12, 134),16	4717,(12, 145),4	4753,(15, 30),72	4825,(15, 161),4	4829,(12, 139),12	4841,(15, 47),48	4889,(15, 49),24	4913,(15, 86),8	4921,(15, 94),12	4957,(12, 95),56	5013,(12, 96),36	5073,(12, 187),4	5189,(19, 140),4	5281,(1, 130),4	5289,(1, 134),4	5293,(15, 125),8	5301,(15, 139),12	5325,(1, 140),4	5329,(19, 56),28	5381,(1, 145),80	5493,(15, 159),20	5533,(1, 149),12	5545,(12, 127),156	5785,(19, 47),84	5869,(19, 81),28	5897,(15, 134),60	5957,(15, 187),12	5993,(19, 104),92	6085,(19, 145),4	6089,(19, 149),4	6101,(1, 161),4	6105,(15, 140),36	6225,(19, 162),16	6521,(19, 159),32	6617,(19, 187),36	6653,(19, 191),36	6689,(19, 200),224	29549,(11, 21),40	29613,(11, 30),72	29689,(11, 35),4	29845,(11, 42),48	29893,(11, 47),8	29925,(11, 62),36	29961,(11, 64),4	29969,(11, 66),4	29989,(11, 73),52	30193,(11, 86),24	30229,(11, 104),36	30453,(11, 125),12	30473,(11, 127),192	30961,(11, 145),4	31601,(18, 51),24	31625,(18, 56),16	31641,(18, 59),108	31757,(18, 64),120	31877,(18, 66),24	31901,(18, 67),72	32049,(18, 74),4	32085,(18, 81),104	32217,(18, 91),24	32293,(18, 94),12	32305,(18, 96),44	32353,(18, 104),16	32517,(18, 125),4	32537,(18, 134),56	32605,(18, 139),16	32973,(18, 187),60	33221,(7, 21),8	33317,(7, 30),40	33405,(7, 42),20	33433,(7, 56),4	33457,(7, 59),16	33473,(7, 64),16	33489,(7, 66),4	33497,(7, 73),132	33905,(7, 125),12	34025,(7, 130),16	34073,(7, 134),24	34105,(7, 139),4	34109,(7, 140),32	34173,(7, 145),20	34205,(7, 149),20	34277,(7, 159),24	34301,(7, 161),32	34333,(7, 162),8	34473,(7, 191),4	34601,(14, 30),4	34613,(14, 35),4	34705,(14, 51),28	34737,(14, 59),4	34741,(14, 62),168	34909,(14, 66),4	34913,(14, 67),176	35133,(14, 73),108	35241,(14, 74),4	35245,(14, 81),4	35249,(14, 91),16	35265,(14, 96),24	35473,(14, 125),16	35489,(14, 127),32	35521,(14, 130),16	35553,(14, 139),16	35569,(14, 140),20	35969,(14, 191),8	36089,(14, 200),44	
27,(2, 24),60	87,(5, 40),24	111,(5, 41),8	119,(5, 45),4	123,(5, 48),4	127,(5, 54),4	131,(2, 36),4	135,(2, 39),4	139,(2, 41),4	143,(2, 48),4	147,(5, 76),8	161,(3, 24),16	177,(2, 45),8	185,(3, 36),16	201,(2, 52),8	209,(2, 54),4	213,(3, 39),4	217,(3, 40),8	225,(3, 41),40	265,(3, 87),12	277,(5, 97),4	281,(5, 119),4	285,(5, 175),4	289,(9, 40),4	293,(9, 48),4	297,(4, 39),24	321,(9, 78),4	325,(4, 41),4	329,(2, 75),4	333,(2, 78),4	337,(4, 48),4	341,(4, 52),8	349,(5, 55),48	397,(5, 107),24	421,(3, 93),8	429,(3, 102),4	433,(3, 103),4	437,(3, 165),8	445,(2, 87),12	457,(4, 45),16	473,(4, 55),4	477,(4, 72),12	489,(4, 75),12	501,(2, 103),12	513,(4, 76),4	517,(4, 78),4	521,(4, 87),4	525,(9, 102),4	529,(9, 188),4	533,(3, 107),12	545,(9, 150),12	557,(4, 107),20	577,(5, 102),52	629,(12, 40),4	633,(4, 114),12	645,(12, 55),4	649,(12, 78),4	653,(3, 124),16	669,(12, 165),4	673,(3, 176),8	681,(5, 78),72	753,(5, 180),16	769,(12, 68),8	777,(2, 114),4	781,(12, 176),4	785,(2, 118),8	793,(2, 119),4	797,(12, 107),8	805,(3, 114),32	837,(4, 119),24	861,(9, 45),16	877,(9, 75),16	893,(4, 179),4	897,(8, 48),4	901,(2, 150),68	969,(4, 180),28	997,(5, 114),180	1177,(5, 165),48	1225,(9, 176),12	1237,(2, 165),12	1249,(12, 118),8	1257,(2, 175),140	1397,(2, 179),100	1497,(4, 165),48	1545,(4, 184),4	1549,(4, 194),4	1553,(2, 184),4	1557,(2, 188),8	1565,(4, 188),16	1581,(4, 190),32	1613,(9, 76),28	1641,(6, 24),32	1673,(6, 40),20	1693,(6, 41),12	1705,(6, 45),4	1709,(6, 68),4	1713,(6, 72),4	1717,(3, 180),20	1737,(3, 184),40	1781,(3, 188),44	1825,(3, 190),8	1833,(3, 194),96	1929,(4, 103),228	2157,(6, 48),20	2177,(6, 55),20	2197,(8, 24),12	2209,(16, 40),8	2217,(16, 48),8	2225,(16, 54),4	2229,(8, 40),16	2245,(8, 45),20	2265,(8, 72),4	2269,(8, 87),4	2273,(16, 68),4	2277,(8, 114),4	2281,(6, 75),4	2285,(6, 97),4	2289,(6, 102),4	2293,(8, 55),20	2313,(16, 45),24	2337,(8, 103),12	2349,(5, 176),72	2421,(5, 194),60	2481,(16, 24),32	2513,(16, 52),12	2525,(16, 55),8	2533,(16, 72),28	2561,(16, 103),4	2565,(16, 119),4	2569,(8, 52),68	2637,(16, 93),24	2661,(16, 124),4	2665,(8, 118),8	2673,(9, 118),20	2693,(16, 150),4	2697,(17, 48),4	2701,(8, 124),48	2749,(9, 36),72	2821,(9, 52),40	2861,(9, 72),56	2921,(6, 165),24	2945,(8, 175),56	3001,(8, 176),48	3049,(16, 165),8	3057,(17, 40),16	3073,(8, 179),36	3109,(16, 76),32	3141,(17, 97),4	3145,(17, 102),4	3149,(13, 41),4	3153,(13, 52),4	3157,(6, 194),88	3245,(16, 179),28	3273,(17, 107),8	3281,(13, 36),20	3301,(13, 48),8	3309,(13, 68),12	3321,(13, 72),4	3325,(13, 76),20	3345,(13, 87),12	3357,(13, 114),16	3373,(13, 119),4	3377,(10, 40),4	3381,(10, 41),24	3405,(13, 184),4	3409,(15, 52),4	3413,(10, 52),56	3469,(17, 150),4	3473,(17, 165),8	3481,(17, 179),4	3485,(17, 180),4	3489,(10, 72),4	3493,(10, 76),8	3501,(10, 107),4	3505,(13, 124),16	3521,(15, 54),4	3525,(10, 78),16	3541,(15, 45),8	3549,(15, 72),4	3553,(17, 68),36	3589,(17, 119),24	3613,(20, 36),4	3617,(20, 39),4	3621,(10, 103),12	3633,(9, 165),24	3657,(10, 118),16	3673,(20, 40),4	3677,(15, 119),4	3685,(10, 150),4	3689,(13, 118),32	3721,(20, 55),4	3725,(10, 97),20	3745,(20, 24),12	3757,(20, 97),8	3765,(10, 176),12	3777,(10, 179),4	3781,(10, 184),12	3793,(10, 190),4	3797,(20, 52),12	3809,(13, 165),16	3825,(17, 93),56	3881,(17, 124),28	3909,(20, 76),12	3921,(20, 78),44	3965,(20, 87),44	4009,(13, 180),32	4041,(20, 102),32	4073,(20, 114),4	4077,(20, 118),4	4081,(20, 184),4	4085,(9, 180),36	4121,(20, 165),16	4137,(10, 188),24	4161,(13, 97),80	4269,(9, 184),32	4301,(13, 194),52	4353,(16, 184),248	4601,(12, 24),64	4665,(12, 41),28	4693,(12, 102),24	4721,(15, 24),32	4773,(12, 75),40	4813,(12, 114),16	4829,(15, 93),12	4885,(19, 39),4	4933,(15, 97),24	4957,(15, 103),8	4965,(15, 150),20	4985,(15, 176),8	5025,(10, 180),164	5189,(12, 103),32	5225,(19, 41),68	5293,(19, 48),4	5297,(19, 54),24	5321,(19, 55),4	5325,(19, 75),4	5357,(19, 72),8	5365,(19, 78),36	5401,(19, 97),16	5417,(19, 107),4	5421,(19, 119),4	5425,(19, 175),8	5433,(19, 179),8	5441,(19, 188),8	5449,(19, 190),4	5461,(12, 184),32	5493,(12, 188),20	5513,(12, 190),28	5541,(19, 114),100	5641,(15, 118),36	5701,(12, 175),112	5877,(15, 188),8	6417,(20, 48),140	6577,(19, 180),40	7037,(20, 54),200	7549,(20, 150),176	7989,(20, 180),52	
5,(0, 3),4	21,(0, 8),4	37,(0, 13),4	41,(0, 15),4	45,(5, 25),4	49,(5, 38),8	61,(5, 157),4	65,(5, 192),8	73,(1, 26),76	149,(2, 25),24	173,(2, 38),4	177,(5, 63),36	213,(5, 83),40	253,(2, 60),4	257,(5, 138),16	273,(5, 193),4	277,(2, 71),44	321,(4, 38),4	325,(9, 60),4	329,(4, 89),4	333,(4, 132),4	337,(2, 82),4	341,(2, 83),8	349,(4, 31),88	437,(9, 26),16	453,(9, 136),4	457,(2, 89),40	497,(9, 174),4	501,(4, 101),12	513,(9, 198),4	517,(12, 82),4	521,(12, 89),4	525,(4, 133),4	529,(4, 156),4	533,(12, 83),12	545,(4, 105),12	557,(9, 89),20	577,(4, 113),56	633,(12, 105),4	637,(12, 110),4	641,(12, 117),4	645,(4, 117),20	665,(12, 132),4	669,(4, 157),4	673,(12, 156),4	677,(12, 192),4	681,(2, 105),96	777,(12, 193),4	781,(2, 117),4	785,(12, 167),8	793,(12, 196),4	797,(2, 138),24	821,(5, 132),24	845,(9, 110),16	861,(4, 138),24	885,(4, 163),4	889,(4, 170),4	893,(5, 153),32	925,(9, 31),28	953,(4, 167),16	969,(2, 156),8	977,(2, 157),20	997,(4, 83),232	1229,(4, 174),8	1249,(2, 167),8	1257,(5, 105),144	1401,(9, 63),24	1425,(9, 79),32	1457,(9, 82),32	1489,(16, 26),4	1493,(16, 63),4	1497,(2, 182),56	1553,(16, 79),8	1561,(16, 89),4	1565,(2, 196),56	1621,(4, 182),16	1637,(4, 192),80	1717,(6, 38),8	1725,(6, 57),4	1729,(6, 60),4	1733,(6, 63),4	1737,(6, 71),4	1741,(6, 105),4	1745,(10, 133),4	1749,(9, 141),24	1777,(6, 69),28	1805,(6, 117),24	1829,(9, 167),16	1849,(4, 196),32	1881,(4, 198),36	1917,(16, 117),8	1925,(17, 71),4	2125,(6, 79),32	2157,(17, 26),12	2169,(5, 156),116	2285,(17, 82),8	2293,(6, 131),20	2313,(6, 156),8	2321,(6, 157),24	2345,(16, 69),24	2369,(16, 163),28	2397,(17, 89),20	2417,(6, 101),64	2485,(6, 132),52	2537,(6, 133),72	2609,(17, 110),8	2617,(17, 132),4	2621,(6, 138),156	2777,(16, 25),76	2853,(16, 167),36	2889,(17, 57),56	2945,(6, 167),68	3013,(6, 170),60	3073,(6, 174),76	3149,(16, 182),80	3229,(17, 133),8	3237,(17, 156),4	3241,(17, 157),4	3245,(6, 198),64	3309,(16, 192),88	3397,(17, 105),68	3465,(20, 71),4	3469,(10, 60),20	3489,(17, 113),20	3509,(17, 153),12	3521,(17, 163),20	3541,(17, 167),12	3553,(9, 156),44	3597,(9, 157),36	3633,(10, 89),16	3649,(20, 60),8	3657,(9, 192),20	3677,(17, 174),12	3689,(20, 38),12	3701,(20, 82),8	3709,(1, 38),12	3725,(20, 105),8	3733,(20, 110),4	3737,(9, 163),68	3805,(10, 101),12	3817,(10, 163),4	3821,(20, 131),4	3833,(10, 25),212	4045,(10, 69),40	4085,(10, 105),8	4093,(10, 110),28	4121,(9, 182),148	4269,(17, 198),24	4293,(20, 132),4	4297,(20, 136),4	4301,(12, 25),36	4337,(20, 63),16	4389,(1, 71),4	4397,(12, 71),16	4413,(1, 79),4	4417,(1, 83),4	4469,(10, 174),4	4473,(10, 182),8	4481,(10, 196),4	4485,(10, 198),4	4489,(1, 89),4	4493,(10, 82),48	4541,(10, 136),40	4581,(19, 63),4	4585,(1, 101),12	4597,(1, 105),208	4805,(19, 79),4	4809,(20, 31),24	4833,(20, 153),4	4837,(10, 141),48	4885,(12, 26),72	4957,(20, 25),32	4989,(20, 174),4	4997,(10, 170),28	5025,(20, 101),20	5049,(12, 138),20	5077,(1, 117),116	5193,(10, 192),32	5225,(12, 101),60	5285,(1, 132),4	5293,(20, 133),16	5313,(1, 136),4	5317,(1, 138),8	5329,(1, 141),48	5377,(12, 133),48	5425,(12, 136),36	5461,(19, 38),40	5501,(19, 57),8	5509,(19, 82),8	5517,(19, 105),4	5521,(19, 110),4	5525,(19, 141),12	5537,(19, 174),4	5545,(16, 196),132	5677,(19, 31),108	5785,(17, 193),68	5897,(19, 101),96	5993,(1, 157),96	6093,(19, 157),8	6101,(19, 182),4	6105,(1, 163),8	6113,(19, 113),52	6165,(19, 117),60	6225,(1, 170),20	6245,(19, 133),200	6445,(19, 153),76	6553,(19, 167),24	6577,(17, 38),164	6741,(17, 69),112	6853,(17, 83),184	7237,(20, 57),156	7393,(20, 89),36	7449,(20, 113),28	7489,(20, 138),36	7789,(20, 157),40	7829,(20, 163),48	7941,(20, 170),48	29505,(1, 198),32	29589,(11, 26),24	29685,(11, 31),4	29697,(11, 38),148	29921,(11, 60),4	29981,(11, 71),8	30041,(11, 82),28	30069,(11, 83),96	30265,(11, 105),16	30333,(11, 110),40	30421,(11, 117),32	30665,(11, 131),8	30673,(11, 132),56	30729,(11, 133),4	30733,(11, 136),4	31073,(11, 163),12	31089,(11, 167),40	31213,(11, 182),40	31253,(11, 192),28	31281,(11, 193),4	31289,(11, 196),20	31317,(18, 25),52	31369,(18, 26),4	31377,(18, 31),16	31749,(18, 60),4	31753,(18, 63),4	31973,(18, 69),56	32189,(18, 82),12	32201,(18, 83),4	32349,(18, 101),4	32369,(18, 105),68	32521,(18, 131),4	32525,(18, 132),12	32593,(18, 136),12	32621,(18, 141),28	32657,(18, 153),44	32841,(18, 163),12	32853,(18, 170),8	32969,(18, 182),4	33033,(18, 193),20	33217,(18, 198),4	33269,(7, 25),20	33357,(7, 31),28	33437,(7, 57),20	33629,(7, 79),4	33633,(7, 82),20	33769,(7, 101),92	33861,(7, 105),8	33877,(7, 110),12	34041,(7, 131),4	34045,(7, 133),28	34097,(7, 138),8	34269,(7, 156),4	34273,(7, 157),4	34345,(7, 167),36	34409,(7, 174),28	34457,(7, 182),16	34477,(7, 192),20	34589,(14, 25),4	34593,(14, 26),4	34605,(14, 31),8	34617,(14, 38),32	34733,(14, 57),4	35093,(14, 71),40	35293,(14, 105),24	35317,(14, 110),28	35345,(14, 113),72	35537,(14, 136),16	35609,(14, 156),64	35905,(14, 182),64	35977,(14, 192),12	35989,(14, 193),92	36081,(14, 198),8	
# Outgoing
35,(5, 21),4	39,(5, 73),4	45,(5, 25),4	49,(5, 38),8	57,(5, 23),4	61,(5, 157),4	65,(5, 192),8	73,(5, 64),12	87,(5, 40),24	111,(5, 41),8	119,(5, 45),4	123,(5, 48),4	127,(5, 54),4	131,(5, 81),16	147,(5, 76),8	155,(5, 94),4	161,(5, 37),4	165,(5, 65),8	173,(5, 85),4	177,(5, 63),36	213,(5, 83),40	253,(5, 95),4	257,(5, 138),16	273,(5, 193),4	277,(5, 97),4	281,(5, 119),4	285,(5, 175),4	289,(9, 40),4	293,(9, 48),4	297,(5, 77),8	305,(5, 122),4	309,(5, 86),8	317,(5, 149),4	321,(9, 78),4	325,(9, 60),4	329,(5, 125),20	349,(5, 55),48	397,(5, 107),24	421,(5, 92),12	433,(5, 129),4	437,(9, 26),16	453,(9, 136),4	457,(5, 116),8	465,(5, 142),24	489,(5, 143),8	497,(9, 174),4	501,(5, 139),8	509,(5, 161),4	513,(9, 198),4	517,(12, 82),4	521,(12, 89),4	525,(9, 102),4	529,(9, 188),4	533,(12, 83),12	545,(9, 150),12	557,(9, 89),20	577,(5, 102),52	629,(12, 40),4	633,(12, 105),4	637,(12, 110),4	641,(12, 117),4	645,(12, 55),4	649,(12, 78),4	653,(5, 146),4	657,(5, 151),4	661,(5, 164),4	665,(12, 132),4	669,(12, 165),4	673,(12, 156),4	677,(12, 192),4	681,(5, 78),72	753,(5, 180),16	769,(12, 68),8	777,(12, 193),4	781,(12, 176),4	785,(12, 167),8	793,(12, 196),4	797,(12, 107),8	805,(5, 200),4	809,(9, 30),4	813,(9, 66),4	817,(9, 91),4	821,(5, 132),24	845,(9, 110),16	861,(9, 45),16	877,(9, 75),16	893,(5, 153),32	925,(9, 31),28	953,(9, 51),40	993,(9, 94),4	997,(5, 114),180	1177,(5, 165),48	1225,(9, 176),12	1249,(12, 118),8	1257,(5, 105),144	1401,(9, 63),24	1425,(9, 79),32	1457,(9, 82),32	1489,(5, 84),60	1549,(5, 47),64	1613,(9, 76),28	1641,(5, 51),52	1693,(5, 62),56	1749,(9, 141),24	1781,(5, 91),48	1829,(9, 167),16	1849,(5, 22),68	1917,(5, 29),72	1989,(5, 123),64	2053,(5, 126),60	2113,(5, 154),56	2169,(5, 156),116	2285,(5, 159),60	2345,(5, 168),4	2349,(5, 176),72	2421,(5, 194),60	2485,(9, 22),36	2521,(9, 27),100	2621,(9, 37),4	2625,(9, 50),4	2629,(9, 65),8	2637,(9, 95),4	2641,(9, 104),8	2649,(9, 134),8	2657,(9, 139),8	2665,(9, 84),4	2669,(9, 99),4	2673,(9, 118),20	2693,(9, 162),4	2697,(12, 47),4	2701,(9, 29),20	2721,(9, 85),12	2733,(9, 123),12	2745,(9, 151),4	2749,(9, 36),72	2821,(9, 52),40	2861,(9, 72),56	2921,(9, 140),20	2941,(9, 43),96	3037,(9, 74),104	3141,(9, 109),28	3169,(9, 129),20	3189,(9, 144),12	3201,(9, 81),108	3309,(9, 120),96	3405,(9, 122),40	3445,(9, 125),24	3469,(9, 127),36	3505,(9, 142),24	3529,(9, 143),20	3549,(9, 155),4	3553,(9, 156),44	3597,(9, 157),36	3633,(9, 165),24	3657,(9, 192),20	3677,(12, 56),4	3685,(9, 159),52	3737,(9, 163),68	3805,(12, 81),4	3809,(12, 22),4	3813,(12, 84),12	3825,(12, 109),4	3833,(9, 164),148	3981,(9, 177),104	4085,(9, 180),36	4121,(9, 182),148	4269,(9, 184),32	4301,(12, 25),36	4337,(12, 42),16	4353,(12, 27),44	4397,(12, 71),16	4413,(12, 35),36	4449,(12, 49),24	4473,(12, 62),40	4513,(12, 86),52	4565,(12, 91),8	4573,(12, 104),4	4577,(12, 125),4	4581,(12, 130),4	4585,(12, 134),16	4601,(12, 24),64	4665,(12, 41),28	4693,(12, 102),24	4717,(12, 145),4	4721,(12, 37),52	4773,(12, 75),40	4813,(12, 114),16	4829,(12, 139),12	4841,(12, 92),20	4861,(12, 122),8	4869,(12, 123),12	4881,(12, 168),4	4885,(12, 26),72	4957,(12, 95),56	5013,(12, 96),36	5049,(12, 138),20	5069,(12, 177),4	5073,(12, 187),4	5077,(12, 50),96	5189,(12, 103),32	5225,(12, 101),60	5285,(12, 126),48	5333,(12, 146),36	5377,(12, 133),48	5425,(12, 136),36	5461,(12, 184),32	5493,(12, 188),20	5513,(12, 190),28	5545,(12, 127),156	5701,(12, 175),112	
23,(2, 21),4	27,(2, 24),60	87,(2, 32),8	95,(2, 33),12	107,(2, 34),24	131,(2, 36),4	135,(2, 39),4	139,(2, 41),4	143,(2, 48),4	149,(2, 25),24	173,(2, 38),4	177,(2, 45),8	185,(2, 51),16	201,(2, 52),8	209,(2, 54),4	213,(2, 59),40	253,(2, 60),4	257,(2, 67),20	277,(2, 71),44	321,(2, 73),4	325,(2, 74),4	329,(2, 75),4	333,(2, 78),4	337,(2, 82),4	341,(2, 83),8	349,(2, 86),96	445,(2, 87),12	457,(2, 89),40	497,(2, 91),4	501,(2, 103),12	513,(2, 104),168	681,(2, 105),96	777,(2, 114),4	781,(2, 117),4	785,(2, 118),8	793,(2, 119),4	797,(2, 138),24	821,(2, 140),4	825,(2, 145),72	897,(2, 149),4	901,(2, 150),68	969,(2, 156),8	977,(2, 157),20	997,(2, 161),224	1221,(2, 162),16	1237,(2, 165),12	1249,(2, 167),8	1257,(2, 175),140	1397,(2, 179),100	1497,(2, 182),56	1553,(2, 184),4	1557,(2, 188),8	1565,(2, 196),56	1621,(2, 200),20	1641,(6, 24),32	1673,(6, 40),20	1693,(6, 41),12	1705,(6, 45),4	1709,(6, 68),4	1713,(6, 72),4	1717,(6, 38),8	1725,(6, 57),4	1729,(6, 60),4	1733,(6, 63),4	1737,(6, 71),4	1741,(6, 105),4	1745,(10, 133),4	1749,(6, 21),28	1777,(6, 69),28	1805,(6, 117),24	1829,(6, 30),4	1833,(6, 35),4	1837,(6, 47),28	1865,(6, 49),4	1869,(6, 56),24	1893,(6, 59),4	1897,(6, 62),184	2081,(6, 66),44	2125,(6, 79),32	2157,(6, 48),20	2177,(6, 55),20	2197,(6, 64),84	2281,(6, 75),4	2285,(6, 97),4	2289,(6, 102),4	2293,(6, 131),20	2313,(6, 156),8	2321,(6, 157),24	2345,(6, 73),56	2401,(6, 81),4	2405,(6, 86),4	2409,(6, 91),4	2413,(6, 96),4	2417,(6, 101),64	2481,(6, 127),4	2485,(6, 132),52	2537,(6, 133),72	2609,(6, 134),12	2621,(6, 138),156	2777,(6, 140),40	2817,(6, 149),12	2829,(6, 159),92	2921,(6, 165),24	2945,(6, 167),68	3013,(6, 170),60	3073,(6, 174),76	3149,(6, 187),4	3153,(6, 191),4	3157,(6, 194),88	3245,(6, 198),64	3309,(6, 200),64	3373,(10, 21),4	3377,(10, 40),4	3381,(10, 41),24	3405,(10, 47),4	3409,(10, 49),4	3413,(10, 52),56	3469,(10, 60),20	3489,(10, 72),4	3493,(10, 76),8	3501,(10, 107),4	3505,(10, 56),16	3521,(10, 64),4	3525,(10, 78),16	3541,(10, 81),28	3569,(10, 91),4	3573,(10, 94),32	3605,(10, 95),16	3621,(10, 103),12	3633,(10, 89),16	3649,(10, 104),4	3653,(10, 134),4	3657,(10, 118),16	3673,(2, 53),4	3677,(2, 115),4	3681,(2, 137),4	3685,(10, 150),4	3689,(2, 44),16	3705,(2, 98),12	3717,(2, 121),8	3725,(10, 97),20	3745,(10, 140),4	3749,(10, 145),8	3757,(10, 161),4	3761,(10, 162),4	3765,(10, 176),12	3777,(10, 179),4	3781,(10, 184),12	3793,(10, 190),4	3797,(10, 200),8	3805,(10, 101),12	3817,(10, 163),4	3821,(2, 128),12	3833,(10, 25),212	4045,(10, 69),40	4085,(10, 105),8	4093,(10, 110),28	4121,(10, 187),16	4137,(10, 188),24	4161,(10, 191),16	4177,(19, 35),12	4189,(19, 42),4	4193,(19, 49),4	4197,(19, 64),4	4201,(19, 74),4	4205,(19, 94),4	4209,(19, 127),4	4213,(2, 46),168	4381,(2, 61),28	4409,(2, 108),20	4429,(2, 148),4	4433,(2, 152),32	4465,(2, 173),4	4469,(10, 174),4	4473,(10, 182),8	4481,(10, 196),4	4485,(10, 198),4	4493,(10, 82),48	4541,(10, 136),40	4581,(19, 63),4	4585,(2, 80),116	4701,(2, 135),80	4781,(2, 186),24	4805,(19, 79),4	4809,(2, 185),28	4837,(10, 141),48	4885,(19, 39),4	4889,(2, 106),108	4997,(10, 170),28	5025,(10, 180),164	5189,(19, 140),4	5193,(10, 192),32	5225,(19, 41),68	5293,(19, 48),4	5297,(19, 54),24	5321,(19, 55),4	5325,(19, 75),4	5329,(19, 56),28	5357,(19, 72),8	5365,(19, 78),36	5401,(19, 97),16	5417,(19, 107),4	5421,(19, 119),4	5425,(19, 175),8	5433,(19, 179),8	5441,(19, 188),8	5449,(19, 190),4	5461,(19, 38),40	5501,(19, 57),8	5509,(19, 82),8	5517,(19, 105),4	5521,(19, 110),4	5525,(19, 141),12	5537,(19, 174),4	5541,(19, 114),100	5677,(19, 31),108	5785,(19, 47),84	5869,(19, 81),28	5897,(19, 101),96	5993,(19, 104),92	6085,(19, 145),4	6089,(19, 149),4	6093,(19, 157),8	6101,(19, 182),4	6113,(19, 113),52	6165,(19, 117),60	6225,(19, 162),16	6245,(19, 133),200	6445,(19, 153),76	6521,(19, 159),32	6553,(19, 167),24	6577,(19, 180),40	6617,(19, 187),36	6653,(19, 191),36	6689,(19, 200),224	29157,(6, 44),8	29533,(6, 58),4	29549,(2, 147),1244	30793,(2, 183),1684	39905,(6, 28),80	39985,(6, 80),28	40013,(6, 106),16	40029,(6, 108),32	40061,(6, 111),20	40081,(6, 128),40	40121,(6, 135),32	40153,(6, 147),680	40833,(6, 148),8	40841,(6, 173),4	40845,(6, 183),608	41453,(6, 185),4	41457,(6, 186),88	41545,(6, 189),4	45229,(10, 28),4	45233,(10, 33),12	45245,(10, 34),8	45253,(10, 53),104	45357,(10, 58),220	45577,(10, 90),16	45593,(10, 98),8	45601,(10, 100),108	45709,(10, 108),12	45721,(10, 111),8	45729,(10, 115),4	45733,(10, 148),228	45961,(10, 158),4	45965,(10, 169),72	46037,(10, 189),120	46157,(10, 197),4	46161,(10, 199),8	52501,(19, 32),12	52513,(19, 34),8	52521,(19, 46),40	52561,(19, 53),60	52621,(19, 58),60	52681,(19, 61),24	52705,(19, 90),32	52737,(19, 98),768	53505,(19, 100),4	53509,(19, 108),108	53617,(19, 111),60	53677,(19, 128),76	53753,(19, 137),8	53761,(19, 158),32	53793,(19, 169),4	53797,(19, 172),132	53929,(19, 173),4	53933,(19, 183),4	53937,(19, 185),8	53945,(19, 186),12	53957,(19, 189),4	53961,(19, 197),20	59701,(65, 201),8	59757,(77, 201),8	59789,(112, 201),8	59797,(123, 201),8	59821,(143, 201),8	59837,(155, 201),8	59869,(195, 201),8	59885,(29, 201),8	59893,(37, 201),8	59941,(84, 201),8	59949,(85, 201),8	59957,(92, 201),8	59973,(109, 201),8	59981,(122, 201),8	59989,(126, 201),8	59997,(129, 201),8	60037,(144, 201),8	60061,(154, 201),8	60117,(177, 201),8	60125,(22, 201),8	60141,(23, 201),8	60165,(27, 201),8	60197,(43, 201),8	60205,(50, 201),8	60261,(70, 201),8	60301,(99, 201),8	60349,(116, 201),8	60357,(120, 201),8	60413,(142, 201),8	60421,(146, 201),8	60429,(151, 201),8	60445,(164, 201),8	60453,(168, 201),8	60461,(171, 201),8	60469,(178, 201),8	60477,(181, 201),8	
209,(4, 27),88	297,(4, 39),24	321,(4, 38),4	325,(4, 41),4	329,(4, 89),4	333,(4, 132),4	337,(4, 48),4	341,(4, 52),8	349,(4, 31),88	437,(4, 65),20	457,(4, 45),16	473,(4, 55),4	477,(4, 72),12	489,(4, 75),12	501,(4, 101),12	513,(4, 76),4	517,(4, 78),4	521,(4, 87),4	525,(4, 133),4	529,(4, 156),4	533,(4, 85),12	545,(4, 105),12	557,(4, 107),20	577,(4, 113),56	633,(4, 114),12	645,(4, 117),20	665,(4, 142),4	669,(4, 157),4	673,(4, 29),92	765,(4, 84),72	837,(4, 119),24	861,(4, 138),24	885,(4, 163),4	889,(4, 170),4	893,(4, 179),4	897,(4, 122),12	909,(4, 123),24	933,(4, 129),20	953,(4, 167),16	969,(4, 180),28	997,(4, 83),232	1229,(4, 174),8	1237,(4, 116),152	1389,(4, 126),24	1413,(4, 144),4	1417,(4, 146),8	1425,(4, 154),4	1429,(4, 168),4	1433,(4, 171),8	1441,(4, 177),44	1485,(4, 181),4	1489,(16, 26),4	1493,(16, 63),4	1497,(4, 165),48	1545,(4, 184),4	1549,(4, 194),4	1553,(16, 79),8	1561,(16, 89),4	1565,(4, 188),16	1581,(4, 190),32	1621,(4, 182),16	1637,(4, 192),80	1717,(4, 178),100	1817,(4, 195),32	1849,(4, 196),32	1881,(4, 198),36	1917,(16, 117),8	1925,(17, 71),4	1929,(4, 103),228	2157,(17, 26),12	2197,(16, 27),12	2209,(16, 40),8	2217,(16, 48),8	2225,(16, 54),4	2229,(16, 29),4	2233,(16, 50),32	2265,(16, 123),4	2269,(16, 126),4	2273,(16, 68),4	2277,(16, 129),8	2285,(17, 82),8	2293,(16, 92),12	2305,(16, 142),4	2309,(16, 146),4	2313,(16, 45),24	2337,(16, 178),4	2341,(16, 195),4	2345,(16, 69),24	2369,(16, 163),28	2397,(17, 89),20	2457,(16, 112),12	2469,(16, 181),8	2481,(16, 24),32	2513,(16, 52),12	2525,(16, 55),8	2533,(16, 72),28	2561,(16, 103),4	2565,(16, 119),4	2609,(17, 110),8	2617,(17, 132),4	2637,(16, 93),24	2661,(16, 124),4	2693,(16, 150),4	2697,(17, 48),4	2777,(16, 25),76	2853,(16, 167),36	2889,(17, 57),56	3037,(17, 22),4	3041,(17, 23),4	3045,(17, 50),4	3049,(16, 165),8	3057,(17, 40),16	3073,(16, 122),16	3089,(16, 155),16	3105,(17, 151),4	3109,(16, 76),32	3141,(17, 97),4	3145,(17, 102),4	3149,(16, 182),80	3229,(17, 133),8	3237,(17, 156),4	3241,(17, 157),4	3245,(16, 179),28	3273,(17, 107),8	3281,(16, 151),24	3305,(17, 171),4	3309,(16, 192),88	3397,(17, 105),68	3465,(20, 71),4	3469,(17, 150),4	3473,(17, 165),8	3481,(17, 179),4	3485,(17, 180),4	3489,(17, 113),20	3509,(17, 153),12	3521,(17, 163),20	3541,(17, 167),12	3553,(17, 68),36	3589,(17, 119),24	3613,(20, 36),4	3617,(20, 39),4	3649,(20, 60),8	3669,(17, 181),4	3673,(20, 40),4	3677,(17, 174),12	3689,(20, 38),12	3701,(20, 82),8	3709,(17, 77),12	3721,(20, 55),4	3725,(20, 105),8	3733,(20, 110),4	3745,(20, 24),12	3757,(20, 97),8	3797,(20, 52),12	3821,(20, 131),4	3825,(17, 93),56	3881,(17, 124),28	3909,(20, 76),12	3921,(20, 78),44	3965,(20, 87),44	4041,(20, 102),32	4073,(20, 114),4	4077,(20, 118),4	4081,(20, 184),4	4121,(20, 165),16	4149,(16, 85),40	4189,(16, 164),24	4213,(17, 85),24	4237,(17, 195),4	4269,(17, 198),24	4293,(20, 132),4	4297,(20, 136),4	4337,(20, 63),16	4353,(16, 184),248	4773,(17, 122),8	4781,(17, 129),8	4789,(17, 154),8	4797,(17, 168),8	4805,(20, 99),4	4809,(20, 31),24	4833,(20, 153),4	4837,(4, 46),4	4885,(20, 142),4	4957,(20, 25),32	4989,(20, 174),4	5025,(20, 101),20	5173,(17, 155),16	5189,(20, 155),4	5209,(20, 168),4	5277,(20, 171),4	5281,(4, 44),12	5293,(20, 133),16	5369,(20, 178),4	5373,(20, 195),4	5381,(17, 27),48	5429,(17, 142),32	5493,(4, 28),24	5533,(4, 53),4	5537,(4, 61),4	5541,(4, 100),4	5545,(16, 196),132	5785,(17, 193),68	5877,(17, 43),92	5969,(20, 37),20	5993,(20, 27),24	6017,(4, 80),44	6061,(4, 111),20	6081,(4, 128),4	6085,(4, 160),4	6089,(20, 84),12	6101,(4, 183),16	6117,(17, 92),44	6161,(17, 177),52	6213,(20, 85),12	6225,(4, 158),20	6245,(17, 126),100	6345,(20, 29),24	6369,(20, 43),48	6417,(20, 48),140	6557,(20, 65),20	6577,(17, 38),164	6741,(17, 69),112	6853,(17, 83),184	7037,(20, 54),200	7237,(20, 57),156	7393,(20, 89),36	7429,(20, 112),20	7449,(20, 113),28	7477,(20, 126),12	7489,(20, 138),36	7525,(20, 146),24	7549,(20, 150),176	7725,(20, 151),64	7789,(20, 157),40	7829,(20, 163),48	7877,(20, 164),64	7941,(20, 170),48	7989,(20, 180),52	8041,(20, 181),24	29065,(4, 32),80	29145,(4, 186),12	29505,(4, 121),28	33145,(4, 58),116	33261,(4, 90),324	33585,(4, 115),528	34113,(4, 135),3160	37273,(4, 147),40	37313,(4, 169),56	37369,(4, 173),132	37501,(4, 185),88	37589,(4, 199),40	50357,(16, 32),20	50377,(16, 33),4	50381,(16, 34),16	50397,(16, 46),24	50421,(16, 53),448	50869,(16, 58),16	50885,(16, 61),36	50921,(16, 80),4	50925,(16, 90),16	50941,(16, 108),16	50957,(16, 128),88	51045,(16, 147),4	51049,(16, 158),208	51257,(16, 172),136	51393,(16, 185),4	55565,(17, 32),4	55569,(17, 33),12	55581,(17, 53),8	55589,(17, 61),4	55593,(17, 80),164	55757,(17, 108),4	55761,(17, 115),64	55825,(17, 121),28	55853,(17, 137),84	55937,(17, 166),4	55941,(17, 172),4	55945,(17, 186),56	56001,(17, 197),16	56017,(17, 199),4	56905,(20, 44),8	56913,(20, 46),4	56917,(20, 53),328	57245,(20, 58),32	57277,(20, 61),8	57285,(20, 80),12	57297,(20, 88),12	57309,(20, 106),20	57329,(20, 108),8	57337,(20, 111),80	57417,(20, 128),4	57421,(20, 135),132	57553,(20, 137),4	57557,(20, 148),4	57561,(20, 152),112	57673,(20, 158),548	58221,(20, 166),64	58285,(20, 172),108	58393,(20, 183),4	58397,(20, 185),992	59501,(49, 201),8	59517,(95, 201),8	59693,(47, 201),8	59709,(86, 201),8	59773,(94, 201),8	59781,(104, 201),8	59861,(187, 201),8	59877,(21, 201),8	59901,(42, 201),8	59909,(56, 201),8	59917,(64, 201),8	60021,(134, 201),8	60045,(145, 201),8	60053,(149, 201),8	60077,(159, 201),8	60085,(161, 201),8	60093,(162, 201),8	60149,(30, 201),8	60173,(35, 201),8	60213,(51, 201),8	60229,(59, 201),8	60237,(62, 201),8	60245,(66, 201),8	60253,(67, 201),8	60277,(73, 201),8	60285,(74, 201),8	60293,(81, 201),8	60309,(91, 201),8	60317,(96, 201),8	60365,(125, 201),8	60373,(127, 201),8	60381,(130, 201),8	60397,(139, 201),8	60405,(140, 201),8	60493,(191, 201),8	60525,(200, 201),8	
1,(0, 2),4	5,(0, 3),4	9,(0, 4),4	13,(0, 5),4	17,(0, 6),4	21,(0, 8),4	25,(0, 9),4	29,(0, 10),4	33,(0, 12),4	37,(0, 13),4	41,(0, 15),4	45,(0, 16),4	49,(0, 17),4	53,(0, 19),4	57,(0, 20),4	61,(1, 21),8	69,(1, 23),4	73,(1, 26),76	149,(1, 28),3524	3673,(1, 29),8	3681,(1, 30),4	3685,(1, 33),4	3689,(1, 37),20	3709,(1, 38),12	3721,(1, 43),4	3725,(1, 44),92	3817,(1, 46),4	3821,(1, 47),4	3825,(1, 49),4	3829,(1, 50),4	3833,(1, 53),8	3841,(1, 61),372	4213,(1, 62),28	4241,(1, 64),52	4293,(1, 65),60	4353,(1, 66),36	4389,(1, 71),4	4393,(1, 74),20	4413,(1, 79),4	4417,(1, 83),4	4421,(1, 84),36	4457,(1, 85),28	4485,(1, 88),4	4489,(1, 89),4	4493,(1, 90),84	4577,(1, 92),4	4581,(1, 100),4	4585,(1, 101),12	4597,(1, 105),208	4805,(1, 108),4	4809,(1, 109),32	4841,(1, 111),48	4889,(1, 112),120	5009,(1, 115),64	5073,(1, 116),4	5077,(1, 117),116	5193,(1, 121),20	5213,(1, 122),4	5217,(1, 123),60	5277,(1, 128),4	5281,(1, 130),4	5285,(1, 132),4	5289,(1, 134),4	5293,(1, 135),20	5313,(1, 136),4	5317,(1, 138),8	5325,(1, 140),4	5329,(1, 141),48	5377,(1, 143),4	5381,(1, 145),80	5461,(1, 146),56	5517,(1, 148),16	5533,(1, 149),12	5545,(1, 152),444	5989,(1, 154),4	5993,(1, 157),96	6089,(1, 158),12	6101,(1, 161),4	6105,(1, 163),8	6113,(1, 164),4	6117,(1, 166),4	6121,(1, 169),104	6225,(1, 170),20	6245,(1, 172),22820	29065,(1, 181),100	29165,(1, 183),4	29169,(1, 185),4	29173,(1, 186),4	29177,(1, 189),276	29453,(1, 197),52	29505,(1, 198),32	29537,(1, 199),12	29549,(11, 21),40	29589,(11, 26),24	29613,(11, 30),72	29685,(11, 31),4	29689,(11, 35),4	29693,(11, 37),4	29697,(11, 38),148	29845,(11, 42),48	29893,(11, 47),8	29901,(11, 50),20	29921,(11, 60),4	29925,(11, 62),36	29961,(11, 64),4	29965,(11, 65),4	29969,(11, 66),4	29973,(11, 70),8	29981,(11, 71),8	29989,(11, 73),52	30041,(11, 82),28	30069,(11, 83),96	30165,(11, 84),28	30193,(11, 86),24	30217,(11, 99),12	30229,(11, 104),36	30265,(11, 105),16	30281,(11, 109),52	30333,(11, 110),40	30373,(11, 116),48	30421,(11, 117),32	30453,(11, 125),12	30465,(11, 126),8	30473,(11, 127),192	30665,(11, 131),8	30673,(11, 132),56	30729,(11, 133),4	30733,(11, 136),4	30737,(11, 142),16	30753,(11, 143),104	30857,(11, 144),104	30961,(11, 145),4	30965,(11, 146),12	30977,(11, 151),48	31025,(11, 155),48	31073,(11, 163),12	31085,(11, 164),4	31089,(11, 167),40	31129,(11, 168),4	31133,(11, 177),8	31141,(11, 178),72	31213,(11, 182),40	31253,(11, 192),28	31281,(11, 193),4	31285,(11, 195),4	31289,(11, 196),20	31309,(18, 22),4	31313,(18, 23),4	31317,(18, 25),52	31369,(18, 26),4	31373,(18, 27),4	31377,(18, 31),16	31393,(18, 43),208	31601,(18, 51),24	31625,(18, 56),16	31641,(18, 59),108	31749,(18, 60),4	31753,(18, 63),4	31757,(18, 64),120	31877,(18, 66),24	31901,(18, 67),72	31973,(18, 69),56	32029,(18, 70),20	32049,(18, 74),4	32053,(18, 77),32	32085,(18, 81),104	32189,(18, 82),12	32201,(18, 83),4	32205,(18, 84),4	32209,(18, 85),8	32217,(18, 91),24	32241,(18, 92),52	32293,(18, 94),12	32305,(18, 96),44	32349,(18, 101),4	32353,(18, 104),16	32369,(18, 105),68	32437,(18, 112),8	32445,(18, 120),4	32449,(18, 122),36	32485,(18, 123),32	32517,(18, 125),4	32521,(18, 131),4	32525,(18, 132),12	32537,(18, 134),56	32593,(18, 136),12	32605,(18, 139),16	32621,(18, 141),28	32649,(18, 143),4	32653,(18, 151),4	32657,(18, 153),44	32701,(18, 154),36	32737,(18, 155),104	32841,(18, 163),12	32853,(18, 170),8	32861,(18, 171),68	32929,(18, 177),4	32933,(18, 181),36	32969,(18, 182),4	32973,(18, 187),60	33033,(18, 193),20	33053,(18, 195),164	33217,(18, 198),4	33221,(7, 21),8	33229,(7, 22),36	33265,(7, 23),4	33269,(7, 25),20	33289,(7, 29),28	33317,(7, 30),40	33357,(7, 31),28	33385,(7, 37),20	33405,(7, 42),20	33425,(7, 43),4	33429,(7, 50),4	33433,(7, 56),4	33437,(7, 57),20	33457,(7, 59),16	33473,(7, 64),16	33489,(7, 66),4	33493,(7, 70),4	33497,(7, 73),132	33629,(7, 79),4	33633,(7, 82),20	33653,(7, 84),8	33661,(7, 85),44	33705,(7, 92),56	33761,(7, 99),8	33769,(7, 101),92	33861,(7, 105),8	33869,(7, 109),8	33877,(7, 110),12	33889,(7, 116),8	33897,(7, 120),4	33901,(7, 122),4	33905,(7, 125),12	33917,(7, 126),76	33993,(7, 129),32	34025,(7, 130),16	34041,(7, 131),4	34045,(7, 133),28	34073,(7, 134),24	34097,(7, 138),8	34105,(7, 139),4	34109,(7, 140),32	34141,(7, 142),28	34169,(7, 144),4	34173,(7, 145),20	34193,(7, 146),12	34205,(7, 149),20	34225,(7, 151),28	34253,(7, 154),16	34269,(7, 156),4	34273,(7, 157),4	34277,(7, 159),24	34301,(7, 161),32	34333,(7, 162),8	34341,(7, 164),4	34345,(7, 167),36	34381,(7, 171),28	34409,(7, 174),28	34437,(7, 177),20	34457,(7, 182),16	34473,(7, 191),4	34477,(7, 192),20	34497,(14, 22),88	34585,(14, 23),4	34589,(14, 25),4	34593,(14, 26),4	34597,(14, 27),4	34601,(14, 30),4	34605,(14, 31),8	34613,(14, 35),4	34617,(14, 38),32	34649,(14, 43),16	34665,(14, 50),40	34705,(14, 51),28	34733,(14, 57),4	34737,(14, 59),4	34741,(14, 62),168	34909,(14, 66),4	34913,(14, 67),176	35089,(14, 70),4	35093,(14, 71),40	35133,(14, 73),108	35241,(14, 74),4	35245,(14, 81),4	35249,(14, 91),16	35265,(14, 96),24	35289,(14, 99),4	35293,(14, 105),24	35317,(14, 110),28	35345,(14, 113),72	35417,(14, 116),4	35421,(14, 120),52	35473,(14, 125),16	35489,(14, 127),32	35521,(14, 130),16	35537,(14, 136),16	35553,(14, 139),16	35569,(14, 140),20	35589,(14, 142),4	35593,(14, 146),12	35605,(14, 151),4	35609,(14, 156),64	35673,(14, 164),136	35809,(14, 168),8	35817,(14, 171),8	35825,(14, 178),76	35901,(14, 181),4	35905,(14, 182),64	35969,(14, 191),8	35977,(14, 192),12	35989,(14, 193),92	36081,(14, 198),8	36089,(14, 200),44	37629,(11, 33),8	37637,(11, 34),1040	38677,(11, 46),4	38681,(11, 61),4	38685,(11, 80),4	38689,(11, 88),68	38757,(11, 90),184	38941,(11, 100),48	38989,(11, 106),4	38993,(11, 108),4	38997,(11, 111),4	39001,(11, 115),300	39301,(11, 128),44	39345,(11, 135),80	39425,(11, 137),28	39453,(11, 147),108	39561,(11, 152),60	39621,(11, 158),72	39693,(11, 160),20	39713,(11, 166),20	39733,(11, 169),20	39753,(11, 183),40	39793,(11, 186),104	39897,(11, 197),4	39901,(11, 199),4	43781,(18, 32),24	43805,(18, 34),8	43813,(18, 44),104	43917,(18, 53),16	43933,(18, 58),896	44829,(18, 61),4	44833,(18, 80),24	44857,(18, 98),4	44861,(18, 100),4	44865,(18, 111),4	44869,(18, 115),28	44897,(18, 137),72	44969,(18, 147),4	44973,(18, 148),96	45069,(18, 166),4	45073,(18, 169),8	45081,(18, 173),68	45149,(18, 183),24	45173,(18, 185),16	45189,(18, 189),16	45205,(18, 197),12	45217,(18, 199),12	51397,(7, 28),16	51413,(7, 33),28	51441,(7, 34),120	51561,(7, 46),8	51569,(7, 53),536	52105,(7, 58),12	52117,(7, 61),124	52241,(7, 98),36	52277,(7, 108),20	52297,(7, 121),80	52377,(7, 135),4	52381,(7, 137),32	52413,(7, 147),16	52429,(7, 148),20	52449,(7, 152),12	52461,(7, 158),12	52473,(7, 166),24	52497,(7, 186),4	56021,(14, 32),20	56041,(14, 33),56	56097,(14, 34),64	56161,(14, 46),4	56165,(14, 58),92	56257,(14, 61),4	56261,(14, 80),4	56265,(14, 88),64	56329,(14, 90),4	56333,(14, 98),288	56621,(14, 100),4	56625,(14, 106),4	56629,(14, 108),68	56697,(14, 115),40	56737,(14, 121),48	56785,(14, 128),12	56797,(14, 137),4	56801,(14, 147),24	56825,(14, 158),4	56829,(14, 166),36	56865,(14, 189),36	56901,(14, 197),4	59389,(45, 201),8	59397,(68, 201),8	59405,(36, 201),8	59413,(40, 201),8	59421,(52, 201),8	59429,(124, 201),8	59437,(76, 201),8	59445,(87, 201),8	59453,(165, 201),8	59461,(194, 201),8	59469,(102, 201),8	59477,(24, 201),8	59485,(93, 201),8	59493,(39, 201),8	59509,(176, 201),8	59525,(103, 201),8	59533,(41, 201),8	59541,(55, 201),8	59549,(75, 201),8	59557,(72, 201),8	59565,(78, 201),8	59573,(97, 201),8	59581,(107, 201),8	59589,(119, 201),8	59597,(179, 201),8	59605,(184, 201),8	59613,(190, 201),8	59621,(114, 201),8	59629,(118, 201),8	59637,(175, 201),8	59645,(188, 201),8	59653,(48, 201),8	59661,(54, 201),8	59677,(150, 201),8	59685,(180, 201),8	
27,(3, 21),4	33,(3, 27),20	53,(3, 49),4	57,(3, 53),4	61,(3, 65),4	65,(3, 77),4	69,(3, 74),4	73,(3, 22),88	161,(3, 24),16	177,(3, 95),4	181,(3, 130),4	185,(3, 36),16	201,(3, 139),4	205,(3, 143),4	209,(3, 149),4	213,(3, 39),4	217,(3, 40),8	225,(3, 41),40	265,(3, 87),12	277,(3, 42),32	309,(3, 50),80	389,(3, 84),32	421,(3, 93),8	429,(3, 102),4	433,(3, 103),4	437,(3, 165),8	445,(3, 30),52	497,(3, 85),36	533,(3, 107),12	545,(3, 112),108	653,(3, 124),16	669,(3, 171),4	673,(3, 176),8	681,(3, 35),60	741,(3, 56),24	765,(3, 59),20	785,(3, 62),20	805,(3, 114),32	837,(3, 129),28	865,(3, 144),32	897,(8, 48),4	901,(3, 67),28	929,(3, 81),24	953,(3, 116),168	1121,(3, 120),108	1229,(3, 178),8	1237,(3, 66),100	1337,(3, 127),184	1521,(3, 145),28	1549,(3, 155),104	1653,(3, 164),64	1717,(3, 180),20	1737,(3, 184),40	1777,(3, 187),4	1781,(3, 188),44	1825,(3, 190),8	1833,(3, 194),96	2125,(8, 51),12	2137,(8, 56),4	2141,(8, 59),4	2145,(8, 73),24	2169,(8, 23),28	2197,(8, 24),12	2209,(8, 27),20	2229,(8, 40),16	2245,(8, 45),20	2265,(8, 72),4	2269,(8, 87),4	2273,(8, 92),4	2277,(8, 114),4	2281,(8, 74),4	2285,(8, 123),4	2289,(8, 126),4	2293,(8, 55),20	2313,(8, 84),24	2337,(8, 103),12	2349,(8, 65),48	2397,(8, 77),40	2437,(8, 85),20	2457,(8, 94),8	2465,(8, 125),4	2469,(8, 127),4	2473,(8, 139),4	2477,(8, 146),8	2485,(8, 47),84	2569,(8, 52),68	2637,(8, 116),28	2665,(8, 118),8	2673,(8, 122),28	2701,(8, 124),48	2749,(8, 129),16	2765,(8, 142),80	2845,(8, 144),92	2937,(8, 155),4	2941,(13, 67),4	2945,(8, 175),56	3001,(8, 176),48	3049,(8, 178),24	3073,(8, 179),36	3109,(8, 195),32	3141,(13, 21),8	3149,(13, 41),4	3153,(13, 52),4	3157,(8, 191),44	3201,(13, 22),44	3245,(13, 27),36	3281,(13, 36),20	3301,(13, 48),8	3309,(13, 68),12	3321,(13, 72),4	3325,(13, 76),20	3345,(13, 87),12	3357,(13, 114),16	3373,(13, 119),4	3377,(13, 66),8	3385,(13, 86),4	3389,(13, 91),16	3405,(13, 184),4	3409,(15, 52),4	3413,(13, 94),16	3429,(13, 104),12	3441,(13, 125),4	3445,(13, 37),40	3485,(13, 50),12	3497,(13, 65),8	3505,(13, 124),16	3521,(15, 54),4	3525,(13, 130),4	3529,(13, 139),4	3533,(13, 159),4	3537,(13, 161),4	3541,(15, 45),8	3549,(15, 72),4	3553,(13, 23),72	3625,(13, 77),4	3629,(13, 84),8	3637,(13, 112),16	3653,(13, 116),4	3657,(13, 126),4	3661,(13, 146),4	3665,(13, 155),4	3669,(13, 162),4	3673,(15, 35),4	3677,(15, 119),4	3681,(13, 168),4	3685,(13, 171),4	3689,(13, 118),32	3725,(13, 43),84	3809,(13, 165),16	3829,(13, 30),68	3897,(13, 51),52	3949,(13, 96),60	4009,(13, 180),32	4041,(15, 21),36	4077,(15, 56),4	4081,(15, 67),4	4085,(13, 122),52	4137,(13, 177),12	4149,(15, 64),12	4161,(13, 97),80	4241,(13, 195),16	4257,(15, 43),20	4277,(15, 50),12	4289,(15, 181),4	4293,(15, 73),8	4301,(13, 194),52	4389,(15, 149),4	4397,(15, 70),16	4413,(15, 126),8	4469,(3, 106),4	4473,(3, 128),4	4477,(3, 137),4	4481,(3, 166),4	4489,(3, 172),4	4493,(13, 109),80	4577,(3, 199),4	4581,(13, 144),140	4721,(15, 24),32	4753,(15, 30),72	4825,(15, 161),4	4829,(15, 93),12	4841,(15, 47),48	4889,(15, 49),24	4913,(15, 86),8	4921,(15, 94),12	4933,(15, 97),24	4957,(15, 103),8	4965,(15, 150),20	4985,(15, 176),8	4997,(3, 158),12	5009,(15, 77),12	5021,(15, 85),12	5033,(15, 109),12	5045,(15, 116),24	5073,(3, 32),88	5161,(3, 115),32	5193,(15, 123),16	5213,(3, 121),40	5253,(3, 160),8	5261,(3, 197),16	5293,(15, 125),8	5301,(15, 139),12	5313,(3, 100),68	5381,(3, 183),112	5493,(15, 159),20	5517,(15, 99),104	5641,(15, 118),36	5677,(15, 120),156	5833,(15, 151),44	5877,(15, 188),8	5897,(15, 134),60	5957,(15, 187),12	5989,(3, 186),28	6017,(15, 195),24	6105,(15, 140),36	32477,(3, 90),344	32821,(3, 148),184	33005,(3, 173),140	41549,(8, 34),1204	42753,(8, 53),12	42765,(8, 58),4	42769,(8, 61),4	42773,(8, 80),60	42833,(8, 88),16	42849,(8, 90),16	42865,(8, 98),8	42873,(8, 108),36	42909,(8, 115),8	42917,(8, 121),8	42925,(8, 128),132	43057,(8, 135),372	43429,(8, 152),32	43461,(8, 158),24	43485,(8, 166),68	43553,(8, 169),52	43605,(8, 172),24	43629,(8, 173),48	43677,(8, 186),56	43733,(8, 197),44	43777,(8, 199),4	46169,(13, 28),12	46181,(13, 44),12	46193,(13, 53),36	46229,(13, 100),100	46329,(13, 106),48	46377,(13, 108),4	46381,(13, 115),4	46385,(13, 121),28	46413,(13, 128),2772	49185,(13, 135),8	49193,(13, 147),4	49197,(13, 148),36	49233,(13, 158),896	50129,(13, 166),92	50221,(13, 172),56	50277,(13, 183),24	50301,(13, 186),36	50337,(13, 189),20	53981,(15, 28),4	53985,(15, 34),392	54377,(15, 46),16	54393,(15, 58),496	54889,(15, 88),8	54897,(15, 100),4	54901,(15, 111),4	54905,(15, 115),4	54909,(15, 128),28	54937,(15, 137),24	54961,(15, 147),60	55021,(15, 160),16	55037,(15, 169),12	55049,(15, 172),108	55157,(15, 173),160	55317,(15, 183),160	55477,(15, 199),88	59669,(89, 201),8	59717,(117, 201),8	59725,(196, 201),8	59733,(60, 201),8	59741,(63, 201),8	59749,(69, 201),8	59765,(83, 201),8	59805,(132, 201),8	59813,(141, 201),8	59829,(153, 201),8	59845,(163, 201),8	59853,(170, 201),8	59925,(79, 201),8	59933,(82, 201),8	59965,(101, 201),8	60005,(131, 201),8	60013,(133, 201),8	60029,(138, 201),8	60069,(157, 201),8	60101,(167, 201),8	60109,(174, 201),8	60133,(25, 201),8	60157,(26, 201),8	60181,(31, 201),8	60189,(38, 201),8	60221,(57, 201),8	60269,(71, 201),8	60325,(105, 201),8	60333,(110, 201),8	60341,(113, 201),8	60389,(136, 201),8	60437,(156, 201),8	60485,(182, 201),8	60501,(192, 201),8	60509,(193, 201),8	60517,(198, 201),8	
