3321
# CPU
46,10,80	126,20,80	206,70,80	286,30,80	2039,90,80	2119,200,80	2199,130,80	2279,50,80	2359,120,80	2439,140,80	2519,80,80	2599,40,80	2679,170,80	2759,150,80	2839,180,80	2919,60,80	2999,110,80	3079,160,80	3159,100,80	3239,190,80	
41,9,80	121,19,80	201,49,80	281,119,80	361,39,80	441,129,80	521,109,80	601,59,80	681,169,80	761,89,80	841,159,80	921,99,80	1001,29,80	1081,199,80	1161,189,80	1241,69,80	1321,139,80	2012,79,80	2092,149,80	2172,179,80	
36,8,80	116,18,80	196,148,80	276,198,80	356,118,80	436,108,80	516,178,80	596,188,80	676,38,80	756,48,80	836,68,80	916,98,80	996,88,80	1076,138,80	1156,28,80	1236,78,80	1316,128,80	1396,158,80	1476,58,80	2065,168,80	
31,7,80	111,17,80	191,97,80	271,67,80	351,57,80	446,117,80	526,167,80	606,177,80	686,77,80	766,147,80	846,197,80	926,107,80	1006,137,80	1086,157,80	1166,47,80	1246,87,80	1997,27,80	2077,37,80	2157,127,80	2237,187,80	
26,6,80	106,16,80	224,36,80	304,156,80	384,46,80	464,186,80	566,66,80	646,86,80	726,196,80	806,96,80	886,136,80	966,176,80	1046,56,80	1126,116,80	1206,126,80	1955,26,80	2035,106,80	2115,166,80	2195,76,80	2314,146,80	
21,5,80	101,15,80	273,45,80	353,85,80	433,115,80	719,55,80	799,75,80	879,95,80	959,105,80	1039,165,80	1119,175,80	1199,195,80	1279,25,80	1359,65,80	1439,155,80	1519,35,80	1599,145,80	2013,125,80	2093,135,80	2173,185,80	
16,4,80	96,14,80	284,34,80	364,24,80	444,64,80	524,54,80	604,84,80	684,174,80	764,44,80	844,94,80	924,104,80	1004,124,80	1084,134,80	1164,114,80	1244,154,80	1324,164,80	1404,74,80	1484,144,80	2072,194,80	2152,184,80	
11,3,80	91,13,80	264,33,80	344,83,80	424,183,80	849,173,80	929,43,80	1009,103,80	1089,53,80	1169,93,80	1249,73,80	1329,193,80	1409,63,80	1489,113,80	1569,123,80	1996,23,80	2076,133,80	2156,143,80	2236,153,80	2316,163,80	
6,2,80	86,12,80	297,22,80	378,152,80	458,82,80	538,42,80	812,162,80	892,192,80	972,102,80	1052,32,80	1132,52,80	1212,72,80	1292,172,80	1372,62,80	1452,92,80	1532,112,80	1612,122,80	1692,132,80	1772,142,80	2068,182,80	
0,0,1	1,11,80	81,1,80	333,21,80	413,61,80	493,81,80	573,91,80	653,31,80	733,111,80	813,161,80	893,101,80	973,121,80	1053,171,80	1133,151,80	1213,131,80	1293,41,80	1373,51,80	1453,71,80	1533,141,80	1613,181,80	1704,191,80	3320,201,1	
# Incoming
41,(0, 10),5	86,(0, 20),5	93,(11, 40),2	101,(3, 30),1	102,(3, 50),2	104,(3, 70),1	168,(4, 80),5	173,(9, 40),5	193,(9, 80),6	203,(9, 110),5	208,(9, 130),5	214,(14, 100),1	215,(12, 50),1	216,(12, 60),1	218,(19, 40),1	221,(12, 130),1	222,(12, 190),2	236,(11, 120),10	246,(12, 150),4	251,(11, 130),1	255,(19, 80),1	259,(14, 30),8	286,(19, 90),7	296,(11, 170),1697	1993,(5, 190),33	2026,(6, 60),4	2030,(6, 180),1	2031,(6, 190),5	2036,(7, 90),3	2039,(7, 100),6	2045,(7, 170),13	2058,(7, 200),8	2066,(8, 100),5	2071,(8, 160),1	2072,(1, 40),1	2073,(1, 80),8	2081,(1, 130),16	2097,(1, 140),1	2098,(13, 40),8	2106,(15, 40),7	2113,(15, 50),1	2114,(15, 110),15	2129,(15, 120),11	2140,(15, 140),3	2143,(16, 80),6	2150,(1, 190),4	2154,(12, 40),111	2265,(14, 170),350	2615,(15, 170),1	2616,(16, 150),11	2627,(16, 180),2	2629,(17, 60),18	2647,(17, 100),8	2655,(17, 110),2	2657,(17, 160),6	2663,(18, 100),4	2667,(18, 190),37	2704,(19, 190),2	
36,(0, 9),5	81,(0, 19),5	95,(11, 49),4	99,(2, 59),10	120,(3, 159),3	123,(2, 69),1	124,(2, 99),10	134,(3, 49),30	164,(4, 59),4	168,(10, 39),2	170,(2, 169),11	182,(10, 119),1	183,(10, 149),3	192,(10, 179),13	206,(4, 159),2	209,(14, 69),1	211,(14, 99),3	229,(11, 99),6	235,(11, 109),1	246,(20, 119),1	261,(6, 29),7	268,(14, 29),14	282,(14, 189),1	286,(3, 69),17	310,(7, 29),3	313,(12, 189),16	329,(14, 39),7	340,(5, 59),7	347,(6, 129),8	359,(7, 169),1	360,(5, 109),1	361,(7, 99),9	370,(14, 89),17	387,(16, 89),5	393,(7, 199),4	397,(15, 59),2	409,(10, 169),30	462,(3, 179),1	463,(12, 29),149	612,(13, 89),37	649,(15, 159),1	650,(20, 99),7	657,(20, 189),6	705,(16, 29),24	782,(14, 199),42	856,(8, 69),3	887,(16, 189),21	908,(20, 69),144	1099,(18, 69),7	1107,(18, 79),3	1158,(18, 139),1	1993,(11, 179),2	2011,(1, 79),1	2051,(1, 149),13	2065,(1, 179),1	
31,(0, 8),5	76,(0, 18),5	91,(2, 48),5	96,(3, 28),5	105,(3, 88),6	111,(3, 98),5	116,(4, 28),11	159,(10, 148),1	173,(4, 88),6	181,(2, 178),1	191,(9, 68),2	193,(2, 198),22	215,(4, 168),4	219,(9, 108),5	224,(12, 38),1	239,(12, 118),3	242,(20, 98),1	243,(20, 108),3	256,(19, 98),1	257,(19, 128),3	264,(11, 138),1	295,(6, 158),1	296,(6, 178),1	297,(6, 188),6	304,(5, 28),1	305,(5, 38),4	309,(14, 38),6	320,(7, 48),1	346,(16, 78),1	347,(5, 68),1	353,(5, 98),6	373,(16, 88),4	386,(7, 168),4	395,(3, 138),11	406,(15, 28),3	409,(15, 78),7	449,(15, 128),8	457,(15, 158),5	469,(13, 58),3	2064,(1, 168),1	
26,(0, 7),5	71,(0, 17),5	134,(2, 117),1	135,(2, 127),9	151,(10, 107),2	153,(10, 117),1	154,(10, 147),5	163,(4, 187),1	165,(2, 157),5	178,(9, 57),13	200,(9, 137),2	208,(14, 37),1	210,(14, 77),1	219,(12, 77),2	224,(10, 167),13	240,(20, 67),1	241,(20, 107),1	247,(20, 127),1	248,(9, 187),3	257,(20, 117),5	268,(6, 37),7	290,(6, 47),5	295,(19, 147),5	300,(19, 187),6	309,(20, 167),5	326,(5, 57),14	344,(16, 57),2	361,(5, 147),4	365,(10, 137),30	400,(15, 77),6	439,(15, 107),2	441,(15, 117),5	447,(3, 167),13	463,(3, 187),1	464,(10, 177),39	503,(13, 77),1	504,(13, 107),11	524,(20, 147),18	546,(13, 127),1	547,(13, 197),1	593,(15, 157),18	655,(6, 197),50	764,(16, 107),27	791,(16, 137),1	969,(8, 87),2	1019,(8, 127),7	1042,(8, 157),12	1087,(18, 47),1	1110,(18, 87),4	1996,(1, 27),1	1997,(1, 37),5	2013,(1, 127),4	2128,(1, 187),22	
21,(0, 6),5	66,(0, 16),5	109,(2, 66),14	123,(3, 76),11	134,(4, 36),9	143,(4, 66),2	145,(4, 76),17	162,(10, 56),1	164,(2, 156),1	165,(9, 26),6	179,(4, 96),23	202,(9, 86),1	204,(4, 146),2	206,(10, 36),18	225,(12, 46),4	229,(12, 96),5	237,(20, 26),2	242,(12, 176),4	246,(11, 126),5	254,(19, 76),1	260,(19, 166),1	272,(11, 156),24	297,(14, 46),4	303,(3, 106),68	371,(5, 46),6	377,(5, 76),1	378,(7, 186),1	380,(3, 116),14	394,(4, 176),47	441,(7, 116),26	467,(7, 196),4	471,(9, 146),12	483,(9, 176),78	561,(13, 86),1	562,(15, 66),4	566,(15, 86),6	572,(15, 116),2	574,(20, 136),2	576,(20, 196),1	584,(17, 96),8	612,(12, 76),52	664,(15, 166),6	670,(17, 136),13	683,(17, 176),4	687,(20, 56),29	716,(20, 126),21	971,(8, 116),12	983,(8, 126),36	1019,(14, 26),936	1955,(18, 106),1	1956,(18, 166),36	2002,(1, 76),9	2143,(15, 146),171	
16,(0, 5),5	61,(0, 15),5	86,(2, 35),5	98,(2, 105),1	99,(11, 55),3	103,(11, 75),115	218,(2, 115),1	219,(4, 85),1	220,(4, 155),31	251,(4, 175),8	259,(6, 25),2	261,(9, 135),2	263,(10, 25),7	270,(10, 155),1	271,(12, 35),1	272,(12, 45),1	273,(12, 105),2	275,(20, 35),2	283,(3, 65),3	286,(10, 65),20	306,(19, 115),1	307,(20, 155),2	315,(14, 185),6	321,(19, 85),11	343,(16, 35),1	355,(6, 135),12	371,(16, 65),2	379,(3, 115),1	380,(7, 165),6	394,(3, 135),1	395,(6, 75),260	655,(9, 55),64	719,(17, 75),7	729,(16, 95),22	751,(16, 105),13	764,(17, 165),15	791,(13, 175),1	792,(13, 195),1	827,(8, 25),17	844,(20, 65),42	1041,(8, 155),1	1085,(18, 35),1	1139,(18, 125),11	1169,(18, 145),29	1258,(18, 185),317	2012,(1, 125),1	2026,(1, 135),1	2068,(1, 185),2	
11,(0, 4),5	56,(0, 14),5	96,(2, 54),1	102,(11, 74),1	116,(3, 104),3	119,(3, 124),1	144,(2, 134),20	164,(10, 114),1	165,(10, 154),1	171,(9, 64),2	173,(10, 64),9	213,(9, 144),1	217,(12, 84),1	218,(11, 84),11	234,(12, 104),5	239,(20, 64),1	251,(9, 194),1	252,(11, 134),12	264,(9, 184),15	279,(19, 34),5	303,(5, 24),1	307,(6, 64),14	321,(7, 54),12	334,(7, 74),4	340,(7, 134),1	342,(17, 134),1	348,(5, 74),5	368,(5, 154),3	377,(16, 94),1	379,(17, 154),1	390,(7, 184),3	398,(17, 84),5	406,(3, 144),41	447,(15, 94),1	448,(15, 104),1	460,(3, 174),2	462,(5, 144),100	562,(7, 194),22	584,(13, 94),8	592,(17, 44),53	645,(17, 94),4	649,(17, 104),2	651,(17, 194),1	664,(12, 124),30	694,(13, 134),97	791,(20, 194),8	807,(16, 184),10	817,(17, 114),30	861,(8, 74),108	979,(16, 154),15	1054,(8, 164),27	1081,(20, 74),24	1168,(18, 144),1	1254,(18, 184),4	2070,(1, 194),2	2121,(1, 184),7	
6,(0, 3),5	51,(0, 13),5	91,(11, 33),2	97,(2, 73),1	141,(10, 33),7	148,(10, 53),3	182,(2, 183),11	199,(9, 123),1	214,(9, 163),4	224,(9, 133),24	248,(10, 143),9	257,(12, 33),7	271,(20, 23),3	274,(20, 123),1	277,(20, 83),6	284,(19, 43),2	289,(6, 43),1	293,(19, 183),1	309,(5, 53),17	338,(7, 103),2	341,(7, 153),1	342,(12, 73),36	378,(5, 113),16	394,(8, 23),433	827,(14, 133),16	843,(14, 173),6	849,(16, 43),1	850,(8, 53),6	856,(15, 103),4	860,(8, 73),1	861,(9, 153),45	906,(14, 113),24	930,(15, 133),42	972,(16, 23),3	975,(16, 53),2	977,(16, 93),1	978,(16, 113),1	979,(17, 133),1	1052,(20, 73),13	1082,(8, 193),3	1098,(18, 63),1	1121,(18, 113),10	1136,(18, 123),3	1995,(1, 23),1	2017,(1, 133),9	2027,(1, 143),24	2098,(1, 153),9	2107,(1, 163),14	
1,(0, 2),5	46,(0, 12),5	127,(4, 32),7	134,(10, 22),7	162,(4, 102),1	186,(10, 162),6	202,(4, 122),2	252,(19, 32),2	262,(20, 172),1	265,(11, 142),1	266,(11, 152),6	275,(6, 42),14	289,(14, 22),8	301,(14, 112),6	313,(19, 102),5	319,(7, 42),1	321,(6, 122),18	339,(14, 122),11	353,(7, 92),6	359,(5, 102),1	365,(5, 152),3	370,(7, 152),8	378,(16, 62),7	394,(5, 162),1	395,(5, 172),1	396,(15, 52),1	397,(17, 52),1	399,(15, 72),1	403,(17, 92),10	416,(15, 82),6	422,(17, 172),8	430,(19, 142),9	439,(10, 182),25	464,(13, 42),5	474,(13, 172),13	503,(10, 192),21	524,(14, 192),258	782,(15, 112),28	810,(15, 162),2	812,(15, 192),5	817,(16, 102),12	829,(16, 122),15	844,(8, 32),1	845,(16, 182),3	849,(8, 52),1	859,(8, 72),1	860,(16, 132),27	887,(20, 122),12	1081,(8, 172),1	1097,(18, 62),1	1114,(18, 92),5	1119,(18, 112),2	1131,(18, 122),5	1150,(18, 132),8	1167,(18, 142),1	2066,(1, 182),2	
164,(3, 61),119	283,(4, 151),3	286,(5, 21),17	303,(6, 61),4	307,(7, 21),3	310,(9, 41),3	313,(7, 41),6	319,(9, 61),1	320,(9, 111),1	321,(10, 51),1	322,(10, 121),1	323,(10, 171),9	332,(20, 21),1	333,(7, 61),1	334,(19, 61),2	336,(14, 41),3	339,(6, 131),4	343,(7, 81),5	348,(7, 91),5	353,(19, 41),5	358,(20, 41),1	359,(20, 151),1	360,(7, 171),1	361,(49, 201),1	362,(70, 201),1	363,(119, 201),1	364,(34, 201),1	367,(16, 31),4	371,(3, 111),8	379,(19, 51),10	389,(22, 201),1	392,(36, 201),1	393,(156, 201),1	395,(10, 161),14	413,(17, 191),4	417,(97, 201),1	418,(67, 201),1	422,(15, 101),17	439,(57, 201),1	441,(39, 201),1	444,(24, 201),1	446,(15, 141),1	458,(152, 201),1	472,(13, 101),2	474,(17, 131),10	487,(33, 201),1	488,(83, 201),1	515,(13, 121),31	546,(30, 201),1	547,(117, 201),1	548,(183, 201),1	561,(129, 201),1	574,(15, 151),19	601,(109, 201),1	611,(45, 201),1	612,(85, 201),1	613,(115, 201),1	652,(167, 201),1	670,(15, 171),52	722,(82, 201),1	723,(42, 201),1	724,(59, 201),1	726,(177, 201),1	761,(169, 201),1	779,(77, 201),1	792,(16, 141),10	802,(16, 151),5	817,(55, 201),1	824,(64, 201),1	825,(54, 201),1	826,(84, 201),1	841,(89, 201),1	844,(46, 201),1	845,(8, 51),4	849,(174, 201),1	850,(186, 201),1	851,(66, 201),1	852,(86, 201),1	853,(196, 201),1	854,(44, 201),1	855,(147, 201),1	879,(75, 201),1	892,(162, 201),1	908,(96, 201),1	921,(159, 201),1	926,(197, 201),1	929,(173, 201),1	930,(94, 201),1	966,(136, 201),1	972,(95, 201),1	973,(192, 201),1	1001,(99, 201),1	1004,(104, 201),1	1006,(107, 201),1	1009,(43, 201),1	1026,(8, 131),15	1041,(105, 201),1	1046,(176, 201),1	1052,(102, 201),1	1081,(29, 201),1	1086,(18, 41),1	1087,(137, 201),1	1088,(18, 51),9	1097,(103, 201),1	1106,(18, 71),1	1119,(165, 201),1	1126,(56, 201),1	1132,(32, 201),1	1159,(18, 141),8	1167,(199, 201),1	1168,(157, 201),1	1169,(53, 201),1	1198,(18, 181),56	1254,(175, 201),1	1255,(116, 201),1	1256,(52, 201),1	1257,(189, 201),1	1258,(47, 201),1	1259,(93, 201),1	1279,(195, 201),1	1286,(126, 201),1	1292,(72, 201),1	1321,(69, 201),1	1326,(87, 201),1	1329,(73, 201),1	1359,(25, 201),1	1372,(172, 201),1	1401,(139, 201),1	1409,(193, 201),1	1439,(65, 201),1	1452,(62, 201),1	1489,(63, 201),1	1519,(155, 201),1	1532,(92, 201),1	1569,(113, 201),1	1575,(18, 191),129	1704,(148, 201),1	1705,(198, 201),1	1706,(118, 201),1	1707,(108, 201),1	1708,(178, 201),1	1709,(188, 201),1	1710,(38, 201),1	1711,(48, 201),1	1712,(68, 201),1	1713,(98, 201),1	1714,(88, 201),1	1715,(138, 201),1	1716,(28, 201),1	1717,(78, 201),1	1718,(128, 201),1	1719,(158, 201),1	1720,(58, 201),1	1721,(35, 201),1	1722,(112, 201),1	1723,(123, 201),1	1724,(145, 201),1	1725,(122, 201),1	1772,(132, 201),1	1852,(142, 201),1	1955,(124, 201),1	1956,(134, 201),1	1957,(114, 201),1	1958,(154, 201),1	1959,(164, 201),1	1960,(74, 201),1	1961,(144, 201),1	2036,(26, 201),1	2076,(23, 201),1	2077,(27, 201),1	2092,(79, 201),1	2093,(125, 201),1	2115,(106, 201),1	2119,(90, 201),1	2145,(168, 201),1	2148,(182, 201),1	2152,(194, 201),1	2156,(133, 201),1	2157,(37, 201),1	2172,(149, 201),1	2195,(166, 201),1	2199,(200, 201),1	2232,(184, 201),1	2236,(143, 201),1	2237,(127, 201),1	2252,(179, 201),1	2275,(76, 201),1	2279,(130, 201),1	2314,(135, 201),1	2315,(185, 201),1	2316,(153, 201),1	2317,(187, 201),1	2359,(50, 201),1	2394,(146, 201),1	2396,(163, 201),1	2439,(120, 201),1	2519,(140, 201),1	2599,(80, 201),1	2679,(40, 201),1	2759,(170, 201),1	2839,(150, 201),1	2919,(180, 201),1	2999,(60, 201),1	3079,(110, 201),1	3159,(160, 201),1	3239,(100, 201),1	3319,(190, 201),1	
# Outgoing
134,(10, 22),7	141,(10, 33),7	148,(10, 53),3	151,(10, 107),2	153,(10, 117),1	154,(10, 147),5	159,(10, 148),1	162,(10, 56),1	164,(10, 114),1	165,(10, 154),1	168,(10, 39),2	173,(10, 64),9	182,(10, 119),1	183,(10, 149),3	186,(10, 162),6	192,(10, 179),13	206,(10, 36),18	224,(10, 167),13	237,(20, 26),2	239,(20, 64),1	240,(20, 67),1	241,(20, 107),1	242,(20, 98),1	243,(20, 108),3	246,(20, 119),1	247,(20, 127),1	248,(10, 143),9	257,(20, 117),5	262,(20, 172),1	263,(10, 25),7	270,(10, 155),1	271,(20, 23),3	274,(20, 123),1	275,(20, 35),2	277,(20, 83),6	286,(10, 65),20	307,(20, 155),2	309,(20, 167),5	321,(10, 51),1	322,(10, 121),1	323,(10, 171),9	332,(20, 21),1	358,(20, 41),1	359,(20, 151),1	362,(70, 201),1	365,(10, 137),30	395,(10, 161),14	409,(10, 169),30	439,(10, 182),25	464,(10, 177),39	503,(10, 192),21	524,(20, 147),18	546,(30, 201),1	574,(20, 136),2	576,(20, 196),1	650,(20, 99),7	657,(20, 189),6	687,(20, 56),29	716,(20, 126),21	791,(20, 194),8	844,(20, 65),42	887,(20, 122),12	908,(20, 69),144	1052,(20, 73),13	1081,(20, 74),24	2119,(90, 201),1	2199,(200, 201),1	2279,(130, 201),1	2359,(50, 201),1	2439,(120, 201),1	2519,(140, 201),1	2599,(80, 201),1	2679,(40, 201),1	2759,(170, 201),1	2839,(150, 201),1	2919,(180, 201),1	2999,(60, 201),1	3079,(110, 201),1	3159,(160, 201),1	3239,(100, 201),1	3319,(190, 201),1	
165,(9, 26),6	171,(9, 64),2	173,(9, 40),5	178,(9, 57),13	191,(9, 68),2	193,(9, 80),6	199,(9, 123),1	200,(9, 137),2	202,(9, 86),1	203,(9, 110),5	208,(9, 130),5	213,(9, 144),1	214,(9, 163),4	218,(19, 40),1	219,(9, 108),5	224,(9, 133),24	248,(9, 187),3	251,(9, 194),1	252,(19, 32),2	254,(19, 76),1	255,(19, 80),1	256,(19, 98),1	257,(19, 128),3	260,(19, 166),1	261,(9, 135),2	264,(9, 184),15	279,(19, 34),5	284,(19, 43),2	286,(19, 90),7	293,(19, 183),1	295,(19, 147),5	300,(19, 187),6	306,(19, 115),1	310,(9, 41),3	313,(19, 102),5	319,(9, 61),1	320,(9, 111),1	321,(19, 85),11	334,(19, 61),2	353,(19, 41),5	361,(49, 201),1	363,(119, 201),1	379,(19, 51),10	430,(19, 142),9	441,(39, 201),1	471,(9, 146),12	483,(9, 176),78	561,(129, 201),1	601,(109, 201),1	655,(9, 55),64	724,(59, 201),1	761,(169, 201),1	841,(89, 201),1	861,(9, 153),45	921,(159, 201),1	1001,(99, 201),1	1081,(29, 201),1	1167,(199, 201),1	1257,(189, 201),1	1321,(69, 201),1	1401,(139, 201),1	2092,(79, 201),1	2172,(149, 201),1	2252,(179, 201),1	2704,(19, 190),2	
394,(8, 23),433	827,(8, 25),17	844,(8, 32),1	845,(8, 51),4	849,(8, 52),1	850,(8, 53),6	856,(8, 69),3	859,(8, 72),1	860,(8, 73),1	861,(8, 74),108	969,(8, 87),2	971,(8, 116),12	983,(8, 126),36	1019,(8, 127),7	1026,(8, 131),15	1041,(8, 155),1	1042,(8, 157),12	1054,(8, 164),27	1081,(8, 172),1	1082,(8, 193),3	1085,(18, 35),1	1086,(18, 41),1	1087,(18, 47),1	1088,(18, 51),9	1097,(18, 62),1	1098,(18, 63),1	1099,(18, 69),7	1106,(18, 71),1	1107,(18, 79),3	1110,(18, 87),4	1114,(18, 92),5	1119,(18, 112),2	1121,(18, 113),10	1131,(18, 122),5	1136,(18, 123),3	1139,(18, 125),11	1150,(18, 132),8	1158,(18, 139),1	1159,(18, 141),8	1167,(18, 142),1	1168,(18, 144),1	1169,(18, 145),29	1198,(18, 181),56	1254,(18, 184),4	1258,(18, 185),317	1575,(18, 191),129	1704,(148, 201),1	1705,(198, 201),1	1706,(118, 201),1	1707,(108, 201),1	1708,(178, 201),1	1709,(188, 201),1	1710,(38, 201),1	1711,(48, 201),1	1712,(68, 201),1	1713,(98, 201),1	1714,(88, 201),1	1715,(138, 201),1	1716,(28, 201),1	1717,(78, 201),1	1718,(128, 201),1	1719,(158, 201),1	1720,(58, 201),1	1955,(18, 106),1	1956,(18, 166),36	2066,(8, 100),5	2071,(8, 160),1	2145,(168, 201),1	2663,(18, 100),4	2667,(18, 190),37	
307,(7, 21),3	310,(7, 29),3	313,(7, 41),6	319,(7, 42),1	320,(7, 48),1	321,(7, 54),12	333,(7, 61),1	334,(7, 74),4	338,(7, 103),2	340,(7, 134),1	341,(7, 153),1	342,(17, 134),1	343,(7, 81),5	348,(7, 91),5	353,(7, 92),6	359,(7, 169),1	360,(7, 171),1	361,(7, 99),9	370,(7, 152),8	378,(7, 186),1	379,(17, 154),1	380,(7, 165),6	386,(7, 168),4	390,(7, 184),3	393,(7, 199),4	397,(17, 52),1	398,(17, 84),5	403,(17, 92),10	413,(17, 191),4	417,(97, 201),1	418,(67, 201),1	422,(17, 172),8	439,(57, 201),1	441,(7, 116),26	467,(7, 196),4	474,(17, 131),10	547,(117, 201),1	562,(7, 194),22	584,(17, 96),8	592,(17, 44),53	645,(17, 94),4	649,(17, 104),2	651,(17, 194),1	652,(167, 201),1	670,(17, 136),13	683,(17, 176),4	719,(17, 75),7	726,(177, 201),1	764,(17, 165),15	779,(77, 201),1	817,(17, 114),30	855,(147, 201),1	926,(197, 201),1	979,(17, 133),1	1006,(107, 201),1	1087,(137, 201),1	1168,(157, 201),1	1258,(47, 201),1	1326,(87, 201),1	2036,(7, 90),3	2039,(7, 100),6	2045,(7, 170),13	2058,(7, 200),8	2077,(27, 201),1	2157,(37, 201),1	2237,(127, 201),1	2317,(187, 201),1	2629,(17, 60),18	2647,(17, 100),8	2655,(17, 110),2	2657,(17, 160),6	
259,(6, 25),2	261,(6, 29),7	268,(6, 37),7	275,(6, 42),14	289,(6, 43),1	290,(6, 47),5	295,(6, 158),1	296,(6, 178),1	297,(6, 188),6	303,(6, 61),4	307,(6, 64),14	321,(6, 122),18	339,(6, 131),4	343,(16, 35),1	344,(16, 57),2	346,(16, 78),1	347,(6, 129),8	355,(6, 135),12	367,(16, 31),4	371,(16, 65),2	373,(16, 88),4	377,(16, 94),1	378,(16, 62),7	387,(16, 89),5	392,(36, 201),1	393,(156, 201),1	395,(6, 75),260	655,(6, 197),50	705,(16, 29),24	729,(16, 95),22	751,(16, 105),13	764,(16, 107),27	791,(16, 137),1	792,(16, 141),10	802,(16, 151),5	807,(16, 184),10	817,(16, 102),12	829,(16, 122),15	844,(46, 201),1	845,(16, 182),3	849,(16, 43),1	850,(186, 201),1	851,(66, 201),1	852,(86, 201),1	853,(196, 201),1	860,(16, 132),27	887,(16, 189),21	908,(96, 201),1	966,(136, 201),1	972,(16, 23),3	975,(16, 53),2	977,(16, 93),1	978,(16, 113),1	979,(16, 154),15	1046,(176, 201),1	1126,(56, 201),1	1255,(116, 201),1	1286,(126, 201),1	2026,(6, 60),4	2030,(6, 180),1	2031,(6, 190),5	2036,(26, 201),1	2115,(106, 201),1	2143,(16, 80),6	2195,(166, 201),1	2275,(76, 201),1	2394,(146, 201),1	2616,(16, 150),11	2627,(16, 180),2	
286,(5, 21),17	303,(5, 24),1	304,(5, 28),1	305,(5, 38),4	309,(5, 53),17	326,(5, 57),14	340,(5, 59),7	347,(5, 68),1	348,(5, 74),5	353,(5, 98),6	359,(5, 102),1	360,(5, 109),1	361,(5, 147),4	365,(5, 152),3	368,(5, 154),3	371,(5, 46),6	377,(5, 76),1	378,(5, 113),16	394,(5, 162),1	395,(5, 172),1	396,(15, 52),1	397,(15, 59),2	399,(15, 72),1	400,(15, 77),6	406,(15, 28),3	409,(15, 78),7	416,(15, 82),6	422,(15, 101),17	439,(15, 107),2	441,(15, 117),5	446,(15, 141),1	447,(15, 94),1	448,(15, 104),1	449,(15, 128),8	457,(15, 158),5	462,(5, 144),100	562,(15, 66),4	566,(15, 86),6	572,(15, 116),2	574,(15, 151),19	593,(15, 157),18	611,(45, 201),1	612,(85, 201),1	613,(115, 201),1	649,(15, 159),1	664,(15, 166),6	670,(15, 171),52	782,(15, 112),28	810,(15, 162),2	812,(15, 192),5	817,(55, 201),1	856,(15, 103),4	879,(75, 201),1	930,(15, 133),42	972,(95, 201),1	1041,(105, 201),1	1119,(165, 201),1	1254,(175, 201),1	1279,(195, 201),1	1359,(25, 201),1	1439,(65, 201),1	1519,(155, 201),1	1721,(35, 201),1	1724,(145, 201),1	1993,(5, 190),33	2093,(125, 201),1	2106,(15, 40),7	2113,(15, 50),1	2114,(15, 110),15	2129,(15, 120),11	2140,(15, 140),3	2143,(15, 146),171	2314,(135, 201),1	2315,(185, 201),1	2615,(15, 170),1	
116,(4, 28),11	127,(4, 32),7	134,(4, 36),9	143,(4, 66),2	145,(4, 76),17	162,(4, 102),1	163,(4, 187),1	164,(4, 59),4	168,(4, 80),5	173,(4, 88),6	179,(4, 96),23	202,(4, 122),2	204,(4, 146),2	206,(4, 159),2	208,(14, 37),1	209,(14, 69),1	210,(14, 77),1	211,(14, 99),3	214,(14, 100),1	215,(4, 168),4	219,(4, 85),1	220,(4, 155),31	251,(4, 175),8	259,(14, 30),8	268,(14, 29),14	282,(14, 189),1	283,(4, 151),3	289,(14, 22),8	297,(14, 46),4	301,(14, 112),6	309,(14, 38),6	315,(14, 185),6	329,(14, 39),7	336,(14, 41),3	339,(14, 122),11	364,(34, 201),1	370,(14, 89),17	394,(4, 176),47	444,(24, 201),1	524,(14, 192),258	782,(14, 199),42	824,(64, 201),1	825,(54, 201),1	826,(84, 201),1	827,(14, 133),16	843,(14, 173),6	849,(174, 201),1	854,(44, 201),1	906,(14, 113),24	930,(94, 201),1	1004,(104, 201),1	1019,(14, 26),936	1955,(124, 201),1	1956,(134, 201),1	1957,(114, 201),1	1958,(154, 201),1	1959,(164, 201),1	1960,(74, 201),1	1961,(144, 201),1	2152,(194, 201),1	2232,(184, 201),1	2265,(14, 170),350	
96,(3, 28),5	101,(3, 30),1	102,(3, 50),2	104,(3, 70),1	105,(3, 88),6	111,(3, 98),5	116,(3, 104),3	119,(3, 124),1	120,(3, 159),3	123,(3, 76),11	134,(3, 49),30	164,(3, 61),119	283,(3, 65),3	286,(3, 69),17	303,(3, 106),68	371,(3, 111),8	379,(3, 115),1	380,(3, 116),14	394,(3, 135),1	395,(3, 138),11	406,(3, 144),41	447,(3, 167),13	460,(3, 174),2	462,(3, 179),1	463,(3, 187),1	464,(13, 42),5	469,(13, 58),3	472,(13, 101),2	474,(13, 172),13	487,(33, 201),1	488,(83, 201),1	503,(13, 77),1	504,(13, 107),11	515,(13, 121),31	546,(13, 127),1	547,(13, 197),1	548,(183, 201),1	561,(13, 86),1	584,(13, 94),8	612,(13, 89),37	694,(13, 134),97	791,(13, 175),1	792,(13, 195),1	929,(173, 201),1	1009,(43, 201),1	1097,(103, 201),1	1169,(53, 201),1	1259,(93, 201),1	1329,(73, 201),1	1409,(193, 201),1	1489,(63, 201),1	1569,(113, 201),1	1723,(123, 201),1	2076,(23, 201),1	2098,(13, 40),8	2156,(133, 201),1	2236,(143, 201),1	2316,(153, 201),1	2396,(163, 201),1	
86,(2, 35),5	91,(2, 48),5	96,(2, 54),1	97,(2, 73),1	98,(2, 105),1	99,(2, 59),10	109,(2, 66),14	123,(2, 69),1	124,(2, 99),10	134,(2, 117),1	135,(2, 127),9	144,(2, 134),20	164,(2, 156),1	165,(2, 157),5	170,(2, 169),11	181,(2, 178),1	182,(2, 183),11	193,(2, 198),22	215,(12, 50),1	216,(12, 60),1	217,(12, 84),1	218,(2, 115),1	219,(12, 77),2	221,(12, 130),1	222,(12, 190),2	224,(12, 38),1	225,(12, 46),4	229,(12, 96),5	234,(12, 104),5	239,(12, 118),3	242,(12, 176),4	246,(12, 150),4	257,(12, 33),7	271,(12, 35),1	272,(12, 45),1	273,(12, 105),2	313,(12, 189),16	342,(12, 73),36	389,(22, 201),1	458,(152, 201),1	463,(12, 29),149	612,(12, 76),52	664,(12, 124),30	722,(82, 201),1	723,(42, 201),1	892,(162, 201),1	973,(192, 201),1	1052,(102, 201),1	1132,(32, 201),1	1256,(52, 201),1	1292,(72, 201),1	1372,(172, 201),1	1452,(62, 201),1	1532,(92, 201),1	1722,(112, 201),1	1725,(122, 201),1	1772,(132, 201),1	1852,(142, 201),1	2148,(182, 201),1	2154,(12, 40),111	
1,(0, 2),5	6,(0, 3),5	11,(0, 4),5	16,(0, 5),5	21,(0, 6),5	26,(0, 7),5	31,(0, 8),5	36,(0, 9),5	41,(0, 10),5	46,(0, 12),5	51,(0, 13),5	56,(0, 14),5	61,(0, 15),5	66,(0, 16),5	71,(0, 17),5	76,(0, 18),5	81,(0, 19),5	86,(0, 20),5	91,(11, 33),2	93,(11, 40),2	95,(11, 49),4	99,(11, 55),3	102,(11, 74),1	103,(11, 75),115	218,(11, 84),11	229,(11, 99),6	235,(11, 109),1	236,(11, 120),10	246,(11, 126),5	251,(11, 130),1	252,(11, 134),12	264,(11, 138),1	265,(11, 142),1	266,(11, 152),6	272,(11, 156),24	296,(11, 170),1697	1993,(11, 179),2	1995,(1, 23),1	1996,(1, 27),1	1997,(1, 37),5	2002,(1, 76),9	2011,(1, 79),1	2012,(1, 125),1	2013,(1, 127),4	2017,(1, 133),9	2026,(1, 135),1	2027,(1, 143),24	2051,(1, 149),13	2064,(1, 168),1	2065,(1, 179),1	2066,(1, 182),2	2068,(1, 185),2	2070,(1, 194),2	2072,(1, 40),1	2073,(1, 80),8	2081,(1, 130),16	2097,(1, 140),1	2098,(1, 153),9	2107,(1, 163),14	2121,(1, 184),7	2128,(1, 187),22	2150,(1, 190),4	
