289
# CPU
0,41,1	1,6,7	8,38,7	15,34,7	22,31,7	29,30,7	36,22,7	43,21,7	50,14,7	57,7,7	64,16,7	71,19,7	78,17,7	85,8,7	92,27,7	99,10,7	106,18,7	113,23,7	120,32,7	127,25,7	134,5,7	141,12,7	148,40,7	155,20,7	162,36,7	169,39,7	176,33,7	183,3,7	190,29,7	197,9,7	204,24,7	211,1,7	218,15,7	225,37,7	232,2,7	281,4,7	288,0,1	
43,11,7	85,28,7	127,35,7	169,26,7	211,13,7	
# Incoming
50,(11, 2),1	92,(28, 2),4	134,(35, 4),10	176,(26, 4),20	218,(13, 4),63	
1,(41, 11),42	43,(41, 28),42	85,(41, 35),42	127,(41, 26),42	169,(41, 13),42	
# Outgoing
1,(41, 11),42	43,(41, 28),42	85,(41, 35),42	127,(41, 26),42	169,(41, 13),42	
50,(11, 2),1	92,(28, 2),4	134,(35, 4),10	176,(26, 4),20	218,(13, 4),63	
