341
# CPU
64,8,3	67,11,3	88,14,3	130,17,3	289,20,3	334,5,3	
46,2,3	49,7,3	52,10,3	58,4,3	73,13,3	94,16,3	133,19,3	
0,0,1	1,1,3	4,6,3	7,15,3	10,9,3	13,18,3	52,3,3	64,12,3	340,21,1	
# Incoming
58,(1, 8),6	64,(2, 11),3	73,(1, 14),15	94,(1, 17),36	133,(1, 20),156	289,(2, 5),45	
1,(0, 2),45	46,(1, 4),12	64,(1, 13),9	88,(1, 16),6	130,(1, 19),3	
49,(2, 3),3	52,(2, 12),12	67,(7, 21),3	70,(10, 21),3	73,(4, 21),3	76,(8, 21),3	79,(11, 21),3	82,(13, 21),3	91,(14, 21),3	97,(16, 21),3	133,(17, 21),3	136,(19, 21),3	292,(20, 21),3	337,(5, 21),3	
# Outgoing
76,(8, 21),3	79,(11, 21),3	91,(14, 21),3	133,(17, 21),3	292,(20, 21),3	337,(5, 21),3	
49,(2, 3),3	52,(2, 12),12	64,(2, 11),3	67,(7, 21),3	70,(10, 21),3	73,(4, 21),3	82,(13, 21),3	97,(16, 21),3	136,(19, 21),3	289,(2, 5),45	
1,(0, 2),45	46,(1, 4),12	58,(1, 8),6	64,(1, 13),9	73,(1, 14),15	88,(1, 16),6	94,(1, 17),36	130,(1, 19),3	133,(1, 20),156	
