2064
# CPU
7,1,21	28,75,21	49,108,21	70,8,21	91,11,21	112,67,21	133,45,21	154,34,21	175,59,21	226,39,21	247,27,21	268,38,21	289,46,21	310,16,21	331,22,21	352,30,21	373,70,21	394,71,21	415,113,21	436,119,21	457,18,21	478,19,21	499,69,21	520,86,21	541,112,21	562,116,21	583,26,21	604,49,21	625,54,21	646,93,21	
0,0,1	1,12,21	22,10,21	43,5,21	64,87,21	85,85,21	106,60,21	137,25,21	260,90,21	320,83,21	341,95,21	362,44,21	383,61,21	404,64,21	425,109,21	446,37,21	467,50,21	488,107,21	596,31,21	617,65,21	638,97,21	659,98,21	680,100,21	701,104,21	942,28,21	963,35,21	984,36,21	1005,56,21	1026,72,21	1047,117,21	1068,120,21	2063,121,1	
19,3,21	40,6,21	61,7,21	105,32,21	126,53,21	147,41,21	168,42,21	189,84,21	210,17,21	231,80,21	252,66,21	273,88,21	294,89,21	315,29,21	336,103,21	357,105,21	378,82,21	399,102,21	420,99,21	441,13,21	462,114,21	483,21,21	504,24,21	525,40,21	546,47,21	567,51,21	588,91,21	609,92,21	630,106,21	651,110,21	
13,2,21	34,4,21	55,62,21	76,9,21	123,58,21	144,14,21	165,48,21	186,74,21	207,77,21	228,52,21	249,33,21	270,79,21	291,55,21	312,43,21	333,76,21	354,68,21	375,115,21	396,15,21	417,57,21	438,78,21	459,96,21	480,101,21	501,94,21	522,20,21	543,23,21	564,63,21	585,73,21	606,81,21	627,111,21	648,118,21	
# Incoming
1,(0, 1),6	37,(0, 8),6	49,(0, 11),6	56,(12, 16),4	70,(12, 59),1	71,(2, 19),11	83,(2, 38),2	86,(12, 70),37	123,(12, 71),1	124,(3, 16),1	125,(3, 18),1	126,(3, 26),11	137,(3, 34),1	138,(3, 38),6	144,(3, 46),1	145,(3, 59),3	148,(3, 86),1	149,(6, 18),1	150,(6, 22),5	155,(6, 26),3	158,(6, 30),1	159,(6, 49),1	160,(12, 113),1	165,(12, 116),1	166,(6, 116),2	168,(7, 22),1	169,(7, 38),1	171,(2, 59),4	175,(2, 71),25	200,(2, 119),24	224,(10, 19),1	225,(10, 39),1	226,(4, 19),1	227,(4, 22),3	230,(4, 27),1	231,(4, 38),2	233,(4, 46),1	234,(4, 69),2	248,(4, 116),2	250,(4, 119),1	251,(9, 16),2	253,(9, 19),1	254,(9, 22),1	257,(10, 54),1	258,(10, 71),5	263,(7, 30),4	267,(7, 70),9	276,(7, 71),2	278,(7, 93),3	292,(10, 113),1	293,(7, 116),3	296,(10, 119),13	317,(5, 18),12	329,(5, 19),7	336,(9, 54),1	337,(9, 69),2	339,(9, 86),1	340,(9, 112),2	342,(9, 116),1	356,(5, 26),3	372,(5, 49),1	374,(5, 54),1	412,(5, 93),1	
58,(1, 50),12	71,(1, 90),1	73,(1, 95),1	77,(1, 72),5	82,(2, 31),1	85,(2, 95),1	98,(1, 107),7	105,(2, 104),1	106,(4, 37),2	108,(1, 120),12	120,(2, 25),17	137,(2, 50),30	167,(2, 56),4	171,(3, 28),5	176,(3, 31),69	245,(3, 37),7	252,(3, 44),1	253,(3, 50),6	259,(3, 90),1	260,(3, 109),1	261,(3, 120),2	263,(75, 121),14	277,(4, 28),39	316,(4, 72),1	317,(4, 83),3	320,(4, 95),2	322,(6, 35),2	324,(6, 44),13	337,(6, 56),5	342,(6, 61),1	343,(108, 121),14	357,(62, 121),14	371,(7, 31),7	378,(7, 56),1	379,(7, 64),9	388,(7, 72),4	392,(7, 109),4	396,(8, 37),1	397,(8, 50),28	425,(8, 56),9	434,(8, 72),1	435,(8, 104),1	436,(8, 107),36	472,(8, 117),114	586,(8, 120),8	594,(9, 31),2	596,(9, 65),4	600,(9, 97),3	603,(9, 98),1	604,(9, 100),2	606,(9, 104),2	608,(9, 117),281	889,(9, 120),1	890,(11, 28),52	942,(11, 35),1	943,(11, 36),1	944,(11, 56),24	968,(11, 72),1	969,(11, 117),1	970,(11, 120),1	971,(32, 121),14	985,(67, 121),14	999,(58, 121),14	1013,(53, 121),14	1027,(45, 121),14	1041,(14, 121),14	1055,(41, 121),14	1069,(34, 121),14	1083,(48, 121),14	1097,(42, 121),14	1111,(59, 121),14	1125,(74, 121),14	1139,(84, 121),14	1153,(77, 121),14	1167,(17, 121),14	1181,(39, 121),14	1195,(52, 121),14	1209,(80, 121),14	1223,(27, 121),14	1237,(33, 121),14	1251,(66, 121),14	1265,(38, 121),14	1279,(79, 121),14	1293,(88, 121),14	1307,(46, 121),14	1321,(55, 121),14	1335,(89, 121),14	1349,(16, 121),14	1363,(43, 121),14	1377,(29, 121),14	1391,(22, 121),14	1405,(76, 121),14	1419,(103, 121),14	1433,(30, 121),14	1447,(68, 121),14	1461,(105, 121),14	1475,(70, 121),14	1489,(115, 121),14	1503,(82, 121),14	1517,(71, 121),14	1531,(15, 121),14	1545,(102, 121),14	1559,(113, 121),14	1573,(57, 121),14	1587,(99, 121),14	1601,(119, 121),14	1615,(78, 121),14	1629,(13, 121),14	1643,(18, 121),14	1657,(96, 121),14	1671,(114, 121),14	1685,(19, 121),14	1699,(101, 121),14	1713,(21, 121),14	1727,(69, 121),14	1741,(94, 121),14	1755,(24, 121),14	1769,(86, 121),14	1783,(20, 121),14	1797,(40, 121),14	1811,(112, 121),14	1825,(23, 121),14	1839,(47, 121),14	1853,(116, 121),14	1867,(63, 121),14	1881,(51, 121),14	1895,(26, 121),14	1909,(73, 121),14	1923,(91, 121),14	1937,(49, 121),14	1951,(81, 121),14	1965,(92, 121),14	1979,(54, 121),14	1993,(111, 121),14	2007,(106, 121),14	2021,(93, 121),14	2035,(118, 121),14	2049,(110, 121),14	
13,(0, 3),6	25,(0, 6),6	31,(0, 7),6	37,(1, 13),8	45,(1, 24),1	46,(1, 40),2	48,(1, 89),1	55,(12, 13),1	60,(12, 47),1	61,(2, 13),10	72,(12, 66),3	75,(1, 66),2	82,(1, 99),1	83,(1, 102),3	86,(2, 40),13	99,(2, 42),2	101,(2, 82),2	103,(4, 21),1	104,(4, 32),1	105,(1, 110),3	108,(2, 88),4	112,(2, 99),4	116,(4, 24),2	118,(4, 53),1	119,(9, 13),1	120,(8, 13),6	126,(8, 17),6	132,(8, 40),2	134,(8, 41),2	136,(8, 89),1	137,(11, 29),1	138,(12, 80),2	140,(8, 114),4	144,(11, 24),3	147,(11, 42),1	148,(12, 82),3	151,(12, 84),2	153,(12, 103),7	160,(11, 66),1	161,(12, 114),4	165,(11, 47),5	170,(11, 84),3	180,(10, 17),1	181,(10, 24),1	187,(10, 40),9	196,(10, 51),13	209,(11, 92),9	218,(10, 80),5	224,(9, 66),1	225,(9, 88),1	236,(4, 89),7	243,(4, 114),5	255,(9, 29),7	262,(9, 103),8	270,(9, 105),1	271,(9, 110),6	282,(10, 82),5	287,(10, 102),4	291,(10, 106),1	292,(11, 99),17	309,(5, 13),8	322,(9, 114),9	337,(5, 21),11	354,(5, 24),2	359,(5, 40),8	367,(5, 47),5	373,(5, 51),1	407,(5, 91),4	411,(5, 92),1	413,(5, 106),1	414,(5, 110),6	
7,(0, 2),6	19,(0, 4),6	43,(0, 9),6	49,(1, 20),1	50,(1, 48),8	61,(12, 58),9	70,(1, 57),1	71,(12, 63),1	72,(1, 76),1	75,(12, 68),11	86,(1, 77),6	92,(1, 79),6	98,(3, 14),12	110,(3, 43),2	112,(3, 55),1	113,(3, 68),2	115,(3, 79),2	117,(3, 101),1	118,(3, 115),1	119,(6, 14),1	120,(6, 52),1	121,(6, 58),2	123,(6, 76),1	124,(12, 74),4	128,(12, 79),10	138,(8, 14),2	140,(12, 81),8	148,(8, 48),1	149,(8, 74),2	151,(8, 77),3	154,(8, 115),1	155,(11, 52),5	160,(6, 73),4	164,(6, 101),1	165,(7, 79),1	166,(12, 118),14	180,(11, 96),2	182,(10, 33),5	187,(8, 79),18	205,(11, 101),2	207,(11, 111),2	209,(10, 55),9	218,(11, 115),2	223,(10, 81),1	226,(10, 43),31	263,(10, 76),9	272,(10, 78),10	282,(6, 68),8	290,(6, 81),3	293,(10, 115),3	296,(7, 15),2	298,(7, 57),2	300,(7, 78),2	302,(7, 81),2	304,(7, 94),1	305,(7, 96),1	306,(7, 101),4	310,(7, 118),1	311,(8, 81),14	325,(11, 94),8	336,(5, 20),1	348,(5, 23),6	375,(5, 63),6	381,(5, 73),8	389,(5, 81),18	420,(5, 111),2	422,(5, 118),24	
# Outgoing
37,(1, 13),8	45,(1, 24),1	46,(1, 40),2	48,(1, 89),1	49,(1, 20),1	50,(1, 48),8	58,(1, 50),12	70,(1, 57),1	71,(1, 90),1	72,(1, 76),1	73,(1, 95),1	75,(1, 66),2	77,(1, 72),5	82,(1, 99),1	83,(1, 102),3	86,(1, 77),6	92,(1, 79),6	98,(1, 107),7	105,(1, 110),3	108,(1, 120),12	120,(8, 13),6	126,(8, 17),6	132,(8, 40),2	134,(8, 41),2	136,(8, 89),1	137,(11, 29),1	138,(8, 14),2	140,(8, 114),4	144,(11, 24),3	147,(11, 42),1	148,(8, 48),1	149,(8, 74),2	151,(8, 77),3	154,(8, 115),1	155,(11, 52),5	160,(11, 66),1	165,(11, 47),5	170,(11, 84),3	180,(11, 96),2	187,(8, 79),18	205,(11, 101),2	207,(11, 111),2	209,(11, 92),9	218,(11, 115),2	263,(75, 121),14	292,(11, 99),17	311,(8, 81),14	325,(11, 94),8	343,(108, 121),14	396,(8, 37),1	397,(8, 50),28	425,(8, 56),9	434,(8, 72),1	435,(8, 104),1	436,(8, 107),36	472,(8, 117),114	586,(8, 120),8	890,(11, 28),52	942,(11, 35),1	943,(11, 36),1	944,(11, 56),24	968,(11, 72),1	969,(11, 117),1	970,(11, 120),1	985,(67, 121),14	1027,(45, 121),14	1069,(34, 121),14	1111,(59, 121),14	1181,(39, 121),14	1223,(27, 121),14	1265,(38, 121),14	1307,(46, 121),14	1349,(16, 121),14	1391,(22, 121),14	1433,(30, 121),14	1475,(70, 121),14	1517,(71, 121),14	1559,(113, 121),14	1601,(119, 121),14	1643,(18, 121),14	1685,(19, 121),14	1727,(69, 121),14	1769,(86, 121),14	1811,(112, 121),14	1853,(116, 121),14	1895,(26, 121),14	1937,(49, 121),14	1979,(54, 121),14	2021,(93, 121),14	
1,(0, 1),6	7,(0, 2),6	13,(0, 3),6	19,(0, 4),6	25,(0, 6),6	31,(0, 7),6	37,(0, 8),6	43,(0, 9),6	49,(0, 11),6	55,(12, 13),1	56,(12, 16),4	60,(12, 47),1	61,(12, 58),9	70,(12, 59),1	71,(12, 63),1	72,(12, 66),3	75,(12, 68),11	86,(12, 70),37	123,(12, 71),1	124,(12, 74),4	128,(12, 79),10	138,(12, 80),2	140,(12, 81),8	148,(12, 82),3	151,(12, 84),2	153,(12, 103),7	160,(12, 113),1	161,(12, 114),4	165,(12, 116),1	166,(12, 118),14	180,(10, 17),1	181,(10, 24),1	182,(10, 33),5	187,(10, 40),9	196,(10, 51),13	209,(10, 55),9	218,(10, 80),5	223,(10, 81),1	224,(10, 19),1	225,(10, 39),1	226,(10, 43),31	257,(10, 54),1	258,(10, 71),5	263,(10, 76),9	272,(10, 78),10	282,(10, 82),5	287,(10, 102),4	291,(10, 106),1	292,(10, 113),1	293,(10, 115),3	296,(10, 119),13	309,(5, 13),8	317,(5, 18),12	329,(5, 19),7	336,(5, 20),1	337,(5, 21),11	348,(5, 23),6	354,(5, 24),2	356,(5, 26),3	359,(5, 40),8	367,(5, 47),5	372,(5, 49),1	373,(5, 51),1	374,(5, 54),1	375,(5, 63),6	381,(5, 73),8	389,(5, 81),18	407,(5, 91),4	411,(5, 92),1	412,(5, 93),1	413,(5, 106),1	414,(5, 110),6	420,(5, 111),2	422,(5, 118),24	
98,(3, 14),12	110,(3, 43),2	112,(3, 55),1	113,(3, 68),2	115,(3, 79),2	117,(3, 101),1	118,(3, 115),1	119,(6, 14),1	120,(6, 52),1	121,(6, 58),2	123,(6, 76),1	124,(3, 16),1	125,(3, 18),1	126,(3, 26),11	137,(3, 34),1	138,(3, 38),6	144,(3, 46),1	145,(3, 59),3	148,(3, 86),1	149,(6, 18),1	150,(6, 22),5	155,(6, 26),3	158,(6, 30),1	159,(6, 49),1	160,(6, 73),4	164,(6, 101),1	165,(7, 79),1	166,(6, 116),2	168,(7, 22),1	169,(7, 38),1	171,(3, 28),5	176,(3, 31),69	245,(3, 37),7	252,(3, 44),1	253,(3, 50),6	259,(3, 90),1	260,(3, 109),1	261,(3, 120),2	263,(7, 30),4	267,(7, 70),9	276,(7, 71),2	278,(7, 93),3	282,(6, 68),8	290,(6, 81),3	293,(7, 116),3	296,(7, 15),2	298,(7, 57),2	300,(7, 78),2	302,(7, 81),2	304,(7, 94),1	305,(7, 96),1	306,(7, 101),4	310,(7, 118),1	322,(6, 35),2	324,(6, 44),13	337,(6, 56),5	342,(6, 61),1	371,(7, 31),7	378,(7, 56),1	379,(7, 64),9	388,(7, 72),4	392,(7, 109),4	971,(32, 121),14	1013,(53, 121),14	1055,(41, 121),14	1097,(42, 121),14	1139,(84, 121),14	1167,(17, 121),14	1209,(80, 121),14	1251,(66, 121),14	1293,(88, 121),14	1335,(89, 121),14	1377,(29, 121),14	1419,(103, 121),14	1461,(105, 121),14	1503,(82, 121),14	1545,(102, 121),14	1587,(99, 121),14	1629,(13, 121),14	1671,(114, 121),14	1713,(21, 121),14	1755,(24, 121),14	1797,(40, 121),14	1839,(47, 121),14	1881,(51, 121),14	1923,(91, 121),14	1965,(92, 121),14	2007,(106, 121),14	2049,(110, 121),14	
61,(2, 13),10	71,(2, 19),11	82,(2, 31),1	83,(2, 38),2	85,(2, 95),1	86,(2, 40),13	99,(2, 42),2	101,(2, 82),2	103,(4, 21),1	104,(4, 32),1	105,(2, 104),1	106,(4, 37),2	108,(2, 88),4	112,(2, 99),4	116,(4, 24),2	118,(4, 53),1	119,(9, 13),1	120,(2, 25),17	137,(2, 50),30	167,(2, 56),4	171,(2, 59),4	175,(2, 71),25	200,(2, 119),24	224,(9, 66),1	225,(9, 88),1	226,(4, 19),1	227,(4, 22),3	230,(4, 27),1	231,(4, 38),2	233,(4, 46),1	234,(4, 69),2	236,(4, 89),7	243,(4, 114),5	248,(4, 116),2	250,(4, 119),1	251,(9, 16),2	253,(9, 19),1	254,(9, 22),1	255,(9, 29),7	262,(9, 103),8	270,(9, 105),1	271,(9, 110),6	277,(4, 28),39	316,(4, 72),1	317,(4, 83),3	320,(4, 95),2	322,(9, 114),9	336,(9, 54),1	337,(9, 69),2	339,(9, 86),1	340,(9, 112),2	342,(9, 116),1	357,(62, 121),14	594,(9, 31),2	596,(9, 65),4	600,(9, 97),3	603,(9, 98),1	604,(9, 100),2	606,(9, 104),2	608,(9, 117),281	889,(9, 120),1	999,(58, 121),14	1041,(14, 121),14	1083,(48, 121),14	1125,(74, 121),14	1153,(77, 121),14	1195,(52, 121),14	1237,(33, 121),14	1279,(79, 121),14	1321,(55, 121),14	1363,(43, 121),14	1405,(76, 121),14	1447,(68, 121),14	1489,(115, 121),14	1531,(15, 121),14	1573,(57, 121),14	1615,(78, 121),14	1657,(96, 121),14	1699,(101, 121),14	1741,(94, 121),14	1783,(20, 121),14	1825,(23, 121),14	1867,(63, 121),14	1909,(73, 121),14	1951,(81, 121),14	1993,(111, 121),14	2035,(118, 121),14	
