222
# CPU
117,2,10	127,4,10	137,6,10	147,12,10	157,14,10	167,8,10	177,10,10	187,16,10	197,18,10	207,20,10	
0,0,1	1,1,10	11,7,10	21,11,10	31,17,10	41,15,10	51,9,10	61,13,10	153,3,10	163,5,10	173,19,10	221,21,1	
# Incoming
1,(0, 2),116	117,(1, 4),6	123,(1, 8),22	145,(1, 10),6	151,(1, 16),4	155,(1, 18),24	179,(1, 20),26	
127,(2, 3),26	153,(2, 5),2	155,(2, 19),2	157,(4, 21),4	161,(6, 21),4	165,(12, 21),4	169,(14, 21),4	177,(8, 21),4	187,(10, 21),4	197,(16, 21),4	207,(18, 21),4	217,(20, 21),4	
# Outgoing
127,(2, 3),26	153,(2, 5),2	155,(2, 19),2	157,(4, 21),4	161,(6, 21),4	165,(12, 21),4	169,(14, 21),4	177,(8, 21),4	187,(10, 21),4	197,(16, 21),4	207,(18, 21),4	217,(20, 21),4	
1,(0, 2),116	117,(1, 4),6	123,(1, 8),22	145,(1, 10),6	151,(1, 16),4	155,(1, 18),24	179,(1, 20),26	
