2051
# CPU
1117,48,51	1173,58,51	1224,38,51	1275,28,51	1391,78,51	1442,18,51	1998,68,51	
1111,17,51	1162,47,51	1220,67,51	1271,27,51	1322,57,51	1504,77,51	1555,37,51	
1352,8,51	1403,46,51	1543,76,51	1594,16,51	1645,36,51	1696,56,51	1747,66,51	1798,26,51	
1159,7,51	1210,15,51	1261,35,51	1355,75,51	1492,45,51	1543,55,51	1600,65,51	1781,25,51	
966,6,51	1017,34,51	1068,64,51	1119,14,51	1170,24,51	1351,74,51	1436,44,51	1820,54,51	
773,5,51	1087,53,51	1138,73,51	1189,43,51	1240,33,51	1291,23,51	1407,13,51	1829,63,51	
580,4,51	1022,12,51	1073,22,51	1124,32,51	1175,62,51	1245,72,51	1435,42,51	1495,52,51	
387,3,51	1099,41,51	1354,11,51	1764,21,51	1815,61,51	1866,31,51	1917,51,51	1968,71,51	
194,2,51	1053,50,51	1268,20,51	1345,60,51	1404,10,51	1455,30,51	1506,70,51	1604,80,51	1818,40,51	
0,0,1	1,1,51	52,9,51	103,59,51	1129,69,51	1180,79,51	1262,19,51	1313,39,51	1364,29,51	1493,49,51	2050,81,1	
# Incoming
1106,(2, 48),8	1114,(3, 48),3	1117,(3, 68),20	1137,(5, 28),2	1139,(3, 58),34	1173,(6, 38),23	1274,(4, 28),1	1377,(4, 78),14	1407,(8, 18),10	1495,(8, 68),1	1777,(4, 68),221	
1100,(2, 47),6	1106,(3, 17),5	1111,(6, 67),2	1121,(2, 67),1	1129,(2, 77),1	1150,(5, 47),11	1161,(6, 77),2	1174,(3, 67),46	1220,(7, 27),6	1232,(7, 57),1	1278,(4, 37),2	1331,(7, 77),173	1504,(8, 37),2	
1159,(0, 8),193	1352,(2, 66),2	1354,(3, 46),1	1355,(3, 76),188	1543,(4, 16),14	1557,(5, 26),5	1562,(5, 36),21	1583,(6, 56),16	1599,(7, 66),2	1781,(1, 26),9	
966,(0, 7),193	1159,(2, 45),1	1160,(4, 15),6	1166,(5, 55),1	1167,(6, 35),1	1173,(3, 65),1	1196,(6, 55),8	1351,(4, 75),4	1436,(8, 45),56	1506,(8, 55),33	1539,(8, 65),61	1764,(1, 25),17	
773,(0, 6),193	966,(2, 14),6	972,(3, 24),13	985,(3, 34),21	1006,(3, 54),7	1013,(5, 14),21	1054,(5, 54),9	1066,(5, 74),1	1083,(2, 24),7	1350,(4, 74),1	1435,(8, 44),1	1819,(1, 54),1	
580,(0, 5),193	986,(2, 23),97	1083,(6, 53),4	1087,(6, 73),3	1099,(2, 43),1	1231,(7, 33),1	1268,(4, 23),6	1354,(1, 13),6	1360,(4, 63),17	1404,(8, 13),3	1820,(1, 63),9	
387,(0, 4),193	580,(3, 12),29	609,(3, 42),1	972,(2, 22),14	1017,(6, 12),5	1027,(6, 22),5	1042,(5, 22),3	1045,(6, 72),15	1090,(2, 32),1	1114,(2, 52),3	1117,(2, 62),4	1233,(7, 72),12	1432,(8, 42),3	1493,(8, 52),2	
194,(0, 3),193	1032,(6, 61),1	1045,(5, 41),5	1053,(5, 51),1	1063,(5, 71),3	1091,(2, 41),8	1113,(6, 71),42	1226,(7, 31),5	1299,(4, 51),45	1352,(1, 11),2	1360,(1, 21),404	1764,(4, 61),13	1790,(1, 31),23	1818,(1, 51),1	1829,(1, 71),2	
1,(0, 2),193	1022,(6, 20),5	1034,(5, 20),8	1050,(5, 50),3	1262,(4, 20),6	1281,(4, 40),18	1344,(4, 60),1	1345,(4, 70),5	1403,(8, 10),1	1417,(8, 30),1	1418,(8, 40),14	1496,(8, 70),5	1600,(8, 80),4	1813,(1, 40),5	
1122,(2, 69),7	1129,(5, 39),1	1130,(2, 79),7	1137,(3, 29),2	1139,(5, 19),11	1150,(50, 81),1	1155,(6, 79),1	1156,(34, 81),1	1157,(64, 81),1	1161,(53, 81),1	1162,(17, 81),1	1166,(4, 19),96	1262,(41, 81),1	1263,(48, 81),1	1264,(14, 81),1	1265,(73, 81),1	1266,(47, 81),1	1267,(24, 81),1	1268,(58, 81),1	1269,(43, 81),1	1270,(15, 81),1	1271,(67, 81),1	1275,(4, 29),3	1278,(38, 81),1	1280,(4, 39),1	1281,(7, 29),25	1306,(7, 49),25	1331,(33, 81),1	1332,(20, 81),1	1333,(27, 81),1	1334,(28, 81),1	1342,(23, 81),1	1355,(12, 81),1	1356,(22, 81),1	1357,(32, 81),1	1358,(62, 81),1	1359,(72, 81),1	1373,(57, 81),1	1396,(60, 81),1	1402,(74, 81),1	1442,(78, 81),1	1455,(10, 81),1	1458,(13, 81),1	1486,(42, 81),1	1487,(44, 81),1	1492,(8, 49),1	1493,(18, 81),1	1501,(46, 81),1	1504,(35, 81),1	1505,(75, 81),1	1506,(30, 81),1	1543,(11, 81),1	1544,(45, 81),1	1555,(77, 81),1	1557,(52, 81),1	1558,(70, 81),1	1594,(55, 81),1	1604,(76, 81),1	1606,(37, 81),1	1645,(16, 81),1	1651,(65, 81),1	1655,(80, 81),1	1696,(36, 81),1	1747,(56, 81),1	1798,(66, 81),1	1815,(21, 81),1	1832,(25, 81),1	1849,(26, 81),1	1866,(61, 81),1	1869,(40, 81),1	1871,(54, 81),1	1880,(63, 81),1	1917,(31, 81),1	1968,(51, 81),1	2019,(71, 81),1	2049,(68, 81),1	
# Outgoing
1263,(48, 81),1	1268,(58, 81),1	1278,(38, 81),1	1334,(28, 81),1	1442,(78, 81),1	1493,(18, 81),1	2049,(68, 81),1	
1162,(17, 81),1	1266,(47, 81),1	1271,(67, 81),1	1333,(27, 81),1	1373,(57, 81),1	1555,(77, 81),1	1606,(37, 81),1	
1403,(8, 10),1	1404,(8, 13),3	1407,(8, 18),10	1417,(8, 30),1	1418,(8, 40),14	1432,(8, 42),3	1435,(8, 44),1	1436,(8, 45),56	1492,(8, 49),1	1493,(8, 52),2	1495,(8, 68),1	1496,(8, 70),5	1501,(46, 81),1	1504,(8, 37),2	1506,(8, 55),33	1539,(8, 65),61	1600,(8, 80),4	1604,(76, 81),1	1645,(16, 81),1	1696,(36, 81),1	1747,(56, 81),1	1798,(66, 81),1	1849,(26, 81),1	
1220,(7, 27),6	1226,(7, 31),5	1231,(7, 33),1	1232,(7, 57),1	1233,(7, 72),12	1270,(15, 81),1	1281,(7, 29),25	1306,(7, 49),25	1331,(7, 77),173	1504,(35, 81),1	1505,(75, 81),1	1544,(45, 81),1	1594,(55, 81),1	1599,(7, 66),2	1651,(65, 81),1	1832,(25, 81),1	
1017,(6, 12),5	1022,(6, 20),5	1027,(6, 22),5	1032,(6, 61),1	1045,(6, 72),15	1083,(6, 53),4	1087,(6, 73),3	1111,(6, 67),2	1113,(6, 71),42	1155,(6, 79),1	1156,(34, 81),1	1157,(64, 81),1	1161,(6, 77),2	1167,(6, 35),1	1173,(6, 38),23	1196,(6, 55),8	1264,(14, 81),1	1267,(24, 81),1	1402,(74, 81),1	1487,(44, 81),1	1583,(6, 56),16	1871,(54, 81),1	
1013,(5, 14),21	1034,(5, 20),8	1042,(5, 22),3	1045,(5, 41),5	1050,(5, 50),3	1053,(5, 51),1	1054,(5, 54),9	1063,(5, 71),3	1066,(5, 74),1	1129,(5, 39),1	1137,(5, 28),2	1139,(5, 19),11	1150,(5, 47),11	1161,(53, 81),1	1166,(5, 55),1	1265,(73, 81),1	1269,(43, 81),1	1331,(33, 81),1	1342,(23, 81),1	1458,(13, 81),1	1557,(5, 26),5	1562,(5, 36),21	1880,(63, 81),1	
1160,(4, 15),6	1166,(4, 19),96	1262,(4, 20),6	1268,(4, 23),6	1274,(4, 28),1	1275,(4, 29),3	1278,(4, 37),2	1280,(4, 39),1	1281,(4, 40),18	1299,(4, 51),45	1344,(4, 60),1	1345,(4, 70),5	1350,(4, 74),1	1351,(4, 75),4	1355,(12, 81),1	1356,(22, 81),1	1357,(32, 81),1	1358,(62, 81),1	1359,(72, 81),1	1360,(4, 63),17	1377,(4, 78),14	1486,(42, 81),1	1543,(4, 16),14	1557,(52, 81),1	1764,(4, 61),13	1777,(4, 68),221	
580,(3, 12),29	609,(3, 42),1	972,(3, 24),13	985,(3, 34),21	1006,(3, 54),7	1106,(3, 17),5	1114,(3, 48),3	1117,(3, 68),20	1137,(3, 29),2	1139,(3, 58),34	1173,(3, 65),1	1174,(3, 67),46	1262,(41, 81),1	1354,(3, 46),1	1355,(3, 76),188	1543,(11, 81),1	1815,(21, 81),1	1866,(61, 81),1	1917,(31, 81),1	1968,(51, 81),1	2019,(71, 81),1	
966,(2, 14),6	972,(2, 22),14	986,(2, 23),97	1083,(2, 24),7	1090,(2, 32),1	1091,(2, 41),8	1099,(2, 43),1	1100,(2, 47),6	1106,(2, 48),8	1114,(2, 52),3	1117,(2, 62),4	1121,(2, 67),1	1122,(2, 69),7	1129,(2, 77),1	1130,(2, 79),7	1150,(50, 81),1	1159,(2, 45),1	1332,(20, 81),1	1352,(2, 66),2	1396,(60, 81),1	1455,(10, 81),1	1506,(30, 81),1	1558,(70, 81),1	1655,(80, 81),1	1869,(40, 81),1	
1,(0, 2),193	194,(0, 3),193	387,(0, 4),193	580,(0, 5),193	773,(0, 6),193	966,(0, 7),193	1159,(0, 8),193	1352,(1, 11),2	1354,(1, 13),6	1360,(1, 21),404	1764,(1, 25),17	1781,(1, 26),9	1790,(1, 31),23	1813,(1, 40),5	1818,(1, 51),1	1819,(1, 54),1	1820,(1, 63),9	1829,(1, 71),2	
