22747
# CPU
4,2,14	18,4,14	32,6,14	46,8,14	60,10,14	74,34,14	88,12,14	102,14,14	116,16,14	130,18,14	144,20,14	158,142,14	172,176,14	186,122,14	200,130,14	214,138,14	228,80,14	242,108,14	256,26,14	270,192,14	284,110,14	298,146,14	312,48,14	326,22,14	340,168,14	354,170,14	368,196,14	382,56,14	396,124,14	410,126,14	424,62,14	438,64,14	452,84,14	466,102,14	1171,164,14	1185,42,14	1225,46,14	1239,70,14	1253,74,14	1696,158,14	1710,174,14	1724,54,14	1738,98,14	1752,104,14	1766,112,14	1990,118,14	2004,154,14	2203,38,14	2248,40,14	2262,50,14	2276,58,14	2314,116,14	2338,136,14	2458,144,14	2485,150,14	2500,68,14	2542,78,14	2556,82,14	2570,92,14	2584,106,14	2602,148,14	2662,162,14	2827,178,14	2841,190,14	2855,200,14	2971,36,14	3058,44,14	3079,52,14	3093,60,14	3107,100,14	3175,166,14	3189,186,14	3334,30,14	3370,66,14	3384,90,14	3398,94,14	3412,140,14	3426,156,14	3440,172,14	3559,184,14	3589,198,14	3607,24,14	3637,28,14	3651,88,14	3769,96,14	3783,114,14	3797,120,14	3853,128,14	3874,132,14	3901,160,14	3916,182,14	3930,32,14	3944,72,14	3958,76,14	3972,86,14	3986,134,14	4003,152,14	4017,180,14	4031,188,14	4045,194,14	
0,0,1	1,1,14	15,13,14	29,9,14	43,5,14	57,7,14	71,19,14	85,11,14	99,15,14	113,17,14	127,3,14	141,51,14	155,197,14	169,59,14	183,55,14	197,65,14	211,175,14	225,171,14	239,167,14	253,139,14	267,141,14	281,73,14	295,189,14	309,135,14	323,145,14	337,185,14	351,179,14	365,155,14	379,131,14	393,133,14	407,113,14	421,43,14	435,87,14	449,105,14	463,53,14	477,27,14	491,41,14	505,29,14	519,143,14	533,161,14	547,127,14	561,199,14	575,25,14	589,31,14	603,149,14	617,153,14	631,67,14	645,93,14	659,125,14	708,163,14	723,173,14	849,117,14	951,129,14	1023,157,14	1037,33,14	1056,63,14	1074,77,14	1134,89,14	1479,101,14	2082,123,14	2361,75,14	2499,137,14	2513,147,14	2562,177,14	2576,181,14	2703,21,14	2717,47,14	2731,71,14	2745,85,14	2759,107,14	2841,111,14	2883,183,14	2897,193,14	2911,39,14	2925,57,14	2939,69,14	2953,99,14	2967,151,14	3012,187,14	3036,37,14	3050,45,14	3096,81,14	3110,83,14	3124,91,14	3150,95,14	3164,119,14	3178,169,14	3252,195,14	3417,23,14	3431,35,14	3513,49,14	3528,61,14	3542,79,14	3556,97,14	3633,103,14	3669,109,14	4281,115,14	4295,121,14	4309,159,14	4323,165,14	4337,191,14	22746,201,1	
# Incoming
1,(0, 2),3	4,(0, 4),3	7,(0, 6),3	10,(0, 8),3	13,(0, 10),3	16,(0, 12),3	19,(0, 14),3	22,(0, 16),3	25,(0, 18),3	28,(0, 20),3	31,(1, 26),75	106,(1, 84),84	190,(1, 102),81	271,(1, 162),807	1078,(1, 164),93	1171,(13, 42),6	1177,(13, 46),48	1225,(13, 68),6	1231,(13, 70),3	1234,(13, 74),3	1237,(13, 76),456	1693,(13, 158),3	1696,(13, 174),3	1699,(9, 54),3	1702,(9, 98),3	1705,(9, 104),3	1708,(9, 112),24	1732,(9, 116),246	1978,(9, 118),12	1990,(9, 154),12	2002,(9, 194),3	2005,(9, 200),3	2008,(5, 38),195	2203,(5, 40),45	2248,(5, 50),3	2251,(5, 58),3	2254,(5, 66),45	2299,(5, 116),15	2314,(5, 132),6	2320,(5, 136),18	2338,(5, 140),3	2341,(5, 144),117	2458,(5, 148),3	2461,(5, 150),24	2485,(7, 44),12	2497,(7, 68),3	2500,(7, 78),42	2542,(7, 82),6	2548,(7, 92),9	2557,(7, 106),3	2560,(7, 114),27	2587,(7, 140),12	2599,(7, 148),3	2602,(7, 152),51	2653,(7, 162),9	2662,(7, 178),165	2827,(7, 190),3	2830,(7, 200),3	2833,(19, 36),138	2971,(19, 44),87	3058,(19, 52),21	3079,(19, 60),9	3088,(19, 100),3	3091,(19, 180),18	3109,(11, 94),9	3118,(11, 166),57	3175,(11, 186),3	3178,(11, 188),132	3310,(15, 30),24	3334,(15, 66),36	3370,(15, 90),3	3373,(15, 94),9	3382,(15, 140),27	3409,(15, 156),3	3412,(15, 172),15	3427,(15, 184),132	3559,(15, 198),30	3589,(17, 24),18	3607,(17, 28),30	3637,(17, 88),6	3643,(17, 96),126	3769,(17, 114),3	3772,(17, 120),3	3775,(17, 128),78	3853,(17, 132),21	3874,(17, 160),27	3901,(17, 182),15	3916,(3, 32),9	3925,(3, 72),18	3943,(3, 76),3	3946,(3, 86),3	3949,(3, 134),15	3964,(3, 152),39	4003,(3, 180),3	4006,(3, 188),3	4009,(3, 194),3	
18,(2, 55),24	42,(2, 109),18	60,(2, 139),24	84,(2, 145),27	111,(2, 147),27	138,(2, 159),156	294,(2, 181),6	300,(2, 191),3	303,(2, 195),12	315,(2, 199),3	318,(4, 25),9	327,(4, 31),24	351,(4, 47),15	366,(4, 109),15	381,(4, 137),138	519,(4, 149),12	531,(4, 151),3	534,(4, 153),45	579,(4, 165),12	591,(6, 61),9	600,(6, 67),6	606,(6, 75),12	618,(6, 83),3	621,(6, 93),6	627,(6, 123),3	630,(6, 125),27	657,(6, 163),51	708,(6, 169),3	711,(6, 173),12	723,(8, 39),3	726,(8, 57),6	732,(8, 63),15	747,(8, 77),12	759,(8, 117),90	849,(8, 129),102	951,(8, 137),57	1008,(8, 157),15	1023,(10, 33),6	1029,(10, 63),27	1056,(10, 75),3	1059,(10, 77),15	1074,(10, 85),57	1131,(10, 89),3	1134,(10, 101),345	1479,(10, 119),531	2010,(10, 123),72	2082,(10, 187),3	2085,(34, 201),207	2292,(12, 71),66	2358,(12, 75),3	2361,(12, 97),9	2370,(12, 111),3	2373,(12, 121),96	2469,(12, 137),30	2499,(12, 147),3	2502,(12, 151),9	2511,(12, 177),51	2562,(12, 181),3	2565,(12, 183),9	2574,(14, 21),129	2703,(14, 47),9	2712,(14, 49),9	2721,(14, 71),3	2724,(14, 85),3	2727,(14, 99),3	2730,(14, 107),9	2739,(14, 111),102	2841,(14, 183),42	2883,(14, 193),12	2895,(16, 39),6	2901,(16, 57),9	2910,(16, 69),6	2916,(16, 95),3	2919,(16, 99),6	2925,(16, 151),6	2931,(16, 187),81	3012,(18, 37),24	3036,(18, 45),3	3039,(18, 81),57	3096,(18, 83),3	3099,(18, 91),12	3111,(18, 95),39	3150,(18, 119),3	3153,(18, 169),6	3159,(18, 195),93	3252,(20, 23),165	3417,(20, 35),12	3429,(20, 49),84	3513,(20, 61),15	3528,(20, 79),3	3531,(20, 97),3	3534,(20, 103),99	3633,(20, 109),36	3669,(20, 115),612	4281,(20, 121),3	4284,(20, 159),3	4287,(20, 165),18	4305,(20, 191),18	4323,(142, 201),207	4530,(176, 201),207	4737,(122, 201),207	4944,(130, 201),207	5151,(138, 201),207	5358,(80, 201),207	5565,(108, 201),207	5772,(26, 201),207	5979,(192, 201),207	6186,(110, 201),207	6393,(146, 201),207	6600,(48, 201),207	6807,(22, 201),207	7014,(168, 201),207	7221,(170, 201),207	7428,(196, 201),207	7635,(56, 201),207	7842,(124, 201),207	8049,(126, 201),207	8256,(62, 201),207	8463,(64, 201),207	8670,(84, 201),207	8877,(102, 201),207	9084,(164, 201),207	9291,(42, 201),207	9498,(46, 201),207	9705,(70, 201),207	9912,(74, 201),207	10119,(158, 201),207	10326,(174, 201),207	10533,(54, 201),207	10740,(98, 201),207	10947,(104, 201),207	11154,(112, 201),207	11361,(118, 201),207	11568,(154, 201),207	11775,(38, 201),207	11982,(40, 201),207	12189,(50, 201),207	12396,(58, 201),207	12603,(116, 201),207	12810,(136, 201),207	13017,(144, 201),207	13224,(150, 201),207	13431,(68, 201),207	13638,(78, 201),207	13845,(82, 201),207	14052,(92, 201),207	14259,(106, 201),207	14466,(148, 201),207	14673,(162, 201),207	14880,(178, 201),207	15087,(190, 201),207	15294,(200, 201),207	15501,(36, 201),207	15708,(44, 201),207	15915,(52, 201),207	16122,(60, 201),207	16329,(100, 201),207	16536,(166, 201),207	16743,(186, 201),207	16950,(30, 201),207	17157,(66, 201),207	17364,(90, 201),207	17571,(94, 201),207	17778,(140, 201),207	17985,(156, 201),207	18192,(172, 201),207	18399,(184, 201),207	18606,(198, 201),207	18813,(24, 201),207	19020,(28, 201),207	19227,(88, 201),207	19434,(96, 201),207	19641,(114, 201),207	19848,(120, 201),207	20055,(128, 201),207	20262,(132, 201),207	20469,(160, 201),207	20676,(182, 201),207	20883,(32, 201),207	21090,(72, 201),207	21297,(76, 201),207	21504,(86, 201),207	21711,(134, 201),207	21918,(152, 201),207	22125,(180, 201),207	22332,(188, 201),207	22539,(194, 201),207	
# Outgoing
18,(2, 55),24	42,(2, 109),18	60,(2, 139),24	84,(2, 145),27	111,(2, 147),27	138,(2, 159),156	294,(2, 181),6	300,(2, 191),3	303,(2, 195),12	315,(2, 199),3	318,(4, 25),9	327,(4, 31),24	351,(4, 47),15	366,(4, 109),15	381,(4, 137),138	519,(4, 149),12	531,(4, 151),3	534,(4, 153),45	579,(4, 165),12	591,(6, 61),9	600,(6, 67),6	606,(6, 75),12	618,(6, 83),3	621,(6, 93),6	627,(6, 123),3	630,(6, 125),27	657,(6, 163),51	708,(6, 169),3	711,(6, 173),12	723,(8, 39),3	726,(8, 57),6	732,(8, 63),15	747,(8, 77),12	759,(8, 117),90	849,(8, 129),102	951,(8, 137),57	1008,(8, 157),15	1023,(10, 33),6	1029,(10, 63),27	1056,(10, 75),3	1059,(10, 77),15	1074,(10, 85),57	1131,(10, 89),3	1134,(10, 101),345	1479,(10, 119),531	2010,(10, 123),72	2082,(10, 187),3	2085,(34, 201),207	2292,(12, 71),66	2358,(12, 75),3	2361,(12, 97),9	2370,(12, 111),3	2373,(12, 121),96	2469,(12, 137),30	2499,(12, 147),3	2502,(12, 151),9	2511,(12, 177),51	2562,(12, 181),3	2565,(12, 183),9	2574,(14, 21),129	2703,(14, 47),9	2712,(14, 49),9	2721,(14, 71),3	2724,(14, 85),3	2727,(14, 99),3	2730,(14, 107),9	2739,(14, 111),102	2841,(14, 183),42	2883,(14, 193),12	2895,(16, 39),6	2901,(16, 57),9	2910,(16, 69),6	2916,(16, 95),3	2919,(16, 99),6	2925,(16, 151),6	2931,(16, 187),81	3012,(18, 37),24	3036,(18, 45),3	3039,(18, 81),57	3096,(18, 83),3	3099,(18, 91),12	3111,(18, 95),39	3150,(18, 119),3	3153,(18, 169),6	3159,(18, 195),93	3252,(20, 23),165	3417,(20, 35),12	3429,(20, 49),84	3513,(20, 61),15	3528,(20, 79),3	3531,(20, 97),3	3534,(20, 103),99	3633,(20, 109),36	3669,(20, 115),612	4281,(20, 121),3	4284,(20, 159),3	4287,(20, 165),18	4305,(20, 191),18	4323,(142, 201),207	4530,(176, 201),207	4737,(122, 201),207	4944,(130, 201),207	5151,(138, 201),207	5358,(80, 201),207	5565,(108, 201),207	5772,(26, 201),207	5979,(192, 201),207	6186,(110, 201),207	6393,(146, 201),207	6600,(48, 201),207	6807,(22, 201),207	7014,(168, 201),207	7221,(170, 201),207	7428,(196, 201),207	7635,(56, 201),207	7842,(124, 201),207	8049,(126, 201),207	8256,(62, 201),207	8463,(64, 201),207	8670,(84, 201),207	8877,(102, 201),207	9084,(164, 201),207	9291,(42, 201),207	9498,(46, 201),207	9705,(70, 201),207	9912,(74, 201),207	10119,(158, 201),207	10326,(174, 201),207	10533,(54, 201),207	10740,(98, 201),207	10947,(104, 201),207	11154,(112, 201),207	11361,(118, 201),207	11568,(154, 201),207	11775,(38, 201),207	11982,(40, 201),207	12189,(50, 201),207	12396,(58, 201),207	12603,(116, 201),207	12810,(136, 201),207	13017,(144, 201),207	13224,(150, 201),207	13431,(68, 201),207	13638,(78, 201),207	13845,(82, 201),207	14052,(92, 201),207	14259,(106, 201),207	14466,(148, 201),207	14673,(162, 201),207	14880,(178, 201),207	15087,(190, 201),207	15294,(200, 201),207	15501,(36, 201),207	15708,(44, 201),207	15915,(52, 201),207	16122,(60, 201),207	16329,(100, 201),207	16536,(166, 201),207	16743,(186, 201),207	16950,(30, 201),207	17157,(66, 201),207	17364,(90, 201),207	17571,(94, 201),207	17778,(140, 201),207	17985,(156, 201),207	18192,(172, 201),207	18399,(184, 201),207	18606,(198, 201),207	18813,(24, 201),207	19020,(28, 201),207	19227,(88, 201),207	19434,(96, 201),207	19641,(114, 201),207	19848,(120, 201),207	20055,(128, 201),207	20262,(132, 201),207	20469,(160, 201),207	20676,(182, 201),207	20883,(32, 201),207	21090,(72, 201),207	21297,(76, 201),207	21504,(86, 201),207	21711,(134, 201),207	21918,(152, 201),207	22125,(180, 201),207	22332,(188, 201),207	22539,(194, 201),207	
1,(0, 2),3	4,(0, 4),3	7,(0, 6),3	10,(0, 8),3	13,(0, 10),3	16,(0, 12),3	19,(0, 14),3	22,(0, 16),3	25,(0, 18),3	28,(0, 20),3	31,(1, 26),75	106,(1, 84),84	190,(1, 102),81	271,(1, 162),807	1078,(1, 164),93	1171,(13, 42),6	1177,(13, 46),48	1225,(13, 68),6	1231,(13, 70),3	1234,(13, 74),3	1237,(13, 76),456	1693,(13, 158),3	1696,(13, 174),3	1699,(9, 54),3	1702,(9, 98),3	1705,(9, 104),3	1708,(9, 112),24	1732,(9, 116),246	1978,(9, 118),12	1990,(9, 154),12	2002,(9, 194),3	2005,(9, 200),3	2008,(5, 38),195	2203,(5, 40),45	2248,(5, 50),3	2251,(5, 58),3	2254,(5, 66),45	2299,(5, 116),15	2314,(5, 132),6	2320,(5, 136),18	2338,(5, 140),3	2341,(5, 144),117	2458,(5, 148),3	2461,(5, 150),24	2485,(7, 44),12	2497,(7, 68),3	2500,(7, 78),42	2542,(7, 82),6	2548,(7, 92),9	2557,(7, 106),3	2560,(7, 114),27	2587,(7, 140),12	2599,(7, 148),3	2602,(7, 152),51	2653,(7, 162),9	2662,(7, 178),165	2827,(7, 190),3	2830,(7, 200),3	2833,(19, 36),138	2971,(19, 44),87	3058,(19, 52),21	3079,(19, 60),9	3088,(19, 100),3	3091,(19, 180),18	3109,(11, 94),9	3118,(11, 166),57	3175,(11, 186),3	3178,(11, 188),132	3310,(15, 30),24	3334,(15, 66),36	3370,(15, 90),3	3373,(15, 94),9	3382,(15, 140),27	3409,(15, 156),3	3412,(15, 172),15	3427,(15, 184),132	3559,(15, 198),30	3589,(17, 24),18	3607,(17, 28),30	3637,(17, 88),6	3643,(17, 96),126	3769,(17, 114),3	3772,(17, 120),3	3775,(17, 128),78	3853,(17, 132),21	3874,(17, 160),27	3901,(17, 182),15	3916,(3, 32),9	3925,(3, 72),18	3943,(3, 76),3	3946,(3, 86),3	3949,(3, 134),15	3964,(3, 152),39	4003,(3, 180),3	4006,(3, 188),3	4009,(3, 194),3	
