32441
# CPU
7,2,14	21,4,14	35,6,14	49,55,14	63,34,14	77,139,14	91,145,14	105,11,14	119,142,14	133,163,14	147,176,14	161,135,14	175,166,14	189,153,14	203,186,14	241,161,14	289,188,14	303,104,14	317,138,14	793,125,14	1630,136,14	1867,173,14	1881,175,14	2056,84,14	2070,83,14	2320,37,14	2341,146,14	2812,38,14	2983,40,14	3919,102,14	3961,164,14	4744,108,14	4774,137,14	4788,144,14	4802,152,14	4861,147,14	4875,181,14	5080,88,14	5410,113,14	5464,131,14	5479,182,14	5493,185,14	5524,195,14	5974,109,14	5988,159,14	7231,118,14	7690,78,14	7762,123,14	8212,66,14	8226,94,14	32440,201,1	
10,3,14	24,7,14	38,29,14	52,32,14	66,27,14	80,72,14	94,41,14	108,53,14	122,9,14	136,10,14	150,15,14	164,143,14	178,106,14	192,178,14	206,194,14	220,65,14	234,154,14	248,89,14	262,30,14	276,33,14	290,198,14	304,127,14	784,116,14	1714,140,14	1834,148,14	1909,92,14	1978,192,14	2017,69,14	2053,98,14	2067,101,14	2317,39,14	2332,157,14	2347,85,14	2361,184,14	2375,87,14	2389,158,14	2403,25,14	2417,105,14	2431,31,14	2445,114,14	2459,86,14	2476,119,14	2506,155,14	2542,67,14	2556,68,14	2570,93,14	2584,199,14	2598,79,14	2617,43,14	2631,61,14	
4,1,14	18,26,14	32,51,14	46,8,14	60,13,14	74,17,14	88,20,14	102,129,14	116,130,14	130,122,14	144,197,14	158,59,14	172,70,14	186,76,14	200,133,14	214,96,14	228,103,14	242,24,14	256,64,14	270,35,14	284,23,14	298,124,14	312,115,14	326,117,14	340,82,14	354,63,14	368,77,14	382,179,14	396,50,14	410,58,14	1852,167,14	1866,171,14	1915,174,14	1933,49,14	1963,128,14	1990,42,14	2011,46,14	2025,99,14	2056,73,14	2070,97,14	2341,132,14	2355,162,14	2401,28,14	2440,47,14	2482,112,14	2496,149,14	2510,160,14	2524,165,14	2538,60,14	2554,75,14	
0,0,1	1,5,14	15,18,14	29,14,14	43,16,14	57,12,14	71,19,14	85,56,14	99,45,14	113,193,14	127,150,14	141,21,14	155,48,14	169,168,14	183,22,14	197,170,14	211,177,14	225,80,14	239,111,14	253,71,14	267,189,14	281,141,14	295,100,14	309,107,14	323,36,14	2326,52,14	2340,91,14	2354,57,14	2368,74,14	2382,196,14	2396,180,14	2416,190,14	2434,81,14	2448,54,14	2462,120,14	2476,44,14	2490,110,14	2504,95,14	2518,200,14	2532,134,14	2546,183,14	2560,90,14	2574,156,14	2588,151,14	2602,187,14	2616,62,14	2630,121,14	2644,172,14	2658,126,14	2672,169,14	2686,191,14	
# Incoming
4,(0, 2),3	10,(0, 4),3	13,(0, 6),3	28,(0, 11),3	43,(5, 38),195	238,(3, 161),3	241,(5, 40),45	286,(3, 188),3	289,(9, 104),3	292,(10, 138),3	295,(5, 66),45	340,(10, 108),6	346,(5, 113),423	769,(7, 109),15	784,(5, 125),9	793,(5, 131),813	1612,(5, 136),18	1630,(5, 137),81	1714,(5, 144),117	1831,(7, 37),33	1864,(5, 173),3	1867,(5, 175),3	1870,(5, 185),36	1906,(1, 37),66	1972,(1, 84),84	2056,(18, 83),3	2059,(1, 102),81	2140,(1, 147),63	2203,(1, 164),93	2296,(18, 37),24	2320,(18, 182),3	2323,(14, 40),3	2326,(14, 88),3	2329,(14, 146),3	2332,(8, 38),6	2338,(12, 146),3	2341,(12, 147),3	2344,(12, 181),3	2347,(3, 152),39	2386,(18, 38),426	2812,(18, 40),171	2983,(18, 195),93	3076,(26, 201),207	3283,(7, 78),42	3325,(7, 123),33	3358,(7, 131),468	3826,(7, 152),51	3877,(14, 102),42	3919,(14, 164),42	3961,(14, 182),24	3985,(51, 201),207	4192,(29, 201),207	4399,(8, 137),57	4456,(32, 201),207	4663,(12, 108),81	4744,(12, 137),30	4774,(12, 144),12	4786,(12, 152),6	4792,(13, 131),24	4816,(13, 147),45	4861,(13, 181),6	4867,(27, 201),207	5074,(17, 88),6	5080,(17, 109),36	5116,(17, 113),294	5410,(17, 131),54	5464,(17, 182),15	5479,(17, 185),6	5485,(17, 195),39	5524,(72, 201),207	5731,(56, 201),207	5938,(20, 109),36	5974,(20, 159),3	5977,(41, 201),207	6184,(45, 201),207	6391,(129, 201),207	6598,(53, 201),207	6805,(193, 201),207	7012,(130, 201),207	7219,(9, 118),12	7231,(150, 201),207	7438,(122, 201),207	7645,(10, 78),45	7690,(10, 123),72	7762,(21, 201),207	7969,(197, 201),207	8176,(15, 66),36	8212,(15, 94),9	8221,(48, 201),207	8428,(59, 201),207	8635,(143, 201),207	8842,(168, 201),207	9049,(70, 201),207	9256,(106, 201),207	9463,(22, 201),207	9670,(76, 201),207	9877,(178, 201),207	10084,(170, 201),207	10291,(133, 201),207	10498,(194, 201),207	10705,(177, 201),207	10912,(96, 201),207	11119,(65, 201),207	11326,(80, 201),207	11533,(103, 201),207	11740,(154, 201),207	11947,(111, 201),207	12154,(24, 201),207	12361,(89, 201),207	12568,(71, 201),207	12775,(64, 201),207	12982,(30, 201),207	13189,(189, 201),207	13396,(35, 201),207	13603,(33, 201),207	13810,(141, 201),207	14017,(23, 201),207	14224,(198, 201),207	14431,(100, 201),207	14638,(124, 201),207	14845,(127, 201),207	15052,(107, 201),207	15259,(115, 201),207	15466,(36, 201),207	15673,(117, 201),207	15880,(82, 201),207	16087,(63, 201),207	16294,(77, 201),207	16501,(179, 201),207	16708,(50, 201),207	16915,(58, 201),207	17122,(116, 201),207	17329,(140, 201),207	17536,(148, 201),207	17743,(167, 201),207	17950,(171, 201),207	18157,(92, 201),207	18364,(174, 201),207	18571,(49, 201),207	18778,(128, 201),207	18985,(192, 201),207	19192,(42, 201),207	19399,(46, 201),207	19606,(69, 201),207	19813,(99, 201),207	20020,(98, 201),207	20227,(73, 201),207	20434,(101, 201),207	20641,(97, 201),207	20848,(39, 201),207	21055,(52, 201),207	21262,(157, 201),207	21469,(91, 201),207	21676,(132, 201),207	21883,(85, 201),207	22090,(57, 201),207	22297,(162, 201),207	22504,(184, 201),207	22711,(74, 201),207	22918,(87, 201),207	23125,(196, 201),207	23332,(158, 201),207	23539,(180, 201),207	23746,(28, 201),207	23953,(25, 201),207	24160,(190, 201),207	24367,(105, 201),207	24574,(31, 201),207	24781,(81, 201),207	24988,(47, 201),207	25195,(114, 201),207	25402,(54, 201),207	25609,(86, 201),207	25816,(120, 201),207	26023,(119, 201),207	26230,(44, 201),207	26437,(112, 201),207	26644,(110, 201),207	26851,(149, 201),207	27058,(95, 201),207	27265,(155, 201),207	27472,(160, 201),207	27679,(200, 201),207	27886,(165, 201),207	28093,(134, 201),207	28300,(60, 201),207	28507,(67, 201),207	28714,(183, 201),207	28921,(75, 201),207	29128,(68, 201),207	29335,(90, 201),207	29542,(93, 201),207	29749,(156, 201),207	29956,(199, 201),207	30163,(151, 201),207	30370,(79, 201),207	30577,(187, 201),207	30784,(62, 201),207	30991,(43, 201),207	31198,(121, 201),207	31405,(61, 201),207	31612,(172, 201),207	31819,(126, 201),207	32026,(169, 201),207	32233,(191, 201),207	
7,(0, 3),3	16,(0, 7),3	22,(0, 9),3	25,(0, 10),3	34,(0, 15),3	238,(5, 39),3	292,(5, 61),3	340,(5, 79),6	769,(5, 116),15	1711,(5, 140),3	1831,(5, 148),3	1834,(5, 155),6	1906,(18, 92),3	1909,(18, 119),3	1933,(14, 85),3	1963,(14, 192),15	1978,(16, 39),6	2011,(16, 69),6	2023,(16, 184),24	2050,(12, 98),3	2056,(1, 101),3	2068,(12, 114),12	2104,(19, 87),3	2107,(19, 93),3	2302,(1, 199),12	2314,(8, 39),3	2317,(8, 157),15	2338,(13, 68),6	2344,(13, 85),3	2353,(2, 184),3	2356,(13, 87),3	2359,(13, 158),3	2362,(2, 199),3	2365,(4, 25),9	2374,(13, 105),27	2401,(4, 31),24	2434,(17, 114),3	2440,(4, 86),3	2443,(13, 119),33	2488,(13, 199),15	2503,(17, 155),3	2527,(6, 61),9	2536,(6, 67),6	2542,(20, 68),12	2554,(6, 93),6	2560,(17, 199),18	2578,(20, 61),15	2593,(20, 79),3	2596,(11, 43),21	2617,(11, 61),3	
1,(0, 1),3	19,(0, 8),3	31,(0, 13),3	37,(0, 17),3	40,(0, 20),3	43,(3, 49),33	76,(3, 76),3	79,(3, 103),9	88,(3, 117),15	103,(7, 82),6	109,(7, 162),9	136,(9, 112),24	160,(10, 28),3	163,(10, 63),27	190,(10, 75),3	193,(10, 77),15	208,(15, 49),27	241,(15, 179),27	286,(5, 50),3	289,(5, 58),3	1606,(5, 132),6	1840,(5, 167),12	1852,(5, 171),12	1912,(18, 174),3	1915,(14, 47),9	1924,(14, 49),9	1936,(14, 99),3	1939,(14, 128),24	1984,(16, 42),6	1990,(16, 46),21	2017,(16, 99),6	2047,(12, 75),3	2053,(19, 73),3	2059,(12, 97),9	2080,(12, 162),15	2095,(19, 60),9	2326,(2, 132),15	2341,(2, 162),12	2374,(4, 28),27	2425,(4, 47),15	2449,(4, 112),33	2482,(4, 149),12	2497,(4, 160),12	2509,(4, 165),12	2521,(6, 60),6	2542,(6, 75),12	
2296,(1, 187),6	2302,(2, 44),12	2314,(2, 52),12	2326,(3, 91),6	2332,(3, 134),15	2347,(8, 57),6	2353,(13, 74),3	2356,(2, 191),3	2359,(2, 196),3	2362,(8, 62),12	2386,(3, 180),3	2389,(3, 187),3	2392,(7, 44),12	2404,(7, 95),9	2413,(7, 190),3	2416,(7, 200),3	2419,(13, 81),15	2434,(9, 54),3	2437,(17, 120),3	2440,(20, 44),3	2443,(4, 110),6	2449,(9, 95),18	2467,(9, 200),3	2470,(10, 134),3	2473,(10, 187),3	2476,(13, 183),12	2488,(15, 90),3	2491,(15, 156),3	2494,(4, 151),3	2506,(17, 187),12	2518,(20, 62),18	2536,(20, 121),3	2539,(15, 172),15	2554,(20, 126),6	2560,(6, 169),3	2596,(20, 191),18	
# Outgoing
2302,(2, 44),12	2314,(2, 52),12	2326,(2, 132),15	2341,(2, 162),12	2353,(2, 184),3	2356,(2, 191),3	2359,(2, 196),3	2362,(2, 199),3	2365,(4, 25),9	2374,(4, 28),27	2401,(4, 31),24	2425,(4, 47),15	2440,(4, 86),3	2443,(4, 110),6	2449,(4, 112),33	2482,(4, 149),12	2494,(4, 151),3	2497,(4, 160),12	2509,(4, 165),12	2521,(6, 60),6	2527,(6, 61),9	2536,(6, 67),6	2542,(6, 75),12	2554,(6, 93),6	2560,(6, 169),3	2596,(11, 43),21	2617,(11, 61),3	
43,(3, 49),33	76,(3, 76),3	79,(3, 103),9	88,(3, 117),15	103,(7, 82),6	109,(7, 162),9	136,(9, 112),24	160,(10, 28),3	163,(10, 63),27	190,(10, 75),3	193,(10, 77),15	208,(15, 49),27	238,(3, 161),3	241,(15, 179),27	286,(3, 188),3	289,(9, 104),3	292,(10, 138),3	340,(10, 108),6	769,(7, 109),15	1831,(7, 37),33	2326,(3, 91),6	2332,(3, 134),15	2347,(3, 152),39	2386,(3, 180),3	2389,(3, 187),3	2392,(7, 44),12	2404,(7, 95),9	2413,(7, 190),3	2416,(7, 200),3	2434,(9, 54),3	2449,(9, 95),18	2467,(9, 200),3	2470,(10, 134),3	2473,(10, 187),3	2488,(15, 90),3	2491,(15, 156),3	2539,(15, 172),15	3283,(7, 78),42	3325,(7, 123),33	3358,(7, 131),468	3826,(7, 152),51	4192,(29, 201),207	4456,(32, 201),207	4867,(27, 201),207	5524,(72, 201),207	5977,(41, 201),207	6598,(53, 201),207	7219,(9, 118),12	7645,(10, 78),45	7690,(10, 123),72	8176,(15, 66),36	8212,(15, 94),9	8635,(143, 201),207	9256,(106, 201),207	9877,(178, 201),207	10498,(194, 201),207	11119,(65, 201),207	11740,(154, 201),207	12361,(89, 201),207	12982,(30, 201),207	13603,(33, 201),207	14224,(198, 201),207	14845,(127, 201),207	17122,(116, 201),207	17329,(140, 201),207	17536,(148, 201),207	18157,(92, 201),207	18985,(192, 201),207	19606,(69, 201),207	20020,(98, 201),207	20434,(101, 201),207	20848,(39, 201),207	21262,(157, 201),207	21883,(85, 201),207	22504,(184, 201),207	22918,(87, 201),207	23332,(158, 201),207	23953,(25, 201),207	24367,(105, 201),207	24574,(31, 201),207	25195,(114, 201),207	25609,(86, 201),207	26023,(119, 201),207	27265,(155, 201),207	28507,(67, 201),207	29128,(68, 201),207	29542,(93, 201),207	29956,(199, 201),207	30370,(79, 201),207	30991,(43, 201),207	31405,(61, 201),207	
1906,(1, 37),66	1972,(1, 84),84	2056,(1, 101),3	2059,(1, 102),81	2140,(1, 147),63	2203,(1, 164),93	2296,(1, 187),6	2302,(1, 199),12	2314,(8, 39),3	2317,(8, 157),15	2332,(8, 38),6	2338,(13, 68),6	2344,(13, 85),3	2347,(8, 57),6	2353,(13, 74),3	2356,(13, 87),3	2359,(13, 158),3	2362,(8, 62),12	2374,(13, 105),27	2419,(13, 81),15	2434,(17, 114),3	2437,(17, 120),3	2440,(20, 44),3	2443,(13, 119),33	2476,(13, 183),12	2488,(13, 199),15	2503,(17, 155),3	2506,(17, 187),12	2518,(20, 62),18	2536,(20, 121),3	2542,(20, 68),12	2554,(20, 126),6	2560,(17, 199),18	2578,(20, 61),15	2593,(20, 79),3	2596,(20, 191),18	3076,(26, 201),207	3985,(51, 201),207	4399,(8, 137),57	4792,(13, 131),24	4816,(13, 147),45	4861,(13, 181),6	5074,(17, 88),6	5080,(17, 109),36	5116,(17, 113),294	5410,(17, 131),54	5464,(17, 182),15	5479,(17, 185),6	5485,(17, 195),39	5938,(20, 109),36	5974,(20, 159),3	6391,(129, 201),207	7012,(130, 201),207	7438,(122, 201),207	7969,(197, 201),207	8428,(59, 201),207	9049,(70, 201),207	9670,(76, 201),207	10291,(133, 201),207	10912,(96, 201),207	11533,(103, 201),207	12154,(24, 201),207	12775,(64, 201),207	13396,(35, 201),207	14017,(23, 201),207	14638,(124, 201),207	15259,(115, 201),207	15673,(117, 201),207	15880,(82, 201),207	16087,(63, 201),207	16294,(77, 201),207	16501,(179, 201),207	16708,(50, 201),207	16915,(58, 201),207	17743,(167, 201),207	17950,(171, 201),207	18364,(174, 201),207	18571,(49, 201),207	18778,(128, 201),207	19192,(42, 201),207	19399,(46, 201),207	19813,(99, 201),207	20227,(73, 201),207	20641,(97, 201),207	21676,(132, 201),207	22297,(162, 201),207	23746,(28, 201),207	24988,(47, 201),207	26437,(112, 201),207	26851,(149, 201),207	27472,(160, 201),207	27886,(165, 201),207	28300,(60, 201),207	28921,(75, 201),207	
1,(0, 1),3	4,(0, 2),3	7,(0, 3),3	10,(0, 4),3	13,(0, 6),3	16,(0, 7),3	19,(0, 8),3	22,(0, 9),3	25,(0, 10),3	28,(0, 11),3	31,(0, 13),3	34,(0, 15),3	37,(0, 17),3	40,(0, 20),3	43,(5, 38),195	238,(5, 39),3	241,(5, 40),45	286,(5, 50),3	289,(5, 58),3	292,(5, 61),3	295,(5, 66),45	340,(5, 79),6	346,(5, 113),423	769,(5, 116),15	784,(5, 125),9	793,(5, 131),813	1606,(5, 132),6	1612,(5, 136),18	1630,(5, 137),81	1711,(5, 140),3	1714,(5, 144),117	1831,(5, 148),3	1834,(5, 155),6	1840,(5, 167),12	1852,(5, 171),12	1864,(5, 173),3	1867,(5, 175),3	1870,(5, 185),36	1906,(18, 92),3	1909,(18, 119),3	1912,(18, 174),3	1915,(14, 47),9	1924,(14, 49),9	1933,(14, 85),3	1936,(14, 99),3	1939,(14, 128),24	1963,(14, 192),15	1978,(16, 39),6	1984,(16, 42),6	1990,(16, 46),21	2011,(16, 69),6	2017,(16, 99),6	2023,(16, 184),24	2047,(12, 75),3	2050,(12, 98),3	2053,(19, 73),3	2056,(18, 83),3	2059,(12, 97),9	2068,(12, 114),12	2080,(12, 162),15	2095,(19, 60),9	2104,(19, 87),3	2107,(19, 93),3	2296,(18, 37),24	2320,(18, 182),3	2323,(14, 40),3	2326,(14, 88),3	2329,(14, 146),3	2338,(12, 146),3	2341,(12, 147),3	2344,(12, 181),3	2386,(18, 38),426	2812,(18, 40),171	2983,(18, 195),93	3877,(14, 102),42	3919,(14, 164),42	3961,(14, 182),24	4663,(12, 108),81	4744,(12, 137),30	4774,(12, 144),12	4786,(12, 152),6	5731,(56, 201),207	6184,(45, 201),207	6805,(193, 201),207	7231,(150, 201),207	7762,(21, 201),207	8221,(48, 201),207	8842,(168, 201),207	9463,(22, 201),207	10084,(170, 201),207	10705,(177, 201),207	11326,(80, 201),207	11947,(111, 201),207	12568,(71, 201),207	13189,(189, 201),207	13810,(141, 201),207	14431,(100, 201),207	15052,(107, 201),207	15466,(36, 201),207	21055,(52, 201),207	21469,(91, 201),207	22090,(57, 201),207	22711,(74, 201),207	23125,(196, 201),207	23539,(180, 201),207	24160,(190, 201),207	24781,(81, 201),207	25402,(54, 201),207	25816,(120, 201),207	26230,(44, 201),207	26644,(110, 201),207	27058,(95, 201),207	27679,(200, 201),207	28093,(134, 201),207	28714,(183, 201),207	29335,(90, 201),207	29749,(156, 201),207	30163,(151, 201),207	30577,(187, 201),207	30784,(62, 201),207	31198,(121, 201),207	31612,(172, 201),207	31819,(126, 201),207	32026,(169, 201),207	32233,(191, 201),207	
