1978
# CPU
9,2,4	13,20,4	17,26,4	21,38,4	25,54,4	29,4,4	33,6,4	37,8,4	41,30,4	45,62,4	49,40,4	53,44,4	57,78,4	61,64,4	65,70,4	69,32,4	73,24,4	77,52,4	81,46,4	653,10,4	737,58,4	757,12,4	933,18,4	961,22,4	965,48,4	1025,66,4	1105,68,4	1109,72,4	1121,74,4	1129,14,4	1161,42,4	1221,50,4	1225,56,4	1237,76,4	1249,16,4	1257,28,4	1265,34,4	1273,36,4	1281,60,4	1285,80,4	
0,0,1	1,3,4	5,7,4	9,1,4	13,5,4	17,59,4	21,75,4	25,57,4	29,49,4	33,65,4	37,37,4	41,25,4	45,21,4	49,27,4	53,19,4	57,53,4	61,73,4	65,63,4	69,47,4	129,17,4	133,29,4	149,35,4	153,41,4	157,45,4	517,31,4	521,55,4	549,9,4	573,11,4	625,13,4	629,39,4	633,67,4	665,71,4	801,79,4	813,15,4	1117,23,4	1317,33,4	1345,43,4	1417,51,4	1581,61,4	1589,69,4	1593,77,4	1977,81,1	
# Incoming
1,(0, 2),8	9,(0, 4),8	17,(0, 6),8	25,(0, 8),8	33,(3, 10),620	653,(3, 12),20	673,(3, 18),24	697,(3, 56),24	721,(3, 58),16	737,(3, 68),4	741,(7, 12),16	757,(7, 18),176	933,(7, 22),28	961,(7, 48),4	965,(7, 60),36	1001,(7, 66),24	1025,(7, 68),80	1105,(7, 72),4	1109,(7, 74),12	1121,(1, 14),8	1129,(1, 34),4	1133,(1, 42),28	1161,(1, 50),60	1221,(1, 56),4	1225,(1, 76),12	1237,(5, 16),12	1249,(5, 28),8	1257,(5, 34),8	1265,(5, 36),8	1273,(5, 60),8	1281,(5, 80),4	
13,(2, 9),72	85,(2, 17),44	129,(2, 29),4	133,(2, 35),16	149,(2, 41),4	153,(2, 45),4	157,(20, 81),12	169,(26, 81),12	181,(38, 81),12	193,(54, 81),12	205,(4, 31),312	517,(4, 55),4	521,(6, 9),28	549,(6, 11),24	573,(6, 13),52	625,(6, 39),4	629,(6, 67),4	633,(6, 69),4	637,(6, 71),28	665,(6, 79),136	801,(8, 15),12	813,(8, 23),304	1117,(8, 33),200	1317,(8, 43),28	1345,(8, 51),72	1417,(8, 61),164	1581,(8, 69),8	1589,(8, 77),4	1593,(30, 81),12	1605,(62, 81),12	1617,(40, 81),12	1629,(44, 81),12	1641,(78, 81),12	1653,(64, 81),12	1665,(70, 81),12	1677,(32, 81),12	1689,(24, 81),12	1701,(52, 81),12	1713,(46, 81),12	1725,(10, 81),12	1737,(58, 81),12	1749,(12, 81),12	1761,(18, 81),12	1773,(22, 81),12	1785,(48, 81),12	1797,(66, 81),12	1809,(68, 81),12	1821,(72, 81),12	1833,(74, 81),12	1845,(14, 81),12	1857,(42, 81),12	1869,(50, 81),12	1881,(56, 81),12	1893,(76, 81),12	1905,(16, 81),12	1917,(28, 81),12	1929,(34, 81),12	1941,(36, 81),12	1953,(60, 81),12	1965,(80, 81),12	
# Outgoing
13,(2, 9),72	85,(2, 17),44	129,(2, 29),4	133,(2, 35),16	149,(2, 41),4	153,(2, 45),4	157,(20, 81),12	169,(26, 81),12	181,(38, 81),12	193,(54, 81),12	205,(4, 31),312	517,(4, 55),4	521,(6, 9),28	549,(6, 11),24	573,(6, 13),52	625,(6, 39),4	629,(6, 67),4	633,(6, 69),4	637,(6, 71),28	665,(6, 79),136	801,(8, 15),12	813,(8, 23),304	1117,(8, 33),200	1317,(8, 43),28	1345,(8, 51),72	1417,(8, 61),164	1581,(8, 69),8	1589,(8, 77),4	1593,(30, 81),12	1605,(62, 81),12	1617,(40, 81),12	1629,(44, 81),12	1641,(78, 81),12	1653,(64, 81),12	1665,(70, 81),12	1677,(32, 81),12	1689,(24, 81),12	1701,(52, 81),12	1713,(46, 81),12	1725,(10, 81),12	1737,(58, 81),12	1749,(12, 81),12	1761,(18, 81),12	1773,(22, 81),12	1785,(48, 81),12	1797,(66, 81),12	1809,(68, 81),12	1821,(72, 81),12	1833,(74, 81),12	1845,(14, 81),12	1857,(42, 81),12	1869,(50, 81),12	1881,(56, 81),12	1893,(76, 81),12	1905,(16, 81),12	1917,(28, 81),12	1929,(34, 81),12	1941,(36, 81),12	1953,(60, 81),12	1965,(80, 81),12	
1,(0, 2),8	9,(0, 4),8	17,(0, 6),8	25,(0, 8),8	33,(3, 10),620	653,(3, 12),20	673,(3, 18),24	697,(3, 56),24	721,(3, 58),16	737,(3, 68),4	741,(7, 12),16	757,(7, 18),176	933,(7, 22),28	961,(7, 48),4	965,(7, 60),36	1001,(7, 66),24	1025,(7, 68),80	1105,(7, 72),4	1109,(7, 74),12	1121,(1, 14),8	1129,(1, 34),4	1133,(1, 42),28	1161,(1, 50),60	1221,(1, 56),4	1225,(1, 76),12	1237,(5, 16),12	1249,(5, 28),8	1257,(5, 34),8	1265,(5, 36),8	1273,(5, 60),8	1281,(5, 80),4	
