245
# CPU
0,0,1	1,1,18	19,8,18	37,18,18	55,6,18	73,5,18	91,16,18	121,10,18	139,17,18	157,4,18	196,7,18	
22,11,18	40,13,18	100,2,18	118,3,18	136,19,18	154,15,18	172,14,18	190,9,18	208,20,18	226,12,18	244,21,1	
# Incoming
118,(2, 10),3	121,(2, 17),12	133,(2, 4),24	157,(2, 7),39	
19,(1, 11),3	22,(1, 13),6	28,(0, 2),72	100,(8, 21),6	106,(18, 21),6	112,(6, 21),6	118,(5, 21),6	124,(16, 21),6	139,(10, 21),6	157,(17, 21),6	175,(4, 21),6	214,(7, 21),6	
# Outgoing
19,(1, 11),3	22,(1, 13),6	28,(0, 2),72	100,(8, 21),6	106,(18, 21),6	112,(6, 21),6	118,(5, 21),6	124,(16, 21),6	139,(10, 21),6	157,(17, 21),6	175,(4, 21),6	214,(7, 21),6	
118,(2, 10),3	121,(2, 17),12	133,(2, 4),24	157,(2, 7),39	
