318
# CPU
0,0,1	1,2,10	11,7,10	21,10,10	31,38,10	41,36,10	51,1,10	61,18,10	71,9,10	81,35,10	91,8,10	111,25,10	135,27,10	155,5,10	167,31,10	227,11,10	305,12,10	317,41,1	
10,4,10	20,21,10	30,16,10	40,22,10	50,17,10	60,20,10	70,39,10	80,6,10	90,30,10	106,29,10	133,32,10	163,15,10	238,34,10	
14,28,10	26,3,10	36,14,10	46,40,10	56,26,10	66,33,10	76,23,10	293,37,10	
17,13,10	63,19,10	
64,24,10	





# Incoming
24,(28, 41),6	30,(13, 41),6	36,(21, 41),6	42,(16, 41),6	48,(14, 41),6	54,(22, 41),6	60,(40, 41),6	66,(17, 41),6	72,(26, 41),6	78,(20, 41),6	84,(19, 41),6	90,(24, 41),6	96,(33, 41),6	102,(39, 41),6	108,(3, 25),3	111,(23, 41),6	117,(6, 41),6	123,(30, 41),6	129,(4, 27),3	132,(3, 27),3	135,(29, 41),6	143,(32, 41),6	149,(4, 5),3	152,(3, 5),3	155,(4, 31),12	173,(15, 41),6	179,(4, 11),48	227,(3, 12),78	305,(34, 41),6	311,(37, 41),6	
1,(0, 4),9	39,(3, 30),3	64,(1, 39),3	76,(1, 6),3	79,(1, 30),3	82,(2, 29),24	106,(1, 32),27	133,(2, 15),30	163,(2, 34),75	
11,(2, 28),3	17,(0, 3),9	26,(2, 40),3	29,(2, 26),3	35,(2, 33),21	67,(1, 23),9	227,(4, 37),66	
14,(2, 13),3	32,(2, 19),3	48,(4, 19),3	
36,(3, 24),3	61,(1, 24),3	





# Outgoing
1,(0, 4),9	11,(2, 28),3	14,(2, 13),3	17,(0, 3),9	26,(2, 40),3	29,(2, 26),3	32,(2, 19),3	35,(2, 33),21	61,(1, 24),3	64,(1, 39),3	67,(1, 23),9	76,(1, 6),3	79,(1, 30),3	82,(2, 29),24	106,(1, 32),27	133,(2, 15),30	163,(2, 34),75	
36,(21, 41),6	42,(16, 41),6	48,(4, 19),3	54,(22, 41),6	66,(17, 41),6	78,(20, 41),6	102,(39, 41),6	117,(6, 41),6	123,(30, 41),6	129,(4, 27),3	135,(29, 41),6	143,(32, 41),6	149,(4, 5),3	155,(4, 31),12	173,(15, 41),6	179,(4, 11),48	227,(4, 37),66	305,(34, 41),6	
24,(28, 41),6	36,(3, 24),3	39,(3, 30),3	48,(14, 41),6	60,(40, 41),6	72,(26, 41),6	96,(33, 41),6	108,(3, 25),3	111,(23, 41),6	132,(3, 27),3	152,(3, 5),3	227,(3, 12),78	311,(37, 41),6	
30,(13, 41),6	84,(19, 41),6	
90,(24, 41),6	





