7728
# CPU
331,3,41	372,15,41	413,101,41	454,27,41	495,37,41	536,56,41	577,35,41	618,50,41	661,6,41	702,17,41	743,31,41	784,62,41	825,86,41	866,89,41	907,39,41	991,9,41	1032,65,41	1073,74,41	1114,33,41	1155,59,41	1196,80,41	1237,107,41	1278,117,41	1319,119,41	1360,12,41	1401,25,41	1442,19,41	1483,109,41	1524,77,41	1565,53,41	1606,98,41	1647,29,41	1688,71,41	1729,83,41	1770,92,41	1811,113,41	1852,21,41	1893,23,41	1934,47,41	1975,115,41	2026,41,41	2067,95,41	2248,43,41	2289,45,41	2330,68,41	2371,104,41	2412,111,41	
166,2,41	207,26,41	248,42,41	289,108,41	330,55,41	371,88,41	496,5,41	537,22,41	578,30,41	619,52,41	660,120,41	826,8,41	867,28,41	908,82,41	949,112,41	990,34,41	1031,73,41	1156,11,41	1197,16,41	1238,70,41	1279,79,41	1320,94,41	1361,100,41	1555,46,41	1596,64,41	1637,32,41	1678,110,41	1719,67,41	1760,91,41	1801,49,41	1918,116,41	2011,40,41	2052,44,41	2093,85,41	2134,114,41	2175,14,41	2216,20,41	2257,103,41	2298,18,41	2339,38,41	2380,118,41	2421,76,41	2462,106,41	2767,24,41	2926,61,41	2967,36,41	3013,58,41	3054,97,41	7727,121,1	
0,0,1	1,10,41	42,4,41	83,7,41	124,1,41	165,81,41	206,51,41	247,96,41	288,87,41	329,63,41	370,78,41	769,57,41	1534,13,41	1575,54,41	1616,60,41	1657,75,41	1698,93,41	1739,90,41	1780,48,41	2143,102,41	2227,66,41	2268,72,41	7201,105,41	7414,69,41	7642,99,41	7683,84,41	
# Incoming
166,(0, 3),165	331,(2, 15),15	346,(2, 35),147	493,(2, 50),3	496,(0, 6),165	769,(2, 86),18	787,(2, 89),9	796,(5, 39),3	826,(0, 9),165	991,(8, 65),24	1015,(8, 74),9	1024,(8, 77),72	1096,(8, 80),15	1111,(8, 107),3	1114,(8, 117),3	1117,(8, 119),3	1156,(0, 12),165	1321,(10, 25),12	1333,(11, 19),3	1336,(11, 47),3	1339,(11, 53),3	1342,(11, 109),6	1564,(10, 68),9	1573,(10, 83),15	1588,(10, 92),3	1591,(10, 95),60	1654,(10, 113),63	1717,(4, 21),39	1756,(4, 23),27	1783,(4, 47),3	1795,(4, 115),9	2011,(7, 41),15	2035,(7, 95),3	2173,(1, 43),75	2248,(1, 45),18	2299,(1, 68),18	2353,(1, 104),3	2365,(1, 111),27	
1,(0, 2),165	331,(0, 5),165	661,(0, 8),165	991,(0, 11),165	1333,(10, 46),222	1555,(10, 64),9	1564,(3, 32),30	1651,(10, 110),3	1660,(3, 67),18	1678,(3, 91),21	1786,(4, 49),9	1804,(4, 116),114	1918,(7, 40),93	2026,(7, 44),3	2029,(7, 85),6	2038,(7, 114),75	2113,(1, 14),39	2152,(1, 20),21	2173,(3, 103),3	2176,(15, 121),3	2179,(101, 121),3	2182,(27, 121),3	2185,(37, 121),3	2188,(56, 121),3	2191,(35, 121),3	2194,(50, 121),3	2197,(6, 18),9	2206,(6, 38),3	2248,(6, 97),18	2266,(1, 58),33	2299,(6, 118),6	2305,(17, 121),3	2308,(31, 121),3	2311,(62, 121),3	2314,(86, 121),3	2317,(1, 76),36	2353,(89, 121),3	2356,(1, 106),9	2365,(39, 121),3	2368,(9, 24),6	2374,(65, 121),3	2377,(74, 121),3	2380,(33, 121),3	2383,(59, 121),3	2386,(80, 121),3	2389,(107, 121),3	2392,(81, 121),3	2395,(51, 121),3	2398,(96, 121),3	2401,(87, 121),3	2404,(63, 121),3	2407,(3, 24),360	2767,(78, 121),3	2770,(6, 61),156	2926,(57, 121),3	2929,(117, 121),3	2932,(119, 121),3	2935,(12, 36),6	2941,(12, 58),72	3013,(12, 97),3	3016,(25, 121),3	3019,(19, 121),3	3022,(109, 121),3	3025,(77, 121),3	3028,(13, 121),3	3031,(53, 121),3	3034,(54, 121),3	3037,(98, 121),3	3040,(60, 121),3	3043,(29, 121),3	3046,(75, 121),3	3049,(71, 121),3	3052,(93, 121),3	3055,(83, 121),3	3058,(90, 121),3	3061,(92, 121),3	3064,(48, 121),3	3067,(113, 121),3	3070,(21, 121),3	3073,(23, 121),3	3076,(47, 121),3	3079,(115, 121),3	3082,(41, 121),3	3085,(95, 121),3	3088,(102, 121),3	3091,(66, 121),3	3094,(43, 121),3	3097,(72, 121),3	3100,(45, 121),3	3103,(68, 121),3	3106,(104, 121),3	3109,(111, 121),3	7242,(105, 121),3	7455,(69, 121),3	7683,(99, 121),3	7724,(84, 121),3	
496,(2, 57),273	769,(3, 13),765	1534,(3, 54),9	1543,(3, 60),9	1552,(5, 75),3	1555,(5, 93),3	1558,(5, 102),3	1561,(11, 90),3	1594,(3, 48),66	1699,(3, 102),444	2143,(5, 72),57	2209,(6, 66),18	2227,(6, 72),21	2248,(8, 105),4953	7201,(11, 69),213	7414,(11, 99),228	7642,(12, 84),33	
# Outgoing
769,(3, 13),765	1534,(3, 54),9	1543,(3, 60),9	1564,(3, 32),30	1594,(3, 48),66	1660,(3, 67),18	1678,(3, 91),21	1699,(3, 102),444	2173,(3, 103),3	2176,(15, 121),3	2179,(101, 121),3	2182,(27, 121),3	2185,(37, 121),3	2188,(56, 121),3	2191,(35, 121),3	2194,(50, 121),3	2197,(6, 18),9	2206,(6, 38),3	2209,(6, 66),18	2227,(6, 72),21	2248,(6, 97),18	2299,(6, 118),6	2305,(17, 121),3	2308,(31, 121),3	2311,(62, 121),3	2314,(86, 121),3	2353,(89, 121),3	2365,(39, 121),3	2368,(9, 24),6	2374,(65, 121),3	2377,(74, 121),3	2380,(33, 121),3	2383,(59, 121),3	2386,(80, 121),3	2389,(107, 121),3	2407,(3, 24),360	2770,(6, 61),156	2929,(117, 121),3	2932,(119, 121),3	2935,(12, 36),6	2941,(12, 58),72	3013,(12, 97),3	3016,(25, 121),3	3019,(19, 121),3	3022,(109, 121),3	3025,(77, 121),3	3031,(53, 121),3	3037,(98, 121),3	3043,(29, 121),3	3049,(71, 121),3	3055,(83, 121),3	3061,(92, 121),3	3067,(113, 121),3	3070,(21, 121),3	3073,(23, 121),3	3076,(47, 121),3	3079,(115, 121),3	3082,(41, 121),3	3085,(95, 121),3	3094,(43, 121),3	3100,(45, 121),3	3103,(68, 121),3	3106,(104, 121),3	3109,(111, 121),3	7642,(12, 84),33	
331,(2, 15),15	346,(2, 35),147	493,(2, 50),3	496,(2, 57),273	769,(2, 86),18	787,(2, 89),9	796,(5, 39),3	991,(8, 65),24	1015,(8, 74),9	1024,(8, 77),72	1096,(8, 80),15	1111,(8, 107),3	1114,(8, 117),3	1117,(8, 119),3	1333,(11, 19),3	1336,(11, 47),3	1339,(11, 53),3	1342,(11, 109),6	1552,(5, 75),3	1555,(5, 93),3	1558,(5, 102),3	1561,(11, 90),3	2143,(5, 72),57	2248,(8, 105),4953	7201,(11, 69),213	7414,(11, 99),228	
1,(0, 2),165	166,(0, 3),165	331,(0, 5),165	496,(0, 6),165	661,(0, 8),165	826,(0, 9),165	991,(0, 11),165	1156,(0, 12),165	1321,(10, 25),12	1333,(10, 46),222	1555,(10, 64),9	1564,(10, 68),9	1573,(10, 83),15	1588,(10, 92),3	1591,(10, 95),60	1651,(10, 110),3	1654,(10, 113),63	1717,(4, 21),39	1756,(4, 23),27	1783,(4, 47),3	1786,(4, 49),9	1795,(4, 115),9	1804,(4, 116),114	1918,(7, 40),93	2011,(7, 41),15	2026,(7, 44),3	2029,(7, 85),6	2035,(7, 95),3	2038,(7, 114),75	2113,(1, 14),39	2152,(1, 20),21	2173,(1, 43),75	2248,(1, 45),18	2266,(1, 58),33	2299,(1, 68),18	2317,(1, 76),36	2353,(1, 104),3	2356,(1, 106),9	2365,(1, 111),27	2392,(81, 121),3	2395,(51, 121),3	2398,(96, 121),3	2401,(87, 121),3	2404,(63, 121),3	2767,(78, 121),3	2926,(57, 121),3	3028,(13, 121),3	3034,(54, 121),3	3040,(60, 121),3	3046,(75, 121),3	3052,(93, 121),3	3058,(90, 121),3	3064,(48, 121),3	3088,(102, 121),3	3091,(66, 121),3	3097,(72, 121),3	7242,(105, 121),3	7455,(69, 121),3	7683,(99, 121),3	7724,(84, 121),3	
