3230
# CPU
0,0,1	1,4,12	13,1,12	25,11,12	37,5,12	49,9,12	61,8,12	73,2,12	85,12,12	97,6,12	109,10,12	121,7,12	133,76,12	145,82,12	157,110,12	169,95,12	181,68,12	193,16,12	205,74,12	217,22,12	229,28,12	241,85,12	253,100,12	265,118,12	277,65,12	289,105,12	301,99,12	313,119,12	325,30,12	337,115,12	349,23,12	361,49,12	373,98,12	385,39,12	397,42,12	409,113,12	421,60,12	433,117,12	445,92,12	457,116,12	469,84,12	481,31,12	493,81,12	505,104,12	517,40,12	529,46,12	541,56,12	553,72,12	565,26,12	577,47,12	589,27,12	601,107,12	613,15,12	625,77,12	637,97,12	649,109,12	661,89,12	673,75,12	685,35,12	697,21,12	709,106,12	721,102,12	733,37,12	745,44,12	757,52,12	769,59,12	781,86,12	793,108,12	805,33,12	817,29,12	829,88,12	841,90,12	853,66,12	865,79,12	877,57,12	889,13,12	901,34,12	913,80,12	925,43,12	937,61,12	949,67,12	961,54,12	973,51,12	985,91,12	997,58,12	1009,70,12	1021,24,12	1033,64,12	1045,94,12	1057,19,12	1069,55,12	1081,120,12	1093,96,12	1105,73,12	1117,83,12	1129,114,12	1153,69,12	1209,101,12	1273,45,12	1341,103,12	1409,112,12	1477,36,12	1549,50,12	1621,93,12	1701,71,12	1785,17,12	1873,32,12	1977,25,12	2113,87,12	2257,48,12	3193,53,12	3229,121,1	
61,3,12	173,63,12	321,78,12	477,41,12	661,14,12	885,20,12	1109,18,12	1441,111,12	1873,38,12	3025,62,12	


# Incoming
73,(3, 76),4	77,(3, 82),4	81,(3, 110),4	85,(3, 95),4	89,(3, 68),4	93,(3, 16),4	97,(3, 74),4	101,(3, 22),4	105,(3, 28),4	109,(3, 85),4	113,(3, 100),4	117,(3, 118),4	121,(3, 65),4	125,(3, 105),4	129,(3, 99),4	133,(3, 119),4	137,(3, 30),4	141,(3, 115),4	145,(3, 23),4	149,(3, 49),4	153,(3, 98),4	157,(3, 39),4	161,(3, 42),4	165,(3, 113),4	169,(3, 60),4	173,(3, 117),4	177,(3, 92),4	181,(3, 116),4	185,(3, 84),4	189,(3, 31),4	193,(3, 81),4	197,(3, 104),4	201,(3, 40),4	205,(3, 46),4	209,(3, 56),4	213,(3, 72),4	217,(3, 26),4	221,(3, 47),4	225,(3, 27),4	229,(3, 107),4	233,(3, 15),8	241,(3, 77),8	249,(3, 97),8	257,(3, 109),8	265,(3, 89),8	273,(3, 75),8	281,(3, 35),8	289,(3, 21),8	297,(3, 106),8	305,(3, 102),8	313,(3, 37),8	321,(3, 44),8	329,(3, 52),12	341,(3, 59),12	353,(3, 86),12	365,(3, 108),12	377,(3, 33),12	389,(3, 29),12	401,(3, 88),12	413,(3, 90),12	425,(3, 66),16	441,(3, 79),16	457,(3, 57),16	473,(3, 13),16	489,(3, 34),16	505,(3, 80),20	525,(3, 43),20	545,(3, 61),20	565,(3, 67),20	585,(3, 54),20	605,(3, 51),24	629,(3, 91),28	657,(3, 58),28	685,(3, 70),28	713,(3, 24),28	741,(3, 64),32	773,(3, 94),32	805,(3, 19),32	837,(3, 55),36	873,(3, 120),40	913,(3, 96),44	957,(3, 73),48	1005,(3, 83),48	1053,(3, 114),48	1101,(3, 69),52	1153,(3, 101),56	1209,(3, 45),64	1273,(3, 103),68	1341,(3, 112),68	1409,(3, 36),68	1477,(3, 50),72	1549,(3, 93),72	1621,(3, 71),80	1701,(3, 17),84	1785,(3, 32),88	1873,(3, 25),104	1977,(3, 87),136	2113,(3, 48),144	2257,(3, 53),936	3193,(63, 121),4	3197,(78, 121),4	3201,(41, 121),4	3205,(14, 121),4	3209,(20, 121),4	3213,(18, 121),4	3217,(111, 121),4	3221,(38, 121),4	3225,(62, 121),4	
1,(0, 3),60	61,(4, 63),4	65,(1, 63),8	73,(11, 63),28	101,(5, 63),24	125,(9, 63),4	129,(8, 63),4	133,(2, 63),4	137,(12, 63),4	141,(6, 63),4	145,(10, 63),4	149,(7, 63),24	173,(4, 78),4	177,(1, 78),4	181,(11, 78),4	185,(5, 78),4	189,(9, 78),16	205,(8, 78),4	209,(2, 78),4	213,(12, 78),24	237,(6, 78),4	241,(10, 78),56	297,(7, 78),24	321,(4, 41),4	325,(1, 41),16	341,(11, 41),32	373,(5, 41),4	377,(9, 41),36	413,(8, 41),12	425,(2, 41),8	433,(12, 41),4	437,(6, 41),4	441,(10, 41),32	473,(7, 41),4	477,(4, 14),4	481,(1, 14),8	489,(11, 14),40	529,(5, 14),68	597,(9, 14),4	601,(8, 14),4	605,(2, 14),20	625,(12, 14),12	637,(6, 14),4	641,(10, 14),4	645,(7, 14),16	661,(4, 20),20	681,(1, 20),4	685,(11, 20),44	729,(5, 20),8	737,(9, 20),12	749,(8, 20),16	765,(2, 20),24	789,(12, 20),4	793,(6, 20),4	797,(10, 20),16	813,(7, 20),72	885,(4, 18),28	913,(1, 18),16	929,(11, 18),4	933,(5, 18),4	937,(9, 18),4	941,(8, 18),48	989,(2, 18),60	1049,(12, 18),20	1069,(6, 18),12	1081,(10, 18),4	1085,(7, 18),24	1109,(4, 111),56	1165,(1, 111),12	1177,(11, 111),4	1181,(5, 111),8	1189,(9, 111),4	1193,(8, 111),4	1197,(2, 111),12	1209,(12, 111),84	1293,(6, 111),32	1325,(10, 111),72	1397,(7, 111),44	1441,(4, 38),4	1445,(1, 38),48	1493,(11, 38),172	1665,(5, 38),48	1713,(9, 38),12	1725,(8, 38),56	1781,(2, 38),8	1789,(12, 38),28	1817,(6, 38),20	1837,(10, 38),28	1865,(7, 38),8	1873,(4, 62),12	1885,(1, 62),104	1989,(11, 62),12	2001,(5, 62),80	2081,(9, 62),4	2085,(8, 62),844	2929,(2, 62),8	2937,(12, 62),4	2941,(6, 62),8	2949,(10, 62),20	2969,(7, 62),56	


# Outgoing
1,(0, 3),60	61,(4, 63),4	65,(1, 63),8	73,(11, 63),28	101,(5, 63),24	125,(9, 63),4	129,(8, 63),4	133,(2, 63),4	137,(12, 63),4	141,(6, 63),4	145,(10, 63),4	149,(7, 63),24	173,(4, 78),4	177,(1, 78),4	181,(11, 78),4	185,(5, 78),4	189,(9, 78),16	205,(8, 78),4	209,(2, 78),4	213,(12, 78),24	237,(6, 78),4	241,(10, 78),56	297,(7, 78),24	321,(4, 41),4	325,(1, 41),16	341,(11, 41),32	373,(5, 41),4	377,(9, 41),36	413,(8, 41),12	425,(2, 41),8	433,(12, 41),4	437,(6, 41),4	441,(10, 41),32	473,(7, 41),4	477,(4, 14),4	481,(1, 14),8	489,(11, 14),40	529,(5, 14),68	597,(9, 14),4	601,(8, 14),4	605,(2, 14),20	625,(12, 14),12	637,(6, 14),4	641,(10, 14),4	645,(7, 14),16	661,(4, 20),20	681,(1, 20),4	685,(11, 20),44	729,(5, 20),8	737,(9, 20),12	749,(8, 20),16	765,(2, 20),24	789,(12, 20),4	793,(6, 20),4	797,(10, 20),16	813,(7, 20),72	885,(4, 18),28	913,(1, 18),16	929,(11, 18),4	933,(5, 18),4	937,(9, 18),4	941,(8, 18),48	989,(2, 18),60	1049,(12, 18),20	1069,(6, 18),12	1081,(10, 18),4	1085,(7, 18),24	1109,(4, 111),56	1165,(1, 111),12	1177,(11, 111),4	1181,(5, 111),8	1189,(9, 111),4	1193,(8, 111),4	1197,(2, 111),12	1209,(12, 111),84	1293,(6, 111),32	1325,(10, 111),72	1397,(7, 111),44	1441,(4, 38),4	1445,(1, 38),48	1493,(11, 38),172	1665,(5, 38),48	1713,(9, 38),12	1725,(8, 38),56	1781,(2, 38),8	1789,(12, 38),28	1817,(6, 38),20	1837,(10, 38),28	1865,(7, 38),8	1873,(4, 62),12	1885,(1, 62),104	1989,(11, 62),12	2001,(5, 62),80	2081,(9, 62),4	2085,(8, 62),844	2929,(2, 62),8	2937,(12, 62),4	2941,(6, 62),8	2949,(10, 62),20	2969,(7, 62),56	
73,(3, 76),4	77,(3, 82),4	81,(3, 110),4	85,(3, 95),4	89,(3, 68),4	93,(3, 16),4	97,(3, 74),4	101,(3, 22),4	105,(3, 28),4	109,(3, 85),4	113,(3, 100),4	117,(3, 118),4	121,(3, 65),4	125,(3, 105),4	129,(3, 99),4	133,(3, 119),4	137,(3, 30),4	141,(3, 115),4	145,(3, 23),4	149,(3, 49),4	153,(3, 98),4	157,(3, 39),4	161,(3, 42),4	165,(3, 113),4	169,(3, 60),4	173,(3, 117),4	177,(3, 92),4	181,(3, 116),4	185,(3, 84),4	189,(3, 31),4	193,(3, 81),4	197,(3, 104),4	201,(3, 40),4	205,(3, 46),4	209,(3, 56),4	213,(3, 72),4	217,(3, 26),4	221,(3, 47),4	225,(3, 27),4	229,(3, 107),4	233,(3, 15),8	241,(3, 77),8	249,(3, 97),8	257,(3, 109),8	265,(3, 89),8	273,(3, 75),8	281,(3, 35),8	289,(3, 21),8	297,(3, 106),8	305,(3, 102),8	313,(3, 37),8	321,(3, 44),8	329,(3, 52),12	341,(3, 59),12	353,(3, 86),12	365,(3, 108),12	377,(3, 33),12	389,(3, 29),12	401,(3, 88),12	413,(3, 90),12	425,(3, 66),16	441,(3, 79),16	457,(3, 57),16	473,(3, 13),16	489,(3, 34),16	505,(3, 80),20	525,(3, 43),20	545,(3, 61),20	565,(3, 67),20	585,(3, 54),20	605,(3, 51),24	629,(3, 91),28	657,(3, 58),28	685,(3, 70),28	713,(3, 24),28	741,(3, 64),32	773,(3, 94),32	805,(3, 19),32	837,(3, 55),36	873,(3, 120),40	913,(3, 96),44	957,(3, 73),48	1005,(3, 83),48	1053,(3, 114),48	1101,(3, 69),52	1153,(3, 101),56	1209,(3, 45),64	1273,(3, 103),68	1341,(3, 112),68	1409,(3, 36),68	1477,(3, 50),72	1549,(3, 93),72	1621,(3, 71),80	1701,(3, 17),84	1785,(3, 32),88	1873,(3, 25),104	1977,(3, 87),136	2113,(3, 48),144	2257,(3, 53),936	3193,(63, 121),4	3197,(78, 121),4	3201,(41, 121),4	3205,(14, 121),4	3209,(20, 121),4	3213,(18, 121),4	3217,(111, 121),4	3221,(38, 121),4	3225,(62, 121),4	


