10490
# CPU
5,1,14	19,73,14	87,16,14	109,48,14	131,24,14	1315,63,14	1753,26,14	1775,25,14	1789,35,14	1811,66,14	1903,68,14	2443,30,14	2471,52,14	2485,56,14	
1469,77,14	1767,11,14	1817,37,14	1861,75,14	2069,13,14	2127,34,14	2221,41,14	2459,40,14	2507,62,14	2611,36,14	2825,12,14	2905,28,14	2985,80,14	10489,81,1	
9,2,14	91,23,14	1425,65,14	1439,76,14	1747,14,14	1789,47,14	1851,42,14	1865,53,14	1905,70,14	2451,38,14	
13,3,14	27,71,14	41,10,14	89,17,14	1387,22,14	1773,21,14	1787,27,14	1807,59,14	1821,69,14	
17,5,14	41,19,14	141,72,14	1363,18,14	1421,57,14	1435,79,14	1761,31,14	1871,61,14	2441,15,14	
25,7,14	39,9,14	53,78,14	1359,67,14	1749,20,14	1797,50,14	2465,46,14	2479,51,14	
29,8,14	79,44,14	93,45,14	107,55,14	1777,32,14	1791,29,14	2509,74,14	
21,6,14	35,49,14	111,58,14	1409,33,14	1823,39,14	
0,0,1	1,4,14	15,60,14	
1349,64,14	1853,43,14	2473,54,14	
# Incoming
1,(0, 1),4	27,(2, 24),2	29,(2, 30),2	39,(2, 52),2	41,(2, 56),14	71,(2, 63),2	77,(4, 16),10	91,(4, 25),16	107,(8, 48),2	109,(4, 30),2	111,(7, 68),6	117,(8, 56),2	119,(2, 68),8	127,(8, 24),4	131,(8, 35),4	1313,(4, 63),2	1749,(3, 25),2	1751,(3, 26),2	1773,(5, 25),2	1779,(5, 35),8	1807,(5, 66),4	1901,(3, 68),2	2441,(6, 30),2	2467,(6, 52),4	2473,(6, 56),2	
37,(4, 11),36	73,(4, 12),2	75,(2, 41),30	105,(8, 11),2	107,(4, 28),2	109,(2, 62),4	113,(8, 34),2	115,(8, 77),2	117,(4, 36),204	321,(4, 37),932	1253,(1, 12),96	1349,(1, 13),6	1359,(4, 75),74	1433,(4, 77),36	1469,(1, 40),82	1551,(1, 41),2	1553,(1, 75),66	1619,(2, 40),34	1653,(3, 13),92	1745,(7, 37),6	1753,(3, 28),2	1755,(5, 11),12	1777,(3, 34),30	1807,(3, 37),10	1817,(5, 28),2	1819,(5, 80),2	1823,(3, 41),22	1845,(5, 75),16	1871,(3, 62),30	1901,(60, 81),134	2035,(5, 13),34	2069,(5, 34),58	2127,(5, 36),36	2163,(5, 41),58	2221,(5, 62),38	2259,(73, 81),134	2393,(6, 12),32	2425,(7, 40),22	2451,(6, 40),8	2475,(6, 62),32	2509,(6, 80),2	2511,(7, 28),40	2551,(7, 36),60	2611,(7, 80),34	2645,(71, 81),134	2779,(8, 12),46	2825,(8, 28),80	2905,(8, 80),80	2985,(49, 81),134	3119,(9, 81),134	3253,(10, 81),134	3387,(19, 81),134	3521,(78, 81),134	3655,(44, 81),134	3789,(16, 81),134	3923,(17, 81),134	4057,(23, 81),134	4191,(45, 81),134	4325,(55, 81),134	4459,(48, 81),134	4593,(58, 81),134	4727,(24, 81),134	4861,(72, 81),134	4995,(63, 81),134	5129,(64, 81),134	5263,(67, 81),134	5397,(18, 81),134	5531,(22, 81),134	5665,(33, 81),134	5799,(57, 81),134	5933,(65, 81),134	6067,(79, 81),134	6201,(76, 81),134	6335,(14, 81),134	6469,(20, 81),134	6603,(26, 81),134	6737,(31, 81),134	6871,(21, 81),134	7005,(25, 81),134	7139,(32, 81),134	7273,(27, 81),134	7407,(35, 81),134	7541,(47, 81),134	7675,(29, 81),134	7809,(50, 81),134	7943,(59, 81),134	8077,(66, 81),134	8211,(69, 81),134	8345,(39, 81),134	8479,(42, 81),134	8613,(43, 81),134	8747,(53, 81),134	8881,(61, 81),134	9015,(68, 81),134	9149,(70, 81),134	9283,(15, 81),134	9417,(30, 81),134	9551,(38, 81),134	9685,(46, 81),134	9819,(52, 81),134	9953,(54, 81),134	10087,(51, 81),134	10221,(56, 81),134	10355,(74, 81),134	
5,(0, 2),4	47,(7, 38),2	75,(4, 14),2	89,(4, 23),2	99,(7, 70),10	117,(7, 76),8	141,(8, 76),6	1423,(1, 65),2	1425,(1, 76),2	1745,(3, 14),2	1787,(5, 47),2	1797,(5, 53),2	1813,(5, 70),2	1845,(3, 42),6	1853,(3, 53),2	1903,(3, 70),2	2443,(6, 38),8	
9,(0, 3),4	29,(4, 10),8	41,(7, 27),6	65,(2, 59),6	87,(4, 17),2	127,(2, 69),12	1385,(1, 22),2	1421,(1, 59),2	1767,(5, 21),6	1775,(5, 27),2	1799,(5, 59),8	1811,(5, 69),2	
13,(0, 5),4	23,(2, 15),4	39,(7, 19),2	55,(2, 57),4	87,(7, 61),12	119,(8, 61),6	135,(8, 72),6	1311,(4, 57),2	1355,(1, 18),8	1395,(1, 31),2	1411,(1, 57),10	1427,(1, 79),2	1755,(3, 31),6	1855,(3, 61),16	2425,(6, 15),16	
21,(0, 7),4	113,(2, 67),6	1271,(4, 46),6	1277,(4, 50),8	1335,(4, 67),24	1363,(1, 20),22	1747,(3, 20),2	1789,(5, 50),8	2459,(6, 46),6	2465,(6, 51),2	
25,(0, 8),4	53,(7, 44),26	79,(7, 45),4	83,(7, 55),4	1387,(1, 29),8	1761,(3, 32),16	1777,(5, 29),2	2507,(6, 74),2	
17,(0, 6),4	31,(2, 33),8	49,(7, 39),4	59,(2, 58),6	109,(8, 58),2	111,(4, 33),6	1397,(1, 33),12	1817,(3, 39),6	

1253,(4, 43),18	1271,(7, 54),8	1279,(8, 64),2	1285,(4, 54),26	1315,(4, 64),20	1335,(7, 64),14	1409,(1, 43),2	1851,(3, 43),2	2471,(6, 54),2	
# Outgoing
1253,(1, 12),96	1349,(1, 13),6	1355,(1, 18),8	1363,(1, 20),22	1385,(1, 22),2	1387,(1, 29),8	1395,(1, 31),2	1397,(1, 33),12	1409,(1, 43),2	1411,(1, 57),10	1421,(1, 59),2	1423,(1, 65),2	1425,(1, 76),2	1427,(1, 79),2	1469,(1, 40),82	1551,(1, 41),2	1553,(1, 75),66	2259,(73, 81),134	3789,(16, 81),134	4459,(48, 81),134	4727,(24, 81),134	4995,(63, 81),134	6603,(26, 81),134	7005,(25, 81),134	7407,(35, 81),134	8077,(66, 81),134	9015,(68, 81),134	9417,(30, 81),134	9819,(52, 81),134	10221,(56, 81),134	

23,(2, 15),4	27,(2, 24),2	29,(2, 30),2	31,(2, 33),8	39,(2, 52),2	41,(2, 56),14	55,(2, 57),4	59,(2, 58),6	65,(2, 59),6	71,(2, 63),2	75,(2, 41),30	109,(2, 62),4	113,(2, 67),6	119,(2, 68),8	127,(2, 69),12	1619,(2, 40),34	4057,(23, 81),134	5933,(65, 81),134	6201,(76, 81),134	6335,(14, 81),134	7541,(47, 81),134	8479,(42, 81),134	8747,(53, 81),134	9149,(70, 81),134	9551,(38, 81),134	
1653,(3, 13),92	1745,(3, 14),2	1747,(3, 20),2	1749,(3, 25),2	1751,(3, 26),2	1753,(3, 28),2	1755,(3, 31),6	1761,(3, 32),16	1777,(3, 34),30	1807,(3, 37),10	1817,(3, 39),6	1823,(3, 41),22	1845,(3, 42),6	1851,(3, 43),2	1853,(3, 53),2	1855,(3, 61),16	1871,(3, 62),30	1901,(3, 68),2	1903,(3, 70),2	2645,(71, 81),134	3253,(10, 81),134	3923,(17, 81),134	5531,(22, 81),134	6871,(21, 81),134	7273,(27, 81),134	7943,(59, 81),134	8211,(69, 81),134	
1755,(5, 11),12	1767,(5, 21),6	1773,(5, 25),2	1775,(5, 27),2	1777,(5, 29),2	1779,(5, 35),8	1787,(5, 47),2	1789,(5, 50),8	1797,(5, 53),2	1799,(5, 59),8	1807,(5, 66),4	1811,(5, 69),2	1813,(5, 70),2	1817,(5, 28),2	1819,(5, 80),2	1845,(5, 75),16	2035,(5, 13),34	2069,(5, 34),58	2127,(5, 36),36	2163,(5, 41),58	2221,(5, 62),38	3387,(19, 81),134	4861,(72, 81),134	5397,(18, 81),134	5799,(57, 81),134	6067,(79, 81),134	6737,(31, 81),134	8881,(61, 81),134	9283,(15, 81),134	
39,(7, 19),2	41,(7, 27),6	47,(7, 38),2	49,(7, 39),4	53,(7, 44),26	79,(7, 45),4	83,(7, 55),4	87,(7, 61),12	99,(7, 70),10	111,(7, 68),6	117,(7, 76),8	1271,(7, 54),8	1335,(7, 64),14	1745,(7, 37),6	2425,(7, 40),22	2511,(7, 28),40	2551,(7, 36),60	2611,(7, 80),34	3119,(9, 81),134	3521,(78, 81),134	5263,(67, 81),134	6469,(20, 81),134	7809,(50, 81),134	9685,(46, 81),134	10087,(51, 81),134	
105,(8, 11),2	107,(8, 48),2	109,(8, 58),2	113,(8, 34),2	115,(8, 77),2	117,(8, 56),2	119,(8, 61),6	127,(8, 24),4	131,(8, 35),4	135,(8, 72),6	141,(8, 76),6	1279,(8, 64),2	2779,(8, 12),46	2825,(8, 28),80	2905,(8, 80),80	3655,(44, 81),134	4191,(45, 81),134	4325,(55, 81),134	7139,(32, 81),134	7675,(29, 81),134	10355,(74, 81),134	
2393,(6, 12),32	2425,(6, 15),16	2441,(6, 30),2	2443,(6, 38),8	2451,(6, 40),8	2459,(6, 46),6	2465,(6, 51),2	2467,(6, 52),4	2471,(6, 54),2	2473,(6, 56),2	2475,(6, 62),32	2507,(6, 74),2	2509,(6, 80),2	2985,(49, 81),134	4593,(58, 81),134	5665,(33, 81),134	8345,(39, 81),134	
1,(0, 1),4	5,(0, 2),4	9,(0, 3),4	13,(0, 5),4	17,(0, 6),4	21,(0, 7),4	25,(0, 8),4	29,(4, 10),8	37,(4, 11),36	73,(4, 12),2	75,(4, 14),2	77,(4, 16),10	87,(4, 17),2	89,(4, 23),2	91,(4, 25),16	107,(4, 28),2	109,(4, 30),2	111,(4, 33),6	117,(4, 36),204	321,(4, 37),932	1253,(4, 43),18	1271,(4, 46),6	1277,(4, 50),8	1285,(4, 54),26	1311,(4, 57),2	1313,(4, 63),2	1315,(4, 64),20	1335,(4, 67),24	1359,(4, 75),74	1433,(4, 77),36	1901,(60, 81),134	
5129,(64, 81),134	8613,(43, 81),134	9953,(54, 81),134	
