2258
# CPU
106,6,24	130,10,24	154,45,24	178,49,24	202,29,24	226,40,24	250,75,24	274,67,24	298,61,24	322,77,24	346,20,24	370,17,24	394,24,24	
22,1,24	46,9,24	70,32,24	94,44,24	118,69,24	142,64,24	166,60,24	190,38,24	214,14,24	238,34,24	262,35,24	286,53,24	
85,5,24	109,22,24	133,36,24	157,66,24	181,70,24	205,65,24	229,23,24	253,37,24	277,55,24	301,15,24	
64,4,24	88,12,24	112,28,24	136,78,24	160,79,24	184,21,24	208,39,24	232,72,24	745,74,24	
127,7,24	151,27,24	175,33,24	199,56,24	223,16,24	247,51,24	271,50,24	295,71,24	646,57,24	
43,2,24	67,18,24	91,42,24	115,63,24	139,48,24	163,26,24	187,46,24	211,62,24	
148,8,24	172,19,24	196,41,24	220,80,24	244,30,24	268,54,24	
187,11,24	733,68,24	1066,43,24	1195,76,24	2257,81,1	
0,0,1	1,3,24	25,13,24	49,25,24	73,59,24	
232,31,24	613,47,24	643,52,24	667,58,24	742,73,24	
# Incoming
85,(0, 6),21	154,(7, 77),3	172,(8, 20),3	187,(3, 17),3	190,(3, 24),21	
1,(0, 1),21	148,(6, 53),6	
64,(0, 5),21	88,(4, 22),3	151,(7, 15),3	
43,(0, 4),21	742,(3, 74),3	
106,(0, 7),21	127,(1, 71),3	130,(6, 27),18	175,(8, 71),12	643,(3, 57),3	
22,(0, 2),21	154,(6, 62),3	
127,(0, 8),21	
148,(3, 11),39	187,(1, 76),36	232,(3, 43),378	610,(9, 81),18	628,(18, 81),18	661,(3, 68),72	745,(13, 81),18	763,(25, 81),18	781,(32, 81),18	799,(59, 81),18	817,(5, 43),249	1066,(12, 81),18	1084,(42, 81),18	1102,(44, 81),18	1120,(6, 76),75	1195,(22, 81),18	1213,(28, 81),18	1231,(63, 81),18	1249,(69, 81),18	1267,(10, 81),18	1285,(36, 81),18	1303,(78, 81),18	1321,(48, 81),18	1339,(64, 81),18	1357,(27, 81),18	1375,(45, 81),18	1393,(66, 81),18	1411,(79, 81),18	1429,(26, 81),18	1447,(60, 81),18	1465,(19, 81),18	1483,(33, 81),18	1501,(49, 81),18	1519,(70, 81),18	1537,(21, 81),18	1555,(46, 81),18	1573,(38, 81),18	1591,(41, 81),18	1609,(56, 81),18	1627,(29, 81),18	1645,(65, 81),18	1663,(39, 81),18	1681,(62, 81),18	1699,(14, 81),18	1717,(80, 81),18	1735,(16, 81),18	1753,(40, 81),18	1771,(23, 81),18	1789,(72, 81),18	1807,(31, 81),18	1825,(34, 81),18	1843,(30, 81),18	1861,(51, 81),18	1879,(75, 81),18	1897,(37, 81),18	1915,(35, 81),18	1933,(54, 81),18	1951,(50, 81),18	1969,(67, 81),18	1987,(55, 81),18	2005,(53, 81),18	2023,(71, 81),18	2041,(61, 81),18	2059,(15, 81),18	2077,(77, 81),18	2095,(20, 81),18	2113,(17, 81),18	2131,(24, 81),18	2149,(47, 81),18	2167,(52, 81),18	2185,(57, 81),18	2203,(58, 81),18	2221,(73, 81),18	2239,(74, 81),18	

211,(3, 31),21	610,(3, 47),3	613,(3, 52),30	646,(3, 58),15	733,(3, 73),9	
# Outgoing
130,(6, 27),18	148,(6, 53),6	154,(6, 62),3	1120,(6, 76),75	1267,(10, 81),18	1375,(45, 81),18	1501,(49, 81),18	1627,(29, 81),18	1753,(40, 81),18	1879,(75, 81),18	1969,(67, 81),18	2041,(61, 81),18	2077,(77, 81),18	2095,(20, 81),18	2113,(17, 81),18	2131,(24, 81),18	
127,(1, 71),3	187,(1, 76),36	610,(9, 81),18	781,(32, 81),18	1102,(44, 81),18	1249,(69, 81),18	1339,(64, 81),18	1447,(60, 81),18	1573,(38, 81),18	1699,(14, 81),18	1825,(34, 81),18	1915,(35, 81),18	2005,(53, 81),18	
817,(5, 43),249	1195,(22, 81),18	1285,(36, 81),18	1393,(66, 81),18	1519,(70, 81),18	1645,(65, 81),18	1771,(23, 81),18	1897,(37, 81),18	1987,(55, 81),18	2059,(15, 81),18	
88,(4, 22),3	1066,(12, 81),18	1213,(28, 81),18	1303,(78, 81),18	1411,(79, 81),18	1537,(21, 81),18	1663,(39, 81),18	1789,(72, 81),18	2239,(74, 81),18	
151,(7, 15),3	154,(7, 77),3	1357,(27, 81),18	1483,(33, 81),18	1609,(56, 81),18	1735,(16, 81),18	1861,(51, 81),18	1951,(50, 81),18	2023,(71, 81),18	2185,(57, 81),18	
628,(18, 81),18	1084,(42, 81),18	1231,(63, 81),18	1321,(48, 81),18	1429,(26, 81),18	1555,(46, 81),18	1681,(62, 81),18	
172,(8, 20),3	175,(8, 71),12	1465,(19, 81),18	1591,(41, 81),18	1717,(80, 81),18	1843,(30, 81),18	1933,(54, 81),18	

1,(0, 1),21	22,(0, 2),21	43,(0, 4),21	64,(0, 5),21	85,(0, 6),21	106,(0, 7),21	127,(0, 8),21	148,(3, 11),39	187,(3, 17),3	190,(3, 24),21	211,(3, 31),21	232,(3, 43),378	610,(3, 47),3	613,(3, 52),30	643,(3, 57),3	646,(3, 58),15	661,(3, 68),72	733,(3, 73),9	742,(3, 74),3	745,(13, 81),18	763,(25, 81),18	799,(59, 81),18	
1807,(31, 81),18	2149,(47, 81),18	2167,(52, 81),18	2203,(58, 81),18	2221,(73, 81),18	
