249
# CPU
0,41,1	1,20,5	6,6,5	11,38,5	16,34,5	21,28,5	26,24,5	31,22,5	36,10,5	41,11,5	46,15,5	51,7,5	56,9,5	61,12,5	66,32,5	71,23,5	76,35,5	81,31,5	86,18,5	91,29,5	96,40,5	101,19,5	106,25,5	111,30,5	116,33,5	121,39,5	126,8,5	131,2,5	136,5,5	141,37,5	146,4,5	151,36,5	177,1,5	243,3,5	248,0,1	
43,17,5	
148,13,5	
22,14,5	





64,21,5	85,26,5	106,27,5	127,16,5	
# Incoming
48,(17, 1),3	51,(14, 3),3	69,(21, 1),6	90,(26, 3),9	111,(27, 1),21	132,(16, 1),45	177,(13, 3),66	
22,(41, 17),21	
127,(41, 13),21	
1,(41, 14),21	





43,(41, 21),21	64,(41, 26),21	85,(41, 27),21	106,(41, 16),21	
# Outgoing
1,(41, 14),21	22,(41, 17),21	43,(41, 21),21	64,(41, 26),21	85,(41, 27),21	106,(41, 16),21	127,(41, 13),21	
48,(17, 1),3	
177,(13, 3),66	
51,(14, 3),3	





69,(21, 1),6	90,(26, 3),9	111,(27, 1),21	132,(16, 1),45	
