1027
# CPU
15,2,5	29,4,5	34,18,5	39,76,5	44,78,5	49,6,5	54,12,5	59,52,5	64,60,5	69,8,5	74,16,5	79,14,5	84,68,5	89,30,5	94,46,5	99,28,5	137,42,5	145,48,5	167,58,5	293,64,5	301,66,5	419,20,5	473,50,5	555,62,5	625,74,5	641,10,5	646,22,5	651,24,5	656,26,5	679,32,5	685,34,5	695,36,5	700,38,5	709,54,5	745,80,5	771,40,5	776,44,5	787,56,5	795,70,5	800,72,5	
0,0,1	1,3,5	6,5,5	11,7,5	16,1,5	21,77,5	26,51,5	31,63,5	36,49,5	41,33,5	46,25,5	51,39,5	56,67,5	61,59,5	66,17,5	71,27,5	82,31,5	136,53,5	142,73,5	162,9,5	180,13,5	256,47,5	294,57,5	299,65,5	494,75,5	508,79,5	554,15,5	559,19,5	568,21,5	580,23,5	616,37,5	634,41,5	639,55,5	650,69,5	658,11,5	664,29,5	766,35,5	771,43,5	948,45,5	962,61,5	967,71,5	1026,81,1	
# Incoming
1,(0, 2),14	15,(0, 4),14	29,(0, 6),14	43,(0, 8),14	57,(3, 16),8	65,(3, 28),22	87,(3, 34),6	93,(3, 36),38	131,(3, 42),6	137,(3, 48),8	145,(3, 54),12	157,(3, 58),10	167,(3, 64),126	293,(3, 66),8	301,(3, 70),2	303,(3, 80),112	415,(5, 20),4	419,(5, 34),48	467,(5, 50),6	473,(5, 62),82	555,(5, 72),68	623,(5, 74),2	625,(7, 10),16	641,(7, 22),2	643,(7, 24),2	645,(7, 26),2	647,(7, 32),32	679,(7, 34),6	685,(7, 36),10	695,(7, 38),2	697,(7, 54),12	709,(7, 56),22	731,(7, 80),14	745,(1, 40),26	771,(1, 44),2	773,(1, 56),14	787,(1, 70),8	795,(1, 72),4	
20,(2, 17),20	40,(2, 27),14	54,(2, 31),28	82,(2, 53),54	136,(2, 73),6	142,(2, 75),10	152,(2, 79),2	154,(4, 9),8	162,(4, 13),18	180,(4, 15),2	182,(4, 19),14	196,(4, 41),50	246,(4, 47),10	256,(4, 55),2	258,(4, 57),36	294,(4, 65),2	296,(4, 75),198	494,(4, 79),14	508,(18, 81),2	510,(76, 81),2	512,(78, 81),2	514,(6, 11),2	516,(6, 15),38	554,(6, 19),2	556,(6, 21),12	568,(6, 23),12	580,(6, 37),36	616,(6, 41),18	634,(6, 55),2	636,(6, 69),14	650,(12, 81),2	652,(52, 81),2	654,(60, 81),2	656,(8, 11),2	658,(8, 29),6	664,(8, 35),102	766,(8, 43),2	768,(8, 45),180	948,(8, 61),14	962,(8, 71),4	966,(16, 81),2	968,(14, 81),2	970,(68, 81),2	972,(30, 81),2	974,(46, 81),2	976,(28, 81),2	978,(42, 81),2	980,(48, 81),2	982,(58, 81),2	984,(64, 81),2	986,(66, 81),2	988,(20, 81),2	990,(50, 81),2	992,(62, 81),2	994,(74, 81),2	996,(10, 81),2	998,(22, 81),2	1000,(24, 81),2	1002,(26, 81),2	1004,(32, 81),2	1006,(34, 81),2	1008,(36, 81),2	1010,(38, 81),2	1012,(54, 81),2	1014,(80, 81),2	1016,(40, 81),2	1018,(44, 81),2	1020,(56, 81),2	1022,(70, 81),2	1024,(72, 81),2	
# Outgoing
20,(2, 17),20	40,(2, 27),14	54,(2, 31),28	82,(2, 53),54	136,(2, 73),6	142,(2, 75),10	152,(2, 79),2	154,(4, 9),8	162,(4, 13),18	180,(4, 15),2	182,(4, 19),14	196,(4, 41),50	246,(4, 47),10	256,(4, 55),2	258,(4, 57),36	294,(4, 65),2	296,(4, 75),198	494,(4, 79),14	508,(18, 81),2	510,(76, 81),2	512,(78, 81),2	514,(6, 11),2	516,(6, 15),38	554,(6, 19),2	556,(6, 21),12	568,(6, 23),12	580,(6, 37),36	616,(6, 41),18	634,(6, 55),2	636,(6, 69),14	650,(12, 81),2	652,(52, 81),2	654,(60, 81),2	656,(8, 11),2	658,(8, 29),6	664,(8, 35),102	766,(8, 43),2	768,(8, 45),180	948,(8, 61),14	962,(8, 71),4	966,(16, 81),2	968,(14, 81),2	970,(68, 81),2	972,(30, 81),2	974,(46, 81),2	976,(28, 81),2	978,(42, 81),2	980,(48, 81),2	982,(58, 81),2	984,(64, 81),2	986,(66, 81),2	988,(20, 81),2	990,(50, 81),2	992,(62, 81),2	994,(74, 81),2	996,(10, 81),2	998,(22, 81),2	1000,(24, 81),2	1002,(26, 81),2	1004,(32, 81),2	1006,(34, 81),2	1008,(36, 81),2	1010,(38, 81),2	1012,(54, 81),2	1014,(80, 81),2	1016,(40, 81),2	1018,(44, 81),2	1020,(56, 81),2	1022,(70, 81),2	1024,(72, 81),2	
1,(0, 2),14	15,(0, 4),14	29,(0, 6),14	43,(0, 8),14	57,(3, 16),8	65,(3, 28),22	87,(3, 34),6	93,(3, 36),38	131,(3, 42),6	137,(3, 48),8	145,(3, 54),12	157,(3, 58),10	167,(3, 64),126	293,(3, 66),8	301,(3, 70),2	303,(3, 80),112	415,(5, 20),4	419,(5, 34),48	467,(5, 50),6	473,(5, 62),82	555,(5, 72),68	623,(5, 74),2	625,(7, 10),16	641,(7, 22),2	643,(7, 24),2	645,(7, 26),2	647,(7, 32),32	679,(7, 34),6	685,(7, 36),10	695,(7, 38),2	697,(7, 54),12	709,(7, 56),22	731,(7, 80),14	745,(1, 40),26	771,(1, 44),2	773,(1, 56),14	787,(1, 70),8	795,(1, 72),4	
