17204
# CPU
73,4,38	145,8,38	217,12,38	289,16,38	361,20,38	1159,38,38	1409,89,38	1601,25,38	1639,29,38	1707,53,38	4277,33,38	4655,101,38	4693,105,38	4753,165,38	4791,169,38	4829,181,38	5059,45,38	5097,57,38	5139,93,38	5443,133,38	5481,153,38	5593,157,38	5737,24,38	5785,41,38	5823,61,38	5861,65,38	5929,85,38	5967,109,38	6055,125,38	6145,149,38	6213,161,38	14117,145,38	14657,141,38	15315,73,38	15609,97,38	15647,117,38	15715,129,38	15853,173,38	16511,193,38	16607,49,38	16645,69,38	16683,77,38	16721,81,38	16759,113,38	16797,121,38	16849,137,38	16895,177,38	16933,185,38	16971,189,38	17091,197,38	
49,3,38	121,7,38	193,11,38	265,15,38	337,19,38	549,168,38	1029,140,38	4043,176,38	4299,52,38	4525,23,38	4739,160,38	5137,88,38	5175,108,38	5233,116,38	5689,188,38	5727,196,38	5779,40,38	5827,68,38	5915,80,38	5953,104,38	5991,112,38	6083,144,38	14153,36,38	14513,120,38	14551,128,38	14589,136,38	15031,32,38	15069,44,38	15107,48,38	15145,56,38	15493,76,38	15593,92,38	15631,96,38	15669,100,38	15775,132,38	15835,156,38	16467,192,38	16527,28,38	16613,60,38	16651,64,38	16689,72,38	16727,84,38	16795,124,38	16859,148,38	16897,152,38	16935,164,38	16973,172,38	17011,180,38	17049,184,38	17109,200,38	
25,2,38	97,6,38	169,10,38	241,14,38	313,18,38	651,43,38	737,111,38	1739,91,38	2335,147,38	2373,155,38	2431,83,38	2469,59,38	2729,67,38	2995,99,38	3041,191,38	3079,199,38	3765,103,38	3975,51,38	4013,179,38	4633,35,38	4785,47,38	5107,135,38	5313,167,38	5351,171,38	5539,175,38	5675,187,38	5741,22,38	5779,27,38	5817,31,38	5855,39,38	5893,55,38	5931,75,38	5969,123,38	6007,127,38	6045,139,38	6083,151,38	6121,159,38	6159,183,38	6197,195,38	6235,63,38	6273,71,38	6311,79,38	6349,87,38	6387,95,38	6425,107,38	6463,115,38	6501,119,38	6539,131,38	6577,143,38	6615,163,38	
0,0,1	1,13,38	39,17,38	77,5,38	115,1,38	153,9,38	191,110,38	2137,54,38	2187,186,38	2313,30,38	2351,34,38	2389,106,38	2427,150,38	3003,66,38	3603,154,38	3641,122,38	13615,50,38	13835,190,38	13953,94,38	14035,166,38	14127,170,38	14173,70,38	14211,74,38	14249,86,38	14325,102,38	14397,178,38	14435,118,38	14663,158,38	14753,174,38	14825,21,38	14981,37,38	15035,46,38	15201,58,38	15507,78,38	15589,90,38	15697,126,38	15773,130,38	15811,138,38	15849,142,38	15887,146,38	15925,162,38	16517,26,38	16555,42,38	16615,62,38	16665,82,38	16729,98,38	16767,114,38	16807,134,38	16909,182,38	17043,194,38	17105,198,38	17203,201,1	
# Incoming
49,(0, 4),24	73,(2, 33),14	87,(2, 38),2	89,(3, 25),2	91,(3, 49),2	93,(3, 53),2	95,(3, 105),2	121,(0, 8),24	145,(3, 65),12	157,(3, 109),2	159,(3, 117),2	161,(2, 73),2	163,(2, 77),12	175,(2, 105),2	177,(2, 109),2	189,(2, 125),4	193,(0, 12),24	217,(3, 69),28	245,(3, 121),10	255,(3, 189),2	257,(7, 101),2	259,(7, 117),2	261,(7, 137),4	265,(0, 16),24	289,(3, 177),24	313,(7, 53),18	331,(7, 141),2	333,(11, 29),2	335,(11, 41),2	337,(0, 20),24	361,(11, 77),2	363,(13, 25),2	365,(7, 33),26	391,(7, 185),6	397,(11, 73),4	401,(13, 61),8	409,(11, 24),10	419,(13, 65),18	469,(13, 85),12	485,(13, 97),14	499,(13, 101),14	513,(13, 105),10	543,(11, 89),2	545,(13, 113),2	547,(11, 117),2	549,(11, 153),2	551,(13, 121),2	553,(7, 169),40	593,(11, 133),8	601,(11, 173),2	603,(15, 24),2	605,(13, 137),16	621,(2, 117),24	645,(13, 149),22	667,(2, 133),20	687,(7, 173),20	707,(15, 61),6	735,(15, 65),4	739,(2, 177),2	741,(6, 53),2	765,(3, 97),62	945,(3, 153),68	1013,(3, 169),54	1079,(7, 197),44	1123,(11, 149),10	1133,(11, 157),18	1151,(15, 38),8	1159,(2, 189),8	1167,(6, 25),26	1193,(6, 33),40	1233,(15, 137),2	1235,(6, 57),62	1297,(15, 29),18	1315,(6, 73),6	1321,(6, 97),6	1327,(6, 105),4	1331,(11, 193),48	1379,(15, 49),8	1387,(15, 89),22	1409,(15, 165),26	1435,(15, 169),2	1437,(15, 185),6	1443,(19, 25),14	1457,(19, 45),18	1475,(19, 53),12	1487,(19, 61),2	1489,(19, 69),2	1491,(19, 81),8	1499,(19, 85),16	1515,(19, 101),10	1525,(19, 133),26	1551,(19, 165),10	1561,(19, 173),2	1563,(6, 157),2	1565,(6, 161),2	1567,(6, 177),2	1569,(19, 181),2	1597,(10, 24),2	1599,(10, 25),2	1601,(10, 29),2	1607,(10, 77),42	1649,(10, 101),2	1651,(10, 117),2	1653,(13, 181),10	1663,(10, 81),8	1671,(10, 105),6	1677,(10, 137),2	1679,(10, 165),20	1699,(14, 24),4	1703,(14, 41),2	1705,(14, 53),2	1707,(14, 57),2	1709,(14, 105),2	1711,(14, 145),2	1715,(17, 41),8	1723,(17, 45),18	1773,(17, 85),2	1805,(17, 101),46	1851,(7, 61),338	2255,(17, 133),2	2257,(17, 141),28	2347,(17, 161),54	2401,(17, 177),2	2419,(17, 185),26	2445,(3, 77),1558	4247,(5, 33),30	4299,(5, 65),272	4571,(5, 69),2	4573,(5, 77),18	4607,(5, 97),4	4643,(5, 101),12	4655,(5, 105),20	4677,(5, 125),8	4685,(5, 129),2	4695,(5, 145),10	4739,(5, 165),14	4753,(5, 169),8	4763,(5, 177),42	4805,(5, 181),2	4823,(5, 193),210	5049,(1, 41),6	5057,(1, 45),2	5059,(1, 57),2	5101,(1, 69),8	5131,(1, 77),2	5137,(1, 93),2	5165,(1, 113),54	5233,(1, 117),194	5427,(1, 121),2	5433,(1, 133),10	5443,(19, 153),18	5575,(1, 145),6	5583,(1, 149),4	5587,(1, 157),6	5631,(1, 177),22	5719,(9, 24),18	5779,(9, 41),6	5785,(9, 61),10	5795,(9, 65),2	5827,(9, 69),62	5907,(9, 77),2	5917,(9, 85),12	5945,(9, 109),2	5965,(9, 117),68	6033,(9, 125),22	6057,(9, 129),18	6143,(9, 149),2	6145,(9, 161),68	6215,(9, 197),6	13739,(6, 145),378	14325,(10, 113),80	14547,(10, 141),110	14757,(10, 193),20	15293,(14, 73),22	15601,(14, 97),8	15621,(14, 117),14	15635,(14, 121),26	15697,(14, 129),18	15851,(14, 173),2	15853,(14, 177),32	15929,(14, 185),2	15931,(14, 189),86	16467,(14, 193),44	16541,(18, 49),66	16619,(18, 69),2	16645,(18, 77),14	16659,(18, 81),4	16729,(18, 113),2	16737,(18, 121),2	16807,(18, 137),42	16879,(18, 177),16	16911,(18, 185),2	16913,(18, 189),2	17043,(18, 197),48	
25,(0, 3),24	65,(2, 52),4	69,(2, 60),2	71,(2, 80),2	97,(0, 7),24	169,(0, 11),24	193,(2, 84),2	195,(4, 23),2	197,(4, 44),8	215,(4, 56),4	219,(4, 88),2	221,(4, 100),2	223,(4, 144),2	225,(4, 152),2	227,(8, 52),2	229,(8, 60),10	239,(8, 116),2	241,(0, 15),24	287,(8, 40),16	303,(8, 84),6	309,(8, 124),2	311,(8, 184),2	313,(0, 19),24	359,(12, 32),2	361,(13, 23),2	365,(12, 48),2	367,(13, 44),4	371,(8, 148),8	379,(8, 156),18	397,(12, 72),4	407,(8, 176),8	415,(12, 28),6	421,(12, 84),8	429,(12, 100),2	431,(12, 140),4	435,(12, 176),2	437,(13, 80),32	469,(12, 172),6	475,(12, 180),2	477,(12, 192),2	479,(16, 48),2	481,(13, 96),4	485,(12, 76),36	521,(16, 96),2	523,(13, 112),22	545,(16, 136),2	547,(16, 168),2	549,(13, 120),2	553,(13, 124),12	565,(13, 128),38	603,(13, 136),2	621,(13, 144),14	635,(16, 176),2	637,(16, 188),2	639,(13, 148),6	645,(2, 120),2	647,(2, 124),2	649,(2, 128),4	655,(2, 144),6	663,(2, 176),4	667,(13, 152),70	737,(16, 180),4	741,(13, 156),2	743,(2, 36),126	869,(2, 104),40	909,(2, 132),18	927,(2, 136),58	985,(2, 140),44	1029,(2, 180),54	1083,(2, 184),4	1087,(2, 188),72	1233,(6, 56),2	1297,(6, 72),18	1331,(6, 116),2	1333,(6, 148),10	1343,(6, 152),24	1367,(6, 156),2	1369,(4, 200),78	1447,(8, 196),54	1501,(12, 112),62	1563,(16, 88),6	1569,(20, 48),2	1571,(20, 72),2	1573,(20, 104),2	1575,(6, 180),22	1597,(20, 92),4	1603,(10, 48),2	1605,(10, 56),2	1607,(16, 152),14	1621,(20, 144),4	1625,(13, 172),22	1647,(13, 176),6	1653,(10, 80),6	1659,(10, 144),2	1661,(10, 184),2	1665,(13, 196),28	1693,(13, 200),20	1713,(2, 192),1948	3661,(17, 40),2	3663,(17, 60),8	3671,(17, 76),246	3917,(17, 80),2	3919,(17, 84),16	3935,(17, 96),2	3937,(17, 100),6	3943,(17, 104),8	3951,(17, 116),4	3955,(17, 124),2	3957,(17, 144),12	3969,(17, 148),20	3989,(17, 172),8	3997,(17, 176),46	4043,(17, 180),2	4045,(5, 28),202	4247,(16, 160),12	4259,(16, 200),12	4271,(20, 152),4	4277,(5, 52),22	4299,(8, 164),150	4449,(12, 164),38	4487,(20, 23),38	4525,(20, 36),14	4539,(20, 96),20	4559,(20, 108),16	4575,(20, 180),10	4585,(20, 192),4	4591,(5, 92),16	4611,(5, 100),32	4643,(20, 164),22	4675,(5, 112),2	4687,(5, 144),8	4705,(5, 156),28	4733,(5, 160),6	4739,(20, 184),18	4761,(5, 172),2	4807,(5, 184),16	5033,(5, 200),2	5035,(1, 28),2	5037,(1, 32),10	5047,(1, 40),2	5055,(1, 44),2	5061,(1, 60),40	5109,(1, 72),22	5133,(1, 88),4	5139,(1, 100),8	5147,(1, 104),14	5161,(1, 108),2	5163,(1, 112),2	5219,(1, 116),14	5429,(1, 124),2	5431,(1, 128),2	5443,(1, 144),132	5581,(1, 148),2	5593,(1, 164),38	5653,(1, 180),8	5661,(1, 188),28	5689,(1, 196),30	5737,(9, 32),16	5753,(9, 40),26	5797,(9, 68),30	5889,(9, 72),18	5909,(9, 80),6	5915,(9, 84),2	5929,(9, 96),2	5931,(9, 104),14	5947,(9, 112),18	6055,(9, 128),2	6075,(9, 136),6	6081,(9, 144),2	6083,(9, 148),60	6213,(9, 180),2	6221,(9, 200),2	13615,(6, 100),124	14117,(10, 36),36	14175,(10, 84),12	14209,(10, 92),22	14231,(10, 100),60	14413,(10, 120),100	14513,(10, 128),22	14539,(10, 136),8	14665,(10, 164),78	14777,(10, 200),38	14825,(14, 32),206	15031,(14, 44),2	15035,(14, 48),2	15037,(14, 56),96	15201,(14, 60),92	15315,(14, 76),178	15507,(14, 84),14	15589,(14, 92),4	15593,(14, 96),8	15609,(14, 100),6	15773,(14, 132),2	15829,(14, 152),2	15831,(14, 156),4	15885,(14, 180),6	15891,(14, 184),38	16017,(14, 192),450	16517,(18, 28),10	16607,(18, 60),6	16615,(18, 64),4	16621,(18, 72),24	16665,(18, 84),62	16739,(18, 124),56	16849,(18, 148),10	16859,(18, 152),10	16869,(18, 164),8	16877,(18, 172),2	16895,(18, 180),10	16909,(18, 184),2	17105,(18, 200),4	
1,(0, 2),24	73,(0, 6),24	97,(3, 51),36	133,(3, 59),6	139,(3, 155),2	141,(3, 187),4	145,(0, 10),24	169,(3, 87),36	205,(4, 27),2	207,(4, 31),8	215,(7, 147),2	217,(0, 14),24	241,(4, 47),32	273,(4, 55),6	279,(4, 71),4	283,(4, 79),2	285,(4, 135),2	287,(7, 155),2	289,(0, 18),24	313,(4, 99),6	319,(4, 131),18	337,(4, 139),18	355,(4, 159),4	359,(7, 199),2	361,(8, 43),4	365,(13, 39),2	367,(8, 55),4	371,(13, 51),28	399,(13, 55),2	401,(8, 79),4	405,(8, 175),2	407,(11, 99),2	409,(13, 63),10	419,(3, 119),124	543,(12, 22),2	545,(11, 111),2	547,(13, 119),2	549,(4, 91),54	603,(4, 163),24	627,(8, 115),8	635,(13, 147),4	639,(12, 27),4	643,(12, 35),4	647,(12, 107),2	649,(15, 43),2	651,(15, 115),2	653,(4, 151),60	713,(7, 91),16	729,(11, 147),6	735,(12, 111),2	737,(13, 155),4	741,(12, 139),2	743,(13, 159),880	1623,(13, 167),2	1625,(4, 199),34	1659,(12, 179),2	1661,(16, 47),2	1663,(13, 195),2	1665,(8, 59),18	1683,(8, 83),18	1701,(12, 51),10	1711,(16, 139),2	1713,(17, 22),2	1715,(8, 195),20	1735,(16, 91),4	1739,(20, 27),2	1741,(17, 55),2	1743,(17, 71),8	1751,(17, 75),20	1771,(17, 79),2	1773,(20, 47),2	1775,(17, 87),30	1805,(7, 135),16	1821,(11, 22),24	1845,(15, 75),6	1851,(17, 103),344	2195,(17, 107),16	2211,(17, 115),6	2217,(17, 127),38	2255,(8, 163),28	2283,(20, 155),2	2285,(17, 143),28	2313,(17, 147),22	2335,(17, 155),8	2343,(17, 159),4	2347,(8, 71),34	2381,(11, 39),14	2395,(16, 135),4	2399,(16, 163),4	2403,(17, 179),16	2419,(11, 83),12	2431,(12, 59),12	2443,(15, 119),2	2445,(17, 187),2	2447,(4, 167),84	2531,(5, 22),66	2597,(5, 27),4	2601,(5, 35),4	2605,(5, 67),124	2729,(5, 79),12	2741,(5, 99),2	2743,(5, 103),2	2745,(5, 115),2	2747,(5, 139),2	2749,(5, 143),2	2751,(5, 151),44	2795,(5, 167),6	2801,(5, 195),2	2803,(5, 199),16	2819,(1, 22),68	2887,(1, 31),38	2925,(1, 71),26	2951,(1, 75),28	2979,(1, 99),16	2995,(1, 127),2	2997,(1, 171),36	3033,(1, 191),8	3041,(1, 195),4	3045,(1, 199),2	3047,(8, 123),356	3403,(9, 22),20	3423,(9, 27),4	3427,(9, 51),2	3429,(9, 55),8	3437,(9, 63),4	3441,(9, 79),2	3443,(9, 107),18	3461,(9, 115),4	3465,(9, 119),26	3491,(9, 131),14	3505,(9, 143),2	3507,(9, 151),78	3585,(9, 159),10	3595,(9, 163),10	3605,(9, 171),2	3607,(9, 179),30	3637,(9, 187),2	3639,(12, 31),42	3681,(12, 47),28	3709,(12, 95),16	3725,(12, 103),40	3765,(12, 119),136	3901,(12, 183),12	3913,(16, 39),20	3933,(16, 51),42	3975,(16, 55),10	3985,(16, 179),6	3991,(20, 31),4	3995,(20, 35),8	4003,(7, 35),630	4633,(7, 79),116	4749,(11, 47),36	4785,(11, 119),38	4823,(11, 135),40	4863,(11, 139),38	4901,(11, 159),20	4921,(12, 195),128	5049,(15, 55),52	5101,(15, 127),2	5103,(15, 131),2	5105,(15, 135),2	5107,(15, 159),8	5115,(15, 167),198	5313,(15, 171),2	5315,(15, 175),2	5317,(16, 63),62	5379,(16, 159),74	5453,(16, 175),86	5539,(16, 187),136	5675,(16, 195),56	5731,(19, 22),10	5741,(19, 27),2	5743,(19, 31),4	5747,(19, 39),6	5753,(19, 55),2	5755,(19, 71),10	5765,(19, 75),2	5767,(19, 115),12	5779,(19, 119),4	5783,(19, 123),6	5789,(19, 127),6	5795,(19, 131),2	5797,(19, 139),42	5839,(19, 151),10	5849,(19, 159),4	5853,(19, 163),12	5865,(19, 183),32	5897,(19, 195),34	5931,(20, 63),10	5941,(20, 71),6	5947,(20, 79),12	5959,(20, 87),6	5965,(20, 95),24	5989,(20, 107),60	6049,(20, 115),6	6055,(20, 119),32	6087,(20, 131),52	6139,(20, 143),144	6283,(20, 163),2	
63,(2, 26),2	89,(2, 50),24	113,(2, 54),20	133,(2, 70),28	161,(3, 30),8	169,(4, 21),4	173,(4, 34),2	175,(4, 102),2	177,(4, 114),2	179,(2, 122),10	189,(4, 98),6	195,(2, 102),410	605,(2, 118),16	621,(3, 42),12	633,(3, 90),2	635,(3, 102),2	637,(3, 126),10	647,(3, 138),2	649,(4, 146),4	653,(2, 130),2	655,(7, 62),2	657,(7, 86),2	659,(7, 174),2	661,(2, 146),2	663,(3, 70),24	687,(2, 138),22	709,(2, 158),30	739,(3, 46),26	765,(4, 62),26	791,(4, 66),16	807,(4, 70),16	823,(4, 186),2	825,(8, 126),2	827,(3, 118),52	879,(3, 130),38	917,(3, 142),8	925,(3, 150),20	945,(4, 134),62	1007,(4, 162),6	1013,(4, 170),16	1029,(8, 30),14	1043,(8, 66),14	1057,(8, 90),6	1063,(8, 182),2	1065,(12, 37),2	1067,(3, 194),12	1079,(4, 182),110	1189,(4, 194),56	1245,(4, 198),124	1369,(6, 26),8	1377,(6, 30),6	1383,(6, 34),14	1397,(6, 37),26	1423,(6, 54),40	1463,(6, 58),28	1491,(6, 70),2	1493,(6, 78),2	1495,(6, 94),8	1503,(6, 106),38	1541,(6, 114),12	1553,(6, 122),2	1555,(6, 134),4	1559,(6, 142),4	1563,(7, 118),6	1569,(6, 178),6	1575,(7, 42),28	1603,(7, 50),24	1627,(7, 54),86	1713,(7, 98),62	1775,(7, 134),10	1785,(7, 138),4	1789,(7, 158),6	1795,(7, 190),10	1805,(8, 46),222	2027,(8, 58),60	2087,(8, 134),6	2093,(8, 150),14	2107,(8, 186),16	2123,(12, 42),12	2135,(12, 54),2	2137,(12, 70),2	2139,(12, 82),12	2151,(12, 86),2	2153,(12, 90),8	2161,(12, 106),6	2167,(12, 126),18	2185,(12, 186),2	2187,(16, 50),2	2189,(11, 30),124	2313,(11, 34),8	2321,(11, 62),20	2341,(11, 82),2	2343,(11, 90),6	2349,(11, 98),2	2351,(11, 106),4	2355,(11, 142),22	2377,(11, 198),4	2381,(12, 130),8	2389,(12, 150),6	2395,(11, 150),10	2405,(11, 162),10	2415,(12, 178),14	2429,(16, 78),2	2431,(15, 26),8	2439,(15, 58),2	2441,(15, 174),2	2443,(16, 37),4	2531,(12, 50),106	2637,(16, 21),10	2647,(16, 46),4	2651,(16, 90),2	2653,(16, 94),160	2813,(16, 98),54	2867,(16, 126),8	2875,(16, 138),8	2883,(16, 142),18	2901,(16, 162),2	2903,(16, 178),6	2909,(16, 194),2	2911,(20, 21),2	2913,(20, 42),88	3001,(20, 66),2	3003,(20, 78),20	3023,(20, 90),2	3025,(20, 94),10	3035,(20, 114),2	3037,(20, 118),2	3039,(20, 198),2	3041,(38, 201),2	3043,(89, 201),2	3045,(25, 201),2	3403,(16, 154),200	3603,(20, 122),16	3619,(29, 201),2	3621,(53, 201),2	3661,(6, 50),9954	13615,(11, 58),84	13699,(11, 174),18	13717,(11, 190),118	13835,(15, 62),30	13865,(15, 78),32	13897,(15, 94),56	13953,(15, 114),46	13999,(15, 118),12	14011,(15, 126),14	14025,(15, 134),4	14029,(15, 166),6	14035,(15, 170),14	14049,(19, 21),18	14067,(19, 62),2	14069,(19, 78),36	14105,(19, 126),6	14111,(19, 138),6	14117,(19, 158),6	14123,(19, 170),4	14127,(19, 194),2	14129,(168, 201),2	14131,(140, 201),2	14133,(176, 201),2	14135,(33, 201),2	14137,(52, 201),2	14139,(23, 201),2	14141,(101, 201),2	14143,(105, 201),2	14145,(160, 201),2	14147,(165, 201),2	14149,(169, 201),2	14151,(181, 201),2	14153,(10, 42),8	14161,(10, 58),2	14163,(10, 70),10	14173,(10, 74),2	14175,(45, 201),2	14177,(57, 201),2	14179,(88, 201),2	14181,(93, 201),2	14183,(108, 201),2	14185,(116, 201),2	14187,(10, 86),22	14209,(19, 178),58	14267,(133, 201),2	14269,(153, 201),2	14271,(157, 201),2	14273,(188, 201),2	14275,(196, 201),2	14277,(24, 201),2	14279,(40, 201),2	14281,(41, 201),2	14283,(61, 201),2	14285,(68, 201),2	14287,(65, 201),2	14289,(80, 201),2	14291,(10, 102),34	14325,(20, 174),44	14369,(20, 178),28	14397,(85, 201),2	14399,(104, 201),2	14401,(109, 201),2	14403,(112, 201),2	14405,(10, 114),2	14407,(10, 118),6	14413,(125, 201),2	14415,(144, 201),2	14417,(149, 201),2	14419,(161, 201),2	14421,(145, 201),2	14423,(36, 201),2	14535,(10, 130),4	14551,(120, 201),2	14589,(128, 201),2	14627,(136, 201),2	14657,(10, 142),2	14659,(10, 146),2	14661,(10, 158),2	14663,(10, 162),2	14695,(141, 201),2	14743,(10, 174),10	14753,(10, 182),4	14815,(14, 21),10	14825,(19, 37),156	15033,(14, 46),2	15069,(32, 201),2	15107,(44, 201),2	15133,(14, 58),68	15201,(20, 82),206	15407,(48, 201),2	15409,(56, 201),2	15411,(73, 201),2	15493,(14, 78),14	15521,(14, 90),68	15589,(76, 201),2	15615,(14, 114),6	15631,(92, 201),2	15647,(97, 201),2	15661,(14, 126),36	15697,(96, 201),2	15699,(117, 201),2	15707,(100, 201),2	15715,(14, 130),58	15773,(129, 201),2	15775,(14, 134),6	15781,(14, 138),2	15783,(14, 142),38	15821,(14, 146),8	15829,(132, 201),2	15835,(14, 162),16	15873,(156, 201),2	15891,(173, 201),2	16505,(192, 201),2	16511,(18, 26),6	16527,(18, 42),14	16549,(193, 201),2	16565,(28, 201),2	16613,(18, 62),2	16645,(49, 201),2	16651,(60, 201),2	16663,(18, 82),2	16683,(69, 201),2	16689,(64, 201),2	16721,(77, 201),2	16727,(18, 98),2	16729,(72, 201),2	16731,(18, 114),6	16759,(81, 201),2	16765,(84, 201),2	16795,(18, 134),12	16807,(113, 201),2	16833,(124, 201),2	16835,(121, 201),2	16887,(137, 201),2	16897,(148, 201),2	16905,(18, 182),4	16915,(18, 194),128	17043,(177, 201),2	17045,(152, 201),2	17047,(185, 201),2	17049,(164, 201),2	17051,(189, 201),2	17053,(172, 201),2	17055,(180, 201),2	17087,(184, 201),2	17091,(18, 198),14	17109,(43, 201),2	17111,(111, 201),2	17113,(91, 201),2	17115,(147, 201),2	17117,(155, 201),2	17119,(83, 201),2	17121,(59, 201),2	17123,(67, 201),2	17125,(99, 201),2	17127,(191, 201),2	17129,(199, 201),2	17131,(103, 201),2	17133,(51, 201),2	17135,(179, 201),2	17137,(35, 201),2	17139,(47, 201),2	17141,(135, 201),2	17143,(167, 201),2	17145,(171, 201),2	17147,(175, 201),2	17149,(187, 201),2	17151,(22, 201),2	17153,(27, 201),2	17155,(31, 201),2	17157,(39, 201),2	17159,(55, 201),2	17161,(75, 201),2	17163,(123, 201),2	17165,(127, 201),2	17167,(139, 201),2	17169,(151, 201),2	17171,(159, 201),2	17173,(183, 201),2	17175,(195, 201),2	17177,(63, 201),2	17179,(71, 201),2	17181,(79, 201),2	17183,(87, 201),2	17185,(95, 201),2	17187,(107, 201),2	17189,(115, 201),2	17191,(119, 201),2	17193,(131, 201),2	17195,(143, 201),2	17197,(163, 201),2	17199,(197, 201),2	17201,(200, 201),2	
# Outgoing
169,(4, 21),4	173,(4, 34),2	175,(4, 102),2	177,(4, 114),2	189,(4, 98),6	195,(4, 23),2	197,(4, 44),8	205,(4, 27),2	207,(4, 31),8	215,(4, 56),4	219,(4, 88),2	221,(4, 100),2	223,(4, 144),2	225,(4, 152),2	227,(8, 52),2	229,(8, 60),10	239,(8, 116),2	241,(4, 47),32	273,(4, 55),6	279,(4, 71),4	283,(4, 79),2	285,(4, 135),2	287,(8, 40),16	303,(8, 84),6	309,(8, 124),2	311,(8, 184),2	313,(4, 99),6	319,(4, 131),18	337,(4, 139),18	355,(4, 159),4	359,(12, 32),2	361,(8, 43),4	365,(12, 48),2	367,(8, 55),4	371,(8, 148),8	379,(8, 156),18	397,(12, 72),4	401,(8, 79),4	405,(8, 175),2	407,(8, 176),8	415,(12, 28),6	421,(12, 84),8	429,(12, 100),2	431,(12, 140),4	435,(12, 176),2	469,(12, 172),6	475,(12, 180),2	477,(12, 192),2	479,(16, 48),2	485,(12, 76),36	521,(16, 96),2	543,(12, 22),2	545,(16, 136),2	547,(16, 168),2	549,(4, 91),54	603,(4, 163),24	627,(8, 115),8	635,(16, 176),2	637,(16, 188),2	639,(12, 27),4	643,(12, 35),4	647,(12, 107),2	649,(4, 146),4	653,(4, 151),60	735,(12, 111),2	737,(16, 180),4	741,(12, 139),2	765,(4, 62),26	791,(4, 66),16	807,(4, 70),16	823,(4, 186),2	825,(8, 126),2	945,(4, 134),62	1007,(4, 162),6	1013,(4, 170),16	1029,(8, 30),14	1043,(8, 66),14	1057,(8, 90),6	1063,(8, 182),2	1065,(12, 37),2	1079,(4, 182),110	1189,(4, 194),56	1245,(4, 198),124	1369,(4, 200),78	1447,(8, 196),54	1501,(12, 112),62	1563,(16, 88),6	1569,(20, 48),2	1571,(20, 72),2	1573,(20, 104),2	1597,(20, 92),4	1607,(16, 152),14	1621,(20, 144),4	1625,(4, 199),34	1659,(12, 179),2	1661,(16, 47),2	1665,(8, 59),18	1683,(8, 83),18	1701,(12, 51),10	1711,(16, 139),2	1715,(8, 195),20	1735,(16, 91),4	1739,(20, 27),2	1773,(20, 47),2	1805,(8, 46),222	2027,(8, 58),60	2087,(8, 134),6	2093,(8, 150),14	2107,(8, 186),16	2123,(12, 42),12	2135,(12, 54),2	2137,(12, 70),2	2139,(12, 82),12	2151,(12, 86),2	2153,(12, 90),8	2161,(12, 106),6	2167,(12, 126),18	2185,(12, 186),2	2187,(16, 50),2	2255,(8, 163),28	2283,(20, 155),2	2347,(8, 71),34	2381,(12, 130),8	2389,(12, 150),6	2395,(16, 135),4	2399,(16, 163),4	2415,(12, 178),14	2429,(16, 78),2	2431,(12, 59),12	2443,(16, 37),4	2447,(4, 167),84	2531,(12, 50),106	2637,(16, 21),10	2647,(16, 46),4	2651,(16, 90),2	2653,(16, 94),160	2813,(16, 98),54	2867,(16, 126),8	2875,(16, 138),8	2883,(16, 142),18	2901,(16, 162),2	2903,(16, 178),6	2909,(16, 194),2	2911,(20, 21),2	2913,(20, 42),88	3001,(20, 66),2	3003,(20, 78),20	3023,(20, 90),2	3025,(20, 94),10	3035,(20, 114),2	3037,(20, 118),2	3039,(20, 198),2	3041,(38, 201),2	3043,(89, 201),2	3045,(25, 201),2	3047,(8, 123),356	3403,(16, 154),200	3603,(20, 122),16	3619,(29, 201),2	3621,(53, 201),2	3639,(12, 31),42	3681,(12, 47),28	3709,(12, 95),16	3725,(12, 103),40	3765,(12, 119),136	3901,(12, 183),12	3913,(16, 39),20	3933,(16, 51),42	3975,(16, 55),10	3985,(16, 179),6	3991,(20, 31),4	3995,(20, 35),8	4247,(16, 160),12	4259,(16, 200),12	4271,(20, 152),4	4299,(8, 164),150	4449,(12, 164),38	4487,(20, 23),38	4525,(20, 36),14	4539,(20, 96),20	4559,(20, 108),16	4575,(20, 180),10	4585,(20, 192),4	4643,(20, 164),22	4739,(20, 184),18	4921,(12, 195),128	5317,(16, 63),62	5379,(16, 159),74	5453,(16, 175),86	5539,(16, 187),136	5675,(16, 195),56	5931,(20, 63),10	5941,(20, 71),6	5947,(20, 79),12	5959,(20, 87),6	5965,(20, 95),24	5989,(20, 107),60	6049,(20, 115),6	6055,(20, 119),32	6087,(20, 131),52	6139,(20, 143),144	6283,(20, 163),2	14135,(33, 201),2	14141,(101, 201),2	14143,(105, 201),2	14147,(165, 201),2	14149,(169, 201),2	14151,(181, 201),2	14175,(45, 201),2	14177,(57, 201),2	14181,(93, 201),2	14267,(133, 201),2	14269,(153, 201),2	14271,(157, 201),2	14277,(24, 201),2	14281,(41, 201),2	14283,(61, 201),2	14287,(65, 201),2	14325,(20, 174),44	14369,(20, 178),28	14397,(85, 201),2	14401,(109, 201),2	14413,(125, 201),2	14417,(149, 201),2	14419,(161, 201),2	14421,(145, 201),2	14695,(141, 201),2	15201,(20, 82),206	15411,(73, 201),2	15647,(97, 201),2	15699,(117, 201),2	15773,(129, 201),2	15891,(173, 201),2	16549,(193, 201),2	16645,(49, 201),2	16683,(69, 201),2	16721,(77, 201),2	16759,(81, 201),2	16807,(113, 201),2	16835,(121, 201),2	16887,(137, 201),2	17043,(177, 201),2	17047,(185, 201),2	17051,(189, 201),2	17199,(197, 201),2	
89,(3, 25),2	91,(3, 49),2	93,(3, 53),2	95,(3, 105),2	97,(3, 51),36	133,(3, 59),6	139,(3, 155),2	141,(3, 187),4	145,(3, 65),12	157,(3, 109),2	159,(3, 117),2	161,(3, 30),8	169,(3, 87),36	215,(7, 147),2	217,(3, 69),28	245,(3, 121),10	255,(3, 189),2	257,(7, 101),2	259,(7, 117),2	261,(7, 137),4	287,(7, 155),2	289,(3, 177),24	313,(7, 53),18	331,(7, 141),2	333,(11, 29),2	335,(11, 41),2	359,(7, 199),2	361,(11, 77),2	365,(7, 33),26	391,(7, 185),6	397,(11, 73),4	407,(11, 99),2	409,(11, 24),10	419,(3, 119),124	543,(11, 89),2	545,(11, 111),2	547,(11, 117),2	549,(11, 153),2	553,(7, 169),40	593,(11, 133),8	601,(11, 173),2	603,(15, 24),2	621,(3, 42),12	633,(3, 90),2	635,(3, 102),2	637,(3, 126),10	647,(3, 138),2	649,(15, 43),2	651,(15, 115),2	655,(7, 62),2	657,(7, 86),2	659,(7, 174),2	663,(3, 70),24	687,(7, 173),20	707,(15, 61),6	713,(7, 91),16	729,(11, 147),6	735,(15, 65),4	739,(3, 46),26	765,(3, 97),62	827,(3, 118),52	879,(3, 130),38	917,(3, 142),8	925,(3, 150),20	945,(3, 153),68	1013,(3, 169),54	1067,(3, 194),12	1079,(7, 197),44	1123,(11, 149),10	1133,(11, 157),18	1151,(15, 38),8	1233,(15, 137),2	1297,(15, 29),18	1331,(11, 193),48	1379,(15, 49),8	1387,(15, 89),22	1409,(15, 165),26	1435,(15, 169),2	1437,(15, 185),6	1443,(19, 25),14	1457,(19, 45),18	1475,(19, 53),12	1487,(19, 61),2	1489,(19, 69),2	1491,(19, 81),8	1499,(19, 85),16	1515,(19, 101),10	1525,(19, 133),26	1551,(19, 165),10	1561,(19, 173),2	1563,(7, 118),6	1569,(19, 181),2	1575,(7, 42),28	1603,(7, 50),24	1627,(7, 54),86	1713,(7, 98),62	1775,(7, 134),10	1785,(7, 138),4	1789,(7, 158),6	1795,(7, 190),10	1805,(7, 135),16	1821,(11, 22),24	1845,(15, 75),6	1851,(7, 61),338	2189,(11, 30),124	2313,(11, 34),8	2321,(11, 62),20	2341,(11, 82),2	2343,(11, 90),6	2349,(11, 98),2	2351,(11, 106),4	2355,(11, 142),22	2377,(11, 198),4	2381,(11, 39),14	2395,(11, 150),10	2405,(11, 162),10	2419,(11, 83),12	2431,(15, 26),8	2439,(15, 58),2	2441,(15, 174),2	2443,(15, 119),2	2445,(3, 77),1558	4003,(7, 35),630	4633,(7, 79),116	4749,(11, 47),36	4785,(11, 119),38	4823,(11, 135),40	4863,(11, 139),38	4901,(11, 159),20	5049,(15, 55),52	5101,(15, 127),2	5103,(15, 131),2	5105,(15, 135),2	5107,(15, 159),8	5115,(15, 167),198	5313,(15, 171),2	5315,(15, 175),2	5443,(19, 153),18	5731,(19, 22),10	5741,(19, 27),2	5743,(19, 31),4	5747,(19, 39),6	5753,(19, 55),2	5755,(19, 71),10	5765,(19, 75),2	5767,(19, 115),12	5779,(19, 119),4	5783,(19, 123),6	5789,(19, 127),6	5795,(19, 131),2	5797,(19, 139),42	5839,(19, 151),10	5849,(19, 159),4	5853,(19, 163),12	5865,(19, 183),32	5897,(19, 195),34	13615,(11, 58),84	13699,(11, 174),18	13717,(11, 190),118	13835,(15, 62),30	13865,(15, 78),32	13897,(15, 94),56	13953,(15, 114),46	13999,(15, 118),12	14011,(15, 126),14	14025,(15, 134),4	14029,(15, 166),6	14035,(15, 170),14	14049,(19, 21),18	14067,(19, 62),2	14069,(19, 78),36	14105,(19, 126),6	14111,(19, 138),6	14117,(19, 158),6	14123,(19, 170),4	14127,(19, 194),2	14129,(168, 201),2	14131,(140, 201),2	14133,(176, 201),2	14137,(52, 201),2	14139,(23, 201),2	14145,(160, 201),2	14179,(88, 201),2	14183,(108, 201),2	14185,(116, 201),2	14209,(19, 178),58	14273,(188, 201),2	14275,(196, 201),2	14279,(40, 201),2	14285,(68, 201),2	14289,(80, 201),2	14399,(104, 201),2	14403,(112, 201),2	14415,(144, 201),2	14423,(36, 201),2	14551,(120, 201),2	14589,(128, 201),2	14627,(136, 201),2	14825,(19, 37),156	15069,(32, 201),2	15107,(44, 201),2	15407,(48, 201),2	15409,(56, 201),2	15589,(76, 201),2	15631,(92, 201),2	15697,(96, 201),2	15707,(100, 201),2	15829,(132, 201),2	15873,(156, 201),2	16505,(192, 201),2	16565,(28, 201),2	16651,(60, 201),2	16689,(64, 201),2	16729,(72, 201),2	16765,(84, 201),2	16833,(124, 201),2	16897,(148, 201),2	17045,(152, 201),2	17049,(164, 201),2	17053,(172, 201),2	17055,(180, 201),2	17087,(184, 201),2	17201,(200, 201),2	
63,(2, 26),2	65,(2, 52),4	69,(2, 60),2	71,(2, 80),2	73,(2, 33),14	87,(2, 38),2	89,(2, 50),24	113,(2, 54),20	133,(2, 70),28	161,(2, 73),2	163,(2, 77),12	175,(2, 105),2	177,(2, 109),2	179,(2, 122),10	189,(2, 125),4	193,(2, 84),2	195,(2, 102),410	605,(2, 118),16	621,(2, 117),24	645,(2, 120),2	647,(2, 124),2	649,(2, 128),4	653,(2, 130),2	655,(2, 144),6	661,(2, 146),2	663,(2, 176),4	667,(2, 133),20	687,(2, 138),22	709,(2, 158),30	739,(2, 177),2	741,(6, 53),2	743,(2, 36),126	869,(2, 104),40	909,(2, 132),18	927,(2, 136),58	985,(2, 140),44	1029,(2, 180),54	1083,(2, 184),4	1087,(2, 188),72	1159,(2, 189),8	1167,(6, 25),26	1193,(6, 33),40	1233,(6, 56),2	1235,(6, 57),62	1297,(6, 72),18	1315,(6, 73),6	1321,(6, 97),6	1327,(6, 105),4	1331,(6, 116),2	1333,(6, 148),10	1343,(6, 152),24	1367,(6, 156),2	1369,(6, 26),8	1377,(6, 30),6	1383,(6, 34),14	1397,(6, 37),26	1423,(6, 54),40	1463,(6, 58),28	1491,(6, 70),2	1493,(6, 78),2	1495,(6, 94),8	1503,(6, 106),38	1541,(6, 114),12	1553,(6, 122),2	1555,(6, 134),4	1559,(6, 142),4	1563,(6, 157),2	1565,(6, 161),2	1567,(6, 177),2	1569,(6, 178),6	1575,(6, 180),22	1597,(10, 24),2	1599,(10, 25),2	1601,(10, 29),2	1603,(10, 48),2	1605,(10, 56),2	1607,(10, 77),42	1649,(10, 101),2	1651,(10, 117),2	1653,(10, 80),6	1659,(10, 144),2	1661,(10, 184),2	1663,(10, 81),8	1671,(10, 105),6	1677,(10, 137),2	1679,(10, 165),20	1699,(14, 24),4	1703,(14, 41),2	1705,(14, 53),2	1707,(14, 57),2	1709,(14, 105),2	1711,(14, 145),2	1713,(2, 192),1948	3661,(6, 50),9954	13615,(6, 100),124	13739,(6, 145),378	14117,(10, 36),36	14153,(10, 42),8	14161,(10, 58),2	14163,(10, 70),10	14173,(10, 74),2	14175,(10, 84),12	14187,(10, 86),22	14209,(10, 92),22	14231,(10, 100),60	14291,(10, 102),34	14325,(10, 113),80	14405,(10, 114),2	14407,(10, 118),6	14413,(10, 120),100	14513,(10, 128),22	14535,(10, 130),4	14539,(10, 136),8	14547,(10, 141),110	14657,(10, 142),2	14659,(10, 146),2	14661,(10, 158),2	14663,(10, 162),2	14665,(10, 164),78	14743,(10, 174),10	14753,(10, 182),4	14757,(10, 193),20	14777,(10, 200),38	14815,(14, 21),10	14825,(14, 32),206	15031,(14, 44),2	15033,(14, 46),2	15035,(14, 48),2	15037,(14, 56),96	15133,(14, 58),68	15201,(14, 60),92	15293,(14, 73),22	15315,(14, 76),178	15493,(14, 78),14	15507,(14, 84),14	15521,(14, 90),68	15589,(14, 92),4	15593,(14, 96),8	15601,(14, 97),8	15609,(14, 100),6	15615,(14, 114),6	15621,(14, 117),14	15635,(14, 121),26	15661,(14, 126),36	15697,(14, 129),18	15715,(14, 130),58	15773,(14, 132),2	15775,(14, 134),6	15781,(14, 138),2	15783,(14, 142),38	15821,(14, 146),8	15829,(14, 152),2	15831,(14, 156),4	15835,(14, 162),16	15851,(14, 173),2	15853,(14, 177),32	15885,(14, 180),6	15891,(14, 184),38	15929,(14, 185),2	15931,(14, 189),86	16017,(14, 192),450	16467,(14, 193),44	16511,(18, 26),6	16517,(18, 28),10	16527,(18, 42),14	16541,(18, 49),66	16607,(18, 60),6	16613,(18, 62),2	16615,(18, 64),4	16619,(18, 69),2	16621,(18, 72),24	16645,(18, 77),14	16659,(18, 81),4	16663,(18, 82),2	16665,(18, 84),62	16727,(18, 98),2	16729,(18, 113),2	16731,(18, 114),6	16737,(18, 121),2	16739,(18, 124),56	16795,(18, 134),12	16807,(18, 137),42	16849,(18, 148),10	16859,(18, 152),10	16869,(18, 164),8	16877,(18, 172),2	16879,(18, 177),16	16895,(18, 180),10	16905,(18, 182),4	16909,(18, 184),2	16911,(18, 185),2	16913,(18, 189),2	16915,(18, 194),128	17043,(18, 197),48	17091,(18, 198),14	17105,(18, 200),4	17109,(43, 201),2	17111,(111, 201),2	17113,(91, 201),2	17115,(147, 201),2	17117,(155, 201),2	17119,(83, 201),2	17121,(59, 201),2	17123,(67, 201),2	17125,(99, 201),2	17127,(191, 201),2	17129,(199, 201),2	17131,(103, 201),2	17133,(51, 201),2	17135,(179, 201),2	17137,(35, 201),2	17139,(47, 201),2	17141,(135, 201),2	17143,(167, 201),2	17145,(171, 201),2	17147,(175, 201),2	17149,(187, 201),2	17151,(22, 201),2	17153,(27, 201),2	17155,(31, 201),2	17157,(39, 201),2	17159,(55, 201),2	17161,(75, 201),2	17163,(123, 201),2	17165,(127, 201),2	17167,(139, 201),2	17169,(151, 201),2	17171,(159, 201),2	17173,(183, 201),2	17175,(195, 201),2	17177,(63, 201),2	17179,(71, 201),2	17181,(79, 201),2	17183,(87, 201),2	17185,(95, 201),2	17187,(107, 201),2	17189,(115, 201),2	17191,(119, 201),2	17193,(131, 201),2	17195,(143, 201),2	17197,(163, 201),2	
1,(0, 2),24	25,(0, 3),24	49,(0, 4),24	73,(0, 6),24	97,(0, 7),24	121,(0, 8),24	145,(0, 10),24	169,(0, 11),24	193,(0, 12),24	217,(0, 14),24	241,(0, 15),24	265,(0, 16),24	289,(0, 18),24	313,(0, 19),24	337,(0, 20),24	361,(13, 23),2	363,(13, 25),2	365,(13, 39),2	367,(13, 44),4	371,(13, 51),28	399,(13, 55),2	401,(13, 61),8	409,(13, 63),10	419,(13, 65),18	437,(13, 80),32	469,(13, 85),12	481,(13, 96),4	485,(13, 97),14	499,(13, 101),14	513,(13, 105),10	523,(13, 112),22	545,(13, 113),2	547,(13, 119),2	549,(13, 120),2	551,(13, 121),2	553,(13, 124),12	565,(13, 128),38	603,(13, 136),2	605,(13, 137),16	621,(13, 144),14	635,(13, 147),4	639,(13, 148),6	645,(13, 149),22	667,(13, 152),70	737,(13, 155),4	741,(13, 156),2	743,(13, 159),880	1623,(13, 167),2	1625,(13, 172),22	1647,(13, 176),6	1653,(13, 181),10	1663,(13, 195),2	1665,(13, 196),28	1693,(13, 200),20	1713,(17, 22),2	1715,(17, 41),8	1723,(17, 45),18	1741,(17, 55),2	1743,(17, 71),8	1751,(17, 75),20	1771,(17, 79),2	1773,(17, 85),2	1775,(17, 87),30	1805,(17, 101),46	1851,(17, 103),344	2195,(17, 107),16	2211,(17, 115),6	2217,(17, 127),38	2255,(17, 133),2	2257,(17, 141),28	2285,(17, 143),28	2313,(17, 147),22	2335,(17, 155),8	2343,(17, 159),4	2347,(17, 161),54	2401,(17, 177),2	2403,(17, 179),16	2419,(17, 185),26	2445,(17, 187),2	2531,(5, 22),66	2597,(5, 27),4	2601,(5, 35),4	2605,(5, 67),124	2729,(5, 79),12	2741,(5, 99),2	2743,(5, 103),2	2745,(5, 115),2	2747,(5, 139),2	2749,(5, 143),2	2751,(5, 151),44	2795,(5, 167),6	2801,(5, 195),2	2803,(5, 199),16	2819,(1, 22),68	2887,(1, 31),38	2925,(1, 71),26	2951,(1, 75),28	2979,(1, 99),16	2995,(1, 127),2	2997,(1, 171),36	3033,(1, 191),8	3041,(1, 195),4	3045,(1, 199),2	3403,(9, 22),20	3423,(9, 27),4	3427,(9, 51),2	3429,(9, 55),8	3437,(9, 63),4	3441,(9, 79),2	3443,(9, 107),18	3461,(9, 115),4	3465,(9, 119),26	3491,(9, 131),14	3505,(9, 143),2	3507,(9, 151),78	3585,(9, 159),10	3595,(9, 163),10	3605,(9, 171),2	3607,(9, 179),30	3637,(9, 187),2	3661,(17, 40),2	3663,(17, 60),8	3671,(17, 76),246	3917,(17, 80),2	3919,(17, 84),16	3935,(17, 96),2	3937,(17, 100),6	3943,(17, 104),8	3951,(17, 116),4	3955,(17, 124),2	3957,(17, 144),12	3969,(17, 148),20	3989,(17, 172),8	3997,(17, 176),46	4043,(17, 180),2	4045,(5, 28),202	4247,(5, 33),30	4277,(5, 52),22	4299,(5, 65),272	4571,(5, 69),2	4573,(5, 77),18	4591,(5, 92),16	4607,(5, 97),4	4611,(5, 100),32	4643,(5, 101),12	4655,(5, 105),20	4675,(5, 112),2	4677,(5, 125),8	4685,(5, 129),2	4687,(5, 144),8	4695,(5, 145),10	4705,(5, 156),28	4733,(5, 160),6	4739,(5, 165),14	4753,(5, 169),8	4761,(5, 172),2	4763,(5, 177),42	4805,(5, 181),2	4807,(5, 184),16	4823,(5, 193),210	5033,(5, 200),2	5035,(1, 28),2	5037,(1, 32),10	5047,(1, 40),2	5049,(1, 41),6	5055,(1, 44),2	5057,(1, 45),2	5059,(1, 57),2	5061,(1, 60),40	5101,(1, 69),8	5109,(1, 72),22	5131,(1, 77),2	5133,(1, 88),4	5137,(1, 93),2	5139,(1, 100),8	5147,(1, 104),14	5161,(1, 108),2	5163,(1, 112),2	5165,(1, 113),54	5219,(1, 116),14	5233,(1, 117),194	5427,(1, 121),2	5429,(1, 124),2	5431,(1, 128),2	5433,(1, 133),10	5443,(1, 144),132	5575,(1, 145),6	5581,(1, 148),2	5583,(1, 149),4	5587,(1, 157),6	5593,(1, 164),38	5631,(1, 177),22	5653,(1, 180),8	5661,(1, 188),28	5689,(1, 196),30	5719,(9, 24),18	5737,(9, 32),16	5753,(9, 40),26	5779,(9, 41),6	5785,(9, 61),10	5795,(9, 65),2	5797,(9, 68),30	5827,(9, 69),62	5889,(9, 72),18	5907,(9, 77),2	5909,(9, 80),6	5915,(9, 84),2	5917,(9, 85),12	5929,(9, 96),2	5931,(9, 104),14	5945,(9, 109),2	5947,(9, 112),18	5965,(9, 117),68	6033,(9, 125),22	6055,(9, 128),2	6057,(9, 129),18	6075,(9, 136),6	6081,(9, 144),2	6083,(9, 148),60	6143,(9, 149),2	6145,(9, 161),68	6213,(9, 180),2	6215,(9, 197),6	6221,(9, 200),2	
