71631
# CPU
40721,95,1	41265,36,1	55493,56,1	55537,62,1	55629,68,1	55669,75,1	57041,119,1	57133,13,1	57745,15,1	57909,17,1	58021,24,1	58377,29,1	58569,31,1	59153,37,1	59173,47,1	59193,49,1	60677,52,1	61061,55,1	61289,73,1	61321,77,1	61329,79,1	61565,94,1	62313,101,1	62661,118,1	62681,120,1	62817,21,1	62841,27,1	62917,32,1	62945,33,1	65765,35,1	65909,39,1	65977,40,1	66313,44,1	66357,46,1	66829,57,1	66873,58,1	67185,65,1	67189,66,1	67349,74,1	67353,78,1	67357,80,1	67365,82,1	67609,84,1	67637,88,1	67649,89,1	67825,93,1	67829,96,1	68677,104,1	68949,107,1	69073,112,1	69105,113,1	69153,14,1	69161,16,1	69289,18,1	69293,19,1	69549,20,1	69585,22,1	69589,23,1	69781,25,1	69821,26,1	69825,28,1	69969,30,1	69981,34,1	69985,38,1	70025,41,1	70029,42,1	70089,43,1	70173,45,1	70245,48,1	70337,50,1	70341,51,1	70353,53,1	70361,54,1	70405,59,1	70417,60,1	70429,61,1	70541,63,1	70549,64,1	70561,67,1	70565,69,1	70577,70,1	70581,71,1	70585,72,1	70665,76,1	70709,81,1	70717,83,1	70777,85,1	70781,86,1	70785,87,1	70805,90,1	70865,91,1	70945,92,1	70957,97,1	71045,98,1	71061,99,1	71105,100,1	71117,102,1	71121,103,1	71249,105,1	71265,106,1	71269,108,1	71277,109,1	71281,110,1	71285,111,1	71297,114,1	71597,115,1	71609,116,1	71629,117,1	71630,121,1	
0,0,1	1,2,1	2,9,1	3,12,1	4,6,1	
785,1,1	2353,4,1	3921,7,1	5489,10,1	
1569,3,1	3137,5,1	4705,8,1	6273,11,1	
# Incoming
6273,(2, 13),20	6293,(2, 15),16	6309,(2, 17),4	6313,(2, 18),8	6321,(2, 19),4	6325,(2, 20),8	6333,(2, 22),4	6337,(2, 24),4	6341,(2, 27),4	6345,(2, 29),16	6361,(2, 32),4	6365,(2, 33),12	6377,(2, 34),4	6381,(2, 36),80	6461,(2, 37),4	6465,(2, 38),28	6493,(2, 40),20	6513,(2, 41),28	6541,(2, 43),68	6609,(2, 44),8	6617,(2, 45),88	6705,(2, 48),8	6713,(2, 51),4	6717,(2, 54),6040	12757,(2, 56),12	12769,(2, 58),52	12821,(2, 59),16	12837,(2, 60),40	12877,(2, 61),80	12957,(2, 62),16	12973,(2, 64),4	12977,(2, 65),60	13037,(2, 66),4	13041,(2, 68),140	13181,(2, 69),8	13189,(2, 72),104	13293,(2, 73),8	13301,(2, 74),4	13305,(2, 76),32	13337,(2, 77),4	13341,(2, 80),88	13429,(2, 81),40	13469,(2, 85),16	13485,(2, 86),4	13489,(2, 87),12	13501,(2, 88),36	13537,(2, 90),16	13553,(2, 91),4	13557,(2, 93),8	13565,(2, 95),24	13589,(2, 97),4	13593,(2, 102),4	13597,(2, 103),20	13617,(2, 105),20	13637,(2, 106),184	13821,(2, 107),8	13829,(2, 109),4	13833,(2, 110),16	13849,(2, 111),28	13877,(2, 114),4	13881,(2, 115),12	13893,(2, 117),844	14737,(2, 119),20	14757,(9, 16),32	14789,(9, 18),4	14793,(9, 19),4	14797,(9, 20),28	14825,(9, 21),372	15197,(9, 24),44	15241,(9, 25),64	15305,(9, 27),4	15309,(9, 29),20	15329,(9, 32),628	15957,(9, 33),72	16029,(9, 38),224	16253,(9, 39),96	16349,(9, 40),4	16353,(9, 41),20	16373,(9, 42),12	16385,(9, 43),104	16489,(9, 46),184	16673,(9, 48),40	16713,(9, 50),8	16721,(9, 51),12	16733,(9, 52),164	16897,(9, 53),4	16901,(9, 61),284	17185,(9, 62),4	17189,(9, 66),16	17205,(9, 67),12	17217,(9, 68),2916	20133,(9, 69),8	20141,(9, 70),4	20145,(9, 74),172	20317,(9, 75),8	20325,(9, 76),3628	23953,(9, 78),120	24073,(9, 81),8	24081,(9, 83),64	24145,(9, 87),48	24193,(9, 88),76	24269,(9, 89),4	24273,(9, 91),24	24297,(9, 93),4	24301,(9, 97),52	24353,(9, 98),4	24357,(9, 100),4	24361,(9, 101),12	24373,(9, 103),4	24377,(9, 105),12	24389,(9, 108),124	24513,(9, 109),764	25277,(9, 110),4	25281,(9, 111),12	25293,(9, 112),80	25373,(9, 115),272	25645,(9, 116),12	25657,(9, 117),12	25669,(9, 120),40	25709,(12, 13),4	25713,(12, 14),128	25841,(12, 15),12	25853,(12, 16),32	25885,(12, 18),24	25909,(12, 19),16	25925,(12, 21),24	25949,(12, 23),20	25969,(12, 25),4	25973,(12, 26),20	25993,(12, 28),20	26013,(12, 29),48	26061,(12, 31),4	26065,(12, 32),20	26085,(12, 34),36	26121,(12, 35),4	26125,(12, 36),220	26345,(12, 37),1028	27373,(12, 38),184	27557,(12, 40),12	27569,(12, 42),32	27601,(12, 44),36	27637,(12, 45),8	27645,(12, 48),4	27649,(12, 50),688	28337,(12, 51),8	28345,(12, 52),164	28509,(12, 54),340	28849,(12, 55),4	28853,(12, 56),884	29737,(12, 59),16	29753,(12, 61),40	29793,(12, 62),2872	32665,(12, 64),60	32725,(12, 66),44	32769,(12, 69),416	33185,(12, 71),8	33193,(12, 72),92	33285,(12, 75),68	33353,(12, 76),20	33373,(12, 77),4	33377,(12, 78),112	33489,(12, 79),12	33501,(12, 81),164	33665,(12, 84),16	33681,(12, 86),4	33685,(12, 88),4	33689,(12, 90),4	33693,(12, 94),12	33705,(12, 95),196	33901,(12, 96),40	33941,(12, 97),40	33981,(12, 98),4	33985,(12, 99),492	34477,(12, 101),36	34513,(12, 105),32	34545,(12, 108),216	34761,(12, 109),20	34781,(12, 111),12	34793,(12, 112),56	34849,(12, 113),84	34933,(12, 114),20	34953,(12, 116),4	34957,(12, 118),32	34989,(6, 14),12	35001,(6, 16),8	35009,(6, 17),16	35025,(6, 18),4	35029,(6, 19),4	35033,(6, 21),24	35057,(6, 22),4	35061,(6, 24),64	35125,(6, 25),16	35141,(6, 28),20	35161,(6, 30),132	35293,(6, 32),8	35301,(6, 35),8	35309,(6, 36),8	35317,(6, 38),12	35329,(6, 39),4	35333,(6, 40),16	35349,(6, 43),4	35353,(6, 45),16	35369,(6, 47),32	35401,(6, 49),16	35417,(6, 50),44	35461,(6, 51),80	35541,(6, 52),36	35577,(6, 54),20	35597,(6, 55),28	35625,(6, 60),40	35665,(6, 62),8	35673,(6, 64),4	35677,(6, 67),96	35773,(6, 68),48	35821,(6, 79),48	35869,(6, 80),12	35881,(6, 81),8	35889,(6, 83),108	35997,(6, 84),8	36005,(6, 90),212	36217,(6, 91),4	36221,(6, 92),4	36225,(6, 93),8	36233,(6, 95),20	36253,(6, 97),4	36257,(6, 98),12	36269,(6, 100),8	36277,(6, 101),416	36693,(6, 103),4	36697,(6, 109),4	36701,(6, 112),4	36705,(6, 113),4	36709,(6, 115),72	36781,(6, 117),12	36793,(6, 120),12	36805,(1, 13),52	36857,(1, 15),4	36861,(1, 16),4	36865,(1, 17),32	36897,(1, 18),12	36909,(1, 20),188	37097,(1, 21),20	37117,(1, 22),16	37133,(1, 23),4	37137,(1, 25),4	37141,(1, 26),64	37205,(1, 27),24	37229,(1, 30),4	37233,(1, 35),8	37241,(1, 37),28	37269,(1, 40),16	37285,(1, 45),8	37293,(1, 48),12	37305,(1, 49),56	37361,(1, 52),60	37421,(1, 53),104	37525,(1, 57),360	37885,(1, 58),1068	38953,(1, 59),4	38957,(1, 60),4	38961,(1, 61),40	39001,(1, 65),104	39105,(1, 71),4	39109,(1, 72),36	39145,(1, 73),28	39173,(1, 74),740	39913,(1, 75),16	39929,(1, 76),100	40029,(1, 78),44	40073,(1, 79),136	40209,(1, 80),76	40285,(1, 81),4	40289,(1, 82),4	40293,(1, 85),140	40433,(1, 86),80	40513,(1, 89),4	40517,(1, 90),32	40549,(1, 91),168	40717,(1, 95),4	40721,(1, 99),4	40725,(1, 103),20	40745,(1, 104),48	40793,(1, 105),4	40797,(1, 108),28	40825,(1, 115),4	40829,(1, 116),16	40845,(1, 117),32	40877,(1, 118),12	40889,(1, 120),24	40913,(3, 14),32	40945,(3, 16),28	40973,(3, 18),32	41005,(3, 19),36	41041,(3, 20),4	41045,(3, 21),32	41077,(3, 24),16	41093,(3, 27),60	41153,(3, 29),4	41157,(3, 32),4	41161,(3, 33),32	41193,(3, 34),60	41253,(3, 35),4	41257,(3, 36),8	41265,(3, 37),520	41785,(3, 39),4	41789,(3, 40),12	41801,(3, 41),20	41821,(3, 43),48	41869,(3, 49),44	41913,(3, 50),40	41953,(3, 53),8	41961,(3, 55),120	42081,(3, 56),4	42085,(3, 61),24	42109,(3, 63),20	42129,(3, 64),12	42141,(3, 65),12	42153,(3, 66),4	42157,(3, 67),4	42161,(3, 72),96	42257,(3, 77),4	42261,(3, 78),48	42309,(3, 79),80	42389,(3, 80),4	42393,(3, 82),76	42469,(3, 83),4	42473,(3, 85),36	42509,(3, 86),340	42849,(3, 88),24	42873,(3, 90),4	42877,(3, 92),128	43005,(3, 94),4	43009,(3, 96),4	43013,(3, 97),36	43049,(3, 98),32	43081,(3, 99),20	43101,(3, 102),20	43121,(3, 104),4	43125,(3, 107),12	43137,(3, 108),20	43157,(3, 109),24	43181,(3, 111),112	43293,(3, 112),104	43397,(3, 113),4	43401,(3, 114),28	43429,(3, 115),64	43493,(3, 118),4	43497,(3, 119),68	43565,(3, 120),28	43593,(4, 14),16	43609,(4, 16),12	43621,(4, 17),4	43625,(4, 18),12	43637,(4, 19),4	43641,(4, 21),4	43645,(4, 27),32	43677,(4, 28),4	43681,(4, 29),16	43697,(4, 30),28	43725,(4, 31),56	43781,(4, 32),4	43785,(4, 34),4	43789,(4, 35),144	43933,(4, 37),28	43961,(4, 38),28	43989,(4, 40),4	43993,(4, 41),8	44001,(4, 45),48	44049,(4, 46),12	44061,(4, 47),12	44073,(4, 53),4	44077,(4, 55),4	44081,(4, 56),48	44129,(4, 57),56	44185,(4, 59),156	44341,(4, 68),12	44353,(4, 69),24	44377,(4, 70),16	44393,(4, 71),8	44401,(4, 72),4	44405,(4, 73),4	44409,(4, 77),4	44413,(4, 79),16	44429,(4, 82),40	44469,(4, 87),8	44477,(4, 88),36	44513,(4, 89),4	44517,(4, 90),4	44521,(4, 91),8	44529,(4, 92),24	44553,(4, 93),8	44561,(4, 94),4	44565,(4, 96),24	44589,(4, 100),24	44613,(4, 101),2784	47397,(4, 104),20	47417,(4, 105),4	47421,(4, 106),4	47425,(4, 107),4	47429,(4, 108),32	47461,(4, 109),80	47541,(4, 113),24	47565,(4, 115),4	47569,(4, 116),4	47573,(4, 120),4	47577,(5, 13),1092	48669,(5, 15),4	48673,(5, 19),4	48677,(5, 20),24	48701,(5, 21),4	48705,(5, 23),20	48725,(5, 25),8	48733,(5, 26),20	48753,(5, 28),4	48757,(5, 29),12	48769,(5, 30),328	49097,(5, 31),68	49165,(5, 32),4	49169,(5, 33),64	49233,(5, 34),4	49237,(5, 37),4	49241,(5, 38),4	49245,(5, 40),20	49265,(5, 43),12	49277,(5, 44),248	49525,(5, 45),100	49625,(5, 47),20	49645,(5, 50),100	49745,(5, 52),24	49769,(5, 53),72	49841,(5, 54),8	49849,(5, 55),8	49857,(5, 62),16	49873,(5, 63),56	49929,(5, 66),12	49941,(5, 68),96	50037,(5, 71),84	50121,(5, 74),4	50125,(5, 77),56	50181,(5, 80),36	50217,(5, 82),4	50221,(5, 84),4	50225,(5, 87),44	50269,(5, 89),56	50325,(5, 91),4	50329,(5, 92),16	50345,(5, 93),20	50365,(5, 94),56	50421,(5, 96),4	50425,(5, 97),12	50437,(5, 98),108	50545,(5, 99),4	50549,(5, 101),28	50577,(5, 102),4	50581,(5, 104),4	50585,(5, 105),8	50593,(5, 107),80	50673,(5, 109),16	50689,(5, 110),4	50693,(5, 111),4	50697,(5, 114),68	50765,(5, 120),12	50777,(7, 13),4	50781,(7, 16),24	50805,(7, 18),36	50841,(7, 23),12	50853,(7, 24),2764	53617,(7, 25),220	53837,(7, 26),100	53937,(7, 27),8	53945,(7, 28),812	54757,(7, 29),4	54761,(7, 30),4	54765,(7, 31),64	54829,(7, 32),4	54833,(7, 35),200	55033,(7, 37),8	55041,(7, 39),8	55049,(7, 41),16	55065,(7, 43),4	55069,(7, 44),36	55105,(7, 46),4	55109,(7, 47),4	55113,(7, 48),12	55125,(7, 50),8	55133,(7, 52),40	55173,(7, 53),296	55469,(7, 56),24	55493,(7, 57),12	55505,(7, 59),8	55513,(7, 60),8	55521,(7, 62),16	55537,(7, 64),40	55577,(7, 66),44	55621,(7, 67),4	55625,(7, 68),4	55629,(7, 69),16	55645,(7, 71),4	55649,(7, 75),20	55669,(7, 76),28	55697,(7, 77),16	55713,(7, 78),88	55801,(7, 79),392	56193,(7, 80),40	56233,(7, 81),104	56337,(7, 82),8	56345,(7, 84),60	56405,(7, 90),32	56437,(7, 93),8	56445,(7, 94),68	56513,(7, 98),56	56569,(7, 100),48	56617,(7, 101),8	56625,(7, 102),4	56629,(7, 103),36	56665,(7, 104),68	56733,(7, 105),12	56745,(7, 106),8	56753,(7, 108),12	56765,(7, 110),16	56781,(7, 111),24	56805,(7, 112),32	56837,(7, 113),28	56865,(7, 114),40	56905,(7, 117),80	56985,(7, 118),16	57001,(7, 119),40	57041,(7, 120),40	57081,(8, 13),52	57133,(8, 14),28	57161,(8, 15),584	57745,(8, 16),68	57813,(8, 17),96	57909,(8, 18),4	57913,(8, 19),4	57917,(8, 22),24	57941,(8, 24),80	58021,(8, 25),56	58077,(8, 29),300	58377,(8, 31),192	58569,(8, 32),4	58573,(8, 33),32	58605,(8, 37),548	59153,(8, 41),8	59161,(8, 42),4	59165,(8, 44),4	59169,(8, 47),4	59173,(8, 48),16	59189,(8, 49),4	59193,(8, 50),12	59205,(8, 52),1472	60677,(8, 53),368	61045,(8, 55),16	61061,(8, 58),8	61069,(8, 60),4	61073,(8, 63),4	61077,(8, 64),4	61081,(8, 65),164	61245,(8, 66),4	61249,(8, 70),12	61261,(8, 71),8	61269,(8, 72),4	61273,(8, 73),16	61289,(8, 77),32	61321,(8, 78),4	61325,(8, 79),4	61329,(8, 80),4	61333,(8, 82),204	61537,(8, 83),4	61541,(8, 86),4	61545,(8, 87),4	61549,(8, 88),4	61553,(8, 93),4	61557,(8, 94),8	61565,(8, 98),52	61617,(8, 99),632	62249,(8, 100),4	62253,(8, 101),60	62313,(8, 103),4	62317,(8, 104),32	62349,(8, 105),116	62465,(8, 108),4	62469,(8, 110),28	62497,(8, 111),72	62569,(8, 112),28	62597,(8, 113),28	62625,(8, 114),16	62641,(8, 115),4	62645,(8, 118),16	62661,(8, 120),20	62681,(10, 16),16	62697,(10, 20),92	62789,(10, 21),28	62817,(10, 23),4	62821,(10, 27),20	62841,(10, 28),4	62845,(10, 32),72	62917,(10, 33),28	62945,(10, 34),2808	65753,(10, 35),12	65765,(10, 39),144	65909,(10, 40),68	65977,(10, 41),76	66053,(10, 42),36	66089,(10, 43),24	66113,(10, 44),200	66313,(10, 46),44	66357,(10, 48),48	66405,(10, 50),168	66573,(10, 51),80	66653,(10, 53),4	66657,(10, 57),172	66829,(10, 58),44	66873,(10, 61),12	66885,(10, 63),260	67145,(10, 65),40	67185,(10, 66),4	67189,(10, 67),4	67193,(10, 70),84	67277,(10, 72),68	67345,(10, 74),4	67349,(10, 78),4	67353,(10, 80),4	67357,(10, 81),4	67361,(10, 82),4	67365,(10, 83),228	67593,(10, 84),16	67609,(10, 86),12	67621,(10, 88),16	67637,(10, 89),12	67649,(10, 90),116	67765,(10, 92),32	67797,(10, 93),28	67825,(10, 96),4	67829,(10, 99),20	67849,(10, 102),804	68653,(10, 104),24	68677,(10, 105),260	68937,(10, 107),12	68949,(10, 108),16	68965,(10, 110),84	69049,(10, 112),24	69073,(10, 113),32	69105,(10, 114),24	69129,(10, 115),4	69133,(11, 14),20	69153,(11, 16),8	69161,(11, 18),128	69289,(11, 19),4	69293,(11, 20),256	69549,(11, 22),36	69585,(11, 23),4	69589,(11, 25),192	69781,(11, 26),40	69821,(11, 28),4	69825,(11, 30),144	69969,(11, 34),12	69981,(11, 38),4	69985,(11, 41),40	70025,(11, 42),4	70029,(11, 43),60	70089,(11, 45),84	70173,(11, 48),72	70245,(11, 50),92	70337,(11, 51),4	70341,(11, 53),12	70353,(11, 54),8	70361,(11, 59),44	70405,(11, 60),12	70417,(11, 61),12	70429,(11, 63),112	70541,(11, 64),8	70549,(11, 67),12	70561,(11, 69),4	70565,(11, 70),12	70577,(11, 71),4	70581,(11, 72),4	70585,(11, 76),80	70665,(11, 81),44	70709,(11, 83),8	70717,(11, 85),60	70777,(11, 86),4	70781,(11, 87),4	70785,(11, 90),20	70805,(11, 91),60	70865,(11, 92),80	70945,(11, 97),12	70957,(11, 98),88	71045,(11, 99),16	71061,(11, 100),44	71105,(11, 102),12	71117,(11, 103),4	71121,(11, 105),128	71249,(11, 106),16	71265,(11, 108),4	71269,(11, 109),8	71277,(11, 110),4	71281,(11, 111),4	71285,(11, 114),12	71297,(11, 115),300	71597,(11, 116),12	71609,(11, 117),20	

1,(0, 1),784	1569,(0, 4),784	3137,(0, 7),784	4705,(0, 10),784	
785,(0, 3),784	2353,(0, 5),784	3921,(0, 8),784	5489,(0, 11),784	
# Outgoing

1,(0, 1),784	785,(0, 3),784	1569,(0, 4),784	2353,(0, 5),784	3137,(0, 7),784	3921,(0, 8),784	4705,(0, 10),784	5489,(0, 11),784	6273,(2, 13),20	6293,(2, 15),16	6309,(2, 17),4	6313,(2, 18),8	6321,(2, 19),4	6325,(2, 20),8	6333,(2, 22),4	6337,(2, 24),4	6341,(2, 27),4	6345,(2, 29),16	6361,(2, 32),4	6365,(2, 33),12	6377,(2, 34),4	6381,(2, 36),80	6461,(2, 37),4	6465,(2, 38),28	6493,(2, 40),20	6513,(2, 41),28	6541,(2, 43),68	6609,(2, 44),8	6617,(2, 45),88	6705,(2, 48),8	6713,(2, 51),4	6717,(2, 54),6040	12757,(2, 56),12	12769,(2, 58),52	12821,(2, 59),16	12837,(2, 60),40	12877,(2, 61),80	12957,(2, 62),16	12973,(2, 64),4	12977,(2, 65),60	13037,(2, 66),4	13041,(2, 68),140	13181,(2, 69),8	13189,(2, 72),104	13293,(2, 73),8	13301,(2, 74),4	13305,(2, 76),32	13337,(2, 77),4	13341,(2, 80),88	13429,(2, 81),40	13469,(2, 85),16	13485,(2, 86),4	13489,(2, 87),12	13501,(2, 88),36	13537,(2, 90),16	13553,(2, 91),4	13557,(2, 93),8	13565,(2, 95),24	13589,(2, 97),4	13593,(2, 102),4	13597,(2, 103),20	13617,(2, 105),20	13637,(2, 106),184	13821,(2, 107),8	13829,(2, 109),4	13833,(2, 110),16	13849,(2, 111),28	13877,(2, 114),4	13881,(2, 115),12	13893,(2, 117),844	14737,(2, 119),20	14757,(9, 16),32	14789,(9, 18),4	14793,(9, 19),4	14797,(9, 20),28	14825,(9, 21),372	15197,(9, 24),44	15241,(9, 25),64	15305,(9, 27),4	15309,(9, 29),20	15329,(9, 32),628	15957,(9, 33),72	16029,(9, 38),224	16253,(9, 39),96	16349,(9, 40),4	16353,(9, 41),20	16373,(9, 42),12	16385,(9, 43),104	16489,(9, 46),184	16673,(9, 48),40	16713,(9, 50),8	16721,(9, 51),12	16733,(9, 52),164	16897,(9, 53),4	16901,(9, 61),284	17185,(9, 62),4	17189,(9, 66),16	17205,(9, 67),12	17217,(9, 68),2916	20133,(9, 69),8	20141,(9, 70),4	20145,(9, 74),172	20317,(9, 75),8	20325,(9, 76),3628	23953,(9, 78),120	24073,(9, 81),8	24081,(9, 83),64	24145,(9, 87),48	24193,(9, 88),76	24269,(9, 89),4	24273,(9, 91),24	24297,(9, 93),4	24301,(9, 97),52	24353,(9, 98),4	24357,(9, 100),4	24361,(9, 101),12	24373,(9, 103),4	24377,(9, 105),12	24389,(9, 108),124	24513,(9, 109),764	25277,(9, 110),4	25281,(9, 111),12	25293,(9, 112),80	25373,(9, 115),272	25645,(9, 116),12	25657,(9, 117),12	25669,(9, 120),40	25709,(12, 13),4	25713,(12, 14),128	25841,(12, 15),12	25853,(12, 16),32	25885,(12, 18),24	25909,(12, 19),16	25925,(12, 21),24	25949,(12, 23),20	25969,(12, 25),4	25973,(12, 26),20	25993,(12, 28),20	26013,(12, 29),48	26061,(12, 31),4	26065,(12, 32),20	26085,(12, 34),36	26121,(12, 35),4	26125,(12, 36),220	26345,(12, 37),1028	27373,(12, 38),184	27557,(12, 40),12	27569,(12, 42),32	27601,(12, 44),36	27637,(12, 45),8	27645,(12, 48),4	27649,(12, 50),688	28337,(12, 51),8	28345,(12, 52),164	28509,(12, 54),340	28849,(12, 55),4	28853,(12, 56),884	29737,(12, 59),16	29753,(12, 61),40	29793,(12, 62),2872	32665,(12, 64),60	32725,(12, 66),44	32769,(12, 69),416	33185,(12, 71),8	33193,(12, 72),92	33285,(12, 75),68	33353,(12, 76),20	33373,(12, 77),4	33377,(12, 78),112	33489,(12, 79),12	33501,(12, 81),164	33665,(12, 84),16	33681,(12, 86),4	33685,(12, 88),4	33689,(12, 90),4	33693,(12, 94),12	33705,(12, 95),196	33901,(12, 96),40	33941,(12, 97),40	33981,(12, 98),4	33985,(12, 99),492	34477,(12, 101),36	34513,(12, 105),32	34545,(12, 108),216	34761,(12, 109),20	34781,(12, 111),12	34793,(12, 112),56	34849,(12, 113),84	34933,(12, 114),20	34953,(12, 116),4	34957,(12, 118),32	34989,(6, 14),12	35001,(6, 16),8	35009,(6, 17),16	35025,(6, 18),4	35029,(6, 19),4	35033,(6, 21),24	35057,(6, 22),4	35061,(6, 24),64	35125,(6, 25),16	35141,(6, 28),20	35161,(6, 30),132	35293,(6, 32),8	35301,(6, 35),8	35309,(6, 36),8	35317,(6, 38),12	35329,(6, 39),4	35333,(6, 40),16	35349,(6, 43),4	35353,(6, 45),16	35369,(6, 47),32	35401,(6, 49),16	35417,(6, 50),44	35461,(6, 51),80	35541,(6, 52),36	35577,(6, 54),20	35597,(6, 55),28	35625,(6, 60),40	35665,(6, 62),8	35673,(6, 64),4	35677,(6, 67),96	35773,(6, 68),48	35821,(6, 79),48	35869,(6, 80),12	35881,(6, 81),8	35889,(6, 83),108	35997,(6, 84),8	36005,(6, 90),212	36217,(6, 91),4	36221,(6, 92),4	36225,(6, 93),8	36233,(6, 95),20	36253,(6, 97),4	36257,(6, 98),12	36269,(6, 100),8	36277,(6, 101),416	36693,(6, 103),4	36697,(6, 109),4	36701,(6, 112),4	36705,(6, 113),4	36709,(6, 115),72	36781,(6, 117),12	36793,(6, 120),12	
36805,(1, 13),52	36857,(1, 15),4	36861,(1, 16),4	36865,(1, 17),32	36897,(1, 18),12	36909,(1, 20),188	37097,(1, 21),20	37117,(1, 22),16	37133,(1, 23),4	37137,(1, 25),4	37141,(1, 26),64	37205,(1, 27),24	37229,(1, 30),4	37233,(1, 35),8	37241,(1, 37),28	37269,(1, 40),16	37285,(1, 45),8	37293,(1, 48),12	37305,(1, 49),56	37361,(1, 52),60	37421,(1, 53),104	37525,(1, 57),360	37885,(1, 58),1068	38953,(1, 59),4	38957,(1, 60),4	38961,(1, 61),40	39001,(1, 65),104	39105,(1, 71),4	39109,(1, 72),36	39145,(1, 73),28	39173,(1, 74),740	39913,(1, 75),16	39929,(1, 76),100	40029,(1, 78),44	40073,(1, 79),136	40209,(1, 80),76	40285,(1, 81),4	40289,(1, 82),4	40293,(1, 85),140	40433,(1, 86),80	40513,(1, 89),4	40517,(1, 90),32	40549,(1, 91),168	40717,(1, 95),4	40721,(1, 99),4	40725,(1, 103),20	40745,(1, 104),48	40793,(1, 105),4	40797,(1, 108),28	40825,(1, 115),4	40829,(1, 116),16	40845,(1, 117),32	40877,(1, 118),12	40889,(1, 120),24	43593,(4, 14),16	43609,(4, 16),12	43621,(4, 17),4	43625,(4, 18),12	43637,(4, 19),4	43641,(4, 21),4	43645,(4, 27),32	43677,(4, 28),4	43681,(4, 29),16	43697,(4, 30),28	43725,(4, 31),56	43781,(4, 32),4	43785,(4, 34),4	43789,(4, 35),144	43933,(4, 37),28	43961,(4, 38),28	43989,(4, 40),4	43993,(4, 41),8	44001,(4, 45),48	44049,(4, 46),12	44061,(4, 47),12	44073,(4, 53),4	44077,(4, 55),4	44081,(4, 56),48	44129,(4, 57),56	44185,(4, 59),156	44341,(4, 68),12	44353,(4, 69),24	44377,(4, 70),16	44393,(4, 71),8	44401,(4, 72),4	44405,(4, 73),4	44409,(4, 77),4	44413,(4, 79),16	44429,(4, 82),40	44469,(4, 87),8	44477,(4, 88),36	44513,(4, 89),4	44517,(4, 90),4	44521,(4, 91),8	44529,(4, 92),24	44553,(4, 93),8	44561,(4, 94),4	44565,(4, 96),24	44589,(4, 100),24	44613,(4, 101),2784	47397,(4, 104),20	47417,(4, 105),4	47421,(4, 106),4	47425,(4, 107),4	47429,(4, 108),32	47461,(4, 109),80	47541,(4, 113),24	47565,(4, 115),4	47569,(4, 116),4	47573,(4, 120),4	50777,(7, 13),4	50781,(7, 16),24	50805,(7, 18),36	50841,(7, 23),12	50853,(7, 24),2764	53617,(7, 25),220	53837,(7, 26),100	53937,(7, 27),8	53945,(7, 28),812	54757,(7, 29),4	54761,(7, 30),4	54765,(7, 31),64	54829,(7, 32),4	54833,(7, 35),200	55033,(7, 37),8	55041,(7, 39),8	55049,(7, 41),16	55065,(7, 43),4	55069,(7, 44),36	55105,(7, 46),4	55109,(7, 47),4	55113,(7, 48),12	55125,(7, 50),8	55133,(7, 52),40	55173,(7, 53),296	55469,(7, 56),24	55493,(7, 57),12	55505,(7, 59),8	55513,(7, 60),8	55521,(7, 62),16	55537,(7, 64),40	55577,(7, 66),44	55621,(7, 67),4	55625,(7, 68),4	55629,(7, 69),16	55645,(7, 71),4	55649,(7, 75),20	55669,(7, 76),28	55697,(7, 77),16	55713,(7, 78),88	55801,(7, 79),392	56193,(7, 80),40	56233,(7, 81),104	56337,(7, 82),8	56345,(7, 84),60	56405,(7, 90),32	56437,(7, 93),8	56445,(7, 94),68	56513,(7, 98),56	56569,(7, 100),48	56617,(7, 101),8	56625,(7, 102),4	56629,(7, 103),36	56665,(7, 104),68	56733,(7, 105),12	56745,(7, 106),8	56753,(7, 108),12	56765,(7, 110),16	56781,(7, 111),24	56805,(7, 112),32	56837,(7, 113),28	56865,(7, 114),40	56905,(7, 117),80	56985,(7, 118),16	57001,(7, 119),40	57041,(7, 120),40	62681,(10, 16),16	62697,(10, 20),92	62789,(10, 21),28	62817,(10, 23),4	62821,(10, 27),20	62841,(10, 28),4	62845,(10, 32),72	62917,(10, 33),28	62945,(10, 34),2808	65753,(10, 35),12	65765,(10, 39),144	65909,(10, 40),68	65977,(10, 41),76	66053,(10, 42),36	66089,(10, 43),24	66113,(10, 44),200	66313,(10, 46),44	66357,(10, 48),48	66405,(10, 50),168	66573,(10, 51),80	66653,(10, 53),4	66657,(10, 57),172	66829,(10, 58),44	66873,(10, 61),12	66885,(10, 63),260	67145,(10, 65),40	67185,(10, 66),4	67189,(10, 67),4	67193,(10, 70),84	67277,(10, 72),68	67345,(10, 74),4	67349,(10, 78),4	67353,(10, 80),4	67357,(10, 81),4	67361,(10, 82),4	67365,(10, 83),228	67593,(10, 84),16	67609,(10, 86),12	67621,(10, 88),16	67637,(10, 89),12	67649,(10, 90),116	67765,(10, 92),32	67797,(10, 93),28	67825,(10, 96),4	67829,(10, 99),20	67849,(10, 102),804	68653,(10, 104),24	68677,(10, 105),260	68937,(10, 107),12	68949,(10, 108),16	68965,(10, 110),84	69049,(10, 112),24	69073,(10, 113),32	69105,(10, 114),24	69129,(10, 115),4	
40913,(3, 14),32	40945,(3, 16),28	40973,(3, 18),32	41005,(3, 19),36	41041,(3, 20),4	41045,(3, 21),32	41077,(3, 24),16	41093,(3, 27),60	41153,(3, 29),4	41157,(3, 32),4	41161,(3, 33),32	41193,(3, 34),60	41253,(3, 35),4	41257,(3, 36),8	41265,(3, 37),520	41785,(3, 39),4	41789,(3, 40),12	41801,(3, 41),20	41821,(3, 43),48	41869,(3, 49),44	41913,(3, 50),40	41953,(3, 53),8	41961,(3, 55),120	42081,(3, 56),4	42085,(3, 61),24	42109,(3, 63),20	42129,(3, 64),12	42141,(3, 65),12	42153,(3, 66),4	42157,(3, 67),4	42161,(3, 72),96	42257,(3, 77),4	42261,(3, 78),48	42309,(3, 79),80	42389,(3, 80),4	42393,(3, 82),76	42469,(3, 83),4	42473,(3, 85),36	42509,(3, 86),340	42849,(3, 88),24	42873,(3, 90),4	42877,(3, 92),128	43005,(3, 94),4	43009,(3, 96),4	43013,(3, 97),36	43049,(3, 98),32	43081,(3, 99),20	43101,(3, 102),20	43121,(3, 104),4	43125,(3, 107),12	43137,(3, 108),20	43157,(3, 109),24	43181,(3, 111),112	43293,(3, 112),104	43397,(3, 113),4	43401,(3, 114),28	43429,(3, 115),64	43493,(3, 118),4	43497,(3, 119),68	43565,(3, 120),28	47577,(5, 13),1092	48669,(5, 15),4	48673,(5, 19),4	48677,(5, 20),24	48701,(5, 21),4	48705,(5, 23),20	48725,(5, 25),8	48733,(5, 26),20	48753,(5, 28),4	48757,(5, 29),12	48769,(5, 30),328	49097,(5, 31),68	49165,(5, 32),4	49169,(5, 33),64	49233,(5, 34),4	49237,(5, 37),4	49241,(5, 38),4	49245,(5, 40),20	49265,(5, 43),12	49277,(5, 44),248	49525,(5, 45),100	49625,(5, 47),20	49645,(5, 50),100	49745,(5, 52),24	49769,(5, 53),72	49841,(5, 54),8	49849,(5, 55),8	49857,(5, 62),16	49873,(5, 63),56	49929,(5, 66),12	49941,(5, 68),96	50037,(5, 71),84	50121,(5, 74),4	50125,(5, 77),56	50181,(5, 80),36	50217,(5, 82),4	50221,(5, 84),4	50225,(5, 87),44	50269,(5, 89),56	50325,(5, 91),4	50329,(5, 92),16	50345,(5, 93),20	50365,(5, 94),56	50421,(5, 96),4	50425,(5, 97),12	50437,(5, 98),108	50545,(5, 99),4	50549,(5, 101),28	50577,(5, 102),4	50581,(5, 104),4	50585,(5, 105),8	50593,(5, 107),80	50673,(5, 109),16	50689,(5, 110),4	50693,(5, 111),4	50697,(5, 114),68	50765,(5, 120),12	57081,(8, 13),52	57133,(8, 14),28	57161,(8, 15),584	57745,(8, 16),68	57813,(8, 17),96	57909,(8, 18),4	57913,(8, 19),4	57917,(8, 22),24	57941,(8, 24),80	58021,(8, 25),56	58077,(8, 29),300	58377,(8, 31),192	58569,(8, 32),4	58573,(8, 33),32	58605,(8, 37),548	59153,(8, 41),8	59161,(8, 42),4	59165,(8, 44),4	59169,(8, 47),4	59173,(8, 48),16	59189,(8, 49),4	59193,(8, 50),12	59205,(8, 52),1472	60677,(8, 53),368	61045,(8, 55),16	61061,(8, 58),8	61069,(8, 60),4	61073,(8, 63),4	61077,(8, 64),4	61081,(8, 65),164	61245,(8, 66),4	61249,(8, 70),12	61261,(8, 71),8	61269,(8, 72),4	61273,(8, 73),16	61289,(8, 77),32	61321,(8, 78),4	61325,(8, 79),4	61329,(8, 80),4	61333,(8, 82),204	61537,(8, 83),4	61541,(8, 86),4	61545,(8, 87),4	61549,(8, 88),4	61553,(8, 93),4	61557,(8, 94),8	61565,(8, 98),52	61617,(8, 99),632	62249,(8, 100),4	62253,(8, 101),60	62313,(8, 103),4	62317,(8, 104),32	62349,(8, 105),116	62465,(8, 108),4	62469,(8, 110),28	62497,(8, 111),72	62569,(8, 112),28	62597,(8, 113),28	62625,(8, 114),16	62641,(8, 115),4	62645,(8, 118),16	62661,(8, 120),20	69133,(11, 14),20	69153,(11, 16),8	69161,(11, 18),128	69289,(11, 19),4	69293,(11, 20),256	69549,(11, 22),36	69585,(11, 23),4	69589,(11, 25),192	69781,(11, 26),40	69821,(11, 28),4	69825,(11, 30),144	69969,(11, 34),12	69981,(11, 38),4	69985,(11, 41),40	70025,(11, 42),4	70029,(11, 43),60	70089,(11, 45),84	70173,(11, 48),72	70245,(11, 50),92	70337,(11, 51),4	70341,(11, 53),12	70353,(11, 54),8	70361,(11, 59),44	70405,(11, 60),12	70417,(11, 61),12	70429,(11, 63),112	70541,(11, 64),8	70549,(11, 67),12	70561,(11, 69),4	70565,(11, 70),12	70577,(11, 71),4	70581,(11, 72),4	70585,(11, 76),80	70665,(11, 81),44	70709,(11, 83),8	70717,(11, 85),60	70777,(11, 86),4	70781,(11, 87),4	70785,(11, 90),20	70805,(11, 91),60	70865,(11, 92),80	70945,(11, 97),12	70957,(11, 98),88	71045,(11, 99),16	71061,(11, 100),44	71105,(11, 102),12	71117,(11, 103),4	71121,(11, 105),128	71249,(11, 106),16	71265,(11, 108),4	71269,(11, 109),8	71277,(11, 110),4	71281,(11, 111),4	71285,(11, 114),12	71297,(11, 115),300	71597,(11, 116),12	71609,(11, 117),20	
