661
# CPU
44,6,3	47,14,3	255,18,3	586,10,3	
49,9,3	252,17,3	283,5,3	614,13,3	
7,2,3	10,4,3	13,12,3	16,20,3	19,8,3	56,16,3	
0,0,1	1,1,3	4,7,3	7,11,3	10,19,3	31,3,3	72,15,3	660,21,1	
# Incoming
26,(1, 6),18	44,(2, 14),3	252,(1, 18),3	283,(2, 10),303	
7,(1, 5),19	44,(1, 9),5	56,(1, 17),196	252,(2, 5),31	586,(2, 13),28	
1,(0, 2),6	49,(1, 16),7	
10,(2, 3),21	47,(2, 15),25	72,(4, 21),23	95,(12, 21),23	118,(20, 21),23	141,(8, 21),23	164,(6, 21),23	187,(14, 21),23	210,(9, 21),23	255,(17, 21),23	278,(18, 21),23	301,(5, 21),23	589,(10, 21),23	614,(16, 21),23	637,(13, 21),23	
# Outgoing
164,(6, 21),23	187,(14, 21),23	278,(18, 21),23	589,(10, 21),23	
210,(9, 21),23	255,(17, 21),23	301,(5, 21),23	637,(13, 21),23	
10,(2, 3),21	44,(2, 14),3	47,(2, 15),25	72,(4, 21),23	95,(12, 21),23	118,(20, 21),23	141,(8, 21),23	252,(2, 5),31	283,(2, 10),303	586,(2, 13),28	614,(16, 21),23	
1,(0, 2),6	7,(1, 5),19	26,(1, 6),18	44,(1, 9),5	49,(1, 16),7	56,(1, 17),196	252,(1, 18),3	
