4842
# CPU
0,0,1	1,11,80	81,7,80	161,81,80	241,200,80	321,97,80	401,1,80	481,27,80	561,91,80	641,20,80	721,196,80	801,18,80	881,139,80	961,79,80	1041,125,80	1121,181,80	1201,8,80	1281,164,80	1361,126,80	1441,14,80	1521,170,80	1601,199,80	1681,83,80	1761,54,80	1841,56,80	1921,185,80	2001,194,80	2081,156,80	2161,178,80	2241,152,80	2321,149,80	2401,23,80	2481,163,80	2561,191,80	2641,74,80	2721,84,80	2801,26,80	2965,147,80	3161,161,80	3341,69,80	3421,184,80	3609,65,80	3721,192,80	4761,75,80	4841,201,1	
81,4,80	161,34,80	241,9,80	321,13,80	401,58,80	481,175,80	561,121,80	641,168,80	721,6,80	801,188,80	881,129,80	961,197,80	1041,47,80	1121,63,80	1201,186,80	1281,135,80	1361,108,80	1441,32,80	1521,94,80	1601,37,80	1681,87,80	1761,173,80	1841,176,80	1921,39,80	2001,28,80	2081,155,80	2161,42,80	2241,64,80	2321,153,80	2401,172,80	2481,96,80	2561,80,80	2641,179,80	2721,89,80	2801,131,80	2881,130,80	2961,145,80	3061,122,80	3189,134,80	3445,55,80	
61,10,80	141,177,80	221,17,80	301,114,80	381,137,80	461,109,80	541,115,80	621,182,80	701,15,80	781,82,80	861,140,80	941,162,80	1021,171,80	1101,103,80	1181,67,80	1261,86,80	1341,160,80	1421,136,80	1501,101,80	1581,128,80	1661,77,80	1741,60,80	1821,117,80	1901,165,80	1981,110,80	2061,78,80	2141,22,80	2221,151,80	2301,30,80	2381,44,80	2461,120,80	2541,92,80	2621,112,80	2701,169,80	2781,36,80	2861,146,80	2941,143,80	3021,166,80	3261,133,80	
41,16,80	121,93,80	201,31,80	281,95,80	361,5,80	441,24,80	521,68,80	601,154,80	681,12,80	761,45,80	841,118,80	921,150,80	1001,62,80	1081,105,80	1161,124,80	1241,180,80	1321,52,80	1401,148,80	1481,104,80	1561,46,80	1641,38,80	1721,102,80	1801,21,80	1881,98,80	1961,189,80	2041,35,80	2121,141,80	2201,53,80	2281,132,80	2361,33,80	2441,57,80	2521,73,80	2601,100,80	2681,29,80	2761,40,80	2841,107,80	2921,113,80	3001,76,80	3389,190,80	3553,144,80	
21,19,80	101,2,80	181,183,80	261,48,80	341,90,80	421,3,80	501,70,80	581,111,80	661,138,80	741,119,80	821,195,80	901,71,80	981,198,80	1061,106,80	1141,43,80	1221,142,80	1301,72,80	1381,159,80	1461,193,80	1541,174,80	1621,85,80	1701,123,80	1781,66,80	1861,61,80	1941,50,80	2021,88,80	2101,59,80	2181,49,80	2261,41,80	2341,51,80	2421,127,80	2501,158,80	2581,167,80	2661,99,80	2741,25,80	2821,187,80	2901,157,80	2981,116,80	
# Incoming
201,(93, 201),4	205,(2, 54),4	221,(177, 201),4	229,(2, 156),4	233,(2, 178),4	237,(2, 69),4	241,(34, 201),4	245,(10, 56),4	253,(16, 26),8	261,(183, 201),4	281,(31, 201),4	285,(10, 149),12	297,(16, 23),12	309,(16, 65),8	317,(17, 194),4	321,(19, 147),20	341,(48, 201),4	357,(9, 194),4	361,(95, 201),4	381,(114, 201),4	421,(90, 201),4	441,(9, 163),16	461,(137, 201),4	465,(5, 185),4	481,(58, 201),4	485,(17, 191),16	501,(17, 84),20	521,(24, 201),4	525,(3, 83),4	529,(5, 152),12	541,(109, 201),4	561,(175, 201),4	565,(5, 147),16	581,(70, 201),4	601,(68, 201),4	605,(3, 65),12	621,(115, 201),4	641,(121, 201),4	661,(111, 201),4	681,(154, 201),4	701,(182, 201),4	721,(168, 201),4	741,(138, 201),4	745,(9, 26),24	781,(15, 170),4	789,(12, 84),4	797,(5, 74),20	821,(119, 201),4	841,(45, 201),4	845,(6, 156),4	849,(6, 178),4	861,(82, 201),4	881,(188, 201),4	901,(195, 201),4	921,(118, 201),4	941,(140, 201),4	961,(129, 201),4	981,(71, 201),4	1001,(150, 201),4	1021,(162, 201),4	1041,(197, 201),4	1061,(198, 201),4	1081,(62, 201),4	1101,(171, 201),4	1121,(47, 201),4	1141,(106, 201),4	1161,(105, 201),4	1181,(103, 201),4	1201,(63, 201),4	1221,(43, 201),4	1241,(124, 201),4	1261,(67, 201),4	1281,(186, 201),4	1301,(142, 201),4	1321,(180, 201),4	1341,(86, 201),4	1361,(135, 201),4	1381,(72, 201),4	1401,(52, 201),4	1421,(160, 201),4	1441,(108, 201),4	1461,(159, 201),4	1481,(148, 201),4	1501,(136, 201),4	1521,(32, 201),4	1541,(193, 201),4	1561,(104, 201),4	1581,(101, 201),4	1601,(94, 201),4	1621,(174, 201),4	1641,(46, 201),4	1661,(128, 201),4	1681,(37, 201),4	1701,(85, 201),4	1721,(38, 201),4	1741,(77, 201),4	1761,(87, 201),4	1781,(123, 201),4	1801,(102, 201),4	1821,(60, 201),4	1841,(173, 201),4	1861,(66, 201),4	1881,(21, 201),4	1901,(117, 201),4	1921,(176, 201),4	1941,(61, 201),4	1961,(98, 201),4	1981,(165, 201),4	2001,(39, 201),4	2021,(50, 201),4	2041,(189, 201),4	2061,(110, 201),4	2081,(28, 201),4	2101,(88, 201),4	2121,(35, 201),4	2141,(78, 201),4	2161,(155, 201),4	2181,(59, 201),4	2201,(141, 201),4	2221,(22, 201),4	2241,(42, 201),4	2261,(49, 201),4	2281,(53, 201),4	2301,(151, 201),4	2321,(64, 201),4	2341,(41, 201),4	2361,(132, 201),4	2381,(30, 201),4	2401,(153, 201),4	2421,(51, 201),4	2441,(33, 201),4	2461,(44, 201),4	2481,(172, 201),4	2501,(127, 201),4	2521,(57, 201),4	2541,(120, 201),4	2561,(96, 201),4	2581,(158, 201),4	2601,(73, 201),4	2621,(92, 201),4	2641,(80, 201),4	2661,(167, 201),4	2681,(100, 201),4	2701,(112, 201),4	2721,(179, 201),4	2741,(99, 201),4	2761,(29, 201),4	2781,(169, 201),4	2801,(89, 201),4	2821,(25, 201),4	2841,(40, 201),4	2861,(36, 201),4	2881,(131, 201),4	2901,(187, 201),4	2921,(107, 201),4	2941,(146, 201),4	2945,(10, 147),20	2965,(130, 201),4	2981,(157, 201),4	3001,(113, 201),4	3021,(143, 201),4	3041,(145, 201),4	3061,(116, 201),4	3081,(76, 201),4	3101,(166, 201),4	3105,(10, 161),56	3161,(122, 201),4	3165,(15, 192),20	3189,(3, 69),68	3269,(134, 201),4	3273,(16, 184),40	3313,(17, 75),28	3341,(133, 201),4	3345,(9, 184),60	3405,(5, 75),28	3469,(190, 201),4	3525,(55, 201),4	3529,(10, 65),80	3633,(144, 201),4	3637,(10, 192),84	3721,(6, 75),1040	
61,(0, 4),20	101,(19, 34),20	121,(0, 9),20	141,(0, 13),20	161,(19, 32),8	169,(19, 80),4	209,(16, 94),4	225,(10, 121),4	229,(7, 168),16	249,(10, 39),8	257,(10, 155),4	285,(0, 6),20	321,(7, 186),4	325,(17, 94),16	341,(17, 87),8	349,(17, 176),16	381,(7, 42),4	385,(2, 42),36	421,(10, 64),36	457,(7, 153),4	461,(5, 28),4	465,(11, 130),4	469,(5, 155),20	489,(1, 168),4	497,(1, 135),4	501,(11, 179),8	509,(3, 135),4	513,(1, 37),20	533,(3, 173),8	541,(5, 172),4	545,(1, 179),4	549,(7, 134),4	553,(17, 134),4	561,(3, 28),20	581,(1, 153),36	617,(3, 179),4	625,(17, 172),32	657,(17, 96),32	689,(16, 80),24	713,(16, 89),20	733,(20, 108),12	773,(12, 176),16	805,(15, 94),4	817,(12, 130),4	825,(15, 28),12	837,(20, 64),4	845,(12, 96),20	865,(20, 155),8	873,(20, 172),4	893,(18, 47),4	901,(18, 63),4	925,(18, 87),16	945,(10, 179),52	1057,(17, 131),40	1137,(1, 80),32	1185,(10, 130),28	1213,(15, 145),32	1293,(8, 32),4	1309,(8, 87),8	1345,(8, 155),4	1389,(8, 172),4	1405,(16, 122),60	1509,(11, 55),12	1541,(14, 37),4	1573,(14, 173),24	1597,(14, 39),28	1833,(14, 89),68	1969,(8, 131),60	2157,(1, 130),64	2501,(18, 145),116	2949,(20, 122),48	2997,(18, 122),20	3017,(14, 122),44	3061,(11, 134),48	3109,(2, 134),80	3189,(15, 55),100	
41,(0, 10),20	101,(0, 17),20	121,(19, 115),4	125,(19, 128),12	177,(19, 166),4	181,(2, 115),4	185,(2, 117),4	205,(16, 137),4	213,(16, 78),4	217,(11, 109),4	221,(16, 182),12	233,(16, 151),20	265,(0, 15),20	293,(2, 112),12	305,(7, 171),4	309,(7, 103),8	317,(7, 67),4	321,(9, 137),8	329,(7, 169),4	345,(9, 86),4	357,(7, 165),24	381,(9, 110),20	405,(13, 86),4	409,(13, 101),8	417,(13, 77),4	421,(4, 151),12	433,(4, 44),4	441,(5, 109),4	445,(5, 162),4	481,(1, 182),8	493,(1, 140),4	501,(3, 115),4	505,(4, 146),8	529,(3, 30),4	545,(16, 36),20	597,(3, 143),8	617,(11, 120),40	657,(7, 92),24	681,(2, 169),44	725,(20, 67),4	745,(20, 136),8	761,(12, 77),8	769,(12, 60),4	773,(20, 117),20	793,(20, 110),8	801,(20, 151),4	809,(6, 60),16	841,(6, 146),4	885,(6, 166),4	893,(4, 36),36	965,(9, 146),48	1117,(18, 92),20	1205,(18, 112),8	1289,(8, 160),4	1317,(8, 78),28	1569,(14, 77),4	1629,(14, 22),32	1673,(14, 30),32	1705,(14, 44),32	1741,(14, 112),24	2405,(1, 143),96	2805,(18, 166),144	3045,(9, 133),96	3141,(1, 133),36	3177,(14, 133),64	
21,(0, 16),20	137,(19, 102),20	157,(19, 98),4	173,(19, 40),4	177,(0, 5),20	197,(2, 105),4	201,(2, 73),4	209,(2, 35),20	229,(10, 154),4	237,(10, 148),4	241,(19, 76),4	245,(0, 12),20	265,(4, 102),4	269,(10, 53),12	281,(2, 132),12	297,(10, 40),4	301,(17, 154),4	305,(17, 52),4	309,(17, 104),8	329,(9, 68),8	337,(11, 21),8	345,(7, 21),12	357,(19, 190),8	365,(10, 107),8	373,(9, 144),4	385,(10, 33),28	429,(11, 33),8	437,(7, 29),12	449,(11, 40),8	457,(9, 40),20	505,(3, 124),4	509,(1, 40),4	513,(3, 104),12	541,(3, 98),20	585,(3, 33),12	597,(13, 40),32	645,(9, 57),52	697,(7, 100),24	729,(20, 180),4	757,(20, 21),4	761,(20, 98),4	765,(20, 35),8	793,(15, 52),4	801,(15, 104),4	805,(6, 180),4	809,(20, 189),24	833,(20, 107),4	837,(15, 141),4	841,(15, 107),8	853,(6, 29),28	889,(18, 62),4	909,(18, 148),16	953,(18, 35),4	957,(18, 141),32	993,(18, 132),32	1025,(17, 100),32	1065,(20, 73),52	1117,(15, 40),28	1145,(13, 107),44	1189,(18, 100),16	1205,(4, 76),68	1273,(18, 144),4	1285,(8, 52),4	1305,(3, 76),44	1349,(8, 53),24	1373,(6, 190),20	1457,(8, 73),4	1461,(8, 100),20	1525,(14, 46),16	1545,(14, 38),24	1625,(14, 189),4	1737,(14, 100),4	1777,(14, 29),56	2117,(7, 107),40	2269,(18, 113),40	2309,(14, 113),96	2769,(1, 76),36	3109,(1, 190),16	3241,(18, 190),148	3389,(3, 144),164	
1,(0, 19),20	81,(0, 2),20	161,(7, 48),4	165,(7, 90),12	197,(0, 3),20	217,(16, 43),4	221,(11, 138),4	225,(11, 142),4	233,(10, 119),4	241,(10, 51),4	245,(4, 159),8	253,(4, 85),4	257,(4, 66),8	265,(16, 88),16	281,(4, 88),24	305,(4, 59),16	325,(7, 61),4	337,(9, 111),4	341,(9, 119),4	349,(9, 123),4	353,(9, 61),4	361,(9, 41),12	373,(17, 127),8	385,(11, 49),16	401,(13, 195),4	405,(7, 41),24	437,(13, 127),4	449,(5, 85),12	477,(4, 187),4	489,(5, 59),28	517,(9, 49),36	553,(1, 127),16	569,(10, 167),52	629,(9, 187),12	721,(20, 119),4	725,(10, 25),28	753,(20, 123),4	785,(15, 195),4	789,(15, 72),4	793,(12, 50),4	797,(15, 159),4	801,(6, 43),4	805,(20, 41),4	809,(15, 66),16	825,(6, 61),16	841,(20, 50),24	865,(15, 50),4	869,(15, 59),8	877,(20, 127),4	881,(18, 71),4	885,(18, 198),4	889,(6, 158),4	897,(18, 106),4	905,(18, 142),4	909,(15, 158),20	929,(6, 25),8	941,(18, 123),12	989,(18, 41),4	997,(15, 116),8	1025,(18, 51),36	1061,(18, 158),4	1169,(20, 167),20	1213,(11, 99),24	1237,(7, 99),36	1281,(8, 72),4	1297,(8, 193),12	1373,(8, 51),16	1393,(8, 127),28	1421,(8, 158),36	1481,(20, 99),28	1521,(14, 174),4	1585,(15, 157),72	1661,(14, 41),12	1765,(14, 99),12	1901,(8, 25),68	2029,(1, 187),88	2221,(8, 157),48	2617,(7, 116),104	2721,(8, 116),48	
# Outgoing
1,(0, 19),20	21,(0, 16),20	41,(0, 10),20	61,(0, 4),20	81,(0, 2),20	101,(0, 17),20	121,(0, 9),20	141,(0, 13),20	161,(7, 48),4	165,(7, 90),12	177,(0, 5),20	197,(0, 3),20	217,(11, 109),4	221,(11, 138),4	225,(11, 142),4	229,(7, 168),16	245,(0, 12),20	265,(0, 15),20	285,(0, 6),20	305,(7, 171),4	309,(7, 103),8	317,(7, 67),4	321,(7, 186),4	325,(7, 61),4	329,(7, 169),4	337,(11, 21),8	345,(7, 21),12	357,(7, 165),24	381,(7, 42),4	385,(11, 49),16	405,(7, 41),24	429,(11, 33),8	437,(7, 29),12	449,(11, 40),8	457,(7, 153),4	465,(11, 130),4	481,(1, 182),8	489,(1, 168),4	493,(1, 140),4	497,(1, 135),4	501,(11, 179),8	509,(1, 40),4	513,(1, 37),20	545,(1, 179),4	549,(7, 134),4	553,(1, 127),16	581,(1, 153),36	617,(11, 120),40	657,(7, 92),24	697,(7, 100),24	721,(20, 119),4	725,(20, 67),4	729,(20, 180),4	733,(20, 108),12	745,(20, 136),8	753,(20, 123),4	757,(20, 21),4	761,(20, 98),4	765,(20, 35),8	773,(20, 117),20	793,(20, 110),8	801,(20, 151),4	805,(20, 41),4	809,(20, 189),24	833,(20, 107),4	837,(20, 64),4	841,(20, 50),24	865,(20, 155),8	873,(20, 172),4	877,(20, 127),4	881,(18, 71),4	885,(18, 198),4	889,(18, 62),4	893,(18, 47),4	897,(18, 106),4	901,(18, 63),4	905,(18, 142),4	909,(18, 148),16	925,(18, 87),16	941,(18, 123),12	953,(18, 35),4	957,(18, 141),32	989,(18, 41),4	993,(18, 132),32	1025,(18, 51),36	1061,(18, 158),4	1065,(20, 73),52	1117,(18, 92),20	1137,(1, 80),32	1169,(20, 167),20	1189,(18, 100),16	1205,(18, 112),8	1213,(11, 99),24	1237,(7, 99),36	1273,(18, 144),4	1281,(8, 72),4	1285,(8, 52),4	1289,(8, 160),4	1293,(8, 32),4	1297,(8, 193),12	1309,(8, 87),8	1317,(8, 78),28	1345,(8, 155),4	1349,(8, 53),24	1373,(8, 51),16	1389,(8, 172),4	1393,(8, 127),28	1421,(8, 158),36	1457,(8, 73),4	1461,(8, 100),20	1481,(20, 99),28	1509,(11, 55),12	1521,(14, 174),4	1525,(14, 46),16	1541,(14, 37),4	1545,(14, 38),24	1569,(14, 77),4	1573,(14, 173),24	1597,(14, 39),28	1625,(14, 189),4	1629,(14, 22),32	1661,(14, 41),12	1673,(14, 30),32	1705,(14, 44),32	1737,(14, 100),4	1741,(14, 112),24	1765,(14, 99),12	1777,(14, 29),56	1833,(14, 89),68	1901,(8, 25),68	1969,(8, 131),60	2029,(1, 187),88	2117,(7, 107),40	2157,(1, 130),64	2221,(8, 157),48	2269,(18, 113),40	2309,(14, 113),96	2405,(1, 143),96	2501,(18, 145),116	2617,(7, 116),104	2721,(8, 116),48	2769,(1, 76),36	2805,(18, 166),144	2949,(20, 122),48	2997,(18, 122),20	3017,(14, 122),44	3061,(11, 134),48	3109,(1, 190),16	3141,(1, 133),36	3177,(14, 133),64	3241,(18, 190),148	
241,(34, 201),4	245,(4, 159),8	253,(4, 85),4	257,(4, 66),8	265,(4, 102),4	281,(4, 88),24	305,(4, 59),16	321,(9, 137),8	329,(9, 68),8	337,(9, 111),4	341,(9, 119),4	345,(9, 86),4	349,(9, 123),4	353,(9, 61),4	357,(9, 194),4	361,(9, 41),12	373,(9, 144),4	381,(9, 110),20	401,(13, 195),4	405,(13, 86),4	409,(13, 101),8	417,(13, 77),4	421,(4, 151),12	433,(4, 44),4	437,(13, 127),4	441,(9, 163),16	457,(9, 40),20	477,(4, 187),4	481,(58, 201),4	505,(4, 146),8	517,(9, 49),36	561,(175, 201),4	597,(13, 40),32	629,(9, 187),12	641,(121, 201),4	645,(9, 57),52	721,(168, 201),4	745,(9, 26),24	801,(6, 43),4	805,(6, 180),4	809,(6, 60),16	825,(6, 61),16	841,(6, 146),4	845,(6, 156),4	849,(6, 178),4	853,(6, 29),28	881,(188, 201),4	885,(6, 166),4	889,(6, 158),4	893,(4, 36),36	929,(6, 25),8	961,(129, 201),4	965,(9, 146),48	1041,(197, 201),4	1121,(47, 201),4	1145,(13, 107),44	1201,(63, 201),4	1205,(4, 76),68	1281,(186, 201),4	1361,(135, 201),4	1373,(6, 190),20	1441,(108, 201),4	1521,(32, 201),4	1601,(94, 201),4	1681,(37, 201),4	1761,(87, 201),4	1841,(173, 201),4	1921,(176, 201),4	2001,(39, 201),4	2081,(28, 201),4	2161,(155, 201),4	2241,(42, 201),4	2321,(64, 201),4	2401,(153, 201),4	2481,(172, 201),4	2561,(96, 201),4	2641,(80, 201),4	2721,(179, 201),4	2801,(89, 201),4	2881,(131, 201),4	2965,(130, 201),4	3041,(145, 201),4	3045,(9, 133),96	3161,(122, 201),4	3269,(134, 201),4	3345,(9, 184),60	3525,(55, 201),4	3721,(6, 75),1040	
221,(177, 201),4	225,(10, 121),4	229,(10, 154),4	233,(10, 119),4	237,(10, 148),4	241,(10, 51),4	245,(10, 56),4	249,(10, 39),8	257,(10, 155),4	269,(10, 53),12	285,(10, 149),12	297,(10, 40),4	301,(17, 154),4	305,(17, 52),4	309,(17, 104),8	317,(17, 194),4	325,(17, 94),16	341,(17, 87),8	349,(17, 176),16	365,(10, 107),8	373,(17, 127),8	381,(114, 201),4	385,(10, 33),28	421,(10, 64),36	461,(137, 201),4	485,(17, 191),16	501,(17, 84),20	541,(109, 201),4	553,(17, 134),4	569,(10, 167),52	621,(115, 201),4	625,(17, 172),32	657,(17, 96),32	701,(182, 201),4	725,(10, 25),28	781,(15, 170),4	785,(15, 195),4	789,(15, 72),4	793,(15, 52),4	797,(15, 159),4	801,(15, 104),4	805,(15, 94),4	809,(15, 66),16	825,(15, 28),12	837,(15, 141),4	841,(15, 107),8	861,(82, 201),4	865,(15, 50),4	869,(15, 59),8	909,(15, 158),20	941,(140, 201),4	945,(10, 179),52	997,(15, 116),8	1021,(162, 201),4	1025,(17, 100),32	1057,(17, 131),40	1101,(171, 201),4	1117,(15, 40),28	1181,(103, 201),4	1185,(10, 130),28	1213,(15, 145),32	1261,(67, 201),4	1341,(86, 201),4	1421,(160, 201),4	1501,(136, 201),4	1581,(101, 201),4	1585,(15, 157),72	1661,(128, 201),4	1741,(77, 201),4	1821,(60, 201),4	1901,(117, 201),4	1981,(165, 201),4	2061,(110, 201),4	2141,(78, 201),4	2221,(22, 201),4	2301,(151, 201),4	2381,(30, 201),4	2461,(44, 201),4	2541,(120, 201),4	2621,(92, 201),4	2701,(112, 201),4	2781,(169, 201),4	2861,(36, 201),4	2941,(146, 201),4	2945,(10, 147),20	3021,(143, 201),4	3101,(166, 201),4	3105,(10, 161),56	3165,(15, 192),20	3189,(15, 55),100	3313,(17, 75),28	3341,(133, 201),4	3529,(10, 65),80	3637,(10, 192),84	
201,(93, 201),4	205,(16, 137),4	209,(16, 94),4	213,(16, 78),4	217,(16, 43),4	221,(16, 182),12	233,(16, 151),20	253,(16, 26),8	265,(16, 88),16	281,(31, 201),4	297,(16, 23),12	309,(16, 65),8	361,(95, 201),4	441,(5, 109),4	445,(5, 162),4	449,(5, 85),12	461,(5, 28),4	465,(5, 185),4	469,(5, 155),20	489,(5, 59),28	521,(24, 201),4	529,(5, 152),12	541,(5, 172),4	545,(16, 36),20	565,(5, 147),16	601,(68, 201),4	681,(154, 201),4	689,(16, 80),24	713,(16, 89),20	761,(12, 77),8	769,(12, 60),4	773,(12, 176),16	789,(12, 84),4	793,(12, 50),4	797,(5, 74),20	817,(12, 130),4	841,(45, 201),4	845,(12, 96),20	921,(118, 201),4	1001,(150, 201),4	1081,(62, 201),4	1161,(105, 201),4	1241,(124, 201),4	1321,(180, 201),4	1401,(52, 201),4	1405,(16, 122),60	1481,(148, 201),4	1561,(104, 201),4	1641,(46, 201),4	1721,(38, 201),4	1801,(102, 201),4	1881,(21, 201),4	1961,(98, 201),4	2041,(189, 201),4	2121,(35, 201),4	2201,(141, 201),4	2281,(53, 201),4	2361,(132, 201),4	2441,(33, 201),4	2521,(57, 201),4	2601,(73, 201),4	2681,(100, 201),4	2761,(29, 201),4	2841,(40, 201),4	2921,(107, 201),4	3001,(113, 201),4	3081,(76, 201),4	3273,(16, 184),40	3405,(5, 75),28	3469,(190, 201),4	3633,(144, 201),4	
101,(19, 34),20	121,(19, 115),4	125,(19, 128),12	137,(19, 102),20	157,(19, 98),4	161,(19, 32),8	169,(19, 80),4	173,(19, 40),4	177,(19, 166),4	181,(2, 115),4	185,(2, 117),4	197,(2, 105),4	201,(2, 73),4	205,(2, 54),4	209,(2, 35),20	229,(2, 156),4	233,(2, 178),4	237,(2, 69),4	241,(19, 76),4	261,(183, 201),4	281,(2, 132),12	293,(2, 112),12	321,(19, 147),20	341,(48, 201),4	357,(19, 190),8	385,(2, 42),36	421,(90, 201),4	501,(3, 115),4	505,(3, 124),4	509,(3, 135),4	513,(3, 104),12	525,(3, 83),4	529,(3, 30),4	533,(3, 173),8	541,(3, 98),20	561,(3, 28),20	581,(70, 201),4	585,(3, 33),12	597,(3, 143),8	605,(3, 65),12	617,(3, 179),4	661,(111, 201),4	681,(2, 169),44	741,(138, 201),4	821,(119, 201),4	901,(195, 201),4	981,(71, 201),4	1061,(198, 201),4	1141,(106, 201),4	1221,(43, 201),4	1301,(142, 201),4	1305,(3, 76),44	1381,(72, 201),4	1461,(159, 201),4	1541,(193, 201),4	1621,(174, 201),4	1701,(85, 201),4	1781,(123, 201),4	1861,(66, 201),4	1941,(61, 201),4	2021,(50, 201),4	2101,(88, 201),4	2181,(59, 201),4	2261,(49, 201),4	2341,(41, 201),4	2421,(51, 201),4	2501,(127, 201),4	2581,(158, 201),4	2661,(167, 201),4	2741,(99, 201),4	2821,(25, 201),4	2901,(187, 201),4	2981,(157, 201),4	3061,(116, 201),4	3109,(2, 134),80	3189,(3, 69),68	3389,(3, 144),164	
