1434
# CPU
0,0,1	1,2,176	177,13,176	445,5,176	841,14,176	1233,19,176	1433,21,1	
13,1,176	189,18,176	365,3,176	541,8,176	717,15,176	893,6,176	1069,9,176	1245,7,176	
181,4,176	421,20,176	837,10,176	
193,12,176	581,17,176	
253,16,176	589,11,176	





# Incoming
357,(4, 21),12	369,(18, 21),12	381,(12, 21),12	393,(1, 5),4	429,(16, 21),12	541,(3, 21),12	597,(20, 21),12	609,(1, 14),60	717,(8, 21),12	757,(17, 21),12	769,(11, 21),12	893,(15, 21),12	1013,(10, 21),12	1069,(6, 21),12	1081,(1, 19),152	1245,(9, 21),12	1421,(7, 21),12	
1,(0, 1),12	
177,(2, 4),4	253,(2, 20),32	397,(1, 20),24	729,(1, 10),108	
181,(2, 12),12	421,(1, 17),28	
193,(2, 16),60	449,(1, 11),36	





# Outgoing
1,(0, 1),12	177,(2, 4),4	181,(2, 12),12	193,(2, 16),60	253,(2, 20),32	
369,(18, 21),12	393,(1, 5),4	397,(1, 20),24	421,(1, 17),28	449,(1, 11),36	541,(3, 21),12	609,(1, 14),60	717,(8, 21),12	729,(1, 10),108	893,(15, 21),12	1069,(6, 21),12	1081,(1, 19),152	1245,(9, 21),12	1421,(7, 21),12	
357,(4, 21),12	597,(20, 21),12	1013,(10, 21),12	
381,(12, 21),12	757,(17, 21),12	
429,(16, 21),12	769,(11, 21),12	





