290
# CPU
0,41,1	1,6,12	13,7,12	25,39,12	37,34,12	49,28,12	61,16,12	73,27,12	85,29,12	97,24,12	109,17,12	121,25,12	133,40,12	145,14,12	157,38,12	169,21,12	181,10,12	193,11,12	205,33,12	217,23,12	229,15,12	241,32,12	253,2,12	265,1,12	277,4,12	289,0,1	
17,5,12	33,37,12	49,12,12	65,36,12	81,26,12	97,35,12	113,30,12	129,19,12	145,13,12	161,20,12	177,8,12	193,18,12	209,22,12	225,9,12	241,31,12	253,3,12	
# Incoming
109,(35, 2),2	111,(26, 1),1	112,(12, 4),1	113,(36, 4),1	125,(30, 2),2	127,(30, 4),5	141,(19, 1),5	157,(13, 2),7	173,(20, 1),7	189,(8, 1),10	205,(18, 1),13	237,(9, 4),38	275,(3, 0),1	
1,(41, 5),16	17,(41, 37),16	33,(41, 12),16	49,(41, 36),16	65,(41, 26),16	81,(41, 35),16	97,(41, 30),16	113,(41, 19),16	129,(41, 13),16	145,(41, 20),16	161,(41, 8),16	177,(41, 18),16	193,(41, 22),16	209,(41, 9),16	225,(41, 31),16	241,(6, 3),1	242,(29, 3),2	244,(21, 3),7	
# Outgoing
1,(41, 5),16	17,(41, 37),16	33,(41, 12),16	49,(41, 36),16	65,(41, 26),16	81,(41, 35),16	97,(41, 30),16	113,(41, 19),16	129,(41, 13),16	145,(41, 20),16	161,(41, 8),16	177,(41, 18),16	193,(41, 22),16	209,(41, 9),16	225,(41, 31),16	241,(6, 3),1	242,(29, 3),2	244,(21, 3),7	
109,(35, 2),2	111,(26, 1),1	112,(12, 4),1	113,(36, 4),1	125,(30, 2),2	127,(30, 4),5	141,(19, 1),5	157,(13, 2),7	173,(20, 1),7	189,(8, 1),10	205,(18, 1),13	237,(9, 4),38	275,(3, 0),1	
