13382
# CPU
139,50,1	1647,109,1	5843,185,1	8111,27,1	8709,40,1	8775,154,1	8801,168,1	8849,42,1	8925,51,1	9107,71,1	9115,136,1	9347,165,1	9387,187,1	9693,88,1	10605,179,1	11061,197,1	11329,59,1	11357,101,1	11391,108,1	11539,123,1	11651,58,1	11901,73,1	11913,98,1	11915,134,1	12095,164,1	12113,60,1	12201,62,1	12203,63,1	12221,68,1	12229,77,1	12317,100,1	12425,131,1	12427,142,1	12449,199,1	12471,105,1	12529,106,1	12537,116,1	12547,140,1	12695,143,1	12697,144,1	13381,201,1	
0,0,1	1,6,1	2,15,1	3,4,1	4,1,1	5,17,1	6,102,1	7,171,1	8,153,1	29,57,1	75,99,1	127,192,1	131,79,1	143,121,1	153,145,1	165,28,1	173,34,1	185,41,1	187,137,1	189,103,1	191,119,1	195,184,1	197,172,1	199,198,1	205,31,1	211,125,1	215,178,1	219,26,1	237,90,1	289,47,1	291,151,1	293,65,1	313,75,1	325,104,1	329,146,1	339,157,1	345,177,1	367,25,1	377,89,1	379,156,1	381,189,1	
5,3,1	11,8,1	17,11,1	18,81,1	19,83,1	20,87,1	21,84,1	22,12,1	23,13,1	24,111,1	25,163,1	26,174,1	27,67,1	28,166,1	29,93,1	37,30,1	45,38,1	113,29,1	135,91,1	137,86,1	177,92,1	209,117,1	223,74,1	503,78,1	3447,149,1	4105,180,1	5165,54,1	5287,183,1	5311,43,1	5481,124,1	5493,129,1	5495,132,1	5845,200,1	5869,173,1	5885,39,1	5907,48,1	5925,112,1	5973,138,1	5987,150,1	6005,158,1	
3,2,1	4,49,1	13,9,1	14,126,1	15,148,1	21,190,1	23,14,1	24,114,1	27,18,1	31,20,1	32,24,1	33,159,1	34,175,1	45,32,1	57,64,1	67,170,1	89,35,1	97,122,1	111,36,1	127,46,1	137,52,1	149,194,1	185,44,1	223,37,1	265,130,1	267,33,1	327,107,1	1653,113,1	5213,66,1	5225,94,1	5259,147,1	5281,155,1	5313,56,1	5507,139,1	5847,95,1	5849,97,1	5871,181,1	5895,45,1	5923,96,1	5975,141,1	
7,5,1	8,70,1	9,7,1	10,118,1	11,161,1	15,10,1	16,23,1	17,85,1	25,16,1	26,182,1	29,19,1	30,76,1	31,110,1	32,133,1	33,21,1	97,72,1	115,191,1	133,82,1	139,186,1	195,152,1	245,162,1	247,176,1	269,55,1	271,80,1	285,196,1	361,195,1	3517,167,1	5217,69,1	5237,128,1	5307,22,1	5471,115,1	5479,120,1	5521,160,1	5839,169,1	5853,135,1	5881,188,1	5883,193,1	5909,53,1	5919,61,1	5951,127,1	
# Incoming
45,(6, 42),72	117,(2, 77),2	119,(2, 109),4	123,(2, 136),2	125,(2, 142),2	127,(6, 50),8	135,(3, 144),2	137,(5, 50),2	139,(6, 60),326	465,(6, 63),2	467,(49, 201),6	473,(3, 185),4	477,(5, 106),6	483,(5, 154),2	485,(9, 142),2	487,(6, 77),2	489,(70, 201),6	495,(7, 101),6	501,(9, 179),2	503,(6, 98),36	539,(6, 108),1042	1581,(6, 109),66	1647,(7, 187),4	1651,(10, 101),2	1653,(6, 123),994	2647,(6, 131),16	2663,(118, 201),6	2669,(161, 201),6	2675,(10, 63),4	2679,(6, 136),676	3355,(6, 140),76	3431,(6, 142),12	3443,(6, 143),2	3445,(3, 108),22	3467,(10, 154),2	3469,(11, 40),2	3471,(6, 164),4	3475,(6, 165),30	3505,(9, 42),10	3515,(14, 51),2	3517,(6, 168),550	4067,(6, 179),22	4089,(8, 108),14	4103,(14, 116),2	4105,(6, 185),30	4135,(7, 68),18	4153,(14, 142),2	4155,(15, 27),68	4223,(15, 51),940	5163,(14, 164),2	5165,(15, 59),4	5169,(15, 63),42	5211,(126, 201),6	5217,(15, 73),2	5219,(148, 201),6	5225,(15, 116),4	5229,(10, 116),8	5237,(15, 134),4	5241,(3, 101),28	5269,(7, 77),18	5287,(15, 185),14	5301,(9, 98),12	5313,(4, 71),38	5351,(4, 100),118	5469,(2, 134),48	5517,(14, 60),4	5521,(4, 164),312	5833,(23, 201),6	5839,(4, 185),4	5843,(2, 105),72	5915,(2, 106),200	6115,(1, 62),6	6121,(1, 63),4	6125,(1, 68),28	6153,(1, 71),42	6195,(1, 77),94	6289,(1, 116),64	6353,(1, 154),184	6537,(1, 197),2	6539,(1, 199),6	6545,(3, 77),372	6917,(3, 116),58	6975,(3, 134),70	7045,(3, 143),22	7067,(3, 187),52	7119,(3, 197),44	7163,(17, 58),70	7233,(17, 88),40	7273,(17, 98),62	7335,(17, 105),20	7355,(17, 131),60	7415,(17, 136),6	7421,(17, 142),6	7427,(17, 144),2	7429,(102, 201),6	7435,(5, 108),156	7591,(5, 134),54	7645,(5, 179),424	8069,(171, 201),6	8075,(153, 201),6	8081,(7, 27),30	8111,(7, 40),28	8139,(7, 73),320	8459,(8, 40),250	8709,(8, 63),38	8747,(8, 154),28	8775,(9, 168),26	8801,(9, 199),32	8833,(10, 42),16	8849,(10, 51),76	8925,(10, 60),10	8935,(10, 131),16	8951,(10, 136),22	8973,(10, 142),8	8981,(11, 59),54	9035,(11, 62),52	9087,(11, 71),20	9107,(11, 136),8	9115,(11, 140),8	9123,(11, 144),80	9203,(11, 165),144	9347,(11, 187),40	9387,(11, 199),86	9473,(85, 201),6	9479,(81, 201),6	9485,(83, 201),6	9491,(87, 201),6	9497,(190, 201),6	9503,(84, 201),6	9509,(12, 62),8	9517,(12, 108),20	9537,(14, 88),156	9693,(14, 131),712	10405,(14, 144),76	10481,(14, 179),2	10483,(13, 68),78	10561,(13, 100),4	10565,(13, 131),8	10573,(13, 179),32	10605,(13, 197),456	11061,(13, 199),6	11067,(111, 201),6	11073,(114, 201),6	11079,(16, 59),250	11329,(16, 101),28	11357,(16, 105),28	11385,(16, 106),4	11389,(16, 108),2	11391,(16, 123),148	11539,(16, 140),12	11551,(16, 164),8	11559,(163, 201),6	11565,(174, 201),6	11571,(182, 201),6	11577,(18, 58),74	11651,(18, 60),78	11729,(18, 73),172	11901,(18, 98),12	11913,(18, 134),2	11915,(18, 143),152	12067,(18, 164),28	12095,(18, 199),2	12097,(67, 201),6	12103,(166, 201),6	12109,(19, 60),4	12113,(19, 62),88	12201,(19, 63),2	12203,(19, 68),18	12221,(19, 77),8	12229,(19, 100),88	12317,(19, 131),108	12425,(19, 142),2	12427,(19, 199),22	12449,(57, 201),6	12455,(93, 201),6	12461,(76, 201),6	12467,(20, 105),4	12471,(20, 106),58	12529,(20, 116),8	12537,(20, 140),10	12547,(20, 143),148	12695,(20, 144),2	12697,(110, 201),6	12703,(24, 201),6	12709,(133, 201),6	12715,(21, 201),6	12721,(159, 201),6	12727,(175, 201),6	12733,(30, 201),6	12739,(32, 201),6	12745,(38, 201),6	12751,(64, 201),6	12757,(170, 201),6	12763,(99, 201),6	12769,(35, 201),6	12775,(122, 201),6	12781,(72, 201),6	12787,(36, 201),6	12793,(29, 201),6	12799,(191, 201),6	12805,(46, 201),6	12811,(192, 201),6	12817,(79, 201),6	12823,(82, 201),6	12829,(91, 201),6	12835,(86, 201),6	12841,(52, 201),6	12847,(186, 201),6	12853,(121, 201),6	12859,(194, 201),6	12865,(145, 201),6	12871,(28, 201),6	12877,(34, 201),6	12883,(92, 201),6	12889,(44, 201),6	12895,(41, 201),6	12901,(137, 201),6	12907,(103, 201),6	12913,(119, 201),6	12919,(152, 201),6	12925,(184, 201),6	12931,(172, 201),6	12937,(198, 201),6	12943,(31, 201),6	12949,(117, 201),6	12955,(125, 201),6	12961,(178, 201),6	12967,(26, 201),6	12973,(37, 201),6	12979,(74, 201),6	12985,(90, 201),6	12991,(162, 201),6	12997,(176, 201),6	13003,(130, 201),6	13009,(33, 201),6	13015,(55, 201),6	13021,(80, 201),6	13027,(196, 201),6	13033,(47, 201),6	13039,(151, 201),6	13045,(65, 201),6	13051,(75, 201),6	13057,(104, 201),6	13063,(107, 201),6	13069,(146, 201),6	13075,(157, 201),6	13081,(177, 201),6	13087,(195, 201),6	13093,(25, 201),6	13099,(89, 201),6	13105,(156, 201),6	13111,(189, 201),6	13117,(78, 201),6	13123,(113, 201),6	13129,(149, 201),6	13135,(167, 201),6	13141,(180, 201),6	13147,(54, 201),6	13153,(66, 201),6	13159,(69, 201),6	13165,(94, 201),6	13171,(128, 201),6	13177,(147, 201),6	13183,(155, 201),6	13189,(183, 201),6	13195,(22, 201),6	13201,(43, 201),6	13207,(56, 201),6	13213,(115, 201),6	13219,(120, 201),6	13225,(124, 201),6	13231,(129, 201),6	13237,(132, 201),6	13243,(139, 201),6	13249,(160, 201),6	13255,(169, 201),6	13261,(200, 201),6	13267,(95, 201),6	13273,(97, 201),6	13279,(135, 201),6	13285,(173, 201),6	13291,(181, 201),6	13297,(188, 201),6	13303,(193, 201),6	13309,(39, 201),6	13315,(45, 201),6	13321,(48, 201),6	13327,(53, 201),6	13333,(61, 201),6	13339,(96, 201),6	13345,(112, 201),6	13351,(127, 201),6	13357,(138, 201),6	13363,(141, 201),6	13369,(150, 201),6	13375,(158, 201),6	
13,(2, 47),4	17,(2, 57),12	29,(5, 47),12	41,(5, 79),2	43,(5, 89),2	53,(2, 156),10	67,(3, 178),2	73,(5, 99),2	75,(2, 172),24	99,(5, 119),4	103,(5, 121),4	107,(5, 125),2	109,(5, 172),2	111,(5, 177),2	113,(7, 178),2	115,(8, 192),6	121,(10, 25),2	125,(11, 192),2	127,(9, 47),2	129,(9, 79),2	131,(9, 121),12	143,(9, 137),2	145,(12, 172),2	147,(13, 47),2	149,(10, 65),2	151,(10, 145),2	153,(10, 172),4	157,(10, 178),2	159,(16, 31),2	161,(16, 47),2	163,(14, 28),2	165,(14, 34),8	173,(11, 89),10	183,(14, 41),2	185,(14, 137),2	187,(19, 103),2	189,(19, 119),2	191,(19, 178),2	193,(19, 184),2	195,(14, 172),2	197,(14, 198),2	199,(18, 31),6	205,(18, 90),2	209,(18, 125),2	211,(18, 178),4	215,(18, 189),2	217,(20, 26),2	223,(19, 90),14	243,(12, 47),18	261,(19, 47),28	289,(20, 151),2	291,(13, 65),2	293,(13, 75),20	313,(13, 104),12	325,(20, 146),4	329,(13, 157),10	339,(13, 177),6	345,(20, 25),22	367,(20, 89),10	377,(20, 156),2	379,(20, 189),2	
3,(0, 3),2	9,(0, 8),2	11,(5, 29),2	15,(0, 11),2	17,(0, 12),2	19,(0, 13),2	21,(5, 93),4	25,(5, 129),2	31,(2, 173),4	35,(6, 30),2	37,(6, 38),8	45,(5, 48),12	57,(5, 78),16	75,(7, 124),2	97,(7, 180),2	99,(9, 29),2	109,(9, 124),2	111,(14, 29),2	113,(14, 39),2	115,(10, 138),6	123,(10, 54),10	133,(16, 91),2	135,(19, 86),2	145,(9, 150),18	163,(19, 39),6	169,(19, 150),2	171,(19, 158),2	173,(14, 78),2	175,(14, 92),2	177,(14, 180),2	179,(18, 54),4	207,(18, 117),2	219,(20, 74),4	247,(20, 39),20	271,(20, 129),12	489,(6, 78),14	3445,(6, 149),2	4089,(6, 180),16	4151,(6, 200),4	5163,(15, 54),2	5281,(15, 183),6	5307,(4, 43),4	5479,(4, 124),2	5481,(4, 129),12	5493,(4, 132),2	5843,(4, 200),2	5853,(1, 158),2	5855,(1, 173),14	5883,(17, 39),2	5895,(17, 48),12	5923,(17, 112),2	5951,(17, 138),22	5975,(17, 150),12	5987,(17, 158),18	
1,(0, 2),2	11,(0, 9),2	13,(5, 32),2	15,(5, 139),2	17,(5, 170),2	19,(5, 190),2	21,(0, 14),2	25,(0, 18),2	27,(7, 96),2	29,(0, 20),2	31,(3, 32),14	45,(3, 64),12	61,(3, 170),6	69,(3, 181),8	77,(5, 147),8	85,(7, 35),4	89,(7, 107),6	95,(7, 122),2	97,(8, 107),2	99,(8, 141),2	101,(11, 36),10	111,(11, 96),2	117,(6, 46),10	133,(12, 181),2	135,(6, 52),2	137,(6, 56),2	139,(7, 194),10	149,(8, 37),24	173,(10, 44),12	185,(11, 95),16	201,(16, 56),4	205,(16, 181),16	221,(19, 37),2	223,(12, 33),20	243,(19, 33),6	261,(12, 130),4	265,(13, 33),2	267,(13, 56),24	325,(13, 107),2	327,(13, 155),2	345,(13, 181),4	467,(6, 66),20	1647,(6, 113),6	3447,(6, 155),24	5211,(15, 66),2	5219,(15, 94),6	5243,(15, 139),2	5245,(15, 147),14	5259,(15, 155),22	5311,(4, 56),2	5495,(4, 139),12	5845,(1, 95),2	5847,(1, 97),2	5869,(1, 181),2	5885,(17, 45),10	5919,(17, 96),4	5973,(17, 141),2	
5,(0, 5),2	7,(0, 7),2	9,(2, 21),4	13,(0, 10),2	23,(0, 16),2	27,(0, 19),2	29,(2, 135),2	31,(6, 21),2	33,(6, 22),2	35,(2, 61),6	41,(2, 120),12	57,(3, 127),4	63,(2, 162),12	77,(3, 196),4	81,(8, 61),4	85,(11, 69),10	95,(11, 72),2	101,(9, 69),8	113,(11, 191),2	115,(14, 193),2	121,(11, 176),4	127,(12, 80),4	131,(12, 82),2	137,(12, 186),2	187,(14, 152),8	201,(11, 196),22	223,(18, 127),16	239,(18, 162),6	245,(18, 176),2	267,(20, 55),2	269,(20, 80),2	283,(20, 196),2	291,(20, 160),20	349,(13, 195),12	2663,(6, 135),16	3505,(6, 167),12	4135,(6, 193),16	5213,(15, 69),4	5229,(15, 128),8	5241,(15, 135),2	5301,(15, 188),2	5303,(15, 193),2	5305,(4, 22),2	5469,(4, 115),2	5471,(4, 120),8	5507,(4, 160),14	5833,(4, 169),6	5849,(1, 135),4	5871,(1, 188),10	5881,(1, 193),2	5907,(17, 53),2	5909,(17, 61),10	5925,(17, 127),26	
# Outgoing

1,(0, 2),2	3,(0, 3),2	5,(0, 5),2	7,(0, 7),2	9,(0, 8),2	11,(0, 9),2	13,(0, 10),2	15,(0, 11),2	17,(0, 12),2	19,(0, 13),2	21,(0, 14),2	23,(0, 16),2	25,(0, 18),2	27,(0, 19),2	29,(0, 20),2	31,(6, 21),2	33,(6, 22),2	35,(6, 30),2	37,(6, 38),8	45,(6, 42),72	117,(6, 46),10	127,(6, 50),8	135,(6, 52),2	137,(6, 56),2	139,(6, 60),326	465,(6, 63),2	467,(6, 66),20	487,(6, 77),2	489,(6, 78),14	503,(6, 98),36	539,(6, 108),1042	1581,(6, 109),66	1647,(6, 113),6	1653,(6, 123),994	2647,(6, 131),16	2663,(6, 135),16	2679,(6, 136),676	3355,(6, 140),76	3431,(6, 142),12	3443,(6, 143),2	3445,(6, 149),2	3447,(6, 155),24	3471,(6, 164),4	3475,(6, 165),30	3505,(6, 167),12	3517,(6, 168),550	4067,(6, 179),22	4089,(6, 180),16	4105,(6, 185),30	4135,(6, 193),16	4151,(6, 200),4	4155,(15, 27),68	4223,(15, 51),940	5163,(15, 54),2	5165,(15, 59),4	5169,(15, 63),42	5211,(15, 66),2	5213,(15, 69),4	5217,(15, 73),2	5219,(15, 94),6	5225,(15, 116),4	5229,(15, 128),8	5237,(15, 134),4	5241,(15, 135),2	5243,(15, 139),2	5245,(15, 147),14	5259,(15, 155),22	5281,(15, 183),6	5287,(15, 185),14	5301,(15, 188),2	5303,(15, 193),2	5305,(4, 22),2	5307,(4, 43),4	5311,(4, 56),2	5313,(4, 71),38	5351,(4, 100),118	5469,(4, 115),2	5471,(4, 120),8	5479,(4, 124),2	5481,(4, 129),12	5493,(4, 132),2	5495,(4, 139),12	5507,(4, 160),14	5521,(4, 164),312	5833,(4, 169),6	5839,(4, 185),4	5843,(4, 200),2	5845,(1, 95),2	5847,(1, 97),2	5849,(1, 135),4	5853,(1, 158),2	5855,(1, 173),14	5869,(1, 181),2	5871,(1, 188),10	5881,(1, 193),2	5883,(17, 39),2	5885,(17, 45),10	5895,(17, 48),12	5907,(17, 53),2	5909,(17, 61),10	5919,(17, 96),4	5923,(17, 112),2	5925,(17, 127),26	5951,(17, 138),22	5973,(17, 141),2	5975,(17, 150),12	5987,(17, 158),18	6115,(1, 62),6	6121,(1, 63),4	6125,(1, 68),28	6153,(1, 71),42	6195,(1, 77),94	6289,(1, 116),64	6353,(1, 154),184	6537,(1, 197),2	6539,(1, 199),6	7163,(17, 58),70	7233,(17, 88),40	7273,(17, 98),62	7335,(17, 105),20	7355,(17, 131),60	7415,(17, 136),6	7421,(17, 142),6	7427,(17, 144),2	7429,(102, 201),6	8069,(171, 201),6	8075,(153, 201),6	12449,(57, 201),6	12763,(99, 201),6	12811,(192, 201),6	12817,(79, 201),6	12853,(121, 201),6	12865,(145, 201),6	12871,(28, 201),6	12877,(34, 201),6	12895,(41, 201),6	12901,(137, 201),6	12907,(103, 201),6	12913,(119, 201),6	12925,(184, 201),6	12931,(172, 201),6	12937,(198, 201),6	12943,(31, 201),6	12955,(125, 201),6	12961,(178, 201),6	12967,(26, 201),6	12985,(90, 201),6	13033,(47, 201),6	13039,(151, 201),6	13045,(65, 201),6	13051,(75, 201),6	13057,(104, 201),6	13069,(146, 201),6	13075,(157, 201),6	13081,(177, 201),6	13093,(25, 201),6	13099,(89, 201),6	13105,(156, 201),6	13111,(189, 201),6	
31,(3, 32),14	45,(3, 64),12	57,(3, 127),4	61,(3, 170),6	67,(3, 178),2	69,(3, 181),8	77,(3, 196),4	81,(8, 61),4	85,(11, 69),10	95,(11, 72),2	97,(8, 107),2	99,(8, 141),2	101,(11, 36),10	111,(11, 96),2	113,(11, 191),2	115,(8, 192),6	121,(11, 176),4	125,(11, 192),2	127,(12, 80),4	131,(12, 82),2	133,(12, 181),2	135,(3, 144),2	137,(12, 186),2	145,(12, 172),2	147,(13, 47),2	149,(8, 37),24	173,(11, 89),10	185,(11, 95),16	201,(11, 196),22	223,(12, 33),20	243,(12, 47),18	261,(12, 130),4	265,(13, 33),2	267,(13, 56),24	291,(13, 65),2	293,(13, 75),20	313,(13, 104),12	325,(13, 107),2	327,(13, 155),2	329,(13, 157),10	339,(13, 177),6	345,(13, 181),4	349,(13, 195),12	473,(3, 185),4	3445,(3, 108),22	3469,(11, 40),2	4089,(8, 108),14	5241,(3, 101),28	6545,(3, 77),372	6917,(3, 116),58	6975,(3, 134),70	7045,(3, 143),22	7067,(3, 187),52	7119,(3, 197),44	8459,(8, 40),250	8709,(8, 63),38	8747,(8, 154),28	8981,(11, 59),54	9035,(11, 62),52	9087,(11, 71),20	9107,(11, 136),8	9115,(11, 140),8	9123,(11, 144),80	9203,(11, 165),144	9347,(11, 187),40	9387,(11, 199),86	9479,(81, 201),6	9485,(83, 201),6	9491,(87, 201),6	9503,(84, 201),6	9509,(12, 62),8	9517,(12, 108),20	10483,(13, 68),78	10561,(13, 100),4	10565,(13, 131),8	10573,(13, 179),32	10605,(13, 197),456	11061,(13, 199),6	11067,(111, 201),6	11559,(163, 201),6	11565,(174, 201),6	12097,(67, 201),6	12103,(166, 201),6	12455,(93, 201),6	12733,(30, 201),6	12745,(38, 201),6	12793,(29, 201),6	12829,(91, 201),6	12835,(86, 201),6	12883,(92, 201),6	12949,(117, 201),6	12979,(74, 201),6	13117,(78, 201),6	13129,(149, 201),6	13141,(180, 201),6	13147,(54, 201),6	13189,(183, 201),6	13201,(43, 201),6	13225,(124, 201),6	13231,(129, 201),6	13237,(132, 201),6	13261,(200, 201),6	13285,(173, 201),6	13309,(39, 201),6	13321,(48, 201),6	13345,(112, 201),6	13357,(138, 201),6	13369,(150, 201),6	13375,(158, 201),6	
9,(2, 21),4	13,(2, 47),4	17,(2, 57),12	29,(2, 135),2	31,(2, 173),4	35,(2, 61),6	41,(2, 120),12	53,(2, 156),10	63,(2, 162),12	75,(2, 172),24	99,(9, 29),2	101,(9, 69),8	109,(9, 124),2	111,(14, 29),2	113,(14, 39),2	115,(14, 193),2	117,(2, 77),2	119,(2, 109),4	123,(2, 136),2	125,(2, 142),2	127,(9, 47),2	129,(9, 79),2	131,(9, 121),12	143,(9, 137),2	145,(9, 150),18	163,(14, 28),2	165,(14, 34),8	173,(14, 78),2	175,(14, 92),2	177,(14, 180),2	179,(18, 54),4	183,(14, 41),2	185,(14, 137),2	187,(14, 152),8	195,(14, 172),2	197,(14, 198),2	199,(18, 31),6	205,(18, 90),2	207,(18, 117),2	209,(18, 125),2	211,(18, 178),4	215,(18, 189),2	217,(20, 26),2	219,(20, 74),4	223,(18, 127),16	239,(18, 162),6	245,(18, 176),2	247,(20, 39),20	267,(20, 55),2	269,(20, 80),2	271,(20, 129),12	283,(20, 196),2	289,(20, 151),2	291,(20, 160),20	325,(20, 146),4	345,(20, 25),22	367,(20, 89),10	377,(20, 156),2	379,(20, 189),2	467,(49, 201),6	485,(9, 142),2	501,(9, 179),2	3505,(9, 42),10	3515,(14, 51),2	4103,(14, 116),2	4153,(14, 142),2	5163,(14, 164),2	5211,(126, 201),6	5219,(148, 201),6	5301,(9, 98),12	5469,(2, 134),48	5517,(14, 60),4	5843,(2, 105),72	5915,(2, 106),200	8775,(9, 168),26	8801,(9, 199),32	9497,(190, 201),6	9537,(14, 88),156	9693,(14, 131),712	10405,(14, 144),76	10481,(14, 179),2	11073,(114, 201),6	11577,(18, 58),74	11651,(18, 60),78	11729,(18, 73),172	11901,(18, 98),12	11913,(18, 134),2	11915,(18, 143),152	12067,(18, 164),28	12095,(18, 199),2	12467,(20, 105),4	12471,(20, 106),58	12529,(20, 116),8	12537,(20, 140),10	12547,(20, 143),148	12695,(20, 144),2	12703,(24, 201),6	12721,(159, 201),6	12727,(175, 201),6	12739,(32, 201),6	12751,(64, 201),6	12757,(170, 201),6	12769,(35, 201),6	12775,(122, 201),6	12787,(36, 201),6	12805,(46, 201),6	12841,(52, 201),6	12859,(194, 201),6	12889,(44, 201),6	12973,(37, 201),6	13003,(130, 201),6	13009,(33, 201),6	13063,(107, 201),6	13123,(113, 201),6	13153,(66, 201),6	13165,(94, 201),6	13177,(147, 201),6	13183,(155, 201),6	13207,(56, 201),6	13243,(139, 201),6	13267,(95, 201),6	13273,(97, 201),6	13291,(181, 201),6	13315,(45, 201),6	13339,(96, 201),6	13363,(141, 201),6	
11,(5, 29),2	13,(5, 32),2	15,(5, 139),2	17,(5, 170),2	19,(5, 190),2	21,(5, 93),4	25,(5, 129),2	27,(7, 96),2	29,(5, 47),12	41,(5, 79),2	43,(5, 89),2	45,(5, 48),12	57,(5, 78),16	73,(5, 99),2	75,(7, 124),2	77,(5, 147),8	85,(7, 35),4	89,(7, 107),6	95,(7, 122),2	97,(7, 180),2	99,(5, 119),4	103,(5, 121),4	107,(5, 125),2	109,(5, 172),2	111,(5, 177),2	113,(7, 178),2	115,(10, 138),6	121,(10, 25),2	123,(10, 54),10	133,(16, 91),2	135,(19, 86),2	137,(5, 50),2	139,(7, 194),10	149,(10, 65),2	151,(10, 145),2	153,(10, 172),4	157,(10, 178),2	159,(16, 31),2	161,(16, 47),2	163,(19, 39),6	169,(19, 150),2	171,(19, 158),2	173,(10, 44),12	187,(19, 103),2	189,(19, 119),2	191,(19, 178),2	193,(19, 184),2	201,(16, 56),4	205,(16, 181),16	221,(19, 37),2	223,(19, 90),14	243,(19, 33),6	261,(19, 47),28	477,(5, 106),6	483,(5, 154),2	489,(70, 201),6	495,(7, 101),6	1647,(7, 187),4	1651,(10, 101),2	2663,(118, 201),6	2669,(161, 201),6	2675,(10, 63),4	3467,(10, 154),2	4135,(7, 68),18	5229,(10, 116),8	5269,(7, 77),18	5833,(23, 201),6	7435,(5, 108),156	7591,(5, 134),54	7645,(5, 179),424	8081,(7, 27),30	8111,(7, 40),28	8139,(7, 73),320	8833,(10, 42),16	8849,(10, 51),76	8925,(10, 60),10	8935,(10, 131),16	8951,(10, 136),22	8973,(10, 142),8	9473,(85, 201),6	11079,(16, 59),250	11329,(16, 101),28	11357,(16, 105),28	11385,(16, 106),4	11389,(16, 108),2	11391,(16, 123),148	11539,(16, 140),12	11551,(16, 164),8	11571,(182, 201),6	12109,(19, 60),4	12113,(19, 62),88	12201,(19, 63),2	12203,(19, 68),18	12221,(19, 77),8	12229,(19, 100),88	12317,(19, 131),108	12425,(19, 142),2	12427,(19, 199),22	12461,(76, 201),6	12697,(110, 201),6	12709,(133, 201),6	12715,(21, 201),6	12781,(72, 201),6	12799,(191, 201),6	12823,(82, 201),6	12847,(186, 201),6	12919,(152, 201),6	12991,(162, 201),6	12997,(176, 201),6	13015,(55, 201),6	13021,(80, 201),6	13027,(196, 201),6	13087,(195, 201),6	13135,(167, 201),6	13159,(69, 201),6	13171,(128, 201),6	13195,(22, 201),6	13213,(115, 201),6	13219,(120, 201),6	13249,(160, 201),6	13255,(169, 201),6	13279,(135, 201),6	13297,(188, 201),6	13303,(193, 201),6	13327,(53, 201),6	13333,(61, 201),6	13351,(127, 201),6	
