1406
# CPU
9,3,4	13,57,4	17,75,4	21,6,4	25,39,4	29,78,4	133,18,4	137,48,4	203,9,4	215,12,4	219,72,4	227,54,4	327,66,4	341,42,4	347,21,4	353,27,4	357,36,4	361,45,4	365,60,4	369,15,4	373,24,4	407,51,4	411,69,4	421,30,4	525,63,4	625,33,4	
5,2,4	9,17,4	13,35,4	17,38,4	21,20,4	25,26,4	29,5,4	33,8,4	37,29,4	41,47,4	45,80,4	49,77,4	53,23,4	57,32,4	269,50,4	307,53,4	311,14,4	315,62,4	661,41,4	673,56,4	695,59,4	725,65,4	729,68,4	751,11,4	835,44,4	955,71,4	959,74,4	
0,0,1	1,7,4	5,1,4	9,4,4	13,22,4	17,25,4	21,49,4	25,37,4	29,55,4	33,31,4	37,40,4	341,76,4	651,10,4	681,58,4	711,19,4	715,34,4	721,46,4	777,13,4	817,16,4	833,28,4	859,64,4	863,67,4	941,70,4	955,43,4	1025,79,4	1069,73,4	1107,52,4	1189,61,4	1405,81,1	
# Incoming
5,(0, 3),4	13,(0, 6),4	21,(7, 12),8	29,(7, 15),16	45,(7, 18),88	133,(7, 27),2	135,(7, 48),2	137,(7, 60),18	155,(7, 66),12	167,(2, 9),36	203,(2, 12),12	217,(7, 72),2	223,(2, 45),2	225,(2, 54),2	227,(2, 66),100	327,(1, 42),14	341,(5, 21),6	347,(5, 27),6	353,(5, 36),4	357,(5, 45),2	359,(5, 60),4	363,(8, 15),6	369,(8, 24),2	371,(8, 51),36	407,(8, 69),4	419,(4, 30),2	421,(5, 63),104	525,(8, 33),100	
1,(0, 2),4	9,(0, 5),4	17,(0, 8),4	167,(7, 68),40	207,(7, 71),10	219,(7, 74),6	225,(1, 11),10	235,(1, 14),4	239,(1, 50),30	269,(1, 53),38	307,(1, 56),2	309,(4, 14),2	311,(4, 56),2	313,(4, 62),2	341,(1, 65),78	651,(3, 41),10	661,(3, 56),12	681,(3, 59),14	695,(3, 65),30	725,(3, 68),2	739,(6, 11),12	833,(6, 44),2	941,(6, 71),14	955,(6, 74),2	
215,(2, 16),8	327,(2, 76),14	341,(3, 10),310	651,(17, 81),6	657,(35, 81),6	663,(38, 81),6	669,(5, 28),4	673,(3, 58),8	681,(20, 81),6	687,(26, 81),6	693,(5, 16),6	699,(5, 19),12	711,(5, 34),4	715,(8, 46),6	721,(29, 81),6	727,(57, 81),6	733,(75, 81),6	739,(47, 81),6	745,(80, 81),6	751,(6, 13),26	777,(6, 16),40	817,(6, 28),16	835,(6, 64),24	859,(6, 67),2	861,(6, 70),80	941,(8, 43),14	957,(6, 79),68	1025,(39, 81),6	1031,(5, 73),38	1069,(78, 81),6	1075,(8, 52),32	1107,(8, 61),82	1189,(77, 81),6	1195,(23, 81),6	1201,(32, 81),6	1207,(18, 81),6	1213,(48, 81),6	1219,(9, 81),6	1225,(12, 81),6	1231,(72, 81),6	1237,(54, 81),6	1243,(50, 81),6	1249,(53, 81),6	1255,(14, 81),6	1261,(62, 81),6	1267,(66, 81),6	1273,(42, 81),6	1279,(21, 81),6	1285,(27, 81),6	1291,(36, 81),6	1297,(45, 81),6	1303,(60, 81),6	1309,(15, 81),6	1315,(24, 81),6	1321,(51, 81),6	1327,(69, 81),6	1333,(30, 81),6	1339,(63, 81),6	1345,(33, 81),6	1351,(41, 81),6	1357,(56, 81),6	1363,(59, 81),6	1369,(65, 81),6	1375,(68, 81),6	1381,(11, 81),6	1387,(44, 81),6	1393,(71, 81),6	1399,(74, 81),6	
# Outgoing
341,(3, 10),310	651,(3, 41),10	661,(3, 56),12	673,(3, 58),8	681,(3, 59),14	695,(3, 65),30	725,(3, 68),2	727,(57, 81),6	733,(75, 81),6	739,(6, 11),12	751,(6, 13),26	777,(6, 16),40	817,(6, 28),16	833,(6, 44),2	835,(6, 64),24	859,(6, 67),2	861,(6, 70),80	941,(6, 71),14	955,(6, 74),2	957,(6, 79),68	1025,(39, 81),6	1069,(78, 81),6	1207,(18, 81),6	1213,(48, 81),6	1219,(9, 81),6	1225,(12, 81),6	1231,(72, 81),6	1237,(54, 81),6	1267,(66, 81),6	1273,(42, 81),6	1279,(21, 81),6	1285,(27, 81),6	1291,(36, 81),6	1297,(45, 81),6	1303,(60, 81),6	1309,(15, 81),6	1315,(24, 81),6	1321,(51, 81),6	1327,(69, 81),6	1333,(30, 81),6	1339,(63, 81),6	1345,(33, 81),6	
167,(2, 9),36	203,(2, 12),12	215,(2, 16),8	223,(2, 45),2	225,(2, 54),2	227,(2, 66),100	327,(2, 76),14	341,(5, 21),6	347,(5, 27),6	353,(5, 36),4	357,(5, 45),2	359,(5, 60),4	363,(8, 15),6	369,(8, 24),2	371,(8, 51),36	407,(8, 69),4	421,(5, 63),104	525,(8, 33),100	651,(17, 81),6	657,(35, 81),6	663,(38, 81),6	669,(5, 28),4	681,(20, 81),6	687,(26, 81),6	693,(5, 16),6	699,(5, 19),12	711,(5, 34),4	715,(8, 46),6	721,(29, 81),6	739,(47, 81),6	745,(80, 81),6	941,(8, 43),14	1031,(5, 73),38	1075,(8, 52),32	1107,(8, 61),82	1189,(77, 81),6	1195,(23, 81),6	1201,(32, 81),6	1243,(50, 81),6	1249,(53, 81),6	1255,(14, 81),6	1261,(62, 81),6	1351,(41, 81),6	1357,(56, 81),6	1363,(59, 81),6	1369,(65, 81),6	1375,(68, 81),6	1381,(11, 81),6	1387,(44, 81),6	1393,(71, 81),6	1399,(74, 81),6	
1,(0, 2),4	5,(0, 3),4	9,(0, 5),4	13,(0, 6),4	17,(0, 8),4	21,(7, 12),8	29,(7, 15),16	45,(7, 18),88	133,(7, 27),2	135,(7, 48),2	137,(7, 60),18	155,(7, 66),12	167,(7, 68),40	207,(7, 71),10	217,(7, 72),2	219,(7, 74),6	225,(1, 11),10	235,(1, 14),4	239,(1, 50),30	269,(1, 53),38	307,(1, 56),2	309,(4, 14),2	311,(4, 56),2	313,(4, 62),2	327,(1, 42),14	341,(1, 65),78	419,(4, 30),2	
