122
# CPU
0,0,1	1,1,1	2,3,1	3,7,1	4,12,1	5,6,1	6,2,1	7,5,1	8,11,1	9,10,1	10,4,1	11,9,1	12,8,1	13,47,1	14,103,1	15,44,1	16,29,1	17,21,1	18,99,1	19,82,1	20,65,1	21,58,1	22,52,1	23,49,1	24,89,1	25,85,1	26,81,1	27,78,1	28,51,1	29,48,1	30,17,1	31,15,1	32,35,1	33,33,1	34,26,1	35,23,1	36,105,1	37,97,1	38,77,1	39,76,1	40,70,1	41,56,1	42,40,1	43,111,1	44,110,1	45,102,1	46,84,1	47,80,1	48,79,1	49,115,1	50,68,1	51,46,1	52,45,1	53,18,1	54,14,1	55,108,1	56,95,1	57,86,1	58,74,1	59,63,1	60,41,1	61,39,1	62,32,1	63,20,1	64,119,1	65,55,1	66,54,1	67,53,1	68,43,1	69,22,1	70,50,1	71,120,1	72,113,1	73,94,1	74,69,1	75,109,1	76,98,1	77,25,1	78,87,1	79,59,1	80,104,1	81,42,1	82,90,1	83,83,1	84,75,1	85,66,1	86,57,1	87,117,1	88,34,1	89,24,1	90,62,1	91,93,1	92,30,1	93,114,1	94,100,1	95,19,1	96,36,1	97,61,1	98,67,1	99,118,1	100,91,1	101,116,1	102,92,1	103,71,1	104,31,1	105,106,1	106,13,1	107,38,1	108,101,1	109,37,1	110,107,1	111,28,1	112,27,1	113,64,1	114,60,1	115,96,1	116,16,1	117,73,1	118,72,1	119,88,1	120,112,1	121,121,1	



# Incoming




# Outgoing




