35766
# CPU
26257,55,6	28757,42,6	29949,15,6	31677,94,6	32213,14,6	33433,66,6	33573,86,6	33697,92,6	33821,97,6	33901,17,6	34097,27,6	34103,34,6	34109,36,6	34153,46,6	34159,48,6	34209,50,6	34215,67,6	34221,70,6	34273,78,6	34301,98,6	34417,112,6	34423,119,6	35765,121,1	
97,10,6	2029,95,6	24741,84,6	25769,41,6	26297,57,6	26697,106,6	26861,117,6	26921,21,6	27065,37,6	27071,40,6	27117,49,6	27141,52,6	
37,4,6	757,76,6	24577,69,6	25701,24,6	26029,51,6	26769,109,6	26925,25,6	27113,47,6	27229,72,6	27235,74,6	27245,75,6	
25,2,6	565,39,6	605,93,6	2641,96,6	24485,63,6	24505,65,6	25781,44,6	26353,62,6	27001,29,6	27007,30,6	27289,83,6	
49,5,6	19769,32,6	25101,115,6	25685,23,6	26845,113,6	27161,56,6	27177,60,6	27333,88,6	27345,90,6	27417,103,6	27485,118,6	
61,6,6	24885,105,6	25709,31,6	26497,81,6	26509,87,6	26765,108,6	26953,26,6	27077,43,6	27401,100,6	27497,120,6	
85,9,6	317,59,6	24021,54,6	26425,64,6	26565,91,6	26665,102,6	26693,104,6	27021,33,6	27105,45,6	27277,80,6	
13,1,6	121,12,6	733,110,6	969,116,6	1321,79,6	2085,20,6	2157,38,6	19377,13,6	24513,68,6	24585,73,6	24649,82,6	24797,89,6	
0,0,1	1,8,6	7,3,6	13,16,6	25909,35,6	25921,18,6	26029,22,6	27157,53,6	27265,77,6	27397,99,6	27405,101,6	
73,7,6	109,11,6	24389,58,6	26317,61,6	26909,19,6	26989,28,6	27221,71,6	27293,85,6	27425,107,6	27433,111,6	27481,114,6	
# Incoming
121,(8, 14),12	133,(2, 17),100	233,(4, 27),4	237,(5, 17),8	245,(6, 67),4	249,(6, 92),4	253,(6, 94),4	257,(2, 27),4	261,(10, 42),4	265,(10, 48),4	269,(2, 42),4	273,(5, 34),4	281,(8, 34),12	293,(4, 42),28	321,(5, 48),24	345,(7, 17),4	349,(4, 98),4	353,(5, 55),4	365,(7, 46),4	369,(8, 42),720	1089,(2, 94),4	1093,(7, 42),8	1101,(8, 46),20	1121,(2, 78),24	1145,(4, 67),12	1157,(7, 67),4	1161,(8, 48),12	1173,(8, 50),4	1177,(7, 78),4	1181,(7, 92),4	1185,(10, 112),4	1189,(8, 67),376	1565,(8, 70),16	1581,(4, 94),16	1597,(4, 119),16	1613,(11, 46),4	1617,(8, 86),24	1641,(2, 66),100	1741,(10, 17),12	1753,(11, 78),4	1757,(8, 92),36	1793,(8, 94),220	2013,(9, 17),20	2033,(8, 98),4	2037,(2, 97),96	2133,(6, 34),24	2161,(8, 112),4	2165,(6, 42),24	2189,(9, 42),8	2197,(8, 119),17144	19341,(5, 94),36	19377,(3, 14),172	19549,(3, 15),4	19553,(3, 17),116	19669,(4, 66),84	19753,(9, 66),4	19757,(9, 97),4	19761,(11, 67),8	19769,(3, 34),2184	21953,(5, 66),60	22013,(10, 36),12	22025,(3, 42),220	22245,(10, 50),12	22257,(3, 46),56	22313,(6, 78),32	22353,(3, 48),1636	23989,(7, 98),24	24021,(3, 55),292	24313,(2, 34),224	24537,(6, 70),56	24593,(3, 78),36	24629,(4, 36),116	24745,(4, 112),88	24833,(9, 119),24	24857,(3, 92),8	24865,(3, 97),4	24869,(6, 46),68	24937,(10, 55),12	24949,(11, 42),12	24961,(3, 112),112	25073,(6, 48),64	25145,(3, 119),4	25149,(1, 14),496	25645,(16, 121),16	25661,(6, 119),36	25697,(9, 86),28	25725,(11, 50),12	25737,(1, 36),4	25741,(10, 92),20	25769,(1, 42),8	25785,(1, 46),124	25909,(1, 48),92	26001,(11, 34),20	26029,(11, 70),12	26045,(1, 55),212	26257,(4, 78),144	26401,(11, 94),12	26425,(1, 66),8	26433,(1, 70),4	26437,(5, 15),108	26545,(59, 121),16	26565,(1, 92),32	26597,(1, 94),4	26601,(1, 97),52	26653,(1, 98),8	26661,(5, 27),140	26801,(11, 98),24	26829,(1, 112),4	26833,(10, 119),48	26885,(1, 119),8	26893,(2, 98),380	27273,(5, 14),180	27453,(5, 36),608	28061,(5, 42),696	28757,(5, 46),228	28985,(5, 50),96	29081,(5, 70),232	29313,(6, 86),136	29449,(6, 98),180	29629,(6, 112),128	29757,(7, 15),192	29949,(7, 66),56	30005,(7, 70),88	30093,(9, 46),68	30161,(9, 48),108	30269,(9, 50),240	30509,(9, 70),804	31313,(9, 78),64	31377,(9, 92),140	31517,(9, 94),160	31677,(9, 98),388	32065,(9, 112),92	32157,(10, 14),56	32213,(10, 27),256	32469,(10, 46),60	32529,(10, 78),116	32645,(10, 97),56	32701,(11, 27),60	32761,(11, 36),380	33141,(11, 66),292	33433,(11, 86),140	33573,(11, 92),124	33697,(11, 97),124	33821,(12, 17),80	33901,(12, 27),196	34097,(12, 34),4	34101,(12, 36),8	34109,(12, 46),44	34153,(12, 48),4	34157,(12, 50),52	34209,(12, 67),4	34213,(12, 70),4	34217,(12, 78),56	34273,(12, 98),28	34301,(12, 112),116	34417,(12, 119),4	34421,(39, 121),16	34437,(93, 121),16	34453,(110, 121),16	34469,(76, 121),16	34485,(116, 121),16	34501,(79, 121),16	34517,(95, 121),16	34533,(20, 121),16	34549,(38, 121),16	34565,(96, 121),16	34581,(13, 121),16	34597,(32, 121),16	34613,(54, 121),16	34629,(58, 121),16	34645,(63, 121),16	34661,(65, 121),16	34677,(68, 121),16	34693,(69, 121),16	34709,(73, 121),16	34725,(82, 121),16	34741,(84, 121),16	34757,(89, 121),16	34773,(105, 121),16	34789,(115, 121),16	34805,(23, 121),16	34821,(24, 121),16	34837,(31, 121),16	34853,(41, 121),16	34869,(44, 121),16	34885,(35, 121),16	34901,(18, 121),16	34917,(51, 121),16	34933,(22, 121),16	34949,(57, 121),16	34965,(61, 121),16	34981,(62, 121),16	34997,(64, 121),16	35013,(81, 121),16	35029,(87, 121),16	35045,(91, 121),16	35061,(102, 121),16	35077,(104, 121),16	35093,(106, 121),16	35109,(108, 121),16	35125,(109, 121),16	35141,(113, 121),16	35157,(117, 121),16	35173,(19, 121),16	35189,(21, 121),16	35205,(25, 121),16	35221,(26, 121),16	35237,(28, 121),16	35253,(29, 121),16	35269,(30, 121),16	35285,(33, 121),16	35301,(37, 121),16	35317,(40, 121),16	35333,(43, 121),16	35349,(45, 121),16	35365,(47, 121),16	35381,(49, 121),16	35397,(52, 121),16	35413,(53, 121),16	35429,(56, 121),16	35445,(60, 121),16	35461,(71, 121),16	35477,(72, 121),16	35493,(74, 121),16	35509,(75, 121),16	35525,(77, 121),16	35541,(80, 121),16	35557,(83, 121),16	35573,(85, 121),16	35589,(88, 121),16	35605,(90, 121),16	35621,(99, 121),16	35637,(100, 121),16	35653,(101, 121),16	35669,(103, 121),16	35685,(107, 121),16	35701,(111, 121),16	35717,(114, 121),16	35733,(118, 121),16	35749,(120, 121),16	
85,(0, 10),12	133,(6, 37),8	153,(6, 41),8	177,(8, 21),32	209,(4, 49),16	227,(5, 21),4	233,(2, 21),4	237,(4, 40),32	269,(5, 37),4	273,(2, 52),4	277,(4, 57),12	289,(5, 40),4	293,(2, 37),36	329,(2, 49),16	345,(5, 41),4	349,(5, 95),4	353,(8, 40),16	369,(4, 41),28	397,(6, 49),44	441,(6, 52),36	477,(6, 84),44	549,(6, 117),8	557,(2, 84),28	585,(7, 57),4	593,(2, 95),8	609,(5, 117),4	613,(7, 37),12	633,(2, 106),32	665,(4, 106),52	717,(6, 95),20	737,(7, 41),36	773,(7, 49),28	917,(7, 95),16	933,(7, 106),24	969,(7, 117),4	1029,(11, 41),20	1101,(11, 52),52	1177,(8, 52),4	1445,(11, 117),20	1597,(8, 84),12	2013,(8, 95),16	2085,(9, 21),28	2149,(9, 37),4	2157,(9, 40),4	2161,(9, 41),4	2185,(9, 49),4	2269,(9, 57),16	2665,(9, 106),4	2717,(9, 117),20	21953,(3, 40),4	21957,(3, 41),68	24317,(3, 57),24	24649,(3, 84),92	24885,(3, 106),4	25101,(3, 117),44	25741,(1, 37),12	25753,(1, 41),16	26001,(1, 49),20	26261,(1, 57),36	26693,(1, 106),4	26853,(1, 117),8	26909,(12, 21),12	27021,(12, 37),44	27065,(12, 40),4	27113,(12, 49),4	27117,(12, 52),24	
25,(0, 4),12	101,(6, 24),4	105,(6, 25),24	161,(10, 69),4	165,(6, 47),4	169,(10, 24),16	237,(2, 24),12	249,(2, 25),8	257,(5, 24),8	265,(6, 69),84	357,(5, 72),12	369,(7, 24),4	381,(2, 72),16	397,(2, 76),84	481,(5, 74),20	501,(5, 75),8	509,(5, 76),56	565,(6, 74),16	581,(7, 69),4	585,(5, 109),4	589,(6, 76),32	625,(7, 51),24	649,(7, 75),8	657,(7, 76),16	673,(10, 72),24	697,(2, 109),4	701,(10, 74),16	717,(10, 76),40	789,(10, 109),8	989,(11, 24),16	1049,(11, 47),16	1121,(8, 47),40	1581,(8, 75),4	2113,(9, 24),28	2165,(9, 47),20	2197,(9, 51),48	2433,(9, 69),4	19741,(3, 25),8	22313,(3, 47),40	23989,(3, 51),28	24513,(3, 69),64	24585,(3, 74),4	24589,(3, 75),4	25685,(1, 24),16	25701,(1, 25),4	26021,(1, 51),8	26437,(1, 72),28	26465,(1, 75),16	26765,(1, 109),4	26921,(12, 25),4	27105,(12, 47),8	27221,(12, 72),8	27229,(12, 74),4	27233,(12, 75),12	
13,(0, 2),12	75,(4, 29),36	129,(6, 30),4	141,(10, 30),4	145,(10, 39),4	149,(6, 39),4	153,(10, 44),4	161,(6, 44),4	165,(10, 96),4	171,(4, 39),4	199,(4, 62),4	207,(6, 62),4	211,(6, 63),4	225,(4, 83),8	233,(10, 29),12	273,(8, 29),4	285,(5, 65),4	293,(8, 39),60	353,(4, 63),16	369,(5, 39),32	401,(5, 44),28	429,(5, 62),12	441,(5, 63),16	457,(7, 30),4	461,(10, 62),12	489,(4, 65),16	521,(6, 93),28	557,(7, 39),8	565,(7, 44),8	589,(7, 93),16	1065,(11, 62),12	1089,(8, 44),12	1185,(11, 65),56	1589,(8, 83),8	2029,(8, 96),4	2401,(9, 62),4	2405,(9, 63),28	2489,(9, 83),76	2589,(9, 96),52	22245,(3, 44),12	24421,(3, 62),56	24477,(3, 63),8	24485,(3, 65),20	25777,(1, 44),4	26317,(1, 62),36	26497,(1, 83),8	26989,(12, 29),12	27001,(12, 30),4	27277,(12, 83),12	
37,(0, 5),12	85,(6, 23),16	157,(10, 56),4	163,(4, 32),4	173,(6, 56),16	189,(6, 60),8	209,(8, 23),28	257,(10, 115),4	265,(2, 32),4	277,(2, 56),4	289,(4, 90),4	321,(4, 60),12	333,(10, 88),12	349,(7, 23),16	413,(7, 56),12	425,(7, 60),8	449,(7, 113),8	461,(7, 32),96	561,(4, 88),20	605,(7, 115),8	613,(10, 103),44	673,(7, 88),28	721,(2, 118),4	753,(4, 113),12	765,(4, 118),32	797,(6, 103),28	825,(6, 115),32	873,(7, 90),44	1021,(10, 113),64	1085,(11, 56),8	1321,(11, 88),44	1393,(11, 113),36	1429,(11, 115),16	1661,(8, 88),76	2049,(8, 103),52	2165,(8, 113),4	2245,(9, 56),24	2577,(9, 90),12	2701,(9, 113),8	2737,(9, 118),4	19737,(3, 23),4	19765,(3, 32),4	24313,(3, 56),4	24389,(3, 60),4	24753,(3, 88),24	24797,(3, 90),48	25073,(3, 113),12	25085,(3, 115),16	25649,(1, 23),36	26257,(1, 56),4	26297,(1, 60),16	26509,(1, 90),40	26665,(1, 103),8	26833,(1, 113),12	26861,(1, 118),24	27157,(12, 56),4	27161,(12, 60),16	27293,(12, 88),40	27333,(12, 90),12	27405,(12, 103),12	27481,(12, 118),4	
49,(0, 6),12	67,(4, 26),8	111,(4, 31),52	197,(10, 105),4	201,(10, 108),4	231,(5, 26),4	237,(8, 26),12	249,(5, 31),8	261,(2, 31),4	269,(4, 87),4	273,(10, 81),36	309,(10, 87),16	373,(7, 26),40	437,(7, 81),4	441,(7, 87),4	445,(7, 100),4	477,(5, 108),4	485,(2, 81),64	549,(4, 81),12	561,(10, 120),16	577,(11, 43),4	581,(4, 100),4	585,(2, 87),4	601,(2, 100),4	629,(2, 105),4	653,(4, 108),12	665,(2, 108),32	705,(7, 108),20	725,(11, 26),8	757,(10, 100),32	973,(7, 120),16	1081,(11, 87),4	1161,(11, 100),8	1369,(11, 105),20	1389,(11, 108),4	1585,(8, 81),4	1641,(8, 87),20	2037,(8, 100),12	2141,(9, 26),8	2441,(9, 81),12	2565,(9, 87),8	2641,(9, 105),24	2697,(9, 108),4	2741,(9, 120),16	19749,(3, 26),12	24869,(3, 105),16	24953,(3, 108),4	25705,(1, 31),4	26481,(1, 81),16	26505,(1, 87),4	26761,(1, 108),4	26925,(12, 26),28	27069,(12, 43),8	27397,(12, 100),4	27485,(12, 120),12	
73,(0, 9),12	169,(6, 54),4	175,(4, 54),12	187,(4, 59),12	199,(6, 59),8	215,(6, 91),4	219,(6, 104),4	223,(10, 102),4	245,(10, 59),12	265,(5, 33),4	277,(8, 33),4	281,(2, 33),12	293,(5, 54),16	309,(5, 59),8	345,(2, 64),28	397,(4, 45),92	573,(7, 102),4	577,(5, 102),8	605,(2, 104),24	629,(6, 102),64	701,(7, 104),4	733,(11, 45),4	1005,(11, 33),16	1077,(11, 64),4	1153,(11, 91),4	1169,(11, 102),8	1185,(8, 64),4	1365,(11, 104),4	1737,(8, 91),20	2101,(8, 104),4	24017,(3, 54),4	24845,(3, 91),12	25781,(1, 45),4	26353,(1, 64),72	26549,(1, 91),16	26661,(1, 102),4	26673,(1, 104),20	27005,(12, 33),16	27077,(12, 45),28	27265,(12, 80),12	
1,(0, 1),12	43,(4, 13),24	109,(0, 12),12	121,(10, 13),20	141,(6, 38),8	149,(10, 20),4	167,(4, 38),4	171,(5, 13),56	227,(6, 68),8	235,(6, 89),8	257,(6, 116),8	277,(5, 38),8	285,(7, 13),60	345,(10, 68),88	433,(7, 73),4	457,(5, 82),20	481,(2, 79),4	505,(4, 82),28	533,(4, 89),8	549,(2, 82),8	589,(2, 89),4	593,(4, 79),60	653,(5, 79),40	693,(5, 89),20	713,(5, 110),4	717,(4, 110),16	801,(7, 89),72	873,(10, 79),64	957,(7, 116),12	969,(10, 82),52	1021,(11, 13),8	1241,(11, 73),56	1297,(11, 79),24	2081,(9, 20),4	2153,(9, 38),4	2437,(9, 73),4	2453,(9, 82),36	2573,(9, 89),4	19341,(3, 13),36	24505,(3, 68),8	24581,(3, 73),4	24629,(3, 82),20	24777,(3, 89),20	
25645,(1, 22),4	25649,(2, 18),8	25657,(2, 22),20	25677,(2, 77),20	25697,(2, 99),4	25701,(4, 18),4	25705,(4, 101),4	25709,(1, 35),28	25737,(2, 53),36	25773,(4, 35),12	25785,(4, 53),24	25809,(4, 77),8	25817,(5, 22),4	25821,(5, 35),12	25833,(5, 53),16	25849,(5, 77),4	25853,(5, 101),12	25865,(6, 22),12	25877,(6, 35),28	25905,(7, 35),4	25909,(7, 99),4	25913,(7, 101),4	25917,(9, 18),4	25921,(9, 53),8	25929,(9, 77),68	25997,(9, 99),8	26005,(10, 22),8	26013,(10, 101),12	26025,(11, 22),4	26029,(1, 53),16	26045,(10, 53),24	26069,(10, 99),68	26137,(11, 53),36	26173,(11, 77),12	26185,(11, 99),80	26265,(11, 101),4	27141,(12, 53),16	27245,(12, 77),20	27345,(12, 99),52	27401,(12, 101),4	
61,(0, 7),12	73,(6, 19),12	97,(0, 11),12	133,(8, 19),44	185,(10, 28),4	189,(10, 58),8	203,(4, 71),4	207,(10, 61),8	215,(10, 71),8	223,(6, 114),4	227,(10, 114),4	245,(5, 28),4	249,(8, 28),24	273,(4, 85),4	317,(5, 107),4	333,(4, 61),16	349,(6, 71),24	373,(2, 71),8	565,(5, 85),12	589,(5, 114),20	701,(2, 111),16	717,(2, 114),4	733,(4, 111),20	753,(6, 107),20	1181,(8, 61),4	1609,(8, 85),8	2033,(9, 19),48	2105,(8, 107),56	2169,(8, 114),28	2285,(9, 58),24	2309,(9, 61),92	2669,(9, 107),28	2709,(9, 114),8	19669,(3, 19),68	19761,(3, 28),4	24341,(3, 58),48	24393,(3, 61),28	24577,(3, 71),4	24741,(3, 85),12	24889,(3, 107),64	24957,(3, 111),4	26313,(1, 61),4	26697,(1, 107),64	26769,(1, 111),60	26845,(1, 114),8	26893,(12, 19),16	26953,(12, 28),36	27177,(12, 71),44	27289,(12, 85),4	27417,(12, 107),8	27425,(12, 111),8	27433,(12, 114),48	
# Outgoing

121,(10, 13),20	141,(10, 30),4	145,(10, 39),4	149,(10, 20),4	153,(10, 44),4	157,(10, 56),4	161,(10, 69),4	165,(10, 96),4	169,(10, 24),16	185,(10, 28),4	189,(10, 58),8	197,(10, 105),4	201,(10, 108),4	207,(10, 61),8	215,(10, 71),8	223,(10, 102),4	227,(10, 114),4	233,(10, 29),12	245,(10, 59),12	257,(10, 115),4	261,(10, 42),4	265,(10, 48),4	273,(10, 81),36	309,(10, 87),16	333,(10, 88),12	345,(10, 68),88	461,(10, 62),12	561,(10, 120),16	613,(10, 103),44	673,(10, 72),24	701,(10, 74),16	717,(10, 76),40	757,(10, 100),32	789,(10, 109),8	873,(10, 79),64	969,(10, 82),52	1021,(10, 113),64	1185,(10, 112),4	1741,(10, 17),12	22013,(10, 36),12	22245,(10, 50),12	24937,(10, 55),12	25741,(10, 92),20	26005,(10, 22),8	26013,(10, 101),12	26045,(10, 53),24	26069,(10, 99),68	26833,(10, 119),48	32157,(10, 14),56	32213,(10, 27),256	32469,(10, 46),60	32529,(10, 78),116	32645,(10, 97),56	34517,(95, 121),16	34741,(84, 121),16	34853,(41, 121),16	34949,(57, 121),16	35093,(106, 121),16	35157,(117, 121),16	35189,(21, 121),16	35301,(37, 121),16	35317,(40, 121),16	35381,(49, 121),16	35397,(52, 121),16	
43,(4, 13),24	67,(4, 26),8	75,(4, 29),36	111,(4, 31),52	163,(4, 32),4	167,(4, 38),4	171,(4, 39),4	175,(4, 54),12	187,(4, 59),12	199,(4, 62),4	203,(4, 71),4	209,(4, 49),16	225,(4, 83),8	233,(4, 27),4	237,(4, 40),32	269,(4, 87),4	273,(4, 85),4	277,(4, 57),12	289,(4, 90),4	293,(4, 42),28	321,(4, 60),12	333,(4, 61),16	349,(4, 98),4	353,(4, 63),16	369,(4, 41),28	397,(4, 45),92	489,(4, 65),16	505,(4, 82),28	533,(4, 89),8	549,(4, 81),12	561,(4, 88),20	581,(4, 100),4	593,(4, 79),60	653,(4, 108),12	665,(4, 106),52	717,(4, 110),16	733,(4, 111),20	753,(4, 113),12	765,(4, 118),32	1145,(4, 67),12	1581,(4, 94),16	1597,(4, 119),16	19669,(4, 66),84	24629,(4, 36),116	24745,(4, 112),88	25701,(4, 18),4	25705,(4, 101),4	25773,(4, 35),12	25785,(4, 53),24	25809,(4, 77),8	26257,(4, 78),144	34469,(76, 121),16	34693,(69, 121),16	34821,(24, 121),16	34917,(51, 121),16	35125,(109, 121),16	35205,(25, 121),16	35365,(47, 121),16	35477,(72, 121),16	35493,(74, 121),16	35509,(75, 121),16	
133,(2, 17),100	233,(2, 21),4	237,(2, 24),12	249,(2, 25),8	257,(2, 27),4	261,(2, 31),4	265,(2, 32),4	269,(2, 42),4	273,(2, 52),4	277,(2, 56),4	281,(2, 33),12	293,(2, 37),36	329,(2, 49),16	345,(2, 64),28	373,(2, 71),8	381,(2, 72),16	397,(2, 76),84	481,(2, 79),4	485,(2, 81),64	549,(2, 82),8	557,(2, 84),28	585,(2, 87),4	589,(2, 89),4	593,(2, 95),8	601,(2, 100),4	605,(2, 104),24	629,(2, 105),4	633,(2, 106),32	665,(2, 108),32	697,(2, 109),4	701,(2, 111),16	717,(2, 114),4	721,(2, 118),4	1089,(2, 94),4	1121,(2, 78),24	1641,(2, 66),100	2037,(2, 97),96	24313,(2, 34),224	25649,(2, 18),8	25657,(2, 22),20	25677,(2, 77),20	25697,(2, 99),4	25737,(2, 53),36	26893,(2, 98),380	34421,(39, 121),16	34437,(93, 121),16	34565,(96, 121),16	34645,(63, 121),16	34661,(65, 121),16	34869,(44, 121),16	34981,(62, 121),16	35253,(29, 121),16	35269,(30, 121),16	35557,(83, 121),16	
171,(5, 13),56	227,(5, 21),4	231,(5, 26),4	237,(5, 17),8	245,(5, 28),4	249,(5, 31),8	257,(5, 24),8	265,(5, 33),4	269,(5, 37),4	273,(5, 34),4	277,(5, 38),8	285,(5, 65),4	289,(5, 40),4	293,(5, 54),16	309,(5, 59),8	317,(5, 107),4	321,(5, 48),24	345,(5, 41),4	349,(5, 95),4	353,(5, 55),4	357,(5, 72),12	369,(5, 39),32	401,(5, 44),28	429,(5, 62),12	441,(5, 63),16	457,(5, 82),20	477,(5, 108),4	481,(5, 74),20	501,(5, 75),8	509,(5, 76),56	565,(5, 85),12	577,(5, 102),8	585,(5, 109),4	589,(5, 114),20	609,(5, 117),4	653,(5, 79),40	693,(5, 89),20	713,(5, 110),4	19341,(5, 94),36	21953,(5, 66),60	25817,(5, 22),4	25821,(5, 35),12	25833,(5, 53),16	25849,(5, 77),4	25853,(5, 101),12	26437,(5, 15),108	26661,(5, 27),140	27273,(5, 14),180	27453,(5, 36),608	28061,(5, 42),696	28757,(5, 46),228	28985,(5, 50),96	29081,(5, 70),232	34597,(32, 121),16	34789,(115, 121),16	34805,(23, 121),16	35141,(113, 121),16	35429,(56, 121),16	35445,(60, 121),16	35589,(88, 121),16	35605,(90, 121),16	35669,(103, 121),16	35733,(118, 121),16	
73,(6, 19),12	85,(6, 23),16	101,(6, 24),4	105,(6, 25),24	129,(6, 30),4	133,(6, 37),8	141,(6, 38),8	149,(6, 39),4	153,(6, 41),8	161,(6, 44),4	165,(6, 47),4	169,(6, 54),4	173,(6, 56),16	189,(6, 60),8	199,(6, 59),8	207,(6, 62),4	211,(6, 63),4	215,(6, 91),4	219,(6, 104),4	223,(6, 114),4	227,(6, 68),8	235,(6, 89),8	245,(6, 67),4	249,(6, 92),4	253,(6, 94),4	257,(6, 116),8	265,(6, 69),84	349,(6, 71),24	397,(6, 49),44	441,(6, 52),36	477,(6, 84),44	521,(6, 93),28	549,(6, 117),8	565,(6, 74),16	589,(6, 76),32	629,(6, 102),64	717,(6, 95),20	753,(6, 107),20	797,(6, 103),28	825,(6, 115),32	2133,(6, 34),24	2165,(6, 42),24	22313,(6, 78),32	24537,(6, 70),56	24869,(6, 46),68	25073,(6, 48),64	25661,(6, 119),36	25865,(6, 22),12	25877,(6, 35),28	29313,(6, 86),136	29449,(6, 98),180	29629,(6, 112),128	34773,(105, 121),16	34837,(31, 121),16	35013,(81, 121),16	35029,(87, 121),16	35109,(108, 121),16	35221,(26, 121),16	35333,(43, 121),16	35637,(100, 121),16	35749,(120, 121),16	
2013,(9, 17),20	2033,(9, 19),48	2081,(9, 20),4	2085,(9, 21),28	2113,(9, 24),28	2141,(9, 26),8	2149,(9, 37),4	2153,(9, 38),4	2157,(9, 40),4	2161,(9, 41),4	2165,(9, 47),20	2185,(9, 49),4	2189,(9, 42),8	2197,(9, 51),48	2245,(9, 56),24	2269,(9, 57),16	2285,(9, 58),24	2309,(9, 61),92	2401,(9, 62),4	2405,(9, 63),28	2433,(9, 69),4	2437,(9, 73),4	2441,(9, 81),12	2453,(9, 82),36	2489,(9, 83),76	2565,(9, 87),8	2573,(9, 89),4	2577,(9, 90),12	2589,(9, 96),52	2641,(9, 105),24	2665,(9, 106),4	2669,(9, 107),28	2697,(9, 108),4	2701,(9, 113),8	2709,(9, 114),8	2717,(9, 117),20	2737,(9, 118),4	2741,(9, 120),16	19753,(9, 66),4	19757,(9, 97),4	24833,(9, 119),24	25697,(9, 86),28	25917,(9, 18),4	25921,(9, 53),8	25929,(9, 77),68	25997,(9, 99),8	26545,(59, 121),16	30093,(9, 46),68	30161,(9, 48),108	30269,(9, 50),240	30509,(9, 70),804	31313,(9, 78),64	31377,(9, 92),140	31517,(9, 94),160	31677,(9, 98),388	32065,(9, 112),92	34613,(54, 121),16	34997,(64, 121),16	35045,(91, 121),16	35061,(102, 121),16	35077,(104, 121),16	35285,(33, 121),16	35349,(45, 121),16	35541,(80, 121),16	
25149,(1, 14),496	25645,(1, 22),4	25649,(1, 23),36	25685,(1, 24),16	25701,(1, 25),4	25705,(1, 31),4	25709,(1, 35),28	25737,(1, 36),4	25741,(1, 37),12	25753,(1, 41),16	25769,(1, 42),8	25777,(1, 44),4	25781,(1, 45),4	25785,(1, 46),124	25909,(1, 48),92	26001,(1, 49),20	26021,(1, 51),8	26029,(1, 53),16	26045,(1, 55),212	26257,(1, 56),4	26261,(1, 57),36	26297,(1, 60),16	26313,(1, 61),4	26317,(1, 62),36	26353,(1, 64),72	26425,(1, 66),8	26433,(1, 70),4	26437,(1, 72),28	26465,(1, 75),16	26481,(1, 81),16	26497,(1, 83),8	26505,(1, 87),4	26509,(1, 90),40	26549,(1, 91),16	26565,(1, 92),32	26597,(1, 94),4	26601,(1, 97),52	26653,(1, 98),8	26661,(1, 102),4	26665,(1, 103),8	26673,(1, 104),20	26693,(1, 106),4	26697,(1, 107),64	26761,(1, 108),4	26765,(1, 109),4	26769,(1, 111),60	26829,(1, 112),4	26833,(1, 113),12	26845,(1, 114),8	26853,(1, 117),8	26861,(1, 118),24	26885,(1, 119),8	26893,(12, 19),16	26909,(12, 21),12	26921,(12, 25),4	26925,(12, 26),28	26953,(12, 28),36	26989,(12, 29),12	27001,(12, 30),4	27005,(12, 33),16	27021,(12, 37),44	27065,(12, 40),4	27069,(12, 43),8	27077,(12, 45),28	27105,(12, 47),8	27113,(12, 49),4	27117,(12, 52),24	27141,(12, 53),16	27157,(12, 56),4	27161,(12, 60),16	27177,(12, 71),44	27221,(12, 72),8	27229,(12, 74),4	27233,(12, 75),12	27245,(12, 77),20	27265,(12, 80),12	27277,(12, 83),12	27289,(12, 85),4	27293,(12, 88),40	27333,(12, 90),12	27345,(12, 99),52	27397,(12, 100),4	27401,(12, 101),4	27405,(12, 103),12	27417,(12, 107),8	27425,(12, 111),8	27433,(12, 114),48	27481,(12, 118),4	27485,(12, 120),12	33821,(12, 17),80	33901,(12, 27),196	34097,(12, 34),4	34101,(12, 36),8	34109,(12, 46),44	34153,(12, 48),4	34157,(12, 50),52	34209,(12, 67),4	34213,(12, 70),4	34217,(12, 78),56	34273,(12, 98),28	34301,(12, 112),116	34417,(12, 119),4	34453,(110, 121),16	34485,(116, 121),16	34501,(79, 121),16	34533,(20, 121),16	34549,(38, 121),16	34581,(13, 121),16	34677,(68, 121),16	34709,(73, 121),16	34725,(82, 121),16	34757,(89, 121),16	
1,(0, 1),12	13,(0, 2),12	25,(0, 4),12	37,(0, 5),12	49,(0, 6),12	61,(0, 7),12	73,(0, 9),12	85,(0, 10),12	97,(0, 11),12	109,(0, 12),12	121,(8, 14),12	133,(8, 19),44	177,(8, 21),32	209,(8, 23),28	237,(8, 26),12	249,(8, 28),24	273,(8, 29),4	277,(8, 33),4	281,(8, 34),12	293,(8, 39),60	353,(8, 40),16	369,(8, 42),720	1089,(8, 44),12	1101,(8, 46),20	1121,(8, 47),40	1161,(8, 48),12	1173,(8, 50),4	1177,(8, 52),4	1181,(8, 61),4	1185,(8, 64),4	1189,(8, 67),376	1565,(8, 70),16	1581,(8, 75),4	1585,(8, 81),4	1589,(8, 83),8	1597,(8, 84),12	1609,(8, 85),8	1617,(8, 86),24	1641,(8, 87),20	1661,(8, 88),76	1737,(8, 91),20	1757,(8, 92),36	1793,(8, 94),220	2013,(8, 95),16	2029,(8, 96),4	2033,(8, 98),4	2037,(8, 100),12	2049,(8, 103),52	2101,(8, 104),4	2105,(8, 107),56	2161,(8, 112),4	2165,(8, 113),4	2169,(8, 114),28	2197,(8, 119),17144	19341,(3, 13),36	19377,(3, 14),172	19549,(3, 15),4	19553,(3, 17),116	19669,(3, 19),68	19737,(3, 23),4	19741,(3, 25),8	19749,(3, 26),12	19761,(3, 28),4	19765,(3, 32),4	19769,(3, 34),2184	21953,(3, 40),4	21957,(3, 41),68	22025,(3, 42),220	22245,(3, 44),12	22257,(3, 46),56	22313,(3, 47),40	22353,(3, 48),1636	23989,(3, 51),28	24017,(3, 54),4	24021,(3, 55),292	24313,(3, 56),4	24317,(3, 57),24	24341,(3, 58),48	24389,(3, 60),4	24393,(3, 61),28	24421,(3, 62),56	24477,(3, 63),8	24485,(3, 65),20	24505,(3, 68),8	24513,(3, 69),64	24577,(3, 71),4	24581,(3, 73),4	24585,(3, 74),4	24589,(3, 75),4	24593,(3, 78),36	24629,(3, 82),20	24649,(3, 84),92	24741,(3, 85),12	24753,(3, 88),24	24777,(3, 89),20	24797,(3, 90),48	24845,(3, 91),12	24857,(3, 92),8	24865,(3, 97),4	24869,(3, 105),16	24885,(3, 106),4	24889,(3, 107),64	24953,(3, 108),4	24957,(3, 111),4	24961,(3, 112),112	25073,(3, 113),12	25085,(3, 115),16	25101,(3, 117),44	25145,(3, 119),4	25645,(16, 121),16	34885,(35, 121),16	34901,(18, 121),16	34933,(22, 121),16	35413,(53, 121),16	35525,(77, 121),16	35621,(99, 121),16	35653,(101, 121),16	
285,(7, 13),60	345,(7, 17),4	349,(7, 23),16	365,(7, 46),4	369,(7, 24),4	373,(7, 26),40	413,(7, 56),12	425,(7, 60),8	433,(7, 73),4	437,(7, 81),4	441,(7, 87),4	445,(7, 100),4	449,(7, 113),8	457,(7, 30),4	461,(7, 32),96	557,(7, 39),8	565,(7, 44),8	573,(7, 102),4	577,(11, 43),4	581,(7, 69),4	585,(7, 57),4	589,(7, 93),16	605,(7, 115),8	613,(7, 37),12	625,(7, 51),24	649,(7, 75),8	657,(7, 76),16	673,(7, 88),28	701,(7, 104),4	705,(7, 108),20	725,(11, 26),8	733,(11, 45),4	737,(7, 41),36	773,(7, 49),28	801,(7, 89),72	873,(7, 90),44	917,(7, 95),16	933,(7, 106),24	957,(7, 116),12	969,(7, 117),4	973,(7, 120),16	989,(11, 24),16	1005,(11, 33),16	1021,(11, 13),8	1029,(11, 41),20	1049,(11, 47),16	1065,(11, 62),12	1077,(11, 64),4	1081,(11, 87),4	1085,(11, 56),8	1093,(7, 42),8	1101,(11, 52),52	1153,(11, 91),4	1157,(7, 67),4	1161,(11, 100),8	1169,(11, 102),8	1177,(7, 78),4	1181,(7, 92),4	1185,(11, 65),56	1241,(11, 73),56	1297,(11, 79),24	1321,(11, 88),44	1365,(11, 104),4	1369,(11, 105),20	1389,(11, 108),4	1393,(11, 113),36	1429,(11, 115),16	1445,(11, 117),20	1613,(11, 46),4	1753,(11, 78),4	19761,(11, 67),8	23989,(7, 98),24	24949,(11, 42),12	25725,(11, 50),12	25905,(7, 35),4	25909,(7, 99),4	25913,(7, 101),4	26001,(11, 34),20	26025,(11, 22),4	26029,(11, 70),12	26137,(11, 53),36	26173,(11, 77),12	26185,(11, 99),80	26265,(11, 101),4	26401,(11, 94),12	26801,(11, 98),24	29757,(7, 15),192	29949,(7, 66),56	30005,(7, 70),88	32701,(11, 27),60	32761,(11, 36),380	33141,(11, 66),292	33433,(11, 86),140	33573,(11, 92),124	33697,(11, 97),124	34629,(58, 121),16	34965,(61, 121),16	35173,(19, 121),16	35237,(28, 121),16	35461,(71, 121),16	35573,(85, 121),16	35685,(107, 121),16	35701,(111, 121),16	35717,(114, 121),16	
