2279
# CPU
0,0,1	1,6,37	38,2,37	75,8,37	112,5,37	149,56,37	186,65,37	223,16,37	260,18,37	297,11,37	334,71,37	371,45,37	408,26,37	445,21,37	482,22,37	519,23,37	556,30,37	593,78,37	630,54,37	667,51,37	704,72,37	741,40,37	778,32,37	815,58,37	852,24,37	889,43,37	926,70,37	963,36,37	1000,38,37	1037,19,37	1107,29,37	1203,14,37	1275,41,37	1392,9,37	1554,55,37	1704,10,37	1839,20,37	2043,60,37	2241,76,37	2278,81,1	
22,7,37	64,1,37	143,50,37	180,64,37	217,27,37	254,17,37	293,80,37	380,63,37	476,48,37	740,67,37	903,47,37	1097,44,37	1178,66,37	1520,37,37	1649,79,37	1787,13,37	
43,4,37	85,3,37	122,15,37	159,62,37	196,68,37	233,28,37	270,53,37	314,73,37	351,52,37	404,35,37	441,49,37	515,34,37	557,31,37	638,39,37	689,69,37	794,46,37	848,61,37	956,42,37	1016,59,37	1268,75,37	1388,33,37	1511,12,37	
152,57,37	189,74,37	226,25,37	596,77,37	
# Incoming
101,(1, 56),3	122,(3, 56),18	140,(7, 18),3	152,(7, 11),3	155,(1, 11),3	159,(15, 81),12	171,(4, 16),3	174,(1, 26),3	180,(50, 81),12	192,(57, 81),12	204,(62, 81),12	217,(64, 81),12	229,(74, 81),12	241,(68, 81),12	254,(27, 81),12	266,(25, 81),12	278,(28, 81),12	291,(17, 81),12	303,(3, 71),3	307,(53, 81),12	319,(3, 45),3	322,(7, 21),6	330,(80, 81),12	342,(3, 26),3	345,(7, 22),6	351,(73, 81),12	363,(1, 23),9	372,(4, 30),3	375,(1, 30),9	384,(3, 78),3	388,(52, 81),12	400,(7, 54),9	409,(3, 54),3	412,(4, 51),3	417,(63, 81),12	429,(4, 54),9	438,(3, 72),3	441,(35, 81),12	453,(1, 78),18	471,(7, 72),6	478,(49, 81),12	490,(7, 51),18	508,(1, 70),3	513,(48, 81),12	525,(7, 24),21	546,(1, 36),3	549,(1, 29),3	552,(34, 81),12	564,(4, 72),12	576,(3, 58),3	579,(1, 24),12	591,(4, 38),3	594,(31, 81),12	606,(4, 40),27	633,(77, 81),12	645,(1, 32),30	675,(39, 81),12	687,(7, 58),30	717,(1, 43),9	726,(69, 81),12	738,(3, 43),30	768,(7, 38),9	777,(67, 81),12	789,(1, 38),39	828,(4, 29),3	831,(46, 81),12	843,(4, 70),24	867,(3, 70),12	879,(7, 14),3	882,(3, 10),3	885,(61, 81),12	897,(4, 36),36	940,(47, 81),12	952,(7, 19),27	979,(3, 19),12	993,(42, 81),12	1005,(1, 19),15	1020,(3, 29),9	1029,(4, 41),21	1053,(59, 81),12	1065,(7, 29),42	1107,(4, 9),21	1134,(44, 81),12	1146,(1, 14),57	1203,(7, 76),9	1215,(66, 81),12	1227,(3, 41),48	1275,(7, 20),24	1305,(75, 81),12	1317,(7, 9),75	1425,(33, 81),12	1437,(7, 55),51	1488,(4, 55),66	1554,(12, 81),12	1566,(37, 81),12	1578,(4, 10),126	1704,(79, 81),12	1716,(1, 20),81	1797,(3, 20),42	1839,(13, 81),12	1851,(4, 60),111	1962,(3, 60),81	2043,(1, 76),198	
1,(0, 7),21	43,(0, 1),21	91,(2, 50),3	103,(6, 64),3	131,(2, 27),9	140,(4, 50),3	143,(4, 64),9	158,(5, 27),3	174,(4, 27),9	183,(3, 27),3	197,(6, 17),3	200,(8, 17),27	227,(3, 17),3	230,(5, 17),6	236,(4, 80),3	254,(6, 80),21	275,(5, 80),18	293,(4, 44),9	322,(3, 63),15	341,(6, 63),18	359,(5, 63),21	400,(3, 44),9	415,(4, 66),9	431,(6, 48),9	440,(2, 48),3	443,(8, 48),3	446,(5, 48),30	579,(4, 79),12	633,(3, 66),15	689,(6, 67),15	704,(2, 67),21	725,(8, 67),9	734,(5, 67),6	768,(4, 47),60	848,(6, 47),15	863,(2, 47),3	866,(8, 47),33	933,(4, 13),36	1016,(2, 44),78	1094,(8, 44),3	1097,(6, 66),3	1100,(2, 66),3	1103,(8, 66),3	1106,(5, 66),72	1317,(3, 37),78	1511,(8, 37),6	1517,(5, 37),3	1520,(2, 79),45	1565,(8, 79),3	1568,(5, 79),81	1649,(6, 13),96	1745,(2, 13),24	1769,(5, 13),18	
22,(0, 4),21	64,(0, 3),21	85,(6, 15),3	88,(2, 15),3	104,(1, 15),3	107,(2, 62),3	112,(8, 15),3	116,(1, 68),6	122,(7, 28),12	134,(7, 35),3	137,(1, 49),3	140,(8, 52),3	143,(7, 53),9	152,(5, 62),3	155,(5, 68),3	158,(7, 73),15	177,(1, 31),3	182,(5, 28),15	197,(1, 73),12	209,(7, 31),6	227,(2, 35),3	236,(5, 53),18	266,(7, 49),15	281,(7, 34),9	293,(5, 73),21	314,(6, 52),27	342,(7, 12),3	351,(7, 39),9	380,(6, 35),18	398,(5, 35),6	404,(5, 49),27	431,(7, 61),21	476,(2, 34),12	488,(8, 34),21	509,(5, 34),6	515,(6, 31),3	518,(2, 31),15	533,(8, 31),24	557,(1, 61),9	566,(7, 42),9	596,(6, 39),3	599,(5, 39),39	638,(6, 69),3	641,(8, 69),6	647,(5, 69),42	726,(7, 75),9	740,(8, 46),51	791,(5, 46),3	794,(6, 61),6	800,(8, 61),39	839,(5, 61),9	848,(1, 75),9	857,(7, 33),6	863,(1, 12),9	899,(2, 42),33	932,(5, 42),24	956,(6, 59),48	1004,(2, 59),12	1020,(1, 33),39	1178,(6, 75),15	1193,(2, 75),69	1262,(8, 75),6	1268,(8, 33),120	1388,(2, 12),81	1469,(8, 12),42	
94,(6, 57),6	100,(2, 57),3	107,(7, 57),9	116,(8, 74),15	143,(2, 77),6	149,(5, 57),3	152,(4, 74),6	161,(6, 25),18	179,(5, 25),3	186,(4, 25),12	229,(7, 77),24	490,(3, 77),60	557,(5, 77),39	
# Outgoing
1,(0, 7),21	22,(0, 4),21	43,(0, 1),21	64,(0, 3),21	85,(6, 15),3	88,(2, 15),3	91,(2, 50),3	94,(6, 57),6	100,(2, 57),3	103,(6, 64),3	107,(2, 62),3	112,(8, 15),3	116,(8, 74),15	131,(2, 27),9	140,(8, 52),3	143,(2, 77),6	149,(5, 57),3	152,(5, 62),3	155,(5, 68),3	158,(5, 27),3	161,(6, 25),18	179,(5, 25),3	182,(5, 28),15	197,(6, 17),3	200,(8, 17),27	227,(2, 35),3	230,(5, 17),6	236,(5, 53),18	254,(6, 80),21	275,(5, 80),18	293,(5, 73),21	314,(6, 52),27	341,(6, 63),18	359,(5, 63),21	380,(6, 35),18	398,(5, 35),6	404,(5, 49),27	431,(6, 48),9	440,(2, 48),3	443,(8, 48),3	446,(5, 48),30	476,(2, 34),12	488,(8, 34),21	509,(5, 34),6	515,(6, 31),3	518,(2, 31),15	533,(8, 31),24	557,(5, 77),39	596,(6, 39),3	599,(5, 39),39	638,(6, 69),3	641,(8, 69),6	647,(5, 69),42	689,(6, 67),15	704,(2, 67),21	725,(8, 67),9	734,(5, 67),6	740,(8, 46),51	791,(5, 46),3	794,(6, 61),6	800,(8, 61),39	839,(5, 61),9	848,(6, 47),15	863,(2, 47),3	866,(8, 47),33	899,(2, 42),33	932,(5, 42),24	956,(6, 59),48	1004,(2, 59),12	1016,(2, 44),78	1094,(8, 44),3	1097,(6, 66),3	1100,(2, 66),3	1103,(8, 66),3	1106,(5, 66),72	1178,(6, 75),15	1193,(2, 75),69	1262,(8, 75),6	1268,(8, 33),120	1388,(2, 12),81	1469,(8, 12),42	1511,(8, 37),6	1517,(5, 37),3	1520,(2, 79),45	1565,(8, 79),3	1568,(5, 79),81	1649,(6, 13),96	1745,(2, 13),24	1769,(5, 13),18	
101,(1, 56),3	104,(1, 15),3	107,(7, 57),9	116,(1, 68),6	122,(7, 28),12	134,(7, 35),3	137,(1, 49),3	140,(7, 18),3	143,(7, 53),9	152,(7, 11),3	155,(1, 11),3	158,(7, 73),15	174,(1, 26),3	177,(1, 31),3	180,(50, 81),12	197,(1, 73),12	209,(7, 31),6	217,(64, 81),12	229,(7, 77),24	254,(27, 81),12	266,(7, 49),15	281,(7, 34),9	291,(17, 81),12	322,(7, 21),6	330,(80, 81),12	342,(7, 12),3	345,(7, 22),6	351,(7, 39),9	363,(1, 23),9	375,(1, 30),9	400,(7, 54),9	417,(63, 81),12	431,(7, 61),21	453,(1, 78),18	471,(7, 72),6	490,(7, 51),18	508,(1, 70),3	513,(48, 81),12	525,(7, 24),21	546,(1, 36),3	549,(1, 29),3	557,(1, 61),9	566,(7, 42),9	579,(1, 24),12	645,(1, 32),30	687,(7, 58),30	717,(1, 43),9	726,(7, 75),9	768,(7, 38),9	777,(67, 81),12	789,(1, 38),39	848,(1, 75),9	857,(7, 33),6	863,(1, 12),9	879,(7, 14),3	940,(47, 81),12	952,(7, 19),27	1005,(1, 19),15	1020,(1, 33),39	1065,(7, 29),42	1134,(44, 81),12	1146,(1, 14),57	1203,(7, 76),9	1215,(66, 81),12	1275,(7, 20),24	1317,(7, 9),75	1437,(7, 55),51	1566,(37, 81),12	1704,(79, 81),12	1716,(1, 20),81	1839,(13, 81),12	2043,(1, 76),198	
122,(3, 56),18	140,(4, 50),3	143,(4, 64),9	152,(4, 74),6	159,(15, 81),12	171,(4, 16),3	174,(4, 27),9	183,(3, 27),3	186,(4, 25),12	204,(62, 81),12	227,(3, 17),3	236,(4, 80),3	241,(68, 81),12	278,(28, 81),12	293,(4, 44),9	303,(3, 71),3	307,(53, 81),12	319,(3, 45),3	322,(3, 63),15	342,(3, 26),3	351,(73, 81),12	372,(4, 30),3	384,(3, 78),3	388,(52, 81),12	400,(3, 44),9	409,(3, 54),3	412,(4, 51),3	415,(4, 66),9	429,(4, 54),9	438,(3, 72),3	441,(35, 81),12	478,(49, 81),12	490,(3, 77),60	552,(34, 81),12	564,(4, 72),12	576,(3, 58),3	579,(4, 79),12	591,(4, 38),3	594,(31, 81),12	606,(4, 40),27	633,(3, 66),15	675,(39, 81),12	726,(69, 81),12	738,(3, 43),30	768,(4, 47),60	828,(4, 29),3	831,(46, 81),12	843,(4, 70),24	867,(3, 70),12	882,(3, 10),3	885,(61, 81),12	897,(4, 36),36	933,(4, 13),36	979,(3, 19),12	993,(42, 81),12	1020,(3, 29),9	1029,(4, 41),21	1053,(59, 81),12	1107,(4, 9),21	1227,(3, 41),48	1305,(75, 81),12	1317,(3, 37),78	1425,(33, 81),12	1488,(4, 55),66	1554,(12, 81),12	1578,(4, 10),126	1797,(3, 20),42	1851,(4, 60),111	1962,(3, 60),81	
192,(57, 81),12	229,(74, 81),12	266,(25, 81),12	633,(77, 81),12	
