294
# CPU
197,7,3	221,12,3	261,17,3	
52,6,3	64,16,3	89,11,3	
65,5,3	77,10,3	121,20,3	237,15,3	
29,2,3	61,4,3	201,9,3	229,14,3	273,19,3	
0,0,1	1,1,3	4,13,3	48,3,3	56,8,3	97,18,3	293,21,1	
# Incoming
65,(1, 7),132	197,(2, 12),24	237,(1, 17),24	
48,(2, 6),4	56,(2, 16),8	77,(2, 11),12	
61,(1, 5),4	65,(2, 10),12	97,(2, 20),24	229,(1, 15),8	
1,(0, 2),28	29,(1, 4),32	197,(1, 9),4	201,(1, 14),28	261,(1, 19),12	
32,(2, 3),16	52,(2, 8),4	56,(6, 21),12	68,(16, 21),12	89,(2, 18),8	97,(5, 21),12	109,(10, 21),12	121,(4, 21),12	133,(11, 21),12	145,(20, 21),12	200,(7, 21),12	221,(9, 21),12	233,(12, 21),12	245,(14, 21),12	257,(15, 21),12	269,(17, 21),12	281,(19, 21),12	
# Outgoing
200,(7, 21),12	233,(12, 21),12	269,(17, 21),12	
56,(6, 21),12	68,(16, 21),12	133,(11, 21),12	
97,(5, 21),12	109,(10, 21),12	145,(20, 21),12	257,(15, 21),12	
32,(2, 3),16	48,(2, 6),4	52,(2, 8),4	56,(2, 16),8	65,(2, 10),12	77,(2, 11),12	89,(2, 18),8	97,(2, 20),24	121,(4, 21),12	197,(2, 12),24	221,(9, 21),12	245,(14, 21),12	281,(19, 21),12	
1,(0, 2),28	29,(1, 4),32	61,(1, 5),4	65,(1, 7),132	197,(1, 9),4	201,(1, 14),28	229,(1, 15),8	237,(1, 17),24	261,(1, 19),12	
