17310
# CPU
397,6,23	420,13,23	10773,49,23	10821,30,23	10844,23,23	10867,33,23	10890,55,23	11151,18,23	11223,36,23	11333,12,23	11373,22,23	11396,24,23	11419,54,23	11459,57,23	12419,62,23	12699,17,23	12907,25,23	12933,41,23	12969,52,23	13009,67,23	17309,81,1	
0,0,1	1,2,23	24,5,23	47,3,23	70,80,23	93,28,23	116,32,23	139,59,23	162,9,23	185,40,23	665,11,23	688,26,23	711,38,23	734,60,23	757,75,23	780,58,23	803,64,23	826,47,23	849,65,23	872,79,23	895,76,23	
133,1,23	529,7,23	552,43,23	575,72,23	673,10,23	696,42,23	719,27,23	10637,31,23	10661,39,23	10707,45,23	10765,46,23	10788,51,23	10839,53,23	10862,56,23	10885,61,23	11289,50,23	11335,14,23	11463,63,23	11486,69,23	11509,77,23	
265,4,23	288,15,23	311,78,23	661,8,23	684,66,23	707,35,23	730,70,23	753,34,23	776,21,23	10893,71,23	11153,19,23	11287,44,23	11310,73,23	11343,16,23	11366,20,23	11389,29,23	11412,37,23	11435,48,23	11471,68,23	11494,74,23	
# Incoming
265,(0, 6),132	397,(1, 12),28	425,(1, 17),36	463,(1, 25),28	491,(1, 36),24	519,(1, 49),100	639,(7, 12),2	657,(4, 23),2	659,(4, 25),12	673,(4, 41),16	691,(2, 17),2	693,(2, 18),4546	5239,(2, 22),5232	10471,(2, 23),32	10503,(2, 24),62	10565,(4, 17),66	10631,(15, 81),100	10731,(7, 17),18	10749,(8, 12),16	10765,(2, 49),8	10773,(7, 30),48	10821,(8, 23),10	10831,(8, 33),2	10839,(2, 55),2	10843,(2, 57),22	10865,(78, 81),100	10965,(7, 41),26	10991,(7, 62),28	11019,(7, 67),26	11051,(5, 18),100	11155,(5, 36),68	11223,(5, 41),48	11289,(5, 52),2	11291,(5, 67),2	11297,(3, 12),36	11345,(3, 22),28	11373,(3, 24),2	11383,(3, 41),2	11387,(3, 52),4	11391,(3, 54),4	11395,(3, 57),64	11481,(80, 81),100	11581,(28, 81),100	11681,(32, 81),100	11781,(59, 81),100	11881,(9, 81),100	11981,(40, 81),100	12081,(4, 62),338	12419,(43, 81),100	12519,(72, 81),100	12619,(8, 17),80	12699,(8, 25),208	12907,(8, 41),26	12933,(8, 52),36	12969,(8, 67),40	13009,(11, 81),100	13109,(10, 81),100	13209,(66, 81),100	13309,(26, 81),100	13409,(42, 81),100	13509,(35, 81),100	13609,(38, 81),100	13709,(27, 81),100	13809,(70, 81),100	13909,(60, 81),100	14009,(34, 81),100	14109,(75, 81),100	14209,(21, 81),100	14309,(58, 81),100	14409,(64, 81),100	14509,(47, 81),100	14609,(65, 81),100	14709,(79, 81),100	14809,(76, 81),100	14909,(31, 81),100	15009,(39, 81),100	15109,(45, 81),100	15209,(46, 81),100	15309,(51, 81),100	15409,(53, 81),100	15509,(56, 81),100	15609,(61, 81),100	15709,(71, 81),100	15809,(19, 81),100	15909,(44, 81),100	16009,(50, 81),100	16109,(73, 81),100	16209,(14, 81),100	16309,(16, 81),100	16409,(20, 81),100	16509,(29, 81),100	16609,(37, 81),100	16709,(48, 81),100	16809,(63, 81),100	16909,(68, 81),100	17009,(69, 81),100	17109,(74, 81),100	17209,(77, 81),100	
619,(1, 65),18	637,(1, 79),2	639,(4, 11),18	657,(6, 11),8	665,(7, 26),2	671,(4, 26),2	673,(6, 26),4	677,(6, 38),2	679,(6, 60),2	681,(6, 64),2	683,(6, 75),2	687,(6, 79),4	699,(4, 58),2	701,(4, 64),2	703,(4, 76),2	705,(6, 47),22	727,(6, 65),22	749,(7, 65),20	769,(7, 79),18	787,(8, 76),2	
1,(0, 1),132	397,(0, 7),132	661,(2, 10),12	685,(6, 77),2	689,(4, 42),2	691,(4, 50),6	697,(4, 56),2	705,(8, 27),4	709,(8, 31),12	721,(8, 50),10	731,(8, 51),2	733,(8, 56),4	737,(8, 63),4	741,(8, 77),2	749,(6, 69),12	10635,(2, 31),2	10637,(2, 39),24	10661,(2, 45),46	10707,(2, 46),58	10773,(2, 51),10	10783,(2, 53),56	10841,(2, 56),2	10865,(2, 61),16	11005,(2, 77),44	11287,(5, 50),2	11333,(3, 14),2	11459,(3, 63),4	11471,(3, 69),6	11479,(3, 77),2	
133,(0, 4),132	461,(1, 21),2	515,(1, 48),4	529,(0, 8),132	661,(1, 66),2	665,(6, 16),4	669,(6, 20),2	671,(6, 35),2	673,(2, 16),18	691,(6, 21),4	695,(7, 29),4	699,(7, 44),8	707,(7, 73),8	761,(6, 74),14	10565,(2, 29),70	10881,(2, 71),12	10893,(2, 74),112	11049,(5, 16),2	11151,(5, 19),2	11153,(5, 29),2	11271,(5, 44),16	11293,(5, 68),2	11295,(5, 73),2	11335,(3, 16),8	11343,(3, 20),2	11375,(3, 29),4	11379,(3, 37),4	11385,(3, 48),2	11463,(3, 68),8	11477,(3, 74),2	
# Outgoing
657,(6, 11),8	665,(6, 16),4	669,(6, 20),2	671,(6, 35),2	673,(6, 26),4	677,(6, 38),2	679,(6, 60),2	681,(6, 64),2	683,(6, 75),2	685,(6, 77),2	687,(6, 79),4	691,(6, 21),4	705,(6, 47),22	727,(6, 65),22	749,(6, 69),12	761,(6, 74),14	
1,(0, 1),132	133,(0, 4),132	265,(0, 6),132	397,(0, 7),132	529,(0, 8),132	661,(2, 10),12	673,(2, 16),18	691,(2, 17),2	693,(2, 18),4546	5239,(2, 22),5232	10471,(2, 23),32	10503,(2, 24),62	10565,(2, 29),70	10635,(2, 31),2	10637,(2, 39),24	10661,(2, 45),46	10707,(2, 46),58	10765,(2, 49),8	10773,(2, 51),10	10783,(2, 53),56	10839,(2, 55),2	10841,(2, 56),2	10843,(2, 57),22	10865,(2, 61),16	10881,(2, 71),12	10893,(2, 74),112	11005,(2, 77),44	11049,(5, 16),2	11051,(5, 18),100	11151,(5, 19),2	11153,(5, 29),2	11155,(5, 36),68	11223,(5, 41),48	11271,(5, 44),16	11287,(5, 50),2	11289,(5, 52),2	11291,(5, 67),2	11293,(5, 68),2	11295,(5, 73),2	11297,(3, 12),36	11333,(3, 14),2	11335,(3, 16),8	11343,(3, 20),2	11345,(3, 22),28	11373,(3, 24),2	11375,(3, 29),4	11379,(3, 37),4	11383,(3, 41),2	11385,(3, 48),2	11387,(3, 52),4	11391,(3, 54),4	11395,(3, 57),64	11459,(3, 63),4	11463,(3, 68),8	11471,(3, 69),6	11477,(3, 74),2	11479,(3, 77),2	11481,(80, 81),100	11581,(28, 81),100	11681,(32, 81),100	11781,(59, 81),100	11881,(9, 81),100	11981,(40, 81),100	13009,(11, 81),100	13309,(26, 81),100	13609,(38, 81),100	13909,(60, 81),100	14109,(75, 81),100	14309,(58, 81),100	14409,(64, 81),100	14509,(47, 81),100	14609,(65, 81),100	14709,(79, 81),100	14809,(76, 81),100	
397,(1, 12),28	425,(1, 17),36	461,(1, 21),2	463,(1, 25),28	491,(1, 36),24	515,(1, 48),4	519,(1, 49),100	619,(1, 65),18	637,(1, 79),2	639,(7, 12),2	661,(1, 66),2	665,(7, 26),2	695,(7, 29),4	699,(7, 44),8	707,(7, 73),8	749,(7, 65),20	769,(7, 79),18	10731,(7, 17),18	10773,(7, 30),48	10965,(7, 41),26	10991,(7, 62),28	11019,(7, 67),26	12419,(43, 81),100	12519,(72, 81),100	13109,(10, 81),100	13409,(42, 81),100	13709,(27, 81),100	14909,(31, 81),100	15009,(39, 81),100	15109,(45, 81),100	15209,(46, 81),100	15309,(51, 81),100	15409,(53, 81),100	15509,(56, 81),100	15609,(61, 81),100	16009,(50, 81),100	16209,(14, 81),100	16809,(63, 81),100	17009,(69, 81),100	17209,(77, 81),100	
639,(4, 11),18	657,(4, 23),2	659,(4, 25),12	671,(4, 26),2	673,(4, 41),16	689,(4, 42),2	691,(4, 50),6	697,(4, 56),2	699,(4, 58),2	701,(4, 64),2	703,(4, 76),2	705,(8, 27),4	709,(8, 31),12	721,(8, 50),10	731,(8, 51),2	733,(8, 56),4	737,(8, 63),4	741,(8, 77),2	787,(8, 76),2	10565,(4, 17),66	10631,(15, 81),100	10749,(8, 12),16	10821,(8, 23),10	10831,(8, 33),2	10865,(78, 81),100	12081,(4, 62),338	12619,(8, 17),80	12699,(8, 25),208	12907,(8, 41),26	12933,(8, 52),36	12969,(8, 67),40	13209,(66, 81),100	13509,(35, 81),100	13809,(70, 81),100	14009,(34, 81),100	14209,(21, 81),100	15709,(71, 81),100	15809,(19, 81),100	15909,(44, 81),100	16109,(73, 81),100	16309,(16, 81),100	16409,(20, 81),100	16509,(29, 81),100	16609,(37, 81),100	16709,(48, 81),100	16909,(68, 81),100	17109,(74, 81),100	
